	Host 1	Host 2	Host 3	Host 4	Host 5	Host 6	Host 7	Host 8	Host 9	Host 10	Host 11	Host 12	Host 13	Host 14	Host 15	Host 16	Host 17	Host 18	Host 19	Host 20	Host 21	Host 22	Host 23	Host 24	Host 25	Host 26	Host 27	Host 28	Host 29	Host 30	Host 31	Host 32	Host 33	Host 34	Host 35	Host 36	Host 37	Host 38	Host 39	Host 40	Host 41	Host 42	Host 43	Host 44	Host 45	Host 46	Host 47	Host 48	Host 49	Host 50	
OTU 1	0	95	86	25	21	0	4	161	66	146	6	62	1	55	31	58	16	2	29	67	0	32	3	58	60	39	28	13	14	84	43	21	74	40	87	34	137	38	41	31	74	61	94	26	36	76	31	0	2	27
OTU 2	0	39	70	0	8	12	0	6	3	3	2	16	10	0	4	0	18	40	9	15	13	1	0	0	16	38	13	97	0	2	53	0	16	0	0	28	14	11	1	13	3	9	4	3	1	0	0	7	0	29
OTU 3	2	34	13	6	2	44	4	0	8	1	19	243	152	2	13	1	0	3	21	25	0	0	0	0	3	0	0	2	30	6	0	0	17	0	0	0	8	4	11	12	32	27	1	4	75	34	1	22	4	1
OTU 4	0	0	0	0	0	0	0	0	0	0	0	0	0	0	0	0	0	0	0	0	0	0	0	0	0	0	0	0	0	0	0	0	4	0	0	0	0	0	0	0	0	0	0	0	0	0	0	0	0	0
OTU 5	69	6	668	111	31	523	108	534	0	1048	253	932	312	439	824	497	763	17	293	214	51	80	1	329	182	47	586	7	83	0	245	142	719	179	0	43	266	446	31	270	176	1	290	109	289	25	380	5	944	171
OTU 6	3	14	1	0	3	68	28	19	1	25	2	99	70	0	2	26	1	6	5	2	54	2	55	1	3	2	0	29	7	86	15	5	16	0	4	0	8	7	14	22	3	32	21	1	4	29	0	0	4	12
OTU 7	27	20	25	192	72	34	28	145	59	33	213	41	85	17	24	103	116	104	13	5	191	13	101	257	87	427	6	168	8	205	272	16	39	266	47	81	67	16	62	137	35	20	66	41	42	517	2	377	40	5
OTU 8	22	59	36	40	29	14	433	21	59	45	133	12	26	7	55	16	105	2	9	83	19	211	49	17	10	1	221	6	143	20	1796	226	8	33	109	52	23	4	0	139	128	33	60	40	130	16	17	115	143	213
OTU 9	0	79	8	4	5	33	63	14	1	1	2	29	0	2	13	9	0	24	8	3	3	0	66	4	1	35	0	29	4	62	0	45	0	20	14	115	22	0	31	118	17	0	2	12	16	582	10	63	20	18
OTU 10	0	6	2	35	24	17	5	12	3	14	0	0	38	0	0	0	3	0	0	0	2	0	10	4	0	1426	1	411	2	19	0	1	0	2156	8	347	0	3	30	21	0	1	0	0	0	29	3	10	8	3
OTU 11	170	33	2	1	0	105	37	5	20	35	8	136	0	28	32	0	4	362	1	54	0	42	59	0	65	7	1	6	7	95	25	35	17	26	53	3	9	4	73	12	63	40	28	7	67	11	5	144	73	3
OTU 12	259	32	59	143	44	6	41	57	18	1	12	2	168	11	54	18	121	131	19	33	19	45	37	66	15	4	49	19	51	83	61	35	36	39	74	9	16	5	44	39	122	23	45	0	43	13	87	26	3	1
OTU 13	4	3	0	0	0	3	0	0	0	0	34	0	1	0	0	0	0	0	0	0	0	0	0	0	4	0	16	0	0	13	0	9	0	7	8	0	0	0	4	0	0	0	0	0	0	0	0	0	0	0
OTU 14	1	4	0	37	1	0	2	22	51	2	57	29	2	10	0	18	1	31	0	6	15	39	10	3	0	35	0	24	16	1	8	4	0	0	2	38	3	0	0	7	0	6	28	0	31	2	4	11	58	0
OTU 15	0	0	0	0	0	0	0	0	3	0	0	0	0	0	0	1	12	0	0	150	0	0	0	3	0	0	3	0	0	0	0	0	0	24	1	0	25	0	0	0	0	2	7	6	0	21	0	1	0	0
OTU 16	0	0	0	3	1	0	0	0	0	0	0	0	0	0	0	0	0	0	0	3	0	0	0	0	0	0	0	2	0	0	0	0	1	0	1	0	0	0	0	0	0	0	0	0	0	0	0	0	0	0
OTU 17	23	3	81	57	3	1	4	12	3	5	25	6	186	8	17	1	57	1	50	194	0	46	21	222	1	43	26	58	0	28	38	38	0	7	275	11	200	2	0	55	46	36	13	132	366	21	21	33	32	6
OTU 18	15	100	16	23	406	26	5	89	17	17	41	25	12	7	7	37	82	37	10	3	5	157	6	1	41	20	14	25	96	28	4	20	8	32	42	0	9	3	19	23	16	77	34	2	90	24	86	73	25	596
OTU 19	0	0	0	0	0	20	0	0	0	0	0	0	0	0	0	0	0	0	0	0	0	0	0	0	0	0	0	0	0	0	0	0	0	0	0	0	0	0	0	0	0	0	0	0	0	0	0	0	0	0
OTU 20	9	36	60	29	46	0	6	45	69	1	15	18	18	0	30	22	11	69	16	144	60	71	53	103	38	56	33	16	1	115	79	37	2	17	118	13	48	0	28	25	59	25	79	21	8	66	31	568	1	3
OTU 21	23	3	38	34	7	110	59	22	46	60	5	264	111	31	26	598	11	66	39	43	6	2	90	0	16	9	17	0	59	29	38	112	1	25	76	19	13	2	4	63	50	1	34	24	18	72	38	30	10	4
OTU 22	91	41	24	17	18	1	19	14	222	1783	10	55	138	1105	7	2	5	80	12	2	13	107	15	43	25	2	17	19	4	55	36	42	38	72	14	4	26	10	35	3	10	14	21	11	59	12	54	31	10	0
OTU 23	50	5	13	1	121	92	35	4	0	1	0	68	4	6	5	1363	4	9	10	31	1	0	15	5	1	54	12	0	50	48	0	21	1	0	0	29	49	1	9	11	4	39	0	8	1	13	49	0	9	24
OTU 24	53	4	0	99	18	188	2	0	10	336	0	237	0	149	0	2	12	24	0	0	4	14	152	0	8	0	2	6	2	92	5	1	8	9	1	5	16	1	47	14	0	1	7	1	21	0	1	6	0	0
OTU 25	0	423	0	0	0	0	0	0	0	0	0	0	0	0	0	0	0	0	0	0	0	0	0	42	0	4	0	0	37	0	0	0	0	0	4	0	0	0	0	0	0	0	0	0	0	0	2	0	0	0
OTU 26	0	1	0	0	3	0	3	0	7	0	0	0	2	11	0	0	0	1	0	1	0	0	7	8	0	8	103	9	0	27	0	0	0	0	0	0	0	0	7	72	1	0	0	0	0	0	0	0	0	0
OTU 27	0	0	0	0	0	0	0	1	0	0	0	0	0	0	2	0	0	0	0	0	100	0	4	0	0	0	0	0	2	0	0	0	0	0	0	0	0	0	0	1	3	0	0	0	0	0	0	0	0	37
OTU 28	129	21	58	6	326	9	49	16	292	17	36	11	14	454	7	11	110	100	26	48	211	32	145	30	24	143	12	4	61	89	11	55	8	5	102	2	61	7	41	60	9	67	12	23	40	3934	0	17	10	9
OTU 29	305	66	16	19	138	3	112	4	32	156	30	3	127	63	4	1	25	27	13	71	43	36	17	25	9	4	84	27	85	0	0	22	12	9	2	4	113	8	4	36	10	16	3	49	0	3	11	1	9	49
OTU 30	0	0	0	0	0	0	0	0	0	0	0	0	11	0	0	0	0	0	0	0	0	0	0	0	0	0	1	0	0	0	0	3	0	0	0	0	1	0	0	0	0	0	0	0	0	0	0	0	1	0
OTU 31	3	56	7	14	0	14	14	110	61	4	15	68	96	10	10	19	11	131	0	1	1	12	0	15	2722	0	0	5	1	31	0	19	0	1	0	1	8	0	33	39	16	5	38	0	0	19	20	7	125	1951
OTU 32	104	50	6	25	522	35	76	47	23	41	223	29	184	12	0	32	88	44	20	4	10	12	186	5	15	2	70	2	22	7	23	6	27	0	7	13	14	12	6	55	0	105	24	5	66	7	14	86	179	6
OTU 33	0	3	0	0	2	0	0	0	0	0	0	0	0	0	6	2	0	0	0	0	3	0	0	0	0	0	7	0	0	0	3	0	0	3	0	0	0	0	0	0	4	0	0	0	0	38	0	0	83	0
OTU 34	283	113	9	127	124	6	320	25	0	20	4	1	257	17	0	17	6	178	13	7	49	2	6	565	7	415	7	2321	16	0	216	24	10	828	8	288	6	2	2	6	1	3	52	0	39	0	3	24	188	28
OTU 35	12	7	1	8	11	1	48	7	8	29	33	84	32	0	1	8	1	36	1	24	0	1	46	6	67	20	11	2	7	2	19	78	0	14	17	480	22	6	0	15	5	1	25	5	18	45	1	9	12	34
OTU 36	31	0	9	7	18	391	33	2	1	55	14	1	8	10	15	5	139	11	43	12	21	2	17	330	0	177	1	49	10	125	380	75	3	504	69	60	76	0	63	58	26	0	0	16	4	23	2	64	87	5
OTU 37	0	4	3	8	0	0	0	23	77	6	14	6	1	0	0	0	0	4	23	4	2	7	96	0	52	6	10	18	5	0	38	2	4	8	0	15	0	0	0	143	0	63	54	1	0	33	0	0	0	32
OTU 38	54	230	79	3	22	19	6	24	71	17	30	26	45	10	11	15	9	26	13	47	22	31	105	6	0	5	90	0	39	1	49	61	16	34	145	60	11	3	1	0	31	26	9	1	39	12	104	33	39	2
OTU 39	4	36	0	0	2	0	57	1	10	1	3	0	12	0	0	0	0	0	0	0	0	0	0	7	0	2	1	0	0	0	2	103	0	3	0	0	3	0	2	0	0	3	0	3	0	5	23	2	1	0
OTU 40	342	7	45	11	215	1	1	20	4	20	15	28	65	29	20	24	7	96	15	16	52	18	29	16	1	88	78	58	69	11	19	4	49	11	11	22	13	45	6	145	36	12	1	5	0	15	10	29	59	39
OTU 41	39	113	0	30	18	1507	79	35	4	20	15	38	71	4	0	4	2	10	1	1	39	7	3	0	19	6	15	4	73	0	4	10	5	5	6	0	1	7	0	36	0	62	11	11	12	4	0	6	24	1
OTU 42	0	0	0	0	4	0	1	22	102	0	3	0	0	20	9	8	0	23	0	33	31	7	43	12	0	1	0	0	22	0	0	0	0	3	38	0	0	0	0	0	32	0	1	1	0	0	0	8	1	0
OTU 43	0	0	0	0	0	2	0	0	0	0	0	0	0	0	0	0	0	0	2	0	0	2	2	0	0	44	0	0	0	0	0	0	1	0	0	0	1	0	0	0	0	0	0	0	0	0	0	0	1	28
OTU 44	0	0	1	0	8	7	0	1	0	0	0	13	0	4	21	0	51	5	1	0	0	2	12	6	0	1	2	0	2	0	33	18	9	17	5	0	0	12	0	0	41	5	0	1	0	1	0	2	0	0
OTU 45	477	103	245	8	491	49	14	157	6	4	180	16	4	32	128	39	78	57	81	9	36	230	27	4	82	1	1	0	6	3	78	257	75	27	39	13	23	24	1	42	266	54	55	10	8	3	10	25	1192	38
OTU 46	25	7	17	18	13	41	13	92	51	0	3	13	2	22	16	100	76	137	3	46	29	10	109	56	35	66	11	38	17	2	17	49	12	12	66	3	17	8	4	12	30	37	2623	16	120	2	97	3	36	3
OTU 47	242	0	0	0	0	1	19	0	0	8	1	2	4	0	1	0	0	10	0	0	0	0	0	0	0	0	23	0	0	0	0	0	0	0	1	3	0	0	0	3	1	1	0	8	1	19	3	7	1	0
OTU 48	15	20	185	55	5	0	856	58	42	35	69	3	182	16	0	13	16	10	48	14	0	99	25	138	6	133	1	10	39	36	50	19	54	23	64	4	4	22	19	24	0	58	2	4	52	54	27	44	174	15
OTU 49	26	10	1	12	4	0	2	5	6	0	23	0	10	4	1	0	17	35	0	37	5	6	0	0	0	0	7	0	19	12	3	39	0	1	31	3	6	1	0	5	4	1	0	0	2	16	32	0	1	3
OTU 50	13	40	18	103	43	7	60	91	25	33	11	25	44	7	42	90	8	48	12	19	245	12	130	30	7	2	9	6	35	6	6	60	0	15	66	9	23	1	0	65	74	117	87	2	52	17	10	47	6	12
OTU 51	11	4	9	3	18	8	1	0	62	3	14	1	1	16	15	0	1	0	1	5	70	2	60	4	10	4	54	4	4	50	47	63	88	3	152	41	78	36	8	20	20	64	6	65	13	1	0	9	0	47
OTU 52	48	13	20	63	150	250	72	10	76	18	36	273	33	24	6	8	0	108	20	1	208	4	14	91	59	39	231	20	9	244	67	97	115	17	38	44	22	68	386	86	16	71	55	18	83	37	32	80	131	14
OTU 53	0	0	0	0	0	0	0	0	0	0	0	0	0	1	0	0	0	0	0	0	0	0	0	0	0	0	0	3	0	0	0	0	0	0	0	0	40	0	0	0	0	13	0	1	1	0	0	2	0	0
OTU 54	176	47	24	9	95	76	26	18	20	33	138	436	147	13	2	4	93	4	25	3	55	68	82	62	8	5	35	16	84	100	43	60	177	19	161	1353	114	70	52	2	11	30	48	23	0	46	110	247	1	19
OTU 55	0	0	0	0	0	0	0	0	0	0	0	0	0	0	0	0	0	0	0	0	0	0	0	0	280	0	0	0	0	0	0	0	0	0	0	0	0	0	0	0	0	0	0	0	0	0	0	0	0	74
OTU 56	0	6	103	28	0	90	41	41	22	9	2	46	6	0	1	1	12	35	20	4	19	0	8	6	115	59	2	26	0	0	8	16	16	34	0	3	0	8	0	100	2	5	4	0	24	0	8	14	24	43
OTU 57	124	143	4	134	218	113	54	239	44	95	193	203	168	53	34	142	50	100	11	36	176	68	25	101	109	120	22	48	10	28	1432	155	39	36	616	35	71	13	15	183	92	72	92	62	73	168	233	136	180	64
OTU 58	6	4	0	1	17	10	13	2	46	44	0	59	23	0	19	0	0	7	13	0	24	2	1	70	1	23	19	24	41	49	52	113	101	79	0	15	45	35	60	2	31	7	34	0	23	62	25	0	31	2
OTU 59	46	24	5	3	0	3	1	1	38	4	84	4	99	1	12	4	172	2	0	81	9	0	262	37	5	16	0	45	54	51	8	25	29	24	126	41	4	17	48	40	17	35	0	0	153	0	0	1	0	0
OTU 60	25	4	58	19	47	70	96	129	87	10	53	73	24	1	1437	114	100	29	18	166	91	371	2	40	1229	65	49	1	22	36	61	111	19	13	51	26	56	1	5	39	2838	95	76	43	55	41	35	47	48	787
OTU 61	254	127	126	77	26	20	35	11	108	20	32	30	12	5	47	3	4	43	68	140	7	242	4	22	10	13	7	67	33	155	8	2	42	9	31	17	75	1662	80	44	93	37	6	59	4	10	1656	162	24	42
OTU 62	0	0	0	0	1	1	0	25	70	10	0	0	0	5	0	2	0	3	1	1	4	35	0	13	1	4	69	0	5	2	0	0	97	0	0	5	0	61	4	8	0	0	14	0	0	0	1	0	64	54
OTU 63	94	76	44	0	73	1	2	0	1	34	156	6	42	24	0	2008	55	23	18	1	0	15	1823	0	27	2	15	2	0	0	4	1146	7	4	44	0	3	8	0	220	0	0	3	19	21	24	0	28	18	7
OTU 64	48	8	57	136	63	63	170	78	17	23	1755	68	5	0	12	14	57	8	49	57	67	128	40	67	74	3	33	0	93	110	5	160	21	9	68	1	2	13	45	29	52	84	107	7	24	93	56	45	75	3
OTU 65	0	12	0	0	170	3	0	0	34	0	0	0	32	0	0	0	8	19	0	0	2	14	0	0	0	0	11	0	0	0	0	0	0	0	0	0	0	0	0	0	0	31	0	0	0	0	0	0	0	0
OTU 66	17	4	5	28	12	29	18	0	998	6	1	132	220	4	1	2	722	110	0	130	67	59	264	93	0	79	52	28	18	5	14	127	38	123	13	26	25	31	0	2	3	43	11	11	59	0	1	25	26	24
OTU 67	14	35	33	93	12	49	7	22	40	0	20	25	2	1	11	42	36	2	25	490	2	77	3	70	33	1	31	26	2	198	31	34	16	25	19	29	357	2	97	28	21	5	34	170	659	28	1	2	0	0
OTU 68	0	0	0	134	130	0	48	244	11	116	228	0	33	10	2	170	32	36	1	1	0	19	1	11	2	0	1	0	1	2	30	16	1	24	1	9	0	0	6	119	5	6	142	0	185	143	41	0	43	6
OTU 69	2	22	29	5	55	92	2	94	15	24	58	123	86	9	43	52	32	23	29	3	2108	56	42	0	28	42	3	6	44	300	10	34	3	39	246	122	62	1	128	21	85	62	95	0	13	1	1	188	30	36
OTU 70	17	11	12	2	6	0	79	107	51	40	82	0	98	32	67	17	28	185	6	2	7	2	25	0	26	32	0	0	0	5	1	7	0	9	5	36	0	0	5	0	126	14	56	0	12	0	39	0	0	0
OTU 71	41	5	101	16	577	46	10	0	57	17	0	19	3	15	10	7	1	6	71	3	5	0	12	0	3	0	0	2	2	1	0	5	0	9	14	0	1	0	0	92	20	0	7	1	1	1	2	7	111	3
OTU 72	41	14	44	52	74	14	10	193	1	7	35	78	8	14	16	64	44	157	27	26	1	19	22	5	17	10	12	28	3	0	4	106	33	1	111	0	5	16	8	104	20	35	66	18	4	17	4	77	0	3
OTU 73	52	33	19	14	5	5	76	98	48	0	3	2	264	6	55	77	0	3	4473	84	6	96	45	5	36	11	333	7	12	227	28	18	20	16	120	0	22	10	94	27	110	15	9	19	6	2	72	10	5	14
OTU 74	7	5	1	23	86	5	71	19	9	1	4	20	120	3	4	28	21	141	0	15	6	1	6	20	22	54	44	19	5	6	22	0	24	172	0	50	2	10	2	33	4	23	3	11	35	30	9	2	38	3
OTU 75	9	21	13	291	48	45	36	76	76	260	212	64	82	127	32	41	130	4	10	63	120	43	11	27	84	19	7	11	21	7	18	89	18	48	107	35	5	8	10	87	71	338	14	0	43	69	77	0	37	11
OTU 76	5	1	0	0	0	2	10	3	11	2	0	0	2	10	3	5	13	1	4	10	5	0	11	24	3	7	1	0	0	28	58	1	0	13	183	12	0	0	12	41	8	12	5	3	0	2	0	4	5	0
OTU 77	187	22	30	158	1	16	811	30	22	90	10	35	15	50	3	42	37	2	13	1	3	37	94	63	8	58	3	91	10	12	40	27	0	54	10	33	48	0	15	37	4	393	1	14	51	8	68	85	75	9
OTU 78	29	74	5	117	164	1	86	44	39	13	80	46	6	0	0	24	12	118	0	92	77	3	26	3	10	15	219	10	7	4	0	130	31	3	151	2	79	9	0	96	0	0	41	25	36	0	27	36	1640	1
OTU 79	146	69	181	493	75	2346	38	163	88	153	1233	218	220	91	81	58	53	126	90	25	128	183	221	18	282	93	491	117	139	64	36	178	614	132	585	88	86	324	31	931	163	125	121	94	44	701	76	315	31	135
OTU 80	69	50	49	40	18	33	14	33	29	18	56	1	0	4	5	18	35	196	38	1	55	81	316	55	123	7	56	0	213	17	57	77	215	4	7	1	13	151	11	185	6	32	6	18	158	23	9	27	5	5
OTU 81	123	48	13	144	53	0	9	112	97	19	64	1	27	5	13	55	41	233	5	34	21	4	111	25	22	0	56	16	47	10	10	251	12	39	11	9	3	125	0	98	35	25	154	2	32	21	250	246	29	32
OTU 82	188	58	57	0	0	39	0	126	1	84	0	112	4	22	32	74	7	240	18	2	9	30	2	3	71	16	20	14	913	202	6	13	1023	90	1	2	2	572	109	77	49	10	24	0	60	32	93	18	141	3
OTU 83	0	0	0	3	0	0	15	13	10	1	0	0	0	13	0	0	137	0	0	0	0	0	2	0	28	32	8	18	2	0	0	0	1	14	0	3	0	0	0	0	0	52	0	0	6	0	8	175	49	2
OTU 84	7	28	0	6	20	17	3	19	2	1	2	14	6	0	36	0	38	17	2	6	4	31	398	59	4	1	11	2	0	1	1	24	0	14	67	1887	95	0	13	27	82	2	1	100	3	0	7	0	28	0
OTU 85	2	34	19	1618	0	19	1	0	37	0	0	0	0	0	0	0	0	0	18	1	47	8	17	8	1	54	0	45	3	2	41	0	22	0	3	191	0	9	0	9	2	4	2	0	20	153	3	1	0	14
OTU 86	0	0	0	0	0	0	0	0	0	0	1	0	0	0	0	0	0	0	1	0	0	0	0	0	0	0	12	0	0	92	0	1	0	1	29	0	0	0	32	0	0	0	0	0	0	0	0	0	1	0
OTU 87	232	82	3	29	12	8	87	0	0	0	2	65	47	3	5	0	1	191	0	0	0	0	8	3	15	1	0	2	8	2	31	0	0	0	0	1	0	0	2	16	8	6	19	0	5	0	8	10	1	0
OTU 88	0	0	1	0	18	7	0	0	183	0	5	52	0	0	0	2	2	0	0	8	28	27	4	1	0	0	0	0	0	0	0	0	1737	1	0	0	0	880	0	0	0	0	1	0	4	0	0	0	0	2
OTU 89	588	18	4	0	0	1	32	5	0	0	66	1	0	0	0	0	16	394	7	1	167	89	0	10	2	18	3	15	36	23	5	0	3	2	20	1	30	0	8	0	0	0	0	3	3	2	0	47	15	3
OTU 90	0	0	0	4	0	0	3	4	0	0	0	0	2	11	41	12	0	0	0	0	442	10	0	0	0	0	12	3	0	0	9	0	0	6	0	0	0	0	0	0	95	0	0	0	0	0	0	0	2	0
OTU 91	0	0	0	1	28	0	0	0	0	0	11	0	0	0	2	0	0	0	0	0	0	0	0	0	0	0	2	0	0	0	0	0	1	0	1	0	0	0	0	0	3	0	0	1	15	0	0	0	0	0
OTU 92	0	1	0	0	3	6	1	0	19	6	29	4	3	1	0	0	2	22	0	4	0	69	1	20	1	1	3	0	1	0	1	6	0	2	54	1	30	0	3	78	0	6	22	3	0	3	16	42	7	0
OTU 93	0	3	0	0	22	0	0	6	0	0	0	0	0	0	0	1	0	26	0	0	0	1	0	0	0	0	0	0	0	1	0	0	0	0	0	6	0	0	0	115	2	0	0	0	40	0	1	0	0	9
OTU 94	53	18	24	16	1	34	201	123	0	29	70	10	12	52	0	126	86	79	18	162	26	1	47	0	38	6	34	1	14	123	0	7	4	26	13	4	23	0	78	136	2	49	23	4	52	12	122	1	54	71
OTU 95	1	0	1	2	15	0	0	663	0	117	3	2	384	50	125	229	0	0	0	0	0	36	31	3	120	6	20	3	0	0	0	0	6	0	59	0	0	0	0	0	294	7	395	0	12	2	318	0	33	119
OTU 96	4	0	0	0	0	0	0	4	0	1	3	0	0	0	0	0	7	64	0	19	0	0	55	0	0	0	0	0	0	2	14	0	12	9	0	0	0	5	2	0	5	0	6	1	10	0	0	0	0	38
OTU 97	24	1	0	7	0	0	0	6	0	0	0	0	3	0	0	18	10	0	5	13	18	0	80	0	1	7	0	0	10	0	4	0	6	0	8	0	15	2	1	0	0	0	6	5	0	6	11	62	0	2
OTU 98	3	32	12	0	21	0	0	32	146	0	21	3	0	1	7	1	0	0	3	52	15	5	0	0	0	0	0	17	16	18	0	34	0	48	0	0	19	2862	3	48	12	3	0	0	64	0	22	16	0	11
OTU 99	62	52	56	15	64	75	164	296	81	15	12	118	130	540	39	162	79	2	16	55	96	3254	52	111	15	52	66	2	71	116	15	64	52	19	85	56	63	52	46	19	70	109	86	52	6	2	50	5	84	40
OTU 100	26	44	38	48	88	20	14	81	42	20	78	0	134	1	42	5	3	28	22	86	31	9	24	116	9	1	12	0	11	0	35	62	47	8	122	6	13	15	0	14	93	4	48	9	27	2	23	0	0	24
OTU 101	0	0	0	14	0	0	0	0	0	0	0	0	0	0	0	0	0	2	0	0	109	6	0	0	0	10	15	8	0	0	1	0	0	10	25	16	0	0	0	0	0	0	0	3	0	0	0	27	0	4
OTU 102	0	0	0	6	0	1	0	0	0	5	0	0	0	20	0	1	105	3	1	0	0	22	2	1	0	0	1	0	3	0	16	39	68	6	0	0	0	28	8	0	0	0	0	1	0	2	0	27	3	6
OTU 103	61	65	22	3	14	4	54	5	0	21	6	0	21	19	0	2	44	5	13	42	38	11	16	2	0	33	17	9	18	80	0	0	3	5	18	0	3	12	55	18	0	2915	0	3	0	9	37	83	4	12
OTU 104	128	34	36	182	58	673	132	189	35	8	6	719	11	30	7	82	56	2	68	12	110	16	114	28	25	49	28	16	51	16	41	33	5	7	92	9	94	4	22	8	8	25	57	63	0	33	210	124	21	36
OTU 105	31	0	74	1	1	2	0	0	0	0	0	95	0	0	0	0	0	0	56	2	48	16	13	0	0	0	106	0	9	14	2	1	0	1	0	2	0	0	2	0	0	2	1	1	3	0	0	0	0	0
OTU 106	0	6	31	0	1	0	0	7	0	1	0	2	3	33	1	11	0	0	11	0	0	2	0	0	0	46	0	1	0	0	0	0	0	50	0	0	0	0	0	0	7	0	2	1	0	0	10	0	0	0
OTU 107	8	0	0	2	2	104	61	4	105	1	0	110	47	0	8	1	11	34	1	0	0	0	30	107	0	17	2	0	0	7	1	1	4	1	1	0	0	10	0	0	11	24	3	0	9	0	5	94	5	0
OTU 108	2	183	0	0	34	4	86	22	28	18	80	0	0	70	3	19	543	2	1	27	68	10	2	249	3	149	0	88	5	0	84	7	16	230	2	198	0	5	1	1	2	3	4	5	0	28	27	29	7	21
OTU 109	0	0	0	0	6	0	0	0	34	0	0	0	0	0	0	0	0	0	0	0	0	0	0	2	0	0	0	0	1	2	0	0	0	1	0	0	0	0	0	0	0	2	0	0	0	0	0	29	0	0
OTU 110	397	39	80	59	9	39	21	9	12	51	63	17	63	23	7	5	9	61	24	2	50	93	0	12	48	4	5	17	59	11	5	41	43	3	39	5	112	10	8	0	19	0	11	78	10	25	0	130	9	9
OTU 111	0	0	0	0	12	13	0	0	1	0	6	0	0	0	3	5	0	0	0	0	129	0	0	23	0	5	0	13	0	0	0	0	0	0	0	0	6	0	0	0	11	81	18	0	0	0	0	74	0	2
OTU 112	73	10	2	4	144	0	50	0	13	16	14	6	39	13	0	13	4	23	0	0	260	0	10	3	6	3	2	5	4	145	0	0	0	14	19	0	3	0	62	0	0	2	1	0	2	2	4	1	37	0
OTU 113	4	20	48	14	0	2	0	29	0	0	0	0	0	7	0	13	0	4	0	0	0	0	6	0	1	0	0	0	0	2	0	0	2	1	0	0	0	4	0	35	1	1	0	2	10	5	1	0	1	0
OTU 114	8	30	10	16	20	7	33	9	616	1	35	2	87	11	26	1	1331	33	12	170	217	115	104	16	43	8	32	19	51	191	3	283	15	123	0	4	96	140	143	29	54	43	11	88	23	12	12	135	106	45
OTU 115	62	72	35	121	97	209	139	8	47	9	58	115	93	10	43	10	52	84	20	55	87	46	83	52	79	52	120	2	41	32	52	6	12	88	40	33	80	0	9	109	98	28	6	36	16	70	7	192	147	20
OTU 116	32	8	7	25	20	30	100	5	86	11	19	109	25	12	24	4	1	53	10	146	51	0	1	39	71	22	38	2072	67	12	9	19	8	74	30	6	3	6	3	0	36	10	1	16	27	12	64	119	6	6
OTU 117	3	16	16	7	24	5	12	3	166	5	0	12	2	1	0	1	12	33	6	12	50	91	16	51	23	2	47	2	0	59	11	228	11	1	4	13	47	3	12	105	1	24	0	11	9	59	13	204	4	1
OTU 118	1	0	1	0	3	41	0	0	0	0	0	24	2	0	1	0	0	0	28	0	0	0	0	9	0	24	20	9	1	161	0	0	8	0	0	7	0	1	1436	0	2	3	0	0	0	0	1	0	2	0
OTU 119	92	44	94	10	16	37	150	47	52	14	3	1	44	0	17	29	65	371	46	18	57	3	0	10	62	49	11	9	18	17	14	33	34	32	1	8	13	27	0	37	26	9	4	1	180	3	2	6	52	8
OTU 120	40	23	21	125	104	0	0	5	1	6	2	0	0	0	1	0	4	0	2	37	1	17	0	0	0	10	0	0	5	1	0	0	185	2	47	3	50	76	1	0	3	0	1	29	0	19	54	1	0	0
OTU 121	440	210	2	0	48	3	124	0	105	17	53	1	14	4	1	18	14	240	0	35	39	24	0	53	11	1	33	2	4	0	3	16	11	1	18	2	4	23	0	7	5	7	12	3	4	13	0	11	4	37
OTU 122	36	82	20	70	139	18	59	138	92	13	2	59	61	7	1596	81	38	0	2	18	152	56	131	10	37	2	22	0	1	62	3	5	6	77	40	8	30	5	53	13	78	42	74	8	70	12	132	3	1	44
OTU 123	108	191	150	27	865	81	130	113	238	47	101	204	102	8	24	15	118	28	41	24	601	156	388	145	73	76	151	67	122	806	96	163	131	173	189	64	24	48	399	309	42	98	38	2224	29	84	80	720	371	47
OTU 124	0	11	0	45	9	1	1	9	2	6	8	5	0	0	0	1	5	4	1	0	44	15	13	0	0	5	0	21	22	36	0	9	0	24	0	10	1	0	11	0	0	13	1	1	0	3	0	0	21	5
OTU 125	247	93	221	835	201	199	179	124	69	17	227	295	1847	25	525	35	353	189	76	66	269	112	86	32	79	25	200	28	976	158	113	98	2071	45	71	127	52	1040	3460	1580	156	287	99	2710	60	151	128	139	254	64
OTU 126	0	0	0	0	34	1	0	44	23	11	44	0	0	0	30	11	5	0	0	7	0	67	2	0	0	0	0	0	0	0	0	0	0	44	51	0	0	1	0	55	38	141	32	0	0	0	17	0	0	32
OTU 127	1	29	108	1	1	94	141	13	0	1	6	118	1	22	0	1	10	4	36	0	6	0	0	14	0	21	1	5	2	9	41	11	0	10	38	1	3	2	0	1	0	0	2	2	4	1	0	17	0	2
OTU 128	15	714	148	73	266	32	250	162	189	119	357	23	132	58	88	119	80	808	108	78	57	112	231	103	28	457	61	226	3394	236	350	225	12	607	170	207	208	12	91	70	168	283	83	210	39	42	516	286	57	81
OTU 129	0	124	0	2	1	9	0	230	0	178	4	23	219	8	24	289	3	0	2	6	5	9	0	0	64	0	0	4	0	0	0	27	0	0	0	17	0	0	0	0	42	0	296	0	0	0	221	23	6	138
OTU 130	74	1	166	13	34	0	37	25	0	2	84	4	0	16	1	15	34	18	55	8	3	35	0	22	0	3	7	17	110	3	3	52	82	36	4	0	6	61	2	78	4	420	0	9	21	4	19	50	2	10
OTU 131	10	13	7	79	10	164	34	148	90	15	12	645	9	42	81	109	18	0	0	6	0	2	31	12	26	0	3	10	5	3	9	18	30	36	153	12	28	20	1	9	133	36	62	11	33	25	64	530	19	23
OTU 132	0	5	0	75	6	0	0	1	0	3	78	6	23	0	4	0	1	2	0	8	0	0	45	47	0	0	76	6	2	31	48	12	3	51	0	4	46	1	16	149	12	28	0	17	10	34	5	141	0	2
OTU 133	64	0	115	0	12	0	1	0	0	4	6	0	0	3	0	0	0	0	17	10	0	0	0	2	0	11	0	0	0	0	0	0	15	0	1	0	14	8	0	1	1	0	0	18	226	0	0	0	0	2
OTU 134	13	45	9	6	20	20	32	107	56	1	369	104	78	27	94	20	16	64	25	136	28	11	2	200	61	18	31	18	4	1	55	32	0	69	12	24	95	0	0	3	185	360	57	60	34	7	9	58	21	2
OTU 135	58	39	4	46	17	8	5	8	97	5	33	1	1	4	6	13	32	24	7	37	72	3	3	12	9	23	0	2	5	34	19	18	26	14	39	2	3	11	28	3	6	49	4	2	0	88	10	21	13	0
OTU 136	11	4	1	11	56	1	39	7	5	16	39	40	40	0	0	9	7	16	0	668	10	0	0	30	2	0	23	11	42	3	0	0	14	11	137	12	516	3	0	17	0	9	8	173	868	0	0	15	1	0
OTU 137	2	1	0	6	42	65	102	0	0	945	0	60	51	664	15	0	8	0	0	1	3	14	0	0	2	17	28	5	5	0	0	9	0	1	1	3	0	0	6	4	43	0	0	0	0	268	9	8	1	0
OTU 138	0	95	0	17	62	7	27	0	123	7	10	5	7	3	1	0	0	6	0	18	0	2	1	0	0	20	23	0	0	0	8	9	0	15	17	0	35	0	0	0	1	4	9	5	6	16	0	18	7	0
OTU 139	198	92	101	123	218	29	118	205	330	116	20	103	47	83	32	57	12	124	40	25	39	643	55	1359	113	82	39	102	798	66	609	208	133	93	159	117	82	74	16	33	69	66	122	19	50	32	299	65	93	92
OTU 140	158	9	157	113	202	178	16	144	183	50	15	160	178	17	11	71	22	16	61	59	28	39	69	135	18	50	121	120	39	52	49	116	35	123	228	20	4144	14	37	189	19	205	34	2012	108	106	36	81	79	1
OTU 141	0	0	0	0	0	1	0	0	0	0	0	7	0	0	0	0	0	0	0	0	0	0	0	0	0	0	0	0	1	0	0	0	0	0	0	0	0	0	0	0	0	0	0	0	0	0	0	0	0	0
OTU 142	0	0	0	0	0	0	0	0	0	0	0	0	2	1	10	0	0	2	0	0	0	0	2	0	0	0	0	0	0	0	0	0	0	5	1	0	0	0	0	4	25	0	0	0	0	0	1	0	0	0
OTU 143	3	0	0	2	7	13	8	6	6	1	91	79	28	1	15	1	55	24	0	12	0	3	67	0	0	12	0	0	0	3	11	0	0	0	0	0	1	0	2	0	26	7	3	0	4	10	0	17	0	27
OTU 144	166	0	37	11	0	2	0	37	7	0	9	2	22	0	0	3	35	2	11	0	0	0	0	27	5	1	0	4	1	7	0	0	0	0	3	1	0	0	0	6	0	17	0	0	7	0	0	1	0	2
OTU 145	127	1294	34	24	0	20	40	12	0	48	38	48	31	21	6	9	28	1521	15	16	54	27	36	17	147	0	23	11	16	51	0	19	42	4	1	3	6	20	31	8	27	1	17	0	71	28	13	362	14	17
OTU 146	83	17	51	39	2	1	4	148	197	1	4	4	49	14	19	60	14	0	284	13	0	81	16	74	88	2818	66	1935	7	0	37	4	30	12	1	1800	0	24	24	21	38	47	90	0	15	68	6	9	0	7
OTU 147	2	0	0	5	14	0	0	0	0	3	2	0	43	0	2	2	0	0	0	2	1	0	13	1	1	22	1	2	0	0	16	10	5	0	6	0	0	3	0	7	6	40	2	3	2	11	34	7	15	2
OTU 148	32	27	0	43	88	0	4	52	32	16	0	8	5	15	3	12	7	7	4	5	19	0	48	10	9	1	1	7	51	210	4	51	11	9	16	4	1	4	79	72	4	43	64	5	143	26	1509	286	0	5
OTU 149	0	9	0	0	12	4	1	6	0	0	11	10	1	0	0	1	0	3	0	0	148	0	0	4	1	0	2	34	0	0	2	0	0	24	0	15	11	0	0	48	0	13	38	3	4	18	23	23	0	1
OTU 150	5	0	3	7	0	12	26	3	0	0	4	0	29	0	0	1	5	2	0	23	3	264	1	66	7	2	3	0	5	327	10	0	36	2	0	2	16	18	139	7	0	18	3	3	0	0	0	36	2	0
OTU 151	4	34	13	17	37	64	18	3	4	13	29	219	17	12	2	15	25	0	15	34	4	21	59	3	3	3	18	0	6	43	184	37	0	8	27	0	20	3	49	29	3	15	27	14	0	2	10	14	2	6
OTU 152	78	5	15	127	27	10	477	340	130	107	16	2	34	2833	63	219	4	81	34	24	39	6	6	23	201	32	33	27	14	8	0	6	6	28	11	3	2	3	7	65	127	54	133	7	1	21	35	8	142	39
OTU 153	0	0	0	1	0	0	0	0	0	0	0	0	19	44	0	0	0	0	1	0	0	0	0	1	0	0	0	0	0	2	0	0	0	0	0	17	0	1	12	14	0	0	0	0	0	0	0	0	0	7
OTU 154	0	0	2	0	26	0	0	1	0	0	19	0	2	0	46	0	0	3	1	8	0	0	7	0	0	0	0	0	84	0	23	0	1	0	2	0	2	0	0	0	88	0	5	1	19	0	25	0	0	0
OTU 155	3	6	11	2	0	1	0	73	0	8	21	0	8	0	15	18	0	44	5	0	0	0	0	1	0	38	1	0	0	149	0	1538	0	47	43	3	0	0	112	14	31	2	3	2	0	31	0	3	0	0
OTU 156	14	9	17	55	25	76	16	80	50	21	76	49	81	5	6	35	99	19	13	3040	42	0	2	7	33	18	39	4	46	3	109	4	38	6	8	17	22	17	0	236	11	10	3	5	16	1	91	213	72	0
OTU 157	5	0	0	1	0	0	0	17	1	8	36	1	20	0	16	0	0	46	0	77	7	3	0	0	18	22	2	1	17	103	1	1	0	8	0	0	19	0	33	1	31	0	3	27	3	0	10	161	21	8
OTU 158	3	0	3	0	0	1	0	0	0	0	0	18	0	0	0	1	38	40	0	0	0	0	0	0	0	0	6	5	0	0	1	0	0	1	0	31	0	0	0	0	0	0	0	0	2	0	0	0	6	2
OTU 159	123	87	1	35	6	4	53	13	3	2	0	0	106	3	68	0	1	0	3	1	52	11	309	149	433	29	408	4	1	9	0	34	4	73	3	10	5	6	13	1	103	0	14	2	24	12	74	0	31	134
OTU 160	187	159	71	68	34	11	96	50	372	190	173	34	102	45	73	99	19	228	49	18	45	66	115	16	58	62	138	34	61	147	1	197	26	43	137	38	32	7	77	63	129	52	112	15	59	143	119	56	106	43
OTU 161	11	47	1	4	92	68	104	19	33	15	1	250	2	49	9	5	72	1	128	2	88	8	76	6	1	26	3	7	18	28	51	5	0	1	54	9	4	0	12	37	17	0	56	4	58	105	40	3	27	44
OTU 162	20	348	12	57	27	27	17	110	35	3	6	43	144	5	2209	29	18	33	21	0	78	3	120	1	63	63	4	15	6	36	2	15	1	48	51	8	30	1	12	213	42	38	54	11	17	38	16	27	34	2
OTU 163	0	0	4	0	0	0	0	0	0	0	0	0	0	0	2	0	0	0	0	16	0	0	0	9	0	19	0	0	0	7	2	0	0	0	0	0	0	0	3	0	6	0	0	0	0	1	0	0	0	0
OTU 164	0	0	0	0	0	0	0	0	0	2	0	0	0	0	116	0	0	0	0	0	0	6	0	39	0	0	0	0	0	0	0	0	0	0	7	0	0	1	0	0	1	0	0	0	0	1	0	0	0	0
OTU 165	0	10	20	25	5	10	33	0	2	6	18	0	0	13	27	1	27	13	11	21	0	0	40	1	0	2	12	14	0	66	3	2	16	10	6	4	6	1	45	7	44	33	0	3	1	21	11	7	7	1
OTU 166	0	0	0	0	0	0	0	0	0	12	0	0	0	0	0	0	0	0	0	0	0	0	0	0	0	0	0	0	8	0	0	0	0	0	0	0	0	1	0	0	0	0	0	0	0	6	0	0	0	23
OTU 167	81	0	1	4	5	0	0	206	104	13	1	0	2	26	37	81	21	3	0	13	67	0	0	0	117	37	0	49	0	23	3	18	16	21	1	3	40	8	6	6	67	3	89	59	0	116	245	0	17	0
OTU 168	23	1	4	4	246	17	265	43	52	7	41	11	0	1	1	0	50	79	0	0	29	7	14	23	8	39	551	0	18	2	3	9	8	11	23	11	25	2	0	29	6	52	0	1	0	70	34	46	68	16
OTU 169	8	0	0	27	0	0	0	0	0	0	0	0	2	3	0	0	0	0	0	0	0	0	0	25	12	17	0	0	0	0	28	0	0	0	0	0	0	0	0	39	0	0	7	0	0	0	0	0	0	0
OTU 170	0	0	0	0	0	1	0	0	0	0	0	49	0	0	0	2	4	1	0	0	0	0	0	0	0	0	0	0	0	0	0	0	4	0	0	4	0	0	0	0	0	0	0	0	0	3	0	0	0	0
OTU 171	1	0	1	72	0	64	73	19	56	2	48	99	14	5	5	24	7	18	1	0	15	1	14	44	6	18	16	21	5	22	1	8	2	8	1469	12	0	1	11	6	24	3	9	1	13	34	0	16	7	22
OTU 172	0	0	6	0	46	0	18	16	0	0	1	0	0	0	0	0	0	0	0	0	9	0	0	0	4	1	0	0	0	12	0	0	0	0	0	1	0	0	0	0	0	2	11	1	0	2	15	1	0	0
OTU 173	1	2	36	13	47	8	4	0	48	0	0	0	0	0	0	5	31	0	15	1	4	12	16	2	0	23	0	0	2	84	32	18	1	7	2	392	4	0	60	3	0	7	0	0	0	3	0	0	0	2
OTU 174	68	106	0	79	185	4	593	102	14	83	91	60	1	1	12	18	4	47	0	0	25	106	202	49	49	17	37	3	0	0	23	85	91	3	1	2	0	62	0	116	28	1	51	1	29	1	10	25	12	118
OTU 175	5	7	36	5	2	7	35	0	53	1	3	27	19	0	5	0	28	2	14	8	33	3	3	66	0	1	1	9	52	0	2	8	16	1	53	8	1	5	0	24	9	28	0	4	0	19	0	0	41	1
OTU 176	13	6	14	1	42	6	98	20	1	31	64	15	131	2	5	12	109	25	0	28	28	23	59	2104	2	11	18	2	1	36	1433	59	3	126	9	21	2	0	34	34	11	124	10	5	5	8	51	74	76	53
OTU 177	53	8	24	4	72	1	14	73	65	1	41	0	27	3	0	17	103	20	13	4	29	28	25	16	1	43	56	16	70	100	1	4	14	1	106	3	44	8	47	16	0	9	1409	40	8	65	6	16	1	9
OTU 178	0	0	3	40	0	4	0	11	0	1	9	6	7	0	27	63	28	0	0	3	8	1	11	16	8	15	0	0	0	75	16	19	19	3	156	0	0	10	25	40	54	33	15	1	1	1	32	29	0	13
OTU 179	6	1	6	0	0	4	6	207	73	9	54	3	75	4	13	216	51	1	0	6	0	14	16	0	66	72	31	20	0	0	5	122	28	138	2	22	3	4	1	9	26	11	151	4	99	14	5	29	0	0
OTU 180	137	33	1330	33	295	123	29	134	215	1888	76	151	74	806	90	74	308	35	734	1067	141	92	36	127	49	110	391	42	182	45	108	178	5	141	37	162	439	7	42	358	187	108	34	228	358	73	153	70	550	126
OTU 181	6	0	7	17	1	4	11	0	40	9	13	5	25	11	3	38	26	0	0	0	12	24	0	33	7	36	1	1	1	11	1	44	13	0	3	1	2	2	8	1	9	28	7	4	0	5	2	64	10	168
OTU 182	0	0	0	0	0	0	0	0	0	10	0	0	0	2	0	0	0	0	0	0	0	0	0	0	14	0	0	0	0	0	0	0	0	0	0	0	1	0	7	0	0	0	0	0	0	0	0	35	7	0
OTU 183	42	2	82	0	0	9	33	41	2	35	0	15	16	19	5	522	7	96	42	8	5	204	3	14	160	0	23	12	20	5	4	0	26	17	0	0	8	28	11	0	18	41	64	17	2	21	122	3	4	5
OTU 184	0	0	1	67	0	8	25	15	7	3	15	48	0	19	0	23	0	1	0	0	22	8	5	2	7	0	2559	5	1	16	37	1	8	26	0	3	0	2	10	12	3	0	18	0	28	0	0	83	0	1
OTU 185	55	5	45	4	3	8	75	110	4	16	0	0	141	8	37	10	136	5	47	20	39	62	2	11	104	0	31	10	3	40	19	73	9	152	30	9	9	11	24	70	75	34	20	4	11	90	3	211	4	2674
OTU 186	1	4	30	0	146	0	0	80	0	0	0	0	0	9	377	37	8	5	26	0	19	21	0	0	384	0	72	0	16	57	0	3	2	0	22	6	0	0	16	0	789	0	23	4	15	0	138	7	2	237
OTU 187	44	1519	31	28	16	13	142	104	219	44	164	15	13	31	23	87	43	54	8	19	41	92	1	23	3	442	171	356	31	14	7	14	195	824	31	155	14	96	2	31	59	8	157	1	117	24	2	118	29	4
OTU 188	57	56	12	31	4	13	11	10	599	51	203	56	48	13	8	1	27	67	30	73	13	99	228	36	59	65	135	42	5	68	45	98	56	4	30	60	2	40	16	53	22	4	12	7	52	26	9	49	47	56
OTU 189	10	29	2581	165	113	46	150	5	265	39	45	193	112	120	30	49	19	3	1272	14	125	10	236	24	10	65	19	16	62	110	9	47	14	49	44	17	8	15	40	2	57	175	27	8	1	5	14	14	115	15
OTU 190	1	142	0	23	8	0	0	104	13	12	0	0	12	0	0	24	0	132	0	0	0	0	0	0	35	0	2	0	21	0	15	9	0	10	56	0	0	2	0	0	0	0	42	5	0	0	0	0	0	1
OTU 191	65	34	66	23	14	104	26	3	15	3	141	95	68	10	3	0	22	9	71	93	75	24	13	130	7	31	50	6	52	23	18	277	33	88	25	32	8	17	0	4	3	386	10	8	9	27	58	4	286	2
OTU 192	125	207	37	1149	37	40	12	411	48	44	32	97	101	3	131	134	28	96	10	148	65	36	9	93	285	33	30	12	5	91	47	66	63	85	53	26	78	28	40	64	284	116	230	50	1	10	127	57	20	62
OTU 193	20	13	118	20	46	27	53	39	1	28	46	21	0	2	1	9	970	24	26	30	23	7	245	21	4	41	0	36	13	19	13	62	6	0	38	14	58	3	4	6	1	22	30	30	79	17	53	20	18	48
OTU 194	0	11	22	16	2	0	27	46	13	11	3	3	69	69	60	39	14	18	43	0	12	10	0	0	6	1	16	2	1	6	12	0	30	4	77	29	0	10	3	1	96	1	25	2	2899	0	4	24	0	0
OTU 195	29	13	241	10	1	4	73	0	10	0	29	0	3	695	6	0	6	1	130	15	271	168	71	9	0	2	11	13	70	32	1	94	49	4	21	62	0	41	9	46	17	14	1	0	20	9	22	41	11	8
OTU 196	0	18	4	109	5	29	9	101	33	18	20	74	2	0	1	25	10	0	0	11	20	2	24	164	35	58	5	21	4	1787	49	45	0	107	32	0	52	0	860	55	1	4	20	44	51	2	23	1	69	0
OTU 197	145	136	92	62	68	0	169	43	104	9	45	43	19	1	7	18	228	37	105	8	62	36	127	48	47	2	77	41	19	113	24	24	69	67	644	14	27	39	88	91	30	87	30	3	13	56	126	111	65	39
OTU 198	0	37	0	0	20	28	0	44	21	0	14	32	0	3	19	12	81	105	0	16	5	0	0	1	1	0	0	0	0	25	16	0	2	20	11	0	50	0	6	0	35	0	4	4	0	1	0	44	0	12
OTU 199	0	61	11	44	1	13	16	107	36	32	8	42	5	1	3	79	3	0	10	3	4	73	227	0	4	0	1	16	28	10	0	0	4	1	1	2	0	3	5	7	7	34	135	3	0	34	12	4	5	0
OTU 200	55	10	76	153	50	2	0	23	0	38	68	13	14	12	12	17	5	10	33	12	7	1	38	1	0	7	25	2	4	9	1	0	35	1	53	28	280	6	1	116	44	47	5	64	3	1	21	2	2	2
