	Host 1	Host 2	Host 3	Host 4	Host 5	Host 6	Host 7	Host 8	Host 9	Host 10	Host 11	Host 12	Host 13	Host 14	Host 15	Host 16	Host 17	Host 18	Host 19	Host 20	Host 21	Host 22	Host 23	Host 24	Host 25	Host 26	Host 27	Host 28	Host 29	Host 30	Host 31	Host 32	Host 33	Host 34	Host 35	Host 36	Host 37	Host 38	Host 39	Host 40	Host 41	Host 42	Host 43	Host 44	Host 45	Host 46	Host 47	Host 48	Host 49	Host 50	
OTU 1	201	107	10	221	38	99	42	250	34	50	273	50	2	3	1	11	71	248	285	213	64	124	154	132	0	32	373	0	46	593	34	186	0	72	309	19	151	133	93	155	56	19	1	17	371	0	49	76	64	291
OTU 2	1	34	0	10	181	13	15	0	0	1	76	7	37	34	0	9	10	8	29	1	47	4	4	5	5	5	0	1	24	0	11	0	3	0	0	42	60	0	0	1	14	0	0	4	6	8	0	2	37	1
OTU 3	4	4	0	0	1	3	33	0	14	0	0	31	0	50	20	0	11	2	11	0	0	0	1	0	0	198	12	16	8	1	0	4	0	1	0	0	3	0	409	712	0	0	1	0	42	36	0	6	0	1529
OTU 4	0	0	0	0	0	0	0	0	0	0	0	0	0	0	0	0	0	0	0	0	0	0	0	0	0	0	0	0	0	0	0	0	0	0	0	0	0	0	1	0	0	0	0	0	0	0	0	0	0	0
OTU 5	643	66	383	184	0	74	1477	883	580	377	876	423	810	0	1101	0	829	43	919	353	102	793	148	26	71	1553	67	6	5	540	910	946	496	74	1355	635	54	26	358	580	384	558	254	344	2	521	189	7	197	781
OTU 6	99	11	26	92	2	4	61	102	176	6	8	30	20	20	0	3	0	28	292	143	51	149	6	14	53	5	255	59	3	205	5	265	56	4	93	3	27	22	7	3	2	16	13	1	0	69	895	1	7	4
OTU 7	110	54	159	44	5	144	351	26	5	140	463	21	322	139	207	89	134	304	41	1	46	45	213	131	6	10	29	119	34	30	54	21	103	17	11	180	76	41	1	6	52	572	285	107	285	27	165	54	24	2
OTU 8	245	59	151	76	238	85	171	201	86	201	47	11	84	161	21	273	19	142	543	18	115	51	14	69	14	8	38	158	251	157	18	22	76	75	83	11	59	11	10	29	7	40	91	35	202	32	141	189	38	50
OTU 9	0	1	2	28	0	0	31	6	0	74	0	0	7	13	7	1	13	1	2	10	4	41	202	0	0	0	9	22	3	6	0	25	0	0	2	9	2	3	0	0	38	0	124	11	1	9	5	65	1	1
OTU 10	11	91	8	9	26	0	0	0	0	59	5	0	1	16	28	0	2	51	2	27	147	30	0	29	18	1	0	53	38	4	79	3	11	3	4	1	81	97	0	2	0	0	0	8	189	0	124	13	26	0
OTU 11	3	340	10	16	4	53	70	9	29	129	120	73	16	217	34	107	56	13	11	40	45	36	22	5	39	4	9	47	31	53	184	35	7	21	29	41	38	17	0	5	25	50	81	21	74	26	63	25	191	11
OTU 12	12	0	111	21	189	58	15	9	3	60	56	217	8	103	25	89	140	94	5	85	26	16	20	52	1	0	2	178	16	23	0	16	55	37	3	23	23	73	13	8	62	37	111	32	122	156	122	31	0	29
OTU 13	0	1	0	0	0	0	0	0	0	33	0	5	4	0	0	0	0	4	0	0	0	0	0	2	0	0	0	0	0	0	0	0	14	0	0	0	0	0	0	1	0	0	0	0	0	0	0	0	0	0
OTU 14	0	45	33	6	0	33	1	10	0	28	17	82	15	24	12	0	45	108	6	0	1	3	2	48	1	57	0	0	50	0	22	24	13	7	0	1	14	11	184	259	23	1	33	0	41	2	18	2	38	477
OTU 15	0	0	0	1	0	0	0	10	2	0	0	0	0	0	0	4	0	12	0	0	0	0	0	7	0	0	1	0	4	0	0	0	0	0	0	0	0	0	0	0	49	0	0	0	0	0	40	0	0	0
OTU 16	0	0	0	0	0	0	0	0	0	10	0	0	0	0	0	0	0	0	0	0	0	0	0	0	0	0	4	3	0	0	0	0	0	0	0	0	0	0	0	0	1	9	1	0	0	0	0	0	0	0
OTU 17	0	44	103	1	2	53	5	20	1	1	38	0	7	21	4	2	2	171	1	39	1	57	1	80	21	1	0	6	14	18	16	3	80	2	10	0	8	1	3	7	8	2	5	5	1	7	27	12	5	0
OTU 18	48	11	7	31	275	12	20	35	11	19	57	1604	8	3	121	6	23	20	35	0	0	3	9	10	25	4	7	1	89	17	11	15	23	155	4	1	20	87	10	8	8	112	84	14	43	33	40	298	22	17
OTU 19	0	0	0	0	0	0	0	0	0	0	0	0	0	0	0	0	0	0	0	0	0	9	0	0	0	0	0	0	147	0	0	0	0	0	0	0	0	0	0	1	0	0	0	0	0	0	0	0	0	0
OTU 20	0	24	0	53	0	7	14	25	12	80	32	7	244	6	70	79	1	58	11	1	74	0	2734	29	5	5	20	6	17	12	14	6	1	101	11	7	65	70	0	4	18	107	35	17	27	1	0	176	12	0
OTU 21	9	127	21	12	239	36	13	38	8	16	12	11	35	85	7	71	4	36	2	46	77	12	2	24	199	3	59	71	33	139	70	14	0	39	74	21	25	46	5	63	31	2	3	9	80	12	148	276	32	51
OTU 22	1	24	69	5	111	3	0	6	0	20	55	628	26	39	1	26	54	74	6	0	19	11	30	49	1	4	0	2	32	14	19	3	3	33	6	36	8	21	1	2	1925	2	120	0	43	38	63	91	9	1
OTU 23	40	6	0	84	8	10	38	10	0	35	9	16	36	9	48	88	0	43	37	1640	0	0	8	25	20	0	111	43	0	163	1	1	59	37	79	9	4	0	0	44	1	62	0	0	0	4	81	44	7	57
OTU 24	4	126	37	0	49	0	0	5	0	1	0	0	0	1	0	7	0	9	0	13	11	6	68	5	11	0	11	0	8	1	61	0	2	0	4	0	0	12	4	3	0	28	565	14	6	15	0	1	53	0
OTU 25	0	0	0	0	0	0	0	0	0	0	0	1	1	7	0	0	0	0	0	0	0	1	0	0	3	0	0	0	0	0	0	0	0	5	0	0	0	14	0	0	0	0	0	0	0	0	0	44	0	0
OTU 26	0	0	0	0	0	0	25	0	0	0	48	0	15	0	5	0	53	3	2	0	0	8	18	2	0	0	0	0	8	17	1	3	1	0	3	40	6	0	0	0	0	0	0	97	0	0	3	0	0	0
OTU 27	0	0	0	0	0	0	0	0	0	33	0	0	0	0	0	0	0	0	0	0	0	0	0	0	0	0	1	0	0	6	0	0	0	0	0	0	0	0	0	0	0	0	0	0	3	0	0	25	0	0
OTU 28	3	57	40	36	118	38	16	19	5	45	26	29	12	6	136	111	97	16	17	7	10	132	20	5	29	2	38	40	12	25	21	25	82	0	4	38	8	30	1	12	57	24	57	14	9	40	95	17	10	4
OTU 29	48	259	6	5	21	15	16	0	16	65	191	194	42	30	54	19	67	115	21	40	47	12	113	56	43	9	0	23	7	16	106	22	9	51	8	58	19	125	10	11	33	150	7	144	530	203	65	104	162	102
OTU 30	0	0	0	0	0	0	0	0	0	0	0	0	0	0	0	0	0	2	0	0	0	0	0	1	0	0	0	0	0	0	0	0	0	0	0	0	0	0	0	0	0	0	0	0	0	0	0	0	0	0
OTU 31	24	15	26	0	18	0	0	0	0	1	11	0	0	4	0	19	24	0	45	1	0	18	0	0	1	5	0	71	1	4	0	0	16	16	8	1	1	0	8	13	11	27	0	0	3	9	51	154	6	9
OTU 32	630	2	8	3	47	0	9	67	3	67	473	23	259	82	191	52	461	40	20	19	68	30	39	16	80	1	21	14	47	32	3	21	97	453	10	308	43	30	4	3	52	85	62	348	22	77	24	665	12	1
OTU 33	0	0	0	0	71	0	0	0	0	0	0	0	0	154	0	0	7	0	0	0	16	0	0	0	1	0	0	0	0	0	0	0	1	0	0	0	36	0	0	0	0	2	0	0	7	0	0	0	0	0
OTU 34	1	19	52	32	158	19	9	0	22	970	24	9	8	113	65	121	2	55	4	3	37	21	7	12	42	364	30	8	119	39	13	16	25	1564	29	17	31	36	903	10	0	9	2	0	4	93	48	46	3	5
OTU 35	2	10	29	112	78	316	29	15	0	49	92	174	7	18	3	0	19	534	45	56	57	23	34	265	55	12	48	45	12	26	2	0	535	22	21	4	55	3	24	118	7	0	0	2	26	2	175	131	2	84
OTU 36	0	14	17	17	2	0	34	23	2	47	14	8	5	8	11	16	0	64	56	2	22	6	4	493	15	0	13	6	8	10	5	3	74	2673	0	17	0	27	0	1	4	8	79	1	121	141	38	162	3	3
OTU 37	0	0	24	5	0	23	5	0	2	0	1	6	1	0	15	0	0	7	0	0	0	1	2	5	4	0	0	0	51	0	0	0	1	0	0	0	1	0	0	0	20	1	0	0	0	0	0	44	0	0
OTU 38	0	10	17	8	0	6	2	19	7	26	91	4	49	214	0	39	57	8	4	1	56	4	1	9	5	1	11	153	29	44	4	4	15	34	18	23	1	1738	0	1	3	10	12	9	0	2	2	34	0	4
OTU 39	0	0	13	3	2	0	12	0	443	10	23	0	0	22	1	97	0	2	0	1	15	5	25	2	15	0	0	0	25	0	0	0	9	2	0	0	0	2	0	0	43	30	5	0	12	0	14	22	10	2
OTU 40	0	345	18	0	53	17	86	0	2	80	76	2	15	16	6	224	33	2	19	3	13	18	90	3	67	15	40	26	5	1	188	2	14	94	0	12	24	31	3	5	322	132	39	24	0	9	0	97	215	22
OTU 41	0	20	13	1	751	11	10	15	3	97	0	72	2	33	26	36	13	32	0	23	14	4	167	14	0	24	16	80	70	31	13	41	32	3	1	10	0	40	57	50	0	110	129	0	30	51	85	12	12	112
OTU 42	2	2	8	0	3	1	3	10	0	0	0	14	4	3	86	0	11	0	9	24	0	0	0	0	4	8	11	12	10	10	0	12	0	47	18	18	1	0	0	4	0	0	65	11	3	0	2	136	3	33
OTU 43	0	0	0	0	0	0	0	0	0	0	0	0	0	0	10	0	0	0	0	0	0	0	0	0	0	0	0	0	0	0	2	0	0	0	0	0	0	0	0	3	0	0	141	0	0	0	0	0	0	0
OTU 44	4	5	16	0	69	0	2	0	0	18	0	78	0	36	1	57	0	1	3	5	0	27	1	0	6	0	0	196	0	0	0	0	15	0	0	3	0	0	0	0	0	0	0	0	0	0	1	0	0	3
OTU 45	1	90	61	32	0	3	8	0	438	109	2	18	117	16	24	67	0	9	25	1	123	1939	67	2	39	0	23	0	63	10	63	752	0	13	5	4	4	13	2	4	8	158	36	23	20	12	95	13	28	13
OTU 46	23	33	29	14	7	3	51	48	2686	20	74	147	33	48	16	106	7	40	21	14	19	71	63	18	32	0	0	36	32	2	12	3	38	6	3	5	11	119	0	5	42	158	6	17	16	123	199	21	54	8
OTU 47	0	0	0	0	8	2	0	2	4	4	0	0	0	0	162	1	1	0	0	0	0	0	18	0	0	0	0	0	0	20	0	15	0	1	4	0	0	0	0	0	0	18	1	0	0	0	0	0	0	0
OTU 48	7	7	2	57	12	25	2	4	7	22	12	71	11	124	1	4	15	59	3	4	8	13	434	26	63	110	1	40	133	0	4	39	62	18	1	6	0	80	283	366	3	0	45	7	137	165	3	9	0	31
OTU 49	0	58	26	7	15	105	0	13	7	0	0	25	0	2	1	0	5	27	15	1	0	63	27	12	32	0	3	1	848	0	31	0	0	0	0	2	0	2	0	0	0	5	0	2	61	0	41	0	5	0
OTU 50	118	27	61	180	50	84	1875	107	8	42	4	106	66	41	31	0	2	155	235	429	1	202	60	71	37	0	148	42	4	698	15	84	8	0	370	5	0	122	4	43	58	217	160	3	23	81	18	1	31	59
OTU 51	0	0	1	0	0	3	157	1	0	0	0	228	33	10	11	32	4	13	0	4	0	13	10	5	7	2	6	44	78	11	0	0	12	129	0	0	0	104	13	4	3	185	37	0	24	277	0	139	11	1
OTU 52	88	88	104	92	264	319	113	58	12	101	78	22	59	310	25	43	63	131	179	51	14	188	3	74	20	4	55	16	125	143	23	12	35	30	96	33	32	50	14	19	47	22	330	23	173	70	669	23	2310	113
OTU 53	0	0	0	0	0	0	0	0	0	0	0	0	0	0	0	0	0	7	0	0	0	0	0	3	0	0	0	0	0	3	0	0	0	0	0	0	0	0	0	0	23	0	0	0	0	0	0	11	0	0
OTU 54	1	662	10	18	137	18	113	3	71	12	1600	41	319	47	107	112	774	138	40	14	238	6	101	79	43	15	20	53	51	22	367	8	36	25	21	436	110	205	13	58	266	70	16	375	143	112	41	71	353	77
OTU 55	0	0	0	0	0	7	0	0	0	0	0	0	0	0	0	0	0	0	0	0	0	0	0	0	0	0	0	0	0	0	0	0	0	15	0	0	0	0	0	0	0	0	0	0	0	0	0	0	0	0
OTU 56	5	0	55	3	129	22	1	20	11	0	0	0	19	71	7	4	2368	1	6	0	0	0	73	0	36	0	8	0	2	0	0	4	33	5	0	1250	0	0	2	2	99	9	4	1570	179	0	4	80	21	2
OTU 57	8	47	145	25	4	39	69	21	28	118	6	25	37	108	64	75	17	377	19	62	90	2	51	187	13	592	47	52	167	13	11	15	466	41	0	6	32	21	1218	88	61	137	83	13	65	342	69	106	30	143
OTU 58	3	1	54	0	4	8	42	5	0	16	8	18	98	17	0	35	0	6	5	42	0	3	24	3	34	2	3	174	2	54	2	6	15	5	49	0	1	0	0	5	57	2	2	0	0	91	62	10	10	7
OTU 59	26	0	5	0	6	3	99	113	0	18	13	13	5	12	0	118	0	29	64	36	58	32	0	12	7	2	30	63	21	9	0	5	72	25	0	5	13	29	3	7	89	0	19	0	92	1	33	15	1	1
OTU 60	1	23	149	39	104	22	49	55	29	7	85	112	10	43	61	0	10	61	1	57	65	12	5	24	13	14	36	50	38	20	7	44	30	13	4	68	0	7	38	54	3	24	326	46	4	24	222	43	6	108
OTU 61	532	9	195	2	187	26	118	779	7	88	0	138	207	30	220	70	36	38	1174	0	9	23	16	23	11	3	46	0	351	70	0	19	603	230	11	23	37	10	25	86	11	73	69	56	19	265	28	344	1577	100
OTU 62	0	27	0	0	0	6	17	2	3	19	0	6	0	137	5	36	2	9	13	0	12	0	0	8	0	427	0	6	241	0	28	0	0	3	0	0	18	5	869	1860	20	0	4	1	0	21	37	44	41	6
OTU 63	0	18	0	0	58	0	4	10	19	30	29	14	6	0	0	49	0	1	0	12	103	0	29	0	80	19	4	0	17	23	14	9	28	2	14	37	125	0	5	11	36	1	14	0	0	18	11	0	0	18
OTU 64	863	76	6	18	115	34	89	705	527	2	43	106	22	66	78	135	92	132	1939	23	173	111	111	62	7	0	19	13	196	58	61	1320	87	27	31	67	45	36	6	14	32	16	187	2	84	75	25	54	28	35
OTU 65	0	0	0	7	0	0	0	2	0	0	0	0	0	6	62	0	4	0	0	0	0	0	0	0	0	0	0	0	4	0	0	0	4	0	0	22	0	0	0	0	0	0	16	2	0	0	0	0	0	0
OTU 66	27	10	31	8	388	9	31	3	26	15	15	6	1	61	15	107	32	15	2	2	2	8	8	6	69	0	9	10	8	7	9	19	20	112	7	5	38	150	1	32	15	0	19	3	0	131	2	111	27	8
OTU 67	0	55	10	12	145	48	36	17	0	9	0	21	7	89	38	4	4	162	17	3	159	7	83	71	238	0	10	48	0	19	28	0	61	0	18	0	273	66	0	0	83	154	0	2	222	93	18	27	26	7
OTU 68	0	0	189	0	0	14	3	8	5	6	5	0	5	40	36	6	0	78	3	23	0	13	0	32	10	0	0	1	0	1	0	10	0	0	0	0	5	11	0	3	61	1	0	0	4	0	48	1	0	9
OTU 69	18	129	4	1	70	25	30	38	45	36	16	47	6	171	155	125	8	22	8	9	80	13	17	9	78	7	11	88	198	7	87	1	57	3	0	0	42	12	2	8	0	465	44	31	8	30	47	43	37	1
OTU 70	13	70	183	1	0	25	2	6	11	8	4	19	29	75	54	0	0	0	0	0	2	92	14	0	0	0	2	0	3	9	44	11	16	0	4	1	0	70	0	1	1	0	4	9	0	29	0	1	106	1
OTU 71	0	2	20	5	0	1	0	0	0	53	36	6	7	17	22	2	10	0	0	0	3	0	0	0	1255	0	0	102	187	1	1	24	9	1	3	15	13	9	1	1	0	0	0	19	24	1	3	0	1	7
OTU 72	4	95	10	15	56	8	29	424	5	51	49	1	2851	45	84	4	60	10	38	4	134	12	677	5	97	2	24	18	16	48	37	8	41	11	28	7	90	67	4	29	204	28	41	77	181	11	8	35	33	3
OTU 73	4	54	78	2	5	14	10	28	8	7	0	14	2	5	25	37	5	1	7	2	15	3	26	0	24	0	8	1	27	4	21	102	129	66	1	2	23	2	0	4	6	3	21	5	49	6	0	183	22	29
OTU 74	0	75	16	0	25	71	4	5	0	12	112	14	60	152	20	10	60	11	8	79	66	63	31	3	46	3	0	317	60	64	31	43	15	77	42	130	66	90	5	34	6	85	35	127	60	23	46	253	42	14
OTU 75	1	1	52	4	91	48	65	70	7	22	33	42	5	32	3	106	16	43	20	33	11	6	164	20	23	0	62	20	2	15	0	30	42	86	25	6	17	48	3	1	5	12	15	1	42	46	47	80	3	74
OTU 76	0	0	6	1	7	0	0	0	0	2	13	0	0	52	0	4	14	0	3	4	6	0	1	0	0	0	0	2112	2	2	0	0	11	12	5	1	20	28	0	2	11	212	86	25	19	0	29	0	1	4
OTU 77	1	20	40	3	6	1	10	23	3	17	60	34	1	29	8	31	28	15	2	38	22	21	2	9	1	5	1	45	52	23	14	2	18	58	13	39	899	4	3	8	6	6	7	0	12	31	85	22	18	0
OTU 78	30	12	17	12	227	60	0	5	1	9	45	5	7	1	115	75	16	7	26	0	35	4	38	4	48	3	6	4	66	8	4	32	64	99	1	8	0	47	60	20	114	69	70	22	45	106	263	179	16	24
OTU 79	29	245	150	28	112	92	121	1594	41	98	126	45	73	204	165	147	53	120	41	52	255	112	31	57	445	12	48	141	30	186	96	43	174	69	79	53	179	163	19	20	219	152	310	84	270	306	60	104	141	5
OTU 80	6	4	59	0	11	4	98	1	16	13	39	31	92	448	13	34	26	7	10	0	49	7	4	6	70	44	0	226	109	0	3	31	13	94	2	24	45	183	65	30	42	82	56	2	262	88	105	99	17	61
OTU 81	49	36	24	16	6	1	106	86	1	64	8	42	51	134	73	133	22	27	90	15	40	44	32	16	47	304	2520	49	68	6	32	27	73	65	5	19	42	146	374	1167	71	10	21	17	35	145	41	112	40	1574
OTU 82	7	21	86	8	19	17	0	2	2	11	1	35	1	129	1	34	0	1	12	46	0	18	34	1	17	1	28	53	8	56	688	1	8	0	36	3	13	8	2	5	62	47	21	4	1	2	89	25	18	37
OTU 83	2	0	1	0	0	0	0	0	2	2	4	0	20	0	35	361	0	0	0	0	5	9	0	0	7	0	0	0	0	1	0	0	1	8	0	0	0	0	0	1	0	15	10	0	17	18	37	0	0	0
OTU 84	3454	6	49	34	35	0	137	3	4	62	29	17	27	83	0	32	0	5	1	157	259	29	26	2053	75	0	57	27	0	377	2	13	2	6	181	1	89	42	1	1	0	23	13	10	84	0	7	0	16	9
OTU 85	1	14	81	0	0	7	2	4	0	40	80	0	1	2	21	2	0	23	7	0	2	1	0	8	3	0	0	0	10	0	5	0	8	9	1	15	1	0	3	0	0	73	0	13	3	7	3	6	0	0
OTU 86	0	0	0	0	0	1	15	0	0	0	2	0	0	1	0	0	0	0	0	1	0	0	1	0	0	13	1	4	0	3	0	2	0	0	4	1	0	0	34	64	0	0	27	0	0	1	0	0	0	84
OTU 87	0	0	0	4	66	5	0	38	0	0	8	13	0	13	9	0	7	0	26	8	27	1	62	0	51	6	3	2	10	0	0	6	0	5	0	0	10	3	4	5	9	24	31	2	6	15	0	0	10	0
OTU 88	0	0	0	0	0	10	4	0	0	0	0	0	11	0	41	0	0	0	3	0	0	0	3	0	0	928	0	0	19	0	0	2	0	11	0	0	15	13	6	12	11	7	2	14	14	0	0	18	0	7
OTU 89	2	1	0	0	10	2	65	19	2	16	0	1	0	19	1	8	0	49	19	3	27	25	0	32	51	0	11	2	0	3	0	1	0	0	2	8	4	0	1	0	39	1	2	10	1	7	22	0	2	1
OTU 90	0	56	2	0	0	0	55	5	0	0	0	0	50	0	1	0	2	0	0	0	1	0	0	0	0	6	0	3	141	0	25	0	0	0	0	0	2	0	3	1	0	0	0	0	0	0	0	0	48	0
OTU 91	0	0	92	0	3	0	0	0	0	23	0	0	0	3	3	4	0	1	0	0	0	0	0	0	0	0	0	0	2	13	0	0	0	0	0	0	0	0	0	0	0	0	0	0	0	0	0	0	0	0
OTU 92	0	4	0	31	0	0	31	0	0	7	0	6	2	0	2	0	0	0	4	9	0	0	0	0	0	0	0	0	0	4	0	0	0	21	0	0	0	0	3	0	0	8	0	0	0	27	3	41	0	0
OTU 93	0	0	0	0	5	0	7	0	0	0	0	0	0	17	1	0	0	29	0	0	1	26	0	14	0	0	0	126	0	0	1	0	0	1	0	2	0	0	0	0	0	0	1	0	0	3	0	0	0	0
OTU 94	27	278	76	43	52	31	89	15	176	85	9	6	71	3	56	48	18	35	30	24	58	6	72	20	12	3	28	80	93	1	182	497	6	86	7	0	22	28	5	28	221	16	107	8	177	160	387	46	101	78
OTU 95	0	1	10	11	15	0	153	1	1	0	2	10	0	0	0	14	12	4	0	0	63	14	0	2	0	2	1	0	12	2	3	1	0	0	7	27	0	0	1	14	0	0	0	13	0	39	0	2	4	175
OTU 96	0	0	0	9	0	0	0	0	0	0	1	0	3	0	9	0	3	0	0	16	0	0	11	0	0	7	0	0	0	34	0	0	0	0	16	0	0	0	12	3	0	0	8	0	0	0	0	0	0	57
OTU 97	4	24	7	0	0	0	0	0	0	0	0	1	0	37	0	0	13	0	0	0	11	0	3	0	0	0	0	1	14	38	9	0	6	2	4	15	0	0	8	0	3	0	0	16	2	5	1	0	12	2
OTU 98	1	3	2	4	2	4	0	1	142	16	45	22	0	0	9	17	19	1	0	4	18	3	26	0	1	3	31	8	40	0	2	0	0	0	4	0	33	4	3	5	39	0	0	20	1	0	0	34	2	32
OTU 99	206	7	42	10	15	52	62	367	35	647	84	55	12	83	6	96	7	31	289	4	86	462	112	18	87	9	8	264	52	15	4	156	9	95	1	15	144	2	0	4	260	70	21	23	33	44	0	108	11	7
OTU 100	37	4	24	17	4	110	39	20	2	83	3	124	6	0	2	53	1	146	39	0	0	26	1	76	49	1	6	74	21	24	0	8	15	0	1575	1	0	3	9	0	6	1	33	5	2	1	8	13	0	7
OTU 101	0	0	36	0	0	24	0	11	0	0	49	27	0	0	0	0	0	6	0	1	1	0	0	3	0	0	0	0	0	11	0	0	0	0	0	0	0	1	4	0	0	0	0	0	0	0	1	1	0	0
OTU 102	1	8	0	0	27	0	0	0	1	0	1	0	2	35	9	2	2	59	0	3	0	0	0	28	6	0	9	1	0	3	3	13	2	0	1	2	0	9	3	0	0	1	42	0	0	0	0	0	1	8
OTU 103	4	3	8	844	2	2	8	1	0	16	16	0	13	101	76	77	15	1	11	877	40	0	53	1	2	0	728	7	13	1672	3	73	1	6	794	18	0	4	1	11	8	57	20	1	1	27	3	3	0	0
OTU 104	275	49	167	5	160	3	29	300	285	64	8	52	16	137	30	7	78	89	390	8	6	673	2	51	16	1	7	4	67	16	35	495	56	3	17	62	2	0	13	23	106	102	0	14	93	1	63	22	11	11
OTU 105	0	66	1	3	0	0	1	6	0	12	39	0	0	0	11	1	5	0	10	5	35	0	15	0	0	0	22	0	0	0	46	0	58	0	11	21	28	0	0	0	6	0	1	19	0	0	3	75	114	1
OTU 106	12	29	1	0	2	3	0	0	9	16	23	41	0	20	8	0	7	8	25	0	0	1	0	2	9	1	0	0	0	0	28	0	9	0	0	9	0	0	5	0	0	0	1	0	1	55	0	1	12	1
OTU 107	0	0	1	0	0	0	20	0	0	5	131	46	26	240	0	8	66	0	0	5	1	1	5	0	8	2	11	24	14	0	0	0	0	53	0	1	1	1	0	3	2	4	9	80	135	30	1	198	1	3
OTU 108	24	50	249	33	2	52	3	9	0	14	3	0	3	6	37	144	0	4	15	67	135	0	73	1	17	4	1	2	0	2	34	9	77	5	0	394	62	42	0	1	69	19	1	0	1	0	0	56	77	26
OTU 109	0	0	0	0	0	0	0	0	0	0	0	0	0	0	0	0	0	0	0	0	3	2	0	0	0	0	0	0	0	0	0	0	0	0	0	0	4	0	0	0	0	0	0	0	0	0	0	0	2	0
OTU 110	3	9	3	3410	15	6	27	0	0	0	104	41	66	13	50	55	34	3	19	138	78	13	1	1	56	6	20	26	3	107	0	47	216	0	38	257	2	45	12	12	38	11	13	53	9	8	276	21	6	9
OTU 111	0	0	0	3	9	10	0	1	2	0	0	0	0	0	0	0	0	45	7	0	0	3	102	16	0	0	0	1	0	0	0	21	4	0	0	0	2	52	1	5	0	0	0	0	1	0	0	0	0	0
OTU 112	4	1	0	52	6	0	16	0	0	0	0	0	0	32	34	8	15	19	1	0	83	3	3	11	14	0	0	0	18	1	1	2	13	0	156	11	0	1	0	4	6	28	6	2	1	2	133	7	3	0
OTU 113	0	2	1	9	0	0	0	0	9	1	0	0	0	4	0	14	0	0	1	0	0	46	0	0	0	0	0	4	2	0	0	0	0	0	0	0	0	0	0	0	0	19	0	0	0	24	9	0	1	0
OTU 114	8	285	111	17	47	16	115	20	40	55	127	13	1	48	270	50	28	3	10	105	78	20	139	2	103	4	0	124	38	61	155	31	136	25	46	9	152	39	11	4	88	1811	19	18	133	44	208	51	122	19
OTU 115	15	74	66	117	185	25	172	5	1083	62	132	106	29	45	33	33	104	45	11	23	173	2	107	15	38	4	21	106	40	8	51	14	92	67	6	111	127	12	0	3	114	61	208	49	24	17	50	96	29	19
OTU 116	4	302	19	25	197	239	177	2	4	23	26	696	26	27	199	40	6	365	10	0	18	8	57	171	24	1	58	16	30	115	102	3	56	15	28	1	8	25	2	2	160	268	25	0	3	454	45	37	94	2
OTU 117	5	6	0	20	118	1	21	1186	21	3	18	17	55	14	9	1	6	15	1	11	70	36	18	4	11	1	4	19	29	30	3	30	19	26	4	7	27	90	0	2	57	23	0	4	5	87	75	90	15	0
OTU 118	3	0	0	0	0	24	0	0	0	13	0	30	0	5	140	3	0	0	1	0	0	0	0	0	0	0	13	0	287	31	1	0	42	0	8	0	2	26	14	21	0	0	0	1	0	0	0	4	2	27
OTU 119	1	39	4	1	16	26	32	15	5	1	18	93	35	45	29	0	18	71	29	10	27	1	2	36	56	65	7	40	35	150	27	10	85	34	53	2	4	10	106	133	6	3	178	30	31	16	59	34	8	8
OTU 120	9	1	72	2	1	32	8	0	15	3	4	0	0	36	1	3	4	0	3	1	1	0	72	0	0	0	0	288	16	1	0	0	1	0	4	0	36	0	0	0	0	0	103	1	2	1	101	0	2	0
OTU 121	0	22	120	32	0	29	28	14	3	1	6	15	7	8	34	44	2	0	4	1354	12	1	121	0	60	1	23	187	104	25	1926	13	259	0	27	0	3450	3	2	1	28	9	37	0	15	44	1	7	0	0
OTU 122	12	0	6	81	5	0	21	55	0	4	171	50	26	22	1	71	111	1	6	88	70	12	33	0	3	11	66	49	0	46	1	9	1	2	27	159	0	126	11	15	1	13	8	9	208	0	91	4	2	68
OTU 123	19	137	169	55	133	101	156	0	73	40	365	24	28	132	208	257	125	86	96	40	83	126	128	39	917	19	34	26	193	69	46	55	115	61	59	46	48	85	21	76	51	84	82	54	62	104	104	55	41	106
OTU 124	12	7	95	0	1	0	18	0	2	4	0	17	0	56	10	119	0	3	1	0	0	7	10	3	0	1	2	1	0	0	4	0	1	4	0	1	10	0	0	0	0	41	22	0	4	0	2	3	0	4
OTU 125	698	184	255	271	87	180	160	64	4	64	124	106	119	84	413	85	698	137	37	49	122	32	218	76	64	21	87	224	219	106	645	23	74	537	38	276	101	88	28	92	78	320	311	291	92	146	140	148	129	78
OTU 126	1	0	0	0	2	4	0	1	1	0	4	0	0	0	3	0	0	0	0	0	7	0	0	0	0	0	0	0	0	0	0	2	19	0	0	0	0	0	0	4	2	0	0	0	0	0	23	0	1	11
OTU 127	6	10	35	12	30	180	3	53	8	48	181	0	353	108	3	9	6	40	4	0	13	14	0	23	9	5	1	26	34	0	4	5	12	81	8	17	0	30	1	0	1	0	9	0	30	1	29	100	5	1
OTU 128	16	261	258	178	953	102	105	15	26	121	20	305	396	389	58	275	80	69	7	1034	395	27	158	41	97	19	183	160	114	115	134	18	47	199	40	3372	99	136	30	127	101	92	742	3	71	423	86	450	139	374
OTU 129	13	0	0	0	19	0	1	0	0	0	0	1	1	0	4	0	0	2	0	4	0	0	309	2	0	0	0	0	0	0	0	0	0	0	0	0	0	0	0	0	13	0	6	2	7	1	0	0	0	0
OTU 130	17	0	471	2	19	1	2	1	33	12	91	3	4	0	5	7	42	0	104	0	84	1	33	0	25	6	0	5	14	17	1048	1	4	9	14	22	57	27	17	12	26	173	23	47	7	106	33	92	4	19
OTU 131	6	3	132	23	9	49	3	3	1	1	28	13	0	28	157	4	25	0	0	0	6	1	5	0	10	58	1	0	23	10	0	1	9	1	0	18	33	0	144	282	8	4	725	2	32	228	58	42	2	590
OTU 132	1	74	141	0	1	0	4	2	0	162	8	2	5	48	0	1	23	12	1	0	1	0	0	9	2	0	5	0	16	0	19	6	4	13	0	9	9	0	1	1	0	5	0	3	4	4	14	8	12	21
OTU 133	0	0	27	0	3	0	0	0	0	14	1	27	0	76	0	28	0	0	5	1	24	8	0	0	11	1	2	0	0	0	0	4	0	0	0	0	0	0	0	18	0	0	0	0	0	0	0	48	0	8
OTU 134	17	1	2	1	160	14	59	1	3	1	3	0	83	408	4	4	6	104	45	0	0	2	1	44	38	4	0	11	24	12	4	7	23	0	1	2	0	7	0	1	335	43	15	15	42	6	13	5	0	6
OTU 135	62	63	15	0	14	5	6	10	57	1	151	50	0	87	307	65	28	0	20	10	16	177	21	0	54	0	23	8	3	0	35	132	18	16	0	10	36	2	1	8	53	6	11	69	112	32	1	0	48	5
OTU 136	23	13	65	804	24	16	13	12	0	0	29	0	14	3	60	0	0	0	4	0	0	4	1	0	9	2	0	51	9	13	13	1	3	43	5	10	22	0	1	28	2	21	0	0	1	0	44	1	19	6
OTU 137	2	0	36	1	1	4	1	20	908	0	0	0	1	2	46	4	2	0	0	0	23	1	9	0	7	1	0	5	1	18	0	1996	0	0	2	0	1	43	0	0	46	6	18	6	11	6	1	12	1	0
OTU 138	7	3	6	15	261	1	1	4	1	10	66	6	82	9	1	163	3	5	8	0	5	0	7	2	61	0	8	3	49	3	2	0	1	0	0	0	0	6	0	0	0	5	42	25	4	0	0	0	0	3
OTU 139	58	332	547	173	175	797	166	10	17	40	104	373	18	100	42	15	88	106	18	195	18	34	50	59	64	2276	89	21	102	242	132	20	18	22	137	13	7	53	30	71	37	72	147	32	8	223	73	4	160	143
OTU 140	22	18	74	39	135	1806	296	12	59	187	382	56	257	26	47	97	204	86	5	53	80	58	160	30	167	15	38	31	166	79	6	31	380	54	551	130	43	39	19	50	96	14	22	108	38	45	46	103	66	161
OTU 141	0	0	0	0	0	0	0	0	0	0	0	0	0	0	0	0	0	0	0	2	0	0	0	0	0	0	0	0	0	0	0	0	0	0	0	1	0	0	0	0	10	0	0	0	0	0	0	0	0	0
OTU 142	0	0	0	0	0	0	14	0	0	0	0	0	2	0	0	0	0	0	0	0	0	9	0	0	0	0	0	0	0	3	0	12	0	0	0	0	0	0	0	0	0	0	0	2	0	0	0	0	0	0
OTU 143	0	0	0	0	7	0	0	1	0	1	2	0	2	45	0	0	0	0	1	0	26	0	0	0	0	0	1	5	8	0	0	0	0	0	0	0	4	20	0	0	0	0	0	0	0	0	16	0	0	4
OTU 144	0	9	0	4	0	1	0	1	4	0	2	0	4	27	0	5	0	0	6	0	0	21	45	0	0	1	0	0	0	0	2	3	2	64	0	10	0	15	7	1	1	10	1	0	27	24	62	159	0	34
OTU 145	30	28	76	2	4	25	72	48	27	5	8	8	13	306	204	34	1	13	40	0	20	5	89	310	4	1	1884	93	262	72	15	9	4	51	39	0	4	21	3	12	44	256	80	27	0	9	65	136	13	0
OTU 146	4	7	7	2	0	10	5	8	2	33	6	6	8	0	82	0	2	1	19	10	57	29	2	3	37	8	0	28	168	53	5	0	4	0	25	29	35	0	7	10	63	1	365	5	0	53	1	28	9	83
OTU 147	10	0	16	0	12	0	0	0	9	3	38	34	3	0	18	52	0	0	15	0	1	0	15	0	3	19	22	7	0	56	0	24	10	28	14	1	0	0	1	5	9	0	2	0	0	4	0	55	9	6
OTU 148	1	366	16	1019	2	1	165	19	19	11	22	298	63	30	1870	273	42	11	0	905	18	1	30	4	6	6	878	61	0	1341	165	7	0	35	592	14	10	1	15	0	8	2	3	0	41	544	28	37	243	0
OTU 149	0	144	3	7	0	14	8	0	1	36	6	59	3	92	11	13	1	0	11	0	2	0	3	0	1	0	1	30	52	13	55	1	0	5	3	0	0	5	2	0	24	2	0	1	0	5	16	16	136	0
OTU 150	9	3	25	0	1	0	110	2	0	20	0	0	0	5	0	26	1	0	14	0	0	0	32	0	44	3	0	0	19	0	0	6	7	0	0	0	0	55	0	3	0	0	5	15	8	0	0	2	12	3
OTU 151	6	123	0	7	6	0	8	0	3	55	20	8	23	19	1	53	62	6	0	7	15	0	33	3	9	2	10	30	19	14	30	0	3	2	10	22	11	0	0	0	3	34	23	7	1	47	54	17	28	4
OTU 152	27	1	2	22	314	0	29	35	17	64	30	257	0	11	66	65	0	0	115	32	59	13	11	0	113	0	40	10	109	2	7	5	2	35	0	2	37	8	1	20	0	51	7	15	0	560	79	28	7	32
OTU 153	0	15	104	0	0	16	2	0	0	0	0	1	11	4	0	1	4	0	0	0	2	0	0	0	0	0	0	0	0	0	2	0	0	3	0	0	0	5	0	0	18	0	0	0	4	0	4	1	1	0
OTU 154	0	0	40	25	17	0	0	0	0	0	0	0	1	0	0	0	0	0	1	0	1	0	30	0	0	0	0	14	0	0	3	0	48	0	0	0	0	8	0	0	6	0	0	0	0	0	0	0	0	0
OTU 155	0	0	5	1	10	30	34	7	0	12	6	33	0	9	24	24	30	1	1	0	1	0	0	1	0	11	4	2	0	0	2	17	6	23	7	6	12	1	0	3	0	34	2	25	0	9	0	3	3	3
OTU 156	38	122	32	16	16	70	55	22	6	56	33	86	57	790	126	953	10	48	178	3	52	11	61	21	4	40	45	920	112	23	57	8	6	1	15	10	0	10	33	28	11	25	137	12	16	51	193	13	77	70
OTU 157	0	0	0	2	0	9	5	5	0	0	0	0	1	109	0	10	28	0	2	0	36	1	31	0	0	12	14	4	0	5	2	5	5	1	0	0	0	0	16	4	1	0	2	2	126	1	0	41	5	26
OTU 158	0	1	0	0	0	0	0	0	0	0	0	68	0	0	0	0	0	0	0	0	27	0	0	0	0	0	0	22	0	0	0	0	0	3	0	0	19	0	0	0	9	13	3	0	0	0	0	0	2	0
OTU 159	0	54	46	2	5	70	2	3	18	13	19	3	82	282	15	3	15	39	26	0	18	0	73	16	34	0	44	20	30	0	28	62	39	6	0	0	33	14	0	1	21	28	150	0	29	8	25	2	13	19
OTU 160	36	28	42	24	127	97	85	49	47	127	39	106	178	57	7	265	29	184	30	31	93	19	174	80	177	1424	21	21	70	31	3	8	61	116	12	10	24	84	2820	27	149	31	260	8	89	145	70	153	53	40
OTU 161	7	0	1	21	88	24	176	11	1	280	0	4	72	11	14	25	48	36	12	17	47	2	1	11	52	0	13	9	0	16	0	12	20	19	6	15	4	11	3	0	9	37	113	12	0	22	49	47	2	0
OTU 162	90	0	38	24	81	9	10	66	95	57	44	23	7	16	42	46	0	5	29	29	21	15	22	2	71	1	34	0	10	7	0	41	1	0	11	0	20	0	0	2	5	16	42	9	16	0	3	0	2	5
OTU 163	0	0	0	0	0	0	0	0	0	0	0	0	0	0	0	2	0	0	0	1	0	0	0	0	0	0	0	0	0	0	0	1	0	0	0	0	0	0	0	0	0	0	0	0	0	0	4	0	0	0
OTU 164	0	0	57	0	0	0	0	1	1	0	0	0	0	0	0	0	0	0	0	0	0	0	0	0	0	0	0	0	6	0	0	0	0	0	0	0	0	0	0	0	0	2	0	0	0	0	2	0	0	0
OTU 165	1	8	0	2	21	0	47	2	0	13	210	47	0	54	0	10	23	0	5	0	99	0	4	0	76	0	22	0	0	8	4	67	1	4	7	21	37	140	0	0	63	22	0	2480	96	7	0	6	11	6
OTU 166	0	0	0	0	1	1	0	0	0	0	0	3	5	0	0	2	0	0	0	0	0	0	0	0	0	0	0	7	127	0	0	0	0	0	0	0	12	0	0	0	5	0	0	5	0	0	0	0	0	0
OTU 167	9	11	12	0	1	0	22	3	9	1	45	62	5	5	0	156	20	0	4	1	10	12	0	0	0	4	0	1	22	3	5	6	0	0	1	7	0	36	0	2	41	94	39	1	19	55	2	0	32	8
OTU 168	0	1552	26	1	0	46	7	0	1	4	40	126	87	1	0	26	1	3	9	10	41	47	10	3	17	4	41	10	3	32	754	9	54	0	12	5	5	3	0	9	6	76	51	1582	2	10	4	3	792	0
OTU 169	2	0	1	0	0	0	0	0	1	0	4	1	0	0	0	5	0	0	35	0	0	0	0	0	0	0	0	0	0	0	0	0	107	0	0	1	0	0	0	0	0	0	0	10	0	0	0	0	0	0
OTU 170	0	0	0	0	0	0	1	0	0	2	0	0	0	0	0	6	0	0	0	0	0	0	0	0	0	0	0	0	0	1	0	0	10	0	0	0	0	0	0	0	10	0	0	0	0	0	0	0	0	0
OTU 171	39	42	33	13	303	12	6	179	11	1	23	13	27	70	0	51	0	1	26	98	299	15	6	1	43	173	42	34	126	37	11	16	162	11	7	0	158	2	7	0	3	18	11	0	63	9	249	14	19	0
OTU 172	0	2	0	0	0	0	2	0	0	0	76	18	0	0	4	0	13	2	1	0	0	0	0	0	0	0	0	2	0	10	0	0	1	0	4	7	2	0	0	2	0	0	9	7	0	0	93	0	0	5
OTU 173	0	8	0	4	0	0	1	12	1	2	1	2	0	9	21	0	0	0	22	10	64	0	0	0	3	15	2	0	12	0	3	2	4	0	0	1	8	9	14	34	0	3	1	0	0	2	0	0	6	38
OTU 174	0	4	109	56	0	1015	74	18	16	10	1	1	4	101	3	0	11	1944	8	13	4	3	24	971	0	24	34	77	0	0	0	159	7	5	4	2	0	84	51	26	0	53	0	0	19	106	1	5	0	76
OTU 175	0	0	1	13	1	1	9	2	0	20	6	42	4	1	0	1	25	10	0	2	3	41	0	5	0	1	2	30	1	3	1	1	47	56	11	25	13	30	0	2	0	0	29	0	0	175	37	56	0	0
OTU 176	0	123	340	2	55	5	0	28	14	81	71	255	17	4	108	58	21	48	5	23	25	78	11	24	35	0	3	56	73	63	37	38	76	36	48	23	6	15	0	25	15	92	93	23	0	154	6	18	435	20
OTU 177	23	60	7	19	22	67	2	33	27	6	77	22	12	19	45	111	20	210	13	26	722	0	37	111	21	4	41	14	140	151	28	17	11	57	60	6	502	7	5	22	161	28	33	45	1	112	194	188	45	51
OTU 178	3	14	55	14	3	51	2	44	0	0	28	4	4	90	1	79	0	71	1	0	0	7	0	42	10	1	18	19	6	0	10	17	0	0	0	0	0	42	2	0	1	17	0	3	1	11	2	0	1	3
OTU 179	3	7	180	0	120	56	63	5	4	56	66	15	22	0	2	2	5	123	5	0	14	1	11	52	10	3	21	4	148	1	1	0	0	3	0	4	7	0	3	10	8	0	18	5	1	2	6	2	0	37
OTU 180	18	76	255	29	78	111	77	21	116	36	62	24	453	26	160	626	56	265	67	11	122	43	26	2380	160	26	83	277	101	22	25	92	67	106	13	50	49	90	11	45	76	121	47	39	13	16	276	119	60	68
OTU 181	0	13	0	15	1	317	17	3	20	33	25	13	7	180	66	167	0	551	4	17	9	1	24	310	52	2	22	1	1	0	18	35	13	3	0	13	0	9	26	22	1290	26	28	12	3	49	1	12	6	16
OTU 182	3	0	0	0	0	95	25	0	0	1	0	26	0	0	0	0	0	27	0	0	0	0	0	9	0	0	0	0	0	0	0	0	0	2	0	0	0	0	0	0	0	0	71	0	0	0	0	48	0	0
OTU 183	0	0	0	6	118	3	4	0	14	57	0	41	0	32	11	133	7	74	8	14	56	27	78	45	8	23	0	29	23	24	1	22	10	89	26	5	5	1	67	103	33	81	180	1	9	1	8	104	0	344
OTU 184	1	5	8	1	3	0	142	10	14	78	4	1	36	0	7	0	8	2	0	10	26	0	1	0	116	6	2	2	89	3	3	4	5	2	2	20	27	4	15	27	0	0	0	3	22	10	18	0	2	9
OTU 185	3	39	58	60	79	31	2	57	38	163	12	28	64	14	56	33	1235	28	15	14	0	7	44	13	61	1	26	175	135	121	31	17	27	15	54	455	22	74	29	1	20	105	0	524	49	12	33	48	6	17
OTU 186	0	2	2	0	0	5	2	2	5	0	0	0	26	0	16	12	0	0	0	0	6	23	0	0	5	0	24	3	5	0	5	2	4	0	0	0	0	35	0	1	0	3	4	0	11	0	27	0	0	3
OTU 187	55	23	238	183	91	24	70	165	19	2534	18	42	12	39	49	137	42	6	211	373	186	275	37	1	46	8	345	36	18	321	7	162	4	122	175	73	81	150	27	22	344	64	122	42	169	6	232	251	21	23
OTU 188	28	47	122	8	104	125	50	21	60	0	184	136	16	43	162	41	105	104	39	6	43	38	39	46	2418	1	43	43	114	10	17	8	9	154	1	104	29	6	8	31	33	15	95	35	128	39	8	234	4	53
OTU 189	16	22	5	152	63	33	3	29	9	84	45	24	70	29	6	280	1	45	32	64	122	10	6	22	32	4	54	64	89	140	12	4	17	68	97	4	0	160	13	11	42	80	29	5	323	292	179	24	33	18
OTU 190	2	0	0	0	0	0	16	6	0	0	9	4	26	3	0	1	0	0	11	1	0	0	0	0	0	0	2	12	2	0	0	0	38	0	0	0	15	21	0	0	5	0	3	0	0	0	1	30	4	0
OTU 191	17	73	0	9	12	1092	26	10	1	15	9	63	149	38	44	72	61	9	0	8	2191	64	68	2	25	7	0	8	106	3	26	23	18	1	2	36	843	42	16	12	120	19	142	26	42	39	75	85	64	51
OTU 192	94	389	215	59	16	33	24	188	10	57	20	201	53	18	66	38	42	197	401	20	36	3	20	79	60	714	32	47	28	49	217	31	58	193	30	28	4	619	1013	2149	55	2	65	20	87	462	65	425	144	192
OTU 193	280	41	46	18	17	11	22	448	177	3	18	1	60	40	12	23	0	8	693	15	34	703	22	8	1	12	5	22	672	8	17	192	3	20	0	10	16	1482	0	9	10	67	9	7	2407	17	225	12	45	32
OTU 194	2	50	697	1	2	7	0	1	541	3	1	6	2	14	43	150	2	0	0	0	21	1755	0	0	62	0	0	1	81	0	17	550	1	0	0	2	0	44	5	0	4	5	5	0	0	0	11	16	15	1
OTU 195	0	0	9	8	8	8	58	8	32	11	25	0	25	61	1	27	17	53	0	13	3	0	14	28	33	0	2	2	440	20	0	0	7	0	2	0	0	207	5	2	27	0	5	0	9	44	7	0	2	2
OTU 196	23	0	21	0	29	5	22	0	21	26	48	1	3	51	5	28	2	2	19	5	76	0	31	1	3	24	0	68	6	2	0	19	2751	106	1749	0	42	495	55	48	18	121	72	6	0	6	8	146	7	110
OTU 197	3	96	105	31	70	38	124	45	25	19	94	22	27	105	43	55	57	12	26	14	26	3	8	1	41	0	50	137	22	3	23	25	137	4	4	24	47	32	6	2	28	128	0	44	62	42	49	1	25	11
OTU 198	1	0	0	0	21	0	0	0	0	0	0	3	9	17	8	0	0	0	0	0	1	1	9	0	10	2	0	117	0	1	2	41	0	14	0	1	0	12	0	0	0	11	0	0	0	9	0	3	0	0
OTU 199	2	12	38	1	10	155	0	1	28	38	73	0	20	5	8	58	28	19	0	0	22	0	147	11	0	4	10	2	0	0	0	0	17	14	5	8	0	71	0	3	1	28	0	6	0	4	36	22	14	5
OTU 200	10	2	33	0	8	3	2	4	8	5	0	12	14	1	19	31	0	32	4	12	0	0	28	18	1	0	40	73	2	1	8	5	6	20	0	0	27	69	0	1	44	0	33	0	0	17	1	23	2	9
