	Host 1	Host 2	Host 3	Host 4	Host 5	Host 6	Host 7	Host 8	Host 9	Host 10	Host 11	Host 12	Host 13	Host 14	Host 15	Host 16	Host 17	Host 18	Host 19	Host 20	Host 21	Host 22	Host 23	Host 24	Host 25	Host 26	Host 27	Host 28	Host 29	Host 30	Host 31	Host 32	Host 33	Host 34	Host 35	Host 36	Host 37	Host 38	Host 39	Host 40	Host 41	Host 42	Host 43	Host 44	Host 45	Host 46	Host 47	Host 48	Host 49	Host 50	
OTU 1	1	2	0	0	1	0	1	0	0	3	4	0	0	5	3	1	0	2	10	1	1	6	2	1	2	0	1	2	1	1	6	2	4	0	2	8	4	4	2	0	0	7	8	1	0	1	0	3	0	0
OTU 2	0	0	0	0	0	0	0	0	1	0	0	0	1	0	0	0	0	0	0	0	1	0	0	0	0	1	0	2	0	1	0	0	0	0	0	0	1	0	1	0	0	0	1	0	0	0	0	1	0	0
OTU 3	0	0	6	91	0	1	0	4	0	1	1	4	2	0	1	0	0	6	2	0	0	0	0	2	0	0	1	1	0	0	1	0	0	0	0	0	0	0	1	3	1	5	0	0	0	0	0	0	0	1
OTU 4	0	0	0	0	0	0	0	0	0	0	0	0	0	0	0	0	0	0	0	0	0	0	0	0	0	0	0	0	0	0	0	0	0	0	0	0	0	0	0	0	0	0	0	0	0	0	0	0	0	0
OTU 5	6	5	9	15	54	5	23	6	7	11	6	5	13	14	18	38	48	5	7	20	0	5	10	6	5	29	5	9	25	14	3	15	8	1	26	22	21	4	1	9	3	53	13	6	24	13	2	23	2	1
OTU 6	2	0	0	1	1	2	0	3	0	0	0	0	0	0	0	0	1	0	0	3	0	1	1	1	0	0	0	1	0	0	0	0	1	1	1	2	0	0	2	3	6	0	0	0	4	1	27	3	0	1
OTU 7	4	3	2	2	4	2	1	0	7	0	2	1	14	1	6	1	0	1	2	5	3	0	0	2	7	2	5	5	4	7	3	1	2	0	3	0	1	1	1	0	7	0	3	3	1	2	3	10	1	7
OTU 8	0	1	5	10	0	2	0	6	9	0	5	1	5	0	8	0	4	2	9	2	2	5	4	1	2	12	2	2	0	1	4	2	0	0	5	8	43	0	0	1	1	7	2	1	7	0	2	3	4	0
OTU 9	0	0	1	0	1	0	0	0	0	0	0	0	0	0	0	0	0	0	1	0	1	0	0	0	1	4	0	0	0	0	0	0	0	3	0	3	1	0	6	2	0	0	0	0	3	0	0	0	1	0
OTU 10	0	0	0	0	0	0	0	0	1	3	0	0	0	0	0	0	0	0	0	0	4	0	0	0	1	2	2	0	1	1	0	0	5	0	0	1	0	0	8	0	0	0	0	0	2	2	1	1	0	0
OTU 11	1	2	0	0	0	0	0	2	1	0	0	6	0	1	4	5	1	2	0	0	0	5	0	0	0	0	0	0	2	1	2	0	0	2	2	1	1	2	0	33	8	0	2	0	2	3	3	2	5	0
OTU 12	7	0	1	2	0	0	28	2	0	3	0	5	0	0	2	1	5	1	1	0	5	0	0	2	1	2	1	2	1	1	2	3	8	0	0	2	0	3	0	0	1	0	0	1	3	0	3	4	5	1
OTU 13	0	0	0	0	0	0	0	0	0	1	0	0	0	0	0	0	0	0	0	0	0	0	0	0	0	4	1	0	0	0	0	0	1	0	0	1	0	0	0	0	1	0	0	0	0	0	0	0	1	0
OTU 14	0	0	0	0	0	0	0	2	0	0	0	11	0	0	0	4	0	3	0	0	0	0	0	0	0	0	0	0	1	0	0	0	0	0	0	0	1	0	0	2	0	1	0	0	0	2	1	1	0	0
OTU 15	0	3	0	0	0	0	0	0	0	0	0	0	0	0	0	0	0	0	0	0	0	0	0	1	0	0	0	0	0	0	0	0	0	0	0	0	0	0	0	0	0	0	0	0	0	0	0	0	0	0
OTU 16	0	0	0	0	0	0	0	0	0	0	0	0	0	0	0	0	0	0	0	0	0	0	0	0	0	0	0	0	0	0	0	3	0	0	0	0	0	0	0	0	0	0	0	0	0	0	0	0	0	0
OTU 17	0	0	1	0	0	0	1	0	1	3	0	0	0	0	0	0	0	2	0	2	0	0	1	1	0	3	0	1	0	0	2	2	9	0	0	1	0	0	2	1	0	0	1	0	0	2	2	0	0	0
OTU 18	0	2	1	0	0	1	0	0	0	0	4	0	2	8	14	0	0	6	9	1	0	0	3	0	0	0	3	1	5	0	9	0	0	4	2	2	4	0	0	1	1	0	7	0	1	1	5	5	4	2
OTU 19	0	0	0	0	0	0	0	0	0	0	0	0	0	0	0	0	0	0	0	0	0	0	0	0	0	0	0	0	0	0	0	0	0	0	0	0	0	0	0	0	0	0	0	0	0	0	0	0	0	0
OTU 20	1	1	1	3	3	0	1	0	0	2	0	3	2	0	3	4	0	2	1	4	8	0	0	1	6	2	0	1	6	3	1	0	3	0	0	0	0	0	7	0	0	0	2	0	0	1	1	2	1	1
OTU 21	1	0	4	1	2	1	0	10	0	0	0	0	3	0	0	0	0	5	0	2	0	2	1	6	1	7	0	3	0	0	0	0	0	0	2	0	0	0	0	0	7	1	0	2	3	0	3	1	0	0
OTU 22	1	4	1	1	0	1	5	1	0	0	1	1	0	0	3	0	0	7	0	0	1	1	0	2	0	0	1	0	49	0	1	2	3	0	0	0	0	3	0	0	25	0	1	0	0	0	1	1	0	0
OTU 23	1	0	0	0	0	0	0	0	0	1	0	0	2	0	4	0	1	0	0	0	0	0	0	1	6	1	2	0	0	0	0	10	3	1	6	0	0	1	0	0	0	0	0	0	0	0	4	7	0	0
OTU 24	2	0	3	0	0	2	0	1	0	0	0	4	1	0	0	0	0	0	1	0	38	0	0	0	0	0	0	0	0	0	0	0	0	0	0	2	0	0	0	1	0	0	0	0	0	0	0	1	0	0
OTU 25	0	0	0	0	0	0	0	0	0	1	0	0	0	0	0	0	0	0	0	0	0	0	0	0	0	1	0	0	0	0	0	0	2	0	0	0	0	0	0	0	0	0	0	0	0	0	0	0	0	0
OTU 26	0	0	0	2	0	0	0	0	0	0	0	0	3	0	0	0	0	0	0	0	0	0	0	0	0	0	0	1	0	0	0	1	0	0	0	0	0	0	0	0	0	0	0	0	0	4	3	2	0	0
OTU 27	0	0	0	0	0	0	0	0	12	0	1	0	0	0	0	0	0	0	1	0	0	0	0	0	0	0	0	0	2	0	0	0	0	0	0	0	0	0	0	0	1	2	0	0	0	0	0	0	0	0
OTU 28	0	1	3	2	0	1	0	3	0	0	0	1	0	6	0	3	0	0	3	4	1	1	3	1	1	4	5	6	7	1	4	6	1	0	2	3	6	0	13	1	3	2	2	1	1	1	3	1	7	0
OTU 29	2	2	2	1	0	9	0	3	4	3	0	2	0	3	4	1	1	2	0	8	8	0	0	0	2	0	3	4	0	17	2	0	1	5	5	0	0	0	0	0	0	0	2	0	1	1	6	0	0	2
OTU 30	0	0	0	0	0	0	0	0	0	0	0	0	0	0	0	0	0	0	0	0	0	0	0	0	0	0	0	0	0	0	0	0	0	0	0	0	0	0	0	0	0	0	0	0	0	0	0	0	0	0
OTU 31	3	4	0	0	0	0	0	0	0	0	0	0	0	0	0	0	0	0	0	0	3	0	0	0	5	0	0	2	0	0	5	7	0	0	0	0	1	0	0	0	1	0	2	0	0	0	0	1	2	3
OTU 32	2	0	0	0	0	4	0	1	0	2	142	3	0	5	1	1	49	0	4	2	4	1	2	5	3	2	2	2	8	3	1	7	5	0	1	0	0	0	63	1	0	1	0	1	1	0	2	0	6	6
OTU 33	11	0	0	0	0	0	0	0	0	0	0	0	0	0	0	0	0	0	0	0	0	0	0	0	0	0	0	0	0	0	0	0	0	0	0	0	0	0	0	0	0	0	0	0	0	0	0	2	3	4
OTU 34	0	0	0	18	11	2	0	6	0	1	2	1	0	0	0	0	0	1	3	0	1	0	1	42	2	13	0	0	5	1	1	0	0	0	1	3	1	0	6	3	1	1	0	1	0	0	1	0	5	0
OTU 35	1	6	1	0	0	4	0	4	1	0	0	43	1	0	0	4	0	1	1	2	117	2	0	0	1	0	0	6	0	16	0	2	1	21	4	1	1	0	1	2	2	0	0	0	0	1	2	0	1	2
OTU 36	0	0	2	17	0	1	0	5	0	149	3	0	0	0	2	1	1	0	2	0	8	0	1	1	0	9	0	0	0	0	3	0	3	0	0	1	2	1	0	0	0	0	1	1	2	0	2	2	0	0
OTU 37	0	0	0	0	0	0	1	0	0	0	1	0	0	0	0	0	0	0	0	0	0	0	0	0	0	1	0	0	0	0	1	0	0	0	0	0	1	1	0	0	2	0	0	1	0	0	0	0	3	0
OTU 38	1	0	4	0	0	2	0	0	0	1	0	1	0	1	0	35	1	1	0	0	0	0	1	0	1	1	0	0	21	0	1	2	0	0	0	0	0	0	9	0	5	0	0	32	0	0	0	1	0	0
OTU 39	0	0	0	0	0	0	0	0	2	0	0	0	0	0	0	0	0	1	0	0	0	0	2	0	1	0	0	10	0	3	2	0	0	0	0	0	2	0	0	1	0	0	1	1	0	2	0	0	1	0
OTU 40	0	1	0	1	1	1	15	0	0	0	0	3	0	0	3	3	8	0	0	1	3	1	2	2	4	2	2	4	0	0	2	3	0	1	0	0	32	25	0	6	2	1	1	2	0	5	0	0	3	0
OTU 41	0	0	3	0	0	0	0	0	0	2	1	4	6	0	5	0	0	0	0	0	2	3	1	0	0	4	0	0	6	0	0	1	1	0	0	0	0	0	2	1	0	0	0	0	0	0	5	2	5	1
OTU 42	1	0	2	0	0	0	0	0	0	0	0	0	0	0	1	0	0	0	0	0	0	0	6	1	0	0	0	0	0	0	2	0	0	0	0	0	8	0	0	0	0	0	2	0	0	1	0	0	0	0
OTU 43	0	0	0	0	0	0	0	0	0	0	0	0	107	0	0	0	0	0	0	0	0	0	0	0	0	0	0	0	0	0	0	1	0	0	0	0	0	0	0	0	0	0	0	0	0	0	0	0	0	0
OTU 44	0	0	0	0	0	0	0	0	1	0	0	0	0	0	2	0	0	0	0	0	0	0	0	0	0	0	0	1	0	0	0	0	1	0	0	0	0	0	0	0	0	0	0	0	0	0	0	0	0	0
OTU 45	7	1	1	1	1	0	0	2	0	0	0	4	0	3	0	0	0	0	0	1	0	0	4	2	0	0	9	0	0	0	4	4	0	1	2	0	2	0	0	0	2	1	2	1	4	25	4	0	15	10
OTU 46	1	4	2	2	0	5	0	1	0	4	0	2	0	0	1	1	0	5	4	7	2	0	1	0	0	2	2	1	2	0	1	0	10	2	0	1	0	0	0	0	0	1	0	0	4	0	5	3	0	0
OTU 47	0	1	0	0	0	0	0	0	0	0	0	0	0	0	1	0	0	0	0	0	0	0	0	0	0	0	0	0	0	0	1	0	0	0	0	0	0	0	0	0	0	0	0	0	0	0	1	0	0	0
OTU 48	0	0	6	0	6	0	0	1	0	0	5	0	0	0	3	0	0	2	3	0	1	5	1	1	1	0	6	1	0	0	3	1	3	0	56	51	2	0	0	0	3	3	0	34	0	2	1	2	7	0
OTU 49	0	0	0	0	0	0	0	1	0	0	0	2	0	0	0	0	0	2	0	0	0	0	0	0	1	0	5	1	0	0	0	2	0	0	0	0	0	1	1	10	5	0	0	0	0	0	0	0	0	5
OTU 50	3	1	2	0	2	0	0	1	1	4	0	0	0	1	3	6	5	0	1	16	2	0	5	3	2	0	2	2	4	2	10	2	6	3	15	2	4	0	3	7	9	0	4	4	5	0	2	8	4	0
OTU 51	0	6	1	2	0	1	0	1	2	3	1	6	2	0	0	1	0	1	2	2	0	0	0	7	1	0	12	0	0	3	1	1	3	9	3	1	1	0	3	0	0	1	0	0	0	1	0	0	0	0
OTU 52	0	1	5	2	0	0	0	9	0	1	3	10	1	1	3	2	5	3	1	7	0	3	6	0	10	7	11	5	9	0	5	3	8	1	0	2	0	4	10	0	0	0	1	1	5	5	15	1	1	1
OTU 53	0	0	0	0	0	0	0	0	0	0	0	0	0	0	0	0	0	0	0	0	0	0	0	0	0	1	0	0	0	0	0	0	0	0	0	0	0	0	0	0	0	0	0	0	0	0	0	0	0	0
OTU 54	2	5	1	0	3	15	0	4	1	0	4	17	1	0	2	0	7	2	5	0	1	3	0	1	6	0	7	5	9	2	5	5	1	1	3	5	6	1	4	2	5	4	6	0	28	4	1	8	2	2
OTU 55	0	0	0	0	0	0	0	0	0	0	0	0	0	0	0	0	0	0	0	0	0	0	0	0	0	0	0	0	0	0	0	0	0	0	0	0	0	0	0	0	0	0	0	0	0	0	0	0	0	0
OTU 56	0	5	0	1	2	0	131	0	1	0	2	1	1	0	0	85	0	0	2	0	0	2	0	0	0	2	0	2	0	3	0	0	1	0	0	50	0	3	0	0	5	1	0	41	0	0	0	0	1	0
OTU 57	1	1	7	1	4	131	0	1	3	0	6	1	1	6	0	2	12	1	8	5	2	4	0	0	3	14	15	11	3	11	1	1	1	0	4	7	1	1	6	37	2	5	2	10	1	2	3	0	0	2
OTU 58	1	0	0	2	0	0	0	1	0	0	0	0	20	8	6	0	0	0	0	34	0	0	30	1	0	0	0	2	0	8	63	1	2	3	0	2	31	0	0	9	3	0	29	0	2	1	5	44	0	1
OTU 59	0	0	0	0	0	3	0	0	1	0	2	0	0	0	0	0	0	0	2	5	0	1	0	0	3	0	0	0	2	0	0	0	0	0	0	0	0	0	1	1	2	1	0	0	0	2	1	0	0	0
OTU 60	5	0	1	7	0	4	0	5	3	0	2	0	9	1	1	0	3	0	0	2	6	0	0	0	1	1	19	1	6	6	2	24	1	1	6	1	1	0	0	1	8	0	1	0	0	1	17	8	7	1
OTU 61	0	1	0	1	0	0	7	19	2	1	5	4	2	0	3	0	0	1	1	2	1	2	3	9	0	1	0	0	7	3	2	2	6	1	4	3	5	0	0	0	0	8	1	0	1	0	1	5	4	1
OTU 62	0	1	21	0	1	1	0	1	0	0	0	1	0	0	0	0	0	9	2	0	1	0	0	0	0	1	0	1	0	0	0	0	1	0	1	0	0	0	0	0	2	0	1	0	1	0	2	1	1	0
OTU 63	1	0	48	0	0	0	0	0	0	0	0	0	0	0	1	0	2	0	1	0	0	0	0	0	0	14	3	0	1	0	2	3	0	0	0	0	0	1	0	0	0	0	0	0	0	0	0	0	0	0
OTU 64	34	1	7	4	2	6	0	7	1	3	14	1	2	2	5	5	3	1	44	3	7	24	0	21	1	3	2	2	7	7	3	14	12	0	1	31	3	5	6	1	2	10	6	22	3	1	3	40	5	18
OTU 65	0	0	0	0	0	0	0	0	0	0	0	0	0	0	0	0	0	0	0	0	0	0	0	1	0	0	0	0	0	0	0	0	0	0	0	0	0	0	0	0	0	0	0	0	0	0	0	0	0	0
OTU 66	0	4	1	1	0	0	5	0	20	4	0	4	5	1	8	1	0	2	0	2	0	4	2	0	0	0	7	0	4	33	9	17	8	0	4	0	2	4	0	0	14	1	5	0	0	0	0	8	3	0
OTU 67	0	0	0	0	0	0	0	3	0	0	1	2	2	0	6	0	0	3	4	0	1	0	2	0	0	1	2	0	0	6	0	3	0	0	2	0	0	1	0	1	1	0	0	1	0	2	2	1	0	28
OTU 68	0	0	0	1	0	0	3	0	0	0	4	2	0	0	2	2	0	0	11	0	0	3	0	0	0	0	0	0	0	0	0	1	0	0	0	2	0	0	0	0	0	4	0	6	2	9	1	0	2	4
OTU 69	0	5	4	0	0	0	0	6	0	0	8	3	0	0	0	0	5	1	7	0	0	1	2	1	10	1	0	0	0	0	0	2	0	1	1	1	0	2	3	2	4	66	0	0	2	0	1	0	0	1
OTU 70	0	2	0	0	3	0	0	0	0	0	1	0	0	2	1	0	1	1	1	0	0	1	10	0	0	0	0	0	0	0	13	2	0	0	2	0	7	0	16	6	1	1	5	0	0	0	0	0	0	0
OTU 71	0	0	2	0	0	0	5	0	0	1	0	0	1	0	0	0	0	0	1	0	1	0	0	13	0	0	0	1	1	0	0	0	4	3	1	0	0	6	1	0	0	0	0	0	0	0	0	2	0	0
OTU 72	0	1	1	2	0	7	0	9	2	0	0	3	0	0	0	1	0	0	0	0	0	0	0	2	2	1	0	1	0	1	0	0	2	34	0	1	0	1	3	0	2	0	0	3	1	0	0	1	0	3
OTU 73	2	0	7	0	0	0	0	9	0	0	0	0	0	0	0	0	0	0	2	2	0	1	0	2	0	0	5	0	0	0	1	0	0	1	0	3	0	0	0	0	1	5	3	0	3	1	4	0	1	1
OTU 74	0	4	2	0	0	3	14	9	1	1	1	2	0	1	0	4	2	1	8	0	4	2	0	0	1	0	0	3	2	0	0	0	6	0	0	5	0	19	0	4	2	7	0	0	0	0	0	0	0	0
OTU 75	0	0	0	2	0	0	0	3	4	1	2	1	3	31	2	0	1	1	0	1	0	0	2	3	0	0	0	0	2	2	11	2	6	3	0	0	2	1	3	0	3	0	4	1	0	3	1	1	2	1
OTU 76	0	0	0	0	0	0	0	1	0	0	0	0	0	0	0	17	2	8	0	0	0	2	0	0	0	0	0	0	1	0	0	0	0	0	0	0	0	0	0	0	0	20	0	10	0	18	0	0	2	1
OTU 77	1	1	2	0	0	0	1	1	0	0	0	1	0	1	2	0	4	9	1	2	2	4	2	0	5	2	5	1	1	1	4	0	1	1	0	1	76	1	1	4	0	0	2	2	0	0	3	4	6	0
OTU 78	3	2	0	0	1	4	0	3	0	0	1	0	1	0	9	0	0	1	2	3	0	1	2	1	2	0	0	2	0	0	0	0	0	1	0	0	0	0	0	0	2	0	0	0	1	0	1	3	0	0
OTU 79	0	8	1	4	4	4	27	45	15	14	5	11	52	0	10	1	2	4	7	17	4	2	3	2	103	10	1	5	5	18	2	5	11	14	0	3	2	60	5	5	6	5	1	5	5	5	5	6	10	2
OTU 80	0	1	0	1	0	0	3	0	2	0	3	1	0	12	3	3	1	4	2	1	2	4	0	2	1	3	0	39	1	0	0	3	0	1	2	1	0	9	7	1	2	1	0	0	2	1	0	0	0	3
OTU 81	0	6	11	1	0	0	1	11	0	2	0	1	7	2	0	0	2	9	7	5	2	4	2	7	0	5	6	11	0	0	3	1	0	7	2	7	0	0	2	0	8	6	0	1	1	0	4	4	0	0
OTU 82	0	0	0	1	0	0	1	6	0	0	0	0	0	0	4	0	0	0	0	0	0	5	0	0	4	0	0	2	0	0	1	0	3	0	0	1	0	1	0	2	0	0	0	1	5	3	1	1	3	8
OTU 83	0	0	0	0	0	0	0	0	0	1	0	0	0	0	0	0	0	0	0	0	0	0	0	1	1	0	9	0	0	1	1	0	0	0	0	0	0	0	0	0	0	0	1	1	0	0	0	0	0	0
OTU 84	0	0	0	0	0	0	0	1	0	2	0	0	0	6	0	1	0	3	1	0	0	0	2	0	0	0	0	0	0	0	7	0	3	2	0	1	4	1	0	1	0	0	4	0	4	0	4	1	0	5
OTU 85	1	0	0	0	0	0	0	0	0	0	0	0	0	0	0	0	0	0	0	0	0	0	0	0	3	1	0	0	0	0	0	2	0	0	2	0	0	0	1	1	1	0	0	0	2	0	0	0	0	0
OTU 86	0	0	6	0	0	0	0	0	0	0	0	0	0	0	1	0	0	4	0	0	0	0	0	0	1	0	0	1	0	0	0	0	0	0	0	0	0	0	0	0	0	0	0	0	0	0	0	0	0	2
OTU 87	1	0	0	0	0	2	0	0	0	0	0	3	0	0	0	0	3	31	0	1	0	0	2	0	1	0	0	0	0	0	1	0	0	0	0	0	1	0	0	0	0	0	1	0	2	0	0	1	0	0
OTU 88	0	1	2	0	0	0	0	0	0	0	0	0	1	0	0	0	0	0	0	0	0	0	0	0	0	14	0	0	0	0	0	0	0	0	0	0	0	0	0	0	4	0	0	0	0	0	0	0	0	0
OTU 89	1	0	0	0	0	0	0	2	1	0	0	0	0	0	1	0	0	2	3	0	0	1	0	0	0	0	0	0	0	0	0	0	1	0	0	0	0	1	0	0	4	1	0	0	0	0	0	0	0	0
OTU 90	0	0	0	0	0	1	0	0	3	0	0	0	0	0	0	0	0	2	0	0	0	0	0	0	0	0	0	0	0	1	0	3	0	0	1	1	0	0	0	0	0	0	0	0	0	0	0	0	0	0
OTU 91	0	1	0	0	0	0	0	0	0	0	0	0	1	0	0	0	0	0	0	0	0	0	2	0	0	0	0	0	0	0	2	0	0	0	0	0	2	0	0	0	0	0	1	0	0	0	0	0	0	0
OTU 92	0	0	1	0	0	0	0	0	0	0	0	0	0	0	0	0	0	0	0	0	0	0	0	0	0	0	0	0	0	0	0	1	3	0	0	0	0	0	0	0	0	0	0	0	0	0	5	1	0	0
OTU 93	0	3	0	1	0	0	0	0	0	0	1	0	0	0	0	0	0	0	1	0	0	0	0	0	0	0	0	0	0	0	0	0	0	4	0	0	0	0	0	0	0	0	0	0	0	0	0	0	1	0
OTU 94	10	2	0	1	1	1	0	0	0	0	2	2	0	1	4	2	5	3	7	0	1	2	0	1	0	1	0	10	2	0	2	11	2	7	2	2	4	1	0	0	10	3	0	2	8	0	28	0	2	2
OTU 95	0	0	3	0	0	0	0	2	0	0	2	0	7	0	0	0	0	0	2	0	0	0	0	1	0	0	1	0	0	1	0	3	0	1	0	0	0	0	0	0	0	0	0	2	0	0	2	21	0	0
OTU 96	0	0	0	0	0	0	0	0	0	0	0	0	0	0	0	0	0	2	0	0	0	1	0	0	0	0	0	0	0	0	0	0	0	0	0	0	0	0	0	0	0	0	0	0	0	0	0	0	0	0
OTU 97	0	0	0	0	1	0	0	0	0	0	0	0	0	0	0	3	0	0	0	0	0	0	0	1	1	1	0	0	0	0	0	0	0	0	0	0	0	0	0	0	0	0	0	0	0	3	0	0	0	0
OTU 98	1	0	2	0	5	1	0	0	1	1	0	0	0	1	0	0	0	0	0	0	0	2	1	0	0	0	1	0	0	1	0	0	0	0	0	0	0	0	0	4	0	0	0	0	0	3	0	0	0	0
OTU 99	2	1	0	1	0	4	0	7	0	0	13	3	0	0	0	5	0	0	14	2	3	3	0	1	3	3	5	2	1	0	8	7	2	95	0	1	0	0	1	1	0	7	1	0	2	0	0	1	2	1
OTU 100	0	3	2	1	0	0	0	1	0	1	0	3	0	4	0	0	11	0	0	0	0	0	7	0	0	3	1	26	0	4	8	1	0	0	0	0	9	0	10	4	0	0	5	0	11	0	0	3	1	0
OTU 101	0	0	0	0	0	0	0	0	0	0	0	0	1	0	0	0	0	0	0	0	0	0	0	0	0	0	0	0	0	0	0	0	0	0	0	0	0	0	0	0	0	0	0	0	0	1	0	0	0	0
OTU 102	0	0	1	0	0	0	0	0	0	2	1	0	0	0	0	0	1	0	2	0	0	0	0	0	0	0	0	2	0	0	0	0	1	0	0	1	0	0	0	0	0	0	0	0	2	0	0	0	0	0
OTU 103	0	1	1	1	0	0	0	0	0	4	7	0	1	0	4	0	5	0	5	4	0	3	7	1	0	0	1	9	0	0	7	5	12	0	0	3	4	0	0	4	1	1	4	1	5	125	3	0	0	0
OTU 104	2	0	6	0	9	3	4	4	0	3	0	2	9	0	2	0	8	1	4	0	0	0	0	0	9	3	5	0	4	3	0	19	5	2	0	4	0	4	4	0	8	1	1	0	7	2	0	5	8	2
OTU 105	0	0	0	0	1	0	0	1	0	0	0	0	0	0	0	0	0	1	0	1	0	0	0	0	2	0	0	0	0	0	0	0	2	0	2	0	0	0	2	0	2	0	0	1	0	0	2	1	0	3
OTU 106	0	0	4	0	0	0	0	0	0	0	0	3	0	0	0	21	0	1	0	0	0	1	0	0	0	0	1	1	0	0	0	1	0	0	0	0	0	0	0	1	6	0	0	5	0	0	0	0	0	0
OTU 107	0	0	0	0	1	0	0	2	0	0	0	0	0	0	0	0	0	0	1	0	1	0	1	1	0	1	0	0	0	1	0	0	0	0	0	1	1	0	0	0	0	1	0	0	1	0	2	0	0	0
OTU 108	1	0	0	0	0	0	0	0	1	0	3	0	0	0	0	0	0	4	5	0	0	1	0	0	0	0	4	5	3	0	0	0	0	0	0	1	0	0	0	0	3	1	0	0	0	0	0	0	1	0
OTU 109	0	0	0	0	0	0	0	0	0	0	0	0	0	0	0	0	0	0	0	0	0	0	0	0	0	0	0	0	0	0	0	0	0	0	0	0	0	0	0	0	0	0	0	0	0	0	0	0	0	0
OTU 110	17	0	0	1	0	0	17	3	0	0	0	0	3	1	0	0	2	2	0	3	0	1	4	0	2	0	2	0	6	0	7	1	0	4	0	0	2	28	0	0	0	0	47	3	0	1	9	19	4	2
OTU 111	0	0	0	0	0	0	0	0	3	0	0	0	0	1	0	0	0	0	0	0	0	0	0	0	0	0	0	0	0	0	0	0	0	0	0	0	0	0	0	0	0	0	0	0	0	0	0	0	0	0
OTU 112	2	0	3	0	0	0	1	0	0	0	0	0	0	0	0	1	0	2	2	0	1	0	0	0	0	0	0	0	0	0	0	0	0	0	0	0	1	0	0	0	9	0	0	1	1	1	0	0	0	0
OTU 113	0	12	0	0	2	0	0	0	0	0	0	6	0	0	0	0	1	0	0	0	0	0	0	0	0	0	0	0	0	0	0	4	0	0	0	0	0	0	0	0	2	0	0	0	0	0	0	0	0	0
OTU 114	1	1	0	3	0	0	2	7	27	41	2	5	7	8	11	3	6	1	6	3	2	0	4	3	20	0	12	0	0	29	10	0	47	0	39	2	3	2	4	0	4	6	19	3	1	1	0	2	4	1
OTU 115	1	0	2	6	106	4	4	7	2	1	0	0	0	1	4	1	4	0	1	2	3	2	0	1	1	2	2	5	2	0	5	4	0	1	0	1	1	5	10	1	0	0	1	5	2	3	5	2	6	2
OTU 116	3	0	1	0	2	0	1	6	36	0	0	0	2	0	10	2	0	1	0	0	7	0	0	1	3	2	1	2	10	1	0	5	2	1	9	0	1	1	0	0	3	0	0	0	2	2	0	0	6	0
OTU 117	0	4	9	0	3	0	1	26	6	0	1	0	0	0	0	0	0	0	6	0	0	1	0	0	2	3	1	0	0	2	0	5	5	2	0	0	0	2	0	1	12	7	0	0	0	0	0	0	0	0
OTU 118	0	0	0	1	0	2	0	0	0	2	0	0	0	0	4	0	0	0	0	0	0	0	0	0	0	1	2	0	2	0	0	0	6	0	0	0	0	0	1	0	3	0	0	0	0	0	0	1	0	0
OTU 119	0	0	0	6	0	0	48	1	0	1	16	1	1	0	6	1	1	0	1	0	1	0	1	3	0	6	0	14	0	0	0	1	0	0	2	1	0	110	0	1	3	2	1	6	0	0	2	4	3	0
OTU 120	0	0	0	0	0	0	0	0	0	0	0	0	3	0	0	0	3	0	1	0	0	0	2	0	0	0	0	4	0	1	2	0	0	0	0	0	0	0	2	0	1	0	0	1	0	0	0	2	0	5
OTU 121	4	0	2	0	0	0	0	0	1	0	0	0	0	0	4	0	15	3	0	0	1	2	0	0	1	2	0	1	1	2	0	1	2	0	4	1	0	1	0	4	0	0	0	1	0	0	2	1	1	1
OTU 122	5	0	1	4	3	3	0	4	0	6	2	3	0	0	5	0	1	3	0	3	1	0	0	0	0	2	1	0	0	0	0	1	2	5	0	0	0	5	10	0	1	0	0	1	0	4	2	0	0	0
OTU 123	15	7	17	4	4	9	4	12	7	9	1	0	14	81	10	5	0	9	8	26	1	6	5	0	27	15	4	2	28	18	8	3	8	3	6	15	34	3	29	2	2	5	3	6	53	6	11	5	4	20
OTU 124	0	0	1	0	0	0	0	0	0	0	1	0	0	0	0	1	0	0	2	0	0	0	0	0	0	0	0	0	0	0	0	0	0	0	0	0	0	0	0	0	0	1	0	0	0	0	0	0	1	0
OTU 125	4	4	2	10	10	14	1	4	40	11	3	4	6	8	17	18	4	8	2	3	6	2	5	57	6	5	3	16	0	5	5	4	5	5	60	0	4	1	8	11	2	1	1	12	2	22	17	6	5	4
OTU 126	0	0	0	0	0	0	2	0	0	0	0	0	1	0	0	0	0	0	0	0	0	0	0	0	0	0	0	0	0	0	0	0	0	0	0	0	0	0	0	1	0	0	0	1	2	0	0	0	2	0
OTU 127	3	0	0	0	3	3	0	0	2	0	0	1	0	0	2	0	0	0	0	0	1	0	1	0	0	0	0	1	4	6	0	0	2	0	0	0	0	0	4	0	0	0	0	1	1	1	19	0	0	0
OTU 128	31	4	6	1	10	3	0	9	0	4	32	2	2	0	5	8	3	6	22	6	8	190	1	3	8	0	0	3	16	0	6	2	8	9	1	4	4	2	4	5	2	63	1	2	1	0	3	6	0	16
OTU 129	0	0	0	0	0	2	0	0	0	0	0	2	0	0	0	0	0	0	0	1	2	0	0	0	2	0	0	0	0	0	0	2	0	0	0	0	0	0	0	1	0	0	0	0	0	0	1	0	9	0
OTU 130	0	0	2	2	0	4	1	0	0	1	0	0	3	0	0	4	1	0	0	0	0	0	1	0	0	0	0	0	1	0	1	2	1	4	0	2	0	2	0	0	0	1	0	0	0	0	0	3	0	150
OTU 131	0	2	1	1	1	2	0	12	1	17	0	0	0	1	5	1	0	9	0	0	3	0	0	2	2	0	30	1	6	3	2	1	45	1	0	0	0	0	0	2	0	0	0	0	3	0	0	0	4	0
OTU 132	1	0	1	0	0	0	0	0	0	0	0	6	0	0	0	0	0	0	0	0	0	0	3	0	0	0	0	0	5	0	3	0	0	0	0	0	2	0	1	0	1	0	3	0	0	0	0	2	3	0
OTU 133	0	0	1	0	0	0	0	0	0	0	0	0	0	0	0	0	0	0	0	0	0	0	0	0	0	0	0	0	0	0	0	0	0	1	0	0	0	0	0	0	0	0	0	0	0	0	0	1	0	0
OTU 134	1	0	0	0	1	1	0	0	1	0	0	0	3	2	3	0	10	0	1	0	1	1	5	2	1	4	0	1	0	0	0	0	0	3	9	0	0	0	1	1	3	2	1	1	2	11	0	0	0	0
OTU 135	3	0	0	0	0	1	4	0	0	2	0	1	0	1	15	0	0	0	6	119	0	4	2	1	1	0	1	1	0	0	2	0	8	1	0	3	1	4	2	0	3	2	2	1	0	0	0	10	9	0
OTU 136	1	3	0	0	2	0	0	0	0	2	0	0	0	0	0	4	1	2	0	1	0	0	0	0	0	2	0	2	0	0	4	0	2	0	0	0	0	0	0	3	0	0	0	0	0	0	6	0	0	0
OTU 137	3	0	0	0	3	0	0	5	0	0	0	0	1	0	0	0	1	0	0	0	1	0	142	0	0	0	0	0	0	0	0	31	0	0	0	0	0	0	0	1	0	0	0	0	0	0	0	0	8	1
OTU 138	0	0	0	0	0	0	0	0	0	0	0	0	0	0	0	0	0	0	0	0	2	0	0	0	0	0	1	0	3	0	0	0	3	0	0	0	0	0	1	0	0	0	121	0	0	0	1	0	0	1
OTU 139	0	30	7	3	0	8	0	1	0	0	0	64	3	0	0	6	0	3	0	1	0	1	0	0	0	20	6	7	0	4	14	1	3	3	6	1	2	0	3	0	5	0	12	2	1	0	1	0	4	0
OTU 140	6	4	1	0	7	12	2	0	11	1	6	7	6	125	0	2	0	5	5	1	7	4	20	2	2	8	2	3	9	16	3	0	3	5	14	2	0	2	1	4	9	3	3	107	14	2	2	5	82	3
OTU 141	0	0	0	0	0	0	0	0	0	0	0	0	0	0	0	0	0	0	0	0	0	0	0	0	0	0	0	0	0	0	0	0	0	0	0	0	0	0	0	0	0	0	0	0	2	0	0	0	0	0
OTU 142	0	0	0	0	0	0	0	0	0	0	0	1	0	0	0	0	0	0	4	0	0	0	0	0	0	0	0	0	0	0	0	0	0	0	0	0	0	0	0	0	0	0	0	0	0	0	0	0	0	0
OTU 143	1	2	0	0	0	14	0	0	0	0	0	0	0	0	0	0	0	0	0	0	0	0	0	0	0	0	0	2	0	0	0	3	0	0	0	0	0	0	2	0	0	0	0	0	1	0	0	0	0	0
OTU 144	1	0	0	0	0	1	0	0	0	0	1	1	4	0	0	0	0	0	8	0	1	3	0	0	0	0	1	1	1	0	0	0	0	0	0	0	0	0	0	0	0	3	0	0	0	1	0	2	0	1
OTU 145	1	1	5	83	1	3	1	2	0	0	0	2	2	0	9	4	1	1	0	5	0	0	4	0	14	10	7	21	0	0	1	0	4	2	0	0	0	0	0	3	1	0	1	0	0	0	2	0	0	0
OTU 146	0	0	0	0	0	0	1	1	1	3	0	1	18	3	1	0	0	1	0	2	1	0	1	1	0	1	68	0	0	1	1	0	3	3	1	0	0	0	0	1	7	0	0	0	0	1	1	0	4	2
OTU 147	1	1	0	0	1	1	0	0	0	0	0	5	3	0	1	0	0	0	2	0	4	3	0	1	0	0	1	0	0	0	0	2	0	0	0	0	0	0	2	0	0	0	0	0	1	0	0	0	0	0
OTU 148	2	2	5	0	3	3	0	0	2	3	2	0	0	1	31	0	6	1	4	0	5	0	4	1	1	2	11	6	0	1	2	3	6	7	0	1	2	0	0	17	2	2	2	1	5	0	7	4	0	0
OTU 149	3	0	2	0	3	0	0	0	0	0	3	0	1	1	0	0	63	0	0	0	0	1	20	1	0	0	2	0	0	1	0	0	0	4	1	0	0	0	2	0	0	0	0	0	4	0	0	3	1	0
OTU 150	3	1	0	0	0	0	0	0	0	0	1	0	0	0	0	0	1	0	2	6	0	0	0	0	36	0	0	0	0	0	0	0	0	1	0	0	0	0	0	2	2	0	0	0	0	1	0	0	0	0
OTU 151	0	0	0	1	0	0	0	0	0	0	2	0	0	1	1	5	0	0	0	0	0	3	3	0	1	1	1	0	0	3	0	0	0	1	0	0	0	0	0	0	0	0	0	0	4	4	0	0	0	0
OTU 152	0	1	0	2	0	0	0	0	0	0	1	2	0	0	0	1	0	0	0	0	0	1	0	0	0	1	1	1	3	1	0	1	2	0	0	1	0	0	0	1	0	9	0	0	2	0	0	0	0	0
OTU 153	0	0	0	0	0	0	0	0	0	1	0	0	0	0	0	0	0	0	1	0	0	0	0	0	0	1	0	0	0	0	0	2	1	0	0	0	0	0	0	0	0	0	0	0	0	0	2	0	0	0
OTU 154	0	0	0	0	1	0	0	0	0	0	0	0	0	0	0	2	0	0	0	0	0	0	0	1	0	0	0	0	0	0	0	0	0	0	0	0	0	0	0	0	2	0	0	0	0	1	0	0	0	0
OTU 155	0	3	0	0	1	0	0	2	0	0	0	4	0	0	0	0	0	0	0	0	0	0	0	0	0	3	0	1	0	1	0	2	0	0	0	0	0	0	0	0	3	0	0	0	3	0	0	0	0	1
OTU 156	4	157	4	1	1	3	0	2	0	0	0	0	2	0	3	3	2	5	1	0	6	0	9	1	1	0	1	7	4	0	3	3	1	0	0	0	2	0	4	4	7	1	2	0	0	0	4	5	1	2
OTU 157	0	2	0	0	0	0	0	1	0	1	0	0	0	0	0	0	0	1	0	0	0	0	0	0	0	7	0	0	0	0	0	2	1	0	0	0	0	0	0	0	0	0	1	0	0	0	0	0	0	0
OTU 158	0	0	0	0	0	0	0	0	0	0	0	0	0	0	0	0	0	0	0	0	0	0	0	0	0	0	0	0	1	0	0	0	0	0	0	1	0	0	1	0	0	0	0	0	0	0	2	0	0	0
OTU 159	2	3	0	0	0	0	0	0	1	0	0	0	2	0	3	1	0	2	1	1	1	0	1	0	0	1	2	0	0	1	5	4	0	3	0	0	1	0	0	1	1	0	2	2	1	3	2	6	0	2
OTU 160	2	4	2	23	3	1	0	0	0	1	2	0	0	2	12	1	6	1	6	0	7	9	0	2	2	16	4	0	10	4	0	1	1	1	2	10	1	1	0	0	0	10	2	3	3	16	8	5	5	1
OTU 161	0	0	56	4	3	1	0	0	0	0	3	0	1	0	8	0	0	0	7	0	0	0	3	1	1	2	0	2	3	3	2	3	0	0	1	4	0	0	3	2	1	4	1	0	4	0	4	3	1	0
OTU 162	1	0	2	0	0	2	0	1	0	0	3	2	0	1	1	0	0	0	1	0	0	0	1	0	0	2	1	0	31	0	3	3	0	2	1	1	2	0	0	0	0	1	0	1	0	0	3	2	6	0
OTU 163	0	0	0	0	0	0	0	0	0	0	0	0	0	0	0	0	0	0	0	0	0	0	0	0	0	0	0	0	0	0	0	0	0	0	0	0	0	0	0	0	0	0	0	0	0	0	0	0	0	0
OTU 164	1	0	0	0	0	0	0	0	0	0	0	0	0	0	0	0	0	0	0	0	0	0	0	0	0	0	0	0	0	0	0	0	0	0	0	0	0	0	0	0	0	0	0	0	0	0	0	0	0	0
OTU 165	0	0	3	0	0	6	0	0	111	0	0	0	0	0	0	0	2	2	4	0	1	1	0	0	0	0	1	2	0	0	0	7	1	0	1	0	0	0	2	0	0	0	0	2	0	0	0	0	1	0
OTU 166	0	0	0	0	0	0	0	2	0	0	0	0	0	0	0	0	0	0	0	0	0	0	0	0	0	0	0	0	0	0	0	2	0	0	0	0	0	0	0	0	0	0	0	0	6	0	0	0	0	0
OTU 167	0	0	2	0	0	1	0	5	0	0	0	0	0	0	2	0	0	0	0	0	1	0	0	0	0	1	0	0	0	0	0	2	1	0	0	0	0	0	4	0	0	0	3	0	0	0	0	0	1	1
OTU 168	1	0	2	2	7	0	0	0	1	0	0	2	1	0	0	0	2	4	1	0	2	0	0	109	0	2	3	0	0	1	0	0	2	0	0	0	0	0	0	2	0	0	0	0	1	0	0	0	5	1
OTU 169	0	0	0	0	0	0	0	0	0	0	1	0	0	0	0	1	0	0	3	0	0	2	0	0	0	0	0	0	0	0	0	0	0	0	0	8	0	0	0	0	1	1	0	0	0	0	0	0	3	0
OTU 170	0	0	0	0	0	0	0	0	0	0	0	0	0	0	0	0	0	0	0	0	0	0	0	0	0	0	0	0	0	0	0	0	0	0	0	0	0	0	0	0	0	0	0	0	0	0	0	0	0	0
OTU 171	0	1	0	0	0	0	0	0	0	0	8	2	0	0	0	1	0	2	7	1	2	3	0	1	0	3	5	0	0	0	1	0	1	3	0	3	2	0	2	1	0	2	2	0	41	0	2	1	0	1
OTU 172	0	0	0	0	0	0	0	0	0	0	0	0	0	0	4	0	0	1	0	0	0	0	0	0	0	0	0	1	0	0	1	1	0	1	0	0	0	0	0	0	0	0	0	0	0	2	0	0	0	0
OTU 173	1	0	0	1	0	1	0	3	0	0	0	0	0	0	0	0	0	0	2	0	0	1	0	1	0	0	1	2	0	0	0	1	0	0	0	0	0	0	0	0	0	1	0	0	0	0	0	0	0	0
OTU 174	1	1	1	0	2	0	0	0	4	0	0	0	0	1	0	4	0	0	0	0	29	0	0	0	0	1	1	5	0	4	1	10	0	0	5	0	1	0	0	0	0	0	0	0	0	0	0	0	18	0
OTU 175	1	0	3	0	0	0	1	1	0	0	0	4	0	0	1	0	6	0	1	0	0	0	0	0	1	0	1	0	1	0	0	0	0	1	0	0	0	1	5	0	0	0	0	0	1	0	3	0	0	0
OTU 176	5	0	0	1	0	0	3	1	0	0	6	1	2	1	5	3	0	0	4	4	4	7	0	0	6	1	2	2	0	0	3	0	2	0	0	1	0	1	6	0	0	5	0	0	4	2	2	0	0	1
OTU 177	2	0	0	0	0	1	0	1	3	0	2	2	0	0	0	0	6	2	3	0	6	1	2	0	5	0	2	3	2	7	2	2	1	0	1	0	4	0	0	1	8	0	2	0	0	0	7	0	1	2
OTU 178	1	0	0	0	0	1	0	5	0	0	0	0	0	0	0	0	0	0	0	1	0	0	0	0	0	0	1	1	0	1	6	0	0	0	2	0	2	0	1	1	0	0	0	6	1	1	0	0	0	0
OTU 179	78	0	3	0	21	0	0	0	0	0	2	0	1	0	2	0	0	0	5	0	7	0	0	0	0	0	6	0	0	2	0	1	1	1	0	0	0	2	0	0	0	0	0	4	2	0	1	0	0	15
OTU 180	3	8	0	0	1	3	1	2	2	0	3	6	0	15	2	6	2	2	1	2	3	0	0	3	4	4	8	10	8	7	8	7	6	0	8	0	3	1	1	2	13	1	6	2	8	2	10	0	1	5
OTU 181	3	1	0	1	0	1	6	1	1	0	0	0	1	7	5	0	0	0	0	5	3	0	3	0	0	0	0	0	0	0	1	1	0	1	2	1	0	10	0	0	44	0	4	0	0	0	1	3	1	0
OTU 182	0	0	0	0	0	0	0	0	0	0	0	0	0	0	0	0	0	0	0	0	0	0	0	0	0	0	0	0	0	0	0	0	0	0	0	0	0	0	0	0	0	0	0	0	0	0	0	0	0	0
OTU 183	0	1	4	0	1	0	0	2	18	0	0	5	0	0	0	0	0	0	1	1	3	0	1	0	1	1	0	3	0	58	2	2	0	0	1	0	0	1	0	0	2	0	2	1	0	0	1	0	0	1
OTU 184	0	0	0	0	1	0	5	0	0	0	1	0	1	0	0	1	0	1	3	1	3	1	0	0	0	8	0	1	0	0	0	0	0	0	1	0	0	0	1	0	0	2	0	0	4	1	1	3	2	0
OTU 185	0	0	0	3	0	2	1	4	1	0	0	0	1	2	3	0	0	1	1	0	0	1	0	0	2	0	2	1	0	4	0	6	7	1	1	1	1	0	0	4	4	0	0	0	0	0	7	1	2	0
OTU 186	0	0	2	1	0	0	2	0	0	0	0	0	0	1	1	1	0	1	0	0	1	0	0	0	0	0	0	0	1	0	2	3	0	0	0	0	0	2	0	0	1	0	0	0	0	0	0	0	0	0
OTU 187	5	3	0	5	1	0	0	12	0	2	2	3	0	0	7	1	4	1	5	2	1	0	4	0	3	3	1	10	1	0	8	4	5	61	0	1	2	1	7	0	10	3	3	2	9	1	1	2	0	0
OTU 188	2	1	0	0	0	20	1	2	0	0	0	8	1	1	3	1	6	3	1	0	0	2	1	3	0	9	4	0	0	2	4	0	0	0	2	2	0	1	0	2	0	0	0	0	2	1	3	0	2	4
OTU 189	5	0	5	7	0	2	1	3	0	44	9	0	3	0	0	4	0	6	8	10	0	3	0	25	0	3	1	4	0	0	0	0	3	2	1	6	0	1	3	5	2	1	1	0	0	1	10	7	0	1
OTU 190	0	0	1	0	2	0	0	0	2	0	0	0	0	0	0	0	0	0	0	0	0	0	0	0	1	0	0	0	0	0	0	0	0	0	0	0	0	0	0	0	0	0	0	0	0	0	0	0	0	0
OTU 191	0	4	1	2	0	1	0	0	1	0	1	8	2	1	14	7	0	118	4	0	0	0	2	1	0	7	2	6	1	2	3	0	1	0	2	0	3	1	8	0	3	0	3	0	9	2	1	0	11	0
OTU 192	2	1	13	2	0	0	1	1	1	2	7	5	0	0	0	6	4	9	4	0	1	10	0	2	2	26	0	6	4	3	1	3	1	10	1	6	0	0	11	102	3	8	0	0	0	3	0	0	0	6
OTU 193	0	2	5	1	0	4	0	1	1	0	2	3	5	0	0	2	2	1	3	1	2	2	0	0	1	1	0	1	9	14	0	1	0	1	0	0	0	2	27	1	0	3	0	0	0	0	5	4	0	1
OTU 194	26	1	0	0	0	1	10	0	0	0	0	1	0	1	0	0	1	0	0	0	0	0	0	0	1	0	0	0	2	1	0	6	0	0	0	0	0	34	2	0	1	0	0	0	0	0	0	0	25	2
OTU 195	2	0	0	0	0	0	0	0	1	0	1	0	0	0	2	1	0	2	3	1	2	1	1	0	1	4	6	1	0	0	0	0	2	1	0	0	0	0	5	1	0	0	0	1	2	3	1	0	0	1
OTU 196	1	0	3	2	2	0	0	0	0	0	0	2	0	3	1	1	17	2	0	0	0	0	4	0	0	0	0	6	1	1	23	3	0	4	34	0	16	0	2	4	0	0	5	0	17	0	0	0	0	0
OTU 197	1	14	3	6	63	17	0	7	0	5	0	33	0	1	4	0	6	1	5	4	1	6	0	2	7	5	0	8	2	1	0	14	3	1	4	4	2	0	0	25	6	3	0	4	0	1	12	11	0	1
OTU 198	5	0	0	0	0	0	0	1	0	0	1	0	0	0	1	21	0	0	0	0	0	0	0	0	0	0	1	1	0	0	0	0	2	0	0	0	0	0	0	0	0	0	0	7	1	32	0	2	0	2
OTU 199	4	0	1	0	0	5	0	1	0	0	0	0	0	0	0	0	0	0	0	0	0	0	0	4	0	0	0	0	0	0	0	0	0	2	0	60	0	0	0	0	0	0	0	1	0	0	4	0	3	0
OTU 200	0	3	2	2	0	0	0	0	0	0	0	0	2	0	0	0	0	0	0	2	0	0	0	0	1	0	1	1	1	0	4	5	1	0	0	0	0	0	0	0	0	0	1	0	2	4	0	3	0	0
