	Host 1	Host 2	Host 3	Host 4	Host 5	Host 6	Host 7	Host 8	Host 9	Host 10	Host 11	Host 12	Host 13	Host 14	Host 15	Host 16	Host 17	Host 18	Host 19	Host 20	Host 21	Host 22	Host 23	Host 24	Host 25	Host 26	Host 27	Host 28	Host 29	Host 30	Host 31	Host 32	Host 33	Host 34	Host 35	Host 36	Host 37	Host 38	Host 39	Host 40	Host 41	Host 42	Host 43	Host 44	Host 45	Host 46	Host 47	Host 48	Host 49	Host 50	
OTU 1	1	0	0	0	0	0	12	0	0	1	1	0	0	8	0	2	0	0	1	0	1	2	2	4	0	1	0	5	6	1	0	6	8	1	0	0	0	1	0	0	1	6	2	0	0	5	1	2	1	2
OTU 2	3	0	1	49	1	1	0	0	0	1	0	0	2	0	0	2	0	0	0	0	0	0	0	2	0	0	5	46	1	0	0	0	0	0	1	0	0	0	0	3	0	0	1	0	0	0	1	1	0	1
OTU 3	0	0	0	0	0	0	0	0	2	0	0	0	0	0	0	0	0	0	0	1	0	1	0	0	0	0	0	0	0	0	0	0	0	0	1	0	1	0	0	0	1	0	0	0	4	0	0	0	0	0
OTU 4	0	0	0	0	0	0	0	0	1	0	0	0	0	0	0	0	0	0	0	0	0	0	0	0	0	0	0	0	0	0	0	0	0	0	0	0	0	0	0	0	0	0	0	0	0	0	0	0	0	0
OTU 5	3	0	6	39	1	28	2	3	44	4	7	34	44	3	27	12	47	11	6	0	26	77	7	25	1	11	0	18	0	1	5	3	5	6	8	16	30	25	12	13	3	20	14	7	0	3	5	0	2	3
OTU 6	2	4	0	0	0	1	2	0	0	0	35	0	1	3	0	0	0	1	1	0	1	0	2	7	0	1	0	3	4	0	0	1	1	0	0	1	1	0	92	0	0	0	2	0	2	0	3	1	4	0
OTU 7	3	6	2	0	6	12	11	5	1	6	4	1	6	7	10	3	2	6	0	4	1	0	0	1	0	1	7	1	6	10	3	12	15	10	0	0	8	1	6	1	2	6	1	5	7	1	1	1	7	19
OTU 8	5	5	2	0	0	0	0	1	1	1	1	1	7	1	1	0	2	3	24	5	0	18	0	4	6	2	2	4	3	0	1	0	1	1	0	4	7	5	6	2	1	1	15	0	1	8	1	6	1	4
OTU 9	0	1	2	1	0	0	0	1	0	2	2	0	0	0	0	0	0	3	1	0	0	0	2	0	0	1	0	3	1	0	0	0	0	0	0	0	0	0	0	0	0	2	3	0	0	0	0	0	0	1
OTU 10	0	0	0	0	0	0	0	0	0	0	0	0	1	1	0	0	0	0	0	0	0	63	1	2	7	6	0	0	0	0	0	0	0	0	0	8	0	0	1	1	2	0	1	0	5	0	0	2	0	3
OTU 11	0	1	0	0	3	0	0	0	4	0	1	0	0	0	0	1	2	1	0	1	1	2	0	4	4	3	0	1	3	1	0	0	0	1	1	7	0	1	0	0	1	3	2	0	0	2	0	0	5	3
OTU 12	0	3	0	1	1	2	0	1	0	0	1	0	2	1	0	4	0	0	1	41	3	1	0	1	1	0	2	4	0	0	0	0	3	0	1	2	0	0	1	2	0	1	163	5	6	3	2	6	62	0
OTU 13	0	0	0	0	0	0	0	0	0	1	0	0	0	0	0	0	0	0	0	1	0	0	2	0	6	5	0	0	0	0	0	0	0	0	0	0	3	0	0	0	0	0	0	0	0	0	0	0	0	0
OTU 14	0	5	1	3	0	0	10	0	3	0	0	0	1	3	0	1	0	0	0	0	0	0	0	1	2	0	0	0	0	1	0	0	0	0	0	0	0	0	0	0	1	0	0	2	0	0	0	1	0	1
OTU 15	0	0	0	0	0	0	0	0	0	0	0	0	1	0	0	0	0	0	0	0	0	0	0	0	0	0	0	0	0	0	1	0	0	0	0	0	0	0	0	1	1	0	0	0	0	0	0	0	1	3
OTU 16	0	0	1	0	1	0	0	0	0	0	0	0	0	0	0	0	0	0	0	0	0	0	0	0	0	0	0	0	0	0	0	0	0	0	0	0	0	0	0	0	0	0	0	0	0	0	1	0	0	1
OTU 17	1	1	1	0	0	0	0	0	0	1	0	1	5	1	4	1	2	0	0	0	0	0	1	0	5	4	0	1	0	0	4	2	0	0	0	0	0	0	0	0	1	0	0	0	4	0	0	3	1	2
OTU 18	0	0	1	1	0	1	0	8	0	2	12	1	5	1	1	0	0	2	3	0	0	0	0	0	0	0	0	0	0	3	4	1	0	0	1	2	15	0	12	0	2	4	2	0	3	7	4	1	1	2
OTU 19	0	0	0	0	0	0	0	0	0	0	0	0	0	0	0	0	0	0	0	0	0	0	0	0	0	0	0	0	0	0	0	0	0	0	0	0	0	0	0	0	0	0	0	0	0	0	0	0	0	0
OTU 20	0	1	1	0	1	5	2	0	1	0	0	3	3	2	0	7	0	1	1	2	0	2	0	1	0	0	3	4	1	1	7	0	2	1	0	0	0	0	4	0	0	0	0	0	4	3	0	0	0	2
OTU 21	3	2	2	0	0	0	2	0	0	0	0	2	8	0	0	0	0	1	0	0	2	1	0	3	0	0	5	1	6	0	0	0	2	3	0	4	0	0	0	0	0	0	1	0	2	2	0	4	0	0
OTU 22	4	0	0	1	0	0	0	1	0	0	3	1	1	0	1	2	0	0	0	0	1	0	0	0	0	0	1	4	1	0	4	0	0	0	0	0	0	1	1	0	0	2	0	0	0	0	0	0	2	0
OTU 23	1	0	23	5	0	0	0	1	0	0	8	2	2	0	1	4	0	0	0	0	0	1	0	0	0	0	0	0	1	1	3	4	0	0	2	0	0	0	11	0	0	0	0	0	0	0	0	1	0	2
OTU 24	0	9	153	0	0	4	0	0	0	0	0	1	1	0	0	0	0	0	0	1	0	0	0	0	1	0	2	0	0	0	0	0	0	0	0	0	0	2	3	0	0	0	0	0	3	0	0	0	1	0
OTU 25	0	0	0	0	0	0	0	1	0	3	0	0	0	0	0	0	0	0	0	0	0	0	0	0	0	0	0	0	0	0	0	0	0	0	0	0	0	0	0	0	0	0	0	0	0	0	0	0	0	0
OTU 26	0	0	0	1	0	0	0	0	0	0	0	122	0	0	0	3	0	0	0	0	0	0	0	0	0	0	0	1	0	0	0	0	0	0	0	0	0	0	0	0	0	0	0	0	0	0	0	11	3	1
OTU 27	0	0	0	0	0	0	0	0	0	0	0	0	0	0	0	0	0	0	0	0	0	0	0	0	0	0	0	0	0	0	0	0	0	0	0	0	0	0	0	0	0	0	0	0	0	0	0	1	0	0
OTU 28	8	7	2	7	1	2	184	2	3	5	0	0	4	1	1	1	3	0	0	3	0	2	1	0	0	0	10	3	0	1	1	1	0	1	0	0	0	0	0	2	4	2	0	1	3	0	1	0	0	7
OTU 29	0	1	0	0	0	71	47	2	1	1	0	1	3	0	19	1	35	1	3	5	28	0	11	3	4	1	2	0	3	28	2	64	64	70	6	3	15	69	0	1	0	1	1	21	0	2	2	4	2	1
OTU 30	0	0	0	0	0	0	0	0	0	0	0	0	0	0	0	0	0	0	0	0	0	0	0	0	0	0	0	0	0	0	0	0	0	0	0	0	0	0	0	0	0	0	0	0	0	0	0	0	0	0
OTU 31	0	0	0	0	0	1	1	0	2	0	0	2	0	0	1	0	3	0	0	1	0	0	1	2	0	0	5	0	0	3	0	5	1	1	80	0	0	3	0	0	0	0	0	1	1	0	1	0	1	0
OTU 32	7	4	0	4	13	6	4	5	16	1	1	0	6	6	2	4	2	0	0	5	1	3	17	17	0	2	21	3	2	3	1	3	11	6	3	7	3	13	0	2	2	2	8	8	3	2	1	0	1	3
OTU 33	0	0	0	0	0	0	0	0	0	0	0	0	0	0	0	0	0	0	0	0	0	0	0	0	0	0	0	0	0	0	0	0	0	0	0	0	0	0	0	0	0	0	0	0	0	0	0	0	3	0
OTU 34	4	0	0	5	2	0	2	2	0	0	1	2	5	2	0	3	0	0	0	1	0	1	1	0	0	0	8	0	2	0	0	0	1	8	0	0	0	0	0	0	2	0	0	0	0	0	1	0	1	1
OTU 35	0	0	2	1	0	0	0	1	2	0	10	0	0	0	0	0	0	4	2	0	0	0	0	0	0	0	0	1	0	0	1	1	1	0	4	0	2	0	13	1	0	1	0	4	0	0	0	1	0	0
OTU 36	0	4	0	1	4	0	0	0	3	2	0	4	1	0	0	0	1	1	0	0	0	0	0	0	1	0	0	0	0	0	1	0	0	3	0	0	0	0	0	1	0	0	0	0	1	1	0	3	0	2
OTU 37	0	0	0	0	1	0	1	0	0	0	0	3	0	0	2	0	0	0	0	0	0	0	0	0	5	1	0	0	0	0	0	2	0	0	2	2	0	0	0	0	1	0	0	0	0	0	0	0	0	0
OTU 38	6	1	4	0	2	2	0	0	4	0	4	1	0	0	0	0	0	0	1	1	0	0	0	1	0	0	4	0	3	29	0	0	0	0	0	0	0	1	0	0	1	0	0	0	2	0	1	1	0	1
OTU 39	0	0	0	0	0	0	0	0	0	0	1	2	0	0	0	0	0	0	0	0	0	0	0	3	0	0	5	0	0	1	3	0	0	0	0	0	0	0	0	0	0	0	0	0	0	0	0	0	0	0
OTU 40	1	1	2	1	0	0	1	1	0	0	8	1	10	2	0	0	0	2	0	0	0	1	1	1	7	2	2	1	0	1	2	0	2	0	1	67	0	1	1	0	5	1	1	0	4	1	1	0	0	5
OTU 41	0	0	2	0	1	0	0	1	0	3	0	0	1	0	0	0	1	3	0	0	0	0	0	1	3	1	0	0	0	0	1	0	1	0	0	1	1	1	0	11	0	0	0	0	0	0	0	0	3	0
OTU 42	0	1	0	1	0	0	0	0	0	0	0	1	0	0	0	0	1	0	0	0	0	0	0	0	0	0	0	0	0	0	0	0	0	0	0	0	0	0	0	0	0	0	0	0	4	0	0	0	6	0
OTU 43	0	0	0	0	0	0	0	0	0	0	0	0	0	0	0	0	0	0	0	0	0	0	0	0	0	0	0	0	0	0	0	0	0	0	0	0	0	0	0	39	0	0	0	0	0	0	0	0	0	0
OTU 44	0	0	0	0	0	0	0	2	0	0	0	0	0	0	0	0	0	0	0	0	1	0	0	0	0	0	0	0	0	0	0	0	0	0	0	0	0	0	0	0	0	0	0	1	0	0	0	0	0	1
OTU 45	1	0	1	1	1	0	0	0	3	9	1	2	0	1	0	5	1	2	0	0	0	0	4	2	4	1	0	1	0	3	2	0	0	0	4	2	0	0	1	1	1	0	0	0	5	0	1	3	0	2
OTU 46	20	7	10	0	1	0	0	1	0	0	0	2	1	0	0	10	0	10	2	2	0	0	0	1	0	0	0	1	0	0	0	0	3	1	0	1	8	0	2	1	0	4	1	0	20	4	4	21	0	8
OTU 47	0	0	0	0	0	0	0	0	0	0	0	0	1	0	0	2	0	0	0	0	60	0	0	0	0	0	0	0	0	0	0	0	0	0	0	0	0	0	1	0	0	0	0	0	0	0	0	0	0	0
OTU 48	0	0	2	1	4	0	0	2	0	2	0	1	1	7	0	2	1	2	55	2	1	2	0	0	0	0	4	2	2	0	2	0	0	0	0	7	0	0	3	0	2	3	0	0	4	104	56	1	0	0
OTU 49	2	0	4	0	4	0	0	1	7	2	0	0	0	0	0	0	0	0	0	1	1	0	0	0	0	0	1	0	0	0	0	0	0	0	0	0	1	0	0	0	0	0	0	2	0	0	0	0	0	1
OTU 50	4	0	1	5	1	2	0	136	0	0	2	0	0	3	1	2	0	3	1	1	0	1	0	7	3	1	2	6	2	0	2	0	5	0	1	1	0	0	1	0	2	1	2	0	0	3	1	4	3	0
OTU 51	3	2	4	3	0	0	1	1	11	3	0	0	0	5	1	0	37	0	0	0	0	0	0	0	1	0	0	0	0	0	6	0	2	0	0	0	8	61	0	1	2	0	0	0	0	0	0	4	0	4
OTU 52	0	1	0	0	23	0	0	22	1	5	0	0	1	3	0	0	3	0	2	0	1	6	54	0	5	1	4	2	3	0	1	2	0	0	0	2	1	6	2	1	3	2	0	1	4	1	0	4	3	5
OTU 53	0	0	0	0	0	0	0	0	0	0	0	0	0	0	0	0	0	0	0	0	0	0	1	0	0	0	0	0	0	0	0	0	0	0	0	0	0	0	0	0	0	0	0	0	0	0	0	0	0	0
OTU 54	6	2	3	0	10	1	0	1	1	4	0	4	12	1	1	2	3	0	28	38	1	4	6	0	7	1	2	0	1	3	5	0	1	1	4	5	2	0	1	1	1	0	0	1	1	7	2	5	77	8
OTU 55	0	0	0	0	0	0	0	0	0	0	0	0	0	0	0	0	0	0	0	0	0	0	0	0	0	0	0	0	0	0	0	0	0	0	0	0	0	0	0	0	0	0	0	0	0	0	0	0	0	0
OTU 56	1	0	0	1	0	0	0	0	0	0	0	0	0	0	2	0	0	1	0	0	0	0	0	0	2	0	0	0	3	0	0	2	0	0	2	0	0	0	0	1	0	0	0	0	0	2	1	0	1	0
OTU 57	7	2	1	3	0	1	2	0	0	1	2	5	11	1	2	10	3	5	0	1	1	0	30	5	4	1	4	33	4	0	7	2	29	0	1	0	0	0	0	2	1	1	0	0	7	3	2	1	2	1
OTU 58	0	0	0	0	0	0	0	0	0	0	0	0	0	2	0	0	0	2	0	9	0	0	0	0	3	39	1	0	0	0	2	0	0	0	0	0	0	0	10	0	1	2	0	1	5	0	0	4	0	0
OTU 59	0	0	0	0	3	3	0	0	0	3	2	3	0	3	2	0	0	3	0	0	1	0	0	32	1	1	0	0	0	0	0	0	0	1	4	23	0	0	0	0	0	0	22	0	0	0	0	0	2	0
OTU 60	0	0	0	0	4	1	0	0	4	0	1	1	4	1	155	3	1	0	1	0	0	0	7	20	4	0	0	3	2	0	3	0	1	0	0	12	0	1	2	0	1	2	15	4	16	1	0	0	2	2
OTU 61	1	4	1	6	6	1	6	1	2	1	1	1	0	11	3	9	2	15	0	5	1	12	0	0	4	2	3	14	1	2	12	3	5	0	3	1	1	7	3	5	8	8	0	4	3	0	0	5	2	3
OTU 62	0	0	0	0	1	0	0	0	0	0	7	0	0	0	0	1	0	0	0	0	0	0	0	0	0	0	0	0	2	0	2	2	0	0	0	0	1	0	13	0	0	0	4	0	1	1	0	0	0	0
OTU 63	0	0	0	0	1	0	0	0	3	1	0	0	1	0	0	1	0	0	9	0	0	1	0	6	0	0	0	0	0	0	1	0	0	0	0	0	0	1	1	2	0	0	1	0	0	32	15	0	0	1
OTU 64	6	46	1	2	0	0	0	7	0	4	1	3	0	3	0	8	2	6	0	3	1	0	3	0	1	0	3	53	3	0	9	1	0	0	0	0	1	1	2	0	0	2	0	0	29	2	1	15	8	3
OTU 65	0	0	0	0	0	0	0	0	0	0	0	0	0	0	0	0	0	5	0	0	0	0	0	0	0	0	0	0	0	0	0	0	0	0	0	0	0	0	0	0	0	0	0	0	0	0	0	1	0	0
OTU 66	4	8	0	0	3	0	2	1	0	4	6	0	1	2	0	2	0	1	5	133	4	2	1	1	1	0	0	2	0	1	0	2	2	6	2	0	0	0	3	0	0	5	0	1	1	2	3	4	0	0
OTU 67	0	1	1	1	5	0	0	0	1	2	0	0	15	0	0	0	0	2	0	0	0	0	0	0	0	3	4	0	1	0	0	0	0	0	0	0	0	0	1	0	0	0	0	0	0	0	0	0	1	0
OTU 68	1	1	0	0	3	0	0	0	0	0	0	1	0	0	0	4	0	0	0	1	0	0	0	0	4	2	0	0	15	0	0	0	0	0	0	0	0	0	0	0	0	0	0	0	0	0	1	0	0	0
OTU 69	1	0	11	1	1	0	0	1	0	2	16	0	1	0	2	1	1	1	3	0	2	0	14	0	0	0	0	2	0	0	0	2	0	0	1	0	0	4	20	1	0	0	0	2	7	5	5	13	5	1
OTU 70	0	1	0	0	0	8	9	0	4	4	0	0	0	1	4	3	6	0	0	1	7	0	0	0	1	0	3	1	2	4	0	4	11	3	0	0	5	15	0	0	1	0	1	3	3	0	0	0	0	0
OTU 71	1	0	0	0	0	0	2	0	1	0	0	7	0	0	0	7	1	0	0	3	0	1	5	0	0	0	0	4	2	1	0	0	0	0	0	0	0	4	0	1	0	0	0	0	0	0	0	0	0	1
OTU 72	9	2	0	16	0	0	1	2	0	1	2	0	1	36	0	0	0	14	0	2	0	18	0	0	0	1	3	3	0	0	2	0	0	0	15	0	1	4	12	1	11	18	0	0	4	0	0	1	0	4
OTU 73	5	0	0	0	0	1	0	0	0	2	3	0	0	0	0	2	1	0	1	0	0	2	3	1	2	0	5	3	0	1	1	1	0	0	1	1	0	0	18	2	0	7	2	0	1	0	2	3	0	14
OTU 74	1	3	5	0	1	0	0	0	5	2	0	1	1	36	0	5	1	2	3	0	1	21	0	0	14	2	7	0	6	4	9	0	4	4	1	3	0	0	2	2	21	9	0	1	1	0	0	0	0	1
OTU 75	2	4	1	0	4	1	0	4	0	2	0	1	4	1	0	0	0	9	156	22	0	1	21	9	38	21	6	1	0	0	1	3	0	0	2	4	0	1	0	5	0	0	2	3	1	10	0	4	21	1
OTU 76	1	2	0	0	0	0	0	1	2	0	1	0	0	2	0	0	0	0	0	0	0	0	0	0	0	0	0	0	0	0	0	0	0	0	0	0	0	0	2	0	0	0	1	0	0	0	0	0	0	3
OTU 77	0	0	5	0	5	0	1	0	0	1	1	2	1	0	30	1	0	2	3	1	2	0	0	4	4	0	8	5	4	0	0	1	0	1	0	1	0	0	0	0	3	0	2	1	0	0	0	1	1	0
OTU 78	1	1	4	0	0	0	1	11	0	10	2	1	0	1	0	0	0	0	0	0	0	0	0	1	2	4	0	0	0	4	15	1	1	0	0	0	0	0	1	0	0	0	0	0	0	0	0	4	1	0
OTU 79	8	1	19	5	13	3	2	4	18	6	5	4	7	6	0	0	0	11	0	2	10	2	15	6	15	7	8	0	0	2	1	1	5	8	17	5	2	5	2	5	4	24	2	0	9	2	1	5	2	3
OTU 80	0	1	0	0	1	26	24	2	1	7	1	3	4	0	5	4	20	4	0	4	19	0	6	4	10	0	11	60	0	15	2	35	14	26	0	4	10	25	3	3	1	0	2	22	6	0	0	1	17	4
OTU 81	7	111	1	0	2	0	0	3	0	8	2	2	0	0	0	0	3	14	0	2	0	0	0	1	1	0	0	2	50	0	27	0	0	1	0	0	0	0	6	2	1	0	1	0	6	0	1	2	1	0
OTU 82	7	0	0	0	1	2	0	1	1	2	3	0	1	1	0	3	4	1	0	0	0	2	0	1	0	0	0	0	0	0	0	0	0	0	2	0	0	0	2	11	0	4	0	1	0	1	1	0	0	5
OTU 83	0	0	0	0	3	1	0	0	0	0	0	0	0	0	0	0	0	0	1	1	0	0	0	0	0	0	5	0	0	0	0	0	1	0	1	0	1	1	0	0	0	1	1	0	0	0	0	0	0	0
OTU 84	0	1	4	0	0	0	0	0	0	0	1	0	1	1	0	0	0	0	0	0	0	0	0	2	0	0	0	0	2	0	0	0	1	0	0	1	0	0	5	7	2	0	1	0	4	0	0	0	0	0
OTU 85	2	0	6	0	3	0	0	0	0	1	0	0	0	1	1	0	0	0	0	1	0	0	1	0	0	0	0	0	0	0	0	0	0	0	0	0	0	0	1	0	0	0	0	0	0	0	0	0	0	0
OTU 86	0	0	0	0	0	0	0	0	0	0	0	0	0	0	0	0	0	0	0	0	0	0	0	0	0	0	0	0	0	0	0	0	0	0	0	0	0	0	0	0	0	0	0	0	0	0	0	0	0	0
OTU 87	0	0	0	0	12	0	0	0	0	0	0	1	0	1	0	5	0	0	0	0	1	0	2	0	0	0	0	2	131	0	2	0	1	1	0	0	0	0	0	1	1	0	0	0	1	0	0	1	0	9
OTU 88	1	0	0	0	0	0	0	0	0	0	0	0	0	0	0	0	1	0	0	0	0	0	0	0	5	2	0	0	1	0	0	0	0	0	0	0	0	0	0	0	0	0	0	0	0	0	0	0	0	0
OTU 89	0	0	0	0	2	0	0	0	1	1	0	0	0	0	0	0	0	3	2	0	0	0	0	3	0	0	0	0	0	0	1	0	0	0	0	0	0	0	0	1	0	0	1	0	1	2	2	0	0	0
OTU 90	0	0	0	0	1	0	0	0	0	0	0	0	0	0	0	0	0	0	0	0	0	0	0	0	0	0	0	0	0	0	0	0	0	0	0	0	0	0	0	0	0	0	0	0	3	3	0	0	0	0
OTU 91	0	0	0	0	0	0	0	1	0	0	0	0	0	0	0	0	0	0	0	0	0	0	0	0	0	0	0	0	0	0	1	0	0	0	0	0	0	0	0	0	0	0	0	0	1	0	0	0	0	0
OTU 92	5	1	0	0	3	0	0	1	0	0	0	0	0	0	0	0	0	0	0	0	0	2	0	1	1	1	1	0	0	0	0	0	0	0	0	1	0	0	0	0	0	0	0	0	2	0	0	0	0	0
OTU 93	0	1	0	0	3	0	0	0	0	0	0	0	1	0	0	0	0	0	0	0	0	0	0	0	0	0	0	0	0	0	0	0	0	0	0	0	0	0	0	0	0	0	0	0	0	0	0	0	0	1
OTU 94	0	0	2	0	1	1	1	2	5	2	2	1	0	0	0	1	2	2	4	1	0	2	0	0	3	0	5	0	0	0	1	0	0	0	1	0	1	0	0	1	0	0	0	0	0	5	3	1	4	2
OTU 95	0	0	0	0	0	0	0	35	0	52	0	0	0	0	0	0	0	0	1	0	0	0	0	2	0	0	0	0	0	0	14	0	0	0	0	0	1	0	3	0	0	0	0	0	2	0	0	2	1	0
OTU 96	0	0	0	0	0	0	0	0	0	0	0	0	1	0	0	0	1	0	0	1	0	0	0	0	0	0	0	0	0	0	0	0	0	0	0	0	0	0	0	0	0	0	0	0	0	0	0	0	0	0
OTU 97	0	0	1	0	0	1	0	0	0	0	0	0	0	0	0	0	0	0	0	10	0	0	1	0	0	0	0	0	1	0	4	1	0	0	0	0	3	0	0	0	0	0	0	0	0	0	0	0	2	1
OTU 98	1	1	1	0	0	0	0	0	3	0	0	0	0	0	0	0	0	0	2	0	0	0	0	0	0	0	0	0	0	0	0	0	0	0	0	9	2	0	0	0	0	2	0	0	11	0	0	0	1	0
OTU 99	4	2	1	1	0	0	0	1	7	1	0	0	4	0	0	3	28	0	6	0	2	0	1	5	6	1	3	0	1	0	2	0	0	0	2	0	18	1	5	1	1	8	0	0	3	1	2	3	0	5
OTU 100	0	3	1	1	0	0	0	0	0	0	0	0	6	0	0	0	0	0	2	0	0	1	0	0	4	4	0	2	0	0	0	0	0	1	0	1	2	2	1	4	0	0	1	1	0	1	0	6	1	30
OTU 101	2	0	0	0	0	0	0	0	0	0	0	0	0	0	0	0	0	0	0	0	0	1	0	0	0	0	0	1	0	0	0	0	0	0	0	0	0	0	0	0	0	0	0	0	0	0	0	0	0	0
OTU 102	0	1	0	0	1	1	1	0	0	0	0	0	1	0	0	0	1	1	0	0	0	0	0	0	0	0	0	0	1	0	1	0	1	0	2	2	0	0	0	0	0	6	0	0	0	1	0	0	2	0
OTU 103	0	7	0	0	0	0	0	1	2	5	0	0	0	0	0	3	0	114	0	0	0	1	2	0	0	0	3	5	0	0	0	0	0	3	2	3	0	1	0	0	0	0	0	0	0	0	0	3	1	1
OTU 104	48	1	3	0	10	1	0	2	1	1	2	2	4	10	0	0	0	0	2	1	0	3	2	0	1	3	4	0	0	2	2	5	0	0	4	1	0	1	1	0	1	0	0	0	7	4	2	1	0	0
OTU 105	1	1	0	0	0	0	0	0	0	0	0	0	0	0	0	0	0	0	1	0	0	4	6	1	1	0	7	0	0	0	1	0	0	0	0	3	0	0	0	0	1	0	0	3	0	1	0	0	0	2
OTU 106	0	0	0	3	0	0	0	1	4	0	1	0	0	0	0	0	1	0	0	2	0	0	0	0	0	0	5	0	0	0	2	0	0	0	0	0	0	0	0	0	1	0	1	0	1	0	0	0	0	0
OTU 107	1	0	0	0	0	0	0	0	0	0	0	0	0	0	0	0	1	0	0	1	0	1	0	0	0	1	0	0	0	0	0	0	0	0	0	0	0	0	1	0	0	2	0	0	0	0	0	12	0	1
OTU 108	0	0	0	3	0	0	0	2	1	2	3	0	0	1	2	0	0	4	0	4	0	0	4	1	0	0	0	0	0	0	0	0	1	0	1	0	0	1	1	5	0	1	0	0	5	0	0	0	0	0
OTU 109	0	0	0	0	0	0	0	0	0	0	0	1	0	0	0	0	0	0	0	0	0	0	0	0	0	0	0	0	0	0	0	0	0	0	0	0	0	0	0	0	0	0	0	0	0	0	0	0	0	0
OTU 110	4	0	1	0	0	0	0	2	7	4	0	4	5	0	0	0	0	1	1	0	0	0	0	1	0	0	10	0	0	6	0	1	0	0	3	2	0	1	0	6	0	8	1	0	1	2	1	0	0	0
OTU 111	0	0	0	0	0	0	0	1	0	0	0	0	9	0	0	0	0	0	0	0	0	1	0	2	0	0	2	0	1	0	0	0	0	0	0	0	0	0	0	0	0	0	0	0	0	0	0	1	0	0
OTU 112	1	0	2	0	0	0	0	0	0	0	0	0	7	0	2	0	0	0	26	0	0	2	0	48	4	0	0	0	0	2	1	1	0	0	0	25	0	0	0	0	0	0	30	1	0	49	26	0	0	0
OTU 113	0	0	0	0	0	0	0	0	0	0	0	0	0	0	0	0	1	0	0	0	0	0	0	0	0	0	0	0	0	0	0	0	0	0	0	0	0	0	2	0	0	0	0	0	0	0	0	1	0	0
OTU 114	2	2	8	0	2	0	0	1	7	5	1	0	0	1	0	4	2	0	0	0	0	0	3	1	0	0	7	0	6	0	14	2	0	1	2	1	1	0	2	2	0	3	6	0	2	1	3	2	0	0
OTU 115	0	2	2	0	7	0	1	0	0	3	1	2	2	7	0	8	1	1	1	0	0	31	7	6	2	6	1	0	2	1	2	1	0	3	0	2	1	2	3	4	1	5	5	1	5	9	1	8	1	4
OTU 116	0	1	1	0	2	0	0	0	0	0	2	1	0	1	3	3	0	0	3	0	0	3	5	2	0	0	0	1	2	3	7	5	1	1	0	1	1	0	1	1	4	0	1	1	1	3	5	0	4	3
OTU 117	0	0	0	0	0	0	0	0	4	0	0	16	0	0	0	1	1	3	1	3	1	0	0	0	2	2	1	0	1	1	1	0	0	0	2	1	0	0	1	6	0	2	0	0	0	2	0	0	1	0
OTU 118	0	0	1	0	3	0	1	0	0	0	0	0	0	0	0	0	0	1	1	0	1	0	0	7	0	1	0	0	0	0	2	0	0	1	0	2	1	0	0	0	0	0	5	0	0	0	0	0	0	0
OTU 119	2	0	0	0	1	2	2	3	0	3	2	1	11	1	0	1	2	0	0	0	0	4	4	1	0	0	0	0	2	0	0	0	0	1	1	0	25	1	2	0	0	0	2	0	8	3	2	6	0	0
OTU 120	0	2	5	0	0	1	3	2	0	2	1	2	0	0	0	2	0	0	0	4	0	0	0	0	0	1	0	2	1	0	0	0	1	0	0	0	0	0	3	0	0	1	0	0	0	0	0	0	0	0
OTU 121	1	0	0	4	0	1	0	0	0	2	0	2	2	0	0	5	1	0	0	0	0	0	2	0	0	2	0	0	0	149	0	0	0	0	0	1	1	3	0	1	0	0	0	1	0	0	0	1	0	3
OTU 122	4	0	2	0	2	1	1	0	4	1	8	1	2	0	0	3	0	3	1	0	0	5	6	2	4	3	2	0	0	1	0	0	2	0	0	0	1	0	1	0	0	2	0	0	0	0	1	2	3	1
OTU 123	19	16	8	56	7	3	2	10	9	17	3	14	3	4	2	17	1	5	2	5	0	0	17	5	12	6	16	2	4	8	9	6	2	3	2	4	1	5	7	3	0	2	6	4	16	6	173	17	0	5
OTU 124	2	0	0	0	0	0	0	0	0	0	0	1	0	0	0	0	0	1	3	0	0	0	0	0	0	0	0	0	1	0	0	0	0	0	0	0	0	0	1	0	0	6	0	0	0	2	0	0	0	0
OTU 125	2	3	1	14	7	0	0	10	1	34	6	0	20	10	4	3	0	2	3	7	0	1	4	6	12	10	13	0	0	2	23	6	0	0	0	6	0	1	7	2	3	3	2	3	14	2	2	5	4	10
OTU 126	0	0	0	0	1	0	0	0	0	0	0	0	0	0	0	0	0	0	0	0	0	0	0	0	0	0	2	0	0	0	0	0	0	0	0	0	0	0	0	0	0	0	0	0	0	0	0	0	0	1
OTU 127	0	1	4	0	0	19	0	0	0	5	1	0	1	1	0	2	0	1	0	1	0	0	2	0	0	1	3	0	0	1	0	3	1	1	0	0	0	0	0	0	0	0	0	0	0	9	5	0	0	0
OTU 128	6	14	2	8	3	6	7	6	49	8	6	2	5	7	1	18	1	4	2	2	8	0	1	23	15	127	21	1	28	1	15	0	9	8	11	2	114	2	1	10	10	12	12	2	6	8	2	9	0	24
OTU 129	0	0	0	0	0	0	0	0	0	0	0	0	0	1	0	0	0	0	0	0	0	0	0	0	0	0	0	1	0	0	0	0	0	1	0	0	0	0	0	0	1	0	0	0	0	0	0	0	4	0
OTU 130	0	1	1	3	0	1	0	1	0	1	1	3	0	2	0	2	0	3	0	2	0	0	0	0	0	0	1	0	0	0	4	0	0	0	0	0	0	0	0	1	0	7	0	0	2	4	0	1	6	0
OTU 131	0	0	2	3	0	0	0	1	0	11	0	0	1	3	0	0	0	2	2	1	0	1	13	0	0	0	3	1	1	1	3	2	0	0	0	0	1	0	6	2	0	5	0	0	0	2	1	15	0	0
OTU 132	2	0	1	0	1	0	0	0	0	0	1	0	2	0	0	0	0	0	1	0	0	0	1	0	0	1	0	0	0	0	2	0	0	0	0	0	0	4	0	0	0	4	0	0	1	0	0	0	1	0
OTU 133	0	0	0	0	1	0	0	0	0	0	0	0	0	0	0	0	0	8	0	0	0	0	0	0	0	0	0	0	0	0	0	0	0	0	0	0	0	0	0	0	0	0	0	0	0	0	0	0	0	0
OTU 134	8	0	0	4	0	1	2	0	3	5	0	0	1	4	0	0	1	3	0	2	2	0	0	7	1	5	0	0	1	1	54	1	4	6	2	0	1	3	0	0	1	1	0	0	0	0	0	0	0	1
OTU 135	5	1	1	2	1	4	0	0	2	0	0	18	0	0	1	29	2	1	0	0	1	0	0	12	2	0	8	0	1	0	0	1	0	0	3	1	0	0	1	0	0	0	1	0	2	0	0	1	1	0
OTU 136	0	2	0	0	0	0	0	0	0	0	8	0	1	0	0	0	0	0	2	0	0	6	0	1	0	0	0	0	2	0	0	0	0	0	13	1	0	1	3	0	0	10	3	2	0	0	0	2	0	0
OTU 137	7	0	0	0	0	0	0	0	0	0	0	0	0	0	0	0	0	0	2	0	0	0	0	0	0	0	3	0	0	0	0	0	0	0	0	0	1	1	0	0	0	0	0	0	0	0	0	1	3	0
OTU 138	0	0	0	3	0	4	0	10	0	13	2	0	0	0	0	0	0	0	0	0	0	0	0	0	0	1	0	0	0	0	2	0	0	0	0	0	0	0	0	0	0	0	0	0	1	0	0	0	0	0
OTU 139	3	1	0	4	8	1	7	4	0	12	1	2	2	2	1	10	1	4	0	0	0	4	8	6	11	4	7	1	0	0	2	3	0	2	4	18	2	4	2	0	1	9	9	7	0	1	0	3	4	0
OTU 140	17	3	8	1	3	7	3	2	7	5	3	3	0	7	0	2	2	1	1	1	0	0	7	17	1	0	4	11	2	0	25	2	2	1	5	5	0	2	1	8	3	3	5	0	16	1	1	9	5	4
OTU 141	0	0	0	0	0	0	0	3	0	1	0	0	0	0	0	0	0	0	0	0	0	0	0	0	0	0	0	0	0	0	0	0	0	0	0	0	0	0	0	0	0	0	0	0	0	0	0	0	0	0
OTU 142	0	0	0	0	1	0	0	0	0	0	0	0	0	2	0	0	0	0	0	0	0	0	0	0	1	0	3	0	0	0	0	0	0	0	0	0	0	1	0	0	3	0	0	0	0	0	0	0	1	0
OTU 143	1	1	0	1	0	0	0	0	0	0	0	0	0	0	0	0	27	0	0	0	0	0	0	0	0	0	0	0	0	0	0	0	0	0	0	0	14	0	0	0	0	0	0	0	0	2	1	0	0	0
OTU 144	0	0	4	0	2	0	0	1	0	1	0	1	0	0	0	0	0	0	0	0	0	0	0	0	1	0	0	0	0	0	0	0	0	0	0	0	0	0	0	0	0	0	0	1	0	0	0	0	0	2
OTU 145	0	3	0	3	3	0	3	2	2	3	1	5	0	3	1	5	1	0	0	2	0	0	1	2	4	0	1	3	6	0	0	1	0	0	0	1	0	0	1	70	1	1	1	0	1	0	0	3	6	2
OTU 146	0	1	1	1	1	0	0	0	0	2	1	0	4	1	3	0	0	2	0	0	2	0	2	4	7	2	3	0	0	0	0	1	2	0	68	1	1	0	0	1	0	0	5	0	1	0	1	1	1	0
OTU 147	2	0	0	1	0	0	0	0	0	0	5	0	2	0	0	0	0	2	0	0	0	0	0	0	0	1	0	0	0	0	0	0	0	1	5	0	0	0	1	2	1	1	4	0	0	1	0	0	1	0
OTU 148	3	1	0	37	0	0	0	1	1	0	0	0	1	1	0	1	0	2	0	2	1	0	0	1	2	2	12	0	4	0	0	0	0	0	1	0	0	0	0	19	0	0	1	0	0	0	0	19	1	6
OTU 149	0	0	0	0	1	0	0	0	0	2	0	0	9	1	1	0	0	0	0	0	1	1	0	4	0	0	0	0	0	0	0	1	1	3	1	0	0	0	0	0	0	0	1	0	1	2	1	0	0	3
OTU 150	0	0	1	0	0	0	0	0	0	0	0	0	0	0	0	0	0	0	0	0	0	0	3	2	0	0	0	0	0	0	0	0	0	0	0	0	0	1	1	0	0	0	0	0	6	0	0	0	0	0
OTU 151	0	0	0	0	51	0	2	0	42	0	0	19	2	0	0	0	34	0	0	0	0	0	0	0	0	0	0	2	0	0	0	0	0	2	0	0	11	0	1	0	0	0	0	2	0	6	0	3	0	0
OTU 152	4	1	0	1	2	0	0	3	0	1	6	1	0	73	0	0	0	0	0	0	1	32	6	2	16	8	3	0	0	0	3	0	1	0	10	5	0	0	2	0	38	34	1	1	9	0	0	0	1	0
OTU 153	0	0	0	0	0	0	0	0	0	0	0	0	0	0	2	0	0	0	0	0	0	0	0	0	0	0	0	0	0	0	0	4	0	0	0	0	0	0	0	0	0	0	0	0	0	1	0	0	0	0
OTU 154	0	0	0	0	0	0	0	0	0	1	0	0	0	0	0	2	0	0	0	0	0	0	0	0	0	0	0	0	0	0	0	0	0	0	0	0	0	0	0	0	0	0	0	1	0	0	0	0	0	0
OTU 155	0	1	4	0	0	0	0	2	0	2	0	0	0	0	0	1	0	0	0	0	0	1	0	0	0	0	0	1	0	0	1	0	0	0	38	0	0	0	0	1	0	72	1	0	0	0	0	2	1	0
OTU 156	4	0	2	3	1	1	0	7	2	4	1	1	7	6	0	3	0	0	0	2	1	3	3	2	0	1	1	0	0	0	6	1	0	1	0	1	1	1	1	0	2	1	1	1	3	0	0	0	0	0
OTU 157	0	0	0	0	0	0	0	0	0	0	0	0	0	0	1	3	0	0	0	0	0	0	0	0	0	0	1	3	0	0	0	0	0	2	0	0	0	2	3	0	0	0	0	3	0	0	0	0	5	0
OTU 158	0	0	0	1	0	0	0	0	0	0	0	0	0	0	0	0	0	0	0	0	0	0	0	0	0	0	0	0	0	0	0	0	0	2	1	0	0	0	0	0	0	0	0	0	1	0	0	0	0	0
OTU 159	1	4	1	0	0	0	0	2	1	1	0	1	4	0	0	1	2	0	0	3	0	0	2	0	0	1	4	0	0	0	3	0	0	0	1	2	1	0	1	0	0	0	0	2	0	0	0	36	0	0
OTU 160	7	0	4	0	6	3	5	1	12	1	1	6	4	0	0	9	1	6	1	1	2	1	2	4	10	0	1	8	9	1	0	0	2	5	0	0	4	0	5	42	1	5	3	0	4	1	8	9	6	3
OTU 161	0	5	0	1	0	5	6	1	1	3	1	0	0	0	0	0	0	1	0	7	0	3	1	0	0	0	0	0	0	1	2	1	2	1	1	2	1	4	0	0	0	0	0	0	0	0	0	1	6	14
OTU 162	7	2	0	28	0	3	1	0	4	2	18	0	0	5	0	1	1	2	0	0	1	0	2	1	1	3	0	2	1	2	0	0	5	3	7	1	0	0	1	2	1	1	0	1	0	0	0	0	2	0
OTU 163	0	1	0	0	57	0	0	0	0	0	0	2	0	0	0	1	0	0	0	0	0	0	0	0	0	0	0	0	0	0	0	0	0	0	0	0	0	0	0	0	0	0	0	0	0	0	0	0	0	0
OTU 164	0	0	0	0	0	0	0	0	0	0	0	0	0	0	0	7	0	0	0	0	0	0	0	0	1	0	0	0	0	0	0	0	0	0	0	0	0	0	0	0	0	0	0	0	0	0	0	0	0	0
OTU 165	0	1	0	0	0	0	0	1	2	8	1	1	0	0	0	0	0	0	1	2	0	0	0	0	0	0	0	1	0	0	1	0	0	0	0	0	0	3	0	3	0	0	0	0	0	0	0	0	7	0
OTU 166	7	0	0	0	0	0	0	0	0	0	0	0	0	0	0	0	0	0	0	0	0	0	0	0	0	0	0	0	0	0	0	0	0	0	0	0	0	0	0	0	0	0	0	0	0	0	0	0	0	0
OTU 167	1	2	0	0	5	0	0	0	0	0	1	0	4	4	0	0	3	0	0	1	0	4	7	0	1	0	1	1	2	0	0	0	0	0	0	0	0	0	3	0	0	0	1	0	0	0	2	0	0	0
OTU 168	6	0	0	0	0	0	0	1	2	0	0	4	1	0	0	0	0	3	0	1	0	0	1	0	1	0	0	0	2	1	0	1	0	0	0	0	0	0	0	3	0	0	0	0	1	0	0	0	0	3
OTU 169	0	0	0	0	0	0	0	0	0	0	0	1	0	0	0	3	0	0	0	0	0	0	0	1	0	0	0	0	0	0	0	0	0	0	0	0	0	0	0	0	0	0	0	0	0	0	0	0	0	0
OTU 170	0	0	0	0	5	0	0	0	0	0	0	0	0	0	0	0	0	0	0	0	0	0	0	1	0	0	0	0	0	0	0	0	0	0	0	0	0	0	0	0	0	1	0	0	0	0	0	0	0	0
OTU 171	0	0	3	0	2	0	0	0	2	0	1	0	0	0	3	2	0	0	0	1	0	0	0	1	0	0	5	2	4	0	0	0	0	1	0	1	0	1	2	0	0	0	0	0	3	4	2	4	0	1
OTU 172	0	0	0	0	0	0	0	0	0	0	0	0	0	0	0	0	0	7	0	0	0	0	2	0	2	0	2	0	0	2	0	0	0	0	0	2	0	0	4	0	0	0	0	0	1	2	3	0	0	0
OTU 173	0	0	0	0	0	0	0	0	1	0	0	0	3	2	0	1	0	0	0	0	0	0	0	0	0	0	1	0	0	0	0	0	0	0	0	0	0	0	0	0	0	0	0	0	0	5	1	1	2	0
OTU 174	0	0	1	0	0	1	0	0	0	0	2	0	0	0	0	0	33	0	1	0	0	0	9	0	22	11	0	0	0	2	0	0	0	0	0	1	15	70	1	0	195	0	0	0	0	0	2	10	3	2
OTU 175	1	1	0	0	0	0	0	0	3	1	0	0	0	0	0	6	1	0	0	0	0	0	0	1	0	0	1	1	0	1	1	0	0	0	0	1	0	0	0	0	0	0	0	0	1	1	0	0	0	1
OTU 176	0	4	3	2	0	5	3	1	0	1	0	4	7	2	31	1	3	0	1	1	0	1	2	0	8	3	9	2	4	27	0	60	0	0	0	0	0	1	1	0	0	2	1	36	2	3	1	2	0	0
OTU 177	6	5	4	1	9	0	0	0	2	2	94	4	2	0	1	3	0	0	1	6	0	0	0	0	5	2	0	4	1	1	0	0	0	1	5	1	0	1	0	0	1	0	0	0	0	0	0	1	14	1
OTU 178	0	0	0	0	0	0	0	0	0	0	4	0	0	2	0	0	0	0	1	0	0	0	3	0	8	0	0	0	0	0	0	1	0	0	0	1	0	0	0	0	0	0	0	168	3	1	1	0	0	0
OTU 179	0	0	1	0	3	0	1	1	0	1	0	1	0	1	0	2	1	2	0	0	0	0	0	0	0	0	0	0	1	1	0	0	0	0	1	0	1	2	0	0	0	0	0	0	0	0	0	0	1	1
OTU 180	5	4	8	9	2	2	3	8	7	10	5	7	7	3	2	6	1	4	0	2	1	2	3	6	6	4	7	5	1	1	11	2	138	1	5	4	5	1	4	1	2	2	1	3	5	1	2	5	2	1
OTU 181	1	1	1	2	0	130	1	3	0	4	0	0	1	0	1	0	0	1	0	1	0	0	0	2	1	0	0	5	0	0	2	0	0	0	0	0	1	0	0	40	0	3	0	0	6	2	0	0	1	0
OTU 182	0	0	0	0	0	0	0	0	0	0	0	0	0	0	0	0	0	0	1	0	0	0	0	0	1	1	0	0	0	0	0	0	0	0	0	0	0	0	0	0	0	0	0	0	0	0	0	0	0	0
OTU 183	0	8	2	0	3	0	0	5	0	9	0	0	0	0	0	2	1	0	0	0	0	0	0	0	1	0	13	0	0	0	4	0	0	0	0	0	0	0	0	0	0	2	0	0	0	1	0	5	0	1
OTU 184	0	0	0	0	0	4	0	0	0	0	2	0	0	6	10	0	0	0	0	1	0	1	0	1	2	1	1	0	0	12	3	25	0	0	0	0	3	0	0	0	5	1	1	9	0	0	0	0	0	3
OTU 185	0	7	0	24	1	0	0	0	18	4	0	0	3	20	2	1	0	21	0	0	2	8	1	0	1	2	1	1	2	0	0	4	0	1	4	1	1	0	1	1	10	20	0	0	2	0	2	5	1	3
OTU 186	0	0	0	0	0	0	0	0	1	0	0	17	0	0	0	44	0	0	0	0	0	0	0	0	0	4	0	0	0	0	0	0	0	0	0	0	1	0	0	0	0	0	2	0	0	1	0	1	0	0
OTU 187	2	3	0	0	2	0	4	4	1	8	1	0	4	1	0	2	1	1	1	2	0	2	1	1	2	2	1	5	2	0	0	1	1	3	1	79	0	1	0	7	0	0	0	0	3	2	5	1	4	12
OTU 188	4	1	0	2	0	0	1	0	1	1	12	0	15	4	2	5	0	2	2	1	65	0	0	1	5	33	0	2	6	3	0	2	7	140	3	0	1	0	0	0	2	2	0	3	4	3	3	1	0	64
OTU 189	0	4	1	2	5	2	0	0	2	0	4	0	1	6	0	3	0	6	2	2	60	4	1	4	1	4	0	0	3	0	2	1	1	2	0	0	0	1	1	5	2	0	0	1	0	0	0	3	14	0
OTU 190	0	0	0	0	0	0	0	0	0	0	0	0	12	0	0	0	0	0	0	0	0	0	0	0	0	0	0	5	5	0	0	0	0	0	0	0	0	0	0	0	0	0	0	0	0	0	0	4	1	0
OTU 191	3	0	0	1	2	0	0	8	0	5	19	1	1	3	0	3	0	1	0	0	43	4	1	2	2	0	1	0	0	0	2	0	3	0	0	2	0	0	11	0	0	0	1	2	17	2	1	2	3	0
OTU 192	6	3	0	0	2	1	1	2	2	1	3	9	7	3	35	13	3	8	2	4	8	0	14	8	1	1	2	0	0	36	1	80	2	24	0	2	4	7	1	6	1	0	5	35	2	8	4	0	2	11
OTU 193	0	2	0	3	1	0	0	0	8	2	0	0	2	0	0	2	2	1	0	0	2	2	1	1	6	2	7	0	1	0	0	0	0	0	0	2	0	1	1	1	0	1	0	3	1	0	0	1	0	3
OTU 194	5	1	1	0	0	0	2	0	0	0	0	0	0	0	0	0	0	0	0	0	1	2	0	1	0	0	7	0	0	0	0	3	0	0	5	1	0	0	0	0	0	0	1	0	0	0	0	1	0	0
OTU 195	6	0	0	0	2	0	0	0	0	0	0	1	1	0	0	0	0	0	0	1	0	0	0	0	1	0	5	0	0	1	2	0	0	0	0	0	0	0	9	0	0	1	0	0	8	3	0	2	1	0
OTU 196	2	0	4	0	2	0	0	0	5	0	0	0	15	1	0	0	41	2	0	0	11	0	5	0	2	0	0	4	1	1	2	0	0	2	0	0	27	0	2	0	0	1	0	0	4	3	1	7	0	0
OTU 197	14	3	2	0	0	1	2	2	3	0	0	5	1	3	1	7	0	0	0	1	2	2	3	1	0	0	6	6	4	0	1	1	3	7	0	0	1	3	2	0	3	2	0	0	2	0	2	0	7	0
OTU 198	0	0	0	0	5	0	0	0	1	1	1	0	0	0	0	0	1	0	0	0	1	0	1	0	1	0	0	3	0	0	0	0	4	0	0	0	0	0	0	2	0	0	0	0	0	0	0	0	0	0
OTU 199	0	0	0	0	0	0	2	1	4	0	0	2	0	0	3	0	0	1	0	1	0	0	1	0	3	0	1	1	1	2	0	1	0	0	0	0	0	1	0	0	0	0	0	0	0	0	1	0	0	1
OTU 200	1	5	0	1	0	0	0	1	0	0	1	0	0	13	6	0	1	2	0	0	0	4	4	0	3	1	0	1	2	1	0	2	0	0	11	0	1	2	1	0	6	0	1	0	0	3	0	1	0	8
