	Host 1	Host 2	Host 3	Host 4	Host 5	Host 6	Host 7	Host 8	Host 9	Host 10	Host 11	Host 12	Host 13	Host 14	Host 15	Host 16	Host 17	Host 18	Host 19	Host 20	Host 21	Host 22	Host 23	Host 24	Host 25	Host 26	Host 27	Host 28	Host 29	Host 30	Host 31	Host 32	Host 33	Host 34	Host 35	Host 36	Host 37	Host 38	Host 39	Host 40	Host 41	Host 42	Host 43	Host 44	Host 45	Host 46	Host 47	Host 48	Host 49	Host 50	
OTU 1	6	1	1	1	6	68	133	48	3	49	8	0	0	172	29	13	0	82	19	0	14	74	16	109	11	24	0	127	73	75	5	64	112	98	15	18	3	64	10	0	212	45	69	18	0	94	26	5	58	18
OTU 2	57	0	21	1070	37	0	0	4	2	0	32	2	31	0	7	54	5	0	1	0	3	0	0	13	1	0	126	963	64	1	0	7	6	0	16	7	1	0	32	27	10	10	3	1	77	14	0	41	0	17
OTU 3	0	0	6	17	3	0	2	0	15	0	0	0	3	8	0	1	0	0	0	37	0	8	1	0	0	0	11	0	9	1	2	0	0	0	3	0	0	4	15	2	0	0	0	0	89	0	37	0	3	0
OTU 4	0	1	0	0	0	0	0	0	39	0	1	0	0	0	4	0	0	0	0	0	0	0	0	0	3	0	0	0	0	0	0	0	0	0	0	0	0	0	0	0	0	0	2	0	0	0	0	0	0	0
OTU 5	49	0	105	1049	53	609	37	120	1007	71	283	893	995	118	0	181	1141	166	185	37	663	1456	140	629	4	250	0	397	4	58	120	44	88	247	253	370	650	935	543	243	106	711	416	115	0	26	155	0	171	22
OTU 6	20	82	7	0	16	30	36	4	6	3	983	6	5	82	74	18	2	5	37	25	60	20	51	113	15	26	0	40	102	0	4	9	9	7	0	87	19	1	1732	3	31	0	69	0	33	43	0	39	47	0
OTU 7	99	95	43	0	176	195	239	70	37	165	49	2	159	170	7	18	38	83	4	27	21	24	3	38	46	28	37	54	111	274	33	275	279	241	20	41	150	132	113	17	549	59	29	151	215	17	4	14	161	420
OTU 8	133	78	24	9	9	36	39	29	101	30	16	18	155	49	82	35	53	80	621	45	40	581	6	92	132	49	42	73	54	20	21	26	31	28	9	81	43	86	214	33	77	57	338	12	64	89	54	102	4	116
OTU 9	1	2	3	40	28	1	5	49	11	65	28	10	12	20	17	0	4	44	9	13	6	4	34	40	90	67	2	53	47	6	8	5	7	4	2	2	0	15	2	0	9	100	18	0	4	1	33	1	0	16
OTU 10	0	11	7	0	0	0	2	19	0	10	1	2	15	47	79	0	0	10	0	0	1	1593	46	34	268	83	4	1	16	0	0	1	9	1	3	199	9	12	12	34	16	0	19	6	36	0	1	81	1	38
OTU 11	12	16	22	0	50	5	0	0	82	2	24	5	0	4	16	60	10	91	1	0	9	13	3	36	105	42	0	17	35	5	3	0	0	23	4	50	4	18	31	1	1	50	21	0	22	8	0	21	149	113
OTU 12	4	37	0	58	34	12	20	15	28	10	6	29	18	41	4	49	6	0	28	882	1367	20	1	22	0	4	58	27	9	15	4	8	9	5	20	30	2	3	87	19	21	24	4473	59	178	45	87	76	1612	39
OTU 13	0	4	0	0	0	0	1	1	0	29	0	34	1	0	27	22	0	0	0	19	0	1	40	0	143	73	0	0	0	0	0	0	0	0	0	8	35	0	1	0	0	0	0	0	0	0	9	2	1	4
OTU 14	0	25	26	57	0	0	211	2	101	0	6	12	38	20	26	21	2	0	4	4	0	10	0	0	58	41	55	2	0	0	4	1	0	0	1	0	0	0	3	23	0	30	0	11	2	0	0	73	4	6
OTU 15	0	0	0	0	0	0	0	0	0	0	0	0	25	5	18	0	0	0	0	0	0	5	0	2	0	0	0	6	0	0	32	0	0	0	0	0	0	0	0	20	0	0	0	0	2	0	25	0	6	36
OTU 16	0	0	28	0	11	0	0	0	0	0	0	0	0	0	74	0	0	0	0	0	0	0	0	0	0	0	0	0	0	0	0	0	0	0	19	0	0	0	0	0	0	0	0	2	0	20	0	0	0	7
OTU 17	5	28	17	34	4	0	0	25	10	16	9	11	32	14	0	38	35	7	0	21	0	6	65	12	128	87	12	18	1	0	56	16	4	4	0	2	0	1	5	0	11	0	6	44	21	4	4	105	16	41
OTU 18	33	0	49	38	24	33	8	91	22	37	241	36	30	37	30	19	10	64	94	1	8	21	0	3	41	5	13	37	88	15	112	31	9	18	7	2	387	8	354	4	16	59	1	1	78	246	214	18	71	48
OTU 19	0	0	0	0	0	0	0	0	2	0	0	0	0	1	0	0	0	0	0	0	0	0	0	0	14	0	0	0	0	0	0	0	0	0	0	0	0	0	0	0	0	0	0	0	0	0	0	0	0	0
OTU 20	1	52	36	5	32	49	52	1	48	22	25	29	15	48	20	44	26	1	7	8	33	46	0	7	33	6	132	89	10	55	191	5	35	17	4	10	0	12	21	14	86	9	5	11	67	36	59	3	0	75
OTU 21	74	68	52	6	1	1	42	3	5	27	4	46	132	0	1	18	11	13	0	1	42	11	3	123	22	17	123	29	82	7	2	0	14	89	1	89	0	0	16	11	34	0	55	1	46	2	100	51	1	3
OTU 22	32	2	16	16	14	47	0	18	1	2	38	31	16	4	18	59	2	13	0	15	15	15	28	1	2	0	28	57	21	2	40	11	4	6	11	3	18	29	14	0	9	63	0	0	4	2	93	23	15	0
OTU 23	21	4	614	57	0	0	0	52	12	27	195	68	32	9	1185	134	1	6	3	17	1	19	35	7	8	1	18	2	53	21	47	86	6	0	35	0	7	3	493	1	8	0	4	38	0	0	149	3	0	15
OTU 24	8	196	3918	3	0	11	0	2	0	0	3	12	6	8	5	20	0	8	1	8	0	1	0	0	47	6	22	0	0	0	43	1	0	4	0	4	6	14	27	0	0	2	0	0	61	0	3	0	31	1
OTU 25	0	0	0	0	0	0	0	11	0	47	0	0	0	6	0	0	6	0	0	2	5	0	0	0	0	0	0	0	0	0	0	0	0	0	0	0	0	0	0	0	0	1	1	0	0	0	0	0	0	0
OTU 26	5	8	0	15	1	6	0	0	0	2	0	2568	0	0	0	42	0	0	0	9	8	0	0	0	0	0	0	5	0	0	0	0	4	0	0	1	1	0	33	3	3	0	0	0	0	0	17	150	68	3
OTU 27	0	4	0	0	25	0	0	0	0	0	0	0	0	0	0	0	0	0	0	0	0	0	0	0	0	0	13	0	0	0	0	0	0	1	0	0	0	0	0	0	0	0	0	0	0	0	0	6	0	0
OTU 28	199	96	108	126	90	48	4595	43	27	173	1	3	103	63	9	6	83	16	3	105	21	35	34	1	18	7	124	43	16	31	26	39	12	23	18	2	6	37	1	11	34	18	1	7	72	6	123	0	43	114
OTU 29	10	39	1	12	1	1741	1596	31	18	29	3	25	51	23	26	30	1008	143	17	112	0	39	393	69	84	22	30	3	6	808	15	1549	1671	1629	23	40	538	1762	7	0	3434	40	19	726	19	42	46	21	19	46
OTU 30	0	0	0	0	0	0	0	0	1	0	2	0	0	0	0	0	0	0	0	0	0	0	0	0	0	0	0	0	0	0	0	0	0	0	0	0	0	0	0	0	0	0	0	0	0	0	0	17	0	0
OTU 31	0	0	0	2	18	37	3	0	40	0	1	12	2	0	25	0	73	15	13	51	23	0	22	49	0	0	57	45	0	45	0	72	0	8	2006	27	0	36	0	0	0	0	24	18	0	23	0	1	8	0
OTU 32	106	119	21	62	164	222	174	87	481	27	28	14	170	145	378	94	110	44	32	138	91	71	468	366	14	25	822	106	15	111	16	181	201	167	38	231	20	450	17	16	363	146	190	150	76	79	54	8	82	26
OTU 33	0	0	0	1	0	0	0	0	0	0	0	0	0	0	2	0	0	0	0	0	0	0	0	0	0	0	0	0	0	0	0	0	0	0	0	2	0	0	0	0	0	0	0	0	0	0	0	1	74	5
OTU 34	85	10	11	48	76	39	27	35	7	70	14	24	47	60	9	39	1	0	8	29	42	34	48	12	10	1	172	0	69	5	15	17	43	34	5	2	9	20	7	19	85	7	9	2	9	6	54	1	30	31
OTU 35	54	21	28	26	36	0	28	31	69	10	305	0	13	3	66	3	9	34	19	16	19	0	12	3	4	2	14	52	10	3	1	17	22	7	64	0	45	20	260	8	59	17	0	73	0	0	106	7	3	2
OTU 36	14	118	12	21	84	0	0	1	94	90	2	192	22	23	19	73	9	37	10	4	13	2	3	0	25	5	6	1	0	0	12	3	4	21	9	41	1	0	3	9	12	30	2	0	15	11	10	43	0	34
OTU 37	70	0	16	0	1	4	0	0	4	6	0	14	17	12	0	12	0	0	3	0	0	3	0	1	57	33	7	8	10	0	2	28	0	0	34	67	0	0	15	3	0	0	2	1	23	0	67	0	0	0
OTU 38	99	52	17	10	108	22	18	0	67	3	138	13	11	18	14	6	2	14	25	22	3	0	13	16	31	18	64	6	15	785	51	2	1	12	21	0	0	26	32	4	7	1	1	7	23	12	18	3	4	47
OTU 39	0	22	0	18	0	0	0	10	2	0	2	21	0	0	8	20	0	0	0	0	16	0	0	51	0	5	104	0	2	12	118	0	0	1	5	8	0	0	0	0	0	13	23	2	0	1	8	1	8	4
OTU 40	23	62	59	3	12	5	31	1	0	18	129	28	185	112	13	33	23	37	0	6	0	22	78	62	187	67	76	9	0	8	7	16	25	9	27	1331	1	10	47	22	43	0	29	2	219	13	157	5	12	180
OTU 41	17	0	60	17	13	1	8	28	21	135	3	1	10	0	49	0	6	25	6	4	5	39	9	18	25	30	4	5	21	2	6	0	6	0	0	19	7	18	9	170	16	2	4	1	11	1	11	14	52	4
OTU 42	0	0	0	30	4	0	0	0	0	0	0	92	6	0	8	99	0	0	0	0	1	0	7	0	0	3	2	0	1	0	7	0	0	0	4	0	0	0	0	0	0	0	0	0	127	7	0	0	99	0
OTU 43	0	0	0	0	0	0	0	0	0	0	0	0	10	0	0	0	0	3	1	0	0	0	0	0	0	0	0	0	0	0	0	0	0	0	13	0	0	0	0	1029	0	0	0	0	0	0	0	5	0	0
OTU 44	0	0	1	8	23	0	0	26	10	7	0	3	0	0	36	0	5	0	0	0	0	0	9	0	0	0	7	1	0	0	4	0	1	11	1	1	0	0	0	0	1	0	0	3	3	0	2000	0	0	7
OTU 45	41	47	53	1	47	1	2	11	26	95	20	10	11	19	9	62	6	26	3	28	13	1	144	57	53	35	56	62	9	38	7	1	4	0	59	61	16	28	71	7	4	19	28	14	104	52	2	91	13	86
OTU 46	552	170	207	10	49	12	10	37	9	37	13	35	51	0	177	159	0	168	27	27	3	2	0	20	0	11	3	20	16	4	46	9	8	18	4	7	54	9	119	2	14	14	8	16	580	42	10	497	59	262
OTU 47	0	1	0	0	0	0	0	0	1	0	0	25	20	0	0	48	0	31	0	0	2	0	10	2	0	0	0	1	1	1	0	0	2	6	6	0	0	12	25	0	2	0	0	0	0	0	37	94	0	0
OTU 48	26	50	21	18	77	9	0	18	29	17	44	22	17	79	15	16	4	39	1440	15	131	38	15	34	32	34	74	33	48	34	26	2	0	14	6	87	1	39	41	5	0	10	21	27	66	2963	38	3	20	10
OTU 49	43	0	90	0	51	0	0	8	79	72	0	2	11	38	13	1	0	2	0	5	6	26	6	4	10	3	45	0	10	0	0	3	0	0	16	1	5	9	1	4	0	3	5	26	10	14	3	65	1	0
OTU 50	104	7	8	56	37	53	7	3739	17	80	57	3	1	98	17	62	13	54	21	18	10	21	26	76	86	33	65	150	69	16	154	10	29	3	26	22	37	7	10	6	50	56	37	3	4	69	25	106	63	23
OTU 51	26	68	40	107	3	0	4	47	349	102	1	0	0	85	9	2	876	9	3	1	2	0	0	0	29	15	3	0	13	11	152	22	4	5	22	1	396	1436	2	25	15	24	3	7	2	4	17	38	0	119
OTU 52	47	125	83	10	624	4	7	534	76	114	13	2	46	121	6	16	69	39	14	14	50	110	1183	26	178	77	249	20	14	10	34	20	12	0	24	82	14	58	16	14	27	105	9	17	52	39	59	32	62	79
OTU 53	0	0	0	0	0	5	0	0	0	0	0	0	0	0	0	0	0	0	0	0	0	0	33	0	0	0	0	0	0	0	0	0	0	1	0	0	0	23	0	0	0	0	0	0	0	0	9	0	0	0
OTU 54	167	3	46	24	362	9	14	11	38	64	34	66	235	37	72	91	44	31	625	1079	56	56	111	1	141	53	65	13	16	40	136	5	7	39	73	28	17	3	33	35	18	6	1	15	13	116	56	123	1744	237
OTU 55	0	0	0	0	0	0	0	0	0	0	0	0	0	0	0	0	0	0	0	0	0	0	0	0	0	0	0	0	0	0	3	0	0	0	0	0	0	0	0	0	0	0	0	0	0	0	0	0	0	0
OTU 56	5	0	0	32	48	0	0	5	3	0	0	0	1	2	9	0	0	8	3	0	0	0	8	5	21	1	4	12	1	0	0	2	0	0	33	0	1	8	0	0	2	22	1	9	12	13	20	0	1	0
OTU 57	169	100	14	90	18	23	35	2	38	20	49	56	295	44	18	162	21	28	27	15	69	10	703	95	143	49	121	1049	129	15	240	27	786	5	12	18	9	15	14	15	26	21	30	3	103	49	178	23	47	66
OTU 58	8	2	1	2	5	0	0	9	21	34	20	0	4	55	17	0	0	49	3	77	34	21	1	2	103	1250	28	0	7	4	3	1	0	1	1	12	0	10	183	22	0	64	0	12	28	12	26	60	1	20
OTU 59	1	10	0	0	36	57	32	2	1	13	45	31	17	10	11	18	2	45	8	6	58	7	8	1196	25	5	0	39	0	13	11	6	31	34	94	644	27	0	8	0	51	12	540	5	1	4	130	6	5	0
OTU 60	17	1	1	15	102	33	6	1	83	9	30	44	139	21	45	37	1	1	35	8	1	5	253	541	68	44	0	18	48	38	95	73	9	7	4	314	4	75	13	23	17	38	286	61	209	121	84	2	120	63
OTU 61	23	51	28	164	140	39	81	10	55	22	32	25	54	323	44	53	73	277	2	152	307	211	83	8	95	48	75	257	46	88	327	134	58	81	35	4	16	160	167	52	133	318	4	123	88	2	131	82	71	53
OTU 62	1	21	3	0	1	10	54	1	0	0	130	10	0	0	3	35	0	0	21	0	0	0	0	0	0	0	1	7	51	30	0	28	34	47	0	0	1	2	341	0	73	4	166	0	0	34	0	5	0	1
OTU 63	0	4	0	0	3	5	7	1	10	33	23	0	13	16	2569	0	0	1	432	3	12	1	0	26	21	6	0	0	1	7	11	0	4	5	0	45	9	1	23	56	13	1	17	1	0	865	0	0	1	9
OTU 64	57	1357	33	30	9	3	5	81	65	144	61	79	25	61	54	235	40	45	34	57	70	8	37	2	28	11	56	1358	24	3	113	42	9	13	7	0	15	45	90	8	20	11	2	1	499	49	159	296	202	80
OTU 65	11	1	0	0	4	1	0	0	0	0	0	0	0	1	35	0	1	60	0	3	0	0	1	0	0	0	0	1	0	0	0	0	1	0	0	0	0	0	0	0	1	0	0	0	0	0	0	27	0	0
OTU 66	182	92	11	5	30	71	92	40	0	22	71	32	40	14	84	94	10	39	135	3643	35	60	18	11	16	6	46	28	6	20	0	48	49	85	82	0	24	45	23	46	106	35	0	36	54	105	8	71	35	2
OTU 67	4	38	29	10	108	28	15	0	8	30	9	9	223	0	0	7	0	35	0	14	87	2	6	1	52	65	45	6	3	12	13	1	1	3	4	3	1	0	10	2	7	9	1	1	18	6	2	8	27	0
OTU 68	33	0	0	0	13	0	0	0	0	8	40	15	1	0	0	57	0	1	8	25	0	0	0	0	58	50	2	3	289	0	0	5	3	0	16	0	0	0	0	1	1	0	2	9	23	6	3	0	0	0
OTU 69	18	11	381	27	8	6	1	32	0	87	493	12	61	0	589	8	4	49	62	2	2	8	111	6	7	6	19	16	8	5	49	37	0	3	6	8	0	25	296	32	0	5	1	17	129	109	123	253	162	38
OTU 70	9	49	0	1	3	199	226	0	37	22	13	0	76	56	41	26	125	2	10	17	10	2	0	28	1	0	66	31	28	106	18	151	206	259	1	0	94	205	3	3	460	4	17	64	39	35	13	0	4	5
OTU 71	3	5	27	47	4	21	37	10	1	5	1	195	6	1	19	245	6	0	7	44	12	3	76	0	2	2	14	37	49	10	0	0	6	4	0	0	10	48	7	39	11	9	2	6	0	0	1	0	5	18
OTU 72	219	48	29	251	20	1	2	60	51	60	81	19	9	786	90	47	2	394	1	48	123	280	21	10	6	18	112	62	2	1	22	9	0	10	394	25	2	3	278	29	2	384	0	10	71	1	91	48	5	64
OTU 73	123	2	6	16	20	22	0	34	14	76	109	19	5	22	8	29	0	19	3	4	6	61	56	44	40	24	52	37	0	8	11	1	1	1	1	8	0	7	337	6	9	76	35	2	85	13	24	13	109	152
OTU 74	23	56	76	9	14	5	40	71	13	82	1	25	175	667	6	15	14	47	30	11	291	547	2	7	284	145	81	3	130	33	162	11	65	58	0	33	4	6	41	68	123	81	17	32	10	60	0	4	15	37
OTU 75	51	70	48	30	22	19	1	39	48	54	1	19	153	48	19	0	1	228	3540	548	61	27	399	127	712	307	240	11	13	0	15	54	2	6	8	55	27	14	14	135	8	1	32	18	1	150	94	43	346	4
OTU 76	0	78	13	0	0	1	1	0	50	0	1	1	0	36	38	0	5	8	2	1	1	34	6	0	14	0	1	0	9	0	4	0	0	2	6	0	0	0	65	0	3	18	0	0	0	2	4	8	0	25
OTU 77	11	24	84	6	112	1	19	1	50	5	13	45	33	23	7	105	24	31	27	18	33	0	12	37	23	5	116	38	140	12	1	11	9	45	8	2	6	17	13	11	24	32	27	10	1	22	14	22	16	0
OTU 78	31	17	55	1	1	10	39	266	2	434	35	83	59	6	28	95	11	4	0	24	32	9	7	23	59	25	13	0	3	8	342	39	20	1	26	0	1	8	3	1	53	2	14	3	11	3	8	58	35	0
OTU 79	182	37	342	143	176	48	25	79	393	142	107	39	245	318	21	53	28	408	10	105	373	285	471	84	256	165	163	10	24	38	94	27	60	379	435	104	57	92	74	84	119	370	31	40	351	15	63	95	62	171
OTU 80	0	25	0	0	30	547	634	31	47	139	13	58	81	0	11	94	461	109	35	159	39	4	133	129	186	85	239	1722	6	344	53	793	592	638	2	109	155	450	18	72	1161	2	90	423	79	29	4	24	335	60
OTU 81	193	2808	51	3	37	19	13	65	17	129	14	13	45	7	6	11	76	232	18	7	14	7	74	81	37	18	25	61	1039	7	531	0	21	16	7	12	23	16	125	74	34	9	48	3	317	71	145	22	29	0
OTU 82	83	6	20	3	4	12	17	9	1	41	49	1	90	31	0	13	61	8	7	9	9	2	11	28	6	3	3	4	2	0	3	6	42	31	24	7	12	0	2	245	59	27	21	2	2	25	137	23	14	237
OTU 83	0	7	0	0	42	11	4	13	0	0	0	10	0	0	0	4	0	0	12	1	15	0	0	0	0	0	65	11	0	0	0	0	6	20	0	0	4	9	0	0	10	9	1	0	6	1	59	0	0	0
OTU 84	11	0	140	0	8	1	0	9	0	13	43	0	25	34	176	0	5	2	6	5	5	5	5	86	0	0	3	11	63	1	13	8	7	1	5	61	11	1	171	62	9	22	45	4	72	16	0	2	0	3
OTU 85	25	4	144	0	49	0	0	0	1	16	0	0	4	35	4	1	0	0	0	16	0	0	17	0	7	10	0	0	0	5	0	14	2	0	0	0	1	0	5	0	3	0	0	7	12	0	0	0	0	4
OTU 86	0	0	1	0	0	0	0	0	0	0	0	0	0	0	0	0	0	18	0	0	0	0	0	0	0	0	5	0	0	0	0	2	0	0	1	1	0	0	0	0	0	0	0	0	4	0	0	1	0	0
OTU 87	17	0	1	8	182	6	20	3	8	5	8	24	15	18	16	131	0	1	2	20	0	6	26	0	0	0	1	38	3733	3	68	1	24	42	28	1	2	39	5	61	55	46	0	0	1	21	0	61	13	181
OTU 88	7	0	0	13	0	5	5	0	0	0	1	17	0	0	1	0	0	0	0	2	0	0	6	4	45	30	0	14	1	0	7	0	4	0	0	0	0	14	0	0	14	1	2	10	0	4	0	38	1	0
OTU 89	12	0	13	0	43	1	0	0	21	26	0	0	24	4	2	10	4	69	28	0	0	0	7	17	57	14	6	0	1	0	15	2	0	0	0	28	0	3	4	25	0	2	15	5	23	20	1	0	0	5
OTU 90	0	20	0	0	9	3	3	0	0	0	0	0	0	5	0	8	0	3	0	0	0	0	0	0	0	0	0	0	0	0	2	0	1	0	0	0	0	8	0	7	1	0	0	0	5	0	0	1	0	0
OTU 91	0	0	0	0	0	0	0	43	0	0	0	1	0	0	17	0	0	0	0	0	0	0	0	0	4	0	0	0	0	0	46	0	5	0	0	0	0	0	0	0	11	0	0	0	3	0	0	2	4	0
OTU 92	67	7	0	0	124	0	0	20	4	8	1	0	3	9	0	0	0	33	0	0	0	86	2	29	57	17	12	2	0	0	18	0	0	0	0	8	0	0	0	0	0	0	8	0	14	0	16	0	0	4
OTU 93	1	3	0	0	37	0	0	0	0	0	0	0	1	0	0	0	4	0	2	0	0	0	0	0	0	3	102	7	22	0	0	0	0	0	2	0	0	0	34	1	0	0	0	3	6	0	3	0	3	2
OTU 94	29	16	51	21	7	24	3	78	77	22	47	2	5	2	6	19	47	108	54	21	30	27	18	4	93	26	259	2	50	3	86	41	0	1	4	2	18	3	15	8	0	32	0	1	0	56	3	39	145	65
OTU 95	3	10	6	1	0	0	0	623	0	1009	35	7	4	0	0	19	8	9	5	2	0	8	0	1	14	6	0	0	6	0	343	0	0	1	0	5	11	0	33	4	0	1	0	0	11	13	5	7	26	34
OTU 96	0	1	0	5	12	0	0	0	0	14	0	0	0	0	0	0	0	5	0	6	0	0	0	7	0	0	0	0	0	0	0	0	3	0	7	0	0	0	0	0	3	0	3	0	0	0	0	0	0	5
OTU 97	0	4	3	0	0	3	1	0	0	6	0	0	1	8	0	0	5	0	0	299	0	12	2	0	0	0	7	10	0	5	51	35	15	16	0	4	3	9	0	6	21	0	0	36	3	0	0	4	139	0
OTU 98	20	56	16	0	0	6	0	0	65	0	0	0	0	0	0	6	0	0	3	21	3	0	0	27	6	10	7	36	8	16	0	8	1	0	1	98	0	0	12	1	2	34	9	0	159	3	15	0	2	18
OTU 99	161	32	17	28	12	16	6	36	121	71	3	38	96	16	3	33	920	22	48	3	10	3	10	100	129	48	140	13	101	15	87	14	9	7	65	40	385	16	26	53	20	161	41	2	58	68	28	74	7	48
OTU 100	1	67	77	60	20	0	5	2	0	34	2	3	102	11	1	4	2	27	37	11	7	29	5	34	99	70	24	74	1	0	72	2	7	6	2	21	0	25	8	91	20	2	16	12	20	31	0	99	16	570
OTU 101	47	1	1	0	0	0	0	0	3	0	0	0	0	0	0	0	0	5	5	2	0	91	0	0	18	0	0	0	4	1	0	0	0	0	0	0	0	0	0	9	0	0	0	0	0	0	25	2	2	0
OTU 102	0	9	1	13	12	11	10	1	0	7	0	0	99	0	1	0	11	21	0	1	26	0	8	1	0	0	7	0	1	0	11	0	7	14	47	19	0	2	0	0	8	153	0	0	0	0	16	9	43	0
OTU 103	14	182	4	55	0	10	9	61	8	82	19	31	0	1	34	48	0	2909	0	3	10	10	24	10	0	4	62	63	4	0	8	6	5	20	9	10	2	4	4	0	11	13	1	8	2	0	211	91	64	105
OTU 104	1213	91	65	9	151	55	6	28	34	17	35	6	150	192	128	2	5	12	80	7	132	97	55	40	60	71	146	25	22	21	12	89	12	1	102	22	13	1	46	16	22	23	16	1	144	79	48	103	15	3
OTU 105	12	10	0	0	13	0	25	5	0	10	0	6	0	14	0	5	0	64	6	9	0	28	134	19	23	12	158	0	0	0	5	2	0	2	0	42	0	0	0	0	0	1	25	33	10	56	0	0	0	10
OTU 106	0	0	0	70	0	0	0	8	71	1	12	2	2	33	12	2	23	0	7	29	1	2	0	26	6	0	94	2	0	13	4	0	0	1	3	2	0	0	2	0	0	0	4	2	95	2	0	0	0	2
OTU 107	33	2	0	0	1	8	0	1	12	0	3	3	2	0	7	4	1	7	2	0	2	26	8	3	62	12	16	0	5	4	4	0	7	2	24	0	5	11	5	0	8	7	2	3	2	1	0	574	0	10
OTU 108	3	1	9	28	0	0	1	35	19	70	62	4	0	14	4	0	0	123	1	37	13	3	76	11	2	1	8	1	19	1	8	0	0	0	24	5	7	7	12	102	0	37	2	0	123	7	0	21	0	7
OTU 109	0	0	0	0	0	0	0	0	0	0	0	3	0	1	0	0	0	0	0	0	2	0	0	0	0	0	0	0	16	0	0	0	0	0	0	0	0	0	0	0	0	0	0	0	0	0	0	0	0	0
OTU 110	71	0	13	6	10	1	6	40	127	119	0	2	101	2	27	12	1	21	29	13	4	29	0	98	7	1	281	10	2	14	6	11	10	11	137	82	3	3	45	102	13	319	33	4	103	45	1	27	0	73
OTU 111	0	0	0	3	0	0	0	11	0	0	0	0	295	0	2	0	0	0	0	0	0	8	0	4	1	0	26	0	1	0	5	0	0	0	0	0	0	0	0	3	0	2	1	1	18	0	15	1	0	0
OTU 112	48	4	77	34	0	0	0	6	2	0	12	0	79	5	3	5	0	0	505	1	8	62	1	1351	19	4	0	0	18	28	1	49	2	0	0	669	0	0	0	1	1	4	670	39	6	1156	77	0	21	12
OTU 113	0	0	0	2	0	0	0	0	0	0	0	4	0	0	8	0	0	1	0	4	0	0	0	5	1	0	0	0	1	0	0	0	1	0	0	2	0	0	35	0	2	0	2	2	0	0	0	4	0	0
OTU 114	162	34	80	43	113	7	7	104	114	104	30	64	46	50	96	85	26	35	38	8	55	12	135	82	5	3	130	13	53	14	245	36	8	16	59	41	33	4	22	56	6	99	58	4	18	64	0	6	9	7
OTU 115	14	32	89	12	145	5	19	25	16	115	66	217	73	137	128	344	2	39	120	9	132	917	116	42	164	101	30	17	11	11	97	14	8	8	27	18	13	31	123	143	14	31	33	8	240	191	10	104	16	115
OTU 116	6	25	74	1	107	7	18	24	8	57	2	19	11	91	1	59	19	14	79	3	6	61	122	95	14	3	12	23	68	18	102	88	4	5	1	11	14	0	102	45	19	3	34	1	65	120	62	43	120	34
OTU 117	0	0	1	0	0	22	9	13	44	13	0	646	8	25	23	23	8	39	53	62	41	4	27	9	58	55	32	11	11	4	7	3	5	18	14	34	0	8	10	60	12	5	5	4	15	18	14	9	1	22
OTU 118	11	0	41	29	62	1	1	0	0	4	5	2	28	0	0	0	1	2	53	0	0	0	0	159	0	0	2	0	0	0	72	11	9	1	0	38	8	3	0	0	20	9	88	0	12	2	0	0	0	1
OTU 119	90	1	24	0	64	25	7	51	1	62	14	3	206	4	30	37	12	2	2	38	6	11	73	10	6	7	17	0	42	2	2	0	13	16	10	0	596	54	7	24	21	9	7	6	141	28	45	57	22	5
OTU 120	2	16	208	0	0	2	41	47	2	24	2	15	11	0	183	30	0	0	1	43	16	2	0	4	12	18	0	9	1	0	0	8	4	0	24	0	2	2	167	29	8	17	0	1	0	0	1	9	0	15
OTU 121	22	0	0	87	0	11	2	26	0	27	8	27	18	0	0	153	53	4	3	15	2	3	24	5	7	6	36	10	0	3601	19	21	5	0	8	46	13	30	0	12	7	10	9	9	3	23	12	28	0	60
OTU 122	45	7	17	23	8	8	18	10	43	15	115	55	24	1	23	38	7	73	5	6	26	47	118	1	137	114	70	4	0	6	0	9	8	28	5	7	13	43	34	8	16	65	0	9	0	2	48	33	17	36
OTU 123	359	278	168	1398	221	63	33	217	219	460	74	273	84	92	271	643	19	25	82	121	121	17	302	187	232	94	411	98	106	95	209	128	35	57	88	89	39	115	240	55	72	115	108	85	391	90	141	347	140	42
OTU 124	3	0	0	1	6	2	4	0	0	30	2	1	6	8	14	0	0	12	19	0	0	0	0	0	0	2	1	0	8	1	0	0	8	0	3	9	1	4	36	2	11	45	0	1	15	21	69	0	0	19
OTU 125	45	118	9	309	98	18	1	367	90	618	100	14	483	249	195	43	5	65	49	125	76	53	115	170	354	189	233	106	25	72	615	123	0	13	29	125	15	62	150	64	4	42	62	51	275	32	547	59	105	135
OTU 126	0	0	20	0	39	0	0	0	0	0	7	0	0	0	0	0	0	0	14	3	0	2	0	15	0	0	7	3	0	0	6	0	1	0	0	0	0	1	5	0	3	0	3	0	0	4	0	0	0	40
OTU 127	24	28	174	0	24	417	8	4	0	70	4	13	21	3	0	31	10	10	42	17	0	24	26	30	0	0	20	0	52	8	10	68	16	10	0	5	2	5	2	0	37	3	18	38	0	181	3	2	8	0
OTU 128	135	273	74	164	181	97	98	175	1260	133	84	130	147	91	129	327	39	190	106	77	84	24	59	351	370	2601	369	109	609	29	422	21	100	174	176	35	3293	130	77	375	209	152	167	44	198	219	29	166	15	785
OTU 129	0	0	15	0	0	7	0	0	0	0	13	0	0	78	0	4	0	0	0	0	0	32	0	3	0	0	37	0	0	0	0	0	0	3	0	0	0	0	0	0	0	1	4	0	0	0	24	0	104	12
OTU 130	5	9	8	47	1	8	0	9	26	0	19	16	28	54	5	70	4	113	2	11	11	0	7	0	0	3	62	5	2	11	47	0	0	4	37	0	1	2	2	3	0	135	0	0	71	34	5	11	63	31
OTU 131	0	6	51	34	11	0	4	36	3	161	74	0	49	91	96	0	77	43	31	18	44	31	305	0	4	0	46	68	69	22	100	16	1	4	0	5	59	26	110	34	1	192	0	1	4	36	23	417	0	1
OTU 132	56	24	1	0	15	0	9	6	52	0	14	1	36	0	15	4	6	5	16	12	0	3	32	0	8	0	0	0	0	0	0	0	0	0	12	10	4	37	0	1	0	34	6	0	15	9	37	4	10	2
OTU 133	0	0	0	1	14	0	0	1	0	0	0	0	0	5	0	0	0	296	6	0	0	0	0	6	0	0	8	0	4	0	0	1	0	0	9	0	0	7	0	0	0	3	11	5	8	21	0	0	0	16
OTU 134	170	8	1	26	19	72	104	17	4	29	30	5	6	110	103	2	11	31	7	3	1	10	31	97	21	23	65	11	18	13	1441	24	83	92	14	34	6	141	21	5	177	0	25	4	16	23	100	3	5	21
OTU 135	33	13	28	122	38	53	0	0	33	80	3	474	1	9	14	584	28	4	3	12	1	2	10	167	0	0	166	38	44	0	6	64	10	17	27	26	10	31	10	1	26	48	67	25	85	1	86	28	32	0
OTU 136	36	42	38	1	8	4	0	0	7	4	116	5	4	34	48	0	0	0	0	24	6	111	19	30	4	15	9	0	13	13	64	4	0	4	263	10	0	49	65	24	0	529	28	40	4	2	2	55	0	4
OTU 137	75	0	3	0	8	0	0	9	5	0	3	0	6	0	0	0	0	2	2	0	0	0	6	0	48	30	13	0	2	0	0	0	0	0	0	0	9	3	1	0	0	1	0	0	0	0	0	32	61	0
OTU 138	0	0	8	62	1	52	1	247	8	438	116	1	0	30	23	0	16	1	0	0	1	13	0	0	0	0	0	0	0	0	14	0	0	4	0	27	8	0	0	0	7	6	1	0	42	0	235	14	0	2
OTU 139	160	58	16	38	167	24	77	54	24	296	46	45	19	19	96	161	59	73	35	38	101	14	101	158	219	105	128	46	38	10	36	35	20	34	98	403	57	54	89	9	41	150	110	53	27	30	7	95	129	14
OTU 140	261	24	106	38	39	77	131	41	58	73	55	47	15	150	34	65	44	13	41	31	141	80	206	342	8	31	102	276	46	53	758	17	28	12	81	129	22	40	19	201	49	91	170	20	503	35	111	253	95	121
OTU 141	0	0	0	0	0	0	0	49	0	11	0	0	0	0	0	0	0	0	0	0	0	0	0	0	0	0	0	2	0	0	0	0	0	0	0	0	0	0	0	0	0	0	0	0	0	0	0	0	0	0
OTU 142	0	0	0	0	26	0	0	3	0	0	0	0	0	56	0	0	0	0	2	0	0	7	4	0	7	1	31	3	4	0	0	0	0	0	0	0	0	0	1	0	0	0	0	0	0	0	0	0	25	1
OTU 143	0	5	0	3	6	0	0	8	3	8	0	10	2	0	0	34	722	5	4	0	0	0	4	5	0	4	0	0	0	3	0	0	0	0	0	0	479	0	3	0	0	0	0	0	4	7	0	0	0	0
OTU 144	26	2	36	0	16	0	0	62	1	94	0	12	2	0	0	4	0	0	25	0	1	3	7	0	5	0	0	0	0	2	0	0	0	0	7	0	1	0	0	2	2	1	0	5	0	0	0	0	1	57
OTU 145	13	37	1	16	121	5	4	16	81	15	15	95	1	63	41	113	21	2	9	5	42	3	19	49	70	36	25	51	295	2	44	25	0	0	2	35	11	2	4	2371	1	32	18	1	76	4	99	115	71	55
OTU 146	0	13	9	110	17	3	9	9	0	4	47	1	156	24	5	12	3	49	10	7	2	12	148	174	181	82	108	0	26	47	17	110	2	13	1666	71	20	14	2	7	10	9	56	23	13	23	27	29	51	34
OTU 147	17	0	0	11	0	0	9	0	0	7	58	6	44	28	118	8	0	42	0	0	4	4	0	4	51	31	2	2	0	0	1	0	0	2	36	3	0	1	17	11	2	18	5	8	7	0	2	0	53	0
OTU 148	26	43	11	1095	1	5	1	25	21	28	5	6	63	0	172	38	10	22	1	68	472	4	21	21	66	20	165	1	79	12	31	0	0	2	25	8	12	5	2	711	0	4	10	0	0	4	12	501	26	203
OTU 149	2	0	0	0	0	0	12	3	1	42	0	1	225	9	3	3	0	8	17	0	4	30	2	78	7	0	0	29	0	4	14	10	7	22	7	1	0	28	0	0	22	3	39	7	0	52	1	0	2	70
OTU 150	5	1	23	0	0	0	14	1	12	0	0	0	16	0	0	0	0	0	0	8	2	0	54	31	0	0	0	17	1	0	0	0	5	0	36	0	6	22	57	4	8	9	13	2	187	0	0	0	1	0
OTU 151	8	1	0	0	1140	2	2	9	985	0	6	542	85	36	19	0	747	61	12	1	1	7	0	15	69	43	10	34	4	1	0	8	1	15	1	1	230	13	9	30	3	7	2	14	4	54	0	97	0	0
OTU 152	38	20	12	0	25	13	0	57	11	60	76	0	7	1700	93	9	2	22	6	48	1474	818	109	58	258	173	38	0	28	5	134	3	16	12	458	79	22	38	60	0	16	806	49	6	160	5	30	32	5	2
OTU 153	0	0	0	0	0	1	0	4	2	1	0	0	0	0	0	0	0	0	0	0	0	0	6	2	0	0	0	0	0	9	0	76	0	0	0	0	0	0	0	0	0	5	0	5	0	9	0	0	0	0
OTU 154	1	2	0	0	0	0	3	44	0	54	0	0	5	0	0	6	1	1	0	0	0	0	2	0	3	0	0	0	0	0	1	0	0	0	2	0	4	0	8	0	0	0	0	1	0	5	0	0	7	0
OTU 155	0	26	48	2	20	0	0	8	0	36	6	5	3	0	67	57	0	0	7	0	6	15	4	16	3	3	1	7	2	0	46	0	1	2	962	42	0	6	0	11	2	1585	15	0	4	4	1	30	114	10
OTU 156	57	13	38	50	29	9	3	64	52	187	23	39	181	74	27	81	20	25	9	10	0	31	93	96	54	22	41	2	7	0	186	16	6	15	3	37	17	9	37	19	13	30	51	1	33	16	9	2	15	2
OTU 157	2	61	1	0	0	27	27	4	0	0	0	1	0	0	1	3	0	0	0	12	0	31	56	5	4	0	2	23	0	5	0	35	36	14	0	1	8	57	21	1	92	0	0	14	1	0	0	0	127	0
OTU 158	0	5	0	0	0	0	0	0	0	0	0	0	6	0	0	3	0	0	0	0	0	0	0	0	0	0	0	0	2	0	0	0	0	3	29	0	0	0	0	0	0	5	0	0	78	0	0	14	0	0
OTU 159	19	66	46	21	8	2	0	3	34	6	0	21	58	1	1	48	10	9	2	25	1	2	5	0	17	18	38	0	0	5	43	6	2	5	48	5	19	0	28	3	3	2	0	22	0	0	6	893	9	0
OTU 160	251	45	30	9	164	130	85	47	184	59	71	136	96	14	103	372	21	162	1	51	202	44	52	103	249	59	87	145	114	11	8	7	90	63	8	16	31	44	125	811	156	91	51	12	20	20	43	314	231	88
OTU 161	20	164	5	51	11	118	69	12	2	50	23	6	7	9	2	3	5	12	0	101	1455	82	52	37	4	2	2	2	9	0	35	29	60	61	9	51	10	17	3	2	130	49	19	10	3	2	8	144	79	180
OTU 162	101	13	9	856	11	39	45	8	183	64	440	7	9	49	1	41	11	13	1	1	52	0	78	51	87	80	30	11	0	51	9	36	65	67	84	26	2	0	27	29	124	47	23	30	1	5	16	0	74	27
OTU 163	0	11	0	0	1549	0	0	0	0	0	0	12	0	0	0	46	0	0	0	0	0	0	0	1	0	0	0	0	0	0	0	0	0	0	0	0	0	0	0	1	0	0	0	3	0	0	0	0	0	0
OTU 164	0	0	0	0	0	0	0	0	0	0	1	29	0	25	0	119	0	1	0	0	0	0	0	0	15	1	0	0	0	0	0	0	0	1	0	0	0	0	0	0	0	0	0	0	0	0	0	0	0	0
OTU 165	5	0	13	0	0	5	1	87	107	164	19	2	0	22	0	0	0	10	4	24	0	0	1	1	4	1	11	47	4	16	0	1	0	1	31	0	1	28	0	38	0	0	1	0	2	2	0	20	66	4
OTU 166	256	0	0	0	0	8	0	0	0	0	1	0	0	0	0	0	2	0	6	0	0	4	2	0	0	0	0	0	0	0	0	0	0	0	0	0	0	0	15	0	0	0	0	0	0	0	0	0	0	0
OTU 167	47	39	2	0	42	1	0	2	10	26	9	12	106	43	2	0	66	0	4	40	0	121	110	0	0	0	28	14	68	0	0	0	0	0	0	0	11	0	59	0	1	0	3	1	0	7	0	6	2	10
OTU 168	167	1	0	0	9	0	4	29	61	0	6	36	49	6	21	50	14	48	2	0	3	2	15	0	11	23	4	15	20	8	1	12	0	0	39	8	1	11	6	93	0	0	1	6	120	2	52	2	3	43
OTU 169	0	0	0	0	0	0	0	0	12	0	0	33	0	0	2	46	0	0	0	0	0	0	0	0	0	0	0	0	0	0	4	0	0	0	0	0	5	6	13	0	0	0	0	0	0	1	55	0	0	0
OTU 170	3	0	0	0	177	0	0	0	0	0	0	0	0	0	0	0	3	0	0	0	0	0	2	1	0	0	0	0	0	0	0	0	0	0	0	1	0	0	0	0	0	71	0	0	1	0	0	0	0	0
OTU 171	1	3	23	0	22	2	6	8	35	14	1	0	5	0	4	33	0	0	18	6	0	18	16	6	2	0	61	7	62	7	1	15	4	0	2	50	8	13	32	8	15	7	1	0	42	24	87	56	15	5
OTU 172	0	0	0	1	0	6	0	0	26	2	0	0	3	0	1	0	1	128	27	8	0	0	63	18	8	0	158	1	0	18	0	0	0	0	0	25	0	0	148	1	0	1	3	0	2	72	6	4	1	0
OTU 173	13	3	53	0	12	0	3	3	34	18	4	11	14	52	48	10	0	7	13	3	17	0	46	0	2	0	25	1	0	0	0	0	5	1	0	0	0	9	0	0	8	4	0	1	26	33	12	11	26	0
OTU 174	0	2	2	32	5	0	0	1	24	0	11	0	38	1	2	2	785	0	5	0	3	2	200	1	424	299	25	1	31	16	14	12	0	0	0	17	407	1524	20	1	0	21	0	1	0	27	138	436	21	28
OTU 175	45	42	0	9	2	1	7	0	59	7	0	31	15	5	8	56	0	3	9	8	8	1	0	48	0	0	9	22	21	4	49	6	1	0	23	10	2	7	1	1	2	0	19	0	17	0	6	2	5	17
OTU 176	1	82	75	17	83	105	32	1	23	3	9	26	71	29	113	107	35	1	37	67	5	21	24	19	313	131	182	11	63	771	15	1449	32	17	24	4	5	4	14	14	61	90	15	764	64	100	61	69	2	3
OTU 177	150	97	61	36	169	0	4	3	30	69	2413	67	30	37	173	126	9	39	2	153	5	40	20	3	53	118	46	10	7	28	8	22	0	0	67	29	0	12	7	24	1	2	0	0	55	18	21	27	406	30
OTU 178	33	2	6	2	3	0	0	0	0	5	21	1	0	23	7	11	0	4	6	12	2	0	15	0	150	32	1	1	15	1	20	37	0	0	0	6	3	0	0	0	0	18	2	4458	135	34	6	7	64	18
OTU 179	1	6	13	0	26	4	0	12	0	59	3	14	14	47	11	55	18	57	6	25	8	19	0	1	5	3	0	0	20	73	1	2	0	0	17	12	5	15	0	6	0	3	4	4	0	31	0	12	11	40
OTU 180	164	81	52	160	71	48	56	178	244	363	161	184	132	128	84	210	23	156	8	16	47	39	117	58	101	48	135	281	6	29	74	48	4051	62	75	53	84	59	66	75	87	55	56	30	142	11	289	168	46	98
OTU 181	0	30	4	19	3	3557	4	51	27	121	5	0	15	1	16	2	7	35	14	5	19	2	3	57	9	13	22	26	5	5	8	9	2	1	13	7	1	2	25	684	2	24	29	10	143	10	19	0	10	7
OTU 182	0	0	0	0	0	0	0	0	0	0	0	0	0	0	0	0	0	0	0	0	0	0	0	20	15	7	0	0	0	0	0	1	0	2	0	0	0	0	0	0	0	0	28	0	0	0	0	0	0	0
OTU 183	0	137	38	7	64	2	2	81	0	207	0	2	26	0	2	33	11	6	6	4	29	3	0	6	83	45	347	4	0	2	156	0	1	0	32	0	2	8	2	0	12	105	2	18	3	12	3	200	1	53
OTU 184	0	16	64	0	0	15	4	0	0	0	28	1	0	118	0	0	0	3	0	6	15	1	13	33	46	17	17	1	0	330	26	538	1	0	19	0	5	0	4	0	5	3	9	265	8	15	17	3	0	55
OTU 185	0	127	5	589	33	10	4	2	479	58	28	19	104	672	0	98	17	475	37	5	194	241	8	10	69	32	22	94	1	5	2	24	2	12	194	44	6	23	22	12	5	623	1	0	31	62	39	94	1	36
OTU 186	0	0	0	1	20	0	0	2	36	15	3	628	1	0	0	1065	0	0	19	0	27	0	5	12	18	17	8	8	3	1	0	0	1	3	1	2	7	3	0	5	1	0	7	5	8	30	6	21	0	0
OTU 187	39	67	36	2	31	31	25	61	1	174	10	8	81	74	62	27	19	13	11	26	5	44	17	47	60	42	22	116	23	5	11	19	46	51	32	2390	14	68	4	134	82	17	26	5	134	79	169	17	66	150
OTU 188	152	136	7	27	28	30	4	28	37	3	306	47	331	53	3	126	18	105	47	14	1	1	11	37	70	968	17	58	84	28	10	45	185	3664	35	28	40	0	6	13	1	16	19	34	100	111	6	74	0	1932
OTU 189	3	34	20	17	48	47	6	6	52	7	54	12	111	158	25	27	8	80	15	10	76	74	22	62	40	30	30	16	73	11	25	45	9	17	3	42	18	0	20	65	25	18	44	13	8	29	73	61	215	3
OTU 190	0	0	0	0	0	0	0	0	0	0	6	0	451	0	3	1	2	0	0	0	0	0	0	21	0	0	4	75	142	0	0	0	0	4	0	5	0	0	1	6	0	0	9	0	0	6	1	124	8	0
OTU 191	109	43	1	21	14	5	1	248	39	75	387	2	29	66	141	26	10	22	4	1	73	60	105	41	18	13	31	7	2	2	42	5	1	6	35	50	2	17	397	8	3	7	27	16	285	6	527	9	45	20
OTU 192	101	83	3	10	62	13	14	30	25	22	108	332	89	5	57	487	109	85	49	97	13	9	317	132	35	22	36	13	0	898	44	2085	32	530	18	36	80	107	144	62	40	9	48	1004	59	121	88	22	12	215
OTU 193	0	14	47	29	6	3	7	8	170	31	14	4	20	9	1	21	9	26	33	0	14	20	12	21	123	25	99	0	73	0	3	1	12	9	0	18	9	21	52	5	22	25	3	46	34	22	24	15	3	46
OTU 194	140	38	14	0	57	3	27	3	13	0	0	2	7	0	36	18	0	0	14	0	0	44	0	31	29	5	96	12	11	0	10	103	10	12	49	4	0	2	1	19	17	3	22	21	0	8	0	0	7	4
OTU 195	129	0	30	10	113	29	9	0	0	17	18	3	10	28	22	1	0	0	45	0	24	40	11	46	38	2	83	5	8	35	22	0	0	0	7	21	0	14	51	0	1	61	5	34	88	33	267	42	50	25
OTU 196	132	0	82	1	81	0	7	11	154	29	2	0	260	22	7	2	1062	53	14	12	42	4	128	4	59	8	4	77	41	2	11	1	10	1	0	0	657	33	51	6	17	71	1	9	133	41	37	151	10	4
OTU 197	477	33	44	6	52	73	56	63	39	29	27	77	46	32	27	110	14	24	28	26	29	17	32	36	30	6	146	73	38	34	17	19	63	107	0	33	58	41	31	26	111	61	21	23	97	87	47	1	92	8
OTU 198	24	0	2	0	121	4	0	0	24	16	14	3	4	0	0	2	14	0	12	0	0	0	14	0	103	38	0	73	1	0	0	0	58	2	1	0	1	6	1	94	1	10	0	0	15	9	1	4	0	0
OTU 199	0	0	4	3	4	1	0	19	68	21	0	27	21	0	2	73	24	22	0	60	0	3	55	0	73	80	15	49	48	21	2	0	0	0	0	7	0	34	5	16	0	15	0	0	17	15	111	1	5	5
OTU 200	13	196	8	15	5	4	5	10	4	2	73	0	4	199	13	2	6	45	14	1	2	51	69	2	60	35	34	2	60	59	28	73	2	1	321	31	13	48	22	0	3	7	4	8	34	19	2	52	1	252
