	Host 1	Host 2	Host 3	Host 4	Host 5	Host 6	Host 7	Host 8	Host 9	Host 10	Host 11	Host 12	Host 13	Host 14	Host 15	Host 16	Host 17	Host 18	Host 19	Host 20	Host 21	Host 22	Host 23	Host 24	Host 25	Host 26	Host 27	Host 28	Host 29	Host 30	Host 31	Host 32	Host 33	Host 34	Host 35	Host 36	Host 37	Host 38	Host 39	Host 40	Host 41	Host 42	Host 43	Host 44	Host 45	Host 46	Host 47	Host 48	Host 49	Host 50	
OTU 1	0	2	14	1	1	3	0	4	5	2	0	4	4	0	1	2	2	0	0	0	0	0	0	5	0	1	5	2	0	0	0	0	1	1	10	4	1	3	1	5	1	2	0	0	0	1	4	0	0	1
OTU 2	0	0	0	1	0	0	0	0	0	0	0	1	0	0	0	0	0	2	5	0	0	0	0	0	0	0	0	0	0	0	4	0	0	0	0	0	0	0	2	0	0	0	0	0	0	0	0	0	0	0
OTU 3	0	1	0	0	0	0	0	0	8	0	0	18	0	0	0	1	2	0	0	5	0	0	0	0	0	1	0	0	0	0	0	0	3	3	0	0	4	0	0	1	0	0	0	1	0	0	0	0	0	0
OTU 4	0	0	0	0	0	0	0	0	0	0	0	0	0	0	0	0	0	0	0	0	0	0	0	0	0	0	0	0	0	0	0	0	0	0	1	0	0	0	0	0	0	0	0	0	0	0	0	0	0	0
OTU 5	1	0	0	5	1	45	3	8	0	32	2	18	4	53	17	16	17	0	11	16	43	3	35	3	5	5	35	18	59	15	10	1	0	5	0	8	0	12	0	45	0	0	44	9	9	0	6	0	9	14
OTU 6	0	2	2	0	0	1	0	4	0	2	0	3	1	0	2	2	0	0	0	1	0	0	1	0	1	1	1	1	0	1	2	2	0	0	2	0	1	0	0	4	0	2	1	2	3	0	2	0	0	0
OTU 7	2	0	18	0	1	2	2	4	11	1	5	3	3	9	12	5	7	10	0	0	1	1	3	1	4	1	3	1	4	0	11	0	1	5	3	1	2	2	3	1	0	2	0	2	0	32	15	2	0	2
OTU 8	1	1	5	7	1	7	15	2	3	7	6	2	1	0	2	1	5	3	2	2	3	3	1	0	5	1	0	33	17	3	28	4	0	1	0	2	0	1	1	16	0	1	10	4	4	1	52	1	2	1
OTU 9	0	1	2	1	0	0	118	5	0	0	0	1	1	0	4	1	0	0	0	0	0	4	0	26	0	0	4	2	3	0	0	2	0	0	0	2	0	0	2	0	2	2	0	0	0	18	2	2	1	1
OTU 10	1	0	2	1	0	1	0	0	0	0	0	0	0	0	3	2	0	0	0	0	0	0	0	3	0	2	6	0	0	0	0	0	2	0	0	0	0	3	0	2	1	0	0	0	0	0	0	4	0	1
OTU 11	6	1	10	0	9	2	6	3	1	3	0	2	1	8	9	0	2	13	1	0	0	2	3	15	1	2	5	2	0	0	2	0	4	2	5	4	0	2	0	3	3	11	3	0	6	1	0	5	3	1
OTU 12	6	1	2	5	0	1	1	1	6	0	3	2	0	4	1	3	4	4	10	0	0	3	0	0	0	0	3	1	1	3	1	4	1	1	0	1	0	0	1	3	2	0	1	1	1	5	5	1	0	2
OTU 13	0	0	0	0	0	0	0	0	0	0	0	0	0	0	0	0	0	0	0	0	0	0	0	0	1	0	0	0	0	0	0	0	0	0	0	0	0	0	0	0	0	0	0	0	0	0	0	0	0	0
OTU 14	0	0	0	0	0	0	0	0	0	0	0	2	0	0	0	0	0	0	0	6	0	0	0	1	0	0	0	2	0	0	7	0	2	0	0	0	0	0	0	0	0	0	0	0	0	0	0	0	0	2
OTU 15	0	0	0	0	0	0	0	0	0	0	0	0	0	0	0	0	0	0	0	10	0	0	0	0	0	1	0	0	0	0	0	0	0	0	0	0	0	0	0	0	0	0	0	0	0	0	0	0	0	0
OTU 16	0	0	0	0	0	0	0	0	0	0	0	0	0	0	0	0	0	0	0	0	0	0	0	0	0	0	0	0	0	0	0	0	0	0	0	0	0	0	0	0	0	0	0	0	0	0	0	0	0	0
OTU 17	0	0	0	1	14	7	0	1	0	1	3	0	0	0	0	2	0	1	5	5	0	0	3	13	0	4	0	0	2	0	1	1	4	3	28	1	0	6	0	0	9	2	0	2	24	0	2	0	0	0
OTU 18	1	4	2	11	3	1	0	7	3	1	0	3	0	1	0	1	0	1	1	0	0	2	3	2	0	2	0	3	1	0	1	0	1	0	6	0	0	8	1	0	6	2	0	4	4	7	1	3	0	0
OTU 19	0	0	0	0	0	2	0	0	0	0	0	0	0	0	0	0	0	0	0	0	0	0	0	0	0	0	0	0	0	0	0	0	0	0	0	0	0	0	0	0	0	0	0	0	0	0	0	0	0	0
OTU 20	0	1	7	0	1	3	0	4	3	0	0	6	0	21	2	2	0	10	0	9	0	11	1	5	2	0	1	1	1	3	5	1	0	4	7	0	1	1	2	0	5	2	0	3	2	0	1	0	0	2
OTU 21	3	0	5	2	1	0	0	2	0	0	0	3	76	0	0	11	3	2	0	0	0	0	1	0	0	141	2	0	0	0	2	8	1	14	2	3	0	0	1	2	1	4	0	3	0	2	1	1	0	8
OTU 22	1	3	4	4	1	0	0	5	8	0	0	5	3	0	2	0	1	0	0	1	0	1	0	5	0	0	1	1	1	2	1	2	0	0	7	1	1	3	1	0	0	5	1	0	4	3	0	0	0	3
OTU 23	1	0	0	0	0	0	0	1	3	3	1	0	0	0	0	25	0	1	1	0	57	0	2	0	0	9	0	0	0	161	0	0	0	18	0	0	0	0	0	9	0	1	7	3	0	0	0	0	0	0
OTU 24	3	1	1	0	0	0	0	0	0	0	0	6	0	0	0	0	0	1	0	0	0	1	1	0	0	0	0	0	0	0	0	1	1	0	0	0	0	1	0	2	1	0	0	1	0	0	0	1	0	0
OTU 25	0	15	0	0	0	0	3	0	0	0	0	0	0	0	0	0	0	0	0	0	0	0	0	0	0	0	0	0	0	0	0	0	0	0	0	0	3	0	0	0	0	0	0	2	0	0	0	0	1	0
OTU 26	1	0	0	0	0	1	0	0	0	1	0	1	0	0	1	2	0	0	0	0	1	0	0	0	0	0	2	0	1	0	0	0	0	0	0	0	0	0	5	0	0	0	0	0	0	0	2	0	0	0
OTU 27	0	0	0	0	0	0	0	0	0	0	0	0	0	0	0	0	0	0	0	0	0	0	0	0	0	0	0	0	0	0	0	0	0	0	0	0	0	0	0	0	6	0	0	0	0	0	0	0	0	0
OTU 28	6	3	57	2	7	4	0	1	16	72	4	1	59	0	20	2	7	4	1	7	3	3	1	6	2	0	35	0	0	1	0	0	2	0	9	0	0	5	0	1	0	4	1	8	5	97	38	0	1	0
OTU 29	5	5	0	1	1	0	1	0	0	0	0	1	1	0	1	3	0	0	0	5	0	9	0	3	0	2	0	1	0	0	0	1	7	0	0	2	3	2	1	2	3	7	1	1	0	0	2	0	1	1
OTU 30	0	0	0	0	0	0	0	0	0	0	0	0	0	0	0	0	0	1	0	0	0	0	0	0	0	0	0	0	0	0	0	0	0	0	0	0	0	0	0	0	0	0	0	0	0	0	0	0	0	0
OTU 31	4	3	0	0	0	0	0	0	0	0	0	20	1	0	0	4	0	2	0	2	79	0	1	0	75	0	0	0	30	0	0	0	0	1	1	1	0	0	0	0	3	1	0	0	0	0	0	0	0	1
OTU 32	2	0	0	0	0	2	0	0	8	0	6	0	0	0	2	3	1	2	0	0	1	1	9	1	3	5	0	0	0	1	0	1	8	0	1	1	0	0	4	0	0	5	2	1	1	3	0	2	0	1
OTU 33	0	0	0	0	0	0	0	0	0	0	0	0	0	0	0	0	0	0	0	0	0	0	0	0	0	0	0	0	0	0	0	0	0	0	0	0	0	0	0	0	0	0	0	0	0	0	0	0	0	0
OTU 34	7	5	0	4	0	0	3	2	5	1	1	0	0	5	0	1	1	13	0	0	0	0	1	0	1	0	1	3	0	0	2	3	1	2	0	1	2	0	0	1	2	2	1	0	5	1	0	0	0	0
OTU 35	1	0	0	4	0	1	0	1	1	0	1	3	0	0	2	0	0	0	0	2	2	2	0	0	2	0	0	0	3	0	2	3	0	1	2	0	3	0	1	0	1	2	0	0	0	0	3	1	3	0
OTU 36	2	7	1	1	0	0	3	0	0	0	0	1	0	0	0	1	6	0	3	0	1	0	1	0	1	1	0	1	0	0	27	3	0	0	0	0	3	2	0	0	0	2	1	0	0	0	3	0	0	0
OTU 37	0	1	0	0	1	0	6	0	3	0	0	0	1	0	0	0	0	0	0	0	0	0	0	1	1	4	0	0	0	0	0	0	0	0	1	2	0	0	0	0	0	8	0	0	1	0	0	0	0	0
OTU 38	3	1	0	0	2	3	1	0	0	47	0	0	0	2	1	2	1	2	0	3	0	0	0	7	0	0	1	0	0	0	2	2	6	3	7	0	1	5	0	70	1	5	40	4	14	0	0	5	0	0
OTU 39	0	4	1	0	2	0	0	0	0	0	1	0	0	0	2	0	0	0	0	1	0	0	0	0	0	0	0	0	0	0	0	5	0	0	0	0	3	0	0	0	0	0	0	0	0	0	0	0	0	0
OTU 40	20	0	0	10	2	3	3	2	0	1	0	2	0	5	0	4	0	3	2	1	0	0	0	0	0	0	0	3	1	0	0	0	0	3	0	2	0	0	0	0	0	1	0	1	0	0	0	1	0	0
OTU 41	0	4	0	1	1	1	23	1	0	0	1	0	0	0	0	0	0	1	0	0	1	1	2	8	0	1	0	0	1	0	0	0	0	0	2	2	4	1	7	0	0	0	0	9	4	0	3	1	0	0
OTU 42	1	0	0	0	1	0	0	0	1	0	1	0	0	0	0	1	0	0	0	6	0	0	0	4	0	0	0	0	1	0	1	0	0	0	0	0	0	0	2	0	0	0	0	0	0	0	0	0	2	0
OTU 43	0	0	4	0	0	0	0	0	0	0	2	0	0	0	2	0	0	0	0	0	0	0	0	0	0	0	0	0	0	0	0	0	0	0	0	0	0	0	0	0	0	0	0	0	0	0	0	0	0	0
OTU 44	0	0	0	0	0	0	0	0	0	0	0	0	0	1	0	0	1	4	0	1	1	0	0	0	0	0	0	0	0	2	6	0	1	0	0	0	0	0	0	0	0	0	0	0	2	0	0	0	1	0
OTU 45	9	3	0	1	1	0	3	1	2	0	13	4	0	9	2	0	4	1	5	0	2	4	2	2	6	0	1	5	1	4	3	9	3	3	9	2	2	1	1	1	9	3	3	1	4	1	1	0	4	2
OTU 46	3	0	0	4	0	33	1	1	1	0	0	2	0	6	0	5	2	5	6	2	3	4	0	2	4	0	0	0	2	2	2	2	36	0	3	0	0	1	1	1	1	0	0	1	1	2	1	0	0	1
OTU 47	13	0	0	1	0	0	0	0	0	0	0	0	0	0	0	0	0	0	0	0	0	0	0	1	0	1	0	0	0	0	0	0	0	0	4	0	0	0	0	0	0	0	0	0	0	1	2	0	0	0
OTU 48	0	4	0	0	0	3	2	3	3	0	0	0	5	1	1	5	5	0	7	3	2	6	2	0	0	2	44	0	3	0	5	1	2	0	0	2	2	0	2	0	1	0	1	2	4	0	0	165	0	0
OTU 49	0	2	4	0	0	0	0	0	0	0	0	0	0	0	0	0	0	0	0	2	0	1	1	1	0	0	0	4	0	0	0	1	1	0	0	0	1	1	2	0	0	3	0	1	1	0	0	0	0	0
OTU 50	3	1	0	6	1	3	0	13	1	16	4	1	4	2	125	3	1	2	0	1	0	0	0	0	0	0	0	1	0	2	1	1	1	0	0	0	0	0	3	2	8	8	1	2	5	1	5	1	1	5
OTU 51	0	0	0	3	2	4	0	2	0	3	0	0	0	0	0	0	0	0	0	0	0	0	0	0	3	0	0	0	0	0	0	5	1	0	2	1	0	3	0	5	0	3	1	0	0	0	0	0	10	0
OTU 52	6	2	0	0	1	3	1	4	8	4	6	9	0	4	0	0	0	10	0	1	7	4	2	2	2	0	0	2	24	5	2	5	3	0	2	1	0	0	19	3	1	0	0	0	0	0	0	8	6	2
OTU 53	0	0	0	0	0	0	0	0	0	0	2	0	0	0	0	0	0	0	0	0	0	0	0	0	0	0	0	0	0	0	0	0	0	0	0	0	0	0	0	0	0	0	0	0	0	0	0	0	0	0
OTU 54	10	3	1	3	0	1	2	0	2	0	7	9	0	1	3	4	7	3	3	2	0	6	0	0	5	7	1	1	2	1	5	0	0	0	3	1	0	1	0	1	7	1	0	0	0	1	1	0	2	0
OTU 55	0	0	0	0	0	0	0	0	0	0	0	0	0	0	0	0	0	0	0	0	0	0	0	0	4	0	0	0	0	0	0	0	0	0	0	0	0	0	0	0	0	0	0	0	0	0	0	0	0	0
OTU 56	0	2	0	0	0	0	0	0	0	0	0	1	0	0	0	1	1	0	0	0	0	0	1	2	1	1	1	0	1	0	3	2	2	0	0	0	1	0	0	2	0	2	0	0	0	0	1	0	8	1
OTU 57	7	8	3	3	12	56	1	4	4	0	5	13	2	4	1	2	0	6	1	4	0	4	11	13	14	1	1	11	3	1	51	1	14	2	15	8	3	8	0	2	11	3	95	2	7	8	8	0	1	2
OTU 58	1	0	6	1	0	0	4	0	0	0	0	1	0	0	1	0	2	0	2	0	0	0	0	0	0	0	3	1	0	0	1	1	1	0	0	0	2	0	0	0	0	0	0	2	1	6	2	0	1	1
OTU 59	0	1	0	1	1	0	0	0	2	2	5	0	2	0	0	0	14	2	0	11	1	1	3	4	0	0	0	0	0	5	1	0	1	0	2	0	3	0	1	2	3	1	3	1	3	0	0	0	1	0
OTU 60	1	1	72	6	1	0	1	6	0	4	2	1	0	0	24	2	1	3	3	8	3	23	1	0	32	0	27	4	24	1	0	4	2	1	9	0	1	2	0	2	68	1	2	7	2	3	12	2	4	8
OTU 61	16	12	0	0	27	0	6	4	3	0	6	1	0	1	0	1	0	0	0	9	0	5	0	0	5	0	0	0	5	2	1	0	0	0	0	2	3	0	0	1	2	1	0	8	1	2	2	0	1	1
OTU 62	0	0	0	0	0	0	3	0	3	0	1	0	0	0	1	0	0	0	0	0	1	0	1	0	0	0	0	0	0	1	0	0	0	1	0	0	1	0	0	0	1	0	0	0	0	0	0	0	0	0
OTU 63	8	2	0	24	1	1	0	0	0	1	9	0	1	4	0	37	2	2	1	0	2	0	2	0	1	9	0	0	0	1	0	49	0	28	7	7	0	6	0	0	0	0	0	0	0	1	0	0	1	0
OTU 64	2	0	0	0	1	0	0	6	5	3	43	3	0	0	0	0	1	7	0	3	0	0	1	7	1	1	1	1	2	2	1	7	0	0	0	2	0	0	0	2	2	0	0	1	3	5	3	1	3	2
OTU 65	0	0	0	0	0	0	0	0	0	0	0	0	0	0	0	0	0	0	0	0	0	0	0	0	0	0	0	0	0	0	0	0	0	0	1	0	0	0	0	0	0	1	0	0	0	0	0	0	0	0
OTU 66	0	4	0	1	2	1	1	0	23	2	0	6	0	2	0	1	16	3	0	3	4	0	0	1	0	0	0	0	2	20	0	0	0	0	0	0	0	1	0	1	0	5	0	3	4	0	1	0	0	0
OTU 67	1	3	0	0	0	0	0	0	0	0	0	1	0	0	0	1	2	2	3	15	0	2	0	1	0	0	0	0	6	0	0	8	0	0	0	0	0	0	4	1	1	1	0	6	13	2	0	1	0	0
OTU 68	0	1	0	2	45	0	1	5	6	0	1	0	0	0	0	2	2	0	0	0	1	0	0	1	6	0	0	1	2	1	3	0	0	5	0	0	1	0	0	0	3	1	0	0	1	7	2	0	0	2
OTU 69	2	2	1	1	3	3	2	6	0	0	0	2	2	0	0	1	1	3	3	0	1	0	5	1	0	3	0	4	1	0	0	0	0	0	1	1	1	3	3	3	1	1	1	1	1	3	1	1	0	1
OTU 70	2	0	0	0	0	0	1	6	3	0	1	1	0	1	0	0	0	1	1	0	0	1	0	0	2	0	0	0	0	2	1	0	2	1	0	0	1	1	0	0	0	0	1	0	0	2	1	0	0	6
OTU 71	3	0	0	0	0	0	0	0	1	0	0	0	0	0	0	0	0	0	2	4	0	0	0	1	1	0	0	0	1	0	0	1	1	0	1	0	0	0	0	0	1	0	0	0	0	0	0	0	0	0
OTU 72	2	0	1	0	0	35	3	2	2	0	2	3	0	2	0	10	8	5	2	6	0	0	0	4	2	0	0	1	1	4	0	1	4	1	1	3	0	0	0	1	2	0	0	1	2	0	1	0	0	1
OTU 73	0	2	3	1	1	3	0	0	1	0	0	0	0	0	1	9	1	0	101	2	0	4	1	5	1	4	0	1	2	1	0	1	2	4	1	1	0	3	0	1	7	1	0	0	6	0	0	6	1	0
OTU 74	1	2	0	0	0	1	4	3	0	3	1	2	4	27	0	3	1	10	1	0	0	0	0	0	0	5	0	2	0	0	1	0	0	1	0	5	1	0	0	0	0	0	0	1	0	2	2	0	0	1
OTU 75	0	0	1	119	1	2	1	0	1	6	7	6	2	1	0	4	3	6	1	1	0	2	5	5	4	26	1	0	3	3	3	0	1	57	13	7	0	1	1	2	2	12	0	1	13	7	1	1	0	0
OTU 76	1	0	0	2	2	9	0	0	0	0	0	1	0	0	0	0	0	1	1	0	0	1	6	6	0	0	0	0	0	0	0	0	2	0	9	0	1	5	0	0	0	0	0	0	0	0	0	0	0	0
OTU 77	0	0	0	0	2	0	1	2	1	0	0	2	0	0	0	0	0	1	0	0	2	0	5	0	0	0	0	4	1	0	0	7	1	0	2	0	12	2	2	0	1	10	0	2	0	0	0	1	3	0
OTU 78	1	4	0	1	0	2	4	1	1	0	7	0	0	2	0	2	1	3	1	3	0	0	0	2	2	0	1	0	0	1	0	2	0	2	0	0	3	0	1	0	1	0	0	0	4	1	0	0	0	0
OTU 79	3	14	5	10	10	14	3	9	8	1	41	5	3	1	4	10	11	4	2	1	13	4	12	12	15	11	103	5	5	1	3	12	14	5	24	11	6	11	0	1	13	18	23	9	3	17	2	2	2	8
OTU 80	4	7	0	1	0	1	2	1	0	0	1	2	3	6	2	6	1	8	4	4	0	7	0	1	5	0	0	3	0	0	2	2	1	1	0	2	2	0	1	0	0	3	0	0	9	12	0	2	1	1
OTU 81	4	3	0	3	1	0	2	3	1	0	3	3	35	1	0	3	1	5	1	1	3	0	2	1	4	0	0	4	0	1	2	8	0	0	5	72	3	0	0	0	0	0	3	0	2	0	0	0	93	3
OTU 82	14	0	0	0	0	0	0	1	0	0	3	5	0	4	0	1	0	9	0	0	1	3	1	91	1	2	1	0	0	0	1	0	0	2	0	2	73	0	6	0	7	0	0	1	2	2	1	4	16	2
OTU 83	0	0	0	0	0	0	0	0	0	3	3	0	0	0	1	0	4	0	1	0	1	0	0	0	0	0	0	0	0	1	0	0	0	2	0	2	0	3	2	2	0	1	1	0	0	0	0	0	0	0
OTU 84	0	1	0	0	0	0	0	3	1	1	1	0	1	0	1	1	0	0	0	0	1	1	1	0	0	0	0	1	0	0	0	3	3	0	3	1	3	0	0	0	3	0	0	1	0	0	0	0	0	3
OTU 85	0	5	0	0	0	0	0	0	6	0	0	0	0	0	0	3	0	0	3	0	0	1	0	0	0	0	0	0	0	0	1	0	0	0	0	1	3	0	0	0	0	0	0	0	2	4	2	0	0	154
OTU 86	0	0	0	2	0	0	0	0	0	0	0	0	0	0	0	0	0	0	0	1	0	0	0	0	0	0	0	0	0	0	0	0	0	1	0	0	0	0	0	0	0	0	0	0	0	0	0	0	0	0
OTU 87	7	3	0	1	0	0	2	0	0	0	0	0	0	3	0	0	0	10	0	1	0	0	0	1	0	0	0	0	92	0	0	0	0	0	0	0	8	0	0	0	0	0	0	0	0	0	0	0	3	0
OTU 88	0	0	0	0	0	0	0	0	5	0	0	1	0	0	0	0	0	0	0	3	0	0	2	0	0	0	0	0	0	0	0	0	0	0	0	0	0	0	0	0	0	0	0	0	0	0	0	0	20	0
OTU 89	19	0	4	0	0	1	0	0	0	0	6	0	0	13	1	0	3	9	3	0	1	2	0	0	1	0	2	0	0	1	0	0	0	1	0	0	0	0	0	0	0	0	0	0	1	1	0	0	0	0
OTU 90	0	0	0	0	0	0	0	2	0	0	0	0	0	0	0	2	0	1	0	0	0	0	0	0	0	1	0	0	0	0	0	0	0	1	0	0	0	0	0	0	2	0	0	0	0	0	0	0	0	0
OTU 91	0	0	0	0	0	0	0	0	0	0	0	0	0	0	0	0	0	0	0	0	0	0	0	0	0	0	0	0	0	0	0	0	0	0	0	0	1	1	0	1	2	0	0	4	3	0	0	0	0	0
OTU 92	0	0	0	0	0	0	0	0	0	0	1	0	0	0	0	0	0	0	0	0	0	4	1	0	0	0	0	0	0	0	0	0	9	0	2	0	0	2	0	0	0	0	0	0	0	0	0	0	0	0
OTU 93	0	0	0	0	0	0	0	0	0	0	0	0	0	0	0	0	0	0	0	0	0	0	0	0	0	0	0	0	0	0	1	0	0	0	2	2	0	0	2	0	0	0	0	0	2	0	0	0	0	0
OTU 94	3	0	1	3	0	2	0	0	2	3	6	3	1	0	1	8	4	0	5	7	1	0	1	0	2	0	0	1	0	0	1	0	0	4	2	3	3	3	1	2	4	6	1	2	2	0	4	0	1	0
OTU 95	1	1	0	0	2	2	3	37	0	0	0	0	0	1	0	2	0	0	0	0	0	5	1	2	3	0	0	4	0	2	0	0	5	2	1	0	0	0	0	0	20	1	0	0	4	0	1	1	0	8
OTU 96	0	0	0	0	2	0	0	0	0	0	0	0	0	1	0	0	0	6	0	5	0	0	3	0	0	0	0	0	0	0	0	0	0	0	0	0	0	0	0	0	0	0	0	0	0	0	0	0	1	0
OTU 97	0	0	0	0	0	0	0	1	0	0	0	0	0	0	0	0	0	0	0	1	0	0	0	0	5	0	0	0	0	0	0	0	0	1	0	0	0	0	0	0	0	0	0	0	0	0	0	0	2	0
OTU 98	0	0	0	0	1	0	1	3	2	0	0	0	2	0	0	0	0	0	0	4	0	0	0	0	0	0	0	0	0	0	1	0	0	1	0	0	0	0	0	0	0	1	0	0	1	0	0	0	0	0
OTU 99	3	0	2	0	1	0	2	21	3	0	8	7	0	0	0	5	2	1	2	1	0	86	0	1	2	4	0	7	0	0	0	5	6	1	3	1	2	2	2	3	0	5	0	5	0	0	4	1	1	6
OTU 100	5	3	0	3	0	2	3	0	1	0	1	0	0	0	0	0	1	0	0	2	0	0	0	0	0	1	0	1	0	0	5	1	0	0	1	0	1	0	0	0	3	1	0	0	1	1	0	1	0	0
OTU 101	0	0	0	0	0	0	0	0	0	0	0	0	0	0	0	0	0	0	0	0	0	0	0	0	0	0	0	0	0	0	2	0	0	0	0	0	0	0	0	0	0	0	0	0	0	0	1	0	0	0
OTU 102	1	0	0	0	0	1	0	2	1	0	0	0	0	0	0	4	4	2	0	0	0	0	0	0	0	0	0	0	0	3	0	0	0	1	0	0	0	0	1	1	0	1	0	0	0	0	0	0	0	0
OTU 103	4	3	0	0	0	0	0	1	0	13	0	0	2	0	1	0	0	0	0	1	0	0	0	0	0	0	0	1	0	0	0	0	3	0	0	2	0	0	6	29	3	70	21	1	0	0	0	0	0	0
OTU 104	3	2	1	2	3	2	1	5	1	0	0	26	2	0	0	6	3	0	2	0	4	2	1	1	3	0	2	4	7	0	3	0	2	0	11	0	1	1	1	1	0	0	0	1	0	5	2	1	0	3
OTU 105	0	0	0	2	0	0	0	0	0	0	0	2	0	0	0	0	0	2	2	2	0	1	0	0	0	0	0	0	0	0	0	0	1	1	0	0	0	0	0	0	0	0	0	5	0	0	3	3	0	0
OTU 106	0	1	0	0	81	0	0	0	1	0	0	0	0	0	1	1	0	0	0	0	0	0	0	0	0	5	0	0	0	0	0	0	91	0	0	0	1	0	1	3	0	0	3	0	0	0	0	1	0	0
OTU 107	0	0	1	0	0	0	0	0	11	0	1	0	0	0	1	0	0	4	0	0	0	0	0	1	0	0	3	0	0	0	0	1	0	0	0	0	0	0	2	0	0	0	1	0	0	0	0	0	0	0
OTU 108	0	0	1	0	0	0	1	2	0	0	1	0	0	1	2	0	11	0	0	3	0	1	0	0	0	0	1	0	0	6	4	0	1	3	1	2	0	0	0	0	0	0	0	2	0	1	3	2	0	0
OTU 109	0	0	0	0	0	0	0	0	0	0	0	0	0	0	0	0	0	0	0	0	0	0	0	0	0	0	0	0	0	0	0	0	0	0	0	0	0	0	0	0	0	0	0	0	0	0	0	0	0	0
OTU 110	3	0	0	2	0	10	0	0	2	0	7	0	1	2	0	0	1	0	0	0	1	4	2	2	0	0	0	0	2	4	0	1	0	0	0	1	0	0	0	3	2	0	1	1	2	0	1	0	0	0
OTU 111	0	1	0	0	0	0	0	0	0	0	0	0	0	0	0	0	0	2	0	0	0	0	0	0	0	0	0	0	0	0	0	0	0	0	0	0	0	0	0	0	0	0	0	0	0	0	0	0	0	0
OTU 112	3	0	1	0	2	0	0	0	0	2	0	0	0	0	0	1	0	1	0	0	1	0	0	1	0	0	0	0	0	0	0	2	0	0	2	3	0	0	0	4	0	2	0	0	0	0	0	0	0	1
OTU 113	0	0	0	0	0	0	0	0	0	0	1	0	1	0	0	0	0	0	0	0	1	0	0	0	0	0	1	0	1	0	0	0	0	0	0	0	0	0	4	0	0	0	0	0	0	0	0	0	0	0
OTU 114	2	1	0	1	3	1	0	1	7	0	16	0	0	1	0	0	47	3	1	3	6	6	3	1	6	0	0	3	3	14	1	20	0	0	0	2	0	0	8	3	9	6	0	1	1	4	1	0	2	0
OTU 115	0	0	77	2	0	8	0	0	1	0	2	3	0	1	68	4	1	4	5	4	4	1	1	0	3	1	39	2	6	7	0	0	8	0	5	10	0	1	0	2	3	0	0	0	1	1	0	0	0	0
OTU 116	1	3	0	0	0	5	0	2	4	0	0	8	0	5	0	0	1	2	0	6	1	1	0	3	5	0	0	0	2	0	2	0	2	2	1	0	0	2	1	1	0	2	0	0	0	0	0	0	2	18
OTU 117	0	0	1	0	1	1	1	3	6	4	1	4	0	1	4	0	1	0	0	1	0	5	0	0	0	7	0	60	2	0	0	7	0	0	1	6	1	1	0	2	0	2	2	0	2	7	0	0	0	2
OTU 118	0	0	0	0	1	2	0	0	0	0	0	0	0	0	0	0	1	0	1	0	0	0	0	0	0	0	0	0	0	0	0	0	0	0	0	0	0	0	30	0	0	0	0	0	0	0	0	20	0	0
OTU 119	5	4	1	0	0	1	0	2	1	0	0	0	9	12	0	0	3	9	0	0	0	1	0	1	1	0	2	1	0	0	0	0	1	1	0	20	0	2	1	0	0	1	0	2	1	1	0	6	0	0
OTU 120	0	1	2	0	0	2	2	0	0	0	7	0	0	0	0	0	0	0	0	1	0	0	0	0	0	0	0	0	0	2	0	0	0	0	1	0	0	1	0	0	1	0	0	8	0	0	1	0	1	0
OTU 121	8	1	0	0	0	0	22	0	0	0	3	0	0	1	1	0	0	0	4	0	0	0	0	0	3	0	0	0	0	0	0	0	0	0	0	0	9	0	0	0	0	2	0	4	0	0	0	5	2	1
OTU 122	0	1	0	3	3	2	4	4	7	0	0	4	3	33	0	1	1	0	2	1	0	6	3	0	3	2	0	0	3	1	0	0	6	0	9	0	1	1	3	0	4	0	2	3	0	0	0	1	0	29
OTU 123	4	8	4	0	1	5	16	7	7	78	10	3	4	0	2	0	10	1	10	2	0	8	0	6	4	0	2	4	0	2	14	12	5	0	6	4	4	12	19	5	2	15	3	67	16	16	6	4	2	2
OTU 124	0	1	0	0	0	0	2	1	0	0	0	0	0	1	0	0	0	0	1	0	0	1	0	0	0	0	0	0	0	1	0	3	2	2	0	0	0	0	0	0	0	0	0	0	0	0	0	2	0	0
OTU 125	11	18	0	6	2	4	0	1	1	4	12	13	18	11	1	6	5	4	0	18	84	12	0	0	2	0	1	1	4	5	13	8	1	3	3	28	4	0	125	12	1	6	13	83	5	9	3	71	56	3
OTU 126	0	0	0	0	1	0	0	0	0	2	1	0	0	1	0	1	1	0	0	0	0	1	0	0	0	0	0	0	0	0	0	0	0	0	0	1	0	0	0	7	0	2	1	0	0	1	0	1	0	0
OTU 127	0	0	0	0	0	1	5	3	0	1	0	6	0	0	0	0	2	0	1	0	0	0	1	1	0	0	0	1	0	0	0	0	0	3	0	1	0	0	2	0	2	0	1	1	0	3	0	0	0	1
OTU 128	0	10	0	2	3	9	15	5	13	2	5	3	1	7	15	14	1	39	13	2	2	7	12	0	5	1	0	3	3	3	11	7	4	8	1	4	2	7	9	3	11	5	4	14	4	4	4	1	4	2
OTU 129	0	0	0	0	0	0	0	7	0	0	0	0	0	0	0	12	0	0	0	0	0	0	2	0	0	6	0	0	0	0	0	0	0	11	0	0	0	0	0	0	0	0	0	0	0	0	0	0	0	4
OTU 130	10	0	1	0	0	0	0	3	0	4	1	0	0	0	0	0	4	1	6	0	3	0	26	0	0	0	1	1	0	3	4	1	3	0	0	0	1	35	0	9	0	10	3	0	0	0	0	0	2	2
OTU 131	0	0	0	0	1	1	0	8	1	1	0	21	0	0	0	1	3	0	0	0	0	0	0	2	2	5	0	2	4	0	0	1	0	1	0	0	2	7	0	0	3	0	0	0	0	0	0	0	0	6
OTU 132	0	1	1	0	0	0	0	0	4	0	5	2	1	0	0	0	0	1	1	0	0	0	2	0	0	0	2	0	0	0	4	0	0	0	0	2	0	0	0	0	1	8	0	0	2	0	3	0	0	0
OTU 133	1	0	0	0	0	0	2	0	1	0	1	0	0	0	0	0	0	0	0	0	0	0	0	0	0	1	0	0	0	0	0	0	0	0	0	0	0	0	0	0	0	0	0	0	2	0	0	0	0	0
OTU 134	0	3	4	0	0	1	0	5	0	3	10	0	0	2	0	2	1	1	7	6	0	0	0	0	0	1	2	3	0	0	0	1	1	0	0	0	2	1	0	6	5	7	8	0	3	0	0	1	0	1
OTU 135	13	0	0	2	0	0	1	0	12	0	4	0	0	2	0	0	0	0	0	3	0	0	4	0	2	0	0	0	0	0	9	0	0	1	0	0	1	2	0	0	2	0	1	1	0	5	2	0	0	1
OTU 136	0	1	1	5	1	0	0	0	2	0	5	0	0	0	1	0	2	1	0	6	0	0	94	2	0	0	1	0	0	0	0	0	0	1	11	0	0	11	0	0	0	0	0	5	22	0	0	0	1	0
OTU 137	0	0	4	1	0	1	0	0	0	0	0	4	0	0	1	0	0	0	0	0	0	2	0	0	0	0	0	0	0	0	0	0	0	5	0	0	0	0	0	0	0	0	0	0	0	5	5	1	21	0
OTU 138	0	3	0	0	1	0	0	0	3	0	0	4	0	0	1	0	0	0	0	3	1	1	2	0	0	0	0	0	0	3	0	2	0	1	0	0	0	1	1	0	0	0	0	0	0	0	3	0	0	0
OTU 139	8	12	1	5	3	7	1	5	8	1	1	3	2	0	2	1	2	1	1	0	0	26	4	2	1	0	1	95	1	0	24	9	2	3	7	0	2	7	0	0	1	5	0	0	2	0	102	0	0	1
OTU 140	5	3	12	3	7	4	1	13	6	4	1	19	5	0	8	11	12	0	0	1	2	5	6	1	6	5	10	6	0	0	0	4	6	1	6	8	1	4	0	7	0	8	3	26	1	5	6	1	4	6
OTU 141	0	0	0	0	0	0	0	0	0	0	0	0	0	0	0	0	0	0	0	0	0	0	0	0	0	0	0	0	0	0	0	0	0	1	0	0	0	0	0	0	0	0	0	0	0	0	0	0	0	0
OTU 142	0	1	0	0	0	0	0	0	0	0	0	0	0	0	0	0	0	0	0	0	0	1	0	0	0	1	0	0	0	0	0	0	0	0	0	0	0	0	0	0	0	0	0	0	0	0	0	0	0	0
OTU 143	0	0	0	1	0	1	0	2	0	0	0	1	0	0	0	0	2	1	0	2	0	0	1	0	0	0	0	0	0	0	0	0	0	0	0	0	0	0	0	0	0	0	0	0	0	3	0	0	0	0
OTU 144	2	0	0	0	1	0	0	0	0	0	0	0	0	0	0	0	2	0	0	0	0	0	0	0	0	0	0	1	0	0	0	0	0	0	0	0	1	0	0	0	0	0	0	0	0	0	0	0	0	0
OTU 145	6	49	0	1	0	2	15	3	1	0	0	17	0	17	0	0	3	25	2	0	0	6	0	0	0	0	0	0	1	0	0	0	3	0	0	0	15	1	5	1	4	0	1	5	0	0	0	1	37	3
OTU 146	1	9	1	1	1	0	0	4	4	0	0	0	5	0	1	4	0	0	7	0	0	0	0	0	3	1	1	2	0	0	0	0	0	0	0	2	8	0	2	0	3	1	0	1	3	0	0	0	2	5
OTU 147	0	0	0	2	0	2	0	1	0	1	0	0	0	0	0	0	2	0	0	0	14	0	0	1	0	0	0	0	0	34	0	2	0	1	0	1	0	0	0	0	0	2	0	0	0	0	0	0	0	0
OTU 148	2	4	1	0	1	0	2	1	0	0	0	3	4	0	2	0	0	0	1	0	0	1	0	0	0	57	0	0	1	0	0	5	0	86	0	0	4	0	0	2	0	3	1	3	1	4	0	0	3	0
OTU 149	12	0	0	0	0	0	0	0	0	0	6	4	0	0	0	0	0	4	0	2	0	0	0	0	1	1	0	0	0	0	6	0	3	2	0	1	0	0	0	0	2	0	1	0	0	0	0	0	0	0
OTU 150	1	0	1	0	0	0	0	0	0	0	0	0	0	0	0	0	0	0	0	0	0	15	0	0	0	1	1	0	0	0	0	0	0	0	0	0	0	0	1	0	3	4	0	0	0	0	13	3	0	0
OTU 151	1	0	0	2	2	0	0	2	1	0	1	0	1	1	0	0	4	0	0	1	0	0	1	1	1	2	0	0	0	0	5	0	0	0	1	0	0	0	0	0	2	0	37	0	0	0	2	2	0	0
OTU 152	1	1	2	1	0	3	0	8	0	1	2	0	3	2	5	9	0	5	2	0	1	0	0	0	6	1	2	3	0	0	1	1	0	2	0	1	0	0	0	0	2	1	0	0	1	0	1	2	0	3
OTU 153	0	0	0	0	0	0	0	0	0	0	0	0	0	0	0	0	0	0	0	0	1	0	0	0	0	0	0	0	0	0	0	0	2	4	0	0	0	0	0	0	0	0	0	0	0	0	0	0	0	0
OTU 154	0	0	0	0	2	0	0	0	0	0	0	0	0	0	0	0	0	0	0	0	0	0	0	0	0	0	0	1	0	0	2	0	0	0	0	0	0	0	0	0	0	0	0	0	3	0	0	0	0	0
OTU 155	0	0	0	31	0	0	0	8	2	0	0	0	0	0	0	0	0	0	0	1	0	0	3	0	0	0	0	1	0	0	0	44	0	0	0	3	0	0	3	0	2	2	0	1	0	0	4	3	0	2
OTU 156	0	1	0	1	0	0	0	0	0	0	5	0	7	0	0	3	7	1	1	73	1	1	2	1	3	2	0	1	0	2	2	2	0	2	4	3	0	1	0	0	0	0	0	0	0	1	1	1	0	2
OTU 157	0	0	0	0	0	0	0	0	0	0	0	0	0	4	1	0	0	13	0	1	0	0	0	0	0	0	0	0	0	0	0	0	0	0	0	0	0	0	1	0	1	0	1	2	0	0	0	0	1	0
OTU 158	0	0	0	0	0	0	0	0	0	0	0	0	0	0	0	0	0	0	0	0	0	0	0	0	0	0	0	0	0	0	0	0	0	0	0	0	0	0	0	0	0	0	0	0	0	0	0	0	0	0
OTU 159	6	1	0	1	1	1	2	0	0	0	3	0	0	51	0	0	1	0	0	0	1	0	1	2	12	0	0	0	2	1	0	1	0	1	0	3	0	0	0	3	11	0	0	0	0	0	0	1	0	0
OTU 160	4	8	8	10	0	6	1	1	5	0	6	1	1	1	0	0	0	2	7	2	0	9	11	0	5	0	3	3	2	2	4	9	1	2	8	1	2	7	3	1	10	0	1	5	11	10	2	3	2	2
OTU 161	0	1	1	0	2	0	0	0	3	0	0	5	0	2	1	2	6	3	2	0	0	0	0	55	0	1	0	0	0	0	0	0	0	0	1	0	1	4	0	0	0	0	0	0	0	16	1	3	1	0
OTU 162	0	6	2	4	0	1	2	0	0	9	0	4	3	0	0	1	1	1	1	0	0	0	0	1	2	3	0	0	2	0	3	3	0	2	0	3	2	1	9	1	0	3	1	4	4	0	1	2	1	1
OTU 163	0	0	0	0	0	0	0	0	0	0	0	0	0	0	0	0	0	0	0	0	0	0	0	0	0	0	0	0	0	0	0	0	0	0	0	0	0	0	0	0	0	0	0	0	0	3	0	0	0	0
OTU 164	0	0	0	0	0	0	0	4	0	0	0	0	0	0	0	0	0	0	0	0	0	0	0	0	0	0	0	2	0	0	0	0	3	0	0	0	0	0	0	0	0	0	0	0	0	0	0	0	0	0
OTU 165	0	0	0	0	0	1	0	0	0	0	0	0	0	0	0	0	0	1	5	0	0	0	0	0	0	1	1	0	0	1	0	0	1	0	3	0	0	0	2	2	1	4	3	0	1	0	1	4	0	0
OTU 166	0	0	0	0	0	0	0	0	0	0	0	0	0	0	0	0	1	0	0	0	0	0	0	0	0	0	0	0	0	0	0	5	0	0	0	0	0	0	0	0	0	0	0	0	0	0	0	0	0	0
OTU 167	2	1	8	2	0	0	0	4	9	0	1	1	0	0	5	4	0	2	0	4	3	0	0	1	10	0	1	5	4	3	0	0	0	7	0	0	0	0	6	0	1	2	0	0	0	1	1	2	0	3
OTU 168	0	0	0	0	0	0	1	1	0	0	0	2	0	2	0	1	0	3	0	0	1	0	0	0	0	0	0	2	0	2	0	2	0	0	0	0	0	0	0	0	1	0	0	2	4	0	0	0	1	3
OTU 169	0	0	0	0	0	0	0	0	0	0	0	0	0	0	0	0	0	0	0	0	0	0	0	0	0	0	0	0	0	0	0	0	0	0	0	0	0	0	0	0	0	0	0	0	0	0	0	0	0	0
OTU 170	0	0	1	0	0	0	1	0	0	0	0	1	0	0	1	0	0	2	0	0	0	0	0	0	1	0	0	0	1	0	0	0	0	0	0	0	0	0	1	0	0	0	0	0	0	0	1	0	0	0
OTU 171	0	2	2	4	13	17	0	0	1	0	5	3	0	0	1	2	0	0	0	4	0	0	14	8	2	0	1	4	1	0	0	0	21	0	28	0	1	9	0	0	0	0	0	1	0	0	0	0	6	1
OTU 172	0	2	0	0	0	0	0	6	0	0	0	0	0	0	0	0	0	0	0	2	0	0	0	1	0	0	0	3	0	0	0	0	0	0	0	0	0	0	0	0	0	0	0	0	0	0	0	0	0	1
OTU 173	0	1	0	0	2	1	0	0	10	0	1	1	0	0	0	0	0	0	0	0	0	1	0	0	0	0	0	0	0	2	0	0	0	0	1	0	0	1	0	1	0	3	1	1	0	1	0	0	0	0
OTU 174	0	0	0	2	0	0	0	0	0	0	3	0	0	0	0	1	0	4	2	0	0	0	0	0	1	0	0	0	0	0	0	10	1	2	0	2	0	0	0	0	1	0	0	1	0	1	1	1	6	0
OTU 175	0	4	1	1	0	0	0	2	0	0	1	1	0	0	3	0	5	0	0	0	2	0	0	0	0	2	1	0	0	2	0	0	5	0	0	1	2	0	3	0	0	0	0	0	0	1	0	0	0	0
OTU 176	0	0	3	3	0	0	0	0	1	2	5	1	2	0	4	6	4	2	3	0	0	0	0	0	8	0	2	1	0	3	36	5	0	1	0	9	0	0	1	4	2	5	0	0	0	0	1	0	0	0
OTU 177	0	2	3	0	17	1	1	0	1	0	0	1	0	1	1	0	2	3	0	0	0	0	2	0	0	1	2	0	7	1	0	0	4	1	11	0	2	5	1	1	2	4	0	1	0	3	0	0	6	0
OTU 178	1	0	0	4	0	0	2	1	1	0	0	0	0	0	0	4	0	0	0	0	1	0	3	0	1	0	0	0	2	0	0	1	0	0	1	0	0	0	0	0	1	4	0	3	0	0	0	1	0	0
OTU 179	0	0	0	1	0	0	1	18	3	1	2	0	1	0	0	10	7	0	0	0	0	1	0	0	0	0	0	1	3	1	3	11	1	1	0	0	0	2	3	1	0	0	1	0	0	0	1	1	6	5
OTU 180	6	3	5	4	50	2	21	3	13	5	2	10	5	7	3	8	12	0	20	26	4	14	1	3	1	0	2	1	4	7	0	4	4	5	3	2	121	77	5	8	0	2	2	2	10	9	2	2	1	0
OTU 181	0	3	0	1	1	0	2	4	0	6	0	0	1	0	0	0	1	1	3	0	0	0	1	0	2	3	3	0	1	1	0	0	3	0	0	0	2	0	3	9	3	6	6	0	2	0	1	0	5	0
OTU 182	0	0	0	0	0	0	0	0	0	0	0	0	0	0	0	0	0	0	0	0	0	3	0	0	0	0	0	0	0	0	0	0	0	0	0	0	0	0	0	0	0	0	0	0	0	0	0	0	0	0
OTU 183	1	0	0	0	0	0	0	2	1	0	0	4	0	0	0	14	0	0	0	1	1	2	1	2	3	9	0	0	2	0	0	0	21	7	0	0	0	0	0	0	2	0	0	0	0	0	0	0	0	0
OTU 184	0	0	0	0	0	0	2	0	0	0	1	0	0	0	0	1	0	0	0	1	0	0	2	0	0	0	0	0	0	0	5	2	0	0	1	3	0	1	0	0	0	1	0	0	0	1	0	0	0	0
OTU 185	2	0	1	0	0	1	0	4	2	0	0	1	1	0	0	1	6	1	0	5	6	1	1	0	9	0	0	1	1	0	2	2	0	0	1	6	0	1	0	0	8	0	0	2	3	1	0	0	1	4
OTU 186	0	0	0	0	0	3	0	4	0	0	0	0	10	0	0	0	0	0	2	0	0	0	0	0	6	2	1	2	5	0	2	0	1	1	0	0	0	0	0	1	16	1	0	0	0	0	0	0	0	1
OTU 187	1	39	0	2	0	0	14	5	8	11	2	2	78	0	1	3	4	2	4	4	2	1	17	0	0	3	0	0	0	5	5	1	3	5	0	75	16	3	1	28	3	0	19	0	7	0	1	0	2	5
OTU 188	1	0	1	3	2	0	1	2	35	0	4	0	0	0	1	0	2	2	0	0	1	5	0	0	0	1	0	0	0	3	2	2	2	1	0	0	0	0	0	0	4	0	0	0	4	7	1	0	3	1
OTU 189	0	0	1	0	1	0	4	1	3	2	1	5	0	1	0	1	0	3	46	1	0	0	12	5	5	1	1	7	0	1	3	0	4	1	2	4	0	4	0	1	4	0	1	0	3	0	1	1	0	1
OTU 190	0	0	0	3	0	0	4	0	0	0	0	0	0	3	0	1	0	7	0	0	0	2	0	0	0	0	0	2	0	0	0	0	0	0	0	0	0	1	0	0	0	1	0	0	0	0	0	0	0	0
OTU 191	3	2	0	0	0	3	0	1	1	7	4	0	1	1	0	1	0	1	7	4	0	2	0	1	0	1	0	0	0	0	2	8	0	0	0	1	1	0	1	17	1	23	4	0	6	0	8	1	0	0
OTU 192	13	4	0	1	0	1	0	11	0	6	0	4	0	8	0	2	7	4	2	3	0	0	0	1	12	3	12	6	8	0	0	4	3	4	0	2	0	1	0	3	17	1	0	12	1	2	1	0	3	9
OTU 193	3	1	0	2	0	4	0	1	0	0	0	0	0	4	0	1	26	5	0	0	3	2	0	0	0	3	0	15	0	10	0	0	0	0	0	0	0	49	0	1	0	3	2	0	1	0	0	0	0	0
OTU 194	6	2	0	0	1	1	0	1	2	0	0	0	0	0	0	7	0	0	3	0	0	0	0	0	0	0	0	3	2	0	4	0	0	1	3	0	1	1	0	0	2	0	1	1	61	0	0	0	0	1
OTU 195	0	0	0	0	0	0	0	1	0	1	0	0	1	4	0	2	1	2	4	2	1	4	0	0	3	0	0	0	0	0	0	7	0	0	0	0	0	2	1	1	2	0	0	0	3	6	0	1	1	1
OTU 196	0	0	0	2	1	0	0	4	0	1	9	0	0	0	0	1	2	0	2	0	0	0	1	0	1	0	1	2	0	0	0	3	1	8	0	0	0	0	30	1	0	0	0	1	1	0	0	15	0	0
OTU 197	5	12	3	9	14	3	2	2	2	1	3	0	4	1	4	4	12	3	8	1	4	3	18	13	8	1	5	0	2	8	3	4	8	1	32	3	13	13	11	2	0	5	1	1	3	0	3	1	4	1
OTU 198	0	0	0	0	1	0	0	0	1	0	0	0	0	3	0	5	1	7	0	0	0	0	0	0	0	1	0	0	0	0	0	0	0	0	0	0	0	0	0	0	1	0	0	0	0	0	2	0	0	0
OTU 199	0	0	1	0	0	6	0	0	3	0	1	0	0	0	2	5	0	2	1	2	0	6	0	0	9	0	0	0	2	0	3	0	0	4	0	2	0	1	2	0	0	0	0	0	0	0	0	0	0	0
OTU 200	5	1	0	0	2	0	0	0	0	1	4	0	0	0	0	0	0	1	1	1	0	1	3	1	1	1	0	0	0	0	0	0	2	4	13	0	0	1	2	4	4	0	0	0	6	0	0	0	0	0
