	Host 1	Host 2	Host 3	Host 4	Host 5	Host 6	Host 7	Host 8	Host 9	Host 10	Host 11	Host 12	Host 13	Host 14	Host 15	Host 16	Host 17	Host 18	Host 19	Host 20	Host 21	Host 22	Host 23	Host 24	Host 25	Host 26	Host 27	Host 28	Host 29	Host 30	Host 31	Host 32	Host 33	Host 34	Host 35	Host 36	Host 37	Host 38	Host 39	Host 40	Host 41	Host 42	Host 43	Host 44	Host 45	Host 46	Host 47	Host 48	Host 49	Host 50	
OTU 1	0	2	7	0	1	0	0	0	0	6	0	0	0	2	2	3	0	2	0	6	0	0	0	0	0	0	4	3	2	6	3	1	1	6	0	0	0	0	1	2	6	1	0	1	1	0	3	0	1	0
OTU 2	4	2	4	5	0	1	1	1	0	1	0	0	0	0	0	0	2	1	0	5	0	0	1	42	3	2	3	0	4	0	0	0	9	1	0	5	0	0	0	0	26	0	0	1	5	0	0	0	11	0
OTU 3	0	0	0	0	0	3	0	2	0	0	0	0	0	0	2	0	0	0	0	0	0	0	0	1	0	0	0	0	0	0	0	0	0	0	0	0	0	1	0	0	0	0	0	0	0	0	0	0	0	0
OTU 4	0	0	0	0	0	0	0	0	1	0	0	0	0	0	0	0	0	0	0	0	0	0	0	0	0	0	0	0	0	0	0	0	0	0	0	0	0	0	0	0	0	0	0	0	0	0	0	0	0	0
OTU 5	19	30	0	2	0	29	19	5	13	17	14	13	77	56	16	18	30	5	16	8	0	2	17	4	1	6	3	4	32	3	12	7	6	5	8	13	0	2	15	20	1	1	9	0	1	38	14	3	23	3
OTU 6	2	3	0	0	0	1	0	4	2	0	0	0	3	0	3	0	0	0	0	4	3	1	5	0	0	6	5	1	5	1	0	5	0	6	2	12	2	1	1	1	41	0	1	2	1	4	2	1	18	2
OTU 7	6	0	3	2	0	1	6	3	0	3	0	5	1	0	0	1	25	1	7	0	2	1	3	2	4	4	3	1	5	0	2	5	6	2	32	0	45	1	1	0	0	24	6	7	7	0	0	2	0	14
OTU 8	2	1	0	0	0	1	0	0	1	4	4	1	0	0	0	0	1	0	1	0	2	3	0	1	2	2	1	0	0	0	0	1	7	2	80	0	18	0	104	0	1	2	0	1	1	0	1	1	0	3
OTU 9	0	0	4	0	0	1	0	0	0	2	0	0	0	3	1	0	1	0	0	0	3	1	0	2	0	1	0	0	1	0	1	0	0	0	0	0	0	0	0	1	0	0	2	0	2	2	0	1	0	0
OTU 10	0	0	0	0	0	3	0	0	0	1	0	0	0	0	0	0	6	1	1	1	0	0	0	2	11	0	0	0	0	0	0	0	0	0	18	0	0	0	0	0	0	12	0	0	1	0	0	0	0	7
OTU 11	2	1	1	1	0	0	0	4	2	1	1	1	5	0	1	2	1	4	4	3	2	4	0	0	2	0	1	2	0	0	0	0	1	0	0	0	3	4	0	0	0	2	0	0	11	2	1	0	0	0
OTU 12	0	1	0	2	0	6	0	1	0	0	1	2	3	0	0	0	4	2	1	0	2	1	0	0	0	0	1	5	0	0	3	0	3	0	3	0	3	2	5	0	1	1	0	0	2	2	1	4	0	0
OTU 13	0	0	0	0	0	1	0	0	0	0	0	1	0	0	0	0	0	0	0	0	0	0	0	0	4	0	0	0	0	0	0	1	0	0	2	0	0	0	0	0	0	0	0	0	0	0	0	0	0	0
OTU 14	0	0	0	0	2	3	2	0	0	1	0	0	0	0	0	0	0	0	0	0	4	9	0	0	0	1	0	3	0	0	0	0	0	0	2	0	0	0	0	0	0	0	0	2	0	1	0	0	0	1
OTU 15	0	0	0	0	0	0	1	0	0	0	0	0	0	0	0	0	0	3	0	0	0	0	0	0	0	0	0	0	0	0	0	0	0	0	2	0	0	0	0	4	0	10	0	0	0	0	0	0	0	2
OTU 16	0	0	0	0	0	0	0	0	0	0	0	0	0	0	0	0	0	0	0	0	0	0	0	0	0	0	0	0	0	0	0	0	0	0	0	0	0	0	0	0	0	0	0	0	0	0	0	0	0	0
OTU 17	0	0	1	0	0	0	2	0	0	0	1	0	0	0	0	0	2	2	0	4	2	0	1	0	6	0	1	0	0	0	0	0	0	0	0	3	1	0	0	1	4	2	2	2	1	0	0	2	4	3
OTU 18	0	1	0	4	1	9	3	0	0	3	2	7	1	0	1	0	0	2	0	0	0	0	1	2	0	5	0	0	3	1	1	1	1	1	0	0	6	138	4	0	0	2	3	1	4	2	0	0	0	1
OTU 19	0	0	0	0	0	0	0	0	0	0	0	0	0	0	0	0	0	0	0	0	0	0	0	0	0	0	0	0	0	0	0	0	0	0	0	0	0	0	0	0	0	0	0	0	0	0	0	0	0	0
OTU 20	1	0	1	0	0	19	0	1	2	0	2	0	0	0	0	0	0	6	0	0	0	0	0	1	0	7	0	1	0	0	11	1	0	1	0	0	0	0	2	0	1	0	0	2	0	2	4	0	0	0
OTU 21	0	0	1	3	0	7	1	2	1	1	0	1	1	2	0	0	5	3	31	2	10	4	0	0	1	0	1	0	0	0	0	0	6	0	1	1	2	0	4	0	6	0	0	0	0	1	0	0	1	1
OTU 22	1	0	0	3	0	1	0	3	0	0	2	2	5	0	0	2	1	4	1	0	1	9	3	1	0	0	1	6	0	2	0	0	1	100	0	1	2	11	2	1	3	0	0	1	0	0	0	0	0	0
OTU 23	0	0	0	0	0	0	2	2	0	0	4	3	1	0	2	2	0	0	0	0	0	0	0	0	0	1	0	0	0	0	3	0	1	0	0	1	15	1	0	0	5	0	0	5	0	0	3	1	1	0
OTU 24	0	0	0	0	0	1	0	0	0	0	0	0	5	0	0	0	0	0	0	0	20	0	0	0	0	1	0	1	0	0	0	2	0	0	0	0	1	0	0	0	0	0	0	0	0	0	1	0	0	6
OTU 25	0	0	0	0	0	0	0	0	0	0	0	0	0	0	0	0	0	0	0	0	0	0	0	0	0	0	0	1	0	0	3	0	0	0	0	0	0	0	0	0	0	0	0	0	0	0	0	0	0	0
OTU 26	0	0	0	0	0	0	0	0	0	0	0	0	0	0	0	0	0	0	0	0	0	0	0	0	0	2	0	0	0	0	0	0	0	0	16	0	1	1	1	0	2	0	0	0	0	0	0	1	0	0
OTU 27	0	0	0	0	0	1	0	0	0	0	0	0	0	0	0	0	0	0	0	2	0	0	0	0	0	0	0	0	0	0	0	0	0	0	0	0	0	0	0	0	1	0	0	0	0	0	0	0	1	0
OTU 28	1	0	0	1	4	0	0	0	0	0	1	0	4	0	0	0	3	1	2	0	1	0	2	0	9	12	4	2	0	0	1	2	3	0	3	0	0	0	1	0	2	2	0	1	3	0	2	7	1	0
OTU 29	0	1	7	1	0	1	8	1	6	0	2	1	0	1	6	2	3	3	0	0	2	4	6	0	1	0	3	0	0	0	0	1	5	0	0	0	5	0	0	2	4	2	1	0	3	0	1	0	0	1
OTU 30	0	0	0	0	0	0	0	0	0	0	0	0	0	0	0	0	0	0	1	0	0	0	0	0	0	0	0	0	0	0	0	0	0	0	0	0	0	0	0	0	0	0	0	0	0	0	0	0	0	0
OTU 31	0	0	0	0	0	0	0	0	0	0	0	0	0	0	1	0	0	0	0	1	8	0	0	1	2	0	7	1	1	1	0	0	0	1	0	0	0	2	1	0	1	0	0	0	0	0	0	2	0	0
OTU 32	7	0	0	2	0	6	4	1	0	1	4	0	0	30	57	3	0	3	3	0	0	7	19	2	0	5	42	10	0	24	1	31	3	3	3	0	4	6	16	0	0	1	0	2	19	20	2	5	1	1
OTU 33	1	0	0	0	0	0	0	0	0	0	0	0	0	1	1	0	0	0	0	0	0	0	0	0	2	0	0	0	0	0	0	0	0	0	0	0	0	0	1	0	0	0	0	0	0	0	0	0	0	0
OTU 34	1	0	5	4	1	3	3	2	0	6	1	0	1	0	0	0	1	1	0	0	0	0	0	0	2	0	0	0	3	1	2	3	1	0	0	2	3	2	0	1	2	2	0	4	0	0	0	1	5	1
OTU 35	1	0	1	0	0	7	0	0	0	0	0	0	0	0	0	0	1	2	2	2	16	0	0	8	0	0	0	0	0	0	1	2	44	0	0	0	2	1	5	0	6	0	0	6	0	21	9	0	1	0
OTU 36	0	1	1	1	0	1	0	6	0	0	2	1	0	2	3	1	0	0	0	33	0	0	0	0	9	6	0	6	2	0	0	0	1	1	1	0	1	0	8	1	1	4	4	0	0	2	0	4	0	2
OTU 37	2	0	0	1	0	0	0	0	0	0	0	0	0	0	1	0	0	0	0	0	0	0	0	1	3	3	0	0	0	0	0	0	0	0	0	0	0	0	0	0	0	0	64	0	4	0	3	0	0	0
OTU 38	0	0	0	0	0	11	0	3	1	0	0	0	0	0	0	1	2	2	0	1	0	0	0	1	0	6	0	10	0	0	0	0	2	0	0	0	0	2	0	0	0	3	0	7	5	0	0	2	0	3
OTU 39	2	0	0	0	0	0	2	0	0	0	0	0	2	0	0	0	1	0	0	0	0	2	0	0	0	0	0	0	0	0	0	0	0	0	0	0	0	0	0	0	0	0	0	0	0	0	0	4	0	0
OTU 40	0	0	1	0	0	2	10	3	1	2	0	0	3	0	1	2	1	0	1	0	9	1	0	2	8	5	1	14	0	2	2	2	0	0	0	0	5	0	14	0	6	5	3	1	8	56	8	0	0	2
OTU 41	0	1	0	0	0	0	46	1	1	4	1	7	1	2	1	1	0	3	3	0	2	0	0	0	0	0	0	4	0	1	3	1	0	0	2	0	1	1	0	2	3	1	0	1	1	0	5	2	0	0
OTU 42	0	2	0	13	0	1	1	0	2	0	0	0	2	0	0	2	0	0	0	0	0	0	0	0	0	0	0	2	4	0	0	0	0	2	0	0	0	0	0	0	0	2	0	0	4	0	0	0	0	0
OTU 43	0	0	0	0	0	0	0	0	0	0	0	0	0	0	0	0	0	0	0	0	0	0	0	0	0	0	0	0	0	0	0	0	0	0	0	0	0	0	0	0	0	0	0	0	0	0	0	1	0	0
OTU 44	0	0	0	0	1	0	0	0	1	1	12	0	0	1	0	0	0	8	0	0	0	0	0	0	0	0	0	0	1	0	0	1	0	0	0	0	2	0	1	0	0	0	0	0	0	0	115	0	0	1
OTU 45	0	71	0	1	6	5	0	1	0	2	0	1	4	0	0	0	1	1	0	0	4	3	3	0	1	3	2	2	8	0	2	0	1	0	0	0	5	0	3	0	3	0	5	1	3	3	0	2	0	0
OTU 46	22	0	3	22	5	0	1	8	2	0	0	3	3	3	2	3	0	6	1	0	1	8	0	0	6	12	1	1	3	0	0	0	1	0	0	0	0	2	0	0	0	3	1	0	43	2	0	15	0	5
OTU 47	0	0	0	0	0	0	0	0	0	0	0	0	0	0	0	0	0	0	0	0	0	1	0	0	0	0	0	0	0	0	0	0	0	0	0	0	0	0	0	0	2	2	0	0	0	0	2	0	0	0
OTU 48	0	0	0	1	3	6	4	0	2	0	1	1	1	1	1	0	0	1	1	0	0	7	1	1	3	9	0	9	0	0	0	3	1	1	5	2	1	3	0	0	2	0	0	9	1	2	0	0	2	0
OTU 49	0	1	6	1	1	0	0	0	0	1	0	0	0	0	0	0	0	0	0	0	0	0	0	104	0	0	2	7	7	0	0	0	0	0	0	0	1	1	1	0	0	0	5	0	1	7	0	0	0	0
OTU 50	2	2	0	13	0	7	0	1	2	3	3	0	3	1	0	2	0	1	0	0	11	0	0	3	3	5	0	0	0	0	0	0	1	2	0	2	0	0	0	0	10	0	2	13	0	1	5	0	3	1
OTU 51	0	0	2	0	0	0	1	2	1	0	2	0	0	0	1	1	0	11	1	0	0	0	0	0	0	2	0	2	0	3	0	0	1	6	22	0	3	0	0	1	0	13	0	2	2	1	7	1	0	4
OTU 52	1	1	4	1	0	2	0	1	12	1	2	0	4	10	5	0	1	10	0	2	6	3	67	5	4	4	5	4	1	0	1	2	1	2	9	1	2	7	0	4	6	13	1	13	2	4	1	9	3	3
OTU 53	0	0	0	0	0	0	0	0	0	0	0	0	0	0	0	0	0	0	0	0	0	0	0	0	0	0	0	2	0	0	0	0	0	0	0	0	0	0	0	0	0	0	0	0	0	0	0	0	0	0
OTU 54	0	1	4	0	3	5	4	0	4	2	2	0	4	1	0	0	9	9	0	1	0	0	4	2	1	0	0	1	1	0	0	4	1	3	1	3	2	3	1	0	6	1	2	2	0	4	0	12	3	0
OTU 55	0	0	0	0	0	0	0	0	0	0	0	0	0	0	0	0	0	0	0	0	0	0	0	0	0	0	0	0	0	0	0	0	0	0	0	0	0	0	0	0	0	0	0	0	0	0	0	0	0	0
OTU 56	0	0	2	1	0	0	0	4	0	1	0	1	1	3	0	0	1	2	0	0	2	0	1	1	0	1	1	0	0	0	0	0	3	0	0	0	0	1	0	0	0	0	0	9	0	0	2	0	0	0
OTU 57	6	2	3	1	2	1	2	0	5	2	3	8	4	7	1	9	3	1	9	1	0	1	52	7	7	5	3	6	0	2	0	1	3	2	5	5	2	0	2	138	8	2	2	3	7	0	2	1	4	2
OTU 58	0	0	0	1	0	0	0	0	1	1	0	0	1	2	0	0	0	1	0	0	5	2	0	0	6	0	0	6	0	0	0	0	5	1	0	0	0	2	4	1	0	3	0	0	0	0	1	1	0	2
OTU 59	0	0	0	1	4	0	1	0	0	0	0	0	0	0	0	0	0	0	0	0	1	0	0	0	3	0	0	5	0	0	0	0	0	6	0	0	2	0	0	0	0	0	0	1	0	0	2	0	0	0
OTU 60	0	2	0	0	0	1	0	7	4	0	0	0	3	3	1	0	1	5	1	0	16	0	0	1	5	9	1	3	0	0	0	0	1	0	0	0	2	0	0	1	1	3	0	1	8	1	1	2	1	4
OTU 61	9	2	6	4	5	37	5	4	1	7	1	3	0	0	91	1	1	0	3	0	4	0	1	1	2	1	3	3	4	30	10	0	0	0	4	0	5	0	0	0	3	2	3	5	4	1	2	0	0	0
OTU 62	0	0	0	0	0	0	0	1	0	0	0	0	0	0	0	0	0	0	0	2	0	4	0	0	0	3	0	0	0	0	0	0	4	0	0	1	0	0	0	0	0	0	0	7	0	0	0	1	1	0
OTU 63	0	0	1	0	1	0	2	0	0	0	0	0	0	0	1	0	5	0	0	0	0	2	0	3	2	0	0	0	1	0	1	13	0	0	0	0	1	17	0	0	0	0	0	0	0	0	0	0	0	0
OTU 64	7	0	1	1	1	6	1	5	1	2	5	1	3	10	0	2	3	6	6	0	7	3	1	5	0	5	3	0	0	0	1	2	2	2	0	0	3	6	54	4	0	1	0	10	9	3	0	1	0	4
OTU 65	5	0	0	2	0	0	0	0	0	0	0	0	0	1	0	0	0	0	0	0	0	0	0	0	0	0	0	0	0	0	0	0	23	0	0	0	0	0	0	0	0	0	0	0	0	0	0	0	0	0
OTU 66	2	0	3	0	2	0	2	4	0	0	2	3	3	0	0	4	0	9	1	0	1	2	0	0	1	0	0	0	0	0	0	1	0	2	0	0	6	2	2	3	0	0	3	1	0	1	0	1	2	0
OTU 67	1	3	6	1	1	1	0	0	4	2	66	0	2	0	0	0	0	4	3	0	0	3	0	1	1	1	0	5	2	0	1	0	0	2	1	0	5	1	0	2	0	1	0	0	0	0	1	0	1	0
OTU 68	3	0	7	1	1	0	0	0	0	0	2	0	2	1	2	2	0	1	0	38	0	0	0	1	6	0	0	0	0	0	0	0	0	0	0	42	0	0	1	0	0	0	2	0	1	0	0	0	88	0
OTU 69	0	0	0	0	0	0	1	0	2	2	0	0	3	0	3	1	0	1	0	1	0	0	0	1	0	2	1	0	1	3	0	0	0	73	1	0	19	4	1	1	4	1	0	9	4	8	4	8	0	0
OTU 70	0	0	4	0	1	0	1	0	0	0	0	1	2	0	0	0	0	0	0	0	0	1	0	0	0	3	0	2	4	0	0	0	0	0	0	0	0	0	0	0	0	0	1	0	0	0	4	0	0	0
OTU 71	0	0	1	1	0	0	2	0	0	2	1	3	0	0	0	17	0	1	1	0	5	0	0	0	5	0	0	1	0	0	0	0	2	1	1	0	0	0	0	0	2	0	1	3	0	0	0	0	0	0
OTU 72	2	0	0	0	1	2	0	1	0	0	0	0	2	3	4	0	2	0	0	1	0	0	1	0	0	4	10	0	0	0	0	5	0	3	2	0	0	1	0	1	0	0	0	0	2	3	9	11	0	1
OTU 73	3	0	1	3	0	1	0	2	5	0	0	0	0	0	0	0	2	0	0	0	0	0	0	0	11	0	0	0	1	0	0	0	1	7	2	1	0	1	1	0	0	0	0	0	4	0	1	1	0	2
OTU 74	0	2	0	0	0	0	3	6	0	0	2	146	7	55	7	3	0	4	0	1	0	0	1	1	9	4	0	2	1	2	1	0	1	0	0	1	14	2	0	0	8	1	0	1	0	1	0	3	3	1
OTU 75	0	0	0	2	0	1	0	4	0	0	1	0	0	0	0	0	1	4	0	1	6	0	41	6	24	0	3	4	3	1	0	8	3	0	0	1	5	0	5	1	1	0	0	0	3	14	3	0	1	0
OTU 76	0	0	0	0	0	0	0	0	0	1	0	0	0	53	0	0	0	0	0	0	0	0	0	0	0	0	0	1	0	0	0	0	0	1	0	0	1	3	0	0	0	0	0	17	0	1	0	0	0	0
OTU 77	0	0	0	1	1	3	0	1	1	3	0	0	1	0	2	0	0	1	3	0	8	3	1	0	0	0	1	78	1	0	0	0	0	0	2	2	4	1	0	0	4	1	0	1	0	1	0	8	1	0
OTU 78	1	1	2	6	0	5	6	4	1	43	3	0	3	0	1	0	5	1	21	0	0	1	0	0	1	1	0	2	3	0	23	0	0	0	0	0	0	1	0	25	0	1	0	2	5	0	0	1	0	0
OTU 79	3	2	1	2	3	8	42	37	4	4	2	3	17	19	6	3	10	2	8	153	10	2	17	5	10	5	12	1	0	3	0	6	4	5	1	2	7	9	1	24	1	4	0	3	1	5	6	5	0	2
OTU 80	1	5	10	1	2	0	2	1	51	3	0	1	1	1	6	0	1	0	0	1	7	0	7	2	1	1	6	0	3	181	5	5	0	56	0	0	0	2	5	0	2	0	1	4	7	12	2	0	3	0
OTU 81	0	3	8	2	3	3	6	0	3	14	0	0	0	4	5	0	0	11	1	0	10	3	3	5	9	0	15	5	6	2	6	7	0	2	5	184	2	3	9	0	1	1	6	1	7	2	1	0	1	1
OTU 82	5	0	0	0	0	0	0	4	1	0	0	0	1	0	0	0	1	1	3	0	1	1	0	0	0	1	0	0	0	0	2	0	0	1	0	0	3	3	0	1	7	12	0	11	1	0	7	5	1	3
OTU 83	0	0	2	0	1	0	0	0	0	0	0	1	2	0	0	0	0	0	0	0	0	0	2	0	0	0	0	0	0	0	2	0	5	0	0	0	0	1	0	3	0	0	0	0	1	0	0	0	0	0
OTU 84	0	2	1	0	0	0	0	3	0	1	45	0	0	0	1	0	0	63	1	0	3	0	1	0	0	6	1	0	0	2	2	2	0	0	0	0	1	0	0	0	1	1	3	0	0	0	1	0	0	0
OTU 85	1	0	2	0	0	0	1	0	0	0	0	0	2	1	0	0	0	0	2	0	0	0	0	0	0	0	0	0	0	0	0	0	0	0	0	0	0	0	0	1	0	0	0	8	2	1	1	0	0	0
OTU 86	0	0	0	0	0	0	0	0	0	0	0	0	0	0	0	5	0	0	0	0	0	0	0	0	0	0	0	0	0	0	0	0	0	0	0	0	0	0	0	0	0	0	0	0	0	0	0	0	0	0
OTU 87	0	1	0	0	1	0	0	0	0	1	3	0	0	16	0	0	1	0	0	1	0	0	0	0	0	0	0	2	0	0	0	0	2	0	33	1	0	0	0	17	0	16	0	0	0	0	0	0	0	14
OTU 88	0	0	0	0	0	0	0	0	0	0	0	0	0	0	1	0	0	0	0	0	0	0	0	0	0	1	0	0	0	0	0	1	0	0	1	0	0	2	0	0	0	0	0	0	0	0	0	0	0	0
OTU 89	1	2	1	0	0	5	0	1	1	0	0	0	0	0	0	0	0	0	0	2	0	0	0	1	0	0	4	0	1	0	0	1	0	0	0	0	2	0	0	0	0	0	2	1	4	3	0	2	0	0
OTU 90	0	0	0	0	0	0	1	0	0	0	0	0	0	0	0	4	0	0	0	0	0	0	2	0	0	0	0	0	0	0	0	0	0	0	0	0	1	0	0	0	0	0	0	0	0	0	0	0	0	0
OTU 91	0	0	2	0	0	0	0	0	0	1	0	0	0	0	0	0	0	0	0	0	0	59	0	1	0	0	0	0	0	0	2	0	0	0	0	0	0	20	0	0	0	0	0	1	0	0	0	0	0	0
OTU 92	2	0	1	1	1	0	2	0	0	0	0	1	0	0	0	0	0	0	1	0	0	1	0	0	3	1	0	0	0	0	0	0	1	0	0	0	0	0	0	0	0	0	1	0	0	0	0	0	0	0
OTU 93	1	0	0	0	0	0	0	0	0	0	0	0	0	0	0	0	0	1	1	0	0	0	0	0	0	0	0	0	0	0	0	0	0	1	0	0	0	0	0	0	0	1	0	0	0	0	0	0	0	0
OTU 94	5	3	19	2	15	2	3	4	19	3	8	0	3	1	0	0	3	0	0	0	6	7	2	1	2	11	6	0	4	0	0	1	2	11	0	0	3	1	1	0	0	0	3	1	1	0	3	2	0	0
OTU 95	0	0	0	0	0	0	0	0	0	58	43	0	0	0	0	0	1	0	1	0	2	0	0	0	5	0	0	0	0	0	27	0	0	0	0	0	0	0	0	0	1	2	0	0	0	0	0	0	0	0
OTU 96	0	0	0	0	0	0	0	0	0	0	0	0	0	1	0	0	0	0	0	0	0	0	0	0	0	0	0	0	0	0	0	0	15	0	0	0	0	0	0	0	0	0	0	0	0	0	0	0	0	0
OTU 97	0	0	0	0	0	0	0	0	0	3	0	0	0	0	7	2	0	0	5	0	1	0	0	0	0	0	0	0	0	8	0	0	0	0	0	1	0	0	0	0	1	0	0	0	0	0	0	0	3	0
OTU 98	0	0	0	0	0	0	0	0	0	2	1	0	0	0	6	1	0	0	0	0	0	0	0	0	3	0	2	0	0	1	0	3	10	0	0	0	0	1	0	0	0	0	0	0	0	0	0	0	1	1
OTU 99	2	0	5	3	2	7	1	0	1	2	0	1	3	5	2	0	0	2	0	1	3	3	3	2	0	8	4	5	1	1	0	3	9	3	4	0	1	0	0	0	2	0	3	3	1	0	2	1	0	0
OTU 100	2	2	2	0	1	0	1	0	4	0	3	0	3	1	3	0	0	7	0	0	0	0	0	1	1	0	0	0	0	3	0	0	0	3	1	0	1	0	0	2	0	41	1	0	0	0	1	0	0	11
OTU 101	0	0	0	0	1	0	0	0	0	0	0	0	0	0	0	0	0	0	1	0	0	0	0	0	0	1	0	0	0	0	0	0	1	0	0	0	0	0	0	0	0	2	0	0	0	0	1	0	0	0
OTU 102	0	0	2	0	0	0	0	1	0	1	0	0	1	0	4	0	39	0	0	0	0	0	0	0	0	0	0	0	2	3	0	1	0	4	0	0	2	4	0	0	0	0	2	0	0	0	0	0	0	0
OTU 103	1	0	0	0	0	0	0	0	1	2	0	1	0	1	0	0	0	0	0	2	0	0	0	0	0	0	0	0	0	0	0	0	1	1	0	1	0	1	3	0	3	0	0	1	0	0	4	0	1	0
OTU 104	94	13	74	1	27	1	30	9	0	0	5	0	4	0	1	2	0	17	0	1	0	0	2	10	0	13	9	1	29	0	0	0	7	1	35	1	7	2	1	1	9	0	25	0	7	1	0	0	3	0
OTU 105	0	0	0	0	0	0	0	0	0	1	0	0	0	0	0	1	0	0	0	0	0	0	2	0	0	2	1	3	0	0	0	5	0	0	0	0	0	1	0	0	0	0	0	0	0	0	1	1	0	0
OTU 106	2	0	8	0	7	2	2	0	7	0	0	0	2	0	0	0	0	0	0	0	0	0	1	0	0	0	0	6	0	1	0	0	0	2	0	0	0	0	0	0	0	2	5	14	6	0	0	0	0	0
OTU 107	1	0	0	0	0	0	0	0	0	0	0	0	0	1	0	0	0	0	0	0	0	0	0	0	8	0	0	0	0	0	0	0	36	0	0	0	1	0	0	2	0	0	0	0	0	0	0	31	0	0
OTU 108	0	0	0	0	0	0	0	2	0	0	1	0	0	0	1	0	9	0	0	0	0	0	2	0	0	1	1	0	0	2	1	0	0	2	0	0	3	1	0	0	0	1	0	4	0	3	1	0	0	0
OTU 109	0	1	0	0	0	0	0	0	0	0	0	0	0	0	0	0	0	0	0	0	0	0	0	0	0	0	0	0	3	0	0	0	0	0	0	0	0	0	0	0	0	0	0	0	0	0	0	0	0	0
OTU 110	0	0	0	0	0	1	0	2	1	3	0	0	7	2	0	0	1	0	0	3	0	0	0	7	1	1	9	1	1	0	3	0	2	0	2	1	2	2	2	2	1	4	0	0	3	4	0	0	2	3
OTU 111	1	0	0	0	0	4	0	0	0	0	0	0	0	1	0	0	0	0	0	0	0	9	0	0	0	0	0	0	0	0	0	0	0	0	0	0	0	2	0	0	0	0	0	0	0	0	0	0	0	0
OTU 112	0	0	1	0	0	0	2	1	0	2	0	2	0	0	0	0	1	3	0	0	1	1	0	1	0	3	0	9	0	0	2	133	2	1	1	0	0	0	0	0	1	0	1	0	0	0	0	0	0	1
OTU 113	0	0	0	0	0	0	0	1	0	1	0	0	0	1	0	0	0	0	0	0	0	0	0	0	0	0	0	0	0	0	0	0	0	0	0	0	0	0	0	0	0	0	0	0	0	0	0	0	0	0
OTU 114	3	3	10	1	6	1	2	3	2	13	3	1	3	0	9	4	1	6	0	0	9	2	6	2	6	1	13	4	7	2	2	1	10	1	0	1	5	1	1	2	5	0	2	5	5	7	1	0	1	1
OTU 115	3	1	0	3	0	2	1	2	1	5	8	1	1	0	1	7	2	3	0	0	2	0	8	1	1	3	7	2	1	2	2	7	2	1	0	0	11	0	2	0	4	5	0	8	6	2	1	2	1	1
OTU 116	1	0	5	0	2	0	3	0	4	0	1	0	1	3	1	0	4	0	0	0	0	6	0	1	0	2	0	0	4	1	0	9	2	0	5	1	0	7	0	4	0	0	3	1	0	1	1	0	0	0
OTU 117	0	0	2	0	0	4	0	16	1	0	3	3	0	1	0	3	0	0	0	0	0	0	0	11	3	1	1	0	0	0	0	0	0	3	0	0	3	3	0	1	0	2	0	0	1	0	1	3	0	2
OTU 118	0	0	0	1	1	0	0	0	0	0	0	0	0	0	0	0	0	4	0	1	2	1	0	0	0	4	0	0	0	0	0	1	0	0	0	1	0	0	0	0	3	0	0	0	0	2	0	0	1	0
OTU 119	0	0	3	0	2	5	1	1	0	1	2	0	0	1	2	0	2	3	0	0	0	0	0	1	1	4	1	2	1	0	0	1	0	0	0	0	3	11	2	0	0	0	0	1	0	0	4	0	0	0
OTU 120	2	0	0	1	0	2	0	2	1	0	18	0	0	0	0	7	0	20	1	0	0	0	0	0	0	0	0	0	0	0	0	0	2	0	0	0	1	0	0	0	0	0	0	0	1	0	0	0	0	0
OTU 121	0	1	0	0	0	1	0	0	2	0	0	1	0	0	5	1	1	1	2	0	1	0	1	0	3	5	0	0	3	2	1	5	1	0	1	0	1	0	0	0	0	0	1	4	1	3	1	0	0	0
OTU 122	0	0	3	0	0	0	4	0	0	5	4	1	0	1	0	2	1	3	1	2	0	0	1	0	2	0	0	0	2	0	3	2	5	2	2	0	3	0	2	0	0	0	1	6	0	0	0	0	0	0
OTU 123	10	0	12	7	191	0	15	10	71	7	3	10	2	14	6	8	3	16	1	1	20	15	6	17	3	1	11	9	9	3	3	4	11	5	7	2	10	24	22	7	10	6	10	6	11	47	6	20	9	0
OTU 124	0	0	0	0	0	0	0	7	0	0	1	0	0	0	0	0	0	0	0	0	1	0	0	2	0	3	0	0	2	0	0	0	0	1	0	0	3	0	0	0	0	0	0	1	0	1	0	0	0	0
OTU 125	3	2	8	2	2	6	2	5	8	22	3	3	19	0	0	5	16	0	4	2	8	2	3	1	4	2	4	15	1	1	14	0	5	2	5	0	2	1	10	1	2	8	8	4	8	2	3	4	3	5
OTU 126	0	20	0	0	0	0	0	0	0	0	1	0	0	0	0	0	0	0	0	0	0	3	1	0	0	5	2	0	27	0	0	0	0	0	0	0	0	12	0	0	0	0	0	0	0	0	0	0	0	0
OTU 127	0	0	0	0	0	0	0	1	0	0	0	0	1	1	0	0	2	0	101	0	2	0	3	0	0	1	0	4	0	1	0	0	5	0	0	0	0	0	0	0	0	0	1	0	0	2	0	0	2	0
OTU 128	11	7	10	8	7	7	55	8	4	25	1	5	6	21	31	3	3	3	5	8	22	7	10	7	7	7	27	13	14	32	22	9	9	0	3	3	11	0	8	30	15	94	132	3	22	16	9	2	6	48
OTU 129	0	0	0	0	0	0	0	0	1	0	0	1	0	0	0	0	4	0	0	0	0	2	1	0	0	0	1	0	0	0	0	1	0	0	0	0	0	0	3	0	0	0	0	0	0	0	0	0	0	0
OTU 130	0	1	0	1	0	3	0	0	0	0	0	0	5	1	2	0	2	0	0	2	0	0	2	3	6	7	2	0	0	0	0	3	1	0	0	0	0	1	0	1	0	1	0	4	5	3	0	0	0	0
OTU 131	0	0	0	0	0	0	1	6	0	0	7	0	2	0	3	1	1	22	0	0	0	0	2	1	2	7	1	0	0	1	0	1	4	0	0	0	5	0	0	0	0	0	0	3	0	1	0	42	0	0
OTU 132	4	0	0	0	0	0	0	9	1	7	0	0	0	0	0	1	5	1	0	0	0	0	0	0	0	2	0	0	0	0	2	1	0	0	0	0	3	0	0	2	0	2	0	0	6	0	3	0	1	0
OTU 133	0	0	0	0	0	0	0	0	0	0	0	0	3	0	0	0	0	0	0	0	3	2	0	0	1	1	0	2	0	3	0	0	1	0	0	0	0	0	0	0	0	0	0	0	0	0	0	0	0	0
OTU 134	4	0	0	3	1	0	0	0	0	1	1	0	0	0	0	0	3	4	0	0	0	3	3	0	4	0	0	2	0	0	108	8	2	0	2	0	1	2	2	1	0	1	0	0	1	1	0	0	0	1
OTU 135	1	14	0	1	0	1	0	0	2	0	1	30	3	0	4	46	18	0	35	0	0	2	6	0	0	0	13	0	0	4	0	1	2	2	2	0	0	3	32	0	0	5	1	1	3	4	0	2	0	0
OTU 136	0	1	3	0	0	5	0	1	0	0	3	0	0	0	0	0	0	0	1	0	1	0	0	0	2	4	0	1	1	2	0	2	0	0	2	0	0	0	0	0	0	1	0	0	0	0	0	3	0	0
OTU 137	0	0	1	0	0	0	0	3	0	0	0	0	1	3	0	0	0	0	0	0	0	46	0	0	1	0	0	0	0	0	0	0	0	0	0	0	0	0	0	3	0	0	0	0	1	0	0	0	0	3
OTU 138	1	0	1	0	0	0	4	0	0	6	0	0	0	0	0	2	0	0	0	0	1	0	1	0	2	3	1	2	0	0	7	0	0	0	0	0	1	0	2	0	0	0	0	0	0	0	14	3	0	0
OTU 139	3	1	25	5	10	11	3	7	0	3	0	0	1	4	1	4	0	1	2	2	8	4	2	1	17	27	5	3	7	2	0	2	3	2	4	0	1	1	1	7	0	4	12	5	6	1	0	5	0	2
OTU 140	3	0	1	1	1	5	1	2	3	3	2	1	4	0	10	0	4	3	1	2	5	4	13	2	1	7	30	3	0	11	58	16	1	3	5	0	1	2	2	0	2	8	1	27	10	16	3	3	1	2
OTU 141	0	0	0	0	0	0	0	0	0	5	0	0	0	0	0	0	1	0	0	0	0	0	0	0	0	0	0	0	0	0	1	0	0	0	0	0	0	0	0	0	0	0	0	0	0	0	0	0	0	0
OTU 142	0	0	0	0	0	0	0	0	0	0	0	0	0	0	0	0	0	1	0	0	0	0	0	3	0	0	0	0	0	0	0	0	0	0	0	0	0	0	0	0	0	0	0	1	0	0	0	0	0	0
OTU 143	0	0	0	0	0	1	0	0	0	0	0	0	0	0	1	0	0	0	0	0	0	0	1	0	0	0	1	0	0	0	0	2	0	0	0	0	0	0	2	0	0	1	0	2	0	1	0	0	0	0
OTU 144	0	3	1	0	3	1	3	0	5	0	0	0	0	2	0	3	0	0	0	0	0	1	0	0	0	0	0	0	7	0	0	0	0	0	0	0	0	0	0	0	0	0	1	0	0	0	0	0	0	0
OTU 145	3	2	3	0	1	3	3	3	4	0	0	2	0	0	0	0	1	3	5	37	0	3	2	4	0	1	0	1	1	0	0	0	4	2	3	43	1	0	1	0	3	2	2	2	8	0	4	4	86	1
OTU 146	0	1	1	3	1	3	0	1	0	1	0	0	13	0	7	0	1	0	0	0	4	3	6	2	9	6	12	1	4	0	0	5	2	0	1	0	2	6	0	0	0	1	1	2	1	0	0	0	0	0
OTU 147	0	2	0	0	0	0	0	1	1	0	0	0	1	0	0	0	2	0	1	0	4	0	1	2	0	1	0	0	1	0	1	5	0	1	0	0	0	1	0	0	1	0	0	1	0	0	0	2	1	0
OTU 148	1	3	4	0	0	0	0	0	0	0	0	0	1	3	1	0	0	4	0	0	9	10	0	8	5	0	4	0	1	5	0	2	14	0	0	1	1	2	2	0	0	0	1	3	0	5	0	5	4	0
OTU 149	0	0	0	1	6	5	0	2	0	0	0	0	18	0	0	0	1	0	0	0	1	0	0	0	3	0	3	0	0	1	0	2	0	0	0	0	0	0	0	0	0	0	1	0	0	0	0	1	0	0
OTU 150	0	1	0	0	1	0	0	0	1	0	0	0	0	0	1	0	0	0	0	0	0	0	0	0	0	8	0	2	0	0	0	0	0	0	0	1	0	0	3	0	0	1	0	0	2	2	0	6	0	0
OTU 151	0	49	3	2	0	0	0	2	0	0	0	0	1	0	0	0	1	0	0	0	0	0	1	0	4	0	0	0	107	3	0	1	1	0	0	0	0	0	2	1	0	0	4	5	0	0	1	0	1	0
OTU 152	2	0	0	0	0	0	0	1	0	1	3	3	0	1	0	0	2	1	0	1	0	1	2	1	14	12	4	2	0	0	1	2	0	0	5	1	3	5	0	0	1	4	0	5	1	1	0	0	3	2
OTU 153	0	0	0	0	0	0	0	0	0	0	2	0	0	0	0	2	0	0	0	0	0	0	0	0	0	0	0	0	0	0	0	0	0	0	0	0	0	0	0	0	0	0	0	0	0	0	0	0	0	0
OTU 154	0	0	0	0	0	0	0	0	0	0	1	2	0	0	0	0	0	0	0	0	0	0	0	5	0	0	0	0	0	0	2	0	0	0	0	2	0	0	0	0	1	0	0	0	0	0	0	0	2	0
OTU 155	0	0	0	0	1	3	0	0	0	3	0	0	1	0	1	0	75	0	0	0	0	0	0	1	0	0	0	0	0	0	1	0	0	0	0	0	0	0	0	0	1	1	0	2	0	0	1	0	0	0
OTU 156	0	2	3	2	6	2	7	16	2	6	7	0	11	1	2	0	4	1	2	0	0	3	0	8	1	7	0	1	0	0	2	1	0	0	0	0	4	1	0	0	0	0	1	1	3	0	1	4	0	0
OTU 157	0	0	0	8	0	2	0	0	0	0	2	0	0	1	0	0	0	1	2	0	0	2	1	0	0	5	0	0	0	2	0	2	2	0	4	0	1	0	0	0	0	0	0	1	0	0	2	0	0	0
OTU 158	0	1	1	0	1	0	2	0	0	0	0	0	3	0	0	0	3	0	0	0	0	0	0	0	0	0	0	0	1	0	0	0	0	0	0	0	0	0	0	0	0	0	1	0	0	2	0	0	0	0
OTU 159	0	0	0	0	0	1	1	3	1	0	5	1	5	0	0	0	0	2	0	0	0	0	0	0	1	5	0	3	0	0	0	0	8	0	1	0	20	1	2	0	0	4	0	0	1	1	2	40	0	1
OTU 160	6	3	5	0	3	5	1	6	1	2	1	3	13	6	2	13	6	7	3	3	4	2	7	12	5	5	7	3	5	0	2	0	4	17	1	1	9	1	0	0	6	0	4	2	8	2	1	2	3	0
OTU 161	0	3	1	0	0	1	0	0	0	0	1	0	2	2	1	0	1	4	0	0	1	3	1	4	0	1	5	0	2	5	2	2	0	2	0	0	0	1	0	0	0	2	0	1	0	0	0	11	0	4
OTU 162	2	81	0	2	1	4	2	15	2	2	7	0	2	0	2	4	0	5	0	0	3	2	1	0	2	8	1	2	0	1	1	0	0	0	0	0	0	0	0	0	1	3	2	0	0	2	0	2	0	1
OTU 163	0	0	1	0	0	0	0	0	0	0	0	0	1	0	0	0	0	0	0	0	0	0	0	0	0	0	0	0	0	0	0	0	0	0	0	0	0	0	0	2	0	1	2	0	0	0	0	0	0	0
OTU 164	0	0	0	0	0	0	0	0	0	0	0	0	0	0	0	3	1	0	0	0	0	0	1	0	2	0	0	0	0	0	0	0	0	0	0	0	0	0	0	0	0	0	0	0	0	0	0	0	0	0
OTU 165	0	0	0	0	0	0	0	0	0	3	0	0	0	0	1	0	0	1	0	0	10	0	0	0	1	0	0	0	0	0	1	0	0	0	0	0	1	0	1	0	3	0	0	2	0	1	0	0	0	2
OTU 166	38	0	0	0	0	0	0	1	0	0	0	0	0	0	0	0	0	0	0	0	0	0	0	0	0	0	0	0	0	0	0	0	0	0	0	0	0	0	0	0	0	0	0	0	0	0	0	0	0	1
OTU 167	0	0	0	0	0	0	0	2	0	0	0	1	1	2	0	0	0	0	0	0	2	0	1	0	0	0	3	0	0	0	1	0	0	1	0	0	0	0	0	0	0	0	0	1	0	0	9	0	0	0
OTU 168	4	1	0	0	0	1	1	1	1	0	0	0	0	7	0	0	0	1	2	1	0	0	0	1	0	7	0	0	0	0	0	0	0	0	2	1	2	0	0	0	1	0	0	2	2	0	0	2	0	0
OTU 169	0	0	0	0	0	0	0	0	0	0	0	0	0	0	0	0	0	2	0	1	3	0	0	0	0	0	0	0	0	0	0	0	0	0	0	0	0	1	0	0	0	0	0	0	0	0	0	0	0	0
OTU 170	0	0	13	0	0	3	0	2	0	0	0	0	0	0	0	0	0	0	0	0	0	0	0	0	0	1	0	0	4	0	0	0	1	0	0	0	0	0	0	0	0	0	5	0	0	0	0	0	0	0
OTU 171	3	0	0	1	0	27	0	1	0	0	0	1	0	0	0	4	0	0	5	0	0	0	0	10	0	1	0	0	6	0	0	0	1	0	0	0	4	1	0	0	2	3	2	0	3	1	2	2	0	0
OTU 172	0	0	0	0	0	0	0	0	0	0	0	0	0	0	1	0	0	0	0	2	0	0	1	1	0	0	3	0	0	0	0	1	0	0	0	0	2	0	0	0	2	0	0	0	0	0	0	0	2	0
OTU 173	0	0	0	0	0	3	0	3	0	0	0	0	1	0	0	0	1	0	0	0	0	0	0	0	0	0	0	1	0	0	0	1	0	0	0	0	2	0	0	0	0	1	0	0	0	1	0	2	0	0
OTU 174	0	0	0	1	2	0	0	0	1	1	0	0	0	0	0	0	0	0	0	12	10	0	0	2	6	0	1	0	0	0	0	1	1	0	1	12	4	1	0	0	0	0	0	3	1	0	0	22	19	0
OTU 175	0	1	3	0	0	0	2	2	0	1	1	0	0	0	2	0	0	0	0	0	0	0	0	0	0	1	0	0	1	0	0	1	4	0	2	1	1	0	0	0	0	0	3	2	0	0	0	1	0	0
OTU 176	0	1	2	4	3	1	2	1	0	2	0	3	0	0	6	2	7	0	0	0	4	2	0	1	5	1	3	1	0	1	4	2	2	3	0	1	2	5	1	0	0	0	1	4	1	1	1	2	1	0
OTU 177	2	0	4	0	2	1	1	1	0	0	2	0	1	0	4	1	0	3	1	0	8	0	0	2	3	1	2	1	0	0	0	0	0	0	0	0	2	2	1	0	2	0	0	6	0	0	0	2	2	0
OTU 178	0	2	0	5	1	5	0	5	0	0	0	3	0	0	0	0	1	1	0	0	0	1	0	1	1	2	0	0	0	0	0	0	0	0	1	0	0	0	0	48	1	0	0	0	0	0	2	0	0	0
OTU 179	0	0	0	0	1	4	1	1	0	0	1	0	1	0	0	2	2	2	1	1	0	2	1	0	0	1	0	0	0	0	0	0	1	1	0	0	0	0	0	0	0	0	0	1	0	0	0	4	0	0
OTU 180	0	15	3	1	1	2	1	4	6	2	4	0	4	3	4	2	5	8	2	0	3	3	0	3	3	6	0	22	11	4	0	0	7	2	3	1	2	1	2	8	2	7	1	8	4	5	15	1	0	5
OTU 181	0	0	0	0	3	2	0	16	4	6	0	0	0	1	4	0	2	1	1	0	2	1	1	0	5	1	0	0	2	0	1	4	0	1	0	0	2	0	0	0	1	2	1	4	1	1	0	0	0	2
OTU 182	0	0	1	1	0	0	0	0	0	0	0	0	0	0	0	0	0	0	0	0	0	0	0	0	0	0	0	0	0	0	0	0	0	0	0	0	0	0	0	0	0	0	0	0	0	0	0	0	0	0
OTU 183	0	0	0	11	0	1	1	3	0	13	2	0	3	0	2	1	0	2	3	0	10	21	1	4	1	0	6	6	2	4	5	4	0	0	0	0	0	1	1	0	0	1	0	0	2	2	1	9	0	0
OTU 184	0	0	2	0	2	2	8	0	0	1	0	0	0	0	0	1	0	0	0	0	0	0	0	4	0	0	0	0	0	0	2	0	4	0	1	0	8	1	0	0	0	0	6	0	5	1	1	3	0	1
OTU 185	2	0	1	0	0	0	1	1	0	1	4	5	0	3	0	7	0	4	28	1	2	0	1	0	4	2	0	0	0	0	1	0	5	0	3	1	1	1	0	1	0	1	0	5	3	5	1	2	1	0
OTU 186	0	1	5	0	1	1	4	3	0	1	0	54	0	0	0	92	0	0	0	0	1	0	1	1	0	1	0	0	0	0	0	2	0	0	0	0	0	0	1	0	0	0	2	1	0	0	0	0	0	0
OTU 187	2	0	0	1	2	4	11	7	0	2	1	0	3	0	0	0	2	0	2	0	3	0	0	2	6	1	0	4	0	2	1	0	1	0	1	0	2	4	2	1	1	2	0	10	10	2	9	1	0	4
OTU 188	1	0	1	3	1	11	0	3	0	0	3	4	0	3	4	14	2	1	0	2	3	1	1	4	4	3	9	0	0	1	0	1	0	2	3	4	2	1	0	1	8	1	3	0	0	0	0	3	4	184
OTU 189	0	1	0	2	2	1	0	3	2	5	27	5	0	1	2	8	0	1	0	0	2	47	1	2	2	1	7	6	0	0	1	0	1	1	1	0	3	1	0	0	0	1	0	0	2	0	1	2	0	0
OTU 190	0	0	1	0	3	0	0	0	0	0	0	0	27	1	1	0	0	0	7	30	0	0	0	0	0	0	0	1	3	0	0	0	1	0	0	30	0	0	0	0	102	0	0	2	0	0	0	1	44	0
OTU 191	2	1	3	6	0	1	5	6	0	0	0	0	0	0	3	0	0	0	0	0	6	6	3	0	1	0	3	4	0	1	0	1	0	0	8	0	2	0	0	1	0	5	0	0	17	0	24	1	1	1
OTU 192	1	1	6	66	7	1	3	14	5	0	1	15	0	0	2	39	0	4	32	0	4	3	9	0	1	1	7	2	1	5	0	2	1	1	0	0	0	0	2	2	1	3	4	16	0	5	0	0	0	0
OTU 193	0	0	0	3	0	6	1	5	3	2	2	2	0	0	1	1	13	1	0	1	1	0	0	6	6	0	2	15	0	1	1	1	3	0	1	1	4	0	3	2	2	0	1	1	0	1	0	0	3	1
OTU 194	0	0	2	0	0	0	3	0	0	1	0	0	4	0	0	2	0	0	0	1	0	0	0	0	10	0	0	1	0	0	0	1	1	0	0	0	0	0	0	0	0	0	0	3	0	1	0	0	0	0
OTU 195	0	2	0	0	0	0	0	4	85	1	0	7	2	0	0	1	1	0	0	0	1	0	0	0	0	0	1	0	2	2	0	2	6	1	0	0	1	0	0	0	0	0	0	0	6	3	2	1	0	0
OTU 196	2	0	3	3	2	0	1	0	0	0	0	1	1	1	0	0	0	0	0	1	1	2	4	0	3	2	1	2	0	1	0	1	1	1	0	0	1	0	0	0	0	0	0	0	0	0	0	3	1	1
OTU 197	35	2	0	0	4	0	0	4	0	8	0	3	11	2	5	0	0	3	0	1	2	1	4	4	7	2	9	0	1	2	6	2	4	4	6	0	3	4	0	0	2	2	2	13	8	2	2	0	0	4
OTU 198	0	0	11	0	4	0	1	0	0	0	0	0	0	0	0	0	0	0	0	0	0	0	2	0	2	5	0	1	4	0	0	0	1	0	0	0	0	0	0	0	0	0	1	0	0	0	5	0	0	0
OTU 199	1	0	0	118	0	3	1	0	0	1	0	0	0	0	0	1	0	0	0	1	1	0	0	0	2	0	0	0	1	1	0	0	0	0	0	1	2	0	0	0	2	0	0	0	0	0	13	1	1	1
OTU 200	6	2	0	0	0	0	1	7	0	0	0	2	0	1	1	0	1	0	0	0	0	2	0	0	1	0	0	0	0	1	0	1	0	0	1	0	0	1	1	3	0	0	0	0	0	1	0	0	0	0
