	Host 1	Host 2	Host 3	Host 4	Host 5	Host 6	Host 7	Host 8	Host 9	Host 10	Host 11	Host 12	Host 13	Host 14	Host 15	Host 16	Host 17	Host 18	Host 19	Host 20	Host 21	Host 22	Host 23	Host 24	Host 25	Host 26	Host 27	Host 28	Host 29	Host 30	Host 31	Host 32	Host 33	Host 34	Host 35	Host 36	Host 37	Host 38	Host 39	Host 40	Host 41	Host 42	Host 43	Host 44	Host 45	Host 46	Host 47	Host 48	Host 49	Host 50	
OTU 1	0	3	10	0	0	5	2	6	8	4	0	5	0	0	0	2	3	0	0	0	0	0	0	1	3	4	3	0	5	3	0	0	1	2	5	0	0	2	0	7	0	6	0	0	3	3	4	0	0	0
OTU 2	2	2	0	0	1	0	0	1	0	0	0	1	0	1	0	0	1	7	2	0	0	0	0	0	0	0	0	2	0	1	0	1	2	0	0	0	1	1	0	2	1	1	1	0	0	0	0	0	0	0
OTU 3	0	2	1	0	0	0	1	0	5	2	0	17	0	0	0	0	1	1	0	6	0	0	0	1	0	0	5	0	0	0	0	0	0	0	0	0	2	0	0	0	0	0	0	1	0	5	0	0	1	2
OTU 4	0	0	0	0	0	0	0	0	0	0	0	0	0	0	0	0	0	0	0	0	0	0	0	0	0	0	0	0	0	0	0	0	0	0	0	0	0	0	0	0	0	0	0	0	0	0	0	0	0	0
OTU 5	0	0	5	2	0	50	11	10	0	12	2	29	1	7	29	18	18	0	12	17	2	3	0	17	5	8	3	0	20	12	12	8	0	15	0	10	0	23	3	28	9	0	3	10	10	0	9	0	10	4
OTU 6	0	2	1	0	0	0	0	1	0	0	0	1	0	0	0	1	0	2	0	1	1	0	2	1	0	0	0	1	1	3	2	5	0	0	0	2	0	0	0	6	0	1	23	0	0	0	1	0	0	0
OTU 7	3	1	8	1	7	4	2	3	10	1	11	1	2	71	0	9	6	1	0	2	7	1	0	5	2	0	2	2	160	1	3	4	1	2	7	2	2	1	1	4	0	0	2	3	1	24	7	11	2	4
OTU 8	1	0	1	3	0	0	19	1	4	0	3	1	0	1	5	3	10	2	3	0	0	9	0	2	2	0	29	1	0	0	53	13	1	2	8	2	1	0	0	3	4	4	0	4	4	5	54	4	0	9
OTU 9	0	1	6	0	1	0	107	0	0	0	0	7	0	0	0	0	0	0	0	1	2	4	1	0	0	0	0	2	0	0	0	4	0	0	0	3	2	0	0	2	0	0	1	0	0	22	13	6	0	0
OTU 10	0	0	1	1	1	0	0	0	0	2	0	0	1	0	0	0	0	0	0	0	0	0	0	0	0	1	0	5	1	0	0	0	2	0	0	0	1	0	1	0	0	0	0	0	0	2	0	0	0	4
OTU 11	2	0	1	0	0	5	0	1	0	1	2	2	0	1	0	0	0	12	0	3	0	0	1	0	1	0	1	1	1	5	1	0	5	0	10	2	0	0	3	2	3	6	1	0	4	0	1	13	1	0
OTU 12	7	3	2	2	0	1	0	4	1	0	8	0	2	0	2	0	5	4	5	3	0	4	0	0	0	0	0	0	1	1	5	1	0	0	0	0	15	2	1	4	6	2	0	3	1	5	4	1	0	1
OTU 13	0	0	0	0	0	0	0	0	0	0	0	0	0	0	0	0	0	0	0	0	0	0	0	0	2	0	0	0	0	0	0	0	0	0	0	0	0	0	0	0	0	0	0	0	0	0	0	0	0	0
OTU 14	0	0	0	0	0	2	0	0	3	0	0	2	2	0	0	0	1	0	0	1	0	2	1	0	0	0	0	2	0	0	2	0	0	0	1	0	0	0	0	0	0	0	0	0	1	1	0	0	0	1
OTU 15	0	0	0	0	1	0	0	0	0	0	0	0	0	0	0	0	1	0	0	5	0	0	0	0	0	0	0	0	0	1	0	0	0	0	0	0	0	0	0	0	0	0	0	0	0	0	0	1	0	0
OTU 16	0	0	0	0	0	0	0	0	0	0	0	0	0	0	0	0	0	0	0	0	0	0	0	0	0	0	0	0	0	0	0	0	0	0	0	0	0	0	0	1	0	0	0	0	0	0	0	0	0	0
OTU 17	1	0	2	0	0	5	0	0	0	0	0	0	3	0	1	0	4	0	1	7	0	0	0	9	1	0	1	2	0	0	0	1	4	1	13	2	0	0	0	0	3	1	0	2	8	0	0	0	0	0
OTU 18	1	1	0	5	13	0	0	2	2	1	2	1	1	0	0	2	1	2	0	0	0	8	2	0	1	0	1	1	3	0	0	0	0	0	10	0	3	0	1	5	9	4	1	0	5	5	1	1	0	16
OTU 19	0	0	0	0	0	3	0	0	0	0	0	0	0	0	0	0	0	0	0	0	0	0	0	0	0	0	0	0	0	0	0	0	0	0	0	0	0	0	0	0	0	0	0	0	0	0	0	0	0	0
OTU 20	1	4	3	3	1	1	1	1	3	1	0	2	0	3	0	5	2	10	0	9	0	4	5	5	1	1	0	0	1	0	9	2	2	1	3	0	0	0	3	0	2	0	0	0	0	2	1	10	0	0
OTU 21	0	0	3	6	0	1	0	0	0	0	3	8	1	1	1	27	0	1	0	0	0	0	5	0	1	169	0	0	1	0	0	3	2	15	5	1	0	1	3	1	1	0	1	2	0	1	2	1	0	0
OTU 22	5	1	5	1	2	0	1	2	9	1	0	0	1	0	0	0	0	0	0	0	1	7	0	2	2	0	1	10	0	1	4	3	0	0	4	0	1	0	2	0	2	0	0	1	7	3	2	1	0	0
OTU 23	1	0	0	0	8	0	1	0	2	0	0	0	0	0	0	38	0	0	0	1	0	0	0	0	0	7	1	0	1	1	0	3	0	20	0	0	0	0	0	1	0	3	0	2	3	1	0	0	0	0
OTU 24	3	0	0	0	0	0	0	0	0	0	0	9	0	0	1	0	0	0	0	0	0	2	3	0	1	0	0	0	1	3	0	0	1	0	0	0	0	0	0	0	0	0	0	0	0	2	3	0	0	0
OTU 25	0	16	0	0	0	0	9	0	0	15	0	0	0	0	0	0	0	0	0	0	0	0	0	0	0	0	4	0	0	0	0	0	0	0	0	0	15	1	0	0	0	0	0	0	0	0	0	0	0	0
OTU 26	0	0	0	0	0	0	0	0	1	0	0	0	0	0	0	0	0	1	0	0	0	0	0	1	0	0	0	0	0	1	0	0	0	0	0	1	0	0	2	2	1	0	0	0	0	0	0	0	0	0
OTU 27	0	0	0	0	0	0	0	0	0	0	0	0	0	0	0	0	0	0	0	0	2	0	0	0	0	0	0	0	0	0	0	0	0	0	0	0	0	0	0	0	4	0	0	0	0	0	0	0	0	1
OTU 28	4	0	47	2	9	1	0	3	21	4	1	0	0	0	0	1	13	3	2	1	10	1	0	0	4	0	2	0	1	0	1	1	5	0	3	1	0	0	2	2	3	5	2	9	1	115	53	1	0	0
OTU 29	7	2	1	1	5	2	3	0	1	0	1	0	0	0	1	0	0	3	0	6	5	4	3	1	0	0	0	0	1	0	0	1	1	1	1	2	2	0	2	1	0	3	3	0	0	0	0	2	0	0
OTU 30	0	0	0	0	0	0	0	0	0	0	0	0	0	0	0	0	0	0	0	0	0	0	0	0	0	0	0	0	0	0	0	0	0	0	0	0	0	0	0	0	0	0	0	0	0	0	0	0	0	0
OTU 31	0	1	0	0	0	0	0	5	2	0	0	5	0	2	1	2	0	2	0	3	0	0	1	0	92	0	0	0	0	0	0	3	0	0	0	0	0	0	0	6	1	2	41	0	0	3	1	0	0	75
OTU 32	2	1	0	1	11	0	0	1	4	0	1	0	3	0	0	4	3	3	0	1	2	0	3	0	6	1	0	0	1	0	0	2	8	4	3	1	0	0	1	4	0	2	2	2	0	1	1	1	0	0
OTU 33	0	0	0	0	0	0	0	0	0	0	0	1	0	0	0	0	0	1	0	0	0	0	0	0	0	0	0	0	0	0	0	0	0	0	0	0	0	0	0	0	0	0	0	0	0	0	0	0	0	0
OTU 34	8	5	0	0	4	0	2	3	2	7	3	0	0	0	0	1	1	5	0	0	0	1	1	13	0	0	2	82	0	0	2	2	0	0	1	0	9	0	0	0	0	0	0	0	1	0	1	0	0	3
OTU 35	0	1	3	1	0	1	0	0	0	1	1	5	0	2	0	1	0	0	1	3	2	6	0	0	1	0	0	0	1	0	0	3	0	0	0	0	1	1	0	0	0	0	0	0	0	0	1	1	0	0
OTU 36	0	2	0	2	1	2	1	0	0	1	0	1	1	0	0	2	6	0	0	0	1	0	1	19	1	0	1	0	0	0	19	11	2	1	4	0	2	0	1	0	0	0	0	0	0	4	2	0	0	1
OTU 37	0	0	0	0	0	0	3	0	2	0	0	0	0	0	0	0	0	0	0	0	0	1	0	0	0	1	7	0	0	0	0	0	0	0	0	2	0	0	0	7	0	2	0	1	0	0	0	0	0	0
OTU 38	1	9	1	4	2	2	0	0	1	1	2	0	1	0	2	1	0	1	0	3	0	0	4	1	1	0	0	1	0	0	3	2	4	1	5	0	3	1	1	2	1	3	0	0	11	1	0	0	0	0
OTU 39	0	0	0	0	0	0	0	0	0	0	0	1	0	0	0	0	0	0	0	0	0	0	0	0	0	0	0	0	0	0	0	4	0	0	0	0	1	0	1	0	0	0	0	0	0	0	0	0	0	0
OTU 40	18	0	0	15	7	0	1	0	0	5	0	0	1	0	4	1	2	7	2	1	2	0	4	5	0	1	1	7	1	0	0	0	1	3	0	2	0	2	0	2	2	0	0	0	0	0	0	0	0	4
OTU 41	0	2	0	0	2	1	56	0	0	2	1	1	0	2	0	0	0	0	0	0	1	0	0	0	0	0	69	0	2	2	0	0	0	0	1	0	1	1	0	0	0	0	0	2	2	0	0	2	0	0
OTU 42	2	1	0	0	0	1	0	0	5	0	0	0	0	0	0	0	0	0	0	3	2	0	0	0	0	0	0	0	0	0	0	1	0	0	0	0	0	0	0	0	0	1	0	0	0	0	0	0	0	0
OTU 43	0	0	1	0	0	0	0	0	0	0	0	0	0	0	0	0	0	0	0	0	0	0	0	0	0	0	0	2	0	0	0	0	0	0	0	0	0	0	0	1	0	0	0	0	0	0	0	0	0	0
OTU 44	0	0	0	0	3	0	0	0	0	0	0	0	0	0	2	0	1	1	0	0	0	0	0	0	0	0	0	0	0	0	1	1	2	0	1	0	0	0	0	0	0	0	0	0	0	0	0	0	0	0
OTU 45	15	1	0	8	11	2	3	7	0	0	10	0	1	3	4	2	3	2	7	2	3	3	2	0	5	1	2	0	0	0	4	8	3	1	1	6	0	3	0	0	7	6	4	0	1	0	1	2	2	0
OTU 46	3	0	0	1	2	31	0	0	2	0	0	1	2	48	5	2	1	8	0	5	0	4	4	6	0	1	0	3	1	0	3	3	48	0	3	0	0	0	5	0	1	0	1	2	9	0	0	1	0	0
OTU 47	7	0	1	0	0	0	0	0	0	0	0	0	0	0	0	0	0	0	0	0	1	0	0	0	0	0	0	0	0	0	0	0	0	0	1	0	0	0	0	0	2	0	0	0	0	1	2	0	0	0
OTU 48	4	4	0	1	3	2	1	2	1	4	1	6	6	0	2	0	0	0	2	1	0	2	2	15	1	1	0	1	0	104	0	1	0	0	0	0	0	0	2	3	0	1	0	1	1	1	1	1	2	3
OTU 49	0	1	1	0	0	0	0	0	0	0	0	0	0	0	0	0	1	1	2	1	0	2	0	0	0	0	6	0	0	0	0	0	1	0	2	0	1	0	1	0	0	0	0	0	0	1	0	0	0	0
OTU 50	4	7	1	1	1	2	1	9	0	0	4	1	0	2	0	5	0	0	0	2	10	0	4	0	0	0	0	0	5	3	0	3	0	1	0	0	0	0	2	4	8	6	4	2	5	2	0	2	0	0
OTU 51	0	0	0	4	2	6	0	1	0	0	0	0	0	0	0	0	2	0	0	1	2	0	1	0	3	0	0	0	0	2	0	0	1	0	5	0	0	2	0	0	0	2	1	3	0	0	0	1	4	0
OTU 52	1	2	0	1	8	4	0	4	3	1	6	12	0	0	0	1	0	5	4	1	9	3	3	4	4	1	0	1	0	7	2	6	8	0	7	0	4	2	29	1	1	2	6	0	3	0	0	5	2	0
OTU 53	0	0	0	0	0	0	0	0	0	0	1	0	0	0	0	0	0	0	0	0	0	0	0	0	0	0	0	0	0	0	0	0	0	0	0	0	0	0	0	0	0	0	0	0	0	0	0	0	0	0
OTU 54	5	5	0	1	4	6	1	0	4	1	15	10	0	0	5	4	11	0	0	0	3	7	4	3	0	17	2	2	1	13	1	0	0	4	7	0	0	4	1	0	0	3	1	2	0	2	0	7	8	3
OTU 55	0	0	0	0	0	0	0	0	0	0	0	0	0	0	0	0	0	0	0	0	0	0	0	0	4	0	0	0	0	0	0	0	0	0	0	0	0	0	0	0	0	0	1	0	0	0	0	0	0	6
OTU 56	0	0	0	0	0	0	0	1	0	0	0	0	0	0	0	0	1	0	0	0	3	0	0	0	0	0	0	4	0	1	3	0	0	0	0	2	0	2	1	4	0	0	0	0	0	0	0	2	0	1
OTU 57	8	4	8	4	11	60	4	14	1	9	1	16	1	8	8	5	4	0	1	1	11	8	4	3	6	0	6	1	3	46	47	1	17	7	18	5	2	0	2	10	8	3	0	1	1	3	0	7	2	2
OTU 58	0	0	4	2	3	0	0	0	0	0	1	1	0	0	1	0	0	1	5	0	1	0	0	8	0	0	0	1	1	0	2	1	2	0	0	0	0	5	2	0	5	0	2	0	1	2	5	0	2	5
OTU 59	1	0	0	0	0	1	1	0	4	1	6	0	0	0	1	1	17	2	1	8	0	1	9	3	0	0	4	0	1	0	0	1	3	0	2	1	0	0	1	4	0	1	0	0	11	0	0	0	0	1
OTU 60	1	1	76	2	2	0	0	4	2	0	3	2	1	1	58	2	3	5	0	5	8	17	0	2	56	0	0	1	2	1	0	2	1	1	5	0	0	0	1	4	81	5	11	1	8	2	25	2	0	29
OTU 61	13	6	1	0	2	0	3	2	0	2	1	0	5	0	0	0	0	1	0	5	0	7	0	0	2	0	1	3	0	0	0	0	2	1	2	0	1	63	0	3	0	0	0	7	0	0	3	3	0	3
OTU 62	0	0	0	0	2	0	0	1	2	0	0	0	0	0	0	0	0	0	0	0	0	0	0	0	0	0	0	1	1	0	2	0	0	0	0	0	0	0	0	0	0	0	0	0	0	0	0	0	0	0
OTU 63	6	2	0	25	3	2	0	0	1	3	7	1	2	0	0	64	2	1	1	0	1	0	62	0	0	17	0	0	0	0	0	67	0	28	4	3	1	0	0	4	0	0	0	0	0	1	2	0	0	1
OTU 64	3	0	2	1	0	0	0	10	3	2	63	1	0	0	1	0	2	0	1	5	4	1	0	5	2	0	0	2	4	2	1	4	0	1	1	1	2	1	0	1	2	1	2	1	0	7	1	0	1	0
OTU 65	0	0	0	0	6	0	1	0	0	0	0	0	0	0	0	0	0	0	0	0	0	1	0	0	0	0	0	0	0	0	0	0	0	0	0	0	0	0	0	0	0	1	0	0	0	0	0	1	0	0
OTU 66	3	0	1	5	0	1	0	0	29	0	0	5	0	0	0	0	16	7	0	2	6	2	12	6	1	0	2	2	0	2	0	1	0	0	0	0	1	2	0	1	0	5	0	0	2	0	0	0	0	2
OTU 67	0	3	0	1	0	2	1	1	0	0	0	2	5	0	0	0	2	2	5	13	0	5	1	5	2	0	0	0	1	1	0	1	0	0	0	0	0	0	2	0	0	1	0	4	27	1	2	2	0	1
OTU 68	1	0	0	3	4	0	0	7	2	1	7	3	0	2	1	1	1	0	0	0	0	0	0	0	2	1	0	0	1	0	1	1	0	3	0	2	0	0	1	7	1	0	0	0	4	1	2	1	0	0
OTU 69	1	0	1	1	1	0	0	2	0	0	0	4	0	4	5	1	0	0	2	0	80	3	6	0	0	1	0	4	1	0	0	0	2	0	5	0	0	1	3	2	0	1	5	0	1	2	2	7	1	0
OTU 70	1	0	0	0	0	0	0	1	1	0	4	0	0	0	4	0	3	6	0	0	1	0	0	1	1	0	0	0	0	0	0	0	0	0	0	0	0	0	0	0	0	3	0	0	0	0	0	2	0	0
OTU 71	1	0	2	0	14	0	0	0	1	0	0	0	1	0	0	0	0	0	2	1	0	0	0	0	1	0	0	0	0	2	1	0	0	0	0	0	0	0	0	1	1	0	0	0	0	0	0	0	0	0
OTU 72	1	0	1	0	1	36	0	4	0	2	2	6	1	2	0	3	7	5	4	7	2	1	0	1	1	2	0	0	1	2	1	1	5	0	3	4	0	0	0	5	6	0	0	1	1	0	0	4	0	4
OTU 73	1	1	0	2	2	4	1	2	5	1	0	0	4	0	0	12	0	0	143	1	0	0	3	2	2	2	1	0	7	0	1	1	3	10	9	1	1	3	1	1	5	1	0	3	0	0	0	0	0	0
OTU 74	0	0	1	0	6	0	0	3	0	0	1	4	2	0	1	5	0	20	0	0	3	0	1	0	0	4	2	2	0	1	2	0	0	6	0	19	0	1	0	2	0	0	4	0	1	2	0	0	0	0
OTU 75	0	2	1	168	2	3	2	4	0	0	5	0	4	4	2	1	2	0	1	2	6	1	1	2	0	29	6	0	3	0	0	1	0	53	3	3	0	2	1	1	3	7	0	0	1	7	2	0	1	1
OTU 76	0	0	0	1	0	8	0	0	0	1	0	0	0	0	0	0	0	0	0	0	0	0	0	0	0	0	0	0	0	1	4	4	5	0	7	0	0	0	0	1	1	0	0	0	0	0	0	0	0	0
OTU 77	8	3	0	1	1	1	0	1	2	0	0	0	0	0	0	3	0	0	0	1	0	1	9	3	1	0	2	4	0	1	7	2	0	1	0	1	1	1	1	4	2	10	0	0	1	0	1	8	2	1
OTU 78	0	2	0	2	7	3	6	0	2	1	2	0	0	0	0	2	0	12	2	1	2	1	5	0	0	0	2	1	1	2	1	0	0	2	3	0	1	0	1	3	0	0	0	0	1	0	1	0	1	0
OTU 79	11	13	5	2	3	10	2	14	7	2	48	8	3	0	0	6	3	0	2	0	8	14	10	0	20	2	4	5	4	10	2	9	14	1	29	25	6	4	4	44	12	8	7	2	4	25	10	10	6	5
OTU 80	3	3	3	7	4	0	3	3	1	4	2	0	1	0	2	1	0	6	7	0	2	6	10	0	1	1	2	0	0	0	0	3	0	0	2	2	0	10	1	2	1	2	10	0	14	4	0	1	1	2
OTU 81	2	3	0	2	3	0	0	2	3	2	1	0	0	43	2	1	0	7	1	0	0	0	1	0	3	1	1	2	5	0	2	11	1	1	1	85	0	3	0	1	0	0	0	0	2	0	0	12	119	0
OTU 82	13	1	0	0	0	0	0	5	0	0	1	3	0	1	4	2	1	8	0	1	0	1	7	1	2	2	1	3	6	0	1	0	0	2	0	0	0	11	7	2	1	0	1	1	3	1	1	0	20	0
OTU 83	0	0	0	0	0	0	0	0	0	0	0	0	0	0	0	1	7	0	0	1	0	0	0	0	0	0	0	0	1	0	0	0	0	2	0	0	0	0	0	0	0	0	0	0	0	0	0	2	0	2
OTU 84	0	1	1	0	1	2	0	3	1	1	0	2	1	0	2	0	0	0	0	0	0	0	7	4	0	0	3	0	0	0	0	0	2	0	4	2	1	0	0	1	0	0	0	3	0	0	0	0	1	0
OTU 85	0	2	3	0	0	0	0	0	1	3	0	0	0	9	0	1	0	0	2	1	4	2	0	0	0	1	0	0	23	0	2	0	0	0	0	0	1	0	0	1	0	0	0	0	0	3	1	0	0	1
OTU 86	0	2	0	0	0	0	1	0	0	0	1	0	0	0	0	0	0	0	0	0	0	0	0	0	0	0	0	0	0	0	0	0	0	0	0	0	0	0	0	0	0	0	0	1	0	0	0	0	0	0
OTU 87	11	6	0	0	0	0	1	0	0	3	0	0	0	0	2	0	0	4	0	0	0	0	0	0	0	0	2	0	0	0	0	0	0	0	0	0	4	0	0	0	0	0	0	1	0	0	0	1	0	0
OTU 88	0	1	0	0	0	0	0	0	4	0	0	0	0	0	0	0	0	1	0	0	1	0	0	0	0	0	0	2	0	0	0	0	0	0	0	1	0	39	0	0	0	0	0	0	0	0	0	0	31	0
OTU 89	24	0	0	0	0	2	0	1	0	0	2	3	0	0	0	0	0	14	0	0	1	2	0	0	0	0	0	0	1	1	1	0	1	0	0	0	0	0	0	1	0	0	0	0	0	0	1	1	0	0
OTU 90	0	0	0	0	0	0	0	1	0	0	0	0	0	0	0	0	0	0	0	0	15	0	0	0	0	0	0	0	0	0	0	0	0	0	0	0	0	0	0	0	7	0	0	0	0	0	0	1	0	0
OTU 91	0	0	0	0	0	0	0	0	0	0	0	0	0	0	0	0	0	0	0	0	0	1	0	0	0	0	0	0	0	0	0	0	1	0	0	0	0	0	0	0	0	0	0	1	0	0	0	0	0	0
OTU 92	0	0	0	0	0	2	0	0	2	0	0	0	0	0	1	1	0	2	0	0	0	4	0	1	0	0	0	0	1	0	0	0	1	0	1	0	0	0	0	3	0	0	0	1	0	2	0	5	0	0
OTU 93	1	0	0	0	0	0	0	0	1	0	0	0	0	0	0	0	0	2	0	0	0	0	0	0	0	1	0	0	0	0	0	0	0	0	0	1	0	1	0	3	0	0	0	0	0	0	0	2	0	0
OTU 94	2	1	0	0	0	0	0	3	1	0	6	0	2	2	0	11	1	2	0	9	1	0	0	0	2	0	1	1	0	0	0	0	1	1	0	5	0	2	0	4	0	1	1	2	5	1	0	0	0	7
OTU 95	0	0	0	0	1	3	2	19	0	0	0	0	0	8	8	1	0	0	0	0	0	1	3	0	11	2	1	0	10	1	0	0	0	3	3	0	0	0	0	0	15	1	5	0	3	0	0	0	0	3
OTU 96	0	0	0	0	0	0	0	0	0	0	0	0	0	0	0	0	0	5	0	2	0	0	1	0	0	0	0	0	0	0	1	0	0	0	2	0	0	0	0	0	1	0	0	0	0	0	0	0	0	0
OTU 97	0	0	0	0	0	0	0	0	0	0	0	0	0	0	0	0	0	0	0	0	0	0	0	1	0	0	0	0	0	0	0	0	2	0	0	0	0	0	0	0	0	0	0	0	0	0	0	2	0	0
OTU 98	0	1	0	0	5	0	2	4	4	0	1	0	0	0	0	0	0	0	0	2	2	0	1	0	0	2	0	1	0	0	0	1	0	0	0	3	0	97	0	3	0	3	0	0	1	0	0	2	0	0
OTU 99	3	1	0	5	8	1	0	18	4	0	5	7	0	1	1	6	1	0	0	2	1	89	0	5	1	4	1	3	7	5	0	5	5	4	3	0	0	10	3	0	4	2	1	1	0	0	0	2	0	0
OTU 100	5	5	0	3	1	1	3	1	3	5	0	0	1	0	2	0	0	1	0	2	1	0	4	3	0	0	2	1	7	0	5	2	0	1	0	1	0	1	2	0	6	0	0	0	0	1	0	0	0	2
OTU 101	0	0	0	1	0	0	0	0	0	0	0	0	0	0	0	0	0	0	0	0	1	0	0	0	0	0	0	0	0	0	0	0	0	0	0	0	0	0	0	0	0	0	0	0	0	0	0	4	0	0
OTU 102	0	1	0	0	0	0	0	2	0	0	1	1	0	0	0	1	10	0	0	0	0	2	0	0	1	0	0	0	0	0	0	0	0	0	0	0	0	4	0	0	0	0	0	0	0	0	0	3	0	3
OTU 103	1	5	0	0	0	0	0	2	0	4	0	0	0	1	0	0	2	0	0	1	2	1	0	1	1	1	3	0	1	2	0	0	0	0	0	0	1	0	1	0	1	86	0	0	0	0	1	2	0	1
OTU 104	2	4	0	0	2	6	0	4	0	0	0	33	5	2	0	6	3	2	0	0	8	3	1	4	1	0	1	1	3	10	3	1	2	1	8	0	176	1	0	0	0	0	0	0	1	0	1	5	1	2
OTU 105	0	0	0	0	0	0	0	1	0	0	0	4	0	0	0	0	0	0	1	0	2	0	2	0	0	0	0	0	1	1	0	0	0	0	0	0	0	0	0	0	3	0	0	1	0	0	0	0	0	0
OTU 106	0	0	0	0	0	0	0	0	1	1	0	2	0	0	0	1	0	0	0	0	0	0	0	0	0	1	0	0	1	0	0	0	81	0	0	0	0	0	0	0	0	0	0	0	0	0	0	0	0	0
OTU 107	2	0	0	0	0	0	0	0	11	0	0	2	0	0	0	0	0	3	1	0	0	0	0	3	0	0	0	1	0	1	0	1	0	0	0	1	0	1	0	0	0	1	0	0	0	0	0	1	0	0
OTU 108	1	2	0	0	0	0	1	1	0	5	2	0	1	0	0	2	11	0	1	3	3	0	0	5	0	0	4	0	0	0	1	0	0	3	1	0	3	0	0	0	0	0	2	4	0	5	1	0	0	6
OTU 109	0	0	0	0	2	0	0	0	1	0	0	0	0	0	0	0	0	0	0	0	0	0	0	0	0	0	0	0	0	0	0	0	0	0	0	0	0	0	0	0	0	0	0	0	0	0	0	0	0	0
OTU 110	14	1	1	1	0	3	0	1	1	0	4	0	1	0	2	0	1	2	0	0	4	8	0	0	1	0	5	1	0	3	0	1	2	0	4	0	2	1	1	0	1	0	0	3	1	0	1	7	0	0
OTU 111	0	0	0	0	0	0	0	0	0	0	0	0	0	0	0	3	0	0	0	0	0	0	0	2	0	0	0	3	0	0	0	0	0	1	0	0	0	0	0	0	0	2	0	0	0	0	0	0	0	0
OTU 112	0	0	0	0	11	0	0	0	0	0	2	1	0	0	0	0	0	1	0	0	7	0	3	0	0	0	0	0	0	0	0	2	0	0	1	0	0	0	2	0	0	6	0	0	0	0	0	0	0	0
OTU 113	0	0	0	0	0	0	1	4	0	3	0	0	0	0	0	0	0	0	0	0	0	0	0	0	2	0	2	0	0	0	0	0	0	0	0	3	0	0	0	0	0	0	0	0	0	0	0	0	0	0
OTU 114	0	3	0	4	5	1	4	2	19	3	5	1	1	0	6	2	45	2	2	5	3	4	8	0	8	1	2	0	0	0	1	7	0	0	0	3	0	12	7	6	4	0	2	0	1	2	0	3	1	3
OTU 115	4	2	110	0	0	7	0	0	0	3	1	5	126	0	0	0	3	0	3	1	0	1	6	3	2	0	2	0	0	7	1	1	1	0	2	1	6	1	0	6	3	0	2	1	0	1	0	6	2	8
OTU 116	0	0	1	0	1	1	1	2	3	126	0	8	2	0	0	1	0	1	0	6	11	0	1	1	6	0	1	54	0	1	1	3	0	0	4	0	2	0	2	0	5	0	2	1	0	0	1	2	0	0
OTU 117	0	0	2	3	4	1	1	2	5	1	0	0	0	0	0	1	1	1	0	1	2	9	0	1	0	8	1	0	0	0	0	1	0	0	0	3	0	0	0	3	0	2	2	0	2	5	4	1	1	0
OTU 118	0	0	0	0	0	0	0	0	0	0	0	1	0	0	0	0	0	1	0	0	0	0	1	0	0	0	0	0	0	0	0	0	0	0	0	0	0	0	46	0	0	0	0	0	0	0	0	0	0	0
OTU 119	1	1	3	0	1	0	0	1	0	1	0	2	3	2	1	1	6	14	1	1	0	1	1	0	2	0	1	0	0	1	2	1	0	2	0	17	0	2	1	1	0	0	0	0	4	1	0	0	0	0
OTU 120	3	1	0	0	1	0	1	1	2	1	0	0	3	0	2	0	0	0	0	0	0	0	0	1	4	0	3	0	0	0	0	0	0	0	0	0	2	1	0	1	1	0	1	5	0	0	0	0	3	0
OTU 121	13	1	0	2	0	0	32	0	2	2	1	0	0	0	1	1	0	5	0	1	1	0	0	2	1	0	2	1	0	1	0	4	0	2	0	0	1	1	0	0	0	0	1	1	0	0	0	1	0	1
OTU 122	0	4	0	0	7	0	3	1	2	22	1	0	0	0	60	2	1	0	0	1	10	6	0	0	2	0	1	0	2	0	0	1	6	1	3	0	0	0	0	1	5	1	1	1	1	1	0	2	0	3
OTU 123	1	5	1	1	33	5	32	8	13	0	8	3	50	5	1	2	10	2	1	1	18	2	6	10	3	1	64	2	3	5	8	1	6	0	16	7	2	6	14	13	2	9	1	83	5	5	1	24	5	4
OTU 124	0	0	0	0	0	0	1	0	0	0	2	1	0	0	0	0	0	0	0	0	0	2	0	0	0	0	0	3	0	0	0	1	0	0	0	0	0	0	0	0	0	0	0	0	0	0	0	2	0	0
OTU 125	15	8	0	3	4	2	10	9	4	1	18	11	55	0	17	4	11	11	2	12	6	1	1	2	4	0	6	4	1	4	7	3	0	5	1	23	5	15	130	45	9	17	1	83	7	3	0	4	35	7
OTU 126	0	0	0	0	1	0	0	4	0	0	5	0	0	0	0	0	0	0	0	1	0	0	0	0	2	0	0	1	0	0	0	0	0	0	0	4	0	0	0	3	2	7	0	0	0	0	0	1	0	0
OTU 127	0	2	0	0	0	0	1	0	0	1	1	8	1	0	0	2	1	0	2	0	0	0	2	0	0	0	0	0	0	3	1	0	0	0	2	1	1	0	0	2	0	0	0	0	0	0	1	4	0	0
OTU 128	0	17	0	4	17	5	2	2	8	12	10	1	8	4	4	8	0	23	19	1	3	7	7	4	4	2	2	9	6	1	11	13	4	3	7	2	15	2	1	2	10	13	1	25	5	6	2	18	0	2
OTU 129	0	0	0	0	1	0	1	2	0	0	0	0	0	23	0	9	0	0	0	0	0	0	0	0	0	2	4	0	5	0	0	0	0	10	0	0	0	0	0	0	1	0	4	0	2	0	0	1	0	5
OTU 130	4	2	1	1	3	0	0	4	1	0	4	2	0	2	0	0	0	0	3	0	1	0	0	0	0	0	0	3	0	0	1	5	0	0	0	0	0	0	1	1	0	15	0	2	0	1	0	3	1	0
OTU 131	0	0	2	0	0	3	0	5	4	0	1	26	1	4	1	4	1	0	0	0	0	1	1	0	0	2	3	3	0	23	1	0	6	0	2	1	2	0	0	0	4	0	1	0	0	2	2	14	0	0
OTU 132	0	0	0	0	0	0	0	0	1	1	1	0	0	0	0	0	1	0	0	0	0	0	1	4	1	0	0	0	0	0	3	0	0	0	0	2	0	0	0	4	0	4	1	2	0	3	1	11	0	0
OTU 133	2	0	0	0	0	0	0	0	0	0	0	0	2	2	0	0	0	0	0	0	0	0	0	0	0	0	0	0	0	0	0	0	0	0	0	0	0	0	0	0	0	0	0	0	4	0	0	1	0	0
OTU 134	0	3	1	0	1	1	0	1	2	0	15	3	0	0	4	0	0	1	2	13	1	1	0	14	0	0	0	1	2	0	4	0	0	0	0	0	0	2	0	0	2	10	0	0	1	0	0	0	0	1
OTU 135	5	0	1	1	0	0	0	0	4	0	1	1	3	0	0	1	0	1	1	4	1	0	0	2	0	0	0	0	1	1	2	0	0	1	2	0	0	0	2	0	1	5	0	0	1	4	1	1	0	0
OTU 136	0	0	0	0	0	5	0	0	2	0	0	5	0	1	0	0	3	0	0	16	0	0	0	2	0	0	0	0	0	0	0	0	0	0	3	0	0	0	0	0	0	0	0	2	29	0	0	0	0	2
OTU 137	0	0	4	3	5	0	0	0	0	0	1	3	0	0	0	0	0	0	0	0	0	0	0	0	0	1	0	1	0	0	0	0	0	0	0	0	0	0	2	0	0	0	1	2	0	6	2	0	32	0
OTU 138	1	1	3	0	2	0	0	0	8	0	0	1	1	0	0	0	1	0	0	2	0	0	0	0	0	0	0	0	0	0	0	1	1	0	3	0	0	0	0	0	0	0	0	0	0	3	0	0	0	0
OTU 139	12	13	0	3	8	3	0	8	12	5	0	3	1	4	1	2	0	4	2	1	1	25	2	50	3	0	6	4	3	2	42	5	2	1	7	1	4	0	0	0	1	4	5	2	2	1	103	5	4	3
OTU 140	7	1	18	4	4	1	1	9	4	1	2	15	55	2	2	11	2	0	3	0	6	4	12	9	1	7	2	6	5	3	1	3	5	3	6	4	0	0	1	9	0	6	0	55	2	9	2	5	0	3
OTU 141	0	0	0	0	0	0	0	0	0	0	0	0	0	0	0	0	0	0	0	0	0	0	0	1	0	0	0	0	0	0	0	0	0	0	0	0	0	0	0	0	0	0	0	0	0	0	0	0	0	0
OTU 142	0	0	0	0	0	0	0	0	0	0	0	0	0	0	0	0	0	0	0	0	0	0	0	0	0	0	0	0	0	0	0	0	0	0	0	0	0	0	0	0	0	0	0	1	0	0	0	2	0	1
OTU 143	0	0	0	0	0	0	0	0	0	0	2	0	0	0	0	0	2	2	0	0	0	0	2	0	0	0	0	0	0	0	0	0	0	0	0	0	0	0	0	0	0	0	0	0	0	0	0	0	0	0
OTU 144	7	0	0	0	0	0	0	1	0	0	0	0	0	0	0	0	0	0	0	0	0	0	0	0	0	0	0	0	2	0	0	0	0	0	0	0	0	0	0	0	1	0	1	0	0	0	0	0	1	0
OTU 145	4	43	1	0	1	0	7	5	1	25	0	2	3	1	1	0	0	36	3	1	2	7	0	3	0	0	29	2	0	3	0	0	0	0	0	0	22	1	1	0	1	1	1	2	5	0	0	14	61	1
OTU 146	3	3	1	0	0	0	0	5	3	1	0	0	0	0	0	1	0	1	7	0	2	2	6	4	4	0	0	70	2	37	0	0	0	3	0	1	2	2	3	2	0	2	2	0	1	3	4	1	2	1
OTU 147	0	1	0	1	0	2	0	1	0	0	0	1	0	0	0	0	3	0	1	1	0	0	0	0	0	0	0	3	0	0	0	2	0	0	0	0	0	0	0	0	1	0	0	4	0	0	0	0	0	0
OTU 148	0	2	1	0	5	0	0	3	0	0	0	0	0	2	4	0	0	0	0	0	8	0	1	1	0	62	0	1	1	0	0	2	0	122	0	0	0	0	0	2	0	6	0	0	4	1	0	14	3	0
OTU 149	4	0	0	0	0	0	0	0	0	0	0	2	0	0	0	0	0	3	0	0	3	0	0	1	0	0	0	1	0	0	0	0	1	2	0	0	0	0	0	0	0	0	0	0	1	0	1	1	0	0
OTU 150	0	0	0	0	1	0	0	0	0	0	0	1	0	0	0	0	0	0	0	0	0	6	0	7	0	0	0	0	0	0	0	0	0	0	0	1	0	0	4	2	0	2	0	1	0	0	13	0	0	0
OTU 151	0	1	0	1	5	1	1	0	0	0	2	4	0	0	0	0	1	0	0	2	0	0	0	0	0	0	0	2	0	4	4	0	0	0	1	2	0	2	1	0	0	0	2	0	1	0	0	0	0	0
OTU 152	1	2	0	0	4	5	0	18	2	1	2	0	0	2	2	5	1	4	4	1	0	0	0	0	3	1	3	2	9	0	2	0	2	2	1	1	0	1	0	7	5	3	6	0	0	1	2	0	0	2
OTU 153	0	0	0	0	0	0	0	0	0	0	0	0	0	0	0	0	0	0	0	0	0	0	0	0	0	0	0	0	0	0	0	0	0	0	0	0	0	1	0	0	0	0	0	0	1	0	0	0	0	0
OTU 154	0	0	0	0	0	0	0	0	0	0	0	0	0	0	12	0	0	0	0	0	0	0	0	0	0	0	0	0	0	0	1	0	0	0	1	0	0	0	0	0	0	2	0	0	1	0	0	0	0	0
OTU 155	1	1	3	28	0	0	0	3	0	0	2	0	0	1	2	0	0	0	0	0	0	0	0	0	0	0	0	0	0	0	0	57	1	0	3	2	0	0	7	0	0	0	3	0	0	8	2	0	0	0
OTU 156	0	1	0	0	1	1	0	2	5	0	1	0	0	0	0	2	5	0	0	99	0	0	1	2	1	0	4	2	0	1	6	0	0	0	2	9	2	0	0	19	3	2	1	0	0	1	2	4	0	1
OTU 157	0	0	0	0	0	0	0	0	0	0	0	0	0	0	1	0	0	13	0	3	0	0	1	0	0	0	0	0	0	0	0	1	0	0	0	0	0	1	4	0	0	0	84	0	0	0	0	5	0	0
OTU 158	0	0	0	0	0	0	0	0	0	0	2	0	0	0	0	0	1	0	0	0	0	0	0	0	0	0	0	0	0	0	0	0	0	0	0	0	0	0	0	0	0	0	0	0	0	0	0	0	0	0
OTU 159	4	3	0	1	0	1	0	3	0	0	1	1	0	1	5	0	1	2	0	0	8	0	12	4	7	0	1	1	0	0	0	0	2	0	4	0	1	0	0	0	2	0	2	4	0	3	1	0	0	1
OTU 160	5	4	5	2	1	6	7	2	19	4	2	1	1	1	3	1	4	15	5	4	3	11	2	0	4	0	9	0	0	5	3	9	4	0	8	4	6	0	4	0	10	3	1	1	6	9	7	5	3	2
OTU 161	0	3	7	0	2	1	1	0	2	4	0	7	0	0	0	3	1	6	6	3	5	3	1	3	0	0	3	0	0	13	0	1	2	0	0	0	3	0	0	0	2	0	0	2	0	4	1	1	0	2
OTU 162	0	14	2	0	1	2	4	5	0	8	6	0	0	0	46	1	0	1	4	0	0	0	5	0	1	1	5	3	1	0	1	0	3	0	0	4	5	1	5	5	2	1	1	0	3	3	0	0	2	3
OTU 163	0	0	0	0	0	0	0	0	0	0	0	0	0	0	0	0	0	0	0	0	0	1	0	0	0	0	0	0	0	0	0	0	0	0	0	0	0	0	0	0	1	0	0	0	0	0	0	0	0	0
OTU 164	0	0	0	0	0	0	0	1	0	0	0	0	0	0	6	0	0	0	0	0	0	0	0	1	0	0	1	0	0	0	0	0	0	0	0	0	0	0	0	0	0	0	0	0	0	0	0	0	0	0
OTU 165	0	2	0	0	0	1	0	0	0	0	0	0	0	0	0	0	1	2	0	0	1	0	3	0	0	0	0	1	0	0	0	0	0	0	0	0	1	0	2	0	0	2	0	0	0	0	0	1	0	1
OTU 166	1	0	0	0	0	0	0	0	0	0	0	0	0	0	0	0	5	0	0	0	0	0	0	0	0	0	0	0	0	0	0	1	0	0	0	0	0	0	0	0	0	0	0	0	0	0	0	0	0	2
OTU 167	3	2	4	0	1	0	0	7	2	0	1	1	0	0	0	1	1	1	0	0	3	0	0	0	5	1	0	3	3	0	0	0	0	1	0	0	0	1	1	1	3	1	3	0	0	2	2	0	1	1
OTU 168	0	0	0	1	4	0	1	2	3	0	1	1	0	0	0	0	3	4	0	0	2	0	0	5	4	0	0	0	4	0	0	0	0	0	0	0	0	2	0	0	0	0	1	2	1	1	2	4	0	1
OTU 169	0	0	0	0	0	0	0	0	0	0	0	0	0	0	0	0	0	0	0	0	0	0	0	0	0	0	0	0	0	0	0	0	0	0	0	1	3	0	0	1	0	0	0	0	0	0	0	0	0	0
OTU 170	0	0	0	0	0	0	0	0	0	0	0	1	0	0	0	0	0	0	0	0	0	0	0	0	0	0	0	0	0	0	0	0	0	0	0	0	0	0	0	0	0	0	0	0	0	0	0	0	0	0
OTU 171	2	0	1	0	1	26	0	0	0	0	5	1	0	0	1	3	1	0	0	4	1	0	2	1	0	0	1	0	0	6	0	0	35	0	31	0	0	2	0	0	0	0	0	0	0	1	0	0	0	0
OTU 172	0	0	0	0	1	0	0	0	0	0	0	0	0	0	0	0	0	0	0	0	0	1	0	0	0	0	0	0	0	0	0	0	0	0	0	0	0	0	0	0	0	0	0	1	0	0	0	0	1	0
OTU 173	0	0	0	0	1	2	0	0	6	0	0	3	0	0	0	1	2	0	3	1	0	0	0	0	0	0	1	0	0	0	0	0	1	0	1	0	0	2	0	1	3	4	0	0	0	0	0	0	2	0
OTU 174	2	5	0	2	16	1	0	1	0	0	2	1	0	0	0	3	0	0	0	0	0	4	11	2	3	0	1	0	0	3	0	4	0	1	1	5	1	1	0	6	5	1	3	0	0	1	0	0	2	1
OTU 175	1	2	1	0	0	0	0	1	0	2	0	1	0	0	0	0	1	0	0	0	4	0	0	0	0	0	0	0	0	0	0	0	1	4	0	0	0	5	4	0	0	2	0	1	0	2	0	0	0	0
OTU 176	0	2	0	0	2	0	0	2	0	0	3	1	0	0	4	3	5	0	4	1	0	0	4	46	2	0	1	0	1	0	54	2	1	0	0	2	0	0	3	1	0	6	0	0	0	0	0	0	0	4
OTU 177	10	4	0	1	3	5	1	2	0	0	0	2	0	0	1	0	2	2	0	0	1	4	1	0	0	0	1	0	0	1	0	0	4	1	2	0	0	0	0	0	0	3	0	0	0	0	0	1	1	0
OTU 178	1	0	0	1	2	2	0	0	0	0	0	0	0	0	2	3	1	0	0	0	0	0	0	2	0	0	1	0	0	0	0	2	5	0	3	1	0	0	1	1	1	0	0	0	0	0	1	0	0	0
OTU 179	0	1	1	1	0	0	0	13	1	0	5	0	1	6	0	6	5	0	0	1	0	1	3	0	2	6	0	3	4	0	0	9	0	6	0	0	0	0	1	0	0	0	3	1	0	0	1	0	1	0
OTU 180	9	1	3	7	11	0	11	3	8	0	6	4	6	0	2	4	18	0	24	32	6	3	2	2	2	6	3	2	3	3	2	6	0	2	1	3	0	0	3	4	8	11	2	9	16	6	9	2	0	2
OTU 181	0	0	0	0	0	0	0	2	1	0	1	0	0	0	0	1	0	1	0	2	1	0	0	3	0	5	0	0	0	0	0	0	0	0	0	0	0	0	3	0	0	3	0	0	1	1	0	4	0	6
OTU 182	0	0	0	0	0	0	0	0	0	0	0	0	0	0	0	0	0	0	0	0	0	0	0	1	0	0	0	0	0	0	0	0	0	0	0	0	0	0	0	0	0	0	0	0	0	0	0	0	0	0
OTU 183	0	0	0	0	1	0	1	0	0	0	0	2	0	0	0	14	0	2	0	0	0	5	0	0	7	2	1	1	0	0	2	0	22	6	0	0	0	1	2	0	0	1	6	1	0	0	0	0	3	0
OTU 184	0	0	0	0	0	0	0	1	1	0	0	3	0	1	0	0	0	0	0	0	2	1	0	0	0	0	0	1	0	0	0	0	0	0	1	0	0	0	0	0	0	0	1	0	2	0	0	4	0	0
OTU 185	1	1	0	1	0	0	0	7	0	3	0	1	0	3	3	1	3	0	5	2	0	5	0	1	1	1	0	2	6	0	1	2	0	1	3	0	2	2	3	1	5	0	1	2	1	1	0	16	1	78
OTU 186	0	0	0	1	3	0	0	2	0	0	0	0	1	4	13	1	0	0	3	0	0	0	0	0	17	0	0	0	0	0	1	0	0	0	0	1	0	0	0	1	23	3	5	0	0	0	0	1	0	10
OTU 187	0	55	0	3	1	2	15	1	6	27	0	1	0	2	3	4	1	1	3	3	0	1	1	0	1	0	22	17	4	0	5	1	2	2	1	73	30	3	1	0	1	0	4	0	4	0	0	4	2	1
OTU 188	3	0	5	7	0	0	0	0	30	19	5	1	0	0	2	1	0	1	1	0	0	2	14	0	1	0	0	1	0	0	5	4	0	0	0	0	0	0	1	1	5	2	1	0	8	6	1	5	3	2
OTU 189	0	2	1	0	3	0	0	8	9	0	2	4	2	0	7	3	1	2	38	0	5	0	23	6	0	0	0	0	0	1	0	1	5	3	8	0	0	0	3	1	2	1	0	1	3	2	0	4	0	1
OTU 190	0	1	0	0	0	5	0	1	0	0	0	0	0	1	0	0	0	8	0	0	0	2	0	0	0	1	1	0	2	0	0	0	0	0	2	0	1	0	0	0	0	0	0	0	1	0	0	0	0	0
OTU 191	1	0	0	3	0	0	0	0	1	1	5	1	0	0	2	0	0	2	2	1	0	2	2	0	0	1	2	3	1	3	1	4	0	0	0	1	0	3	1	1	3	12	3	0	1	4	0	0	1	0
OTU 192	7	0	1	2	0	0	0	9	0	2	4	4	0	8	2	2	0	2	0	3	7	0	2	6	19	0	1	2	14	0	1	4	2	3	4	1	1	6	0	8	15	4	3	3	0	2	0	3	2	7
OTU 193	2	5	0	0	0	0	0	2	0	0	0	0	0	0	0	0	36	4	0	0	1	1	8	2	0	0	1	5	0	0	0	0	0	0	3	0	4	0	1	0	0	0	0	0	1	0	0	0	0	0
OTU 194	0	3	0	0	1	1	0	7	0	0	0	0	1	2	1	1	0	0	5	0	0	0	0	0	0	0	0	0	2	1	1	0	2	0	3	0	0	0	0	0	4	0	82	0	95	0	0	0	0	0
OTU 195	0	0	0	0	0	3	0	1	0	0	0	0	1	2	0	0	1	0	6	2	8	4	3	0	1	0	1	0	0	0	0	4	1	0	0	0	0	5	1	0	0	1	0	0	0	1	0	4	0	0
OTU 196	0	2	0	0	0	0	0	4	6	0	0	1	2	2	0	0	1	0	1	0	0	0	0	9	0	0	0	2	0	0	4	3	1	0	1	0	1	0	24	0	0	0	0	0	0	0	0	2	0	0
OTU 197	6	13	0	2	2	6	0	1	1	0	1	3	0	80	0	3	8	9	5	1	4	2	6	0	0	0	0	0	3	0	2	6	12	0	22	3	3	3	3	12	0	7	2	5	0	1	0	11	3	1
OTU 198	0	0	0	0	10	0	0	0	0	0	0	0	0	0	2	0	2	2	0	0	0	0	0	0	0	0	0	0	0	4	0	1	0	0	0	0	0	0	0	0	3	0	0	0	0	0	0	0	0	4
OTU 199	0	0	0	0	0	1	0	0	0	0	0	2	0	0	0	3	0	0	2	0	0	7	15	0	4	0	5	0	2	0	0	0	0	4	0	1	1	0	0	0	0	0	0	3	0	0	0	1	0	0
OTU 200	2	0	0	0	0	0	0	0	0	0	5	1	0	0	0	2	0	1	1	0	0	0	0	0	1	1	0	0	0	3	0	0	2	2	3	5	0	0	0	2	3	4	0	0	2	1	3	0	0	0
