	Host 1	Host 2	Host 3	Host 4	Host 5	Host 6	Host 7	Host 8	Host 9	Host 10	Host 11	Host 12	Host 13	Host 14	Host 15	Host 16	Host 17	Host 18	Host 19	Host 20	Host 21	Host 22	Host 23	Host 24	Host 25	Host 26	Host 27	Host 28	Host 29	Host 30	Host 31	Host 32	Host 33	Host 34	Host 35	Host 36	Host 37	Host 38	Host 39	Host 40	Host 41	Host 42	Host 43	Host 44	Host 45	Host 46	Host 47	Host 48	Host 49	Host 50	
OTU 1	7	21	2	0	3	271	27	176	5	16	111	3	23	0	26	34	293	166	2	142	14	272	61	205	555	1273	2	0	54	623	134	229	0	111	58	25	273	109	12	31	61	44	16	84	219	3	60	176	23	0
OTU 2	10	23	2	0	36	0	19	0	17	7	5	0	14	29	0	14	0	1	12	11	31	1	0	22	4	19	0	0	0	0	1	8	5	0	0	0	5	11	15	35	2	29	1	73	3	1	15	11	86	18
OTU 3	0	63	0	2	0	0	59	0	13	0	10	0	12	114	1	0	3	0	0	1	0	0	4	167	0	15	2	24	12	5	24	13	0	5	0	5	4	5	2	0	0	1	0	0	40	25	0	0	0	42
OTU 4	0	0	0	0	0	0	0	0	0	0	0	0	0	0	0	0	0	0	0	0	0	0	0	0	0	0	0	0	0	0	0	0	0	0	0	0	0	0	0	1	0	0	0	0	0	0	0	0	0	0
OTU 5	223	166	507	91	41	491	1805	427	12	555	1185	767	1060	0	1335	0	499	135	1447	322	162	915	231	724	940	803	1156	0	0	531	70	106	748	104	660	1378	73	78	174	1928	379	646	279	31	11	448	313	38	94	26
OTU 6	10	2	0	3	13	184	19	35	2	24	0	3	6	80	14	6	11	1	0	1	52	192	13	13	352	761	0	44	2	299	4	46	78	25	2	7	3	0	10	43	1	9	4	43	1	48	1064	1	139	0
OTU 7	1089	61	342	272	39	5	455	159	1211	246	484	30	168	407	328	75	510	159	11	25	35	13	508	395	14	19	16	69	67	15	22	1049	62	455	103	262	100	86	43	148	172	290	174	69	343	97	122	9	533	80
OTU 8	300	64	120	5	127	45	132	29	33	182	161	31	22	151	20	234	13	51	23	12	120	20	33	13	49	117	72	48	318	76	185	262	46	414	11	23	32	59	12	6	17	0	59	239	92	17	147	217	36	231
OTU 9	2	0	52	17	4	0	49	29	114	36	0	2	5	25	16	12	76	7	10	2	0	1	70	0	1	0	1	14	8	0	0	60	0	18	19	56	0	0	0	5	41	11	49	20	0	10	0	15	3	22
OTU 10	0	119	24	1	0	4	9	0	0	6	8	5	1	49	10	6	0	2	240	1	71	0	0	1	0	36	88	9	0	7	0	1	9	6	2	0	3	27	40	6	4	32	13	39	72	0	118	0	1	2
OTU 11	9	394	22	15	13	5	77	7	20	28	226	99	4	306	140	106	14	15	11	1	35	10	38	169	18	40	27	0	6	13	6	256	15	28	2354	21	4	72	34	53	23	100	29	61	87	65	21	73	80	30
OTU 12	90	25	168	79	88	0	0	3	13	8	7	147	3	37	82	24	18	44	59	3	8	3	29	42	13	4	9	195	22	1	17	3	74	10	2	16	11	27	22	11	18	18	34	2	58	34	30	16	36	19
OTU 13	0	0	2	0	0	0	0	0	0	24	0	0	6	0	0	0	0	0	0	16	0	0	3	0	0	0	0	5	2	0	5	0	0	0	0	0	0	0	0	0	0	0	0	2	0	0	2	0	0	0
OTU 14	0	20	38	1	5	9	4	33	39	0	1	5	2	38	0	50	7	55	0	11	7	19	2	32	28	35	0	2	20	16	5	7	2	34	6	0	43	0	0	0	12	1	56	7	0	9	3	1	123	27
OTU 15	0	0	0	0	0	0	0	18	0	0	1	0	0	0	0	0	0	0	0	2	0	0	0	0	0	5	0	0	0	0	0	0	0	0	0	0	0	0	0	3	14	0	0	0	0	0	0	0	2	0
OTU 16	0	0	0	0	0	0	0	0	0	0	1	0	0	0	0	0	0	0	0	0	0	0	0	0	0	0	0	0	0	0	0	0	0	0	1	0	0	0	0	0	0	0	0	0	0	0	0	0	0	0
OTU 17	29	5	7	0	18	0	1	11	15	9	72	0	14	13	35	40	49	50	4	6	15	4	31	24	4	20	3	0	8	2	17	14	1	10	36	13	50	5	0	77	11	10	8	66	3	4	45	29	1	0
OTU 18	14	34	11	24	158	10	32	20	895	55	5	1775	73	8	43	3	30	40	0	16	20	5	63	10	16	20	9	30	159	12	26	76	43	16	2	58	25	15	28	48	16	72	20	46	23	25	98	427	3	28
OTU 19	1	0	0	0	0	0	0	0	0	0	0	0	0	0	0	0	0	0	0	0	0	0	0	0	0	0	0	0	126	0	0	0	0	0	0	0	0	0	0	0	0	0	0	0	0	0	0	0	0	0
OTU 20	2	10	18	103	13	0	19	7	9	113	2	3	205	42	0	63	92	41	12	9	25	0	3687	5	0	6	3	0	7	11	7	39	1	122	25	1751	161	52	20	0	14	46	50	54	80	0	9	105	26	163
OTU 21	85	84	1	30	12	5	47	0	96	0	4	1	0	174	20	48	24	100	54	1	117	4	0	2	11	5	0	74	18	2	44	37	30	9	18	0	25	2	44	2	38	2	3	102	30	13	41	8	38	28
OTU 22	171	31	18	88	51	10	48	33	118	65	20	772	15	63	13	13	5	28	37	12	15	2	33	11	6	10	31	15	34	0	20	107	26	32	6	14	22	2	28	103	2697	2	67	12	80	2	24	23	19	0
OTU 23	17	0	5	9	3	13	9	1	31	7	3	4	7	53	70	110	5	12	0	3	19	21	58	21	48	86	19	10	7	29	65	8	13	1	7	28	15	2	0	93	26	6	0	64	1	7	166	0	16	2
OTU 24	0	74	11	2	15	0	6	1	2	6	5	0	4	8	0	83	8	44	22	0	2	0	46	16	1	3	1	0	1	0	0	6	0	13	13	17	3	0	4	0	11	17	645	0	1	51	0	0	94	11
OTU 25	0	0	12	0	0	0	0	7	2	0	0	0	0	0	0	0	0	0	0	0	0	0	0	4	0	0	0	0	0	0	0	0	0	1	0	0	0	1	0	0	0	0	0	0	0	0	0	57	0	0
OTU 26	41	4	0	0	0	0	9	1	0	0	70	0	9	0	0	0	26	10	0	2	11	0	0	0	0	0	58	11	47	0	0	16	0	0	0	0	0	0	0	90	0	1	0	40	0	1	1	0	0	47
OTU 27	0	0	0	0	0	0	1	0	0	8	0	0	2	0	0	0	0	0	0	0	0	0	0	0	0	0	0	0	2	0	0	0	0	0	0	0	0	0	0	0	0	5	3	0	0	0	0	0	0	0
OTU 28	8	47	70	10	76	8	13	2	25	50	20	62	34	3	144	100	18	27	74	8	1	13	16	9	35	76	11	25	4	31	75	21	33	18	11	4	5	17	13	51	11	4	6	43	5	0	34	4	88	15
OTU 29	14	164	1	23	11	0	3	2	165	20	196	108	11	19	61	25	15	38	44	50	75	9	125	157	8	2	53	0	3	4	137	33	6	28	20	45	191	111	53	17	24	100	52	154	334	251	40	94	101	84
OTU 30	0	0	0	0	0	0	0	0	0	0	0	0	0	0	0	0	1	0	0	0	0	0	0	0	0	0	0	0	0	0	0	0	0	0	0	0	0	0	0	0	0	0	0	0	0	0	0	3	0	0
OTU 31	1	8	7	8	23	8	0	0	0	23	0	0	0	0	6	39	0	0	11	0	0	2	6	8	4	11	0	18	0	3	10	0	10	80	0	1	9	0	2	20	1	9	0	0	16	0	29	88	1	11
OTU 32	139	7	0	17	13	10	5	52	47	29	530	5	271	75	206	71	97	83	11	2	64	3	23	32	7	1	11	32	73	8	3	29	64	55	45	11	28	60	47	225	54	76	73	13	79	93	16	959	72	97
OTU 33	0	0	0	0	26	0	0	0	0	0	1	0	0	67	0	0	0	0	0	0	0	0	0	0	0	0	1	0	0	0	0	0	0	0	0	0	0	0	0	0	0	17	0	0	0	0	1	0	0	0
OTU 34	48	3	18	28	152	7	7	40	51	1357	18	1	2	143	7	234	9	62	1	26	1	6	10	0	12	1	11	0	26	29	26	1	3	3149	2	11	75	1	11	34	2	10	7	10	36	12	31	66	81	26
OTU 35	43	7	213	114	122	22	77	26	106	30	16	65	12	22	0	1	0	618	18	262	42	25	10	70	33	51	19	18	18	56	107	113	630	96	20	7	321	2	3	40	11	9	1	30	14	6	148	58	120	18
OTU 36	26	11	70	97	12	3	31	22	16	67	9	31	0	7	44	16	63	7	3	0	31	0	0	190	0	2	3	15	32	7	17	106	24	14	6	0	13	7	10	15	5	54	19	0	52	148	24	123	0	1
OTU 37	4	0	0	35	0	0	35	30	0	0	3	1	3	29	12	2	21	2	0	520	0	0	0	0	0	1	0	21	39	0	0	4	0	0	47	0	8	1	2	0	55	3	4	0	0	8	0	17	64	0
OTU 38	155	7	44	43	41	12	0	3	0	2	95	4	30	273	14	13	0	0	41	36	5	31	6	0	55	67	31	52	1	36	5	0	1	0	15	9	28	2341	1487	183	0	1	64	72	43	5	15	7	102	296
OTU 39	9	0	0	0	0	0	3	0	52	0	3	14	0	47	5	24	3	0	0	0	0	0	0	44	0	1	1	7	0	0	1	1	7	0	16	0	0	1	1	0	2	2	1	1	10	7	1	0	7	4
OTU 40	5	327	36	113	6	18	8	40	20	100	66	47	0	56	86	308	123	11	29	29	27	2	154	497	2	16	17	60	24	10	26	52	15	107	4	76	8	42	0	96	77	58	0	52	30	28	2	145	40	26
OTU 41	3	1	0	164	862	0	29	24	11	42	16	10	3	2	2	100	41	22	432	0	0	0	36	14	0	10	139	305	94	0	512	12	1	31	2	28	10	60	1	15	1	72	223	20	8	36	43	6	0	169
OTU 42	0	0	0	0	3	0	2	1	1	0	8	4	0	7	38	0	0	2	1712	0	0	0	0	0	0	0	920	0	6	7	23	10	0	0	0	1	0	3	21	1	0	1	48	20	40	0	0	73	0	0
OTU 43	0	0	0	0	0	0	0	0	0	0	0	0	0	0	0	0	0	0	0	0	0	0	0	27	0	0	0	0	0	0	0	0	0	0	0	0	0	2	0	0	0	0	87	14	0	0	0	0	0	0
OTU 44	107	0	0	1	0	0	4	1	13	0	0	52	1	48	0	68	102	0	0	0	0	0	18	0	1	3	0	65	0	0	61	0	0	0	0	31	0	0	0	0	11	0	6	0	0	4	0	0	13	7
OTU 45	118	19	127	13	0	3	20	38	0	61	17	21	74	1	3	132	7	62	27	5	49	2383	16	22	2	2	4	18	20	8	30	25	31	98	0	4	5	25	2	10	3	42	58	62	51	23	23	10	15	8
OTU 46	18	73	41	1	2	4	191	100	32	22	24	131	3	36	14	41	30	6	56	4	5	5	33	14	11	0	35	26	18	8	9	437	70	0	48	19	35	102	82	3	17	42	0	26	45	58	77	10	9	47
OTU 47	2	0	0	0	0	3	0	0	2	1	0	0	0	0	54	0	3	8	3	0	1	0	0	59	0	37	1	21	0	14	0	4	0	0	0	0	1	1	0	2	0	2	1	0	0	0	0	0	10	16
OTU 48	2	7	2	35	41	2	56	43	16	23	2	11	16	116	11	1	4	23	45	36	10	0	497	17	1	2	0	3	144	5	41	152	57	20	1054	242	46	21	14	21	21	20	106	29	43	40	26	12	11	72
OTU 49	78	62	21	7	1	1	3	3	0	3	0	3	1	0	0	11	1	7	3	1	8	10	9	0	16	3	1	0	897	2	8	2	0	2	0	0	1	53	11	28	1	0	1	88	15	25	1	70	0	65
OTU 50	31	0	62	49	39	246	2261	21	15	38	3	150	45	89	28	0	46	232	507	21	11	300	91	35	646	1348	270	0	13	620	104	73	8	11	29	51	117	41	17	17	29	103	26	106	20	168	17	1	310	45
OTU 51	1	24	2	28	0	1	12	6	15	2	0	290	0	51	1	4	0	3	12	0	2	0	0	22	0	2	1	49	163	0	30	14	0	1	28	1	4	72	10	2	0	113	15	3	29	223	11	76	395	20
OTU 52	30	17	71	52	90	97	101	51	326	38	40	11	9	231	63	56	53	136	10	113	36	102	34	68	186	303	45	38	222	131	160	172	8	40	8	32	152	28	5	121	51	10	396	77	130	46	799	32	28	34
OTU 53	0	0	0	0	1	0	0	0	0	0	0	0	0	0	0	10	0	0	0	0	0	0	0	0	0	0	0	0	0	0	0	0	0	0	0	0	0	0	0	0	0	0	2	0	0	0	0	0	0	0
OTU 54	28	526	96	64	60	22	69	219	1	39	2143	154	504	73	62	127	367	53	48	15	238	17	101	181	40	23	5	63	24	16	146	68	52	123	127	53	2	171	48	914	213	15	15	51	256	56	45	126	16	30
OTU 55	0	0	0	0	0	0	0	0	0	0	0	0	0	0	0	0	0	0	0	0	0	0	0	0	0	4	1	0	2	2	0	0	0	0	0	0	0	0	0	0	6	0	0	0	0	0	0	0	0	0
OTU 56	15	4	24	1	219	1	3	64	4	5	4	8	3	2	0	2	1	0	5	4	29	0	21	0	0	0	0	12	0	0	24	0	10	0	56	13	4	2	0	2	9	1	1	24	48	11	8	3	6	2
OTU 57	172	16	190	71	58	7	39	61	34	55	2	12	36	147	62	27	21	182	47	6	32	8	39	15	7	15	90	71	122	2	245	132	546	63	14	20	16	67	63	11	37	174	185	24	70	132	29	107	186	16
OTU 58	6	16	15	1	7	0	0	1	121	14	0	28	69	4	0	12	3	4	26	11	26	0	18	60	1	0	1	294	8	0	8	2	0	2	4	5	13	17	0	15	11	4	0	101	1	103	14	1	0	0
OTU 59	6	3	0	0	38	11	35	21	0	0	0	0	1	25	3	240	30	18	99	0	90	15	1	13	32	80	3	132	69	73	2	51	11	1	3	0	1	0	4	2	36	1	9	74	3	0	91	44	33	48
OTU 60	387	52	146	217	141	21	18	29	154	29	38	40	16	13	157	8	29	38	2	4	57	11	25	38	21	18	49	32	35	23	104	1	27	1	13	4	9	5	21	61	6	14	225	120	24	33	99	16	46	27
OTU 61	45	18	409	180	210	2	93	66	34	63	147	41	91	12	121	96	38	150	14	10	21	4	69	162	7	1	0	20	241	3	88	248	693	115	837	23	0	5	23	46	48	357	92	14	22	226	16	418	300	27
OTU 62	1	4	1	1	0	0	3	1	0	0	8	1	0	109	4	2	0	0	0	18	22	0	10	9	0	0	0	21	195	0	0	2	0	1	2	5	8	0	2	22	0	13	2	6	1	27	0	91	4	0
OTU 63	9	0	1	29	48	1	0	0	11	4	58	1	2	12	0	1	0	0	179	25	111	0	25	1	0	25	12	1	25	12	47	0	12	26	0	20	36	8	0	0	2	1	57	139	34	3	21	0	8	2
OTU 64	86	5	65	139	111	237	31	79	34	6	37	169	20	13	21	23	130	63	23	4	142	234	10	7	494	16	27	12	259	17	20	161	57	19	20	3	4	15	4	6	17	23	466	147	15	102	10	90	200	73
OTU 65	0	0	0	0	0	0	0	0	0	0	0	0	0	19	16	0	3	0	0	0	1	0	0	1	0	0	0	0	0	0	0	0	0	7	0	0	1	0	10	0	0	2	0	0	0	0	0	0	0	0
OTU 66	0	1	25	80	461	7	116	21	8	56	19	0	6	3	21	118	82	1	3	8	57	12	0	8	30	38	35	7	37	16	50	281	38	174	6	0	36	129	3	0	98	6	13	157	50	115	81	102	159	39
OTU 67	2	107	1	48	404	20	3	7	2	15	18	30	1	11	119	0	12	139	47	0	302	18	69	1	30	50	25	53	9	57	20	4	156	6	32	45	15	116	27	0	23	125	4	648	220	34	94	1	14	920
OTU 68	24	18	61	0	0	3	19	18	33	0	0	0	0	33	17	2	3	41	25	18	7	2	8	48	5	0	9	0	0	1	51	5	1	0	0	10	13	7	0	26	2	0	8	0	38	3	0	0	8	0
OTU 69	215	44	14	14	149	1	0	1	17	46	6	40	1	141	150	239	0	8	2	3	2	1	0	98	4	5	2	34	231	6	1	5	83	107	2	1	70	1	13	2	7	541	6	54	10	109	8	59	56	20
OTU 70	1	105	112	4	67	0	0	0	0	0	0	0	11	149	47	0	4	0	393	4	8	4	5	10	12	9	89	2	0	7	29	8	0	6	0	1	10	63	13	27	18	48	1	0	0	6	0	8	55	12
OTU 71	16	0	7	0	12	0	11	4	35	72	16	2	7	3	13	3	4	2	9	0	2	0	0	0	0	2	0	29	140	2	9	12	0	61	8	0	3	14	0	1	4	21	12	17	2	1	30	1	1	3
OTU 72	126	8	22	322	40	6	72	676	0	44	20	14	3562	4	12	13	616	65	23	5	143	1	581	23	3	4	38	149	12	0	70	65	22	11	379	317	7	9	13	50	439	23	10	264	46	15	14	24	63	27
OTU 73	579	84	90	2	33	1	27	84	2	0	0	13	0	4	78	36	101	71	4	27	0	7	46	21	10	2	31	55	77	0	76	8	133	46	12	12	17	4	8	8	20	15	26	198	15	1	0	87	10	39
OTU 74	91	39	65	0	23	5	0	36	18	38	152	20	97	74	3	0	96	74	98	9	18	5	9	60	8	11	9	380	23	1	187	1	0	113	29	12	11	14	15	15	7	135	88	15	36	0	42	333	93	71
OTU 75	312	20	82	8	43	42	74	6	59	0	15	4	10	145	83	36	8	62	14	30	16	23	163	14	57	75	5	17	9	31	39	71	23	18	1	53	67	4	1	2	5	1	8	106	12	32	86	48	27	191
OTU 76	0	3	13	22	1	0	7	0	0	1	30	2	5	31	4	0	2	1	2	0	1	0	0	0	0	4	2	2501	7	0	7	8	25	0	0	1	0	29	3	4	2	155	28	0	33	0	0	0	2	2
OTU 77	66	12	47	51	1	43	14	9	22	24	15	88	1	8	29	29	3	4	15	227	12	4	2	4	5	70	3	39	115	35	1	24	30	1	0	0	4	2	2	0	1	2	115	1	11	18	91	55	20	93
OTU 78	61	20	42	33	338	10	8	1	122	7	106	19	6	0	306	41	55	0	0	3	207	10	28	30	17	10	11	8	33	6	17	16	26	0	11	30	5	59	25	27	162	88	98	399	107	5	207	226	88	54
OTU 79	59	99	93	106	201	17	131	46	304	75	77	51	102	349	135	131	141	267	60	31	274	25	46	15	41	138	36	69	77	74	47	119	93	44	90	17	58	102	86	163	89	167	130	502	171	192	116	74	132	157
OTU 80	74	36	55	99	8	1	6	1	8	12	4	4	99	417	9	14	77	18	32	8	40	0	12	16	1	17	2	71	68	23	114	14	27	3	1	26	6	191	95	174	8	0	77	184	457	152	76	71	31	93
OTU 81	164	12	12	1	29	2	12	1097	66	82	7	35	9	176	16	269	33	16	11	18	6	11	37	19	17	2	18	40	167	7	8	36	86	131	368	16	14	61	49	4	49	23	4	39	5	60	29	109	36	30
OTU 82	3	4	80	37	4	15	0	24	9	25	0	3	1	264	20	38	6	1	25	6	7	16	1	8	30	26	3	30	36	32	17	2	1	1	10	0	24	7	36	54	6	20	35	4	6	5	57	60	15	983
OTU 83	1	0	5	0	17	0	0	0	0	11	21	0	8	2	2	244	0	3	0	37	0	0	12	0	0	0	0	0	9	0	7	5	15	28	1	6	1	2	0	0	0	0	0	0	15	1	0	0	5	1
OTU 84	5	37	1	0	55	0	155	10	19	122	17	14	0	47	0	32	3	25	30	0	191	0	11	22	0	1	7	0	0	235	1	98	54	247	14	4	4	67	41	3	5	4	0	82	122	8	12	6	64	81
OTU 85	0	0	16	0	0	0	0	2	0	0	48	1	3	0	12	13	5	1	38	0	0	0	5	0	0	0	20	0	1	3	0	0	36	1	0	9	0	1	0	0	12	49	0	0	3	49	0	30	0	3
OTU 86	0	0	0	0	0	0	26	0	0	0	0	3	0	0	6	0	0	0	213	0	3	0	0	0	0	0	163	0	0	1	283	42	0	0	0	0	0	0	0	3	0	0	16	0	0	0	0	0	2	0
OTU 87	13	0	0	0	29	0	1	0	2	0	0	51	0	2	0	1	0	1	22	1	134	0	22	3	0	1	0	0	0	0	25	0	0	0	1	362	4	32	15	15	1	0	28	85	0	4	1	0	4	0
OTU 88	0	0	0	0	0	0	0	0	0	24	0	0	0	8	0	0	0	0	23	9	31	0	4	0	0	0	36	3	54	0	91	13	0	5	0	2	0	4	0	0	0	13	0	1	2	33	0	18	14	10
OTU 89	1	1	0	8	14	0	18	14	17	2	3	2	0	48	1	8	31	34	0	0	50	0	0	0	0	0	14	22	1	0	0	62	0	8	0	0	0	1	10	0	20	0	3	125	6	0	11	3	7	0
OTU 90	2	25	0	0	0	0	6	0	0	0	0	0	6	0	0	16	0	0	2	0	0	0	0	1	0	0	0	0	103	0	0	0	0	20	1	0	2	0	0	1	1	13	0	0	0	2	2	0	0	0
OTU 91	0	1	161	0	0	0	0	0	0	0	0	0	0	0	1	0	1	0	0	0	3	0	0	0	0	0	0	0	1	0	0	0	0	0	0	0	0	0	0	0	0	5	0	0	0	0	0	0	0	0
OTU 92	0	0	0	1	3	2	0	0	4	0	1	22	22	0	0	0	8	1	0	0	0	0	0	0	0	1	3	0	0	1	0	6	8	1	0	0	0	0	1	5	0	20	3	0	0	27	1	17	4	42
OTU 93	0	0	0	7	0	0	0	1	0	1	10	0	0	40	0	0	0	14	3	0	4	0	0	3	0	0	0	47	0	0	0	1	0	0	0	0	0	1	0	0	0	0	0	0	0	0	0	0	0	1
OTU 94	5	134	75	452	87	53	167	500	135	4	3	22	7	18	14	253	980	18	34	36	5	69	34	0	134	239	8	20	118	131	96	118	32	0	230	37	26	78	72	19	459	32	107	40	85	155	543	50	49	28
OTU 95	14	3	0	6	3	0	62	7	14	0	6	0	1	9	9	20	15	0	117	0	58	0	0	0	0	0	13	1	41	0	74	5	1	0	3	0	3	1	0	1	0	0	10	5	3	54	12	2	5	8
OTU 96	1	0	4	0	36	0	0	0	0	3	0	0	1	0	0	14	2	0	12	0	0	0	0	0	0	0	51	6	0	0	56	0	0	0	0	0	0	0	0	0	0	8	5	0	1	0	0	0	0	0
OTU 97	0	41	0	0	0	0	5	0	7	0	0	0	0	12	0	0	0	0	14	5	0	1	0	0	2	0	0	2	13	0	2	0	3	11	1	0	0	6	24	0	0	1	0	0	0	0	0	2	0	0
OTU 98	14	56	1	91	17	0	7	3	0	10	42	63	1	3	1	0	6	3	26	0	6	1	19	1	1	0	485	0	107	11	92	42	0	0	3	6	23	0	0	36	41	0	6	2	7	0	0	0	0	3
OTU 99	196	35	13	5	28	460	13	30	53	697	101	37	86	106	27	139	81	45	18	31	58	442	20	103	931	15	92	235	196	3	5	5	18	32	9	9	58	6	4	66	65	22	52	31	38	90	25	154	74	11
OTU 100	113	1	0	0	30	2	6	0	53	56	6	58	5	4	5	96	39	196	51	1122	16	9	0	96	12	10	3	71	62	5	0	9	6	34	0	0	209	4	9	35	18	25	3	54	0	18	4	1	3	3
OTU 101	3	0	102	0	0	0	0	10	106	0	19	0	0	0	0	0	33	8	0	0	3	0	0	10	0	0	0	0	0	0	0	0	0	0	0	0	0	6	0	1	23	0	0	0	0	0	0	0	0	3
OTU 102	6	1	3	0	10	0	0	0	0	10	69	0	0	51	0	13	0	9	0	1	2	0	0	1	0	0	0	0	1	4	0	19	13	3	9	0	2	0	1	4	1	1	0	11	1	6	1	32	18	15
OTU 103	117	1	4	64	0	13	8	6	92	2	0	12	2	72	42	61	14	9	7	4	12	7	20	3	9	11	16	49	0	2131	5	0	2	1	10	6	9	9	1	23	2	16	3	31	0	14	19	2	12	41
OTU 104	156	2	149	17	72	723	3	2	56	27	47	79	0	98	8	13	9	40	22	46	10	713	27	121	1427	23	32	11	56	3	106	59	14	18	1	2578	64	5	3	17	53	138	34	34	1	8	53	15	21	10
OTU 105	1	41	0	0	2	0	0	0	94	0	26	5	0	0	0	4	10	0	0	0	7	0	0	10	0	0	1	0	0	0	50	0	27	0	0	0	0	0	0	1	0	1	0	1	0	17	14	25	7	0
OTU 106	0	2	0	41	0	0	13	0	0	4	43	17	16	1	10	0	2	10	0	0	7	0	1	2	0	2	34	1	0	3	0	58	0	0	5	0	60	0	7	5	0	0	5	5	1	14	6	0	1	0
OTU 107	49	0	1	0	2	7	0	0	12	2	40	5	47	109	53	0	0	23	17	3	29	5	4	1	12	0	0	17	1	0	0	1	0	3	0	2	2	0	6	34	20	81	0	6	69	0	0	166	0	33
OTU 108	5	125	184	17	0	1	3	6	0	1	2	2	6	1	1	135	32	46	18	1	119	1	9	10	6	7	4	5	11	1	3	18	101	4	0	2	8	0	4	1	18	0	0	75	8	10	0	7	14	23
OTU 109	0	0	0	0	0	0	0	0	0	0	0	0	0	0	0	0	0	0	0	0	0	0	0	0	0	0	0	0	0	0	0	0	0	0	0	0	9	0	0	0	0	0	0	0	0	0	0	6	0	0
OTU 110	0	3	15	45	7	39	0	29	5	5	85	22	62	5	49	29	40	1	43	3	86	42	12	2	112	172	3	25	18	173	6	17	119	2	29	12	1	70	13	31	6	6	64	51	3	2	662	14	2	4
OTU 111	0	0	1	1	15	0	0	0	20	0	10	1	0	0	0	0	0	26	0	0	0	0	37	0	0	0	0	0	0	0	0	0	0	0	0	26	0	1	1	0	0	7	11	0	0	0	8	0	174	10
OTU 112	0	18	17	0	16	0	18	27	23	8	8	2	1	69	52	127	57	18	11	7	3	0	18	0	0	7	3	14	4	0	1	16	3	43	27	17	0	0	5	0	6	18	30	24	4	0	101	42	24	8
OTU 113	1	0	0	5	0	0	0	0	3	12	0	0	2	1	0	72	0	0	0	0	0	0	3	4	0	7	3	13	0	0	0	1	2	0	1	0	0	0	0	0	0	0	0	0	0	0	0	0	0	0
OTU 114	19	163	72	115	50	41	3	65	20	4	40	94	5	64	114	64	68	56	132	10	146	21	75	24	59	97	41	51	52	32	18	0	142	26	1	30	36	39	10	94	38	2534	65	195	87	151	149	41	191	213
OTU 115	40	10	38	48	66	4	345	7	91	0	133	113	58	51	2	89	5	28	69	7	298	2	210	44	9	29	19	30	43	1	51	36	109	49	13	110	22	25	5	61	12	90	75	49	30	21	90	125	20	27
OTU 116	11	267	21	240	80	7	157	375	91	6	8	1028	1	127	566	4	713	313	6	60	4	7	174	441	7	15	8	26	74	14	25	207	1	31	173	88	169	16	17	45	288	297	10	29	1	739	62	72	20	10
OTU 117	40	16	3	36	35	0	4	62	6	18	9	7	56	2	170	15	37	5	6	5	42	0	0	11	0	2	21	90	0	2	20	11	19	40	12	0	14	2	3	2	64	16	1	116	3	63	2	53	3	130
OTU 118	5	0	0	0	0	2	0	0	17	0	1	28	0	13	77	0	6	0	111	0	0	0	4	0	0	7	42	0	208	0	121	0	0	3	0	0	51	33	3	11	2	0	0	10	0	1	0	0	3	0
OTU 119	3	27	77	1	40	18	3	0	9	0	15	56	29	5	4	9	16	20	0	30	34	2	7	34	7	18	5	15	16	7	21	7	47	1	1	0	22	53	803	12	2	0	130	65	39	34	68	26	24	57
OTU 120	0	10	144	0	0	0	0	0	20	0	2	0	11	5	2	3	0	0	6	0	9	0	27	0	0	15	0	124	24	2	0	28	2	1	0	13	6	0	0	0	0	29	5	3	1	19	22	0	64	7
OTU 121	19	4	20	0	5	3	1	0	71	0	7	0	30	0	0	76	0	2	7	5	40	13	52	7	26	46	30	90	190	20	2	0	336	10	2	17	1	52	17	3	7	7	60	200	14	93	4	2	5	65
OTU 122	125	2	3	1056	2	34	14	3	498	2	266	4	15	4	8	87	0	10	12	74	45	23	1	15	37	63	57	93	15	33	64	50	27	2	12	0	183	71	33	60	1	0	1	84	182	0	92	0	16	41
OTU 123	192	114	267	205	172	40	49	52	155	44	122	25	87	36	143	302	263	44	104	27	45	51	180	139	67	120	55	169	85	27	160	91	94	79	28	105	119	101	33	67	81	90	107	112	127	116	87	24	1037	78
OTU 124	0	6	16	2	0	0	6	12	146	1	3	1	21	29	0	56	0	27	23	0	0	0	32	3	0	0	5	0	5	1	66	23	0	0	3	7	0	0	0	3	0	150	56	0	0	1	1	0	0	16
OTU 125	303	25	261	161	117	18	44	54	269	43	180	33	53	148	387	153	147	171	97	63	117	5	117	210	12	27	33	236	153	46	234	165	75	19	58	39	66	44	20	37	27	132	349	177	71	171	47	128	213	16
OTU 126	0	0	9	0	0	0	0	0	0	2	0	0	4	0	0	3	0	3	8	0	0	0	1	0	0	9	7	0	0	0	0	8	4	2	0	0	14	0	0	23	0	0	0	0	0	0	34	0	0	39
OTU 127	38	29	28	4	19	2157	7	83	23	22	31	1	169	137	0	10	133	168	4	47	0	0	4	0	0	0	40	3	62	0	1	14	3	4	37	0	147	72	26	7	15	0	2	6	99	16	21	142	65	15
OTU 128	103	318	283	162	1129	18	62	11	176	80	233	223	386	391	56	303	89	99	357	47	223	8	37	97	23	51	140	385	67	36	712	145	36	184	31	39	56	77	2118	238	200	56	635	166	86	189	117	429	163	201
OTU 129	0	0	0	11	0	0	1	75	0	0	0	0	0	5	22	2	56	7	1	0	0	2	217	4	4	1	4	0	0	0	0	0	10	0	15	82	0	0	2	0	43	0	5	0	2	0	0	0	145	4
OTU 130	2	0	695	0	11	6	0	26	1	8	18	22	16	10	0	0	18	0	10	5	51	16	0	2	32	24	4	26	14	10	4	9	5	22	11	1	0	23	53	77	5	134	63	1	52	116	2	33	59	4
OTU 131	45	45	184	35	32	0	12	1	1	8	72	0	4	13	163	1	2	22	302	8	26	0	0	61	0	16	217	1	0	8	1072	38	1	14	0	0	0	0	4	0	4	10	1052	36	30	182	11	20	141	45
OTU 132	0	50	89	31	0	17	0	4	3	55	25	8	0	32	7	0	17	9	6	10	27	14	11	1067	28	95	0	0	1	42	33	7	24	63	2	4	0	3	29	0	6	12	5	1	10	5	7	0	21	0
OTU 133	67	0	2	9	0	0	0	0	0	26	0	31	2	29	0	2	0	0	0	2	0	0	0	0	0	12	2	0	0	0	11	22	0	43	0	0	2	22	0	0	1	0	0	1	0	31	0	35	11	1
OTU 134	6	4	0	216	153	4	7	84	29	41	1	0	65	314	2	78	315	177	14	2	9	2	25	32	2	0	40	14	50	0	71	3	7	51	62	8	0	13	3	4	136	42	2	61	36	1	34	0	47	47
OTU 135	0	93	1	40	18	0	7	12	3	5	168	2	14	39	87	25	84	2	12	4	25	239	3	14	0	8	19	14	4	1	19	4	16	1	44	0	0	37	1	78	48	0	0	57	46	59	14	7	35	248
OTU 136	1	8	29	11	14	0	12	0	0	0	117	7	7	37	41	0	1	7	0	6	0	0	8	0	2	10	6	22	1	0	3	5	1	0	0	4	26	2	7	8	2	5	1	49	0	4	18	78	36	133
OTU 137	15	14	58	7	0	1	0	0	8	26	22	2	2	7	0	17	1	0	0	0	2	1	34	3	6	20	0	26	3	9	14	3	0	24	1	23	0	1	0	2	0	1	0	19	0	4	1	1	0	0
OTU 138	16	0	0	0	154	0	0	0	0	2	17	20	1	0	0	328	0	9	0	0	8	0	4	19	0	0	7	19	15	3	0	6	0	16	0	0	0	0	0	2	3	30	11	16	0	10	0	38	0	37
OTU 139	31	290	239	58	304	0	69	87	50	38	91	260	4	227	9	26	56	29	4	9	4	0	26	59	1	1	14	7	150	291	57	186	10	26	11	5	9	22	4	24	19	42	56	29	16	412	94	25	40	72
OTU 140	187	151	56	14	107	15	527	1	66	228	406	32	359	11	4	150	12	48	71	49	58	20	87	11	28	79	125	9	245	67	227	278	345	254	11	61	63	77	24	223	23	12	8	130	89	9	67	303	287	56
OTU 141	0	0	0	0	0	0	0	0	0	0	0	0	0	0	0	0	0	0	0	0	0	0	0	0	0	0	0	0	0	0	0	0	0	0	1	0	0	0	0	0	0	0	0	0	0	0	0	0	0	0
OTU 142	38	0	0	0	0	12	2	0	1	0	0	0	0	2	0	0	0	0	0	0	0	1	0	1	4	4	0	0	0	0	0	0	0	0	0	0	0	1	0	0	0	0	0	0	0	1	8	0	0	0
OTU 143	4	1	1	5	8	4	8	0	0	2	1	0	0	50	3	0	1	0	0	0	0	0	1	0	0	15	2	0	0	1	0	3	3	1	0	1	0	0	0	6	2	4	1	0	2	12	16	0	2	1
OTU 144	1	0	0	0	1	0	7	15	1	0	1	0	0	3	1	0	0	0	5	0	7	0	1	3	0	7	0	0	0	4	9	25	0	4	8	0	36	12	0	0	0	15	1	0	22	0	12	209	6	0
OTU 145	90	19	13	285	0	1	61	50	100	20	29	14	23	146	250	33	64	48	81	37	2	9	121	213	12	45	17	58	361	8	4	89	50	21	16	39	26	29	2	830	20	298	105	43	10	40	28	18	35	70
OTU 146	23	31	37	3	8	2	29	33	4	19	0	15	3	54	20	2	109	18	27	27	80	4	7	70	7	1	11	41	208	3	71	63	6	100	16	5	58	9	29	1	35	0	341	6	32	158	2	9	5	13
OTU 147	2	1	11	0	33	19	1	0	3	0	20	11	21	0	0	77	0	1	19	32	0	12	4	0	26	44	16	2	1	28	15	28	6	2	0	0	54	1	1	50	0	0	2	1	0	3	1	70	0	10
OTU 148	31	627	28	49	3	6	56	12	4	16	17	496	46	50	2046	171	42	1	5	1	0	2	0	7	9	3	2	4	38	2089	16	188	0	0	4	0	0	1	39	0	3	15	37	9	63	960	8	75	225	5
OTU 149	29	63	24	4	40	0	12	6	348	20	0	0	2	30	1	0	5	8	1	0	8	2	1	0	2	4	2	20	6	0	2	7	0	2	8	2	1	0	0	31	0	0	23	4	0	4	12	5	2	6
OTU 150	0	19	38	0	8	1	11	4	0	1	9	0	0	11	0	28	0	0	0	7	0	10	2	2	25	2	1	16	1	0	0	3	0	1	0	3	7	0	2	0	0	0	119	0	0	0	0	3	18	0
OTU 151	2	182	6	1698	6	3	1	30	7	31	13	28	29	6	54	77	5	8	21	2	10	11	53	6	27	42	20	16	0	18	0	0	4	5	196	16	24	0	0	0	2	6	28	2	6	17	170	0	39	0
OTU 152	65	7	2	26	360	1	48	11	1	39	0	339	8	3	41	113	77	23	48	1	9	0	4	20	0	18	12	18	36	15	186	125	10	108	15	2	10	1	0	1	26	37	3	186	4	602	38	7	127	82
OTU 153	1	15	166	0	4	0	0	0	0	0	0	6	0	0	0	0	1	0	13	12	0	0	0	0	0	3	0	0	0	0	0	7	0	0	1	0	2	0	0	0	0	0	0	0	20	0	14	0	4	0
OTU 154	0	0	45	0	16	0	0	0	7	0	0	0	0	0	0	1	1	0	0	11	0	1	8	0	2	9	7	35	11	21	0	8	8	0	0	10	23	4	1	0	0	13	5	0	3	18	9	0	0	0
OTU 155	0	15	2	0	48	0	13	1	24	7	36	62	0	1	3	0	2	0	2	23	35	0	0	15	0	0	19	0	0	0	1	39	1	10	4	0	10	7	14	0	1	100	2	32	0	16	1	26	4	19
OTU 156	9	95	2	20	93	10	119	37	103	50	15	152	9	566	74	571	27	27	50	41	1	18	2	28	37	57	63	1213	7	28	241	75	33	57	4	3	121	5	20	0	9	67	167	3	19	89	21	51	1	0
OTU 157	97	7	3	2	0	0	2	0	2	4	0	0	0	121	3	3	0	0	0	0	0	0	19	0	0	0	20	0	0	1	0	11	0	10	1	12	1	3	1	8	3	7	0	36	215	8	0	1	39	38
OTU 158	0	0	0	10	0	0	0	0	0	0	0	27	0	0	7	2	0	0	0	0	7	0	0	0	0	0	0	0	0	0	0	0	0	0	0	0	0	0	0	0	1	0	0	0	0	0	0	8	0	0
OTU 159	8	51	11	60	5	1181	2	4	5	16	26	2	15	156	0	39	4	70	92	0	36	0	27	5	4	3	40	24	20	3	49	21	24	0	0	7	26	0	0	3	17	0	115	78	7	0	9	7	10	31
OTU 160	127	173	7	44	196	12	48	10	85	175	9	39	13	6	25	110	26	52	42	23	96	14	73	31	29	104	29	12	140	46	151	4	9	324	21	37	47	36	31	1450	27	10	192	172	58	147	99	210	116	36
OTU 161	2	0	0	7	29	77	334	3	1	154	35	11	1	24	0	36	14	51	25	11	3	2	0	8	3	17	12	1	0	8	26	668	30	87	7	0	48	2	4	4	2	47	67	55	27	41	30	40	12	502
OTU 162	5	2	81	46	112	23	0	10	74	59	0	18	15	11	62	68	0	6	12	0	4	20	38	4	35	53	5	20	0	15	12	7	24	14	1	11	1	19	3	24	25	9	11	88	13	2	0	0	37	4
OTU 163	0	0	0	0	2	0	0	0	0	0	0	0	0	0	0	0	0	0	0	0	0	0	0	0	0	0	0	0	0	0	0	0	0	0	0	0	0	0	0	0	0	0	0	0	0	0	0	0	0	0
OTU 164	0	0	25	0	0	1	0	0	0	0	0	1	16	0	0	0	9	1	0	0	0	0	0	0	0	0	0	0	99	0	0	0	0	0	0	0	0	0	0	0	0	0	0	0	0	0	0	0	0	8
OTU 165	1	16	60	1	62	2	80	1	16	9	22	40	7	74	0	31	5	0	3	8	114	0	19	32	1	0	25	0	0	0	1	111	3	2	4	22	0	54	2	7	7	29	0	182	14	1	2	48	14	158
OTU 166	0	0	0	0	0	0	18	0	19	3	0	0	0	6	0	0	0	0	0	0	0	0	0	1	0	0	0	0	38	0	0	57	0	27	0	0	0	0	1	0	0	0	0	0	0	0	18	0	0	0
OTU 167	57	2	11	2	3	1557	0	5	56	1	34	20	23	65	0	49	6	11	0	0	1	1	0	10	1	0	4	3	39	0	15	0	6	0	40	0	3	35	25	1	30	18	7	0	4	69	4	10	13	18
OTU 168	3	2151	10	40	21	23	11	1	40	0	81	104	72	17	1	85	0	12	42	14	6	7	4	11	27	14	3558	6	0	9	1	42	5	41	0	2	26	0	1	0	2	52	28	37	1	28	14	47	106	6
OTU 169	0	14	0	0	0	0	0	0	0	0	2	1	0	0	0	6	0	1	10	0	12	0	0	0	0	0	0	0	0	0	0	1	5	0	0	0	0	0	0	0	0	0	0	0	0	1	0	0	0	0
OTU 170	0	0	0	0	0	0	0	6	0	0	0	0	0	0	0	0	34	0	0	0	0	0	0	0	0	0	0	0	0	0	0	0	0	10	6	0	0	1	0	0	22	0	1	0	0	0	0	0	0	2
OTU 171	26	90	2	24	157	16	0	18	22	1	23	1	5	12	0	13	7	2	4	0	229	15	31	3	28	139	2	68	94	56	7	43	122	0	10	7	7	23	0	9	1	1	17	343	31	0	337	0	0	312
OTU 172	1	1	0	0	6	1	4	4	0	1	39	5	0	0	0	7	0	0	50	0	0	0	1	24	0	1	31	0	1	0	85	4	14	0	0	0	0	18	6	0	0	0	0	2	0	0	0	0	1	17
OTU 173	23	0	0	31	0	0	14	3	42	37	9	0	0	0	0	2	80	1	5	0	0	0	0	1227	0	2	0	0	21	0	101	129	0	64	9	0	0	7	0	1	2	0	3	52	19	1	14	0	77	1
OTU 174	24	3	29	19	4	0	27	4	10	49	0	20	0	48	6	15	56	2570	10	721	0	0	2	4	0	1	0	47	0	1	8	97	11	155	0	3	1274	51	6	48	0	88	0	2	23	105	5	8	7	9
OTU 175	36	0	6	0	3	0	19	0	68	6	49	48	0	0	23	65	4	13	7	0	6	1	0	1	2	0	8	0	10	0	4	0	0	10	0	1	0	8	0	2	0	1	5	2	0	70	0	102	17	65
OTU 176	17	156	463	149	31	2	28	42	237	18	58	152	87	18	105	38	34	65	43	0	17	13	9	52	2	0	76	19	3	0	57	24	21	0	22	5	5	0	2	357	24	93	4	81	19	114	0	87	19	71
OTU 177	0	51	21	15	1	25	3	40	113	6	17	13	11	34	5	77	58	98	158	14	1047	24	65	9	57	112	19	8	82	51	177	5	0	81	5	34	15	15	42	51	24	11	102	3	96	34	306	97	53	8
OTU 178	25	0	82	32	18	1	0	4	0	15	19	32	0	56	1	76	9	99	10	2	1	0	16	1056	0	0	7	8	35	3	2	0	8	28	0	3	2	0	3	4	5	1	26	0	0	7	0	1	19	0
OTU 179	22	6	47	2	68	6	14	0	0	1	53	0	7	2	25	2	3	76	23	1	0	0	22	0	0	4	1	78	76	3	6	109	0	2	0	11	0	0	806	58	2	2	19	87	0	0	0	1	219	28
OTU 180	95	100	35	221	65	43	28	69	117	21	11	38	305	51	58	417	59	208	76	15	68	90	43	111	138	202	53	146	249	110	176	53	42	45	19	29	25	20	6	37	53	141	127	54	73	81	325	177	38	70
OTU 181	6	3	22	5	14	10	100	15	114	28	2	9	28	80	5	193	7	720	47	324	2	3	33	0	5	5	0	15	0	9	75	91	0	6	12	29	479	0	1	71	1688	70	1	49	46	15	0	5	68	12
OTU 182	0	1	0	0	0	0	0	2	0	0	0	0	0	0	0	0	7	34	0	0	6	0	0	0	0	0	0	0	0	0	5	0	0	4	0	0	2	0	0	0	0	0	83	0	0	2	0	1	0	0
OTU 183	7	1	1	188	106	0	2	20	4	0	2	15	1	103	59	10	43	63	223	1	18	12	3	0	18	0	60	51	3	0	347	22	13	0	2	2	0	4	0	9	11	5	86	4	15	27	70	97	0	0
OTU 184	2	2	28	29	2	0	125	1	1	132	1	19	42	10	2	1	53	2	0	1	51	0	0	3	0	5	0	11	49	0	0	151	3	140	0	0	2	0	9	7	5	1	5	119	21	5	5	3	0	35
OTU 185	3	2	97	9	97	3	70	0	55	114	17	48	36	16	51	13	46	10	8	1	34	4	20	8	10	17	28	153	19	14	43	116	21	351	4	20	1	153	70	16	9	64	46	118	97	5	95	9	32	5
OTU 186	98	28	0	0	0	0	0	1	0	1	0	0	0	0	4	0	7	0	95	1	28	0	4	2	0	9	17	20	1	35	0	0	5	7	1	2	4	29	797	1	0	0	5	0	48	8	33	0	38	0
OTU 187	226	66	87	121	141	450	81	417	34	3052	42	19	0	105	42	55	703	40	19	2	143	428	117	5	859	1595	57	15	21	788	42	87	38	91	190	50	6	63	36	87	427	53	129	24	194	14	165	225	328	79
OTU 188	97	55	29	209	77	5	71	43	207	12	201	83	111	15	99	59	130	53	13	12	104	14	148	82	26	22	3	4	58	40	55	166	8	16	15	74	92	5	22	13	43	184	69	97	137	39	54	360	61	123
OTU 189	440	6	60	13	11	27	40	31	461	61	10	4	125	137	18	249	23	33	135	4568	14	19	36	11	27	93	51	8	117	84	61	120	11	125	16	23	3585	43	8	4	91	63	22	102	294	133	197	28	60	27
OTU 190	0	2	2	0	5	0	3	0	6	2	0	0	32	0	0	0	11	0	36	1	0	0	0	1	1	0	0	54	0	0	68	0	0	0	0	0	0	0	0	0	0	0	30	0	6	0	2	0	0	0
OTU 191	107	43	39	127	10	2	13	178	9	1	26	15	98	144	27	74	402	8	6	15	2564	1	56	18	5	0	41	4	96	7	130	60	1	17	94	26	7	19	27	6	174	4	159	102	23	95	32	115	135	1
OTU 192	149	311	353	22	22	0	24	1	7	28	29	162	21	1	76	72	23	96	14	4	102	2	23	32	6	20	44	55	97	17	115	49	75	100	7	826	1	996	621	12	38	4	155	148	105	532	14	268	34	156
OTU 193	9	0	35	32	0	806	47	2	82	1	7	13	191	4	2	48	2	0	3	3	10	813	1	32	1584	122	10	1	284	45	45	28	3	54	0	3	28	1870	755	7	3	12	12	3	2784	1	248	0	42	81
OTU 194	271	2	681	11	3	0	0	34	1	0	0	0	0	2	25	71	2	11	1	15	23	1905	0	34	0	0	0	0	33	4	15	6	0	20	7	0	63	0	1	18	11	1	1	56	0	0	13	14	0	7
OTU 195	76	0	1	0	16	1	1	24	17	2	2	27	25	76	4	8	56	33	0	17	1	3	0	0	1	0	2	4	494	1	0	5	0	0	0	0	1	114	1	0	20	48	16	54	102	5	0	15	127	19
OTU 196	44	2	0	1	11	0	2	37	244	26	2	1	0	19	7	5	0	18	88	3	41	0	1	4	0	3	44	3	27	6	84	1	3198	11	15	0	6	526	329	0	13	101	64	18	2	3	0	82	2	8
OTU 197	29	94	33	59	204	7	88	3013	85	11	61	10	17	51	12	131	18	1	122	28	0	13	25	20	26	58	52	241	82	1	93	144	132	73	1623	19	2	21	0	41	11	54	5	45	103	23	134	17	16	1051
OTU 198	16	46	0	1	2	0	6	0	0	0	0	0	0	0	0	0	0	0	23	2	0	3	0	0	2	16	0	15	0	2	21	3	0	0	0	0	0	26	0	0	0	17	10	0	0	10	4	0	32	5
OTU 199	5	3	0	3	42	0	0	3	6	70	6	0	47	9	92	12	58	27	10	16	6	0	28	80	0	2	9	0	30	0	3	5	0	59	4	4	14	43	0	75	1	15	1	0	1	3	25	53	112	21
OTU 200	90	22	2	43	9	3	7	20	31	3	0	18	3	3	44	8	75	6	1	1	6	6	18	1	5	5	11	26	1	2	2	11	6	45	14	9	1	1	0	48	74	25	43	64	14	10	6	3	69	84
