	Host 1	Host 2	Host 3	Host 4	Host 5	Host 6	Host 7	Host 8	Host 9	Host 10	Host 11	Host 12	Host 13	Host 14	Host 15	Host 16	Host 17	Host 18	Host 19	Host 20	Host 21	Host 22	Host 23	Host 24	Host 25	Host 26	Host 27	Host 28	Host 29	Host 30	Host 31	Host 32	Host 33	Host 34	Host 35	Host 36	Host 37	Host 38	Host 39	Host 40	Host 41	Host 42	Host 43	Host 44	Host 45	Host 46	Host 47	Host 48	Host 49	Host 50	
OTU 1	1	1	0	2	1	4	0	2	3	5	8	0	1	8	0	0	1	7	22	8	1	3	0	1	1	1	0	0	3	1	3	8	7	1	16	3	12	4	4	4	2	4	10	7	6	1	4	1	1	4
OTU 2	0	0	0	0	3	0	1	0	0	0	1	0	0	0	1	0	0	0	0	0	0	0	0	1	0	0	0	0	0	0	0	0	2	1	1	2	0	0	0	0	0	0	0	0	0	0	0	0	0	0
OTU 3	3	0	15	0	0	0	1	2	16	1	0	0	0	1	0	0	1	0	5	0	0	0	0	0	0	1	0	0	0	0	0	0	0	0	0	0	1	2	0	16	1	0	0	1	0	0	0	0	0	0
OTU 4	0	0	0	0	0	0	0	0	0	0	0	0	0	0	0	0	0	0	0	0	0	0	0	0	0	0	0	0	0	0	0	0	0	0	0	0	0	0	0	0	0	0	0	0	0	0	0	0	0	0
OTU 5	7	29	11	14	0	19	60	23	10	13	33	5	36	20	52	0	32	4	17	8	8	39	14	48	9	53	11	13	33	1	12	23	19	0	44	15	37	6	18	19	0	9	14	8	10	9	11	61	7	16
OTU 6	2	0	0	1	5	0	3	6	0	1	0	0	1	1	1	0	0	1	2	0	1	1	1	1	27	0	0	0	0	0	0	9	0	0	0	0	1	0	0	0	0	0	0	0	1	60	22	0	1	2
OTU 7	0	2	0	12	4	0	7	0	0	7	12	1	14	0	1	5	5	6	2	3	0	10	1	0	5	1	0	0	1	0	1	1	2	0	6	1	0	4	1	0	0	24	0	3	4	3	8	24	0	0
OTU 8	0	0	3	3	2	0	0	3	2	3	3	1	5	3	2	6	2	5	31	3	3	1	2	4	4	4	0	0	1	0	2	1	0	7	6	4	6	8	0	0	1	1	5	3	1	1	13	1	1	5
OTU 9	1	0	4	2	0	0	2	0	0	1	1	0	0	0	0	0	0	0	0	0	0	0	0	0	1	0	1	0	0	2	0	1	1	0	1	0	0	1	1	0	0	0	0	1	3	0	0	0	0	0
OTU 10	0	4	0	0	0	0	0	0	0	0	0	0	0	0	0	0	1	5	0	0	0	0	2	0	0	0	1	1	0	3	0	0	5	0	1	0	0	0	3	1	0	0	0	0	0	0	0	0	1	0
OTU 11	0	0	0	1	1	0	4	0	0	0	0	0	1	0	1	2	2	0	1	2	0	2	0	0	0	0	0	1	0	1	3	2	1	1	2	0	3	1	0	0	2	1	2	0	2	1	2	0	0	0
OTU 12	1	1	0	0	7	0	0	0	0	2	2	2	2	2	2	3	11	0	1	0	1	0	0	5	5	0	0	1	0	1	1	2	1	2	0	5	0	0	0	1	3	0	1	4	2	3	0	0	6	0
OTU 13	1	0	0	0	0	0	0	0	0	0	0	0	0	0	0	0	0	0	0	0	0	0	0	0	0	1	1	0	0	0	0	0	0	0	0	0	0	0	0	0	0	0	0	0	0	0	0	0	0	0
OTU 14	1	3	3	0	0	0	0	0	1	1	4	3	0	0	0	0	0	0	1	0	0	1	1	0	0	1	0	0	0	0	0	0	1	0	0	0	0	0	0	5	2	0	1	0	1	0	1	0	0	0
OTU 15	0	0	0	0	0	0	0	0	0	0	0	0	0	0	0	0	0	0	0	0	0	0	1	0	0	0	0	0	0	0	0	0	0	0	0	0	0	0	0	0	2	0	0	0	0	0	1	0	0	0
OTU 16	0	0	0	0	0	0	0	0	0	0	0	0	0	0	0	0	0	0	0	0	0	0	0	0	0	0	0	0	0	0	0	0	0	0	0	0	0	0	0	0	0	4	0	0	0	0	0	0	0	0
OTU 17	0	0	1	0	0	0	8	1	0	0	0	0	0	0	0	0	3	1	0	0	0	1	0	0	0	3	1	0	1	0	0	1	1	0	0	0	0	1	0	1	2	0	4	0	3	0	0	1	0	0
OTU 18	0	0	6	0	4	0	6	1	2	1	8	1	1	2	3	0	1	1	3	0	0	1	0	0	4	0	2	2	0	4	1	0	1	8	0	1	1	0	0	7	0	8	3	0	0	1	1	0	4	1
OTU 19	0	0	0	0	0	0	0	0	0	0	0	0	0	0	0	0	0	0	0	0	0	0	0	0	0	0	0	0	0	0	0	0	0	0	0	0	0	0	0	0	0	0	0	0	0	0	0	0	0	0
OTU 20	1	1	0	19	5	0	0	0	0	1	1	0	6	0	0	2	0	2	2	0	3	0	1	0	0	0	1	1	0	1	2	0	4	10	4	1	0	0	2	0	0	5	0	1	0	0	3	1	0	0
OTU 21	2	2	4	1	21	0	0	6	2	1	0	0	0	0	0	3	0	0	0	0	1	1	0	2	0	1	2	0	0	0	6	0	1	1	0	0	0	3	1	0	1	2	2	0	3	0	0	1	0	0
OTU 22	0	0	0	1	8	71	0	2	77	1	2	2	0	3	0	0	2	0	0	0	1	2	34	1	0	0	0	0	110	2	0	3	2	2	2	0	8	1	0	0	69	0	0	0	2	0	5	2	0	3
OTU 23	0	1	0	1	0	2	11	0	1	0	0	0	0	0	9	10	1	0	0	0	0	0	1	0	5	1	4	1	0	11	3	5	5	0	2	0	0	0	6	1	1	1	0	0	0	2	5	2	0	0
OTU 24	0	1	0	0	4	0	3	0	0	0	0	0	0	0	0	0	0	0	0	0	0	0	0	0	0	0	0	0	0	0	0	0	0	0	0	0	0	1	0	0	0	1	0	0	0	0	0	0	0	0
OTU 25	0	0	0	0	0	0	0	0	0	0	0	0	0	0	0	0	0	0	0	0	0	0	0	1	0	0	0	0	0	0	0	0	3	0	0	0	0	0	0	0	0	0	0	0	0	2	0	0	0	0
OTU 26	0	0	1	0	0	0	0	0	0	0	0	0	0	0	0	1	0	0	0	1	0	0	0	0	1	0	0	0	0	3	0	0	0	0	0	0	0	0	0	0	0	1	0	4	1	0	0	0	0	0
OTU 27	0	0	0	0	0	0	0	0	0	0	0	0	0	0	0	0	0	0	1	0	0	0	0	0	0	0	0	0	0	0	0	0	0	0	0	0	0	0	0	0	0	0	0	0	0	0	0	1	0	0
OTU 28	7	0	0	0	0	1	6	0	0	3	0	0	1	0	0	4	1	1	0	1	0	0	0	0	0	1	1	2	4	3	1	0	0	0	0	0	0	0	3	0	0	4	0	0	0	0	2	0	22	2
OTU 29	2	0	1	2	1	0	0	0	0	5	9	0	0	0	0	3	6	6	0	2	1	1	3	0	2	3	0	0	0	2	9	0	0	0	0	1	0	0	1	6	1	4	0	7	2	0	15	1	1	1
OTU 30	0	0	0	0	0	0	1	0	0	0	0	0	0	0	0	0	0	0	0	0	0	0	0	0	0	0	0	5	0	0	0	0	0	0	0	0	0	0	0	0	0	0	0	0	0	0	0	0	0	0
OTU 31	0	0	1	0	0	0	0	0	0	0	0	0	0	1	0	0	0	0	0	0	0	0	1	0	0	0	0	0	0	4	0	1	1	0	0	3	0	1	0	0	0	6	1	0	0	0	0	0	0	0
OTU 32	1	0	0	0	0	15	4	0	3	10	17	0	3	0	2	0	13	0	1	4	0	1	3	1	0	0	0	0	35	19	1	0	3	8	0	2	0	2	87	0	1	10	4	31	1	0	0	2	8	2
OTU 33	25	0	0	0	4	0	0	0	0	0	0	0	0	0	0	0	0	0	0	0	0	0	0	0	0	0	0	0	0	0	0	0	0	0	0	0	0	0	0	0	0	0	0	0	0	0	0	0	0	0
OTU 34	0	0	1	2	8	5	1	1	0	0	0	0	0	59	4	3	0	1	1	0	0	0	2	0	3	12	0	0	12	1	0	2	2	48	2	12	131	4	33	3	0	3	1	0	2	12	0	1	3	57
OTU 35	0	4	2	1	0	0	1	3	0	3	2	37	0	0	5	2	1	20	0	4	2	10	1	0	0	0	2	2	1	0	0	0	4	2	0	0	0	0	1	5	0	1	84	0	5	0	3	0	3	0
OTU 36	0	0	0	1	0	0	0	3	1	0	1	0	1	2	2	0	0	5	0	0	1	0	7	0	1	0	0	0	0	0	0	0	2	57	0	2	3	0	0	0	0	1	0	0	1	1	0	0	2	1
OTU 37	0	0	0	0	0	0	0	0	0	1	0	0	1	1	0	0	0	0	0	0	0	0	26	0	0	0	0	0	0	0	1	0	0	0	0	0	0	0	0	0	8	0	0	0	0	0	0	0	0	0
OTU 38	0	0	0	1	1	8	2	0	0	10	1	1	0	0	0	6	0	1	1	1	0	0	0	0	0	2	1	0	21	2	0	1	0	5	4	0	0	0	33	0	1	7	1	1	0	0	0	0	0	0
OTU 39	0	1	0	0	0	0	0	0	0	0	0	0	1	0	0	0	0	0	0	0	0	1	0	0	0	0	0	3	0	0	3	0	0	0	0	2	0	1	1	2	0	4	0	1	0	0	0	0	0	0
OTU 40	2	33	1	2	5	1	6	0	0	2	1	1	0	0	0	9	2	2	0	0	0	30	5	14	0	2	0	1	1	0	4	2	0	6	0	0	0	6	0	0	4	10	4	1	0	0	0	0	0	0
OTU 41	0	1	1	5	21	1	0	0	1	0	0	2	0	0	2	0	0	0	0	0	0	1	0	0	1	2	0	0	1	1	1	1	0	0	1	0	0	0	1	0	0	0	0	0	2	2	7	0	0	0
OTU 42	0	1	0	0	0	0	0	0	0	0	0	0	0	0	1	0	0	0	0	0	0	0	0	0	0	1	0	1	0	0	5	0	0	3	0	0	0	0	0	0	0	0	0	0	0	0	1	0	0	0
OTU 43	0	0	0	0	0	0	0	0	0	0	0	0	0	0	0	0	0	0	0	0	0	0	0	0	0	0	0	0	0	0	0	0	0	0	0	0	0	0	0	0	0	0	0	0	0	0	0	0	0	0
OTU 44	0	0	0	0	3	0	0	0	2	0	0	0	0	0	0	7	0	0	0	0	0	0	1	0	0	0	2	0	0	0	0	0	0	0	0	0	0	0	0	0	0	0	1	2	0	0	0	0	0	0
OTU 45	20	0	0	0	0	2	0	2	0	0	0	0	10	0	1	5	1	1	0	1	0	0	0	0	0	0	0	2	0	1	4	18	0	0	0	0	1	1	0	0	0	10	2	1	0	2	6	0	9	0
OTU 46	2	4	0	6	0	0	0	1	0	3	2	1	0	0	0	0	0	0	1	2	5	4	3	0	1	1	3	0	0	0	0	0	3	3	2	1	0	0	0	1	1	10	0	0	7	2	8	0	0	0
OTU 47	0	0	0	0	0	0	0	0	0	0	0	0	0	0	0	0	0	0	0	2	0	0	0	0	0	0	0	0	0	0	0	0	0	1	0	0	0	0	0	0	2	0	0	0	0	0	0	0	0	0
OTU 48	2	1	1	0	4	1	0	0	5	0	0	3	0	0	1	2	3	0	3	0	1	0	0	0	0	2	1	1	0	5	2	0	1	0	0	1	2	1	0	14	0	2	1	2	1	0	3	0	2	0
OTU 49	1	0	1	0	0	0	0	1	0	0	0	0	0	1	0	0	0	2	4	0	1	0	0	2	0	0	0	0	3	1	1	2	0	0	0	1	0	0	3	1	3	1	0	6	4	1	0	0	0	1
OTU 50	2	14	7	0	0	1	59	1	0	0	1	0	1	2	6	0	2	4	5	9	3	4	1	6	8	0	2	1	5	0	10	0	3	0	11	4	2	16	7	1	0	9	0	0	0	11	1	0	1	0
OTU 51	0	0	0	1	0	1	1	3	0	0	0	8	0	1	0	0	0	0	0	0	0	2	1	0	0	0	2	0	1	1	1	0	7	4	0	8	0	0	0	0	0	4	35	0	0	0	0	0	1	0
OTU 52	0	7	0	2	18	7	3	5	1	1	8	1	2	2	0	1	4	2	10	1	3	1	0	3	1	1	4	4	16	1	7	1	4	0	3	0	4	1	13	3	2	4	4	4	4	4	10	2	1	1
OTU 53	3	0	0	0	0	0	0	0	0	0	0	0	0	0	0	0	0	0	0	0	0	0	0	0	0	3	0	0	0	0	0	0	0	0	0	0	0	0	0	0	0	0	0	0	2	0	0	0	0	0
OTU 54	0	0	1	4	4	4	11	1	1	33	32	23	12	0	0	4	13	8	6	5	2	0	0	0	0	0	1	0	5	35	2	4	0	3	0	3	1	0	13	10	6	3	21	1	1	0	3	5	2	0
OTU 55	0	0	0	0	0	0	0	0	0	0	0	0	0	0	0	0	0	0	0	0	0	0	0	0	0	0	0	0	0	0	0	0	0	0	0	0	0	0	0	0	0	0	0	0	0	0	0	0	0	0
OTU 56	1	0	0	2	3	0	0	0	0	0	0	0	0	0	0	0	75	0	2	0	0	0	3	0	0	0	0	0	1	34	3	0	1	0	1	0	1	0	0	1	8	0	0	40	0	0	0	0	0	1
OTU 57	1	1	16	5	3	0	2	3	0	1	7	5	3	1	2	13	2	18	3	0	1	4	0	0	6	24	0	4	5	2	2	0	1	3	1	31	0	120	1	1	0	3	0	0	9	0	2	0	0	1
OTU 58	1	0	0	2	0	1	0	0	1	39	1	0	3	0	0	4	0	1	1	1	1	0	1	1	0	0	1	1	0	0	125	0	2	0	0	0	0	65	0	1	2	0	3	1	1	1	10	41	0	0
OTU 59	0	0	0	0	1	0	12	1	0	0	0	0	0	1	0	0	0	1	2	1	0	0	0	0	0	0	0	0	1	4	1	0	2	0	0	0	2	0	2	2	0	0	0	1	0	0	1	1	0	0
OTU 60	20	0	0	1	0	0	4	0	0	0	3	1	3	0	3	0	3	1	0	3	3	0	0	0	1	0	64	0	3	0	2	4	1	0	1	1	1	0	2	2	0	3	0	2	1	0	10	8	0	1
OTU 61	1	0	0	0	2	0	2	22	2	1	0	1	12	15	9	0	2	1	23	3	10	0	2	0	2	0	0	0	0	1	0	3	0	2	0	5	9	0	0	0	6	3	1	0	1	6	1	9	2	11
OTU 62	0	0	21	0	0	0	0	0	14	0	2	0	0	0	0	0	7	0	0	0	0	0	3	0	0	15	0	0	0	0	0	0	1	0	0	3	0	0	0	53	4	0	0	0	0	1	3	0	0	0
OTU 63	0	0	71	1	1	0	0	0	0	0	0	0	0	0	1	3	0	1	0	0	1	0	0	1	3	2	0	0	0	0	0	0	0	0	1	0	0	0	0	0	1	1	1	0	0	0	0	0	0	1
OTU 64	20	1	2	1	0	108	3	23	0	0	1	0	0	14	7	4	3	2	61	5	12	5	2	1	2	2	1	3	3	0	0	37	7	7	0	5	38	4	4	3	4	0	0	0	11	3	0	18	6	17
OTU 65	0	0	0	0	0	0	1	0	0	0	0	0	0	0	0	0	0	0	0	0	0	0	0	0	0	0	0	0	0	0	0	0	0	0	0	0	0	0	0	0	0	0	0	0	0	0	0	0	0	0
OTU 66	0	6	0	2	4	1	2	0	12	0	0	2	0	0	2	6	0	2	1	3	0	0	1	8	0	1	6	0	7	0	1	5	12	3	6	77	0	0	2	10	3	3	0	1	0	0	0	0	1	0
OTU 67	0	2	0	3	1	0	1	0	0	0	0	1	3	0	0	0	1	8	0	0	0	5	2	1	0	0	0	1	0	0	0	0	1	1	0	1	1	3	1	0	2	5	0	0	7	3	0	0	0	0
OTU 68	6	0	3	0	0	0	0	0	1	1	0	0	0	0	0	0	0	1	0	2	0	1	1	0	0	1	0	0	1	3	0	1	0	1	1	0	2	0	0	0	0	0	0	0	9	0	1	1	0	0
OTU 69	0	1	1	0	1	0	1	0	0	0	0	0	1	0	0	1	2	1	2	5	1	1	0	4	2	0	1	5	0	0	1	0	1	0	0	2	0	4	0	4	0	14	0	1	5	0	0	0	0	0
OTU 70	0	0	0	1	0	0	0	0	0	0	0	0	0	0	1	0	0	0	0	0	0	0	0	0	0	0	0	1	2	0	2	0	0	0	0	1	1	0	4	0	0	0	3	0	1	0	0	1	0	0
OTU 71	0	0	2	0	0	0	0	0	0	2	10	0	0	0	0	0	0	0	0	0	0	0	0	0	1	0	0	0	0	1	0	0	0	0	0	0	0	0	2	0	0	0	6	2	1	4	1	1	1	1
OTU 72	0	5	0	12	3	1	0	24	2	0	6	1	85	0	4	0	2	0	2	0	6	1	1	0	0	1	0	0	0	12	0	3	0	0	1	0	0	0	8	0	4	1	0	3	0	0	0	0	1	0
OTU 73	6	0	1	2	0	0	0	1	0	0	0	0	0	1	0	3	1	0	5	1	1	0	0	0	0	0	2	0	0	2	1	1	4	1	0	0	2	1	0	2	0	0	0	5	0	1	2	1	0	2
OTU 74	0	1	0	0	0	0	1	1	0	1	4	2	3	0	0	2	1	0	1	0	1	4	0	0	1	1	0	0	1	3	4	2	4	1	0	0	0	0	0	0	3	0	2	3	1	5	4	1	1	1
OTU 75	5	1	1	5	0	0	0	4	4	0	0	0	0	0	0	13	1	1	1	1	4	3	95	1	0	1	0	0	0	0	1	1	0	2	0	0	0	0	0	6	0	4	4	2	1	3	1	0	0	0
OTU 76	0	0	2	0	0	0	0	0	0	0	0	0	0	0	0	0	0	1	0	0	0	45	0	0	0	0	0	0	0	0	0	0	0	0	2	0	0	0	0	0	0	2	1	0	118	0	2	0	0	0
OTU 77	0	0	7	0	10	3	4	0	0	3	0	0	2	0	1	1	0	4	0	0	0	0	0	0	2	2	1	1	1	0	0	2	6	5	2	0	1	0	2	3	7	1	2	0	0	4	3	0	0	0
OTU 78	1	0	0	1	6	0	0	0	1	0	1	2	0	1	2	2	1	0	0	0	0	3	2	1	0	0	1	0	0	0	0	0	1	3	0	2	1	1	0	4	4	3	0	3	0	0	0	0	1	0
OTU 79	12	2	2	0	10	0	1	56	3	6	7	13	0	2	14	9	2	7	4	1	25	3	2	6	3	6	3	0	1	2	2	4	8	5	3	1	1	2	7	10	4	2	7	9	0	6	2	3	3	1
OTU 80	1	0	0	0	1	1	2	1	5	0	2	1	5	0	2	0	8	1	9	2	0	0	0	0	0	0	0	72	0	0	1	2	0	2	1	0	1	0	2	2	4	3	3	3	1	1	1	0	0	1
OTU 81	1	0	19	5	3	0	0	12	21	0	5	1	10	2	1	0	1	4	12	1	11	0	5	0	0	19	0	29	1	0	1	0	0	0	2	5	7	0	0	45	1	0	2	0	1	0	8	2	0	2
OTU 82	0	2	3	1	0	0	0	1	0	0	0	0	0	0	4	7	0	1	0	1	1	0	1	0	2	0	0	0	0	0	2	0	2	0	5	0	0	0	1	0	5	0	0	0	5	1	0	0	1	0
OTU 83	0	0	0	0	0	0	0	0	0	0	4	0	1	0	0	5	0	0	0	0	0	0	0	0	0	0	0	0	0	0	0	0	1	0	0	0	0	0	0	0	0	0	0	0	0	2	6	0	0	0
OTU 84	0	4	1	0	1	1	0	0	0	6	0	0	0	0	0	0	0	1	0	1	0	0	0	4	0	0	0	0	1	0	7	0	4	5	3	0	2	0	0	1	3	0	0	0	0	3	0	0	0	0
OTU 85	0	0	0	0	0	1	0	0	0	3	5	0	0	0	0	0	0	0	0	0	0	0	0	1	0	0	0	0	0	0	0	0	0	0	0	0	0	1	0	0	0	0	1	0	0	0	0	0	1	0
OTU 86	0	0	2	0	0	0	0	0	0	0	0	0	0	0	1	0	0	0	0	0	0	0	1	0	0	0	0	0	0	0	0	0	0	0	0	0	0	0	0	2	0	0	0	0	0	0	0	0	0	0
OTU 87	0	0	0	0	1	0	1	0	0	1	0	0	1	0	4	0	0	0	1	1	0	0	0	0	1	0	0	0	0	0	1	2	0	0	0	0	2	0	0	0	0	4	0	1	0	0	0	0	1	0
OTU 88	0	0	0	0	0	0	0	0	2	0	0	0	0	0	0	0	0	0	0	1	0	0	1	0	2	11	0	0	0	0	0	0	0	3	0	1	0	0	0	0	0	0	0	0	0	0	0	0	0	0
OTU 89	0	0	0	1	0	0	0	0	1	1	0	0	0	0	0	2	0	0	0	14	1	1	1	0	0	0	0	0	0	0	0	2	2	0	0	0	0	0	0	1	2	0	0	0	0	0	1	0	0	0
OTU 90	0	0	0	0	0	0	0	0	0	0	0	0	3	0	0	0	0	2	0	0	1	0	0	0	0	0	0	0	0	0	2	0	0	0	0	0	0	0	0	0	0	0	0	0	0	0	0	0	0	0
OTU 91	0	0	0	0	0	0	0	0	0	0	0	0	0	45	0	0	0	0	0	0	0	0	0	0	0	0	0	0	0	0	0	0	0	0	0	0	0	0	0	0	0	0	0	0	0	0	0	0	0	0
OTU 92	1	0	0	0	0	0	0	2	0	0	0	0	0	0	0	0	0	0	0	2	0	0	0	0	0	0	0	0	0	0	2	1	1	0	0	0	0	0	0	0	0	1	1	0	0	1	1	0	0	0
OTU 93	0	0	0	0	0	0	0	0	0	0	0	2	0	0	0	0	0	0	0	0	0	0	0	0	0	0	0	0	0	0	0	0	0	0	0	0	0	0	0	0	0	0	0	0	0	0	0	0	0	0
OTU 94	4	0	4	0	8	3	2	6	0	0	1	3	1	0	3	0	4	1	1	0	0	0	3	0	0	1	0	5	0	0	0	13	0	12	0	2	0	0	0	0	6	1	0	1	4	1	24	0	16	0
OTU 95	0	0	0	1	2	0	3	0	1	0	0	0	1	0	0	1	2	1	0	0	0	0	0	0	0	0	0	0	0	0	1	0	0	0	0	0	0	0	0	5	0	0	0	0	0	0	4	40	1	0
OTU 96	0	2	2	0	0	0	0	0	0	0	0	0	0	0	0	0	1	0	0	0	0	0	0	1	0	0	0	0	0	0	0	0	3	0	0	0	0	0	0	0	0	0	1	0	0	2	0	0	0	0
OTU 97	0	0	0	0	0	0	1	0	0	0	2	0	0	0	0	0	0	0	0	0	0	6	0	0	0	0	1	0	0	2	0	0	4	0	0	0	0	0	0	0	0	0	0	2	9	0	0	0	0	0
OTU 98	4	0	4	0	0	0	0	0	0	0	1	0	1	0	0	0	0	0	0	0	0	0	0	0	0	5	0	1	0	0	0	0	0	0	1	0	0	1	1	3	0	0	0	0	0	0	0	0	0	0
OTU 99	2	0	2	16	1	2	1	12	0	0	1	7	0	0	1	1	1	0	16	1	3	0	2	2	11	2	0	1	0	0	1	5	0	15	1	23	6	4	0	0	5	7	25	0	0	30	1	3	4	1
OTU 100	0	0	0	0	1	1	0	0	0	0	0	0	0	0	0	2	0	0	2	1	2	0	0	0	0	0	0	82	3	1	28	0	2	0	35	1	0	8	3	0	1	1	0	1	3	4	2	0	2	0
OTU 101	0	0	0	0	0	0	0	0	0	1	1	0	0	0	0	0	0	0	0	0	0	0	0	0	0	0	0	0	0	0	0	0	0	1	0	0	0	0	0	0	0	0	0	0	0	0	0	0	0	0
OTU 102	0	0	1	0	4	0	0	2	0	0	0	0	0	0	0	0	0	1	0	0	0	1	0	0	0	1	0	1	0	0	0	0	0	0	2	0	0	0	0	0	0	1	0	0	0	0	0	0	0	0
OTU 103	0	8	0	0	0	1	3	0	0	0	0	0	0	0	6	10	0	0	0	21	0	0	0	4	11	0	13	24	1	1	18	0	28	0	20	0	0	8	0	0	2	3	1	0	1	27	0	1	3	0
OTU 104	7	31	0	1	0	0	3	8	0	0	0	0	0	6	7	1	4	0	10	0	5	0	4	10	1	2	2	0	0	0	8	23	7	1	7	0	4	1	0	2	13	6	3	1	1	1	6	3	24	4
OTU 105	0	0	0	0	0	0	0	0	0	0	2	1	0	0	0	0	1	4	2	0	0	0	0	0	0	0	0	6	0	0	0	0	0	3	0	0	2	0	0	0	5	0	0	0	0	1	1	0	0	0
OTU 106	0	0	1	0	0	0	0	0	0	0	0	1	0	0	0	0	0	0	0	0	0	0	0	0	0	0	0	0	0	0	0	0	0	0	0	1	0	1	0	0	0	0	0	0	0	0	0	0	0	0
OTU 107	0	0	0	0	0	0	1	0	0	0	4	0	1	0	0	2	0	0	0	0	0	0	0	0	0	0	0	0	0	0	0	0	0	0	0	0	0	0	0	0	0	0	1	8	0	0	0	0	0	0
OTU 108	1	0	3	0	0	0	0	3	0	0	0	0	0	0	0	0	0	1	3	0	2	0	0	0	0	0	0	0	0	1	0	1	0	0	0	0	0	1	0	0	1	0	0	2	1	0	0	1	0	0
OTU 109	0	0	0	0	0	0	0	0	1	0	0	1	0	0	0	0	0	0	0	0	0	0	0	0	0	0	0	0	0	0	0	0	0	0	0	0	0	0	0	0	0	0	0	0	0	0	0	0	0	0
OTU 110	3	0	4	0	0	0	2	0	0	0	0	1	0	0	0	0	0	2	1	0	0	7	1	0	1	1	0	4	0	0	1	6	0	0	0	2	2	0	1	1	0	0	3	1	2	3	6	74	0	0
OTU 111	0	0	0	0	3	0	0	0	0	0	0	0	0	0	0	0	2	0	0	0	0	0	0	0	0	0	0	0	0	0	1	0	0	0	0	0	0	0	0	0	0	0	0	1	0	2	2	0	0	0
OTU 112	0	1	0	0	2	0	2	0	0	0	0	0	0	0	0	0	0	1	0	0	1	3	0	0	0	1	0	0	0	1	0	0	0	0	3	0	0	1	0	0	0	0	1	0	0	0	5	0	0	1
OTU 113	0	0	0	0	0	0	0	0	0	0	0	0	0	0	0	1	0	0	0	0	0	0	0	0	0	0	0	0	0	1	0	0	0	0	0	0	0	0	1	0	2	0	0	0	0	0	0	2	0	0
OTU 114	1	33	0	4	0	1	1	2	1	1	0	0	0	2	0	5	1	1	6	1	0	0	1	16	2	0	32	0	0	0	4	3	56	2	0	2	6	2	0	0	7	44	1	0	2	4	1	1	3	3
OTU 115	4	0	4	10	9	1	1	0	1	1	0	0	8	0	5	2	2	1	1	0	3	0	0	3	1	1	1	2	0	9	3	1	2	7	9	0	1	3	0	3	2	1	2	5	2	2	5	0	1	1
OTU 116	0	1	1	0	5	0	9	3	1	0	0	0	2	0	4	0	0	21	0	0	1	4	10	0	2	5	0	0	0	0	2	1	1	1	0	36	0	0	0	0	14	17	1	0	14	4	0	0	0	0
OTU 117	0	1	1	2	10	0	0	43	2	1	0	0	3	0	0	1	2	5	0	0	25	0	1	4	3	0	2	0	2	0	0	1	5	8	1	1	1	3	7	0	4	0	2	0	0	4	5	0	0	0
OTU 118	0	0	0	0	0	0	0	0	0	0	0	0	0	0	0	0	0	0	0	0	0	0	0	1	2	0	1	0	0	1	0	0	3	0	0	0	0	0	0	0	0	1	0	0	1	4	0	0	0	0
OTU 119	0	3	0	1	2	1	0	1	1	0	2	0	1	0	0	6	8	1	0	3	2	1	0	68	2	4	1	1	0	1	0	3	1	0	14	0	1	0	0	1	1	1	1	1	3	0	0	0	1	0
OTU 120	0	1	0	1	0	0	4	1	1	0	1	0	0	0	0	0	0	0	2	28	0	0	1	0	0	0	0	0	0	0	0	0	0	1	0	1	1	0	0	0	0	0	3	0	0	0	0	1	0	0
OTU 121	0	0	2	0	0	2	0	1	0	0	1	0	0	0	0	0	0	0	0	0	1	0	0	0	3	0	0	1	0	0	0	0	0	1	6	0	0	0	0	0	0	1	1	0	0	4	0	0	0	0
OTU 122	0	0	2	1	1	1	0	4	2	6	7	3	0	0	2	0	6	2	0	1	0	4	1	0	0	4	0	0	3	0	0	0	6	0	1	0	0	1	1	0	0	0	4	6	2	3	3	0	0	0
OTU 123	8	3	9	5	4	8	17	2	0	7	14	6	1	0	18	11	2	2	7	6	1	0	4	2	2	8	6	6	24	1	0	2	5	10	0	5	1	1	9	3	9	2	8	7	1	6	13	1	0	0
OTU 124	0	2	0	1	0	0	4	1	2	0	0	0	1	0	0	4	0	0	0	0	0	0	0	0	0	0	0	0	0	0	0	2	0	4	0	0	0	0	0	0	0	0	0	0	0	0	0	0	2	0
OTU 125	0	3	3	36	1	0	4	0	4	4	7	2	6	2	10	2	20	4	1	1	3	74	6	3	100	0	1	4	0	2	3	5	0	16	6	4	1	39	0	11	2	2	15	3	1	3	11	0	0	1
OTU 126	0	0	0	0	0	0	0	5	0	0	0	0	0	0	0	0	0	0	0	0	0	0	0	0	0	0	0	0	0	0	0	0	0	0	0	0	0	1	0	0	0	0	0	0	0	0	0	0	0	0
OTU 127	0	0	0	0	1	1	0	2	0	2	1	2	17	0	1	3	0	6	0	0	1	0	0	0	0	0	0	0	2	0	0	0	0	0	1	0	0	0	0	2	0	0	1	0	0	0	3	0	0	0
OTU 128	23	4	6	130	24	1	11	1	1	3	3	0	13	0	7	12	1	5	6	5	1	2	7	18	2	0	2	1	1	7	5	6	2	8	1	4	6	2	3	10	1	16	0	9	8	7	0	1	3	3
OTU 129	0	0	0	9	0	0	1	0	0	0	1	0	0	0	0	0	0	0	0	0	0	0	0	0	0	0	0	0	0	0	0	0	0	0	1	2	0	0	0	0	0	0	0	2	2	0	0	0	0	0
OTU 130	1	0	0	0	0	0	0	1	0	1	2	1	0	0	0	3	4	0	0	2	1	1	0	0	1	0	1	0	0	0	0	0	0	3	1	3	0	0	0	0	0	5	0	1	0	1	1	0	0	0
OTU 131	0	46	2	0	0	0	1	3	1	0	5	0	0	0	8	2	5	3	0	0	0	0	0	16	1	1	39	0	1	0	0	0	76	0	1	2	0	0	1	8	1	1	3	4	2	2	0	1	0	0
OTU 132	0	0	0	0	0	0	0	2	0	0	0	0	0	1	0	1	1	0	0	0	0	0	0	0	0	2	0	0	0	0	0	0	0	4	0	0	1	0	0	0	0	0	0	2	0	1	0	0	8	0
OTU 133	0	1	0	1	0	0	0	0	0	0	0	0	0	0	0	0	2	0	0	0	0	0	0	0	0	0	0	0	0	0	0	0	0	1	0	0	0	0	0	0	0	1	0	1	0	0	0	0	0	0
OTU 134	1	0	0	0	10	1	1	3	2	0	1	0	2	0	3	0	5	0	3	35	0	8	4	0	0	0	0	0	0	1	6	4	0	0	0	5	1	1	0	5	8	0	1	0	9	0	0	0	0	2
OTU 135	0	0	4	0	0	0	0	3	0	3	1	0	0	3	13	3	1	1	3	0	0	1	4	0	0	0	0	2	0	0	0	1	0	0	0	3	2	0	2	0	1	0	2	6	1	2	0	2	8	0
OTU 136	0	2	0	2	0	0	0	0	0	2	3	0	0	0	1	0	0	0	0	0	0	0	0	0	0	0	0	6	0	0	0	0	0	0	2	4	1	2	0	4	2	0	1	0	0	2	2	0	0	0
OTU 137	17	0	0	0	0	0	0	4	1	0	0	0	0	0	1	1	1	0	0	0	0	0	1	0	0	0	0	0	0	0	0	69	0	0	1	0	1	0	0	0	1	0	0	1	1	1	1	0	20	0
OTU 138	0	0	0	0	3	0	0	0	0	0	0	0	4	0	0	4	0	1	2	0	0	0	0	0	1	0	0	0	0	0	0	0	0	0	0	2	0	0	0	0	0	0	0	0	0	0	0	0	0	0
OTU 139	4	6	0	0	11	0	8	0	0	2	0	144	0	4	2	3	9	13	1	1	1	1	9	2	8	68	0	4	2	1	4	2	3	1	3	1	4	4	2	2	4	0	0	3	4	2	1	3	3	0
OTU 140	1	78	5	2	9	6	11	2	1	141	11	4	7	1	1	3	8	2	0	1	3	1	4	48	0	0	1	0	12	94	4	4	0	5	17	5	1	2	2	8	7	2	3	3	4	2	13	0	149	2
OTU 141	0	0	0	0	0	0	0	0	0	0	0	0	0	0	0	0	0	0	0	0	0	0	0	0	0	0	0	0	0	0	0	0	0	0	0	0	0	0	0	0	0	0	0	0	0	0	0	0	0	0
OTU 142	0	1	0	0	0	0	0	0	0	0	0	0	0	0	0	0	0	0	0	0	0	0	0	0	0	0	0	1	0	0	0	0	0	0	0	0	0	2	0	0	0	0	0	0	0	0	0	0	0	0
OTU 143	0	0	0	0	0	0	0	0	0	0	1	0	0	0	0	0	0	0	0	0	0	0	0	0	0	0	0	0	0	1	0	0	0	0	4	0	0	0	0	0	0	0	0	0	1	0	0	0	0	0
OTU 144	0	0	0	0	1	0	0	0	0	3	3	1	0	0	0	0	0	0	0	0	0	0	3	0	0	0	1	0	0	0	0	0	0	3	0	0	0	0	0	0	5	0	3	0	0	0	0	0	0	0
OTU 145	0	1	0	6	1	0	6	0	1	1	4	0	1	3	6	0	0	0	2	0	0	0	2	1	0	1	0	36	0	0	0	0	0	1	1	0	0	1	2	0	12	8	0	2	0	5	0	2	1	213
OTU 146	0	0	0	0	3	0	0	0	1	0	0	0	0	0	0	1	1	2	1	2	0	0	5	1	3	0	147	3	0	1	2	0	2	0	0	0	0	3	0	0	4	1	0	0	0	0	5	0	1	1
OTU 147	0	0	1	0	2	0	0	0	0	3	0	1	0	0	1	2	0	0	0	0	0	0	0	0	3	1	0	0	0	0	0	0	2	0	0	1	1	0	0	0	0	1	2	1	0	2	0	0	0	0
OTU 148	0	5	0	0	0	0	5	0	2	0	4	0	6	0	57	6	4	2	1	11	0	1	34	8	7	0	13	6	0	0	12	0	15	5	5	0	0	15	0	0	0	0	7	0	1	22	3	0	0	0
OTU 149	1	0	0	0	0	0	2	0	0	0	0	0	0	0	0	3	0	0	4	1	0	0	0	0	0	0	0	0	0	0	0	0	0	0	3	0	1	0	0	0	2	0	0	0	0	1	0	0	0	0
OTU 150	0	0	0	2	0	0	2	0	0	2	0	0	0	0	5	2	0	0	0	0	0	0	0	0	0	0	0	0	0	0	0	0	0	0	1	0	0	1	0	0	0	0	0	0	0	0	0	0	0	0
OTU 151	1	0	0	0	0	0	0	0	0	0	1	0	5	0	0	3	5	7	0	1	0	0	0	0	0	1	0	1	0	0	3	0	0	0	0	0	4	1	0	0	0	1	0	3	1	0	0	1	1	0
OTU 152	0	0	0	1	10	0	0	3	0	3	1	0	3	0	3	3	0	0	0	1	2	1	4	0	0	2	1	0	0	1	0	1	0	0	2	0	0	1	0	1	2	2	5	0	2	1	2	0	0	0
OTU 153	0	0	0	0	0	0	1	0	0	0	1	0	0	0	0	0	1	0	0	1	0	0	0	0	0	0	0	1	0	0	0	0	0	0	0	0	0	0	0	0	0	0	0	0	0	0	0	0	0	0
OTU 154	0	0	0	0	0	0	0	0	0	0	0	0	0	0	0	0	0	0	0	0	0	1	0	0	0	0	0	0	0	0	0	0	0	0	0	0	0	0	0	0	0	0	0	0	4	1	0	0	0	0
OTU 155	0	0	0	0	4	0	6	1	0	0	0	20	0	0	1	0	4	0	1	1	1	0	0	0	0	4	0	0	0	0	1	6	0	0	1	0	0	0	0	1	1	0	0	0	0	0	0	0	0	0
OTU 156	6	8	1	1	0	64	0	0	1	1	6	0	8	0	0	32	3	4	7	3	0	0	0	2	1	1	0	8	1	8	1	3	0	0	2	3	1	2	1	3	0	2	0	1	0	2	3	0	1	1
OTU 157	0	0	0	0	0	0	0	0	0	0	0	0	0	0	0	2	0	0	0	1	0	0	0	0	0	1	0	0	0	5	0	0	1	0	0	2	0	0	0	0	2	0	1	0	0	0	0	0	1	0
OTU 158	0	0	0	0	0	0	0	0	0	0	0	0	0	0	0	0	0	0	0	0	0	0	0	0	0	0	0	0	0	0	0	0	0	0	0	0	0	0	0	0	0	0	0	0	0	0	0	0	0	0
OTU 159	0	1	0	0	6	0	0	0	2	0	1	0	2	0	2	0	1	0	0	1	0	0	0	0	0	0	1	2	1	1	6	2	0	4	0	0	0	2	0	0	0	1	0	1	3	0	1	28	0	0
OTU 160	5	0	5	6	2	2	0	1	0	3	12	2	9	11	7	10	1	8	1	2	1	8	2	0	0	23	2	0	0	1	0	5	3	7	2	26	2	2	0	3	3	1	7	0	7	1	1	1	1	0
OTU 161	0	1	61	2	8	0	2	0	0	0	0	7	6	1	7	2	3	0	0	0	0	1	1	18	5	1	0	0	0	0	1	1	0	0	1	0	1	3	1	0	3	1	1	0	1	2	0	0	2	0
OTU 162	3	0	0	1	2	18	2	0	0	4	5	0	0	0	3	0	2	4	0	0	0	1	0	0	0	0	0	0	29	0	1	2	0	0	0	0	3	2	0	1	0	4	4	1	0	0	2	0	0	0
OTU 163	0	0	0	0	0	0	0	0	0	0	0	0	0	0	0	0	0	0	0	0	0	0	0	0	0	0	0	0	0	0	0	0	0	0	0	0	0	0	0	0	0	1	0	0	0	0	0	3	0	0
OTU 164	1	0	0	0	0	0	0	0	0	0	0	0	0	0	0	0	0	0	0	0	0	0	0	0	0	0	0	0	0	0	0	0	0	0	0	0	0	0	0	0	1	0	0	0	0	0	0	0	0	0
OTU 165	1	0	0	0	0	0	0	0	0	2	6	1	4	0	0	1	0	1	0	0	0	0	0	0	0	1	0	0	2	25	0	1	0	0	0	0	0	0	6	0	2	3	4	50	0	0	0	0	3	0
OTU 166	0	0	0	0	0	0	0	0	0	0	0	0	0	0	0	0	0	0	0	0	0	0	0	0	0	0	0	0	0	0	0	0	0	0	1	0	0	0	0	0	0	0	0	0	0	0	0	0	0	0
OTU 167	2	0	0	0	0	0	0	1	0	1	0	4	0	0	1	0	1	0	0	0	1	0	0	0	1	2	0	0	0	0	0	2	0	1	0	0	0	0	0	0	3	1	0	0	0	0	0	0	0	0
OTU 168	1	1	0	2	1	0	0	0	0	0	2	2	2	0	3	0	1	0	0	0	0	1	0	0	1	0	1	0	0	30	0	0	2	0	5	1	0	0	0	2	0	0	3	56	0	0	0	0	1	1
OTU 169	0	0	0	0	0	0	0	0	0	0	0	0	0	0	0	0	0	0	1	0	0	0	0	0	0	0	0	0	0	0	0	0	0	0	0	0	0	0	0	0	0	3	0	0	2	0	0	0	0	0
OTU 170	0	0	0	1	0	0	0	0	0	0	0	0	0	0	0	2	0	0	0	1	0	0	0	0	0	0	0	0	0	0	0	0	0	0	0	0	0	0	0	0	0	0	0	0	2	4	1	0	0	0
OTU 171	0	0	0	1	11	0	0	0	3	0	0	0	0	0	0	8	1	0	5	0	0	0	0	1	0	0	0	3	0	0	0	0	0	0	0	0	3	0	3	0	0	2	3	0	1	2	11	2	0	1
OTU 172	0	1	0	0	0	0	0	0	0	2	0	1	0	0	0	1	0	0	0	0	0	0	0	0	0	0	0	0	0	0	0	1	0	0	0	0	0	0	0	0	1	0	0	0	0	0	1	0	0	0
OTU 173	0	0	0	0	0	0	0	4	0	0	2	0	3	0	1	0	0	0	1	0	1	0	0	0	0	0	0	0	0	0	0	0	0	3	0	0	0	0	0	3	0	0	0	3	0	1	0	0	0	0
OTU 174	3	1	0	0	0	0	2	0	0	0	0	2	3	1	0	0	0	74	2	1	0	9	0	0	0	4	0	1	1	0	0	15	0	1	0	0	2	0	1	2	0	3	0	0	19	0	0	0	0	1
OTU 175	0	0	3	0	0	1	0	0	0	0	0	0	0	0	0	0	3	0	0	0	0	1	0	2	0	0	0	0	1	0	0	0	1	7	0	0	0	0	1	0	1	0	0	1	1	0	0	0	0	0
OTU 176	0	1	3	0	1	0	0	4	0	1	2	0	0	1	3	6	1	0	3	20	1	1	0	4	0	0	0	3	0	0	0	0	3	0	0	6	0	0	1	0	1	5	1	1	0	3	0	0	2	0
OTU 177	0	0	1	3	3	2	1	0	3	1	0	1	0	5	0	0	4	12	0	3	1	2	6	0	4	0	0	1	1	2	1	0	0	2	0	1	0	0	6	1	9	0	1	0	6	11	3	3	0	1
OTU 178	2	5	0	0	9	0	0	0	0	0	0	0	0	0	0	5	0	5	0	1	0	1	0	0	0	0	0	3	0	0	1	0	1	0	0	0	0	0	1	0	0	0	0	0	1	0	1	0	0	0
OTU 179	79	0	2	1	0	0	1	0	0	5	0	0	1	0	0	0	0	10	2	123	1	5	1	0	0	0	0	0	0	1	1	0	0	0	2	3	0	0	0	2	0	1	0	0	2	0	0	0	2	1
OTU 180	3	1	0	6	7	1	8	5	3	4	9	5	7	0	8	23	2	8	1	0	0	0	4	1	2	2	0	8	1	3	0	4	1	3	8	6	1	0	0	1	12	6	3	2	6	4	3	1	3	0
OTU 181	0	0	0	0	0	0	0	3	1	0	1	0	1	1	0	8	0	19	0	1	2	3	20	0	0	0	0	0	1	0	4	4	0	0	1	2	0	0	0	1	30	0	1	0	7	1	0	1	2	0
OTU 182	0	0	0	0	0	0	1	0	0	0	0	0	0	0	2	0	1	0	0	0	0	0	0	0	0	0	0	0	0	0	0	0	0	0	0	0	0	0	0	0	0	0	0	0	0	0	0	2	0	0
OTU 183	0	0	0	2	0	0	0	0	0	0	0	1	2	0	0	7	3	3	1	0	0	1	0	0	0	3	0	0	0	2	0	3	1	3	6	2	0	0	0	2	4	3	0	0	0	0	0	1	1	0
OTU 184	0	0	0	1	0	0	9	0	0	0	0	1	1	0	0	1	3	3	3	0	0	0	0	34	0	0	0	0	0	0	0	0	0	6	0	0	0	0	0	0	0	1	0	0	0	0	4	3	1	0
OTU 185	1	0	0	0	3	0	1	4	0	2	4	0	7	2	0	1	32	0	2	4	0	3	0	0	83	1	1	1	1	18	1	6	5	6	19	0	1	1	0	4	0	5	0	22	1	1	5	0	3	0
OTU 186	0	1	0	0	1	0	0	0	0	0	0	0	0	0	1	0	0	0	0	0	1	0	0	0	3	0	0	0	0	1	0	0	0	0	2	1	0	0	2	0	0	0	1	0	0	0	0	0	0	0
OTU 187	0	5	3	3	9	1	4	9	1	2	3	2	4	2	11	4	2	0	2	1	7	0	8	1	6	0	5	5	0	0	1	10	3	4	7	0	6	2	1	0	11	2	3	0	0	6	8	0	4	2
OTU 188	1	1	0	0	1	0	2	5	12	0	5	3	1	0	14	1	1	0	0	0	182	0	0	2	0	2	0	1	0	0	2	0	0	3	1	0	0	0	2	5	0	0	4	5	0	0	4	0	0	0
OTU 189	3	0	1	2	7	0	1	0	0	1	2	0	4	24	2	15	0	2	9	0	0	0	4	1	2	1	0	1	0	0	1	0	3	2	0	0	34	1	3	1	3	4	1	1	0	4	7	4	0	14
OTU 190	0	0	3	0	0	3	0	0	0	1	1	0	0	0	0	0	0	1	0	0	0	0	2	0	0	0	0	0	0	0	0	0	0	0	0	0	0	0	0	0	0	2	0	0	0	0	0	0	0	0
OTU 191	0	0	0	0	2	0	3	2	0	1	5	1	4	2	11	3	0	0	4	0	3	1	0	1	0	4	0	0	0	3	1	1	1	2	0	0	1	0	0	0	4	1	0	0	0	0	5	0	3	1
OTU 192	5	0	30	2	0	0	0	9	30	0	0	0	4	0	0	1	3	3	7	2	7	4	1	1	0	48	2	4	0	1	0	3	1	3	1	24	0	1	7	38	1	0	7	8	5	0	0	6	0	4
OTU 193	0	1	1	0	1	9	4	8	1	2	7	2	0	2	0	5	0	0	14	0	11	0	0	4	0	4	0	0	16	1	0	0	2	0	0	2	8	0	37	0	0	3	2	3	0	0	20	11	3	2
OTU 194	23	0	2	0	0	2	0	0	0	0	2	0	1	0	3	3	0	0	0	0	0	0	0	0	1	0	0	0	3	0	0	10	0	0	0	0	0	0	4	0	0	0	2	0	0	0	0	0	15	0
OTU 195	1	0	1	1	0	3	0	0	0	0	0	0	0	0	0	0	0	7	0	0	0	1	0	1	3	0	0	0	7	0	0	0	0	0	2	0	0	0	9	3	1	1	0	0	0	8	0	0	2	0
OTU 196	2	1	0	0	0	3	0	1	0	1	6	1	0	131	1	0	0	1	1	0	0	0	0	0	0	3	0	1	2	0	21	1	0	0	47	1	0	8	9	1	0	1	0	0	0	0	1	0	0	0
OTU 197	1	1	0	1	5	1	7	5	117	4	15	42	0	1	0	1	4	0	8	3	3	0	3	0	13	1	0	0	0	0	1	5	1	8	2	1	1	0	0	3	1	6	10	0	1	25	3	2	3	1
OTU 198	10	0	2	0	0	0	0	0	0	0	0	0	3	1	0	0	0	0	0	0	0	46	0	0	0	0	0	0	0	0	0	0	0	0	0	0	0	0	0	0	0	1	0	0	0	3	0	0	1	1
OTU 199	0	0	1	3	1	0	0	1	0	1	10	0	1	0	0	1	0	0	0	2	0	1	1	0	1	0	0	0	0	1	0	0	0	4	2	1	0	0	0	0	0	1	2	0	4	1	1	0	0	0
OTU 200	0	0	0	0	3	0	1	1	2	0	0	0	4	2	0	0	0	1	0	0	1	0	0	0	0	0	0	0	0	0	2	4	0	1	0	1	2	0	0	0	0	2	0	2	0	1	0	2	0	1
