	Host 1	Host 2	Host 3	Host 4	Host 5	Host 6	Host 7	Host 8	Host 9	Host 10	Host 11	Host 12	Host 13	Host 14	Host 15	Host 16	Host 17	Host 18	Host 19	Host 20	Host 21	Host 22	Host 23	Host 24	Host 25	Host 26	Host 27	Host 28	Host 29	Host 30	Host 31	Host 32	Host 33	Host 34	Host 35	Host 36	Host 37	Host 38	Host 39	Host 40	Host 41	Host 42	Host 43	Host 44	Host 45	Host 46	Host 47	Host 48	Host 49	Host 50	
OTU 1	0	6	0	6	1	1	6	8	3	2	2	17	2	0	11	3	3	1	13	12	0	8	17	7	1	4	5	6	3	0	5	9	5	2	0	1	1	10	3	8	7	8	3	3	7	0	2	6	3	2
OTU 2	0	2	0	1	0	0	0	0	1	2	0	0	0	1	1	0	0	0	0	0	0	0	0	0	0	0	0	2	2	0	2	0	0	0	0	0	0	0	0	4	0	0	0	0	0	0	1	0	0	0
OTU 3	0	0	0	0	0	0	0	0	0	0	0	0	0	0	0	0	0	0	0	0	0	0	0	0	1	0	0	0	0	0	0	0	0	0	0	4	0	0	0	0	0	0	0	0	0	4	1	0	0	0
OTU 4	0	0	0	0	0	0	0	0	0	0	0	0	0	0	0	0	0	0	0	0	0	0	0	0	0	0	0	0	0	0	0	0	0	0	0	0	0	0	0	0	0	0	0	0	0	0	0	0	0	0
OTU 5	17	0	22	14	8	0	20	2	22	1	2	1	28	5	46	4	56	15	41	14	1	14	5	4	4	33	21	0	12	71	4	11	58	8	0	13	5	8	5	2	16	1	7	42	21	0	50	21	7	41
OTU 6	0	0	0	0	0	0	1	0	0	0	0	0	4	0	1	2	0	0	0	1	0	1	0	1	0	0	0	0	0	0	2	1	0	0	0	4	2	0	0	1	0	0	0	0	0	1	5	0	0	0
OTU 7	1	0	2	4	2	6	0	0	6	6	20	0	0	1	1	1	1	6	5	1	12	0	1	2	3	2	2	2	12	1	16	0	6	1	1	6	11	0	0	26	5	3	0	0	6	3	1	9	0	0
OTU 8	2	10	1	0	0	11	5	1	4	6	2	0	3	1	4	1	1	1	1	4	3	10	4	1	1	1	0	5	0	0	3	10	0	1	1	0	1	7	0	1	0	0	4	1	3	1	3	3	3	0
OTU 9	3	1	0	0	0	2	0	0	0	1	0	0	0	0	0	3	0	5	5	0	0	0	0	0	0	8	40	0	0	0	0	0	0	0	0	2	1	1	1	1	1	8	3	0	0	0	0	0	0	0
OTU 10	0	0	0	0	0	0	0	0	7	6	13	0	0	1	0	0	0	5	9	0	0	0	0	1	0	5	1	0	11	1	3	0	0	0	0	0	0	0	0	26	0	0	0	0	0	0	0	5	63	1
OTU 11	3	0	1	1	0	1	1	1	0	0	5	0	6	0	2	1	1	0	0	6	0	0	0	0	3	1	4	2	0	1	6	1	0	0	5	0	0	1	0	1	2	0	0	0	0	2	0	1	0	0
OTU 12	0	2	1	0	0	5	2	1	6	1	0	0	6	6	0	2	0	1	0	1	0	2	0	0	1	2	0	1	2	0	2	4	1	0	0	0	2	1	0	1	2	1	0	0	0	1	1	0	13	0
OTU 13	0	0	0	0	0	0	0	0	0	0	1	5	0	0	0	0	0	0	0	0	0	0	0	0	0	0	0	0	0	3	0	0	0	0	0	0	0	0	0	0	0	0	0	0	0	0	1	0	0	0
OTU 14	0	1	2	0	0	0	0	0	0	0	0	0	0	0	0	0	0	0	0	0	0	0	0	1	0	0	0	0	0	0	1	1	0	0	4	0	0	0	0	0	0	0	0	0	0	0	0	0	10	0
OTU 15	0	0	0	0	1	0	0	0	1	0	0	0	0	0	0	0	0	0	0	0	0	0	0	0	0	0	0	0	0	0	0	0	0	0	0	0	0	0	0	0	0	0	0	0	0	0	0	0	0	0
OTU 16	0	0	0	0	0	0	0	0	0	0	0	0	0	0	0	0	0	0	0	0	0	0	0	0	0	0	0	0	0	0	0	0	0	0	3	0	0	0	0	0	0	0	0	0	0	1	0	0	0	0
OTU 17	0	1	2	0	0	0	0	0	0	0	0	0	10	0	0	0	1	0	0	0	0	1	0	2	0	0	1	0	1	2	0	1	0	1	0	0	0	0	0	0	4	2	1	0	0	0	1	0	4	0
OTU 18	0	0	0	1	0	4	0	2	1	0	0	0	4	0	0	2	0	3	6	1	0	3	7	2	0	0	0	0	2	7	2	2	1	0	2	1	0	2	4	4	4	3	0	0	0	9	3	0	0	0
OTU 19	0	0	0	0	0	0	0	0	0	0	0	0	0	0	0	0	0	0	0	0	0	0	0	0	0	0	0	0	0	0	0	0	0	0	0	0	0	0	0	0	0	0	0	0	0	0	0	0	0	0
OTU 20	1	2	1	0	0	0	0	1	0	2	0	0	1	0	0	0	1	0	0	5	0	0	0	0	0	1	1	3	2	0	1	3	0	3	0	0	2	1	0	2	2	0	77	1	0	0	0	0	1	2
OTU 21	2	2	0	1	0	4	0	1	1	1	0	0	1	0	0	0	0	0	3	0	2	0	0	0	2	2	0	1	1	0	0	0	28	0	0	0	2	0	0	0	4	1	1	0	0	1	0	0	1	0
OTU 22	1	0	3	0	2	0	0	2	3	0	0	0	14	0	0	1	0	0	0	4	1	1	0	0	2	0	0	0	0	0	1	0	0	130	0	1	4	0	0	4	0	0	0	0	0	1	3	0	0	1
OTU 23	2	0	1	1	0	0	0	1	2	1	0	5	0	1	0	0	0	1	0	0	0	1	1	2	2	2	0	0	0	0	0	0	0	0	1	0	0	0	0	0	0	0	0	0	0	3	0	1	0	0
OTU 24	0	2	0	0	0	4	0	0	0	0	0	0	0	10	0	1	0	0	0	1	0	0	0	0	4	0	0	0	1	0	0	4	0	7	0	0	0	2	0	2	2	1	5	0	0	0	0	0	0	0
OTU 25	0	0	0	0	0	0	0	0	0	0	0	0	0	0	0	0	2	0	0	0	0	0	0	0	0	0	0	0	0	0	0	0	0	0	0	0	0	0	0	0	0	0	0	0	0	0	0	0	0	0
OTU 26	0	0	0	0	0	2	0	0	0	0	0	0	0	0	0	0	2	0	0	0	0	3	1	0	0	0	1	0	0	0	0	3	0	0	1	0	0	1	0	0	0	0	0	14	0	0	3	0	0	0
OTU 27	0	0	0	0	0	0	0	0	0	0	0	0	0	0	0	0	0	0	0	0	0	0	0	0	0	0	0	0	0	0	0	0	0	0	0	0	0	0	0	0	0	0	0	0	0	0	0	0	0	0
OTU 28	0	1	1	0	0	2	3	0	0	1	0	5	0	11	0	0	2	0	0	0	3	1	4	3	133	0	2	5	3	1	8	2	0	0	2	0	2	1	0	3	0	0	2	0	1	0	0	1	5	4
OTU 29	4	0	1	2	0	0	0	1	3	1	0	0	0	2	1	0	3	1	0	1	4	0	1	0	1	0	1	2	0	3	0	1	1	1	1	0	3	0	0	0	1	3	0	0	0	4	0	0	0	2
OTU 30	0	0	0	0	0	0	0	0	0	0	0	0	0	0	0	0	0	0	0	0	0	0	0	0	0	0	0	0	0	1	0	0	0	0	0	0	0	0	0	0	0	0	0	0	0	0	0	0	0	0
OTU 31	4	0	0	28	19	0	0	0	15	14	18	0	0	2	0	0	2	1	16	0	0	1	0	1	1	0	0	0	16	0	10	48	8	0	1	37	24	29	0	29	0	1	0	0	0	0	1	18	0	0
OTU 32	0	0	0	0	1	1	6	5	1	2	0	4	0	1	1	1	2	1	3	13	5	0	1	7	0	0	0	0	0	4	0	3	0	0	7	1	1	2	2	0	1	4	38	0	0	11	0	1	0	1
OTU 33	0	0	0	0	0	0	0	0	0	0	0	1	0	0	0	0	0	0	3	0	0	1	0	0	0	0	0	0	0	0	0	2	0	0	0	0	0	1	0	0	0	0	0	0	0	0	0	0	0	0
OTU 34	65	1	1	4	0	1	0	1	0	0	0	0	1	1	0	1	0	0	1	1	0	0	1	1	1	2	1	1	0	0	3	4	1	2	1	0	7	1	0	3	1	1	0	6	0	1	0	1	0	2
OTU 35	0	3	0	1	1	0	1	0	2	14	7	0	0	2	5	3	0	0	2	0	1	3	0	5	1	0	0	2	0	0	0	0	2	6	1	0	1	0	0	0	0	0	0	0	4	4	0	2	2	0
OTU 36	0	0	0	1	3	0	4	0	1	4	2	5	0	0	1	0	0	0	0	0	3	0	0	1	0	0	0	1	0	3	1	0	0	2	0	0	0	0	9	5	0	1	2	0	1	0	0	1	0	0
OTU 37	0	0	0	0	0	0	0	1	0	0	0	0	0	0	0	0	0	0	0	0	0	0	0	0	0	0	0	4	0	0	0	0	0	1	0	0	0	0	0	0	0	0	0	0	0	0	0	0	0	1
OTU 38	1	19	3	8	2	2	10	6	10	7	1	42	3	6	8	136	10	3	4	17	0	15	17	33	2	14	11	16	4	0	0	18	1	3	0	2	0	6	4	5	20	4	14	0	6	1	3	5	8	2
OTU 39	0	0	0	1	0	0	0	0	0	0	0	0	0	0	0	0	2	0	0	0	0	0	0	1	0	0	0	0	0	0	0	0	0	0	1	0	0	0	0	0	1	0	0	1	0	0	0	0	0	1
OTU 40	0	1	1	0	0	1	0	1	0	0	3	0	1	6	0	0	0	0	2	1	2	0	0	0	1	1	0	0	4	0	2	0	1	0	5	20	0	0	1	7	0	0	0	0	0	2	0	1	1	0
OTU 41	0	0	0	0	0	0	0	0	0	2	0	0	3	0	0	4	0	2	0	2	0	0	3	0	0	0	0	0	0	0	1	0	0	4	0	0	0	0	0	0	0	6	1	1	2	2	0	1	0	0
OTU 42	0	0	0	0	0	0	1	0	0	0	0	11	1	0	1	0	1	0	0	0	0	0	0	0	0	0	0	1	0	0	0	0	0	0	0	0	3	0	2	0	0	124	0	0	0	1	0	0	0	0
OTU 43	0	0	0	0	0	0	0	0	0	0	0	0	0	0	0	0	0	0	0	0	0	0	0	0	0	0	0	0	0	0	0	0	0	0	0	0	0	0	0	0	0	0	0	0	0	0	0	0	0	0
OTU 44	5	0	0	0	0	0	0	0	0	2	0	0	0	1	0	0	0	0	0	0	0	6	0	0	0	0	0	0	0	0	0	0	0	0	0	0	0	0	0	1	0	0	0	1	0	2	0	2	0	1
OTU 45	2	0	3	0	0	162	0	1	0	1	0	0	3	0	0	0	1	0	1	1	0	0	1	2	1	0	0	1	0	6	1	2	0	2	4	0	0	1	0	3	0	1	1	1	0	1	0	2	0	0
OTU 46	7	11	2	0	0	2	1	0	0	5	0	1	3	9	0	9	0	0	1	0	0	0	4	3	9	3	0	3	0	4	1	2	0	3	0	13	0	2	1	5	0	7	10	6	4	1	2	0	1	1
OTU 47	0	0	0	0	0	0	0	1	0	0	0	0	0	1	0	0	0	0	0	2	0	0	0	0	0	0	1	0	1	0	0	0	0	0	0	0	1	0	0	3	78	0	0	0	0	0	0	0	0	0
OTU 48	1	2	0	0	0	0	4	5	0	2	1	3	3	0	17	3	4	1	2	4	3	2	0	0	3	0	1	5	0	1	1	0	1	3	2	1	3	14	0	2	1	0	1	0	17	12	5	0	4	1
OTU 49	0	3	0	0	0	0	0	0	0	0	0	0	0	0	0	5	0	3	1	0	0	0	0	3	0	1	0	0	0	2	0	0	0	0	0	0	1	0	0	0	0	0	2	0	0	2	0	0	1	0
OTU 50	2	0	2	0	0	3	0	56	0	0	3	0	7	1	0	0	0	0	4	1	1	2	2	1	2	1	0	117	1	1	3	0	2	6	0	0	1	0	3	8	0	63	0	0	0	1	0	0	5	0
OTU 51	1	3	0	0	0	0	1	0	14	0	1	0	0	1	12	2	0	0	0	0	0	4	0	0	0	1	1	1	3	2	1	0	0	0	4	0	0	0	0	3	0	2	1	0	3	1	12	0	0	0
OTU 52	2	4	7	1	7	4	0	0	6	0	0	0	0	8	1	7	0	0	1	4	9	1	11	0	6	0	0	4	1	5	1	7	2	7	4	0	6	2	0	1	4	2	4	2	3	1	2	0	0	3
OTU 53	0	0	0	0	0	0	0	0	0	0	0	0	0	0	0	0	0	0	0	0	0	0	0	0	0	0	0	0	0	0	0	0	0	0	0	0	0	0	0	0	3	0	0	0	0	0	0	0	0	0
OTU 54	2	2	0	0	0	1	1	2	0	0	11	73	4	28	14	2	23	3	0	0	7	46	2	1	13	4	1	5	0	0	3	37	0	1	0	0	2	21	0	4	2	2	0	4	11	5	9	1	0	4
OTU 55	0	0	0	0	0	0	0	0	0	0	0	0	0	0	0	0	0	0	0	0	0	0	0	0	0	0	0	0	0	0	0	2	0	2	0	0	0	2	0	0	0	0	0	0	0	0	0	0	0	0
OTU 56	7	0	3	2	0	0	0	0	0	0	0	0	0	0	2	0	0	0	0	0	1	2	0	0	3	0	0	0	0	0	0	0	0	3	1	0	5	1	0	0	0	1	0	0	0	0	0	0	0	0
OTU 57	65	3	0	4	1	7	0	0	0	3	2	5	3	34	0	0	0	1	2	0	0	54	4	6	8	0	1	1	1	1	121	2	0	8	9	3	8	0	0	1	10	2	1	11	34	45	6	0	0	2
OTU 58	0	0	0	0	0	0	0	2	0	0	3	0	0	0	0	0	0	5	0	1	0	0	0	3	0	7	2	2	0	0	1	3	0	0	2	0	4	1	0	0	0	4	0	0	0	1	0	0	0	0
OTU 59	1	3	1	2	0	0	10	3	0	0	2	0	1	4	0	0	0	13	0	37	0	0	10	20	0	42	19	14	0	0	0	1	0	0	0	2	0	0	7	0	37	8	0	3	0	0	0	0	8	3
OTU 60	1	0	0	0	0	5	0	0	0	1	2	2	1	2	4	0	2	4	0	1	0	5	1	0	1	3	0	2	0	5	2	2	2	0	0	0	1	1	0	2	3	1	0	1	2	1	1	112	0	2
OTU 61	0	1	7	0	0	2	6	0	1	1	0	1	0	0	1	0	2	2	1	7	1	4	1	2	0	3	1	3	1	0	3	6	1	6	7	0	2	2	2	1	2	5	1	0	0	1	1	0	2	2
OTU 62	0	0	0	1	0	0	0	0	0	0	1	2	0	1	0	0	0	1	1	0	0	0	0	0	1	0	1	0	2	0	1	0	1	0	0	0	0	0	0	4	0	0	0	1	0	0	0	0	1	1
OTU 63	0	1	0	0	0	0	0	0	2	0	0	6	0	0	0	1	0	0	0	0	0	5	1	6	2	0	0	0	0	0	0	0	0	4	3	0	0	0	0	0	0	0	0	0	0	1	0	0	6	2
OTU 64	2	4	11	0	0	9	0	2	0	2	1	1	2	0	3	3	0	2	1	3	3	1	2	2	0	1	1	1	6	0	2	3	0	0	0	3	0	1	2	3	2	2	2	2	1	1	8	2	1	5
OTU 65	0	0	0	0	0	0	0	0	0	0	0	0	0	0	0	0	0	0	0	0	0	0	0	0	0	0	0	0	0	4	0	0	0	0	0	0	0	0	0	0	0	0	0	0	0	0	0	0	0	0
OTU 66	1	0	0	0	0	0	0	1	3	0	0	4	0	1	0	0	0	0	3	6	1	2	0	2	0	1	0	0	0	1	1	0	6	0	6	0	0	1	0	1	1	0	0	0	2	0	0	0	0	0
OTU 67	0	0	0	1	0	7	0	2	1	1	6	0	1	14	2	1	1	0	0	0	2	0	6	5	4	0	0	0	0	4	0	1	0	0	1	0	1	0	0	0	1	1	0	0	0	0	2	0	2	0
OTU 68	0	0	0	0	4	0	0	0	1	0	0	0	0	0	0	0	0	0	0	2	0	2	0	0	0	0	0	0	1	0	3	0	0	0	0	2	0	0	0	1	0	0	0	1	0	1	0	0	0	0
OTU 69	1	1	1	0	0	0	3	0	0	0	0	0	0	3	1	0	0	0	4	1	0	0	0	0	0	0	1	0	1	0	3	0	3	5	0	0	0	29	3	0	1	0	1	1	0	0	0	0	2	0
OTU 70	2	0	1	0	0	0	0	0	1	0	1	0	0	3	1	0	2	0	0	0	0	0	0	2	2	1	1	0	0	1	0	0	0	0	0	0	0	0	0	0	0	6	0	0	0	1	1	1	0	0
OTU 71	0	0	1	0	0	0	0	0	0	0	0	0	2	0	1	0	0	0	1	2	3	0	18	14	0	0	0	1	0	0	2	1	0	1	0	0	0	0	0	0	0	1	0	1	0	0	0	0	1	3
OTU 72	0	0	0	0	0	1	3	1	0	0	3	0	0	0	0	2	2	0	0	4	2	0	1	3	5	2	1	0	1	0	2	0	0	0	4	0	0	0	0	0	0	0	0	0	1	0	0	0	0	0
OTU 73	0	4	2	0	0	2	0	0	0	0	0	2	0	0	2	0	0	0	0	0	5	0	0	1	0	1	0	0	0	7	0	0	0	0	5	0	0	0	0	0	0	1	2	0	0	0	1	3	1	0
OTU 74	0	2	0	2	0	0	3	0	0	0	1	0	2	2	0	45	0	5	0	1	0	0	1	2	4	0	3	0	0	1	0	1	1	1	1	1	3	0	0	1	3	1	5	0	1	0	0	0	3	0
OTU 75	4	0	0	1	1	1	0	2	3	0	1	0	0	0	0	1	0	2	2	0	2	0	0	2	0	0	0	1	0	3	4	33	1	0	6	1	4	11	0	2	1	2	0	1	0	0	0	4	1	0
OTU 76	0	0	0	0	0	0	0	0	0	0	1	0	0	0	0	0	3	0	20	0	0	1	0	0	0	1	0	0	1	0	0	0	12	0	2	0	0	0	0	0	0	0	0	0	0	0	0	3	0	0
OTU 77	0	0	0	1	0	1	5	1	3	1	0	1	1	0	1	0	2	0	0	0	3	0	8	5	0	0	0	0	0	3	1	0	0	0	0	0	1	0	3	0	0	0	1	0	2	0	1	2	0	1
OTU 78	2	0	5	0	35	8	0	2	0	1	0	5	99	0	2	1	0	1	0	0	0	0	0	1	0	0	0	1	2	0	3	0	0	2	4	0	0	0	0	3	2	0	1	0	0	0	0	6	1	0
OTU 79	3	0	2	1	4	1	0	2	2	1	4	0	32	1	3	8	0	3	2	0	3	8	3	4	9	6	0	1	0	3	4	0	23	2	14	1	5	0	0	1	3	5	0	3	3	0	2	1	2	1
OTU 80	2	2	0	1	84	0	3	0	0	1	0	2	7	0	0	0	2	2	1	1	0	0	0	3	0	4	0	0	3	2	0	0	0	3	0	2	0	1	1	0	1	1	0	0	0	0	0	0	2	1
OTU 81	0	1	0	1	0	1	1	2	3	2	3	12	6	77	0	3	2	1	0	0	2	2	1	1	49	8	2	1	0	1	0	4	0	1	1	0	2	2	0	1	0	0	0	1	3	1	1	1	3	6
OTU 82	0	1	0	0	0	1	3	0	2	0	0	0	0	0	54	2	0	0	2	0	0	5	0	1	0	0	0	1	0	4	1	2	2	0	0	0	0	0	2	5	0	0	1	0	2	109	26	0	3	0
OTU 83	3	0	0	0	0	0	0	0	0	1	0	0	0	0	1	0	0	1	0	0	1	0	0	1	0	0	2	4	1	0	0	0	0	1	0	0	0	0	0	4	0	1	0	0	0	0	0	0	0	0
OTU 84	0	3	0	2	0	0	0	0	1	0	0	0	0	0	91	0	0	0	0	0	8	0	0	0	1	0	1	0	0	2	2	1	0	2	0	3	1	1	0	0	0	3	1	0	3	0	52	0	0	0
OTU 85	0	0	0	0	0	0	1	0	0	0	0	1	0	0	0	0	0	0	1	0	1	0	0	0	0	1	0	0	0	3	0	0	0	2	0	0	3	0	0	0	0	1	0	0	0	0	0	0	1	0
OTU 86	0	0	0	0	0	0	0	0	0	0	0	0	0	0	0	0	0	0	0	2	0	0	0	4	0	0	0	0	0	0	0	0	0	0	0	0	0	0	0	0	0	0	0	0	1	0	0	0	0	0
OTU 87	0	0	22	1	0	0	0	0	0	0	0	0	0	0	0	0	0	0	0	0	1	0	0	1	0	0	0	0	0	0	0	0	0	0	0	0	0	0	0	0	0	0	0	1	0	0	0	0	0	0
OTU 88	0	0	0	0	1	1	0	1	0	0	0	0	2	0	0	0	0	0	0	0	0	0	0	2	0	0	0	0	0	0	0	0	0	0	0	0	3	0	0	0	0	0	1	0	0	0	0	0	0	0
OTU 89	0	2	0	1	0	2	0	0	0	0	0	3	0	0	0	0	0	0	0	0	0	0	0	0	0	0	0	0	1	0	0	0	0	0	0	0	0	0	0	0	0	0	0	0	2	1	0	0	0	4
OTU 90	0	0	0	0	1	0	0	0	1	0	0	0	2	0	0	0	0	0	0	0	5	0	0	0	0	3	0	0	0	0	0	0	0	0	0	0	0	0	0	0	0	0	0	0	0	0	0	0	0	0
OTU 91	0	0	0	0	0	0	0	0	0	0	0	0	0	0	0	0	0	0	0	0	0	0	0	0	0	0	1	0	0	0	0	3	0	0	0	0	0	1	0	0	0	0	0	0	0	0	0	0	0	0
OTU 92	0	2	0	0	0	0	0	0	0	0	0	0	0	0	3	0	1	0	1	1	6	0	2	0	1	0	0	0	0	0	0	2	0	0	0	0	1	1	0	1	0	0	0	0	0	0	1	0	1	0
OTU 93	0	0	1	2	0	0	0	0	0	0	0	0	0	0	0	0	0	0	0	6	0	0	1	0	0	0	0	0	0	0	0	0	0	0	0	0	0	0	0	0	0	0	0	0	0	0	0	1	0	0
OTU 94	13	1	0	0	0	1	1	0	6	12	8	8	0	0	2	0	1	15	12	1	0	0	0	1	3	0	0	0	4	1	14	3	6	1	1	1	1	0	0	5	0	0	0	1	0	1	2	8	3	0
OTU 95	0	0	1	0	0	0	0	0	0	0	0	1	0	0	0	0	0	0	1	1	0	0	0	0	2	0	0	0	0	0	0	0	0	0	0	0	0	0	0	0	0	0	0	0	1	0	1	1	0	0
OTU 96	0	0	0	0	0	0	4	0	0	0	0	0	0	0	0	0	0	0	0	0	0	0	0	0	0	0	0	0	0	0	0	1	0	0	0	0	0	0	0	0	0	0	0	0	0	0	0	0	0	0
OTU 97	0	0	0	3	1	2	8	0	2	0	11	10	1	0	0	0	10	6	3	7	0	1	0	0	0	5	1	0	8	0	0	4	0	0	0	1	3	6	6	9	4	0	0	0	1	0	4	9	0	0
OTU 98	0	0	2	0	0	0	0	1	0	1	2	0	0	0	0	1	0	0	0	0	0	3	1	0	0	0	1	0	0	0	0	0	0	1	5	2	0	0	5	0	0	0	0	0	0	0	0	0	1	0
OTU 99	0	3	5	0	0	0	2	3	0	2	0	0	2	3	3	1	0	1	1	0	0	0	4	2	0	0	0	0	0	1	1	3	1	0	9	1	3	1	0	0	0	0	0	0	2	6	1	2	3	1
OTU 100	0	4	2	2	0	2	0	7	0	0	0	0	0	0	0	0	1	0	0	0	1	0	2	2	0	1	0	1	4	3	0	0	1	0	1	0	3	0	0	0	1	1	2	0	0	0	2	0	1	0
OTU 101	0	0	0	0	0	0	0	0	0	0	0	0	0	0	0	0	0	2	0	0	0	0	0	0	0	1	0	0	0	0	0	0	0	0	0	0	0	0	0	0	0	0	0	0	0	0	0	0	0	0
OTU 102	0	0	0	0	0	0	0	0	0	0	0	0	0	0	0	0	0	1	1	0	0	1	0	0	0	0	0	0	0	2	0	0	0	0	0	5	0	0	0	0	0	0	1	0	0	0	0	0	0	1
OTU 103	0	3	1	0	0	0	2	1	0	2	0	1	1	5	5	1	0	0	0	0	0	0	3	0	0	0	2	1	0	0	0	0	0	0	2	0	0	0	1	0	1	0	0	3	0	2	2	0	0	1
OTU 104	6	1	0	4	0	0	2	2	0	8	0	1	0	0	0	4	2	0	0	3	0	1	5	1	0	1	1	4	36	2	1	0	3	1	3	0	1	0	0	1	1	9	0	2	1	1	0	1	2	3
OTU 105	0	0	0	0	0	0	0	0	0	0	0	0	0	1	0	0	0	0	0	0	0	0	0	0	0	0	0	0	0	6	0	0	0	0	0	0	0	0	0	5	0	0	0	0	1	0	0	0	0	0
OTU 106	0	3	0	7	1	0	0	0	2	0	0	0	0	2	0	0	1	1	0	0	0	0	0	0	0	0	0	0	0	0	0	0	0	0	0	2	0	0	0	0	0	0	2	0	0	1	0	1	1	0
OTU 107	0	0	0	1	3	0	44	0	0	62	0	1	0	0	0	0	0	0	1	68	1	0	0	0	0	0	0	4	0	0	1	2	1	0	0	0	0	0	31	0	0	1	0	0	5	0	2	0	1	0
OTU 108	3	4	3	4	2	1	0	0	8	3	1	0	1	1	0	3	0	0	5	0	0	1	0	1	0	2	92	0	0	0	1	0	1	0	1	1	17	0	0	6	0	1	1	1	0	0	0	0	0	4
OTU 109	0	0	0	0	0	0	0	0	0	0	0	0	0	0	0	0	0	0	0	0	0	0	0	0	0	0	0	0	0	0	0	0	0	0	0	0	0	0	0	0	0	0	0	0	0	0	0	0	0	0
OTU 110	1	4	5	0	1	3	1	0	0	0	7	5	0	0	0	4	2	0	0	2	1	0	0	0	1	0	0	3	0	96	0	3	0	1	0	1	0	1	0	3	4	2	2	0	0	0	1	0	1	0
OTU 111	0	0	2	0	0	0	0	1	0	0	0	0	0	0	0	0	0	0	0	0	0	0	0	0	0	0	0	2	0	3	0	0	0	1	0	0	0	0	0	0	0	0	0	0	0	0	0	0	0	0
OTU 112	0	0	0	2	0	0	0	0	0	0	0	0	2	0	0	1	1	1	5	2	0	0	3	3	1	0	0	1	0	2	0	0	4	1	0	3	0	0	0	1	0	4	0	1	0	0	0	2	1	1
OTU 113	0	0	0	0	0	0	1	0	0	0	0	0	1	0	0	0	0	0	0	0	0	0	0	0	0	0	0	1	0	0	0	0	0	0	0	0	0	0	0	0	1	0	0	0	0	0	0	0	0	0
OTU 114	3	0	0	0	1	0	1	5	104	1	9	0	1	1	4	0	0	1	0	3	55	0	0	0	5	0	1	7	0	0	4	1	0	0	5	2	0	0	0	8	1	0	0	1	1	0	2	3	2	4
OTU 115	2	1	0	4	0	6	0	3	4	5	0	2	1	5	1	2	8	160	0	3	17	0	0	1	1	1	0	4	0	2	1	0	0	0	0	0	5	1	7	3	0	2	0	2	0	0	91	0	2	3
OTU 116	5	29	1	23	14	11	2	0	7	21	6	0	3	4	0	10	0	3	6	0	0	5	3	0	0	0	0	2	9	1	13	1	4	1	4	13	20	0	1	17	2	0	17	1	2	3	1	7	0	1
OTU 117	0	4	0	0	1	7	0	0	2	0	0	2	4	8	0	0	0	0	0	1	1	0	0	0	1	0	0	0	0	1	0	0	0	2	1	1	2	0	0	2	2	3	0	0	0	9	0	0	0	0
OTU 118	0	0	0	0	0	0	4	0	0	0	1	0	2	0	0	0	0	0	1	0	0	2	0	4	0	1	0	0	0	0	0	0	0	0	1	0	0	0	0	0	0	1	0	1	0	0	1	0	2	0
OTU 119	1	3	0	0	0	1	2	0	0	30	2	0	3	0	0	0	0	0	0	0	3	0	2	0	1	0	0	0	0	0	1	0	1	11	0	0	0	0	2	0	0	0	2	0	0	0	1	2	0	0
OTU 120	0	12	0	0	0	0	0	0	0	0	0	0	0	0	0	4	0	3	0	0	4	0	0	0	0	1	1	0	0	4	0	0	0	3	1	4	0	1	0	0	0	0	4	0	0	0	0	0	0	1
OTU 121	1	0	1	0	1	3	0	0	0	3	3	0	0	0	2	1	0	1	0	0	0	0	0	1	0	1	0	0	1	0	0	1	0	4	2	0	0	0	0	3	0	0	0	2	0	0	0	4	0	8
OTU 122	0	1	0	0	0	0	0	0	0	0	0	0	3	0	6	0	0	0	0	1	0	1	0	0	0	0	0	0	0	23	3	5	3	1	0	1	1	1	0	0	0	0	0	1	0	0	1	0	1	3
OTU 123	1	93	0	16	13	6	4	5	5	1	60	17	3	12	7	41	13	4	12	4	8	19	0	10	10	3	5	8	2	3	4	11	6	8	10	2	4	6	2	5	1	5	37	0	100	9	21	3	2	3
OTU 124	0	0	0	0	59	2	0	0	0	0	0	0	0	0	1	1	0	0	1	0	2	0	1	2	1	0	0	0	0	0	0	0	1	0	0	0	1	0	4	0	0	0	0	0	0	1	0	0	0	0
OTU 125	1	2	0	128	56	4	9	3	0	2	2	2	0	21	0	3	0	1	7	1	1	2	6	9	8	1	2	7	1	8	5	3	13	4	6	1	4	4	90	8	1	2	0	2	1	7	4	4	5	4
OTU 126	0	1	0	0	0	0	0	0	0	0	0	0	0	0	0	0	0	0	0	0	0	1	0	0	0	0	0	0	0	0	0	0	0	0	0	0	0	0	0	0	0	0	3	0	0	3	0	0	0	0
OTU 127	2	0	0	0	0	0	0	0	0	0	1	0	2	0	0	4	0	2	0	0	6	0	1	2	1	0	0	0	0	0	2	6	0	0	0	0	3	2	0	0	0	1	0	0	2	0	0	0	0	1
OTU 128	4	11	5	9	10	1	5	0	8	7	7	4	7	1	3	3	1	2	2	6	8	0	2	1	0	8	0	7	5	2	21	6	3	2	3	3	38	3	1	17	2	2	2	0	2	8	1	47	1	2
OTU 129	0	0	0	2	1	0	0	0	0	1	0	0	0	0	0	0	0	0	0	0	1	0	0	0	0	0	0	0	0	0	0	0	0	3	1	0	0	0	0	1	0	0	0	0	0	0	0	0	0	0
OTU 130	0	1	0	0	0	3	1	0	2	0	3	0	1	0	0	2	4	10	3	0	4	3	0	0	1	33	29	0	0	0	4	2	1	2	0	0	2	0	1	0	0	2	0	0	0	0	0	0	0	0
OTU 131	0	0	0	0	1	1	0	0	0	0	2	1	2	0	0	0	0	0	0	0	0	3	3	0	0	3	1	1	0	0	0	0	0	0	0	5	1	0	1	0	5	0	0	1	0	22	0	0	0	1
OTU 132	0	0	0	0	0	0	2	167	2	1	2	0	0	2	1	0	0	0	0	0	0	0	0	0	0	0	0	0	0	1	3	0	0	1	124	34	0	0	0	0	0	3	0	0	1	1	0	0	0	0
OTU 133	0	0	0	1	0	0	0	0	0	0	0	1	0	0	0	0	0	0	0	0	0	0	0	0	0	0	0	2	0	0	0	0	0	0	0	0	1	0	0	0	0	0	0	0	0	0	0	0	1	0
OTU 134	3	1	4	0	0	1	1	0	0	1	1	6	3	0	0	1	2	1	0	0	3	6	0	0	5	3	0	0	1	2	1	1	0	0	2	22	0	1	0	0	0	0	0	0	2	0	1	0	0	0
OTU 135	0	0	0	0	0	0	1	0	0	0	0	1	0	0	3	0	0	0	0	0	1	0	1	1	1	0	0	2	0	0	3	0	0	2	3	0	0	0	0	2	0	0	0	0	2	1	0	0	0	0
OTU 136	0	0	2	0	0	0	0	0	0	0	2	0	4	0	0	1	0	0	0	0	1	2	0	0	2	1	0	0	0	0	0	1	0	2	1	1	0	1	1	0	4	1	0	1	1	0	0	0	2	5
OTU 137	0	0	2	0	0	0	0	0	2	3	0	0	0	0	0	0	0	0	0	0	0	0	0	0	0	0	1	0	0	25	0	0	0	0	0	0	2	0	0	0	0	0	0	0	19	0	0	0	0	0
OTU 138	2	0	0	0	0	0	0	0	0	0	0	2	1	0	0	0	0	3	1	0	0	0	0	0	0	0	0	0	0	0	0	0	0	0	0	0	0	0	0	0	0	0	0	0	0	0	0	0	0	0
OTU 139	0	6	1	1	0	0	4	0	4	1	1	0	0	1	1	0	0	5	0	3	3	1	4	1	1	0	4	0	1	0	3	0	0	38	0	0	0	0	5	1	3	2	2	1	0	2	0	0	48	1
OTU 140	29	0	0	3	1	5	1	0	24	19	21	0	9	5	2	0	1	5	87	2	1	1	1	5	0	1	1	1	33	1	20	5	45	0	1	2	0	2	0	43	2	1	1	2	2	1	0	22	0	8
OTU 141	0	0	0	0	0	0	0	0	0	0	0	0	1	0	0	0	0	0	0	0	0	0	0	0	19	0	0	0	0	0	0	0	0	0	0	0	0	0	0	0	0	0	0	0	0	0	0	0	0	0
OTU 142	0	0	0	0	0	0	0	0	0	0	0	0	0	0	0	0	0	0	0	0	0	0	0	0	0	0	0	0	0	0	0	0	0	0	0	0	0	0	0	0	0	0	0	0	0	0	0	0	0	0
OTU 143	0	0	0	0	0	1	1	0	0	0	0	0	0	0	0	2	0	0	9	0	0	0	0	0	0	0	0	0	0	0	0	0	6	0	0	0	0	0	0	0	0	2	0	0	0	0	0	0	1	0
OTU 144	0	4	0	0	0	0	0	0	0	0	0	0	0	0	0	0	0	0	0	0	0	1	0	0	0	1	0	0	0	0	1	0	0	0	0	1	0	0	0	0	0	0	1	0	0	0	0	0	0	0
OTU 145	0	1	0	0	1	3	1	1	16	1	1	0	2	2	2	1	0	0	0	0	0	1	1	0	5	0	0	1	0	0	5	0	0	3	0	2	1	0	0	3	4	0	2	2	0	34	1	0	0	6
OTU 146	0	5	0	0	0	3	2	2	0	2	83	3	9	2	0	0	0	1	1	0	0	1	0	3	0	0	0	0	0	3	1	0	0	3	1	0	2	0	6	0	2	0	0	0	3	2	0	0	0	1
OTU 147	0	7	0	0	0	0	0	0	0	0	0	1	0	0	1	0	0	0	0	4	0	0	0	0	0	0	0	0	0	0	0	1	0	5	0	0	11	0	0	0	0	0	2	0	0	0	0	0	0	1
OTU 148	1	0	0	2	4	0	0	0	2	2	0	0	0	2	0	0	1	0	0	0	0	0	3	0	0	3	3	0	0	0	8	0	0	6	0	1	0	143	1	2	0	0	1	0	0	2	0	2	0	0
OTU 149	1	0	1	0	0	6	0	0	0	1	0	1	0	0	0	0	0	0	0	2	2	1	1	0	0	0	0	0	0	1	0	3	0	0	1	0	0	0	0	1	0	0	0	0	0	0	1	1	0	0
OTU 150	0	0	0	0	0	0	2	2	0	0	0	0	1	0	0	0	0	0	0	0	1	0	0	0	0	0	0	0	0	0	0	0	0	3	0	0	4	0	1	0	0	0	0	0	0	0	0	0	0	0
OTU 151	0	0	0	0	0	0	0	0	0	0	0	0	2	1	0	1	0	0	1	0	1	0	0	1	0	5	2	0	0	3	0	0	0	0	6	0	72	0	0	0	0	0	0	0	2	1	0	0	2	0
OTU 152	0	5	1	0	0	0	0	0	1	0	1	1	0	0	0	0	0	0	1	3	6	0	5	3	2	0	0	0	2	0	0	4	0	0	0	0	6	1	0	2	0	0	2	1	2	2	0	2	9	0
OTU 153	0	0	0	0	0	2	0	0	0	0	0	0	0	0	0	0	0	0	0	0	0	0	0	0	0	1	1	0	0	0	0	0	0	0	0	0	0	0	0	0	0	0	0	0	0	0	0	0	0	0
OTU 154	0	0	0	0	0	0	0	0	0	0	0	0	1	0	0	0	0	0	0	0	0	0	0	0	0	0	0	0	0	0	0	0	0	0	0	0	0	0	0	0	1	0	0	0	0	0	0	0	1	0
OTU 155	0	0	0	0	0	0	1	0	2	3	0	3	0	1	0	0	0	1	0	2	0	3	2	0	0	0	0	0	1	0	0	0	0	3	0	1	2	0	0	4	2	0	0	0	0	1	0	0	1	0
OTU 156	14	4	4	6	7	1	12	3	13	16	12	39	1	8	8	7	19	14	7	16	2	4	15	16	2	12	9	7	4	3	3	6	4	0	0	4	14	2	7	19	17	6	4	0	12	0	4	4	8	2
OTU 157	0	0	0	0	0	0	0	27	2	0	0	0	0	1	0	0	2	0	0	0	0	0	30	57	0	0	0	30	0	0	1	0	0	1	1	0	0	0	2	0	0	17	0	3	0	0	0	0	33	4
OTU 158	0	0	0	0	0	0	0	0	0	0	0	0	0	0	0	0	0	0	0	0	0	0	0	0	0	0	0	1	0	0	0	0	0	1	0	0	0	0	0	0	0	0	0	0	0	0	0	0	0	3
OTU 159	1	23	0	2	0	3	0	0	0	0	3	1	0	0	0	3	0	0	2	2	0	3	0	1	0	0	0	0	1	1	0	3	0	1	2	0	0	1	0	9	6	0	13	1	1	0	0	3	0	1
OTU 160	9	4	1	0	1	3	123	3	5	0	5	0	2	0	4	7	0	24	1	1	3	5	13	6	0	74	30	22	0	1	12	2	1	5	2	11	0	0	65	0	4	0	5	29	1	1	0	0	8	56
OTU 161	0	0	1	0	0	0	1	0	0	1	0	1	0	2	0	0	0	0	0	1	4	0	1	0	3	0	0	0	1	3	0	3	1	0	0	1	1	1	0	1	0	0	0	0	0	0	0	0	1	3
OTU 162	0	0	1	0	0	0	5	0	1	0	0	0	5	1	3	1	25	0	1	8	0	1	102	3	1	3	1	4	1	0	0	0	1	0	0	2	3	0	0	1	2	0	0	30	3	4	0	0	5	58
OTU 163	0	0	0	0	0	1	0	0	0	0	0	0	0	0	3	0	0	0	0	0	0	0	0	0	0	0	0	0	0	0	0	0	0	0	0	0	0	0	0	0	0	0	0	0	0	0	0	0	0	0
OTU 164	0	0	0	0	0	0	0	0	0	0	0	0	0	0	0	1	0	0	0	0	0	0	0	0	0	0	0	0	0	0	0	0	0	0	0	0	0	0	0	0	0	0	2	0	0	0	0	0	0	0
OTU 165	0	0	0	1	0	4	1	0	0	0	0	0	0	0	0	0	5	0	0	6	0	1	1	0	0	0	0	2	0	3	0	0	103	0	0	0	2	0	0	0	1	0	0	0	0	0	0	1	1	0
OTU 166	0	0	0	0	0	0	0	0	0	0	0	0	0	0	0	0	0	0	0	0	0	0	0	0	0	0	0	0	0	0	0	0	0	0	0	0	0	0	0	0	0	0	0	0	0	0	0	0	0	0
OTU 167	0	1	9	0	0	3	1	1	2	0	0	0	3	0	0	0	3	0	0	4	0	0	1	2	1	0	0	3	0	0	0	3	0	1	0	0	0	0	2	0	4	3	0	0	1	0	0	1	0	0
OTU 168	0	1	4	1	0	6	5	2	1	0	1	0	4	0	7	0	0	0	1	0	5	0	1	3	1	0	0	1	136	0	0	2	0	2	0	0	0	0	2	0	0	0	0	0	0	0	0	0	1	0
OTU 169	0	0	0	0	0	0	0	0	0	0	0	0	0	0	0	0	0	0	0	0	0	0	0	0	1	0	0	0	0	0	0	0	0	0	0	0	0	0	0	0	0	0	0	0	0	0	0	0	0	0
OTU 170	0	0	0	0	0	0	0	0	0	0	0	1	0	0	0	0	0	0	0	0	0	0	0	0	0	0	0	0	0	0	0	0	0	1	0	0	0	0	0	0	0	0	0	0	0	0	0	0	0	0
OTU 171	2	3	1	4	1	3	0	0	0	0	0	0	6	1	0	0	0	0	4	2	1	0	0	0	0	0	0	0	1	1	0	0	1	4	1	0	0	0	0	6	3	3	2	1	4	1	1	2	2	0
OTU 172	0	0	0	0	0	0	0	0	0	0	0	0	1	0	0	0	1	0	0	0	0	0	0	1	1	0	0	0	0	0	0	0	0	0	0	0	0	0	0	0	0	1	0	0	0	0	0	0	0	0
OTU 173	0	1	0	0	0	4	0	3	0	0	0	2	2	0	0	0	0	0	1	0	0	0	0	0	0	1	0	0	3	0	1	0	0	0	0	0	0	0	0	3	1	1	0	2	0	0	0	1	0	0
OTU 174	2	2	1	0	0	0	0	0	2	0	0	0	0	0	0	0	0	0	0	0	0	1	0	0	0	0	5	3	0	1	0	0	0	0	0	0	0	0	0	0	0	0	0	2	0	0	0	0	0	2
OTU 175	0	0	0	0	0	0	2	1	0	1	0	0	1	12	0	0	0	0	0	0	1	28	0	0	7	1	0	0	0	0	0	0	0	0	2	0	0	15	0	0	1	0	0	1	14	0	2	1	0	0
OTU 176	4	1	2	0	0	1	5	0	0	0	1	2	0	2	1	2	0	1	1	0	0	0	0	3	2	2	0	1	0	0	2	2	1	0	2	0	2	3	0	1	14	4	0	0	0	1	0	2	6	0
OTU 177	0	0	0	0	0	1	0	2	0	3	0	2	0	0	0	0	0	12	1	0	0	0	2	2	2	16	12	3	0	0	2	7	0	0	0	0	4	0	0	0	1	0	0	21	0	0	0	2	0	43
OTU 178	0	0	0	1	0	0	0	2	0	0	2	0	0	0	0	0	99	0	0	1	1	0	1	0	0	0	1	4	0	0	0	1	0	0	0	0	0	3	0	0	1	1	0	0	1	1	0	0	0	0
OTU 179	0	0	0	0	0	0	0	0	0	1	0	0	0	0	3	0	1	0	0	0	0	0	3	3	0	0	0	0	0	0	0	0	0	0	1	1	1	0	1	0	0	1	1	0	0	0	0	0	1	0
OTU 180	5	1	1	5	2	5	2	0	4	1	2	39	5	5	7	0	38	5	0	10	76	25	3	1	7	4	0	1	2	10	2	26	0	0	12	0	1	8	78	4	1	3	0	7	17	10	10	1	1	22
OTU 181	0	0	1	0	1	0	0	3	1	1	1	2	0	0	0	0	0	3	1	0	0	1	3	8	1	13	2	14	0	1	0	1	0	0	0	0	0	0	1	0	3	6	0	0	1	0	0	1	16	1
OTU 182	0	0	0	0	0	0	3	0	0	0	0	0	0	6	0	0	0	0	0	3	0	0	0	0	0	0	0	0	0	0	0	0	0	0	0	0	0	0	0	0	0	0	0	0	0	0	0	0	0	0
OTU 183	0	1	4	0	0	1	0	3	1	1	0	1	0	2	1	4	0	0	3	0	2	2	0	0	0	0	0	0	1	0	0	0	1	1	2	0	0	0	1	0	0	2	19	0	0	0	0	0	0	0
OTU 184	0	3	0	1	0	1	0	0	0	1	1	0	0	0	4	0	0	0	0	1	1	0	0	0	0	0	1	0	0	0	1	0	0	0	0	1	0	0	1	0	0	0	0	0	0	0	0	0	0	0
OTU 185	0	0	1	0	0	0	15	3	0	2	3	2	0	2	3	1	6	1	3	19	0	0	1	0	0	1	0	0	1	0	0	2	0	0	3	0	8	0	6	0	0	3	57	0	0	5	0	0	1	1
OTU 186	29	1	0	0	0	0	0	0	14	0	0	0	1	0	0	0	0	0	2	1	2	0	0	1	0	0	0	0	0	0	0	0	0	0	0	5	0	0	0	0	0	0	0	0	0	0	0	0	0	0
OTU 187	1	4	0	0	4	4	1	0	5	1	1	0	6	0	0	6	3	3	6	3	1	3	0	1	1	1	1	0	4	0	0	3	3	3	2	1	1	3	2	3	3	0	0	0	4	3	0	2	0	0
OTU 188	2	0	154	65	32	1	1	0	0	1	0	0	0	1	9	0	1	0	0	0	1	5	3	1	0	1	0	1	0	2	0	1	0	0	6	129	1	1	0	0	0	0	1	3	5	0	9	38	3	1
OTU 189	1	7	5	0	0	4	0	4	2	68	2	6	4	7	1	2	0	0	9	1	46	3	0	0	1	1	0	0	0	0	2	2	0	1	0	2	0	0	1	1	0	0	5	0	1	0	0	0	0	1
OTU 190	0	1	0	0	0	0	0	0	0	1	0	0	1	0	0	0	0	0	0	0	0	0	0	0	0	0	0	0	0	0	4	0	0	0	0	0	0	0	0	0	0	0	0	0	0	2	2	0	0	0
OTU 191	18	1	1	0	1	5	0	9	2	0	1	0	1	14	0	1	0	0	0	0	0	39	6	25	2	1	0	13	0	0	0	3	0	2	0	1	1	1	0	0	59	4	0	2	11	2	0	1	9	2
OTU 192	6	3	3	1	0	0	6	1	0	2	0	0	1	0	1	0	3	1	0	0	2	2	6	5	1	0	0	0	0	0	2	0	1	1	41	0	9	1	4	0	0	0	0	4	0	0	0	1	25	4
OTU 193	3	0	1	0	2	0	0	0	0	0	0	0	2	4	0	1	2	0	1	4	0	0	1	1	0	0	49	0	33	2	5	1	0	2	0	0	4	0	1	1	1	0	0	0	1	2	19	0	0	0
OTU 194	0	0	1	0	0	0	0	0	0	0	0	1	0	0	0	1	1	1	0	0	0	0	1	7	0	0	1	0	1	0	0	1	0	0	0	1	0	0	0	1	0	0	0	0	0	1	0	0	1	0
OTU 195	1	0	0	1	0	4	0	0	0	0	1	1	1	0	0	0	2	0	5	4	3	0	2	3	0	2	0	0	0	6	0	0	2	1	6	0	2	0	0	2	2	0	0	1	0	0	0	0	0	1
OTU 196	1	5	0	1	0	0	0	0	1	0	0	4	0	1	0	2	1	1	2	1	3	0	0	2	0	3	0	0	0	2	0	3	1	1	2	2	0	4	0	0	1	1	1	0	0	2	0	0	1	0
OTU 197	0	13	50	0	0	2	0	5	1	5	1	1	3	1	2	8	1	0	22	2	2	0	1	7	6	5	2	2	0	4	2	17	8	7	0	0	3	14	3	0	0	3	12	17	7	1	0	0	3	27
OTU 198	0	0	0	0	0	0	0	0	0	0	0	1	0	0	0	0	0	0	0	0	0	0	0	0	0	1	0	0	0	0	0	0	0	0	0	0	0	0	0	0	0	0	0	1	0	0	0	0	2	1
OTU 199	0	1	0	1	0	0	0	0	0	0	0	0	4	2	0	0	2	0	0	0	0	0	0	0	1	0	0	1	0	0	0	1	0	0	0	1	0	0	0	0	0	0	0	0	1	0	0	0	0	0
OTU 200	0	0	1	0	0	0	3	4	7	0	3	0	4	0	0	0	0	8	0	19	5	0	6	9	0	9	6	5	0	0	0	0	2	15	3	1	3	0	2	0	3	1	0	139	16	2	0	0	5	0
