	Host 1	Host 2	Host 3	Host 4	Host 5	Host 6	Host 7	Host 8	Host 9	Host 10	Host 11	Host 12	Host 13	Host 14	Host 15	Host 16	Host 17	Host 18	Host 19	Host 20	Host 21	Host 22	Host 23	Host 24	Host 25	Host 26	Host 27	Host 28	Host 29	Host 30	Host 31	Host 32	Host 33	Host 34	Host 35	Host 36	Host 37	Host 38	Host 39	Host 40	Host 41	Host 42	Host 43	Host 44	Host 45	Host 46	Host 47	Host 48	Host 49	Host 50	
OTU 1	3	132	2	119	187	42	225	73	91	153	35	490	5	12	220	46	189	59	255	348	0	153	394	208	34	109	53	133	224	0	178	331	281	18	0	78	25	415	77	240	249	208	98	39	54	0	34	88	20	57
OTU 2	0	34	2	20	62	11	0	2	60	57	2	2	1	46	21	0	15	0	1	11	4	0	0	1	3	0	5	5	49	0	59	5	78	0	1	1	21	0	1	90	1	10	40	32	1	2	0	25	7	0
OTU 3	9	1	7	45	23	1	0	2	18	1	1	2	2	0	2	0	0	0	1	0	0	0	10	0	0	0	0	0	101	0	1	1	0	4	0	17	0	1	0	0	0	0	0	26	27	105	3	0	0	2
OTU 4	9	0	0	0	0	0	0	0	0	0	0	0	0	1	0	0	0	0	0	0	0	0	0	0	0	0	0	0	0	0	0	0	0	0	0	0	0	0	0	0	2	0	0	0	0	0	0	0	0	0
OTU 5	460	81	496	456	379	0	279	113	890	150	48	68	482	147	1035	102	1517	424	962	303	99	427	117	56	117	808	776	25	241	1889	142	106	35	270	4	362	267	6	170	52	214	50	229	508	465	4	1208	526	211	954
OTU 6	4	1	17	1	3	1	13	9	7	6	1	0	61	0	61	6	4	2	6	8	0	1	26	15	0	5	5	17	41	4	57	20	0	7	35	12	40	0	0	22	3	2	0	70	41	60	70	0	8	11
OTU 7	49	20	35	240	136	87	16	39	287	172	261	30	36	29	31	21	25	43	320	6	303	36	51	61	35	97	29	96	472	29	241	49	43	18	6	68	337	292	10	538	81	31	14	367	135	55	10	293	1	12
OTU 8	42	132	13	3	1	124	50	36	33	136	21	54	10	78	133	32	55	13	13	46	110	61	67	35	19	26	4	69	14	39	51	136	20	75	32	6	25	46	16	5	22	44	9	53	109	26	29	18	39	9
OTU 9	81	91	0	7	3	7	0	0	4	5	0	30	6	2	1	53	0	38	98	4	66	0	3	2	2	74	9	1	4	5	19	39	0	10	33	2	26	110	0	4	0	101	2	6	0	80	0	0	0	0
OTU 10	30	0	21	0	3	2	0	0	110	97	177	0	6	10	2	3	5	23	163	3	0	6	3	6	0	36	0	0	0	147	82	0	0	1	2	0	22	10	2	783	0	19	0	196	4	0	1	198	1689	17
OTU 11	8	4	69	10	1	29	19	15	11	7	27	15	78	1	35	3	37	34	15	64	2	0	36	17	50	49	28	31	13	2	106	0	82	5	50	0	1	104	9	10	127	4	45	1	5	36	1	12	4	28
OTU 12	1	23	5	8	1	29	7	0	64	10	11	29	74	72	3	48	28	31	23	10	9	2	2	0	42	62	4	20	0	6	0	53	27	2	3	3	12	109	3	41	9	15	12	57	34	43	2	7	279	7
OTU 13	0	0	0	0	7	0	2	0	0	0	8	27	0	0	0	16	0	2	0	0	0	0	0	0	0	1	0	0	3	48	0	14	0	0	0	0	0	1	3	0	0	0	0	0	0	0	0	0	0	0
OTU 14	0	14	39	1	2	0	1	0	1	31	15	0	17	0	9	0	0	0	0	0	18	1	0	0	0	1	0	4	0	0	0	13	1	7	57	15	5	30	0	0	1	2	0	114	0	4	0	5	57	1
OTU 15	0	0	0	20	9	3	0	0	6	0	16	0	8	0	0	1	0	0	0	0	7	0	0	0	0	0	0	0	87	0	0	0	0	0	0	17	0	0	1	0	0	0	0	7	0	7	0	0	22	25
OTU 16	0	0	0	0	0	0	0	0	0	0	0	0	0	0	0	0	0	0	0	0	0	0	0	0	0	0	0	0	0	2	0	0	0	0	102	0	0	0	0	0	0	0	0	0	0	7	0	0	0	4
OTU 17	5	5	3	1	0	10	1	0	3	1	20	6	239	6	4	5	6	4	10	0	10	54	0	143	0	11	0	0	3	17	0	4	64	16	0	1	9	42	0	1	47	23	24	2	16	0	1	0	138	0
OTU 18	2	34	5	31	21	56	6	7	10	0	19	4	42	0	21	63	27	2	65	8	4	51	61	6	29	7	0	13	30	167	45	132	38	12	11	0	0	92	132	48	43	53	26	9	2	199	25	5	30	2
OTU 19	0	0	0	0	0	0	0	0	0	0	0	0	0	0	0	0	0	0	0	0	0	0	0	0	0	0	0	0	0	0	0	0	0	0	0	0	0	0	0	0	0	0	0	0	0	0	1	0	0	0
OTU 20	0	66	13	6	9	34	22	10	2	49	8	5	3	7	16	1	13	16	16	98	1	2	0	23	0	32	31	39	29	4	56	90	1	68	12	15	28	44	1	19	10	41	0	20	2	0	7	14	9	37
OTU 21	9	41	29	0	7	110	3	19	14	24	14	7	46	8	35	17	72	13	37	6	2	1	6	5	10	22	30	47	3	7	0	22	64	9	14	0	64	20	1	30	74	47	48	2	0	7	21	8	2	20
OTU 22	53	1	22	24	26	3	9	26	79	1	17	32	167	2	11	10	7	0	8	56	31	153	5	5	25	1	0	6	70	5	4	1	3	3668	2	10	2	92	2	33	11	2	2	99	35	77	73	14	6	10
OTU 23	17	0	46	19	6	6	0	22	23	20	4	27	0	23	10	15	1	23	4	20	8	20	0	24	7	44	12	11	30	0	10	15	7	1	19	5	11	0	1	0	21	5	2	2	4	58	4	3	0	6
OTU 24	0	57	1	2	18	205	3	1	7	5	7	0	13	108	20	39	9	1	11	63	7	30	0	13	50	5	0	7	14	1	7	32	26	107	0	15	1	0	2	22	11	50	8	12	1	0	1	7	0	0
OTU 25	0	0	0	0	0	0	0	0	11	0	0	0	0	0	1	0	13	0	9	0	0	0	0	0	0	0	0	0	0	0	0	0	0	5	4	0	0	0	0	0	27	0	0	0	0	0	0	0	0	0
OTU 26	0	0	0	0	0	54	0	0	2	0	0	5	0	0	0	3	23	0	1	0	59	17	5	0	0	0	0	0	0	2	14	25	0	0	19	0	8	111	0	0	0	0	0	5	3	0	25	0	0	0
OTU 27	0	0	0	0	0	0	9	0	0	0	0	0	0	0	0	0	0	0	0	3	0	0	0	0	0	0	0	0	24	0	0	0	2	0	0	0	0	5	0	0	0	0	1	0	0	0	0	0	0	0
OTU 28	7	60	21	16	25	15	17	40	12	4	28	146	9	151	10	0	86	4	36	9	101	21	206	95	3604	5	16	121	24	0	86	89	66	37	113	1	10	10	3	109	1	12	16	6	5	4	17	30	42	41
OTU 29	53	20	55	3	18	10	29	17	19	27	0	38	11	95	29	0	61	23	1	42	117	0	14	0	38	31	29	20	1	36	2	12	42	13	59	3	92	29	6	5	36	4	5	393	7	202	3	8	19	42
OTU 30	0	0	0	0	0	0	0	0	0	0	0	0	0	0	0	0	0	0	0	0	0	0	0	0	0	0	0	0	0	0	0	0	0	0	0	0	0	0	0	0	0	8	0	0	0	0	5	0	0	0
OTU 31	239	1	0	1012	864	0	0	0	402	400	514	0	0	25	0	0	53	0	478	0	1	3	1	26	6	0	2	0	2002	3	306	1552	0	25	0	534	625	743	0	713	24	25	4	88	0	16	15	477	3	0
OTU 32	12	32	7	15	48	103	168	50	1	63	25	78	1	8	71	22	58	0	64	317	27	30	3	84	8	0	2875	55	57	58	22	69	53	19	101	57	102	11	109	51	90	18	32	93	20	187	35	27	1	16
OTU 33	0	0	0	0	0	3	0	0	0	2	0	0	0	0	0	1	0	0	12	0	0	5	0	0	0	2	0	0	0	0	0	2	0	0	0	0	0	0	0	0	0	0	0	1	0	0	0	0	0	0
OTU 34	1782	7	47	33	6	19	4	38	0	45	1	11	99	21	4	28	0	23	28	19	19	11	43	16	17	44	47	40	18	1	30	144	5	4	36	2	104	13	0	34	13	51	4	1	0	39	5	14	10	19
OTU 35	14	19	2	3	2	15	57	19	1	251	88	1	2	20	146	28	3	2	68	0	16	100	15	62	1	4	2	43	3	0	2	3	25	117	20	2	9	115	31	14	0	0	4	54	86	129	11	23	26	4
OTU 36	5	24	16	100	55	4	94	15	1	0	101	40	15	0	19	25	7	2	9	2	0	9	5	11	0	3	29	5	90	19	6	4	1	37	1	34	1	3	75	91	13	66	1	22	51	22	3	82	57	4
OTU 37	0	0	1	0	0	1	0	38	0	2	0	9	0	1	1	1	0	0	0	0	1	6	19	0	0	0	0	147	0	0	4	0	0	7	0	1	10	0	0	0	0	0	0	1	10	2	0	0	3	0
OTU 38	58	546	37	216	73	60	270	121	228	177	49	1066	61	268	229	3466	329	194	69	463	5	387	445	849	79	377	150	329	439	2	26	650	284	32	19	27	0	240	107	145	425	115	138	2	178	55	163	49	253	26
OTU 39	5	0	0	6	1	4	19	0	4	0	1	0	3	58	0	0	38	9	0	0	18	0	0	8	7	16	1	0	0	0	1	1	0	0	0	0	10	19	9	1	4	12	0	5	47	16	1	0	0	4
OTU 40	2	4	5	2	1232	8	20	2	0	13	37	9	12	191	5	13	2	1	52	31	42	3	12	23	80	3	1	2	4	6	62	4	7	0	15	606	18	30	33	116	7	6	4	712	0	43	27	23	28	4
OTU 41	17	5	6	22	2	42	18	10	87	0	1	0	31	0	5	12	0	24	9	60	0	8	18	2	7	7	3	0	52	2	2	3	14	75	14	6	13	0	11	7	3	42	4	31	13	45	1	5	5	22
OTU 42	0	0	12	0	0	1	25	2	0	0	0	133	12	4	1	0	54	0	0	3	1	0	0	0	0	0	3	20	8	0	0	15	1	14	5	0	46	4	14	1	0	2954	0	25	6	3	1	0	1	9
OTU 43	0	0	2	0	0	0	0	0	0	0	2	0	0	0	0	0	0	0	0	0	0	0	0	0	0	0	0	0	0	0	0	0	0	0	0	0	0	0	0	0	1	0	0	1	0	2	0	0	0	0
OTU 44	99	0	16	0	0	1	0	5	0	106	11	0	8	0	0	0	0	0	0	0	0	43	0	1	0	0	0	5	0	0	0	10	1586	0	0	0	0	0	0	111	1	0	776	0	6	78	1	7	9	20
OTU 45	35	14	31	1	1	4683	11	19	0	10	4	47	116	13	10	8	21	17	23	9	18	6	56	41	30	0	1	13	3	98	11	29	68	2	160	9	2	58	8	15	29	2	60	97	15	16	10	34	5	9
OTU 46	136	208	56	8	19	6	4	4	2	64	10	10	24	350	18	271	13	14	23	5	39	0	33	38	169	16	9	57	29	92	52	26	5	22	6	311	26	182	1	16	72	151	3	22	19	9	0	42	4	23
OTU 47	7	0	0	0	0	0	0	0	7	1	0	0	12	17	0	2	0	0	0	36	5	0	0	0	0	0	0	0	2	0	0	4	10	17	9	0	0	0	3	20	1838	0	3	1	0	19	0	11	0	0
OTU 48	13	41	1	18	70	20	59	16	1	2	9	22	37	31	283	30	40	0	33	18	128	136	16	4	64	1	5	40	49	16	44	37	0	60	30	55	42	7	16	13	16	22	1	494	400	239	52	38	54	38
OTU 49	0	49	5	0	0	0	0	0	6	2	0	5	0	26	13	151	0	20	5	1	0	1	23	88	1	35	19	0	1	60	0	0	6	0	15	12	6	7	0	4	27	1	68	21	0	3	0	7	16	28
OTU 50	13	29	14	26	68	12	40	1590	8	5	42	34	196	15	12	1	38	15	66	24	9	18	46	16	85	27	3	3005	46	19	27	14	20	134	4	18	14	76	24	103	0	2068	11	0	4	79	20	8	65	3
OTU 51	18	24	1	9	24	10	17	2	398	7	11	4	0	2	56	24	20	0	1	0	89	107	7	35	0	0	0	1	10	6	5	3	15	5	101	1	0	0	8	62	0	26	4	4	85	8	633	32	14	5
OTU 52	13	147	133	60	55	95	15	17	47	49	20	19	6	79	26	101	52	2	82	26	170	15	117	5	100	2	41	35	127	111	24	40	21	37	117	42	76	47	23	153	50	27	13	11	37	35	49	46	22	24
OTU 53	0	0	0	0	0	0	0	0	0	0	0	0	0	0	0	0	0	0	0	0	0	0	0	0	0	0	0	0	0	0	0	4	0	0	0	0	0	0	0	0	15	0	0	0	0	0	0	0	0	0
OTU 54	41	73	152	7	10	1	1	34	16	21	485	1714	42	673	322	40	808	66	13	13	24	892	41	21	375	128	65	41	4	41	35	1090	18	4	15	4	5	88	5	132	26	80	11	2	251	59	338	64	47	142
OTU 55	0	0	0	0	0	0	0	0	0	0	0	0	0	0	0	0	0	0	0	0	0	0	0	0	0	0	0	0	0	0	0	0	0	30	0	0	0	0	0	0	0	0	0	0	0	0	0	0	0	0
OTU 56	108	0	100	0	0	0	0	0	0	7	0	2	21	4	8	0	1	4	0	1	1	29	10	25	31	5	1	3	0	14	8	2	0	17	58	0	57	17	0	0	2	6	2	2	0	0	2	2	1	0
OTU 57	1769	30	33	17	21	116	4	60	74	28	29	144	98	723	22	15	12	14	11	19	104	1699	54	67	308	26	48	47	64	30	3299	75	49	246	231	52	344	31	4	28	132	36	18	79	866	991	45	26	5	8
OTU 58	4	11	1	0	0	6	0	21	1	5	37	1	0	5	2	0	4	95	0	2	1	0	0	18	1	164	68	29	1	0	1	98	14	1	42	0	17	31	0	0	0	80	7	2	0	44	14	0	14	0
OTU 59	0	9	10	112	57	4	255	107	24	0	51	0	11	22	2	1	0	492	0	974	14	21	230	570	0	979	623	315	226	0	5	19	369	3	0	24	5	145	103	22	1093	121	204	41	0	37	3	37	332	187
OTU 60	31	5	4	3	15	78	1	26	22	10	27	52	42	68	87	0	2	43	29	11	6	40	10	34	34	83	51	74	14	177	99	62	34	12	17	9	112	40	10	14	70	29	6	8	10	24	30	2718	19	5
OTU 61	0	65	176	4	13	130	104	38	32	26	61	34	3	58	42	5	39	19	84	115	21	28	40	57	1	49	30	56	32	30	24	36	21	132	33	20	1	34	53	49	23	55	15	23	28	49	6	0	39	20
OTU 62	3	23	0	18	8	1	0	0	0	1	9	97	19	7	0	3	0	1	60	0	0	2	10	25	15	13	29	11	58	0	47	2	2	16	10	2	0	0	0	74	12	0	1	0	6	0	0	24	1	38
OTU 63	3	5	42	3	0	3	1	4	0	0	3	62	16	0	2	1	57	2	0	0	2	42	0	125	3	6	1	4	5	7	0	23	109	64	74	4	1	17	1	0	4	0	37	33	13	32	5	6	106	45
OTU 64	47	130	130	9	19	42	28	16	6	91	87	43	18	28	203	116	14	18	9	44	60	38	40	28	32	32	2	19	7	7	79	57	45	12	62	20	3	28	6	107	83	31	13	40	19	30	115	28	43	98
OTU 65	0	0	0	0	0	0	0	0	0	1	0	0	0	0	0	0	0	0	0	3	0	0	0	11	0	0	0	1	0	3	0	0	0	0	0	0	0	0	0	1	0	0	0	0	1	0	0	0	0	0
OTU 66	58	27	50	2	5	1	20	67	13	3	11	56	1	67	0	0	21	6	70	145	37	2	6	22	7	9	22	1	3	29	20	0	29	24	47	1	7	62	4	18	17	9	137	9	9	27	0	8	4	11
OTU 67	2	3	4	1	35	88	0	22	11	35	39	1	28	469	92	12	19	1	1	19	62	0	49	94	58	5	0	56	2	75	0	13	3	14	26	2	3	9	0	6	0	11	1	54	2	7	8	1	72	1
OTU 68	0	2	4	25	32	3	0	0	10	7	56	7	13	0	5	35	2	0	11	0	4	5	23	1	0	0	2	0	85	0	66	10	0	0	0	26	23	21	1	65	9	4	0	0	0	42	0	38	0	74
OTU 69	63	49	28	3	9	11	37	2	11	25	23	42	2	42	47	0	0	2	94	8	11	41	28	11	0	12	15	0	2	0	69	1	25	3	16	1	24	23	45	9	6	21	15	52	9	26	0	3	36	20
OTU 70	52	2	1	1	0	1	47	2	82	2	0	2	3	95	4	0	1	10	2	0	0	0	0	19	33	20	11	1	3	0	17	0	1	29	1	0	13	0	12	2	7	74	0	0	0	12	6	8	6	0
OTU 71	1	0	3	0	5	0	4	34	0	2	1	5	40	4	0	6	0	3	2	59	58	0	367	326	3	11	1	113	2	0	29	23	85	0	0	1	0	0	8	0	0	20	39	0	0	11	28	0	94	62
OTU 72	25	1	11	7	6	5	25	2	20	5	18	38	56	29	16	41	7	17	4	50	5	1	10	45	40	37	42	16	19	6	26	8	3	18	68	0	1	10	15	4	80	3	14	24	25	12	3	9	0	4
OTU 73	1	113	51	0	4	16	27	1	4	0	4	69	18	4	12	17	4	0	3	2	48	0	35	17	5	14	47	0	0	177	0	5	7	23	124	0	5	9	11	38	6	4	5	25	4	5	9	61	1	2
OTU 74	27	92	1	55	44	1	45	0	2	6	11	7	28	0	2	1330	0	36	4	15	1	0	10	43	33	57	19	5	82	3	0	27	38	20	15	14	93	65	22	34	44	3	20	14	0	8	0	4	9	16
OTU 75	96	0	10	5	22	12	8	4	36	17	36	1	6	12	5	1	26	4	29	5	34	0	35	124	16	8	3	52	20	89	59	823	60	0	62	8	93	11	4	71	8	43	30	40	15	55	14	39	33	12
OTU 76	15	16	1	1	0	1	0	0	1	0	3	0	2	1	5	2	34	10	490	1	1	5	0	3	6	20	27	0	0	8	0	0	31	0	54	4	0	0	1	5	2	0	9	17	0	0	0	72	5	0
OTU 77	1	11	25	2	4	1	41	29	57	22	2	46	19	16	8	13	16	2	46	2	79	15	46	107	48	1	5	38	8	18	26	3	34	18	0	0	16	10	24	0	1	7	24	141	19	0	0	7	3	22
OTU 78	13	8	60	11	0	194	17	12	20	16	1	42	3063	0	20	14	6	6	1	4	30	2	5	4	3	11	2	22	20	0	72	35	12	67	117	0	30	9	1	35	30	35	3	3	16	46	3	116	24	10
OTU 79	111	111	61	98	86	117	12	30	89	46	39	14	877	75	34	49	27	29	60	35	24	117	35	131	263	48	77	52	116	13	91	29	12	56	278	43	96	16	17	47	47	90	8	81	114	45	44	24	55	32
OTU 80	68	85	4	20	48	12	38	14	7	20	24	14	112	11	20	4	1	61	3	186	25	1	3	103	4	109	149	9	30	24	35	14	30	55	11	20	43	1	21	34	18	12	12	196	5	1	8	4	75	14
OTU 81	7	65	5	30	33	69	2	55	6	51	0	515	126	2071	43	13	58	45	8	22	56	87	0	18	1241	100	50	65	78	55	30	57	68	84	37	6	42	38	2	72	0	3	30	91	111	1	4	21	7	72
OTU 82	12	42	7	6	0	7	56	4	36	17	18	0	0	47	1135	27	9	0	8	18	4	43	1	19	0	0	9	17	0	52	8	85	19	4	3	4	13	1	19	28	8	9	6	17	74	2338	742	2	34	10
OTU 83	33	0	0	0	0	11	0	9	0	7	0	1	1	0	0	8	2	6	0	0	8	0	0	3	0	8	0	7	0	2	10	1	0	23	11	0	0	0	0	25	0	0	0	14	0	0	0	0	0	0
OTU 84	0	12	11	40	86	28	1	2	28	0	7	3	0	0	2527	0	1	0	11	0	93	2	8	0	14	1	0	2	107	22	19	7	0	36	0	42	17	14	2	0	39	56	0	0	4	3	1248	0	2	30
OTU 85	0	67	0	0	0	0	15	0	8	2	0	7	1	0	0	0	7	0	0	0	3	0	24	0	5	0	0	0	0	79	35	8	0	47	0	0	70	10	0	0	19	13	0	2	3	0	0	0	0	29
OTU 86	0	0	0	0	0	5	0	0	0	0	0	0	0	0	0	0	0	0	0	14	0	0	0	31	0	0	0	0	0	0	0	0	0	0	1	0	2	0	2	20	0	10	0	0	0	0	0	3	0	0
OTU 87	0	0	440	23	0	2	0	8	0	1	0	0	0	0	12	0	19	1	5	0	12	2	0	4	1	4	2	29	19	6	0	3	2	8	0	0	11	1	0	6	12	2	0	29	39	23	0	5	0	0
OTU 88	2	0	0	3	0	8	0	24	0	0	0	0	8	0	0	0	0	0	0	1	0	0	17	50	0	0	1	64	0	0	0	0	0	3	0	0	46	0	1	0	0	0	0	1	3	0	0	0	0	0
OTU 89	0	0	46	11	0	7	8	0	0	0	0	26	0	3	0	0	2	0	0	3	5	6	0	0	5	0	2	2	0	2	4	0	4	0	0	0	2	1	1	5	3	10	0	6	0	40	31	0	0	29
OTU 90	0	0	0	9	11	1	0	0	26	0	0	15	15	0	17	0	12	2	25	2	54	0	0	0	4	7	0	2	6	8	0	2	9	0	0	1	1	0	1	0	0	2	0	73	0	0	0	2	0	1
OTU 91	0	0	0	0	0	1	9	0	0	0	0	0	0	0	0	0	0	0	3	0	1	14	0	0	3	0	0	0	0	0	0	8	0	0	16	0	0	39	0	0	0	2	0	0	0	0	0	0	0	0
OTU 92	0	21	0	19	2	0	1	0	1	0	0	0	49	0	32	0	21	0	0	0	127	0	60	0	0	2	0	0	14	1	19	45	0	0	0	0	44	0	0	1	0	2	1	6	1	17	17	0	16	0
OTU 93	0	10	0	0	1	0	51	0	2	1	1	0	7	1	0	0	0	0	0	44	1	0	56	0	0	0	0	0	0	0	0	0	0	0	0	1	3	2	3	24	0	0	0	0	0	1	54	6	0	0
OTU 94	187	29	8	1	9	57	21	3	289	308	184	153	17	12	31	2	53	304	379	9	5	4	10	8	27	0	4	0	2	9	254	34	12	31	54	5	15	36	4	312	5	42	3	151	9	91	14	268	8	19
OTU 95	3	1	11	0	8	1	0	0	0	13	5	65	1	3	12	5	2	0	11	22	1	0	1	0	23	0	1	0	0	8	17	1	0	2	0	0	4	75	0	2	4	1	1	0	11	4	0	6	0	0
OTU 96	4	0	0	0	0	0	60	0	0	0	0	0	0	1	0	0	0	0	0	0	0	0	0	0	0	2	0	2	0	0	0	2	0	32	0	0	3	0	5	0	0	0	0	0	0	0	0	0	18	2
OTU 97	3	11	2	30	55	9	154	5	122	52	221	282	1	0	2	0	192	47	43	177	0	105	0	10	0	103	91	45	48	0	44	134	0	0	0	33	48	15	50	273	130	0	0	39	12	0	52	200	2	3
OTU 98	3	0	6	0	0	0	4	0	5	31	8	0	7	3	0	6	0	0	0	0	1	29	3	5	0	0	1	0	0	0	0	3	1	7	78	6	0	0	22	2	4	1	3	46	0	0	0	0	6	3
OTU 99	24	113	70	2	14	31	78	40	33	26	6	0	46	11	48	0	18	13	46	23	18	1	89	86	3	35	53	41	5	9	18	37	0	22	109	4	55	226	16	32	2	1	13	16	16	45	3	41	31	33
OTU 100	2	67	43	0	0	85	6	210	0	0	1	0	9	0	2	9	0	21	2	17	4	24	12	65	1	45	6	9	1	110	8	15	0	24	6	12	37	0	3	13	30	60	0	12	5	22	36	9	21	3
OTU 101	1	0	0	0	28	0	0	0	0	0	0	0	0	0	0	0	2	3	0	0	0	0	0	0	0	8	1	0	0	0	0	0	0	0	0	2	6	0	0	0	0	1	0	0	27	1	5	0	0	3
OTU 102	0	1	0	5	6	0	20	1	0	0	29	49	5	35	0	0	11	0	3	0	0	8	0	2	0	1	0	0	11	23	1	1	0	0	0	23	0	5	4	1	0	0	2	16	3	2	13	0	1	1
OTU 103	1	51	0	0	3	2	23	0	1	5	0	45	75	24	83	9	3	0	5	0	10	0	91	4	11	0	2	16	2	0	0	3	0	0	35	0	63	3	9	14	0	3	0	173	9	35	3	1	0	36
OTU 104	50	0	17	9	3	22	9	70	16	103	0	23	0	7	18	34	15	29	14	42	13	19	79	95	6	50	31	125	4	19	84	7	14	28	151	8	10	50	6	10	0	201	26	85	7	22	2	69	12	46
OTU 105	11	0	25	0	0	0	0	3	1	15	4	0	1	34	0	0	7	1	0	0	0	10	0	0	8	2	0	7	0	24	0	1	48	0	0	0	3	0	1	31	1	0	48	38	1	56	0	13	1	0
OTU 106	2	58	1	48	0	0	0	1	97	0	0	6	0	55	0	13	2	0	0	2	51	20	3	2	5	0	2	0	76	25	17	20	6	0	4	29	0	21	0	0	0	1	0	0	0	0	0	13	30	0
OTU 107	0	0	0	7	0	21	1131	22	0	1273	0	9	0	1	30	30	0	1	43	2382	51	4	0	50	0	2	10	95	0	1	2	3	0	9	0	0	3	18	706	0	0	62	0	44	54	4	17	17	8	4
OTU 108	5	103	61	132	150	24	0	0	61	161	72	36	1	12	1	41	1	16	69	0	66	66	26	9	1	28	3	16	224	30	36	3	21	11	11	44	335	47	0	120	0	17	21	0	15	42	6	96	0	48
OTU 109	0	0	0	0	0	0	0	0	0	0	0	0	0	0	0	0	0	0	0	0	0	0	0	0	0	0	0	0	0	0	0	0	0	0	0	0	0	0	0	0	0	0	0	0	0	0	0	0	0	0
OTU 110	13	100	79	28	6	114	3	6	12	1	34	82	3	22	0	68	21	2	14	9	6	13	4	57	15	6	641	60	70	2265	11	171	19	6	8	2	0	22	0	9	47	70	24	18	3	19	6	4	8	24
OTU 111	0	2	30	0	0	0	0	9	0	0	0	0	0	0	0	0	1	0	0	2	10	0	0	0	0	0	0	47	0	66	0	1	0	10	0	0	0	0	0	0	0	0	0	0	1	0	0	1	0	2
OTU 112	1	0	2	20	61	1	3	0	7	0	0	1	30	26	0	3	0	7	39	45	0	6	27	43	0	17	2	5	89	80	30	1	13	85	0	26	2	0	12	52	1	33	1	25	1	0	1	51	8	11
OTU 113	22	0	0	7	1	0	8	1	1	1	0	12	0	9	2	3	5	0	7	9	4	0	0	0	0	0	0	22	6	0	0	0	0	0	0	0	0	0	0	0	0	0	0	0	3	0	0	0	0	0
OTU 114	84	70	36	34	76	37	28	60	2570	81	164	13	81	52	59	45	37	5	13	26	1283	64	62	43	39	6	15	178	51	15	119	68	148	13	104	10	12	7	7	155	25	1	62	12	73	1	1	39	19	43
OTU 115	19	17	8	15	7	148	14	77	52	129	7	69	70	32	18	21	44	4578	39	68	506	24	14	21	46	17	15	62	47	38	98	75	265	5	32	19	72	4	35	35	24	80	107	2309	11	0	2177	11	21	57
OTU 116	153	730	28	674	850	288	27	4	208	358	235	62	143	61	27	427	27	6	273	12	0	44	16	4	6	16	2	33	1402	29	262	9	17	21	62	361	595	456	5	373	41	7	8	118	12	30	0	163	7	3
OTU 117	8	48	6	0	5	232	1	4	8	7	4	34	96	123	0	6	0	5	0	0	23	0	2	3	37	9	0	15	1	30	7	4	56	6	40	9	9	39	5	18	35	110	15	27	7	89	10	8	3	30
OTU 118	3	0	0	0	6	6	24	1	0	1	20	0	67	0	0	2	0	5	0	7	0	23	0	102	5	7	8	4	0	0	0	0	17	5	11	1	0	0	22	0	11	88	6	0	0	27	1	1	54	27
OTU 119	18	89	10	3	14	2	25	2	17	705	23	9	41	2	30	18	4	4	64	0	37	4	30	6	9	8	1	0	7	10	7	3	37	333	7	3	0	3	20	2	20	13	3	96	3	25	20	1	14	14
OTU 120	33	241	2	7	0	6	0	1	2	10	0	0	8	18	0	48	1	12	14	2	43	6	0	2	39	27	67	6	24	87	7	0	0	53	31	16	0	3	1	6	0	1	0	0	0	0	0	1	1	31
OTU 121	12	0	4	0	7	22	9	26	18	33	98	0	13	0	48	33	0	7	0	3	15	0	1	9	7	37	22	27	2	20	17	11	0	39	63	4	6	65	8	206	6	10	1	1	13	0	0	77	0	13
OTU 122	11	5	5	3	0	5	23	1	23	0	8	7	74	0	68	1	27	1	37	22	8	25	0	4	0	5	0	1	17	776	109	54	31	0	0	16	8	116	3	3	0	41	17	28	18	12	25	2	10	10
OTU 123	19	2307	18	596	94	144	89	98	55	49	1569	478	133	221	235	1189	243	64	99	75	118	362	41	234	157	121	320	181	87	185	58	246	34	133	207	33	63	77	50	115	45	82	34	67	2616	108	504	48	126	65
OTU 124	6	0	1	6	4	39	6	1	0	0	0	0	0	0	13	0	0	0	17	0	84	0	16	15	17	0	3	5	33	0	12	0	0	0	3	5	12	5	10	0	0	1	4	0	0	0	0	4	7	0
OTU 125	82	45	45	2922	48	116	72	54	49	61	51	39	143	312	57	164	14	40	174	25	138	15	47	125	193	93	55	237	145	285	77	86	28	44	119	59	82	206	2186	45	83	35	20	27	41	238	73	53	13	47
OTU 126	0	41	0	0	0	1	0	7	6	0	1	2	0	0	10	4	4	0	0	6	0	18	16	0	1	0	0	1	0	34	1	0	0	0	0	0	0	1	0	0	0	0	0	3	0	35	5	1	0	3
OTU 127	18	0	1	3	0	0	2	0	0	0	0	3	55	0	12	38	0	4	1	16	119	24	4	45	2	10	11	8	0	0	13	28	31	11	7	1	48	12	1	0	4	8	14	0	74	0	0	8	0	0
OTU 128	85	160	70	183	183	27	39	56	199	167	190	81	80	21	83	54	54	75	69	92	39	45	141	40	24	138	103	132	308	30	274	130	50	75	48	105	786	2378	28	313	13	10	22	74	40	160	35	948	24	35
OTU 129	0	0	0	13	12	1	0	0	0	7	0	0	0	1	0	64	2	0	0	0	21	0	0	0	1	0	0	0	59	0	0	4	0	14	17	23	0	32	0	27	0	0	0	0	2	8	0	3	1	0
OTU 130	3	16	37	22	31	56	9	1	25	32	2	1	84	1	12	21	49	517	65	44	71	28	8	12	13	972	544	1	26	0	41	6	19	39	10	22	37	0	21	12	13	38	8	17	3	6	0	15	2	0
OTU 131	7	7	17	5	257	3	26	3	4	0	11	20	25	3	19	0	0	6	15	2	0	50	40	1	0	16	16	15	6	0	3	18	0	14	10	133	5	58	22	0	25	1	0	5	14	565	3	6	1	13
OTU 132	2	9	2	1	2447	33	18	4462	15	20	17	1	6	6	4	1	2	0	0	0	13	2	0	4	11	0	21	6	2	70	1	0	0	43	3759	1122	1	30	10	5	0	29	1	0	8	74	0	1	3	5
OTU 133	3	0	0	8	0	10	0	15	7	0	0	23	0	46	5	0	3	0	0	1	36	0	0	4	16	0	0	53	15	29	2	3	0	0	0	0	0	0	0	0	0	13	0	0	0	0	0	0	37	0
OTU 134	46	21	7	0	0	65	30	15	48	20	29	157	74	1	3	51	12	14	99	10	29	162	8	2	48	31	0	3	2	17	4	24	140	4	17	422	5	124	6	26	7	6	4525	0	48	8	3	3	11	1
OTU 135	9	1	11	5	0	8	6	20	11	2	2	8	0	0	27	1	1	1	41	37	104	5	7	27	1	1	1	57	4	0	74	0	1	24	15	6	20	11	9	12	38	28	2	75	25	23	4	2	32	18
OTU 136	6	0	65	4	53	9	5	9	0	0	27	2	18	0	10	1	1	2	5	2	32	40	0	19	9	4	27	28	38	0	1	9	1	34	12	10	1	7	2	3	69	12	0	3	34	1	11	3	39	29
OTU 137	23	17	7	0	6	0	0	0	14	15	1	0	0	0	7	2	0	23	0	2	0	1	2	5	6	37	0	0	2	473	0	17	0	0	0	3	26	0	0	0	0	1	0	0	309	0	4	0	0	0
OTU 138	11	0	2	1	12	0	1	0	10	0	0	33	5	0	2	0	1	3	4	24	1	3	0	2	12	10	1	0	0	0	4	1	3	44	11	2	0	16	1	0	0	24	1	1	14	0	10	0	2	0
OTU 139	10	172	33	11	14	7	94	1	103	33	13	0	8	20	21	6	2	37	5	122	36	49	66	55	31	75	17	4	22	12	126	4	224	1129	29	0	29	41	73	15	56	83	160	5	32	119	12	15	1226	22
OTU 140	642	35	5	52	107	55	33	8	792	544	754	5	191	214	70	9	23	19	2097	46	37	58	86	78	34	31	8	8	71	34	821	26	78	22	20	80	37	125	27	1587	14	13	38	371	42	27	46	667	20	229
OTU 141	3	0	0	0	0	0	0	0	1	0	0	0	26	0	0	0	1	0	2	0	0	0	0	0	609	0	0	0	0	0	0	0	0	0	0	0	0	0	0	0	0	0	0	0	0	10	0	0	0	0
OTU 142	0	17	0	0	0	2	0	4	0	0	0	4	0	0	0	0	0	0	0	0	0	0	0	0	0	0	1	0	0	0	0	0	0	0	0	0	0	0	0	0	0	0	0	0	1	0	0	0	0	6
OTU 143	1	0	0	0	0	0	0	0	3	5	0	0	0	0	0	10	0	0	368	12	13	0	6	3	0	0	7	3	7	27	9	0	0	2	0	5	0	0	0	10	0	23	0	0	12	4	0	1	0	2
OTU 144	0	34	2	0	2	1	0	1	0	0	4	0	0	0	0	0	0	1	0	2	1	23	0	0	14	3	0	0	0	4	0	1	0	11	0	0	2	0	4	0	0	15	0	1	1	0	0	0	17	13
OTU 145	2	52	22	7	21	78	32	2	89	22	23	16	27	6	75	61	131	24	1	25	35	25	14	31	32	40	8	2	41	4	80	1	11	41	0	28	19	46	7	59	3	19	3	76	17	1005	1	3	3	48
OTU 146	20	60	4	12	1	17	98	0	1	3	2242	29	118	67	0	6	27	0	7	42	3	54	22	31	2	0	0	2	25	77	29	38	10	6	8	0	33	29	55	0	31	1	10	2	41	21	9	10	6	23
OTU 147	2	34	4	0	2	9	0	2	3	2	0	17	3	1	13	2	3	2	0	5	0	0	0	0	8	4	21	0	0	4	6	8	16	175	2	0	344	0	0	7	20	0	10	1	2	0	0	3	0	35
OTU 148	95	0	10	17	0	16	2	0	14	0	1	9	7	67	13	0	31	33	24	0	0	2	61	7	3	69	11	0	31	1	107	12	66	191	20	28	2	3	12	59	6	15	43	34	7	25	0	34	0	5
OTU 149	3	1	54	0	0	32	0	0	1	1	6	0	23	2	0	4	0	4	0	17	9	1	4	4	1	3	0	26	1	13	2	23	9	6	10	3	0	13	0	1	12	0	9	30	5	4	11	16	6	26
OTU 150	0	0	0	0	0	26	63	12	4	0	2	0	5	0	1	2	7	1	0	5	0	0	1	7	0	2	17	2	1	0	0	1	20	14	0	0	28	0	37	6	0	0	3	0	0	0	0	0	17	0
OTU 151	9	17	0	6	6	0	1	10	0	17	15	1	0	0	11	14	4	16	0	43	5	1	11	24	6	19	0	2	18	38	18	0	52	2	61	0	2170	31	0	5	3	0	26	7	19	10	17	5	27	2
OTU 152	6	109	8	8	21	5	12	7	26	0	11	2	11	20	3	21	11	0	2	38	65	6	44	41	9	0	0	26	11	4	0	37	12	15	7	2	91	17	9	66	0	0	11	76	100	54	14	40	21	7
OTU 153	0	0	0	0	0	20	6	0	0	12	0	3	17	5	24	0	0	9	1	1	0	12	0	0	0	18	0	0	0	0	0	0	0	1	0	0	0	0	1	2	0	0	0	0	0	0	6	0	0	0
OTU 154	1	0	0	0	0	0	0	0	2	0	0	1	0	1	0	0	2	0	0	1	0	0	0	0	0	0	0	0	0	0	0	0	0	0	0	0	2	0	0	0	21	3	3	8	0	0	0	0	25	2
OTU 155	0	4	0	10	10	1	0	0	29	48	50	34	2	0	0	0	0	1	1	13	0	20	51	37	1	4	1	0	33	3	17	14	24	27	16	7	18	8	2	85	1	0	11	10	5	1	21	36	59	6
OTU 156	129	164	198	186	135	12	225	141	317	329	344	730	12	228	165	141	370	233	237	475	89	224	277	394	83	451	290	127	296	41	118	205	231	20	2	43	361	395	133	458	477	90	83	136	186	3	61	217	280	50
OTU 157	0	2	2	0	0	2	0	463	2	0	0	1	0	0	1	5	5	0	4	14	0	12	655	1509	0	0	7	717	0	10	97	1	658	2	8	0	0	2	0	7	0	354	388	1	0	6	0	0	791	81
OTU 158	0	0	0	0	0	0	0	0	3	0	0	0	0	5	0	2	26	0	0	0	0	0	0	0	0	0	0	6	3	0	0	0	0	57	0	0	2	0	0	0	0	0	0	0	0	0	0	0	0	3
OTU 159	4	634	8	28	16	19	17	0	2	13	38	59	23	7	1	180	32	5	28	57	29	27	21	5	1	10	0	6	51	132	6	42	2	0	82	36	0	50	10	110	52	4	0	14	39	12	14	77	9	10
OTU 160	158	61	79	48	450	99	3983	88	81	21	23	96	25	11	122	101	25	795	11	12	34	20	430	119	13	1570	631	286	93	67	263	20	70	117	53	277	10	29	1856	8	118	45	30	30	41	83	11	0	172	1742
OTU 161	0	0	175	32	56	18	0	0	5	3	27	16	5	164	5	20	12	5	7	2	38	58	6	0	66	11	10	3	52	45	18	45	50	0	0	28	9	55	2	16	3	0	27	0	0	29	5	8	14	30
OTU 162	1	1	17	19	43	3	87	23	6	15	1	12	46	37	53	9	439	17	27	163	19	62	3146	65	37	23	40	51	16	5	18	8	109	35	13	7	39	0	68	12	63	0	72	16	30	63	0	1	97	1850
OTU 163	0	0	0	0	0	5	0	0	0	0	0	0	4	0	41	0	0	0	0	0	0	0	0	0	0	0	0	3	0	0	0	0	0	0	0	0	0	0	0	0	0	0	0	0	0	0	0	0	0	0
OTU 164	0	15	0	0	0	0	4	0	0	0	0	0	6	0	2	7	0	0	0	0	0	0	0	1	0	0	0	0	0	25	0	0	2	0	0	0	0	0	0	0	0	0	0	0	0	0	0	0	0	0
OTU 165	1	1	3	0	3	48	0	0	11	5	5	6	0	1	0	0	1	0	5	35	16	17	9	11	1	0	1	4	0	14	8	8	1	0	34	3	55	0	0	3	10	0	0	7	0	8	3	7	3	0
OTU 166	0	4	0	0	2	0	0	0	0	0	0	0	0	0	0	0	0	0	0	0	0	0	0	0	0	0	0	0	0	0	3	0	0	0	0	0	0	0	0	0	0	0	0	0	0	0	0	0	0	1
OTU 167	1	7	109	0	35	24	29	5	77	3	2	0	116	13	3	25	21	1	8	176	3	37	38	29	33	2	4	10	2	5	6	32	2	7	0	1	0	6	19	0	34	31	1	1	32	7	0	0	0	1
OTU 168	3	0	77	3	3	15	39	24	12	28	40	6	79	12	138	60	57	0	12	8	72	0	17	42	9	0	3	38	0	22	0	56	74	60	14	12	0	48	20	4	0	8	30	4	15	2	23	0	0	19
OTU 169	0	0	1	0	0	0	0	0	0	0	0	0	1	0	0	0	1	7	0	5	0	0	0	0	0	11	0	0	0	0	0	0	0	0	0	0	0	0	0	0	0	3	0	0	0	4	0	0	0	4
OTU 170	0	0	0	0	0	0	0	0	0	0	0	8	0	0	0	0	0	0	0	0	0	0	0	0	0	0	0	0	0	0	0	0	0	14	0	0	0	0	0	0	0	0	0	0	0	0	0	0	9	0
OTU 171	10	91	10	57	86	10	32	0	0	25	2	1	164	13	14	22	3	1	58	31	30	0	8	0	1	1	1	20	86	0	2	0	4	125	20	38	11	27	5	96	29	21	4	25	31	0	42	22	7	1
OTU 172	0	0	0	0	0	0	0	0	3	0	0	0	20	0	19	0	0	0	0	0	0	3	0	0	0	0	0	0	4	11	0	0	0	2	0	1	0	0	0	0	0	3	0	0	0	0	0	0	0	5
OTU 173	36	4	4	6	53	103	0	11	0	0	23	18	18	8	2	0	4	0	11	1	7	0	0	3	19	0	0	10	1	9	0	0	8	6	3	14	0	5	0	66	0	13	9	0	0	6	24	45	14	1
OTU 174	15	3	12	1	1	0	8	1	30	0	0	7	3	0	1	6	11	3	0	0	13	64	3	8	3	13	29	2	8	19	9	0	13	57	1	1	7	13	0	5	45	21	2	0	22	39	2	2	0	19
OTU 175	12	0	37	4	5	118	10	10	6	25	0	32	23	385	43	0	1	7	0	1	43	924	1	0	194	15	9	10	18	3	0	3	6	0	53	8	1	7	17	6	22	0	3	3	574	17	24	7	6	15
OTU 176	43	0	28	4	17	3	36	9	16	1	14	0	90	42	52	48	36	15	34	71	41	6	1	117	14	30	24	58	23	0	19	11	41	4	15	16	25	17	13	27	525	91	43	28	1	17	2	25	103	20
OTU 177	4	4	13	0	8	38	6	20	26	19	17	24	1	27	5	16	32	336	17	17	27	11	1	13	25	648	514	66	4	1	26	29	24	13	19	1	56	103	5	9	34	3	24	9	15	3	25	3	39	1161
OTU 178	0	1	1	11	4	0	2	36	3	23	25	10	0	5	0	2	2470	0	1	6	0	3	34	0	33	0	2	107	14	11	2	69	5	1	0	9	3	3	0	18	16	0	0	4	12	20	0	39	0	1
OTU 179	0	52	0	0	0	9	0	19	69	6	0	0	3	0	6	2	31	0	0	1	5	84	46	24	9	0	16	21	6	18	4	22	88	28	0	4	23	61	3	0	8	30	35	79	5	24	1	13	10	0
OTU 180	125	99	31	94	119	104	65	37	50	50	131	954	73	180	253	32	660	14	17	135	1776	656	63	15	153	42	49	20	166	163	29	630	121	29	341	34	6	150	2586	54	23	102	84	137	277	221	224	16	20	386
OTU 181	0	0	11	0	1	7	38	253	3	36	0	62	2	12	1	2	2	117	2	16	10	1	217	523	59	268	121	327	3	11	7	0	440	1	12	1	3	68	17	5	42	193	187	2	3	5	4	0	362	66
OTU 182	0	0	0	0	0	0	42	0	0	0	1	0	0	16	0	0	0	0	0	111	0	0	0	0	0	0	0	0	0	0	0	0	0	0	0	0	0	0	19	0	17	0	0	0	0	1	1	0	2	0
OTU 183	27	29	13	2	8	14	0	56	17	9	25	32	1	1	68	71	21	2	38	45	50	18	8	5	6	2	12	7	12	0	8	3	2	5	17	9	12	1	0	5	7	18	4	13	1	0	24	2	18	0
OTU 184	6	30	3	5	1	2	5	6	0	70	6	2	2	1	22	0	1	6	18	0	62	4	3	0	3	8	0	12	4	5	19	0	26	0	15	0	33	141	1	0	0	1	12	15	0	0	10	4	0	4
OTU 185	3	7	6	17	15	8	419	3	14	8	75	49	18	34	7	9	37	10	77	387	0	8	33	4	4	22	12	4	21	0	11	21	4	1	63	6	278	18	236	27	0	102	1	6	2	65	58	12	0	20
OTU 186	793	3	0	41	12	0	3	0	277	0	0	0	87	0	0	6	6	0	77	7	80	0	14	0	0	0	0	6	21	3	0	0	11	0	0	87	7	0	0	0	21	0	15	6	0	1	0	1	0	6
OTU 187	68	67	6	42	57	104	44	7	40	47	50	26	134	8	43	63	180	42	133	63	38	57	3	12	26	85	90	1	160	17	15	143	1	84	80	15	59	32	5	83	45	100	1	79	60	23	7	42	27	19
OTU 188	48	22	3978	1248	43	15	2	24	3	42	4	2	2	37	162	5	22	19	18	0	39	196	86	3	18	48	46	85	4	20	3	6	42	10	62	3801	67	5	1	10	19	5	7	151	41	13	270	841	47	20
OTU 189	45	276	62	0	38	70	3	61	4	2088	23	114	36	114	75	94	18	0	115	25	1313	13	26	34	47	2	2	4	4	10	26	43	1772	28	13	13	3	67	16	44	19	0	868	22	76	2	19	26	11	4
OTU 190	0	39	25	4	1	0	0	0	0	51	0	0	24	0	0	0	7	0	0	0	2	0	0	4	0	0	0	0	26	4	22	0	0	43	2	0	13	0	0	1	0	0	0	0	0	24	11	0	0	0
OTU 191	609	0	4	7	0	81	4	155	45	4	8	0	3	373	4	9	8	6	18	1	9	849	191	772	131	11	4	331	2	2	23	11	197	11	10	0	34	21	11	1	1696	64	86	20	434	44	8	1	301	114
OTU 192	46	39	65	3	40	1	80	34	31	8	21	20	58	4	98	5	6	6	3	45	116	37	65	103	14	25	26	49	32	32	52	26	80	43	945	11	227	124	36	2	10	4	37	66	11	15	5	7	950	93
OTU 193	19	1	21	9	11	51	0	0	2	1	1	46	13	86	0	0	136	2	22	41	0	3	31	14	11	4	9	12	10	156	62	3	25	23	0	0	26	17	1	0	28	2	151	3	23	2	560	3	0	15
OTU 194	30	1	33	6	24	3	8	0	25	22	3	47	0	12	9	21	2	3	69	1	1	1	67	35	1	13	0	3	36	0	18	61	1	0	0	5	0	15	4	17	1	2	0	12	0	3	0	15	19	2
OTU 195	3	2	0	0	5	103	0	9	11	1	24	11	25	8	0	0	16	25	135	10	104	2	44	94	3	46	22	8	0	98	0	6	67	12	158	1	58	9	3	23	5	1	26	23	9	1	3	13	49	21
OTU 196	30	104	2	24	4	0	3	2	15	7	25	56	11	35	0	9	1	10	20	14	45	5	16	0	5	28	6	0	77	9	1	5	45	7	20	66	0	0	0	16	39	10	18	35	5	82	0	1	9	11
OTU 197	15	270	1314	30	16	64	33	60	42	31	50	48	38	46	41	53	17	76	351	6	61	33	5	137	93	143	31	56	67	102	85	604	20	134	16	8	32	94	18	31	9	89	9	25	72	60	13	4	107	534
OTU 198	4	1	0	0	0	26	1	0	0	0	0	0	0	0	0	0	0	0	11	8	4	0	0	0	0	0	2	0	0	23	7	0	0	0	0	5	13	0	0	0	0	3	0	10	0	13	1	3	27	20
OTU 199	8	4	5	31	0	12	0	0	4	0	22	1	224	33	0	0	17	0	0	15	0	2	5	2	18	0	4	7	108	0	27	15	36	1	1	29	1	0	3	0	10	2	29	33	12	3	11	0	6	0
OTU 200	14	12	4	13	5	6	67	102	92	6	77	13	64	22	0	5	12	201	41	469	98	0	146	240	7	404	186	290	49	8	42	0	54	128	54	21	26	29	64	9	304	81	16	1	571	39	8	2	241	6
