	Host 1	Host 2	Host 3	Host 4	Host 5	Host 6	Host 7	Host 8	Host 9	Host 10	Host 11	Host 12	Host 13	Host 14	Host 15	Host 16	Host 17	Host 18	Host 19	Host 20	Host 21	Host 22	Host 23	Host 24	Host 25	Host 26	Host 27	Host 28	Host 29	Host 30	Host 31	Host 32	Host 33	Host 34	Host 35	Host 36	Host 37	Host 38	Host 39	Host 40	Host 41	Host 42	Host 43	Host 44	Host 45	Host 46	Host 47	Host 48	Host 49	Host 50	
OTU 1	0	0	0	2	2	4	0	4	0	3	2	0	8	0	2	1	11	0	1	0	0	1	1	4	2	0	1	0	0	0	0	8	0	6	9	6	4	1	11	2	0	2	0	5	2	0	0	8	1	0
OTU 2	0	0	0	0	0	0	0	0	0	0	0	0	0	0	1	0	0	1	0	0	13	0	0	0	0	0	2	0	0	0	1	0	2	0	0	0	0	0	1	1	0	0	0	2	0	0	0	1	1	1
OTU 3	1	2	0	0	0	0	0	0	0	0	0	0	0	2	0	0	0	3	0	0	0	0	0	0	0	0	0	1	0	0	0	4	1	1	1	1	0	0	0	0	0	0	2	1	0	2	0	0	0	5
OTU 4	0	0	0	0	0	0	0	0	0	0	0	0	0	0	0	0	0	0	0	0	0	0	0	0	0	0	0	0	0	0	0	0	0	0	0	0	0	0	0	0	0	0	0	0	0	0	0	0	0	0
OTU 5	10	11	32	10	1	35	4	199	1	11	103	0	8	0	0	0	30	31	5	0	3	45	13	3	10	10	2	53	0	22	5	3	2	4	5	5	5	23	16	0	36	0	24	5	13	26	29	4	4	1
OTU 6	0	0	0	0	3	0	3	0	4	5	0	0	0	4	0	0	0	1	0	0	0	0	1	1	0	0	0	0	0	1	1	0	7	1	0	0	1	1	0	0	0	5	1	1	0	2	90	0	9	1
OTU 7	71	1	10	11	3	1	1	11	68	0	7	6	19	21	8	5	15	2	3	2	4	14	20	3	0	0	9	0	2	3	1	45	8	34	37	166	4	3	33	1	1	15	1	6	1	1	1	1	31	1
OTU 8	4	1	3	0	0	0	10	2	0	7	85	15	1	1	7	22	1	0	0	8	0	0	0	0	3	0	1	3	3	0	6	20	6	3	1	5	8	0	3	2	0	5	1	1	2	1	10	13	1	0
OTU 9	0	0	14	1	0	0	3	0	1	0	0	0	1	2	0	0	1	0	5	1	2	0	0	0	0	0	4	0	0	0	0	0	0	0	4	0	3	0	0	2	5	0	0	1	0	0	0	0	1	0
OTU 10	0	0	0	0	0	0	0	2	0	0	0	0	2	0	7	0	0	2	0	0	1	0	0	0	0	0	0	1	0	0	0	2	1	0	0	1	6	0	0	1	0	0	0	0	0	0	1	0	0	0
OTU 11	0	22	0	1	0	0	0	0	1	4	0	0	1	8	0	9	2	0	0	7	1	0	1	0	2	0	1	3	7	26	4	11	0	0	9	3	4	0	13	7	0	0	2	1	0	4	0	3	0	3
OTU 12	3	4	1	0	0	0	1	0	2	0	2	6	0	0	0	3	0	2	10	3	1	0	1	0	5	1	1	1	0	1	0	0	0	0	3	0	3	1	1	10	1	0	0	2	2	0	0	3	0	1
OTU 13	0	0	0	0	0	0	0	0	2	0	0	0	0	0	0	0	0	0	0	0	0	0	0	0	0	0	0	0	1	1	0	0	0	0	0	0	3	0	0	0	0	0	0	0	0	0	0	0	0	0
OTU 14	0	0	0	0	0	0	0	0	0	0	0	0	4	2	1	0	2	0	4	7	0	0	0	0	2	0	0	2	0	0	1	0	5	0	0	0	1	3	0	0	1	5	3	0	0	1	0	0	0	3
OTU 15	0	0	0	0	0	0	0	0	0	0	0	0	0	0	0	0	0	0	0	0	0	0	0	0	0	0	0	0	0	0	0	2	0	0	0	0	0	0	0	0	0	0	0	0	0	0	0	0	0	0
OTU 16	0	0	0	0	0	0	0	0	0	0	0	0	0	0	0	0	0	0	0	0	0	0	0	0	0	0	0	0	0	0	0	0	0	0	0	0	0	0	0	0	0	0	0	0	0	0	0	0	0	0
OTU 17	0	0	0	0	1	1	0	0	0	0	0	1	0	0	1	0	0	0	0	0	3	0	0	1	1	1	2	2	2	38	2	0	3	0	1	4	1	0	0	0	0	0	3	1	0	0	1	2	0	0
OTU 18	0	1	0	0	5	1	5	0	52	0	2	0	2	1	2	0	0	3	4	1	8	0	0	0	1	11	0	0	6	0	0	0	1	0	0	3	1	0	1	0	1	2	5	1	0	0	0	4	2	2
OTU 19	0	0	0	0	0	0	0	0	0	0	0	0	0	0	0	0	0	0	0	0	0	0	0	0	0	0	0	0	4	0	0	0	0	0	0	0	0	0	0	1	0	0	0	0	0	0	0	0	0	0
OTU 20	0	0	0	0	0	0	0	0	0	4	0	5	0	1	7	1	1	2	0	0	0	0	0	0	0	0	0	0	1	2	0	1	0	1	0	11	2	1	1	6	0	0	1	0	0	0	4	4	0	1
OTU 21	4	3	1	0	3	1	1	0	1	0	0	0	0	0	1	2	1	10	0	7	0	0	0	0	3	3	4	0	5	0	2	1	2	0	0	0	4	3	0	1	1	0	0	3	1	3	0	0	0	1
OTU 22	6	1	0	1	1	3	0	0	2	0	0	1	2	6	5	1	8	5	0	0	1	1	0	1	1	0	1	1	2	3	0	6	32	0	0	3	3	0	0	4	2	1	2	2	6	1	0	3	1	0
OTU 23	0	0	0	0	0	2	0	0	0	0	0	1	0	1	0	0	0	2	3	0	0	0	1	1	0	0	0	0	1	0	0	0	1	1	2	0	0	0	0	3	0	0	0	0	5	0	2	0	0	0
OTU 24	1	0	0	0	1	0	0	2	0	0	0	1	0	2	3	1	0	0	6	0	0	0	0	0	1	2	0	0	0	1	3	3	0	4	0	0	0	1	0	3	0	0	40	0	0	0	2	0	2	0
OTU 25	0	0	0	0	0	0	0	0	0	0	0	0	0	0	0	0	0	0	0	0	1	0	0	0	0	0	0	0	0	0	0	0	0	0	0	0	0	0	0	0	0	0	0	0	0	0	0	6	0	0
OTU 26	0	0	0	0	1	0	0	0	0	0	0	0	0	0	0	0	0	0	0	2	0	0	0	0	0	4	0	3	1	4	1	0	0	0	0	0	2	0	0	0	0	0	0	0	0	0	0	0	0	3
OTU 27	0	0	0	0	1	0	0	1	0	0	0	0	0	0	0	0	0	1	0	0	0	0	0	0	1	0	0	0	0	0	0	0	0	0	0	0	0	0	0	0	0	0	0	0	0	1	1	0	0	0
OTU 28	0	4	2	0	6	0	6	0	0	0	0	4	0	5	1	12	1	1	8	0	0	0	0	1	4	0	1	0	0	8	5	0	0	1	0	0	2	0	1	3	3	0	0	1	1	1	0	0	5	0
OTU 29	0	4	0	3	0	0	1	1	24	0	0	1	7	2	28	3	2	0	7	3	5	1	4	1	2	0	5	0	5	0	4	1	0	0	1	6	3	0	3	3	0	2	2	0	1	7	1	7	2	0
OTU 30	0	0	0	0	0	0	0	0	0	0	0	0	0	0	0	0	0	0	0	0	0	0	0	0	0	0	0	0	0	0	0	0	0	0	0	0	0	0	0	0	0	0	0	0	0	0	0	0	0	0
OTU 31	0	0	0	0	0	0	0	0	0	6	0	0	0	0	0	1	0	0	0	0	0	0	0	0	0	0	1	6	0	0	0	0	0	1	0	0	2	0	0	8	0	0	0	0	0	0	0	0	1	0
OTU 32	2	0	0	6	0	4	2	0	2	2	0	1	2	1	4	3	11	2	34	0	7	3	1	5	0	2	2	14	0	0	2	2	0	4	3	24	2	6	17	1	0	18	4	5	6	0	3	44	12	5
OTU 33	0	0	0	0	0	0	0	0	0	0	0	0	0	1	0	0	0	0	7	0	0	0	0	0	0	0	0	0	0	0	0	0	0	0	0	0	0	0	0	0	0	0	1	0	0	0	0	0	0	0
OTU 34	2	0	0	0	2	0	1	0	1	0	0	4	3	7	0	16	0	4	0	2	4	0	0	1	0	1	7	0	0	0	0	0	2	184	0	1	0	0	0	5	0	3	0	0	1	1	1	1	2	4
OTU 35	5	2	4	0	1	1	0	0	0	0	0	0	2	0	1	0	0	1	0	1	2	0	1	0	0	0	1	1	0	1	2	7	5	4	0	0	0	1	0	0	0	0	2	0	2	3	2	0	0	2
OTU 36	7	1	0	2	0	0	7	0	0	2	0	0	1	0	1	5	1	0	0	0	6	1	0	0	1	0	0	0	1	1	0	3	0	1	0	1	3	0	5	1	0	1	0	1	0	2	0	1	0	1
OTU 37	1	0	0	0	0	0	10	0	0	0	0	0	0	0	0	1	2	0	0	0	0	0	0	0	0	0	0	0	0	0	0	0	0	0	0	0	0	0	0	0	0	3	0	0	0	0	0	0	0	0
OTU 38	4	0	1	0	1	2	1	1	0	1	0	0	0	6	1	1	0	7	15	0	1	1	3	9	1	3	3	1	0	0	0	0	0	0	2	0	6	0	0	1	1	1	0	2	0	1	1	0	7	13
OTU 39	0	1	3	0	2	0	0	0	1	0	0	0	0	0	0	0	0	0	2	0	0	0	0	0	0	0	0	7	0	0	1	1	0	1	0	0	0	1	0	0	1	1	0	0	1	0	0	0	0	1
OTU 40	0	13	0	2	2	1	1	11	3	2	9	14	3	3	0	9	12	0	3	2	4	7	6	0	1	1	1	0	3	0	2	0	0	1	3	0	3	3	19	2	0	3	3	0	0	0	0	0	4	3
OTU 41	0	1	1	6	62	0	1	0	2	1	0	0	0	0	0	2	0	0	0	3	8	0	1	0	20	0	0	0	2	8	26	0	1	0	2	0	0	1	1	0	0	5	21	0	0	0	2	0	1	4
OTU 42	0	0	0	0	0	0	0	0	2	0	0	0	0	0	2	0	0	0	0	0	0	0	0	0	0	0	0	0	2	0	0	0	0	0	0	1	0	0	0	0	0	0	0	0	0	0	0	1	0	0
OTU 43	0	0	0	0	0	0	0	0	0	0	0	0	0	0	0	0	0	0	0	0	0	0	0	0	0	0	0	0	0	0	0	0	0	0	0	0	0	0	0	0	0	0	3	0	0	0	0	0	0	0
OTU 44	2	1	1	0	0	0	0	0	1	2	0	0	0	4	0	3	0	0	0	0	0	0	0	0	0	0	0	1	0	0	6	0	3	0	0	0	0	0	1	0	0	0	0	0	0	2	0	0	0	0
OTU 45	3	0	1	0	0	0	0	0	0	1	0	2	0	1	3	9	1	3	0	112	6	1	0	21	0	0	1	0	0	0	0	0	57	0	0	2	0	1	1	2	0	0	2	1	3	1	0	1	0	0
OTU 46	1	0	0	0	0	0	7	0	0	2	0	18	1	0	6	2	1	0	0	0	1	0	0	0	16	0	15	0	0	1	0	4	0	3	2	0	1	5	1	3	0	0	0	0	0	0	1	0	0	3
OTU 47	0	0	0	0	0	0	1	0	0	0	0	0	2	0	3	0	2	0	0	0	0	0	0	0	0	0	0	1	0	0	0	0	0	0	0	0	0	0	2	0	0	1	0	0	0	0	0	0	0	0
OTU 48	1	0	0	2	2	0	0	0	0	9	4	3	0	4	2	1	1	3	1	0	5	0	0	2	1	1	4	3	5	1	0	2	2	0	71	0	3	3	0	2	0	1	1	1	1	2	0	0	3	0
OTU 49	1	0	4	0	0	0	6	0	0	0	0	0	0	0	3	0	0	0	0	0	0	0	1	0	1	0	0	0	81	0	0	1	1	1	0	0	0	0	0	0	0	1	0	1	0	0	0	0	1	0
OTU 50	1	0	3	7	4	5	0	1	2	5	2	0	8	0	0	2	3	0	2	4	13	4	6	0	0	0	0	4	0	1	0	0	3	0	2	0	1	0	4	2	3	6	1	4	3	0	0	2	2	1
OTU 51	0	1	0	0	0	0	0	0	0	2	0	0	2	2	6	0	0	0	0	1	0	1	2	0	1	2	0	0	0	0	2	0	0	1	0	1	8	5	3	0	3	5	1	0	1	7	2	1	0	0
OTU 52	1	1	0	0	3	1	2	0	12	4	4	1	3	11	0	6	1	2	0	3	3	0	0	0	2	4	0	2	7	3	3	3	3	6	6	1	0	3	0	5	1	8	21	2	0	2	52	2	2	3
OTU 53	0	0	0	0	0	0	0	0	0	0	0	0	0	0	0	2	0	0	0	0	0	0	0	0	0	0	0	0	0	0	0	0	0	0	0	0	0	0	0	0	0	0	0	0	0	0	0	0	0	0
OTU 54	5	28	0	1	5	2	0	0	1	2	0	1	1	5	6	8	6	6	6	2	14	0	2	1	6	0	0	1	1	8	10	1	6	0	2	0	2	2	0	1	0	1	0	5	9	2	0	0	0	0
OTU 55	0	0	0	0	0	0	0	0	0	0	0	0	0	0	0	0	0	0	0	0	0	0	0	0	0	0	0	0	0	0	0	0	0	0	0	0	0	0	0	0	0	0	0	0	0	0	0	0	0	0
OTU 56	0	0	2	0	4	0	0	0	0	0	0	0	1	0	0	0	0	2	1	4	4	0	0	1	0	0	0	1	3	0	0	0	0	0	1	0	0	7	0	0	0	0	0	3	0	0	0	2	1	1
OTU 57	6	0	3	0	1	0	2	2	0	0	1	2	3	2	17	2	0	6	1	2	12	0	3	0	5	10	2	7	3	5	5	6	0	2	2	0	11	5	4	2	7	2	13	0	1	3	0	7	3	1
OTU 58	0	2	0	0	1	3	0	0	3	0	1	7	2	2	1	0	0	1	0	0	0	0	0	0	54	0	0	0	0	2	0	0	1	0	3	0	0	0	0	0	0	0	0	0	0	0	1	1	0	0
OTU 59	1	0	0	0	3	0	0	0	0	0	0	0	0	1	4	3	0	1	0	1	0	0	0	1	1	0	0	1	0	0	6	1	0	0	1	0	0	1	0	0	2	2	0	3	6	1	2	0	2	0
OTU 60	6	4	0	1	10	1	0	0	2	3	0	1	3	0	1	2	1	3	0	4	9	1	1	3	0	3	2	5	3	0	3	7	1	1	1	4	1	6	0	0	0	1	2	2	3	6	3	2	0	8
OTU 61	5	3	20	3	6	63	30	7	1	5	1	28	8	7	3	2	1	3	11	3	5	1	12	3	0	15	1	4	4	2	0	12	3	5	4	9	0	28	16	4	0	6	2	1	0	8	2	14	10	1
OTU 62	0	0	0	0	0	1	0	1	0	0	1	3	0	0	0	0	0	0	1	2	1	0	0	0	0	0	0	3	0	0	0	0	0	0	0	0	0	0	0	0	0	0	0	1	0	0	0	5	0	0
OTU 63	0	0	1	0	4	1	0	0	1	0	0	1	0	0	5	0	1	0	3	0	0	0	0	2	0	0	0	1	2	0	5	0	3	0	0	1	0	0	0	0	0	0	5	12	1	0	0	4	0	1
OTU 64	4	0	1	1	6	6	1	1	0	8	0	0	0	5	2	0	0	1	0	1	12	17	0	4	1	5	0	4	2	2	3	2	7	2	0	0	8	1	3	4	3	0	28	4	1	1	0	3	6	5
OTU 65	0	0	0	0	0	0	0	0	0	0	0	0	0	0	0	0	0	0	0	0	0	0	0	0	0	0	0	0	0	1	0	0	0	0	0	0	0	0	0	0	0	0	0	0	1	0	0	1	0	0
OTU 66	0	0	0	3	16	12	0	0	1	13	0	8	1	1	1	0	4	1	0	5	0	0	0	12	0	0	2	0	2	1	0	13	3	5	0	0	0	3	0	3	0	3	0	25	10	1	3	0	2	0
OTU 67	1	1	0	0	16	19	0	0	0	0	0	1	21	3	10	0	2	1	0	5	0	6	5	11	1	0	2	0	1	0	0	0	0	0	1	0	1	3	3	8	0	0	0	20	12	0	3	0	0	50
OTU 68	0	0	2	0	0	0	1	0	0	0	1	0	0	0	0	0	0	0	0	1	0	0	0	0	1	0	0	11	0	0	0	0	1	0	0	0	0	1	2	1	0	0	0	0	0	0	0	0	0	0
OTU 69	7	1	0	0	0	2	0	17	0	0	3	8	0	5	0	19	0	9	1	1	8	0	51	1	1	0	5	2	8	1	2	1	0	0	0	2	2	0	0	2	0	0	0	2	2	1	0	3	0	0
OTU 70	0	1	1	0	6	0	1	0	0	0	0	0	0	1	1	0	0	0	0	0	0	0	0	0	0	0	3	0	0	0	2	5	1	0	2	1	0	1	0	0	0	0	0	2	0	3	0	1	0	0
OTU 71	0	0	0	0	0	0	3	0	2	1	0	0	0	0	0	0	0	1	0	1	5	0	0	0	0	0	0	0	11	3	0	0	0	2	0	0	0	0	1	3	3	0	0	0	0	0	0	0	0	0
OTU 72	3	0	0	19	7	4	0	1	0	0	0	1	0	0	0	0	27	0	7	6	0	26	1	7	0	0	0	0	0	1	0	2	1	1	49	1	0	0	0	1	0	1	0	10	3	4	0	3	0	0
OTU 73	44	0	0	0	0	5	2	2	3	0	1	1	0	0	0	2	8	0	0	1	0	0	1	1	0	0	1	1	0	0	6	0	0	0	0	0	3	1	0	1	0	0	3	4	0	1	3	0	1	0
OTU 74	0	0	4	0	1	0	22	1	1	1	2	0	2	0	6	0	1	5	0	6	2	1	2	1	9	3	2	15	1	4	7	0	1	1	0	4	0	0	0	0	1	0	10	0	1	0	1	10	4	1
OTU 75	6	0	1	0	0	2	0	0	2	3	0	0	1	6	1	0	2	2	0	0	2	1	0	3	0	4	1	0	0	2	0	6	1	0	0	6	1	0	4	2	2	0	0	5	0	1	1	3	0	2
OTU 76	0	0	5	1	0	0	0	0	0	9	0	14	0	0	2	1	0	0	0	0	7	0	0	0	0	0	0	0	0	0	0	0	5	0	1	0	5	0	1	13	0	0	0	0	0	0	0	0	0	0
OTU 77	2	0	0	0	1	0	2	2	1	1	2	0	0	0	0	0	0	6	1	2	0	0	0	0	0	0	0	9	2	3	2	0	0	0	0	2	0	0	0	0	0	2	0	2	7	0	4	2	6	1
OTU 78	1	0	5	0	18	10	2	4	2	0	1	0	0	0	1	0	0	3	0	1	4	0	7	8	0	5	0	1	0	1	1	1	1	0	4	0	0	0	3	1	0	1	0	23	8	2	1	7	9	2
OTU 79	10	1	13	1	11	11	8	2	4	7	0	9	10	12	21	2	3	89	13	4	5	2	5	4	3	59	19	5	7	51	0	6	7	3	1	4	8	4	5	3	4	7	2	3	12	5	3	9	4	0
OTU 80	2	0	0	0	1	2	6	0	0	0	0	4	1	35	18	0	0	0	0	3	2	0	3	1	1	0	12	2	8	1	2	0	5	0	8	1	11	1	0	1	3	0	1	9	1	0	0	1	0	10
OTU 81	1	2	0	3	2	1	2	0	2	2	0	1	0	2	0	8	1	0	10	1	1	1	0	1	5	0	8	1	10	4	0	11	0	4	3	1	0	1	0	5	1	4	1	3	2	2	0	2	11	0
OTU 82	0	0	1	1	0	0	0	1	0	2	2	0	1	9	0	0	1	1	6	0	8	0	2	1	1	0	1	0	0	0	0	0	0	0	3	0	10	2	4	1	5	0	0	0	0	0	0	0	0	35
OTU 83	0	0	0	0	0	0	0	1	0	0	0	0	0	1	0	6	1	0	0	0	0	1	0	0	0	0	4	0	0	0	0	0	0	0	0	0	0	0	0	0	0	0	0	0	0	0	0	1	0	0
OTU 84	0	0	0	1	0	1	5	0	3	2	0	1	1	0	3	0	3	0	0	2	0	0	0	0	0	0	0	0	0	1	1	4	5	8	0	0	0	0	0	0	0	1	0	1	0	0	1	0	1	4
OTU 85	0	0	0	0	0	0	0	0	0	0	1	0	0	1	0	0	0	0	1	0	0	0	0	0	0	0	2	0	0	0	1	1	0	0	0	0	1	0	0	0	0	0	0	0	0	0	0	0	5	0
OTU 86	0	0	0	0	0	0	0	0	0	0	0	0	0	0	0	0	0	0	1	1	0	0	0	0	0	0	0	0	0	0	4	0	0	0	0	0	0	0	0	0	1	0	2	0	0	0	0	0	0	0
OTU 87	0	0	0	0	4	6	0	0	0	1	0	0	0	0	1	1	0	0	25	0	0	0	0	4	0	0	0	0	0	0	2	0	0	0	4	0	0	0	0	0	1	0	2	10	0	0	0	0	0	0
OTU 88	0	0	0	1	0	0	2	0	0	0	0	0	0	1	0	0	0	0	0	2	0	0	0	0	0	0	0	1	0	0	4	0	0	0	0	0	0	0	0	0	0	0	1	0	0	0	0	0	0	0
OTU 89	0	0	0	0	0	1	1	0	0	13	1	0	0	4	0	1	0	0	0	0	0	0	0	4	0	0	1	0	0	0	1	7	2	1	1	0	0	1	6	0	0	0	0	2	0	0	0	0	0	0
OTU 90	0	0	0	1	1	0	2	0	0	0	0	0	0	0	0	0	3	0	1	4	0	1	0	0	0	1	0	0	1	0	0	0	0	0	0	0	0	15	0	0	0	1	0	0	0	0	0	0	0	0
OTU 91	0	0	7	0	0	0	0	0	0	0	0	0	0	0	0	0	0	0	0	0	0	0	0	0	0	0	0	0	0	0	1	0	0	0	0	0	0	0	0	0	0	0	0	0	0	0	0	0	0	0
OTU 92	2	0	0	0	1	0	2	0	0	0	0	6	0	0	1	1	0	0	0	0	0	0	0	0	0	0	0	3	0	4	2	0	0	0	0	0	0	0	0	0	1	0	0	0	0	0	0	2	0	0
OTU 93	0	0	0	0	0	0	0	0	1	0	0	2	3	2	0	0	0	0	0	0	0	0	0	0	0	0	0	0	1	0	1	0	0	0	0	0	0	0	0	0	1	160	0	0	0	0	0	0	0	0
OTU 94	0	2	3	27	2	3	12	0	3	2	0	2	0	0	5	8	65	3	0	0	0	22	1	6	7	0	3	3	10	34	14	7	0	0	1	0	7	0	0	2	2	1	9	4	0	3	20	3	0	2
OTU 95	0	2	1	0	0	0	0	0	0	2	0	0	0	0	0	3	0	0	0	0	0	1	0	1	0	1	0	0	0	0	3	0	0	0	2	0	1	5	0	0	0	0	0	0	0	4	0	1	0	0
OTU 96	0	0	0	0	0	0	0	0	0	0	0	0	0	0	1	0	0	0	0	0	0	0	0	0	0	0	0	0	0	0	0	0	0	0	0	0	0	0	1	0	0	0	0	0	0	0	0	0	0	0
OTU 97	0	0	0	0	0	0	0	0	0	0	0	1	0	1	0	0	1	0	1	0	1	2	0	0	0	0	0	0	0	0	0	1	0	0	0	0	0	0	0	0	0	0	0	0	0	0	0	0	0	4
OTU 98	4	0	0	0	0	0	0	0	0	0	0	0	4	0	0	2	0	0	0	0	0	0	4	0	1	0	0	0	4	4	4	0	0	0	0	0	0	0	0	0	0	0	0	0	0	0	0	0	0	0
OTU 99	15	3	4	0	1	2	1	0	1	15	0	1	1	6	5	0	0	4	0	1	5	1	1	0	2	0	3	0	0	1	3	0	0	2	2	3	23	2	4	38	13	0	0	4	2	1	3	3	1	0
OTU 100	1	0	0	0	0	0	0	0	5	1	0	2	0	1	1	7	0	5	0	0	0	0	2	1	0	1	0	0	0	0	4	2	1	3	1	0	55	0	7	1	12	0	0	1	0	0	0	2	0	0
OTU 101	0	0	0	0	0	0	0	0	2	0	1	0	0	0	0	0	0	0	0	4	0	0	2	0	0	0	0	0	0	1	1	1	0	0	0	0	0	0	0	0	0	0	0	0	0	0	0	0	0	0
OTU 102	2	0	0	1	0	0	0	0	0	0	0	0	0	0	6	2	1	0	1	0	0	0	0	0	0	0	0	2	3	0	0	0	0	0	1	0	0	0	0	0	1	0	0	0	0	0	0	1	0	0
OTU 103	2	0	0	1	0	4	0	0	0	0	0	1	0	3	2	2	0	2	1	0	4	0	0	1	0	3	5	1	0	0	1	0	0	0	0	0	0	0	1	1	29	0	5	0	0	0	0	0	0	0
OTU 104	3	0	2	0	3	0	4	2	5	7	0	7	1	5	1	1	1	2	0	3	6	0	0	0	2	1	1	2	2	0	0	7	3	0	1	0	1	0	2	1	0	0	3	0	0	4	1	0	1	0
OTU 105	0	1	0	0	0	0	0	0	1	0	0	0	0	0	0	0	0	0	0	0	0	0	0	0	4	0	0	0	0	0	0	0	0	0	0	0	0	0	0	0	1	0	0	0	0	2	0	0	0	0
OTU 106	0	0	0	0	0	0	0	0	0	1	0	0	0	0	0	0	0	0	0	0	0	0	0	0	0	0	0	0	0	0	0	0	0	2	1	0	0	0	0	0	0	0	0	0	0	0	0	0	0	0
OTU 107	0	0	0	0	0	0	1	0	0	0	0	0	2	1	1	0	0	0	0	0	2	0	0	0	1	0	0	2	0	0	0	0	1	0	0	5	0	0	2	0	2	1	0	0	0	0	0	19	0	0
OTU 108	0	0	5	0	0	1	7	0	0	2	1	0	0	0	0	0	0	5	0	1	3	0	1	2	6	0	0	0	1	1	6	0	0	0	2	1	1	0	0	0	0	0	0	3	0	1	0	0	0	3
OTU 109	0	0	0	0	0	0	0	0	0	0	0	0	0	0	0	0	0	0	1	0	0	0	1	0	0	0	0	0	0	0	0	0	0	0	0	0	0	1	0	0	0	0	0	0	0	0	0	0	0	0
OTU 110	0	0	5	0	2	1	3	0	0	0	0	7	0	0	8	2	0	1	0	0	0	0	1	1	2	0	11	0	1	0	4	0	0	0	1	1	0	0	0	6	0	2	3	1	61	0	20	2	0	0
OTU 111	0	0	0	0	0	0	0	0	0	0	0	0	0	0	0	0	0	0	0	0	0	1	0	0	0	0	0	0	0	0	0	0	0	0	0	0	0	0	0	0	0	1	0	0	1	0	0	0	16	0
OTU 112	0	0	0	0	4	0	5	0	2	0	0	0	4	7	2	5	0	0	0	0	0	0	4	1	0	1	2	2	0	1	1	0	0	0	0	0	0	0	4	0	0	0	0	5	1	1	1	0	3	0
OTU 113	0	0	0	0	0	0	0	0	0	0	0	0	0	0	0	0	0	0	1	0	0	0	0	0	0	0	0	1	0	0	0	0	0	0	0	0	0	0	0	0	0	0	0	0	0	0	0	0	0	0
OTU 114	1	2	7	2	3	4	2	0	0	5	0	0	4	0	0	6	4	0	4	2	11	1	1	158	1	10	1	6	0	2	2	1	0	2	1	2	2	8	7	1	0	0	0	2	24	6	14	2	5	9
OTU 115	2	3	1	0	1	3	8	1	5	10	0	2	3	0	5	17	3	1	9	5	5	0	0	0	3	0	0	5	0	14	3	4	3	4	0	3	6	1	5	7	37	2	3	1	1	0	3	5	1	0
OTU 116	0	15	0	17	0	0	1	7	3	4	3	3	41	5	0	1	24	2	11	0	1	14	26	0	1	1	0	0	1	1	0	4	1	2	27	5	3	11	45	0	0	2	1	7	0	38	0	9	0	0
OTU 117	4	2	0	2	1	1	0	0	0	1	0	0	2	0	0	0	0	5	0	1	0	0	0	6	2	4	5	0	1	1	2	0	9	0	0	0	0	5	0	0	0	0	0	4	4	6	0	0	1	3
OTU 118	0	0	1	0	0	0	1	1	0	0	0	2	0	0	0	0	0	0	0	0	0	1	0	0	0	0	0	0	15	0	5	0	1	0	0	0	0	0	0	0	0	0	0	0	0	0	0	0	0	0
OTU 119	0	1	3	0	2	2	1	0	2	0	0	2	0	4	6	0	0	4	28	0	1	0	1	2	2	2	0	3	0	1	2	0	2	0	0	2	5	0	6	6	0	0	1	2	0	1	4	1	0	5
OTU 120	0	0	1	0	0	0	0	0	0	0	0	0	0	0	1	0	0	4	0	0	0	0	0	0	0	0	0	1	6	0	1	0	0	1	0	0	0	0	0	0	0	0	0	0	0	0	1	2	1	0
OTU 121	0	0	0	0	0	53	0	0	0	0	0	0	0	0	10	2	0	0	0	0	6	0	1	5	4	0	3	0	18	0	0	0	1	1	1	0	0	0	0	0	0	1	0	0	0	2	3	0	0	3
OTU 122	6	0	0	78	0	1	0	0	36	1	1	1	3	0	5	3	1	1	1	5	3	0	0	0	2	5	18	1	0	0	6	1	1	0	0	0	0	1	1	4	0	0	1	0	5	0	2	0	0	0
OTU 123	3	3	7	1	2	4	6	1	12	5	0	2	9	3	11	8	4	1	5	4	5	0	5	3	11	0	5	7	2	26	5	2	8	0	15	0	1	3	8	3	1	25	2	5	6	4	3	5	97	1
OTU 124	0	0	0	0	0	0	0	0	0	0	0	1	1	7	1	3	0	0	0	0	0	0	0	0	0	0	0	1	0	0	0	1	0	1	0	0	0	1	2	0	0	0	0	0	0	0	0	0	0	1
OTU 125	4	2	10	5	2	3	13	7	1	0	1	8	4	8	5	5	6	20	6	4	15	3	4	7	7	13	4	6	6	6	2	3	3	0	4	4	2	1	8	2	107	1	11	7	0	3	7	6	1	1
OTU 126	0	0	0	1	0	0	0	0	0	0	0	0	0	0	0	0	1	0	0	0	0	0	0	0	0	0	0	1	0	0	0	2	0	0	0	0	0	0	0	6	0	0	2	0	1	0	0	0	0	3
OTU 127	0	1	1	0	2	1	5	0	1	3	0	2	0	1	11	3	0	1	2	4	0	0	0	1	0	0	8	1	4	7	0	2	0	0	0	6	3	0	0	3	0	5	0	2	5	0	0	7	4	1
OTU 128	5	11	6	1	46	4	4	0	1	34	0	71	7	24	1	1	0	2	1	10	7	58	3	7	20	2	1	10	4	4	26	1	25	4	1	1	5	5	2	8	0	0	36	14	4	14	3	12	4	9
OTU 129	0	0	0	0	0	0	0	1	0	1	0	0	0	0	0	0	5	1	0	0	0	2	0	0	1	0	1	0	0	0	1	0	0	0	11	0	0	0	1	7	1	1	0	0	0	0	0	0	2	0
OTU 130	0	0	42	0	0	0	0	0	0	0	0	0	0	2	2	0	0	0	0	0	3	0	0	3	0	1	2	0	0	0	0	1	0	1	3	3	0	0	1	0	0	0	1	1	1	0	0	1	0	3
OTU 131	0	0	3	0	1	0	0	1	0	0	1	3	0	2	0	0	0	2	1	5	0	0	0	0	1	0	1	4	0	0	56	0	0	0	0	1	0	0	5	4	0	3	37	1	4	2	0	0	6	0
OTU 132	0	0	5	1	0	0	2	0	2	0	0	1	0	1	0	3	0	1	2	0	0	0	5	0	0	0	0	56	0	0	0	0	0	0	0	0	0	0	0	0	0	0	0	0	2	1	0	0	0	1
OTU 133	6	0	1	0	0	0	0	0	0	0	0	0	0	1	0	0	0	3	0	0	0	0	0	0	0	2	0	0	0	0	0	0	0	0	0	0	1	0	0	0	3	0	0	0	1	1	0	0	0	0
OTU 134	0	0	0	0	3	0	0	0	0	0	1	2	2	19	3	0	5	4	1	0	0	1	3	1	0	2	0	0	3	0	1	0	0	0	1	0	0	0	2	0	0	1	0	1	2	1	1	0	3	0
OTU 135	0	1	1	5	7	0	0	1	0	1	0	0	5	0	2	0	1	1	0	7	2	2	0	1	0	0	0	1	0	0	0	0	0	1	1	1	1	2	3	10	0	0	0	4	0	0	0	5	0	7
OTU 136	0	0	1	0	0	0	0	0	0	0	0	1	4	0	0	0	1	0	6	9	0	0	0	0	0	2	0	4	1	0	0	0	6	0	0	4	0	0	1	0	0	3	0	0	2	0	0	7	0	8
OTU 137	0	0	1	0	1	0	0	1	1	0	0	0	2	1	0	0	0	0	0	0	2	0	0	0	0	0	0	1	0	0	0	2	0	0	3	0	0	0	0	0	0	0	0	0	0	0	0	0	0	0
OTU 138	0	0	0	0	2	2	0	0	0	1	0	0	0	0	0	4	0	0	0	0	11	0	0	1	0	0	1	0	0	0	0	0	0	0	0	0	0	0	0	0	0	1	0	6	3	1	0	0	0	0
OTU 139	1	4	2	0	5	0	7	0	0	3	96	3	2	3	0	2	0	1	0	3	4	0	1	0	0	1	90	3	2	3	0	1	4	0	7	0	0	3	1	87	0	0	1	0	0	21	0	6	0	2
OTU 140	11	0	2	2	3	32	3	4	5	8	0	7	3	1	3	5	3	5	4	2	5	0	2	0	5	1	2	7	5	0	6	23	8	13	0	15	6	1	6	2	0	0	0	2	5	0	4	21	0	3
OTU 141	0	0	0	0	0	0	0	0	0	0	0	0	0	0	0	0	0	0	0	0	0	0	0	0	0	0	0	0	0	0	0	0	0	0	0	0	0	0	0	0	0	0	0	0	0	0	0	0	0	0
OTU 142	0	0	0	0	0	0	0	3	0	0	1	0	0	0	0	0	0	0	0	0	0	0	0	0	0	0	0	0	0	0	0	0	0	0	0	0	0	0	0	0	0	0	0	0	0	0	0	0	0	0
OTU 143	1	0	0	0	0	0	1	3	0	0	0	1	0	0	0	1	1	0	1	0	0	0	0	0	0	1	0	0	2	0	0	2	0	1	0	0	0	1	0	0	0	0	0	0	0	0	0	0	0	0
OTU 144	0	0	0	0	0	0	0	0	0	0	0	0	2	0	0	0	0	0	6	0	0	0	0	0	0	0	0	0	0	0	0	0	1	0	0	1	1	1	0	0	0	0	0	0	0	0	0	3	0	0
OTU 145	0	1	1	6	0	1	9	7	1	0	2	3	12	4	0	0	15	18	5	0	0	6	4	1	7	9	3	3	10	0	0	0	1	0	4	0	2	4	38	4	57	0	0	1	2	5	0	0	2	1
OTU 146	0	0	5	1	0	1	0	0	0	7	0	1	1	0	1	0	1	0	3	0	0	2	1	0	4	0	0	5	6	0	4	0	1	1	5	0	1	0	5	0	0	0	5	1	0	0	1	1	0	1
OTU 147	0	1	0	0	0	1	1	0	0	0	0	0	0	3	0	4	0	0	1	0	0	0	0	1	2	2	0	4	0	3	0	0	0	0	0	1	0	1	0	0	0	0	2	0	1	0	1	10	0	0
OTU 148	1	27	0	0	0	0	0	0	1	0	0	0	0	1	1	1	0	1	1	0	2	0	0	0	3	0	1	1	0	1	3	3	2	1	4	1	5	37	0	1	0	1	3	0	1	55	0	2	0	1
OTU 149	0	0	0	0	1	0	2	0	10	0	1	0	0	5	0	0	0	0	0	0	0	0	0	0	0	0	0	0	0	0	0	0	1	0	0	0	0	0	0	0	0	1	0	0	3	1	0	0	4	0
OTU 150	0	0	4	0	2	0	1	0	0	0	1	0	0	0	0	0	0	0	0	0	0	0	0	0	0	0	0	0	0	0	0	0	0	0	0	0	1	0	0	1	0	0	0	0	0	0	0	0	0	1
OTU 151	0	3	0	103	0	0	2	0	0	2	0	1	0	0	0	2	0	0	2	0	3	0	0	0	0	0	0	4	0	1	0	1	0	1	1	0	0	0	0	0	1	2	1	0	0	2	0	1	1	0
OTU 152	0	2	0	1	17	1	2	0	1	1	0	0	0	0	0	0	1	4	5	3	2	4	0	1	10	2	2	0	1	4	8	2	0	5	0	0	0	30	1	0	0	0	2	2	0	13	0	0	0	0
OTU 153	0	0	2	0	0	0	0	0	0	0	0	0	0	0	0	0	0	0	0	0	1	0	0	0	0	0	0	0	0	0	0	0	1	0	0	0	0	0	0	0	0	0	0	0	0	0	0	0	0	0
OTU 154	0	0	0	0	0	0	6	0	0	0	0	0	0	0	0	0	0	5	0	0	0	0	0	0	0	2	0	1	0	0	0	0	0	0	0	0	0	0	0	0	0	0	0	0	0	0	0	0	0	0
OTU 155	0	0	0	1	0	1	0	0	2	0	0	0	0	1	0	0	0	0	3	0	0	0	1	0	3	0	0	3	0	3	0	0	0	1	0	0	1	1	0	0	0	1	0	1	0	1	0	2	7	0
OTU 156	2	0	0	0	2	1	2	4	10	3	0	8	0	30	0	46	0	1	0	1	7	0	0	1	0	0	0	0	0	1	2	5	0	0	2	0	0	2	0	1	0	0	2	4	1	2	0	2	1	0
OTU 157	6	0	0	0	0	2	0	0	0	14	0	0	0	9	1	0	1	0	0	11	0	3	0	0	0	0	0	0	1	1	1	0	1	0	1	0	0	0	0	0	0	0	0	1	2	0	0	0	1	0
OTU 158	0	0	0	0	0	2	0	0	0	0	0	0	0	0	0	0	0	3	0	0	0	0	0	0	0	0	1	0	0	0	1	0	0	0	0	0	0	0	0	0	0	0	0	0	0	0	0	0	0	0
OTU 159	1	0	0	0	1	3	0	1	0	4	1	0	0	1	0	1	0	7	0	1	2	0	1	0	0	1	2	5	0	5	5	1	0	0	0	0	2	0	3	1	0	1	0	3	0	0	0	0	0	0
OTU 160	4	3	1	0	5	2	66	5	3	21	6	0	1	1	1	8	0	14	5	0	1	0	1	1	5	4	1	3	6	2	2	0	0	14	5	0	0	4	1	2	2	3	7	4	0	11	2	0	8	0
OTU 161	0	0	0	0	1	5	5	0	0	4	1	0	1	0	2	0	0	0	0	25	8	0	2	3	0	1	9	0	0	2	0	36	6	17	0	0	0	3	0	10	0	0	4	4	6	2	1	0	2	19
OTU 162	0	0	1	2	0	0	1	2	2	0	1	0	3	0	0	0	2	8	10	0	1	0	1	0	3	8	3	1	0	0	0	4	0	2	7	1	0	0	0	0	0	2	0	1	0	3	0	0	4	0
OTU 163	0	0	0	0	0	0	0	0	0	0	0	0	0	0	0	0	0	0	3	0	1	0	0	0	0	0	0	0	0	0	0	0	0	0	0	0	0	0	0	0	0	0	0	0	0	0	0	0	0	0
OTU 164	0	0	0	0	0	0	0	0	0	0	0	0	0	0	0	0	0	0	0	0	0	0	0	0	0	0	0	0	1	0	0	0	0	0	0	0	0	0	0	0	0	0	0	0	0	0	0	0	0	0
OTU 165	0	0	0	0	9	1	0	0	0	1	0	0	0	0	0	0	0	0	0	2	3	0	0	4	0	0	0	0	0	0	0	5	10	2	0	0	0	1	1	0	0	1	0	6	0	0	0	2	0	9
OTU 166	0	0	0	0	0	0	0	0	0	0	0	0	0	0	0	0	0	0	0	0	0	0	0	0	0	0	0	1	2	0	0	3	0	4	0	0	0	0	0	0	0	0	0	0	0	0	0	0	0	0
OTU 167	2	0	0	0	0	0	3	0	0	0	0	3	0	2	1	0	0	0	0	0	3	0	3	0	0	32	0	0	1	0	0	0	0	0	2	0	0	1	4	2	0	0	0	0	1	6	0	0	0	1
OTU 168	0	153	1	0	0	1	3	0	5	0	1	1	0	0	0	4	0	0	0	0	0	1	0	2	2	0	0	3	1	0	5	2	1	0	0	4	0	1	3	0	0	1	0	1	0	0	0	9	5	0
OTU 169	0	0	0	0	0	0	0	0	0	0	0	0	0	0	0	0	0	0	0	0	0	0	0	0	0	0	0	0	0	0	0	0	0	0	0	0	0	0	0	0	0	0	0	0	0	0	0	0	0	0
OTU 170	0	0	0	0	0	0	0	0	0	0	0	0	0	0	0	0	0	0	0	0	0	0	0	0	0	0	0	0	0	0	0	0	1	1	0	0	0	0	0	0	0	0	0	0	0	0	0	0	0	1
OTU 171	0	0	0	0	10	17	1	0	1	0	0	0	0	0	3	0	1	2	5	10	1	0	0	18	0	0	0	0	13	0	1	0	6	1	3	2	0	0	0	0	0	0	1	49	15	0	7	3	0	8
OTU 172	0	0	0	0	0	0	0	1	2	0	0	0	0	0	0	5	0	0	0	0	0	0	0	1	0	0	1	0	0	0	1	6	0	0	0	2	0	0	1	0	0	0	0	0	0	0	0	0	0	0
OTU 173	0	0	0	2	0	0	0	0	5	0	0	0	0	2	0	0	2	1	0	0	1	0	1	0	0	1	0	1	5	0	1	4	0	0	0	0	0	0	1	0	0	0	0	0	0	0	0	0	0	0
OTU 174	0	1	2	0	0	0	10	0	0	7	0	1	0	0	2	2	0	0	2	0	2	0	2	0	1	0	0	0	0	3	0	0	0	5	0	2	0	0	0	2	0	11	0	0	0	0	0	0	0	1
OTU 175	3	0	6	0	0	2	0	0	0	0	0	2	2	0	1	2	0	0	0	0	1	0	0	1	0	0	0	3	0	0	0	0	0	0	0	4	0	0	0	2	0	1	0	1	4	0	2	10	0	0
OTU 176	6	19	39	1	4	0	8	56	2	2	29	1	4	0	7	0	4	0	4	3	5	2	131	0	0	2	8	0	4	1	0	3	3	1	2	4	1	0	3	0	0	1	3	0	0	20	4	3	3	5
OTU 177	0	0	0	1	2	0	0	0	2	0	0	3	1	1	0	1	2	3	5	4	5	1	2	1	0	4	0	0	2	0	10	0	48	0	1	3	1	4	0	5	0	0	2	1	48	0	35	1	1	0
OTU 178	2	0	1	4	0	0	2	0	2	3	0	2	0	0	0	4	0	0	0	2	1	0	2	0	0	1	5	0	2	0	0	0	1	0	0	0	4	0	0	5	5	0	2	1	0	1	0	0	1	0
OTU 179	2	2	3	0	0	0	0	0	0	0	0	2	0	1	0	0	0	0	0	0	0	0	0	0	5	0	0	0	6	0	1	1	0	1	0	22	3	0	0	1	0	0	1	0	2	1	0	5	4	0
OTU 180	4	1	0	1	0	0	6	2	3	8	3	4	5	3	2	7	1	6	8	2	7	52	0	0	8	104	7	3	4	1	1	0	4	0	4	4	4	1	5	1	1	0	5	4	6	4	2	5	1	4
OTU 181	3	0	0	0	3	0	0	0	2	2	0	0	112	4	0	1	0	1	0	3	2	0	0	2	2	0	8	0	0	1	4	1	0	0	0	1	2	0	0	0	0	0	1	2	3	0	1	0	0	3
OTU 182	0	0	0	0	1	0	0	0	0	0	0	0	0	0	0	0	0	0	0	2	0	0	0	0	0	0	0	0	0	0	0	0	0	0	1	0	0	0	0	0	0	0	0	0	0	0	0	0	0	0
OTU 183	0	0	0	3	2	0	0	2	0	0	0	0	0	7	0	0	0	0	0	2	3	1	1	7	4	0	1	1	0	1	25	0	0	0	6	0	0	0	1	0	0	0	12	1	2	0	0	0	1	1
OTU 184	0	3	5	0	0	2	0	0	0	0	1	6	2	0	5	0	0	0	0	0	1	1	1	7	1	0	0	0	3	0	0	3	0	0	0	0	0	0	3	0	0	0	0	3	0	2	2	0	0	0
OTU 185	1	0	1	0	7	0	1	0	1	0	0	0	4	0	5	1	0	1	3	0	5	1	0	0	4	1	2	4	1	0	1	10	1	3	1	0	0	0	0	2	0	0	0	3	2	0	1	0	1	0
OTU 186	4	1	0	0	0	0	0	0	0	1	0	2	0	0	0	0	1	0	1	0	1	0	1	0	0	0	0	1	0	3	1	0	0	0	0	0	0	0	0	0	0	0	2	1	0	0	0	0	0	1
OTU 187	6	0	1	21	0	0	1	0	1	2	1	10	3	1	3	3	40	0	12	1	1	24	1	0	6	5	5	1	0	5	0	7	1	0	0	1	4	0	1	0	0	19	2	0	0	4	0	2	28	3
OTU 188	2	0	0	1	4	5	2	7	5	0	4	13	0	2	9	2	6	4	1	11	5	4	2	4	2	6	4	13	0	0	0	1	5	0	0	4	0	4	2	9	2	4	0	5	1	4	0	11	3	3
OTU 189	21	0	0	2	0	0	0	0	24	4	0	1	1	1	3	3	0	0	3	4	1	0	2	0	14	4	4	4	1	0	0	1	0	0	0	0	2	0	2	0	0	1	2	2	0	1	4	0	0	6
OTU 190	0	0	0	0	0	0	0	0	0	0	0	0	0	0	0	0	0	0	2	0	1	0	1	0	0	1	0	2	0	0	0	0	0	0	0	0	0	1	0	0	0	0	0	0	0	0	0	0	0	0
OTU 191	7	0	1	9	0	1	3	0	3	53	0	1	1	3	1	5	18	6	2	0	2	50	4	0	3	1	4	1	4	5	3	1	3	1	1	1	63	4	0	0	22	3	1	0	0	1	0	2	2	0
OTU 192	2	12	18	1	1	6	7	0	0	3	0	3	0	0	2	7	0	1	6	0	0	0	2	6	0	0	9	4	1	2	0	7	2	0	0	4	2	29	0	3	0	3	1	11	3	29	2	9	5	2
OTU 193	0	0	2	0	0	0	0	0	2	1	3	0	0	0	0	0	0	0	2	1	5	0	0	0	9	0	0	0	5	2	0	0	1	0	1	0	0	0	0	0	0	1	1	0	21	1	7	0	2	2
OTU 194	3	0	41	0	0	0	0	0	0	0	0	0	0	2	0	0	0	0	0	1	0	0	1	0	1	0	4	2	3	7	0	0	0	1	1	0	1	1	0	2	0	0	0	0	0	0	0	0	0	2
OTU 195	2	0	1	2	0	3	0	0	0	1	0	12	0	0	30	0	2	0	0	1	1	0	0	2	2	0	8	0	9	5	0	0	0	0	0	0	0	0	0	0	1	3	0	1	6	0	0	0	0	0
OTU 196	2	0	0	0	0	4	0	1	8	0	0	0	0	0	2	0	1	2	0	0	2	0	0	0	2	0	3	0	2	1	5	0	0	0	1	0	0	0	1	0	0	0	1	1	0	0	0	0	0	0
OTU 197	4	0	1	0	3	2	0	0	0	3	1	2	0	4	4	12	0	1	3	6	1	0	3	1	34	4	0	2	2	7	5	3	7	1	1	0	20	1	1	0	1	0	2	6	1	0	4	0	1	67
OTU 198	0	0	0	0	0	0	0	0	0	0	0	0	0	3	2	0	0	0	0	0	2	0	0	0	2	0	0	0	0	0	0	0	0	0	0	0	0	0	0	3	0	1	0	0	1	0	0	0	0	0
OTU 199	1	0	1	3	0	0	0	0	0	0	0	0	0	0	3	0	0	1	0	0	1	1	2	0	0	0	0	3	2	2	0	5	0	1	2	0	0	69	8	0	1	0	0	0	0	0	0	2	0	1
OTU 200	1	0	0	0	0	0	1	2	0	0	0	2	0	0	0	2	0	0	1	0	3	0	0	0	5	0	1	2	0	1	0	1	13	0	2	0	4	0	0	6	3	3	0	0	1	2	0	0	6	3
