	Host 1	Host 2	Host 3	Host 4	Host 5	Host 6	Host 7	Host 8	Host 9	Host 10	Host 11	Host 12	Host 13	Host 14	Host 15	Host 16	Host 17	Host 18	Host 19	Host 20	Host 21	Host 22	Host 23	Host 24	Host 25	Host 26	Host 27	Host 28	Host 29	Host 30	Host 31	Host 32	Host 33	Host 34	Host 35	Host 36	Host 37	Host 38	Host 39	Host 40	Host 41	Host 42	Host 43	Host 44	Host 45	Host 46	Host 47	Host 48	Host 49	Host 50	
OTU 1	8	44	15	50	10	455	8	34	209	16	34	27	2	14	283	81	18	116	816	19	37	779	14	482	8	0	110	274	4	35	441	23	5	0	0	338	89	657	186	24	66	36	4	8	79	670	12	9	1411	0
OTU 2	3	14	0	0	2	24	0	2	0	0	2	1	0	33	0	0	124	3	0	4	392	0	3	0	1	1	2	0	0	3	0	0	53	3	13	1	17	14	47	17	2	1	3	36	1	0	4	0	0	26
OTU 3	0	0	0	0	0	0	0	0	0	38	3	0	0	0	0	0	12	2	6	26	1	0	0	0	1	79	8	1	0	113	0	5	11	4	31	0	5	1	20	0	0	81	78	5	0	1	0	0	0	9
OTU 4	0	0	0	0	0	0	0	0	0	0	0	0	0	0	0	0	0	0	0	0	0	0	0	0	0	0	0	2	0	0	0	0	0	0	0	0	0	0	0	0	0	0	0	0	0	0	0	0	0	0
OTU 5	3	339	50	82	7	240	1124	1097	852	373	194	221	622	448	248	116	71	220	1811	0	271	79	831	37	518	175	0	275	216	114	679	67	13	1	0	1102	1171	99	29	1014	133	11	598	97	180	85	361	91	127	49
OTU 6	40	30	1	499	0	2491	13	16	5	80	1	46	15	5	0	2	165	32	6	21	11	2	9	1	59	0	42	0	2	29	14	7	2	57	0	1	52	6	3	2	1	206	3	86	0	8	63	1	4	3
OTU 7	70	36	40	46	105	23	60	22	10	79	906	24	15	224	10	18	217	21	51	321	6	34	12	6	56	51	53	25	433	154	21	13	27	99	158	610	35	21	34	90	483	45	23	3	13	37	1785	41	44	307
OTU 8	22	96	113	9	200	7	349	109	2	65	207	16	157	114	11	27	106	33	9	50	29	4	38	11	186	90	10	18	152	63	1	5	19	2	4	5	74	37	33	33	151	9	97	80	2	6	862	23	10	47
OTU 9	64	2	70	1	81	2	0	18	13	3	3	21	45	28	14	11	11	24	15	7	23	2	0	44	0	0	0	0	0	34	24	39	7	6	10	0	20	7	0	3	0	0	3	16	1920	2	2	56	5	19
OTU 10	25	2	0	0	2	0	0	20	0	0	61	11	1	18	0	1	1	0	0	0	78	1	0	0	0	0	0	4	1	3	0	17	0	68	10	0	17	0	4	30	0	24	48	0	10	5	0	4	1	16
OTU 11	161	20	23	17	13	0	1	13	9	60	59	26	42	1	6	20	48	32	0	31	19	16	2	9	4	46	1	8	83	28	11	41	19	15	43	0	122	10	76	9	1	8	123	129	3	18	28	10	23	33
OTU 12	12	1	8	357	203	2	134	56	4	36	2	98	4	3	17	15	117	9	62	41	87	22	19	43	289	66	94	8	18	4	4	39	138	69	65	18	4	23	12	21	4	97	60	41	98	27	39	30	69	159
OTU 13	1	0	0	1	0	0	0	1	0	0	0	0	0	51	0	0	0	0	2	0	5	0	5	0	0	0	0	0	0	0	0	0	0	0	11	0	0	0	0	2	0	0	0	0	3	0	0	0	0	0
OTU 14	0	1	12	28	13	1	29	2	5	12	22	2	1	33	4	2	15	8	1	0	28	9	0	13	45	307	2	0	1	23	6	3	169	33	4	3	0	3	17	15	11	1	1	2	1	4	167	1	11	22
OTU 15	0	0	0	0	1	0	0	0	0	3	0	0	0	0	0	0	0	0	0	0	1	0	20	0	0	0	0	0	0	0	0	1	12	0	0	0	0	0	0	0	0	0	5	0	0	0	12	0	0	0
OTU 16	0	0	0	0	0	0	0	0	0	0	0	0	0	0	0	6	0	0	0	0	0	0	6	0	0	0	0	0	0	0	0	0	0	2	0	0	0	17	0	0	0	0	7	0	0	0	0	3	0	0
OTU 17	35	32	6	39	18	0	15	17	0	34	5	68	4	10	0	17	57	31	14	214	3	15	39	12	12	21	70	21	1	9	1	76	28	94	452	0	2	14	51	0	0	0	0	0	57	11	0	0	12	23
OTU 18	88	95	110	10	115	1	5	63	4	3	31	44	13	2	3	7	68	31	9	23	519	19	8	1	5	187	14	0	23	12	6	40	141	81	104	20	37	11	10	39	48	22	42	7	0	21	7	6	12	210
OTU 19	0	0	0	0	0	0	0	0	0	0	0	0	0	0	0	0	0	1	0	0	0	0	0	0	0	0	0	0	0	0	0	0	0	0	0	0	0	0	0	0	0	23	0	0	0	0	0	0	0	0
OTU 20	1	47	29	10	65	10	75	30	0	1	202	39	15	1	2	2	112	1	3	49	10	0	14	2	66	35	23	13	121	58	0	4	147	151	19	2	99	2	33	8	178	44	64	9	0	5	176	34	0	242
OTU 21	1	5	453	21	46	690	0	3	107	201	252	22	39	240	154	2	20	0	536	28	227	547	60	376	1	1218	0	278	47	33	204	18	31	201	16	239	80	428	4	1	53	161	10	7	90	596	91	3514	1053	16
OTU 22	0	7	57	56	141	42	37	19	29	6	114	31	101	38	52	23	142	5	54	142	15	29	9	117	21	54	23	6	50	5	51	18	138	15	466	51	239	71	3	65	13	187	5	241	0	46	247	19	84	10
OTU 23	83	0	0	4	167	3	9	25	7	0	0	1	5	45	12	42	17	18	3	15	38	2	12	31	18	45	0	0	20	44	12	77	22	1	3	1	7	0	0	15	0	52	3	3	6	0	8	59	0	0
OTU 24	92	14	50	0	1	0	25	164	0	0	274	0	2	62	6	8	10	0	0	2	10	0	36	7	10	66	0	0	1	36	0	35	96	28	1	3	6	0	0	17	9	4	20	0	10	1	13	0	0	15
OTU 25	0	0	0	83	0	0	0	103	0	0	0	1	1	0	0	0	0	0	1	0	0	0	0	0	1	0	0	0	0	0	0	0	0	0	0	0	0	0	7	0	15	0	46	0	0	0	0	0	0	0
OTU 26	1	0	50	0	0	0	106	24	2	0	0	0	15	0	2	0	1	1	0	25	2	0	0	1	4	3	0	2	8	0	3	0	17	1	1	2	16	0	0	0	5	0	22	1	20	0	0	0	0	1
OTU 27	228	0	0	0	0	17	0	0	0	0	0	0	0	0	0	0	0	0	0	0	0	0	0	0	0	0	0	0	0	0	0	48	0	0	0	0	0	0	0	0	0	0	0	0	0	0	0	0	0	0
OTU 28	22	12	227	138	54	29	39	128	27	135	207	10	27	4	1	8	67	29	7	97	26	25	1	6	0	25	21	0	68	0	51	31	7	16	65	20	14	19	37	5	199	35	63	33	12	14	466	21	51	5
OTU 29	1	35	49	14	17	634	59	25	119	41	26	3	5	48	396	7	37	22	779	55	26	755	2	843	36	23	12	281	0	980	257	65	21	54	50	291	12	707	81	100	17	7	50	0	207	648	27	4	1429	88
OTU 30	0	0	0	0	0	0	51	0	0	0	0	18	0	0	0	0	0	0	0	0	0	0	0	0	0	0	13	0	0	0	0	0	0	0	0	0	0	0	0	0	0	0	0	0	0	0	0	0	0	0
OTU 31	2	0	60	53	1	3	46	29	0	3	0	49	0	50	0	0	2	0	5	12	0	1	47	3	2	34	0	22	12	92	0	0	1	0	4	0	3	0	0	1	0	67	5	21	372	0	0	0	0	104
OTU 32	4	15	42	62	167	39	47	49	0	2	33	44	7	11	18	1	100	3	2	1	32	38	173	21	2	11	74	90	26	42	0	12	21	12	5	1	20	16	2	22	46	191	15	74	14	25	90	26	56	107
OTU 33	0	0	0	0	0	1	0	6	0	0	17	0	0	0	0	0	44	0	0	31	0	0	0	2	0	0	0	0	0	0	0	0	0	0	0	0	0	0	0	0	11	0	6	6	0	0	0	0	0	1
OTU 34	34	83	30	61	15	98	3	56	16	16	51	8	190	169	729	1	126	21	34	9	60	72	2	76	106	1	24	3	37	18	27	3	144	38	5	26	839	24	8	148	24	4	3	2	10	43	5	2	118	340
OTU 35	38	0	11	15	24	32	233	8	18	6	15	239	35	16	3	2	52	1	4	0	1	43	49	12	648	24	136	0	20	16	41	144	7	77	15	16	56	1	97	2	18	20	23	14	0	8	39	2	11	237
OTU 36	31	15	2	67	30	15	19	12	5	6	6	9	0	0	6	27	16	49	14	51	52	4	99	29	5	59	2	2	54	29	8	17	119	1	2	12	20	15	161	25	9	70	97	584	9	13	23	0	14	0
OTU 37	20	15	3	0	5	0	0	0	0	0	0	7	0	221	0	0	0	0	0	0	0	0	0	0	41	353	0	12	0	24	0	0	9	0	31	8	1	2	4	6	7	68	24	2	3	1	4	23	0	59
OTU 38	32	174	73	122	0	0	31	16	794	14	36	1	6	17	8	3	19	0	11	58	35	20	30	9	6	8	16	5	0	14	1524	35	10	16	9	793	10	16	29	314	3	20	9	0	6	10	36	186	33	3
OTU 39	15	0	4	175	16	0	1	6	0	17	54	0	4	6	8	0	0	0	0	122	0	0	0	10	0	43	1	3	1	0	0	11	3	19	3	1	7	0	0	10	0	3	27	0	0	0	1	0	0	0
OTU 40	65	17	6	2	37	22	33	39	4	1	0	12	44	16	5	1	98	5	27	9	174	11	15	14	6	210	14	2	0	13	12	9	33	121	0	10	38	17	19	29	119	51	23	35	3	10	83	17	27	17
OTU 41	2	26	2	73	6	0	38	126	0	17	11	17	10	70	2	23	3	6	3	63	54	1	22	14	23	4	22	2	4	0	0	3	83	26	172	0	40	2	54	29	6	18	75	63	2	0	1	0	7	361
OTU 42	41	1	0	103	50	0	0	11	2	0	0	2	14	0	10	8	35	0	21	0	0	8	0	2	0	0	0	0	7	0	1	5	5	1	0	2	10	0	0	37	0	0	0	0	5	19	0	44	27	0
OTU 43	0	0	0	3	0	0	6	0	3	0	0	1	0	0	0	0	0	0	6	0	0	0	0	0	0	0	0	0	10	0	7	0	0	0	0	1	3	0	0	0	0	0	0	0	0	0	0	2	0	0
OTU 44	0	1	0	0	0	2	0	20	0	54	36	0	0	0	5	1	0	10	2	12	6	1	2	0	181	58	0	0	0	0	0	2	0	2	16	8	0	3	15	45	0	4	0	0	5	0	2	0	0	8
OTU 45	70	23	7	28	105	8	23	3	16	5	17	18	3	118	3	17	61	1	41	91	5	3	4	10	0	101	14	1	5	5	21	10	23	63	93	25	33	1	1	26	27	77	67	26	11	3	26	21	5	54
OTU 46	22	7	15	111	177	17	121	70	7	3	32	35	6	115	9	18	12	50	19	38	28	2	35	4	93	18	110	17	1045	53	14	1	12	4	30	19	35	17	26	60	85	28	75	106	4	0	11	15	5	7
OTU 47	2	0	0	0	0	2	0	0	0	3	34	11	0	0	0	0	83	0	0	0	0	0	4	0	0	0	39	0	4	0	0	22	0	0	0	2	8	0	0	0	0	0	0	0	0	0	4	45	0	0
OTU 48	0	19	90	3	20	59	13	16	825	192	36	19	8	14	13	15	36	28	16	35	208	14	34	19	237	238	54	4	24	505	1654	2	20	237	23	4	1	6	26	7	10	274	23	6	12	0	0	12	16	48
OTU 49	121	2	32	31	24	0	14	0	11	27	38	1	0	2	0	0	0	1	51	15	3	12	59	16	66	29	13	0	41	0	22	0	76	1	1	6	33	0	7	4	40	68	27	2	0	15	3	20	27	0
OTU 50	138	0	61	65	434	0	2	182	9	90	17	27	5	1	2	9	113	22	11	52	7	8	5	2	60	35	110	4	2	239	23	79	55	49	84	13	8	11	1	66	141	67	568	99	4	18	121	71	22	194
OTU 51	41	1	5	14	5	4	2	9	2	2	14	35	11	0	1	0	18	0	2	0	3	0	7	6	6	8	5	16	3	77	4	23	0	8	5	0	10	2	2	26	13	43	24	31	0	1	0	12	0	51
OTU 52	159	25	3	25	55	20	23	3	8	66	21	29	8	373	3	32	421	89	3	114	54	7	27	1	26	64	43	21	59	58	16	118	58	18	53	1	51	21	55	23	64	24	88	51	28	35	12	195	49	17
OTU 53	0	0	0	0	0	0	1	0	0	0	0	0	0	0	0	0	0	0	0	0	0	0	0	0	0	0	0	0	0	0	0	0	0	0	0	0	0	0	0	0	0	0	0	0	0	0	0	0	0	0
OTU 54	16	15	75	6	16	17	117	120	134	24	8	3	5	76	26	7	22	25	5	8	1901	6	43	77	108	141	13	8	19	57	19	113	68	17	9	4	4	9	17	16	60	218	169	57	1	8	43	119	1	299
OTU 55	0	3	0	0	0	0	0	0	0	0	0	0	0	0	1	0	0	0	0	9	0	0	0	0	0	0	0	0	0	0	0	0	0	2	0	0	0	0	0	0	0	0	0	0	0	0	0	0	0	0
OTU 56	3	15	2	0	32	2	3	18	0	192	0	0	7	9	3	0	33	0	0	34	14	7	22	9	16	2	1	1	29	7	0	12	12	4	0	2	11	0	0	3	22	0	59	1	4	0	0	8	2	3
OTU 57	135	448	17	32	392	22	80	38	17	149	30	151	27	397	24	841	177	102	32	204	52	17	34	65	71	158	335	30	115	240	25	86	110	78	101	17	31	3	94	850	17	19	153	267	1657	24	80	103	33	122
OTU 58	2	13	2	0	1	5	104	12	0	66	2	8	10	8	0	4	13	12	1	8	20	1	0	2	14	48	4	0	13	19	0	5	2	5	31	4	0	1	13	33	30	27	0	3	0	0	0	0	3	0
OTU 59	1	13	0	102	8	0	5	80	0	0	6	7	13	7	0	30	211	32	0	48	1	2	26	0	4	15	47	3	1	19	1	0	0	2	12	0	45	5	8	108	42	20	4	0	0	1	0	0	0	2
OTU 60	16	3	0	52	78	5	25	44	0	185	26	5	5	50	1	23	185	9	3	36	134	2	76	20	3	76	17	23	5	32	0	10	14	61	6	22	78	32	40	24	53	10	79	74	3	4	73	159	10	10
OTU 61	39	150	14	93	267	46	19	152	260	797	2	22	87	1	1755	26	27	31	812	18	337	37	92	3776	22	21	3	17	6	167	470	52	10	119	42	28	63	65	96	164	29	46	32	70	729	34	11	26	76	51
OTU 62	0	3	7	0	23	0	17	0	0	6	3	3	0	8	2	6	0	6	0	5	0	14	1	5	5	2	0	0	0	85	0	1	14	16	4	9	6	3	10	0	4	0	11	0	0	8	19	35	12	2
OTU 63	24	28	0	0	5	0	0	5	0	0	9	14	11	23	3	0	16	0	0	370	15	31	10	1	0	50	144	13	0	15	1	4	95	62	54	0	12	7	0	0	6	0	84	121	0	19	0	26	44	14
OTU 64	31	45	65	48	124	24	1	59	8	19	34	29	34	145	25	19	169	24	9	60	70	58	57	57	75	24	31	10	16	87	13	37	61	198	13	55	19	29	39	39	60	15	0	79	56	85	40	0	62	38
OTU 65	0	0	0	0	0	0	0	0	0	0	0	0	0	2	0	0	0	0	0	0	19	0	0	0	0	0	0	0	0	0	0	0	0	0	0	0	0	0	0	0	0	132	0	0	0	0	0	0	0	0
OTU 66	56	3	28	54	124	3	1	0	6	0	11	43	6	58	2	8	242	15	29	8	9	11	3	14	12	9	120	2466	11	217	11	6	4	130	83	24	35	26	13	19	46	46	217	7	4	9	13	141	37	6
OTU 67	2	44	0	151	2	5	20	54	1074	40	0	8	4	0	2	9	47	51	13	4	0	52	10	6	0	113	6	14	439	47	0	20	190	4	17	0	0	26	1	24	36	4	18	34	3	17	9	2	14	9
OTU 68	119	0	4	88	210	39	28	1	1	0	7	5	6	0	2	6	6	0	22	0	28	1	2	2	29	0	0	0	1	9	3	0	0	11	15	0	2	0	4	41	2	3	5	3	0	4	101	2	3	45
OTU 69	44	37	17	43	236	4	30	70	1	28	66	7	5	91	15	4	59	10	1	20	32	0	17	23	39	1	18	0	51	157	5	34	108	1	21	6	9	0	0	24	173	43	6	5	2	2	107	1	1	0
OTU 70	155	35	0	5	15	0	94	2	5	7	79	26	31	0	0	0	5	0	15	72	0	0	18	0	0	3	114	0	7	16	9	46	23	7	42	0	1	0	3	50	0	23	9	6	4	2	90	7	8	59
OTU 71	41	6	28	2	19	0	81	61	19	5	52	7	8	15	0	342	0	771	38	0	80	17	0	0	11	1	4	18	4	18	42	47	0	0	2	20	1	29	0	15	0	67	0	77	0	34	163	28	30	1
OTU 72	416	27	103	73	12	5	101	16	1	25	26	6	221	30	1	17	28	4	10	42	9	15	10	11	1	87	21	0	11	10	3	83	53	42	95	3	47	9	48	36	3	107	3	50	50	7	23	107	7	80
OTU 73	70	25	1	91	50	25	1	20	0	156	6	17	14	36	0	12	68	1	0	28	114	2	35	4	18	18	0	1	139	6	0	30	4	111	39	15	23	14	4	29	3	111	30	0	0	0	15	7	1	12
OTU 74	2	1	1	0	0	16	56	24	14	8	63	58	106	233	14	4	6	0	19	128	28	17	25	24	28	11	130	27	0	0	28	6	97	299	163	4	261	14	34	21	100	55	25	98	47	54	0	16	74	1
OTU 75	9	56	27	5	167	17	5	28	5	92	10	15	108	43	4	71	19	127	2	24	917	20	24	9	3	298	73	12	8	5	5	4	64	671	340	3	209	37	140	0	48	148	6	18	0	12	186	65	32	126
OTU 76	107	65	10	1	0	1	13	5	3	91	67	0	0	2	4	0	7	5	0	0	0	0	17	0	0	0	3	3	3	0	5	94	36	30	146	0	0	1	4	200	0	1	29	0	18	0	0	65	0	0
OTU 77	111	1	7	22	27	51	93	177	10	18	152	32	19	14	3	6	6	14	16	23	37	31	27	0	15	2	15	370	0	19	15	49	82	5	4	6	0	32	21	5	0	137	1	10	3	25	97	8	39	8
OTU 78	218	1	27	70	7	0	31	34	0	7	16	0	9	15	9	1	2	0	0	44	0	2	10	0	5	133	13	66	12	181	0	19	9	192	1	98	5	102	1	13	2	0	7	19	0	68	15	38	3	62
OTU 79	100	6	269	59	150	37	35	114	32	762	46	48	43	109	65	15	401	28	40	751	160	7	133	99	139	85	225	15	15	119	40	48	104	448	507	25	95	46	99	78	290	408	82	71	14	12	80	152	11	309
OTU 80	37	3	54	0	103	0	144	43	1	176	7	22	10	158	26	8	7	35	17	29	3	8	10	80	85	76	14	8	14	17	1	18	37	12	114	131	30	23	107	23	73	69	106	19	41	4	3	0	23	49
OTU 81	150	53	283	26	17	45	323	161	12	2	68	84	17	15	92	2	109	0	2	31	140	6	72	76	3	72	49	16	18	843	10	52	29	43	1	2	103	6	46	59	25	40	55	146	7	2	156	66	17	27
OTU 82	303	179	2	3	4	0	38	32	0	75	9	13	4	17	2	0	81	7	1	48	26	0	10	0	109	48	0	1	28	0	1	16	16	134	140	7	2	5	0	161	9	14	45	4	0	0	12	120	1	17
OTU 83	8	0	0	31	0	0	5	0	0	2	12	10	0	2	0	0	20	0	0	0	4	4	16	5	0	0	25	0	0	4	0	0	23	0	42	2	0	13	0	0	2	0	0	7	3	0	0	15	4	1
OTU 84	0	75	18	40	29	4	83	4	0	2	7	30	0	11	0	1	1	5	0	127	15	0	17	1	0	0	68	1	9	4	0	0	0	3	328	13	8	40	15	65	2	60	53	24	3	15	8	5	4	21
OTU 85	22	0	0	0	1	23	11	5	0	0	2	0	1	4	26	7	0	0	1	0	6	1	15	35	18	0	63	0	0	0	1	0	1	1	0	1	2	37	13	0	0	9	0	7	0	2	1	1	11	0
OTU 86	0	0	3	0	0	0	5	6	0	0	0	0	0	0	6	0	0	0	0	0	0	0	0	1	5	0	81	2	5	0	0	6	0	49	0	0	1	4	0	0	1	0	0	0	0	0	0	0	0	0
OTU 87	35	5	0	61	112	0	1	1	0	3	13	2	6	196	3	0	5	5	1	4	0	0	0	2	5	11	9	32	3	2	0	11	4	0	0	1	0	1	0	151	57	167	0	0	0	0	0	64	5	12
OTU 88	2	0	36	40	0	0	37	0	0	0	5	0	78	4	11	0	6	0	0	18	0	0	2	14	0	0	0	2	29	0	0	2	0	0	0	1	0	0	0	0	0	1	0	0	8	0	0	1	0	0
OTU 89	3	18	22	21	47	4	56	6	0	0	0	1	0	190	0	16	122	5	1	19	21	3	0	0	54	6	1	9	4	4	0	9	33	0	1	1	2	0	0	27	13	40	97	2	366	0	11	13	2	0
OTU 90	1	0	13	0	0	91	0	0	0	0	0	0	0	0	0	0	0	0	2	1	0	0	12	1	16	0	0	1	0	0	0	7	39	0	1	0	1	0	0	0	0	2	0	3	0	0	0	0	0	142
OTU 91	0	0	0	0	0	0	0	0	3	0	7	0	0	8	8	0	0	1	0	20	1	0	0	16	0	0	8	3	0	0	5	13	144	0	37	0	0	0	0	5	9	9	0	0	0	0	1	0	0	0
OTU 92	2	0	9	0	0	0	0	0	0	1	0	0	27	22	2	30	0	36	0	0	2	1	7	12	7	42	0	5	7	0	0	0	2	16	57	0	84	0	33	3	0	0	0	4	3	2	0	1	0	42
OTU 93	0	0	0	4	0	0	90	0	0	0	4	1	1	0	0	0	2	0	0	2	1	0	0	0	16	1	1	0	0	0	0	1	0	0	0	0	0	0	0	0	0	13	0	2	0	0	0	0	0	0
OTU 94	33	21	97	8	1	328	61	13	65	123	42	20	72	1	131	21	72	54	302	24	10	178	57	194	230	165	4	233	7	59	124	5	84	22	26	103	37	195	191	21	14	57	67	102	90	210	42	1	359	0
OTU 95	5	6	0	90	9	2	0	5	0	32	12	2	0	0	12	0	18	0	0	133	0	1	0	44	0	0	0	8	0	68	0	6	170	178	58	0	0	3	0	0	1	18	2	1	7	0	6	0	10	1
OTU 96	1	17	0	0	0	0	23	0	0	0	7	2	0	0	0	0	0	0	0	0	0	0	17	0	28	0	0	0	4	0	0	1	0	0	0	0	0	2	0	0	113	0	7	22	5	0	78	2	0	141
OTU 97	0	4	3	0	13	0	0	2	3	0	0	3	0	0	0	0	0	1	9	0	25	0	0	0	3	0	0	789	18	0	6	5	8	2	0	0	0	0	22	0	1	4	0	29	1	0	1	0	0	12
OTU 98	0	10	3	4	0	0	2	1	0	0	1	0	463	1	0	0	1	0	0	11	1	1	0	0	15	1	0	4	0	0	0	0	0	19	3	8	954	0	0	0	0	19	45	26	2	3	9	1	0	18
OTU 99	158	11	20	160	89	35	33	5	8	198	47	46	140	9	6	14	56	8	14	4	78	2	86	56	28	150	60	31	14	94	10	17	52	9	119	21	102	73	11	51	8	168	7	99	30	0	20	106	5	7
OTU 100	58	1	1	55	66	10	5	0	0	0	0	5	88	78	232	1	3	0	26	10	45	13	32	460	0	7	2	6	6	34	0	6	99	21	51	1	79	8	0	5	0	11	1	13	109	8	5	1	34	0
OTU 101	1	0	1	0	0	0	42	0	0	0	0	0	0	8	0	0	29	2	10	0	0	0	0	0	5	0	0	0	0	0	0	0	41	0	91	0	22	0	0	3	40	1	1	9	0	5	0	0	0	2
OTU 102	213	0	6	0	0	0	0	0	0	4	1	10	22	11	0	1	24	1	0	3	11	6	21	0	0	0	32	0	0	1	0	13	8	97	0	1	10	1	0	0	0	6	21	0	17	3	0	140	3	3
OTU 103	59	0	2	76	22	4	13	37	0	3	40	0	5	1	6	8	19	27	5	0	91	1	0	41	16	28	1	0	0	39	0	18	38	0	6	0	2	4	9	1	0	918	69	5	0	0	0	0	5	9
OTU 104	142	33	3	8	109	0	125	55	1	0	18	2	22	1	10	12	135	55	4	0	23	13	14	18	9	69	15	1	4	48	1	7	109	41	63	10	37	24	61	17	3	25	1	35	13	2	166	21	17	48
OTU 105	3	6	0	0	24	0	18	0	0	0	4	0	0	0	3	4	1	0	0	0	0	1	0	1	15	0	0	0	1	11	0	1	4	21	0	0	0	0	0	64	0	1	0	0	3	12	0	0	18	165
OTU 106	3	1	0	0	523	13	55	15	2	0	4	0	0	19	1	33	9	103	0	0	22	0	66	7	4	20	0	2	0	0	1	0	3	0	0	0	0	4	82	0	0	1	3	26	2	0	9	0	3	93
OTU 107	3	4284	13	0	13	0	0	0	0	9	3	0	0	17	8	6	6	7	0	194	3	1	0	14	0	0	0	1	0	20	0	0	0	17	15	6	0	1	14	16	18	0	35	21	4	3	15	3	0	14
OTU 108	11	20	2	64	4	53	0	36	0	3	24	8	12	21	1	14	315	0	0	0	0	0	71	2	7	27	9	7	43	54	0	71	13	2	4	3	10	15	4	10	16	0	28	36	0	0	0	0	1	4
OTU 109	0	0	0	0	0	0	0	0	0	0	1	0	0	0	0	0	2	0	0	0	0	0	3	0	1	0	0	0	0	0	0	0	0	0	0	0	0	0	0	0	0	0	0	0	0	0	0	0	0	0
OTU 110	46	72	50	183	66	38	0	0	28	11	0	19	12	1	22	2	22	3	19	71	8	36	2	41	8	36	9	42	22	55	39	0	14	2	5	3	28	19	58	52	33	108	389	47	4	44	0	10	21	79
OTU 111	0	0	0	4	1	0	0	0	0	0	5	0	0	0	0	0	0	5	0	1	0	0	0	9	25	0	1	0	2	0	0	0	0	1	0	0	2	0	2	3	0	10	29	0	0	0	0	0	2	1
OTU 112	1	0	61	1	0	19	0	0	2	2119	5	14	0	6	0	6	21	8	0	0	17	2	0	0	4	1	7	0	14	2	4	6	5	29	0	0	0	5	1	0	0	14	14	0	3	0	10	0	0	0
OTU 113	0	0	0	0	14	5	0	1	0	2	3	1	0	0	0	1	1	10	0	9	57	0	0	2	17	0	1	0	2	0	0	0	2	0	3	1	2	0	20	0	0	0	8	9	26	0	0	3	0	4
OTU 114	85	20	68	154	21	68	40	80	37	112	15	41	14	19	34	0	417	18	114	6	136	97	15	72	69	121	59	49	28	240	71	45	39	131	143	90	9	268	2	12	32	24	81	427	19	135	97	67	212	11
OTU 115	131	64	128	66	204	40	39	37	3	14	28	23	25	121	2	834	396	1611	39	19	18	7	38	6	31	74	48	24	7	87	3	140	93	165	74	12	39	14	3102	26	33	26	272	14	18	3	45	136	9	23
OTU 116	63	909	152	73	35	68	52	1489	0	76	49	5	9	8	19	3869	0	4	25	156	80	19	31	9	69	58	17	36	38	4	0	118	20	57	8	27	45	48	3	1920	53	39	82	90	35	15	15	170	39	77
OTU 117	29	40	33	3	37	74	63	1	326	4	56	28	2	15	11	5	58	22	1130	65	30	36	0	32	18	144	0	16	10	3	593	52	39	47	27	26	22	24	4	88	32	45	109	117	1	218	26	0	92	79
OTU 118	3	4	3	0	0	4	13	54	0	7	0	0	5	0	0	0	6	1	0	0	0	0	0	3	15	1	19	4	0	2	0	0	18	0	9	3	0	31	6	0	7	6	19	52	0	0	11	1	0	0
OTU 119	20	33	161	15	101	74	23	0	771	162	49	11	150	52	23	17	103	35	18	130	33	15	6	11	80	53	10	20	0	110	2	48	110	17	61	1	98	6	75	71	11	520	1	77	2	12	168	47	25	82
OTU 120	7	33	0	0	0	28	7	39	2	0	1	1	6	0	1	0	29	0	2	2	9	5	20	0	15	0	0	16	0	3	1	0	0	9	3	4	20	9	1	19	18	7	7	126	0	0	28	7	0	1
OTU 121	31	9	7	1	12	11	0	34	3	0	1	7	0	1	0	6	5	1	6	6	57	67	0	2	32	53	13	30	0	9	5	0	208	37	39	57	1	52	24	83	1	4	49	0	4	44	2	55	79	42
OTU 122	94	0	0	194	172	121	575	10	6	49	1	288	32	495	1	0	100	0	5	756	7	3951	10	26	454	3	484	29	18	23	6	55	62	4	48	35	13	23	12	7	21	10	21	15	15	4633	86	15	19	1
OTU 123	14	35	60	177	79	47	63	204	22	130	51	34	141	196	16	34	250	122	49	140	74	27	17	63	153	131	121	78	43	339	39	65	25	254	371	29	98	48	71	88	28	269	96	294	39	45	177	73	98	174
OTU 124	5	8	0	0	21	0	0	1	0	57	0	2	0	7	3504	0	24	5	0	26	40	0	0	0	0	6	0	0	0	35	0	0	44	32	2	0	0	0	0	4	21	43	0	0	0	0	0	0	0	1701
OTU 125	218	36	311	205	47	36	316	150	19	122	19	46	23	179	92	89	86	24	29	67	171	63	350	101	180	83	53	45	88	301	51	472	101	55	105	12	32	114	110	80	29	215	69	153	26	38	194	101	112	173
OTU 126	0	43	0	0	2	104	0	0	0	0	0	1	6	44	13	0	0	3	0	5	0	6	0	17	0	0	0	5	0	0	0	0	6	0	0	0	0	0	0	3	0	1	1	0	2	13	2	0	8	0
OTU 127	16	2	1225	14	30	0	7	14	0	0	22	0	3	59	3	0	30	4	1	21	3	6	7	0	23	0	0	15	4012	4	1	18	45	13	0	8	8	8	0	0	9	25	24	0	0	1	3	35	23	13
OTU 128	232	53	285	201	163	33	125	136	8	70	215	132	65	309	117	56	208	99	75	39	161	23	110	199	162	410	157	650	28	118	25	238	543	121	276	62	153	68	215	181	64	198	74	387	69	32	111	59	75	409
OTU 129	0	0	0	0	8	0	0	149	0	19	1	0	0	0	0	2	0	1	1	0	0	42	0	0	0	0	6	0	0	0	0	0	0	50	0	0	7	1	1	0	9	0	0	1	0	28	1	0	58	4
OTU 130	3	0	13	274	33	268	12	28	1	18	63	10	27	8	335	85	55	6	2	6	27	0	1	5	19	0	2	30	6	115	1	1	6	26	185	2366	17	19	12	5	47	26	62	0	3	11	5	50	0	0
OTU 131	25	1	89	13	132	2	0	3	0	3	6	2	9	11	56	41	1	83	41	6	73	6	0	98	43	89	0	0	6	124	0	0	10	52	79	13	42	74	67	2	31	89	33	3	4	7	7	18	0	16
OTU 132	68	14	3	0	7	32	8	5	0	0	0	0	0	18	3	0	0	2	8	0	0	0	1	3	2079	4	29	3	20	0	1	6	4	6	0	1	0	0	0	23	5	5	0	2	5	2	0	0	9	0
OTU 133	0	0	0	24	3	0	33	0	0	0	1	0	0	7	5	0	3	2	0	72	31	7	0	0	0	0	0	0	0	2	0	6	0	34	10	0	3	0	0	0	0	0	0	0	0	4	0	0	32	0
OTU 134	0	2	1	154	15	18	60	3	0	86	131	13	17	102	2	11	20	34	31	10	2	4	10	5	0	4	23	0	8	25	0	1	12	10	126	0	126	1	56	27	110	25	35	24	13	2	70	14	2	25
OTU 135	12	0	7	4	27	181	85	0	69	76	55	31	4382	17	105	1	49	12	199	1	10	236	20	283	1	0	17	107	26	19	133	27	7	131	2	194	20	133	5	0	3	11	8	0	3	201	0	43	380	102
OTU 136	95	89	3	3	0	4	82	20	854	16	15	0	0	133	18	5	77	3	3	28	4	24	10	16	114	44	18	0	9	33	1707	68	27	31	188	4	45	32	7	16	2	49	32	3	1	16	33	12	36	0
OTU 137	0	0	12	27	0	0	0	4	0	0	3	0	1	25	5	8	37	0	0	92	0	0	0	3	0	0	0	3	0	0	0	2	128	0	62	0	75	14	0	0	0	0	0	0	2	0	1	1	2	1
OTU 138	0	0	0	52	0	0	3	0	0	5	17	49	0	1	24	32	33	30	25	0	0	0	1	28	0	84	19	0	0	93	2	0	49	2	14	2	3	2	60	1	5	1	0	0	4	1	0	2	1	10
OTU 139	199	17	78	37	142	80	23	77	7	14	48	111	185	1	11	44	95	45	0	98	57	86	5	10	144	14	40	3	42	14	14	47	92	16	85	33	195	58	49	3	3620	41	276	113	38	82	116	158	175	115
OTU 140	26	46	8	169	129	31	791	58	22	5	36	151	156	46	76	113	267	139	41	239	139	63	57	1	445	126	196	46	6	68	47	85	1562	230	417	11	327	13	160	11	40	99	160	41	36	38	90	39	128	42
OTU 141	0	0	0	0	0	0	0	0	0	7	0	0	0	0	0	0	0	0	0	0	130	0	0	0	0	0	0	0	0	0	0	0	0	0	0	1	0	0	0	3	0	0	0	0	0	0	0	0	0	0
OTU 142	0	1	0	11	0	0	25	0	0	0	0	0	0	0	0	0	4	0	0	0	6	1	0	0	0	0	1	0	11	0	0	8	0	0	0	0	0	0	0	0	0	0	0	0	0	0	0	12	0	0
OTU 143	24	1	16	3	20	0	0	5	0	1	0	25	0	2	15	0	36	0	0	1	1	734	2258	12	0	2	8	23	8	32	0	0	1	2	63	21	0	31	0	87	16	10	0	17	0	8	0	11	22	0
OTU 144	14	0	0	3	0	1	62	14	0	17	0	3	10	0	1	7	18	4	0	1	2	1	6	0	12	0	6	0	0	0	0	3	64	0	0	17	0	13	14	2	3	0	0	0	2	0	0	2	0	2
OTU 145	44	43	0	144	33	8	73	141	1	7	0	26	19	218	7	2	20	16	0	33	88	26	42	33	90	0	46	1	24	78	1	48	0	134	18	22	36	0	25	47	7	9	132	0	16	13	81	94	53	139
OTU 146	20	0	60	13	128	7	65	98	15	54	25	10	5	171	28	1	38	10	31	55	10	0	16	18	10	71	27	2	7	9	43	24	0	14	20	4	110	5	3	0	120	11	296	8	31	0	120	4	3	33
OTU 147	0	1	0	7	65	1	17	1	0	2	102	5	0	65	0	16	163	80	1	1	4	0	0	0	34	0	15	2	0	38	3	0	331	1	9	3	27	0	11	2	0	0	5	0	24	0	10	0	1	0
OTU 148	182	0	114	5	117	15	22	43	11	0	3	5	28	110	2	8	53	28	23	7	3	34	13	27	3	216	1	1	10	95	12	170	52	605	172	4	32	11	8	63	972	0	20	62	9	43	12	22	105	24
OTU 149	0	0	0	12	34	1	52	2	3	6	51	1	0	0	1	5	0	1	2	0	47	7	0	0	0	1	9	1	9	0	7	2	4	2	1	12	32	0	0	4	26	1	63	6	0	0	44	13	9	29
OTU 150	1	6	0	1440	31	6	0	7	0	0	9	0	0	1	0	0	52	0	0	23	0	0	0	0	3	2	60	3	0	0	0	1	0	0	0	0	2	8	6	6	0	0	0	4	0	0	0	0	1	0
OTU 151	19	4	0	485	2	26	82	7	8	1	25	12	0	31	15	0	0	1	61	0	0	7	11	51	8	10	20	74	5	0	21	7	38	43	41	9	0	8	17	10	6	195	5	59	8	6	11	6	15	2
OTU 152	71	14	143	6	11	3	4	30	17	11	8	85	73	37	11	1572	103	3089	33	45	0	111	0	29	19	10	105	11	302	3	48	81	1	12	55	3	36	73	3	12	27	59	7	10	3	55	77	96	195	2
OTU 153	0	0	0	0	0	8	0	0	0	17	3	0	0	0	0	0	0	0	0	0	11	0	2	0	0	3	0	0	0	2	0	8	0	0	2	0	0	0	1	109	0	0	0	0	0	0	0	0	0	0
OTU 154	0	12	1	0	0	0	0	0	0	1	0	0	0	0	5	6	0	5	0	0	0	0	110	0	0	35	0	0	36	0	0	0	0	14	0	9	0	2	0	9	0	0	443	23	3	0	0	1	3	0
OTU 155	84	1	0	0	30	2	0	0	0	0	0	8	0	5	0	0	36	0	0	0	40	1	0	0	4	17	5	1	24	0	0	5	26	15	5	1	14	0	1	0	25	8	0	6	1	1	1	3	1	3
OTU 156	28	160	36	112	44	39	5	74	1	67	11	12	2	181	71	14	16	1	17	35	17	11	40	68	32	6	9	5	18	16	4	18	137	25	109	5	1	16	5	33	72	104	32	57	4	10	93	15	39	9
OTU 157	0	0	3	33	22	1088	0	69	0	17	5	2	0	28	2	0	28	5	4	0	10	0	5	18	30	5	0	0	0	0	1	0	52	0	111	0	2	2	0	3	0	5	22	0	0	0	16	0	0	474
OTU 158	0	0	0	0	0	0	0	0	3	109	0	0	0	44	0	0	1	0	0	13	0	0	7	0	0	0	0	0	0	0	7	0	15	0	1	0	0	0	0	0	2	0	59	0	0	0	0	0	0	0
OTU 159	1	15	32	16	3	0	468	27	2418	58	9	3	27	194	0	37	6	134	0	154	83	9	2	4	104	0	25	0	0	9	0	6	67	1	15	1	23	44	90	127	62	1	24	24	16	0	24	3	6	17
OTU 160	119	351	22	72	316	85	64	43	12	123	17	139	715	136	42	482	0	993	53	243	36	5	1596	77	12	68	159	56	16	77	22	40	87	89	22	7	1462	25	1812	729	29	138	61	5	3	5	70	11	6	47
OTU 161	143	4	64	0	302	5	72	40	10	22	99	35	12	274	2	6	83	2	18	161	24	11	4	24	14	20	1	2071	125	9	28	100	54	7	60	1914	22	4154	0	95	68	21	31	33	2	20	567	192	8	7
OTU 162	1051	4	61	20	28	119	253	39	38	31	44	1	0	14	47	21	7	44	154	6	41	58	21	64	38	23	18	139	79	4	69	526	8	161	6	31	68	164	102	69	0	410	33	2	2403	21	84	1109	101	3
OTU 163	0	0	0	0	0	0	24	0	0	9	0	0	0	0	0	0	0	0	0	3	0	0	0	0	0	112	0	0	0	0	0	0	1	0	0	0	0	0	0	0	3	0	0	0	0	12	0	0	0	0
OTU 164	0	0	1	0	64	0	0	0	0	0	0	18	0	0	0	0	0	1	0	0	0	3	1	0	0	0	0	0	0	0	0	0	0	0	0	0	0	0	0	11	0	0	0	0	0	1	1	0	5	29
OTU 165	85	13	0	8	14	6	6	13	0	11	27	14	0	34	9	1	2	2	19	0	0	7	721	0	0	2	6	1	1	54	1	64	10	1	62	3	11	1	1	3	21	6	13	8	1	3	7	12	17	57
OTU 166	0	0	0	0	0	0	0	6	0	0	0	0	0	0	0	0	0	0	0	0	3	0	0	0	0	0	0	0	0	0	0	0	0	0	2	0	0	0	0	0	0	0	0	0	0	0	0	0	0	0
OTU 167	13	55	1	1	9	63	26	36	13	119	62	1334	1	168	0	24	10	29	23	3	0	12	3	0	18	0	3052	11	72	23	15	6	0	61	17	2	2	0	0	6	0	0	40	3	0	7	12	56	20	1
OTU 168	1	75	24	2	13	104	4	2	0	132	25	7	21	155	0	0	2	10	1	2	32	17	53	0	2	20	1	6	0	24	1	25	15	4	12	0	45	0	10	44	99	2	45	185	14	6	0	12	13	13
OTU 169	0	0	0	0	0	0	0	1	0	0	3492	0	0	0	0	13	0	27	0	0	2	0	0	0	0	0	20	0	0	0	0	0	0	0	0	0	0	0	125	0	0	0	0	0	0	3	0	0	0	0
OTU 170	0	0	0	0	0	0	0	0	2	0	0	9	7	0	0	0	0	3	0	1	0	0	0	0	0	0	0	0	0	0	4	0	0	0	0	0	17	0	1	0	0	0	0	0	4	0	0	1	0	0
OTU 171	29	0	16	199	185	0	0	0	5	13	16	516	99	16	2	4	41	11	115	1688	5	58	71	12	3	7	1046	76	1	56	12	26	2	10	113	25	149	26	16	41	37	0	3	9	2	41	14	29	91	14
OTU 172	0	0	3	0	8	2	0	0	10	0	0	0	0	0	5	1	0	0	0	0	1	7	114	2	0	1	0	5	0	88	17	0	3	0	0	0	0	0	17	0	0	0	33	3	4	16	0	0	12	29
OTU 173	2	39	7	0	0	0	0	5	0	0	42	3	0	0	22	0	80	0	0	13	16	0	0	3	1	2	124	2	0	2	0	0	38	0	4	0	4	0	0	6	0	0	0	41	4	0	32	15	0	0
OTU 174	0	0	15	11	29	9	91	8	4	23	7	0	0	0	0	19	0	22	6	48	2	0	12	1	86	0	13	21	1	43	10	0	1	2	98	0	0	7	13	7	19	43	28	2	0	0	1	19	1	23
OTU 175	19	11	0	5	0	7	63	0	2	0	0	15	5	0	5	0	48	0	57	1	6	55	80	0	8	19	6	0	0	18	8	29	10	13	0	4	1	27	7	90	55	36	18	6	0	65	25	0	151	1
OTU 176	50	1	28	18	40	0	95	139	1	8	0	47	3	183	9	23	219	32	0	0	39	18	64	8	39	47	88	2	47	91	5	0	5	8	3	10	0	4	0	26	35	54	29	17	17	8	2	14	27	25
OTU 177	739	7	127	218	219	9	47	106	6	0	52	5	0	18	11	17	19	38	5	65	24	25	25	19	70	2	4	3	18	179	14	380	0	204	50	19	6	83	105	21	6	40	0	16	8	19	17	322	42	15
OTU 178	181	26	11	26	5	9	123	2	0	69	1	30	7	0	0	3	1	18	0	33	5	0	6	2	0	39	19	0	0	12	0	85	44	20	36	1	4	7	136	2	2	57	7	6	1	6	4	2	0	57
OTU 179	41	0	23	2	172	12	7	56	5	9	14	100	31	30	4	0	10	0	34	38	9	9	0	12	6	11	114	1	3	63	6	138	152	3	61	1	2	6	0	16	6	30	1	81	8	12	0	33	19	0
OTU 180	32	150	2158	114	242	83	111	113	8	239	73	57	52	25	15	38	132	62	59	112	278	47	233	70	119	76	62	73	43	42	17	33	4	393	125	36	40	53	43	70	29	284	674	104	42	40	63	24	77	31
OTU 181	0	15	27	19	111	0	24	3	0	1	9	0	0	1	5	2	23	25	11	8	26	0	62	5	4	0	123	1	9	0	0	0	0	2	121	9	1	9	15	26	1	50	3	4	0	0	5	2	1	2
OTU 182	4	0	0	0	0	15	0	28	1	2	0	0	0	0	0	28	0	29	0	2	0	0	0	0	0	0	10	0	0	0	1	0	9	0	0	0	4	0	22	0	1	0	5	0	0	0	0	0	0	0
OTU 183	53	0	0	3	2	23	40	10	0	9	0	867	26	60	28	69	33	164	0	100	0	0	3	44	41	250	3	1	2	0	0	5	69	307	2	1	2	2	214	44	5	47	2	0	4	0	27	175	3	29
OTU 184	2	48	0	0	7	0	82	0	100	21	0	0	11	65	0	0	0	0	326	2	10	0	0	0	0	55	0	6	1	19	209	15	0	67	2	1	16	0	0	5	0	0	20	1	16	1	0	0	7	4
OTU 185	61	1	5	48	0	10	11	1431	1	14	5	40	3	21	11	0	0	35	12	28	40	24	10	10	20	190	42	1	595	8	5	1	128	400	20	0	1	0	27	21	3	17	10	21	0	39	69	7	50	92
OTU 186	0	84	0	0	0	0	0	13	0	30	1	3154	3	0	5	9	6	13	7	0	9	0	0	0	18	0	4	0	33	2	1	6	0	48	90	0	7	0	102	0	1	1	0	0	3	0	31	0	0	0
OTU 187	141	34	444	193	82	25	9	6	29	65	186	3	105	52	62	13	21	8	57	1	338	40	29	92	11	155	52	17	58	113	54	49	178	141	56	7	151	7	102	110	98	23	43	27	1	36	75	33	89	24
OTU 188	65	7	11	112	60	565	81	81	164	17	7	19	63	56	343	15	60	73	496	14	3	582	15	417	93	111	3	281	98	33	350	3957	186	61	4	385	86	741	16	52	49	59	50	22	167	665	1	20	1184	30
OTU 189	92	46	120	44	3	106	74	97	95	48	149	120	18	25	19	7	39	4	473	19	37	19	81	75	25	38	190	25	4	82	175	26	49	47	218	12	13	15	46	16	18	121	28	126	72	17	25	13	57	126
OTU 190	0	5	0	12	0	0	37	0	0	0	12	0	0	80	0	0	2	1	1	0	0	9	0	0	3	215	0	0	0	0	0	4	0	91	45	0	0	0	0	0	0	0	906	0	6	1	0	0	4	72
OTU 191	39	25	29	3	96	10	4	115	4	41	6	28	21	96	5	7	3	12	1	15	23	0	112	13	478	152	13	21	21	20	12	22	166	9	116	40	41	41	49	55	73	220	77	6	32	0	113	23	0	28
OTU 192	32	18	69	54	89	33	16	23	3	154	202	2	45	298	6	0	194	10	9	17	88	10	117	2	32	171	24	6	109	362	7	75	29	85	37	9	161	1	14	102	49	186	221	3190	22	26	275	71	24	5
OTU 193	2	18	63	20	35	13	193	45	0	3	4	0	0	17	4	16	425	38	0	17	8	6	10	0	13	17	7	42	2	32	0	9	100	73	0	3	2	0	17	22	79	44	38	0	18	6	2	20	43	81
OTU 194	55	52	117	0	1	84	0	55	6	26	40	0	0	14	2	0	0	1	7	2	18	4	33	1	26	0	12	20	9	183	16	11	448	2	30	0	7	2	26	13	2	120	125	40	105	11	9	12	4	32
OTU 195	3	2	21	31	15	35	38	10	0	115	40	10	6	64	0	0	0	6	0	23	0	0	58	1	3	9	2	13	4	2	0	4	20	97	0	37	32	0	7	56	31	10	39	45	4	6	35	9	24	0
OTU 196	0	35	3	1	12	3	33	58	0	9	23	33	29	11	36	10	0	0	2	13	14	2	1	90	0	127	16	0	7	3	1	7	10	5	93	11	10	0	0	3	1	2	54	34	0	0	2	9	1	1
OTU 197	266	29	133	84	185	37	146	1	3	49	26	105	8	251	41	40	57	31	62	332	5	17	72	66	46	299	99	21	18	109	4	206	134	259	498	11	5	72	129	65	70	57	31	34	26	30	34	61	37	43
OTU 198	0	0	108	5	7	0	0	0	0	0	1	0	5	27	2	0	0	0	0	43	14	0	1	2	30	24	2	0	0	5	0	2	1	0	0	0	12	0	0	0	1	21	18	3	0	4	0	0	1	65
OTU 199	1	11	1	31	0	8	5	33	2	0	19	0	11	6	1	1	5	2	38	3	57	7	17	5	7	10	10	22	4	161	11	0	0	2	3	0	32	1	0	38	7	69	3	17	2	4	0	1	1	11
OTU 200	0	0	21	140	25	0	1	54	10	16	20	3	30	48	8	0	44	4	0	0	0	3	178	2	39	0	15	2	9	172	18	9	61	2	49	3	52	5	28	30	57	75	23	0	11	2	72	0	2	89
