	Host 1	Host 2	Host 3	Host 4	Host 5	Host 6	Host 7	Host 8	Host 9	Host 10	Host 11	Host 12	Host 13	Host 14	Host 15	Host 16	Host 17	Host 18	Host 19	Host 20	Host 21	Host 22	Host 23	Host 24	Host 25	Host 26	Host 27	Host 28	Host 29	Host 30	Host 31	Host 32	Host 33	Host 34	Host 35	Host 36	Host 37	Host 38	Host 39	Host 40	Host 41	Host 42	Host 43	Host 44	Host 45	Host 46	Host 47	Host 48	Host 49	Host 50	
OTU 1	0	25	0	0	0	0	0	41	7	0	0	0	0	70	0	0	0	0	0	0	0	0	0	17	0	0	0	1	35	0	0	0	0	0	0	0	21	12	12	6	19	0	0	12	0	0	0	0	0	5
OTU 2	0	0	0	0	0	0	0	1	0	0	0	0	0	0	1	0	0	0	1	0	0	2	1	0	0	0	0	0	0	0	1	0	0	0	0	0	1	0	0	0	0	0	0	0	0	0	0	0	0	0
OTU 3	0	0	0	0	0	0	0	0	0	0	0	0	0	0	0	2	0	0	0	0	1	0	0	0	0	0	0	0	0	0	65	0	0	0	0	0	0	0	0	0	0	0	0	0	0	0	1	0	0	0
OTU 4	0	0	0	0	0	0	0	0	0	0	0	0	0	0	0	0	0	0	0	0	0	0	0	0	0	0	0	0	0	0	0	0	0	0	0	0	0	0	0	0	0	0	0	0	0	0	0	0	0	0
OTU 5	5	7	27	1	19	0	2	17	3	8	18	4	25	22	60	51	8	5	0	18	3	15	28	3	1	10	6	51	10	110	19	0	134	9	4	34	7	3	7	40	30	13	12	21	55	13	0	48	4	1
OTU 6	0	0	0	1	0	0	0	1	0	0	0	0	0	0	0	1	0	0	0	0	0	0	1	0	0	0	0	0	0	0	8	0	0	8	1	0	0	0	0	0	0	1	0	0	0	1	0	0	0	0
OTU 7	3	0	2	0	0	1	0	0	0	0	0	2	0	0	0	1	0	0	2	0	0	204	0	0	3	3	6	121	30	3	0	4	1	0	10	1	12	8	0	0	1	3	2	0	0	0	0	0	0	5
OTU 8	0	1	0	0	0	0	0	0	0	0	0	1	1	5	0	1	0	125	1	2	0	0	200	0	4	1	0	0	1	2	0	3	0	1	1	3	1	1	0	1	1	2	1	1	2	1	3	0	1	0
OTU 9	0	0	0	0	0	0	0	0	0	2	1	0	0	0	0	0	0	0	0	0	0	0	0	1	3	0	0	2	0	0	0	0	0	0	0	0	0	0	0	0	0	0	0	0	0	0	0	0	0	0
OTU 10	0	0	0	0	292	0	0	0	0	2	0	1	0	0	0	0	0	0	0	0	0	0	0	0	0	0	0	0	0	0	1	0	0	0	0	0	0	0	0	0	0	0	0	0	0	0	0	0	0	0
OTU 11	0	1	0	0	0	0	0	0	0	0	1	0	0	1	0	1	2	0	0	1	0	1	0	0	0	1	0	1	0	1	1	0	0	0	0	0	0	0	0	0	0	0	0	0	0	0	1	3	1	0
OTU 12	0	0	2	1	8	0	0	2	0	0	0	1	0	0	0	2	0	2	1	0	0	0	2	0	0	0	0	0	0	0	0	0	0	0	0	0	0	0	0	0	1	0	0	0	0	0	0	0	11	0
OTU 13	0	0	0	0	0	0	0	0	0	0	0	0	0	0	0	0	0	0	0	0	0	0	0	0	0	0	0	0	0	3	0	0	0	1	0	0	0	0	0	0	1	0	0	1	0	0	0	0	0	0
OTU 14	0	0	0	0	0	1	0	0	0	0	1	0	0	0	0	0	0	1	1	0	0	0	0	0	0	0	0	1	0	0	0	0	0	0	0	0	0	0	0	0	0	0	1	0	1	0	0	0	0	0
OTU 15	0	0	0	0	0	0	0	0	0	0	0	0	0	0	0	0	0	0	0	0	0	0	0	0	0	0	1	0	0	1	0	0	0	0	0	0	0	0	0	0	0	0	0	0	0	0	0	0	0	0
OTU 16	0	0	0	0	0	0	1	0	0	0	0	0	0	0	0	0	0	0	0	0	0	0	0	0	0	0	0	0	0	0	0	0	0	0	0	0	0	0	0	0	0	0	0	0	0	0	0	0	0	0
OTU 17	0	0	0	0	0	0	0	0	0	0	1	0	14	1	0	0	0	0	0	0	0	0	1	0	0	0	0	2	0	0	1	0	0	0	0	0	0	0	0	0	0	0	0	0	0	0	2	0	0	1
OTU 18	0	1	2	0	0	5	0	1	1	0	0	0	0	0	0	0	0	0	1	0	1	4	0	0	0	0	0	0	1	0	3	3	0	0	0	0	0	1	0	3	0	3	2	0	1	0	1	2	1	0
OTU 19	0	0	0	0	0	0	0	0	0	0	0	0	0	0	1	0	0	0	0	0	0	0	0	0	0	0	0	0	0	0	0	0	0	0	0	0	0	0	0	0	0	0	0	0	0	0	0	0	0	0
OTU 20	0	0	0	0	0	2	1	0	0	0	2	1	0	0	0	1	0	0	0	0	0	0	0	0	0	0	0	0	1	0	3	0	1	2	0	0	1	0	0	0	0	0	1	0	0	1	0	1	0	0
OTU 21	0	0	1	0	2	0	0	0	0	0	0	0	1	0	2	0	0	0	0	0	0	2	2	0	36	0	0	0	1	0	0	1	0	0	0	0	0	0	0	0	0	0	1	0	0	1	0	0	1	1
OTU 22	0	0	0	0	0	0	0	0	0	0	0	0	0	0	0	0	18	1	0	2	0	1	4	0	0	0	0	4	0	1	2	0	0	226	1	0	0	0	0	0	0	0	4	0	2	0	1	2	0	0
OTU 23	0	0	1	0	0	1	0	0	0	0	0	0	0	0	0	0	0	0	0	0	0	0	0	0	0	0	0	1	0	0	0	0	0	0	0	1	0	0	0	0	0	0	0	0	0	0	0	1	0	0
OTU 24	2	0	0	1	0	2	0	0	0	2	0	0	0	0	1	0	0	0	0	0	0	0	0	0	1	0	0	1	0	0	0	2	0	0	0	0	0	1	0	0	0	0	0	0	0	0	0	0	0	0
OTU 25	0	0	0	0	0	0	0	0	0	0	0	0	0	0	0	0	1	0	0	0	0	0	0	0	0	0	0	0	0	0	0	0	0	0	0	0	0	0	0	0	0	0	0	0	0	1	0	0	0	0
OTU 26	0	0	0	0	0	0	0	2	0	0	0	0	0	0	0	0	0	0	0	0	0	0	0	0	0	0	0	0	0	0	0	1	0	0	0	0	0	0	0	0	0	0	0	0	0	0	0	0	0	0
OTU 27	0	0	0	0	0	0	0	0	0	0	0	0	0	0	0	0	0	0	0	0	0	0	0	0	0	0	0	0	0	0	0	0	0	0	0	0	0	0	0	0	0	0	0	0	0	0	0	0	0	0
OTU 28	0	0	0	0	0	0	1	1	0	2	2	1	0	4	0	12	9	2	0	0	0	1	1	0	1	0	0	0	0	1	0	0	1	0	0	0	0	0	0	0	0	0	0	0	1	0	0	2	0	2
OTU 29	1	0	0	0	0	0	1	0	0	0	0	0	2	0	0	1	3	0	0	3	3	0	0	0	0	0	1	1	0	0	2	0	1	0	0	0	0	0	0	0	2	0	0	1	5	3	104	0	0	0
OTU 30	0	0	0	0	0	0	0	0	0	0	0	0	0	0	0	0	0	0	0	0	0	0	0	0	0	0	0	0	0	0	0	0	0	0	0	0	0	0	0	0	0	0	0	0	0	0	0	0	0	0
OTU 31	0	0	0	0	0	0	0	2	0	0	0	0	0	0	0	0	0	0	0	0	0	0	0	0	0	0	0	0	89	0	0	0	0	0	0	0	46	41	0	0	0	0	0	0	0	0	0	0	0	20
OTU 32	0	1	4	0	1	0	1	1	22	0	0	1	0	1	0	0	0	2	0	1	1	1	0	0	1	0	0	0	0	3	0	0	0	1	0	0	0	0	49	12	11	44	0	5	0	0	3	43	1	0
OTU 33	0	0	0	0	0	0	0	0	0	0	0	1	0	0	0	0	0	1	0	0	0	0	0	0	1	0	0	0	0	0	2	0	3	0	0	0	0	0	0	1	0	0	0	0	0	0	0	0	0	0
OTU 34	1	0	0	0	0	1	0	0	0	1	1	0	0	0	0	0	0	0	4	1	1	0	0	0	0	1	0	0	0	5	139	1	0	1	0	0	0	0	0	0	0	1	0	0	0	0	0	0	0	2
OTU 35	0	1	0	0	2	0	0	0	0	0	0	0	0	0	0	1	0	0	0	0	0	0	0	0	0	0	0	0	0	0	0	0	0	0	1	0	0	2	0	0	0	0	0	0	0	0	0	0	0	0
OTU 36	0	2	1	1	0	0	1	0	1	0	0	0	0	0	0	0	0	0	0	0	0	0	1	2	0	0	0	1	0	0	0	0	0	1	0	1	0	0	1	0	0	0	0	0	0	0	0	0	0	0
OTU 37	0	0	0	0	0	0	0	0	0	0	0	0	0	0	0	1	0	0	0	0	3	0	0	0	0	0	0	0	0	0	0	0	0	0	0	0	0	0	2	0	0	0	0	0	0	0	0	0	0	0
OTU 38	0	36	0	2	0	0	0	66	14	0	1	0	0	145	0	1	0	0	0	10	0	0	0	36	0	1	0	0	28	0	1	0	0	0	1	0	14	16	33	17	23	0	0	14	1	0	0	24	0	12
OTU 39	0	0	0	0	0	0	0	0	0	0	149	0	0	0	1	1	0	0	0	0	0	0	0	0	0	0	0	0	0	0	0	1	0	0	0	0	0	0	0	0	0	0	0	0	0	0	0	1	0	0
OTU 40	3	0	1	0	0	0	0	1	1	0	0	0	0	0	0	0	0	0	3	0	0	0	0	0	0	259	0	1	0	2	0	0	2	0	1	4	0	0	0	0	0	0	1	0	2	0	0	0	3	0
OTU 41	0	0	0	0	0	1	25	0	0	0	0	0	0	1	0	2	0	2	0	1	0	0	0	0	1	0	0	0	1	4	0	0	0	0	0	1	0	1	0	1	2	0	1	0	0	1	0	0	0	0
OTU 42	9	0	0	0	0	0	0	0	0	0	0	0	0	0	0	0	0	1	0	0	0	0	0	0	0	0	0	0	0	0	0	0	0	1	0	0	0	0	0	0	0	0	0	0	0	0	0	0	0	0
OTU 43	0	0	0	0	0	0	0	0	0	0	0	0	0	0	0	0	0	0	0	0	0	0	0	0	0	0	0	0	0	0	0	0	0	0	0	0	0	0	0	0	0	0	0	0	0	0	0	0	0	0
OTU 44	0	0	0	0	0	0	0	0	0	0	0	0	0	0	0	0	0	0	0	0	0	2	2	0	0	0	0	0	1	0	0	0	0	0	2	1	0	0	0	0	0	0	0	0	0	0	0	0	0	0
OTU 45	0	0	2	0	19	323	0	0	160	0	0	0	1	0	0	1	2	1	2	0	0	1	2	0	1	0	1	0	1	0	0	0	0	0	0	1	1	3	1	1	0	0	0	0	3	0	153	2	1	3
OTU 46	0	0	0	0	2	0	0	0	1	0	2	0	0	2	4	1	0	0	0	140	0	2	0	0	0	0	3	1	1	0	0	1	0	1	0	0	0	2	0	0	0	0	1	0	0	0	0	0	0	0
OTU 47	0	0	0	0	0	0	0	0	0	0	0	0	0	0	0	0	0	0	0	1	0	0	0	0	0	0	0	0	0	0	0	0	0	0	0	0	0	0	0	0	0	0	0	0	0	0	0	0	0	0
OTU 48	10	0	1	0	1	1	3	0	0	3	2	0	0	0	0	0	0	3	0	0	0	0	0	0	0	0	3	0	1	1	2	2	2	0	0	0	1	2	0	7	14	0	1	4	0	0	1	0	0	0
OTU 49	4	1	0	0	0	0	0	0	1	0	0	0	0	0	0	0	0	0	0	0	0	0	0	0	0	0	0	0	0	1	0	0	0	2	0	0	0	1	0	0	0	0	0	0	2	0	1	0	0	0
OTU 50	0	0	10	0	0	0	0	0	1	0	1	0	0	0	0	5	0	0	0	2	0	0	0	0	1	1	1	0	0	1	0	0	53	1	1	1	0	1	0	0	5	0	0	0	0	0	0	1	0	0
OTU 51	0	0	0	0	0	0	1	0	0	0	0	0	0	0	0	0	0	0	0	0	0	0	1	0	0	1	0	0	0	0	0	0	0	3	0	0	0	0	0	8	23	0	0	11	0	0	0	0	0	0
OTU 52	1	0	0	0	0	4	300	1	0	286	1	0	0	2	3	0	0	0	0	0	1	0	0	1	0	0	0	2	0	0	1	0	1	0	1	0	0	1	0	1	0	0	0	0	0	0	1	1	1	1
OTU 53	0	0	0	0	0	0	0	0	0	0	0	0	0	0	0	0	0	0	0	0	0	0	0	0	0	0	0	0	0	0	0	0	0	0	0	0	0	0	0	0	0	0	0	0	0	0	0	0	0	0
OTU 54	2	0	20	1	0	0	1	0	0	3	0	2	0	1	1	1	1	0	1	2	0	0	5	1	0	0	1	2	0	1	0	0	0	0	0	0	0	0	0	47	83	2	2	46	1	1	2	0	1	2
OTU 55	0	0	0	0	0	0	0	0	0	0	0	0	0	0	0	0	0	0	0	0	0	0	0	0	0	0	0	0	0	0	0	0	0	0	0	0	0	0	0	0	0	0	0	0	0	0	0	0	0	0
OTU 56	1	0	0	3	0	0	0	0	0	1	0	0	0	0	0	0	1	0	0	0	0	0	2	0	0	1	0	0	0	1	0	0	0	0	0	0	0	0	0	0	0	0	0	0	0	0	0	0	0	0
OTU 57	0	1	78	5	0	3	4	0	0	0	2	1	0	0	1	0	0	0	0	1	2	1	1	0	0	0	0	2	0	0	1	0	1	0	0	0	1	0	0	0	0	2	0	0	1	72	0	0	0	0
OTU 58	0	1	0	0	0	0	0	0	1	1	0	0	0	0	0	0	0	0	0	0	0	0	0	0	0	0	0	0	0	0	0	0	1	2	3	0	0	0	0	0	2	0	0	0	0	0	0	1	0	1
OTU 59	0	0	0	0	0	0	0	117	20	1	0	0	0	0	0	0	0	0	0	0	5	0	0	53	0	0	0	0	2	0	0	0	0	0	2	0	0	0	52	0	0	0	0	0	0	0	0	0	0	0
OTU 60	0	0	1	0	2	11	0	0	0	1	0	2	1	2	0	0	0	0	2	0	4	1	0	1	0	58	0	0	0	0	0	0	0	0	0	0	0	0	2	0	0	2	1	0	0	2	0	1	1	1
OTU 61	0	0	1	0	1	2	1	0	0	1	1	2	0	0	6	0	0	1	2	0	0	0	1	0	2	0	1	2	0	0	0	0	0	1	1	2	0	0	0	1	1	2	0	1	1	0	0	2	0	0
OTU 62	0	0	1	0	2	1	0	0	0	0	0	0	0	0	0	0	0	0	0	0	0	0	0	1	0	0	0	0	0	0	0	0	1	0	1	0	0	0	0	0	1	0	0	0	0	0	0	0	1	0
OTU 63	0	0	1	0	0	0	0	0	0	0	0	1	0	0	0	2	0	0	0	0	0	0	0	1	0	1	1	1	0	0	0	5	0	0	1	1	0	0	0	0	0	0	0	0	0	2	0	0	0	0
OTU 64	0	0	1	0	2	0	0	1	0	25	1	2	2	3	1	1	2	1	0	45	3	1	1	1	1	0	1	0	0	1	0	0	0	1	0	0	0	0	1	0	0	0	3	0	3	0	2	0	1	0
OTU 65	0	0	0	0	0	0	0	0	0	0	0	0	0	0	0	0	0	0	0	0	1	0	0	0	0	0	0	0	0	0	0	0	0	0	0	0	0	0	0	0	0	0	0	0	0	0	0	0	0	0
OTU 66	0	0	0	0	1	0	0	0	0	2	0	1	0	0	0	0	0	0	0	1	1	0	1	0	0	0	0	0	0	0	0	1	1	1	0	1	0	0	0	0	0	0	0	0	1	0	1	1	0	0
OTU 67	0	0	0	0	0	1	1	0	0	0	2	1	0	0	0	0	1	0	0	0	0	0	0	1	0	1	0	1	0	0	0	0	0	2	1	0	0	0	0	0	0	0	20	0	0	1	4	0	0	0
OTU 68	0	0	1	3	0	0	0	0	0	0	0	224	0	0	0	0	0	0	0	0	0	0	0	0	0	0	0	0	0	0	0	0	0	0	0	0	0	2	0	0	0	0	0	0	0	0	1	0	0	0
OTU 69	0	1	0	0	1	0	1	0	1	0	2	1	0	0	0	0	3	0	1	0	1	1	1	0	0	0	1	0	3	1	0	2	0	2	0	0	1	1	0	0	0	1	0	0	0	1	1	0	0	0
OTU 70	0	0	0	0	0	0	0	1	20	0	0	1	0	0	1	1	0	0	0	0	0	0	0	0	0	0	2	0	0	0	2	1	0	0	0	0	0	0	60	0	0	0	0	0	0	1	1	0	0	0
OTU 71	0	0	0	1	0	0	0	0	0	0	0	0	1	0	0	0	1	0	0	0	0	0	0	10	0	0	0	13	0	0	0	0	0	0	0	0	0	0	0	0	0	0	0	0	1	0	0	0	0	0
OTU 72	0	0	0	0	0	0	0	1	0	1	0	1	0	3	1	0	0	2	0	0	0	0	0	0	0	0	0	1	0	0	2	0	2	2	0	0	0	0	0	0	0	0	0	0	32	0	1	0	0	0
OTU 73	1	0	0	0	0	0	0	0	0	0	0	0	0	0	0	0	0	1	0	0	0	0	0	0	0	0	0	0	0	0	0	0	0	0	1	0	0	0	1	0	1	0	0	0	0	0	0	0	1	0
OTU 74	0	0	1	0	0	1	1	0	0	0	1	1	0	0	1	1	0	0	0	0	0	0	0	0	2	0	0	0	0	0	0	0	0	0	1	0	0	0	0	0	1	0	0	8	0	0	0	0	0	0
OTU 75	0	1	0	2	0	0	0	0	0	0	0	0	0	0	1	0	1	0	0	0	0	0	0	0	1	0	0	153	0	0	0	0	0	0	0	0	1	0	0	0	0	0	1	0	0	0	1	0	0	0
OTU 76	0	0	0	0	0	0	0	0	0	0	0	0	0	0	0	0	0	0	0	0	0	0	0	0	0	0	0	0	0	0	1	0	0	0	1	1	0	0	0	0	0	47	0	0	0	0	0	0	0	0
OTU 77	0	1	0	1	0	0	0	1	0	3	1	1	0	0	4	0	0	0	1	0	0	0	0	3	0	1	0	1	0	0	0	0	2	2	0	0	0	0	0	0	0	0	2	0	0	0	1	1	0	1
OTU 78	0	0	0	1	0	1	0	1	0	0	0	0	183	0	0	1	1	0	0	0	0	0	0	0	0	0	0	0	0	0	97	0	0	0	0	1	0	0	0	71	0	0	0	0	0	0	0	0	215	0
OTU 79	1	1	2	1	4	2	0	1	3	0	2	0	121	0	1	2	0	3	2	2	0	3	3	0	0	2	1	0	0	1	1	0	0	1	1	1	0	1	1	3	0	1	1	0	3	0	1	206	0	1
OTU 80	2	0	0	36	2	0	2	0	0	1	0	0	0	0	0	0	0	1	3	0	0	0	0	0	0	1	1	0	0	0	0	0	0	0	0	0	0	0	3	0	1	0	0	0	0	0	0	0	1	0
OTU 81	0	0	0	0	1	1	0	0	0	0	1	0	0	0	0	0	0	1	2	0	2	0	0	0	0	0	0	0	0	1	5	2	1	0	2	2	0	1	0	0	0	2	1	0	1	1	0	0	10	0
OTU 82	0	0	0	0	1	0	0	0	0	1	0	2	1	0	0	0	1	0	1	0	0	0	0	0	0	0	0	0	0	0	2	272	0	3	0	0	0	0	0	0	0	1	0	0	0	180	0	1	0	0
OTU 83	0	0	0	0	0	0	1	0	0	1	0	0	0	0	0	0	0	0	0	0	0	0	0	0	0	0	1	0	1	0	0	0	0	0	0	0	1	0	0	0	0	0	0	0	0	0	0	0	0	0
OTU 84	0	0	0	0	0	0	0	0	0	0	0	0	0	1	0	0	0	1	0	0	0	0	0	0	0	0	0	0	0	0	0	0	0	0	0	1	0	0	0	0	0	0	1	0	0	0	0	0	0	0
OTU 85	0	0	0	0	0	0	0	0	0	0	1	0	1	0	1	0	0	0	0	0	0	0	0	1	0	0	0	0	0	0	0	3	2	0	0	0	0	0	0	0	0	0	0	0	0	0	0	0	0	0
OTU 86	0	0	0	0	0	0	0	0	0	0	0	0	0	0	0	0	0	0	0	0	0	0	0	0	0	0	0	0	0	0	0	0	0	0	0	0	0	0	0	2	0	0	0	0	0	0	0	0	0	0
OTU 87	0	0	0	0	0	0	0	0	0	0	0	1	1	0	29	0	0	0	0	1	0	0	0	0	0	0	0	0	0	0	0	0	0	0	0	0	0	0	0	0	0	0	1	0	1	0	1	1	0	0
OTU 88	0	0	0	0	0	0	0	0	0	0	0	0	0	0	0	0	0	0	0	0	0	0	0	0	0	0	0	0	0	0	0	0	0	0	0	0	0	0	2	0	1	3	0	0	0	0	0	0	0	0
OTU 89	0	0	0	1	0	2	0	0	0	0	0	1	0	0	0	0	0	0	0	0	0	0	0	1	0	0	0	0	1	0	0	0	0	0	0	179	0	0	0	1	1	0	1	0	1	0	0	0	0	0
OTU 90	0	0	0	0	0	0	0	0	0	0	0	0	1	2	0	1	0	0	0	0	0	0	0	0	1	0	0	0	0	2	0	0	0	0	0	0	0	0	0	0	1	0	0	0	1	0	0	0	0	0
OTU 91	0	0	0	0	0	0	0	0	0	0	0	0	0	0	0	0	0	0	0	0	1	0	0	0	0	0	0	0	0	0	0	0	0	0	0	2	0	0	0	0	0	0	0	0	0	0	0	0	0	0
OTU 92	0	0	1	0	1	0	0	0	0	0	0	0	0	1	0	0	0	5	0	0	0	1	0	0	0	0	0	0	0	0	0	1	0	0	0	0	0	0	0	0	1	0	1	0	0	0	1	0	0	0
OTU 93	0	1	0	0	0	0	0	0	0	0	0	0	0	0	0	0	0	0	0	0	0	0	0	0	0	0	0	0	0	0	0	0	0	0	0	0	0	0	0	0	0	0	0	0	0	0	0	1	0	0
OTU 94	0	0	0	2	0	1	1	0	0	0	2	0	0	1	0	3	0	0	0	1	2	0	0	1	0	8	2	2	0	0	2	0	0	1	0	0	0	1	0	0	0	0	0	1	1	0	3	0	0	0
OTU 95	0	0	0	0	0	0	0	0	0	0	0	1	0	0	0	0	0	0	0	0	0	0	0	0	2	0	0	0	0	2	0	0	0	0	0	0	0	1	0	0	0	0	0	0	0	0	0	0	0	0
OTU 96	0	0	0	0	0	0	0	1	0	0	0	0	0	1	0	0	0	0	0	0	0	0	0	0	0	0	0	0	0	0	0	0	0	0	0	0	1	0	0	0	0	0	0	0	0	0	0	0	0	0
OTU 97	0	7	0	0	0	0	0	12	1	0	0	0	0	19	0	0	0	0	0	0	0	0	0	11	0	0	0	0	10	0	0	0	0	0	0	0	1	1	2	1	5	0	0	1	0	0	0	0	0	1
OTU 98	0	0	0	118	0	1	1	3	0	0	0	0	0	0	1	0	0	0	0	0	0	3	0	0	0	0	0	0	0	0	0	0	0	0	1	0	0	0	0	1	0	0	0	0	0	0	3	0	0	0
OTU 99	1	1	0	1	0	0	0	0	0	0	3	1	0	2	0	1	0	0	0	1	0	0	0	0	0	1	88	0	0	1	1	0	0	1	1	0	0	1	1	0	0	0	0	0	0	1	1	3	0	1
OTU 100	0	0	0	0	0	1	0	0	0	0	1	0	1	0	0	0	0	0	0	0	0	0	0	0	1	1	0	0	0	0	0	1	0	1	0	4	0	0	0	0	0	1	0	0	0	0	0	0	0	0
OTU 101	0	0	0	0	0	0	0	0	0	0	0	0	0	0	0	0	1	0	0	0	0	0	0	0	0	0	1	0	0	0	0	0	1	0	0	0	0	0	0	0	0	0	1	0	0	0	0	0	0	0
OTU 102	1	0	0	0	0	0	0	0	0	0	0	0	0	0	0	0	0	0	0	0	0	1	1	0	0	0	0	0	0	0	0	0	0	0	0	0	0	1	0	0	0	0	0	0	0	0	0	0	1	0
OTU 103	1	0	1	0	0	0	0	0	1	1	0	1	0	1	0	0	0	0	0	0	0	0	0	2	1	0	0	0	0	0	0	2	1	0	0	0	0	0	1	0	0	0	0	0	0	0	0	0	0	0
OTU 104	0	1	0	0	0	0	1	0	15	0	2	0	2	1	1	0	0	1	1	0	0	0	0	2	41	0	0	0	0	1	0	0	0	0	0	0	0	0	38	0	1	1	0	3	1	0	0	0	2	1
OTU 105	0	0	1	0	0	0	0	0	0	0	0	0	0	0	0	0	0	0	2	0	0	0	0	0	0	0	0	0	0	0	0	0	0	0	0	0	0	0	0	0	0	1	0	0	0	0	0	0	0	0
OTU 106	1	0	0	0	0	0	0	0	0	0	0	0	0	0	0	0	0	0	0	0	0	0	0	0	0	0	0	1	0	0	1	0	0	1	0	0	0	0	0	0	0	0	0	0	0	0	14	0	1	0
OTU 107	0	0	0	0	0	0	18	1	0	0	0	0	0	0	0	0	0	0	0	0	0	14	0	0	0	0	0	0	1	0	4	1	0	0	0	0	0	2	1	0	1	0	0	0	0	0	0	0	0	0
OTU 108	0	1	1	1	0	2	0	0	0	1	1	0	0	0	1	0	0	0	0	1	0	3	0	0	0	0	1	0	10	0	0	0	0	0	0	0	6	0	0	0	0	0	0	0	1	0	0	0	0	2
OTU 109	0	0	0	0	0	0	0	0	0	0	0	0	0	0	0	0	0	0	0	0	0	0	0	0	0	0	0	0	0	0	0	0	0	0	0	0	0	0	0	0	0	0	0	0	0	0	0	0	0	0
OTU 110	0	0	0	1	0	0	1	0	0	0	0	0	2	0	0	0	0	0	0	0	0	1	1	0	1	2	1	0	0	139	0	1	61	0	1	0	0	0	0	0	1	0	0	0	0	0	1	0	3	0
OTU 111	0	0	0	0	0	0	0	0	0	0	0	0	0	0	5	0	0	0	0	0	1	0	0	0	0	1	0	0	0	0	0	0	0	0	0	0	0	0	0	0	0	0	0	0	0	0	0	0	0	0
OTU 112	0	0	0	0	0	0	0	0	0	0	0	0	3	0	0	0	2	0	0	0	0	0	0	0	0	0	0	0	0	2	0	0	0	1	0	0	0	0	0	0	0	0	0	0	0	0	0	0	0	0
OTU 113	0	0	0	0	0	0	0	0	1	0	0	0	0	0	0	0	0	1	0	0	0	0	0	0	0	0	0	0	0	0	0	0	0	0	0	1	0	0	2	0	0	0	0	0	0	0	0	0	0	0
OTU 114	0	0	0	0	0	3	0	0	0	1	2	2	1	0	3	1	2	0	1	0	86	0	0	1	0	0	1	0	0	0	0	0	0	0	0	1	1	0	1	1	0	98	0	0	0	0	0	1	0	0
OTU 115	0	0	0	0	1	1	0	0	0	1	0	2	2	1	1	0	0	0	1	0	24	32	1	0	0	0	0	1	1	0	2	0	2	0	0	1	0	0	0	0	0	0	0	0	2	0	60	0	1	0
OTU 116	1	74	3	1	0	0	0	0	11	0	0	0	8	0	0	0	3	1	2	0	1	0	1	0	0	0	0	0	76	0	1	0	0	0	2	1	46	35	0	1	1	1	0	0	2	1	2	3	0	16
OTU 117	0	0	0	0	5	0	1	0	0	0	0	0	1	0	0	0	0	0	1	0	1	0	0	0	0	4	4	0	0	0	1	0	0	0	0	0	0	3	0	0	0	0	0	0	1	0	0	0	0	2
OTU 118	0	0	0	1	0	0	0	0	0	0	0	0	0	0	0	0	0	0	1	0	0	0	0	0	0	0	1	0	0	0	0	0	3	0	0	1	0	0	0	0	0	0	0	0	0	0	0	0	0	0
OTU 119	1	0	0	180	0	3	0	0	0	2	0	0	0	2	0	0	0	1	0	0	0	0	0	0	0	0	0	3	0	0	0	0	1	5	0	1	0	1	0	0	0	2	1	0	0	0	1	0	0	0
OTU 120	0	12	0	0	0	0	0	0	0	0	0	0	2	0	0	0	0	3	0	0	0	0	0	0	0	0	0	0	0	0	0	0	0	0	0	0	0	1	0	0	0	0	0	0	0	0	0	2	0	0
OTU 121	2	0	0	5	0	0	0	0	1	0	0	0	0	0	1	1	0	0	0	2	1	0	1	0	1	0	0	0	0	3	1	0	0	0	0	0	0	0	1	0	0	1	0	54	0	0	0	3	0	0
OTU 122	1	0	0	2	0	0	0	0	0	2	0	0	0	0	0	0	0	1	0	0	0	1	0	1	0	0	0	0	0	42	1	0	0	0	0	0	0	0	0	0	1	0	0	1	1	0	0	2	0	1
OTU 123	0	135	212	2	1	2	0	0	23	6	4	1	2	0	4	3	6	1	5	0	1	1	18	1	1	0	1	6	4	0	1	62	1	2	1	3	0	0	42	0	4	5	51	0	2	2	0	9	0	0
OTU 124	0	2	0	0	0	0	0	0	0	0	0	0	0	0	0	0	0	0	0	0	2	0	0	0	1	1	0	0	0	0	0	0	0	0	0	0	0	0	0	0	0	0	0	0	0	0	0	0	0	0
OTU 125	4	0	4	0	8	2	1	1	1	1	2	3	0	0	1	1	1	0	0	3	1	81	1	0	1	0	1	0	2	13	2	2	0	0	0	123	0	23	0	1	1	5	1	0	0	1	1	0	2	8
OTU 126	0	0	0	0	0	0	0	0	0	0	0	0	0	0	0	0	0	0	0	0	0	0	5	0	0	0	0	0	0	0	0	0	4	0	0	0	0	0	0	0	0	0	0	0	0	1	0	2	0	0
OTU 127	0	0	0	0	0	0	0	0	0	0	0	0	4	0	1	2	0	0	0	0	1	0	0	0	0	0	0	0	0	0	1	0	87	0	1	0	0	0	0	0	2	2	0	0	1	1	0	0	0	0
OTU 128	4	3	1	4	0	1	2	0	0	2	2	1	0	0	1	2	4	2	2	2	0	1	3	0	3	2	14	2	33	3	1	4	0	3	0	0	58	193	0	1	1	0	1	142	0	1	2	1	0	105
OTU 129	0	0	0	0	0	0	0	0	0	0	0	0	0	0	0	0	0	0	0	0	0	0	0	0	0	0	0	0	0	2	0	0	1	0	0	0	0	0	1	0	0	0	0	0	0	0	0	0	0	0
OTU 130	0	0	0	0	2	0	0	0	0	0	0	0	0	0	0	0	0	0	0	0	0	0	0	0	0	0	0	0	1	0	0	0	0	0	0	0	2	0	0	0	0	0	0	0	1	0	0	0	0	0
OTU 131	0	0	0	0	0	0	0	0	0	0	0	0	1	0	0	0	0	0	0	2	0	0	3	0	0	0	0	0	0	1	0	0	0	0	0	0	0	0	0	0	0	0	0	0	0	22	0	0	0	0
OTU 132	0	0	0	0	0	0	0	0	0	0	0	0	0	1	0	0	0	0	0	0	1	1	0	0	0	0	0	0	0	0	0	0	1	1	287	0	0	0	0	0	0	0	0	0	201	0	0	0	0	0
OTU 133	0	0	0	0	0	0	0	1	0	0	0	0	0	0	0	0	1	0	0	0	0	0	0	0	0	0	1	0	0	1	0	0	0	0	1	0	0	0	0	3	0	0	0	0	0	0	1	0	0	0
OTU 134	0	0	0	0	0	1	1	0	0	0	0	1	0	0	0	0	0	0	0	0	0	1	1	0	0	3	0	0	0	0	0	0	0	1	0	0	1	1	0	0	0	0	0	0	0	0	0	0	0	0
OTU 135	0	1	0	0	0	0	0	2	0	0	0	0	1	1	0	1	1	0	0	1	2	2	0	0	0	0	0	1	0	2	0	0	0	0	0	0	0	0	0	0	0	0	0	0	1	1	1	0	0	0
OTU 136	0	0	1	0	0	0	0	0	0	0	0	0	0	0	0	0	0	0	0	0	0	0	0	0	0	0	0	0	0	0	0	1	0	0	0	2	0	0	1	0	0	0	0	0	0	0	0	0	0	0
OTU 137	0	0	0	1	0	0	0	0	0	0	0	0	0	0	0	0	0	0	0	1	1	0	0	0	0	0	0	0	0	22	0	0	1	0	0	1	0	0	0	0	0	0	0	0	0	0	0	0	0	0
OTU 138	0	0	2	0	0	0	0	0	0	0	0	0	0	0	0	0	0	0	0	0	0	0	0	0	0	0	0	0	0	0	0	1	0	0	0	0	0	0	0	0	0	0	0	0	0	0	0	0	0	0
OTU 139	0	1	0	1	0	0	1	0	0	0	2	1	1	0	3	0	0	0	0	1	0	0	1	0	0	0	0	0	0	0	1	1	1	88	0	1	1	0	1	0	1	0	0	0	3	0	0	3	0	0
OTU 140	1	6	2	0	0	0	0	0	0	0	2	0	0	1	4	0	1	0	1	2	2	2	7	2	4	1	0	0	0	0	2	1	1	0	1	0	0	0	0	1	0	0	230	0	48	0	1	1	0	0
OTU 141	0	0	0	0	0	0	0	0	0	0	0	0	0	0	0	0	0	1	0	0	0	0	0	0	0	0	0	0	0	0	0	0	0	0	0	0	0	0	0	0	0	0	0	0	0	0	0	0	0	0
OTU 142	1	0	0	0	0	0	0	0	0	0	0	0	0	0	0	0	0	0	0	0	0	0	0	0	0	0	0	0	0	0	1	0	0	0	0	0	0	0	0	0	0	0	0	0	0	0	0	0	2	0
OTU 143	0	0	0	0	0	0	0	0	0	0	0	0	0	0	0	0	0	0	0	1	0	0	0	0	0	0	0	0	0	0	0	4	0	0	0	0	0	0	1	0	0	135	0	0	0	0	0	0	0	0
OTU 144	0	0	0	1	0	0	0	0	0	0	0	0	0	0	0	0	0	0	0	0	0	0	0	0	0	0	0	0	0	0	0	0	0	1	0	1	0	0	0	0	0	0	0	0	0	0	0	0	0	0
OTU 145	1	0	0	0	0	1	1	0	0	1	0	0	0	1	0	0	0	0	4	0	0	1	0	0	0	0	4	2	0	1	0	0	0	0	1	3	0	0	3	0	0	0	0	0	1	71	1	0	0	0
OTU 146	1	0	0	0	0	0	0	1	0	0	50	0	0	1	0	0	0	0	0	136	0	1	0	0	2	1	0	0	1	1	0	0	3	2	1	0	0	0	0	22	16	0	0	7	0	0	0	0	0	1
OTU 147	0	0	0	0	0	0	0	0	0	0	0	0	0	0	1	0	0	1	0	0	0	0	0	0	0	1	0	0	0	0	0	1	0	0	0	1	46	0	0	0	0	0	0	0	0	0	0	1	0	1
OTU 148	0	0	0	0	1	0	0	0	0	0	0	2	0	0	0	1	0	0	1	0	0	2	1	0	4	0	0	0	1	2	0	0	0	1	1	0	2	0	0	0	0	0	7	0	0	0	0	0	0	0
OTU 149	0	0	0	0	0	0	0	0	0	9	0	0	0	0	0	1	0	0	0	0	0	0	0	2	0	0	0	0	0	0	1	0	0	0	0	0	0	0	0	0	0	0	0	1	0	0	0	0	0	0
OTU 150	1	0	0	0	0	0	0	0	0	0	0	0	0	0	0	1	1	0	1	0	0	0	0	0	0	0	0	1	0	0	0	0	0	0	0	0	0	0	0	1	0	0	0	0	0	0	0	0	0	0
OTU 151	0	1	0	2	0	0	0	0	0	0	0	0	0	0	0	0	0	0	0	0	0	0	0	0	0	0	0	1	1	0	1	1	0	0	0	3	100	0	0	0	0	1	0	0	1	2	1	0	0	0
OTU 152	0	0	1	0	0	0	0	0	0	0	0	84	0	0	1	1	0	0	0	0	1	1	1	0	1	2	0	0	0	0	1	0	1	0	1	0	0	1	0	0	0	0	4	0	1	0	0	1	1	0
OTU 153	0	0	0	0	0	0	0	1	0	0	0	0	0	0	0	0	0	0	0	0	0	0	0	0	0	0	0	0	0	0	0	0	0	0	0	0	0	0	0	0	0	0	0	0	0	0	0	0	0	0
OTU 154	0	0	0	0	0	0	0	1	0	0	0	0	0	0	0	0	0	0	0	0	0	0	0	0	1	0	0	0	0	0	0	0	0	0	0	0	0	0	0	0	0	0	0	0	0	0	0	0	0	0
OTU 155	0	0	0	0	0	1	0	0	0	2	2	0	0	0	0	0	0	1	0	0	0	0	0	0	1	0	0	0	0	0	0	0	0	1	0	0	0	0	1	1	0	0	0	0	0	0	0	0	0	0
OTU 156	0	24	0	1	3	0	0	56	18	0	0	1	0	84	48	150	1	0	0	0	0	0	3	24	0	2	0	2	40	1	0	0	0	0	2	1	22	23	33	22	18	0	2	12	0	0	0	0	0	8
OTU 157	0	0	0	0	0	0	0	0	0	0	0	0	0	0	0	0	1	0	0	0	0	0	0	84	0	0	0	0	1	0	0	0	0	0	0	0	0	0	0	0	0	2	0	0	1	0	0	0	0	0
OTU 158	0	1	0	0	0	0	0	0	0	0	0	0	0	0	0	0	0	0	0	0	0	0	0	0	0	0	0	0	0	0	0	0	0	0	0	0	0	0	0	0	0	0	0	0	0	0	0	0	0	0
OTU 159	0	28	0	1	0	0	0	0	0	0	0	0	0	0	1	1	1	0	0	0	0	0	0	0	4	0	1	0	0	1	0	0	0	0	0	0	0	0	0	0	0	0	0	0	0	0	0	0	0	0
OTU 160	0	0	0	0	1	0	2	12	2	1	0	0	0	0	0	1	0	0	0	1	0	0	2	9	1	3	0	2	0	1	1	0	2	0	0	0	0	0	3	0	0	1	2	0	1	0	1	1	0	0
OTU 161	0	0	1	3	0	0	0	0	0	0	26	0	0	1	2	1	0	1	0	0	2	1	0	0	1	1	0	0	0	0	0	0	0	0	2	1	0	0	0	0	0	0	26	0	1	0	0	0	0	0
OTU 162	29	0	0	0	0	0	6	8	1	0	0	3	1	3	1	0	0	0	2	1	0	0	2	2	0	2	0	1	0	0	0	0	0	0	0	1	1	1	3	62	1	1	2	0	0	2	0	1	2	4
OTU 163	0	0	0	0	0	0	0	0	0	0	0	1	0	0	0	0	0	0	0	0	0	0	0	0	0	0	0	0	0	0	0	0	0	0	0	0	0	0	0	0	0	0	0	0	0	0	0	0	0	0
OTU 164	0	0	0	0	0	0	0	0	0	0	0	0	0	0	0	0	0	0	3	0	0	1	0	0	0	0	0	0	0	0	0	0	1	0	0	0	0	0	0	0	0	0	0	0	0	0	0	0	0	0
OTU 165	0	0	0	0	0	0	1	1	0	0	0	1	0	1	0	0	0	0	0	0	2	0	0	0	0	0	0	2	0	0	0	0	0	0	0	0	0	0	0	0	0	0	0	0	0	1	0	0	0	0
OTU 166	0	0	0	0	0	0	2	0	1	0	0	0	0	0	0	0	0	0	0	0	0	0	0	0	0	0	0	0	0	0	0	0	0	0	0	1	0	0	0	0	0	0	0	0	0	0	0	0	0	0
OTU 167	0	0	0	0	1	0	0	0	0	0	1	0	2	0	3	0	0	0	0	0	0	0	0	0	0	2	0	0	0	0	0	0	0	0	0	1	0	0	0	0	0	0	0	0	0	0	0	0	0	3
OTU 168	2	0	0	0	0	1	2	0	0	0	2	14	0	0	0	1	281	0	0	0	0	0	0	0	0	0	0	1	0	0	0	0	0	0	0	0	0	0	1	0	0	0	0	0	0	0	0	1	1	0
OTU 169	0	0	0	5	0	0	1	0	0	0	0	0	0	2	0	0	0	0	0	0	0	0	0	0	0	0	0	0	0	0	0	0	0	0	0	0	0	0	0	0	0	0	0	0	0	0	0	0	0	0
OTU 170	0	0	0	0	0	0	0	0	0	0	0	0	0	0	0	0	0	0	0	0	0	0	0	0	0	0	0	0	0	0	0	0	0	0	0	0	0	0	0	0	0	0	0	0	0	0	0	0	0	0
OTU 171	0	0	0	0	0	0	0	0	0	0	0	0	1	0	0	2	0	62	252	1	0	0	0	0	0	1	0	1	1	0	0	0	1	0	0	0	0	0	0	1	1	0	0	0	0	0	0	0	0	0
OTU 172	0	0	0	0	0	0	0	0	0	0	0	0	1	0	0	0	0	0	0	0	0	0	0	0	0	0	0	0	0	0	0	0	0	0	0	0	0	0	0	2	0	0	0	0	0	0	0	0	0	0
OTU 173	0	0	0	0	1	0	0	0	0	0	0	0	0	0	0	0	2	0	0	0	0	0	0	0	0	2	1	0	0	0	0	0	0	0	0	0	0	0	0	1	0	0	0	0	0	0	0	0	0	0
OTU 174	2	0	0	0	1	0	0	0	0	1	1	0	0	0	0	0	0	0	0	0	0	0	0	0	0	0	0	0	0	3	2	1	0	0	0	0	0	0	0	0	0	0	0	0	0	3	0	0	0	0
OTU 175	1	0	0	0	0	0	0	0	0	0	0	0	1	0	0	1	0	0	0	0	1	0	1	0	0	0	0	0	0	0	0	0	0	0	0	0	0	0	1	0	0	2	0	0	0	0	0	0	0	0
OTU 176	0	4	1	1	2	3	0	0	48	0	0	4	0	0	0	0	0	1	0	0	0	0	1	0	0	0	242	0	0	0	0	1	0	0	0	2	0	0	0	0	0	1	0	0	0	0	2	1	1	0
OTU 177	0	2	0	0	0	0	2	0	0	0	0	0	1	0	0	0	0	0	0	2	0	0	0	0	0	1	0	0	0	0	0	0	0	5	0	0	0	1	0	0	1	0	0	0	0	0	2	1	0	0
OTU 178	0	0	0	0	1	1	0	0	0	0	0	0	0	0	0	0	0	3	0	0	0	0	0	1	0	0	0	0	0	0	0	0	0	0	0	0	0	0	0	0	0	0	0	0	2	0	0	0	0	0
OTU 179	0	0	1	0	0	1	0	1	0	0	0	0	0	0	0	0	0	0	2	0	1	2	0	0	0	0	0	0	0	0	0	0	0	0	0	0	0	0	0	0	0	0	0	0	0	0	0	0	0	0
OTU 180	2	0	2	0	2	1	2	0	0	5	0	0	1	0	0	0	0	3	1	0	158	0	2	1	1	0	2	0	1	1	2	2	1	0	1	0	0	0	1	1	0	0	1	1	0	1	3	2	0	0
OTU 181	0	0	0	0	0	0	0	0	0	0	0	3	0	0	0	1	0	0	0	0	0	0	71	53	0	1	0	0	0	0	0	0	0	0	0	0	0	0	1	0	0	0	0	0	1	1	2	0	0	0
OTU 182	0	0	0	0	0	0	0	0	0	0	0	0	0	0	0	0	0	0	0	0	0	0	0	0	0	0	0	1	0	0	0	0	0	0	0	0	0	0	0	0	0	0	0	0	0	0	0	0	0	0
OTU 183	0	0	0	0	0	0	0	0	0	0	0	0	0	0	0	1	1	2	0	0	0	0	2	0	0	0	0	0	0	0	0	0	6	0	0	0	1	0	0	0	0	1	3	0	0	0	0	0	0	0
OTU 184	0	1	0	0	0	1	1	0	0	0	1	0	0	0	0	0	2	0	0	1	0	0	0	0	259	0	0	0	0	0	0	1	0	0	0	0	0	1	0	0	0	0	1	1	0	0	0	2	0	0
OTU 185	1	0	0	1	0	1	0	0	2	11	1	0	1	0	0	0	0	0	1	3	0	0	1	0	0	0	0	0	0	2	2	0	3	2	0	0	0	0	0	3	6	0	0	0	0	1	0	1	0	1
OTU 186	0	0	0	0	0	1	0	0	0	0	91	0	0	0	0	0	0	0	0	0	0	0	0	0	0	0	0	0	0	0	0	0	1	3	0	1	0	0	0	0	0	0	0	0	0	0	0	0	0	0
OTU 187	0	7	0	2	0	0	0	0	0	0	0	0	0	0	0	0	0	152	4	1	0	1	0	0	2	0	0	0	6	0	0	0	0	0	0	0	1	4	0	1	0	2	1	0	0	0	0	0	125	8
OTU 188	293	1	0	0	0	0	0	0	0	1	0	13	0	1	0	0	2	0	0	1	2	0	0	0	0	3	0	1	0	1	1	0	1	1	0	2	0	0	0	1	4	3	0	0	1	0	0	0	1	2
OTU 189	0	0	0	1	0	0	0	0	2	0	0	0	0	2	0	18	22	0	0	0	70	0	5	0	4	1	0	1	1	0	0	0	0	1	0	0	0	1	0	0	0	0	0	1	1	1	2	0	0	1
OTU 190	0	0	0	0	0	0	0	0	0	0	0	0	0	0	0	0	3	0	0	1	0	0	0	0	0	2	0	0	0	0	0	0	0	0	0	0	0	0	0	0	0	0	0	0	0	0	0	0	0	0
OTU 191	2	0	0	0	0	0	0	0	0	0	2	1	0	0	0	106	0	0	2	0	0	0	0	43	0	0	0	1	1	0	0	0	0	0	0	0	0	2	0	0	0	0	1	0	0	0	3	0	0	0
OTU 192	0	1	1	0	0	0	0	0	0	1	3	0	0	0	2	0	2	0	0	0	0	1	0	0	0	0	0	0	0	0	3	0	0	0	49	2	0	0	0	0	1	1	1	0	0	0	0	4	0	0
OTU 193	0	0	0	0	0	1	2	0	1	1	0	0	0	4	0	1	1	0	0	0	0	0	0	0	0	0	2	0	0	0	0	0	2	0	0	0	0	1	0	2	1	1	0	0	0	0	0	4	1	175
OTU 194	0	0	0	0	0	0	0	0	0	0	0	0	0	0	3	0	0	0	0	0	0	0	0	0	0	0	0	0	0	0	0	2	0	0	0	0	0	0	0	0	0	0	0	0	0	0	0	0	0	0
OTU 195	0	0	0	0	0	0	0	0	0	0	0	0	1	0	0	0	0	0	0	0	0	0	1	2	0	0	0	0	0	3	0	0	2	0	5	1	0	0	0	1	0	0	0	0	0	0	0	2	0	0
OTU 196	0	0	2	0	0	0	0	0	0	1	0	0	0	1	0	0	1	0	0	0	1	0	2	0	0	0	0	0	0	1	0	2	0	0	0	0	0	0	0	1	1	0	0	1	0	0	0	0	0	0
OTU 197	0	2	1	0	6	1	1	1	0	1	0	1	2	1	188	1	1	0	77	0	0	1	0	2	0	8	0	0	0	1	1	0	0	1	0	0	0	0	2	45	104	1	0	49	1	0	2	0	0	0
OTU 198	0	0	0	0	0	0	0	0	0	0	0	0	0	0	0	0	0	0	0	0	0	0	0	0	0	0	0	0	0	0	0	1	0	0	0	0	0	0	0	0	0	1	0	0	0	0	0	0	0	0
OTU 199	0	0	0	0	0	1	0	0	0	0	0	0	1	0	0	0	0	0	1	0	0	0	0	0	0	0	0	0	0	0	0	0	0	0	0	0	1	0	0	0	0	0	0	0	0	0	0	0	0	0
OTU 200	0	1	0	0	0	0	0	37	14	0	0	0	0	0	2	0	1	0	1	0	1	0	0	22	1	0	0	0	0	0	0	1	0	2	2	0	0	0	31	0	0	0	1	0	0	3	0	2	0	0
