	Host 1	Host 2	Host 3	Host 4	Host 5	Host 6	Host 7	Host 8	Host 9	Host 10	Host 11	Host 12	Host 13	Host 14	Host 15	Host 16	Host 17	Host 18	Host 19	Host 20	Host 21	Host 22	Host 23	Host 24	Host 25	Host 26	Host 27	Host 28	Host 29	Host 30	Host 31	Host 32	Host 33	Host 34	Host 35	Host 36	Host 37	Host 38	Host 39	Host 40	Host 41	Host 42	Host 43	Host 44	Host 45	Host 46	Host 47	Host 48	Host 49	Host 50	
OTU 1	0	6	2	0	3	3	0	2	0	2	0	1	4	0	5	0	12	3	1	1	0	2	2	1	0	3	0	1	2	2	7	0	0	5	6	3	4	6	4	3	19	2	6	2	5	12	5	1	0	0
OTU 2	1	0	0	0	0	0	1	0	0	0	0	0	0	0	0	0	0	0	0	0	0	0	0	0	0	0	0	0	0	2	0	0	0	0	0	0	0	0	0	0	0	0	0	0	0	0	0	0	0	0
OTU 3	1	1	0	0	0	0	0	0	2	0	0	0	1	1	0	0	0	2	0	6	1	0	0	1	0	0	1	1	1	0	0	0	0	0	0	0	0	0	0	0	0	0	0	1	0	0	0	0	0	3
OTU 4	0	0	0	0	0	0	0	0	0	0	0	0	0	0	0	0	0	0	0	0	0	0	0	0	0	0	0	0	0	0	0	0	0	0	0	0	0	0	0	0	0	0	0	1	0	0	0	0	0	0
OTU 5	7	3	0	0	4	39	3	32	1	1	12	22	4	64	9	15	11	102	0	1	8	6	2	14	5	34	0	19	12	8	7	6	1	17	1	12	20	0	27	5	24	2	30	0	10	43	28	2	1	0
OTU 6	0	11	2	0	0	0	0	0	2	0	2	0	3	0	0	2	0	1	4	1	0	3	0	0	0	4	2	5	8	0	1	1	0	0	0	0	0	1	0	0	2	0	2	0	0	0	0	7	3	3
OTU 7	5	4	2	11	0	1	0	4	6	0	11	2	5	3	3	0	3	4	1	1	2	3	1	0	3	1	6	2	2	5	0	2	6	3	0	4	29	0	2	1	4	0	28	0	0	47	34	44	1	4
OTU 8	0	2	0	3	0	1	10	2	0	2	0	4	0	0	2	2	3	0	3	2	0	0	5	2	11	0	6	0	5	2	8	1	1	9	2	0	1	4	0	0	0	0	1	2	0	5	3	4	2	41
OTU 9	0	0	0	4	0	0	4	1	0	4	0	3	0	2	0	1	1	0	1	0	0	0	0	0	5	0	5	1	0	0	0	0	0	1	0	0	0	2	0	0	0	0	0	0	0	3	1	4	0	0
OTU 10	0	2	3	0	0	0	0	0	0	0	0	0	0	0	1	0	0	0	2	0	0	0	0	0	5	0	4	0	0	0	1	0	4	0	0	0	0	0	1	2	0	1	0	1	0	0	0	0	5	0
OTU 11	0	6	3	17	2	0	1	0	0	3	7	2	0	0	1	0	0	33	1	2	5	0	0	0	2	1	0	8	0	0	0	0	1	3	0	0	0	5	2	0	3	3	1	2	0	0	1	4	0	91
OTU 12	6	1	4	2	0	0	4	3	2	0	9	0	4	3	4	0	0	0	1	3	2	2	2	0	1	1	7	0	2	0	0	0	0	4	0	3	1	0	3	0	2	1	0	0	0	0	2	1	9	1
OTU 13	0	1	0	0	0	0	0	0	0	0	0	0	0	0	0	0	0	0	0	0	0	0	0	0	0	0	0	2	0	0	1	0	0	0	0	0	0	0	0	0	1	0	0	0	0	0	0	0	3	0
OTU 14	0	0	0	0	0	0	0	2	1	0	0	0	0	0	4	2	0	1	0	0	0	0	0	0	0	0	0	0	0	1	0	0	9	0	0	0	0	0	0	0	0	1	0	0	0	0	1	4	0	0
OTU 15	0	0	0	0	0	0	0	0	0	0	0	0	0	0	0	0	0	11	0	0	0	0	0	0	0	0	0	0	0	0	0	0	0	0	0	0	0	0	0	0	0	0	0	4	0	0	0	0	0	0
OTU 16	0	0	0	0	0	0	0	0	0	0	0	0	0	0	0	0	0	0	0	0	0	0	0	0	0	0	0	0	0	0	0	0	0	0	0	0	0	0	0	0	0	0	0	0	0	1	0	0	0	0
OTU 17	0	0	0	0	0	16	0	2	0	0	1	0	1	0	1	0	38	1	1	0	3	0	0	0	1	0	0	0	3	6	0	0	0	4	4	0	18	0	0	6	33	0	6	0	12	11	0	0	0	0
OTU 18	0	1	0	4	10	5	1	4	2	10	1	4	4	1	0	2	4	35	7	5	0	1	0	1	0	0	4	0	11	2	0	0	0	8	0	1	1	7	0	0	0	3	1	7	0	0	2	0	1	5
OTU 19	0	0	0	0	0	0	0	0	0	0	0	0	0	0	0	0	0	0	0	0	0	0	0	0	0	0	0	0	0	0	0	0	0	0	0	0	0	0	0	0	0	0	0	0	0	0	0	0	0	0
OTU 20	2	42	16	0	0	0	0	0	8	0	0	0	0	1	0	2	2	1	2	12	5	4	1	2	4	9	0	16	1	1	0	1	1	6	0	1	0	0	1	0	0	0	0	9	0	1	3	39	7	3
OTU 21	0	2	0	0	1	1	7	0	0	4	3	3	0	0	0	1	0	0	0	0	0	0	1	0	4	0	0	0	1	4	2	2	0	0	0	0	2	2	2	3	1	2	0	0	0	0	2	0	3	5
OTU 22	1	1	4	0	1	0	0	1	4	5	2	3	0	0	3	2	0	0	0	2	0	4	0	1	27	0	2	2	0	1	0	0	0	1	3	3	1	5	0	1	1	0	0	0	0	0	1	0	2	4
OTU 23	0	0	1	0	1	0	0	1	2	0	1	0	2	1	0	2	0	0	0	0	3	9	0	5	2	1	0	0	1	0	1	0	0	1	0	0	0	0	0	0	0	1	0	0	0	0	0	0	9	1
OTU 24	0	0	1	0	0	0	0	0	0	2	0	5	0	0	0	0	0	0	0	0	0	0	0	0	0	0	0	0	3	1	0	0	0	2	0	0	0	12	0	5	0	0	0	0	0	0	0	0	7	0
OTU 25	0	0	0	0	0	0	0	0	0	0	0	0	0	0	0	0	0	0	0	0	0	0	0	0	0	0	0	0	0	0	0	0	0	0	0	0	0	0	0	0	0	0	0	0	1	0	1	0	0	0
OTU 26	0	0	1	0	0	0	0	1	1	0	0	1	0	0	0	4	0	0	0	0	0	0	0	0	0	0	0	0	0	0	0	0	0	0	0	0	0	0	2	0	0	0	0	1	1	0	0	0	0	0
OTU 27	0	0	0	1	0	0	1	0	0	0	0	0	3	0	0	0	0	0	0	0	0	0	0	0	0	0	0	0	0	0	0	0	0	0	0	0	0	0	0	3	0	8	0	0	0	1	0	0	0	0
OTU 28	0	1	2	0	0	2	0	0	11	0	0	0	0	5	15	10	0	8	1	5	73	4	3	5	1	0	7	0	6	2	1	2	12	0	1	0	0	0	6	0	3	6	0	0	0	0	2	0	3	5
OTU 29	11	0	0	0	2	0	1	3	1	3	0	2	2	1	0	4	0	0	0	2	2	1	0	0	2	0	1	1	7	3	0	0	0	1	1	0	0	6	6	0	3	0	0	1	0	0	4	2	0	4
OTU 30	0	0	0	0	0	0	0	0	0	0	0	0	0	0	0	0	0	0	0	0	0	0	0	0	0	0	0	0	0	0	0	0	0	0	0	0	0	0	0	0	0	0	0	0	0	0	0	0	0	0
OTU 31	0	0	7	1	1	0	0	5	11	0	0	0	0	0	0	0	0	0	0	0	0	3	3	0	0	0	1	0	0	0	0	15	0	0	0	0	0	0	1	0	3	1	0	0	0	0	2	0	3	0
OTU 32	0	6	0	3	76	1	0	3	3	2	7	6	3	0	4	3	0	0	2	25	3	0	4	142	0	2	0	0	0	0	6	2	0	0	1	18	1	5	4	0	0	48	0	5	1	1	5	0	1	16
OTU 33	0	0	0	0	0	0	0	0	0	0	0	0	0	0	0	0	0	0	0	0	0	0	0	0	0	0	0	0	0	0	0	0	0	0	0	0	0	0	0	0	0	0	0	0	0	0	0	0	0	0
OTU 34	6	1	2	1	2	0	2	2	1	1	11	0	1	0	1	0	2	1	4	0	0	0	1	0	3	5	0	0	4	1	3	0	1	0	0	3	0	1	2	2	3	1	118	1	0	1	0	2	0	0
OTU 35	1	0	0	0	0	0	0	0	8	1	0	0	0	0	0	0	0	0	1	1	1	0	1	0	4	118	0	0	0	0	3	1	1	0	0	1	0	1	0	0	0	0	0	1	0	0	0	2	6	0
OTU 36	1	1	1	0	5	0	0	3	0	0	0	0	0	2	0	0	0	1	4	0	1	1	0	0	0	0	1	0	0	0	0	0	8	0	0	1	0	0	0	0	0	0	61	2	5	0	1	0	0	0
OTU 37	0	1	0	0	0	2	0	0	1	0	1	0	2	2	0	0	0	0	0	0	0	3	0	0	2	0	0	0	0	0	0	0	1	0	1	0	0	0	0	2	0	0	1	0	3	0	6	0	0	0
OTU 38	2	0	5	3	0	0	0	2	3	1	0	2	0	0	0	0	1	1	0	0	0	1	1	0	1	1	0	0	2	0	5	1	7	0	0	0	2	3	0	0	0	0	1	0	1	0	1	0	3	0
OTU 39	0	0	0	0	0	0	0	0	0	0	0	0	1	2	0	0	0	0	0	0	0	0	0	0	0	0	0	0	0	1	0	0	0	0	0	0	0	0	0	0	0	0	1	3	0	0	0	0	0	1
OTU 40	13	3	0	2	44	3	8	1	0	0	0	0	0	41	0	2	3	0	3	4	0	0	1	4	0	0	0	2	0	0	0	0	5	1	0	0	0	2	3	0	1	2	2	4	0	0	0	2	3	1
OTU 41	0	0	0	0	1	0	0	0	0	2	2	0	0	0	0	0	0	0	0	0	3	0	0	0	0	0	1	2	1	0	0	0	0	0	0	0	0	3	9	4	0	1	0	0	0	0	0	0	1	0
OTU 42	1	2	2	0	0	0	0	0	2	0	0	0	0	0	2	0	0	2	1	0	0	2	0	0	0	0	1	2	0	0	0	0	0	1	0	0	0	0	0	0	0	0	0	0	2	0	0	1	1	0
OTU 43	0	0	0	0	0	0	0	0	0	0	0	0	0	0	0	0	0	0	0	0	0	0	0	0	0	0	3	0	0	0	0	0	0	0	0	0	0	0	0	0	0	1	0	0	0	0	0	0	0	0
OTU 44	0	5	0	0	0	0	0	0	0	0	13	0	0	0	1	1	0	2	0	1	0	0	1	0	0	0	0	1	0	0	2	0	0	0	0	0	2	0	2	0	0	0	0	0	1	0	0	0	0	0
OTU 45	36	0	0	0	22	1	0	5	3	2	1	5	34	0	39	3	0	15	3	6	0	1	2	18	0	0	6	0	0	0	11	2	3	0	2	1	1	2	7	0	0	10	0	0	0	0	2	0	0	0
OTU 46	1	7	0	31	1	0	0	3	0	1	0	0	0	0	0	3	0	0	0	0	0	12	1	6	1	0	6	151	0	0	95	2	0	0	2	2	0	0	7	0	0	13	0	0	0	0	5	2	2	0
OTU 47	4	0	0	0	0	0	0	0	0	0	2	0	1	1	2	4	0	0	0	1	0	1	0	0	1	0	1	0	0	0	0	0	6	0	0	0	0	0	0	1	0	0	0	0	0	0	0	0	3	0
OTU 48	0	6	1	80	0	0	67	2	0	3	4	3	1	0	5	0	0	0	1	0	3	1	0	0	3	1	2	3	0	0	2	0	0	0	1	1	0	8	1	3	1	3	3	17	1	0	1	1	0	0
OTU 49	0	0	0	0	0	0	0	0	0	0	0	0	7	53	0	0	0	0	1	0	0	0	0	0	2	0	0	0	5	0	0	0	0	0	1	1	0	1	2	4	0	2	0	0	0	0	5	0	0	0
OTU 50	0	0	5	1	0	0	0	0	1	4	1	0	0	2	2	0	0	0	0	0	0	1	4	2	2	0	4	0	1	1	4	0	2	4	0	0	1	1	0	3	1	1	1	1	0	0	0	4	2	1
OTU 51	0	1	0	2	0	0	0	6	1	0	2	0	0	2	0	9	0	0	0	3	0	3	0	2	5	0	7	0	1	0	0	0	0	0	0	0	0	1	0	0	3	0	0	1	1	0	2	0	1	3
OTU 52	2	5	0	16	1	0	4	0	0	13	11	20	0	1	6	3	2	1	3	7	1	4	0	8	1	6	2	2	8	12	0	0	3	103	1	0	1	28	0	1	5	2	0	3	0	7	1	9	4	0
OTU 53	0	0	0	0	0	0	0	0	0	0	0	0	0	0	0	0	0	0	0	0	0	0	0	0	0	0	2	0	1	0	0	0	0	0	0	0	0	0	0	0	0	0	0	0	0	0	0	0	0	0
OTU 54	13	5	7	1	1	1	1	1	2	5	1	1	27	8	0	6	0	0	7	2	0	2	1	3	2	1	0	1	2	92	30	0	0	0	1	0	1	3	9	0	1	4	0	5	1	1	4	3	0	0
OTU 55	1	0	0	0	0	0	0	0	0	0	0	0	0	0	0	0	0	0	0	0	0	0	0	0	0	0	0	0	0	0	0	0	0	0	0	0	0	0	0	0	0	0	0	0	0	0	0	0	0	0
OTU 56	0	0	0	0	0	0	0	0	1	0	0	3	0	0	4	0	0	0	0	0	0	0	5	0	0	0	0	0	0	0	0	1	4	2	0	1	0	1	0	0	0	0	0	0	0	0	0	0	1	1
OTU 57	2	10	5	1	9	9	0	10	0	4	1	1	4	0	6	10	6	3	5	2	2	5	2	2	6	2	10	4	15	0	3	2	5	4	5	47	34	9	2	7	13	9	7	15	6	7	0	10	6	1
OTU 58	0	0	4	1	1	0	2	0	0	0	2	0	0	0	5	0	0	0	1	0	2	0	0	0	0	0	0	0	2	0	0	0	1	0	1	0	0	0	0	0	8	2	1	1	0	3	8	0	0	0
OTU 59	0	0	0	1	1	3	0	5	0	0	0	1	0	0	1	0	4	0	0	0	0	0	4	1	0	4	0	0	1	0	0	0	0	0	3	7	1	4	2	5	8	0	2	0	3	6	0	0	0	0
OTU 60	2	1	0	3	1	0	1	3	1	7	0	17	2	1	3	1	2	3	2	3	3	9	0	5	3	1	3	3	2	4	3	0	1	3	4	0	0	1	0	0	2	1	2	4	0	7	4	1	1	2
OTU 61	2	4	1	11	0	1	0	4	0	3	0	7	1	0	7	0	4	2	57	6	0	0	0	5	0	3	5	3	9	0	3	0	3	1	3	2	0	13	2	1	2	0	2	1	0	2	6	9	3	1
OTU 62	0	2	1	0	1	0	0	0	2	0	0	0	3	2	1	7	1	0	1	0	0	6	2	2	0	3	0	2	0	0	0	0	0	0	0	0	0	0	1	0	0	0	0	0	0	0	0	0	0	0
OTU 63	0	5	0	0	1	0	0	6	0	0	1	0	0	0	1	0	0	0	1	0	0	0	140	0	0	2	0	2	0	0	2	75	4	3	0	4	0	0	1	0	1	1	0	1	0	0	1	0	8	0
OTU 64	2	0	1	0	2	0	12	0	6	2	1	0	3	4	2	2	1	2	1	0	2	2	6	1	2	2	10	1	5	0	0	16	9	1	1	3	1	2	0	1	1	1	0	1	0	0	10	0	2	8
OTU 65	0	0	0	0	0	0	0	0	0	0	0	0	0	0	0	1	0	0	0	0	0	0	0	0	0	0	4	0	0	0	0	0	0	0	0	0	0	0	0	0	0	0	0	0	0	0	0	0	0	0
OTU 66	5	2	2	0	0	0	3	1	80	0	0	1	1	1	1	0	0	0	0	0	0	1	27	0	1	0	0	1	2	0	0	16	0	0	0	1	0	0	0	3	0	1	0	3	0	1	0	0	0	0
OTU 67	0	1	1	0	0	120	2	1	1	0	0	0	0	0	0	6	0	0	0	1	1	0	1	1	2	1	5	2	0	0	5	0	0	1	0	0	0	0	0	1	0	2	0	3	1	0	4	0	2	0
OTU 68	0	0	5	0	0	2	3	1	0	0	0	0	0	0	2	0	5	0	0	1	0	0	0	0	0	0	0	0	0	4	1	0	0	0	18	3	11	0	0	27	35	0	4	1	2	12	0	0	9	4
OTU 69	0	1	3	14	0	0	0	0	0	8	1	8	0	0	2	1	4	2	0	7	0	0	0	2	0	0	0	0	1	2	2	0	0	0	5	1	0	17	1	0	3	0	1	3	0	0	2	1	4	1
OTU 70	0	0	0	0	2	0	1	12	0	7	0	4	3	1	4	0	0	4	0	0	0	5	0	2	0	1	7	0	6	1	0	0	0	0	1	1	0	6	0	1	0	2	0	2	0	2	0	0	0	1
OTU 71	1	0	1	0	26	0	0	0	1	4	1	0	1	5	0	0	0	1	8	8	2	0	0	3	0	0	0	0	0	0	0	0	0	1	2	0	1	3	0	0	0	1	0	0	3	0	0	0	0	1
OTU 72	4	1	3	3	2	0	0	1	2	0	1	0	5	3	4	0	0	2	0	3	1	0	0	1	2	1	2	3	0	0	0	0	3	0	3	3	2	2	1	0	4	1	2	0	0	3	2	2	0	8
OTU 73	0	4	0	2	0	0	1	15	1	1	1	1	0	0	1	0	1	0	0	0	0	0	1	0	2	3	2	2	0	0	0	0	2	7	0	11	1	3	1	0	0	4	0	0	0	0	0	2	3	0
OTU 74	0	2	0	2	2	0	0	1	0	2	0	0	5	0	1	3	2	0	2	2	1	2	0	0	10	3	0	1	0	1	3	1	2	1	3	0	0	1	0	2	2	2	4	0	5	8	0	7	0	0
OTU 75	2	0	0	3	2	4	0	3	0	0	0	0	0	5	2	3	6	1	1	1	15	15	2	2	1	1	0	0	11	3	2	0	5	2	4	2	6	0	0	4	18	0	3	0	4	8	0	0	3	0
OTU 76	0	3	0	0	0	0	0	1	0	0	1	0	0	0	0	0	0	0	0	4	0	0	0	1	0	0	0	3	0	0	0	0	0	1	2	0	0	0	0	0	0	0	0	12	0	0	2	1	0	0
OTU 77	4	0	5	0	0	1	39	4	1	0	8	0	0	2	3	1	3	2	0	0	0	1	2	1	0	0	0	1	8	1	0	2	0	4	3	0	0	0	0	1	3	88	2	6	1	0	4	1	18	0
OTU 78	3	11	6	0	6	1	8	2	0	3	10	0	4	1	0	9	0	2	0	6	5	1	1	5	2	4	9	8	13	0	0	0	6	2	0	0	0	2	4	2	1	3	0	1	0	3	3	4	0	0
OTU 79	3	2	1	5	2	3	0	3	1	1	5	2	2	4	9	4	6	5	8	6	5	5	2	6	3	3	2	2	1	37	4	2	1	17	83	0	145	2	41	88	7	4	2	3	2	5	2	9	7	5
OTU 80	4	0	0	1	0	0	0	0	0	1	6	0	93	0	0	0	1	0	0	0	1	4	2	2	6	0	0	0	0	1	46	4	1	0	0	0	0	0	1	0	0	0	0	11	0	0	1	0	1	1
OTU 81	3	1	6	2	1	1	7	0	0	5	3	2	2	1	1	5	0	2	2	2	1	1	1	1	1	0	0	0	0	14	28	1	0	1	0	2	0	0	23	0	0	0	1	0	2	0	1	1	9	1
OTU 82	0	0	4	1	1	0	0	3	0	91	8	5	0	2	8	3	0	1	0	1	0	0	2	0	0	0	10	0	1	1	1	0	3	8	0	7	1	7	2	0	0	0	0	1	2	3	1	0	8	8
OTU 83	0	0	0	0	0	0	3	0	0	0	0	0	0	1	0	0	0	0	1	0	0	3	0	0	0	0	0	0	0	0	0	0	4	0	0	0	0	0	0	0	0	0	0	0	0	0	0	5	4	0
OTU 84	1	0	2	5	0	0	0	1	1	3	2	4	1	0	5	0	0	3	0	0	0	0	2	3	2	0	3	0	1	0	13	0	1	1	1	2	1	5	0	0	0	0	0	0	0	2	0	0	4	0
OTU 85	0	3	0	0	1	0	0	0	0	0	0	0	0	0	0	1	0	0	0	0	0	0	0	0	0	0	0	3	0	0	0	0	0	0	0	0	0	0	0	0	3	0	0	0	0	2	0	0	0	10
OTU 86	0	0	0	0	0	0	0	0	0	0	0	0	0	0	0	0	0	0	0	0	0	0	0	0	0	1	0	0	0	0	0	1	0	0	0	0	0	0	0	2	0	0	0	0	0	0	0	0	0	0
OTU 87	0	0	0	1	0	0	0	0	0	0	0	0	0	1	0	0	0	0	0	0	0	0	1	0	0	0	0	0	0	0	0	0	3	0	0	2	0	0	0	1	0	0	0	2	0	0	0	0	0	0
OTU 88	1	0	0	0	0	0	0	0	0	0	0	0	0	0	1	0	0	0	0	0	0	0	0	0	0	0	0	0	4	0	0	0	0	0	0	0	1	0	0	0	0	1	0	0	0	0	1	0	1	0
OTU 89	38	0	0	0	1	2	0	0	1	0	0	0	0	0	0	0	4	0	31	0	1	0	0	0	4	0	0	0	0	0	0	0	0	0	2	0	2	0	22	2	0	1	1	7	5	1	0	0	3	1
OTU 90	0	0	0	2	1	0	0	0	1	1	0	0	0	0	1	0	0	0	0	0	0	0	0	0	0	0	0	0	0	0	0	0	0	0	0	0	0	0	0	0	0	0	0	0	0	0	0	1	1	0
OTU 91	0	0	0	0	0	0	0	0	0	0	0	0	0	0	0	0	0	0	1	0	0	0	0	0	0	0	0	0	1	0	0	0	0	0	0	0	0	0	0	0	0	0	1	0	0	0	0	0	0	0
OTU 92	0	1	0	0	0	0	0	0	0	0	0	0	2	0	0	0	1	0	0	0	2	0	0	2	0	2	0	0	0	0	0	0	0	0	0	0	0	0	0	0	3	1	0	2	0	1	2	0	0	0
OTU 93	0	0	0	0	0	0	0	0	0	0	0	0	0	0	0	0	0	0	0	0	0	0	1	0	0	0	0	0	5	1	0	0	0	0	0	3	0	0	0	0	0	0	0	0	0	0	0	0	0	0
OTU 94	0	2	1	7	0	0	2	1	4	0	0	1	3	12	1	7	0	1	4	4	5	9	0	0	4	0	0	0	0	2	0	0	1	0	0	3	3	1	0	0	6	0	5	3	0	2	3	1	8	1
OTU 95	0	0	0	0	4	1	3	51	0	0	0	0	0	0	1	0	0	0	0	0	0	0	1	0	0	0	0	1	0	0	0	0	1	9	0	23	0	0	0	0	0	0	0	0	0	0	1	0	0	0
OTU 96	0	1	0	0	0	0	0	0	0	0	0	0	0	1	0	0	0	0	0	0	0	0	0	0	0	0	0	0	0	0	0	0	2	0	0	0	0	0	0	0	0	0	0	0	0	4	0	3	0	0
OTU 97	0	0	0	0	0	0	0	0	0	0	0	0	0	0	0	0	1	0	0	0	0	0	2	0	0	0	0	0	0	0	0	1	0	0	0	0	0	0	0	0	0	0	0	0	0	1	0	0	0	2
OTU 98	0	0	0	0	0	0	0	0	7	0	0	0	0	0	0	0	0	0	0	0	0	0	0	0	1	0	0	0	0	0	0	0	3	0	1	0	0	0	0	0	1	0	2	0	0	0	0	0	0	0
OTU 99	0	5	0	0	4	1	0	0	2	3	0	1	6	0	5	0	6	1	2	1	0	3	1	1	2	2	1	0	0	1	0	0	4	0	0	0	3	2	55	0	4	0	1	0	1	0	1	0	8	2
OTU 100	1	1	0	1	0	1	2	4	0	0	1	0	1	0	0	1	2	0	0	3	0	0	0	0	7	1	5	2	6	0	0	0	3	0	1	2	0	0	0	0	6	0	2	0	178	0	3	0	4	5
OTU 101	0	0	0	0	0	0	1	0	0	1	0	1	0	0	0	0	0	0	0	0	0	0	0	0	0	0	0	0	1	0	0	0	0	0	0	0	0	0	2	0	0	0	0	0	0	0	0	1	0	1
OTU 102	0	0	0	1	0	0	0	1	2	0	0	0	1	0	0	0	0	0	0	0	0	0	0	0	0	1	0	0	1	0	0	0	1	1	0	0	0	1	0	0	0	1	1	0	0	0	0	1	0	0
OTU 103	0	0	0	1	0	0	0	0	0	9	0	3	7	0	0	0	0	1	4	0	1	1	1	0	0	0	0	0	0	0	0	0	0	0	0	0	0	6	0	0	0	3	0	2	0	0	2	1	0	0
OTU 104	0	11	2	0	3	0	4	9	0	1	1	80	1	2	3	1	2	3	4	0	1	1	0	5	3	7	0	9	0	1	0	0	4	1	0	6	0	1	0	3	0	1	1	9	0	2	20	1	1	0
OTU 105	0	0	2	0	0	0	0	0	0	0	7	0	0	0	0	0	0	0	8	0	0	2	0	0	0	6	0	0	0	0	0	0	0	0	0	0	1	0	0	1	1	0	0	0	0	0	0	0	0	0
OTU 106	1	0	1	0	0	0	0	0	0	0	0	0	0	0	0	0	0	0	0	0	0	0	0	0	0	0	0	0	0	1	0	0	18	1	0	0	0	0	0	0	0	0	0	0	0	0	0	0	0	0
OTU 107	0	0	13	0	0	0	3	1	10	1	2	0	0	0	1	0	0	0	0	8	0	4	2	0	0	0	0	0	0	0	0	1	0	0	0	1	2	1	0	0	2	0	0	5	0	1	1	0	0	0
OTU 108	0	8	1	8	1	0	1	0	1	0	0	1	0	0	0	2	0	0	0	2	0	0	0	2	4	4	0	3	3	0	0	0	3	0	0	0	16	0	2	1	0	0	22	3	0	65	1	0	1	0
OTU 109	0	3	0	0	0	0	0	0	0	0	0	0	0	0	0	0	0	2	0	0	0	0	0	0	0	0	0	1	0	0	0	0	0	0	0	0	0	0	2	0	0	0	0	0	0	0	0	0	0	0
OTU 110	1	2	2	0	0	0	0	2	0	0	0	1	1	0	3	4	1	1	1	0	3	6	0	1	0	0	0	0	0	0	0	1	0	0	0	5	2	0	2	0	11	6	4	1	1	2	0	6	2	3
OTU 111	0	4	2	0	0	0	0	0	0	0	0	0	0	0	0	0	0	0	0	0	0	0	1	0	0	0	0	31	1	0	0	2	0	0	0	0	1	4	0	0	1	1	1	0	0	0	0	0	0	0
OTU 112	0	2	1	0	3	0	0	3	0	83	2	0	0	0	0	1	0	0	0	0	2	4	0	0	0	0	4	0	5	0	1	0	0	7	0	0	0	2	1	1	0	0	0	0	0	0	0	0	5	0
OTU 113	0	0	0	1	0	0	3	0	1	0	0	0	0	0	0	0	1	0	0	0	4	1	0	0	0	0	0	0	0	0	0	0	2	0	0	0	0	0	0	0	0	3	0	0	0	0	0	0	0	0
OTU 114	0	0	5	5	0	5	0	4	35	0	0	4	0	0	4	2	8	0	0	0	1	4	19	0	3	3	9	0	2	1	3	17	0	0	0	1	2	4	0	0	2	0	4	1	7	2	3	7	2	0
OTU 115	12	8	3	8	1	3	0	2	3	8	8	3	0	0	5	1	4	0	0	0	3	0	1	0	0	11	3	4	0	64	0	1	4	6	1	1	0	7	2	1	1	1	2	7	0	4	17	9	5	6
OTU 116	7	3	0	1	0	5	3	3	2	1	1	3	6	0	1	1	3	1	77	1	0	2	0	1	6	0	3	0	2	28	1	0	11	1	0	0	0	4	0	0	1	1	0	7	0	0	2	0	4	4
OTU 117	0	3	2	4	0	1	0	1	0	0	0	0	1	0	7	0	2	2	0	1	2	0	0	0	0	0	1	0	0	0	2	2	0	3	0	0	3	2	0	0	1	1	0	1	0	0	0	9	0	1
OTU 118	0	0	0	0	1	0	0	0	0	2	0	4	0	0	0	0	0	0	0	0	4	0	0	0	0	1	0	0	2	0	0	0	3	0	0	1	0	11	0	0	0	0	0	1	0	0	0	0	0	2
OTU 119	4	0	1	4	3	3	0	1	0	2	1	0	0	0	0	0	3	1	0	1	0	0	0	0	13	0	0	0	1	0	2	0	1	1	0	0	0	0	1	0	1	0	0	2	0	0	2	3	1	4
OTU 120	2	0	0	0	0	0	0	0	0	0	0	0	1	0	0	0	0	0	0	0	0	0	2	0	3	0	0	1	0	1	5	2	2	0	1	0	0	1	0	4	0	0	0	1	0	0	0	1	0	0
OTU 121	65	0	3	3	7	0	0	2	2	2	7	1	0	1	4	0	3	2	0	0	0	0	0	6	0	0	7	0	0	0	0	0	4	1	0	0	0	6	31	0	0	2	0	1	0	0	2	0	0	2
OTU 122	0	0	3	0	0	0	4	1	3	1	8	4	4	1	2	0	1	2	0	1	1	3	4	0	2	1	0	0	1	0	1	3	0	0	1	1	0	17	3	0	1	0	0	0	3	0	1	0	2	2
OTU 123	5	42	24	16	55	0	11	3	19	7	2	8	1	1	11	13	4	4	5	70	2	4	17	7	0	21	22	12	47	0	4	3	44	8	1	85	1	18	3	1	3	2	1	69	0	0	12	30	4	6
OTU 124	0	0	0	1	1	0	0	0	0	0	6	1	0	2	4	0	1	6	0	0	4	0	0	0	0	0	0	1	0	0	0	0	4	1	0	0	2	0	1	0	1	0	1	0	0	0	2	0	7	1
OTU 125	24	8	4	3	4	0	9	9	4	8	5	3	6	14	21	6	3	14	7	9	10	12	3	4	15	6	5	4	6	0	3	1	11	5	2	2	2	9	5	131	2	2	2	1	3	6	1	5	9	4
OTU 126	0	9	0	0	1	0	0	4	0	0	0	0	0	0	5	3	0	3	0	0	0	17	0	4	0	3	1	7	0	2	0	0	0	0	0	11	0	0	0	2	1	1	0	0	0	0	0	1	0	0
OTU 127	0	0	3	1	0	0	0	1	0	0	2	26	2	0	0	0	0	1	0	1	0	0	2	0	10	0	8	0	0	6	1	0	0	0	0	0	0	1	0	0	0	1	0	0	0	0	0	0	2	6
OTU 128	0	26	7	2	2	4	1	7	1	3	20	1	1	5	0	4	7	1	3	0	23	46	6	0	13	11	23	14	1	6	6	2	21	6	2	6	6	6	3	4	9	3	1	9	2	10	1	2	1	7
OTU 129	0	1	2	0	0	0	0	23	0	0	0	0	0	46	0	0	0	0	0	2	0	0	1	0	5	0	0	0	0	0	0	1	0	0	0	5	0	0	0	0	0	0	0	0	0	0	2	0	0	0
OTU 130	0	0	3	3	0	1	0	0	0	0	0	0	0	6	4	6	4	0	0	0	27	58	0	0	0	0	0	1	0	0	2	0	0	7	0	0	1	2	0	0	0	0	0	0	1	0	8	3	1	1
OTU 131	0	3	0	0	1	0	0	0	7	0	0	36	4	2	0	0	0	0	1	0	0	1	0	0	69	0	0	0	0	0	0	1	0	1	0	0	0	2	0	0	1	0	0	0	2	0	9	10	4	0
OTU 132	0	2	3	0	1	1	0	0	0	2	0	1	0	0	0	0	0	0	0	0	1	0	0	4	1	2	2	4	0	0	0	0	0	0	2	0	0	0	2	0	0	1	0	0	0	0	0	0	2	0
OTU 133	7	0	0	0	0	0	0	1	0	0	0	0	0	0	0	0	0	0	0	0	0	0	0	2	0	0	1	0	0	1	0	0	0	0	0	0	0	0	0	0	0	0	0	0	0	0	0	0	1	0
OTU 134	0	3	0	0	0	3	0	1	0	3	0	0	0	3	0	2	8	0	0	2	0	0	2	2	1	0	5	0	0	1	0	0	0	0	3	0	0	2	0	0	0	0	0	0	2	0	0	2	0	3
OTU 135	0	0	0	1	2	0	0	0	0	0	0	0	0	0	0	4	1	0	0	0	0	2	0	0	0	0	0	1	0	0	0	0	0	0	2	0	0	0	3	2	1	0	0	1	0	0	5	2	1	4
OTU 136	0	1	1	0	2	65	0	0	0	0	1	0	5	0	0	0	134	0	2	0	0	0	0	0	6	10	6	1	0	0	0	0	0	0	1	0	0	0	0	0	0	0	0	0	86	0	0	2	0	0
OTU 137	0	0	0	0	0	1	12	0	0	0	0	0	18	0	0	5	1	0	1	0	0	0	1	1	0	0	1	0	2	0	2	0	0	0	2	0	1	0	4	0	0	1	0	0	1	0	0	1	0	3
OTU 138	1	0	7	0	0	0	0	0	1	0	1	0	0	1	2	0	0	0	0	0	0	0	0	0	0	0	0	0	0	0	0	1	1	0	0	0	0	0	0	0	4	0	3	3	2	1	5	0	0	0
OTU 139	10	4	26	2	10	1	2	7	11	3	0	2	13	0	48	4	1	23	38	35	0	0	17	21	0	1	17	2	4	2	2	6	1	12	2	8	2	3	9	6	6	72	0	29	3	4	8	3	24	1
OTU 140	3	6	1	7	3	0	2	0	2	3	5	0	0	0	9	1	1	1	5	2	5	7	8	3	8	3	3	4	1	0	2	4	4	1	3	0	3	6	3	4	7	4	0	1	2	0	0	0	3	2
OTU 141	0	2	0	0	0	2	0	0	0	0	0	0	0	0	0	0	1	1	0	0	0	0	0	0	0	0	0	2	0	0	0	0	0	0	0	0	0	0	0	0	1	0	0	0	0	2	0	0	2	0
OTU 142	0	0	3	0	0	0	0	0	0	0	0	0	0	0	0	0	0	0	1	0	0	0	0	0	2	0	0	0	0	0	0	0	0	0	0	0	0	0	0	0	1	0	0	0	0	0	0	0	0	0
OTU 143	0	0	0	0	0	0	0	0	0	0	0	0	1	0	0	0	0	0	0	0	0	0	0	0	0	0	0	0	0	0	0	0	0	4	1	0	0	1	0	1	2	0	1	0	0	3	0	0	3	3
OTU 144	1	0	0	1	0	0	0	0	0	0	1	0	0	1	1	0	0	0	5	1	0	2	0	0	0	0	0	0	0	30	0	0	1	0	0	0	0	2	0	0	0	0	0	0	0	1	0	0	2	1
OTU 145	1	0	0	1	0	0	0	0	1	0	0	0	1	0	2	0	2	1	1	1	2	5	2	2	8	1	2	0	1	0	3	1	1	0	0	1	0	0	0	0	0	0	1	0	2	1	5	0	2	7
OTU 146	0	1	1	1	2	2	1	1	0	0	0	1	0	5	3	0	4	4	0	0	3	1	0	1	3	1	0	1	6	3	1	0	0	0	0	0	0	2	2	1	1	0	0	0	0	0	14	0	2	2
OTU 147	0	3	0	1	4	0	0	4	0	0	0	0	0	0	0	0	0	0	0	0	0	1	2	1	1	0	0	1	0	0	0	1	7	0	0	0	0	0	1	0	0	0	0	0	0	0	0	0	0	0
OTU 148	0	0	2	0	0	0	0	0	2	0	1	3	0	1	10	0	0	16	1	0	1	0	0	4	0	0	1	0	0	0	0	1	2	1	0	0	2	6	1	1	2	0	0	0	0	5	16	14	4	0
OTU 149	0	1	1	0	4	0	0	1	0	0	0	0	0	0	0	0	0	0	0	0	1	0	0	0	3	5	0	1	40	0	3	0	0	0	1	0	0	0	0	0	0	0	0	0	0	0	0	1	0	0
OTU 150	0	0	0	0	0	0	9	0	0	2	1	2	0	0	0	0	0	0	0	0	5	0	0	0	0	0	0	0	0	0	0	0	0	0	0	0	0	5	0	0	0	0	0	0	0	0	0	0	0	0
OTU 151	0	0	0	4	2	2	0	0	2	1	0	1	0	0	1	1	1	0	0	0	1	0	0	1	1	0	0	0	0	0	0	0	21	0	0	0	0	1	0	0	0	0	0	1	0	0	0	0	0	0
OTU 152	6	0	5	0	5	0	4	6	1	0	1	0	3	0	4	1	7	0	0	1	0	1	3	3	0	5	12	0	0	1	3	0	1	1	2	5	0	0	4	0	5	1	0	0	0	0	0	0	3	2
OTU 153	0	0	0	0	0	0	0	0	0	0	0	0	0	0	0	0	0	0	0	0	0	0	0	0	0	0	0	0	0	0	0	0	0	0	0	0	0	0	0	0	0	0	0	0	4	0	0	0	0	0
OTU 154	0	0	0	28	1	0	0	0	0	0	0	0	0	0	0	0	3	0	0	0	0	0	0	0	0	0	0	0	0	0	0	0	0	2	0	0	0	0	0	0	4	0	0	0	0	0	0	0	5	0
OTU 155	0	3	9	1	0	0	2	2	0	11	13	1	4	0	0	0	2	1	1	0	0	1	1	0	2	0	1	0	0	1	0	159	0	0	0	0	0	8	3	0	0	1	0	0	0	2	0	0	0	0
OTU 156	0	1	0	1	0	0	0	5	3	1	5	1	3	3	0	0	0	0	3	6	0	1	3	0	4	1	2	1	0	0	0	2	6	2	2	1	1	2	1	6	0	3	1	0	1	0	3	1	3	2
OTU 157	0	0	0	0	1	0	0	0	0	0	2	0	2	0	0	0	0	0	0	0	0	0	1	10	0	0	0	0	0	0	3	0	0	4	1	0	0	0	0	1	1	0	0	1	0	0	0	5	7	1
OTU 158	0	0	0	0	0	0	0	0	0	0	2	0	1	0	0	0	0	0	0	0	0	0	0	0	0	0	0	0	0	0	0	0	0	0	0	0	0	0	0	0	0	0	0	1	0	0	0	0	0	0
OTU 159	2	2	0	0	0	0	3	1	0	0	1	0	2	2	0	36	3	1	0	1	0	1	5	1	1	0	0	0	0	2	1	0	14	0	0	0	0	0	2	0	1	0	0	0	0	0	0	0	0	7
OTU 160	2	17	3	12	3	0	13	0	1	0	7	2	10	0	0	5	1	0	1	3	4	6	6	8	4	8	2	8	1	1	4	4	5	3	0	1	12	5	4	1	3	2	0	5	0	0	3	5	0	7
OTU 161	0	0	0	0	0	1	0	0	1	1	0	1	4	0	0	2	7	0	0	3	86	0	0	2	5	0	2	0	3	5	0	0	1	0	1	2	0	2	0	2	2	0	0	2	0	1	2	0	0	0
OTU 162	0	1	7	0	0	1	2	1	1	0	8	1	9	0	1	0	1	2	4	2	0	1	1	3	3	1	1	0	15	0	0	1	2	0	0	2	5	2	2	1	10	12	0	1	2	6	1	1	0	2
OTU 163	0	0	0	0	0	0	0	0	0	0	0	0	0	0	0	0	0	0	0	0	0	1	0	0	0	0	0	0	0	0	0	0	0	1	0	0	0	0	0	0	0	0	0	0	0	0	0	0	0	0
OTU 164	0	0	0	0	0	0	0	0	0	0	0	0	0	0	0	0	0	0	0	0	0	0	0	0	0	0	0	0	0	0	0	0	0	0	0	0	0	0	0	0	0	0	0	1	0	0	0	0	0	0
OTU 165	0	1	0	0	0	0	2	0	0	0	0	0	1	1	0	0	0	0	0	0	0	1	0	0	0	2	0	0	2	0	0	0	0	1	0	0	0	0	0	0	0	0	0	2	0	0	3	4	6	1
OTU 166	0	0	0	0	0	0	0	0	0	0	0	0	0	0	0	0	0	0	0	0	0	0	0	0	0	0	0	0	0	0	0	0	0	0	0	0	0	0	0	0	0	0	0	0	0	0	0	0	0	0
OTU 167	4	0	1	0	1	1	0	5	0	1	0	0	0	0	0	0	5	0	0	3	0	0	1	0	0	2	0	0	14	0	3	0	1	0	1	3	0	2	0	0	2	0	0	3	2	0	0	0	0	0
OTU 168	4	0	0	0	0	0	10	0	1	0	1	3	0	0	2	74	3	0	0	0	2	0	1	0	7	1	0	0	0	1	2	0	0	1	0	1	0	2	2	1	1	0	0	4	0	1	0	2	0	0
OTU 169	0	0	0	0	0	0	0	0	0	0	0	0	0	0	0	0	0	0	0	0	0	0	0	0	0	0	0	1	6	0	0	2	0	0	3	0	0	0	0	1	0	0	0	0	0	0	1	0	0	0
OTU 170	0	0	0	0	0	0	0	0	0	0	0	0	0	0	0	0	0	0	0	0	0	0	0	0	0	0	0	0	0	0	0	0	0	1	0	0	0	0	0	0	0	0	0	0	0	0	2	0	0	0
OTU 171	4	0	4	1	0	0	3	3	9	3	0	5	0	4	0	0	1	0	0	9	0	0	1	0	0	1	4	0	0	1	0	0	0	0	140	1	0	9	1	0	0	0	4	0	0	0	0	1	0	0
OTU 172	0	0	0	0	0	0	0	0	0	0	0	0	0	0	0	0	0	1	0	1	0	0	0	0	0	0	0	0	0	0	0	0	0	0	0	0	0	0	0	0	0	0	0	0	0	0	0	0	1	5
OTU 173	0	2	0	0	0	0	0	6	0	0	0	7	4	0	0	0	0	0	0	2	7	0	3	0	0	0	0	0	0	0	0	0	0	0	0	1	0	3	0	0	0	5	0	0	0	0	0	2	0	0
OTU 174	10	0	0	0	4	0	65	0	0	0	0	2	15	0	16	0	0	5	0	1	0	0	1	8	3	0	0	1	0	0	5	4	0	0	0	0	0	0	1	8	0	1	0	3	0	2	3	0	0	0
OTU 175	0	0	2	2	1	0	0	1	0	0	0	0	0	0	0	0	0	0	0	0	0	2	0	1	0	0	2	0	1	0	9	0	0	0	0	1	0	0	0	0	0	0	0	3	0	0	0	2	0	0
OTU 176	0	1	0	3	1	1	1	1	0	3	2	2	1	5	0	0	3	0	1	0	9	10	0	2	0	0	0	0	3	0	1	1	0	4	1	1	0	10	0	0	0	0	0	7	0	0	3	2	12	5
OTU 177	0	0	1	5	0	0	0	1	10	0	2	1	4	0	1	2	0	0	0	0	1	1	0	1	0	0	6	0	0	0	1	0	7	0	2	0	5	0	4	8	8	0	2	0	0	2	3	0	1	0
OTU 178	0	0	0	0	0	0	0	0	0	0	0	0	0	0	0	0	0	0	3	1	0	0	3	0	0	1	1	0	0	0	0	0	1	0	1	0	0	0	0	1	0	0	0	0	0	0	0	0	0	0
OTU 179	0	0	0	0	0	0	0	6	0	0	0	0	0	0	0	2	0	2	2	0	0	0	0	4	0	0	0	0	0	0	2	0	19	1	0	1	0	1	0	0	1	0	1	0	2	4	0	0	0	0
OTU 180	3	4	1	5	4	64	2	12	2	4	56	1	3	0	0	46	4	3	4	1	1	0	6	0	14	20	55	1	4	0	5	4	5	9	0	46	15	3	2	2	9	5	10	3	5	34	9	3	5	13
OTU 181	0	0	0	1	1	0	1	0	0	0	0	0	0	2	0	0	0	2	1	0	3	1	0	1	0	2	0	0	1	0	0	0	0	0	0	0	0	0	1	1	1	0	0	0	0	0	0	0	4	0
OTU 182	0	0	0	0	0	0	0	1	0	0	0	0	0	0	0	0	0	0	2	0	2	0	0	0	0	0	0	0	0	1	0	0	0	0	0	0	0	0	0	0	0	0	0	0	0	0	0	6	0	0
OTU 183	1	0	1	0	0	0	1	4	0	0	0	0	0	0	2	0	0	0	1	2	0	7	0	0	0	2	0	0	3	2	1	0	2	1	0	2	0	1	1	1	4	2	0	0	1	2	0	0	5	0
OTU 184	0	2	2	0	0	0	0	1	0	0	0	0	0	0	0	0	0	0	2	0	0	4	0	0	0	0	0	0	0	0	1	0	0	2	2	0	0	0	0	0	0	1	0	0	1	0	1	5	0	0
OTU 185	0	2	2	1	0	0	5	3	1	1	3	4	0	1	2	0	0	0	15	1	2	0	0	0	1	0	1	1	1	1	1	0	1	0	3	3	1	3	1	1	1	2	0	0	0	1	3	16	2	0
OTU 186	0	0	0	2	1	0	0	0	4	0	0	0	0	0	2	2	0	6	0	1	0	3	0	1	0	0	0	1	0	0	1	0	0	2	3	0	0	1	0	0	0	0	0	0	0	0	0	0	0	1
OTU 187	7	1	1	1	3	1	0	1	1	0	1	1	0	0	2	1	1	1	0	9	2	5	1	1	5	4	3	1	1	7	3	1	10	2	0	0	2	0	1	0	3	0	0	2	0	2	7	3	4	2
OTU 188	1	2	86	4	0	1	0	0	36	1	3	3	5	1	4	0	5	3	2	30	1	1	15	1	0	2	0	0	2	0	1	5	0	6	1	1	0	5	1	0	1	4	1	40	0	0	16	2	2	4
OTU 189	2	3	3	0	0	0	0	2	21	1	7	7	0	1	1	2	0	3	4	0	0	20	1	7	1	4	9	2	1	2	1	4	0	0	2	1	0	0	0	0	1	3	0	4	1	0	0	20	4	4
OTU 190	0	0	0	0	0	0	0	0	0	0	0	2	0	0	0	0	0	0	0	0	0	0	0	0	1	0	0	0	0	0	0	0	0	0	0	0	0	1	0	0	0	0	0	0	0	0	0	0	0	0
OTU 191	0	0	1	2	0	0	1	0	0	9	0	2	0	1	4	1	0	1	0	2	1	0	0	3	0	0	5	0	4	0	0	0	1	0	0	0	0	5	2	0	0	4	1	4	1	3	4	1	0	4
OTU 192	10	4	5	0	2	0	3	16	0	1	2	1	1	26	2	4	1	6	1	8	1	0	0	0	0	6	1	2	1	0	2	0	3	0	0	8	0	1	5	0	0	0	6	1	1	0	7	1	8	0
OTU 193	0	0	0	0	0	1	0	0	2	0	2	1	0	6	0	0	3	0	0	0	0	2	1	0	8	3	0	1	0	3	0	0	0	0	0	0	2	4	3	1	3	0	0	0	1	1	1	0	7	1
OTU 194	0	0	2	0	0	0	1	5	0	0	0	0	0	9	1	8	0	0	0	0	2	0	1	1	0	5	5	2	0	3	0	0	0	4	0	0	0	0	0	0	5	0	0	0	0	1	1	1	0	0
OTU 195	0	0	0	1	3	0	9	0	0	0	4	0	0	0	5	0	0	2	0	3	0	0	0	2	0	0	1	0	25	0	0	0	3	0	0	0	0	0	1	0	0	0	0	1	0	0	0	1	2	0
OTU 196	0	1	0	1	1	2	0	0	1	1	0	0	0	0	0	0	4	0	4	19	0	0	0	0	0	1	0	2	0	1	0	1	3	41	4	0	4	0	4	1	20	1	20	0	1	10	1	1	0	5
OTU 197	7	6	5	0	5	0	0	1	1	0	38	2	0	2	6	0	1	0	1	0	0	0	8	1	0	3	3	5	0	0	0	1	0	1	31	0	7	4	9	0	1	0	0	0	0	2	0	2	12	0
OTU 198	0	0	4	0	0	0	0	0	3	0	0	0	0	0	0	1	0	0	1	0	2	0	0	0	0	0	0	0	0	0	0	0	0	0	0	0	0	0	0	0	0	0	0	0	0	0	0	1	0	0
OTU 199	0	0	3	0	0	0	0	0	0	1	0	0	0	0	0	1	0	0	0	0	0	0	1	0	0	0	0	0	0	0	0	0	0	0	0	0	0	0	0	0	0	0	1	0	0	0	0	0	0	2
OTU 200	0	1	0	0	1	2	2	0	0	1	0	13	2	2	2	3	2	9	0	0	2	1	0	1	0	0	0	0	1	1	0	0	0	0	1	0	0	3	0	2	4	2	0	0	0	0	0	1	6	0
