	Host 1	Host 2	Host 3	Host 4	Host 5	Host 6	Host 7	Host 8	Host 9	Host 10	Host 11	Host 12	Host 13	Host 14	Host 15	Host 16	Host 17	Host 18	Host 19	Host 20	Host 21	Host 22	Host 23	Host 24	Host 25	Host 26	Host 27	Host 28	Host 29	Host 30	Host 31	Host 32	Host 33	Host 34	Host 35	Host 36	Host 37	Host 38	Host 39	Host 40	Host 41	Host 42	Host 43	Host 44	Host 45	Host 46	Host 47	Host 48	Host 49	Host 50	
OTU 1	0	0	0	0	0	4	2	0	0	3	0	0	1	3	1	1	0	3	0	0	2	3	0	9	0	0	0	1	0	2	0	4	1	1	0	3	0	2	0	0	3	1	1	0	0	4	0	0	1	1
OTU 2	6	0	1	38	1	0	0	0	0	1	1	0	0	0	0	6	0	0	0	0	0	0	0	2	0	0	4	50	0	0	0	0	2	0	1	0	0	0	0	2	0	0	0	0	4	0	0	2	0	1
OTU 3	0	0	0	1	0	0	0	0	2	0	0	0	0	0	0	0	0	0	0	2	0	0	0	1	1	0	0	0	0	1	0	0	0	0	0	0	0	0	1	0	12	0	0	1	1	0	0	0	1	0
OTU 4	0	0	0	0	0	0	0	0	5	0	0	0	0	0	0	0	0	0	0	0	0	0	0	0	0	0	0	0	0	0	0	0	0	0	0	0	0	0	0	0	0	0	0	0	0	0	0	0	0	0
OTU 5	0	0	3	34	4	31	1	4	44	1	3	32	8	3	16	4	42	6	13	1	22	49	5	26	0	10	0	12	0	3	5	3	4	13	6	10	33	36	23	17	2	19	18	5	0	3	7	0	8	1
OTU 6	0	3	0	0	2	1	1	0	0	0	33	0	0	2	1	0	2	0	5	0	1	0	9	5	0	0	0	1	3	1	0	0	3	0	0	3	0	0	79	0	0	0	2	0	3	0	4	1	2	0
OTU 7	4	8	2	0	4	11	11	6	2	6	1	0	3	7	8	6	5	6	0	0	4	0	0	0	1	1	3	1	3	11	2	12	11	7	1	3	3	2	4	1	5	6	10	5	1	0	0	1	10	16
OTU 8	5	1	1	0	0	5	1	1	3	2	0	1	1	3	0	3	3	2	30	7	0	21	0	8	5	2	3	4	1	2	1	2	1	1	0	4	0	5	4	1	2	4	20	2	5	5	3	4	2	8
OTU 9	0	0	0	0	2	0	0	1	1	3	1	0	0	1	0	1	2	1	0	0	0	1	0	0	2	1	0	5	1	1	2	0	1	1	0	0	1	0	0	0	1	0	1	0	1	0	0	1	0	0
OTU 10	0	0	0	0	0	0	0	3	0	0	0	0	0	0	0	0	0	0	0	0	0	71	1	0	5	4	0	0	2	0	0	0	0	0	0	9	0	2	2	1	0	0	1	1	3	0	0	4	0	1
OTU 11	0	0	1	1	6	1	0	0	5	0	2	0	0	0	0	3	2	6	0	0	1	2	0	2	1	2	0	0	2	1	0	0	0	3	0	3	0	1	1	0	0	2	2	0	0	0	1	1	7	2
OTU 12	1	2	0	2	0	2	1	3	0	2	1	1	2	1	0	3	0	0	3	33	2	5	1	3	0	0	0	2	1	1	0	0	1	1	0	2	0	0	4	1	1	0	166	1	9	2	0	3	49	0
OTU 13	0	0	1	0	0	0	0	0	0	3	0	0	0	0	0	0	0	0	0	6	0	0	1	0	3	3	0	0	0	0	0	0	0	0	0	1	0	0	0	0	0	0	0	0	0	0	0	0	0	0
OTU 14	0	4	2	2	0	0	8	0	4	0	2	0	0	4	0	0	0	0	0	0	0	0	0	0	6	1	0	0	3	0	0	0	0	0	0	0	0	0	0	0	0	0	0	0	0	0	0	4	1	0
OTU 15	0	0	0	0	0	0	0	0	0	0	0	0	0	0	0	0	0	0	0	0	0	0	0	0	0	0	0	0	0	0	0	0	0	0	0	0	0	0	0	1	0	0	0	0	0	0	0	0	1	2
OTU 16	0	0	1	0	0	0	0	0	0	0	0	0	0	0	0	0	0	0	0	0	0	0	0	0	0	0	0	0	0	0	0	0	0	0	2	0	0	0	0	0	0	0	0	0	0	2	0	0	0	1
OTU 17	0	1	0	2	0	0	0	1	0	0	0	3	0	0	1	2	2	0	0	0	0	0	2	0	6	5	0	4	0	0	1	1	0	0	0	0	0	0	0	0	0	0	0	1	1	1	0	2	0	0
OTU 18	1	0	1	2	3	2	1	2	1	1	4	0	0	2	0	2	0	3	3	0	0	2	0	1	2	0	0	1	2	0	5	2	0	0	0	0	22	0	13	0	2	4	0	0	4	14	3	0	1	0
OTU 19	0	0	0	0	0	0	0	0	0	0	0	0	0	0	0	0	0	0	0	0	0	0	0	0	1	0	0	0	0	0	0	0	0	0	0	0	0	0	0	0	0	0	0	0	0	0	0	0	0	0
OTU 20	0	4	1	0	1	2	2	1	4	2	0	1	1	0	0	4	1	1	0	0	0	4	0	1	4	0	5	4	0	1	6	0	3	0	0	0	0	0	0	0	1	0	0	0	3	1	0	0	0	4
OTU 21	4	9	0	0	0	0	0	1	0	1	1	2	0	0	0	1	0	0	0	0	2	0	1	10	2	0	7	1	7	0	0	0	0	5	0	4	0	0	1	0	0	0	1	0	1	0	1	5	0	0
OTU 22	1	0	0	0	0	2	0	0	0	0	0	1	0	0	0	2	0	0	0	0	1	2	0	0	1	0	2	3	1	0	3	0	0	0	0	0	0	1	2	0	0	2	0	0	0	1	0	2	1	0
OTU 23	0	0	19	3	0	0	0	1	1	0	2	4	0	0	4	8	0	0	0	3	1	2	1	0	1	1	0	0	3	1	2	8	0	0	0	0	0	0	16	0	0	0	0	4	1	0	0	0	0	1
OTU 24	0	12	153	0	0	1	0	0	0	0	0	1	1	1	0	0	0	0	0	1	0	0	0	0	1	1	3	0	0	0	0	0	0	0	0	0	1	1	2	0	0	0	0	0	2	0	0	0	0	0
OTU 25	0	0	0	0	0	0	0	0	0	1	0	0	0	0	0	0	0	0	0	0	0	0	0	0	0	0	0	0	0	0	0	0	0	0	0	0	0	0	0	0	0	0	0	0	0	0	0	0	0	0
OTU 26	0	0	0	0	0	0	0	0	0	0	0	94	0	0	0	2	0	0	0	0	0	0	0	0	0	0	0	2	0	0	0	0	0	0	0	0	0	0	0	0	0	0	0	0	0	0	0	4	0	0
OTU 27	0	0	0	0	0	0	0	0	0	0	0	0	0	0	0	0	0	0	0	0	0	0	0	0	0	0	0	0	0	0	0	0	0	0	0	0	0	0	0	0	0	0	0	0	0	0	0	0	0	0
OTU 28	12	11	5	5	3	3	191	4	1	3	0	0	3	4	0	0	1	2	0	7	0	1	1	0	1	0	7	2	1	2	1	1	0	0	1	0	0	2	0	0	2	1	0	1	1	1	1	0	0	3
OTU 29	1	2	0	0	1	68	51	1	0	2	2	0	29	1	35	0	34	3	0	3	29	6	16	3	5	2	0	0	0	32	0	55	81	64	4	1	19	54	0	1	0	1	2	27	0	2	1	2	0	2
OTU 30	0	0	0	0	0	0	0	0	0	0	0	0	0	0	0	0	0	0	0	0	0	0	0	0	0	0	0	0	0	0	0	0	0	0	0	0	1	0	0	0	0	0	0	0	0	0	0	0	0	0
OTU 31	0	0	0	0	0	2	0	0	4	0	0	1	1	0	2	0	5	0	0	1	0	0	1	2	0	0	1	0	0	2	0	2	0	3	75	0	0	2	0	0	0	0	0	0	0	1	1	0	1	0
OTU 32	7	5	0	5	3	9	4	2	24	3	0	1	6	6	2	5	3	3	0	2	4	1	10	21	1	0	27	4	0	6	0	5	5	8	2	8	2	22	0	0	1	5	7	11	1	3	0	2	4	2
OTU 33	0	0	0	0	0	0	0	0	0	0	0	0	0	0	0	0	0	0	0	0	0	0	0	0	0	0	0	0	0	0	0	0	0	0	0	0	0	0	0	0	0	0	0	0	0	0	0	0	4	0
OTU 34	2	0	0	0	5	1	2	4	0	1	3	1	1	3	0	4	0	0	0	0	1	3	1	0	0	0	4	0	3	0	0	1	2	3	0	0	0	0	0	0	0	0	0	1	0	0	0	0	1	0
OTU 35	0	0	0	1	0	0	5	0	5	2	15	0	0	0	0	0	0	1	2	0	0	0	0	1	0	0	0	1	1	0	0	1	0	0	2	0	2	0	9	1	0	0	0	2	0	0	0	0	0	0
OTU 36	1	1	0	1	2	0	0	0	3	3	0	6	0	1	0	1	0	1	0	0	0	0	0	1	3	0	0	0	0	0	0	0	0	2	0	1	0	0	0	1	0	0	0	0	0	1	0	2	0	1
OTU 37	3	0	1	0	0	0	1	0	0	0	0	0	0	1	0	1	0	0	0	0	0	0	0	0	3	1	0	0	1	0	0	1	0	0	0	5	0	0	0	1	0	0	0	0	0	0	0	0	0	0
OTU 38	3	0	1	1	1	1	1	0	3	0	5	1	2	1	0	0	0	1	1	2	0	0	0	2	4	0	10	0	1	33	0	0	0	1	1	0	0	1	0	0	1	0	0	0	1	0	0	0	0	6
OTU 39	0	1	0	0	0	0	0	1	0	0	2	2	0	0	0	1	1	0	0	0	0	0	0	2	0	0	6	1	0	0	2	0	0	0	0	0	0	0	0	0	0	1	2	0	0	0	0	0	1	0
OTU 40	1	4	4	0	0	0	0	0	0	0	3	1	0	2	0	3	0	1	0	0	0	3	3	1	2	4	2	1	1	0	3	0	2	2	1	62	0	0	0	1	4	0	1	0	7	1	0	0	0	4
OTU 41	0	0	6	0	0	0	0	3	0	3	0	0	0	0	0	0	0	1	0	1	0	1	1	3	2	3	0	0	0	1	0	0	0	0	0	2	1	5	0	11	0	0	0	0	0	0	0	1	8	0
OTU 42	0	0	0	1	0	0	0	0	0	0	0	4	0	0	0	3	0	0	0	0	0	0	0	0	0	0	2	0	0	0	0	0	0	0	3	0	0	0	0	0	0	0	0	0	8	0	0	0	4	0
OTU 43	0	0	0	0	0	0	0	0	0	0	0	0	0	0	0	0	0	0	0	0	0	0	0	0	0	0	0	0	0	0	0	0	0	0	0	0	0	0	0	33	0	0	0	0	0	0	0	0	0	0
OTU 44	0	1	0	0	1	0	0	0	0	0	0	0	0	0	0	0	0	0	0	0	0	0	0	0	0	0	1	0	0	0	1	0	0	0	0	0	0	0	0	0	0	0	0	1	0	0	0	0	0	0
OTU 45	2	1	2	0	2	2	0	0	2	5	0	1	0	0	0	2	0	1	0	1	0	0	7	0	2	3	0	0	0	3	0	0	0	0	5	2	0	0	3	0	0	0	1	0	6	0	4	4	0	2
OTU 46	19	12	10	0	1	0	0	2	1	2	0	0	0	0	0	5	0	4	0	2	0	0	0	0	1	0	0	0	1	1	0	0	2	1	0	2	5	0	4	0	0	1	2	0	23	4	1	23	1	19
OTU 47	0	0	0	0	0	0	0	0	0	0	0	0	0	0	0	0	0	2	0	0	73	0	1	1	0	0	0	0	0	1	0	0	0	0	1	0	0	1	1	0	0	0	0	0	0	0	0	1	0	0
OTU 48	2	1	0	2	2	1	0	4	2	0	1	1	0	7	0	0	0	3	59	0	1	1	0	0	2	2	5	0	3	0	3	0	0	0	2	3	0	1	5	1	2	3	1	1	3	95	43	0	0	0
OTU 49	2	0	8	0	1	1	0	0	2	1	0	0	0	1	0	0	0	0	0	0	1	1	0	0	0	0	0	0	1	0	0	0	0	0	0	0	0	0	1	0	0	0	0	0	0	1	0	2	0	0
OTU 50	8	0	0	4	2	3	1	137	1	2	0	0	3	4	0	1	0	3	1	0	1	0	2	0	1	2	4	9	0	0	7	0	2	0	1	1	0	0	1	0	2	2	0	1	0	2	7	5	0	1
OTU 51	0	2	0	4	0	0	0	2	7	9	0	0	0	3	1	0	33	0	0	0	0	0	0	0	5	2	0	0	0	0	10	0	0	0	0	0	17	54	1	1	1	0	1	0	0	0	0	1	0	5
OTU 52	1	3	3	0	24	0	0	18	2	5	0	0	1	5	0	1	4	0	1	0	0	6	39	1	9	1	9	1	1	0	1	0	0	0	2	2	1	1	1	0	3	4	2	0	3	1	0	1	2	3
OTU 53	0	0	0	0	0	0	0	0	0	0	0	0	0	0	0	0	0	0	0	0	0	0	1	0	0	0	0	0	0	0	0	0	0	0	0	0	0	1	0	0	0	0	0	0	0	0	0	0	0	0
OTU 54	7	2	2	0	17	0	0	0	0	4	1	8	0	0	1	0	2	1	25	44	3	2	6	0	11	3	3	0	0	1	5	0	3	0	4	5	1	0	1	1	0	0	0	1	2	8	1	1	75	6
OTU 55	0	0	0	0	0	0	0	0	0	0	0	0	0	0	0	0	0	0	0	0	0	0	0	0	0	0	0	0	0	0	0	0	0	0	0	0	0	0	0	0	0	0	0	0	0	0	0	0	0	0
OTU 56	0	0	0	4	0	0	0	0	0	0	0	0	0	0	0	1	0	2	0	0	0	0	0	0	0	0	1	2	1	0	0	0	0	0	0	0	0	1	0	0	0	0	0	0	0	0	2	0	0	0
OTU 57	5	7	1	6	1	0	0	1	0	0	1	4	2	1	0	6	1	3	0	2	1	1	27	1	8	0	4	45	7	0	4	0	28	1	0	0	0	3	0	0	2	0	1	0	5	4	5	0	3	0
OTU 58	0	0	0	0	0	0	0	0	0	0	0	0	3	2	0	0	0	1	0	4	0	0	0	0	1	45	0	0	1	0	0	0	0	0	0	0	0	0	6	0	3	3	0	0	2	4	3	0	0	0
OTU 59	0	0	0	1	3	0	1	0	0	2	2	5	1	0	0	0	0	0	0	0	1	0	0	47	0	1	0	2	0	0	0	1	2	0	7	28	1	0	3	0	0	0	26	0	0	1	0	1	0	0
OTU 60	0	0	2	3	2	1	0	0	1	0	1	0	0	0	153	1	0	0	6	0	0	0	14	19	3	0	2	4	1	1	3	1	0	2	0	16	0	2	0	1	1	2	5	5	9	7	1	0	4	3
OTU 61	1	3	0	5	9	2	5	0	2	0	1	1	1	13	1	1	2	27	0	5	1	6	4	0	13	3	4	6	1	3	14	4	2	2	1	0	1	4	9	5	3	11	0	2	5	0	0	5	3	1
OTU 62	0	0	0	0	0	2	2	0	0	0	4	0	0	0	1	3	0	0	0	0	0	0	0	0	0	0	0	1	2	0	0	0	0	2	0	0	0	0	12	0	0	0	6	0	0	4	3	0	0	0
OTU 63	0	0	0	0	0	0	0	0	2	0	0	0	0	0	0	0	0	0	17	2	0	0	0	1	1	0	0	0	0	0	1	0	0	0	0	1	0	0	0	3	2	0	0	0	0	35	15	0	0	0
OTU 64	6	53	0	3	0	0	0	6	3	1	3	3	0	1	0	13	0	1	0	3	0	0	0	0	1	1	3	61	1	0	0	0	0	0	0	0	2	2	1	0	4	1	0	0	17	0	0	3	11	3
OTU 65	0	0	0	0	0	0	0	0	0	0	0	0	0	0	0	0	0	1	0	0	0	0	0	0	0	0	0	0	0	0	0	0	0	0	0	0	0	0	0	0	0	0	0	0	0	0	0	1	0	0
OTU 66	4	5	1	2	1	1	5	2	0	2	7	0	0	0	1	5	0	1	2	150	0	0	3	3	1	0	2	1	0	2	0	2	2	2	1	0	1	2	1	3	0	4	0	2	3	0	1	1	1	0
OTU 67	2	0	0	0	3	4	0	0	0	1	0	0	2	0	0	0	0	1	0	1	0	0	1	0	0	1	4	0	0	0	1	0	0	0	0	0	0	0	0	2	0	0	0	0	0	0	0	0	0	0
OTU 68	3	0	1	0	1	0	1	0	0	0	0	0	0	0	0	3	0	0	0	0	0	0	0	0	2	1	0	0	9	0	0	0	0	0	0	0	0	0	0	0	0	0	0	0	1	3	0	0	0	3
OTU 69	1	1	20	4	3	0	1	3	0	4	22	1	1	0	1	1	0	4	5	0	0	0	9	0	0	0	0	0	0	0	1	0	0	0	1	1	0	4	10	1	0	1	0	0	8	4	5	16	3	2
OTU 70	0	0	0	0	0	8	4	0	1	1	0	0	2	4	4	2	4	0	2	1	4	0	0	0	1	0	3	0	2	9	0	7	4	11	0	0	6	10	0	0	0	0	0	0	6	2	0	0	0	0
OTU 71	1	0	1	0	0	2	5	0	0	0	0	7	0	0	0	7	0	0	0	4	2	0	4	0	0	0	2	3	0	0	0	0	0	0	0	0	0	0	0	0	1	2	0	1	0	0	0	0	0	1
OTU 72	11	2	3	19	0	0	1	1	2	1	2	1	0	39	0	0	0	7	0	3	0	15	1	0	0	0	4	5	3	0	1	0	0	1	16	0	1	3	9	1	17	12	0	0	1	1	0	2	0	1
OTU 73	3	0	0	1	1	1	0	2	0	1	2	1	0	0	0	0	0	2	0	0	0	0	3	0	0	2	3	1	0	0	1	1	0	0	0	0	0	0	15	1	0	4	4	0	3	0	1	2	1	12
OTU 74	2	3	2	1	0	1	3	1	0	5	0	0	0	32	0	1	1	2	1	0	1	22	0	0	11	4	2	0	4	4	7	0	2	2	1	6	0	1	3	7	13	7	1	0	1	6	0	0	3	3
OTU 75	4	9	1	4	4	1	0	4	2	0	2	0	1	1	0	0	0	8	129	12	0	1	20	6	16	12	7	1	0	0	0	2	0	0	1	1	2	0	0	4	0	1	2	1	0	9	2	2	14	0
OTU 76	0	4	1	0	0	0	0	1	0	0	0	1	0	1	0	0	0	0	0	0	0	2	0	0	0	0	0	0	0	0	2	0	0	0	0	0	0	0	2	0	0	3	0	0	0	0	0	1	0	1
OTU 77	0	0	3	0	4	0	0	0	1	0	0	1	0	1	20	2	1	2	3	0	0	1	0	5	0	0	5	2	4	0	0	2	1	1	1	1	0	0	0	1	1	1	0	0	0	0	0	1	1	0
OTU 78	1	2	7	1	0	0	1	6	0	14	1	2	0	0	2	4	0	0	0	1	0	0	0	0	2	0	0	0	0	1	15	1	1	0	1	0	0	0	1	0	0	0	0	0	0	0	0	5	0	0
OTU 79	8	1	13	4	9	4	1	7	12	9	8	7	1	14	0	0	2	19	0	7	5	11	24	9	9	10	6	2	0	2	6	0	7	14	13	7	4	6	3	3	4	19	4	1	6	0	1	6	3	3
OTU 80	0	0	0	0	2	13	25	1	3	6	0	1	15	1	16	3	24	5	6	4	15	0	6	3	7	0	7	65	1	8	4	34	19	29	0	3	4	16	1	1	0	1	2	16	4	1	1	0	14	1
OTU 81	8	78	3	0	0	1	0	1	0	3	0	3	165	0	0	2	4	10	3	0	0	1	2	1	3	0	1	5	49	0	26	0	0	1	0	0	0	0	3	1	0	0	0	1	18	3	3	2	2	0
OTU 82	2	0	0	0	0	0	0	0	0	0	3	0	0	3	0	3	1	1	0	0	2	0	0	0	2	0	1	0	0	0	0	0	3	1	1	0	1	0	2	14	0	3	1	2	0	2	0	2	1	9
OTU 83	0	0	0	0	2	0	0	0	0	0	0	1	1	1	0	0	0	0	0	0	1	0	0	0	0	0	1	0	0	0	0	0	0	1	1	0	0	0	0	0	0	1	0	0	0	0	0	0	0	0
OTU 84	0	0	4	0	0	0	0	0	0	1	1	0	0	2	0	0	0	1	0	0	1	1	0	10	0	0	0	0	3	0	1	0	4	0	0	1	0	0	6	2	0	0	1	2	6	0	1	0	0	0
OTU 85	0	0	1	0	2	0	0	0	0	2	0	0	0	1	1	0	0	0	0	1	0	0	0	0	0	0	0	0	0	0	3	0	0	0	0	0	0	0	0	0	2	0	0	0	0	0	0	0	1	0
OTU 86	0	0	0	0	0	0	0	0	0	0	0	0	0	0	0	0	0	0	0	0	0	0	0	0	0	0	0	0	0	0	0	0	0	0	0	0	0	0	0	0	1	0	0	0	2	0	0	0	0	0
OTU 87	0	0	0	0	14	0	2	0	0	1	0	2	0	0	0	1	0	0	0	0	0	0	0	0	0	0	0	1	131	0	2	0	1	2	0	0	0	1	0	0	0	1	0	0	2	4	0	4	2	6
OTU 88	0	0	0	0	0	0	0	0	0	0	0	1	0	0	0	0	0	0	0	0	0	0	0	0	0	0	0	0	0	0	0	0	0	0	0	0	0	0	0	0	0	0	0	0	0	0	1	2	0	0
OTU 89	0	0	0	0	0	0	0	0	2	0	0	0	0	0	0	0	0	3	0	0	0	0	0	0	1	0	0	0	0	0	2	1	0	0	1	2	0	0	0	3	0	0	1	0	1	2	0	0	0	0
OTU 90	0	0	0	0	0	0	0	0	0	0	0	0	0	0	0	0	0	0	0	0	0	0	0	0	0	0	0	0	0	0	0	0	0	0	0	0	0	0	0	0	0	0	0	0	2	0	0	0	0	0
OTU 91	0	0	0	0	0	0	0	0	0	0	0	0	0	0	0	0	0	0	0	0	0	0	0	0	0	0	0	0	0	0	0	0	0	0	0	0	0	0	0	0	0	0	0	0	2	0	0	0	0	0
OTU 92	6	0	0	0	5	0	0	0	0	0	0	0	0	0	0	0	0	3	0	0	0	3	0	0	0	0	0	0	0	0	1	0	0	0	0	0	0	0	0	0	0	0	0	0	2	0	0	0	0	0
OTU 93	0	0	0	0	2	0	0	0	0	0	0	0	0	0	0	0	0	0	0	0	0	0	0	0	0	0	1	0	1	0	0	0	0	0	0	0	0	0	0	0	0	0	0	0	0	0	0	0	0	3
OTU 94	0	0	0	1	0	0	0	3	1	0	6	0	1	1	0	1	3	4	1	1	1	1	0	0	4	0	3	0	0	0	5	0	0	1	2	0	2	0	0	1	0	2	0	0	0	3	2	2	5	1
OTU 95	0	0	0	1	0	0	0	22	0	47	2	0	0	0	0	0	0	0	0	0	0	0	0	2	1	2	0	0	0	0	11	0	0	0	0	0	0	0	1	0	0	1	0	0	0	0	0	0	1	0
OTU 96	0	0	0	0	0	0	0	0	0	0	0	0	0	0	0	0	1	0	0	0	0	0	0	1	0	0	0	0	0	0	0	0	0	0	0	0	0	0	0	0	0	1	2	0	0	0	0	0	0	0
OTU 97	0	0	0	0	0	0	0	0	0	1	0	0	0	0	0	0	0	0	0	11	0	0	0	0	0	0	0	0	0	0	3	0	0	0	0	0	1	0	0	0	1	0	0	1	0	0	0	2	3	0
OTU 98	1	0	2	0	0	0	0	0	3	0	0	0	0	0	0	0	0	0	1	1	0	0	0	0	0	1	0	1	1	3	0	0	0	0	1	6	1	0	0	0	0	2	0	0	9	1	0	0	0	1
OTU 99	1	2	0	0	0	0	0	4	1	5	0	2	0	0	0	5	29	1	1	0	0	0	2	5	5	0	10	0	3	0	2	1	0	1	3	3	17	0	2	1	1	4	0	0	5	1	0	0	0	5
OTU 100	0	5	1	2	3	0	0	0	0	0	0	0	0	2	0	1	0	2	2	0	1	0	0	0	6	4	0	3	0	0	3	0	0	1	1	1	0	1	0	2	0	0	0	0	1	0	2	6	0	38
OTU 101	0	0	0	0	0	0	0	0	0	0	0	0	0	0	0	0	0	0	0	0	0	5	0	2	3	0	0	1	0	0	0	0	0	0	0	0	0	0	0	0	0	0	0	0	0	0	0	0	0	0
OTU 102	0	0	0	0	0	1	1	0	0	0	0	0	1	0	0	0	0	0	0	0	0	0	0	0	0	0	1	0	0	0	0	0	1	0	3	1	0	0	0	0	0	3	0	0	0	0	0	0	0	0
OTU 103	1	5	0	3	0	1	0	1	0	1	0	1	0	0	0	1	1	98	0	0	1	0	0	0	0	0	5	1	0	0	0	0	0	2	1	2	0	0	0	0	0	0	3	0	0	0	0	6	9	3
OTU 104	40	3	2	1	6	3	2	2	1	0	0	0	0	9	5	0	2	1	2	1	0	3	4	1	1	1	0	2	0	1	1	4	0	1	4	1	0	0	1	1	2	0	1	0	3	2	2	8	0	1
OTU 105	1	1	0	0	4	0	0	0	0	0	0	0	0	1	0	0	0	7	0	0	0	1	5	2	0	1	8	0	0	0	0	1	0	0	0	5	0	0	0	0	2	0	0	1	0	3	0	0	0	0
OTU 106	0	0	0	1	0	0	0	2	2	0	1	0	0	0	0	0	1	0	0	1	0	0	0	1	0	0	5	0	0	0	0	0	0	0	0	0	0	0	0	0	0	0	0	0	2	0	0	0	0	0
OTU 107	2	0	0	0	0	0	0	0	0	0	0	1	0	0	0	0	0	1	0	0	0	1	0	0	0	2	0	0	0	0	0	0	0	1	0	0	0	0	0	0	0	1	0	0	1	0	0	18	0	0
OTU 108	0	0	0	3	0	0	0	3	2	1	1	0	0	0	4	0	0	3	0	3	0	0	4	0	0	1	0	0	1	0	0	0	1	0	2	0	0	0	0	2	0	1	0	0	6	0	3	0	0	0
OTU 109	0	0	0	0	0	0	0	0	0	0	0	2	0	0	0	0	0	0	0	0	0	0	0	0	0	0	0	0	0	0	0	0	0	0	0	0	0	0	0	0	0	0	0	0	0	0	0	0	0	0
OTU 110	1	0	1	0	0	0	0	3	7	1	0	1	0	0	1	0	0	1	0	0	0	0	0	2	1	0	4	1	0	3	0	0	0	0	6	3	0	0	0	7	0	7	3	0	4	3	1	1	0	1
OTU 111	0	0	0	0	0	0	0	0	0	0	0	0	0	0	0	0	0	0	0	0	0	1	0	1	0	0	2	0	0	0	0	0	0	0	1	0	0	0	0	0	0	0	0	0	0	0	0	0	0	0
OTU 112	1	0	4	1	0	1	0	1	0	0	0	0	1	0	0	0	0	0	20	0	0	2	0	45	6	0	0	0	0	1	0	5	0	0	0	14	0	0	0	0	0	0	27	2	0	42	23	0	4	0
OTU 113	0	0	0	0	0	0	0	0	0	0	0	0	0	0	0	0	1	0	0	0	1	0	0	0	0	0	0	1	0	0	0	0	0	0	0	0	0	0	4	0	0	0	0	0	0	0	0	2	0	0
OTU 114	10	0	8	1	2	1	1	1	8	9	0	3	0	1	0	4	1	1	1	0	0	0	3	2	0	0	11	0	4	0	9	1	0	0	3	1	3	0	1	0	1	2	0	0	0	2	1	0	1	0
OTU 115	1	1	5	0	9	1	2	2	0	5	6	4	1	8	0	9	1	1	4	1	1	38	2	3	4	8	3	1	0	2	10	0	1	0	1	0	0	1	2	9	1	3	2	1	9	6	4	7	0	6
OTU 116	0	0	4	1	5	0	0	0	0	0	1	0	29	1	1	3	2	1	2	0	1	0	7	5	0	0	1	1	0	2	10	2	0	0	0	1	0	0	5	4	2	1	1	0	2	7	5	4	2	1
OTU 117	0	0	0	0	0	0	2	0	0	0	0	26	0	1	0	2	1	1	2	1	0	1	2	0	5	3	0	1	0	0	1	0	0	0	2	1	0	0	0	2	0	0	0	0	0	1	1	0	1	3
OTU 118	2	0	2	0	0	0	0	0	0	0	0	0	0	0	0	0	0	0	2	0	0	0	0	6	0	0	0	0	0	0	2	0	0	0	0	0	1	0	0	0	0	0	4	0	0	0	0	0	0	0
OTU 119	4	0	2	5	1	1	1	1	0	4	2	2	2	0	0	3	1	0	0	1	0	1	1	0	0	0	2	0	1	0	0	0	1	4	2	0	27	1	1	0	0	0	1	0	3	6	0	1	1	0
OTU 120	0	0	8	0	0	0	1	1	0	0	1	0	0	0	0	0	0	0	0	3	0	0	0	0	0	1	0	3	0	0	0	0	1	1	1	0	0	0	3	1	0	1	0	0	0	0	0	1	0	0
OTU 121	1	0	0	5	0	3	0	0	0	0	0	2	0	0	1	3	4	0	0	0	0	0	4	0	0	0	1	1	0	147	0	0	1	0	0	1	0	0	0	0	1	0	0	3	0	0	0	2	0	2
OTU 122	3	1	0	1	1	1	0	1	5	0	6	2	1	0	0	2	0	2	0	0	1	1	3	0	3	7	2	0	0	1	0	0	0	0	0	1	0	3	2	0	0	3	0	0	0	0	4	1	0	1
OTU 123	21	7	2	39	4	5	6	12	7	20	3	18	2	4	1	14	0	3	6	4	1	0	13	9	10	4	21	1	3	5	6	10	1	4	8	0	8	2	12	2	3	3	2	5	6	3	178	14	8	2
OTU 124	0	0	0	0	1	0	0	0	0	3	0	0	0	0	0	0	0	0	0	0	0	0	0	0	0	1	0	0	2	0	0	0	0	0	0	0	0	0	1	0	0	4	0	0	0	0	1	0	0	1
OTU 125	4	4	0	17	5	0	0	13	2	32	11	0	0	11	1	1	0	5	1	7	0	1	5	7	19	9	15	1	3	2	23	5	2	1	3	6	1	2	10	1	3	1	2	3	17	3	4	3	2	9
OTU 126	0	0	1	0	1	0	0	0	0	0	0	0	0	0	0	0	1	0	0	0	0	0	0	0	0	0	0	0	0	0	0	0	0	0	0	0	0	0	0	0	0	0	0	0	0	0	1	0	0	1
OTU 127	0	0	7	0	0	21	2	0	0	3	4	0	8	0	0	2	0	3	1	2	3	2	0	0	0	0	1	0	1	0	0	1	0	0	0	0	1	0	0	1	1	0	0	2	1	11	9	0	0	0
OTU 128	4	15	4	6	4	4	7	9	50	3	4	4	2	2	0	16	1	8	1	7	3	1	5	21	12	112	19	5	32	1	12	1	6	6	8	4	107	11	2	7	4	4	8	1	11	6	1	3	1	20
OTU 129	0	0	0	0	0	0	1	0	0	0	1	0	0	2	0	0	0	0	0	0	0	1	0	0	0	0	0	0	0	0	0	0	0	0	0	0	0	0	0	0	0	0	0	1	0	0	0	0	1	0
OTU 130	0	0	2	0	0	0	0	0	3	0	4	1	0	3	0	3	1	4	1	0	1	0	1	0	0	0	4	0	0	0	0	0	0	0	2	0	0	0	0	0	3	5	0	0	2	1	0	0	6	2
OTU 131	0	0	1	0	1	0	0	2	0	7	6	3	0	8	0	0	2	1	0	1	0	0	17	0	0	0	3	1	0	0	5	0	0	1	0	0	9	1	6	0	0	9	0	0	0	1	1	26	0	0
OTU 132	2	0	0	0	1	0	1	0	0	0	1	0	0	0	0	0	0	0	1	4	0	0	0	0	0	0	1	0	0	0	0	0	0	1	0	0	1	1	0	0	0	4	0	0	0	0	0	0	1	0
OTU 133	0	0	0	0	0	0	0	0	0	0	0	0	0	1	0	0	0	16	0	0	0	0	0	0	0	0	1	0	0	0	0	0	0	0	0	0	0	0	0	0	0	0	0	0	0	3	0	0	0	1
OTU 134	8	0	0	0	0	6	2	0	0	2	3	1	2	4	0	0	1	1	0	1	0	0	3	4	0	0	0	0	0	0	73	2	1	1	0	0	0	1	2	0	0	1	0	0	0	1	0	1	0	2
OTU 135	2	2	1	6	0	6	1	0	2	1	0	23	2	0	1	34	0	0	0	0	0	0	0	5	1	0	6	2	2	0	0	0	0	0	1	1	0	0	0	0	0	0	3	1	4	0	0	0	3	0
OTU 136	4	1	0	0	0	0	0	0	0	1	8	0	0	0	0	0	0	0	0	0	0	6	1	0	0	0	1	0	2	2	1	0	0	0	9	1	0	6	2	0	0	24	1	7	0	0	0	1	1	1
OTU 137	2	0	0	0	0	0	0	1	0	0	0	0	0	0	0	0	0	1	0	0	1	0	0	0	1	0	0	0	0	0	0	0	0	0	0	0	0	0	0	0	0	0	0	0	0	0	0	0	3	0
OTU 138	0	0	0	4	0	4	0	8	2	24	1	0	3	0	0	0	0	0	0	0	0	0	0	0	0	0	0	0	0	0	1	0	0	1	0	0	0	0	0	0	0	0	0	0	1	0	0	0	0	0
OTU 139	3	2	0	1	5	0	8	2	4	2	1	0	0	1	1	8	3	2	4	0	2	3	6	6	10	5	6	3	0	0	4	4	1	1	4	14	8	2	1	0	1	9	8	4	1	1	0	2	11	0
OTU 140	13	1	5	1	1	4	2	1	4	7	4	0	0	6	1	1	0	2	1	5	0	1	5	9	1	2	4	10	1	0	29	2	2	1	3	2	1	3	2	3	4	6	3	0	24	1	1	6	3	3
OTU 141	0	0	0	0	0	0	0	1	0	0	0	0	0	0	0	0	0	0	0	0	0	0	0	0	0	0	0	0	0	0	1	0	0	0	0	0	0	0	0	0	0	0	0	0	0	0	0	0	0	0
OTU 142	0	0	0	0	2	0	0	0	0	0	0	0	0	2	0	0	0	0	0	0	0	0	0	0	0	0	0	0	0	0	0	0	0	0	0	0	0	0	0	0	1	0	0	0	0	0	0	0	0	0
OTU 143	1	0	0	0	1	0	0	0	0	0	0	0	0	0	0	0	31	0	0	0	0	0	0	2	0	0	0	0	0	0	0	0	0	0	0	0	15	0	0	0	0	0	0	0	1	1	1	0	0	0
OTU 144	0	0	3	0	0	0	0	2	0	2	0	0	0	0	0	0	0	0	2	0	0	0	0	0	1	0	0	0	0	0	0	0	0	0	0	1	0	0	0	0	0	0	0	0	0	0	0	0	0	1
OTU 145	0	2	0	1	5	0	1	1	2	1	0	3	0	0	0	7	2	0	1	1	0	2	1	3	3	1	0	2	15	2	3	1	0	0	0	1	0	0	0	90	2	3	1	0	1	1	1	2	2	0
OTU 146	0	0	0	5	3	0	1	0	0	0	0	0	0	3	3	0	0	2	0	0	3	0	2	7	3	8	0	0	0	1	0	3	0	0	73	5	0	0	1	1	0	0	5	0	0	1	1	0	1	2
OTU 147	1	0	0	2	0	0	0	0	0	0	9	0	0	0	0	0	0	1	0	0	0	0	0	0	1	1	0	0	0	1	0	0	0	0	0	0	0	0	2	1	1	1	1	0	0	0	1	0	1	0
OTU 148	5	1	1	32	1	0	0	1	0	5	0	0	0	0	0	3	0	0	0	2	0	0	0	2	4	0	8	0	6	0	1	0	0	0	3	0	0	1	0	38	0	0	0	0	0	0	0	16	2	3
OTU 149	0	0	0	0	0	0	1	0	0	0	0	0	0	0	0	0	0	0	0	0	1	3	0	2	0	0	0	0	0	0	0	1	2	2	0	0	0	0	0	0	0	2	1	0	0	1	1	0	0	3
OTU 150	1	0	0	0	0	0	2	0	0	0	0	0	0	0	0	0	0	0	0	0	0	0	6	0	0	0	0	0	0	0	0	0	1	0	1	0	0	0	1	0	0	0	0	0	6	0	0	0	0	0
OTU 151	3	0	0	0	56	0	0	0	37	0	0	20	0	0	0	0	37	1	1	0	2	0	0	0	3	2	1	0	0	0	0	0	0	2	0	0	9	1	0	0	1	0	2	0	1	0	0	4	0	0
OTU 152	1	0	0	0	1	0	0	2	0	1	6	0	0	64	0	0	0	0	0	0	0	29	5	0	10	6	2	0	1	0	2	0	3	0	10	3	0	3	1	0	45	25	0	0	3	0	0	0	0	2
OTU 153	0	0	0	0	0	0	0	0	0	0	0	0	0	0	3	0	0	0	0	0	0	0	0	0	0	0	0	0	0	1	0	1	0	0	0	0	0	0	0	0	0	1	0	0	0	0	0	0	0	0
OTU 154	0	0	0	0	0	0	0	2	0	1	0	0	0	0	0	0	0	0	0	0	0	0	0	0	0	0	0	0	0	0	0	0	0	0	0	0	0	0	1	0	0	0	0	0	0	0	0	0	0	0
OTU 155	0	1	2	0	1	0	0	1	0	1	0	0	0	0	0	0	0	1	0	0	0	0	0	0	1	0	0	0	0	0	2	0	0	0	39	0	0	0	0	0	0	72	0	0	0	0	0	1	2	0
OTU 156	2	0	1	0	1	0	0	4	8	7	0	1	0	3	0	4	3	1	0	0	0	1	4	0	1	1	6	0	0	0	3	0	0	0	0	0	1	0	2	0	0	3	1	0	3	0	0	1	0	0
OTU 157	0	2	0	0	0	0	0	0	0	0	0	0	0	0	0	1	0	0	0	0	0	1	0	0	1	0	1	1	0	0	0	0	2	0	1	0	0	1	3	0	0	0	0	2	0	0	0	0	7	0
OTU 158	0	0	0	0	0	0	0	0	0	0	0	0	0	0	0	2	0	0	0	0	0	0	0	0	0	0	0	0	0	0	0	0	0	0	0	0	0	0	0	0	0	0	0	0	4	0	0	1	0	0
OTU 159	5	4	0	1	0	0	0	0	0	1	1	0	0	0	0	1	0	0	0	1	0	0	0	0	0	1	6	0	0	0	2	0	0	0	0	0	0	0	2	0	0	0	0	0	0	0	0	28	0	0
OTU 160	8	1	2	1	3	1	1	3	7	4	1	11	1	0	0	14	1	7	0	0	0	0	2	5	5	2	7	8	3	1	0	0	3	5	0	0	3	1	5	42	0	4	2	0	1	0	3	12	9	1
OTU 161	1	4	1	1	0	3	5	1	0	5	2	1	3	0	2	0	0	1	0	3	0	2	1	0	0	0	3	0	1	0	0	1	1	2	1	0	3	1	0	0	1	2	0	0	1	0	0	4	7	5
OTU 162	6	0	0	40	0	1	0	0	4	1	13	0	0	5	0	2	0	1	0	1	1	0	1	2	1	2	0	0	0	2	0	1	1	0	3	0	0	0	1	1	1	3	1	1	0	0	0	0	4	0
OTU 163	0	0	0	0	56	0	0	0	0	0	0	0	0	0	0	2	0	0	0	0	0	0	0	0	0	0	0	0	0	0	0	0	0	0	0	0	0	0	0	0	0	0	0	0	0	0	0	0	0	0
OTU 164	0	0	0	0	0	0	0	0	0	0	0	0	0	0	0	1	0	1	0	0	0	0	0	0	1	0	0	0	0	0	0	0	0	0	0	0	0	0	0	0	0	0	0	0	0	0	0	0	0	0
OTU 165	1	0	3	0	0	1	0	4	9	3	1	1	1	1	0	0	0	0	0	0	0	1	0	0	0	0	1	1	0	3	0	0	0	0	3	0	0	3	0	1	0	0	0	0	0	0	0	0	2	0
OTU 166	3	0	0	0	0	1	0	0	0	0	0	0	0	0	1	0	0	0	1	0	0	0	0	0	0	0	0	0	0	0	0	0	0	0	0	0	0	0	1	0	0	0	0	0	0	0	0	0	0	0
OTU 167	1	3	0	0	1	0	0	0	0	0	0	0	0	7	0	0	2	1	0	0	0	3	2	0	2	0	0	0	4	0	0	0	0	0	0	0	0	0	3	0	0	0	1	0	0	0	1	0	0	0
OTU 168	10	0	0	0	0	0	0	1	2	0	0	3	0	0	0	1	2	1	1	0	0	0	2	0	0	1	0	0	7	2	0	0	0	0	0	0	0	2	0	3	0	0	0	0	2	0	1	0	0	2
OTU 169	0	0	0	0	0	0	0	0	2	0	0	3	0	0	0	0	0	0	0	0	0	0	0	0	0	0	0	0	0	0	0	0	0	0	0	0	0	0	0	0	0	0	0	0	0	0	0	0	0	0
OTU 170	0	0	0	0	7	0	0	0	0	0	0	0	0	0	0	0	1	0	0	0	0	0	0	0	0	0	0	0	0	0	0	0	0	0	0	0	0	0	0	0	0	1	0	0	0	0	0	0	0	0
OTU 171	0	0	1	0	0	1	0	1	1	0	1	0	0	1	2	3	0	0	0	0	0	0	0	0	1	0	3	0	3	0	0	0	0	0	0	4	0	1	1	1	0	0	0	0	4	0	1	3	0	1
OTU 172	0	0	0	0	0	1	0	0	1	0	0	0	0	0	0	0	0	6	0	0	0	0	3	1	0	0	5	0	0	0	0	0	0	0	0	0	0	0	5	0	0	0	0	0	0	2	2	0	0	0
OTU 173	1	0	2	1	0	0	0	1	2	0	0	1	0	2	0	1	0	0	1	0	0	0	0	0	0	0	1	0	0	0	0	0	0	0	0	0	0	0	0	0	0	1	0	0	0	4	2	0	2	0
OTU 174	0	0	0	0	1	0	0	0	0	0	2	0	0	0	0	0	30	0	0	0	0	2	8	0	15	11	0	1	0	1	0	0	0	0	0	4	11	77	2	0	179	0	0	0	0	1	0	18	0	1
OTU 175	1	2	0	3	0	0	0	0	1	3	0	2	0	0	0	6	0	0	1	0	0	0	0	0	0	0	1	1	0	0	0	1	0	0	0	0	0	0	0	0	0	0	0	0	0	0	0	0	0	0
OTU 176	2	2	0	4	6	4	1	0	4	0	0	2	3	3	25	8	1	0	2	6	0	1	1	1	8	7	6	1	2	19	0	76	0	0	1	0	0	0	0	0	1	3	0	24	3	1	1	3	0	0
OTU 177	2	2	1	2	11	0	0	0	5	3	89	4	0	1	0	9	1	1	1	0	0	1	1	0	3	1	0	0	0	1	1	1	0	0	5	1	0	1	0	0	2	0	0	0	1	1	0	2	17	0
OTU 178	1	0	0	0	0	0	0	0	0	0	4	0	0	2	0	1	0	0	1	1	0	0	1	0	14	0	0	0	1	0	0	1	0	0	0	5	0	0	0	0	0	1	0	171	6	3	0	0	1	1
OTU 179	0	0	2	0	3	0	0	0	0	3	0	1	0	2	0	0	0	3	0	1	0	0	1	0	1	0	0	0	0	5	0	0	0	0	1	0	0	0	0	0	0	3	0	0	0	0	1	0	0	0
OTU 180	7	4	6	9	5	2	2	11	10	13	7	1	0	3	4	6	0	7	0	1	1	1	2	4	6	1	4	6	2	1	5	1	143	4	1	5	5	0	6	2	2	1	2	2	6	0	0	17	2	4
OTU 181	1	1	1	0	0	113	0	3	2	7	0	0	72	0	0	0	0	0	1	1	0	0	0	1	0	4	0	0	0	0	1	0	0	0	0	0	0	0	1	32	0	1	2	1	5	0	1	0	0	1
OTU 182	0	0	0	0	0	0	0	0	0	0	0	0	0	0	0	0	0	0	1	0	0	0	0	1	1	0	0	0	0	0	0	0	0	0	0	0	0	0	0	0	0	0	0	0	0	0	0	0	0	0
OTU 183	0	15	4	0	2	0	0	8	1	10	0	0	1	0	0	2	0	0	0	0	0	0	0	1	6	1	5	0	1	1	1	0	0	0	1	0	0	0	0	0	0	3	0	0	1	0	0	5	0	4
OTU 184	1	4	1	0	0	2	0	0	0	0	2	0	0	3	17	0	0	0	0	0	0	0	1	1	0	1	1	0	0	13	1	23	0	0	0	0	0	1	0	0	2	1	0	8	0	0	0	0	0	0
OTU 185	0	6	1	21	1	1	0	0	10	4	0	0	0	20	0	4	2	13	3	0	1	14	1	1	5	0	1	3	0	1	0	0	1	0	6	4	1	2	0	0	12	29	0	0	3	0	0	1	0	3
OTU 186	0	0	0	0	0	0	0	1	1	1	0	18	0	1	0	41	0	0	1	0	0	0	0	0	0	1	1	0	0	0	0	0	1	0	0	0	0	0	0	0	0	0	1	0	0	1	0	0	0	0
OTU 187	0	7	2	0	2	3	0	2	0	9	0	0	5	3	0	0	0	0	0	0	1	2	0	2	4	4	0	2	2	0	1	1	1	6	3	87	0	5	0	3	0	0	0	1	2	6	2	0	4	5
OTU 188	4	8	0	0	3	1	0	0	2	0	11	0	0	2	0	2	0	2	1	1	60	0	0	1	4	39	0	1	6	0	1	4	10	135	3	0	0	0	0	1	3	0	1	0	2	4	3	1	1	83
OTU 189	0	1	1	2	0	2	1	0	2	0	1	0	0	8	3	3	0	2	0	4	63	6	2	0	2	2	3	1	7	0	1	3	0	0	0	3	0	2	2	3	7	0	3	0	0	0	0	1	8	0
OTU 190	0	0	0	0	0	0	0	0	0	0	0	0	0	0	0	0	0	0	0	0	0	0	0	0	0	0	0	3	8	0	0	0	0	0	0	0	0	0	0	0	0	0	0	0	0	0	1	6	0	0
OTU 191	2	3	1	2	1	0	0	12	0	1	20	1	0	0	0	3	2	0	1	0	40	3	5	2	2	1	6	0	2	0	2	0	0	0	2	0	0	0	18	0	1	0	3	4	19	0	0	1	0	0
OTU 192	6	1	0	1	1	2	0	3	1	2	6	12	0	0	42	20	3	3	2	5	9	0	13	4	3	0	0	0	0	35	0	80	3	22	0	0	4	3	5	2	3	0	3	45	1	9	6	3	0	11
OTU 193	0	1	3	3	0	0	0	1	5	2	0	0	0	1	0	1	0	5	0	1	3	0	0	1	6	1	4	1	5	0	1	0	0	0	0	1	0	2	1	0	0	1	0	4	0	0	0	1	0	2
OTU 194	7	4	0	0	3	0	2	0	0	0	0	0	0	0	5	0	1	1	3	0	0	0	0	1	0	0	2	0	0	0	0	3	0	0	1	1	0	0	0	0	0	0	2	1	0	0	0	0	1	0
OTU 195	4	0	0	1	5	0	0	0	0	1	0	1	0	0	0	0	0	0	0	0	1	0	0	3	0	0	1	0	0	0	1	0	0	0	0	0	0	1	4	0	0	0	0	3	7	1	0	8	0	1
OTU 196	8	0	3	0	3	0	0	0	7	0	0	0	0	1	0	0	42	2	0	0	11	1	4	0	2	0	0	4	1	0	1	0	0	1	0	0	26	1	1	0	0	1	0	2	3	3	0	5	0	1
OTU 197	11	1	3	0	1	3	1	1	3	3	2	6	0	3	0	4	0	2	2	0	2	0	0	2	0	0	7	5	3	0	1	1	3	4	0	0	2	5	5	3	2	3	0	0	2	7	1	0	8	0
OTU 198	0	0	0	0	4	1	0	0	2	2	0	0	0	0	0	0	0	1	1	0	0	0	1	0	3	0	0	2	0	0	0	0	6	0	0	0	0	0	0	3	0	0	0	0	0	0	0	0	0	0
OTU 199	0	0	1	1	0	0	0	0	5	0	0	3	0	0	1	1	0	1	0	0	0	0	5	0	3	2	0	0	0	0	0	0	0	0	0	0	0	1	0	0	0	0	2	0	0	0	2	0	0	0
OTU 200	0	12	0	0	0	0	1	0	0	0	2	0	1	10	3	0	0	4	1	0	0	6	4	0	5	1	3	0	0	3	2	4	0	0	11	3	0	1	0	0	5	0	0	0	0	0	0	4	0	14
