	Host 1	Host 2	Host 3	Host 4	Host 5	Host 6	Host 7	Host 8	Host 9	Host 10	Host 11	Host 12	Host 13	Host 14	Host 15	Host 16	Host 17	Host 18	Host 19	Host 20	Host 21	Host 22	Host 23	Host 24	Host 25	Host 26	Host 27	Host 28	Host 29	Host 30	Host 31	Host 32	Host 33	Host 34	Host 35	Host 36	Host 37	Host 38	Host 39	Host 40	Host 41	Host 42	Host 43	Host 44	Host 45	Host 46	Host 47	Host 48	Host 49	Host 50	
OTU 1	3	2	0	1	2	4	1	5	1	3	7	0	0	0	3	1	7	13	1	0	0	0	2	1	1	5	1	0	0	0	9	3	0	6	7	5	3	2	17	3	6	6	0	2	7	0	0	10	2	0
OTU 2	0	0	1	0	0	0	0	0	0	1	0	0	0	0	0	1	0	0	0	0	2	0	0	0	0	0	7	0	0	0	0	0	0	0	1	0	0	1	2	0	0	1	0	2	0	0	0	0	1	0
OTU 3	0	2	0	0	1	0	2	0	0	0	1	1	0	4	0	0	1	0	1	1	0	0	0	0	0	1	0	0	0	1	0	0	0	2	0	0	0	0	1	0	0	0	0	0	1	0	0	0	0	2
OTU 4	0	0	0	0	0	0	0	0	0	0	0	0	0	0	0	0	0	0	0	0	0	0	0	0	0	0	0	0	0	0	0	0	0	0	0	0	0	0	0	0	0	0	0	0	0	0	0	0	0	0
OTU 5	17	8	25	7	1	34	1	21	0	6	60	50	25	1	81	0	14	16	63	3	12	31	14	1	4	9	2	6	0	16	1	10	47	3	3	5	4	19	12	111	20	26	17	2	2	23	21	2	4	3
OTU 6	1	0	2	0	0	3	7	0	3	3	0	0	0	2	0	0	0	0	0	0	0	0	1	0	1	0	2	0	0	0	0	1	2	0	0	1	0	0	0	0	0	0	0	3	1	5	67	0	2	0
OTU 7	75	2	19	5	2	2	4	9	50	2	12	1	16	17	20	3	27	14	0	1	0	14	22	73	2	3	7	0	0	5	0	58	0	23	38	158	3	4	28	10	17	6	6	2	1	2	5	1	30	5
OTU 8	5	0	7	0	0	3	9	5	2	19	3	0	2	1	0	13	1	1	7	8	3	2	4	8	1	0	2	0	14	0	5	10	0	13	3	0	0	0	0	4	2	0	1	8	4	0	14	11	0	7
OTU 9	0	0	4	0	0	0	1	0	5	0	0	0	0	2	0	0	3	0	0	3	0	0	3	0	1	2	1	0	0	0	0	1	0	0	8	0	0	0	1	0	1	0	0	0	0	0	0	1	1	0
OTU 10	0	3	1	2	0	0	0	0	0	0	0	0	0	3	1	0	0	0	13	0	2	0	0	0	0	1	2	0	0	0	0	1	0	0	0	0	0	0	2	0	0	0	1	0	3	1	1	0	0	0
OTU 11	2	22	1	0	1	2	1	1	4	4	7	0	0	8	7	9	0	2	0	1	0	1	1	4	0	0	4	0	4	19	3	10	2	0	9	1	0	0	8	1	3	8	0	1	2	3	0	6	1	1
OTU 12	2	0	2	3	1	0	0	0	1	1	1	3	1	4	0	4	1	1	1	2	0	2	0	3	6	0	0	5	0	2	1	0	0	0	5	2	0	1	5	0	0	0	3	1	0	0	0	0	0	0
OTU 13	0	0	0	0	0	0	0	0	0	2	0	0	1	0	0	0	0	0	0	0	0	0	0	0	0	0	0	0	0	8	0	0	0	0	0	0	0	0	0	0	0	0	0	0	0	0	0	0	0	0
OTU 14	0	0	0	1	0	0	0	0	0	4	1	1	0	0	0	4	0	2	1	5	0	0	0	0	0	0	2	1	0	0	0	0	0	1	0	0	2	0	0	0	0	1	1	0	1	3	0	1	1	1
OTU 15	0	0	0	0	0	0	0	0	0	0	0	0	0	0	0	0	0	0	0	0	0	0	0	0	0	0	0	0	0	0	0	0	0	0	0	0	0	0	0	0	0	0	0	0	0	0	0	0	1	0
OTU 16	0	0	0	0	0	0	0	0	0	0	0	0	0	0	0	0	0	0	0	0	0	0	0	0	0	0	0	0	0	0	0	0	0	0	0	0	0	0	0	0	0	0	0	0	0	0	0	0	0	0
OTU 17	0	1	0	0	3	0	0	0	0	1	4	0	0	0	0	1	2	1	1	0	0	0	0	0	0	0	0	0	1	38	1	1	0	2	0	0	0	0	0	1	1	0	4	0	0	0	0	0	0	1
OTU 18	1	0	0	0	2	0	3	4	42	8	2	58	0	0	2	0	0	4	0	5	1	3	1	1	1	8	0	2	12	0	0	1	0	0	0	2	0	0	1	0	0	2	5	0	1	2	0	12	3	0
OTU 19	0	0	0	0	0	0	0	0	0	0	0	0	0	0	0	0	0	0	0	0	0	0	0	0	0	0	0	0	3	0	0	0	0	0	0	0	0	0	0	0	0	0	0	0	0	0	0	0	0	0
OTU 20	0	0	1	3	0	0	1	1	0	3	2	0	2	0	0	2	1	2	1	0	2	0	189	2	0	0	2	0	1	0	0	2	0	4	0	6	2	0	1	0	6	0	4	1	2	0	4	8	0	4
OTU 21	2	2	0	0	0	0	1	3	0	0	0	0	1	6	0	0	3	5	1	3	2	0	1	0	1	3	2	4	6	0	0	1	0	0	0	1	0	0	0	1	0	1	1	7	1	0	3	0	0	3
OTU 22	17	2	1	0	1	0	1	1	3	0	5	35	0	0	0	0	5	0	0	0	1	1	1	0	0	0	1	0	6	6	1	3	0	2	1	3	0	0	0	3	0	2	4	1	2	0	0	4	0	0
OTU 23	1	0	0	0	0	0	1	0	0	0	0	1	0	1	3	5	0	0	0	4	0	0	6	0	1	0	0	0	0	2	3	0	0	0	1	0	0	0	0	0	0	0	0	1	0	0	5	0	0	2
OTU 24	0	2	0	0	2	0	0	0	0	1	0	0	0	0	0	4	1	4	0	1	0	0	3	0	5	2	1	0	0	2	0	0	1	1	0	0	0	0	0	0	0	0	26	0	0	1	0	0	4	0
OTU 25	0	0	0	0	0	0	0	0	0	0	0	0	0	0	0	0	0	0	0	0	0	0	0	0	0	0	0	0	0	0	0	0	0	0	0	0	0	0	0	0	0	0	0	0	0	0	0	1	0	0
OTU 26	0	0	0	0	0	0	0	0	0	0	1	0	0	0	0	0	0	0	0	0	0	0	0	0	0	2	0	2	0	5	1	0	0	0	0	1	0	0	0	1	0	0	0	0	0	0	0	0	0	1
OTU 27	0	0	0	0	0	0	0	0	0	0	0	0	0	0	0	0	0	0	0	0	0	0	0	0	0	0	0	2	0	0	0	0	0	0	0	0	0	0	0	0	1	1	0	0	0	0	0	0	0	0
OTU 28	0	2	1	0	1	2	16	0	4	0	1	0	0	0	0	12	0	2	4	2	1	0	0	1	3	0	0	0	0	12	17	0	2	2	0	1	1	2	0	0	1	1	0	2	2	0	1	1	4	0
OTU 29	1	3	1	0	3	0	6	1	13	0	6	9	1	1	1	6	0	0	2	4	5	3	0	7	1	1	3	2	1	0	8	3	0	5	1	14	3	1	0	2	1	3	0	6	10	13	1	4	4	6
OTU 30	0	0	0	0	0	0	0	0	0	0	0	0	0	0	0	0	0	0	0	0	0	0	0	0	0	0	0	0	0	0	0	0	0	0	0	0	0	0	0	0	0	0	0	0	0	0	0	2	0	0
OTU 31	0	1	0	0	0	1	0	0	0	5	0	0	0	0	0	0	1	0	0	0	0	0	0	1	0	0	0	0	0	0	0	0	0	3	0	0	0	0	0	0	0	0	0	0	0	0	3	1	1	0
OTU 32	5	1	0	1	0	6	6	3	1	1	21	0	7	3	4	8	4	1	1	2	0	1	0	10	1	2	1	1	0	0	0	2	0	0	5	16	1	1	12	10	7	2	1	1	2	0	0	50	3	3
OTU 33	0	0	0	0	0	0	0	0	0	0	0	0	0	1	0	0	0	1	0	0	0	0	0	0	0	0	0	0	0	0	0	0	0	0	0	0	0	1	0	0	0	0	0	0	0	0	0	0	0	0
OTU 34	2	1	0	0	2	1	4	0	0	0	1	3	0	10	0	6	0	2	3	2	1	0	0	0	1	6	5	0	1	1	0	0	0	149	0	3	1	0	0	0	0	0	0	0	1	0	0	2	6	2
OTU 35	2	1	5	0	3	0	0	0	2	0	0	2	0	0	1	0	0	29	2	0	0	1	0	0	1	2	0	1	0	1	5	6	23	4	1	3	28	0	0	0	1	0	0	1	0	1	6	1	2	1
OTU 36	6	0	0	5	0	0	8	0	2	2	1	3	0	0	5	4	0	0	0	0	0	0	0	0	1	0	0	0	1	0	0	3	0	0	0	2	0	1	4	2	3	2	0	0	1	14	0	7	0	0
OTU 37	0	0	0	0	0	0	4	0	0	0	0	0	0	0	0	0	4	0	0	0	0	0	1	1	0	0	1	0	0	0	0	0	0	0	1	0	1	0	0	0	1	0	0	0	0	0	0	0	2	0
OTU 38	4	0	2	0	0	1	0	0	0	4	5	0	0	12	0	0	0	0	0	0	0	0	0	0	0	2	0	0	0	1	1	0	0	2	0	5	0	0	0	3	1	0	2	0	2	0	2	0	9	12
OTU 39	0	0	1	1	0	0	0	0	0	0	0	0	0	0	1	0	0	0	0	0	0	0	0	0	0	0	1	0	1	0	0	0	0	0	0	0	0	0	0	0	0	0	0	0	0	0	0	0	1	0
OTU 40	0	19	0	2	0	0	0	10	2	0	1	1	0	1	1	15	9	5	1	1	0	3	4	0	2	1	0	0	0	3	3	0	0	2	5	0	2	3	17	1	0	2	0	0	1	2	0	5	3	2
OTU 41	0	0	0	9	49	3	2	1	0	0	0	0	0	0	1	7	1	4	13	4	1	0	0	1	20	1	0	10	0	6	29	0	0	0	0	1	0	2	1	0	0	1	15	0	1	0	0	0	0	6
OTU 42	0	0	0	0	0	0	0	0	0	0	0	0	0	0	1	0	0	0	93	0	0	0	0	0	0	0	0	0	1	0	1	0	0	0	0	0	0	0	0	0	0	0	0	0	3	0	0	3	0	0
OTU 43	0	0	0	0	0	0	0	0	0	0	0	0	0	0	0	0	0	0	0	0	0	0	0	0	0	0	0	0	0	0	0	0	0	0	0	0	0	0	0	1	0	0	0	0	0	0	0	0	0	0
OTU 44	3	0	0	0	0	0	0	1	0	0	0	7	0	6	0	3	2	0	1	1	0	0	0	0	0	0	0	0	0	0	2	0	0	0	1	0	0	0	0	0	0	0	0	0	0	1	0	0	0	0
OTU 45	3	0	5	0	0	0	0	1	0	0	0	1	0	0	0	4	0	2	0	82	1	1	0	58	0	0	0	0	1	0	0	0	0	1	3	6	1	0	0	0	0	2	2	5	1	1	0	2	0	2
OTU 46	0	1	0	1	0	0	7	1	1	0	3	2	0	4	0	3	4	1	0	0	0	1	0	115	10	0	25	1	0	0	0	5	0	0	1	0	0	0	0	0	0	1	1	1	1	0	0	0	2	7
OTU 47	0	0	0	3	0	0	7	4	0	0	0	0	0	0	1	0	0	1	0	0	0	0	0	0	0	0	0	0	0	0	0	1	0	0	0	0	0	0	1	0	0	0	1	0	0	0	0	0	2	0
OTU 48	1	0	0	0	3	2	1	0	0	4	0	1	1	5	0	0	1	0	0	0	1	0	30	0	0	6	2	0	2	2	0	10	0	0	86	0	0	0	1	0	0	0	4	0	0	3	0	0	1	0
OTU 49	0	1	1	0	0	1	4	1	1	0	0	0	0	0	0	0	0	0	0	1	0	0	0	0	0	0	0	0	48	4	0	0	0	0	0	0	1	0	0	0	0	0	0	0	0	0	0	1	2	1
OTU 50	2	0	3	0	1	4	2	1	0	3	1	8	0	3	4	1	5	3	16	2	2	0	0	0	0	1	0	0	1	0	2	3	3	0	3	0	2	1	6	1	0	2	0	4	0	3	0	1	5	1
OTU 51	0	2	0	1	1	1	0	1	0	0	0	21	0	0	1	0	0	0	0	0	0	1	0	0	0	1	0	0	5	0	1	2	0	1	0	3	0	1	1	1	0	3	2	0	2	8	0	4	9	1
OTU 52	3	3	1	0	7	0	3	2	17	1	1	1	2	9	6	2	2	11	0	13	1	2	2	1	3	5	0	2	8	6	3	9	0	2	1	0	9	1	5	1	1	2	18	1	2	1	28	2	0	0
OTU 53	0	0	0	0	0	0	0	0	0	0	0	0	0	0	0	2	0	0	0	0	0	0	0	0	0	0	0	0	0	0	0	0	0	0	0	0	0	0	0	0	0	0	0	0	0	0	0	0	0	0
OTU 54	1	19	1	1	1	2	1	0	1	3	100	2	34	9	1	5	8	1	3	2	1	1	3	0	5	1	0	8	2	7	4	5	0	1	1	1	0	0	4	50	48	0	0	5	1	8	0	5	3	3
OTU 55	0	0	0	0	0	0	0	0	0	0	0	0	0	0	0	0	0	0	0	0	0	0	0	0	0	0	0	0	0	0	0	0	0	0	0	0	0	0	0	0	0	0	0	0	0	0	0	0	0	0
OTU 56	0	0	0	0	2	0	0	0	0	0	0	0	0	1	1	1	0	0	0	2	1	1	0	2	1	0	0	0	0	0	0	0	0	0	3	0	0	0	0	0	0	0	0	0	0	0	1	0	0	0
OTU 57	6	3	12	1	0	0	3	7	0	0	0	1	0	4	10	1	2	5	0	10	2	0	2	0	7	2	10	3	7	5	10	2	24	5	0	4	3	3	6	1	0	11	3	0	3	3	0	3	4	0
OTU 58	1	0	1	1	0	0	0	1	2	0	0	2	2	0	0	0	0	1	0	0	2	0	2	0	43	0	0	14	0	3	0	0	0	0	5	1	0	0	0	0	0	0	0	2	0	1	0	0	0	0
OTU 59	2	0	1	0	0	0	0	1	1	0	1	0	0	0	2	4	0	0	2	0	1	0	0	0	1	0	0	4	2	0	0	0	0	0	0	0	2	0	0	2	0	0	3	8	0	1	1	2	2	3
OTU 60	9	0	5	3	6	3	0	0	15	4	0	2	1	0	0	3	2	3	0	3	5	0	1	1	1	4	3	1	0	1	1	4	1	0	5	1	2	1	0	0	2	1	6	3	2	0	2	0	2	5
OTU 61	1	1	18	5	8	54	20	6	2	6	5	1	6	3	13	2	1	0	2	1	0	6	4	1	2	11	9	2	14	1	3	12	26	1	9	13	1	3	15	0	2	13	1	1	2	11	0	18	7	3
OTU 62	0	0	0	0	0	0	0	0	0	0	0	1	0	0	0	0	0	0	0	0	0	0	0	0	4	0	0	3	6	0	0	1	0	0	0	0	0	0	0	0	0	1	0	0	0	0	0	3	0	1
OTU 63	0	0	0	1	4	0	0	0	0	1	1	0	0	0	1	0	1	0	2	0	2	4	0	0	0	0	0	0	0	0	3	0	2	0	1	0	1	0	0	0	0	0	1	11	3	0	2	1	0	0
OTU 64	6	1	4	3	9	3	2	4	0	6	1	5	0	3	1	0	4	1	0	1	3	12	1	7	2	1	1	0	4	2	1	4	1	0	0	3	0	0	2	0	2	2	28	10	3	0	2	0	1	1
OTU 65	0	0	0	0	0	0	0	0	0	0	0	0	0	0	0	0	0	0	0	0	0	0	0	0	0	0	0	0	0	0	0	0	0	0	0	0	0	0	0	0	0	0	0	0	0	0	0	0	0	0
OTU 66	0	1	1	4	31	1	0	0	3	4	0	2	0	0	0	1	5	0	0	7	12	0	0	1	0	0	0	0	2	1	1	16	3	9	0	0	0	0	4	0	0	0	0	13	1	2	6	0	6	0
OTU 67	0	0	1	1	11	14	0	1	1	1	0	0	0	0	3	0	0	15	1	3	17	1	2	0	5	0	0	2	0	1	1	0	5	0	1	0	3	2	4	0	0	7	0	24	11	1	6	0	0	28
OTU 68	0	4	1	0	0	0	2	1	0	0	0	1	1	1	0	0	0	1	3	0	0	1	0	0	2	0	0	0	0	0	4	1	0	0	0	3	0	0	0	0	0	0	2	0	1	0	0	1	0	0
OTU 69	8	0	1	1	1	0	1	1	2	1	0	2	1	12	3	7	0	0	0	4	0	3	0	1	0	1	2	4	8	0	1	0	1	2	0	0	1	13	3	0	0	32	0	1	0	5	0	2	1	1
OTU 70	0	4	0	0	0	1	0	0	0	1	0	0	1	5	1	0	0	0	12	0	0	2	0	0	0	1	0	0	0	0	0	0	0	0	0	0	0	0	0	0	157	0	0	0	0	0	1	0	0	1
OTU 71	0	0	0	0	0	0	7	0	0	0	0	0	0	1	0	0	1	0	0	2	0	0	0	0	0	1	0	0	7	1	0	0	0	2	0	0	0	0	0	0	0	1	0	1	0	0	1	0	2	0
OTU 72	3	1	0	14	3	4	1	0	0	1	3	0	185	1	2	0	15	0	0	5	6	12	16	0	3	0	0	2	1	2	3	4	3	1	35	0	0	0	1	0	5	0	0	6	1	0	0	1	1	1
OTU 73	29	2	0	0	0	3	0	1	0	1	0	1	0	0	2	0	2	2	3	0	1	0	0	0	2	0	1	3	0	1	3	1	5	0	0	0	0	0	4	0	0	0	4	4	0	1	0	3	1	3
OTU 74	2	0	10	0	1	0	11	0	0	1	3	4	8	0	2	1	1	5	4	3	0	0	2	1	16	4	1	11	0	0	2	1	0	0	0	3	0	1	1	2	5	5	2	0	1	0	0	22	3	1
OTU 75	14	1	5	0	0	6	0	0	1	4	1	0	0	8	0	1	0	1	0	0	4	0	0	6	0	2	6	0	0	3	0	10	1	0	0	6	4	0	4	0	1	2	3	2	1	0	0	6	1	4
OTU 76	0	1	3	0	0	0	0	1	0	3	0	0	0	0	0	2	0	0	0	0	0	0	0	0	0	0	4	111	0	2	0	0	3	0	0	0	1	3	0	0	0	2	2	0	2	0	0	0	1	0
OTU 77	2	1	0	2	2	4	1	0	0	1	0	0	0	0	1	1	0	0	0	4	1	1	0	0	6	0	0	1	2	2	1	5	1	0	0	1	0	0	1	0	0	0	6	0	0	4	4	1	2	2
OTU 78	0	1	5	2	15	2	4	1	1	0	1	0	0	0	13	1	3	0	0	1	6	0	3	3	2	8	1	0	4	0	0	1	1	0	8	3	1	1	7	1	1	4	2	13	2	0	1	7	3	1
OTU 79	1	3	17	0	4	6	8	10	9	6	1	2	2	16	6	5	6	7	1	1	19	11	1	5	3	48	6	1	6	42	4	5	3	4	0	5	2	2	8	3	2	5	7	13	9	6	9	15	3	6
OTU 80	1	3	2	5	2	8	6	0	0	1	1	0	2	31	0	1	0	0	1	8	1	1	3	0	0	1	6	3	4	1	1	0	1	0	2	3	2	0	0	2	0	0	0	4	20	2	1	1	0	5
OTU 81	4	0	0	2	3	0	0	0	2	4	1	2	0	11	2	2	3	1	0	0	2	1	0	4	2	0	20	2	8	9	0	3	1	4	1	2	0	0	0	0	1	0	0	2	0	0	0	3	5	0
OTU 82	0	0	1	0	1	1	0	2	4	0	0	0	0	8	0	5	5	2	0	0	0	1	0	1	9	1	0	0	3	0	1	0	1	0	1	0	2	0	2	0	0	0	1	2	0	0	0	3	0	35
OTU 83	0	0	0	0	0	0	0	0	0	0	0	0	1	0	0	3	1	0	0	0	0	2	0	0	0	1	7	0	0	0	0	0	0	3	0	0	0	0	0	0	0	0	0	0	0	0	0	0	0	0
OTU 84	0	0	0	0	0	4	3	0	3	0	0	0	0	0	0	0	2	0	0	0	6	0	0	0	2	0	0	1	0	0	0	2	0	8	0	0	0	0	0	1	0	0	0	3	7	2	0	0	0	5
OTU 85	0	0	0	0	1	0	1	2	0	0	0	0	0	0	0	0	0	0	2	0	0	0	0	0	0	0	0	0	0	0	1	1	0	0	0	0	0	2	1	0	0	1	0	0	0	1	1	1	3	0
OTU 86	0	0	0	0	0	0	0	0	0	0	0	0	0	0	0	0	0	0	6	1	0	0	0	0	0	0	0	0	0	0	19	0	0	0	1	0	0	0	0	0	0	0	1	0	0	0	0	0	0	0
OTU 87	0	0	0	0	4	6	0	0	0	0	0	0	0	4	0	0	1	0	0	0	6	1	0	0	0	0	0	0	0	0	4	2	0	0	0	0	0	0	0	0	0	0	2	4	0	0	0	0	0	0
OTU 88	0	0	0	2	0	0	0	0	0	0	0	0	0	0	0	0	0	0	3	0	0	3	0	0	0	0	0	0	0	0	7	0	0	1	0	0	0	0	0	0	0	1	0	0	0	0	0	0	1	0
OTU 89	0	0	0	0	0	0	0	0	0	9	1	0	0	5	0	0	0	0	0	0	5	0	0	0	1	0	0	0	0	0	0	0	0	0	0	0	0	0	1	0	0	0	0	6	0	0	0	0	0	2
OTU 90	0	0	0	1	0	0	0	0	0	0	0	0	0	0	0	0	0	1	0	1	0	0	0	0	0	0	0	0	2	0	0	0	0	0	0	0	0	0	0	0	0	0	0	0	0	0	0	0	0	0
OTU 91	0	0	11	0	0	0	0	0	0	0	0	0	1	0	0	0	0	0	0	1	0	0	0	0	0	0	0	0	0	0	0	0	0	0	0	0	0	0	0	0	0	0	0	0	0	0	0	0	0	0
OTU 92	0	0	0	0	1	0	1	0	1	2	0	3	0	0	0	0	0	0	0	0	0	0	0	0	0	0	0	0	0	0	0	0	0	0	0	1	0	0	0	0	0	0	0	0	0	1	0	0	0	0
OTU 93	0	0	1	0	0	0	0	0	0	0	0	0	0	1	0	0	0	1	0	0	0	0	0	0	0	1	2	0	0	0	0	0	0	0	0	0	0	1	0	0	0	0	0	0	0	0	0	0	0	0
OTU 94	0	1	2	24	12	0	19	0	1	8	1	0	1	0	0	3	57	0	1	0	1	16	0	3	1	0	3	1	4	25	1	11	0	2	0	1	2	1	0	1	0	4	3	8	8	2	20	4	3	2
OTU 95	0	0	0	0	0	0	2	0	1	0	0	1	0	0	1	3	1	0	1	0	2	2	1	0	0	0	0	0	1	0	2	2	0	0	0	0	0	0	0	0	0	0	1	1	0	0	0	0	0	0
OTU 96	0	0	0	0	0	0	0	0	0	0	0	0	0	0	0	0	0	0	1	0	0	0	0	0	0	0	0	0	0	0	1	0	0	0	0	0	0	0	0	0	0	0	0	0	0	0	0	0	0	0
OTU 97	0	0	0	0	0	0	0	0	1	0	0	0	0	1	0	0	0	0	0	0	0	1	0	0	1	0	0	0	1	1	0	0	0	0	0	0	0	0	0	0	0	0	0	0	0	0	0	0	0	0
OTU 98	0	0	0	3	0	0	0	0	0	0	1	0	0	0	0	0	0	0	3	0	0	0	0	0	0	0	0	1	4	2	4	0	0	0	0	0	0	0	0	0	0	0	0	0	0	0	0	0	0	0
OTU 99	7	0	5	2	0	0	3	1	2	21	2	7	2	2	3	4	9	2	1	7	0	0	3	1	4	0	6	0	3	0	0	0	0	1	2	4	4	2	2	4	0	2	0	0	4	6	1	3	0	1
OTU 100	2	0	2	0	1	3	0	3	2	0	1	1	0	0	2	3	0	18	2	0	2	0	1	0	2	0	0	2	3	0	2	0	1	3	0	2	6	0	3	0	0	3	0	2	0	1	0	0	0	0
OTU 101	1	0	1	0	0	0	0	0	4	0	0	0	0	0	0	0	0	0	0	2	0	0	0	1	0	0	0	0	0	0	0	0	0	0	0	1	0	0	0	0	0	0	0	0	0	0	0	0	0	0
OTU 102	0	0	0	0	0	0	0	0	0	0	0	1	0	3	0	0	0	0	2	2	0	1	0	0	0	0	0	0	0	0	2	0	0	0	0	0	0	0	0	0	0	0	0	0	0	0	0	0	0	0
OTU 103	4	0	0	0	0	1	0	0	6	0	1	0	0	3	0	3	0	0	0	0	0	0	0	0	1	1	12	0	2	0	0	0	1	0	2	0	0	0	2	0	1	0	0	0	0	1	1	0	0	0
OTU 104	10	0	10	0	5	0	2	8	3	0	0	1	0	1	0	0	0	3	1	2	0	0	0	1	0	0	0	0	2	4	7	0	1	1	1	0	1	0	3	0	0	3	1	0	3	0	6	0	1	1
OTU 105	0	3	0	0	0	1	0	0	3	0	0	1	0	0	0	0	3	0	0	0	0	0	0	0	5	0	0	0	1	0	0	0	0	0	0	0	0	0	0	0	0	0	2	1	0	0	1	0	1	0
OTU 106	0	0	0	0	0	0	0	0	0	3	0	0	0	0	0	0	0	0	0	0	0	0	0	0	0	0	0	0	0	0	0	1	0	0	0	0	0	0	0	0	0	0	0	0	1	1	0	0	2	0
OTU 107	2	0	2	1	0	0	1	0	0	0	6	0	1	2	1	0	0	0	0	0	1	0	0	1	1	0	0	3	0	0	0	0	0	3	2	5	0	1	0	2	1	1	1	1	0	0	0	18	0	0
OTU 108	0	3	1	0	0	2	4	0	0	0	0	0	0	0	0	0	0	0	1	0	1	3	0	0	5	1	4	0	0	0	0	0	3	0	2	0	0	0	1	0	0	0	0	2	0	0	0	0	0	1
OTU 109	0	0	0	0	0	0	0	0	0	0	0	0	0	0	0	0	0	0	0	0	0	0	0	0	0	3	0	0	0	0	0	0	0	0	0	0	0	0	0	0	0	0	0	0	0	0	0	0	0	0
OTU 110	0	0	0	4	0	6	2	1	0	0	2	3	3	1	0	2	0	0	1	1	3	0	3	0	0	1	8	1	0	3	2	0	0	0	3	0	0	0	0	0	1	0	0	4	2	0	21	4	0	0
OTU 111	0	0	0	0	0	0	0	0	0	0	0	0	0	0	0	0	0	0	0	0	0	3	0	0	1	0	0	0	0	0	0	0	0	0	0	0	0	0	0	0	0	0	2	0	0	0	0	0	5	0
OTU 112	1	1	0	0	0	0	1	1	0	0	1	0	0	8	1	5	1	0	0	0	0	1	2	0	0	0	2	0	0	1	3	1	0	0	2	0	2	1	0	0	3	1	0	0	0	1	2	0	0	0
OTU 113	0	0	0	0	0	1	0	0	0	0	0	0	0	0	0	4	0	0	0	0	0	0	0	0	0	0	0	0	0	0	0	0	0	0	0	0	0	0	0	0	0	0	0	0	0	0	0	0	0	0
OTU 114	0	10	2	7	0	13	1	4	0	5	0	6	0	1	5	6	2	4	1	0	3	1	0	0	7	5	6	2	1	0	3	0	3	1	4	2	0	76	3	1	2	124	0	12	2	9	13	2	7	3
OTU 115	1	3	7	3	2	6	5	5	1	2	7	5	3	2	0	9	2	0	1	6	16	0	5	1	6	2	5	1	3	18	1	1	0	0	0	1	1	1	4	2	6	3	4	2	1	5	7	4	2	0
OTU 116	0	21	0	5	7	1	2	14	3	11	0	32	0	6	21	1	22	10	0	0	0	8	4	8	0	0	0	0	1	0	2	6	1	9	17	4	8	7	48	0	0	16	0	4	0	29	0	4	0	0
OTU 117	1	3	0	0	1	1	0	0	0	1	0	0	2	0	2	0	2	2	0	4	4	0	0	0	6	3	4	2	0	2	0	0	0	1	0	0	0	0	0	0	0	4	0	8	0	2	0	1	1	3
OTU 118	0	0	0	0	0	0	0	0	0	0	0	0	0	1	0	0	0	0	3	1	0	0	0	0	0	0	0	0	12	0	10	1	0	0	2	0	1	0	0	0	0	0	0	0	0	0	0	0	0	0
OTU 119	0	3	3	0	2	6	1	1	2	0	0	1	0	1	1	1	0	0	0	2	2	0	0	0	3	7	1	4	5	2	0	0	0	1	0	1	3	0	1	0	1	0	9	4	2	0	8	1	0	1
OTU 120	0	1	2	0	0	0	2	1	2	1	0	0	0	0	0	0	0	0	0	2	0	0	0	1	0	0	0	3	3	0	0	0	0	0	0	0	0	0	1	0	1	0	0	0	0	5	1	0	3	0
OTU 121	0	0	0	4	0	56	0	0	5	0	0	1	0	0	0	3	0	2	0	4	6	3	0	0	3	1	4	1	10	1	0	0	36	0	0	1	0	1	0	0	0	0	3	6	1	2	2	1	0	2
OTU 122	7	0	0	72	0	2	0	1	22	0	5	0	3	0	0	5	0	2	6	9	1	0	0	0	2	3	21	1	5	2	6	0	0	0	3	0	5	0	0	1	0	1	0	3	7	2	6	0	0	0
OTU 123	8	3	3	4	1	3	7	2	7	3	3	1	1	3	5	5	8	3	2	1	6	4	9	1	7	2	5	7	2	15	1	6	4	1	12	0	0	4	7	1	2	6	3	5	6	5	2	7	74	1
OTU 124	0	0	0	0	0	0	0	1	1	0	1	0	0	1	0	4	0	0	2	0	2	0	0	0	1	0	0	0	1	0	1	1	0	0	0	0	0	1	0	0	0	0	0	0	0	1	0	0	0	3
OTU 125	12	3	6	1	3	4	18	7	7	2	4	1	1	5	6	13	5	4	0	10	6	5	3	3	6	8	8	15	12	7	1	2	2	0	5	6	5	4	9	3	3	4	18	13	1	5	3	5	7	0
OTU 126	0	0	0	0	0	0	0	0	0	0	0	0	0	1	0	0	0	0	0	0	0	0	0	0	0	0	0	0	0	0	1	0	0	1	0	0	0	0	0	0	0	0	0	0	0	0	0	0	0	2
OTU 127	1	0	2	2	2	2	2	0	0	3	0	0	9	1	0	0	5	2	1	4	1	0	1	1	0	0	1	0	2	0	0	4	2	0	0	2	8	0	0	0	0	0	0	1	3	1	2	10	0	2
OTU 128	3	13	4	4	57	7	8	5	6	39	5	4	6	18	5	10	3	2	8	9	4	50	0	1	22	1	5	18	3	6	26	8	1	3	4	5	0	0	4	10	6	0	41	10	4	16	5	8	5	3
OTU 129	0	0	0	0	0	0	0	0	0	0	0	0	0	0	0	0	3	0	0	0	0	0	5	0	0	0	0	1	0	0	1	0	1	0	9	0	0	0	0	0	0	0	0	0	0	0	0	0	3	0
OTU 130	1	0	33	1	3	3	0	1	0	3	1	0	0	0	0	0	3	1	1	0	0	0	1	0	0	0	0	0	0	2	0	0	0	3	0	4	0	3	0	0	2	6	1	0	3	3	0	1	3	2
OTU 131	1	0	5	1	1	0	0	0	0	0	0	0	0	0	8	0	0	0	20	3	0	0	0	0	0	0	3	0	0	0	35	0	1	0	0	0	0	0	6	0	0	0	27	0	0	4	0	0	7	1
OTU 132	0	0	5	4	1	0	1	0	1	0	0	0	0	4	0	0	0	0	0	0	0	0	2	0	0	0	0	3	2	0	1	0	0	2	3	0	0	1	3	0	0	0	0	0	0	0	1	0	1	0
OTU 133	2	0	0	0	0	0	1	0	0	0	0	0	0	3	0	0	0	0	0	0	0	0	0	0	0	0	1	0	0	0	0	0	0	0	0	0	2	0	0	0	0	0	0	1	0	1	2	0	0	0
OTU 134	0	0	0	2	7	1	0	1	0	0	0	0	3	6	0	0	3	2	2	0	0	7	0	1	0	0	0	1	6	0	1	0	3	1	0	0	0	0	0	1	0	0	0	1	0	0	1	0	1	0
OTU 135	0	3	0	4	2	0	0	170	0	8	8	0	2	0	5	1	2	0	0	4	1	3	0	0	0	2	2	0	0	0	2	0	0	0	0	4	0	0	4	2	3	0	0	4	4	1	0	4	0	7
OTU 136	0	0	0	0	0	0	1	1	0	1	8	0	2	0	1	0	0	0	1	9	0	0	0	0	0	1	1	0	0	0	0	0	0	0	1	1	0	0	0	0	2	0	0	3	0	0	2	1	2	11
OTU 137	0	0	0	0	0	0	0	0	0	0	0	0	0	0	0	0	0	0	0	0	0	0	0	0	0	1	0	0	0	3	0	0	0	1	1	0	0	0	0	0	0	0	0	0	0	0	0	0	0	0
OTU 138	0	0	0	0	3	1	0	0	0	3	2	1	1	0	0	4	0	0	0	1	1	2	0	0	2	0	0	2	0	0	0	0	0	0	0	0	0	1	0	3	4	0	0	0	0	0	0	0	0	1
OTU 139	0	7	6	0	11	1	10	6	8	5	0	11	2	2	3	0	4	0	0	0	0	1	3	0	0	1	51	2	7	1	0	1	1	3	2	1	0	1	5	0	0	3	4	3	0	17	6	0	1	0
OTU 140	4	1	1	2	1	24	0	1	2	6	19	0	8	2	1	12	2	1	5	4	1	0	5	8	10	8	4	1	4	5	5	17	11	14	6	7	4	0	0	8	10	1	2	9	0	0	2	13	8	4
OTU 141	0	0	0	0	0	0	0	0	0	0	0	0	0	0	0	0	0	0	0	0	0	0	0	0	0	0	0	0	0	0	0	0	0	0	0	0	0	0	0	0	0	0	0	0	0	0	0	0	0	0
OTU 142	1	0	0	0	0	0	0	0	0	0	1	0	0	0	0	0	0	0	0	0	0	0	0	0	0	0	0	0	0	0	0	0	0	0	0	0	0	0	0	0	0	0	1	0	0	0	0	0	0	0
OTU 143	1	0	0	0	2	0	1	0	0	0	0	0	0	0	0	0	0	0	0	0	0	0	0	0	0	0	0	0	0	0	0	0	0	0	1	0	0	0	0	0	0	1	0	0	0	0	0	1	0	0
OTU 144	0	0	0	0	0	0	2	0	0	0	0	0	0	0	0	0	0	0	0	0	0	0	0	1	6	0	1	0	0	0	0	0	0	0	0	0	0	0	0	0	0	0	0	0	0	0	0	3	0	0
OTU 145	1	2	0	19	1	0	6	11	3	1	2	2	0	4	6	1	8	1	0	0	0	14	5	0	0	1	0	4	16	3	0	2	0	0	7	1	1	2	25	29	0	10	1	6	0	2	0	2	2	2
OTU 146	2	2	2	0	0	0	1	2	0	12	1	0	0	2	0	0	3	1	1	0	0	0	3	0	6	0	6	7	4	0	3	2	0	4	4	0	2	0	0	0	0	0	16	3	0	0	0	1	0	0
OTU 147	0	0	1	0	0	0	0	1	0	0	1	0	7	0	0	3	0	0	0	1	0	0	0	4	4	2	1	0	0	8	3	0	0	1	0	2	3	0	0	3	0	0	1	1	1	0	0	3	0	1
OTU 148	0	29	3	0	0	3	0	0	0	1	0	19	0	3	89	1	2	0	2	0	0	0	0	0	3	0	0	0	1	0	0	4	2	4	2	1	0	1	0	0	1	2	5	0	2	49	3	2	9	4
OTU 149	0	0	0	0	2	0	11	1	7	0	0	0	0	0	0	0	0	0	0	0	0	0	0	0	9	1	0	3	0	0	1	2	0	0	0	3	0	0	0	0	0	0	2	0	0	1	0	0	5	0
OTU 150	0	1	4	0	0	0	1	0	0	8	0	0	0	0	0	0	0	3	0	2	0	0	0	0	0	1	0	0	0	1	0	0	0	2	0	0	0	0	0	0	0	0	0	0	0	0	0	0	0	0
OTU 151	0	4	0	99	0	0	2	0	2	0	1	1	0	2	1	2	1	0	0	0	0	0	0	0	0	0	0	0	0	0	0	0	0	2	2	0	3	0	2	1	0	0	1	0	0	2	4	0	3	0
OTU 152	2	0	0	0	18	0	0	0	1	2	1	7	0	2	1	0	1	2	2	0	0	0	0	0	1	1	1	0	0	4	9	3	0	5	0	0	1	3	6	1	0	5	0	0	0	18	2	0	5	1
OTU 153	0	0	4	0	0	0	0	2	0	0	0	0	3	0	0	0	0	0	0	0	0	0	0	0	0	0	0	0	0	0	0	0	0	0	0	0	1	0	0	0	0	0	0	0	0	0	0	0	0	0
OTU 154	0	0	0	0	0	0	5	0	0	0	0	0	0	0	0	0	0	0	0	0	0	0	0	0	0	2	0	1	0	0	0	0	0	0	0	0	0	0	0	0	0	0	0	1	0	0	1	0	0	0
OTU 155	0	1	0	0	3	0	0	0	0	0	1	0	0	2	0	0	0	0	0	0	1	1	1	2	2	1	3	0	0	3	0	2	2	2	1	4	1	2	1	0	0	3	0	2	0	1	0	1	3	0
OTU 156	1	0	1	0	2	0	2	1	11	1	0	0	1	23	3	49	0	0	0	1	0	1	0	1	0	3	0	61	1	4	8	6	4	5	0	1	1	3	3	0	1	9	4	0	0	2	3	1	0	0
OTU 157	2	0	0	0	0	0	0	0	0	8	0	0	0	10	0	0	0	0	0	0	2	0	0	0	2	0	0	0	0	0	6	0	1	2	1	0	0	0	0	0	0	0	1	0	2	0	1	0	1	3
OTU 158	1	0	0	0	0	0	0	0	0	0	0	2	0	0	0	0	0	0	0	0	0	0	0	0	0	0	2	0	0	0	0	0	0	0	0	0	0	0	0	0	0	0	0	0	0	0	0	0	0	0
OTU 159	0	0	0	0	0	0	0	0	0	0	1	0	0	1	0	1	0	1	2	4	0	0	0	0	0	2	0	0	0	5	6	0	0	0	0	0	0	0	2	0	31	0	5	0	0	0	0	0	0	0
OTU 160	7	0	2	2	7	5	59	1	3	19	2	1	0	1	0	7	0	0	6	10	0	3	1	1	2	5	2	2	4	2	0	0	1	14	5	0	0	146	1	91	0	1	4	9	3	8	4	5	4	0
OTU 161	0	0	0	0	1	3	1	2	0	6	0	0	0	2	0	0	0	0	0	19	1	0	0	0	0	0	15	0	0	0	1	30	3	5	1	3	1	0	2	0	2	0	4	3	3	2	2	1	2	16
OTU 162	0	0	2	0	0	1	0	0	0	0	0	3	0	0	4	0	0	0	0	1	2	2	2	0	4	8	12	1	4	2	0	1	0	3	2	0	2	0	1	0	0	0	0	0	0	0	0	0	6	3
OTU 163	0	0	0	0	0	0	0	0	0	0	0	0	0	0	0	0	0	0	0	0	0	0	0	0	0	0	0	0	0	0	0	0	0	0	0	0	0	0	0	0	0	0	0	0	0	0	0	0	0	0
OTU 164	0	0	0	0	0	0	0	0	0	0	0	0	2	0	0	0	0	0	0	0	0	0	0	0	1	0	0	0	1	0	0	0	0	0	0	0	0	0	0	0	0	0	0	1	0	0	0	0	0	0
OTU 165	3	0	1	0	8	0	0	0	0	0	0	0	0	0	1	1	0	0	0	3	4	1	0	0	1	1	0	0	2	0	0	9	4	0	0	0	0	0	0	0	0	1	0	3	0	0	0	1	0	5
OTU 166	0	0	0	0	0	0	0	0	1	0	0	0	0	0	0	0	1	0	0	0	0	1	0	0	0	0	0	0	3	0	0	1	0	0	0	0	0	0	0	0	0	0	0	0	0	0	0	0	0	0
OTU 167	1	0	0	0	0	0	0	0	1	0	0	0	0	3	0	1	3	0	0	0	0	0	0	1	0	35	0	0	0	0	0	2	1	0	0	1	0	0	1	1	0	0	1	0	0	3	1	0	0	0
OTU 168	0	116	2	0	1	0	9	1	1	3	3	6	1	0	1	2	0	2	0	1	0	0	0	2	7	0	0	1	2	0	3	4	0	1	1	0	0	2	2	0	0	3	1	0	1	2	3	2	3	0
OTU 169	1	0	0	0	0	0	0	0	0	0	0	0	0	0	0	0	0	0	2	0	0	0	0	1	0	0	0	0	0	0	0	0	0	0	0	0	0	0	0	0	0	0	0	0	0	0	0	0	0	0
OTU 170	0	0	0	0	0	0	0	0	0	0	0	0	0	0	0	0	0	0	0	0	0	0	0	0	0	0	0	0	0	0	0	0	0	0	0	0	0	0	0	0	0	0	0	0	0	0	0	0	0	1
OTU 171	0	2	0	0	12	21	0	0	3	1	2	0	0	1	0	2	0	0	0	11	11	0	1	0	1	1	1	0	6	0	1	0	11	0	0	0	0	0	0	0	0	0	0	18	0	0	13	0	0	11
OTU 172	0	0	0	0	1	0	0	0	0	0	1	0	0	0	0	1	0	0	2	0	0	0	0	1	0	0	0	1	0	1	2	1	0	0	0	0	0	0	0	1	1	0	1	0	0	0	0	0	0	5
OTU 173	0	0	0	0	0	0	0	1	3	0	0	0	0	0	0	0	0	0	0	0	0	0	0	0	1	1	0	0	3	0	3	3	0	0	1	1	0	1	2	0	0	0	0	1	0	0	0	0	0	0
OTU 174	0	1	2	1	0	0	6	0	0	10	0	0	0	3	0	0	0	107	0	1	0	0	0	1	2	0	0	0	0	4	0	6	0	0	0	4	63	3	1	1	0	2	0	0	3	4	0	1	1	0
OTU 175	1	0	1	0	0	0	1	1	1	0	6	0	4	0	2	1	0	0	1	0	1	0	1	2	0	0	0	0	1	0	0	0	0	0	5	1	0	0	0	0	1	0	0	3	0	0	1	2	0	2
OTU 176	3	3	18	2	2	2	7	2	4	0	4	12	1	0	1	9	5	0	0	7	0	2	1	6	0	0	4	0	0	0	0	2	1	0	0	3	1	2	5	10	1	3	1	1	0	3	0	0	0	5
OTU 177	1	0	0	2	0	1	0	0	6	1	1	0	0	0	0	1	2	1	8	6	41	0	4	1	0	1	0	0	4	1	11	0	0	0	3	0	0	0	2	0	0	0	1	0	0	2	22	0	2	0
OTU 178	2	0	4	0	0	0	1	0	0	3	3	2	0	1	2	10	0	1	0	0	0	0	1	0	0	3	0	0	0	1	0	0	2	0	1	2	0	0	0	0	0	0	0	0	0	1	0	0	0	0
OTU 179	1	1	6	0	0	2	0	0	0	0	4	0	0	0	0	0	0	4	0	0	0	0	1	7	3	1	0	0	11	0	0	1	0	0	4	11	0	0	0	0	0	0	0	0	0	0	0	0	4	0
OTU 180	1	2	3	1	3	4	2	6	0	7	1	2	4	1	6	4	1	3	6	9	0	50	0	3	3	94	1	3	3	0	2	1	1	2	3	0	1	49	11	1	2	3	9	6	1	5	0	3	1	6
OTU 181	0	0	1	0	2	0	0	0	0	0	0	0	1	8	0	0	0	35	2	3	0	1	0	0	0	1	7	0	0	1	3	0	0	0	0	1	18	0	0	0	0	0	0	0	0	0	0	0	2	0
OTU 182	0	0	0	0	0	0	0	0	0	0	0	0	0	0	0	0	0	2	0	0	0	0	0	0	0	0	0	0	0	0	0	0	0	0	1	0	3	0	0	0	0	0	0	0	0	0	0	1	0	0
OTU 183	0	0	1	2	2	0	0	0	1	0	0	0	0	1	0	0	0	3	5	1	2	1	0	1	4	1	0	3	1	1	15	2	2	0	1	0	0	0	0	0	0	0	3	1	0	1	0	1	0	0
OTU 184	1	2	0	1	0	1	0	1	0	0	0	0	1	0	0	0	1	0	0	0	2	0	0	0	0	0	0	0	2	0	0	7	0	3	0	0	0	0	0	0	0	0	2	8	0	1	0	1	0	2
OTU 185	0	0	3	0	3	0	0	1	7	1	0	0	0	0	0	0	0	0	0	0	4	0	0	0	3	3	4	4	1	2	2	4	0	7	0	2	0	1	0	0	2	1	1	7	6	0	3	1	1	0
OTU 186	4	0	0	0	0	0	4	0	1	4	0	0	0	0	0	0	0	0	1	0	1	0	0	0	0	1	0	0	0	4	2	0	0	1	0	1	0	0	1	0	0	0	0	1	1	0	0	0	2	0
OTU 187	7	3	2	10	5	1	0	2	0	4	3	1	0	3	0	3	38	0	0	2	0	19	0	2	12	6	5	3	0	1	0	2	1	2	0	3	0	1	0	0	1	0	7	0	6	6	7	8	20	0
OTU 188	6	0	1	6	1	2	1	2	6	0	9	2	8	0	0	1	5	0	1	5	2	4	0	4	0	9	9	0	0	0	1	0	0	0	1	2	0	1	6	1	8	3	0	4	3	0	0	9	5	8
OTU 189	14	0	0	0	0	0	0	3	29	5	0	0	4	6	0	13	1	2	0	6	0	3	1	0	9	0	0	4	0	0	1	6	1	3	0	3	152	0	5	0	1	1	0	1	10	2	7	0	0	8
OTU 190	0	0	1	0	0	0	1	0	0	2	0	0	0	0	0	0	0	0	0	0	0	0	0	0	0	3	0	0	0	0	2	0	0	0	0	0	0	0	0	0	0	0	0	0	0	0	0	0	0	0
OTU 191	2	1	0	8	0	0	1	0	0	37	2	1	0	7	1	4	17	0	1	1	114	43	3	0	0	0	9	1	5	9	2	0	0	3	5	4	0	0	3	0	0	0	3	3	0	0	0	0	4	1
OTU 192	7	17	19	0	2	6	4	1	0	0	2	17	3	0	0	7	0	0	3	0	3	1	1	1	0	2	5	0	6	1	4	1	2	3	3	1	1	0	1	0	0	1	4	8	4	26	0	10	3	9
OTU 193	0	0	0	1	0	0	0	2	4	0	2	0	5	0	0	4	0	0	0	0	0	0	0	2	2	0	0	1	11	1	4	2	1	1	2	1	0	0	0	0	0	0	0	0	161	1	8	0	0	3
OTU 194	8	2	27	0	0	0	0	1	0	0	0	0	0	0	2	3	0	0	0	0	0	0	1	1	1	0	0	1	0	6	0	0	0	0	0	0	1	0	2	0	0	0	0	1	0	0	0	1	0	0
OTU 195	1	0	0	0	0	0	0	0	0	0	0	0	1	2	0	0	5	0	2	2	0	7	0	0	0	0	1	0	8	3	1	0	2	0	0	0	0	0	0	0	0	2	1	2	9	1	0	2	0	1
OTU 196	0	0	1	0	1	0	0	0	8	1	0	0	0	3	0	0	0	0	5	0	0	0	0	0	1	5	1	0	1	2	2	0	120	0	0	0	0	1	0	0	0	1	3	1	1	1	0	1	1	1
OTU 197	1	2	1	2	3	10	3	0	2	0	1	1	0	2	0	1	1	0	7	6	4	0	0	0	22	2	0	11	0	5	7	3	2	4	1	3	0	2	5	0	0	2	0	6	4	0	1	0	4	65
OTU 198	0	1	0	0	0	1	0	0	1	0	0	0	0	0	0	0	0	0	3	0	0	0	0	0	0	0	0	0	0	1	2	0	0	0	0	0	0	0	0	2	0	0	0	0	0	0	0	1	3	0
OTU 199	0	1	0	0	0	0	0	4	1	0	0	0	0	0	0	0	4	0	0	0	0	4	0	0	3	0	0	0	0	0	0	1	0	0	2	0	3	1	10	0	0	1	0	0	0	0	0	3	6	0
OTU 200	1	1	0	0	0	0	1	0	1	0	0	3	0	1	1	1	2	0	0	0	0	0	0	2	3	0	0	1	0	0	0	2	1	1	0	0	0	1	0	0	1	0	2	1	0	0	0	0	3	1
