	Host 1	Host 2	Host 3	Host 4	Host 5	Host 6	Host 7	Host 8	Host 9	Host 10	Host 11	Host 12	Host 13	Host 14	Host 15	Host 16	Host 17	Host 18	Host 19	Host 20	Host 21	Host 22	Host 23	Host 24	Host 25	Host 26	Host 27	Host 28	Host 29	Host 30	Host 31	Host 32	Host 33	Host 34	Host 35	Host 36	Host 37	Host 38	Host 39	Host 40	Host 41	Host 42	Host 43	Host 44	Host 45	Host 46	Host 47	Host 48	Host 49	Host 50	
OTU 1	0	2	7	1	4	2	1	3	5	1	0	7	2	0	4	3	3	1	1	1	0	1	3	4	0	2	4	0	0	1	4	0	1	1	8	4	5	5	1	4	0	1	2	4	1	4	1	1	0	2
OTU 2	4	0	0	1	0	0	1	0	0	0	0	1	1	0	0	0	0	0	0	0	0	0	0	0	0	1	0	0	0	2	4	2	0	0	0	1	0	0	0	0	0	0	0	0	0	0	0	0	0	0
OTU 3	1	6	2	0	0	0	0	0	1	0	0	20	0	0	0	1	2	2	0	5	1	0	0	0	0	0	6	0	3	0	0	0	3	0	0	0	2	0	0	0	0	1	0	1	0	1	0	0	0	0
OTU 4	0	0	0	0	0	0	0	0	0	0	0	0	0	0	0	0	0	0	0	0	0	0	0	0	0	0	0	0	0	0	0	0	0	0	0	0	0	0	0	0	0	0	0	0	0	0	0	0	0	0
OTU 5	0	0	0	6	3	42	6	12	0	28	2	17	4	59	12	17	18	0	21	17	32	1	33	2	7	4	18	19	60	14	9	0	1	6	0	14	1	11	0	53	2	0	43	7	6	0	13	0	13	17
OTU 6	0	2	3	0	1	1	0	1	0	1	0	0	1	0	2	3	0	0	0	3	0	0	3	0	1	1	0	0	0	0	2	1	1	0	0	0	0	0	0	4	0	2	0	2	7	0	1	1	1	0
OTU 7	1	0	12	0	1	3	8	2	11	1	8	2	2	3	9	13	10	3	2	1	2	2	2	0	3	1	0	0	1	3	1	1	0	4	1	5	0	0	5	0	1	0	0	1	1	21	15	1	0	3
OTU 8	0	0	1	6	3	1	25	0	1	10	7	8	2	1	0	1	1	1	3	2	3	4	2	1	3	2	1	27	22	3	38	4	1	3	2	2	1	0	0	17	2	1	16	8	3	0	42	0	1	2
OTU 9	0	2	6	0	0	1	122	11	0	0	0	5	3	0	2	2	0	1	0	0	0	2	0	28	0	0	4	0	0	0	0	0	0	0	0	5	0	0	2	0	5	0	0	0	0	12	6	1	0	0
OTU 10	1	0	12	0	0	0	0	0	0	0	0	0	0	0	4	0	0	0	0	0	0	0	0	0	0	4	0	0	0	0	0	0	3	0	0	0	0	0	4	0	1	0	0	0	0	0	0	1	0	0
OTU 11	7	0	5	0	8	0	5	1	2	3	0	6	2	4	12	1	4	14	2	0	0	0	7	5	3	0	1	3	1	0	0	2	3	1	13	4	0	2	0	7	1	10	1	0	4	0	0	2	0	0
OTU 12	6	4	1	2	0	1	0	3	3	0	1	1	1	3	0	3	5	5	7	0	0	2	0	0	1	0	0	1	0	1	0	5	1	0	0	1	2	0	0	0	7	0	1	2	1	2	1	0	0	2
OTU 13	0	0	0	0	0	0	0	0	0	0	0	0	0	0	0	0	0	0	0	0	0	0	0	0	1	0	0	0	1	0	0	0	0	0	1	0	0	0	0	1	0	0	0	0	0	0	0	0	0	0
OTU 14	0	0	0	1	0	1	0	1	0	0	1	0	0	0	0	0	0	0	0	8	0	1	0	0	0	0	1	4	0	0	3	0	1	1	0	0	0	0	0	0	0	0	0	0	0	0	0	0	0	0
OTU 15	0	0	0	0	0	0	0	2	0	0	0	0	0	0	0	0	0	0	0	9	0	0	0	0	0	1	0	0	0	0	0	0	0	0	0	0	0	0	0	0	0	0	0	0	0	0	0	0	0	2
OTU 16	0	0	0	0	0	0	0	0	0	0	0	0	0	0	0	0	0	0	0	0	0	0	0	0	0	0	0	0	0	0	0	0	0	0	0	0	0	0	0	0	0	0	0	0	0	0	0	0	0	0
OTU 17	0	1	0	2	6	8	1	0	0	0	1	0	0	0	1	0	1	4	0	4	0	0	3	12	0	2	1	0	0	0	1	0	8	3	18	0	0	6	0	0	11	1	0	5	12	0	0	0	0	0
OTU 18	2	2	0	5	8	1	0	2	2	0	1	0	0	0	0	1	0	1	0	0	0	9	2	1	0	0	0	2	0	0	2	0	1	0	3	1	0	2	1	1	6	1	0	2	7	7	1	3	0	1
OTU 19	0	0	0	0	0	4	0	0	0	0	0	0	0	0	0	0	0	0	0	0	0	0	0	0	0	0	0	0	0	0	0	0	0	0	0	0	0	0	0	0	0	0	0	0	0	0	0	0	0	0
OTU 20	0	1	8	0	2	1	0	6	1	0	0	2	0	9	6	1	3	6	4	8	0	8	0	3	1	0	2	0	0	2	4	0	2	2	3	0	2	1	0	0	7	4	0	2	1	0	1	0	0	2
OTU 21	3	0	4	5	2	1	1	2	4	0	0	10	84	0	0	11	4	4	1	2	0	0	1	0	0	147	6	0	1	0	3	9	3	10	0	0	0	1	0	0	0	4	0	4	0	2	2	0	0	12
OTU 22	2	3	3	2	5	0	1	6	14	0	0	2	3	0	3	0	0	0	0	4	0	2	1	2	1	0	0	0	5	0	1	2	0	0	7	0	2	1	0	0	0	4	0	0	2	1	0	0	3	0
OTU 23	2	0	0	0	0	0	0	1	3	5	1	0	0	0	0	25	0	0	0	0	74	0	3	0	0	7	0	1	0	147	0	0	1	19	0	0	0	0	0	11	0	4	3	3	0	0	0	0	0	0
OTU 24	2	0	1	0	0	0	0	0	0	0	0	5	0	0	0	0	0	0	0	0	0	0	0	0	0	0	2	1	0	0	0	3	1	0	0	0	0	0	1	0	1	0	0	0	0	1	0	0	0	0
OTU 25	0	10	0	0	0	0	4	0	0	0	0	0	0	0	0	0	0	0	0	0	0	0	0	0	0	0	0	0	0	0	0	0	0	0	0	0	9	0	0	0	0	0	0	0	0	0	0	0	1	0
OTU 26	0	0	1	0	0	0	0	0	0	0	0	0	0	0	0	0	0	0	0	0	0	0	0	0	0	0	0	0	0	0	0	0	0	0	0	0	0	0	4	0	0	0	0	0	0	0	0	0	0	0
OTU 27	0	0	0	0	0	0	0	0	0	0	0	0	0	0	0	0	0	0	0	0	0	0	0	0	0	0	0	0	0	0	0	0	0	0	0	0	0	0	0	0	5	0	0	0	0	0	0	0	0	0
OTU 28	11	0	53	1	6	2	2	4	21	69	1	0	71	0	21	4	4	1	1	5	0	0	0	3	4	0	1	1	1	3	0	0	2	0	7	2	0	2	2	3	2	4	1	15	1	110	61	1	0	0
OTU 29	3	3	0	0	0	0	1	1	0	0	0	1	1	1	1	4	0	0	1	6	0	6	0	2	0	2	2	0	0	0	0	1	3	2	1	1	3	5	0	2	8	2	1	1	0	0	2	3	2	1
OTU 30	0	0	0	0	0	0	0	0	0	0	0	0	0	0	0	0	0	0	0	0	0	0	0	0	0	0	0	0	0	0	0	0	0	0	0	1	0	0	0	0	0	0	0	0	0	0	0	0	0	0
OTU 31	1	2	0	0	0	0	0	0	0	1	0	15	2	2	0	2	0	3	0	2	63	0	0	0	80	0	5	0	35	0	0	0	0	1	0	0	0	0	0	0	1	0	0	0	1	4	0	0	0	1
OTU 32	4	1	0	0	0	0	3	4	0	1	4	0	0	4	1	4	1	4	0	0	2	0	4	1	4	2	1	0	4	0	5	3	4	0	1	1	0	0	9	1	0	5	1	1	1	1	0	2	0	1
OTU 33	0	0	0	0	0	0	0	0	1	0	0	0	0	0	0	0	0	0	0	0	0	0	0	0	0	0	0	0	0	0	0	0	0	0	0	0	0	0	0	0	0	0	0	0	0	0	0	0	0	0
OTU 34	15	6	1	1	0	2	3	3	2	2	0	0	0	3	0	2	1	13	3	1	0	0	0	0	1	0	0	2	0	0	4	3	1	2	0	0	3	0	0	2	0	3	1	0	2	2	1	0	0	0
OTU 35	0	1	3	1	0	1	0	1	0	0	0	6	0	0	2	1	0	2	2	5	1	1	0	0	0	0	3	0	1	0	3	3	0	1	0	0	2	0	1	0	0	0	0	0	0	0	3	0	4	0
OTU 36	1	5	0	3	0	0	2	0	1	0	2	1	0	3	0	0	10	0	2	0	1	0	1	0	1	0	0	1	0	3	28	4	0	0	0	0	2	2	0	1	0	0	0	0	0	0	2	2	0	1
OTU 37	0	0	0	0	0	0	2	0	2	0	0	0	0	0	0	0	0	0	0	0	0	0	0	0	1	5	3	0	0	0	0	2	0	0	1	2	0	0	0	0	0	0	0	0	2	0	1	0	0	0
OTU 38	7	0	0	0	3	3	1	0	0	38	1	1	0	2	0	0	1	3	1	1	0	1	1	8	0	0	1	0	0	1	3	2	6	4	10	0	0	3	0	63	1	2	38	1	9	0	1	0	0	0
OTU 39	0	2	2	1	0	0	0	0	1	0	0	0	0	0	0	0	0	0	0	0	3	0	0	0	0	0	0	0	0	0	0	8	0	0	0	0	1	0	0	0	0	0	0	0	0	0	0	0	1	0
OTU 40	8	0	0	15	0	3	4	1	1	0	0	0	0	8	0	4	1	3	4	1	0	0	0	0	0	0	1	6	0	0	0	1	0	11	0	1	0	0	1	0	3	0	0	0	0	0	0	0	0	0
OTU 41	1	6	1	0	3	1	26	0	0	0	1	0	0	0	0	0	0	0	0	0	0	0	1	5	0	1	0	0	0	2	2	1	0	0	0	2	6	2	1	0	0	0	0	5	4	0	0	1	0	0
OTU 42	2	1	0	1	0	0	0	0	1	0	0	1	0	0	0	2	0	0	0	5	0	0	0	0	0	0	0	0	0	0	1	0	0	0	3	0	0	1	0	0	0	0	0	0	0	0	0	0	2	0
OTU 43	0	0	2	0	0	0	0	0	0	0	3	0	0	0	0	0	0	0	0	0	0	0	0	0	0	0	0	0	0	0	0	0	0	0	0	0	0	0	0	0	0	0	0	0	0	0	0	0	0	0
OTU 44	0	0	0	0	0	0	0	0	0	1	0	0	0	0	0	0	0	8	1	1	0	0	0	0	0	0	0	0	0	1	2	0	0	0	0	0	0	0	0	0	2	0	0	0	2	0	0	0	0	0
OTU 45	14	5	2	2	2	0	2	1	1	1	12	2	1	7	2	0	9	1	3	1	0	2	2	2	7	0	1	6	1	3	0	10	0	0	10	2	5	4	0	3	12	4	0	0	2	1	1	0	4	3
OTU 46	1	0	0	1	2	25	0	3	0	0	0	0	1	5	0	1	3	9	6	5	0	5	2	0	3	2	40	0	2	1	0	3	52	1	6	2	0	1	2	1	5	0	0	3	1	0	0	3	0	1
OTU 47	7	0	0	1	0	0	0	0	0	0	0	0	0	0	0	0	0	0	0	0	0	0	0	2	0	1	0	0	0	0	0	1	0	0	2	0	0	0	0	0	0	0	0	0	0	1	1	0	1	0
OTU 48	0	13	0	0	0	3	1	6	6	0	0	2	4	1	0	4	3	0	7	1	0	2	1	0	4	0	1	0	2	1	5	6	6	0	1	3	3	0	3	1	0	0	1	0	3	0	0	167	0	1
OTU 49	0	3	1	1	0	0	1	2	0	0	0	0	1	0	4	0	0	0	0	0	0	1	0	0	0	0	0	4	0	0	0	1	0	1	0	0	0	1	4	0	0	0	0	0	4	0	0	0	0	0
OTU 50	1	3	0	2	0	3	1	7	0	21	2	1	3	3	117	3	0	1	0	0	1	0	2	1	2	1	1	3	0	3	1	0	0	0	1	2	1	0	1	0	10	8	2	3	0	2	3	0	1	3
OTU 51	2	0	0	2	2	4	0	0	0	1	3	1	0	1	0	0	2	0	0	0	0	0	0	0	1	0	0	0	0	2	0	4	0	0	1	0	0	1	0	4	0	3	0	1	0	0	0	0	6	0
OTU 52	6	0	4	1	1	2	0	2	1	1	7	8	0	7	2	0	2	9	1	0	7	1	0	3	0	3	10	1	29	8	2	4	9	0	2	0	0	1	7	0	0	0	1	1	4	0	0	13	5	3
OTU 53	0	0	0	0	0	0	0	0	0	0	1	0	0	0	0	0	0	0	0	0	0	0	0	0	0	0	0	0	0	0	0	0	0	0	0	0	0	0	0	0	0	0	0	0	0	0	0	0	0	0
OTU 54	6	3	2	2	1	3	2	1	2	1	3	10	1	1	0	10	6	1	0	2	0	6	0	2	0	17	5	1	2	5	2	1	1	1	3	2	0	1	0	1	4	0	1	1	0	1	1	0	6	0
OTU 55	0	0	0	0	0	0	0	0	0	0	0	0	0	0	0	0	0	0	0	0	0	0	0	0	1	0	0	0	2	0	0	0	0	0	0	0	0	0	0	0	0	0	0	0	0	0	0	0	0	0
OTU 56	0	3	0	0	0	0	0	1	0	0	0	3	0	0	0	2	3	0	0	0	0	0	0	2	1	0	0	0	0	1	1	1	0	0	0	0	0	0	1	0	0	2	1	0	3	0	2	0	4	0
OTU 57	12	5	3	5	12	50	2	3	1	1	2	18	2	1	3	1	2	5	1	1	1	6	9	14	4	1	6	7	2	1	56	1	14	8	29	5	0	14	1	1	6	2	110	3	4	9	9	2	1	4
OTU 58	2	0	1	3	0	0	1	1	1	0	0	1	0	0	3	0	0	0	0	0	0	0	0	0	0	0	1	0	0	0	0	1	0	0	0	0	0	0	1	0	2	0	0	0	2	3	2	0	4	0
OTU 59	0	3	0	0	2	0	1	1	1	1	10	0	0	0	0	2	8	2	1	11	1	1	3	1	0	0	0	0	0	3	0	1	1	0	2	0	1	3	3	8	0	4	2	0	3	0	0	2	0	1
OTU 60	0	0	51	7	2	0	1	4	8	2	3	0	0	2	34	2	1	4	1	9	2	25	0	0	33	0	2	3	22	2	0	7	1	1	4	2	0	1	1	4	59	1	1	2	4	6	16	2	1	7
OTU 61	8	7	0	0	23	1	2	2	1	0	5	2	0	0	0	1	1	1	2	2	1	9	0	2	5	0	4	1	4	0	2	0	1	3	0	0	9	1	1	0	5	0	0	7	1	0	2	0	1	0
OTU 62	0	0	0	0	0	0	0	0	4	0	1	0	0	0	0	0	0	0	0	0	0	0	2	0	0	0	0	0	0	2	0	0	0	1	0	0	0	0	0	0	0	0	0	0	0	0	0	1	0	0
OTU 63	10	2	0	21	0	3	0	0	0	0	4	0	2	2	0	49	3	0	0	0	1	0	4	3	0	9	0	0	0	0	0	30	2	20	11	5	0	3	0	0	0	0	0	1	0	1	0	0	0	0
OTU 64	4	0	2	0	0	0	0	4	4	0	35	2	0	0	0	0	3	2	1	4	2	0	4	13	5	1	1	0	3	1	0	4	0	4	0	2	1	1	0	1	1	0	1	1	5	12	0	0	0	3
OTU 65	0	0	0	0	0	0	0	0	0	0	0	0	0	0	0	0	0	0	0	0	0	0	0	0	0	0	0	0	0	0	0	0	0	0	1	0	0	0	0	0	0	1	0	0	0	0	0	0	0	0
OTU 66	1	1	0	1	0	2	0	1	22	1	1	11	0	5	0	2	15	5	2	2	4	0	2	1	2	0	4	0	6	11	0	2	0	0	1	0	2	1	0	1	0	6	2	2	1	0	1	1	0	0
OTU 67	0	2	0	2	1	0	0	0	1	0	1	2	0	1	0	0	0	0	1	15	0	3	0	0	1	3	3	1	1	0	0	3	0	0	0	1	2	0	4	0	2	0	0	8	16	1	0	1	0	0
OTU 68	0	2	0	4	45	0	0	6	2	0	4	2	4	0	0	2	1	0	0	0	2	0	0	0	3	0	0	3	0	1	4	1	0	4	0	0	0	0	0	0	1	3	0	0	5	2	6	0	0	5
OTU 69	1	0	2	0	0	3	1	10	0	1	0	2	0	0	1	1	0	5	7	1	0	0	3	1	1	4	0	4	1	2	0	1	1	0	5	0	0	5	6	4	4	5	2	0	1	3	0	0	1	3
OTU 70	3	1	0	0	0	0	0	7	4	0	3	2	0	0	0	0	8	3	0	0	3	0	0	1	1	0	0	1	0	1	0	0	1	0	0	0	1	0	0	1	1	3	0	0	0	1	0	0	0	1
OTU 71	2	0	0	0	0	1	0	0	1	0	0	0	0	0	0	0	0	0	4	1	0	1	0	0	0	0	0	0	0	0	0	0	1	0	0	0	0	0	0	1	0	1	0	0	0	0	0	0	0	0
OTU 72	1	0	2	0	0	36	2	3	1	0	2	2	0	0	0	6	5	3	1	3	1	1	1	3	2	0	0	3	2	3	2	0	10	2	2	4	0	2	0	0	1	1	0	4	0	0	0	1	1	0
OTU 73	3	0	1	0	4	1	0	2	1	0	0	2	2	0	3	8	1	0	91	2	2	2	2	1	3	2	0	1	0	1	3	0	1	4	6	0	0	4	3	1	7	1	0	0	0	0	3	2	4	0
OTU 74	0	1	1	0	0	1	1	3	0	1	1	3	1	18	1	3	0	14	0	0	0	0	0	0	2	3	3	2	2	1	2	2	0	0	6	9	1	0	0	0	0	0	0	0	3	1	0	1	1	2
OTU 75	0	0	1	117	4	1	3	2	6	2	5	3	1	0	3	2	0	3	0	2	0	0	3	4	2	15	0	2	4	1	0	1	2	51	6	4	0	1	1	0	1	8	1	0	5	6	1	1	0	0
OTU 76	0	0	0	3	6	9	0	0	0	0	0	0	0	0	0	0	0	0	0	0	0	1	8	6	0	0	0	0	0	0	0	2	1	0	10	0	0	4	0	0	0	0	0	0	1	0	0	1	2	0
OTU 77	1	2	1	2	2	0	2	1	0	0	0	1	0	0	0	0	0	1	0	0	0	0	4	0	0	0	24	0	1	0	0	1	1	0	3	1	11	0	1	2	0	13	0	0	1	0	0	0	2	1
OTU 78	0	4	2	2	0	7	2	1	0	2	5	1	0	0	1	0	2	6	9	5	1	0	0	1	1	1	0	1	0	0	0	0	0	3	0	0	2	1	0	0	0	0	0	0	1	0	0	0	0	0
OTU 79	6	10	8	10	4	15	2	9	12	1	48	9	3	3	1	8	3	1	4	2	4	3	7	13	18	8	0	11	9	1	5	14	14	2	19	10	7	16	3	2	13	17	17	3	2	15	6	2	2	6
OTU 80	4	4	0	0	1	0	5	3	1	0	0	0	3	7	2	1	1	4	5	7	0	10	0	0	5	0	1	1	1	5	2	4	4	1	0	1	2	1	3	0	2	2	0	2	12	4	0	0	2	3
OTU 81	8	2	1	3	0	0	4	4	2	0	4	2	30	1	0	2	2	7	0	0	4	0	2	1	1	1	0	5	0	2	1	6	0	0	4	82	2	0	1	2	0	1	4	0	2	0	0	3	103	4
OTU 82	10	0	1	0	0	0	0	4	0	0	4	4	0	6	0	3	0	11	0	0	2	3	1	98	1	1	3	3	0	0	1	0	0	6	0	0	65	0	6	0	10	0	0	3	3	5	3	1	18	7
OTU 83	0	0	0	0	0	0	0	0	0	3	1	0	0	0	0	0	4	0	0	3	2	0	0	0	0	0	0	1	0	1	0	0	0	0	0	2	0	0	0	1	0	1	1	0	0	0	0	0	0	0
OTU 84	0	2	4	1	2	0	0	2	0	0	1	1	1	0	3	2	0	0	0	0	1	0	0	1	0	0	0	0	0	0	1	0	2	0	2	5	3	0	0	0	0	0	0	8	0	0	0	0	0	0
OTU 85	0	2	1	0	0	0	0	0	0	0	0	0	0	0	0	2	1	0	2	0	0	1	0	0	0	1	0	0	0	0	0	0	2	0	0	1	3	0	0	0	0	2	0	0	0	6	3	0	2	150
OTU 86	0	0	0	1	0	0	0	0	0	0	1	0	0	0	0	0	0	0	0	1	0	0	0	0	0	0	0	0	0	0	0	0	0	1	0	0	0	0	0	0	0	0	0	0	0	0	0	0	0	0
OTU 87	12	7	0	0	0	0	2	0	0	0	0	2	0	2	0	1	0	4	0	3	0	0	0	0	0	0	0	0	59	0	0	0	0	0	0	0	4	0	0	0	0	0	0	0	0	1	0	0	1	0
OTU 88	0	0	0	2	0	0	0	0	3	0	0	0	0	0	0	0	0	0	0	4	0	0	1	0	0	0	0	0	0	0	0	0	0	0	0	0	0	0	0	0	0	0	0	0	0	0	0	0	26	0
OTU 89	16	0	1	0	0	1	0	0	0	0	5	1	1	10	1	0	2	10	2	0	0	4	0	0	0	0	1	0	0	0	0	0	2	1	0	0	0	0	0	0	0	5	0	0	1	0	0	0	0	0
OTU 90	0	0	0	0	0	0	0	2	0	0	0	0	0	0	0	1	0	2	0	0	0	0	0	0	0	2	0	0	0	0	0	0	0	1	0	0	0	0	0	0	6	0	0	0	1	0	0	0	0	0
OTU 91	0	0	0	0	0	1	0	0	0	0	0	0	0	0	0	0	0	0	0	0	0	0	0	0	0	0	0	0	0	0	0	0	0	0	0	0	0	1	0	0	2	0	0	2	1	0	0	0	0	0
OTU 92	0	0	0	0	3	1	0	0	0	0	1	0	0	1	0	1	0	2	0	0	0	5	1	2	0	0	0	0	0	0	0	0	7	0	2	0	0	4	0	1	0	0	0	0	0	0	0	0	0	0
OTU 93	0	0	0	0	0	0	0	0	0	0	0	0	0	1	0	0	0	0	0	0	0	0	0	0	0	0	0	0	0	0	3	0	0	0	1	2	0	0	0	0	0	0	0	0	2	0	0	0	0	0
OTU 94	1	1	0	0	0	0	0	1	3	0	3	2	1	2	1	6	2	1	0	9	0	0	0	0	1	0	2	0	0	3	1	2	0	1	0	3	2	0	1	0	1	5	2	4	2	1	3	0	0	0
OTU 95	0	0	0	0	1	2	1	31	0	0	0	0	0	0	0	1	0	0	0	0	0	1	1	3	5	4	0	15	3	1	0	0	3	0	2	0	0	2	0	0	12	0	0	0	1	0	7	0	0	12
OTU 96	0	0	0	0	0	0	0	0	0	0	0	0	2	1	0	0	0	6	0	4	0	0	2	0	0	0	0	0	0	0	2	0	0	0	0	0	0	0	0	0	0	0	0	0	0	0	0	0	3	0
OTU 97	0	0	0	0	0	0	0	0	0	0	0	0	0	0	0	0	0	0	0	1	0	1	0	0	1	0	0	0	0	0	0	0	0	0	0	0	0	0	0	0	0	0	0	1	0	2	0	0	1	0
OTU 98	0	0	1	0	0	0	3	1	3	0	2	0	1	0	0	0	0	0	0	2	0	0	0	0	0	0	0	0	0	0	0	0	2	0	1	2	0	0	0	0	0	0	0	0	2	0	0	0	0	0
OTU 99	2	0	0	1	1	0	0	18	6	0	10	7	0	1	1	8	1	1	1	0	4	93	1	2	3	3	8	8	4	2	1	1	6	0	5	1	2	3	2	1	3	2	0	2	0	1	2	2	1	11
OTU 100	6	5	0	0	0	6	2	3	1	0	2	0	0	0	0	0	1	3	3	0	0	2	0	0	0	0	41	0	0	0	3	0	0	0	0	0	1	1	0	0	3	0	0	0	3	0	0	0	0	0
OTU 101	0	0	0	0	0	0	0	0	0	0	0	0	0	0	0	0	0	0	0	0	0	0	0	0	0	0	0	0	0	0	1	0	0	0	0	0	0	0	0	0	0	0	1	0	0	0	0	0	0	0
OTU 102	0	0	0	0	0	1	0	0	1	0	0	0	3	0	0	1	12	1	0	0	0	1	0	0	0	0	0	0	0	3	0	0	0	0	0	0	0	0	0	0	0	0	0	0	0	0	0	0	0	0
OTU 103	5	3	0	0	0	0	4	7	0	21	0	0	1	0	0	0	0	0	2	3	0	0	0	0	1	1	0	1	0	1	0	0	4	0	0	0	3	0	10	24	4	69	10	3	0	0	0	0	0	4
OTU 104	3	1	0	0	8	7	1	3	2	1	0	24	2	0	1	2	2	2	1	0	3	5	3	5	4	0	6	3	7	4	2	0	0	0	6	1	1	1	0	1	0	0	0	0	0	6	1	1	2	1
OTU 105	0	0	0	0	0	0	0	1	1	0	0	1	0	0	0	0	0	0	0	3	0	2	0	0	0	0	2	2	0	0	0	0	0	1	0	0	0	0	0	0	0	0	0	3	0	1	3	0	0	0
OTU 106	0	2	0	0	85	0	0	0	0	0	0	0	0	1	1	2	0	0	0	0	0	0	0	2	0	4	0	0	0	0	0	0	85	0	0	0	1	1	2	2	0	0	0	0	0	0	0	0	0	0
OTU 107	0	0	3	0	0	1	0	0	12	0	0	2	0	1	1	0	0	3	0	1	0	0	0	0	2	0	0	0	0	0	0	1	1	0	0	0	0	0	0	1	0	0	1	0	0	0	0	0	0	0
OTU 108	0	0	3	1	1	0	0	2	2	0	1	0	0	2	0	0	16	0	0	5	0	0	0	1	0	0	0	0	0	6	3	0	0	1	0	2	0	1	0	0	0	0	0	0	0	4	1	5	2	0
OTU 109	0	0	0	0	0	0	0	0	0	0	0	0	0	0	0	0	0	0	0	0	0	0	0	0	0	0	0	0	0	0	0	0	0	0	0	0	0	0	0	0	0	0	0	0	0	0	0	0	0	0
OTU 110	8	0	0	0	0	3	0	0	2	1	6	0	0	2	0	0	0	0	0	1	1	4	5	0	0	1	0	0	1	0	0	0	1	0	0	1	0	0	0	0	0	0	0	0	2	0	0	0	0	0
OTU 111	0	1	0	0	0	0	0	0	0	0	0	0	0	0	0	3	0	0	0	0	0	0	0	0	0	0	0	0	0	0	0	0	0	1	0	0	0	0	0	0	0	0	0	0	0	0	0	0	0	0
OTU 112	3	1	0	0	1	0	0	0	0	2	0	0	4	0	1	2	0	2	0	0	0	0	0	0	0	0	0	0	0	0	0	0	1	0	3	1	1	1	0	4	0	3	2	0	0	0	0	0	0	0
OTU 113	0	0	0	0	0	0	3	0	0	0	0	2	0	0	0	0	0	0	0	1	0	0	0	0	1	0	1	0	1	0	0	0	0	0	0	1	0	0	2	0	0	0	0	0	0	0	0	0	0	1
OTU 114	1	3	0	3	3	3	0	3	15	0	7	0	0	1	0	1	28	3	1	6	11	6	4	2	7	0	0	4	6	18	1	10	0	0	1	1	0	0	8	0	13	7	0	0	3	2	0	0	4	1
OTU 115	0	0	94	2	2	8	0	0	0	1	2	1	1	0	74	2	3	6	10	2	1	0	1	2	1	0	2	0	1	2	0	3	4	1	4	12	0	3	0	1	3	0	0	1	1	0	0	0	1	0
OTU 116	2	1	0	1	0	5	1	1	4	0	0	10	0	1	0	0	4	4	1	5	0	0	0	0	2	1	11	0	3	0	3	1	1	2	2	0	0	2	4	0	0	0	2	0	0	1	0	2	2	8
OTU 117	0	0	0	1	1	2	1	0	6	0	3	0	0	0	1	0	1	1	0	1	0	5	0	0	1	11	0	50	0	0	1	2	0	0	0	0	0	0	1	2	0	4	2	0	3	4	0	0	0	1
OTU 118	0	0	0	0	0	1	0	0	0	0	0	0	0	0	0	0	0	0	0	0	0	0	0	0	0	0	0	0	0	0	0	0	0	1	0	0	0	0	37	0	0	0	0	0	0	0	0	15	0	0
OTU 119	1	1	2	0	0	1	0	0	3	0	0	0	12	9	1	2	1	16	2	0	0	4	0	2	1	0	1	2	1	0	2	1	0	3	0	12	1	1	2	0	0	2	0	0	4	0	1	4	0	0
OTU 120	1	2	0	0	0	1	0	0	0	0	5	0	0	0	0	0	0	0	0	0	0	0	0	0	2	0	1	0	2	0	0	1	0	0	0	0	3	0	0	0	0	0	0	8	0	0	2	0	1	0
OTU 121	6	3	0	0	0	0	18	0	1	0	7	0	0	1	1	0	0	1	3	0	0	0	0	0	1	0	0	0	0	0	3	1	0	3	1	0	1	0	0	0	2	2	0	10	0	0	0	1	1	0
OTU 122	2	5	0	0	2	0	3	6	3	1	0	3	0	55	0	1	0	0	0	0	0	8	3	1	4	1	1	1	2	1	0	0	7	0	3	0	0	0	3	2	5	0	1	4	3	0	1	1	0	25
OTU 123	12	2	7	0	3	4	16	7	10	75	14	5	5	1	5	1	11	3	5	3	2	10	2	6	3	0	3	3	1	8	7	14	4	2	5	3	2	13	16	6	7	17	4	57	12	10	7	3	0	5
OTU 124	0	1	0	0	0	0	1	0	2	0	0	0	0	1	0	0	0	0	0	0	0	2	0	0	0	0	0	0	0	1	0	1	0	0	0	0	0	0	0	0	0	0	0	0	0	0	0	1	0	0
OTU 125	10	12	0	6	0	6	1	2	3	2	16	6	13	6	0	11	9	7	1	20	93	6	0	1	6	0	0	1	3	2	9	7	0	4	3	21	8	1	110	21	4	11	7	73	7	3	2	70	39	2
OTU 126	0	0	0	0	0	0	0	0	0	1	3	0	0	0	0	0	0	0	0	0	0	0	0	0	0	0	0	0	0	0	0	0	0	0	0	1	0	0	0	2	1	3	2	0	0	0	0	2	0	0
OTU 127	0	0	0	1	0	0	2	1	0	2	1	4	0	0	0	0	1	0	0	0	0	0	0	0	0	0	0	0	1	0	0	0	1	4	0	0	0	0	0	0	1	0	0	1	0	1	1	0	0	3
OTU 128	4	6	2	1	2	11	9	6	29	1	15	1	2	4	14	14	0	41	13	1	1	11	14	3	3	2	4	5	2	1	13	12	1	11	1	2	5	2	5	4	12	9	2	17	1	6	4	1	2	1
OTU 129	0	0	0	1	0	0	0	4	0	0	0	0	0	0	0	14	0	0	0	0	0	1	2	0	0	2	0	1	2	0	0	0	0	11	0	0	0	0	0	0	1	0	0	0	2	0	0	0	0	3
OTU 130	3	1	1	0	0	1	0	3	1	3	3	0	2	0	1	1	4	0	11	0	2	0	30	2	0	0	0	1	2	1	2	2	2	0	0	2	0	31	0	9	0	9	4	0	2	0	0	0	2	2
OTU 131	0	0	0	0	0	0	0	11	1	0	0	20	1	1	0	0	1	0	0	0	1	0	1	0	5	5	7	5	4	0	0	0	1	2	3	0	0	10	0	0	5	0	0	0	2	0	0	0	2	2
OTU 132	0	2	1	0	0	0	0	0	1	0	3	2	0	0	0	0	0	0	4	0	0	0	0	0	0	0	0	0	0	0	1	0	0	0	1	1	0	0	0	1	1	3	0	0	1	3	1	1	1	0
OTU 133	2	0	0	0	0	0	0	0	0	0	0	0	1	0	0	0	1	0	0	0	0	1	0	0	0	1	0	0	0	0	0	0	0	0	0	0	0	0	0	0	0	0	0	1	3	0	0	0	0	0
OTU 134	0	2	1	5	0	0	0	5	1	10	12	1	0	1	0	1	0	0	5	8	0	1	0	0	1	1	1	4	0	0	0	4	2	0	0	0	0	1	0	4	3	12	3	0	5	0	0	0	0	0
OTU 135	6	0	0	3	0	1	1	0	14	0	7	0	0	1	0	1	0	0	0	2	0	2	0	0	2	0	1	0	0	0	8	0	2	0	3	0	0	3	0	0	0	0	0	0	0	6	4	0	0	1
OTU 136	0	0	1	5	1	2	0	0	2	0	2	0	0	1	0	0	3	0	0	8	0	0	94	1	0	0	1	0	0	0	0	0	0	0	5	0	0	9	0	0	0	0	0	3	29	0	0	0	0	0
OTU 137	0	0	3	0	0	5	0	1	0	0	0	1	0	0	1	0	0	0	0	0	0	1	0	0	0	0	1	0	0	0	0	0	0	6	0	0	0	0	0	0	0	0	0	0	1	10	4	1	16	0
OTU 138	1	0	0	0	1	0	2	0	3	0	0	0	0	0	0	0	0	0	0	2	0	0	2	0	0	0	0	1	0	3	0	6	0	1	0	0	0	0	0	0	0	0	0	0	0	1	1	0	0	0
OTU 139	11	9	1	3	2	6	0	2	6	0	0	1	3	1	0	2	2	0	4	1	0	24	2	4	4	0	0	78	2	0	11	8	1	1	3	1	6	2	0	0	0	1	1	1	1	0	88	1	4	4
OTU 140	8	3	14	3	1	3	0	14	8	2	1	16	2	0	7	7	9	0	3	3	1	4	4	5	8	4	3	2	1	2	0	7	8	1	9	0	3	2	1	3	1	8	0	40	0	4	2	0	2	7
OTU 141	0	0	0	0	0	0	0	0	0	0	0	0	0	0	0	0	0	0	0	0	0	0	0	0	0	0	0	0	0	0	0	0	0	0	0	0	0	0	0	0	0	0	0	0	0	0	0	0	0	0
OTU 142	0	1	0	0	2	0	0	0	0	0	0	0	0	0	0	0	0	0	0	0	0	0	0	0	0	0	0	0	0	0	0	0	0	0	0	0	0	0	0	0	0	0	0	1	0	0	0	0	1	0
OTU 143	0	0	0	1	0	0	0	0	0	0	5	0	0	0	0	0	1	1	0	0	0	0	0	0	2	0	0	0	0	0	0	0	0	0	0	0	0	0	0	0	0	1	0	0	0	1	0	0	0	0
OTU 144	2	0	0	0	0	0	0	0	0	0	0	0	0	0	0	0	1	0	1	0	0	0	0	0	0	0	0	1	0	0	0	1	0	0	0	0	0	0	0	0	0	0	0	0	6	0	0	0	0	0
OTU 145	8	31	0	0	0	1	15	4	0	0	0	8	0	14	0	0	1	32	1	1	0	5	0	0	0	0	3	1	3	0	0	1	1	1	0	0	32	0	6	1	6	1	0	2	0	0	0	0	42	3
OTU 146	2	12	3	1	0	0	0	4	3	0	0	0	4	0	4	2	0	0	5	0	1	1	1	0	7	1	0	1	0	0	0	0	0	0	0	5	5	0	1	0	2	2	0	0	0	1	6	0	5	2
OTU 147	0	0	0	1	0	1	0	0	0	1	0	0	0	1	0	1	2	0	0	0	18	1	1	0	0	0	0	0	0	35	0	1	0	2	0	0	0	0	0	0	0	1	0	0	0	0	0	0	0	0
OTU 148	1	2	0	0	0	0	0	1	0	0	0	2	2	2	2	0	1	0	0	0	0	2	2	0	0	59	2	0	0	1	1	2	0	103	0	2	4	0	1	0	0	3	2	2	1	5	0	0	2	1
OTU 149	4	0	0	0	0	0	0	0	0	0	3	6	0	0	0	0	2	3	0	1	0	0	0	0	1	2	0	0	1	0	10	0	7	0	1	0	0	1	0	1	4	0	0	0	1	0	0	0	0	0
OTU 150	0	0	2	0	0	0	0	0	0	0	0	0	0	0	0	2	3	0	0	0	0	11	0	0	0	1	0	0	0	0	0	0	0	0	0	6	0	0	3	0	0	1	0	0	0	1	11	3	0	0
OTU 151	1	1	1	1	0	2	0	0	0	0	0	0	0	0	0	0	6	2	2	2	0	0	0	3	0	0	91	0	1	0	8	0	0	0	2	1	0	1	0	0	3	0	50	0	0	2	3	3	1	3
OTU 152	0	2	5	2	0	0	0	5	2	0	1	2	3	1	5	6	0	9	2	1	0	0	0	0	9	0	0	8	1	0	1	0	0	3	0	4	0	0	0	0	4	2	1	0	4	0	2	0	0	1
OTU 153	0	0	0	0	0	0	0	0	0	0	0	0	0	0	0	0	0	0	0	0	0	0	0	0	0	0	0	0	0	0	0	0	3	2	0	0	0	1	0	0	0	0	0	0	0	0	0	0	0	0
OTU 154	0	0	0	0	1	0	0	0	0	0	0	0	0	0	0	0	0	0	0	0	0	0	0	0	0	0	0	1	0	0	2	0	0	0	1	0	0	0	0	0	0	1	0	0	2	0	0	0	0	0
OTU 155	0	0	0	41	0	3	0	4	0	0	0	6	1	2	0	1	0	0	0	0	0	0	1	0	0	0	0	3	1	0	0	48	1	1	0	5	0	0	1	2	0	4	0	1	0	1	4	8	0	3
OTU 156	0	2	1	3	0	0	0	2	2	0	2	0	1	0	0	0	7	0	0	61	2	2	0	0	0	0	1	0	0	1	3	3	0	0	0	5	2	4	0	0	1	0	0	1	0	2	1	2	0	0
OTU 157	1	0	0	0	0	0	0	0	0	0	0	0	0	6	0	0	0	3	0	7	0	0	0	0	0	0	0	0	0	0	0	2	3	0	0	0	0	0	0	0	0	1	0	0	0	0	0	0	1	0
OTU 158	0	0	0	0	0	0	0	0	0	0	0	0	0	1	0	0	0	0	0	0	0	0	0	0	0	0	0	0	0	0	1	0	0	0	0	0	0	0	0	0	0	0	0	0	0	0	0	0	0	0
OTU 159	6	1	0	0	0	0	0	0	0	1	4	1	0	56	0	0	3	0	0	0	0	1	0	0	5	0	0	0	4	3	0	1	0	0	1	1	0	0	0	1	6	0	0	1	0	0	1	0	0	0
OTU 160	7	10	2	6	3	8	4	3	12	0	4	1	1	2	1	1	0	4	5	5	1	6	4	3	5	0	3	2	2	1	1	10	2	0	6	3	6	6	2	1	5	1	0	5	4	9	3	4	2	1
OTU 161	1	1	1	0	1	0	0	0	4	0	0	13	0	0	1	0	5	3	3	0	0	0	0	44	0	1	4	0	0	0	1	1	0	1	1	0	0	1	0	0	0	0	0	0	0	16	1	0	0	0
OTU 162	0	6	0	6	0	0	4	0	0	18	2	1	0	0	1	3	0	0	0	0	2	0	0	0	1	4	1	1	1	0	2	0	0	0	0	5	2	1	3	2	0	2	1	1	6	1	0	1	2	0
OTU 163	0	0	0	0	0	0	0	0	0	0	0	0	0	0	0	0	0	0	0	0	0	0	0	0	0	0	0	0	0	0	0	0	0	0	0	0	0	0	0	0	0	0	0	0	0	0	0	0	0	0
OTU 164	0	0	0	0	0	0	0	2	0	0	0	0	0	0	0	0	0	0	0	0	0	0	0	0	0	0	0	0	0	0	0	0	1	0	0	0	0	0	0	0	0	0	0	0	0	0	0	0	0	3
OTU 165	0	1	0	0	0	2	0	0	2	2	1	0	0	0	0	0	0	1	6	1	0	2	0	0	2	0	0	0	0	0	0	1	0	0	4	0	0	0	1	3	0	8	1	0	4	0	0	7	0	0
OTU 166	0	0	0	0	0	0	0	0	0	0	0	0	0	0	0	0	0	0	0	0	0	0	0	0	0	0	0	0	0	1	0	3	0	0	0	0	0	0	0	0	0	0	0	0	0	0	0	0	0	0
OTU 167	2	1	3	0	0	0	1	8	7	0	0	4	0	0	2	5	0	2	0	3	3	0	0	0	4	0	9	6	5	2	0	1	1	8	0	0	0	0	6	0	1	1	0	0	0	5	0	0	0	3
OTU 168	0	0	0	4	0	2	7	3	0	0	1	0	0	2	0	0	2	0	0	0	2	0	0	0	0	0	0	2	0	2	0	1	0	0	1	0	0	0	0	0	0	1	0	8	1	1	0	2	0	1
OTU 169	0	0	0	0	0	0	0	0	0	0	0	0	0	0	0	0	0	0	0	0	0	0	0	0	0	0	0	0	0	0	0	0	0	0	1	0	0	0	0	0	0	0	0	0	0	0	0	0	0	0
OTU 170	0	0	0	0	0	0	0	0	0	0	0	4	0	0	0	2	0	1	0	0	0	0	0	0	0	0	0	0	0	0	0	0	0	0	0	0	0	0	0	0	0	0	0	0	0	0	0	0	0	0
OTU 171	0	0	1	0	15	32	0	0	3	0	3	2	0	0	0	2	0	0	0	6	0	2	18	16	0	0	0	1	0	1	0	0	22	3	33	0	1	5	0	1	0	0	0	2	1	2	0	0	1	0
OTU 172	0	0	0	0	0	0	0	4	0	0	0	1	0	0	0	0	0	0	0	0	0	0	0	0	0	0	0	7	0	0	0	0	0	0	0	0	0	0	0	0	0	0	0	0	0	0	0	0	0	0
OTU 173	0	0	0	0	0	1	0	0	7	0	0	1	0	0	0	0	0	0	0	0	0	0	1	0	0	0	0	0	0	0	0	0	0	0	4	0	0	0	0	3	0	7	3	0	0	0	0	0	1	0
OTU 174	1	2	0	2	0	0	0	0	0	2	2	0	2	1	0	2	0	0	1	0	0	3	0	0	0	0	1	0	0	0	0	13	0	5	0	2	0	0	0	0	0	0	0	2	0	0	2	1	8	0
OTU 175	0	1	2	0	0	0	0	2	0	1	1	0	0	1	0	0	5	0	0	0	0	1	0	1	0	2	0	0	0	2	0	0	1	0	1	0	2	1	4	0	0	0	0	0	0	2	0	3	0	1
OTU 176	0	0	1	0	0	0	0	0	1	3	4	0	2	0	0	1	7	0	2	2	1	0	0	0	3	0	2	0	1	3	43	5	0	0	0	5	2	0	2	2	3	5	0	0	0	2	0	1	1	0
OTU 177	0	12	1	0	13	0	0	0	2	2	0	1	0	0	0	0	1	2	0	2	2	0	3	1	0	0	0	0	15	2	1	0	2	1	21	0	2	4	2	1	1	2	2	1	0	4	0	0	2	0
OTU 178	0	0	0	7	0	0	0	1	0	0	0	0	0	0	0	5	2	0	0	1	3	0	3	2	0	0	1	0	3	4	0	3	0	0	0	0	0	1	1	0	1	2	0	5	0	0	1	0	0	0
OTU 179	3	0	0	2	1	1	1	14	5	0	1	0	0	0	0	4	2	1	0	0	0	0	0	0	0	1	1	6	0	1	2	2	0	1	0	0	0	0	0	2	0	0	2	0	0	2	2	0	1	6
OTU 180	2	1	7	8	38	0	15	7	16	3	2	8	3	1	0	5	17	1	22	22	3	4	2	1	0	1	3	1	3	4	1	4	1	5	2	0	99	85	6	7	2	5	3	1	21	9	2	2	1	1
OTU 181	0	1	3	3	0	0	1	1	1	8	0	0	0	1	2	0	0	0	2	0	2	0	1	0	2	4	0	0	1	3	0	0	5	1	2	0	1	0	0	16	3	5	3	0	2	0	0	0	6	0
OTU 182	0	0	0	0	0	0	0	0	0	0	0	0	0	0	0	0	0	0	0	0	0	0	0	0	0	0	0	0	0	0	0	0	0	0	0	0	0	0	0	0	0	0	0	0	0	0	0	0	0	0
OTU 183	1	0	0	0	0	0	0	0	0	0	1	4	0	0	0	15	0	0	0	0	1	0	5	2	8	6	2	0	3	0	0	0	12	7	0	0	0	0	0	0	0	0	0	0	0	0	0	0	0	0
OTU 184	0	0	0	0	0	0	1	0	0	0	0	2	0	0	0	1	0	0	0	2	0	0	1	0	0	0	0	0	0	0	5	6	0	0	0	3	0	0	0	0	0	0	0	0	1	0	0	0	0	0
OTU 185	2	0	3	1	1	1	0	2	1	0	0	0	1	0	1	1	2	3	1	2	2	5	0	0	5	0	0	0	0	1	3	2	0	0	3	2	0	3	0	0	2	0	0	5	2	3	2	1	0	4
OTU 186	0	0	0	0	0	0	0	0	0	0	0	0	11	0	0	1	0	0	2	0	0	0	0	0	12	1	0	4	6	0	3	2	1	1	0	1	0	0	0	0	20	0	1	2	0	0	0	1	1	1
OTU 187	0	72	1	4	0	0	15	4	2	12	7	0	67	0	0	4	3	1	2	5	1	1	18	0	0	2	0	0	0	1	4	0	1	3	1	74	29	1	5	34	1	0	9	0	5	0	0	0	1	2
OTU 188	2	0	0	5	0	0	1	1	12	0	3	0	0	0	0	0	4	2	0	0	0	7	2	0	0	1	0	0	0	4	1	10	0	1	0	1	0	0	2	0	2	0	1	0	5	7	1	0	1	1
OTU 189	0	0	1	0	2	2	3	4	4	1	0	6	0	0	4	0	3	3	38	0	1	0	11	7	5	1	0	7	1	0	0	2	3	1	1	3	0	11	2	1	6	1	1	1	2	1	0	1	0	1
OTU 190	0	0	0	1	0	0	0	0	0	0	0	0	0	4	0	0	0	5	0	0	0	0	0	0	0	0	0	0	1	1	0	0	0	0	0	0	0	1	0	0	0	0	0	0	0	0	0	0	0	0
OTU 191	2	0	0	3	0	0	2	0	1	12	9	1	0	3	0	1	1	2	13	1	0	3	2	1	1	2	0	0	0	0	0	9	0	0	0	2	1	0	0	16	2	21	9	0	3	0	3	2	0	0
OTU 192	12	4	0	1	3	3	0	15	1	2	1	4	0	7	0	1	8	4	0	4	0	0	0	0	19	7	1	10	5	1	2	4	3	0	0	0	2	0	0	1	14	5	2	10	1	3	0	0	3	7
OTU 193	3	1	0	0	0	0	1	3	0	0	0	1	0	4	1	2	22	6	0	0	4	0	0	0	0	1	0	12	0	4	1	0	1	1	0	0	1	52	2	0	0	4	1	0	1	0	0	0	0	0
OTU 194	1	5	0	0	2	0	0	3	0	0	0	0	0	0	0	7	0	0	3	0	0	1	0	0	0	0	0	3	0	1	8	0	0	0	1	0	0	0	1	1	4	0	0	0	63	0	0	0	0	1
OTU 195	0	0	0	0	0	3	0	3	0	4	0	0	0	4	0	1	2	0	2	0	0	6	0	0	0	0	1	0	2	2	3	4	0	1	0	0	0	0	2	0	0	0	2	0	0	4	0	1	3	3
OTU 196	0	0	0	0	4	0	0	1	1	1	4	0	1	0	0	0	0	0	3	0	0	2	0	0	2	0	0	3	0	0	3	1	0	2	2	0	0	2	45	1	2	0	0	0	0	0	0	19	0	1
OTU 197	5	16	7	10	18	3	3	1	0	0	3	1	4	2	3	7	14	8	5	0	5	0	21	18	11	4	1	0	0	12	2	1	8	1	24	8	2	12	9	3	0	3	4	1	10	0	5	2	0	1
OTU 198	2	0	1	0	0	0	0	0	2	0	0	0	0	3	0	2	0	1	0	0	1	0	0	1	0	0	0	0	0	1	0	3	0	0	0	0	0	0	0	0	0	0	0	0	0	0	1	0	0	0
OTU 199	0	0	0	0	0	3	0	0	0	0	1	0	1	0	1	7	1	3	0	0	0	4	0	0	6	0	0	0	1	1	1	0	0	1	0	0	1	0	1	0	0	0	0	0	0	0	0	0	1	0
OTU 200	6	0	0	0	7	0	0	0	0	3	1	0	0	1	0	0	0	1	2	1	1	3	1	3	0	0	2	0	0	0	0	0	1	0	7	0	0	1	3	2	3	0	3	0	3	1	0	2	0	0
