	Host 1	Host 2	Host 3	Host 4	Host 5	Host 6	Host 7	Host 8	Host 9	Host 10	Host 11	Host 12	Host 13	Host 14	Host 15	Host 16	Host 17	Host 18	Host 19	Host 20	Host 21	Host 22	Host 23	Host 24	Host 25	Host 26	Host 27	Host 28	Host 29	Host 30	Host 31	Host 32	Host 33	Host 34	Host 35	Host 36	Host 37	Host 38	Host 39	Host 40	Host 41	Host 42	Host 43	Host 44	Host 45	Host 46	Host 47	Host 48	Host 49	Host 50	
OTU 1	1	6	1	1	1	2	1	10	3	2	1	2	0	5	7	0	0	0	4	1	0	11	0	0	0	1	7	0	0	0	1	0	0	1	2	2	2	2	2	1	2	1	6	0	0	1	4	0	0	1
OTU 2	0	0	0	0	0	1	0	0	2	3	0	2	0	0	0	0	0	3	0	0	1	0	0	0	0	0	0	0	0	0	3	0	0	0	0	0	0	0	0	0	2	0	0	0	0	0	0	1	0	0
OTU 3	0	0	0	0	2	0	0	2	2	0	0	2	0	0	1	0	0	3	3	0	0	0	0	0	2	0	0	1	0	0	0	0	1	0	0	6	0	1	0	2	0	0	0	0	0	0	0	0	0	5
OTU 4	0	0	0	0	0	0	0	0	0	0	0	0	0	0	0	0	0	0	0	0	0	0	0	0	0	0	0	0	0	0	0	0	0	0	0	0	0	0	0	0	0	0	0	0	0	0	0	0	0	0
OTU 5	8	1	27	12	3	10	0	25	0	13	6	39	19	11	1	4	29	4	28	5	11	13	0	15	21	0	21	2	9	1	3	7	0	3	1	6	2	0	22	11	20	6	13	0	13	31	10	1	36	0
OTU 6	0	0	0	0	0	2	2	0	1	0	0	4	0	1	3	2	0	0	1	0	2	2	0	0	1	4	0	0	5	0	0	0	0	0	1	0	1	0	0	0	0	0	0	0	0	0	0	0	3	0
OTU 7	3	1	1	4	4	1	0	3	2	1	9	5	1	2	1	4	14	7	7	4	1	4	7	10	0	1	1	2	6	4	0	0	7	0	2	21	1	2	24	3	0	7	34	0	2	0	1	37	0	9
OTU 8	3	1	0	1	2	1	15	3	4	1	2	0	1	1	6	1	1	0	2	3	2	0	4	2	3	2	1	0	4	0	7	3	8	1	0	4	1	2	0	3	0	1	2	1	11	2	0	5	4	17
OTU 9	0	1	0	0	1	0	0	0	0	0	0	4	0	0	0	0	0	0	0	0	0	0	0	1	0	0	1	0	0	3	2	4	1	0	1	0	0	1	1	0	0	1	1	0	0	2	0	2	1	0
OTU 10	0	0	0	1	1	0	0	0	0	1	0	0	0	0	2	1	0	0	0	0	0	0	6	0	0	1	0	0	4	0	0	1	0	0	0	0	0	0	0	0	2	0	2	0	1	0	0	4	0	1
OTU 11	3	2	0	0	0	0	6	1	3	0	2	5	0	2	0	0	0	4	0	0	0	1	1	0	0	0	0	0	1	9	1	4	0	0	0	0	2	7	0	0	0	1	0	0	5	83	0	10	3	56
OTU 12	15	0	4	1	9	0	5	3	0	6	0	2	3	2	0	2	0	4	2	0	1	5	0	1	3	4	1	0	1	4	0	2	0	1	0	1	3	2	0	0	1	0	0	0	1	0	1	0	0	2
OTU 13	0	0	0	0	0	0	0	0	0	0	1	0	0	0	0	0	0	0	0	0	0	0	0	0	0	0	0	0	0	0	0	0	0	0	0	0	0	0	0	0	0	0	0	0	0	0	0	1	0	0
OTU 14	0	0	2	0	0	0	0	1	1	0	0	0	0	2	0	1	0	0	3	0	2	0	3	2	0	1	1	1	2	0	0	0	1	0	0	0	1	0	1	0	0	1	1	1	0	0	0	0	1	0
OTU 15	0	0	0	0	0	0	0	0	0	0	0	0	0	1	0	0	0	0	0	0	3	0	0	0	0	0	0	0	0	0	0	0	0	0	0	2	0	0	0	1	0	0	0	2	0	0	0	0	0	0
OTU 16	0	0	0	0	0	4	0	0	0	0	2	0	0	0	0	0	0	0	0	0	0	0	0	0	0	0	0	0	0	0	0	0	0	0	0	0	0	0	0	0	0	0	0	0	0	0	0	0	0	0
OTU 17	0	0	1	1	0	22	1	3	0	0	1	0	6	1	3	0	5	0	0	3	0	0	0	0	8	1	12	2	0	0	0	0	0	0	13	0	3	0	2	3	0	0	5	0	15	0	1	0	0	0
OTU 18	1	0	0	0	1	1	2	5	4	2	1	1	1	4	1	1	0	1	1	0	0	0	3	0	2	92	0	0	5	0	0	0	0	4	1	1	0	12	0	0	3	0	1	9	3	1	2	0	0	1
OTU 19	0	0	0	0	0	0	0	0	0	0	0	1	0	0	0	0	0	0	0	0	0	0	0	0	0	0	0	0	0	0	0	0	0	0	0	0	0	0	0	0	0	0	0	0	0	0	0	0	0	0
OTU 20	0	0	0	0	0	0	0	4	3	1	0	4	1	0	0	5	3	5	1	0	0	1	5	1	1	0	0	0	0	1	0	2	0	1	1	0	0	0	1	4	0	1	1	9	1	1	1	28	0	0
OTU 21	0	3	2	0	0	0	2	3	0	0	0	7	2	0	1	0	1	0	0	0	0	0	7	0	0	0	3	4	2	0	2	2	3	0	3	0	2	1	0	0	0	3	0	0	0	0	0	0	2	5
OTU 22	2	0	0	1	0	0	1	1	4	2	0	1	3	0	3	3	1	2	0	0	0	1	0	0	2	3	3	0	0	1	0	1	2	0	5	0	2	0	1	0	0	1	1	0	2	0	0	0	0	3
OTU 23	0	0	0	0	1	0	0	0	1	0	0	1	0	0	2	0	1	0	0	0	0	0	0	0	0	1	0	2	0	1	0	0	1	1	0	0	1	0	0	0	0	0	1	3	0	0	0	3	1	1
OTU 24	1	0	3	4	1	1	0	0	0	0	0	12	1	0	2	0	0	3	0	1	0	0	3	0	0	0	0	0	0	13	0	1	0	0	1	1	1	3	7	0	0	0	0	6	0	0	0	0	0	0
OTU 25	0	31	0	0	0	1	0	0	0	0	0	0	0	0	0	0	0	3	0	0	0	0	0	0	0	0	0	0	0	0	0	0	0	0	0	0	0	0	0	0	0	0	0	0	0	22	0	0	0	0
OTU 26	0	0	0	1	0	0	0	0	0	0	0	0	0	0	0	1	0	0	0	0	0	0	0	0	0	0	0	0	0	0	0	0	4	0	0	0	0	0	0	6	0	0	0	0	0	0	0	0	0	0
OTU 27	0	0	0	0	0	0	0	0	0	0	0	0	0	0	0	0	0	0	0	0	0	0	0	0	0	0	0	0	0	0	0	0	0	0	0	0	0	0	0	0	0	0	0	0	0	0	0	0	0	0
OTU 28	7	0	2	1	5	1	0	0	5	1	1	2	5	3	11	2	1	0	1	0	3	4	7	0	0	1	2	0	4	3	0	3	8	0	4	116	6	1	1	1	2	1	0	0	2	1	0	0	0	2
OTU 29	2	0	0	0	2	1	3	0	0	0	0	0	20	0	5	12	0	5	5	1	2	2	0	0	0	0	0	0	8	1	0	0	0	0	5	0	0	1	0	0	2	2	0	0	0	4	1	0	0	2
OTU 30	0	0	0	0	0	0	0	0	0	0	0	0	0	0	0	0	0	0	0	0	0	0	0	0	0	0	0	0	0	0	0	0	0	0	0	0	0	0	0	0	0	0	0	0	0	0	0	0	0	0
OTU 31	0	1	0	2	0	0	0	9	8	0	0	0	3	0	0	0	0	4	0	0	0	2	0	0	0	0	1	0	0	0	1	11	0	0	0	0	0	0	0	1	0	0	0	0	0	0	4	0	1	1
OTU 32	1	3	1	1	29	5	0	2	0	0	0	1	2	0	1	2	5	3	0	0	1	4	2	1	1	0	2	3	6	3	5	1	0	19	1	2	0	4	0	0	1	1	0	2	0	1	1	6	7	20
OTU 33	0	0	0	0	0	0	0	0	0	0	0	0	0	0	0	0	0	0	0	0	0	0	0	0	0	0	0	0	2	0	1	0	0	0	0	0	0	0	1	0	0	0	0	0	0	0	0	0	0	0
OTU 34	9	9	2	1	2	2	8	1	0	89	0	0	7	1	1	0	1	1	0	2	4	0	2	26	1	1	2	1	4	1	0	2	0	0	0	3	1	0	31	1	8	0	74	2	1	4	0	2	7	1
OTU 35	2	0	0	0	0	0	0	0	0	0	0	2	2	0	1	1	0	0	0	1	0	0	2	1	0	0	0	2	6	1	2	0	4	2	0	0	3	0	1	0	7	0	0	0	2	0	0	0	0	0
OTU 36	0	0	0	0	3	0	1	0	0	0	2	0	3	0	0	0	4	0	2	0	2	0	0	20	0	0	0	1	3	0	1	0	1	4	2	3	1	0	28	5	3	0	61	4	0	0	0	4	1	0
OTU 37	0	0	0	0	0	0	0	1	4	0	0	0	1	0	0	0	0	1	2	0	0	0	3	0	0	0	1	0	0	0	0	0	0	0	0	0	0	1	0	4	0	3	0	0	0	0	0	0	0	0
OTU 38	3	3	2	0	0	2	0	1	9	0	0	2	1	0	0	0	0	0	0	0	1	0	7	1	1	0	1	0	1	0	4	11	5	1	2	1	4	0	1	0	1	1	0	0	1	0	2	0	0	5
OTU 39	0	0	0	0	0	0	0	0	0	25	0	0	0	0	0	0	0	0	0	0	0	0	0	0	0	0	2	0	1	0	0	0	0	0	0	0	0	0	0	0	0	0	0	8	0	0	0	0	0	0
OTU 40	22	0	0	0	24	0	3	0	0	2	0	1	0	3	3	0	0	5	7	0	0	0	0	3	0	1	0	4	0	0	0	0	16	7	1	0	0	3	1	0	0	0	2	1	0	1	0	0	6	0
OTU 41	0	0	0	0	1	0	2	2	0	1	2	2	1	1	0	1	0	0	2	0	3	0	0	0	0	0	0	3	1	0	0	2	2	0	0	0	4	4	0	0	3	0	0	2	0	0	0	1	2	1
OTU 42	1	1	0	0	0	0	0	0	0	0	0	0	0	0	3	0	0	1	0	0	5	1	1	0	0	0	0	0	1	0	0	0	5	0	4	0	0	0	0	0	2	1	0	0	0	0	0	1	0	1
OTU 43	0	0	0	0	0	0	0	0	0	0	0	0	0	0	0	0	0	0	0	0	0	0	0	0	0	0	0	0	0	0	0	0	0	0	1	0	0	0	0	0	0	0	0	0	0	0	0	0	0	0
OTU 44	0	0	1	0	1	0	0	0	0	0	0	1	0	2	6	0	0	0	0	0	0	0	0	0	0	0	0	0	0	0	0	0	2	0	0	0	6	0	0	0	0	1	0	1	0	0	2	0	0	0
OTU 45	25	9	13	0	14	0	1	0	1	0	1	5	3	15	33	0	5	5	2	2	0	1	0	0	1	2	0	4	1	2	15	1	1	160	1	0	15	2	1	0	0	2	2	1	1	0	0	1	76	0
OTU 46	1	2	1	0	0	0	1	7	0	16	0	1	0	1	3	1	0	3	1	0	2	3	1	1	0	1	0	48	0	1	58	2	0	1	1	3	0	0	6	1	1	4	1	0	2	0	3	0	0	2
OTU 47	4	0	0	0	0	0	0	0	0	0	0	0	0	0	0	7	3	0	0	0	0	0	0	0	0	1	0	0	2	0	1	0	1	0	0	0	0	0	0	1	0	0	0	0	0	0	0	0	0	0
OTU 48	0	0	8	1	0	1	52	1	3	1	0	0	2	4	7	1	1	1	0	5	1	0	0	4	0	0	1	0	0	1	1	1	0	4	0	0	4	6	2	0	1	3	4	30	1	0	1	2	6	1
OTU 49	0	1	0	0	0	0	0	0	0	0	0	0	1	0	0	0	0	0	2	0	0	0	0	0	0	0	0	1	2	0	4	0	0	0	0	0	2	0	0	1	0	0	0	0	0	0	0	0	0	0
OTU 50	1	3	2	1	4	0	1	8	0	0	0	0	7	0	2	3	3	2	3	1	0	3	1	0	2	0	3	0	0	0	3	2	0	2	1	0	4	2	2	6	0	3	0	0	0	3	1	1	1	0
OTU 51	1	2	0	0	0	0	0	2	1	0	1	1	0	0	1	13	0	2	0	0	3	3	5	2	1	0	1	0	2	4	1	0	0	0	0	2	1	2	0	2	0	1	0	0	0	0	0	1	0	4
OTU 52	1	1	2	2	4	1	1	0	2	0	0	19	2	1	13	7	1	2	8	1	2	1	1	0	2	2	3	3	2	9	2	2	4	4	5	2	4	16	2	0	4	0	0	2	1	1	0	6	2	4
OTU 53	0	0	0	0	0	1	0	0	0	0	0	0	0	0	0	0	0	0	0	0	0	0	0	0	0	0	0	0	0	0	0	0	0	0	0	0	0	0	0	0	0	0	0	0	0	0	0	0	0	0
OTU 54	9	3	1	2	3	3	3	2	1	0	3	15	3	2	5	4	3	3	0	0	0	2	2	5	1	2	1	8	0	5	17	0	0	0	1	2	2	6	0	2	1	0	2	2	3	2	1	4	0	0
OTU 55	0	0	0	0	0	0	0	0	0	0	0	0	1	0	1	0	0	0	0	0	0	0	0	0	0	0	0	0	0	0	0	0	0	0	0	0	0	0	0	0	0	0	0	0	0	0	0	0	0	0
OTU 56	0	0	0	0	0	0	2	3	3	0	0	3	1	0	0	0	0	1	0	0	1	0	1	0	0	0	0	0	1	0	1	5	2	0	0	0	0	1	0	0	2	0	2	0	0	0	0	0	0	0
OTU 57	3	3	2	1	7	5	1	10	2	18	14	9	10	0	0	4	3	2	1	8	5	16	2	4	1	1	8	7	6	2	4	4	0	3	22	16	4	3	2	12	0	6	3	9	2	0	10	6	1	0
OTU 58	0	0	2	0	0	2	0	1	2	0	0	0	1	3	6	0	0	1	5	0	1	1	0	6	2	2	0	0	3	1	0	0	0	0	0	5	0	0	1	0	0	0	4	6	0	0	1	0	0	0
OTU 59	1	0	0	0	0	3	1	4	0	1	0	0	0	1	2	2	4	0	2	0	6	0	7	4	3	1	0	1	0	1	0	0	0	0	2	0	0	11	1	1	0	0	3	0	2	0	0	0	0	0
OTU 60	3	0	0	0	1	1	5	4	0	11	0	11	1	0	4	2	0	0	0	1	0	14	0	4	0	0	2	0	4	0	6	0	3	0	3	1	0	0	0	6	3	6	1	8	3	0	3	0	0	1
OTU 61	7	7	4	2	0	3	2	1	1	1	0	1	0	4	10	1	2	1	0	0	2	3	0	2	2	0	5	6	8	10	1	1	5	4	0	3	6	21	51	0	5	2	0	3	2	2	123	12	0	0
OTU 62	0	0	0	0	4	4	0	0	4	2	0	0	1	0	0	2	0	0	0	0	0	2	0	0	1	0	0	0	0	0	0	0	0	2	0	3	0	0	0	0	0	0	0	0	1	0	0	0	0	4
OTU 63	1	0	2	0	1	0	1	0	1	0	1	0	0	0	0	0	0	0	0	0	0	0	95	0	0	3	0	0	1	0	0	45	7	0	0	0	0	0	0	1	0	0	1	0	0	0	0	0	0	3
OTU 64	5	4	0	1	1	5	14	0	3	2	115	0	0	2	4	11	3	3	2	1	2	1	9	0	4	3	0	1	1	6	1	10	17	0	2	14	8	9	1	0	4	2	1	1	5	2	1	2	0	7
OTU 65	0	0	0	0	0	0	0	0	1	0	0	0	0	0	0	3	0	0	0	0	0	0	0	0	0	0	0	0	0	0	0	0	0	0	0	0	0	0	0	0	0	0	0	0	3	0	0	0	0	0
OTU 66	6	0	0	1	0	3	3	2	59	0	0	0	1	0	0	2	55	8	1	0	3	0	20	2	1	2	6	2	8	3	0	8	1	0	0	0	4	1	0	2	6	0	3	3	3	0	0	2	0	0
OTU 67	0	1	3	3	3	62	3	6	3	0	0	1	0	2	0	5	0	0	3	1	0	0	0	0	20	0	0	1	0	6	7	0	1	0	1	0	0	0	1	0	0	1	0	5	16	0	0	0	0	0
OTU 68	1	1	0	8	8	7	1	5	0	0	5	0	0	0	0	0	6	0	0	7	0	0	0	3	3	0	17	0	0	0	1	0	0	1	0	4	0	0	2	15	0	0	4	0	2	0	2	0	1	0
OTU 69	1	0	3	0	1	3	3	2	0	3	3	2	3	1	2	0	0	6	1	2	131	3	0	1	1	0	3	4	0	5	0	0	6	2	7	0	1	13	0	0	0	0	2	9	0	19	2	3	0	1
OTU 70	2	1	0	0	1	0	1	4	0	0	8	0	2	0	1	0	1	2	0	0	0	3	0	0	0	0	0	1	1	2	1	0	0	0	1	3	0	10	1	0	0	2	0	0	0	2	1	0	0	2
OTU 71	1	0	0	4	27	0	0	1	1	0	1	0	0	0	0	1	0	0	0	0	0	0	2	1	0	0	0	0	0	2	0	1	1	16	0	0	0	1	0	1	0	0	0	0	0	0	0	1	2	4
OTU 72	2	2	0	2	3	0	3	1	0	0	0	0	0	2	5	0	0	1	0	0	1	0	7	0	51	4	4	1	0	0	2	2	4	4	1	3	4	10	0	1	0	1	0	3	0	0	2	3	0	2
OTU 73	0	0	0	1	0	0	0	2	6	0	0	0	2	2	2	1	1	1	0	0	0	0	0	0	0	0	0	0	2	5	1	0	0	0	2	4	0	0	0	0	11	0	0	3	0	0	1	1	0	0
OTU 74	2	0	0	0	4	2	0	0	0	0	2	1	3	0	0	3	2	0	0	0	0	5	2	0	2	0	1	0	2	1	0	1	2	0	2	0	0	0	1	0	1	1	1	0	2	0	0	3	0	4
OTU 75	0	1	1	3	1	5	1	6	0	9	1	3	3	1	0	2	8	0	1	42	3	21	0	5	0	0	18	3	5	0	0	2	1	0	8	3	0	0	1	2	6	9	0	0	0	0	8	2	0	1
OTU 76	0	0	0	0	0	0	0	1	0	0	0	0	0	0	0	0	0	0	0	1	0	2	0	0	0	0	0	0	0	1	0	1	0	0	1	1	0	0	0	0	0	0	0	1	0	0	0	5	0	0
OTU 77	1	0	0	3	0	1	39	5	1	3	0	0	1	0	0	0	0	0	0	13	3	9	2	4	1	0	1	48	2	1	0	3	0	0	0	1	0	0	0	0	0	20	0	3	0	0	2	3	0	6
OTU 78	6	0	0	1	9	0	6	3	0	0	0	2	1	0	0	10	0	2	1	41	3	2	0	0	0	1	0	0	28	1	3	3	6	4	0	0	0	1	0	4	11	0	1	1	0	2	0	1	92	3
OTU 79	2	0	6	28	6	1	5	12	0	2	73	10	6	9	19	6	4	5	3	32	2	14	3	1	45	3	19	4	2	3	8	4	2	7	55	66	4	2	3	50	4	5	4	18	0	5	5	7	1	7
OTU 80	5	1	1	1	0	0	3	0	0	0	0	0	3	9	3	5	0	4	0	5	2	0	6	0	0	1	2	21	0	0	57	2	7	0	1	3	4	0	1	6	0	0	1	5	0	0	0	0	0	0
OTU 81	2	1	0	4	3	0	3	2	1	1	0	0	0	1	1	0	1	4	1	1	5	1	0	0	0	1	0	13	3	0	48	6	0	0	0	1	5	1	1	1	7	3	2	0	0	1	3	2	0	1
OTU 82	1	0	2	0	0	0	0	2	0	0	0	3	1	82	1	6	1	2	2	0	0	0	0	0	0	0	0	0	0	1	1	0	0	0	0	3	2	8	1	0	1	0	1	1	0	0	1	0	17	3
OTU 83	0	0	0	1	0	0	0	0	0	0	0	0	0	0	0	0	2	0	0	0	0	7	0	0	0	0	0	0	2	0	0	0	4	0	0	0	0	0	0	0	2	3	0	0	0	0	0	9	0	0
OTU 84	0	1	0	0	1	2	1	0	0	2	0	8	0	0	1	0	2	0	1	0	2	2	7	0	0	2	0	17	0	2	13	1	3	0	0	0	0	10	0	0	0	0	0	0	0	0	0	0	0	0
OTU 85	0	0	0	87	0	0	0	0	0	0	0	0	0	0	3	1	0	0	0	0	0	0	0	0	0	0	8	7	0	4	0	0	0	0	0	0	0	0	0	1	0	0	2	1	0	1	0	1	0	0
OTU 86	0	0	0	0	0	0	0	0	0	2	0	0	0	0	0	0	0	0	0	0	0	0	0	0	0	0	0	0	0	3	0	0	0	0	0	0	0	0	0	0	0	0	0	0	0	0	0	0	0	0
OTU 87	14	2	0	3	0	0	3	0	0	0	0	0	2	0	0	0	0	7	0	0	0	0	0	0	0	0	0	0	0	0	1	0	0	0	2	0	0	0	1	0	0	0	0	0	0	1	0	0	0	4
OTU 88	0	0	0	0	1	0	0	3	0	0	0	0	0	0	0	0	0	0	0	0	3	0	0	0	0	0	0	0	8	1	1	0	0	0	0	0	0	0	0	0	8	0	0	0	0	0	0	0	0	1
OTU 89	30	4	1	2	4	1	1	0	1	1	4	0	0	0	1	2	0	12	0	3	1	0	1	0	0	0	0	0	0	1	0	0	0	0	0	3	2	0	0	3	1	0	0	1	0	2	2	3	3	2
OTU 90	0	0	0	0	0	0	0	0	0	0	0	0	1	0	0	1	0	0	0	0	19	0	1	0	0	0	0	0	0	0	0	0	0	0	0	1	0	0	0	0	0	0	0	0	0	0	0	0	0	0
OTU 91	0	0	0	0	0	0	0	0	0	0	0	0	0	0	0	0	0	0	1	0	0	0	1	0	0	0	1	0	0	0	0	0	0	0	0	0	0	0	0	0	0	0	0	0	1	0	0	0	0	8
OTU 92	0	0	0	0	0	0	0	0	1	0	0	0	0	0	0	0	0	0	0	0	0	0	0	2	0	0	1	0	0	2	0	0	0	0	0	0	0	0	0	0	0	0	0	3	0	0	0	0	0	0
OTU 93	0	0	0	0	0	0	0	0	0	0	1	0	0	0	0	0	0	0	0	0	1	0	0	0	0	0	0	0	8	0	0	0	0	0	0	2	0	0	0	2	3	0	0	0	0	0	0	0	0	0
OTU 94	0	0	0	0	0	1	4	8	5	0	0	0	2	1	0	7	1	1	0	0	0	0	1	1	0	0	1	0	1	3	0	1	0	4	0	2	3	1	80	4	0	1	2	3	0	0	0	1	3	1
OTU 95	4	0	0	0	0	0	0	30	0	0	0	0	34	0	1	0	0	0	0	0	0	0	0	0	0	0	3	0	0	0	0	0	1	1	2	0	0	0	0	1	0	0	0	0	0	0	24	0	0	0
OTU 96	0	0	0	0	0	0	2	0	0	0	0	0	1	0	0	0	3	0	0	0	0	0	0	1	0	1	0	0	0	0	0	0	8	2	0	0	0	0	1	0	0	0	4	0	0	0	0	0	0	0
OTU 97	0	0	0	0	0	0	0	0	0	0	0	0	0	0	0	2	0	0	0	0	0	0	0	0	0	0	0	0	0	0	0	3	0	2	1	0	1	0	0	0	0	0	0	0	0	0	0	1	0	0
OTU 98	0	0	0	0	1	4	0	0	3	2	0	0	0	0	0	0	2	0	0	0	0	0	0	4	1	0	1	0	0	5	0	0	0	0	0	0	1	0	0	0	1	0	0	0	0	0	0	0	0	0
OTU 99	2	2	1	0	0	1	1	4	0	6	0	3	5	5	7	0	0	1	0	0	1	4	1	0	3	1	96	3	0	8	0	0	1	3	0	4	0	6	0	0	1	1	1	1	0	0	0	1	0	3
OTU 100	1	0	0	0	0	2	2	3	2	0	0	0	0	0	0	0	0	0	1	0	0	1	0	1	0	1	0	4	3	1	0	5	2	0	2	0	1	0	0	1	2	1	1	1	0	0	5	0	0	0
OTU 101	0	0	0	3	0	0	0	0	0	0	0	0	0	0	0	0	0	1	0	0	0	0	0	0	0	0	1	0	1	0	0	0	0	0	2	0	0	0	0	0	0	0	0	0	0	0	0	0	0	3
OTU 102	0	0	0	0	0	0	0	0	3	0	0	0	0	2	2	0	1	0	0	0	0	0	0	0	0	0	1	1	1	0	4	1	0	0	0	0	1	2	0	0	0	0	0	0	0	0	1	0	0	1
OTU 103	8	0	0	0	0	0	0	0	0	0	0	0	2	0	0	0	0	1	5	3	1	0	0	0	0	0	0	1	0	5	0	0	0	1	0	0	0	1	0	2	0	146	0	1	0	0	0	1	0	0
OTU 104	2	3	0	5	2	3	9	1	4	2	1	52	2	3	2	5	1	3	6	2	2	0	0	1	88	0	0	3	6	1	2	0	2	0	6	0	0	0	0	0	0	0	2	13	0	1	1	0	0	1
OTU 105	0	0	0	0	0	0	0	0	0	0	0	0	0	0	0	1	0	0	0	0	0	2	0	0	2	0	0	0	0	1	0	0	0	0	0	0	1	0	0	0	6	0	0	0	0	3	0	0	0	2
OTU 106	0	0	0	1	1	0	0	0	0	1	0	0	1	0	0	0	0	0	0	0	0	0	0	1	0	0	1	0	0	0	0	0	8	2	0	0	0	0	2	0	0	0	1	0	0	0	0	0	0	0
OTU 107	0	0	0	0	0	0	0	0	12	0	0	2	0	0	0	0	0	0	1	0	0	4	0	4	0	0	0	0	0	0	0	0	0	0	0	1	0	0	1	0	0	0	2	3	0	0	0	2	0	0
OTU 108	0	2	0	0	0	1	5	2	0	0	10	0	0	0	0	5	14	0	0	0	8	0	0	5	0	1	1	1	3	0	0	0	5	1	0	1	0	0	20	0	1	0	18	4	0	1	0	1	0	0
OTU 109	0	0	0	0	0	0	0	0	0	0	0	0	0	0	0	0	0	0	0	0	0	0	0	0	0	0	0	0	0	0	0	0	0	0	0	0	0	0	0	0	0	0	0	0	0	0	0	0	0	0
OTU 110	1	0	0	0	0	5	0	0	1	3	1	2	2	5	8	1	4	1	0	0	0	9	0	0	2	0	0	0	0	0	4	2	3	0	0	0	0	0	0	0	0	0	0	0	1	0	0	7	0	1
OTU 111	0	0	0	0	0	0	0	0	0	0	0	1	0	0	0	0	0	0	0	0	0	0	0	0	1	0	0	0	0	0	1	0	0	0	0	2	0	2	0	0	0	0	0	0	0	0	0	1	0	0
OTU 112	0	1	0	0	3	0	0	0	0	1	0	0	1	0	1	0	0	3	0	0	2	0	1	0	0	0	0	8	0	3	0	0	0	0	0	0	0	6	0	0	0	0	1	0	0	1	0	1	2	0
OTU 113	0	0	0	1	0	0	0	0	0	0	0	4	0	0	0	0	0	0	0	0	0	0	0	0	0	0	0	0	0	0	0	0	1	0	0	0	0	1	0	2	0	0	0	0	1	0	0	0	0	0
OTU 114	1	0	2	1	0	8	0	0	27	3	0	2	3	0	1	0	75	0	2	1	8	3	6	2	0	1	0	5	4	3	6	9	5	0	0	1	0	0	2	5	5	2	3	3	2	0	1	6	1	0
OTU 115	2	5	1	3	0	1	2	1	0	0	1	4	0	2	4	3	0	6	5	2	3	0	0	0	0	2	5	1	1	4	0	4	3	2	0	3	2	1	0	2	1	0	4	0	0	2	5	3	3	7
OTU 116	3	4	0	0	2	1	4	2	0	2	0	2	0	0	0	5	0	1	3	1	0	0	0	1	1	0	1	10	0	0	1	0	1	1	0	0	0	0	0	0	0	0	0	5	0	0	0	1	0	5
OTU 117	0	0	1	0	1	0	0	0	0	6	0	0	0	5	6	1	1	1	0	2	0	1	0	0	0	0	0	4	1	0	0	2	0	0	1	0	1	1	0	0	2	0	0	2	0	0	0	4	0	1
OTU 118	0	0	1	0	1	0	0	0	0	0	0	5	0	0	0	0	0	0	0	0	0	0	0	0	0	0	0	0	1	11	0	1	1	0	0	0	1	10	0	0	0	0	0	4	0	0	0	2	0	0
OTU 119	2	3	1	0	4	1	0	3	0	1	1	1	0	1	1	1	0	3	0	0	0	2	0	2	1	51	0	1	0	0	0	2	2	0	2	1	1	0	0	0	0	0	0	0	12	1	1	2	0	1
OTU 120	0	1	0	2	6	3	0	0	0	2	2	0	0	1	1	0	0	0	0	3	0	0	1	0	0	0	0	1	0	2	1	1	1	0	3	0	0	3	0	0	0	0	0	3	0	0	0	0	0	2
OTU 121	29	10	1	0	3	0	3	0	11	0	0	1	0	3	4	1	0	19	3	0	1	0	0	0	1	2	0	0	5	0	0	0	3	2	1	0	0	0	0	2	1	0	1	0	3	3	1	0	3	1
OTU 122	0	2	0	0	1	0	13	3	3	1	0	5	1	0	0	2	0	0	5	0	0	5	11	0	1	0	0	0	0	8	3	3	0	1	0	0	0	3	1	0	0	4	0	0	0	0	1	0	0	0
OTU 123	4	2	3	0	53	5	12	3	10	2	1	10	0	2	7	9	5	1	10	1	22	5	16	1	1	5	1	4	34	17	10	12	60	19	6	4	4	13	0	8	14	3	1	50	2	1	2	23	14	5
OTU 124	0	0	0	1	1	0	0	0	0	0	0	0	0	0	1	3	0	0	0	0	5	0	0	2	0	1	0	0	0	0	0	0	0	0	0	0	0	0	4	1	0	0	3	0	0	0	0	0	0	0
OTU 125	13	1	5	56	1	0	3	5	5	4	2	15	110	99	13	6	5	8	9	57	0	7	9	1	2	7	7	0	10	2	1	6	13	1	3	2	19	10	0	105	6	5	1	0	5	5	8	5	0	6
OTU 126	0	0	0	0	3	0	0	1	3	8	0	0	0	2	0	1	0	0	0	4	0	9	0	0	1	0	0	0	0	0	2	0	0	0	2	0	0	0	0	1	0	2	1	0	0	0	0	0	0	0
OTU 127	0	0	0	1	0	0	2	0	2	3	0	10	0	0	0	1	0	0	0	0	0	0	0	0	0	0	0	3	4	1	4	0	0	0	0	0	1	0	0	0	5	1	0	0	0	0	0	2	0	14
OTU 128	0	22	0	6	9	3	10	7	8	28	15	4	2	4	1	8	3	49	9	6	2	44	14	3	7	1	20	4	1	10	2	5	17	4	9	0	1	6	0	8	1	8	2	1	4	14	5	8	2	8
OTU 129	0	4	0	2	0	0	0	10	0	0	0	0	9	0	0	1	0	0	0	0	0	0	2	0	0	0	0	1	0	0	0	0	0	0	0	0	0	0	0	0	0	0	0	0	0	1	8	0	0	0
OTU 130	0	0	1	0	0	0	0	0	0	16	0	0	2	3	2	5	0	0	0	0	0	29	0	0	0	2	1	0	0	0	0	0	0	0	0	0	4	0	0	1	0	19	0	1	0	0	0	7	0	0
OTU 131	0	0	2	0	3	0	0	3	4	0	0	15	0	1	0	0	2	0	4	0	1	3	4	2	0	1	0	4	0	0	1	3	0	0	2	0	1	1	0	0	1	0	3	3	0	0	0	18	0	0
OTU 132	1	0	0	0	0	0	0	0	0	0	4	1	0	0	0	0	1	0	0	0	0	0	1	1	0	0	4	0	0	1	0	2	1	0	0	0	0	2	2	2	0	0	0	1	0	0	1	3	0	2
OTU 133	4	0	0	0	0	2	0	0	0	0	0	0	0	0	0	0	0	1	0	0	0	0	0	0	0	0	0	0	0	0	0	0	0	0	0	0	0	0	0	0	2	0	0	0	4	0	0	0	0	0
OTU 134	1	0	0	1	0	2	2	7	0	0	14	3	0	0	0	3	1	0	0	0	0	2	0	8	2	0	0	0	4	1	1	0	2	0	0	1	0	6	1	0	1	14	19	1	0	0	0	2	0	1
OTU 135	0	0	0	1	1	0	0	0	0	0	0	0	0	0	0	0	0	0	2	0	4	0	1	1	0	0	0	0	1	1	0	0	1	0	0	0	0	1	0	1	0	0	0	0	2	0	0	0	0	2
OTU 136	2	0	0	0	1	62	0	0	2	0	0	0	1	0	0	0	0	0	0	0	0	0	2	0	30	0	0	0	0	0	0	0	0	2	2	2	1	6	0	0	1	0	0	0	50	0	0	1	0	0
OTU 137	0	0	0	0	1	0	5	0	0	0	0	0	0	0	0	2	0	0	0	1	0	0	0	0	0	0	10	0	0	1	0	0	1	0	0	1	0	0	0	0	0	0	0	0	0	0	0	2	0	11
OTU 138	3	3	0	0	3	0	0	0	1	0	0	0	1	0	0	1	0	1	8	0	2	0	0	2	0	0	1	0	0	0	0	0	0	0	0	1	0	0	1	0	0	0	2	6	0	1	0	0	0	0
OTU 139	8	8	12	2	15	2	1	14	19	0	2	5	1	33	46	2	1	2	12	0	0	2	3	80	2	11	3	1	1	6	7	13	4	0	2	0	20	3	1	2	2	0	2	30	0	0	4	4	2	1
OTU 140	5	0	1	3	10	2	1	1	1	5	1	9	2	3	6	4	0	0	6	5	1	6	6	0	2	7	2	5	1	0	3	4	2	5	7	2	7	1	0	9	1	5	1	0	2	59	0	2	1	5
OTU 141	0	0	0	0	0	0	0	0	0	0	0	0	0	0	0	0	0	0	0	0	0	0	2	0	0	0	0	0	0	0	0	0	0	0	0	0	0	0	0	0	0	0	0	0	0	0	0	0	0	0
OTU 142	0	0	0	0	0	0	0	0	0	0	0	0	0	0	0	0	0	0	0	0	0	0	0	0	0	0	0	0	0	0	0	0	0	0	0	0	0	0	0	0	0	0	0	0	0	0	0	0	0	1
OTU 143	0	0	0	0	0	0	1	0	0	0	1	0	2	0	0	0	3	0	0	0	0	0	1	0	0	0	0	0	0	0	0	0	0	0	0	2	0	1	0	0	0	0	0	0	0	0	0	2	0	0
OTU 144	5	0	0	0	0	0	0	1	0	0	0	0	0	0	0	0	0	0	0	0	0	0	0	0	0	0	0	0	0	0	3	0	0	0	0	0	0	2	0	0	1	0	0	0	0	0	1	0	0	0
OTU 145	1	59	0	0	0	1	0	0	1	0	2	0	0	4	4	3	4	96	0	0	3	2	4	2	2	1	0	0	3	1	0	0	2	0	0	0	1	0	1	1	1	0	0	4	5	27	0	2	2	2
OTU 146	5	0	1	0	0	0	0	2	0	2	0	1	3	2	11	0	0	0	1	0	0	0	0	0	0	1	0	0	2	0	0	0	1	1	1	1	5	2	1	0	3	2	1	0	0	0	0	0	3	3
OTU 147	0	0	0	0	0	0	0	0	0	0	0	0	0	1	0	0	0	0	0	0	1	10	1	0	1	0	8	0	0	0	0	0	1	0	0	0	3	0	0	0	0	5	0	4	0	0	0	0	0	2
OTU 148	2	0	0	0	1	1	0	0	1	0	3	0	1	1	6	0	1	0	3	0	0	1	1	0	0	1	1	1	0	6	1	2	0	1	1	1	0	5	0	1	0	0	0	2	1	0	70	12	0	1
OTU 149	0	0	0	0	0	2	3	0	0	1	0	0	0	0	0	0	0	2	0	0	21	0	0	0	0	1	0	0	48	1	0	0	0	0	0	0	0	0	0	7	19	0	1	1	1	0	0	3	1	0
OTU 150	0	0	0	0	0	0	6	0	0	0	0	0	4	0	0	0	0	0	2	0	1	0	0	0	1	57	0	0	0	6	0	0	0	1	0	0	0	1	0	1	0	0	0	0	0	0	0	0	0	0
OTU 151	0	0	0	0	4	6	1	0	0	1	1	1	0	0	0	0	0	0	0	1	2	0	1	0	2	0	0	0	0	0	0	1	21	0	0	0	0	0	0	0	0	0	1	7	2	0	0	0	0	0
OTU 152	0	2	3	4	2	0	6	20	9	1	0	0	6	3	6	0	0	2	1	1	0	2	1	0	0	0	0	2	1	2	4	0	0	22	0	1	0	0	0	3	0	4	0	0	1	2	10	0	11	2
OTU 153	0	0	0	0	0	0	0	0	0	0	0	0	2	0	0	0	0	0	0	0	0	0	0	0	0	0	0	0	0	1	0	0	0	0	0	0	0	0	0	0	0	0	0	0	0	0	0	0	0	0
OTU 154	0	1	0	0	0	3	0	0	0	0	0	0	0	0	0	1	0	0	0	0	0	0	0	0	1	0	0	0	0	0	0	0	0	0	0	0	0	3	0	0	0	0	0	0	0	0	0	0	1	0
OTU 155	0	0	2	0	0	0	0	0	0	0	3	0	0	0	1	0	0	3	0	0	0	0	0	0	1	3	2	0	0	3	1	99	0	0	2	0	0	10	0	2	0	0	0	0	0	0	0	1	0	0
OTU 156	0	7	4	0	0	0	0	5	3	0	2	4	0	0	3	1	0	0	1	5	0	5	2	0	6	0	0	0	0	0	1	0	11	7	1	0	1	7	1	3	0	0	2	1	4	1	3	1	0	5
OTU 157	0	0	0	0	0	3	0	2	0	0	0	0	1	0	0	0	0	0	0	0	0	0	0	0	1	0	0	0	0	0	0	0	0	1	0	0	0	0	0	0	0	0	0	0	0	0	0	6	0	3
OTU 158	0	0	0	0	0	0	0	0	0	0	0	0	0	0	0	0	0	0	0	0	0	0	0	0	0	0	0	0	0	0	0	1	0	0	0	0	0	0	0	0	0	0	0	0	0	0	0	0	0	0
OTU 159	4	4	0	1	1	2	0	0	0	0	0	0	4	0	0	35	0	0	0	0	0	0	3	0	0	1	0	1	1	2	3	0	6	0	1	0	0	0	0	0	0	1	1	2	0	1	0	0	0	5
OTU 160	8	2	1	0	1	3	12	0	6	4	5	3	0	2	4	8	1	1	3	2	2	2	5	0	0	0	2	5	1	2	5	1	4	1	3	7	1	1	3	0	1	0	2	1	5	2	0	0	2	6
OTU 161	0	3	0	0	0	0	0	9	2	0	0	2	1	1	1	2	0	0	0	0	1	7	0	0	1	4	1	0	2	1	6	0	0	1	7	0	0	2	2	0	0	0	2	1	2	1	0	2	0	0
OTU 162	1	12	0	1	0	1	0	1	0	0	0	2	4	2	1	8	0	0	5	2	2	3	5	0	1	0	8	4	5	0	5	0	0	0	2	0	1	4	0	6	1	0	0	1	2	8	0	0	1	2
OTU 163	0	0	0	0	0	0	0	0	0	0	0	0	0	0	0	0	0	0	0	0	0	0	0	0	0	0	0	0	0	0	0	0	0	0	0	0	0	0	0	0	0	0	0	0	0	0	0	0	0	0
OTU 164	0	0	0	0	0	0	0	0	0	0	0	0	0	0	0	0	0	0	0	0	0	0	0	0	0	0	0	0	0	0	0	1	0	0	0	0	0	0	0	0	0	0	0	0	0	0	0	0	0	0
OTU 165	0	1	0	0	3	0	1	0	0	0	1	0	1	0	0	1	0	0	54	0	3	0	0	0	0	0	5	0	1	3	0	0	0	1	0	1	0	2	0	1	0	0	0	7	1	0	0	1	2	1
OTU 166	1	0	0	0	0	0	0	0	0	0	0	0	0	0	0	0	0	0	0	0	0	0	0	0	0	0	0	0	0	0	0	0	0	0	0	0	0	0	0	0	0	0	0	5	0	0	0	0	0	0
OTU 167	0	0	0	1	0	4	1	4	2	0	0	0	3	0	0	0	0	0	0	0	2	0	0	0	0	0	1	0	12	2	1	0	0	0	1	9	0	2	0	0	3	0	2	7	0	0	5	0	1	1
OTU 168	6	1	0	1	5	3	6	0	0	0	0	0	0	0	0	51	2	1	1	0	0	0	1	3	0	0	1	1	0	0	0	1	0	1	0	0	1	6	0	0	0	0	3	0	3	2	0	2	0	1
OTU 169	0	0	0	4	0	0	0	0	0	0	0	0	0	0	0	0	1	0	1	0	0	0	0	0	0	0	0	1	6	0	0	0	0	1	0	2	0	0	0	4	0	0	0	0	0	0	0	0	0	0
OTU 170	0	0	0	0	0	0	0	0	0	0	0	0	0	0	0	0	0	0	0	0	0	0	0	0	0	0	0	0	0	0	0	0	0	0	0	0	0	0	0	0	0	0	0	0	1	0	0	0	0	0
OTU 171	0	0	0	1	0	0	0	2	8	1	2	0	0	0	0	3	1	0	1	0	0	2	0	0	0	2	1	0	0	1	0	2	1	0	91	1	0	19	0	0	0	0	0	0	0	0	2	0	0	1
OTU 172	0	1	0	0	0	0	0	0	0	0	0	0	0	0	0	0	0	0	0	0	0	0	0	0	0	0	0	0	0	0	0	0	17	0	0	2	0	0	0	0	0	0	0	2	0	2	0	0	0	2
OTU 173	0	0	0	0	5	1	0	0	0	0	0	0	0	0	0	0	0	0	0	0	1	0	0	0	0	1	0	0	0	2	0	2	0	0	3	0	0	4	1	1	0	0	0	0	0	1	0	1	1	0
OTU 174	8	2	2	2	4	0	37	15	1	0	1	0	1	4	3	0	1	5	2	14	1	0	4	0	0	2	0	5	0	0	3	5	0	0	0	0	6	0	0	5	1	0	0	5	2	3	1	5	0	0
OTU 175	0	0	0	0	0	1	0	0	0	0	0	0	0	0	1	0	0	0	0	0	1	0	0	2	0	0	4	4	0	0	0	0	0	0	1	0	0	1	0	0	0	0	1	2	0	0	0	0	1	1
OTU 176	4	0	0	0	0	0	4	0	3	6	5	0	3	1	3	0	2	1	1	0	0	5	1	111	1	0	1	0	5	5	2	0	0	1	1	1	2	7	0	0	0	7	5	8	0	0	0	11	1	12
OTU 177	0	0	0	7	5	3	0	0	4	38	7	1	2	0	1	3	0	0	4	3	0	4	1	0	2	0	5	0	0	3	1	0	5	0	3	2	8	0	0	2	0	0	2	0	1	0	0	1	0	0
OTU 178	0	0	0	0	3	1	0	0	0	0	2	0	0	0	0	0	0	0	2	3	0	0	3	0	0	0	0	0	0	0	0	0	1	1	6	0	0	0	0	0	0	0	1	0	0	0	0	0	0	3
OTU 179	0	0	0	0	0	2	1	1	1	0	0	0	6	0	4	1	2	0	1	1	0	0	3	1	0	0	0	1	0	0	0	1	0	0	4	1	0	0	2	2	0	0	7	1	2	0	2	4	0	0
OTU 180	1	1	84	1	6	52	0	4	10	3	7	6	3	1	2	26	17	4	1	1	1	7	0	1	21	75	7	11	5	1	0	7	8	3	1	5	160	9	2	9	11	7	14	1	18	0	6	1	34	16
OTU 181	1	0	0	0	0	0	0	2	3	0	4	0	0	0	0	0	1	0	0	0	1	0	0	2	0	0	0	0	0	1	0	0	1	0	0	0	0	4	1	0	2	0	0	0	0	0	0	3	4	0
OTU 182	0	0	0	0	0	0	0	0	0	0	0	0	0	0	0	0	0	0	0	0	0	0	0	0	0	0	0	0	0	0	0	0	0	0	0	0	0	0	0	0	0	0	0	0	0	0	0	2	0	0
OTU 183	8	0	0	1	1	0	3	4	2	1	0	0	0	5	5	0	3	2	0	0	1	0	1	0	0	1	0	0	0	0	0	1	0	2	2	1	1	1	0	0	0	1	1	2	0	1	3	0	1	0
OTU 184	0	0	0	1	0	0	1	0	0	4	0	0	1	1	1	0	0	0	1	0	1	3	0	0	0	1	0	0	0	0	1	0	0	0	0	0	1	0	1	1	0	0	0	1	0	0	3	4	0	0
OTU 185	3	1	8	0	2	0	0	2	2	0	0	0	2	0	1	5	1	0	92	11	0	0	1	0	1	1	0	9	0	1	1	1	1	0	3	1	3	3	0	2	0	0	0	0	3	0	1	19	0	1
OTU 186	0	0	0	0	4	0	0	0	1	0	0	0	0	0	0	0	0	0	0	0	0	8	0	0	1	0	0	0	0	5	3	0	0	0	0	0	0	5	0	0	0	0	0	0	0	0	2	0	0	0
OTU 187	2	77	0	1	1	0	1	5	3	0	20	0	0	1	3	3	0	1	2	69	2	11	0	0	5	1	0	6	1	0	3	0	0	0	1	1	0	0	0	0	144	2	0	0	1	42	3	4	1	6
OTU 188	4	6	0	4	3	0	4	0	21	0	2	5	3	1	0	5	1	1	10	0	1	0	23	0	0	0	3	1	16	0	0	12	6	0	1	3	1	11	0	0	3	0	0	25	0	0	0	0	0	2
OTU 189	0	0	152	3	0	1	5	2	24	6	0	2	8	0	0	1	0	2	0	0	4	7	5	0	1	1	0	0	0	3	2	3	0	0	0	2	0	0	0	1	0	5	1	1	0	1	0	4	0	6
OTU 190	0	14	0	0	0	0	0	0	0	0	0	1	0	0	0	0	0	25	0	0	0	0	1	0	0	0	1	0	0	4	0	0	0	0	0	0	0	0	0	0	0	0	0	0	0	6	0	0	0	6
OTU 191	2	0	0	1	0	1	0	0	1	0	2	7	0	0	0	0	1	1	3	3	9	0	0	2	0	0	1	3	2	2	0	8	6	36	1	2	0	15	1	3	0	36	0	1	0	0	0	0	13	4
OTU 192	2	12	1	68	0	11	3	18	0	1	1	0	7	3	11	5	0	7	1	1	4	1	7	3	2	2	0	0	0	2	5	4	6	0	0	0	6	1	1	0	4	0	6	1	3	6	4	6	0	0
OTU 193	0	1	1	0	1	0	2	3	2	0	6	1	1	0	0	0	53	0	0	3	0	2	0	0	1	0	0	0	4	0	1	1	1	0	0	0	0	0	1	0	0	4	0	0	1	0	2	0	0	2
OTU 194	0	2	0	0	0	1	0	4	4	0	0	0	0	0	0	2	1	1	0	3	0	0	0	0	0	0	4	46	0	0	0	0	3	0	5	2	0	0	0	0	0	0	0	0	140	1	1	3	0	0
OTU 195	2	0	5	2	4	0	1	1	0	0	0	0	0	6	14	0	0	2	0	0	22	1	2	0	1	0	0	1	16	0	0	0	0	0	0	2	3	0	0	1	8	0	0	0	1	0	0	0	0	0
OTU 196	1	0	0	1	2	8	2	3	0	0	3	1	0	0	1	0	2	0	0	1	0	1	0	11	2	0	10	3	3	103	0	1	1	3	2	0	0	0	14	7	0	0	17	0	2	0	4	0	6	1
OTU 197	7	4	0	3	8	2	2	1	3	6	2	1	1	0	0	1	2	0	1	0	2	3	1	3	1	1	1	0	0	5	1	1	0	1	33	4	1	3	2	2	0	1	4	0	0	3	6	0	1	7
OTU 198	0	0	0	0	0	0	0	0	0	0	0	1	0	0	0	1	3	0	0	0	0	0	0	0	0	0	3	0	2	5	0	0	0	0	0	0	0	0	1	0	2	0	1	0	0	0	0	2	0	0
OTU 199	0	0	1	7	0	0	3	1	1	1	0	1	0	2	4	0	0	0	0	0	0	4	1	0	0	1	0	1	0	0	2	1	0	3	0	0	0	0	42	1	0	6	0	1	0	0	0	0	3	1
OTU 200	4	1	0	2	4	5	0	0	2	3	0	6	3	0	1	5	0	1	3	0	0	1	1	0	6	1	3	0	1	0	0	1	0	0	0	0	1	0	0	10	1	0	0	0	0	0	0	0	2	1
