	Host 1	Host 2	Host 3	Host 4	Host 5	Host 6	Host 7	Host 8	Host 9	Host 10	Host 11	Host 12	Host 13	Host 14	Host 15	Host 16	Host 17	Host 18	Host 19	Host 20	Host 21	Host 22	Host 23	Host 24	Host 25	Host 26	Host 27	Host 28	Host 29	Host 30	Host 31	Host 32	Host 33	Host 34	Host 35	Host 36	Host 37	Host 38	Host 39	Host 40	Host 41	Host 42	Host 43	Host 44	Host 45	Host 46	Host 47	Host 48	Host 49	Host 50	
OTU 1	2	3	7	2	0	2	0	16	5	0	1	1	0	0	15	0	2	0	9	4	0	5	0	3	1	5	6	0	0	0	2	0	0	2	1	5	4	3	7	0	0	3	8	1	1	0	6	0	0	0
OTU 2	1	2	0	0	0	0	1	0	0	1	2	0	0	0	0	0	1	0	0	0	0	0	1	0	0	1	0	0	0	0	1	0	0	0	0	0	0	0	0	0	0	0	0	0	0	0	0	0	0	0
OTU 3	0	0	0	0	0	1	0	1	5	0	0	3	0	0	0	1	0	1	2	0	0	0	1	0	0	0	0	2	0	0	0	0	2	0	0	12	1	2	0	1	0	0	0	0	0	0	0	0	0	3
OTU 4	0	0	0	0	0	0	0	0	0	0	0	0	0	0	0	0	0	0	0	0	0	0	0	0	0	0	0	0	0	0	0	0	0	0	0	0	0	0	0	0	0	0	0	0	0	0	0	0	0	0
OTU 5	2	6	29	4	3	21	1	24	0	17	12	34	21	33	4	6	25	1	26	4	7	2	0	10	12	1	12	4	11	3	6	8	0	3	0	4	2	0	22	12	10	2	12	0	9	32	7	0	39	1
OTU 6	0	1	1	0	1	0	1	1	0	0	0	0	0	1	2	0	0	0	0	0	6	2	1	0	1	1	0	0	1	0	0	0	0	0	0	0	0	0	0	0	0	1	0	4	0	0	0	0	1	1
OTU 7	3	1	0	4	2	1	0	5	5	1	8	3	2	8	1	2	9	4	11	2	0	3	4	20	0	0	3	2	3	2	4	0	7	0	1	18	1	1	2	6	0	4	51	0	2	1	2	44	0	4
OTU 8	3	3	1	2	3	8	19	4	1	2	1	0	0	1	2	2	0	1	0	1	3	1	6	1	1	0	3	1	7	0	6	0	11	0	0	0	0	7	4	1	0	0	2	0	11	1	0	7	2	28
OTU 9	0	1	0	0	2	0	0	1	0	0	0	2	0	2	0	0	0	0	0	0	0	0	0	0	0	0	0	1	0	6	1	1	0	2	0	0	0	4	0	0	0	0	1	0	0	1	0	1	0	0
OTU 10	0	0	0	1	1	0	0	0	0	0	0	0	0	0	1	3	0	0	0	0	0	0	5	0	0	0	0	1	3	0	0	0	1	0	1	1	0	3	0	0	1	0	1	0	0	0	0	1	0	4
OTU 11	4	1	1	0	0	0	4	0	4	0	4	2	0	0	2	0	1	2	0	0	0	4	1	0	0	0	0	0	1	8	0	6	0	0	2	0	3	5	0	1	0	0	0	0	2	104	0	8	0	44
OTU 12	17	0	1	1	5	2	9	5	0	1	0	1	5	0	1	1	1	5	2	0	0	2	0	0	0	3	1	0	1	2	0	2	0	1	0	2	3	2	5	2	1	0	0	1	2	1	2	0	1	1
OTU 13	0	0	0	0	0	0	0	0	0	0	1	0	0	0	0	0	0	0	0	0	0	0	0	0	0	0	0	0	0	0	0	0	0	0	1	0	0	0	0	0	0	0	0	0	0	0	0	0	0	0
OTU 14	1	0	0	0	3	1	0	0	0	0	1	0	0	0	5	1	0	0	3	0	0	0	1	0	0	1	0	1	1	0	1	0	4	0	0	0	0	0	0	2	0	0	3	0	0	0	3	0	0	0
OTU 15	0	0	0	0	0	0	0	0	0	0	0	0	0	0	0	0	0	0	0	0	5	0	0	0	1	0	0	0	0	1	0	0	0	1	0	1	0	0	0	0	0	0	0	7	0	0	0	0	0	0
OTU 16	0	0	0	0	0	1	0	0	1	0	0	0	0	0	0	0	0	0	0	0	0	0	0	0	0	0	0	0	0	0	0	0	0	0	0	0	0	0	0	0	0	0	0	0	0	0	0	0	0	0
OTU 17	0	0	1	1	1	17	0	2	0	0	0	0	5	0	2	1	3	0	0	2	0	0	1	4	10	0	23	1	1	0	0	0	0	0	19	2	5	0	1	3	4	0	5	0	11	0	1	1	0	0
OTU 18	2	0	0	0	9	4	2	5	1	2	0	2	2	3	3	0	0	2	0	0	0	0	0	1	1	78	0	0	4	0	0	0	1	3	0	0	0	18	4	0	7	3	0	6	4	0	1	2	0	0
OTU 19	0	0	0	0	0	0	1	0	0	0	0	0	0	0	0	0	0	0	0	0	0	0	0	0	0	0	0	0	0	0	0	0	0	0	0	0	0	0	0	0	0	0	0	0	0	0	0	0	0	0
OTU 20	0	0	0	1	0	0	1	1	0	1	0	1	8	1	0	6	1	2	3	1	0	2	4	5	1	0	0	1	0	0	0	1	0	0	1	1	1	0	4	3	0	0	1	7	0	0	1	39	1	0
OTU 21	0	2	1	1	0	1	6	1	0	0	0	5	1	0	0	0	0	0	0	0	1	1	6	0	1	1	0	2	6	0	1	5	0	1	1	3	2	1	0	0	1	1	0	1	0	0	1	2	0	0
OTU 22	1	0	2	0	0	1	1	2	3	8	1	0	0	0	0	0	0	4	5	0	0	1	0	1	0	1	5	0	1	0	1	0	3	0	1	0	3	0	0	0	0	3	0	0	0	0	1	0	0	3
OTU 23	0	0	0	0	2	0	1	1	1	0	0	0	1	6	1	0	0	0	1	0	0	1	2	0	0	1	0	2	1	0	1	0	3	0	1	0	4	2	0	0	0	1	0	1	0	0	0	1	1	1
OTU 24	0	0	0	3	1	1	1	1	0	0	0	15	0	0	1	0	0	3	0	3	0	1	1	0	0	1	0	0	0	10	0	1	0	0	1	0	5	3	0	0	1	1	0	3	0	0	0	0	0	0
OTU 25	0	17	0	0	0	0	0	0	0	0	0	0	0	0	0	0	0	0	0	0	0	0	0	0	0	0	0	0	0	0	0	0	0	0	0	0	0	0	0	0	0	0	0	0	0	18	0	0	0	0
OTU 26	0	0	0	1	0	2	0	0	0	0	0	0	0	0	0	2	0	0	0	0	0	0	0	0	0	0	0	0	0	0	0	0	0	0	0	0	0	0	0	2	0	0	0	0	0	0	0	0	0	0
OTU 27	0	0	0	0	0	0	0	0	0	0	0	0	0	0	0	0	0	0	0	0	2	0	0	0	0	0	0	0	0	0	0	0	0	0	0	0	0	0	0	0	0	0	0	0	0	0	0	0	0	0
OTU 28	3	2	2	0	8	2	0	1	7	3	0	5	1	5	7	2	2	0	2	0	8	7	5	3	0	2	1	0	1	0	0	1	7	0	0	114	4	0	9	0	0	0	0	0	2	0	1	3	2	2
OTU 29	11	1	0	0	4	0	0	0	0	0	0	0	22	0	0	17	3	5	2	0	3	3	0	2	0	0	1	0	2	4	2	0	0	0	5	0	0	0	1	0	2	0	0	0	0	2	0	2	0	8
OTU 30	0	0	0	0	0	0	0	0	0	0	0	0	0	0	0	0	0	0	0	0	0	0	0	0	0	0	0	0	0	0	0	0	0	0	0	0	0	0	0	0	0	0	0	0	0	0	0	0	0	0
OTU 31	0	1	0	1	0	0	2	3	2	0	2	0	2	0	0	0	0	1	0	0	0	0	0	0	0	0	0	0	0	0	0	9	0	0	1	0	0	0	1	2	0	0	0	0	0	0	1	0	0	2
OTU 32	3	5	0	0	18	1	1	1	1	0	6	4	6	0	0	7	2	4	1	0	2	3	8	0	1	1	1	3	5	1	7	1	0	22	1	1	0	13	3	0	2	0	0	4	0	0	3	1	7	26
OTU 33	0	0	0	0	0	0	0	0	0	0	0	0	0	0	0	0	0	0	0	0	0	0	0	0	0	0	0	0	6	0	0	0	0	0	0	0	0	0	0	0	0	1	0	0	0	0	0	0	0	0
OTU 34	11	5	1	0	4	1	14	0	0	107	0	0	0	1	0	0	0	6	2	1	2	0	3	33	1	1	4	0	8	1	0	2	0	0	0	4	3	0	0	2	8	0	69	1	1	2	0	3	3	0
OTU 35	0	0	0	0	0	1	1	0	0	0	0	0	3	1	0	8	0	1	0	1	0	0	0	0	0	0	0	0	6	0	2	0	1	1	1	2	0	0	0	0	1	0	0	1	2	2	0	0	0	0
OTU 36	0	0	0	0	1	0	1	1	0	0	1	0	0	1	0	0	2	0	0	0	1	5	0	31	0	1	0	4	5	3	4	1	0	4	0	3	0	1	0	3	4	0	53	7	0	0	1	4	3	0
OTU 37	0	0	0	0	0	0	0	0	2	0	0	0	0	0	0	0	0	0	3	0	0	0	2	0	0	0	1	0	0	0	1	0	0	0	0	0	0	0	0	6	0	2	0	0	1	0	0	0	0	0
OTU 38	2	3	1	0	0	1	0	4	3	0	0	0	1	0	1	0	3	0	0	0	1	0	6	1	1	0	2	0	0	0	1	7	6	0	1	5	1	2	4	0	1	0	1	0	0	2	3	0	0	1
OTU 39	0	0	0	0	1	0	1	0	0	26	0	0	0	4	0	0	0	0	0	0	0	0	0	0	0	0	0	0	0	1	0	0	0	0	0	1	1	0	1	0	0	0	0	11	0	0	0	1	0	0
OTU 40	14	2	0	0	20	1	1	1	0	1	0	0	0	35	6	0	0	8	6	1	0	0	0	1	0	0	1	5	0	0	4	0	9	8	0	1	0	1	0	0	0	0	2	0	1	4	0	0	7	0
OTU 41	0	2	0	0	4	0	1	0	1	0	0	0	0	0	4	0	0	0	0	0	2	1	0	1	0	1	2	1	5	0	0	0	0	1	0	0	0	1	3	0	3	0	0	3	0	0	0	2	1	2
OTU 42	0	1	0	0	0	1	1	0	0	0	0	0	0	5	0	0	0	3	0	0	1	4	0	0	0	0	0	0	3	0	0	0	1	0	3	0	0	0	0	0	1	1	0	0	0	3	0	1	0	2
OTU 43	0	0	0	0	0	0	0	0	0	0	0	0	0	0	0	0	0	0	0	0	0	0	0	0	0	0	0	0	0	0	0	0	0	0	1	0	0	0	0	0	0	0	0	0	0	0	0	0	0	0
OTU 44	0	0	1	0	1	0	0	0	0	0	0	1	0	0	3	0	0	0	0	0	0	0	0	0	0	0	0	0	0	0	1	1	1	0	0	0	3	0	0	0	0	0	0	1	0	0	1	0	1	0
OTU 45	20	7	9	0	31	2	0	0	1	0	2	10	1	2	32	0	3	4	3	1	0	0	0	0	0	9	1	1	1	2	12	2	5	136	0	0	13	6	6	2	0	0	0	0	1	0	0	2	70	0
OTU 46	0	0	0	0	1	0	1	4	0	10	0	0	2	3	3	1	0	4	2	0	1	2	0	2	2	0	0	55	0	1	47	4	0	0	0	1	1	1	2	2	0	2	0	0	4	1	3	0	2	3
OTU 47	5	0	0	0	0	0	0	0	1	0	0	0	0	0	0	3	5	5	0	0	0	0	0	0	0	0	0	0	1	0	1	0	3	0	0	0	0	0	0	0	1	0	0	1	0	0	0	0	0	0
OTU 48	0	0	3	1	0	0	45	1	6	0	2	0	0	2	3	0	0	1	0	5	1	0	0	0	0	2	0	0	1	0	0	1	1	2	0	0	2	6	1	3	0	0	5	17	1	0	3	3	3	0
OTU 49	0	0	0	0	0	0	0	1	1	0	0	0	0	39	0	0	0	0	4	0	0	0	0	0	0	0	0	0	1	0	1	1	0	0	0	0	0	0	0	0	0	0	0	0	0	0	0	0	0	0
OTU 50	0	9	0	6	8	0	2	9	1	1	0	1	1	10	0	1	0	6	3	2	2	1	2	0	2	1	1	0	1	0	7	1	0	1	2	0	1	6	2	5	0	1	2	0	1	2	3	0	0	1
OTU 51	0	0	0	0	0	1	1	0	4	1	0	1	0	5	0	9	0	0	2	0	0	3	0	1	0	0	0	0	0	2	1	0	0	0	0	0	0	0	0	1	0	1	0	0	1	0	0	0	0	2
OTU 52	2	2	2	2	3	0	1	0	3	0	0	17	0	2	5	9	0	11	6	1	5	2	1	2	0	1	1	6	1	7	1	1	5	3	5	1	4	9	0	0	3	0	2	2	4	1	2	2	3	0
OTU 53	0	0	0	0	0	1	0	0	0	0	0	0	0	0	0	0	0	0	0	0	0	0	0	0	0	0	0	0	0	0	0	0	0	0	0	0	0	0	0	0	0	0	0	0	0	0	0	0	0	0
OTU 54	10	3	0	0	5	4	2	1	2	0	2	14	4	5	6	5	2	5	1	0	2	3	3	5	5	2	2	5	0	4	27	1	0	0	5	1	3	5	8	3	2	0	1	1	1	2	0	2	0	0
OTU 55	0	0	0	0	0	0	0	0	0	0	0	0	0	0	0	0	0	0	0	0	0	0	0	0	0	0	0	0	0	0	0	0	0	0	0	0	0	0	0	0	0	0	0	0	0	0	0	0	0	0
OTU 56	0	0	1	0	0	0	0	0	2	0	0	6	2	0	0	0	1	0	0	0	3	0	3	0	0	0	0	0	0	0	0	4	3	2	0	0	1	5	1	0	2	1	0	0	1	0	1	0	0	0
OTU 57	4	2	0	3	5	3	1	15	3	16	9	8	11	2	0	5	9	0	0	9	7	10	1	5	2	3	8	3	14	1	2	6	2	7	16	11	3	4	0	10	4	15	3	10	0	0	11	8	6	1
OTU 58	0	0	3	0	0	1	0	0	2	0	0	0	0	0	8	0	0	1	4	0	2	0	1	2	1	1	1	2	2	2	2	0	0	0	0	13	4	0	0	0	2	0	5	2	0	0	0	0	0	0
OTU 59	0	2	0	0	0	3	0	1	0	0	0	1	1	0	0	0	3	0	4	4	2	0	6	1	2	1	0	0	0	2	0	0	0	0	7	0	0	6	0	1	0	0	5	0	2	1	0	0	0	0
OTU 60	1	0	0	0	0	2	4	5	1	14	2	12	0	1	0	4	2	2	0	1	2	13	0	5	0	0	5	0	1	0	6	0	10	2	2	0	0	0	0	2	1	2	3	3	1	0	2	2	0	0
OTU 61	6	4	6	0	1	2	3	2	0	0	0	3	2	4	6	5	3	3	0	1	2	1	0	1	1	2	4	3	4	18	0	0	6	1	0	0	6	18	3	0	5	0	2	3	4	0	121	13	0	0
OTU 62	0	0	1	0	1	3	0	0	3	1	1	0	0	0	0	3	0	0	0	1	0	4	0	1	2	0	1	1	1	0	0	0	1	6	0	1	1	0	0	0	0	3	0	0	0	0	0	0	3	3
OTU 63	0	0	0	0	2	0	1	0	0	0	1	0	0	0	2	0	0	0	0	0	0	5	94	0	0	0	0	0	2	0	0	52	5	0	0	0	0	0	0	1	0	0	0	0	0	0	0	0	0	2
OTU 64	6	5	0	1	0	4	16	0	2	5	126	1	0	2	4	10	0	2	1	0	0	3	2	0	2	2	0	0	3	11	2	15	16	0	8	4	5	3	0	2	0	3	3	3	0	1	1	3	0	11
OTU 65	0	0	0	0	2	0	0	0	2	0	0	0	0	0	0	0	0	0	0	0	0	0	0	0	0	0	0	0	0	0	0	0	0	0	0	0	0	0	0	0	0	0	0	0	0	0	0	0	0	0
OTU 66	4	4	0	0	0	1	4	2	54	1	0	0	3	0	1	0	62	4	2	3	2	0	25	1	1	2	1	3	11	0	0	11	4	1	0	0	4	1	8	1	2	0	4	1	0	0	0	1	0	0
OTU 67	1	0	0	2	2	54	2	5	0	0	0	0	0	0	1	4	0	0	2	0	0	0	1	0	32	0	0	1	0	6	4	0	1	1	1	0	0	0	1	3	0	0	0	7	19	0	1	0	0	0
OTU 68	0	0	0	12	5	2	2	9	0	0	6	0	0	0	0	0	7	1	0	5	0	0	0	2	0	0	16	0	0	0	2	0	0	3	6	9	0	0	6	11	0	2	5	1	8	0	5	0	3	1
OTU 69	0	0	3	0	2	2	3	3	0	2	1	5	5	6	1	0	0	3	2	0	156	1	0	1	1	0	1	1	0	9	0	0	6	0	8	0	0	21	0	0	0	2	8	11	1	19	0	3	0	6
OTU 70	1	1	0	0	2	0	0	7	2	1	4	0	5	0	0	0	0	0	0	0	0	3	0	1	0	0	1	0	2	3	1	0	0	0	1	0	0	7	2	0	1	1	0	0	0	0	4	0	0	1
OTU 71	0	0	0	4	29	0	0	0	0	0	0	0	0	4	0	0	0	0	0	0	0	0	0	0	0	0	0	0	0	0	0	0	0	17	0	0	0	0	0	1	0	0	0	0	0	0	0	1	4	2
OTU 72	2	0	0	1	6	0	0	1	0	1	2	0	0	1	2	0	0	3	0	0	0	2	2	0	46	0	7	1	2	0	3	1	9	6	2	3	0	12	1	1	0	3	0	3	0	2	1	1	0	1
OTU 73	2	0	0	0	1	0	0	2	6	0	0	0	2	0	2	2	0	0	0	0	0	0	0	0	0	1	1	0	0	5	0	0	0	0	3	0	1	0	1	3	9	0	0	1	0	0	1	0	1	0
OTU 74	1	0	0	1	1	1	1	2	0	2	1	1	1	0	0	2	0	0	0	0	0	5	3	0	0	0	1	0	1	1	1	1	0	0	0	0	0	0	7	0	0	0	0	1	0	3	0	0	1	3
OTU 75	0	0	0	7	3	5	0	6	2	8	3	4	1	3	1	2	11	0	0	70	5	23	0	3	1	0	16	2	7	0	0	0	2	0	5	3	0	2	1	5	3	10	5	2	2	0	4	1	0	3
OTU 76	2	0	0	0	0	0	0	1	0	0	0	0	0	0	0	0	0	0	0	0	0	1	0	0	1	0	0	0	0	1	0	0	0	0	3	0	0	1	0	0	0	0	1	2	0	0	0	1	0	0
OTU 77	4	1	0	2	0	3	33	1	5	8	0	1	0	3	2	3	3	0	0	7	0	5	1	3	1	2	0	74	1	1	0	2	0	0	0	6	3	0	0	1	2	24	1	1	1	0	1	3	3	11
OTU 78	4	3	1	1	8	0	9	3	0	0	0	1	4	1	0	15	3	4	2	46	3	3	0	0	0	0	0	0	19	1	2	4	6	2	0	0	1	2	3	3	10	0	1	0	0	1	2	5	92	2
OTU 79	7	0	4	18	3	1	4	5	1	3	75	4	8	2	13	4	2	3	4	30	2	11	0	0	48	5	13	3	1	2	7	1	4	3	44	67	9	1	27	48	1	1	11	13	0	2	3	13	0	3
OTU 80	10	1	1	1	0	1	1	0	0	0	0	0	3	4	4	0	0	6	1	1	1	1	9	0	1	0	1	18	2	0	45	0	6	1	0	0	3	1	0	3	0	0	1	8	1	0	0	0	0	1
OTU 81	2	1	1	3	1	0	2	1	1	4	2	0	0	3	0	2	0	10	5	0	3	3	0	0	0	4	1	21	2	0	38	9	2	1	0	1	2	0	18	1	4	1	0	5	0	1	1	1	0	1
OTU 82	3	0	0	1	0	2	1	0	3	0	1	5	0	0	7	5	3	0	2	0	0	0	2	0	0	4	0	0	0	0	1	0	0	2	0	0	1	2	0	0	0	0	0	1	0	0	1	1	13	5
OTU 83	0	0	0	0	0	0	0	0	1	0	0	0	0	1	0	0	1	0	0	0	0	2	0	0	0	0	0	0	1	0	0	2	9	0	0	0	0	0	0	0	0	0	0	0	0	0	0	10	0	0
OTU 84	0	1	0	0	0	0	0	0	1	1	0	2	0	0	1	1	0	0	0	0	3	1	7	0	0	0	0	14	0	3	14	0	4	0	1	0	0	11	3	1	0	0	0	0	0	1	0	0	1	0
OTU 85	0	0	0	99	0	0	0	0	0	0	1	0	0	0	2	1	0	0	0	0	0	0	0	0	0	0	1	1	0	0	0	0	0	0	0	0	0	0	0	3	0	0	1	0	0	0	1	0	0	1
OTU 86	0	2	0	0	0	0	0	0	0	1	0	0	0	0	0	0	0	0	0	0	0	0	0	0	0	0	0	0	0	3	0	0	0	0	0	0	0	0	0	0	0	0	0	0	0	0	0	0	0	0
OTU 87	8	2	0	3	3	0	2	0	0	0	0	0	2	1	0	0	0	4	0	0	1	0	0	0	0	0	0	0	0	0	0	0	0	0	0	0	0	0	0	1	0	0	0	0	2	2	0	0	0	3
OTU 88	0	1	0	0	0	0	0	1	0	1	0	0	0	0	0	0	0	1	0	0	0	0	0	0	0	0	0	0	11	0	1	0	0	0	0	0	0	0	0	0	5	0	0	0	0	2	1	0	0	1
OTU 89	44	3	2	0	2	1	0	0	0	0	0	0	0	0	1	0	1	1	0	12	1	0	0	0	0	0	0	0	0	0	0	0	1	0	0	1	1	0	8	3	0	0	0	0	0	0	0	7	3	2
OTU 90	0	0	0	0	0	0	0	0	0	0	0	0	1	0	0	0	0	0	0	0	29	0	2	0	0	0	0	0	0	0	0	0	0	0	0	0	0	0	0	0	0	0	0	0	0	0	0	0	0	0
OTU 91	0	0	0	0	0	0	0	0	0	0	0	0	0	0	0	1	0	0	0	0	0	0	0	0	0	0	1	0	0	0	0	0	0	0	0	0	0	0	0	0	0	0	0	0	0	0	0	0	0	3
OTU 92	0	0	0	0	0	0	0	0	0	0	0	0	0	0	0	0	0	1	0	0	0	1	0	1	0	0	2	0	1	2	0	2	0	0	0	0	0	0	0	0	1	0	0	2	0	0	0	0	0	0
OTU 93	0	0	0	0	0	0	0	0	0	0	0	0	0	0	0	0	0	0	0	0	1	0	0	0	0	0	0	0	9	0	0	0	0	0	0	1	0	0	0	1	2	0	0	2	0	0	0	1	0	0
OTU 94	0	0	1	1	1	1	1	8	2	0	3	0	0	8	0	1	4	0	0	0	0	1	0	0	0	3	2	0	0	0	0	1	0	0	1	2	0	1	1	2	0	2	0	4	0	0	2	0	2	0
OTU 95	0	0	0	0	3	0	0	48	0	0	0	0	20	0	0	0	0	0	3	0	0	0	0	0	1	0	4	0	0	0	0	0	1	5	1	0	0	0	1	0	0	0	0	1	0	0	20	0	3	2
OTU 96	0	0	0	0	0	0	1	0	0	0	0	0	1	0	0	0	0	0	0	0	0	0	0	0	0	0	0	0	0	0	0	0	10	1	0	0	1	0	2	0	0	0	2	0	0	0	0	0	0	0
OTU 97	0	0	0	0	1	0	0	0	0	0	0	0	0	0	0	0	0	0	0	0	0	0	0	0	0	0	0	0	0	0	0	0	0	1	1	0	0	0	0	0	0	0	0	0	0	0	0	0	0	0
OTU 98	0	3	0	0	1	2	0	0	4	0	0	0	0	0	0	0	1	0	0	0	0	0	0	0	2	0	0	0	0	2	0	0	0	0	2	0	0	0	0	0	0	1	0	2	0	1	0	0	0	0
OTU 99	0	0	1	0	1	0	4	1	1	6	1	2	2	0	10	0	0	1	8	0	1	5	0	0	1	0	116	3	1	4	0	0	0	4	0	0	2	7	37	0	2	4	1	0	1	1	0	1	0	2
OTU 100	2	0	1	0	1	0	1	3	1	0	0	0	0	0	1	0	0	0	2	0	2	2	1	0	0	1	0	1	1	0	0	2	3	1	1	0	0	1	3	0	4	0	1	0	0	0	2	0	0	1
OTU 101	1	0	1	0	0	0	0	0	0	0	0	0	0	0	0	0	0	0	0	0	2	0	0	0	0	0	1	0	1	0	0	0	0	0	2	0	0	0	7	0	0	0	0	0	0	0	0	0	0	2
OTU 102	0	0	0	0	0	0	0	0	2	0	0	0	0	0	4	0	2	0	0	2	0	0	0	0	0	0	0	3	2	0	5	1	0	0	0	0	1	1	0	0	0	0	0	1	0	0	0	0	0	1
OTU 103	3	0	0	0	0	0	0	0	0	0	0	0	2	0	0	0	0	0	3	1	2	0	0	0	0	0	0	3	0	2	0	0	0	1	0	0	0	3	0	1	0	136	0	4	0	0	2	0	1	1
OTU 104	3	3	0	10	1	1	7	1	4	0	0	64	1	2	4	2	0	2	3	1	3	0	0	0	81	0	0	3	3	0	4	0	0	0	2	0	1	0	2	0	1	0	2	7	0	0	2	4	0	5
OTU 105	1	0	0	0	1	0	1	0	0	0	0	0	0	0	0	2	0	1	0	0	0	3	0	0	0	0	1	0	0	0	0	0	0	0	1	0	0	0	0	0	9	0	0	1	0	0	0	3	0	0
OTU 106	0	2	0	2	3	0	0	0	0	0	0	0	2	0	0	0	0	0	0	1	0	0	0	1	1	0	0	0	0	1	0	0	6	0	0	0	0	2	0	0	0	0	2	0	0	0	0	0	0	0
OTU 107	0	0	0	0	0	2	0	0	16	0	0	2	0	0	0	0	0	0	0	0	0	1	4	0	0	0	0	0	0	0	0	0	0	0	1	2	0	0	0	0	0	2	0	9	0	0	0	4	0	0
OTU 108	0	3	0	0	0	0	9	1	1	0	11	0	0	3	0	0	15	1	0	0	3	0	0	5	0	0	0	0	2	0	0	0	12	0	0	6	1	0	7	0	3	0	14	9	0	0	0	0	0	0
OTU 109	0	0	0	0	0	0	0	0	0	0	0	0	0	0	0	0	0	0	0	0	0	0	0	0	0	0	0	0	0	0	0	0	0	0	0	0	0	0	1	0	0	0	0	0	0	0	0	0	0	0
OTU 110	1	0	0	0	0	3	0	0	1	2	1	2	3	0	8	0	0	0	0	0	0	7	0	0	1	0	0	1	0	0	1	2	0	0	0	1	0	0	5	0	0	1	0	1	0	0	0	5	0	0
OTU 111	0	0	0	0	0	0	0	0	0	0	0	0	0	0	0	0	0	1	0	0	0	0	0	0	1	0	0	0	3	0	0	0	0	0	0	1	0	0	0	1	0	0	0	0	0	0	0	1	0	0
OTU 112	0	2	0	1	0	0	1	0	0	1	0	1	0	1	0	1	0	2	0	0	3	1	2	0	0	0	2	3	2	4	3	0	0	0	1	0	0	3	2	1	0	0	0	0	1	0	0	0	1	0
OTU 113	0	0	0	0	0	0	0	0	0	0	0	0	0	0	0	0	0	0	0	0	0	0	1	0	0	0	0	1	0	0	0	0	0	0	0	0	0	0	0	0	0	1	0	0	1	0	0	0	0	0
OTU 114	1	1	3	1	1	8	0	1	31	4	2	0	4	1	0	2	74	0	1	0	7	4	11	1	6	1	2	3	8	3	8	9	3	1	1	1	3	0	1	4	4	1	2	2	1	1	1	4	1	1
OTU 115	7	3	1	2	1	6	1	2	0	3	2	2	1	1	5	3	0	6	4	3	4	1	1	0	2	2	3	1	5	2	0	0	3	7	4	2	3	3	2	5	0	0	7	1	1	1	3	6	3	3
OTU 116	4	0	0	0	3	0	4	4	0	2	3	2	0	0	0	1	0	0	2	0	0	1	1	1	0	0	0	5	0	0	3	0	2	0	2	0	1	0	1	0	0	0	1	5	0	2	0	1	0	2
OTU 117	0	1	0	0	0	2	0	0	3	1	1	0	0	0	3	2	1	0	0	2	0	1	0	0	0	0	0	2	3	0	0	5	0	0	1	1	2	2	6	4	1	0	0	3	0	0	0	4	0	1
OTU 118	0	0	0	0	0	0	0	0	1	0	1	2	0	2	0	0	0	0	0	0	0	0	0	0	0	2	0	0	0	2	0	1	0	0	0	0	1	4	0	0	0	0	0	1	0	0	0	0	0	4
OTU 119	1	3	4	0	4	0	0	1	0	1	1	1	2	1	0	0	1	7	1	0	0	0	0	0	0	50	1	0	0	0	1	2	0	0	0	0	0	0	3	0	0	0	0	3	10	1	0	4	1	1
OTU 120	0	2	0	2	3	3	0	0	0	0	2	0	0	1	0	0	0	0	0	4	0	0	2	0	2	0	0	0	0	2	1	2	0	0	2	0	0	0	0	0	0	0	0	3	0	1	0	4	0	1
OTU 121	42	15	0	0	1	1	8	0	16	0	0	0	0	0	3	1	0	23	1	0	0	0	0	0	1	0	0	0	5	0	1	0	5	1	1	0	3	0	18	1	3	0	0	0	2	9	0	0	0	1
OTU 122	0	2	0	3	2	0	9	0	0	0	0	6	1	0	0	3	1	0	2	0	0	5	13	0	0	0	0	1	1	14	5	2	0	2	0	0	0	0	4	0	0	6	0	0	1	0	0	0	0	0
OTU 123	1	0	4	2	47	2	4	2	7	1	4	14	0	3	8	10	5	1	11	1	13	2	13	0	0	6	1	6	25	15	4	6	51	22	3	5	7	16	11	5	12	3	4	39	4	2	5	18	20	2
OTU 124	0	0	0	0	0	0	0	0	0	0	0	0	0	1	0	1	0	0	2	0	1	0	0	1	0	0	0	0	0	0	0	0	1	0	0	0	1	0	0	1	0	0	2	2	0	0	0	1	0	6
OTU 125	21	6	6	58	3	1	4	11	7	5	6	9	126	3	17	10	5	9	14	62	3	11	6	2	1	12	4	2	12	4	5	4	8	0	2	4	16	6	11	99	7	5	1	3	0	2	3	8	0	8
OTU 126	0	0	0	0	4	0	0	0	2	5	0	0	0	0	1	0	0	0	1	1	0	12	0	0	0	0	0	0	0	0	2	0	0	0	3	0	0	0	0	3	0	4	0	0	1	0	4	0	0	0
OTU 127	0	0	0	0	0	0	2	0	2	0	2	10	0	3	0	0	1	0	1	1	1	2	0	0	0	2	0	1	5	4	0	0	0	0	0	0	4	1	0	0	1	0	0	0	0	0	0	1	0	5
OTU 128	2	20	1	0	10	8	19	8	12	20	8	3	2	18	4	5	3	44	3	1	3	42	9	2	0	0	19	2	2	7	13	12	16	3	14	1	4	1	13	4	4	14	1	2	0	7	5	5	2	8
OTU 129	0	6	0	0	0	0	1	12	0	0	0	0	6	49	0	0	0	0	0	0	0	0	2	0	1	0	0	2	0	1	0	0	2	0	0	0	0	0	1	0	0	0	0	0	0	2	7	1	0	0
OTU 130	0	0	1	0	1	2	1	0	0	12	0	0	2	2	3	9	0	1	0	0	0	44	0	0	1	7	0	0	0	0	0	4	1	0	0	0	8	0	3	0	0	28	0	0	0	0	0	2	0	0
OTU 131	0	0	2	0	1	0	0	2	3	1	0	17	0	0	0	0	4	0	2	0	0	1	5	2	0	0	2	9	1	0	0	3	0	0	3	0	0	0	1	0	0	1	2	1	2	0	1	14	0	0
OTU 132	0	0	0	1	0	0	3	0	0	0	0	1	0	0	0	3	0	1	0	1	0	0	0	4	0	0	2	0	0	0	0	0	0	0	0	0	0	2	2	1	0	2	3	0	0	0	0	0	0	5
OTU 133	5	0	1	0	0	1	0	0	0	0	0	0	0	0	1	0	0	0	0	1	0	0	0	0	0	1	0	0	0	0	0	0	0	0	0	0	0	0	0	0	0	0	0	0	3	0	0	1	0	0
OTU 134	1	0	0	0	0	2	0	5	0	0	25	0	1	3	0	2	0	0	0	0	0	0	0	7	2	0	0	0	2	0	1	0	0	0	0	0	0	8	1	0	3	5	8	0	1	0	1	6	0	1
OTU 135	0	0	0	2	0	0	0	0	0	1	0	0	0	0	0	0	5	0	2	0	1	0	1	0	0	0	0	2	1	0	1	0	1	0	0	2	0	0	1	2	0	1	0	0	0	0	0	1	0	2
OTU 136	1	0	0	1	0	67	0	0	0	0	0	0	0	0	0	0	1	1	0	0	0	0	2	0	30	0	0	0	0	1	0	0	0	3	3	2	2	1	1	0	0	0	0	1	44	0	0	1	0	0
OTU 137	0	0	0	0	0	0	4	0	0	0	0	0	1	0	1	1	0	0	0	0	0	0	0	0	0	0	10	1	0	0	0	0	0	0	0	2	0	0	2	0	0	0	1	0	0	0	0	0	3	10
OTU 138	0	0	0	0	3	0	0	0	0	0	1	0	5	7	0	2	0	0	5	0	0	1	0	0	0	0	3	0	0	0	0	0	1	0	0	0	0	0	1	0	0	2	2	2	0	1	0	1	0	0
OTU 139	8	3	17	1	15	1	3	7	19	1	1	7	1	2	64	4	1	5	7	0	0	0	3	71	1	13	2	0	2	6	4	8	1	3	3	0	23	6	1	2	2	0	0	37	0	1	7	2	3	2
OTU 140	4	0	5	3	10	2	0	1	1	2	0	6	2	3	4	4	1	0	8	6	0	6	4	1	2	3	1	5	1	1	0	9	1	8	4	2	8	2	6	9	0	6	0	3	2	54	0	2	2	2
OTU 141	0	0	0	0	0	0	0	0	0	0	0	0	0	0	0	0	0	0	0	0	0	0	1	0	0	0	0	0	0	0	0	0	0	0	0	0	0	0	0	0	0	0	0	0	0	0	0	0	0	0
OTU 142	0	0	0	0	0	0	0	1	0	0	0	0	0	0	0	0	0	0	0	0	0	0	0	0	0	0	0	0	0	0	0	0	0	0	0	0	0	0	0	0	0	0	0	0	0	0	0	0	0	1
OTU 143	0	0	0	0	1	0	0	0	0	0	3	0	6	0	0	3	2	0	2	0	0	0	0	0	0	0	1	0	0	0	0	0	3	0	1	0	0	4	0	0	0	0	0	0	0	0	1	2	0	2
OTU 144	3	0	0	0	0	0	1	0	0	0	0	0	0	2	0	0	0	0	0	0	0	0	0	0	0	0	0	0	0	0	1	0	0	0	0	0	0	1	0	0	0	0	0	0	0	1	0	0	0	0
OTU 145	0	61	1	2	0	2	0	2	0	0	2	0	0	0	2	1	0	72	0	2	3	1	3	0	1	1	1	0	2	4	0	0	1	0	0	0	2	0	2	0	0	4	1	0	0	32	0	2	0	4
OTU 146	1	0	1	0	0	0	0	0	2	0	0	1	5	4	10	1	0	0	5	0	0	0	0	3	0	2	1	0	8	0	0	0	1	0	0	3	4	1	0	0	2	1	1	1	0	0	2	0	0	1
OTU 147	1	0	0	0	0	0	0	0	0	1	0	0	0	4	0	0	0	0	0	0	0	13	4	0	2	0	5	0	1	0	0	0	0	0	0	0	0	1	0	0	0	2	1	1	2	0	0	0	0	2
OTU 148	0	0	0	0	0	1	0	1	1	2	1	0	2	3	4	0	0	0	1	0	1	0	1	1	1	1	0	0	0	3	0	1	0	0	4	2	4	5	1	3	0	0	0	0	1	0	58	8	0	0
OTU 149	0	0	0	0	3	0	2	0	0	0	0	1	1	0	0	0	0	4	0	0	21	0	0	0	0	0	0	0	41	0	0	0	0	0	0	0	0	0	0	3	13	0	0	0	1	0	0	2	0	0
OTU 150	0	0	0	0	0	0	9	0	0	0	0	0	1	0	0	0	0	0	1	0	0	0	0	0	0	53	0	0	0	4	0	0	0	0	0	0	0	1	0	0	0	0	0	0	0	0	0	0	0	0
OTU 151	0	0	0	0	1	1	4	0	0	0	2	2	0	0	0	0	0	0	0	0	2	1	2	0	2	0	0	0	1	0	0	0	22	0	0	0	0	1	0	1	1	0	1	3	2	0	1	0	0	0
OTU 152	4	4	2	1	7	1	5	20	9	0	0	1	3	0	7	1	0	1	0	1	0	2	1	0	0	1	2	1	1	0	3	1	0	22	0	0	3	0	0	5	0	0	0	0	1	1	11	0	12	2
OTU 153	0	0	1	0	0	0	1	0	0	0	0	0	2	0	0	0	0	0	0	0	0	0	0	0	0	0	0	0	0	0	0	0	0	0	0	0	0	0	0	0	0	0	0	0	0	0	0	0	0	1
OTU 154	0	0	0	0	5	1	0	0	0	0	0	0	0	1	0	0	0	0	0	0	0	0	0	0	1	0	0	0	0	0	0	0	1	0	0	0	0	0	0	0	0	0	0	0	3	0	0	0	0	0
OTU 155	0	0	2	0	0	1	0	1	0	0	2	0	0	0	0	0	0	0	0	0	0	0	0	0	0	2	0	0	0	3	4	107	0	0	1	0	1	8	0	0	0	0	0	0	0	0	0	1	0	0
OTU 156	0	5	1	0	0	1	1	2	5	0	0	5	0	1	2	2	0	0	2	4	0	2	2	3	15	0	0	0	0	0	3	0	16	4	3	9	3	6	3	2	0	0	1	1	1	2	1	5	0	4
OTU 157	0	0	0	0	0	3	0	1	0	0	0	0	0	0	0	0	0	0	0	0	0	0	0	0	1	0	2	0	1	0	0	0	0	2	0	0	0	0	0	0	0	0	0	0	0	0	0	3	0	2
OTU 158	0	0	0	0	0	0	0	0	0	0	0	0	0	0	0	0	0	0	0	0	0	0	0	0	0	0	0	0	0	0	0	0	0	0	0	0	0	0	0	0	0	0	0	0	0	0	0	0	0	0
OTU 159	4	1	0	3	0	2	0	0	0	2	0	2	3	0	0	24	1	0	0	0	0	0	8	0	1	0	0	1	0	1	2	0	3	0	0	0	0	0	0	0	0	1	1	0	2	1	0	0	0	1
OTU 160	7	0	1	4	1	4	7	1	7	1	4	6	3	1	2	7	1	2	4	3	0	0	4	0	0	2	2	5	1	1	5	4	8	0	6	9	2	0	7	1	0	4	0	1	1	0	1	2	0	8
OTU 161	0	4	0	0	0	4	0	5	3	0	0	3	0	0	1	2	0	0	1	0	0	7	0	1	0	0	0	0	2	1	2	0	1	1	6	0	1	5	0	0	2	1	0	1	1	0	1	2	0	0
OTU 162	2	13	0	5	1	1	1	3	0	0	0	2	0	0	0	3	0	0	4	1	2	2	3	0	0	0	5	3	7	0	4	0	0	0	2	0	0	12	5	4	0	0	0	2	0	6	4	0	0	0
OTU 163	0	0	0	0	0	0	0	0	0	0	0	0	0	0	0	0	1	0	0	0	0	0	0	0	0	0	0	0	0	0	0	0	0	0	0	0	0	0	0	0	0	2	0	0	0	0	0	0	0	0
OTU 164	0	0	0	0	0	0	0	0	0	0	0	0	0	0	0	0	0	0	0	0	0	0	0	0	0	0	0	0	0	0	0	0	0	0	0	0	0	0	0	0	0	0	0	0	0	0	0	0	0	0
OTU 165	0	0	0	1	1	1	2	0	0	0	0	0	1	0	0	0	0	0	56	0	0	0	1	0	0	0	0	0	0	1	0	0	0	3	0	1	0	2	0	1	0	0	0	0	0	0	0	0	0	0
OTU 166	0	0	0	0	0	0	0	0	0	0	0	0	0	0	0	0	0	0	0	0	0	0	0	0	0	0	0	0	0	0	0	0	0	0	0	0	0	0	0	0	0	0	0	6	0	0	0	0	0	0
OTU 167	1	0	0	0	0	2	1	7	3	0	1	1	4	0	0	0	0	0	0	0	6	0	0	0	0	0	0	0	8	3	0	0	0	1	0	6	0	4	0	0	7	0	0	8	0	0	5	0	0	3
OTU 168	0	2	0	1	1	0	5	1	0	0	0	1	0	1	1	55	0	1	0	0	0	4	1	0	2	0	1	1	0	0	0	0	2	3	0	0	0	7	0	0	0	0	0	0	3	2	0	9	2	0
OTU 169	0	0	0	1	0	0	0	0	0	0	0	0	0	0	0	0	0	0	0	0	0	0	0	0	0	0	0	0	0	0	0	0	0	0	0	0	0	0	0	4	0	0	0	0	0	0	0	0	0	0
OTU 170	0	0	0	0	0	0	0	0	0	0	0	0	0	0	0	0	0	0	0	0	0	0	0	0	0	0	0	0	0	0	0	0	0	0	0	0	0	0	0	0	0	0	0	0	1	0	0	0	0	0
OTU 171	0	0	0	0	0	0	2	1	9	0	0	1	2	8	2	0	0	0	0	0	0	0	0	1	0	1	3	0	2	4	2	1	1	0	88	1	2	11	0	1	2	0	0	0	0	0	3	0	0	0
OTU 172	0	0	0	0	0	0	0	0	0	0	0	0	0	0	0	0	0	0	0	0	0	0	0	0	0	0	0	0	0	0	0	0	6	0	0	1	0	0	0	0	0	0	0	0	0	0	0	0	0	8
OTU 173	0	0	0	0	3	0	0	0	0	0	0	2	1	0	0	0	0	1	0	3	1	0	6	0	0	0	0	0	0	5	0	0	0	0	0	0	0	7	0	1	0	0	1	0	0	0	0	2	0	0
OTU 174	7	4	1	7	3	0	32	2	0	1	2	1	0	3	8	0	0	11	0	10	2	2	9	0	0	5	0	8	1	0	8	5	0	0	0	0	6	0	0	14	2	2	0	5	2	1	0	4	2	0
OTU 175	0	0	0	0	0	0	0	0	0	0	0	0	0	0	0	0	0	0	0	0	1	0	0	1	0	0	8	3	2	0	4	0	0	0	1	1	0	0	0	0	0	2	1	2	0	0	1	0	1	1
OTU 176	1	0	1	0	0	2	2	0	2	8	0	3	1	0	3	1	2	1	1	1	2	3	2	109	0	0	0	0	3	2	0	1	0	1	2	0	1	9	1	1	1	4	1	7	0	0	1	7	1	18
OTU 177	2	0	3	4	3	2	0	0	5	40	1	0	0	3	4	4	0	1	3	3	0	3	0	1	0	1	5	0	2	2	0	0	9	0	5	2	0	0	11	3	0	0	0	0	3	0	0	1	1	0
OTU 178	0	0	0	0	2	0	0	0	0	0	1	0	0	0	0	0	0	0	1	1	0	0	1	1	0	0	0	0	0	1	0	0	3	0	4	0	0	0	0	0	0	0	2	0	0	0	0	0	0	3
OTU 179	0	0	0	0	1	4	0	3	1	0	0	0	5	2	1	1	2	0	0	0	0	0	0	1	3	1	0	0	0	0	0	2	1	0	3	0	0	0	0	2	0	0	3	0	4	0	7	2	0	1
OTU 180	2	0	79	4	2	54	0	3	12	2	5	7	2	6	3	31	16	3	4	9	1	3	1	4	31	75	6	7	5	1	3	8	5	4	2	5	147	3	8	11	15	1	14	0	27	0	4	1	26	19
OTU 181	1	0	0	0	0	0	0	3	2	0	3	1	0	7	0	0	1	0	0	0	0	0	0	0	1	0	0	1	0	1	1	0	1	1	0	0	0	4	0	1	0	0	0	1	0	0	2	1	0	0
OTU 182	0	0	0	0	0	0	0	0	0	0	0	0	0	0	0	0	0	0	0	0	0	0	0	0	0	0	0	0	0	0	0	0	0	0	0	0	0	0	0	0	0	0	0	0	2	0	0	2	0	0
OTU 183	2	0	2	0	1	0	5	7	0	0	0	0	0	1	5	0	0	0	0	0	2	1	0	0	0	0	0	0	2	0	0	0	1	5	1	1	2	3	0	0	0	2	0	0	0	1	1	2	2	0
OTU 184	1	0	0	0	0	0	0	1	1	3	1	0	0	3	0	1	1	0	0	0	0	3	0	0	0	0	1	0	0	0	1	0	0	1	0	0	0	0	0	1	0	1	2	0	0	0	1	3	0	2
OTU 185	1	0	7	0	1	0	0	9	0	1	0	0	3	3	0	18	1	0	78	3	0	0	1	0	1	1	1	4	1	0	6	0	1	0	2	0	0	9	3	2	1	0	0	2	0	0	1	6	0	2
OTU 186	0	0	0	0	2	0	0	0	0	0	0	0	0	1	0	1	0	0	0	0	0	7	0	0	2	0	0	0	0	5	1	1	0	0	0	2	0	2	0	0	0	2	0	0	0	0	0	0	0	0
OTU 187	1	88	0	1	0	4	1	4	5	1	11	1	3	0	5	5	2	0	2	44	0	7	2	0	2	0	1	3	1	0	2	5	0	0	4	4	2	1	0	1	172	3	0	0	0	37	2	6	0	5
OTU 188	3	2	0	2	1	1	2	0	11	1	0	5	1	0	0	1	0	3	12	0	2	0	27	3	0	1	1	0	13	1	3	4	3	0	0	7	1	11	1	0	7	0	0	31	0	1	1	0	0	6
OTU 189	0	1	156	2	0	3	7	1	28	2	0	4	2	0	1	1	0	0	4	1	0	16	3	0	1	0	1	0	1	0	1	0	0	3	0	0	0	0	0	1	1	13	0	4	0	1	0	7	0	5
OTU 190	0	19	0	0	0	0	1	0	0	0	0	1	0	0	0	0	0	47	0	0	0	0	0	0	0	0	0	0	0	0	0	0	0	0	0	0	0	1	1	0	0	0	0	0	0	5	0	0	0	5
OTU 191	2	2	0	0	0	3	2	2	1	0	0	3	2	0	1	0	0	0	2	0	3	3	0	0	1	0	1	0	2	0	2	8	3	33	1	5	0	5	3	1	2	30	3	4	0	0	0	0	24	0
OTU 192	6	1	1	75	0	4	0	16	1	6	1	2	17	6	9	4	0	4	2	1	0	1	6	3	2	2	1	0	6	2	0	0	8	0	0	0	6	0	4	1	0	0	5	2	3	4	6	0	1	0
OTU 193	0	1	0	0	0	1	2	6	0	0	2	3	1	6	0	0	63	0	0	1	0	1	2	0	0	0	0	0	0	0	2	2	0	0	0	0	0	1	4	0	1	2	1	0	1	0	2	0	0	0
OTU 194	1	2	0	1	0	0	0	4	1	0	0	0	0	3	2	4	1	1	0	1	0	0	0	0	0	0	0	51	0	0	0	0	0	1	1	1	1	0	0	0	0	0	0	6	150	0	2	0	0	0
OTU 195	0	0	2	2	3	0	1	1	1	0	0	0	0	0	8	0	0	0	1	0	20	0	0	0	0	1	1	1	11	1	1	0	2	0	0	0	2	0	1	4	5	0	0	1	0	0	0	0	0	0
OTU 196	2	1	0	1	0	9	0	4	0	0	1	3	2	0	0	0	1	0	0	2	0	0	0	10	5	0	10	3	1	141	0	6	1	6	2	0	0	0	1	5	0	0	20	0	5	0	4	0	3	2
OTU 197	4	1	3	2	11	1	1	0	1	5	1	3	1	0	3	1	0	1	0	0	0	2	3	5	1	4	2	1	0	6	1	2	0	0	39	2	1	5	5	2	0	1	6	2	3	3	4	1	2	6
OTU 198	0	0	0	0	0	0	0	0	1	0	0	2	1	0	0	0	4	1	0	0	0	3	0	0	0	0	1	0	1	1	0	0	0	0	0	0	0	1	0	0	2	0	1	0	0	0	0	7	0	0
OTU 199	0	0	0	1	0	0	2	1	0	4	0	4	0	0	4	0	0	0	0	0	0	3	2	0	0	0	0	1	0	0	2	0	0	0	0	0	0	0	0	0	1	2	0	0	0	0	0	0	2	0
OTU 200	3	0	1	0	3	2	1	0	0	1	0	2	1	4	3	3	0	2	0	2	2	0	0	1	4	1	8	0	0	2	0	2	1	0	1	1	2	0	1	11	0	0	0	0	2	2	0	0	2	1
