	Host 1	Host 2	Host 3	Host 4	Host 5	Host 6	Host 7	Host 8	Host 9	Host 10	Host 11	Host 12	Host 13	Host 14	Host 15	Host 16	Host 17	Host 18	Host 19	Host 20	Host 21	Host 22	Host 23	Host 24	Host 25	Host 26	Host 27	Host 28	Host 29	Host 30	Host 31	Host 32	Host 33	Host 34	Host 35	Host 36	Host 37	Host 38	Host 39	Host 40	Host 41	Host 42	Host 43	Host 44	Host 45	Host 46	Host 47	Host 48	Host 49	Host 50	
OTU 1	38	122	19	45	46	12	48	35	58	20	22	0	1	29	29	34	21	2	7	1	22	1	5	0	2	1	119	11	10	14	82	0	0	0	159	1	1	67	71	99	5	6	26	14	104	149	57	6	6	0
OTU 2	2	19	11	13	3	2	29	32	3	0	0	0	0	3	1	0	24	13	9	7	7	1	4	1	15	3	22	0	40	0	2	0	0	1	1	2	0	18	18	0	44	8	7	0	19	20	0	10	1	50
OTU 3	2	50	36	21	3	0	8	21	237	59	1	30	1	4	1	1	98	0	4	129	0	0	19	0	1	151	12	0	37	33	28	88	106	0	1	14	37	33	80	52	1	35	96	9	1	34	0	36	10	0
OTU 4	0	0	0	0	0	0	0	0	0	0	0	0	0	0	0	0	0	0	0	0	0	0	0	0	0	0	0	0	7	0	0	0	0	0	0	0	0	0	0	0	0	0	0	0	0	0	0	0	0	0
OTU 5	135	79	75	446	3	496	1230	229	0	164	1266	217	479	772	986	361	274	10	87	110	310	2	67	0	579	104	326	585	547	33	73	195	23	56	4	346	1389	1106	65	158	12	38	875	456	7	0	547	1388	152	110
OTU 6	0	39	0	312	1	7	19	1	15	2	9	0	1	0	19	1	29	0	8	1	14	82	0	0	11	8	91	0	4	34	0	3	0	29	58	9	2	83	3	0	19	36	8	4	3	58	23	2	188	5
OTU 7	50	17	26	7	91	40	27	139	240	233	148	28	0	74	3	16	101	218	88	32	82	113	6	100	20	11	85	46	30	98	48	10	99	64	225	41	29	399	2	2	159	143	52	7	27	497	2722	112	5	87
OTU 8	31	88	32	46	54	46	131	62	32	25	20	93	27	299	26	9	130	27	54	17	89	151	8	66	4	70	40	57	642	85	29	18	51	19	111	41	106	50	12	381	5	92	9	6	2174	95	1227	66	14	14
OTU 9	271	49	13	26	0	0	1	78	1	12	10	46	3	0	68	15	3	0	26	35	0	27	2	538	57	3	116	9	57	15	0	1	0	5	0	20	8	65	6	1843	18	1	58	40	18	226	1	12	41	0
OTU 10	50	4	0	0	8	24	0	8	8	18	29	16	0	22	18	11	0	0	0	3	54	0	15	128	0	0	3	0	5	1	20	0	0	35	0	17	0	3	23	0	1	5	13	0	0	1	13	0	0	0
OTU 11	196	23	112	11	170	38	43	6	1	59	64	79	5	15	7	3	23	481	30	36	80	78	33	89	8	2	4	13	15	14	94	2	3	5	46	54	1	32	140	34	13	28	57	11	150	73	23	9	93	117
OTU 12	89	96	28	36	198	3090	200	100	83	46	14	17	10	182	55	23	125	138	60	103	121	152	6	61	9	43	14	4	10	8	18	956	2	12	93	48	20	12	53	23	26	9	8	33	56	34	27	56	32	64
OTU 13	15	0	0	0	69	0	0	1	1	0	0	0	0	6	0	27	0	0	0	0	0	1	1	5	0	0	0	0	6	2	1	0	1	0	42	3	0	0	0	0	2	0	0	0	0	8	0	0	0	0
OTU 14	7	0	7	0	0	0	131	4	0	27	0	0	26	15	0	49	1	0	1	18	0	4	2	10	0	93	0	38	10	1	5	85	5	137	0	2	2	0	0	2	4	88	8	0	1	4	7	0	3	0
OTU 15	0	11	1	3	2	0	0	117	3	0	0	0	36	0	0	0	0	0	0	8	0	0	0	0	0	0	0	26	0	0	0	0	0	0	0	2	0	0	0	0	0	0	1	2	0	63	0	0	0	0
OTU 16	0	0	0	0	0	0	0	0	0	0	0	0	4	0	0	0	0	16	0	0	0	1	0	0	0	0	0	0	0	0	3	1	0	0	0	0	0	0	0	0	0	0	0	0	0	0	0	0	0	43
OTU 17	78	47	3	16	265	2	64	11	16	10	3	20	9	37	29	89	23	130	14	150	3	14	3	213	5	18	2	5	19	2	0	25	186	93	507	2883	9	5	1	3	337	43	8	0	1	3	0	0	11	33
OTU 18	1	22	10	26	218	3	1	142	5	19	79	53	569	14	54	44	14	17	1	54	9	34	8	22	24	63	12	914	7	30	26	31	137	61	147	30	0	16	2356	13	36	73	72	12	4	151	4	35	85	60
OTU 19	0	0	0	0	0	0	0	0	0	0	0	0	0	0	0	0	0	0	0	0	0	0	0	0	0	0	0	0	1	0	0	0	0	0	0	0	1	0	0	0	0	0	0	2	0	0	0	0	0	0
OTU 20	0	15	1	3	105	11	99	217	30	182	6	31	47	137	16	87	21	126	55	163	20	119	0	27	24	2	14	45	76	49	113	0	21	155	155	15	7	69	1	43	179	16	38	1	725	31	383	4	34	417
OTU 21	23	17	449	8	104	12	45	59	11	0	24	7	192	139	27	41	7	10	20	183	18	42	219	65	0	2387	33	333	0	48	87	1112	0	181	7	887	49	37	602	33	28	32	0	9	512	18	296	9	3	14
OTU 22	26	4	36	2	49	53	8	42	543	53	49	21	37	38	6	45	114	30	6	20	128	58	21	1	6	113	27	25	6	28	126	61	159	105	377	1	168	24	2	30	33	138	10	15	0	103	580	369	34	5
OTU 23	9	0	2	0	15	630	37	0	0	6	0	86	0	2	3	6	9	1	31	0	1216	28	0	10	2031	72	2	1	19	0	1	37	2	258	22	45	14	37	0	8	8	28	8	1	22	1	0	2	1	3
OTU 24	0	1	1	2	0	2	2	3	47	0	1	19	0	67	0	3	25	12	2	1	5	2	2	10	13	68	13	0	0	141	0	23	13	4	5	0	4	24	1	10	14	24	7	1	20	7	41	21	3	15
OTU 25	0	266	0	112	0	0	0	0	0	0	0	0	0	0	96	0	0	0	0	0	0	0	0	0	0	0	0	0	8	0	0	0	0	0	0	0	0	0	0	40	0	0	0	30	0	0	1	0	0	0
OTU 26	0	0	0	0	10	0	0	0	0	11	0	0	5	0	1	0	2	0	0	0	0	0	0	0	0	0	0	0	51	0	0	0	0	50	0	0	0	0	0	6	5	0	5	0	0	0	3	0	15	4
OTU 27	76	1	0	0	0	0	0	6	0	0	0	0	0	0	0	0	0	0	6	0	0	0	0	0	0	1	0	0	0	7	0	0	0	0	0	0	0	0	0	0	0	5	0	0	0	0	0	0	0	0
OTU 28	12	261	445	147	98	50	1	20	97	248	9	211	49	6	99	89	138	4	3	182	103	1	263	48	131	3	734	203	0	12	45	1	18	14	198	9	19	145	400	479	23	28	156	56	307	1818	853	60	104	20
OTU 29	4	89	34	39	12	17	30	160	31	81	153	160	9	15	27	7	19	52	78	165	26	261	32	68	8	35	2	11	83	1389	23	40	21	19	10	145	10	8	8	1	50	13	33	20	62	31	0	14	106	1
OTU 30	0	0	0	0	0	0	0	0	0	0	0	0	0	0	0	0	0	0	0	0	0	0	0	0	0	0	0	0	0	0	0	0	0	0	0	0	10	0	0	0	6	9	0	0	0	3	0	0	1	0
OTU 31	3	68	0	17	0	541	3	3	12	0	0	9	1	20	63	0	13	84	19	232	1140	0	1	2	0	0	1	3	643	167	12	0	21	28	0	3	8	1	0	12	2	8	3	20	9	2	2	15	55	14
OTU 32	4	39	26	28	35	1098	16	56	57	40	2	8	266	27	20	35	40	54	9	57	64	4	6	142	12	32	98	544	151	49	40	29	11	25	63	834	7	23	8	11	21	43	47	16	92	8	25	104	24	9
OTU 33	0	0	11	0	0	0	0	0	0	3	0	0	4	1	0	0	22	0	0	15	0	1	14	37	48	0	1	0	6	0	0	0	0	0	0	1	0	0	0	0	0	0	95	0	0	0	4	7	0	0
OTU 34	2	47	24	23	0	8	69	23	111	5	24	30	60	107	41	5	90	498	8	23	14	84	2	97	5	1	9	6	3	83	1	3	180	14	1	2	735	6	55	21	4	30	17	29	81	55	11	1793	36	317
OTU 35	22	29	0	8	2	23	716	62	58	11	18	51	3	9	1	47	83	12	44	65	38	158	8	34	0	2	122	15	18	177	10	1	17	28	3	3	32	16	0	1391	58	12	7	7	5	37	2	11	72	616
OTU 36	21	26	3	30	5	50	15	24	25	112	6	2	11	40	1	344	30	3	2	57	88	1	0	2	0	30	3	11	24	6	1	6	0	8	6	29	0	2	2	63	53	12	0	12	0	5	5	0	30	9
OTU 37	0	0	1	0	29	0	0	0	2	0	0	0	1	48	1	0	27	0	23	4	0	0	0	2	0	90	0	5	1	8	0	89	0	0	0	63	7	0	0	43	0	35	6	0	25	0	0	3	0	1
OTU 38	134	143	83	100	31	65	91	19	4	1	75	147	2	18	1171	101	15	111	98	9	132	1	35	94	0	6	2	4	48	1	14	2	157	66	5	4	2	3	7	139	62	28	25	697	60	35	47	6	2	88
OTU 39	14	151	0	64	3	0	1	0	0	2	1	24	0	0	41	0	0	0	1	0	0	22	0	0	7	7	1	0	0	6	1	0	0	0	0	1	0	0	0	0	0	2	18	35	0	45	0	0	34	0
OTU 40	7	9	8	5	33	14	84	32	53	52	2	0	12	196	1	12	12	6	2	0	26	20	0	75	28	76	36	27	41	48	26	63	12	64	5	28	0	0	30	18	81	41	31	7	49	12	18	56	233	0
OTU 41	98	328	3	163	15	6	15	86	9	1	414	21	16	16	187	26	13	0	0	16	19	14	0	45	8	44	32	8	22	0	2	33	83	11	247	0	22	26	0	47	5	19	0	124	1	0	1	78	18	236
OTU 42	50	0	11	0	0	2	0	0	27	1	0	0	0	0	1	5	0	19	16	40	2	9	15	55	0	0	1	1	0	0	2	0	0	11	1	0	0	0	0	0	0	3	7	0	0	0	12	22	65	1
OTU 43	0	0	0	0	0	0	0	0	0	0	0	0	1	0	0	0	0	0	0	0	0	0	0	0	0	0	37	0	11	0	0	0	0	1	0	0	0	67	0	4	0	0	0	0	0	0	1	0	0	0
OTU 44	2	1	0	0	11	0	24	0	25	0	0	0	0	0	0	2	0	0	0	27	0	0	1	0	0	1	0	0	0	5	0	0	4	23	50	0	0	0	0	2	1	0	1	0	0	0	1	6	4	12
OTU 45	79	0	37	0	66	7	21	53	4	83	3	9	46	236	5	6	165	69	9	21	16	73	16	119	8	58	53	10	3	8	49	18	51	203	28	17	5	5	16	31	52	156	5	28	55	55	39	30	44	45
OTU 46	51	27	68	19	0	41	17	60	8	31	1193	31	1	29	1	42	63	160	80	80	98	0	24	26	13	4	32	25	41	9	12	2	13	7	20	56	0	20	17	64	21	53	0	0	3	17	0	14	88	32
OTU 47	45	0	0	1	0	0	0	0	0	0	0	0	0	1	0	0	0	0	0	4	0	32	0	5	0	0	25	44	0	8	4	0	1	0	0	0	0	10	1	39	62	0	0	0	0	31	0	1	0	0
OTU 48	37	65	29	40	144	33	32	141	197	2	20	554	276	24	15	6	29	11	313	18	59	90	20	42	4	127	770	552	143	123	0	103	36	139	0	14	3	416	1	19	86	70	4	27	9	12	29	84	3	25
OTU 49	12	2	2	0	3	2	60	14	9	25	21	4	4	1	0	39	22	12	0	165	1	96	28	2	1	34	20	2	80	11	3	0	78	4	10	13	14	0	6	16	16	6	47	0	12	0	9	1	10	34
OTU 50	26	76	18	33	64	20	16	77	30	1070	12	16	13	12	44	17	34	96	12	16	49	38	10	41	424	13	9	8	4	54	10	7	32	1	92	3	32	1	25	59	227	75	691	2405	5	5	14	5	8	4
OTU 51	16	3	2	0	2	0	0	36	2	1	16	57	23	0	7	1	15	44	50	30	1	19	0	44	3	3	0	1	21	9	5	0	16	1	23	4	7	1	8	103	1	53	0	0	20	1	8	25	268	10
OTU 52	59	110	35	46	94	19	65	144	6	3	2	29	10	63	23	52	91	145	179	8	44	130	17	96	2	29	115	3	577	5	120	7	22	113	114	21	93	112	32	94	39	8	8	14	74	6	2	74	135	48
OTU 53	0	4	0	0	2	0	0	16	0	0	0	0	0	0	5	0	8	0	0	0	0	0	0	0	0	0	0	0	0	0	0	0	0	0	0	0	0	0	0	0	1	0	0	0	0	0	0	0	3	0
OTU 54	10	16	59	19	3	58	12	127	61	55	59	43	45	7	20	22	73	56	59	44	143	108	51	53	37	79	52	41	53	77	1	42	72	55	57	40	6	209	49	39	102	26	66	12	52	31	76	37	148	71
OTU 55	0	0	0	0	0	0	0	0	0	0	0	0	0	0	0	0	0	0	0	0	0	0	0	0	0	0	0	0	3	0	0	0	0	0	0	0	0	0	0	0	0	0	0	0	0	0	0	0	0	0
OTU 56	1	34	2	23	51	4	0	0	2	0	1	12	2	10	17	4	35	13	1	11	2	8	1	11	2	10	77	11	0	10	7	7	3	0	58	0	2	56	25	15	12	44	0	29	16	37	20	8	125	5
OTU 57	121	24	135	23	455	9	38	63	136	41	84	120	155	169	45	72	52	271	63	7	16	185	52	151	21	74	150	131	113	109	144	23	29	196	580	40	40	46	101	52	195	43	63	51	162	240	41	14	75	171
OTU 58	12	10	0	0	12	0	86	7	8	1	16	1	17	19	0	0	1	1	4	0	0	30	0	1	3	4	127	0	26	1	0	1	8	2	16	8	1	49	0	4	37	11	0	0	0	53	2	1	36	0
OTU 59	0	58	13	43	98	0	0	5	3	15	4	38	4	106	30	36	312	31	48	45	0	6	14	98	4	0	4	1	58	0	66	0	19	0	48	0	16	7	22	4	0	6	6	3	10	33	15	61	24	18
OTU 60	6	45	2	16	72	24	12	157	82	388	18	84	326	22	43	71	64	93	1	120	52	400	7	64	91	25	819	27	318	0	0	16	53	21	157	56	10	247	65	134	803	51	225	5	1	157	36	38	142	61
OTU 61	11	265	16	139	380	2	12	69	294	155	60	35	16	20	148	216	70	62	23	230	2	91	11	140	24	2	21	19	200	6	209	1	58	84	28	5	56	13	2107	76	210	51	24	82	11	67	11	64	72	61
OTU 62	0	0	1	0	15	0	2	0	2	42	16	0	0	0	0	0	0	0	0	8	0	0	308	0	0	7	5	4	13	13	32	1	0	1	3	3	0	0	0	2	0	0	0	8	0	47	4	15	0	1
OTU 63	62	30	20	15	60	2	33	0	6	2	30	141	11	60	26	4	48	4	0	0	2	1	5	75	1	209	11	20	2	0	18	102	24	151	147	106	16	0	7	5	0	0	3	5	23	5	8	23	72	1
OTU 64	17	28	39	9	59	14	59	34	90	65	79	141	3	92	9	47	87	177	57	50	30	99	25	233	12	0	98	37	8	13	27	4	41	83	13	36	7	53	12	80	137	48	23	8	30	49	18	15	86	19
OTU 65	0	0	0	2	0	0	0	0	0	0	0	4	0	1	0	0	0	0	0	0	0	0	0	3	0	0	0	0	6	0	0	0	0	0	0	0	6	0	0	0	0	15	0	0	0	9	0	0	0	0
OTU 66	34	62	29	34	130	38	16	94	173	11	20	44	10	81	36	36	189	102	5	142	75	23	8	0	2	0	3	10	36	37	69	16	55	24	39	1	27	3	17	130	96	81	17	21	3	26	5	91	2	85
OTU 67	7	100	0	43	29	0	6	18	41	11	0	1	7	7	48	9	39	36	3	120	1	54	0	9	3	22	0	1	120	47	4	5	373	16	1	8	38	3	21	28	68	21	14	18	16	98	3	10	110	7
OTU 68	3	5	45	0	939	45	8	13	36	6	0	12	0	0	3	4	23	7	0	27	88	5	12	28	0	141	0	0	0	135	8	49	38	86	0	28	7	8	53	39	0	11	0	7	58	130	16	11	0	0
OTU 69	6	16	36	2	56	46	7	13	6	3	6	1	5	167	8	0	20	166	3	1	112	6	0	7	10	46	3	9	0	58	104	21	157	17	2	3	6	15	35	112	42	20	19	1	8	21	13	5	19	33
OTU 70	87	38	37	22	0	0	0	1	78	0	25	35	0	24	6	15	14	156	0	0	1	9	4	18	5	60	14	11	0	38	1	8	16	1	2	24	2	2	43	0	0	0	7	2	8	2	0	14	6	46
OTU 71	21	0	0	0	0	8	6	9	85	4	0	2	0	32	4	0	1	16	7	51	16	1	5	81	0	18	0	8	28	22	0	23	0	11	2	0	41	0	6	2	6	2	0	4	13	3	19	76	9	0
OTU 72	151	28	0	10	23	15	6	227	61	10	21	63	113	33	8	0	18	72	14	26	45	4	4471	66	4	5	46	137	65	7	28	0	44	6	26	48	0	121	3	5	21	76	24	5	23	0	2	43	10	70
OTU 73	1	254	36	109	33	11	0	22	98	4	0	7	4	30	85	0	92	20	347	15	28	0	8	74	10	135	202	8	2	15	0	23	23	179	78	9	6	51	18	54	31	22	4	31	11	0	2	35	8	1
OTU 74	30	3	6	5	2	13	279	65	131	12	7	9	6	449	9	7	4	375	0	173	25	29	24	4	22	41	24	0	27	110	1	37	152	27	40	68	375	8	2	14	24	37	45	1	103	12	4	114	29	95
OTU 75	21	14	49	2	46	54	20	262	13	3	38	86	41	16	1	73	135	215	12	1	106	24	47	223	1	287	9	146	31	32	116	85	5	920	395	149	69	5	24	0	160	261	11	4	30	56	14	19	14	94
OTU 76	174	3	3	1	15	0	1	8	0	134	3	11	4	25	565	0	0	31	7	33	2	1	0	145	9	10	10	0	2	0	39	31	75	27	114	1	1	9	0	0	2	4	18	169	8	86	0	0	11	0
OTU 77	92	39	35	23	1	17	28	30	17	61	12	53	90	98	51	38	0	46	27	28	36	9	16	78	3	10	3	35	2	77	6	0	40	24	52	2	1	34	24	101	2	113	20	41	69	40	30	14	9	13
OTU 78	44	44	1	34	1	4	0	125	3	16	48	5	21	44	8	8	4	37	0	27	10	9	2	155	11	91	17	0	41	57	23	39	75	181	0	37	15	3	20	9	48	38	0	0	1	109	5	0	1	10
OTU 79	167	220	124	133	268	165	84	69	52	108	53	279	45	11	115	72	346	194	73	83	289	133	34	282	14	84	1473	39	159	577	148	74	108	460	214	85	69	781	116	108	177	531	57	32	73	320	29	83	98	201
OTU 80	140	102	89	33	15	5	162	137	57	7	0	25	0	94	35	28	2	64	354	193	7	179	50	46	3	54	44	13	0	69	71	16	206	19	49	56	5	54	1	24	49	6	13	19	5	138	12	7	5	13
OTU 81	35	28	251	26	44	6	59	342	141	63	29	60	77	21	55	22	152	115	34	63	17	101	102	145	6	37	50	321	15	1832	37	12	21	6	17	28	196	26	319	51	96	11	26	10	83	26	88	170	1417	142
OTU 82	792	2	8	0	33	74	91	0	24	1	1	0	0	135	0	6	52	56	33	4	144	4	9	1633	1	75	7	4	1	2	14	48	76	129	1	9	8	1	0	154	115	39	7	6	14	5	1	6	197	20
OTU 83	0	9	17	0	0	105	0	0	0	0	0	1	0	4	0	0	0	0	0	77	180	1	14	0	5	66	0	0	26	1	0	21	40	59	0	0	1	0	0	7	12	1	0	1	12	0	0	0	4	0
OTU 84	49	124	6	70	7	32	25	7	37	71	14	0	5	6	72	22	0	12	0	14	50	46	10	40	15	6	28	0	0	0	13	8	0	1	193	0	2	48	33	17	47	94	30	14	0	0	21	1	25	0
OTU 85	8	25	0	9	30	0	7	0	8	0	2	1	1	0	0	7	1	0	0	0	1	0	15	0	1	0	0	19	12	0	4	0	8	0	0	583	34	1	0	15	0	14	0	1	0	106	0	5	76	0
OTU 86	0	0	0	0	17	0	4	35	0	0	28	9	0	1	0	0	0	0	0	41	0	0	0	0	0	0	0	0	0	0	0	0	1	42	0	0	0	0	0	0	3	0	0	0	0	0	0	0	21	0
OTU 87	8	127	0	35	181	0	48	0	4	14	0	5	0	85	67	0	1	7	82	1	0	32	0	3	0	0	1	5	1203	0	0	6	5	1	0	1	0	2	21	9	0	6	16	37	0	15	0	0	56	38
OTU 88	2	0	3	0	1	0	0	4	38	0	0	0	3	3	1	0	10	0	0	5	0	6	0	23	0	7	0	0	0	17	0	0	1	7	5	0	0	0	0	0	7	1	0	0	7	2	2	0	796	0
OTU 89	6	4	15	0	89	0	245	7	0	5	14	32	2	335	0	3	143	181	0	1	0	37	4	2	39	3	2	1	29	0	2	15	10	4	10	14	0	6	0	33	0	6	47	2	2	2	1	0	33	75
OTU 90	1	18	0	1	48	0	15	1	0	18	0	0	0	0	1	0	14	27	0	0	0	14	0	0	1	0	0	2	0	0	0	0	57	4	6	6	13	0	0	0	25	2	8	0	0	0	0	99	0	34
OTU 91	0	0	0	0	23	4	0	0	3	0	0	0	0	7	0	0	29	0	0	3	9	0	0	0	0	0	0	2	0	0	0	0	0	5	54	0	0	0	0	0	120	0	0	0	6	0	0	0	0	0
OTU 92	0	0	15	0	0	0	0	0	15	1	0	30	0	69	0	6	0	55	36	11	0	0	4	0	0	9	0	0	0	8	9	0	0	1	0	0	0	0	2	1	0	5	1	0	0	0	0	19	0	40
OTU 93	1	0	16	0	0	0	75	0	0	0	1	0	0	0	3	27	0	0	0	0	0	0	5	0	0	0	0	0	0	0	0	0	0	2	1	0	1	0	0	0	0	0	0	0	0	0	1	0	2	0
OTU 94	10	45	28	23	14	15	23	2	235	23	10	26	31	9	23	0	124	12	9	144	39	10	3	3	29	2	77	167	35	10	16	2	2	123	12	8	32	14	58	43	16	104	95	17	81	34	35	98	9	1
OTU 95	11	25	0	11	0	0	0	400	1	0	0	25	0	0	7	0	0	0	19	0	0	102	0	4	0	8	35	2	6	212	31	6	60	115	274	1	3	0	2	0	90	69	0	2	0	0	5	0	5	0
OTU 96	0	11	45	4	0	10	0	0	0	0	0	6	0	18	0	16	0	122	0	0	19	0	19	0	5	0	2	4	0	0	0	0	25	0	0	0	0	31	25	0	7	0	18	0	36	1	61	0	31	24
OTU 97	0	0	0	0	0	0	0	30	0	0	0	16	0	37	1	0	47	11	0	14	0	1	0	15	1	0	11	0	0	4	4	0	0	0	1	0	27	0	0	0	7	5	2	0	0	108	0	0	38	1
OTU 98	0	0	16	0	0	0	0	12	1	0	5	0	2	39	0	1	0	1	29	13	0	8	2	8	0	0	0	1	1	0	3	4	81	5	34	0	1070	0	2	40	0	0	0	1	2	0	3	2	37	20
OTU 99	35	66	7	28	49	2	18	325	144	17	11	89	3	14	52	62	23	23	32	76	6	1862	15	19	2	65	76	67	9	47	142	25	3	26	42	29	40	43	1	7	42	115	7	24	62	46	19	77	29	29
OTU 100	2	43	21	36	7	0	1	81	4	1	16	22	6	68	31	0	31	0	26	1	0	48	21	49	0	28	0	1	46	8	1	15	42	62	75	0	23	0	2	0	39	15	0	12	0	26	0	13	0	11
OTU 101	2	0	0	0	8	0	11	8	3	0	94	1	4	2	0	0	25	0	5	0	0	0	0	24	2	17	0	0	0	0	3	1	0	3	0	1	0	0	0	17	2	6	0	0	0	0	3	0	0	0
OTU 102	42	30	64	4	0	0	0	0	185	0	0	1	6	6	19	1	129	8	3263	25	0	0	15	0	0	2	0	0	32	65	1	3	21	38	0	22	6	0	0	19	14	0	0	10	1	0	0	19	12	4
OTU 103	0	161	0	82	54	22	1	16	22	0	54	35	0	0	79	21	3	0	41	1	50	4	3	3	36	71	36	1	18	5	47	43	16	4	1	84	10	28	0	0	59	1461	1	57	0	0	14	0	41	10
OTU 104	64	6	0	0	48	28	29	90	35	15	22	205	35	22	2	101	143	149	0	105	55	31	0	160	1	8	131	27	134	129	23	2	19	48	125	135	2	64	15	2	50	5	28	5	20	261	31	1	32	84
OTU 105	0	29	20	20	2	0	1	0	4	2	0	0	0	0	43	0	0	4	5	1	0	0	11	2	0	0	1	0	0	0	0	1	0	19	0	2	13	0	0	11	0	0	0	8	0	0	4	19	0	4
OTU 106	0	27	0	10	1025	0	18	0	100	0	1	35	0	42	28	452	0	0	63	0	0	0	0	0	0	148	0	0	2	0	4	68	0	0	0	0	39	4	2	0	0	0	1	27	0	1	0	28	0	2
OTU 107	0	42	0	23	2	0	0	0	106	33	2	0	3	187	24	4	0	0	3	1	1	37	0	19	26	11	175	7	2	126	1	4	2	5	0	0	54	61	3	30	0	62	7	6	2	2	0	78	0	40
OTU 108	48	103	21	52	1	16	3	29	4	0	4	7	4	12	27	17	263	113	11	21	34	12	17	24	0	4	1	0	5	31	2	1	40	41	1	0	2	0	5	99	9	0	1	11	27	5	8	0	2	33
OTU 109	0	0	0	0	0	0	0	0	0	3	0	0	12	0	0	0	0	0	0	3	0	0	0	0	0	0	0	0	0	0	0	0	28	1	0	0	0	0	0	0	13	0	0	0	0	0	0	0	0	1
OTU 110	6	112	22	60	36	0	66	122	63	5	2	0	1	20	81	0	0	2	5	0	0	134	4	10	195	64	11	0	67	61	28	16	0	25	1	0	19	57	12	10	33	35	354	62	48	156	19	59	12	23
OTU 111	0	1	15	0	0	0	10	2	9	0	1	0	1	0	0	0	1	72	0	10	0	0	1	0	0	5	8	0	0	0	1	10	0	14	3	0	3	0	15	13	0	0	0	0	0	0	0	19	0	35
OTU 112	1	12	0	4	31	3	2	3	0	5	10	54	13	0	0	0	2	1	0	0	4	11	0	0	15	0	1	48	11	9	14	0	9	9	51	38	0	5	0	6	1	3	23	0	9	8	0	1	4	8
OTU 113	18	22	16	6	3	0	0	0	0	7	0	0	0	0	3	0	0	0	6	56	0	0	2	4	1	0	21	0	0	0	0	0	43	0	0	0	1	2	2	0	0	0	0	0	0	0	0	0	0	0
OTU 114	74	56	5	38	54	87	22	38	542	260	2889	72	5	30	13	22	620	19	26	109	162	11	1	19	14	41	34	9	149	66	1599	2	1	27	8	37	48	42	15	48	133	112	24	21	55	0	25	294	74	35
OTU 115	20	14	77	19	75	123	109	87	13	381	12	47	7	89	5	37	124	21	84	97	277	78	42	82	468	69	121	49	17	10	233	11	62	51	20	22	48	291	4	19	6	42	513	4	26	13	23	4	113	39
OTU 116	282	12	61	15	53	8	3	101	184	26	1	63	104	5	0	0	8	94	17	125	13	6	35	15	10	20	74	6	71	37	22	5	18	173	120	31	26	45	34	39	129	139	55	2	24	43	4	57	16	53
OTU 117	9	0	1	1	40	50	5	47	132	120	2	1	1	13	0	0	141	0	3	2	90	89	0	0	10	193	12	87	94	6	62	174	7	66	14	61	0	0	2	28	16	13	25	3	12	61	16	45	3	1
OTU 118	4	7	0	5	0	5	0	0	85	2	0	0	27	0	0	16	3	0	3	2	4	2	0	17	2	1	16	25	0	0	10	2	0	1	0	0	0	0	0	0	3	1	8	2	0	1	3	0	36	0
OTU 119	6	6	242	7	33	17	46	65	247	7	0	26	8	101	204	1	144	354	11	150	59	136	89	41	0	3	143	54	142	32	113	2	54	13	4	42	79	1066	142	130	23	158	10	164	100	63	87	120	11	76
OTU 120	1	23	0	11	0	0	4	9	80	0	9	52	10	35	13	6	0	1	52	4	0	1	0	0	0	4	3	5	0	6	3	4	2	5	7	0	8	0	29	0	18	3	0	0	1	1	0	16	76	0
OTU 121	32	58	0	27	19	19	0	4	0	33	0	25	7	28	38	104	0	3	44	28	31	2	1	4	23	28	0	0	0	1	9	17	3	57	25	3	1	0	0	3	94	0	26	28	0	39	0	1	6	28
OTU 122	74	226	18	210	65	32	1082	179	4	66	7	5	0	823	65	5	44	13	69	14	63	68	13	2	14	25	4	0	34	1	11	11	11	1	234	4	4	4	19	11	169	46	11	12	6	0	4	6	9	0
OTU 123	67	111	115	62	131	88	67	193	596	44	126	117	40	72	23	16	416	192	279	257	179	253	54	189	26	106	184	116	106	50	229	104	159	111	209	37	136	2407	168	132	317	218	23	26	146	232	70	454	187	71
OTU 124	0	0	0	0	9	0	0	0	1	0	2	0	3	0	0	0	7	18	4	0	0	7	0	0	0	0	9	0	0	0	0	0	15	11	0	1	0	9	12	0	0	120	1	7	0	0	0	0	10	3239
OTU 125	120	213	205	119	28	643	61	77	15	46	60	25	287	87	117	80	216	118	105	600	1232	299	77	61	24	85	59	475	89	134	71	53	74	92	49	56	19	12	163	150	231	509	21	51	184	82	137	6	773	117
OTU 126	0	0	0	0	0	0	14	13	62	13	0	12	1	13	2	0	0	2	0	0	0	0	0	0	10	17	0	0	0	0	8	0	0	0	2	35	0	2	0	0	10	55	5	0	0	3	0	6	6	0
OTU 127	7	25	1857	11	0	1	9	65	0	1	12	13	0	10	12	15	89	2	9	12	4	55	1032	42	5	0	31	14	0	5	4	0	5	5	2	3	10	14	0	27	6	2	0	9	0	12	2	0	3	13
OTU 128	133	276	67	156	58	69	103	81	443	113	24	101	114	232	191	257	252	531	74	58	132	163	66	237	30	82	20	261	64	123	183	27	729	53	112	54	131	41	88	250	473	259	27	96	27	125	20	206	173	290
OTU 129	0	0	0	0	18	0	0	0	0	0	1	0	0	0	0	0	0	0	1	0	0	1	0	0	38	40	0	11	0	0	33	13	0	70	0	39	0	0	0	130	14	0	8	6	19	43	1	0	0	2
OTU 130	1	17	5	9	17	8	2	27	45	12	26	337	6	1	7	5	101	7	80	7	31	8	2	5	5	25	50	1	13	180	161	10	34	3	3	57	51	12	3	1	25	27	0	0	22	12	8	43	97	2
OTU 131	8	23	16	22	10	7	3	287	71	29	58	81	0	5	6	9	23	1	87	2	15	11	23	5	69	95	28	3	0	330	58	77	0	9	1	40	7	0	22	53	11	0	95	4	2	0	8	56	10	8
OTU 132	3	20	0	7	1	39	23	5	26	0	64	5	2	5	17	0	18	0	12	2	87	0	1	7	1	0	0	2	18	4	2	0	0	9	17	1	21	0	6	67	1	51	0	8	68	3	1	25	0	6
OTU 133	48	2	12	4	0	4	9	0	14	0	0	4	0	0	0	3	0	0	0	0	5	0	0	0	0	0	27	0	0	0	28	0	7	1	22	0	0	2	0	0	27	0	0	0	4	63	2	0	1	0
OTU 134	21	8	1	3	0	7	47	17	2	27	5	82	27	18	3	18	1	31	27	189	29	22	0	76	10	62	98	22	76	104	23	26	5	14	10	22	31	26	8	2	104	105	86	16	17	10	25	62	53	8
OTU 135	20	20	2	8	0	0	54	114	120	47	0	1	3	11	21	24	0	57	13	9	0	1	168	4	1	31	16	48	3	24	11	19	2	0	36	7	24	9	0	4	63	58	0	5	30	59	7	95	19	33
OTU 136	22	36	10	11	57	21	2	0	7	0	8	75	0	35	14	28	115	0	23	176	60	1	8	10	0	12	7	4	40	0	88	0	114	24	184	30	23	2	60	13	0	2	6	8	38	4	32	246	0	1
OTU 137	5	28	43	11	0	0	0	0	49	0	22	60	1	30	1	5	19	0	0	17	0	6	41	0	0	2	0	0	0	6	20	0	79	7	0	20	23	0	16	0	52	2	0	6	5	70	7	22	396	10
OTU 138	10	5	6	10	13	0	1	0	16	1	0	4	15	0	5	0	2	2	21	8	1	0	0	0	1	80	15	0	57	37	0	35	7	2	31	0	0	0	0	1	0	1	0	5	11	0	10	0	0	1
OTU 139	116	22	90	12	48	23	14	228	100	63	12	99	15	15	4	31	13	43	135	75	38	282	47	138	91	16	12	103	129	3	70	7	23	28	109	8	417	35	79	531	122	26	78	10	22	75	14	788	39	7
OTU 140	43	85	43	29	29	24	1767	194	232	346	449	65	48	19	87	510	334	32	53	268	35	142	14	152	1955	93	45	112	59	39	76	267	2241	73	318	62	1091	11	35	40	62	272	83	34	28	178	9	127	160	22
OTU 141	0	0	0	0	0	0	6	0	0	0	0	0	0	0	0	0	0	0	0	0	0	0	0	0	0	0	0	0	0	0	0	1	0	0	0	0	0	0	1	0	0	0	0	0	0	0	0	0	0	0
OTU 142	0	4	0	7	0	7	0	0	0	0	0	0	0	0	0	0	0	0	0	0	17	6	0	0	0	0	0	0	0	0	2	0	10	15	0	0	1	0	0	0	0	0	0	0	0	1	0	0	47	0
OTU 143	0	0	0	0	14	1	0	0	31	0	3	5	0	0	0	0	3	12	0	97	1	7	0	3	9	0	0	0	4	0	0	1	0	1	36	0	0	6	0	51	0	0	1	0	3	126	1	14	7	0
OTU 144	1	0	16	0	0	0	0	0	0	6	1	1	3	1	0	0	14	0	0	0	0	0	14	2	15	1	0	0	0	0	0	33	12	0	0	1	0	7	0	3	3	0	9	0	0	0	1	5	0	0
OTU 145	33	566	3	278	30	8	45	76	14	19	3	39	36	488	274	2	25	461	1	171	11	82	2	0	14	45	26	42	25	3	41	41	22	81	10	0	2	9	8	0	50	7	75	118	43	42	13	21	519	205
OTU 146	4	48	8	25	29	18	16	0	8	2471	72	35	0	5	0	10	5	40	11	57	30	8	0	85	526	33	100	17	6	3	32	22	55	22	11	11	6	16	49	218	148	15	855	11	59	18	25	2	38	9
OTU 147	0	0	7	2	9	65	68	54	3	3	19	0	14	19	0	1	243	3	2	8	121	0	6	0	0	59	0	0	29	176	139	15	69	5	2	1	10	0	12	0	0	10	3	1	1	7	6	14	0	0
OTU 148	7	118	0	66	70	5	21	0	21	1	21	20	14	101	40	0	0	14	2	0	19	0	2	1	6	599	19	101	22	76	1	287	26	1694	0	258	0	44	0	25	5	0	0	31	18	36	0	2	84	12
OTU 149	33	22	7	6	0	0	4	9	0	0	0	9	0	0	12	0	44	86	0	77	0	0	0	13	22	8	0	0	23	0	3	25	12	40	7	10	0	1	13	15	0	0	84	0	0	0	2	18	0	10
OTU 150	0	0	0	2650	0	0	1	0	41	17	0	0	0	9	0	1	27	4	16	0	2	242	0	25	0	30	12	2	12	1	0	10	22	0	1	29	0	0	12	30	45	33	0	0	77	12	12	0	0	6
OTU 151	0	0	20	1466	0	30	0	7	30	23	4	0	0	5	1	6	5	3	5	61	58	36	8	1	5	4	4	17	1	10	16	1	2	49	87	79	17	41	9	48	34	5	13	0	17	13	0	22	7	1
OTU 152	40	62	7	38	51	18	7	204	139	14	59	71	30	81	36	29	4	30	6	5	31	35	7	2	3	67	3	19	25	49	3	21	6	13	0	8	31	2	6	161	37	98	11	13	1	3	5	21	12	13
OTU 153	2	0	0	0	0	0	0	2	0	0	0	0	0	3	0	0	3	17	0	0	3	0	0	0	0	0	0	8	0	1	0	0	0	0	0	0	0	0	0	0	4	0	0	0	0	39	0	0	0	18
OTU 154	3	3	0	4	0	0	0	0	1	0	0	1	0	0	0	0	0	0	1	0	0	2	5	3	413	37	0	0	0	1	0	12	2	15	0	27	0	0	0	0	0	0	594	0	0	0	2	0	0	0
OTU 155	0	0	0	0	0	0	0	21	1	18	16	2	0	8	1	0	2	64	4	4	0	15	2	7	12	0	38	22	17	4	50	0	2	8	6	0	0	1	13	0	0	27	0	0	4	52	0	0	19	54
OTU 156	11	59	25	23	5	55	17	102	16	39	18	42	16	24	51	62	65	45	54	1231	118	32	11	41	9	34	9	2	54	37	0	1	62	123	93	35	4	2	23	27	158	183	1	35	199	53	106	24	39	12
OTU 157	1	0	3	0	34	0	20	0	0	0	0	8	0	141	0	0	14	301	1	4	0	2	1	0	0	11	0	2	0	0	0	1	0	2	14	12	0	0	8	0	4	22	11	0	0	0	0	0	5	275
OTU 158	0	0	0	3	48	0	0	0	0	0	0	0	0	5	0	0	14	0	0	0	0	8	0	0	0	0	0	0	0	4	0	0	0	6	3	6	0	0	0	0	10	0	2	0	0	0	0	1	3	0
OTU 159	0	82	48	37	0	7	410	3	6	0	44	1	35	655	45	51	6	0	29	8	26	28	21	31	3	6	38	31	234	10	0	0	63	26	26	1	23	0	61	0	41	93	0	17	15	64	8	2	0	16
OTU 160	25	359	30	162	286	43	33	104	205	37	31	50	14	161	2342	4331	16	75	57	130	84	130	20	51	14	8	26	45	100	80	135	0	71	168	302	41	1808	32	37	61	72	28	7	1283	64	87	4	69	39	21
OTU 161	431	72	11	42	190	0	48	9	26	6	4	99	4116	37	20	1	55	52	22	52	0	1	16	731	4	32	20	1	2	8	117	25	0	10	60	0	9	0	56	4	22	0	3	23	1280	447	514	5	2	13
OTU 162	2440	237	0	120	82	6	59	31	13	19	13	10	18	7	154	136	9	3	2	41	17	11	0	25	0	23	26	22	98	35	9	0	79	140	5	4	17	17	6	47	74	15	6	52	12	38	1	8	52	0
OTU 163	0	0	0	0	0	0	0	0	0	0	164	2	2	0	0	0	0	8	0	0	0	0	0	0	0	115	0	0	0	0	2	48	0	0	0	0	0	0	0	0	0	0	0	0	0	0	0	0	0	0
OTU 164	0	0	0	0	14	0	0	155	0	0	1	5	0	0	0	7	3	0	0	0	0	0	0	0	6	0	0	0	0	25	0	0	0	0	31	0	0	0	0	0	0	0	0	0	0	9	0	0	16	0
OTU 165	14	20	23	4	2	2	11	14	32	0	45	0	5	54	11	8	27	19	8	2	5	15	13	33	9	27	28	29	0	9	9	3535	41	1	0	23	8	16	0	2	9	0	3	0	0	0	15	0	0	10
OTU 166	0	0	0	0	0	3	0	0	0	0	0	4	0	0	0	0	21	0	0	0	1	0	0	0	0	0	0	0	8	0	0	0	2	0	0	0	0	0	0	0	0	1	0	0	0	0	0	0	0	0
OTU 167	0	24	8	11	3	6	48	154	59	6	0	25	1	46	3	0	31	0	69	94	15	29	0	0	0	1	154	1	86	49	0	6	32	6	9	1	38	47	4	5	51	28	0	2	0	130	3	53	19	0
OTU 168	44	4	28	7	44	93	21	6	39	71	1	19	1	121	13	2	7	59	116	5	0	32	6	36	7	86	5	8	92	0	0	46	26	1	14	0	1	2	0	21	61	60	35	15	0	46	0	0	5	0
OTU 169	7	35	0	15	0	0	7	0	1	0	0	0	2	0	24	14	0	0	0	0	0	0	0	55	0	16	0	0	0	0	0	6	0	0	0	0	0	0	0	0	0	0	0	6	0	6	0	1	22	0
OTU 170	25	0	0	0	0	1	0	0	0	2	0	0	0	0	0	3	0	7	0	0	1	0	0	0	0	0	0	0	0	0	0	0	0	0	0	0	11	1	0	0	2	1	20	0	0	0	0	0	0	0
OTU 171	96	115	5	68	107	0	3	8	133	6	0	19	0	0	69	142	43	1	0	30	0	29	3	75	3	0	0	4	6	18	151	4	1	10	368	16	18	19	4	9	27	23	0	21	0	5	1	51	99	6
OTU 172	1	0	0	0	0	3	0	222	0	0	0	0	0	0	0	57	7	0	0	0	2	0	5	0	9	0	1	0	7	85	0	0	0	0	0	0	0	11	0	0	18	0	6	0	0	0	8	0	0	0
OTU 173	0	72	1	51	2	3	0	11	0	16	4	5	2	0	36	1	65	0	0	19	6	76	0	1	9	4	0	4	18	1	0	2	0	10	2	2	4	0	0	3	0	31	0	12	16	0	0	37	2	0
OTU 174	1	29	1	25	0	1	31	18	17	6	493	17	23	13	16	50	12	129	11	80	11	5	0	3	0	1	6	92	11	1	1134	5	9	10	105	3	12	2	4	0	10	0	2	18	0	7	0	0	32	52
OTU 175	6	16	0	14	25	0	18	0	2	57	24	4	3	71	11	29	40	0	67	3	0	65	1	0	42	18	0	0	5	5	2	19	0	5	1	67	1	4	8	26	3	108	42	16	6	34	23	66	2	2
OTU 176	42	3	0	0	7	5	1	30	50	61	12	66	23	8	10	6	100	35	35	40	10	51	0	70	262	76	57	3	1	134	47	50	4	34	3	11	21	23	2	15	3	66	15	12	20	110	3	25	0	16
OTU 177	845	240	8	108	401	36	75	16	2	25	14	42	11	1	31	60	126	72	93	16	67	61	16	132	22	13	11	4	92	8	31	11	6	70	115	13	3	0	5	27	39	10	29	17	6	45	0	1	8	45
OTU 178	158	0	0	0	8	22	5	28	0	0	38	59	1	16	0	8	10	37	6	0	41	0	2	42	0	39	4	6	15	2	2	7	6	1	23	0	0	0	0	1	4	132	0	1	1	7	0	2	0	53
OTU 179	0	8	0	9	0	23	0	390	74	0	80	7	0	0	11	11	58	3	51	0	59	41	0	0	11	4	0	0	0	199	11	9	74	9	27	24	48	16	1	14	2	18	38	4	10	0	0	144	80	7
OTU 180	45	202	2382	103	454	59	5	80	287	61	29	708	73	3	150	51	235	58	567	346	133	475	1176	36	203	39	96	165	87	112	816	21	179	132	105	157	91	34	101	24	37	212	642	43	100	341	26	133	78	10
OTU 181	14	7	2	0	0	1	39	79	4	2	4	26	3	56	4	3	29	49	0	2	1	3	0	8	19	76	6	20	4	2	16	60	8	18	56	1	11	28	0	117	190	116	13	0	0	16	0	63	8	15
OTU 182	0	8	0	0	0	0	1	0	0	0	0	0	0	0	0	0	25	0	28	3	0	0	0	0	0	0	0	0	0	0	0	0	0	0	34	0	0	3	0	0	1	0	0	0	0	2	0	0	0	0
OTU 183	25	0	1	0	1	47	2	0	8	1	0	12	27	71	0	14	12	9	0	27	85	13	0	0	0	194	7	13	44	6	8	103	25	67	2	15	0	5	4	4	4	4	3	0	0	4	0	0	19	10
OTU 184	3	0	1	0	28	0	20	9	9	40	1	9	0	27	0	3	0	13	0	0	1	53	1	7	0	20	45	0	1	49	5	5	14	0	39	0	3	0	0	5	4	0	18	2	6	14	7	3	0	13
OTU 185	6	31	0	12	40	16	1	1	76	8	10	33	15	19	37	31	15	26	2	49	30	24	3	119	5	187	10	14	25	6	31	89	105	153	8	13	41	9	8	9	224	26	14	18	22	37	1	77	22	38
OTU 186	0	0	81	0	0	0	0	2	0	0	1	0	71	0	0	23	1	2	0	0	0	73	30	1	0	51	0	58	251	2	0	14	0	99	17	45	0	0	151	0	494	0	2	2332	46	2	9	0	0	6
OTU 187	0	577	1043	287	68	27	15	93	154	29	16	2490	125	8	240	2	148	47	617	4	63	12	448	62	10	237	65	346	12	92	14	131	98	248	61	33	54	32	871	24	24	78	32	166	1072	20	499	76	268	18
OTU 188	54	25	18	5	115	0	28	64	154	40	1	9	27	14	5	18	81	139	9	33	0	131	13	110	17	53	131	61	53	129	55	32	173	23	25	57	64	9	37	41	7	46	12	0	13	324	28	68	0	95
OTU 189	21	18	7	12	4	41	65	15	134	27	6	22	369	36	8	10	32	96	27	50	87	31	0	154	41	66	39	904	281	75	9	55	99	35	180	11	36	9	14	2	24	167	74	3	72	113	10	45	4	87
OTU 190	0	0	1	0	0	20	24	0	0	0	1	83	0	30	7	0	0	98	13	0	34	0	1	9	1002	74	0	0	0	0	11	34	0	31	4	52	0	0	5	1	11	0	1822	0	0	0	0	0	0	73
OTU 191	40	32	110	28	0	1	28	7	30	35	61	29	0	70	1	7	2	15	41	265	2	117	68	63	3	113	0	0	53	10	50	78	43	1	74	40	2	12	24	15	8	287	3	14	35	13	52	5	13	39
OTU 192	2	153	62	129	36	13	51	530	31	13	43	2	15	186	120	5	38	68	1	23	35	57	14	1	2	108	617	33	92	191	40	36	3	7	49	15	3	240	32	53	230	405	4	51	0	11	304	11	10	34
OTU 193	45	119	6	45	28	22	131	1	32	0	47	194	42	24	53	62	595	46	293	7	41	1	2	5	2	0	1	12	3	14	322	8	109	15	43	583	36	0	6	29	3	13	17	26	13	19	27	24	2	70
OTU 194	12	20	0	2	121	521	12	104	75	839	32	0	0	4	25	3	3	0	0	28	6	54	0	1	197	96	59	1	1	24	790	26	585	74	12	10	40	8	1	0	95	97	375	9	2	49	0	30	43	8
OTU 195	1	55	0	30	3	55	6	32	6	37	10	0	17	25	17	1	2	46	14	34	129	94	4	15	66	3	98	38	153	27	45	0	5	73	25	0	10	26	72	44	31	16	58	17	0	11	5	29	3	18
OTU 196	0	30	6	25	57	4	9	42	1	65	7	24	4	0	20	59	16	8	27	12	10	6	3	55	2	11	0	3	0	16	7	2	35	10	49	15	0	4	53	10	13	20	0	5	33	0	21	0	7	0
OTU 197	117	132	48	79	218	119	36	26	59	29	90	171	681	118	57	159	76	132	186	171	240	129	18	82	2	205	134	1419	160	20	14	133	272	82	410	90	30	98	9	18	442	141	35	37	8	9	4	47	12	107
OTU 198	21	0	5	0	21	3	0	0	7	13	1	7	1	52	0	0	58	1	0	1	5	2	0	0	0	48	0	0	26	5	0	21	0	9	1	7	0	8	2	13	34	0	0	2	0	56	0	0	11	4
OTU 199	5	2	4	0	2	0	56	0	54	44	30	4	34	15	0	1	11	41	1	13	0	39	0	0	2	0	156	31	31	29	12	9	13	0	0	16	11	12	0	38	37	2	1	0	17	0	0	44	4	40
OTU 200	37	140	3	53	6	0	21	0	7	1	0	100	1	2	59	97	32	158	8	55	0	114	0	41	1	34	17	11	75	61	33	46	1	2	44	0	3	2	21	4	193	6	7	19	3	3	0	0	3	79
