	Host 1	Host 2	Host 3	Host 4	Host 5	Host 6	Host 7	Host 8	Host 9	Host 10	Host 11	Host 12	Host 13	Host 14	Host 15	Host 16	Host 17	Host 18	Host 19	Host 20	Host 21	Host 22	Host 23	Host 24	Host 25	Host 26	Host 27	Host 28	Host 29	Host 30	Host 31	Host 32	Host 33	Host 34	Host 35	Host 36	Host 37	Host 38	Host 39	Host 40	Host 41	Host 42	Host 43	Host 44	Host 45	Host 46	Host 47	Host 48	Host 49	Host 50	
OTU 1	9	10	62	26	105	0	0	6	0	58	64	156	32	50	13	6	39	57	20	100	13	67	61	52	4	0	107	23	54	16	43	136	4	40	23	25	0	106	101	3	36	4	0	14	123	7	0	2	21	91
OTU 2	0	0	48	77	1	10	5	3	0	0	6	4	1	37	1828	37	0	6	70	118	5	5	0	1411	1	23	8	0	99	0	8	5	2	3827	3	2	11	1	13	87	58	0	6	0	185	125	13	48	5	2
OTU 3	12	14	0	0	63	240	2	0	0	0	0	0	9	0	9	33	0	0	131	0	0	3	0	23	1	0	3	9	0	0	2	0	5	24	0	0	0	8	0	57	8	0	0	0	0	4	28	0	32	24
OTU 4	0	0	0	0	0	0	4	0	0	0	0	0	0	0	0	0	0	0	0	0	0	0	0	0	0	0	0	0	0	0	0	0	0	0	0	0	0	0	0	0	0	0	0	0	0	0	0	0	0	0
OTU 5	32	230	0	136	207	599	210	169	58	568	123	230	2429	917	70	1666	1447	29	28	47	0	117	407	335	70	392	47	299	229	115	16	130	119	97	201	143	3	860	170	49	252	46	328	1	21	4	214	84	0	0
OTU 6	15	0	1	39	9	1	5	158	17	0	3	15	25	0	41	1	0	12	39	48	31	8	70	4	35	27	90	0	11	6	0	11	32	60	0	8	106	4	8	0	15	0	1189	14	46	15	105	3	0	47
OTU 7	61	60	405	11	25	31	46	42	99	8	925	43	96	27	15	16	8	15	257	16	81	37	55	5	79	179	33	28	64	166	157	11	96	42	15	31	3244	17	1954	71	148	81	89	121	99	167	31	8	6	204
OTU 8	61	32	48	17	97	56	52	49	77	42	3	12	4	27	47	25	25	23	396	29	13	83	40	42	53	67	44	12	3	68	65	30	212	51	52	61	215	45	8	159	14	48	23	99	35	13	199	81	14	71
OTU 9	5	0	3	0	0	0	6	1	33	1	5	6	0	26	0	86	1	25	0	0	30	7	21	3	2	8	1	31	18	1	13	7	0	5	11	1	0	12	19	13	1	2	0	6	12	0	13	18	10	0
OTU 10	1	18	17	9	13	0	64	47	74	8	811	5	0	1	0	32	6	1	0	4	1	0	20	5	335	39	25	0	2	0	5	0	0	13	104	0	19	0	1627	14	10	0	0	0	1	144	84	3	34	0
OTU 11	68	20	21	17	91	2	27	50	54	8	0	1	12	3	4	34	13	31	17	44	0	2	6	33	80	27	34	0	58	70	13	7	65	2	1	101	37	0	1	905	0	59	13	157	101	103	30	5	28	27
OTU 12	250	4	69	16	54	21	516	131	28	23	0	0	17	4	32	69	2	28	58	18	113	3	14	38	47	3	14	63	71	75	43	0	60	81	47	11	237	11	0	4	31	22	27	62	12	50	93	17	2	49
OTU 13	0	12	0	0	0	0	0	0	0	0	47	0	0	0	0	0	1	0	2	0	5	0	2	0	39	1	0	0	0	10	0	0	0	0	1	0	0	0	92	110	0	67	2	0	0	0	0	0	27	108
OTU 14	0	1	0	0	0	0	0	11	36	0	0	3	2	8	0	0	5	15	0	2	76	0	22	2	51	35	0	11	1	0	2	0	0	3	0	6	2	1	2	12	3	0	5	15	5	0	8	4	13	12
OTU 15	0	0	0	0	0	0	13	0	0	0	0	6	0	0	0	0	1	57	0	0	0	0	0	0	1	0	1	23	0	1	0	0	0	0	0	0	0	0	0	3	0	0	0	0	0	0	0	0	0	0
OTU 16	0	0	0	0	0	0	0	0	0	0	0	0	0	0	2	0	0	0	0	0	0	0	0	0	0	0	0	4	0	0	0	0	0	0	10	1	0	0	0	0	0	0	0	1	0	0	0	0	0	40
OTU 17	58	7	0	0	37	4	34	10	87	39	0	0	64	13	4	10	26	29	6	3	109	5	33	1	296	26	10	4	3	1	56	1	11	0	2	83	69	13	3	6	4	219	6	0	1	1	38	43	4	14
OTU 18	14	79	28	18	3	56	19	17	5	28	20	58	3	128	15	65	26	32	79	24	31	41	10	18	20	125	4	2	9	40	180	8	8	25	11	16	22	74	26	14	34	46	22	47	36	58	2	2	20	78
OTU 19	0	0	0	0	0	0	0	0	0	0	0	0	0	0	0	0	0	0	0	0	0	0	3	0	0	0	0	0	0	0	0	0	0	0	0	0	0	2	0	0	0	0	0	0	0	2	0	0	0	0
OTU 20	144	55	1	8	41	141	57	61	8	2	0	14	0	93	36	42	33	2	68	4	11	8	80	6	19	200	3	27	16	32	67	2	2	16	49	527	59	66	0	3	22	27	2	163	12	48	139	23	19	10
OTU 21	96	6	14	8	123	110	75	43	24	15	0	1	22	178	7	19	5	86	52	7	79	98	17	0	91	84	19	15	5	111	45	177	98	37	20	8	0	11	0	74	40	0	60	28	3	59	70	0	8	17
OTU 22	4	56	21	44	19	12	72	0	99	22	6	80	19	39	8	35	29	75	148	37	9	8	19	6	1	5	68	331	2	83	51	190	2	13	56	30	78	26	13	1	64	108	54	3	36	35	23	23	3	7
OTU 23	14	10	0	21	9	0	34	6	69	3	0	3	3	0	2	13	0	14	1	17	4	3	31	7	1	0	60	8	2	10	1	10	1	0	0	38	44	21	0	7	0	3	0	163	9	2	125	7	60	0
OTU 24	7	5	57	0	0	0	7	0	40	9	21	74	7	0	1	15	6	0	4	2	532	23	0	0	25	3	18	2	6	2	0	0	6	2	0	10	0	9	46	94	0	1	0	3	7	9	0	33	1	1
OTU 25	0	0	0	0	0	0	0	0	0	1	0	0	0	0	0	0	0	0	0	0	0	0	0	0	19	0	0	0	3	0	0	0	0	0	0	0	0	0	0	0	0	0	0	0	0	0	0	0	0	0
OTU 26	14	0	0	0	3	1	0	3	0	0	0	0	0	0	0	0	0	0	0	0	0	0	13	0	0	31	0	2	0	0	0	44	18	0	0	11	1	0	0	0	2	1	0	0	12	16	202	26	0	0
OTU 27	1	0	0	0	9	0	0	25	388	0	0	0	0	0	0	0	0	0	0	0	0	0	0	0	0	0	0	0	0	0	0	0	0	0	1	0	0	0	0	0	0	0	0	0	1	0	0	0	0	0
OTU 28	5	57	30	38	1	115	49	3	183	75	21	38	34	30	7	245	38	24	107	92	0	23	9	52	186	92	9	9	136	9	16	16	31	11	26	19	21	58	41	51	40	35	2	50	248	3	206	22	139	79
OTU 29	0	27	107	0	11	1	182	20	17	31	10	6	6	3	12	868	35	26	108	24	105	131	17	13	47	27	29	5	44	14	83	148	54	1	7	2	159	30	15	65	206	15	31	71	100	130	165	19	45	246
OTU 30	0	0	0	0	0	0	0	0	0	0	0	0	0	0	2	0	0	0	0	0	0	1	0	0	0	0	0	0	0	0	0	0	0	0	5	0	0	0	0	0	0	0	0	0	0	0	0	0	0	0
OTU 31	8	0	1	0	7	3	0	9	16	0	0	24	1	2	8	0	1	18	0	0	85	1	0	59	35	0	8	0	3	9	6	0	0	84	1	0	11	13	3	3	5	0	18	1	4	1	0	9	1	0
OTU 32	1	91	28	9	75	6	173	60	66	26	8	95	15	13	26	59	30	35	44	50	53	32	10	59	33	28	2004	298	59	55	40	371	7	0	345	60	161	44	26	19	3	67	25	167	230	55	5	24	20	31
OTU 33	207	0	0	0	0	2	0	0	0	0	0	0	0	0	0	0	0	0	0	0	0	0	0	0	0	0	4	0	0	0	0	2	0	0	3	0	0	0	0	0	25	0	0	0	0	0	3	15	0	0
OTU 34	75	3	129	22	69	38	100	194	0	10	0	3	10	20	33	50	39	89	27	28	70	63	2	36	27	18	14	21	9	38	31	29	1	6	16	53	3	26	2	311	38	3	10	3	20	237	94	10	7	13
OTU 35	10	21	12	17	9	133	20	16	53	5	1	4	7	61	16	33	6	3	69	28	851	49	13	47	1	6	9	3	0	17	3	4	1362	17	0	0	29	8	2	101	20	13	0	60	1	0	26	41	59	116
OTU 36	46	14	4	2	52	1	16	201	32	6	24	65	0	104	0	177	0	39	4	0	190	45	17	4	161	222	56	3	2	29	4	0	51	0	3	44	1	4	50	178	112	18	60	8	3	105	143	51	30	90
OTU 37	0	0	0	22	126	27	58	3	21	0	1	0	1	54	5	1	0	0	10	32	7	0	0	0	0	33	24	3	53	29	30	12	0	8	62	10	0	0	5	0	16	50	1	20	110	0	0	0	1076	0
OTU 38	149	2	10	20	12	143	5	92	0	9	6	14	7	7	2	1	1	142	115	36	2	6	5	1	8	58	0	162	5	53	82	15	78	2	15	7	1	0	14	12	5	15	28	328	31	9	4	22	2	127
OTU 39	0	7	7	1	14	1	1	0	21	0	9	0	0	2	0	0	0	2	0	3	0	0	51	11	0	0	0	2	0	0	31	0	0	0	0	0	4	0	21	0	5	19	1	13	12	0	2	33	0	10
OTU 40	15	5	10	1	231	17	81	64	36	15	3	32	20	213	1	45	2	27	39	0	248	195	27	0	83	112	1	753	4	2	37	0	8	53	4	120	7	29	8	154	118	11	0	10	6	208	2	6	0	11
OTU 41	70	29	35	4	50	26	24	71	28	17	24	79	6	22	2595	0	0	198	53	9	14	83	4	4	0	13	7	32	54	10	36	28	9	10	11	12	120	10	45	92	82	9	2	51	43	9	27	18	0	0
OTU 42	0	0	45	200	0	30	42	57	0	0	0	0	0	1	3	0	2	10	30	60	31	3	0	0	57	108	2	80	53	14	0	1	27	0	23	8	3	1	0	4	0	12	26	0	60	0	52	0	0	0
OTU 43	0	0	1	0	0	0	0	0	0	0	0	0	0	0	0	0	0	0	0	0	1	0	0	0	0	0	0	0	0	0	0	0	0	0	0	0	0	0	0	0	0	24	0	0	0	0	0	0	0	0
OTU 44	0	0	32	0	3	0	0	0	52	6	0	5	0	0	0	0	2	110	0	0	1	0	43	16	0	0	1	7	0	0	0	0	4	3	0	30	1	0	0	0	0	0	3	0	3	13	1	0	1	2
OTU 45	207	101	426	2	90	130	26	31	0	1	6	14	163	6	270	175	0	2	54	11	4	33	20	0	3	41	42	9	21	19	201	0	108	1	4	68	13	7	13	75	98	16	16	53	1	1	6	5	0	12
OTU 46	241	15	14	535	25	10	63	50	19	53	884	469	97	7	28	7	42	133	10	821	73	35	21	33	160	37	5	19	747	51	42	218	11	26	67	16	15	101	320	31	7	116	39	77	1569	27	213	1003	176	18
OTU 47	0	10	0	1	15	1	0	0	0	0	0	0	2	2	0	0	1	6	0	0	0	0	0	2	1	4	0	0	0	26	0	7	0	1	0	4	0	0	0	0	0	0	9	0	4	0	6	0	0	79
OTU 48	10	101	74	2	9	7	13	48	12	1	3	5	3	9	9	41	26	16	48	8	52	19	2	3	96	1	18	11	3	1	6	110	2	1	15	11	13	16	6	66	47	85	3	567	77	8	187	0	20	28
OTU 49	4	0	99	5	5	54	37	0	0	56	0	13	2	50	7	7	27	3	0	4	0	122	1	4010	0	33	77	42	25	9	1	1	14	2	1	5	7	68	0	93	2	16	18	0	4	5	0	15	0	97
OTU 50	277	10	7	20	49	171	4	15	33	83	0	12	37	125	296	67	38	10	14	33	426	42	64	234	10	60	9	31	5	0	35	66	18	551	29	59	109	113	3	85	61	69	0	185	8	40	140	37	0	0
OTU 51	4	27	21	4	68	9	4	34	0	0	406	26	0	108	11	13	1	52	4	24	0	22	126	8	32	43	63	6	20	56	0	7	0	10	4	2	56	2	889	1	0	6	5	41	32	3	14	8	17	176
OTU 52	3	3228	64	6	68	6	77	30	75	15	501	991	50	18	371	7	19	117	108	21	33	11	324	300	149	47	112	139	16	16	34	1015	30	522	353	91	10	21	473	48	4	59	34	188	19	26	62	325	18	47
OTU 53	0	0	0	0	0	0	0	0	0	0	0	0	0	5	0	0	0	0	0	0	0	0	0	0	0	6	0	0	0	0	0	8	0	0	0	0	0	0	0	0	0	23	0	0	0	0	0	0	0	23
OTU 54	141	2	67	22	42	574	39	29	35	14	0	6	93	8	43	20	20	41	458	16	53	31	10	9	11	4	133	178	0	59	182	29	23	3	31	18	46	43	0	17	15	124	53	123	13	11	33	57	13	15
OTU 55	0	0	0	0	1	0	0	26	6	0	0	0	0	0	0	0	0	0	0	0	0	0	0	0	0	0	0	0	0	0	0	0	0	0	0	0	0	0	0	0	0	0	0	0	0	0	0	0	0	0
OTU 56	1	7	1	3	5	21	1210	7	29	6	0	1	11	0	0	0	0	12	2	38	5	110	6	1	36	1	0	31	20	20	1	10	0	0	0	0	51	12	0	4	52	14	6	486	13	1	30	2	5	14
OTU 57	209	70	68	8	29	2	3	7	193	28	6	48	76	112	16	51	12	30	256	58	259	80	80	27	21	186	41	124	202	61	109	95	273	21	80	25	30	35	13	47	120	189	69	36	274	723	19	102	211	76
OTU 58	1	4	34	0	139	7	7	33	52	26	3	31	0	95	0	1	2	29	0	7	264	52	0	2	76	0	1	106	0	10	0	3	24	5	0	2	9	21	5	209	48	153	1	1	12	1	55	1	0	1
OTU 59	26	9	59	3	1	20	0	0	3	2	2	0	4	21	1	3	0	18	23	1	7	1	10	5	92	18	2	31	10	9	30	2	1	6	0	7	34	0	3	7	12	63	2	54	6	0	0	6	14	1
OTU 60	12	17	8	27	21	119	40	68	77	0	13	22	73	5	29	43	3	30	5	12	168	2	107	1	31	143	17	33	12	33	10	2	12	11	64	24	97	20	31	124	1993	73	11	113	31	280	90	29	5	121
OTU 61	69	53	68	13	88	1269	182	169	58	6	0	2	48	123	31	33	8	110	0	63	211	36	16	15	144	137	34	67	586	116	10	48	20	43	1	87	42	6	0	213	35	12	91	70	60	42	57	105	15	4
OTU 62	24	3	0	1	3	0	13	59	20	2	0	12	0	0	0	18	11	5	0	7	5	0	4	0	0	100	1	20	17	2	6	11	94	0	11	10	0	0	0	0	17	28	1	45	0	34	84	5	0	92
OTU 63	16	12	45	1	9	0	3	0	21	11	7	20	3	2	0	91	12	5	86	1	4	301	12	17	147	0	44	16	6	6	52	156	22	10	104	0	28	14	12	30	58	50	2	0	26	0	30	11	3	1
OTU 64	323	72	79	34	80	68	115	177	76	33	79	157	14	50	34	112	78	68	555	105	160	16	172	34	6	50	102	119	244	134	107	218	16	83	276	71	63	71	129	14	30	42	21	323	532	39	96	283	145	135
OTU 65	0	0	0	0	0	0	0	0	0	0	0	0	0	0	0	1	0	0	0	1	1	1	0	0	0	0	0	0	0	0	0	0	712	0	0	0	0	0	0	4	0	0	0	0	0	0	0	0	5	0
OTU 66	44	18	39	25	12	14	0	82	186	2	3	12	7	9	16	161	10	0	29	46	272	0	1	4	72	32	16	16	1	89	72	21	7	6	73	1	110	10	3	7	4	44	34	31	7	0	159	10	0	204
OTU 67	15	22	7	0	66	24	5	0	30	9	14	73	25	103	2	30	5	30	109	12	43	15	59	1	0	3	0	45	34	6	8	0	37	0	0	12	6	3	22	89	20	14	3	5	6	232	0	6	0	80
OTU 68	0	6	39	22	5	0	0	3	3	1	1	1	5	0	0	1	0	6	83	46	12	8	40	5	398	0	11	0	29	4	23	22	0	0	8	26	5	3	1	0	11	0	5	65	88	0	4	3	12	0
OTU 69	115	2	14	0	0	48	15	70	114	2	17	92	14	659	2	71	23	11	73	4	4	6	21	1	22	36	23	7	31	65	86	90	47	0	66	10	547	12	36	266	36	1222	67	122	16	56	55	205	53	67
OTU 70	0	0	62	12	21	0	15	4	66	23	0	0	0	69	0	0	37	0	13	53	1	34	0	0	5	18	88	43	31	3	60	34	5	2	0	1	0	52	0	36	69	1	0	16	15	0	1	2	1	14
OTU 71	8	52	1	0	13	6	11	25	119	4	0	1	2	0	1	20	27	1	9	1	44	0	3	12	0	0	17	37	0	3	2	1	97	0	0	3	33	64	0	10	29	65	12	97	0	0	19	0	0	39
OTU 72	35	28	2	5	27	41	155	71	49	18	17	23	111	73	0	73	35	75	54	32	3	6	17	3	36	73	62	25	14	195	27	0	3	0	3	29	105	39	17	25	58	136	106	0	48	101	8	95	13	20
OTU 73	5	23	1	1	14	5	20	9	0	20	0	1	21	1	4	25	11	14	226	8	69	30	540	2	120	39	0	5	55	1	305	25	5	2	11	18	21	124	0	2	58	3	8	23	120	20	42	19	0	16
OTU 74	30	0	13	11	43	0	96	177	12	1	2	16	32	5	41	7	1	52	176	26	3	11	2	129	106	25	3	58	5	63	143	101	82	366	5	3	182	51	7	82	4	101	21	45	7	2	14	107	3	7
OTU 75	37	12	4	23	55	12	1	65	7	18	1	16	53	120	12	7	10	160	238	12	95	0	0	1	167	45	84	23	0	61	89	1	60	24	15	64	23	53	3	34	39	18	15	20	12	53	0	12	11	36
OTU 76	0	15	1	9	0	0	52	15	0	5	0	0	0	2	6	12	0	9	0	5	6	12	0	10	1	1	50	0	0	0	1	3	2	2	0	0	0	0	0	0	6	0	1	212	1	6	31	4	0	0
OTU 77	13	7	8	2	0	112	70	24	28	19	27	49	50	10	1	4	8	24	47	0	46	0	56	3	28	74	58	3144	1	6	1	170	39	3	27	4	43	2	52	255	24	76	67	16	1	3	33	66	1	11
OTU 78	0	0	29	14	132	24	73	82	13	1441	5	0	36	0	2	14	3	36	15	15	0	2	36	12	168	6	0	16	63	152	7	11	4	0	23	19	40	18	11	47	12	91	31	15	68	55	14	2	0	39
OTU 79	106	897	87	14	114	67	500	740	68	18	6	67	249	39	56	215	34	64	166	54	48	72	177	44	162	41	105	52	64	490	878	93	134	128	148	86	64	63	15	158	6	102	324	45	86	107	207	111	58	264
OTU 80	4	47	68	4	54	8	71	77	25	46	0	10	114	11	112	53	21	21	425	22	90	39	3817	80	17	3	347	12	38	45	167	77	9	26	12	39	24	133	0	9	97	14	67	42	87	50	16	38	3	62
OTU 81	103	255	163	14	194	77	27	87	314	58	1	23	13	63	683	39	1	63	170	24	66	11	17	11	9	184	240	156	20	4	251	48	32	71	4	100	68	30	8	27	38	81	2	13	32	15	183	17	7	23
OTU 82	23	2	33	155	89	1	86	32	6	15	19	11	14	66	5	53	16	4	0	226	35	74	22	0	28	166	0	80	21	56	37	1	4	63	3	40	9	38	41	19	2	0	0	83	45	10	28	3	115	1
OTU 83	0	3	38	0	0	1	6	7	230	28	0	0	100	0	0	0	11	1	0	0	0	0	0	29	0	0	71	3	1	0	34	33	27	0	0	0	14	10	1	11	2	0	14	0	15	3	0	0	2	0
OTU 84	32	20	2	3	5	3	42	24	56	0	54	100	91	227	20	9	2	2238	33	1	0	199	1	4	18	23	1	0	2	0	4	8	0	1	0	0	1	15	115	0	0	0	0	22	14	8	68	0	0	9
OTU 85	0	0	63	0	1	0	7	90	0	0	0	4	251	0	12	18	0	49	44	1	13	0	0	1	2	1	1	14	3	0	18	0	15	5	0	0	0	1	0	263	1	34	0	249	37	0	4	2	63	0
OTU 86	8	0	0	0	1	30	0	0	0	0	0	0	0	0	0	12	6	0	0	0	0	0	0	0	0	2	0	0	0	0	0	0	11	0	0	1	10	0	0	0	0	0	0	0	1	0	0	0	6	0
OTU 87	1	0	13	0	18	0	0	0	3	0	739	3096	0	7	0	54	0	0	66	0	0	8	1	0	3	2	0	0	3	123	182	1	0	0	2	0	9	0	1474	0	413	40	29	0	3	1	2	2	5	14
OTU 88	1	1	1	0	0	0	2	0	2	0	0	0	0	29	7	0	0	16	0	2	0	0	10	0	0	19	0	2	0	0	1	15	5	0	0	0	0	0	0	0	0	133	0	1	3	0	8	0	9	1
OTU 89	7	15	0	3	82	60	2	15	7	0	0	2	8	82	1	8	0	11	21	18	0	10	0	4	16	0	0	9	0	14	0	11	2	0	0	121	2	0	3	19	0	11	0	0	61	0	6	4	18	0
OTU 90	0	0	0	7	0	0	4	3	0	19	0	6	7	7	1	0	0	0	0	15	0	0	0	2	1	0	4	0	13	0	0	0	1	0	0	1	24	14	0	0	0	0	0	0	0	4	0	0	0	0
OTU 91	0	1	0	0	0	0	20	0	0	23	0	0	0	0	0	28	0	0	0	0	1	0	0	0	1	0	0	2	0	18	0	2627	0	15	1268	1	2	0	0	0	0	0	0	2	0	7	0	0	0	0
OTU 92	2	0	32	3	0	0	0	0	0	0	3	0	14	0	0	0	9	2	0	0	21	14	39	1	30	2	6	5	1	1	0	0	7	0	0	2	0	0	4	9	3	0	0	7	0	0	52	0	0	4
OTU 93	0	0	0	1	0	23	2	0	0	19	6	4	0	0	0	1	0	12	0	1	0	0	0	9	0	10	0	0	3	0	51	0	0	0	0	2	10	0	7	0	5	0	0	12	0	1	90	6	0	7
OTU 94	51	10	243	20	52	81	63	38	44	95	11	57	1	8	56	23	31	1	211	44	236	14	886	36	167	92	33	13	42	20	164	114	28	52	7	16	147	68	17	56	106	138	0	103	92	13	328	19	33	121
OTU 95	3	18	11	1	1	3	0	10	21	2178	4019	0	19	0	13	0	22	4	3	0	0	10	7	7	185	44	0	3	2	0	0	0	0	13	0	5	0	15	0	6	21	0	0	0	0	3	0	1	4	2
OTU 96	0	0	0	0	0	0	0	0	0	43	0	0	0	0	0	0	12	0	0	0	0	0	0	0	0	9	0	0	0	0	0	0	758	0	0	5	0	29	0	5	0	0	0	0	0	1	5	0	0	0
OTU 97	0	0	1	32	0	0	0	0	0	0	0	0	49	0	1	30	0	64	1	37	1	0	7	0	6	0	0	1	5	0	0	0	25	7	0	0	0	0	0	1	0	0	0	0	8	0	0	0	4	2
OTU 98	0	6	1	94	0	2	0	28	133	0	2	0	0	4	5	1	7	0	0	123	5	0	1	0	4	0	69	1	117	5	16	1	57	1	6	3	0	35	4	24	9	21	0	30	160	88	19	0	0	0
OTU 99	176	132	7	21	83	66	110	49	25	15	35	126	24	58	39	183	14	40	3	96	116	6	0	21	17	66	20	177	109	4	117	134	15	57	22	37	5	16	49	1	11	77	7	94	99	52	40	6	154	30
OTU 100	18	75	3	7	6	1	28	8	39	3	4	12	6	25	2	23	14	64	14	0	6	30	60	4	32	23	8	35	0	0	10	1	3	10	31	7	2	39	5	133	38	18	3	3	15	19	0	2	6	4
OTU 101	1	0	0	0	53	0	0	8	0	0	0	0	0	87	0	0	0	0	0	11	0	0	0	0	3	0	0	0	1	17	0	4	0	3	5	0	0	0	0	0	0	0	2	0	0	0	0	0	0	0
OTU 102	43	4	66	0	0	0	0	0	0	12	0	0	0	0	0	12	0	0	15	0	4	32	75	1	0	0	19	0	3	5	0	135	9	3	17	5	0	0	0	0	106	131	1	0	0	42	0	9	10	0
OTU 103	46	579	0	13	22	0	2	40	0	33	0	1	7	5	0	38	12	6	34	17	0	1	1	0	2	2	0	5	35	5	31	11	5	6	18	10	1	32	0	81	0	64	13	0	65	14	11	2	1	14
OTU 104	78	4	2315	46	4	1	12	138	114	0	18	71	51	3	117	248	5	363	104	98	42	37	139	113	18	273	58	0	159	8	13	57	62	214	31	16	93	4	42	1	24	83	3	8	178	41	58	78	135	939
OTU 105	0	3	48	3	1	0	0	38	25	6	2	0	23	50	21	0	1	0	16	6	0	34	1	0	0	15	41	3	0	0	2163	2	0	0	0	0	0	32	1	0	7	12	0	0	5	9	0	0	0	5
OTU 106	0	0	74	18	0	21	0	0	2	1	0	0	49	4	4	0	0	1	29	28	0	2	57	0	54	1	7	32	31	0	0	0	7	17	0	4	2	0	0	0	0	1	0	236	73	0	0	7	51	90
OTU 107	0	0	2	2	39	7	76	6	0	0	4	12	18	0	0	7	0	5	80	0	0	0	6	0	39	0	0	2	0	15	1	0	1381	13	2	25	0	5	10	1	2	15	76	27	0	2394	0	720	6	0
OTU 108	0	31	0	5	0	81	132	0	0	20	5	0	0	1	0	43	4	6	0	57	0	6	2	0	0	17	33	50	10	1	0	4	12	3	0	38	2	11	6	23	5	58	0	11	46	11	1	0	10	11
OTU 109	0	0	18	0	0	0	0	0	0	0	0	0	0	0	0	3	0	0	1	0	0	0	5	0	0	0	0	0	0	0	0	0	0	0	0	0	0	0	0	0	0	0	0	0	0	0	0	0	0	0
OTU 110	255	100	0	0	64	55	157	2	24	179	52	244	388	216	394	51	87	5	16	0	11	95	16	193	52	13	52	72	2	124	223	1	161	401	31	15	54	210	94	1	372	46	41	4	20	5	55	3	8	20
OTU 111	0	0	0	0	3	519	1	0	228	1	0	0	2	0	0	0	0	0	0	6	0	0	0	0	2	0	16	0	0	0	0	91	4	1	4	0	0	0	0	0	1	6	0	0	4	0	0	0	0	0
OTU 112	67	28	33	2	1	1	56	2	3	0	6	21	1	11	0	70	0	0	22	0	13	2	41	0	8	6	30	249	6	0	1	31	43	9	0	11	1	1	14	46	0	10	5	0	1	32	17	8	129	23
OTU 113	0	94	0	0	0	7	0	4	36	0	0	0	8	0	7	21	4	0	3	0	0	0	0	23	0	0	0	0	0	0	1	0	2	2	0	1	2	0	0	0	0	0	0	4	0	10	10	17	163	0
OTU 114	203	770	303	6	6	54	42	147	120	143	22	70	21	69	0	444	401	247	6	22	79	81	13	36	26	46	87	107	4	47	5	26	124	24	99	62	139	248	33	49	181	221	2	57	35	153	33	0	12	107
OTU 115	27	42	34	30	33	11	35	25	46	94	6	79	35	55	24	75	65	56	11	49	22	32	47	12	61	90	153	5	122	97	7	19	198	55	30	100	138	87	16	4	43	181	157	140	75	8	29	189	56	102
OTU 116	2	3	20	4	28	8	12	18	331	9	46	85	21	16	32	10	66	4	110	5	377	87	1	19	1	83	2	0	14	34	7	54	9	30	62	12	0	17	81	13	50	1	128	9	3	0	4	2	1	27
OTU 117	8	38	14	3	197	54	6	622	124	5	26	99	42	4	19	75	1	20	9	5	17	1	23	6	4	55	5	14	1574	175	45	0	154	33	38	74	20	1	61	14	18	25	51	0	19	126	73	41	76	72
OTU 118	0	3	0	0	0	0	3	6	63	0	0	0	2	0	24	2	0	0	0	3	11	0	1	0	2	45	0	17	4	17	0	14	4	0	6	3269	0	0	0	47	0	29	0	17	0	126	8	3	0	2
OTU 119	62	0	69	1	28	35	814	41	2	44	3	0	1	68	71	23	19	212	15	1	2	84	17	27	77	58	57	19	3	1	4	43	5	89	99	6	13	36	3	13	57	44	2	10	0	168	12	7	31	39
OTU 120	8	45	9	30	36	2	35	80	10	0	1	13	0	0	0	1	0	537	101	56	16	0	21	1	5	0	1	8	10	83	22	22	68	2	8	9	1	0	5	8	0	1	30	0	82	63	207	0	22	79
OTU 121	0	3	3	6	1	7	1	0	19	14	1	0	18	49	50	0	14	0	17	1	2	140	7	13	152	54	6	27	1	99	0	1	0	36	26	13	1	50	1	98	180	272	57	5	0	2	7	0	0	157
OTU 122	144	4	99	11	3	4	6	48	32	6	0	1	1	1	4	12	0	53	2	47	3	7	20	0	35	11	24	23	16	33	49	0	44	31	7	10	70	5	0	13	20	13	38	77	21	19	65	19	0	11
OTU 123	65	42	281	166	170	120	603	123	417	163	89	321	14	48	62	188	87	476	207	299	213	4292	323	91	94	448	178	74	732	163	219	552	85	174	367	137	59	116	204	473	125	244	136	152	452	309	199	450	193	86
OTU 124	0	0	7	0	1	0	5	69	4	14	0	8	0	20	0	18	8	0	2	0	0	0	11	4	0	13	2	1	0	1	0	0	12	1	0	4	58	20	0	23	0	20	0	2	0	43	0	0	0	1
OTU 125	139	114	124	93	21	181	285	86	624	800	16	38	604	118	30	10	84	120	51	100	25	143	59	20	263	114	17	138	71	1096	23	50	210	31	52	706	4	129	30	78	130	188	534	254	209	66	264	30	26	174
OTU 126	0	0	0	11	0	1	2	0	0	0	0	3	0	9	0	0	0	0	0	0	0	0	0	0	0	188	28	0	0	0	8	0	0	0	0	0	12	4	0	0	0	0	0	0	0	0	0	1	4	0
OTU 127	11	26	6	3	17	16	26	0	2	6	7	20	0	14	0	87	21	22	7	3	91	4	0	1	49	36	1	52	39	12	1	0	30	0	0	1	2	1	11	58	0	119	44	71	2	21	2	0	89	14
OTU 128	916	102	950	194	90	458	258	244	91	1041	36	109	92	197	208	88	1417	149	567	331	278	61	52	113	671	100	884	187	384	107	433	182	77	270	157	151	88	2637	66	225	94	435	50	57	873	217	225	145	185	49
OTU 129	0	0	0	0	0	0	4	0	1	16	0	0	0	0	0	0	1	2	0	0	2	0	0	1	0	12	46	17	0	66	0	81	0	15	10	17	11	0	0	0	6	11	2	0	0	0	3	2	0	84
OTU 130	106	122	2	4	0	2	14	2	30	9	9	51	14	22	0	11	2	0	35	0	1	35	0	1	57	199	34	7	14	13	5	0	9	0	6	8	8	21	12	4	4	0	12	81	0	11	0	65	5	18
OTU 131	14	17	12	6	5	19	83	177	0	3	0	0	61	6	7	82	9	742	21	11	0	33	1	1	55	225	19	46	1	29	6	1	169	0	70	2	146	5	0	32	1	245	1	3	0	420	29	898	5	24
OTU 132	0	6	15	15	31	4	22	175	0	9	49	148	4	90	7	2	4	43	61	23	20	26	0	3	0	21	2	48	6	3	10	10	0	21	23	4	109	14	99	0	3	0	4	2	65	1	0	0	4	0
OTU 133	0	8	61	0	0	0	1	1	2	0	0	0	12	0	0	1	0	25	0	0	0	2	0	13	15	0	0	5	0	0	0	0	17	26	0	0	0	0	0	1	1	3	1	0	0	0	0	17	3714	0
OTU 134	0	29	3	26	21	2	2	18	41	52	2	0	7	8	7	0	8	9	42	6	11	15	3	1	23	5	83	1	70	80	27	74	13	6	59	1	2	32	4	54	108	8	16	2	93	92	2	0	72	1
OTU 135	156	9	10	7	58	26	55	9	13	0	4	68	6	24	0	13	0	1	17	20	23	49	180	25	0	39	393	13	6	1778	8	5	183	33	2	17	49	0	25	0	2	18	926	8	66	18	11	45	17	0
OTU 136	26	22	17	13	77	129	1	24	46	3	7	14	4	0	36	13	0	103	6	8	0	4	17	20	17	34	0	34	14	0	7	0	24	10	0	12	36	0	18	107	88	36	0	0	8	48	12	1	1	60
OTU 137	25	22	1	27	85	0	12	194	0	2	28	185	6	2	6	18	0	1	0	40	5	1	32	0	22	2	0	2	30	1	15	39	0	4	6	42	0	0	71	0	1	0	0	25	51	31	0	12	25	0
OTU 138	4	3	12	0	0	2	10	0	69	129	0	12	0	671	0	13	130	2	0	0	24	287	17	49	25	43	0	32	0	5	0	0	0	14	42	0	23	262	1	0	387	57	17	7	0	64	22	4	0	37
OTU 139	78	49	92	28	11	56	51	19	62	28	27	74	5	58	25	81	28	39	41	93	11	32	23	41	830	604	31	43	35	6	90	10	10	23	466	5	24	62	58	59	136	73	12	71	109	13	53	2	10	52
OTU 140	129	204	66	45	22	71	120	283	181	48	3	19	42	552	15	282	127	73	87	42	75	118	23	23	98	464	699	43	56	241	105	11	37	53	75	17	18	129	8	37	226	33	83	794	79	54	76	31	30	76
OTU 141	0	0	0	0	0	0	0	0	0	17	0	0	0	32	0	0	22	0	0	0	0	0	0	0	93	0	0	0	0	0	0	0	0	4	0	0	0	29	0	20	0	0	0	0	0	0	0	0	0	0
OTU 142	0	0	0	0	0	0	1	0	0	0	0	0	0	0	0	0	0	0	0	3	0	1	0	0	0	0	0	0	0	0	0	0	0	0	0	0	0	0	0	25	0	0	0	22	0	0	0	0	0	1
OTU 143	0	0	0	9	0	0	0	1	36	0	3	2	10	2	0	11	0	0	5	7	0	5	1	0	5	0	53	0	1	0	0	0	19	0	0	0	0	2	13	5	0	0	0	26	0	0	0	0	0	0
OTU 144	1	4	216	3	68	3	17	0	0	0	0	8	21	21	0	0	4	1	86	1	0	0	34	0	24	11	37	0	0	15	8	0	0	1	10	0	0	13	6	137	1	0	0	0	0	3	0	0	2	11
OTU 145	70	12	10	3	129	28	189	123	6	6	4	3	40	102	10	76	9	22	26	5	18	97	36	28	31	129	106	3	74	20	4	88	42	112	35	25	53	11	8	54	45	61	99	140	92	62	47	0	3	39
OTU 146	1	14	1	4	145	1	28	17	67	0	16	10	279	9	6	19	1	65	21	1	21	20	1	14	235	50	129	10	16	51	4	28	44	4	43	33	9	4	27	10	4	17	0	1	4	0	121	8	15	36
OTU 147	13	111	6	15	31	23	50	56	3	4	3	14	37	0	0	0	1	1	15	32	58	1	40	1	4	0	1	0	0	9	0	17	5	1	0	11	1	0	4	0	9	0	3	31	0	7	0	4	2	5
OTU 148	112	58	36	0	0	6	36	0	0	11	16	55	15	13	3	3	4	24	83	0	87	1	43	30	31	0	45	2	84	6	127	130	514	112	100	0	27	0	38	320	43	0	0	50	48	186	163	32	0	0
OTU 149	88	3	0	6	0	42	7	14	18	1	0	23	582	13	4	2	24	18	44	0	3	20	4	22	0	0	4	2	0	26	32	44	1	0	1	52	0	1	0	22	23	20	23	69	0	1	9	1	34	42
OTU 150	15	13	11	5	1	0	0	15	0	2	0	0	1	0	0	0	0	0	0	8	0	0	20	0	6	150	49	37	0	2	0	0	0	0	1	0	2	0	0	106	2	0	1	0	11	0	13	2	0	16
OTU 151	31	19	0	0	40	0	17	0	22	12	0	0	15	58	0	6	0	40	6	0	4	75	8	9	3	14	1	12	0	19	6	2	18	0	0	0	9	26	0	19	24	14	12	69	13	17	0	2	11	1
OTU 152	129	38	0	12	29	23	22	7	114	50	127	301	23	61	9	26	33	95	78	15	145	36	1	13	368	369	26	68	26	28	14	105	32	23	3	1	32	137	215	28	45	25	3	188	52	84	229	1	10	33
OTU 153	0	24	10	4	0	0	0	0	0	0	0	0	0	13	0	0	0	18	0	9	5	0	0	0	0	4	0	0	0	0	1	4	2	0	0	0	0	0	0	5	0	21	0	0	0	13	0	2	0	0
OTU 154	4	0	2	7	0	0	0	0	0	14	0	0	0	0	128	0	5	1	0	22	0	0	0	388	0	0	0	4	0	5	0	0	7	353	0	0	0	20	0	0	0	20	0	0	10	0	0	0	0	7
OTU 155	11	11	1	3	158	27	53	62	23	14	0	0	53	0	12	0	3	7	14	0	5	0	8	26	1	26	0	10	0	1	6	11	3	0	0	116	13	13	0	0	12	0	26	36	0	0	18	7	0	0
OTU 156	127	95	91	6	44	29	3	386	229	37	1	11	19	85	11	15	3264	10	5	14	35	12	2	18	73	97	38	5	21	58	21	82	60	21	33	43	42	73	9	155	1045	164	18	23	24	173	70	8	8	14
OTU 157	0	0	0	324	1	11	1	0	3	10	8	12	0	0	0	2	0	0	0	0	0	15	0	0	0	199	34	0	2	0	1	0	48	1	7	0	0	2	17	0	0	0	3	0	13	4	0	1	35	0
OTU 158	0	0	5	13	0	0	0	0	0	0	0	0	42	0	0	0	0	0	0	10	0	0	0	0	0	0	0	11	2	127	13	0	0	0	0	8	1	0	0	0	0	0	114	0	0	0	122	0	0	0
OTU 159	47	0	1	0	229	73	4	0	3	1	3	6	47	30	934	23	29	23	4	0	0	75	0	1	0	142	23	14	22	94	2	0	51	16	7	5	656	0	3	57	2	856	56	15	51	26	48	2026	12	3
OTU 160	67	60	162	52	88	253	29	50	163	18	20	64	31	11	12	89	62	44	117	222	55	34	15	182	79	309	223	7	107	174	107	62	22	26	24	6	263	73	23	10	99	126	29	164	290	4	311	17	15	29
OTU 161	19	8	0	4	7	0	43	2	164	0	7	4	9	64	14	10	7	81	83	14	18	20	0	40	55	19	27	47	1	9	0	11	0	9	5	0	107	3	8	0	0	22	0	19	6	1	59	62	2	23
OTU 162	177	8	4	27	45	19	65	305	15	67	6	1	78	124	8	83	44	64	32	28	215	70	19	14	69	26	6	64	7	51	1	20	12	4	34	14	1	104	11	0	64	24	35	2	1	60	98	66	89	50
OTU 163	0	0	10	1	0	3	0	0	0	0	0	0	0	0	0	0	0	0	0	0	2	0	0	0	0	0	0	0	0	0	0	0	0	0	0	0	6	0	0	0	0	0	0	0	0	29	0	0	0	0
OTU 164	0	0	0	5	0	21	2	0	0	0	0	1	0	0	0	0	0	0	0	46	0	0	0	0	0	0	0	23	5	0	0	0	0	0	0	0	0	0	1	2	0	0	0	0	1	0	0	0	0	0
OTU 165	40	10	0	2	0	149	1	61	1206	0	4	5	53	6	2	0	1	6	35	7	286	17	20	0	12	0	52	4	18	102	31	0	34	7	11	2	0	0	7	2	39	50	29	81	35	0	17	3	98	95
OTU 166	7	5	0	0	11	0	22	28	0	0	0	0	0	0	0	19	0	0	0	0	3	0	0	0	0	0	0	0	0	30	0	0	0	0	0	58	0	0	0	5	0	24	0	0	0	0	19	0	0	0
OTU 167	29	0	3	1	2	4	136	68	59	3	5	7	0	15	2	11	4	20	54	2	1	175	34	9	15	15	2	11	0	3	0	3	1	10	28	21	1	40	5	0	33	9	0	0	11	17	0	23	5	14
OTU 168	2	12	17	5	9	125	3	5	34	0	0	3	35	9	12	42	12	8	13	1	74	8	5	12	19	59	1	4	5	16	14	112	3	6	11	3	37	0	2	31	26	17	0	17	0	5	36	23	11	15
OTU 169	0	0	103	1	0	0	0	0	0	1	4	11	1	0	0	0	3	0	10	0	0	0	0	0	0	0	12	0	0	3	0	10	74	4	0	0	0	0	2	0	0	0	0	44	0	160	0	0	1	0
OTU 170	0	4	80	7	12	0	4	0	0	0	0	0	0	0	0	0	0	0	0	6	0	0	0	0	0	0	0	2	0	0	0	0	0	0	21	0	0	0	0	1	2	0	0	1	0	4	0	0	0	0
OTU 171	41	0	99	50	11	904	6	0	3	13	27	160	33	21	0	180	3	44	270	35	23	1	19	339	3	48	4	5	46	5	117	32	10	71	43	34	27	49	57	116	15	32	5	15	173	47	30	10	13	48
OTU 172	0	0	0	11	0	0	0	6	3	2	0	0	0	0	73	0	0	0	1	4	0	0	1	30	1	0	43	0	0	0	0	0	0	72	34	0	0	0	0	16	0	16	0	0	0	0	0	16	0	1
OTU 173	0	0	0	0	104	18	0	67	0	0	0	14	41	0	0	6	6	16	0	0	0	7	0	1	6	1	0	0	0	502	1	0	2	17	10	53	25	17	0	0	22	1	375	0	0	0	3	31	0	6
OTU 174	1	42	1	11	2951	4	12	10	27	20	0	4	0	18	2	8	21	2	31	17	326	1	24	18	24	0	16	2	1	0	95	2	18	6	0	1595	8	60	0	24	10	41	0	0	27	2	14	825	3	42
OTU 175	89	0	198	1	0	5	15	16	10	0	2	0	40	1	7	151	0	2	11	4	0	10	18	0	52	43	16	0	0	8	14	0	2	9	9	0	0	0	7	0	0	2	0	139	0	7	3	0	13	17
OTU 176	27	9	16	38	66	76	93	10	133	1	11	47	1	16	42	74	4	162	37	53	122	11	18	14	41	56	237	3	1711	37	4	93	1	21	13	24	41	7	23	25	63	114	32	50	16	13	180	1	1	12
OTU 177	8	23	57	1	45	0	22	23	36	0	27	127	0	22	1	48	0	26	14	5	100	12	9	33	123	4	30	2	2	62	25	0	5	37	1	23	0	2	44	64	31	14	4	73	0	20	3	14	7	35
OTU 178	0	3	14	0	235	82	55	179	0	0	0	2	2	2	1	21	0	64	1	7	0	2	0	17	51	0	28	5	9	139	6	0	0	3	0	62	4	0	0	3	16	0	53	0	32	2	32	58	1	1
OTU 179	1222	8	0	4	4	16	7	105	0	0	8	37	0	0	7	5	6	43	2	27	32	23	31	8	9	0	0	71	24	24	0	14	11	6	0	0	38	5	6	5	50	0	29	0	39	1	4	34	0	0
OTU 180	53	29	58	38	117	82	37	89	129	37	37	139	8	126	34	91	183	65	101	32	155	207	66	96	80	218	94	563	8	184	13	57	79	40	68	11	79	107	79	186	52	4	69	77	20	146	585	32	932	186
OTU 181	133	9	76	4	135	45	51	208	141	55	26	42	1	51	1	13	92	0	12	10	69	79	9	1	84	3	27	1	19	98	0	54	1	0	5	21	14	163	53	4	24	5	4	52	5	0	92	11	6	8
OTU 182	168	0	0	0	0	0	0	0	0	0	0	12	0	0	8	0	0	0	0	0	1	0	0	10	0	0	3	0	0	15	0	0	0	45	0	0	0	0	1	0	0	0	3	0	0	0	0	0	0	87
OTU 183	59	1	28	46	16	6	16	14	93	402	0	3	7	0	0	491	485	134	23	114	133	9	13	9	4	0	18	56	3	2	50	64	0	40	3	3	5	1298	0	0	0	73	0	33	5	2	54	94	26	382
OTU 184	0	0	26	18	1	23	2	9	9	0	17	60	38	5	1	0	6	35	1	4	6	37	94	7	0	3	35	0	3	20	41	17	24	5	0	0	21	4	29	41	15	8	0	0	23	15	48	3	26	6
OTU 185	45	39	13	21	142	13	43	22	1	70	21	30	9	7	1	0	3	63	12	15	170	20	10	28	43	52	19	36	61	8	10	1	37	124	6	50	46	52	54	328	46	30	6	37	71	0	113	17	106	1
OTU 186	8	9	21	0	27	5	0	32	16	0	0	3	2	0	1	45	0	4	5	0	0	0	4	20	0	10	0	1	0	1	4	8	0	0	0	0	4	1	0	29	8	0	0	0	0	13	0	0	12	79
OTU 187	55	15	20	10	36	108	110	85	21	92	6	2	38	96	44	89	167	21	83	1	144	79	28	7	56	69	11	16	29	2	112	55	3	62	4	16	93	159	10	56	163	158	2773	25	33	49	44	72	37	32
OTU 188	49	137	35	36	57	354	46	21	9	18	3	15	2	9	71	30	32	0	24	39	57	131	13	35	263	147	34	19	24	7	18	50	0	37	87	12	56	65	3	27	85	214	6	16	60	13	103	119	16	31
OTU 189	36	61	1	14	171	10	25	201	32	50	10	33	12	5	3	13	9	0	39	82	115	4	46	8	123	19	74	37	54	24	54	4	15	14	3362	129	39	35	19	121	11	0	59	18	148	15	73	8	29	2388
OTU 190	0	0	2	0	2	0	0	0	0	0	0	0	1617	0	1	103	0	0	0	5	0	0	1	0	0	0	0	9	0	0	0	0	0	1	2	0	0	5	0	0	0	0	318	20	0	0	0	1	1	0
OTU 191	5	12	14	76	53	99	3	155	54	3	33	31	8	1500	2	227	18	24	26	221	97	102	30	28	36	64	9	9	209	132	34	112	58	2	40	20	15	12	63	3	32	28	29	32	261	106	208	12	230	1
OTU 192	2	23	86	2028	61	73	46	138	31	12	10	80	6	29	160	140	59	107	5	4247	154	11	26	20	52	155	376	21	40	58	12	7	13	56	3	4	68	48	24	659	25	125	9	319	57	9	142	20	14	7
OTU 193	11	21	17	1	58	5	23	250	2	60	8	47	1	0	52	138	80	8	341	0	1	13	12	90	42	18	34	75	1	113	227	5	129	132	22	8	58	95	9	9	0	0	41	83	13	67	43	28	1	176
OTU 194	297	27	15	2	39	1	163	38	27	74	5	1	4	150	2	14	10	17	14	6	11	9	3	5	87	3	1	9	27	7	42	30	6	6	38	4	0	40	7	0	44	3	2	0	25	0	1	0	87	25
OTU 195	14	115	0	36	0	5	0	29	98	0	0	0	7	18	43	38	4	5	144	129	9	11	0	0	31	0	93	6	134	4	111	0	27	11	28	40	7	0	0	89	0	21	9	12	119	64	91	29	11	3
OTU 196	23	63	106	0	13	10	0	9	6	19	3	27	19	1	5	21	5	17	128	4	38	3	47	9	11	15	12	48	5	8	137	39	4	3	4	8	19	16	4	52	130	61	0	3	4	29	121	22	3	0
OTU 197	181	12	76	13	65	130	229	46	112	404	9	52	301	47	8	23	164	205	366	17	31	78	22	79	56	166	91	37	10	28	137	6	110	130	6	44	21	36	24	201	89	194	0	380	91	72	289	10	58	35
OTU 198	0	4	40	0	0	1	0	115	0	1	0	6	0	0	0	0	0	0	1	0	12	10	0	0	40	24	0	14	0	10	54	0	0	0	10	2	0	0	1	1	0	0	3	54	0	7	5	1	1	3
OTU 199	12	11	29	4216	1	20	0	1	19	0	2	4	0	104	0	0	7	19	8	4	0	7	3	0	52	5	43	0	0	0	15	0	0	0	6	0	10	5	1	20	35	5	2	11	2	27	143	0	0	36
OTU 200	1	9	51	15	9	107	1	33	31	14	2	8	9	120	3	4	0	28	0	40	19	23	11	0	3	0	0	1	16	149	0	47	11	0	102	1	59	0	2	6	0	75	44	5	24	4	3	0	7	0
