	Host 1	Host 2	Host 3	Host 4	Host 5	Host 6	Host 7	Host 8	Host 9	Host 10	Host 11	Host 12	Host 13	Host 14	Host 15	Host 16	Host 17	Host 18	Host 19	Host 20	Host 21	Host 22	Host 23	Host 24	Host 25	Host 26	Host 27	Host 28	Host 29	Host 30	Host 31	Host 32	Host 33	Host 34	Host 35	Host 36	Host 37	Host 38	Host 39	Host 40	Host 41	Host 42	Host 43	Host 44	Host 45	Host 46	Host 47	Host 48	Host 49	Host 50	
OTU 1	156	0	57	12	511	388	0	214	591	451	88	4	23	0	307	216	37	11	947	4	74	1070	606	266	0	270	41	255	0	334	392	20	25	288	0	332	200	841	89	0	328	11	20	1	159	559	99	20	1107	1
OTU 2	2	75	0	0	2	43	7	32	1	0	0	2	0	1	1	0	48	7	4	1	385	2	0	5	0	0	1	0	5	0	1	0	42	0	2	7	2	0	37	0	7	0	8	19	3	7	78	13	0	18
OTU 3	3	25	8	0	2	0	0	0	0	5	0	23	1	1	0	0	52	0	0	12	3	3	2	0	1	3	16	0	8	4	6	5	28	0	5	1	0	12	33	0	0	87	13	13	0	0	16	0	2	1
OTU 4	0	9	0	0	3	0	0	0	0	0	0	0	6	0	0	0	0	0	0	0	0	2	0	0	0	0	0	0	0	0	0	0	0	0	0	6	0	0	0	0	0	0	0	0	0	7	0	0	0	0
OTU 5	843	446	20	140	102	312	884	833	882	614	76	115	415	338	0	58	18	312	1541	286	435	130	494	16	358	43	0	345	197	769	1047	29	0	424	8	656	996	115	40	621	21	0	555	55	100	53	28	125	183	1
OTU 6	38	27	13	311	0	1919	3	806	13	1	7	17	16	26	11	27	144	9	36	8	70	0	10	0	100	42	21	1	31	0	629	48	12	3	7	11	17	5	8	7	5	161	0	49	0	8	1	2	19	0
OTU 7	55	92	20	96	11	57	32	7	373	11	776	77	61	120	11	16	391	5	49	124	19	17	23	4	71	6	128	34	352	7	4	23	95	145	202	598	105	27	54	104	22	3	15	21	82	109	22	66	109	140
OTU 8	27	167	89	69	8	0	499	29	35	864	158	26	161	111	24	19	135	63	25	46	14	13	7	12	295	33	66	4	177	9	30	40	67	19	26	31	145	65	60	20	78	21	135	112	3	0	43	26	49	91
OTU 9	2	42	32	5	7	30	9	4	17	5	7	0	50	40	43	18	19	12	41	18	32	7	0	7	3	17	8	1	16	0	7	96	1	0	4	2	3	21	10	73	11	43	3	8	1406	5	0	16	21	18
OTU 10	19	0	2	3	6	0	13	15	10	25	73	20	4	0	0	0	2	11	4	8	61	13	10	5	1	11	2	4	8	2	5	8	0	0	3	0	62	8	11	4	0	31	3	0	0	45	31	3	0	3
OTU 11	19	30	9	3	15	14	4	0	12	45	47	28	33	7	41	55	23	55	29	0	46	49	15	8	2	35	17	6	230	7	28	92	63	5	103	5	103	19	127	6	10	24	245	165	5	35	34	20	28	69
OTU 12	24	4	7	316	6	5	108	20	75	24	23	64	25	42	3	6	218	78	63	23	146	15	58	92	223	6	143	33	35	27	27	13	170	66	154	57	5	14	9	4	45	237	154	35	38	107	2	34	163	122
OTU 13	0	0	0	0	0	0	0	0	0	0	13	1	0	38	0	2	0	0	0	2	2	0	0	2	0	0	3	0	0	0	6	0	0	0	0	0	0	0	0	5	4	0	13	0	11	0	0	2	0	0
OTU 14	0	17	4	25	0	0	50	0	8	1	46	2	14	0	7	1	43	27	0	38	40	0	25	9	2	11	17	9	0	25	36	39	17	0	0	2	0	8	18	0	0	0	23	2	30	5	0	0	16	64
OTU 15	0	0	0	25	0	0	8	0	0	0	0	5	2	0	0	0	0	0	0	0	21	0	0	0	2	0	23	0	0	0	7	0	2	0	0	0	0	0	0	0	0	0	0	0	2	0	1	0	0	0
OTU 16	0	0	0	0	0	0	0	0	0	0	0	0	0	0	0	0	0	28	0	0	0	0	0	0	0	0	5	0	0	0	0	2	0	0	0	0	0	2	0	0	0	0	0	3	0	0	5	0	0	0
OTU 17	1	80	0	37	35	0	0	22	1	18	12	47	48	0	11	1	0	17	33	0	9	94	3	0	34	8	58	0	0	1	1	69	8	3	570	17	3	0	47	0	12	2	0	1	35	32	62	5	5	3
OTU 18	3	55	199	13	13	17	25	1	16	9	16	43	20	13	2	8	37	49	2	20	440	23	4	48	30	0	15	15	1	9	21	53	159	1	54	67	19	7	13	69	0	44	18	19	3	11	20	46	3	145
OTU 19	0	0	0	0	0	0	0	0	0	0	0	0	0	0	0	0	0	0	0	0	0	0	0	1	0	0	0	0	0	0	0	0	0	0	1	0	0	0	2	0	0	0	0	0	0	0	0	0	0	0
OTU 20	5	109	19	3	2	2	102	35	1	4	200	42	45	4	0	4	60	3	26	1	0	3	7	3	67	11	13	1	148	0	13	2	81	0	46	13	66	1	44	0	11	107	55	7	9	2	14	48	15	116
OTU 21	98	17	454	24	201	577	15	394	514	240	174	44	52	310	189	85	9	5	465	95	139	409	488	220	22	109	7	154	47	215	11	32	40	289	12	244	38	279	0	10	193	177	4	10	61	489	14	2794	834	2
OTU 22	2	29	59	117	40	55	30	31	4	0	101	1	132	12	7	22	38	5	56	3264	2	68	6	92	56	7	44	13	37	5	26	40	90	6	373	65	284	44	1	26	0	386	3	278	36	33	0	8	17	2
OTU 23	7	0	0	0	1	5	34	0	5	1	0	1	3	98	10	1	2	11	2	6	49	4	0	49	0	0	3	0	31	0	4	79	4	4	15	1	33	0	1	76	6	88	13	0	15	1	4	90	0	7
OTU 24	2	0	57	1	0	5	64	0	6	1	229	0	16	61	9	1	17	4	4	14	28	3	0	0	10	7	19	0	1	0	1	1	101	1	1	7	0	0	0	54	4	1	32	0	0	2	18	1	1	35
OTU 25	0	0	0	50	0	0	0	0	0	0	0	0	0	0	0	0	0	0	0	0	0	0	0	6	0	0	0	0	0	0	0	0	0	2	0	0	0	0	20	0	0	0	23	0	2	3	17	1	0	0
OTU 26	1	1	193	32	0	9	85	0	0	0	0	0	41	32	0	9	0	0	29	0	23	0	0	0	0	1	5	0	10	0	0	0	0	0	0	0	16	0	0	0	0	0	22	0	3	0	0	3	0	0
OTU 27	0	0	0	0	0	0	0	0	0	0	0	0	0	0	0	0	0	0	0	0	6	0	0	0	0	0	0	0	0	0	0	11	0	0	0	1	0	0	0	0	0	0	0	0	0	0	0	0	0	0
OTU 28	14	48	72	87	17	28	39	14	25	6	187	33	67	11	12	17	29	28	2	1	10	25	2	7	1	8	7	3	7	10	5	112	34	1	24	3	2	26	3	32	11	17	112	52	24	44	53	0	6	22
OTU 29	104	21	7	26	247	476	60	300	592	250	26	1	9	1	224	141	33	84	671	13	13	508	543	644	88	183	6	266	8	299	379	13	51	274	74	102	39	487	123	109	331	39	31	4	200	809	10	6	1095	104
OTU 30	3	0	0	0	0	0	66	0	0	0	0	0	0	0	0	0	0	3	0	0	0	0	0	0	0	0	0	0	0	0	0	0	0	0	0	0	0	0	0	0	0	0	0	0	0	0	0	0	0	0
OTU 31	0	46	52	42	1	0	58	2	4	0	0	21	7	33	0	0	1	0	27	23	32	1	1	0	1	21	6	0	28	5	19	4	0	4	0	0	3	0	0	0	0	41	24	61	345	0	0	1	0	22
OTU 32	9	20	13	120	0	97	45	77	9	9	67	63	6	29	2	14	37	3	10	17	57	4	11	43	29	20	141	0	66	4	1992	21	14	35	47	9	27	9	62	29	18	68	41	34	35	18	9	38	15	228
OTU 33	0	0	0	0	0	0	0	0	0	0	15	0	0	0	0	0	36	0	0	0	0	0	0	4	0	0	0	0	0	0	0	0	0	0	0	0	0	0	0	0	4	4	1	0	1	0	0	0	0	0
OTU 34	120	132	3	71	44	39	8	164	62	28	7	12	222	141	23	384	116	68	5	83	100	104	30	111	280	10	36	15	0	14	1	0	159	25	2	12	547	16	18	58	21	2	16	2	24	16	0	50	84	499
OTU 35	1	6	9	18	12	0	281	21	1	35	147	129	2	52	21	0	21	19	0	4	18	21	2	24	611	2	62	4	10	10	18	239	3	3	119	1	15	6	98	5	0	2	7	14	1	32	52	6	0	154
OTU 36	1	1	8	67	2	7	10	25	28	4	0	50	15	0	1	0	16	1	70	1	13	3	0	42	0	20	5	7	64	0	10	5	96	40	4	215	21	4	236	17	45	53	6	598	3	3	121	5	17	3
OTU 37	4	4	61	0	1	0	3	0	0	2	2	0	0	264	4	0	1	2	0	121	0	1	1	2	32	5	0	1	9	0	0	0	0	0	4	39	0	0	0	1	2	107	1	0	0	0	0	67	0	22
OTU 38	1	193	58	141	4	1	42	9	1	0	22	6	21	79	2	0	11	17	18	60	11	3	6	20	11	6	15	0	0	2	24	66	3	7	8	663	15	17	11	118	5	6	7	0	10	15	21	150	3	3
OTU 39	3	40	0	170	0	0	0	0	0	2	36	1	10	0	140	13	0	0	0	0	0	0	0	15	1	0	1	0	14	0	0	0	0	12	0	8	1	0	0	4	0	19	38	0	5	11	0	0	0	2
OTU 40	1	0	21	0	12	17	2	0	5	2	18	21	19	12	0	26	85	1	44	60	184	25	20	37	11	2	18	1	60	4	19	53	46	0	3	21	36	3	1	95	10	21	34	101	1	40	19	93	43	0
OTU 41	2	54	10	67	2	3	6	30	38	1	19	7	43	42	2	1	2	19	2	90	83	11	1	0	73	10	45	0	23	0	2	79	70	0	224	0	7	19	39	9	2	13	57	0	2	0	110	2	12	551
OTU 42	0	0	0	37	37	0	0	11	19	28	5	13	17	6	112	0	0	0	1	5	1	68	9	1	9	3	1	1	1	10	12	0	0	0	0	4	14	0	0	2	0	0	0	0	22	28	33	33	2	0
OTU 43	0	0	0	3	0	0	0	0	0	0	0	0	0	0	0	0	0	0	6	0	8	0	0	0	0	0	30	0	0	0	0	0	0	0	0	0	0	0	0	0	0	0	0	0	0	0	1	0	1	0
OTU 44	0	0	0	1	0	1	0	0	0	1	84	0	8	3	0	0	2	17	0	9	0	0	0	1	155	0	0	0	0	0	7	2	1	0	0	4	0	0	30	73	0	0	0	13	16	0	0	0	3	4
OTU 45	1	74	7	2	2	7	14	0	16	3	68	71	6	239	12	36	9	18	108	30	3	5	1839	7	3	12	1	850	19	978	33	36	0	2	70	2	81	1	11	28	51	124	27	53	0	28	14	2	14	133
OTU 46	15	35	9	123	1	55	70	1	0	18	55	13	3	23	2	2	37	37	59	27	78	3	23	17	122	38	48	15	909	10	627	9	9	2	14	18	25	38	32	48	0	64	93	170	24	6	30	0	19	1
OTU 47	0	0	0	0	0	0	57	1	0	0	123	29	0	3	0	0	65	0	0	0	0	1	1	0	0	0	34	0	0	0	3	10	0	2	1	12	0	0	0	0	19	0	0	0	0	0	0	0	0	0
OTU 48	5	11	116	11	55	29	79	0	20	432	58	24	9	16	4	0	11	29	13	3	236	110	6	18	102	17	0	7	53	11	14	41	15	3	10	3	12	25	3	33	7	267	64	36	38	47	48	28	62	29
OTU 49	1	0	81	0	20	67	2	3	21	19	24	5	12	3	6	0	7	0	141	3	3	44	8	3	191	0	0	4	51	3	52	0	106	5	14	1	6	2	3	0	2	113	21	0	0	30	30	25	33	0
OTU 50	3	62	93	110	10	5	18	14	20	25	62	21	8	22	5	4	251	43	7	9	7	20	15	3	12	17	57	11	17	4	0	42	35	2	199	39	7	30	0	145	24	81	672	101	12	5	4	107	49	71
OTU 51	0	0	1	3	0	2	0	0	7	0	1	50	29	4	0	1	44	0	32	0	0	0	5	1	3	2	7	0	14	0	0	3	0	0	15	0	0	0	3	26	0	3	68	9	3	0	0	0	1	58
OTU 52	2	99	26	29	0	29	13	16	55	4	28	47	10	450	15	18	572	213	14	294	39	1	25	30	66	27	27	35	50	18	30	209	32	25	18	42	93	14	79	18	16	17	119	46	121	18	66	119	47	68
OTU 53	0	0	0	0	0	0	0	0	0	0	0	0	0	0	0	31	0	0	0	0	0	0	0	1	0	0	0	0	0	0	0	0	0	0	0	0	0	0	0	1	0	0	0	0	0	0	0	0	0	7
OTU 54	29	43	45	17	4	33	69	2	2	5	9	20	18	110	5	51	40	23	37	30	1519	5	534	27	130	5	44	265	73	279	32	72	76	10	24	19	77	1	61	12	8	293	62	34	12	75	7	88	13	224
OTU 55	0	0	0	0	0	0	0	0	0	0	1	0	0	0	0	0	0	0	0	0	0	0	1	0	0	0	0	0	0	0	0	0	0	0	0	0	0	0	1	0	0	0	0	0	0	0	0	0	0	0
OTU 56	3	43	3	1	0	4	0	8	11	21	0	0	0	11	0	0	3	2	0	7	5	0	0	9	58	5	0	0	0	0	14	55	0	22	1	0	2	2	0	9	0	0	31	16	1	0	4	46	2	54
OTU 57	18	310	12	79	49	19	61	22	38	78	41	35	14	219	33	6	212	186	148	177	22	107	19	55	23	40	184	11	135	6	48	65	106	15	98	30	10	30	38	1005	13	9	194	268	1644	41	59	191	80	147
OTU 58	2	0	0	12	0	15	120	0	1	0	27	8	0	78	14	3	32	0	1	31	35	0	7	8	0	1	0	1	0	18	2	2	9	2	15	16	35	43	9	130	1	72	0	13	1	2	6	0	59	2
OTU 59	0	32	31	37	0	0	20	2	27	3	0	3	0	7	0	1	224	49	0	0	11	0	0	0	0	8	52	0	0	0	14	12	0	0	17	0	54	2	15	43	27	19	2	0	0	16	12	0	12	11
OTU 60	27	20	15	24	1	1	115	68	13	9	68	81	2	54	17	4	148	6	19	9	133	1	10	15	45	1	70	49	4	8	6	60	76	2	0	2	78	16	23	41	33	86	128	109	24	30	24	34	14	74
OTU 61	357	129	70	92	13	82	20	53	85	20	4	26	106	7	80	752	19	16	609	6	258	21	34	3795	31	120	10	24	2	32	454	23	44	4771	3	34	61	199	25	207	17	11	43	82	534	40	45	39	75	31
OTU 62	0	3	73	55	7	8	14	0	2	15	22	45	18	15	23	8	3	6	1	1	8	16	12	0	40	0	0	2	2	1	2	0	25	13	0	3	33	0	2	17	0	0	3	28	0	15	0	0	35	2
OTU 63	47	3	1	2	2	8	2	85	0	1	30	47	0	35	6	1	64	2	4	4	13	5	48	0	1	5	280	20	9	24	1	46	144	3	120	0	8	5	0	2	27	29	64	88	0	5	1	102	33	5
OTU 64	49	14	115	51	30	20	9	14	30	76	28	61	87	175	8	42	31	25	8	119	105	88	9	6	48	5	86	23	5	7	27	23	98	26	88	67	87	8	112	35	57	39	29	97	14	103	17	48	29	126
OTU 65	0	0	0	0	0	0	0	0	0	0	0	0	0	0	0	3	0	0	4	0	0	0	0	4	4	2	2	0	0	0	1	0	0	1	3	0	4	0	0	0	0	125	0	0	0	0	0	0	0	0
OTU 66	13	16	14	21	8	2	40	12	3	21	14	49	79	28	0	39	54	4	100	17	0	13	3	11	19	7	168	0	3	0	82	1	42	2	172	33	14	12	15	4	15	5	126	14	5	5	4	246	0	10
OTU 67	0	34	8	109	1591	30	6	13	0	35	2	25	30	1	0	0	42	21	21	12	0	38	8	4	42	0	3	0	300	6	21	22	221	1	0	3	2	32	15	0	1	0	4	11	9	39	23	1	18	25
OTU 68	1	0	0	122	0	11	15	62	7	0	0	5	10	1	1	0	5	2	7	2	0	8	28	4	18	10	3	12	0	5	4	0	8	0	21	0	38	2	8	104	0	0	5	0	7	18	26	0	20	4
OTU 69	0	14	28	43	25	23	11	522	5	10	66	39	0	40	11	1	47	3	43	57	67	44	0	9	69	1	74	7	45	1	15	16	71	0	2	12	8	13	2	27	11	26	0	38	24	0	0	39	2	1
OTU 70	2	21	0	6	15	20	56	0	9	7	49	43	36	8	3	0	2	0	0	0	0	28	6	35	11	2	105	11	0	3	5	5	24	28	8	0	5	0	0	46	9	9	0	17	0	1	2	2	1	18
OTU 71	4	0	32	0	2613	0	71	13	33	70	4	0	35	77	13	12	0	637	0	20	57	96	12	0	12	9	0	5	40	0	31	45	11	3	53	50	0	39	0	33	0	101	0	11	21	25	1	51	47	2
OTU 72	0	1	48	134	4	9	57	2	0	9	34	0	235	12	18	4	51	64	11	20	1	3	1	39	2	0	18	0	2	1	73	34	15	4	154	2	5	5	15	23	2	31	10	76	80	4	0	182	6	19
OTU 73	0	14	2	165	6	37	0	10	165	0	8	21	7	42	3	15	62	5	0	34	119	7	1	1	19	8	0	8	52	6	22	60	18	67	18	3	70	33	20	27	7	12	0	1	20	0	11	18	11	6
OTU 74	2	5	20	2	18	14	103	39	64	7	7	168	37	196	4	4	15	0	4	149	4	36	8	34	11	35	77	2	17	12	19	2	54	42	167	19	311	30	68	45	75	39	51	148	81	180	9	4	33	1
OTU 75	561	64	6	15	3	34	16	11	24	0	5	27	74	68	24	27	7	175	1	7	674	7	30	1	27	493	30	12	17	10	8	4	106	11	162	2	205	39	34	0	35	69	0	70	8	7	47	45	15	65
OTU 76	1	15	39	5	0	0	12	10	0	1	33	1	24	13	4	2	21	17	1	0	0	0	0	22	14	1	0	0	25	0	6	127	11	0	192	22	4	0	0	429	2	0	28	7	20	0	0	148	0	1
OTU 77	4	3	6	30	40	51	59	38	6	30	139	15	18	34	7	4	50	1	20	3	5	78	41	17	10	23	39	3	29	45	14	13	24	1	68	6	35	43	15	1	15	138	18	77	97	27	2	9	37	18
OTU 78	4	24	13	26	0	49	23	2	3201	20	1	0	1	162	121	5	0	8	4	22	12	0	1	17	0	75	2	0	28	0	3	1	37	1370	9	124	0	103	1	2	101	0	25	30	17	97	81	0	7	38
OTU 79	21	36	265	47	24	108	43	31	34	17	82	67	30	163	30	9	344	19	48	60	149	43	34	81	145	59	98	29	39	1799	26	161	169	6	299	93	102	78	98	111	20	273	138	109	7	5	47	138	105	246
OTU 80	9	17	93	5	7	45	166	23	7	12	24	21	3	186	2669	29	19	29	73	258	7	9	8	67	103	6	50	6	14	2	2	34	2	21	48	144	31	1	52	28	9	85	142	4	2	5	45	18	25	54
OTU 81	323	65	299	32	2	56	237	5	7	1	68	21	28	13	0	595	92	0	22	11	109	11	29	75	28	37	188	5	19	10	25	155	28	5	0	21	83	10	159	85	12	93	66	108	21	7	63	140	38	92
OTU 82	18	171	18	17	1	4	0	0	2	0	12	107	25	0	13	5	126	7	2	0	11	11	3	38	82	12	0	0	36	0	0	64	14	0	63	5	3	16	13	122	28	0	66	8	0	2	1	57	4	32
OTU 83	0	0	10	0	5	0	9	0	10	6	15	2	25	0	56	11	1	0	0	11	29	9	9	0	0	24	43	10	0	7	0	0	49	0	7	0	0	40	11	0	12	2	2	0	0	0	6	2	36	0
OTU 84	1	24	59	3	6	2	200	1	0	8	14	16	0	7	9	6	2	0	8	0	17	18	1	1	6	3	91	0	16	4	7	15	18	26	250	34	2	27	15	129	6	23	42	85	7	4	1	11	11	6
OTU 85	3	1	16	0	0	36	8	1	9	1	0	0	0	0	30	0	8	2	23	0	15	0	36	0	8	26	17	14	3	16	0	0	0	29	0	0	0	71	22	16	60	0	0	1	3	0	0	2	22	0
OTU 86	0	0	0	0	0	0	0	1	0	0	0	0	0	0	0	0	0	1	0	0	0	0	1	0	0	0	38	0	0	3	0	39	0	0	2	0	0	44	0	0	0	0	0	0	0	0	0	0	6	0
OTU 87	0	0	3	85	0	0	0	0	3	0	3	0	42	193	0	1	0	1	1	81	0	0	0	10	3	1	7	3	0	0	5	2	15	0	0	0	2	0	17	250	1	113	3	7	0	0	1	45	0	3
OTU 88	14	0	40	72	0	0	0	0	0	0	1	0	46	1	0	15	0	0	0	0	0	0	0	5	12	0	0	5	82	0	0	0	0	0	3	31	0	3	0	12	8	0	0	4	9	0	0	0	0	0
OTU 89	0	8	5	2	1	0	92	1	3	0	0	0	0	144	7	1	63	0	11	73	24	2	1	1	10	2	0	1	0	0	0	0	0	0	0	0	0	0	12	40	0	82	69	0	478	3	3	9	0	0
OTU 90	3	0	0	0	0	93	17	48	0	0	0	0	1	0	0	0	0	17	0	3	13	0	0	0	0	0	9	0	0	0	32	0	25	4	13	6	0	1	4	0	0	0	0	0	0	0	0	0	1	184
OTU 91	0	0	0	1	0	23	0	0	0	0	4	0	0	0	0	1	0	0	0	0	0	0	0	0	0	0	0	0	0	0	0	0	116	0	46	0	0	0	10	3	0	0	0	0	0	0	0	0	0	0
OTU 92	0	8	0	0	0	0	0	0	2	12	2	0	55	25	5	2	0	0	12	21	0	0	0	0	0	0	1	8	17	1	0	0	1	0	47	0	124	12	37	0	2	0	0	6	34	0	62	3	2	25
OTU 93	0	0	0	0	0	0	94	4	15	2	3	0	7	1	1	0	0	0	0	0	0	0	1	0	0	7	0	2	0	0	0	0	2	2	1	51	0	0	0	0	0	34	27	9	0	0	0	0	3	3
OTU 94	16	11	238	9	83	314	35	148	164	61	1	8	81	0	167	13	132	64	134	3	8	162	144	238	71	220	3	99	18	71	119	5	194	140	41	146	35	237	156	24	167	28	66	111	44	226	16	5	344	59
OTU 95	0	38	0	43	1	0	0	1	0	0	41	8	0	0	0	3	44	7	13	2	0	6	9	0	0	2	0	0	0	1	0	3	61	1	8	0	5	0	5	0	0	3	0	3	0	3	2	0	25	0
OTU 96	7	3	0	0	0	0	0	0	0	0	4	0	0	0	0	4	2	0	7	0	0	0	0	0	32	0	1	0	0	0	0	0	0	0	0	0	0	0	0	0	0	0	0	74	0	0	0	1	0	69
OTU 97	4	0	10	1	0	0	0	0	0	0	0	2	1	0	0	3	0	0	0	7	44	0	7	0	3	13	0	0	0	4	0	0	0	0	0	1	0	5	0	0	10	0	0	83	0	0	0	1	1	28
OTU 98	1	21	0	0	0	15	1	2	1	1	1	1	459	1	20	3	0	3	3	3	0	0	0	0	26	0	14	0	22	0	28	0	8	0	0	0	666	24	0	0	33	1	76	80	0	144	0	12	1	7
OTU 99	1926	3	93	301	7	27	9	13	10	26	100	85	83	6	31	2	164	8	16	19	194	12	19	47	118	39	14	21	67	9	32	4	117	4	210	0	78	76	36	29	12	186	51	86	15	31	58	202	44	28
OTU 100	74	8	8	85	11	1	1	8	129	1	2	5	93	75	4	96	12	4	38	12	30	14	44	382	0	14	1	41	42	22	0	25	87	121	46	0	86	46	2	42	5	13	6	3	107	2	12	2	115	8
OTU 101	0	0	0	6	0	0	95	0	0	4	1	10	0	0	0	1	37	0	1	11	0	0	0	0	0	0	0	0	0	0	2	7	12	8	90	0	0	0	1	1	0	0	0	1	0	0	1	0	0	0
OTU 102	5	0	0	0	0	4	0	0	0	0	4	21	54	0	0	0	15	6	2	3	11	0	0	7	3	1	24	2	0	0	19	0	0	1	0	0	46	0	0	14	0	16	27	0	13	1	6	107	0	0
OTU 103	3	3	1	26	0	1	4	22	10	10	31	14	2	0	0	7	41	66	0	28	45	1	6	35	37	2	5	5	8	1	0	8	27	1	1	3	21	0	25	0	2	629	58	0	1	1	13	96	16	7
OTU 104	15	59	2	10	17	4	142	13	5	0	16	6	6	24	23	46	224	40	5	47	19	29	5	155	20	26	44	8	28	4	3	24	88	3	27	14	46	17	31	34	28	32	24	61	8	19	21	70	32	88
OTU 105	0	1	0	1	0	0	0	0	7	7	5	0	0	1	0	0	4	0	0	11	1	0	24	0	0	1	0	3	0	15	13	0	31	1	18	1	0	0	6	106	0	0	1	0	1	2	1	18	14	201
OTU 106	0	0	0	2	1	42	90	19	0	6	33	48	0	3	0	0	0	194	0	0	9	5	0	18	27	0	0	1	0	0	9	0	0	0	51	0	0	0	66	5	2	0	1	29	17	0	42	5	4	32
OTU 107	14	3364	17	1	5	5	0	0	0	0	39	10	1	56	0	0	9	0	0	5	0	10	2	30	0	1	25	0	0	1	0	5	0	0	3	0	10	1	1	12	0	0	5	0	0	0	0	0	6	0
OTU 108	0	26	38	29	6	37	26	27	1	9	9	12	24	17	44	0	199	0	0	81	0	8	22	13	0	15	3	8	55	12	0	26	50	0	2	2	2	40	1	25	19	29	0	15	5	2	1	15	7	53
OTU 109	0	0	0	7	0	0	0	0	0	0	0	0	3	0	0	2	0	0	0	2	9	0	0	0	0	0	0	0	0	0	0	0	0	0	1	3	0	0	0	0	0	0	0	0	0	0	0	0	0	0
OTU 110	11	145	30	59	36	52	1	5	15	17	4	19	6	32	6	5	14	8	1	0	1	69	1	29	30	21	36	0	93	3	46	3	14	14	7	0	50	5	93	100	0	83	411	27	4	99	2	8	6	76
OTU 111	1	0	0	0	0	0	0	0	2	0	0	0	0	0	9	3	48	0	0	0	0	1	0	2	1	0	0	0	0	0	1	0	2	0	3	1	0	20	0	3	0	0	8	0	6	2	0	1	1	0
OTU 112	2	14	78	0	7	3	6	12	1	0	0	13	54	67	23	7	29	0	0	5	72	18	0	0	1	6	0	0	11	0	2	0	4	1	1	1	0	4	0	3	9	71	28	1	0	0	0	2	1	0
OTU 113	0	0	4	10	0	0	1	0	4	0	0	11	0	0	0	0	0	14	0	0	20	0	0	0	12	0	0	0	1	0	0	0	0	0	0	51	12	0	42	0	0	17	21	2	0	0	1	7	0	1
OTU 114	1	5	218	146	56	52	57	11	100	26	95	81	111	46	169	10	534	16	68	1	139	88	77	133	111	112	44	37	2	42	24	23	71	21	68	56	16	147	46	20	75	47	70	379	69	230	20	41	155	10
OTU 115	13	33	69	47	4	84	92	76	45	10	82	91	17	151	75	4	220	1085	4	986	32	10	8	29	14	24	132	5	9	4	39	119	145	18	86	50	38	106	2563	6	51	69	404	68	6	19	1411	130	12	9
OTU 116	4	823	103	6	17	45	94	29	4	28	50	1	1	27	1	12	0	8	89	5	43	23	15	14	178	18	14	2	48	1	17	232	81	1	1	1	27	28	32	1743	19	51	65	95	49	11	2	172	19	74
OTU 117	18	100	94	0	42	84	7	22	108	80	19	10	2	12	1	14	42	45	945	19	3	96	101	0	43	6	22	41	30	58	765	12	70	40	0	73	0	21	14	94	5	24	58	109	22	105	7	20	195	42
OTU 118	0	8	0	1	6	0	0	26	0	0	0	0	5	17	0	0	1	2	4	3	25	8	6	0	1	2	17	3	0	2	1	0	0	0	12	0	0	1	0	5	1	0	3	69	0	0	0	0	11	0
OTU 119	7	52	136	15	0	117	51	82	32	2	52	17	99	50	1	25	141	65	4	8	24	0	25	9	13	3	13	23	29	15	1	99	199	6	59	23	145	3	69	28	4	193	3	82	77	16	9	34	93	109
OTU 120	3	0	5	6	3	20	10	0	0	0	32	0	42	0	0	0	13	0	3	2	0	2	0	0	17	5	3	0	0	0	10	0	0	0	4	12	1	55	0	21	26	15	2	138	0	0	11	36	2	0
OTU 121	1	0	5	13	10	0	0	2	39	28	24	7	0	5	36	14	9	1	28	1	3	24	61	0	64	52	0	31	45	42	33	6	238	28	47	91	15	21	11	120	54	10	62	7	32	8	4	14	99	1
OTU 122	29	0	2	70	1447	97	347	20	11	1444	13	247	60	382	0	12	32	5	17	218	1	2845	10	26	226	3	314	6	4	5	0	45	94	4	52	123	12	22	4	7	14	20	42	5	0	3426	67	4	14	41
OTU 123	18	102	154	177	39	100	73	131	32	32	81	60	236	285	87	35	158	132	161	58	37	98	47	75	204	95	81	10	177	35	57	61	56	14	259	72	189	79	149	243	51	269	104	354	28	151	100	161	55	181
OTU 124	541	77	0	1	0	7	10	0	0	0	2	0	0	8	0	1364	26	4	0	0	8	0	0	0	0	1	1	0	0	0	0	0	53	0	7	16	0	4	0	0	4	49	0	0	2	0	0	1	0	1427
OTU 125	391	70	268	203	68	37	435	23	27	62	18	41	25	256	135	102	83	189	18	114	179	137	2111	190	186	130	114	1045	162	1085	3	386	61	158	93	7	19	183	118	99	54	76	59	180	25	47	102	101	67	160
OTU 126	17	0	6	0	0	91	0	21	8	0	0	0	0	10	0	14	0	3	0	4	10	2	5	2	0	0	23	6	2	2	4	0	0	11	20	1	2	0	20	0	0	0	0	0	3	18	0	0	0	3
OTU 127	0	0	797	56	3	30	21	42	10	0	9	0	22	75	1	1	61	7	2	33	15	4	45	1	18	0	13	8	3381	22	8	44	101	3	26	29	15	1	0	0	30	5	0	1	3	23	0	56	61	104
OTU 128	8	144	298	222	42	87	89	35	99	32	309	81	54	111	39	56	343	250	111	102	131	85	36	179	112	19	153	27	32	18	58	271	473	87	326	111	86	126	295	86	29	262	68	227	75	66	140	121	78	439
OTU 129	0	0	0	2	6	1	6	12	0	33	0	0	4	0	0	4	0	43	0	2	27	10	94	0	4	0	0	42	0	68	1	0	0	1	1	15	6	0	0	0	0	0	0	2	0	55	13	0	107	0
OTU 130	41	1	9	245	0	343	1	67	2	0	40	1	3	16	8	137	75	0	0	16	53	1	0	0	39	5	4	3	7	0	0	0	38	2	354	1962	1	11	4	0	1	28	121	12	8	17	0	18	4	5
OTU 131	0	0	75	54	0	0	28	1	0	1	2	1	0	31	3	2	6	132	61	0	98	0	9	90	11	49	22	5	3	7	8	5	6	10	16	0	124	49	10	26	24	117	49	8	0	14	68	0	14	7
OTU 132	996	22	0	0	1	35	0	6	7	0	0	9	0	75	1	1	0	0	2	20	0	3	33	0	1683	0	25	20	22	14	0	0	17	0	2	5	33	3	25	3	5	0	0	0	0	5	5	2	79	9
OTU 133	0	0	0	29	0	0	2	0	0	1	0	21	0	59	0	3	0	0	1	42	36	1	0	0	5	0	0	0	16	0	0	20	4	0	0	0	0	0	5	3	1	0	0	0	0	6	0	5	7	1
OTU 134	1	2	21	69	1	50	114	1	2	2	295	0	72	70	1	2	33	23	4	28	7	1	0	17	0	0	2	0	8	0	372	34	23	0	77	1	129	17	51	1	0	5	32	7	9	11	49	13	5	10
OTU 135	3	0	0	61	47	168	196	161	145	31	61	21	3888	12	44	40	90	1	157	0	22	82	132	347	7	68	29	72	1	59	112	1	1	81	1	105	6	243	0	1	99	18	0	1	31	242	23	45	381	193
OTU 136	68	97	1	206	1	11	58	0	7	0	90	0	22	31	19	47	67	4	3	46	0	2	41	57	135	25	17	13	3	22	0	28	1	1	51	3	24	9	3	0	36	134	35	10	7	28	22	7	59	0
OTU 137	0	0	11	2	9	0	2	0	0	8	0	15	0	50	5	1	16	0	12	46	3	19	18	1	0	13	0	0	10	13	0	0	104	0	14	7	133	58	0	0	16	0	0	5	3	0	1	14	11	0
OTU 138	1	1	0	18	0	0	4	0	4	0	46	36	2	0	5	0	24	14	39	9	2	0	0	11	1	0	84	0	0	0	19	0	0	0	5	3	2	0	165	0	1	9	1	0	0	9	45	0	0	11
OTU 139	23	26	57	17	906	22	37	39	120	33	60	125	115	10	4	26	62	126	10	1	81	111	63	6	94	8	64	21	58	33	0	25	47	124	70	28	144	21	101	35	59	16	277	94	43	130	14	93	76	83
OTU 140	31	135	45	210	38	86	724	37	58	41	49	133	223	25	8	72	374	146	27	15	211	81	48	17	442	18	194	6	62	18	79	73	1334	42	240	65	229	4	160	50	26	185	100	66	98	80	29	86	22	99
OTU 141	0	0	0	0	0	0	0	0	0	0	0	0	0	0	0	0	0	0	0	0	159	0	0	0	0	0	0	0	0	0	0	0	0	0	0	0	0	0	0	0	0	0	0	0	0	0	0	0	0	0
OTU 142	0	0	0	0	0	42	29	0	0	0	0	0	0	0	0	0	0	0	0	0	17	0	2	0	0	3	14	5	0	7	0	1	0	0	0	0	0	0	0	0	0	0	0	0	0	13	0	0	4	0
OTU 143	0	1	0	0	356	0	0	0	0	420	4	14	0	1	10	0	7	1	0	0	0	706	0	1	0	38	3	7	0	0	0	13	0	0	24	8	0	37	0	33	9	15	0	0	3	0	0	38	6	0
OTU 144	0	1	0	0	0	0	90	0	2	0	7	1	21	0	7	0	6	18	0	3	0	0	1	4	0	2	6	1	1	0	0	0	36	1	0	142	47	0	0	0	0	1	0	0	0	0	0	0	5	0
OTU 145	14	51	3	161	28	38	77	18	43	37	64	4	2	325	2	11	3	33	0	245	38	52	37	66	100	9	150	27	70	12	45	92	7	15	0	126	48	4	55	39	9	2	98	13	16	51	0	167	97	67
OTU 146	18	9	137	3	0	5	86	16	18	0	8	37	1	208	4	11	55	0	25	98	14	0	2	17	17	6	65	0	7	1	52	58	6	2	6	0	195	29	39	11	5	1	171	8	1	3	59	0	6	43
OTU 147	0	0	8	0	1	0	0	14	11	2	17	21	0	5	1	5	121	12	1	22	0	3	0	17	47	3	29	0	2	0	0	0	311	28	0	59	31	5	4	0	1	0	2	0	18	1	2	2	2	1
OTU 148	35	6	156	5	0	9	53	2	9	0	0	5	19	231	2	27	68	35	39	65	23	0	46	7	0	2	0	16	2	14	15	304	100	0	93	25	4	6	26	18	8	4	7	63	15	15	12	67	89	22
OTU 149	0	11	0	1	20	0	28	0	10	2	46	39	3	6	0	2	4	9	0	2	8	25	7	0	0	0	60	0	4	0	1	20	6	7	17	16	4	2	5	0	6	0	47	4	0	18	9	112	1	0
OTU 150	0	24	0	1154	1	13	2	0	10	11	0	41	0	0	0	8	43	0	17	3	0	3	0	23	12	0	3	1	2	1	2	6	1	4	0	4	17	0	0	13	25	7	0	7	0	0	1	0	1	0
OTU 151	13	23	11	317	16	6	22	41	0	32	0	7	0	24	7	50	4	0	16	25	3	37	31	60	31	4	5	30	4	16	29	15	27	0	1	0	9	0	0	6	4	80	23	37	20	0	16	5	19	0
OTU 152	10	6	126	0	14	1	11	19	93	41	4	117	139	26	24	24	13	2563	21	11	32	26	163	6	11	24	120	72	397	76	73	46	7	28	1	16	50	7	3	11	35	29	0	40	4	19	37	60	335	1
OTU 153	0	0	0	0	5	0	0	4	0	0	25	13	0	0	0	1	4	1	0	0	0	11	4	0	0	0	0	0	0	3	0	0	0	0	0	1	0	0	0	85	0	1	0	0	0	0	0	4	0	0
OTU 154	0	0	0	0	0	1	0	1	4	0	0	1	1	0	0	0	0	10	1	0	0	0	0	0	0	0	0	0	31	0	0	1	0	5	0	8	2	0	0	0	0	0	477	44	0	0	0	0	0	0
OTU 155	2	0	7	1	4	32	1	2	20	0	5	15	0	1	0	0	25	0	0	17	131	5	30	9	42	13	59	15	44	12	0	3	6	2	1	0	0	15	16	0	0	35	2	0	4	1	0	0	19	5
OTU 156	1956	145	105	92	31	88	3	22	50	12	88	8	8	85	28	3889	90	14	10	196	97	70	25	117	44	20	10	12	19	2	18	3	46	30	167	2	12	55	0	38	24	232	5	58	14	40	4	34	28	68
OTU 157	1	0	0	75	0	926	0	210	5	2	0	0	0	2	0	22	4	4	0	0	40	0	0	27	4	4	0	0	0	0	10	1	7	3	112	0	0	0	30	50	76	11	77	0	44	2	27	1	3	454
OTU 158	0	0	0	0	0	0	7	14	0	0	0	0	1	169	0	6	0	0	0	7	10	0	0	0	0	0	26	0	0	0	0	0	32	0	0	0	0	0	0	1	0	0	0	0	0	0	0	0	0	0
OTU 159	4	16	28	13	16	2	228	39	7	13	5	18	0	118	35	6	11	108	21	50	74	28	0	22	114	14	31	0	4	3	5	17	23	13	38	12	16	28	109	81	31	8	22	12	14	7	63	37	0	71
OTU 160	19	300	29	136	19	163	70	42	30	9	51	67	283	75	25	72	13	912	70	10	25	37	0	151	0	55	190	1	108	1	76	62	71	6	3	11	1216	9	1745	501	7	186	47	21	47	24	586	16	8	72
OTU 161	9	4	42	8	0	37	122	7	1	2	25	87	13	166	2040	10	30	1	0	57	33	0	3	7	48	1893	34	2	106	284	1	20	30	0	27	1437	1	3796	2	69	1969	21	38	3	0	8	2941	226	6	2
OTU 162	2	4	87	3	14	139	256	80	17	28	5	0	1	20	53	30	7	55	127	14	46	31	32	89	20	81	0	30	25	18	157	408	0	26	24	25	48	92	66	73	83	331	40	11	2028	2	35	823	70	22
OTU 163	0	0	0	0	0	0	27	0	0	0	0	0	0	0	0	0	0	0	0	0	0	0	0	0	0	0	0	0	0	0	0	0	0	0	0	0	0	0	0	1	0	0	0	0	0	10	0	0	0	0
OTU 164	0	0	0	0	0	0	0	1	0	0	0	0	0	0	1	0	0	0	0	0	1	0	0	0	0	0	4	0	0	0	0	0	0	0	0	0	0	0	0	21	0	0	0	0	0	0	0	0	0	30
OTU 165	3	2	0	36	36	0	22	6	11	74	3	6	2	27	0	0	2	3	0	13	3	72	1	0	0	3	3	1	4	2	1	35	14	0	81	10	8	0	0	0	4	0	2	8	0	0	7	28	1	68
OTU 166	0	0	0	3	0	0	0	0	0	0	0	0	0	0	0	0	0	0	0	0	0	0	0	0	0	0	0	0	0	0	0	0	0	0	0	19	0	0	0	0	0	0	0	0	0	0	0	0	0	9
OTU 167	4	1	2	61	0	151	0	20	3	7	59	1217	4	92	0	5	6	40	15	45	1	0	6	19	49	11	2731	1	0	1364	32	3	0	3	32	0	0	2	5	1	7	0	40	0	6	4	1	86	0	1
OTU 168	0	159	62	1	8	120	0	62	3	23	110	2	172	64	3	0	6	3	9	96	24	24	8	1	23	14	0	12	28	2	1	38	2	0	18	6	6	10	73	30	0	11	74	134	25	1	5	28	44	9
OTU 169	0	1	0	7	3	0	0	0	0	6	3017	0	0	0	0	0	0	0	15	15	31	10	0	0	0	0	0	0	12	0	14	0	0	0	0	0	0	0	153	2	1	0	28	0	0	0	19	0	0	1
OTU 170	0	0	0	0	0	0	0	0	0	3	0	0	0	0	1	0	0	0	0	0	0	4	0	0	0	0	0	0	0	0	0	0	0	0	0	0	90	1	0	0	0	0	0	0	32	32	0	0	0	0
OTU 171	2	5	52	220	62	28	18	0	30	93	0	414	42	55	46	8	25	10	97	53	8	124	92	38	2	40	617	39	0	53	24	29	4	28	251	1	186	24	8	54	2113	0	10	21	28	54	0	62	138	3
OTU 172	8	0	0	0	3	1	0	0	0	9	0	0	1	0	0	0	1	1	0	0	2	18	0	5	0	12	0	0	1	0	0	0	0	0	0	0	0	1	9	0	0	0	23	0	0	0	0	1	0	6
OTU 173	0	33	18	0	0	1	8	27	0	5	32	2	0	4	1	0	38	7	15	2	0	1	2	0	1	0	89	0	0	0	8	0	54	0	1	0	3	8	0	4	0	0	0	98	1	0	0	6	2	0
OTU 174	4	21	1	30	0	8	24	0	2	16	17	0	0	0	13	20	4	14	38	3	0	0	5	0	23	0	16	0	0	0	4	1	3	0	19	0	5	26	1	9	2	26	7	16	0	21	39	8	1	16
OTU 175	0	2	5	1	2	16	31	39	29	17	0	0	0	5	3	0	93	0	26	0	2	2	69	7	4	0	2	38	1	44	35	10	12	3	8	14	4	2	14	111	0	51	92	0	2	94	0	1	112	3
OTU 176	14	7	76	28	49	11	75	30	3	45	14	74	0	133	10	6	329	32	3	156	56	83	2	2	123	1	50	0	52	4	8	4	44	22	37	52	1	1	11	37	1	3	4	0	14	41	4	23	30	53
OTU 177	43	14	62	272	20	26	127	11	29	13	58	2	9	44	6	18	0	5	20	37	7	39	5	5	4	61	11	27	60	4	22	228	0	2	37	3	26	178	121	3	100	126	15	18	38	14	32	109	9	27
OTU 178	0	17	0	9	0	2	158	105	6	8	0	2	0	0	38	19	0	4	28	0	8	0	5	0	0	0	55	1	11	1	1	50	34	1	28	0	6	18	69	8	21	75	42	20	0	0	68	0	0	53
OTU 179	12	2	0	86	9	0	6	9	9	3	0	87	0	19	2	0	6	2	14	0	0	18	3	17	16	3	285	3	17	2	18	65	166	0	16	18	0	0	1	17	2	23	1	66	11	60	0	3	10	13
OTU 180	71	159	1910	242	43	84	147	95	92	62	118	90	66	44	4	14	122	95	45	18	339	96	81	57	19	52	68	5033	35	20	39	129	5	18	198	28	59	70	68	83	42	360	398	66	120	56	4	26	118	74
OTU 181	1	0	2	74	15	17	7	0	1	1	0	0	0	7	6	20	17	22	4	26	58	16	13	7	3	1	81	4	29	2	24	1	3	6	135	9	6	0	35	82	0	65	5	8	30	3	1	0	11	0
OTU 182	0	0	0	0	0	5	26	0	4	0	4	0	9	0	1	0	4	13	0	0	0	0	0	0	0	0	0	0	0	0	0	0	0	0	0	0	0	0	5	0	0	0	0	0	0	0	0	0	1	0
OTU 183	1	32	25	10	22	3	46	1	27	0	10	715	23	30	2	29	67	185	7	23	1	49	8	25	9	0	0	1	2	1	8	27	38	7	18	5	0	0	93	18	6	81	17	1	2	3	1275	128	5	27
OTU 184	10	7	2	1	8	1	105	9	0	24	0	1	0	73	0	0	0	0	309	25	27	10	0	0	5	1	59	1	3	0	83	7	1	0	5	0	0	2	1	2	0	7	47	0	47	13	0	0	2	2
OTU 185	0	16	37	15	3	8	33	5	33	0	9	4	7	12	4	16	11	42	26	8	46	7	8	56	13	2	90	7	314	7	8	5	101	79	5	0	0	21	21	24	9	23	9	60	3	2	115	53	30	70
OTU 186	1	23	0	1	4	1	0	6	34	0	0	2962	10	0	4	0	5	0	0	2	0	7	3	0	22	14	8	0	8	0	9	0	0	6	95	0	1	19	70	3	4	0	1	48	0	12	41	0	6	8
OTU 187	34	1	252	122	15	34	5	11	3	92	99	23	86	106	2	17	12	9	83	31	258	42	44	112	39	4	80	27	11	21	122	36	196	15	92	7	224	33	47	107	21	2	3	29	2	30	82	71	113	93
OTU 188	79	8	20	142	256	466	175	2822	419	195	16	81	32	234	246	172	60	140	552	47	90	517	512	331	88	377	1	260	147	1100	210	3405	97	265	4	356	110	549	16	0	386	78	74	41	181	378	36	22	1058	102
OTU 189	3	64	167	9	18	54	55	693	107	29	128	146	61	16	40	27	68	6	330	18	1	27	68	93	16	6	99	15	62	19	211	99	6	57	233	4	10	17	75	9	2	128	167	151	26	140	124	9	175	104
OTU 190	0	14	0	0	0	0	37	0	5	0	53	0	0	50	0	0	0	0	10	43	23	0	9	0	26	0	0	22	1	8	0	0	0	0	25	0	0	0	0	1	0	0	778	0	21	4	1	0	62	63
OTU 191	192	61	3	16	7	6	8	7	18	12	8	1	46	11	3	278	10	6	30	0	10	14	24	12	562	4063	27	5	57	15	20	73	367	1	233	174	3	19	122	109	1	204	48	15	11	1	61	34	34	23
OTU 192	1	12	20	11	9	83	71	85	9	24	96	22	93	292	4	9	391	11	8	91	143	12	30	26	24	10	19	4	36	4	2	61	58	8	73	12	172	2	10	94	7	296	243	2526	130	86	20	34	21	20
OTU 193	5	6	93	29	7	10	57	1	37	2	1	12	19	27	0	0	293	49	88	6	24	17	19	3	17	0	4	3	0	13	64	1	234	35	11	2	27	8	36	64	28	47	96	43	5	3	4	31	12	34
OTU 194	0	61	32	4	11	76	4	17	4	9	56	2	30	6	0	0	0	7	0	2	16	12	1	0	56	0	40	1	22	3	0	0	324	0	46	18	81	0	38	15	5	108	108	6	112	0	2	43	0	1
OTU 195	0	29	20	28	14	26	7	2	2	6	12	9	9	63	1763	6	0	42	19	18	0	35	6	1	6	14	11	2	12	2	2	3	40	1	43	80	131	2	12	42	0	29	19	41	0	1	53	2	0	0
OTU 196	4	0	22	0	1	6	59	35	18	4	28	30	83	2	0	0	2	0	2	17	7	1	1	51	36	0	10	0	0	0	58	2	18	21	86	20	3	0	19	1	1	6	32	1	2	9	0	1	1	5
OTU 197	5	16	127	181	6	30	92	12	201	2873	46	180	7	162	109	63	48	50	28	154	7	15	39	51	154	38	75	18	33	33	29	99	161	91	577	22	11	90	150	15	2030	107	38	60	28	54	123	95	110	36
OTU 198	0	1	26	61	0	0	0	4	8	0	4	0	0	19	0	0	0	51	3	9	4	1	10	3	4	1	0	0	0	6	4	0	0	7	0	0	1	0	0	1	2	43	9	0	1	1	19	0	24	45
OTU 199	4	14	0	52	0	6	0	6	0	1	2	3	37	4	0	0	14	0	5	13	30	0	0	27	7	24	34	1	2	1	20	19	1	0	0	2	63	0	0	36	2	18	0	37	12	1	1	0	1	2
OTU 200	9	8	54	91	17	8	6	0	9	12	6	15	6	28	2	10	8	18	4	118	8	38	33	1	61	4	80	8	7	9	0	102	51	22	69	11	69	0	2	10	0	107	2	2	1	0	13	5	47	148
