	Host 1	Host 2	Host 3	Host 4	Host 5	Host 6	Host 7	Host 8	Host 9	Host 10	Host 11	Host 12	Host 13	Host 14	Host 15	Host 16	Host 17	Host 18	Host 19	Host 20	Host 21	Host 22	Host 23	Host 24	Host 25	Host 26	Host 27	Host 28	Host 29	Host 30	Host 31	Host 32	Host 33	Host 34	Host 35	Host 36	Host 37	Host 38	Host 39	Host 40	Host 41	Host 42	Host 43	Host 44	Host 45	Host 46	Host 47	Host 48	Host 49	Host 50	
OTU 1	121	0	83	5	418	354	7	178	489	511	105	2	23	0	311	227	79	1	1017	14	78	958	446	276	0	276	58	251	3	321	339	18	48	234	0	281	223	711	60	1	231	464	279	0	114	474	151	119	1160	2
OTU 2	4	65	0	0	6	22	7	35	0	0	1	4	1	3	6	0	45	2	0	1	465	2	0	1	0	1	4	0	8	0	27	0	48	1	0	16	1	0	25	0	1	0	8	15	1	11	68	1	0	30
OTU 3	2	14	0	0	18	0	0	0	0	19	0	15	1	6	0	1	53	0	0	19	2	0	3	0	0	2	5	0	14	0	4	1	33	0	6	7	1	20	30	0	0	0	0	13	0	0	19	0	11	0
OTU 4	0	12	0	0	7	0	0	0	0	0	0	0	3	0	0	0	0	0	0	0	0	1	0	0	0	0	0	0	0	0	0	0	0	0	0	0	0	0	0	0	0	2	1	0	0	3	0	0	0	0
OTU 5	796	413	1	150	137	321	813	711	828	636	54	113	395	274	1	47	35	287	1527	218	389	144	386	12	269	18	1	291	147	815	970	21	0	471	15	612	895	99	33	545	6	84	1677	49	103	47	38	293	172	4
OTU 6	84	26	15	334	7	1825	10	929	31	0	1	19	29	74	1	17	166	1	24	0	51	0	14	1	113	21	3	1	14	1	540	28	9	0	6	10	44	6	0	3	2	0	2	65	4	8	2	1	22	0
OTU 7	37	76	23	98	15	52	31	9	373	8	805	73	47	107	18	10	397	3	43	134	23	35	40	8	94	7	135	43	304	9	8	21	83	149	166	605	70	61	47	130	11	20	34	29	137	79	45	52	115	128
OTU 8	21	199	123	76	15	1	466	28	40	855	172	15	166	135	21	25	129	73	20	48	12	31	7	9	300	42	53	6	185	9	65	30	53	24	54	44	176	117	40	24	80	22	7	97	12	0	52	11	67	89
OTU 9	0	18	36	10	23	42	17	5	8	1	6	15	76	47	40	41	38	10	39	19	39	0	0	1	1	20	5	0	27	0	13	105	0	0	0	14	0	28	17	73	8	0	0	2	1407	5	0	2	28	3
OTU 10	17	1	3	7	6	0	0	10	1	34	103	36	0	0	0	2	1	3	10	4	60	12	13	14	0	6	0	13	9	0	3	7	0	0	0	1	71	7	1	6	0	13	16	1	0	25	34	0	5	4
OTU 11	15	20	18	8	15	21	4	12	17	74	33	29	28	14	44	51	10	33	18	7	14	22	18	8	3	53	59	13	208	4	37	84	52	1	71	9	77	37	110	9	2	9	1389	128	1	38	21	0	30	69
OTU 12	29	10	10	325	18	4	83	30	82	25	37	82	40	51	5	7	236	84	43	11	134	24	33	59	206	11	133	15	61	26	34	13	193	61	187	25	10	2	22	4	60	12	65	32	64	132	0	44	211	142
OTU 13	0	0	1	0	0	0	0	0	0	0	6	0	0	34	3	0	0	0	0	1	0	0	0	1	0	3	0	0	0	0	1	0	0	0	0	0	0	0	1	0	1	0	0	0	3	0	0	0	0	0
OTU 14	0	30	4	29	0	1	42	1	7	0	42	8	1	0	1	5	54	8	0	26	51	0	38	14	4	2	32	16	0	54	23	31	9	2	1	4	0	7	17	0	0	0	2	5	65	1	0	0	15	89
OTU 15	0	0	0	4	0	0	19	0	0	0	0	5	0	0	0	0	0	0	0	0	27	0	0	0	0	0	24	0	0	0	7	0	12	0	0	0	0	0	1	0	0	0	0	0	4	0	0	0	0	0
OTU 16	0	0	0	0	0	0	0	0	0	0	0	0	0	0	0	0	0	26	0	0	0	0	0	0	0	0	0	0	0	0	0	1	0	0	0	0	0	14	0	0	0	0	0	7	0	0	1	0	0	0
OTU 17	8	55	0	37	27	0	0	14	7	9	7	29	73	0	8	2	0	11	48	0	1	86	1	0	23	6	59	1	0	0	4	75	14	3	584	13	1	1	56	0	4	49	5	6	33	13	88	7	5	2
OTU 18	0	72	133	16	17	7	7	1	21	9	29	28	17	7	1	8	31	57	1	4	450	24	11	62	47	0	19	21	5	11	27	78	129	10	41	57	12	7	11	80	3	9	9	33	3	14	15	9	8	163
OTU 19	0	0	0	0	0	0	0	0	0	0	0	0	0	0	0	0	0	0	0	0	0	0	0	0	0	0	0	0	0	0	0	0	0	0	0	0	0	0	0	0	0	0	0	0	0	0	0	0	0	0
OTU 20	3	99	14	3	0	1	120	31	19	4	263	48	36	5	0	9	46	12	22	6	0	35	6	9	83	3	15	0	180	7	11	4	90	0	35	8	86	3	78	0	6	21	1	4	12	5	7	0	8	84
OTU 21	61	8	444	2	188	573	23	373	486	277	168	69	45	282	217	93	4	0	472	69	146	433	478	230	40	99	8	162	55	335	11	32	60	300	23	296	47	260	0	14	197	211	214	12	52	476	5	124	872	4
OTU 22	5	44	64	92	24	57	32	38	6	0	106	1	94	3	10	19	35	5	31	3193	5	64	8	119	36	2	67	6	48	15	72	48	96	3	299	77	276	34	4	39	5	34	15	254	65	35	2	1	19	9
OTU 23	12	1	6	2	0	14	22	2	3	0	0	5	2	91	7	2	0	2	0	13	32	4	0	48	0	0	1	0	46	0	3	69	7	2	13	3	29	0	1	128	0	0	1	1	19	4	14	2	0	11
OTU 24	6	1	53	3	0	2	30	0	4	0	217	0	5	55	7	0	23	1	0	7	46	4	0	0	28	9	22	9	12	1	5	1	121	1	3	3	0	0	0	96	3	2	0	0	3	4	7	1	14	23
OTU 25	0	0	0	54	0	0	0	0	2	0	0	0	0	0	0	0	0	0	0	0	0	0	0	1	3	0	0	0	0	0	0	0	0	0	0	0	0	0	22	0	0	0	0	0	1	0	17	2	3	0
OTU 26	5	1	241	28	1	5	99	0	0	0	0	0	35	27	0	5	0	0	14	0	13	10	0	0	0	1	16	4	9	0	0	0	0	0	1	0	5	1	0	0	0	5	1	0	3	0	0	0	0	0
OTU 27	0	0	0	0	0	0	0	0	0	0	0	0	0	0	0	1	0	0	1	0	2	0	0	0	0	0	0	0	0	0	0	2	0	0	0	0	2	0	0	0	0	0	0	0	0	0	0	0	0	0
OTU 28	5	81	86	89	32	40	30	19	15	2	176	31	86	1	8	18	24	36	16	0	7	15	5	35	7	1	6	6	12	9	17	70	37	2	8	11	0	38	6	29	4	11	12	28	23	59	71	4	14	9
OTU 29	183	30	3	24	232	569	88	226	558	253	22	12	2	3	262	204	31	58	649	18	12	475	487	679	72	151	6	220	23	225	336	14	46	291	78	115	24	505	166	136	353	243	375	1	185	791	28	144	1078	123
OTU 30	10	0	0	0	0	0	71	0	0	0	0	0	0	0	0	0	1	2	0	0	0	0	0	0	0	0	0	0	0	0	0	0	0	0	0	0	0	0	0	0	0	0	0	0	0	0	0	0	0	0
OTU 31	0	37	31	44	0	0	46	1	0	0	2	17	7	29	0	0	2	0	39	32	16	0	0	0	0	19	5	0	26	9	26	1	7	0	0	0	6	1	0	2	0	0	0	123	293	0	0	0	5	8
OTU 32	15	17	37	111	2	96	67	55	2	4	44	50	0	39	5	19	33	3	13	23	56	0	17	47	27	20	147	1	61	14	1992	31	13	28	59	16	15	2	38	25	16	0	15	28	13	17	21	4635	23	221
OTU 33	0	0	0	0	0	0	0	2	0	0	19	0	0	0	0	0	14	0	0	0	0	0	0	19	0	0	0	1	0	0	0	2	0	0	0	0	0	1	4	0	17	0	0	0	0	0	0	0	2	0
OTU 34	134	121	14	73	63	38	8	152	57	15	3	23	190	184	43	390	105	47	13	57	134	83	18	84	254	5	49	36	1	16	11	0	129	4	0	21	579	14	22	103	18	42	15	1	14	12	0	8	82	473
OTU 35	0	14	6	21	2	0	227	18	0	63	158	127	5	40	8	6	30	12	0	0	22	27	0	20	651	0	97	9	15	1	2	297	4	0	89	0	21	6	127	12	0	9	28	18	6	25	28	2	0	188
OTU 36	0	4	3	67	5	27	1	45	28	2	11	59	30	1	0	0	10	0	78	4	8	10	0	39	2	34	1	3	76	2	6	10	73	17	2	172	43	2	214	14	59	6	8	563	3	2	107	16	8	8
OTU 37	2	4	59	2	1	2	6	0	0	4	13	0	0	283	1	0	0	2	0	123	0	0	0	18	32	15	0	0	6	11	0	1	0	0	1	12	0	0	3	1	0	0	1	1	3	1	0	0	0	24
OTU 38	1	198	57	139	12	3	37	12	0	0	7	4	28	50	1	0	4	11	16	68	12	1	0	27	11	9	31	0	1	0	33	65	0	3	15	560	18	29	10	119	7	0	1	0	8	9	29	0	12	7
OTU 39	2	24	0	179	0	0	0	0	2	3	28	0	17	0	124	16	0	0	0	0	0	0	0	4	5	2	15	0	15	0	0	0	0	13	1	4	0	5	4	4	0	0	0	0	0	4	4	3	0	0
OTU 40	3	5	52	0	11	8	3	0	2	6	27	28	23	8	3	26	86	0	16	59	183	38	24	42	22	0	3	6	48	3	29	65	71	2	5	21	32	4	6	99	10	16	18	70	0	65	25	0	50	0
OTU 41	1	51	2	53	3	7	15	60	52	6	27	5	17	27	19	0	2	27	5	97	106	19	3	0	30	26	65	8	39	5	5	85	45	0	225	0	16	16	40	17	0	11	2	4	4	0	75	0	26	487
OTU 42	0	0	0	45	21	2	0	25	27	35	2	16	19	6	96	0	0	0	0	4	1	69	12	0	10	4	8	3	0	15	0	0	1	0	0	4	17	0	0	0	0	53	12	0	36	19	13	0	11	0
OTU 43	0	0	1	1	0	0	0	0	0	0	0	0	0	0	0	0	0	0	8	0	24	0	0	0	0	0	46	0	0	0	0	0	0	0	0	0	0	0	0	0	0	0	0	0	0	0	1	0	0	0
OTU 44	0	0	0	6	0	0	0	2	3	1	83	0	2	4	0	0	4	18	0	22	0	0	0	0	204	0	4	0	1	0	0	1	0	1	0	2	0	1	16	42	0	0	0	4	21	0	0	0	2	8
OTU 45	0	61	18	0	5	11	4	2	21	4	61	75	11	225	2	65	18	16	96	46	3	11	1878	2	2	0	5	800	20	921	38	56	0	0	54	1	110	15	4	18	64	7	19	32	0	38	15	0	10	153
OTU 46	22	32	23	96	2	29	40	1	0	21	67	6	3	18	4	4	38	35	81	22	94	7	20	10	101	47	43	22	779	13	637	3	6	8	16	30	19	43	58	55	0	2	3	241	20	7	19	0	33	1
OTU 47	0	0	0	2	0	0	40	12	0	0	107	25	0	21	0	0	84	4	0	0	0	0	0	0	0	0	21	0	0	0	0	9	1	0	0	15	0	0	0	0	9	0	0	2	0	1	0	0	0	0
OTU 48	2	10	121	29	64	21	83	0	16	415	53	44	18	16	2	2	21	54	15	2	205	114	6	37	138	8	1	1	65	15	1	33	44	4	15	0	19	46	2	32	12	47	38	38	22	61	37	2	43	24
OTU 49	0	0	85	0	30	95	6	2	21	28	8	9	11	8	15	1	6	0	149	0	0	25	6	6	187	0	0	0	45	5	33	6	140	0	21	3	9	2	8	1	3	15	27	0	0	37	37	4	49	0
OTU 50	13	49	101	106	14	16	24	5	36	22	57	26	12	19	1	5	264	67	14	14	11	28	26	3	8	14	95	13	5	5	3	39	53	0	180	33	4	27	0	119	27	15	3	115	11	1	5	5	21	110
OTU 51	2	0	2	2	2	4	0	0	1	4	0	81	20	6	1	0	26	2	53	8	0	0	0	1	5	5	1	0	12	0	0	0	0	0	3	0	4	1	4	19	2	0	3	1	4	1	2	0	2	56
OTU 52	11	79	16	28	2	35	7	14	70	1	23	23	23	417	22	13	571	172	14	291	32	2	37	27	86	14	32	20	35	43	25	269	15	37	14	50	80	33	66	24	27	1	8	45	132	34	51	11	51	40
OTU 53	0	0	0	0	0	0	0	0	0	0	0	0	0	0	0	13	3	0	0	0	0	0	0	0	0	0	0	0	0	0	0	0	0	0	1	0	0	0	0	0	0	0	0	0	0	0	0	0	0	11
OTU 54	15	56	14	42	17	11	78	5	9	10	4	19	9	139	1	32	34	13	25	37	1328	17	565	36	94	5	25	362	59	302	46	123	61	10	17	19	83	2	71	9	27	9	41	48	18	101	13	6	13	172
OTU 55	0	0	0	0	0	0	0	0	0	0	0	0	0	0	0	0	0	0	0	0	0	0	0	0	0	0	0	0	0	0	0	0	0	0	0	0	0	0	0	0	0	0	0	0	0	0	0	0	0	0
OTU 56	2	45	2	6	0	4	1	14	13	43	1	3	0	1	0	1	8	4	1	6	0	0	0	16	85	10	2	0	0	0	18	46	3	33	0	3	0	0	0	11	6	0	0	15	27	0	7	6	9	32
OTU 57	38	320	9	60	29	10	64	31	53	59	32	27	5	232	34	7	227	262	191	208	37	114	30	55	25	39	170	19	119	1	40	92	144	46	76	45	15	29	43	979	23	57	32	237	1544	40	94	28	81	92
OTU 58	1	0	0	3	0	15	134	0	0	2	32	11	0	46	8	5	9	0	1	58	47	0	6	17	0	2	1	4	2	29	0	1	12	0	7	7	28	33	17	148	1	0	3	4	0	2	2	0	90	3
OTU 59	0	34	28	32	1	2	6	13	22	0	0	3	5	8	0	5	196	32	0	4	15	0	4	2	0	1	103	1	0	4	7	25	10	0	7	0	30	3	8	32	23	0	14	1	1	10	3	0	1	36
OTU 60	52	17	28	34	9	2	113	59	28	6	94	91	9	57	6	5	163	8	16	25	149	0	4	24	47	1	85	47	12	25	7	50	49	0	0	0	82	22	39	43	34	0	11	67	19	32	21	0	28	65
OTU 61	377	138	32	63	23	72	30	48	86	19	11	36	88	8	56	623	13	34	640	1	255	21	21	3504	52	144	6	13	3	46	375	50	33	4669	0	50	54	158	39	251	32	7	38	93	606	34	67	2217	91	17
OTU 62	0	9	87	81	3	2	7	0	5	20	18	65	25	30	20	2	0	4	0	1	3	20	23	0	76	1	0	4	9	2	2	1	42	18	0	0	29	0	0	12	0	9	0	31	1	10	0	7	68	0
OTU 63	38	0	0	1	0	7	8	78	5	2	45	59	0	47	4	0	47	5	1	1	30	8	50	1	4	2	290	33	11	24	10	45	121	6	99	0	15	0	0	0	13	3	0	64	1	23	1	0	43	4
OTU 64	31	14	131	63	31	20	21	19	44	90	63	63	83	212	5	47	17	24	11	85	99	88	27	5	72	3	84	28	2	2	38	4	82	13	84	51	45	13	88	28	72	51	38	109	15	140	31	3	19	125
OTU 65	0	0	0	0	0	0	0	0	0	0	0	0	0	0	0	7	0	0	2	0	1	0	0	1	11	3	0	0	0	0	0	0	0	3	0	0	7	0	0	0	0	0	0	0	0	0	0	2	0	0
OTU 66	7	20	38	19	4	2	83	6	19	18	20	62	98	36	1	38	35	4	65	22	0	9	4	15	8	0	172	0	20	6	89	0	13	17	220	55	24	2	8	8	22	5	4	22	1	1	7	9	4	1
OTU 67	0	30	14	41	1373	37	2	6	1	33	2	20	21	0	0	4	52	26	8	10	0	37	8	18	49	0	3	3	327	6	53	28	167	5	2	0	8	32	12	1	0	20	12	7	3	33	26	1	24	37
OTU 68	4	0	0	116	0	8	11	92	1	0	0	1	6	4	5	0	5	4	8	0	0	14	28	6	16	11	8	2	0	14	0	0	10	0	33	0	42	0	8	84	0	11	0	0	12	13	24	0	21	4
OTU 69	3	15	8	61	44	29	28	646	2	15	59	65	0	20	13	3	52	12	60	38	66	26	2	5	65	2	84	9	46	7	9	8	41	6	8	6	4	9	1	35	2	12	2	22	13	0	4	0	15	3
OTU 70	0	17	0	1	28	26	60	0	11	14	73	47	20	6	23	0	4	1	5	1	0	24	8	20	9	2	58	3	0	0	0	7	24	42	27	0	5	1	3	32	21	7	0	10	0	0	0	25	1	20
OTU 71	3	0	25	2	2527	1	64	10	28	45	1	5	14	88	10	13	0	669	1	30	68	126	19	1	23	6	0	0	36	5	18	28	8	1	44	70	1	39	1	31	0	51	20	23	13	4	6	0	31	1
OTU 72	2	1	61	160	3	4	44	5	0	3	22	3	263	12	14	4	78	52	1	11	2	2	9	28	2	7	37	0	4	4	108	25	6	10	133	0	4	14	25	39	3	2	1	110	67	1	0	3	10	35
OTU 73	4	16	11	170	30	28	0	2	171	0	11	8	6	43	5	14	70	3	0	61	88	10	0	1	6	16	0	0	39	12	25	50	15	54	45	5	49	35	34	20	2	2	3	1	33	0	15	14	26	1
OTU 74	1	3	18	3	2	32	140	26	23	6	4	193	36	244	3	4	6	1	5	114	4	29	8	54	3	37	106	12	24	7	29	1	64	20	173	25	249	15	42	65	83	12	104	196	52	163	7	14	38	3
OTU 75	547	78	4	26	3	28	8	17	26	1	11	25	92	77	28	22	7	227	0	5	701	3	13	1	32	500	21	5	4	2	4	11	111	22	168	4	172	25	58	0	50	723	4	28	8	12	56	8	13	43
OTU 76	1	10	16	3	0	1	9	7	0	0	22	1	20	7	13	0	16	35	1	0	0	1	5	12	9	0	0	0	62	8	10	183	8	0	198	40	0	0	0	445	1	1	0	6	24	0	1	0	4	0
OTU 77	3	6	6	35	29	73	59	29	12	28	143	12	27	15	6	1	12	2	0	0	1	96	59	8	18	13	28	3	29	37	19	17	17	1	89	1	46	24	6	0	13	54	21	80	94	26	4	0	38	18
OTU 78	1	37	17	15	6	59	7	17	3226	15	8	0	0	164	136	9	0	14	4	23	30	0	0	21	1	100	6	2	33	2	10	0	91	1345	12	155	4	92	4	0	67	0	84	41	26	130	77	650	5	29
OTU 79	22	59	224	39	21	110	39	34	31	20	88	63	42	146	19	20	337	29	59	57	177	39	42	47	125	77	82	26	32	1651	31	170	143	8	321	91	81	103	82	130	41	17	1019	131	12	4	39	11	120	249
OTU 80	24	13	125	16	4	26	174	31	5	20	2	17	16	173	2151	39	26	43	75	265	3	14	12	94	62	5	36	0	7	2	5	30	0	16	17	144	44	1	23	29	6	11	1	0	4	8	28	10	23	63
OTU 81	383	70	315	41	16	47	230	1	19	1	73	33	18	11	5	658	64	8	34	6	64	13	44	97	34	36	145	34	16	7	29	157	27	0	1	21	83	11	147	63	14	4	12	105	31	5	38	0	21	77
OTU 82	20	158	19	12	0	11	3	5	0	1	7	93	26	1	25	5	105	7	1	0	3	11	9	48	92	5	0	4	51	7	0	62	12	0	67	8	4	17	7	119	29	2	10	7	3	8	0	0	9	7
OTU 83	2	0	9	0	14	0	4	1	12	7	1	15	4	0	53	13	0	0	1	11	54	13	15	0	0	35	41	9	0	1	0	0	51	0	2	0	0	66	18	0	11	9	0	0	0	1	2	0	38	1
OTU 84	0	21	60	5	19	1	191	2	0	25	23	18	0	2	24	7	0	2	20	0	13	7	1	0	1	1	113	0	16	2	0	13	36	27	261	32	1	28	20	163	1	2	1	100	6	13	0	22	16	1
OTU 85	0	4	14	0	1	41	6	10	12	5	0	4	0	0	55	0	10	2	25	0	20	0	47	0	9	43	10	20	2	24	0	2	0	29	1	0	0	48	26	24	63	0	0	1	0	3	0	18	31	0
OTU 86	0	0	0	0	0	0	0	0	1	1	0	0	0	0	0	0	0	0	0	0	0	0	2	0	0	0	22	0	0	0	0	16	0	0	5	1	0	43	0	0	0	0	0	1	0	0	0	0	0	0
OTU 87	3	1	9	95	0	0	0	0	6	0	6	0	37	182	0	0	0	3	1	40	0	0	0	1	10	0	11	5	0	0	6	4	21	0	0	0	4	6	11	189	0	0	0	12	0	1	0	0	0	7
OTU 88	10	1	34	64	2	0	0	0	0	0	0	0	22	2	0	28	0	0	0	0	0	0	0	6	20	5	0	2	69	0	0	0	0	0	5	29	0	5	0	5	9	0	0	18	3	0	0	0	0	2
OTU 89	0	9	0	0	1	0	102	8	2	0	0	2	3	127	6	0	56	2	26	101	22	0	0	0	16	0	0	4	4	0	0	0	0	0	0	0	0	0	27	43	0	0	0	0	371	0	0	0	1	0
OTU 90	4	0	0	1	2	76	12	37	0	2	0	0	0	4	0	0	0	21	0	3	7	0	0	0	0	1	20	0	0	0	16	1	12	11	10	5	0	0	7	0	2	0	1	0	0	0	0	6	9	149
OTU 91	0	0	0	2	0	21	0	0	0	0	2	1	0	0	0	0	0	0	0	0	0	0	0	2	0	0	0	0	1	1	0	0	132	0	59	0	0	7	12	9	0	0	0	0	0	0	0	0	0	1
OTU 92	0	7	1	1	0	0	0	0	0	24	0	0	63	27	11	0	1	0	4	26	0	0	0	1	0	0	0	10	32	1	0	0	0	0	65	0	80	12	29	0	13	0	0	0	30	0	35	0	0	20
OTU 93	0	0	0	0	1	0	95	10	7	6	7	0	4	3	0	0	0	0	0	0	0	0	0	0	0	2	1	14	0	0	0	0	0	0	0	53	1	0	0	1	0	0	0	9	1	0	0	0	0	7
OTU 94	27	17	232	13	103	314	26	185	168	37	0	3	84	3	170	5	109	37	143	2	13	140	115	253	92	226	4	68	30	61	98	0	223	185	38	136	43	238	108	25	205	63	142	70	42	245	12	67	271	47
OTU 95	0	30	2	57	0	2	0	0	0	0	52	3	0	0	0	0	27	3	20	13	0	1	6	0	2	13	0	2	0	0	0	0	41	0	1	0	6	0	1	0	0	0	0	1	0	9	0	1	49	0
OTU 96	7	0	1	0	0	0	0	0	0	0	10	0	0	1	0	0	6	0	2	0	0	0	0	0	24	0	5	0	0	0	0	0	0	0	0	0	0	0	0	0	0	0	1	63	0	0	0	0	0	95
OTU 97	7	0	5	1	0	1	0	0	0	0	0	0	0	0	0	0	0	0	0	11	21	0	4	0	5	23	0	0	5	2	0	0	0	0	0	0	0	0	2	1	8	0	0	84	0	0	0	0	0	38
OTU 98	6	16	0	6	1	8	0	1	1	0	2	0	492	4	34	5	0	5	1	0	1	0	1	0	38	0	8	1	18	0	34	0	13	0	0	0	600	21	1	2	33	0	74	102	0	150	0	0	3	5
OTU 99	2075	4	96	274	6	16	22	27	12	39	130	57	145	7	39	2	130	14	5	26	253	6	25	67	78	66	0	19	65	14	35	6	94	1	258	0	76	107	38	29	13	4	12	97	11	47	77	1	34	24
OTU 100	47	22	10	62	8	0	3	5	105	1	3	17	175	64	1	35	12	4	28	3	47	13	46	290	1	12	2	55	31	14	0	36	63	120	36	2	72	49	0	40	15	6	10	1	67	0	15	64	101	21
OTU 101	1	0	0	3	0	0	66	0	0	2	4	16	0	0	0	5	59	0	0	1	0	0	0	0	1	0	1	0	0	0	0	7	15	5	114	0	0	0	5	0	0	0	0	5	0	0	6	0	0	0
OTU 102	0	0	0	0	0	4	0	2	1	0	6	8	92	1	0	3	12	4	3	0	8	0	2	15	4	0	31	29	0	0	11	0	0	0	0	1	37	0	4	7	2	0	0	1	7	3	13	0	0	0
OTU 103	2	0	5	30	0	2	19	16	18	9	35	10	0	6	0	0	44	42	1	29	72	4	3	34	18	7	7	0	1	8	0	6	24	0	0	2	52	0	30	2	12	1	0	0	2	10	20	4	6	11
OTU 104	19	68	9	11	28	12	142	3	10	5	16	1	10	32	18	36	241	62	7	64	3	28	8	161	17	30	46	14	39	11	4	7	54	8	69	1	49	29	16	33	20	13	12	37	2	15	12	3	42	117
OTU 105	0	0	0	0	0	1	0	1	6	0	5	0	0	2	2	0	0	0	0	10	1	1	14	0	0	8	0	7	0	14	10	0	35	0	24	2	0	0	1	105	0	0	0	0	0	10	0	1	8	216
OTU 106	10	0	0	0	6	16	78	7	0	12	34	39	0	6	1	0	0	200	0	0	3	3	0	2	31	0	0	0	0	0	2	0	0	0	60	0	0	2	79	1	0	1	0	23	19	0	44	0	2	30
OTU 107	9	3326	27	1	1	13	0	0	1	0	12	6	0	51	0	0	4	2	1	1	0	3	0	36	1	0	20	0	0	0	3	4	0	0	3	0	17	10	5	8	0	0	0	0	0	0	0	0	8	1
OTU 108	1	26	64	56	1	22	13	26	0	3	13	31	5	26	42	1	188	0	0	73	1	0	11	20	0	12	4	12	61	7	0	36	39	1	5	0	0	29	0	25	8	0	4	15	3	0	9	0	14	52
OTU 109	0	0	0	6	0	0	0	0	0	0	0	0	0	0	0	9	0	0	0	6	7	0	0	0	0	0	0	0	0	0	0	0	0	0	1	0	0	0	0	0	0	0	0	0	0	0	5	0	0	0
OTU 110	17	126	31	103	56	30	9	8	11	26	3	17	15	19	5	5	19	15	4	2	0	75	1	19	26	23	44	0	54	1	47	1	10	6	4	0	61	6	119	77	4	44	54	41	17	67	3	1	1	80
OTU 111	0	0	0	0	0	7	0	0	7	7	0	2	0	0	17	4	78	0	0	0	1	0	0	3	6	1	0	0	0	0	0	0	6	0	11	1	0	30	0	1	0	0	0	0	0	1	0	0	0	0
OTU 112	0	12	143	5	3	28	11	9	2	0	0	4	82	23	24	0	32	0	0	1	36	18	0	10	2	11	2	1	9	3	2	0	11	3	0	2	0	4	2	0	17	8	0	0	3	2	4	0	0	2
OTU 113	3	0	3	4	0	0	0	0	11	2	0	9	0	0	0	0	0	2	0	0	20	0	0	0	29	0	0	0	1	0	4	0	0	0	0	43	11	0	35	0	0	0	0	0	0	0	3	0	6	1
OTU 114	6	12	265	137	52	53	70	9	128	25	74	96	86	38	165	10	636	36	43	14	121	133	115	108	129	111	53	8	0	42	47	26	36	35	110	67	17	185	60	57	57	61	114	376	111	226	17	24	104	8
OTU 115	24	35	82	38	21	66	106	79	46	34	41	87	16	140	85	5	212	1065	6	985	43	10	13	37	12	23	110	17	7	22	16	121	168	17	90	85	67	111	2605	8	69	8	15	40	12	9	1401	317	27	14
OTU 116	2	874	93	3	11	52	90	35	3	9	75	6	0	84	0	4	0	10	65	1	67	24	32	8	172	32	10	0	87	0	20	177	57	3	1	0	67	13	42	1684	4	8	13	81	40	0	5	2	16	87
OTU 117	22	71	48	0	42	76	18	37	113	39	18	12	13	8	6	26	40	57	821	31	1	84	93	0	33	4	26	53	30	57	721	7	87	23	0	63	1	0	13	89	11	42	34	114	16	112	12	30	215	27
OTU 118	1	6	0	7	18	0	0	8	0	0	0	0	4	16	0	0	4	0	8	2	30	4	0	0	0	4	17	2	0	0	21	0	1	0	27	0	0	0	0	1	2	1	0	20	5	0	0	0	1	1
OTU 119	6	51	200	20	4	85	44	93	32	0	44	11	77	46	2	20	187	50	8	4	22	2	32	18	15	4	1	24	43	20	0	34	227	7	37	16	107	2	114	45	5	0	2	71	60	11	6	9	89	69
OTU 120	1	0	17	3	0	15	16	0	3	0	34	0	42	1	2	4	2	0	0	6	0	0	0	2	23	1	0	0	0	0	6	0	11	0	1	7	0	49	4	17	24	0	1	154	0	3	10	0	5	0
OTU 121	6	0	17	43	6	2	1	6	39	35	36	14	4	5	45	12	11	1	36	0	3	56	45	1	31	50	0	52	58	32	38	2	227	22	66	96	18	21	18	93	56	23	4	3	38	15	4	24	93	3
OTU 122	34	3	1	50	1453	104	331	47	12	1386	17	262	69	380	8	12	17	4	16	216	11	2972	7	37	221	2	401	7	7	0	0	29	155	12	43	163	11	23	0	15	16	1559	1667	9	0	3314	60	1	3	43
OTU 123	18	123	111	150	28	95	45	97	38	38	74	77	223	386	88	37	145	104	95	83	38	146	77	128	161	101	74	7	204	44	67	68	96	8	163	75	237	133	166	199	58	76	55	367	36	121	129	6	68	137
OTU 124	531	77	0	0	1	3	12	1	0	0	1	0	0	11	0	1300	10	4	0	0	2	0	0	0	0	0	1	0	0	0	0	0	60	0	10	9	0	1	0	2	0	0	2	0	2	0	0	0	1	1460
OTU 125	385	70	226	210	69	12	506	39	28	60	3	44	33	207	125	95	116	212	34	152	181	92	2105	189	132	127	140	930	216	1052	20	361	70	186	91	11	19	135	94	71	47	39	50	199	46	79	144	97	36	191
OTU 126	11	0	3	0	0	90	0	30	6	0	0	0	0	3	1	11	0	3	0	4	6	0	4	11	0	0	1	4	0	0	10	0	0	4	26	1	0	0	13	0	0	0	9	0	5	14	0	0	0	2
OTU 127	0	0	743	69	7	35	11	44	0	0	0	1	19	109	1	4	68	15	0	34	27	17	75	6	8	0	8	19	3081	28	5	99	73	1	14	49	15	0	0	0	33	13	24	0	21	44	2	0	60	89
OTU 128	15	126	318	328	41	111	79	68	127	38	261	85	60	199	54	51	411	224	159	85	119	68	57	143	104	12	153	28	35	18	71	216	492	84	319	132	87	130	268	54	36	42	39	190	81	85	144	39	85	423
OTU 129	0	0	0	0	13	0	2	17	0	49	0	0	0	0	0	1	0	22	1	3	19	8	63	0	2	0	0	61	0	62	10	0	0	0	0	7	16	0	0	0	0	3	42	3	0	25	21	0	94	0
OTU 130	30	2	2	238	0	372	1	66	4	4	39	2	7	7	5	108	87	4	0	18	63	0	0	5	39	3	3	8	0	4	1	0	15	2	407	1944	0	15	7	1	0	0	3	7	15	18	1	5	4	2
OTU 131	0	0	102	60	6	0	34	12	1	9	0	9	1	36	16	2	7	130	45	1	109	1	11	64	10	44	15	9	3	16	11	18	4	4	35	0	139	59	21	48	29	0	5	11	0	1	111	9	7	9
OTU 132	886	19	0	1	1	10	8	1	16	0	0	5	0	68	0	0	1	0	0	21	0	3	39	7	1772	0	15	7	23	26	2	0	12	3	1	9	39	11	23	6	0	4	2	0	0	5	1	0	74	18
OTU 133	0	0	0	42	0	1	9	0	0	0	0	14	0	46	0	1	0	0	3	52	35	0	0	0	1	0	0	0	45	0	0	12	0	0	0	0	0	1	5	5	0	0	0	3	3	2	0	0	9	0
OTU 134	3	8	8	59	1	57	131	4	0	9	274	6	75	53	0	3	30	17	14	13	7	2	0	3	3	1	0	0	17	0	351	26	13	3	78	0	102	20	70	0	4	0	10	11	11	32	56	0	1	11
OTU 135	2	0	2	47	37	157	215	103	138	53	67	17	3708	8	59	40	95	0	143	0	15	56	84	396	23	79	21	61	0	66	110	7	2	82	0	98	3	270	1	4	86	35	104	4	26	238	26	36	397	220
OTU 136	54	93	0	260	1	21	40	2	11	4	61	1	19	20	16	44	56	0	10	33	1	0	31	51	156	52	29	10	0	13	0	40	0	12	36	1	28	17	6	1	57	0	18	7	8	17	12	16	41	6
OTU 137	2	0	7	5	3	0	5	1	0	8	0	15	0	48	3	0	15	4	8	50	2	21	11	2	0	16	1	0	4	13	0	0	112	1	27	12	136	61	0	0	6	13	0	17	8	0	0	0	13	3
OTU 138	0	0	3	5	3	0	5	0	4	1	48	27	0	0	0	5	35	11	28	15	0	0	0	1	0	0	46	0	0	0	15	0	2	0	0	1	2	0	186	0	1	0	4	0	0	11	15	1	1	7
OTU 139	38	48	59	17	968	24	25	27	69	27	87	114	118	5	0	29	22	121	1	7	90	67	19	0	98	13	47	17	90	25	0	21	52	109	60	11	185	26	68	37	41	557	86	168	20	122	18	63	76	109
OTU 140	55	152	82	213	51	88	746	43	48	26	51	127	174	9	3	108	380	144	25	20	245	88	63	23	545	15	209	23	69	41	84	149	1474	43	253	70	246	8	204	68	22	42	54	92	93	116	54	34	44	144
OTU 141	0	0	0	0	0	1	0	0	0	0	0	0	0	2	0	0	0	0	0	0	115	0	0	0	0	0	0	0	0	0	0	0	0	0	4	0	0	0	0	0	0	0	0	0	0	0	0	0	0	0
OTU 142	0	1	0	0	0	25	36	0	0	0	0	0	0	0	1	0	0	0	0	0	22	0	3	0	0	3	18	2	0	3	0	0	0	3	0	0	0	0	0	0	0	0	3	0	0	0	1	0	9	0
OTU 143	1	2	0	0	371	0	0	0	0	450	1	15	0	1	9	0	6	0	0	2	0	746	0	0	0	42	3	9	0	0	0	22	0	0	42	4	0	30	0	48	13	351	0	0	1	0	0	0	0	0
OTU 144	0	0	0	0	0	0	77	0	4	0	7	3	20	0	3	0	4	31	0	3	0	0	0	17	2	0	4	0	0	1	0	0	35	0	4	129	52	0	0	0	0	0	0	0	0	0	0	10	3	0
OTU 145	23	67	23	147	31	49	99	23	31	29	68	4	9	303	4	6	8	16	2	280	71	59	36	78	130	8	137	43	51	25	41	87	17	6	4	101	25	9	34	41	15	536	46	41	30	84	4	1	69	43
OTU 146	5	16	112	4	1	15	85	31	5	0	10	53	0	180	8	10	62	9	11	105	2	1	0	15	21	0	54	0	5	11	55	59	5	7	18	1	177	46	25	6	18	3187	2	8	0	2	52	2	13	46
OTU 147	0	0	5	0	0	1	0	9	3	9	30	10	0	4	0	0	144	2	0	18	1	6	0	26	35	5	21	6	4	5	1	0	241	33	1	67	48	13	7	5	0	0	1	0	11	0	0	18	15	4
OTU 148	33	8	143	0	0	21	127	3	18	8	0	9	3	199	11	44	54	50	28	73	27	0	31	14	7	0	0	3	0	5	14	191	96	0	57	7	2	18	45	12	7	0	7	60	26	25	19	0	90	15
OTU 149	2	10	0	0	19	1	5	0	20	1	78	36	0	6	0	0	4	4	1	1	15	24	13	1	0	10	79	0	26	0	0	24	6	9	5	9	8	8	4	3	2	9	20	1	0	17	0	0	1	1
OTU 150	0	54	5	1066	2	4	5	0	5	7	0	57	0	1	0	13	39	0	19	0	0	2	0	23	13	0	6	0	1	1	0	6	0	4	0	12	22	0	0	12	30	0	0	4	0	1	2	1	4	1
OTU 151	17	22	10	289	14	7	6	43	1	18	1	12	2	21	0	93	2	0	7	24	7	19	44	62	9	0	4	37	11	1	57	4	59	0	1	0	23	0	2	18	0	13	0	32	21	0	16	0	19	1
OTU 152	0	6	147	1	28	0	26	28	93	62	1	71	155	24	31	43	15	2443	18	20	19	35	168	4	20	24	155	89	434	49	109	41	14	21	0	8	57	0	11	8	27	14	12	46	6	21	48	17	346	0
OTU 153	0	0	0	0	13	0	0	8	3	0	46	21	0	0	0	1	0	0	0	2	0	7	1	0	0	0	0	0	0	3	0	0	2	0	0	0	0	0	0	63	0	4	0	0	0	0	0	0	0	0
OTU 154	0	0	0	0	0	0	0	0	1	0	0	0	6	0	0	1	0	17	0	0	0	0	0	2	0	0	0	0	11	0	0	0	0	3	0	5	0	0	0	0	0	0	3	74	0	0	0	0	0	1
OTU 155	11	0	10	0	5	48	1	0	38	0	4	9	2	0	0	0	30	0	0	12	75	1	27	1	36	11	85	6	39	3	0	8	4	8	0	0	0	7	14	0	0	0	1	0	2	2	0	6	20	3
OTU 156	1744	106	85	68	25	62	0	38	66	5	102	13	16	76	30	3932	67	14	9	166	94	97	12	105	36	35	10	32	11	6	14	0	40	62	140	1	22	31	9	43	13	45	8	43	16	43	15	33	40	72
OTU 157	0	0	0	57	7	879	0	189	0	0	0	0	0	8	2	14	0	4	1	0	24	3	2	23	5	5	2	1	0	0	9	0	2	1	87	2	0	0	21	30	86	2	0	0	62	0	26	1	0	447
OTU 158	0	0	0	0	0	0	11	13	0	0	0	0	5	205	0	2	0	0	0	8	35	0	0	0	4	0	24	0	0	0	0	0	42	0	0	0	0	0	0	0	0	0	0	0	0	0	0	0	0	0
OTU 159	10	22	63	27	1	0	210	24	2	17	6	12	0	137	54	1	13	96	14	41	76	23	1	3	94	14	7	3	5	0	3	6	15	15	41	18	9	38	145	66	28	8	1	28	10	8	64	3	0	78
OTU 160	26	325	36	134	22	135	59	24	28	6	65	60	235	47	26	58	14	809	72	7	21	37	0	170	14	47	213	4	123	10	93	33	86	17	4	15	1232	14	1668	488	7	18	10	6	35	34	501	27	11	71
OTU 161	2	2	65	7	4	36	125	16	0	11	24	91	16	200	2198	7	22	11	0	45	32	0	16	8	40	1778	35	2	115	229	0	13	28	3	28	1432	5	3657	13	77	1974	0	550	1	3	1	2810	0	13	1
OTU 162	2	2	67	10	27	186	253	92	21	36	1	5	5	4	42	22	17	84	106	8	53	46	29	113	17	76	0	36	43	5	222	338	1	17	16	32	35	100	73	70	115	18	2	5	2164	5	23	10	48	22
OTU 163	0	0	0	0	0	0	34	0	0	0	0	0	0	0	0	0	0	0	0	0	0	0	0	1	0	0	0	1	0	0	1	0	0	0	0	0	0	0	0	0	3	0	11	0	0	7	0	0	0	0
OTU 164	0	0	0	0	0	0	0	0	0	0	0	0	0	0	0	1	0	0	0	0	0	1	3	0	0	0	5	0	0	0	0	0	0	0	0	0	0	0	0	31	0	0	0	0	6	2	0	0	0	25
OTU 165	1	0	0	24	19	0	35	0	12	81	14	7	5	32	0	1	2	14	0	21	2	83	6	0	0	3	3	3	9	0	6	42	16	2	81	3	3	0	1	1	3	32	1	4	1	0	0	0	0	67
OTU 166	0	0	0	6	0	0	0	0	0	0	0	0	0	0	0	0	0	0	0	0	0	0	0	0	0	0	0	0	0	0	0	0	0	3	0	13	0	0	0	0	0	0	0	0	0	3	0	0	0	4
OTU 167	1	1	4	40	0	180	0	41	2	8	64	1082	12	118	3	5	13	59	4	35	0	0	0	19	38	9	2675	1	0	1377	19	1	1	7	14	0	0	3	0	0	9	0	1	1	6	2	0	3	0	1
OTU 168	0	124	31	0	7	85	3	64	0	35	133	4	230	39	1	2	6	0	5	95	29	28	23	7	20	29	1	9	25	7	4	40	2	0	7	4	8	4	105	20	4	18	0	163	26	0	2	0	37	5
OTU 169	0	1	0	4	1	1	1	0	0	1	2895	0	0	0	0	0	0	0	11	18	27	12	0	0	0	5	0	0	4	0	16	0	0	0	0	0	0	0	152	0	0	11	1	0	0	0	27	0	0	0
OTU 170	0	0	0	0	0	1	0	0	0	0	0	0	0	0	0	0	0	0	0	0	10	10	0	0	0	0	0	0	0	0	0	0	0	3	0	0	93	7	0	0	0	7	14	0	35	28	0	2	0	4
OTU 171	3	2	22	234	54	33	13	1	38	42	2	299	62	47	48	9	21	14	72	72	11	96	125	48	0	49	533	44	0	56	20	43	1	40	195	3	143	30	14	65	2038	59	40	7	38	84	0	53	124	0
OTU 172	8	0	0	0	2	0	1	0	0	13	0	0	0	0	0	0	0	0	0	0	0	12	0	10	0	13	0	0	0	0	0	0	0	0	0	0	0	10	2	0	0	10	0	0	0	0	1	0	0	0
OTU 173	0	41	27	0	0	8	3	32	0	10	47	0	0	0	0	0	21	4	0	2	2	0	5	7	0	0	51	1	2	0	2	2	55	0	1	0	2	2	2	5	1	0	2	128	0	0	3	0	1	0
OTU 174	8	15	3	36	0	2	30	1	0	5	5	2	5	1	29	26	5	5	49	2	0	0	3	3	12	0	9	0	0	4	0	0	0	0	19	3	9	32	4	10	0	0	6	8	1	20	39	0	0	11
OTU 175	0	2	3	0	5	24	12	71	26	15	0	1	0	0	2	0	144	0	24	3	0	4	60	5	0	0	0	30	12	33	19	13	12	6	12	8	9	7	20	138	9	3	29	0	1	69	3	1	84	13
OTU 176	24	22	87	22	38	19	82	22	0	49	28	95	1	95	9	3	289	33	3	158	43	104	1	5	141	0	29	4	57	2	14	4	27	11	72	56	13	4	10	31	0	51	16	0	5	52	0	10	36	99
OTU 177	74	17	76	249	10	23	131	0	54	21	50	2	12	33	6	19	1	15	20	35	8	20	9	2	7	59	18	23	34	11	23	228	1	0	41	0	51	157	134	2	113	10	3	22	29	19	34	2	8	25
OTU 178	3	27	0	10	2	1	154	75	6	16	0	3	0	1	45	13	1	0	30	1	11	0	7	0	0	0	56	2	24	4	1	39	43	1	16	12	12	20	40	10	33	0	0	9	0	0	49	5	1	43
OTU 179	13	0	0	111	12	0	16	16	22	0	3	82	0	17	2	0	7	0	30	2	1	17	1	33	18	1	196	1	32	5	19	59	207	0	10	20	0	0	0	8	0	12	21	70	2	93	2	0	17	8
OTU 180	75	117	1771	243	71	94	148	92	73	63	108	91	93	65	14	8	106	92	31	33	402	113	82	88	23	41	83	4994	63	31	29	140	3	35	149	41	60	54	52	70	28	51	51	82	117	78	10	15	96	114
OTU 181	0	3	0	69	10	23	23	1	2	11	0	1	0	6	14	28	23	34	0	10	43	2	13	16	15	13	115	1	55	1	34	1	1	6	114	22	8	0	23	111	0	1	5	2	36	6	4	0	21	3
OTU 182	0	0	0	0	1	6	27	0	1	0	1	0	1	0	0	0	4	15	0	0	0	0	0	0	0	0	0	0	0	0	0	0	0	0	0	0	0	0	3	0	0	0	0	0	0	1	0	0	0	0
OTU 183	0	19	28	13	23	7	33	0	27	0	1	779	23	54	7	27	44	233	18	31	1	30	0	27	13	0	0	0	3	10	33	23	41	2	25	3	0	0	64	7	9	13	0	0	13	0	1294	4	5	27
OTU 184	21	18	2	1	19	0	147	6	1	61	0	5	0	66	0	0	0	3	380	42	19	12	0	6	11	8	50	1	0	2	58	5	0	3	7	2	0	6	17	0	0	7	24	0	39	16	1	0	5	0
OTU 185	5	8	44	5	7	9	48	7	45	0	4	0	3	11	4	21	8	66	63	13	65	4	5	27	16	5	101	8	355	12	1	7	100	70	4	0	0	14	23	15	1	4	0	66	2	0	121	38	19	36
OTU 186	0	37	0	0	6	0	1	5	40	0	3	2920	16	2	15	1	2	0	0	7	0	10	5	1	41	25	1	0	0	3	10	0	0	6	110	0	6	17	27	9	6	7	0	55	0	7	66	8	9	1
OTU 187	50	0	209	83	23	52	5	10	0	98	87	24	88	147	0	22	24	20	56	66	275	29	30	140	51	1	66	23	36	28	126	30	164	25	117	18	201	43	38	101	26	14	33	23	4	50	63	16	72	113
OTU 188	75	3	25	109	266	565	189	2737	428	196	15	63	58	237	269	194	25	126	667	51	77	446	596	343	73	319	1	252	127	1074	199	3613	97	235	2	344	86	537	29	9	413	230	185	44	114	347	52	150	948	126
OTU 189	1	43	159	5	43	36	25	647	93	39	94	169	54	30	23	20	71	22	374	32	1	18	110	68	11	14	144	15	79	10	214	70	4	60	280	8	14	8	54	8	8	10	64	165	29	125	108	43	174	126
OTU 190	0	13	0	0	0	0	31	0	2	1	79	1	0	53	0	0	0	0	3	23	5	1	14	1	15	0	0	23	2	3	0	0	0	0	22	0	0	0	0	3	0	0	5	0	21	0	4	0	36	85
OTU 191	118	47	6	39	15	11	7	6	16	12	22	3	63	8	12	215	17	21	23	11	13	32	25	4	441	4055	19	5	36	25	27	71	371	0	242	173	0	19	121	130	11	18	0	8	14	0	72	2	19	8
OTU 192	16	9	23	24	5	88	63	82	11	8	71	22	70	236	14	21	339	23	12	95	160	9	22	18	40	4	17	8	38	5	4	54	54	9	56	27	192	4	5	125	17	3	295	2413	123	102	12	3	33	29
OTU 193	0	10	109	26	7	10	40	0	47	2	5	31	39	34	3	2	259	67	66	1	35	14	35	9	16	0	5	2	0	16	82	0	178	54	9	0	53	7	24	88	55	5	18	74	2	2	3	24	3	36
OTU 194	0	98	23	5	9	55	10	7	8	1	45	0	19	0	1	0	2	10	0	0	16	7	4	7	37	4	24	4	39	0	12	0	311	0	84	21	68	0	34	6	10	7	2	12	129	5	0	0	1	0
OTU 195	8	35	12	33	5	22	3	2	1	15	9	14	4	53	1802	16	3	17	15	12	6	25	8	1	8	9	20	3	21	3	3	3	39	2	40	98	164	3	24	42	0	8	0	61	0	0	50	7	0	2
OTU 196	4	0	20	5	2	12	40	8	14	4	23	18	78	1	1	3	3	0	1	18	11	0	6	66	39	0	13	0	2	1	54	0	22	14	114	25	3	21	18	0	0	0	1	0	2	6	1	8	0	9
OTU 197	1	19	131	189	14	23	101	26	240	2636	36	202	20	183	153	70	72	74	53	137	9	17	56	45	137	39	70	13	26	42	37	91	142	94	578	43	32	102	165	12	1922	6	45	38	31	73	147	45	121	32
OTU 198	0	0	13	98	0	0	2	6	12	0	13	0	0	28	0	0	0	42	0	3	11	2	1	0	9	0	0	0	0	1	3	0	0	9	0	0	7	0	0	1	8	1	5	0	0	4	6	6	40	49
OTU 199	9	6	1	74	1	2	0	2	0	1	5	2	10	1	1	0	15	4	21	12	18	3	0	57	2	33	38	1	13	0	33	7	0	7	1	4	70	0	0	19	3	0	0	39	14	1	0	2	0	0
OTU 200	13	12	35	83	15	22	10	4	6	8	26	20	9	12	8	14	15	31	0	118	3	32	44	1	38	7	75	21	3	0	1	90	33	13	59	14	74	1	0	1	2	15	0	3	0	0	11	6	52	138
