	Host 1	Host 2	Host 3	Host 4	Host 5	Host 6	Host 7	Host 8	Host 9	Host 10	Host 11	Host 12	Host 13	Host 14	Host 15	Host 16	Host 17	Host 18	Host 19	Host 20	Host 21	Host 22	Host 23	Host 24	Host 25	Host 26	Host 27	Host 28	Host 29	Host 30	Host 31	Host 32	Host 33	Host 34	Host 35	Host 36	Host 37	Host 38	Host 39	Host 40	Host 41	Host 42	Host 43	Host 44	Host 45	Host 46	Host 47	Host 48	Host 49	Host 50	
OTU 1	76	206	97	25	100	0	47	39	0	633	106	14	251	128	425	47	214	11	55	12	64	19	92	118	0	38	159	151	2	7	5	204	116	55	50	105	17	77	174	77	106	0	117	133	53	151	36	52	0	360
OTU 2	0	0	28	59	0	1	42	2	108	0	7	21	26	6	32	0	6	140	8	6	0	15	1	84	19	11	25	2	11	25	31	21	2	2	0	17	13	0	12	2	7	0	0	0	0	15	2	5	6	6
OTU 3	1	0	3	18	2	42	0	0	4	1	21	41	1	7	8	19	151	6	15	0	0	0	0	165	0	55	22	0	0	0	0	12	7	6	5	9	20	11	12	21	0	25	4	3	8	10	10	1	0	0
OTU 4	0	0	0	0	0	0	0	0	0	2	0	0	0	0	0	0	0	0	0	0	0	0	0	0	0	0	0	0	0	0	7	0	0	0	0	0	0	0	0	0	0	0	0	0	0	0	0	0	0	0
OTU 5	629	542	122	1	407	548	513	347	57	696	304	79	287	35	605	216	299	195	306	70	81	408	644	109	23	159	260	283	516	515	114	280	254	700	1290	410	87	28	43	1579	0	17	293	188	520	322	1732	218	0	343
OTU 6	9	3	3	4	39	66	2	239	1	31	44	46	38	20	3	49	0	47	119	0	19	0	0	0	2	186	6	4	1	154	16	10	0	11	1	7	7	1	1	0	0	32	305	2	0	5	0	6	66	10
OTU 7	30	40	18	127	166	201	105	29	80	42	46	111	18	71	19	25	82	26	3	5	58	93	126	32	171	4	128	29	123	28	463	29	2	89	81	17	13	138	63	43	28	3	2	35	55	88	1577	2885	108	60
OTU 8	144	11	9	524	40	722	73	36	1037	18	31	209	16	61	32	39	154	19	10	24	42	30	28	110	109	3	10	14	626	4	23	239	203	181	32	68	356	64	589	6	35	3	49	0	34	509	6	8	184	25
OTU 9	61	2	0	27	9	0	50	7	33	0	44	8	0	5	0	1	72	9	0	3	3	0	111	117	0	0	30	0	1	10	4	2	12	20	113	0	0	206	4	65	1	0	2	2	18	0	60	1	12	24
OTU 10	72	34	0	1	1	0	28	105	0	48	0	0	68	33	2	200	99	0	2	0	11	26	1	4	22	30	0	0	81	1	1	6	16	87	0	1	0	0	0	0	0	975	4	0	2	0	0	0	403	105
OTU 11	61	104	18	2	6	123	5	280	13	8	51	32	5	6	3	5	61	188	3	17	1	51	2	31	2	3	20	19	10	5	2	6	68	35	64	3	12	158	16	4	50	14	12	12	43	2	15	89	0	0
OTU 12	2	23	10	27	5	83	75	96	11	12	57	17	15	61	13	3	31	31	44	7	21	16	5	1	5	43	70	8	27	89	58	69	5	167	7	53	10	17	24	1	45	0	47	3	18	24	4	18	128	46
OTU 13	6	3	0	13	0	22	0	0	0	0	0	0	0	0	0	0	0	0	0	0	0	2	0	0	0	0	2	0	0	0	0	0	0	0	0	0	0	0	0	0	0	1	0	0	0	0	0	0	0	29
OTU 14	14	30	2	6	19	39	1	0	46	1	1	11	0	11	38	2	0	4	0	0	0	18	0	0	23	389	5	2	3	4	1	3	123	7	0	11	30	0	39	16	3	99	0	0	6	4	11	79	83	17
OTU 15	0	0	0	0	0	3	0	0	0	0	0	0	0	0	17	0	1	22	0	1	0	0	27	0	0	0	0	0	0	0	0	0	1	0	0	0	9	0	0	1	15	158	3	0	19	0	0	0	13	0
OTU 16	0	0	0	0	0	0	0	0	0	0	0	0	0	0	0	0	0	0	0	0	0	0	0	0	0	0	0	0	0	29	0	0	0	0	1	0	1	1	0	0	0	0	0	0	0	0	0	0	0	0
OTU 17	11	9	0	3	14	13	2	180	16	86	0	42	43	114	88	7	3	1	17	7	69	10	1	8	21	17	0	13	23	52	16	6	37	2	14	0	2	28	1	19	0	12	45	15	13	0	10	19	66	0
OTU 18	4	96	1	181	74	403	0	46	371	32	20	104	23	27	179	12	55	76	9	3	21	33	3	248	158	25	84	31	3	47	53	11	108	235	57	6	73	114	65	16	6	22	12	11	58	97	7	50	21	78
OTU 19	0	0	0	0	4	0	0	0	0	0	0	0	2	0	0	0	0	0	0	0	0	0	0	0	0	0	0	0	35	0	0	0	0	0	0	0	0	0	0	0	0	0	0	0	0	0	0	0	0	0
OTU 20	207	1735	433	51	167	20	0	25	60	68	35	10	58	231	13	0	15	26	4	250	129	5	22	155	120	16	0	22	40	1	14	2	43	62	1	4	47	1	75	90	34	11	22	204	77	87	31	1116	52	2
OTU 21	22	81	12	48	293	5	8	53	102	6	10	43	92	44	20	3	62	45	1	9	19	57	44	103	37	8	2	2	35	83	19	33	1	62	60	10	14	111	244	5	5	51	5	35	166	67	14	52	24	25
OTU 22	260	4	6	17	9	28	12	28	24	6	43	32	9	18	44	19	21	36	10	0	1	22	17	251	1031	39	21	17	5	1	3	2	0	0	0	0	4	5	7	48	115	36	13	5	22	0	13	28	9	0
OTU 23	45	3	3	25	1	4	4	68	5	2	23	0	10	5	3	2	2	51	0	10	9	66	4	11	30	1	10	0	14	3	14	12	8	13	0	11	3	8	0	15	9	3	28	22	4	11	1	0	87	4
OTU 24	3	33	0	7	0	0	1	3	4	0	5	25	22	8	0	2	0	3	2	0	0	26	163	6	59	68	0	11	24	0	0	8	7	61	42	0	38	83	90	0	26	12	0	0	2	32	0	10	72	0
OTU 25	0	0	0	0	0	0	23	0	0	0	3	0	0	0	0	6	0	3	0	0	0	3	0	0	0	0	0	0	0	3	0	0	0	0	0	0	0	0	0	0	0	0	10	0	0	0	0	0	0	0
OTU 26	25	1	2	2	37	1	0	0	0	0	0	3	6	8	1	0	45	0	0	0	1	5	34	0	0	4	0	0	8	4	1	2	16	12	15	0	0	36	51	0	0	0	14	0	12	0	0	3	0	13
OTU 27	0	0	0	0	0	0	0	0	0	0	0	0	20	11	0	0	1	0	0	0	6	0	0	0	0	0	0	5	29	0	0	0	0	1	0	0	0	0	0	1	0	27	0	0	0	0	0	0	0	0
OTU 28	94	50	133	0	70	16	45	24	38	4	0	0	325	143	388	32	8	29	0	45	94	9	0	91	1	47	19	29	6	47	372	1	138	12	6	0	2	13	38	66	8	79	1	56	34	4	43	2	2	72
OTU 29	140	0	26	21	42	27	8	91	56	36	63	1	6	55	101	34	5	42	47	5	51	11	64	31	42	104	5	16	38	25	24	8	53	60	25	3	2900	48	19	16	85	11	31	13	22	42	10	13	0	8
OTU 30	0	0	6	0	0	0	0	0	0	0	0	1	0	0	0	0	0	0	0	0	0	0	0	0	0	0	0	0	0	0	0	0	0	0	0	0	0	0	0	0	0	0	0	0	0	0	0	0	0	0
OTU 31	77	50	18	5	4	0	70	0	42	1	0	111	5	2	16	0	214	6	0	7	0	130	3	2	95	194	0	3	0	24	0	27	4	0	3	7	2	7	33	19	124	0	2	4	5	77	1	32	93	55
OTU 32	19	23	24	11	16	15	41	12	36	6	3	9	27	75	12	155	159	47	16	929	80	133	81	27	172	171	7	51	22	20	259	95	25	23	44	67	9	82	199	62	212	21	15	14	22	4	28	26	38	2
OTU 33	0	0	0	17	0	0	0	0	7	2	0	0	0	0	0	0	0	11	3	0	0	1	0	0	0	0	0	0	0	0	0	0	10	0	0	0	0	0	0	20	13	0	0	0	1	0	9	0	0	0
OTU 34	770	50	0	10	19	15	5	128	14	32	30	2	49	40	6	4	66	56	3	3	28	152	1214	0	15	20	48	12	377	45	86	39	3	1	5	21	3	8	1	17	281	2	0	6	0	11	20	36	0	3
OTU 35	27	14	0	3373	1	42	63	27	8	45	2	197	46	0	28	14	19	40	2173	0	1	18	0	2	58	3	9	0	38	21	148	41	17	0	0	25	27	0	70	2	2	16	0	13	3	24	0	30	73	36
OTU 36	31	15	8	144	25	9	0	10	455	1	1	12	34	91	0	9	10	1	19	4	85	0	3	42	28	7	3	6	17	70	42	0	14	43	4	1	159	4	19	24	31	0	6	0	7	254	3	135	25	28
OTU 37	17	0	0	0	0	12	17	0	0	0	8	0	0	19	5	4	0	21	4	0	4	5	14	1	14	11	1	11	0	0	0	18	21	10	11	1	21	22	0	51	0	1	1	0	2	9	20	5	0	0
OTU 38	58	1	1	12	2	3	13	1	34	40	1	126	2	35	6	6	75	23	6	4	15	88	84	16	40	45	9	2	40	14	63	5	260	13	87	4	0	169	17	12	338	0	81	17	6	4	0	1	238	27
OTU 39	0	0	0	4	0	6	0	2	0	2	33	6	26	3	29	0	5	103	5	2	0	12	0	1	18	2	2	6	0	3	0	2	0	3	0	2	45	0	3	0	0	0	1	7	0	19	7	0	17	2
OTU 40	70	22	0	25	6	123	0	42	44	38	11	19	48	319	15	30	2	0	98	0	140	3	61	38	13	137	50	89	38	292	35	8	56	5	48	0	6	109	17	57	64	2	217	3	3	48	8	48	31	4
OTU 41	25	6	0	11	19	133	31	2	119	1	5	1	18	110	2	6	15	35	0	2	47	0	1	7	27	51	45	4	6	3	51	31	0	32	25	7	6	39	40	8	0	7	5	10	5	0	0	11	2	1
OTU 42	0	5	19	0	3	0	7	0	0	0	0	1	0	0	58	0	1	2	0	2	0	37	9	0	0	2	14	0	5	101	0	0	0	0	0	0	1	0	12	0	13	0	0	1	0	0	0	1	24	1
OTU 43	0	0	0	0	3	0	0	0	0	0	0	1	0	0	0	0	0	0	1	0	0	0	0	0	0	0	40	4	0	0	0	0	0	0	0	0	0	0	0	0	0	0	0	0	0	0	0	0	0	0
OTU 44	57	0	0	0	0	0	23	0	3	0	349	0	0	16	6	1	20	9	0	0	6	19	2	0	0	0	10	0	1	0	0	29	1	4	0	34	0	0	0	7	4	0	0	2	0	0	3	0	3	0
OTU 45	73	2	1	5	124	12	108	23	30	7	23	14	40	55	1992	12	7	66	0	2	20	71	30	111	44	0	53	9	47	19	1	20	57	2	12	19	1	28	14	4	19	92	56	21	91	8	5	26	44	104
OTU 46	143	49	1	16	60	23	43	0	33	49	84	289	62	20	44	69	89	184	16	1	26	107	78	1	12	60	44	37	7	83	183	23	43	4	9	13	18	9	0	112	76	17	0	4	34	10	95	2	79	61
OTU 47	0	0	0	43	38	0	0	0	11	0	66	0	3	0	17	0	0	0	0	0	0	0	8	33	1	14	11	1	0	0	1	0	77	2	0	0	0	0	0	0	0	0	1	0	0	2	0	0	1	0
OTU 48	353	27	12	0	13	27	47	101	35	2	1	80	7	21	125	76	3	11	11	9	2	66	57	53	34	91	190	37	12	2	88	13	13	17	35	6	21	74	0	104	171	1	29	9	27	0	24	13	31	37
OTU 49	115	1	1	3	3	3	0	0	0	0	1	19	4	28	31	7	28	31	17	0	11	9	3	0	92	15	21	13	20	1	25	4	36	0	3	2	0	13	178	666	74	10	50	1	0	8	369	14	7	12
OTU 50	8	14	2	19	45	46	79	9	132	5	13	7	1	24	58	7	52	263	14	0	16	1630	9	191	17	19	51	1	5	134	105	18	14	14	45	16	22	69	30	35	100	30	6	20	16	83	34	33	135	22
OTU 51	124	159	27	7	74	46	46	198	0	44	14	1	17	33	1	7	0	6	23	373	14	25	13	108	14	0	159	19	64	24	1	41	0	6	0	10	34	0	9	7	2	1	30	1	77	58	4	89	24	0
OTU 52	111	162	38	38	30	5	85	102	41	27	45	66	16	61	21	739	56	34	19	9	52	39	489	44	14	81	48	50	28	176	94	895	101	42	761	476	40	1522	4	113	103	31	73	3	15	121	68	90	11	41
OTU 53	0	0	0	0	0	0	0	4	0	0	0	0	0	0	0	0	366	0	0	0	0	0	0	0	0	0	0	3	0	0	0	0	0	0	0	0	0	0	0	15	0	0	0	0	0	0	6	0	46	0
OTU 54	22	81	54	80	133	232	55	1521	171	79	40	97	5	698	80	52	182	75	16	12	271	128	28	64	12	76	26	11	5	90	62	12	32	189	24	1441	39	39	12	101	209	160	46	1	43	72	63	32	75	70
OTU 55	0	0	0	0	0	0	0	0	0	0	15	2	2	0	0	3	0	0	4	0	0	0	0	0	0	0	0	0	0	0	0	0	0	6	0	0	19	0	0	0	0	0	21	0	0	33	0	0	0	0
OTU 56	6	0	6	16	0	0	7	0	2	0	0	0	4	2	1	64	6	3	15	17	3	25	50	2	0	19	0	16	15	8	7	7	10	1	0	1	0	0	0	13	1	9	5	0	7	0	0	0	3	0
OTU 57	629	43	2	55	251	106	47	154	168	1271	77	183	536	450	18	12	91	47	96	15	228	81	5	492	4	96	100	1113	42	73	585	1	20	19	31	5	116	53	59	17	167	23	64	3	130	126	6	61	218	441
OTU 58	2	63	9	8	21	172	5	0	2	0	2	17	17	144	6	2	74	38	1084	2	80	15	21	93	0	107	0	16	48	47	32	20	2	167	8	8	22	23	23	502	10	0	1889	8	2	107	366	19	2	0
OTU 59	0	7	3	26	43	0	3	46	16	94	8	8	33	2	111	31	0	25	48	2	0	124	79	107	1	104	0	1	13	1	60	0	69	4	19	1	7	53	44	3	2	12	16	0	20	18	2	15	14	65
OTU 60	25	8	39	72	15	42	27	2	7	70	1	25	56	222	16	104	24	91	3	13	71	133	18	63	66	1281	10	27	29	325	20	27	10	26	30	5	20	57	32	8	1	249	0	50	14	8	2	8	46	1
OTU 61	11	143	4	561	54	21	47	270	17	41	70	979	55	34	28	55	12	27	71	6	13	34	402	82	2	19	194	113	19	268	3	9	142	3	171	19	5	365	33	34	40	58	47	8	8	50	0	12	12	50
OTU 62	39	0	0	11	6	84	0	0	28	22	19	0	32	21	8	0	14	38	0	0	23	32	0	3	3	36	12	1588	2	45	1	0	1	6	0	0	1	1	0	18	9	30	12	0	3	3	33	0	3	3519
OTU 63	2	29	3	1	0	0	24	5	0	2	1	1	23	8	0	28	0	1	3	0	12	16	29	98	20	0	36	1	12	24	6	0	0	40	2	0	7	5	0	31	108	148	1	6	3	0	0	1	197	6
OTU 64	44	22	30	110	50	21	89	13	59	2	10	53	34	43	141	126	150	138	1	37	11	11	77	27	16	143	421	8	178	47	38	15	59	27	43	4	14	71	20	469	29	81	8	45	401	40	191	40	18	18
OTU 65	0	6	0	0	0	0	3	0	0	9	0	3	0	0	0	0	0	0	2	0	0	0	0	0	0	0	45	0	0	3	0	0	0	0	3	0	0	4	0	0	0	15	0	0	0	0	0	0	4	0
OTU 66	62	14	35	4	3	20	105	16	169	8	27	0	24	83	58	94	5	115	23	16	64	19	76	3	39	3	3	9	13	19	46	2	9	36	13	1	17	39	36	86	70	145	7	0	2	18	25	8	3	1
OTU 67	24	1	0	29	0	186	31	36	19	2	0	11	5	81	9	22	72	46	5	0	22	59	0	3	2	19	118	1	159	103	16	24	6	2	18	14	2	36	13	0	22	2143	0	14	13	5	14	1	74	59
OTU 68	0	10	0	11	9	16	8	139	1	0	1	67	2	12	30	15	3	0	31	0	0	2	0	1	3	0	27	0	0	0	0	22	2	20	5	9	7	8	15	1	0	7	12	2	1	0	2	1	11	14
OTU 69	18	9	7	33	1	1	73	150	29	7	81	25	44	7	10	22	395	177	8	3	1	12	274	22	40	6	5	9	26	5	162	394	8	1	504	212	133	1074	53	366	70	69	12	6	2031	109	204	21	0	43
OTU 70	3	1	7	26	2	3	38	0	8	528	0	0	321	6	13	0	19	4	20	0	0	51	1	16	0	33	38	279	0	98	127	41	28	0	62	47	0	85	88	43	46	27	0	2	12	16	3	5	2	280
OTU 71	1	2	2	7	82	51	0	0	31	5	10	0	0	129	11	1	47	128	16	0	77	0	1	17	0	7	0	2063	1	0	7	44	0	52	11	13	0	27	6	7	5	0	14	29	44	6	13	6	21	0
OTU 72	187	74	4	48	51	35	0	19	6	3	9	3	10	124	17	1	20	4	149	5	57	252	30	36	17	73	13	18	40	77	95	93	11	8	7	36	12	14	0	23	568	80	101	13	22	21	4	109	0	3
OTU 73	0	24	27	44	11	188	13	64	54	65	2	18	1	314	12	12	72	30	0	4	141	27	65	95	93	2	45	13	27	6	1	4	9	3	15	1	1417	32	46	0	92	16	20	13	1	2713	8	1	0	18
OTU 74	38	61	9	12	8	2	50	5	14	7	17	107	36	93	23	14	4	57	0	1	48	0	15	67	9	12	10	34	33	200	5	106	48	12	2	29	3	11	88	33	20	1	28	1	9	7	16	26	118	6
OTU 75	14	0	12	46	0	18	15	72	96	1827	6	10	651	1	6	86	35	130	2	5	0	7	129	16	8	102	124	434	943	33	47	35	65	35	1	31	7	3	121	40	51	35	69	22	0	5	60	10	7	622
OTU 76	7	11	0	0	1	7	121	27	0	3	0	0	0	1	0	0	0	3	2	1	1	7	8	3	0	18	2	0	0	8	66	0	0	101	0	1	1	1	17	0	16	194	2	6	0	0	0	41	18	0
OTU 77	160	0	13	10	171	5	52	44	86	126	63	116	37	2	18	13	65	55	1	6	1	11	44	139	3	41	1	4	58	29	34	11	6	1	22	7	14	56	140	9	28	18	21	0	121	111	1	18	67	36
OTU 78	35	481	157	69	679	7	9	5	261	76	278	43	39	75	80	1	6	1	4	55	46	22	855	942	33	128	140	65	16	17	81	28	49	5	0	11	267	2	15	32	18	15	46	138	345	10	16	325	21	35
OTU 79	121	22	15	129	301	723	766	325	226	134	143	75	188	155	215	23	213	47	138	10	118	77	71	430	91	110	124	71	235	90	77	24	90	139	7	11	114	30	305	185	70	46	233	428	145	102	81	11	145	252
OTU 80	155	31	23	30	6	214	10	13	98	7	108	0	2	28	3	2	111	16	8	8	44	151	16	60	21	5	17	4	73	22	19	0	30	223	28	0	11	69	19	40	75	21	2	31	5	22	1	9	15	1
OTU 81	89	14	22	61	0	2	17	71	123	8	2	12	11	780	5	20	180	210	86	12	373	52	100	11	64	20	61	18	86	56	75	50	28	117	30	39	0	55	19	109	13	60	5	34	26	22	75	10	111	10
OTU 82	19	4	11	16	2	108	37	1	0	32	21	13	2	17	53	21	17	176	29	0	9	0	10	55	3	30	610	56	55	98	2	0	26	100	41	1	28	92	247	2	68	177	1	9	8	18	1	0	3	28
OTU 83	3	0	1	1	44	0	0	0	0	3	0	0	18	0	0	1	3	2	7	0	4	0	0	0	0	5	0	4	1	3	0	0	46	6	0	0	2	0	4	0	77	3	0	0	34	0	0	39	0	12
OTU 84	3	48	17	30	31	0	1	24	18	0	78	1	1	17	57	0	10	30	6	0	1	0	0	26	3	0	0	0	0	0	6	11	62	3	73	0	1	138	1	20	5	4	2	1	0	125	0	0	139	3
OTU 85	14	11	9	12	0	15	11	0	34	0	0	10	9	1	0	2	8	12	0	25	0	0	4	6	28	3	2	12	159	127	0	5	49	0	7	3	0	9	51	0	5	19	7	0	7	10	4	2	0	0
OTU 86	2	0	0	0	0	0	0	0	0	0	2	0	0	20	43	0	0	0	0	0	13	0	0	0	0	0	0	3	0	0	0	0	0	0	0	0	0	0	0	0	1	0	0	1	0	0	0	0	0	0
OTU 87	0	4	3	18	87	9	0	1	0	37	14	6	0	48	0	3	3	0	1	0	23	0	2	11	0	0	1	9	0	0	0	0	0	0	0	0	2	0	34	0	3	7	18	1	58	0	0	1	0	0
OTU 88	0	0	0	5	0	0	0	1	0	0	2	0	0	6	0	0	4	0	1	4	0	28	2	0	0	4	0	3	0	0	0	0	0	0	1	0	0	2	0	0	0	0	0	0	0	0	0	0	50	0
OTU 89	2	25	73	129	0	3	0	26	61	20	27	43	0	0	0	9	0	74	0	9	0	36	19	0	72	4	0	0	2	156	6	9	3	0	0	0	2	0	17	6	2	31	0	0	0	1	9	7	32	4
OTU 90	4	0	0	83	0	0	0	4	99	0	0	0	1	4	0	0	0	26	0	0	3	0	0	0	3	0	0	0	24	0	8	0	49	1	0	2	0	0	2	0	0	1	0	0	7	0	0	0	2	0
OTU 91	0	0	0	10	0	0	0	2	0	0	2	0	0	0	0	0	0	0	0	0	0	0	0	2	0	0	0	0	0	0	2	13	0	0	0	1	16	0	0	5	0	0	0	0	0	0	0	0	0	2
OTU 92	2	23	1	0	4	23	0	28	0	0	3	2	0	36	1	1	28	0	9	2	24	0	1	22	9	30	1	14	0	1	2	3	0	5	0	6	0	0	0	2	6	0	6	0	0	0	1	0	36	0
OTU 93	0	0	0	2	1	9	0	0	0	42	0	0	0	7	2	37	4	58	1	0	0	36	0	0	0	0	0	33	88	0	2	0	88	3	0	0	0	0	36	19	0	0	0	1	0	0	0	0	7	3
OTU 94	262	131	32	10	1	12	113	30	18	8	32	377	45	69	58	61	31	82	266	18	24	122	45	174	42	29	20	8	24	26	265	40	116	12	73	6	17	123	113	94	222	143	572	21	16	158	70	57	187	43
OTU 95	25	2	0	0	3	34	97	0	25	7	0	1	0	12	0	0	47	23	0	1	4	0	8	195	0	9	0	0	0	0	0	0	0	3	0	0	0	0	2	0	14	0	1	6	5	10	0	0	1	1
OTU 96	0	0	10	0	0	0	0	6	0	0	0	7	0	5	0	24	0	0	0	0	0	0	0	0	0	0	1	0	0	0	0	0	6	0	0	0	0	0	0	0	0	60	1	0	1	9	0	0	0	0
OTU 97	0	0	0	466	1	4	19	1	816	0	1	2	19	149	0	34	0	20	0	0	71	0	1	0	0	17	0	0	25	0	0	29	14	0	0	3	126	0	3	6	95	1	0	0	0	464	0	0	0	0
OTU 98	4	27	8	42	0	0	10	20	21	28	0	0	16	4	1	313	45	15	5	17	0	3	8	11	2	30	3	0	0	16	108	296	0	45	0	119	0	0	105	5	2	8	3	0	0	0	4	4	26	2
OTU 99	70	30	25	36	101	0	94	44	21	2	45	69	15	101	18	41	2	169	241	3	60	63	35	93	54	7	15	15	220	56	110	99	21	19	15	36	38	18	25	36	88	115	479	2	49	163	12	11	105	0
OTU 100	71	32	3	0	0	0	71	0	4	59	5	17	53	3	0	0	35	21	1	4	13	4	16	60	0	7	0	0	0	435	2	9	62	8	4	10	34	10	6	0	11	52	1	12	6	70	14	25	195	72
OTU 101	0	0	0	0	2	0	42	0	7	1	1	9	5	0	10	0	1	0	1	1	1	0	0	0	1	29	3	0	0	0	0	0	1	0	0	0	0	0	0	13	0	1	0	0	0	0	8	0	0	5
OTU 102	9	1	0	54	1814	0	5	2	28	0	1	16	0	0	0	3	22	7	0	0	2	5	33	5	0	14	0	4	1	1	0	1	25	0	20	0	7	36	5	0	0	0	0	9	831	2	0	0	0	0
OTU 103	1	13	58	7	36	0	31	9	24	15	3	2	0	105	4	10	17	12	31	14	151	81	0	46	9	0	1	6	1	0	3	29	20	6	56	18	3	72	0	2	2	24	1	7	32	2	4	2	9	9
OTU 104	39	34	5	142	26	84	21	8	15	30	68	66	8	69	57	150	37	171	9	20	3677	139	2	102	24	160	68	79	18	2	106	11	115	0	26	5	50	64	13	23	65	18	28	6	9	63	1417	27	12	19
OTU 105	2	0	2	10	52	1	0	0	0	0	32	1	0	88	0	1	47	1	13	2	24	1	43	106	9	9	1	0	14	11	0	38	0	0	0	14	14	0	37	57	18	1	0	0	36	17	9	0	0	42
OTU 106	15	0	0	0	0	1	0	65	6	0	0	55	0	0	0	0	0	1	0	0	0	2	3	2	1	10	0	0	7	23	0	0	37	1	0	0	3	0	0	6	0	0	1	0	0	0	5	0	0	0
OTU 107	15	26	566	0	5	12	0	1	0	69	21	262	7	2	0	23	40	0	0	262	0	42	18	1	33	9	8	5	0	0	0	186	0	0	0	71	10	0	91	1	94	0	0	254	8	0	0	0	0	0
OTU 108	0	339	75	3	4	16	1	82	3	10	3	10	0	2	1	0	21	0	30	62	0	38	302	0	22	27	208	1	25	52	2	4	3	12	126	7	1	263	0	16	29	45	0	127	9	3	21	178	7	34
OTU 109	0	0	0	0	1	0	0	0	0	0	0	0	0	0	0	0	0	0	0	0	0	0	0	0	0	0	0	0	0	0	7	0	0	0	10	0	0	14	0	0	0	0	0	0	0	0	0	0	0	0
OTU 110	1	27	22	0	4	3	25	18	19	88	4	15	14	5	49	67	46	44	0	1	0	0	5	114	32	158	11	2	0	681	132	21	23	12	9	25	13	18	24	3	20	57	15	0	2	11	12	55	2	69
OTU 111	0	20	0	14	0	0	1	0	0	0	0	0	0	0	0	0	0	0	0	0	0	0	0	20	2	0	0	0	7	9	13	0	11	1	0	0	1	0	0	30	7	229	10	2	1	2	3	1	4	0
OTU 112	5	3	4	8	0	3	10	26	0	1	0	0	1	7	0	47	0	35	119	0	0	3	4	21	0	0	0	7	10	104	1	0	0	1449	0	0	0	0	6	7	17	3	18	1	0	11	25	0	13	4
OTU 113	0	0	0	2	0	5	0	2	0	16	0	0	5	0	2	0	22	1	0	5	0	7	3	1	1	0	3	0	19	0	23	31	14	0	0	16	24	0	17	0	10	4	0	0	0	4	0	0	3	4
OTU 114	7	121	90	21	70	234	8	75	5	50	42	36	13	39	69	40	3	31	34	25	14	25	2	95	149	22	95	4	68	82	114	25	3	71	40	21	16	85	205	18	55	103	36	27	14	9	5	183	13	53
OTU 115	47	44	60	11	55	75	73	54	59	23	55	70	4	33	40	172	104	77	11	20	4	131	26	25	40	101	55	7	51	48	12	67	104	71	69	46	24	132	82	6	42	1	32	25	16	39	513	24	157	41
OTU 116	36	11	0	2	27	18	139	62	60	0	7	91	13	39	18	58	24	14	2	0	23	745	8	6	258	28	31	18	56	152	281	87	116	53	20	39	4	48	53	69	1218	21	7	151	18	5	33	73	30	0
OTU 117	65	11	18	38	109	0	73	46	48	3	18	17	25	14	0	2	2	21	1392	2	9	15	66	56	20	42	35	0	0	177	280	20	23	10	1	2643	1	2	3	4	26	10	19	102	77	15	17	0	17	3
OTU 118	42	2	0	0	0	103	20	37	0	0	5	0	0	1	52	0	0	0	0	0	0	1566	0	0	0	0	0	0	5	0	2	3	0	0	7	1	0	22	0	0	0	0	0	0	4	0	0	7	7	0
OTU 119	16	13	9	0	36	58	26	21	125	21	1	98	3	10	26	127	67	1297	52	2	0	36	4	35	174	12	10	7	3	70	51	4	55	97	48	0	0	75	114	28	4	22	11	7	46	0	2	3	20	6
OTU 120	2	13	0	0	6	0	2	5	3	14	0	107	0	0	1	14	0	2	1	0	3	0	2	0	0	0	3	177	5	28	0	7	58	1	0	3	1	0	0	0	0	114	0	0	4	0	0	6	0	225
OTU 121	15	0	4	3	35	39	34	42	22	4	53	186	16	6	94	18	41	1	17	4	1	140	16	18	6	32	0	5	53	29	0	1	67	71	1703	1	16	2	10	31	133	67	119	8	19	83	15	1	3	10
OTU 122	24	41	40	24	12	60	19	13	14	29	13	30	8	161	36	29	34	0	38	7	52	3	106	34	2	17	42	2	3	110	194	11	2	4	126	5	3	239	38	27	9	81	14	6	0	2	17	2	2	7
OTU 123	240	2047	828	13	54	35	92	89	171	41	67	182	51	271	53	97	188	236	19	3508	112	282	137	327	68	161	141	31	85	328	178	55	1409	105	70	22	123	125	214	36	367	29	74	3871	27	147	20	1248	534	54
OTU 124	6	7	0	0	19	0	23	0	0	57	34	13	78	3	4	1	0	0	0	6	0	2	19	1	22	1	2	6	4	1	116	0	71	0	6	3	1	9	136	6	25	0	1	0	4	0	21	2	137	63
OTU 125	98	61	19	21	114	301	194	195	16	94	130	122	100	238	742	98	151	62	87	11	87	292	143	70	564	22	278	39	33	117	140	1059	157	646	48	541	59	102	511	105	689	58	208	5	39	47	29	149	186	71
OTU 126	4	27	3	0	0	4	1	0	0	282	0	0	233	0	171	0	1	0	0	0	0	0	0	0	0	0	36	24	0	5	1	0	0	0	0	0	0	2	0	0	0	0	0	0	0	0	0	0	0	24
OTU 127	200	6	4	75	0	2	0	23	152	0	11	76	49	2	9	1	48	2	25	0	11	33	4	4	31	69	21	6	4	1	7	1322	5	7	0	624	16	0	52	1	38	2	33	0	0	36	1	2	50	36
OTU 128	244	686	148	119	73	138	167	133	120	38	72	252	38	178	11	756	182	270	380	77	70	100	468	57	216	285	341	116	263	15	216	339	1873	90	1688	162	49	33	216	57	156	145	707	56	18	36	50	164	93	68
OTU 129	1	9	0	2	0	83	0	0	0	0	0	0	7	0	4	2	0	0	0	0	0	0	0	1	0	0	0	0	1	0	0	0	6	18	2	0	39	2	1	0	5	14	42	0	2	55	0	0	0	0
OTU 130	31	12	15	0	126	108	1	68	10	0	10	83	9	8	0	4	290	276	79	4	7	5	202	139	9	2007	32	8	13	0	37	1	0	96	85	0	17	161	112	698	2	8	9	33	44	3	315	35	0	9
OTU 131	83	141	79	0	342	0	0	1	49	4	14	11	82	29	29	2798	17	23	202	21	10	0	56	7	2490	4	8	4	215	2	94	30	7	23	21	17	26	57	9	153	0	61	143	21	246	56	462	446	157	0
OTU 132	23	8	0	8	124	17	4	14	6	1	0	6	2	11	0	14	11	0	4	0	7	11	114	4	12	65	0	2	9	130	6	7	6	38	41	0	0	96	5	0	0	111	0	24	26	0	0	0	12	0
OTU 133	5	24	0	0	23	0	0	9	0	13	0	27	0	51	4	4	0	0	0	0	25	0	1	10	0	0	0	0	5	22	0	0	19	2	13	0	5	20	0	0	0	0	13	0	6	10	0	0	1	0
OTU 134	53	48	1	36	1	1	90	12	5	73	9	0	62	1	13	5	21	0	25	2	0	5	4	15	99	0	185	6	44	11	27	3	63	73	12	9	1	20	18	0	27	10	17	1	0	13	0	3	1	11
OTU 135	17	8	0	35	136	3	2	59	148	31	25	2	60	10	120	26	47	5	5	0	27	25	3	54	16	6	6	8	55	137	231	4	7	24	53	3	0	106	13	23	0	123	10	1	108	2	7	0	4	3
OTU 136	119	15	0	11	1	16	0	2	1	0	0	17	0	1	1	0	77	13	0	4	3	38	101	0	31	3	38	5	51	82	18	484	33	3	33	264	10	57	22	19	22	6	9	2	0	1	0	0	33	0
OTU 137	0	0	0	0	0	0	0	3	0	29	8	0	15	0	2	611	0	0	14	0	1	1	68	0	72	4	0	2	0	53	68	647	0	19	1	420	3	2	106	23	43	3	8	0	0	0	31	3	6	17
OTU 138	34	1	0	0	2	1	0	12	0	14	44	0	6	0	24	78	71	0	1	0	0	27	1	0	0	66	1	2	0	12	114	6	1	16	17	2	0	47	30	36	0	14	0	1	12	0	33	5	24	45
OTU 139	15	55	1541	64	5	65	57	13	97	570	64	266	258	41	1007	18	120	20	310	892	32	41	17	80	39	21	168	150	256	94	162	71	146	25	9	34	22	23	101	38	81	443	698	881	9	82	25	1	692	353
OTU 140	439	5	11	155	259	164	351	39	296	41	63	148	24	244	46	74	125	19	63	15	95	35	22	26	33	62	110	60	183	90	668	26	123	54	36	13	584	57	61	38	246	97	38	16	215	303	26	61	78	129
OTU 141	0	0	0	0	0	46	0	0	0	0	0	0	0	5	0	0	0	0	0	0	22	0	42	0	10	0	0	0	0	10	0	1	0	0	0	0	0	0	0	0	0	0	0	0	0	0	0	0	0	0
OTU 142	3	0	0	6	0	0	0	0	58	0	0	0	0	0	0	1	0	0	0	0	0	32	0	0	17	0	0	0	1	0	0	0	0	0	0	0	1	0	0	0	0	2	0	0	2	15	0	0	0	0
OTU 143	0	0	1	2	0	0	38	0	0	57	0	0	14	6	0	0	0	11	0	0	1	4	9	0	28	0	28	1	32	33	12	1	0	40	8	0	0	9	4	0	0	9	0	0	0	0	19	7	0	6
OTU 144	0	0	4	3	24	0	0	2	0	0	0	7	0	0	0	0	0	0	0	10	0	0	0	0	0	0	12	8	0	0	31	18	21	0	8	6	1	6	0	0	9	69	0	2	0	2	27	0	2	2
OTU 145	79	2	1	156	9	9	20	15	154	40	10	9	16	222	7	29	396	4	5	7	98	17	40	15	2	114	38	16	85	21	78	6	0	102	10	1	6	20	3	89	19	94	106	0	1	29	25	12	1	25
OTU 146	6	1	7	0	19	49	0	324	7	79	55	0	12	108	10	3	1	23	110	6	37	18	0	44	69	27	2	53	1	44	1	25	54	11	18	19	1	46	87	72	15	99	3	5	0	10	74	33	7	2
OTU 147	0	1	0	23	18	2	6	2	31	3	0	20	8	59	15	110	3	14	0	2	35	21	42	9	3	49	6	0	0	0	17	9	189	0	0	5	1	0	10	3	0	17	0	1	0	0	0	2	0	11
OTU 148	0	2	6	224	19	7	85	69	9	3	53	1190	0	112	22	13	1041	101	9	32	48	16	89	118	37	24	14	11	72	87	11	70	57	36	54	37	131	88	51	283	0	0	22	5	18	139	139	10	42	14
OTU 149	5	4	4	0	0	0	2	7	5	9	0	4	4	6	0	11	10	2	0	0	0	2	4	1	0	11	0	8	23	61	8	22	6	1	8	10	0	12	39	14	9	16	3	3	0	0	6	0	89	9
OTU 150	0	0	0	0	47	0	0	29	9	2	0	12	1	2	1	0	27	1	0	0	7	0	5	0	59	64	47	17	4	11	44	12	1	0	7	14	10	22	0	0	0	0	0	0	33	0	0	0	10	1
OTU 151	4	3	0	21	6	2	13	0	2	0	26	5	13	21	18	4	47	0	597	0	5	34	2	25	3	25	1	19	6	6	1	2	502	23	2	1	6	4	47	22	53	1	0	13	2	2	15	0	1	3
OTU 152	210	0	2	3	33	37	1	24	29	48	5	36	43	83	3	2	5	0	0	1	88	2	2	89	23	18	146	24	0	34	57	5	1	4	1	1	4	2	64	15	103	1	11	8	12	10	3	8	28	9
OTU 153	0	0	0	0	1	3	3	0	19	3	0	8	0	1	1	0	7	8	0	0	0	4	0	5	0	3	0	1	9	0	0	1	0	13	0	0	0	0	1	1	0	0	0	0	0	3	0	5	0	0
OTU 154	0	0	0	0	0	0	0	0	2	0	0	1	6	0	0	0	6	0	1	0	0	0	0	0	0	1	2	0	13	0	0	3	0	78	0	1	0	0	0	1	3	29	3	1	0	0	0	0	348	0
OTU 155	1	5	0	2	43	566	3	2	0	13	9	3	4	71	1	80	32	0	24	0	17	102	2	9	16	36	23	8	48	2	84	0	0	70	43	1	0	75	94	9	20	0	14	0	11	0	5	52	0	5
OTU 156	32	20	4	78	274	17	47	28	177	30	31	99	18	88	28	3	263	26	3	1	37	147	76	176	3	25	21	62	137	70	84	13	135	34	23	5	26	41	14	119	287	26	27	4	48	107	56	3	33	26
OTU 157	0	3	0	0	277	50	0	0	0	20	3	1	27	8	145	0	42	113	0	0	1	1	0	85	25	50	3	0	4	0	4	1	0	15	0	1	0	1	0	0	0	1	17	5	104	1	0	0	280	0
OTU 158	0	0	0	1	0	0	0	0	0	0	18	51	3	0	0	0	0	0	0	0	0	33	24	0	0	0	0	0	0	0	0	0	0	0	0	0	0	0	0	0	0	0	0	1	0	0	0	18	0	0
OTU 159	33	1	9	39	26	1	7	17	190	5	3	4	1	0	1	62	1	16	5	0	0	1	1	22	1	14	12	2	20	14	20	31	207	1	7	7	11	19	1	11	3	24	5	0	3	2	6	0	0	0
OTU 160	85	142	9	30	36	22	37	43	93	36	302	37	21	152	108	210	94	74	8	15	1253	100	447	331	260	138	39	20	72	285	206	402	91	321	164	190	99	323	576	65	117	107	16	41	57	174	46	14	170	52
OTU 161	121	0	1	8	105	154	21	4	4	14	3	34	50	1	25	41	17	1	10	14	0	20	4	0	39	38	1	118	6	22	16	1	12	31	17	2	1	45	2	4	89	5	21	4	76	1	3	14	51	114
OTU 162	1	22	2	62	291	27	239	4	15	178	29	168	58	26	9	22	4	15	16	0	3	10	9	613	17	26	28	12	7	15	20	16	16	16	1	253	1	1	79	3	2	4	3	18	57	12	4	34	2	84
OTU 163	0	0	0	1	3	0	0	1	0	0	0	0	0	0	0	0	0	0	0	0	0	0	0	0	0	0	0	0	0	83	0	0	0	0	0	0	0	0	0	0	0	0	1	0	0	0	0	0	0	0
OTU 164	0	0	0	0	0	0	0	3	0	0	0	0	0	0	0	0	0	1	0	0	0	1	0	0	0	0	0	1	1	0	0	0	0	0	0	0	0	0	0	0	0	0	0	0	1	0	0	0	0	14
OTU 165	23	1	0	24	43	5	17	0	13	1	21	17	0	19	0	9	34	14	11	0	2	2	0	1	50	53	0	2	116	3	18	1	1	57	6	3	3	10	99	0	8	6	27	11	30	6	3	0	114	10
OTU 166	0	0	0	0	0	0	0	0	0	0	2	0	0	0	0	0	0	0	0	0	0	0	0	0	0	5	0	0	0	0	0	7	0	0	0	0	0	0	0	0	0	0	0	0	0	0	0	0	0	13
OTU 167	5	3	4	40	0	32	0	145	15	27	12	0	1	4	1	0	71	28	0	3	0	31	14	8	0	46	45	11	1	6	5	28	0	21	13	14	9	22	0	1	41	1	4	0	3	33	6	0	13	0
OTU 168	21	0	0	8	2	76	21	99	17	1	2	137	18	14	16	12	19	62	20	0	5	3	2	15	56	49	27	18	0	34	326	48	65	23	3	31	10	14	42	117	13	2	24	1	0	13	27	0	41	4
OTU 169	2	43	0	8	3	0	0	0	2	2	0	2	0	16	10	0	2	2	0	0	20	0	0	1	0	3	0	0	0	0	0	2	88	2	1	0	0	5	113	0	13	0	15	11	0	5	0	0	0	1
OTU 170	0	0	0	0	0	0	0	0	0	0	0	0	0	0	0	1	0	0	0	0	0	0	0	0	0	0	3	0	0	32	0	0	0	0	0	0	1	0	0	0	0	0	0	0	0	0	0	0	18	0
OTU 171	0	0	376	0	39	213	50	11	0	5	6	20	3	33	9	21	11	84	3	318	25	3	4	29	1	1	9	0	6	54	36	108	0	19	12	56	31	18	9	23	12	14	0	136	37	224	9	26	10	6
OTU 172	0	4	2	2	1	30	0	0	0	0	2	1	0	0	0	0	0	0	0	0	0	0	0	0	4	0	1	0	85	0	13	0	0	0	0	0	18	0	1	0	0	15	0	0	8	1	0	0	0	0
OTU 173	0	3	5	0	0	0	15	0	0	0	0	57	0	39	30	1	0	0	0	1	12	30	1	0	3	0	15	0	104	42	0	72	0	23	0	23	0	0	0	6	1	3	39	0	3	1	4	0	7	1
OTU 174	22	0	0	22	83	5	46	11	13	227	1	330	131	0	742	26	3	1	7	5	0	6	8	4	0	3	0	100	15	8	6	23	0	4	12	20	10	17	9	18	30	8	0	0	12	0	0	0	38	146
OTU 175	3	4	0	26	39	2	6	17	12	0	18	0	0	79	0	11	0	27	8	2	26	1	47	0	0	4	45	94	14	2	66	2	11	12	5	0	36	8	7	7	2	22	27	12	10	1	5	12	8	2
OTU 176	46	98	17	15	17	6	76	10	101	48	1	47	0	6	10	19	5	8	56	27	5	27	11	8	2	45	4	3	40	104	133	14	48	4	22	3	21	66	38	402	11	284	66	2	20	95	143	35	289	104
OTU 177	11	27	52	20	16	101	14	39	51	44	96	10	63	0	6	37	48	48	0	9	1	5	5	0	21	16	98	22	5	88	80	20	11	1	52	15	6	111	2	29	9	55	3	1	15	19	22	11	57	22
OTU 178	2	27	0	2	0	0	1	2	8	7	0	2	3685	35	0	0	22	2	24	0	17	0	0	5	0	1	10	18	1084	197	13	47	130	31	1	37	4	3	0	0	33	96	44	4	0	4	4	36	20	0
OTU 179	0	21	14	1	1	6	3	61	13	4	27	56	0	18	0	28	4	1664	12	5	3	2	10	0	13	61	0	0	1	106	0	17	11	24	4	8	2	4	0	23	22	1	0	6	7	1	27	5	21	14
OTU 180	346	94	31	411	32	94	31	1215	819	33	3584	118	15	153	63	261	51	309	157	9	63	85	46	5	886	257	2907	15	76	74	9	282	118	121	109	149	129	238	1509	84	196	97	302	7	27	233	47	86	105	29
OTU 181	5	37	2	5	3	35	1	3	0	27	76	0	24	10	0	8	7	15	3	2	8	21	14	150	0	71	10	15	105	35	0	12	12	3	21	16	1	42	11	8	15	11	18	2	5	27	3	1	261	4
OTU 182	0	0	0	0	0	0	0	0	0	16	0	0	0	0	0	0	0	0	0	1	0	0	0	0	0	5	0	2	0	0	0	0	0	0	0	0	1192	0	0	0	0	0	0	0	0	2	0	0	0	0
OTU 183	0	6	5	4	4	1	2	0	21	214	7	252	42	4	3	0	112	33	2	1	0	14	79	9	8	150	4	63	0	82	0	0	43	3	0	0	4	3	55	6	4	0	7	3	2	0	9	15	9	13
OTU 184	24	0	0	0	9	5	4	29	9	0	0	0	0	6	1	0	0	11	6	4	0	7	3	7	0	0	3	4	24	15	2	0	0	16	0	0	11	0	26	0	0	0	77	0	14	7	1	24	0	0
OTU 185	121	13	12	228	7	176	37	3	392	2	0	40	91	313	2	44	0	32	86	0	170	7	4	33	78	3	6	1183	98	37	0	7	9	147	6	3	0	10	43	50	46	19	133	0	4	54	16	530	0	172
OTU 186	125	0	45	1	0	0	10	0	0	0	26	48	4	26	0	0	6	0	31	0	8	0	18	0	9	6	46	9	0	20	13	1	5	1	7	1	0	14	0	1	51	0	6	0	0	0	4	3	5	2
OTU 187	59	50	37	123	14	13	23	237	53	20	43	36	28	97	31	43	12	205	2	5	62	4	139	17	62	113	27	57	18	18	94	13	21	22	256	4	4	66	109	197	42	6	85	52	24	59	117	6	287	48
OTU 188	87	7	3827	23	24	163	88	4	1	64	60	57	57	42	97	41	47	23	24	1894	35	57	25	156	125	79	14	11	62	26	119	13	25	158	27	18	7	58	106	31	363	66	146	1959	6	3	2	2	310	13
OTU 189	0	2	37	34	7	24	20	64	116	17	54	313	63	49	52	93	174	42	13	1	59	96	53	54	3	0	1	0	4	43	72	39	1	86	19	16	50	31	20	4	73	3	114	21	1890	86	6	9	83	21
OTU 190	0	9	0	0	25	0	0	1	0	0	20	0	1	0	9	0	0	0	143	1	0	0	23	7	26	0	0	0	3	7	0	5	0	0	72	0	0	146	0	2	0	10	755	1	0	8	0	22	0	0
OTU 191	46	6	0	45	59	12	7	376	29	2	14	126	11	118	15	26	5	53	19	5	78	10	2	200	21	5	243	5	3	261	3	86	47	1088	92	34	5	11	39	24	2	138	17	3	46	37	27	1	24	1
OTU 192	177	112	34	44	168	142	21	98	20	12	71	13	3	54	21	4	515	24	39	13	31	1	205	129	44	5	8	16	73	73	7	50	77	7	4	10	255	6	53	746	30	212	65	4	116	494	300	16	251	15
OTU 193	43	64	10	43	13	835	38	3	2	57	22	25	2	8	2	8	117	20	57	0	3	2	253	55	39	42	0	5	666	20	64	38	8	535	147	350	1	275	0	27	1	6	32	17	18	0	4	6	122	15
OTU 194	8	65	24	12	82	3	12	2	1	101	0	1	57	36	4	1	3	1	0	0	9	15	0	30	11	2	23	6	13	0	8	0	27	0	0	0	23	0	0	15	2	16	25	0	91	2	20	21	0	16
OTU 195	39	0	1	7	66	20	0	5	0	11	11	0	9	15	7	1	2	32	9	8	0	0	4	5	4	16	81	39	1	126	70	18	21	6	6	6	51	13	22	2	0	0	4	0	35	16	5	2	2	57
OTU 196	4	40	4	16	32	40	3198	6	0	19	48	1	2	0	3	23	2	15	2	476	3	0	1	20	0	4	0	4	128	33	36	1	24	44	24	1	71	33	71	0	11	17	0	0	1	102	6	11	7	4
OTU 197	73	49	45	4	25	49	429	5	1	67	1499	24	54	70	31	94	219	16	5	11	22	16	97	108	38	4	1	12	51	132	106	49	49	41	38	19	1	85	163	99	115	304	23	4	11	37	29	11	89	6
OTU 198	0	26	4	1	0	0	3	2	38	75	24	26	48	0	11	0	0	0	11	2	0	0	27	0	0	0	0	18	20	7	0	0	0	53	4	1	0	4	10	0	102	0	0	0	0	0	0	5	0	0
OTU 199	2	0	0	3	3	0	2	149	22	27	1	2	0	16	0	10	8	1	3	0	25	0	0	0	27	24	85	2	5	18	42	0	1	0	0	0	5	0	2	0	0	1	1	8	0	0	13	27	16	40
OTU 200	4	0	0	0	216	10	1	45	0	0	1	60	0	6	73	20	17	4	9	8	7	4	11	21	26	10	2	3	12	39	53	0	4	5	44	0	0	74	1	2	29	53	4	191	159	2	0	1	176	47
