	Host 1	Host 2	Host 3	Host 4	Host 5	Host 6	Host 7	Host 8	Host 9	Host 10	Host 11	Host 12	Host 13	Host 14	Host 15	Host 16	Host 17	Host 18	Host 19	Host 20	Host 21	Host 22	Host 23	Host 24	Host 25	Host 26	Host 27	Host 28	Host 29	Host 30	Host 31	Host 32	Host 33	Host 34	Host 35	Host 36	Host 37	Host 38	Host 39	Host 40	Host 41	Host 42	Host 43	Host 44	Host 45	Host 46	Host 47	Host 48	Host 49	Host 50	
OTU 1	0	3	2	0	0	7	0	5	0	0	2	0	0	6	0	0	1	6	0	2	0	10	0	0	0	0	7	1	0	1	7	1	10	5	0	0	5	0	3	0	0	0	3	3	7	3	1	1	0	2
OTU 2	0	0	0	0	3	0	0	0	0	0	0	1	2	0	0	3	4	0	0	0	1	0	0	0	0	5	1	2	0	7	0	0	0	0	0	0	0	0	0	0	0	0	1	1	0	1	0	0	1	0
OTU 3	1	0	4	65	0	0	0	0	0	0	0	3	0	0	0	0	0	0	2	0	0	0	0	2	0	0	0	0	0	0	0	0	0	0	0	0	0	0	0	1	0	0	0	2	0	0	0	0	0	0
OTU 4	0	0	0	0	0	0	0	0	0	0	0	0	0	0	0	0	0	0	0	0	0	0	0	0	0	0	0	0	0	0	0	0	0	0	0	0	0	0	0	0	0	0	0	0	0	0	0	0	0	0
OTU 5	4	5	5	14	39	4	23	6	1	16	26	9	10	19	0	39	12	5	1	3	0	6	5	5	11	32	4	4	3	4	10	1	0	15	3	18	18	14	11	6	3	0	10	4	0	4	16	18	0	18
OTU 6	2	1	0	0	0	1	1	5	0	0	0	0	0	1	1	1	0	1	3	0	0	1	0	0	1	0	0	0	0	0	0	1	1	0	0	4	0	2	0	2	5	2	0	0	4	0	9	0	2	1
OTU 7	2	5	3	2	3	0	3	3	4	0	3	1	14	1	2	3	1	2	5	1	0	3	1	1	0	10	4	1	4	5	3	5	5	2	1	0	2	2	2	0	14	7	0	7	2	0	2	12	0	3
OTU 8	0	4	4	17	7	2	0	2	3	3	1	1	1	1	0	2	1	0	8	1	1	4	5	10	2	3	0	7	2	2	3	2	1	0	4	5	26	1	0	1	1	0	3	4	0	1	7	0	2	3
OTU 9	0	0	0	1	1	0	0	1	0	0	0	0	0	1	0	0	0	2	0	1	0	0	5	0	1	0	1	3	1	0	2	0	2	1	1	3	0	1	0	0	0	0	0	1	0	0	0	1	0	1
OTU 10	1	0	8	0	0	1	0	0	0	1	2	3	1	0	2	3	0	4	0	0	0	0	0	0	8	1	1	0	0	0	0	0	0	0	1	5	0	2	0	0	0	0	0	0	1	3	4	0	0	1
OTU 11	0	9	0	0	0	0	0	1	5	2	1	0	0	0	0	1	2	1	1	0	1	2	0	0	1	0	0	0	3	0	0	0	2	0	0	0	4	0	0	25	5	2	0	0	1	1	3	4	16	1
OTU 12	1	0	1	2	1	2	15	3	0	2	0	0	3	1	0	1	4	4	1	0	0	7	1	0	3	1	0	2	2	7	3	0	2	2	2	4	0	7	0	0	1	1	0	9	0	0	0	0	0	0
OTU 13	0	0	0	0	0	1	0	0	0	1	0	0	0	0	0	0	0	1	0	0	1	0	0	0	0	0	0	0	0	0	1	0	11	8	0	0	0	2	0	0	0	3	0	0	0	0	0	0	0	0
OTU 14	0	1	0	0	1	0	0	0	0	0	1	0	0	0	0	8	0	0	0	2	0	0	0	0	8	0	0	0	0	0	2	0	0	0	0	0	1	0	1	0	0	1	0	1	0	0	2	0	0	0
OTU 15	0	0	0	0	0	0	0	0	0	0	0	0	0	0	0	0	0	0	0	0	0	0	0	0	3	0	0	0	1	0	0	0	0	0	0	0	0	0	0	0	0	0	0	0	0	0	0	0	0	0
OTU 16	0	0	0	0	0	0	0	0	0	0	0	0	0	0	0	0	0	0	0	0	0	1	0	0	0	0	0	0	0	0	0	0	0	0	0	0	0	0	0	0	0	0	0	0	0	0	0	0	0	0
OTU 17	2	0	1	0	3	7	3	0	4	1	0	0	0	0	0	5	0	4	0	1	0	0	0	1	4	1	1	0	0	0	2	1	0	0	0	7	2	0	0	1	3	11	0	0	0	0	3	0	0	0
OTU 18	0	0	1	0	1	0	0	0	1	0	0	0	6	1	1	3	3	0	6	1	1	5	3	6	0	0	1	0	0	5	2	1	2	2	0	3	7	2	0	0	9	7	0	0	1	1	0	1	6	3
OTU 19	0	0	0	0	0	0	0	0	0	0	0	0	0	0	0	0	0	0	0	0	0	0	0	0	0	0	0	0	0	0	0	0	0	0	0	0	0	0	0	0	0	0	1	0	0	0	0	0	0	0
OTU 20	3	3	0	7	4	0	0	0	0	0	0	0	4	0	0	6	0	3	0	1	0	0	1	0	0	5	0	0	6	1	5	0	7	6	0	1	0	2	1	0	1	5	2	1	0	0	0	0	1	0
OTU 21	1	0	1	0	5	0	0	2	0	3	1	5	1	0	1	0	0	0	1	3	2	0	1	4	2	2	1	0	0	2	1	0	0	0	1	1	3	0	0	0	0	2	2	2	0	0	3	1	1	0
OTU 22	1	7	4	2	0	0	7	0	0	4	2	2	0	0	0	3	1	3	4	0	2	0	1	0	2	1	4	5	31	2	0	4	3	4	1	2	0	4	13	0	5	1	0	0	1	0	2	0	2	0
OTU 23	2	0	0	0	0	0	0	0	0	1	5	1	0	1	0	2	0	0	1	0	1	0	3	1	0	0	4	3	1	1	0	1	1	0	0	1	0	0	0	2	0	0	0	12	3	2	3	5	0	1
OTU 24	1	0	0	0	1	0	1	0	0	1	0	0	3	1	0	0	0	0	0	133	41	0	0	0	0	1	1	5	1	0	2	1	0	0	8	0	0	0	80	1	2	0	0	0	0	0	1	1	0	0
OTU 25	0	0	0	0	0	0	0	0	0	1	0	0	0	0	0	0	0	0	0	0	0	0	0	0	0	1	0	0	0	0	0	0	0	0	0	0	0	0	0	0	0	0	0	0	0	1	0	0	0	0
OTU 26	0	0	0	0	0	0	0	2	0	0	0	0	2	0	0	0	0	0	0	0	0	0	0	0	0	1	0	0	0	0	0	0	1	0	0	0	0	0	0	0	0	0	0	0	0	0	5	0	4	0
OTU 27	0	0	0	0	0	0	0	0	15	0	0	0	0	0	0	0	0	0	0	0	0	0	0	0	0	0	0	0	1	0	0	0	0	0	0	0	0	0	0	0	0	0	0	0	0	0	0	0	0	0
OTU 28	0	2	4	1	2	0	0	0	2	1	3	111	0	4	13	0	3	0	3	6	5	4	7	1	2	6	8	5	0	8	0	0	0	0	0	8	7	1	0	1	3	0	6	1	1	0	2	9	0	3
OTU 29	0	2	1	0	0	0	1	8	0	1	0	0	0	3	1	0	0	0	1	0	7	2	0	1	1	0	3	3	2	8	2	2	9	1	0	4	2	2	0	1	2	0	4	1	0	1	3	0	0	0
OTU 30	0	0	0	0	0	0	0	0	0	0	0	0	0	0	0	0	0	0	0	0	0	0	0	0	0	0	0	0	0	0	0	0	0	0	0	0	0	0	0	0	0	0	0	0	0	0	0	0	0	0
OTU 31	6	1	0	0	0	0	1	0	1	0	0	0	0	0	0	0	0	0	0	1	2	0	0	0	0	0	1	0	1	0	0	0	0	0	0	0	0	0	0	0	0	0	0	0	0	1	0	0	3	0
OTU 32	2	2	2	3	1	4	0	5	1	5	1	1	2	6	2	0	2	2	7	0	4	5	0	2	2	0	5	6	20	3	10	1	8	5	0	0	0	0	0	0	1	0	2	2	2	0	0	2	2	0
OTU 33	9	2	0	1	0	0	0	1	0	0	0	0	0	0	0	0	0	0	0	0	0	0	0	0	0	0	0	0	0	0	0	0	0	0	0	0	1	0	0	0	0	0	0	0	0	0	0	0	0	0
OTU 34	0	0	0	6	7	0	3	6	0	1	0	0	4	0	0	0	0	0	1	0	0	1	12	2	2	1	0	0	1	0	1	0	0	0	1	13	0	0	0	20	0	0	9	0	1	2	1	5	4	0
OTU 35	3	16	0	0	1	0	0	2	0	0	0	0	0	0	0	0	3	1	2	5	87	3	4	0	0	1	0	2	0	6	0	0	2	1	2	0	0	2	6	0	1	1	0	1	0	0	0	0	1	0
OTU 36	0	0	2	41	1	0	2	6	1	96	0	0	0	0	1	0	2	0	1	0	4	1	0	0	8	5	0	0	0	3	3	1	2	0	2	7	6	0	0	1	1	0	0	1	0	3	0	2	1	0
OTU 37	3	0	0	0	0	0	2	0	0	0	1	0	0	0	0	0	1	0	0	0	0	0	0	0	0	3	0	0	1	0	0	0	0	0	2	0	0	2	0	0	0	1	0	1	0	0	0	0	0	0
OTU 38	5	0	3	0	0	3	0	1	0	0	1	0	1	1	1	25	0	1	0	0	0	0	0	0	0	0	0	0	7	3	4	0	5	2	0	3	2	1	0	1	3	0	2	30	0	0	1	1	2	2
OTU 39	0	1	0	0	0	0	0	0	3	0	0	0	0	0	0	1	0	0	0	0	0	0	4	0	0	0	0	3	0	0	0	0	0	0	0	0	0	0	0	0	0	2	3	0	0	0	0	0	0	0
OTU 40	3	0	2	1	1	5	8	0	0	2	0	0	0	0	2	1	0	0	1	0	3	0	1	0	0	6	0	1	4	0	0	0	0	0	104	1	16	13	0	7	5	0	4	2	0	0	0	1	3	11
OTU 41	0	2	6	0	0	0	0	0	0	0	0	2	1	0	0	3	0	0	2	0	0	0	0	0	0	1	0	1	0	1	0	0	1	2	0	0	0	4	0	0	0	0	0	0	3	0	3	2	3	1
OTU 42	1	1	0	0	3	0	0	0	0	0	1	0	2	0	0	0	0	6	0	0	6	0	0	0	1	0	0	2	2	0	0	0	0	2	0	0	7	1	0	0	0	0	0	0	0	0	0	0	0	0
OTU 43	0	0	0	0	0	0	0	0	0	0	0	0	69	0	0	0	0	0	0	0	0	0	0	0	0	0	0	0	0	0	0	0	0	0	0	0	0	0	0	0	0	0	0	0	0	0	0	0	0	0
OTU 44	0	1	0	0	0	0	0	0	0	1	0	0	0	0	0	0	0	4	0	2	0	2	0	1	0	0	0	1	0	0	0	1	1	1	0	0	0	0	0	0	0	0	0	0	0	0	0	0	0	0
OTU 45	2	1	0	0	0	0	0	2	3	0	4	0	1	104	1	2	1	0	0	1	2	0	10	1	0	0	5	0	0	0	2	4	0	0	1	2	10	0	0	1	1	0	10	1	1	0	1	0	15	6
OTU 46	1	4	2	3	0	2	2	3	4	6	6	0	3	0	0	0	0	0	3	5	2	0	0	5	6	0	2	1	0	1	2	1	3	4	1	6	0	2	0	2	0	2	0	1	92	0	13	2	1	2
OTU 47	0	1	0	0	0	0	0	0	0	4	1	0	0	1	0	0	0	0	0	1	0	0	0	0	0	0	1	0	4	2	0	0	1	0	1	0	0	0	0	0	0	0	0	0	0	0	0	0	0	0
OTU 48	2	1	7	0	1	36	0	3	0	0	2	4	0	4	2	0	0	0	0	3	4	3	1	0	1	2	2	3	2	0	1	0	0	38	0	23	2	0	0	1	1	0	0	23	0	0	1	1	1	0
OTU 49	2	1	0	1	0	0	0	1	0	1	1	0	0	3	2	1	0	1	0	0	1	0	0	0	0	0	2	2	0	0	3	0	0	0	0	0	0	2	0	5	2	0	0	0	0	0	0	0	1	4
OTU 50	5	0	0	3	2	6	0	3	1	6	0	0	3	0	2	3	0	1	0	0	1	0	5	0	0	0	1	1	3	1	0	2	8	4	0	1	7	0	1	3	6	12	5	3	0	0	0	2	6	4
OTU 51	4	6	0	2	1	1	0	0	0	0	0	0	1	0	1	0	0	7	5	5	0	0	0	2	0	0	1	0	1	0	4	0	14	4	0	0	1	0	0	0	10	2	0	0	1	0	0	1	1	4
OTU 52	1	1	1	3	1	1	0	7	6	0	4	2	2	0	5	0	2	4	1	2	2	3	5	149	5	1	13	6	12	1	3	5	10	1	1	2	1	0	1	2	1	0	0	7	0	0	5	2	0	0
OTU 53	0	0	1	0	0	0	0	0	0	0	0	0	0	0	0	0	0	0	0	0	0	0	1	0	0	0	0	0	0	0	0	0	0	0	0	0	0	0	0	0	0	0	0	0	0	0	0	0	0	0
OTU 54	0	1	2	1	0	135	2	5	0	1	4	1	4	1	4	2	60	1	5	1	0	4	1	1	0	0	7	2	8	1	0	7	1	1	0	6	8	0	0	0	3	6	2	0	0	0	4	4	1	0
OTU 55	0	0	0	0	0	0	0	0	0	0	0	0	0	0	0	0	0	0	0	0	0	0	0	0	0	0	0	0	0	0	0	0	0	0	0	0	0	0	0	0	0	0	0	0	0	0	0	0	0	0
OTU 56	0	8	0	0	8	0	122	0	1	0	0	0	0	0	1	63	0	0	2	1	0	0	0	0	0	4	1	5	0	0	0	1	0	0	3	27	0	4	4	0	0	0	1	22	2	1	1	0	1	0
OTU 57	5	3	9	7	2	1	0	2	5	0	1	4	1	5	0	0	1	1	8	0	14	2	0	2	1	14	1	5	4	7	3	1	3	0	10	0	2	3	0	20	4	8	1	3	7	67	1	1	1	4
OTU 58	0	0	0	2	0	2	0	2	0	1	0	0	4	0	0	0	0	0	2	0	2	0	29	0	0	0	0	0	0	2	2	0	0	0	2	0	26	0	1	4	7	0	13	1	0	1	0	28	0	0
OTU 59	0	0	0	0	0	0	0	0	1	0	0	0	0	0	0	1	0	0	0	0	0	0	0	0	4	0	0	0	2	0	0	0	1	0	0	0	0	2	0	0	0	0	1	2	0	0	1	0	0	0
OTU 60	7	0	5	6	0	2	1	7	8	0	19	1	6	0	9	0	0	2	3	1	0	0	1	0	8	2	22	4	5	3	0	16	2	1	2	0	1	0	0	8	6	1	3	1	1	1	0	18	5	4
OTU 61	0	2	0	2	1	1	4	18	0	4	1	0	2	4	3	1	3	3	2	7	5	1	4	3	12	4	1	0	11	0	6	2	2	1	0	5	3	2	3	9	2	0	3	2	4	4	0	4	2	2
OTU 62	0	0	13	0	1	0	6	0	0	0	0	4	0	0	0	0	2	0	0	0	0	1	2	1	0	4	0	1	0	0	3	0	2	1	0	0	0	0	0	0	0	3	0	0	0	3	3	0	0	0
OTU 63	2	0	54	0	0	0	0	1	1	0	2	20	1	0	1	0	0	0	1	0	0	1	0	4	0	10	2	0	1	0	0	1	0	0	2	0	0	0	0	2	1	0	0	0	0	0	1	0	1	0
OTU 64	20	1	11	7	7	5	2	3	1	2	0	20	2	8	1	1	7	0	26	0	6	17	1	22	2	5	1	5	8	5	4	0	11	7	7	21	1	7	0	1	3	6	6	20	34	2	0	30	3	2
OTU 65	0	1	0	0	0	0	0	0	0	0	0	0	0	0	0	0	0	0	0	0	0	0	0	0	0	0	0	2	0	0	0	0	0	0	0	0	0	0	0	0	0	0	0	0	0	0	0	1	0	0
OTU 66	0	10	1	2	6	0	4	0	12	1	2	2	3	0	0	1	0	1	0	4	2	0	0	0	0	0	0	0	6	30	1	0	4	1	0	0	4	2	1	0	9	2	3	0	0	0	0	8	6	135
OTU 67	0	0	0	0	0	0	0	0	2	0	0	0	0	2	1	0	1	0	3	1	2	0	8	1	2	0	2	2	0	3	2	1	2	1	1	4	0	0	0	0	0	0	0	0	1	0	0	2	0	0
OTU 68	0	0	0	0	0	0	0	0	0	1	0	0	2	2	0	0	0	0	4	0	0	0	0	4	33	0	0	0	0	0	0	0	0	0	0	0	0	0	0	1	0	0	0	1	0	0	0	0	0	0
OTU 69	1	6	10	2	0	58	0	2	0	1	8	5	10	3	1	0	1	0	9	2	0	0	0	5	1	3	4	0	0	1	0	6	1	0	38	2	3	2	1	16	0	93	0	4	0	1	0	0	1	3
OTU 70	0	6	0	0	2	0	0	4	0	0	0	0	0	0	0	1	2	0	1	6	2	2	1	1	0	1	0	2	0	1	0	0	0	0	0	1	2	0	2	0	2	0	3	2	1	0	0	0	0	3
OTU 71	0	0	0	0	0	0	5	0	0	1	0	0	0	0	0	0	0	1	0	0	0	1	1	0	0	0	0	4	8	0	1	0	0	0	4	0	0	1	0	0	0	0	5	5	0	0	0	0	0	1
OTU 72	0	1	0	1	2	1	4	10	3	0	4	0	1	1	3	0	2	0	0	0	2	5	2	0	1	0	0	0	0	0	0	0	0	0	0	2	1	0	0	1	4	0	2	0	7	0	2	0	0	0
OTU 73	5	0	2	0	3	0	0	1	1	2	3	1	0	2	1	6	1	0	7	1	0	0	1	3	0	0	9	3	0	1	2	8	2	1	0	8	0	7	0	1	0	1	1	2	0	0	1	1	1	2
OTU 74	0	1	3	1	1	3	7	18	0	3	2	0	0	0	0	2	0	2	14	1	1	0	0	7	0	1	6	2	0	0	0	6	3	2	2	6	2	14	0	3	11	0	0	0	1	1	0	2	0	0
OTU 75	0	1	4	0	0	0	1	4	0	0	0	1	3	0	0	0	0	1	2	2	3	0	7	1	0	0	0	0	8	1	8	0	9	4	2	0	3	0	2	0	0	3	1	4	0	0	1	2	3	0
OTU 76	0	0	3	0	0	0	0	0	0	0	1	1	0	1	1	10	2	2	1	0	0	1	0	0	0	0	0	0	1	0	0	0	0	1	0	0	2	1	0	0	0	0	0	5	1	2	0	0	3	0
OTU 77	0	0	1	0	0	1	0	0	2	0	1	0	0	1	2	1	1	1	1	2	3	2	5	1	1	2	3	5	2	0	3	2	4	1	1	0	22	4	0	8	0	3	2	1	0	1	7	3	2	0
OTU 78	0	0	3	0	0	1	0	8	0	2	2	1	3	1	0	0	2	0	0	0	0	1	7	0	0	0	1	4	0	0	0	0	3	1	0	1	1	1	0	0	1	2	0	2	3	2	0	5	3	0
OTU 79	5	5	0	1	9	3	39	38	12	13	40	51	47	0	1	3	5	0	0	1	4	0	8	0	0	3	4	4	13	21	5	5	9	3	2	8	9	52	0	2	5	9	1	2	1	3	18	14	12	1
OTU 80	0	0	3	0	2	0	0	3	0	0	0	1	0	1	0	1	3	0	10	0	1	5	3	3	2	1	0	29	0	0	0	0	1	0	2	0	4	20	0	1	4	1	1	0	1	1	3	5	0	1
OTU 81	4	1	3	1	2	0	0	2	1	0	0	2	2	1	5	1	3	0	11	11	7	2	4	5	0	5	1	10	6	1	2	0	1	0	0	9	6	3	3	4	4	0	1	6	0	0	1	0	0	3
OTU 82	1	4	0	0	0	1	0	3	0	0	0	0	3	0	3	1	0	1	1	0	0	2	0	0	0	0	0	0	5	2	0	0	0	0	0	0	0	1	1	0	3	0	5	0	8	0	3	0	0	0
OTU 83	0	0	0	0	0	0	0	0	3	0	2	0	0	0	0	0	0	0	0	0	0	0	1	0	0	0	8	0	0	2	0	3	0	0	0	0	0	0	0	0	0	1	0	0	1	1	0	0	0	4
OTU 84	0	1	1	0	0	0	0	0	2	0	1	1	1	2	0	6	1	160	0	0	0	1	3	0	1	0	2	0	0	0	3	0	3	1	2	0	0	0	53	0	1	0	3	0	0	0	1	0	0	2
OTU 85	0	0	0	0	0	0	0	0	0	0	30	0	2	0	0	0	0	0	0	0	0	0	0	1	0	0	0	2	1	0	0	0	0	0	1	0	0	0	0	3	0	0	0	5	0	0	1	0	0	1
OTU 86	0	0	3	0	0	0	0	0	0	0	0	1	0	0	0	0	0	0	0	0	0	0	0	0	0	0	0	0	0	0	0	0	0	0	0	0	0	0	0	0	1	0	0	0	0	0	0	2	0	0
OTU 87	0	0	0	0	0	0	0	0	0	0	1	0	0	0	0	0	0	1	7	0	0	0	0	0	0	0	3	0	0	0	0	0	0	0	0	0	0	1	0	0	0	0	0	0	0	0	0	0	0	0
OTU 88	0	0	4	0	0	0	0	0	3	0	0	0	0	0	0	0	0	0	0	0	0	0	0	0	0	2	0	0	0	0	0	0	0	0	0	0	0	3	0	0	0	0	0	0	0	0	0	0	0	0
OTU 89	1	0	0	0	0	0	0	1	1	0	0	0	0	0	0	0	0	0	0	0	0	0	0	3	3	0	0	2	0	0	1	0	0	0	0	0	0	0	0	0	1	0	0	0	3	0	0	0	0	1
OTU 90	0	0	0	3	0	0	0	0	3	2	0	0	0	0	0	0	0	0	3	0	0	0	0	0	0	0	2	0	0	0	0	0	0	0	0	0	0	0	0	0	0	0	0	0	3	3	2	0	0	0
OTU 91	0	0	0	0	0	0	0	0	0	0	0	0	1	0	0	0	0	0	0	0	0	0	0	0	4	0	0	2	0	0	0	0	0	0	0	0	1	0	1	0	0	0	0	0	1	0	0	0	0	0
OTU 92	0	3	0	0	0	0	0	0	0	0	0	0	0	0	0	0	0	1	0	0	0	0	1	0	1	0	0	0	0	0	0	0	4	1	0	1	0	1	0	0	0	0	1	0	0	3	2	0	0	0
OTU 93	0	0	0	0	0	0	1	0	0	0	0	0	1	3	0	0	0	0	0	0	3	2	0	0	0	0	0	0	0	0	0	0	0	0	0	0	0	0	0	0	0	0	0	1	0	0	0	0	0	0
OTU 94	4	5	3	0	2	0	2	0	0	3	1	2	2	3	2	1	0	2	14	5	0	2	2	5	6	2	0	9	9	0	1	0	1	1	0	6	2	2	4	4	8	1	4	0	22	0	9	2	5	0
OTU 95	0	0	3	0	0	0	0	0	0	0	0	5	6	0	0	0	0	0	0	0	0	0	0	0	3	0	0	0	0	0	0	1	0	0	0	0	0	2	0	0	0	0	0	0	0	0	0	20	0	0
OTU 96	0	0	0	0	0	0	0	0	1	0	0	0	0	0	0	0	1	0	0	0	0	0	0	0	0	0	0	0	0	0	0	0	0	0	0	0	0	0	1	0	0	0	0	0	0	0	0	0	0	0
OTU 97	0	0	0	0	1	0	0	0	0	0	0	0	0	0	0	0	0	0	0	0	0	0	1	0	0	1	0	0	0	0	0	0	0	0	0	1	0	1	0	0	0	0	0	0	0	0	0	0	0	0
OTU 98	0	0	0	0	3	0	0	0	0	2	0	1	0	1	0	0	2	1	0	0	1	5	3	0	0	0	0	1	0	0	0	0	0	0	6	0	0	0	0	3	0	0	2	0	2	0	0	0	0	3
OTU 99	2	0	0	0	1	1	2	2	3	2	2	0	0	2	0	0	4	0	11	0	1	2	1	2	2	2	7	1	3	2	0	1	0	0	1	3	0	9	0	0	7	2	0	4	0	2	0	3	1	3
OTU 100	0	2	2	1	1	2	0	0	3	0	0	1	0	0	2	0	1	0	1	2	3	0	1	0	0	4	0	15	1	2	1	0	0	1	0	0	7	0	0	5	0	0	2	1	0	0	0	0	2	0
OTU 101	0	0	0	0	1	0	0	0	0	0	0	0	0	0	1	0	0	0	2	0	0	0	0	0	2	0	0	5	0	0	2	1	0	0	0	0	0	0	0	2	0	0	0	0	0	0	1	0	0	0
OTU 102	0	1	1	0	0	2	0	0	0	0	0	1	0	0	0	0	0	2	0	0	0	0	0	0	0	0	0	1	0	0	0	0	1	0	1	0	0	0	0	0	0	2	0	0	0	0	0	0	3	0
OTU 103	2	2	2	0	0	2	0	0	0	0	0	1	1	3	7	1	0	5	3	3	0	0	2	1	0	0	2	0	0	2	2	1	12	71	0	0	5	0	0	5	0	5	5	0	0	2	1	5	0	0
OTU 104	3	2	1	1	9	2	0	6	6	5	7	1	9	1	6	0	1	6	4	4	5	1	0	3	6	4	5	3	0	9	5	3	6	3	5	0	1	0	1	0	3	0	2	1	1	1	6	8	7	1
OTU 105	0	0	0	0	0	0	0	1	0	0	0	0	1	0	0	2	0	0	0	0	0	1	0	0	0	0	0	0	0	0	0	0	1	0	0	1	0	6	0	0	3	0	5	0	0	0	1	0	0	0
OTU 106	1	0	2	0	1	0	0	0	0	0	0	1	0	0	0	20	0	0	0	0	0	0	0	0	1	0	0	0	2	0	0	1	0	2	0	0	0	0	0	0	0	0	0	12	0	1	0	0	0	0
OTU 107	0	0	0	1	0	0	0	1	0	0	1	1	1	0	2	0	0	1	0	0	0	0	1	0	4	0	1	0	0	0	0	1	0	0	0	0	0	0	1	0	1	0	0	5	0	193	1	1	0	3
OTU 108	0	0	5	0	0	0	1	2	0	2	0	0	1	0	1	0	0	1	2	0	6	0	0	1	0	0	3	3	2	0	0	1	3	1	1	2	1	0	0	0	1	1	0	0	5	0	0	1	0	0
OTU 109	0	0	0	0	0	0	0	0	0	0	0	0	0	0	0	0	0	0	0	0	0	0	0	0	1	0	0	0	0	0	0	1	0	0	0	0	0	0	0	0	0	0	0	0	0	0	0	0	0	0
OTU 110	13	0	1	1	0	1	11	4	1	4	89	0	9	50	1	0	0	1	2	1	0	0	0	1	8	0	5	1	3	1	1	2	0	0	2	0	0	12	0	0	1	1	45	0	0	0	19	15	5	1
OTU 111	0	0	0	0	0	0	0	0	2	0	0	0	0	0	0	0	33	0	0	0	0	0	0	0	0	0	0	0	0	0	0	0	0	0	0	0	0	0	0	0	0	0	0	0	0	0	0	0	0	0
OTU 112	0	1	1	0	0	0	0	0	1	0	0	0	1	0	0	0	0	0	1	0	7	0	0	0	0	5	0	5	0	0	0	0	1	0	0	2	1	0	0	0	4	0	0	0	0	0	3	0	0	1
OTU 113	0	6	0	0	0	0	0	0	0	0	0	0	0	0	0	0	0	0	0	5	0	0	0	0	0	0	0	0	0	0	0	0	0	0	0	0	0	0	1	0	4	0	0	0	0	0	1	0	0	0
OTU 114	1	0	1	6	1	4	3	14	18	18	1	0	10	1	17	2	2	13	2	1	0	1	3	1	0	2	10	0	4	34	15	5	30	10	1	0	6	8	0	2	12	9	11	2	5	7	0	4	4	11
OTU 115	1	2	4	7	64	0	1	6	0	3	3	2	1	4	1	0	1	0	3	1	3	5	2	2	3	2	3	6	1	0	0	0	2	0	2	0	3	0	4	0	4	1	0	6	2	1	7	0	3	1
OTU 116	7	1	0	2	2	0	2	0	40	1	0	1	0	1	0	0	0	2	0	2	13	0	2	1	3	1	3	1	3	0	0	0	3	0	2	1	3	2	0	0	3	2	0	0	0	0	1	2	2	0
OTU 117	0	9	9	2	0	0	1	14	0	4	3	1	3	5	2	0	1	0	4	2	0	2	0	1	3	4	1	0	3	10	4	0	2	0	0	0	0	1	0	2	2	0	2	0	1	2	5	2	1	1
OTU 118	0	0	0	0	0	0	0	0	0	1	3	0	0	0	1	1	0	0	0	1	0	0	0	0	1	0	3	0	0	0	0	1	4	3	0	1	0	0	0	1	3	0	0	1	0	0	1	0	0	5
OTU 119	4	0	3	9	0	2	36	0	0	3	0	3	0	1	0	2	3	9	0	0	0	2	4	0	2	7	0	5	2	0	1	0	0	0	0	0	1	61	0	1	1	1	5	3	1	2	0	5	3	0
OTU 120	0	0	0	0	0	0	0	4	0	0	0	0	0	0	0	3	0	1	1	0	0	0	6	2	0	0	0	1	0	0	1	0	4	0	2	0	0	1	0	0	0	0	0	0	2	1	2	5	0	0
OTU 121	1	0	0	0	0	0	0	1	0	2	0	1	1	0	0	0	1	1	0	0	0	1	0	1	0	5	0	2	3	2	0	0	1	2	0	0	0	1	0	12	0	0	0	1	0	0	0	3	0	0
OTU 122	2	0	4	2	1	0	0	2	0	8	0	4	0	1	2	5	0	0	6	0	0	0	0	1	0	1	1	2	0	1	8	2	1	0	3	6	0	7	0	0	0	1	0	3	0	0	2	0	4	0
OTU 123	14	0	16	6	2	3	5	2	17	6	3	10	14	5	3	1	9	7	16	2	8	9	12	38	7	13	6	1	19	22	12	4	8	4	0	4	35	8	1	3	7	4	2	6	14	8	8	5	10	0
OTU 124	0	0	2	0	2	0	0	2	0	1	0	0	0	0	0	2	0	0	0	0	0	0	0	0	0	0	0	0	0	1	1	0	1	0	0	0	0	0	0	1	0	0	0	2	0	1	0	0	0	0
OTU 125	7	4	9	8	21	2	1	11	14	6	1	6	11	5	3	34	29	6	5	1	3	8	2	1	12	7	6	16	8	10	4	3	6	0	3	3	0	7	0	11	11	2	3	4	1	3	13	1	6	0
OTU 126	0	0	0	0	1	0	0	0	0	1	0	0	3	0	0	0	0	0	2	0	0	0	0	0	0	1	0	0	0	0	0	0	0	0	0	0	0	0	0	0	2	0	0	0	2	1	0	0	0	0
OTU 127	1	1	1	0	0	0	0	2	0	0	0	0	0	0	1	0	0	2	0	0	6	0	0	0	5	0	0	3	8	6	2	0	0	0	0	0	1	0	0	0	1	2	0	3	0	0	6	0	0	0
OTU 128	28	11	5	12	4	7	4	7	0	4	2	1	11	60	3	4	62	5	18	7	3	133	0	8	7	3	3	4	3	0	3	4	10	5	47	7	6	1	1	10	21	22	3	4	74	0	5	4	0	7
OTU 129	0	0	0	0	0	1	0	0	0	0	2	0	0	0	0	0	1	0	2	0	0	0	1	2	5	0	0	0	0	0	1	1	1	0	0	0	2	1	0	0	2	0	0	0	0	0	0	0	0	0
OTU 130	2	3	0	0	0	0	0	0	4	3	0	0	0	0	0	4	1	0	0	0	0	2	0	1	0	0	0	1	0	0	5	0	0	81	0	0	0	0	0	0	0	1	2	1	1	0	2	0	0	1
OTU 131	0	3	0	6	0	2	1	8	4	29	15	0	0	1	18	1	0	30	0	0	2	2	0	0	0	6	22	0	3	0	23	10	50	21	0	2	0	0	0	0	0	23	1	0	2	14	0	0	0	5
OTU 132	4	0	1	0	0	0	0	0	1	0	0	2	0	0	0	0	0	0	0	1	2	0	0	0	0	0	3	0	6	0	4	0	0	0	0	0	0	0	0	0	0	0	2	0	0	0	0	3	6	0
OTU 133	0	6	0	0	0	0	0	0	0	0	1	0	0	0	1	0	0	0	0	0	0	0	1	0	1	0	0	2	0	0	1	0	0	0	0	0	0	1	0	0	1	0	0	0	1	0	0	0	0	0
OTU 134	3	0	3	0	1	0	1	4	0	5	0	0	5	0	1	1	2	1	0	0	4	1	0	1	0	1	0	3	1	0	0	0	0	0	0	2	0	0	0	0	0	0	0	0	6	0	0	0	0	2
OTU 135	0	1	2	0	1	1	1	0	0	1	0	0	0	2	0	0	0	1	6	0	1	2	2	1	0	2	4	1	3	0	0	0	2	1	1	2	1	3	1	1	0	2	1	1	1	1	0	3	6	0
OTU 136	1	0	0	0	0	1	0	0	0	0	0	1	2	1	3	0	0	4	0	1	1	0	0	1	1	3	0	18	0	3	0	0	1	2	0	1	4	0	1	2	0	1	0	0	0	0	0	1	0	0
OTU 137	2	0	1	0	0	0	0	1	0	0	0	0	1	0	0	0	0	0	0	0	0	0	80	5	2	0	0	0	0	0	0	1	0	0	1	0	0	0	0	0	0	0	0	0	0	0	0	0	1	0
OTU 138	0	1	0	0	0	2	0	0	1	1	0	32	0	0	0	1	0	0	0	0	0	0	0	1	0	1	0	1	3	0	2	0	5	5	0	0	0	0	0	0	0	0	101	0	0	0	0	0	0	4
OTU 139	1	12	9	6	10	3	0	1	4	0	1	4	6	1	1	0	0	2	2	9	0	0	1	0	51	28	4	3	1	4	87	3	0	0	4	0	1	0	4	1	5	2	1	0	1	0	5	0	9	3
OTU 140	2	2	6	0	9	0	6	3	7	15	3	2	6	0	7	1	3	1	0	2	8	5	17	2	1	10	2	7	12	12	0	148	2	0	1	6	3	3	1	2	10	2	1	50	3	1	2	7	71	4
OTU 141	0	2	0	0	0	0	0	0	0	0	0	0	0	0	0	0	0	0	0	0	0	0	0	0	0	2	0	0	0	0	0	0	0	0	0	0	0	0	0	0	0	0	4	0	0	0	0	0	0	0
OTU 142	0	0	0	0	0	0	0	0	0	0	0	0	0	0	0	1	0	0	0	0	0	0	0	1	0	0	0	0	0	0	0	33	0	0	0	0	0	2	0	0	0	0	0	0	0	0	0	0	0	0
OTU 143	0	1	0	0	0	0	0	0	1	0	0	0	1	0	0	1	0	0	0	4	0	0	0	0	0	1	0	2	1	2	0	0	0	0	0	0	0	0	1	0	0	0	0	0	0	0	0	0	0	0
OTU 144	0	0	0	0	0	0	0	0	0	0	3	0	6	0	2	0	0	0	4	0	0	2	0	2	4	0	2	1	0	0	1	2	0	0	0	0	0	0	0	0	0	0	0	2	2	0	0	0	1	0
OTU 145	2	3	6	47	1	1	2	0	0	6	0	2	0	0	0	7	0	2	0	1	1	0	0	0	1	11	0	15	0	0	2	0	6	3	0	0	0	0	0	1	0	0	0	0	2	6	0	0	4	26
OTU 146	0	1	0	1	0	1	0	0	3	6	24	0	10	0	50	2	0	0	2	1	1	2	2	1	3	4	71	3	1	0	0	26	1	0	1	4	0	0	3	1	0	0	0	0	0	0	0	1	1	24
OTU 147	1	0	3	0	0	0	0	0	0	0	3	2	0	0	0	0	0	1	0	0	0	0	0	0	0	0	5	0	1	0	3	1	0	0	0	1	0	1	0	0	0	0	0	0	0	0	0	1	2	2
OTU 148	1	2	5	0	9	1	2	0	3	12	4	3	2	0	4	1	0	1	9	0	2	4	6	6	0	1	16	8	2	1	8	7	0	0	0	1	1	0	0	19	2	1	0	7	0	7	5	0	3	2
OTU 149	11	0	5	0	0	0	0	0	0	0	0	1	2	0	0	0	1	3	1	0	3	2	26	0	6	0	1	1	0	1	0	3	0	0	0	0	3	0	0	0	1	0	1	0	0	0	0	0	2	4
OTU 150	3	0	0	0	0	0	0	3	0	0	0	0	1	0	0	0	0	0	0	0	0	1	1	0	0	0	0	0	2	0	0	0	2	4	1	0	0	0	0	1	3	1	0	0	0	0	0	0	0	0
OTU 151	0	0	0	3	0	0	0	0	0	0	0	0	0	2	0	1	0	0	0	0	0	1	0	0	0	0	1	0	1	3	3	0	0	0	0	0	0	0	0	3	0	0	0	1	0	0	0	0	3	0
OTU 152	3	6	0	5	1	0	1	2	2	0	0	1	2	0	0	1	0	3	2	5	2	0	0	0	34	6	0	0	0	2	0	0	0	0	1	0	0	1	0	0	6	0	6	8	0	0	9	7	0	6
OTU 153	0	4	1	0	0	1	0	0	5	0	1	0	0	0	0	0	0	2	0	0	0	0	1	0	0	0	0	0	0	0	3	0	12	5	0	0	0	0	0	0	0	0	0	0	0	0	0	0	0	0
OTU 154	0	0	0	0	0	0	0	0	0	0	0	0	0	0	0	0	0	0	0	0	0	0	0	0	0	1	0	0	1	0	0	0	0	0	0	0	0	0	0	0	4	0	0	0	0	0	1	3	0	0
OTU 155	1	0	1	0	1	1	0	10	0	0	0	2	0	0	0	0	0	0	0	0	0	0	0	0	0	0	0	0	0	1	3	0	0	0	0	0	5	1	0	0	0	0	0	0	1	0	2	0	0	0
OTU 156	3	109	0	0	0	0	3	3	2	3	0	1	0	1	0	7	1	1	0	38	3	2	7	0	4	2	2	5	1	1	3	1	0	0	15	2	2	1	27	7	3	11	1	0	0	4	1	6	2	0
OTU 157	1	1	0	0	0	0	0	0	0	0	0	0	0	0	0	0	0	0	2	0	0	0	0	0	1	10	3	0	0	1	1	1	0	0	0	0	0	0	0	0	0	0	0	0	0	0	1	0	0	1
OTU 158	0	0	0	0	0	0	0	0	0	0	0	0	0	0	0	0	0	0	1	0	0	0	0	0	0	0	0	0	3	0	0	0	0	0	0	0	0	0	0	0	0	0	0	0	0	0	3	0	0	0
OTU 159	3	0	0	0	0	19	0	1	3	0	0	0	1	0	5	2	0	0	1	1	0	0	3	0	0	2	1	0	0	0	0	0	0	0	0	2	0	0	1	0	0	64	0	0	1	0	2	11	2	0
OTU 160	6	7	7	17	2	2	0	1	6	5	1	6	1	5	1	4	2	0	5	2	9	5	3	6	5	12	3	0	2	8	7	3	2	3	0	15	0	1	2	1	6	1	0	4	2	4	21	3	1	2
OTU 161	0	0	27	5	9	7	0	0	3	0	0	7	0	3	0	0	0	0	3	1	0	1	3	0	0	0	0	0	6	0	1	0	0	0	1	1	2	0	0	0	0	0	0	0	0	0	9	1	0	2
OTU 162	4	0	2	1	1	1	0	3	0	0	0	0	0	0	1	2	1	0	0	1	4	0	0	0	2	1	0	0	24	0	0	0	1	0	0	0	2	0	0	0	0	0	0	2	0	1	3	2	0	0
OTU 163	0	0	0	0	0	0	0	0	0	0	0	0	3	0	0	0	0	0	0	0	0	0	0	0	0	0	0	0	0	0	0	0	0	0	0	0	0	0	0	0	0	0	0	0	0	0	0	0	0	0
OTU 164	0	0	0	0	0	0	0	0	0	0	0	0	0	0	1	0	0	0	0	0	0	0	0	0	0	0	0	0	0	2	0	0	0	0	0	3	0	0	0	0	0	0	0	0	1	0	2	0	0	0
OTU 165	0	5	0	0	0	0	0	1	70	0	4	0	2	1	0	1	2	0	1	1	3	1	0	0	0	0	4	1	0	0	0	0	0	0	0	0	5	0	2	0	0	2	0	4	2	0	2	0	5	2
OTU 166	0	0	0	0	0	0	0	4	0	0	0	0	0	0	0	0	0	0	0	0	0	0	0	0	0	0	0	0	0	1	0	0	0	0	0	0	0	0	0	0	0	0	0	0	0	0	0	0	0	0
OTU 167	1	0	1	0	1	0	0	1	0	3	0	0	2	0	134	1	1	2	0	0	0	0	0	0	0	3	0	1	0	0	0	0	1	0	0	6	0	0	0	0	0	0	0	1	0	0	0	4	2	0
OTU 168	0	0	4	0	0	1	1	3	1	0	6	1	1	0	0	0	3	0	4	0	0	1	0	1	0	7	1	0	0	1	0	4	0	0	0	0	1	1	0	2	2	0	0	1	0	0	2	0	0	0
OTU 169	0	0	0	0	0	0	0	0	0	0	1	0	0	0	0	0	2	0	1	0	0	1	3	1	0	0	0	0	0	0	0	0	0	0	0	7	0	0	0	0	0	0	0	0	0	0	1	0	3	0
OTU 170	0	0	0	0	0	0	0	0	0	0	0	0	0	0	0	0	0	0	0	0	0	0	0	0	0	0	0	0	0	0	4	0	5	4	0	0	0	0	0	0	0	0	0	0	0	0	0	0	0	0
OTU 171	0	0	2	0	0	0	0	2	0	0	2	1	2	0	1	0	0	1	7	0	0	2	1	3	4	0	0	0	0	3	0	0	1	0	1	2	3	2	0	1	6	1	1	0	0	1	5	0	6	1
OTU 172	1	0	0	0	0	0	0	0	0	0	0	0	0	0	0	0	0	0	0	0	0	0	3	0	0	0	0	0	0	0	0	0	1	0	0	0	0	0	0	0	0	0	0	0	0	0	2	0	0	0
OTU 173	4	0	0	0	0	0	0	6	0	0	3	0	0	0	2	1	1	0	1	0	0	0	0	0	0	0	0	0	0	2	2	0	0	0	0	0	0	0	0	0	0	0	0	0	0	0	0	0	0	0
OTU 174	0	0	0	0	0	0	0	0	2	0	0	2	1	0	1	2	0	1	0	37	14	0	0	1	1	0	1	6	0	5	1	0	0	0	1	0	3	1	18	0	0	1	0	0	1	0	2	1	20	1
OTU 175	1	0	0	0	0	0	2	0	0	0	3	0	2	0	1	0	0	0	0	1	0	1	0	0	0	0	2	0	2	4	0	14	0	0	1	0	3	1	0	0	0	2	0	0	0	0	0	1	2	0
OTU 176	4	3	0	0	3	2	3	0	2	2	0	0	1	11	1	1	11	3	7	0	9	16	0	4	0	0	0	0	0	4	3	0	1	2	1	4	3	0	1	0	1	1	0	0	1	0	1	0	1	0
OTU 177	0	1	0	0	2	5	0	2	2	0	1	1	2	3	0	0	0	0	2	3	3	3	1	0	3	0	0	2	2	0	21	0	0	0	0	0	0	2	1	0	5	0	0	2	0	0	3	4	0	13
OTU 178	10	1	0	0	0	0	6	13	0	1	0	0	0	0	0	0	0	1	0	1	1	0	0	1	0	0	4	0	0	4	0	1	0	0	0	2	0	0	0	1	0	0	2	1	0	0	0	0	0	0
OTU 179	57	0	5	0	22	1	1	0	0	1	0	2	3	0	0	1	2	1	0	0	0	5	0	1	3	0	0	0	1	1	0	0	0	0	0	0	2	0	0	0	0	0	0	0	0	0	0	2	0	4
OTU 180	4	4	1	5	3	1	1	4	5	0	1	0	1	1	10	13	0	0	3	1	3	0	4	4	2	11	8	7	13	2	8	3	1	1	0	1	2	1	1	5	18	0	6	4	0	1	22	4	2	0
OTU 181	7	0	0	2	0	0	6	1	4	0	0	1	0	0	1	1	0	5	0	0	2	0	2	1	3	0	0	0	0	0	0	0	0	0	0	0	4	16	1	0	34	0	10	3	1	1	2	9	0	3
OTU 182	0	0	0	0	0	0	0	0	0	0	0	0	0	0	0	0	0	0	0	0	0	0	0	0	0	0	0	0	0	0	0	0	0	0	0	0	0	0	0	0	0	0	0	0	0	0	1	0	0	0
OTU 183	1	8	0	0	0	1	0	1	19	0	0	0	0	0	1	0	0	5	3	2	6	0	1	2	0	0	1	2	2	41	0	0	1	4	0	0	0	0	0	1	4	2	1	0	0	0	1	0	1	0
OTU 184	7	0	0	0	2	0	1	0	0	0	0	0	2	3	1	3	0	2	3	0	1	0	0	2	0	0	0	5	0	2	0	0	2	0	1	0	7	0	0	0	0	0	2	3	0	1	3	4	0	1
OTU 185	2	0	0	4	4	2	1	6	0	1	1	1	1	0	3	4	0	2	0	0	7	1	1	1	1	6	5	4	3	1	3	2	1	1	0	0	4	3	117	2	4	4	1	0	0	0	8	7	1	0
OTU 186	0	0	2	0	0	0	2	1	0	2	1	0	0	0	0	0	1	0	1	0	3	4	0	1	0	0	0	3	0	1	0	0	0	0	0	0	1	3	0	0	0	0	1	2	4	0	5	2	0	0
OTU 187	1	5	6	0	7	0	0	1	3	8	3	1	0	4	5	4	3	0	6	6	0	8	1	3	1	6	8	15	1	0	1	2	3	0	0	3	5	0	4	3	1	3	15	7	1	0	2	0	2	0
OTU 188	2	5	0	1	8	6	0	1	8	2	0	0	0	1	1	1	56	5	1	0	2	1	1	0	2	4	0	6	2	4	2	1	4	7	0	1	1	1	0	4	0	4	4	0	0	2	0	1	2	1
OTU 189	8	0	3	6	2	3	3	5	1	16	0	0	0	4	2	2	6	0	5	0	2	4	6	1	8	2	0	0	1	1	1	1	2	1	1	2	2	1	0	9	9	0	3	2	2	1	11	6	2	1
OTU 190	0	0	1	3	0	0	0	0	0	0	0	0	0	1	0	0	0	0	0	0	0	0	0	0	0	0	0	0	0	3	0	0	0	0	0	0	0	0	0	0	1	0	0	0	0	0	0	0	0	0
OTU 191	2	2	0	1	0	1	0	2	0	2	2	0	0	0	1	0	0	0	1	0	0	0	1	2	2	6	0	6	1	2	0	2	1	0	62	0	2	1	0	3	12	0	3	0	19	3	3	1	12	0
OTU 192	1	0	10	0	0	1	2	4	0	1	1	6	3	7	0	2	6	4	9	1	2	26	0	2	2	27	4	5	7	5	8	1	3	5	3	6	6	5	0	63	1	5	3	4	6	1	0	3	2	4
OTU 193	0	0	6	1	0	0	0	0	1	2	0	7	0	3	0	3	1	1	21	9	0	3	0	7	4	2	3	4	11	13	0	0	0	0	0	15	0	0	1	2	0	0	0	5	2	0	1	5	0	3
OTU 194	12	0	0	0	0	0	10	0	2	0	0	0	1	0	1	0	0	0	0	0	0	2	0	0	0	0	0	1	1	0	0	0	0	1	0	0	0	13	0	0	0	2	5	0	0	0	0	0	23	0
OTU 195	0	0	2	1	1	1	0	0	0	1	4	3	2	2	1	0	1	6	0	0	0	1	0	0	2	0	5	0	0	0	0	1	4	4	0	0	3	0	0	7	1	0	0	1	0	3	0	0	8	1
OTU 196	4	1	0	3	3	1	0	2	0	0	0	1	1	1	0	2	0	0	0	1	0	1	11	0	1	1	0	6	0	2	0	1	0	0	0	3	4	0	0	3	0	1	4	0	0	0	1	2	0	0
OTU 197	1	12	2	11	42	2	5	3	7	0	0	1	4	2	2	2	2	0	4	8	1	0	1	1	1	6	1	3	0	0	1	0	2	2	7	0	2	1	8	24	0	4	0	11	3	2	14	2	10	0
OTU 198	4	0	1	0	0	3	0	5	1	2	0	0	0	0	0	23	0	3	0	1	0	0	0	0	1	0	0	0	0	0	0	0	5	2	0	2	0	0	0	1	0	1	0	3	0	0	0	0	0	0
OTU 199	0	1	0	0	0	0	0	0	0	0	0	0	0	0	4	1	0	0	0	3	1	0	1	0	10	0	0	0	0	0	0	1	0	0	2	41	0	0	0	0	1	0	0	0	0	0	2	0	0	0
OTU 200	0	3	0	2	2	0	0	1	0	0	0	0	0	0	0	0	0	0	0	0	0	2	0	0	2	0	0	2	0	0	0	0	0	0	0	1	8	4	0	0	0	1	1	0	1	0	2	3	2	0
