	Host 1	Host 2	Host 3	Host 4	Host 5	Host 6	Host 7	Host 8	Host 9	Host 10	Host 11	Host 12	Host 13	Host 14	Host 15	Host 16	Host 17	Host 18	Host 19	Host 20	Host 21	Host 22	Host 23	Host 24	Host 25	Host 26	Host 27	Host 28	Host 29	Host 30	Host 31	Host 32	Host 33	Host 34	Host 35	Host 36	Host 37	Host 38	Host 39	Host 40	Host 41	Host 42	Host 43	Host 44	Host 45	Host 46	Host 47	Host 48	Host 49	Host 50	
OTU 1	1	4	0	5	1	0	2	2	3	7	1	16	0	0	2	1	6	2	6	5	2	5	19	12	0	9	3	8	1	0	2	12	3	1	1	5	0	4	1	5	4	6	5	0	9	0	4	2	1	4
OTU 2	0	2	1	0	0	0	0	0	2	2	0	0	0	1	0	0	2	0	0	0	1	0	0	0	0	0	0	0	0	0	0	0	0	0	0	0	0	0	0	6	0	0	2	0	0	0	0	0	0	0
OTU 3	0	1	0	0	4	0	0	0	1	0	0	0	0	0	0	0	0	1	0	0	0	0	1	0	0	0	0	0	0	0	0	0	1	0	0	4	0	0	0	0	0	0	0	0	0	7	1	0	0	0
OTU 4	1	0	0	0	0	0	0	0	0	0	0	0	0	0	0	0	0	0	0	0	0	0	0	0	0	0	0	0	0	0	0	0	0	0	0	0	0	0	0	0	0	0	0	0	0	0	0	0	0	0
OTU 5	24	0	24	16	12	0	13	3	20	4	1	0	22	9	32	7	55	15	49	6	2	17	3	15	2	34	25	1	24	76	3	4	58	10	0	24	9	13	4	3	15	2	2	44	21	0	43	13	8	14
OTU 6	0	0	0	0	0	0	2	0	0	0	0	0	8	0	2	0	0	0	0	0	0	2	2	0	1	1	0	1	0	0	7	2	0	0	0	0	1	0	0	0	0	0	0	0	1	8	1	0	0	3
OTU 7	0	3	1	5	3	3	0	4	8	11	10	4	2	2	3	2	4	3	10	1	11	0	6	1	2	0	3	0	8	2	13	1	4	1	0	6	13	0	0	16	2	1	3	4	4	4	0	11	1	2
OTU 8	0	4	0	0	0	8	1	2	4	2	1	3	6	6	7	8	1	0	1	4	2	8	2	4	3	1	0	2	0	1	2	7	0	5	1	3	3	0	0	2	0	3	5	0	6	1	1	3	2	2
OTU 9	1	4	0	2	0	2	0	1	0	0	0	0	0	1	0	2	0	3	1	0	2	0	0	0	0	2	31	0	3	2	0	1	1	0	0	2	1	1	0	0	1	4	2	0	1	3	0	0	0	0
OTU 10	0	1	0	0	0	0	0	0	6	4	9	0	0	0	2	0	0	1	10	0	0	0	0	0	0	3	1	0	5	7	3	0	2	0	1	0	1	0	0	19	0	0	0	0	0	0	0	6	64	0
OTU 11	0	1	3	1	0	0	0	1	0	0	0	0	7	3	0	0	2	2	0	4	0	0	1	0	1	0	0	3	0	1	5	1	0	0	7	0	0	1	2	0	1	1	1	1	0	1	0	0	1	0
OTU 12	0	0	0	0	0	1	0	0	7	0	1	0	3	6	1	2	2	4	2	3	1	2	0	0	4	4	0	0	0	0	1	0	0	0	0	0	0	0	1	1	0	0	0	1	0	4	1	0	9	0
OTU 13	0	0	0	0	0	0	1	0	0	1	0	1	0	0	0	0	0	0	0	0	0	0	0	0	0	0	0	0	0	1	0	0	0	0	0	0	0	0	0	0	0	0	0	0	0	0	1	0	0	0
OTU 14	0	0	5	0	0	0	0	0	0	0	1	0	0	0	0	0	0	0	0	0	4	1	0	0	0	0	4	2	0	2	0	0	2	0	1	0	0	0	0	0	0	0	0	0	0	0	0	0	2	0
OTU 15	0	0	0	0	0	0	0	0	0	1	0	0	0	0	0	0	0	0	0	0	0	0	0	0	0	0	1	0	0	0	0	0	0	0	0	0	0	0	0	0	0	0	0	0	0	0	0	0	2	0
OTU 16	0	0	0	0	0	0	0	0	0	0	0	0	0	0	0	0	0	0	0	0	0	0	0	0	0	0	0	0	0	0	0	0	0	0	8	0	0	0	0	0	0	0	0	0	0	0	0	0	0	0
OTU 17	0	0	1	0	0	0	0	2	0	0	3	1	9	0	2	0	0	0	0	0	0	2	0	0	0	0	1	0	0	1	2	1	0	1	0	0	0	0	0	0	2	0	0	0	2	0	0	0	5	0
OTU 18	0	1	0	0	2	9	1	6	4	1	1	0	3	0	1	1	2	0	9	0	0	3	3	3	0	1	0	1	4	5	4	7	2	0	1	0	0	4	3	2	3	5	1	0	0	9	3	1	2	0
OTU 19	0	0	0	0	0	0	0	0	0	0	0	0	0	0	0	0	0	0	0	0	0	0	0	0	0	0	0	0	0	0	0	0	0	0	0	0	0	0	0	0	0	0	0	0	0	0	0	0	0	0
OTU 20	1	6	1	0	0	1	0	2	0	1	0	0	0	1	0	0	1	0	0	6	0	1	0	0	0	3	0	5	0	0	4	3	1	1	0	0	2	0	1	5	0	1	65	3	0	2	0	1	0	0
OTU 21	0	1	0	0	0	5	0	1	0	1	0	0	1	0	1	0	4	0	2	0	1	0	0	0	2	2	1	0	3	1	0	3	22	0	0	1	2	0	1	5	9	3	0	0	0	0	2	3	0	0
OTU 22	4	0	1	0	0	0	0	1	4	0	0	1	10	0	0	3	2	1	0	5	0	8	1	0	1	1	0	2	0	0	0	0	0	149	0	1	1	0	1	0	2	0	0	0	0	2	2	0	0	1
OTU 23	4	0	3	5	1	0	0	5	1	0	0	4	3	2	0	0	0	0	1	0	0	0	1	2	0	1	0	2	0	0	0	0	0	2	1	0	0	0	0	0	1	1	0	0	0	1	0	0	0	1
OTU 24	1	4	0	0	0	6	1	0	0	0	0	0	0	2	1	1	0	0	0	1	4	0	0	0	3	0	1	0	0	0	3	4	0	4	0	2	0	0	0	2	0	1	1	0	0	0	0	0	0	0
OTU 25	0	0	0	0	0	0	0	0	0	0	0	0	0	0	0	0	0	0	2	0	0	0	0	0	0	0	0	0	0	0	0	0	0	0	0	0	0	0	0	0	0	0	0	0	0	0	0	0	0	0
OTU 26	0	0	0	0	2	5	0	0	0	0	0	0	0	0	0	0	1	0	0	0	1	6	2	1	0	0	1	0	0	0	0	8	0	0	0	0	0	2	0	0	0	0	0	16	0	0	5	0	0	0
OTU 27	0	0	0	0	0	0	0	0	0	0	0	0	0	0	0	0	0	0	0	0	0	0	0	0	0	0	0	0	0	0	0	0	0	0	0	0	0	2	0	0	0	0	0	0	0	0	0	0	0	0
OTU 28	0	1	0	3	0	0	4	0	1	0	5	7	2	6	0	0	7	5	0	1	5	0	6	3	135	0	1	2	0	1	9	4	0	1	2	0	0	1	0	0	0	0	2	0	0	0	1	2	4	1
OTU 29	4	0	3	2	0	0	2	0	3	1	0	0	1	3	0	0	0	2	0	3	2	0	0	0	4	0	0	1	0	2	0	0	1	1	1	0	2	0	0	0	0	1	0	0	0	0	0	0	2	2
OTU 30	0	0	0	0	0	0	0	0	0	0	0	0	0	0	0	0	0	0	0	0	0	0	0	0	0	0	0	0	0	1	0	0	0	0	0	0	0	0	0	0	0	0	0	0	0	0	0	0	0	0
OTU 31	5	0	0	26	18	0	0	0	15	8	14	0	0	3	0	0	4	0	19	0	0	0	0	0	0	0	0	0	8	0	5	60	8	0	0	24	15	27	0	21	1	1	0	0	0	0	1	11	0	1
OTU 32	0	1	1	1	0	2	2	2	1	5	0	3	0	0	3	2	0	0	3	11	3	0	1	0	0	0	0	1	0	7	0	3	1	0	0	3	7	0	7	2	4	2	50	2	1	8	1	2	0	0
OTU 33	0	0	0	0	0	0	0	0	0	0	0	2	0	0	0	0	0	0	0	0	0	0	0	0	0	0	0	0	1	0	0	1	0	0	0	0	0	1	0	0	0	0	0	0	0	0	0	0	0	0
OTU 34	62	1	0	6	0	0	0	0	0	1	0	2	5	1	0	2	0	3	1	1	2	0	0	0	0	1	3	2	0	1	3	4	1	1	6	0	9	5	0	2	1	2	0	1	0	0	0	0	1	3
OTU 35	0	0	0	0	0	0	4	1	0	10	0	1	0	2	5	0	1	0	8	0	2	5	0	0	0	0	1	2	0	0	0	2	5	2	0	0	0	0	1	0	0	0	0	1	3	5	0	1	0	2
OTU 36	1	1	0	3	0	0	5	0	1	0	2	4	1	0	6	2	0	0	0	0	0	0	0	0	0	0	0	0	0	2	1	0	0	2	0	2	0	0	1	6	1	2	2	0	4	1	0	3	0	0
OTU 37	0	0	0	0	0	0	0	4	0	0	0	0	0	0	0	0	0	0	0	0	0	0	0	0	0	0	0	3	0	0	0	0	0	0	0	0	1	0	0	0	0	0	0	0	0	0	0	0	0	2
OTU 38	3	9	2	8	5	2	13	3	12	7	5	31	1	8	17	112	21	1	1	14	0	12	21	17	2	17	4	12	1	0	1	18	2	3	0	2	0	13	5	3	5	1	9	2	10	1	4	9	7	10
OTU 39	0	0	0	1	0	0	0	0	0	0	0	1	0	1	0	0	1	0	0	0	2	0	0	0	2	0	0	0	0	0	0	0	0	0	1	0	0	0	0	0	1	0	0	2	0	0	1	0	0	0
OTU 40	1	0	0	0	0	0	0	0	1	0	2	1	2	8	0	2	0	0	2	1	3	0	2	1	1	1	1	0	1	0	0	0	3	0	0	26	0	0	1	11	2	0	0	0	0	2	0	2	2	2
OTU 41	0	0	0	0	1	1	3	0	1	2	0	0	1	0	0	1	0	1	0	1	0	1	0	1	0	0	1	0	0	0	0	0	0	0	0	0	0	0	1	0	0	3	2	0	0	2	0	1	3	0
OTU 42	0	0	0	0	0	0	1	0	0	0	0	16	0	1	0	0	2	0	0	0	0	1	0	0	0	0	1	0	0	0	0	1	1	0	0	0	0	0	1	0	0	104	0	0	0	0	0	0	0	0
OTU 43	0	0	0	0	0	0	0	0	0	0	2	0	0	0	0	0	0	0	0	0	0	0	0	0	0	0	0	0	0	0	0	0	0	0	0	0	0	0	0	0	0	0	0	0	0	0	0	0	0	0
OTU 44	1	0	0	0	0	0	0	0	0	5	0	0	0	0	0	0	0	0	1	0	0	2	0	0	0	1	0	0	3	0	0	0	1	0	0	0	3	0	0	6	0	0	0	0	1	5	0	1	0	0
OTU 45	2	3	0	1	0	164	0	3	1	3	0	3	0	0	0	2	0	0	1	1	0	0	1	0	0	0	0	0	2	4	0	2	0	2	12	0	0	1	0	0	2	0	0	0	0	0	1	0	0	0
OTU 46	7	4	1	1	0	0	0	0	0	3	1	0	0	21	2	18	0	0	1	0	0	0	0	1	8	0	1	2	0	1	4	4	3	0	0	20	1	1	0	3	0	9	5	2	4	0	0	0	0	0
OTU 47	0	0	0	0	0	0	0	0	0	0	0	0	0	0	0	0	0	0	0	2	0	0	0	0	0	0	0	0	0	0	0	0	0	1	0	0	0	1	0	2	57	0	0	0	0	0	0	0	0	0
OTU 48	0	0	0	1	0	0	8	1	1	0	0	1	2	0	15	0	1	0	0	2	6	11	0	0	1	0	0	0	0	0	3	0	0	4	0	0	4	6	0	2	5	2	5	1	13	10	2	1	3	4
OTU 49	0	1	2	0	0	0	0	0	0	0	0	0	0	3	0	6	0	4	0	0	0	0	1	0	0	1	0	0	1	0	0	0	0	0	1	0	0	0	1	0	1	0	1	0	0	2	1	0	0	0
OTU 50	1	2	1	1	0	1	3	53	2	0	0	2	9	1	0	0	2	1	1	0	0	1	0	1	4	2	2	134	3	2	4	7	3	5	0	0	1	0	0	4	1	65	0	0	0	4	1	0	1	41
OTU 51	0	1	0	0	0	0	1	0	19	0	0	1	0	1	4	1	0	0	0	0	0	3	0	0	0	0	0	0	1	0	0	0	0	0	4	0	0	0	0	1	0	2	1	0	3	0	1	0	0	0
OTU 52	1	6	11	2	4	4	1	1	2	1	3	1	1	2	1	7	4	1	7	1	4	1	4	2	4	0	1	2	0	2	3	2	0	2	8	3	1	2	5	4	1	4	3	0	0	0	1	1	1	0
OTU 53	0	0	0	0	0	0	0	0	0	0	0	0	0	0	0	0	0	0	0	0	0	0	0	0	0	0	0	0	0	0	0	0	0	0	0	0	0	0	0	0	2	0	0	0	0	0	0	0	0	0
OTU 54	2	0	3	1	0	0	1	2	3	3	10	67	2	22	22	0	29	2	2	0	1	30	0	0	16	3	4	2	0	3	3	33	0	1	1	0	2	17	0	5	1	5	0	3	5	1	18	3	1	1
OTU 55	0	0	0	0	0	0	0	0	0	0	0	0	0	0	0	0	0	0	0	0	0	0	0	0	0	0	0	0	0	0	0	0	0	1	0	0	0	1	0	0	0	0	0	0	0	0	0	0	0	0
OTU 56	11	0	6	3	0	0	0	0	0	0	0	1	1	0	0	0	1	0	0	0	1	0	1	0	6	0	3	3	12	0	1	0	0	0	1	0	1	0	0	0	0	0	0	0	0	1	0	0	0	0
OTU 57	66	1	0	0	1	10	0	1	1	1	1	4	5	27	1	1	0	3	2	1	1	65	1	0	11	0	1	1	1	1	111	1	1	8	4	2	18	0	0	0	5	0	0	11	29	36	7	1	0	1
OTU 58	0	0	0	0	0	0	0	0	0	0	3	1	0	1	1	0	0	2	0	2	0	0	0	0	0	7	3	1	0	0	1	4	0	0	2	1	1	2	0	0	0	3	0	0	1	1	0	3	0	1
OTU 59	0	2	1	9	0	0	2	2	0	0	0	0	0	3	0	0	0	14	0	24	1	1	10	5	0	30	16	8	0	1	0	1	0	0	0	0	0	0	1	0	37	4	0	0	0	1	0	7	9	5
OTU 60	1	0	0	0	1	2	1	0	0	0	2	5	2	6	1	1	1	4	0	0	0	3	0	2	0	3	3	1	0	5	1	3	0	0	3	0	1	3	0	0	6	1	0	2	1	0	1	122	1	2
OTU 61	1	4	8	0	0	8	3	2	1	1	1	1	0	3	3	0	3	1	1	11	4	1	0	1	0	1	0	1	1	0	0	5	1	8	5	1	0	1	2	1	1	4	3	1	2	6	0	0	0	1
OTU 62	2	0	0	0	1	0	0	0	0	0	0	1	0	0	0	0	0	1	0	0	0	0	0	0	1	0	0	0	0	2	5	0	0	0	0	0	0	0	0	3	0	0	0	0	2	0	0	0	0	51
OTU 63	1	0	3	0	0	0	0	0	0	0	1	1	0	0	0	0	0	1	0	0	0	5	0	0	0	0	1	0	0	0	0	0	0	5	3	0	0	0	0	0	0	0	0	2	2	0	0	0	7	0
OTU 64	0	5	6	0	1	4	1	3	0	1	9	0	0	0	6	2	0	1	0	3	6	2	2	2	6	1	3	5	1	0	1	4	0	1	0	3	0	2	0	5	3	4	5	1	0	3	7	0	5	1
OTU 65	0	0	0	0	0	0	0	0	0	0	0	0	0	0	0	0	0	0	0	0	0	0	0	0	0	0	0	0	0	0	0	0	0	0	0	0	0	0	0	0	0	0	0	0	0	0	0	0	0	0
OTU 66	3	1	0	0	0	0	2	1	2	0	0	4	0	3	1	0	0	0	7	4	3	4	0	0	0	2	0	0	0	1	1	0	0	0	1	0	0	0	0	1	0	0	0	0	0	0	0	4	2	1
OTU 67	0	1	1	0	1	1	1	1	1	0	1	0	0	23	1	0	0	0	0	3	3	1	5	0	1	0	0	0	0	4	0	1	0	1	1	1	0	1	0	0	0	0	0	0	0	0	2	0	9	0
OTU 68	0	2	0	2	4	0	0	0	0	0	0	0	0	0	0	0	0	0	0	1	0	0	0	0	0	0	2	0	2	0	2	0	0	0	0	0	0	0	0	0	0	0	1	2	0	1	0	0	0	0
OTU 69	1	1	0	0	0	0	2	0	0	1	0	0	0	1	5	0	0	0	5	1	0	2	0	0	0	0	0	1	0	0	4	0	2	0	2	0	1	23	0	2	5	2	1	5	0	0	0	0	2	0
OTU 70	5	0	0	0	0	0	1	0	3	0	0	0	0	3	0	0	0	0	0	0	1	0	0	0	6	1	0	0	0	0	0	0	0	0	0	0	0	0	0	1	2	5	0	0	0	0	0	0	0	0
OTU 71	0	0	0	1	0	0	0	0	0	0	0	0	5	0	0	0	0	0	1	0	0	0	17	10	0	0	0	2	1	0	2	1	0	1	0	0	0	0	0	0	0	4	1	1	1	0	1	0	2	2
OTU 72	0	0	0	0	0	0	0	1	0	1	2	0	3	0	0	3	1	0	0	1	1	0	0	0	5	1	1	0	0	0	0	0	0	0	2	0	0	0	0	0	4	0	1	1	4	0	0	0	0	0
OTU 73	0	6	3	0	2	0	0	0	0	0	0	4	0	2	1	0	0	0	0	0	6	0	2	0	0	0	0	0	0	5	0	0	0	0	1	0	0	0	3	1	2	0	3	0	0	1	1	1	2	0
OTU 74	1	3	0	1	0	0	2	0	0	0	0	0	1	5	1	48	1	2	0	0	0	0	1	1	1	5	3	0	0	3	0	0	0	0	0	0	3	1	0	0	4	0	1	0	3	0	0	0	0	0
OTU 75	0	2	4	0	0	1	1	0	4	1	0	0	0	2	0	0	0	0	1	0	3	1	0	0	1	1	0	0	0	2	1	17	1	0	1	0	2	8	0	5	1	2	0	0	0	1	0	2	1	0
OTU 76	0	1	0	0	0	0	0	0	1	0	0	0	0	0	0	0	0	0	15	0	0	0	0	0	0	0	1	0	8	0	0	0	7	0	3	0	0	0	0	0	0	0	0	0	0	0	0	3	0	0
OTU 77	0	1	5	2	0	1	3	0	3	0	1	2	1	0	2	0	1	0	3	0	9	0	2	0	0	0	0	2	0	1	1	0	3	1	0	0	0	0	1	0	2	0	1	0	0	0	0	0	0	29
OTU 78	0	0	4	1	39	7	1	1	1	0	0	2	94	0	7	0	1	1	1	0	2	1	0	99	0	0	1	0	0	0	6	3	1	1	13	0	1	2	0	2	0	1	0	3	0	3	0	6	2	0
OTU 79	8	4	0	6	2	3	0	1	4	2	4	2	26	1	5	3	1	2	3	2	4	4	2	66	6	4	0	5	3	1	3	2	21	3	15	1	5	0	6	1	3	3	0	4	3	4	3	4	2	1
OTU 80	3	3	0	0	96	0	1	0	0	0	1	2	5	1	0	0	1	6	1	4	0	0	0	5	1	6	0	0	1	2	0	0	0	8	0	6	2	0	0	0	0	1	0	0	0	2	0	0	0	0
OTU 81	0	0	0	2	1	5	0	2	0	1	5	10	7	64	6	2	4	2	1	1	0	0	0	0	61	5	2	8	0	3	3	5	0	1	2	2	1	2	0	3	5	1	0	2	7	0	0	3	0	1
OTU 82	0	3	1	1	0	2	0	0	1	0	1	0	0	4	48	1	1	0	1	5	0	2	0	0	0	1	1	1	1	5	0	2	0	0	1	0	1	1	4	8	0	0	3	0	2	85	30	1	3	2
OTU 83	1	1	0	0	0	0	0	0	0	2	0	0	0	1	0	0	0	0	0	0	1	0	0	0	0	1	2	1	0	0	1	0	0	2	0	0	0	0	0	3	0	0	0	0	0	0	0	0	0	1
OTU 84	0	3	0	0	0	0	0	0	0	0	0	0	0	0	62	0	0	0	0	0	2	1	0	0	1	0	0	0	1	2	2	0	0	10	0	2	1	1	0	0	1	3	0	0	1	0	49	0	0	0
OTU 85	0	3	2	0	0	0	0	0	0	0	0	0	0	0	1	0	1	0	0	0	0	0	3	1	1	0	0	0	1	3	2	0	0	5	0	0	1	1	0	0	0	0	0	0	0	1	0	0	0	0
OTU 86	0	0	0	0	0	0	0	0	0	0	0	0	0	0	0	0	0	0	0	0	0	0	0	0	0	0	0	0	0	0	0	0	0	0	0	0	0	0	0	2	0	1	0	0	0	0	0	0	0	0
OTU 87	0	0	25	2	0	0	0	0	0	0	2	0	0	0	0	2	0	0	0	0	0	0	0	0	0	0	0	0	0	0	0	0	0	0	1	0	0	0	0	2	1	0	0	0	0	0	0	0	0	0
OTU 88	0	0	0	1	1	1	0	0	0	0	0	0	3	0	0	0	0	0	0	0	0	0	1	1	1	0	0	0	0	0	0	0	0	2	0	0	0	0	0	0	0	0	0	0	0	0	0	0	0	0
OTU 89	0	0	3	0	0	0	0	0	0	0	0	3	0	1	0	0	0	0	0	0	0	2	0	0	0	0	0	0	0	0	1	0	0	0	2	0	0	0	0	0	0	0	0	4	2	0	0	0	0	0
OTU 90	0	0	0	1	3	0	0	0	4	0	0	0	0	0	0	0	0	0	1	0	2	0	0	1	3	0	0	0	0	0	0	0	2	0	0	0	0	0	0	0	0	0	0	0	0	0	0	0	0	0
OTU 91	0	0	0	0	0	0	1	0	0	0	0	0	0	0	0	0	0	0	0	0	0	0	0	0	0	0	0	0	0	0	0	1	0	0	0	0	0	0	0	0	0	0	0	0	0	0	0	0	0	0
OTU 92	0	2	0	0	0	0	0	0	0	0	0	0	4	0	1	0	0	0	1	0	3	0	5	3	0	0	0	0	0	0	0	2	0	0	0	0	0	2	0	0	0	0	0	0	0	0	0	0	2	0
OTU 93	0	0	0	4	0	0	1	0	0	0	0	0	1	0	0	0	0	0	0	2	0	0	13	3	0	0	0	0	0	0	0	0	0	0	0	0	0	0	0	2	0	0	0	0	0	0	0	1	0	1
OTU 94	5	2	0	0	0	5	5	0	7	7	6	6	0	0	2	0	2	22	9	0	1	1	0	0	0	1	0	0	4	0	14	0	3	4	1	3	0	0	1	9	0	3	1	1	0	0	1	4	2	0
OTU 95	1	0	0	0	0	0	0	0	0	0	0	3	0	0	0	0	0	0	3	0	0	0	0	0	0	0	0	0	0	0	0	0	0	0	0	0	0	0	0	0	3	0	0	0	0	0	0	0	0	0
OTU 96	0	0	0	0	0	1	3	0	0	0	0	0	0	0	0	0	0	0	0	0	0	0	0	0	0	0	0	0	0	0	0	0	0	0	0	0	0	0	0	0	0	0	0	0	0	0	0	0	1	0
OTU 97	0	0	0	0	2	4	10	3	5	1	7	14	1	1	0	0	7	7	0	6	0	3	1	0	0	4	3	0	0	0	2	5	4	0	0	1	0	0	2	4	2	0	0	0	0	0	1	4	0	0
OTU 98	0	0	0	0	0	0	0	0	0	1	2	0	1	0	0	0	1	0	0	0	3	4	1	0	0	0	0	0	0	0	0	0	0	0	6	1	0	0	4	0	2	0	0	0	0	0	0	0	1	1
OTU 99	1	6	5	1	0	0	3	2	2	3	2	0	2	5	5	0	0	0	3	0	0	0	2	0	0	1	7	0	1	1	0	0	1	0	5	3	0	5	0	1	0	1	1	2	0	3	1	0	2	2
OTU 100	2	1	0	0	0	1	0	6	0	0	1	0	0	0	1	0	0	0	2	0	0	1	3	2	0	1	0	0	3	2	1	1	0	0	1	0	1	0	0	0	1	4	3	1	1	1	1	0	0	0
OTU 101	0	0	0	0	0	0	0	3	0	0	0	0	0	0	0	0	0	1	0	0	0	0	0	0	0	0	0	0	0	0	0	0	0	0	0	0	0	0	0	0	0	0	0	0	0	0	0	0	0	0
OTU 102	0	1	0	0	0	0	0	0	0	0	1	0	0	1	0	0	0	0	0	0	0	6	1	0	0	0	2	0	0	4	0	0	0	0	0	0	0	0	0	1	0	0	0	0	0	0	1	0	0	0
OTU 103	0	3	0	0	0	0	0	0	0	0	2	1	4	2	6	0	0	0	0	0	0	0	7	2	0	0	3	2	0	0	0	0	0	0	0	0	4	0	3	0	0	2	3	1	1	1	2	0	0	0
OTU 104	3	0	0	1	0	0	1	2	0	3	2	0	0	0	0	6	3	0	2	3	0	2	4	2	1	1	1	8	0	0	0	0	3	0	4	1	2	0	0	1	0	5	1	3	0	0	0	0	0	3
OTU 105	0	0	1	0	0	0	0	0	0	0	0	0	0	2	0	0	0	0	0	0	0	0	0	0	0	0	0	6	0	3	0	0	0	0	0	0	0	0	0	1	0	0	0	0	0	0	0	1	0	0
OTU 106	0	1	0	6	0	0	0	0	4	0	0	0	0	1	0	0	0	0	0	0	1	0	0	0	0	0	0	0	0	2	0	0	0	0	0	0	0	1	0	0	0	0	4	0	0	0	0	1	1	0
OTU 107	0	0	0	0	2	2	35	3	0	61	0	0	0	0	0	0	0	0	0	93	1	0	1	0	0	0	0	0	0	1	3	2	0	0	0	0	0	0	24	1	0	0	0	0	0	1	2	0	1	5
OTU 108	2	1	4	5	1	2	0	0	1	4	0	0	0	0	0	2	0	0	3	0	0	1	0	0	0	0	91	0	1	0	4	0	0	0	2	2	22	0	0	3	0	1	0	0	0	1	0	1	0	0
OTU 109	0	0	0	0	0	0	0	0	0	0	0	0	0	0	0	0	0	0	0	0	0	0	0	0	0	0	0	0	0	0	0	0	0	0	0	0	0	0	0	0	0	0	0	0	0	0	0	0	0	0
OTU 110	1	8	2	2	1	2	0	0	0	1	3	4	0	0	0	1	1	0	0	2	0	0	0	0	0	0	0	2	0	87	2	3	0	0	0	0	0	2	0	2	6	1	2	1	1	1	0	0	0	0
OTU 111	0	0	2	0	0	0	0	0	0	0	0	0	0	0	0	0	0	0	0	0	0	0	0	0	0	0	0	1	0	1	0	0	0	0	0	0	0	0	0	0	0	0	0	0	0	0	0	0	0	0
OTU 112	0	1	0	1	1	0	0	0	0	0	0	0	0	1	1	0	0	1	1	0	0	0	1	0	1	0	0	0	0	8	0	0	4	2	1	0	0	0	1	2	1	1	0	0	0	0	0	0	3	1
OTU 113	0	0	0	1	0	0	1	0	0	0	0	1	0	0	0	0	0	0	0	0	0	0	0	0	0	0	0	0	0	0	0	0	0	0	0	0	0	0	0	0	0	0	0	0	0	0	0	0	0	0
OTU 114	2	2	0	1	0	2	4	0	102	3	5	1	2	0	2	2	0	0	0	0	59	3	2	0	1	0	0	6	0	0	3	1	1	0	7	4	1	2	3	10	0	0	0	0	5	0	5	2	1	0
OTU 115	0	2	0	4	1	7	0	3	1	6	0	3	0	4	3	4	1	142	4	2	15	1	0	1	0	2	1	3	0	0	2	6	4	0	0	0	7	0	4	4	1	0	0	3	0	1	94	0	0	5
OTU 116	5	31	1	17	12	17	0	1	11	19	3	2	4	1	0	14	0	0	6	0	0	1	2	0	0	1	0	3	3	0	9	0	7	2	8	10	26	1	2	21	0	0	15	1	2	1	1	7	0	1
OTU 117	0	2	1	0	1	9	0	0	0	0	0	1	1	7	0	0	0	2	0	0	1	0	0	0	2	1	0	1	0	0	1	0	0	1	2	0	0	0	0	5	3	3	0	1	0	5	0	1	0	0
OTU 118	0	0	0	0	0	0	0	0	0	0	0	0	1	0	0	0	0	0	0	0	0	1	0	0	0	0	0	0	0	0	0	0	0	0	0	0	0	0	0	0	0	6	0	0	0	0	0	0	2	0
OTU 119	2	6	1	2	0	1	1	0	2	21	1	0	4	0	0	1	0	1	2	0	2	0	1	0	1	0	0	0	2	1	0	2	1	9	0	0	0	1	3	0	2	0	3	0	0	2	0	0	1	0
OTU 120	0	15	0	0	0	0	0	0	0	0	0	1	0	1	0	1	0	1	0	0	3	0	0	0	1	2	1	0	0	4	1	0	0	1	0	1	0	0	0	0	0	0	5	0	0	0	0	1	0	0
OTU 121	0	2	1	1	1	0	3	0	1	3	5	0	0	2	2	1	1	1	0	2	0	0	0	0	0	1	0	0	0	0	0	0	0	1	3	0	0	1	0	6	0	0	0	0	0	0	0	7	0	0
OTU 122	0	0	0	0	0	0	2	0	0	0	0	0	4	0	1	1	0	0	0	4	0	0	0	0	0	0	0	0	0	17	2	3	0	0	0	0	0	2	0	0	0	3	1	1	0	0	0	0	1	0
OTU 123	3	69	3	23	10	6	3	5	8	2	58	21	8	8	11	48	5	7	14	4	3	8	1	0	8	5	12	13	3	6	9	10	4	3	10	2	2	4	0	5	1	4	46	0	105	8	24	4	2	4
OTU 124	0	0	0	0	57	0	0	0	0	0	0	0	0	0	0	0	0	0	0	0	2	0	0	0	0	0	0	0	1	0	0	0	0	0	0	0	1	0	2	0	0	0	1	0	0	0	0	0	0	0
OTU 125	8	2	3	119	43	8	3	1	1	3	1	10	7	14	3	5	0	3	11	2	5	0	2	2	11	10	1	6	6	21	0	2	13	1	2	1	2	2	86	7	5	2	0	3	0	11	2	2	1	3
OTU 126	0	1	0	0	0	0	0	1	0	0	0	0	0	0	0	0	0	0	0	0	0	0	0	0	0	0	0	0	0	1	0	0	0	0	0	0	0	0	0	0	0	0	1	0	0	2	0	0	0	0
OTU 127	1	0	0	1	0	1	2	1	0	0	0	0	0	0	0	5	1	0	0	0	4	4	0	0	0	1	0	0	0	1	2	0	0	2	0	1	0	2	0	0	0	0	0	0	1	0	0	0	0	0
OTU 128	3	11	1	10	3	0	3	1	11	9	15	0	3	1	4	1	0	9	1	6	3	0	3	5	0	7	5	5	41	0	19	15	9	4	2	5	29	0	2	6	2	6	3	0	0	7	0	36	0	1
OTU 129	0	0	0	1	1	0	0	2	0	0	0	0	0	0	0	5	0	0	0	0	0	0	0	0	0	0	0	0	0	0	0	0	0	3	0	0	0	0	0	1	0	1	0	0	0	0	0	0	0	0
OTU 130	0	1	0	0	0	2	2	0	0	1	0	0	2	0	0	0	3	15	0	3	2	2	0	0	0	39	17	1	0	0	1	1	3	0	0	0	1	1	0	0	2	2	0	0	0	0	0	2	0	26
OTU 131	0	0	0	0	2	0	1	0	0	0	2	0	1	0	1	0	0	0	1	0	0	1	3	4	0	1	0	1	0	0	0	0	0	1	1	3	0	1	2	0	1	0	0	0	0	22	0	0	1	0
OTU 132	1	0	0	0	0	0	2	161	1	1	0	0	1	0	0	0	0	0	0	0	0	0	0	0	0	0	0	0	0	0	1	0	0	0	136	46	1	0	0	0	0	1	0	0	0	1	0	0	0	0
OTU 133	0	0	0	0	0	0	0	1	0	0	0	2	1	0	0	0	0	0	0	0	0	0	0	0	0	0	0	0	0	0	0	0	0	2	0	0	0	0	0	0	0	4	0	0	0	0	0	0	2	0
OTU 134	1	0	1	0	0	3	0	0	3	0	0	4	6	0	0	3	1	0	4	0	1	7	1	0	1	3	0	0	2	1	1	1	0	0	0	15	0	0	0	1	0	0	0	0	0	0	0	1	0	0
OTU 135	0	0	0	1	2	0	0	0	1	0	1	2	1	0	1	0	0	0	0	6	5	3	1	1	0	0	0	3	0	0	2	0	0	1	0	0	1	0	0	1	1	0	0	0	5	0	0	0	2	0
OTU 136	0	0	2	0	1	0	0	2	0	0	0	1	2	0	0	0	0	0	0	0	3	1	0	0	0	2	0	0	0	0	0	0	1	4	1	1	1	0	0	0	4	0	0	0	2	0	0	0	3	0
OTU 137	1	0	2	0	0	0	0	0	1	0	0	0	0	0	0	0	0	0	0	0	0	0	0	0	0	1	1	0	0	16	0	0	0	0	0	0	1	0	1	0	0	0	0	0	13	0	0	0	0	0
OTU 138	4	1	0	0	0	0	0	0	0	0	0	0	0	0	0	0	0	1	2	1	0	0	0	0	1	0	0	0	0	0	0	0	0	0	0	0	0	0	1	0	0	2	1	0	0	0	0	0	0	0
OTU 139	1	8	1	1	1	0	3	0	2	3	1	0	1	2	2	0	0	5	0	3	9	1	6	2	2	2	1	0	0	0	3	5	0	34	1	1	1	0	10	0	4	0	4	0	0	7	0	0	50	0
OTU 140	25	0	0	2	0	4	1	2	17	21	37	2	9	4	5	0	1	1	77	4	1	2	3	0	0	2	2	1	23	1	34	2	50	0	3	5	1	3	2	45	0	0	1	4	3	0	3	21	2	1
OTU 141	0	0	0	0	1	0	0	0	0	0	0	0	3	0	0	0	0	0	0	0	0	0	0	0	18	0	0	0	0	0	0	0	0	0	0	0	0	0	0	0	0	0	0	0	0	0	0	0	0	0
OTU 142	0	0	0	0	0	0	0	0	0	0	0	0	0	0	0	0	0	0	0	0	0	0	0	0	0	0	0	0	0	0	0	0	0	0	0	0	0	0	0	0	0	0	0	0	0	0	0	0	0	0
OTU 143	0	0	0	0	0	0	1	0	0	0	0	0	0	0	0	0	0	0	9	0	0	0	0	0	0	0	0	0	4	2	0	0	5	0	0	0	0	0	0	2	0	1	0	0	0	0	0	0	0	0
OTU 144	0	4	0	0	0	0	0	0	0	0	0	0	0	0	0	0	1	0	0	0	0	1	1	0	0	0	0	0	0	0	0	0	0	0	0	0	0	0	0	0	0	0	0	0	0	0	0	0	0	0
OTU 145	3	0	0	1	0	6	2	4	9	0	2	0	1	1	4	5	5	0	0	0	2	2	0	0	3	0	0	0	0	0	1	0	0	1	0	0	1	0	0	2	3	4	1	3	2	37	0	0	0	1
OTU 146	1	3	0	1	1	2	1	1	0	0	87	1	7	3	0	1	2	1	1	0	0	2	2	0	0	0	0	0	0	2	1	1	0	3	0	0	3	0	1	0	3	0	1	2	2	1	1	2	0	0
OTU 147	0	4	0	1	2	0	0	0	0	0	0	0	0	1	2	0	1	1	0	2	0	0	0	0	1	0	2	0	0	1	0	0	0	6	0	0	10	0	0	0	0	0	0	0	0	0	0	0	0	0
OTU 148	2	0	0	0	0	0	0	0	0	1	0	0	1	2	0	0	0	1	0	0	0	0	5	1	1	4	4	0	0	0	7	0	0	5	2	0	0	152	0	3	0	0	0	0	0	1	0	0	2	0
OTU 149	0	0	0	0	0	4	0	0	0	0	0	0	0	0	0	0	0	2	0	0	4	0	0	0	0	0	0	0	0	1	0	0	0	0	1	0	0	0	0	0	1	0	0	0	0	0	0	1	0	0
OTU 150	0	0	0	0	0	4	1	1	0	0	0	0	0	0	0	0	0	0	0	0	0	0	0	0	0	0	0	0	0	1	0	0	0	1	0	0	6	0	4	0	0	0	0	0	0	0	0	0	0	2
OTU 151	0	2	0	0	0	0	0	0	0	0	0	0	0	0	0	4	0	4	0	0	0	0	0	0	0	6	0	2	0	2	0	0	0	1	0	0	76	2	0	0	0	1	0	0	0	1	0	0	2	0
OTU 152	1	7	0	0	2	0	1	2	1	0	0	3	0	4	0	1	0	0	0	1	6	1	7	1	0	0	0	0	0	0	0	1	0	0	0	0	9	0	0	1	0	0	3	0	2	5	2	2	1	0
OTU 153	0	0	0	0	0	0	0	0	0	0	0	0	1	0	0	0	0	0	0	0	0	0	0	0	0	1	0	0	0	0	0	0	0	0	1	0	0	0	0	0	0	0	0	0	0	0	0	0	0	0
OTU 154	0	0	0	0	0	1	0	0	0	0	0	0	0	0	0	0	0	0	0	0	1	0	0	0	0	0	0	0	0	0	0	0	0	0	0	0	0	0	0	2	2	0	0	0	0	0	0	0	1	0
OTU 155	1	0	0	1	1	0	0	0	1	2	2	6	0	0	0	0	0	0	0	0	0	1	6	2	0	0	0	0	0	0	0	2	0	2	1	1	0	1	0	4	1	2	1	0	0	0	0	0	3	0
OTU 156	10	8	7	4	3	2	5	7	9	12	13	30	0	6	8	6	16	8	8	21	2	9	11	6	1	22	6	4	3	7	7	6	1	0	0	2	20	4	3	32	8	8	1	0	3	0	5	6	6	6
OTU 157	0	0	0	0	0	0	0	31	0	1	0	2	1	0	0	1	4	0	0	0	1	0	38	16	2	0	0	32	0	0	1	0	0	2	2	0	0	0	2	0	0	12	0	1	0	0	0	0	23	24
OTU 158	0	0	0	0	0	0	0	0	0	0	0	0	0	0	0	0	0	0	0	0	0	0	1	0	0	0	0	1	0	0	0	0	0	1	0	0	0	0	0	0	0	0	0	0	0	0	0	0	0	0
OTU 159	1	18	0	2	0	3	0	0	0	0	1	0	0	1	0	3	1	0	4	2	0	4	2	1	0	0	0	1	0	4	0	4	0	0	5	0	0	1	0	4	2	0	4	3	0	2	2	5	0	1
OTU 160	5	2	2	0	2	1	168	2	5	0	2	1	3	2	1	3	0	19	1	1	0	1	16	14	0	57	13	18	125	2	12	1	0	9	2	15	1	2	63	1	3	0	2	29	1	3	4	1	14	6
OTU 161	0	0	1	0	1	0	1	0	0	1	0	0	0	1	3	1	0	0	0	0	0	2	0	0	1	0	0	0	0	2	0	6	0	0	0	0	4	1	0	1	0	0	0	0	1	1	0	0	0	0
OTU 162	0	1	0	0	0	1	1	1	1	0	0	1	5	1	0	0	14	1	1	2	0	1	90	47	1	1	1	4	2	0	0	0	1	0	0	0	0	0	2	1	4	0	0	35	5	1	0	0	3	2
OTU 163	0	0	0	0	0	1	0	0	0	0	0	0	0	0	6	0	0	0	0	0	0	0	0	0	0	0	0	0	0	0	0	0	0	0	0	0	0	0	0	0	0	0	0	0	0	0	0	0	0	0
OTU 164	0	2	0	0	0	0	0	0	0	0	0	0	0	0	0	0	0	0	0	0	0	0	0	0	0	0	0	0	0	0	0	0	0	0	0	0	0	0	0	0	0	0	0	0	0	0	1	0	0	0
OTU 165	0	0	0	0	0	3	0	0	0	0	0	0	0	0	0	0	3	1	0	2	1	0	0	0	0	0	0	3	0	0	0	0	97	0	0	0	0	0	1	0	4	0	0	0	0	0	0	0	0	1
OTU 166	0	0	0	0	0	0	0	0	0	0	0	0	0	0	0	0	0	0	0	0	0	0	0	0	0	0	0	0	0	0	0	0	0	0	0	0	0	0	0	0	0	0	0	0	0	0	0	0	0	0
OTU 167	0	0	6	0	1	5	1	2	3	0	0	0	2	0	0	0	1	0	0	10	1	1	0	0	0	0	0	0	0	0	0	5	0	0	0	0	0	1	0	0	9	0	0	0	0	0	0	1	0	1
OTU 168	0	1	10	0	0	0	0	5	2	0	1	0	2	0	6	7	2	0	0	0	5	0	1	0	0	1	0	0	0	2	0	6	0	2	0	0	0	2	1	0	0	0	0	0	0	0	0	0	0	0
OTU 169	0	0	0	0	0	0	0	0	0	0	0	0	0	0	0	0	0	0	0	0	0	0	0	0	0	0	0	0	0	0	0	0	0	0	0	0	0	0	0	0	0	0	0	0	0	0	0	0	0	0
OTU 170	0	0	0	0	0	0	0	0	0	0	0	0	0	0	0	0	0	0	0	0	0	0	0	0	0	0	0	0	0	0	0	0	0	0	0	0	0	0	0	0	0	0	0	0	0	0	0	0	4	0
OTU 171	2	5	0	1	1	1	1	0	0	0	0	2	7	1	1	1	0	0	1	0	0	0	0	0	0	0	0	0	0	1	0	0	0	5	1	4	0	0	0	8	3	3	1	0	0	0	0	0	0	0
OTU 172	0	0	0	1	0	0	0	0	0	0	0	0	1	0	1	1	4	0	0	0	0	0	0	0	0	0	0	0	0	0	0	0	0	0	0	0	0	0	0	0	0	2	0	0	0	0	0	0	0	0
OTU 173	1	0	1	4	1	2	0	0	0	0	1	0	0	2	0	0	0	0	3	1	0	0	0	0	0	0	0	0	0	0	0	0	0	0	0	0	0	0	1	3	0	4	0	0	0	0	0	1	0	0
OTU 174	1	0	0	0	1	0	0	0	3	0	0	0	0	0	0	1	1	0	0	0	0	0	0	0	0	1	3	0	0	2	0	0	0	1	0	0	0	0	1	0	0	0	1	0	0	1	0	0	0	0
OTU 175	0	0	0	0	0	4	0	0	0	0	0	0	0	13	0	0	0	0	1	0	3	30	0	1	10	0	4	0	0	0	1	0	0	0	1	0	1	18	0	1	0	0	0	1	15	1	0	3	0	2
OTU 176	4	3	1	2	0	1	3	1	1	0	1	1	3	4	3	0	2	4	3	2	0	1	0	0	1	1	1	0	3	0	0	1	1	0	0	0	0	1	1	4	13	8	0	0	0	0	0	0	5	2
OTU 177	0	0	0	0	0	0	1	0	0	3	3	0	0	0	1	0	1	14	0	0	1	0	1	0	1	20	4	4	0	0	2	3	0	0	0	0	8	0	0	0	0	1	0	16	1	0	1	0	1	0
OTU 178	0	0	1	0	0	1	0	1	0	0	4	0	0	0	0	1	93	0	0	0	1	0	1	0	0	0	0	4	0	0	0	3	0	0	0	1	0	0	0	2	2	0	0	0	2	3	0	2	0	3
OTU 179	0	2	0	0	0	0	0	2	2	2	0	0	0	0	2	0	1	0	0	0	0	0	1	0	0	0	0	1	41	3	0	0	0	0	0	0	1	0	0	0	0	3	1	0	0	3	0	2	0	83
OTU 180	1	6	3	0	2	2	5	2	4	2	4	32	3	7	8	1	29	3	1	7	78	23	3	0	6	0	1	1	0	8	2	19	1	1	15	0	0	15	89	1	0	5	0	5	20	9	11	1	1	2
OTU 181	1	0	0	0	0	1	0	5	0	0	0	1	0	0	0	0	0	4	1	4	0	0	6	0	0	13	10	8	1	0	1	0	0	0	2	0	0	1	0	0	1	3	0	5	0	0	0	2	16	7
OTU 182	0	0	0	0	0	0	2	0	0	0	0	0	0	4	0	0	0	0	0	11	0	0	0	0	0	0	0	0	0	0	0	0	0	0	0	0	0	0	0	0	0	0	0	0	0	0	0	1	0	0
OTU 183	0	0	4	0	0	0	0	1	0	0	0	0	0	2	2	4	3	0	1	0	4	0	0	0	0	1	0	0	2	0	1	1	0	4	0	0	0	0	1	1	0	4	17	1	0	0	0	0	2	0
OTU 184	0	4	0	0	2	0	0	0	0	0	0	2	0	0	0	0	0	0	0	0	3	0	0	0	0	0	0	0	0	0	0	0	0	1	0	0	0	0	0	1	0	0	0	0	0	0	0	1	0	0
OTU 185	0	1	1	1	0	0	13	1	0	0	4	4	1	2	0	0	2	3	0	24	0	0	2	4	1	0	0	0	0	1	1	0	1	0	0	1	8	1	11	1	0	2	71	0	0	10	3	0	0	0
OTU 186	25	0	0	0	0	0	0	0	12	0	0	0	8	0	0	0	0	0	3	0	1	0	0	0	0	0	0	0	1	0	1	0	0	0	0	3	0	0	0	0	0	0	1	0	0	0	1	0	0	0
OTU 187	4	4	0	6	3	5	0	0	4	0	2	0	9	0	0	3	3	7	1	2	2	1	0	0	0	0	1	2	0	0	1	3	5	1	0	0	10	1	0	4	3	6	1	3	2	0	2	1	1	0
OTU 188	3	0	132	46	23	1	1	1	1	4	1	0	2	1	11	0	0	1	1	0	0	18	2	5	0	0	0	2	1	2	0	0	0	1	4	114	2	0	0	2	0	0	0	2	1	1	12	36	5	1
OTU 189	5	14	3	0	1	6	1	1	1	91	2	7	1	4	1	5	2	0	8	1	39	0	0	1	3	2	0	0	8	0	1	0	3	4	0	1	0	2	0	1	0	0	5	0	2	2	1	0	1	0
OTU 190	0	0	1	0	1	0	0	0	0	2	0	0	0	0	0	0	1	0	0	0	0	0	0	0	0	0	0	0	0	0	0	0	0	0	0	0	0	1	0	0	0	0	0	0	0	0	1	0	0	0
OTU 191	16	2	1	0	1	1	0	4	2	0	0	1	0	7	0	0	1	0	0	1	0	29	6	9	7	0	0	7	0	0	2	2	1	1	1	0	1	0	0	0	79	2	0	1	23	2	0	0	14	4
OTU 192	5	3	4	0	0	0	1	0	1	2	2	0	1	0	4	0	1	0	0	0	0	0	0	1	0	0	0	2	0	0	1	1	0	0	38	0	9	0	3	0	1	0	0	0	0	1	1	2	36	1
OTU 193	1	1	3	0	1	2	2	0	0	0	0	3	1	2	0	1	2	0	0	5	0	0	1	0	0	0	59	1	1	4	3	2	0	2	1	1	0	0	1	0	2	0	0	0	1	4	14	0	0	0
OTU 194	1	1	0	2	0	0	1	0	0	1	0	4	0	0	1	0	0	0	0	3	0	0	0	1	0	0	0	0	0	0	1	3	0	0	0	0	0	3	1	0	0	0	0	0	0	0	0	0	0	0
OTU 195	1	0	0	0	0	3	1	0	0	0	1	1	0	0	0	0	3	1	3	4	2	1	2	4	0	1	0	0	7	6	0	1	3	0	4	0	1	0	0	0	0	0	0	0	0	0	0	0	0	0
OTU 196	2	6	1	0	0	1	0	0	0	0	0	1	0	0	0	0	1	1	1	0	2	1	0	0	0	2	1	0	2	2	1	0	1	3	0	2	0	1	0	0	0	0	0	0	2	2	0	0	0	0
OTU 197	0	7	48	0	1	0	1	7	5	7	2	1	3	3	2	5	1	4	18	1	3	1	2	0	5	5	1	2	7	1	1	23	8	4	1	2	2	9	5	0	0	4	4	10	5	1	0	0	1	0
OTU 198	0	0	0	0	0	0	0	0	0	1	0	0	0	0	0	0	0	0	0	2	0	0	0	0	0	1	0	0	0	0	1	0	0	0	0	0	0	0	0	0	0	0	0	4	0	0	0	0	0	0
OTU 199	0	1	1	0	0	0	1	0	0	0	0	1	4	1	0	0	1	0	0	0	0	0	0	0	0	0	0	0	0	0	0	0	0	0	0	0	0	0	2	1	0	0	2	0	1	0	1	0	0	0
OTU 200	0	0	2	0	0	0	4	3	3	0	4	0	5	1	1	0	0	9	1	12	0	0	5	1	0	16	6	9	0	0	0	0	0	7	2	0	5	0	0	0	8	3	0	135	22	4	1	0	8	2
