	Host 1	Host 2	Host 3	Host 4	Host 5	Host 6	Host 7	Host 8	Host 9	Host 10	Host 11	Host 12	Host 13	Host 14	Host 15	Host 16	Host 17	Host 18	Host 19	Host 20	Host 21	Host 22	Host 23	Host 24	Host 25	Host 26	Host 27	Host 28	Host 29	Host 30	Host 31	Host 32	Host 33	Host 34	Host 35	Host 36	Host 37	Host 38	Host 39	Host 40	Host 41	Host 42	Host 43	Host 44	Host 45	Host 46	Host 47	Host 48	Host 49	Host 50	
OTU 1	4	7	18	7	3	4	8	10	2	37	9	21	4	84	26	13	2	65	26	0	24	39	8	90	0	3	2	106	85	46	0	103	38	114	20	15	1	8	9	5	192	64	35	64	0	62	35	21	58	12
OTU 2	89	0	10	917	9	0	2	2	6	5	26	0	3	0	0	19	0	10	0	0	0	16	0	19	19	10	143	1157	68	0	2	3	3	22	13	2	2	0	29	11	0	30	59	107	153	1	1	12	1	7
OTU 3	0	0	1	2	1	5	6	0	10	0	3	0	13	0	2	0	0	2	10	24	0	0	3	0	0	0	0	0	15	0	0	1	1	4	4	0	1	0	4	1	0	22	0	9	49	1	86	7	24	1
OTU 4	0	0	0	0	0	0	0	1	10	0	0	0	0	0	0	0	0	0	0	0	0	0	0	0	1	0	0	0	0	0	0	0	0	0	0	0	0	0	0	0	0	0	0	0	0	0	0	0	0	0
OTU 5	63	1	113	1005	64	0	170	235	947	30	421	0	889	217	4	194	1265	190	123	32	644	1745	125	714	3	247	0	451	18	81	198	96	87	58	422	379	759	922	535	161	86	546	76	9	0	62	195	1	125	29
OTU 6	13	88	0	4	17	15	5	0	9	1	1062	89	28	121	81	1	13	10	32	19	69	29	93	135	21	25	6	78	52	2	2	15	25	1	16	97	5	3	1799	7	10	2	0	58	27	49	11	0	62	5
OTU 7	145	160	85	1	162	20	244	46	102	135	87	2	143	199	23	4	75	48	67	87	49	44	29	44	70	13	16	24	40	271	31	488	19	98	19	27	63	166	152	46	427	31	222	63	249	28	37	32	133	322
OTU 8	65	120	39	8	19	26	67	19	43	49	15	60	153	34	65	56	26	29	6	51	20	547	3	114	103	57	103	44	14	9	6	8	152	121	3	34	14	57	111	45	77	33	80	50	143	81	18	70	25	90
OTU 9	0	5	6	20	25	5	0	39	38	68	11	13	26	2	17	0	3	9	0	4	0	0	24	9	31	16	1	7	39	0	0	0	1	0	0	20	3	29	0	0	6	73	0	0	2	14	2	0	1	11
OTU 10	2	1	2	0	0	0	283	13	0	39	0	8	9	41	57	0	0	17	2	6	0	1659	51	32	273	7	2	0	2	2	1	0	1662	0	1	337	3	0	5	67	5	0	1	0	11	2	25	76	6	45
OTU 11	1	14	17	0	27	745	7	3	83	3	7	15	1	7	3	47	0	70	97	2	4	0	3	43	71	0	0	0	3	2	5	1	5	80	7	49	7	9	19	11	11	12	53	21	53	9	11	9	162	88
OTU 12	11	57	1	69	6	3	49	18	59	20	19	6	12	50	1	75	1	6	929	895	1606	30	30	28	11	1	78	50	3	9	1	50	4	17	11	19	5	2	46	43	13	1	87	50	190	38	45	175	1742	47
OTU 13	0	2	0	0	0	0	0	1	0	17	0	0	0	1	15	26	0	1	0	0	0	0	29	1	210	0	1	0	0	0	0	0	0	0	5	0	17	0	0	0	0	0	84	0	1	0	4	5	0	10
OTU 14	8	17	8	33	12	142	48	0	59	0	1	7	64	15	1	24	8	16	19	6	1	13	9	0	25	0	35	0	5	0	29	0	1	4	13	0	0	0	1	80	5	6	3	0	0	9	0	31	30	10
OTU 15	0	1	0	0	12	0	13	0	0	0	0	0	1	14	8	0	0	0	1	0	0	3	0	9	0	0	0	0	5	0	15	0	88	0	0	2	0	0	0	9	0	0	0	0	0	0	44	0	4	32
OTU 16	0	0	25	14	2	0	0	0	0	0	0	0	0	0	56	0	0	0	0	0	0	0	0	0	0	0	0	0	0	0	0	0	0	0	12	0	0	0	0	0	0	0	0	0	0	7	0	0	0	15
OTU 17	1	4	9	6	8	1	0	14	0	30	11	0	44	25	4	1	12	1	7	58	0	10	28	17	79	2	49	2	0	2	79	22	111	0	5	11	0	0	1	0	6	12	9	0	31	0	35	125	12	54
OTU 18	67	14	46	20	34	12	36	49	28	66	234	6	34	10	16	36	0	77	34	0	12	4	14	1	9	35	32	34	107	3	127	14	46	144	0	1	374	2	621	0	4	47	8	90	53	82	112	10	70	16
OTU 19	0	0	0	0	0	0	0	0	13	0	0	0	0	0	0	0	0	0	0	0	0	0	0	0	0	0	0	0	0	1	0	0	0	0	0	0	0	0	0	0	0	0	0	0	0	0	0	0	0	0
OTU 20	1	75	10	1	50	99	1	3	53	10	6	44	22	30	11	33	4	1	0	20	18	23	15	6	35	24	114	38	7	15	151	10	9	0	2	5	1	0	10	11	26	8	55	1	85	5	125	0	0	89
OTU 21	79	29	13	19	4	6	9	6	8	23	13	24	90	4	10	53	10	10	0	3	10	20	0	114	39	1	90	35	77	1	11	6	44	4	18	40	0	0	10	11	18	1	3	7	18	0	68	57	0	26
OTU 22	124	2	4	40	18	18	49	9	0	1	23	76	18	5	54	87	3	0	1	28	12	0	39	1	0	0	25	83	57	0	84	2	89	43	1	3	0	1	28	9	2	21	100	63	1	0	56	10	9	1
OTU 23	34	0	616	47	0	1470	0	7	20	24	314	17	101	14	1216	113	1	8	0	0	0	19	25	3	7	30	11	0	49	31	43	54	29	1904	6	0	0	1	582	0	0	0	0	878	0	5	214	2	0	37
OTU 24	13	188	4037	18	0	0	0	0	7	0	24	400	9	15	2	35	6	6	11	17	0	0	0	1	22	66	7	0	0	2	17	0	0	0	0	0	4	10	7	1	0	5	49	60	56	0	0	5	17	1
OTU 25	0	0	0	0	0	0	1	12	0	29	1	0	0	30	0	0	0	0	0	19	0	0	0	1	0	0	0	0	0	0	14	0	0	0	0	0	0	0	0	0	0	0	0	0	0	0	0	0	0	0
OTU 26	1	22	0	15	0	1	3	0	9	0	0	0	0	0	4	31	0	0	20	0	0	0	0	0	0	4	0	0	0	0	2	0	0	10	0	0	0	0	19	0	0	0	0	0	3	0	17	167	43	0
OTU 27	0	0	0	0	0	3	0	0	0	0	7	0	0	0	1	0	0	0	0	0	0	0	0	0	0	0	18	2	0	0	0	0	0	0	0	0	0	0	0	0	0	10	0	0	0	0	0	2	0	0
OTU 28	203	66	62	106	155	3	2	48	10	66	18	24	135	41	19	7	38	8	4225	75	14	8	36	5	64	6	148	26	3	0	64	12	56	13	11	0	0	53	5	10	35	16	21	54	43	2	63	4	32	66
OTU 29	4	16	6	1	2	0	40	19	34	39	6	40	66	20	25	48	948	143	17	144	3	8	273	55	50	21	39	13	1	913	3	1676	101	19	29	26	536	2070	9	1	3641	66	17	69	10	8	25	80	44	94
OTU 30	0	0	0	0	0	0	0	0	2	0	0	0	0	0	0	0	0	0	0	0	0	0	0	0	0	0	1	0	0	0	0	0	0	0	0	0	0	0	0	0	0	0	0	0	0	0	0	0	0	0
OTU 31	1	1	0	3	22	0	1	4	84	2	0	103	0	1	14	0	19	1	0	12	9	0	102	60	0	14	45	18	2	31	0	73	35	0	2218	20	16	41	0	3	55	4	0	1	0	21	1	2	0	0
OTU 32	100	34	61	60	104	83	27	23	567	23	32	4	81	188	302	56	158	66	67	108	137	63	344	330	7	22	839	238	22	124	3	198	406	17	39	190	40	420	20	2	356	141	42	11	145	58	56	19	112	12
OTU 33	0	0	0	0	0	4	0	0	0	5	0	44	0	0	0	0	6	0	41	0	0	0	2	2	0	0	0	0	0	0	0	0	3	0	1	0	0	0	0	0	0	3	0	0	0	2	0	0	64	5
OTU 34	92	23	3	28	67	0	11	13	4	16	9	42	60	35	19	0	14	0	15	25	49	25	39	21	6	0	138	0	30	0	4	1	7	15	18	9	17	36	0	11	58	0	1	17	9	5	58	6	32	64
OTU 35	44	57	9	9	37	9	25	36	101	58	239	410	11	0	28	2	0	7	2	1	17	0	0	3	2	12	21	68	38	0	1	22	19	45	48	2	16	9	349	10	0	26	0	27	1	0	44	74	5	10
OTU 36	3	134	18	19	16	14	15	13	38	28	8	20	0	7	27	67	4	30	0	0	0	1	18	5	74	32	10	0	0	0	0	0	0	4	11	21	4	0	2	27	3	23	10	1	5	1	0	40	1	109
OTU 37	119	1	58	0	0	23	1	3	0	0	0	0	4	4	2	1	1	0	6	1	3	0	5	0	47	2	15	29	2	1	0	8	19	0	16	6	0	6	9	11	0	0	602	0	6	4	56	0	16	2
OTU 38	53	112	20	8	90	0	6	0	81	5	52	0	33	3	23	28	8	23	0	19	0	0	2	0	52	24	38	0	10	812	41	4	48	52	5	0	6	15	15	9	6	19	41	26	29	13	1	0	1	23
OTU 39	0	0	0	75	0	13	7	3	0	0	0	0	0	0	0	49	0	1	0	2	0	4	5	25	3	1	128	0	0	0	112	0	17	0	3	8	0	0	0	6	0	3	0	3	7	0	7	1	0	0
OTU 40	20	141	16	7	5	86	1	3	7	12	63	157	112	99	16	34	7	11	8	4	9	36	52	24	228	11	74	4	5	7	6	0	29	13	1	1477	1	27	29	15	29	0	129	27	80	0	190	3	16	170
OTU 41	24	0	83	58	58	9	38	44	24	88	5	0	81	14	61	13	2	1	13	0	0	20	2	6	9	14	15	7	2	0	31	0	13	35	3	0	0	7	26	248	24	14	17	81	14	6	27	2	35	5
OTU 42	0	2	0	19	0	0	0	0	0	0	0	0	0	1	8	89	1	0	51	1	8	0	20	0	1	1	12	3	0	0	0	1	20	0	0	1	1	0	0	15	0	0	16	0	118	11	1	3	99	1
OTU 43	0	0	0	0	0	0	2251	0	0	1	0	0	5	0	0	0	0	2	0	0	0	0	0	0	0	0	0	0	0	0	0	0	0	0	0	0	0	0	0	1162	0	0	25	22	0	0	0	13	0	0
OTU 44	2	0	7	9	5	1	0	13	0	12	0	0	0	0	35	0	0	0	0	0	0	0	4	3	0	1	1	0	0	0	14	2	0	0	0	1	0	0	0	0	0	0	19	0	1	0	1886	1	0	2
OTU 45	75	26	46	0	53	22	16	63	36	129	6	92	16	13	8	66	6	14	8	12	1	0	173	52	52	38	76	65	2	2	6	0	3	102	12	38	5	2	63	23	3	7	12	8	31	39	0	76	17	55
OTU 46	502	85	163	6	36	47	19	18	18	57	0	20	20	3	149	155	0	89	18	0	15	0	74	9	23	198	33	51	14	2	47	5	7	97	4	14	16	4	82	16	0	11	83	27	831	75	3	455	35	178
OTU 47	0	3	2	0	0	0	0	0	0	0	0	3	6	0	0	52	0	16	0	0	0	0	12	4	0	12	0	0	0	0	0	0	0	0	3	5	0	8	0	0	0	2	0	2	0	0	30	85	0	0
OTU 48	35	50	16	2	56	0	0	11	35	20	21	60	22	41	15	66	11	24	3	10	92	79	45	42	75	30	64	8	25	20	26	10	11	0	3	59	1	29	35	10	11	7	13	7	92	3073	67	18	8	0
OTU 49	27	8	52	0	137	38	15	20	22	28	2	15	0	9	0	0	1	0	5	3	2	4	2	3	9	0	68	4	23	1	0	3	105	17	21	0	2	0	0	0	0	20	113	14	3	12	0	23	16	6
OTU 50	56	2	6	28	39	16	27	4009	7	64	103	2	7	84	22	29	6	39	26	41	7	14	53	51	100	13	39	86	79	1	154	3	15	15	32	12	10	5	51	7	66	95	1	32	21	59	41	165	42	19
OTU 51	6	40	27	62	0	7	227	39	345	95	1	4	0	7	3	6	774	4	1	3	15	0	0	3	44	5	14	9	7	4	136	23	0	139	34	7	392	1445	0	50	13	23	26	69	1	0	26	14	2	181
OTU 52	75	32	69	9	743	151	66	460	131	135	53	189	21	76	6	1	18	43	30	24	75	77	1347	36	197	16	238	6	33	6	35	24	55	56	25	24	1	5	11	68	6	49	3	85	51	29	31	20	76	158
OTU 53	0	0	0	0	0	0	0	0	0	0	0	0	0	0	0	0	0	0	0	0	0	0	0	1	0	0	0	0	0	0	0	0	0	0	0	0	0	5	0	0	3	0	0	0	0	0	0	0	0	7
OTU 54	184	7	45	4	212	25	10	19	70	23	0	99	343	36	43	100	34	14	917	1029	127	17	84	26	106	3	44	10	15	4	80	6	23	54	32	4	4	12	73	11	24	13	15	13	15	41	22	98	1789	221
OTU 55	0	0	0	0	0	0	0	0	0	0	0	0	0	1	0	0	0	0	0	0	0	6	0	0	0	0	0	0	0	0	0	0	0	0	0	0	0	0	0	0	0	0	0	0	0	0	0	0	0	0
OTU 56	0	6	1	24	34	0	6	0	0	0	3	3	26	0	12	0	0	3	1	2	0	2	2	12	7	4	0	3	4	0	0	4	0	2	11	0	3	0	8	0	1	20	3	27	14	18	27	3	2	0
OTU 57	172	48	11	33	20	102	77	14	13	39	43	169	276	75	40	126	7	107	21	11	42	8	812	119	151	14	104	1009	63	8	98	8	80	39	19	29	4	21	6	25	29	20	256	89	143	53	227	20	61	75
OTU 58	9	9	6	0	28	2	17	34	8	49	10	8	4	42	35	11	0	4	3	52	75	24	5	5	117	14	25	0	3	0	1	0	65	2	0	6	0	2	74	1	0	58	3	12	16	0	21	38	7	1
OTU 59	4	0	0	15	0	39	3	25	0	39	36	57	16	4	21	31	1	80	0	20	33	0	14	1237	2	2	5	14	0	4	15	32	4	45	41	805	3	8	0	0	26	14	75	24	0	1	154	0	1	11
OTU 60	14	3	9	3	53	53	139	0	17	2	24	56	132	0	26	22	0	4	40	46	3	8	146	602	51	13	3	2	21	21	103	75	28	39	23	343	3	35	35	39	23	14	84	30	220	76	84	2	71	60
OTU 61	98	107	29	248	191	160	25	1	120	1	31	91	53	304	21	80	38	231	54	92	241	178	94	43	55	26	84	233	8	64	306	164	71	22	75	16	17	117	98	66	138	428	82	1515	55	4	74	45	105	39
OTU 62	3	71	0	3	2	0	0	0	1	0	108	0	0	0	0	39	3	0	0	0	0	0	1	0	0	52	1	5	26	7	5	5	0	0	1	0	0	0	418	0	42	0	18	0	0	22	1	2	0	2
OTU 63	2	0	0	0	12	28	84	9	0	17	22	0	7	0	3008	0	0	7	0	0	13	1	6	104	8	1	0	9	6	13	0	8	7	1	0	37	4	4	9	36	12	2	3	3	0	806	0	5	0	31
OTU 64	44	1579	30	33	9	95	11	77	52	156	48	2915	20	94	78	73	18	65	93	43	36	16	72	8	39	537	24	1370	36	5	53	20	26	69	0	4	15	15	86	4	53	1	52	52	329	21	96	393	144	51
OTU 65	6	3	0	0	0	0	2	0	0	0	2	0	0	0	8	0	0	37	0	0	0	0	5	0	0	14	0	0	0	1	0	0	0	0	0	0	0	0	0	0	0	0	0	0	0	0	0	40	0	0
OTU 66	108	134	33	11	36	13	3	32	15	48	37	44	15	52	95	118	25	59	4	3848	21	40	1	5	29	83	73	17	12	38	18	33	18	89	204	3	16	30	36	41	114	34	129	7	110	68	23	72	8	6
OTU 67	10	13	20	0	57	112	37	3	1	17	1	4	296	0	0	1	7	22	5	0	53	9	19	0	63	1	59	15	0	29	15	12	3	43	8	1	0	3	3	1	25	6	148	61	18	0	1	6	11	1
OTU 68	7	0	0	35	0	0	0	0	0	13	7	1	0	0	0	36	0	1	0	23	0	0	0	2	30	0	7	4	257	1	2	7	16	9	4	0	1	0	0	9	0	7	15	0	4	0	3	0	0	1
OTU 69	17	33	353	20	19	572	31	40	4	89	437	9	81	5	545	13	4	14	32	4	0	2	74	0	0	3	30	19	12	4	17	16	65	1386	0	3	0	8	409	21	0	14	26	533	126	61	116	170	51	19
OTU 70	6	46	2	0	0	28	24	10	7	18	21	52	36	25	43	2	136	1	7	0	15	25	0	39	0	25	71	1	21	55	9	214	5	11	6	2	89	229	5	0	534	2	1	0	17	17	12	0	9	0
OTU 71	10	1	22	22	0	1	8	9	0	32	12	34	8	3	17	471	23	0	4	33	12	3	57	0	21	6	19	31	25	0	0	2	19	22	0	2	4	18	0	37	36	1	139	0	1	2	2	9	17	0
OTU 72	204	42	28	425	0	10	22	60	123	81	101	11	6	704	48	49	1	415	3	95	180	296	33	24	33	75	141	79	1	1	24	0	84	107	392	31	5	2	185	7	1	362	44	20	58	32	147	54	5	114
OTU 73	68	2	1	4	10	36	1	49	7	111	141	8	1	28	4	16	2	21	34	0	0	53	78	26	56	56	13	21	2	0	74	0	6	20	15	0	3	12	413	18	3	51	0	2	138	25	33	10	86	225
OTU 74	13	49	38	12	19	3	271	32	21	56	6	25	189	868	12	13	17	31	0	17	364	486	0	3	256	12	59	6	59	20	139	29	43	9	2	36	5	18	19	73	87	37	17	15	5	46	1	18	7	8
OTU 75	80	55	35	16	25	37	41	14	32	23	12	9	187	33	23	39	7	237	280	602	41	7	521	125	551	78	196	8	6	15	25	38	139	45	3	71	4	7	24	101	14	0	20	35	11	251	111	36	603	2
OTU 76	3	47	13	0	0	1	2	2	35	0	0	0	0	49	34	3	0	5	0	6	11	22	1	2	0	19	33	0	0	2	0	6	9	5	6	0	0	0	33	11	6	26	62	12	4	2	0	14	1	1
OTU 77	14	7	100	56	126	16	64	0	40	6	5	83	12	17	10	62	20	54	15	36	31	15	64	20	3	27	54	25	57	12	0	29	18	135	1	1	0	0	6	9	12	7	30	35	19	36	37	42	33	1
OTU 78	31	25	29	0	4	0	49	253	0	485	8	40	33	41	4	49	4	18	13	12	32	11	3	3	38	6	3	0	0	3	381	6	0	55	25	1	2	19	2	13	36	2	1	61	9	4	0	79	36	1
OTU 79	120	75	393	179	129	111	123	77	399	178	73	35	262	427	38	75	25	407	16	72	386	277	565	93	380	44	176	40	84	22	99	53	134	93	246	66	17	44	77	113	119	393	56	74	332	61	152	69	47	161
OTU 80	7	16	16	11	37	8	18	44	53	142	1	321	53	1	37	98	338	23	210	107	81	0	165	135	89	14	207	1639	6	445	63	893	170	38	15	52	159	530	11	44	1432	18	156	7	130	42	10	16	413	35
OTU 81	282	3041	57	10	10	13	152	28	14	88	7	22	56	20	6	27	12	329	13	8	23	5	67	78	64	1546	56	28	1188	2	361	2	158	49	4	4	17	17	64	88	48	13	37	62	325	74	104	39	18	19
OTU 82	98	13	10	1	0	40	351	11	1	33	54	153	41	4	0	4	3	3	6	6	11	1	4	25	0	11	14	13	0	0	5	6	5	3	8	1	0	23	0	136	45	12	23	4	4	5	132	6	8	205
OTU 83	0	0	0	0	59	0	0	0	0	0	0	0	0	0	15	10	1	3	0	0	20	0	0	13	0	0	84	0	0	2	0	0	17	19	0	0	0	3	0	0	1	2	0	2	0	9	15	3	0	0
OTU 84	7	3	288	2	23	242	23	18	5	18	44	27	23	27	221	0	0	4	0	6	7	9	0	121	0	2	9	3	53	3	1	0	1	721	9	66	1	19	153	44	0	10	0	103	50	37	1	3	0	0
OTU 85	5	3	101	2	26	7	0	0	2	3	0	3	4	7	0	0	0	0	0	19	0	0	15	0	13	9	6	5	3	13	9	7	1	41	2	0	0	0	0	0	2	0	0	0	3	0	0	0	0	13
OTU 86	0	0	1	0	0	0	0	0	0	0	0	0	0	0	0	16	0	1	0	0	3	0	1	0	0	0	0	0	0	0	0	0	0	40	0	0	1	0	0	0	0	0	0	0	0	0	0	0	0	0
OTU 87	12	0	1	0	140	15	85	5	1	5	0	2	36	6	21	51	0	7	0	33	1	4	19	0	6	1	0	30	4076	9	50	0	0	17	25	0	6	9	0	56	17	21	1	2	0	6	5	98	2	174
OTU 88	0	0	0	44	0	0	0	0	0	0	0	0	9	0	1	18	0	0	0	0	0	0	25	10	54	1	1	13	0	3	0	0	0	15	3	0	1	0	0	0	0	0	0	0	0	6	0	49	0	1
OTU 89	6	14	51	6	121	0	7	18	0	14	1	54	32	5	0	0	4	53	0	1	0	1	6	9	34	55	2	0	2	1	15	2	6	74	0	5	0	0	0	3	0	2	25	0	52	14	1	0	0	3
OTU 90	1	16	1	0	5	0	0	0	7	0	0	18	0	0	0	0	3	6	0	0	1	0	0	0	0	0	0	0	4	0	1	0	3	2	0	0	3	0	0	2	0	0	0	0	5	0	0	0	0	0
OTU 91	0	0	0	0	0	0	0	23	0	29	2	0	0	18	10	0	1	0	0	0	0	0	0	0	0	0	9	0	0	1	50	16	0	42	0	0	0	0	0	0	0	6	0	0	0	0	0	0	0	0
OTU 92	46	1	0	0	70	5	0	3	0	0	0	1	0	2	0	5	2	8	0	4	1	47	0	15	109	10	19	0	0	1	14	13	0	20	0	7	1	4	0	0	0	4	0	34	19	9	0	0	0	10
OTU 93	3	0	0	0	6	0	17	0	0	0	0	0	0	0	0	0	0	0	0	0	1	0	0	0	0	0	45	0	19	1	0	2	13	1	0	0	0	0	41	0	0	1	0	1	0	1	0	0	0	22
OTU 94	87	19	34	19	18	54	14	31	106	19	25	191	5	4	0	4	1	73	52	19	44	14	79	3	94	21	255	6	29	2	68	6	138	18	1	6	2	1	10	10	0	69	200	3	3	80	13	12	98	86
OTU 95	4	3	1	0	0	4	0	633	0	1221	27	0	4	0	0	5	8	1	10	0	2	20	9	0	30	3	5	0	4	0	532	0	0	12	0	2	1	0	62	0	0	0	2	2807	52	2	2	4	20	23
OTU 96	1	0	0	10	13	7	0	0	0	6	0	0	7	0	0	0	0	0	0	0	0	0	0	9	0	1	0	0	0	0	0	0	0	0	0	0	0	0	0	7	4	0	4	4	0	0	0	0	0	1
OTU 97	0	0	0	3	0	183	1	0	0	0	1	0	1	3	0	2	2	0	34	208	0	1	32	0	0	0	4	38	0	19	82	37	8	0	1	0	0	20	0	5	24	1	1	0	0	1	1	0	60	0
OTU 98	45	20	22	11	0	37	5	0	92	0	5	0	1	0	8	0	0	1	2	2	2	1	7	115	20	56	1	37	12	14	0	2	35	1	0	80	0	0	7	1	0	9	16	4	159	1	52	1	6	2
OTU 99	66	13	10	25	6	38	28	50	170	89	2	5	112	61	5	76	968	52	8	8	0	5	13	49	115	5	90	4	65	0	39	9	57	32	36	54	455	20	21	37	22	126	80	66	67	47	53	54	12	96
OTU 100	3	90	33	45	19	1	142	8	4	31	10	36	143	6	3	15	0	9	1	18	0	10	8	25	104	71	34	72	0	0	56	7	0	65	0	5	1	9	12	49	5	8	0	2	16	76	0	47	2	691
OTU 101	48	0	0	0	3	0	4	0	0	1	0	0	0	0	6	0	1	0	5	0	0	139	0	1	14	0	0	0	1	0	22	0	131	0	1	0	0	0	0	8	0	0	1	25	0	2	45	0	13	0
OTU 102	0	0	0	16	29	0	2	4	0	12	3	10	97	3	9	1	14	18	19	1	9	0	69	1	0	0	7	0	0	0	10	0	7	0	35	6	3	4	0	0	12	138	26	1	0	0	13	0	51	0
OTU 103	52	174	0	46	3	0	63	50	5	152	0	32	1	10	44	42	0	3360	14	6	6	4	7	36	0	125	20	72	7	0	4	0	3	2	6	26	0	0	24	0	2	12	80	1	1	1	194	55	46	72
OTU 104	1323	59	69	9	183	35	0	11	39	16	61	26	91	76	201	12	3	7	20	15	81	74	75	17	89	20	72	98	1	27	4	53	58	32	99	7	4	9	66	8	45	35	731	15	212	74	70	103	48	11
OTU 105	13	16	0	1	0	0	8	0	4	0	0	0	0	25	0	5	0	35	0	0	0	15	117	60	21	12	178	0	0	12	0	10	0	1	16	23	0	0	0	0	0	0	0	27	0	23	0	0	0	16
OTU 106	0	0	0	66	0	0	0	0	86	0	21	0	0	0	0	0	0	0	0	3	0	1	0	6	14	3	102	0	0	0	0	0	31	0	0	0	0	0	0	0	0	0	5	0	102	1	2	0	0	0
OTU 107	13	5	1	3	0	26	10	0	8	0	0	0	7	0	3	3	0	0	0	1	9	2	1	0	79	0	15	2	0	0	18	0	20	45	14	1	0	1	13	0	12	17	0	0	3	1	0	613	0	1
OTU 108	6	5	1	9	12	0	44	27	17	45	23	1	2	25	15	2	0	83	0	62	9	5	72	10	1	0	10	0	18	4	5	0	4	13	16	8	0	3	26	46	1	31	0	4	222	7	4	29	0	17
OTU 109	0	0	0	0	0	0	0	0	0	0	0	0	0	0	0	0	0	0	0	1	0	0	0	0	0	0	0	0	25	0	0	0	0	0	0	0	0	0	0	0	0	0	0	0	0	0	0	0	0	0
OTU 110	105	8	4	26	45	4	66	19	243	52	4	59	164	10	47	3	5	27	0	8	1	10	2	87	7	2	343	3	1	10	4	2	131	4	118	53	0	4	18	71	0	428	20	55	80	18	5	44	0	103
OTU 111	0	3	0	0	0	16	1	4	0	6	1	6	224	0	0	1	0	3	0	0	0	0	0	9	17	1	44	15	0	0	0	0	0	10	0	0	0	0	0	0	0	0	0	14	3	0	15	0	0	0
OTU 112	12	2	14	53	0	0	1	0	2	0	5	22	118	28	1	0	1	0	9	1	6	76	0	1376	11	8	1	1	5	9	1	13	4	8	0	713	0	0	0	7	0	4	28	10	0	1285	45	2	14	7
OTU 113	0	0	0	0	0	1	14	0	0	0	0	4	1	0	0	0	0	6	0	0	1	0	0	8	1	0	0	2	3	0	0	0	15	0	0	1	0	0	1	0	0	1	9	0	0	0	0	1	0	0
OTU 114	150	62	48	29	87	0	70	135	124	202	52	102	45	13	97	125	13	63	2	21	58	4	93	80	14	26	102	11	16	10	263	40	1907	43	73	78	18	24	27	63	1	110	350	0	34	49	15	21	2	13
OTU 115	36	23	94	10	104	37	123	44	2	110	21	57	14	163	58	330	7	22	7	5	96	1007	157	69	182	10	84	5	12	12	89	18	0	191	20	18	5	18	30	93	2	11	56	37	208	228	6	139	13	24
OTU 116	1	27	27	0	161	3	18	14	13	45	6	51	5	117	3	24	13	18	30	4	7	73	71	73	43	4	10	28	55	8	86	46	1	280	0	38	2	15	34	35	5	9	60	111	29	140	42	16	80	19
OTU 117	0	1	16	3	0	17	26	16	36	17	0	6	33	1	45	41	1	32	12	84	29	1	46	19	79	1	10	12	7	1	1	1	2	1	38	19	0	6	59	67	31	10	4	35	1	39	10	0	19	35
OTU 118	0	0	11	35	94	0	5	5	3	26	0	0	0	0	0	0	30	0	0	0	0	0	0	91	0	0	0	0	7	0	24	0	28	62	0	25	5	0	0	0	0	0	6	16	3	16	4	2	1	0
OTU 119	89	11	6	1	82	94	70	43	0	53	8	53	117	0	9	5	6	38	8	62	12	6	69	23	15	29	37	4	37	3	8	0	27	51	12	0	815	36	14	39	33	22	21	0	83	26	17	57	11	12
OTU 120	0	10	323	0	15	15	2	20	5	39	1	17	5	4	174	20	10	0	0	17	16	9	1	0	14	24	9	18	0	2	0	0	16	281	22	8	14	10	233	0	1	53	20	256	2	0	0	1	0	0
OTU 121	1	0	0	65	1	9	6	20	2	29	14	39	8	11	2	84	48	17	0	18	13	0	48	27	24	22	43	12	9	4094	22	18	2	6	5	31	33	54	25	27	39	6	18	12	2	12	3	32	2	17
OTU 122	36	5	26	26	0	4	1	11	7	38	40	7	12	0	23	90	0	54	1	7	28	10	99	3	132	3	20	7	0	1	6	16	39	14	0	1	1	19	57	10	11	29	56	3	5	0	27	52	5	53
OTU 123	312	320	259	1316	230	202	167	201	232	375	17	150	155	74	317	493	13	33	99	113	56	8	302	244	135	269	392	50	140	55	222	107	37	443	97	89	19	31	268	159	70	95	147	46	308	68	110	294	183	41
OTU 124	3	0	0	0	22	0	0	5	0	27	0	3	0	0	1	0	1	11	0	0	1	0	0	7	0	0	4	0	0	1	8	0	0	2	0	0	0	0	7	1	6	37	0	19	18	11	48	0	0	1
OTU 125	27	82	22	464	149	114	27	321	109	696	18	46	608	234	125	26	0	40	62	85	60	72	89	81	458	33	199	78	50	30	538	82	152	90	21	36	9	29	87	68	1	71	129	96	199	100	523	55	102	160
OTU 126	0	0	13	0	89	0	0	0	0	0	12	0	0	1	0	2	0	0	1	0	0	0	13	15	0	0	6	0	0	1	20	0	0	1	0	2	0	0	0	0	0	1	0	0	0	8	0	6	3	12
OTU 127	10	17	188	1	7	1	1	23	0	64	7	212	57	3	0	30	1	0	10	10	1	25	10	19	1	22	38	3	48	15	2	44	1	101	1	5	0	12	1	2	22	1	47	0	0	252	0	0	12	0
OTU 128	141	120	67	123	184	111	498	157	1237	266	114	145	131	134	114	276	50	213	21	99	68	48	43	224	306	90	406	200	698	25	447	40	305	45	192	41	3368	106	50	266	317	171	1503	101	242	271	35	275	53	911
OTU 129	0	3	9	0	0	0	11	1	6	0	8	20	1	41	3	0	0	0	35	0	0	23	0	8	0	0	10	1	1	0	0	0	1	0	0	9	0	0	0	0	0	3	0	0	2	0	31	0	55	6
OTU 130	0	5	2	24	15	36	10	0	27	1	6	1	21	89	49	40	19	72	19	16	0	5	12	19	0	1	69	0	14	8	10	10	19	0	33	13	0	2	0	2	2	134	10	1	37	31	8	23	43	115
OTU 131	0	3	33	11	4	144	27	56	0	79	10	1	28	121	145	4	90	58	0	8	48	16	137	4	3	5	36	70	59	0	46	5	38	268	3	1	14	69	95	47	3	216	55	0	2	16	22	386	0	0
OTU 132	49	6	0	5	19	2455	5	0	11	0	12	5	15	0	3	1	0	26	0	35	0	4	32	0	8	0	0	1	0	0	1	0	0	2	0	0	0	0	0	2	14	17	47	16	43	3	67	1	0	1
OTU 133	9	2	2	2	0	1	0	0	13	0	0	63	9	8	0	8	0	158	0	1	0	3	0	15	0	7	9	0	5	0	1	0	0	0	0	6	0	5	0	0	0	0	0	0	21	8	0	0	0	0
OTU 134	138	6	1	19	24	60	2	10	2	27	6	3	4	57	126	0	0	9	0	17	0	7	45	59	27	1	29	31	18	11	1639	22	4	0	13	30	6	95	7	0	63	1	1	40	35	31	81	5	1	11
OTU 135	19	7	34	110	56	40	11	13	37	22	2	3	1	13	4	717	46	12	27	12	7	0	12	82	0	4	75	76	21	8	35	59	101	89	26	18	15	49	14	0	22	32	18	59	26	40	254	45	27	0
OTU 136	20	26	12	0	0	0	16	0	6	0	82	3	0	57	50	6	0	0	0	16	1	86	0	9	11	0	28	2	13	0	28	0	19	0	323	6	2	29	58	13	0	707	72	0	2	2	2	77	0	0
OTU 137	80	0	3	1	0	0	1	0	0	0	0	47	11	1	2	0	0	0	20	0	0	0	0	4	28	0	0	0	0	0	1	3	32	0	0	0	0	2	0	4	0	0	0	4	0	9	16	3	61	3
OTU 138	0	1	7	14	0	5	15	193	0	402	145	4	0	33	27	6	4	0	1	0	12	17	3	0	0	12	3	5	0	0	15	0	0	36	0	14	0	1	0	4	58	9	1	0	11	0	213	17	2	0
OTU 139	126	15	8	47	183	4	38	60	59	149	52	29	3	20	136	180	11	72	38	14	27	17	54	226	329	39	190	168	53	7	19	6	12	17	52	593	10	14	19	11	19	86	309	46	27	117	36	32	68	13
OTU 140	172	31	72	21	13	50	77	64	47	102	31	12	4	200	18	43	31	3	66	42	103	60	206	400	45	37	167	117	48	38	870	25	234	41	72	174	30	37	37	142	22	133	52	30	519	98	73	191	128	54
OTU 141	0	0	0	0	0	0	0	23	0	69	0	0	0	0	0	0	0	0	0	0	0	0	1	0	9	0	0	0	0	0	1	0	0	0	0	0	0	0	0	0	0	0	1	0	0	0	0	0	0	0
OTU 142	0	3	0	0	4	0	26	0	0	0	0	0	0	19	0	0	0	5	8	0	0	7	0	0	24	0	26	0	0	0	5	0	0	0	1	0	0	7	0	1	0	0	15	0	0	0	0	2	14	0
OTU 143	0	1	0	2	3	44	0	0	0	0	0	1	0	0	0	25	916	0	0	10	2	0	0	0	0	12	0	0	0	0	0	0	60	0	2	0	571	0	3	0	1	0	4	0	1	22	1	7	0	0
OTU 144	17	0	17	0	6	0	1	61	0	112	1	0	19	2	0	3	0	0	0	0	0	0	36	0	0	1	0	0	0	2	0	0	1	4	16	0	1	0	0	0	3	2	29	6	2	6	4	1	0	21
OTU 145	20	31	23	22	102	1	28	16	75	29	8	3	12	52	27	37	39	1	22	40	49	37	28	35	35	8	50	44	359	7	48	11	15	77	5	22	0	1	4	2564	0	53	24	99	91	3	32	128	44	42
OTU 146	9	8	11	69	15	5	48	8	1	4	52	0	137	11	26	0	3	68	9	8	2	1	164	175	127	72	96	4	24	30	16	71	52	12	1588	104	1	27	37	6	46	15	4	0	20	19	8	24	32	2
OTU 147	4	4	7	2	2	2	0	2	1	4	23	35	52	14	51	2	0	53	7	0	0	7	0	15	77	5	2	0	0	0	68	0	12	57	18	1	0	1	1	24	0	22	8	2	4	0	0	10	12	0
OTU 148	60	34	19	1153	0	13	5	14	1	16	4	175	109	0	135	9	1	6	1	91	489	2	27	2	98	6	129	21	80	4	8	9	18	13	0	0	10	2	18	687	1	3	104	33	0	17	65	553	4	142
OTU 149	14	1	3	0	0	0	3	28	0	107	0	27	282	18	10	0	0	0	0	0	0	19	0	27	1	0	0	37	1	6	9	14	10	3	6	10	0	6	0	5	10	0	27	0	3	23	8	0	0	22
OTU 150	1	3	33	0	0	0	5	0	10	0	0	0	0	0	0	2	0	0	0	1	0	0	39	4	0	5	0	3	11	0	3	5	8	58	17	7	5	14	81	0	7	26	0	15	163	0	2	0	1	0
OTU 151	5	1	10	1	1113	32	10	0	1070	0	13	22	99	10	0	0	751	12	0	10	5	4	10	4	44	3	25	1	10	0	4	3	20	0	15	3	308	5	7	18	0	0	41	0	0	52	0	41	0	7
OTU 152	63	11	20	0	23	21	55	46	41	87	35	126	1	2151	32	52	10	11	0	49	1532	1026	102	109	303	10	59	0	34	3	96	6	15	1	533	53	13	16	54	9	0	925	64	18	77	7	46	16	0	26
OTU 153	0	0	0	0	0	0	18	0	0	0	0	241	0	1	0	0	0	0	0	0	0	0	28	0	0	1	0	0	0	13	0	21	1	0	0	0	1	0	8	0	0	0	0	0	0	0	0	0	0	0
OTU 154	0	0	0	0	0	1	0	43	0	87	0	3	0	0	10	0	1	0	24	0	0	0	0	2	0	0	0	0	0	0	0	0	0	4	0	1	0	0	0	0	0	0	0	0	1	0	0	0	47	5
OTU 155	0	57	19	0	14	1	3	9	0	19	1	0	4	3	41	29	0	0	26	0	1	1	5	22	13	0	1	57	26	4	33	0	0	1	977	17	2	4	19	0	0	1481	6	0	1	13	0	30	38	2
OTU 156	83	2	15	47	19	14	66	100	32	194	16	12	157	67	88	49	7	37	16	2	0	79	46	44	54	19	51	1	16	0	167	2	33	4	2	14	4	2	39	11	19	9	94	15	61	16	9	7	40	14
OTU 157	0	23	0	0	0	22	0	1	0	0	2	0	0	0	0	0	2	0	44	48	0	6	93	0	0	7	1	37	0	28	0	53	2	0	0	1	15	44	23	3	43	0	4	33	0	0	0	0	96	0
OTU 158	0	3	2	4	0	0	2	0	0	0	0	0	13	0	1	0	0	0	0	0	0	2	0	0	0	0	0	0	0	0	0	0	0	3	8	0	0	0	0	1	0	1	0	0	36	0	0	19	0	0
OTU 159	13	77	90	12	15	58	3	0	19	0	3	0	58	3	2	30	1	24	7	4	2	1	8	1	32	30	15	0	0	0	73	0	81	43	30	0	2	1	0	1	11	0	27	12	11	3	5	839	15	0
OTU 160	133	63	22	17	162	12	63	50	85	81	32	39	38	27	82	319	23	126	101	70	69	14	26	123	270	38	75	88	110	1	14	6	58	32	4	45	28	16	136	869	128	82	42	71	81	5	12	281	153	83
OTU 161	105	74	1	50	36	14	10	0	2	2	7	9	7	53	7	0	10	32	19	121	1595	83	84	67	16	21	3	35	0	27	21	30	16	8	0	37	16	45	3	0	120	15	0	31	1	1	0	102	53	158
OTU 162	100	8	12	859	22	16	18	16	176	51	497	9	41	24	9	11	4	22	34	0	55	13	66	48	77	2	53	3	6	29	1	20	107	9	53	14	0	5	49	19	58	17	72	33	12	3	15	19	70	7
OTU 163	0	1	4	0	1610	5	0	0	0	0	0	0	2	1	0	4	0	0	2	0	0	0	0	0	0	0	0	0	0	0	0	0	0	5	0	0	0	0	1	0	0	0	1	0	0	0	0	0	3	0
OTU 164	1	0	0	0	0	0	0	0	0	2	0	0	8	9	1	116	0	0	0	0	0	2	0	0	6	0	0	1	0	0	0	0	0	0	0	0	0	0	0	0	0	0	0	32	0	0	4	1	0	8
OTU 165	21	2	0	0	0	33	0	80	215	209	18	14	0	0	21	18	1	21	14	51	6	0	0	0	0	1	20	23	0	11	2	0	85	0	14	4	2	11	1	26	1	7	0	0	0	0	0	6	33	2
OTU 166	345	0	0	0	0	0	0	0	0	0	0	0	0	0	0	0	4	0	0	0	0	0	0	0	0	0	0	0	14	0	0	0	0	0	0	0	0	2	8	0	0	0	0	0	0	0	0	0	0	0
OTU 167	17	9	14	0	0	88	3	4	14	15	29	15	106	41	0	0	13	0	4	53	3	62	33	0	0	19	39	25	5	0	0	0	0	18	3	0	0	1	1	1	3	0	120	12	1	20	16	3	11	4
OTU 168	171	3	0	0	2	17	105	6	86	12	24	0	34	8	2	77	1	51	12	27	0	11	18	0	3	1	1	2	21	0	4	7	0	3	21	7	2	7	5	50	0	0	6	0	193	0	48	0	13	58
OTU 169	0	0	0	0	0	0	2	0	0	0	1	0	0	0	0	45	0	0	0	0	0	0	0	0	2	0	0	0	0	0	6	0	5	0	0	0	2	0	14	0	0	0	0	0	0	12	63	0	0	0
OTU 170	0	6	0	0	157	5	0	0	0	0	0	0	0	0	0	0	0	0	0	0	0	5	0	0	0	0	0	0	0	0	0	0	0	9	0	0	0	0	0	0	0	41	14	0	0	2	0	0	0	0
OTU 171	6	1	26	0	2	78	4	22	26	38	12	33	0	0	1	36	0	0	15	1	1	11	7	24	0	17	87	27	95	0	24	0	0	20	3	32	0	23	2	2	33	11	204	4	24	59	92	65	27	1
OTU 172	0	0	0	0	0	52	0	0	34	0	0	0	0	0	0	0	0	72	0	0	0	3	67	41	8	4	153	0	0	14	0	1	243	50	0	25	0	0	180	1	0	8	0	54	15	49	0	0	0	0
OTU 173	3	0	83	0	7	0	5	10	10	15	6	9	20	13	24	11	0	0	7	0	17	1	34	0	0	3	0	2	0	0	0	3	3	36	0	0	0	0	2	1	2	2	10	0	0	9	6	15	19	0
OTU 174	13	0	1	14	5	0	1	0	33	0	10	54	63	7	3	1	948	1	24	0	2	1	132	0	254	1	22	0	85	8	6	4	0	7	0	13	539	1910	8	0	2	8	0	7	34	58	151	480	52	30
OTU 175	14	20	0	0	5	0	10	0	29	1	1	0	30	1	12	13	0	9	1	10	0	4	0	25	0	0	21	51	20	0	61	0	4	8	26	23	8	4	10	4	3	1	0	18	39	0	3	0	2	40
OTU 176	8	120	56	13	56	32	5	10	54	30	3	38	72	5	110	144	38	13	2	27	0	3	32	5	262	95	283	13	42	744	23	1462	4	35	31	1	7	38	5	0	88	44	10	149	43	90	67	108	4	10
OTU 177	143	41	97	5	172	13	8	14	35	34	2883	84	54	32	158	220	15	32	324	135	0	39	13	20	69	9	21	3	17	10	0	11	110	106	113	18	9	11	2	0	0	20	42	12	28	8	58	12	616	35
OTU 178	30	0	0	0	2	22	25	3	0	1	13	0	2	36	0	11	2	19	52	0	10	4	4	0	111	5	3	0	2	1	15	13	5	2	0	0	0	0	1	6	0	6	21	4	121	2	8	0	91	1
OTU 179	0	1	11	1	49	0	17	5	0	10	0	15	11	14	1	58	32	87	0	10	11	8	4	12	18	2	0	0	0	98	1	4	8	28	13	2	7	22	1	1	0	1	9	22	8	42	8	62	1	10
OTU 180	198	102	54	144	103	53	20	95	137	234	155	22	68	114	35	236	34	133	9	12	15	29	75	88	139	3194	102	238	24	26	62	35	111	66	49	25	48	37	79	54	74	60	42	75	164	4	306	261	33	72
OTU 181	0	43	1	23	8	12	1572	81	13	122	0	278	8	8	8	5	0	21	1	4	8	8	4	33	13	143	3	8	1	3	2	4	22	6	11	11	0	1	22	737	0	9	0	1	128	3	9	3	1	1
OTU 182	1	0	0	0	0	0	0	0	0	0	0	0	0	0	0	0	0	0	0	0	0	0	0	1	45	0	0	0	0	0	0	0	1	0	0	0	0	0	0	0	1	0	0	0	0	0	2	0	0	0
OTU 183	12	96	5	33	75	20	0	156	12	257	0	32	43	0	0	17	15	1	1	2	4	2	2	0	92	56	351	4	10	0	165	4	29	4	19	0	3	4	0	13	0	90	26	0	0	10	0	123	7	41
OTU 184	5	30	62	13	6	26	0	0	1	0	16	7	0	49	0	0	0	18	616	1	7	7	15	23	14	0	42	2	0	254	26	632	49	10	15	1	0	1	14	0	5	2	39	0	3	2	48	0	0	37
OTU 185	7	121	0	627	18	17	15	6	362	13	3	181	69	673	1	113	2	691	2	15	291	276	1	1	84	59	47	63	4	0	6	1	10	21	279	7	10	35	49	16	0	796	79	36	11	40	28	47	5	29
OTU 186	0	0	6	15	34	3	0	0	35	0	0	96	0	0	3	1316	5	0	0	7	11	4	5	0	24	5	9	1	1	0	0	0	0	2	0	1	0	0	0	0	2	0	0	0	0	28	4	11	0	0
OTU 187	48	96	12	9	54	126	112	49	23	115	11	41	122	25	13	37	9	25	26	18	2	10	0	54	21	48	9	134	26	5	12	21	34	23	33	2519	8	65	7	114	101	19	119	3	157	69	230	17	49	128
OTU 188	130	112	3	17	56	13	5	21	24	32	399	33	259	24	2	114	6	79	4	18	10	5	16	61	66	62	49	56	69	17	2	37	39	11	47	11	1	6	0	6	7	12	71	4	65	66	17	84	11	2313
OTU 189	6	36	16	50	25	27	99	2	29	5	50	102	62	169	20	41	1	39	107	25	58	70	9	36	24	0	31	21	34	4	13	5	6	13	11	30	11	3	48	39	15	29	10	26	4	22	57	46	179	16
OTU 190	1	0	0	0	0	0	0	0	0	0	0	0	511	0	2	1	0	0	1	5	0	0	1	16	0	0	0	94	117	0	0	4	32	4	0	8	0	4	4	0	4	0	11	0	0	11	0	200	4	0
OTU 191	80	62	18	44	8	78	1	443	44	42	350	27	34	45	110	25	4	26	3	1	43	23	97	44	2	25	24	11	3	2	33	5	117	61	12	44	6	37	434	11	5	14	91	21	267	0	513	4	9	19
OTU 192	64	67	3	9	67	164	93	13	25	79	109	185	57	4	32	505	109	36	25	59	2	4	302	67	42	24	44	36	7	909	46	2018	28	14	25	25	43	123	65	53	49	38	320	25	75	62	56	40	44	109
OTU 193	11	24	10	64	15	71	122	23	111	57	7	21	21	0	12	29	6	50	0	0	5	5	0	19	152	0	36	2	71	4	3	14	1	23	4	18	14	8	26	22	13	34	53	5	32	38	21	11	0	35
OTU 194	120	74	5	0	65	4	7	6	25	1	0	0	0	11	31	33	0	1	14	0	1	6	2	12	4	41	154	9	23	17	6	39	20	13	45	2	6	2	2	2	29	27	10	1	0	32	0	0	26	5
OTU 195	81	0	29	12	132	0	16	0	0	0	13	0	32	30	16	29	0	2	38	0	29	22	22	10	42	2	48	4	10	16	27	9	0	10	19	4	0	18	62	9	1	96	0	25	109	34	185	94	78	23
OTU 196	103	6	113	0	50	1	23	7	133	11	0	52	306	5	0	1	1317	60	0	2	30	3	78	10	65	1	0	54	18	0	1	1	7	48	0	3	730	9	25	5	2	15	43	54	79	7	16	149	0	0
OTU 197	658	22	64	3	105	99	120	21	29	39	27	71	73	33	36	67	40	47	43	20	23	20	31	38	52	1132	158	36	32	34	63	29	273	56	2	21	14	27	47	22	162	38	7	86	130	84	97	2	87	36
OTU 198	22	2	17	3	66	0	20	1	36	4	8	0	0	0	3	0	2	0	0	0	0	0	37	0	85	4	11	36	0	0	0	5	0	0	0	2	0	1	25	40	1	0	239	35	11	9	5	0	0	0
OTU 199	0	0	2	5	47	1	4	12	58	52	8	39	35	2	0	106	35	39	8	20	0	0	24	0	78	1	8	51	55	3	3	0	1	1	1	1	3	31	4	3	3	24	0	2	19	0	143	0	18	2
OTU 200	1	190	4	15	12	1	93	5	0	4	89	7	3	78	14	6	9	32	2	1	7	59	42	43	135	61	16	15	22	28	41	54	5	4	288	16	7	23	0	9	1	0	16	5	41	21	9	22	5	149
