	Host 1	Host 2	Host 3	Host 4	Host 5	Host 6	Host 7	Host 8	Host 9	Host 10	Host 11	Host 12	Host 13	Host 14	Host 15	Host 16	Host 17	Host 18	Host 19	Host 20	Host 21	Host 22	Host 23	Host 24	Host 25	Host 26	Host 27	Host 28	Host 29	Host 30	Host 31	Host 32	Host 33	Host 34	Host 35	Host 36	Host 37	Host 38	Host 39	Host 40	Host 41	Host 42	Host 43	Host 44	Host 45	Host 46	Host 47	Host 48	Host 49	Host 50	
OTU 1	0	0	0	0	1	1	2	3	0	1	0	0	0	4	1	0	0	6	2	0	1	2	0	2	0	1	0	5	4	3	0	1	10	2	1	0	0	2	0	0	1	1	2	0	0	2	1	2	1	0
OTU 2	3	0	1	46	1	0	0	0	0	0	3	0	0	0	0	1	0	0	0	0	0	0	0	2	0	0	7	36	0	0	0	2	2	0	1	1	0	0	0	1	0	0	0	0	2	0	0	2	0	0
OTU 3	0	0	2	1	0	0	1	0	0	0	0	0	0	0	0	0	0	0	0	1	0	0	0	0	0	0	0	0	0	0	0	0	0	0	1	0	0	1	0	0	0	0	0	0	3	0	2	0	0	0
OTU 4	0	0	0	0	0	0	0	0	3	0	0	0	0	0	0	0	0	0	0	0	0	0	0	0	0	0	0	0	0	0	0	0	0	0	0	0	0	0	0	0	0	0	0	0	0	0	0	0	0	0
OTU 5	3	0	6	31	4	26	0	7	33	1	7	31	37	5	0	2	46	7	11	3	31	68	6	26	1	13	0	22	0	1	2	5	4	13	8	21	19	38	21	11	6	37	12	3	0	0	5	0	6	2
OTU 6	2	3	0	0	1	2	1	0	0	0	41	0	0	3	2	2	0	0	3	1	0	0	2	6	2	2	0	0	3	0	0	0	0	0	0	5	0	0	62	0	1	0	5	0	1	2	0	2	2	0
OTU 7	3	2	2	0	3	7	14	5	1	4	4	0	0	10	0	0	2	1	0	1	4	1	0	0	0	1	4	3	5	8	2	8	13	9	0	1	6	7	7	0	29	3	1	9	8	0	0	0	9	24
OTU 8	6	3	1	1	0	1	1	5	1	1	0	0	6	0	8	0	5	4	25	1	0	21	0	4	3	1	5	1	0	1	0	2	1	3	0	3	3	3	12	2	3	1	16	0	5	1	1	6	0	6
OTU 9	0	0	0	3	0	0	0	0	2	1	3	0	1	0	2	0	0	1	0	0	1	0	1	3	5	3	0	3	0	0	1	1	1	1	0	0	0	2	0	0	1	1	1	0	0	0	1	0	0	2
OTU 10	0	0	1	1	0	0	0	2	0	0	0	0	1	1	0	0	0	3	0	0	0	69	3	0	9	2	0	0	0	0	0	0	0	0	0	4	0	0	0	1	1	0	0	1	3	0	0	3	0	2
OTU 11	0	0	0	0	2	0	0	0	1	0	1	0	0	0	0	3	1	1	0	0	0	0	0	0	2	1	0	0	6	1	0	0	0	0	1	0	0	0	1	0	0	0	1	0	1	1	0	0	8	0
OTU 12	0	1	0	5	4	1	0	2	0	1	0	1	0	2	1	2	0	0	2	37	0	0	0	1	0	0	6	0	0	0	1	0	0	0	0	0	0	0	3	0	3	3	181	2	7	3	4	5	57	2
OTU 13	0	0	0	0	0	0	0	0	0	0	0	0	0	0	0	1	0	0	0	0	0	0	4	0	7	6	0	0	0	0	0	0	0	0	0	0	1	0	0	0	0	0	0	0	0	0	0	0	0	0
OTU 14	0	1	1	1	0	0	10	0	6	0	0	0	2	2	1	0	0	0	0	0	0	0	0	0	1	2	0	0	0	0	0	0	0	0	0	0	0	0	0	1	0	0	0	1	0	0	1	6	1	0
OTU 15	0	0	0	0	0	0	0	0	0	0	0	0	0	0	3	0	0	0	0	0	0	0	0	0	0	0	0	1	0	0	0	0	0	0	0	0	0	0	0	1	0	0	1	0	0	0	0	0	0	0
OTU 16	0	0	4	0	1	0	0	0	0	0	0	0	0	0	2	0	0	0	0	0	0	0	0	0	0	0	0	0	0	0	0	0	0	0	0	0	0	0	0	0	0	0	0	0	0	1	0	0	0	0
OTU 17	1	1	2	1	1	0	0	1	1	1	0	0	1	0	0	0	1	0	1	0	1	0	4	1	5	4	0	1	0	0	2	0	0	0	0	0	0	0	0	0	0	0	0	3	3	1	0	4	0	1
OTU 18	1	0	1	2	3	1	2	2	0	3	8	2	3	2	2	0	0	4	4	0	0	2	1	0	0	0	0	0	4	0	4	1	1	1	0	0	13	0	12	1	0	3	0	0	2	5	11	1	5	1
OTU 19	0	0	0	0	0	0	0	0	0	0	0	0	0	0	0	0	0	0	0	0	0	0	0	0	3	0	0	0	0	0	0	0	0	0	0	0	0	0	0	0	0	0	0	0	0	0	0	0	0	0
OTU 20	0	3	2	1	1	5	2	0	0	0	1	0	1	2	0	1	0	0	0	0	0	3	0	1	0	0	6	4	0	0	12	0	0	0	0	1	0	0	1	1	3	1	0	1	0	1	3	0	0	1
OTU 21	4	3	2	0	0	0	1	0	1	1	0	1	5	0	2	0	0	0	1	0	3	0	0	4	0	1	3	1	1	0	0	0	0	5	1	0	0	0	0	0	0	0	2	0	1	0	5	0	0	1
OTU 22	3	0	0	1	0	1	0	1	0	0	1	0	1	1	2	0	0	0	0	0	0	0	1	0	0	0	0	3	1	0	2	2	0	1	0	0	2	3	1	0	0	1	0	0	0	0	8	3	1	0
OTU 23	2	0	27	3	0	0	0	1	0	0	7	6	4	0	51	8	1	0	0	3	0	2	4	0	0	0	0	0	6	0	1	1	0	0	1	0	0	0	20	0	0	0	1	0	0	0	6	0	0	0
OTU 24	0	8	153	0	0	0	0	0	0	0	1	1	0	1	0	0	0	0	0	2	0	0	0	0	4	1	0	0	0	0	0	0	0	0	0	0	1	1	2	0	0	1	0	0	2	0	0	0	1	0
OTU 25	0	0	0	0	0	0	0	0	0	0	0	0	0	0	0	0	1	0	0	0	0	0	0	0	0	0	0	0	0	0	0	0	0	0	0	0	0	0	0	0	0	0	0	0	0	0	0	0	0	0
OTU 26	0	1	0	1	0	1	0	0	0	0	0	97	0	0	0	2	0	0	0	0	0	0	0	0	0	0	0	0	0	0	0	0	0	0	0	0	0	0	2	0	0	0	0	0	0	0	1	9	4	0
OTU 27	0	0	0	0	0	0	0	0	0	0	0	0	0	0	0	0	0	0	0	0	0	0	0	0	0	0	0	0	0	0	0	0	0	0	0	0	0	0	0	0	0	0	0	0	0	0	0	1	0	0
OTU 28	10	2	6	4	0	2	175	4	2	8	0	1	2	3	0	0	2	2	0	0	0	2	0	0	0	0	4	1	1	0	2	4	0	1	2	0	1	0	0	0	3	0	0	0	2	0	5	0	3	2
OTU 29	0	2	0	1	0	51	62	1	1	0	1	1	1	0	0	5	33	6	0	6	36	0	17	0	1	1	1	0	0	26	1	62	77	53	2	2	17	72	0	0	129	1	1	33	1	2	1	0	1	3
OTU 30	0	0	0	0	0	0	0	0	0	0	0	0	0	0	0	0	0	0	0	0	0	0	0	0	0	0	0	0	0	0	0	0	0	0	0	0	0	0	0	0	0	0	0	0	0	0	0	1	0	0
OTU 31	0	0	0	0	0	2	0	0	4	0	0	0	0	0	0	0	2	0	0	0	0	0	1	1	0	0	0	1	0	2	0	4	0	1	67	0	0	1	0	0	0	0	0	1	0	1	0	0	0	0
OTU 32	6	4	0	1	9	7	5	2	17	1	2	0	4	4	22	5	8	1	1	5	5	1	20	15	1	1	36	0	0	2	1	10	8	12	1	7	2	16	1	0	16	5	8	5	1	6	0	0	3	1
OTU 33	0	0	0	0	0	0	0	0	0	0	0	0	0	0	0	0	0	0	0	0	0	0	0	0	0	0	0	0	0	0	0	0	0	0	0	0	0	0	0	0	0	0	0	0	0	0	0	0	2	0
OTU 34	0	0	2	3	3	4	0	1	0	1	1	0	2	3	1	1	0	0	0	0	2	3	0	0	1	0	8	0	1	0	0	1	0	1	0	0	0	0	0	0	8	0	1	0	0	0	2	0	1	2
OTU 35	3	0	2	1	0	0	0	1	6	0	16	0	0	0	2	1	0	0	0	2	0	0	0	0	0	0	2	3	1	2	0	0	0	0	1	0	1	1	10	1	4	1	0	1	0	0	2	0	0	1
OTU 36	0	7	1	1	0	0	0	0	1	1	0	15	0	1	1	3	1	1	0	0	0	0	1	0	1	0	0	0	0	0	0	0	0	0	0	1	0	0	0	1	1	2	0	0	0	0	1	4	0	2
OTU 37	1	0	1	0	0	0	0	0	0	0	0	0	0	0	0	2	0	0	0	0	0	0	0	0	3	0	1	0	0	0	0	2	0	0	1	4	0	0	0	0	0	0	0	0	1	0	0	0	0	0
OTU 38	3	2	0	0	4	2	0	0	5	0	0	1	0	2	0	0	0	0	0	0	0	0	1	0	1	0	4	0	0	26	5	0	1	0	0	0	0	2	1	1	0	2	0	0	0	0	0	0	0	4
OTU 39	0	1	0	1	0	0	0	0	0	0	0	1	0	0	0	0	0	0	0	0	0	0	0	2	0	0	4	0	0	2	6	0	0	0	0	1	0	0	0	0	0	0	1	0	0	0	0	0	2	0
OTU 40	0	1	3	0	0	0	4	0	0	0	3	4	10	6	0	4	0	3	0	0	1	0	7	1	7	5	3	0	0	0	0	1	1	1	0	60	0	0	0	1	3	0	1	0	20	1	5	0	0	6
OTU 41	0	0	1	1	0	0	1	1	0	4	0	0	0	0	0	0	0	3	0	0	0	2	0	2	0	4	0	0	0	0	0	0	2	0	0	2	0	2	1	8	1	0	0	0	0	0	1	1	2	0
OTU 42	0	0	0	2	0	0	0	0	0	1	0	4	0	0	0	8	0	0	0	0	0	0	1	0	0	0	0	0	0	0	0	0	0	0	0	0	0	0	0	0	0	0	0	0	5	1	0	0	5	0
OTU 43	0	0	0	0	0	0	0	0	0	0	0	0	0	0	0	0	0	0	0	0	0	0	0	0	0	0	0	0	0	0	0	0	0	0	0	0	0	0	0	55	0	0	0	0	0	0	0	0	0	0
OTU 44	0	0	0	1	0	0	0	1	2	0	0	0	0	0	0	0	0	0	0	0	1	0	1	0	0	0	0	0	0	0	0	0	0	0	0	0	0	0	0	0	0	0	0	1	0	0	91	0	0	0
OTU 45	2	5	3	0	0	1	0	0	1	6	3	0	1	3	0	2	0	0	1	1	0	0	5	3	0	1	1	3	0	0	0	0	0	0	2	0	0	0	5	0	0	2	0	0	5	0	0	4	0	6
OTU 46	23	4	2	0	1	0	0	3	1	2	0	3	0	0	7	2	0	7	0	1	0	0	0	1	0	0	0	1	2	0	1	1	2	0	0	0	4	0	5	0	0	0	0	0	20	1	0	17	1	11
OTU 47	0	0	0	0	0	0	0	0	0	0	0	0	0	0	0	0	0	2	0	0	74	0	2	1	0	0	0	0	0	0	0	0	0	0	1	0	0	1	2	0	0	0	0	0	0	0	0	1	0	0
OTU 48	3	1	2	3	2	0	0	1	4	2	2	2	1	2	1	1	1	3	61	0	0	2	1	0	1	0	3	1	2	1	0	0	0	1	0	1	1	2	0	0	0	0	3	1	2	117	3	0	0	1
OTU 49	4	0	6	0	1	0	0	0	2	1	0	1	0	2	1	0	0	0	0	1	0	2	1	0	0	0	1	0	0	0	0	0	0	0	0	0	0	0	0	0	0	0	0	1	0	1	0	3	0	0
OTU 50	5	0	0	1	2	3	2	123	0	4	1	0	0	6	1	1	3	0	3	0	0	0	1	2	3	2	3	7	1	0	4	1	1	0	1	1	1	0	1	0	0	3	2	0	0	2	2	7	4	0
OTU 51	0	4	1	6	0	0	0	3	18	2	0	0	0	2	0	0	38	0	1	0	0	0	0	0	0	1	0	0	0	0	10	0	0	0	2	0	21	57	0	2	1	1	0	1	1	0	0	1	0	4
OTU 52	1	5	5	0	30	1	0	17	5	5	0	0	3	7	1	0	3	2	1	1	0	2	41	1	7	1	7	0	0	0	4	1	0	0	2	5	0	1	1	0	1	7	1	0	2	2	4	3	2	4
OTU 53	0	0	0	0	0	0	0	0	0	0	0	0	0	0	0	0	0	0	0	0	0	0	0	0	0	0	0	0	0	0	0	0	0	0	0	0	0	1	0	0	0	0	0	0	0	0	0	0	0	0
OTU 54	10	0	2	2	18	1	2	0	2	2	0	4	5	0	5	1	1	0	20	53	1	3	3	0	6	2	4	0	0	1	4	0	1	1	2	5	0	0	1	0	1	0	0	1	0	5	6	2	76	2
OTU 55	0	0	0	0	0	0	0	0	0	0	0	0	0	0	0	0	0	0	0	0	0	0	0	0	0	0	0	0	0	0	0	0	0	0	0	0	0	0	0	0	0	0	0	0	0	0	0	0	0	0
OTU 56	0	0	0	1	1	0	0	0	0	0	0	0	0	0	0	0	0	0	0	0	0	0	0	0	0	0	1	0	0	0	0	0	0	0	1	0	0	0	0	0	0	0	0	2	1	0	0	0	0	0
OTU 57	3	2	2	2	0	1	1	0	0	0	3	5	19	2	1	9	0	3	1	1	0	2	33	5	4	2	3	49	5	0	15	1	32	0	0	1	0	0	0	3	2	1	1	0	2	2	4	0	2	5
OTU 58	1	2	0	0	0	0	0	0	0	1	1	0	0	4	1	0	0	1	0	1	0	0	0	0	5	42	0	0	1	0	0	0	1	0	0	0	0	0	10	0	0	1	0	0	0	0	3	2	0	3
OTU 59	1	0	0	0	2	1	3	0	0	1	6	1	0	0	0	0	0	2	1	0	0	0	0	44	0	0	0	2	0	0	0	1	0	2	3	22	0	0	0	0	2	1	18	0	0	0	5	0	0	0
OTU 60	0	1	0	0	5	1	1	0	4	0	0	1	5	2	1	1	0	0	2	0	0	0	8	22	6	2	0	0	1	0	3	2	0	1	0	20	0	3	0	0	0	3	10	1	6	4	5	1	0	2
OTU 61	2	3	0	2	8	0	1	0	3	2	1	0	1	11	2	4	5	17	0	10	2	3	5	0	2	1	2	11	1	5	17	4	2	3	2	0	0	6	2	0	3	11	0	5	4	0	6	4	0	2
OTU 62	0	1	0	0	0	0	2	0	0	0	4	0	0	0	1	2	0	0	1	0	0	0	0	0	0	0	0	0	1	0	0	1	1	2	0	0	0	0	9	0	2	0	6	0	0	1	0	0	0	0
OTU 63	0	0	0	0	1	0	0	0	1	0	0	0	0	0	98	0	0	0	19	0	0	0	0	1	0	0	0	0	0	0	0	0	0	0	0	1	0	0	2	5	0	0	4	0	0	39	0	0	0	1
OTU 64	2	53	1	2	0	0	0	1	3	4	3	4	1	1	2	8	3	0	1	3	0	0	0	0	1	0	0	51	1	0	3	1	2	1	0	0	0	1	1	0	3	0	0	0	20	1	4	8	10	4
OTU 65	0	0	0	0	0	0	0	0	0	0	0	0	0	0	2	0	0	0	0	0	0	0	0	0	0	0	0	0	0	0	0	0	0	0	0	0	0	0	0	0	0	0	0	0	0	0	0	1	0	0
OTU 66	11	3	0	0	5	1	6	2	0	0	3	1	2	0	2	3	1	4	6	136	1	4	2	0	1	1	1	1	0	0	0	0	1	2	1	0	4	2	0	2	3	3	0	1	5	7	0	0	0	0
OTU 67	0	2	1	0	1	0	0	0	0	3	1	0	10	0	0	1	1	0	0	0	0	1	0	0	6	6	2	1	0	0	1	0	0	0	0	0	0	0	0	0	0	1	0	0	2	0	0	1	0	0
OTU 68	2	0	0	0	1	0	0	0	0	0	0	2	0	0	0	1	0	0	0	1	0	0	0	0	2	2	0	0	20	0	1	2	0	0	0	0	0	0	0	1	0	0	0	0	0	0	0	0	0	0
OTU 69	0	0	8	1	2	1	0	0	0	2	18	0	4	0	21	1	1	1	0	0	0	1	3	0	0	0	0	0	1	0	1	1	0	0	1	0	0	0	13	2	0	0	0	0	4	5	7	11	11	2
OTU 70	1	0	0	0	0	11	7	0	1	0	0	0	2	1	2	0	4	0	2	0	6	0	0	6	0	0	1	0	0	4	0	10	10	13	0	0	2	1	0	1	18	0	2	1	1	0	1	0	0	0
OTU 71	0	0	1	0	0	1	0	1	0	0	0	5	0	0	1	13	1	0	0	2	1	0	3	0	0	0	1	2	0	2	0	0	1	0	0	0	0	2	0	2	1	1	0	2	0	0	0	0	0	1
OTU 72	9	0	1	20	0	0	0	1	0	4	1	0	0	40	2	0	0	19	0	2	1	12	1	0	0	0	3	0	0	0	1	0	0	0	16	1	0	0	16	0	0	11	0	0	6	1	3	2	0	1
OTU 73	1	0	0	0	3	3	0	4	2	3	8	2	0	2	0	6	0	0	0	0	0	2	1	2	1	1	4	0	0	0	0	0	0	0	0	1	0	0	12	2	0	3	0	0	3	0	0	0	2	5
OTU 74	0	1	3	0	0	0	3	4	0	2	0	3	6	40	0	2	2	4	0	0	0	21	0	0	12	4	6	0	1	1	5	0	2	3	0	2	0	1	1	1	4	6	1	0	1	3	0	0	0	0
OTU 75	2	3	1	1	1	0	0	2	2	3	0	1	8	1	1	0	0	8	130	23	0	0	12	3	35	7	12	0	2	0	0	2	0	0	1	2	2	0	1	4	1	0	0	2	0	7	5	2	13	0
OTU 76	0	5	0	0	0	0	0	0	3	0	1	0	0	1	4	0	0	0	0	0	0	2	0	0	0	0	0	0	0	0	0	0	0	0	0	0	0	0	6	0	0	0	0	0	0	1	0	0	0	1
OTU 77	0	0	4	0	6	0	0	0	3	0	1	0	1	0	0	2	0	1	0	1	2	0	4	2	3	0	7	0	5	1	0	1	0	5	0	0	0	0	0	0	3	2	1	1	1	1	0	1	1	0
OTU 78	0	0	2	0	0	0	3	11	0	20	2	4	3	0	1	3	0	0	1	0	0	0	0	2	3	1	3	0	0	0	14	3	1	0	2	0	0	0	0	0	3	0	0	0	0	0	0	4	0	0
OTU 79	5	0	18	7	9	1	1	0	15	4	6	1	7	11	1	5	1	20	1	4	10	16	23	5	9	4	6	1	1	1	2	2	1	18	14	3	7	4	0	3	7	21	4	2	16	1	2	3	0	11
OTU 80	0	0	0	0	0	18	21	1	1	10	0	3	4	0	0	3	16	7	1	3	10	0	4	3	8	4	9	69	0	17	1	30	25	25	1	4	3	22	0	4	45	1	4	20	4	1	0	2	16	3
OTU 81	10	118	0	0	1	1	0	0	1	6	1	0	0	1	0	1	6	9	5	1	0	0	2	3	0	0	5	4	48	0	19	0	0	2	0	1	1	0	7	3	0	0	2	0	9	3	6	1	3	0
OTU 82	4	0	1	0	0	0	2	0	0	0	3	0	3	2	0	0	4	0	0	2	2	0	0	1	0	0	0	0	0	0	0	0	1	1	1	1	2	0	2	12	2	2	0	0	0	3	5	1	0	7
OTU 83	0	0	0	0	0	0	0	1	0	0	0	0	0	0	0	0	0	0	1	0	0	0	0	0	0	0	4	1	0	0	0	0	0	0	0	0	0	0	0	0	0	1	0	0	0	0	6	0	0	0
OTU 84	0	0	8	0	1	0	0	0	0	0	1	0	0	0	8	0	0	0	0	0	0	0	0	2	0	0	0	0	3	0	1	0	1	0	0	2	0	0	6	2	0	0	2	0	4	1	0	0	0	0
OTU 85	2	0	2	0	2	0	0	0	0	0	0	0	0	1	0	0	0	0	0	0	0	0	1	0	0	0	0	0	0	0	0	0	0	0	0	0	0	1	1	0	0	0	0	0	0	0	0	0	0	0
OTU 86	0	0	0	0	0	0	0	0	0	0	0	0	0	0	0	0	0	0	0	0	0	0	0	0	0	0	0	0	0	0	0	0	0	0	0	0	0	0	0	0	0	0	0	0	0	0	0	0	0	0
OTU 87	1	0	0	0	10	1	0	1	0	1	0	0	1	0	1	5	0	0	0	1	0	0	3	0	0	0	0	2	142	0	4	0	1	1	0	0	0	1	1	3	1	2	0	0	0	1	0	1	0	13
OTU 88	0	0	0	0	0	0	1	0	0	0	0	1	0	0	0	0	0	0	0	0	0	0	0	0	0	1	0	0	0	0	0	0	0	0	0	0	0	0	0	0	0	0	0	1	0	0	0	2	0	0
OTU 89	0	0	0	0	0	0	0	0	0	2	0	0	0	0	0	0	0	2	1	0	0	0	0	2	2	1	0	0	0	0	2	0	0	0	0	1	0	0	0	1	0	0	2	0	0	1	0	0	0	0
OTU 90	0	0	0	0	0	0	0	0	0	0	0	0	0	0	0	0	0	0	0	0	0	0	0	0	0	0	0	0	0	0	0	0	0	0	0	0	0	0	0	0	0	0	0	0	0	0	0	0	0	0
OTU 91	0	0	0	0	0	0	0	6	0	0	0	0	0	0	2	0	0	0	0	0	0	0	0	0	1	0	0	0	0	0	2	0	0	0	0	0	0	0	0	0	0	0	0	0	2	0	0	0	1	0
OTU 92	3	0	0	0	4	0	0	0	0	2	0	0	0	0	0	0	0	1	0	0	0	3	0	2	5	1	0	0	0	0	3	0	0	0	0	1	0	0	0	0	0	0	1	0	0	0	0	0	0	0
OTU 93	0	1	0	0	1	0	0	0	0	0	0	0	0	0	0	0	0	0	0	0	0	0	0	0	0	0	3	1	1	0	0	0	0	0	0	0	0	0	1	0	0	0	0	0	0	0	0	0	0	0
OTU 94	4	0	1	0	0	0	0	4	2	2	2	2	0	0	0	0	0	3	4	1	0	0	0	1	4	0	10	0	3	0	3	1	0	0	0	0	0	0	1	2	0	3	0	0	0	2	0	1	9	2
OTU 95	0	0	0	0	0	0	0	27	0	51	1	0	0	0	0	4	1	0	1	0	0	0	0	2	1	2	0	0	0	0	11	0	0	0	0	0	2	0	3	0	0	0	0	0	0	0	1	0	1	0
OTU 96	0	0	0	0	0	0	0	0	0	0	0	0	0	0	0	0	0	0	0	0	0	0	0	0	0	0	0	0	0	0	0	0	0	0	1	0	0	0	0	0	0	0	0	0	0	0	0	0	0	0
OTU 97	0	0	2	0	0	0	0	0	0	0	0	0	0	0	0	0	0	0	0	13	0	0	1	0	0	0	0	0	0	0	2	0	0	0	0	0	0	0	0	0	0	0	0	0	0	0	0	0	5	0
OTU 98	2	2	0	0	0	0	0	0	1	0	0	0	0	0	0	1	0	0	1	0	0	0	0	1	0	0	0	1	0	0	0	0	0	0	0	6	0	0	0	0	0	0	2	0	5	0	0	0	0	0
OTU 99	5	2	2	1	0	2	0	2	6	4	0	5	7	0	0	0	40	0	0	1	0	0	0	4	3	2	6	1	0	0	1	1	0	0	6	0	9	0	2	1	1	3	0	0	1	3	2	5	0	5
OTU 100	0	6	2	1	0	0	1	0	0	0	0	0	3	1	0	0	0	2	1	0	0	0	0	0	4	4	1	6	0	0	0	0	0	0	0	0	0	1	0	4	0	0	1	0	0	3	0	1	1	22
OTU 101	1	0	0	0	0	0	0	0	0	0	0	0	0	0	0	0	0	1	0	0	0	5	0	0	1	0	0	0	0	0	0	0	0	0	0	0	0	0	0	0	0	0	0	0	0	0	1	0	0	0
OTU 102	0	0	0	2	2	0	0	1	0	0	0	0	3	0	0	0	1	1	0	0	0	0	0	1	0	0	0	0	0	0	0	0	0	0	1	1	0	0	0	0	0	11	0	0	0	0	1	0	1	0
OTU 103	2	7	0	2	0	0	0	3	1	2	0	0	0	0	1	0	0	104	0	0	0	0	1	0	0	0	5	2	0	0	0	0	0	0	1	0	0	0	0	0	0	0	0	0	0	0	8	3	0	3
OTU 104	47	4	1	1	6	4	0	1	2	0	0	0	4	4	5	0	0	0	5	1	0	1	3	0	3	3	2	1	3	3	0	5	1	0	5	2	0	0	2	0	1	1	2	0	4	3	2	7	0	0
OTU 105	0	0	0	0	0	0	1	0	0	0	0	0	0	1	0	0	0	4	1	1	0	1	3	1	2	0	7	0	0	0	0	0	0	0	0	3	0	0	0	0	0	0	1	1	0	2	0	0	0	0
OTU 106	0	0	0	1	0	0	0	1	0	0	2	0	0	1	1	0	2	0	1	3	0	0	0	0	1	0	2	0	0	0	0	0	0	0	0	0	0	0	0	0	0	0	0	0	4	0	0	0	0	0
OTU 107	4	0	0	0	0	0	0	0	0	0	0	0	0	0	1	0	1	1	0	0	0	0	0	1	3	1	1	0	1	0	0	0	0	0	0	0	0	0	0	0	0	0	0	0	0	0	0	23	0	1
OTU 108	0	0	0	1	0	0	0	1	0	4	3	0	0	0	0	0	0	3	0	1	0	0	4	1	0	0	0	0	0	0	1	0	0	0	0	0	0	0	0	6	0	1	0	0	4	0	0	0	0	0
OTU 109	0	0	0	0	0	0	0	0	0	0	0	0	0	0	0	0	0	0	0	0	0	0	0	0	0	0	0	0	0	0	0	0	0	0	0	0	0	0	0	0	0	0	0	0	0	0	0	0	0	0
OTU 110	1	0	1	0	0	1	1	4	8	2	0	0	4	0	2	2	0	2	0	1	0	1	0	6	0	0	13	1	0	1	1	2	0	0	7	5	0	0	3	3	1	4	3	1	4	1	0	1	0	4
OTU 111	0	0	0	0	0	0	0	0	0	0	0	0	10	0	0	0	0	0	0	0	0	0	0	0	0	0	1	0	0	0	1	0	0	0	0	0	0	0	0	0	0	0	0	0	0	0	0	0	0	0
OTU 112	1	0	2	2	0	0	0	1	0	0	0	0	3	0	0	0	0	0	19	0	0	0	0	53	2	0	0	0	1	1	0	4	0	0	0	27	0	0	0	0	0	0	19	1	2	54	3	0	0	0
OTU 113	0	0	0	0	0	0	0	0	0	0	0	0	0	0	0	0	0	0	0	0	0	0	0	0	0	0	0	0	0	0	0	0	0	0	0	0	0	0	3	0	0	0	0	0	0	0	0	0	0	0
OTU 114	3	0	6	4	7	1	1	10	4	5	1	1	4	1	4	6	3	2	0	0	0	2	6	5	1	1	4	1	3	0	8	0	0	1	2	0	1	0	3	7	0	3	2	0	1	1	0	1	0	0
OTU 115	0	1	6	2	2	0	1	1	0	9	3	6	2	6	4	18	0	1	4	0	0	36	2	2	8	4	1	2	0	2	5	1	1	0	0	1	0	0	7	4	0	1	0	0	6	7	0	2	2	7
OTU 116	0	1	4	0	5	0	0	0	0	2	0	1	0	3	0	2	1	0	2	0	0	3	6	1	0	0	0	2	1	2	4	9	0	1	0	1	0	0	3	1	0	0	2	0	2	9	4	2	6	0
OTU 117	0	0	0	0	0	1	1	0	0	2	0	23	0	1	1	1	0	1	1	2	1	0	2	0	2	3	0	0	0	0	1	0	0	0	0	1	0	0	0	3	1	0	1	0	1	1	1	0	0	2
OTU 118	0	0	1	1	3	0	0	0	0	0	0	0	3	0	0	0	0	0	1	0	1	0	0	5	0	0	0	0	0	0	3	0	0	0	0	0	0	0	0	0	1	0	3	0	0	0	0	0	0	0
OTU 119	0	0	1	0	3	1	0	1	0	0	2	0	8	1	3	2	0	0	0	1	0	0	2	2	0	1	2	0	0	1	0	0	2	1	0	0	19	1	1	0	1	0	2	0	6	2	4	3	0	0
OTU 120	0	2	8	0	0	0	1	7	0	2	0	3	0	0	11	2	1	0	0	2	0	0	0	0	0	2	0	0	0	0	0	0	0	0	0	0	0	0	5	3	0	1	0	0	0	0	0	0	0	0
OTU 121	1	0	0	4	0	1	0	1	0	1	0	0	1	0	0	4	1	1	0	0	0	0	0	0	0	0	2	0	0	147	0	1	0	0	1	1	0	2	0	1	0	2	0	0	0	1	0	0	0	2
OTU 122	1	0	0	2	0	1	1	2	2	1	4	1	2	0	1	1	2	2	0	0	0	1	5	0	4	6	2	0	0	0	0	0	1	1	0	0	0	3	0	1	1	3	0	0	0	1	1	1	0	1
OTU 123	17	13	1	47	8	4	2	11	10	23	1	11	3	4	10	24	2	0	2	4	1	0	13	12	12	2	20	4	2	2	4	3	0	0	1	2	0	5	9	4	6	2	2	3	18	2	4	11	2	3
OTU 124	0	0	0	0	1	0	0	0	1	1	1	0	0	0	0	0	0	1	1	0	0	0	0	0	0	0	0	0	1	0	0	0	0	0	0	0	0	0	3	0	0	2	0	0	1	1	6	0	0	0
OTU 125	4	7	2	17	5	1	0	14	3	32	1	0	23	11	10	2	1	3	2	4	1	2	4	3	18	12	5	6	1	5	22	3	0	1	2	4	1	1	6	4	0	3	2	1	20	2	21	5	2	4
OTU 126	0	0	2	0	3	0	0	0	0	0	1	0	0	0	0	0	0	0	1	0	0	0	0	1	0	0	0	0	0	0	1	0	0	0	0	0	0	0	0	0	0	1	0	0	0	0	0	0	0	0
OTU 127	0	1	7	0	0	30	0	0	0	4	1	0	1	1	0	1	0	0	1	1	0	1	0	0	0	0	1	0	0	0	0	0	0	0	0	0	0	0	0	0	2	0	1	1	0	4	0	0	1	0
OTU 128	4	11	6	4	7	3	10	10	54	3	4	3	8	2	6	12	1	5	9	6	8	0	7	15	17	118	19	2	25	2	12	0	4	4	10	3	119	5	3	11	13	2	6	2	5	11	2	7	0	24
OTU 129	0	0	0	0	0	0	0	0	0	0	0	0	0	3	0	0	0	0	0	0	0	1	0	0	0	1	1	0	0	0	0	0	0	0	0	0	0	0	0	0	0	0	0	0	0	0	1	0	2	0
OTU 130	0	0	0	1	0	0	0	0	2	0	2	1	0	2	0	2	0	2	0	0	0	0	0	0	0	0	2	0	0	1	2	0	0	0	2	0	0	2	0	0	0	4	0	0	3	3	0	0	7	2
OTU 131	0	0	3	0	2	0	0	1	0	5	2	0	1	3	1	0	5	1	2	0	0	1	4	0	1	0	3	3	9	0	3	1	0	0	0	0	5	0	6	3	0	5	0	0	0	1	2	15	0	0
OTU 132	5	0	0	0	0	0	1	0	4	0	1	0	1	1	1	1	1	0	1	2	0	0	2	0	0	0	0	0	0	0	0	0	0	0	0	1	0	0	0	0	0	3	0	0	0	0	1	0	0	0
OTU 133	0	0	0	0	0	0	0	0	0	0	0	0	0	0	0	0	0	13	0	0	0	0	0	0	0	0	1	0	0	0	0	0	0	0	0	0	0	2	0	0	0	1	0	0	0	1	0	0	0	0
OTU 134	5	0	0	1	1	6	6	2	1	1	0	0	1	1	7	0	0	0	0	1	0	0	2	3	2	2	3	1	1	1	62	1	3	0	1	1	1	1	2	0	6	0	0	0	0	0	4	0	0	2
OTU 135	3	1	1	4	0	0	0	0	1	1	0	26	0	1	0	21	1	0	0	0	0	1	0	10	0	0	4	0	1	0	1	3	2	0	0	2	1	3	1	0	1	4	3	2	5	0	4	2	2	0
OTU 136	0	0	1	0	0	1	0	0	0	0	8	1	1	2	1	0	0	0	0	0	0	2	2	0	0	0	0	0	2	1	1	0	0	0	6	0	0	3	3	0	0	24	1	0	1	0	0	1	0	1
OTU 137	2	0	0	0	2	0	0	1	0	0	0	0	0	0	0	0	0	0	0	0	0	0	0	0	3	0	1	0	0	0	0	0	0	0	0	0	1	0	0	0	0	0	0	0	0	0	0	2	2	0
OTU 138	0	0	1	4	0	3	0	7	0	15	6	0	0	1	2	0	0	0	0	0	0	0	0	0	0	0	0	0	0	0	1	0	0	0	0	2	0	0	0	0	1	0	0	0	3	0	10	2	0	0
OTU 139	7	1	0	3	6	1	4	3	0	11	1	1	2	1	2	9	3	1	3	2	0	3	8	5	4	2	5	1	2	0	3	0	0	4	5	17	4	1	4	0	2	7	5	2	0	1	0	2	4	0
OTU 140	13	1	5	1	1	3	3	4	5	3	3	2	1	2	1	2	3	0	0	2	0	2	3	11	1	1	7	14	0	2	42	1	1	0	2	4	1	1	0	6	5	3	12	1	17	2	2	11	10	6
OTU 141	0	0	0	0	0	0	0	2	0	0	0	0	0	0	0	0	0	0	0	0	0	0	0	0	0	0	0	0	0	0	0	0	0	0	0	0	0	0	0	0	0	0	0	0	0	0	0	0	0	0
OTU 142	0	0	0	0	3	0	0	0	0	0	0	0	0	1	0	0	0	0	0	0	0	0	0	0	2	0	0	2	0	0	0	0	0	0	0	0	0	0	0	0	0	0	0	0	0	0	0	0	2	0
OTU 143	0	1	0	0	0	0	0	1	0	0	0	0	0	0	0	1	27	0	3	0	0	0	0	0	0	0	0	0	0	2	0	0	0	0	0	0	22	1	0	0	0	0	0	0	0	0	0	0	0	0
OTU 144	1	0	0	0	1	0	0	3	0	3	0	0	1	0	0	0	0	0	1	0	0	1	0	0	1	0	0	0	0	0	0	0	0	0	0	0	0	0	1	0	1	0	0	0	0	0	0	0	0	2
OTU 145	1	2	0	1	5	1	0	1	6	0	0	2	0	2	0	2	1	0	0	0	1	0	0	2	3	0	2	3	5	0	1	1	0	0	0	3	0	0	0	85	0	1	0	0	4	0	0	4	1	1
OTU 146	0	1	1	7	0	0	1	0	0	0	2	0	6	1	0	0	0	5	1	0	0	0	6	10	7	4	3	0	4	1	0	5	1	0	85	5	0	2	0	0	0	0	0	1	3	1	2	4	3	1
OTU 147	2	0	0	0	0	0	0	0	0	0	0	0	1	0	6	0	0	2	0	0	0	0	1	0	3	1	1	0	0	0	0	0	0	1	1	0	0	0	1	2	0	0	3	0	0	0	0	0	4	0
OTU 148	1	1	0	45	0	0	1	2	1	1	0	0	3	0	6	2	0	1	0	3	0	0	2	0	2	1	7	0	7	2	1	0	0	0	3	0	1	0	0	24	0	0	0	0	0	0	1	14	1	8
OTU 149	0	0	0	0	0	0	2	0	0	5	0	0	12	0	0	0	0	0	0	0	0	1	0	3	0	0	0	0	0	0	2	0	0	0	3	0	0	0	0	0	0	0	1	0	0	2	0	0	0	5
OTU 150	1	0	3	0	0	0	1	0	0	0	0	0	3	0	0	0	0	0	0	0	0	0	2	2	0	0	0	0	0	0	0	0	2	0	0	0	0	1	0	0	2	0	0	0	7	0	0	0	0	0
OTU 151	0	1	0	0	45	0	0	1	39	0	0	12	5	1	0	1	25	1	1	0	0	0	0	1	5	2	0	2	0	0	0	0	0	1	0	0	14	0	0	0	1	0	0	0	0	0	0	4	0	0
OTU 152	2	0	2	0	2	0	0	0	1	0	3	0	0	77	4	0	0	2	0	2	0	32	5	1	9	4	2	0	1	0	3	0	1	1	16	5	3	3	4	0	0	28	2	2	4	0	2	0	0	0
OTU 153	0	0	0	0	0	0	0	0	0	0	0	0	0	0	0	0	0	0	0	0	0	0	0	0	0	0	0	0	0	1	0	5	0	0	0	0	0	0	0	0	0	0	0	0	0	1	0	0	0	0
OTU 154	0	0	0	0	0	0	0	2	0	4	0	0	0	0	0	2	0	0	0	0	0	0	0	0	0	0	0	0	0	0	0	0	0	0	0	0	0	0	0	0	0	0	0	0	0	0	0	0	1	0
OTU 155	0	0	4	0	0	0	0	0	0	0	2	0	0	0	4	2	0	0	0	0	0	0	0	2	0	0	0	0	0	0	3	0	0	0	42	1	0	0	0	0	0	63	1	0	0	0	0	4	4	0
OTU 156	0	1	1	1	2	0	0	1	2	7	3	2	7	2	2	1	1	0	0	0	0	2	0	6	1	1	3	0	0	1	10	0	0	0	0	3	0	0	0	1	0	4	2	1	1	1	2	1	1	1
OTU 157	0	2	0	0	0	0	1	0	0	0	0	0	0	0	0	0	0	0	0	0	0	1	1	0	0	0	0	2	0	0	0	0	4	0	0	0	0	2	1	0	2	0	0	2	0	0	0	0	6	0
OTU 158	0	0	0	0	0	0	0	0	0	0	0	0	0	0	0	0	0	0	0	0	0	0	0	0	0	0	0	0	0	0	0	0	0	1	2	0	0	0	0	0	0	1	0	0	2	0	0	0	0	0
OTU 159	1	3	1	1	0	1	0	0	1	1	0	2	1	0	0	2	0	0	1	2	0	0	0	0	1	1	1	0	1	0	1	1	0	0	1	0	0	0	1	0	2	1	0	1	0	0	0	38	0	0
OTU 160	9	1	0	0	8	4	4	0	8	1	0	7	4	0	4	18	0	9	0	2	2	1	3	5	14	2	4	3	6	0	1	0	7	6	0	0	1	2	3	30	5	2	2	0	0	0	1	18	9	2
OTU 161	0	8	0	0	0	7	4	1	1	3	0	0	0	1	0	0	1	1	0	3	3	3	0	1	0	0	0	0	0	0	2	0	3	1	0	2	1	1	0	0	4	1	3	0	1	0	0	5	5	6
OTU 162	1	1	1	32	0	3	3	2	11	4	18	0	0	1	0	4	0	2	0	0	0	0	4	7	3	3	2	2	0	1	1	1	1	1	4	2	0	0	3	0	5	2	1	0	0	1	0	0	3	2
OTU 163	0	1	0	0	66	0	0	0	0	0	0	0	0	0	0	3	0	0	0	0	0	0	0	0	0	0	0	0	0	0	0	0	0	0	0	0	0	0	0	0	0	0	0	0	0	0	0	0	0	0
OTU 164	0	0	0	0	0	0	0	0	0	0	0	2	0	2	0	4	0	0	0	0	0	0	0	0	0	0	0	0	0	0	0	0	0	0	0	0	0	0	0	0	0	0	0	0	0	0	0	0	0	0
OTU 165	0	0	0	0	0	0	0	5	6	5	0	0	0	0	0	0	0	0	1	0	0	0	0	0	0	0	0	3	0	0	0	0	0	0	3	0	0	3	0	0	0	0	0	0	0	0	0	0	3	0
OTU 166	11	0	0	0	0	0	0	0	0	0	0	0	0	0	0	0	0	0	1	0	0	0	0	0	0	0	0	0	0	0	0	0	0	0	0	0	0	0	0	0	0	0	0	0	0	0	0	0	0	0
OTU 167	1	5	0	0	1	0	0	0	0	2	1	0	3	1	1	0	1	0	0	1	0	9	5	0	0	0	1	0	4	0	0	0	0	0	0	0	1	0	4	0	0	0	0	0	0	0	0	0	0	1
OTU 168	10	0	0	0	0	0	0	0	2	0	0	2	4	0	1	2	2	1	0	0	0	0	1	0	0	0	0	0	1	0	0	0	0	0	3	2	0	1	0	5	0	0	0	0	4	1	3	0	0	1
OTU 169	0	0	0	0	0	0	0	0	0	0	0	2	0	0	0	2	0	0	0	0	0	0	0	0	0	0	0	0	0	0	0	0	0	0	0	0	0	0	2	0	0	0	1	0	0	0	1	0	0	0
OTU 170	0	0	0	0	3	0	0	0	0	0	0	0	0	0	0	0	0	0	0	0	0	0	0	0	0	0	0	0	0	0	0	0	0	0	0	0	0	0	0	0	0	3	0	0	0	0	0	0	0	0
OTU 171	0	0	3	0	0	0	1	0	0	0	0	0	0	0	0	2	0	0	0	1	0	0	0	0	0	0	2	0	2	0	0	0	0	0	0	7	1	0	1	0	0	2	0	0	2	1	2	6	0	0
OTU 172	0	0	0	0	0	0	0	0	3	0	1	0	0	0	0	0	0	6	2	0	0	0	2	1	0	0	1	0	0	0	0	0	0	0	0	2	0	0	5	0	0	0	1	0	0	3	1	0	0	0
OTU 173	0	0	3	0	0	0	0	0	2	1	0	1	0	1	2	2	0	0	0	0	0	0	3	0	0	0	0	0	0	0	0	0	0	0	0	0	0	1	0	0	1	0	0	0	0	0	0	2	1	0
OTU 174	0	0	0	1	1	0	0	0	2	0	0	0	1	0	0	0	26	0	0	0	0	0	7	0	16	9	1	0	0	0	0	0	0	0	0	0	17	67	2	0	0	2	0	0	0	1	6	8	1	1
OTU 175	2	1	0	0	0	0	0	0	2	3	0	1	1	1	0	2	0	0	1	1	0	0	0	0	0	0	0	1	2	1	2	0	0	0	2	1	0	0	0	0	0	0	0	0	0	0	0	0	0	2
OTU 176	0	1	1	3	5	4	0	0	0	0	1	1	3	3	2	3	1	0	0	5	0	1	1	1	9	3	7	1	2	35	2	42	1	1	1	0	1	0	0	0	1	1	0	39	3	3	4	1	0	0
OTU 177	7	5	1	3	6	0	0	0	2	3	100	1	3	1	3	5	1	1	0	6	0	3	0	0	4	4	3	1	1	0	1	1	1	0	5	0	0	3	0	0	0	0	0	0	3	1	0	0	14	4
OTU 178	0	0	0	1	0	0	0	0	0	0	0	0	0	1	1	0	0	0	0	0	0	0	1	0	4	0	0	0	0	0	0	0	0	0	0	0	0	0	0	0	0	0	0	177	6	3	0	1	2	0
OTU 179	0	0	1	0	1	0	0	2	0	4	0	1	0	2	1	5	0	2	0	1	0	0	0	0	0	0	0	0	3	3	0	0	0	0	0	0	0	1	0	0	0	0	0	0	0	0	0	1	0	0
OTU 180	8	1	3	7	1	2	2	7	8	11	4	12	7	4	3	8	0	6	0	3	4	2	9	5	4	3	6	7	0	2	3	0	148	6	6	2	11	3	2	2	4	4	0	1	7	0	15	6	1	4
OTU 181	1	0	0	2	0	139	0	1	0	0	0	0	0	0	0	0	0	3	2	1	0	1	0	0	0	1	1	1	1	0	0	1	0	0	1	1	0	0	1	21	0	0	0	0	6	0	0	0	0	0
OTU 182	0	0	0	0	0	0	0	0	0	0	0	0	0	0	0	0	0	0	0	0	0	0	0	2	1	0	0	0	0	0	0	0	0	0	0	0	0	0	0	0	0	0	0	0	0	0	0	0	0	0
OTU 183	0	12	3	1	4	1	0	5	0	9	0	0	3	1	0	3	0	0	0	0	0	1	0	1	2	3	13	0	0	1	2	0	0	0	1	0	1	0	0	0	1	3	0	2	0	2	0	10	0	2
OTU 184	0	0	0	0	0	1	0	0	0	0	3	1	0	6	0	0	0	1	0	0	0	0	0	4	1	2	0	1	0	17	2	17	0	0	0	0	0	0	0	0	0	0	0	16	0	0	0	0	0	4
OTU 185	0	5	0	25	2	1	0	0	16	1	0	1	4	19	0	2	2	33	2	1	0	17	0	0	3	0	0	3	1	0	0	1	0	0	7	0	0	0	0	0	0	19	0	0	1	3	0	4	0	5
OTU 186	0	0	0	0	1	0	0	0	1	1	0	29	0	0	0	43	0	0	0	0	0	0	0	2	2	2	0	0	0	0	0	0	1	0	0	0	0	0	0	0	0	0	0	0	0	0	0	0	0	0
OTU 187	2	2	3	0	0	1	6	1	1	12	1	1	5	2	3	2	0	0	1	1	1	2	0	1	2	0	0	3	3	0	0	0	0	2	1	87	2	2	0	10	7	1	2	0	3	3	5	1	0	6
OTU 188	8	5	0	0	2	1	0	0	2	0	12	2	18	1	0	8	1	0	3	0	61	0	0	1	2	40	0	2	6	2	0	2	3	153	3	1	0	0	0	0	0	3	0	2	5	4	0	3	0	74
OTU 189	0	3	0	0	2	2	0	0	3	1	0	0	3	8	1	1	1	2	1	0	67	1	1	0	2	1	0	0	4	1	1	5	0	1	0	3	1	0	1	3	0	1	8	0	1	1	4	4	10	0
OTU 190	0	0	0	0	0	0	0	0	0	0	0	0	18	0	0	0	1	0	0	0	0	0	0	1	0	0	0	9	8	0	0	0	0	0	0	0	0	0	0	0	0	0	0	0	0	0	0	4	3	0
OTU 191	7	1	1	1	0	0	0	14	2	2	21	0	1	2	4	0	3	0	1	0	32	3	4	0	2	0	1	0	0	0	3	0	0	0	1	0	0	0	14	1	0	0	1	0	20	0	14	0	2	0
OTU 192	7	2	0	0	3	3	0	2	1	0	4	9	2	0	1	17	1	6	0	3	12	0	14	5	1	1	1	0	0	43	3	100	2	22	1	1	5	9	6	6	1	0	2	35	2	1	3	1	0	8
OTU 193	0	0	1	1	0	0	0	1	2	1	0	0	2	1	0	2	0	1	2	1	0	0	1	2	3	3	1	0	4	0	0	0	0	0	0	0	0	1	3	0	1	5	0	0	0	1	1	1	1	3
OTU 194	5	1	0	0	1	1	0	0	0	0	0	1	0	0	1	1	0	0	0	0	0	2	0	2	0	0	6	0	1	0	0	8	0	0	2	0	0	0	1	0	0	0	1	1	0	1	0	0	0	0
OTU 195	6	0	2	0	5	0	1	0	0	1	1	0	0	0	0	0	0	0	1	0	0	0	0	0	4	0	4	1	0	2	0	0	0	0	0	0	0	0	3	0	0	5	0	1	3	1	9	0	0	1
OTU 196	2	0	2	0	1	0	0	0	8	1	0	0	13	0	0	0	38	2	0	0	7	1	6	1	1	1	0	9	0	1	0	0	0	0	0	0	40	1	6	0	1	5	0	1	3	1	1	6	0	0
OTU 197	12	2	1	0	1	3	2	2	0	2	0	8	0	0	2	2	2	0	1	1	2	0	0	1	1	0	7	2	1	1	1	0	1	5	0	0	0	2	2	0	2	1	0	0	5	3	2	1	8	0
OTU 198	1	0	0	0	7	0	0	0	0	1	0	0	0	0	0	0	0	0	0	1	0	0	1	0	2	1	1	2	0	0	0	0	2	0	0	0	0	0	0	4	0	1	0	0	0	1	0	0	0	0
OTU 199	0	0	1	0	0	0	0	2	0	0	0	3	2	0	0	1	1	3	0	2	0	0	2	0	2	1	1	0	4	3	0	0	0	0	0	0	0	2	0	3	0	0	0	0	1	0	2	0	1	0
OTU 200	0	12	0	0	1	0	0	0	1	0	3	0	0	10	0	0	0	0	1	0	0	1	4	0	4	3	1	0	0	2	0	3	0	0	12	0	0	4	0	0	0	0	0	0	1	2	0	5	0	13
