	Host 1	Host 2	Host 3	Host 4	Host 5	Host 6	Host 7	Host 8	Host 9	Host 10	Host 11	Host 12	Host 13	Host 14	Host 15	Host 16	Host 17	Host 18	Host 19	Host 20	Host 21	Host 22	Host 23	Host 24	Host 25	Host 26	Host 27	Host 28	Host 29	Host 30	Host 31	Host 32	Host 33	Host 34	Host 35	Host 36	Host 37	Host 38	Host 39	Host 40	Host 41	Host 42	Host 43	Host 44	Host 45	Host 46	Host 47	Host 48	Host 49	Host 50	
OTU 1	80	3	28	133	325	181	0	314	75	90	110	7	6	152	105	306	51	4	26	0	16	39	74	19	106	116	347	142	46	148	140	213	25	114	0	83	112	179	82	133	270	252	195	376	79	153	20	137	98	419
OTU 2	5	2	0	2	33	5	1	0	3	0	1	1	4	8	1	26	0	1	4	13	454	34	0	2813	10	0	4	13	0	0	58	0	43	0	16	26	4	51	29	7	9	24	0	12	2	3	125	36	0	0
OTU 3	0	0	24	0	59	0	0	0	2	0	23	11	8	4	0	3	0	14	2	4	15	27	0	0	1	0	0	0	0	7	69	0	0	0	71	5	1	4	0	10	54	0	0	0	8	0	78	26	6	19
OTU 4	0	0	0	1	0	0	0	0	0	0	0	0	0	0	0	0	1	0	0	0	21	0	0	1	0	0	0	0	0	0	0	0	0	0	0	0	0	0	0	0	0	0	0	0	0	0	0	0	0	0
OTU 5	196	463	361	293	0	111	821	540	743	37	12	12	242	836	0	153	1	259	408	132	166	251	180	270	382	359	1803	274	16	1120	765	424	36	657	13	482	468	8	2	445	5	31	358	757	335	54	6	283	508	37
OTU 6	0	53	3	1	0	1399	43	12	147	0	24	20	76	24	1	4	0	57	2	0	3	210	13	0	14	0	43	1	1	44	780	18	21	24	0	0	43	25	9	1	20	0	1	0	845	1	5	7	7	26
OTU 7	56	6	14	26	212	180	59	99	32	93	440	107	11	143	182	12	121	18	14	128	12	6	379	1049	11	41	59	122	66	14	24	12	62	193	393	44	162	71	89	192	47	77	20	90	49	128	102	106	14	36
OTU 8	5	164	957	1743	96	12	336	89	27	91	6	18	89	17	76	53	13	143	24	195	24	78	139	3	69	74	24	21	15	32	232	19	189	40	17	43	141	64	22	25	0	57	95	51	18	123	58	79	11	19
OTU 9	5	43	13	0	0	0	0	0	8	9	41	2	21	9	0	15	1	25	0	0	52	0	13	1	0	0	0	13	0	1	0	20	12	10	3	0	0	0	11	2723	0	19	28	0	2	11	10	0	0	0
OTU 10	0	40	0	0	15	9	10	23	6	7	78	14	3	13	5	0	1	3	5	0	53	1	11	1	18	4	10	0	0	33	4	8	0	4	6	0	29	8	0	0	1	9	2	19	14	0	23	11	0	27
OTU 11	39	14	9	61	14	25	4	23	0	130	79	66	15	11	78	37	97	12	12	157	36	4	1	56	1	10	46	63	48	65	12	13	64	11	100	24	135	1	35	3	0	26	15	55	2	34	87	89	2	64
OTU 12	11	27	123	35	86	61	77	38	0	119	70	78	45	48	0	15	36	36	3	11	221	63	18	25	86	8	20	28	0	1	2	18	25	71	129	11	16	20	105	15	53	30	2	2	39	73	76	32	3	17
OTU 13	0	0	0	30	0	0	0	38	0	0	0	0	0	0	0	0	0	0	0	0	1	0	0	0	0	11	0	0	0	0	0	0	28	0	0	0	0	0	0	0	10	0	0	0	0	0	0	10	13	0
OTU 14	2	4	13	20	24	67	66	4	0	0	74	27	29	4	42	2	0	82	2	3	59	0	1	0	9	0	0	4	24	0	5	41	4	157	42	1	2	23	35	46	0	2	2	3	66	14	0	0	0	0
OTU 15	0	0	0	0	0	0	57	0	0	4	1	0	0	0	0	1	0	0	0	0	2	0	0	0	0	0	0	0	0	0	0	0	0	0	0	0	0	0	3	0	0	0	0	0	0	0	0	1	0	0
OTU 16	0	0	0	0	0	0	0	0	0	0	0	0	0	0	0	0	0	0	0	0	0	0	0	0	0	0	0	0	0	0	0	0	0	0	0	0	0	0	0	0	0	0	0	0	0	0	0	0	0	0
OTU 17	1	31	16	1	14	0	13	0	29	0	12	16	34	18	24	48	3	12	7	116	20	35	0	0	0	25	4	0	8	0	41	13	11	2	414	5	10	4	2	20	14	38	9	1	0	0	54	2	17	28
OTU 18	18	19	4	3	0	3	77	5	0	0	65	99	6	3	18	51	45	289	4	72	288	4	21	25	0	21	4	52	7	2	4	67	12	95	32	3	51	22	2	55	24	59	19	2	7	4	39	13	0	34
OTU 19	0	0	4	0	0	0	2	0	0	0	12	0	0	0	69	0	0	0	0	0	0	0	0	0	0	0	0	0	98	0	0	0	0	0	0	0	0	0	0	0	0	0	0	0	0	0	0	0	0	0
OTU 20	31	56	21	6	22	23	65	41	2	11	157	37	78	3	49	26	15	46	14	19	5	9	6	13	4	16	14	78	14	13	10	0	22	2	30	3	71	9	84	9	2	10	12	2	21	6	22	29	1	1
OTU 21	15	16	72	75	92	459	51	268	15	1	296	131	97	54	85	59	149	1	34	46	0	49	151	80	63	76	45	26	69	21	15	90	84	90	6	66	50	49	65	120	192	76	0	18	254	415	37	160	83	140
OTU 22	30	132	0	2	29	7	144	58	9	7	104	20	120	0	86	153	48	0	1	2015	2	41	49	27	29	35	13	54	87	35	57	44	102	1	96	3	263	0	11	11	56	122	42	88	2	20	17	0	21	97
OTU 23	29	26	14	8	7	15	36	1	2737	29	11	2	15	3	6	2	9	0	5	14	16	0	5	6	81	3	1	44	11	0	0	0	8	114	2	3	0	12	7	3	0	1	14	0	0	8	2	7	1	9
OTU 24	0	0	2	6	3	5	64	0	4	2	305	176	0	32	0	33	1	27	0	0	2	0	0	1	6	1	0	0	0	2	5	7	17	14	16	5	32	0	7	0	0	2	2	8	2	1	0	0	0	19
OTU 25	0	0	0	15	0	0	0	0	0	0	1	0	0	0	0	0	0	0	0	0	1	0	3	0	0	0	0	0	0	0	0	0	0	0	0	0	0	1	0	0	0	2	0	0	0	1	0	0	0	1
OTU 26	0	0	0	13	4	36	0	0	0	0	0	0	14	0	9	0	0	0	0	0	0	0	0	0	0	3	0	2	0	0	51	1	18	0	3	0	0	1	39	0	0	4	0	0	10	5	3	0	0	0
OTU 27	0	0	0	0	0	0	5	0	6	0	0	45	0	0	0	0	17	0	0	0	0	0	0	8	0	0	0	0	0	0	1	0	0	0	1	0	0	0	0	0	0	0	0	0	0	0	6	0	0	0
OTU 28	8	16	13	32	57	45	59	120	732	15	93	57	75	17	66	35	22	242	17	2	24	1	44	16	8	51	59	15	48	22	94	59	10	36	28	33	8	1	56	21	31	27	18	67	36	8	68	16	14	41
OTU 29	122	15	74	1365	80	566	12	301	39	115	33	17	17	105	431	92	56	26	62	12	8	119	218	33	221	312	158	281	137	12	231	34	95	99	68	17	7	63	55	94	248	103	120	78	185	101	1	66	86	57
OTU 30	0	0	0	0	0	0	0	0	0	0	0	2	0	0	0	0	0	0	0	0	0	0	0	0	0	0	0	0	0	0	0	0	0	0	0	0	0	0	0	0	0	0	0	0	0	0	0	0	0	12
OTU 31	0	0	1	1	11	10	151	6	0	1	0	0	1	82	0	3	1389	0	1	10	0	1	0	714	25	1	53	0	0	1043	66	1	19	8	0	0	14	5	1	2	0	7	23	1	13	0	10	0	4	4
OTU 32	24	102	76	20	11	34	24	159	485	17	40	36	28	13	49	46	44	92	705	8	54	1119	10	28	47	217	9	53	24	13	1332	7	23	11	225	1453	22	10	23	16	13	1	114	96	34	3223	100	2888	9	45
OTU 33	1	2	0	1	0	0	0	0	0	3	0	0	0	1	0	52	0	0	0	0	0	0	0	0	0	0	0	1	0	0	0	0	0	2	0	0	0	4	0	0	0	0	0	0	0	0	2	0	0	0
OTU 34	5	95	40	7	15	2	39	1	39	36	72	48	302	1	46	177	138	7	0	133	55	0	11	61	16	0	0	16	9	15	24	18	98	0	46	4	609	6	3	8	64	11	3	20	12	8	9	2	15	73
OTU 35	10	2	3	33	0	13	190	69	13	17	104	122	0	5	28	18	8	8	0	7	0	1	0	2	40	41	4	55	10	23	17	23	111	3	1	11	55	0	127	2	31	25	0	39	8	9	32	12	11	17
OTU 36	6	4	7	0	28	19	15	184	6	13	180	38	84	4	38	13	8	0	12	6	34	13	111	7	2	84	34	16	13	2	112	21	43	5	18	13	2	58	167	17	135	17	4	50	25	11	135	19	48	36
OTU 37	0	0	0	0	0	11	0	23	0	0	2	1	0	0	3	14	1	0	3	250	13	0	5	0	0	0	0	0	0	5	7	0	0	0	0	0	13	0	61	6	8	0	0	0	0	7	1	0	1	0
OTU 38	1	70	25	3	82	32	49	1	1	5	5	46	0	0	35	18	7	7	777	260	0	7	225	5	4	2	61	6	22	5	10	34	29	2	82	1410	22	79	134	23	29	7	41	56	11	17	13	34	17	34
OTU 39	82	29	4	4	0	0	11	0	0	45	36	0	8	41	48	2	0	4	3	98	4	14	19	0	0	1	104	96	36	0	22	2	0	0	3	7	22	1	4	0	2	0	17	17	6	6	2	79	6	4
OTU 40	2	79	2	28	3	16	15	5	0	12	68	7	80	3	6	57	5	12	3	15	70	11	2	2	17	1	29	0	1	29	22	83	127	26	0	14	0	34	9	5	51	2	3	12	21	29	147	28	15	43
OTU 41	1	84	10	3	25	3	2	32	18	6	39	0	26	28	0	26	6	1	0	27	3	0	13	3	40	25	7	0	15	1	21	14	11	0	116	1	10	2	67	1	41	0	10	3	11	5	32	0	5	1
OTU 42	1	0	5	80	79	0	0	1	0	5	1	35	94	1	60	1	0	5	4	0	0	0	8	0	1	0	0	0	53	0	1	37	0	0	0	14	1	25	0	1	0	26	5	27	0	23	0	0	0	0
OTU 43	0	0	0	0	0	0	0	3	0	0	0	0	0	0	0	0	0	0	0	2	27	0	0	0	0	0	0	0	0	0	3	0	0	0	0	0	0	0	9	0	0	0	0	0	0	0	0	0	0	0
OTU 44	0	0	7	0	0	2	6	0	4	0	12	0	32	0	12	0	0	34	0	31	0	0	0	0	0	0	0	0	9	15	0	12	0	9	0	0	1	1	19	13	4	0	0	34	0	1	2	0	6	27
OTU 45	2	209	15	9	11	26	25	6	25	9	35	71	6	0	41	29	46	59	5	1	12	58	2	168	170	3	7	6	27	3	101	296	5	6	22	5	59	11	11	486	10	11	40	7	10	21	4	3	3	16
OTU 46	31	1	9	47	39	46	101	52	103	36	79	14	0	15	7	10	3	15	1	2	153	229	97	2	0	8	33	54	10	39	696	47	35	84	0	9	39	29	107	14	2	17	13	32	21	32	11	23	0	71
OTU 47	0	27	0	2	0	0	36	0	0	16	96	0	0	0	0	0	46	11	0	0	37	0	0	27	0	0	1	7	2	0	0	0	0	0	0	0	25	1	0	0	0	12	0	4	6	0	2	0	0	30
OTU 48	16	31	69	1	94	90	59	3	3	3	12	11	2	19	40	40	23	0	4	46	102	13	16	11	22	8	15	7	22	44	10	11	25	3	33	4	31	8	96	46	32	105	24	26	28	10	15	4	43	70
OTU 49	0	9	6	0	3	5	0	21	6	3	8	0	147	0	1	20	23	0	1	15	0	87	13	10	6	29	4	0	4579	2	12	0	32	0	0	7	0	13	50	2	0	3	19	4	7	4	17	38	6	0
OTU 50	50	25	6	2	3	10	0	12	0	82	22	85	19	4	29	0	5	32	0	24	70	7	70	3	10	3	4	81	8	14	3	6	40	4	362	9	0	30	4	9	53	23	41	9	9	18	2	1	36	28
OTU 51	16	13	2	23	52	56	16	91	2	0	0	63	0	2	139	12	0	4	6	0	3	27	0	0	1	29	50	16	65	4	0	5	0	1	1	6	7	13	12	3	39	2	19	7	9	24	0	7	9	6
OTU 52	2	16	13	45	50	58	33	40	9	18	61	3	11	30	43	75	83	146	9	387	28	73	9	42	39	19	8	12	11	32	116	26	133	35	60	22	113	11	276	13	68	22	49	18	0	2	2	19	21	39
OTU 53	0	0	0	0	0	0	0	1	0	0	0	0	0	0	0	0	0	0	0	0	0	0	0	0	0	0	0	0	0	7	0	0	0	0	0	0	0	0	0	0	6	0	0	0	0	0	0	0	2	20
OTU 54	206	0	64	28	35	93	20	46	10	36	54	137	66	19	51	74	31	269	18	74	712	27	36	17	156	32	64	526	20	17	71	67	250	13	1	17	181	1985	43	93	48	0	75	10	80	62	20	15	18	140
OTU 55	0	0	0	0	0	0	0	0	0	0	0	4	0	0	0	0	0	0	0	0	0	0	0	0	0	0	0	0	0	0	0	0	0	0	0	0	0	0	0	0	0	0	0	0	0	0	0	0	0	0
OTU 56	3	6	0	0	0	0	0	10	0	1	0	24	72	20	4	4	24	1	0	0	1	0	0	17	2	1	1	2	16	1	4	23	11	2	10	0	0	0	60	0	4	10	0	4	38	0	13	8	5	1
OTU 57	5	655	32	8	93	33	60	109	14	22	25	15	6	47	259	30	120	207	55	72	21	31	168	69	50	53	128	48	99	5	5	82	72	116	94	57	42	24	78	30	7	121	38	45	11	56	86	81	4	9
OTU 58	1	0	8	27	1	14	29	0	43	8	9	125	1	0	8	1	13	9	0	0	9	0	10	8	0	13	10	0	0	29	1	1	0	8	7	11	12	15	30	0	10	0	6	3	0	3	36	3	9	49
OTU 59	0	29	54	0	6	3	2	12	6	39	1	1	0	2	16	11	3	81	0	21	3	2	0	3	2	1	0	0	4	626	0	4	0	3	4	4	80	1	72	0	0	2	2	7	0	3	1	0	6	0
OTU 60	10	47	2	31	12	6	295	6	13	13	48	45	79	1009	18	133	15	4	12	0	165	42	220	8	64	10	48	23	11	29	5	5	10	32	12	7	29	0	9	23	119	3	72	16	0	5	65	8	20	46
OTU 61	17	109	53	188	24	58	15	112	85	147	61	1	92	682	67	574	87	153	583	4	235	124	79	44	6	38	1716	38	64	163	161	37	125	3155	16	997	25	5	31	28	3	45	154	67	6	701	53	1615	16	212
OTU 62	0	11	0	23	15	31	0	0	0	59	8	9	21	0	2	0	31	3	0	0	10	1	0	13	5	0	1	1	0	0	0	20	0	0	39	0	19	0	1	0	0	1	1	0	3	8	0	0	3	0
OTU 63	0	0	39	0	62	15	3	0	1	0	20	9	30	8	17	0	3	15	6	14	4	17	0	2	10	2	8	0	7	0	12	4	7	0	64	5	15	3	43	0	0	76	0	3	2	0	12	31	0	6
OTU 64	29	12	0	135	0	17	3	119	13	110	62	121	106	23	56	45	38	4	31	151	76	20	29	18	37	33	30	92	11	30	19	7	209	7	49	13	26	20	36	17	6	72	47	11	41	28	24	11	0	61
OTU 65	0	0	0	45	0	2	0	0	0	0	0	0	2	2	0	10	0	0	0	0	15	4	0	0	0	0	0	0	0	0	0	0	0	0	0	0	0	0	0	0	2	0	12	0	8	8	0	0	0	0
OTU 66	6	197	30	1	9	10	186	0	41	7	24	64	17	4	51	37	3	0	6	3	3	40	19	1	4	13	2	7	25	4	69	20	24	46	287	2	33	33	37	6	23	5	5	1207	60	6	18	12	3	1
OTU 67	2	14	463	0	720	16	69	15	1	13	5	83	23	26	25	1	0	1	1	1	5	58	27	0	4	11	66	11	8	1	35	45	50	0	0	7	6	395	12	0	13	0	0	1091	3	6	36	8	13	1
OTU 68	215	0	0	33	0	17	33	5	1	9	1	10	28	0	0	0	52	0	0	21	10	0	0	27	0	0	14	16	0	0	0	4	11	50	22	1	50	1	35	4	0	26	15	1	1	0	37	24	9	1
OTU 69	1	6	21	20	41	4	18	33	29	55	43	49	3	12	12	126	21	7	13	2	0	36	2	6	8	3	21	2	18	7	52	7	1	47	23	26	3	19	67	0	16	44	29	56	6	30	7	39	8	33
OTU 70	1	29	6	0	0	135	17	91	39	12	179	5	113	0	39	0	12	3	1	4	2	60	0	771	1	24	34	0	15	64	17	2	0	22	34	1	1	0	0	0	6	2	2	2	94	5	72	0	6	22
OTU 71	6	1	838	0	1887	1	57	3	0	17	44	0	19	2	0	0	3	519	1	63	11	0	60	0	1	10	4	3	0	11	6	0	0	1	111	3	0	937	0	0	47	1	3	29	0	7	0	4	39	33
OTU 72	9	43	0	20	0	29	13	3	8	4	14	43	114	23	50	27	31	314	1	22	11	87	69	13	9	2	5	22	16	9	76	0	21	16	61	45	8	4	6	7	22	15	4	164	29	0	15	29	19	23
OTU 73	12	0	0	3	102	19	17	146	13	18	2	11	4	4	2	17	7	32	1	106	259	0	1	2	0	39	0	15	0	4	9	0	16	49	58	23	25	14	33	798	17	2	1	8	6	27	0	48	17	3
OTU 74	1	10	2	13	116	15	93	6	52	4	25	81	26	0	10	27	59	37	1	155	5	59	102	28	32	0	27	0	12	13	49	26	75	11	75	3	145	54	31	1	72	24	127	61	6	10	38	2	43	35
OTU 75	40	228	27	10	4	111	69	20	1	74	5	62	268	1	41	47	3	169	3	2	399	30	24	0	1	19	3	75	18	16	0	6	63	53	396	0	111	8	19	75	159	277	12	39	32	6	39	0	95	5
OTU 76	1470	0	1	12	29	0	18	0	2	6	19	0	9	0	0	16	0	153	1	41	19	3	3	0	0	0	8	2633	0	6	21	3	0	0	147	0	0	3	2	0	45	4	0	8	0	28	14	0	40	0
OTU 77	0	0	49	7	3	111	6	4	13	11	48	2	7	2	9	3	11	26	4	113	56	1	21	7	30	8	8	0	2	10	0	38	1	71	166	22	134	5	19	141	64	46	30	17	61	19	90	54	32	59
OTU 78	11	0	22	19	5	44	9	21	42	65	18	2	92	253	107	40	10	14	116	7	11	11	63	6	3	31	370	47	43	0	34	54	234	812	1	242	38	8	2	0	72	11	2	31	27	278	107	606	68	1
OTU 79	61	40	125	149	106	62	137	81	16	49	225	288	118	23	118	19	77	42	10	95	335	26	1991	30	88	50	37	116	70	706	61	502	258	51	250	20	202	119	74	615	88	56	101	89	54	57	60	70	58	1124
OTU 80	462	10	41	292	100	72	24	14	7	743	6	9	10	119	1788	82	1	63	7	117	30	7	71	0	9	17	84	988	856	30	70	0	16	169	12	6	5	38	8	31	24	45	3	764	2	13	73	31	17	21
OTU 81	3	87	15	33	15	40	310	13	5	115	99	85	43	31	84	350	9	25	15	7	34	7	75	3	128	0	9	13	36	10	25	89	67	49	25	6	6	0	246	13	31	1	219	24	71	25	24	5	26	1
OTU 82	25	31	2	52	1	3	8	0	1	110	7	282	44	17	80	122	10	2	1	25	121	0	0	6	0	3	7	37	23	19	1	52	54	9	10	2	3	12	8	6	3	28	10	41	0	8	26	0	2	12
OTU 83	0	2	8	31	2	4	0	2	0	35	2	3	0	0	50	0	0	1	0	58	61	2	0	0	2	0	3	0	15	0	0	0	28	0	0	6	11	3	0	0	16	3	6	0	0	0	15	16	12	25
OTU 84	3	0	20	0	10	10	95	55	0	26	41	0	18	2	11	65	73	10	23	6	4	0	12	25	5	48	30	6	7	9	0	3	6	64	125	32	8	0	1	5	190	2	5	37	4	61	0	4	122	1
OTU 85	16	15	0	30	4	2	21	7	5	42	16	2	0	0	54	8	33	33	0	9	0	86	0	21	17	0	0	48	47	5	9	2	7	0	2	4	0	1	31	3	0	4	9	0	4	5	0	13	3	98
OTU 86	0	0	0	0	0	0	0	7	0	0	0	0	0	3	0	0	2	0	0	5	0	0	0	0	0	0	0	0	0	6	3	0	3	0	1	0	0	0	0	0	0	98	0	0	1	18	0	0	1	9
OTU 87	0	0	0	2	1	0	6	0	0	11	0	0	92	0	18	0	13	0	2000	9	12	1	13	3	0	3	0	1	0	8	84	0	12	0	1	3	4	5	18	0	0	0	0	1	7	50	6	48	0	0
OTU 88	0	66	10	0	1	0	0	0	8	11	0	37	17	2	0	64	14	1	0	0	29	0	1	8	0	0	0	0	7	1	0	12	0	0	0	0	0	1	3	0	0	0	83	2	0	5	2	0	0	0
OTU 89	0	0	64	2	2	4	52	0	6	0	2	0	15	0	9	10	25	0	0	106	40	15	0	16	17	1	7	0	16	34	14	11	7	6	4	0	4	0	1	4	0	19	0	2	0	1	9	0	0	55
OTU 90	0	0	0	3	0	1	36	6	0	0	0	0	0	5	0	0	0	0	0	0	2	66	0	0	2	5	0	0	0	0	14	9	0	2	89	0	42	21	0	0	0	3	0	6	4	0	0	0	0	1
OTU 91	0	76	0	1	1	73	0	47	5	1	0	0	0	0	0	0	0	10	2	0	0	0	0	0	0	13	3	0	0	0	0	3	106	0	0	6	0	1	1	1	0	0	0	0	37	24	1	28	0	0
OTU 92	0	0	0	0	5	5	4	4	3	0	0	20	2	12	7	1	15	2	0	16	8	0	5	6	0	0	0	0	1	21	0	1186	0	0	3	0	38	7	0	1	0	0	7	11	0	1	104	0	0	43
OTU 93	0	0	0	0	0	4	18	0	0	0	0	0	0	5	4	152	0	0	0	0	2	12	0	0	16	0	0	0	10	0	2	0	1	1	9	1	2	0	29	0	0	0	17	0	1	0	0	1	0	0
OTU 94	46	68	139	61	278	360	100	61	39	7	25	5	87	12	310	5	137	11	13	29	18	73	4	68	11	37	67	128	102	63	59	81	413	339	171	18	60	87	427	87	95	247	1	51	107	11	42	78	72	30
OTU 95	0	66	4	0	0	0	43	2	0	23	24	4	7	0	2	1	7	4	0	81	1	5	0	3	0	0	26	0	4	0	4	0	71	4	0	0	1	6	13	0	1	1	1	0	0	0	12	2	0	5
OTU 96	0	4	0	0	0	0	0	0	0	0	0	0	0	0	0	0	0	0	0	1	0	0	0	0	0	0	10	0	0	0	0	1	0	0	0	0	0	0	0	0	0	0	0	0	0	0	0	0	0	0
OTU 97	3	0	6	0	0	0	0	1	0	0	6	12	0	0	0	0	0	0	0	0	1	0	0	0	0	0	0	6	0	0	13	0	0	0	0	0	34	0	0	0	0	0	0	1	3	0	0	12	0	0
OTU 98	0	1	0	32	29	31	0	41	6	0	0	0	316	0	1	29	34	0	0	9	0	3	0	14	2	41	0	0	2	4	63	6	2	18	0	0	394	2	86	0	0	0	2	0	5	0	11	0	0	0
OTU 99	4615	47	7	38	122	51	47	11	13	14	82	11	265	2536	21	26	25	1	12	3	306	87	22	17	53	7	47	19	9	31	11	15	229	4	248	52	98	27	257	3	52	46	14	26	9	3	74	60	31	61
OTU 100	12	39	2134	15	3	45	1	0	0	0	0	30	108	95	0	142	65	58	56	0	75	3	2	31	3	1	50	30	0	12	18	0	65	34	18	41	73	0	1	4	2	41	14	40	9	59	39	84	0	26
OTU 101	93	0	0	1	9	0	23	0	58	1	0	0	0	0	0	0	0	0	0	0	2	0	0	0	29	2	0	0	0	3	20	0	0	0	74	0	15	0	1	0	0	0	1	0	1	1	0	0	0	28
OTU 102	0	0	0	2	2	6	65	0	0	0	2	11	2	0	12	21	10	1	3	38	1	1	0	6	2	0	0	0	6	0	1	17	24	1	0	9	91	0	1	26	0	1	7	9	0	3	0	3	0	0
OTU 103	0	7	19	7	22	0	110	15	12	39	32	0	47	25	0	3	2	4	8	2	96	2	16	1	0	38	60	0	1	1	18	0	30	26	0	22	68	1	93	0	80	0	0	11	1	7	41	49	49	14
OTU 104	2	17	4	55	50	92	20	6	2	14	31	65	36	23	5	18	5	8	7	169	109	1	2	5	49	21	137	0	4	6	5	92	75	54	4	6	27	7	82	27	0	13	1	12	30	11	27	12	10	0
OTU 105	2	1	0	0	5	0	40	5	4	0	21	1	15	20	1	13	0	0	4	1	35	20	5	0	0	1	0	0	0	0	0	4	5	0	25	0	0	8	0	1	0	2	0	20	0	0	4	1	0	0
OTU 106	0	1	0	31	59	0	75	0	0	4	4	7	0	0	0	1	0	111	0	5	10	0	1966	0	0	0	0	0	0	0	0	0	0	0	12	0	10	1	333	1	73	3	1	28	0	4	42	0	67	4
OTU 107	7	2460	0	1	0	18	4	30	0	1	0	0	0	0	7	14	0	13	1	15	0	9	0	0	20	44	5	6	0	25	1	5	2	9	15	0	32	5	5	4	14	10	0	0	32	4	0	15	9	15
OTU 108	9	89	11	3	5	158	0	0	0	4	6	0	51	0	25	8	1	0	0	17	12	41	13	0	13	15	0	6	6	0	14	16	13	30	3	1	17	0	10	47	7	0	6	37	47	1	50	6	7	17
OTU 109	0	0	0	0	0	0	0	0	0	0	0	9	0	0	0	0	0	0	0	0	19	0	0	0	0	0	0	0	0	0	0	0	0	0	0	0	5	0	0	6	0	0	0	0	0	0	0	0	0	0
OTU 110	0	78	93	3	77	38	168	59	15	22	9	4	46	0	78	0	38	41	1	42	1	89	78	20	73	17	11	2	45	4	49	87	2	5	0	2	4	14	160	67	0	30	0	1	16	16	5	0	0	13
OTU 111	0	0	0	0	3	1	3	3	0	22	3	3	50	0	0	0	0	32	210	0	0	3	0	0	2	0	26	0	0	2	0	1	7	0	0	563	0	2	1	0	0	3	0	0	5	0	0	1	0	0
OTU 112	14	0	15	0	70	30	3	6	128	1	6	0	92	1	30	24	7	4	0	10	53	362	0	3	4	0	0	69	20	6	3	0	49	7	6	4	0	9	0	3	2	0	5	77	22	19	47	2	0	5
OTU 113	1	0	0	27	0	0	3	5	0	0	0	0	0	2	0	0	0	0	0	0	0	0	27	0	9	5	0	2	0	2	0	1	0	0	0	0	6	2	17	0	2	7	0	0	0	4	0	0	0	0
OTU 114	7	7	37	108	76	45	7	126	38	77	107	21	68	97	111	7	105	47	1	46	17	70	26	59	2	38	395	14	69	60	102	12	26	10	84	2	84	50	0	72	100	32	40	57	34	0	17	31	16	228
OTU 115	216	1	11	21	103	93	4	44	13	29	15	238	13	17	50	30	105	601	76	1049	83	3	34	60	5	6	61	376	23	37	6	72	225	84	59	83	91	19	1525	47	61	14	19	7	62	67	1060	203	3252	136
OTU 116	7	641	143	1	21	3	204	24	9	4	57	16	33	5	46	23	0	57	15	4	66	1	1	0	13	55	13	12	12	28	65	6	21	17	24	10	330	25	13	334	2	17	4	17	32	8	3	92	4	17
OTU 117	2	51	15	9	95	31	0	202	113	39	8	22	71	16	27	0	1798	127	2	60	65	278	14	867	15	114	25	1	15	6	508	4	24	4	1	1	2	31	0	45	87	8	45	2	8	11	12	9	20	29
OTU 118	0	11	71	47	7	0	1	12	3	1	0	46	17	1	0	0	0	32	6	37	0	22	3	0	5	10	1	0	525	8	0	3	6	0	15	0	5	4	0	0	0	0	1	0	0	1	4	5	0	50
OTU 119	5	0	27	16	20	53	33	439	2	13	237	1	16	3	31	21	2	3	1927	38	9	0	3	2	94	203	12	1	14	18	1	19	203	14	20	17	92	18	92	19	13	23	26	2	37	51	47	65	4	5
OTU 120	0	10	5	0	3	20	56	0	3	15	0	30	6	0	5	24	2	19	0	11	9	6	0	1	9	0	14	0	0	3	0	16	34	7	0	0	10	2	16	0	31	0	0	0	2	1	3	0	40	0
OTU 121	3	14	4	24	14	28	0	51	31	81	5	6	17	3	66	30	0	7	0	0	36	0	41	0	31	28	10	3	37	9	14	61	9	32	3	5	51	0	39	2	121	9	3319	2	10	59	98	0	31	53
OTU 122	4	0	701	9	771	119	44	3	2	97	2	126	97	14	26	16	2450	25	4	139	1	0	7	1176	1	4257	88	9	22	5	8	2	114	38	27	1	15	376	10	1	37	1387	2	40	35	13	11	3	1	7
OTU 123	15	147	61	64	61	50	71	48	41	52	137	70	67	84	59	246	97	204	56	74	91	22	121	46	21	147	87	56	16	59	197	109	102	68	218	107	221	64	232	29	166	124	76	56	27	247	139	149	96	68
OTU 124	0	0	1	10	29	17	0	0	6	0	12	0	0	0	0	605	2	0	2	0	0	0	0	1	2	0	2	5	0	27	0	6	0	4	0	0	0	1	0	4	0	2	429	0	23	4	4	0	186	0
OTU 125	20	209	26	58	77	179	442	81	34	141	37	102	39	676	107	86	160	191	37	104	276	17	99	90	355	62	1056	30	47	119	47	476	192	271	116	109	95	112	212	435	11	28	47	32	70	138	263	177	14	141
OTU 126	0	0	0	1	31	48	1	4	6	0	2	1	0	9	0	32	0	0	0	0	3	3	10	0	0	0	13	3	0	2	0	0	0	14	46	0	0	13	5	0	31	0	1	0	68	0	0	0	7	0
OTU 127	2	25	1	10	14	65	0	13	7	5	6	3	18	10	2	21	13	0	0	19	66	105	14	4	0	0	43	0	0	1	71	7	34	7	6	2	32	18	0	15	102	16	2	0	36	1	0	6	42	7
OTU 128	12	52	101	120	244	159	253	156	23	77	118	57	95	88	69	84	391	206	26	172	150	25	66	210	59	109	89	42	34	538	114	69	507	160	387	14	92	191	132	38	60	153	28	25	103	1050	79	33	103	966
OTU 129	0	1	0	1	0	0	1	0	3	3	27	0	0	0	0	0	0	0	0	0	3	0	0	0	0	0	0	0	0	0	0	54	0	0	5	0	4	7	5	2	0	0	0	4	0	0	0	0	1	0
OTU 130	1	1	2	6	1	348	5	2	0	6	25	23	0	0	7	1	6	30	7	120	40	2	675	3	19	2	0	1	4	5	3	1	96	0	182	28	34	2	16	2	11	4	65	1	161	5	1	6	13	0
OTU 131	0	18	13	365	8	6	13	38	1	11	0	0	27	5	7	33	13	160	0	23	23	0	21	5	2	22	0	1	10	31	0	16	43	0	31	3	141	3	147	2	75	63	79	3	1	2	122	6	46	15
OTU 132	0	0	1	0	3	0	2	5	16	1	0	3	0	1	0	30	9	10	1	0	2	0	20	6	11	3	3	0	0	0	0	24	0	17	0	1	18	17	10	24	0	2	6	10	0	0	0	20	2	15
OTU 133	0	0	0	10	0	0	3	4	1	2	0	0	10	2	0	16	2	59	0	36	8	0	1	0	0	0	2	0	0	4	5	0	1	0	0	0	1	2	0	0	7	0	0	1	0	0	0	0	0	3
OTU 134	1	26	7	9	3	7	54	17	91	28	123	55	82	260	108	0	0	33	3	0	50	113	23	0	0	36	9	14	38	12	351	0	34	7	0	1	72	3	0	11	52	8	27	36	11	35	112	24	39	0
OTU 135	5	21	542	15	25	26	22	217	42	209	61	3	2307	13	50	30	67	61	28	1	65	93	11	20	8	130	118	25	17	44	57	85	34	163	15	39	1	0	7	54	69	80	21	22	26	61	44	119	23	72
OTU 136	17	81	4	9	2	0	52	1	0	313	0	8	0	2	78	69	26	51	36	0	26	5	12	17	15	4	0	40	51	44	18	10	1	101	4	104	57	0	2	4	192	16	1	63	1	26	10	128	34	18
OTU 137	0	0	0	4	8	1	0	0	0	28	0	0	0	2	18	10	1	1	0	7	0	11	4	0	9	0	2	0	10	1	0	0	24	0	4	0	214	3007	0	0	0	1	3	0	0	1	1	0	0	0
OTU 138	1	0	6	3	0	1	16	24	24	6	13	1	0	11	0	35	1	18	1	47	3	58	1	0	0	14	40	5	0	23	111	2	0	1	35	0	0	0	151	14	0	0	0	22	0	1	128	3	1	21
OTU 139	6	1	242	1	708	23	76	2	17	22	41	144	259	15	4	23	15	44	3	139	252	76	2	10	65	13	20	16	1	0	36	16	7	113	18	6	105	336	227	17	48	636	21	34	46	37	156	46	662	13
OTU 140	58	86	101	116	56	72	647	49	629	299	191	256	340	3	19	102	11	96	14	74	345	34	20	3	32	23	51	88	35	20	34	33	880	54	304	12	251	9	147	34	165	48	60	5	12	37	27	54	29	132
OTU 141	0	0	0	0	5	11	0	9	0	0	0	0	0	0	0	0	0	0	0	5	123	0	0	0	0	0	0	0	0	0	0	0	0	0	8	0	0	0	0	0	0	0	0	4	0	0	0	0	0	0
OTU 142	1	0	0	0	0	1	0	0	0	0	3	1	0	0	9	0	0	0	0	0	9	8	0	0	0	0	1	0	0	0	0	0	0	10	2	0	0	0	0	0	0	0	0	0	2	0	0	0	0	0
OTU 143	1	0	155	0	288	0	0	0	9	0	228	56	1	0	0	1	0	21	11	2	12	2	0	0	7	0	1	2	0	7	6	0	4	18	11	7	2	157	0	0	0	435	7	0	3	1	0	62	8	64
OTU 144	6	0	1	47	14	1	75	64	1	0	0	32	0	3	3	0	0	0	603	30	0	0	9	0	3	21	0	20	0	7	12	13	0	0	0	7	77	3	0	27	2	3	2	1	0	39	14	9	0	6
OTU 145	0	179	2	27	16	46	28	17	4	27	99	7	6	215	7	2	0	42	35	74	40	12	12	0	67	0	460	7	11	63	18	1	7	31	20	58	7	1	144	0	17	276	4	5	29	51	30	35	5	89
OTU 146	2	78	0	12	0	30	186	29	5	3	0	201	6	56	14	15	62	0	12	96	25	12	70	46	4	18	104	11	7	1494	0	12	26	9	72	3	227	2	7	0	22	2365	20	31	66	37	25	0	23	0
OTU 147	0	0	4	3	17	4	18	0	0	16	0	2	1	0	0	0	0	0	17	7	11	0	38	0	77	1	0	9	1	0	0	32	59	99	2	53	10	4	12	6	0	50	35	0	1	4	10	86	1	0
OTU 148	4	63	8	0	2	8	16	32	4	14	57	1	113	0	0	38	5	20	23	66	48	0	0	0	0	15	9	23	0	2	5	23	194	1	16	34	77	13	12	4	0	19	11	0	11	1	4	61	4	23
OTU 149	0	0	0	7	3	4	30	737	0	1	44	60	2	6	1	9	2	1	3	43	1	1	8	0	0	309	1	0	1	0	22	22	0	12	6	13	1	4	3	2	10	5	0	9	0	7	94	0	3	42
OTU 150	0	15	1	20	0	1	0	28	9	2	0	19	17	0	3	5	2	2	0	21	22	1	2	2	2	41	0	0	1	0	7	3	0	3	0	0	2	0	0	12	34	0	0	3	16	3	1	1	7	0
OTU 151	0	77	0	74	13	117	21	0	0	6	119	1	6	0	4	53	11	1	3	12	30	36	2	6	33	1	2	0	4	0	127	40	0	0	3	25	24	15	34	28	18	18	76	15	29	30	22	1	1	0
OTU 152	2	29	10	2	6	114	30	110	48	1	0	70	149	26	1	30	45	1775	0	23	1	29	18	22	106	45	1	0	11	1	108	6	7	16	112	43	30	5	12	9	1	243	72	46	28	1	13	58	4	0
OTU 153	0	3	0	2	0	3	0	8	0	36	0	7	13	8	0	0	0	0	0	0	11	0	0	0	2	1	0	0	0	6	4	0	0	1	0	0	19	0	0	2	0	0	0	7	0	6	0	0	0	0
OTU 154	0	0	0	17	0	0	0	2	0	0	0	0	0	9	79	0	0	6	0	0	1	0	0	0	0	0	25	0	31	3	0	2	15	0	1	0	0	0	0	2	0	0	0	14	0	0	1	0	0	2
OTU 155	1	100	9	0	3	7	1	20	10	32	0	0	0	0	8	0	0	81	7	6	75	0	21	0	1	48	0	6	1	0	63	28	0	13	62	36	11	0	2	12	3	64	41	6	2	43	6	14	0	2
OTU 156	18	66	66	70	13	76	17	1703	10	11	41	38	36	9	9	2882	21	38	5	30	114	18	15	11	52	1011	4	47	1	28	7	13	3	52	215	12	9	28	6	7	32	146	1765	9	952	42	20	8	6	3
OTU 157	0	0	0	2	1	576	8	1	0	0	0	11	0	4	0	2	0	0	8	0	0	0	0	0	0	0	1	1	0	702	0	0	0	0	142	50	0	0	54	0	126	17	0	1	287	6	23	41	20	1482
OTU 158	0	0	0	0	0	0	0	3	0	0	1	0	0	0	0	0	0	0	0	1	0	0	4	0	1	0	0	0	0	0	0	5	50	0	0	0	48	0	0	0	12	0	0	0	0	0	0	0	0	4
OTU 159	6	2	0	0	17	7	22	65	8	22	3	29	32	1	10	2	1	23	8	100	69	1	5	0	2	50	6	17	3	409	2	1	1	20	32	7	11	14	177	66	109	82	2	34	2	4	107	11	18	11
OTU 160	1	240	85	13	106	127	311	56	16	86	88	57	137	28	70	12	22	610	21	16	52	43	24	9	16	32	72	3	25	5	13	39	39	29	24	42	886	76	783	54	21	44	9	28	74	43	294	93	8	12
OTU 161	410	3	12	250	30	24	3	1	13	694	102	105	108	3	1328	0	0	4	0	44	278	1	343	0	0	1	10	733	655	588	4	170	1	12	45	0	25	15	9	217	1846	15	381	546	1197	33	1840	0	788	1294
OTU 162	1	13	0	8	1	58	265	21	64	22	7	62	11	33	29	42	5	36	1	0	60	12	6	5	5	6	24	17	13	44	28	27	4	154	17	4	68	9	39	25	35	11	23	1	29	3	79	1	15	111
OTU 163	0	0	0	0	0	0	20	0	0	0	0	0	21	0	0	0	0	0	0	0	0	0	2	0	0	0	0	2	0	0	0	3	0	0	0	0	0	0	0	0	0	0	0	0	0	0	0	2	0	0
OTU 164	0	0	0	0	3	0	0	6	0	0	0	21	0	0	1	0	0	0	0	0	0	2	0	0	0	5	0	0	0	0	0	0	60	9	0	0	0	0	0	0	0	0	5	0	0	0	13	12	0	0
OTU 165	0	0	5	7	48	149	106	1	1091	1	46	0	0	1	0	10	22	3	4	78	25	2042	41	8	6	0	5	0	0	0	4	7	85	3	62	6	10	10	2	3	40	0	0	18	73	9	50	2	45	0
OTU 166	0	0	0	0	0	0	0	0	0	0	0	0	2	0	0	0	0	0	0	0	0	0	0	0	0	0	0	0	0	1	0	0	0	0	0	0	8	0	0	0	0	0	0	0	0	0	1	0	0	0
OTU 167	0	1	27	37	21	56	0	8	34	0	61	952	2	9	10	0	2	16	1	11	1	36	43	1	3	0	3	0	16	0	16	559	8	14	2	0	1	24	3	543	15	0	1	2	15	52	27	0	614	4
OTU 168	34	156	24	16	15	281	4	1	19	31	34	2	136	24	11	35	10	4	4	17	0	0	13	1	25	1	0	49	0	3	15	0	0	3	4	14	25	5	205	19	4	4	11	6	97	5	5	23	0	2
OTU 169	0	1	0	0	0	0	0	0	31	0	2210	4	0	1	0	0	0	0	0	15	0	3	0	0	0	0	0	0	0	0	112	5	0	7	0	0	0	0	74	0	0	3	0	0	0	0	20	1	0	0
OTU 170	0	0	8	0	10	0	0	1	0	8	0	0	0	0	0	0	0	1	0	0	0	0	0	0	0	0	0	0	0	0	3	1	0	15	4	0	11	0	0	0	0	4	0	0	0	3	0	0	0	0
OTU 171	30	50	62	7	61	3	6	30	2	42	8	115	65	4	84	11	50	57	0	1	0	11	15	22	25	10	36	57	54	45	24	13	32	48	121	29	21	15	8	6	1285	11	9	1169	3	17	3	54	707	4
OTU 172	0	6	0	1	0	6	0	0	0	0	1	0	1	5	0	1	22	0	13	0	0	5	6	14	6	0	36	0	0	0	49	1	2	0	1	0	1	0	0	0	0	1	0	0	3	4	0	33	1	8
OTU 173	0	2	0	0	0	0	27	44	1	0	74	0	65	0	20	17	6	0	1	55	5	18	52	3	0	54	1	0	7	0	0	5	68	5	0	0	0	4	4	0	0	0	0	0	3	0	1	11	3	3
OTU 174	0	1	1	6	0	15	21	147	24	52	7	0	17	11	0	31	1	4	4	3	17	33	1	1	1	47	8	0	0	0	28	1	19	56	17	1	15	3	8	1	4	7	4	10	8	8	53	9	10	17
OTU 175	0	11	1	0	3	23	8	22	9	0	0	9	0	0	2	88	2	0	3	0	33	20	25	0	2	0	0	0	1	48	67	38	15	8	0	0	5	2	16	5	7	4	3	2	45	3	42	8	1	9
OTU 176	20	11	12	19	15	51	233	11	4	4	30	21	48	3	2	0	32	21	1	40	106	63	59	17	3410	13	2	35	6	4	45	17	4	140	116	31	42	2	1	16	63	54	18	8	19	758	37	15	22	30
OTU 177	3	0	42	41	166	54	4	13	79	33	155	32	4	0	1	13	2	34	3	49	16	5	24	0	15	5	6	4	0	39	2	3	9	9	42	1	67	47	22	3	48	81	5	22	91	8	121	16	39	41
OTU 178	13	137	0	51	27	4	82	0	4	0	0	86	1	3	33	12	0	0	1	8	8	0	1	0	38	0	3	21	30	0	0	0	137	1	13	13	66	2	26	7	0	57	0	50	2	3	16	12	2	4
OTU 179	54	7	0	1	36	0	0	4	1	2	14	23	21	0	16	7	14	6	7	1	0	7	22	11	7	0	2	100	14	2	54	1	237	0	24	11	0	31	9	2	0	17	17	24	0	4	4	27	0	1
OTU 180	24	86	40	1704	122	128	165	69	78	3308	63	61	66	56	33	59	106	52	34	64	485	8	66	55	2078	29	51	70	13	12	86	2361	44	15	129	35	82	55	114	47	19	98	27	7	88	56	22	44	3	32
OTU 181	92	6	14	0	23	21	38	13	0	6	1	1	14	0	0	36	1	42	1	23	26	14	2	0	11	1	0	160	0	4	22	1	3	9	1	10	76	0	7	24	23	35	0	0	0	68	2	0	3	1
OTU 182	1	0	76	0	40	28	117	0	0	15	0	0	0	0	1	0	0	0	1	0	0	0	0	0	0	0	0	0	0	0	0	3	5	4	4	2	0	15	6	0	0	0	0	0	0	0	0	0	0	0
OTU 183	9	1	121	0	48	6	15	145	0	40	2	462	0	0	2	14	0	191	51	86	0	1	11	0	9	60	0	8	2	20	32	1	37	37	115	18	21	28	141	12	0	6	0	24	0	79	1001	9	0	0
OTU 184	0	47	1	3	0	1	141	259	70	2	7	11	0	4	0	0	11	0	5	0	50	32	0	6	11	139	0	2	1	15	1	16	0	0	0	1	1	5	3	21	2	1	22	0	2241	14	2	67	0	3
OTU 185	2	6	35	20	9	95	43	2	11	3	140	28	13	43	16	67	189	118	0	18	93	70	2	104	15	12	132	8	14	30	28	13	97	136	81	2	70	18	26	15	23	86	53	26	39	14	62	6	12	3
OTU 186	12	71	35	2	0	0	17	4	1	1	8	2033	5	1	32	0	0	0	3	9	0	0	0	0	0	6	0	35	31	0	4	2	0	0	133	0	38	0	30	0	0	46	0	20	20	15	142	4	3	0
OTU 187	0	92	41	57	72	31	32	26	676	41	211	92	27	10	13	0	59	23	957	16	374	1920	14	31	83	14	27	2	1	19	17	16	268	29	9	2099	206	39	23	34	13	3	3	18	39	9	9	17	20	83
OTU 188	45	7	270	171	151	294	320	300	92	136	7	49	122	13	238	194	228	83	82	121	160	133	183	125	164	157	139	127	119	235	161	398	106	120	8	46	83	86	73	526	188	167	34	169	198	83	35	121	128	281
OTU 189	67	24	45	9	23	23	33	64	86	20	12	289	164	1128	75	82	12	3	35	92	36	67	88	7	141	18	36	42	44	1	211	5	38	34	341	22	115	2	5	8	47	15	114	76	17	38	137	123	18	44
OTU 190	0	0	2	7	0	1	0	0	0	3	100	0	3	47	0	0	6	0	0	64	0	0	0	3	87	0	26	0	0	0	0	0	3	0	7	0	0	0	14	0	0	0	0	0	0	0	8	0	0	3
OTU 191	1	79	40	5	64	51	0	57	4	1	6	32	35	4	13	193	10	52	0	10	13	17	67	4	11	11	45	2	17	2	7	30	450	39	292	3	12	15	9	4	4	14	60	24	21	49	74	82	3	4
OTU 192	3	12	10	18	40	37	138	52	17	32	178	36	122	12	26	15	14	3	13	58	19	13	42	4	64	70	15	11	10	14	31	468	97	155	122	2	130	17	54	39	1	17	20	32	16	28	61	2	8	5
OTU 193	0	102	74	21	58	25	52	42	72	1	25	10	3	50	34	0	18	69	323	25	78	32	6	7	20	3	95	0	27	1	110	1	185	1	14	526	127	18	6	12	38	31	68	15	1	0	2	101	36	16
OTU 194	18	46	6	4	36	254	15	0	8	6	26	0	30	0	12	17	0	15	0	11	0	53	18	0	0	9	3	23	5	1	1	28	214	3	116	12	154	17	68	31	0	0	2	0	101	3	0	0	1	9
OTU 195	370	12	3	440	26	27	7	61	22	418	6	0	24	5	1307	1	6	4	9	28	52	8	76	1	21	55	0	793	537	4	70	30	42	0	25	0	0	3	5	0	1	40	143	717	0	7	72	0	3	0
OTU 196	0	17	9	0	23	2	13	6	0	4	24	0	94	0	0	69	1	0	1	32	2	10	2	0	0	0	0	3	0	73	3	7	131	22	92	0	2	0	151	5	5	2	29	0	0	50	24	15	13	92
OTU 197	29	68	22	54	45	182	44	21	87	48	146	192	149	1	20	215	19	140	6	256	74	34	121	15	30	11	133	62	11	31	115	21	105	68	470	25	0	6	95	81	1380	4	20	19	98	80	127	51	623	107
OTU 198	7	8	0	4	1	3	0	0	0	0	80	3	0	0	9	0	1	82	0	0	0	5	0	0	0	0	15	15	4	0	45	2	4	0	0	2	2	0	0	0	1	0	6	3	11	0	16	44	4	22
OTU 199	1	90	5	27	0	0	6	188	13	0	17	67	0	2	0	6	0	0	20	15	20	10	0	0	16	30	28	14	4	11	18	0	1	0	2	14	42	1	5	0	0	16	0	5	1	0	8	23	0	0
OTU 200	8	42	1	3	75	4	33	9	18	98	1	42	2	0	7	0	2	3	8	6	11	3	19	1	12	15	14	20	0	1	62	9	116	15	0	0	122	4	2	80	1	0	27	72	24	3	5	0	0	15
