	Host 1	Host 2	Host 3	Host 4	Host 5	Host 6	Host 7	Host 8	Host 9	Host 10	Host 11	Host 12	Host 13	Host 14	Host 15	Host 16	Host 17	Host 18	Host 19	Host 20	Host 21	Host 22	Host 23	Host 24	Host 25	Host 26	Host 27	Host 28	Host 29	Host 30	Host 31	Host 32	Host 33	Host 34	Host 35	Host 36	Host 37	Host 38	Host 39	Host 40	Host 41	Host 42	Host 43	Host 44	Host 45	Host 46	Host 47	Host 48	Host 49	Host 50	
OTU 1	0	0	3	3	2	3	2	5	4	0	0	0	0	2	0	8	4	1	0	0	0	6	0	2	3	3	0	0	0	0	2	2	0	13	3	1	1	1	13	0	7	14	3	5	3	2	1	1	0	4
OTU 2	0	3	0	0	0	0	0	0	0	0	0	0	0	0	0	3	0	0	0	0	18	2	3	32	0	4	0	0	0	1	0	0	0	0	0	13	0	0	0	1	0	0	0	1	0	1	8	2	0	0
OTU 3	0	0	0	0	0	0	3	0	0	0	0	0	0	0	0	0	0	0	0	0	0	0	6	0	0	1	0	0	0	0	0	0	0	0	0	0	0	0	0	0	0	0	1	0	0	0	0	0	0	0
OTU 4	0	0	0	0	0	0	0	0	0	0	0	0	0	0	0	0	0	0	0	0	0	0	0	0	0	0	0	0	0	0	0	0	0	0	0	0	0	0	0	0	0	0	0	0	0	0	0	0	0	0
OTU 5	15	8	41	16	14	0	11	10	1	20	7	6	58	0	0	0	5	63	5	0	4	4	7	4	8	0	8	56	0	24	15	7	13	2	8	6	4	27	15	1	1	96	10	15	18	31	0	1	51	15
OTU 6	0	0	0	1	0	0	1	1	0	1	1	2	0	3	0	0	0	0	1	1	0	10	0	0	0	0	0	0	2	0	3	2	0	0	0	1	1	0	0	1	0	0	1	4	15	0	0	1	0	0
OTU 7	67	0	0	0	0	1	2	0	0	1	37	1	1	44	5	3	2	4	2	0	3	3	1	25	1	3	2	1	11	0	1	74	4	5	29	1	0	0	61	2	2	1	1	1	0	1	2	1	2	5
OTU 8	4	6	0	2	0	1	8	3	5	0	6	22	0	0	2	4	0	0	1	4	2	4	4	1	0	4	5	10	0	1	0	13	6	3	0	0	1	1	1	2	15	0	4	5	3	0	1	17	0	2
OTU 9	0	1	3	0	0	2	3	0	0	0	0	0	0	2	0	0	0	2	0	0	2	0	0	0	0	0	0	0	0	0	0	0	0	1	0	0	0	0	0	0	0	0	0	0	0	0	0	0	1	0
OTU 10	0	3	0	2	0	0	1	0	0	1	0	0	0	1	0	0	0	1	0	0	2	0	0	0	0	0	0	0	0	0	0	5	0	0	0	0	1	0	0	0	0	0	0	0	0	0	0	0	0	0
OTU 11	0	0	0	4	0	1	1	2	1	0	2	0	0	9	1	9	1	0	0	2	3	3	0	0	3	0	0	2	0	37	0	2	0	0	1	0	0	0	4	2	0	0	0	0	0	1	4	2	4	4
OTU 12	0	0	1	0	0	0	2	0	0	1	2	1	0	0	2	1	0	1	3	1	1	8	0	4	6	6	1	0	1	3	2	1	0	10	0	5	5	1	1	2	2	2	4	5	5	2	0	3	0	0
OTU 13	0	0	0	0	0	0	0	0	0	0	0	0	0	0	0	0	0	0	0	0	0	0	0	0	0	0	0	0	0	0	0	0	0	0	0	0	1	0	0	0	0	0	0	0	0	0	0	1	0	0
OTU 14	0	1	0	2	0	0	1	0	0	1	0	3	0	0	1	0	0	0	0	1	1	1	2	1	11	0	0	0	0	0	0	0	1	0	0	0	7	2	0	0	2	0	0	0	0	0	0	0	0	2
OTU 15	0	0	0	0	0	0	0	2	0	0	0	0	0	0	0	0	0	0	0	0	0	0	0	0	0	0	0	0	0	0	0	0	0	0	0	0	0	0	0	0	0	0	0	0	0	0	0	0	0	0
OTU 16	0	0	0	0	0	0	0	0	0	0	0	0	54	1	0	0	0	0	0	0	1	0	0	0	0	0	0	0	0	0	0	0	0	0	0	0	0	0	0	0	1	0	0	0	0	0	0	0	0	0
OTU 17	0	0	0	1	0	0	0	1	0	0	1	1	2	4	2	0	0	0	1	0	0	1	0	0	1	4	1	1	0	63	0	1	2	1	1	0	0	0	2	0	0	0	0	0	0	0	0	3	0	2
OTU 18	1	0	1	0	0	0	1	0	3	0	1	0	3	0	0	2	0	0	6	3	11	4	2	0	0	0	0	2	3	0	0	0	4	6	0	0	4	0	0	0	1	1	1	1	2	0	55	4	0	0
OTU 19	0	0	0	0	0	0	0	0	0	0	0	0	0	0	0	0	0	0	0	0	0	0	0	0	0	0	0	0	5	0	0	0	0	0	0	0	0	0	0	0	0	0	0	0	0	0	0	0	0	0
OTU 20	0	4	1	0	0	1	0	0	0	6	1	0	0	2	0	0	1	0	1	0	2	0	1	3	1	1	0	2	1	2	2	0	0	2	0	0	2	0	1	7	0	2	0	0	4	1	0	1	2	0
OTU 21	2	3	0	0	0	1	0	1	1	0	0	1	0	1	2	1	0	1	4	6	3	2	10	1	1	0	8	0	0	1	0	0	8	0	0	0	1	1	0	1	13	0	1	3	12	0	1	0	0	5
OTU 22	0	7	3	1	0	2	1	4	4	1	1	0	0	7	4	0	2	0	1	0	0	0	0	0	3	0	4	4	2	0	0	0	39	2	0	2	1	0	2	2	1	0	13	10	0	0	0	5	0	0
OTU 23	0	0	0	0	0	0	3	1	0	0	0	4	0	0	0	0	0	3	2	1	0	0	0	0	2	0	0	0	0	0	0	0	0	6	0	0	3	0	0	3	0	0	0	0	1	0	3	0	0	1
OTU 24	0	0	0	0	0	0	0	0	1	1	0	1	1	2	1	4	0	1	3	0	1	3	0	0	0	0	0	0	0	0	1	3	0	4	0	1	0	0	0	3	0	0	0	1	0	0	0	0	0	4
OTU 25	0	0	0	0	0	0	0	0	0	0	0	0	0	0	0	1	0	0	0	0	0	0	0	0	0	0	0	0	0	0	0	0	0	1	0	0	0	0	0	0	0	0	0	0	0	0	0	0	0	0
OTU 26	3	0	0	0	0	0	0	0	0	0	0	0	4	0	0	0	0	0	0	0	0	0	0	1	0	0	0	0	0	2	0	0	0	0	0	0	0	0	0	0	0	0	0	0	1	0	0	0	0	0
OTU 27	0	0	0	0	0	0	0	0	0	0	0	0	0	0	0	0	0	0	2	0	0	0	0	0	0	0	0	0	0	0	0	0	0	0	0	1	0	0	0	0	0	0	0	0	0	0	0	0	0	0
OTU 28	0	0	5	7	2	0	3	2	0	3	0	4	1	0	0	0	0	0	3	1	2	1	0	3	5	2	1	0	1	14	2	0	1	2	3	0	1	2	1	0	0	17	5	8	3	7	2	0	6	0
OTU 29	4	0	0	1	9	1	1	3	2	0	0	12	0	2	24	0	2	0	1	1	0	5	10	3	2	15	10	4	8	3	1	0	0	6	3	0	5	1	6	0	5	1	4	10	0	1	0	4	3	1
OTU 30	0	0	0	0	0	0	0	0	0	0	0	0	0	0	0	0	0	0	0	0	0	0	0	0	0	0	0	0	0	0	0	0	0	0	0	0	0	0	0	0	0	0	0	0	0	0	0	0	0	0
OTU 31	1	0	1	0	0	0	0	0	0	15	0	0	0	0	0	0	0	0	0	0	0	1	0	22	0	0	0	0	0	0	0	0	0	1	0	1	7	0	0	9	0	0	0	0	3	0	0	0	0	0
OTU 32	1	5	0	15	1	0	3	1	1	2	0	2	1	7	1	6	0	1	35	0	0	19	3	2	7	6	0	17	3	0	0	0	1	3	0	34	1	1	2	1	2	0	0	2	0	3	1	36	0	4
OTU 33	0	0	0	0	0	0	0	0	4	0	0	0	0	1	0	0	2	0	4	0	0	0	0	0	0	0	0	0	0	0	1	0	0	0	0	0	0	0	0	0	0	0	0	0	1	0	0	0	0	0
OTU 34	2	5	0	0	1	0	0	0	1	1	0	1	0	6	0	7	0	1	3	0	4	2	3	3	4	0	0	0	1	0	0	0	0	8	0	1	0	0	1	0	5	0	1	5	2	2	2	0	0	2
OTU 35	0	0	0	2	0	0	2	0	0	0	0	0	0	0	0	1	0	0	0	0	1	0	2	0	0	6	0	0	1	0	1	0	1	1	0	1	1	1	1	1	3	0	2	2	0	1	0	0	2	9
OTU 36	0	0	1	1	1	0	5	1	2	0	0	0	0	0	1	4	0	0	0	2	0	1	1	0	0	6	1	1	0	0	0	0	0	2	0	3	0	0	0	0	3	1	0	3	3	0	2	1	0	0
OTU 37	0	0	0	0	1	0	0	0	0	0	0	1	0	0	1	0	0	0	0	0	0	0	1	0	0	0	0	0	0	0	0	1	0	0	0	0	0	0	0	0	0	0	0	0	0	0	0	0	0	0
OTU 38	0	0	2	1	0	0	4	0	0	0	1	1	0	0	4	5	20	0	15	0	1	3	7	4	0	2	1	1	0	0	0	0	0	4	0	34	1	0	0	0	0	3	3	2	0	0	1	0	0	1
OTU 39	0	0	1	0	0	0	0	0	0	1	2	0	0	0	0	0	0	1	0	0	0	1	0	0	0	0	0	2	0	0	1	0	0	0	0	0	0	0	0	5	0	5	0	0	0	0	0	7	0	4
OTU 40	1	7	1	0	0	0	0	1	0	5	0	7	0	3	0	3	0	2	1	1	5	0	2	1	3	0	0	0	9	1	0	1	2	1	10	3	3	0	31	1	0	3	0	0	5	0	1	1	0	4
OTU 41	0	7	1	1	2	154	1	1	73	0	0	0	12	0	1	5	78	0	0	1	5	0	0	2	1	0	2	1	0	15	38	0	0	0	2	7	0	1	4	0	2	1	0	2	0	2	6	0	0	0
OTU 42	0	0	0	0	0	0	0	0	0	0	0	0	0	0	2	0	0	0	0	0	0	1	1	0	0	0	0	0	2	0	0	0	0	0	0	0	0	0	0	0	0	0	0	0	0	0	0	0	0	0
OTU 43	0	0	0	0	0	0	0	0	2	0	161	0	0	0	0	0	0	0	0	0	0	0	0	0	0	0	0	0	0	0	0	0	0	0	0	0	0	0	0	0	0	0	0	0	0	0	0	0	0	0
OTU 44	0	0	0	0	0	0	0	0	0	0	0	0	0	0	0	2	0	1	0	3	0	0	0	0	0	0	0	0	0	1	0	0	0	0	0	0	0	0	0	0	1	0	0	0	0	0	0	0	0	0
OTU 45	2	12	0	3	3	0	1	83	1	2	1	0	0	6	0	1	0	1	0	182	0	2	3	12	1	0	0	0	0	0	0	0	94	0	3	0	1	0	0	0	0	0	1	2	1	0	6	0	0	0
OTU 46	7	1	2	5	2	6	9	2	5	0	1	11	1	2	6	2	3	0	0	0	2	4	1	3	1	0	42	0	1	0	1	2	1	0	1	0	3	1	1	0	1	4	0	3	10	2	0	1	5	5
OTU 47	0	0	0	0	0	0	0	0	0	0	0	0	0	0	4	0	0	1	0	0	0	2	0	0	0	0	0	1	0	0	0	0	0	1	3	2	0	0	3	0	0	0	0	0	0	0	0	0	0	0
OTU 48	3	10	4	0	3	1	2	1	2	3	4	1	0	2	8	0	1	0	2	0	0	6	4	1	1	0	1	0	0	0	0	0	0	0	130	1	0	2	3	0	0	5	0	1	3	3	1	0	1	0
OTU 49	0	0	0	0	0	1	3	0	0	0	0	0	0	0	0	1	0	0	2	1	0	3	0	0	0	2	0	0	111	0	0	0	1	0	0	0	0	0	1	0	0	1	0	0	1	0	0	1	0	2
OTU 50	2	0	0	1	5	0	0	1	0	3	0	0	51	0	0	2	1	0	10	0	2	2	1	13	1	3	0	0	2	1	0	3	0	0	0	4	3	0	6	1	1	0	149	3	2	0	1	1	0	4
OTU 51	0	0	0	0	0	0	0	0	5	0	0	0	0	3	9	0	0	2	1	0	0	4	0	0	0	0	5	0	0	0	0	0	0	0	1	2	2	0	0	0	0	0	0	0	0	3	1	0	0	0
OTU 52	2	2	1	1	4	1	2	2	0	0	4	0	0	0	2	7	0	0	0	0	1	2	0	5	0	5	1	2	1	0	1	0	0	3	0	0	0	1	0	3	0	2	0	0	1	0	3	4	1	1
OTU 53	0	0	0	0	0	0	0	0	0	0	0	0	0	0	0	0	0	0	0	0	0	0	1	0	0	0	0	0	0	0	0	0	0	0	0	0	0	0	0	0	0	0	0	0	0	0	0	0	0	0
OTU 54	1	1	2	0	0	1	2	0	3	0	0	2	4	9	4	7	0	2	4	5	36	2	5	11	6	0	0	0	4	2	1	2	2	4	0	0	4	0	0	0	4	1	5	8	7	0	1	4	1	0
OTU 55	0	0	0	0	0	0	0	0	0	0	0	0	0	0	0	0	0	0	0	0	0	0	0	0	0	0	0	0	0	0	0	0	0	0	0	0	0	0	0	0	0	0	0	0	0	0	0	0	0	0
OTU 56	0	0	0	1	2	0	0	1	0	1	0	1	0	0	0	1	1	0	2	1	2	0	1	0	0	0	2	0	0	0	0	1	0	2	0	2	0	0	0	0	0	0	0	2	2	0	0	0	0	0
OTU 57	1	5	1	0	2	2	3	1	2	0	1	0	5	9	9	7	0	4	0	3	1	5	8	9	0	3	24	7	5	0	3	0	0	9	4	2	8	0	7	3	0	3	1	3	3	0	14	9	5	7
OTU 58	0	0	0	1	0	0	0	0	0	0	0	0	0	0	0	0	0	1	0	0	0	0	0	4	0	0	0	0	0	0	1	0	1	0	0	0	0	0	0	0	0	0	0	1	5	0	0	2	2	2
OTU 59	0	0	0	0	13	0	0	0	2	1	0	0	0	0	0	6	0	0	0	0	6	0	1	0	1	0	0	0	1	1	4	0	0	1	0	0	0	1	0	0	0	0	0	3	0	0	3	0	0	0
OTU 60	1	3	0	3	2	3	0	0	0	4	2	0	2	0	1	4	0	9	0	2	1	1	14	1	0	2	0	2	8	0	0	2	1	1	2	1	0	8	6	0	12	1	0	1	1	7	1	4	0	0
OTU 61	0	11	16	3	17	0	46	0	2	3	3	29	0	14	1	5	0	20	14	0	10	0	2	1	2	1	0	7	1	1	1	10	0	61	11	44	0	8	29	0	0	26	1	5	2	12	2	21	17	1
OTU 62	0	0	2	0	0	0	0	0	0	0	0	0	0	0	0	0	0	0	0	1	0	2	0	0	0	0	0	0	0	0	0	0	0	0	0	1	0	0	0	0	1	0	0	0	0	0	1	0	1	0
OTU 63	5	0	0	3	0	1	0	0	0	0	29	0	0	1	0	0	0	1	0	0	0	3	1	0	1	0	0	0	0	0	1	0	0	3	0	1	0	0	1	0	0	0	0	3	0	0	0	0	0	0
OTU 64	0	2	0	2	2	1	1	2	2	2	4	1	3	3	1	0	1	2	0	1	8	0	2	2	1	3	1	3	3	0	5	11	0	0	0	1	0	1	0	1	0	0	5	14	1	3	1	1	1	4
OTU 65	0	0	0	0	0	0	0	0	0	0	0	0	0	0	0	0	0	0	0	0	0	0	0	0	0	0	0	0	0	1	0	0	0	0	0	0	0	0	0	0	0	0	0	1	0	0	0	0	0	0
OTU 66	3	9	0	2	2	1	0	2	0	2	20	0	0	0	3	0	0	0	1	1	2	3	1	0	0	0	5	0	3	0	0	37	0	0	0	1	1	0	1	3	0	0	43	23	9	1	0	0	0	2
OTU 67	1	1	1	3	0	0	1	0	2	0	2	0	2	1	7	1	0	3	1	3	0	1	0	4	0	0	1	0	2	0	0	4	0	1	2	0	1	0	0	0	1	2	14	19	4	1	0	8	2	0
OTU 68	0	0	0	1	0	0	7	0	0	0	0	0	0	0	0	0	0	0	0	0	0	1	1	0	0	0	0	4	0	0	0	0	0	0	0	0	0	0	1	0	0	0	0	0	0	2	0	7	0	0
OTU 69	3	3	0	4	0	0	1	0	1	0	1	2	0	6	0	4	1	2	1	0	1	3	2	4	1	0	1	0	2	1	0	0	0	0	0	0	1	1	1	0	1	0	1	0	0	1	1	0	1	0
OTU 70	0	0	0	0	0	0	0	0	0	2	0	0	0	0	1	0	0	2	1	1	0	1	1	22	0	0	0	0	1	0	0	2	1	4	2	0	0	0	2	0	0	0	0	0	4	0	0	0	1	0
OTU 71	1	1	0	3	1	0	0	1	0	0	1	0	0	2	0	0	0	0	6	5	3	4	1	0	1	8	0	3	2	3	0	3	0	0	3	2	2	0	1	0	2	0	0	2	0	0	0	3	0	0
OTU 72	0	3	0	0	2	2	2	3	0	0	0	1	0	0	0	0	0	2	0	0	0	0	0	3	0	2	0	0	0	2	3	0	0	2	61	0	0	0	0	0	0	0	3	4	0	0	0	0	0	4
OTU 73	79	2	0	3	0	1	3	1	1	3	0	4	0	0	1	3	0	0	0	0	7	0	0	1	1	2	1	0	0	1	2	0	0	24	0	2	4	0	0	3	1	0	0	0	0	0	2	0	2	0
OTU 74	0	0	1	3	0	23	1	0	37	2	0	3	5	0	6	2	7	0	1	3	3	1	4	9	1	1	1	5	1	4	9	1	1	2	1	0	0	0	6	0	0	1	4	7	1	0	1	6	0	2
OTU 75	3	9	0	0	0	1	0	0	1	1	1	1	1	2	1	0	0	1	0	0	2	0	1	0	0	1	0	0	0	0	0	0	0	4	0	1	2	1	0	0	4	2	2	0	1	0	0	0	0	2
OTU 76	0	4	0	0	0	0	0	0	0	1	0	0	0	1	8	0	0	0	0	0	3	0	0	0	4	0	2	0	0	0	2	0	0	1	0	0	20	0	0	19	0	0	0	0	1	0	0	0	0	36
OTU 77	1	5	0	0	5	0	11	0	0	0	0	1	2	0	0	0	0	0	1	3	5	0	0	1	8	4	0	22	1	12	1	0	0	11	0	3	0	0	0	1	4	0	1	0	4	0	2	2	0	1
OTU 78	0	6	5	0	1	0	10	1	2	0	0	5	0	1	0	1	0	3	0	0	2	3	5	5	0	0	1	5	4	0	0	0	2	10	2	5	2	5	3	0	3	3	4	12	2	1	0	8	7	3
OTU 79	2	0	4	9	7	1	8	4	1	8	1	11	8	5	7	12	0	145	0	1	11	4	49	1	12	7	8	4	6	58	1	1	0	1	2	1	7	3	12	1	3	5	6	8	6	2	1	6	1	2
OTU 80	3	0	0	2	7	3	1	0	2	0	0	9	2	44	28	2	1	1	0	0	0	1	4	2	5	0	16	0	11	1	1	0	3	3	0	2	18	0	0	6	0	0	6	9	0	0	5	0	1	9
OTU 81	1	6	0	0	0	2	2	0	4	2	0	1	1	1	1	7	1	5	9	3	0	0	0	0	5	2	19	1	7	0	0	0	4	1	0	2	0	0	0	9	1	0	0	1	6	1	5	10	0	0
OTU 82	0	0	2	0	0	0	1	1	0	4	0	0	0	1	1	6	0	1	0	1	1	2	0	3	4	0	0	0	0	0	0	0	0	2	4	0	1	0	3	6	1	2	2	0	0	0	2	0	1	2
OTU 83	0	0	0	0	0	0	0	0	0	0	0	0	0	0	1	0	0	0	0	0	1	0	1	0	0	0	0	0	0	1	0	0	0	0	0	0	0	0	2	0	0	0	0	0	0	0	2	0	0	0
OTU 84	2	3	2	1	1	0	1	0	0	0	2	0	0	0	0	0	0	1	0	1	3	0	0	1	2	5	0	1	0	0	0	2	1	6	2	0	0	0	0	0	3	0	0	0	1	0	0	1	0	0
OTU 85	0	1	0	0	0	0	0	0	0	0	0	0	0	0	2	0	0	0	0	0	0	0	0	0	0	2	1	0	0	0	0	0	0	0	1	0	0	0	1	0	0	0	0	0	0	0	1	0	0	0
OTU 86	0	0	0	0	0	0	0	2	0	0	0	0	0	0	0	0	0	1	0	0	0	0	0	0	0	0	0	0	0	0	4	0	0	0	0	0	0	0	0	0	0	0	0	2	0	0	0	0	0	0
OTU 87	0	0	0	0	0	0	0	0	0	0	0	0	0	0	0	8	0	0	50	1	0	1	0	0	0	6	0	0	0	0	0	0	0	2	0	0	0	0	0	0	2	0	2	0	0	3	3	0	0	0
OTU 88	0	1	0	0	0	5	0	0	1	0	0	0	0	0	0	0	0	0	0	0	0	3	3	0	4	0	0	0	0	0	0	0	0	0	0	0	0	0	0	0	0	0	0	0	0	0	0	0	0	0
OTU 89	0	0	0	1	0	0	0	1	0	5	0	0	0	2	0	0	0	0	0	0	0	0	1	0	0	0	0	0	0	0	0	7	0	0	0	0	0	0	0	0	1	0	1	1	0	0	0	1	0	0
OTU 90	0	4	0	3	0	1	2	0	0	0	0	1	0	0	0	0	0	0	0	4	0	9	0	0	0	0	0	0	0	0	0	0	0	0	0	0	0	23	0	2	0	0	0	0	0	0	0	1	0	0
OTU 91	0	0	0	1	0	0	0	1	1	0	0	0	0	0	0	0	0	0	0	0	0	0	0	0	0	3	0	0	2	0	0	0	0	0	0	0	0	0	0	0	0	0	0	0	0	0	0	1	0	0
OTU 92	0	0	0	0	0	0	0	0	0	1	0	0	0	0	0	0	4	0	0	0	0	0	0	0	0	0	0	0	0	0	2	0	0	0	0	0	0	0	2	0	0	1	0	0	0	0	0	0	0	0
OTU 93	0	0	0	0	0	0	0	0	0	0	5	0	0	0	0	3	0	0	0	0	0	2	0	0	0	0	0	0	0	0	0	3	0	0	1	1	0	0	0	0	1	0	0	0	0	0	0	0	0	0
OTU 94	0	8	4	2	2	8	8	2	1	1	0	7	5	0	12	5	2	0	3	0	1	2	0	0	0	8	7	3	9	63	8	0	1	16	1	0	0	1	0	2	3	2	1	9	15	1	3	1	1	1
OTU 95	1	0	2	1	0	0	0	0	0	0	0	1	0	0	1	0	0	0	0	1	0	0	0	0	0	0	0	0	0	0	1	3	0	0	1	0	0	1	3	0	0	2	0	0	0	0	0	0	4	1
OTU 96	0	0	0	0	0	0	1	0	0	0	0	0	0	0	4	0	0	0	0	0	0	0	0	0	0	0	0	0	0	0	0	0	0	0	0	0	0	0	0	0	0	0	0	0	0	0	0	0	0	0
OTU 97	0	0	0	0	2	0	0	0	0	0	0	0	0	0	0	0	0	0	0	0	0	0	0	0	0	5	0	1	0	1	0	0	0	0	0	0	1	0	0	0	1	0	0	0	0	1	0	2	0	0
OTU 98	2	0	0	0	0	0	0	0	0	2	0	0	0	0	1	1	0	0	0	0	1	0	0	0	0	0	0	0	2	0	0	1	0	3	1	0	0	0	0	0	0	0	3	0	0	0	0	0	2	0
OTU 99	9	9	0	3	43	0	4	2	11	8	1	0	3	4	6	6	4	7	4	1	13	0	1	0	2	1	5	3	2	0	0	1	2	0	2	2	64	1	1	36	3	0	0	2	1	1	7	5	0	112
OTU 100	1	2	0	0	2	2	4	0	6	0	0	0	1	0	0	2	1	6	0	1	0	0	3	4	0	0	0	4	0	0	0	0	2	0	0	5	58	0	0	11	1	1	0	1	0	0	3	4	0	1
OTU 101	0	0	0	0	0	0	0	0	0	0	0	0	0	0	0	0	0	0	0	0	1	0	0	0	0	0	0	0	0	0	0	0	0	0	0	0	0	0	1	0	0	0	0	0	0	0	0	0	0	0
OTU 102	1	0	0	0	0	0	0	0	0	0	0	0	1	0	4	0	0	1	0	0	0	1	0	0	1	0	0	0	1	2	0	0	0	0	0	0	0	0	0	0	0	0	0	0	0	0	1	0	0	0
OTU 103	0	1	0	0	2	0	0	0	1	0	1	1	0	5	1	0	1	1	0	1	2	0	6	1	0	2	1	5	1	2	1	0	1	0	2	0	0	0	0	2	1	1	2	1	1	0	0	3	0	0
OTU 104	2	3	0	114	9	0	3	1	1	0	1	2	76	0	1	2	1	6	0	0	6	1	0	1	1	2	2	0	4	0	0	1	0	4	2	2	1	0	3	4	1	0	0	0	0	1	1	1	0	0
OTU 105	0	0	0	0	0	0	0	0	0	0	0	0	0	0	0	0	0	0	0	0	0	0	0	0	0	3	0	0	0	0	1	0	0	0	0	0	0	0	0	0	0	0	0	0	1	0	0	0	0	0
OTU 106	0	0	0	0	0	0	1	0	0	0	0	2	0	0	0	0	0	0	0	0	0	0	47	0	0	0	0	0	0	0	0	0	0	1	0	0	1	0	0	0	0	0	0	0	0	1	0	0	0	0
OTU 107	1	76	0	2	1	2	0	0	0	0	0	0	0	0	2	0	0	0	0	0	0	0	1	0	1	0	0	3	0	0	1	0	0	0	0	1	0	0	0	0	0	0	0	0	1	0	1	7	0	2
OTU 108	0	1	0	1	1	0	4	3	1	2	0	5	0	0	1	1	1	0	1	0	1	2	7	0	0	2	1	0	2	0	0	0	0	2	0	0	0	0	0	0	3	0	2	1	1	0	0	1	0	1
OTU 109	0	0	0	0	0	0	0	0	0	0	2	0	0	0	0	0	0	0	0	0	0	0	0	0	0	0	0	0	0	0	2	1	0	0	0	0	0	0	0	0	0	0	0	0	0	0	0	0	0	0
OTU 110	3	1	0	1	0	0	2	0	1	0	0	7	2	0	2	0	1	1	0	1	0	9	8	0	7	3	4	1	0	2	1	1	0	1	1	1	5	0	0	0	0	0	0	3	1	0	4	2	0	1
OTU 111	0	0	0	0	0	0	0	0	0	4	0	0	0	0	0	0	0	0	5	0	0	0	0	0	1	0	0	0	1	0	0	0	0	0	0	28	0	0	0	1	0	0	0	2	0	0	0	0	0	0
OTU 112	0	0	0	3	0	0	0	0	0	0	0	0	2	4	3	5	0	0	0	1	0	0	3	0	0	0	0	0	0	0	0	0	0	1	0	0	0	0	0	0	5	0	1	8	0	0	3	0	1	0
OTU 113	1	0	0	0	0	0	0	0	0	0	0	5	0	2	0	1	0	0	0	0	0	0	0	0	0	1	0	0	0	0	0	0	0	0	0	0	0	0	0	0	0	0	0	0	0	0	0	0	0	3
OTU 114	6	0	0	0	12	0	0	0	0	0	4	0	19	0	0	4	0	1	3	0	5	4	3	0	0	0	2	3	2	0	0	10	1	2	3	3	0	0	2	0	6	2	2	3	0	6	1	6	2	6
OTU 115	0	5	1	3	3	2	2	8	6	5	0	7	0	1	3	12	0	1	7	2	5	10	5	7	9	2	1	3	0	2	3	1	2	7	1	1	3	0	0	6	3	0	0	1	3	0	5	5	0	2
OTU 116	0	10	0	0	0	3	3	0	0	1	0	8	6	5	7	1	2	5	3	2	0	0	0	0	3	9	7	0	0	1	1	2	0	1	32	2	3	24	61	1	1	0	0	0	0	61	3	2	0	0
OTU 117	3	0	0	0	0	4	0	0	0	0	2	1	0	0	0	0	2	1	0	6	3	5	1	27	0	0	0	0	1	0	1	2	7	1	0	0	0	16	0	0	4	1	0	0	3	0	0	3	0	4
OTU 118	2	0	0	1	1	0	0	0	0	0	0	0	0	0	0	1	0	0	2	0	0	0	0	0	0	1	0	0	16	0	0	0	0	0	0	0	0	0	0	0	1	0	0	0	0	0	1	0	0	0
OTU 119	0	2	0	0	8	1	5	1	6	0	2	1	5	0	6	6	4	0	47	0	2	7	1	1	10	5	3	1	0	5	6	1	0	6	0	1	2	0	0	7	7	0	3	4	4	0	0	1	0	10
OTU 120	0	0	0	0	0	0	2	0	0	0	1	1	0	0	0	0	0	0	0	1	0	0	2	0	0	0	0	0	3	0	0	0	0	0	0	0	0	0	1	0	1	0	0	1	2	0	0	0	0	0
OTU 121	0	0	0	2	0	0	3	0	0	1	0	0	0	0	6	0	161	0	0	3	6	1	5	6	2	0	2	0	3	0	1	1	0	0	1	1	0	0	1	0	2	0	2	1	0	0	1	0	0	0
OTU 122	1	0	0	0	0	5	0	11	11	0	0	0	2	5	4	7	2	0	0	3	4	8	0	6	7	82	2	0	4	2	5	1	2	3	0	0	4	0	3	3	2	6	1	2	2	0	2	0	0	3
OTU 123	8	4	6	6	7	1	0	8	6	5	0	3	3	5	9	2	6	1	8	7	7	0	8	5	6	3	1	3	12	9	2	1	1	1	19	3	5	1	4	11	11	7	0	6	6	3	4	10	5	1
OTU 124	1	0	0	0	0	0	0	0	0	1	1	0	0	8	1	10	0	0	0	0	0	0	0	0	0	0	1	0	0	0	0	4	0	0	0	1	0	0	0	0	1	1	1	0	0	0	10	0	0	0
OTU 125	0	3	1	2	6	1	13	5	2	4	6	8	1	3	2	6	0	15	5	3	16	1	6	2	15	11	4	1	5	3	3	5	1	12	8	6	0	5	16	1	5	8	1	1	0	1	1	3	11	1
OTU 126	0	0	0	0	0	0	0	0	0	0	0	0	0	0	2	0	0	0	0	0	0	0	0	0	0	0	0	0	0	0	0	0	0	2	0	0	0	0	2	3	2	1	0	0	0	1	0	1	0	0
OTU 127	0	0	0	2	0	0	0	0	2	0	0	0	0	1	1	0	0	0	0	1	1	3	8	1	0	0	3	4	0	0	1	1	1	0	1	1	0	0	0	0	3	1	0	1	1	4	0	4	0	0
OTU 128	1	2	2	1	1	24	1	3	60	26	2	100	10	25	6	11	8	1	1	1	3	1	1	6	5	3	2	1	4	11	26	4	37	6	0	0	4	9	0	3	7	1	10	13	3	15	0	3	1	2
OTU 129	0	0	0	0	0	0	0	0	0	1	0	0	0	0	0	0	0	0	0	0	0	0	0	0	0	0	0	0	0	0	0	0	0	0	0	3	0	0	2	4	0	0	0	0	0	0	0	0	0	0
OTU 130	0	0	60	4	22	0	1	1	0	1	0	0	1	3	0	0	2	0	1	0	0	0	30	0	3	2	1	2	0	0	0	1	0	0	0	1	0	0	0	1	0	0	2	0	1	1	0	5	176	4
OTU 131	0	0	0	4	0	0	0	4	1	1	0	3	0	1	0	6	0	0	4	1	0	2	0	0	3	1	0	0	0	0	135	0	0	0	1	2	1	0	1	3	3	0	0	0	1	0	3	4	0	0
OTU 132	0	0	0	0	0	1	0	0	1	0	0	0	0	11	2	2	0	0	0	0	0	0	0	0	1	0	1	113	0	0	0	0	0	3	1	0	0	0	3	1	0	1	0	0	1	1	3	0	0	0
OTU 133	26	0	0	1	0	0	0	0	0	0	0	0	0	2	0	0	0	0	0	0	0	4	0	1	0	0	0	0	0	0	0	0	0	0	0	0	2	0	0	0	0	0	0	0	0	0	0	0	0	0
OTU 134	0	10	0	1	3	1	2	43	0	0	0	1	0	0	3	1	1	0	0	0	0	6	1	0	0	1	2	0	3	0	0	1	1	1	0	0	0	0	1	0	0	0	0	0	7	0	0	0	1	2
OTU 135	0	0	1	4	0	0	0	4	0	3	1	0	0	0	2	1	1	2	5	0	7	4	0	1	3	1	0	2	1	0	2	0	0	3	3	1	6	0	8	8	2	1	0	0	0	2	0	4	1	1
OTU 136	0	1	1	0	0	0	1	0	0	3	0	0	0	1	1	1	0	0	2	12	1	1	0	0	2	0	0	2	0	0	1	0	6	1	0	3	1	0	0	0	10	0	0	0	0	0	0	5	0	0
OTU 137	0	2	0	0	0	0	0	0	0	0	5	0	0	0	0	0	0	1	0	0	4	0	0	1	0	0	1	0	0	0	0	0	2	0	0	0	0	0	0	0	0	1	0	0	0	2	0	0	0	0
OTU 138	0	0	2	0	1	1	0	0	2	0	0	1	1	0	0	1	0	0	0	0	1	0	0	2	0	0	0	1	1	0	0	0	0	0	0	0	0	3	0	0	1	1	1	1	0	1	0	0	0	1
OTU 139	0	2	12	3	1	0	2	3	1	1	1	0	2	1	0	1	0	2	4	0	10	3	1	0	3	1	105	13	0	0	1	7	3	2	2	0	0	3	0	111	3	18	0	0	5	12	1	14	14	1
OTU 140	13	6	1	3	2	2	1	3	6	4	11	0	0	1	6	3	1	3	4	0	22	6	1	1	6	2	0	4	5	0	1	12	4	0	0	5	1	0	1	0	3	0	1	4	0	0	1	10	0	4
OTU 141	0	0	0	0	0	0	0	0	0	0	0	0	0	0	1	0	0	0	0	0	1	0	0	0	0	0	0	0	0	0	0	0	0	0	0	0	0	0	0	0	0	0	0	0	0	0	0	0	0	0
OTU 142	0	0	0	0	0	0	0	0	0	0	0	0	0	0	0	0	0	0	1	0	2	0	0	0	0	0	0	0	0	0	0	0	2	0	0	0	0	0	0	0	0	0	0	0	0	0	0	0	0	0
OTU 143	0	0	0	1	0	0	0	1	1	0	0	0	1	1	1	0	0	0	0	0	0	0	0	2	0	1	0	0	0	1	1	0	0	0	1	0	0	0	2	0	0	0	0	0	3	0	0	0	0	0
OTU 144	0	0	0	0	0	0	0	1	0	8	0	2	0	0	0	0	0	0	15	1	0	0	0	0	0	2	0	2	0	0	0	0	0	0	0	0	0	0	0	0	0	0	0	0	0	0	0	9	0	0
OTU 145	7	0	4	0	35	1	2	1	8	0	1	2	0	0	1	0	1	4	0	0	0	2	4	1	2	1	0	0	4	1	0	1	1	2	6	3	1	1	10	4	1	9	0	0	2	1	0	0	1	0
OTU 146	0	1	3	2	0	12	0	45	19	26	3	0	2	4	0	7	4	1	2	0	2	0	5	6	3	1	0	3	0	7	5	1	0	2	0	1	0	0	1	1	0	6	0	0	2	3	0	6	3	1
OTU 147	1	0	0	0	0	3	0	0	3	0	0	0	0	4	0	0	0	0	0	0	0	0	2	0	3	0	0	4	0	3	0	0	0	3	0	4	0	0	0	0	0	0	0	0	0	1	0	11	0	0
OTU 148	0	10	0	2	1	0	0	7	0	0	0	3	0	0	4	0	0	0	0	1	0	5	0	0	3	3	0	1	0	1	1	2	1	0	0	7	1	35	2	1	4	0	0	2	0	92	0	6	1	3
OTU 149	1	0	0	0	0	0	5	0	0	0	0	0	2	0	1	1	0	0	1	0	1	2	0	2	1	7	0	0	0	1	0	0	1	0	0	2	1	0	0	0	0	1	0	0	3	2	0	0	0	0
OTU 150	0	1	4	22	1	0	2	0	0	2	0	0	0	0	0	0	0	1	0	0	0	3	0	0	0	0	0	0	0	0	0	0	0	0	0	0	0	0	0	0	0	0	0	0	0	0	0	0	0	0
OTU 151	0	1	1	0	0	0	0	1	0	1	0	3	0	0	1	4	0	2	1	0	13	3	2	0	1	0	0	0	1	0	0	0	0	2	1	4	0	1	2	0	1	1	0	0	0	0	4	0	0	0
OTU 152	0	1	0	8	0	7	1	7	8	0	0	3	2	2	0	2	2	0	5	0	0	2	1	0	6	2	0	1	1	5	1	2	1	7	0	3	1	38	1	1	1	4	0	0	3	1	2	3	0	0
OTU 153	0	0	0	0	1	0	0	0	0	0	0	0	0	0	0	0	0	0	0	0	5	1	0	0	4	0	0	0	0	0	0	0	0	4	0	0	0	0	0	0	0	0	0	0	0	0	0	0	0	0
OTU 154	0	0	0	0	0	0	0	0	0	0	0	0	0	0	1	0	0	1	0	1	0	0	0	0	0	0	0	0	0	0	0	0	2	0	0	0	0	0	0	1	3	0	0	0	0	0	0	0	0	0
OTU 155	1	0	0	0	0	0	0	1	0	0	0	0	0	1	2	0	0	1	1	1	0	0	0	0	1	10	2	1	0	0	3	0	0	0	0	2	0	1	0	0	0	0	0	0	0	0	0	0	0	1
OTU 156	0	5	2	1	5	2	1	4	3	0	0	6	6	35	1	49	1	5	1	0	5	3	0	1	1	48	0	0	0	2	2	0	1	1	0	13	1	1	1	1	0	3	0	0	16	0	34	0	1	3
OTU 157	3	0	0	0	0	2	1	0	3	18	0	0	0	1	0	0	2	2	1	0	0	0	0	5	0	0	0	0	0	0	0	0	0	1	0	2	0	0	0	0	1	0	1	2	0	0	0	1	0	2
OTU 158	0	0	0	0	1	0	0	0	0	0	0	0	1	0	0	0	0	0	0	0	0	0	0	0	0	0	0	0	3	0	0	0	0	0	0	0	0	0	0	0	0	0	0	0	2	0	3	0	0	0
OTU 159	4	0	1	0	0	5	0	0	3	7	0	0	1	0	0	0	0	0	0	0	2	0	0	0	1	1	3	0	1	1	6	0	0	1	2	1	1	0	1	1	0	1	1	1	5	0	0	1	1	0
OTU 160	4	8	0	4	1	4	101	6	0	18	0	1	0	1	5	3	3	1	5	0	0	1	0	9	2	1	1	1	1	3	3	2	0	3	0	20	0	1	2	1	1	0	0	1	4	1	1	0	0	0
OTU 161	3	0	0	2	0	0	1	1	1	21	24	1	0	0	29	0	0	0	0	32	1	1	7	0	0	2	18	0	5	0	0	75	8	4	2	1	2	2	2	16	55	0	7	5	11	0	1	0	0	20
OTU 162	0	0	1	2	3	0	0	3	1	3	0	0	0	0	0	0	0	6	3	0	0	0	0	4	1	3	0	1	0	0	1	3	1	6	2	0	1	0	1	3	0	0	0	0	3	4	2	0	0	0
OTU 163	0	0	0	0	0	0	0	0	0	0	0	0	0	0	0	0	0	0	2	0	7	0	0	0	0	0	0	0	0	0	0	0	0	0	0	0	0	0	0	0	0	0	0	0	0	0	0	0	0	0
OTU 164	0	0	0	0	0	0	0	0	0	0	0	0	0	0	0	0	0	0	0	0	0	1	0	0	0	0	0	0	1	0	0	0	1	0	0	0	0	0	0	0	0	0	0	0	0	0	0	0	0	0
OTU 165	4	2	0	21	0	0	0	0	0	0	1	0	0	0	0	0	0	1	0	2	0	35	0	0	1	0	0	0	0	0	1	6	1	0	0	0	0	1	0	0	6	0	2	4	6	0	0	0	0	0
OTU 166	2	1	0	0	0	0	0	0	0	0	0	0	0	0	0	0	0	0	0	0	1	0	0	0	0	0	0	0	0	0	0	0	0	0	0	0	0	0	0	1	0	0	0	0	0	0	0	0	0	0
OTU 167	0	0	2	1	0	1	0	0	0	0	0	0	0	0	0	0	0	1	0	1	0	0	2	0	0	0	1	0	2	0	0	0	0	0	0	0	0	0	1	0	0	5	1	1	1	1	0	1	0	0
OTU 168	0	14	0	0	80	0	0	0	0	0	0	2	0	1	0	4	2	0	3	2	1	0	1	3	0	1	0	7	0	0	0	0	2	0	0	1	0	0	1	0	0	1	1	1	0	0	2	0	0	3
OTU 169	0	0	0	0	0	0	0	0	0	0	0	0	0	0	0	0	0	0	0	0	0	0	0	0	0	0	0	0	0	0	0	0	0	0	0	1	0	0	0	0	0	0	0	0	0	0	0	0	0	0
OTU 170	0	0	0	0	0	0	0	0	0	0	0	0	0	0	0	0	0	0	0	0	0	0	0	1	0	0	0	0	0	0	0	0	0	0	0	0	0	0	0	0	1	0	0	0	0	0	0	0	0	0
OTU 171	0	2	0	4	0	0	0	1	0	0	0	2	0	1	0	0	1	0	0	21	0	0	0	1	0	0	0	0	6	1	2	0	7	0	0	2	0	0	0	0	21	1	12	44	0	3	0	1	0	0
OTU 172	0	0	0	0	0	0	1	0	0	1	3	0	0	0	0	0	0	0	0	0	0	0	0	4	0	2	0	0	0	0	0	4	0	1	0	0	0	0	0	0	0	0	0	0	0	0	0	0	0	0
OTU 173	0	0	0	1	0	1	1	0	2	0	0	0	0	2	0	1	0	0	0	4	0	2	2	0	4	2	0	0	0	0	3	0	1	0	0	0	0	0	0	1	7	0	0	0	0	0	0	3	0	0
OTU 174	0	3	1	1	0	0	9	4	0	12	1	0	0	0	1	9	0	1	0	0	0	0	0	2	2	1	0	0	0	0	0	8	0	0	1	0	0	0	0	0	3	1	1	1	3	0	5	1	0	0
OTU 175	0	0	0	1	1	59	4	0	0	0	0	0	0	1	2	0	19	0	0	0	0	0	0	1	0	0	0	1	0	0	0	1	0	0	0	0	1	0	0	0	0	0	4	4	4	0	0	5	0	2
OTU 176	7	2	36	0	0	2	8	1	3	0	0	3	2	6	8	0	0	1	4	4	0	4	2	3	68	1	7	0	2	1	0	6	0	7	2	0	3	2	2	3	1	11	0	1	3	8	2	2	10	0
OTU 177	0	2	0	2	0	0	0	4	0	0	1	1	0	2	0	0	0	1	0	0	2	0	1	5	3	4	0	0	4	0	0	0	80	0	0	3	0	0	0	0	2	0	1	4	4	0	0	1	0	2
OTU 178	1	1	1	0	0	0	0	2	0	0	0	0	0	0	5	1	0	0	1	0	3	1	0	0	0	0	2	0	0	0	0	0	0	2	0	0	0	0	0	0	0	0	1	0	7	1	0	2	0	0
OTU 179	2	1	0	0	1	0	0	0	1	0	0	0	0	2	0	2	0	0	1	0	0	2	0	1	0	0	0	0	0	0	1	0	0	3	0	1	1	0	0	3	0	0	0	0	0	0	0	1	0	9
OTU 180	8	6	3	6	4	1	3	2	2	0	0	8	11	7	2	11	11	1	2	7	5	16	0	18	40	5	3	1	6	2	9	0	2	1	1	2	1	0	4	11	3	0	1	0	10	0	10	5	1	6
OTU 181	1	0	0	0	0	0	1	43	0	0	2	2	0	1	0	0	1	2	0	0	6	0	0	0	5	1	0	1	1	0	2	3	0	1	0	0	0	1	0	2	0	0	1	2	0	0	0	2	0	0
OTU 182	0	0	0	0	0	0	1	0	0	0	0	0	0	0	0	0	0	0	0	0	0	0	0	0	0	0	0	0	0	0	0	0	0	0	0	0	0	0	0	0	2	0	1	0	1	0	0	0	0	0
OTU 183	0	1	0	0	1	1	2	0	0	2	1	7	0	3	1	2	0	2	0	1	3	0	0	1	3	1	0	1	0	0	30	2	0	0	0	2	0	0	1	0	0	0	1	0	0	2	0	0	0	0
OTU 184	6	0	0	5	0	0	1	0	0	0	2	1	0	0	3	1	0	0	0	0	1	10	2	0	0	0	0	0	2	0	0	0	0	0	0	0	0	0	2	0	0	1	2	1	59	0	0	0	0	9
OTU 185	0	0	0	5	3	1	0	1	4	0	4	0	0	1	6	2	2	2	0	0	1	0	2	3	1	0	6	0	0	0	0	2	0	1	1	0	0	0	1	0	2	1	3	3	1	1	1	0	0	0
OTU 186	0	0	0	0	0	2	0	0	2	0	0	1	0	0	0	0	0	1	1	0	0	0	0	0	1	0	0	1	0	3	1	0	0	3	0	0	1	0	0	1	0	3	0	0	0	0	109	1	0	0
OTU 187	14	0	0	20	2	2	2	0	0	1	0	6	1	0	0	0	0	0	20	0	0	37	1	4	2	6	1	9	0	0	0	0	1	2	0	38	0	0	0	2	0	0	0	0	1	2	0	15	1	1
OTU 188	2	1	0	0	5	1	7	1	0	2	0	10	4	7	8	8	5	2	3	9	6	1	1	4	3	4	3	14	8	2	0	1	3	0	1	7	0	2	6	4	14	1	2	3	3	7	4	6	3	3
OTU 189	14	0	0	0	1	4	0	1	5	1	3	0	0	3	6	0	1	0	1	3	6	1	6	4	6	0	5	3	2	0	2	6	4	0	1	1	4	0	0	0	12	0	0	0	1	1	0	9	0	3
OTU 190	0	0	0	0	0	0	0	0	0	0	0	0	0	2	0	0	0	3	0	0	0	0	0	1	0	2	0	0	0	0	0	0	0	0	0	0	0	0	0	2	0	0	1	3	0	0	3	0	0	0
OTU 191	0	3	0	0	1	4	0	0	11	88	0	2	0	1	0	17	5	6	0	0	6	1	0	0	1	0	0	1	12	1	1	0	0	6	0	1	78	0	1	2	0	0	0	1	1	0	4	3	1	0
OTU 192	0	9	37	1	1	0	1	0	1	0	1	6	0	0	0	1	0	3	2	1	1	12	0	2	1	1	1	2	1	0	1	2	0	9	0	0	0	16	0	3	1	87	3	9	0	53	0	2	36	0
OTU 193	0	2	0	1	0	1	0	1	9	5	0	0	0	1	2	0	0	0	6	0	6	1	0	1	2	0	0	0	5	2	0	0	0	0	0	7	0	0	0	1	9	0	1	2	0	0	0	0	0	0
OTU 194	0	1	102	1	0	0	0	0	1	0	0	0	0	0	0	2	1	0	0	0	0	5	0	0	0	1	0	0	0	0	0	0	2	0	0	0	0	0	1	1	1	0	0	0	1	0	0	1	0	0
OTU 195	0	0	0	0	5	0	2	0	0	0	0	8	1	0	37	0	0	0	0	1	0	0	6	0	2	0	8	0	9	0	0	3	0	0	0	0	1	0	0	3	0	0	2	12	0	2	1	0	0	3
OTU 196	0	0	0	1	0	1	0	0	0	0	0	1	0	0	3	0	0	0	2	0	3	0	0	0	4	4	4	0	0	2	4	1	0	2	1	0	0	0	2	3	0	0	1	0	1	0	0	0	0	4
OTU 197	8	1	1	2	3	1	0	4	0	0	3	1	2	9	2	13	0	0	3	8	2	5	10	1	0	1	1	0	9	1	0	3	6	4	0	2	1	0	1	0	39	0	11	3	13	1	3	0	0	2
OTU 198	0	4	0	0	1	0	0	4	0	0	1	0	0	0	0	0	0	0	1	0	0	0	0	5	0	0	0	0	2	0	0	0	0	0	0	0	0	0	0	2	0	0	0	0	0	0	0	3	0	1
OTU 199	1	4	0	0	0	0	1	0	0	0	0	0	0	0	2	0	0	1	1	1	0	0	0	0	0	0	0	1	1	0	1	0	0	0	0	0	0	140	0	0	0	1	0	0	6	0	0	0	1	0
OTU 200	0	0	0	0	0	0	0	2	1	0	3	0	0	1	0	0	0	0	2	0	1	0	10	0	6	5	0	0	0	0	2	1	4	0	0	0	7	0	0	4	0	0	0	2	1	1	0	0	0	0
