	Host 1	Host 2	Host 3	Host 4	Host 5	Host 6	Host 7	Host 8	Host 9	Host 10	Host 11	Host 12	Host 13	Host 14	Host 15	Host 16	Host 17	Host 18	Host 19	Host 20	Host 21	Host 22	Host 23	Host 24	Host 25	Host 26	Host 27	Host 28	Host 29	Host 30	Host 31	Host 32	Host 33	Host 34	Host 35	Host 36	Host 37	Host 38	Host 39	Host 40	Host 41	Host 42	Host 43	Host 44	Host 45	Host 46	Host 47	Host 48	Host 49	Host 50	
OTU 1	0	2	4	3	1	0	0	0	0	4	4	10	2	2	1	0	0	2	0	4	1	1	1	3	0	0	7	4	4	0	0	2	0	3	0	3	0	2	4	0	1	0	0	0	5	1	2	0	0	3
OTU 2	0	1	2	3	0	0	0	0	0	0	0	0	0	1	77	1	0	0	0	1	0	0	1	50	0	2	0	0	5	0	1	0	0	133	0	1	0	0	0	4	79	0	0	0	7	0	0	2	0	0
OTU 3	3	0	0	0	1	7	0	0	0	0	0	0	0	0	1	2	0	0	0	1	0	0	0	0	0	2	0	0	0	0	0	0	0	0	0	0	0	1	0	4	0	0	0	0	0	0	0	0	5	2
OTU 4	0	0	0	0	0	0	1	0	0	0	0	0	0	0	0	0	0	0	0	0	0	0	0	0	0	0	0	0	0	0	0	0	0	0	0	0	0	0	0	0	0	0	0	0	0	0	0	0	0	0
OTU 5	1	7	0	3	2	28	11	6	3	19	3	8	100	39	3	62	26	1	4	0	0	2	22	7	1	16	2	8	14	1	0	5	7	5	9	6	1	23	10	4	1	3	10	0	0	43	19	1	0	0
OTU 6	1	0	0	2	0	0	0	7	0	0	0	1	1	0	2	0	0	1	0	4	0	0	4	0	0	3	3	2	0	0	0	0	1	0	0	0	1	0	0	0	51	1	44	2	2	3	1	0	2	1
OTU 7	3	1	24	0	1	2	2	2	4	0	36	1	5	0	3	0	13	1	2	2	2	0	7	0	1	9	0	0	4	3	6	1	7	2	0	1	119	2	68	12	1	37	2	12	6	0	0	1	0	5
OTU 8	0	4	2	0	3	3	2	5	5	7	0	5	1	4	0	2	0	3	0	0	2	5	2	2	1	4	0	2	0	5	5	2	4	5	3	4	11	3	1	9	3	0	1	4	0	0	2	4	1	6
OTU 9	2	0	0	0	1	0	0	0	0	0	0	0	0	0	0	2	0	0	0	0	1	1	1	1	0	0	0	1	1	0	0	1	0	0	0	0	0	1	0	1	0	0	0	0	1	0	0	1	0	0
OTU 10	0	0	0	0	0	0	1	0	4	0	24	0	0	0	0	0	0	0	0	0	0	0	2	0	10	0	0	0	0	0	0	0	0	0	9	0	0	0	60	0	0	16	0	0	0	0	0	0	1	1
OTU 11	1	1	1	1	0	0	0	2	5	0	0	0	0	0	0	3	0	0	0	1	1	0	1	2	2	0	3	0	2	1	1	0	5	1	1	2	1	0	1	27	0	0	0	3	8	1	0	0	0	0
OTU 12	11	1	0	3	1	1	15	4	1	3	0	1	0	0	3	2	2	1	2	1	2	1	0	0	0	0	4	4	0	3	3	1	2	4	3	0	4	0	0	0	2	0	0	1	2	1	0	1	0	2
OTU 13	0	0	0	0	0	0	0	0	0	0	2	0	0	0	0	0	0	0	0	0	0	1	0	0	4	0	0	0	0	0	0	0	0	0	0	0	0	0	4	5	0	1	0	0	0	0	0	0	5	5
OTU 14	0	0	0	0	0	0	0	1	1	1	0	0	0	1	0	0	0	0	0	0	2	0	0	0	1	6	0	0	1	0	0	0	0	0	0	0	0	0	0	0	0	0	2	0	0	0	0	0	1	1
OTU 15	0	0	0	0	0	0	0	0	0	0	0	0	0	0	0	0	0	6	2	0	0	0	0	0	0	0	0	1	0	0	0	0	0	0	0	0	0	0	0	0	0	15	0	0	0	0	0	0	0	0
OTU 16	0	0	0	0	0	0	0	0	0	0	0	0	0	0	0	0	0	0	1	0	0	0	0	0	0	0	0	2	0	0	0	0	0	0	1	0	0	0	0	0	0	0	0	0	0	0	0	0	0	0
OTU 17	3	1	0	0	0	0	2	1	9	2	0	0	2	1	4	1	0	0	0	0	5	0	0	0	5	1	0	0	0	0	2	0	0	0	0	2	6	0	1	0	0	0	0	0	0	0	0	7	0	0
OTU 18	0	0	4	2	1	3	1	0	1	0	2	0	0	6	0	5	0	3	0	3	0	2	0	0	0	7	1	0	1	0	12	1	1	1	2	0	3	2	1	1	0	3	0	0	0	0	2	1	0	0
OTU 19	0	0	0	0	0	0	0	0	0	0	0	0	0	0	0	0	0	0	0	0	0	0	0	0	0	0	0	0	0	0	0	0	0	0	0	0	0	1	0	0	0	0	0	0	0	0	0	0	0	0
OTU 20	5	2	0	0	2	6	1	2	1	0	0	0	0	3	0	3	0	0	0	0	0	2	3	0	2	9	0	2	1	0	1	0	0	0	0	18	5	5	0	0	0	0	0	4	0	1	1	0	4	1
OTU 21	0	0	1	0	9	1	1	0	0	0	0	0	2	4	0	0	1	5	1	0	8	2	1	0	2	0	4	0	1	4	2	2	2	2	2	0	0	0	0	2	1	0	2	2	0	1	0	0	0	2
OTU 22	0	1	0	0	2	0	3	0	4	0	0	1	0	2	0	0	0	0	7	1	2	0	1	0	1	2	2	14	0	2	0	8	0	0	0	1	2	2	0	0	0	0	6	0	0	0	0	0	0	0
OTU 23	0	0	1	3	0	0	2	0	2	1	0	0	2	0	0	1	0	1	1	0	0	0	1	0	0	0	0	0	0	3	0	3	0	0	0	0	1	1	0	0	0	0	0	4	1	0	0	0	1	0
OTU 24	0	2	3	0	1	0	0	0	0	1	2	6	0	1	0	1	0	0	0	0	29	1	0	0	2	0	0	0	1	0	0	0	0	0	0	2	0	0	3	4	0	2	0	0	1	1	0	0	0	0
OTU 25	0	0	0	0	0	0	0	0	0	0	0	0	0	0	0	0	0	0	0	0	0	0	0	0	0	0	0	0	0	0	0	0	0	0	0	0	0	0	0	0	0	0	0	0	0	0	0	0	0	0
OTU 26	0	0	0	0	0	0	0	0	0	0	0	0	0	0	0	0	0	0	0	0	0	0	0	0	0	1	0	0	0	0	0	0	0	0	0	2	0	0	0	0	0	0	0	0	0	0	0	2	0	0
OTU 27	0	0	0	0	1	0	0	0	10	0	0	0	0	0	0	0	0	0	0	0	0	0	0	0	0	0	0	0	0	0	0	0	0	0	1	0	0	0	0	0	0	0	0	0	0	0	0	0	0	0
OTU 28	0	3	1	2	0	3	2	0	3	2	0	2	0	2	1	6	0	1	0	7	0	0	1	4	16	3	0	0	3	0	0	0	5	1	0	0	2	2	1	2	0	0	0	3	7	0	0	1	8	1
OTU 29	0	0	5	0	1	0	10	0	1	0	0	1	0	0	0	25	0	1	0	0	7	3	1	0	0	0	3	0	2	0	2	2	5	0	0	0	10	2	0	3	0	0	1	2	2	2	1	2	2	9
OTU 30	0	0	0	0	0	0	0	0	0	0	0	0	0	0	0	0	0	0	0	0	0	0	0	0	0	0	0	0	0	0	0	0	0	0	0	0	0	0	0	0	0	0	0	0	0	0	0	0	0	0
OTU 31	0	0	0	0	1	0	0	1	2	0	2	4	0	0	0	0	0	1	0	0	1	0	0	7	2	0	5	0	0	0	0	0	0	1	0	0	4	0	1	0	0	0	0	0	0	1	1	0	0	0
OTU 32	0	4	3	0	5	2	5	3	6	1	3	4	0	1	1	3	0	3	6	6	2	0	0	5	0	2	84	9	3	4	1	24	1	0	10	3	2	1	0	6	0	0	3	7	13	38	1	2	1	4
OTU 33	7	0	0	0	1	1	0	0	0	0	0	0	0	0	0	0	0	0	0	0	0	0	1	0	0	0	0	0	0	0	0	0	0	0	0	0	0	0	0	0	0	0	0	0	0	0	0	0	0	0
OTU 34	2	1	10	1	0	1	3	4	0	0	0	1	0	2	1	0	1	2	0	1	1	3	0	2	3	3	0	0	0	4	1	0	1	0	0	0	2	2	0	9	0	0	0	1	1	1	0	0	0	2
OTU 35	0	0	0	1	0	7	2	1	4	0	1	0	0	7	1	3	0	0	0	0	25	5	0	2	0	0	0	0	0	1	2	0	45	2	2	0	4	0	0	2	0	0	0	4	0	17	0	2	3	2
OTU 36	1	1	0	0	1	0	0	11	4	0	0	5	0	5	0	8	0	2	0	0	8	2	0	0	9	10	0	2	0	2	0	0	2	0	1	2	0	0	2	2	0	3	0	0	1	6	0	6	0	2
OTU 37	0	0	0	2	5	0	4	1	0	0	0	0	0	2	0	0	2	0	0	0	0	0	0	1	0	2	0	0	0	1	0	0	0	0	4	0	0	0	0	0	2	0	0	0	1	0	0	0	39	1
OTU 38	8	0	0	1	1	13	0	3	0	1	0	0	0	0	0	0	0	5	2	0	0	1	0	0	0	7	0	8	0	5	5	2	1	0	1	2	0	0	0	2	0	0	0	13	2	0	1	0	0	2
OTU 39	0	0	0	0	1	0	1	0	3	0	0	0	0	0	0	0	0	1	0	0	0	0	2	1	0	0	0	0	0	0	1	0	0	0	0	0	0	1	3	0	0	0	0	0	0	0	0	4	0	2
OTU 40	0	0	1	0	9	1	3	3	2	0	0	0	0	8	0	1	0	2	7	0	4	9	0	1	4	4	1	41	0	1	1	0	0	1	0	3	0	1	0	5	1	0	0	0	1	73	0	0	1	0
OTU 41	0	2	3	0	2	0	2	5	0	2	3	5	0	3	115	0	0	8	1	0	1	3	1	0	0	1	0	5	5	1	3	0	0	0	1	0	1	1	4	1	2	2	1	1	0	0	0	1	0	1
OTU 42	0	0	2	7	1	0	1	0	0	0	0	0	0	0	0	0	0	0	2	5	2	0	0	0	1	3	0	3	6	0	0	0	3	0	1	0	0	0	0	0	0	0	2	0	2	0	0	0	0	0
OTU 43	0	0	0	0	0	0	0	0	0	0	0	0	0	0	0	0	0	0	0	0	0	0	0	0	0	0	0	0	0	0	0	0	0	0	0	0	0	0	0	0	0	0	0	0	0	0	0	0	0	0
OTU 44	0	0	1	0	0	0	0	0	4	0	0	0	0	0	0	0	0	3	0	0	0	0	2	0	0	0	2	0	0	0	0	0	0	0	0	1	1	0	0	0	0	0	0	0	0	0	0	0	0	0
OTU 45	12	3	16	0	3	3	1	0	0	0	0	0	12	0	8	8	1	0	42	0	0	1	1	0	0	2	2	1	3	1	7	0	9	1	0	3	0	1	0	6	2	1	2	0	0	3	2	1	0	0
OTU 46	14	0	2	23	0	1	6	2	1	0	36	12	7	0	0	0	2	4	0	34	0	3	0	0	6	3	0	0	27	2	2	12	0	2	4	4	0	4	14	1	0	7	3	2	62	0	0	43	7	0
OTU 47	0	0	0	0	2	0	0	0	0	0	0	0	0	0	0	0	0	0	0	0	0	0	0	0	0	0	0	0	0	3	0	0	0	0	0	0	0	0	0	0	0	0	0	0	0	0	0	0	0	3
OTU 48	1	5	1	0	0	0	0	1	0	0	0	0	1	1	1	5	2	0	0	0	1	0	0	0	3	1	1	2	0	0	0	1	3	1	0	1	2	0	0	3	0	2	0	23	6	0	1	0	1	1
OTU 49	0	0	1	1	0	2	4	0	0	1	0	3	0	2	0	0	0	0	0	0	0	6	0	168	0	0	3	0	3	0	0	0	2	0	0	0	0	2	0	4	0	0	1	0	0	0	1	1	0	5
OTU 50	9	0	1	0	2	4	1	0	1	2	1	1	1	2	9	5	0	2	0	1	12	2	2	7	2	6	2	0	0	0	2	2	0	17	4	11	4	4	0	1	7	0	0	9	0	6	1	2	0	0
OTU 51	0	1	4	0	5	1	0	2	1	0	8	1	0	3	1	2	0	3	0	1	0	2	6	0	1	2	6	0	1	4	0	1	0	0	0	1	6	0	30	0	0	17	0	5	0	1	0	0	1	6
OTU 52	0	135	4	0	6	1	0	3	4	1	32	38	5	0	15	0	1	3	4	0	0	2	15	5	3	2	4	1	1	0	3	34	2	22	16	5	1	2	14	5	10	11	3	13	0	2	0	25	0	2
OTU 53	0	0	0	0	0	0	0	0	0	0	0	0	0	0	0	0	0	0	0	0	0	0	0	0	0	0	0	0	0	0	0	2	0	0	0	0	0	0	0	0	0	0	0	0	0	0	0	0	0	2
OTU 54	11	0	2	1	4	26	2	0	0	2	1	1	3	0	1	1	0	3	2	0	3	1	1	1	2	0	7	6	0	1	10	4	1	2	2	0	1	0	0	1	0	0	3	7	0	4	0	5	0	0
OTU 55	0	0	0	0	0	0	0	1	0	0	0	0	0	0	0	0	0	0	0	0	0	0	0	0	0	0	0	0	0	0	0	0	0	0	0	0	0	0	0	0	0	0	0	0	0	0	0	0	0	0
OTU 56	0	1	0	3	0	1	49	1	0	0	0	0	0	0	0	0	0	0	0	0	0	0	0	0	3	0	0	0	0	1	0	0	0	0	0	0	0	0	0	0	0	0	1	14	0	1	0	0	0	0
OTU 57	9	5	4	0	0	0	1	1	8	2	0	0	2	5	0	2	3	1	0	7	5	0	2	1	1	7	1	8	8	5	3	1	4	0	3	1	3	3	0	2	2	0	2	1	5	2	2	1	7	5
OTU 58	0	0	0	2	5	0	0	0	0	1	2	1	0	4	0	0	0	3	1	1	18	3	0	0	2	0	0	4	0	0	0	0	0	1	0	0	1	0	0	4	1	0	0	0	0	0	0	0	0	0
OTU 59	0	1	0	0	1	0	0	0	0	0	0	1	0	2	0	0	0	6	0	0	0	0	0	0	5	1	1	4	0	1	1	0	0	0	0	0	1	0	0	0	0	0	2	1	0	0	0	1	0	0
OTU 60	0	1	0	1	1	1	5	3	1	0	2	2	6	0	0	4	0	3	0	1	3	0	3	0	1	7	3	1	2	3	1	0	0	0	2	1	7	1	0	8	0	2	0	6	0	2	0	0	0	4
OTU 61	2	3	5	2	4	58	5	2	2	0	0	2	4	4	3	3	1	5	5	3	20	0	0	1	1	5	0	4	31	2	0	2	0	4	0	3	2	0	0	13	1	3	2	2	1	0	0	2	2	0
OTU 62	1	0	0	0	0	0	0	1	0	0	0	1	0	0	0	0	0	0	0	1	0	0	0	0	0	2	0	0	1	0	0	4	3	0	0	0	0	0	0	0	0	0	0	0	0	0	0	0	1	3
OTU 63	0	0	0	0	1	0	0	0	1	0	0	2	0	0	0	2	0	0	0	0	0	9	3	0	5	0	1	0	0	0	0	8	0	1	4	0	1	0	0	1	0	0	0	0	1	1	0	0	0	0
OTU 64	7	6	3	0	4	3	3	10	1	0	3	11	1	4	2	4	2	6	4	5	5	1	4	5	0	2	2	3	5	1	7	3	1	1	7	0	2	2	5	0	3	2	1	11	13	4	0	5	6	3
OTU 65	0	0	0	0	0	0	0	0	0	0	0	0	0	0	0	0	0	0	0	0	0	0	0	0	0	0	0	0	0	0	0	0	29	0	0	0	0	0	0	0	0	0	0	0	0	0	0	0	0	0
OTU 66	2	0	2	1	0	0	0	3	7	0	1	1	0	1	0	5	0	0	0	1	11	0	1	0	1	1	1	0	0	4	2	1	0	3	3	0	2	0	1	1	0	0	3	0	0	2	0	1	0	12
OTU 67	1	3	0	0	2	2	0	0	2	0	0	1	0	3	1	3	0	0	0	0	2	1	2	0	0	0	0	1	0	0	0	1	0	0	0	2	2	0	0	0	0	1	1	0	1	0	0	0	0	2
OTU 68	0	0	2	1	0	0	0	0	0	0	1	0	0	0	0	0	0	1	0	4	0	0	1	0	9	0	3	0	2	0	1	2	0	0	1	0	0	0	0	0	0	0	1	0	0	1	0	0	1	0
OTU 69	4	2	0	0	1	4	0	3	2	1	0	4	0	21	0	2	1	0	0	0	1	0	0	0	1	5	1	0	0	4	2	3	1	0	2	0	27	0	2	5	0	2	4	2	0	2	2	8	0	1
OTU 70	0	0	1	0	3	0	0	0	1	0	0	0	0	1	0	0	0	0	0	2	0	2	1	0	0	1	0	3	0	0	1	0	0	0	0	1	0	2	0	2	0	0	0	0	0	0	6	1	0	2
OTU 71	2	0	0	0	1	0	1	0	3	0	0	0	0	0	0	0	0	0	0	0	1	0	0	0	0	0	0	2	0	3	2	0	4	0	0	0	1	13	0	1	0	0	0	2	0	1	0	0	0	1
OTU 72	6	2	1	0	3	1	8	3	2	0	2	3	4	2	0	1	0	1	0	0	0	0	1	1	2	4	2	2	0	7	0	0	1	0	0	0	7	3	0	0	0	0	2	0	2	2	0	3	0	0
OTU 73	1	0	0	0	0	0	3	0	0	0	0	0	0	0	0	0	0	1	0	1	9	0	24	0	8	3	0	3	2	0	6	1	0	0	1	1	0	1	0	0	0	0	2	0	8	0	3	1	0	1
OTU 74	8	0	1	0	5	0	5	5	1	0	0	0	1	0	0	0	1	7	2	3	0	1	1	2	3	0	0	0	1	6	5	2	2	8	0	0	8	1	1	5	12	0	1	3	0	0	3	6	0	1
OTU 75	2	1	0	2	2	2	0	4	0	0	0	2	3	9	0	0	0	6	0	0	2	0	0	0	9	3	6	5	0	2	8	0	3	0	0	0	1	1	0	2	1	0	2	0	0	0	3	0	0	2
OTU 76	0	1	0	1	0	0	5	3	0	0	0	0	0	0	0	1	0	0	0	0	0	3	0	2	0	0	5	0	0	0	0	0	0	0	0	0	0	0	0	0	0	0	0	16	0	1	0	0	0	1
OTU 77	2	0	0	0	0	1	5	0	0	0	1	0	0	0	0	0	0	0	65	1	1	2	4	0	0	5	0	113	0	0	0	6	0	0	3	0	1	0	6	6	0	1	0	0	1	1	0	3	0	0
OTU 78	0	1	4	1	5	0	3	3	1	44	0	0	1	0	0	0	2	0	0	0	0	0	1	0	2	1	0	2	4	9	0	0	0	0	1	0	4	3	0	2	0	0	0	0	2	2	1	0	0	5
OTU 79	6	34	2	1	7	0	19	33	1	0	0	3	6	0	4	3	10	1	0	1	0	5	10	0	11	1	9	2	0	26	35	2	4	9	4	2	1	3	1	6	4	0	13	6	5	1	2	3	3	8
OTU 80	0	6	4	0	2	0	0	6	3	4	0	0	6	3	2	2	2	0	1	0	3	2	134	3	0	0	17	0	0	1	5	3	1	0	0	2	0	5	0	1	1	0	3	4	3	6	0	0	0	0
OTU 81	3	13	5	0	8	5	0	2	11	2	0	0	1	6	25	0	0	0	11	0	3	0	0	0	3	2	3	4	0	0	4	1	1	3	0	5	2	1	0	1	1	1	0	0	1	1	3	0	1	0
OTU 82	0	0	0	7	2	0	1	1	0	0	2	0	0	2	0	1	2	1	3	5	2	3	1	0	2	5	0	5	3	4	2	0	2	5	0	1	1	0	4	0	1	0	0	6	1	0	1	0	1	0
OTU 83	0	0	1	0	0	0	0	0	12	0	0	0	5	0	0	0	0	0	0	0	1	0	0	0	0	0	0	0	0	0	3	1	3	0	0	0	0	0	0	0	0	0	0	0	2	4	0	0	0	0
OTU 84	1	0	0	0	0	0	0	2	3	0	1	4	4	5	1	0	0	87	0	0	0	9	0	0	0	0	0	0	0	0	0	0	0	0	1	0	0	0	4	0	0	1	0	1	0	0	0	0	0	0
OTU 85	0	0	0	0	0	0	0	1	0	0	0	0	14	0	1	1	1	2	0	0	0	0	0	0	0	0	0	1	0	0	0	0	0	0	0	0	0	0	0	12	0	0	0	13	1	0	0	0	1	0
OTU 86	0	0	0	0	0	1	0	0	0	0	0	0	0	0	0	0	0	0	0	0	0	0	0	0	0	0	0	0	0	0	0	0	0	0	0	0	1	1	0	0	0	0	0	0	0	0	0	0	0	0
OTU 87	0	1	0	0	0	0	0	1	0	0	35	111	0	0	0	0	3	0	0	0	0	1	0	0	0	0	0	0	0	14	9	0	0	0	0	0	0	0	60	1	0	30	2	0	0	0	0	0	1	0
OTU 88	0	0	0	0	0	0	0	0	1	0	0	0	0	1	1	0	0	0	0	0	0	0	0	0	0	0	0	1	0	0	1	0	0	0	0	0	0	0	0	0	0	0	0	0	0	1	0	0	1	0
OTU 89	0	0	0	0	2	3	0	3	0	0	0	0	0	7	0	1	0	0	0	0	1	0	0	0	5	0	0	0	0	1	0	0	0	0	0	9	0	0	0	0	0	0	0	0	4	0	0	0	0	0
OTU 90	0	0	0	0	0	0	0	1	0	0	0	0	0	0	0	0	0	0	0	3	0	1	0	0	0	0	0	0	0	0	0	0	0	0	0	0	0	1	0	0	0	0	0	0	0	0	0	0	0	0
OTU 91	0	0	0	0	0	0	0	0	0	0	0	0	0	0	0	0	1	0	0	0	0	0	0	0	0	0	0	0	0	3	0	120	0	5	48	0	0	0	0	0	0	0	0	0	0	0	0	0	0	0
OTU 92	0	0	1	0	0	0	0	0	0	0	2	0	0	0	0	0	0	0	0	0	1	0	0	0	3	0	0	0	0	0	0	0	1	0	0	0	0	0	0	0	0	0	0	0	0	0	0	0	0	0
OTU 93	0	0	0	1	0	0	0	0	0	2	0	0	1	0	0	0	0	0	0	0	0	0	0	0	0	0	0	0	0	0	2	0	0	0	0	0	0	0	2	0	0	0	0	0	0	0	0	0	0	1
OTU 94	1	0	12	3	4	1	0	0	3	8	3	2	0	3	0	0	3	0	0	2	7	0	25	3	6	2	4	0	5	1	4	5	0	1	2	0	3	6	1	0	1	0	0	10	7	1	0	3	1	5
OTU 95	2	0	0	0	0	0	0	0	0	80	142	0	0	0	1	0	0	0	0	0	0	1	0	1	5	0	0	0	0	0	0	0	0	1	0	0	0	0	0	0	0	0	0	0	0	0	0	0	0	0
OTU 96	0	0	0	0	0	0	0	0	0	0	0	0	0	0	0	0	0	0	0	0	0	0	0	0	0	0	0	0	0	0	0	0	32	0	0	2	0	3	0	0	0	0	0	0	0	0	0	0	0	0
OTU 97	0	0	0	0	0	0	0	1	0	0	0	0	1	0	0	1	0	2	0	3	0	0	2	0	0	0	0	0	0	0	0	0	0	0	0	0	0	0	1	0	1	0	0	0	0	0	0	0	0	0
OTU 98	0	0	0	3	0	0	0	0	5	0	0	0	1	0	0	0	0	0	0	3	1	0	0	0	0	0	4	0	9	0	0	0	5	0	1	0	0	0	0	0	0	0	0	1	3	1	0	0	1	0
OTU 99	10	4	0	0	4	1	5	0	1	3	2	2	1	0	6	3	0	2	4	4	2	0	0	0	1	6	1	5	3	0	1	5	0	1	1	1	1	1	2	0	2	1	0	4	5	0	0	0	4	1
OTU 100	1	2	0	2	0	0	1	1	0	0	0	0	0	0	0	0	0	4	0	0	0	1	2	0	2	0	0	1	0	0	2	0	0	1	0	0	1	6	0	10	0	63	0	0	0	0	0	0	4	0
OTU 101	0	0	0	0	1	0	0	0	0	0	0	0	0	2	0	0	0	0	0	0	0	0	0	0	0	0	0	0	0	1	0	0	0	0	0	0	0	0	0	0	0	0	0	0	1	0	0	0	0	0
OTU 102	4	0	3	0	0	0	0	1	0	0	0	0	1	0	0	0	55	0	0	0	0	2	4	0	0	0	0	0	0	0	0	4	2	0	0	0	0	0	0	0	0	0	0	0	1	0	0	0	0	0
OTU 103	0	19	0	1	0	0	0	1	0	2	0	0	0	0	0	1	0	0	0	1	0	0	0	0	0	0	0	0	0	0	0	0	0	2	2	0	1	3	0	6	1	0	0	0	1	0	0	0	0	1
OTU 104	1	0	79	3	0	0	0	4	8	0	0	4	2	0	5	7	0	14	0	2	0	1	9	4	1	27	1	0	9	0	0	1	0	13	0	1	2	0	1	2	4	1	1	0	9	0	1	1	9	38
OTU 105	0	0	0	0	0	0	0	1	0	0	0	0	0	2	0	0	0	0	0	0	0	4	0	0	0	1	5	0	0	0	79	0	0	0	0	0	0	0	0	0	0	0	0	0	0	1	1	0	0	0
OTU 106	0	0	2	0	0	1	0	0	0	0	0	0	0	0	0	0	0	0	0	0	0	0	3	0	3	0	0	1	0	0	1	0	2	1	0	0	0	0	0	0	1	0	0	7	5	0	0	0	0	3
OTU 107	0	0	0	1	3	1	2	2	0	0	0	0	0	0	0	0	1	0	0	0	0	0	2	0	3	0	0	0	0	0	0	0	38	0	0	0	0	0	2	0	0	1	2	0	0	0	0	38	0	0
OTU 108	0	1	0	0	0	1	8	0	0	0	1	0	0	0	0	2	19	0	1	2	0	0	1	0	0	0	0	2	0	0	0	0	0	0	0	2	0	0	1	0	1	1	0	0	2	0	0	0	0	2
OTU 109	0	0	1	0	0	0	0	0	0	0	0	0	0	0	0	1	0	0	0	0	0	0	0	0	0	0	0	0	0	0	0	0	0	0	0	0	0	0	0	0	0	0	0	0	0	0	0	0	0	0
OTU 110	9	5	0	0	4	3	5	0	0	10	1	12	19	7	10	4	2	0	2	0	0	6	0	7	2	0	0	3	0	4	18	0	11	16	2	0	4	6	2	0	6	1	2	0	0	1	7	0	0	1
OTU 111	0	0	0	0	1	20	0	0	12	0	0	0	0	1	0	0	0	0	0	0	0	0	0	0	0	0	0	0	0	0	0	8	0	0	0	0	0	0	0	0	0	0	0	0	0	0	0	0	0	0
OTU 112	4	0	4	0	0	0	0	0	0	2	0	1	0	2	0	3	0	0	6	0	0	0	3	0	0	0	0	8	0	0	0	0	1	0	0	0	0	0	0	1	0	0	0	0	0	0	0	0	5	0
OTU 113	0	3	0	0	0	1	0	0	1	0	0	0	0	0	2	0	0	0	0	0	0	0	0	0	0	0	0	0	0	0	0	0	0	0	0	0	0	0	1	0	0	0	0	0	0	0	0	0	6	0
OTU 114	2	38	4	0	0	1	3	7	2	7	0	6	0	5	0	11	2	12	2	1	2	2	0	5	2	0	2	7	0	5	0	2	4	1	2	1	4	13	0	4	0	0	0	1	1	3	4	0	2	4
OTU 115	1	2	2	1	2	0	1	3	1	4	1	4	4	0	0	3	4	3	0	2	0	0	1	3	1	6	3	0	2	5	0	2	14	4	2	2	4	3	0	1	1	0	8	4	8	1	1	4	1	2
OTU 116	2	0	0	0	4	1	0	0	12	0	1	2	1	1	0	2	1	0	0	1	7	2	0	0	0	5	0	0	2	1	0	2	2	2	3	0	0	2	6	1	1	0	2	2	1	0	0	0	1	2
OTU 117	0	4	0	0	5	3	0	22	8	0	1	2	0	0	4	1	3	1	2	3	1	1	0	0	2	7	0	2	53	6	4	0	3	1	1	2	0	0	3	0	0	0	1	0	1	0	0	0	1	4
OTU 118	0	0	0	0	0	0	0	0	0	0	0	0	0	0	3	0	0	0	0	0	0	0	0	0	0	3	0	2	1	0	0	0	0	0	0	115	1	0	0	1	0	0	0	2	0	0	0	0	0	0
OTU 119	2	0	1	0	1	0	36	1	0	0	1	0	0	4	0	1	0	6	2	0	0	4	1	1	1	0	0	1	0	0	0	1	0	4	3	1	1	2	0	3	1	0	0	0	0	0	0	0	5	4
OTU 120	0	1	1	3	4	0	1	1	2	0	0	1	0	0	0	0	3	26	0	1	2	0	2	1	0	0	1	0	0	6	2	2	5	0	0	1	0	0	3	0	0	0	0	0	4	0	0	0	3	2
OTU 121	0	0	1	0	0	0	0	0	1	0	0	0	0	2	4	1	2	1	0	0	0	6	3	0	4	2	0	0	0	5	0	0	0	1	1	0	0	1	0	2	0	0	2	1	0	0	0	0	0	5
OTU 122	5	0	2	0	0	0	1	6	0	0	0	0	0	0	0	0	1	5	0	1	0	0	3	0	0	0	0	0	0	0	2	0	1	1	2	0	4	8	1	0	1	0	1	5	6	0	0	0	0	2
OTU 123	2	2	16	12	5	8	27	2	21	13	0	8	0	1	0	5	2	25	2	10	21	160	10	5	5	10	3	2	30	5	5	27	9	7	13	2	5	4	11	16	2	4	11	14	20	76	2	13	6	5
OTU 124	0	0	2	0	0	0	0	4	1	1	0	0	0	0	0	2	0	0	0	0	0	0	0	1	1	0	0	1	0	0	0	0	0	0	1	0	5	2	0	0	1	0	0	2	0	0	0	0	0	0
OTU 125	3	1	11	4	0	2	18	4	35	35	1	0	17	7	0	0	33	4	1	5	2	11	4	2	10	3	1	4	2	48	2	2	5	1	2	35	0	4	1	7	0	2	13	4	6	0	105	1	1	8
OTU 126	0	0	0	0	0	0	0	0	0	0	0	0	0	1	0	0	0	0	0	0	0	0	0	0	0	4	0	0	0	0	0	1	0	0	0	0	0	0	0	0	0	0	0	0	0	0	0	0	0	0
OTU 127	2	1	1	0	1	1	0	0	1	0	2	3	1	1	0	0	0	1	2	0	3	1	0	0	2	0	0	1	1	0	1	0	1	0	0	0	1	0	0	1	0	0	1	1	0	0	0	0	1	0
OTU 128	30	3	40	5	0	25	5	14	5	41	0	5	1	4	11	6	1	1	7	13	19	2	4	5	21	2	31	7	16	5	11	7	1	11	4	5	1	91	6	4	6	126	1	2	45	13	59	5	7	1
OTU 129	0	0	0	0	0	0	0	0	0	0	0	0	0	0	0	0	3	0	0	0	0	0	0	1	0	0	1	0	0	1	0	4	0	0	0	0	0	0	0	0	0	0	0	0	0	0	0	0	0	0
OTU 130	3	0	0	0	0	0	2	0	3	1	0	0	0	2	0	3	0	0	0	0	0	1	0	1	5	7	1	0	1	0	0	1	3	0	0	1	0	0	0	0	0	1	0	6	1	2	1	1	0	1
OTU 131	1	2	0	0	0	1	4	8	0	1	0	0	3	0	0	9	0	32	0	0	0	1	0	2	2	8	2	3	0	0	3	0	2	0	3	0	2	0	0	3	0	0	0	0	0	2	0	39	1	0
OTU 132	0	1	0	0	1	0	0	10	0	4	0	6	0	3	0	1	0	7	2	0	0	1	0	0	1	0	1	2	0	0	0	1	0	0	1	1	2	0	3	1	0	2	2	0	7	1	0	0	0	0
OTU 133	0	0	2	0	0	0	0	0	1	0	0	0	5	0	0	0	0	0	0	0	0	2	0	0	1	0	0	1	0	0	0	0	0	1	0	0	0	0	0	0	0	0	0	0	0	0	0	0	148	0
OTU 134	0	0	1	2	1	0	2	2	2	0	0	0	0	0	0	0	4	0	0	0	0	1	0	0	0	0	8	0	2	4	0	4	0	0	5	0	0	2	0	1	0	0	1	0	1	0	1	0	5	0
OTU 135	7	0	1	1	5	3	3	2	0	2	1	3	0	1	0	0	25	0	0	1	0	2	10	1	0	4	10	0	0	55	0	0	11	2	0	2	5	0	2	0	0	0	31	0	1	6	0	1	0	0
OTU 136	1	0	4	0	2	9	0	2	0	0	0	1	0	0	2	0	0	2	0	0	0	0	1	0	2	0	0	1	0	0	1	0	1	0	0	1	0	1	0	3	0	1	0	0	0	0	0	0	0	0
OTU 137	0	1	0	0	0	0	0	7	0	0	2	8	1	0	0	1	0	0	1	0	0	0	3	0	2	0	0	0	1	0	0	0	4	0	0	6	0	0	4	0	0	0	0	0	2	0	0	0	0	0
OTU 138	0	0	0	0	0	0	0	0	5	6	0	0	0	17	0	2	0	0	1	0	0	13	1	0	2	1	1	0	0	0	1	0	0	0	5	0	5	11	0	0	0	0	2	1	0	0	2	2	0	2
OTU 139	6	1	3	1	0	4	2	3	2	2	2	4	0	0	0	4	0	1	0	4	1	1	0	0	31	28	0	2	3	2	5	0	2	1	27	1	2	5	0	3	0	1	1	3	4	0	0	0	0	4
OTU 140	2	2	3	2	2	1	2	8	5	0	1	0	3	29	2	14	6	2	3	7	3	6	0	0	9	16	42	4	2	7	3	0	3	0	0	3	1	8	0	2	1	0	4	35	4	11	4	6	4	5
OTU 141	0	0	0	0	0	0	0	0	0	0	0	0	0	1	0	0	0	0	0	0	0	0	0	0	2	0	0	0	0	0	0	0	0	0	0	0	0	0	0	6	0	0	0	0	0	0	0	0	0	0
OTU 142	0	0	0	0	0	0	0	0	0	0	0	0	0	0	0	0	0	0	0	0	0	0	0	0	0	0	0	0	0	0	0	0	0	0	0	0	0	0	0	2	0	0	0	1	0	0	0	0	0	0
OTU 143	0	0	0	0	0	0	0	0	0	0	0	0	0	0	0	0	0	0	0	0	0	0	0	0	0	0	4	0	0	0	0	0	0	0	0	0	0	0	1	0	0	0	0	0	0	2	0	0	0	0
OTU 144	0	0	8	0	2	0	2	0	0	0	0	0	0	0	0	0	0	0	0	0	0	0	4	1	2	1	1	0	0	0	1	0	0	0	0	0	0	0	0	2	0	0	0	0	0	0	1	0	0	4
OTU 145	6	1	2	0	7	0	6	3	1	1	0	0	1	1	0	5	0	0	1	0	1	4	0	1	4	2	2	0	1	2	1	4	1	5	1	0	0	0	0	3	7	0	6	1	5	2	93	1	1	1
OTU 146	1	0	0	0	7	1	1	1	1	0	0	1	9	0	0	1	0	2	0	0	1	0	0	0	13	1	8	0	1	1	0	1	2	0	0	6	0	0	3	0	0	0	0	0	0	4	0	1	0	4
OTU 147	3	4	0	0	0	1	5	1	0	0	0	0	0	0	0	0	2	0	0	2	2	0	0	0	0	0	0	0	0	0	0	2	0	0	0	3	0	0	0	0	0	0	0	0	0	0	0	0	0	0
OTU 148	7	3	1	0	0	1	2	0	0	0	1	1	0	4	0	0	0	2	0	0	7	0	1	1	0	0	1	0	1	0	2	7	22	3	2	0	0	0	0	11	0	1	0	2	2	1	0	0	0	0
OTU 149	7	0	0	0	0	2	0	0	0	0	0	3	30	1	0	0	0	0	0	2	0	0	0	0	0	0	0	0	0	0	0	0	0	2	0	1	0	0	0	0	0	0	0	0	0	0	0	0	0	4
OTU 150	2	0	1	1	0	1	0	0	0	1	0	0	0	0	1	0	1	0	0	0	0	1	1	0	0	4	1	3	0	0	0	0	0	0	0	0	0	0	0	4	0	0	0	0	0	1	0	0	0	0
OTU 151	1	1	0	2	2	0	0	0	1	0	0	0	3	0	0	0	1	3	5	0	0	2	0	2	0	0	0	1	0	0	0	0	0	0	0	0	1	1	0	0	0	0	0	3	1	0	3	0	0	0
OTU 152	3	4	1	0	1	3	0	0	2	0	6	8	0	0	2	0	1	1	1	1	11	4	0	0	16	21	1	2	0	1	0	3	0	0	0	0	1	7	14	0	1	11	0	5	2	0	3	0	0	1
OTU 153	0	0	0	1	0	0	0	0	0	0	0	0	0	4	0	0	0	0	0	0	4	0	0	0	0	0	0	0	0	0	0	0	0	0	0	0	0	0	0	0	0	0	0	0	0	0	0	0	0	0
OTU 154	0	0	0	0	0	0	0	0	1	1	0	0	0	0	3	0	0	0	0	2	0	0	0	12	0	1	0	0	0	0	0	0	0	8	0	0	0	1	0	0	1	0	0	0	1	0	1	0	0	0
OTU 155	1	0	0	1	3	5	2	4	0	1	0	0	2	0	0	0	96	0	0	0	0	0	1	1	0	0	0	0	1	1	3	1	0	0	0	3	0	1	0	0	0	1	1	1	0	0	0	0	0	0
OTU 156	2	4	1	0	1	1	0	14	5	0	0	0	2	6	0	9	1	0	0	0	2	0	0	1	3	3	1	0	1	2	1	1	4	1	2	1	3	6	3	10	1	0	0	2	0	2	3	3	0	0
OTU 157	0	0	0	7	0	0	0	0	0	0	0	0	0	0	0	2	0	0	0	0	0	0	0	0	0	3	0	0	0	0	1	0	0	0	0	0	0	0	0	0	0	4	0	0	1	0	0	0	0	0
OTU 158	0	0	1	1	0	0	0	0	0	0	0	1	1	0	0	0	0	0	0	1	0	0	0	0	0	0	0	0	0	5	0	0	0	0	0	0	0	0	0	0	0	0	3	0	0	0	0	0	0	0
OTU 159	1	0	0	0	6	2	0	0	0	0	0	0	4	0	33	3	3	0	0	0	0	3	0	0	0	6	1	0	0	3	0	0	3	2	0	0	22	0	0	2	0	0	0	0	4	0	0	61	0	0
OTU 160	1	5	10	3	10	20	0	0	6	2	3	5	1	1	0	2	5	2	0	12	0	3	1	5	4	8	6	0	6	6	8	2	3	3	2	2	17	3	0	0	1	0	3	6	15	1	0	1	1	4
OTU 161	1	0	0	0	0	0	2	1	5	1	0	0	0	2	0	0	2	3	1	2	0	1	0	0	0	1	0	0	0	4	0	0	0	0	0	0	2	0	0	0	0	0	0	5	0	0	0	2	0	0
OTU 162	9	1	0	1	5	1	1	10	2	5	0	0	7	5	0	4	1	5	1	2	12	1	2	2	6	3	0	5	0	3	0	0	0	0	2	1	0	1	1	0	0	0	3	0	0	0	0	0	1	1
OTU 163	0	0	0	0	0	0	0	0	0	0	0	0	1	0	0	0	0	0	0	0	0	0	0	0	0	0	0	0	0	0	0	0	0	0	0	0	2	0	0	0	0	0	0	0	0	0	0	0	0	0
OTU 164	0	0	0	0	0	0	0	0	0	0	0	0	1	0	0	0	0	0	2	4	1	0	0	0	1	0	0	0	0	0	0	0	0	0	0	0	0	0	0	0	0	0	0	0	0	0	0	0	0	0
OTU 165	0	0	1	1	0	5	0	1	48	1	0	0	0	1	0	0	0	0	0	0	8	0	0	0	0	0	1	0	3	4	1	0	4	3	0	0	0	0	0	0	0	1	2	4	2	3	0	0	7	4
OTU 166	0	0	0	0	0	0	1	0	0	0	0	0	0	0	0	2	1	0	0	0	0	0	0	0	0	0	0	0	0	3	0	0	0	0	0	1	0	0	0	0	0	0	0	0	0	0	0	0	0	0
OTU 167	1	0	0	0	0	0	2	3	2	0	0	0	0	4	0	0	0	1	0	0	0	7	1	0	0	0	0	2	0	0	0	0	0	0	1	2	0	1	0	0	0	0	0	0	0	0	2	3	1	0
OTU 168	0	0	1	0	0	2	0	0	0	0	0	0	3	0	2	3	1	0	0	0	1	0	0	0	0	1	0	0	0	0	0	4	2	0	2	0	2	0	0	0	2	0	0	3	3	0	0	1	0	0
OTU 169	0	0	1	0	0	0	0	0	0	0	0	0	0	0	0	0	0	0	0	0	0	0	0	0	0	0	0	0	0	0	0	4	1	0	0	0	0	0	0	0	0	0	0	3	0	0	0	0	0	0
OTU 170	0	0	0	0	0	1	0	0	0	0	0	0	0	0	0	0	0	0	0	0	0	0	0	0	0	0	0	0	0	0	0	0	1	0	0	0	0	0	0	0	0	0	0	0	0	0	0	0	0	0
OTU 171	4	0	2	1	0	28	1	0	1	0	0	5	0	1	0	8	0	1	0	1	1	0	0	15	0	0	0	0	1	0	8	2	0	6	0	2	2	3	0	4	0	2	0	1	10	0	0	2	0	5
OTU 172	0	0	0	0	0	0	0	0	0	0	0	0	0	0	5	0	0	0	0	0	0	0	0	1	0	0	4	0	0	0	0	0	0	4	0	0	0	0	0	0	0	0	0	0	0	1	0	0	0	0
OTU 173	0	0	0	0	1	0	0	1	0	0	0	1	1	0	0	0	5	0	0	0	0	0	0	0	0	0	0	0	0	18	0	0	0	2	0	5	1	1	0	0	0	0	17	0	0	0	0	1	0	1
OTU 174	0	2	0	2	111	1	0	1	2	0	1	2	0	0	0	1	0	0	0	0	13	0	0	0	4	0	1	0	0	0	3	0	0	0	0	55	0	4	0	1	0	0	0	0	0	0	1	26	2	6
OTU 175	7	1	3	0	2	0	2	0	0	0	0	0	1	0	0	4	0	0	0	0	0	0	0	0	4	2	1	0	0	0	2	0	1	4	1	0	0	0	0	0	0	0	0	1	0	0	1	0	2	0
OTU 176	3	1	0	1	5	2	6	0	3	0	2	3	0	0	1	6	1	6	0	2	6	1	1	0	0	3	1	0	64	1	0	2	1	1	1	3	0	1	2	1	0	0	0	2	2	2	0	0	0	0
OTU 177	0	0	3	0	3	0	0	5	2	0	1	4	0	0	0	3	0	1	0	0	3	0	1	5	8	0	1	0	0	2	1	0	3	0	0	0	0	0	2	0	2	0	0	6	0	1	0	2	2	2
OTU 178	0	0	1	0	10	2	1	4	0	0	0	0	0	2	0	0	8	2	0	3	0	0	0	0	3	0	1	1	0	3	0	0	0	1	0	4	0	0	0	0	0	0	5	1	0	0	0	0	0	0
OTU 179	37	1	0	0	0	0	0	3	0	0	1	0	0	0	0	0	0	1	5	0	2	1	4	0	0	0	0	3	0	0	1	1	0	0	0	0	2	1	0	3	0	0	0	2	0	0	0	1	0	0
OTU 180	3	2	5	2	6	4	1	4	3	0	1	8	0	1	0	8	4	3	16	0	8	6	3	10	4	4	5	14	2	3	2	2	3	3	4	3	1	4	4	12	1	3	2	3	2	4	6	1	30	10
OTU 181	5	0	2	1	11	3	1	8	11	1	1	2	0	7	0	0	3	0	0	0	3	2	0	0	2	0	2	0	2	4	2	3	0	0	0	1	0	10	0	3	0	0	0	2	0	1	3	0	0	0
OTU 182	5	0	0	0	0	0	0	0	0	0	0	1	0	0	0	0	0	0	0	0	0	0	0	2	0	0	0	0	0	2	0	0	0	0	0	0	0	0	0	0	0	0	0	0	0	0	0	0	0	2
OTU 183	2	0	1	3	2	0	1	1	2	15	0	0	0	1	0	20	0	2	0	4	7	0	0	0	3	0	1	1	0	0	4	1	0	5	0	0	0	48	1	1	1	1	0	0	1	0	20	1	3	14
OTU 184	0	0	0	0	0	1	0	0	0	0	2	5	1	0	0	0	1	0	0	0	0	1	5	2	0	1	0	0	0	1	0	1	3	0	0	0	1	0	3	1	0	0	0	1	0	0	0	3	1	0
OTU 185	3	0	0	1	4	1	3	1	0	5	0	2	1	1	1	0	0	1	1	3	2	1	0	0	1	3	0	2	2	0	0	0	1	5	0	0	5	1	0	20	5	2	1	2	2	0	2	4	5	1
OTU 186	1	0	0	0	0	2	0	4	0	0	0	1	0	0	0	0	0	0	0	0	0	0	0	0	0	0	0	0	0	0	0	0	0	0	0	1	0	0	0	0	0	0	0	0	0	0	0	0	0	3
OTU 187	2	0	2	0	3	5	3	6	0	6	0	0	3	6	2	4	2	0	0	0	9	2	0	2	1	3	0	0	2	0	6	0	0	4	0	2	4	6	0	0	0	0	117	0	6	0	4	7	2	0
OTU 188	0	5	1	2	2	3	4	1	0	0	2	2	0	0	4	0	0	0	0	4	2	4	1	1	11	8	0	3	0	0	2	0	0	0	4	0	0	1	0	3	2	0	0	0	1	1	1	6	1	2
OTU 189	5	4	2	2	2	0	1	8	3	4	2	1	0	0	0	1	1	0	0	1	4	0	2	1	1	0	4	3	4	2	3	0	0	2	127	8	2	0	2	4	0	3	5	0	3	0	0	0	1	86
OTU 190	0	0	0	0	0	0	0	0	0	0	0	0	51	0	0	8	0	0	0	0	0	0	0	0	0	0	0	0	0	0	0	0	0	0	0	0	0	0	0	0	146	0	15	0	0	0	0	0	0	0
OTU 191	0	0	0	4	2	6	2	6	1	0	1	1	0	61	0	5	4	0	0	10	3	7	1	1	2	1	1	1	9	6	0	4	0	0	3	0	1	1	2	0	0	1	0	1	4	0	0	0	9	0
OTU 192	2	0	8	83	3	4	2	9	0	2	1	7	0	0	5	9	2	3	1	154	3	0	1	0	0	3	14	0	1	3	3	0	1	0	0	0	0	1	0	17	3	0	1	10	1	7	3	0	0	1
OTU 193	1	0	0	0	1	0	0	6	0	3	0	1	0	0	0	11	3	0	3	0	0	1	1	1	2	0	2	4	1	3	7	1	6	11	1	2	4	5	1	1	1	0	5	3	1	3	2	5	0	7
OTU 194	11	1	0	0	1	0	6	1	1	6	1	0	0	0	0	0	0	0	2	1	0	2	0	0	6	0	0	1	1	1	0	0	0	2	3	0	0	1	0	0	0	0	0	0	0	0	1	0	2	2
OTU 195	3	7	0	0	0	0	0	0	7	0	0	0	0	5	0	2	0	0	0	10	0	0	0	0	0	0	2	3	6	0	7	0	4	2	1	1	1	0	0	5	1	0	0	1	3	1	0	1	0	0
OTU 196	1	0	5	0	0	0	0	0	0	1	0	1	0	0	0	2	0	0	3	0	0	0	0	0	2	4	2	4	1	0	8	2	0	0	0	1	0	0	0	1	1	0	0	0	0	3	0	3	1	0
OTU 197	6	0	3	1	2	3	12	3	2	15	0	0	11	3	3	2	0	9	142	0	0	8	0	6	2	0	3	0	0	3	1	0	3	2	0	1	1	2	2	10	3	1	0	13	0	0	0	0	2	4
OTU 198	0	0	1	0	0	0	0	8	0	0	0	0	0	0	0	0	0	0	0	0	0	1	0	0	4	1	0	1	0	0	3	0	0	0	1	0	0	0	0	0	0	0	0	0	0	0	0	0	0	0
OTU 199	0	1	1	153	0	0	0	0	0	0	0	0	0	4	0	0	0	0	0	0	1	0	0	0	1	1	5	0	0	0	0	0	0	0	1	0	1	0	0	2	0	0	0	0	0	0	0	0	0	3
OTU 200	0	0	1	0	0	2	0	2	2	1	0	0	2	1	0	0	1	2	0	1	1	1	2	0	0	1	0	0	0	3	1	2	0	0	1	0	0	0	0	0	0	0	0	0	0	0	0	0	2	0
