	Host 1	Host 2	Host 3	Host 4	Host 5	Host 6	Host 7	Host 8	Host 9	Host 10	Host 11	Host 12	Host 13	Host 14	Host 15	Host 16	Host 17	Host 18	Host 19	Host 20	Host 21	Host 22	Host 23	Host 24	Host 25	Host 26	Host 27	Host 28	Host 29	Host 30	Host 31	Host 32	Host 33	Host 34	Host 35	Host 36	Host 37	Host 38	Host 39	Host 40	Host 41	Host 42	Host 43	Host 44	Host 45	Host 46	Host 47	Host 48	Host 49	Host 50	
OTU 1	10	0	2	0	21	11	0	7	26	19	3	0	2	0	11	12	0	1	43	0	4	33	25	11	0	12	1	9	0	16	18	0	2	10	0	17	7	38	1	0	13	0	0	0	9	24	5	0	55	0
OTU 2	0	4	0	0	0	0	0	1	0	0	0	0	0	0	0	0	0	0	1	0	12	1	0	0	0	0	0	0	1	0	0	0	3	0	0	0	0	0	2	0	1	0	0	0	1	1	3	0	0	1
OTU 3	0	1	0	0	0	0	0	0	0	0	0	1	0	0	0	0	1	0	0	0	0	0	0	0	0	0	1	0	0	0	0	0	3	0	0	0	0	2	3	0	0	10	0	1	0	0	0	0	0	0
OTU 4	0	0	0	0	0	0	0	0	0	0	0	0	1	0	0	0	0	0	0	0	0	0	0	0	0	0	0	0	0	0	0	0	0	0	0	0	0	0	0	0	0	0	0	0	0	0	0	0	0	0
OTU 5	34	14	1	6	3	15	41	28	35	19	7	9	21	14	0	2	2	17	66	20	15	4	18	1	12	1	0	10	10	30	49	1	0	15	0	27	43	6	2	24	2	0	16	3	3	2	1	4	8	0
OTU 6	0	2	0	17	0	71	0	43	1	0	0	2	1	2	0	0	4	1	6	0	5	0	1	0	3	2	1	0	1	0	24	2	1	0	0	1	0	0	0	0	0	9	0	3	0	0	0	0	1	0
OTU 7	1	4	0	1	0	3	2	0	16	1	25	2	3	6	0	2	15	0	2	4	0	0	1	0	4	0	6	1	22	0	0	1	4	0	6	34	5	1	3	1	0	0	0	0	3	7	3	2	7	1
OTU 8	2	10	4	3	0	0	18	1	1	37	6	3	7	4	0	0	6	3	1	0	1	0	1	1	13	0	2	0	6	1	0	2	1	1	1	2	9	2	2	0	6	0	7	7	0	0	1	1	1	3
OTU 9	0	2	0	0	0	0	0	0	3	1	0	0	1	2	2	1	0	0	1	0	2	0	0	1	0	0	0	0	1	0	0	2	0	0	0	0	0	0	0	0	0	2	0	0	68	0	0	0	1	0
OTU 10	0	0	1	0	1	0	2	0	0	0	2	0	0	0	0	0	0	2	0	0	2	0	1	0	0	0	0	0	1	0	0	0	0	0	0	0	3	0	3	0	0	2	0	0	0	2	1	1	0	0
OTU 11	0	1	0	0	0	1	0	0	1	2	0	0	0	0	0	3	0	2	0	0	1	0	2	0	0	0	0	0	11	0	2	5	2	0	7	0	5	1	6	0	2	0	6	4	0	2	1	2	0	3
OTU 12	0	0	0	11	0	0	1	0	4	0	1	1	1	0	0	2	7	3	0	1	5	0	2	2	6	0	9	3	2	1	3	2	8	6	4	3	0	0	0	0	3	7	10	3	1	6	0	0	6	5
OTU 13	0	0	0	0	0	0	0	0	0	0	0	0	0	3	0	0	0	0	0	0	0	0	0	0	0	0	0	0	0	0	0	0	0	0	0	0	0	0	0	2	1	0	0	0	0	0	0	0	0	0
OTU 14	0	0	0	0	0	0	1	0	0	0	2	0	0	0	0	0	1	0	0	0	1	0	4	0	0	1	0	0	0	0	1	3	1	0	0	0	0	0	1	0	0	0	2	0	0	0	0	0	0	3
OTU 15	0	0	0	0	0	0	0	0	0	0	0	0	0	0	0	0	0	0	0	0	2	0	0	0	0	0	2	0	0	0	0	0	1	0	0	0	0	0	0	0	0	0	0	0	0	0	0	0	0	0
OTU 16	0	0	0	0	0	0	0	0	0	0	0	0	0	0	0	0	0	0	0	0	0	0	0	0	0	0	0	0	0	0	0	0	0	0	0	0	0	0	0	0	0	0	0	0	0	0	0	0	0	0
OTU 17	0	3	0	0	0	0	0	2	0	0	0	0	1	0	0	0	0	0	0	0	0	3	0	0	0	0	0	0	0	0	0	3	1	0	29	3	0	0	0	0	1	0	0	0	1	2	5	0	0	0
OTU 18	0	1	6	2	0	1	0	0	0	1	1	2	1	0	0	1	3	1	0	2	19	0	0	0	2	0	1	1	0	1	1	2	8	0	0	4	0	0	0	1	0	1	1	1	0	1	2	2	0	3
OTU 19	0	0	0	0	0	0	0	0	0	0	0	0	0	0	0	0	0	0	0	0	0	0	0	0	0	0	0	0	0	0	0	0	0	0	0	0	0	0	0	0	0	0	0	0	0	0	0	0	0	0
OTU 20	0	5	1	0	0	0	0	1	0	0	3	1	1	1	0	0	2	1	1	0	0	0	0	0	8	0	2	0	3	0	2	0	5	0	2	0	4	0	2	0	1	4	3	1	0	1	0	1	0	3
OTU 21	2	0	17	1	8	20	0	20	26	14	11	1	2	12	4	1	2	1	15	5	9	27	21	6	0	8	0	6	2	9	0	2	4	14	1	8	1	13	0	2	12	3	0	0	2	22	0	134	31	0
OTU 22	0	0	1	4	1	0	1	3	0	0	4	0	4	0	0	0	0	1	3	134	0	1	0	4	2	0	2	0	1	0	0	2	1	0	15	2	7	3	0	1	0	20	0	9	2	1	0	0	0	0
OTU 23	0	0	0	0	0	1	2	0	0	0	0	0	0	5	0	0	0	1	0	0	2	0	0	2	0	0	0	0	1	0	0	7	0	0	0	0	1	0	0	1	1	2	0	0	2	0	0	1	0	0
OTU 24	0	0	3	0	0	0	1	0	0	0	7	0	2	3	1	0	0	1	0	3	1	0	0	0	0	1	0	0	0	0	0	0	5	0	0	1	0	0	0	0	0	0	3	0	0	0	1	0	0	2
OTU 25	0	0	0	5	0	0	0	0	0	0	0	0	0	0	0	0	0	0	0	0	0	0	0	0	0	0	0	0	0	0	0	0	0	0	0	0	0	0	1	0	0	0	2	0	0	0	2	0	0	0
OTU 26	0	1	6	2	0	1	3	0	0	0	0	0	1	1	0	0	0	0	2	0	0	0	0	0	0	1	0	0	1	0	0	0	0	0	0	0	0	0	0	0	0	0	0	0	0	0	0	0	0	0
OTU 27	0	0	0	0	0	0	0	0	0	0	0	0	0	0	0	0	0	0	0	0	1	0	0	0	0	0	0	0	0	0	0	2	0	0	0	0	0	0	0	0	0	0	0	0	0	0	0	0	0	0
OTU 28	0	2	2	4	0	1	2	1	1	1	8	2	1	0	1	0	0	0	0	0	0	6	0	0	0	1	0	0	0	1	1	4	0	0	0	0	0	0	0	0	0	0	4	1	0	0	1	0	0	1
OTU 29	4	1	0	1	10	18	3	17	28	8	1	0	0	0	7	1	2	4	25	0	0	25	23	31	1	3	0	13	1	9	13	0	3	8	3	4	1	22	3	4	13	7	0	0	6	30	0	0	42	6
OTU 30	0	0	0	0	0	0	1	0	0	0	0	0	0	0	0	0	0	0	0	0	0	0	0	0	0	0	0	0	0	0	0	0	0	0	0	0	0	0	0	0	0	0	0	0	0	0	0	0	0	0
OTU 31	0	0	0	3	0	0	0	0	0	0	0	1	0	3	0	0	0	0	1	1	2	0	0	0	0	0	0	0	0	1	1	0	0	0	0	0	1	0	0	0	0	3	0	2	11	0	0	0	0	3
OTU 32	0	0	0	4	0	1	0	3	0	0	4	4	0	1	0	0	3	0	0	0	0	0	1	2	1	1	6	0	2	0	71	1	0	1	1	0	0	0	3	2	1	3	2	0	1	2	1	3	0	7
OTU 33	0	0	0	0	0	0	0	0	0	0	0	0	0	0	0	0	2	0	0	0	0	0	0	0	0	0	0	0	0	0	0	0	0	0	0	0	0	0	0	0	0	0	0	0	0	0	0	0	0	0
OTU 34	6	7	0	3	0	1	1	10	3	1	1	0	7	3	2	9	3	3	0	1	3	1	1	3	8	0	1	1	0	1	0	0	5	1	1	0	16	0	1	2	1	0	2	0	2	2	0	1	6	17
OTU 35	0	0	0	1	0	0	17	1	0	2	7	3	0	2	0	0	1	0	0	0	2	1	0	3	20	0	1	0	2	0	0	10	0	0	2	0	0	0	3	0	0	0	0	0	0	3	1	0	0	7
OTU 36	0	0	0	3	0	1	0	0	1	0	0	1	1	0	0	0	0	0	2	0	1	0	0	0	0	0	0	0	2	0	1	1	5	0	0	8	1	1	12	2	1	2	0	29	1	0	4	0	0	0
OTU 37	0	0	3	0	0	0	1	0	0	0	0	0	0	10	0	0	0	0	0	5	0	0	0	0	1	0	0	0	0	0	0	0	0	0	1	0	0	0	0	0	0	2	0	0	0	0	0	1	0	0
OTU 38	0	7	0	4	0	0	1	0	0	0	0	0	0	2	0	0	0	0	0	4	0	0	2	1	0	0	1	0	0	0	1	0	0	0	0	18	0	0	0	3	0	1	0	0	0	0	2	6	0	0
OTU 39	1	1	0	8	0	0	0	0	0	0	0	0	1	0	9	2	0	0	0	0	0	0	0	0	0	0	0	0	0	0	0	0	0	0	0	2	0	0	0	1	0	0	0	0	0	0	0	0	0	0
OTU 40	0	0	0	0	0	1	0	0	0	0	0	0	0	0	0	2	5	0	1	6	11	1	0	1	0	0	2	0	1	0	0	1	1	0	0	0	5	0	0	5	0	0	0	4	0	1	0	2	0	0
OTU 41	0	3	2	3	0	0	0	0	3	0	1	0	2	0	0	0	0	1	0	3	4	0	0	0	1	2	2	0	1	0	0	1	1	0	9	0	1	0	4	0	0	0	4	0	0	0	2	0	0	23
OTU 42	0	0	0	1	1	0	0	1	1	0	0	0	0	1	8	0	0	0	0	0	0	6	1	0	0	1	0	0	0	0	1	0	0	0	0	0	0	0	0	0	0	0	0	0	1	0	2	1	0	0
OTU 43	0	0	0	1	0	0	0	0	0	0	0	0	0	0	0	0	0	0	0	0	0	0	0	0	0	0	2	0	0	0	0	0	0	0	0	0	0	0	0	0	0	0	0	0	0	0	0	0	0	0
OTU 44	0	0	0	0	0	0	0	0	0	0	3	0	1	0	0	0	0	0	0	0	0	0	0	0	4	0	0	0	0	0	0	0	0	0	0	0	0	0	1	3	0	0	0	0	0	0	0	0	1	0
OTU 45	0	2	0	0	0	1	0	0	0	0	0	1	0	7	1	3	0	0	4	0	0	1	88	0	0	0	0	30	1	41	0	2	0	0	5	1	4	0	0	1	3	3	1	1	0	1	3	0	0	5
OTU 46	0	1	0	2	0	1	8	0	0	2	4	0	0	4	0	0	3	3	3	0	3	0	0	1	7	1	3	0	37	0	25	1	0	0	1	1	4	2	2	1	0	5	4	11	1	0	2	0	2	0
OTU 47	0	0	0	0	0	0	3	0	0	0	6	3	0	0	0	0	1	0	0	0	0	0	0	0	0	0	1	0	0	0	0	2	0	0	0	1	0	0	0	0	0	0	0	0	0	0	0	0	0	0
OTU 48	0	0	4	0	2	2	1	0	1	17	1	0	0	0	1	0	0	1	0	0	13	4	0	4	4	0	0	0	1	0	1	3	1	0	1	0	0	1	0	2	0	5	1	0	2	2	2	0	4	2
OTU 49	0	0	2	0	0	5	0	0	1	1	4	0	1	0	0	0	0	0	6	0	1	2	0	0	10	0	0	0	3	0	1	0	7	0	0	0	0	1	0	0	0	3	3	0	0	2	1	0	2	0
OTU 50	0	3	3	4	1	0	0	1	1	1	1	0	0	2	0	0	9	3	0	0	0	3	0	1	0	1	2	1	0	0	0	1	2	0	10	1	0	0	0	4	2	2	29	1	0	0	0	4	2	4
OTU 51	0	0	1	0	0	0	0	0	0	0	0	1	0	1	0	0	2	0	2	0	0	0	1	0	0	0	1	0	0	0	0	0	0	0	0	0	0	0	0	1	0	0	8	0	0	0	0	0	0	3
OTU 52	0	7	1	1	0	0	0	1	1	1	2	2	0	15	0	0	21	6	1	9	1	0	1	1	4	0	0	3	3	1	4	11	2	0	2	0	3	0	2	0	1	2	5	2	5	0	3	3	2	3
OTU 53	0	0	0	0	0	0	0	0	0	0	0	0	0	0	0	2	0	0	0	0	0	0	0	0	0	0	0	0	0	0	0	0	0	0	0	0	0	0	0	0	0	0	0	0	0	0	0	0	0	0
OTU 54	0	2	1	0	0	0	2	0	0	1	0	0	1	4	0	1	1	0	0	2	58	0	21	1	4	0	2	13	6	12	0	0	4	1	1	1	2	0	3	0	0	13	0	1	1	7	0	6	0	9
OTU 55	0	0	0	0	0	0	0	0	0	0	0	0	0	0	0	0	0	0	0	0	0	0	0	0	0	0	0	0	0	0	0	0	0	0	0	0	0	0	0	0	0	0	0	0	0	0	0	0	0	0
OTU 56	0	1	0	0	0	0	0	0	0	2	0	0	0	0	0	0	0	0	0	0	2	0	0	0	2	0	0	0	0	0	1	2	0	4	0	0	0	0	0	1	0	0	3	0	0	0	0	0	0	5
OTU 57	0	10	0	3	3	0	2	1	2	2	3	0	1	10	0	0	10	8	3	6	1	2	0	0	2	3	6	0	6	0	0	3	6	1	5	0	0	2	2	38	1	0	6	16	51	1	3	10	2	7
OTU 58	0	0	0	0	0	0	1	0	0	0	0	0	0	0	0	0	2	0	0	3	0	0	0	0	0	0	0	0	0	1	0	0	0	0	2	0	0	2	1	7	0	1	0	1	0	0	0	0	2	0
OTU 59	0	1	1	2	0	0	0	1	2	0	0	0	0	1	0	0	8	3	0	0	0	0	0	0	0	0	3	0	0	0	0	1	0	0	0	0	2	1	1	2	3	2	0	0	0	0	0	0	0	0
OTU 60	0	1	2	2	0	0	5	2	0	0	5	2	0	2	0	0	8	0	2	0	4	0	0	0	2	0	2	2	0	1	1	2	2	0	0	0	5	0	1	3	2	4	3	2	1	3	0	1	0	3
OTU 61	15	7	4	5	0	4	0	2	6	2	0	0	3	1	1	30	0	1	20	0	9	0	0	134	1	5	0	0	0	2	18	0	2	195	0	1	2	2	0	7	1	1	1	3	23	4	1	1	1	3
OTU 62	0	0	3	3	0	0	0	0	0	2	1	0	0	0	2	1	0	1	0	0	0	0	0	0	1	0	0	1	0	0	0	0	1	0	0	0	0	0	0	0	0	0	1	1	0	0	0	0	3	0
OTU 63	4	0	0	1	1	0	0	4	0	0	3	3	0	0	0	0	5	0	0	0	0	0	1	0	0	0	4	1	0	0	0	2	4	0	7	0	0	0	0	0	1	2	4	3	0	0	0	6	1	1
OTU 64	3	1	1	2	4	0	0	0	0	5	0	4	3	6	0	0	3	1	0	5	3	1	0	0	4	1	6	0	0	0	2	3	6	1	1	4	3	0	4	1	1	1	1	4	1	3	0	3	0	6
OTU 65	0	0	0	0	0	0	0	0	0	0	0	0	0	0	0	0	0	0	0	0	0	0	0	0	0	0	0	0	0	0	0	0	0	0	0	0	1	0	0	0	0	4	0	0	0	0	0	0	0	0
OTU 66	0	1	0	1	0	0	4	0	0	0	1	3	2	0	0	2	1	0	7	0	0	0	0	0	0	0	3	0	0	0	2	0	2	0	11	0	0	0	0	0	2	1	5	1	0	1	1	10	0	0
OTU 67	0	0	0	1	68	0	0	0	0	1	0	1	1	0	0	0	2	2	1	0	0	2	1	0	2	0	0	0	14	0	1	1	6	1	0	0	0	1	3	0	0	0	0	0	1	2	0	0	1	1
OTU 68	1	0	0	3	0	0	0	1	0	0	0	0	1	0	0	0	0	0	0	0	0	1	1	0	0	1	0	1	0	0	0	0	0	0	2	0	1	0	1	0	0	0	0	0	0	1	1	0	1	0
OTU 69	0	1	1	1	0	1	0	22	0	0	3	2	0	1	1	0	2	0	3	5	3	1	0	0	1	0	2	0	0	0	0	0	3	0	0	0	1	1	1	1	0	0	0	2	0	0	0	2	0	0
OTU 70	0	1	0	1	0	1	1	0	1	1	4	0	3	0	0	0	0	0	0	0	0	2	0	1	4	0	2	0	0	0	0	0	1	3	0	0	0	0	0	2	2	0	0	0	0	0	0	0	0	0
OTU 71	0	0	0	0	99	0	3	1	0	3	0	0	1	0	1	1	0	21	0	1	1	4	0	0	0	0	0	0	2	0	0	2	0	0	2	3	0	1	0	1	0	5	0	1	0	3	0	2	3	0
OTU 72	0	0	0	9	2	1	9	0	0	1	1	0	10	0	1	0	2	1	0	1	0	1	0	2	0	0	1	0	0	0	7	1	0	0	8	0	0	0	1	1	0	1	0	3	4	0	0	12	0	2
OTU 73	0	0	1	6	0	0	0	0	3	0	0	0	0	2	0	0	3	0	0	2	4	0	0	0	1	0	0	0	2	0	2	1	1	2	1	0	5	1	1	1	0	2	0	0	1	0	0	0	1	0
OTU 74	0	1	4	0	0	0	7	0	0	0	1	7	4	11	2	0	2	0	0	7	0	0	0	2	1	1	5	0	0	0	1	0	2	2	10	0	14	0	4	2	2	1	2	5	5	6	0	0	1	0
OTU 75	18	7	3	1	2	1	2	0	0	0	1	3	4	4	1	2	0	11	0	0	30	0	1	0	0	21	0	0	0	0	1	0	3	1	7	0	5	1	1	0	1	5	0	5	0	1	0	0	0	1
OTU 76	1	0	3	0	0	0	1	2	0	0	1	0	3	1	2	2	4	0	0	0	0	0	0	2	0	1	0	0	0	0	1	7	0	0	4	0	0	0	0	17	0	0	1	1	0	0	0	5	0	0
OTU 77	0	0	0	0	0	0	2	1	0	1	5	1	0	0	0	0	2	0	0	0	0	2	2	0	2	0	2	1	0	0	1	0	0	0	3	1	0	1	0	0	2	7	1	4	2	1	0	0	2	0
OTU 78	0	1	3	3	0	1	0	0	113	0	0	0	0	11	7	0	0	1	1	0	0	0	0	1	0	8	0	0	1	0	0	0	2	57	0	2	0	9	0	0	5	0	1	0	1	2	4	0	0	4
OTU 79	0	1	13	4	1	8	1	2	1	1	1	3	3	3	0	0	17	0	3	0	7	3	0	1	5	4	2	0	3	65	0	8	10	0	16	4	9	3	4	9	1	9	5	5	0	0	1	8	2	11
OTU 80	0	1	3	0	0	1	7	0	0	1	0	0	0	9	102	1	3	1	3	16	1	0	1	2	6	0	3	0	1	0	0	1	1	3	4	10	3	0	1	2	1	4	5	0	0	0	1	0	1	2
OTU 81	15	1	14	4	0	3	10	0	0	0	3	0	2	2	0	22	3	0	1	1	2	0	1	2	0	1	7	0	0	0	1	4	0	0	0	4	6	0	4	5	0	10	0	8	1	0	3	9	2	3
OTU 82	0	8	1	1	0	0	0	0	0	0	1	4	0	0	1	0	4	0	0	0	1	1	0	1	3	0	0	0	0	0	0	3	0	0	1	0	0	1	2	7	1	0	5	1	0	0	0	2	0	3
OTU 83	0	0	0	0	0	0	0	0	2	0	0	0	2	0	2	1	0	0	0	0	0	0	0	0	0	2	1	0	0	0	0	0	2	0	0	0	0	0	0	0	0	0	0	0	0	0	0	0	0	0
OTU 84	0	0	4	1	1	0	13	0	0	1	0	0	0	0	0	0	0	0	0	0	0	0	0	0	0	0	2	0	1	0	0	1	1	0	8	0	1	0	1	5	0	0	2	1	3	0	0	0	0	0
OTU 85	0	0	1	0	0	0	0	0	0	0	0	0	0	0	3	0	0	0	0	0	1	0	3	0	0	0	0	0	0	1	0	0	0	5	0	0	0	1	2	1	2	0	0	1	0	0	0	0	1	0
OTU 86	0	0	0	0	0	0	0	0	0	0	0	0	0	0	0	0	0	0	0	0	0	0	0	0	0	0	2	0	0	1	0	0	0	0	0	0	0	1	0	0	0	0	0	0	0	0	0	0	1	0
OTU 87	0	0	0	4	0	0	0	0	0	0	0	0	3	5	0	0	0	0	0	4	0	0	0	3	0	0	1	0	0	0	0	0	0	0	0	0	0	0	0	11	0	2	1	0	0	0	0	0	0	0
OTU 88	0	0	4	1	0	0	0	0	0	0	0	0	0	0	0	3	0	0	0	0	0	0	0	0	0	0	0	0	2	0	0	0	0	0	0	1	0	0	0	0	0	0	0	0	0	0	0	0	0	0
OTU 89	0	0	0	0	0	0	4	0	0	0	0	0	0	3	1	0	1	0	0	2	0	0	0	0	1	0	0	0	0	0	0	0	0	0	0	0	0	0	0	1	0	6	3	0	19	0	0	0	0	0
OTU 90	1	0	0	0	0	4	1	2	0	0	0	0	0	0	0	0	0	1	0	0	1	0	0	0	0	0	1	0	0	0	1	0	1	0	0	0	0	0	0	0	0	0	0	0	0	0	0	0	0	9
OTU 91	0	0	0	0	0	0	0	0	0	0	0	0	0	0	0	0	0	0	0	0	0	0	0	0	0	0	0	0	0	0	0	0	5	0	1	0	0	0	0	0	0	0	0	0	0	0	0	0	0	0
OTU 92	0	0	0	0	0	0	0	0	1	0	0	0	0	2	0	0	0	0	2	1	0	0	0	0	0	0	0	1	1	0	0	0	0	0	2	0	1	1	1	0	0	0	0	0	2	0	2	0	0	1
OTU 93	0	0	0	0	0	0	0	0	0	0	0	0	1	0	0	0	0	0	0	0	0	0	0	0	0	0	0	0	0	0	0	0	0	0	0	1	0	0	0	0	0	1	1	1	0	0	0	0	0	0
OTU 94	1	1	8	1	1	11	1	5	5	2	0	0	0	0	5	1	5	2	5	0	0	5	2	12	4	13	0	6	0	0	3	0	6	6	1	4	0	7	3	1	3	2	4	5	1	7	0	0	18	3
OTU 95	0	1	0	4	0	0	0	0	0	0	0	1	0	0	0	0	0	1	2	0	0	0	0	0	0	0	0	0	0	0	0	1	0	0	1	0	0	0	0	0	0	0	0	0	0	0	0	0	1	0
OTU 96	0	0	0	0	0	0	0	0	0	0	0	0	0	0	0	0	0	0	0	0	0	0	0	0	3	0	0	0	0	0	0	0	0	0	0	0	0	0	0	0	0	0	0	6	0	0	0	1	0	2
OTU 97	1	0	0	0	0	0	0	0	0	0	0	0	0	0	0	0	0	0	0	0	2	0	1	0	0	0	0	0	0	0	0	0	0	0	0	0	0	0	0	0	0	0	0	5	0	0	0	0	0	0
OTU 98	0	1	0	0	0	0	0	0	0	0	0	0	19	0	1	1	0	0	0	1	0	0	0	0	0	0	1	0	0	0	2	0	0	0	0	0	33	3	0	0	0	0	2	2	0	4	0	0	0	0
OTU 99	89	0	6	10	2	1	1	3	1	1	2	3	2	2	1	0	6	1	2	0	4	1	0	4	5	3	1	1	4	1	1	0	4	0	8	0	1	3	3	1	0	9	2	6	0	0	1	6	3	0
OTU 100	3	0	0	8	0	0	0	0	7	0	0	0	6	1	0	7	0	0	3	0	0	0	1	18	0	0	0	3	3	2	0	1	4	4	1	0	2	4	0	2	0	0	1	0	5	1	3	0	5	0
OTU 101	0	0	0	0	0	0	4	0	0	0	0	0	0	0	0	1	2	0	0	0	0	0	0	0	0	0	0	0	0	0	0	0	0	1	4	0	0	0	0	0	0	0	0	0	0	0	0	0	0	0
OTU 102	0	0	0	0	0	0	0	0	0	0	1	1	2	0	0	0	0	1	1	0	0	0	0	0	0	0	2	0	0	0	0	0	0	0	0	0	1	0	0	1	0	0	2	0	1	0	0	2	0	0
OTU 103	0	0	0	0	0	0	0	0	1	0	2	1	1	0	0	0	4	7	0	1	0	1	0	1	1	0	0	0	0	0	0	0	0	0	0	0	0	0	0	0	0	17	5	0	0	0	1	2	0	0
OTU 104	1	1	0	0	0	0	5	0	0	0	3	0	0	0	2	1	8	2	0	1	2	2	1	4	2	0	5	0	1	0	0	1	3	0	1	0	2	1	0	0	0	1	2	2	0	1	0	2	0	1
OTU 105	0	0	0	0	0	0	0	0	3	0	0	0	0	0	0	0	2	0	0	0	0	0	1	0	0	0	0	0	0	1	0	0	3	0	0	0	0	0	0	10	0	0	0	0	0	0	0	3	0	9
OTU 106	0	0	0	0	0	0	3	2	0	0	3	0	0	0	0	0	0	15	0	0	2	0	0	0	4	0	0	0	0	0	0	0	0	0	3	0	0	0	0	1	0	0	0	1	1	0	0	0	0	3
OTU 107	1	125	2	0	2	0	0	0	0	0	1	0	0	1	0	0	1	0	0	0	0	0	0	2	0	0	0	0	0	0	0	0	0	0	0	0	0	0	0	0	0	0	0	0	0	0	0	0	0	0
OTU 108	0	1	3	0	0	1	2	2	0	0	1	0	0	0	2	0	17	0	0	0	0	1	1	1	0	0	0	0	2	0	0	2	2	0	0	0	0	2	0	0	0	1	0	0	1	0	0	0	0	1
OTU 109	0	0	0	0	0	0	0	0	0	0	0	0	0	0	0	0	0	0	0	0	3	0	0	0	0	0	0	0	0	0	0	0	0	0	0	0	0	0	0	0	0	0	0	0	0	0	0	0	0	0
OTU 110	1	5	2	1	0	3	0	0	0	2	0	0	0	1	0	0	1	0	0	0	0	4	0	2	0	2	0	0	4	0	5	0	0	0	0	0	2	1	5	4	0	5	20	1	0	3	0	1	0	1
OTU 111	0	0	0	0	0	0	0	0	0	0	0	0	0	0	0	0	1	0	0	0	0	0	0	0	0	0	0	0	0	0	0	0	0	0	0	0	0	0	0	0	0	0	0	0	1	0	0	0	0	0
OTU 112	0	0	7	0	0	0	0	1	0	0	0	0	4	4	0	1	5	0	0	0	3	0	0	0	0	0	0	0	0	0	0	0	0	0	0	0	0	0	0	0	0	2	0	0	0	0	0	0	0	0
OTU 113	0	0	0	1	0	0	0	0	0	0	0	1	0	0	0	0	0	0	0	0	0	0	0	0	1	0	0	0	0	0	0	0	0	0	0	2	0	0	3	0	0	2	0	0	0	0	0	0	0	0
OTU 114	0	0	12	4	0	1	4	0	5	2	4	3	7	3	9	1	14	1	2	0	8	3	1	4	2	4	1	2	0	0	1	0	5	0	4	4	0	2	2	0	3	1	4	10	3	12	2	2	4	1
OTU 115	0	0	3	2	1	3	3	1	0	2	6	1	0	11	4	0	5	47	0	34	3	0	0	0	0	0	7	0	0	0	5	5	5	0	4	2	3	10	91	0	4	4	17	0	0	1	58	5	2	0
OTU 116	0	40	7	0	1	3	6	0	0	0	2	0	1	1	0	0	0	0	1	0	2	1	0	1	10	1	0	0	0	0	1	8	3	0	0	0	1	0	0	73	0	1	1	5	5	1	0	5	2	5
OTU 117	1	5	1	0	2	0	0	0	5	2	3	0	0	0	0	0	4	2	34	1	0	5	5	0	0	0	0	3	2	5	29	0	2	1	0	2	0	0	0	1	1	1	2	5	0	3	1	1	8	1
OTU 118	0	1	0	0	0	0	0	0	0	0	0	0	0	1	0	0	0	0	0	1	0	0	0	0	0	0	0	0	0	0	0	0	0	0	0	0	0	0	0	0	0	0	0	5	0	0	0	0	0	0
OTU 119	1	4	6	0	0	5	1	1	0	0	0	2	2	1	0	0	8	2	0	1	0	0	1	0	1	0	0	1	1	0	0	2	12	0	1	2	8	0	5	1	0	5	0	2	3	0	0	1	2	2
OTU 120	0	0	0	0	0	1	1	0	0	0	1	0	1	0	0	0	1	0	0	1	0	0	0	0	1	1	0	0	0	0	0	0	0	0	1	0	0	3	0	2	1	1	1	2	0	0	1	3	0	0
OTU 121	0	0	1	0	0	0	0	0	2	0	1	0	0	0	0	0	1	0	1	0	0	0	2	0	2	2	0	1	0	0	2	0	7	1	0	5	1	1	0	4	4	1	1	0	2	0	0	2	5	0
OTU 122	2	0	0	4	53	7	20	2	0	58	1	11	1	15	0	0	1	0	0	15	0	127	0	1	8	0	15	0	0	0	0	3	3	0	1	11	2	2	0	0	1	1	1	0	0	130	4	0	0	1
OTU 123	1	2	8	8	1	4	1	7	2	1	3	3	12	7	1	0	4	4	4	1	2	4	0	4	5	6	2	0	10	0	2	3	3	0	11	3	3	0	8	10	2	9	9	15	0	6	3	11	4	9
OTU 124	17	3	0	0	0	0	0	0	0	0	0	0	0	0	0	44	2	0	0	0	0	0	0	0	0	0	0	0	0	0	0	0	1	0	0	0	0	0	0	0	0	1	0	0	0	0	0	0	0	57
OTU 125	24	2	5	5	3	5	18	3	0	2	0	0	0	18	3	6	0	8	2	1	12	5	82	8	4	3	5	47	8	48	0	20	2	4	7	0	2	9	8	4	2	0	4	7	1	2	2	4	3	9
OTU 126	1	0	0	0	0	5	0	1	0	0	0	0	0	0	0	0	0	1	0	0	0	0	0	0	0	0	0	1	0	0	1	0	0	1	0	0	0	0	0	0	0	0	0	0	0	0	0	0	0	0
OTU 127	0	0	33	0	0	2	4	1	1	0	0	0	0	3	0	0	3	0	1	2	0	0	3	0	1	0	1	0	141	1	0	1	5	0	1	0	1	1	0	0	1	0	0	0	0	2	0	0	3	2
OTU 128	0	11	13	8	1	7	2	2	5	3	15	3	2	10	1	6	8	14	4	4	3	2	1	12	2	0	10	1	1	0	2	9	14	4	16	4	4	6	16	4	1	8	2	4	6	4	2	2	2	14
OTU 129	0	0	0	0	1	0	0	0	0	0	0	0	2	0	0	0	0	1	0	0	1	0	4	0	2	0	0	0	0	4	0	0	0	0	0	0	0	0	0	0	0	0	0	0	0	0	1	0	4	0
OTU 130	1	0	0	14	0	24	1	0	1	0	1	0	1	1	0	8	4	0	0	0	4	0	0	0	1	0	0	0	1	0	0	0	0	0	14	77	0	0	0	0	0	2	8	0	1	2	0	2	0	0
OTU 131	0	0	1	2	0	0	0	0	0	0	0	0	0	1	0	0	0	3	6	0	3	0	0	1	0	4	0	0	0	0	0	0	0	0	2	0	6	1	0	0	0	4	1	0	0	1	5	0	0	0
OTU 132	40	1	0	0	0	1	0	0	0	0	0	1	0	2	0	0	0	0	0	2	0	1	0	0	76	0	4	0	3	0	0	0	1	0	0	0	0	0	0	1	0	0	0	0	0	0	0	0	4	2
OTU 133	0	0	0	1	0	0	0	0	0	0	0	1	0	5	0	0	0	0	0	0	1	0	0	0	0	0	0	0	0	0	0	1	0	0	0	0	0	0	0	0	0	0	0	0	0	0	0	0	0	0
OTU 134	0	0	1	0	0	2	5	0	0	0	14	0	3	1	0	0	1	0	0	1	1	0	0	1	0	0	0	0	0	0	14	0	1	0	2	0	6	0	4	0	0	0	3	1	1	0	2	1	0	1
OTU 135	1	0	0	2	3	5	5	4	6	3	3	0	157	0	1	4	5	0	5	0	1	1	5	20	0	3	1	3	0	4	5	1	0	1	0	4	2	6	0	0	4	0	0	0	2	11	2	3	14	13
OTU 136	6	4	0	7	0	0	3	0	0	0	2	0	1	1	0	1	5	0	0	1	0	0	4	2	6	3	0	0	1	1	0	1	0	0	2	0	3	1	0	0	3	3	0	0	0	3	3	1	1	0
OTU 137	0	0	0	0	0	0	0	0	0	0	0	0	0	2	0	0	3	0	0	2	0	1	0	0	0	0	0	0	1	0	0	0	4	0	2	1	3	1	0	0	0	0	0	0	0	0	0	0	2	0
OTU 138	0	0	0	0	0	0	0	0	0	0	2	2	0	0	0	0	2	0	2	0	0	0	0	0	0	0	2	0	0	0	0	0	0	0	0	0	1	0	4	0	0	0	0	0	0	0	3	0	0	0
OTU 139	1	3	2	1	42	2	0	3	4	0	2	7	2	0	0	1	3	4	0	0	2	4	3	0	6	0	0	0	2	1	0	0	3	2	2	2	6	0	4	3	4	3	6	2	0	7	1	1	2	4
OTU 140	2	6	1	6	3	6	32	1	2	2	1	3	6	0	0	5	13	2	1	3	8	2	1	0	19	0	7	0	5	0	6	3	56	4	13	0	2	0	3	2	1	6	2	4	2	4	1	1	1	4
OTU 141	0	0	0	0	0	0	0	0	0	0	0	0	0	0	0	0	0	0	0	0	10	0	0	0	0	0	0	0	0	0	0	0	0	0	0	0	0	0	0	0	0	0	0	0	0	0	0	0	0	0
OTU 142	0	0	0	0	0	1	1	0	0	0	0	0	0	0	0	0	0	0	0	0	2	0	0	0	0	0	1	0	0	0	0	0	0	0	0	0	0	0	0	0	0	0	0	0	0	0	0	0	0	0
OTU 143	0	0	0	0	14	0	0	0	0	16	0	2	0	0	1	0	0	0	0	0	0	29	0	0	0	1	0	0	0	0	0	0	0	0	0	0	0	2	0	0	0	1	0	0	0	0	0	3	0	0
OTU 144	0	0	0	0	0	0	3	0	0	0	0	0	0	0	1	0	0	3	0	0	0	0	0	0	0	0	0	0	0	0	0	0	0	0	0	4	1	0	0	0	0	1	0	0	0	0	0	0	0	0
OTU 145	0	2	1	7	1	3	5	0	1	1	2	0	0	8	0	2	0	2	0	6	3	2	5	1	4	0	8	1	2	0	1	3	0	1	0	7	4	0	1	2	0	0	5	0	0	2	0	5	2	2
OTU 146	0	0	6	0	0	1	3	0	1	0	1	2	0	16	0	0	1	0	0	1	0	0	0	1	1	1	0	0	0	0	1	2	1	0	0	0	11	2	3	0	0	0	9	0	0	0	3	0	0	1
OTU 147	0	0	0	0	0	0	0	1	0	0	0	1	0	1	0	1	3	0	0	1	0	0	0	0	3	0	0	0	0	0	0	0	16	3	0	2	0	0	0	0	0	0	1	0	0	0	0	0	0	0
OTU 148	1	0	5	0	0	0	2	0	0	0	0	0	0	12	0	0	3	0	0	6	2	0	5	0	0	0	0	0	0	1	0	5	6	0	1	2	0	0	2	1	0	1	0	4	0	0	0	4	9	0
OTU 149	0	0	0	0	1	0	0	0	2	0	6	1	0	0	0	0	0	0	0	0	1	0	0	0	0	0	4	0	0	0	0	1	0	1	1	1	0	0	0	0	0	0	3	0	0	3	1	7	0	0
OTU 150	0	3	0	60	0	0	0	0	1	0	0	0	0	0	0	0	0	0	0	0	0	1	0	1	0	0	0	0	0	0	0	0	0	0	0	0	1	0	0	0	2	1	0	0	0	0	1	0	0	0
OTU 151	1	0	0	10	0	0	1	2	0	4	0	0	0	0	1	2	0	0	0	2	0	2	1	3	2	0	0	1	0	2	3	0	0	0	0	0	0	0	0	1	0	3	0	1	0	0	0	0	1	0
OTU 152	0	0	6	0	1	0	0	2	2	2	1	2	5	4	2	0	0	85	0	1	1	0	3	0	1	0	3	1	15	7	3	3	0	1	0	1	1	1	0	0	0	1	0	0	1	1	0	3	11	0
OTU 153	0	0	0	0	0	0	0	0	0	0	2	3	0	0	0	0	0	0	0	0	0	1	1	0	0	0	0	0	0	0	0	0	0	0	0	0	0	0	0	0	0	0	0	0	0	0	0	0	0	0
OTU 154	0	0	0	0	0	0	0	0	0	0	0	0	0	0	0	0	0	0	0	0	0	0	0	0	0	0	0	0	1	0	0	0	0	0	0	0	0	0	0	0	0	0	15	1	0	0	0	0	0	0
OTU 155	0	0	0	1	0	1	0	0	3	0	0	0	0	0	0	0	0	0	0	0	3	0	1	0	1	1	3	0	2	1	0	0	0	0	0	0	0	1	0	0	0	3	0	0	0	0	0	0	2	0
OTU 156	77	5	5	5	0	3	0	1	2	1	4	2	0	2	0	164	3	1	0	3	2	2	0	8	3	2	0	0	1	0	2	0	4	2	8	0	0	0	0	1	0	11	0	2	0	1	0	2	2	2
OTU 157	0	0	0	5	0	42	0	9	0	0	0	0	0	0	0	0	0	0	0	0	2	0	0	2	1	0	0	0	0	0	0	0	1	0	2	0	0	0	1	2	0	0	3	0	2	0	1	0	0	16
OTU 158	0	0	0	0	0	0	0	0	0	0	0	0	0	10	0	0	0	0	0	0	0	0	0	0	0	0	2	0	0	0	0	0	2	0	0	0	0	0	0	0	0	0	0	0	0	0	0	0	0	0
OTU 159	1	2	3	0	0	0	10	5	0	1	0	3	0	5	2	0	1	3	2	0	3	1	0	1	0	0	2	0	0	0	0	0	0	3	4	0	0	1	5	3	4	0	1	2	0	1	2	1	0	3
OTU 160	1	11	2	7	0	9	1	1	3	0	3	5	14	4	1	2	1	45	3	0	0	1	0	12	0	2	8	0	3	1	2	2	3	0	0	1	56	0	76	25	0	4	0	0	1	0	29	0	0	4
OTU 161	1	0	2	1	0	1	5	0	0	0	0	4	0	4	91	1	1	0	0	1	1	0	0	0	0	81	0	0	1	15	0	2	2	0	3	48	0	158	0	6	74	0	2	0	0	0	118	12	1	0
OTU 162	0	0	3	0	0	6	7	4	0	0	0	0	0	1	2	2	0	0	4	0	2	3	0	2	0	2	0	1	0	2	3	14	0	2	0	1	1	3	1	3	4	8	0	2	80	0	2	27	2	0
OTU 163	0	0	0	0	0	0	3	0	0	0	0	0	0	0	0	0	0	0	0	0	0	0	0	0	0	0	0	0	0	0	0	0	0	0	0	0	0	0	0	0	0	0	0	0	0	0	0	0	0	0
OTU 164	0	0	0	0	0	0	0	0	0	0	0	0	0	0	0	0	0	0	0	0	0	0	0	0	0	0	0	0	0	0	0	0	0	0	0	0	0	0	0	0	0	0	0	0	0	0	0	0	0	0
OTU 165	0	1	0	1	1	0	0	0	0	6	0	0	0	0	0	0	0	1	0	0	0	1	0	0	0	0	0	1	0	0	0	0	0	0	2	0	0	0	0	0	0	0	0	0	0	0	0	0	0	2
OTU 166	0	0	0	0	0	0	0	0	0	0	0	0	0	0	0	0	0	0	0	0	0	0	0	0	0	0	0	0	0	0	0	0	0	0	0	0	0	0	0	0	0	0	0	0	0	0	0	0	0	0
OTU 167	0	0	0	4	0	5	0	1	0	0	2	50	0	3	0	1	1	3	0	0	0	0	0	1	2	0	105	0	0	58	1	0	0	0	2	0	0	0	0	0	1	0	1	0	1	0	0	3	0	0
OTU 168	0	10	0	0	0	3	0	3	0	1	4	0	2	0	0	0	0	0	0	4	4	0	0	0	2	0	0	0	1	0	0	0	0	0	0	1	0	1	6	1	0	0	3	3	2	0	0	1	1	1
OTU 169	0	1	0	0	1	0	0	0	0	1	116	0	0	0	0	0	0	0	1	0	1	1	0	0	0	0	0	0	1	0	0	0	0	0	0	0	0	0	5	0	0	0	0	0	0	0	1	0	0	0
OTU 170	0	0	0	0	0	0	0	0	0	0	0	0	0	0	0	0	0	0	0	0	0	1	0	0	0	0	0	0	0	0	0	0	0	0	0	0	6	0	0	0	0	0	0	0	2	0	0	0	0	0
OTU 171	0	0	4	8	2	0	0	0	0	6	0	16	3	1	5	1	1	0	3	1	0	7	6	2	0	2	38	3	0	1	0	1	0	2	8	0	5	3	1	1	75	0	0	1	0	2	0	3	4	0
OTU 172	0	0	0	0	0	0	0	0	0	0	0	0	0	0	0	0	0	0	0	0	0	2	0	0	0	0	0	0	0	0	0	0	0	0	0	0	0	0	1	0	0	0	1	0	0	0	0	0	0	0
OTU 173	0	1	0	0	0	0	1	1	0	1	2	0	0	2	0	0	2	0	0	1	0	0	0	0	0	0	7	0	0	0	2	0	1	0	0	0	0	0	0	0	0	0	0	7	0	0	0	0	1	0
OTU 174	0	2	0	0	0	0	2	0	0	0	1	0	0	0	0	0	0	1	0	1	0	0	1	0	1	0	0	0	0	0	1	0	0	0	1	0	0	1	0	1	0	1	0	4	0	3	0	1	0	1
OTU 175	0	0	0	0	0	0	1	1	1	2	0	0	0	0	0	0	4	0	0	0	0	0	3	1	1	0	0	1	0	3	0	0	0	0	1	0	0	1	0	4	0	0	2	0	0	2	0	0	4	1
OTU 176	0	0	2	1	2	0	3	3	0	1	0	3	0	4	0	0	11	5	0	2	0	2	0	0	5	0	3	0	4	0	0	0	1	1	1	3	0	0	2	2	0	0	0	0	1	2	0	0	4	1
OTU 177	0	0	1	8	0	1	5	3	0	2	1	0	0	2	0	1	0	1	0	1	0	0	0	0	0	6	0	2	3	0	1	13	0	0	1	0	0	7	5	0	2	5	1	2	2	1	1	6	0	1
OTU 178	0	0	0	1	0	0	7	4	0	1	0	0	0	0	3	0	0	0	3	0	0	0	0	0	0	0	1	0	0	0	0	1	2	0	2	0	0	1	2	1	3	3	1	3	0	0	1	0	0	0
OTU 179	1	0	0	2	1	0	0	0	0	0	0	2	0	2	0	0	0	0	0	0	0	1	1	1	1	0	11	0	1	0	2	3	5	0	0	2	0	0	0	1	0	2	0	2	0	1	0	0	0	0
OTU 180	1	7	74	10	4	3	2	2	4	3	6	4	6	2	0	1	4	3	4	1	12	5	2	1	3	1	1	208	0	0	2	6	0	1	10	0	5	2	3	6	5	18	11	3	6	4	0	0	5	4
OTU 181	0	0	0	1	2	0	0	0	0	0	0	0	0	0	0	1	1	0	0	3	4	0	0	0	0	0	5	0	0	0	0	0	1	0	6	1	0	0	2	1	0	5	1	1	1	0	0	0	0	0
OTU 182	0	0	0	0	0	0	1	0	0	0	0	0	3	0	0	0	1	1	0	0	0	0	0	0	0	0	0	0	0	0	0	0	0	0	0	0	0	0	0	0	0	0	0	0	0	0	0	0	0	0
OTU 183	0	0	0	0	3	0	1	0	1	0	0	31	1	0	1	0	3	3	1	2	0	2	0	1	0	0	0	0	0	0	0	0	1	1	0	0	0	0	3	1	0	3	2	0	0	0	49	3	0	2
OTU 184	0	1	0	0	0	0	2	0	0	2	0	0	0	3	0	0	0	0	12	1	1	0	0	0	0	0	6	0	0	0	3	0	0	0	0	0	0	0	0	0	0	1	0	0	2	0	0	0	0	0
OTU 185	0	1	2	1	1	0	2	0	2	0	3	0	1	1	0	1	0	2	2	0	2	0	0	5	0	1	3	0	8	1	0	0	3	3	0	0	0	0	1	0	0	3	0	2	0	0	7	1	4	4
OTU 186	0	1	0	0	1	0	0	0	1	0	0	132	1	0	0	0	0	0	0	0	0	0	0	0	0	0	0	0	1	0	1	0	0	0	2	0	0	2	3	0	0	0	0	2	0	1	0	0	0	0
OTU 187	0	0	10	5	1	0	0	2	0	5	4	1	3	4	0	2	0	0	4	3	13	1	1	5	0	0	1	1	1	0	4	0	10	1	3	0	8	0	2	4	0	0	0	3	0	0	2	1	4	3
OTU 188	0	0	0	3	16	25	8	96	19	5	0	4	1	5	11	5	4	4	37	5	3	19	15	13	3	18	0	12	3	40	7	145	4	10	0	19	2	25	0	0	18	1	2	2	8	11	6	0	34	10
OTU 189	0	1	12	0	0	2	2	26	7	3	9	7	1	0	0	0	3	1	12	2	0	2	1	7	0	1	5	0	1	0	9	5	0	0	11	0	0	0	0	1	0	7	12	2	1	4	5	0	10	5
OTU 190	0	0	0	0	0	0	2	0	0	0	3	0	0	2	0	0	0	0	0	1	2	0	0	0	1	0	0	0	0	1	0	0	0	0	0	0	0	0	0	0	0	0	29	0	1	0	0	0	4	3
OTU 191	3	2	0	1	0	2	1	0	0	0	0	0	0	0	0	10	0	0	1	0	0	1	3	1	28	147	1	0	0	0	1	7	7	0	5	10	0	1	5	4	0	6	0	0	1	0	0	2	0	1
OTU 192	0	0	0	0	0	4	2	7	0	3	1	0	6	12	0	0	19	1	1	5	7	2	0	1	2	0	0	0	2	1	0	1	1	0	5	0	8	0	0	5	0	15	10	99	8	3	1	0	0	1
OTU 193	0	0	3	1	1	1	4	0	4	1	0	1	1	1	0	0	12	0	1	1	0	0	2	0	0	0	0	1	0	0	5	0	10	1	0	0	2	0	3	2	0	2	10	0	1	0	0	1	0	0
OTU 194	0	1	1	0	0	4	0	1	0	1	1	0	6	0	0	0	0	0	0	0	0	0	0	0	2	0	3	0	1	1	0	0	17	0	3	0	0	0	3	2	0	8	7	0	5	0	0	1	0	0
OTU 195	0	1	0	0	2	1	0	0	0	1	0	0	0	3	71	1	0	4	0	0	0	1	0	0	0	1	1	0	0	0	0	0	3	0	2	2	4	0	0	1	0	4	1	2	0	0	1	0	0	0
OTU 196	0	0	0	0	0	0	1	2	1	0	2	1	2	0	0	0	0	0	0	1	0	0	0	1	1	0	0	0	0	0	4	0	2	1	1	1	0	0	1	0	0	1	0	0	0	1	0	0	0	0
OTU 197	0	0	6	8	0	1	5	1	10	98	1	5	0	9	4	4	3	2	0	7	0	0	2	2	10	1	4	0	2	0	2	2	6	5	13	1	0	2	7	2	84	7	2	4	0	3	7	5	3	3
OTU 198	0	0	1	1	0	0	0	0	0	0	2	0	0	2	0	0	0	3	1	0	0	0	1	0	0	0	0	0	0	1	0	0	0	0	0	0	0	0	0	0	0	2	1	0	0	0	0	0	1	1
OTU 199	0	0	0	1	0	0	0	1	0	0	0	0	1	0	0	0	1	0	0	0	1	0	0	1	1	2	3	0	0	0	1	1	0	0	0	0	3	0	0	3	0	1	0	2	0	0	0	0	0	0
OTU 200	0	2	2	4	0	1	0	0	0	0	0	1	0	1	0	1	0	0	0	10	0	1	1	0	2	1	1	0	0	1	0	5	0	0	3	0	5	0	1	0	0	1	0	1	0	0	0	0	5	7
