	Host 1	Host 2	Host 3	Host 4	Host 5	Host 6	Host 7	Host 8	Host 9	Host 10	Host 11	Host 12	Host 13	Host 14	Host 15	Host 16	Host 17	Host 18	Host 19	Host 20	Host 21	Host 22	Host 23	Host 24	Host 25	Host 26	Host 27	Host 28	Host 29	Host 30	Host 31	Host 32	Host 33	Host 34	Host 35	Host 36	Host 37	Host 38	Host 39	Host 40	Host 41	Host 42	Host 43	Host 44	Host 45	Host 46	Host 47	Host 48	Host 49	Host 50	
OTU 1	0	3	0	3	4	1	0	0	0	3	3	1	0	5	0	0	2	10	15	0	5	2	4	0	1	0	0	2	9	2	3	6	8	3	21	7	7	0	0	5	6	4	4	1	6	5	3	0	4	7
OTU 2	0	2	0	0	1	0	1	0	0	0	2	1	0	0	0	2	0	0	0	0	0	0	0	0	0	0	0	0	0	0	2	0	1	0	0	0	0	0	1	0	0	0	0	0	1	0	0	0	0	0
OTU 3	3	0	22	0	0	0	4	0	15	0	0	0	0	0	0	0	0	0	3	0	0	0	0	0	0	0	0	0	1	0	0	0	0	0	0	8	1	2	0	27	0	1	0	1	0	0	0	0	0	0
OTU 4	0	0	0	0	0	0	0	0	0	0	0	0	0	0	0	0	0	0	0	0	0	0	0	0	0	0	0	0	0	0	0	0	0	0	0	0	0	0	0	0	0	0	0	0	0	0	0	0	0	0
OTU 5	10	12	16	6	10	34	40	10	6	73	31	6	38	45	24	0	39	1	18	2	1	31	32	44	7	39	7	11	31	0	6	13	19	0	31	5	22	9	24	19	2	8	5	15	52	2	7	44	5	19
OTU 6	5	0	0	0	0	0	4	6	0	0	0	0	1	3	1	0	1	2	7	7	1	2	7	0	0	0	0	0	0	0	1	7	0	1	2	0	3	0	0	0	2	1	0	1	4	62	9	2	0	0
OTU 7	4	8	0	2	5	0	7	0	2	4	15	1	9	4	4	4	4	7	0	1	5	4	0	0	12	1	0	7	1	1	0	1	2	0	1	4	1	7	1	0	0	9	1	8	0	4	5	22	0	0
OTU 8	2	0	5	1	5	1	1	6	1	5	5	0	9	2	3	2	3	14	32	1	1	2	0	1	0	6	0	3	3	0	6	4	1	1	11	2	9	8	0	0	1	4	5	4	1	1	4	0	1	4
OTU 9	0	0	0	0	0	0	2	0	0	0	0	0	0	0	0	2	0	0	0	1	0	0	0	0	0	0	0	0	0	0	0	0	0	0	3	1	0	6	2	0	0	1	1	3	0	0	0	0	0	0
OTU 10	0	0	2	0	0	0	0	0	1	0	0	0	0	1	5	0	0	3	0	0	1	0	0	0	0	0	1	2	0	0	0	0	3	0	2	0	0	1	1	5	0	0	0	0	0	0	0	0	0	0
OTU 11	1	0	0	1	0	0	1	0	0	0	1	4	2	0	0	4	0	0	1	0	0	3	0	0	0	0	1	1	0	0	0	0	0	1	2	0	3	5	0	4	9	2	0	1	0	0	3	0	4	0
OTU 12	1	1	0	0	7	1	5	0	2	1	0	0	0	0	2	7	5	0	0	5	0	0	1	0	1	0	0	1	0	2	0	2	6	5	2	2	0	0	0	0	1	3	0	5	1	3	3	1	3	0
OTU 13	0	0	0	0	0	0	0	0	0	0	0	0	1	0	0	0	0	0	0	0	0	0	0	0	0	2	0	0	0	0	0	0	0	0	0	0	0	0	0	0	0	0	0	1	0	0	0	0	0	0
OTU 14	0	1	4	1	0	1	0	1	0	0	0	1	0	0	0	0	0	0	0	0	0	8	1	0	0	6	1	0	0	1	0	0	0	2	0	2	0	0	0	8	0	0	0	5	0	1	4	0	0	0
OTU 15	0	0	0	0	0	0	0	0	0	0	0	0	0	0	0	0	0	0	0	0	0	0	0	0	0	0	0	0	0	0	0	1	0	0	0	0	0	0	0	4	0	0	0	0	0	0	1	0	0	0
OTU 16	0	0	0	0	0	0	0	0	0	0	0	0	0	0	0	0	1	0	0	0	0	0	1	0	0	0	0	0	0	0	0	1	0	0	0	0	0	0	0	0	0	0	0	0	0	0	0	0	0	0
OTU 17	0	1	0	3	0	0	4	1	2	0	1	0	0	0	0	1	0	0	0	0	0	3	0	0	0	1	2	1	0	0	0	1	5	0	0	1	0	0	0	0	1	0	1	0	1	0	0	2	0	0
OTU 18	0	0	0	3	0	0	3	0	1	14	1	0	1	3	6	1	1	1	5	0	1	0	1	2	4	4	1	0	0	2	1	0	0	4	0	0	0	0	0	6	2	1	1	1	0	3	4	2	1	1
OTU 19	0	0	0	0	0	0	0	0	0	0	0	0	0	0	0	0	0	0	0	0	0	0	0	0	0	0	0	0	0	0	0	0	0	0	0	0	0	0	0	0	0	0	0	0	0	0	0	0	0	0
OTU 20	0	1	1	0	2	4	1	0	0	0	0	0	14	1	2	1	0	0	0	1	0	2	0	0	4	3	1	0	2	1	2	0	0	2	0	0	3	3	3	1	0	11	3	0	3	0	2	1	0	1
OTU 21	0	0	4	1	1	0	2	3	1	0	1	1	0	2	0	0	1	0	3	0	1	1	0	0	0	6	1	0	0	0	6	0	4	5	0	0	3	0	4	3	2	0	1	2	1	0	0	0	0	0
OTU 22	0	0	0	0	0	1	0	6	52	1	3	2	0	0	1	0	0	2	0	28	0	1	1	0	0	0	0	2	94	3	1	2	0	6	3	0	4	0	0	0	45	1	0	4	0	0	1	3	0	7
OTU 23	0	1	1	0	4	0	8	0	1	0	0	0	2	0	2	12	0	1	0	1	0	0	0	0	2	0	5	1	0	15	4	3	7	2	2	0	0	0	2	1	1	3	1	0	3	3	1	2	0	0
OTU 24	0	0	0	0	1	1	3	0	0	0	0	0	0	0	1	0	1	0	0	0	46	0	0	0	0	0	0	1	1	0	1	0	0	0	0	0	0	0	0	0	0	4	1	0	2	0	0	0	1	0
OTU 25	0	0	0	0	0	0	0	0	0	0	0	0	0	0	0	0	0	0	0	0	0	0	0	0	0	1	1	0	0	0	0	0	1	0	0	0	0	0	0	0	0	0	0	0	0	0	0	0	0	0
OTU 26	0	1	0	0	0	0	0	2	0	0	0	0	0	0	0	0	0	0	0	1	0	0	0	0	0	0	2	1	0	4	0	0	0	0	0	0	0	1	0	0	0	2	0	6	0	0	0	1	0	0
OTU 27	0	0	0	0	0	0	0	0	0	0	0	0	0	0	0	0	0	0	0	0	0	0	0	0	0	0	0	0	0	0	0	0	0	0	0	0	0	0	0	0	0	0	3	0	0	0	0	0	0	0
OTU 28	2	0	0	0	0	0	3	3	1	0	0	0	0	3	5	0	0	3	1	16	0	0	0	3	1	1	0	1	2	0	2	0	0	0	2	0	1	0	6	0	1	4	0	0	0	1	1	2	11	0
OTU 29	6	0	0	2	1	3	2	0	1	4	3	0	1	13	2	2	0	8	0	0	4	0	0	1	4	4	2	0	2	1	5	0	0	0	1	2	0	0	1	8	2	9	1	6	0	0	5	0	0	1
OTU 30	0	0	0	0	0	0	0	0	0	0	0	0	0	0	0	0	0	0	0	0	0	0	0	0	0	0	0	0	0	0	0	0	0	0	0	0	0	0	0	0	0	0	0	0	0	0	0	0	0	0
OTU 31	0	155	0	0	0	1	0	0	0	0	0	0	0	0	0	1	0	0	0	1	0	0	3	1	1	0	1	1	0	0	3	6	1	1	0	1	0	0	0	0	0	7	0	0	5	0	1	0	0	2
OTU 32	0	0	0	4	108	6	3	2	1	0	20	0	15	3	3	1	81	2	4	1	0	0	1	0	4	0	1	1	29	14	0	4	0	11	1	0	1	10	63	0	0	7	3	28	2	0	1	1	7	0
OTU 33	27	0	0	1	0	0	0	0	0	0	0	0	0	0	0	0	0	0	0	0	0	0	0	0	0	0	1	0	0	0	0	0	0	0	0	0	0	1	0	0	0	0	0	0	0	0	0	0	0	1
OTU 34	0	0	0	0	0	0	6	1	2	1	0	0	1	2	1	4	0	3	0	0	1	0	0	0	0	15	1	1	7	0	0	0	1	47	1	18	146	1	18	3	2	0	3	1	2	4	2	0	2	50
OTU 35	1	0	2	1	0	0	2	0	0	2	7	47	0	6	0	5	0	15	1	0	150	7	0	2	2	0	6	7	3	7	0	1	2	0	1	4	0	0	4	2	0	2	101	0	0	4	9	0	2	1
OTU 36	1	0	1	1	0	0	0	1	0	1	3	0	0	0	5	0	0	1	0	0	4	0	0	0	0	2	3	0	0	0	0	0	3	44	0	0	1	0	2	2	0	0	0	1	2	0	0	0	1	0
OTU 37	0	0	1	0	0	0	0	0	0	0	0	0	0	0	0	0	0	0	0	0	0	0	0	1	0	1	0	0	0	0	0	0	1	0	0	0	0	0	0	0	0	0	0	0	0	0	0	0	0	0
OTU 38	1	1	0	1	1	0	3	0	1	0	3	0	0	0	0	4	0	1	0	1	1	1	1	1	0	0	1	0	12	2	1	5	1	8	1	0	1	2	31	0	1	2	1	2	1	1	1	0	0	0
OTU 39	0	0	0	0	1	3	0	0	0	0	0	0	3	0	0	0	0	0	0	0	0	0	0	0	3	0	0	1	0	0	2	0	0	0	0	0	1	0	0	0	1	5	0	0	0	0	0	0	0	0
OTU 40	0	0	1	1	0	3	1	1	0	2	5	3	4	0	0	15	0	0	1	1	0	29	2	8	4	4	0	6	0	8	1	4	0	5	1	0	0	3	0	1	5	9	1	0	1	0	2	0	0	0
OTU 41	0	1	0	0	0	0	0	0	2	0	0	4	3	0	2	2	0	0	0	2	1	2	0	4	1	1	1	0	2	1	0	0	0	0	1	0	0	0	3	0	0	0	0	0	2	4	11	0	3	0
OTU 42	0	1	0	1	0	0	0	0	0	0	0	0	0	0	1	0	0	0	0	0	0	1	0	0	0	0	0	0	0	0	4	0	0	7	3	0	0	0	0	0	0	0	0	0	0	1	1	0	0	0
OTU 43	0	0	0	0	0	0	0	0	0	0	0	0	0	0	0	0	0	0	0	0	0	0	0	0	0	1	0	0	0	0	0	0	0	0	0	0	0	0	0	0	0	0	0	0	0	0	0	0	0	0
OTU 44	0	0	1	0	0	0	2	0	0	0	0	0	0	0	1	6	0	0	0	0	0	0	0	0	0	0	0	0	0	0	0	0	4	3	0	0	0	0	0	0	0	0	0	0	0	0	0	0	0	0
OTU 45	7	0	2	0	0	2	1	1	2	0	0	0	15	0	0	5	1	0	3	3	0	0	8	0	3	0	0	1	0	2	4	17	1	1	1	1	1	1	2	0	0	9	0	0	2	0	16	0	7	0
OTU 46	4	2	0	0	3	1	2	0	0	0	5	4	0	0	1	0	0	5	1	5	1	0	1	0	4	0	1	1	0	2	1	0	6	4	0	0	0	6	1	3	1	0	0	1	0	4	3	5	0	0
OTU 47	0	0	0	0	0	0	1	0	0	0	0	0	2	0	0	0	0	0	0	0	0	0	71	0	0	0	0	0	0	0	0	0	0	2	0	2	0	0	0	0	0	0	0	0	0	2	0	0	0	0
OTU 48	3	1	5	1	0	1	2	3	0	0	0	2	4	0	0	1	0	3	0	2	0	0	2	5	1	1	1	1	1	1	0	1	0	0	1	4	1	0	0	14	1	5	3	0	0	1	5	0	7	0
OTU 49	1	2	1	0	0	0	2	1	0	2	0	0	0	2	0	0	0	3	2	0	2	0	0	0	0	1	0	0	0	0	0	0	0	0	0	2	0	2	1	2	5	0	0	2	0	1	0	0	0	0
OTU 50	0	4	6	2	4	0	75	0	0	5	5	0	0	4	7	2	2	5	0	0	4	7	0	14	0	0	6	0	8	0	11	0	5	2	14	3	1	23	0	1	9	7	1	0	4	11	1	3	7	0
OTU 51	0	0	0	1	0	0	2	5	0	0	2	5	1	0	1	1	0	1	0	0	0	1	1	2	6	0	5	2	0	0	1	0	7	4	0	6	3	0	1	2	4	4	32	1	0	1	0	0	2	0
OTU 52	0	3	4	2	0	13	4	8	6	2	8	5	4	2	3	2	1	0	7	0	1	0	3	0	40	7	5	4	9	1	1	1	7	4	4	0	3	0	19	2	1	6	1	2	2	4	15	3	7	6
OTU 53	0	0	0	0	0	0	0	0	0	0	0	0	0	0	0	0	0	0	0	0	0	0	0	0	0	0	0	0	0	0	0	0	3	0	0	0	0	0	0	0	0	0	0	0	0	0	0	0	0	0
OTU 54	2	1	2	24	2	0	10	4	0	0	32	10	6	3	4	8	2	6	4	0	2	2	3	1	2	0	4	2	2	26	3	6	0	8	0	3	2	0	12	7	7	0	5	4	50	0	0	2	3	0
OTU 55	0	0	0	0	0	0	0	0	0	0	0	0	0	0	0	0	0	0	0	0	0	0	0	0	0	0	0	0	0	0	0	0	0	0	0	0	0	0	0	0	0	0	0	0	0	0	0	0	0	0
OTU 56	0	0	0	0	0	0	0	0	0	0	0	0	0	0	0	0	0	0	8	0	0	0	0	0	0	0	0	1	0	27	0	0	0	0	0	0	0	1	1	2	5	1	0	43	0	1	0	0	0	0
OTU 57	3	0	4	0	0	1	1	4	4	5	9	2	0	4	1	11	24	16	6	0	6	2	4	4	2	26	0	5	1	4	2	1	3	4	1	14	1	86	5	1	0	0	0	2	0	0	7	1	4	1
OTU 58	0	0	1	2	0	139	0	0	1	0	1	0	1	1	0	0	0	3	0	1	1	1	0	0	0	0	0	1	0	0	95	0	1	0	0	0	1	55	0	0	4	0	2	1	0	0	7	44	2	2
OTU 59	0	3	0	2	0	1	15	0	0	0	3	0	0	1	0	0	0	0	0	1	1	0	0	0	2	0	0	1	0	9	0	0	0	1	0	0	4	1	0	3	4	0	0	1	0	0	2	0	0	0
OTU 60	1	1	0	0	0	0	3	2	1	0	0	3	2	5	5	1	0	4	1	8	3	2	3	0	0	0	50	0	1	0	0	11	1	3	2	1	0	0	1	6	0	3	1	8	0	0	7	7	4	0
OTU 61	3	3	0	1	2	2	1	19	3	1	0	1	11	0	5	2	2	0	16	1	0	1	0	0	2	0	1	0	1	1	0	0	0	6	2	12	10	0	0	1	5	3	1	1	0	5	3	13	2	5
OTU 62	0	0	17	0	0	0	0	0	31	0	0	0	0	0	1	1	0	0	0	0	0	1	0	0	0	9	0	0	0	0	1	0	1	0	0	5	0	0	1	49	0	0	0	0	0	0	5	0	0	0
OTU 63	0	44	69	0	0	0	1	0	0	0	1	0	0	0	1	7	0	0	0	0	0	0	1	0	0	5	0	0	3	0	0	0	0	0	1	1	0	0	1	0	0	0	3	0	0	2	3	1	0	0
OTU 64	27	2	2	0	0	3	4	10	1	1	2	0	0	3	12	1	0	6	60	21	4	3	15	1	2	1	1	2	1	0	1	27	9	11	1	4	37	4	7	6	2	3	0	0	0	2	1	19	12	18
OTU 65	0	0	0	0	0	0	0	0	0	0	0	0	0	0	1	0	0	0	0	0	0	0	0	0	0	0	0	0	0	0	0	0	0	0	0	0	0	0	0	0	0	0	0	0	0	0	0	0	0	0
OTU 66	0	1	0	0	1	0	4	1	13	1	1	5	0	2	3	6	1	1	1	2	1	0	3	1	0	2	7	0	4	0	0	4	8	7	2	63	1	3	1	3	10	0	0	1	0	0	1	0	0	0
OTU 67	5	0	0	2	0	2	1	0	1	1	0	0	1	2	0	2	0	10	0	3	7	0	0	0	2	0	0	1	0	1	7	0	0	0	0	3	0	2	1	0	1	4	0	4	0	2	0	0	0	2
OTU 68	5	1	0	0	0	0	0	1	0	0	0	0	0	0	1	0	0	0	5	0	0	7	0	0	0	0	0	0	0	2	0	3	1	1	0	0	3	1	0	0	0	0	2	0	18	0	0	1	0	0
OTU 69	1	0	5	0	0	6	4	0	3	0	0	0	0	0	0	4	0	0	2	0	0	3	0	2	11	1	2	0	0	0	1	0	0	0	0	0	0	0	0	2	0	16	1	0	2	0	1	0	1	0
OTU 70	0	0	0	0	0	0	0	0	0	0	3	0	0	1	0	0	0	0	0	1	0	0	0	0	3	0	0	1	4	0	1	0	0	0	0	0	0	0	1	0	1	0	4	0	0	0	0	0	0	1
OTU 71	0	0	3	5	0	0	0	0	0	0	5	0	0	0	0	0	0	0	0	0	2	1	0	2	0	0	0	1	0	0	0	1	0	0	1	0	0	0	0	0	0	0	2	0	0	2	0	0	0	1
OTU 72	0	2	0	1	0	0	2	15	4	0	2	2	68	0	4	0	0	1	2	0	0	0	0	0	5	5	0	0	3	8	0	0	0	1	1	0	2	0	2	0	7	4	0	2	3	3	1	2	0	0
OTU 73	11	0	3	0	1	0	0	1	0	0	0	0	1	0	0	5	0	0	1	0	0	0	0	0	1	0	5	0	0	3	0	0	1	4	2	0	1	0	0	4	1	1	0	0	0	1	7	1	0	0
OTU 74	0	2	1	0	0	0	1	0	1	0	2	4	4	0	0	1	0	0	8	2	0	1	53	0	1	0	0	1	0	4	6	5	2	8	1	0	0	0	0	5	6	0	5	1	0	1	2	0	2	0
OTU 75	9	0	1	0	0	6	0	3	1	0	1	5	2	0	0	8	0	0	0	3	0	0	42	1	2	1	0	0	1	1	4	2	2	1	0	1	0	0	2	5	0	2	2	1	0	0	0	2	0	1
OTU 76	0	0	0	1	0	0	0	1	0	0	0	0	0	1	0	0	0	0	0	2	3	51	0	0	0	1	0	2	0	0	0	0	0	0	3	0	0	0	4	0	0	0	1	0	2	0	3	0	0	0
OTU 77	0	3	1	0	0	0	6	1	0	0	0	0	1	0	1	1	1	1	4	3	0	1	1	0	0	1	5	1	1	0	0	0	4	6	0	1	6	0	0	7	2	0	0	0	0	6	2	1	1	0
OTU 78	6	0	0	2	1	1	0	2	0	0	3	1	5	0	6	3	0	0	1	0	0	1	0	5	1	0	1	0	0	1	0	0	0	0	0	2	1	0	1	0	3	2	0	2	0	2	2	3	0	0
OTU 79	3	6	0	3	5	48	1	70	5	72	1	10	6	3	23	2	2	0	6	1	0	0	4	5	98	9	4	1	1	1	0	6	7	2	9	7	1	2	5	6	6	6	7	3	4	0	3	4	8	0
OTU 80	6	0	0	5	0	0	2	0	4	0	0	0	7	2	1	0	1	2	5	0	0	1	0	1	0	2	0	64	0	1	0	0	0	1	2	3	0	0	5	3	1	0	3	2	0	3	1	0	1	3
OTU 81	1	0	25	7	1	0	1	10	22	0	5	1	4	1	0	1	0	4	14	0	2	2	2	0	0	14	1	26	0	0	3	1	0	0	0	5	6	0	0	24	0	2	1	0	0	0	7	4	0	0
OTU 82	2	1	0	0	2	0	1	4	0	1	1	0	0	1	4	8	0	0	1	1	0	2	0	1	2	0	0	1	0	0	8	0	1	1	2	0	0	3	0	0	0	3	0	0	1	0	1	1	0	2
OTU 83	1	0	0	0	0	0	0	0	0	0	0	0	3	0	0	5	0	0	0	0	0	0	0	0	0	1	4	0	0	0	0	0	0	0	0	0	1	0	0	0	5	0	0	0	0	1	3	0	0	0
OTU 84	0	2	0	0	3	0	2	0	0	0	1	1	0	1	0	0	0	0	0	2	0	0	0	6	0	0	1	0	0	0	5	1	3	3	4	1	0	0	0	2	0	0	0	0	0	9	0	1	0	0
OTU 85	0	0	0	3	0	0	0	0	0	0	5	0	0	0	0	1	0	0	0	0	0	0	0	0	0	2	0	0	0	1	0	0	0	1	0	0	1	0	0	0	5	1	0	0	0	1	0	0	0	1
OTU 86	0	0	3	0	0	0	2	0	0	0	0	0	0	0	0	0	0	0	0	0	0	0	0	0	0	0	0	0	0	0	0	0	0	0	0	0	0	0	0	7	0	0	0	0	0	0	0	1	0	0
OTU 87	0	0	0	0	0	0	0	0	0	0	0	0	1	0	0	0	0	0	0	0	0	0	0	0	4	0	0	0	0	0	0	0	0	0	0	1	1	0	0	1	0	1	0	0	0	0	0	2	0	0
OTU 88	1	0	0	0	0	0	0	0	0	0	0	0	0	0	0	0	0	0	0	0	0	1	0	0	0	9	0	0	0	0	0	0	0	7	0	0	0	0	0	0	5	0	0	1	0	0	0	0	0	0
OTU 89	0	0	0	0	0	0	0	0	1	0	0	0	0	0	0	0	0	0	0	3	0	0	2	0	0	0	1	0	0	2	0	1	0	0	0	0	4	0	0	0	1	1	0	0	0	0	0	0	0	0
OTU 90	0	0	0	0	0	0	0	0	0	0	0	0	0	0	0	0	0	2	0	0	1	1	0	0	0	0	0	0	0	0	2	0	0	0	0	0	0	0	0	0	1	1	0	0	0	0	0	1	0	0
OTU 91	0	0	0	0	0	0	0	0	0	0	0	0	0	0	0	0	0	0	0	0	0	0	0	0	0	1	0	0	0	0	1	0	0	0	0	0	0	0	0	0	0	0	1	0	0	0	0	0	0	0
OTU 92	0	0	0	0	0	0	0	0	3	0	0	0	0	0	0	1	0	0	0	0	0	0	2	0	0	0	1	0	0	0	1	1	0	0	0	0	0	1	0	0	0	0	0	0	0	0	1	0	0	0
OTU 93	0	0	0	0	0	0	0	0	0	0	0	1	0	0	0	0	0	0	1	0	0	0	0	0	0	0	0	0	0	1	0	0	0	0	0	0	0	0	0	0	0	0	0	0	0	0	0	0	0	0
OTU 94	6	0	5	2	0	0	5	2	0	0	4	2	1	0	0	0	0	1	1	12	0	1	11	0	0	4	0	2	2	0	0	19	4	11	0	1	0	0	0	1	8	0	0	0	0	0	21	0	8	3
OTU 95	0	0	1	0	0	0	0	1	4	0	2	0	0	0	0	0	0	0	0	149	0	0	0	0	0	1	0	0	0	0	0	0	0	0	0	0	0	0	0	0	0	0	2	1	0	0	0	41	0	0
OTU 96	0	0	3	0	0	0	0	0	0	0	0	0	0	0	0	0	0	0	0	0	0	0	0	1	0	0	1	0	0	0	0	0	4	0	0	0	0	0	0	0	0	0	0	0	0	1	0	0	0	0
OTU 97	0	0	0	0	0	0	0	0	0	0	0	0	0	0	0	4	0	0	0	0	0	2	0	1	0	0	1	0	0	3	1	0	1	0	1	0	0	0	0	0	0	0	0	0	0	0	0	0	0	0
OTU 98	1	1	4	0	0	0	0	0	0	0	0	0	0	1	0	0	0	0	0	1	0	0	0	1	0	3	3	0	1	0	0	0	0	0	0	0	0	0	0	1	0	0	1	0	0	0	0	0	4	0
OTU 99	4	0	0	3	0	1	2	17	1	1	0	3	0	1	0	2	0	4	7	2	1	2	5	0	7	2	0	0	5	0	0	10	0	6	0	20	7	5	0	1	2	10	28	1	0	34	0	5	2	1
OTU 100	1	10	0	0	17	0	0	0	2	1	0	2	0	0	0	8	9	0	0	0	0	0	0	0	0	0	0	63	0	0	29	0	1	1	29	1	0	13	4	0	2	1	0	0	9	1	0	0	0	0
OTU 101	0	0	0	0	0	0	0	0	0	0	0	0	0	0	0	0	0	0	0	3	0	0	0	0	0	0	0	0	0	0	0	0	0	0	0	0	0	0	1	0	0	0	0	0	0	0	1	0	0	0
OTU 102	0	4	0	0	1	0	0	1	0	1	0	0	0	0	0	0	2	0	0	0	0	0	0	1	0	2	0	0	0	0	0	0	0	0	0	0	0	0	0	0	0	1	0	3	2	0	1	0	0	0
OTU 103	0	7	0	1	15	0	0	0	0	0	0	0	0	0	2	7	5	0	1	0	0	1	0	1	0	0	7	14	0	2	9	4	17	0	16	0	0	3	0	0	1	1	0	0	6	11	0	0	5	0
OTU 104	5	5	2	1	6	0	0	9	0	0	0	3	0	0	4	0	2	0	4	15	0	0	8	18	3	5	3	2	1	1	7	21	3	4	5	0	6	0	0	4	7	9	2	1	4	0	9	4	16	6
OTU 105	0	0	0	0	0	0	1	0	0	1	1	0	0	0	0	0	0	0	1	0	0	1	0	0	0	0	0	0	0	0	0	0	0	0	0	0	0	0	0	0	4	0	0	0	0	1	0	0	0	0
OTU 106	0	0	1	0	0	0	0	0	0	0	0	0	0	0	0	0	0	0	0	0	0	0	0	0	0	0	0	0	0	0	0	0	0	0	0	1	0	1	0	1	0	0	0	0	0	0	0	0	0	0
OTU 107	1	0	0	3	0	0	0	0	0	2	1	0	2	1	0	1	0	4	0	0	2	1	0	0	0	0	0	0	0	2	1	0	0	0	0	0	0	0	0	0	0	0	0	6	0	0	1	0	0	0
OTU 108	1	0	0	0	1	0	0	0	0	0	0	0	0	2	0	1	0	2	2	0	1	1	1	1	0	0	0	2	0	0	0	0	0	0	0	0	0	0	0	0	0	0	0	0	0	0	0	1	0	1
OTU 109	0	0	0	0	0	0	0	0	0	0	0	1	0	0	0	0	0	0	0	0	0	0	0	1	0	0	0	0	0	0	0	0	0	0	0	0	0	0	0	0	0	0	0	0	0	0	0	0	0	0
OTU 110	10	0	0	0	0	0	1	0	0	0	0	0	0	2	0	0	0	0	3	5	1	6	3	1	1	0	2	1	0	2	2	2	10	0	4	2	2	0	0	2	2	1	2	2	0	4	20	60	0	1
OTU 111	1	0	0	0	0	0	0	0	0	0	0	0	0	0	0	0	0	0	0	0	0	0	0	0	1	0	0	0	0	0	0	0	0	0	0	0	0	0	3	0	0	0	0	1	0	0	0	0	0	0
OTU 112	0	1	0	0	1	0	5	0	1	0	0	0	0	0	1	0	1	0	0	0	0	1	0	0	0	0	0	0	0	0	0	0	0	0	6	1	0	0	0	0	0	1	0	0	1	0	0	1	0	0
OTU 113	0	0	0	0	0	0	0	1	0	0	0	3	0	0	0	0	0	0	1	0	0	0	0	0	0	0	0	0	0	2	0	0	0	0	1	0	0	0	0	0	0	0	0	0	0	0	0	2	0	0
OTU 114	1	0	1	6	0	8	1	11	3	59	1	2	1	112	2	6	0	1	5	0	0	4	1	12	30	0	30	0	0	0	13	2	33	7	0	0	8	0	1	0	1	48	4	0	0	1	0	2	2	2
OTU 115	2	11	3	1	4	0	3	1	3	0	0	1	3	1	1	3	3	1	1	0	6	1	3	1	0	1	0	2	0	2	4	0	2	9	11	0	0	5	1	2	1	2	7	1	5	5	4	1	0	4
OTU 116	1	3	0	0	0	1	5	4	2	3	0	1	5	16	4	0	2	25	1	0	5	0	0	0	2	0	5	1	0	0	0	2	1	0	4	40	0	0	0	0	12	11	0	0	1	3	1	0	0	1
OTU 117	1	1	0	0	0	1	0	36	0	1	0	5	1	3	0	0	0	1	1	2	3	2	1	0	3	0	5	0	2	0	0	2	2	4	1	2	0	2	2	1	2	0	1	0	0	1	3	0	0	0
OTU 118	0	0	1	0	0	0	0	0	0	0	0	0	0	0	6	0	0	0	1	0	0	0	0	0	2	0	1	0	1	0	0	0	9	1	0	1	0	0	0	0	0	2	0	0	0	4	0	0	0	0
OTU 119	0	2	0	0	5	0	1	0	0	0	0	0	0	0	0	0	3	0	1	4	0	7	3	67	0	4	1	2	3	0	0	1	1	0	8	0	0	0	5	3	0	0	3	0	4	1	0	8	3	1
OTU 120	0	0	7	2	0	0	0	0	0	0	5	0	0	0	0	0	0	0	0	0	0	0	0	0	0	5	0	0	0	1	0	0	1	1	0	0	0	0	1	0	0	0	1	0	0	0	0	0	0	0
OTU 121	1	3	0	0	58	0	0	1	0	0	1	1	0	0	0	0	45	1	0	0	0	0	0	0	0	1	0	0	2	0	0	0	0	0	0	0	0	3	0	0	0	2	0	1	0	6	0	0	1	0
OTU 122	0	2	2	7	0	0	0	3	4	0	3	1	1	0	8	0	0	0	4	0	0	5	0	0	2	6	0	0	0	1	2	0	10	2	0	0	0	0	5	0	0	0	5	2	1	4	5	0	0	2
OTU 123	10	3	7	98	4	52	8	0	1	56	8	4	2	2	21	12	0	2	11	1	6	2	1	5	10	10	2	10	30	2	5	1	3	2	2	4	1	3	16	2	10	3	9	6	70	3	8	4	6	1
OTU 124	0	0	0	0	0	0	2	1	0	0	0	0	0	0	2	2	0	1	0	0	0	0	0	1	0	2	0	0	0	0	0	5	0	2	0	0	0	0	0	0	0	0	0	0	0	0	0	0	0	0
OTU 125	5	4	1	9	5	0	1	1	4	3	9	4	7	0	12	7	0	4	6	1	2	60	1	6	3	3	2	5	1	1	2	8	2	9	11	4	3	24	1	7	6	8	7	5	2	3	13	1	0	3
OTU 126	2	0	0	0	0	0	0	1	0	0	0	0	0	0	0	0	0	0	0	0	0	0	0	0	0	0	0	0	0	0	0	0	0	0	0	0	0	1	2	0	1	0	0	0	0	0	0	0	0	0
OTU 127	1	0	0	1	0	0	0	1	1	0	0	0	13	2	2	2	0	4	0	0	0	0	0	4	0	0	1	0	4	0	0	0	0	2	0	0	0	1	2	13	0	0	3	0	0	0	6	0	0	1
OTU 128	21	0	7	2	1	7	7	2	3	7	10	0	19	5	5	12	0	10	15	4	4	4	1	12	2	2	0	4	3	7	6	12	11	10	5	19	0	2	4	14	4	19	1	1	1	7	2	0	0	1
OTU 129	0	0	0	0	0	0	0	0	1	0	0	2	0	0	0	0	0	0	0	0	0	0	0	0	1	0	0	0	0	1	0	0	0	0	0	0	1	1	0	0	0	0	0	6	0	0	0	0	0	0
OTU 130	1	0	1	0	0	0	4	0	0	0	1	0	0	0	0	0	0	0	0	0	0	1	1	1	2	0	0	0	1	0	1	0	3	4	0	4	2	2	0	0	1	0	0	0	0	3	2	0	1	0
OTU 131	1	0	0	1	0	1	0	8	3	0	0	1	1	0	3	2	0	0	0	1	0	0	2	16	0	1	34	0	1	0	0	1	61	0	0	1	0	0	0	7	3	0	0	1	0	5	0	1	0	2
OTU 132	0	0	0	0	0	0	0	3	0	0	0	0	0	0	1	2	0	0	0	0	0	0	0	2	0	0	3	0	0	0	1	0	1	6	0	3	0	0	2	0	0	1	0	1	0	0	0	0	0	0
OTU 133	0	0	0	2	0	3	0	0	0	0	0	0	2	0	0	2	0	0	0	0	0	0	0	0	0	0	0	0	0	0	2	0	0	0	0	0	0	0	0	0	0	0	0	0	0	0	0	0	0	0
OTU 134	0	0	0	0	0	0	3	2	2	1	2	0	0	1	3	0	1	3	7	1	3	2	0	0	0	1	0	2	4	3	10	0	1	0	0	3	3	4	1	1	13	0	1	1	0	1	1	3	1	2
OTU 135	3	1	7	94	0	0	2	0	3	2	2	0	0	1	20	4	1	3	2	0	1	2	1	0	1	1	0	1	2	1	1	3	0	4	6	1	1	0	0	1	3	0	3	1	1	2	0	3	3	3
OTU 136	0	1	0	0	0	1	0	0	1	1	0	0	0	0	1	0	0	0	0	0	0	0	0	0	0	0	1	4	0	0	0	1	0	0	2	0	1	0	0	2	0	0	4	0	0	1	1	0	0	0
OTU 137	9	0	0	0	1	0	0	7	0	0	0	0	0	0	0	0	0	0	0	17	0	0	24	0	0	0	0	0	0	0	0	64	0	0	0	0	1	0	0	1	0	0	0	0	2	0	0	0	9	0
OTU 138	0	0	0	0	0	0	0	0	0	0	2	0	0	0	0	1	0	0	0	0	0	0	0	2	0	0	0	0	1	0	0	0	1	0	0	5	0	0	0	0	2	5	0	0	0	0	2	1	0	0
OTU 139	0	0	0	3	2	0	0	0	1	1	5	107	0	5	1	0	1	6	0	0	7	1	1	2	1	42	4	2	4	3	2	1	5	0	5	0	3	6	5	0	6	0	0	8	0	2	5	3	3	1
OTU 140	4	7	3	13	16	0	11	0	4	7	19	2	7	36	3	1	10	1	4	0	0	1	1	54	3	4	3	3	18	76	5	3	2	3	12	0	4	5	0	6	10	1	4	10	12	4	5	0	130	3
OTU 141	0	0	0	0	0	0	0	0	0	0	0	0	0	0	0	0	0	0	0	0	0	0	0	0	0	0	0	1	0	0	0	0	0	0	0	0	0	0	0	0	0	0	0	0	0	0	0	0	0	0
OTU 142	0	0	0	1	0	0	0	0	0	0	0	0	0	0	0	0	0	0	0	0	0	0	0	0	0	0	0	0	0	0	0	0	0	0	0	0	0	0	0	0	0	0	0	0	0	0	0	0	0	0
OTU 143	0	0	0	5	0	0	0	0	0	0	0	0	0	0	0	0	0	0	1	1	0	0	0	0	0	0	0	0	0	0	0	0	0	0	0	0	0	0	0	0	0	0	0	0	0	0	0	0	0	0
OTU 144	0	0	0	1	0	0	1	0	0	0	2	0	0	0	0	0	0	0	0	0	0	0	0	0	1	0	0	0	0	0	0	0	2	3	1	0	0	0	0	0	3	0	1	0	1	0	0	0	0	0
OTU 145	1	1	1	0	3	3	1	0	2	0	1	1	0	1	8	0	1	0	2	0	0	0	1	0	8	3	5	34	3	4	0	0	1	0	4	0	0	2	0	0	2	10	3	2	1	0	0	1	3	189
OTU 146	0	1	1	1	1	1	2	0	0	0	0	0	0	1	2	5	0	0	1	0	0	0	0	0	2	1	111	1	0	2	0	0	5	0	0	3	2	6	0	0	10	0	4	1	0	0	13	0	7	0
OTU 147	0	0	1	0	1	0	1	0	0	0	1	8	4	0	0	0	0	0	0	0	0	0	0	0	0	0	0	0	1	0	1	0	0	1	0	0	4	0	1	0	0	0	0	0	0	5	0	0	0	0
OTU 148	0	4	0	2	4	0	4	1	0	0	4	0	2	3	53	9	2	1	0	0	6	0	0	3	1	0	9	9	0	0	9	0	15	3	8	0	0	18	0	0	0	0	11	0	9	35	0	0	0	0
OTU 149	0	1	1	0	2	0	0	0	0	0	0	0	0	0	0	2	108	0	1	0	0	0	0	1	0	0	0	2	0	1	0	1	0	0	3	0	0	0	0	0	1	3	1	0	2	1	0	0	0	0
OTU 150	0	0	0	0	0	14	0	0	0	6	1	0	0	0	5	2	0	0	0	0	0	0	0	0	41	0	0	1	0	0	0	0	0	0	0	0	0	0	0	1	0	0	1	0	0	0	1	0	0	0
OTU 151	0	0	0	0	0	0	1	0	1	2	8	0	1	0	0	0	0	0	4	0	1	2	0	0	1	0	0	0	0	0	1	1	0	1	2	0	0	2	0	0	0	0	0	0	0	0	0	0	0	0
OTU 152	0	1	0	0	0	1	0	0	0	0	0	2	0	0	1	0	0	0	2	1	0	2	0	0	2	4	0	0	0	3	0	0	0	0	1	0	0	7	0	1	5	5	0	0	0	2	3	0	0	0
OTU 153	0	0	0	0	0	0	0	0	0	0	0	1	0	0	0	0	0	0	0	0	0	0	0	0	0	0	0	2	0	0	0	0	0	0	0	0	0	0	0	0	0	0	0	0	0	0	0	0	0	0
OTU 154	0	0	2	0	0	0	0	0	0	0	1	0	0	0	0	1	0	0	0	0	0	0	0	0	0	0	0	0	0	0	0	0	0	1	0	0	0	0	0	0	1	0	0	0	0	0	0	0	0	0
OTU 155	0	1	1	0	0	0	2	1	0	0	0	26	0	0	0	0	0	0	0	0	0	0	0	0	0	3	0	0	0	0	3	1	1	0	2	3	1	0	0	0	1	0	0	0	0	0	0	2	0	0
OTU 156	2	0	2	2	0	3	1	2	0	4	5	0	1	4	0	20	0	8	2	0	4	0	1	3	0	0	1	6	2	7	1	3	0	2	0	1	1	2	6	5	2	1	2	5	0	0	0	1	0	1
OTU 157	0	0	1	0	0	1	0	1	0	0	0	1	0	0	0	0	0	0	0	0	0	0	0	0	0	5	0	1	0	1	0	0	1	0	0	4	0	0	0	0	0	1	0	0	0	0	0	0	1	0
OTU 158	0	0	0	0	0	0	0	0	0	0	0	0	0	0	0	0	0	0	0	0	0	0	0	0	0	1	0	0	0	0	0	0	0	0	0	0	0	0	0	0	0	0	0	0	0	0	0	0	0	0
OTU 159	0	0	0	0	0	0	0	0	8	0	1	1	0	0	5	0	0	0	1	2	0	0	1	0	0	0	0	2	4	2	12	4	2	1	0	0	1	1	0	0	0	0	1	0	1	2	2	17	0	0
OTU 160	8	3	2	4	3	2	4	0	1	3	13	2	15	6	5	17	0	5	3	0	6	5	1	11	0	23	1	3	0	2	1	0	2	8	6	30	0	1	2	1	1	0	9	1	1	2	3	3	1	0
OTU 161	0	2	62	0	0	0	4	3	1	1	1	1	5	0	9	1	0	1	3	0	0	0	0	14	0	6	1	0	3	1	0	0	0	0	2	0	1	1	2	0	2	1	2	0	0	0	0	1	3	5
OTU 162	0	5	0	3	1	4	5	1	0	0	7	0	0	0	1	3	0	0	2	1	0	0	1	0	1	2	2	0	20	2	3	7	0	0	0	0	0	0	0	1	0	7	2	0	0	0	2	1	7	0
OTU 163	0	0	0	0	0	0	0	0	0	0	0	1	0	0	0	0	0	0	0	0	0	0	0	0	0	0	0	0	0	0	0	0	0	0	0	0	0	0	0	0	0	0	0	0	0	0	0	1	0	0
OTU 164	0	0	0	0	0	0	0	0	0	0	0	0	0	0	0	0	0	0	0	0	0	0	0	0	0	0	0	0	0	0	0	0	0	0	0	0	0	0	0	0	0	0	0	0	0	0	0	0	0	0
OTU 165	0	0	0	4	1	0	0	0	0	0	7	0	3	0	0	6	0	0	0	0	0	0	1	0	5	0	0	0	1	32	0	1	0	0	3	0	0	0	3	0	0	2	4	66	0	1	0	0	0	0
OTU 166	0	0	0	0	1	0	0	1	0	0	0	0	0	0	0	0	5	0	0	0	0	0	0	0	0	0	0	0	0	0	0	0	0	0	2	1	0	0	0	0	0	0	0	0	3	0	0	0	0	0
OTU 167	0	0	2	1	0	0	0	2	0	0	2	1	3	1	0	0	0	0	0	2	0	0	0	1	0	2	0	0	0	2	0	1	0	2	0	0	0	0	2	0	5	0	0	0	0	0	0	0	1	0
OTU 168	1	7	0	1	2	0	5	0	3	2	2	7	0	3	2	1	0	5	0	0	0	0	2	0	0	0	0	0	1	22	1	1	3	0	2	0	0	2	1	0	0	1	2	57	3	0	0	0	2	1
OTU 169	0	0	0	0	0	0	0	0	0	0	0	0	0	0	0	0	0	0	3	0	0	0	0	0	0	0	0	0	0	0	0	0	0	0	0	0	0	0	0	0	0	0	0	0	0	0	0	0	0	0
OTU 170	0	0	0	0	0	0	0	0	0	0	0	0	0	0	0	0	0	0	0	0	0	0	0	0	0	0	0	0	0	0	0	1	2	0	0	0	0	0	0	0	0	0	0	0	0	0	0	0	0	0
OTU 171	0	1	0	0	0	0	0	1	0	1	0	0	0	0	4	2	0	3	6	0	0	0	2	0	0	0	0	2	0	0	0	1	0	0	0	0	1	0	2	0	0	3	4	0	40	0	2	3	0	2
OTU 172	0	0	0	0	0	0	0	0	0	0	2	0	0	0	0	0	0	0	0	0	0	1	0	0	0	0	0	0	0	0	0	0	0	2	0	0	0	0	0	0	1	0	0	0	0	0	0	0	0	0
OTU 173	0	0	0	0	0	0	0	2	0	0	1	0	1	0	0	6	0	0	1	0	0	0	0	0	0	0	0	1	0	1	0	0	1	0	0	1	0	0	0	2	0	0	0	4	0	1	0	0	0	1
OTU 174	2	0	0	0	0	0	2	0	0	13	2	0	1	33	0	0	0	63	0	3	40	6	4	0	0	4	1	4	1	0	1	10	0	0	0	0	1	0	3	0	0	0	0	0	0	0	0	0	8	0
OTU 175	0	0	0	0	0	0	1	1	0	0	0	0	1	0	0	4	0	0	0	0	0	1	0	0	0	0	0	0	0	1	0	0	0	8	0	0	0	0	0	0	0	0	0	0	0	0	0	0	0	1
OTU 176	1	0	4	0	0	0	1	6	1	1	4	0	0	1	5	2	0	1	7	0	0	0	0	2	2	0	1	0	0	2	1	1	6	0	0	2	1	0	4	1	0	3	5	0	1	7	4	1	0	0
OTU 177	2	2	0	0	5	1	1	0	0	3	7	2	1	1	1	1	1	15	1	1	11	0	0	0	0	0	0	7	2	1	2	0	1	1	4	1	3	0	0	0	7	4	1	2	0	10	2	0	0	0
OTU 178	2	0	0	0	0	0	1	5	1	1	0	0	0	3	0	2	0	6	0	0	3	1	1	0	0	1	0	0	1	0	5	0	0	0	0	2	0	1	1	0	0	0	0	0	0	1	0	1	0	1
OTU 179	84	0	6	0	1	0	6	1	0	2	0	1	2	2	0	0	0	14	4	0	4	4	0	1	1	0	0	0	0	0	0	0	0	0	0	1	0	0	0	0	0	4	0	0	1	0	0	0	0	2
OTU 180	2	3	0	5	5	0	10	4	0	5	8	3	1	4	3	28	1	8	0	5	4	5	2	3	3	4	1	12	3	2	7	4	0	0	12	6	2	4	2	1	5	7	2	2	6	7	13	0	2	3
OTU 181	0	0	0	1	0	0	0	1	2	2	0	0	0	8	1	10	2	16	1	6	5	2	3	1	0	0	1	0	0	0	3	4	0	0	0	4	1	0	1	1	38	0	0	0	1	4	1	0	1	0
OTU 182	0	0	0	0	0	0	0	0	0	0	0	0	0	0	0	0	0	0	0	0	0	0	0	0	0	0	0	0	0	0	0	0	0	0	0	0	0	0	0	0	0	0	0	0	0	0	0	2	0	0
OTU 183	0	1	0	0	2	0	0	0	0	0	0	0	3	0	1	6	0	3	4	0	1	0	3	1	0	1	1	0	0	0	0	0	0	2	1	2	0	1	0	1	2	1	0	0	1	0	0	0	0	0
OTU 184	0	2	0	0	3	0	4	0	0	2	0	0	0	2	0	0	0	9	0	0	3	0	0	21	0	1	0	0	0	0	0	0	2	1	0	0	0	0	0	0	0	0	0	0	1	0	0	1	0	0
OTU 185	0	3	1	5	0	1	2	3	0	0	8	0	2	0	0	2	3	1	1	6	0	1	1	1	4	0	3	0	0	14	3	4	6	3	12	2	0	3	0	0	0	7	1	7	1	1	2	0	1	2
OTU 186	0	0	2	0	0	0	0	0	0	0	0	0	0	0	0	0	0	0	0	0	0	0	0	0	0	0	0	0	0	4	0	0	0	1	0	1	2	0	3	0	0	0	0	0	0	0	0	0	3	2
OTU 187	2	3	1	8	2	1	5	4	3	0	0	3	5	0	13	1	1	0	2	2	0	2	4	4	0	0	3	6	0	2	4	20	4	3	6	1	1	3	2	0	6	2	3	0	4	9	2	1	1	0
OTU 188	4	0	1	0	6	0	0	2	11	1	1	6	1	0	4	4	0	0	0	1	0	1	0	1	0	0	0	1	0	10	2	0	1	2	0	0	0	2	2	4	0	0	0	4	0	3	2	0	1	0
OTU 189	2	2	2	0	2	3	0	3	2	0	2	1	1	0	1	9	1	3	2	1	2	1	2	0	2	1	0	0	2	0	2	2	6	0	2	0	23	4	5	1	7	3	0	0	0	3	8	2	6	8
OTU 190	0	0	1	0	0	0	0	0	0	0	0	0	7	0	0	0	0	0	0	0	0	0	12	0	0	0	0	0	0	0	0	0	1	1	0	0	0	1	0	0	0	0	0	0	0	1	0	0	0	0
OTU 191	0	0	0	5	0	0	3	1	0	0	2	1	2	0	14	2	0	1	0	3	0	1	2	0	0	1	0	0	0	0	1	1	0	0	1	1	1	1	0	0	5	0	0	2	0	0	3	0	9	1
OTU 192	3	1	25	0	1	2	0	15	27	0	0	1	2	2	0	4	2	8	7	2	2	5	1	1	0	30	2	6	4	4	2	3	4	6	2	18	4	1	6	33	3	4	14	1	2	0	3	6	1	2
OTU 193	3	0	2	0	0	1	3	13	1	0	3	3	2	0	1	2	0	1	4	1	0	0	0	1	3	4	0	0	11	0	0	1	0	0	0	0	4	1	23	0	0	11	0	2	0	0	18	6	3	1
OTU 194	17	0	0	0	0	0	0	0	0	0	1	0	0	0	1	0	0	0	0	7	0	0	6	0	1	0	0	0	7	2	2	5	0	0	0	0	0	0	4	0	1	3	1	1	0	0	0	1	15	0
OTU 195	2	1	2	0	3	0	1	0	1	0	0	0	0	1	0	0	0	4	0	0	1	5	0	0	0	0	0	1	3	1	0	0	0	6	0	1	1	0	7	8	1	0	1	0	2	4	0	0	8	0
OTU 196	2	15	0	1	34	0	0	1	0	1	6	0	0	0	0	0	11	1	0	0	0	5	1	0	0	4	0	0	5	2	18	2	0	0	43	0	0	4	16	0	1	0	4	0	20	0	6	0	2	1
OTU 197	0	0	0	2	2	1	4	3	90	1	11	49	4	1	0	0	1	2	3	1	1	1	3	0	2	1	0	7	0	0	2	8	0	3	2	0	2	1	3	1	0	5	15	2	0	24	4	2	3	1
OTU 198	1	0	3	0	0	0	0	0	0	0	1	0	4	0	1	0	0	0	0	0	0	48	0	0	0	0	2	0	0	0	0	0	0	0	0	0	0	0	2	0	0	0	0	2	0	2	0	0	0	0
OTU 199	0	1	1	2	2	0	4	0	0	0	7	0	0	0	0	3	0	0	0	0	0	2	0	0	0	1	0	0	0	0	0	0	0	0	4	0	0	0	1	1	2	0	3	0	0	0	4	0	0	0
OTU 200	0	0	1	0	0	0	0	0	2	0	0	0	8	0	1	0	0	0	3	1	0	0	0	0	1	0	0	0	0	0	0	1	2	0	0	0	1	0	0	0	0	1	0	1	0	3	0	1	2	0
