	Host 1	Host 2	Host 3	Host 4	Host 5	Host 6	Host 7	Host 8	Host 9	Host 10	Host 11	Host 12	Host 13	Host 14	Host 15	Host 16	Host 17	Host 18	Host 19	Host 20	Host 21	Host 22	Host 23	Host 24	Host 25	Host 26	Host 27	Host 28	Host 29	Host 30	Host 31	Host 32	Host 33	Host 34	Host 35	Host 36	Host 37	Host 38	Host 39	Host 40	Host 41	Host 42	Host 43	Host 44	Host 45	Host 46	Host 47	Host 48	Host 49	Host 50	
OTU 1	84	254	79	7	83	26	45	9	65	602	117	7	13	54	578	119	212	25	111	14	398	79	90	233	31	45	150	92	0	27	9	132	54	41	135	89	12	126	215	115	299	5	165	4	32	68	111	105	1	361
OTU 2	6	2	34	11	0	0	40	42	55	34	15	68	7	0	51	1	13	111	75	0	32	16	0	63	0	0	9	7	0	31	58	0	1	7	1	1	0	0	7	3	33	0	4	24	3	2	29	1	3	0
OTU 3	0	0	2	0	2	14	7	17	2	4	40	15	26	12	36	7	112	24	13	5	15	0	5	127	0	6	0	0	35	1	1	14	0	0	0	22	1	12	19	26	0	34	0	25	0	6	0	0	1	0
OTU 4	0	0	0	0	0	0	0	0	0	12	0	0	0	0	0	0	0	0	0	0	0	0	0	0	0	0	0	0	0	0	3	0	0	0	0	0	0	0	0	0	0	0	0	0	0	0	0	0	0	1
OTU 5	513	465	147	219	478	693	689	551	42	584	240	164	149	63	615	234	243	210	674	317	109	312	737	69	14	177	163	250	527	655	115	306	195	566	987	11	1	114	0	1917	0	45	203	800	168	284	1071	324	0	414
OTU 6	29	0	72	21	13	11	0	138	5	15	0	26	133	4	9	20	38	18	0	84	20	0	19	0	7	111	28	0	11	139	15	11	12	2	30	37	27	6	8	9	0	28	535	7	66	13	25	0	54	0
OTU 7	22	23	17	55	117	170	160	43	65	37	15	288	133	21	28	25	70	53	316	31	170	3	59	80	87	13	33	1	103	8	388	70	18	108	34	57	104	102	46	31	49	4	2	25	20	20	84	3209	79	26
OTU 8	211	11	97	31	71	758	69	23	1244	17	7	149	118	52	12	53	139	13	128	30	170	24	95	99	176	3	23	1	728	26	11	159	200	263	105	2965	1081	47	237	32	19	14	43	81	9	575	98	7	160	12
OTU 9	66	0	2	11	0	7	62	0	15	0	17	6	0	6	0	9	106	3	138	10	5	6	136	28	2	0	13	0	5	23	0	0	14	18	102	4	1	255	0	9	0	3	4	76	14	0	0	1	0	0
OTU 10	224	0	3	0	2	2	16	26	4	162	0	16	0	27	0	194	28	0	28	0	25	0	14	0	5	52	0	19	147	3	0	4	1	80	0	1	35	30	1	0	7	1038	2	4	0	2	11	3	515	107
OTU 11	34	35	4	18	40	232	10	21	11	7	36	1	0	8	0	13	112	128	13	54	13	48	14	37	0	8	22	8	19	4	3	1	35	56	58	31	27	136	2	20	34	1	19	64	2	19	2	37	6	1
OTU 12	2	5	57	19	0	148	63	33	0	18	45	2	118	50	22	1	82	25	95	46	64	12	9	6	8	16	26	16	52	18	109	59	25	140	10	20	27	11	15	29	0	66	32	21	49	42	308	0	147	21
OTU 13	0	5	0	9	0	0	0	0	0	0	0	0	28	0	0	0	1	0	0	0	0	0	23	0	8	0	0	12	0	0	0	0	2	0	38	17	10	0	1	0	0	0	0	0	0	0	0	5	0	7
OTU 14	1	23	0	0	17	0	0	0	32	0	1	12	0	0	27	0	0	0	3	52	0	0	0	3	8	413	0	1	8	5	8	6	62	0	4	3	2	0	0	16	1	143	0	0	7	33	2	29	27	6
OTU 15	0	0	0	1	7	5	0	0	0	0	0	0	20	0	0	0	0	28	0	0	1	3	53	1	0	0	0	0	4	0	0	0	0	0	0	0	0	0	0	0	2	179	1	0	0	0	3	0	0	0
OTU 16	0	0	0	0	0	0	0	0	0	0	0	0	0	0	0	0	0	0	0	0	12	0	0	0	0	0	0	0	0	78	3	0	0	0	0	0	0	0	0	0	0	0	0	0	2	0	2	0	0	0
OTU 17	0	0	87	12	20	5	0	88	23	33	4	21	51	70	64	0	0	8	4	5	83	5	0	28	22	10	12	11	0	1	1	5	12	9	26	0	4	0	18	1	1	4	83	1	24	22	47	0	176	0
OTU 18	10	17	0	25	54	412	20	50	305	80	72	72	23	35	101	7	52	27	45	63	32	1	15	406	172	2	70	15	11	191	73	26	116	257	91	2057	444	41	100	24	22	57	3	266	111	191	9	19	23	34
OTU 19	0	0	0	0	0	0	0	0	0	0	0	0	0	0	0	0	0	0	0	0	0	0	0	0	0	0	0	0	0	0	0	0	0	0	0	0	0	0	0	0	0	0	0	0	0	0	0	0	4	0
OTU 20	167	1963	7	58	181	4	16	10	61	113	19	25	5	221	17	2	24	0	33	6	6	0	0	148	36	34	1	14	70	37	57	12	19	59	6	8	264	42	62	10	12	13	15	10	7	101	3	1129	54	23
OTU 21	4	36	151	109	336	14	29	13	111	44	6	10	2	19	24	12	17	21	52	88	0	112	62	87	51	34	32	2	87	49	2	18	10	44	32	45	3	130	254	37	12	80	1	125	142	48	0	41	16	8
OTU 22	114	5	1	17	24	12	1	23	16	1	17	43	171	1	66	6	6	16	3	112	103	13	24	331	1229	45	12	1	29	0	1	22	0	2	88	19	4	16	7	78	55	54	1	34	3389	18	50	12	14	4
OTU 23	7	1	0	0	1	15	23	37	2	13	46	2	2	10	0	8	1	8	51	21	0	17	2	9	1	0	14	1	75	15	0	16	2	17	5	220	2	10	4	4	2	2	13	8	26	3	1	0	86	0
OTU 24	52	12	4	13	0	1	4	1	0	10	1	7	41	7	1	0	40	0	10	0	29	0	67	0	51	102	15	0	4	5	0	0	20	48	0	0	8	87	79	6	1	6	1	0	13	72	9	4	153	3
OTU 25	0	0	0	0	0	0	59	0	0	0	0	0	43	0	0	0	0	0	94	3	0	0	0	0	0	0	2	0	0	0	0	0	0	0	0	1	0	5	0	0	0	0	12	0	0	0	0	0	0	0
OTU 26	23	0	20	7	10	0	5	0	0	2	0	2	1	3	0	0	119	11	10	1	1	19	22	0	0	0	3	1	0	0	0	0	0	13	6	4	0	39	0	0	31	0	0	104	16	0	7	0	2	0
OTU 27	0	0	0	0	0	0	0	1	2	10	0	2	0	0	0	0	0	6	0	1	0	0	0	0	2	0	0	0	14	0	1	0	0	0	0	0	0	0	0	0	0	67	0	0	0	0	0	0	0	0
OTU 28	84	34	0	89	38	3	6	44	10	7	5	1	107	225	608	54	14	47	16	81	26	4	30	56	1	47	9	8	6	68	363	0	78	3	0	63	37	51	25	33	5	62	3	23	23	0	2	1	1	34
OTU 29	222	5	0	2	28	56	6	46	67	6	11	9	52	1	62	10	30	11	5	10	39	15	20	14	45	42	3	1	35	21	1	25	41	32	8	0	145	59	42	12	31	29	35	86	0	2	9	0	4	2
OTU 30	0	0	0	1	0	0	0	0	0	0	0	0	0	0	0	0	0	0	0	0	0	0	0	0	0	0	0	0	0	0	0	0	0	0	0	0	0	0	0	0	0	0	0	0	0	0	0	1	0	0
OTU 31	165	38	0	28	0	0	144	1	9	1	0	179	17	3	1	0	124	8	277	11	10	87	2	0	23	157	1	0	2	50	8	0	20	5	0	0	11	7	26	20	134	2	18	25	8	11	1	21	48	14
OTU 32	2	38	36	1812	0	8	29	3	29	4	1	28	13	67	4	59	143	32	64	27	68	182	213	51	162	106	13	24	132	4	252	64	37	11	59	12	9	75	168	3	356	29	20	25	20	7	62	18	24	9
OTU 33	2	0	1	0	0	0	0	0	21	0	0	5	0	0	0	0	12	0	0	0	0	0	5	0	0	0	0	0	0	0	14	0	23	0	0	0	0	0	0	31	0	0	0	0	12	0	0	0	0	0
OTU 34	993	2	5	4	12	3	1	129	34	9	22	37	2	118	24	4	127	64	1	0	24	187	1269	13	31	19	112	5	376	3	142	7	26	0	45	18	14	17	7	34	279	14	2	12	61	19	17	2	0	22
OTU 35	0	30	22	87	0	14	3	1	49	52	4	200	7	25	17	0	27	93	17	26	102	1	0	34	66	43	3	9	6	0	164	46	1	0	20	2	1	15	167	1	1	13	1	4	30	61	56	13	142	35
OTU 36	49	50	0	0	25	14	47	18	557	17	0	13	7	51	4	15	0	28	79	18	84	0	12	38	17	2	5	0	54	45	50	13	8	15	31	15	63	1	44	19	5	16	0	39	3	310	56	69	11	16
OTU 37	31	0	3	1	1	0	3	0	2	0	4	0	0	0	7	3	0	32	15	0	17	0	1	1	21	0	0	0	0	0	2	10	14	0	8	0	0	37	0	22	3	35	0	2	0	2	1615	0	0	1
OTU 38	41	14	0	2	31	15	1	0	0	37	1	31	158	91	0	10	42	34	1	14	17	135	23	30	18	42	0	0	11	0	1	5	283	10	32	13	28	171	30	19	399	4	47	36	0	9	0	1	70	18
OTU 39	0	0	41	2	0	9	1	9	0	1	11	0	0	1	3	0	0	73	6	2	5	0	0	0	0	0	0	1	0	8	0	1	0	7	0	84	0	0	1	4	0	1	0	0	1	16	8	0	8	0
OTU 40	71	8	44	29	0	173	3	35	26	10	1	0	159	241	12	8	97	2	13	2	44	37	83	28	3	104	15	33	57	228	86	10	74	6	61	45	9	72	31	11	66	2	151	6	72	66	41	9	28	11
OTU 41	68	20	0	52	6	64	18	0	18	0	1	8	123	109	2	0	0	33	42	7	9	3	14	17	30	85	19	29	0	13	66	33	3	0	16	4	29	39	95	0	8	11	78	53	11	2	12	32	22	8
OTU 42	7	13	0	7	1	0	9	1	0	1	0	4	12	4	36	0	1	1	16	0	3	6	9	0	0	0	29	0	0	77	0	4	1	0	0	3	8	0	1	5	25	7	0	0	0	0	1	1	17	5
OTU 43	0	0	7	39	0	0	0	3	0	0	0	0	0	0	0	0	0	0	0	0	0	0	0	0	0	0	14	0	0	0	0	0	0	0	0	0	0	0	0	0	0	0	0	0	37	1	0	1	0	0
OTU 44	24	0	38	1	0	0	16	21	0	0	403	1	0	3	0	0	16	0	27	1	0	1	1	0	0	2	53	0	0	0	0	2	0	0	1	6	0	1	0	5	7	0	0	35	135	7	0	3	0	1
OTU 45	104	0	0	8	159	23	101	6	16	65	21	0	0	38	2556	11	3	21	218	354	90	10	9	84	1	6	23	40	29	59	2	12	11	0	17	91	69	62	16	5	5	12	52	2	114	0	32	0	132	71
OTU 46	86	29	15	13	92	12	41	24	1	40	44	132	47	42	69	18	82	96	88	9	0	85	61	6	15	34	29	3	1	107	251	10	31	0	17	0	2	49	1	173	85	2	6	3	3	10	0	8	118	14
OTU 47	0	0	0	0	0	1	0	1	5	0	56	3	0	0	10	0	21	5	0	6	0	0	0	139	0	0	0	0	0	0	3	1	3	0	0	131	0	0	0	0	20	0	18	5	0	0	1	3	0	0
OTU 48	149	6	163	17	59	17	55	102	47	1	9	49	20	56	71	143	96	2	104	146	3	29	42	52	30	91	173	1	5	8	24	5	0	8	32	35	21	22	41	190	125	15	6	157	67	40	10	6	6	6
OTU 49	216	6	0	0	0	0	2	9	0	1	7	30	0	76	4	19	6	38	6	1	7	23	0	3	177	51	1	0	0	0	70	0	28	15	34	0	8	60	150	722	20	0	7	0	13	3	1	0	0	10
OTU 50	24	3	1	54	62	18	57	7	50	7	40	4	38	26	124	5	25	449	139	0	15	2134	6	113	13	3	36	14	8	98	112	9	5	12	4	56	65	10	64	15	87	53	3	0	39	190	3	1	228	3
OTU 51	83	244	23	19	116	8	0	153	0	18	12	3	93	4	4	11	0	0	9	19	18	0	0	87	11	11	159	7	93	1	0	13	0	20	2062	73	1	3	26	4	0	0	45	62	108	30	2	119	13	2
OTU 52	112	25	54	133	28	1	51	90	4	19	7	77	151	91	15	1027	64	17	88	87	1942	94	863	81	3	24	26	32	16	233	164	895	149	62	213	102	166	1422	28	94	189	77	46	132	74	216	813	8	21	4
OTU 53	0	0	0	0	0	0	0	0	0	0	0	0	0	0	0	0	302	0	0	0	0	0	0	0	0	0	0	0	0	0	0	0	0	0	0	0	0	0	0	40	0	0	1	0	0	0	0	0	48	0
OTU 54	3	36	45	16	33	80	36	1664	162	2	86	106	76	675	70	13	164	80	77	18	2	121	27	108	1	81	78	7	9	19	111	50	23	97	41	36	136	59	30	185	202	247	12	110	151	37	5	18	41	16
OTU 55	0	0	0	0	0	0	0	0	0	0	0	0	0	0	0	0	0	0	0	0	0	0	0	0	0	0	0	0	0	0	0	0	0	0	0	0	0	0	0	0	0	0	14	0	0	8	0	0	0	0
OTU 56	47	0	0	7	0	0	0	15	12	0	0	4	61	0	3	8	0	3	1	0	5	28	7	4	0	27	0	0	1	3	36	0	1	0	0	0	1	0	0	0	2	26	1	1	1	12	0	0	3	0
OTU 57	736	41	320	77	251	115	70	191	78	1347	97	100	194	650	29	13	99	130	111	184	29	56	3	309	12	102	166	1149	7	82	592	9	82	54	107	12	213	36	29	7	153	25	157	193	219	80	13	24	200	593
OTU 58	16	9	6	6	15	144	14	0	6	0	0	0	33	129	11	0	85	38	39	1	0	16	5	79	4	95	0	0	13	17	41	1	0	58	7	7	188	25	0	732	20	5	2269	0	1	32	0	1	0	4
OTU 59	0	39	15	76	91	2	14	38	26	178	19	1	4	3	75	43	0	13	20	3338	18	31	134	189	7	69	0	30	0	0	25	16	65	19	32	10	0	88	89	1	4	13	39	0	0	23	6	30	9	76
OTU 60	5	28	31	56	17	22	19	0	29	13	0	12	14	307	2	29	27	82	41	8	27	40	30	21	49	1048	17	6	11	333	7	22	3	11	38	14	29	100	61	8	11	173	7	48	35	40	21	16	82	3
OTU 61	79	11	144	58	37	61	65	306	13	83	39	809	16	16	4	25	24	23	143	233	35	21	353	38	3	26	110	60	47	245	7	9	189	5	125	30	15	458	5	13	38	29	78	23	141	27	19	20	2	59
OTU 62	51	0	13	0	2	37	7	0	17	25	0	0	22	69	17	0	16	96	31	2	2	0	0	1	0	85	2	1835	0	79	0	8	0	18	1	2	23	0	0	17	1	1	9	14	0	36	0	0	0	3945
OTU 63	0	13	80	0	18	0	11	6	9	3	23	3	1	12	0	45	6	4	33	44	1	38	34	55	29	0	16	19	0	9	6	2	14	35	0	1	37	17	5	3	75	81	0	39	5	0	2	0	145	11
OTU 64	27	12	106	41	61	39	80	67	115	8	8	50	254	22	51	69	69	139	146	28	103	36	20	32	15	136	290	3	81	49	23	27	70	14	80	28	22	17	0	550	43	45	20	12	207	34	2160	9	37	16
OTU 65	0	0	0	0	1	0	0	20	0	0	0	0	25	0	0	0	0	0	0	0	0	0	3	0	0	1	54	0	1	0	0	0	1	0	0	0	0	1	0	0	0	10	0	18	30	0	0	0	0	0
OTU 66	79	9	25	70	35	14	7	18	58	0	33	28	26	76	45	164	15	105	19	47	64	40	4	1	104	6	12	5	9	9	39	9	8	36	13	0	9	14	87	48	6	91	0	54	115	7	47	7	4	3
OTU 67	9	10	113	0	2	92	33	60	38	0	1	2	0	101	2	7	88	44	62	1	17	4	1	1	0	5	136	1	96	77	18	2	3	9	1	12	7	2	1	10	2	2678	12	6	90	12	2	2	24	3
OTU 68	3	0	3	7	0	63	0	58	41	1	14	18	0	0	11	0	1	9	0	18	0	0	5	0	15	0	16	0	0	0	16	12	8	30	1	0	56	0	11	12	0	5	47	211	46	0	0	0	0	0
OTU 69	86	19	95	2	3	7	68	106	45	3	50	10	16	4	19	4	470	217	134	1	3	15	311	6	44	15	21	28	15	6	132	711	56	1	21	51	11	955	35	282	15	39	4	1	67	94	2	11	5	14
OTU 70	1	0	0	0	73	3	23	1	4	537	0	2	17	15	2	0	9	2	39	1	0	25	0	41	0	6	2	202	3	57	73	15	32	0	15	0	21	31	83	43	52	8	0	3	0	1	9	10	0	328
OTU 71	0	3	0	11	90	137	0	1	2	7	16	10	28	111	2	6	1	90	0	2	3	1	0	50	0	13	0	2516	2	0	0	12	0	73	0	57	9	0	16	0	0	0	4	145	0	2	0	2	70	13
OTU 72	147	68	13	97	32	24	9	2	24	14	19	41	219	70	27	17	13	13	21	36	158	404	37	29	51	98	26	5	4	60	32	40	13	50	6	29	74	34	33	4	727	65	110	16	36	8	139	51	7	4
OTU 73	8	6	16	0	8	107	18	70	124	3	8	9	25	154	4	23	101	6	43	0	5	15	10	104	79	0	63	5	2	1	17	16	37	18	13	10	126	48	83	0	36	2	5	1	59	2964	12	3	6	9
OTU 74	2	2	2	6	5	5	29	7	4	23	25	73	26	41	15	43	8	3	41	8	13	0	3	23	4	21	18	17	2	240	6	10	18	5	282	39	2300	6	56	6	13	4	14	129	5	15	2	2	47	14
OTU 75	0	3	58	39	10	32	5	42	62	1985	0	2	130	20	3	26	31	47	11	3	20	0	60	16	0	151	95	436	1125	19	86	2	146	5	9	70	85	2	32	49	11	40	15	26	64	1	11	0	15	910
OTU 76	5	16	0	0	13	0	35	3	0	1	2	7	0	2	0	3	0	25	65	0	3	0	0	1	1	0	0	1	9	18	5	1	2	43	0	0	13	2	18	1	0	69	0	2	0	4	2	7	12	2
OTU 77	125	21	115	27	170	71	34	3	42	96	52	139	52	6	71	6	8	63	71	12	1	16	4	186	4	1	5	11	37	7	44	17	39	15	3	1	70	22	97	4	54	4	70	77	33	11	0	3	39	49
OTU 78	57	652	126	30	624	6	0	0	118	87	177	16	1139	103	181	3	0	3	3	0	2	41	1115	848	27	102	42	9	15	41	63	50	6	8	6	497	67	24	0	31	8	16	8	26	78	41	6	368	1	104
OTU 79	168	29	462	101	344	796	621	477	209	115	127	78	579	93	258	79	276	79	223	28	16	44	21	597	139	47	118	91	274	152	78	1	53	229	116	176	54	15	260	223	149	26	169	107	154	87	41	34	208	132
OTU 80	191	38	7	19	0	175	22	11	38	1	53	24	51	24	1	1	109	9	38	3	12	98	15	142	27	12	3	5	127	47	55	16	76	123	1	65	54	118	6	4	183	16	4	156	31	52	11	26	31	4
OTU 81	58	37	5	84	1	9	18	20	128	0	14	13	33	782	1	6	156	124	35	121	3	35	93	16	18	35	43	24	45	116	103	31	1	31	1	12	58	89	27	131	13	41	11	25	60	14	1	21	109	3
OTU 82	7	3	8	24	1	199	24	13	3	6	6	11	29	27	26	57	3	180	59	16	60	2	0	52	10	10	1147	6	85	94	0	0	26	125	0	1	160	65	74	4	27	110	26	0	21	17	14	1	9	58
OTU 83	0	2	6	26	10	0	0	0	0	2	1	1	13	9	0	0	0	1	0	3	1	4	0	0	0	0	1	0	1	9	0	0	23	0	0	46	0	0	0	34	38	11	0	0	1	0	0	1	0	3
OTU 84	1	29	70	8	0	2	0	39	0	0	163	3	59	0	39	15	25	53	1	0	9	0	0	82	5	9	11	0	17	0	8	5	34	17	31	14	107	155	6	0	7	1	4	20	25	14	5	8	26	0
OTU 85	4	5	0	18	1	0	7	9	71	0	0	0	10	0	0	0	12	6	24	27	0	5	0	0	27	4	0	17	101	172	0	4	14	0	17	5	1	12	64	0	3	22	13	3	4	0	0	8	2	1
OTU 86	0	0	0	0	0	2	0	0	0	0	0	0	3	19	3	2	0	3	3	0	0	0	0	0	0	0	3	19	0	2	4	1	0	0	0	0	0	0	0	0	0	0	0	0	0	0	0	0	0	0
OTU 87	0	9	0	6	27	1	1	6	10	21	0	0	21	68	0	0	11	2	8	21	2	0	0	0	0	5	2	3	5	2	0	1	0	0	0	1	34	24	23	4	0	3	13	115	0	0	2	3	0	10
OTU 88	0	5	0	0	0	0	3	0	0	0	0	0	19	0	0	2	0	0	4	2	0	18	0	0	0	3	0	1	3	0	0	3	0	1	0	0	18	1	0	0	1	0	0	0	0	2	0	0	8	0
OTU 89	4	91	2	0	0	1	0	0	176	11	7	38	8	0	0	12	3	31	0	39	5	2	0	1	28	13	0	0	8	253	1	4	2	1	0	51	148	0	18	0	1	6	14	17	4	2	0	22	17	0
OTU 90	0	0	4	14	0	0	0	5	156	1	3	0	15	17	0	3	0	0	0	6	0	0	7	0	6	1	0	0	22	0	18	4	15	0	0	0	0	3	8	0	0	0	1	0	0	0	0	0	0	0
OTU 91	0	3	1	0	0	0	0	0	8	1	0	0	0	0	0	0	0	0	0	0	2	0	3	1	0	0	0	0	0	0	0	2	0	0	0	0	0	2	0	10	0	0	0	0	0	7	0	3	0	2
OTU 92	3	0	0	5	0	3	0	32	0	0	7	0	53	52	11	1	6	1	0	0	8	0	1	10	0	17	0	0	4	0	3	0	0	0	0	102	0	1	0	0	1	8	17	0	0	0	21	1	94	5
OTU 93	0	2	0	0	0	0	1	0	1	0	0	0	0	5	0	34	0	123	4	0	0	0	0	0	8	0	0	1	41	4	0	0	9	0	0	0	26	0	8	15	3	6	0	0	0	1	2	0	3	0
OTU 94	204	110	18	12	0	12	154	28	14	4	12	324	29	40	33	34	2	211	306	3	22	77	74	147	85	48	6	7	20	4	299	28	61	25	40	18	11	26	190	136	100	81	656	91	9	57	11	49	161	7
OTU 95	9	7	5	56	0	31	26	0	0	20	4	3	0	0	13	5	39	33	47	2	0	1	0	91	0	0	0	1	0	0	0	0	0	11	0	0	1	0	2	0	10	0	0	17	1	9	0	4	10	0
OTU 96	6	0	0	0	3	0	0	31	0	0	0	21	3	0	0	3	0	0	0	0	2	0	0	0	0	0	0	0	2	0	0	0	0	6	0	0	59	0	0	0	0	33	0	0	56	9	0	0	0	0
OTU 97	4	1	20	4	0	0	34	0	1049	0	0	38	0	164	0	6	0	28	53	13	0	14	1	0	0	5	0	0	37	0	0	0	0	0	20	0	3	1	0	3	41	0	0	12	0	523	0	0	0	0
OTU 98	0	38	24	44	0	7	2	11	13	0	0	0	9	18	0	330	27	2	2	10	569	0	5	0	38	18	10	0	0	66	75	179	0	77	0	1	4	0	83	0	0	0	21	0	1	1	226	19	5	1
OTU 99	69	48	17	133	117	15	63	81	66	1	25	73	73	53	13	27	23	195	127	27	152	11	117	60	19	22	26	26	124	138	26	26	1	11	30	17	23	25	38	10	45	47	510	22	0	106	56	19	84	1
OTU 100	103	1	16	11	0	9	68	20	1	18	4	1	11	6	9	0	59	14	141	24	4	0	13	3	1	1	1	2	0	168	8	2	78	2	82	3	40	2	4	6	3	27	6	16	10	66	2	1	125	14
OTU 101	0	0	50	0	1	0	6	0	0	0	3	0	0	0	0	0	0	1	14	0	0	0	3	0	0	9	9	0	0	0	0	5	0	1	29	0	1	3	0	22	0	0	0	0	0	7	0	0	0	9
OTU 102	0	0	3	0	2324	5	0	8	12	0	0	0	22	0	1	0	3	12	0	4	0	0	2	0	0	0	0	0	1	5	0	0	13	0	0	1	12	15	0	26	0	0	1	26	0	1	0	2	0	0
OTU 103	3	0	2	5	20	0	7	0	14	1	3	2	110	33	28	2	8	0	12	7	44	4	2	80	0	6	1	0	0	6	8	39	13	4	127	15	26	40	0	0	0	142	18	9	0	0	13	1	8	0
OTU 104	46	11	11	58	2	76	19	1	25	8	43	106	36	46	45	120	84	65	23	182	10	95	9	87	6	169	22	42	8	8	107	26	49	7	51	14	101	45	14	81	80	26	1	20	68	21	12	1	11	0
OTU 105	12	0	0	0	28	0	0	0	20	0	31	9	0	38	6	1	35	0	0	0	47	7	22	109	18	3	0	0	55	0	0	0	0	0	21	5	2	0	5	31	18	2	4	66	0	8	22	0	44	0
OTU 106	7	2	0	0	2	1	0	77	0	20	0	29	50	2	0	5	0	0	0	16	0	0	0	0	0	9	27	0	0	1	5	0	56	0	30	0	0	0	1	0	0	0	0	155	48	0	0	0	0	0
OTU 107	1	42	0	1811	0	36	1	3	0	21	0	429	2	0	2	28	24	0	2	0	88	46	56	0	72	9	21	0	0	0	1	114	2	13	0	74	7	8	158	1	12	5	0	6	19	0	55	38	6	0
OTU 108	1	543	8	5	0	8	14	100	3	0	0	13	0	0	1	6	74	16	25	39	0	12	404	6	8	48	178	0	4	15	0	0	0	0	19	1	0	372	2	45	12	33	8	3	83	3	2	259	37	10
OTU 109	0	0	0	0	8	0	0	0	0	0	0	0	0	0	0	0	0	0	0	0	0	0	0	0	0	0	1	0	0	0	0	0	0	0	0	0	0	17	0	0	0	0	0	0	0	0	0	0	0	0
OTU 110	35	64	5	1	1	0	31	0	0	21	14	2	14	2	20	33	77	77	57	32	32	3	12	96	7	59	1	1	14	592	193	31	31	7	0	32	36	7	1	4	23	39	7	155	5	0	30	18	39	44
OTU 111	0	13	0	0	0	0	8	0	18	0	3	0	0	0	1	0	0	0	24	0	1	2	7	8	0	0	0	0	0	1	16	2	3	6	0	44	0	0	0	8	0	192	18	0	0	0	3	0	6	0
OTU 112	12	0	9	3	0	3	0	3	28	7	2	0	28	2	9	1	3	75	1	6	1	11	0	62	1	3	5	8	7	188	0	6	0	1816	3	3	4	6	52	47	22	0	32	11	43	2	0	3	3	10
OTU 113	0	0	16	0	0	0	0	5	0	0	0	0	1	0	2	0	59	0	0	62	0	1	0	0	2	0	0	0	3	0	0	5	0	0	0	6	0	0	15	0	0	0	0	0	21	1	0	0	0	0
OTU 114	14	256	91	42	34	135	1	94	12	20	9	18	23	23	84	25	4	4	4	98	27	28	25	72	116	6	69	9	27	82	143	30	14	66	9	24	1	21	232	12	52	29	79	39	13	36	9	112	11	21
OTU 115	41	33	62	17	32	67	34	106	35	1	13	45	72	18	5	200	59	28	68	15	22	26	33	12	85	50	28	14	24	62	30	36	211	202	138	27	70	78	116	10	53	5	37	42	44	26	16	7	104	7
OTU 116	18	1	2	108	41	8	82	11	59	0	0	106	25	3	14	19	36	31	131	84	1	726	10	19	75	55	31	0	73	215	301	26	196	45	93	73	89	13	67	94	1355	32	7	13	81	6	61	213	9	5
OTU 117	45	7	17	15	142	4	2	10	40	36	22	18	67	81	1	7	6	8	9	11	41	2	28	50	0	0	24	0	15	87	200	11	71	0	34	21	14	42	7	0	27	3	10	17	1	3	18	0	22	4
OTU 118	0	0	0	103	0	77	0	0	0	0	0	0	0	0	26	9	0	4	0	0	1	1958	0	0	0	0	0	0	6	1	0	12	0	0	2	0	0	66	0	0	9	0	0	0	0	2	6	0	27	0
OTU 119	75	4	14	38	16	43	40	47	34	1	7	77	2	0	24	63	11	1222	67	11	2	12	20	37	83	5	1	4	4	129	73	1	1	60	20	24	24	33	236	4	2	3	15	38	18	0	0	0	51	7
OTU 120	4	1	0	23	29	0	0	0	0	2	3	84	91	7	0	6	0	0	0	4	33	0	3	0	4	1	0	153	0	0	0	3	60	0	45	107	2	7	0	1	0	107	0	2	0	1	15	1	1	246
OTU 121	0	0	3	0	83	67	59	19	41	14	14	251	24	0	21	0	74	1	115	117	0	46	1	19	1	72	0	8	2	73	10	8	17	37	0	102	26	1	0	39	86	46	35	5	10	21	2	0	0	1
OTU 122	22	15	5	1	8	22	3	11	18	15	13	63	28	46	2	2	57	6	6	25	7	2	42	38	3	23	10	26	4	253	107	32	3	0	10	3	34	209	25	33	0	14	1	36	0	0	4	20	8	22
OTU 123	156	2411	260	20	62	64	67	157	48	53	54	94	179	403	41	85	180	198	128	129	35	166	135	86	92	131	156	55	23	279	272	93	1647	93	591	91	127	118	151	10	286	53	86	20	87	150	22	1235	543	13
OTU 124	0	9	0	1	2	1	24	1	0	51	8	26	0	0	0	6	0	1	62	0	18	15	21	2	5	4	0	1	0	0	32	0	0	0	3	0	0	1	128	9	49	6	0	57	0	0	0	6	29	18
OTU 125	127	134	143	581	50	252	147	126	55	80	48	171	127	112	681	172	61	91	308	30	543	413	96	81	586	13	144	18	33	163	156	1309	73	721	136	126	37	85	754	60	719	22	170	312	68	47	215	75	299	30
OTU 126	1	3	0	0	0	3	0	0	0	345	1	0	11	0	376	3	0	4	0	0	64	0	0	0	7	0	5	47	0	15	0	1	0	0	0	0	0	29	18	0	0	0	0	0	0	2	9	0	0	68
OTU 127	174	16	4	51	0	9	3	0	263	17	5	96	103	2	4	0	28	18	4	13	3	4	0	36	50	21	5	1	7	0	28	1882	15	1	0	6	55	6	127	5	3	1	1	7	10	31	0	9	6	24
OTU 128	318	446	15	145	5	106	349	141	49	14	41	123	56	172	6	689	116	216	330	45	819	105	506	99	116	312	482	60	236	39	427	305	2374	90	114	95	133	132	159	29	329	119	845	112	68	125	458	184	49	27
OTU 129	0	0	0	0	0	13	0	7	0	5	0	0	0	0	18	0	0	0	0	0	1	1	0	0	3	4	0	0	1	0	0	0	0	16	0	2	5	0	0	0	0	30	1	59	0	42	0	1	0	0
OTU 130	63	24	18	6	67	163	0	4	8	12	18	101	12	10	1	20	362	339	1	106	22	1	191	122	7	2560	21	2	32	30	1	6	1	44	6	0	29	370	22	543	0	12	18	0	57	12	30	30	10	1
OTU 131	17	190	13	7	467	8	2	2	66	32	23	26	63	2	68	3258	27	51	2	0	12	19	45	32	2932	7	1	0	81	10	75	47	2	15	0	18	0	42	29	91	21	36	177	34	9	61	18	701	135	1
OTU 132	2	2	1	3	28	14	5	54	8	2	1	2	38	13	2	5	46	1	9	1081	18	9	73	1	25	90	2	0	29	173	0	11	2	5	0	0	0	116	18	7	4	49	8	1	0	1	18	0	4	0
OTU 133	0	3	2	6	7	0	0	0	0	0	0	17	0	79	0	1	0	0	1	0	7	0	2	4	0	0	0	0	0	14	0	0	8	5	0	0	0	0	0	3	0	1	20	0	0	10	0	0	2	7
OTU 134	58	32	97	6	2	14	80	99	31	96	16	27	73	6	2	0	7	0	135	27	41	0	12	2	13	3	109	23	27	40	19	25	4	17	74	5	27	21	1	5	0	1	6	7	126	2	46	26	2	0
OTU 135	38	22	2	1	120	15	0	39	61	29	12	1	66	77	82	13	20	13	1	9	8	12	0	27	3	2	6	4	18	85	259	4	8	2	3	3	14	87	0	0	1	95	5	2	7	4	12	17	6	2
OTU 136	67	0	1	74	0	48	5	4	6	7	0	3	1	9	1	3	136	18	8	45	3	2	59	1	1	3	11	0	50	96	0	613	17	0	29	6	0	37	23	0	17	6	1	37	2	7	0	0	82	0
OTU 137	0	7	8	0	0	0	3	7	0	25	22	0	168	3	0	880	0	3	2	0	1358	7	9	0	29	13	0	0	0	106	52	858	0	0	44	8	0	0	53	14	22	0	0	1	24	0	689	10	15	0
OTU 138	12	1	21	9	9	3	33	13	0	26	14	0	92	19	6	34	19	0	75	5	6	0	4	3	0	74	0	22	0	5	31	0	0	67	0	0	14	63	25	15	0	12	0	0	14	1	7	1	3	38
OTU 139	57	27	26	82	6	73	41	11	31	747	25	166	52	33	706	24	165	16	111	15	23	32	49	44	141	5	40	276	117	12	131	23	160	4	38	24	257	15	125	44	65	477	701	16	55	45	23	13	754	350
OTU 140	471	40	3020	146	145	275	450	28	325	55	21	261	107	318	18	61	93	12	914	15	65	33	38	6	24	61	51	9	136	62	706	41	75	37	66	69	331	35	32	15	143	63	25	217	63	177	45	10	51	58
OTU 141	0	0	1	0	0	21	1	0	0	0	0	0	5	2	0	0	0	0	4	0	0	0	19	0	0	0	0	0	0	22	0	0	0	0	0	0	0	0	0	0	0	0	0	0	0	0	0	0	0	0
OTU 142	0	0	0	0	0	0	0	9	2	0	0	0	0	0	0	0	1	0	0	0	0	0	0	0	0	0	0	0	0	0	0	0	0	0	1	8	101	1	0	0	0	0	0	0	0	10	0	0	8	0
OTU 143	0	0	5	0	5	11	11	0	0	30	7	0	0	0	0	0	0	3	18	13	0	0	0	1	1	0	0	0	8	1	0	0	0	82	0	1	2	0	1	0	1	19	0	0	0	34	0	0	6	4
OTU 144	0	0	1	0	20	0	1	20	0	0	0	7	7	1	0	4	1	0	10	3	3	5	0	0	1	1	1	8	0	0	37	17	48	0	29	3	7	4	0	0	22	34	0	0	0	0	0	0	0	3
OTU 145	100	6	53	2	39	2	16	63	230	1	2	43	212	229	3	4	362	4	31	3	6	17	32	28	2	120	62	19	74	16	51	0	4	92	55	1	49	41	15	15	34	45	54	159	42	0	7	6	3	19
OTU 146	2	0	61	64	8	30	3	234	2	55	15	3	62	69	1	11	0	6	8	7	44	28	12	49	25	10	13	4	15	3	7	10	31	10	853	12	0	48	61	54	15	169	34	37	0	16	42	1	4	1
OTU 147	7	0	0	13	4	0	7	14	10	1	2	71	32	50	7	45	17	0	5	29	0	25	13	2	0	50	4	0	1	2	79	0	118	2	78	0	3	4	39	2	0	4	0	0	0	3	1	0	0	0
OTU 148	11	1	91	18	62	5	70	106	15	0	18	1377	42	55	21	2	1166	92	142	1	31	0	54	77	64	21	23	1	36	38	39	13	8	7	24	8	0	79	44	429	5	0	17	2	62	45	4	0	27	2
OTU 149	4	0	2	53	0	0	7	2	17	12	0	34	0	11	0	3	2	8	25	9	10	11	8	9	17	20	0	0	16	96	0	5	2	1	23	14	6	0	89	2	10	0	0	0	2	0	5	0	127	2
OTU 150	0	0	14	3	10	0	0	25	1	8	8	7	2	3	2	3	2	2	0	0	34	0	0	0	28	102	63	0	2	0	50	39	2	0	2	0	128	14	11	0	1	2	2	4	17	38	13	0	27	22
OTU 151	0	9	3	28	7	1	9	0	13	1	0	41	0	10	0	13	22	0	20	82	14	27	2	43	0	41	3	0	20	2	0	0	561	13	54	6	1	1	23	6	44	11	6	108	22	1	3	2	0	19
OTU 152	130	0	174	10	0	43	1	55	1	38	23	15	30	78	0	18	16	2	2	42	17	3	8	56	2	40	141	23	21	42	67	0	40	2	46	20	0	11	42	35	48	0	0	3	67	3	22	0	10	12
OTU 153	2	0	5	3	0	0	15	0	39	0	0	0	0	0	9	0	22	0	19	0	13	1	0	0	0	12	0	0	0	0	0	0	5	0	26	0	0	0	0	0	0	0	0	0	0	0	1	0	2	0
OTU 154	0	0	0	0	0	0	0	0	0	0	0	0	0	5	0	1	10	0	0	1	8	0	0	0	0	0	11	0	25	16	0	0	0	17	0	2	0	0	0	1	0	16	16	0	0	0	0	0	237	0
OTU 155	8	0	10	76	13	645	2	9	4	9	0	0	0	81	0	0	25	0	8	0	0	39	0	0	7	0	0	14	87	4	95	0	5	121	60	0	0	22	82	3	37	0	2	9	0	0	1	10	14	0
OTU 156	77	5	101	5	152	23	45	66	141	74	27	53	66	151	11	9	196	5	106	12	10	120	31	128	24	20	43	74	43	64	23	0	124	28	128	131	66	7	9	109	259	23	13	30	59	87	17	8	30	21
OTU 157	17	0	2	0	326	20	0	0	0	51	17	0	0	9	34	5	0	92	0	30	0	0	0	193	3	6	1	2	0	0	8	0	0	14	19	2	0	1	0	1	2	34	0	0	3	0	0	0	445	7
OTU 158	0	0	1	0	0	0	0	0	5	0	1	22	0	0	2	0	0	0	0	3	0	0	0	0	0	5	0	0	0	0	0	0	0	0	0	0	0	0	0	0	0	0	0	0	0	0	0	0	2	0
OTU 159	5	3	29	12	4	0	0	83	133	7	0	34	149	4	0	2	2	4	1	80	8	10	5	16	12	0	84	0	16	25	64	0	120	0	252	12	0	43	28	6	7	0	6	3	129	3	15	0	22	0
OTU 160	112	81	71	240	23	23	36	23	68	45	174	25	210	96	116	104	86	72	63	243	172	97	321	405	248	101	66	25	33	243	221	265	88	281	29	177	1	372	677	20	199	118	9	628	119	293	49	79	103	61
OTU 161	13	11	26	24	70	115	39	0	4	14	1	12	7	0	45	4	9	1	76	30	74	12	0	0	8	165	5	70	5	62	19	0	16	63	6	7	18	17	0	1	37	26	7	17	3	0	44	4	6	170
OTU 162	2	16	21	28	249	5	210	12	42	157	120	115	9	46	31	73	3	2	6	0	15	3	7	675	37	33	30	37	39	4	8	10	5	13	13	143	5	7	53	28	7	0	11	478	17	8	3	13	3	114
OTU 163	0	0	0	0	0	0	0	0	1	0	0	0	17	0	0	0	0	0	0	0	0	0	0	0	0	0	0	3	1	72	0	0	0	0	0	0	0	0	0	0	0	0	0	3	3	0	0	0	0	0
OTU 164	0	0	0	0	0	0	0	11	1	0	0	0	0	0	0	0	0	0	1	0	0	0	0	0	0	0	0	0	2	0	0	0	9	0	0	0	0	0	0	0	0	10	0	18	0	0	0	0	0	0
OTU 165	16	0	9	52	32	7	0	0	35	0	0	0	48	8	17	0	1	0	0	8	9	1	2	1	63	17	0	0	57	0	3	0	6	20	0	1	10	0	29	2	0	6	24	31	5	3	3	1	148	16
OTU 166	0	0	0	8	0	0	0	0	0	0	0	0	0	0	0	0	0	0	0	0	0	1	1	0	0	0	5	0	0	0	0	0	0	8	0	0	0	0	0	0	0	0	0	0	0	3	0	0	0	0
OTU 167	5	5	6	3	1	8	0	243	40	2	0	6	14	0	0	3	47	4	0	6	17	43	0	2	5	10	51	0	6	21	0	5	7	48	31	82	7	0	1	0	58	10	1	2	37	10	0	2	16	11
OTU 168	30	4	2	4	0	56	0	42	20	6	0	75	129	0	13	3	14	6	0	47	6	2	9	0	5	12	0	12	13	4	116	11	171	125	44	2	9	8	7	41	4	4	9	8	41	9	7	0	81	1
OTU 169	1	30	0	0	0	0	0	0	0	0	0	0	0	9	0	0	0	0	2	0	7	6	0	1	0	13	0	0	0	0	0	0	21	0	0	0	0	10	83	0	16	0	0	0	0	0	7	0	2	0
OTU 170	0	0	0	0	1	0	0	0	2	1	0	0	0	0	0	0	6	0	0	0	0	0	0	0	0	0	0	0	0	31	0	0	4	0	0	0	0	0	1	0	0	0	0	0	0	0	0	0	0	0
OTU 171	1	4	7	29	10	121	58	0	5	1	1	27	202	33	21	22	3	62	124	17	0	0	18	18	15	2	0	0	4	48	6	16	22	26	74	17	35	11	1	17	8	2	0	5	5	71	7	4	7	2
OTU 172	16	0	1	0	0	4	9	0	0	0	0	0	2	0	0	0	1	2	11	0	0	0	5	4	9	5	0	1	111	0	3	0	1	0	0	1	0	0	0	0	0	8	2	0	3	0	2	0	0	0
OTU 173	8	0	0	0	0	10	0	0	1	0	0	59	144	47	43	0	0	17	0	0	25	53	0	0	1	35	5	12	83	41	0	14	19	1	6	0	3	0	0	9	69	12	8	0	2	1	12	1	0	3
OTU 174	16	0	19	27	37	15	42	0	4	400	3	368	67	1	650	2	1	13	73	6	7	8	7	0	13	5	15	135	5	31	1	8	0	9	80	0	11	22	15	0	15	4	0	0	13	18	1	0	9	264
OTU 175	1	6	55	15	30	2	9	31	14	0	15	0	90	127	0	2	6	57	23	0	0	1	64	25	0	0	48	53	6	1	62	2	0	1	7	2	8	0	35	1	8	15	7	0	46	12	1	9	4	10
OTU 176	12	37	22	86	36	18	45	4	17	63	2	27	9	13	14	15	30	0	100	33	32	2	15	5	3	94	5	7	10	67	123	2	6	4	47	24	100	43	6	292	7	364	61	74	394	51	8	38	211	25
OTU 177	0	29	41	5	0	24	0	56	68	44	23	13	56	46	6	27	51	50	0	50	37	4	6	12	8	15	21	13	8	76	56	18	15	1	1	4	15	25	0	20	11	63	15	370	19	23	3	28	42	0
OTU 178	0	46	8	26	0	0	0	1	0	0	5	16	0	68	1	1	17	11	0	0	0	5	0	0	2	0	4	9	1378	84	41	0	119	0	10	1	11	27	0	0	46	37	6	55	2	0	0	3	4	12
OTU 179	1	15	1	17	2	2	0	56	6	1	40	37	0	9	2	9	16	1967	0	14	1	0	4	0	14	211	0	4	7	82	5	1	65	32	86	8	3	30	0	23	11	1	11	1	4	6	0	1	51	19
OTU 180	263	142	239	976	27	81	10	1429	961	26	4549	89	289	246	6	339	130	372	21	201	544	83	40	6	1074	109	3212	5	94	193	10	304	34	68	111	108	43	264	1955	59	160	56	316	465	131	386	269	86	209	5
OTU 181	3	26	1051	1	5	22	1	0	6	4	54	24	10	3	0	0	0	45	1	3	2	9	4	132	13	118	31	12	55	2	12	23	5	0	0	12	0	34	44	16	3	14	0	294	7	20	0	16	344	1
OTU 182	0	0	0	0	0	0	0	0	0	28	0	8	0	0	0	0	0	0	0	0	0	1	6	0	0	0	4	1	0	0	0	0	0	0	0	0	0	0	0	2	0	3	0	0	0	0	0	0	0	0
OTU 183	1	0	4	17	6	0	4	0	5	132	11	195	0	3	0	4	71	21	8	0	35	2	20	8	4	120	2	50	11	98	0	1	0	8	77	128	4	0	15	0	1	3	0	1	0	15	7	0	90	27
OTU 184	17	4	20	156	1	1	0	51	11	0	12	27	110	1	4	0	13	3	0	0	4	0	1	1	23	6	1	0	24	30	3	3	0	1	26	0	0	0	6	1	0	4	36	27	79	9	0	4	0	2
OTU 185	121	8	51	101	16	295	25	9	420	1	24	64	40	264	19	34	22	32	54	153	34	10	2	22	75	3	4	1340	93	7	33	49	1	139	12	0	482	14	25	33	11	21	241	3	11	48	5	491	1	151
OTU 186	213	15	43	2	0	0	8	2	4	0	1	42	29	14	2	0	0	0	12	3	5	35	0	0	0	18	28	0	8	1	0	24	0	0	11	0	4	0	0	0	36	0	4	0	13	0	29	5	3	0
OTU 187	15	65	30	14	38	30	12	240	63	25	47	44	227	50	17	8	65	90	36	1	6	29	111	2	23	40	74	12	10	12	55	37	44	19	11	25	22	17	89	85	7	20	23	54	69	68	1	38	152	36
OTU 188	62	0	146	24	33	55	66	7	0	47	62	82	24	66	45	55	46	3	147	227	46	188	18	129	75	133	13	12	103	8	71	14	8	147	127	2	23	95	21	4	452	70	72	12	78	1	17	11	210	48
OTU 189	17	24	36	38	13	47	5	27	177	33	22	580	35	62	60	20	159	44	20	12	18	233	29	82	17	5	1	9	9	0	56	42	24	24	131	93	55	64	18	13	74	21	8	3	261	68	12	17	70	16
OTU 190	0	4	0	13	25	3	0	0	0	0	0	0	6	0	0	0	3	0	1	0	0	2	7	48	9	0	0	0	0	0	4	0	3	1	1	0	0	95	0	0	2	4	501	0	0	1	0	6	0	22
OTU 191	75	7	215	0	151	5	3	464	39	12	17	16	0	268	16	9	1	79	5	8	0	1	4	206	0	10	313	2	26	132	0	48	69	1270	38	2	4	10	8	24	0	190	4	48	315	50	0	3	66	38
OTU 192	151	60	49	38	162	20	27	24	9	0	75	41	169	73	26	0	525	21	58	165	10	16	169	108	23	25	9	23	109	57	115	5	25	6	4	35	30	34	44	685	33	221	51	2	56	649	7	16	349	23
OTU 193	5	34	0	1	25	1127	14	0	2	15	6	1	9	25	1	1	102	6	31	37	4	11	270	30	25	29	13	3	915	60	34	3	4	638	2	0	38	429	0	14	1	1	21	25	15	0	1	19	69	1
OTU 194	0	22	0	7	66	13	0	4	1	30	0	10	31	8	0	3	38	0	0	4	13	36	2	24	0	0	20	1	10	1	15	5	48	4	7	0	33	0	0	66	99	82	1	8	13	0	2	25	23	7
OTU 195	45	1	42	17	34	12	0	0	0	11	2	9	14	58	16	1	0	26	0	0	0	0	1	11	0	65	99	0	3	183	84	1	21	1	0	37	19	7	7	15	3	14	5	1	23	59	0	0	2	26
OTU 196	3	11	2	25	3	23	3784	11	20	9	3	7	13	1	0	39	0	13	35	1	0	1	0	8	1	10	4	0	105	15	38	5	51	14	39	38	0	50	14	3	4	6	5	103	0	43	0	5	26	1
OTU 197	61	7	16	19	67	118	355	5	3	56	1650	63	86	86	6	27	161	54	681	12	62	30	104	105	39	20	1	13	35	175	146	19	37	37	14	1	41	28	125	124	94	147	8	85	12	1	26	6	124	6
OTU 198	0	16	21	74	0	7	0	0	29	70	7	21	2	2	8	3	0	17	1	0	0	2	24	7	0	1	0	0	49	0	0	2	0	22	0	9	0	0	0	0	65	0	2	49	1	0	0	2	8	0
OTU 199	0	0	27	0	8	1	1	72	17	0	10	1	0	52	7	1	16	3	4	50	21	2	0	6	24	0	113	1	7	15	57	0	0	0	13	6	6	0	14	2	0	21	2	18	61	0	5	0	0	2
OTU 200	35	9	9	24	229	25	0	12	5	6	2	1	66	0	79	18	6	7	5	27	4	23	1	128	6	14	2	0	0	29	10	0	15	0	0	3	63	9	47	14	36	63	4	1090	4	2	17	0	123	14
