	Host 1	Host 2	Host 3	Host 4	Host 5	Host 6	Host 7	Host 8	Host 9	Host 10	Host 11	Host 12	Host 13	Host 14	Host 15	Host 16	Host 17	Host 18	Host 19	Host 20	Host 21	Host 22	Host 23	Host 24	Host 25	Host 26	Host 27	Host 28	Host 29	Host 30	Host 31	Host 32	Host 33	Host 34	Host 35	Host 36	Host 37	Host 38	Host 39	Host 40	Host 41	Host 42	Host 43	Host 44	Host 45	Host 46	Host 47	Host 48	Host 49	Host 50	
OTU 1	0	6	1	0	2	4	1	1	1	1	0	0	5	2	2	1	1	2	0	0	3	0	0	3	0	1	7	0	0	0	4	0	0	1	7	1	0	2	5	2	0	0	1	1	1	4	5	1	0	2
OTU 2	1	0	0	0	0	0	1	1	0	0	1	0	0	4	0	2	1	0	0	0	0	0	0	0	0	0	0	1	0	0	0	0	0	0	0	2	0	0	1	0	1	0	0	0	0	1	0	0	0	0
OTU 3	3	3	0	0	0	0	0	0	4	0	0	0	0	0	5	4	6	0	1	8	0	0	4	1	0	4	0	0	2	0	1	0	0	1	0	2	2	0	2	0	0	1	0	2	1	1	0	0	0	0
OTU 4	0	0	0	0	0	0	0	0	0	0	0	0	0	0	0	0	0	0	0	0	0	0	0	0	0	0	0	0	0	0	0	1	1	0	0	0	0	0	0	0	0	0	0	0	0	0	0	0	0	0
OTU 5	0	0	1	5	3	42	70	10	0	18	6	11	7	43	14	15	22	0	15	12	21	0	67	0	0	1	22	21	46	7	8	27	2	4	0	5	13	104	31	10	0	0	55	15	7	0	9	10	9	14
OTU 6	0	0	3	0	1	0	0	0	0	0	2	0	0	0	0	1	0	0	0	1	0	3	0	0	4	0	2	0	0	2	1	0	1	0	0	1	1	0	0	1	1	2	0	0	2	0	2	0	1	0
OTU 7	1	0	14	1	5	1	1	2	9	6	4	0	4	3	4	14	7	2	2	0	0	2	0	2	1	3	6	0	3	0	3	2	0	8	3	3	0	0	2	6	3	8	2	0	1	18	10	0	1	0
OTU 8	1	1	1	5	2	5	1	0	5	0	3	5	2	11	1	2	4	1	2	2	1	9	0	4	3	0	1	0	22	5	2	2	6	0	2	2	1	1	0	21	2	1	19	1	3	2	50	2	0	1
OTU 9	1	2	2	1	1	0	0	4	0	4	0	1	3	0	9	0	0	0	0	1	2	0	0	25	0	1	4	0	7	2	0	0	0	0	0	2	0	0	0	82	0	1	0	0	0	16	0	0	0	0
OTU 10	1	1	2	0	0	4	0	0	1	1	0	0	0	0	1	0	0	0	1	0	0	0	0	1	0	0	0	0	0	0	1	0	0	0	0	0	0	0	0	0	0	0	0	0	0	0	1	1	0	0
OTU 11	3	1	6	1	4	1	1	0	0	5	0	8	6	1	4	0	2	11	0	0	0	3	2	12	3	0	0	1	4	0	6	0	3	0	7	5	1	4	6	0	3	3	2	0	0	5	1	3	1	1
OTU 12	7	2	4	2	2	3	8	7	3	1	1	0	1	3	0	2	1	8	6	1	0	0	2	3	0	0	2	0	0	0	0	0	0	1	2	0	3	0	0	0	1	2	2	1	0	2	1	3	3	0
OTU 13	0	0	0	0	0	0	0	0	0	0	0	0	0	0	0	0	0	0	0	0	0	0	0	0	2	0	0	0	1	0	1	0	0	0	0	0	0	2	4	0	0	0	0	0	0	0	0	0	0	0
OTU 14	0	0	0	0	0	0	1	0	0	0	0	0	0	0	0	0	0	0	0	6	0	0	0	1	0	0	0	0	0	0	1	0	0	4	0	0	2	0	0	0	0	1	0	0	0	1	0	0	0	0
OTU 15	0	0	0	0	0	0	0	1	0	0	0	0	0	0	0	0	0	0	0	7	0	0	0	0	0	0	0	2	0	0	0	3	0	0	0	0	4	0	0	0	0	0	0	0	0	1	0	0	0	0
OTU 16	0	0	0	0	0	0	0	0	0	0	0	0	0	0	0	0	0	0	0	0	0	0	0	0	0	0	0	0	0	0	1	0	0	0	0	0	0	0	0	0	0	0	0	0	0	0	0	0	0	0
OTU 17	1	0	0	1	7	11	0	8	2	0	0	0	0	0	2	1	0	3	14	2	0	0	0	7	0	0	2	0	0	0	1	1	3	0	17	0	0	7	13	0	7	2	1	0	17	0	2	0	0	0
OTU 18	1	3	0	11	9	2	0	9	2	1	1	1	0	2	0	0	1	4	2	0	0	11	4	4	0	2	0	57	0	0	0	37	9	1	6	0	0	3	4	0	4	0	0	0	13	7	2	0	1	1
OTU 19	0	0	0	0	0	0	0	0	0	0	0	0	0	0	0	0	0	0	0	0	0	0	0	0	0	0	0	0	0	0	0	0	0	0	0	0	0	0	0	0	0	0	0	0	0	0	0	0	0	0
OTU 20	0	2	5	0	8	2	3	11	3	4	5	1	0	9	0	2	0	5	1	11	2	3	0	0	0	0	0	0	1	1	3	0	0	3	2	0	6	1	4	1	10	1	1	0	0	0	0	4	0	0
OTU 21	3	0	3	4	4	0	1	0	2	0	1	0	73	0	5	16	0	1	0	1	0	0	0	0	0	129	3	26	0	2	1	23	0	7	5	3	1	1	2	0	2	4	0	65	3	5	1	0	1	2
OTU 22	2	0	2	7	1	0	0	1	9	0	0	2	0	0	0	2	6	0	0	2	1	1	0	1	0	0	1	3	3	0	3	1	2	0	12	0	2	1	2	2	1	6	2	0	5	2	0	2	0	2
OTU 23	0	0	0	0	3	0	0	1	2	0	1	0	0	0	1	18	0	0	1	0	62	0	0	0	0	10	0	0	0	0	0	0	0	15	0	0	0	0	0	0	0	5	2	3	0	0	1	1	0	0
OTU 24	2	0	0	0	0	0	0	0	0	0	0	0	0	0	1	0	0	0	1	0	1	3	1	0	0	0	0	1	0	4	0	1	0	1	2	0	0	1	1	0	0	0	0	0	0	0	0	0	0	0
OTU 25	0	9	0	0	0	0	0	0	0	0	0	0	0	0	0	0	0	0	0	0	0	0	5	0	0	0	0	0	0	0	0	0	0	0	0	0	0	0	0	0	0	0	0	0	0	0	0	0	0	0
OTU 26	0	1	1	0	0	0	0	0	0	0	2	0	0	0	2	0	0	0	1	1	0	0	1	0	0	1	0	0	4	0	0	0	0	0	0	0	0	0	0	0	0	0	0	0	0	0	2	0	1	0
OTU 27	0	0	0	0	0	0	0	0	0	0	0	0	0	0	0	0	0	0	0	0	0	0	0	0	0	0	0	0	0	0	0	0	0	0	0	0	0	0	0	0	0	0	0	0	0	0	0	0	0	0
OTU 28	5	8	33	0	1	0	0	3	5	20	6	5	46	0	13	2	5	0	2	5	0	0	1	0	1	0	38	10	0	1	1	21	1	0	8	5	3	7	2	12	3	2	0	0	3	78	49	2	0	1
OTU 29	4	1	0	0	0	0	0	3	0	0	0	1	3	0	1	3	0	1	2	7	0	7	123	1	1	5	0	0	1	61	0	6	0	0	0	2	2	0	0	0	1	3	0	11	0	1	0	3	1	30
OTU 30	0	0	0	0	0	0	0	0	0	0	0	0	0	0	0	0	0	0	0	0	0	0	0	0	0	0	0	0	0	0	0	0	0	0	0	0	0	0	0	0	0	0	0	0	0	0	0	0	0	0
OTU 31	0	2	0	0	0	0	0	0	0	0	1	1	1	0	0	2	1	5	0	8	93	0	0	0	66	0	0	0	22	2	0	0	0	2	0	0	2	0	0	4	0	3	0	0	2	7	0	0	0	0
OTU 32	5	8	1	0	0	0	0	0	9	1	1	0	1	0	4	6	3	4	5	2	5	0	4	3	10	4	3	13	1	0	1	1	3	0	2	0	5	13	2	3	0	3	2	71	1	2	0	1	1	0
OTU 33	0	0	0	0	0	0	0	0	0	3	0	0	0	0	0	0	0	0	0	1	0	0	0	1	0	0	0	0	0	0	0	0	0	0	0	0	1	0	0	0	0	0	1	0	0	0	0	0	0	0
OTU 34	18	2	0	3	0	0	0	1	3	0	0	1	0	6	2	4	1	8	0	0	4	1	1	0	1	0	2	0	0	4	0	0	1	1	0	1	0	0	0	3	0	1	0	0	0	4	3	8	0	1
OTU 35	1	0	6	1	0	0	27	1	3	0	3	1	0	0	0	0	0	2	4	2	6	9	0	0	0	0	1	0	2	3	0	0	0	7	0	0	0	0	0	81	2	0	0	0	0	0	5	2	7	0
OTU 36	4	2	1	4	2	2	0	0	0	1	1	0	0	1	0	2	1	0	0	0	2	0	4	0	1	0	1	0	0	0	0	1	0	1	0	0	0	0	33	1	4	0	1	0	1	0	0	0	0	0
OTU 37	0	0	2	0	0	0	0	0	0	0	0	0	0	0	0	0	0	0	0	2	0	0	0	0	0	2	0	0	0	0	0	0	0	0	0	8	0	0	0	3	0	3	0	2	0	0	0	0	0	0
OTU 38	5	2	3	0	1	8	0	0	0	0	0	4	2	1	0	0	0	3	0	0	0	1	3	8	1	0	3	0	3	2	0	0	6	1	3	0	0	4	5	0	2	3	23	0	10	0	0	1	0	1
OTU 39	0	5	0	2	0	3	0	0	0	0	0	0	0	0	0	2	0	0	0	0	0	0	3	0	0	0	0	0	0	0	0	0	0	3	0	0	1	0	0	0	0	0	3	0	0	0	0	0	2	1
OTU 40	8	2	0	12	0	2	3	2	3	0	1	0	0	3	1	4	1	3	0	0	2	0	0	0	0	4	1	0	10	2	1	3	0	3	1	2	1	0	0	2	0	0	0	5	0	1	0	2	4	0
OTU 41	0	15	0	1	0	0	0	3	0	0	0	0	0	0	0	3	0	0	0	1	4	1	8	3	0	0	2	0	1	1	0	1	9	4	4	0	0	2	0	3	0	1	0	0	7	1	0	0	0	0
OTU 42	1	1	0	0	0	0	0	0	1	0	0	0	0	0	0	1	0	0	0	8	0	0	0	3	0	0	0	1	0	0	0	0	1	0	0	2	3	0	0	0	0	1	1	0	0	0	0	0	3	0
OTU 43	0	0	1	0	0	0	0	0	0	0	0	0	0	0	0	0	0	0	0	0	0	0	0	0	0	0	3	0	0	0	0	0	0	0	0	0	0	0	0	0	0	0	0	0	0	0	0	0	0	0
OTU 44	0	0	0	0	0	0	0	0	2	0	0	0	0	0	0	0	2	4	0	1	0	0	0	0	0	0	0	0	0	0	0	0	1	0	0	0	0	1	0	0	0	0	0	0	1	2	0	0	0	0
OTU 45	21	3	3	0	6	2	1	1	1	5	11	0	2	6	5	0	11	3	11	0	1	5	5	8	8	1	0	0	0	0	0	3	0	3	0	0	0	0	3	3	3	3	0	1	2	2	0	0	7	0
OTU 46	3	0	0	2	3	23	1	0	2	1	2	2	5	6	0	8	3	7	8	7	2	1	0	0	9	0	0	0	0	0	0	2	2	1	4	1	2	3	0	3	0	1	0	0	1	3	0	0	3	78
OTU 47	8	0	0	1	0	0	0	1	0	0	0	0	0	0	2	0	0	0	0	1	0	0	0	3	0	0	0	0	0	1	0	0	0	0	0	0	0	0	0	1	3	0	3	0	0	0	9	0	0	0
OTU 48	0	7	0	2	4	5	0	5	7	0	3	39	1	2	2	3	3	0	2	4	1	8	2	0	2	0	30	22	1	0	0	0	3	1	0	1	1	0	1	0	2	2	0	0	14	0	0	18	0	0
OTU 49	3	0	0	0	0	1	0	3	0	0	0	0	1	0	3	1	0	0	0	1	0	0	0	0	0	0	0	0	0	0	0	0	1	1	0	0	0	0	0	0	0	6	0	0	0	0	0	0	2	1
OTU 50	2	1	0	7	0	2	2	7	2	61	0	1	1	2	89	0	3	0	0	0	0	3	0	0	0	0	1	0	1	4	0	4	2	0	8	2	0	2	4	1	9	4	0	1	2	0	2	0	2	0
OTU 51	0	1	3	5	0	2	0	1	0	0	2	2	0	0	1	0	1	0	0	5	0	0	0	1	4	0	0	0	0	0	2	0	0	0	1	0	1	1	0	0	0	2	2	0	1	0	0	0	11	0
OTU 52	4	2	8	3	2	2	0	4	2	0	9	3	0	3	6	0	3	15	3	0	3	5	1	5	0	0	2	0	29	0	3	36	2	3	4	0	0	2	0	1	2	0	0	0	5	0	0	1	10	0
OTU 53	0	0	0	0	0	0	0	0	0	0	0	0	0	0	0	0	0	0	0	0	0	0	0	0	0	0	0	0	0	0	0	0	0	0	0	0	0	0	0	0	0	0	1	0	0	0	0	0	0	0
OTU 54	5	0	0	4	0	1	0	0	0	0	7	3	1	2	2	6	1	3	0	1	0	13	2	1	2	6	1	0	1	1	1	0	0	2	8	1	0	3	5	3	7	0	0	3	0	3	4	0	1	1
OTU 55	0	0	0	0	0	0	0	0	0	0	0	0	0	0	0	0	0	0	0	0	0	0	0	0	2	0	0	0	3	0	0	0	0	0	0	0	0	0	0	0	0	0	0	0	0	0	0	0	0	0
OTU 56	0	4	1	0	0	0	0	0	0	0	0	0	0	1	0	0	1	0	0	1	1	0	0	0	2	6	1	0	0	0	1	0	0	0	1	0	0	0	0	1	0	3	0	1	1	0	0	0	4	0
OTU 57	9	2	2	4	13	39	0	6	5	1	0	9	3	3	0	4	0	9	2	0	0	8	0	9	17	0	6	18	3	10	4	7	0	4	21	6	0	5	10	2	12	6	81	0	6	12	9	8	1	5
OTU 58	0	0	1	0	0	0	0	0	1	0	0	0	0	0	0	1	1	0	9	0	0	0	0	0	0	0	5	0	0	0	0	1	1	0	0	0	0	1	0	0	0	0	1	1	0	1	1	0	1	0
OTU 59	0	3	1	2	0	0	0	0	1	2	4	2	1	1	1	0	5	0	0	6	0	0	0	1	0	0	0	0	0	0	0	0	2	0	4	0	4	1	2	0	1	5	0	0	3	1	6	1	1	0
OTU 60	0	0	45	3	4	1	0	17	2	7	0	0	1	0	50	0	3	4	2	10	1	24	0	4	35	0	22	1	26	1	2	0	1	1	2	1	100	0	0	7	60	4	2	0	2	3	8	3	4	1
OTU 61	10	8	0	0	24	0	0	0	8	1	10	1	1	1	0	2	2	1	2	2	0	5	4	1	1	0	3	0	6	0	1	0	0	2	1	1	5	1	34	0	5	4	0	0	3	0	0	1	0	7
OTU 62	0	0	0	2	1	0	0	0	0	0	0	0	0	0	0	0	0	0	0	0	0	0	0	0	0	0	0	0	0	0	0	0	0	0	0	0	23	0	0	1	0	0	0	1	0	1	1	0	0	0
OTU 63	12	3	2	15	1	1	1	0	1	0	3	5	2	5	0	40	1	0	0	0	2	0	3	4	0	9	2	1	0	0	2	0	0	11	11	2	0	0	2	0	0	0	0	7	1	0	0	0	2	0
OTU 64	3	3	2	0	0	0	0	1	4	2	36	2	0	1	0	0	2	5	1	1	4	2	1	5	1	1	0	0	3	0	0	0	1	5	3	1	0	1	1	0	3	1	1	1	2	3	5	2	1	0
OTU 65	0	0	0	0	0	0	0	0	0	0	0	0	0	0	0	0	0	0	0	0	0	0	0	0	0	0	0	0	0	0	0	0	0	0	2	0	0	1	1	0	0	0	0	0	0	0	0	0	0	0
OTU 66	1	0	0	4	0	2	2	5	16	0	1	0	0	4	1	0	6	9	0	2	1	0	2	1	1	3	0	0	2	0	0	0	5	0	3	1	2	2	3	0	0	6	1	0	3	0	1	0	0	0
OTU 67	3	2	0	0	1	0	0	1	0	1	4	0	2	3	1	0	0	4	6	11	1	2	0	1	2	1	0	0	3	2	1	0	6	0	1	0	5	0	0	2	0	0	0	1	21	0	0	0	6	1
OTU 68	0	1	0	0	52	1	0	9	0	0	1	0	1	0	0	1	2	0	0	0	1	0	0	1	1	4	0	0	1	1	0	0	1	5	2	2	0	1	0	1	4	0	1	2	5	2	0	1	1	1
OTU 69	1	1	2	0	0	1	0	7	0	0	0	0	1	0	2	0	1	3	5	0	1	0	1	3	0	0	0	0	0	1	6	0	2	1	0	0	0	1	0	3	2	1	0	0	3	0	3	1	0	1
OTU 70	2	2	0	0	0	0	0	0	5	0	1	2	1	0	0	2	0	10	1	0	0	0	0	0	1	0	0	0	0	0	0	1	0	1	1	1	0	1	0	0	1	0	0	0	1	0	0	0	0	0
OTU 71	1	0	1	0	0	1	0	0	2	0	0	0	0	0	0	0	1	0	7	0	0	0	0	0	0	0	0	0	0	1	0	1	0	0	0	0	0	0	0	1	1	0	0	0	0	0	1	0	0	1
OTU 72	5	0	2	5	0	38	0	3	0	0	4	0	0	0	1	2	2	4	0	2	1	0	0	4	3	0	1	2	1	1	3	2	0	0	2	8	0	1	1	1	2	1	1	0	0	0	0	0	0	0
OTU 73	0	9	2	2	0	0	0	1	1	0	0	0	0	0	3	6	8	2	63	0	0	0	2	4	1	2	4	0	2	0	0	0	0	3	1	3	1	0	3	0	3	2	1	2	7	0	0	0	2	0
OTU 74	0	0	0	3	1	0	8	3	6	0	1	0	2	19	1	6	0	10	1	1	0	0	0	1	1	1	0	0	0	1	0	0	1	0	3	2	1	3	1	1	1	0	2	2	1	0	0	0	4	0
OTU 75	0	2	1	105	2	2	0	1	1	0	10	2	3	4	1	0	5	8	0	2	2	1	22	4	7	14	1	0	1	0	1	1	0	40	12	2	1	8	9	1	3	12	0	5	6	14	0	0	0	1
OTU 76	0	0	1	0	1	7	0	0	0	1	0	0	0	0	0	0	0	0	0	1	0	0	0	2	0	0	0	0	1	0	3	0	1	0	11	0	0	3	3	0	0	0	0	0	1	0	1	0	0	1
OTU 77	4	0	2	3	0	1	1	3	0	1	0	2	0	1	2	0	2	0	1	1	2	2	1	0	0	0	0	0	0	1	0	0	2	1	3	0	2	0	1	0	0	14	0	0	0	0	1	0	1	2
OTU 78	0	2	1	4	0	8	0	3	0	0	3	0	0	2	0	2	0	0	6	0	0	0	1	4	1	0	4	0	1	1	1	0	5	3	0	0	0	0	0	0	5	0	0	0	1	1	1	0	0	3
OTU 79	3	2	5	5	9	6	0	9	6	0	43	6	4	0	0	7	9	4	3	3	13	2	6	18	15	11	80	14	10	29	2	6	1	21	14	14	75	5	8	3	10	21	14	8	6	24	8	6	2	4
OTU 80	2	4	1	0	0	3	3	4	0	2	1	0	0	7	3	1	2	10	3	3	0	5	0	1	5	0	1	1	1	4	3	3	11	4	1	2	4	39	0	3	3	5	0	0	17	15	3	0	3	0
OTU 81	9	4	2	5	2	0	2	7	14	0	5	4	15	1	0	1	1	6	0	1	4	0	1	0	2	0	3	2	0	84	2	2	2	0	0	80	5	0	0	1	0	0	6	0	0	0	1	0	83	1
OTU 82	8	0	0	0	0	1	6	0	0	0	6	0	0	7	0	1	2	11	1	0	4	3	0	91	1	3	0	0	0	0	0	0	0	4	0	0	1	0	0	0	4	3	0	2	3	3	4	187	13	0
OTU 83	0	0	0	0	0	0	0	0	0	0	0	1	0	0	0	0	5	0	0	5	2	0	0	0	0	0	1	0	0	0	0	1	0	5	0	3	1	0	0	0	0	0	0	0	1	1	0	0	0	0
OTU 84	0	3	3	0	0	0	1	0	0	1	1	0	0	0	0	5	0	0	1	0	2	2	2	0	0	0	0	1	1	2	0	0	0	2	6	10	0	0	2	2	0	5	0	0	0	0	0	0	1	0
OTU 85	0	0	0	0	0	0	0	0	2	0	5	0	0	0	0	0	0	0	5	1	0	0	0	0	0	0	0	0	0	0	0	0	0	0	0	0	0	0	0	1	0	2	0	77	0	1	4	0	0	0
OTU 86	0	0	0	1	0	0	0	1	0	0	0	0	0	0	0	0	0	0	0	4	0	0	0	0	0	0	0	0	0	0	0	1	0	3	0	0	0	0	0	0	0	0	0	0	0	0	0	0	0	0
OTU 87	15	3	0	0	2	0	0	0	0	1	0	1	0	2	0	0	0	3	0	0	0	0	3	0	1	0	0	0	58	0	0	0	0	0	0	0	0	0	0	0	0	1	0	0	0	0	0	0	1	0
OTU 88	0	0	0	1	0	0	0	0	1	0	0	0	0	0	0	0	0	1	3	1	0	1	0	0	0	0	0	0	1	0	0	0	1	0	0	0	1	0	0	0	0	0	0	0	0	0	0	0	14	0
OTU 89	12	0	3	0	0	0	4	0	2	0	1	0	0	17	0	0	1	5	1	0	1	2	0	0	0	0	0	0	0	0	0	0	0	0	0	0	0	0	0	1	0	0	1	0	0	0	0	0	2	0
OTU 90	0	0	0	0	0	0	0	1	0	0	0	0	3	0	0	1	0	0	0	0	0	0	0	0	0	0	0	0	0	0	0	0	1	0	0	0	0	0	0	0	5	0	0	0	1	0	0	0	0	0
OTU 91	0	0	0	0	0	1	0	0	0	0	0	0	0	1	0	0	0	0	0	0	0	0	0	0	0	0	0	0	0	0	0	0	1	0	0	0	0	0	0	0	5	0	1	0	1	0	0	0	0	0
OTU 92	0	0	0	0	0	0	1	0	0	0	0	1	0	1	0	1	0	2	0	0	0	0	0	0	0	0	0	0	1	0	1	0	0	0	2	0	0	6	3	0	0	0	0	0	1	0	0	0	0	0
OTU 93	0	0	0	0	0	0	0	0	0	0	0	0	0	0	0	0	0	0	0	0	0	0	0	0	0	1	0	0	0	0	0	0	0	0	0	0	0	0	0	0	0	0	1	0	0	0	0	0	0	0
OTU 94	2	2	2	0	0	0	0	0	12	1	0	0	3	1	0	4	4	0	1	5	0	2	0	3	0	2	2	0	1	0	1	2	0	5	1	3	2	0	0	0	0	10	0	0	0	0	1	0	0	0
OTU 95	0	0	0	0	0	4	0	34	0	0	0	4	0	0	0	2	1	0	0	0	0	4	0	2	2	1	0	0	0	16	2	0	3	2	1	0	0	2	0	0	5	0	0	0	6	2	2	0	0	2
OTU 96	0	0	0	0	0	0	1	0	0	0	0	0	1	6	0	0	0	8	0	0	0	0	0	0	0	0	0	0	0	0	0	0	0	0	0	0	1	0	0	0	1	0	0	0	0	0	0	0	1	0
OTU 97	0	0	0	0	0	0	0	0	0	0	0	0	0	0	1	0	0	0	0	1	0	0	0	0	0	0	0	0	0	0	0	0	0	0	0	0	0	0	0	0	1	0	0	0	0	1	1	0	0	0
OTU 98	0	0	0	1	0	0	0	4	1	0	0	0	0	0	0	0	0	0	1	0	0	0	0	0	1	0	0	0	0	0	0	0	3	0	0	5	0	0	0	1	0	1	0	0	1	0	0	0	0	0
OTU 99	5	1	2	4	1	2	0	14	6	0	11	0	2	0	0	12	0	1	2	1	1	58	0	0	3	0	0	0	3	7	0	1	0	0	0	2	0	0	1	1	0	6	3	2	1	1	0	0	0	0
OTU 100	1	4	1	2	0	3	0	1	2	0	2	2	0	0	1	0	0	0	4	0	0	1	2	1	0	5	0	0	0	2	0	0	0	4	2	2	0	6	0	0	4	0	0	3	1	0	1	1	0	0
OTU 101	0	0	0	0	0	0	0	0	0	0	0	1	0	0	0	0	0	0	0	0	0	0	0	0	0	0	0	0	0	0	0	0	0	0	0	0	0	0	0	0	0	0	0	0	0	0	0	3	0	0
OTU 102	0	1	0	0	0	1	0	4	4	0	0	0	0	0	0	0	2	0	2	1	0	1	0	0	0	0	0	0	0	1	0	0	0	1	0	2	0	0	0	0	1	0	0	0	0	0	0	0	0	0
OTU 103	1	5	1	0	0	1	0	0	3	0	0	0	1	0	0	0	0	0	0	0	0	0	0	0	6	0	0	0	0	0	1	0	0	0	2	0	0	4	0	0	4	58	9	0	0	0	1	0	0	1
OTU 104	0	0	0	3	5	1	0	6	0	1	0	0	1	3	0	3	4	5	3	0	0	0	4	15	5	0	3	1	7	10	0	0	0	0	5	2	3	2	0	0	1	0	3	17	0	6	1	0	3	2
OTU 105	0	0	1	0	0	0	0	0	0	0	0	0	0	0	0	0	0	0	0	0	0	0	0	1	0	0	0	0	0	0	0	0	0	0	0	0	0	0	0	0	0	0	0	0	0	0	0	0	1	0
OTU 106	0	0	0	1	71	0	0	0	5	0	0	1	0	7	1	0	0	0	0	0	0	0	0	0	0	1	0	0	0	0	0	0	1	0	0	0	0	0	0	0	0	0	0	3	0	0	0	0	0	0
OTU 107	0	0	3	0	0	0	0	0	13	1	0	0	0	2	2	0	0	3	0	0	0	0	0	0	6	0	2	0	0	1	0	0	0	0	0	1	0	0	0	0	0	1	1	0	0	2	0	0	0	0
OTU 108	0	1	2	0	0	0	0	0	0	0	1	0	0	0	0	0	13	0	0	0	0	0	0	3	0	0	0	0	0	3	0	0	1	3	0	1	0	0	0	1	0	0	0	0	1	0	2	0	1	0
OTU 109	0	0	0	0	0	0	0	0	0	0	0	0	0	0	0	0	0	0	0	0	0	0	0	0	0	0	0	0	0	0	0	0	0	0	0	0	0	0	0	0	0	0	0	0	0	0	0	0	0	0
OTU 110	7	4	2	4	0	11	4	2	2	0	0	0	2	0	0	0	0	0	0	0	0	0	0	0	0	1	1	0	3	0	0	1	1	1	0	1	0	0	0	2	0	0	2	0	1	6	0	0	0	4
OTU 111	0	0	0	0	0	0	0	0	0	0	0	0	0	0	0	1	0	0	0	0	0	0	0	0	0	0	0	0	0	0	0	0	0	1	0	0	0	0	1	0	0	0	1	0	0	0	0	0	0	0
OTU 112	2	0	1	0	1	0	0	0	0	0	0	0	0	0	1	0	0	1	1	0	0	0	0	0	0	0	0	2	0	0	1	0	0	0	1	0	0	0	0	0	0	0	0	0	0	1	0	0	0	0
OTU 113	0	0	1	0	0	0	0	0	0	0	1	0	0	0	0	0	0	0	0	1	0	0	0	0	0	0	0	0	0	0	0	0	0	0	0	7	0	0	0	0	0	0	0	0	0	0	0	0	0	0
OTU 114	0	0	2	3	1	0	1	1	13	5	8	0	1	2	0	0	35	4	2	9	13	3	0	3	4	2	1	0	11	7	66	0	0	0	1	2	3	0	1	3	13	5	1	1	0	0	0	0	2	49
OTU 115	0	1	82	2	1	2	1	9	0	33	0	6	1	1	54	4	4	2	1	10	7	0	1	1	7	1	26	0	3	0	4	0	4	5	0	6	4	0	0	0	4	0	2	0	5	1	0	0	3	1
OTU 116	2	2	0	0	0	5	1	0	12	1	2	2	1	0	1	0	3	10	0	7	0	3	0	0	2	1	2	4	2	0	0	0	0	10	1	0	5	0	0	0	4	8	3	0	1	1	0	2	2	0
OTU 117	1	0	7	0	1	4	0	1	2	0	4	0	1	2	3	0	7	0	0	1	1	0	0	0	4	23	0	0	3	0	0	1	1	0	1	2	0	0	0	1	1	1	2	9	1	3	3	0	2	1
OTU 118	0	0	0	0	0	2	0	0	0	0	0	0	0	0	0	0	0	0	1	0	0	0	0	0	0	0	0	0	0	0	0	0	0	0	0	0	0	0	0	0	0	0	0	0	0	0	2	0	2	0
OTU 119	11	0	2	2	1	0	4	1	6	0	1	0	5	7	3	1	0	14	0	0	1	5	0	1	1	0	2	3	0	2	0	1	1	0	0	12	0	1	2	23	0	4	0	0	0	1	0	1	0	0
OTU 120	4	0	0	3	0	0	0	0	1	0	3	2	0	0	0	0	0	0	0	1	0	0	0	1	3	0	0	0	0	0	0	0	0	0	0	0	1	0	0	1	1	0	0	0	0	0	1	0	3	0
OTU 121	1	2	0	0	0	0	0	1	0	0	3	0	0	2	0	0	1	0	3	0	1	0	0	0	0	3	0	0	0	0	0	0	0	1	1	0	0	0	0	0	0	6	0	0	1	0	0	0	0	0
OTU 122	1	1	1	0	7	1	55	3	3	0	1	3	0	45	0	0	0	1	4	0	0	6	0	1	5	2	0	0	7	0	0	0	0	0	7	1	0	4	1	0	5	0	0	0	0	0	0	0	1	1
OTU 123	7	3	6	1	2	12	0	4	21	3	6	8	10	0	3	1	21	5	9	3	0	11	4	4	1	2	13	3	0	1	3	13	7	3	10	4	3	5	8	5	7	3	7	1	7	12	12	3	5	5
OTU 124	1	0	0	0	0	0	0	0	0	0	0	0	0	1	0	0	0	1	0	1	0	0	0	0	1	0	0	0	0	0	1	0	0	0	0	0	0	0	0	0	0	0	0	0	0	0	0	0	0	0
OTU 125	14	17	6	5	3	6	2	3	0	0	16	0	19	2	0	6	7	8	5	15	55	17	7	1	5	0	1	12	2	1	3	12	2	1	3	33	4	2	1	2	7	4	5	0	6	6	3	1	38	2
OTU 126	0	0	0	0	1	0	0	0	0	1	0	0	0	1	0	0	0	0	0	0	0	0	0	0	0	1	0	0	0	1	0	0	0	0	0	0	0	0	0	0	1	1	1	0	0	0	0	0	0	0
OTU 127	0	0	0	0	0	0	0	4	1	0	1	0	1	1	1	0	5	0	0	0	2	0	0	2	1	1	0	0	0	0	1	0	0	0	0	0	2	0	0	1	0	1	0	2	1	0	1	0	0	0
OTU 128	4	17	5	5	1	13	6	5	15	4	11	0	2	6	21	26	3	25	11	1	1	4	5	9	1	4	1	1	3	3	3	0	28	14	5	3	1	2	30	6	9	14	5	1	5	3	7	2	8	2
OTU 129	0	0	0	0	0	0	0	0	0	0	1	0	0	0	0	21	1	0	0	0	0	1	0	0	0	0	0	0	0	2	0	0	0	11	0	0	0	0	0	0	0	1	0	1	3	0	0	0	0	0
OTU 130	5	0	0	0	0	0	0	2	2	0	1	25	2	0	1	2	4	1	9	1	1	3	1	0	0	0	0	0	0	3	8	0	2	0	1	1	0	1	0	0	1	10	1	0	1	0	1	14	2	3
OTU 131	2	1	0	0	0	0	0	11	4	0	0	6	1	0	0	2	0	0	0	1	0	1	0	0	8	0	0	0	1	6	4	0	0	0	0	0	0	3	0	1	3	0	0	5	1	1	0	4	1	1
OTU 132	1	0	1	0	0	0	0	0	5	0	1	0	2	0	0	0	0	0	1	0	2	1	0	0	0	0	1	0	0	1	2	0	1	1	0	0	0	3	0	0	1	3	0	0	1	0	0	0	0	0
OTU 133	2	0	0	0	0	0	0	0	0	0	0	0	0	0	0	0	0	0	0	0	0	0	6	0	0	0	2	0	0	0	0	0	0	0	0	2	0	0	0	0	0	0	0	0	3	0	0	0	0	0
OTU 134	0	5	4	5	0	1	0	1	2	0	7	0	3	1	1	0	0	0	1	2	0	1	1	0	0	4	3	0	0	4	4	2	1	0	1	0	2	0	0	0	8	3	4	2	0	0	0	2	0	0
OTU 135	16	0	2	6	0	0	1	1	12	2	2	0	0	1	0	2	0	3	3	5	0	0	0	2	0	4	1	0	0	0	0	0	0	1	0	0	1	0	0	2	1	0	2	2	0	3	2	2	1	1
OTU 136	1	1	0	4	4	0	0	0	1	0	3	5	1	0	0	0	10	0	0	17	0	0	0	0	0	0	0	0	1	0	3	0	2	3	2	0	11	1	2	2	0	0	0	0	17	0	0	1	0	0
OTU 137	0	0	1	0	0	2	0	0	1	0	0	3	1	0	2	0	0	0	0	0	0	0	1	0	0	0	0	0	0	0	1	0	1	0	0	0	0	0	0	3	0	0	0	2	3	5	0	0	26	0
OTU 138	0	0	1	0	0	0	2	1	1	1	2	0	0	0	0	0	0	0	0	0	0	0	1	0	2	2	1	0	0	2	0	0	1	0	0	0	0	0	0	0	0	0	0	0	0	0	2	0	0	0
OTU 139	8	1	4	4	7	10	0	5	5	3	0	1	1	0	0	0	0	0	0	3	1	15	4	2	12	0	0	1	2	3	1	122	0	0	5	1	1	2	3	26	1	0	0	0	3	1	71	0	0	0
OTU 140	1	0	13	0	6	2	97	5	6	21	6	1	0	1	6	7	18	10	1	1	1	6	2	2	3	8	4	1	0	7	3	0	162	2	7	5	5	6	78	2	4	7	0	2	1	13	4	0	4	38
OTU 141	0	0	0	0	0	0	0	0	0	0	0	0	0	0	0	0	0	0	0	0	0	0	0	0	0	0	0	0	0	0	0	0	0	0	0	0	0	0	0	0	0	0	0	0	0	0	0	0	0	0
OTU 142	0	0	0	0	0	1	0	0	0	0	0	0	0	0	0	0	0	0	0	0	0	0	0	0	0	0	0	0	1	0	0	0	0	0	0	0	0	0	0	0	0	0	0	0	0	0	0	0	1	0
OTU 143	0	0	2	0	0	0	0	0	0	0	1	0	0	0	0	0	0	2	0	5	0	0	0	0	0	0	0	0	0	1	0	0	0	0	1	0	1	0	0	0	0	0	0	0	0	8	0	0	0	0
OTU 144	0	1	0	0	1	0	1	0	0	0	0	0	0	2	0	1	0	0	0	0	0	0	0	1	0	0	0	0	0	0	0	0	0	0	0	2	0	0	0	0	0	0	0	0	1	0	0	0	0	0
OTU 145	3	43	0	0	1	0	7	0	0	0	0	0	1	11	0	1	3	20	5	1	0	6	15	0	0	0	0	0	0	0	1	0	0	0	0	1	0	10	0	0	0	0	1	0	0	0	0	0	36	0
OTU 146	0	6	3	1	2	0	0	0	0	113	0	6	1	1	6	1	0	1	9	1	1	0	3	0	1	7	1	0	0	5	2	0	0	0	4	0	0	2	0	9	2	5	5	1	1	0	1	0	1	3
OTU 147	1	0	1	0	1	0	1	2	1	0	0	0	0	2	0	0	5	0	0	0	11	0	0	0	0	0	0	0	1	2	7	0	0	0	0	0	0	0	0	0	0	1	0	0	0	2	0	0	0	2
OTU 148	6	3	0	0	0	0	0	0	0	0	0	0	1	0	0	0	3	0	3	0	0	1	8	0	0	30	1	0	0	0	0	0	0	86	0	0	0	0	0	1	0	0	0	22	3	2	2	0	1	0
OTU 149	13	1	0	0	0	0	0	0	0	0	7	1	0	0	4	0	0	0	0	0	0	0	0	1	0	1	0	0	0	0	1	0	0	2	0	0	0	0	0	0	3	0	0	0	0	0	1	0	0	0
OTU 150	0	0	0	0	0	0	0	0	0	0	3	0	0	0	2	0	1	2	0	0	0	18	0	0	0	2	0	0	0	0	0	0	0	0	0	3	0	0	0	2	4	2	0	0	0	0	3	0	1	0
OTU 151	2	0	0	1	2	3	0	0	0	0	0	0	0	0	3	0	7	3	0	1	0	2	0	0	0	1	0	0	1	0	0	0	0	0	5	1	0	6	0	0	1	0	37	1	0	0	0	0	4	0
OTU 152	0	2	0	5	1	0	1	12	0	0	5	0	1	1	2	3	0	2	1	0	0	0	2	0	3	1	2	1	0	4	0	0	0	0	1	2	0	0	0	1	7	1	0	0	0	4	1	0	0	1
OTU 153	0	0	0	0	0	2	0	0	0	0	0	0	0	0	0	0	0	0	0	0	0	0	0	0	0	0	0	0	0	0	1	0	0	0	0	0	0	0	0	0	0	0	0	0	0	1	1	0	0	0
OTU 154	0	0	0	0	0	0	0	0	0	0	0	0	0	0	1	0	0	0	0	0	0	1	0	0	0	0	0	0	0	0	0	0	1	0	0	0	0	0	0	0	0	0	0	1	0	0	0	0	0	0
OTU 155	0	0	0	29	0	0	0	11	0	0	2	0	0	0	0	2	0	0	0	0	0	0	0	0	0	0	0	1	2	0	0	0	0	1	0	3	0	0	0	3	0	0	0	0	1	3	1	0	0	0
OTU 156	0	4	0	2	0	0	0	2	1	0	6	0	6	1	0	6	7	1	1	68	0	2	0	3	4	1	0	1	1	2	0	4	2	4	4	9	31	5	2	0	4	2	2	0	0	0	1	0	0	0
OTU 157	2	0	0	0	0	0	2	0	0	0	0	0	0	6	0	0	2	13	0	2	0	0	0	0	0	0	0	0	0	0	0	0	0	0	0	0	2	0	0	0	0	0	0	0	0	0	0	0	0	0
OTU 158	0	1	0	0	0	0	0	0	0	0	0	0	0	0	0	0	0	0	0	0	0	0	0	0	0	0	0	0	0	0	0	0	0	0	0	0	0	0	0	0	0	0	0	0	0	0	0	0	0	0
OTU 159	2	1	1	0	0	0	28	0	0	0	1	0	1	49	1	0	2	0	0	0	1	1	2	1	7	0	0	0	0	0	0	0	1	0	0	2	0	0	0	0	5	2	0	0	0	0	2	0	0	0
OTU 160	3	11	1	1	5	2	1	6	4	0	4	4	0	2	1	0	0	4	2	8	2	12	4	1	5	0	3	1	9	8	2	2	3	10	14	8	4	25	5	0	2	3	3	1	12	8	7	0	0	0
OTU 161	0	4	3	2	2	0	1	0	2	1	3	3	0	3	2	0	5	0	1	5	0	0	2	45	0	1	0	0	0	0	1	0	1	1	4	0	1	2	0	0	2	0	0	0	5	11	1	0	0	1
OTU 162	1	11	2	0	0	0	1	0	1	1	1	1	0	0	0	1	2	1	3	0	0	0	4	1	2	3	0	0	1	0	0	0	1	2	0	1	0	0	1	1	0	0	1	0	4	4	0	1	4	0
OTU 163	0	0	0	0	0	0	0	0	0	0	0	0	0	0	0	0	0	0	0	0	0	0	0	0	0	4	0	0	0	0	0	0	0	0	0	0	0	0	0	0	0	0	0	0	0	0	0	0	0	0
OTU 164	0	0	0	0	2	0	0	6	0	0	2	0	0	0	0	0	0	0	0	0	0	0	0	0	0	0	0	0	0	1	0	0	0	0	0	0	0	0	0	0	0	0	0	0	0	0	0	0	1	0
OTU 165	0	0	0	5	0	1	0	0	0	0	0	0	1	0	1	0	2	0	6	0	0	0	0	0	0	3	0	0	0	2	0	1	0	0	1	0	0	0	0	0	0	1	0	0	0	0	3	0	0	0
OTU 166	0	0	0	0	0	0	0	0	0	0	0	4	0	0	1	0	0	0	0	0	0	0	0	1	0	0	0	0	0	0	0	0	0	0	0	0	0	0	0	0	0	0	0	0	0	0	0	0	0	0
OTU 167	0	1	4	3	0	0	0	10	7	0	0	3	0	0	1	3	0	0	1	6	0	1	0	0	2	1	1	0	10	2	2	0	0	3	0	0	0	0	0	0	0	0	1	0	2	4	0	1	1	0
OTU 168	2	0	0	4	3	0	0	0	0	3	2	0	0	2	0	1	0	2	0	0	0	3	0	1	0	0	0	0	1	0	0	0	0	0	1	0	0	0	0	0	2	1	0	1	0	0	3	3	0	0
OTU 169	0	0	0	0	0	0	0	0	0	0	0	0	0	0	0	0	0	0	0	0	0	0	0	0	0	0	0	0	0	0	0	0	0	0	0	0	0	0	0	0	2	1	0	0	0	0	0	0	0	0
OTU 170	0	0	0	0	0	0	0	0	0	0	0	0	0	0	0	0	0	0	0	0	0	0	0	0	0	0	0	0	0	1	0	0	0	0	0	0	0	0	0	0	0	0	0	0	0	0	0	0	0	0
OTU 171	0	5	9	3	8	33	0	0	2	1	2	2	0	0	0	0	0	0	0	8	1	0	0	6	10	0	1	0	0	0	3	0	2	2	25	1	2	16	11	0	0	1	0	0	0	0	0	1	1	2
OTU 172	0	0	0	0	0	0	0	4	0	0	2	0	0	0	0	0	0	0	0	0	0	0	0	2	0	0	0	0	0	3	0	0	0	0	0	0	0	0	0	0	0	0	0	0	0	0	0	0	0	0
OTU 173	0	9	0	0	0	1	0	0	4	0	0	0	0	0	0	0	0	0	2	0	0	0	0	0	0	0	0	0	2	0	0	0	0	0	1	0	0	0	0	0	1	0	1	0	0	0	0	0	0	5
OTU 174	2	0	1	3	0	0	2	0	1	1	2	0	0	0	0	1	2	2	0	0	0	0	0	0	0	1	0	1	1	0	71	0	0	1	1	0	2	0	0	0	1	0	0	2	0	0	2	0	5	49
OTU 175	0	2	2	0	0	0	1	3	0	0	2	1	0	1	2	2	5	0	0	0	0	0	0	1	0	4	0	0	0	5	0	0	0	0	0	3	0	0	0	0	0	1	0	4	0	0	0	0	0	0
OTU 176	8	0	8	2	0	0	0	2	4	0	12	0	0	0	6	5	1	3	0	0	1	0	0	2	4	1	1	0	0	0	1	1	0	0	0	2	1	0	0	0	3	4	7	0	1	0	0	0	2	1
OTU 177	6	5	0	1	18	3	0	1	2	3	1	2	0	0	1	2	6	1	0	0	1	3	0	1	0	0	0	0	2	0	0	0	0	4	6	1	0	8	8	1	1	3	0	0	0	1	2	0	2	3
OTU 178	3	0	0	5	0	0	1	1	0	1	0	1	0	0	0	4	0	0	3	1	1	0	1	2	0	0	0	0	3	0	3	0	0	0	0	0	0	0	1	0	0	3	0	0	0	0	5	0	0	0
OTU 179	2	0	2	0	2	0	0	10	9	3	0	1	0	0	2	8	4	1	0	0	0	0	0	0	0	0	0	0	0	11	0	0	0	0	3	0	0	2	0	0	0	2	0	0	0	1	0	0	5	0
OTU 180	4	6	6	8	24	5	2	5	11	3	4	31	6	4	1	5	7	1	22	22	4	14	2	0	8	2	4	8	8	9	54	3	8	5	3	5	9	1	0	2	3	6	2	2	7	7	2	11	2	17
OTU 181	0	0	1	0	0	0	0	3	0	0	0	0	0	2	2	0	2	6	1	0	1	1	0	0	2	3	0	2	0	0	0	1	0	1	3	0	0	6	1	3	2	2	6	2	0	0	0	0	0	0
OTU 182	0	0	1	0	0	0	0	0	0	0	0	0	0	0	0	0	0	1	0	0	0	0	0	0	0	0	0	0	0	0	0	0	0	0	0	0	0	0	0	0	0	0	0	0	0	1	2	0	0	1
OTU 183	0	0	0	0	0	0	0	0	0	0	0	0	0	0	0	9	0	0	0	0	1	1	0	1	6	4	0	0	4	0	0	0	0	3	0	0	0	0	1	1	0	0	0	1	0	0	0	1	0	0
OTU 184	1	2	1	0	0	0	0	0	0	1	0	0	0	0	3	2	0	0	0	0	0	0	0	0	0	0	1	0	0	0	0	0	0	0	1	2	0	1	0	0	0	0	0	0	0	0	4	1	1	0
OTU 185	1	0	0	2	0	2	0	3	2	2	1	1	1	3	0	5	2	0	1	1	3	2	0	1	3	1	0	0	1	1	0	0	4	3	6	8	0	4	1	0	3	0	0	0	3	0	3	0	1	0
OTU 186	0	0	0	0	0	2	0	0	0	0	0	0	6	0	0	0	0	0	0	0	0	0	0	0	11	1	1	11	3	0	0	3	0	1	1	0	0	0	4	1	15	0	2	0	0	0	0	1	0	0
OTU 187	3	37	0	0	0	0	0	3	1	0	1	109	91	2	0	4	9	0	0	1	5	4	10	0	0	2	1	16	1	1	0	19	3	1	1	44	1	0	0	0	2	0	11	2	3	2	1	53	1	4
OTU 188	2	2	2	6	0	0	0	2	9	0	4	0	1	1	0	0	0	3	0	0	4	6	0	2	0	6	1	3	0	3	3	2	5	0	1	2	0	0	0	4	0	3	0	1	6	12	1	0	0	0
OTU 189	0	0	1	1	2	3	1	0	2	1	1	0	0	3	2	1	1	1	40	3	2	2	0	2	3	2	2	51	1	1	0	0	0	0	5	1	1	4	2	1	6	3	0	4	2	0	0	3	1	0
OTU 190	0	1	0	0	0	0	0	0	0	0	0	4	0	2	0	0	0	8	3	0	0	4	0	0	0	3	0	0	0	0	4	0	0	1	0	0	0	0	0	0	0	1	0	0	0	0	0	0	0	0
OTU 191	0	1	0	0	0	0	2	1	0	0	5	0	4	3	0	1	0	0	1	4	0	3	0	1	0	1	1	1	1	0	0	0	2	0	1	1	3	0	0	1	1	6	8	0	2	1	8	1	0	0
OTU 192	0	12	1	1	9	1	8	11	1	2	2	0	1	7	2	2	5	2	3	0	1	2	4	0	15	2	26	0	2	5	1	2	0	1	2	2	0	1	0	3	16	10	5	1	1	2	0	0	1	0
OTU 193	1	4	0	3	1	1	9	1	1	0	0	12	1	4	0	1	15	1	3	0	7	1	4	1	0	2	0	0	0	0	17	1	2	1	2	1	1	0	1	0	0	6	3	2	0	0	2	4	1	9
OTU 194	0	0	0	0	6	2	0	1	2	32	0	0	0	0	0	7	0	0	4	0	0	3	1	0	0	3	0	0	0	0	30	0	28	0	3	0	0	2	0	0	5	4	6	2	55	0	1	0	0	19
OTU 195	0	0	0	0	0	0	2	0	0	0	1	0	0	2	1	0	1	4	4	1	2	2	0	0	0	0	3	0	1	1	0	0	0	0	2	0	1	1	1	0	5	0	1	0	3	1	0	0	0	0
OTU 196	3	0	2	0	5	1	0	0	0	2	9	0	1	0	1	0	1	0	0	5	1	0	0	1	1	0	0	1	0	2	0	2	0	2	4	0	0	4	5	0	0	0	0	0	0	0	0	0	0	0
OTU 197	4	4	5	6	4	5	2	1	3	0	2	7	4	2	1	7	4	2	7	1	3	7	7	5	8	5	10	74	2	1	2	1	10	0	22	7	2	10	11	0	0	4	2	3	9	2	2	1	0	4
OTU 198	0	0	0	1	3	0	0	0	2	0	0	1	0	0	0	9	1	2	0	0	0	0	0	0	0	3	0	0	0	1	0	0	0	0	0	0	0	0	0	1	1	2	0	2	0	2	2	0	0	0
OTU 199	0	0	2	1	0	6	1	0	6	0	0	0	5	1	1	1	0	3	2	0	1	3	0	0	1	1	2	0	0	1	0	0	0	0	0	0	0	0	0	1	1	1	1	0	0	0	1	1	1	0
OTU 200	1	1	0	0	1	2	0	3	0	0	4	6	0	0	0	1	0	0	0	0	0	4	0	3	2	0	0	2	2	0	3	1	1	1	0	0	0	1	1	0	9	1	5	0	8	1	0	6	1	0
