	Host 1	Host 2	Host 3	Host 4	Host 5	Host 6	Host 7	Host 8	Host 9	Host 10	Host 11	Host 12	Host 13	Host 14	Host 15	Host 16	Host 17	Host 18	Host 19	Host 20	Host 21	Host 22	Host 23	Host 24	Host 25	Host 26	Host 27	Host 28	Host 29	Host 30	Host 31	Host 32	Host 33	Host 34	Host 35	Host 36	Host 37	Host 38	Host 39	Host 40	Host 41	Host 42	Host 43	Host 44	Host 45	Host 46	Host 47	Host 48	Host 49	Host 50	
OTU 1	19	102	17	47	8	27	40	11	72	37	41	18	0	33	38	46	21	88	1	37	26	2	0	0	18	3	66	40	0	0	51	0	1	0	43	43	18	56	43	158	3	3	0	25	73	39	68	4	5	0
OTU 2	2	37	6	2	1	0	16	10	0	11	6	10	2	0	11	10	75	12	0	3	940	1	2	4	13	0	22	20	4	0	0	0	0	0	0	0	4	18	50	3	29	1	0	2	8	0	0	0	0	44
OTU 3	0	47	50	2	1	0	2	14	249	27	2	12	0	5	0	0	137	9	4	0	31	0	8	0	1	161	36	5	37	5	38	73	115	0	0	0	69	15	33	38	1	107	83	0	0	0	0	32	12	0
OTU 4	0	0	0	0	0	0	0	0	0	0	0	0	0	0	0	0	0	0	0	0	0	0	0	0	0	0	0	0	0	0	0	0	0	0	0	0	0	0	0	0	0	0	0	0	0	0	0	0	0	0
OTU 5	128	89	91	260	2	471	1060	1513	0	200	1167	2749	372	772	1028	400	163	504	30	11	553	0	113	0	371	143	248	232	486	54	124	95	3	61	0	237	1389	33	84	226	9	22	859	245	30	166	465	1143	93	90
OTU 6	13	36	1	225	0	0	28	17	26	29	6	36	0	0	2	0	23	47	1	42	13	57	0	13	11	10	68	148	16	9	5	0	0	28	19	0	0	3	5	2	26	11	0	13	6	1	0	4	147	3
OTU 7	28	19	11	45	99	18	55	7	247	48	203	23	13	164	31	9	89	27	34	184	14	150	16	47	6	22	106	21	21	145	45	34	77	43	287	1206	50	23	25	13	177	145	40	29	9	1254	2380	86	18	91
OTU 8	66	115	47	39	26	90	133	24	40	24	31	24	34	281	5	21	190	10	46	55	2	203	57	66	21	53	40	16	632	87	29	89	52	65	44	496	142	21	11	388	16	45	10	1	1852	605	1093	104	6	27
OTU 9	271	66	55	13	11	21	2	9	1	40	0	19	0	8	52	13	2	54	27	0	0	56	0	621	41	5	79	1	20	4	0	0	2	0	17	0	5	22	0	1587	37	4	13	18	26	0	5	18	30	3
OTU 10	79	0	0	0	1	7	0	0	1	5	27	15	4	7	59	3	0	11	0	0	11	11	17	51	2	1	6	1	0	0	21	0	0	16	12	6	0	0	8	8	1	6	38	0	1	18	22	0	5	2
OTU 11	186	36	23	7	191	81	84	14	11	4	50	17	1	8	5	1	18	1	15	1	45	11	0	122	11	0	8	51	4	28	129	2	35	0	28	0	10	10	71	38	10	10	34	7	152	25	2	8	102	140
OTU 12	69	138	12	104	285	2494	207	10	44	8	14	41	10	145	43	0	100	1	30	32	21	109	5	79	24	91	12	29	7	14	32	814	1	61	46	23	21	47	60	68	64	55	23	14	61	7	32	91	84	97
OTU 13	0	0	0	0	5	0	6	0	0	0	1	1	0	17	0	28	0	0	0	6	0	0	0	19	0	2	0	2	32	7	0	0	0	1	39	0	0	0	0	0	0	0	0	0	0	0	0	0	0	0
OTU 14	0	4	17	0	0	3	82	3	0	6	2	0	17	24	0	49	3	0	19	0	0	0	14	2	0	113	14	5	22	0	0	94	22	127	0	20	0	0	2	0	1	64	1	0	0	0	21	3	0	0
OTU 15	0	1	0	0	0	0	0	0	0	0	0	12	29	13	0	0	0	0	1	0	0	0	0	0	0	0	0	1	0	0	0	0	0	0	0	1	0	1	0	0	0	0	0	7	0	0	4	0	0	0
OTU 16	0	0	4	0	0	0	0	0	0	0	0	0	0	0	0	0	0	0	0	0	0	0	0	0	0	8	0	4	0	0	0	10	0	0	5	0	0	0	0	0	0	0	0	0	0	0	0	0	1	79
OTU 17	66	1	10	37	220	4	34	13	21	0	1	28	53	11	27	46	30	0	0	216	6	19	0	145	0	14	0	11	1	1	9	1	177	86	476	1	9	8	0	2	326	21	1	0	2	14	0	1	25	31
OTU 18	15	13	19	7	182	8	3	21	0	0	155	7	535	21	63	37	35	2	3	105	1180	23	0	17	12	69	2	38	71	13	15	42	160	42	163	1	1	6	2184	0	8	31	101	3	5	1	2	22	183	29
OTU 19	0	0	0	0	0	0	0	0	0	0	0	0	0	0	0	0	0	0	0	0	0	0	0	0	0	4	0	0	0	0	0	0	0	0	0	0	0	0	0	0	0	0	0	10	0	0	0	0	0	0
OTU 20	21	23	0	2	121	32	67	9	50	16	7	24	17	85	25	85	71	5	40	71	8	248	12	56	38	3	29	2	55	49	122	3	85	195	134	170	28	11	44	81	186	12	44	6	615	182	367	3	8	333
OTU 21	59	34	421	22	94	6	41	21	38	19	28	33	154	101	5	31	26	64	19	22	273	92	231	60	12	2061	50	18	3	45	30	1104	9	69	19	124	47	3	415	37	81	48	30	33	544	173	331	6	7	16
OTU 22	3	18	38	0	36	51	8	1	619	34	19	4	70	90	15	23	92	5	13	282	17	40	21	4	0	201	56	0	19	59	111	62	138	117	412	273	169	0	9	26	16	136	17	8	0	310	583	337	27	4
OTU 23	34	3	5	14	0	634	62	1	4	0	0	1	3	0	0	0	0	0	7	0	0	8	1	18	1924	79	1	0	24	0	2	75	5	204	18	0	12	1	1	23	0	6	1	19	59	3	0	14	8	15
OTU 24	0	0	8	0	1	7	19	32	38	8	2	48	3	5	0	8	28	11	2	5	1	1	8	7	24	64	12	0	0	212	14	38	12	12	7	2	2	0	0	1	8	16	0	0	48	0	6	8	1	1
OTU 25	0	247	0	99	0	0	1	43	0	0	3	80	0	1	123	0	0	0	0	0	0	0	0	0	0	0	0	34	53	0	0	0	0	9	0	0	0	175	0	37	0	0	0	0	0	2	0	0	0	0
OTU 26	0	0	0	0	5	0	2	0	0	0	0	6	0	0	2	1	2	0	5	0	7	0	0	0	0	0	0	0	40	4	0	0	0	73	0	0	0	0	0	5	0	0	0	11	4	13	0	0	47	1
OTU 27	64	0	0	0	0	0	0	0	0	0	0	2	0	0	0	1	0	0	0	0	0	0	0	0	0	0	0	0	0	1	0	0	0	28	0	0	0	0	0	0	0	0	0	0	0	0	0	0	0	0
OTU 28	10	354	489	131	66	46	4	57	63	197	5	81	82	1	182	37	137	172	9	97	203	6	248	38	124	92	383	161	2	38	40	13	48	7	145	474	7	159	304	587	38	3	171	19	407	459	871	23	118	53
OTU 29	37	148	29	16	10	20	62	19	24	5	117	28	2	14	11	6	12	13	11	4	8	294	46	61	4	14	9	4	64	1075	31	56	2	15	29	0	21	25	43	12	54	53	62	2	46	0	2	39	64	4
OTU 30	0	0	0	0	0	0	0	0	0	0	0	0	0	0	0	0	0	0	0	0	0	0	0	0	0	0	0	0	0	0	0	0	0	0	0	8	2	0	0	0	1	11	0	0	1	0	19	0	0	0
OTU 31	1	158	11	39	0	605	0	18	3	3	1	38	20	33	102	0	5	8	44	0	0	0	5	14	16	0	3	25	632	192	2	9	17	25	1	0	7	64	0	8	11	15	3	16	23	5	6	1	2	64
OTU 32	1	14	40	71	31	1119	1	3	7	26	3	17	238	11	22	82	39	59	10	8	1	14	16	160	56	28	61	27	104	31	49	5	1	28	50	16	12	7	0	47	74	29	28	14	72	21	4	66	7	9
OTU 33	0	0	20	0	0	3	0	0	0	0	0	0	1	0	0	0	14	1	0	0	0	3	63	13	7	0	0	0	0	0	2	0	0	0	0	0	0	0	0	0	0	0	92	0	0	0	0	5	0	0
OTU 34	12	69	40	24	1	10	16	19	122	8	40	33	33	117	73	11	60	7	33	0	48	85	11	74	3	4	23	12	5	66	18	5	162	3	1	10	887	40	58	6	13	10	0	17	52	10	16	1852	18	319
OTU 35	5	5	0	0	24	12	477	12	31	42	10	14	1	46	4	67	150	57	110	52	0	147	15	33	9	21	71	1	87	164	27	0	0	26	2	0	43	18	6	1218	22	21	12	21	7	4	2	0	66	534
OTU 36	6	16	26	17	0	92	22	1	19	1	1	8	2	21	0	264	0	0	1	3	8	9	1	0	0	31	1	19	44	12	0	0	0	33	1	1	14	7	1	31	7	16	21	14	1	1	10	2	62	20
OTU 37	1	5	1	6	10	0	0	11	3	0	0	0	1	93	0	0	36	0	19	0	0	0	3	21	0	71	0	5	3	8	0	68	0	0	6	0	0	0	0	40	0	46	0	0	7	0	0	0	0	0
OTU 38	121	137	42	138	54	59	43	5	5	0	71	77	22	50	889	95	12	4	115	11	1	24	81	70	1	22	2	59	86	2	58	0	128	44	1	42	0	52	7	246	58	42	2	609	66	43	52	36	3	38
OTU 39	0	117	0	77	0	0	4	22	23	0	14	86	1	0	8	0	0	0	3	3	0	12	0	2	0	46	0	20	0	1	0	0	0	3	0	0	2	125	2	0	0	0	18	39	0	0	0	0	34	0
OTU 40	28	8	9	12	20	29	36	5	25	8	16	0	6	181	0	7	10	16	18	15	16	36	10	34	26	74	12	16	18	1	71	197	2	97	16	20	10	0	26	41	26	16	1	3	47	32	32	28	154	1
OTU 41	15	278	4	152	20	11	25	112	4	33	431	184	7	24	123	46	20	12	9	114	3	4	21	14	0	83	63	3994	38	0	5	35	21	0	277	4	1	117	3	36	20	7	10	144	3	0	14	70	32	265
OTU 42	38	1	4	30	0	1	0	0	10	0	0	0	1	13	2	1	1	2	34	3	0	11	17	76	0	1	0	0	1	1	3	1	4	3	0	0	21	0	0	0	0	0	0	1	0	5	0	0	64	0
OTU 43	0	3	0	3	0	0	0	0	0	0	0	0	0	0	0	0	0	3	0	0	0	0	0	0	0	0	1	0	11	0	0	9	0	15	0	0	0	0	0	0	0	0	0	0	0	0	0	0	0	1
OTU 44	0	0	0	0	1	1	72	0	61	2	3	0	0	0	0	13	0	1	0	0	1	0	6	2	5	9	5	6	1	4	0	0	8	1	9	1	0	0	0	0	0	0	0	3	0	0	13	1	0	23
OTU 45	49	0	66	0	40	31	19	6	10	24	19	1	80	180	3	7	145	34	10	28	71	83	35	160	3	83	55	2	19	16	3	47	68	212	31	2	26	0	6	11	26	110	18	20	14	1	0	1	36	19
OTU 46	29	15	45	38	8	53	27	6	6	4	1181	13	38	43	2	40	45	0	192	23	15	3	51	13	45	9	12	21	22	3	23	0	17	35	52	1	1	6	18	148	13	81	0	31	40	3425	8	19	64	63
OTU 47	112	0	0	0	0	0	1	0	3	5	1	0	2	5	0	0	0	0	0	0	0	4	0	15	0	0	13	0	0	13	11	0	0	0	0	0	0	0	3	10	39	0	0	0	0	0	0	1	0	0
OTU 48	20	103	36	11	92	93	31	27	301	321	1	39	276	99	36	3	32	362	287	5	11	65	16	22	0	143	699	28	121	157	2	59	12	238	0	39	12	34	23	6	130	138	11	34	8	10	72	92	9	45
OTU 49	34	3	0	0	9	2	42	0	2	19	23	5	1	18	15	27	11	35	0	9	0	204	0	20	1	55	39	3	19	1	0	15	112	6	13	8	12	0	1	52	9	0	34	15	3	41	12	0	69	11
OTU 50	39	60	6	38	71	38	8	8	22	4	20	54	6	3	9	25	44	21	18	52	7	31	6	20	394	21	4	25	2	78	73	2	20	10	120	32	36	505	13	41	165	46	739	2438	14	31	71	6	2	17
OTU 51	40	2	1	5	3	19	5	17	1	2	10	0	21	0	7	8	10	10	41	0	5	1	1	9	10	1	7	5	29	4	3	2	43	0	51	3	87	6	9	124	5	24	0	4	11	2	16	49	448	1
OTU 52	169	114	29	68	87	1	60	31	17	72	35	57	20	50	21	54	91	83	137	52	12	169	11	88	0	25	131	32	559	18	219	15	25	82	36	23	31	52	26	148	86	33	28	33	35	10	23	101	106	55
OTU 53	0	14	0	0	0	0	0	0	0	0	0	0	0	0	0	0	0	0	0	0	0	0	0	0	1	0	0	0	0	0	6	0	0	8	0	0	0	14	0	0	0	0	0	0	0	0	0	0	3	0
OTU 54	19	18	17	14	7	66	29	3	89	13	46	13	4	6	31	35	54	21	32	35	2018	58	29	55	48	50	20	14	42	90	10	40	56	51	32	29	15	11	38	37	77	35	63	61	108	52	75	43	113	84
OTU 55	0	0	0	0	0	0	0	0	0	0	0	0	0	0	0	0	0	0	0	0	0	0	0	0	0	0	0	0	0	0	0	0	0	0	0	0	0	7	0	0	0	0	0	0	0	0	0	0	0	0
OTU 56	0	11	6	1	35	5	18	12	0	56	3	15	0	10	20	1	85	58	9	10	12	48	10	14	46	0	124	0	0	3	2	31	0	0	45	1	0	4	15	20	51	4	0	23	21	12	0	5	200	0
OTU 57	143	29	125	44	426	9	45	18	187	86	74	15	78	177	35	87	81	1296	43	271	52	216	54	102	60	22	155	6	102	113	74	4	64	54	547	45	22	48	119	73	189	69	76	51	172	26	86	26	44	208
OTU 58	8	3	10	1	6	0	179	5	2	126	27	10	11	10	11	0	0	125	0	14	0	7	0	8	0	12	271	1	12	1	0	1	23	0	41	4	4	9	0	5	34	4	0	0	10	2	1	0	100	12
OTU 59	0	53	14	27	156	0	3	38	3	0	0	85	13	111	104	35	292	1	39	55	0	5	14	93	0	0	0	25	45	5	87	7	29	0	85	0	14	13	0	2	7	2	0	2	0	5	0	62	66	7
OTU 60	13	87	0	0	45	35	40	19	171	313	27	41	225	11	49	82	75	322	3	95	46	350	10	35	73	24	636	44	265	1	4	23	27	12	111	1	18	30	107	115	671	39	192	2	0	21	3	82	94	53
OTU 61	34	169	12	151	336	8	19	90	270	529	11	187	4	51	158	239	31	17	53	2	932	54	11	237	71	15	23	75	455	17	264	5	63	84	1	31	79	735	1957	127	256	109	11	54	45	3	23	45	35	72
OTU 62	0	0	0	3	2	14	0	1	7	0	49	0	0	0	0	0	0	0	1	1	0	0	276	2	1	7	0	1	1	31	48	2	3	9	1	0	4	1	1	0	17	1	0	33	0	0	3	0	5	0
OTU 63	71	7	2	1	64	0	0	12	18	13	62	24	8	23	54	8	12	7	0	98	13	4	2	70	0	236	30	0	2	0	25	52	55	117	252	0	15	1	25	17	1	0	8	14	7	7	8	20	51	5
OTU 64	1	31	20	4	64	13	15	19	60	57	128	30	4	79	63	78	78	26	54	2	1	99	22	186	9	9	89	24	20	11	20	42	54	120	5	19	13	46	32	104	161	70	16	11	53	9	53	9	202	23
OTU 65	0	0	0	0	0	0	0	0	4	0	0	8	0	0	0	0	0	0	0	0	9	0	0	0	0	3	0	0	16	0	0	0	0	0	0	0	1	0	11	0	0	40	1	0	0	0	0	0	0	0
OTU 66	58	35	24	70	145	15	14	12	123	6	16	37	32	46	30	40	251	54	8	8	18	32	3	0	13	3	10	92	43	77	39	19	38	103	53	0	50	47	14	100	77	71	1	37	27	2	3	112	4	24
OTU 67	13	69	5	57	64	23	0	4	71	6	2	59	12	16	36	16	38	1	2	15	22	14	1	12	0	40	11	42	93	50	12	1	190	16	11	8	30	98	27	29	37	20	4	29	0	850	7	33	171	8
OTU 68	0	12	16	0	707	39	12	0	10	5	4	7	0	0	15	5	0	4	0	0	44	0	0	29	2	91	6	0	2	166	3	63	2	53	0	14	0	0	27	36	3	7	2	11	17	1	40	10	1	0
OTU 69	15	4	100	2	111	46	23	0	14	1	11	21	13	242	8	4	17	5	4	6	28	18	1	13	4	30	2	11	3	80	130	20	124	10	0	348	1	0	48	82	24	31	20	2	4	0	12	7	12	27
OTU 70	114	38	4	0	0	0	0	20	33	1	37	11	7	16	35	19	2	0	3	2	15	87	0	20	1	16	2	9	3	82	0	1	64	20	0	0	0	31	23	8	1	0	1	7	19	20	1	7	26	44
OTU 71	26	17	0	0	9	16	1	2	97	0	0	5	0	53	0	1	15	1	0	0	7	2	0	103	0	33	0	4	10	45	0	25	1	2	2	6	50	2	19	0	5	1	5	36	3	24	19	91	0	0
OTU 72	133	43	17	25	30	0	4	0	3	16	34	32	133	55	11	0	7	10	21	18	9	1	3876	54	8	7	28	9	43	8	8	3	74	1	16	10	14	13	4	16	11	86	36	16	35	2	2	64	8	23
OTU 73	12	302	34	127	10	15	0	57	69	124	1	58	7	26	130	3	117	109	456	27	23	15	17	59	56	65	244	27	0	40	4	11	25	222	42	14	1	146	45	78	36	10	6	62	10	294	34	59	24	1
OTU 74	9	32	5	8	0	17	278	8	131	13	0	57	0	256	26	0	3	14	20	39	6	27	15	24	37	9	29	0	63	40	3	62	184	89	73	0	404	12	6	11	14	62	29	5	100	12	3	72	34	60
OTU 75	6	33	20	8	116	33	8	4	35	231	51	0	46	10	1	70	79	6	18	106	1226	60	48	254	0	300	19	39	32	46	130	29	11	945	312	27	34	4	6	4	120	203	14	7	67	34	21	7	41	62
OTU 76	101	6	0	12	17	0	3	2	0	26	6	0	0	7	477	0	1	24	0	40	2	1	3	184	0	0	52	1	4	0	51	10	85	32	92	0	0	1	0	3	2	0	16	273	12	0	0	0	0	12
OTU 77	59	33	0	28	2	5	70	21	11	0	40	29	85	108	6	34	5	1	21	18	30	9	25	72	4	4	0	9	2	23	1	8	38	9	85	2	2	4	45	68	19	140	18	69	41	3	15	5	12	7
OTU 78	77	38	1	5	0	18	8	7	11	10	53	26	39	23	1	15	14	15	9	1	7	27	1	258	33	141	20	8	18	115	44	96	88	189	10	4	15	14	10	4	47	32	3	4	6	4	5	0	0	0
OTU 79	102	107	192	153	308	171	54	41	16	757	92	109	154	38	130	121	361	652	102	992	88	157	24	152	29	136	1463	67	130	527	110	127	83	436	293	55	104	95	133	114	141	536	30	44	56	34	79	76	124	219
OTU 80	124	83	79	16	101	2	229	39	38	58	1	53	10	95	37	32	5	52	316	18	1	103	48	25	3	15	105	26	19	83	32	9	229	24	49	1	11	65	11	21	54	64	21	32	31	33	7	12	19	15
OTU 81	48	11	276	22	7	21	52	11	147	11	12	1	85	10	89	27	95	9	14	7	215	70	73	146	33	70	17	3	36	1449	32	13	10	4	17	24	225	20	469	34	104	4	16	22	125	69	63	142	1119	95
OTU 82	793	4	8	2	14	117	112	0	27	14	10	9	22	123	2	0	49	22	26	0	1	5	6	1615	0	97	19	3	0	23	0	17	46	77	13	0	3	18	1	91	87	11	2	9	38	5	11	47	141	0
OTU 83	0	15	2	9	1	115	0	0	0	0	1	4	0	6	0	13	1	0	0	1	0	18	0	0	16	77	0	0	9	0	8	29	66	43	5	0	4	5	0	3	10	16	0	0	20	0	0	5	26	0
OTU 84	47	75	0	108	16	24	47	2	17	56	0	4	1	1	109	30	12	1544	0	129	27	31	5	40	24	24	112	52	0	2	0	0	0	3	222	22	3	56	23	34	20	75	6	30	0	17	33	9	77	47
OTU 85	23	15	0	0	24	7	0	0	0	0	0	0	0	1	0	0	2	0	6	0	0	1	25	6	0	0	1	0	11	1	0	0	0	0	0	0	0	24	0	22	0	31	0	0	0	0	2	16	37	2
OTU 86	0	0	2	0	15	0	2	0	0	0	45	0	0	1	1	0	0	0	0	0	0	0	0	4	0	0	0	0	7	0	0	0	3	122	0	0	0	0	0	0	0	0	1	3	0	0	0	20	11	0
OTU 87	6	109	3	18	273	5	76	21	11	1	5	135	0	104	123	4	2	0	57	0	0	93	1	18	36	0	2	17	1085	4	0	0	0	0	1	3	0	16	0	6	10	64	1	23	0	1	6	0	76	17
OTU 88	0	0	31	0	1	0	0	0	19	0	0	0	2	21	0	0	20	1	0	2	0	0	2	6	29	1	0	0	0	22	1	2	0	3	8	0	0	2	0	0	0	5	0	0	0	6	0	0	620	0
OTU 89	0	1	46	0	78	0	171	2	1	0	2	3	23	213	2	3	160	0	0	13	0	31	0	0	28	4	0	7	0	1	3	11	1	12	2	0	0	0	0	4	0	3	55	1	1	0	0	11	46	51
OTU 90	0	2	0	0	9	0	25	0	9	0	3	0	0	10	14	0	44	0	0	0	0	17	35	0	0	0	0	0	0	0	0	0	31	6	0	0	11	0	2	0	14	16	0	0	0	2	0	80	0	43
OTU 91	0	0	0	0	3	0	0	0	8	0	0	0	0	4	0	0	69	0	0	31	0	10	0	0	0	0	0	0	1	0	0	0	6	3	74	4	0	0	0	16	125	25	0	0	0	0	7	2	0	0
OTU 92	0	3	1	1	5	5	0	0	22	0	0	1	5	112	0	17	1	0	25	0	0	3	0	0	0	13	1	5	10	21	30	0	0	24	1	0	0	1	0	0	5	6	0	1	13	0	0	0	0	46
OTU 93	0	0	0	0	0	0	86	0	0	0	0	0	1	0	0	56	0	0	0	0	2	0	0	0	0	0	0	0	0	3	0	0	0	0	0	0	2	0	5	0	0	1	0	0	1	0	0	0	0	0
OTU 94	10	56	10	84	4	16	8	5	321	41	1	24	12	31	46	8	108	44	19	1	28	31	0	36	66	7	93	17	49	3	11	38	7	86	23	17	5	40	54	20	7	159	135	41	78	36	56	128	10	1
OTU 95	12	24	0	0	1	3	6	3	15	12	0	4	0	0	15	5	6	2	9	136	7	67	0	10	1	36	20	5	7	252	9	0	90	117	235	0	5	39	35	0	128	69	0	23	2	0	10	2	2	0
OTU 96	0	0	78	6	0	3	32	0	0	0	0	21	0	0	0	37	0	0	0	7	12	0	5	0	0	0	0	0	0	0	0	0	3	0	0	49	0	0	28	0	23	0	30	0	8	12	73	0	25	35
OTU 97	0	0	0	8	0	1	1	0	0	11	0	0	0	5	0	0	67	3	1	0	8	0	0	38	0	0	27	1	0	0	46	2	0	0	0	0	5	0	19	0	17	0	0	1	0	0	0	24	23	0
OTU 98	0	2	6	0	6	0	0	2	2	1	9	8	8	25	2	0	0	4	48	0	4	0	0	22	3	10	1	7	0	9	16	9	20	0	14	5	1080	11	0	72	0	4	0	22	0	3	5	1	60	14
OTU 99	52	90	8	77	70	5	28	1	128	58	7	14	16	5	41	56	6	47	79	33	5	1372	10	21	4	56	117	18	5	79	171	15	1	13	41	6	50	64	9	20	63	97	2	9	33	29	16	105	16	8
OTU 100	9	44	9	20	36	8	5	16	16	0	8	18	24	79	31	2	14	0	13	6	3	37	6	16	0	18	0	11	50	2	1	22	71	48	46	15	7	13	0	11	50	8	3	7	10	0	10	24	2	0
OTU 101	10	0	1	0	1	0	6	0	27	0	50	0	15	0	0	0	16	0	0	0	0	0	9	0	0	0	0	0	0	0	15	0	0	10	0	4	0	1	0	1	0	0	0	0	6	1	0	0	7	0
OTU 102	80	2	80	3	0	10	1	0	125	0	0	8	19	33	23	4	60	0	2935	1	0	0	5	0	0	0	0	0	37	49	0	0	1	44	0	6	6	1	2	0	16	0	0	7	0	0	0	37	8	9
OTU 103	5	211	4	107	49	0	2	118	18	10	23	107	9	12	112	32	6	0	36	1	1	18	4	0	40	64	28	7	41	0	46	93	10	44	6	37	9	60	1	5	64	1428	3	42	3	18	35	1	15	16
OTU 104	127	31	2	19	66	46	82	14	13	81	2	16	8	2	0	72	104	53	3	69	5	20	9	158	19	6	145	8	92	213	12	7	7	43	86	38	1	38	55	11	45	0	43	4	12	45	50	16	44	85
OTU 105	0	39	20	8	0	0	20	3	0	0	0	0	0	0	28	0	0	0	15	1	0	20	21	2	1	0	0	10	0	0	0	1	0	0	6	0	0	15	0	17	1	1	8	5	0	0	3	60	2	1
OTU 106	0	30	4	4	1011	0	20	26	68	0	0	23	0	41	29	423	2	1	38	0	5	0	0	16	0	156	0	3	2	0	2	49	0	1	8	0	28	30	9	0	0	0	0	12	0	13	0	10	0	20
OTU 107	2	0	2	3	1	3	3	28	71	64	3	64	0	224	7	7	2	62	0	17	5	38	0	20	9	6	117	0	2	138	24	1	0	10	4	1	29	1	11	48	2	44	16	7	5	1	0	49	60	43
OTU 108	40	69	71	13	4	31	17	34	24	0	13	62	1	33	4	29	420	1	3	10	5	7	30	35	0	10	1	7	5	41	8	1	31	66	0	5	10	23	0	150	22	0	34	2	36	4	8	9	3	0
OTU 109	0	0	0	0	0	0	0	0	0	0	0	0	4	1	0	0	0	0	0	0	0	0	0	0	0	0	0	0	0	0	0	0	18	0	0	0	0	0	2	0	0	0	0	0	0	0	0	2	0	4
OTU 110	4	180	20	53	51	16	48	21	65	7	5	37	0	30	156	3	18	3	3	5	10	185	3	53	202	10	15	16	66	76	29	33	16	16	0	0	37	59	14	13	56	38	307	31	71	18	0	76	9	82
OTU 111	0	0	23	0	0	0	12	0	0	0	0	9	0	3	0	0	0	0	0	1	3	0	2	0	2	1	0	0	0	6	2	6	2	16	0	0	0	0	23	1	0	0	2	0	0	0	0	7	13	76
OTU 112	5	9	0	12	45	11	6	0	4	3652	1	2	55	2	1	1	4	0	3	15	1	19	0	5	7	8	13	0	0	16	1	18	10	21	14	0	0	1	12	0	0	4	19	24	4	0	0	0	0	15
OTU 113	13	1	3	4	62	0	0	2	0	15	2	1	0	0	0	2	1	26	0	0	0	1	0	0	1	0	25	27	4	0	0	6	138	0	0	0	7	0	4	0	0	33	0	0	0	9	0	9	1	0
OTU 114	29	90	5	31	54	48	7	16	594	66	2629	16	3	2	4	31	647	50	26	21	6	23	18	24	59	32	135	2	122	102	1521	9	7	61	7	35	52	2118	43	24	152	27	2	24	65	29	47	328	185	56
OTU 115	36	19	60	20	123	70	134	3	17	60	20	4	7	71	15	29	157	69	90	16	0	61	91	163	360	94	121	12	3	13	222	38	22	64	43	28	44	8	13	40	7	31	534	6	34	24	35	29	32	25
OTU 116	184	44	60	29	49	24	3	2439	161	21	3	1	40	8	0	0	5	31	28	50	44	1	21	56	42	22	41	3	78	18	21	11	3	117	106	22	29	13	36	36	102	62	48	18	48	39	18	25	66	29
OTU 117	7	3	7	3	8	61	11	4	211	4	0	0	6	32	0	0	153	13	3	37	17	121	0	0	2	118	12	1	140	1	35	136	27	90	56	16	3	4	10	3	46	12	16	12	8	3	37	103	5	14
OTU 118	1	5	0	0	0	0	5	11	59	23	2	8	0	0	0	14	0	9	2	0	2	0	2	15	0	3	49	0	6	1	12	0	0	14	0	1	0	0	25	0	1	14	5	0	0	6	0	2	48	16
OTU 119	7	9	268	25	45	19	29	10	211	116	1	2	10	47	175	2	149	102	17	1	66	128	66	44	5	18	227	0	175	20	118	4	52	15	11	61	162	10	194	98	7	182	1	123	68	57	112	85	20	166
OTU 120	0	21	0	13	1	1	4	7	76	2	13	29	5	9	1	3	10	0	104	1	0	3	1	0	11	6	1	4	3	0	9	10	0	0	1	1	0	12	14	0	21	0	1	0	4	0	0	0	76	5
OTU 121	48	20	0	33	31	15	0	30	0	2	2	4	5	46	12	143	2	0	98	8	8	0	0	2	5	6	14	18	16	1	5	7	59	6	30	0	5	11	26	0	112	0	54	22	7	3	1	0	1	34
OTU 122	62	224	17	193	52	10	851	27	15	4	2	57	9	667	86	9	57	12	87	1428	8	97	1	2	12	0	10	134	62	7	1	48	0	15	246	15	0	223	9	13	235	14	36	43	1	21	40	16	33	4
OTU 123	56	153	64	16	88	68	152	39	769	83	120	45	42	112	23	10	302	1944	245	156	87	265	63	235	38	144	184	36	131	127	168	90	164	246	240	16	122	94	121	142	433	296	33	23	174	27	47	319	233	63
OTU 124	1	0	0	2	9	8	7	22	0	0	0	32	0	0	3	1	24	1	0	1	1	0	1	3	2	0	0	26	1	0	0	0	25	7	1	6	2	0	5	3	0	79	0	0	7	12	5	11	0	2747
OTU 125	108	186	127	77	53	647	154	53	97	41	48	56	228	117	144	80	182	29	122	21	119	327	56	84	97	130	105	93	82	155	74	102	16	84	49	58	29	135	244	129	124	492	22	79	206	87	133	41	698	100
OTU 126	0	0	0	1	0	0	0	0	58	0	7	0	2	57	9	0	1	0	0	0	2	0	4	3	0	14	0	1	0	1	10	0	0	0	0	0	0	0	9	0	2	10	0	0	0	0	0	5	0	0
OTU 127	0	11	1896	7	3	1	22	10	14	3	13	24	0	14	1	33	147	2	4	0	0	16	1141	84	6	1	3	1	2	4	0	1	0	1	1	0	35	13	0	16	53	0	0	13	9	5	0	5	0	0
OTU 128	142	232	212	196	69	59	104	79	463	38	44	167	139	184	188	215	294	43	68	50	63	120	28	101	92	156	81	62	42	139	176	35	639	83	122	25	177	155	84	250	453	162	57	46	58	31	84	244	189	422
OTU 129	0	2	10	0	14	0	9	322	0	0	5	850	4	0	0	0	0	0	10	0	1	0	3	6	0	0	0	0	2	0	27	5	0	53	0	0	0	1	0	52	3	1	1	0	53	0	1	0	0	0
OTU 130	6	15	6	13	1	3	5	8	28	15	34	23	1	3	1	1	146	36	127	5	4	62	22	15	21	14	38	5	0	169	101	12	9	2	7	0	50	3	9	9	22	21	16	0	15	10	0	59	67	8
OTU 131	36	30	28	43	48	1	1	6	47	8	44	56	34	6	3	15	4	0	47	0	3	17	14	1	57	39	20	5	0	265	92	161	1	14	4	0	11	16	18	93	15	0	75	2	20	7	1	51	0	0
OTU 132	0	0	0	12	0	53	82	1	21	0	72	12	0	0	12	3	11	2	5	15	1	1	0	7	0	4	0	0	6	9	1	0	0	1	34	3	9	0	0	75	4	49	12	1	104	0	8	38	0	0
OTU 133	34	0	0	22	0	18	37	0	18	2	0	0	0	0	3	1	0	1	5	14	0	0	0	0	0	0	7	3	0	0	15	2	31	23	34	2	0	0	2	0	0	1	0	0	10	0	8	0	0	0
OTU 134	17	47	0	45	0	0	8	4	5	42	28	6	94	0	0	32	14	45	20	1	4	32	13	52	15	42	102	8	63	95	31	4	7	36	12	7	21	40	42	5	78	160	103	6	61	27	19	30	68	0
OTU 135	35	78	22	0	12	5	90	14	58	20	0	1	8	14	34	1	1	7	16	4	0	8	69	13	0	20	37	23	3	13	7	2	4	25	12	6	23	35	4	5	16	30	2	4	37	2	9	209	12	59
OTU 136	67	6	0	21	52	20	2	55	2	27	20	253	0	63	4	6	67	27	25	46	6	32	8	17	1	7	64	23	8	2	66	0	181	1	207	27	2	7	46	34	0	12	12	81	80	6	31	232	16	4
OTU 137	6	5	10	1	0	0	0	3	36	0	52	0	0	72	0	0	23	1	0	1	0	0	20	0	11	1	0	18	1	0	10	0	89	0	1	0	9	0	11	6	25	0	1	19	32	19	0	78	373	0
OTU 138	0	8	4	20	0	0	1	30	3	3	9	0	10	1	12	0	26	1	55	22	0	0	0	0	18	133	4	11	124	77	0	23	20	10	32	13	1	0	0	11	10	0	0	7	87	0	12	2	0	0
OTU 139	171	6	83	27	54	30	11	31	58	24	23	25	5	1	15	61	0	23	36	89	49	189	26	120	59	50	38	4	50	15	93	8	67	14	111	16	416	11	110	460	117	45	106	4	26	10	25	782	127	38
OTU 140	42	130	42	89	22	32	1579	15	224	26	204	29	115	22	76	433	278	37	107	204	25	193	23	216	1949	67	52	401	68	12	179	259	2053	83	304	9	648	58	69	30	73	275	100	19	11	7	20	118	210	23
OTU 141	0	0	0	0	0	0	1	0	0	0	0	0	0	0	0	0	0	0	0	0	0	0	0	0	0	0	0	0	0	0	0	0	0	0	0	0	0	0	0	0	0	1	0	0	0	0	0	0	0	0
OTU 142	0	5	0	22	0	0	0	0	0	0	3	0	3	0	0	0	2	0	0	0	0	13	6	0	0	0	0	0	0	0	0	0	0	9	0	0	0	0	0	0	0	0	0	0	0	3	0	0	31	0
OTU 143	1	4	4	0	1	0	2	0	79	6	0	0	1	0	7	0	24	3	2	19	0	28	14	3	29	7	7	0	0	0	0	0	0	2	78	0	0	1	2	39	6	3	0	4	0	0	0	32	4	0
OTU 144	4	0	20	2	0	0	2	6	1	0	0	0	11	0	0	2	14	0	0	0	0	0	58	0	12	0	0	4	0	1	0	84	45	0	0	0	0	0	1	0	0	0	2	4	0	0	0	20	0	0
OTU 145	51	506	34	77	47	0	65	134	23	7	25	228	15	549	288	20	12	4	0	1	0	61	0	47	49	69	28	117	27	15	22	21	0	94	1	26	13	328	1	1	26	39	39	90	84	0	37	23	355	229
OTU 146	3	143	12	16	57	45	4	19	14	56	42	32	4	38	5	13	0	83	30	1	8	1	4	62	467	47	102	13	26	2	12	44	35	15	19	232	11	38	19	104	206	9	772	66	22	14	13	6	26	7
OTU 147	0	0	21	0	11	54	28	9	0	17	25	0	14	55	0	2	214	4	3	10	0	0	5	10	0	64	38	0	31	176	139	12	227	0	4	4	29	0	0	0	0	3	0	1	13	22	4	18	0	6
OTU 148	15	95	0	61	119	5	37	6	8	3	18	24	17	62	71	0	3	13	5	0	1	0	30	7	16	569	7	19	0	62	0	274	7	1201	31	4386	26	65	0	19	0	6	0	22	5	1	1	14	45	0
OTU 149	73	2	1	29	0	12	0	0	0	0	0	7	9	1	1	0	23	0	0	2	7	0	68	14	35	16	0	7	42	0	2	5	1	1	0	23	0	1	5	14	2	1	95	0	0	10	45	5	0	37
OTU 150	0	0	5	2539	6	5	0	0	26	16	0	0	0	13	0	0	26	28	19	0	21	173	2	76	0	61	40	1212	19	0	0	4	2	0	0	4	0	0	52	50	58	11	3	0	156	1	3	0	0	5
OTU 151	0	0	17	1483	0	50	2	11	22	4	3	14	0	0	5	30	0	10	17	39	4	91	18	2	0	21	9	656	4	1	44	0	0	38	74	0	20	0	11	14	25	20	10	1	11	0	1	31	13	0
OTU 152	33	23	38	78	43	22	7	67	99	5	86	13	37	60	58	13	9	1	2	0	1	67	0	0	5	88	11	8	47	5	29	35	1	0	2	1	39	1587	1	164	39	77	44	12	0	5	24	21	7	47
OTU 153	0	0	0	0	0	0	1	0	0	0	0	0	0	1	0	18	2	0	0	0	0	0	0	0	0	5	0	0	0	0	0	0	0	7	0	0	3	0	0	0	0	0	0	0	0	6	0	11	0	28
OTU 154	0	0	0	11	0	0	0	1	0	0	0	0	16	0	5	12	0	0	0	0	0	21	0	0	396	17	0	1	0	0	2	10	8	19	0	0	0	0	0	0	0	0	552	0	0	0	0	0	0	0
OTU 155	7	1	4	1	5	0	0	0	1	9	41	9	0	0	0	0	10	6	0	5	5	2	1	21	39	0	13	2	20	1	59	0	2	91	19	1	1	0	0	3	3	22	14	3	3	1	0	0	44	52
OTU 156	14	14	15	33	41	80	15	40	28	3	41	68	9	31	15	53	72	9	66	44	8	42	22	50	3	9	4	11	43	33	1	12	92	178	54	41	12	13	5	40	96	195	7	85	189	30	128	4	63	0
OTU 157	3	0	0	0	28	0	76	0	0	0	1	2	0	30	1	0	37	1	0	0	11	0	0	0	0	23	0	0	1	0	0	0	19	3	55	0	0	0	12	1	4	11	8	0	2	3	2	0	3	344
OTU 158	0	0	0	0	35	0	0	0	0	0	2	0	0	33	0	0	3	0	0	0	0	0	0	0	0	0	0	0	0	0	0	0	0	0	0	0	0	0	0	0	19	0	11	0	0	0	0	0	0	0
OTU 159	2	168	43	50	8	0	418	1	0	29	112	35	111	554	24	93	3	21	22	13	31	20	38	50	1	4	59	21	252	25	0	0	35	23	119	9	12	74	44	0	29	91	10	21	10	29	27	2	0	20
OTU 160	19	329	23	182	318	43	27	109	113	566	7	201	66	184	2227	4015	13	57	80	247	18	132	51	65	34	14	92	53	80	130	130	15	74	107	161	7	1682	193	17	96	242	47	14	1337	27	10	18	17	26	67
OTU 161	336	160	0	65	400	5	26	30	50	9	1	18	3815	86	4	0	130	6	22	47	8	1	20	524	0	65	18	47	2	9	53	58	1	36	160	218	0	43	44	1	22	1	6	3	1142	114	482	11	1	52
OTU 162	2122	208	7	168	73	8	98	37	0	10	65	192	8	14	160	214	6	3	4	3	4	5	3	21	2	7	17	103	26	39	7	34	54	154	2	0	7	99	61	4	92	33	11	56	15	2	1	10	64	9
OTU 163	0	0	0	0	0	0	0	0	0	1	147	0	0	0	0	0	0	0	0	0	0	2	0	0	4	205	1	0	0	0	0	33	0	0	0	6	0	0	0	1	0	0	0	2	0	0	4	0	0	0
OTU 164	1	0	7	0	31	0	0	0	0	0	13	0	0	0	0	3	24	0	0	30	0	0	0	0	7	0	0	2	0	47	0	0	0	0	44	2	0	0	0	0	0	1	0	0	2	0	1	0	8	17
OTU 165	53	16	7	4	23	0	9	0	22	5	29	16	12	34	0	0	61	0	6	1	0	17	5	89	0	2	7	1	1	60	1	3337	1	18	0	18	1	17	0	19	2	11	5	2	4	0	19	0	1	13
OTU 166	1	0	3	0	0	0	0	4	0	0	0	0	0	0	0	0	16	0	0	0	0	0	0	0	0	0	0	0	24	0	0	3	0	0	0	0	0	0	3	10	0	0	0	0	0	0	0	0	0	0
OTU 167	8	46	1	2	0	4	56	1	64	105	1	3	0	99	26	7	18	128	63	0	0	16	0	0	0	0	200	9	23	31	15	0	2	12	6	0	43	7	1	1	37	23	6	11	11	0	18	117	7	4
OTU 168	1	1	1	5	13	70	73	0	26	0	5	4	1	108	15	0	10	5	134	6	0	25	3	36	50	45	7	2	75	8	1	15	41	3	31	1	4	12	7	20	24	21	19	8	3	0	0	14	0	4
OTU 169	20	0	2	20	0	0	0	15	0	0	0	18	0	0	45	28	0	0	0	0	0	0	0	38	0	0	0	0	0	0	0	0	0	0	0	0	0	3	1	0	0	0	1	0	0	0	0	0	3	0
OTU 170	4	0	0	0	0	23	0	0	0	0	0	0	0	0	0	0	0	0	0	0	0	1	0	0	0	0	0	0	0	0	0	0	0	0	0	0	0	0	1	0	0	0	14	1	0	1	0	0	0	0
OTU 171	60	108	0	77	73	0	2	7	120	0	2	30	1	0	42	150	25	0	0	2669	1	51	1	80	15	10	0	53	1	13	192	3	22	2	246	3	37	112	4	0	43	23	8	23	2	7	8	66	63	6
OTU 172	2	0	3	0	0	24	0	0	0	0	0	0	0	2	0	81	0	0	0	1	0	0	7	0	10	0	0	0	0	109	0	6	7	23	0	0	0	0	1	0	44	0	0	3	0	5	0	0	0	2
OTU 173	0	39	5	40	0	0	7	9	1	0	2	86	0	0	85	16	44	0	0	0	1	103	0	0	19	16	0	33	20	0	9	0	0	12	0	0	4	11	0	0	0	51	5	24	19	0	0	42	0	0
OTU 174	4	65	0	16	27	0	35	1	6	0	467	12	42	25	0	47	22	0	12	42	6	2	0	5	4	0	0	35	26	17	1069	0	23	34	87	6	0	18	0	3	3	0	1	8	3	10	0	0	17	85
OTU 175	2	13	0	7	1	9	18	8	16	2	48	23	15	96	6	19	47	0	51	1	8	35	0	0	24	13	1	21	1	4	1	9	0	21	0	16	7	21	2	26	7	81	99	2	0	7	12	42	0	0
OTU 176	13	2	14	1	5	12	6	1	20	36	12	7	26	17	6	16	158	34	53	2	2	32	10	47	267	46	65	6	1	66	44	42	0	42	3	3	36	6	11	4	15	72	36	1	4	16	5	17	14	61
OTU 177	982	174	21	93	265	45	95	90	10	31	21	275	8	23	29	61	114	33	88	48	0	41	2	161	9	13	63	40	63	3	2	35	2	35	111	0	9	83	2	7	162	15	6	26	3	9	8	5	39	37
OTU 178	158	12	1	0	0	32	23	1	7	1	35	2	0	21	0	12	9	0	21	44	0	22	14	17	8	136	3	1	11	14	0	0	43	13	28	0	2	0	5	0	0	163	1	2	8	1	0	0	0	56
OTU 179	4	11	2	8	27	83	6	0	151	0	53	1	0	1	7	12	35	1	73	70	5	18	0	4	5	14	0	1	0	195	4	0	182	15	5	0	29	7	19	20	28	0	67	0	23	0	1	51	58	7
OTU 180	14	270	2325	68	367	117	113	43	265	78	21	95	139	11	127	91	272	70	646	76	84	513	1261	59	177	20	123	124	133	151	727	8	121	117	68	46	109	104	138	25	57	245	519	46	79	17	71	182	57	2
OTU 181	32	0	0	0	2	12	48	9	17	1	14	9	16	65	9	0	25	0	8	40	0	5	1	22	5	27	2	0	4	0	0	117	1	0	85	0	22	6	3	141	194	169	0	2	0	0	0	49	10	18
OTU 182	0	0	0	0	0	0	0	2	1	0	0	0	0	0	0	0	10	0	23	6	0	0	0	0	1	0	0	0	0	0	1	0	0	0	25	0	0	11	0	0	0	0	1	0	0	1	0	0	5	0
OTU 183	25	25	1	0	4	52	0	1	5	0	0	0	18	70	2	31	20	0	10	2	10	23	5	9	1	193	3	0	26	15	1	136	43	57	2	1	4	11	18	0	14	2	0	2	1	0	0	4	20	29
OTU 184	2	6	0	2	34	0	26	0	10	40	2	0	0	2	4	6	1	54	0	22	0	54	0	1	0	35	69	2	1	45	5	0	21	0	60	0	19	10	2	5	0	0	39	8	3	1	0	11	0	21
OTU 185	0	29	5	9	50	21	2	2401	95	13	6	7	15	38	4	14	6	28	1	4	6	8	5	57	9	210	27	16	59	13	47	58	120	276	1	0	22	21	13	4	184	40	12	43	40	17	5	39	22	36
OTU 186	1	0	136	0	0	0	12	3	7	1	0	0	54	42	0	25	1	1	2	0	90	80	5	0	0	34	1	0	146	1	0	0	0	86	35	0	0	0	139	0	266	26	2	1968	40	0	0	0	0	18
OTU 187	4	564	915	306	95	13	16	101	107	21	9	235	163	24	210	17	116	35	730	15	478	16	483	29	4	163	55	143	14	90	45	59	162	262	97	199	56	192	828	79	41	29	17	132	869	274	331	42	389	23
OTU 188	135	64	32	39	89	27	41	30	171	42	8	25	67	3	40	52	37	28	12	9	21	139	38	140	12	63	101	10	41	133	6	45	299	18	24	24	47	18	50	36	5	21	0	26	26	52	36	47	15	97
OTU 189	38	18	21	18	5	36	96	13	117	3	5	19	303	20	12	28	23	0	9	59	12	55	5	135	66	32	6	203	343	162	10	20	29	11	200	9	22	43	23	27	27	156	93	14	101	10	21	53	15	93
OTU 190	0	0	3	0	0	3	54	0	0	0	49	0	0	67	8	0	0	0	9	12	0	0	0	1	863	19	0	0	0	1	2	33	0	42	1	0	1	2	0	0	0	1	1836	0	0	0	0	0	0	25
OTU 191	38	24	65	45	2	1	19	473	17	3	106	869	1	83	3	3	3	1	61	12	27	224	77	17	2	53	6	0	38	16	24	53	49	8	33	41	23	7	25	23	8	364	8	16	53	26	62	1	21	20
OTU 192	10	135	26	138	40	24	13	21	8	267	59	43	87	198	75	17	38	240	9	4	34	48	61	1	2	226	518	70	205	128	31	34	25	0	53	129	19	48	38	70	252	399	40	95	1	120	323	16	15	31
OTU 193	64	184	16	50	16	37	178	10	20	2	67	20	81	24	5	28	450	0	238	22	16	38	3	4	4	7	3	47	0	3	224	19	135	46	96	11	0	67	24	6	2	18	5	42	5	33	38	5	4	87
OTU 194	31	28	14	3	82	325	16	0	67	46	16	22	0	5	36	0	11	52	0	13	0	1	3	2	132	33	91	1	0	49	887	9	522	40	27	3	35	13	2	0	80	139	384	7	0	0	0	15	0	0
OTU 195	16	42	0	37	0	52	17	5	0	73	26	13	0	11	6	0	0	70	0	7	9	78	7	3	92	5	145	29	128	52	81	10	9	102	5	1	47	6	10	57	9	9	101	33	19	19	5	21	10	12
OTU 196	1	6	22	1	62	7	1	5	3	0	1	4	1	4	49	25	6	1	7	34	10	0	1	36	0	32	0	0	4	5	7	9	2	3	88	1	0	29	34	26	60	36	4	0	24	6	22	43	0	7
OTU 197	153	91	31	59	248	227	60	62	25	34	138	137	653	224	60	133	121	31	127	210	6	146	33	100	1	227	60	61	235	8	57	90	270	97	449	19	30	9	11	26	496	100	35	51	27	29	19	19	25	110
OTU 198	4	0	8	0	7	0	0	0	1	0	0	0	0	23	0	0	74	0	18	0	2	1	6	2	3	5	0	0	50	0	3	55	1	1	0	0	1	1	0	4	67	0	0	0	0	0	0	0	21	0
OTU 199	24	3	0	1	0	18	7	1	47	40	27	0	20	7	0	0	1	52	14	2	1	23	7	0	0	3	89	10	36	35	7	14	3	2	7	0	26	1	0	64	25	11	0	3	44	0	0	47	0	17
OTU 200	3	86	2	56	2	8	7	79	11	12	0	30	1	0	51	109	8	8	11	5	14	106	17	72	1	24	22	10	125	95	12	35	4	1	39	0	4	36	71	6	148	7	0	3	20	4	0	0	11	122
