	Host 1	Host 2	Host 3	Host 4	Host 5	Host 6	Host 7	Host 8	Host 9	Host 10	Host 11	Host 12	Host 13	Host 14	Host 15	Host 16	Host 17	Host 18	Host 19	Host 20	Host 21	Host 22	Host 23	Host 24	Host 25	Host 26	Host 27	Host 28	Host 29	Host 30	Host 31	Host 32	Host 33	Host 34	Host 35	Host 36	Host 37	Host 38	Host 39	Host 40	Host 41	Host 42	Host 43	Host 44	Host 45	Host 46	Host 47	Host 48	Host 49	Host 50	
OTU 1	0	24	1	1	0	0	0	44	12	0	0	0	0	80	0	0	1	0	0	1	0	0	0	25	0	0	0	2	42	0	0	0	0	0	0	0	46	23	20	15	31	0	0	8	0	0	0	0	0	9
OTU 2	1	0	0	0	0	0	0	0	0	0	0	0	0	0	0	0	0	1	1	0	0	0	1	0	0	0	0	0	0	0	2	0	0	0	0	0	0	0	0	0	0	0	0	0	0	0	0	1	0	0
OTU 3	0	0	0	0	0	0	2	0	0	0	0	0	0	0	0	0	0	0	0	0	0	0	0	0	0	0	0	0	0	0	77	0	0	0	0	0	0	0	0	0	0	0	0	0	0	0	1	0	0	0
OTU 4	0	0	0	0	0	0	0	0	0	0	0	0	0	0	0	0	0	0	0	0	0	0	0	0	0	0	0	0	0	0	0	0	0	0	0	0	0	0	0	0	0	0	0	0	0	0	0	0	0	0
OTU 5	9	9	27	0	25	0	1	21	4	3	14	3	28	15	77	50	7	2	0	10	1	20	48	12	1	12	7	44	15	123	33	1	131	13	3	28	16	6	14	55	20	11	18	14	53	15	1	51	2	5
OTU 6	0	0	0	1	0	1	0	2	0	0	0	0	1	0	0	0	0	0	0	1	0	0	1	0	0	1	1	0	0	0	7	0	0	12	1	0	1	0	0	0	0	0	0	0	0	0	0	1	0	0
OTU 7	0	1	0	0	0	0	0	0	1	0	0	0	1	0	1	1	0	1	1	0	0	214	1	0	7	1	4	138	32	0	0	4	0	0	7	1	0	11	1	0	0	0	0	1	0	1	0	0	0	5
OTU 8	0	0	0	0	0	0	0	0	0	0	0	1	0	4	1	2	1	131	1	4	1	0	199	0	4	1	1	0	0	2	0	6	1	1	0	4	0	5	0	0	1	2	1	1	0	1	1	0	0	0
OTU 9	0	0	0	0	0	1	0	2	0	0	0	0	0	1	1	0	0	0	0	0	0	0	0	0	2	1	0	0	0	0	0	0	0	0	0	0	0	0	0	0	0	0	0	0	0	0	0	0	0	0
OTU 10	0	0	0	0	287	0	0	0	0	4	0	2	0	0	1	0	0	2	0	0	2	1	0	0	0	0	0	0	0	0	1	0	0	0	0	0	0	0	0	0	0	0	1	0	0	1	0	0	0	0
OTU 11	0	1	0	0	0	0	2	0	0	0	0	1	0	0	0	0	1	0	0	1	0	0	0	0	0	0	0	0	1	1	0	1	0	2	0	0	1	0	0	0	0	1	0	0	0	0	7	1	1	0
OTU 12	0	0	0	1	5	0	0	0	0	0	0	1	0	0	0	0	0	0	0	0	1	1	1	0	0	0	0	0	0	1	1	0	1	0	0	1	0	0	0	0	0	2	0	0	0	0	0	0	9	0
OTU 13	0	0	0	0	0	0	0	0	0	0	0	0	0	0	1	0	0	0	0	0	0	0	0	0	0	0	0	0	0	3	0	0	0	0	0	0	0	0	0	0	2	0	0	0	0	0	0	1	0	0
OTU 14	0	0	1	0	0	0	0	0	0	0	0	1	0	0	2	0	0	0	1	0	0	1	1	0	0	0	0	0	0	0	0	0	0	0	0	0	1	0	0	1	0	0	1	0	1	0	0	0	0	0
OTU 15	0	0	0	0	0	0	0	0	0	0	0	0	0	0	0	0	0	0	0	0	0	0	0	0	0	0	0	1	0	1	0	0	0	0	0	0	0	0	0	0	0	0	0	0	0	0	0	0	0	0
OTU 16	0	0	0	0	0	0	0	0	0	0	0	0	0	0	0	0	0	0	0	0	0	0	0	0	0	0	0	0	0	0	0	0	0	0	0	0	0	0	0	0	0	0	0	0	0	0	0	0	0	0
OTU 17	0	0	0	0	0	0	0	0	0	0	0	1	20	0	0	0	0	0	0	0	0	0	1	0	0	1	0	2	0	0	3	0	0	0	0	0	0	0	1	0	0	0	0	0	0	0	3	0	0	0
OTU 18	0	0	1	0	0	1	0	0	0	0	0	0	0	0	0	1	0	0	0	0	0	2	0	0	0	0	0	0	0	1	1	4	2	0	0	1	0	1	0	2	0	1	1	0	1	0	0	1	0	2
OTU 19	0	0	0	0	0	0	0	0	0	0	0	0	0	0	0	0	0	0	0	0	0	0	0	0	0	0	0	0	0	0	0	0	0	0	0	0	0	0	0	0	0	0	0	0	0	0	0	0	0	0
OTU 20	0	0	1	2	0	0	0	0	0	0	1	0	0	0	0	1	0	0	0	0	1	0	0	0	0	0	0	0	1	0	0	1	0	1	0	0	1	0	0	0	0	0	1	0	1	2	1	2	1	0
OTU 21	0	1	0	0	2	1	0	0	0	1	0	0	0	0	1	0	0	0	0	0	0	0	1	0	21	0	0	2	0	0	0	0	0	0	0	0	2	0	0	0	0	1	0	0	0	0	0	0	0	0
OTU 22	0	0	0	0	0	0	0	0	0	0	0	0	1	0	0	0	16	0	0	2	0	1	1	0	0	1	0	8	0	0	0	0	0	241	3	0	2	0	0	0	0	0	3	0	0	0	0	0	1	1
OTU 23	0	0	1	0	0	1	0	0	0	0	0	0	0	0	0	0	0	0	0	0	0	0	0	0	0	0	0	1	0	0	0	0	0	0	0	0	0	0	0	0	0	0	1	0	0	0	0	0	0	1
OTU 24	0	0	0	0	0	1	0	0	0	1	0	0	0	0	0	0	0	0	0	0	0	1	0	0	0	0	1	1	2	0	0	0	0	0	0	0	0	0	0	0	0	0	0	0	0	0	0	0	0	0
OTU 25	0	0	0	0	0	0	0	0	0	0	0	0	0	0	0	0	0	0	0	0	0	0	0	0	0	0	0	0	0	0	0	0	0	0	0	0	0	0	0	0	0	0	0	0	0	0	0	0	0	0
OTU 26	0	0	0	0	0	1	0	0	0	0	0	0	0	0	0	0	0	0	0	0	0	0	0	0	0	0	0	0	0	0	0	0	0	0	0	0	0	0	0	1	0	0	0	0	0	0	0	0	0	0
OTU 27	0	0	0	0	0	0	0	0	0	0	0	0	0	0	0	0	0	0	1	0	0	0	0	0	0	0	0	0	0	0	0	0	0	0	0	0	0	0	0	0	0	0	0	0	0	0	0	0	0	0
OTU 28	1	0	0	0	0	0	0	2	0	2	0	0	0	1	1	20	15	5	0	0	0	1	0	0	0	0	2	2	0	0	0	0	0	0	2	1	0	1	0	0	0	0	0	1	0	0	0	0	2	0
OTU 29	1	0	0	0	0	0	0	0	0	0	0	0	2	0	0	2	2	0	0	0	0	0	0	0	0	0	1	0	0	0	1	0	0	1	0	1	0	0	0	0	2	0	1	0	7	3	100	1	0	0
OTU 30	0	0	0	0	0	0	0	0	0	0	0	0	0	0	0	0	0	0	0	0	0	0	0	0	0	0	0	0	0	0	0	0	0	0	0	0	0	0	0	0	0	0	0	0	0	0	0	0	0	0
OTU 31	0	0	0	0	0	0	0	0	0	1	0	0	0	1	0	0	0	0	0	1	0	0	0	0	0	1	0	0	111	0	0	0	0	0	0	0	0	54	0	0	0	0	0	0	0	0	0	0	0	20
OTU 32	0	1	2	0	2	0	0	2	28	0	0	0	0	0	0	2	0	2	0	2	0	0	0	0	0	1	0	0	0	0	0	2	2	1	0	0	0	0	45	10	9	46	2	6	0	2	1	56	0	0
OTU 33	0	0	0	0	0	0	0	0	0	0	0	0	0	0	0	0	0	0	0	0	0	0	0	0	2	0	0	0	0	0	0	0	1	0	0	0	0	0	0	0	0	0	0	0	0	0	0	1	0	0
OTU 34	0	0	0	0	0	2	1	0	0	0	0	2	0	0	0	0	0	0	1	0	0	0	2	0	0	0	0	0	0	3	129	1	0	1	0	0	0	0	0	1	0	0	0	0	0	0	1	0	1	1
OTU 35	2	0	0	0	0	0	0	0	0	0	0	0	1	0	0	2	0	0	0	0	0	0	0	0	0	0	2	0	0	0	1	0	0	1	0	0	0	0	0	0	0	0	0	0	0	0	0	0	0	0
OTU 36	0	0	0	0	0	0	0	0	1	0	1	0	0	0	0	0	0	0	1	0	0	0	0	0	1	0	0	0	0	1	0	1	0	0	0	0	1	0	0	0	0	0	0	0	0	0	0	1	0	1
OTU 37	0	0	0	1	0	0	0	0	2	0	0	0	0	0	0	1	0	0	0	0	5	0	0	0	0	0	0	0	0	1	0	0	0	0	0	0	0	0	0	0	0	0	0	0	0	0	0	0	0	0
OTU 38	0	39	0	1	0	0	0	68	15	0	1	0	1	128	1	0	0	0	0	16	0	0	0	23	0	0	0	0	23	0	1	0	1	1	1	0	64	2	30	7	24	0	0	8	0	1	0	22	0	10
OTU 39	2	0	0	0	0	0	0	0	0	0	162	0	1	0	1	0	0	0	0	0	0	0	0	0	0	0	1	0	0	0	0	1	0	0	0	0	0	0	0	0	0	0	0	0	0	0	0	0	0	0
OTU 40	1	0	4	0	1	0	0	0	0	0	0	0	0	0	1	0	0	0	3	1	0	0	0	0	0	279	3	0	0	2	0	0	1	0	0	1	0	0	0	0	0	0	1	0	0	0	0	0	0	0
OTU 41	0	0	1	0	0	3	30	0	0	0	0	0	0	0	0	0	0	0	0	0	0	0	4	0	0	0	0	0	0	1	1	0	0	1	1	1	0	0	0	0	0	0	0	0	0	0	0	0	0	0
OTU 42	14	0	0	0	0	0	0	0	0	2	0	0	0	0	0	0	0	0	0	0	0	0	3	0	0	0	0	0	0	0	0	0	0	1	0	0	0	0	0	0	0	0	0	0	0	0	0	0	0	0
OTU 43	0	0	0	0	0	0	0	0	0	0	0	0	0	0	0	0	0	0	0	0	0	0	0	0	0	0	0	0	0	0	0	0	0	0	0	0	0	0	0	0	0	0	0	0	0	0	0	0	0	0
OTU 44	0	0	0	0	0	1	0	0	0	0	0	0	0	0	0	0	0	0	0	0	0	0	0	0	1	0	0	0	0	0	0	0	0	0	0	0	0	0	0	0	0	0	0	0	0	0	0	1	0	0
OTU 45	1	1	1	0	28	331	0	0	138	1	0	0	0	0	0	0	2	0	0	2	0	0	0	0	1	0	1	0	1	0	0	0	0	0	0	0	0	3	0	0	0	0	0	0	0	0	152	1	1	2
OTU 46	0	0	0	0	2	0	0	0	2	0	1	0	0	1	1	0	0	1	0	136	0	1	0	0	0	0	0	1	1	1	0	0	0	0	1	1	0	0	0	0	1	0	0	0	1	2	0	0	0	0
OTU 47	0	0	0	0	0	0	0	0	0	0	1	0	0	0	0	0	0	0	0	0	0	0	0	0	0	0	0	0	0	0	0	0	0	0	0	0	0	0	0	0	0	0	0	0	0	0	0	0	0	0
OTU 48	17	1	2	0	0	0	0	0	0	1	1	0	0	0	0	0	0	0	0	0	0	0	0	0	0	0	2	1	0	2	3	0	1	1	0	0	0	1	0	5	5	0	0	2	0	0	1	1	0	0
OTU 49	0	1	0	0	0	0	0	1	1	0	1	0	0	0	0	0	0	0	1	0	0	0	0	0	0	2	0	0	0	1	0	1	0	1	0	0	0	0	0	0	0	0	0	0	0	0	1	1	0	0
OTU 50	0	0	24	0	0	0	0	0	0	1	0	0	0	0	0	0	0	0	0	1	0	0	2	0	0	0	0	0	0	1	0	0	45	1	0	0	0	0	0	0	1	0	0	0	0	0	0	2	0	0
OTU 51	0	0	0	0	1	0	0	0	0	1	0	1	0	0	0	0	0	0	0	0	0	0	0	0	0	0	0	0	0	0	0	0	0	1	0	0	0	0	0	18	16	0	0	15	0	0	0	1	0	0
OTU 52	2	0	0	0	0	9	295	0	0	299	1	4	0	1	0	1	0	0	1	2	0	0	0	0	1	1	2	0	1	2	0	0	0	0	0	0	0	2	0	0	0	0	1	1	2	0	0	0	0	0
OTU 53	0	0	0	0	0	0	0	0	0	0	0	0	0	0	0	0	0	0	0	0	0	0	0	0	0	0	0	0	0	0	0	0	0	0	0	0	0	0	0	0	0	0	0	0	0	0	0	0	0	0
OTU 54	3	1	12	1	0	1	0	1	0	4	0	0	1	1	4	1	1	0	0	1	2	0	3	1	0	0	1	0	1	0	0	0	0	0	0	2	1	0	0	45	110	0	0	44	1	1	4	1	0	0
OTU 55	0	0	0	0	0	0	0	0	0	0	0	0	0	0	0	0	0	0	0	0	0	0	0	0	0	0	0	0	0	0	0	0	0	0	0	0	0	0	0	0	0	0	0	0	0	0	0	0	0	0
OTU 56	2	0	0	1	0	0	0	0	0	0	0	0	0	0	0	0	0	3	1	0	0	0	2	0	0	1	0	0	0	1	0	0	0	1	0	0	0	0	0	0	0	0	0	0	0	0	0	0	0	0
OTU 57	0	0	82	2	0	0	5	0	0	0	0	4	1	2	1	2	3	0	0	2	0	0	1	0	1	0	2	1	0	1	1	0	0	0	0	0	3	0	0	0	0	1	0	1	1	80	0	2	0	2
OTU 58	0	0	0	0	0	0	0	0	0	0	0	0	0	0	0	0	0	0	0	0	0	0	0	0	0	0	0	0	0	0	0	3	1	1	3	0	0	0	1	0	0	0	0	0	1	0	0	0	0	0
OTU 59	0	0	1	0	1	0	0	102	32	0	0	1	1	0	0	0	0	0	0	0	2	0	0	43	0	0	1	0	1	0	0	0	0	0	0	0	0	0	53	0	0	0	0	0	0	0	0	0	1	0
OTU 60	0	0	2	0	1	6	1	0	0	0	1	0	1	4	0	0	0	0	3	0	1	3	0	1	2	52	0	0	1	0	0	1	0	0	1	0	0	2	1	0	0	0	0	0	0	3	0	0	0	0
OTU 61	0	0	2	0	2	0	1	0	0	0	0	1	0	1	3	0	0	0	1	0	0	0	1	0	3	2	1	0	0	1	0	1	0	0	0	2	1	0	0	2	0	0	0	0	0	0	0	1	0	0
OTU 62	0	0	1	0	0	0	0	0	0	0	0	0	0	0	0	0	0	0	0	0	1	0	0	0	0	0	0	0	0	0	0	2	1	0	0	0	0	0	0	0	0	0	0	0	0	0	0	0	2	0
OTU 63	0	0	0	0	0	0	0	3	0	0	0	0	0	0	0	1	0	1	0	0	0	0	0	2	0	0	0	1	0	0	0	1	0	0	0	1	0	0	1	0	0	0	0	1	0	0	0	0	0	0
OTU 64	1	0	0	0	2	0	0	0	0	21	1	1	5	3	0	2	2	0	0	47	4	0	0	1	2	0	0	0	1	0	1	0	0	0	0	0	0	0	0	0	2	1	2	3	2	0	1	0	0	0
OTU 65	0	0	0	0	0	0	0	0	0	0	0	1	0	0	0	0	0	0	0	0	0	0	0	0	0	0	0	0	0	0	0	0	0	0	0	0	0	0	0	0	0	0	0	0	0	0	0	0	0	0
OTU 66	0	0	0	1	0	0	0	1	0	0	2	3	0	0	1	0	0	1	0	0	2	0	2	0	1	0	0	0	0	0	0	2	0	2	0	0	0	0	0	1	0	0	0	0	1	1	0	0	0	0
OTU 67	0	0	0	0	0	0	1	0	0	0	0	4	1	0	0	1	0	0	0	0	0	0	0	0	0	0	0	0	0	0	4	0	0	2	0	0	3	0	1	0	0	0	22	0	1	1	1	0	0	0
OTU 68	0	0	2	2	0	0	0	0	0	0	0	226	0	0	0	0	0	0	0	0	0	0	0	0	0	0	0	0	0	0	0	0	0	0	1	0	0	1	0	0	0	0	0	0	0	0	1	0	0	0
OTU 69	0	0	0	0	1	0	1	0	0	2	3	1	0	0	0	0	1	2	0	0	0	3	0	0	0	0	0	0	3	0	0	1	0	0	0	0	1	0	0	0	0	0	1	0	2	0	1	0	0	0
OTU 70	0	0	0	0	0	0	0	2	23	0	0	1	0	1	0	0	0	0	1	0	0	0	0	1	0	1	0	0	0	0	1	0	1	0	0	0	1	0	44	0	2	0	0	0	0	0	1	0	0	0
OTU 71	0	0	0	6	0	0	1	0	0	0	0	0	0	0	0	0	1	0	0	0	0	0	0	16	0	0	0	4	0	0	0	1	0	0	0	0	0	0	0	0	1	0	0	0	0	1	1	0	1	0
OTU 72	0	0	0	0	0	1	0	0	0	0	0	0	0	4	0	0	0	0	0	0	0	0	1	0	0	0	2	3	0	1	0	0	0	0	0	0	2	2	1	0	0	0	0	0	39	0	1	0	1	0
OTU 73	0	0	0	2	1	1	1	0	0	0	0	0	0	1	0	0	0	0	2	0	0	0	0	0	1	0	0	0	0	0	0	2	0	0	0	1	0	0	1	0	0	0	0	0	0	0	0	0	1	0
OTU 74	0	0	0	0	0	0	0	1	0	0	0	1	0	0	0	0	0	0	0	1	0	0	0	0	2	0	0	0	0	0	0	0	0	0	0	0	0	0	0	0	1	0	0	15	0	0	0	0	0	0
OTU 75	0	1	0	0	1	0	0	0	0	0	0	0	0	0	0	0	0	0	0	1	0	0	0	0	1	0	0	147	0	0	0	1	0	0	0	2	0	0	0	0	0	0	1	1	0	0	0	0	1	0
OTU 76	0	0	0	0	0	0	0	0	0	0	0	0	0	0	0	0	0	0	0	1	0	0	0	0	0	0	0	0	0	0	0	0	0	0	0	1	0	0	0	0	0	47	1	0	0	0	2	0	0	0
OTU 77	1	1	0	0	0	0	0	3	0	0	0	0	0	0	1	0	0	1	2	0	0	0	0	1	0	0	0	3	1	0	0	0	0	0	0	0	2	0	0	0	1	0	2	1	1	0	1	1	0	0
OTU 78	0	0	0	1	0	1	0	0	0	0	0	0	206	1	0	0	0	0	0	0	1	2	0	0	1	0	0	0	0	0	102	0	0	0	0	0	0	0	0	74	0	0	0	1	0	0	1	0	220	0
OTU 79	1	2	0	1	2	1	0	1	0	1	2	0	85	3	0	1	0	1	1	1	0	4	2	1	2	3	0	2	0	1	0	2	0	1	1	0	1	1	4	2	0	1	2	0	2	0	0	199	1	1
OTU 80	1	0	0	47	4	0	2	0	0	1	0	0	1	0	0	0	0	0	0	1	0	1	0	1	0	2	0	0	0	0	1	0	0	0	1	1	0	1	1	0	0	0	3	0	0	3	1	0	0	0
OTU 81	2	0	0	0	0	0	0	0	1	0	0	0	0	0	2	0	0	0	2	0	2	1	0	0	0	0	0	0	0	0	0	0	1	0	0	0	0	0	0	0	1	0	0	0	0	0	0	0	10	0
OTU 82	1	0	0	0	0	0	0	1	0	1	0	0	0	0	0	0	3	0	0	0	0	0	0	0	0	0	0	0	0	0	1	280	0	5	0	0	3	0	0	0	0	3	1	0	0	184	2	1	0	0
OTU 83	0	0	0	0	0	0	0	0	0	0	1	0	0	0	0	0	0	0	0	0	0	0	0	0	0	0	0	0	0	0	0	0	0	0	0	0	0	0	0	0	0	0	0	0	0	0	0	0	0	0
OTU 84	0	0	1	0	0	0	0	0	0	0	2	0	0	0	0	0	0	1	0	0	2	1	0	0	1	0	0	0	0	0	0	0	0	0	0	2	0	0	0	0	1	0	0	0	0	0	0	0	0	0
OTU 85	0	0	0	0	0	1	0	0	0	0	0	0	0	0	0	0	1	0	0	0	0	0	0	0	0	0	0	0	0	0	0	1	2	0	0	0	1	0	0	0	0	0	0	0	0	0	0	0	1	0
OTU 86	0	0	0	0	0	0	0	0	0	0	0	0	0	0	0	0	0	0	0	0	0	0	0	0	0	0	0	0	0	0	0	0	0	0	0	0	0	0	0	0	0	0	0	0	0	0	0	0	0	0
OTU 87	0	0	0	2	0	0	0	0	0	0	1	2	0	0	34	0	0	0	0	0	0	0	0	0	0	0	0	0	0	0	0	0	0	0	0	0	0	0	0	0	0	0	0	0	0	0	0	0	0	0
OTU 88	0	0	0	0	0	0	0	0	0	0	0	0	0	0	0	0	0	0	0	0	0	0	0	0	0	0	0	1	0	0	0	0	0	0	0	0	0	0	0	0	0	0	0	0	0	0	0	0	0	0
OTU 89	0	0	0	0	0	0	0	0	0	1	0	0	0	0	0	0	0	2	0	1	0	0	0	0	0	0	0	0	1	0	0	0	0	0	0	160	0	0	0	0	1	0	0	1	0	0	0	0	0	0
OTU 90	0	0	0	0	0	0	0	1	0	0	0	0	1	3	0	0	0	0	0	0	0	0	0	0	1	0	0	1	0	1	0	0	0	0	0	0	0	0	0	0	0	0	0	0	0	0	0	0	0	0
OTU 91	1	0	0	0	0	0	0	0	0	0	0	0	0	0	0	0	0	0	0	0	0	0	0	0	0	0	0	0	0	0	0	0	0	0	0	1	0	0	0	0	0	0	0	0	0	0	0	0	0	0
OTU 92	0	0	2	0	0	0	0	0	0	0	0	0	0	1	0	0	0	5	0	0	0	0	0	0	0	0	0	0	0	0	0	0	0	0	0	0	0	3	0	0	0	0	0	0	0	0	0	0	0	0
OTU 93	0	0	0	0	0	0	0	0	0	0	0	0	0	0	0	0	0	0	0	0	0	0	0	0	0	1	0	0	0	0	0	0	0	0	0	0	0	0	0	0	0	0	0	0	0	0	0	2	0	0
OTU 94	0	0	0	1	0	0	0	0	0	0	2	1	0	2	0	1	2	1	1	0	4	1	0	1	0	10	1	3	2	0	2	0	0	0	1	0	0	0	0	0	0	0	0	1	0	0	3	0	0	0
OTU 95	0	0	0	0	0	0	0	0	0	0	0	1	0	0	0	0	0	0	0	0	1	0	0	0	1	0	0	0	0	0	0	0	0	0	0	0	0	0	0	0	0	0	0	0	0	0	0	0	0	0
OTU 96	0	0	0	0	0	0	0	0	0	0	0	0	2	1	0	0	0	0	0	0	0	0	0	1	0	0	0	0	1	0	0	0	0	0	0	0	0	1	0	0	0	0	0	0	0	0	0	0	0	0
OTU 97	0	8	0	0	0	0	0	14	0	0	0	1	0	22	0	0	0	0	0	0	0	0	0	8	0	0	0	0	1	0	0	0	0	0	0	0	18	1	6	1	3	0	0	2	0	0	2	0	0	2
OTU 98	0	0	0	113	0	0	0	0	0	0	0	0	0	0	0	0	0	0	0	1	0	2	0	0	0	0	0	0	0	0	0	0	0	0	1	0	0	0	0	0	0	0	0	0	0	1	3	0	0	0
OTU 99	1	0	0	4	0	0	0	0	2	1	1	1	0	1	1	2	0	0	0	1	0	0	0	0	0	3	94	0	1	0	1	0	0	0	1	0	0	0	1	0	0	0	0	0	2	0	1	4	1	2
OTU 100	0	0	1	1	0	0	0	0	0	0	0	0	1	0	0	0	0	0	0	0	0	0	0	0	2	1	0	0	0	1	0	0	0	0	0	8	0	0	0	0	0	0	0	0	1	0	0	0	1	0
OTU 101	0	0	0	0	0	0	0	0	0	0	0	0	0	0	0	0	0	0	0	0	0	0	0	0	0	0	1	0	0	0	0	0	1	0	0	0	0	0	0	0	0	0	0	0	0	0	0	0	0	0
OTU 102	0	0	0	1	0	0	0	0	0	0	0	0	0	0	0	0	0	0	0	0	0	2	0	0	0	0	0	0	0	0	0	0	0	0	0	0	0	1	0	0	0	0	0	0	0	0	0	0	2	0
OTU 103	0	0	0	0	0	0	0	0	0	0	0	0	0	1	0	0	0	0	0	0	0	0	0	0	1	0	0	0	0	0	0	1	0	0	0	0	0	0	1	0	0	0	0	1	0	0	0	0	0	0
OTU 104	1	0	2	0	0	0	3	0	20	0	5	0	0	0	4	1	0	1	1	0	0	0	0	1	35	0	0	0	0	0	0	0	0	0	2	1	1	0	44	0	1	2	1	2	1	0	0	1	0	0
OTU 105	0	0	0	0	0	4	0	0	0	0	0	0	0	0	0	0	0	0	2	0	0	0	0	0	0	0	0	0	0	0	0	0	0	0	0	0	0	0	0	0	0	0	0	0	0	0	0	0	0	0
OTU 106	0	0	0	0	0	0	0	0	0	0	0	0	0	0	0	0	1	0	0	0	0	0	0	0	0	2	0	3	0	0	1	1	0	0	0	0	0	0	0	0	0	0	0	1	1	0	10	0	0	0
OTU 107	0	0	0	0	0	0	17	0	0	0	0	0	0	0	0	0	1	0	0	0	0	12	0	1	0	0	0	0	0	0	2	1	0	0	0	0	0	0	0	0	3	0	0	0	0	0	0	0	0	0
OTU 108	0	3	4	0	0	0	0	0	0	0	2	0	1	0	1	0	0	0	0	2	0	0	0	0	0	0	0	0	9	0	0	0	0	0	0	1	6	2	0	0	0	0	1	0	0	0	1	1	0	2
OTU 109	0	0	0	0	0	0	0	0	0	0	0	0	0	0	0	0	0	0	0	0	0	0	0	0	0	0	0	0	0	0	0	0	0	0	0	0	0	0	0	0	0	0	0	0	0	0	0	0	0	0
OTU 110	1	0	0	2	0	1	0	0	1	0	0	0	0	0	0	0	0	0	1	0	0	2	0	0	0	0	0	0	0	152	1	0	84	0	1	0	1	1	0	0	0	0	0	0	0	0	1	0	1	0
OTU 111	0	0	0	0	0	0	0	0	0	0	0	0	0	0	10	0	0	0	0	0	0	0	0	0	0	0	0	0	0	0	0	0	0	0	0	0	0	0	0	0	0	0	0	0	0	0	0	0	0	0
OTU 112	0	0	0	0	0	0	0	0	0	1	0	0	0	0	0	1	0	0	0	0	0	0	0	0	0	0	0	0	1	1	0	0	0	5	0	0	0	1	0	0	0	0	0	0	0	0	0	0	0	0
OTU 113	0	0	0	0	0	0	0	0	0	0	0	0	0	0	0	0	0	2	0	0	0	0	0	0	0	0	0	0	0	0	0	0	0	0	0	0	0	0	0	0	0	0	0	0	0	0	0	0	0	0
OTU 114	0	0	0	1	0	4	3	0	0	0	1	1	1	0	1	0	0	0	0	0	92	1	0	0	0	0	0	0	0	0	0	2	0	2	0	0	0	0	0	1	0	120	0	1	1	0	1	2	0	0
OTU 115	0	0	0	2	0	1	0	1	0	0	0	0	0	2	1	1	1	1	2	0	30	30	1	0	0	2	0	2	0	0	0	0	3	1	0	1	0	1	0	0	0	0	0	0	0	0	69	1	0	0
OTU 116	0	70	0	1	0	0	1	0	6	0	0	0	14	0	1	0	0	0	4	0	0	0	1	0	0	0	0	0	60	0	0	0	0	0	0	1	135	35	0	2	1	0	0	0	1	0	1	0	0	9
OTU 117	0	0	0	0	2	0	0	0	0	1	0	0	0	0	0	0	0	0	0	0	0	0	0	0	0	0	0	0	2	0	0	0	0	0	1	0	0	1	0	0	0	1	0	0	1	0	0	0	0	0
OTU 118	0	0	0	0	0	0	0	0	1	0	0	0	0	0	0	0	0	1	0	0	0	0	0	0	0	0	1	0	0	0	0	0	0	0	1	0	0	0	0	0	0	0	0	0	0	0	0	0	0	0
OTU 119	0	0	0	181	0	4	0	0	0	3	0	0	0	0	0	0	1	3	0	0	0	0	0	0	1	1	0	1	1	0	0	0	0	1	0	0	1	0	0	0	0	0	0	0	0	0	0	0	1	0
OTU 120	0	14	0	0	0	0	0	0	0	0	0	0	0	1	0	0	0	0	0	0	0	0	0	1	0	0	0	0	0	1	0	0	0	0	0	0	0	0	0	0	0	0	0	0	0	0	0	2	0	0
OTU 121	2	0	0	1	0	0	0	0	0	1	0	0	0	1	2	0	0	0	0	0	1	0	1	0	1	1	0	0	0	0	0	0	0	0	0	0	0	0	4	0	0	0	0	48	0	0	0	4	0	1
OTU 122	3	0	0	0	0	0	0	0	0	2	0	0	0	0	0	0	0	0	1	1	0	0	1	1	0	0	0	0	0	32	0	0	0	0	0	0	0	0	0	1	1	0	3	2	0	0	0	1	0	0
OTU 123	2	138	203	1	0	3	1	1	22	2	3	1	3	2	2	2	2	1	3	2	2	2	26	1	3	0	0	3	1	1	1	51	2	2	1	3	1	1	42	0	1	10	48	1	0	1	0	10	0	0
OTU 124	0	2	0	0	0	0	0	0	0	1	0	0	0	0	0	0	0	0	0	0	0	0	0	0	0	0	1	0	0	0	0	0	0	0	0	0	1	0	0	0	0	0	0	0	0	0	0	0	0	0
OTU 125	6	0	1	0	14	1	0	0	1	0	3	2	0	7	0	0	1	0	0	2	0	66	1	2	1	0	2	0	0	19	1	1	1	1	0	148	0	17	2	1	0	2	0	4	0	1	1	1	0	7
OTU 126	0	0	0	0	0	0	0	0	0	0	0	0	0	0	0	0	0	0	0	0	0	0	1	0	0	0	0	0	0	0	0	0	0	0	0	0	0	0	0	0	0	0	0	0	0	0	0	1	0	0
OTU 127	0	2	0	0	0	0	1	0	0	0	0	0	0	0	3	0	0	0	0	0	0	0	0	0	0	0	0	0	0	0	0	0	86	0	0	0	0	0	0	0	0	0	0	0	0	0	0	0	0	0
OTU 128	2	2	0	1	2	2	3	0	0	3	0	0	0	0	1	6	1	0	1	0	0	0	1	2	2	0	16	0	27	1	0	0	2	3	1	1	4	187	0	5	2	1	1	124	1	1	0	1	0	99
OTU 129	0	0	0	0	0	0	0	1	0	0	0	0	0	0	0	0	0	0	0	0	0	0	0	0	0	0	0	0	0	0	0	0	0	0	0	0	0	1	1	0	0	0	0	0	0	0	0	0	0	0
OTU 130	0	0	1	1	1	0	0	0	0	0	0	1	0	0	0	0	0	0	0	0	1	0	0	0	1	0	0	0	0	0	0	2	0	0	0	0	0	0	0	0	1	0	0	1	0	0	0	1	0	0
OTU 131	1	0	1	0	0	0	1	0	0	0	0	0	0	0	1	0	0	0	0	1	0	0	0	0	0	0	0	0	0	1	0	0	1	0	0	0	0	0	0	0	0	0	0	0	0	27	0	1	0	0
OTU 132	0	0	0	0	2	0	0	0	0	0	0	0	0	0	0	0	0	0	0	0	0	3	0	0	0	0	1	0	0	0	0	0	0	2	288	0	0	0	1	0	0	0	0	0	209	0	0	0	0	0
OTU 133	0	0	0	0	0	0	0	0	0	0	0	0	0	0	0	0	0	0	0	0	0	0	0	0	0	0	0	0	0	0	0	0	0	0	0	0	1	0	0	0	2	0	0	3	0	0	0	0	0	0
OTU 134	0	1	0	0	0	0	4	0	0	0	0	0	0	2	0	0	0	0	0	0	2	0	0	0	0	1	0	0	3	0	1	1	0	0	0	0	1	3	0	0	0	0	0	0	3	0	0	0	0	0
OTU 135	0	0	0	0	1	0	0	1	2	1	0	0	0	0	0	0	0	0	0	0	0	2	0	1	0	0	0	0	0	0	1	1	1	0	0	0	0	0	0	0	0	0	1	0	0	0	4	0	0	0
OTU 136	0	0	0	0	0	1	0	1	0	0	0	1	0	0	1	0	0	1	1	0	0	0	1	0	0	0	0	0	0	0	0	0	0	0	0	1	2	0	1	0	0	0	0	0	0	0	0	0	0	0
OTU 137	0	0	0	0	0	0	0	0	0	0	0	0	0	0	0	0	1	0	0	2	0	0	0	0	0	0	0	0	0	23	0	0	1	0	0	0	0	0	0	0	0	0	0	0	0	0	0	0	0	0
OTU 138	0	0	4	0	0	0	0	0	0	0	1	0	0	0	0	0	0	0	0	0	0	0	0	0	0	0	0	0	0	0	0	1	0	0	1	0	0	0	0	0	1	0	0	0	0	0	0	0	0	0
OTU 139	0	0	1	1	1	4	0	0	0	1	0	1	0	0	1	2	0	0	0	1	2	1	1	0	0	0	0	1	0	0	1	0	6	70	0	3	1	0	0	0	0	0	0	0	5	0	1	1	0	0
OTU 140	0	1	0	0	0	0	0	1	2	0	1	1	4	0	1	5	0	0	0	2	1	0	3	0	3	0	0	1	0	1	0	1	1	0	1	1	0	1	0	0	1	0	244	0	44	0	0	1	1	0
OTU 141	0	0	0	0	0	1	0	0	0	0	0	0	0	0	0	0	0	0	0	0	0	0	0	0	0	0	0	0	0	0	0	0	0	0	0	0	0	0	0	0	0	0	0	0	0	1	0	0	0	0
OTU 142	0	0	0	0	0	0	0	0	0	0	0	0	0	0	0	0	0	0	0	0	0	0	0	0	0	0	0	2	0	0	1	0	0	0	0	0	0	0	0	3	0	0	0	0	0	0	0	0	0	0
OTU 143	0	0	0	0	0	0	0	0	0	0	0	0	0	0	2	0	0	1	0	0	0	0	0	0	0	0	0	2	0	0	0	0	0	0	0	0	0	0	0	0	0	126	0	0	0	0	0	0	0	0
OTU 144	0	0	0	0	0	2	0	0	0	0	1	0	0	0	0	0	0	0	0	0	0	0	0	0	1	0	0	0	0	0	0	0	0	0	0	0	1	0	0	0	0	0	0	0	0	0	0	0	0	0
OTU 145	1	0	0	0	0	1	2	0	0	2	0	0	0	1	0	0	0	0	6	1	0	2	0	1	1	0	1	0	1	0	0	0	0	1	0	0	0	0	0	0	0	0	2	1	0	56	0	0	0	0
OTU 146	0	0	0	0	0	0	0	0	0	0	51	0	0	1	0	0	1	0	0	138	0	4	0	0	0	0	0	0	1	0	0	0	0	6	0	1	0	0	1	19	14	1	0	8	0	0	0	0	0	0
OTU 147	0	0	0	0	0	0	1	0	0	0	0	0	0	0	1	0	0	0	0	0	0	0	0	0	0	0	1	0	0	0	0	0	0	0	0	0	2	0	0	0	0	0	1	0	0	0	0	0	0	0
OTU 148	0	0	0	0	1	0	0	0	0	0	1	0	0	0	0	0	2	0	0	0	1	1	0	0	1	0	1	0	0	2	0	0	0	0	2	1	0	0	0	0	0	0	2	0	0	0	0	0	0	0
OTU 149	0	0	0	0	0	0	0	0	0	4	0	0	0	0	0	0	0	0	0	0	0	0	0	0	0	0	0	0	0	0	1	1	0	0	0	0	0	0	0	1	0	0	0	1	0	0	0	0	0	0
OTU 150	0	0	0	0	0	0	0	0	0	0	0	0	0	0	0	0	0	0	0	0	0	0	0	0	0	1	0	0	0	0	0	0	0	0	0	0	0	0	1	0	0	0	0	0	0	0	1	0	0	0
OTU 151	0	0	0	0	0	0	0	0	0	0	0	0	0	0	0	0	0	0	0	0	0	0	0	0	0	0	0	0	1	0	0	0	0	0	0	0	0	0	0	0	0	0	0	0	1	1	0	0	0	0
OTU 152	0	0	1	0	0	0	0	1	0	0	1	70	0	0	1	2	0	0	0	0	1	0	4	0	0	1	0	0	0	1	0	0	0	0	0	0	0	1	0	0	0	1	0	0	0	0	0	0	0	0
OTU 153	0	0	0	0	0	0	0	0	0	0	0	0	0	0	0	0	0	0	0	0	0	0	0	0	0	0	0	0	0	0	0	0	0	0	0	0	0	0	0	0	0	0	0	0	0	0	0	0	0	0
OTU 154	0	0	0	0	0	0	0	0	0	0	0	0	0	0	0	0	0	0	0	0	0	0	0	0	0	0	0	0	0	0	0	0	0	0	0	0	0	0	0	0	0	0	0	2	0	0	0	0	0	0
OTU 155	0	0	0	0	2	0	1	0	0	0	0	0	0	0	0	0	0	0	0	0	1	0	0	0	2	0	0	0	0	0	0	0	0	0	0	0	0	0	0	0	0	0	0	1	0	0	1	0	0	0
OTU 156	0	28	0	3	1	0	0	59	16	1	1	3	1	89	47	175	0	2	1	0	0	0	1	15	0	1	0	3	39	2	0	0	1	0	0	2	42	15	40	18	38	0	0	13	0	0	0	0	1	7
OTU 157	0	0	0	0	0	0	0	0	0	0	1	0	0	0	0	0	2	2	0	0	0	0	0	83	0	0	0	0	0	1	0	0	1	0	0	0	0	0	0	0	0	3	0	0	1	0	0	1	0	0
OTU 158	0	0	0	0	0	0	2	0	0	0	0	0	0	0	0	0	0	0	0	0	0	0	0	0	0	0	0	1	0	0	0	0	0	0	0	0	0	0	0	0	0	0	0	0	0	0	0	0	0	0
OTU 159	0	32	0	1	0	0	0	0	0	1	0	0	0	0	0	0	0	0	0	0	1	0	0	0	1	0	1	2	0	0	1	1	0	0	0	0	2	0	0	0	0	0	0	0	0	0	0	0	0	0
OTU 160	0	0	0	2	0	0	2	6	2	1	0	0	0	0	0	0	2	1	1	0	0	2	0	7	1	0	0	3	0	0	1	0	2	0	0	0	0	0	4	0	0	0	1	1	0	0	2	0	0	0
OTU 161	0	0	2	2	0	0	1	0	0	0	23	0	0	0	2	1	0	0	2	0	0	1	0	0	0	1	1	0	0	0	0	1	0	0	1	1	0	0	0	0	0	0	12	0	2	0	0	0	2	0
OTU 162	22	0	1	1	0	1	2	10	3	1	0	2	0	1	0	1	0	0	0	3	0	0	0	6	0	1	0	0	0	0	0	2	0	0	0	1	0	0	1	69	0	0	0	0	0	2	0	1	0	4
OTU 163	0	0	0	0	0	0	0	0	0	0	0	1	0	0	0	0	0	0	0	0	0	0	0	0	0	0	0	0	0	0	0	0	0	0	0	0	0	0	0	0	0	0	0	0	0	0	0	0	0	0
OTU 164	0	0	0	0	0	0	0	0	0	0	0	0	0	0	0	0	0	0	0	0	0	0	0	1	0	0	0	0	0	0	0	0	1	0	0	0	0	1	0	0	0	0	0	0	0	0	0	0	0	0
OTU 165	0	0	0	0	0	0	0	0	0	0	2	0	0	1	0	2	0	0	0	0	0	0	0	0	0	0	0	0	0	0	1	0	0	2	0	0	0	0	0	0	0	0	0	0	0	0	0	0	0	0
OTU 166	0	0	0	0	0	0	2	0	0	0	0	0	0	0	0	0	0	0	0	0	0	0	0	0	0	0	0	0	0	0	0	0	0	0	0	0	0	0	0	0	0	0	0	0	0	0	0	0	0	0
OTU 167	0	0	0	0	0	0	0	0	1	0	0	0	0	0	3	0	1	0	0	1	0	0	0	0	0	0	0	0	0	0	0	0	0	0	0	0	0	0	0	0	0	2	0	0	0	0	0	0	0	0
OTU 168	0	0	1	0	0	0	1	0	0	0	0	16	0	0	0	0	301	1	1	0	0	0	0	0	0	0	1	0	0	0	0	0	0	0	0	0	0	0	0	0	0	0	0	0	0	0	1	0	0	0
OTU 169	0	0	0	1	0	0	0	0	0	0	0	0	0	1	0	0	1	0	0	0	0	0	0	0	0	0	0	0	0	0	1	0	0	0	0	0	0	0	0	0	0	0	0	0	0	0	0	0	0	0
OTU 170	0	0	0	0	0	0	0	0	0	0	0	0	0	0	0	0	0	0	0	0	0	0	0	0	0	0	0	0	0	0	0	0	0	0	0	0	0	0	0	0	0	0	0	0	0	0	0	0	0	0
OTU 171	1	0	0	0	0	0	0	0	0	0	0	0	0	0	0	1	0	73	246	1	0	0	0	0	0	1	0	0	1	0	0	0	0	2	0	1	0	0	0	0	0	0	0	0	1	0	0	2	0	0
OTU 172	0	0	0	0	0	0	0	1	0	0	0	0	0	0	0	0	0	0	0	0	0	0	0	1	0	0	0	0	0	0	0	0	0	0	1	0	0	0	0	0	0	0	0	0	0	0	0	0	0	0
OTU 173	0	0	2	0	0	0	0	0	0	0	0	0	3	0	0	0	0	0	0	0	0	0	1	0	0	1	0	1	0	0	0	0	0	0	0	0	0	0	0	0	0	0	0	0	0	0	0	0	0	1
OTU 174	4	0	0	0	0	0	0	0	0	0	0	0	0	1	0	0	0	0	0	0	0	0	1	0	0	0	0	0	0	1	0	0	0	0	0	0	0	0	0	0	0	3	0	1	0	1	0	0	0	0
OTU 175	0	0	0	0	0	0	0	0	0	1	2	0	1	0	0	0	0	0	0	0	1	0	0	0	0	0	0	0	0	0	0	0	0	0	0	0	0	0	0	0	0	1	1	0	0	0	0	0	0	0
OTU 176	0	2	1	1	2	1	0	0	44	0	2	2	0	0	0	1	0	0	0	0	0	0	0	1	1	0	236	0	0	0	0	3	0	0	0	2	4	0	0	0	0	0	2	0	0	2	1	0	2	1
OTU 177	0	1	0	0	0	0	0	0	0	1	0	1	1	0	0	0	0	0	0	1	1	0	0	1	0	0	1	0	0	0	0	1	0	4	1	0	0	0	0	0	0	1	0	0	0	0	0	0	1	0
OTU 178	0	0	0	0	0	0	0	0	0	0	0	0	0	3	0	0	0	1	0	0	0	2	0	1	0	0	0	0	0	0	0	0	0	0	0	0	0	0	0	0	0	0	0	0	1	0	0	0	0	0
OTU 179	0	0	0	0	0	0	0	1	0	0	0	0	0	0	0	0	0	0	0	0	1	1	0	0	0	0	0	0	0	0	0	0	0	0	0	0	0	0	0	0	0	0	0	0	3	1	0	0	0	0
OTU 180	0	2	0	0	0	0	1	0	0	3	0	0	4	0	1	0	0	0	1	1	146	1	0	0	0	0	3	0	2	0	0	1	0	0	4	2	2	0	0	1	0	1	1	0	1	2	0	0	0	2
OTU 181	0	0	0	0	0	0	0	0	0	2	0	1	1	0	0	0	0	0	0	0	0	0	72	54	1	1	0	1	0	0	0	0	0	0	0	0	0	0	0	0	0	0	0	0	1	0	0	0	0	0
OTU 182	0	0	0	0	0	0	0	0	0	0	0	0	0	0	0	0	0	0	0	0	0	0	0	0	0	0	0	0	0	0	0	0	0	0	0	0	0	0	0	0	0	0	0	0	0	0	0	0	0	0
OTU 183	0	1	0	0	0	0	0	0	0	0	0	0	0	0	0	0	1	0	0	0	0	1	1	0	1	0	1	0	0	0	0	0	8	0	0	0	0	0	0	0	0	1	6	0	0	0	2	0	0	0
OTU 184	0	0	0	0	3	0	0	0	0	0	0	0	0	0	0	0	0	0	1	0	0	0	0	0	274	0	0	0	0	0	0	1	0	0	1	0	0	1	0	0	0	0	0	0	0	0	0	1	0	0
OTU 185	0	0	0	0	0	0	2	1	0	12	0	1	1	0	0	0	0	0	0	1	0	0	0	0	0	0	0	0	0	2	2	0	2	0	0	1	0	0	0	0	1	0	3	1	1	0	0	1	0	0
OTU 186	0	0	0	0	0	1	0	0	0	1	88	0	0	0	0	0	2	0	0	0	0	0	0	0	0	0	0	0	0	0	0	0	0	1	0	1	1	0	0	0	1	0	0	0	0	0	0	0	0	0
OTU 187	0	4	1	1	0	1	1	3	0	1	0	3	0	0	0	0	0	144	3	0	1	0	0	0	2	0	0	1	3	1	0	0	1	0	0	0	10	3	0	0	0	1	2	1	0	0	0	0	124	3
OTU 188	280	1	0	0	0	0	0	0	0	1	0	16	0	0	0	0	3	0	1	0	0	1	1	1	0	0	0	2	0	0	2	0	1	0	0	0	4	0	0	0	4	4	1	1	0	1	0	0	1	1
OTU 189	3	0	0	1	0	1	0	0	1	0	4	5	0	0	0	11	12	0	0	1	79	0	0	0	1	0	0	1	0	0	1	0	0	0	0	0	0	1	0	0	0	0	0	0	0	0	3	0	0	0
OTU 190	0	0	0	0	0	0	0	0	0	0	0	0	0	0	0	0	1	2	0	1	0	0	0	0	0	1	0	0	0	0	0	0	0	0	0	0	0	0	0	0	0	0	0	0	0	0	0	0	1	0
OTU 191	3	0	0	0	0	0	0	1	0	0	3	0	0	0	0	91	0	0	2	0	0	2	0	57	0	0	0	0	1	2	1	0	0	0	0	0	0	0	1	0	0	0	0	0	0	0	1	0	0	0
OTU 192	1	2	2	0	0	0	0	0	0	0	2	0	0	1	1	0	0	0	2	0	0	0	0	0	1	0	0	1	0	0	2	1	0	0	51	0	0	2	0	0	0	0	0	0	0	0	0	2	1	0
OTU 193	1	0	0	0	0	1	1	0	0	1	0	0	0	1	0	2	0	0	1	0	0	0	0	0	0	0	0	0	1	1	0	0	0	0	0	0	0	2	0	0	1	1	0	0	0	0	0	2	1	198
OTU 194	0	0	0	1	0	0	0	0	0	0	1	1	1	0	1	0	0	0	0	0	0	0	1	0	0	0	0	0	0	0	0	4	0	0	0	0	0	0	0	0	0	0	0	0	0	0	0	0	0	0
OTU 195	0	0	0	0	0	0	0	0	0	0	1	0	1	0	0	0	1	0	0	0	0	0	0	0	0	0	0	0	0	0	0	0	1	0	12	2	0	0	0	0	0	0	0	0	0	0	0	0	1	0
OTU 196	0	0	0	0	0	0	0	0	0	0	0	0	0	0	0	0	2	0	0	0	3	0	1	0	0	0	0	0	0	1	0	0	0	0	0	0	0	0	0	1	1	0	0	1	0	0	0	0	0	0
OTU 197	1	2	0	0	0	0	1	1	1	2	0	3	1	1	172	1	0	0	90	0	0	0	1	3	1	6	0	0	2	0	2	0	0	1	0	2	2	1	2	38	91	1	0	52	0	0	1	0	1	0
OTU 198	0	0	0	0	0	0	0	0	0	0	0	0	0	0	0	0	0	0	0	0	0	0	0	0	0	0	0	0	0	0	0	0	0	0	0	1	1	0	0	0	0	0	0	0	0	0	0	0	0	0
OTU 199	0	0	0	0	0	0	1	0	0	0	0	0	0	0	0	0	0	0	0	0	0	0	0	1	0	0	0	0	0	0	0	0	0	0	0	0	0	0	0	0	0	0	0	0	0	0	1	1	0	1
OTU 200	0	0	0	1	0	0	1	38	15	0	0	0	0	0	2	0	0	0	0	0	0	0	0	19	1	0	1	0	0	0	0	0	1	3	1	0	2	0	28	0	0	0	0	0	1	0	0	3	0	0
