	Host 1	Host 2	Host 3	Host 4	Host 5	Host 6	Host 7	Host 8	Host 9	Host 10	Host 11	Host 12	Host 13	Host 14	Host 15	Host 16	Host 17	Host 18	Host 19	Host 20	Host 21	Host 22	Host 23	Host 24	Host 25	Host 26	Host 27	Host 28	Host 29	Host 30	Host 31	Host 32	Host 33	Host 34	Host 35	Host 36	Host 37	Host 38	Host 39	Host 40	Host 41	Host 42	Host 43	Host 44	Host 45	Host 46	Host 47	Host 48	Host 49	Host 50	
OTU 1	7	579	1	34	0	2	0	1059	258	0	0	0	8	1834	0	0	0	1	3	2	38	21	0	605	3	0	0	9	749	2	0	0	22	0	0	0	349	384	563	216	625	0	0	317	0	1	0	12	0	189
OTU 2	3	1	0	1	0	5	1	15	3	2	3	3	0	2	4	12	8	23	17	4	0	4	10	0	1	0	2	0	7	1	44	0	2	0	2	6	5	0	15	1	2	0	4	0	5	0	0	7	0	2
OTU 3	0	0	0	1	7	2	6	0	0	0	0	1	0	0	0	13	0	0	1	0	11	11	14	0	0	0	0	0	0	0	1889	1	1	3	0	0	0	0	0	0	0	0	4	1	2	2	6	0	0	0
OTU 4	0	0	0	0	0	0	0	0	0	0	0	0	0	0	0	0	0	0	0	0	0	0	0	0	0	0	0	0	0	0	0	3	1	0	0	0	0	0	0	0	0	0	0	0	0	0	0	0	0	0
OTU 5	233	161	713	10	484	0	61	447	156	117	399	87	688	382	1686	1165	273	82	0	322	72	337	1067	192	42	239	106	1381	270	2871	600	100	3488	280	37	839	240	156	273	1104	627	269	340	419	1270	355	11	1076	140	131
OTU 6	0	7	8	8	0	0	5	8	0	0	0	0	16	1	4	5	0	12	8	5	3	6	18	0	5	34	5	3	1	1	126	1	5	264	9	0	0	0	0	4	4	15	0	3	0	10	1	0	3	1
OTU 7	34	14	18	5	24	19	3	6	8	13	24	8	12	0	0	26	25	8	16	14	31	5338	1	12	48	26	46	3318	711	27	17	77	12	21	183	54	370	234	8	4	18	17	17	24	18	7	6	5	2	170
OTU 8	2	10	23	5	3	1	3	11	3	3	22	6	8	83	10	6	6	3062	24	23	8	5	4938	10	108	39	13	1	9	18	1	86	21	17	15	97	5	25	1	13	47	15	31	36	25	13	31	4	4	19
OTU 9	0	0	0	0	7	0	18	21	6	16	3	9	0	2	10	1	2	0	2	2	0	3	5	10	39	0	5	15	2	0	0	0	0	0	1	0	0	0	10	1	0	0	0	0	4	0	1	0	1	5
OTU 10	0	0	0	7	7504	0	0	0	0	49	2	14	0	1	10	11	9	6	2	0	13	6	2	7	0	0	0	0	11	0	3	7	0	0	0	0	4	0	1	0	1	4	12	0	0	14	9	1	3	0
OTU 11	4	2	2	1	1	2	3	0	1	2	7	19	1	19	0	40	13	0	3	35	12	4	15	4	1	7	3	1	11	1	21	44	1	15	3	3	5	5	0	6	6	10	4	1	1	6	36	42	4	0
OTU 12	1	1	44	22	114	12	2	3	10	7	15	24	0	5	1	14	8	22	18	0	19	1	21	10	0	5	1	5	1	3	7	13	13	2	2	13	0	5	0	4	14	10	6	15	4	1	0	3	228	2
OTU 13	0	0	0	0	0	0	0	0	0	0	1	0	0	0	6	0	0	0	0	0	0	0	0	0	0	0	0	0	0	87	0	0	0	5	0	0	0	0	0	0	19	0	0	21	0	0	1	10	2	0
OTU 14	0	0	34	0	0	10	1	3	0	1	9	1	0	0	14	0	0	4	26	7	1	5	3	3	12	9	0	1	0	22	23	7	1	1	0	7	0	7	0	10	14	2	26	6	20	0	0	0	0	0
OTU 15	1	0	0	0	0	0	0	0	0	0	1	0	0	0	0	2	2	0	0	0	2	0	0	0	2	0	17	16	0	17	0	0	0	0	0	3	0	0	0	0	0	0	0	0	0	0	0	0	0	0
OTU 16	0	1	0	0	0	1	13	0	0	0	0	0	0	0	0	0	0	0	0	0	0	0	0	0	0	0	0	0	0	0	0	0	0	0	0	0	0	1	0	0	0	0	6	0	0	0	0	0	0	0
OTU 17	8	0	0	10	1	0	2	0	6	3	18	4	431	24	0	12	4	2	9	0	0	7	56	0	1	15	19	32	0	1	47	7	1	0	3	1	0	0	12	0	2	0	7	0	0	2	32	6	3	6
OTU 18	15	18	10	0	2	36	4	2	3	0	1	4	4	10	4	4	4	2	12	1	12	41	11	10	3	0	5	3	1	7	80	43	18	4	0	7	0	11	9	20	0	70	35	3	39	5	23	34	6	28
OTU 19	0	0	0	0	0	0	0	0	0	0	0	0	0	0	22	0	0	0	0	0	0	0	0	0	0	0	0	0	0	0	0	0	0	0	0	0	0	0	0	0	0	0	0	0	0	0	0	0	0	0
OTU 20	2	10	7	14	4	22	9	1	7	5	16	13	1	6	0	15	9	2	7	0	22	7	5	6	10	5	4	0	13	1	27	19	6	18	2	10	4	3	1	0	0	0	7	1	13	9	31	4	9	0
OTU 21	1	16	14	2	26	5	16	0	0	21	14	1	11	0	37	0	2	2	1	0	0	17	24	0	582	3	0	20	6	2	3	9	3	3	2	2	3	0	0	8	3	11	8	2	0	5	2	0	5	5
OTU 22	0	5	0	8	13	2	4	0	0	9	0	14	14	0	0	22	512	17	4	10	10	18	45	0	2	10	2	73	2	4	16	2	0	5880	21	14	0	14	0	0	2	0	73	0	34	0	19	30	3	7
OTU 23	5	2	8	4	3	17	0	0	3	0	0	0	0	0	7	2	0	6	0	5	0	1	0	2	0	0	2	3	5	0	0	2	5	1	16	20	4	5	0	1	3	5	21	0	0	6	2	9	0	5
OTU 24	4	0	2	7	1	36	0	0	0	42	0	0	9	0	1	1	6	0	0	20	12	5	3	0	27	1	8	23	10	0	0	35	6	0	2	6	9	2	0	4	1	5	4	21	0	0	9	0	4	2
OTU 25	0	0	0	0	0	0	0	0	0	0	0	0	0	0	0	0	3	0	0	0	0	0	0	0	0	4	0	0	0	2	0	0	0	0	0	0	0	0	0	1	0	2	0	0	2	10	0	0	0	0
OTU 26	0	0	0	9	4	7	0	8	0	5	0	0	0	5	1	3	0	0	1	11	1	3	0	0	0	0	0	0	0	0	0	20	6	2	0	3	0	3	0	2	1	0	0	0	1	0	3	3	0	0
OTU 27	0	0	0	1	0	0	0	0	0	0	0	0	0	0	0	0	0	0	3	0	0	0	0	0	0	0	0	0	0	0	0	0	0	0	0	0	0	0	0	0	0	0	0	1	0	0	0	2	0	0
OTU 28	17	0	9	2	3	6	17	32	0	42	37	2	2	51	2	422	300	25	2	7	18	39	6	11	26	4	24	32	2	8	15	15	11	5	28	14	1	7	1	4	11	0	0	5	11	4	6	17	27	12
OTU 29	11	14	6	5	0	0	14	1	0	2	0	0	40	1	10	20	52	3	2	22	34	2	1	0	9	0	20	2	1	36	21	12	8	54	1	6	2	3	1	3	34	0	4	5	194	56	2566	19	7	5
OTU 30	0	1	0	0	0	0	0	0	0	0	0	0	0	0	0	0	0	0	0	0	0	0	8	0	0	1	0	0	0	0	0	0	0	0	0	0	0	0	0	0	0	0	0	0	17	0	0	0	0	0
OTU 31	2	3	0	4	0	0	1	16	0	14	0	3	3	20	1	0	0	2	0	6	1	10	0	4	0	25	0	0	2730	0	8	0	0	1	4	1	1325	1319	1	18	0	0	0	0	0	0	1	0	0	569
OTU 32	3	25	37	12	23	22	11	10	607	5	3	17	3	17	9	36	1	48	0	49	23	20	2	7	4	10	0	2	5	24	0	4	40	22	4	2	0	3	1267	217	320	1024	29	153	2	18	44	1399	7	0
OTU 33	0	0	0	0	0	0	0	0	13	0	0	3	0	0	0	0	2	2	0	0	0	0	1	0	15	0	0	5	0	0	14	0	29	0	0	0	0	0	22	3	0	0	0	0	0	3	0	8	0	0
OTU 34	24	0	16	0	0	1	3	0	2	16	4	28	0	4	0	4	0	5	25	4	5	3	9	4	6	34	1	3	0	43	3144	2	0	11	1	3	0	2	2	12	2	6	4	0	5	16	5	12	2	6
OTU 35	35	5	0	8	9	1	0	0	1	1	1	15	13	3	0	6	11	5	0	0	7	4	9	3	0	2	20	4	0	1	14	0	1	2	6	5	0	8	0	2	3	1	0	1	7	13	10	3	0	1
OTU 36	3	19	3	5	1	0	23	0	6	1	42	1	1	2	0	3	2	3	4	1	16	1	6	18	5	4	3	4	2	5	3	4	5	6	4	6	2	18	5	0	1	5	4	3	22	0	3	4	6	10
OTU 37	0	0	0	11	0	0	0	11	17	6	0	0	0	1	0	14	2	1	0	0	21	0	6	0	0	0	0	1	0	6	1	0	0	1	0	0	0	1	27	0	1	0	0	0	1	0	0	3	1	3
OTU 38	0	816	3	19	0	5	1	1466	356	0	15	6	3	3376	4	7	0	0	0	359	0	6	1	785	0	3	0	1	645	0	55	1	11	13	23	1	355	291	846	340	598	1	2	403	8	42	1	459	3	197
OTU 39	8	0	0	0	0	0	0	0	0	0	3936	0	11	2	2	7	1	0	6	7	7	0	2	0	0	0	10	0	0	0	0	24	0	1	1	0	0	17	0	0	0	0	0	1	0	0	0	27	0	12
OTU 40	76	0	12	0	5	0	11	8	6	0	1	13	2	1	4	2	0	0	25	10	0	2	10	1	3	6874	30	14	6	15	3	2	26	4	9	50	1	2	4	0	16	3	4	5	26	5	2	1	48	1
OTU 41	28	0	17	0	2	46	723	8	0	1	0	12	0	14	3	35	6	21	0	17	0	0	33	0	4	0	1	8	2	31	16	8	0	3	2	20	2	6	0	8	21	9	6	8	2	9	11	11	16	0
OTU 42	216	0	2	0	0	0	0	0	3	5	0	1	3	6	0	3	7	2	0	0	0	1	43	20	0	2	0	1	0	0	11	0	0	13	0	0	0	3	1	0	0	2	0	0	0	4	0	2	0	0
OTU 43	0	0	0	0	0	0	0	0	1	0	0	0	0	0	1	0	0	0	0	0	0	0	0	0	0	0	0	0	0	0	0	0	0	0	0	0	0	0	0	0	0	1	0	0	0	0	0	0	0	0
OTU 44	6	0	0	2	0	37	0	0	0	0	0	4	0	0	0	0	0	0	0	0	0	12	5	0	9	2	0	0	5	0	0	0	0	0	12	14	2	0	0	0	2	2	0	3	0	0	0	1	0	3
OTU 45	15	4	33	3	524	8136	1	3	3453	23	0	3	16	7	10	16	26	3	4	41	10	7	23	5	6	1	14	12	34	0	6	9	2	11	13	4	17	112	5	3	5	0	0	0	7	1	3962	70	18	64
OTU 46	2	0	1	1	46	26	8	1	16	8	15	0	0	23	100	3	1	13	3	3467	1	42	0	13	5	7	28	7	10	7	1	6	0	21	2	9	3	17	21	0	5	4	7	0	11	12	0	1	1	2
OTU 47	0	0	0	0	0	0	3	0	0	0	11	0	0	0	0	0	6	0	0	11	0	1	0	0	0	0	0	0	0	0	0	0	0	3	0	0	0	0	0	0	0	1	0	0	0	0	0	0	2	0
OTU 48	372	7	14	17	22	7	30	0	1	54	29	9	5	1	2	0	0	15	3	1	1	1	1	2	7	2	37	5	33	3	47	9	17	2	7	19	9	39	0	104	201	2	43	100	0	8	36	20	14	4
OTU 49	45	6	0	1	0	0	0	15	15	0	15	0	0	0	0	0	7	0	17	0	2	3	0	4	0	6	0	8	5	11	0	3	8	27	8	0	3	20	10	4	7	3	3	0	11	7	26	7	21	1
OTU 50	2	0	527	5	9	7	22	0	9	9	55	0	1	0	0	23	1	0	7	29	2	4	5	3	7	39	7	15	10	2	4	2	1039	61	17	21	6	1	2	1	17	2	13	16	2	1	2	22	0	1
OTU 51	1	1	7	9	2	5	6	1	4	4	3	1	9	1	0	0	7	0	11	0	1	3	7	0	0	2	8	0	3	2	11	0	1	20	14	0	2	1	1	249	498	3	0	262	0	0	0	27	0	0
OTU 52	8	2	5	4	8	105	7314	6	3	7339	5	39	4	5	30	16	7	0	30	19	20	16	5	2	25	6	69	29	16	27	17	2	26	9	6	13	4	32	4	11	6	3	15	7	34	5	31	21	18	10
OTU 53	0	0	0	0	0	0	0	0	0	0	0	0	0	0	0	0	0	8	0	0	0	0	0	0	0	1	0	0	0	0	0	0	0	0	0	0	0	0	0	0	0	0	0	0	0	0	0	0	0	0
OTU 54	49	14	446	27	14	13	19	23	5	54	3	15	13	16	35	22	66	8	14	31	35	1	119	12	3	25	10	12	7	6	1	10	5	13	3	17	4	4	3	1279	2375	37	15	1097	19	17	25	19	8	40
OTU 55	0	0	0	0	0	0	0	0	0	0	0	0	0	0	0	0	0	0	0	0	0	0	0	0	0	0	0	0	0	0	0	0	0	0	0	0	0	0	0	0	0	0	0	0	1	0	0	0	0	0
OTU 56	16	0	1	29	2	0	6	1	1	9	0	0	13	1	0	1	1	23	3	0	0	0	28	0	1	10	0	0	0	33	0	3	4	2	0	6	0	0	0	0	1	0	0	0	9	0	2	0	14	1
OTU 57	11	35	1950	49	6	31	56	4	6	11	21	56	13	30	32	5	26	5	2	43	30	13	22	9	14	15	14	62	14	19	17	6	27	12	1	0	7	3	4	1	19	36	28	13	40	1825	7	23	13	4
OTU 58	10	7	0	0	0	6	2	17	16	3	0	3	4	28	0	0	0	1	0	9	6	13	4	1	1	4	0	2	0	4	2	82	17	12	35	0	0	4	12	2	6	4	9	0	16	3	0	7	1	10
OTU 59	1	2	19	6	5	5	0	3009	700	7	2	1	1	0	3	0	0	3	1	1	71	2	0	1381	1	0	2	12	42	0	0	0	12	5	31	0	15	0	1483	3	0	8	2	3	0	0	0	4	11	0
OTU 60	0	0	41	0	20	301	28	18	6	8	29	17	19	61	9	0	14	9	19	4	32	10	2	20	12	1326	13	1	18	1	11	26	1	2	15	10	9	1	17	7	2	15	9	1	3	36	2	10	17	5
OTU 61	5	2	28	3	35	24	16	10	1	7	8	89	0	17	112	24	3	4	18	7	0	4	17	0	20	9	12	31	2	3	3	11	3	37	8	56	0	0	6	15	7	28	2	19	32	1	0	36	1	1
OTU 62	2	0	20	0	5	1	0	2	0	10	0	0	1	12	0	2	5	0	1	0	6	0	0	16	1	6	17	0	4	0	1	34	14	0	2	0	0	2	0	0	14	4	9	3	0	0	0	0	16	0
OTU 63	1	0	12	1	2	0	1	10	11	0	0	9	0	0	0	55	0	0	0	15	0	13	1	18	6	5	4	26	0	1	0	45	0	0	11	22	0	1	7	0	0	0	0	3	0	26	7	1	1	0
OTU 64	2	5	7	29	40	3	3	35	2	547	4	20	83	55	12	36	59	21	13	921	47	15	10	15	22	6	26	14	16	9	7	3	17	2	3	0	11	3	5	6	44	8	39	27	25	6	16	9	22	6
OTU 65	0	1	0	0	0	9	9	0	0	0	0	2	0	0	0	13	0	0	1	0	16	0	0	0	0	0	0	0	0	0	0	1	0	0	0	0	0	0	0	0	0	0	1	0	0	0	0	0	0	0
OTU 66	11	0	1	8	8	2	8	21	0	9	23	32	15	1	4	5	0	4	0	11	16	6	29	3	10	1	1	12	2	1	7	27	5	24	6	4	0	9	5	8	23	2	0	3	19	18	22	4	6	4
OTU 67	1	10	2	2	27	16	15	1	4	17	16	13	3	0	17	19	18	1	1	2	5	0	0	2	4	4	2	14	3	3	47	0	0	54	18	0	1	0	1	3	0	0	553	0	10	19	28	1	15	1
OTU 68	0	0	22	40	1	0	0	21	6	0	3	5488	0	0	0	10	0	3	6	17	1	0	0	13	3	4	1	0	3	0	0	1	0	0	2	5	1	24	1	0	0	1	0	2	12	2	24	0	0	2
OTU 69	3	5	11	1	9	17	17	1	6	11	23	13	3	1	3	1	39	14	22	1	3	37	13	0	0	11	5	14	46	5	1	44	6	16	0	0	19	15	8	8	2	8	14	1	22	4	23	7	5	6
OTU 70	0	10	0	0	1	1	0	25	553	0	1	4	0	10	2	3	0	0	8	0	2	0	12	0	0	14	19	0	2	2	38	14	4	3	0	4	0	0	1120	0	6	6	6	9	8	9	11	1	2	0
OTU 71	2	0	0	45	3	1	7	0	0	0	0	4	7	0	0	15	10	19	0	0	0	12	2	309	1	2	0	226	1	2	0	4	8	2	0	4	0	0	0	0	9	6	9	4	33	5	0	0	15	2
OTU 72	4	0	0	1	0	3	4	9	1	7	19	10	11	27	25	2	0	19	4	5	4	0	7	0	13	4	14	32	5	9	42	3	24	6	6	2	3	4	7	0	0	9	11	1	1023	13	23	14	10	0
OTU 73	11	8	11	23	12	9	9	0	3	2	6	0	2	4	2	7	0	7	10	2	3	1	4	2	5	0	1	3	1	0	8	5	0	4	2	1	0	11	7	0	8	1	2	0	0	0	17	9	25	0
OTU 74	5	7	6	0	4	6	6	16	3	1	12	32	0	8	38	5	0	0	1	0	12	16	5	5	34	6	0	9	13	1	0	0	0	7	8	3	7	3	13	0	13	2	16	310	13	0	6	10	8	3
OTU 75	7	12	1	11	13	4	8	0	2	2	7	1	6	0	11	2	6	4	1	12	3	4	2	5	22	4	1	3641	16	0	0	16	10	8	30	32	4	2	0	0	0	2	75	5	0	1	10	8	8	1
OTU 76	0	0	2	0	3	7	2	0	1	2	3	0	0	6	0	0	0	0	0	1	2	0	1	0	1	3	1	0	0	0	6	0	13	0	3	18	0	1	7	2	0	1144	17	0	3	0	7	0	1	0
OTU 77	20	32	1	18	3	2	1	35	2	10	14	11	0	14	65	3	17	33	38	7	5	6	1	16	0	9	10	6	12	8	4	13	20	22	14	0	3	1	7	4	7	0	42	17	3	4	32	65	3	1
OTU 78	1	1	14	28	7	33	4	16	3	2	2	5	4888	16	0	18	3	1	2	13	3	4	1	2	14	0	7	16	15	0	2408	11	2	2	3	22	3	2	1	1748	2	2	1	15	4	1	0	10	5093	1
OTU 79	19	21	30	16	79	20	5	24	37	11	30	24	2454	64	19	28	12	18	34	35	3	71	37	32	22	59	38	18	19	31	44	17	16	66	64	17	12	16	36	42	8	7	89	20	59	2	17	5122	4	6
OTU 80	41	2	6	1047	30	0	32	9	40	19	8	12	17	7	4	1	10	6	17	29	1	10	2	13	11	21	22	0	6	15	13	16	1	3	23	6	1	12	23	1	1	21	29	0	14	80	9	13	10	5
OTU 81	8	3	1	0	32	14	10	1	7	0	13	22	23	17	24	11	9	6	41	0	48	4	15	0	1	23	11	4	10	14	61	37	19	4	14	16	8	6	8	1	6	14	16	1	6	22	6	20	226	0
OTU 82	30	15	1	0	1	1	0	2	0	29	0	2	11	3	5	0	52	5	9	5	1	5	0	0	1	0	3	8	5	6	36	6787	1	54	0	0	2	1	0	7	0	54	12	2	18	4454	43	17	2	3
OTU 83	0	0	0	0	0	15	25	0	0	4	7	0	2	0	5	2	0	4	0	0	0	0	5	0	0	0	2	0	15	0	0	0	1	2	3	3	8	0	0	0	0	0	0	0	1	0	0	0	0	0
OTU 84	2	0	23	0	0	11	0	0	0	14	17	0	0	11	0	0	4	21	0	3	29	3	3	0	0	2	7	10	0	0	1	0	0	5	1	59	0	0	0	7	5	1	6	2	0	7	11	0	1	1
OTU 85	0	1	3	0	0	10	0	1	0	1	10	3	11	0	11	0	11	0	0	3	1	0	1	6	0	0	0	0	0	0	2	28	23	0	0	0	0	0	0	3	0	0	7	1	1	0	0	0	23	0
OTU 86	0	0	0	4	0	0	0	0	3	0	0	0	0	0	0	4	0	0	2	0	0	0	0	0	0	0	6	4	0	0	0	0	0	0	2	0	0	0	0	4	1	0	0	4	0	0	1	0	0	0
OTU 87	7	1	3	4	0	0	0	1	0	0	2	40	5	0	856	0	0	0	0	1	2	0	0	0	0	7	5	1	0	0	0	0	0	1	11	0	0	1	2	2	1	0	4	6	22	2	4	15	0	0
OTU 88	3	1	0	0	0	0	0	0	4	0	1	0	0	6	0	0	0	0	0	0	0	2	0	0	0	1	0	6	16	0	0	0	5	0	0	0	14	0	12	0	6	36	3	1	0	0	23	0	0	0
OTU 89	1	0	0	27	0	21	0	0	0	51	3	15	0	3	0	3	3	0	0	5	6	0	14	14	0	18	0	10	13	1	5	0	0	19	10	3860	2	1	0	19	5	11	4	8	9	9	5	4	4	0
OTU 90	0	0	1	0	0	0	0	0	0	0	0	0	7	57	0	7	0	0	0	0	0	0	0	2	15	0	0	3	0	24	0	0	0	0	0	1	0	0	0	0	18	0	0	8	5	0	0	1	0	0
OTU 91	0	0	0	0	0	0	0	0	0	0	0	0	0	0	0	0	0	0	1	0	6	0	0	0	1	0	0	0	4	0	0	0	0	6	0	28	4	0	0	0	0	0	0	0	2	0	0	0	1	0
OTU 92	0	1	22	0	12	0	0	0	2	3	0	0	0	29	2	0	0	195	9	0	18	3	3	0	1	0	0	0	0	0	0	4	2	3	5	0	0	10	2	0	5	0	7	1	1	0	7	0	0	0
OTU 93	0	3	0	0	0	1	0	0	2	0	0	0	1	0	1	4	0	0	0	0	0	0	0	0	0	0	0	1	0	0	0	0	1	0	0	1	0	0	0	0	0	0	0	0	0	0	0	15	2	1
OTU 94	2	7	7	7	6	4	4	12	1	2	60	11	12	15	3	30	0	5	2	15	33	2	30	14	5	152	20	41	19	0	50	23	0	10	12	4	10	1	4	5	10	1	7	4	4	1	70	5	3	0
OTU 95	0	0	0	0	2	4	2	0	1	0	0	10	0	16	2	7	0	0	0	0	6	2	1	0	12	0	0	3	0	10	24	0	2	0	0	8	0	6	2	1	2	5	0	0	6	0	0	5	1	0
OTU 96	1	0	0	0	0	0	0	3	0	0	0	1	10	16	0	0	0	0	3	0	0	0	0	3	0	0	0	0	19	0	0	0	0	0	2	0	8	3	0	0	0	0	0	0	0	0	0	0	1	0
OTU 97	0	233	0	0	0	0	0	305	54	0	0	2	0	457	2	1	0	0	0	2	0	0	0	154	0	0	0	1	137	11	0	0	16	0	0	0	63	18	129	48	105	0	0	67	0	0	13	4	0	12
OTU 98	1	7	0	2742	0	1	13	29	0	2	1	0	0	18	23	0	5	0	0	4	4	23	0	1	0	4	1	1	1	1	0	0	0	0	18	0	1	2	0	2	0	0	5	0	0	5	50	0	1	1
OTU 99	17	6	22	62	0	2	1	25	10	8	57	20	6	28	6	47	15	23	5	36	6	8	1	2	0	20	2126	6	7	6	13	9	6	1	41	2	5	7	22	2	1	3	6	13	11	5	7	25	10	16
OTU 100	0	3	5	2	6	3	5	0	1	0	10	9	14	0	13	0	2	0	3	3	25	9	1	0	18	9	0	0	0	32	4	10	3	15	8	109	0	1	1	1	0	22	1	0	9	7	0	0	8	0
OTU 101	0	0	0	0	0	0	0	0	0	0	0	0	0	0	0	0	1	0	4	0	0	0	1	1	0	0	17	0	0	0	0	0	6	0	0	0	0	0	0	0	0	0	3	0	0	2	1	0	0	6
OTU 102	2	0	11	7	4	0	0	4	0	0	0	1	0	0	0	0	0	2	1	0	0	5	13	0	0	1	0	3	1	1	2	0	7	0	0	0	0	5	0	0	7	1	0	0	0	0	1	13	28	5
OTU 103	8	0	8	6	0	0	4	0	24	10	5	7	1	26	0	2	4	9	4	1	0	0	2	30	6	1	3	3	2	2	0	56	14	2	2	11	3	1	18	0	0	3	2	0	7	1	0	31	0	4
OTU 104	16	8	19	3	3	19	48	2	437	0	36	0	9	4	59	8	0	19	44	1	12	5	1	21	947	6	0	26	2	14	9	17	4	52	60	7	1	7	862	2	13	14	19	72	18	11	4	21	10	10
OTU 105	4	0	2	1	0	11	0	0	1	0	1	0	0	6	0	0	0	0	71	0	0	1	2	0	0	0	4	0	0	0	0	0	0	2	0	2	0	0	2	9	0	2	0	0	0	15	0	0	0	0
OTU 106	8	0	4	0	0	0	4	1	1	0	0	0	0	0	0	0	7	0	2	0	4	3	0	0	0	16	0	29	0	2	10	4	0	10	0	1	0	0	0	0	3	0	3	5	3	0	290	0	1	0
OTU 107	1	1	1	4	0	1	570	11	4	0	10	0	16	19	0	0	1	0	0	1	0	435	0	4	0	0	0	0	6	0	53	19	1	1	0	0	1	12	11	19	33	7	0	6	0	1	0	0	4	4
OTU 108	2	54	25	6	5	28	0	3	1	2	14	0	12	9	16	0	1	3	0	16	2	11	0	13	0	4	16	4	196	2	1	0	1	1	2	3	99	18	9	7	1	2	10	0	38	2	6	7	11	25
OTU 109	0	0	0	0	0	0	0	0	0	0	0	0	0	0	0	1	0	0	0	0	0	0	0	0	0	0	0	0	0	0	0	0	0	0	0	0	0	0	0	3	0	0	0	0	0	0	0	0	0	0
OTU 110	1	1	2	20	14	17	20	0	1	2	0	3	14	13	10	3	0	8	11	3	0	22	8	1	11	12	3	11	10	4069	8	6	1981	0	5	0	3	11	4	12	19	5	3	2	12	0	7	0	18	23
OTU 111	0	0	1	0	2	0	0	0	0	0	0	0	4	0	210	0	0	2	1	0	10	0	0	0	0	6	0	0	1	0	0	0	0	0	0	0	0	0	0	0	0	0	0	2	0	0	2	8	0	0
OTU 112	0	0	0	4	3	0	0	0	0	5	0	0	31	0	1	0	9	0	0	3	1	0	1	0	0	6	2	0	8	11	0	0	6	48	17	0	3	7	0	0	0	0	0	0	7	0	0	0	0	0
OTU 113	0	3	3	0	0	0	3	2	12	0	0	0	0	0	0	0	0	20	8	3	0	0	0	0	0	0	1	0	0	0	1	1	0	0	0	15	0	0	28	0	0	4	0	0	2	0	0	0	1	0
OTU 114	16	5	2	0	4	66	28	13	1	15	9	40	12	0	37	5	25	3	7	7	2389	6	7	5	2	10	9	11	4	2	4	11	18	15	5	36	4	14	11	25	23	2627	6	23	7	5	24	35	11	3
OTU 115	13	10	8	43	20	19	0	1	1	30	3	15	11	25	43	29	25	12	48	4	666	743	37	4	8	5	9	22	9	3	12	9	42	7	0	16	7	11	0	6	4	11	4	2	28	0	1708	8	18	0
OTU 116	16	1831	11	22	1	16	9	2	141	0	16	3	363	1	28	0	21	2	34	5	13	3	10	4	6	4	0	0	1855	0	15	9	0	0	22	23	1300	994	0	18	8	16	9	10	34	23	15	14	2	532
OTU 117	10	0	0	4	30	17	11	5	2	14	3	0	15	5	33	1	0	0	8	3	13	7	6	4	9	47	39	1	3	0	17	0	0	0	4	9	0	33	2	0	0	9	8	2	2	15	0	34	1	2
OTU 118	0	0	0	1	0	0	0	3	2	0	1	0	0	1	0	2	22	3	15	0	0	0	0	0	0	1	14	0	0	0	0	0	4	0	0	11	0	1	3	0	5	0	0	0	0	0	0	0	4	0
OTU 119	18	20	8	4671	15	42	3	0	0	40	25	7	6	59	6	1	26	44	8	1	4	1	15	4	38	7	0	24	16	7	0	6	6	42	0	8	12	2	7	15	16	25	25	1	8	0	3	3	1	6
OTU 120	0	284	11	0	0	0	0	0	1	0	1	1	4	6	0	3	0	24	2	4	0	0	9	5	0	5	0	0	4	14	0	2	12	1	0	0	0	3	3	0	4	0	10	0	4	0	2	12	2	0
OTU 121	19	0	1	17	13	1	1	4	9	0	2	1	1	8	24	8	0	0	0	32	14	4	20	9	24	1	9	0	0	7	11	4	1	0	7	1	0	1	21	0	1	9	0	988	0	3	1	55	0	11
OTU 122	54	0	0	4	7	0	10	2	0	28	0	0	2	3	23	9	16	16	14	19	1	8	13	6	5	0	0	5	5	743	3	0	3	2	0	1	1	6	0	29	24	1	15	19	4	23	8	22	3	8
OTU 123	38	3766	5068	48	7	53	9	11	509	71	50	36	54	22	69	78	55	26	60	21	68	32	640	53	20	28	24	87	29	43	63	1379	31	44	22	60	14	17	1026	5	31	121	1318	19	20	48	30	196	12	6
OTU 124	4	30	2	1	0	0	7	0	1	4	0	0	0	0	0	4	0	0	1	0	10	0	0	1	27	14	5	0	0	0	0	1	0	1	0	1	0	0	0	0	0	0	0	0	0	0	0	4	0	1
OTU 125	122	5	56	4	179	50	43	19	32	36	38	43	1	36	45	14	8	25	23	56	24	1869	26	8	46	0	37	10	16	435	27	65	39	13	1	3611	7	325	30	17	28	118	7	24	20	33	16	11	6	187
OTU 126	0	0	0	0	1	2	2	3	0	17	0	0	0	0	0	1	2	0	0	0	0	0	22	0	0	4	0	0	0	0	0	0	35	0	0	1	0	11	0	0	0	0	0	0	0	7	0	23	0	0
OTU 127	0	12	3	2	4	0	5	4	0	11	7	0	30	1	29	27	6	3	1	1	6	1	10	1	12	0	0	0	7	3	18	6	1855	0	6	3	1	6	3	2	21	16	5	7	7	2	0	2	2	5
OTU 128	75	33	20	62	13	52	60	21	5	60	17	74	0	15	34	67	72	8	24	19	18	11	52	19	19	29	333	45	756	28	43	18	20	37	7	8	1380	4630	4	55	31	28	39	3260	20	22	18	37	16	2452
OTU 129	1	0	3	0	0	0	0	8	7	0	0	0	0	0	0	12	0	0	0	0	0	18	0	0	0	0	0	1	0	27	0	0	3	3	0	0	0	17	19	0	0	1	0	0	2	1	0	0	0	0
OTU 130	0	1	0	11	18	2	11	1	6	8	0	22	17	5	1	1	0	11	2	2	9	0	16	0	27	0	2	5	25	0	3	16	2	19	0	23	12	0	3	0	13	2	0	5	3	4	1	12	0	1
OTU 131	7	0	28	0	0	0	2	0	0	0	4	4	6	6	1	8	3	4	5	27	0	0	15	0	0	12	2	3	3	5	2	5	3	0	1	5	2	13	0	0	8	0	2	0	0	657	1	7	5	0
OTU 132	1	0	0	3	28	0	1	0	7	7	0	0	0	5	7	0	3	0	1	0	2	21	1	0	0	0	36	0	4	3	0	0	9	15	7039	9	3	5	9	1	0	0	0	0	4907	11	6	2	2	0
OTU 133	0	2	0	0	0	1	0	12	0	0	0	0	0	0	0	1	13	2	0	0	0	0	0	1	0	0	21	1	0	7	0	0	0	0	1	0	0	0	0	25	15	1	0	12	0	0	10	0	0	0
OTU 134	2	13	0	0	6	1	23	5	1	2	0	17	2	60	5	0	20	2	3	1	5	16	18	3	5	68	0	7	21	2	23	1	6	18	0	2	12	8	0	2	0	0	1	2	18	0	2	1	3	14
OTU 135	5	5	1	2	9	8	3	17	6	12	0	0	4	5	0	11	17	1	10	14	18	26	5	11	15	6	6	9	14	2	19	13	5	0	9	5	4	0	19	0	6	40	22	0	11	20	32	3	0	3
OTU 136	35	13	5	0	0	20	0	5	4	0	1	11	1	1	2	4	0	5	1	0	5	0	0	0	2	2	7	0	0	0	0	9	3	0	3	16	0	0	9	0	4	0	0	11	1	2	0	0	0	0
OTU 137	0	0	0	5	0	2	0	0	0	4	4	3	1	1	2	0	7	2	8	3	13	0	0	0	11	0	0	0	0	554	0	1	7	4	0	2	0	0	3	0	0	0	0	0	4	5	0	7	2	0
OTU 138	2	0	61	0	0	2	2	0	0	0	26	0	3	0	1	0	0	3	0	1	0	0	0	14	1	0	0	2	0	1	0	4	0	0	26	2	0	0	0	0	6	11	0	3	0	0	2	0	0	0
OTU 139	19	10	1	7	4	7	7	16	0	4	24	21	12	8	41	24	13	0	8	15	20	7	19	10	13	10	2	7	2	15	13	10	33	1931	0	54	4	3	5	2	14	3	2	2	79	7	7	22	8	9
OTU 140	22	30	13	22	1	6	13	31	13	4	47	17	36	16	43	78	16	10	31	18	60	29	41	18	64	16	15	15	3	17	19	21	31	4	24	12	4	11	10	38	4	7	5766	2	1059	11	31	27	26	11
OTU 141	0	0	0	0	0	5	0	0	0	0	0	0	0	1	0	2	0	1	0	0	1	0	0	0	0	0	2	1	0	1	0	0	0	0	0	0	0	0	0	0	0	0	0	0	0	0	3	0	0	0
OTU 142	4	0	0	0	0	0	0	0	0	0	0	9	0	0	0	0	0	5	0	0	0	0	0	0	0	0	0	1	2	1	11	0	0	1	0	0	2	0	0	6	0	0	0	0	0	0	0	0	7	0
OTU 143	2	0	1	0	0	2	6	0	3	0	0	3	1	0	21	1	0	4	0	1	0	0	3	1	0	0	0	16	1	15	4	46	0	12	0	1	0	2	3	6	3	3517	0	0	0	2	0	0	0	0
OTU 144	0	0	0	4	0	6	0	9	0	8	5	0	0	3	0	5	0	0	1	0	0	0	1	0	8	3	0	0	0	1	2	0	0	8	0	8	0	2	0	0	0	0	0	4	0	0	7	0	0	10
OTU 145	9	5	0	2	9	16	17	4	14	30	3	0	1	14	0	18	3	5	66	13	0	24	0	3	15	4	32	35	14	27	23	0	6	7	8	24	7	7	22	1	5	12	19	9	12	1463	27	21	1	0
OTU 146	11	8	4	16	1	7	20	7	10	1	1196	0	0	24	4	1	7	0	4	3573	2	25	0	1	8	14	0	1	11	18	32	2	13	75	3	6	2	1	16	615	340	20	4	168	1	2	4	0	8	3
OTU 147	0	11	2	2	3	2	5	5	4	1	4	0	7	1	14	1	0	12	1	7	0	6	1	0	2	1	16	0	1	0	0	9	0	4	4	1	850	12	10	1	0	0	15	0	17	0	0	11	0	3
OTU 148	0	0	3	0	13	0	0	1	0	2	8	26	8	12	4	3	14	0	5	1	10	28	10	0	43	0	18	3	12	36	6	1	31	41	16	11	7	0	0	0	1	1	39	3	0	8	0	2	0	0
OTU 149	4	0	2	0	0	2	1	0	0	226	11	2	0	0	5	8	0	0	0	1	0	2	0	5	0	7	4	3	5	0	6	8	0	3	1	0	1	3	0	26	30	0	0	10	0	0	0	0	0	1
OTU 150	7	2	6	0	0	0	0	7	0	11	0	18	1	3	8	2	2	0	19	0	0	4	2	0	0	10	5	10	0	0	0	2	1	0	0	1	0	1	5	1	0	0	2	0	4	3	8	0	0	0
OTU 151	10	6	0	14	3	0	0	0	1	0	0	0	1	5	2	10	7	7	0	5	0	0	3	4	0	4	7	8	10	0	4	12	0	13	5	35	2728	1	1	0	3	23	11	0	21	5	3	7	3	1
OTU 152	2	2	6	0	11	0	0	18	6	0	1	2153	2	1	15	37	6	5	8	6	19	6	62	3	5	8	2	2	3	6	10	11	14	0	19	5	0	17	3	2	3	6	17	2	17	4	2	19	6	12
OTU 153	0	0	4	0	0	0	0	1	0	0	0	0	0	6	0	0	0	0	0	0	0	0	0	1	0	7	0	12	0	0	1	7	0	0	0	0	0	0	0	0	0	0	0	0	0	2	0	0	0	0
OTU 154	0	0	0	0	0	0	0	6	0	0	0	2	0	22	0	1	0	0	0	0	0	0	0	0	1	0	6	0	0	0	0	0	0	0	0	0	0	0	0	0	0	0	0	1	2	1	0	0	0	9
OTU 155	0	1	0	0	24	7	1	2	0	2	21	3	1	0	1	2	0	15	0	0	2	0	18	1	46	0	3	5	3	3	8	6	9	16	0	0	0	0	7	1	5	0	7	13	3	0	4	2	1	0
OTU 156	22	483	14	38	37	2	3	1238	403	4	9	37	10	2272	1217	4273	9	15	13	9	0	5	26	518	3	16	19	16	862	26	4	1	10	10	5	40	416	510	761	408	636	10	19	357	11	3	1	6	10	188
OTU 157	0	0	0	0	0	0	0	0	0	0	1	2	0	5	7	0	25	4	0	20	0	0	0	1908	0	10	0	0	6	0	0	0	8	2	0	2	3	0	0	0	0	43	0	4	14	0	0	19	1	0
OTU 158	0	4	0	0	6	0	12	0	0	0	0	0	0	0	0	0	0	7	5	0	2	0	0	0	0	0	0	3	0	0	0	0	0	0	0	0	0	0	0	1	0	0	0	0	0	0	0	0	0	0
OTU 159	3	758	2	36	0	6	0	0	2	12	2	0	4	0	18	21	6	3	5	28	3	2	0	1	8	3	11	19	0	39	11	8	1	2	11	0	0	6	0	9	0	0	0	0	10	0	0	0	15	0
OTU 160	15	12	3	24	9	8	34	219	60	18	1	3	18	8	13	17	29	28	10	8	9	38	19	186	9	28	0	44	5	24	43	7	35	13	4	16	5	2	120	0	3	26	27	3	24	8	6	19	4	2
OTU 161	0	1	12	29	12	1	1	0	1	0	761	0	0	6	54	18	9	13	7	1	14	5	1	0	4	22	6	4	1	5	5	4	4	2	24	12	0	0	0	0	0	6	528	1	24	6	7	0	6	1
OTU 162	661	0	15	6	0	6	71	219	31	9	3	61	1	50	10	8	2	0	48	42	10	0	14	117	0	22	2	8	20	1	5	21	4	5	0	29	10	24	66	1770	18	4	14	2	6	23	5	15	25	64
OTU 163	0	0	0	0	0	0	0	0	0	0	0	18	0	0	0	0	0	0	0	0	0	7	1	0	0	0	0	5	0	0	0	0	0	0	0	1	0	0	0	0	0	0	0	0	0	0	0	0	0	0
OTU 164	0	0	0	0	0	0	0	1	0	0	0	0	0	0	0	0	0	0	11	0	0	3	0	2	0	0	0	0	0	0	0	0	6	0	0	0	0	4	0	0	0	0	1	0	6	0	7	0	0	0
OTU 165	1	0	0	0	17	4	10	6	1	1	16	4	0	5	2	22	4	2	0	0	21	8	2	2	8	1	0	3	0	1	6	0	2	4	17	2	0	17	1	2	0	10	0	2	9	7	3	1	0	0
OTU 166	0	0	0	1	2	0	29	0	4	0	0	0	0	0	0	0	0	0	0	0	0	0	0	0	0	0	0	0	0	0	0	0	0	0	0	2	0	0	3	0	0	0	0	0	0	0	0	0	1	0
OTU 167	2	2	1	6	2	0	0	0	4	0	15	0	31	0	53	0	22	9	4	2	2	0	20	7	2	3	0	0	0	0	1	6	1	0	1	6	0	2	8	3	1	19	0	7	3	0	0	17	0	15
OTU 168	26	6	11	4	1	19	5	1	4	15	18	368	0	0	11	1	7070	16	20	1	0	4	1	10	8	2	1	3	4	0	0	2	2	12	0	12	2	5	3	2	0	0	0	2	2	4	32	6	10	0
OTU 169	7	0	0	66	0	1	18	0	0	0	0	0	0	33	0	0	0	0	0	0	0	1	0	0	0	0	0	0	0	0	0	0	0	1	1	0	0	0	0	0	0	0	0	0	0	0	0	0	0	0
OTU 170	0	0	0	0	0	0	0	0	0	0	0	0	0	0	0	0	0	0	0	0	0	0	0	0	0	0	0	0	2	0	0	0	0	0	0	0	3	0	0	0	0	0	0	0	0	0	0	0	0	0
OTU 171	21	0	0	0	7	3	0	0	4	3	5	0	10	1	2	28	1	1547	6434	20	1	0	0	0	1	7	0	12	6	2	1	1	2	18	0	8	3	0	8	1	17	2	1	0	4	1	3	15	0	0
OTU 172	0	0	0	1	0	0	0	12	0	0	0	2	4	0	0	0	0	0	0	0	0	1	0	6	3	0	0	0	0	0	0	3	0	0	4	0	0	0	0	8	2	2	0	0	0	0	0	0	0	0
OTU 173	1	1	2	1	6	0	0	0	0	1	0	0	20	1	1	1	7	0	0	2	0	1	9	6	2	35	14	1	2	0	0	0	0	6	1	1	2	1	0	8	0	0	4	0	12	0	0	4	0	10
OTU 174	32	0	0	7	1	0	2	7	7	7	18	0	3	7	2	1	5	1	10	0	10	1	1	1	1	0	1	0	3	34	35	10	1	1	0	10	0	1	3	0	0	7	0	15	3	67	6	3	28	2
OTU 175	2	0	0	0	1	3	2	2	8	10	37	1	6	0	2	7	1	1	0	0	20	1	1	0	4	0	11	4	0	5	0	16	5	3	7	0	0	2	21	0	0	19	3	1	2	0	0	3	0	0
OTU 176	10	58	14	60	34	24	4	2	1301	0	25	32	9	0	0	11	2	30	0	13	22	5	17	6	12	0	6123	2	7	0	2	26	3	0	1	34	6	16	4	3	13	3	16	1	4	29	18	11	35	15
OTU 177	5	20	11	6	0	8	23	0	0	8	2	19	17	2	1	4	3	5	0	13	7	1	0	7	19	7	19	13	0	3	4	9	7	68	11	0	0	13	5	1	15	10	1	0	0	7	15	5	5	5
OTU 178	0	0	1	6	23	13	1	4	1	2	0	6	2	21	0	0	2	19	7	4	1	6	1	8	0	2	16	1	1	4	7	5	0	0	3	6	0	2	2	6	3	1	2	5	16	0	4	0	0	0
OTU 179	3	5	1	0	0	6	0	5	1	2	8	0	0	9	0	0	2	0	36	0	12	25	0	0	4	2	15	0	0	2	1	0	0	2	0	0	0	0	5	0	0	0	1	2	32	15	1	0	0	6
OTU 180	12	17	56	23	28	23	27	2	2	59	16	5	33	9	11	2	19	24	22	44	3659	34	22	12	10	10	44	22	22	13	36	21	10	7	29	27	14	8	19	32	13	3	24	14	21	59	16	15	11	13
OTU 181	0	0	7	0	0	0	1	2	7	19	0	26	3	0	0	3	1	0	0	6	1	0	1674	1243	4	24	3	4	0	1	0	3	10	2	0	0	0	0	13	5	1	3	0	6	17	7	5	3	0	1
OTU 182	0	0	2	0	0	0	0	0	0	0	0	0	0	0	2	0	0	0	2	0	0	0	0	0	0	0	0	1	0	0	0	0	0	0	0	0	0	0	0	0	0	0	0	0	0	0	0	0	0	0
OTU 183	5	1	3	9	0	4	0	6	0	9	1	1	0	2	1	16	20	28	6	0	2	22	51	0	6	8	7	2	9	0	8	0	321	1	0	0	4	0	0	0	6	7	41	0	4	3	5	6	0	2
OTU 184	0	1	0	6	10	7	1	1	0	0	8	0	9	0	1	1	19	5	0	2	0	0	1	3	6985	20	0	10	0	10	4	35	0	0	0	0	0	9	0	12	3	0	5	8	0	0	0	34	0	0
OTU 185	7	1	15	4	1	17	4	5	23	317	26	17	6	1	4	1	2	2	1	32	2	3	8	1	3	0	8	1	1	8	30	0	59	9	38	5	1	9	37	12	41	6	24	10	2	11	1	37	4	13
OTU 186	0	0	4	0	11	32	0	16	0	5	2127	7	4	0	2	3	4	5	0	1	0	0	4	0	1	0	0	0	0	0	0	7	5	19	6	32	0	0	2	0	7	3	1	0	2	0	0	2	0	0
OTU 187	0	175	39	44	0	3	3	11	9	37	15	37	0	2	0	4	3	3978	75	24	7	11	1	1	32	1	2	7	113	5	15	5	11	1	2	8	66	110	4	13	10	15	22	15	15	5	7	5	3349	144
OTU 188	6934	12	2	7	1	8	17	20	5	13	3	362	10	14	13	4	47	1	2	17	13	16	23	15	15	28	8	25	1	21	19	14	11	9	6	17	0	1	12	26	46	51	8	7	4	27	21	1	6	22
OTU 189	29	5	13	15	2	9	12	2	23	3	47	43	2	5	22	310	437	3	0	23	1721	5	46	6	50	4	6	17	4	0	15	2	14	9	34	7	3	18	8	0	4	7	14	3	4	7	48	1	5	3
OTU 190	0	0	0	0	1	9	0	0	0	0	3	0	1	0	0	0	15	20	0	10	0	1	4	0	0	31	0	0	0	21	0	0	0	0	0	0	0	0	0	0	0	0	8	0	0	0	6	0	1	0
OTU 191	56	1	1	0	14	8	3	10	6	1	61	6	1	21	0	2311	3	13	28	2	7	14	14	1303	0	7	5	6	23	6	2	0	8	0	4	1	10	16	13	0	1	14	8	0	4	9	14	1	14	1
OTU 192	8	21	23	12	11	1	12	8	0	17	33	7	0	17	19	7	34	1	24	14	11	15	9	9	9	2	3	0	0	2	71	7	0	14	1273	17	0	16	7	1	1	23	14	2	6	2	1	73	16	1
OTU 193	32	1	0	3	1	37	23	7	10	32	10	2	4	45	1	20	12	11	7	3	0	28	11	0	1	2	8	3	6	19	8	31	15	3	5	1	5	17	20	28	14	14	18	8	5	8	4	47	7	4509
OTU 194	2	4	0	11	0	0	2	2	1	0	4	1	11	0	33	0	0	0	0	1	2	1	14	0	4	0	0	1	1	0	0	47	0	7	1	0	0	0	0	0	4	1	0	0	3	6	0	1	0	0
OTU 195	1	1	1	25	3	30	2	14	1	0	4	1	48	7	0	9	0	1	0	1	12	0	4	15	0	6	1	0	0	27	4	2	30	18	280	16	0	2	3	17	5	0	1	1	2	0	0	36	8	0
OTU 196	9	0	20	4	0	8	1	1	1	7	1	2	0	6	2	0	19	2	1	1	57	2	45	3	40	1	1	8	0	10	7	8	2	0	10	0	0	22	3	8	20	0	0	17	7	2	0	0	1	3
OTU 197	19	36	11	6	64	13	21	34	8	24	4	19	33	24	4278	18	7	3	2044	3	5	13	25	40	9	108	23	16	13	21	19	10	6	14	5	13	5	16	19	1064	2533	2	3	1304	45	21	11	10	1	1
OTU 198	13	2	5	0	0	0	1	0	2	0	0	1	6	0	0	0	0	0	0	0	0	20	2	0	0	1	9	0	0	0	0	9	0	3	8	29	0	0	7	0	0	7	1	0	0	0	0	0	0	3
OTU 199	3	0	8	0	0	13	0	2	2	0	0	0	30	3	4	0	2	11	19	8	0	6	4	3	0	1	4	1	9	10	3	5	10	0	0	0	8	0	1	0	0	0	0	0	0	0	4	16	0	0
OTU 200	1	15	2	33	0	0	49	1027	330	10	1	7	0	3	29	22	10	0	8	3	19	0	1	469	5	1	8	3	4	7	0	9	11	55	15	3	3	1	566	0	2	14	3	0	14	8	6	43	14	3
