	Host 1	Host 2	Host 3	Host 4	Host 5	Host 6	Host 7	Host 8	Host 9	Host 10	Host 11	Host 12	Host 13	Host 14	Host 15	Host 16	Host 17	Host 18	Host 19	Host 20	Host 21	Host 22	Host 23	Host 24	Host 25	Host 26	Host 27	Host 28	Host 29	Host 30	Host 31	Host 32	Host 33	Host 34	Host 35	Host 36	Host 37	Host 38	Host 39	Host 40	Host 41	Host 42	Host 43	Host 44	Host 45	Host 46	Host 47	Host 48	Host 49	Host 50	
OTU 1	21	3	2	65	96	43	49	146	124	70	7	0	9	68	67	190	0	227	43	82	5	55	0	95	33	122	526	13	0	44	65	52	75	201	117	46	40	2	77	9	181	220	0	166	12	14	60	69	62	133
OTU 2	0	72	22	42	1	0	77	75	15	32	0	30	4	54	3	106	1	0	0	0	392	30	6	1178	1	16	25	6	4	0	0	3	10	2	0	106	6	21	4	7	59	0	19	0	12	0	13	17	9	0
OTU 3	0	7	19	5	0	4	0	6	1	0	37	0	0	0	2	0	9	2	4	0	0	1	82	0	0	14	0	0	0	4	1	2	1	0	0	2	2	0	16	0	90	1	0	18	0	0	3	0	0	0
OTU 4	0	0	0	0	0	0	0	0	0	0	0	0	0	0	0	0	0	0	0	0	0	2	0	0	0	0	0	0	0	0	0	0	0	0	0	0	0	0	0	0	0	0	0	0	0	0	0	0	0	0
OTU 5	267	489	268	394	404	647	444	421	3	480	5	156	821	57	0	26	51	1009	287	248	144	214	291	112	269	113	1446	817	0	1418	305	488	11	293	2029	179	137	74	228	140	0	17	111	429	315	236	448	227	305	178
OTU 6	1	0	0	11	7	35	69	0	6	11	25	4	12	29	23	0	0	24	3	0	36	96	27	1	5	15	44	28	7	21	40	5	0	36	45	12	17	0	7	5	3	0	34	7	594	5	0	17	0	42
OTU 7	1985	41	71	18	143	132	59	86	47	5	277	23	41	1552	160	43	140	7	35	9	77	85	139	648	31	62	4	419	143	394	52	2383	21	203	113	21	9	2125	149	45	19	113	72	100	27	30	49	101	17	34
OTU 8	61	76	882	20	5	57	11	20	11	151	3	755	13	73	39	75	59	17	2	19	37	48	68	8	71	77	29	94	127	7	86	383	10	72	19	99	66	387	23	24	292	55	54	85	7	30	34	289	3	39
OTU 9	0	8	42	0	22	0	4	19	0	4	90	26	13	39	12	0	0	6	0	2	45	19	50	4	8	33	7	44	4	0	6	0	0	51	6	2	0	18	30	0	4	10	1	9	10	0	0	42	0	0
OTU 10	1	39	0	0	18	82	0	0	4	0	86	8	46	14	32	12	9	5	0	0	33	1	1	0	3	0	9	0	4	25	0	15	3	17	1	3	2	9	0	0	66	0	152	0	0	0	10	2	1	1
OTU 11	1	0	18	4	18	74	14	7	69	44	138	1	27	54	10	142	1	26	6	23	12	68	0	33	21	10	67	72	46	15	22	39	47	13	47	4	20	0	36	58	0	52	7	61	39	4	96	121	38	13
OTU 12	68	2	12	28	6	9	90	43	7	40	22	13	49	12	83	71	100	26	58	12	30	83	3	46	199	66	73	11	27	41	9	5	4	149	11	87	64	13	106	16	21	33	68	102	76	28	13	12	3	16
OTU 13	0	0	0	0	3	20	0	8	0	0	0	4	0	0	3	0	2	0	13	0	0	0	0	12	1	0	4	0	3	0	0	4	0	0	1	0	1	0	0	0	2	0	0	0	0	1	0	24	0	0
OTU 14	1	12	44	26	0	8	116	3	0	17	3	18	6	6	7	9	57	0	0	1	66	75	0	36	102	0	0	0	8	0	0	2	0	28	22	0	75	14	19	0	75	0	14	1	12	1	7	0	0	0
OTU 15	0	0	1	0	1	0	0	0	0	0	0	0	0	0	0	0	0	0	0	14	0	2	0	0	0	9	0	0	0	0	0	0	0	0	1	0	0	0	0	0	0	2	0	1	0	0	5	11	0	26
OTU 16	0	0	0	0	0	1	0	0	0	0	0	0	0	2	0	0	0	0	0	0	5	0	0	0	0	1	0	0	0	0	0	0	0	0	0	0	0	0	0	0	0	0	0	0	0	5	0	0	0	0
OTU 17	3	61	27	31	0	5	73	14	3	25	23	0	22	62	4	3	10	0	71	3	0	27	0	0	44	21	4	12	2	0	12	13	0	93	0	9	1	2	4	17	26	33	0	48	0	13	0	0	2	13
OTU 18	3	7	4	3	33	5	95	13	13	28	36	53	2	40	4	2	15	27	13	19	395	61	20	5	51	59	34	17	11	4	20	0	4	201	10	6	57	64	21	59	63	104	61	13	16	59	47	25	8	94
OTU 19	0	4	39	0	0	0	0	0	0	0	0	0	0	0	32	0	0	0	0	0	0	0	0	0	20	0	0	0	188	0	0	0	0	0	0	0	0	0	0	0	0	0	0	0	0	0	0	0	0	0
OTU 20	13	116	9	2	3	10	0	18	4	76	104	5	21	5	28	42	8	0	4	15	5	8	37	33	1	7	47	3	15	3	7	4	2	39	24	6	22	1	7	29	3	34	1090	13	37	17	15	63	0	7
OTU 21	15	4	200	55	3	90	19	9	84	13	113	4	69	9	58	0	123	27	39	2	64	113	200	111	45	0	56	52	58	0	7	31	38	27	0	17	15	6	3	22	189	172	20	22	291	20	35	135	43	60
OTU 22	14	184	11	0	24	39	6	55	62	13	111	22	51	191	264	47	17	7	11	3	0	7	29	23	18	32	0	8	73	0	0	25	13	5	60	39	7	4	2	12	0	174	2	298	3	64	17	31	17	14
OTU 23	11	14	0	28	0	1	28	2	60	0	0	37	0	0	18	3	0	67	23	16	82	0	2	0	73	3	34	0	61	15	12	2	41	256	14	10	14	14	3	26	0	9	56	0	0	0	1	10	27	2
OTU 24	1	1	3	28	0	0	25	0	3	21	289	10	65	75	3	24	2	0	34	0	48	37	0	0	7	70	11	6	24	6	14	0	1	11	22	66	3	10	0	12	46	0	7	0	1	31	1	2	3	1
OTU 25	0	0	0	0	0	0	0	0	0	0	0	0	0	0	0	0	0	0	0	1	0	0	9	0	0	0	0	0	0	0	0	0	0	64	0	0	0	0	0	0	0	0	0	0	0	0	0	0	0	0
OTU 26	6	2	0	1	0	2	0	1	1	2	0	1	12	0	7	0	2	0	2	0	12	0	0	2	0	0	1	4	0	0	0	0	2	0	2	0	0	0	29	0	0	0	0	0	4	34	0	0	0	0
OTU 27	0	0	0	0	0	0	16	0	0	0	0	0	0	0	0	0	0	0	1	0	1	9	0	0	0	0	0	0	0	4	0	0	0	16	0	0	1	0	0	12	0	0	0	0	0	0	0	0	0	0
OTU 28	5	5	105	163	13	6	90	3	5	56	35	19	33	56	20	3	7	15	100	9	33	70	116	76	123	9	39	10	30	105	17	2	1	86	79	5	38	10	37	2	1	61	11	106	61	36	9	0	4	76
OTU 29	118	3	37	25	33	13	5	74	23	16	7	549	21	55	535	0	138	42	45	1235	31	70	224	77	103	625	132	111	240	20	6	1	5	206	10	52	107	313	53	131	140	144	32	78	35	237	30	121	13	79
OTU 30	0	0	0	0	0	17	0	0	0	0	0	0	0	0	0	0	0	0	0	0	0	0	0	0	0	0	0	0	0	0	0	17	0	0	0	0	0	0	0	0	0	0	0	0	0	0	0	0	0	0
OTU 31	47	2	7	4	0	74	0	6	29	326	9	0	628	11	2	2	867	0	11	7	0	0	0	860	0	9	1	2	0	12	0	2	6	0	0	38	36	1	0	267	0	19	0	0	28	97	52	3	10	74
OTU 32	151	63	299	366	49	1	58	19	33	76	161	66	12	169	39	145	76	11	733	75	11	780	32	110	146	103	78	717	46	71	1	6	11	17	44	1031	61	76	1	42	49	5	34	14	2	50	0	1335	9	102
OTU 33	0	0	0	5	0	0	0	0	0	0	0	3	0	66	0	17	11	0	72	0	0	0	0	1	0	3	4	0	0	0	73	0	0	0	13	0	0	0	1	0	11	0	0	0	0	0	2	1	0	0
OTU 34	27	95	93	4	24	20	48	66	47	2	9	9	53	103	8	179	105	5	2	43	39	74	44	7	4	4	0	0	12	10	19	17	40	72	1	23	39	15	25	2	126	84	15	9	38	10	16	58	23	115
OTU 35	35	10	16	6	0	20	19	11	0	2	30	1	7	2	12	0	15	4	5	43	8	2	128	6	55	54	0	24	88	4	2	0	1	17	5	61	0	11	40	43	72	56	5	10	14	1	1	36	0	85
OTU 36	8	75	3	22	84	16	18	0	1	0	269	1	1	0	97	72	4	5	5	9	27	13	158	7	0	65	17	3	31	44	6	2	0	97	41	90	0	13	4	3	116	45	0	82	33	15	1	1	0	7
OTU 37	25	0	3	0	18	4	8	1	0	0	0	0	1	0	0	17	0	0	0	0	0	0	12	1	13	0	2	0	0	31	0	10	0	0	0	5	0	8	2	0	5	0	1	1	3	0	20	2	0	0
OTU 38	35	110	64	4	34	5	9	4	4	10	0	19	10	44	178	52	65	15	637	6	51	15	364	61	6	5	35	0	0	58	40	12	2	14	5	855	12	14	13	0	108	0	0	68	2	19	2	1	2	3
OTU 39	3	0	0	0	3	292	0	13	0	15	93	0	0	0	0	0	15	27	1	10	9	0	23	0	5	0	49	87	0	0	8	63	0	3	0	0	46	0	0	29	0	3	5	1	0	5	87	79	0	40
OTU 40	39	56	74	1	12	48	95	13	9	85	53	98	18	32	4	115	8	5	11	28	102	29	21	3	21	13	8	22	20	63	28	18	12	16	24	41	10	62	29	12	42	22	40	14	103	36	15	21	5	126
OTU 41	1	111	16	34	17	4	0	2	1658	9	55	31	1	67	1	69	5	31	0	0	59	35	4	55	2	29	24	42	7	10	1076	8	782	2	36	55	22	25	14	2	68	12	1	13	3	12	0	26	831	12
OTU 42	1	0	57	0	0	3	12	7	0	0	0	0	0	0	61	1	0	0	0	0	0	7	0	0	0	0	0	5	79	0	0	1	0	9	1	13	0	0	0	2	0	1	0	1	0	0	0	0	0	0
OTU 43	0	0	0	7	0	0	0	0	13	0	0	0	0	0	0	0	0	0	0	0	7	0	0	0	0	0	0	0	0	0	0	0	6	6	0	0	0	0	0	0	0	0	0	0	0	0	2	0	5	0
OTU 44	16	0	0	5	0	1	0	0	0	0	11	0	72	0	0	20	5	6	10	2	11	0	0	0	0	5	0	3	0	7	0	1	0	7	14	0	3	1	6	19	7	1	18	7	0	0	0	1	0	0
OTU 45	36	126	1	21	39	9	46	0	5	7	22	5	0	14	0	70	23	2	118	23	16	81	26	179	60	23	4	9	68	1	42	8	2	63	33	4	7	0	35	23	35	63	11	57	65	3	4	6	0	18
OTU 46	99	45	56	115	0	0	118	2296	91	8	178	116	0	51	76	1	2	19	8	10	124	211	35	3	2	62	58	3	7	6	5	0	46	11	744	40	48	1126	80	12	13	93	35	21	97	25	29	0	59	62
OTU 47	0	0	0	0	43	0	3	0	0	0	23	2	0	0	30	19	24	52	3	22	0	59	0	0	3	4	75	0	0	11	1	0	0	0	1	31	0	3	0	5	0	0	0	0	2	0	5	8	0	11
OTU 48	83	279	4	4	17	44	42	17	35	28	51	75	0	75	14	38	108	46	13	1483	31	89	26	9	21	7	58	6	2	39	1	12	14	28	28	62	0	24	4	1	31	70	8	2	64	19	14	5	14	0
OTU 49	7	13	5	50	6	14	23	3	2	0	1	0	1	6	13	24	24	0	122	1	42	62	1	44	1	42	1	58	3056	3	6	0	1	11	3	2	0	1	43	1	5	52	52	0	33	101	35	16	1	16
OTU 50	32	4	14	28	25	19	5	37	5	54	59	9	25	11	15	105	5	23	81	1975	19	55	50	93	31	41	85	20	4	26	5	8	4	5	7	39	10	1	4	24	27	74	20	43	72	994	1	22	1	21
OTU 51	13	6	27	0	6	0	6	4	27	1	2	8	0	0	134	0	2	18	0	1	9	4	29	4	19	1	107	43	5	36	3	1	5	1	7	0	2	0	75	4	4	19	2	0	0	1	15	20	10	6
OTU 52	28	99	64	14	103	105	21	74	17	23	58	69	8	40	96	179	29	0	24	17	84	35	42	186	2	51	1	96	9	68	15	48	14	74	42	9	22	43	6	20	43	17	77	82	1	582	66	110	8	6
OTU 53	0	0	0	0	0	0	0	0	0	0	0	0	0	0	0	0	0	0	0	0	1	0	0	0	0	0	0	0	0	0	0	0	0	0	0	0	0	0	0	2	0	0	0	0	0	2	0	0	0	0
OTU 54	6	5	77	16	21	38	4	66	19	14	114	6	1624	195	58	119	15	18	27	20	811	64	205	243	98	72	56	77	63	428	12	0	22	37	4	3	35	4	1649	58	83	28	108	52	38	37	13	38	8	65
OTU 55	0	0	0	0	0	0	0	0	0	0	0	0	0	0	0	0	0	0	0	0	0	0	0	0	0	0	0	0	0	0	0	0	0	0	0	0	0	0	0	0	0	9	0	0	0	1	0	0	0	0
OTU 56	2	52	0	5	47	21	4	5	0	1	0	3	2	0	1	6	39	0	149	3	20	0	16	8	21	0	6	0	54	0	2	17	0	13	13	10	0	1	0	0	11	0	10	71	105	0	0	0	0	0
OTU 57	27	126	29	20	64	36	36	14	103	36	15	16	92	166	174	68	138	118	42	23	86	138	174	135	36	7	182	101	118	38	124	20	56	152	13	58	102	32	1112	31	45	278	79	67	23	74	36	211	51	131
OTU 58	4	140	24	17	28	2	0	10	0	14	76	14	20	8	30	2	0	0	9	14	10	38	4	127	0	42	0	0	3	1	0	3	0	0	0	1	22	11	24	37	1	3	51	4	6	25	24	8	0	5
OTU 59	0	18	73	22	318	4	4	0	2	85	46	0	297	0	0	96	7	2	3	0	24	43	26	0	4	30	4	2	10	59	11	2	3	0	2	3	42	1	24	0	0	6	12	10	0	14	0	11	2	0
OTU 60	25	10	31	58	2	2	0	38	8	15	72	16	2	123	3	160	13	44	50	20	74	46	193	64	82	13	90	70	129	19	20	16	4	3	1200	1	3	5	5	9	136	17	2	50	4	1	7	83	6	8
OTU 61	102	397	27	21	342	501	1102	96	55	90	62	908	144	485	11	306	46	558	204	4	210	26	114	8	17	161	1302	428	135	97	18	198	21	1915	70	937	42	400	739	18	55	4	1316	111	9	40	167	849	23	4
OTU 62	8	90	0	16	3	0	1	0	5	0	10	0	0	6	1	1	21	0	0	0	13	55	0	0	0	32	0	3	6	2	1	3	2	28	1	2	0	0	1	8	88	0	25	28	3	12	7	1	1	1
OTU 63	37	7	25	26	4	47	0	29	70	58	12	0	1	4	0	0	0	20	8	0	3	131	0	0	3	12	20	1362	1	3	32	4	33	0	2	4	3	1	5	0	12	159	1	0	0	3	2	2	37	3
OTU 64	6	31	47	56	78	12	25	4	41	18	96	107	10	95	36	0	30	17	92	28	134	60	28	10	89	123	16	107	82	28	16	23	39	4	138	30	0	46	37	25	24	53	29	148	15	88	41	121	26	41
OTU 65	0	0	0	0	7	0	0	0	19	0	0	1	0	0	0	0	0	0	0	0	32	0	0	22	42	0	6	0	3	0	0	0	4	0	0	0	0	0	0	3	0	0	0	2	0	0	0	0	9	0
OTU 66	77	337	2	39	7	2656	16	0	4	103	19	65	26	46	58	67	38	0	2	8	9	20	32	8	8	0	22	8	152	0	0	1482	0	73	343	33	7	56	3	24	12	41	70	945	90	3	1846	35	0	31
OTU 67	28	29	316	11	28	44	2	10	10	7	32	35	39	1	98	1	8	103	34	7	29	5	35	32	30	0	159	2	14	14	5	101	13	3	602	3	11	15	5	0	34	0	17	761	19	0	17	138	5	11
OTU 68	0	0	11	13	0	18	61	68	1	0	0	0	1	8	0	0	32	0	11	0	12	35	0	23	6	0	0	39	6	0	5	1	3	73	0	0	0	0	75	5	0	95	62	5	0	28	14	221	1	0
OTU 69	18	7	16	66	23	27	31	30	7	7	82	37	11	207	23	286	88	67	54	1	0	15	11	74	9	23	52	6	21	1	25	0	1	14	47	13	4	18	23	1	18	65	114	21	16	17	28	10	3	12
OTU 70	0	1	1	44	0	0	0	3	0	85	189	1	53	23	41	4	3	63	8	4	3	27	8	975	27	2	25	20	27	1	0	3	0	86	10	0	3	0	1	9	1	0	6	13	89	30	0	29	0	0
OTU 71	54	1	525	22	18	0	0	2	0	7	29	2	4	3	11	29	0	20	46	0	67	50	47	0	21	71	76	47	3	1	0	13	0	3	16	5	56	0	12	0	105	24	2	52	0	29	0	78	234	6
OTU 72	0	15	41	44	7	20	16	20	33	0	58	14	6	10	0	4	11	7	5	4	72	7	18	3	1	21	3	9	45	20	1	7	19	2	93	22	10	3	2	0	6	45	9	69	1	0	15	5	15	8
OTU 73	2321	15	3	0	3	19	71	40	23	77	0	21	1	25	6	75	40	10	6	56	278	5	70	0	9	115	1	47	40	0	0	35	14	279	2	96	76	32	27	58	2	114	62	12	16	100	3	8	11	101
OTU 74	6	12	1	140	5	5	3	11	1011	9	34	69	2	12	142	47	48	9	12	3	0	53	176	53	1	8	2	18	4	12	558	40	463	54	32	4	0	66	5	4	39	5	6	126	9	18	0	148	540	2
OTU 75	25	238	51	4	21	1	22	227	12	14	62	44	4	51	53	4	12	13	14	6	216	0	33	3	0	8	1	24	38	23	92	13	10	18	687	0	34	23	48	11	94	108	128	91	2	26	10	7	7	4
OTU 76	9	1	0	4	0	1	0	0	2	0	15	6	0	0	57	51	22	9	0	522	31	0	0	0	3	9	1	0	0	9	0	0	4	6	0	2	511	0	1	400	51	0	0	7	16	0	0	10	1	1101
OTU 77	7	56	11	40	145	8	121	95	3	32	93	6	1	10	59	10	74	1	21	1	26	8	16	15	88	43	0	23	40	114	3	3	3	129	17	29	6	7	94	2	97	13	117	6	91	17	25	31	802	13
OTU 78	11	55	9	0	64	129	221	3	14	16	27	57	3	7	47	43	20	104	18	18	71	17	101	20	3	0	457	164	29	35	5	43	6	404	38	104	3	26	233	42	30	39	312	143	16	59	18	164	7	56
OTU 79	18	39	128	202	57	102	119	15	3	300	254	107	303	132	192	197	170	4309	29	204	507	131	1343	71	287	120	277	46	68	103	16	54	5	85	95	45	49	18	76	61	38	83	2477	277	52	126	1040	153	1	81
OTU 80	2	11	0	14	68	66	9	14	81	3	0	135	10	595	924	38	44	28	0	190	56	9	94	55	107	89	88	20	551	66	7	7	33	155	345	6	408	85	82	354	36	69	149	426	18	55	3	27	45	284
OTU 81	5	97	76	4	9	35	66	38	43	56	47	57	85	40	46	183	22	38	75	5	22	8	53	16	169	12	119	3	154	4	2	33	28	82	1	11	0	32	138	450	56	2	4	56	49	15	16	19	32	13
OTU 82	2	5	17	1	21	0	9	2	1	18	16	6	33	81	58	38	36	6	0	12	55	0	1	68	145	47	44	20	21	8	0	2	0	9	5	0	16	2	7	27	39	47	74	40	2	0	16	10	3	0
OTU 83	0	0	33	0	0	0	0	0	0	1	9	4	5	0	20	0	14	0	0	4	80	8	0	0	0	0	0	0	20	0	0	1	0	1	0	10	0	8	1	0	13	1	33	0	0	0	0	4	0	0
OTU 84	21	23	25	1	24	60	7	1	0	0	11	1	1	0	48	0	86	18	44	5	41	23	17	3	40	124	29	3	6	9	21	29	0	180	0	14	5	5	7	2	182	0	61	37	54	40	0	12	0	0
OTU 85	1	7	0	12	0	3	5	0	0	17	12	1	17	0	48	43	0	0	30	3	0	129	0	47	25	0	0	4	1	18	0	13	0	0	0	0	7	0	0	17	2	19	0	3	0	0	24	0	0	29
OTU 86	0	0	5	0	0	0	0	7	0	21	0	0	23	0	0	0	0	0	0	0	0	0	0	0	0	3	0	0	0	0	95	0	0	0	2	2	0	0	1	0	2	9	0	0	0	1	0	0	0	0
OTU 87	6	7	1	0	0	6	5	1	0	0	0	0	0	0	5	77	9	2	1096	0	0	4	0	0	15	55	43	31	1	0	0	0	1	11	5	13	0	0	0	0	16	0	1	51	26	0	0	13	0	1
OTU 88	0	23	0	0	0	0	2	0	10	0	9	0	0	2	0	0	0	0	0	2	0	0	50	0	37	0	0	0	0	6	0	0	3	0	0	0	3	6	0	3	1	0	0	1	8	17	0	0	5	1
OTU 89	0	10	14	37	35	120	0	62	0	33	0	0	14	30	14	1	92	4	1	1	2	0	0	0	0	3	0	1	0	12	0	51	1	21	0	9	0	4	0	1	4	4	13	0	0	15	0	3	0	0
OTU 90	0	17	0	68	0	0	0	0	1	20	0	0	1	0	11	1	0	4	2	0	10	213	1	17	0	0	0	0	0	0	21	0	0	0	0	0	0	0	1	3	10	0	0	0	45	17	2	0	1	0
OTU 91	0	5	23	0	0	0	2	0	11	0	0	0	0	0	0	0	0	7	8	1	0	0	0	3	0	2	0	39	25	1	0	0	4	3	0	1	0	0	0	0	0	0	0	0	2	20	0	75	8	0
OTU 92	0	0	1	0	1	0	0	3	13	14	0	1	1	37	1	0	5	0	1	0	0	4	0	0	0	1	2	2	0	0	22	0	8	0	0	0	4	0	0	0	12	18	0	15	0	1	0	0	8	0
OTU 93	0	1	0	7	0	0	0	0	0	0	0	45	0	22	0	46	0	0	8	0	0	43	0	0	4	0	0	0	0	0	0	0	0	0	2	3	3	21	1	0	0	0	35	7	0	0	0	0	0	19
OTU 94	55	173	116	82	33	11	291	76	227	11	4	32	31	40	332	18	97	12	72	11	36	201	19	5	10	134	58	33	112	9	92	3	182	193	28	2	2	2	60	41	79	211	71	133	178	0	25	178	3449	26
OTU 95	8	0	0	17	2	26	2	22	6	0	7	19	0	4	2	3	24	27	4	0	8	0	3	1	0	15	77	0	0	1	0	36	3	0	7	4	4	29	11	0	0	0	47	6	21	0	41	0	7	0
OTU 96	2	4	1	0	2	0	0	0	0	0	2	8	0	1	37	69	0	0	3	0	0	0	2	0	1	4	0	0	0	0	0	0	0	0	0	0	1	0	25	0	0	7	47	5	0	0	0	0	0	0
OTU 97	0	0	0	0	0	2	0	4	10	0	0	0	1	0	1	0	2	1	1	1	1	14	0	45	27	26	0	26	0	0	0	6	4	0	0	0	0	0	0	0	0	0	0	0	0	19	0	47	10	0
OTU 98	27	0	10	0	0	21	4	2	0	1	2	7	0	12	0	79	9	0	0	4	8	0	31	1	3	105	0	2	25	2	14	5	0	81	7	2	1	0	0	0	3	2	0	14	0	92	0	0	0	0
OTU 99	58	232	12	47	1557	10	26	49	145	4	147	10	7	31	144	125	28	13	120	1760	418	15	40	32	141	49	5	62	23	683	42	1	86	16	18	69	1808	2	923	1679	173	206	17	148	31	33	1	23	78	3636
OTU 100	1	57	1722	0	69	40	151	5	90	8	1	6	9	4	12	65	68	150	37	4	38	16	13	16	18	3	14	1641	13	16	0	9	55	0	0	35	1654	0	8	5	67	46	2	14	17	15	49	92	39	14
OTU 101	3	5	0	1	0	0	0	1	0	0	2	0	0	0	0	0	0	0	1	0	2	0	0	0	0	0	0	0	0	0	0	0	0	2	0	0	0	0	0	0	0	0	0	0	0	0	0	0	0	0
OTU 102	0	1	2	0	0	0	0	0	0	1	0	0	1	2	19	1	12	0	0	0	0	4	0	0	14	4	0	5	0	0	23	1	1	14	0	0	0	0	0	0	0	0	1	1	0	8	8	0	0	0
OTU 103	71	2	18	0	60	0	33	47	15	3	9	4	35	10	3	24	20	44	0	30	183	32	27	0	22	75	23	70	27	54	0	1	10	46	1	13	4	3	0	20	34	22	22	36	15	2	4	144	3	39
OTU 104	38	26	17	3181	21	19	55	100	57	21	62	96	4	22	32	46	22	60	10	11	64	24	3	10	69	19	77	6	30	45	1	7	3458	56	13	21	9	22	104	4	38	8	24	56	1	73	14	2	27	34
OTU 105	1	0	0	0	0	11	2	0	0	0	3	1	0	0	0	25	0	0	8	0	9	8	26	0	0	33	3	0	0	0	0	0	0	4	0	3	2	0	2	0	0	8	0	0	0	3	2	0	0	0
OTU 106	0	0	37	1	1	0	0	5	0	0	1	13	3	38	0	13	2	0	0	0	2	0	1655	1	0	0	0	0	4	0	0	0	0	2	1	4	0	4	8	2	0	1	13	0	0	0	0	0	0	0
OTU 107	58	1663	0	0	40	0	0	0	0	27	1	8	25	22	121	21	3	11	0	37	3	1	0	21	0	27	0	57	4	0	2	0	0	20	1	1	14	3	7	1	4	1	3	2	18	30	1	69	0	29
OTU 108	14	30	113	20	40	22	85	43	1	12	2	65	0	0	33	7	35	13	1	0	1	109	33	10	9	66	0	0	27	5	1	15	3	141	95	9	1	27	83	9	3	21	2	133	0	24	2	21	0	17
OTU 109	0	4	0	0	0	0	0	0	0	0	0	0	0	0	0	0	0	0	3	0	8	0	0	0	0	0	0	0	0	0	0	0	0	1	0	0	0	0	0	0	0	1	0	0	0	0	17	0	0	0
OTU 110	63	55	67	107	21	3	14	91	17	7	10	55	25	2	159	5	70	24	1	4	2	103	72	0	173	10	5	36	0	1	31	4	7	1	4	16	10	60	22	11	42	32	46	90	27	1	15	5	5	18
OTU 111	0	18	0	0	8	0	0	1	0	0	0	0	0	34	0	1	1	0	196	0	11	0	0	0	0	5	0	0	0	0	0	0	0	0	0	479	0	0	7	0	0	3	0	12	3	28	11	0	0	1
OTU 112	47	0	26	118	0	0	4	1	16	1	5	0	0	121	66	113	38	2	1	11	20	126	19	0	28	2	2	0	13	2	32	3	5	0	123	4	0	0	3	0	94	14	1	131	6	7	0	0	4	28
OTU 113	29	0	4	2	1	0	0	0	0	0	0	111	0	0	5	0	1	0	0	0	6	9	0	0	15	0	15	0	0	0	0	0	0	0	5	0	0	51	0	0	0	1	0	1	0	0	0	0	0	5
OTU 114	73	32	45	17	192	268	4	150	7	20	207	37	141	6	25	34	35	99	44	27	83	142	2	11	56	7	247	1	68	86	32	140	1335	74	74	41	6	41	55	25	65	3	4	102	37	55	112	45	2	22
OTU 115	4	130	24	20	49	51	69	9	164	92	43	6	45	28	43	117	111	20	223	86	195	43	19	110	15	53	32	98	58	5	8	22	74	100	9	38	52	10	97	53	124	186	17	3	61	3	86	262	96	132
OTU 116	5	759	91	10	2	12	75	30	9	0	136	58	26	85	111	33	68	12	88	44	23	24	33	4	49	155	15	91	13	24	18	14	5	28	36	39	76	65	30	81	7	96	13	8	23	26	4	118	3	99
OTU 117	35	10	41	95	1	38	8	0	2	14	56	23	0	0	1	1	1301	9	1	4	56	141	13	870	11	46	4	29	9	0	1	2	1	16	0	25	5	5	1	0	79	9	24	3	47	15	6	51	1	17
OTU 118	0	0	4	26	0	0	2	0	0	0	0	63	0	21	3	1	0	4	36	0	0	11	0	23	0	17	1	0	332	0	0	0	0	0	0	0	0	1	12	0	33	1	0	7	6	8	5	0	0	0
OTU 119	29	32	9	24	64	93	11	25	263	3	52	31	37	1	22	71	8	41	1173	48	62	103	3	5	297	181	70	35	6	29	195	67	154	29	0	20	21	2	8	40	75	4	57	17	126	43	40	20	129	109
OTU 120	3	1	0	4	8	71	17	0	0	5	14	0	10	0	6	5	0	33	0	11	34	16	8	3	16	0	36	35	55	13	0	96	0	0	11	4	5	0	1	14	4	0	4	0	0	0	1645	7	0	0
OTU 121	29	0	1	15	12	2	164	0	1	42	17	19	19	13	89	9	28	0	2	4	93	6	91	23	30	1	7	15	97	0	3	3	0	4	0	0	0	1	76	6	74	14	0	55	0	0	8	5	1	6
OTU 122	5	44	348	34	26	5	20	436	456	4	20	22	34	20	62	108	1857	118	12	10	16	126	22	553	0	2514	110	1	60	6	177	14	246	48	35	8	0	21	17	20	25	642	18	38	54	1269	2	72	210	34
OTU 123	87	219	161	54	67	85	32	224	245	59	76	47	68	140	138	220	92	76	255	34	55	149	60	58	84	90	263	164	118	54	71	14	147	54	111	74	24	28	114	46	216	306	252	71	132	86	30	269	144	54
OTU 124	11	0	0	0	1	0	8	0	0	20	1	8	31	221	4	185	0	2	10	0	0	6	4	6	16	0	8	0	6	8	2	2	0	0	6	10	0	11	0	0	0	5	0	0	10	1	0	0	0	0
OTU 125	55	113	50	22	125	369	487	115	39	34	196	149	26	58	108	142	65	238	124	16	173	14	138	74	293	201	514	22	78	211	34	176	28	447	14	380	6	104	325	32	111	57	216	39	29	116	148	157	19	93
OTU 126	0	0	0	0	0	0	3	3	0	2	1	0	0	0	5	0	1	11	0	0	0	0	0	0	0	0	51	3	18	5	0	1	1	24	0	2	1	0	0	0	4	15	0	0	0	24	0	3	0	11
OTU 127	18	23	9	1	0	34	0	0	48	11	1	15	0	16	63	1	69	14	4	1	40	21	95	19	27	3	18	0	45	8	49	5	14	23	5	10	3	3	13	9	121	11	80	15	79	1	21	89	28	18
OTU 128	122	37	199	34	41	75	58	221	1549	379	239	2614	306	681	74	39	610	53	22	24	85	23	103	241	81	72	85	139	15	22	673	54	750	220	55	107	22	1390	124	55	68	136	74	93	203	157	21	220	1035	60
OTU 129	0	0	0	2	0	64	0	0	0	8	81	0	0	1	0	0	0	7	0	24	0	6	0	3	2	0	26	0	0	0	13	0	0	3	0	3	0	0	0	10	0	0	0	0	13	0	1	0	0	0
OTU 130	1	19	3	0	584	0	32	58	0	30	44	3	12	77	17	20	12	3	31	10	27	1	621	13	0	47	1	9	1	417	17	3	0	6	0	27	27	14	5	30	0	3	18	58	35	76	1	39	0	43
OTU 131	43	7	1	10	2	102	1	18	47	59	24	82	44	17	8	33	0	27	7	0	9	5	13	3	59	4	33	5	6	1	3418	62	7	15	0	0	0	36	3	10	85	120	1	0	39	2	15	44	24	16
OTU 132	1	0	0	0	0	6	0	2	19	0	0	0	8	63	35	32	12	7	3	3	16	1	1	1	1	0	10	0	0	5	1	15	22	49	11	1	18	1	4	0	0	0	9	2	39	36	0	0	12	39
OTU 133	857	22	1	3	1	0	10	0	0	0	5	0	0	9	0	0	1	4	0	10	0	0	0	8	0	0	0	0	0	1	7	1	0	0	0	13	15	0	0	0	5	0	1	0	0	0	6	27	0	0
OTU 134	2	90	4	61	14	13	7	9	19	8	177	18	0	93	86	7	54	0	1	16	34	156	11	25	65	25	20	0	99	0	89	15	27	10	6	32	1	2	8	0	84	4	8	4	79	25	0	0	9	31
OTU 135	38	9	350	74	1	109	37	62	41	6	55	34	37	7	8	11	96	87	95	20	19	117	1	35	5	7	88	66	21	0	47	7	20	72	11	7	56	9	131	26	75	123	28	4	43	52	14	97	16	28
OTU 136	0	2	11	0	0	46	0	1	4	85	0	0	40	3	10	1	38	3	46	0	3	0	0	14	0	2	1	113	7	0	9	0	5	74	26	118	8	0	77	5	266	0	2	19	0	3	21	137	0	0
OTU 137	12	0	1	0	0	0	0	0	2	0	13	0	10	0	11	0	0	3	10	2	0	13	0	67	0	0	1	0	4	0	0	4	3	2	2	0	0	0	0	1	3	0	1	1	4	0	0	0	2	0
OTU 138	0	1	0	0	2	0	0	37	34	4	0	6	0	22	0	26	32	2	0	2	11	2	0	21	0	0	1	11	2	0	2	0	16	0	21	0	0	8	0	3	0	8	0	32	3	2	1	52	14	2
OTU 139	3	8	621	51	92	20	5	116	10	32	26	10	32	43	23	73	23	6	3	4	206	34	11	1	112	30	50	64	35	9	22	8	0	181	14	0	3	7	180	3676	2	195	143	2	15	29	35	125	6	18
OTU 140	137	127	159	71	107	490	10	67	101	109	110	85	18	10	73	47	47	69	115	13	349	40	8	31	175	28	2	64	158	24	57	383	43	31	97	93	19	1190	65	3	85	66	31	62	59	2584	196	179	58	25
OTU 141	0	0	0	0	0	0	0	0	0	0	0	0	0	0	0	0	0	0	0	0	46	0	0	0	0	0	0	0	0	0	0	0	0	0	0	0	0	0	0	0	0	0	0	0	0	0	8	0	0	0
OTU 142	0	0	0	0	0	0	0	0	0	0	0	0	0	0	0	0	2	0	0	0	17	0	0	0	0	123	0	0	0	0	1	0	0	0	15	0	0	0	0	0	0	3	0	0	0	0	1	0	0	0
OTU 143	0	0	129	0	43	0	27	170	20	0	65	1	0	7	6	1	0	0	29	0	0	48	5	8	2	24	0	0	2	0	43	0	22	2	0	1	0	0	2	0	3	212	0	0	1	2	8	0	18	0
OTU 144	1	0	4	0	13	0	12	0	0	19	0	0	17	0	0	0	0	0	359	1	0	0	1	3	0	39	5	0	0	0	0	0	0	0	0	4	0	0	36	0	24	10	3	7	0	104	18	39	0	0
OTU 145	53	37	1	10	374	224	50	68	41	1	123	3	14	28	3	0	31	199	74	33	6	17	79	12	26	33	306	2	43	63	60	132	26	32	11	40	22	2	17	29	2	127	11	44	65	7	177	16	14	75
OTU 146	9	72	6	27	1	23	10	1323	615	640	13	0	556	15	2	27	83	11	26	1	67	19	134	120	28	7	106	27	2	2	172	27	313	16	57	45	6	0	6	2	17	1489	0	143	11	7	18	125	321	1
OTU 147	58	1	0	1	3	0	32	29	52	0	0	1	8	18	2	0	0	1	2	0	0	3	55	0	110	0	11	94	4	0	25	6	17	84	3	36	0	0	42	13	19	0	46	0	0	4	11	204	32	8
OTU 148	0	108	1	23	1	75	1	51	8	31	200	34	67	71	11	136	9	31	104	10	11	64	3	0	53	25	38	58	4	3	1	40	13	0	4	45	8	15	24	0	66	91	0	18	20	1	74	69	2	12
OTU 149	0	21	0	1	8	0	30	19	1	0	380	5	15	23	6	2	10	7	12	19	14	3	0	82	0	268	0	1	11	0	0	3	0	0	1	192	6	1	1	1	0	0	0	2	53	72	0	2	0	4
OTU 150	20	34	2	756	1	7	5	31	1	24	0	0	0	1	0	1	15	32	12	0	20	0	0	0	4	0	18	0	8	0	17	0	0	0	0	0	0	1	6	11	0	4	6	4	111	0	0	4	0	0
OTU 151	3	56	5	11	4	2	6	68	0	26	225	116	88	8	2	139	16	1	0	10	106	10	34	1	12	42	17	1	0	0	4	0	1	3	0	143	1	46	30	0	53	0	27	0	1	1	4	2	0	18
OTU 152	2	36	49	51	1	17	21	136	272	22	5	73	14	30	3	66	59	20	49	3	26	61	0	2	28	78	17	23	17	4	108	2	154	86	7	45	3	51	164	3	13	340	82	0	199	0	64	54	142	2
OTU 153	0	0	0	1	0	0	0	0	0	0	0	8	1705	0	2	2	0	0	0	0	31	0	0	0	0	0	0	0	0	0	0	0	0	0	3	0	0	9	0	1	1	1	0	0	0	0	0	0	0	0
OTU 154	0	0	0	0	0	0	20	0	0	0	16	21	0	0	27	0	0	10	0	2	3	0	0	0	0	8	0	0	0	0	1	2	0	0	0	0	1	27	2	0	0	0	2	0	0	0	0	8	0	0
OTU 155	4	13	25	0	20	16	5	17	10	0	0	0	7	0	89	29	1	0	10	0	62	1	0	0	17	74	0	4	14	5	7	0	3	0	21	120	2	0	9	0	0	6	0	35	0	3	0	48	8	0
OTU 156	128	86	65	29	38	24	17	113	105	14	48	145	50	1130	19	1745	20	295	19	2	78	257	6	33	102	833	59	0	5	19	95	0	101	82	18	269	1	31	7	4	33	185	178	16	636	458	2	35	65	8
OTU 157	27	4	21	0	0	1	16	0	6	498	0	2	380	3	0	0	15	2	15	4	0	24	1	55	5	24	0	2	0	0	22	0	0	16	0	49	0	0	3	0	34	27	7	5	15	0	0	0	3	0
OTU 158	0	0	0	0	14	0	0	0	3	0	0	0	0	8	0	1	0	0	0	0	0	0	0	0	0	4	0	0	0	9	0	0	1	0	0	1	0	0	0	0	0	0	0	0	4	0	5	0	3	0
OTU 159	8	16	5	7	15	0	14	14	63	103	16	1	155	0	6	0	7	4	0	36	19	1	0	0	0	1	26	19	1	7	14	7	32	0	1	0	14	3	31	8	17	53	3	0	87	19	31	28	25	7
OTU 160	2	41	57	41	9	164	3186	97	82	524	51	69	7	20	104	84	4	10	103	19	4	61	11	72	93	96	39	13	42	13	18	39	22	38	116	210	20	42	95	17	11	113	48	82	75	49	4	19	42	5
OTU 161	118	36	4	10	4	4	94	32	18	348	42	91	277	0	932	3	0	2	1	137	89	15	235	46	20	1	3	7	284	1	8	1976	13	91	218	0	155	55	33	188	1320	0	13	404	850	0	12	10	9	326
OTU 162	0	2	31	82	34	22	109	20	24	0	8	4	8	1	1	84	33	54	13	0	38	12	67	35	7	43	1	566	7	0	29	5	5	64	4	3	5	0	122	19	0	31	212	7	60	26	3	19	11	0
OTU 163	0	0	0	0	0	0	1	1	0	0	0	0	1	0	0	0	0	0	52	3	91	0	0	0	0	0	0	0	0	0	0	0	0	0	0	0	0	0	0	0	0	0	1	0	0	0	0	0	0	0
OTU 164	0	0	0	0	0	0	0	0	3	0	0	0	0	0	0	0	0	0	0	0	0	42	0	0	0	0	0	1	77	0	0	0	0	31	14	1	0	0	0	0	0	0	0	0	0	8	0	0	0	0
OTU 165	186	42	63	740	6	4	0	0	1	0	4	0	2	0	35	0	3	31	0	1	3	1418	66	6	50	13	67	0	3	5	17	1	5	0	1	0	0	1	39	1	93	0	20	47	22	10	3	1	1	2
OTU 166	0	6	0	0	0	0	0	0	0	0	0	0	12	0	36	4	0	0	0	0	0	7	1	0	0	0	0	1	0	0	0	0	0	5	0	0	0	0	0	0	0	0	0	0	0	0	0	0	0	0
OTU 167	26	24	71	76	2	1	12	9	1	5	97	14	11	23	24	2	0	23	10	0	2	16	70	7	1	20	36	8	72	3	6	7	0	17	0	38	1	8	1	1	0	0	12	18	1	2	0	0	1	0
OTU 168	0	250	0	0	2894	3	21	22	28	0	11	20	2	7	13	67	26	13	17	41	58	0	2	20	14	97	14	28	16	1325	37	5	21	47	100	29	35	7	7	52	4	39	5	59	26	16	3	38	14	66
OTU 169	0	12	0	0	0	0	0	0	0	0	1304	0	0	0	34	0	5	0	0	0	52	0	5	9	0	0	0	0	2	0	0	0	1	1	0	0	0	0	0	0	5	0	0	0	1	0	0	0	0	0
OTU 170	0	0	0	0	0	0	0	3	0	0	0	1	1	0	0	0	0	0	0	0	0	0	0	1	0	0	0	2	0	0	0	0	0	0	0	0	0	6	5	0	2	0	0	0	0	2	0	0	0	0
OTU 171	2	8	71	45	9	9	0	7	4	24	1	1	21	9	21	31	54	0	10	2	1	3	14	0	1	14	7	0	118	5	0	0	0	3	409	68	4	0	145	6	826	119	17	1016	1	32	147	28	2	0
OTU 172	0	1	0	2	0	0	4	0	0	3	0	1	2	10	0	0	3	0	0	0	2	0	0	36	42	0	1	0	0	0	0	4	3	0	0	0	0	0	0	0	0	0	0	1	22	0	3	0	0	0
OTU 173	19	0	0	10	3	6	0	0	4	0	63	1	0	0	1	0	18	7	0	9	8	18	109	10	3	153	3	13	0	0	0	0	1	0	0	1	4	1	0	5	44	0	7	0	0	1	26	24	3	0
OTU 174	0	124	3	3	0	0	35	35	2	435	0	23	18	16	0	240	3	1	18	29	0	5	1	2	3	0	13	17	64	0	0	12	6	57	0	1	1	4	31	10	26	104	97	0	25	1	45	24	1	15
OTU 175	73	16	0	26	3	1	9	2	22	1	4	0	0	39	18	99	11	0	0	25	1	0	1	0	0	19	0	31	0	0	3	4	3	0	53	0	1	2	0	7	21	0	1	50	34	0	0	73	7	26
OTU 176	60	28	50	131	1	65	67	10	15	5	34	15	20	69	51	9	141	61	27	68	52	53	18	53	2062	69	61	10	11	10	12	18	5	88	3	2	30	0	36	38	98	46	52	16	115	0	30	81	5	54
OTU 177	16	2	10	15	18	95	2	3	0	4	167	64	20	18	19	0	27	6	10	17	57	4	12	30	24	33	6	56	42	139	20	54	1	16	29	78	10	18	12	0	58	100	5	68	80	14	35	41	0	32
OTU 178	2	45	0	12	8	8	0	58	26	13	4	9	4	0	75	33	0	7	47	21	77	0	1	10	0	4	0	10	0	0	13	0	12	0	29	0	40	24	17	50	0	107	1	58	37	4	4	19	9	44
OTU 179	4	4	18	24	42	0	1	0	3	6	0	10	1	27	132	5	53	7	15	47	0	29	0	7	39	1	0	30	1	27	0	0	0	20	4	13	66	5	0	68	35	9	21	18	6	18	1	63	1	118
OTU 180	24	67	70	106	29	44	80	99	146	43	111	555	17	221	26	205	175	34	177	95	342	107	58	212	1506	31	34	62	57	7	87	65	100	40	42	32	119	232	40	84	16	174	34	44	170	0	1606	40	76	119
OTU 181	0	10	0	1	64	24	0	663	18	0	0	2	14	14	0	24	0	14	2	18	148	31	4	17	63	22	7	1	30	67	26	17	17	0	5	7	4	4	4	11	1	118	2	15	36	3	0	12	8	6
OTU 182	0	0	0	0	0	0	30	0	0	0	0	0	0	0	1	0	5	0	0	0	0	1	0	0	0	9	0	0	0	0	0	0	0	0	0	0	0	1	0	0	80	4	0	0	0	0	0	0	0	0
OTU 183	0	24	35	10	9	31	17	86	3	28	12	71	7	32	72	27	2	23	36	6	7	0	21	4	19	22	57	44	8	14	693	37	0	36	6	4	1	27	56	7	16	15	0	11	77	0	5	51	2	4
OTU 184	4	1	47	83	0	0	10	78	5	0	2	0	9	0	0	38	0	7	0	1	80	163	1	7	0	68	31	9	12	0	0	1	3	5	0	0	5	0	0	49	14	3	7	0	2015	79	4	9	3	40
OTU 185	16	0	68	79	29	246	11	8	124	22	76	1	1	9	188	52	99	78	20	4	71	51	1	69	1	2	90	1	2	69	17	107	82	82	59	23	22	6	70	60	43	101	34	11	148	6	67	1	61	3
OTU 186	20	29	16	0	15	29	7	6	112	7	1	1	10	21	0	0	0	1	14	12	0	11	0	0	5	0	0	8	131	0	57	14	84	47	1	0	20	1	84	37	1	117	17	3	32	10	44	4	53	10
OTU 187	409	31	74	482	6	117	63	17	14	15	150	188	20	18	53	24	38	7	639	1	73	980	44	46	80	90	42	143	3	2494	6	22	2	92	23	1361	9	75	81	13	31	8	12	3	57	5	32	175	5	63
OTU 188	54	12	160	0	140	8	29	27	32	144	15	73	43	153	339	315	295	157	50	54	106	9	47	103	77	113	373	50	156	20	4	1	15	33	116	32	56	100	42	81	296	46	11	173	69	49	0	114	18	147
OTU 189	414	7	0	86	12	101	16	14	77	31	77	47	14	54	67	22	195	5	96	29	155	17	135	41	211	23	14	17	89	11	5	60	40	7	6	39	77	13	71	34	96	16	27	5	3	31	128	76	46	36
OTU 190	0	0	9	0	0	0	0	0	1	0	0	7	0	1	7	0	14	12	55	0	0	0	0	0	22	0	21	0	0	0	0	0	0	0	19	0	13	0	18	3	0	0	0	7	0	0	7	0	0	0
OTU 191	0	37	39	15	23	33	135	4	93	2881	5	35	210	95	8	262	37	3	3	15	43	33	34	21	24	4	2	68	102	5	5	3	52	79	16	34	2625	23	66	3	2	7	31	6	26	41	7	97	41	6
OTU 192	1	107	187	72	8	66	87	6	24	1	270	28	16	19	94	57	23	17	24	5	41	184	10	15	14	92	25	30	4	20	6	34	10	138	15	38	2	25	82	8	50	63	69	67	13	38	6	37	11	17
OTU 193	0	144	11	36	6	119	12	40	92	13	3	24	1	14	0	42	6	23	226	3	117	13	8	5	13	1	94	11	128	21	1	10	38	3	27	470	24	36	13	11	112	11	12	18	17	19	12	0	42	0
OTU 194	0	42	10	5	0	1	15	26	0	0	85	1	2	3	2	30	0	3	10	5	33	79	9	5	16	43	1	8	4	1	0	0	0	2	1	0	0	1	1	12	0	0	16	5	47	81	6	2	0	0
OTU 195	26	3	4	3	32	9	58	8	16	5	0	259	9	1	928	79	0	0	9	243	11	3	84	26	102	54	0	2	284	58	0	2	5	18	197	3	107	446	19	220	7	2	0	347	5	0	1	3	13	301
OTU 196	3	1	0	0	1	4	0	0	11	10	19	20	34	20	16	18	12	1	0	21	38	14	1	0	15	60	0	0	1	4	0	1	4	57	11	5	4	9	2	1	32	3	11	4	11	6	13	15	10	45
OTU 197	50	39	25	12	42	152	11	26	26	5	161	143	6	180	53	227	56	59	63	13	58	96	152	77	17	8	84	0	123	54	32	65	15	72	12	80	22	44	132	3	831	114	2	34	232	30	59	40	14	49
OTU 198	0	75	0	0	1	0	0	0	3	0	273	1	0	0	4	0	13	0	9	12	7	6	0	84	1	13	1	7	6	0	10	0	1	32	0	0	0	1	1	53	0	1	15	0	1	15	0	45	0	52
OTU 199	2	132	9	3	5	47	42	0	3	0	9	2	9	14	6	0	53	10	2	0	3	1	1	0	0	0	14	19	41	0	0	36	1	0	5	18	5	2	10	20	0	107	0	0	85	1	2	1	2	9
OTU 200	2	27	5	0	0	118	58	14	0	6	2	9	0	4	1	11	9	4	9	0	10	1	94	12	97	6	1	0	1	11	9	72	0	6	4	62	84	4	1	37	2	58	6	23	9	11	22	11	0	3
