	Host 1	Host 2	Host 3	Host 4	Host 5	Host 6	Host 7	Host 8	Host 9	Host 10	Host 11	Host 12	Host 13	Host 14	Host 15	Host 16	Host 17	Host 18	Host 19	Host 20	Host 21	Host 22	Host 23	Host 24	Host 25	Host 26	Host 27	Host 28	Host 29	Host 30	Host 31	Host 32	Host 33	Host 34	Host 35	Host 36	Host 37	Host 38	Host 39	Host 40	Host 41	Host 42	Host 43	Host 44	Host 45	Host 46	Host 47	Host 48	Host 49	Host 50	
OTU 1	1	2	0	3	1	0	0	0	2	0	2	0	0	1	1	2	3	0	0	0	1	0	1	0	0	0	5	1	0	0	1	0	0	0	13	0	0	3	2	1	0	1	0	0	4	5	0	0	0	0
OTU 2	0	0	0	0	0	1	1	3	0	0	0	0	0	0	0	0	2	0	0	0	0	0	1	0	1	0	0	0	0	0	0	0	0	1	0	0	1	1	1	0	1	1	1	0	1	1	0	0	0	0
OTU 3	0	1	3	2	0	0	1	1	14	4	0	0	0	0	0	0	4	0	0	5	0	0	0	0	0	6	0	0	1	1	1	8	3	0	0	0	2	1	4	2	0	0	5	0	0	0	0	1	0	0
OTU 4	0	0	0	0	0	0	0	0	0	0	0	0	0	0	0	0	0	0	0	0	0	0	0	0	0	0	0	0	0	0	0	0	0	0	0	0	0	0	0	0	0	0	0	0	0	0	0	0	0	0
OTU 5	3	1	3	13	0	28	45	6	0	6	54	10	26	37	39	19	9	1	4	6	17	0	3	0	34	6	15	22	22	0	1	7	0	3	0	15	61	42	2	4	1	1	24	20	0	0	30	50	6	8
OTU 6	0	0	0	15	0	0	0	0	0	0	0	0	0	0	0	0	1	0	0	0	1	2	0	0	1	0	1	0	1	1	0	0	0	2	1	0	0	0	0	0	0	0	0	0	0	2	3	0	4	0
OTU 7	6	0	0	0	5	9	2	5	9	9	5	2	0	4	0	0	3	10	6	1	1	4	0	4	0	1	4	1	2	5	0	2	3	6	11	4	2	14	0	0	3	8	1	0	1	29	125	5	0	1
OTU 8	0	4	2	2	2	4	6	0	1	3	0	3	2	8	0	3	3	1	1	1	3	3	1	6	0	4	1	1	32	3	0	0	2	0	4	0	3	3	0	24	0	3	0	0	79	6	47	3	0	1
OTU 9	14	3	0	0	0	0	0	6	0	1	2	2	0	0	2	1	0	0	0	1	0	1	0	20	1	1	3	0	3	0	0	0	0	0	0	2	1	4	2	88	0	0	5	2	1	5	0	0	2	0
OTU 10	3	0	0	0	0	8	0	0	0	2	0	0	0	2	0	0	0	0	0	0	0	0	0	4	0	0	0	0	0	0	0	0	0	1	0	1	0	0	1	0	0	0	0	0	1	0	0	0	0	0
OTU 11	8	1	7	0	11	3	2	0	2	1	4	2	0	0	0	0	1	15	0	0	3	2	0	4	0	0	0	0	1	1	5	0	0	0	3	1	0	2	3	2	1	0	4	0	9	4	1	1	1	1
OTU 12	3	2	1	0	8	7	9	4	4	0	0	1	0	9	3	2	6	3	4	3	3	9	0	5	1	3	0	1	0	0	0	46	0	1	4	0	2	1	2	0	2	0	0	2	1	2	1	3	0	2
OTU 13	0	0	0	0	3	0	0	0	0	0	0	0	0	0	0	3	0	0	0	0	0	0	0	0	0	0	0	0	0	0	0	0	0	0	0	0	0	0	0	0	0	0	0	0	0	0	0	0	0	0
OTU 14	0	0	1	0	0	0	5	1	0	1	0	1	0	0	0	0	0	0	0	1	0	1	0	0	0	4	0	3	0	0	0	1	0	9	0	0	0	2	0	0	0	4	0	0	0	0	0	0	0	0
OTU 15	0	1	0	0	0	0	0	5	0	0	0	0	3	0	0	0	0	0	0	0	0	0	0	0	0	0	0	1	0	0	0	0	0	0	0	0	0	0	0	0	0	0	0	0	0	0	0	0	0	0
OTU 16	0	0	0	0	0	0	0	0	0	0	0	0	0	0	0	0	0	1	0	0	0	0	0	0	0	0	0	0	0	0	0	0	0	0	0	0	0	0	0	0	0	0	0	0	0	0	0	0	0	2
OTU 17	4	3	1	0	13	4	2	1	3	0	0	0	0	0	2	3	1	9	0	13	1	1	0	7	0	2	0	0	4	0	0	2	10	1	22	115	1	0	0	0	12	0	0	0	0	0	0	0	1	1
OTU 18	0	2	0	1	9	2	0	4	0	1	3	1	22	0	4	2	0	1	0	2	0	1	0	2	1	3	1	37	0	3	0	1	11	3	8	1	0	0	88	1	3	3	4	0	0	3	0	1	5	3
OTU 19	0	0	0	0	0	0	0	0	0	0	0	0	0	0	0	0	0	0	0	0	0	0	0	0	0	0	0	0	0	0	0	0	0	0	0	0	0	0	0	0	0	0	0	0	0	0	0	0	0	0
OTU 20	0	3	0	0	5	13	4	5	0	9	0	2	2	10	1	5	1	5	2	6	1	2	0	0	0	0	0	4	2	1	4	0	0	6	8	0	0	0	0	1	8	0	1	0	34	1	14	0	1	10
OTU 21	0	2	14	0	4	2	0	2	0	0	1	0	10	4	2	1	2	0	1	7	1	2	8	2	0	95	1	16	0	3	5	37	0	6	2	32	3	0	24	0	0	0	0	0	23	0	14	0	0	0
OTU 22	1	0	0	0	4	0	0	2	22	1	0	0	0	3	0	1	5	0	0	1	4	3	0	0	0	6	1	1	0	0	2	3	9	7	23	0	7	0	0	0	0	5	0	0	0	3	23	17	0	0
OTU 23	0	0	0	0	1	0	2	0	0	0	0	2	0	0	0	0	2	0	3	0	47	1	0	0	88	5	0	0	1	0	0	1	0	6	0	1	0	1	0	0	0	0	1	0	1	0	0	0	1	0
OTU 24	0	0	0	0	0	0	0	0	1	0	0	1	0	1	0	0	1	1	0	0	0	0	0	1	2	2	0	0	0	8	0	2	1	0	0	0	0	0	0	0	0	4	0	0	1	0	3	0	0	0
OTU 25	0	9	0	4	0	4	0	0	0	0	0	0	0	0	7	0	0	0	0	0	0	0	0	0	0	0	0	0	0	0	0	0	0	0	0	0	0	0	0	1	0	0	0	1	0	0	0	0	0	0
OTU 26	0	0	0	0	1	1	0	0	0	1	0	0	0	0	0	0	0	0	0	0	0	0	0	0	0	0	0	0	1	0	0	0	0	2	1	0	0	0	0	0	0	0	0	0	0	0	0	0	0	0
OTU 27	2	0	0	0	0	0	0	0	0	0	0	0	0	0	0	0	0	0	1	0	0	0	0	0	0	0	0	0	0	0	0	0	0	0	0	0	0	0	0	0	0	0	0	0	0	0	0	0	0	0
OTU 28	0	9	13	7	8	0	0	0	1	14	1	7	5	0	8	4	5	0	0	13	6	0	6	0	2	0	37	6	0	0	0	1	0	0	3	1	1	6	14	18	2	2	8	1	16	67	23	2	5	2
OTU 29	1	3	3	5	1	0	1	10	1	1	4	3	0	0	0	1	0	1	2	13	2	4	2	4	0	0	0	2	4	59	0	1	0	0	0	9	0	0	1	0	4	2	1	1	0	3	0	0	2	0
OTU 30	0	0	0	0	0	0	0	0	0	0	0	0	0	0	0	0	0	0	0	0	0	0	0	0	0	0	0	0	0	0	0	0	0	0	0	0	0	0	0	0	0	1	0	0	0	0	0	0	0	0
OTU 31	0	1	0	0	0	0	0	0	0	0	0	0	0	1	3	0	0	3	1	8	34	0	0	0	0	0	0	0	24	4	0	0	1	3	0	0	1	1	0	1	0	0	0	0	1	0	0	1	2	0
OTU 32	1	3	0	0	1	0	1	2	3	2	0	1	11	1	1	2	1	2	0	3	3	0	0	5	0	4	5	22	10	3	2	1	1	2	3	31	0	3	1	0	0	2	1	1	4	0	2	2	0	0
OTU 33	0	0	0	0	0	0	0	0	0	0	0	0	0	0	0	0	2	0	0	1	0	0	0	3	0	0	1	0	0	0	0	0	0	0	0	0	0	0	0	0	0	0	6	0	0	0	0	0	0	0
OTU 34	0	4	0	2	0	1	3	0	12	0	1	2	4	2	2	0	9	23	0	4	1	2	0	3	0	0	0	0	0	1	0	0	4	0	0	0	25	0	4	1	0	2	1	0	3	3	2	71	2	11
OTU 35	0	1	0	1	0	5	32	1	1	0	1	1	0	0	0	4	3	0	3	3	1	14	0	0	0	1	4	0	1	6	1	0	0	1	0	0	2	1	0	55	2	0	1	0	1	2	0	1	3	26
OTU 36	0	1	0	0	1	3	1	0	3	4	0	0	0	3	0	15	0	0	0	4	6	0	0	1	0	0	0	0	0	0	0	1	0	0	0	0	0	0	0	4	1	2	0	1	0	1	1	0	1	0
OTU 37	0	0	0	0	1	0	0	0	0	0	0	0	0	1	0	0	0	0	0	0	0	0	0	0	0	1	0	0	0	1	0	5	0	0	0	3	0	0	0	5	0	1	1	0	1	0	0	0	0	0
OTU 38	1	5	4	3	2	4	2	1	0	0	2	5	0	1	37	6	1	3	2	0	5	1	3	7	0	0	0	0	4	0	2	0	9	3	0	0	0	0	0	10	2	2	1	33	1	3	1	0	0	4
OTU 39	0	5	0	2	0	0	0	0	0	0	0	0	0	0	0	0	0	0	0	0	0	2	0	0	0	0	0	0	0	1	0	0	0	0	0	0	0	0	0	0	0	0	0	0	0	2	0	0	3	0
OTU 40	0	2	0	0	1	2	4	2	2	0	0	0	1	2	1	1	1	0	0	0	0	1	0	2	0	2	0	2	1	4	3	0	0	1	0	3	0	1	2	2	3	3	1	0	0	1	0	2	11	0
OTU 41	5	9	0	7	0	6	2	2	1	0	15	1	0	0	9	2	2	0	0	0	0	1	0	0	1	1	0	0	1	0	0	1	5	0	9	0	0	1	0	1	0	0	0	1	0	0	0	3	0	9
OTU 42	2	0	0	0	0	0	0	0	1	0	0	0	0	0	0	0	0	0	2	0	1	1	2	3	0	0	0	0	0	0	0	0	0	1	0	0	0	0	0	0	0	0	1	0	0	0	0	0	4	0
OTU 43	0	0	0	0	0	0	0	0	0	0	0	0	0	0	0	0	0	0	0	0	0	0	0	0	0	0	1	0	0	0	0	0	0	0	0	0	0	5	0	0	0	0	0	0	0	0	0	0	0	0
OTU 44	0	0	0	0	0	0	0	0	0	0	0	0	0	0	0	0	0	0	0	2	0	0	0	0	0	0	0	0	0	0	0	0	0	1	2	0	0	0	0	0	0	0	0	0	0	0	0	0	0	0
OTU 45	4	0	1	0	2	2	0	4	0	1	0	0	1	8	0	0	5	2	2	0	1	4	1	2	1	2	2	1	0	0	2	1	3	6	3	1	0	0	0	2	1	4	0	0	4	2	1	1	1	2
OTU 46	3	0	5	1	0	10	0	1	1	4	51	4	0	0	0	1	3	5	3	4	3	0	2	3	0	0	0	2	1	0	1	1	0	1	1	1	0	0	0	1	0	2	0	0	0	2	0	1	1	1
OTU 47	0	0	0	0	0	0	0	0	0	0	0	0	0	0	0	0	0	0	0	0	0	0	0	0	0	0	1	0	0	1	0	0	0	0	0	0	0	1	0	1	0	0	0	0	0	2	0	0	0	0
OTU 48	1	4	1	1	9	7	2	6	9	0	3	20	11	0	1	1	0	0	13	0	3	7	0	3	0	9	29	25	7	4	0	7	3	2	0	0	0	18	0	0	4	0	0	1	0	1	0	4	0	0
OTU 49	0	0	0	0	0	2	4	0	0	2	0	0	1	0	0	0	0	0	0	6	0	5	0	0	0	1	1	0	2	0	1	0	6	0	1	0	0	0	0	0	0	0	2	0	0	0	0	0	0	2
OTU 50	0	4	0	1	4	0	1	4	1	44	0	1	1	0	4	1	3	4	1	0	3	2	0	0	21	0	0	0	0	4	1	0	2	0	3	0	3	0	2	3	13	3	31	98	0	1	1	1	0	0
OTU 51	0	0	0	0	0	1	0	2	0	0	1	5	1	0	0	0	0	2	4	1	0	1	0	2	0	0	0	0	0	0	0	0	2	0	0	0	0	0	0	4	0	4	0	0	2	0	0	0	6	1
OTU 52	0	1	0	2	4	1	1	4	1	0	0	1	0	2	0	1	0	5	10	0	0	8	2	2	0	0	3	0	18	0	6	0	0	3	6	2	1	4	1	4	3	0	0	0	0	0	1	6	10	5
OTU 53	0	0	0	0	0	0	0	1	0	0	0	0	0	0	0	0	0	0	0	0	0	0	0	0	0	0	0	0	0	0	0	0	0	0	0	0	0	0	0	0	0	0	0	0	0	0	0	0	0	0
OTU 54	0	0	1	0	0	1	0	3	1	3	0	3	1	0	0	0	4	0	2	1	9	6	1	4	2	1	1	2	3	1	0	2	4	3	1	1	0	7	3	2	2	0	1	0	0	2	4	1	8	0
OTU 55	0	0	0	0	0	0	0	0	0	0	0	0	0	0	0	0	0	0	0	0	0	0	0	0	0	0	0	0	0	0	0	0	0	0	0	0	0	0	0	0	0	0	0	0	0	0	0	0	0	0
OTU 56	0	3	0	1	2	0	0	0	1	0	0	0	1	0	1	0	0	1	0	0	0	0	0	0	0	0	4	0	0	1	0	0	0	0	2	0	0	3	0	0	0	2	0	0	1	1	1	0	7	0
OTU 57	4	3	7	0	17	16	4	1	8	2	4	4	3	5	2	5	3	13	3	1	1	7	4	7	0	1	14	9	6	2	11	1	0	8	20	3	1	2	3	2	10	2	0	0	6	12	0	0	4	11
OTU 58	0	0	0	0	2	5	3	1	0	0	0	0	0	0	0	0	1	0	1	0	0	1	0	0	0	1	9	0	0	0	0	0	0	0	0	0	0	4	0	0	3	0	0	0	0	2	0	0	2	0
OTU 59	0	3	2	2	2	1	0	1	0	0	0	2	0	5	0	1	14	3	2	4	0	0	0	4	0	0	0	1	5	0	4	0	2	0	4	0	0	0	0	0	0	1	0	0	1	3	0	1	0	1
OTU 60	0	0	1	0	4	1	0	5	5	12	1	3	16	1	3	1	4	3	0	5	4	24	0	4	3	3	33	0	19	0	0	0	2	1	9	1	1	6	3	5	31	1	5	0	0	3	0	2	3	2
OTU 61	0	11	1	4	13	2	0	6	12	6	3	0	2	2	6	9	6	1	0	8	0	1	1	6	0	0	2	1	10	1	8	0	1	1	4	0	1	2	93	3	11	2	1	3	0	3	0	3	3	0
OTU 62	0	0	0	0	0	0	0	0	0	1	1	0	0	0	0	0	0	0	0	1	0	0	14	0	0	0	0	0	1	3	0	0	0	0	0	0	0	0	0	0	0	0	0	1	0	2	0	0	0	0
OTU 63	3	0	0	2	2	4	1	0	0	0	2	5	0	3	0	1	1	0	0	0	0	0	0	5	0	11	1	1	0	0	0	5	1	7	5	8	0	0	0	0	0	0	0	0	0	0	0	1	3	0
OTU 64	0	0	1	1	4	1	4	0	2	6	3	4	0	3	2	1	7	2	1	2	0	6	1	5	0	0	7	2	1	0	1	0	0	3	2	0	0	2	1	4	8	5	2	1	2	1	0	0	0	0
OTU 65	0	0	0	0	0	0	0	0	0	0	0	0	0	0	0	0	0	0	0	0	0	0	0	0	0	0	0	0	0	0	0	0	0	0	0	0	1	0	0	0	0	0	0	0	0	0	0	0	0	0
OTU 66	0	6	1	0	3	2	2	6	12	1	0	3	0	6	0	2	7	3	0	5	3	0	0	0	0	0	0	2	0	2	3	0	2	0	3	0	3	0	0	4	9	2	0	0	0	1	0	6	0	4
OTU 67	1	4	0	1	1	0	1	0	0	0	1	0	0	0	2	0	5	1	1	3	0	2	0	1	0	0	0	0	4	0	1	0	5	0	0	0	2	1	0	1	1	0	2	2	1	4	0	0	4	0
OTU 68	0	0	2	0	28	0	0	2	2	0	0	0	0	0	0	0	1	0	0	0	2	0	1	1	0	4	0	0	0	5	0	3	1	6	0	0	0	2	2	4	0	1	0	0	4	3	3	0	0	0
OTU 69	0	1	0	0	2	8	1	0	0	0	0	0	0	3	0	0	0	3	0	0	3	0	1	0	1	4	0	1	0	3	7	2	3	0	0	0	0	0	0	2	5	1	2	0	1	2	0	0	0	3
OTU 70	1	0	1	1	0	3	0	0	3	0	1	0	0	2	0	1	0	11	0	0	1	0	1	0	0	3	0	1	0	2	0	0	0	0	0	2	0	1	1	0	0	0	1	0	0	0	0	0	0	3
OTU 71	2	0	0	0	0	7	1	0	1	0	0	0	0	2	0	0	1	2	0	3	1	1	0	4	0	0	0	0	1	0	0	1	0	0	0	0	1	0	0	0	1	0	0	0	0	0	0	4	0	0
OTU 72	1	0	0	0	2	29	1	10	5	1	0	4	2	5	0	0	2	3	0	1	3	0	186	1	0	0	1	5	1	0	0	0	0	0	0	1	0	4	0	0	3	1	1	0	3	0	0	1	0	3
OTU 73	0	10	0	8	0	9	0	1	2	1	0	0	0	0	1	0	6	0	16	0	2	0	0	2	0	6	13	1	0	1	1	2	0	9	1	0	0	4	1	0	0	1	0	2	0	0	0	3	5	0
OTU 74	4	0	1	0	0	0	6	5	6	1	2	0	0	14	0	2	0	10	0	8	0	0	1	0	0	1	0	0	1	3	0	0	3	2	2	4	12	0	0	1	0	0	4	0	5	0	0	8	1	4
OTU 75	0	0	2	0	2	0	0	9	1	0	4	2	2	0	0	3	5	6	0	0	4	0	1	11	0	10	0	6	0	0	6	4	0	40	20	8	3	0	1	0	13	16	2	0	1	5	0	3	0	4
OTU 76	6	0	0	0	0	4	0	0	0	9	0	0	0	3	28	0	0	1	0	1	0	0	0	3	0	0	0	0	0	0	4	1	3	1	8	0	0	0	0	0	0	0	1	13	1	5	0	0	0	0
OTU 77	8	0	0	1	0	0	1	1	1	0	1	1	3	2	0	0	0	2	1	1	2	1	0	5	1	0	0	4	0	1	0	0	1	1	1	0	0	2	2	3	0	4	0	1	5	1	2	0	0	2
OTU 78	1	3	0	1	0	0	0	4	0	1	3	0	2	0	1	1	0	1	0	1	1	0	0	6	0	6	1	0	6	2	0	0	5	8	0	0	2	0	1	0	3	4	0	0	0	2	0	0	0	0
OTU 79	3	14	9	1	12	7	5	5	4	1	1	3	2	0	7	5	9	9	2	5	14	3	3	12	2	3	63	1	8	19	12	1	2	16	3	5	3	36	3	0	5	27	4	1	1	12	4	2	7	12
OTU 80	4	8	3	0	1	1	8	13	1	0	0	1	0	1	1	0	0	2	12	8	0	6	2	0	0	2	0	0	0	3	2	1	6	3	1	1	0	0	0	0	2	0	1	2	0	5	0	0	0	0
OTU 81	3	0	14	0	1	3	2	10	3	0	1	2	5	1	2	1	4	6	1	0	0	6	5	4	0	0	0	9	1	73	2	0	0	0	0	3	5	1	19	1	3	0	0	0	7	1	4	11	62	3
OTU 82	29	0	0	0	1	0	3	0	0	0	0	0	0	5	0	2	3	4	1	0	4	0	0	79	0	4	0	0	0	0	1	1	2	6	1	0	0	1	0	8	2	2	0	0	2	0	0	1	10	2
OTU 83	0	0	0	0	0	0	0	0	0	0	0	0	0	1	0	0	0	0	0	1	10	0	0	0	0	0	0	0	2	0	0	2	0	3	0	0	0	0	0	0	0	0	0	0	0	0	0	0	0	0
OTU 84	4	4	1	2	0	0	3	0	2	4	1	0	0	0	5	0	0	0	0	1	2	5	2	4	0	0	0	0	0	0	0	0	0	0	13	0	0	0	1	2	3	2	0	1	0	0	0	0	0	0
OTU 85	0	0	0	0	0	0	0	0	1	0	0	0	0	0	0	0	0	0	0	0	0	0	0	0	0	0	0	1	0	0	0	0	0	0	0	32	2	0	0	1	0	0	0	0	0	4	0	1	0	0
OTU 86	0	0	0	0	0	3	0	2	0	0	1	0	0	0	0	0	0	0	0	2	0	0	0	0	0	0	0	0	0	0	0	0	0	1	0	0	0	0	0	0	0	0	0	0	0	0	0	0	0	0
OTU 87	0	6	0	3	10	0	1	0	0	0	0	0	0	3	0	0	0	0	3	0	0	1	0	0	0	0	0	0	46	0	0	0	0	0	0	0	0	0	1	1	0	0	0	1	0	1	0	0	2	1
OTU 88	0	0	0	0	0	0	0	0	0	0	0	0	0	0	0	0	1	0	0	1	0	1	0	0	0	0	0	0	0	0	0	0	0	0	0	0	0	0	0	0	0	0	0	0	0	0	0	0	16	0
OTU 89	0	0	0	0	2	0	6	0	0	0	0	2	0	11	0	0	7	11	0	0	0	1	0	0	1	0	0	0	0	0	0	0	0	0	0	0	0	0	0	3	0	0	1	0	0	0	0	0	0	3
OTU 90	0	0	0	1	1	0	0	0	0	0	0	0	0	0	0	0	0	3	0	0	0	0	0	0	0	0	0	0	0	0	0	0	1	0	0	0	0	0	0	0	0	0	1	0	0	0	0	4	0	4
OTU 91	0	0	0	0	1	0	0	0	0	0	0	0	0	0	0	0	2	0	0	0	0	0	0	0	0	0	0	0	0	0	0	0	0	1	1	0	0	0	0	0	8	0	0	0	0	0	0	0	0	0
OTU 92	0	0	0	0	0	0	0	0	0	0	0	3	0	4	0	0	0	0	2	0	0	0	1	0	0	0	0	0	0	0	0	0	0	0	0	0	0	0	0	0	0	0	0	0	0	0	0	1	0	2
OTU 93	0	0	0	0	0	0	4	0	1	0	0	0	0	0	0	2	0	0	0	0	0	0	0	0	0	0	0	0	0	0	0	0	0	1	0	0	0	0	0	0	0	0	0	0	0	0	0	0	0	0
OTU 94	0	2	0	2	0	0	2	0	10	0	0	3	2	1	2	0	8	0	1	4	3	0	0	0	1	0	1	4	1	0	0	0	0	6	0	0	1	0	3	1	0	2	8	0	3	1	0	4	1	0
OTU 95	0	1	0	0	0	1	0	15	0	0	0	1	0	0	0	0	0	0	0	0	0	3	0	1	0	0	1	0	0	10	1	0	3	0	12	0	0	0	0	0	3	4	0	0	0	0	0	0	0	0
OTU 96	0	1	2	0	0	0	0	0	0	0	0	0	0	0	0	1	0	5	0	0	2	0	0	0	1	0	0	0	0	0	0	0	0	0	0	0	0	3	2	0	0	0	1	0	0	1	3	0	3	0
OTU 97	0	0	0	0	0	0	0	0	0	0	0	0	0	0	0	0	1	1	0	0	0	0	0	0	0	0	0	0	0	0	0	0	0	0	0	0	2	0	0	0	0	0	0	0	0	7	0	0	0	1
OTU 98	0	0	0	0	0	1	0	2	1	0	2	0	0	0	0	0	0	0	2	0	0	1	0	1	0	0	0	0	0	0	0	0	1	0	1	0	52	0	0	0	0	0	0	0	0	0	0	0	2	0
OTU 99	0	1	1	1	3	5	2	10	4	0	0	3	1	1	1	5	0	1	0	0	0	68	1	0	0	3	2	2	0	0	6	3	0	0	3	1	0	5	1	0	1	6	0	2	0	2	0	5	0	0
OTU 100	0	5	0	1	0	1	0	2	0	0	1	1	0	0	0	0	1	0	1	0	0	0	0	0	0	2	0	0	0	0	0	0	3	0	2	0	2	0	0	0	5	0	0	1	0	3	0	0	0	0
OTU 101	0	0	0	0	0	0	0	0	0	0	3	0	0	0	0	0	1	0	0	0	0	0	0	1	0	0	0	0	0	0	0	0	0	0	0	0	0	0	0	0	0	0	0	0	0	0	0	0	0	0
OTU 102	3	1	3	0	0	0	0	0	6	0	0	0	0	0	0	0	4	0	132	1	0	0	1	0	0	0	0	0	1	5	0	0	0	1	0	0	0	0	0	0	1	0	0	0	0	0	0	0	0	0
OTU 103	0	5	0	7	2	0	0	0	0	0	0	0	0	0	5	0	0	0	1	0	3	0	0	0	1	3	2	0	0	0	4	3	0	0	0	0	0	1	0	0	1	57	0	3	0	0	0	0	2	0
OTU 104	2	0	1	0	0	5	0	2	3	0	0	6	2	3	0	3	4	4	0	3	0	0	0	5	0	1	2	1	10	5	0	0	0	1	3	7	0	2	0	0	2	0	1	1	0	16	0	0	3	5
OTU 105	1	2	2	1	0	0	0	0	0	1	0	0	0	0	2	0	0	0	0	0	0	0	0	1	0	0	0	0	0	0	0	0	0	1	0	1	0	0	0	0	0	0	0	0	0	0	0	1	0	0
OTU 106	0	0	0	0	37	0	0	0	5	0	0	1	0	1	3	21	0	0	2	0	0	0	0	0	0	6	0	0	0	0	0	2	0	0	0	0	2	0	0	0	0	0	0	2	0	0	0	0	0	0
OTU 107	0	1	0	0	0	1	0	0	1	3	0	0	0	6	3	0	0	0	0	0	0	5	0	0	3	1	9	0	0	6	0	0	0	1	0	0	0	8	0	1	0	2	0	1	0	0	0	1	0	2
OTU 108	2	5	0	2	0	0	0	2	0	0	0	1	0	0	2	0	13	4	2	0	2	0	0	0	0	0	0	0	0	2	0	0	4	1	0	0	0	0	0	3	0	0	0	0	0	0	0	0	0	1
OTU 109	0	0	0	0	0	0	0	0	0	0	0	0	0	0	0	0	0	0	0	0	0	0	0	0	0	0	0	0	0	0	0	0	0	0	0	0	0	0	0	0	1	0	0	0	0	0	0	0	0	0
OTU 110	0	7	0	3	0	4	1	6	2	0	0	0	0	0	2	0	0	0	0	0	0	5	2	0	6	2	0	0	2	1	3	0	0	0	0	0	1	0	2	1	0	1	22	2	2	10	0	1	0	0
OTU 111	0	0	0	0	0	0	0	0	0	0	0	0	0	0	0	0	0	2	0	0	0	0	0	0	0	0	0	0	0	0	0	1	0	2	0	0	0	0	0	0	0	0	0	0	0	0	0	1	0	1
OTU 112	0	0	0	0	2	3	0	1	0	0	1	1	0	0	0	0	1	0	0	0	0	0	0	0	0	0	0	1	0	0	1	0	0	0	0	0	0	0	0	0	0	0	0	0	0	0	0	0	0	0
OTU 113	1	1	2	0	0	0	0	0	0	0	0	0	0	0	0	0	0	0	1	1	0	0	0	0	0	0	5	0	0	0	0	0	2	0	0	0	0	0	0	0	0	0	0	0	0	0	0	0	0	0
OTU 114	2	3	0	4	2	1	0	0	27	10	118	5	0	4	0	1	26	0	1	1	9	0	0	2	1	3	3	0	7	4	55	0	0	1	0	0	2	3	0	0	3	4	0	2	2	0	1	12	3	1
OTU 115	1	1	3	0	3	0	0	6	1	9	0	1	0	5	0	2	1	1	1	4	12	4	0	4	16	3	6	3	0	0	8	1	2	1	1	1	2	11	0	1	1	5	15	0	1	0	2	0	4	2
OTU 116	9	1	1	0	2	4	0	3	9	1	0	2	4	0	0	1	1	5	2	2	0	1	1	0	0	0	4	0	6	3	0	1	2	8	2	0	2	2	2	6	3	2	4	0	1	4	1	2	0	3
OTU 117	0	0	0	0	1	4	0	1	5	4	0	0	0	0	0	0	9	0	0	0	2	6	0	0	0	6	0	2	4	0	2	8	0	2	0	2	0	0	0	3	0	0	3	1	0	0	0	2	0	0
OTU 118	0	0	0	1	0	1	0	0	4	0	0	0	5	0	0	0	0	0	0	0	1	0	0	0	0	0	0	1	0	0	0	0	0	0	0	0	0	0	0	0	0	0	0	0	0	0	0	0	2	0
OTU 119	0	0	7	2	1	5	2	1	12	0	0	0	0	3	7	0	6	16	0	3	5	2	5	2	0	0	5	4	6	2	4	0	2	0	0	0	2	54	5	3	0	6	1	8	3	2	0	4	1	2
OTU 120	0	1	0	0	0	0	0	1	2	0	0	6	1	0	0	0	0	0	5	0	0	0	0	0	0	1	0	0	0	2	0	0	0	0	1	0	0	0	0	0	2	0	0	0	0	0	0	0	5	0
OTU 121	0	2	0	2	1	0	0	0	0	1	0	1	0	5	2	1	0	0	1	4	2	0	0	0	3	0	0	0	0	0	1	0	0	2	2	0	1	0	0	0	3	0	1	0	0	1	0	0	0	0
OTU 122	0	11	1	13	4	4	50	10	0	5	1	0	0	37	6	0	0	0	0	0	2	2	0	0	1	2	1	0	0	0	0	0	0	0	8	0	1	0	2	1	8	1	0	0	0	1	0	0	0	0
OTU 123	5	8	4	1	4	18	2	8	24	3	2	3	1	4	2	0	20	5	8	7	9	11	2	4	0	2	8	6	2	3	6	5	9	3	6	0	2	79	5	3	18	7	1	0	9	14	1	14	2	1
OTU 124	0	0	0	0	0	0	0	0	0	0	0	0	0	0	0	0	0	0	0	0	0	0	0	0	0	0	0	0	0	0	0	0	1	0	0	0	0	0	0	0	0	3	0	0	0	0	0	0	1	125
OTU 125	2	8	8	5	0	3	1	0	0	1	3	0	5	5	4	4	6	1	1	23	42	12	1	4	1	3	3	17	2	7	1	0	10	2	6	1	0	0	6	9	9	14	0	2	10	4	10	1	37	7
OTU 126	0	0	0	0	0	0	1	0	3	2	0	0	1	0	0	0	0	0	0	0	0	0	0	0	0	0	0	0	0	0	2	0	0	0	0	0	0	0	0	0	1	3	0	0	0	0	0	0	0	0
OTU 127	0	1	84	0	0	0	0	9	0	0	0	1	0	0	2	1	4	0	2	2	0	2	38	1	0	0	1	3	0	0	0	0	0	0	0	0	0	0	0	0	0	0	0	0	0	1	0	0	0	2
OTU 128	8	17	1	9	2	19	6	5	22	4	3	6	6	11	9	10	6	32	2	2	6	4	0	11	1	3	2	10	1	7	8	0	30	0	9	1	6	0	7	3	16	6	2	1	0	3	0	9	7	20
OTU 129	0	0	0	0	0	0	0	0	0	0	0	0	0	0	0	0	0	0	0	0	0	0	0	0	3	0	0	1	0	0	2	0	0	5	0	0	0	0	0	8	0	0	0	0	0	2	0	0	0	0
OTU 130	0	2	0	1	0	0	0	2	3	0	1	14	1	0	0	0	3	0	0	1	2	0	1	0	0	1	3	1	0	4	10	0	1	0	0	1	0	2	0	0	1	1	0	0	1	2	1	2	4	0
OTU 131	0	1	1	2	0	0	0	14	2	0	1	3	0	0	0	0	1	0	5	0	0	0	1	0	2	0	0	0	0	8	3	2	0	2	0	0	1	0	0	1	0	0	6	0	0	0	0	1	0	0
OTU 132	0	2	0	0	0	0	1	0	2	0	9	0	0	0	1	0	0	0	0	0	5	0	0	0	0	0	0	0	0	2	0	0	0	1	0	0	0	0	1	2	0	1	0	1	4	1	0	0	0	0
OTU 133	2	0	0	0	0	0	0	0	2	0	0	0	0	0	0	0	0	0	0	0	0	0	0	0	0	0	2	0	0	0	1	0	0	0	1	0	0	0	0	0	2	0	0	0	0	0	0	0	0	0
OTU 134	0	0	0	0	0	0	3	1	0	0	0	3	1	2	1	2	0	1	2	9	4	0	0	2	0	2	1	4	3	3	1	1	0	0	0	0	4	5	0	0	1	3	4	0	0	0	1	1	5	0
OTU 135	1	0	0	0	0	2	1	2	8	1	0	0	0	1	1	1	0	6	0	0	0	0	7	0	0	0	1	2	0	1	0	1	1	0	0	0	1	1	0	0	2	5	0	0	0	0	1	3	0	1
OTU 136	2	2	0	0	0	3	0	0	0	0	1	4	0	5	1	2	4	0	2	7	2	1	0	0	0	0	0	0	1	0	1	0	2	2	4	1	0	0	4	1	0	0	0	1	0	0	1	4	0	0
OTU 137	0	1	0	0	0	0	0	0	2	0	2	2	1	2	0	0	0	0	0	0	0	0	2	0	0	0	0	0	0	1	1	0	6	0	0	0	1	0	0	0	7	0	0	0	0	1	0	0	17	1
OTU 138	0	0	0	1	0	1	1	0	0	0	0	0	1	0	0	0	0	0	1	0	0	0	0	0	0	6	2	0	2	0	0	2	0	0	2	0	0	0	0	0	0	0	0	0	1	0	0	0	0	0
OTU 139	6	1	5	0	3	8	0	7	1	2	2	6	0	0	0	1	2	0	9	4	0	11	2	1	2	0	1	10	4	0	2	0	1	1	1	1	12	0	3	20	3	3	5	0	3	5	2	41	0	0
OTU 140	1	3	0	4	1	2	80	11	4	21	12	5	0	1	5	12	11	0	2	10	0	5	0	8	74	2	2	4	0	3	5	10	91	6	15	1	46	0	0	1	7	12	3	1	1	5	0	5	10	0
OTU 141	0	0	0	0	0	0	0	0	0	0	0	0	0	0	0	0	0	0	0	0	0	0	0	0	0	0	0	0	0	0	0	0	0	0	0	0	0	0	0	0	0	0	0	0	0	0	0	0	0	0
OTU 142	0	0	0	0	0	0	0	0	0	0	0	0	0	0	0	0	0	0	0	0	0	0	0	0	0	0	0	0	0	0	0	0	0	1	0	0	0	0	0	0	0	0	0	0	0	0	0	0	1	0
OTU 143	0	0	0	0	1	0	0	0	0	0	0	0	0	0	0	0	0	1	0	5	0	0	0	1	1	0	0	0	0	0	0	0	0	0	0	0	0	0	0	3	0	0	0	0	0	6	0	1	0	0
OTU 144	0	0	2	0	0	0	0	0	0	0	0	0	0	0	0	0	0	0	0	0	0	0	0	0	2	0	0	0	0	0	0	0	0	0	0	0	0	2	0	0	0	0	0	0	0	0	0	0	0	0
OTU 145	2	28	0	14	1	1	0	5	0	1	0	1	0	17	9	0	1	22	0	10	0	1	0	0	1	4	3	1	0	1	1	1	1	4	1	0	0	0	0	0	4	0	4	5	5	3	0	1	20	7
OTU 146	0	1	0	1	0	0	1	0	0	99	3	2	0	0	0	0	0	2	1	2	2	1	0	4	19	4	5	0	0	0	1	1	1	0	1	0	0	0	5	10	11	2	40	0	1	0	2	0	0	0
OTU 147	0	0	2	0	0	4	3	4	0	0	0	0	0	0	0	0	10	0	0	1	3	0	0	0	0	5	0	0	1	6	2	2	2	0	0	0	0	0	0	0	0	0	3	0	0	0	0	0	0	0
OTU 148	1	4	0	1	3	1	0	0	0	0	1	0	0	4	1	0	0	1	0	0	3	0	0	0	0	30	0	4	1	3	0	9	1	80	0	17	0	1	0	0	0	0	0	1	1	0	0	0	4	0
OTU 149	1	1	1	0	0	0	0	0	0	0	0	0	0	0	1	0	2	4	0	3	0	0	0	0	1	2	0	0	1	0	0	1	1	0	0	0	0	0	0	0	0	0	1	0	0	0	0	1	1	0
OTU 150	0	0	0	94	0	0	0	0	2	0	0	0	0	1	0	0	1	1	2	0	0	12	0	1	0	1	0	0	0	0	0	0	1	0	0	2	0	0	1	2	4	1	0	0	1	1	0	0	0	0
OTU 151	0	0	0	59	0	0	0	0	3	0	0	0	0	0	0	0	1	0	0	3	2	0	0	0	2	1	0	0	0	0	1	0	0	2	3	5	0	0	1	2	2	0	0	0	0	0	0	0	0	0
OTU 152	5	1	0	3	4	1	0	7	5	0	1	4	5	4	5	2	0	2	0	0	3	3	0	0	0	2	0	0	1	1	0	1	1	0	0	0	5	0	0	5	1	3	0	0	0	0	0	1	0	0
OTU 153	0	0	0	0	0	0	0	0	0	0	0	0	0	0	0	0	0	0	0	0	0	0	0	0	0	0	0	2	0	0	0	0	0	0	0	0	0	0	0	0	0	0	0	0	0	2	0	0	0	0
OTU 154	0	0	0	0	0	0	0	0	0	0	0	0	0	0	0	0	0	0	0	0	0	0	0	0	17	2	0	0	0	0	0	0	0	1	0	1	0	0	0	0	0	0	30	0	0	0	0	0	1	0
OTU 155	0	0	0	0	0	3	0	0	0	1	1	0	0	0	0	0	2	1	0	0	0	0	0	0	0	0	1	1	1	0	0	0	0	0	0	0	0	0	0	0	0	0	0	0	0	1	0	0	3	0
OTU 156	1	1	3	1	0	0	2	8	1	3	1	4	0	2	3	2	5	2	5	47	3	1	0	1	0	3	0	0	1	1	0	1	1	4	7	1	0	0	0	1	7	8	0	0	10	0	5	0	2	0
OTU 157	0	0	0	0	0	0	1	0	0	0	0	1	0	8	0	1	0	14	0	1	0	0	0	0	0	2	0	0	0	0	0	0	0	0	1	1	0	0	0	0	0	3	0	0	0	0	0	0	0	12
OTU 158	0	0	0	0	1	0	0	0	0	0	0	0	0	0	0	0	0	0	0	0	0	0	0	0	0	0	0	0	0	0	0	0	0	0	0	0	0	0	0	0	2	0	0	0	0	0	0	0	0	0
OTU 159	0	3	2	1	0	0	11	0	0	0	2	0	1	26	0	3	0	0	1	0	0	1	7	0	0	0	1	1	9	0	0	0	2	2	2	0	1	0	5	0	0	2	0	1	1	2	1	0	0	1
OTU 160	1	12	2	9	11	3	1	1	5	3	1	3	0	9	89	161	0	2	3	7	4	8	0	4	1	0	1	2	5	8	9	0	1	8	12	2	72	1	1	0	1	2	1	60	8	3	1	2	1	0
OTU 161	16	1	1	1	7	0	4	1	0	1	0	4	161	1	0	0	0	3	0	2	0	0	0	38	0	1	1	0	0	1	2	0	0	1	3	0	0	0	2	1	1	0	0	0	44	18	20	0	0	0
OTU 162	107	8	0	4	2	0	1	2	0	1	1	1	1	0	10	5	1	0	0	2	0	0	0	1	0	1	1	1	2	2	1	0	5	5	0	0	0	2	0	1	8	0	0	1	0	0	0	0	4	0
OTU 163	0	0	0	0	0	0	0	0	0	0	4	0	0	0	0	0	0	0	0	0	0	0	0	0	0	4	0	0	0	0	0	4	0	0	0	0	0	0	0	0	0	0	0	0	0	0	0	0	0	0
OTU 164	0	0	0	0	0	0	0	2	0	0	0	0	0	0	0	0	0	0	0	0	0	0	0	0	0	0	0	0	0	2	0	0	0	0	0	0	0	0	0	0	0	0	0	0	0	1	0	0	3	0
OTU 165	1	0	3	0	0	1	0	1	0	0	3	0	0	3	0	3	1	1	0	0	0	0	1	0	0	0	1	1	0	0	1	142	1	1	0	1	0	3	0	0	0	0	0	0	0	0	1	0	0	0
OTU 166	0	0	0	0	0	0	0	0	0	0	0	0	0	0	0	0	0	0	0	0	0	0	0	0	0	0	0	0	0	0	0	0	0	0	0	0	0	0	0	0	0	0	0	0	0	0	0	0	0	0
OTU 167	0	0	0	0	0	0	2	6	2	0	0	3	0	2	0	0	3	0	4	5	1	2	0	0	0	0	6	0	3	3	0	0	1	0	0	0	0	1	0	0	0	1	0	0	0	2	0	7	0	0
OTU 168	3	1	1	0	1	1	0	0	1	2	0	0	0	8	0	0	0	5	1	0	0	0	2	1	0	1	0	1	7	0	0	2	0	0	0	0	1	0	0	2	2	6	0	0	0	1	0	0	0	0
OTU 169	0	3	0	1	0	0	1	0	0	0	0	0	0	0	1	1	0	0	0	0	0	0	0	1	0	1	0	0	0	0	0	1	0	0	0	0	0	0	0	0	0	0	0	0	0	0	0	1	1	0
OTU 170	2	0	0	0	0	0	0	0	0	0	0	0	0	0	0	0	0	0	0	0	0	0	0	0	0	0	0	0	0	0	0	0	0	0	0	0	0	0	0	0	1	0	0	0	0	0	0	0	0	0
OTU 171	1	8	0	2	5	17	1	0	2	0	0	1	0	0	1	3	0	0	0	0	0	2	0	2	0	0	0	0	0	0	6	0	0	0	8	0	1	0	1	0	1	1	0	0	0	0	1	1	3	0
OTU 172	1	0	0	0	0	1	0	7	0	0	0	0	0	0	0	0	0	0	0	0	0	0	0	0	0	0	0	0	0	2	0	0	0	0	0	0	0	0	0	0	0	0	0	0	0	0	0	0	0	0
OTU 173	0	3	0	2	0	7	0	0	0	0	0	0	0	0	3	0	2	0	0	2	0	2	0	0	0	0	0	0	0	0	0	0	0	0	0	0	0	0	0	0	0	1	0	1	0	0	0	1	0	0
OTU 174	0	1	0	0	0	0	1	1	1	1	19	2	0	0	0	2	1	3	2	3	1	1	0	0	0	0	0	1	0	0	62	0	0	1	5	0	0	0	0	0	2	0	0	0	0	0	0	0	3	4
OTU 175	0	0	0	0	2	1	0	0	0	1	1	0	0	4	0	1	3	0	3	1	0	2	0	0	1	1	0	0	0	0	0	0	0	0	0	3	0	0	0	1	0	4	2	0	1	0	0	2	0	1
OTU 176	2	0	0	0	1	0	0	1	1	5	0	1	0	0	0	0	3	2	3	0	0	3	0	1	14	3	2	0	0	5	3	2	1	1	0	0	2	0	0	0	0	3	1	2	2	8	0	3	0	1
OTU 177	46	10	1	7	26	2	4	1	0	0	2	4	0	0	1	5	3	3	3	0	4	4	1	7	0	1	3	0	4	0	0	1	1	0	5	1	0	0	0	0	3	0	0	0	0	2	0	0	1	3
OTU 178	10	0	0	0	0	0	0	2	0	0	1	2	0	0	0	0	0	2	1	0	4	0	0	4	0	3	0	0	1	1	0	1	0	0	1	1	0	0	0	0	0	3	0	0	0	0	0	0	0	0
OTU 179	0	0	0	0	0	0	0	16	4	0	2	3	0	0	3	0	3	1	1	0	5	3	0	0	0	0	0	0	0	10	0	0	6	0	0	1	4	0	0	2	0	0	1	0	1	0	0	4	4	0
OTU 180	3	6	105	6	19	2	1	4	11	2	0	27	1	1	5	0	11	0	24	12	2	15	45	1	5	2	1	7	2	5	35	2	9	4	2	10	7	0	4	0	0	15	16	3	2	12	1	6	4	2
OTU 181	1	1	0	0	0	4	1	2	0	1	0	1	0	3	0	0	1	2	0	0	0	0	0	0	1	3	0	1	0	0	0	1	0	1	0	0	0	0	0	3	4	1	1	0	0	0	0	3	0	1
OTU 182	0	1	0	0	0	0	0	0	0	0	0	0	0	0	0	0	0	0	0	0	0	0	0	0	0	0	0	0	0	0	0	0	0	0	2	0	0	0	0	0	0	0	0	0	0	0	0	0	0	0
OTU 183	1	0	0	0	0	1	0	0	0	0	0	0	0	2	0	2	0	0	0	1	5	0	0	0	0	6	0	1	2	0	0	5	1	5	0	0	0	0	0	0	0	0	0	0	0	0	0	0	0	0
OTU 184	0	0	0	0	0	0	2	2	0	2	0	0	0	1	0	1	0	0	0	0	1	0	0	0	0	0	0	0	0	1	0	0	0	1	0	0	0	0	0	1	0	0	0	0	0	0	0	0	0	0
OTU 185	0	2	0	0	1	1	0	0	2	1	0	0	0	0	0	2	2	0	0	0	1	0	0	1	0	4	1	0	0	0	0	6	5	6	0	1	1	0	0	0	13	4	0	0	2	1	0	2	0	4
OTU 186	0	0	1	0	0	2	0	0	0	0	0	0	2	0	0	1	0	0	0	0	0	6	2	0	0	0	0	1	10	0	0	0	0	3	2	2	0	0	6	0	13	0	0	95	3	0	0	0	0	0
OTU 187	0	21	34	12	7	1	1	2	4	2	1	115	5	1	11	0	1	3	21	0	2	0	15	1	0	14	4	12	1	2	1	3	5	10	1	3	1	1	30	0	0	3	2	6	35	0	18	3	15	0
OTU 188	2	0	0	0	4	1	1	2	7	0	0	1	2	1	0	1	3	3	0	1	0	6	0	3	0	1	6	4	2	6	2	0	9	0	2	3	2	0	3	0	0	1	1	0	1	14	0	7	0	4
OTU 189	0	0	0	0	0	0	2	1	3	1	0	0	18	1	0	0	1	7	1	3	4	1	0	5	1	7	1	24	12	4	0	1	2	1	13	1	2	0	0	0	0	10	1	0	1	6	0	1	0	4
OTU 190	0	0	1	0	0	0	1	0	0	0	0	6	0	0	0	0	0	5	2	0	0	0	0	0	46	1	0	0	0	0	0	1	0	0	0	2	0	0	0	0	0	0	70	0	0	0	0	0	0	7
OTU 191	3	0	3	1	0	0	1	0	3	2	4	2	0	2	0	0	0	0	0	15	0	5	1	0	0	4	0	0	4	0	3	9	1	0	1	1	0	2	0	1	0	12	0	0	4	0	1	0	1	1
OTU 192	0	8	3	6	0	4	2	26	0	2	0	0	0	6	4	0	2	6	0	0	1	2	1	0	0	4	17	1	0	9	3	0	0	0	2	1	1	15	1	5	7	13	0	1	0	1	13	0	2	2
OTU 193	2	2	0	3	1	3	3	0	1	0	1	6	4	1	0	5	25	1	9	0	0	0	0	1	0	0	0	0	0	0	10	0	6	1	2	25	2	0	1	1	0	1	0	2	2	0	0	2	1	1
OTU 194	0	0	0	0	7	4	0	3	3	32	1	0	0	1	0	0	0	0	0	1	0	4	0	0	8	4	3	0	0	1	20	0	30	4	1	0	1	0	0	0	1	9	15	0	1	0	0	1	4	0
OTU 195	0	1	0	2	0	0	1	1	1	1	1	0	0	0	1	0	0	2	0	4	7	5	0	3	0	0	5	1	6	1	3	0	0	4	1	0	0	0	2	4	2	0	3	1	0	0	0	2	0	1
OTU 196	0	4	1	0	3	0	1	0	1	3	2	0	0	0	0	5	0	0	1	0	0	0	0	6	0	0	0	0	0	0	1	0	1	0	1	1	0	0	4	0	0	1	0	0	1	0	1	0	0	0
OTU 197	2	3	2	6	8	1	1	1	1	1	5	5	28	6	0	6	3	7	13	8	11	5	3	1	0	6	4	62	6	1	0	4	13	1	10	3	0	2	1	3	14	8	1	1	0	1	0	2	3	6
OTU 198	0	0	0	0	3	0	0	0	0	1	0	0	0	5	0	0	2	0	0	0	0	0	1	0	0	1	0	0	2	0	0	1	0	0	0	1	0	1	0	1	0	0	0	0	0	2	0	0	0	0
OTU 199	0	0	0	0	0	0	5	0	2	2	0	0	0	1	0	0	0	1	0	0	0	0	0	0	0	0	1	0	0	2	0	1	1	0	0	0	1	0	0	0	0	0	0	0	2	0	0	3	0	5
OTU 200	1	6	0	1	0	0	1	0	0	1	0	2	0	0	3	2	2	9	0	1	0	5	0	1	0	0	0	0	6	7	4	2	0	0	0	0	0	0	0	0	6	0	0	1	0	1	0	0	0	2
