	Host 1	Host 2	Host 3	Host 4	Host 5	Host 6	Host 7	Host 8	Host 9	Host 10	Host 11	Host 12	Host 13	Host 14	Host 15	Host 16	Host 17	Host 18	Host 19	Host 20	Host 21	Host 22	Host 23	Host 24	Host 25	Host 26	Host 27	Host 28	Host 29	Host 30	Host 31	Host 32	Host 33	Host 34	Host 35	Host 36	Host 37	Host 38	Host 39	Host 40	Host 41	Host 42	Host 43	Host 44	Host 45	Host 46	Host 47	Host 48	Host 49	Host 50	
OTU 1	102	139	172	114	43	46	12	128	90	137	5	50	138	15	223	13	279	272	24	6	92	70	50	51	2	149	0	1	20	61	43	50	12	34	1	11	0	109	40	73	572	23	30	77	90	7	120	0	79	0
OTU 2	44	2	66	2	3	21	3	0	0	0	6	10	1	0	9	0	0	4	3	24	8	4	1	0	6	0	0	0	4	29	2	25	0	0	25	10	1	0	14	2	0	0	0	30	12	2	12	1	4	3
OTU 3	0	16	6	4	0	0	0	3	17	0	21	3	11	0	18	2	0	4	0	68	30	3	14	47	0	0	21	6	10	0	1	2	0	0	3	0	15	0	0	11	0	3	0	6	0	44	28	1	0	31
OTU 4	9	0	0	0	0	0	0	0	0	0	0	0	0	0	0	0	0	0	0	0	0	0	0	0	0	0	0	0	7	0	0	0	0	0	0	0	0	0	0	0	0	0	0	0	0	0	0	0	0	1
OTU 5	94	166	42	48	312	111	184	819	8	357	406	779	166	1227	372	303	336	215	2	14	374	342	104	471	13	735	0	171	498	794	339	73	113	517	893	254	36	0	1290	778	650	168	351	6	267	125	851	31	0	43
OTU 6	8	82	8	0	5	143	25	16	48	0	105	19	56	7	23	12	13	6	29	22	69	73	10	31	1	30	86	25	120	85	20	65	5	49	0	3	7	6	14	24	23	6	169	0	66	64	13	189	25	26
OTU 7	35	53	105	188	28	179	14	50	46	6	147	58	38	23	32	46	9	21	30	10	11	42	87	14	83	14	205	65	4	93	8	305	83	104	50	3	20	37	87	88	28	7	0	16	22	748	950	1798	112	112
OTU 8	18	55	83	126	39	43	56	6	38	18	12	3	4	0	49	84	8	27	119	50	8	28	14	0	86	4	67	51	72	7	29	321	58	4	55	48	238	66	41	5	28	14	134	42	10	57	27	14	73	434
OTU 9	2	0	1	147	4	20	24	1	0	6	2	13	4	5	10	49	35	0	36	16	1	0	4	4	25	6	131	5	4	0	6	4	2	64	2	2	0	60	5	17	59	0	0	0	7	5	4	51	0	4
OTU 10	13	10	56	14	0	0	4	0	4	2	0	13	2	2	1	0	0	0	0	30	1	1	37	9	18	0	4	0	50	41	4	4	47	5	22	0	0	1	7	8	3	0	0	3	0	0	2	1	152	0
OTU 11	19	138	33	277	34	2	26	60	1	7	78	14	4	7	1	3	13	32	0	91	20	19	31	12	0	29	12	2	1	7	14	20	140	5	3	7	37	254	8	69	29	14	0	14	0	78	29	146	53	3323
OTU 12	30	20	89	18	8	10	60	23	9	2	57	1	104	0	17	7	0	1	13	74	67	25	9	23	40	49	62	0	8	7	39	105	46	1	63	12	232	0	41	26	0	3	43	21	32	10	62	35	155	28
OTU 13	0	20	0	0	0	0	0	0	3	0	0	0	0	0	2	0	2	0	0	0	0	0	3	0	0	0	5	0	0	0	0	0	0	0	0	0	0	0	0	0	3	0	0	0	0	0	0	0	2	13
OTU 14	0	3	19	7	0	0	2	13	0	0	23	58	12	15	20	14	0	0	0	0	9	1	8	9	1	0	75	0	6	3	0	1	211	0	40	18	43	1	0	112	0	8	1	3	3	145	35	178	19	0
OTU 15	0	0	1	0	0	0	0	1	0	0	0	0	0	0	0	0	0	0	0	0	0	0	0	0	0	0	0	0	11	0	0	0	0	0	4	0	20	0	4	0	0	0	0	46	0	0	0	0	0	0
OTU 16	5	0	0	0	0	0	0	0	0	0	1	0	0	1	0	0	0	0	0	0	0	0	0	0	0	0	0	0	0	0	0	0	0	0	0	0	0	0	0	0	0	1	0	0	6	0	0	0	0	0
OTU 17	1	1	13	7	1	49	1	99	2	219	1	20	18	12	119	10	432	474	0	4	1	23	40	7	11	4	19	8	58	616	12	0	26	300	4	7	0	0	1	44	809	55	20	5	0	31	3	40	90	2
OTU 18	21	14	5	53	70	43	23	74	43	7	61	21	17	18	70	48	39	6	21	21	4	31	11	39	79	3	116	78	240	18	33	39	49	37	21	89	165	102	37	56	61	30	49	73	4	34	64	10	84	81
OTU 19	0	0	0	0	0	0	24	0	0	0	0	0	0	0	0	0	0	0	0	0	0	0	0	0	0	0	0	0	0	0	0	0	1	0	0	0	0	0	0	0	0	0	0	0	0	0	0	0	0	0
OTU 20	56	1115	376	29	7	10	3	26	96	0	11	12	13	2	18	50	15	4	4	279	67	107	132	12	151	639	7	1	27	104	9	13	21	20	4	16	33	35	14	30	27	6	105	277	13	586	21	883	42	26
OTU 21	10	59	17	124	2	0	125	0	6	11	119	24	4	15	5	11	3	7	18	29	10	2	65	7	8	1	4	3	82	82	45	45	100	0	62	54	115	107	6	84	6	8	1	25	0	31	41	3	38	86
OTU 22	55	43	48	8	6	0	2	50	31	34	67	40	8	27	88	11	4	22	1	6	32	29	2	17	413	36	105	0	19	3	5	13	1	16	19	1	0	108	9	109	10	3	18	0	6	0	56	2	45	64
OTU 23	3	85	0	1	0	31	20	4	5	0	4	13	62	6	16	14	8	15	2	0	76	86	1	31	0	6	0	0	0	15	11	0	42	3	39	3	1	1	0	18	14	7	32	8	74	0	1	0	92	84
OTU 24	5	12	2	12	0	0	2	0	28	20	2	0	8	0	0	12	0	24	1	6	2	2	0	0	0	24	27	0	1	62	0	0	0	25	51	129	25	194	0	1	1	0	2	1	0	24	4	25	136	0
OTU 25	0	0	0	0	0	0	0	0	0	0	0	0	0	0	0	0	0	0	0	0	9	0	0	1	0	0	0	0	0	1	0	0	0	0	7	0	0	3	0	0	0	0	0	0	0	0	0	0	1	0
OTU 26	29	0	73	0	10	26	1	0	0	1	3	0	8	0	5	29	0	0	2	1	0	0	16	30	7	0	2	1	1	0	0	0	0	0	0	4	30	27	22	0	0	7	0	35	0	2	0	3	0	1
OTU 27	0	0	0	0	0	3	0	0	0	0	0	0	74	0	30	1	0	0	0	0	0	0	0	11	0	0	0	27	0	23	10	0	0	28	0	0	0	0	0	1	0	60	0	2	0	0	0	0	0	0
OTU 28	176	20	93	1	64	13	9	9	99	7	34	36	6	22	384	31	0	12	5	50	1493	72	49	174	42	6	78	24	68	2	10	18	173	14	81	0	46	9	100	54	0	43	173	84	33	18	25	3	71	129
OTU 29	166	9	7	60	6	3	6	15	94	11	14	23	6	35	0	69	3	13	11	6	47	9	23	3	37	12	56	3	59	35	14	26	80	34	88	62	1942	17	38	5	3	0	34	9	12	38	58	66	9	34
OTU 30	0	0	0	0	0	0	0	0	0	0	0	0	0	0	0	0	0	0	0	3	0	0	0	0	0	0	0	0	0	0	0	0	0	0	0	0	0	0	0	0	5	0	3	0	0	0	0	0	0	0
OTU 31	0	6	72	13	11	1	0	35	107	0	10	7	0	4	0	0	2	0	0	14	0	2	14	41	112	0	12	3	0	2	0	20	4	6	20	8	0	1	12	0	9	39	2	2	4	7	17	4	54	1
OTU 32	18	30	15	35	1935	57	4	30	14	3	90	77	95	38	43	16	28	9	49	689	24	17	40	3777	58	10	71	129	24	53	40	37	28	16	69	11	42	125	17	179	50	1737	22	97	27	41	111	12	10	236
OTU 33	0	0	4	0	0	0	0	0	0	0	2	0	0	0	0	0	0	7	0	0	1	0	0	0	0	0	0	2	0	0	0	0	0	3254	0	0	0	5	0	0	0	0	0	0	0	0	0	0	6	2
OTU 34	85	7	22	0	12	0	45	15	1	11	255	3	16	12	13	7	8	48	14	1	65	1	65	7	43	4	7	2	104	26	3	22	7	23	52	903	35	6	47	1	12	3	1	6	62	5	2	73	7	6
OTU 35	52	14	16	0	0	1	20	7	116	0	36	0	37	0	49	2	7	6	30	0	29	8	58	6	67	3533	26	101	48	3	63	123	14	10	81	2	79	12	12	0	16	0	74	19	18	7	1	84	50	6
OTU 36	8	125	3	0	9	3	0	38	1	2	4	49	18	14	5	5	1	8	23	0	61	3	18	1	110	15	13	27	5	3	4	1	133	35	15	79	119	2	11	40	6	0	20	161	15	3	10	7	32	0
OTU 37	0	6	0	0	5	0	0	0	0	0	8	1	12	1	5	12	8	0	36	0	20	56	9	0	0	4	0	3	0	4	0	60	7	0	4	4	0	16	0	0	21	0	1	0	23	14	227	10	6	0
OTU 38	14	54	113	51	0	141	0	29	38	14	4	15	10	3	21	1	1	60	1	1	8	39	23	9	31	0	4	0	8	1	8	18	187	0	49	238	62	59	3	10	2	8	114	32	3	23	15	4	147	14
OTU 39	0	29	1	14	0	0	5	0	0	0	0	0	48	1	6	2	0	0	0	0	0	0	0	0	30	9	11	2	10	1	0	2	0	4	2	0	0	3	0	1	0	8	8	17	1	2	32	0	3	0
OTU 40	194	39	13	10	1574	123	44	22	2	11	3	28	1	1882	1	53	0	2	27	29	5	31	0	37	40	1	9	238	5	4	16	10	81	8	5	18	13	35	32	93	1	8	113	30	17	10	1	96	37	18
OTU 41	5	0	5	15	0	29	5	6	4	1	53	24	0	12	32	2	1	0	0	66	24	5	0	7	2	27	16	2	12	74	18	0	17	45	13	30	2	57	9	11	4	18	2	51	20	2	1	12	1	30
OTU 42	25	0	122	2	8	0	0	0	11	0	0	0	0	0	10	13	0	2	3	38	0	0	0	13	0	0	64	3	0	0	0	5	0	5	0	0	0	0	1	4	0	23	57	0	2	0	0	34	9	0
OTU 43	0	0	0	0	0	0	0	0	0	0	0	0	0	0	0	0	0	0	0	0	0	0	0	6	9	0	99	0	6	8	5	0	0	53	0	0	0	0	11	0	0	13	0	0	0	0	0	0	0	0
OTU 44	9	19	0	0	0	131	7	0	0	0	96	2	3	0	10	0	21	0	0	0	0	9	9	2	0	0	0	2	2	5	8	0	0	8	0	10	0	1	2	9	35	0	5	0	13	32	30	36	0	12
OTU 45	503	25	61	5	471	26	3	11	45	1	5	10	604	5	1514	2	5	5	109	14	39	1	123	644	21	13	32	1	11	24	281	34	72	7	36	72	44	41	290	21	17	288	9	69	35	18	31	18	25	11
OTU 46	22	78	25	764	3	7	4	156	27	2	201	4	0	7	1	119	0	3	0	15	52	325	1	32	25	50	66	51	83	44	2931	1	0	0	1	1603	14	3	163	2	4	263	2	2	171	0	100	8	121	2
OTU 47	74	30	3	0	5	0	14	0	0	1	114	0	10	0	0	73	0	0	0	0	2	4	0	0	1	0	138	0	0	2	27	0	105	0	0	0	1	0	1	0	0	0	41	0	0	29	0	52	0	0
OTU 48	1	154	52	2339	49	124	2316	9	10	17	40	39	7	19	49	65	4	33	11	8	84	11	12	65	38	91	133	95	26	14	14	47	2	6	32	50	17	125	37	86	9	26	2	108	70	29	2	26	20	17
OTU 49	91	0	2	4	2	20	0	1	0	0	0	390	43	1862	5	6	2	9	15	23	34	4	0	38	149	24	2	34	5	39	9	0	4	5	59	23	28	17	74	666	4	54	0	1	5	97	232	0	4	78
OTU 50	50	6	1	8	4	20	17	2	5	4	37	38	11	55	12	10	11	13	8	12	13	31	5	69	58	15	13	25	14	5	13	13	52	57	83	1	6	11	68	100	18	36	21	36	55	37	103	33	279	7
OTU 51	6	8	11	13	4	6	0	10	38	19	115	22	5	13	27	123	22	14	3	188	22	25	6	14	81	7	142	5	48	46	4	124	9	8	4	1414	117	103	6	31	43	0	44	12	19	4	61	3	33	45
OTU 52	26	93	139	359	63	6	195	22	25	313	387	13	13	9	94	146	27	23	2	12	1	49	31	75	105	148	106	91	126	17	15	249	88	63	736	302	162	835	5	87	55	53	31	31	128	152	35	173	43	1
OTU 53	0	0	0	0	0	0	0	0	0	0	0	6	0	0	0	11	0	0	0	0	0	0	0	1	2	9	30	0	0	0	0	1	0	0	0	0	0	0	0	17	0	0	0	0	0	0	0	0	0	0
OTU 54	190	67	202	19	19	3299	58	38	94	470	35	14	1150	6	49	36	17	15	113	11	38	50	5	33	116	57	24	63	39	18	844	25	23	8	9	25	22	88	192	58	29	6	112	15	62	6	20	51	49	48
OTU 55	59	0	0	0	0	0	0	0	0	0	12	0	5	0	0	0	0	0	0	0	0	0	0	0	1	0	0	0	0	0	0	0	0	0	0	0	5	0	48	0	0	0	0	0	0	0	0	0	0	0
OTU 56	16	0	1	1	2	9	2	0	22	2	0	0	3	3	14	1	0	0	0	58	1	0	76	0	7	0	1	0	0	28	0	49	35	1	36	7	0	162	3	0	0	0	3	4	34	12	0	0	0	26
OTU 57	42	73	97	17	68	22	11	547	40	88	54	49	75	12	104	221	248	95	125	98	104	212	82	142	19	40	248	1050	666	264	67	118	181	344	12	26	136	118	29	71	524	39	10	198	113	186	6	331	272	20
OTU 58	1	0	42	0	11	485	5	1	2	0	49	19	1	8	56	0	55	1	32	5	1	6	3	15	0	0	3	3	41	9	9	30	5	0	53	1	0	16	1	107	106	12	968	35	13	0	208	9	2	3
OTU 59	19	41	10	53	55	7	1	100	0	103	1	0	3	0	36	15	157	176	3	25	18	49	0	81	26	36	0	27	6	65	10	0	0	4	25	14	35	5	12	0	316	58	2	1	15	38	3	13	0	8
OTU 60	39	34	9	86	17	11	7	55	76	2	0	29	36	17	29	1	27	60	26	190	16	179	19	66	32	17	21	3	14	9	3	16	61	11	1	5	2	78	18	48	58	11	23	2	14	41	80	50	127	29
OTU 61	74	112	14	163	29	46	0	1	39	29	56	65	78	39	177	22	55	64	2201	152	24	1	21	37	10	72	57	66	78	110	32	5	91	69	76	54	38	263	1	74	109	1	118	110	11	6	83	87	61	27
OTU 62	0	8	21	0	0	0	0	0	44	0	0	0	48	0	4	143	8	0	3	3	2	158	3	0	9	13	54	868	2	9	12	14	5	0	0	1	0	0	0	0	18	3	11	0	38	40	0	18	0	4
OTU 63	24	118	4	0	12	11	0	106	39	0	7	1	0	0	3	6	1	3	30	5	3	0	3562	0	0	17	9	9	1	9	0	0	227	9	35	0	1	19	5	3	1	18	0	63	1	5	6	26	167	19
OTU 64	131	11	37	33	24	2	548	57	60	2	25	93	98	47	136	200	7	26	10	6	16	69	51	72	40	32	431	18	40	48	53	73	260	62	110	41	131	173	19	194	12	57	3	26	8	12	253	4	25	373
OTU 65	0	1	0	1	0	0	0	0	0	0	2	0	15	0	0	59	0	0	0	0	0	0	0	0	6	2	131	0	0	0	0	0	14	8	0	0	0	0	0	0	0	0	0	0	0	0	0	20	0	3
OTU 66	22	20	44	34	45	2	5	53	1951	0	8	83	22	21	53	0	0	18	3	21	13	9	1271	35	30	8	7	31	48	10	10	4	23	48	16	9	9	14	36	126	6	51	1	23	2	1	11	25	4	11
OTU 67	2	87	92	100	1	35	34	0	19	4	0	44	7	19	0	110	0	0	17	41	35	9	0	2	2	3	155	12	8	12	102	74	1	24	0	13	48	0	0	65	0	6	30	79	0	8	48	17	122	1
OTU 68	6	7	53	6	0	22	3	23	4	407	0	0	2	0	21	0	470	986	7	19	12	12	2	38	0	1	0	36	2	649	2	37	0	261	0	21	0	0	0	10	1012	0	0	13	0	3	0	0	33	5
OTU 69	6	16	63	558	16	38	4	11	48	3	97	124	13	74	1	33	1	0	6	50	12	20	4	27	27	8	30	10	6	110	19	307	1	17	357	207	66	751	3	254	7	0	7	28	54	27	128	35	70	6
OTU 70	13	0	4	51	10	4	1	271	12	69	1	26	13	11	50	22	21	57	22	3	0	172	0	49	3	5	144	122	236	16	14	16	0	5	30	42	26	165	25	59	51	3	18	1	94	2	4	9	1	13
OTU 71	21	6	0	5	881	93	26	0	52	12	0	133	0	67	0	0	13	2	62	59	16	6	0	6	0	0	8	2153	0	21	0	34	0	0	2	6	4	86	0	133	30	4	0	0	4	0	4	25	9	5
OTU 72	161	21	4	13	29	1	9	10	12	27	2	12	9	4	25	18	5	17	0	23	4	0	17	16	130	18	36	32	1	94	2	13	78	17	95	3	34	63	97	35	11	27	2	1	0	56	28	89	2	13
OTU 73	2	52	4	34	0	22	0	219	5	14	15	14	34	1	37	0	10	36	21	94	1	25	1	0	71	23	52	0	4	26	14	84	57	7	58	33	668	2	1	0	28	28	35	21	0	3	1	55	54	41
OTU 74	150	95	11	34	3	79	23	5	0	23	26	96	40	38	0	37	40	83	6	76	17	11	14	2	196	77	4	26	10	547	14	15	132	284	24	7	1	3	51	70	103	8	87	27	26	112	14	178	24	2
OTU 75	23	3	3	3	6	21	50	462	4	186	74	105	7	57	9	17	310	253	4	8	508	757	5	59	3	6	22	217	489	491	31	87	14	149	26	20	31	13	22	173	634	10	0	12	315	4	22	18	18	10
OTU 76	33	17	0	2	0	5	2	16	0	0	11	0	0	1	0	0	0	14	0	148	3	14	2	0	0	0	6	0	12	0	0	16	0	8	4	0	4	0	2	0	0	0	10	71	0	0	7	3	0	0
OTU 77	37	18	141	4	1	4	1003	82	1	60	127	9	8	3	37	23	18	108	14	1	45	42	42	10	53	0	4	1	66	28	1	34	0	3	82	55	92	0	27	17	42	2741	1	1	5	40	95	27	149	57
OTU 78	85	306	134	15	101	3	98	49	0	5	216	3	81	0	46	165	4	17	28	66	71	92	115	12	6	129	258	100	177	37	38	65	82	20	23	31	46	57	43	7	13	3	68	47	66	120	116	133	6	19
OTU 79	183	103	25	56	75	77	16	148	45	2202	146	107	179	55	245	46	102	4176	149	64	84	198	17	274	154	58	95	80	11	17	54	99	22	29	75	23	180	9	1073	203	189	128	167	114	99	1597	44	107	412	93
OTU 80	54	65	0	6	13	15	13	1	24	85	39	94	3505	43	6	29	11	80	26	16	52	121	86	9	218	47	16	67	3	8	1510	6	30	3	32	6	90	15	23	158	29	6	45	96	86	9	30	18	17	21
OTU 81	28	0	42	55	6	20	160	21	8	1474	86	31	12	30	33	45	1	3	120	20	31	60	23	18	58	3	3	16	8	19	622	202	15	45	172	32	79	73	677	119	11	21	119	29	0	43	44	26	148	123
OTU 82	49	5	76	65	64	16	0	105	17	0	85	5	0	2	81	181	20	20	7	36	0	3	0	17	18	9	246	2	8	8	18	2	12	13	54	1	7	228	57	6	33	51	117	2	0	3	4	7	27	125
OTU 83	14	0	10	2	0	5	23	1	0	1	0	0	8	0	0	0	0	14	4	0	33	41	1	0	9	8	0	3	10	4	5	0	54	950	0	0	2	0	2	1	0	0	3	0	69	5	0	63	53	0
OTU 84	0	5	74	85	48	50	12	68	70	1	92	8	120	7	44	0	0	0	49	20	0	0	3	128	5	6	5	1	3	0	132	10	23	4	9	21	3	97	6	33	0	55	21	0	2	13	28	13	90	3
OTU 85	1	0	1	0	7	0	12	0	22	0	0	12	0	8	0	19	22	3	0	29	0	3	0	1	0	2	29	11	0	2	0	0	0	0	2	12	0	0	2	52	50	0	7	0	0	1	22	1	5	108
OTU 86	0	0	0	0	0	46	0	0	0	0	6	0	5	0	12	3	0	0	0	0	0	4	0	0	0	0	0	0	0	0	0	0	0	0	0	0	0	0	0	0	0	4	0	0	0	2	0	0	0	0
OTU 87	37	1	0	16	3	0	1	105	2	0	19	0	0	0	1	0	5	12	0	1	0	0	0	0	6	0	2	0	6	0	0	2	0	0	12	0	0	37	0	0	4	0	4	11	1	2072	0	0	0	78
OTU 88	2	0	0	13	0	3	1	1	0	3	70	0	0	0	3	1	0	5	0	2	19	0	0	0	0	0	0	0	50	0	0	0	0	0	0	48	3	0	0	0	0	0	0	1	0	0	15	10	30	3
OTU 89	929	10	2	0	14	0	1	0	4	2	9	0	12	0	1	3	49	4	374	1	0	5	1	0	41	17	110	0	0	0	2	112	0	14	7	7	2	0	669	4	95	0	73	11	16	0	33	1	7	22
OTU 90	0	1	0	1	0	44	3	4	0	0	0	1	0	1	0	0	0	0	0	9	0	0	0	0	0	0	0	0	16	0	8	3	0	4	0	0	1	0	0	0	0	0	3	8	0	3	0	6	0	0
OTU 91	0	0	0	0	0	0	2	0	0	0	1	0	0	0	0	9	0	0	10	0	0	0	0	0	0	0	1	0	0	0	0	0	0	0	0	5	0	0	0	0	7	0	3	0	0	0	0	0	0	0
OTU 92	1	52	3	3	9	0	10	0	2	0	8	4	120	4	1	0	33	0	0	0	1	23	0	0	6	29	0	20	0	0	6	6	0	5	3	6	0	0	1	1	72	0	4	10	0	2	19	0	1	0
OTU 93	4	0	0	0	0	0	13	66	1	0	0	0	0	0	0	0	0	0	0	116	0	0	0	2	1	0	2	0	19	57	0	0	82	0	0	0	0	0	2	0	0	0	3	0	1	0	0	0	3	0
OTU 94	57	31	69	80	25	269	22	34	15	6	43	217	11	130	3	114	28	11	30	129	55	130	2	2	78	45	36	38	19	77	6	75	28	22	1	30	18	147	14	187	73	0	589	67	13	109	104	83	211	0
OTU 95	1	31	6	3	32	0	18	1837	0	1	0	6	0	2	14	13	0	21	10	0	0	17	0	4	0	0	1	0	0	0	1	0	7	1	0	1	11	5	6	9	0	3	0	0	0	5	4	0	7	0
OTU 96	0	27	0	0	0	0	2	0	0	0	0	0	0	0	0	0	13	0	0	0	1	0	0	0	0	0	0	0	0	0	0	0	30	0	49	0	0	0	0	0	31	2	0	0	0	0	0	0	0	0
OTU 97	11	0	14	0	1	0	0	0	0	2	0	0	0	0	0	0	0	0	6	0	15	0	0	0	0	1	0	0	0	0	1	20	0	0	13	0	206	0	0	0	0	0	0	0	0	4	0	0	0	12
OTU 98	52	8	19	4	0	0	57	0	50	2	0	2	0	0	1	0	1	12	7	1	0	0	0	0	6	3	11	26	11	1	0	271	10	0	34	1	0	0	5	0	4	2	32	4	0	9	2	1	9	2
OTU 99	4	50	4	20	19	81	26	11	29	15	2	20	48	14	148	16	22	28	7	75	39	13	54	9	59	15	7	31	13	11	7	214	109	2	8	21	41	109	1331	67	57	2	137	23	43	15	13	27	86	14
OTU 100	48	57	42	9	0	43	11	82	1	13	16	4	53	0	9	45	60	46	0	11	1	16	1	12	8	21	7	21	126	31	0	15	56	22	13	78	58	5	1	5	113	1	2	6	16	0	13	1	83	4
OTU 101	54	0	0	0	0	0	0	0	1	3	1	9	6	3	0	0	1	1	0	0	2	0	0	0	0	0	0	0	0	0	0	0	3	0	0	0	0	0	6	21	2	0	0	0	0	0	0	3	8	9
OTU 102	0	22	13	12	20	3	13	0	0	0	5	2	26	5	0	0	17	8	2	21	4	0	4	9	0	1	0	1	89	0	40	16	23	12	0	0	0	0	2	63	37	1	29	3	0	2	18	53	0	1
OTU 103	1	11	1	16	0	2	0	2	9	0	1	2	22	0	25	0	0	1	46	4	0	44	1	1	3	11	9	75	12	79	18	159	0	51	1	17	15	124	2	0	0	0	0	91	21	1	10	8	50	23
OTU 104	35	151	41	18	60	35	239	77	14	12	47	96	76	52	172	19	0	31	10	1	10	13	3	91	113	89	20	117	42	79	38	77	6	5	59	911	43	92	2	151	1	92	27	81	13	31	633	39	35	16
OTU 105	0	0	26	0	0	0	1	0	3	23	83	70	3	28	0	0	18	24	65	2	10	3	0	0	18	144	0	6	0	3	1	104	3	1	5	1	8	0	0	85	39	0	14	1	19	0	1	1	2	1
OTU 106	0	0	0	0	0	14	0	0	0	0	1	5	15	2	0	8	1	13	0	1	1	1	0	1	0	12	0	0	1	2	1	36	250	25	0	2	0	8	6	15	1	0	0	0	0	0	3	0	21	0
OTU 107	11	2	501	8	12	14	30	68	259	1	1	0	4	0	5	0	17	2	0	180	19	35	157	45	37	3	15	13	2	45	0	63	0	0	0	0	0	7	40	0	31	0	1	318	41	4	2	32	0	54
OTU 108	2	339	1	214	0	6	20	11	0	1	0	35	9	33	38	158	0	19	2	3	0	1	6	44	32	133	43	70	36	35	1	18	96	1	96	39	1	94	61	73	0	7	0	149	4	11	37	45	42	9
OTU 109	0	0	0	0	0	0	0	0	0	0	0	0	0	0	10	0	0	0	0	0	0	15	0	1	0	0	0	0	0	0	0	0	2	0	0	63	0	12	0	0	0	0	0	0	0	0	0	1	0	2
OTU 110	5	88	41	8	26	20	24	54	0	7	40	3	45	1	55	54	24	19	0	1	145	93	1	26	14	13	0	58	0	36	19	11	7	4	10	10	10	7	4	10	55	62	5	15	86	32	6	213	49	36
OTU 111	0	45	58	13	2	0	7	0	18	2	0	5	0	1	0	0	0	0	0	0	0	0	31	0	11	14	0	0	7	0	0	35	0	0	0	0	6	2	0	5	0	1	40	10	10	0	0	1	1	0
OTU 112	0	76	34	16	2	104	8	70	0	8	8	0	4	1	0	0	2	34	0	1	10	16	0	0	0	29	45	0	76	0	27	3	0	12	68	3	9	51	56	4	12	0	57	22	25	0	0	12	142	0
OTU 113	0	0	0	19	11	6	24	3	0	0	0	0	0	0	1	1	0	0	0	0	62	0	0	0	18	4	0	3	0	0	0	0	4	0	0	3	0	0	0	0	0	0	0	6	4	14	15	0	9	0
OTU 114	22	10	12	62	0	63	14	19	1399	28	46	10	43	2	34	53	135	50	65	24	70	50	650	14	151	31	236	11	105	19	28	6	5	34	23	23	4	58	2	25	67	11	103	3	0	95	18	211	61	60
OTU 115	110	413	155	64	11	89	14	60	48	25	40	16	18	24	103	50	35	50	5	75	41	27	40	28	22	211	10	15	120	82	51	160	215	42	23	221	39	21	95	51	80	29	49	62	5	66	234	87	165	61
OTU 116	117	37	16	43	3	7	289	0	1	2271	17	0	43	0	45	41	15	5	2580	27	9	14	31	70	120	2	28	5	23	16	6	39	314	13	12	5	168	95	25	0	34	35	23	174	8	2	23	7	34	13
OTU 117	1	17	180	7	0	15	8	38	3	8	1	0	41	2	79	29	7	13	3	12	3	0	9	2	79	0	99	7	10	21	1	0	1	23	0	3	0	46	4	7	15	25	7	27	15	46	27	17	66	0
OTU 118	0	6	10	1	2	0	3	0	0	2	0	0	2	0	0	0	0	12	5	0	38	0	9	0	0	0	3	21	0	0	2	0	3	8	14	0	1	152	0	0	0	0	0	3	3	0	0	11	2	4
OTU 119	48	10	2	32	48	2	8	19	44	2	0	17	11	8	58	11	10	5	19	13	3	3	37	42	264	20	26	124	1	6	17	92	58	9	67	90	64	36	1	27	23	59	12	41	38	21	4	67	20	64
OTU 120	41	30	0	0	0	17	3	0	2	154	0	0	45	0	7	7	7	264	0	5	2	0	40	0	72	6	3	40	2	13	22	0	43	1	0	1	106	0	0	9	23	0	20	1	1	0	2	1	0	22
OTU 121	1694	5	24	54	23	10	4	1	74	2	239	41	0	18	198	6	0	9	10	2	0	6	0	199	0	3	91	56	6	10	0	0	55	0	1112	27	14	22	988	78	0	66	75	1	0	30	6	1	5	30
OTU 122	32	2	46	75	3	33	36	9	4	7	80	78	57	15	48	8	1	9	7	99	33	73	87	10	14	9	3	4	0	44	45	28	10	4	107	83	7	193	55	130	1	12	10	18	0	27	108	8	19	72
OTU 123	126	1230	720	233	1655	136	80	55	571	5	71	26	131	11	22	332	28	14	39	2242	14	31	217	117	67	673	244	160	989	99	53	151	1451	39	101	138	158	329	76	80	54	116	160	2286	22	311	131	719	260	168
OTU 124	0	0	2	0	16	2	14	0	7	0	11	4	0	0	86	1	0	2	0	1	52	12	0	36	5	0	0	29	0	1	4	0	179	0	0	3	4	0	2	5	0	13	0	0	17	1	86	14	111	59
OTU 125	537	344	93	96	64	32	265	142	100	10	147	66	95	403	438	89	19	10	90	114	47	105	64	89	435	123	150	88	80	105	93	909	179	63	127	89	137	149	163	83	77	13	187	56	62	58	48	188	140	97
OTU 126	18	90	2	0	13	0	0	140	0	26	0	0	0	0	148	99	64	158	5	18	103	271	0	82	8	43	41	0	22	72	0	0	3	20	0	0	0	0	0	1	126	88	0	0	117	2	0	1	0	3
OTU 127	32	72	151	44	2	9	71	21	44	1	3	24	24	8	24	9	0	0	16	3	0	9	0	57	162	44	64	14	4	4	69	825	0	21	0	2	0	0	10	46	1	0	11	7	0	0	28	0	51	377
OTU 128	76	738	257	110	108	140	14	114	37	58	235	62	57	25	94	275	101	50	41	66	366	1040	66	62	143	297	688	136	49	134	129	108	851	60	1391	71	210	181	50	41	224	31	569	93	625	36	109	48	60	116
OTU 129	0	0	19	0	1	0	0	696	0	0	2	3644	0	1862	0	0	0	3	0	10	1	1	13	7	13	3	20	4	0	5	17	4	0	0	29	12	131	0	0	0	0	0	41	0	0	0	43	2	0	0
OTU 130	18	12	20	63	2	7	9	7	2	0	0	244	13	103	63	3	0	1	3	15	1098	1682	1	6	24	0	10	6	17	33	2	41	21	21	9	110	30	107	12	533	2	0	17	72	4824	2	184	47	17	40
OTU 131	28	9	97	9	0	151	15	3	51	6	7	37	49	37	50	27	7	10	3	4	0	21	47	34	2057	4	2	0	0	24	24	15	10	3	1	102	32	5	17	97	24	2	109	13	40	23	519	203	65	16
OTU 132	0	99	2	4	24	0	0	1	0	4	4	7	1	6	31	3	0	7	15	0	7	1	2	14	17	68	2	0	6	1	11	1	0	1	52	0	0	30	10	37	3	0	0	3	1	4	4	32	13	2
OTU 133	83	0	0	0	5	11	0	0	0	5	1	7	0	0	20	0	0	0	0	0	0	0	0	0	1	0	14	0	0	0	0	1	15	0	0	0	0	0	56	2	0	0	28	5	0	2	0	4	5	0
OTU 134	0	24	3	1	0	156	16	7	1	5	32	180	0	121	11	19	42	1	8	0	0	28	7	4	54	26	76	63	53	29	8	17	34	20	30	1	5	12	0	53	74	22	16	3	0	4	2	2	4	27
OTU 135	44	19	0	7	0	11	1	2	31	14	1	17	0	1	1	23	0	24	10	33	9	1	0	18	7	41	2	89	4	18	20	33	2	19	95	12	41	27	27	56	0	16	1	36	3	27	52	6	0	120
OTU 136	0	59	11	25	64	2	20	14	1	0	11	3	34	0	0	18	4991	0	2	4	18	34	1	5	43	49	64	0	8	2249	6	150	16	1109	59	1	31	31	19	0	2	0	35	10	6	1	11	1	1	0
OTU 137	2	10	15	0	6	56	23	12	2	4	11	0	382	0	63	34	6	9	4	0	15	4	0	0	58	0	56	0	73	2	136	480	13	0	5	1	0	44	24	0	7	1	3	9	3	33	1	24	0	83
OTU 138	42	13	2	23	0	1	1	0	1	0	4	5	16	5	0	0	21	2	0	1	7	1	0	12	1	1	0	18	0	3	1	3	28	4	92	1	1	0	0	7	33	0	2	0	1	1	110	41	6	0
OTU 139	371	80	856	41	239	470	14	212	405	76	62	32	108	13	1349	173	87	118	1503	649	3	85	349	501	141	23	422	269	151	39	97	93	53	11	33	13	58	69	122	27	170	1944	248	1029	24	2	226	70	523	19
OTU 140	81	151	154	49	101	5	16	28	85	7	126	9	9	7	143	38	18	8	96	105	43	78	78	167	180	63	65	100	62	53	34	27	97	17	36	14	427	32	39	22	51	122	3	126	24	24	81	59	35	13
OTU 141	0	0	0	0	0	0	1	0	0	0	13	0	0	0	0	0	11	0	0	0	0	1	0	0	1	0	0	0	0	0	1	0	0	0	0	0	0	0	0	0	19	0	0	0	0	0	0	0	7	1
OTU 142	0	0	16	1	0	0	0	0	0	0	0	0	0	0	2	0	3	0	0	0	0	0	0	0	60	0	0	0	0	0	0	0	0	0	10	0	0	1	0	12	1	0	0	0	0	0	2	0	13	0
OTU 143	10	2	0	0	0	0	14	0	0	11	0	0	0	0	3	1	40	55	0	1	1	2	0	0	0	0	13	0	0	12	5	9	8	45	0	0	36	35	0	0	73	0	0	16	0	8	31	22	16	99
OTU 144	16	16	0	0	0	0	0	0	10	0	0	0	0	0	5	0	0	0	12	4	0	5	1	0	11	0	0	50	14	24	0	76	10	29	0	0	0	0	0	4	0	0	0	0	0	2	0	4	41	0
OTU 145	38	47	1	39	0	327	2	6	12	11	24	4	16	5	2	4	13	0	93	98	10	72	3	8	57	14	13	35	51	7	22	25	3	12	37	64	36	31	24	20	23	14	48	6	47	3	65	39	43	29
OTU 146	10	2	21	62	9	31	29	7	42	40	21	43	7	27	50	3	9	16	15	0	0	61	3	0	109	13	39	78	80	13	8	3	12	8	1	4	12	27	33	49	22	6	12	1	18	21	365	9	80	23
OTU 147	0	34	2	0	5	5	22	4	0	4	71	25	0	7	0	9	11	20	8	0	4	0	14	0	1	8	31	34	1	12	1	3	73	0	0	0	2	35	1	19	26	0	14	0	13	18	0	0	0	6
OTU 148	1	36	16	77	16	12	9	0	9	16	0	213	2	81	80	7	22	27	28	25	56	37	3	100	21	21	4	9	15	24	32	43	69	6	18	0	21	196	0	366	35	36	4	0	6	74	206	138	67	5
OTU 149	3	41	11	2	0	0	0	22	25	9	0	10	5	4	3	0	13	10	45	0	12	1	0	25	34	51	0	0	1841	0	42	1	0	0	81	14	13	11	0	8	28	41	0	30	0	0	12	0	6	3
OTU 150	11	15	0	22	1	2	64	57	1	0	2	0	0	0	3	56	0	10	0	0	0	7	3	7	0	3	10	7	0	14	8	0	19	26	36	0	6	36	12	0	1	6	0	1	0	14	0	24	1	0
OTU 151	3	0	0	10	75	33	4	10	5	0	29	0	1	0	14	3	1	5	1	1	26	6	0	7	5	0	1	18	26	3	6	0	314	1	10	54	0	10	3	10	2	0	0	80	0	1	1	1	1	102
OTU 152	89	16	111	3	157	12	28	115	11	27	45	0	14	0	60	134	58	53	70	43	13	1	5	110	0	14	325	11	2	6	33	1	3	5	158	0	8	10	42	0	126	34	5	2	13	23	9	22	54	1
OTU 153	0	0	0	0	11	0	0	0	0	0	26	0	0	0	0	0	0	0	0	0	0	0	0	0	0	0	0	1	0	1	0	0	0	0	0	0	0	0	0	0	0	0	11	0	3	0	6	3	0	0
OTU 154	0	0	0	830	90	0	3	9	0	3	0	0	0	0	0	0	9	0	41	3	9	0	6	1	0	1	0	2	0	0	0	0	16	0	0	0	0	0	0	0	9	5	0	0	0	0	0	10	170	0
OTU 155	0	9	120	39	0	0	94	16	3	0	66	25	0	7	0	0	3	0	2	16	2	2	0	1	28	26	0	5	1	2	23	0	0	4	84	2	3	351	12	22	7	1	9	9	1	1	0	5	2	0
OTU 156	61	9	3	4	10	0	6	51	17	18	136	16	10	3	3	25	5	70	48	154	3	14	63	0	14	22	20	5	15	53	13	41	134	16	12	153	4	72	45	32	19	8	59	27	58	1	11	18	67	1
OTU 157	39	8	0	2	15	22	0	5	0	17	21	2	88	0	70	1	6	41	8	3	0	0	52	65	48	2	3	0	0	0	32	2	0	0	116	0	0	0	22	0	11	8	0	0	46	23	0	91	387	99
OTU 158	0	0	0	0	0	0	0	1	0	0	21	1	0	0	2	4	0	0	0	0	0	0	0	0	0	0	0	0	0	0	0	0	0	0	0	0	0	0	0	0	0	0	0	0	0	0	0	2	0	0
OTU 159	10	3	62	0	0	12	35	12	26	0	1	0	21	6	1	901	5	0	5	19	17	69	14	23	81	0	23	16	17	19	49	5	102	61	104	12	38	2	2	0	13	13	1	4	91	6	4	8	0	32
OTU 160	198	282	12	164	36	12	95	7	127	18	245	13	106	2	133	85	31	37	26	115	73	115	62	74	417	200	63	3	17	22	90	554	176	32	138	145	69	93	92	32	67	85	21	57	28	40	126	119	34	170
OTU 161	30	19	6	6	13	18	22	52	1	3	19	49	31	15	6	28	33	27	2	56	2465	53	5	1	39	17	10	48	17	30	1	14	23	1	236	1	7	41	28	50	65	1	127	28	30	0	4	0	0	3
OTU 162	6	0	19	5	11	30	0	39	19	52	1	1	76	3	69	39	114	121	19	33	0	29	9	51	39	1	50	78	190	18	0	0	69	39	5	9	21	72	44	2	227	75	34	67	25	1	0	6	12	74
OTU 163	0	0	0	4	0	0	0	0	0	0	0	0	0	0	0	0	0	0	0	0	0	0	0	0	2	0	0	0	0	0	0	0	0	0	0	0	0	0	0	0	2	0	4	0	1	0	0	0	0	0
OTU 164	0	0	0	0	0	0	0	0	1	0	0	0	0	0	0	0	21	0	0	0	0	19	0	0	0	0	0	0	0	0	4	0	0	0	0	0	1	0	0	0	32	0	0	0	8	0	21	0	0	3
OTU 165	2	3	7	9	5	8	50	0	4	0	4	0	16	0	0	10	16	0	0	0	0	3	10	9	3	0	0	3	18	2	0	2	3	0	21	67	32	4	7	1	27	1	8	49	14	8	54	80	105	42
OTU 166	0	0	0	0	0	0	0	0	0	0	0	0	0	0	0	1	0	0	0	0	0	4	0	0	0	0	0	0	0	6	0	0	1	0	4	16	0	0	0	1	1	0	0	3	0	0	0	0	0	0
OTU 167	3	1	4	7	17	2	0	230	11	2	0	1	0	0	15	12	25	17	33	1	6	12	5	0	18	4	1	0	126	6	22	3	20	1	19	1	21	48	1	2	40	5	0	68	6	4	6	8	11	0
OTU 168	66	3	0	1	31	154	210	18	7	13	6	90	6	37	112	2390	6	37	3	4	39	2	5	44	60	0	64	53	3	14	22	0	12	19	29	29	0	31	3	122	23	1	3	106	1	29	34	92	47	3
OTU 169	23	22	0	0	0	0	0	0	5	21	0	0	0	0	0	0	1	30	0	0	0	0	6	4	0	0	0	0	48	0	0	0	23	0	0	0	0	0	0	0	4	0	31	2	0	0	0	0	2	22
OTU 170	0	0	0	0	0	0	1	0	0	0	12	3	0	0	0	0	0	0	0	0	0	0	0	0	0	0	0	0	0	0	0	0	0	0	0	0	0	1	0	1	0	0	0	0	3	0	7	0	4	0
OTU 171	8	0	160	45	0	20	3	2	227	3	5	80	20	22	18	1	4	0	4	327	4	26	12	1	17	0	20	39	0	1	0	323	8	14	7	29	42	86	18	84	13	6	133	29	1	6	21	0	4	3
OTU 172	0	4	1	1	0	0	0	1	0	0	0	0	0	0	0	0	0	0	0	4	0	0	0	7	0	7	0	0	0	1	0	0	38	2	69	6	0	10	3	0	0	0	5	19	0	1	0	0	15	16
OTU 173	0	15	23	26	0	10	0	30	0	10	3	0	58	0	1	14	2	21	0	6	40	66	0	0	1	0	17	48	0	0	0	131	35	0	4	1	25	35	2	0	2	12	59	8	20	0	0	0	6	46
OTU 174	254	0	8	36	92	27	1874	58	5	4	4	1	181	0	404	13	7	46	8	5	1	4	89	205	18	9	12	102	10	67	68	0	25	100	45	0	0	0	41	0	9	44	0	16	0	0	27	32	119	0
OTU 175	2	0	53	1	1	1	0	3	1	0	17	1	2	1	5	0	0	0	5	0	3	5	2	0	5	0	20	56	13	27	484	3	1	22	36	0	20	4	0	1	0	2	14	17	29	8	2	3	2	0
OTU 176	14	31	67	13	2	37	11	36	7	2	22	129	7	75	1	18	17	8	4	2	346	623	14	16	3	19	45	78	107	33	39	31	15	20	24	21	31	137	17	300	44	3	108	141	334	30	102	34	321	294
OTU 177	2	7	81	97	25	11	37	16	58	19	158	11	85	2	14	28	89	63	0	81	4	12	19	14	31	16	44	1	3	84	8	59	19	55	0	49	44	18	7	9	157	0	19	12	9	49	75	28	64	31
OTU 178	0	0	1	0	7	9	0	12	0	1	0	13	2	13	3	1	0	10	59	53	3	1	57	0	44	2	9	0	0	25	0	46	6	41	0	32	116	0	8	68	2	0	26	3	2	25	1	0	70	1
OTU 179	4	5	0	2	16	8	3	66	1	1	6	6	1	2	1	39	21	9	139	4	7	19	1	1	9	17	0	2	16	0	21	9	147	0	17	0	0	3	1	1	43	0	48	1	8	1	2	1	80	0
OTU 180	128	98	69	116	45	109	51	50	42	13	1818	113	47	31	62	1011	23	23	85	64	17	16	40	64	382	347	1586	17	32	83	16	149	221	27	64	421	263	200	80	100	62	72	432	9	10	51	172	90	407	394
OTU 181	8	29	0	13	1	117	10	3	15	0	30	8	0	4	2	2	7	5	8	27	18	1	14	17	7	35	1	3	0	5	2	1	13	0	0	0	32	0	4	23	12	5	93	0	0	1	0	6	176	11
OTU 182	0	0	24	0	0	1	0	8	0	15	0	0	0	0	0	0	0	0	0	0	0	0	0	0	2	0	1	0	0	0	0	0	0	0	0	0	658	1	0	0	0	0	0	0	0	2	0	48	0	0
OTU 183	2	1	14	6	8	4	23	61	13	14	5	2	1	0	0	1	13	9	1	81	14	117	0	9	7	1	0	2	29	79	20	5	58	22	1	3	4	3	12	10	22	20	10	5	62	20	109	37	49	26
OTU 184	9	7	1	6	1	177	27	64	0	3	4	2	0	1	0	3	0	0	44	0	0	90	1	0	0	1	0	19	0	0	1	56	3	11	1	6	16	0	3	15	0	8	139	3	0	53	26	92	3	0
OTU 185	27	42	13	58	4	16	15	39	3	41	72	42	24	32	0	38	17	22	115	0	146	87	41	35	73	43	49	695	13	48	16	14	9	7	20	77	60	17	11	86	46	27	206	58	10	101	40	423	23	13
OTU 186	4	0	0	5	36	0	0	2	20	4	51	1	2	0	1	9	0	5	0	1	4	9	0	0	0	0	10	7	0	0	7	0	4	0	15	0	4	52	1	0	0	2	25	0	10	9	10	12	2	0
OTU 187	177	22	31	46	54	91	64	7	145	2	61	71	9	19	3	9	32	2	57	67	3	57	9	23	43	32	23	75	43	48	16	56	189	55	275	44	9	42	20	126	58	2	94	10	4	2	94	26	173	24
OTU 188	16	32	1730	72	11	14	57	13	1244	3	19	50	30	17	80	24	36	4	19	630	30	22	548	69	4	4	0	31	141	41	19	21	15	45	24	1	16	113	9	215	56	33	423	1267	26	13	136	7	140	119
OTU 189	138	46	50	21	8	286	1	83	542	22	122	7	24	2	53	2	4	14	16	10	15	145	156	49	6	28	111	44	15	9	13	52	27	15	12	2	26	59	9	47	17	71	159	234	105	88	16	123	59	79
OTU 190	0	27	22	10	2	157	1	0	0	0	0	0	2	0	0	3	0	0	5	22	2	24	5	0	100	13	0	1	0	18	1	0	0	1	12	24	1	81	0	0	0	0	787	1	4	0	0	0	9	0
OTU 191	12	24	8	10	23	9	14	13	4	13	1	25	1	17	107	82	2	8	0	5	3	59	10	3	0	1	244	20	7	13	9	157	21	2	35	8	76	100	56	19	9	31	44	0	35	4	97	63	14	53
OTU 192	66	21	91	11	30	94	22	266	35	12	175	667	124	335	99	18	27	17	21	69	12	44	33	21	28	51	61	63	11	29	13	8	75	6	35	20	304	35	80	790	42	14	13	17	47	1026	178	0	128	15
OTU 193	32	7	4	25	1	44	50	3	18	55	80	66	17	28	21	13	76	50	1	7	2	8	7	0	159	8	3	40	52	16	34	29	1	1	122	6	1	106	59	66	130	20	22	0	0	0	84	3	132	5
OTU 194	12	231	0	83	35	0	1	119	0	59	1	0	0	257	0	101	41	57	0	75	50	0	5	29	8	113	60	0	0	3	0	0	0	2	0	5	7	0	0	0	90	0	0	0	71	62	1	56	0	0
OTU 195	7	0	4	36	15	44	125	22	4	0	46	8	5	14	31	34	0	0	0	75	7	10	13	0	5	0	48	17	757	1	2	86	49	0	27	36	84	12	21	46	1	2	1	0	1	4	1	0	20	6
OTU 196	0	69	0	11	45	28	4	0	11	60	5	0	20	0	0	10	237	153	28	431	1	2	20	0	18	15	0	3	3	197	0	62	6	161	4	53	95	15	20	13	434	26	2	7	7	2	0	28	5	113
OTU 197	109	103	66	74	52	24	13	38	44	0	1097	50	9	28	59	41	7	30	55	0	10	31	7	39	79	78	50	28	39	122	14	132	74	59	12	34	80	227	85	41	13	9	95	36	69	15	114	29	180	51
OTU 198	0	4	51	0	1	0	0	0	21	5	6	0	1	0	15	0	0	0	0	11	49	0	22	5	5	1	0	23	0	0	0	0	0	10	1	51	11	0	0	0	0	0	0	0	8	31	2	122	4	0
OTU 199	0	5	49	0	8	2	0	11	8	18	7	0	10	0	0	31	7	0	2	15	18	45	4	0	0	2	3	69	0	3	0	0	6	3	0	12	2	2	0	0	6	0	176	76	84	0	0	1	2	2
OTU 200	4	44	31	0	9	13	3	48	53	22	5	27	12	6	68	13	20	15	27	4	4	47	43	44	55	32	10	9	21	90	0	34	7	15	6	2	36	104	3	21	45	79	2	84	4	31	15	4	48	1
