	Host 1	Host 2	Host 3	Host 4	Host 5	Host 6	Host 7	Host 8	Host 9	Host 10	Host 11	Host 12	Host 13	Host 14	Host 15	Host 16	Host 17	Host 18	Host 19	Host 20	Host 21	Host 22	Host 23	Host 24	Host 25	Host 26	Host 27	Host 28	Host 29	Host 30	Host 31	Host 32	Host 33	Host 34	Host 35	Host 36	Host 37	Host 38	Host 39	Host 40	Host 41	Host 42	Host 43	Host 44	Host 45	Host 46	Host 47	Host 48	Host 49	Host 50	
OTU 1	3	0	1	1	1	16	0	10	19	1	1	2	1	2	7	7	2	2	39	0	4	45	0	6	0	0	2	8	0	0	18	1	2	0	0	7	2	27	2	1	17	2	0	0	5	29	9	0	49	0
OTU 2	0	1	0	0	2	0	0	1	0	1	0	0	0	0	0	0	4	0	0	0	21	0	0	0	0	0	0	2	0	0	0	0	3	0	0	0	0	0	0	0	0	0	0	0	0	0	3	0	0	1
OTU 3	0	0	0	0	0	0	0	0	0	0	1	2	0	0	0	0	3	0	0	0	0	0	0	0	0	6	0	0	0	10	0	0	1	0	0	0	0	0	0	0	0	0	2	0	0	0	1	0	0	0
OTU 4	0	0	0	0	0	0	0	0	0	0	0	0	0	0	0	0	0	0	0	0	0	0	0	0	0	0	0	0	0	0	0	0	0	0	0	0	0	0	0	0	0	0	0	0	0	0	0	0	0	0
OTU 5	47	16	1	6	0	11	40	45	39	18	2	8	25	18	7	3	3	10	62	8	13	4	25	0	23	6	0	3	11	8	48	0	1	0	0	32	36	2	1	31	2	0	25	8	4	2	0	7	9	2
OTU 6	2	2	0	17	0	96	2	44	0	2	3	2	0	0	0	0	2	0	0	0	6	0	2	0	6	0	0	0	1	0	38	0	1	2	0	0	0	0	0	0	0	7	0	3	0	0	0	0	2	0
OTU 7	1	0	1	2	11	2	1	1	17	5	29	4	3	5	2	1	12	0	2	3	0	0	0	0	4	1	0	0	24	7	3	1	5	7	10	17	2	1	2	1	0	0	1	0	0	3	0	2	5	2
OTU 8	0	3	4	0	1	1	19	0	0	4	11	0	5	3	0	1	6	1	0	3	0	1	1	0	10	4	1	1	4	2	1	0	2	0	0	0	2	1	1	0	1	0	2	3	2	0	0	1	0	0
OTU 9	0	0	3	0	2	0	1	0	0	0	1	2	2	2	2	0	0	1	1	1	1	1	0	0	0	0	0	0	0	0	0	1	0	0	0	0	0	0	0	0	0	3	0	1	64	0	0	1	0	1
OTU 10	1	0	0	0	0	0	0	0	0	0	2	0	0	0	0	1	1	0	0	0	6	1	0	0	0	0	0	1	0	0	0	0	0	2	1	0	1	0	0	0	0	2	0	0	0	1	0	0	0	1
OTU 11	0	0	1	0	0	0	0	0	0	0	0	2	0	0	0	3	1	1	3	0	3	0	0	1	0	1	0	0	4	1	0	3	0	0	4	0	6	1	1	0	1	0	4	6	0	0	3	1	0	3
OTU 12	0	1	0	16	14	0	1	0	0	0	0	7	1	0	3	0	8	1	4	0	7	5	1	2	18	3	6	1	0	0	2	1	7	8	6	0	2	1	0	0	4	3	8	0	4	8	0	0	4	8
OTU 13	0	0	0	0	0	0	0	0	0	0	1	0	0	1	0	0	0	0	0	0	0	0	0	0	0	0	0	1	0	0	0	0	0	0	0	0	0	0	0	0	0	0	0	0	0	0	0	0	0	0
OTU 14	0	0	1	0	1	0	1	0	0	0	3	0	0	0	0	0	0	0	0	0	1	0	0	1	0	16	0	0	0	0	1	0	4	1	0	0	0	0	2	1	0	0	1	0	4	0	0	0	0	3
OTU 15	0	0	0	0	0	0	0	0	0	0	0	0	0	0	0	0	0	0	0	0	0	0	0	0	0	1	1	0	0	0	0	0	0	0	0	0	0	0	0	0	0	0	0	0	0	0	0	0	0	0
OTU 16	0	0	0	0	0	0	0	0	0	0	0	0	0	0	0	0	0	0	0	0	0	0	0	0	0	0	0	0	0	0	0	0	0	0	0	0	0	2	0	0	0	0	0	0	0	0	2	0	0	0
OTU 17	0	2	0	1	3	0	0	0	0	4	1	5	1	1	0	0	0	1	1	0	1	0	1	0	1	2	2	0	0	0	0	1	0	4	18	0	0	0	1	0	0	0	0	0	0	0	2	1	0	0
OTU 18	1	0	8	0	2	0	2	0	1	0	2	0	0	0	0	1	0	1	1	0	17	0	0	4	0	8	0	1	0	3	0	6	6	5	5	3	2	0	0	1	0	1	1	3	0	0	1	0	0	8
OTU 19	0	0	0	0	0	0	0	0	0	0	0	0	0	0	0	0	0	0	0	0	0	0	0	0	0	0	0	0	0	0	0	0	0	0	0	0	0	0	0	0	0	0	0	0	0	0	0	0	0	0
OTU 20	0	5	1	0	2	0	12	0	0	0	6	1	1	0	0	0	5	0	1	0	0	0	0	0	4	0	0	1	5	1	1	0	4	11	4	1	0	0	2	0	0	6	0	1	0	1	1	3	0	7
OTU 21	0	0	19	0	2	20	0	8	20	6	13	1	5	14	5	1	1	0	14	6	3	20	2	6	0	42	0	11	4	0	3	0	0	2	1	8	5	13	0	0	12	3	0	0	1	24	0	145	38	0
OTU 22	0	1	3	1	8	2	0	0	1	2	6	0	7	2	2	0	2	1	1	152	0	3	2	1	1	4	0	1	0	1	1	1	4	3	15	4	15	0	0	0	0	10	0	12	0	2	0	0	3	0
OTU 23	0	0	0	0	8	0	0	0	0	0	0	0	0	2	0	1	1	2	0	0	3	0	1	1	0	0	0	1	0	2	0	2	0	1	0	0	0	0	0	0	0	2	0	0	1	0	0	7	0	1
OTU 24	0	0	1	0	0	0	7	0	0	0	7	0	0	1	1	0	0	0	0	1	0	0	2	0	0	0	0	1	0	0	0	0	1	3	0	0	0	0	0	1	0	0	0	0	0	0	0	0	0	0
OTU 25	0	0	0	2	0	0	0	0	0	0	0	0	0	0	0	0	0	0	0	0	0	0	0	0	0	0	0	0	0	0	0	0	0	0	0	0	0	0	1	0	0	0	5	0	0	0	2	0	0	0
OTU 26	0	0	9	2	0	0	4	0	0	0	0	0	0	0	0	0	0	0	1	0	0	0	0	0	0	2	0	0	0	0	0	0	0	0	0	0	0	0	0	0	0	1	0	0	0	0	0	0	0	0
OTU 27	0	0	0	0	0	0	0	0	0	0	0	0	0	0	0	0	0	0	0	0	0	0	0	0	0	0	0	0	0	0	0	1	0	0	0	0	0	0	0	0	0	0	0	0	0	0	0	0	0	0
OTU 28	0	1	6	2	5	3	1	1	1	6	10	0	0	1	1	1	1	2	0	0	1	1	0	1	0	0	1	0	5	0	0	0	0	0	1	0	0	0	0	0	1	0	6	1	2	2	2	0	0	0
OTU 29	4	3	1	1	1	19	2	10	17	4	0	0	1	1	15	8	0	1	39	0	1	25	0	27	5	1	0	8	0	31	13	2	2	1	1	10	3	26	3	6	12	2	4	0	6	26	1	0	53	8
OTU 30	0	0	0	0	0	0	4	0	0	0	0	0	0	0	0	0	0	0	0	0	0	0	0	0	0	0	0	0	0	0	0	0	0	0	0	0	0	0	0	0	0	0	0	0	0	0	0	0	0	0
OTU 31	0	0	3	2	0	0	4	0	0	0	0	2	0	1	0	0	2	0	2	1	0	0	1	0	0	0	0	0	0	10	0	0	0	0	0	0	0	1	0	0	0	2	0	0	17	0	0	0	0	3
OTU 32	0	0	0	7	13	3	4	0	0	0	2	1	0	0	1	0	2	0	0	0	1	2	7	1	0	2	5	1	4	1	91	1	2	1	3	0	0	0	1	1	0	4	0	1	1	1	1	1	0	10
OTU 33	0	0	0	0	0	0	0	0	0	0	0	0	0	0	0	0	0	0	0	0	0	0	0	0	0	0	0	0	0	0	0	0	0	0	0	0	0	0	0	0	0	0	0	0	0	0	0	0	1	0
OTU 34	12	4	0	5	0	2	0	16	3	0	1	0	8	11	38	18	7	5	0	5	2	0	0	5	6	0	2	0	0	4	0	0	6	0	1	1	27	1	0	1	0	0	0	0	2	1	1	2	9	18
OTU 35	0	0	0	1	1	0	11	1	0	0	2	8	2	1	1	0	0	0	0	1	0	4	0	4	20	0	3	0	0	0	1	5	0	2	5	0	2	0	5	1	0	0	1	0	0	0	2	0	0	7
OTU 36	0	0	0	1	3	0	0	2	0	0	0	1	0	0	0	0	1	3	0	0	2	0	6	2	0	0	0	0	1	0	0	2	2	0	0	4	1	0	9	0	0	1	4	18	1	0	6	0	0	0
OTU 37	0	0	3	0	0	0	0	0	0	0	1	0	0	9	0	0	0	0	0	7	0	1	0	0	1	8	0	1	0	1	0	0	0	0	0	3	0	1	0	0	0	4	1	0	0	0	0	0	0	1
OTU 38	0	9	5	4	2	0	1	0	1	0	1	0	0	3	0	0	1	0	0	1	1	0	3	2	1	0	0	0	0	0	1	1	0	0	0	38	0	0	2	15	3	0	2	0	1	0	0	4	0	2
OTU 39	0	1	0	10	0	0	0	0	0	1	0	0	3	0	0	0	0	0	0	1	0	0	0	1	1	0	0	1	0	0	0	1	0	0	0	0	0	1	0	0	0	0	1	0	0	0	0	0	0	0
OTU 40	0	0	3	0	2	1	4	0	0	0	2	2	1	2	1	1	6	0	1	10	17	0	0	0	0	5	1	0	0	1	3	1	2	0	1	0	3	1	0	3	0	1	1	3	0	2	2	4	2	0
OTU 41	0	0	1	0	0	0	0	0	1	1	1	1	0	5	0	0	1	0	0	2	4	0	3	1	3	0	0	0	0	1	0	0	0	3	3	0	0	1	3	1	0	1	2	0	0	0	2	0	2	12
OTU 42	0	0	0	2	1	0	0	0	2	0	0	0	0	0	0	0	0	0	1	0	0	4	0	0	0	0	0	0	0	0	0	0	0	1	0	0	0	0	0	0	0	0	0	0	0	0	0	0	2	0
OTU 43	0	0	0	0	0	0	0	0	0	0	0	0	0	0	0	0	0	0	0	0	0	0	0	0	0	0	0	0	0	0	0	0	0	0	0	0	0	0	0	0	0	0	0	0	0	0	0	0	0	0
OTU 44	0	0	0	0	0	0	0	0	0	4	1	0	0	0	3	0	0	1	0	0	0	0	0	0	5	2	0	0	0	0	0	0	0	0	0	0	0	0	2	3	0	0	0	0	0	0	0	0	0	0
OTU 45	0	2	0	0	2	0	2	0	1	0	3	0	0	4	2	1	0	1	4	1	0	1	0	1	0	1	0	0	0	0	3	1	2	4	4	1	2	0	0	1	3	1	0	3	1	0	0	0	1	6
OTU 46	0	0	0	3	10	6	1	0	0	0	1	2	0	3	2	0	0	2	1	2	3	1	0	0	1	2	4	0	36	2	36	0	0	2	0	0	2	0	0	1	0	0	2	2	0	1	0	1	2	0
OTU 47	0	0	0	0	0	0	1	0	0	0	3	3	0	0	0	0	3	0	0	0	0	0	0	0	0	0	0	0	0	0	0	2	0	0	0	0	0	0	0	0	0	0	0	0	0	0	0	0	0	0
OTU 48	0	0	2	2	3	7	2	0	0	4	1	1	1	0	0	0	0	0	0	0	8	6	3	1	13	3	0	1	2	17	1	0	0	10	0	0	0	0	0	0	0	11	1	2	0	1	0	1	0	0
OTU 49	0	0	0	0	0	0	0	0	1	0	2	1	0	0	0	0	0	0	7	0	1	1	1	0	0	2	0	0	0	0	5	0	3	0	0	0	1	0	0	0	0	9	0	0	0	0	0	1	1	0
OTU 50	0	1	4	10	16	1	0	4	2	8	2	2	0	1	0	0	8	1	0	0	1	1	0	0	2	1	5	0	0	10	0	3	0	2	2	1	0	1	0	5	1	2	26	2	1	1	0	4	4	9
OTU 51	0	0	0	0	0	0	0	0	1	0	0	0	3	0	1	0	3	0	0	0	0	0	2	1	1	3	3	1	0	4	0	0	0	1	0	0	0	0	0	1	0	4	1	2	0	0	0	0	0	3
OTU 52	0	0	2	6	2	0	0	0	1	3	1	0	1	27	0	0	14	5	0	10	0	0	1	0	0	1	0	1	2	4	0	2	3	3	2	1	4	0	2	0	0	2	6	7	1	1	0	5	0	1
OTU 53	0	0	0	0	0	0	0	0	0	0	0	0	0	0	0	1	0	0	0	0	0	0	0	0	0	0	0	0	0	0	0	0	0	0	0	0	0	0	0	0	0	0	0	0	0	0	0	0	0	0
OTU 54	1	0	1	2	3	0	5	0	0	0	0	0	1	5	1	0	3	1	0	0	48	1	1	4	6	4	0	0	3	5	0	7	1	0	0	0	0	0	3	0	1	11	2	0	0	2	0	4	3	9
OTU 55	0	0	0	0	0	0	0	0	0	0	0	0	0	0	0	0	0	0	0	0	0	0	0	0	0	0	0	0	0	0	0	0	0	0	0	0	0	0	0	0	0	0	0	0	0	0	0	0	0	0
OTU 56	0	3	0	0	0	0	0	0	0	7	0	0	0	0	0	0	3	0	0	0	1	0	0	0	1	1	0	0	0	0	0	4	0	0	0	0	0	0	0	0	0	0	4	0	0	0	0	0	0	0
OTU 57	0	13	0	5	13	0	1	0	1	3	1	4	0	16	1	1	13	6	2	10	3	8	3	1	4	3	10	1	4	12	0	7	7	5	2	1	0	0	4	27	2	2	7	10	53	0	3	5	2	5
OTU 58	0	0	0	1	1	0	6	0	0	0	1	0	0	3	1	0	0	0	0	0	2	0	0	1	0	4	0	0	0	0	0	1	0	0	1	0	0	0	1	2	0	5	0	0	0	0	0	0	1	1
OTU 59	0	0	0	2	0	0	0	0	0	0	1	1	0	0	0	0	5	1	0	4	0	0	4	0	0	3	2	0	0	1	0	0	0	0	0	0	1	1	3	2	1	0	0	0	1	0	0	0	0	0
OTU 60	0	1	0	1	3	0	3	1	0	9	2	3	0	2	0	0	9	0	2	1	6	0	6	2	0	2	3	1	0	1	0	1	1	2	1	2	1	1	3	1	0	1	6	4	0	0	1	5	1	0
OTU 61	16	8	1	2	6	2	0	1	1	30	0	2	11	3	76	34	1	2	24	0	12	0	7	155	1	0	0	0	0	10	24	0	1	4	0	4	6	2	0	2	0	1	0	2	37	0	0	0	3	0
OTU 62	0	1	0	1	0	0	0	0	1	0	0	0	0	0	0	1	0	1	0	0	0	2	0	0	0	0	0	0	0	2	0	0	0	0	0	0	0	0	0	0	0	0	0	0	0	1	0	0	1	0
OTU 63	1	1	0	0	0	0	0	0	2	0	2	0	0	0	0	0	5	0	0	0	1	0	0	0	0	2	4	0	2	0	0	1	1	1	2	0	3	0	0	0	0	0	4	6	0	4	0	2	3	0
OTU 64	1	2	6	2	6	4	1	1	0	1	0	1	4	10	2	4	4	1	1	2	0	3	0	1	2	0	2	0	4	8	0	1	1	3	4	3	0	0	2	3	0	0	0	1	0	1	0	1	2	3
OTU 65	0	0	0	0	0	0	0	0	0	0	0	0	0	0	0	0	0	0	0	0	1	0	0	0	0	0	0	0	0	0	0	0	0	0	0	0	0	0	0	0	0	3	0	0	0	0	0	0	0	0
OTU 66	0	0	1	1	7	0	0	0	0	0	0	0	5	1	1	2	5	0	8	0	0	2	1	1	3	0	1	87	0	7	2	2	1	5	4	1	1	0	1	0	0	1	9	0	0	0	0	5	0	2
OTU 67	0	2	0	8	0	0	1	0	0	0	0	1	0	0	0	0	3	3	0	1	0	2	0	0	0	10	0	2	12	0	0	0	6	3	0	1	0	2	0	0	1	2	0	1	0	1	0	0	0	0
OTU 68	0	0	0	5	8	0	0	2	0	0	1	0	1	0	0	0	0	0	1	0	0	0	0	0	0	0	0	0	0	0	0	0	0	0	3	0	0	0	0	1	0	0	0	0	0	0	1	0	0	1
OTU 69	0	0	2	0	9	0	0	28	0	0	1	1	1	2	0	0	4	0	1	1	0	2	3	0	2	0	1	0	2	7	0	0	4	0	2	3	1	0	0	1	0	4	0	0	0	0	0	1	0	1
OTU 70	0	0	0	0	0	0	0	0	0	2	2	0	1	0	0	0	0	0	0	0	0	0	1	2	0	0	4	0	0	0	1	1	2	3	1	0	0	0	0	4	0	2	0	0	0	0	0	0	1	2
OTU 71	0	0	2	0	0	0	2	1	0	0	0	1	1	2	0	0	0	34	0	0	4	4	0	0	0	0	0	0	0	1	0	3	0	1	0	3	0	1	0	1	0	1	0	3	0	0	0	1	0	0
OTU 72	0	1	1	1	1	0	4	0	0	1	0	0	7	0	0	0	0	1	3	1	0	0	0	0	0	4	1	0	1	0	4	2	0	0	3	0	1	0	0	1	0	2	1	3	7	0	0	8	0	2
OTU 73	0	1	0	2	1	1	1	2	8	2	0	0	0	2	0	0	1	1	0	0	6	0	2	2	1	0	0	0	8	1	0	3	1	2	4	2	1	2	2	0	0	2	0	0	0	1	0	1	0	1
OTU 74	0	0	1	0	0	3	8	0	2	1	0	5	2	9	0	0	1	0	0	6	1	0	2	3	0	0	7	2	0	0	1	0	1	14	4	0	10	3	1	0	0	4	0	7	4	8	0	0	2	0
OTU 75	20	5	2	0	4	2	0	1	1	4	0	0	2	1	2	4	1	4	0	0	36	3	2	0	4	3	1	1	0	0	0	0	4	24	11	0	11	1	0	0	3	5	0	7	0	1	1	2	1	1
OTU 76	0	2	0	0	1	0	0	0	0	2	5	0	0	0	0	0	1	0	0	0	0	0	0	0	0	0	0	0	0	0	1	2	2	1	8	0	0	0	1	15	0	0	1	0	0	0	0	3	0	0
OTU 77	1	0	1	0	1	0	2	1	0	0	2	2	2	1	0	1	0	1	2	0	0	0	4	0	0	1	3	13	0	0	0	2	0	0	0	1	1	0	1	0	3	5	0	1	1	2	0	1	1	0
OTU 78	1	1	1	0	1	1	1	0	133	1	0	0	0	4	0	1	0	0	0	0	0	0	1	0	0	2	0	5	1	9	0	1	0	15	0	4	0	5	0	0	2	0	0	0	1	1	2	0	0	4
OTU 79	0	0	8	3	6	0	2	0	0	43	0	3	5	8	2	1	16	1	0	1	8	0	5	5	4	4	8	3	0	6	0	1	8	13	16	3	4	1	7	1	0	17	5	6	0	1	1	7	2	17
OTU 80	0	0	1	0	3	0	4	1	0	6	2	0	0	13	0	1	1	1	1	5	0	0	0	3	3	1	4	0	0	4	0	3	0	3	4	9	0	0	2	0	0	6	4	2	0	0	1	0	0	0
OTU 81	14	0	10	2	3	4	12	0	0	2	4	0	1	2	3	16	1	0	1	1	6	1	3	2	0	3	3	1	1	23	0	5	0	2	0	1	9	0	5	7	0	1	2	4	0	0	0	1	1	2
OTU 82	0	9	0	0	0	0	0	0	0	3	0	1	0	0	1	0	8	0	0	0	1	0	1	0	5	3	0	0	0	0	0	3	1	7	8	0	0	1	0	7	0	0	2	0	0	0	0	1	0	2
OTU 83	0	0	0	0	0	0	0	0	0	0	0	0	0	0	0	0	0	0	0	0	2	0	0	0	0	0	2	0	0	0	0	0	0	1	0	0	0	0	0	2	0	0	0	0	0	0	0	0	0	0
OTU 84	0	3	1	2	2	0	5	0	0	0	0	2	1	0	0	0	0	0	0	0	2	0	0	0	0	0	4	0	0	0	0	0	0	0	12	2	0	0	1	3	0	3	2	3	1	0	0	0	0	0
OTU 85	0	0	0	0	1	0	0	1	1	1	0	0	0	0	0	0	0	0	0	0	0	0	0	2	0	0	2	0	0	0	4	0	0	0	1	0	0	4	0	0	2	0	0	0	0	0	0	0	0	0
OTU 86	0	0	0	0	1	0	0	0	0	0	0	0	0	0	0	0	1	0	0	0	0	0	0	0	0	0	2	1	0	0	0	3	0	0	0	0	0	1	0	0	0	0	0	0	0	0	0	0	0	0
OTU 87	0	1	0	1	1	0	0	0	0	1	1	0	4	6	0	0	0	0	0	4	0	0	0	0	0	0	0	0	0	0	0	0	0	0	0	0	0	0	0	3	0	6	0	0	0	0	0	4	0	0
OTU 88	0	0	2	0	0	0	2	0	0	0	0	0	5	0	1	1	0	0	0	0	0	0	0	0	0	0	0	0	2	0	0	0	0	0	0	1	0	0	0	0	0	0	0	0	0	0	0	0	0	0
OTU 89	0	0	0	0	1	0	2	0	0	0	0	0	0	2	0	0	5	0	0	2	3	0	0	0	0	0	1	0	0	1	0	0	0	0	0	0	0	0	1	9	0	1	3	0	13	0	0	0	0	0
OTU 90	0	0	0	0	0	3	0	2	0	0	0	0	0	0	0	0	0	0	0	0	0	0	0	0	0	0	0	0	0	1	0	0	0	0	1	0	0	0	0	0	0	0	0	0	0	0	0	0	0	5
OTU 91	0	0	0	0	0	0	0	0	0	0	0	0	0	0	1	0	0	0	0	0	0	0	0	0	0	0	1	1	0	0	0	0	10	0	3	0	0	0	0	0	0	0	0	0	0	0	0	0	0	0
OTU 92	0	0	0	0	0	0	0	0	0	0	0	0	0	0	0	0	0	0	0	0	0	0	0	0	0	3	0	0	2	0	0	0	0	0	1	0	5	1	1	0	0	0	0	0	0	0	5	0	0	4
OTU 93	0	0	0	0	0	0	5	0	0	0	0	0	0	0	0	0	0	0	0	0	0	0	1	0	1	0	0	0	0	0	0	0	0	0	0	0	0	0	0	0	0	1	1	0	0	0	0	0	1	1
OTU 94	0	0	9	0	0	14	1	6	10	8	1	0	7	0	4	2	3	1	5	1	0	7	2	6	15	4	0	17	0	4	3	0	6	1	2	2	0	9	3	0	3	1	4	3	1	2	1	1	16	2
OTU 95	1	1	0	4	0	0	0	0	0	1	1	0	0	0	0	0	2	0	0	0	0	0	0	0	0	0	0	0	1	4	0	0	1	4	0	0	0	1	0	0	0	0	0	1	1	1	0	0	0	0
OTU 96	0	2	0	0	0	0	0	0	0	0	1	0	0	0	0	0	0	0	0	0	0	0	0	0	1	0	0	0	0	0	0	0	0	0	0	0	0	0	0	0	0	0	0	2	0	0	0	0	0	2
OTU 97	0	0	0	0	0	0	0	0	0	0	0	0	0	0	0	0	0	0	0	0	2	0	0	0	0	0	0	33	0	0	0	0	0	0	0	0	0	0	0	0	0	0	0	2	1	0	0	0	0	0
OTU 98	0	0	0	0	0	0	0	0	0	0	0	0	12	0	0	0	0	0	0	1	0	0	1	0	2	3	1	0	0	0	1	0	0	0	0	0	24	2	0	0	2	0	1	5	0	2	0	0	0	0
OTU 99	79	0	1	11	5	1	1	0	0	8	5	4	6	0	1	0	0	1	0	0	5	2	4	2	1	14	1	2	6	2	2	1	3	0	17	1	5	3	0	0	0	7	1	7	0	0	3	6	0	0
OTU 100	1	1	0	5	1	0	0	0	5	0	0	1	6	2	11	1	0	0	0	0	0	0	5	17	1	0	0	0	0	4	1	0	6	1	2	0	2	2	0	0	1	2	1	0	6	0	2	0	5	0
OTU 101	0	0	0	0	0	0	4	0	0	0	0	0	0	0	0	0	1	0	0	1	0	0	1	0	0	0	0	0	0	0	0	0	3	0	1	0	0	0	0	0	0	0	0	0	0	0	0	0	0	0
OTU 102	0	0	0	0	0	0	0	1	0	0	0	3	0	0	0	0	0	0	0	0	0	0	1	0	0	0	1	0	0	0	1	0	0	7	0	0	2	0	0	1	1	1	1	0	0	0	0	6	0	0
OTU 103	0	1	0	5	0	0	0	2	0	0	1	0	0	0	0	0	1	1	0	0	3	0	0	4	2	5	0	0	0	1	0	0	0	0	0	0	0	0	1	0	0	29	2	0	1	0	1	1	1	0
OTU 104	0	0	0	1	1	0	4	0	0	1	0	0	0	1	0	1	17	2	0	1	0	1	1	2	2	4	1	0	2	1	0	1	2	0	2	0	4	1	2	1	1	0	0	3	0	1	2	1	2	5
OTU 105	0	0	0	0	2	0	0	0	0	0	0	0	0	0	0	0	0	0	0	0	0	0	0	0	0	0	0	0	0	0	0	0	1	2	0	0	0	0	2	5	0	0	0	0	0	0	0	1	0	6
OTU 106	0	0	0	0	25	0	1	0	0	0	1	1	0	1	0	0	0	5	0	0	0	0	5	0	0	0	0	0	0	0	0	0	0	0	0	0	0	0	6	0	0	0	0	0	1	0	0	0	0	2
OTU 107	0	150	0	0	1	1	0	0	0	0	0	0	0	2	3	0	0	0	0	1	0	0	0	0	0	0	0	0	0	1	0	0	0	1	0	0	0	0	0	0	0	0	0	0	0	0	0	0	0	0
OTU 108	0	0	0	2	0	2	0	0	0	0	1	0	0	0	0	0	4	0	0	0	0	0	0	0	0	0	0	0	4	4	0	1	1	0	1	0	1	0	0	1	0	1	0	1	0	0	1	0	1	4
OTU 109	0	0	0	0	0	0	0	0	0	0	0	0	0	0	0	0	0	0	0	0	0	0	0	0	0	0	2	0	0	0	0	0	0	0	0	0	0	0	0	0	0	0	0	0	0	0	0	0	0	0
OTU 110	0	6	3	5	0	3	0	0	0	0	1	1	0	0	3	0	0	0	0	0	1	0	0	0	0	7	0	0	2	3	0	0	1	0	1	0	0	0	4	0	0	9	11	1	0	3	3	1	1	1
OTU 111	0	0	0	2	0	0	0	0	0	1	0	0	0	0	0	0	0	0	0	0	0	0	0	1	0	0	0	0	0	0	0	0	0	1	0	0	0	0	0	1	0	0	0	0	0	0	0	0	0	0
OTU 112	0	0	2	0	0	3	0	0	0	58	0	0	0	0	0	0	0	1	0	0	0	0	0	1	0	0	1	0	2	0	0	1	0	0	0	0	0	0	0	0	1	1	1	0	0	1	0	0	0	0
OTU 113	0	0	0	0	0	1	0	1	0	0	0	0	0	0	0	0	1	1	0	0	1	0	0	0	1	0	0	0	0	0	0	0	2	0	0	1	0	0	0	0	0	0	2	0	0	0	0	0	0	0
OTU 114	0	0	5	0	1	1	1	1	5	1	4	2	2	1	1	0	17	0	4	0	4	7	2	7	3	5	0	3	0	6	1	1	2	6	4	7	0	16	1	1	3	0	4	25	1	6	0	2	10	1
OTU 115	0	1	4	0	7	2	1	2	0	1	3	2	1	2	1	1	11	57	0	49	0	2	1	0	3	1	4	0	0	4	0	2	13	4	5	0	0	1	120	1	0	3	18	3	0	0	56	3	1	2
OTU 116	1	47	7	3	0	2	1	1	0	2	3	0	0	0	1	1	0	0	2	1	2	1	5	0	5	7	1	4	1	1	1	10	2	1	0	0	0	0	4	91	0	1	1	8	1	0	1	6	4	2
OTU 117	0	5	5	1	6	2	0	0	8	1	1	3	0	0	0	0	3	0	46	0	1	2	1	0	2	5	1	4	0	0	16	4	2	1	0	1	0	1	0	5	0	2	1	5	1	4	2	0	4	4
OTU 118	0	0	0	0	0	0	1	0	0	0	0	0	0	0	0	0	0	0	1	0	0	0	0	0	1	0	1	0	0	0	0	0	0	0	1	0	0	0	0	0	1	0	1	1	0	0	0	0	0	1
OTU 119	0	2	5	0	5	3	2	2	0	6	1	1	0	0	1	0	4	2	0	0	3	0	1	3	1	3	0	4	0	2	0	4	10	2	3	0	6	0	1	4	1	6	0	7	3	0	0	0	4	3
OTU 120	0	0	0	0	0	1	0	0	0	0	2	0	1	0	0	0	1	0	1	0	0	0	1	0	0	0	0	4	0	0	0	0	0	1	1	0	1	0	0	3	0	0	0	3	0	0	0	0	0	0
OTU 121	0	0	0	0	7	0	0	0	6	0	0	0	1	2	1	0	1	0	1	1	0	3	0	0	1	0	0	3	0	0	2	0	10	2	1	6	0	3	0	7	1	0	0	1	1	1	0	0	2	0
OTU 122	0	0	0	4	1	3	18	1	0	1	0	9	3	20	0	0	3	0	2	9	1	135	1	1	13	1	16	3	0	0	0	1	3	0	3	6	0	0	0	0	0	0	1	0	0	148	1	0	0	0
OTU 123	1	2	4	4	1	0	1	3	2	12	0	1	8	6	2	1	1	3	6	7	3	1	2	4	4	3	7	4	6	13	1	3	2	6	9	3	6	3	4	9	0	10	1	10	3	2	0	7	1	11
OTU 124	27	0	0	2	0	0	0	0	0	8	0	0	0	0	115	52	0	0	0	0	1	0	0	0	0	0	0	0	0	1	0	0	1	0	1	0	0	0	0	0	0	0	0	0	0	0	0	0	0	54
OTU 125	25	4	17	3	5	0	15	0	0	1	0	1	0	7	5	3	3	2	3	4	11	3	15	6	12	2	5	5	11	9	0	19	13	1	3	0	1	7	5	4	3	7	5	6	1	6	4	7	4	6
OTU 126	1	1	0	0	1	3	0	4	0	0	0	0	0	2	0	0	0	0	0	1	0	0	0	0	0	0	0	0	0	0	0	0	0	0	0	0	0	0	0	0	0	0	0	0	0	1	0	0	0	0
OTU 127	0	0	33	0	0	0	0	1	0	0	2	0	0	4	0	1	0	0	0	1	0	0	0	2	1	0	1	0	135	1	1	2	3	1	1	0	0	0	0	0	0	0	0	0	0	0	0	1	0	2
OTU 128	2	7	12	7	9	1	4	1	7	5	7	4	7	2	3	6	16	8	3	5	9	5	2	7	5	21	5	32	0	3	0	16	23	5	11	2	6	1	9	2	1	13	4	8	7	3	3	3	5	14
OTU 129	0	0	0	0	0	0	2	0	1	0	0	0	0	0	0	0	0	0	0	0	0	2	0	0	0	0	0	0	0	0	0	0	0	0	0	0	1	0	0	0	0	0	0	0	0	1	0	0	8	0
OTU 130	1	0	0	7	1	12	0	3	0	1	5	0	1	0	17	1	2	0	0	0	2	0	0	0	1	0	0	2	0	6	0	0	1	5	8	85	0	1	3	0	0	1	3	0	1	2	0	5	1	0
OTU 131	0	0	3	0	5	0	1	0	0	0	0	1	0	1	1	0	0	6	2	0	3	0	0	6	2	9	0	0	0	3	1	0	1	4	6	0	6	0	3	0	0	1	3	0	0	0	4	1	0	0
OTU 132	37	1	0	0	0	3	0	0	1	0	1	0	0	2	0	0	0	0	0	0	0	0	0	0	66	0	2	2	1	0	0	0	0	1	1	1	0	0	0	0	0	0	0	0	0	0	0	0	0	0
OTU 133	0	0	0	1	0	0	1	0	0	0	0	0	0	0	0	0	0	0	0	0	4	0	0	0	0	0	0	0	0	0	0	0	0	0	0	0	0	0	0	0	0	0	0	0	0	0	0	0	0	0
OTU 134	0	0	0	4	0	5	1	0	0	10	7	1	3	2	0	0	0	1	0	2	0	0	0	1	0	0	0	0	0	3	13	1	1	0	5	0	1	0	4	1	0	1	2	0	0	0	1	2	0	1
OTU 135	0	0	0	1	2	2	14	7	9	2	1	1	159	1	6	2	4	0	4	0	2	3	1	7	0	0	0	2	0	0	4	0	0	1	0	5	0	9	0	0	3	0	0	1	1	7	0	0	19	7
OTU 136	2	2	0	5	0	0	1	0	0	0	1	0	0	0	0	2	4	0	1	3	0	1	0	1	1	6	1	0	1	1	1	1	0	1	1	0	6	2	0	0	0	4	7	0	0	1	1	0	2	0
OTU 137	0	0	2	0	0	0	0	0	0	0	0	0	0	3	0	0	0	0	0	4	0	0	0	0	0	0	0	0	0	0	0	0	2	0	0	0	5	0	0	0	0	0	0	1	0	0	0	0	0	0
OTU 138	0	0	0	0	0	0	0	0	0	0	0	2	0	0	0	0	1	3	2	0	0	0	0	0	0	7	1	0	0	4	2	0	0	0	0	0	0	0	8	0	0	1	0	0	0	0	4	0	0	0
OTU 139	0	3	1	1	1	1	1	0	2	2	2	2	10	0	0	1	10	2	0	0	3	1	1	2	6	2	1	0	2	0	0	0	0	1	0	1	9	2	2	1	1	2	6	7	4	7	0	2	4	5
OTU 140	0	4	1	6	4	0	27	1	0	0	5	7	10	1	2	0	11	9	2	0	5	5	6	1	16	6	18	5	1	5	0	4	64	14	9	2	16	1	0	1	2	7	2	0	3	2	2	3	1	2
OTU 141	0	0	0	0	0	0	0	0	0	0	0	0	0	0	0	0	0	0	0	0	3	0	0	0	0	0	0	0	0	0	0	0	0	0	0	0	0	0	0	0	0	0	0	0	0	0	0	0	0	0
OTU 142	0	0	0	0	0	2	2	0	0	0	0	0	0	0	0	0	0	0	0	0	1	0	0	0	0	0	0	0	0	0	0	0	0	0	0	0	0	0	0	0	0	0	0	0	0	0	0	0	0	0
OTU 143	0	1	0	0	0	0	0	0	0	0	0	1	0	0	0	0	0	1	0	0	0	16	77	2	0	0	0	2	1	0	0	0	0	0	0	0	0	3	0	5	1	1	0	0	0	0	0	4	0	0
OTU 144	0	0	0	0	0	0	1	0	0	6	0	0	0	0	0	0	0	0	0	0	0	0	0	0	1	0	1	0	0	0	0	0	2	1	0	2	0	0	0	0	0	0	0	0	0	0	0	0	0	0
OTU 145	0	0	1	4	3	0	3	0	3	0	0	0	0	12	3	1	0	1	1	5	4	0	0	2	3	0	2	0	1	6	0	3	1	5	2	3	1	0	3	1	0	0	6	0	0	3	0	2	0	6
OTU 146	0	0	5	0	5	0	3	0	0	0	0	0	0	12	0	0	1	0	2	5	0	0	0	0	0	2	1	1	0	0	0	0	0	0	1	0	3	0	1	0	0	0	10	0	0	0	1	0	0	0
OTU 147	0	0	0	0	4	0	0	1	0	0	1	1	0	0	0	0	6	0	2	1	0	0	0	0	1	0	4	0	0	2	0	0	10	0	0	0	2	0	0	0	0	0	0	0	3	0	0	0	0	0
OTU 148	0	0	4	0	2	0	2	0	1	0	0	1	1	5	0	0	5	2	2	0	0	0	0	0	0	16	0	0	0	7	2	10	3	22	7	0	1	0	1	3	0	0	0	2	0	1	0	0	5	0
OTU 149	0	0	0	0	1	0	1	0	0	0	11	0	0	2	0	0	0	0	0	0	0	0	0	0	0	0	1	0	0	0	0	0	0	0	0	0	0	0	0	0	0	0	4	0	0	0	0	1	1	0
OTU 150	0	0	0	67	0	0	2	0	0	0	0	0	1	0	0	0	2	0	0	0	0	0	0	0	2	0	1	0	0	0	0	0	0	0	0	0	1	0	0	2	0	0	0	1	0	0	0	0	0	0
OTU 151	0	1	0	15	0	1	2	1	0	0	0	0	0	1	4	0	0	0	0	0	0	0	0	3	0	0	0	2	0	0	0	0	0	3	0	0	0	0	0	0	0	12	1	3	0	0	0	0	2	1
OTU 152	0	0	3	1	0	0	0	0	4	0	1	6	0	0	0	0	3	102	2	0	2	5	0	0	1	0	4	1	15	0	0	1	0	0	0	0	4	2	0	2	1	2	0	3	0	0	0	4	10	0
OTU 153	0	0	0	0	0	0	0	0	0	4	0	0	0	0	0	0	0	0	0	0	0	0	0	0	0	0	0	0	0	0	0	0	0	0	0	0	0	0	0	5	0	0	0	0	0	0	0	0	0	0
OTU 154	0	1	0	0	0	0	0	0	0	0	0	0	0	0	0	0	0	1	0	0	0	0	0	0	0	2	0	0	4	0	0	1	0	0	0	6	0	0	0	0	0	0	18	0	0	0	0	2	0	0
OTU 155	0	0	1	0	0	1	0	0	1	0	0	1	0	1	0	0	3	0	0	0	1	0	0	0	1	0	1	0	1	0	0	0	2	1	0	0	2	0	1	0	0	0	0	0	0	0	0	0	0	0
OTU 156	78	11	3	5	1	4	0	1	3	0	2	1	0	6	0	176	1	0	0	2	2	0	1	4	0	0	0	0	0	1	0	0	11	1	7	1	0	3	0	2	0	5	2	5	0	1	0	1	1	3
OTU 157	0	0	0	0	0	25	0	8	0	0	0	0	0	0	0	0	1	0	0	0	1	0	0	0	1	0	0	0	0	0	0	0	0	0	7	0	0	0	0	0	0	1	3	1	0	0	0	0	1	19
OTU 158	0	0	0	0	0	0	0	0	0	2	0	2	0	4	0	0	0	0	0	3	0	0	0	0	0	0	0	0	0	0	0	0	0	0	0	0	0	0	0	0	0	0	0	0	0	0	0	0	0	0
OTU 159	0	0	0	0	0	0	11	2	1	3	0	0	1	8	1	0	0	8	0	3	2	0	0	0	5	0	0	2	0	0	0	1	2	0	2	2	0	0	3	2	1	0	1	1	0	0	0	2	0	3
OTU 160	2	11	3	3	11	6	4	1	0	4	5	3	14	5	2	2	0	44	3	1	0	0	52	4	2	2	6	1	3	2	0	2	2	3	0	0	56	1	74	30	0	7	0	0	0	3	36	2	0	3
OTU 161	0	0	0	0	10	2	3	0	0	0	3	1	0	6	0	0	0	1	0	2	1	0	0	0	3	0	0	69	7	0	2	0	1	3	1	54	0	181	0	5	93	0	4	1	0	0	150	9	0	1
OTU 162	0	0	1	2	0	6	8	1	1	0	0	0	0	0	2	2	1	1	11	0	2	0	1	2	0	0	0	6	2	0	6	18	0	7	0	3	3	3	1	2	5	17	3	0	90	3	5	34	2	0
OTU 163	0	0	0	0	0	0	4	0	0	5	0	0	0	0	0	0	0	0	0	0	0	0	0	0	0	2	0	0	0	0	0	0	0	0	0	0	0	0	0	0	0	0	0	0	0	0	0	0	0	0
OTU 164	0	0	0	0	3	0	0	0	0	0	0	0	0	0	0	0	0	0	0	0	0	0	0	0	0	0	0	0	0	0	0	0	0	0	2	0	0	0	0	0	0	0	0	0	0	0	0	0	0	0
OTU 165	0	1	0	3	1	1	1	0	0	0	0	0	0	1	1	0	0	0	0	0	0	0	30	0	0	0	1	0	0	5	0	0	0	0	1	0	0	0	0	0	0	0	1	0	0	0	0	0	0	1
OTU 166	0	0	0	0	0	0	0	0	0	0	0	0	0	0	0	0	0	0	0	0	0	0	0	0	0	0	0	0	0	0	0	0	0	0	0	0	0	0	0	0	0	0	0	0	0	0	0	0	0	0
OTU 167	0	0	0	0	0	6	0	0	0	3	1	54	0	5	0	0	0	3	1	3	0	0	0	1	1	0	116	0	0	0	0	0	0	0	1	0	0	0	0	0	0	0	3	0	0	1	0	3	0	0
OTU 168	0	2	0	1	0	5	0	1	1	1	2	0	1	2	0	0	0	1	0	2	1	1	3	2	2	0	0	0	1	0	0	1	0	1	0	2	2	0	0	0	0	0	2	4	0	0	0	2	2	0
OTU 169	0	0	0	0	0	0	0	0	0	0	137	0	0	0	0	0	0	0	0	0	0	1	0	0	0	0	1	0	0	0	0	0	0	0	0	0	0	0	3	0	0	0	0	0	0	0	1	0	0	0
OTU 170	0	0	0	0	0	0	0	0	0	0	0	0	0	0	0	0	0	0	0	0	0	0	1	0	0	0	0	0	0	0	0	0	0	0	0	0	2	0	0	0	0	0	0	0	0	0	0	0	0	0
OTU 171	0	0	1	12	6	0	0	0	3	0	0	13	3	4	0	0	1	1	2	1	1	1	0	0	0	0	33	2	0	0	2	2	0	0	8	0	5	3	3	0	103	0	0	0	0	3	0	0	4	1
OTU 172	0	0	0	0	0	2	0	0	2	0	0	0	0	0	0	0	0	0	0	0	0	1	3	0	0	0	0	0	0	4	0	0	0	0	0	0	0	0	1	0	0	0	0	0	0	0	1	0	0	0
OTU 173	0	2	0	0	0	0	0	0	0	0	3	0	0	0	1	0	1	0	1	0	0	1	0	0	1	0	9	1	0	0	0	1	1	0	0	0	0	0	0	0	0	0	0	2	1	0	0	0	0	0
OTU 174	0	0	1	0	4	0	3	0	1	2	3	0	0	1	0	0	0	0	2	0	0	0	0	0	0	0	0	0	0	3	0	0	1	0	4	0	0	0	0	0	0	3	2	0	0	0	1	0	0	3
OTU 175	0	0	0	1	0	0	0	2	1	0	0	1	0	0	1	0	3	0	3	0	3	1	5	0	0	0	2	0	0	0	1	0	0	0	0	4	0	0	2	7	0	4	3	0	0	14	0	0	7	0
OTU 176	1	0	1	0	1	0	3	3	1	0	0	6	0	5	3	0	14	0	0	3	2	2	3	1	0	7	0	1	4	4	0	0	0	0	0	0	0	0	0	2	0	2	0	0	1	2	0	3	1	3
OTU 177	0	0	1	11	5	0	4	0	0	0	1	0	0	2	0	1	1	1	1	0	0	1	0	0	0	1	0	0	0	12	0	10	0	7	2	0	3	2	1	0	2	1	0	1	1	0	0	4	0	0
OTU 178	0	3	0	1	0	0	6	2	0	4	0	0	1	0	0	0	0	0	1	0	3	1	0	0	0	8	2	1	0	1	0	1	1	0	1	0	0	0	6	0	0	1	1	0	0	0	1	0	0	5
OTU 179	0	2	0	1	8	0	0	0	0	2	0	1	0	1	0	0	0	0	1	0	0	0	0	1	2	0	19	0	2	6	2	3	4	0	3	3	0	0	0	1	0	0	0	3	0	3	0	1	0	0
OTU 180	1	4	96	7	9	6	7	1	3	8	3	5	0	1	2	1	9	5	0	0	16	5	12	5	3	7	1	1	1	3	1	1	2	11	4	2	2	1	4	1	1	16	17	2	2	1	0	0	6	1
OTU 181	1	0	0	4	3	0	1	0	0	0	0	0	1	0	0	0	0	2	1	1	0	3	2	0	0	1	3	2	1	0	0	0	0	1	7	0	0	0	0	2	0	3	0	1	1	0	1	0	0	0
OTU 182	0	0	0	0	0	1	0	1	0	0	0	0	0	0	0	0	0	1	0	0	0	0	0	0	0	0	0	0	0	0	0	0	0	0	0	0	0	0	1	0	0	0	0	0	0	0	0	0	0	0
OTU 183	0	0	0	0	0	0	1	1	0	0	0	31	0	1	0	2	1	9	0	3	0	0	0	3	1	6	0	0	0	0	0	0	3	13	1	0	0	0	12	0	0	1	0	0	0	0	41	5	1	1
OTU 184	2	0	0	0	0	0	4	0	0	0	0	0	0	1	0	0	0	0	15	0	0	2	0	0	0	1	2	0	0	4	4	1	0	5	0	0	0	0	0	0	0	0	0	0	2	1	0	0	0	0
OTU 185	0	2	0	1	2	0	0	0	0	3	0	0	0	1	2	0	1	0	2	0	1	1	1	4	0	8	3	1	17	0	3	0	4	13	0	0	0	0	1	2	0	3	0	0	0	1	2	2	3	5
OTU 186	0	3	0	0	0	0	0	0	0	0	0	119	0	0	0	0	0	0	0	0	0	1	0	0	1	0	0	0	2	0	0	0	0	7	5	0	0	0	5	1	0	0	1	3	1	1	0	0	0	0
OTU 187	0	4	16	3	4	0	0	2	2	1	4	0	7	4	2	0	0	0	4	0	10	0	4	7	0	6	3	0	4	3	0	3	10	9	0	0	11	1	6	2	2	0	0	1	0	4	1	2	4	1
OTU 188	7	0	0	4	0	33	6	119	22	2	0	5	2	4	7	10	3	2	11	0	2	18	0	14	3	1	0	7	8	1	11	153	2	1	0	11	4	25	0	0	11	1	0	2	11	24	1	1	33	3
OTU 189	0	0	2	1	0	5	2	30	1	1	5	6	0	0	0	0	2	0	16	2	1	1	5	1	2	0	2	0	0	2	6	6	2	2	9	0	0	0	0	1	1	6	6	4	2	2	0	4	4	7
OTU 190	0	1	0	0	0	0	0	0	0	0	1	0	0	2	0	0	0	0	0	1	0	0	0	0	1	5	0	0	0	0	0	0	0	1	2	0	0	0	0	0	0	0	39	0	1	0	0	0	0	0
OTU 191	3	3	0	0	6	3	0	0	1	4	1	1	0	3	0	12	0	0	0	1	1	0	7	3	21	8	1	0	0	1	0	2	13	2	7	4	0	0	3	1	1	5	2	0	0	0	1	1	0	0
OTU 192	0	0	4	1	3	2	4	0	1	11	8	0	1	9	1	0	12	1	0	8	0	0	7	3	1	7	0	0	3	7	0	4	1	4	2	1	10	0	1	6	0	3	9	106	3	1	0	1	1	2
OTU 193	0	0	6	4	1	0	3	0	2	1	0	0	0	0	0	0	11	2	0	1	0	0	0	0	0	0	0	1	0	2	0	5	9	2	1	0	0	0	0	2	0	1	5	3	2	0	0	1	0	3
OTU 194	0	0	4	2	0	10	1	0	0	2	1	2	0	0	0	0	0	0	0	0	1	0	1	0	2	0	0	1	0	8	0	0	12	0	2	0	1	0	5	0	0	6	4	0	5	0	0	2	0	0
OTU 195	0	0	1	1	1	2	0	0	0	2	0	0	0	3	1	0	0	2	0	0	0	1	0	0	0	0	2	0	2	0	0	0	3	3	1	4	5	0	0	2	0	1	1	0	0	0	0	1	0	0
OTU 196	0	1	0	0	1	0	2	1	0	0	0	1	3	0	1	0	0	0	0	0	0	0	0	4	0	9	0	1	0	0	0	0	0	0	3	2	0	0	0	0	0	0	5	0	0	0	1	4	0	0
OTU 197	1	0	4	6	11	1	8	0	10	5	2	4	1	11	2	2	4	3	0	3	0	0	5	0	5	3	3	1	0	3	1	5	1	10	23	1	1	2	1	0	80	2	3	2	0	1	6	0	1	2
OTU 198	0	0	4	2	1	0	0	0	0	1	0	0	0	1	0	0	0	1	0	3	1	0	0	0	1	1	0	0	0	0	0	0	0	0	0	0	0	0	0	0	0	3	0	0	0	0	0	0	0	3
OTU 199	0	0	0	4	0	0	1	0	1	0	0	0	0	0	0	0	1	0	0	0	1	0	1	0	0	1	2	2	0	4	1	0	0	0	0	0	4	1	0	5	0	7	0	0	0	0	1	0	0	0
OTU 200	0	1	0	4	1	0	0	0	0	0	0	0	1	2	0	0	1	0	0	0	0	1	9	0	2	1	1	0	1	3	0	2	3	0	2	0	2	0	0	0	1	6	1	0	0	0	1	0	3	6
