	Host 1	Host 2	Host 3	Host 4	Host 5	Host 6	Host 7	Host 8	Host 9	Host 10	Host 11	Host 12	Host 13	Host 14	Host 15	Host 16	Host 17	Host 18	Host 19	Host 20	Host 21	Host 22	Host 23	Host 24	Host 25	Host 26	Host 27	Host 28	Host 29	Host 30	Host 31	Host 32	Host 33	Host 34	Host 35	Host 36	Host 37	Host 38	Host 39	Host 40	Host 41	Host 42	Host 43	Host 44	Host 45	Host 46	Host 47	Host 48	Host 49	Host 50	
OTU 1	4	0	1	4	7	2	0	12	5	1	3	0	0	6	10	14	2	0	0	0	0	2	0	0	3	4	26	1	1	1	5	14	2	7	0	3	2	4	6	4	14	8	5	13	3	4	1	9	8	18
OTU 2	0	0	0	0	5	1	0	0	0	0	0	0	0	1	0	0	0	0	0	0	24	1	0	120	1	0	1	0	0	0	1	0	0	0	0	2	1	0	2	0	1	1	0	2	0	0	2	2	0	0
OTU 3	0	0	2	0	2	0	0	0	1	0	0	0	0	1	0	0	0	1	0	0	0	0	0	0	0	0	0	0	0	0	4	0	0	0	1	0	0	0	0	1	0	0	3	0	0	0	0	1	1	0
OTU 4	0	0	0	0	0	0	0	0	0	0	0	0	0	0	0	0	0	0	0	0	0	0	0	0	0	0	0	0	0	0	0	0	0	0	0	0	0	0	0	0	0	0	0	0	0	0	0	0	0	0
OTU 5	6	14	17	7	0	2	38	26	22	0	0	18	8	37	0	7	0	12	16	4	2	13	5	12	8	17	77	15	0	44	38	15	0	17	0	24	23	0	0	14	0	0	6	30	11	0	11	6	17	1
OTU 6	0	0	0	0	0	67	2	2	7	0	3	0	3	2	0	0	0	1	0	0	0	9	1	0	1	0	2	0	0	3	35	1	2	0	1	0	2	1	0	0	1	0	0	0	29	0	2	0	1	0
OTU 7	1	0	1	0	10	9	2	4	1	4	11	0	0	4	4	1	3	1	1	5	0	1	10	35	1	1	0	7	2	0	0	2	4	4	26	0	4	4	1	7	2	0	0	7	1	9	0	5	0	1
OTU 8	0	6	48	49	2	0	11	1	1	4	1	33	3	2	4	3	2	7	0	9	1	5	3	0	1	7	2	1	0	0	8	1	9	4	1	1	4	2	2	0	0	0	0	2	1	7	2	6	0	1
OTU 9	1	0	0	0	0	1	0	0	2	0	2	0	0	0	0	0	0	3	0	0	4	0	0	0	0	1	0	0	0	0	0	0	0	0	0	1	0	1	0	118	0	4	0	0	0	0	0	0	0	0
OTU 10	0	0	0	0	2	0	2	0	0	0	3	0	0	0	1	0	0	1	0	0	0	1	0	0	1	0	1	0	0	4	0	1	0	0	1	0	1	0	0	0	0	0	0	0	1	0	0	0	0	2
OTU 11	2	0	0	2	0	2	0	3	0	5	3	0	1	1	1	1	1	0	0	4	1	0	0	2	1	0	0	1	0	2	2	1	2	0	9	1	6	0	1	1	0	0	2	2	0	1	0	4	0	1
OTU 12	0	3	4	2	6	3	2	1	0	3	2	1	0	1	0	1	1	0	0	0	11	1	0	0	4	0	0	3	0	0	0	1	1	7	6	2	0	1	0	0	2	0	1	0	3	2	0	0	1	0
OTU 13	0	0	0	1	0	0	0	2	0	0	0	0	0	0	0	0	0	0	0	0	0	0	0	0	0	0	0	0	0	0	0	0	0	0	0	0	0	0	0	0	1	0	0	0	0	0	0	2	0	0
OTU 14	0	0	0	0	2	2	2	0	0	0	1	0	1	0	0	0	0	1	0	0	0	0	0	0	1	0	0	0	0	0	1	1	0	3	4	0	0	2	1	2	0	0	0	0	1	2	0	0	0	0
OTU 15	0	0	0	0	0	0	0	0	0	0	0	0	0	0	0	0	0	0	0	0	0	0	0	0	0	0	0	0	0	0	0	0	0	0	0	0	0	0	0	0	0	0	0	0	0	0	0	0	0	0
OTU 16	0	0	0	0	0	0	0	0	0	0	0	0	0	0	0	0	0	0	0	0	0	0	0	0	0	0	0	0	0	0	0	0	0	0	0	0	1	0	0	0	0	0	0	0	0	0	0	0	0	0
OTU 17	1	1	0	0	1	0	4	0	2	0	0	0	3	0	3	5	0	0	2	6	1	2	0	0	0	0	0	0	0	0	0	1	0	0	16	1	1	0	0	1	0	2	0	0	0	0	1	1	0	0
OTU 18	1	1	0	0	0	0	1	0	0	0	3	0	3	2	0	1	1	10	0	6	12	0	3	0	0	1	0	1	0	0	2	2	1	3	2	0	0	0	0	0	1	4	0	2	0	0	0	0	0	1
OTU 19	0	0	0	0	0	0	0	0	0	0	0	0	0	0	0	0	0	0	0	0	0	0	0	0	0	0	0	0	6	0	0	0	0	0	0	0	0	0	0	0	0	0	0	0	0	0	0	0	0	0
OTU 20	2	0	0	0	1	2	2	1	0	1	7	0	3	0	3	1	1	1	0	1	0	0	2	0	0	1	1	6	0	3	0	0	0	0	0	0	1	2	2	0	0	1	0	0	1	0	2	2	0	0
OTU 21	1	0	2	4	1	16	2	11	0	0	10	1	6	0	1	1	8	0	3	0	0	1	6	3	3	6	0	0	2	0	1	1	1	5	0	0	2	3	3	6	5	0	2	0	12	16	1	11	5	3
OTU 22	2	3	0	0	0	0	1	3	0	0	2	0	1	0	2	3	2	1	0	79	0	0	2	1	0	2	0	1	3	1	6	4	5	0	1	0	14	0	0	1	4	5	1	0	0	2	0	0	2	6
OTU 23	0	0	0	2	0	1	3	0	105	2	0	1	0	0	0	0	0	0	0	1	0	0	0	0	5	0	0	0	0	0	0	0	1	1	0	1	0	1	0	0	0	0	0	0	0	0	0	2	0	0
OTU 24	0	0	0	1	0	1	3	0	0	0	16	0	0	1	0	0	0	2	0	0	0	0	0	0	0	0	0	1	0	0	0	0	0	0	2	0	2	0	0	0	0	0	0	0	0	0	0	0	0	0
OTU 25	0	0	0	1	0	0	0	0	0	0	0	0	0	0	0	0	0	0	0	0	0	0	1	0	0	0	0	0	0	0	0	0	0	0	0	0	0	0	0	0	0	0	0	0	0	0	0	0	0	0
OTU 26	0	0	0	0	0	1	0	0	0	0	0	0	0	0	0	0	0	0	0	0	0	0	0	0	0	0	0	0	0	0	4	0	0	0	0	0	0	0	1	0	0	0	0	0	0	0	0	0	0	0
OTU 27	0	0	0	0	0	0	0	0	0	0	0	0	0	0	0	0	2	0	0	0	0	0	0	0	0	0	0	0	0	0	0	0	0	0	0	0	0	0	0	0	0	0	0	0	0	0	0	0	0	0
OTU 28	0	2	1	0	1	1	1	5	38	0	3	1	2	1	2	0	3	6	0	1	5	0	1	3	0	2	2	0	5	1	3	5	0	2	3	1	1	0	1	1	2	1	0	4	1	0	0	1	0	2
OTU 29	2	0	5	47	7	20	0	10	3	9	1	32	2	6	14	3	3	0	7	0	1	7	4	3	12	15	2	8	9	1	5	5	6	0	3	1	0	8	4	3	10	4	0	7	2	3	1	4	5	0
OTU 30	0	0	0	0	0	0	0	0	0	0	0	0	0	0	0	0	0	0	0	0	0	0	0	0	0	0	0	0	0	0	0	0	0	0	0	0	0	0	0	0	0	0	0	0	0	0	0	0	0	1
OTU 31	0	0	0	0	1	0	11	0	0	0	0	0	0	4	0	0	52	0	0	0	0	0	0	29	1	1	2	0	0	49	4	0	0	0	0	0	1	1	0	0	0	0	0	0	1	0	0	0	0	0
OTU 32	0	6	1	0	0	1	2	9	13	0	1	0	1	0	2	4	3	1	24	0	2	38	2	2	3	8	0	0	0	1	42	0	0	0	13	55	0	0	3	0	1	0	0	4	3	136	12	103	0	1
OTU 33	0	0	0	0	0	1	0	0	0	0	0	0	0	0	0	1	0	0	0	0	0	0	0	0	0	0	0	0	0	0	0	0	0	0	0	0	0	0	0	0	0	0	0	0	0	0	0	0	0	0
OTU 34	0	5	2	0	3	0	1	0	0	2	2	0	12	0	2	4	1	0	0	4	2	0	0	0	0	0	0	0	0	0	2	1	5	0	0	0	29	0	0	0	2	1	0	1	1	0	0	0	0	3
OTU 35	0	0	0	2	0	1	7	1	1	1	5	0	0	0	1	0	0	2	0	0	0	0	0	1	1	0	0	1	1	0	1	3	7	0	0	0	3	0	3	0	3	0	0	2	0	1	0	1	0	1
OTU 36	0	0	0	0	0	1	0	11	0	2	10	0	3	2	4	0	0	0	1	0	1	1	7	0	0	2	0	1	0	0	3	0	2	1	3	1	0	2	7	0	4	0	0	2	2	0	0	0	0	1
OTU 37	0	0	0	0	0	3	0	3	0	0	0	0	0	0	0	1	0	0	0	8	0	0	0	0	0	0	0	0	0	1	0	0	0	0	0	0	0	0	1	0	0	0	0	0	0	0	0	0	0	0
OTU 38	0	2	1	0	3	1	1	0	0	0	0	0	0	0	0	0	0	1	23	7	0	4	7	1	1	0	3	0	2	0	1	5	1	0	1	70	2	1	7	0	0	0	0	2	0	0	0	1	0	0
OTU 39	5	0	0	0	0	0	0	0	0	0	1	1	0	1	0	0	0	0	0	2	0	2	1	0	0	0	7	5	0	0	3	0	0	0	0	0	0	0	0	0	0	0	0	0	0	0	0	2	0	0
OTU 40	0	4	1	1	0	0	2	0	0	1	1	0	3	0	1	3	0	1	0	0	5	0	1	0	0	0	0	0	0	0	0	3	6	0	0	0	0	2	1	0	0	0	2	0	2	2	1	1	1	2
OTU 41	1	4	0	0	0	1	0	1	0	0	1	1	1	1	0	2	0	0	0	1	0	1	0	0	0	0	0	1	1	0	0	1	0	0	2	0	0	0	2	0	2	1	0	0	1	0	0	0	0	0
OTU 42	0	0	0	3	2	0	0	0	0	0	0	0	1	0	2	0	0	0	0	0	0	0	0	1	0	0	0	0	1	0	0	1	0	0	0	3	0	0	0	0	0	3	0	0	0	0	0	0	0	0
OTU 43	0	0	0	0	0	0	0	1	0	0	0	0	0	0	0	0	0	0	0	0	2	0	0	0	0	0	0	1	0	0	0	0	0	0	0	0	0	0	1	0	0	0	0	0	0	0	0	0	0	0
OTU 44	0	0	0	0	0	0	0	0	0	0	1	0	0	0	0	0	0	0	0	1	0	0	0	1	0	0	0	0	0	0	0	1	0	0	0	0	0	0	0	0	0	0	0	1	0	0	0	0	0	2
OTU 45	0	12	1	0	0	0	0	1	2	0	3	0	2	0	0	1	2	2	0	0	0	1	0	7	3	0	0	0	0	0	4	12	0	1	1	0	2	0	2	23	0	0	1	0	0	0	0	3	0	0
OTU 46	0	0	0	2	2	5	4	1	6	1	1	2	0	1	0	0	0	1	0	1	4	7	2	0	0	1	2	2	0	2	21	0	3	6	0	0	1	0	4	1	0	0	1	1	3	0	3	0	0	4
OTU 47	0	0	0	0	0	0	1	0	0	0	4	0	0	0	0	0	3	0	0	0	2	0	0	1	0	0	0	0	0	0	0	0	0	0	0	0	5	0	0	0	0	0	0	0	0	0	0	0	0	2
OTU 48	0	1	3	0	5	3	2	0	0	1	3	0	0	1	3	1	0	0	0	0	2	1	1	2	1	1	4	0	0	0	1	0	0	0	1	0	0	0	3	4	1	7	1	1	0	0	0	0	5	1
OTU 49	0	0	0	0	0	0	0	2	0	1	0	0	4	0	0	0	3	0	0	1	0	5	0	2	0	0	0	0	197	1	1	0	5	0	0	1	0	1	0	0	0	0	0	0	0	1	2	5	0	0
OTU 50	1	3	0	0	0	0	0	0	0	5	0	0	2	0	1	0	0	0	1	1	3	0	0	0	1	0	0	2	1	0	0	0	1	0	12	2	0	1	0	1	4	1	0	0	0	0	0	0	3	1
OTU 51	0	0	0	4	0	3	0	4	0	0	0	0	0	0	5	0	0	0	0	0	0	1	0	0	0	1	1	0	3	0	0	0	0	0	0	0	0	0	0	0	1	0	0	1	0	1	2	1	2	0
OTU 52	0	0	1	1	4	1	0	2	0	2	2	1	3	2	1	3	3	8	1	14	2	5	1	2	2	0	1	1	1	5	7	2	4	0	9	0	5	1	15	2	3	0	2	3	0	0	2	0	0	2
OTU 53	0	0	0	0	0	0	0	0	0	0	0	0	0	0	0	0	0	0	0	0	0	0	0	0	0	0	0	0	0	0	0	0	0	0	0	0	0	0	0	0	0	0	0	0	0	0	0	0	2	0
OTU 54	9	0	4	0	2	1	1	2	0	7	0	0	3	1	1	3	1	10	0	4	44	0	1	2	6	2	2	17	2	0	1	2	12	0	0	1	11	84	2	5	4	0	5	0	2	2	1	0	0	5
OTU 55	0	0	1	0	0	0	0	0	0	0	0	0	0	0	0	0	0	0	0	0	0	0	0	0	0	0	0	0	0	0	0	0	0	0	0	0	0	0	0	0	0	0	0	0	0	0	0	0	0	0
OTU 56	0	0	0	0	0	0	0	0	0	0	0	0	1	0	0	0	1	0	0	0	0	0	0	2	0	0	0	0	0	0	0	1	0	0	0	0	0	0	1	0	2	0	0	0	2	0	0	0	0	0
OTU 57	0	24	1	1	2	2	1	2	1	1	0	0	0	3	17	2	3	8	1	4	0	0	7	5	4	1	7	2	3	0	0	1	1	4	3	1	3	0	5	3	0	0	2	1	0	2	3	2	1	1
OTU 58	0	0	0	0	0	0	1	0	0	1	0	2	0	0	0	0	0	0	0	0	0	0	0	0	0	0	0	0	0	2	0	0	0	0	0	1	0	3	2	0	0	0	1	0	0	0	0	0	0	3
OTU 59	0	2	5	0	4	1	0	0	0	1	0	0	0	0	2	1	0	1	0	0	0	0	0	2	0	0	0	0	0	16	0	0	0	0	0	0	3	0	4	0	0	1	0	0	0	0	0	0	0	0
OTU 60	0	1	0	1	0	0	13	0	0	0	6	1	3	55	1	5	0	0	0	0	5	0	8	0	1	0	2	1	1	0	0	0	0	0	2	0	4	0	0	0	7	0	1	0	0	1	1	1	1	3
OTU 61	2	6	1	8	1	2	0	2	1	5	4	30	6	24	2	21	6	2	19	0	15	6	4	0	1	0	67	2	2	10	11	3	5	132	1	44	2	0	2	0	0	1	4	1	0	34	2	42	0	9
OTU 62	0	3	0	3	1	0	0	0	0	1	0	0	3	0	0	0	1	0	0	0	0	0	0	0	0	0	0	0	0	1	0	1	0	0	0	0	0	0	0	0	1	0	0	0	0	0	0	0	0	0
OTU 63	0	0	1	0	0	0	0	0	0	0	2	0	2	0	0	0	0	1	0	0	0	0	0	0	6	0	0	0	1	0	2	0	0	0	2	1	0	0	1	0	0	2	0	2	0	0	0	1	0	2
OTU 64	2	1	1	6	0	2	0	10	0	2	1	2	5	1	4	3	0	0	1	6	1	1	0	0	3	2	1	5	0	1	0	0	7	0	2	0	0	1	1	1	1	6	4	0	1	0	0	0	0	3
OTU 65	0	0	0	3	0	0	0	0	0	0	0	0	1	0	0	0	0	0	0	0	0	0	0	0	0	0	0	0	0	0	0	0	0	0	0	0	0	0	0	0	0	0	0	0	0	0	0	0	1	0
OTU 66	0	8	3	0	0	0	8	0	3	0	1	0	2	0	3	0	0	0	0	1	1	3	0	0	0	1	0	1	0	0	3	1	0	1	10	0	1	2	1	0	1	0	0	52	3	0	2	1	1	0
OTU 67	0	1	11	0	39	1	7	1	0	1	0	0	1	1	0	0	0	0	0	0	1	0	1	0	1	0	1	0	1	0	1	1	5	0	0	0	0	16	0	0	1	0	0	49	0	0	2	0	3	0
OTU 68	17	0	0	3	0	2	0	0	0	0	0	3	2	0	0	0	3	0	0	0	0	0	0	1	0	0	0	0	0	0	0	0	1	3	0	0	3	0	0	1	0	3	0	0	0	0	0	1	1	0
OTU 69	0	0	0	3	2	1	0	0	2	3	1	0	1	1	0	1	0	1	0	0	1	1	0	0	0	0	0	0	0	0	6	0	0	2	1	3	1	0	6	0	0	1	11	3	0	1	0	2	0	0
OTU 70	0	0	0	0	0	5	1	5	1	0	5	0	6	1	0	0	0	0	0	0	0	1	0	24	0	1	4	0	1	1	0	0	0	1	2	0	0	0	0	0	1	0	0	0	1	0	0	0	0	0
OTU 71	1	0	30	0	80	0	0	0	0	3	4	0	0	0	0	0	0	19	0	2	0	0	4	0	0	0	1	0	0	2	0	0	0	0	5	0	0	24	0	0	1	0	0	2	0	0	0	0	1	1
OTU 72	0	0	0	2	0	0	1	0	0	0	2	0	3	0	0	1	5	11	1	1	0	2	2	0	0	0	0	0	1	0	1	0	4	0	3	1	2	1	0	0	1	1	37	3	2	1	0	1	1	0
OTU 73	0	0	0	0	1	0	1	3	0	0	0	0	0	0	0	0	0	2	0	3	11	0	0	0	0	2	0	2	0	0	1	0	1	0	1	0	1	3	3	26	0	1	0	0	0	0	0	2	2	0
OTU 74	0	2	0	1	3	0	7	0	2	0	3	2	0	1	1	1	0	1	0	7	0	2	5	2	1	0	0	0	0	0	0	3	3	0	0	0	9	2	1	0	1	0	2	1	0	0	2	0	2	5
OTU 75	3	2	0	0	0	4	1	1	0	3	0	2	4	0	0	2	0	12	0	0	15	1	0	0	0	0	0	4	1	1	0	2	1	2	9	0	2	0	0	1	7	9	0	2	1	0	0	0	7	0
OTU 76	60	0	0	1	0	0	0	0	0	1	1	0	0	0	0	3	0	9	0	0	0	0	0	0	0	0	0	106	0	0	1	0	0	0	5	0	0	0	0	0	5	0	0	0	0	2	0	0	1	0
OTU 77	0	0	0	0	0	3	1	0	0	0	1	0	0	1	0	2	2	2	0	7	1	0	2	1	3	0	0	0	0	0	0	0	0	3	6	0	4	0	1	7	2	4	0	0	1	0	0	1	5	2
OTU 78	0	0	0	0	0	0	0	1	3	1	1	0	6	7	3	2	2	0	5	0	2	2	1	1	1	1	19	0	1	0	0	2	12	32	0	11	1	1	0	0	5	0	0	1	2	14	0	27	5	0
OTU 79	3	2	11	2	1	2	4	3	0	3	8	2	4	2	4	1	2	1	1	2	9	2	98	1	3	4	3	3	2	35	1	14	7	1	12	0	4	9	5	25	2	1	17	5	1	2	1	7	1	43
OTU 80	16	2	0	12	4	4	0	0	0	26	1	15	0	5	74	5	0	4	0	10	0	0	3	0	0	1	3	52	34	2	3	0	1	9	0	0	0	3	0	3	3	0	0	40	0	0	0	1	0	1
OTU 81	0	2	3	3	2	3	11	1	0	4	7	0	1	1	3	21	0	2	0	0	1	1	8	0	9	0	0	1	1	2	2	3	3	2	2	0	1	0	13	0	0	0	0	0	2	0	0	0	1	0
OTU 82	0	1	0	0	0	0	0	0	0	4	0	1	0	3	2	5	0	0	0	1	1	0	0	0	0	0	0	1	1	2	1	2	3	0	2	0	0	0	0	0	0	3	0	1	0	0	0	0	0	1
OTU 83	0	0	0	0	0	0	0	1	0	2	1	1	0	0	0	0	0	0	0	2	6	0	0	0	0	0	0	0	0	0	0	0	1	0	0	0	1	0	0	0	1	1	1	0	0	0	0	1	0	0
OTU 84	1	0	1	0	1	0	2	2	0	3	2	0	0	0	2	1	3	1	0	0	0	0	0	0	0	2	0	0	1	0	1	0	0	2	6	1	0	0	0	0	4	0	0	3	0	5	0	0	2	1
OTU 85	2	0	0	0	0	0	0	0	0	1	0	0	0	0	2	0	0	2	0	0	0	3	0	0	0	0	1	3	2	0	1	0	0	0	0	0	0	0	1	0	0	0	0	0	0	1	4	1	0	7
OTU 86	0	0	0	0	0	0	0	0	0	0	0	0	0	0	0	0	0	0	0	0	0	0	0	0	0	0	0	0	0	0	0	0	0	0	0	0	0	0	0	0	0	5	0	0	0	3	0	0	0	0
OTU 87	0	0	0	1	0	0	0	0	0	1	0	0	1	0	0	0	1	0	61	1	0	0	0	0	0	0	0	0	0	0	3	0	2	0	0	0	0	0	4	0	0	0	0	0	0	2	0	1	0	0
OTU 88	0	3	0	0	0	0	0	0	1	0	0	0	1	0	0	2	0	0	0	0	1	0	0	0	0	0	0	0	2	0	0	0	0	0	0	0	0	0	0	0	0	0	0	0	0	0	0	0	0	0
OTU 89	0	0	5	0	0	0	1	0	0	0	0	0	1	0	0	0	4	0	0	6	2	1	0	0	0	0	0	0	1	1	1	0	0	0	0	0	1	0	0	1	0	1	0	0	0	0	0	0	0	1
OTU 90	0	0	0	0	0	0	2	0	0	0	0	0	0	0	0	0	0	0	0	0	0	2	0	0	0	0	0	0	0	0	0	0	0	0	3	0	3	2	0	0	0	0	0	0	0	0	1	0	0	0
OTU 91	0	4	0	0	0	0	0	3	0	0	0	0	0	0	0	0	0	2	0	0	0	0	0	0	0	0	0	0	0	0	0	0	4	0	0	0	0	0	0	0	0	0	0	0	3	4	0	1	0	0
OTU 92	0	0	1	0	0	0	0	0	0	0	0	0	0	0	0	0	0	1	0	2	0	0	0	1	0	0	0	0	0	0	0	54	0	0	0	0	0	0	0	0	0	0	1	0	0	0	0	0	0	2
OTU 93	0	0	0	0	0	0	1	0	0	0	0	0	0	0	0	9	0	0	0	0	0	0	0	0	0	0	0	0	0	0	0	0	0	0	1	0	0	0	0	0	0	0	0	0	0	0	0	0	0	1
OTU 94	1	4	0	2	13	18	6	2	0	0	0	0	3	1	7	0	7	0	0	3	0	6	0	2	1	0	1	7	5	3	1	1	21	14	11	0	3	8	8	2	5	6	0	3	3	0	2	7	3	1
OTU 95	0	1	0	0	0	0	1	0	0	0	0	0	0	0	0	0	0	1	0	8	0	1	0	0	0	0	1	0	0	0	0	0	5	0	0	0	0	0	0	0	0	0	0	0	0	0	0	0	0	0
OTU 96	0	0	0	0	0	0	0	0	0	0	0	0	0	0	0	0	0	0	0	0	0	0	0	0	0	0	0	0	0	0	0	0	0	0	0	0	0	0	0	0	0	0	0	0	0	0	0	0	0	0
OTU 97	0	0	0	0	0	0	0	0	0	0	0	0	0	0	0	0	0	0	0	0	0	0	0	0	0	1	0	0	0	0	0	0	0	0	0	0	1	0	0	0	0	0	0	0	0	0	0	0	0	0
OTU 98	0	0	0	1	1	0	0	2	2	0	0	1	21	0	0	1	1	0	0	0	1	0	0	1	0	0	0	0	0	0	2	0	0	2	0	0	15	0	0	0	0	0	0	0	0	0	0	0	0	0
OTU 99	167	4	0	2	5	1	1	1	1	0	0	0	8	88	1	0	1	0	2	0	14	6	0	0	2	1	2	1	0	2	1	0	10	1	7	1	4	0	10	2	2	1	3	0	0	0	4	5	2	1
OTU 100	0	1	81	1	0	0	0	0	1	0	0	1	3	1	0	3	2	2	6	0	4	0	0	3	0	0	1	1	0	0	1	0	1	0	1	0	1	0	0	0	0	1	0	3	1	2	0	4	0	0
OTU 101	4	0	0	0	0	0	1	0	4	0	0	0	0	0	0	0	0	0	0	0	0	0	0	0	0	0	0	0	0	0	0	0	0	0	4	0	0	0	0	0	0	0	0	0	0	0	0	0	0	1
OTU 102	0	0	0	0	1	0	3	0	0	0	0	0	0	0	0	2	0	0	0	0	1	0	0	0	0	0	0	0	1	0	0	0	1	0	0	0	5	0	0	2	0	0	0	0	0	0	0	0	0	0
OTU 103	0	0	1	0	1	0	2	0	1	0	2	1	1	3	0	0	0	0	0	0	3	0	1	0	1	0	1	0	0	0	2	0	1	1	0	0	2	0	7	0	2	0	0	0	0	0	0	2	4	1
OTU 104	0	1	2	2	0	3	0	0	0	2	1	1	2	0	0	0	3	1	0	11	7	0	0	0	3	3	5	1	0	1	0	1	1	3	0	0	0	0	2	0	0	1	0	1	1	0	0	4	1	0
OTU 105	0	1	0	0	0	0	2	2	0	0	1	0	0	1	0	1	0	0	0	0	1	2	1	0	0	0	0	1	0	1	0	0	0	0	0	0	0	1	0	0	0	0	0	0	0	0	0	0	0	0
OTU 106	0	0	0	4	0	0	2	0	0	0	0	0	0	0	0	0	0	4	0	0	2	0	79	0	0	0	0	0	0	0	0	0	0	0	1	2	0	0	10	0	5	0	0	0	0	0	0	0	5	0
OTU 107	1	106	0	1	0	0	0	1	0	0	0	1	0	0	0	1	0	0	0	0	0	0	0	0	0	3	0	0	0	2	0	2	0	0	0	0	1	1	0	0	0	0	0	0	2	0	0	2	0	0
OTU 108	0	4	1	0	0	9	0	0	0	0	0	0	3	0	1	0	0	0	0	1	0	0	0	0	0	1	0	0	1	0	0	3	0	2	0	0	0	0	0	3	0	0	0	1	2	0	2	0	1	1
OTU 109	0	0	0	0	0	0	0	0	0	0	0	0	0	0	0	0	0	0	0	0	2	0	0	0	0	0	0	0	0	0	0	0	0	0	0	0	0	0	0	0	0	0	0	0	0	0	0	0	0	0
OTU 110	0	3	2	0	2	1	2	2	1	0	0	0	0	0	4	0	3	2	0	2	0	3	1	1	3	0	0	0	1	0	2	2	0	0	0	0	0	1	7	3	0	3	0	0	2	0	2	0	0	0
OTU 111	0	0	0	0	0	0	0	0	0	1	0	0	3	0	0	0	0	0	13	0	0	2	0	0	0	0	0	0	0	1	0	0	0	0	0	22	0	0	0	0	0	0	0	0	0	0	0	0	0	0
OTU 112	0	0	1	0	1	1	0	0	8	0	0	0	2	0	4	1	0	0	0	1	7	17	0	0	0	0	0	8	2	0	0	0	0	0	0	0	0	1	0	0	0	0	0	4	0	3	10	0	0	0
OTU 113	0	0	0	1	0	0	0	0	0	0	0	0	0	0	0	0	0	0	0	0	0	0	2	0	1	0	0	0	0	0	0	0	0	0	0	0	0	0	1	0	0	0	0	0	0	0	0	0	0	0
OTU 114	0	0	2	8	3	0	0	6	4	1	4	2	6	6	3	1	7	2	0	2	0	4	1	1	0	3	10	2	5	1	4	0	1	2	3	1	3	1	1	0	5	2	5	4	0	0	1	1	0	8
OTU 115	8	0	1	0	5	5	0	0	2	0	0	1	0	0	2	0	6	17	1	44	6	0	0	4	0	2	1	14	0	3	0	2	10	7	1	4	1	0	53	2	4	0	0	0	4	2	1	7	114	7
OTU 116	0	29	3	0	2	0	2	0	0	0	1	0	0	0	1	0	1	0	0	0	1	0	0	0	1	1	2	1	0	1	5	0	2	1	0	0	14	1	1	9	0	0	0	1	1	1	0	3	1	0
OTU 117	0	2	0	1	3	0	0	4	7	2	0	0	4	0	2	0	57	5	1	1	2	8	0	33	1	2	0	0	0	0	20	0	1	0	0	0	0	0	2	1	3	0	1	0	0	0	8	2	1	0
OTU 118	0	0	9	3	0	0	0	0	0	0	0	2	1	0	0	0	0	1	0	2	0	0	0	0	0	0	0	0	18	1	0	0	0	0	0	0	0	0	0	0	0	0	0	0	0	0	0	0	0	1
OTU 119	0	0	1	0	0	1	0	13	0	0	8	0	0	0	2	0	0	0	85	2	0	0	0	0	2	8	1	0	0	0	0	0	7	0	0	0	2	2	5	1	0	2	0	0	1	2	0	1	1	0
OTU 120	0	0	0	0	0	2	3	0	0	1	0	0	0	0	1	1	0	0	0	0	0	1	0	0	1	0	0	0	0	0	0	2	0	0	0	0	0	0	1	0	1	0	0	0	0	0	0	0	3	0
OTU 121	1	0	0	1	2	1	0	0	3	8	0	0	0	0	2	1	0	0	0	0	5	0	3	0	1	1	3	1	0	1	0	1	0	0	0	0	1	0	0	0	4	1	2	0	1	3	0	0	1	4
OTU 122	2	0	31	2	24	5	1	0	0	3	0	0	2	0	3	3	93	1	0	4	0	0	0	40	0	163	2	2	1	1	0	0	2	0	1	0	0	16	0	0	3	47	1	4	0	0	0	1	0	0
OTU 123	0	5	3	2	1	0	1	3	1	2	6	1	2	5	1	8	6	14	4	3	2	0	3	1	1	12	5	1	0	1	8	4	3	0	11	3	4	4	15	1	6	4	2	2	3	12	2	9	1	1
OTU 124	0	0	0	1	1	1	0	0	0	0	1	0	0	0	0	28	0	0	0	1	0	0	0	0	0	0	0	0	0	0	0	0	0	0	0	0	0	0	0	0	0	0	0	0	0	0	0	0	14	0
OTU 125	1	12	0	3	5	11	18	7	1	5	1	0	2	19	2	2	3	5	1	3	9	0	4	9	14	5	28	1	2	5	0	21	5	19	2	6	0	4	11	12	1	2	3	1	1	4	0	5	0	2
OTU 126	0	0	0	0	0	1	0	0	1	0	0	0	0	0	0	1	0	0	0	0	1	1	0	0	0	0	1	0	0	0	0	0	0	0	2	0	0	1	1	0	0	0	0	0	2	0	0	0	0	0
OTU 127	1	3	1	0	0	2	0	0	0	0	0	0	1	1	2	0	0	0	1	0	1	6	0	1	0	0	0	0	0	0	4	0	2	0	0	0	0	0	0	1	3	0	0	0	0	0	1	0	1	0
OTU 128	0	1	5	5	14	8	5	11	0	2	2	152	2	2	4	3	22	9	0	5	5	1	5	8	4	3	3	0	2	19	6	3	28	5	22	0	7	5	5	3	1	7	18	2	9	39	0	0	5	50
OTU 129	0	0	0	0	0	0	0	0	0	0	2	0	0	0	0	0	0	0	0	0	1	0	0	0	0	0	0	0	0	0	0	1	0	0	1	0	1	0	0	1	0	0	0	1	0	0	0	0	0	0
OTU 130	0	0	0	1	0	10	0	0	0	0	0	0	0	0	2	0	1	3	0	10	4	0	29	2	0	0	0	0	0	0	0	0	1	0	7	0	0	0	1	0	0	0	0	0	6	0	0	0	1	0
OTU 131	0	0	0	14	0	0	0	0	0	0	0	11	1	0	0	2	2	7	0	2	2	0	4	0	0	1	1	1	0	0	0	1	0	0	0	1	3	0	8	0	2	3	0	1	0	0	0	1	1	0
OTU 132	0	0	2	0	0	0	0	0	2	0	0	0	0	2	0	1	1	1	0	0	0	0	1	0	1	0	0	0	0	0	0	2	0	0	0	0	1	2	0	6	0	0	0	1	0	0	0	1	0	0
OTU 133	0	1	0	1	0	0	0	0	0	0	0	0	0	0	0	1	0	3	1	0	0	0	0	0	0	0	0	0	0	0	0	0	0	0	0	0	0	0	0	0	0	0	0	0	0	0	169	0	0	0
OTU 134	0	0	0	4	0	0	2	1	2	2	7	0	6	16	8	0	0	2	0	0	3	5	0	0	0	0	0	1	1	0	10	1	1	0	0	0	3	2	0	2	5	0	0	0	0	0	0	3	4	0
OTU 135	0	0	16	1	2	0	1	10	1	6	5	0	96	1	1	0	3	3	0	0	1	3	0	0	0	10	5	0	0	2	0	6	0	4	0	2	0	0	0	1	3	7	2	0	0	2	0	7	1	4
OTU 136	1	5	0	0	1	0	1	0	0	16	0	0	0	0	6	3	3	2	3	0	0	0	1	1	0	0	0	1	2	2	0	0	0	4	0	2	1	0	0	0	8	1	0	1	0	0	0	3	1	1
OTU 137	0	0	0	1	1	0	0	0	0	4	0	0	0	0	0	1	0	0	0	1	0	2	2	0	1	0	0	0	1	0	0	0	0	0	0	0	9	116	0	0	0	0	0	0	0	1	0	0	0	0
OTU 138	0	0	0	0	0	0	3	2	2	0	2	0	0	0	0	0	0	0	0	2	0	2	0	0	0	0	1	1	0	1	4	0	0	0	0	0	0	0	5	0	0	0	1	0	0	0	0	0	0	0
OTU 139	0	0	8	0	23	1	2	0	0	0	4	0	8	0	0	0	0	1	0	7	4	4	0	1	1	0	1	1	0	0	1	0	1	9	0	0	2	15	7	2	4	28	0	2	0	4	0	2	25	0
OTU 140	4	2	2	4	0	1	39	2	31	11	13	2	15	0	3	2	2	4	1	1	7	1	2	0	1	1	1	0	1	0	0	0	43	7	21	0	15	0	7	2	7	5	3	0	0	2	4	4	3	8
OTU 141	0	0	0	0	0	0	0	0	0	0	0	1	0	0	0	0	0	0	0	0	4	0	0	0	0	0	0	0	0	0	0	0	0	0	0	0	0	0	0	0	0	0	0	1	0	0	0	0	0	0
OTU 142	0	0	0	0	0	0	0	0	0	0	0	0	0	0	0	0	0	0	0	0	2	0	0	0	0	0	0	0	0	0	0	0	0	0	0	0	0	0	0	0	0	0	0	0	0	0	1	0	0	0
OTU 143	0	0	7	0	3	0	0	0	1	0	6	0	0	0	0	0	0	0	0	0	2	0	0	0	0	0	0	1	0	1	2	0	0	1	0	0	0	6	0	0	1	16	0	0	0	0	0	2	0	2
OTU 144	0	0	0	3	2	0	3	1	0	0	0	1	0	0	0	0	0	0	27	2	0	0	0	0	0	5	0	0	0	0	1	0	0	0	0	2	5	0	0	0	0	0	0	0	0	1	0	1	0	0
OTU 145	0	3	1	2	0	0	0	1	0	3	4	1	0	13	1	1	0	2	5	0	0	0	0	0	1	0	23	2	0	3	1	0	0	1	0	5	0	0	6	0	0	16	1	0	0	1	0	4	0	3
OTU 146	0	5	0	0	1	2	11	0	0	0	0	0	0	3	0	1	4	1	0	4	0	1	0	2	0	1	3	0	1	55	0	0	0	0	1	0	9	0	1	0	0	89	0	2	5	1	2	0	1	0
OTU 147	0	0	0	0	1	0	0	0	0	2	0	0	0	0	0	0	1	0	0	0	1	0	2	0	4	0	0	0	0	0	0	1	0	4	0	2	2	0	1	1	0	2	0	0	0	0	0	4	0	0
OTU 148	0	7	0	0	0	0	0	2	0	1	2	0	3	0	0	4	0	1	2	1	1	0	0	0	0	1	1	1	0	2	0	0	4	0	0	1	3	0	1	0	0	1	0	0	0	0	0	5	0	4
OTU 149	0	0	0	0	0	0	0	29	0	0	1	0	0	0	0	0	0	0	0	2	0	0	0	0	0	6	0	0	0	0	0	1	0	0	0	0	0	0	0	0	0	0	2	0	0	0	0	0	0	5
OTU 150	0	4	0	1	0	0	0	1	2	0	0	0	0	0	0	0	1	0	0	5	0	0	0	0	0	3	0	0	0	0	2	0	0	0	0	0	0	0	0	0	0	0	0	0	2	0	0	0	0	0
OTU 151	0	4	0	2	0	5	1	0	0	0	3	4	0	0	0	1	1	0	1	0	1	3	0	0	1	0	0	0	0	0	6	1	0	0	0	1	3	1	2	1	0	1	0	0	1	1	0	0	0	0
OTU 152	0	1	0	0	0	6	1	5	0	0	0	1	7	5	0	0	2	66	0	0	0	1	2	2	3	1	0	0	0	0	8	0	0	1	1	0	0	0	1	0	0	19	0	2	2	0	0	5	0	0
OTU 153	0	0	0	1	0	0	0	0	0	0	0	0	1	0	0	0	0	0	0	0	0	0	0	0	0	0	0	0	0	2	0	0	0	0	0	0	0	0	0	0	0	0	0	0	0	0	0	0	0	0
OTU 154	0	0	0	1	0	0	0	0	0	0	0	0	0	0	7	0	0	0	0	0	0	0	0	0	0	0	0	0	1	0	0	0	0	0	0	0	0	0	0	0	0	0	0	1	0	0	0	0	0	0
OTU 155	0	7	0	0	0	0	0	4	1	0	0	0	0	0	0	0	0	0	0	0	2	0	0	0	0	2	0	0	0	0	2	0	0	0	2	1	0	0	0	0	0	3	0	0	0	2	0	0	0	0
OTU 156	1	3	1	3	0	2	1	69	0	0	0	1	3	0	0	124	1	5	1	2	4	0	1	1	2	45	0	1	0	0	2	0	0	2	8	0	0	3	0	0	0	7	0	0	47	0	0	0	0	0
OTU 157	0	0	0	0	0	26	0	0	0	0	0	0	0	0	0	0	0	0	0	0	0	0	0	0	0	0	0	1	0	33	0	0	1	0	3	3	0	0	3	0	1	0	37	0	14	0	0	3	0	62
OTU 158	0	0	0	0	0	0	0	0	0	0	0	0	0	0	0	0	0	0	0	0	0	0	0	0	0	0	0	0	0	0	0	1	1	0	0	0	1	0	0	0	1	0	0	0	0	0	0	0	0	0
OTU 159	0	0	0	0	0	1	2	2	0	0	0	0	1	0	3	0	0	0	0	3	4	0	1	0	0	1	0	0	1	20	0	0	0	0	0	0	0	0	4	2	8	5	0	1	0	0	0	0	0	0
OTU 160	0	8	2	5	5	4	17	2	0	9	1	1	3	1	6	0	0	39	1	1	4	0	1	1	2	0	4	0	1	0	0	2	3	1	2	3	38	7	36	0	0	2	0	3	6	0	0	3	1	0
OTU 161	27	0	0	21	0	0	0	0	0	28	3	6	3	0	50	0	0	1	0	0	8	0	8	0	0	0	0	20	18	21	1	4	0	0	2	0	1	1	0	8	67	0	30	21	53	1	0	0	18	39
OTU 162	0	0	0	1	0	2	12	1	2	3	0	0	1	0	0	3	0	2	2	0	7	0	0	0	1	0	2	1	0	1	2	0	1	6	0	0	1	0	0	1	2	1	4	1	2	0	1	0	0	3
OTU 163	0	0	0	0	0	0	0	0	1	0	0	0	1	0	0	0	0	0	0	0	0	0	0	0	0	0	0	0	0	0	0	0	0	0	0	0	0	0	0	0	0	0	0	0	0	0	0	0	0	0
OTU 164	0	1	0	0	0	0	0	0	0	0	0	0	0	0	0	0	0	0	0	0	0	0	0	0	0	1	0	0	1	0	0	0	2	0	0	0	0	0	0	0	0	0	0	0	0	0	0	0	0	0
OTU 165	0	0	1	0	3	4	3	0	28	0	1	0	0	0	0	0	0	1	0	1	0	78	4	0	1	0	0	0	0	0	0	0	5	0	3	0	0	0	0	0	1	0	0	0	2	0	40	0	1	0
OTU 166	0	0	0	0	0	0	0	0	0	0	0	0	0	0	0	0	0	0	0	0	0	0	0	0	0	0	0	0	0	0	0	0	0	0	0	0	1	0	0	0	0	0	0	0	0	0	0	0	0	0
OTU 167	0	0	0	0	1	5	0	0	2	0	2	0	0	1	1	0	0	1	0	0	0	4	1	0	0	0	0	0	0	0	1	15	0	1	1	0	0	1	0	26	0	0	1	0	3	0	3	0	25	0
OTU 168	4	4	0	0	0	8	0	0	0	2	1	0	4	1	0	3	4	0	1	1	0	0	0	0	0	0	0	0	0	0	0	0	0	0	0	0	1	0	10	1	0	0	0	1	4	0	0	0	0	0
OTU 169	0	0	0	0	0	0	1	0	1	0	102	0	0	0	0	0	0	0	0	0	0	0	0	0	0	0	0	0	0	1	4	0	0	0	0	0	0	0	4	0	0	0	0	0	0	0	0	0	0	0
OTU 170	0	0	0	0	0	0	0	0	0	0	0	0	0	0	0	0	0	0	0	0	0	0	0	0	0	0	0	0	0	0	0	0	0	0	0	0	3	0	0	0	0	0	0	0	0	0	0	0	0	0
OTU 171	3	3	3	0	6	0	1	0	0	3	0	0	7	0	1	0	1	1	0	0	0	0	1	0	2	1	2	4	1	1	1	0	1	2	5	2	0	0	0	0	51	2	0	32	0	0	0	4	28	0
OTU 172	0	0	0	2	0	0	0	0	0	0	0	0	0	0	0	0	0	0	1	0	0	0	1	1	0	0	4	0	0	0	3	0	0	0	0	0	0	0	0	0	0	0	0	0	0	0	0	1	0	1
OTU 173	0	0	0	1	0	0	0	3	0	0	2	0	0	0	1	0	0	0	0	5	0	1	2	0	0	1	0	0	0	0	0	0	2	0	0	0	0	0	0	0	0	0	0	0	0	0	0	0	0	0
OTU 174	0	0	0	0	1	0	0	0	1	2	0	0	1	1	0	3	0	1	0	0	0	0	0	0	0	3	0	0	0	0	2	0	0	4	0	0	1	0	0	0	0	0	0	0	1	0	0	1	0	2
OTU 175	0	0	0	0	0	3	0	1	2	0	0	0	0	0	1	3	0	0	0	0	0	0	0	0	0	1	0	0	0	1	2	4	3	1	0	0	0	0	0	0	1	0	0	0	1	0	1	2	0	0
OTU 176	1	1	3	0	0	1	11	1	0	1	2	2	2	0	0	0	0	1	0	3	2	0	3	1	140	0	0	3	1	0	0	1	1	7	6	0	0	0	0	0	3	3	0	0	1	33	3	2	2	2
OTU 177	1	0	3	3	11	3	0	1	5	1	12	0	0	0	1	2	0	3	0	3	0	1	3	0	0	0	2	0	0	2	0	0	0	0	4	0	2	1	1	1	2	5	1	1	2	0	0	0	2	1
OTU 178	0	3	0	2	2	0	4	0	0	0	0	1	0	0	0	0	0	0	0	1	1	0	0	0	1	0	0	1	1	0	0	0	9	0	0	0	3	0	0	1	0	3	0	0	0	0	0	2	0	0
OTU 179	4	0	0	0	4	0	0	4	0	0	0	0	0	0	1	0	1	0	0	0	0	0	1	0	0	0	0	2	0	0	1	0	12	0	0	0	0	1	0	0	0	1	0	1	0	1	0	0	0	0
OTU 180	1	4	3	61	7	5	14	4	2	130	1	30	2	3	3	2	6	1	0	1	16	0	1	3	74	1	1	1	0	0	2	104	0	1	4	2	2	1	4	4	2	4	136	0	4	1	0	5	0	3
OTU 181	1	2	1	0	2	2	0	0	0	0	0	0	0	0	0	0	0	2	0	1	1	2	0	0	0	0	0	3	0	0	0	0	0	0	0	0	3	0	1	2	0	1	0	0	0	0	2	0	1	0
OTU 182	0	0	2	0	0	0	6	0	0	1	0	0	0	0	0	0	0	0	0	0	0	0	0	0	0	0	0	0	1	0	0	0	0	0	0	0	0	0	2	0	0	0	0	0	0	0	0	0	0	0
OTU 183	0	0	4	0	3	0	2	7	0	2	0	0	0	0	0	1	0	9	3	1	0	0	2	0	0	5	0	1	1	0	0	1	3	0	5	3	0	0	6	1	1	0	0	0	0	3	0	0	0	0
OTU 184	0	1	0	0	0	0	6	7	3	0	3	0	0	0	0	0	1	0	0	0	2	1	0	1	2	8	0	0	0	0	0	0	0	0	0	0	0	0	0	1	0	0	0	0	89	0	0	3	0	0
OTU 185	0	0	5	2	0	1	1	1	1	0	2	1	1	2	1	4	7	6	0	1	0	5	0	2	0	0	7	0	2	1	1	0	4	2	3	0	4	2	1	1	4	1	1	0	1	0	2	0	0	0
OTU 186	0	0	0	0	0	0	1	0	0	0	1	0	0	0	1	0	0	0	0	0	0	0	0	0	0	0	0	2	2	0	1	1	0	0	1	2	5	0	1	0	0	3	0	0	0	0	0	0	0	0
OTU 187	0	1	1	2	2	0	2	0	37	2	8	2	1	0	1	0	3	0	51	2	16	72	1	1	3	1	1	1	0	0	0	0	8	0	0	72	13	0	1	2	1	0	2	3	3	2	39	0	0	6
OTU 188	2	2	13	6	6	16	12	7	5	7	0	5	10	0	13	6	9	0	5	5	7	6	6	6	10	2	8	5	2	8	7	10	7	3	1	1	5	3	2	20	12	3	2	11	9	1	5	3	5	10
OTU 189	1	0	1	1	0	0	2	2	1	2	0	0	9	40	2	1	1	0	3	3	3	4	3	0	5	0	1	5	4	0	11	0	1	1	12	3	3	0	0	0	4	2	3	0	1	2	21	4	1	4
OTU 190	0	0	0	0	0	1	0	0	0	0	3	0	0	0	0	0	0	0	0	0	0	0	0	0	2	0	1	0	0	0	0	0	0	0	0	0	0	0	0	0	0	0	0	0	0	0	0	0	0	0
OTU 191	0	1	0	0	2	8	0	3	0	0	0	0	0	0	0	6	0	2	0	0	0	0	3	0	1	0	2	0	1	0	0	2	16	6	6	0	0	1	2	0	0	0	0	0	1	3	1	1	0	0
OTU 192	0	2	0	0	1	2	4	0	0	3	8	1	6	0	0	1	2	0	0	2	2	2	3	0	4	0	0	0	0	0	2	21	6	12	8	0	1	1	2	0	0	1	19	0	1	2	0	0	0	0
OTU 193	0	2	5	3	2	3	3	3	1	0	1	0	0	0	2	0	0	1	9	1	3	3	0	1	2	0	6	0	0	1	5	0	3	0	0	18	3	0	0	1	2	1	0	1	0	0	2	3	3	0
OTU 194	0	0	0	0	1	12	2	0	0	1	1	0	3	0	1	1	0	0	0	0	0	2	1	0	0	0	0	1	1	0	0	0	3	0	3	1	8	0	2	1	0	0	1	1	2	0	1	0	0	1
OTU 195	17	2	0	25	3	1	0	0	1	9	0	11	2	0	52	0	0	0	0	9	1	0	2	0	2	1	0	34	22	0	3	2	3	0	1	0	0	1	0	0	0	3	0	32	0	0	2	0	0	0
OTU 196	0	1	0	0	1	0	1	0	0	0	0	0	4	0	0	2	0	0	0	0	0	0	0	0	0	0	0	1	0	2	0	1	5	4	3	0	0	0	10	0	1	0	3	0	0	4	0	0	1	6
OTU 197	0	5	2	2	3	7	3	3	2	0	8	2	8	0	1	12	1	6	1	9	3	2	3	0	1	0	8	2	1	0	7	0	0	3	23	0	0	0	2	2	47	0	3	0	3	2	3	1	27	5
OTU 198	0	1	0	1	0	0	0	0	0	0	2	0	0	0	0	0	0	3	0	0	0	0	0	0	0	0	0	1	0	1	1	0	0	0	1	0	0	0	0	0	0	0	0	0	0	0	0	1	1	2
OTU 199	0	4	0	0	0	1	3	13	1	0	2	0	0	0	0	0	0	0	0	0	1	0	0	0	2	1	2	0	1	1	0	0	0	0	0	0	4	0	0	0	0	1	0	0	0	0	1	0	0	0
OTU 200	0	2	0	0	6	2	1	0	2	3	1	0	0	0	0	0	0	0	0	0	2	0	1	0	0	0	1	1	0	0	3	1	8	1	0	0	6	0	0	4	0	0	0	0	1	1	0	0	0	0
