	Host 1	Host 2	Host 3	Host 4	Host 5	Host 6	Host 7	Host 8	Host 9	Host 10	Host 11	Host 12	Host 13	Host 14	Host 15	Host 16	Host 17	Host 18	Host 19	Host 20	Host 21	Host 22	Host 23	Host 24	Host 25	Host 26	Host 27	Host 28	Host 29	Host 30	Host 31	Host 32	Host 33	Host 34	Host 35	Host 36	Host 37	Host 38	Host 39	Host 40	Host 41	Host 42	Host 43	Host 44	Host 45	Host 46	Host 47	Host 48	Host 49	Host 50	
OTU 1	2	5	0	0	0	0	0	3	0	0	4	0	0	3	3	0	2	1	7	0	0	12	3	0	0	1	4	0	1	0	7	2	10	0	0	2	5	2	0	0	0	3	10	3	0	0	1	0	0	1
OTU 2	0	1	0	0	0	0	0	0	0	0	0	0	2	0	0	2	0	0	0	0	0	0	1	1	0	5	0	4	0	0	0	0	0	0	0	0	0	0	1	0	0	3	2	0	0	0	0	0	0	0
OTU 3	2	0	4	74	0	0	0	2	0	0	0	2	0	0	0	0	4	0	2	1	0	1	1	1	0	0	0	0	0	0	2	0	0	0	0	0	0	0	0	0	0	1	0	0	0	0	0	3	0	0
OTU 4	0	0	0	0	0	0	0	0	0	0	0	0	0	0	0	0	0	0	0	0	0	0	0	0	0	0	0	0	0	0	0	0	0	0	0	0	0	0	0	0	0	0	0	0	0	0	0	0	0	0
OTU 5	0	4	3	21	37	8	24	8	6	12	0	6	9	31	9	43	5	34	4	2	0	2	2	9	21	34	4	12	8	20	14	9	5	1	18	30	18	2	43	4	1	47	13	12	22	9	13	31	0	21
OTU 6	3	0	0	0	0	0	1	2	0	0	0	1	1	0	0	0	0	1	0	1	0	1	1	1	8	1	0	0	0	0	0	0	3	2	1	1	0	0	1	1	4	1	0	1	1	3	13	3	1	0
OTU 7	0	5	8	0	3	1	0	2	4	1	0	4	21	0	1	4	1	1	5	0	0	2	2	0	1	3	8	1	4	5	4	8	9	0	4	1	0	0	2	1	16	1	3	7	4	2	1	15	1	1
OTU 8	1	4	11	7	1	8	0	3	2	0	3	0	1	2	2	2	8	0	4	0	1	3	0	11	3	5	2	6	6	7	3	10	3	2	2	11	51	0	3	5	1	4	0	2	3	3	3	3	7	2
OTU 9	0	3	0	2	0	0	0	2	0	0	1	0	0	0	0	0	0	0	2	0	0	0	0	0	4	1	0	0	0	0	3	0	3	3	0	0	1	1	0	2	0	0	0	0	0	0	3	0	0	0
OTU 10	4	0	3	3	1	0	1	1	0	2	0	0	0	0	0	0	1	0	0	1	6	1	0	0	2	1	2	1	0	0	1	1	1	0	0	0	0	1	0	0	0	2	0	0	1	4	4	2	0	3
OTU 11	0	2	0	0	0	0	0	1	8	6	3	8	1	4	0	5	2	1	2	0	3	2	1	0	1	0	1	1	6	0	0	1	0	2	3	0	0	5	0	37	8	1	5	2	1	5	6	1	1	0
OTU 12	4	0	0	2	0	1	36	1	0	6	2	2	1	0	0	0	0	1	0	2	5	2	0	2	1	1	0	0	1	0	4	2	5	2	4	2	2	3	0	1	0	1	0	4	0	3	2	3	4	0
OTU 13	0	0	0	0	0	0	0	0	0	3	0	0	0	0	0	0	0	0	0	1	0	0	0	0	0	0	0	0	0	0	1	0	4	0	0	0	0	1	0	0	2	0	0	0	0	0	0	0	1	0
OTU 14	0	1	0	0	2	1	0	13	0	0	0	7	0	0	0	2	0	0	0	0	0	0	0	1	1	0	0	0	0	0	3	0	0	0	0	0	1	0	0	0	0	0	0	0	0	0	2	0	0	0
OTU 15	0	0	0	1	1	0	0	0	0	0	0	0	0	0	0	0	0	0	0	0	0	0	0	0	2	0	1	2	2	0	0	0	0	0	0	0	0	0	0	0	0	0	0	0	0	0	1	0	0	1
OTU 16	0	0	0	0	0	0	0	0	0	0	0	0	0	0	0	0	0	0	0	0	0	0	0	0	0	0	0	0	0	0	0	2	0	0	0	0	0	0	0	0	0	0	0	0	0	0	0	0	0	0
OTU 17	9	0	0	1	1	0	0	0	1	1	0	0	0	1	0	2	2	0	0	3	0	0	0	2	3	2	1	0	2	0	5	4	5	2	0	0	4	2	0	1	2	0	1	0	0	0	1	0	0	0
OTU 18	1	0	4	2	0	2	0	0	0	1	1	0	2	1	1	1	5	0	4	1	0	5	3	0	2	1	2	0	1	8	1	1	0	2	0	2	4	1	0	2	2	2	3	0	1	0	0	2	9	2
OTU 19	0	0	0	0	0	0	1	0	0	0	0	0	0	0	0	0	0	0	0	0	0	0	0	0	0	0	0	0	0	0	0	0	0	0	0	0	0	0	0	0	0	0	0	0	0	0	0	0	0	0
OTU 20	2	0	1	0	2	0	0	0	0	0	0	3	0	3	1	3	3	0	0	1	0	0	0	1	0	3	1	0	1	0	1	0	10	2	2	0	1	2	1	0	0	0	0	1	0	1	0	2	0	0
OTU 21	0	1	1	1	0	4	0	1	0	1	1	0	1	1	0	0	1	0	0	7	0	0	3	0	3	4	4	0	0	0	0	0	0	0	0	4	0	0	0	1	2	0	0	5	0	1	2	4	0	0
OTU 22	2	5	2	0	0	3	0	4	1	0	0	1	3	0	0	1	0	0	1	0	2	1	0	2	2	0	1	0	45	1	0	2	3	0	0	0	4	4	0	0	15	1	0	1	0	0	0	0	1	0
OTU 23	0	0	0	0	0	0	0	0	0	1	0	0	0	55	0	0	0	0	0	0	3	0	0	0	5	2	0	0	0	1	1	6	1	0	6	0	1	0	2	0	0	0	0	7	2	0	3	4	0	1
OTU 24	1	0	2	0	0	0	0	0	0	0	0	1	2	0	0	0	0	0	0	0	31	0	1	0	0	0	0	0	0	0	1	0	0	1	0	3	0	0	0	1	0	4	0	0	0	0	0	1	0	0
OTU 25	0	0	0	0	0	0	0	0	0	1	0	0	0	0	0	0	0	0	0	0	0	0	1	0	0	0	1	0	0	0	1	0	0	0	0	0	2	0	0	0	0	0	0	0	0	0	0	0	0	0
OTU 26	0	0	1	0	0	0	0	0	0	0	0	0	1	0	0	0	0	0	0	0	0	0	0	0	1	0	0	0	0	1	0	1	0	0	0	0	0	0	0	0	0	0	0	0	0	2	2	1	0	0
OTU 27	0	0	0	0	0	0	0	0	12	0	0	0	0	0	0	0	1	0	0	0	0	0	0	0	0	0	0	0	0	0	0	0	1	0	0	0	0	0	0	0	3	0	0	0	0	0	0	0	0	0
OTU 28	0	0	0	0	0	0	0	3	1	0	3	0	0	1	15	0	0	0	0	0	8	5	0	2	3	5	4	5	9	4	1	0	0	0	2	4	7	0	3	1	4	0	1	0	3	0	1	1	9	5
OTU 29	1	0	2	1	0	7	0	3	4	0	1	5	1	0	0	0	0	0	0	1	1	1	0	0	0	0	3	3	0	11	1	0	2	0	8	1	1	1	5	0	1	0	0	1	0	3	3	0	0	0
OTU 30	0	0	0	0	0	0	0	0	0	0	0	0	0	0	0	0	0	0	0	0	0	0	0	0	0	0	0	0	0	0	0	0	0	0	0	0	0	0	0	0	0	0	0	0	0	0	0	0	0	0
OTU 31	7	0	0	0	1	0	1	2	0	0	0	1	0	6	0	0	0	0	0	0	4	0	4	0	0	2	0	4	0	0	0	2	0	0	0	0	0	0	0	0	3	0	0	0	1	2	0	0	1	0
OTU 32	0	1	0	2	1	2	0	3	0	5	1	3	2	1	0	0	0	0	5	0	1	0	1	4	1	4	1	3	18	3	4	11	0	1	8	1	0	2	0	7	2	6	1	4	4	0	0	1	4	0
OTU 33	6	1	0	1	0	0	0	0	0	0	0	0	0	0	0	0	0	0	0	10	0	0	1	0	0	0	0	0	0	0	0	0	0	0	0	0	0	0	0	0	0	0	0	0	0	0	0	4	0	0
OTU 34	1	0	0	25	11	3	0	3	1	0	3	0	1	2	1	0	2	1	2	0	0	3	4	51	0	3	0	0	0	1	0	0	1	0	2	6	2	0	1	5	1	0	3	0	0	1	1	5	2	0
OTU 35	0	6	0	0	0	6	0	3	0	0	0	25	0	0	3	0	1	0	3	1	114	2	0	0	1	0	1	4	0	11	0	2	0	27	2	0	0	0	4	4	1	1	0	0	2	0	2	0	1	0
OTU 36	0	1	1	35	0	1	0	5	0	134	3	0	0	1	1	0	1	2	2	0	10	2	1	6	12	7	1	0	0	1	3	0	1	0	0	0	7	0	0	0	0	3	1	1	0	0	1	0	0	3
OTU 37	1	0	0	0	0	0	1	0	0	0	0	0	0	0	0	0	0	0	0	0	0	4	0	0	0	0	1	0	1	0	1	0	0	0	0	0	0	0	0	0	1	0	0	1	0	1	1	0	0	0
OTU 38	1	0	3	1	0	0	0	1	5	0	2	1	0	0	3	35	0	1	0	1	2	0	0	0	0	0	0	1	20	0	1	7	3	0	1	0	2	0	0	0	15	0	0	31	0	0	0	0	11	0
OTU 39	0	0	0	0	0	0	0	0	0	0	0	0	0	0	0	0	0	0	0	0	0	0	1	1	0	0	0	6	0	1	0	0	0	0	0	0	2	0	1	0	0	0	3	0	0	2	0	0	0	0
OTU 40	1	2	0	0	3	4	13	7	0	0	0	7	0	0	0	5	0	0	0	0	5	2	1	3	0	1	0	3	0	0	1	3	0	1	1	1	24	22	0	4	7	0	0	1	0	11	1	5	1	4
OTU 41	0	1	10	0	0	2	1	2	0	1	0	1	4	0	0	1	0	0	0	0	0	1	0	0	0	4	0	0	6	0	1	0	0	0	0	2	1	0	0	1	0	0	0	0	0	2	0	0	5	1
OTU 42	1	0	0	0	0	0	0	0	1	0	0	0	0	0	0	0	0	0	0	0	4	0	1	0	0	0	0	0	0	0	0	0	1	0	0	0	2	0	0	0	0	0	2	0	0	1	0	0	0	0
OTU 43	0	0	0	0	0	0	0	0	0	0	0	0	102	0	0	0	0	0	0	0	0	0	0	0	0	0	0	0	0	0	0	0	0	0	0	0	0	0	0	0	0	0	0	0	0	0	0	0	0	0
OTU 44	0	2	0	0	0	1	1	0	0	1	0	0	0	0	0	0	0	0	0	0	0	0	0	0	0	0	0	0	0	0	1	0	1	0	1	0	0	0	0	0	0	0	0	2	0	0	0	0	0	0
OTU 45	5	0	1	3	0	0	0	2	0	0	0	1	0	0	2	0	0	0	1	6	1	1	1	0	1	2	8	0	0	0	0	8	0	1	2	1	2	2	0	0	0	0	7	1	0	14	2	0	13	1
OTU 46	3	6	0	5	0	2	0	1	1	2	0	2	1	0	1	0	1	51	4	2	4	0	0	2	5	4	1	6	0	3	1	0	7	1	1	3	0	1	0	0	0	1	0	0	0	2	6	1	0	2
OTU 47	1	0	0	0	0	2	0	0	0	1	0	0	0	0	1	0	0	0	0	0	0	0	0	0	0	0	0	0	7	2	0	0	0	0	0	0	0	0	1	0	1	0	1	1	0	0	1	0	0	0
OTU 48	0	2	1	0	0	2	0	0	1	1	2	0	2	4	4	1	0	0	1	0	8	2	1	2	1	1	2	1	2	0	2	0	2	5	38	36	1	1	1	0	5	2	0	19	1	1	2	2	3	5
OTU 49	0	1	0	2	0	0	1	0	0	0	0	1	0	0	2	1	2	0	0	0	0	0	0	3	0	0	1	1	0	1	1	1	1	0	0	1	0	1	0	3	4	0	1	0	0	0	0	2	0	0
OTU 50	5	2	1	5	1	0	0	2	2	3	0	0	0	6	2	0	1	0	0	1	1	0	4	0	0	7	4	3	3	4	9	2	5	1	6	1	1	0	0	7	8	1	3	1	1	6	0	7	6	0
OTU 51	1	6	1	2	1	8	0	2	2	1	1	12	4	0	2	0	0	3	1	0	0	1	0	5	0	2	6	0	2	0	6	2	4	8	4	0	1	0	0	0	1	1	1	1	0	1	0	1	0	2
OTU 52	1	1	2	3	0	0	0	7	0	2	0	6	0	71	4	3	0	0	2	3	1	1	1	0	9	5	9	1	8	1	1	1	3	0	2	2	0	0	0	0	4	2	2	4	0	12	12	4	0	9
OTU 53	0	0	1	0	0	0	0	0	0	0	0	0	0	0	1	0	0	0	0	0	0	0	0	0	0	1	0	0	0	1	0	0	0	0	0	0	0	0	1	0	0	0	0	0	0	0	0	0	0	0
OTU 54	0	7	1	0	1	17	0	3	2	3	1	15	6	2	5	0	0	0	7	0	0	1	0	4	0	0	4	4	13	0	0	11	2	0	3	8	1	1	0	1	5	4	2	0	1	1	1	11	4	5
OTU 55	0	0	0	0	0	0	0	0	0	0	0	0	0	0	0	0	0	0	0	0	0	1	0	0	0	0	0	0	0	0	0	0	0	0	0	0	0	0	0	0	0	0	0	0	0	0	0	0	0	0
OTU 56	6	4	0	1	9	1	144	1	0	0	1	0	1	0	1	73	3	0	1	0	0	0	0	2	0	1	0	1	0	2	0	0	0	0	0	39	1	5	0	0	2	3	0	37	0	0	0	0	1	1
OTU 57	0	2	7	2	3	103	2	4	2	1	4	2	0	0	2	1	10	11	22	0	6	3	0	3	1	19	2	7	8	10	3	2	0	1	2	2	0	1	9	28	2	3	6	2	2	4	7	0	2	4
OTU 58	1	0	0	2	0	0	2	1	2	2	0	2	5	14	0	0	0	0	0	1	0	0	38	0	0	0	0	0	0	1	0	0	4	4	1	1	32	0	4	18	12	0	17	0	0	0	0	34	0	0
OTU 59	1	0	0	1	1	0	0	0	3	0	0	4	0	1	0	1	0	0	0	0	0	0	0	2	1	0	0	1	3	0	0	0	0	0	0	0	0	0	1	0	2	3	0	0	0	0	1	0	0	0
OTU 60	2	0	2	7	1	1	0	8	7	0	0	0	3	0	11	0	1	0	0	3	12	0	0	2	5	6	19	3	2	7	1	29	0	5	7	3	1	1	3	5	0	1	0	0	5	0	7	10	9	7
OTU 61	4	1	0	1	0	1	5	9	2	0	3	2	2	0	3	2	6	2	7	0	1	5	0	2	2	1	1	0	4	1	4	0	4	4	3	8	1	1	2	3	4	3	2	1	0	1	1	7	0	1
OTU 62	0	0	13	0	0	1	0	1	0	0	0	0	0	0	0	0	0	0	0	0	0	0	1	2	0	2	0	0	0	0	0	0	2	0	1	0	0	0	0	0	1	0	0	0	0	0	2	0	0	0
OTU 63	2	0	41	0	0	1	0	0	0	1	0	0	4	0	1	0	2	0	0	1	2	0	0	0	0	4	6	0	1	0	0	0	0	0	1	1	0	0	0	1	0	0	0	1	1	0	0	3	0	3
OTU 64	24	1	6	6	6	6	0	0	3	4	6	2	6	8	1	12	21	6	34	11	4	23	1	13	2	3	1	3	7	7	2	9	22	0	0	21	1	3	40	0	2	17	16	19	0	1	6	29	13	0
OTU 65	0	0	0	0	0	0	0	0	0	0	0	0	0	0	0	0	0	0	0	0	0	0	0	0	0	0	0	0	0	0	0	0	0	0	0	0	0	1	0	0	0	0	0	0	0	0	1	0	0	0
OTU 66	0	6	1	1	1	1	2	1	9	3	2	3	3	1	2	0	1	17	0	0	0	1	0	1	1	1	3	1	2	29	3	12	3	0	1	0	4	0	21	0	7	1	0	1	82	0	1	9	4	125
OTU 67	0	0	0	0	0	0	2	2	4	0	0	1	1	1	0	0	0	0	0	0	3	3	2	0	2	0	1	0	0	2	0	0	0	2	6	3	1	0	0	0	1	0	0	0	0	1	5	2	0	1
OTU 68	0	1	0	0	0	0	0	0	0	0	1	0	0	0	0	0	9	0	11	0	0	2	0	0	51	0	0	0	0	0	0	0	0	0	0	0	0	1	0	0	1	4	0	1	0	13	0	0	1	0
OTU 69	0	7	6	0	0	1	0	4	0	3	0	9	2	1	3	2	1	96	7	1	0	2	1	1	2	2	7	0	1	0	0	1	4	3	0	4	1	1	0	5	1	58	0	3	1	1	1	1	4	3
OTU 70	0	4	0	0	0	0	0	4	0	0	1	0	0	1	0	0	0	0	0	0	0	1	8	0	0	0	0	1	0	0	1	2	1	0	0	0	3	0	0	1	0	2	7	0	0	0	0	0	0	0
OTU 71	0	0	1	0	0	1	0	0	1	3	0	0	0	0	0	0	0	0	0	0	0	2	0	12	0	0	0	3	5	0	0	0	0	1	2	0	0	4	0	0	0	0	3	4	0	0	1	2	0	0
OTU 72	1	0	1	2	1	0	0	10	2	1	0	0	0	1	0	1	0	0	0	0	1	0	4	0	0	1	0	0	0	1	2	2	0	27	3	4	0	0	0	0	2	0	0	1	0	0	1	3	0	0
OTU 73	3	0	19	0	2	1	0	0	0	0	0	0	0	3	0	3	0	0	2	0	0	0	0	1	0	0	7	3	1	0	1	0	0	1	0	1	1	3	0	0	0	3	2	0	0	0	1	0	2	0
OTU 74	0	1	0	0	0	2	7	4	2	0	1	2	0	0	0	3	3	0	13	0	5	2	0	0	0	0	4	2	4	0	3	0	3	0	1	7	0	13	0	1	4	10	5	1	3	3	0	0	0	1
OTU 75	1	1	2	0	1	1	0	7	0	1	0	1	3	0	0	0	0	0	1	0	1	1	7	0	1	0	1	0	1	1	9	1	8	3	0	0	3	0	3	0	3	4	5	2	0	0	4	5	4	1
OTU 76	0	1	2	0	0	0	0	0	0	0	0	0	0	0	1	11	0	0	1	0	3	1	0	2	0	0	0	0	0	0	0	0	0	0	0	0	0	2	0	0	0	25	2	5	0	19	0	0	2	0
OTU 77	1	0	0	0	0	0	0	0	0	2	3	0	0	0	2	0	0	0	2	1	4	5	1	0	1	0	12	4	1	0	2	0	4	0	0	3	54	4	0	1	0	0	0	0	5	0	7	4	6	1
OTU 78	1	0	0	0	1	0	0	4	0	0	0	0	1	0	0	1	0	0	3	1	0	2	2	2	2	0	1	1	0	0	0	0	0	1	0	1	0	0	0	0	0	2	0	0	0	0	0	4	2	0
OTU 79	1	5	1	1	5	1	39	36	10	15	3	5	52	1	4	2	49	4	8	2	1	2	5	4	2	4	3	5	8	23	6	3	14	19	2	0	1	61	8	1	11	1	1	3	0	4	15	14	18	1
OTU 80	0	1	1	0	0	0	1	0	0	0	3	2	1	1	0	0	4	0	6	0	3	5	1	0	4	0	1	25	0	0	0	6	0	0	2	0	0	6	0	0	9	4	0	1	1	2	2	2	2	0
OTU 81	0	5	4	0	2	7	2	7	0	0	4	6	3	0	8	4	6	4	15	0	3	5	4	4	0	2	6	7	1	2	1	0	0	8	8	6	2	1	1	2	10	6	0	0	4	1	3	0	0	0
OTU 82	1	0	0	0	1	0	3	0	0	0	0	0	0	0	0	0	0	0	2	0	0	1	0	0	1	0	0	0	0	4	0	1	2	0	2	0	1	1	2	0	0	0	3	1	0	0	0	3	1	0
OTU 83	0	0	0	0	1	0	0	0	2	0	0	1	0	0	3	0	0	0	0	0	1	0	0	0	0	0	13	0	0	1	0	0	0	0	0	0	0	2	0	0	0	0	0	0	0	1	0	0	0	1
OTU 84	0	0	6	0	0	1	0	0	0	0	4	0	0	3	0	2	0	1	0	0	0	3	2	0	1	0	0	1	0	0	1	2	2	5	2	0	1	1	0	0	0	0	3	0	0	0	3	1	0	0
OTU 85	0	0	0	0	0	1	0	0	2	0	0	0	0	1	0	0	1	0	0	0	0	0	0	2	0	2	0	2	0	0	0	0	0	0	3	0	0	0	0	3	0	0	0	1	0	4	0	0	0	0
OTU 86	0	0	1	0	0	0	0	0	0	0	0	0	0	0	0	0	0	0	0	0	0	0	0	0	0	0	0	0	0	0	0	0	0	0	0	0	0	0	0	0	0	0	0	0	0	0	0	1	0	0
OTU 87	0	0	0	0	0	8	0	0	0	0	1	3	0	34	0	0	1	0	0	0	0	0	1	0	0	0	2	0	0	0	0	0	0	0	1	0	0	0	0	0	0	0	2	0	0	1	0	0	1	4
OTU 88	0	0	1	0	0	0	0	0	0	0	0	0	0	0	0	0	0	0	0	0	0	0	0	0	0	2	0	0	0	1	0	0	0	0	0	1	0	0	3	0	4	0	0	0	0	0	0	0	0	0
OTU 89	0	0	0	0	0	0	0	1	0	0	0	0	1	1	0	0	1	0	1	0	0	0	0	1	0	0	0	0	0	0	1	0	1	0	0	0	0	0	0	1	3	1	0	0	0	0	0	0	0	0
OTU 90	0	1	0	0	0	2	0	0	1	0	0	0	1	0	0	0	1	0	5	0	0	0	0	0	1	0	0	0	0	0	0	1	0	0	0	0	0	0	0	0	0	0	0	0	0	0	0	0	0	0
OTU 91	2	0	0	0	0	0	0	0	0	0	0	0	2	0	0	0	0	0	0	0	0	0	3	0	0	0	0	0	0	0	0	0	0	0	1	0	0	0	0	0	0	0	0	0	0	0	0	0	0	0
OTU 92	0	0	0	0	2	0	0	0	0	0	0	0	3	0	0	0	0	0	0	1	0	0	0	0	1	0	0	0	0	0	0	1	0	0	0	1	0	1	0	0	0	0	0	1	0	0	0	3	0	0
OTU 93	0	1	0	0	0	0	0	0	0	0	0	1	0	0	0	0	0	0	0	0	0	3	0	0	0	0	0	0	2	0	0	2	2	0	0	0	0	0	0	0	0	0	0	0	0	0	0	0	0	0
OTU 94	6	5	0	0	0	2	1	0	0	0	1	4	0	0	0	0	3	0	10	6	2	3	0	3	16	0	1	6	7	0	0	10	0	3	2	3	3	0	0	0	14	3	1	4	0	1	21	0	1	0
OTU 95	2	0	3	0	0	0	0	0	1	0	0	0	8	1	0	0	0	0	0	0	0	0	0	1	1	0	0	0	0	0	0	3	0	0	2	0	0	0	0	0	0	0	0	2	0	0	3	12	1	0
OTU 96	0	0	0	0	0	0	0	1	0	0	0	0	0	0	0	0	0	0	0	0	0	0	0	0	0	0	0	0	0	0	0	0	0	2	1	0	0	0	0	0	0	0	0	1	0	0	0	0	1	0
OTU 97	0	0	0	0	0	0	0	0	0	0	0	0	0	0	0	1	0	0	0	0	0	0	0	0	0	1	0	0	0	0	0	1	0	0	0	0	0	3	0	0	0	0	0	0	0	3	0	0	0	0
OTU 98	0	0	4	0	1	0	0	0	2	4	4	0	0	2	0	1	0	0	0	0	0	4	1	0	0	0	0	0	0	0	0	2	0	0	0	0	0	0	0	2	0	0	0	0	0	1	0	0	0	0
OTU 99	1	0	0	0	0	7	2	2	0	0	0	3	0	0	2	2	7	0	12	0	0	6	2	3	0	4	1	3	1	0	0	12	0	64	5	4	2	4	0	1	7	5	0	0	0	3	0	0	1	1
OTU 100	3	0	1	0	0	1	0	0	0	2	0	0	0	0	0	0	0	0	0	0	0	0	4	0	0	2	0	31	0	2	0	0	0	0	0	0	4	0	0	1	0	1	1	0	0	0	0	1	2	0
OTU 101	0	0	0	0	0	1	0	0	0	0	0	0	0	0	0	0	0	0	0	0	0	0	0	0	0	0	0	1	1	0	0	0	0	0	0	0	0	0	0	0	0	0	0	0	0	0	1	0	0	0
OTU 102	0	0	1	0	0	0	0	0	1	0	2	0	0	0	0	0	0	3	0	0	0	0	0	0	0	0	0	0	0	0	0	0	3	0	0	1	0	0	0	0	0	0	2	0	0	4	1	0	0	0
OTU 103	0	1	0	0	0	0	0	0	0	6	2	0	0	2	3	0	2	1	4	0	0	3	7	1	0	0	10	2	0	1	0	1	8	0	0	0	0	1	0	2	0	6	4	1	0	119	3	3	0	0
OTU 104	0	7	1	2	2	0	0	0	5	4	2	4	2	1	4	0	2	1	1	0	2	0	1	0	1	4	6	1	0	6	2	21	6	2	0	6	0	2	1	1	3	1	2	0	1	2	3	1	8	2
OTU 105	0	0	0	0	0	0	1	3	0	0	0	0	0	0	0	6	0	0	0	0	0	0	0	0	0	0	0	0	0	0	0	0	2	0	0	2	0	1	0	0	4	0	2	0	0	1	0	0	0	0
OTU 106	0	0	0	1	0	0	0	0	0	2	0	6	0	0	0	17	0	0	0	0	0	0	0	0	0	0	0	0	0	0	0	1	0	2	0	0	0	0	0	0	1	0	0	9	0	0	0	0	0	0
OTU 107	0	3	0	0	0	0	0	1	0	0	0	0	0	1	0	0	0	1	4	1	1	0	0	0	1	0	1	0	0	0	0	1	0	0	0	0	0	0	1	0	0	0	0	1	0	0	1	1	4	2
OTU 108	0	0	1	0	1	0	0	0	1	1	2	0	1	0	1	0	1	2	5	0	0	0	2	0	0	0	5	3	2	0	3	0	2	0	0	0	0	0	0	0	3	0	0	3	6	1	0	1	0	0
OTU 109	0	0	0	0	0	0	0	0	0	0	0	0	0	0	0	0	0	0	0	0	0	0	0	0	0	0	0	0	0	0	0	0	0	0	0	0	0	0	0	0	0	0	0	0	0	0	0	0	0	0
OTU 110	27	0	0	0	0	0	8	4	0	2	4	0	6	14	0	0	4	2	3	141	0	5	0	0	7	0	4	6	2	0	0	0	0	0	0	0	1	17	0	1	0	0	42	1	3	1	12	21	4	2
OTU 111	0	0	0	0	0	0	0	0	3	0	0	0	0	0	0	0	0	0	0	0	0	0	0	0	0	0	0	0	0	0	0	0	0	0	0	0	2	0	0	0	0	0	0	0	0	0	0	0	0	0
OTU 112	1	3	1	0	0	0	0	0	0	0	0	0	0	0	0	0	0	0	3	2	1	0	0	0	0	1	0	0	0	0	0	0	0	0	0	1	1	1	1	0	6	0	0	0	0	1	0	0	0	0
OTU 113	0	3	0	0	1	0	0	0	0	0	0	4	0	0	0	2	0	0	0	0	0	0	0	0	0	0	0	0	0	0	0	2	0	0	0	0	0	0	0	0	1	0	0	0	0	0	0	0	0	0
OTU 114	5	0	0	2	3	0	6	5	7	26	0	3	6	3	8	0	1	2	3	1	1	3	2	2	1	3	17	0	0	29	22	0	33	1	35	2	3	0	21	0	7	7	13	3	2	1	1	0	5	6
OTU 115	2	2	3	5	116	2	2	5	2	0	2	1	4	1	0	0	0	0	0	0	5	0	1	5	0	4	0	1	0	3	0	2	0	0	3	1	2	2	4	1	3	2	0	7	1	3	7	4	5	1
OTU 116	3	1	1	0	2	0	0	2	29	1	1	0	4	0	0	1	0	0	0	0	7	0	1	2	0	3	2	0	2	0	1	0	2	2	1	0	2	3	0	0	5	0	0	0	1	0	1	1	2	0
OTU 117	1	2	5	0	0	0	0	33	2	2	0	0	3	0	1	0	4	0	3	0	0	5	0	0	0	6	2	0	3	2	1	8	4	1	0	0	1	6	22	3	9	0	2	0	0	0	3	0	0	4
OTU 118	0	0	0	3	0	0	0	0	1	0	0	0	0	0	0	2	0	0	0	0	1	0	1	0	0	2	6	0	1	0	1	0	1	0	0	0	0	0	0	0	2	0	0	0	1	0	3	0	0	0
OTU 119	3	0	4	8	0	1	32	0	1	4	0	0	0	1	0	2	0	0	5	1	0	0	0	1	3	3	1	5	0	0	1	7	0	0	2	1	0	86	0	0	2	1	1	2	0	2	1	4	0	0
OTU 120	0	0	0	0	0	2	1	1	0	0	0	0	2	0	0	0	0	0	1	0	0	0	2	0	0	0	0	2	0	1	0	0	2	0	0	0	0	0	0	0	2	0	0	0	0	0	2	2	0	0
OTU 121	0	0	0	0	0	0	0	0	0	2	0	0	0	0	0	1	0	0	0	0	4	1	0	0	0	4	0	3	1	2	1	1	3	1	2	0	2	1	1	3	2	0	0	1	0	0	0	1	1	0
OTU 122	5	3	0	4	1	0	0	2	0	3	0	4	0	0	1	2	1	0	5	1	0	1	0	2	1	1	0	0	0	0	1	4	4	9	6	3	0	4	0	2	0	4	1	1	0	1	2	0	1	0
OTU 123	5	3	13	6	2	2	5	5	13	2	6	4	14	1	2	1	5	4	12	5	3	9	15	2	9	15	1	1	19	21	2	1	14	12	5	10	42	10	13	5	2	2	2	1	1	5	8	4	4	1
OTU 124	0	0	7	0	0	0	0	2	0	0	0	0	0	0	0	0	1	0	1	0	0	0	1	0	0	0	0	5	1	0	0	1	0	0	0	0	0	0	0	0	0	0	0	0	0	2	0	1	0	0
OTU 125	17	8	6	5	6	13	2	10	31	9	0	9	11	0	2	26	3	0	1	5	3	5	4	50	7	15	5	15	1	7	8	6	7	4	39	0	0	4	4	10	3	1	1	11	0	16	16	6	8	0
OTU 126	0	0	3	0	0	0	0	0	0	0	0	0	2	0	0	0	0	0	0	0	0	2	1	0	0	0	0	0	0	0	0	1	0	0	0	0	0	2	0	1	0	0	0	0	0	0	0	0	0	0
OTU 127	1	0	0	1	0	3	3	4	6	0	0	1	2	0	0	0	0	0	0	1	0	0	0	0	5	0	0	3	7	5	1	0	2	0	0	0	0	0	2	0	0	0	0	0	1	0	6	1	1	0
OTU 128	34	8	7	1	11	8	1	23	2	6	92	7	2	2	0	8	9	42	26	19	3	162	4	3	3	0	3	7	9	0	4	10	8	1	2	4	3	0	1	8	8	56	1	0	2	0	5	0	2	2
OTU 129	0	0	0	0	0	0	0	0	0	0	0	0	0	0	0	0	0	0	1	0	0	0	0	0	1	1	0	0	0	0	0	9	0	0	0	0	2	0	0	0	0	0	0	1	1	0	0	0	3	1
OTU 130	0	0	0	0	0	0	0	0	1	2	0	2	0	2	0	3	0	0	0	0	0	0	0	0	0	0	1	1	0	0	0	1	2	1	0	0	0	4	0	1	0	1	0	0	0	0	1	2	0	0
OTU 131	2	1	1	7	0	0	1	10	3	24	0	0	0	3	12	0	0	0	0	0	2	1	0	0	0	0	17	0	7	5	26	3	39	0	3	1	0	0	3	1	0	0	0	0	6	0	0	0	0	17
OTU 132	4	0	4	0	0	0	0	0	0	0	0	9	0	1	0	0	0	0	0	0	0	1	1	1	0	0	0	0	12	0	0	1	0	2	0	0	7	0	0	0	1	1	0	0	0	0	0	1	1	0
OTU 133	0	1	0	0	0	0	0	2	0	0	0	0	0	0	1	0	0	0	0	0	0	0	0	1	0	0	6	0	0	0	0	0	0	0	0	0	0	0	0	0	1	0	1	1	0	0	1	2	0	0
OTU 134	3	0	1	0	0	0	1	2	0	0	0	0	0	1	0	0	0	0	0	0	1	0	1	2	0	5	1	1	3	0	0	0	0	2	6	0	0	0	0	3	2	0	1	0	1	5	1	0	0	0
OTU 135	0	0	5	0	2	3	0	0	1	1	1	3	2	0	0	0	3	1	3	0	0	0	0	1	0	0	1	0	0	2	2	2	7	1	0	1	3	8	0	0	2	3	3	0	0	0	0	4	5	0
OTU 136	0	5	1	0	1	0	0	0	0	0	0	0	1	0	0	1	0	0	0	0	1	0	0	0	3	1	0	9	0	0	1	0	3	0	3	1	1	0	0	4	0	0	0	0	0	0	2	0	0	0
OTU 137	5	0	2	0	2	0	1	1	0	0	0	0	1	0	0	0	0	0	0	2	2	0	130	0	1	0	0	0	1	0	0	18	0	0	0	0	0	0	0	0	1	0	0	0	2	0	0	0	2	0
OTU 138	0	0	0	0	0	0	0	0	0	0	1	0	0	55	1	2	1	0	1	0	0	0	0	0	0	0	0	0	1	0	1	1	1	0	0	0	0	0	0	1	1	2	114	0	0	0	0	0	0	3
OTU 139	0	23	12	2	2	2	1	0	4	0	2	46	4	1	3	3	2	0	2	0	0	0	2	0	63	24	4	7	1	7	132	1	1	3	7	0	10	3	3	0	5	0	10	2	4	0	6	0	6	9
OTU 140	5	1	5	0	14	10	2	0	16	8	0	6	8	2	1	5	1	0	4	77	6	1	16	3	1	7	0	5	13	9	1	0	5	4	21	14	2	1	7	10	9	1	2	97	1	1	3	6	66	2
OTU 141	0	0	0	0	0	0	0	0	0	0	0	0	0	0	0	0	0	0	0	0	0	0	0	0	0	0	0	1	0	0	0	0	0	0	0	0	0	0	0	1	0	0	0	0	0	0	0	0	0	0
OTU 142	0	0	0	0	0	0	0	0	0	0	0	2	0	0	0	0	2	0	0	0	0	0	0	0	0	0	0	0	0	0	0	0	0	0	0	0	0	0	0	0	0	0	0	0	0	0	0	0	0	0
OTU 143	1	1	0	0	0	7	0	0	0	0	0	1	0	0	0	0	0	0	0	0	0	0	0	0	0	0	0	0	0	1	0	1	0	0	0	0	0	0	0	0	0	0	0	0	0	0	0	0	0	0
OTU 144	0	1	0	0	0	2	0	0	0	0	0	0	7	0	0	0	3	0	1	0	2	2	0	0	0	0	7	2	0	0	0	0	0	0	0	0	0	0	0	0	0	0	0	0	0	0	0	2	0	0
OTU 145	0	2	5	72	2	0	3	2	0	2	0	1	3	3	0	4	1	0	0	0	0	0	1	0	0	11	3	16	0	3	1	6	4	0	1	0	2	4	0	2	2	1	0	0	10	0	2	0	1	25
OTU 146	1	1	0	0	0	0	0	0	3	1	0	1	13	0	44	1	0	0	5	0	2	1	1	0	2	3	65	2	0	0	1	0	0	9	0	2	1	2	0	3	0	0	0	0	26	0	3	0	1	40
OTU 147	0	1	0	0	1	0	0	0	0	0	0	4	1	1	2	0	1	0	0	0	2	0	0	1	0	0	0	1	0	0	0	0	1	0	0	1	1	0	0	0	0	0	0	0	0	0	0	0	2	2
OTU 148	0	1	6	0	2	3	0	0	3	7	0	0	2	0	5	0	2	0	6	0	1	0	5	0	1	0	18	10	0	0	6	2	6	3	1	0	0	2	0	14	1	1	1	5	3	0	9	3	0	12
OTU 149	3	0	2	0	0	0	1	0	0	0	0	0	2	0	0	0	127	0	0	1	2	0	26	1	0	0	4	0	0	0	0	0	0	4	3	0	1	0	0	0	0	3	0	0	0	0	0	0	1	1
OTU 150	3	0	0	0	0	0	0	2	0	0	0	0	0	0	0	0	0	0	0	0	0	0	0	0	1	1	0	0	0	0	0	0	0	1	0	0	0	0	3	0	2	0	0	0	0	1	1	0	1	0
OTU 151	0	0	0	4	1	0	0	0	1	0	1	3	0	0	0	2	0	0	0	0	0	0	2	1	0	1	0	0	4	4	0	1	0	4	2	0	0	0	5	2	1	0	0	0	1	0	0	0	0	0
OTU 152	0	4	2	6	1	0	1	0	0	1	2	3	1	0	2	0	1	0	3	0	1	2	1	0	47	0	1	3	1	0	0	0	4	0	0	0	0	1	0	2	3	8	3	2	1	0	1	1	0	0
OTU 153	0	0	3	0	0	1	0	0	0	0	0	1	0	0	0	0	0	0	0	0	0	1	0	0	0	0	0	0	0	0	1	1	2	0	0	0	0	0	0	0	0	0	0	0	0	0	0	0	0	0
OTU 154	0	0	0	0	0	0	0	0	0	0	0	0	0	0	0	1	0	0	0	0	0	0	0	2	0	0	0	0	0	0	0	0	0	0	0	0	1	0	0	0	3	0	0	0	0	0	0	0	0	0
OTU 155	0	1	1	0	0	0	0	0	0	0	0	3	0	0	0	0	0	0	0	0	0	0	0	5	0	0	0	1	0	0	1	0	0	0	0	0	0	1	1	1	0	0	1	0	0	0	0	0	1	1
OTU 156	3	136	2	2	0	0	0	4	0	3	18	0	1	1	2	1	0	10	0	1	5	0	9	0	6	2	5	8	2	0	0	2	0	0	0	0	3	0	1	4	4	0	0	0	0	1	4	3	6	0
OTU 157	0	1	2	0	0	1	0	0	0	0	0	0	0	0	0	0	0	0	0	0	0	0	0	0	0	4	0	0	0	0	0	2	0	0	0	0	0	0	0	1	0	0	0	0	0	0	0	0	0	0
OTU 158	0	0	0	0	0	0	0	0	0	0	0	0	0	0	0	0	0	0	0	0	1	0	0	0	2	0	0	0	0	0	0	0	0	0	0	3	0	0	0	0	0	0	0	0	0	0	5	0	0	0
OTU 159	2	1	1	0	0	0	0	0	0	0	0	0	3	3	0	0	0	0	3	4	0	0	2	0	0	1	2	0	2	0	0	6	0	1	0	0	0	0	0	2	3	0	3	0	1	5	0	3	1	0
OTU 160	5	2	8	14	2	0	0	3	2	0	2	1	1	0	4	1	5	0	6	1	6	7	1	1	2	17	0	1	2	6	0	2	4	5	6	15	0	1	5	2	0	8	3	5	1	18	8	2	5	1
OTU 161	0	4	39	3	2	0	0	0	0	0	1	0	1	0	0	0	3	0	13	0	0	0	0	1	0	0	0	6	3	0	1	1	0	0	0	0	1	1	77	1	0	2	0	0	0	0	1	0	3	1
OTU 162	1	0	3	1	0	6	0	2	0	0	0	0	0	1	0	0	1	1	0	2	1	0	1	0	4	0	1	0	20	0	0	1	0	1	1	0	0	0	0	0	0	0	4	2	0	0	1	1	2	1
OTU 163	0	0	0	0	0	0	0	0	0	0	0	0	0	0	0	0	0	0	0	0	0	0	1	0	0	0	0	0	0	0	0	0	0	0	0	0	0	0	0	0	0	0	0	0	0	0	0	0	0	0
OTU 164	0	0	0	0	0	0	0	0	0	0	0	0	0	0	0	0	0	0	0	0	0	0	1	0	0	0	0	0	0	0	0	0	0	0	0	0	0	0	0	0	0	0	0	0	0	0	5	0	0	0
OTU 165	1	1	0	0	1	12	2	0	102	0	0	0	0	0	2	0	1	0	0	0	2	0	0	0	0	0	1	1	1	0	1	14	0	1	1	0	1	0	0	0	0	2	0	0	0	1	1	0	0	0
OTU 166	0	0	0	0	0	0	0	0	0	0	0	0	0	0	0	0	0	0	0	0	0	0	0	0	0	0	0	0	0	0	0	0	0	0	0	0	0	0	0	0	0	0	0	0	0	0	0	0	0	0
OTU 167	0	1	0	0	1	2	0	3	0	1	0	0	0	1	158	0	0	0	0	0	0	0	0	4	1	0	0	1	0	0	0	0	0	0	0	2	1	0	2	0	0	0	0	0	55	0	0	0	6	1
OTU 168	0	0	1	0	1	0	0	5	0	0	0	7	1	0	2	1	1	2	2	0	0	2	0	97	0	0	2	3	0	4	0	0	3	0	0	0	0	0	0	1	0	0	0	0	0	0	4	0	0	0
OTU 169	0	0	0	0	0	0	0	0	1	0	0	0	0	0	0	3	1	0	3	0	0	1	0	0	0	0	0	0	0	0	0	0	0	0	0	12	0	0	0	0	0	0	0	0	0	0	0	0	5	0
OTU 170	0	0	0	0	0	0	0	0	0	0	0	0	0	0	0	0	0	0	0	0	0	0	0	0	0	0	0	0	0	0	1	0	1	0	0	0	0	0	0	0	0	0	0	0	0	0	0	0	0	0
OTU 171	0	0	0	2	0	3	2	0	1	0	1	0	0	1	0	0	4	0	7	0	2	0	2	0	4	0	2	0	0	0	0	0	0	7	0	2	2	1	0	0	0	6	0	0	0	0	3	1	3	3
OTU 172	0	0	0	0	0	0	0	0	0	0	0	0	0	0	0	0	0	0	0	0	0	0	0	0	1	0	0	1	0	0	0	0	0	1	0	0	0	0	0	0	0	0	0	0	0	0	2	0	0	0
OTU 173	1	0	0	0	0	0	0	1	0	0	0	0	0	0	0	2	0	0	1	0	0	0	0	1	0	0	2	0	0	1	0	1	0	0	0	1	0	0	0	0	0	1	0	0	0	1	0	0	0	0
OTU 174	1	0	0	0	0	0	0	0	3	0	1	0	0	0	0	7	0	0	0	3	25	0	0	1	0	2	3	5	0	5	0	10	1	0	9	0	0	1	0	0	0	1	0	0	1	1	0	0	18	1
OTU 175	8	0	0	1	2	0	3	0	1	0	0	0	1	0	0	0	0	0	0	0	0	0	0	0	0	0	0	0	0	0	0	0	0	0	1	0	0	1	0	0	0	0	0	0	0	0	0	3	2	0
OTU 176	4	0	0	2	2	4	3	2	0	2	4	4	1	0	0	1	2	0	1	1	9	2	2	0	0	0	2	1	0	1	0	0	5	2	1	2	0	1	0	0	0	1	1	2	0	0	1	0	0	3
OTU 177	1	1	0	0	0	2	0	0	3	1	0	3	0	0	1	0	2	1	0	0	8	1	2	1	3	1	0	3	1	2	30	0	0	0	4	1	3	0	2	0	1	0	0	0	8	0	2	0	1	12
OTU 178	3	0	0	0	0	0	0	15	1	0	0	0	0	13	0	0	1	0	0	0	0	1	0	0	0	0	0	0	2	1	0	0	0	3	2	1	0	0	3	3	0	2	1	3	0	7	0	0	0	0
OTU 179	62	2	2	2	23	0	0	0	0	0	0	0	1	1	0	0	3	1	4	35	0	3	0	0	0	0	1	2	4	0	1	2	0	0	2	0	0	0	0	0	0	0	1	3	1	0	0	0	0	0
OTU 180	1	8	0	3	8	3	0	3	3	1	0	14	1	2	12	13	2	0	3	3	3	1	7	3	7	5	3	12	13	2	0	5	3	1	10	1	4	3	2	4	18	0	7	3	4	0	21	2	0	3
OTU 181	2	0	0	1	0	0	4	4	1	0	0	0	1	2	0	1	0	0	0	1	6	0	1	0	1	0	0	0	0	0	0	1	1	0	4	1	0	12	0	0	37	0	4	1	2	0	0	7	1	0
OTU 182	0	0	0	0	0	0	0	0	0	0	0	0	0	0	0	0	0	0	0	0	0	0	0	0	0	0	0	0	0	0	0	0	0	0	0	0	0	0	0	0	0	0	0	0	0	0	0	0	0	0
OTU 183	0	3	1	0	0	0	1	1	24	0	0	1	0	0	0	0	2	0	2	0	0	0	1	0	0	1	0	2	1	68	0	4	2	0	2	0	0	0	41	0	5	0	0	1	0	0	0	1	1	0
OTU 184	2	0	0	0	0	0	2	0	1	0	0	0	2	0	0	4	5	1	4	5	1	4	0	0	0	2	0	0	0	0	0	0	0	1	1	0	0	0	0	0	0	1	0	0	0	4	0	2	9	0
OTU 185	2	0	0	2	2	1	3	15	0	0	0	1	1	1	2	3	0	0	0	2	0	0	0	0	2	3	3	4	0	4	1	7	5	0	1	0	0	2	1	3	1	0	1	0	3	1	5	4	4	2
OTU 186	0	0	7	2	0	0	3	0	0	0	0	0	0	0	3	0	0	0	0	0	1	2	0	0	0	0	1	0	2	1	0	1	0	0	1	0	1	2	0	0	1	2	0	3	0	0	1	0	0	0
OTU 187	1	3	4	0	3	1	1	6	1	2	0	7	2	3	0	5	2	0	5	0	1	2	3	3	0	2	3	10	7	1	0	4	3	67	1	2	5	0	0	0	1	1	5	9	0	2	2	0	0	2
OTU 188	0	1	0	0	3	31	0	1	2	0	0	2	0	0	5	1	1	0	1	0	1	2	0	0	0	14	1	3	0	3	2	0	7	0	0	1	2	0	0	1	0	0	0	0	0	1	1	1	0	1
OTU 189	5	0	4	4	0	3	0	3	1	33	0	0	2	0	0	4	1	0	3	3	4	0	4	17	5	4	0	5	1	0	2	0	3	2	2	0	0	4	0	4	6	8	0	0	2	1	13	6	0	0
OTU 190	0	0	3	0	0	0	0	1	2	0	0	1	0	0	0	0	0	0	0	0	0	0	0	0	1	0	0	0	0	0	0	0	1	0	0	0	0	0	0	0	1	0	3	0	0	0	0	0	0	0
OTU 191	2	2	1	0	1	1	0	0	3	1	169	9	1	0	3	3	2	77	5	0	0	2	1	0	1	9	0	7	1	2	0	0	2	2	0	1	5	4	1	1	0	1	4	3	0	1	5	0	7	3
OTU 192	0	7	16	1	1	2	0	2	0	1	9	5	0	0	0	4	3	5	3	0	1	14	1	5	0	30	2	11	6	4	5	2	4	10	0	2	3	2	2	101	0	3	1	0	1	3	1	1	0	5
OTU 193	0	4	3	0	0	11	0	4	0	0	1	6	3	0	0	1	4	0	8	0	0	5	0	0	3	5	0	0	9	5	3	2	0	1	0	6	0	0	3	0	0	1	0	0	0	0	6	6	0	0
OTU 194	20	2	1	1	0	0	10	2	0	0	0	1	0	0	0	0	0	1	0	7	0	0	0	0	0	0	0	0	3	0	0	5	0	2	0	0	0	21	0	0	1	0	2	0	0	0	3	0	14	0
OTU 195	0	0	0	0	2	1	0	0	1	2	0	0	1	3	0	0	1	0	0	0	0	2	0	0	0	4	5	3	0	0	3	1	1	0	1	0	0	0	0	1	0	2	1	1	2	0	0	0	4	2
OTU 196	3	0	7	1	3	0	0	0	0	0	0	1	0	3	0	0	0	0	0	0	0	0	5	1	1	1	0	10	1	1	0	4	3	1	25	2	13	0	0	2	0	0	8	0	0	0	1	0	0	0
OTU 197	1	16	3	6	65	15	1	3	2	1	0	40	2	0	3	0	3	3	1	0	3	0	0	1	5	9	0	4	2	0	2	7	3	1	3	1	0	2	0	24	3	5	0	4	92	1	11	10	6	0
OTU 198	3	0	0	0	0	0	0	2	0	5	0	0	0	0	0	22	0	0	0	2	0	0	0	0	0	0	0	0	0	0	0	0	0	0	0	0	0	0	0	0	0	0	0	5	0	28	2	0	0	2
OTU 199	6	0	1	0	0	3	0	0	0	0	0	0	0	0	2	0	0	0	0	0	0	0	0	1	1	0	0	0	0	0	1	0	0	3	0	57	0	0	0	0	0	0	0	0	0	0	1	0	0	0
OTU 200	0	1	1	0	0	2	0	0	0	0	0	1	0	0	0	0	0	1	0	0	0	0	0	0	1	0	0	1	0	0	0	1	0	2	0	0	1	1	0	0	0	0	1	1	0	1	0	6	4	0
