	Host 1	Host 2	Host 3	Host 4	Host 5	Host 6	Host 7	Host 8	Host 9	Host 10	Host 11	Host 12	Host 13	Host 14	Host 15	Host 16	Host 17	Host 18	Host 19	Host 20	Host 21	Host 22	Host 23	Host 24	Host 25	Host 26	Host 27	Host 28	Host 29	Host 30	Host 31	Host 32	Host 33	Host 34	Host 35	Host 36	Host 37	Host 38	Host 39	Host 40	Host 41	Host 42	Host 43	Host 44	Host 45	Host 46	Host 47	Host 48	Host 49	Host 50	
OTU 1	0	2	1	0	4	0	0	0	0	4	0	2	5	3	0	0	1	2	1	1	1	3	6	2	0	0	3	0	4	0	1	7	0	1	0	0	0	3	1	0	1	0	1	0	3	0	0	1	1	3
OTU 2	0	0	2	1	0	0	0	0	0	0	0	0	1	0	82	1	0	0	0	4	0	2	0	78	0	1	2	0	3	0	0	0	0	160	0	0	4	0	0	2	0	0	0	0	4	2	1	0	0	0
OTU 3	0	0	0	31	1	4	0	0	1	0	1	0	0	0	0	0	0	0	2	0	0	0	0	0	0	0	0	2	0	0	0	0	0	1	0	0	0	0	0	1	0	0	0	0	0	1	1	0	0	0
OTU 4	0	0	0	0	0	0	0	0	0	0	0	0	0	0	0	0	0	0	0	0	0	0	0	0	0	0	0	0	0	0	0	0	0	0	0	0	0	0	0	0	0	0	0	0	0	0	0	0	0	0
OTU 5	1	10	0	8	11	23	4	4	7	20	21	9	1	40	5	67	7	0	1	2	0	2	20	17	3	13	2	20	7	6	0	3	6	8	6	6	0	39	0	1	13	0	6	0	0	0	17	2	0	0
OTU 6	0	1	0	0	0	0	0	2	2	1	1	0	0	0	2	0	4	0	2	0	2	0	1	2	1	1	4	0	0	1	0	1	2	3	0	0	4	0	0	0	0	0	45	3	3	0	6	0	0	2
OTU 7	2	0	21	2	3	1	0	1	4	2	9	0	0	1	0	0	3	0	14	1	4	0	1	0	3	11	2	1	1	8	8	1	3	0	1	1	139	2	2	4	8	2	3	4	2	7	0	1	0	7
OTU 8	2	1	1	4	2	1	1	0	5	1	0	0	0	1	7	2	8	0	23	1	0	3	0	1	1	3	3	0	1	1	1	3	12	2	2	1	6	3	0	11	0	1	0	3	1	1	11	1	0	2
OTU 9	0	0	0	1	1	0	0	0	2	0	0	0	0	1	0	1	0	2	0	0	1	1	3	0	1	0	0	0	1	0	0	0	0	1	0	0	1	0	0	4	0	0	0	0	3	0	0	1	1	0
OTU 10	0	1	1	0	0	1	2	1	1	0	0	0	0	0	1	3	0	0	0	0	0	0	0	0	15	0	0	0	0	0	0	0	0	0	1	0	1	0	0	0	0	0	0	1	0	4	6	0	0	0
OTU 11	2	0	1	1	6	0	0	1	2	0	0	0	2	0	1	1	3	0	0	2	1	0	0	2	7	2	0	0	1	2	0	1	3	2	0	3	1	0	0	34	0	4	0	1	4	3	0	0	1	1
OTU 12	6	0	3	2	0	1	24	8	2	0	0	1	0	0	0	6	3	2	0	1	5	0	3	0	1	0	1	2	0	3	1	1	0	3	2	1	10	0	0	0	1	0	0	3	3	1	3	0	0	2
OTU 13	0	0	0	0	0	0	0	0	0	0	0	0	0	0	0	0	0	0	0	0	0	0	0	0	6	0	0	0	0	2	0	0	0	0	0	0	0	0	0	7	0	2	0	0	0	0	0	0	1	5
OTU 14	0	0	0	0	0	0	0	0	0	0	1	0	0	0	0	1	0	0	0	0	3	0	1	0	0	1	0	0	0	0	1	0	0	0	0	0	0	0	0	0	0	0	0	0	0	0	0	0	0	0
OTU 15	0	0	0	0	0	0	0	0	0	0	0	0	0	0	0	0	0	5	0	0	0	0	0	0	0	0	0	0	0	0	0	0	0	0	0	0	0	0	0	1	0	0	0	0	0	0	0	0	0	0
OTU 16	0	0	0	0	0	0	0	0	0	0	0	0	0	0	0	0	0	0	0	0	0	0	0	0	0	0	0	0	0	0	0	0	0	0	1	0	0	0	0	0	0	0	0	0	0	0	0	0	0	0
OTU 17	3	1	0	0	0	0	0	1	0	0	1	0	0	0	0	0	0	1	1	0	0	0	0	0	6	1	0	0	0	0	0	0	1	0	0	3	3	0	0	0	0	16	0	0	0	0	0	3	0	0
OTU 18	1	0	2	0	0	2	0	0	1	3	0	5	1	0	3	0	4	2	2	1	1	3	1	1	0	5	1	1	0	0	1	0	1	0	0	1	0	3	1	0	0	2	0	0	0	2	0	0	1	9
OTU 19	0	0	0	0	0	0	0	0	0	0	0	0	0	0	0	0	0	0	0	0	0	0	1	0	0	0	0	0	0	0	0	0	0	0	0	0	0	0	0	0	0	0	0	0	0	0	0	0	0	0
OTU 20	5	0	0	0	4	7	4	3	0	0	0	2	1	2	1	1	0	0	2	0	1	2	2	0	0	10	0	1	0	1	0	0	0	0	0	24	1	0	0	0	0	0	0	4	1	7	4	0	1	0
OTU 21	3	0	0	5	4	0	4	5	0	0	1	0	2	10	0	0	1	1	0	0	3	2	0	0	2	1	2	7	0	3	1	10	3	0	2	2	0	1	2	6	3	1	0	2	0	1	6	0	0	0
OTU 22	0	0	0	12	2	0	0	0	6	0	3	3	0	1	1	3	0	7	8	1	0	0	1	0	0	0	5	12	0	6	2	10	0	1	1	1	5	0	0	0	3	6	3	0	0	0	1	1	0	0
OTU 23	2	1	0	0	0	0	0	1	4	1	0	1	2	0	2	0	2	0	0	1	0	0	0	1	0	0	3	0	0	0	0	0	0	0	0	0	0	1	0	0	0	0	0	2	0	0	3	0	2	0
OTU 24	0	1	5	1	0	0	0	0	0	0	0	1	0	0	0	1	0	0	0	0	19	1	0	0	1	0	0	0	2	0	0	0	0	0	0	0	0	0	0	3	0	0	0	0	1	0	1	0	0	0
OTU 25	0	0	0	0	0	0	0	0	0	0	0	0	0	0	0	0	0	0	0	0	0	0	0	0	0	0	0	0	0	0	0	0	0	0	0	0	0	0	0	0	0	0	0	0	0	0	0	0	0	0
OTU 26	0	0	0	0	0	0	0	0	0	0	0	1	0	0	0	0	0	0	0	0	0	0	0	0	0	0	0	0	0	0	0	0	2	0	0	0	0	0	0	0	0	0	0	0	0	0	1	0	0	1
OTU 27	0	0	0	0	0	0	0	1	14	0	0	0	0	0	0	0	0	0	0	0	0	0	0	0	0	0	0	0	0	0	0	0	0	0	0	0	0	0	0	0	0	0	0	0	0	0	0	0	0	0
OTU 28	0	0	0	3	0	2	4	0	5	2	3	3	4	2	0	7	2	2	8	4	0	1	0	1	9	3	0	0	4	0	1	1	0	4	0	0	1	2	0	5	0	0	0	1	8	0	10	0	2	1
OTU 29	0	2	12	0	3	2	5	2	0	1	0	2	2	0	0	36	1	0	0	1	5	5	1	0	5	0	1	1	1	0	2	9	3	1	1	0	8	2	0	1	11	0	4	6	1	3	2	0	1	10
OTU 30	0	0	0	0	0	0	0	0	0	0	0	0	0	0	0	0	0	0	0	0	0	0	0	0	0	0	0	0	0	0	0	0	0	0	0	0	0	0	0	0	0	0	0	0	0	0	0	0	0	0
OTU 31	2	0	0	0	0	0	0	0	0	0	0	0	0	0	0	0	2	2	0	0	10	0	0	4	2	0	0	0	0	0	0	0	0	2	0	0	3	0	0	0	1	0	0	0	1	0	0	2	0	0
OTU 32	0	5	1	3	0	0	7	5	8	0	0	2	1	1	2	5	9	2	3	3	2	2	0	0	0	3	83	7	2	1	4	16	0	0	13	0	7	1	2	0	0	0	0	5	6	4	0	0	3	1
OTU 33	7	0	0	0	0	0	0	0	0	0	0	0	0	0	0	0	0	0	0	0	0	0	0	0	0	0	0	0	0	0	0	0	0	0	0	0	0	0	0	0	2	0	0	0	0	0	0	2	0	0
OTU 34	1	0	4	1	4	4	1	9	0	2	0	0	0	0	0	0	0	0	2	0	2	1	0	3	0	0	0	0	0	0	1	0	0	0	0	6	1	3	4	20	2	0	0	0	0	8	1	1	1	0
OTU 35	0	0	0	0	0	4	0	1	0	0	0	0	5	2	3	5	0	0	1	0	23	1	0	0	0	1	0	0	0	0	0	0	57	1	0	0	2	0	1	5	0	1	0	2	0	0	0	3	3	0
OTU 36	2	0	0	21	3	0	1	8	1	0	0	2	0	2	0	7	5	2	0	0	15	0	0	0	5	15	4	0	0	3	0	0	3	0	1	3	0	0	0	2	5	1	3	0	1	4	7	1	0	4
OTU 37	0	0	0	0	4	0	5	2	1	0	0	0	101	1	0	0	0	0	0	2	0	0	0	0	0	0	1	1	4	1	1	0	0	0	3	0	0	0	0	0	1	6	0	2	1	0	0	0	49	0
OTU 38	5	0	0	2	0	4	1	1	0	0	1	0	0	0	0	1	1	6	4	3	0	1	0	0	0	5	0	12	0	0	1	1	3	0	0	2	0	0	3	0	1	0	0	11	1	1	0	4	0	3
OTU 39	0	0	0	0	0	0	0	0	2	0	0	0	0	0	0	0	0	0	0	0	0	0	1	0	0	0	0	0	0	0	0	0	0	0	0	0	0	0	0	0	0	2	0	0	0	0	0	0	0	2
OTU 40	1	0	0	1	10	1	9	4	3	1	2	0	1	10	0	3	0	1	0	0	8	6	3	1	5	6	0	25	0	0	1	0	0	5	0	6	0	1	1	4	6	0	0	0	0	7	0	1	0	0
OTU 41	5	0	1	0	2	0	3	0	1	1	1	2	0	1	85	0	0	5	6	2	1	3	0	0	0	2	0	0	3	1	0	0	0	1	0	0	3	0	4	5	3	0	0	0	2	1	1	1	0	0
OTU 42	0	0	3	0	1	5	2	1	0	0	0	0	0	0	0	0	1	1	2	1	2	0	0	0	2	4	0	3	1	0	0	0	2	0	4	2	0	0	0	0	0	0	2	0	5	0	2	0	0	0
OTU 43	0	0	0	0	0	0	0	0	0	0	0	0	0	0	0	0	0	0	0	0	0	0	0	0	0	0	0	0	0	0	0	0	0	0	0	0	0	0	0	0	0	1	0	0	0	0	0	0	0	0
OTU 44	0	0	0	0	0	0	0	0	3	0	0	0	0	0	1	0	0	9	0	0	0	0	0	0	0	1	0	0	0	0	0	0	1	0	0	1	0	0	0	0	0	0	0	0	0	0	0	0	0	0
OTU 45	14	2	18	4	1	3	2	1	0	0	10	0	2	0	11	6	1	0	1	1	0	2	0	0	0	0	0	0	0	1	6	0	3	0	0	1	0	0	0	2	4	3	2	6	0	0	2	0	0	0
OTU 46	5	0	0	2	1	0	0	5	1	0	16	21	28	0	1	0	0	8	0	28	0	1	0	2	11	2	1	0	24	1	2	6	0	2	4	1	0	3	2	0	1	3	2	1	74	2	5	50	7	0
OTU 47	0	0	0	0	0	0	0	0	0	0	1	0	0	0	0	0	0	0	0	0	0	0	0	0	0	1	0	0	0	0	0	1	0	0	0	1	0	0	0	0	0	0	4	0	0	0	0	0	0	2
OTU 48	0	2	1	4	0	0	1	0	0	0	0	2	1	1	0	5	1	0	2	1	6	0	0	0	2	0	0	0	0	0	3	1	0	0	0	1	0	1	0	10	5	3	0	28	1	1	8	0	1	3
OTU 49	0	1	6	2	0	1	1	0	0	2	0	0	0	2	0	0	8	0	0	0	0	6	0	161	1	1	0	1	0	0	0	0	1	0	0	0	1	2	0	1	0	3	3	1	0	0	0	0	0	3
OTU 50	12	1	0	2	1	2	0	0	2	2	8	0	0	6	11	0	5	0	0	1	15	2	0	13	0	2	1	1	0	0	0	1	2	21	0	2	6	4	0	0	2	3	0	16	0	0	4	0	0	0
OTU 51	1	1	0	0	4	0	0	0	0	0	0	0	3	5	0	0	0	2	0	1	0	0	5	2	3	1	1	1	0	1	0	0	0	1	0	0	3	0	115	0	0	0	0	1	0	0	0	0	0	6
OTU 52	0	124	4	14	3	2	0	3	5	1	3	43	1	2	17	0	2	6	6	3	2	0	13	10	5	0	2	4	0	0	4	39	0	15	12	2	0	0	1	3	0	2	1	4	1	0	1	19	0	4
OTU 53	0	0	0	0	0	0	0	0	0	0	0	0	0	0	0	0	0	0	0	0	0	0	0	0	0	0	0	0	0	0	0	0	0	0	0	0	0	0	0	0	0	2	0	0	0	0	0	0	0	1
OTU 54	7	2	3	3	1	30	0	1	2	1	17	1	1	0	0	0	46	1	11	0	0	0	0	1	1	0	4	6	0	2	8	4	0	0	2	0	0	0	5	2	0	9	5	3	0	0	0	2	2	0
OTU 55	0	0	0	0	0	0	0	2	1	0	0	0	0	0	0	0	0	0	0	0	0	0	0	0	0	0	0	0	0	0	0	0	0	0	0	0	0	0	0	0	0	0	0	0	0	0	0	0	0	0
OTU 56	1	0	0	5	0	0	52	1	0	0	0	0	1	2	0	0	0	0	0	0	0	3	0	0	1	0	0	0	2	0	0	0	0	0	0	0	0	0	0	0	1	3	0	17	3	0	0	0	0	0
OTU 57	10	2	2	8	0	0	0	1	7	1	7	2	3	3	1	2	3	0	6	1	9	4	0	0	1	7	0	4	5	1	4	0	11	0	0	1	0	0	14	3	3	6	1	2	10	21	4	2	7	7
OTU 58	0	1	1	0	4	1	0	4	1	1	0	0	0	3	0	2	0	2	0	0	11	1	0	0	7	0	0	5	0	0	0	0	1	1	0	1	0	0	0	11	2	7	0	0	0	0	2	0	1	0
OTU 59	1	0	2	0	1	0	0	0	1	0	0	0	0	1	0	0	0	1	1	0	0	0	0	0	6	0	0	3	0	0	4	0	1	0	0	0	0	0	0	0	0	2	0	5	0	0	0	0	1	0
OTU 60	3	0	1	15	0	1	1	5	3	0	8	2	0	0	0	8	5	1	0	1	4	1	9	0	3	3	0	5	2	2	0	0	0	0	3	2	1	0	0	3	83	1	0	1	1	15	2	2	0	0
OTU 61	1	4	4	2	9	50	6	12	3	0	8	1	1	3	0	1	0	3	1	2	4	0	0	1	8	2	0	1	22	7	3	5	1	3	1	4	0	0	3	5	0	0	4	1	6	0	0	10	0	0
OTU 62	2	0	0	0	0	0	0	2	2	0	0	0	0	0	0	0	0	0	0	0	0	0	0	0	0	4	0	0	0	0	0	0	5	1	0	0	1	0	0	0	1	1	0	4	0	2	4	0	0	4
OTU 63	2	0	0	0	0	0	0	0	0	0	0	1	0	2	0	1	0	0	3	0	0	8	1	0	8	2	0	0	0	0	0	4	0	0	7	0	2	0	0	1	1	0	0	0	0	2	3	0	0	0
OTU 64	10	2	7	12	3	5	4	12	2	2	1	5	20	1	1	3	7	3	21	4	7	0	6	2	0	7	5	0	10	3	11	10	0	9	10	1	0	3	2	1	1	2	3	15	18	0	1	11	3	7
OTU 65	0	0	0	0	0	0	0	0	0	0	1	0	0	0	0	0	0	0	0	0	0	0	0	0	0	0	0	0	0	0	0	0	31	0	0	0	0	0	0	0	0	0	0	0	0	0	0	0	0	0
OTU 66	4	2	5	5	1	1	1	4	6	0	0	0	4	0	0	10	3	0	3	0	9	0	0	1	4	1	2	3	3	1	4	0	0	0	4	0	4	1	2	2	0	1	0	1	0	0	4	0	0	8
OTU 67	0	0	0	3	3	0	0	0	0	0	0	1	0	8	0	1	2	1	0	0	9	0	2	0	0	0	0	2	0	0	1	0	0	0	1	1	0	0	0	2	0	1	0	0	0	5	0	1	0	1
OTU 68	0	0	1	0	3	0	1	0	1	0	0	0	3	0	0	0	2	0	2	2	1	0	1	0	18	0	0	0	1	0	4	1	0	0	0	0	0	0	2	0	0	0	0	2	2	0	0	4	1	0
OTU 69	16	0	1	2	0	1	1	1	1	0	1	5	1	18	0	1	10	0	3	1	0	1	0	0	2	2	0	0	0	3	3	6	4	0	3	0	27	0	0	17	1	54	2	7	2	1	2	12	1	1
OTU 70	0	0	6	0	2	0	0	0	0	1	0	0	0	4	0	0	1	0	0	0	0	2	0	0	0	0	2	1	0	0	5	1	0	0	0	1	0	1	1	5	0	0	0	0	2	1	0	0	0	4
OTU 71	0	2	0	0	0	0	0	0	2	0	2	0	0	0	0	0	2	0	0	0	5	0	0	0	0	0	0	2	0	0	0	0	1	0	0	1	0	3	0	0	1	4	0	4	0	0	1	0	0	2
OTU 72	3	4	0	0	1	1	10	6	9	1	7	0	3	2	0	2	3	4	1	0	2	0	1	0	1	2	2	4	1	9	3	0	0	0	0	0	7	3	0	2	3	7	6	0	4	4	5	2	1	3
OTU 73	0	0	0	0	0	1	0	2	0	1	0	2	0	0	0	3	0	0	8	0	4	2	27	0	4	1	0	0	0	0	10	2	1	0	0	2	3	1	4	0	1	0	0	2	9	1	4	2	0	1
OTU 74	2	0	0	0	3	0	3	17	1	2	0	0	2	2	1	2	2	0	13	0	2	0	0	5	2	1	0	0	0	8	7	5	4	19	0	0	12	0	6	3	0	3	0	1	0	0	1	3	0	0
OTU 75	0	0	0	0	3	3	0	0	0	0	2	0	0	8	0	0	0	6	8	0	7	0	0	0	8	0	1	1	0	2	0	0	5	0	0	1	0	0	1	0	0	0	1	1	0	0	0	1	0	0
OTU 76	0	1	0	0	0	0	3	0	0	0	0	0	1	1	2	0	0	1	0	0	0	1	0	0	0	0	2	0	0	0	0	0	0	0	0	0	0	0	0	0	0	0	0	13	0	1	0	0	0	0
OTU 77	1	0	2	0	0	11	1	1	0	0	1	3	0	0	1	0	1	1	2	0	3	0	1	0	1	1	0	113	0	2	0	0	1	0	2	0	2	1	0	3	1	3	1	0	0	0	2	2	3	0
OTU 78	0	0	0	0	8	0	2	1	0	57	4	0	6	1	0	0	15	2	0	3	0	0	2	0	6	0	0	1	1	4	0	0	0	0	1	1	1	1	2	1	0	3	3	0	1	1	0	0	0	0
OTU 79	7	43	3	5	7	0	18	41	3	0	19	0	2	0	2	6	2	2	5	0	2	1	4	0	8	5	0	6	3	19	43	1	0	1	3	2	2	0	17	5	0	5	14	0	6	12	9	12	0	7
OTU 80	1	4	4	0	2	0	2	3	1	2	10	0	2	0	4	4	1	0	22	1	0	1	169	1	0	0	17	1	0	2	9	1	0	4	0	1	4	1	2	0	1	2	2	1	1	3	1	1	1	3
OTU 81	8	16	1	4	4	5	0	1	9	1	1	0	0	3	40	4	1	4	13	1	1	0	0	1	0	7	12	5	1	3	6	3	3	0	0	4	1	1	12	2	2	3	0	0	0	1	4	1	0	0
OTU 82	0	0	0	0	6	0	3	5	0	2	1	0	0	6	0	0	3	0	0	24	0	2	0	0	1	3	0	5	0	0	0	0	1	2	0	2	1	6	0	0	0	0	0	4	1	0	2	1	3	0
OTU 83	0	0	2	0	0	0	0	0	10	1	6	0	0	0	0	0	0	0	0	0	0	0	0	0	0	0	1	0	0	0	0	2	0	0	1	0	0	0	0	2	0	0	0	0	0	0	0	0	0	0
OTU 84	1	0	0	0	0	0	1	3	0	0	4	4	0	6	0	0	2	83	0	0	0	13	0	1	0	0	0	0	0	0	0	0	0	0	0	0	0	1	0	0	0	0	0	0	0	0	1	0	0	0
OTU 85	0	1	1	0	1	0	0	1	0	0	22	0	0	0	0	0	0	3	2	0	0	0	0	0	0	0	0	0	0	0	1	0	0	0	0	1	0	0	1	8	1	0	0	1	0	0	2	0	3	0
OTU 86	0	0	0	0	0	0	0	0	0	0	0	0	1	0	0	0	0	0	0	0	0	0	0	0	0	0	0	0	0	0	0	0	0	0	0	0	0	0	0	0	0	0	0	0	0	0	0	0	0	0
OTU 87	0	2	0	0	0	0	0	0	0	0	0	139	0	0	0	1	0	0	4	0	0	0	0	0	0	0	0	0	0	2	8	0	0	0	0	0	1	0	3	0	23	0	1	0	0	0	0	1	0	0
OTU 88	0	0	0	0	0	0	0	0	0	0	0	0	0	2	0	0	0	0	0	0	0	0	0	0	0	0	0	0	0	0	0	2	0	0	0	0	0	0	0	0	0	9	0	0	0	0	2	0	0	0
OTU 89	1	0	0	0	5	4	0	0	0	0	0	0	0	1	0	0	0	0	0	1	0	0	0	0	3	0	0	0	1	1	0	1	0	0	0	3	0	0	0	0	0	2	0	0	2	0	0	0	3	0
OTU 90	0	0	0	0	0	0	0	0	0	0	0	0	0	0	0	0	0	0	0	0	0	0	0	0	0	0	0	0	1	0	0	0	0	0	0	0	1	0	0	0	0	0	0	0	0	1	0	0	0	0
OTU 91	0	0	0	1	0	0	1	0	0	0	0	0	0	0	0	0	2	0	0	0	0	0	0	0	0	0	0	0	0	0	0	110	0	1	61	0	0	0	0	0	0	0	0	0	0	0	0	1	0	0
OTU 92	0	0	0	1	0	0	0	0	0	0	1	0	0	1	0	0	0	0	0	0	0	0	2	0	4	0	1	0	0	0	0	0	2	0	0	0	0	0	0	0	0	0	0	0	0	0	3	0	0	0
OTU 93	0	0	0	0	0	0	0	0	0	0	0	0	0	0	0	0	0	0	0	0	0	0	0	0	0	1	0	0	0	0	1	0	0	0	0	0	0	0	0	0	0	0	0	0	0	0	2	0	0	0
OTU 94	1	1	8	4	2	5	3	0	2	1	0	4	2	1	1	3	0	0	6	1	9	2	28	2	3	4	2	2	2	0	9	5	1	3	0	0	3	1	1	2	1	2	0	6	0	0	12	3	0	1
OTU 95	0	0	0	0	0	0	0	0	0	91	1	0	0	0	0	0	0	0	0	0	0	1	0	0	3	1	0	0	0	0	0	0	0	0	0	0	0	0	0	0	1	0	0	0	0	0	0	0	0	1
OTU 96	0	0	0	0	0	0	0	0	0	0	0	0	0	0	1	0	0	0	0	0	0	0	0	0	0	0	0	0	0	0	0	0	27	1	0	1	0	0	0	0	0	0	0	0	0	0	0	0	0	0
OTU 97	0	0	0	0	0	0	0	0	0	0	6	0	0	0	0	2	1	6	0	0	0	0	0	0	0	0	0	0	2	0	0	0	4	0	0	0	0	0	0	1	0	0	0	0	4	0	0	0	0	0
OTU 98	0	0	0	2	0	0	0	0	0	0	0	0	1	0	0	0	0	0	0	7	0	0	0	0	0	0	1	0	3	0	0	0	1	0	0	0	0	0	0	2	0	1	1	0	11	2	0	0	0	0
OTU 99	8	3	0	2	2	1	5	0	0	0	0	5	1	4	3	5	3	1	0	3	4	0	1	1	0	4	0	7	2	0	5	4	3	3	0	0	0	2	1	1	1	5	0	1	7	1	1	0	4	1
OTU 100	0	3	0	2	1	1	0	0	0	0	0	1	0	1	0	1	0	3	0	0	0	1	2	0	1	1	1	0	0	0	0	1	0	0	1	0	0	2	0	4	1	3	0	0	0	0	0	0	0	0
OTU 101	0	0	0	0	1	0	0	0	0	0	0	0	0	3	0	0	0	0	0	0	0	0	0	0	0	0	0	0	0	2	0	0	0	0	0	0	0	0	0	0	0	0	0	0	0	0	0	0	0	0
OTU 102	3	0	6	0	0	0	0	0	0	0	0	0	0	0	0	2	0	0	0	0	0	2	1	0	0	0	0	0	0	1	2	4	0	0	0	0	0	1	0	1	2	7	0	0	0	2	1	1	2	0
OTU 103	0	23	0	0	1	0	0	1	0	1	0	0	1	0	0	2	1	0	4	4	0	0	0	0	0	0	0	0	0	0	0	0	0	0	0	0	0	0	0	5	0	4	2	0	1	1	2	0	0	0
OTU 104	1	0	100	1	0	0	0	4	7	0	5	2	3	0	3	12	0	12	2	4	5	1	5	1	0	9	2	0	6	1	3	1	1	0	1	1	2	0	2	0	0	3	0	2	11	3	1	4	6	37
OTU 105	0	0	0	0	0	0	0	2	0	0	1	0	0	3	0	0	0	0	0	0	0	4	0	0	0	1	0	0	0	0	101	0	0	0	0	0	0	2	50	0	1	0	0	0	0	0	0	0	0	0
OTU 106	0	0	1	0	0	0	0	0	0	0	3	0	1	1	1	2	0	0	1	1	0	0	1	0	0	0	0	0	1	0	0	0	0	1	0	0	0	0	77	0	0	0	0	15	2	0	0	0	4	2
OTU 107	0	0	0	0	1	0	1	0	0	0	1	0	2	0	0	0	4	2	2	0	0	0	0	0	0	0	0	0	0	7	0	0	49	0	0	1	0	0	0	1	0	0	8	4	0	111	0	16	1	0
OTU 108	0	1	0	5	0	5	4	0	0	1	0	0	2	0	0	6	0	0	0	0	0	0	0	0	0	0	0	3	0	0	0	0	0	0	0	0	0	1	0	3	0	2	0	0	1	0	0	0	0	0
OTU 109	0	0	2	0	0	0	0	0	0	0	0	0	0	0	0	0	0	0	0	0	0	0	0	0	0	0	0	0	0	0	0	0	0	0	0	0	0	0	0	0	0	0	0	0	0	0	0	0	0	0
OTU 110	13	2	0	0	2	6	4	1	0	7	50	5	0	7	18	4	0	1	0	0	1	4	0	13	2	0	2	2	0	6	6	2	6	21	0	1	4	14	2	0	14	1	3	0	0	1	1	0	0	1
OTU 111	0	0	0	0	0	20	0	0	10	0	0	0	0	0	0	0	11	0	0	0	0	0	0	0	0	0	0	0	0	0	0	2	0	0	0	0	0	0	0	0	0	0	0	0	0	0	0	0	0	0
OTU 112	3	1	1	0	0	0	4	0	0	0	0	1	8	0	0	2	0	0	0	0	0	0	0	0	0	0	3	14	0	0	0	2	2	1	0	1	0	0	0	1	0	0	0	0	0	1	1	0	3	0
OTU 113	0	3	0	2	0	0	0	0	1	0	0	0	0	0	0	0	1	0	0	0	0	1	0	0	0	0	0	0	0	0	0	0	0	0	0	0	0	0	0	0	0	0	0	0	0	0	0	0	4	0
OTU 114	6	29	10	5	1	1	0	8	9	10	1	4	1	3	0	22	0	12	0	2	2	3	0	2	0	0	2	9	2	3	0	3	3	0	3	0	1	13	0	0	4	9	0	0	2	6	1	0	1	4
OTU 115	0	2	0	3	3	3	1	0	3	2	2	0	4	2	2	2	2	2	0	1	2	0	2	0	1	7	9	0	2	3	0	1	3	0	0	7	5	3	2	0	3	3	1	7	7	0	0	5	0	5
OTU 116	0	0	2	1	0	0	0	0	23	0	1	7	0	1	2	2	2	1	4	0	9	3	0	0	0	5	0	1	0	3	0	3	0	3	0	0	0	3	0	0	5	0	2	1	0	0	0	0	0	2
OTU 117	1	0	0	0	5	1	0	24	6	0	0	1	0	0	0	4	0	4	1	0	0	0	2	0	0	2	5	1	80	10	3	0	4	0	1	2	0	0	0	2	0	1	6	1	4	6	4	1	1	4
OTU 118	0	0	0	0	0	0	0	0	1	0	0	0	0	0	0	0	0	0	0	0	0	0	0	0	0	1	0	0	0	0	0	0	0	0	0	129	0	0	0	3	0	0	0	1	1	1	0	0	0	0
OTU 119	1	0	0	14	4	1	41	1	0	0	0	0	1	5	2	0	1	13	0	0	0	3	0	1	0	4	2	0	0	0	0	0	0	3	7	1	0	1	2	1	4	2	0	0	0	8	0	1	1	0
OTU 120	1	1	0	0	2	0	0	3	0	0	0	0	0	0	0	0	0	20	2	0	0	0	1	0	0	0	0	0	1	7	0	2	2	0	0	0	0	0	0	0	0	0	1	0	2	2	18	0	1	4
OTU 121	0	0	0	3	2	1	0	0	0	0	0	0	0	3	1	0	0	0	2	2	0	8	0	1	8	2	0	1	0	3	2	0	2	2	0	0	0	4	0	1	7	10	2	0	0	0	0	1	0	5
OTU 122	3	0	3	17	0	0	0	2	0	0	4	0	0	0	1	1	0	3	0	0	0	0	0	0	0	2	0	2	0	0	0	0	0	0	0	0	3	0	0	1	0	1	2	2	1	1	2	1	0	0
OTU 123	10	4	9	5	5	6	19	6	11	2	6	13	7	2	4	11	0	21	7	13	12	165	13	7	2	21	5	7	31	9	5	28	4	4	14	2	4	5	0	12	5	9	4	2	18	7	4	22	4	6
OTU 124	0	0	0	0	0	0	0	1	0	0	0	0	0	0	0	4	2	0	2	0	0	0	0	1	0	0	0	0	0	0	0	0	1	0	0	0	2	0	0	0	0	2	0	0	0	0	0	0	0	0
OTU 125	6	5	5	3	0	6	15	1	24	28	9	2	2	0	0	2	27	9	3	1	2	6	0	0	8	9	2	4	3	58	0	1	9	1	3	32	0	5	1	6	6	6	23	7	2	5	8	0	3	6
OTU 126	0	0	0	0	0	0	0	0	0	0	0	1	0	0	0	0	0	0	0	0	0	0	0	0	0	8	0	0	0	0	0	0	0	0	0	0	0	0	0	0	0	0	0	0	0	0	0	0	0	0
OTU 127	0	2	0	0	0	0	2	0	0	0	0	1	2	0	0	1	1	0	0	0	2	0	0	1	8	0	0	1	2	1	0	0	0	0	0	0	2	0	1	0	0	7	2	5	0	1	1	0	2	0
OTU 128	45	7	46	9	2	29	9	8	7	61	5	5	20	7	5	0	40	7	29	16	14	2	3	3	31	1	42	10	11	1	16	3	4	10	5	3	3	135	7	8	4	11	1	1	34	8	11	7	9	3
OTU 129	0	0	1	0	0	0	0	0	0	0	0	0	0	0	0	0	0	0	0	0	0	0	0	0	0	0	1	1	0	2	0	3	0	0	0	0	0	0	0	0	1	1	0	0	0	0	0	0	0	1
OTU 130	6	10	0	0	0	1	0	0	2	1	2	1	0	0	0	0	0	0	0	0	0	1	0	0	1	13	1	0	0	2	0	0	0	0	0	0	0	0	0	0	0	0	1	1	0	0	0	0	0	3
OTU 131	0	0	2	3	0	0	1	4	0	0	2	0	0	1	0	2	0	17	0	0	1	1	0	0	1	8	2	2	0	0	0	0	6	0	1	0	9	0	0	1	0	15	0	0	0	24	2	34	0	0
OTU 132	0	0	1	0	0	0	1	5	0	1	0	9	0	3	0	0	0	0	2	3	0	2	0	1	0	0	0	2	2	0	2	0	0	1	1	0	1	1	1	0	1	0	0	0	2	0	0	0	0	0
OTU 133	0	0	1	0	0	0	0	0	0	0	1	2	0	0	0	0	0	0	0	0	0	0	0	1	0	0	0	0	0	0	0	0	0	1	0	0	0	0	0	0	0	1	0	0	0	0	0	1	153	0
OTU 134	0	2	0	0	0	0	0	0	3	1	0	0	4	2	1	0	3	0	1	3	0	2	1	0	1	0	3	0	3	5	0	0	1	0	4	0	0	2	0	2	3	0	4	0	4	1	0	0	5	0
OTU 135	2	1	1	0	0	2	3	0	0	0	0	2	0	0	0	0	6	0	1	0	1	1	8	1	0	3	25	2	1	69	1	0	5	3	0	1	2	0	0	0	0	0	32	0	1	1	1	0	1	0
OTU 136	0	0	0	4	2	0	0	2	0	0	3	0	0	0	0	1	0	9	0	1	0	0	1	0	2	4	0	0	0	0	1	0	2	0	0	0	4	0	1	5	5	0	0	0	0	3	0	0	0	2
OTU 137	0	0	0	0	2	0	2	8	0	0	0	4	0	0	1	0	0	1	0	0	0	0	1	0	2	0	0	0	1	0	0	3	0	0	0	3	0	0	0	0	0	0	0	4	0	0	0	0	2	0
OTU 138	0	0	1	0	0	0	0	0	4	5	0	1	0	17	0	1	0	0	0	0	2	12	1	0	0	2	0	0	0	1	0	0	0	1	1	0	1	17	0	0	16	4	0	1	0	3	0	0	0	0
OTU 139	3	1	4	1	1	3	1	1	3	0	0	1	6	2	1	1	2	1	1	5	0	1	0	1	43	19	1	3	4	0	3	0	3	3	18	0	3	0	0	3	4	1	0	3	4	2	5	0	1	2
OTU 140	5	13	0	2	3	1	9	11	7	2	3	1	1	20	0	7	2	3	3	1	3	6	3	0	6	19	25	3	0	4	2	0	0	1	2	1	2	6	0	0	7	1	2	32	1	1	2	0	0	3
OTU 141	0	0	0	0	0	0	0	0	0	0	0	0	0	1	0	0	0	0	0	0	0	0	0	0	1	0	0	0	0	0	0	0	0	0	0	0	0	3	0	1	0	0	0	0	0	0	0	0	0	0
OTU 142	0	0	0	0	0	0	0	0	0	0	0	0	0	0	0	0	1	0	0	0	0	0	1	0	0	0	0	0	0	0	0	0	0	0	0	0	0	0	0	2	0	0	0	0	0	0	0	0	0	2
OTU 143	0	0	0	0	0	0	0	0	4	0	1	0	0	0	0	0	0	0	0	0	0	1	0	0	0	0	3	0	0	0	0	0	0	0	0	0	0	0	0	0	0	0	0	0	0	0	0	0	0	0
OTU 144	0	0	4	0	0	0	0	0	0	0	2	0	0	1	0	0	0	0	4	0	0	0	4	0	0	0	2	0	0	0	0	0	0	0	0	0	0	0	2	2	0	0	0	0	0	0	0	0	0	4
OTU 145	0	0	2	30	5	0	4	6	1	0	5	0	0	2	1	0	0	1	1	0	2	9	1	1	2	6	3	0	0	1	0	2	4	4	0	0	4	0	0	1	2	2	1	3	1	5	0	0	1	0
OTU 146	0	1	0	1	6	0	2	2	1	0	15	0	0	0	0	1	0	1	3	0	1	0	0	0	8	1	0	1	0	1	0	0	1	0	3	1	0	0	1	0	0	0	0	0	1	0	4	2	0	3
OTU 147	0	2	0	0	0	1	4	2	0	0	2	1	0	0	0	0	1	0	0	0	0	0	2	0	0	0	0	0	0	0	0	0	0	0	0	0	0	0	0	0	0	0	0	1	0	0	1	0	0	0
OTU 148	8	1	3	0	0	0	2	0	0	0	0	1	1	0	1	0	1	0	5	0	0	0	0	2	1	3	2	0	1	0	1	6	32	0	4	0	1	0	1	14	2	0	0	5	4	8	3	2	0	0
OTU 149	4	0	0	0	0	0	0	0	0	0	0	0	0	0	0	0	0	0	5	1	0	2	0	0	0	0	0	0	0	0	1	1	3	0	0	0	0	0	0	0	1	0	3	8	0	0	2	0	2	3
OTU 150	2	0	0	1	0	0	0	0	0	0	0	0	0	0	0	0	0	0	0	0	0	0	0	0	0	7	1	1	0	0	0	0	0	0	0	0	0	0	0	4	0	0	0	1	1	0	0	1	0	1
OTU 151	0	2	0	1	1	0	0	0	1	0	0	0	1	1	0	1	0	2	1	0	1	4	0	0	0	1	0	0	1	1	0	0	1	0	0	0	1	1	2	0	1	0	0	3	2	0	0	0	0	0
OTU 152	5	1	0	0	0	1	1	0	5	3	1	19	1	6	0	0	0	6	1	1	5	0	1	0	13	5	5	0	1	2	0	3	1	1	0	0	2	2	0	3	1	0	1	13	0	3	7	0	1	4
OTU 153	0	1	0	0	0	0	0	0	0	0	0	0	0	0	0	0	0	1	0	0	0	0	0	0	0	2	0	0	0	1	0	0	0	0	0	0	0	0	0	0	0	0	0	0	0	1	0	0	0	0
OTU 154	1	0	0	0	0	0	0	0	0	1	0	0	0	0	7	0	0	0	0	1	0	0	0	7	0	0	0	0	0	0	0	0	0	14	0	0	0	0	0	0	0	0	0	0	1	0	0	0	0	0
OTU 155	0	0	0	0	3	0	7	1	2	0	3	0	0	0	0	0	0	0	0	0	0	0	0	2	0	2	0	0	0	0	0	0	1	0	0	5	0	1	0	0	0	1	1	1	0	0	0	1	0	0
OTU 156	2	2	6	3	3	1	0	7	8	0	7	0	2	4	0	0	4	1	0	1	2	0	0	2	0	4	0	0	0	3	0	1	4	1	4	1	1	0	0	6	45	4	0	1	3	9	4	3	0	2
OTU 157	0	0	0	9	0	0	0	0	0	0	1	0	1	0	0	0	1	0	0	0	0	0	0	0	0	6	2	0	0	0	0	0	1	0	0	0	0	0	1	0	0	0	0	0	0	1	0	0	1	0
OTU 158	0	0	0	0	0	0	0	0	0	0	8	0	0	0	0	0	0	0	0	0	0	0	0	0	0	0	0	1	0	4	0	0	0	0	0	0	0	0	0	0	0	0	9	0	0	0	7	0	0	0
OTU 159	0	0	0	2	3	4	0	0	0	0	1	0	1	1	35	1	0	0	0	0	1	1	0	0	0	2	1	0	0	2	0	0	0	1	0	0	22	0	0	1	0	35	0	1	4	2	0	73	0	0
OTU 160	0	1	4	15	1	11	0	0	12	1	4	4	0	3	1	0	4	0	6	5	4	0	0	4	5	9	11	0	3	3	2	5	0	0	0	2	11	1	2	0	3	2	2	9	12	0	11	1	0	1
OTU 161	0	0	0	0	0	1	0	2	6	0	0	2	0	1	0	0	1	4	2	1	1	1	0	0	1	0	0	3	0	0	0	0	0	1	2	0	2	0	0	0	0	2	0	0	0	0	2	0	0	2
OTU 162	7	1	1	0	2	1	5	12	0	2	0	0	3	3	0	2	0	4	0	1	20	0	0	0	3	0	0	4	0	0	0	1	1	0	2	0	0	4	0	1	2	3	2	0	0	3	6	4	6	0
OTU 163	0	0	0	0	0	0	0	0	0	0	0	0	0	0	0	0	1	0	0	0	0	0	0	0	0	0	0	0	0	0	0	0	0	0	0	0	0	0	0	0	0	0	0	0	0	0	0	0	0	0
OTU 164	0	0	0	0	0	5	0	0	0	0	0	1	1	0	0	0	0	0	0	0	0	0	0	0	0	0	0	2	1	0	0	0	0	0	0	0	0	0	0	0	0	0	0	0	1	0	0	0	0	0
OTU 165	0	0	0	0	0	1	0	0	46	0	3	0	2	1	0	0	8	0	2	2	8	0	0	0	0	0	2	0	1	1	3	0	0	0	0	0	0	0	2	0	1	1	1	5	0	0	1	0	1	3
OTU 166	0	0	0	2	1	0	1	0	0	0	0	0	0	0	0	0	0	0	0	0	0	0	0	0	0	0	0	0	0	0	0	0	0	0	0	4	0	0	0	0	0	0	0	0	0	0	1	0	0	0
OTU 167	2	0	0	2	0	0	4	1	3	0	0	0	0	1	0	0	3	1	3	0	0	6	6	0	0	1	0	0	1	0	0	0	0	0	2	0	0	0	0	0	2	1	0	0	0	1	0	0	0	0
OTU 168	0	0	0	0	0	2	0	0	0	0	1	0	1	3	2	2	10	0	0	0	8	5	0	0	3	4	0	0	0	0	0	6	0	0	2	0	3	0	1	0	0	0	0	4	0	0	1	1	0	4
OTU 169	0	0	4	0	0	0	0	0	0	0	0	0	0	0	0	0	4	0	0	0	0	0	0	0	0	0	0	0	0	0	0	0	3	0	0	0	0	0	0	0	0	0	0	0	0	5	0	0	0	0
OTU 170	0	0	0	0	0	0	0	0	0	0	0	0	0	0	0	0	0	0	1	0	0	0	0	0	0	0	0	0	0	0	0	0	0	0	0	0	0	0	0	1	0	0	0	0	0	0	0	0	0	0
OTU 171	0	0	3	0	0	48	0	0	0	0	7	8	0	2	0	7	0	2	9	2	1	0	4	12	1	6	1	0	2	0	2	1	0	5	1	1	1	0	3	3	1	1	0	0	7	2	1	0	0	2
OTU 172	0	0	0	0	0	0	0	0	0	0	0	0	0	0	2	0	0	0	0	1	0	0	0	1	0	0	0	0	0	0	0	0	0	3	2	0	0	0	0	0	0	1	0	0	0	0	0	1	0	0
OTU 173	0	0	0	0	3	0	0	6	0	0	5	0	0	0	0	0	5	0	0	0	0	0	0	0	0	0	0	0	0	22	0	1	0	1	0	3	0	0	0	0	0	0	14	0	0	0	2	1	0	0
OTU 174	0	2	0	2	143	0	1	0	3	0	0	0	0	0	0	0	1	0	0	0	3	0	1	0	0	0	1	0	1	0	2	0	0	0	0	68	0	0	0	0	0	0	0	0	1	1	0	37	0	0
OTU 175	6	0	2	7	0	0	2	1	1	0	1	0	0	0	0	3	3	0	1	0	0	1	0	0	0	1	3	0	0	0	0	0	0	0	0	0	0	0	0	0	0	0	0	3	0	0	1	0	0	0
OTU 176	1	0	2	0	1	0	3	0	2	1	0	2	1	1	1	0	1	2	2	2	5	0	1	0	4	2	8	0	99	1	0	1	0	0	2	0	1	1	2	1	1	4	1	3	0	0	5	0	0	0
OTU 177	0	1	3	0	2	0	1	0	0	0	0	7	0	0	1	1	2	3	1	0	5	2	0	0	11	0	0	0	0	2	1	0	0	1	0	1	0	0	0	6	4	0	0	6	0	0	0	1	0	0
OTU 178	0	0	0	3	11	0	5	12	1	0	0	0	0	0	0	0	0	2	0	0	0	0	0	0	0	0	0	0	0	8	0	0	0	0	0	8	0	0	0	2	1	1	4	0	0	0	7	0	0	0
OTU 179	38	1	0	1	0	2	0	1	0	0	0	0	1	0	1	1	5	5	0	1	0	0	1	0	0	0	0	2	2	2	1	0	0	0	0	0	0	0	0	0	1	0	2	0	2	0	0	1	0	0
OTU 180	3	1	1	6	4	6	2	2	3	7	1	2	70	9	0	6	0	2	5	0	14	16	1	3	1	11	5	29	0	4	1	6	6	3	0	3	3	3	1	7	3	1	3	3	2	4	31	1	43	7
OTU 181	4	0	1	2	4	3	0	3	9	3	0	0	0	2	1	1	1	0	1	0	1	5	1	0	5	0	1	0	0	3	0	1	0	0	0	3	0	0	0	0	0	0	2	0	0	0	1	0	0	0
OTU 182	6	0	0	0	0	0	0	0	0	0	0	1	0	0	0	0	0	0	0	0	0	0	0	1	0	0	0	0	0	1	0	0	0	3	0	0	0	0	0	0	0	0	0	0	0	0	1	0	0	0
OTU 183	0	0	0	0	0	0	1	2	4	21	2	0	2	0	0	24	1	12	0	7	3	0	0	2	0	0	1	2	0	1	3	4	0	1	0	0	3	47	2	0	0	1	0	0	3	0	4	1	0	21
OTU 184	0	0	0	0	0	0	1	1	0	0	0	0	0	0	2	0	1	2	0	1	0	4	3	1	0	0	2	0	1	0	1	2	1	4	0	0	0	1	1	2	1	3	0	0	3	0	2	0	1	1
OTU 185	5	0	1	13	4	0	3	3	0	2	1	1	2	1	0	0	1	0	0	0	6	0	0	1	2	2	1	1	1	0	0	0	0	3	0	3	1	3	0	12	2	3	0	0	6	1	9	0	4	0
OTU 186	0	0	0	0	1	0	0	1	0	0	0	0	0	0	0	5	0	1	1	0	0	0	0	0	0	0	0	0	0	0	0	1	0	0	0	0	0	0	0	0	0	0	0	0	0	0	0	0	2	2
OTU 187	2	1	0	0	0	3	5	4	0	3	2	0	0	5	2	2	0	1	5	0	11	5	0	2	0	0	0	1	1	1	7	1	2	3	0	1	2	6	2	0	7	6	111	2	0	3	4	0	0	0
OTU 188	0	5	2	0	1	10	2	0	0	2	0	0	2	0	1	0	14	0	2	4	1	5	3	0	13	4	3	1	3	1	1	1	1	1	3	1	5	2	0	0	2	3	0	0	1	0	2	5	3	3
OTU 189	2	3	0	3	5	2	2	10	1	2	1	0	6	0	0	0	4	0	0	3	3	0	0	0	4	0	6	1	1	1	3	0	1	1	142	5	0	1	0	5	0	1	3	0	2	2	2	0	2	108
OTU 190	0	0	0	1	0	0	0	0	0	0	0	0	0	0	0	4	0	0	0	0	0	0	0	0	0	0	0	0	0	0	0	0	0	0	0	0	0	0	0	0	0	0	14	4	0	0	1	0	0	0
OTU 191	2	0	1	1	4	3	0	4	3	1	0	1	9	74	0	9	0	2	1	7	6	3	1	0	0	7	2	0	4	3	5	5	2	0	0	0	0	2	3	1	3	0	4	1	12	7	8	2	9	0
OTU 192	0	4	6	5	2	4	2	3	0	0	0	0	0	3	5	6	16	4	0	179	1	0	0	2	1	7	13	1	1	3	0	0	0	1	0	1	2	0	2	32	2	1	1	14	3	2	3	0	3	0
OTU 193	0	0	1	0	1	0	0	8	0	1	0	1	1	0	2	6	2	0	20	0	0	0	0	2	0	0	3	2	1	7	10	2	9	6	2	0	1	5	4	0	0	0	1	3	0	4	4	0	3	12
OTU 194	10	2	0	0	0	2	15	3	0	2	0	0	0	6	0	0	0	0	1	0	0	1	0	0	1	0	0	0	0	0	2	2	0	0	1	0	0	4	1	0	7	0	0	0	2	0	0	0	5	1
OTU 195	0	8	0	0	0	0	0	1	9	0	3	0	1	0	0	1	0	0	3	4	1	0	0	0	1	0	4	0	1	0	5	0	0	0	1	2	0	0	0	3	1	0	0	3	9	2	1	0	0	0
OTU 196	4	0	4	0	1	3	0	2	0	0	2	4	0	0	0	0	0	0	5	0	3	0	2	0	1	0	1	0	0	2	4	0	0	0	0	0	0	0	0	1	5	7	0	0	0	0	1	0	0	0
OTU 197	5	3	6	3	4	4	9	4	1	17	7	2	3	0	0	2	5	4	14	1	2	3	4	4	1	11	3	1	2	1	4	4	3	3	3	0	1	1	2	11	1	8	0	13	1	0	13	0	0	1
OTU 198	0	0	1	0	0	0	0	7	0	0	0	0	0	0	0	0	0	0	0	0	0	0	0	0	0	0	0	0	0	1	3	0	0	0	1	1	0	0	1	0	0	0	0	2	0	1	0	0	0	0
OTU 199	0	0	1	0	0	1	0	0	1	0	0	2	0	1	0	0	1	0	2	0	0	1	0	0	0	1	3	0	0	0	0	1	0	0	1	0	0	0	0	2	3	2	0	0	0	0	3	0	0	0
OTU 200	0	1	4	6	0	4	0	0	2	0	2	0	4	8	0	0	2	3	0	0	0	3	1	0	0	0	0	0	0	6	0	4	0	0	7	0	2	0	0	0	0	2	1	0	1	0	1	0	0	0
