	Host 1	Host 2	Host 3	Host 4	Host 5	Host 6	Host 7	Host 8	Host 9	Host 10	Host 11	Host 12	Host 13	Host 14	Host 15	Host 16	Host 17	Host 18	Host 19	Host 20	Host 21	Host 22	Host 23	Host 24	Host 25	Host 26	Host 27	Host 28	Host 29	Host 30	Host 31	Host 32	Host 33	Host 34	Host 35	Host 36	Host 37	Host 38	Host 39	Host 40	Host 41	Host 42	Host 43	Host 44	Host 45	Host 46	Host 47	Host 48	Host 49	Host 50	
OTU 1	1	0	4	4	1	0	1	1	6	3	0	0	0	4	0	3	0	2	1	6	0	0	5	1	0	0	0	3	3	0	0	2	0	3	0	4	1	2	3	0	12	1	0	3	3	2	1	0	0	4
OTU 2	6	0	5	1	1	0	0	0	0	0	0	0	0	1	0	0	0	1	1	0	1	0	0	33	0	6	0	0	4	0	0	0	8	120	0	0	1	0	1	4	45	1	0	0	10	0	1	1	0	0
OTU 3	0	0	0	0	6	4	0	0	0	0	0	0	0	0	0	0	0	0	0	0	0	0	1	1	0	0	0	0	0	0	0	0	0	0	0	0	0	1	0	3	0	0	0	0	0	0	0	0	3	0
OTU 4	0	0	0	0	0	0	0	0	0	0	0	0	0	0	0	0	0	0	0	0	0	0	0	0	0	0	0	0	0	0	0	0	0	0	0	0	0	0	0	0	0	0	0	0	0	0	0	0	0	0
OTU 5	17	8	0	2	3	19	24	8	24	24	22	16	74	31	17	33	36	8	5	41	0	7	13	9	0	13	1	6	32	4	0	0	3	4	5	0	0	6	8	1	0	3	16	0	0	31	14	4	0	0
OTU 6	1	0	1	1	0	0	0	2	1	0	0	0	4	1	1	1	0	1	0	0	0	3	1	0	0	8	6	0	8	0	0	0	3	1	0	1	0	1	0	0	41	0	27	1	0	4	1	0	0	2
OTU 7	6	1	11	0	4	3	11	7	1	2	1	0	4	2	0	1	23	2	1	1	3	0	5	1	1	5	0	1	2	1	9	2	6	1	41	2	81	1	72	4	0	27	6	3	3	0	1	2	3	5
OTU 8	0	3	1	0	7	0	1	1	1	5	5	0	7	3	1	0	3	0	0	1	0	5	0	3	6	4	1	4	2	2	0	3	10	5	110	1	13	0	6	6	0	2	2	3	0	0	1	4	0	11
OTU 9	1	1	2	0	0	0	0	0	1	2	0	0	0	0	0	0	1	0	0	0	7	0	1	0	1	0	0	0	1	1	0	0	1	0	0	1	0	1	0	2	1	0	0	2	3	0	0	2	0	0
OTU 10	0	2	1	0	4	1	0	0	0	1	0	0	0	0	0	0	0	0	0	0	0	0	0	0	20	0	0	0	1	1	3	2	2	4	25	0	1	0	42	0	0	14	0	1	0	1	0	0	0	2
OTU 11	2	3	0	2	0	0	4	0	1	0	0	1	1	0	0	2	1	0	0	1	0	0	0	0	5	0	0	0	0	4	1	0	0	0	0	0	5	1	0	33	0	0	0	4	10	0	1	0	0	3
OTU 12	0	4	1	0	5	3	0	1	0	0	0	0	0	0	0	0	3	2	2	0	4	0	0	0	0	0	1	2	0	5	1	0	2	6	1	0	2	0	0	0	0	0	1	0	0	6	3	0	0	6
OTU 13	0	0	0	0	0	0	0	0	0	0	0	1	0	1	0	0	0	0	0	0	0	0	0	0	3	0	0	0	0	0	0	0	0	0	6	0	0	0	9	4	0	0	0	0	0	0	0	1	3	2
OTU 14	0	1	0	1	0	1	0	0	0	0	0	0	0	0	0	0	2	0	0	0	7	7	0	0	5	2	0	2	0	1	0	0	2	0	0	0	0	0	1	3	0	3	1	2	0	0	0	0	0	3
OTU 15	0	2	0	0	0	0	0	0	0	0	1	0	1	0	0	0	0	5	0	0	0	0	0	0	0	0	0	0	0	0	0	0	0	0	0	0	0	0	0	0	0	12	0	0	0	0	0	0	0	0
OTU 16	0	0	0	0	0	0	0	0	0	0	0	0	0	0	0	0	0	0	0	0	0	0	0	0	0	0	0	0	0	0	0	0	0	0	0	0	0	0	0	0	0	0	0	0	0	0	0	0	0	0
OTU 17	0	0	0	0	5	0	0	1	0	0	0	0	1	0	0	1	0	3	0	0	6	0	0	0	12	1	0	0	2	0	1	0	0	0	0	0	0	0	3	0	6	0	0	0	1	0	0	1	0	2
OTU 18	2	6	1	5	2	9	0	0	0	1	3	3	0	12	0	1	0	7	1	1	1	0	1	0	1	8	1	0	0	2	3	1	1	1	0	5	1	143	0	1	3	1	0	4	1	0	0	5	0	1
OTU 19	0	0	0	0	0	0	0	0	0	0	0	0	1	0	0	0	0	0	0	0	0	0	0	0	0	0	0	0	0	0	0	0	0	0	0	0	0	0	0	0	0	0	0	0	0	0	0	0	0	0
OTU 20	1	0	0	0	2	3	0	1	1	0	1	0	2	4	2	0	0	1	0	0	0	2	3	0	1	14	0	0	0	0	3	6	0	0	0	0	0	1	0	0	1	1	0	4	0	0	0	2	2	2
OTU 21	0	2	3	0	0	3	1	3	0	0	0	0	2	5	0	0	5	2	38	0	3	6	0	3	3	2	1	0	1	8	0	1	3	0	0	1	0	3	1	2	1	1	3	0	0	4	2	0	0	1
OTU 22	1	0	0	0	1	0	0	3	0	1	0	1	2	2	0	2	3	2	1	0	0	10	2	0	0	3	2	8	0	9	2	16	1	0	0	0	2	5	0	0	3	0	3	0	3	3	0	0	0	0
OTU 23	0	0	0	0	0	0	0	0	0	0	2	1	0	0	0	0	0	0	0	0	0	1	0	0	0	0	1	0	0	1	0	0	0	0	0	1	4	1	0	0	0	0	0	10	0	0	0	0	1	0
OTU 24	0	0	0	2	2	0	0	0	0	1	0	0	0	0	0	0	2	0	0	2	22	0	0	0	0	0	1	0	0	1	0	0	0	0	0	0	0	0	6	6	0	1	0	0	0	0	0	0	0	0
OTU 25	0	0	0	0	0	0	0	0	0	0	0	0	0	0	0	0	0	0	0	0	0	0	0	0	3	0	0	0	0	0	0	0	0	0	0	0	0	0	0	0	0	0	0	0	0	0	0	0	0	0
OTU 26	0	0	0	0	0	0	0	0	0	0	1	0	1	0	0	0	0	0	0	0	0	0	0	0	0	0	0	0	0	0	0	0	0	0	17	0	0	0	0	0	0	0	0	1	0	0	0	1	0	0
OTU 27	0	0	0	0	6	0	0	0	0	0	0	0	0	0	0	0	0	0	0	0	0	0	0	0	0	0	0	0	0	0	0	0	0	0	0	0	0	0	0	0	0	0	0	1	0	0	0	0	0	0
OTU 28	2	4	1	3	0	3	0	0	0	0	0	0	5	0	1	0	1	0	0	1	2	1	0	0	5	9	3	2	1	0	0	0	5	1	1	2	0	0	0	1	0	1	1	2	1	0	1	2	2	1
OTU 29	1	1	4	0	2	0	3	0	0	0	0	1	2	0	1	1	0	1	4	1	4	3	0	1	1	1	5	0	2	0	4	3	4	1	0	4	5	2	0	4	0	0	0	1	2	0	0	0	0	7
OTU 30	0	0	0	0	0	0	0	0	0	0	0	0	0	0	0	0	0	0	0	0	0	0	0	0	0	0	0	0	0	0	0	0	0	0	0	0	0	0	0	0	0	0	0	0	0	0	0	0	0	0
OTU 31	0	0	0	0	2	0	0	0	0	1	1	0	1	3	4	0	0	0	0	0	3	0	0	4	0	0	3	2	0	2	0	0	0	0	0	0	2	0	0	0	1	0	1	0	0	0	0	0	0	1
OTU 32	9	1	1	4	0	0	1	5	0	1	2	1	0	2	71	0	2	1	3	4	3	7	6	6	0	3	54	11	0	4	0	18	3	0	0	0	5	4	1	1	0	0	1	5	19	32	1	2	0	2
OTU 33	0	1	0	0	0	0	0	0	0	0	0	0	0	0	0	0	0	0	0	1	0	0	0	0	2	0	0	0	0	0	0	0	0	0	0	0	0	0	0	1	0	0	0	0	0	1	0	0	0	0
OTU 34	0	1	6	1	3	2	1	2	0	3	1	0	0	3	0	0	1	1	0	0	1	0	0	0	5	0	1	2	4	0	1	3	0	3	0	2	0	0	0	7	0	1	0	2	0	0	2	0	0	0
OTU 35	0	1	0	0	0	1	0	0	0	0	0	2	0	5	0	1	1	3	4	0	17	0	0	4	0	0	0	0	0	2	0	0	44	2	0	0	3	2	1	3	11	0	0	0	0	13	5	0	4	1
OTU 36	0	0	0	0	0	1	0	9	0	0	2	0	0	5	0	0	0	1	2	1	4	0	0	0	3	4	0	1	1	0	8	0	0	0	0	0	2	0	0	5	1	4	2	0	0	6	2	3	1	1
OTU 37	3	0	0	2	9	0	0	0	0	0	0	1	0	1	0	0	0	0	0	0	0	0	0	4	1	1	1	0	0	0	0	0	0	0	1	0	0	0	0	0	0	0	0	0	5	0	3	0	25	0
OTU 38	3	0	1	1	0	9	0	8	0	0	2	0	3	1	0	0	2	3	0	0	0	3	0	3	0	4	0	6	0	0	0	1	2	1	1	0	0	0	0	0	0	0	1	10	3	0	1	0	0	5
OTU 39	3	1	0	0	1	0	0	0	0	0	0	0	0	1	0	0	0	0	0	0	1	0	0	0	0	0	0	0	0	0	1	0	0	0	0	0	1	0	0	0	0	2	0	1	0	0	0	1	0	6
OTU 40	0	0	0	0	6	0	10	1	2	1	0	1	0	7	0	2	1	0	0	0	3	0	0	0	4	1	0	33	0	0	1	2	1	6	0	1	0	0	1	8	1	0	0	0	2	77	12	0	2	3
OTU 41	1	0	2	0	3	2	52	1	1	3	3	0	1	1	0	0	0	4	0	3	0	1	0	0	0	1	0	7	0	0	1	0	0	0	1	0	0	0	2	0	1	3	0	0	0	0	0	0	1	0
OTU 42	0	0	1	12	0	2	2	0	0	0	0	1	1	0	0	0	0	0	0	0	0	0	0	0	0	0	0	6	0	0	0	0	0	0	0	0	0	1	0	0	0	0	3	0	2	0	0	0	0	0
OTU 43	0	0	1	0	0	0	0	0	1	0	0	0	0	0	0	0	0	0	0	0	0	0	0	0	0	0	0	0	0	0	0	0	0	0	0	0	0	0	0	0	0	0	0	0	0	0	0	0	0	0
OTU 44	0	0	0	0	0	0	0	0	2	0	2	0	0	0	0	0	0	7	0	0	0	0	3	0	0	0	0	0	1	0	0	0	0	0	0	0	0	0	0	0	0	0	0	0	1	0	151	0	1	0
OTU 45	0	3	11	4	3	2	4	0	0	4	0	1	3	1	0	0	0	0	0	0	0	0	0	0	0	1	5	1	1	1	8	7	4	0	0	3	1	2	0	5	0	0	3	2	2	2	0	5	0	1
OTU 46	21	1	2	18	0	0	0	8	0	1	1	3	11	2	0	5	1	4	4	4	0	4	1	3	9	1	1	1	1	3	5	17	1	2	5	0	0	2	6	3	0	1	0	3	46	0	1	27	7	2
OTU 47	0	1	0	0	1	0	0	0	0	0	0	0	0	0	0	0	0	0	0	0	0	0	0	0	0	0	0	0	0	4	0	0	0	0	0	0	0	0	0	0	0	1	1	0	1	0	1	0	0	3
OTU 48	4	2	0	1	8	1	0	1	0	0	0	2	6	0	1	5	0	2	0	1	2	2	0	0	0	12	1	0	0	1	0	1	2	2	1	0	1	6	0	6	0	0	1	18	9	0	0	1	1	2
OTU 49	1	0	2	0	1	4	1	1	0	1	0	0	0	1	0	0	0	1	0	0	0	1	0	144	0	0	0	1	1	0	1	0	0	0	0	3	1	0	0	2	0	0	0	0	3	2	0	0	0	2
OTU 50	1	4	1	6	6	3	0	0	2	1	1	0	1	2	0	1	0	1	0	2	17	1	4	9	1	1	1	2	1	0	2	4	1	5	0	0	0	1	0	4	15	0	5	7	0	0	2	1	0	0
OTU 51	1	0	1	0	4	0	0	2	3	1	2	0	0	0	2	0	2	8	0	0	0	0	8	1	0	2	3	3	1	9	0	0	0	0	13	1	4	1	27	2	0	18	0	0	2	1	3	1	0	2
OTU 52	2	114	3	1	5	4	1	1	8	2	2	0	5	0	4	0	1	7	0	6	5	7	13	10	2	7	4	8	2	0	6	32	0	23	8	1	6	14	9	1	6	9	4	11	3	2	1	8	0	1
OTU 53	0	0	0	0	0	0	0	0	0	0	0	0	0	0	0	0	0	0	0	0	0	0	0	0	0	0	0	0	0	0	0	0	0	0	0	0	0	0	0	0	0	0	0	0	0	0	0	0	0	0
OTU 54	0	2	2	0	0	14	5	0	0	0	3	0	3	2	1	0	0	4	0	0	0	3	2	0	0	0	2	6	0	6	4	4	1	1	1	1	1	8	0	2	3	0	1	6	0	5	1	8	0	0
OTU 55	0	0	0	0	0	0	0	0	0	0	0	0	0	0	0	0	0	0	0	0	0	0	0	0	0	0	0	0	0	0	0	0	0	0	0	0	0	0	0	0	0	0	0	0	0	0	0	0	0	0
OTU 56	0	1	1	0	0	0	0	3	0	0	0	0	0	0	0	0	0	0	0	2	0	0	2	0	0	1	1	2	0	0	0	0	1	1	1	0	0	0	0	1	0	0	1	8	1	1	0	0	0	1
OTU 57	9	3	8	3	1	2	1	1	1	0	2	0	0	9	0	6	3	2	5	0	5	2	6	2	3	8	1	2	1	8	3	3	8	0	2	1	5	0	3	6	1	1	2	2	4	2	3	1	7	3
OTU 58	0	1	1	1	2	2	1	2	0	0	0	0	1	4	0	0	0	4	1	1	7	0	0	0	0	0	0	2	0	0	1	0	7	0	0	0	0	0	0	9	0	0	0	0	0	0	0	1	1	0
OTU 59	0	0	1	0	0	0	1	2	1	0	0	0	0	2	2	0	1	3	0	0	0	0	2	0	10	0	0	1	1	0	1	0	0	3	0	2	3	2	0	0	0	0	0	1	0	1	2	0	0	0
OTU 60	0	2	0	2	1	4	0	4	1	1	4	0	3	1	0	0	1	1	0	0	3	0	7	0	5	9	0	2	0	0	4	3	1	0	4	0	3	0	2	1	1	8	0	1	7	1	0	1	0	2
OTU 61	1	1	8	3	0	42	6	4	0	8	0	2	1	5	98	0	1	4	1	0	6	0	0	5	4	1	0	6	4	0	0	5	2	0	1	5	2	0	2	6	0	3	1	6	4	0	1	1	1	0
OTU 62	0	4	0	0	0	0	0	1	0	0	0	0	0	0	0	0	0	0	0	0	0	1	0	0	2	2	1	0	0	0	0	3	3	1	0	1	1	0	0	0	0	0	0	3	1	0	0	0	0	4
OTU 63	1	0	0	0	0	0	1	0	2	2	0	0	0	0	1	0	7	0	0	0	0	5	2	3	1	0	0	0	1	0	0	7	2	3	3	2	1	5	0	1	0	0	0	0	1	4	0	4	0	0
OTU 64	8	5	4	2	2	4	3	11	1	2	2	3	2	9	0	4	1	9	2	8	2	1	9	2	0	2	1	1	0	6	1	1	3	0	2	1	10	4	7	3	3	2	0	15	24	5	3	7	8	10
OTU 65	1	0	0	1	0	0	0	0	0	0	0	0	0	0	0	0	0	0	0	0	0	0	0	0	0	0	0	0	0	0	0	0	25	0	0	0	0	0	0	0	0	0	0	0	0	0	0	0	5	0
OTU 66	0	1	0	0	0	0	0	2	4	0	0	1	3	6	1	0	0	3	4	0	5	0	3	0	0	1	1	0	1	0	0	3	0	0	0	0	6	0	3	0	0	0	3	0	1	4	0	0	1	7
OTU 67	0	1	4	1	4	9	0	0	1	1	93	0	1	2	0	1	1	1	0	0	2	0	8	0	0	0	0	1	1	0	1	0	0	0	1	0	4	1	1	1	0	1	0	0	0	0	0	0	2	2
OTU 68	0	0	3	0	0	0	2	0	1	0	0	0	2	1	1	0	0	3	3	1	6	0	0	0	5	0	0	0	0	0	0	0	0	0	0	1	0	0	0	1	0	0	0	0	0	0	0	0	1	0
OTU 69	0	0	0	0	2	5	0	6	1	5	0	0	0	19	1	0	4	0	0	0	0	0	0	0	0	3	1	1	0	8	0	7	0	0	2	195	23	3	2	9	0	2	4	8	0	2	6	6	5	3
OTU 70	0	0	4	0	0	1	1	0	1	0	0	0	0	5	0	0	0	0	0	0	0	0	3	1	0	4	0	3	0	0	1	0	0	0	0	1	1	0	0	2	0	0	0	0	0	0	1	1	1	2
OTU 71	0	4	0	0	1	0	0	0	0	2	0	7	0	0	0	17	0	3	1	2	6	0	0	0	0	0	1	4	0	0	3	1	13	0	0	1	0	1	0	2	1	0	2	4	0	0	1	0	0	0
OTU 72	1	6	1	1	1	2	0	4	1	0	0	0	6	2	1	1	2	5	1	4	2	0	1	0	0	5	6	0	0	0	7	1	0	1	0	0	0	1	1	4	0	1	2	0	0	0	5	2	1	1
OTU 73	2	0	0	1	1	1	0	2	10	0	0	2	0	0	0	0	0	0	0	1	5	0	14	2	7	0	0	1	1	0	5	0	0	2	2	0	1	0	0	1	0	1	0	0	5	0	0	1	0	0
OTU 74	1	4	0	0	0	0	1	6	0	0	1	192	2	1	0	0	0	1	0	0	0	1	1	1	10	1	0	0	0	4	5	14	4	12	0	0	25	4	0	10	6	6	0	6	2	1	1	1	3	0
OTU 75	0	0	0	0	2	1	0	2	0	3	2	0	3	2	4	0	0	2	2	0	5	0	0	6	12	3	4	5	0	2	3	0	1	0	1	0	10	1	0	2	1	0	2	1	0	4	5	0	0	0
OTU 76	1	0	0	0	0	0	1	0	0	0	0	0	0	0	0	0	2	0	0	0	0	0	0	2	1	2	0	0	0	0	0	0	0	0	0	0	0	0	1	0	0	0	0	19	0	0	0	1	0	0
OTU 77	0	2	1	0	0	3	0	0	1	0	0	0	1	0	0	0	1	0	0	0	2	4	4	2	0	4	2	90	0	2	0	4	0	0	0	0	0	2	3	3	0	2	0	0	0	0	0	8	0	0
OTU 78	2	0	0	1	11	8	3	2	0	56	1	0	0	1	0	0	0	2	28	1	1	0	0	0	4	0	0	0	1	18	0	3	0	0	0	3	4	0	0	0	0	0	0	1	1	0	0	1	0	6
OTU 79	3	38	2	1	9	6	52	41	5	4	3	2	8	1	10	3	6	4	1	57	9	7	8	0	12	3	9	2	2	15	42	7	3	11	0	2	3	0	1	1	3	2	6	3	1	0	0	0	9	8
OTU 80	0	11	13	0	2	1	3	0	60	2	1	0	3	0	2	0	0	0	0	0	3	1	110	4	2	0	16	0	2	2	1	0	2	1	0	0	0	3	0	3	1	0	0	5	2	13	2	0	0	0
OTU 81	1	9	9	1	10	7	6	0	0	5	4	0	0	0	7	1	0	4	0	0	15	1	2	1	4	1	10	7	1	1	12	1	0	1	1	2	7	3	0	2	0	0	2	1	1	4	0	2	1	0
OTU 82	3	1	0	4	5	0	2	2	0	0	0	0	1	0	0	1	0	0	6	0	2	0	5	0	0	7	0	3	0	1	0	0	0	1	4	1	1	3	1	0	2	1	0	2	3	0	1	1	1	0
OTU 83	1	0	4	0	0	0	0	0	0	1	0	0	3	0	0	0	0	0	0	0	0	0	0	0	0	0	4	0	2	0	5	4	4	0	1	1	1	1	2	0	0	0	0	0	0	2	0	0	0	0
OTU 84	0	0	0	0	0	0	0	7	0	1	50	0	1	1	0	0	0	73	0	0	0	0	0	0	1	4	3	0	0	2	0	0	1	0	2	0	0	0	7	1	1	0	0	0	6	0	3	0	0	0
OTU 85	1	0	1	0	0	0	0	0	1	0	0	0	7	0	0	0	1	0	0	0	0	0	1	1	0	0	0	0	1	1	0	0	0	1	0	1	0	0	1	11	0	0	0	9	2	0	0	0	1	2
OTU 86	0	0	0	0	2	0	0	0	0	0	0	0	0	0	0	0	0	0	0	0	0	0	0	0	0	0	0	0	0	0	0	0	0	0	0	0	0	0	0	0	0	0	0	0	0	0	0	0	0	0
OTU 87	0	0	0	0	0	0	0	0	0	0	0	0	1	0	0	0	2	0	0	58	2	0	0	0	0	0	0	3	0	3	9	0	0	0	24	0	0	0	66	0	0	25	0	0	0	0	0	0	0	0
OTU 88	0	0	0	0	0	0	0	0	1	0	0	0	0	0	1	0	0	1	0	0	0	0	0	0	0	2	0	0	0	0	0	2	0	0	0	0	0	5	0	0	0	0	0	0	0	0	0	0	0	0
OTU 89	1	0	5	0	0	1	1	3	0	0	0	0	0	5	0	1	1	0	0	0	1	0	0	0	1	3	0	0	2	0	1	0	0	0	0	0	0	3	1	0	0	0	2	0	3	2	2	1	0	0
OTU 90	0	1	0	0	0	0	0	0	0	1	0	3	0	0	0	0	0	0	0	0	0	0	0	0	0	0	0	0	0	0	0	0	0	0	1	0	3	0	0	0	0	0	0	0	0	0	0	0	0	0
OTU 91	0	0	0	0	0	0	0	0	0	1	0	0	0	0	0	0	0	0	0	0	0	38	0	0	0	0	0	0	0	0	0	55	0	0	0	0	0	23	0	0	0	2	0	0	0	0	0	1	0	0
OTU 92	1	0	3	1	0	0	2	0	0	0	0	0	0	0	0	0	0	0	0	0	1	0	0	0	0	0	0	0	1	0	0	0	3	1	0	0	0	0	0	0	1	0	0	0	0	0	0	0	0	0
OTU 93	0	0	0	0	0	0	0	0	0	0	0	0	0	0	0	0	0	0	0	0	0	0	0	0	0	0	0	0	0	0	5	0	0	0	0	0	0	0	2	0	0	0	0	0	0	0	0	0	0	0
OTU 94	8	0	14	1	0	4	4	2	9	10	2	0	0	3	2	0	5	0	0	0	6	5	38	0	12	6	1	0	6	5	0	6	3	2	0	9	5	1	3	2	0	3	0	2	4	0	7	0	6	4
OTU 95	0	0	0	0	0	0	0	0	0	55	40	0	0	0	0	0	0	1	2	0	1	2	0	0	11	2	0	0	0	0	0	0	0	0	0	0	0	0	0	0	0	0	0	0	0	0	0	0	1	3
OTU 96	0	0	0	0	0	0	0	0	0	0	2	0	0	0	0	0	0	0	0	0	1	0	0	0	0	0	0	0	0	0	0	0	19	0	0	0	0	0	0	0	0	0	0	0	0	0	0	0	0	0
OTU 97	0	0	0	0	0	0	0	0	0	1	0	2	0	0	4	0	0	0	3	0	0	0	0	0	0	0	0	0	0	0	0	0	0	1	0	0	0	0	0	0	3	0	0	0	0	0	0	0	0	0
OTU 98	0	0	0	2	0	0	0	1	0	0	0	0	0	0	4	0	0	1	0	0	1	0	0	0	0	0	4	1	0	0	0	0	6	0	0	0	0	0	0	0	0	0	0	0	3	0	1	0	1	0
OTU 99	3	0	1	2	5	5	0	0	2	0	1	0	0	2	8	1	0	5	0	2	1	4	2	2	2	2	5	3	1	0	1	6	4	2	7	1	1	5	5	1	1	3	0	3	1	0	1	0	13	0
OTU 100	0	2	2	1	0	0	2	0	3	0	3	0	0	1	0	0	0	9	0	0	0	0	3	0	0	1	0	2	0	0	0	0	1	2	0	0	2	0	0	0	0	64	0	0	0	0	1	0	0	0
OTU 101	0	0	0	1	1	0	0	0	0	0	0	0	0	1	0	0	1	0	0	0	0	0	0	0	0	0	0	0	0	0	0	0	0	0	2	0	0	0	0	0	0	0	0	0	1	0	2	0	0	0
OTU 102	0	0	2	0	0	0	3	0	1	0	0	0	0	0	0	0	32	0	0	0	0	0	3	0	1	0	1	0	2	0	0	3	0	0	0	1	0	1	0	0	0	1	0	0	0	1	0	0	0	0
OTU 103	1	30	0	0	3	0	0	0	2	4	0	0	1	0	0	0	0	0	0	0	0	2	2	0	1	1	0	0	0	0	0	0	0	0	0	0	0	2	0	1	1	1	0	1	1	0	6	0	0	1
OTU 104	112	0	73	2	0	0	47	8	1	0	7	0	6	0	0	0	1	14	0	0	8	1	2	2	1	18	1	0	52	0	0	4	8	12	51	39	3	2	3	6	3	0	3	0	2	2	0	0	11	32
OTU 105	0	0	0	0	0	0	1	0	0	0	0	0	0	4	1	0	0	0	0	0	0	0	0	0	0	0	5	0	0	0	75	0	0	0	0	0	0	0	0	0	0	0	0	0	0	0	0	0	0	0
OTU 106	2	0	3	0	0	1	1	0	1	0	1	0	0	0	2	0	0	0	0	0	1	0	4	0	3	0	1	1	2	0	0	0	0	0	0	0	0	0	0	0	0	0	0	10	5	0	0	0	0	1
OTU 107	0	0	0	0	3	0	1	0	0	0	0	0	0	1	0	0	0	0	0	0	0	0	1	0	11	0	0	0	0	0	0	0	16	3	0	0	0	0	1	0	3	0	0	1	0	0	0	23	0	1
OTU 108	0	1	0	0	0	2	0	1	0	0	0	0	0	0	1	0	13	0	0	0	0	0	0	0	2	2	5	1	0	0	1	0	0	0	0	0	1	0	0	1	2	0	1	0	1	0	1	0	0	1
OTU 109	0	0	0	0	0	0	0	0	0	0	0	0	0	0	0	0	0	0	0	0	0	0	0	0	0	0	0	0	0	0	0	0	0	0	0	1	0	0	0	0	0	0	0	0	0	0	0	0	0	0
OTU 110	3	2	1	3	2	0	1	0	0	3	0	0	6	4	0	0	0	0	0	4	0	0	0	10	7	0	2	0	0	5	11	0	5	16	1	0	1	1	2	2	7	3	0	1	0	7	0	0	1	0
OTU 111	3	0	0	0	0	11	0	0	0	0	0	0	0	0	0	0	0	0	0	0	0	2	0	0	0	0	0	0	0	0	0	4	0	0	0	0	0	0	0	0	0	0	0	0	1	0	0	0	1	0
OTU 112	0	0	0	3	0	0	0	0	1	4	2	0	0	0	0	0	0	0	0	0	0	0	1	0	0	0	0	12	0	0	0	0	5	0	0	0	0	0	0	3	0	0	1	0	0	0	0	0	3	0
OTU 113	0	2	0	0	0	0	0	2	0	0	0	0	0	0	0	0	0	0	0	0	0	0	0	0	0	0	0	1	0	0	0	0	0	0	0	0	0	0	0	0	0	0	1	0	0	0	0	0	7	0
OTU 114	3	22	12	0	3	0	1	0	0	6	3	0	5	5	7	2	0	7	0	3	5	1	1	2	5	0	10	2	6	3	2	3	12	3	3	4	5	3	0	3	2	3	0	4	3	0	4	0	2	0
OTU 115	0	0	2	3	1	4	2	5	0	6	4	1	5	0	2	3	2	10	2	2	0	2	0	1	1	5	7	0	0	8	0	1	3	5	0	0	9	2	2	2	1	5	3	10	7	1	0	8	2	1
OTU 116	1	0	1	0	0	1	1	0	1	2	1	0	3	2	0	0	1	1	0	8	4	0	1	0	0	2	2	0	1	3	1	2	3	0	4	0	0	5	1	0	1	0	2	4	0	0	2	0	0	0
OTU 117	2	1	0	0	4	4	0	22	2	0	1	1	6	0	0	1	0	2	0	0	0	0	2	0	2	2	0	0	0	5	11	0	0	0	1	0	3	2	2	0	0	2	7	0	4	0	0	2	0	4
OTU 118	0	0	0	0	0	0	0	0	0	0	0	0	0	0	0	1	1	4	0	0	0	3	0	0	0	5	0	0	0	0	0	1	0	0	0	0	0	0	0	0	0	0	0	1	0	0	0	0	0	0
OTU 119	0	0	2	4	1	1	1	0	2	2	1	0	1	0	0	0	0	2	0	0	0	0	3	0	2	0	0	0	1	3	0	2	2	1	0	0	0	2	0	3	0	0	0	1	0	1	5	2	8	4
OTU 120	3	6	0	1	5	1	0	2	0	0	13	1	0	0	0	2	0	21	1	3	0	3	2	0	1	0	0	1	0	1	2	2	6	0	0	0	0	3	0	0	0	0	3	0	0	0	0	0	1	1
OTU 121	0	2	0	3	1	0	0	0	0	0	0	0	0	3	2	0	2	0	0	0	0	0	0	0	3	1	2	2	2	1	2	1	0	2	0	0	0	0	0	1	0	0	0	1	1	2	0	3	0	7
OTU 122	1	3	4	1	0	0	0	2	0	1	5	0	0	6	0	1	0	1	0	0	0	2	4	0	2	1	0	0	2	0	5	1	11	0	0	1	0	0	0	0	3	0	2	8	1	0	0	0	0	0
OTU 123	11	2	14	7	12	7	13	2	85	4	7	5	1	1	3	5	4	12	6	11	17	12	19	12	1	5	12	7	5	3	8	31	5	10	3	2	1	31	12	18	2	9	10	5	16	49	21	26	3	5
OTU 124	0	0	0	0	0	0	0	7	1	1	0	0	0	4	0	0	0	1	0	0	1	0	3	1	1	2	0	0	0	0	0	0	0	0	1	0	0	0	0	1	0	0	0	0	0	1	1	0	0	1
OTU 125	4	2	13	1	3	8	1	5	0	30	6	0	17	8	0	1	35	3	0	1	3	2	3	1	3	6	2	8	2	28	5	3	6	0	1	15	3	2	3	4	4	7	23	2	10	4	10	3	0	6
OTU 126	0	0	0	0	0	0	0	0	0	0	0	0	0	0	3	0	0	0	0	0	0	1	0	0	0	3	2	0	18	0	0	0	0	0	0	0	0	3	0	0	0	0	0	0	0	0	0	0	0	0
OTU 127	0	0	1	0	2	1	0	0	0	0	0	1	4	0	0	0	2	0	89	1	3	0	3	4	0	2	0	1	0	3	0	0	0	0	0	0	0	1	0	1	0	0	3	0	0	0	0	2	5	0
OTU 128	8	2	18	11	4	16	48	10	1	20	4	2	2	6	48	5	0	5	6	72	13	4	1	7	12	2	21	12	17	6	12	5	4	20	0	9	7	5	4	7	12	97	5	1	23	25	5	10	6	2
OTU 129	0	0	0	0	0	0	0	0	0	0	0	0	0	0	0	0	1	0	0	0	0	1	0	0	0	0	1	0	0	4	0	4	0	0	0	0	0	0	0	0	0	0	0	0	0	1	0	0	0	1
OTU 130	0	2	1	0	0	0	0	0	0	0	0	0	11	8	0	0	0	0	0	0	0	0	0	0	4	2	4	0	2	0	0	1	3	0	0	1	0	0	0	2	0	1	2	6	0	3	0	0	0	2
OTU 131	0	1	0	0	1	0	0	3	0	0	13	0	6	0	0	0	0	21	0	0	0	0	0	1	1	10	0	1	0	0	1	0	9	0	0	0	14	0	0	1	0	0	0	0	2	0	0	39	3	2
OTU 132	1	1	0	0	1	0	0	5	0	7	1	0	0	1	1	0	1	7	0	3	0	0	0	0	0	0	4	3	0	0	0	3	0	0	0	0	5	0	4	0	0	0	0	0	13	0	1	0	0	0
OTU 133	0	0	0	0	0	0	0	0	0	0	1	1	2	0	0	0	0	0	0	0	0	0	0	0	0	0	0	1	0	0	0	1	0	4	0	0	0	0	0	0	1	0	0	0	0	0	0	0	117	0
OTU 134	0	2	0	5	2	0	0	2	1	4	1	0	0	0	4	0	0	4	0	0	1	4	3	0	4	0	2	0	0	12	0	5	0	0	0	0	0	1	0	0	0	1	1	2	3	1	0	0	1	1
OTU 135	0	1	0	5	6	2	0	1	1	0	0	25	0	0	9	55	20	0	42	2	0	1	4	0	0	2	11	0	0	59	0	2	4	0	0	1	0	2	0	0	1	0	39	0	5	5	1	6	0	0
OTU 136	0	0	1	2	2	10	1	0	0	0	4	0	0	0	1	0	0	1	0	0	0	0	0	0	3	1	0	0	2	1	0	0	1	0	0	0	0	0	2	1	0	0	0	0	0	0	0	2	1	2
OTU 137	0	2	0	2	5	0	0	3	0	0	0	0	0	0	0	0	0	0	0	3	0	103	0	0	2	0	0	0	0	0	0	2	0	0	1	0	0	0	0	0	1	4	0	0	0	0	0	0	1	1
OTU 138	0	0	1	0	0	0	0	0	1	8	0	0	0	18	0	1	0	0	0	1	1	0	2	4	1	1	0	1	0	4	0	0	0	1	0	1	0	0	0	0	0	0	0	0	0	0	3	1	0	0
OTU 139	1	1	14	4	0	4	8	1	0	3	0	2	0	2	1	1	0	0	0	14	4	0	0	1	22	31	1	6	11	2	5	0	2	1	1	5	3	1	8	0	3	1	0	8	11	0	0	1	0	0
OTU 140	3	2	0	5	1	8	0	0	1	2	1	0	5	16	14	0	4	0	0	2	4	1	1	1	3	17	30	5	0	5	1	2	1	7	2	0	0	1	2	4	1	0	6	30	4	10	8	2	1	7
OTU 141	0	0	0	0	0	0	0	0	0	0	0	0	0	3	0	0	0	0	0	0	0	0	0	0	0	0	0	0	0	0	0	0	0	0	0	0	0	0	0	1	0	0	0	0	0	1	0	0	0	0
OTU 142	0	0	0	0	1	0	0	0	0	0	0	0	0	0	0	0	0	0	0	3	0	0	0	0	0	0	0	0	0	0	0	0	0	0	0	0	0	0	0	0	0	0	0	4	0	0	0	0	0	0
OTU 143	0	0	0	0	0	1	0	0	0	0	0	1	1	0	1	1	0	0	0	0	0	0	0	0	0	0	3	0	0	0	0	0	0	0	0	0	0	0	0	0	0	0	0	4	0	0	0	0	0	0
OTU 144	0	3	4	0	2	0	5	0	3	1	0	0	1	3	0	0	0	0	0	2	0	0	0	0	0	0	0	0	2	0	0	0	0	0	0	1	0	0	0	0	0	0	0	0	0	1	2	0	0	1
OTU 145	1	0	1	0	6	1	3	2	4	0	1	0	0	2	0	1	1	0	0	0	0	3	3	0	6	4	0	0	1	0	0	1	3	4	1	0	2	4	0	3	3	0	3	3	1	1	0	6	3	5
OTU 146	0	1	2	0	9	0	0	2	0	2	0	0	15	1	3	0	2	2	0	0	2	0	0	3	10	2	10	1	0	0	0	0	3	1	0	0	4	0	2	0	0	0	0	1	1	1	0	0	0	7
OTU 147	1	1	0	4	0	0	0	1	0	0	0	0	0	0	0	2	1	0	2	0	0	0	0	0	0	0	0	0	0	0	0	0	0	0	0	0	0	1	0	0	0	1	0	5	0	0	0	3	0	0
OTU 148	1	3	3	0	1	1	0	1	0	0	0	0	0	1	4	0	0	2	0	0	6	5	0	7	1	0	6	0	1	1	6	15	10	2	0	4	2	3	0	17	0	0	1	3	2	6	0	8	0	1
OTU 149	1	0	0	0	0	4	0	1	0	0	0	0	30	0	0	0	0	0	0	0	0	1	0	0	2	0	0	0	0	0	0	0	0	0	0	0	0	0	0	1	0	0	3	0	0	0	3	0	1	11
OTU 150	0	0	1	1	0	0	0	0	0	0	0	0	0	0	0	1	1	0	0	0	0	0	2	0	1	7	1	0	0	1	2	0	0	0	0	0	0	0	0	2	0	0	0	0	0	3	0	0	0	0
OTU 151	0	0	0	0	1	0	0	1	0	0	0	0	0	0	0	0	0	0	0	2	0	0	0	0	3	0	0	1	106	2	0	0	3	0	0	0	0	0	0	1	0	0	0	0	0	0	1	0	0	1
OTU 152	0	1	1	1	0	4	3	2	0	1	5	0	0	2	0	0	0	4	1	5	7	4	0	1	20	10	1	3	0	3	1	2	1	0	5	0	4	2	8	1	3	2	2	1	0	1	0	0	1	0
OTU 153	0	0	0	0	0	0	0	0	0	0	0	0	0	0	0	0	0	0	0	0	0	0	0	0	0	0	0	0	0	0	0	4	0	0	0	0	0	0	0	0	0	0	0	0	0	0	0	0	0	0
OTU 154	0	0	0	0	0	0	0	0	0	0	0	0	0	0	0	0	0	0	0	0	0	0	0	8	0	0	0	0	0	0	0	0	0	13	0	0	0	0	0	0	5	0	0	0	0	0	0	0	1	0
OTU 155	0	0	0	0	1	5	0	2	2	0	0	0	4	0	0	0	91	1	0	0	0	0	1	1	0	0	0	0	0	2	2	3	0	0	0	0	0	0	0	0	1	1	2	3	0	0	0	0	0	0
OTU 156	0	2	2	0	1	1	4	20	0	6	2	0	1	1	2	0	7	2	0	0	0	2	1	1	4	5	0	0	2	4	1	5	3	2	1	2	3	4	1	12	0	0	0	1	0	0	0	1	0	0
OTU 157	0	0	0	13	1	0	0	0	0	0	0	0	0	0	0	0	0	0	0	0	0	2	1	0	0	4	1	1	0	0	0	0	0	0	0	0	0	0	0	0	1	0	0	0	0	0	0	0	1	0
OTU 158	0	0	2	0	0	2	2	0	0	0	0	0	1	0	0	0	2	0	0	0	0	0	0	0	0	0	0	0	1	4	0	0	0	0	0	2	0	0	0	0	0	0	0	0	0	1	0	0	0	0
OTU 159	0	0	0	0	7	2	0	1	0	0	3	1	5	0	0	0	5	1	0	0	0	0	1	0	0	2	0	0	0	3	1	1	2	0	0	0	24	4	1	3	0	1	2	0	1	0	0	63	0	2
OTU 160	5	1	9	0	1	5	1	3	1	2	1	7	3	0	2	10	10	1	6	4	4	0	3	6	6	4	7	2	5	2	4	0	1	3	0	11	10	2	0	3	1	0	0	10	5	1	0	7	4	3
OTU 161	0	0	0	0	0	0	0	3	0	0	0	0	0	0	6	1	1	0	1	0	0	0	0	1	0	0	6	0	0	0	0	3	1	0	0	0	1	0	2	0	1	2	0	2	0	0	1	1	0	0
OTU 162	1	1	0	3	1	1	0	16	0	0	4	1	3	3	1	4	0	2	0	0	16	0	0	2	3	4	2	0	0	4	0	1	0	0	0	0	0	1	0	1	0	0	1	0	1	0	1	1	1	2
OTU 163	0	0	0	0	0	0	0	0	0	0	0	0	2	0	0	0	0	0	0	0	1	0	0	0	0	0	0	0	0	0	0	0	0	0	0	0	0	0	0	0	0	0	0	0	0	0	0	0	0	0
OTU 164	0	0	0	0	0	0	0	0	0	0	0	0	0	0	0	2	0	0	1	0	0	0	0	0	0	0	0	0	0	0	0	0	0	0	0	0	0	0	0	1	0	0	0	0	0	0	0	0	0	0
OTU 165	0	0	0	0	0	0	0	3	0	1	0	1	0	0	0	0	0	0	0	0	14	0	2	1	0	0	0	0	0	1	3	0	1	1	0	0	0	2	3	0	1	2	1	1	0	9	0	0	5	2
OTU 166	37	0	0	0	0	0	0	0	0	0	0	0	0	0	0	0	0	0	0	0	0	0	0	0	0	0	0	0	0	0	0	0	0	0	0	0	0	2	0	0	0	0	0	0	0	0	0	0	0	0
OTU 167	0	0	0	0	0	0	0	4	0	0	0	0	0	4	0	0	0	0	0	0	1	0	0	0	0	1	4	1	0	0	0	0	0	0	0	0	1	0	0	1	0	0	0	2	0	2	7	4	1	1
OTU 168	1	0	0	0	0	1	0	0	0	1	0	0	0	0	1	0	0	0	0	0	0	1	0	0	0	2	0	0	0	0	0	0	0	0	0	0	1	0	0	1	2	0	0	0	5	3	0	0	0	0
OTU 169	0	0	0	0	0	0	0	0	0	0	0	0	0	0	0	0	0	0	0	0	0	1	0	0	0	0	0	0	0	0	0	2	1	2	0	1	0	2	1	0	0	0	0	0	0	0	0	0	0	0
OTU 170	0	0	6	0	0	0	0	1	0	0	0	0	0	0	0	0	0	0	0	0	0	0	0	0	0	0	0	0	0	0	0	0	4	0	0	3	0	0	0	0	0	0	0	0	0	0	0	0	0	0
OTU 171	4	0	3	1	2	21	2	0	0	1	0	0	0	0	0	1	0	0	1	4	1	1	3	9	0	1	0	0	0	0	7	1	0	5	4	2	0	0	0	1	0	2	0	1	5	0	1	0	0	0
OTU 172	0	0	0	0	0	0	0	0	0	0	0	0	0	0	1	0	0	0	0	0	0	0	0	1	0	0	4	0	0	0	0	0	0	2	0	0	0	0	0	0	5	0	0	1	1	0	0	0	0	0
OTU 173	0	0	0	0	0	0	0	2	0	1	0	0	0	0	0	0	9	0	0	1	0	0	0	0	1	0	0	0	0	11	0	0	0	0	0	0	2	0	0	0	0	0	12	0	0	0	0	1	0	0
OTU 174	0	1	0	1	90	2	0	0	0	3	0	0	0	0	0	0	0	0	0	0	7	0	0	1	3	0	2	0	0	2	0	0	0	0	0	1	0	0	0	2	0	0	0	1	1	0	0	21	1	1
OTU 175	2	0	2	0	2	0	0	1	0	0	0	0	2	0	2	0	1	0	0	0	0	0	0	0	0	0	0	0	4	0	0	0	1	2	4	0	0	0	1	2	0	0	0	1	0	0	0	0	3	0
OTU 176	0	3	0	2	2	3	1	0	1	0	2	0	0	0	1	0	6	0	1	2	3	4	0	0	2	4	2	0	0	0	1	7	0	1	0	0	0	2	4	0	0	0	0	1	0	1	2	0	3	1
OTU 177	0	1	1	0	3	1	4	2	0	1	1	0	4	1	1	0	0	0	0	1	3	0	0	0	4	1	2	0	2	1	0	2	0	6	0	0	0	4	0	2	3	0	0	7	5	2	0	0	0	2
OTU 178	0	0	0	0	7	10	1	1	0	0	1	1	0	4	0	0	1	5	1	0	0	0	0	0	2	0	0	2	0	7	0	0	0	0	0	0	0	1	1	0	1	0	0	0	0	0	2	2	0	0
OTU 179	0	0	0	0	0	5	0	3	1	0	0	0	0	0	0	1	0	0	0	0	1	4	0	0	0	0	0	1	0	3	0	0	1	0	0	0	0	0	1	0	0	0	0	0	0	0	0	0	0	0
OTU 180	0	3	0	7	1	10	3	6	9	1	2	0	1	12	0	1	1	12	0	1	5	0	2	7	0	16	3	24	27	9	3	0	4	5	0	0	4	1	0	6	1	5	4	1	2	6	19	5	40	5
OTU 181	1	0	1	0	5	5	0	8	0	2	0	0	0	2	2	0	2	1	0	0	3	0	0	0	3	0	3	0	3	5	0	0	0	0	0	0	4	0	0	0	2	2	0	8	3	0	0	0	0	0
OTU 182	0	0	0	0	0	0	0	0	0	0	0	0	0	0	0	0	0	0	0	0	0	0	0	0	0	1	0	0	0	0	0	0	0	7	0	0	0	0	0	0	0	0	0	0	0	0	0	0	0	4
OTU 183	0	2	0	4	0	0	0	1	0	15	0	0	4	1	2	1	2	0	7	1	8	24	2	1	1	0	4	3	0	0	2	1	2	0	0	0	0	3	0	1	0	5	1	0	1	0	0	3	2	22
OTU 184	0	3	10	0	0	1	1	1	0	0	0	0	0	1	0	0	0	0	0	1	0	0	0	1	0	0	0	0	4	7	2	0	2	0	1	1	0	0	6	2	2	1	0	0	5	0	0	2	4	0
OTU 185	3	0	0	1	10	1	0	0	0	2	4	4	0	0	0	4	0	5	41	14	9	0	1	2	1	1	0	4	2	2	0	2	3	3	2	3	2	1	2	8	2	0	3	5	6	0	0	3	12	0
OTU 186	0	0	2	0	0	0	0	3	0	0	0	62	0	0	0	132	0	0	0	0	0	0	0	3	0	0	0	1	1	5	0	0	0	0	0	4	1	0	0	0	0	0	1	0	0	0	0	0	0	6
OTU 187	1	0	4	2	1	2	7	2	2	3	0	0	1	4	0	0	1	0	0	1	4	0	2	1	3	0	2	0	3	1	2	2	0	3	3	1	3	0	0	6	0	1	108	2	5	1	2	6	0	2
OTU 188	0	3	1	1	4	7	2	2	0	0	0	3	0	2	1	3	0	2	3	0	3	3	2	3	2	6	3	5	0	0	1	0	1	1	1	2	1	3	0	4	7	3	0	1	0	0	0	4	0	3
OTU 189	1	6	2	1	5	0	0	5	1	6	20	4	0	6	0	3	1	2	3	2	2	48	0	1	1	2	1	3	1	0	1	0	3	0	0	2	1	1	2	5	1	0	6	0	2	0	1	0	2	79
OTU 190	0	0	2	0	0	0	1	0	0	0	0	0	39	0	1	0	0	0	0	0	0	0	0	0	0	0	0	0	2	0	0	0	0	0	0	1	0	0	0	0	125	0	20	0	0	0	0	0	0	0
OTU 191	4	0	2	3	0	2	5	12	2	0	1	3	1	51	1	2	1	0	0	0	0	4	0	0	0	0	3	3	0	7	2	2	0	0	3	4	1	1	3	3	0	0	1	0	9	0	20	0	8	5
OTU 192	0	1	6	51	2	0	1	8	2	3	0	20	0	6	9	55	0	5	50	6	12	1	4	0	3	3	19	1	3	0	1	0	0	0	0	2	0	2	1	19	1	1	0	11	1	4	0	0	1	0
OTU 193	0	1	2	0	2	8	0	11	0	1	2	0	0	0	0	0	0	1	0	1	3	0	2	4	4	0	4	8	0	2	7	1	4	1	0	0	3	0	0	6	2	1	0	0	0	0	0	1	0	6
OTU 194	0	0	0	0	4	0	0	0	0	2	1	0	1	1	0	1	0	0	3	0	0	0	0	0	5	0	0	0	0	0	0	0	1	0	0	0	0	0	0	2	0	0	0	0	0	0	3	0	0	0
OTU 195	0	9	0	0	0	0	0	5	108	1	0	1	2	0	1	0	0	1	3	0	0	0	1	3	0	0	0	1	0	1	5	0	3	2	0	0	0	0	1	0	1	0	1	0	7	3	2	2	0	0
OTU 196	0	0	0	1	0	0	1	0	0	2	0	0	1	0	0	0	0	3	0	0	0	0	1	0	2	2	0	8	2	0	10	0	0	0	0	3	2	0	0	1	1	0	0	0	1	0	1	2	0	0
OTU 197	37	0	1	0	1	3	2	1	0	13	5	0	5	0	6	0	2	3	3	1	3	1	0	11	0	5	4	0	1	1	12	0	10	9	8	1	2	4	1	14	2	1	2	14	3	1	1	0	2	2
OTU 198	0	0	8	0	0	0	2	3	0	0	0	0	0	0	0	0	1	0	0	1	0	0	0	0	1	1	1	1	1	0	3	0	0	2	0	5	1	0	0	0	0	0	0	0	1	0	0	0	3	0
OTU 199	0	0	0	140	0	4	3	0	0	1	0	0	0	10	0	0	1	0	0	2	0	0	1	0	3	0	3	1	0	0	2	0	0	0	0	0	0	0	0	0	0	0	0	0	0	0	2	0	1	1
OTU 200	1	0	0	0	0	4	1	4	0	1	0	2	1	4	0	1	0	4	0	1	1	0	0	0	1	0	3	0	0	3	1	1	0	0	0	0	1	0	0	0	1	0	4	3	0	1	1	1	1	0
