	Host 1	Host 2	Host 3	Host 4	Host 5	Host 6	Host 7	Host 8	Host 9	Host 10	Host 11	Host 12	Host 13	Host 14	Host 15	Host 16	Host 17	Host 18	Host 19	Host 20	Host 21	Host 22	Host 23	Host 24	Host 25	Host 26	Host 27	Host 28	Host 29	Host 30	Host 31	Host 32	Host 33	Host 34	Host 35	Host 36	Host 37	Host 38	Host 39	Host 40	Host 41	Host 42	Host 43	Host 44	Host 45	Host 46	Host 47	Host 48	Host 49	Host 50	
OTU 1	7	14	0	0	11	3	6	3	4	4	0	23	1	3	1	0	2	2	3	1	21	4	4	17	0	0	10	1	5	1	0	1	1	9	0	4	4	3	2	2	4	0	0	0	17	4	23	5	1	26
OTU 2	0	2	0	1	0	0	0	0	2	1	0	0	0	1	0	0	0	2	0	0	0	3	0	0	0	0	0	9	0	1	0	0	0	0	0	0	0	0	0	0	0	0	2	0	0	0	0	0	0	0
OTU 3	0	1	0	0	0	0	2	0	1	3	0	0	1	0	0	0	0	0	0	0	0	0	0	1	1	0	0	1	0	0	1	0	0	3	0	0	0	0	0	2	0	0	1	0	0	0	0	0	0	0
OTU 4	0	0	0	0	0	0	0	0	0	0	0	0	0	0	0	0	0	0	0	0	0	0	0	0	0	0	0	0	0	0	0	0	0	0	0	0	0	0	0	0	0	0	0	0	0	0	0	0	0	0
OTU 5	24	1	43	3	1	40	12	23	9	1	33	6	3	2	0	1	21	14	26	14	9	19	8	5	1	5	12	0	14	50	4	30	25	13	0	6	0	7	1	75	3	3	0	38	32	6	9	2	2	13
OTU 6	0	1	0	0	0	0	0	0	0	0	0	0	9	0	0	0	0	0	3	5	0	3	0	1	3	1	0	2	0	0	1	4	0	2	9	0	1	0	1	0	0	0	0	0	0	0	0	0	0	0
OTU 7	0	1	10	2	2	2	2	0	6	13	1	0	11	0	0	1	0	0	13	45	5	1	4	1	1	1	3	1	2	2	24	7	6	6	0	10	6	7	0	1	2	0	1	0	1	1	0	9	3	3
OTU 8	11	11	0	0	3	71	0	25	67	6	0	3	5	5	3	5	3	1	2	3	4	7	3	0	5	0	4	4	28	0	3	3	0	0	3	0	52	3	2	2	0	1	0	5	1	28	2	2	2	2
OTU 9	4	5	0	0	0	0	0	0	0	1	0	0	0	0	2	0	2	0	0	6	0	0	0	0	0	1	15	0	0	0	0	0	1	11	0	0	1	17	0	0	0	0	1	0	0	0	0	2	0	0
OTU 10	1	0	0	0	0	0	0	1	0	2	0	0	0	1	0	1	0	0	6	1	0	0	0	0	8	6	0	0	0	0	0	0	0	0	0	0	1	0	0	1	0	56	0	0	0	1	1	1	39	0
OTU 11	2	0	3	0	3	0	1	1	0	0	0	0	0	5	0	3	0	0	1	0	0	1	0	1	8	0	1	1	0	0	2	1	1	0	1	1	0	2	1	0	0	0	4	0	1	0	2	2	1	0
OTU 12	1	0	0	0	0	0	0	1	0	1	2	0	4	7	0	9	2	0	2	0	0	1	0	1	3	0	6	0	5	3	3	0	10	3	0	0	0	1	2	5	0	2	0	5	0	0	1	3	7	0
OTU 13	0	1	0	0	0	0	0	0	0	1	0	0	0	0	0	0	0	0	0	0	0	0	0	0	0	0	0	0	0	0	0	8	0	0	0	0	0	0	0	1	0	0	0	0	0	0	0	0	0	0
OTU 14	1	1	1	0	0	0	1	0	0	0	0	0	0	0	1	0	0	0	1	1	0	0	0	0	0	21	0	0	0	0	0	0	3	0	2	2	0	0	0	0	0	4	4	1	0	0	0	3	6	0
OTU 15	0	0	0	0	0	0	0	0	0	0	0	0	3	0	0	0	0	0	0	0	0	0	0	0	0	0	0	0	0	0	0	0	0	0	0	0	0	0	0	0	0	3	0	0	0	0	0	0	1	0
OTU 16	0	0	0	0	0	0	0	0	0	0	0	0	0	0	0	0	0	0	0	0	0	0	0	0	0	0	0	0	0	1	0	0	0	0	0	0	0	0	0	0	0	0	0	0	0	0	0	0	0	0
OTU 17	1	0	5	0	1	0	0	0	1	0	1	0	0	0	0	2	1	0	0	0	0	2	1	2	1	0	0	7	0	0	0	0	0	1	4	0	0	0	0	0	0	0	1	0	0	4	1	0	10	0
OTU 18	0	3	2	3	1	9	185	4	8	3	1	3	1	1	5	1	2	0	3	9	4	1	0	9	7	1	3	1	3	3	0	0	3	4	1	0	18	0	8	0	0	0	4	10	0	5	2	1	0	9
OTU 19	0	0	0	0	0	0	0	0	0	0	0	0	0	0	0	0	0	0	0	0	0	0	0	0	0	0	1	0	0	0	0	0	0	0	0	0	0	0	0	0	0	0	0	0	0	0	0	0	0	0
OTU 20	8	2	0	3	0	0	0	0	0	2	0	0	1	0	0	1	0	0	0	0	0	0	1	0	0	5	0	2	0	0	0	0	1	1	0	1	13	0	1	0	0	0	29	0	2	1	0	1	0	0
OTU 21	0	1	11	0	1	2	4	0	1	0	14	0	1	0	6	1	0	0	0	0	0	4	1	7	1	0	1	0	0	1	2	0	14	0	0	4	0	0	0	0	1	0	2	2	0	0	0	2	2	0
OTU 22	1	2	0	1	1	0	2	0	0	1	0	0	8	1	0	1	0	0	0	4	1	0	0	6	0	1	2	4	0	0	0	2	0	0	4	0	3	1	3	0	0	2	5	0	0	0	0	0	0	1
OTU 23	2	0	0	0	3	7	0	3	0	0	0	1	0	0	1	1	0	2	0	0	0	1	3	0	0	0	0	3	2	1	0	0	2	0	1	0	0	0	0	0	2	0	1	0	0	0	1	0	3	3
OTU 24	0	0	0	4	0	2	0	1	0	1	0	2	0	0	3	1	0	0	1	0	0	0	0	0	0	1	2	0	0	1	0	0	0	0	1	0	0	2	2	0	0	0	2	0	1	1	0	2	1	0
OTU 25	0	0	0	0	0	0	0	0	0	0	0	0	4	0	0	0	0	0	8	0	0	1	0	0	0	0	0	0	0	0	0	0	0	0	0	0	0	0	0	0	0	0	0	0	0	0	0	0	0	0
OTU 26	0	0	1	0	0	0	0	0	0	0	0	0	0	0	0	0	0	0	0	0	0	2	0	0	0	0	0	0	0	0	0	0	0	0	0	0	0	0	0	0	0	1	1	1	1	0	0	0	0	0
OTU 27	0	0	0	0	0	0	0	0	0	0	0	0	0	0	0	0	0	0	0	0	0	0	0	0	0	0	0	0	0	0	0	0	0	0	0	0	0	0	3	0	0	0	0	0	0	0	0	0	0	0
OTU 28	2	4	1	2	8	0	1	0	0	0	0	0	3	18	1	21	2	0	3	3	0	5	0	0	88	1	1	2	0	1	11	2	0	2	1	0	0	0	0	0	0	6	5	0	0	0	0	4	2	0
OTU 29	3	2	0	0	0	4	2	0	0	0	3	0	2	0	4	1	0	0	2	0	1	0	0	3	0	1	6	1	1	0	0	5	0	0	2	3	0	0	4	2	1	0	0	3	0	0	3	5	0	1
OTU 30	0	0	0	0	0	0	0	0	0	0	0	0	0	0	12	0	0	0	0	0	0	0	0	0	0	0	0	0	0	0	0	0	0	0	0	0	0	0	0	0	0	0	0	0	0	0	0	0	0	0
OTU 31	8	1	6	0	0	0	0	0	2	12	2	1	1	1	0	1	7	0	12	1	0	0	17	0	0	0	1	0	2	0	7	0	1	0	2	0	1	0	1	4	6	0	0	0	0	1	1	4	1	2
OTU 32	3	0	0	113	0	0	0	0	0	1	0	2	0	9	2	2	4	3	4	5	1	2	0	0	6	1	0	4	2	0	0	1	2	1	0	0	0	2	15	5	1	0	33	2	1	0	4	0	1	1
OTU 33	0	0	0	0	0	0	0	0	0	0	0	0	0	0	0	0	4	0	0	0	0	0	0	0	0	0	0	0	0	0	0	0	0	0	1	0	0	0	0	0	0	0	0	0	0	0	0	0	0	0
OTU 34	44	0	0	0	0	1	0	0	0	1	1	0	3	2	0	0	7	0	0	0	0	1	1	0	0	1	0	0	22	1	3	0	1	0	0	0	0	0	1	5	6	1	0	2	0	1	0	0	0	0
OTU 35	0	0	1	6	1	0	1	0	5	11	18	1	0	1	0	0	0	2	3	0	2	1	1	2	4	0	0	4	0	0	0	2	4	2	1	1	0	0	3	0	0	1	0	0	0	1	1	0	5	1
OTU 36	4	0	5	0	4	0	0	0	49	2	0	2	0	0	1	0	0	0	3	0	0	0	4	0	0	0	3	3	0	0	0	3	0	0	0	0	0	1	1	0	0	0	0	1	0	14	1	2	1	0
OTU 37	0	0	0	0	0	0	0	0	0	0	0	0	0	0	0	0	0	0	0	0	0	0	0	0	0	0	0	0	0	0	0	0	0	0	0	1	0	0	0	0	0	0	0	0	1	0	0	0	0	0
OTU 38	7	2	5	0	17	0	5	1	0	3	0	0	0	5	0	1	7	7	0	0	0	0	2	6	3	0	4	7	0	1	0	38	1	2	0	3	1	5	0	1	8	3	6	0	0	2	0	5	6	1
OTU 39	0	0	0	0	0	0	0	0	0	0	0	0	0	0	0	0	0	0	0	0	0	2	1	0	1	0	0	0	0	0	0	0	0	0	0	0	0	0	0	0	0	1	0	0	0	1	0	1	7	0
OTU 40	0	5	6	0	1	6	0	2	0	0	2	0	7	9	1	5	0	0	0	0	0	1	0	1	0	4	10	0	2	7	4	0	4	0	0	1	2	1	0	0	0	0	6	1	0	1	0	2	0	1
OTU 41	1	0	0	0	0	0	0	0	0	1	0	2	3	4	2	0	0	3	0	5	0	1	1	0	0	0	1	0	1	1	7	0	4	0	3	0	0	0	0	0	0	0	2	2	0	0	0	1	1	1
OTU 42	0	0	18	3	3	0	2	0	0	0	0	0	0	0	34	2	0	0	0	1	0	0	1	0	0	0	0	2	0	4	1	0	0	0	0	0	0	0	0	0	0	3	0	0	0	0	0	0	0	0
OTU 43	0	0	0	1	0	0	0	0	0	0	0	0	0	0	0	0	0	0	0	0	0	0	0	0	0	0	0	0	0	0	0	0	0	0	0	0	0	0	0	0	0	0	0	0	0	0	0	0	0	0
OTU 44	2	1	0	0	0	0	0	0	0	2	0	0	0	0	0	0	0	0	4	0	0	1	0	0	0	0	1	0	0	0	0	0	0	0	0	0	0	0	0	0	1	0	1	0	6	0	0	0	0	0
OTU 45	5	0	0	0	2	0	4	0	0	0	0	1	0	0	10	1	0	0	2	0	1	3	1	4	3	0	2	0	0	4	0	0	1	1	23	1	3	0	0	0	0	1	1	1	0	0	0	0	0	2
OTU 46	1	1	1	0	3	0	4	0	0	1	0	0	0	0	7	0	0	3	2	0	0	0	3	7	17	2	7	6	0	6	11	2	1	0	0	1	2	0	0	2	2	1	3	1	0	1	0	1	2	0
OTU 47	0	0	0	0	0	0	0	0	0	0	0	0	0	0	0	9	0	0	0	0	0	0	0	1	0	0	0	0	0	0	0	1	0	0	0	0	2	0	0	0	0	0	0	0	0	0	1	0	0	0
OTU 48	3	2	0	0	0	1	1	0	0	5	0	1	1	1	6	2	0	0	1	1	0	10	4	3	0	2	0	1	0	1	0	1	1	0	5	0	1	0	0	0	0	4	13	3	0	0	0	0	0	0
OTU 49	3	1	0	0	2	0	0	0	0	0	0	0	0	10	0	2	1	0	0	1	0	0	0	0	0	0	1	0	0	0	0	0	0	0	0	0	0	0	4	26	0	3	0	0	0	0	0	0	4	0
OTU 50	2	1	0	0	2	2	4	0	0	0	0	0	4	5	7	1	0	15	4	3	0	1	0	7	3	0	0	76	0	1	4	18	0	16	1	0	3	0	0	0	1	0	0	2	0	0	0	1	4	0
OTU 51	1	0	0	0	0	0	3	1	0	0	0	0	1	0	3	0	0	1	5	0	0	5	0	1	1	0	1	0	1	3	0	0	0	1	7	1	0	0	0	0	0	0	0	0	0	0	8	0	1	0
OTU 52	2	9	0	2	0	0	1	1	1	1	8	1	3	2	1	3	4	6	9	1	82	3	1	3	3	0	0	14	1	12	1	0	5	1	2	2	4	102	3	0	2	0	7	6	0	3	1	2	0	2
OTU 53	0	0	0	0	1	0	0	0	0	0	0	0	0	0	0	0	0	0	0	1	0	0	0	0	0	0	0	0	0	0	0	0	0	0	0	0	0	0	0	1	0	0	0	0	0	0	0	0	0	0
OTU 54	2	5	0	0	41	0	1	0	3	5	1	1	1	17	0	13	5	1	8	1	0	19	0	2	8	9	0	3	0	2	2	1	8	0	0	1	3	1	0	5	4	0	6	11	0	0	1	2	6	1
OTU 55	0	0	0	0	0	0	0	0	0	0	0	0	0	0	0	0	0	0	0	0	0	0	0	0	0	0	0	0	0	0	0	0	0	0	0	0	0	0	0	0	0	0	0	0	0	0	0	0	0	0
OTU 56	0	0	0	0	0	0	0	0	0	0	0	0	0	0	1	0	2	1	0	2	0	0	0	0	2	0	1	0	0	0	0	0	0	1	1	0	0	0	0	2	4	1	1	1	0	0	0	0	0	0
OTU 57	20	3	1	1	2	7	0	0	1	9	1	2	5	31	2	5	4	1	0	5	1	39	7	4	3	2	0	3	1	2	36	1	0	2	10	2	3	3	1	0	0	3	5	5	0	1	2	2	1	2
OTU 58	0	0	0	0	0	1	1	1	0	0	6	0	0	0	1	0	0	0	0	0	0	1	0	2	1	0	3	3	2	1	0	0	0	0	5	0	7	1	0	62	0	1	0	0	0	0	0	0	0	3
OTU 59	0	4	1	2	0	0	3	0	0	0	3	3	4	0	0	1	0	0	0	3	3	1	4	7	2	2	4	10	0	0	0	0	0	9	0	2	0	8	0	0	6	2	0	2	2	0	2	2	1	3
OTU 60	1	0	10	1	1	1	1	0	0	1	2	0	2	3	1	2	1	2	1	0	0	1	1	0	3	79	6	5	0	8	1	1	3	0	0	2	1	0	2	4	0	1	2	1	1	0	0	74	2	2
OTU 61	0	4	0	0	2	3	1	132	1	0	2	0	1	1	2	2	0	1	5	3	4	21	1	1	2	0	1	1	0	1	0	1	0	0	12	0	0	17	3	0	5	0	2	0	0	0	1	0	0	2
OTU 62	2	0	0	0	1	1	0	0	3	0	1	0	0	0	0	0	0	15	0	0	0	0	0	0	0	0	0	0	1	3	2	26	0	0	0	0	0	1	0	0	0	0	0	0	0	1	0	1	0	0
OTU 63	0	1	0	0	1	0	1	0	0	0	0	0	0	0	1	0	0	0	1	1	0	2	0	2	0	0	2	0	0	1	1	0	0	0	0	0	0	2	0	0	0	1	0	0	0	0	0	1	11	0
OTU 64	0	13	0	0	0	0	3	0	0	0	0	0	9	0	3	3	5	1	6	3	0	6	0	1	1	4	4	8	0	5	1	0	2	0	1	0	0	0	1	18	0	3	9	2	0	1	1	5	1	2
OTU 65	0	0	0	0	0	0	0	0	0	0	0	0	2	0	0	0	0	0	0	0	0	3	0	0	0	0	0	0	0	0	0	0	0	0	0	0	0	0	0	0	0	0	0	0	0	0	0	1	0	0
OTU 66	6	1	0	0	0	0	1	0	5	0	0	2	3	1	0	6	1	1	5	2	5	2	0	0	0	2	2	0	0	0	0	0	3	3	1	0	0	1	12	1	2	0	0	3	1	0	1	1	0	2
OTU 67	0	2	1	0	7	1	0	1	1	0	0	0	0	11	0	6	0	1	0	3	0	6	3	0	0	0	0	1	1	4	0	0	0	0	1	3	2	0	1	1	1	154	0	2	0	2	0	0	0	1
OTU 68	0	0	0	0	4	0	0	4	3	1	0	1	0	0	0	1	0	1	0	1	0	2	5	0	2	0	0	1	0	0	0	0	0	0	0	0	0	0	4	0	0	0	0	1	0	0	0	0	0	1
OTU 69	1	1	2	0	2	1	1	0	2	0	37	0	0	0	4	2	28	0	10	1	0	2	0	1	2	1	2	2	0	0	7	5	0	3	0	1	0	37	0	7	0	0	1	0	0	2	0	0	1	0
OTU 70	2	0	0	0	0	0	0	0	0	0	0	0	0	0	5	1	0	3	0	0	0	0	0	0	6	0	1	0	0	0	1	0	0	0	0	1	0	4	0	0	0	0	0	0	0	0	0	3	0	0
OTU 71	1	0	0	0	0	2	4	0	0	3	0	0	0	0	0	2	2	2	0	1	1	0	0	6	0	0	0	4	0	0	0	0	1	4	0	1	3	0	1	0	4	0	6	3	0	1	1	0	2	0
OTU 72	11	0	2	1	0	1	4	0	0	2	1	5	2	2	0	0	0	0	0	1	2	1	0	5	0	1	0	0	0	6	2	3	1	6	4	0	0	1	4	0	58	1	0	0	4	0	2	0	0	10
OTU 73	0	7	0	0	0	0	2	2	1	0	5	0	2	1	0	1	0	0	2	3	0	2	0	2	0	1	0	0	1	4	0	0	0	3	3	0	3	0	2	1	2	0	1	0	0	145	0	0	0	0
OTU 74	0	5	0	1	0	0	0	0	0	1	0	0	3	2	2	0	0	0	3	1	0	0	1	0	5	0	12	0	0	4	1	0	0	2	3	2	149	0	0	0	0	0	0	5	0	1	0	2	0	0
OTU 75	2	2	1	0	13	0	1	1	0	2	0	0	4	1	0	1	1	0	2	8	1	8	1	1	1	1	1	2	107	2	7	0	2	0	0	3	0	2	0	3	0	0	1	0	0	1	0	0	1	2
OTU 76	0	0	2	0	0	1	0	0	1	0	8	0	0	0	0	0	0	0	4	3	0	1	0	0	0	3	0	0	0	1	1	0	8	0	0	0	0	0	0	0	0	1	0	0	0	1	0	8	0	0
OTU 77	4	6	15	0	0	0	2	0	0	0	0	0	4	1	2	2	0	5	2	0	0	0	0	6	2	0	0	0	2	0	4	5	1	5	0	3	0	1	0	0	3	0	0	0	0	2	0	0	2	0
OTU 78	3	0	0	3	4	0	23	0	0	0	0	0	51	1	0	7	1	0	3	0	0	3	0	77	0	1	0	0	0	0	1	2	2	27	0	41	4	0	1	1	0	0	1	0	2	1	117	8	2	0
OTU 79	8	1	8	10	73	30	21	7	2	1	14	1	36	3	1	10	17	0	4	7	0	16	4	41	7	3	3	6	10	0	2	1	21	23	4	20	3	0	5	9	9	4	2	1	2	1	2	1	3	8
OTU 80	1	0	3	0	2	11	1	3	0	0	0	139	1	1	6	2	2	1	1	0	0	0	0	1	10	1	0	0	2	5	0	6	7	0	0	0	0	0	0	0	5	3	0	2	0	1	15	1	2	0
OTU 81	1	3	0	0	14	0	0	1	0	2	0	0	1	56	5	15	10	0	0	0	0	4	3	1	24	0	12	3	0	2	3	1	1	2	12	19	0	1	2	10	2	0	0	1	0	1	0	4	0	2
OTU 82	0	0	0	0	0	15	1	9	3	0	5	0	0	2	0	1	0	0	0	0	0	3	2	0	0	0	3	1	5	5	0	0	10	0	1	0	9	0	0	0	0	13	1	0	0	0	0	0	2	0
OTU 83	0	0	1	0	0	0	0	0	0	0	0	0	0	0	0	1	0	0	0	3	0	0	0	0	0	0	0	0	0	0	0	0	0	0	0	0	0	1	0	1	0	0	0	0	0	0	0	0	0	0
OTU 84	0	5	0	0	0	0	0	0	0	0	1	0	0	0	0	0	0	3	0	0	0	2	0	0	0	0	1	1	0	2	3	1	0	0	0	1	0	0	0	0	1	0	0	0	0	0	1	1	0	0
OTU 85	2	2	0	0	0	1	0	0	2	0	0	0	0	0	0	0	0	1	0	0	0	1	0	0	0	0	0	0	2	4	2	0	0	0	1	0	0	0	0	0	1	0	0	0	0	1	0	0	1	0
OTU 86	0	0	0	0	0	0	0	0	0	0	0	0	0	0	0	0	0	0	0	1	0	0	2	0	0	0	0	0	0	0	0	0	0	0	0	0	0	0	0	0	0	0	0	0	0	0	0	0	0	0
OTU 87	0	1	0	0	0	0	2	0	0	0	1	0	0	3	0	1	0	0	2	0	0	0	0	0	0	0	0	0	0	0	0	0	0	0	0	0	2	0	2	0	0	0	0	0	0	0	0	0	0	0
OTU 88	0	0	0	0	0	0	0	0	0	0	0	0	0	0	0	0	0	0	0	0	0	0	0	0	0	0	0	0	0	0	0	0	0	0	0	0	0	0	1	0	0	0	0	0	0	1	0	1	0	0
OTU 89	0	0	0	0	0	0	0	0	1	0	49	0	4	0	0	0	0	2	0	2	0	0	0	0	0	0	0	0	0	7	0	0	0	0	0	0	1	0	2	1	0	0	1	0	0	0	2	0	0	1
OTU 90	0	1	0	0	0	0	0	0	1	0	0	0	0	0	0	1	0	0	0	0	0	0	0	0	0	0	0	0	0	0	0	0	0	0	0	0	0	0	0	0	0	0	0	0	0	0	0	0	0	0
OTU 91	0	0	0	0	0	0	0	0	1	0	0	0	1	0	0	0	0	0	0	1	0	1	0	0	0	0	0	0	0	0	0	0	0	0	1	1	0	0	0	0	0	0	0	0	0	0	0	0	0	0
OTU 92	2	0	0	0	0	0	15	0	1	1	0	0	0	2	0	0	0	0	0	0	0	0	0	1	0	0	0	0	0	0	0	0	0	0	0	3	0	0	0	0	0	0	0	0	0	0	0	1	9	0
OTU 93	0	0	0	0	0	0	0	0	0	0	0	0	0	0	0	0	0	8	2	0	0	0	0	0	0	1	0	0	0	0	0	0	0	0	0	0	1	0	0	0	0	0	0	0	0	0	0	3	0	0
OTU 94	17	0	3	0	0	0	0	0	2	19	3	0	0	2	0	1	0	5	16	14	0	1	1	1	10	8	2	0	0	2	10	0	0	0	2	0	0	8	0	1	2	0	0	3	0	0	0	16	1	0
OTU 95	0	0	1	0	1	0	0	1	0	0	1	0	0	0	0	0	1	0	1	3	0	0	0	0	1	0	0	0	0	0	0	1	1	0	0	0	0	0	0	0	0	0	0	0	0	0	2	0	0	0
OTU 96	0	1	0	0	0	0	0	0	0	0	0	0	0	0	0	0	0	0	0	0	0	0	0	0	0	0	0	0	0	0	0	0	0	0	0	0	3	0	0	0	0	0	0	0	0	0	0	0	0	0
OTU 97	0	0	0	0	19	3	0	1	76	0	0	0	0	0	0	0	0	0	0	0	0	2	1	0	0	0	0	0	0	0	3	0	0	0	0	0	0	0	1	0	3	0	0	5	0	31	0	5	0	0
OTU 98	0	0	0	2	0	0	0	0	0	0	3	1	0	0	2	0	0	0	2	1	26	4	10	0	1	0	0	0	0	0	0	0	0	0	0	0	0	0	2	0	1	0	0	0	0	0	2	0	0	4
OTU 99	0	1	0	3	0	0	0	0	1	5	0	0	0	2	1	1	0	6	2	0	2	1	0	1	0	0	3	0	1	5	0	1	1	0	0	1	2	2	3	1	0	0	2	0	1	2	1	0	3	4
OTU 100	4	4	1	0	1	0	0	83	0	0	0	0	1	0	0	0	1	0	1	0	0	1	0	0	0	1	0	0	0	4	0	0	0	0	1	0	1	0	1	0	1	0	4	1	0	0	0	0	0	1
OTU 101	1	0	0	1	0	0	0	0	0	0	0	0	0	0	0	1	0	0	1	0	0	0	0	0	0	0	0	0	0	0	0	0	0	0	0	0	0	0	0	1	0	0	0	0	0	0	0	0	0	0
OTU 102	0	0	0	0	0	0	1	0	0	0	0	0	1	0	0	0	0	1	0	1	0	0	1	0	2	0	0	0	0	1	0	0	0	1	0	0	2	0	0	0	0	0	0	4	0	0	1	0	0	0
OTU 103	0	10	2	0	0	0	1	0	0	2	1	0	6	3	0	2	0	0	0	2	2	0	0	5	0	0	0	15	0	2	0	36	0	0	0	0	0	0	0	0	0	0	1	1	0	1	2	0	0	1
OTU 104	1	2	5	1	0	0	0	0	1	1	1	4	5	4	3	147	1	2	1	1	1	1	1	0	0	3	3	5	0	3	1	0	2	0	3	2	3	0	1	3	0	1	0	0	0	1	6	1	3	4
OTU 105	0	0	0	0	0	0	3	0	1	0	0	0	3	1	1	1	1	0	0	0	0	0	0	5	0	0	0	0	0	0	2	0	1	2	0	0	0	0	0	0	0	0	0	5	0	0	0	3	0	0
OTU 106	0	21	0	0	0	3	0	0	0	0	0	0	1	0	0	1	0	0	0	0	0	0	0	0	2	0	1	0	0	0	0	58	0	0	0	0	0	0	0	0	0	0	0	7	0	0	0	0	0	0
OTU 107	0	0	0	69	0	0	3	0	0	45	1	6	0	0	1	0	0	0	0	2	4	0	0	1	0	0	0	3	0	0	0	1	0	2	0	0	0	0	7	0	0	0	0	0	2	0	0	0	1	12
OTU 108	0	0	4	0	0	0	0	0	0	0	0	0	0	1	0	2	0	0	0	2	0	3	5	0	0	2	62	0	0	0	2	0	0	0	5	0	3	25	0	0	3	0	0	0	0	0	38	0	0	0
OTU 109	0	0	0	0	0	0	0	0	0	0	0	0	0	0	0	0	0	0	0	0	0	0	0	0	0	0	0	0	0	0	0	0	0	0	0	0	0	0	0	0	0	0	0	0	0	0	0	0	0	0
OTU 110	0	0	1	2	5	0	0	0	2	1	0	0	3	1	0	3	5	1	0	0	1	0	0	2	0	0	0	0	0	55	5	2	0	2	1	0	2	1	0	1	0	0	4	1	0	0	0	2	2	0
OTU 111	0	0	0	0	0	0	0	0	0	0	0	0	0	0	0	0	0	0	0	0	0	0	0	0	0	0	0	0	0	1	0	0	0	0	0	0	0	0	0	0	0	1	0	0	0	0	0	2	3	0
OTU 112	0	0	0	0	1	1	1	0	0	0	1	0	3	0	0	0	0	3	1	0	0	1	1	1	1	1	0	2	0	7	0	0	4	1	0	0	0	0	1	0	0	0	0	0	0	0	0	1	0	0
OTU 113	0	0	0	0	0	0	0	0	0	0	0	0	0	0	0	0	1	0	0	0	0	0	0	0	0	0	0	1	0	1	0	0	0	1	0	1	0	0	0	0	0	0	0	0	0	0	0	0	0	0
OTU 114	0	2	0	0	4	3	1	1	3	0	7	0	2	3	0	0	0	0	0	0	2	0	0	3	1	0	2	2	1	1	5	3	0	0	10	0	0	0	2	0	0	5	0	1	0	0	0	2	2	4
OTU 115	2	11	4	0	2	1	1	0	0	5	7	2	2	0	7	1	1	1	1	4	0	0	5	0	2	1	0	1	2	4	0	3	4	0	1	4	2	1	3	0	3	1	0	0	1	0	1	1	0	2
OTU 116	0	10	8	2	0	1	1	1	2	7	3	2	10	3	2	1	0	0	4	1	0	3	4	4	0	3	0	4	1	5	12	1	1	0	7	8	0	0	1	0	102	0	8	0	0	0	0	6	2	4
OTU 117	0	2	4	0	0	0	1	0	0	1	1	0	0	12	2	10	0	0	2	0	0	0	0	2	1	0	0	0	0	3	4	0	0	0	1	0	2	0	1	0	0	0	0	1	0	0	0	0	3	0
OTU 118	0	0	0	0	0	0	0	0	0	0	1	0	0	0	6	0	1	0	0	0	0	1	0	0	2	0	7	0	0	0	0	0	1	0	0	0	2	0	0	0	0	0	0	0	0	0	0	0	7	0
OTU 119	3	1	6	1	0	1	0	1	1	19	1	2	0	0	4	1	1	71	3	6	1	2	2	0	1	0	1	6	0	8	1	1	1	0	4	1	1	0	8	0	4	0	0	2	2	0	1	1	0	5
OTU 120	2	7	0	0	0	0	0	0	0	18	2	0	3	1	0	0	1	0	0	1	0	0	0	1	0	3	0	1	0	0	0	0	0	0	1	0	0	0	0	0	0	0	3	0	0	0	0	3	0	0
OTU 121	0	0	0	3	1	0	0	0	1	1	0	0	0	0	0	0	2	0	1	0	0	2	0	2	0	3	0	0	0	2	0	0	0	0	3	0	1	0	0	3	0	0	1	1	0	0	0	6	0	0
OTU 122	0	0	1	0	0	0	0	0	0	8	0	0	6	0	1	0	1	0	0	0	0	1	0	2	2	3	3	1	0	14	2	0	1	0	0	0	1	0	0	0	3	0	0	0	0	0	0	0	2	0
OTU 123	7	58	5	0	70	7	1	1	1	9	0	2	6	11	5	4	4	6	5	4	2	11	151	6	4	3	4	16	3	13	8	5	21	7	6	2	1	11	3	0	12	4	36	3	0	0	3	1	15	3
OTU 124	0	0	0	0	0	0	0	0	1	0	0	0	0	0	1	0	0	1	1	0	0	0	0	0	0	1	0	0	0	0	0	3	0	1	1	0	0	0	0	0	2	0	0	0	1	0	0	2	0	0
OTU 125	3	7	10	35	7	2	1	0	0	2	8	12	3	9	6	7	0	1	8	2	18	6	37	3	16	0	6	2	0	13	16	1	16	1	3	4	2	5	77	0	41	1	2	5	13	0	13	3	5	29
OTU 126	0	0	0	0	0	0	0	0	3	0	1	28	0	1	0	0	0	0	0	0	0	0	0	0	0	0	2	0	0	1	0	1	0	0	0	0	0	0	0	0	0	0	1	0	0	0	0	0	0	0
OTU 127	6	0	1	1	2	0	0	0	4	0	0	0	5	0	1	1	0	0	0	0	0	0	3	0	0	1	0	0	0	0	1	1	5	0	0	1	1	1	1	0	0	1	1	0	0	1	0	0	2	0
OTU 128	8	13	14	3	3	12	1	5	1	8	5	77	6	9	3	4	2	2	7	14	65	3	4	1	2	18	0	7	2	3	13	2	2	1	5	4	9	4	8	2	19	2	1	1	104	6	58	37	3	113
OTU 129	0	0	1	0	0	0	0	1	3	0	0	0	0	0	0	0	0	0	0	0	0	0	0	0	0	0	0	0	0	0	0	0	4	0	0	0	0	0	4	0	0	0	0	0	0	3	0	0	0	0
OTU 130	3	1	2	0	0	2	2	0	1	2	5	0	0	1	0	0	27	7	0	0	1	0	3	1	0	118	17	1	1	0	5	9	2	1	12	0	0	20	6	22	0	0	2	0	0	2	0	0	0	0
OTU 131	0	0	0	0	0	0	1	0	1	4	0	0	1	0	2	0	0	2	0	0	0	0	0	5	4	0	1	0	0	0	0	0	0	1	0	1	0	0	0	0	0	2	0	0	27	1	3	3	2	3
OTU 132	0	0	0	0	0	4	0	2	0	0	0	0	1	0	0	1	2	2	0	0	0	1	0	0	0	3	1	0	0	6	0	0	2	0	80	1	0	3	0	0	0	0	1	0	0	0	0	1	0	0
OTU 133	1	0	0	0	0	0	0	0	0	0	1	0	1	3	0	0	0	1	0	0	0	0	0	0	0	0	0	0	1	0	0	0	0	0	0	2	0	0	0	0	0	0	0	0	0	0	0	0	4	0
OTU 134	4	0	2	2	0	0	0	0	2	0	0	2	3	1	2	0	1	0	6	3	0	5	0	0	0	0	3	0	0	0	0	0	2	1	4	0	6	0	3	0	0	0	0	0	0	0	0	1	0	2
OTU 135	0	4	2	0	0	0	0	0	0	5	0	0	0	6	1	1	1	1	0	2	0	2	0	1	0	1	6	5	0	1	11	2	0	2	0	0	3	3	0	0	0	0	0	0	0	0	0	0	1	0
OTU 136	0	0	1	1	0	0	0	0	0	0	2	0	0	1	0	1	0	0	0	0	0	0	0	1	0	0	0	1	1	0	0	0	1	0	0	1	0	4	0	0	0	0	1	1	0	0	0	3	4	0
OTU 137	0	0	0	0	0	0	0	0	0	0	0	1	7	0	0	2	0	0	0	1	76	0	0	0	0	0	2	0	0	4	0	0	1	0	0	0	0	0	3	0	0	0	0	0	0	0	0	3	0	0
OTU 138	2	2	1	1	0	2	1	1	1	0	4	0	3	2	1	0	0	0	0	3	0	0	1	0	4	2	0	0	0	0	2	0	0	1	0	5	0	1	0	1	0	0	1	0	0	0	0	0	0	0
OTU 139	7	2	0	0	1	1	0	0	1	6	1	2	5	0	1	1	2	0	6	0	2	2	0	4	1	0	0	0	0	0	1	0	2	4	0	0	4	0	5	1	2	13	4	0	72	0	1	1	22	4
OTU 140	13	9	12	1	4	1	1	7	13	9	11	1	5	13	5	3	1	2	68	24	0	1	2	4	4	8	5	6	2	5	35	0	18	0	1	1	11	2	1	0	0	2	0	8	0	4	3	7	4	1
OTU 141	0	0	0	0	0	0	0	0	0	0	0	0	0	0	1	0	0	0	0	1	0	0	0	0	9	0	0	0	0	0	0	0	0	0	0	0	0	0	0	0	0	0	0	0	0	0	0	0	0	0
OTU 142	0	0	0	0	0	0	0	0	0	0	0	0	0	0	0	0	0	0	0	1	0	0	13	0	0	0	0	0	0	0	0	0	0	0	0	0	0	0	0	0	0	0	0	0	0	0	0	0	0	0
OTU 143	0	0	0	0	0	0	0	0	0	0	0	0	0	0	1	0	0	0	0	0	0	1	0	0	0	0	1	0	1	0	0	0	10	0	0	0	0	0	0	0	0	0	0	0	0	0	0	0	0	0
OTU 144	0	10	1	0	0	0	0	2	0	2	48	0	0	0	0	0	0	0	0	0	0	0	0	0	0	0	0	0	0	0	1	0	0	0	1	0	0	0	0	0	0	0	0	0	1	0	0	0	1	0
OTU 145	3	0	1	1	1	2	0	1	5	0	2	0	4	2	144	0	14	0	1	0	0	1	1	2	8	0	1	4	2	0	0	0	0	0	0	0	0	0	0	14	1	0	0	3	0	0	0	1	0	0
OTU 146	1	1	0	0	4	0	0	0	0	0	2	0	0	5	0	0	2	0	0	1	0	0	0	0	0	0	0	2	0	0	0	0	4	0	1	0	1	3	4	1	0	6	0	2	0	3	0	3	1	0
OTU 147	0	7	0	4	0	0	0	0	2	1	1	0	0	1	0	0	5	0	0	1	0	0	0	0	0	1	4	0	0	0	1	1	2	0	0	0	0	0	0	1	0	0	0	0	0	0	0	0	1	0
OTU 148	3	1	1	3	2	0	1	0	1	0	0	0	2	3	1	0	47	0	3	0	0	3	0	3	2	0	1	4	0	0	3	1	0	1	0	0	0	1	0	27	0	0	0	0	0	0	0	3	1	0
OTU 149	4	1	0	1	1	0	0	0	1	0	0	1	0	0	0	0	1	0	0	0	1	0	0	0	0	0	1	0	2	0	0	4	0	0	0	0	0	0	1	0	1	0	0	0	0	0	0	5	2	1
OTU 150	0	0	0	2	0	0	0	0	0	0	0	12	0	0	0	0	0	0	0	0	1	0	0	0	0	0	0	0	1	0	0	2	0	0	0	1	1	2	2	0	0	0	0	0	0	0	0	0	0	0
OTU 151	0	3	0	0	0	0	0	0	0	1	3	0	0	4	0	1	0	1	0	0	0	0	0	1	0	1	0	7	0	0	1	1	0	0	2	0	0	0	0	1	0	0	2	0	0	0	0	1	0	1
OTU 152	5	8	2	3	0	1	1	0	0	3	0	1	0	6	4	6	4	0	1	2	1	4	2	2	1	0	0	0	0	0	5	0	0	3	0	0	0	1	0	0	0	0	3	0	0	0	0	1	0	0
OTU 153	0	0	0	0	0	0	0	0	0	0	0	0	0	0	0	0	0	0	0	0	0	0	0	0	0	0	0	0	0	0	0	0	0	0	0	0	0	0	0	0	0	0	0	1	0	0	0	0	0	0
OTU 154	0	0	0	0	0	0	0	0	0	1	0	0	2	1	0	0	1	0	0	0	1	0	2	0	0	0	1	0	0	1	0	0	0	0	0	1	0	0	0	0	0	6	0	0	0	0	0	0	2	1
OTU 155	0	1	2	1	1	24	0	6	1	0	0	0	0	5	0	0	1	0	0	0	0	0	0	0	0	0	0	1	9	0	11	0	0	0	0	0	0	1	2	0	1	0	1	0	0	0	0	0	1	0
OTU 156	4	5	8	0	6	0	1	0	0	0	2	0	0	7	2	5	9	4	0	55	0	3	4	3	0	2	6	2	0	0	2	3	3	5	0	3	1	1	0	5	3	0	0	0	0	7	0	5	4	0
OTU 157	0	0	0	0	0	0	3	0	0	0	0	0	0	0	4	0	0	9	0	2	0	0	0	4	0	0	0	13	0	0	0	2	0	3	0	2	0	0	0	0	1	11	0	0	0	0	0	0	22	0
OTU 158	0	0	0	0	0	0	0	0	0	0	0	0	0	0	0	0	0	0	0	0	0	0	0	0	0	0	0	0	0	0	1	0	0	0	0	0	0	0	0	0	0	0	0	0	0	0	0	0	2	0
OTU 159	0	9	0	1	0	0	0	0	5	0	1	0	3	0	0	0	0	0	2	2	0	7	7	1	0	0	0	0	0	0	1	0	1	2	8	0	0	1	0	0	0	0	12	0	0	0	0	4	0	1
OTU 160	7	2	2	16	1	3	7	1	0	0	0	11	8	4	7	2	4	3	5	27	10	5	1	8	1	0	21	14	3	3	12	7	2	4	10	1	3	16	29	1	0	0	0	28	9	2	8	10	3	20
OTU 161	2	0	82	1	3	1	0	2	2	0	0	0	0	0	0	0	0	0	5	0	0	5	1	0	4	3	5	0	1	4	0	0	0	0	2	0	0	0	0	0	4	0	1	0	0	1	2	0	0	0
OTU 162	1	0	3	1	0	1	21	0	1	3	0	0	0	0	0	0	0	1	1	0	0	1	1	38	2	0	1	12	0	0	0	10	3	14	0	18	3	2	5	0	1	0	0	34	0	0	2	0	1	1
OTU 163	0	0	0	0	0	0	0	0	0	0	0	0	0	0	0	0	0	1	0	0	0	0	0	0	0	0	0	0	0	3	0	0	0	0	0	0	0	4	0	0	0	0	0	1	0	0	0	0	0	0
OTU 164	0	2	0	0	0	0	0	0	0	2	0	0	0	0	0	0	1	0	0	0	0	0	0	0	0	0	0	0	0	0	0	0	0	0	0	0	0	0	0	1	0	0	0	0	0	0	0	0	0	0
OTU 165	3	0	14	0	0	0	0	1	0	1	31	0	0	0	0	0	0	0	0	0	0	0	0	1	3	0	3	2	2	0	1	0	63	0	1	1	0	0	3	0	0	0	0	0	0	0	0	1	0	0
OTU 166	0	0	0	0	0	0	0	0	0	0	0	0	0	0	0	0	0	0	0	0	0	0	0	0	0	1	0	0	0	0	0	0	0	0	0	0	0	0	0	0	0	0	0	0	0	0	0	0	0	0
OTU 167	4	0	0	0	0	1	0	0	0	0	0	0	0	0	2	2	2	0	2	0	0	5	0	2	0	2	0	0	0	0	0	1	3	0	0	0	0	1	0	1	3	1	1	0	1	0	0	0	1	0
OTU 168	2	0	0	1	0	1	0	1	0	2	0	1	0	2	1	1	0	1	0	0	0	1	0	0	2	2	0	1	0	0	7	0	0	0	0	0	2	0	0	1	0	0	0	0	1	0	2	0	1	2
OTU 169	0	0	0	0	0	0	0	0	0	0	0	0	0	0	0	0	0	0	0	0	0	0	0	0	0	0	0	0	0	0	0	0	0	0	0	0	0	0	0	0	0	0	0	0	0	0	0	0	0	0
OTU 170	0	0	0	0	0	0	0	0	0	0	0	0	0	0	0	0	0	0	0	0	0	0	0	0	0	0	0	0	0	1	0	0	0	0	0	0	0	0	0	0	0	0	0	0	0	0	0	0	0	0
OTU 171	1	6	1	0	0	3	0	0	0	0	0	0	14	0	1	1	0	2	9	0	0	0	0	1	0	0	0	0	0	0	0	0	1	2	0	151	0	0	4	0	0	0	0	0	1	1	2	0	0	2
OTU 172	0	0	0	0	0	0	0	0	1	0	0	0	0	0	0	0	0	0	0	0	0	0	0	0	0	0	0	0	6	0	0	0	0	0	0	0	0	0	0	0	0	0	0	0	0	0	0	0	0	0
OTU 173	2	0	0	0	0	0	0	0	0	3	1	0	3	6	2	2	0	1	0	0	0	0	1	0	3	0	0	1	1	0	0	1	0	0	0	0	0	1	0	0	3	0	1	0	0	0	0	8	0	0
OTU 174	0	0	1	0	0	0	0	1	1	0	0	0	1	1	0	0	1	0	0	0	0	3	0	0	0	0	0	6	1	0	0	1	0	0	1	0	0	0	0	1	0	0	0	2	0	2	0	0	0	0
OTU 175	1	0	0	0	3	0	0	0	0	2	0	0	1	3	0	1	0	0	1	0	0	10	0	0	0	0	0	0	0	1	1	1	0	0	0	0	1	0	0	1	0	0	3	0	0	0	0	0	0	0
OTU 176	4	1	0	1	3	1	0	1	2	0	0	0	1	0	0	0	0	0	0	4	0	2	2	1	1	0	1	0	0	0	4	3	6	1	0	1	1	0	0	0	1	14	6	1	0	0	1	1	5	1
OTU 177	2	0	2	0	0	0	0	1	2	1	0	0	0	0	5	1	3	0	0	3	0	2	0	0	0	0	6	4	1	5	4	0	1	0	2	0	0	0	0	0	0	0	0	15	0	0	0	3	1	0
OTU 178	0	1	1	3	0	0	0	0	0	1	0	0	2	1	0	0	1	1	0	0	0	0	0	0	0	2	0	0	76	0	0	2	0	0	0	4	2	0	0	0	0	0	0	0	0	0	0	7	0	0
OTU 179	0	6	1	1	0	0	0	0	0	0	0	0	0	0	0	0	1	134	0	23	0	0	0	0	0	17	1	0	1	3	0	34	0	0	0	0	0	1	2	0	0	4	0	0	0	0	2	2	10	0
OTU 180	2	1	1	36	11	1	0	1	48	4	4	22	8	6	1	4	3	5	3	0	31	6	5	0	3	4	2	6	0	13	2	0	4	149	17	7	0	1	81	1	2	4	2	16	10	27	30	5	2	53
OTU 181	0	0	0	1	0	4	2	1	1	1	0	0	0	0	0	1	2	0	0	2	0	0	1	3	5	0	2	9	0	0	0	5	0	2	0	2	0	4	2	2	1	6	0	16	1	1	0	1	16	0
OTU 182	0	0	0	0	0	0	0	0	0	0	0	0	0	0	0	0	0	0	0	0	0	0	0	0	0	0	0	2	0	0	1	0	0	0	0	0	0	0	0	0	0	0	0	0	0	0	0	0	0	0
OTU 183	0	0	1	2	1	0	2	0	0	1	0	0	0	3	0	0	1	0	0	0	0	0	0	1	0	1	2	0	0	1	0	1	9	0	0	0	0	0	2	1	0	0	33	0	0	2	0	2	1	2
OTU 184	0	3	0	1	0	0	0	0	1	1	0	0	2	0	0	0	0	0	0	0	0	1	0	0	4	0	0	0	0	2	0	0	0	1	0	0	1	0	0	0	1	2	0	0	0	0	0	2	0	1
OTU 185	2	1	0	1	2	17	1	5	13	1	0	0	1	2	0	0	1	1	0	1	2	2	0	0	3	0	1	0	3	2	0	0	1	1	4	0	7	0	1	0	1	0	50	1	13	9	0	2	4	4
OTU 186	14	1	0	0	0	0	0	0	0	0	0	1	0	1	1	0	0	0	1	0	0	0	0	0	0	0	0	0	0	0	0	0	0	0	0	0	0	0	3	0	1	0	0	0	0	0	0	0	0	0
OTU 187	1	0	5	3	1	1	0	1	0	1	5	1	14	1	1	0	4	6	1	0	1	7	0	0	3	0	6	0	0	1	4	0	3	0	1	0	0	5	0	5	2	5	2	4	0	2	1	4	16	0
OTU 188	3	2	0	7	0	5	2	0	1	6	2	0	2	0	3	1	2	0	2	1	0	6	14	2	2	8	0	1	1	1	5	4	3	0	5	7	0	0	0	0	12	3	2	1	0	2	0	27	10	1
OTU 189	3	3	1	1	0	1	1	0	1	72	0	0	1	1	0	1	13	2	3	1	0	2	2	2	13	1	1	0	1	2	6	0	4	2	2	9	0	1	0	1	6	0	5	0	1	0	0	2	2	0
OTU 190	0	0	0	0	1	0	0	0	0	0	0	0	0	0	0	0	0	0	0	0	0	0	0	0	0	0	1	0	0	0	5	1	0	0	0	0	0	0	0	0	0	0	0	0	53	0	0	0	0	0
OTU 191	9	0	6	1	0	0	0	0	0	0	1	2	0	4	3	0	0	2	0	4	1	26	4	5	8	0	0	4	0	0	2	0	2	1	0	1	0	0	0	0	0	2	14	1	0	0	1	0	9	1
OTU 192	2	5	2	2	0	0	1	0	0	0	0	0	10	1	5	2	64	0	6	4	0	1	2	4	1	0	2	6	0	2	5	0	7	3	49	0	0	1	0	36	1	15	0	1	7	45	0	2	18	0
OTU 193	0	0	1	4	0	62	0	41	0	0	1	0	1	2	1	4	2	0	1	0	0	0	2	0	0	0	30	0	46	1	1	0	0	0	0	1	0	21	2	0	5	1	0	2	0	2	0	0	1	0
OTU 194	0	0	2	0	0	0	0	0	0	0	1	0	0	1	0	0	0	0	0	0	0	1	0	0	0	0	0	0	0	0	0	0	0	0	0	0	2	0	0	0	0	1	0	0	0	0	0	0	0	0
OTU 195	1	0	0	1	0	0	1	0	0	0	0	0	0	2	0	3	0	0	3	6	0	0	3	0	0	0	0	0	0	7	1	0	2	2	0	0	1	0	3	0	1	0	10	0	0	0	1	0	0	0
OTU 196	2	0	0	0	0	0	0	0	0	1	0	0	0	1	0	0	0	0	5	1	0	1	2	1	1	4	1	0	0	0	3	0	2	0	0	0	0	0	1	0	2	0	1	0	1	0	0	0	0	0
OTU 197	0	10	2	2	0	0	1	1	1	2	1	1	8	1	0	0	6	0	21	0	0	3	1	2	6	2	10	2	1	7	3	1	7	2	4	0	2	5	5	1	1	2	4	9	1	2	0	2	1	0
OTU 198	0	0	0	3	0	0	0	0	0	1	0	1	2	0	0	0	0	0	0	0	0	2	0	0	0	0	0	0	1	0	0	0	0	0	0	0	0	0	0	0	0	0	0	3	0	0	2	0	0	0
OTU 199	0	0	0	0	0	1	0	0	0	1	0	1	1	1	0	0	0	0	0	0	0	2	1	0	5	0	0	0	0	1	2	0	0	0	0	3	1	1	1	1	0	0	0	2	0	0	1	0	0	0
OTU 200	5	0	0	4	0	0	2	0	0	0	0	0	1	0	3	0	0	0	3	0	0	0	0	7	0	0	2	8	0	0	0	0	2	4	5	0	0	0	3	0	0	0	0	81	1	0	0	0	10	1
