	Host 1	Host 2	Host 3	Host 4	Host 5	Host 6	Host 7	Host 8	Host 9	Host 10	Host 11	Host 12	Host 13	Host 14	Host 15	Host 16	Host 17	Host 18	Host 19	Host 20	Host 21	Host 22	Host 23	Host 24	Host 25	Host 26	Host 27	Host 28	Host 29	Host 30	Host 31	Host 32	Host 33	Host 34	Host 35	Host 36	Host 37	Host 38	Host 39	Host 40	Host 41	Host 42	Host 43	Host 44	Host 45	Host 46	Host 47	Host 48	Host 49	Host 50	
OTU 1	100	143	1	7	11	2	15	66	0	15	97	0	11	29	35	0	99	86	108	40	14	271	18	1	0	0	174	0	12	3	95	34	224	0	20	73	99	8	0	4	33	135	117	20	13	50	13	17	2	61
OTU 2	1	9	37	0	1	0	0	0	14	3	1	0	78	16	1	34	0	0	0	12	15	14	5	9	0	96	0	83	11	20	8	1	0	2	0	0	2	0	2	15	1	68	2	0	0	0	0	9	50	0
OTU 3	29	0	93	1586	0	0	1	49	0	9	13	81	32	0	0	0	0	0	39	32	0	13	19	17	0	54	1	4	0	4	50	10	0	17	2	0	0	0	0	4	0	51	0	12	0	15	0	3	0	0
OTU 4	0	0	0	0	0	0	0	0	0	0	0	0	0	2	0	0	0	0	0	0	0	0	0	0	0	0	0	0	0	0	0	0	0	0	0	0	0	0	0	0	0	0	0	0	0	0	0	0	0	0
OTU 5	118	133	135	377	939	82	664	217	187	539	7	141	343	737	176	951	430	215	130	188	0	40	166	274	388	753	111	202	195	297	479	183	100	4	43	591	665	250	1301	161	70	1147	291	242	417	92	232	535	2	430
OTU 6	41	15	1	0	27	12	13	44	7	2	1	37	23	4	1	29	23	18	15	34	3	56	1	60	155	9	4	14	1	6	22	12	32	23	0	54	0	1	9	55	116	80	54	6	1	29	337	105	6	3
OTU 7	66	76	132	18	60	90	19	16	100	61	11	59	513	28	20	64	377	97	102	17	5	20	36	55	41	110	160	67	77	112	54	37	166	3	13	52	41	20	74	9	319	66	87	111	69	35	24	337	49	63
OTU 8	10	66	204	361	124	128	4	72	107	27	29	13	13	61	28	41	19	42	272	7	21	73	59	125	73	109	30	246	29	107	77	188	41	58	13	179	1157	14	101	42	28	148	17	68	17	4	36	120	153	34
OTU 9	0	36	4	19	0	0	0	19	4	2	3	2	4	0	0	4	21	35	23	1	1	17	19	25	71	36	3	1	17	1	42	28	47	104	0	38	14	11	0	63	3	2	4	1	4	0	61	1	9	0
OTU 10	83	0	66	4	8	0	35	0	7	23	4	0	31	0	18	1	47	52	11	14	82	23	0	6	37	15	32	1	2	0	11	3	82	2	0	17	4	6	0	14	1	45	8	1	7	43	100	24	0	32
OTU 11	1	110	12	4	0	31	9	26	142	51	28	94	17	15	0	140	2	12	84	4	45	27	29	1	24	31	4	17	132	10	2	19	8	10	26	40	22	92	15	736	126	10	73	15	0	2	104	37	106	7
OTU 12	46	5	2	26	7	27	736	12	2	57	76	87	5	37	2	27	81	71	4	72	95	27	6	3	64	20	0	2	36	28	182	64	175	11	62	68	49	132	10	30	31	16	17	137	0	34	52	13	77	18
OTU 13	4	0	0	0	0	2	0	0	0	13	2	0	0	28	0	0	56	65	0	26	0	0	0	0	0	22	0	0	0	0	25	6	110	0	0	6	0	24	0	0	25	2	0	0	0	3	0	0	23	0
OTU 14	8	36	0	1	18	2	8	143	0	0	0	179	0	3	1	159	3	0	7	0	0	0	0	21	36	6	18	0	8	4	19	0	7	11	3	2	64	1	3	4	6	43	0	0	10	9	53	27	14	6
OTU 15	0	14	0	1	22	0	0	0	0	0	0	0	1	0	0	0	0	0	0	0	0	0	0	39	22	0	11	0	41	0	0	0	0	4	0	0	0	0	0	0	2	1	5	0	1	0	7	0	1	0
OTU 16	0	0	0	12	0	0	0	0	0	0	0	0	0	0	0	0	0	0	0	0	0	0	0	0	0	0	0	0	0	0	0	91	0	0	0	1	0	1	0	1	0	0	0	0	0	0	0	0	0	0
OTU 17	95	6	12	46	26	13	50	0	31	10	1	9	0	36	0	17	77	67	41	19	3	0	5	13	54	33	15	14	50	2	52	27	149	2	0	6	76	12	3	0	97	18	6	1	2	55	14	1	26	4
OTU 18	65	2	80	55	24	10	7	12	20	36	40	0	40	27	21	25	9	7	114	59	93	132	131	2	59	26	36	5	19	86	10	49	12	81	30	39	96	45	57	68	23	2	70	29	10	33	3	60	225	25
OTU 19	0	0	0	0	0	0	0	0	0	0	0	0	0	0	0	0	0	0	0	0	0	0	0	0	0	0	0	0	0	0	0	0	0	0	0	0	0	0	0	0	0	0	0	0	0	0	0	0	4	0
OTU 20	42	5	27	145	43	36	7	8	14	21	4	34	39	50	20	86	50	52	3	85	11	23	44	21	3	37	22	0	58	21	76	5	102	113	0	7	20	7	15	1	55	6	65	15	13	14	16	1	2	3
OTU 21	64	58	67	13	50	32	28	133	6	3	4	6	52	2	28	1	0	5	14	234	33	6	106	40	95	56	24	1	9	23	1	8	0	5	0	59	1	23	11	22	106	8	5	75	3	24	75	148	14	7
OTU 22	27	93	46	18	0	38	17	59	67	32	6	6	8	0	1	6	24	31	14	12	82	5	2	70	1	3	16	3	1266	33	0	31	43	13	19	17	14	156	21	4	528	24	13	20	1	14	52	29	21	0
OTU 23	14	3	1	1	5	9	0	3	0	62	13	8	35	1231	10	7	22	28	4	7	23	7	0	9	29	42	71	16	2	60	13	99	43	5	2	22	0	0	51	1	0	8	1	124	62	3	163	168	0	8
OTU 24	47	7	33	0	6	17	45	0	7	0	0	65	62	1	6	1	0	2	2	22	961	1	6	5	0	2	6	1	0	15	15	0	0	4	123	36	23	22	6	72	0	74	0	4	0	23	23	7	13	2
OTU 25	0	0	0	0	0	0	0	0	0	36	0	0	0	0	6	0	5	5	0	0	0	0	1	0	0	3	0	0	0	0	21	0	6	0	0	0	1	0	0	0	0	1	0	0	0	0	0	0	0	0
OTU 26	0	9	8	0	0	1	0	40	2	2	0	0	15	0	0	14	0	0	0	1	0	0	0	0	5	1	3	0	20	14	1	8	0	0	8	0	0	0	13	0	0	0	5	0	0	0	85	0	3	0
OTU 27	0	0	0	0	0	0	0	0	282	3	0	0	1	1	0	0	17	19	0	0	0	0	0	0	0	0	0	0	4	0	12	0	45	6	0	4	0	0	0	0	31	0	0	0	0	0	0	0	0	0
OTU 28	33	11	25	0	10	15	16	53	16	4	30	25	12	30	172	10	0	8	55	0	155	71	6	55	60	144	118	39	184	59	4	58	1	2	16	146	231	18	27	27	109	35	45	6	98	10	82	32	165	43
OTU 29	3	9	10	11	13	154	22	104	120	11	10	65	29	0	16	15	662	25	6	10	155	22	7	11	69	28	51	123	21	255	15	10	32	132	9	7	25	22	170	28	37	6	70	35	15	5	78	26	19	7
OTU 30	0	0	0	0	0	0	0	0	0	0	0	0	0	0	0	0	0	0	0	0	0	0	0	0	0	0	0	0	0	0	0	0	0	0	0	0	0	0	1	0	0	0	0	0	0	0	0	0	3	0
OTU 31	133	11	0	41	2	17	7	23	7	0	7	9	0	148	1	0	0	0	0	27	196	0	36	17	0	11	11	29	3	7	0	72	0	5	9	0	2	0	4	0	84	0	0	0	1	60	0	0	16	0
OTU 32	27	2	52	62	37	76	0	68	8	186	45	80	33	14	13	4	39	30	95	13	114	45	26	68	75	116	33	81	420	48	85	126	67	36	28	28	3	22	11	60	45	91	31	58	23	21	25	14	328	2
OTU 33	157	32	0	10	3	14	0	0	4	0	0	0	0	0	0	0	0	0	6	174	0	0	7	0	0	0	0	0	0	0	0	7	0	0	0	0	0	0	0	0	0	0	0	0	0	90	0	58	6	0
OTU 34	15	1	0	393	368	32	5	114	9	4	53	9	25	37	13	2	2	23	15	17	32	68	164	1159	34	86	1	4	20	4	2	3	7	3	33	232	21	0	4	209	23	8	79	23	1	15	19	65	80	8
OTU 35	23	287	4	4	17	101	4	43	47	0	19	853	12	24	29	1	0	0	52	21	2628	59	31	23	1	1	11	54	0	217	3	31	1	635	8	0	21	14	128	112	29	13	7	23	3	11	74	0	25	12
OTU 36	0	17	49	862	8	6	0	70	16	3159	45	0	26	28	5	6	44	25	47	1	234	34	13	87	301	228	0	0	5	22	26	2	72	0	6	150	95	0	12	2	0	43	27	59	0	0	46	6	14	27
OTU 37	2	5	0	0	0	0	36	3	0	0	12	0	0	1	0	0	0	11	0	5	11	34	7	0	0	61	29	1	31	1	0	0	0	1	3	0	0	50	0	50	36	0	0	20	0	1	4	3	0	5
OTU 38	46	5	87	15	22	32	4	39	87	33	2	34	0	0	37	892	31	34	9	43	18	12	5	2	5	9	2	10	304	35	58	148	69	0	3	5	28	1	36	23	185	29	9	861	4	31	5	35	101	0
OTU 39	0	5	0	0	0	22	0	3	20	0	0	1	0	0	0	10	3	0	1	0	0	0	46	29	0	3	1	128	14	17	0	2	6	1	0	4	62	0	15	3	0	0	45	0	0	0	2	0	1	0
OTU 40	43	17	19	6	41	64	305	29	5	8	13	128	15	3	18	60	0	2	1	6	59	9	29	46	7	15	17	168	11	1	6	73	0	14	3388	38	640	595	2	167	182	7	14	68	16	13	23	53	53	67
OTU 41	1	91	188	7	0	30	4	38	9	17	4	72	35	2	19	74	9	9	4	3	0	16	3	26	0	73	25	37	113	10	35	41	28	8	10	15	7	27	6	16	0	6	35	0	5	0	22	33	158	14
OTU 42	13	0	0	0	0	44	0	0	0	0	12	2	4	59	0	0	30	48	0	3	123	0	90	5	1	5	0	0	45	0	4	0	51	0	7	2	120	0	0	0	0	0	48	0	0	7	0	0	4	0
OTU 43	0	0	0	0	0	0	0	0	0	0	0	0	2286	0	0	0	0	0	0	0	0	0	0	0	0	0	0	0	0	0	0	18	0	0	0	0	0	0	0	0	0	0	0	0	0	0	0	0	0	0
OTU 44	25	18	0	0	0	16	1	0	0	9	8	7	0	0	0	0	38	24	10	0	16	0	3	0	8	0	0	26	1	0	3	11	72	0	9	5	0	7	0	10	0	0	0	56	0	8	0	0	4	0
OTU 45	129	36	24	54	17	9	4	73	13	10	5	76	8	16	28	2	1	3	12	104	13	10	13	12	9	41	191	5	16	32	9	175	1	34	6	47	49	50	3	13	12	8	99	0	37	57	82	7	284	129
OTU 46	58	48	16	69	16	67	4	1	64	55	5	15	40	24	33	17	51	95	62	18	41	13	13	12	165	51	97	66	3	26	84	63	121	51	15	120	0	68	8	10	8	32	4	31	24	22	210	47	1	10
OTU 47	7	0	0	0	0	34	0	0	0	23	0	0	0	0	0	3	0	0	0	37	0	0	3	0	9	18	24	0	116	66	0	0	0	0	5	0	0	0	58	1	4	0	1	1	0	5	42	0	0	0
OTU 48	4	26	117	10	31	47	22	16	25	5	19	20	14	56	97	31	16	19	38	9	136	58	12	2	36	3	89	28	63	8	19	24	31	133	3	652	40	20	11	17	75	69	15	627	3	0	34	31	49	53
OTU 49	1	5	0	39	20	0	3	37	0	1	0	9	1	0	23	44	6	2	1	19	1	3	0	66	4	0	20	48	4	19	0	53	6	0	0	32	11	14	4	162	82	0	19	2	2	0	13	16	5	65
OTU 50	95	55	12	70	49	12	2	57	60	51	5	0	18	97	57	28	89	97	12	10	23	0	120	38	8	122	107	111	138	37	56	67	201	108	4	14	130	5	68	78	93	7	50	66	49	56	14	213	135	6
OTU 51	68	218	30	105	21	173	5	27	38	9	38	270	48	18	27	6	100	90	35	0	2	7	1	231	0	0	52	11	47	7	119	46	236	139	22	2	62	0	8	0	81	8	6	0	16	30	0	12	0	42
OTU 52	50	16	73	65	17	4	2	165	7	39	5	158	36	1593	88	23	15	23	62	34	69	53	72	19	286	86	155	100	191	31	69	87	37	27	8	44	0	2	16	15	9	59	34	97	45	21	446	46	2	46
OTU 53	0	0	10	0	0	0	0	0	0	0	0	0	0	0	0	0	0	0	0	0	0	0	0	0	0	57	9	0	0	29	0	0	0	5	0	0	0	0	4	0	4	0	0	1	0	0	0	0	0	0
OTU 54	0	51	42	36	83	358	29	68	103	36	6	259	85	10	129	19	33	20	124	7	9	45	24	88	31	5	110	88	158	49	18	202	39	16	4	179	44	13	35	18	101	67	65	23	60	2	37	178	86	62
OTU 55	0	0	0	0	0	0	0	0	0	0	0	0	0	0	0	0	0	0	0	0	0	4	0	0	0	0	0	0	0	0	0	0	0	0	0	0	0	0	0	0	0	0	0	0	0	0	0	0	0	0
OTU 56	51	89	3	12	205	23	3131	17	26	6	21	0	1	0	16	1721	3	11	48	23	0	20	16	38	1	35	1	119	16	47	1	10	9	18	21	1078	0	104	1	0	33	54	0	785	26	42	0	12	11	15
OTU 57	59	46	232	77	41	2807	50	125	105	11	84	67	37	19	50	34	14	4318	304	35	101	73	24	40	33	443	139	262	80	250	26	98	28	17	33	116	11	16	168	640	56	38	67	46	60	40	137	21	19	81
OTU 58	71	14	1	66	0	5	19	8	31	8	5	18	246	251	0	4	37	38	0	40	1	0	843	0	8	4	0	0	1	61	48	21	68	36	5	20	690	0	27	271	224	4	718	34	0	36	3	838	6	0
OTU 59	2	0	1	23	10	4	8	5	75	1	7	31	5	22	0	53	0	3	15	2	13	15	0	0	92	12	2	8	60	1	0	0	1	5	1	0	12	0	41	4	40	31	2	1	0	0	62	1	1	9
OTU 60	53	4	47	268	7	76	9	178	121	13	3	1	18	4	397	25	15	9	38	41	148	9	12	55	115	56	518	55	84	157	6	610	34	76	17	45	34	24	67	89	119	5	5	72	100	32	269	386	132	185
OTU 61	68	106	3	57	10	10	106	412	21	37	54	77	43	25	59	11	78	71	174	54	28	84	20	90	16	42	30	10	90	34	127	30	160	36	24	130	19	1	33	41	40	51	52	55	30	56	9	123	13	7
OTU 62	2	52	232	1	37	36	11	8	1	9	0	8	0	1	0	2	36	35	0	0	17	10	41	46	0	36	0	0	8	1	31	0	75	0	0	0	0	1	0	10	11	0	2	3	0	0	25	0	0	0
OTU 63	38	1	1032	2	2	9	0	0	10	40	0	0	48	1	9	0	0	1	0	46	43	0	0	2	49	192	79	8	8	4	2	4	0	0	0	19	0	3	1	2	35	0	16	0	40	10	19	38	0	56
OTU 64	742	6	271	235	127	110	18	60	52	120	289	27	94	142	70	254	187	132	909	403	170	464	70	465	38	95	7	69	172	118	185	333	384	2	47	596	18	70	957	59	70	506	212	411	22	375	81	781	187	12
OTU 65	3	0	0	0	0	0	2	8	0	0	0	0	0	0	0	0	0	0	0	0	0	0	0	11	0	0	0	0	0	2	0	0	0	0	0	0	1	10	0	1	2	3	0	5	0	8	0	3	0	0
OTU 66	4	259	17	19	22	32	55	24	288	46	16	114	41	33	6	15	17	59	16	0	0	16	28	8	14	15	60	11	68	976	45	249	47	2	30	0	94	15	342	2	183	7	29	13	1946	8	24	211	134	3529
OTU 67	0	11	15	0	6	0	8	5	67	0	22	43	12	31	4	0	2	0	26	2	68	32	56	0	14	17	43	7	0	97	3	8	7	42	17	33	13	5	36	7	22	25	9	0	29	1	28	88	0	10
OTU 68	0	6	7	7	1	47	19	0	0	0	9	8	13	0	5	3	0	9	229	16	0	50	0	35	1144	2	0	0	2	0	7	18	0	3	2	0	1	12	0	0	17	114	0	49	0	2	0	1	39	2
OTU 69	1	198	169	12	29	0	1	71	5	58	33	209	76	12	37	13	28	24	141	0	13	35	76	7	22	55	148	0	32	1	21	50	56	63	1036	95	6	23	6	151	57	1506	3	66	42	0	54	52	32	46
OTU 70	0	98	2	17	5	0	0	53	7	0	32	5	24	59	1	5	0	3	9	0	2	31	196	2	5	1	0	24	1	4	0	46	0	6	17	11	70	0	0	81	72	30	123	4	7	0	0	0	0	3
OTU 71	3	0	24	6	21	15	113	7	0	51	11	0	1	0	7	3	6	2	2	2	8	6	17	253	0	3	1	165	116	6	37	1	13	14	4	6	19	113	0	1	3	1	78	42	0	2	4	46	4	3
OTU 72	48	6	80	30	45	47	34	189	68	17	8	9	40	10	29	15	5	25	5	1	0	63	61	37	2	20	3	1	10	22	21	42	9	569	17	78	4	11	4	5	71	2	8	46	7	38	31	30	5	11
OTU 73	145	2	178	2	25	32	2	98	29	10	0	4	30	39	25	46	5	7	68	14	8	0	0	25	1	15	213	35	16	4	10	33	7	48	1	48	2	59	8	3	2	38	15	9	7	59	28	36	70	17
OTU 74	7	23	22	1	1	80	263	220	18	23	26	41	16	4	4	29	52	72	264	3	35	48	14	4	7	27	72	62	116	2	58	4	94	49	9	48	1	416	6	42	139	194	30	12	101	0	2	5	4	15
OTU 75	16	3	66	12	11	0	17	54	5	21	4	23	82	12	2	5	125	121	38	9	16	1	192	0	4	13	10	2	25	76	183	71	255	153	2	1	116	49	23	9	53	54	140	30	1	5	41	113	61	23
OTU 76	0	21	91	6	1	0	8	0	1	3	5	16	0	3	18	356	0	2	16	1	13	35	0	15	0	1	0	3	1	1	0	0	0	1	0	1	1	24	0	3	2	485	17	133	0	0	10	15	45	0
OTU 77	31	0	18	0	33	3	24	21	14	56	55	1	1	0	84	1	26	33	29	9	101	39	54	2	47	18	215	103	27	8	92	0	60	3	10	18	1056	40	6	54	17	1	12	0	105	24	125	68	64	27
OTU 78	22	13	10	41	7	0	7	144	10	67	35	84	21	2	11	8	11	8	23	26	1	56	56	24	43	1	32	31	0	2	18	11	22	12	8	2	4	0	25	2	7	89	1	13	2	14	12	72	43	11
OTU 79	36	110	105	76	122	30	850	1036	284	309	70	180	1255	20	31	58	124	169	134	0	92	47	135	73	68	105	87	63	106	468	187	84	259	319	53	98	30	1565	266	148	185	31	29	48	39	2	326	180	235	48
OTU 80	29	8	34	33	35	1	54	38	8	10	39	63	27	3	20	12	3	5	191	6	63	58	5	6	45	21	48	899	29	2	3	60	4	24	18	1	11	154	15	7	265	62	11	17	38	16	26	21	23	3
OTU 81	4	65	67	30	46	127	36	156	13	15	114	62	93	11	496	47	0	1	213	4	98	170	34	167	76	93	141	206	18	52	7	16	0	278	44	210	28	10	18	10	169	149	4	7	41	1	73	16	18	58
OTU 82	33	20	0	3	47	5	46	56	0	32	1	5	17	8	1	18	14	4	53	2	0	29	24	10	18	3	5	0	50	49	5	37	27	0	0	0	13	2	36	0	38	31	16	5	0	18	18	39	76	0
OTU 83	0	0	1	1	10	8	0	0	89	3	3	24	1	0	118	7	1	0	0	8	40	0	0	1	0	25	280	0	8	11	0	7	4	2	0	0	0	10	15	18	0	8	3	0	17	2	21	0	0	117
OTU 84	0	0	59	0	5	25	2	0	0	14	69	0	14	70	1	77	3	1	5	0	12	60	89	4	44	5	1	9	21	0	18	10	5	48	29	0	49	23	0	2	0	2	91	1	3	0	54	19	0	3
OTU 85	0	0	10	2	0	45	0	0	33	1	1	0	1	29	0	0	1	0	6	0	0	0	0	0	2	37	0	18	1	5	2	28	1	0	0	0	0	0	0	66	3	0	0	56	2	0	1	0	1	1
OTU 86	0	0	42	2	0	0	0	0	0	0	0	0	0	0	0	0	0	0	0	0	0	0	0	0	0	0	1	0	0	0	0	0	0	0	0	0	0	0	0	0	2	0	4	0	0	0	0	27	1	5
OTU 87	0	2	0	0	0	55	0	3	0	1	0	117	0	779	3	0	0	0	15	1	39	1	13	0	0	1	139	2	1	0	0	15	0	0	0	2	10	0	0	8	0	0	19	0	1	0	0	0	38	9
OTU 88	1	23	42	0	20	0	0	5	2	0	2	0	0	13	0	0	0	1	0	5	0	0	0	1	0	115	0	3	0	22	0	3	0	0	0	13	0	31	34	0	106	0	0	0	3	5	1	0	0	0
OTU 89	0	0	0	0	0	16	0	12	9	0	24	1	3	6	0	0	0	4	47	4	0	3	0	5	20	14	25	0	0	12	12	1	1	0	15	1	10	0	7	79	17	10	1	0	0	0	1	0	5	0
OTU 90	0	10	0	0	0	80	0	0	31	0	5	27	0	0	1	0	0	1	36	10	0	0	0	0	8	0	0	0	0	8	0	78	0	0	1	8	1	0	0	0	0	3	0	30	14	0	44	0	0	3
OTU 91	48	4	0	0	1	0	2	5	0	0	0	0	18	28	1	0	0	0	5	1	0	0	86	0	0	0	2	11	0	0	0	0	0	0	0	0	15	0	12	0	0	0	0	7	0	22	0	0	0	0
OTU 92	15	43	0	3	7	1	0	0	4	0	2	0	110	3	0	1	20	16	5	0	0	0	0	0	33	1	0	1	2	0	15	44	30	0	0	7	0	26	0	0	0	0	0	30	0	5	24	26	9	0
OTU 93	0	7	0	2	0	0	9	0	0	11	34	0	0	0	2	0	0	0	8	0	19	30	0	0	0	0	1	0	23	0	0	0	0	24	14	0	0	0	0	0	0	39	0	8	0	0	0	0	5	7
OTU 94	122	212	74	33	82	6	65	6	4	1	58	113	27	8	39	10	8	5	218	87	50	134	12	30	296	60	24	161	110	5	10	212	18	31	54	61	82	25	2	12	196	104	34	82	2	72	481	6	52	18
OTU 95	32	5	67	2	7	6	2	3	9	0	0	0	254	7	0	0	0	1	0	22	0	0	0	15	27	0	7	0	0	0	0	125	0	3	0	0	0	0	0	18	6	18	17	21	12	19	58	456	36	0
OTU 96	0	2	0	5	0	0	0	2	1	0	3	14	0	0	0	0	0	0	0	0	0	0	0	0	0	0	0	0	0	0	0	0	0	9	0	0	0	0	0	0	5	0	0	20	1	0	2	0	0	0
OTU 97	9	8	0	0	39	0	0	0	0	0	7	0	4	0	0	20	0	1	0	1	2	0	13	52	0	30	0	0	7	1	0	8	0	0	2	11	0	47	0	0	0	7	0	0	0	1	0	0	0	0
OTU 98	23	0	75	0	46	0	0	14	6	69	29	1	0	41	1	6	2	3	0	11	0	113	31	3	2	0	1	0	17	6	10	1	10	8	7	0	2	1	3	76	0	5	0	0	5	11	0	0	0	36
OTU 99	51	39	17	11	15	85	104	55	10	42	78	89	12	1	1	30	2	13	227	64	8	105	7	31	0	99	47	53	125	4	3	288	11	1952	60	93	44	69	1	17	187	151	17	14	24	35	7	6	75	53
OTU 100	61	47	40	16	2	20	0	6	34	34	0	7	44	20	12	6	1	0	10	8	26	0	106	5	3	141	15	627	4	69	3	17	2	0	8	16	138	0	34	104	1	13	51	6	4	27	5	42	87	18
OTU 101	0	0	0	0	6	25	0	0	0	0	0	0	5	0	0	0	0	0	0	0	13	1	0	0	61	7	0	56	17	0	0	21	0	0	0	0	0	0	0	17	0	0	0	0	1	0	13	0	0	10
OTU 102	0	5	40	0	0	6	1	0	4	5	75	9	0	18	2	0	32	20	0	0	0	1	0	5	8	10	0	11	1	3	11	3	55	0	26	0	1	0	0	0	15	7	11	0	0	0	45	0	8	0
OTU 103	0	28	13	0	0	0	14	1	0	153	40	5	11	2	137	2	126	99	96	3	4	67	190	80	6	0	122	83	0	3	75	87	196	0	32	4	188	21	3	74	9	189	130	19	5	0	30	52	11	5
OTU 104	34	97	21	42	145	52	9	52	127	65	35	80	129	30	123	8	68	32	40	23	28	37	34	0	73	111	212	24	68	126	23	283	143	52	10	69	0	66	22	20	135	24	39	11	27	15	115	29	301	91
OTU 105	0	0	2	0	0	9	34	79	0	6	1	19	3	1	0	33	39	14	0	0	0	0	0	0	0	0	0	0	5	0	3	1	63	0	0	23	8	26	1	0	55	0	49	0	2	0	37	8	0	0
OTU 106	2	0	35	14	4	14	2	0	0	0	0	206	2	0	1	490	0	5	0	0	0	0	1	0	3	3	0	0	1	16	1	3	6	57	1	24	0	6	0	0	50	0	1	309	7	0	0	0	0	0
OTU 107	0	42	23	1	7	3	18	3	0	3	10	13	0	0	13	1	0	0	70	3	1	4	15	29	39	9	4	0	0	10	0	9	0	0	23	11	9	14	6	6	0	4	0	2	6	0	0	8	75	70
OTU 108	0	1	28	11	5	10	3	3	9	7	41	0	11	0	41	56	13	18	60	3	41	48	21	3	0	26	78	81	26	1	20	10	28	14	23	21	11	0	0	15	30	9	0	14	114	0	5	18	3	8
OTU 109	1	0	0	0	0	0	0	0	0	0	0	0	0	5	0	0	0	0	0	0	0	0	0	0	0	0	0	0	0	0	0	0	0	0	0	0	0	0	0	0	0	0	0	0	0	0	0	0	0	0
OTU 110	480	6	4	26	3	1	239	77	18	30	68	6	223	455	15	6	15	7	135	2996	0	28	1	1	195	2	139	98	61	5	15	4	25	0	47	0	12	410	7	36	6	3	1025	28	20	215	315	467	158	27
OTU 111	3	0	0	0	0	1	1	0	65	0	0	0	0	0	4	0	0	0	0	0	1	1	0	0	0	4	0	0	0	21	1	1	0	0	0	0	0	0	2	0	0	0	0	0	0	1062	0	0	0	0
OTU 112	44	23	73	0	0	23	3	5	5	0	0	21	0	2	12	3	0	5	17	94	111	0	14	5	4	1	0	1	1	14	0	5	0	21	0	32	23	60	28	0	150	5	0	0	0	19	20	4	2	18
OTU 113	2	178	1	0	29	0	0	0	0	0	0	97	0	0	4	11	0	0	8	0	1	0	0	17	0	0	0	0	0	0	0	29	0	0	0	3	0	0	0	0	43	1	0	0	3	3	0	0	3	9
OTU 114	108	47	8	71	25	21	84	162	425	639	59	129	194	64	187	15	289	368	102	61	27	84	64	32	18	96	356	10	27	940	385	1	604	21	11	23	112	63	486	8	157	170	330	71	58	37	5	39	140	198
OTU 115	78	43	100	84	2357	58	38	172	57	13	47	11	58	14	23	12	12	16	80	8	47	16	2	7	33	178	21	99	39	76	22	46	23	52	35	34	18	114	38	91	37	46	35	122	20	510	141	123	130	39
OTU 116	44	35	2	46	19	13	15	123	799	10	24	37	51	4	4	50	14	21	5	1	227	6	5	13	38	78	21	44	106	7	14	72	40	17	19	3	138	56	3	5	67	4	4	3	33	19	3	19	126	1
OTU 117	2	130	93	1	0	13	1	598	19	37	9	1	20	0	19	24	35	26	79	3	4	68	10	0	38	44	66	0	50	102	48	133	71	29	1	16	4	111	563	9	180	18	5	0	2	2	46	0	5	76
OTU 118	4	0	0	1	0	14	0	0	8	12	1	0	0	0	19	37	32	30	0	4	13	0	7	0	12	80	66	0	37	0	15	0	70	21	0	13	0	9	0	0	27	0	0	0	12	0	19	0	6	29
OTU 119	41	9	45	105	16	111	827	0	18	23	29	54	12	14	7	58	9	15	62	23	3	61	7	43	18	79	1	162	14	5	7	99	24	24	13	7	0	2161	1	7	78	25	43	50	2	16	84	118	10	0
OTU 120	2	0	4	2	2	62	30	43	10	1	0	0	53	3	0	20	9	38	37	0	0	2	71	6	6	0	1	38	4	5	0	0	16	5	0	2	26	1	0	1	2	0	8	0	0	1	19	46	31	0
OTU 121	14	43	58	8	0	0	20	0	12	16	38	33	8	3	16	22	6	12	0	4	20	48	0	0	18	157	3	74	2	25	8	0	18	10	11	0	12	22	13	164	19	1	8	15	3	9	14	0	7	0
OTU 122	76	19	48	64	43	26	1	88	5	105	22	68	0	1	6	48	38	27	100	36	28	30	22	53	23	16	4	59	0	6	61	72	60	177	0	114	9	196	1	24	13	34	23	28	1	18	53	2	40	36
OTU 123	198	30	402	71	68	46	174	156	263	176	129	33	402	169	39	141	199	242	325	177	34	227	180	55	145	292	75	27	352	489	130	58	401	240	36	227	1208	214	280	22	103	22	65	97	11	115	159	108	109	26
OTU 124	0	0	120	2	3	1	11	26	0	0	18	0	0	0	0	31	0	22	22	0	2	1	0	0	0	2	1	63	30	7	0	38	0	0	12	0	0	0	0	0	4	0	1	7	0	0	0	8	0	0
OTU 125	150	44	256	129	382	416	88	167	736	203	77	189	169	37	22	460	75	179	117	102	74	49	130	1016	213	173	83	293	63	211	124	142	158	115	44	52	35	77	54	276	202	89	126	221	32	81	329	93	313	19
OTU 126	0	0	10	1	0	1	13	0	3	0	0	0	22	8	0	1	0	0	0	0	1	13	0	15	0	5	0	0	2	0	0	19	0	0	0	0	0	37	0	0	22	0	0	0	0	0	0	0	14	0
OTU 127	11	6	0	1	7	103	49	36	75	11	1	31	45	0	6	0	26	14	8	18	57	1	3	0	69	0	7	107	172	132	40	2	56	5	3	0	8	9	77	8	42	2	9	36	29	7	244	9	11	0
OTU 128	741	135	157	55	233	123	86	314	25	201	1989	106	186	63	15	127	450	96	654	261	93	3964	59	67	61	32	63	120	174	24	75	140	220	63	1270	124	59	26	22	167	267	1504	32	44	82	376	76	134	11	126
OTU 129	0	0	0	0	0	1	0	0	7	0	0	0	1	0	21	0	0	0	16	0	0	0	7	0	23	0	0	9	3	1	0	168	0	0	0	1	4	9	0	0	0	0	0	32	3	0	18	0	71	21
OTU 130	3	1	0	39	4	35	11	35	84	56	0	8	0	40	0	112	9	13	0	2	2	23	15	1	8	4	4	21	0	14	16	30	13	3	4	2	0	20	5	23	6	21	4	6	16	13	13	54	3	6
OTU 131	25	39	21	111	19	52	30	177	38	536	3	0	2	41	384	2	618	651	0	24	44	8	9	0	39	63	611	21	101	73	712	59	1254	3	2	26	36	11	34	28	8	1	15	1	97	12	1	8	9	405
OTU 132	55	0	102	0	0	10	0	5	26	1	0	91	2	32	0	5	0	4	12	13	70	0	38	0	8	10	15	8	218	18	37	16	0	65	0	2	85	1	0	4	16	5	12	4	9	29	2	16	41	1
OTU 133	0	16	0	0	0	0	6	34	16	0	0	0	0	0	18	0	0	0	0	0	0	0	0	30	1	0	61	0	0	1	4	1	0	23	0	0	0	0	0	0	23	5	19	5	6	0	7	22	0	3
OTU 134	60	1	6	4	0	7	25	84	4	39	27	14	39	13	12	2	0	8	22	2	16	124	14	29	1	38	38	7	16	2	0	0	0	60	3	62	15	1	0	41	55	13	40	2	24	30	4	11	1	4
OTU 135	5	2	49	16	28	70	11	0	3	110	14	32	5	9	13	0	54	100	79	2	4	33	20	67	0	28	27	28	20	18	72	11	136	25	24	88	29	67	18	9	70	65	53	25	7	2	1	144	125	5
OTU 136	19	65	35	0	24	7	8	12	13	0	1	5	22	3	14	21	83	67	1	0	41	0	1	0	24	57	19	309	0	0	6	9	159	6	2	11	63	24	2	58	0	0	0	0	4	11	49	5	4	5
OTU 137	106	2	14	4	86	10	17	32	0	1	0	3	36	36	0	0	1	2	30	34	36	0	2812	0	27	0	9	5	14	0	1	487	2	0	1	1	0	0	1	1	3	0	8	0	4	41	1	0	61	1
OTU 138	0	2	0	11	0	6	0	0	12	1	4	0	0	1148	0	21	33	16	2	0	29	8	7	7	8	0	12	8	81	10	8	52	70	0	0	0	0	1	0	15	8	16	2719	0	8	0	4	0	0	14
OTU 139	1	470	171	135	46	164	37	5	57	1	32	1062	102	73	89	85	27	23	68	14	44	11	40	3	1878	683	84	61	82	135	3317	10	48	101	12	2	132	21	52	12	162	8	144	53	103	1	139	18	122	243
OTU 140	47	29	62	22	310	274	17	21	338	201	11	293	138	56	27	118	45	68	165	1626	204	84	345	51	19	240	22	156	483	216	46	20	89	231	8	229	49	37	74	111	223	12	60	2357	34	29	70	201	1754	70
OTU 141	0	0	0	0	3	0	0	0	0	0	0	0	0	2	0	0	0	0	0	0	0	0	0	0	0	4	0	4	0	0	0	0	0	0	0	0	0	0	4	0	0	0	0	0	0	0	0	0	0	0
OTU 142	26	0	0	0	0	0	0	0	0	0	0	0	0	0	0	0	0	0	2	13	0	0	0	0	0	0	0	0	0	0	0	0	0	0	1	0	0	1	0	0	0	38	0	0	0	5	2	0	0	0
OTU 143	6	29	0	15	26	168	2	0	0	1	0	7	0	0	0	0	2	2	0	0	4	0	19	6	0	1	0	25	0	34	0	34	5	0	0	1	0	0	10	0	0	15	11	0	13	9	0	1	3	0
OTU 144	0	12	0	0	0	49	0	4	0	0	6	2	67	1	25	0	0	1	54	0	14	35	1	0	38	0	50	52	0	31	0	0	0	0	0	2	0	0	8	0	0	0	7	4	14	0	2	25	6	0
OTU 145	20	20	134	1603	97	9	40	43	6	42	20	36	23	54	7	78	22	184	2	9	4	11	62	5	12	166	16	457	5	58	14	185	47	90	1	38	42	30	21	7	6	4	5	10	212	14	11	0	32	572
OTU 146	7	13	0	15	24	12	60	5	34	75	0	50	218	7	1146	17	8	6	56	7	44	22	7	7	37	77	1598	47	1	8	19	34	21	111	0	44	23	49	1	75	1	0	0	6	700	5	8	6	18	888
OTU 147	35	14	6	1	30	1	15	4	1	0	9	54	18	36	2	0	2	0	21	0	95	11	0	1	10	0	10	26	2	1	11	21	2	9	0	36	18	14	0	0	0	5	0	0	19	13	1	10	8	24
OTU 148	20	0	130	3	74	86	0	8	25	140	0	3	65	0	178	20	56	57	106	8	8	12	202	28	19	1	440	168	46	1	70	71	107	121	0	30	8	29	0	359	40	20	36	136	121	3	190	44	0	174
OTU 149	201	1	46	3	0	4	16	1	1	4	1	1	35	8	3	0	0	0	22	84	16	31	609	32	13	0	21	1	4	29	0	0	0	39	0	0	78	0	1	13	5	37	1	18	0	109	5	15	47	41
OTU 150	47	0	0	0	4	0	0	26	0	0	0	0	0	0	0	1	2	1	0	54	0	0	3	26	0	22	0	0	5	7	0	1	5	30	0	0	0	0	13	67	112	20	0	0	0	26	17	1	0	0
OTU 151	11	11	1	48	22	0	0	1	17	2	16	94	11	7	2	35	0	1	29	0	0	2	30	17	10	29	0	25	35	142	10	38	1	107	1	0	0	1	11	62	3	15	0	17	2	3471	10	0	55	0
OTU 152	6	84	8	138	11	12	16	0	6	0	3	12	11	11	46	2	25	46	83	0	21	4	29	17	1010	41	14	101	78	9	36	46	55	0	8	45	19	14	8	68	59	182	84	46	17	0	76	74	14	27
OTU 153	0	41	30	1	0	4	1	0	10	2	2	5	0	20	0	0	38	22	2	0	10	19	0	0	0	0	0	0	9	0	30	33	86	0	0	0	0	0	0	0	1	0	0	0	0	0	21	6	0	0
OTU 154	0	0	0	1	0	0	1	0	0	0	1	0	0	1	0	26	0	0	0	0	0	0	0	18	0	11	0	1	0	0	5	0	0	0	0	0	7	0	6	0	13	0	0	0	0	0	0	2	24	0
OTU 155	8	42	86	0	6	8	0	110	8	0	3	34	0	39	0	3	27	29	0	1	5	0	1	62	0	15	0	38	0	5	13	78	42	1	0	4	27	1	3	4	19	0	11	0	0	1	11	0	3	11
OTU 156	114	3135	48	90	4	5	17	171	21	32	510	15	15	18	11	78	24	15	18	80	79	17	253	41	103	73	69	174	76	6	6	52	40	0	340	28	69	1	11	64	101	107	0	5	2	65	144	167	94	6
OTU 157	9	17	0	0	0	38	0	0	0	4	0	0	6	7	0	0	0	0	4	1	2	0	0	2	8	94	14	0	3	8	0	83	0	7	0	1	0	0	2	1	1	0	0	0	2	2	0	0	0	41
OTU 158	0	0	0	0	0	0	0	0	0	0	0	0	0	0	0	0	0	0	0	0	0	0	0	0	35	0	0	0	42	0	0	0	0	0	1	28	0	0	0	14	0	0	0	0	0	0	143	0	0	0
OTU 159	116	20	17	14	6	2	0	5	19	16	0	3	63	189	2	4	8	7	70	91	1	2	38	1	10	27	68	10	36	3	5	115	20	53	0	7	0	0	1	12	54	1	59	15	19	38	14	139	10	8
OTU 160	42	136	220	494	61	66	2	24	47	26	70	30	9	13	103	59	49	48	222	28	174	170	29	48	65	398	97	6	85	104	4	107	99	107	30	215	13	26	48	29	38	91	46	44	13	28	173	80	98	7
OTU 161	16	15	1070	56	79	11	3	2	20	1	27	81	6	22	0	8	11	8	181	9	8	13	59	58	11	0	2	57	106	0	2	35	11	4	7	47	16	21	2162	31	57	11	6	2	4	9	48	3	81	4
OTU 162	81	1	33	9	2	124	8	93	14	4	12	77	11	15	8	46	3	1	2	68	8	30	3	4	51	2	30	1	573	1	1	43	2	33	4	3	1	0	6	11	6	51	53	33	0	39	74	34	35	13
OTU 163	0	3	0	0	0	0	0	0	0	0	0	0	43	0	0	0	0	0	0	0	0	0	14	0	0	0	1	0	1	0	0	0	0	0	0	0	0	0	0	0	0	0	0	0	0	0	0	0	0	0
OTU 164	0	0	0	2	0	0	0	0	0	0	0	0	0	0	4	0	0	0	0	0	0	0	1	0	3	0	0	0	0	0	0	0	0	0	0	3	0	0	0	0	0	0	0	0	0	0	23	0	0	0
OTU 165	20	112	0	0	1	208	16	1	2321	6	0	0	4	1	5	11	29	33	10	11	19	45	0	0	4	0	27	9	16	1	4	183	48	6	1	0	22	30	11	0	4	11	0	55	0	14	6	13	14	13
OTU 166	0	0	0	0	0	0	0	27	0	0	0	0	0	0	0	0	0	0	0	1	18	0	6	0	0	0	0	0	0	23	0	0	0	1	0	0	0	0	0	0	0	0	0	0	0	0	0	0	0	0
OTU 167	33	57	2	0	30	32	1	56	3	32	7	0	29	9	3641	53	0	0	0	4	2	0	2	69	11	16	1	10	20	1	0	2	0	54	2	39	0	0	31	0	0	1	14	2	1108	22	5	48	47	17
OTU 168	0	10	11	7	37	22	0	83	28	0	65	223	30	2	24	3	27	13	30	19	48	4	0	2344	20	53	52	22	6	56	22	23	51	6	45	41	3	19	50	14	9	6	0	0	1	0	91	4	77	0
OTU 169	0	3	0	0	3	0	0	0	6	5	7	0	0	0	0	15	2	1	67	0	7	13	0	0	0	0	0	0	0	0	0	0	1	0	0	206	0	0	0	0	0	0	0	3	0	0	1	0	75	0
OTU 170	0	0	0	0	0	0	0	0	0	0	0	0	0	0	0	0	12	16	0	0	0	0	0	0	0	0	0	0	0	0	38	0	18	0	0	0	0	0	0	0	0	0	1	1	0	0	11	0	2	2
OTU 171	6	1	1	10	1	31	0	5	53	0	8	10	32	23	4	5	6	19	190	12	17	2	10	2	32	30	72	3	0	36	0	27	18	55	0	21	29	19	33	26	19	102	50	26	16	2	131	61	27	33
OTU 172	0	0	0	0	0	6	0	0	0	0	0	0	0	0	0	3	0	0	0	0	1	0	70	0	7	0	0	5	0	13	0	0	0	20	0	3	0	0	0	8	0	0	3	0	1	0	20	1	0	0
OTU 173	53	1	0	2	0	0	9	41	0	2	0	0	3	0	26	42	0	4	9	14	0	15	0	20	1	9	24	1	4	0	0	100	1	0	2	8	0	0	0	0	1	26	0	5	0	20	2	13	0	3
OTU 174	60	3	34	1	32	0	4	4	25	0	20	9	8	11	20	90	0	0	2	23	360	35	12	5	7	75	16	182	1	57	25	234	0	1	13	0	27	12	18	2	0	20	4	0	33	38	27	49	368	19
OTU 175	69	2	11	12	2	6	45	11	22	1	0	0	66	13	0	1	3	0	0	64	25	0	2	0	0	11	7	10	34	11	0	5	1	0	0	1	6	17	3	0	1	22	6	0	0	29	1	33	12	3
OTU 176	48	3	32	31	135	80	77	147	0	49	84	62	28	4	20	53	49	58	145	7	182	207	10	5	5	6	34	6	18	22	38	0	85	17	41	76	3	44	6	1	2	27	24	15	16	22	26	4	15	38
OTU 177	19	113	9	3	19	19	1	1	76	9	24	38	0	4	1	11	3	0	7	1	144	58	6	52	31	20	26	71	40	25	862	19	6	1	13	0	59	9	22	16	96	69	5	5	190	7	23	0	27	205
OTU 178	81	3	0	2	0	40	0	272	1	4	0	3	8	385	12	2	0	1	4	2	21	9	16	11	0	4	29	0	11	98	0	2	0	17	2	35	0	0	15	40	19	14	42	91	0	34	0	0	0	5
OTU 179	1615	16	25	39	417	4	2	6	0	0	2	0	23	31	19	4	14	17	46	700	4	72	0	14	19	10	57	19	45	22	38	27	34	16	3	0	0	13	1	0	0	1	22	31	5	794	0	0	0	31
OTU 180	85	192	1	36	115	36	19	260	109	26	38	294	79	78	245	312	43	27	60	15	83	43	111	249	92	117	107	249	290	67	64	122	84	21	17	21	22	35	50	99	357	10	133	99	52	25	491	59	25	71
OTU 181	30	13	42	125	0	27	43	64	48	13	1	0	44	74	4	26	5	6	1	28	113	6	25	0	67	0	1	0	9	24	14	15	9	0	0	14	57	266	20	13	909	7	82	47	63	25	84	146	17	18
OTU 182	0	0	0	0	0	0	0	0	0	0	0	0	0	6	0	0	0	0	5	0	0	0	0	0	0	0	0	0	0	0	18	0	0	0	0	0	0	0	0	0	5	0	0	0	0	0	0	0	0	0
OTU 183	0	116	33	0	21	5	6	25	399	0	5	123	14	12	0	0	9	13	21	0	14	0	3	6	4	15	0	77	38	1328	0	32	33	1	0	2	0	1	824	7	101	6	1	8	1	0	16	26	30	7
OTU 184	113	4	1	3	19	4	52	2	23	8	14	26	68	19	2	84	10	9	130	62	82	68	10	12	9	65	0	14	0	2	10	24	31	34	14	2	6	3	1	0	0	5	25	3	0	54	8	82	59	16
OTU 185	26	6	15	30	28	53	11	318	16	15	7	2	3	36	56	58	71	52	34	91	10	1	2	4	39	28	103	48	32	112	52	251	133	7	0	3	9	35	61	111	32	1	10	3	27	13	130	98	19	60
OTU 186	0	2	91	40	61	0	18	0	2	6	0	5	0	0	14	15	0	0	0	7	34	63	0	0	3	0	20	28	26	1	0	42	3	2	0	0	7	30	0	0	27	5	2	21	0	0	87	11	0	11
OTU 187	45	84	170	16	67	18	2	162	2	43	30	138	10	76	48	76	34	31	131	12	47	80	33	102	9	33	132	213	56	25	21	103	69	1305	8	6	91	3	1	13	53	59	135	131	15	24	37	8	24	40
OTU 188	47	53	6	15	44	608	13	65	25	9	18	57	21	1	85	51	3447	48	6	37	16	22	53	56	55	193	72	13	31	118	36	1	91	12	9	33	34	1	51	113	3	25	161	20	14	37	5	56	30	33
OTU 189	103	4	109	69	5	42	17	58	32	698	22	20	35	15	13	12	36	44	70	34	44	68	134	476	100	19	22	104	24	13	13	36	77	49	29	20	42	43	28	95	123	94	13	7	5	62	251	194	14	30
OTU 190	11	0	64	1	1	3	1	7	0	3	0	13	0	0	0	18	0	2	0	17	0	0	0	0	11	0	0	0	0	10	0	0	1	0	3	0	0	0	10	2	19	2	4	0	0	10	0	0	0	0
OTU 191	25	123	46	72	13	27	2	0	57	1	3894	305	23	29	68	75	13	20	67	22	7	13	84	7	59	174	19	155	62	69	13	9	30	47	1989	22	47	26	16	11	28	30	172	59	9	10	104	19	228	48
OTU 192	20	99	188	33	21	43	19	27	1	12	215	160	1	49	10	100	46	57	177	32	50	364	1	73	28	667	33	248	82	89	48	67	111	304	71	110	59	78	39	2062	67	73	37	3	22	19	38	37	35	65
OTU 193	8	88	164	0	0	225	1	66	17	16	66	71	60	3	1	31	0	2	181	2	4	114	11	6	72	71	8	20	269	167	6	62	1	19	41	198	4	0	20	6	2	12	2	25	13	1	124	113	25	34
OTU 194	482	22	24	5	6	34	304	20	10	0	6	1	1	1	47	1	5	0	6	276	7	4	3	3	5	0	0	1	60	0	0	185	5	13	4	0	14	412	10	7	17	1	41	4	25	192	0	2	393	0
OTU 195	5	11	26	4	86	2	2	8	8	23	6	10	4	6	13	2	52	42	14	0	0	54	8	2	3	46	127	25	5	7	21	21	100	10	3	19	29	2	0	45	4	20	4	48	66	2	3	9	128	55
OTU 196	30	1	49	49	52	6	0	6	2	10	4	17	14	129	0	45	17	14	17	10	5	0	158	55	4	7	3	140	50	8	0	59	33	77	12	15	191	0	20	53	2	1	265	1	7	5	61	1	9	1
OTU 197	73	331	40	149	1185	245	19	86	40	115	31	841	45	3	6	5	28	37	71	7	42	52	8	18	93	357	24	122	17	16	43	267	64	16	33	54	12	47	26	766	29	118	9	150	2614	17	267	132	97	4
OTU 198	75	0	4	0	0	6	0	48	3	61	0	2	0	0	0	644	30	27	37	34	0	0	0	0	5	5	11	0	0	0	1	7	58	0	11	0	0	23	0	0	0	0	0	89	7	52	6	2	3	10
OTU 199	73	12	43	0	0	29	4	0	0	4	0	0	8	0	46	4	16	12	0	48	24	1	0	45	84	0	27	6	0	2	2	1	31	45	0	1393	3	18	0	13	10	0	0	18	3	25	58	0	55	1
OTU 200	0	18	54	10	3	47	0	63	13	12	0	8	8	1	0	0	2	4	15	10	0	5	3	2	6	0	0	61	25	0	10	62	11	11	2	1	65	24	7	39	3	18	17	13	1	0	18	113	42	3
