	Host 1	Host 2	Host 3	Host 4	Host 5	Host 6	Host 7	Host 8	Host 9	Host 10	Host 11	Host 12	Host 13	Host 14	Host 15	Host 16	Host 17	Host 18	Host 19	Host 20	Host 21	Host 22	Host 23	Host 24	Host 25	Host 26	Host 27	Host 28	Host 29	Host 30	Host 31	Host 32	Host 33	Host 34	Host 35	Host 36	Host 37	Host 38	Host 39	Host 40	Host 41	Host 42	Host 43	Host 44	Host 45	Host 46	Host 47	Host 48	Host 49	Host 50	
OTU 1	141	141	169	83	29	51	8	116	85	132	20	60	176	74	227	13	55	243	26	5	99	92	46	60	10	152	7	1	34	112	35	68	14	49	2	31	0	95	42	93	594	22	43	69	88	7	143	3	42	0
OTU 2	31	0	51	2	4	30	3	0	0	0	8	4	0	24	4	0	2	2	3	27	2	8	0	0	3	0	0	0	11	24	6	27	0	0	11	6	1	0	24	4	0	4	0	21	19	1	5	2	12	3
OTU 3	0	9	3	1	0	1	0	0	27	0	10	5	18	1	16	3	0	2	0	45	11	1	24	28	1	0	16	1	11	0	3	0	0	0	8	0	16	6	0	7	2	2	0	6	0	44	33	3	0	20
OTU 4	3	0	0	0	0	0	0	1	0	0	0	0	0	0	0	0	0	0	0	0	0	0	0	0	0	0	0	0	8	0	0	0	0	0	0	0	0	0	0	0	0	0	0	0	1	0	0	0	0	0
OTU 5	83	202	41	61	329	139	215	811	10	348	399	757	167	257	330	328	0	259	0	27	312	336	62	452	17	725	2	168	557	746	342	85	96	596	857	282	38	1	1422	778	641	182	327	5	275	172	884	37	1	72
OTU 6	7	95	3	1	2	156	25	9	31	0	100	36	66	2	18	12	27	4	31	29	63	78	7	32	0	30	74	33	138	88	21	70	0	30	2	8	3	12	5	37	18	9	170	3	48	80	8	185	24	20
OTU 7	40	57	68	152	16	226	12	44	50	3	148	47	54	24	21	54	51	7	51	15	14	47	72	9	98	15	215	59	9	99	18	319	78	63	63	7	10	27	74	83	21	5	4	21	20	746	986	1973	123	94
OTU 8	22	71	56	115	53	32	63	11	17	10	12	0	13	25	62	51	54	22	103	48	8	9	6	0	93	7	57	49	47	8	25	405	59	14	56	19	284	75	67	2	30	2	174	40	5	44	38	18	104	445
OTU 9	1	0	0	172	0	44	21	0	0	2	3	8	8	0	15	57	46	0	33	21	1	1	6	3	20	2	123	4	12	0	5	1	0	93	2	0	2	39	13	15	73	7	0	1	2	15	0	53	0	5
OTU 10	5	5	63	5	0	6	11	0	1	0	1	7	6	27	0	1	9	0	0	16	1	0	53	1	14	0	1	0	50	40	13	13	37	11	14	5	0	6	6	3	1	0	0	2	0	0	0	0	131	0
OTU 11	31	146	37	277	26	10	21	52	2	7	76	27	8	19	2	4	66	17	2	65	15	19	26	18	0	33	6	4	7	14	15	23	148	7	2	23	47	322	6	70	24	10	0	20	3	84	28	148	31	3508
OTU 12	33	12	87	25	11	12	51	12	5	3	52	4	79	54	24	3	58	0	13	76	69	45	7	20	31	41	35	0	9	8	15	83	46	4	76	4	180	0	29	25	0	8	42	22	23	10	65	29	130	28
OTU 13	0	9	0	0	0	0	0	0	10	0	0	0	1	0	2	1	0	0	0	0	0	0	2	0	0	0	3	0	0	0	0	0	0	0	0	0	0	0	0	0	0	1	0	0	0	0	0	0	0	22
OTU 14	0	1	15	7	0	0	0	3	0	0	27	43	5	8	7	19	4	0	0	2	10	0	17	11	0	0	63	1	13	6	1	0	194	1	37	18	41	2	1	98	1	14	1	1	13	121	43	193	23	0
OTU 15	0	0	1	0	0	0	0	0	0	0	0	0	1	2	0	0	0	0	0	0	0	0	0	0	0	1	0	0	4	0	0	0	2	0	3	0	25	0	1	0	0	0	0	20	0	0	5	0	0	0
OTU 16	3	0	0	0	0	0	0	0	0	0	7	0	0	0	1	0	0	0	0	0	0	0	0	0	0	0	0	0	0	0	0	0	0	0	0	0	0	0	0	0	0	2	0	0	5	0	0	0	0	0
OTU 17	1	0	13	0	0	29	0	80	0	254	0	26	24	4	100	2	0	471	0	7	0	19	22	13	28	3	22	9	37	632	5	0	34	305	4	18	0	3	1	46	815	51	34	3	2	36	1	41	87	2
OTU 18	15	9	0	41	79	55	24	39	53	3	69	28	17	0	47	36	0	5	12	16	0	8	13	68	84	1	95	82	257	22	25	55	62	47	9	88	180	91	24	53	51	41	60	74	4	37	34	11	84	59
OTU 19	0	0	0	0	0	0	13	0	0	0	0	0	0	0	0	0	0	0	0	0	0	0	0	1	0	0	0	0	0	0	0	0	0	0	0	0	0	0	0	0	0	0	0	0	0	0	0	0	0	0
OTU 20	43	1170	462	32	25	2	9	31	62	0	11	16	6	222	8	52	31	7	2	232	58	109	138	18	164	608	4	1	37	80	9	9	17	21	7	6	40	52	23	38	24	5	90	258	33	600	18	858	73	32
OTU 21	4	57	20	128	2	1	117	2	4	17	88	27	5	7	1	2	36	10	6	18	5	0	71	4	4	9	3	2	94	77	32	44	120	0	41	46	111	78	7	57	6	7	4	23	1	41	36	7	49	89
OTU 22	43	43	41	12	2	7	0	46	42	25	62	54	13	14	82	2	6	21	2	6	12	23	1	11	410	37	108	1	23	2	6	4	0	7	19	0	1	140	13	126	27	0	8	1	1	2	57	1	53	44
OTU 23	6	80	0	0	0	34	24	9	2	0	7	13	42	0	28	11	2	19	0	0	55	68	0	25	2	18	0	1	0	10	10	0	23	4	17	2	1	0	0	18	16	7	24	13	77	1	0	0	111	94
OTU 24	0	23	3	15	4	0	4	0	39	11	1	0	8	1	0	7	4	12	0	7	0	1	0	0	0	29	27	0	0	67	0	1	0	30	52	107	27	227	1	0	1	0	0	0	0	22	1	31	84	0
OTU 25	0	0	0	0	0	0	0	0	0	0	0	0	0	0	0	0	0	0	0	0	7	0	0	0	0	0	0	0	1	0	1	0	0	1	0	0	0	0	0	0	0	0	0	0	0	0	0	0	0	3
OTU 26	28	0	103	0	9	13	5	0	0	2	12	0	4	36	4	38	0	0	1	0	0	2	21	21	6	0	9	0	1	1	0	0	0	0	0	3	25	27	22	1	0	1	0	20	0	0	0	0	0	0
OTU 27	0	0	0	0	0	1	0	0	0	0	0	0	52	0	18	0	7	0	0	0	0	0	0	12	0	0	0	23	0	31	15	0	0	37	0	0	0	0	0	0	0	66	0	1	0	0	0	0	0	0
OTU 28	197	18	82	0	62	16	10	8	65	3	24	36	17	43	377	15	12	10	6	53	1528	58	49	172	40	9	72	22	66	6	1	29	157	14	96	0	26	14	85	59	2	64	142	79	38	11	18	1	62	138
OTU 29	160	13	4	48	1	2	4	11	60	11	15	27	4	4	0	77	23	7	10	1	29	18	15	5	45	6	63	3	54	28	31	16	97	38	57	30	2045	13	20	13	12	0	34	18	19	49	55	104	7	22
OTU 30	0	0	0	0	0	0	0	0	0	0	0	0	0	0	0	0	0	0	0	0	0	0	0	0	0	0	0	0	0	0	0	0	0	0	0	0	0	0	0	0	3	0	5	0	0	0	0	0	0	0
OTU 31	0	11	53	29	29	4	0	51	99	0	12	6	0	35	0	1	11	0	0	11	0	0	15	47	123	0	6	23	0	3	0	11	3	11	29	4	0	3	3	1	3	28	0	2	0	3	27	1	73	0
OTU 32	30	29	23	32	1846	41	10	29	19	0	78	80	99	12	18	9	60	4	59	712	38	28	63	3714	51	0	76	92	30	63	56	41	36	11	78	16	51	126	25	187	36	1752	21	100	18	29	86	17	13	193
OTU 33	0	0	4	0	0	0	0	0	0	0	1	0	0	1	0	0	0	3	0	0	3	0	0	0	0	0	0	6	0	0	1	0	0	3104	0	0	0	0	0	0	0	0	0	0	0	3	0	0	1	0
OTU 34	97	5	14	1	18	0	34	12	7	6	199	6	32	6	3	11	31	47	3	1	74	3	90	6	37	6	15	2	66	32	1	34	8	19	55	813	27	0	57	6	11	5	4	9	22	1	0	83	5	0
OTU 35	60	11	12	1	0	0	16	1	95	1	61	2	40	101	44	15	5	4	25	0	17	7	55	2	52	3609	22	103	42	9	49	124	24	7	68	1	107	12	16	1	40	0	79	26	19	2	2	70	48	1
OTU 36	0	129	1	0	4	0	0	23	0	1	5	24	9	0	2	9	31	11	11	4	57	1	9	0	104	25	11	19	10	3	8	0	109	31	17	51	116	2	13	48	5	1	12	131	20	0	13	3	25	0
OTU 37	0	8	0	0	4	0	1	1	0	0	6	1	12	0	3	3	47	0	39	0	29	56	4	0	2	1	0	10	0	5	0	57	15	3	2	0	0	20	0	0	25	0	2	0	16	18	260	7	7	0
OTU 38	31	41	75	53	1	125	0	27	42	13	1	4	15	44	12	4	0	50	1	0	19	40	11	8	31	0	6	2	0	0	15	16	192	2	57	214	63	63	2	12	8	17	118	27	4	35	10	5	143	6
OTU 39	0	23	0	14	0	0	1	0	0	0	0	0	30	0	2	3	0	0	0	0	0	0	0	0	22	7	11	5	7	8	0	0	0	8	1	0	1	10	0	2	1	17	3	13	1	4	32	0	7	0
OTU 40	200	31	6	5	1587	84	61	36	4	3	1	59	4	2	0	63	61	0	61	52	4	44	3	58	44	7	8	266	2	2	26	9	69	9	16	7	8	31	34	139	1	1	114	27	15	19	4	117	22	19
OTU 41	12	2	3	29	1	43	1	6	4	2	67	16	3	3	18	8	1	4	0	56	24	8	0	3	3	14	15	2	9	54	15	0	28	47	3	21	6	25	0	15	4	8	2	65	19	0	2	14	0	35
OTU 42	18	1	141	3	16	0	0	1	13	0	0	0	0	74	9	22	28	0	1	34	0	0	1	8	0	0	55	7	0	0	0	2	0	8	2	1	0	0	0	1	0	22	46	6	0	0	0	36	10	0
OTU 43	0	0	0	0	0	0	0	0	0	0	0	0	0	0	0	0	0	0	0	0	0	0	0	8	11	0	110	0	7	21	1	0	0	66	0	0	0	0	10	0	0	8	0	0	0	0	0	0	0	0
OTU 44	4	11	0	0	0	147	7	0	0	0	120	6	1	0	13	0	0	0	0	0	1	3	12	2	0	0	1	0	2	8	11	0	5	2	0	13	1	5	0	19	32	0	2	0	10	8	22	26	0	13
OTU 45	507	16	57	6	424	28	10	24	55	2	1	10	618	26	1495	3	122	6	117	18	40	0	137	602	23	14	30	0	15	17	291	45	48	8	43	34	42	46	261	27	44	330	9	55	21	16	35	17	44	23
OTU 46	12	78	16	743	6	9	5	155	21	5	198	1	2	4	1	118	19	2	5	7	73	293	3	37	53	42	70	50	91	37	2997	0	0	1	0	1714	6	5	145	0	7	269	0	3	160	6	73	2	129	6
OTU 47	83	35	3	0	1	0	6	0	0	1	136	0	18	1	0	68	0	0	0	0	6	3	0	0	0	7	175	0	0	2	34	0	99	0	0	0	0	0	6	0	0	0	42	0	0	22	0	35	0	0
OTU 48	3	140	49	2302	51	101	2254	9	8	12	29	33	9	20	75	60	17	18	15	25	77	20	4	52	32	69	152	100	21	27	13	29	1	5	19	40	15	111	42	63	15	15	5	52	53	37	2	16	33	11
OTU 49	89	1	0	0	0	20	0	1	2	1	1	399	25	0	5	3	89	10	23	10	25	5	0	39	175	20	2	23	12	38	4	1	0	18	69	26	30	28	71	715	0	66	0	1	8	85	237	0	3	80
OTU 50	45	7	2	20	3	13	21	5	2	11	33	45	2	1	10	3	14	9	9	18	15	31	10	90	94	6	15	21	9	2	7	15	33	37	77	1	7	14	51	108	12	69	16	29	60	46	85	29	285	15
OTU 51	9	16	25	17	7	4	1	11	30	16	128	24	14	16	28	92	0	27	0	202	9	21	6	4	63	6	164	6	46	28	2	118	3	13	0	1476	74	129	2	44	40	0	44	13	11	6	48	6	39	45
OTU 52	17	102	137	373	71	10	156	33	25	339	377	29	11	77	105	131	32	34	10	21	5	43	39	101	105	83	94	99	82	23	9	250	103	56	772	287	144	792	6	77	56	40	29	22	117	97	37	145	58	1
OTU 53	0	0	0	0	0	0	0	0	0	0	0	4	0	0	0	9	0	0	0	0	0	0	0	1	0	3	23	0	0	0	0	2	0	0	0	0	0	0	0	7	0	0	0	0	0	0	0	0	0	0
OTU 54	176	46	210	13	30	3327	46	20	90	497	41	21	1258	93	43	26	302	13	141	4	33	61	8	32	110	31	18	32	39	16	848	50	16	6	8	21	15	90	175	62	43	8	83	9	34	3	47	32	47	41
OTU 55	72	0	0	0	0	0	0	0	0	0	16	0	7	0	0	0	0	0	0	0	0	0	0	0	0	0	0	0	6	0	0	0	0	0	0	0	5	0	37	0	0	0	0	0	0	0	0	0	0	0
OTU 56	15	0	0	0	2	2	3	0	20	2	0	0	0	0	18	0	2	0	5	55	0	0	82	0	6	0	0	0	3	13	0	50	35	0	58	19	0	175	5	1	0	0	6	0	24	2	1	0	0	29
OTU 57	38	75	107	20	66	21	1	591	39	89	65	40	45	57	145	194	205	136	124	101	114	252	63	119	21	51	247	1008	684	278	65	132	150	341	23	14	129	120	44	102	508	53	25	128	119	189	14	299	274	11
OTU 58	4	0	45	0	1	468	4	2	1	0	41	28	0	25	42	0	29	2	32	13	0	14	3	20	1	1	3	0	45	2	17	21	1	0	53	3	0	28	11	71	81	6	1062	21	18	0	233	10	0	0
OTU 59	17	48	0	63	47	10	2	92	0	115	2	0	7	0	39	8	3	178	5	24	15	25	0	74	11	60	0	20	0	56	4	0	0	1	18	21	32	4	8	0	293	44	1	10	7	26	14	33	0	6
OTU 60	25	28	4	81	12	7	2	51	58	5	1	27	44	4	25	3	74	18	45	172	18	172	13	86	48	21	15	5	32	8	1	17	81	9	2	11	3	88	34	56	46	13	27	7	22	36	137	52	127	39
OTU 61	52	115	6	126	22	30	5	2	26	14	46	61	90	4	149	29	91	65	2157	141	34	2	10	60	3	55	56	66	70	106	20	7	93	81	106	74	40	220	12	103	76	1	117	149	2	3	66	77	68	21
OTU 62	1	4	24	0	0	2	0	0	51	1	3	0	38	13	2	101	2	1	1	8	4	151	0	2	8	15	50	951	5	11	20	14	7	1	0	0	0	1	0	0	15	2	3	0	51	22	0	11	0	3
OTU 63	16	102	4	1	5	4	0	89	60	0	7	3	0	5	0	6	68	5	23	6	2	0	3593	2	2	27	7	21	1	11	0	0	213	2	31	0	0	16	3	6	1	22	4	57	5	7	12	23	142	11
OTU 64	129	12	38	43	42	1	648	49	83	9	34	98	108	20	138	169	21	23	12	8	13	58	49	76	26	23	442	29	21	35	50	45	304	53	94	31	96	159	15	192	8	73	3	32	9	3	219	3	24	283
OTU 65	0	0	0	0	0	0	1	0	0	0	4	0	30	0	0	57	0	0	0	0	0	0	0	0	1	0	148	0	0	0	0	0	16	9	0	0	0	4	0	0	0	1	0	3	0	0	0	7	0	7
OTU 66	6	13	58	40	32	9	12	51	2187	0	11	68	26	25	62	1	73	7	6	28	42	5	1259	44	36	8	9	33	30	8	12	3	23	33	12	15	6	33	40	123	9	52	1	19	2	3	9	28	3	20
OTU 67	0	65	102	97	5	43	20	0	13	6	0	34	7	55	2	82	53	2	19	37	28	0	2	4	4	2	165	13	1	9	86	100	1	33	2	11	37	0	0	76	0	4	35	59	0	13	39	10	94	0
OTU 68	7	11	40	10	0	8	12	28	0	409	1	4	8	14	37	0	30	903	34	28	13	6	6	37	0	0	0	43	6	616	3	21	0	289	0	20	0	0	0	9	1074	5	0	9	2	0	0	0	23	4
OTU 69	16	7	70	541	11	37	16	27	41	0	82	123	15	2161	0	40	49	2	4	34	15	30	3	6	16	3	35	15	1	120	14	294	2	39	365	225	90	797	4	268	2	0	11	31	45	31	136	41	48	10
OTU 70	16	0	3	44	36	7	7	267	5	57	0	24	22	2	51	25	2	70	26	3	1	163	0	48	1	4	152	139	239	20	20	14	1	12	50	64	30	166	13	51	59	9	11	0	116	0	9	23	0	2
OTU 71	22	4	5	7	907	91	32	0	58	5	5	122	0	2	1	0	92	0	72	49	7	5	0	0	0	0	9	2212	0	20	1	26	3	0	1	1	0	83	1	156	44	3	0	0	3	0	7	8	11	1
OTU 72	132	10	2	7	24	1	4	1	9	12	0	20	3	0	19	19	5	13	1	39	1	1	31	7	134	18	38	32	1	80	0	3	114	17	104	6	29	33	84	32	17	13	5	3	1	51	17	76	2	20
OTU 73	2	65	2	45	3	44	2	234	6	19	6	2	43	2	51	3	109	24	18	76	0	34	1	2	64	31	62	1	2	23	11	77	76	6	29	22	824	9	1	1	40	22	28	21	3	4	1	44	55	15
OTU 74	153	96	33	35	5	72	31	1	0	22	21	74	33	15	1	44	4	78	3	52	15	15	18	5	174	99	4	26	8	637	13	28	176	284	18	7	4	5	51	98	96	5	100	34	21	88	17	172	22	4
OTU 75	27	9	5	4	2	21	46	486	10	158	61	106	7	3	7	5	73	258	12	5	443	767	0	65	9	1	10	249	510	366	19	78	13	236	21	22	21	22	26	183	636	9	1	12	346	3	26	20	9	13
OTU 76	48	20	0	1	0	3	1	20	0	0	8	0	2	0	0	0	3	15	0	144	1	2	0	1	0	8	1	4	11	0	1	14	0	3	0	1	5	5	3	0	0	0	19	87	0	0	1	6	0	4
OTU 77	41	24	136	7	7	7	1078	116	0	88	102	10	6	61	54	24	19	104	6	0	45	37	57	10	37	0	6	0	86	20	2	32	0	0	70	38	97	2	22	16	52	2702	8	0	3	27	115	27	94	84
OTU 78	84	298	154	20	80	0	59	35	5	3	212	1	89	68	61	150	59	8	27	59	56	79	118	15	11	129	234	87	151	39	38	72	77	27	7	34	70	59	23	9	21	2	43	23	68	135	170	148	3	21
OTU 79	199	94	27	54	91	98	30	145	27	2157	169	100	156	13	186	48	230	4288	192	78	66	151	25	292	168	58	116	93	32	13	48	97	25	37	73	34	141	9	997	179	187	121	144	117	75	1660	37	97	392	98
OTU 80	31	86	2	7	20	17	5	6	27	71	38	84	3497	0	12	30	118	86	21	14	75	93	71	3	202	45	11	41	1	8	1471	6	43	0	34	8	76	15	13	134	32	4	30	108	69	3	18	8	16	20
OTU 81	46	3	43	51	10	11	173	21	4	1558	58	37	7	19	23	47	230	3	131	26	16	50	13	5	97	1	9	29	15	25	663	167	18	16	156	26	87	72	760	120	9	21	119	36	5	44	43	23	186	137
OTU 82	44	3	68	61	75	5	0	91	12	8	69	3	0	36	97	160	1	20	7	44	6	0	1	16	17	3	358	3	10	9	14	1	2	14	56	4	5	269	50	10	44	46	81	4	0	1	5	2	37	125
OTU 83	14	0	6	3	0	11	19	0	0	3	0	1	6	3	0	0	15	19	6	0	41	54	0	0	2	4	1	0	3	1	3	0	55	1006	0	0	1	0	6	1	0	0	0	0	63	10	0	59	38	0
OTU 84	0	3	80	77	46	43	14	52	79	0	121	15	105	37	44	0	170	1	51	18	0	0	1	106	5	10	13	6	0	0	130	6	19	3	11	8	1	111	6	33	2	64	30	0	4	16	22	15	74	1
OTU 85	0	4	2	1	0	3	3	0	17	0	0	14	0	0	0	39	10	0	0	11	0	0	0	4	0	1	24	5	0	5	0	1	1	0	8	20	0	0	1	28	38	1	3	0	0	2	7	0	8	76
OTU 86	0	0	0	0	0	35	0	0	0	0	9	0	3	0	15	2	0	0	0	0	0	1	0	0	0	0	0	0	0	0	1	0	0	0	0	0	0	0	0	0	0	13	0	0	0	0	0	0	0	0
OTU 87	29	0	0	23	8	0	1	137	1	0	17	0	1	0	1	0	4	10	1	2	0	0	0	0	6	0	4	0	1	1	1	2	0	0	31	0	0	46	4	0	2	1	17	10	0	2013	0	1	0	94
OTU 88	0	0	0	3	0	1	0	2	0	6	110	1	1	0	6	4	0	2	0	1	21	0	0	1	0	0	0	0	41	1	0	0	0	0	0	38	11	0	0	3	0	0	0	0	0	0	12	9	36	2
OTU 89	1059	14	1	0	25	0	0	1	7	1	12	0	5	0	0	0	568	3	340	6	1	0	1	1	31	10	148	0	0	0	0	159	2	9	13	11	1	0	662	3	76	0	109	7	2	0	23	3	10	17
OTU 90	0	0	0	4	1	44	1	14	0	0	0	2	0	0	0	0	3	0	0	6	0	0	0	0	0	0	0	0	12	5	2	3	0	2	0	1	3	0	0	0	0	0	0	4	0	1	1	3	0	0
OTU 91	1	0	0	0	0	0	7	0	0	0	0	0	0	0	0	21	78	0	18	0	0	0	0	0	0	0	0	0	0	0	0	0	0	0	0	0	0	0	0	0	3	0	5	0	0	0	0	0	0	0
OTU 92	0	66	4	2	6	0	6	2	3	0	8	4	132	1	3	0	3	0	0	0	0	21	0	0	1	35	0	21	1	0	7	0	0	2	3	6	0	5	0	0	73	0	1	13	0	0	13	0	0	1
OTU 93	3	0	0	0	0	1	9	64	0	0	0	0	0	0	0	0	0	0	0	145	0	1	0	0	0	0	3	0	26	79	0	0	94	0	0	0	0	1	0	5	0	0	2	0	4	0	0	0	12	0
OTU 94	62	29	74	105	16	277	12	8	21	5	45	280	8	36	1	117	7	1	34	122	81	147	0	0	54	64	33	43	7	55	5	65	29	14	0	40	17	142	8	186	86	0	565	73	7	96	97	93	230	0
OTU 95	0	21	8	4	28	1	16	1839	0	3	0	6	0	6	11	2	0	21	9	0	0	6	0	1	0	0	0	1	0	0	0	0	9	2	0	0	7	2	0	10	0	0	0	0	0	0	2	0	9	7
OTU 96	1	11	0	0	0	0	4	0	1	0	0	0	0	0	0	0	0	0	0	0	0	0	0	0	0	0	0	0	0	1	0	0	22	0	29	0	0	0	1	0	31	3	0	0	0	0	0	0	0	0
OTU 97	11	0	14	0	0	0	0	0	1	0	0	1	4	9	0	0	24	1	6	0	6	0	0	0	0	4	0	0	0	0	0	19	0	0	7	0	179	1	0	0	0	0	0	3	1	1	0	0	0	8
OTU 98	40	7	9	2	1	0	37	0	37	1	0	0	1	6	1	0	9	13	8	3	0	0	0	0	2	7	4	29	4	7	0	245	7	0	28	3	0	0	9	0	3	0	41	3	0	2	2	0	11	0
OTU 99	9	74	9	13	30	93	21	14	26	4	1	19	66	11	160	18	156	26	15	86	17	4	40	8	47	10	12	35	5	3	3	243	132	0	30	18	58	104	1345	56	53	5	157	50	34	25	13	23	81	10
OTU 100	66	69	25	7	0	39	13	101	0	21	9	0	49	11	11	56	23	33	1	19	7	14	5	10	0	6	8	8	166	23	0	11	53	23	7	86	64	12	6	0	117	1	0	9	22	0	8	0	109	3
OTU 101	62	0	0	0	0	1	0	0	0	1	0	20	2	0	0	0	0	0	0	0	0	0	0	0	0	0	0	0	0	0	0	0	1	0	0	0	0	0	7	26	1	0	0	0	0	0	0	0	1	3
OTU 102	1	24	11	23	16	2	11	0	0	0	0	17	19	3	0	0	27	3	8	12	0	0	5	11	0	0	0	2	75	0	21	4	30	4	0	0	0	5	3	52	36	0	17	1	0	0	21	21	0	0
OTU 103	0	7	0	25	0	1	0	0	5	0	1	0	31	0	8	0	68	0	52	6	0	37	8	0	0	15	4	53	11	69	17	106	2	39	4	31	11	104	0	0	2	0	2	87	16	6	14	4	48	22
OTU 104	65	181	45	19	93	39	269	81	5	6	49	86	100	19	207	29	2	39	2	14	4	16	7	131	94	102	20	112	28	92	38	107	15	1	52	942	38	48	14	159	7	102	25	67	11	33	720	59	10	8
OTU 105	0	0	37	0	0	3	0	0	0	29	83	69	0	18	0	1	114	15	50	3	16	8	0	0	17	183	0	5	0	0	2	97	8	1	1	3	7	0	1	127	32	1	5	0	14	0	0	0	0	0
OTU 106	0	0	0	0	0	11	3	2	4	0	0	4	7	0	1	12	21	2	0	3	4	1	0	3	0	11	0	0	0	2	0	26	261	8	0	2	0	21	4	16	2	0	0	0	0	0	0	0	20	0
OTU 107	19	2	432	11	24	27	23	72	276	3	2	0	2	216	6	2	0	0	0	143	24	47	189	27	31	1	22	2	4	38	0	57	0	0	0	0	0	2	47	0	28	0	0	317	31	4	0	20	0	49
OTU 108	3	306	0	217	5	2	23	7	0	0	0	52	9	0	37	168	3	11	3	0	1	0	11	44	17	162	33	65	27	22	2	14	72	0	116	36	0	110	27	86	0	17	0	134	1	10	58	63	34	9
OTU 109	0	0	0	0	0	0	0	0	0	0	0	0	0	0	17	0	0	0	0	0	0	8	0	0	0	0	0	0	0	0	0	0	2	0	0	49	0	20	0	0	0	0	0	0	0	0	0	0	0	2
OTU 110	5	65	47	10	19	9	39	48	2	18	42	3	31	23	30	42	9	34	1	5	203	140	4	48	8	12	0	57	0	27	13	7	7	5	25	9	7	13	4	9	50	37	3	6	69	34	2	238	45	36
OTU 111	0	46	56	10	4	0	2	0	19	1	0	1	0	26	0	0	0	0	1	0	0	0	40	0	8	18	0	0	1	0	0	56	0	0	2	0	1	0	0	1	0	2	59	9	6	0	0	0	1	0
OTU 112	0	49	43	34	11	90	1	51	1	12	7	0	8	24	1	1	0	32	0	7	12	12	0	4	0	45	41	0	66	0	33	4	0	3	45	7	5	36	59	0	11	1	29	8	17	1	2	14	99	0
OTU 113	0	1	6	20	16	0	16	7	0	0	0	0	0	5	1	5	0	2	0	0	52	0	0	0	18	2	0	6	0	0	0	0	7	2	2	0	0	0	0	0	0	0	0	2	1	9	1	0	5	0
OTU 114	30	23	12	70	1	51	11	21	1481	16	54	2	49	2479	34	59	127	39	57	17	63	55	621	14	167	21	211	23	126	21	18	10	2	28	16	19	3	50	3	13	80	13	97	5	3	100	16	209	91	67
OTU 115	100	396	126	57	15	97	11	63	74	28	69	26	9	65	108	47	60	40	12	79	27	37	35	18	14	234	5	16	143	65	44	127	218	25	34	236	33	26	83	43	108	16	19	46	6	63	232	70	132	69
OTU 116	106	32	16	24	9	3	267	3	0	2271	27	0	39	10	30	43	6	8	2652	22	4	15	42	66	116	0	48	2	9	17	6	47	305	3	6	12	134	82	37	0	36	31	25	229	5	1	15	8	49	16
OTU 117	4	29	158	8	0	7	10	44	0	17	0	0	26	75	80	20	6	12	0	14	0	3	12	1	62	10	113	5	17	36	0	0	0	11	1	4	0	37	0	7	13	32	4	10	8	55	23	21	48	4
OTU 118	0	10	24	2	0	0	3	0	0	3	0	0	7	10	0	0	0	16	2	0	29	1	3	0	0	0	0	16	3	0	4	0	7	4	28	0	0	127	0	0	0	0	0	0	1	0	0	3	0	0
OTU 119	32	21	2	15	58	1	8	14	56	2	0	20	7	2	73	9	1	12	10	16	3	2	37	43	255	14	36	87	0	5	7	93	92	9	58	57	72	50	4	27	29	52	9	47	22	22	5	56	31	59
OTU 120	41	29	0	0	0	18	1	0	0	147	0	0	38	0	10	1	3	284	2	14	9	1	31	2	45	3	5	63	0	10	17	0	49	0	1	0	88	0	0	5	13	0	23	1	0	0	0	5	0	33
OTU 121	1640	0	30	49	21	9	4	0	90	2	288	50	0	12	184	1	0	5	16	3	0	16	1	159	0	1	77	54	9	15	0	0	42	0	1233	32	10	18	907	92	1	56	53	8	1	43	7	1	6	33
OTU 122	46	1	40	89	6	64	34	3	3	6	90	68	46	14	76	11	10	8	2	92	20	67	98	8	9	5	6	2	1	29	34	22	13	8	113	74	11	172	87	111	0	6	18	38	5	13	100	5	13	82
OTU 123	138	1261	726	213	1689	169	95	61	514	3	77	15	119	345	22	304	124	13	40	2297	16	28	184	142	64	672	221	129	988	101	67	139	1375	44	56	135	161	351	48	51	58	100	174	2229	24	353	114	703	280	205
OTU 124	0	0	2	0	12	0	8	0	1	0	15	5	0	0	81	2	0	3	0	1	30	17	0	29	4	0	1	23	0	0	5	0	158	0	2	1	1	0	6	5	0	11	1	1	26	0	77	12	110	46
OTU 125	492	274	87	108	74	23	239	130	59	5	174	51	86	55	456	155	95	13	52	112	57	146	73	72	442	96	129	142	83	96	97	884	170	68	134	115	131	135	184	90	63	6	214	58	72	68	41	168	167	85
OTU 126	19	95	4	0	25	0	0	128	0	34	0	0	0	1	117	102	0	157	2	11	113	293	0	111	2	34	45	0	26	68	0	0	4	40	0	0	0	0	0	1	141	64	0	0	117	0	0	0	0	2
OTU 127	12	62	178	53	1	2	57	23	53	0	1	19	40	86	19	9	0	0	3	0	0	4	1	70	171	45	56	6	10	5	65	898	2	13	1	5	1	0	13	33	0	2	9	2	0	0	11	3	34	362
OTU 128	70	726	231	145	126	171	31	89	51	50	248	50	63	229	87	314	127	49	51	78	436	1068	87	57	163	330	650	141	51	115	112	134	869	63	1380	84	222	172	50	54	191	35	615	101	613	30	109	74	50	123
OTU 129	0	0	31	0	0	0	0	777	0	0	0	3787	0	17	0	0	0	1	0	16	3	0	6	11	17	1	32	3	0	5	5	15	0	0	21	14	152	0	0	0	4	0	32	8	0	0	30	2	0	0
OTU 130	8	11	9	66	9	2	7	4	0	1	0	205	19	3	73	2	15	0	0	18	1000	1787	0	4	33	0	0	0	20	26	0	39	31	19	3	76	24	102	2	463	3	0	14	50	5018	5	234	55	4	35
OTU 131	18	19	103	11	1	138	11	12	31	10	5	48	52	56	67	16	0	8	1	7	3	10	55	25	2148	26	0	0	1	38	30	15	3	1	1	69	35	11	10	95	27	13	92	23	22	57	506	175	57	16
OTU 132	0	89	5	14	9	0	1	1	1	5	7	9	2	0	12	0	0	1	9	0	12	0	0	20	23	46	10	0	4	6	18	6	0	0	53	0	0	44	6	37	6	2	0	8	0	8	6	49	10	0
OTU 133	63	1	0	0	0	14	0	0	0	0	4	1	0	0	14	0	2	0	0	1	0	0	0	0	0	0	9	0	0	0	2	0	15	0	0	0	0	0	65	3	0	0	25	9	0	0	0	15	5	0
OTU 134	1	26	3	4	1	155	13	6	3	1	22	214	1	3	8	16	1	1	3	3	0	29	0	7	83	11	67	58	43	33	2	20	28	23	39	1	6	21	0	63	53	10	15	1	5	10	6	9	3	35
OTU 135	94	15	3	10	1	6	0	3	20	3	4	11	5	2	14	28	11	4	4	31	7	0	0	20	12	47	2	69	7	14	9	41	0	13	105	4	32	26	38	46	3	22	0	30	0	7	23	9	0	86
OTU 136	0	84	15	13	70	8	21	23	0	0	19	0	38	2	0	12	7	0	8	9	41	30	1	0	32	52	46	0	12	2399	4	193	9	1106	62	0	48	51	7	0	1	0	21	25	17	0	13	7	0	1
OTU 137	2	9	8	0	5	36	26	27	0	3	0	0	354	2	43	31	34	3	3	0	26	12	0	0	63	1	55	0	62	0	161	418	0	11	1	2	0	38	11	0	3	3	2	8	6	18	0	14	0	71
OTU 138	56	19	1	15	0	1	0	0	4	0	21	7	21	1	9	0	24	8	0	0	7	0	0	13	0	1	0	25	0	0	0	1	30	2	76	5	0	0	0	5	27	0	5	0	0	4	91	40	6	0
OTU 139	348	60	798	42	219	492	16	225	408	66	82	24	80	391	1409	166	3056	159	1447	630	4	57	357	535	146	27	312	252	146	56	71	116	63	22	24	15	65	72	134	39	154	1963	283	1076	17	3	224	67	437	9
OTU 140	87	190	133	44	91	12	18	30	85	7	109	25	14	62	128	25	212	5	93	123	32	41	48	137	237	50	60	71	45	47	35	12	111	17	31	26	415	16	44	26	62	115	7	105	37	34	97	46	64	31
OTU 141	0	0	3	0	0	0	0	0	0	0	3	0	0	1	0	0	0	0	0	0	0	0	0	0	7	0	0	0	0	0	0	0	0	0	0	0	0	0	0	0	21	0	0	0	0	0	0	1	5	2
OTU 142	0	0	4	3	0	0	0	0	0	0	0	2	0	6	1	0	0	1	0	0	0	0	0	0	51	0	0	0	0	0	0	0	0	0	5	0	0	0	0	8	0	1	0	0	0	0	0	0	12	0
OTU 143	10	5	0	0	2	0	30	0	0	16	0	0	0	0	7	0	2	55	0	4	0	1	1	0	0	0	25	0	1	16	11	11	3	28	0	0	39	24	3	0	73	0	0	12	0	19	36	13	14	90
OTU 144	14	6	0	0	0	0	0	0	6	0	0	3	0	0	8	0	27	6	19	2	0	3	0	0	13	0	0	58	27	20	0	63	11	34	0	0	2	0	0	7	0	0	0	0	0	4	2	4	44	0
OTU 145	49	33	0	72	3	257	1	7	8	3	46	6	24	0	3	9	52	0	85	84	24	61	4	5	30	17	7	43	38	8	17	42	5	5	17	65	48	18	11	16	18	6	73	6	66	2	61	50	50	28
OTU 146	11	1	17	70	13	32	9	9	43	20	10	44	8	7	52	7	21	23	21	1	8	55	6	1	87	23	46	107	50	9	1	7	23	1	1	3	11	31	34	54	30	0	6	0	14	14	310	21	125	21
OTU 147	0	18	4	0	1	0	13	5	2	6	30	16	0	1	0	9	55	20	8	0	6	0	18	5	1	13	32	17	0	7	1	3	104	1	0	2	2	26	0	25	21	0	12	0	9	27	0	4	0	5
OTU 148	5	31	13	91	10	10	16	0	8	11	1	147	1	9	71	5	101	41	31	26	39	31	6	111	29	34	3	2	7	13	50	27	64	13	34	0	17	188	0	361	33	28	9	0	6	77	210	155	74	5
OTU 149	3	42	2	6	0	0	2	17	29	4	0	4	4	0	0	0	29	19	51	2	20	0	0	41	38	24	0	0	1870	0	35	1	0	0	73	12	10	11	0	9	27	35	0	38	0	0	7	7	9	5
OTU 150	6	14	0	17	5	4	74	65	4	0	0	0	0	0	5	38	0	3	0	3	0	14	2	7	1	3	18	6	0	37	7	0	25	34	41	0	0	27	8	0	0	3	1	2	0	22	0	32	0	0
OTU 151	2	0	0	11	76	26	6	5	2	0	30	1	1	0	21	0	10	4	1	0	32	0	2	17	0	0	0	17	11	4	3	0	298	1	12	50	0	11	0	11	0	1	7	86	0	0	0	1	1	124
OTU 152	48	19	139	6	144	1	40	90	16	26	45	1	36	66	51	135	120	59	78	34	7	8	2	131	1	10	362	13	4	4	33	8	0	6	136	0	12	10	47	0	105	52	1	1	7	25	5	15	55	2
OTU 153	0	0	0	0	17	0	0	0	1	0	7	0	0	0	0	0	0	0	0	0	0	0	0	0	0	0	1	0	0	0	1	0	0	0	1	0	0	0	0	0	0	0	16	0	1	0	1	6	0	0
OTU 154	0	0	0	817	60	0	0	4	0	1	0	0	0	0	0	0	7	0	26	6	16	0	4	0	0	0	0	1	0	0	0	0	10	0	0	0	0	0	0	0	2	0	2	0	1	0	0	11	175	1
OTU 155	0	9	99	46	0	0	78	24	3	0	92	12	1	58	0	0	63	0	2	31	3	0	0	2	28	26	0	10	5	2	13	0	0	1	82	0	3	365	14	11	6	1	11	3	0	1	0	4	1	0
OTU 156	52	19	2	6	13	0	2	55	21	24	87	20	28	1	1	13	50	48	46	169	10	12	62	0	20	15	15	1	10	64	16	44	106	18	14	117	1	73	65	30	25	9	62	41	64	2	20	11	85	0
OTU 157	54	9	1	10	15	12	0	1	0	22	14	1	75	2	98	4	0	28	5	2	0	0	36	68	56	4	0	0	2	0	24	0	0	0	98	0	0	0	29	0	16	8	0	0	41	15	0	53	472	80
OTU 158	0	0	0	0	0	0	0	0	0	0	23	0	0	0	2	3	0	0	0	0	0	0	1	0	0	0	0	0	0	0	0	0	0	0	0	0	0	0	0	0	0	0	3	0	0	0	0	9	0	0
OTU 159	6	2	39	0	2	10	24	9	17	0	1	1	42	17	4	931	0	2	4	16	9	78	16	19	66	0	16	21	27	26	31	9	108	53	112	30	18	0	0	0	20	10	4	11	75	14	1	5	2	22
OTU 160	164	289	14	147	22	7	95	12	124	34	212	8	83	8	142	79	20	42	10	95	93	98	40	68	403	202	48	15	14	37	99	474	114	39	102	169	75	73	121	26	92	56	10	108	37	28	108	80	13	154
OTU 161	28	13	14	8	23	12	32	61	2	3	16	33	15	11	3	11	0	10	1	71	2549	52	4	0	56	9	13	64	26	29	0	4	19	5	169	0	16	45	54	38	84	3	93	34	38	1	3	1	2	2
OTU 162	15	4	24	6	17	22	4	25	10	37	0	0	64	5	68	55	8	83	19	33	1	25	8	54	25	7	68	58	210	30	6	2	79	43	0	8	10	71	48	2	157	58	30	77	22	0	1	7	10	63
OTU 163	1	0	0	2	0	0	0	0	0	0	0	0	0	0	0	0	0	0	0	0	0	0	0	0	3	0	0	0	0	0	0	0	0	1	0	0	0	0	0	0	1	0	12	0	0	0	0	0	0	0
OTU 164	0	0	0	0	0	0	0	1	4	0	0	0	0	0	0	0	0	0	0	0	0	15	0	0	0	0	0	0	0	0	8	0	0	0	0	0	1	0	0	0	24	0	0	0	9	0	5	0	0	3
OTU 165	4	0	6	10	5	2	32	0	1	0	2	2	7	2	0	26	7	6	0	0	0	2	12	10	1	0	0	4	17	3	1	4	1	0	26	35	29	10	5	7	15	0	5	55	12	13	39	98	105	86
OTU 166	0	0	0	0	0	0	0	0	0	0	1	1	0	0	0	3	0	0	0	3	0	0	0	0	0	0	0	0	0	2	0	0	1	0	3	25	0	0	0	6	1	0	0	3	0	0	0	0	0	0
OTU 167	5	4	7	11	21	6	2	236	21	0	4	1	0	4	12	7	7	15	13	0	0	10	14	1	29	0	1	0	106	7	16	7	8	0	28	8	22	50	2	0	29	11	0	71	3	2	8	10	9	0
OTU 168	52	0	0	0	23	149	249	23	4	15	5	51	12	0	123	2478	0	23	5	4	26	7	8	27	48	0	70	40	2	12	12	0	22	9	34	20	0	30	4	120	32	4	12	131	0	36	22	111	52	6
OTU 169	23	17	0	0	0	0	0	0	0	17	0	0	0	0	0	0	0	29	0	1	0	0	9	7	0	0	1	0	39	0	0	0	33	1	0	0	0	0	0	0	4	0	27	0	0	0	0	0	0	45
OTU 170	0	0	0	0	0	0	2	0	0	0	4	2	0	0	0	0	0	0	0	0	0	0	0	0	0	0	0	0	0	0	0	0	0	0	0	0	0	2	0	2	0	0	0	0	2	0	8	0	5	0
OTU 171	14	0	195	31	0	22	3	0	192	2	4	64	27	99	11	4	16	4	3	311	16	9	15	2	5	0	20	32	2	1	2	329	14	18	0	44	41	73	10	91	15	1	128	25	2	8	24	0	7	3
OTU 172	0	4	0	0	0	0	0	0	0	0	0	0	0	0	0	0	0	0	0	8	0	0	0	10	0	13	0	1	0	1	0	0	60	2	61	5	0	9	2	0	0	1	4	31	0	1	0	0	13	9
OTU 173	0	15	15	31	0	3	0	28	0	13	15	0	31	6	2	16	0	11	0	8	37	57	0	0	0	0	13	35	2	3	0	123	15	0	4	1	16	41	1	0	0	8	63	10	19	0	0	0	3	46
OTU 174	264	0	18	47	72	17	1818	51	9	12	2	1	155	8	395	36	0	43	8	4	0	2	91	186	25	6	12	70	5	78	66	0	22	80	51	1	0	0	55	0	15	69	0	4	0	0	28	41	149	0
OTU 175	0	0	61	0	4	0	2	1	0	0	18	0	2	38	8	3	33	0	7	0	8	6	1	0	6	2	26	55	20	12	611	3	0	23	47	0	24	2	0	0	0	0	17	12	27	2	2	0	2	0
OTU 176	19	40	51	17	0	30	23	42	2	10	37	135	8	29	0	23	10	18	8	2	369	708	21	10	5	15	30	95	111	18	30	19	28	18	23	26	23	90	6	290	23	2	94	147	385	46	134	46	332	237
OTU 177	8	9	90	70	26	21	43	10	44	29	160	15	96	40	7	36	14	88	0	63	4	2	5	15	24	17	29	1	1	55	5	75	3	39	0	55	42	16	1	10	170	3	20	12	6	79	71	45	50	35
OTU 178	0	2	0	0	5	2	1	8	0	5	0	22	0	0	11	1	61	3	65	61	2	1	59	0	49	1	4	0	0	26	0	62	15	32	0	22	91	2	4	42	11	1	39	0	1	8	5	0	85	0
OTU 179	5	6	0	9	20	11	3	44	0	6	4	3	0	0	9	38	315	12	133	12	2	29	1	7	4	5	3	3	19	0	23	6	148	0	16	0	1	0	0	6	59	0	44	0	10	1	3	0	73	0
OTU 180	131	86	44	128	29	134	48	66	53	16	1780	61	54	15	119	1052	43	38	88	71	6	37	26	60	420	347	1608	15	25	73	16	210	209	59	68	451	294	161	89	99	78	65	391	15	8	44	227	60	437	407
OTU 181	6	29	0	15	2	97	9	2	8	7	54	4	0	0	0	1	1	8	0	21	16	2	12	10	6	54	10	1	0	14	4	0	14	2	0	1	13	1	8	22	6	3	129	0	0	5	1	7	155	14
OTU 182	0	0	31	0	0	0	0	16	0	8	0	0	0	19	0	0	2	0	0	0	0	0	3	0	1	0	0	0	0	0	0	0	0	0	0	0	666	0	0	0	0	0	0	0	0	1	0	56	0	0
OTU 183	6	0	8	4	8	2	10	33	12	18	0	0	0	3	0	2	1	9	0	80	16	98	4	9	4	0	0	4	27	58	32	4	76	36	0	1	10	6	18	5	27	6	0	2	73	25	94	45	27	36
OTU 184	15	3	0	2	7	202	26	73	0	2	5	6	2	0	0	2	0	0	30	0	0	81	2	1	1	0	1	13	0	5	1	51	4	3	0	2	5	0	1	21	0	9	150	1	2	30	17	73	3	0
OTU 185	18	48	8	60	0	19	17	17	0	15	97	65	14	3	1	37	185	42	81	0	128	69	23	54	49	34	33	728	18	42	5	4	3	11	25	88	61	8	7	71	33	39	188	51	6	74	25	381	16	21
OTU 186	0	0	0	17	24	0	6	7	11	13	47	4	3	0	0	6	0	11	1	2	0	6	0	1	0	0	6	13	0	0	0	0	0	0	13	4	3	59	1	1	4	3	17	0	0	12	13	16	0	0
OTU 187	168	16	36	20	33	116	47	14	135	7	70	67	7	19	0	10	206	1	73	70	9	34	9	18	40	27	48	31	33	65	3	36	187	25	321	44	20	43	31	134	52	6	87	25	5	6	85	26	204	23
OTU 188	20	42	1855	50	6	20	58	14	1246	0	23	58	32	959	77	10	34	2	32	683	55	22	639	54	11	9	0	51	165	27	20	29	10	50	28	5	19	115	1	160	42	33	430	1238	21	10	140	7	126	117
OTU 189	113	42	40	43	9	266	0	84	474	28	135	10	35	25	91	5	18	30	19	9	15	124	135	64	20	25	123	50	10	16	10	57	46	10	24	1	33	81	12	51	32	72	125	312	109	88	11	118	51	79
OTU 190	0	49	14	22	0	189	4	0	1	1	0	1	0	5	0	0	0	0	2	25	6	23	10	0	98	11	0	4	0	18	0	0	0	0	10	18	1	116	0	0	0	0	786	3	7	0	0	8	2	0
OTU 191	20	36	27	14	35	4	10	14	7	10	3	9	1	14	100	69	5	15	6	9	3	41	11	8	0	5	206	10	12	10	7	141	25	0	64	10	73	114	34	34	19	41	50	3	33	12	88	42	17	35
OTU 192	72	30	106	10	24	88	32	298	44	10	171	691	86	48	100	13	60	26	21	70	9	54	24	31	23	68	82	62	10	24	21	11	68	7	46	25	276	25	83	748	48	32	4	8	37	1016	168	6	172	25
OTU 193	46	7	2	23	4	52	50	5	7	57	50	30	5	2	18	24	6	68	0	9	3	6	6	0	94	9	8	28	60	13	33	33	5	0	126	10	0	135	71	72	117	22	49	5	0	0	84	1	126	3
OTU 194	21	194	1	58	32	0	4	92	1	46	3	0	0	0	0	103	0	60	0	72	45	0	3	36	0	95	60	3	0	1	0	1	0	2	0	3	21	0	0	0	68	0	0	5	62	63	0	86	0	6
OTU 195	13	0	8	40	27	44	150	19	14	0	27	32	1	1	26	43	3	0	0	72	16	7	13	0	2	0	44	5	730	2	0	68	59	0	37	38	76	11	22	37	1	0	1	0	1	0	0	5	24	5
OTU 196	2	69	0	11	48	20	9	0	19	77	8	3	10	0	2	5	72	186	49	361	0	0	13	0	14	9	2	4	2	252	0	58	3	148	2	46	70	20	28	10	446	21	6	0	7	4	0	20	4	99
OTU 197	94	122	52	88	47	16	9	36	50	2	1090	48	18	28	35	31	65	13	50	1	13	36	11	20	96	62	52	33	25	114	12	111	67	72	10	33	71	173	51	66	22	13	101	15	50	17	99	36	189	60
OTU 198	0	5	70	0	3	0	0	0	29	2	16	0	4	42	27	0	18	0	3	7	42	0	15	5	3	2	0	38	0	1	0	0	0	2	3	42	6	0	0	0	9	0	0	0	6	37	0	100	0	0
OTU 199	0	0	68	0	1	6	0	15	10	12	2	0	4	45	0	25	0	0	0	38	27	43	3	0	0	0	0	41	1	0	0	2	7	1	0	30	0	4	0	1	7	0	176	77	84	0	0	0	1	1
OTU 200	3	54	27	3	12	15	1	38	44	10	5	19	13	10	72	6	10	9	17	3	0	74	41	65	56	29	17	8	31	71	8	24	4	26	6	0	30	110	4	30	36	65	1	118	3	38	10	8	81	0
