	Host 1	Host 2	Host 3	Host 4	Host 5	Host 6	Host 7	Host 8	Host 9	Host 10	Host 11	Host 12	Host 13	Host 14	Host 15	Host 16	Host 17	Host 18	Host 19	Host 20	Host 21	Host 22	Host 23	Host 24	Host 25	Host 26	Host 27	Host 28	Host 29	Host 30	Host 31	Host 32	Host 33	Host 34	Host 35	Host 36	Host 37	Host 38	Host 39	Host 40	Host 41	Host 42	Host 43	Host 44	Host 45	Host 46	Host 47	Host 48	Host 49	Host 50	
OTU 1	3	15	3	0	3	1	12	1	1	25	9	0	0	3	22	4	9	0	4	1	15	5	2	6	1	4	5	2	0	2	0	3	0	1	6	3	0	11	10	3	4	0	2	1	2	6	6	4	0	19
OTU 2	0	0	2	0	0	0	1	2	4	2	3	7	0	0	4	0	0	4	1	0	0	1	0	2	0	0	0	0	0	0	1	0	0	0	0	0	0	0	0	0	4	0	0	1	0	0	1	0	0	0
OTU 3	0	0	0	0	0	0	2	0	0	4	2	0	1	0	2	0	4	2	0	0	0	0	0	7	0	0	0	0	0	0	0	2	0	0	0	1	0	0	2	2	0	2	0	0	0	0	0	0	1	0
OTU 4	0	0	0	0	0	0	0	0	0	0	0	0	0	0	0	0	0	0	0	0	0	0	0	0	0	0	0	0	0	0	0	0	0	0	0	0	0	0	0	0	0	0	0	0	0	0	0	0	0	0
OTU 5	22	19	3	7	23	36	20	16	1	19	8	8	3	4	24	9	14	9	32	13	5	9	26	1	0	5	7	14	36	28	3	13	7	25	46	0	0	5	0	88	0	0	15	29	7	12	34	19	0	14
OTU 6	2	0	2	2	0	0	0	4	0	0	0	2	4	0	0	0	1	1	0	4	0	0	1	0	1	8	1	0	0	3	0	1	2	0	0	0	0	0	1	1	0	0	23	0	5	0	4	0	1	0
OTU 7	1	1	1	1	2	4	1	1	4	1	0	12	4	0	0	1	0	2	13	1	11	0	0	7	5	1	1	0	3	0	24	1	0	6	3	3	3	5	0	2	2	0	0	2	0	0	3	127	3	0
OTU 8	9	1	3	3	2	28	1	0	49	0	0	7	6	1	0	1	4	0	5	1	8	1	6	3	6	0	0	0	25	1	1	3	7	15	5	115	44	1	6	1	1	0	2	6	1	20	4	1	5	0
OTU 9	1	0	1	1	0	0	2	0	0	0	1	0	0	0	0	0	4	0	5	0	1	1	5	3	0	0	0	0	0	1	0	0	1	1	6	0	0	11	0	0	0	0	0	0	1	0	0	0	0	0
OTU 10	8	0	0	0	0	0	0	2	0	2	0	1	0	1	0	7	1	0	1	0	1	0	0	0	0	3	0	0	2	0	0	0	0	6	0	0	2	2	0	0	0	30	0	0	0	0	1	0	24	2
OTU 11	3	0	0	1	1	4	6	0	0	0	1	0	0	0	0	0	4	6	2	2	0	5	0	0	0	0	0	1	0	1	0	0	3	2	2	0	2	5	0	0	1	0	1	1	0	0	0	0	1	0
OTU 12	0	0	5	1	0	11	3	1	0	0	2	0	3	2	1	0	1	1	0	0	2	1	2	0	0	1	1	0	1	1	2	2	0	4	1	1	0	1	0	2	0	1	5	0	5	3	13	0	5	0
OTU 13	0	0	0	0	0	0	0	0	0	0	0	0	1	0	0	0	0	0	0	0	0	0	2	0	0	0	0	0	0	0	0	0	0	0	0	1	0	0	0	0	0	0	0	0	0	0	0	0	0	0
OTU 14	0	1	0	0	1	0	0	0	0	0	0	1	0	0	0	0	0	0	0	2	0	0	0	0	1	16	0	0	1	0	0	0	3	0	1	0	0	0	0	0	1	5	0	0	0	3	0	1	0	0
OTU 15	0	0	0	0	1	0	0	0	0	0	0	0	1	0	0	0	0	1	0	0	0	0	1	0	0	0	0	0	0	0	0	0	0	0	0	0	0	0	0	0	0	9	0	0	0	0	0	0	0	0
OTU 16	0	0	0	0	0	0	0	0	0	0	0	0	0	0	0	0	0	0	0	0	1	0	0	0	0	0	0	0	0	2	0	0	0	0	0	0	0	0	0	0	0	0	0	0	0	0	0	0	0	0
OTU 17	0	0	2	0	0	0	0	2	1	1	0	3	2	4	3	0	0	0	0	1	2	0	0	0	0	0	0	1	0	0	0	0	1	0	2	0	0	0	0	0	0	0	1	0	2	2	5	0	6	0
OTU 18	0	1	0	0	2	16	8	8	11	3	5	2	2	1	4	0	0	1	2	4	0	0	1	12	5	0	4	2	1	7	4	0	5	12	3	78	19	0	6	0	1	0	0	12	3	6	0	3	1	2
OTU 19	0	0	0	0	0	0	0	0	0	0	0	0	0	0	0	0	0	0	0	0	0	0	0	0	0	0	0	0	0	0	0	0	0	0	0	0	0	0	0	0	0	0	0	0	0	0	0	0	0	0
OTU 20	10	70	0	1	6	0	0	0	2	4	0	2	0	10	1	0	2	0	1	0	0	0	0	7	2	1	0	0	2	3	2	1	1	2	0	1	7	2	3	1	0	1	1	1	0	5	1	46	4	0
OTU 21	0	1	5	4	13	0	0	0	2	1	0	1	0	0	0	0	0	0	3	3	0	7	1	8	1	3	4	2	2	1	0	1	1	0	2	2	0	7	10	0	0	4	0	5	4	3	0	0	3	0
OTU 22	6	0	0	0	1	1	1	1	1	0	0	2	7	0	2	1	0	0	0	3	3	0	0	10	59	2	0	0	2	0	0	0	0	0	4	1	0	1	1	5	1	1	0	1	143	3	2	0	0	0
OTU 23	0	0	0	0	0	0	4	2	0	0	1	0	0	0	0	0	0	0	1	0	0	0	0	1	0	0	2	0	5	2	0	0	0	0	0	7	3	3	0	0	0	0	2	1	0	0	0	0	5	0
OTU 24	3	0	0	1	0	0	0	0	0	0	0	1	1	0	0	0	2	0	0	0	2	0	1	0	3	5	0	0	1	0	0	0	1	2	0	0	0	1	5	0	0	0	0	0	0	0	0	0	4	1
OTU 25	0	0	0	0	0	0	0	0	0	0	0	0	4	0	0	0	0	0	7	0	0	0	0	0	0	0	0	0	0	0	0	0	0	0	0	1	0	0	0	0	0	0	0	0	0	0	0	0	0	0
OTU 26	0	0	0	0	0	0	0	0	0	0	0	0	0	0	0	0	5	0	0	0	0	0	1	0	0	0	0	0	0	0	0	0	0	0	1	0	0	2	0	0	1	0	0	3	1	0	0	0	0	0
OTU 27	0	0	0	0	0	0	0	0	0	0	0	0	0	0	0	0	0	0	0	0	0	0	0	0	0	0	0	0	1	0	0	0	0	0	0	0	0	0	0	0	0	3	0	0	0	0	0	0	0	0
OTU 28	4	2	0	4	2	0	0	1	0	2	0	0	3	10	13	2	1	2	1	5	2	0	0	3	0	3	0	1	1	3	11	0	4	0	0	1	0	2	3	3	0	4	0	2	3	0	0	1	0	1
OTU 29	10	0	0	0	1	0	0	0	2	0	0	2	5	0	3	0	0	0	0	0	1	2	1	1	1	4	0	0	0	2	0	1	0	0	1	1	4	0	3	1	2	1	1	7	0	0	2	0	1	0
OTU 30	0	0	0	0	0	0	0	0	0	0	0	0	0	0	0	0	0	0	0	0	0	0	0	0	0	0	0	0	0	0	0	0	0	0	0	0	0	0	0	0	0	0	0	0	0	0	0	0	0	0
OTU 31	4	3	0	1	0	0	0	0	1	0	0	1	0	0	0	0	5	0	11	2	0	5	0	0	0	5	0	0	0	1	1	0	0	2	0	0	0	0	1	0	7	0	1	0	0	0	0	0	3	0
OTU 32	0	1	1	74	0	0	0	0	2	0	0	0	0	5	1	3	5	2	1	0	3	6	5	1	6	3	1	0	3	0	3	1	3	0	0	0	0	5	5	0	17	1	1	0	0	0	3	1	1	0
OTU 33	0	0	0	0	0	0	0	0	1	0	0	0	0	0	0	0	2	0	0	0	0	0	0	0	0	0	0	0	0	0	1	0	1	0	0	0	0	0	0	0	0	0	0	0	1	0	0	0	0	0
OTU 34	34	0	0	0	1	0	0	7	2	1	2	2	0	10	2	1	4	2	0	0	0	4	55	0	2	3	1	0	18	0	9	0	0	0	4	1	0	1	0	1	14	0	0	1	0	0	0	0	0	1
OTU 35	0	5	0	3	0	0	0	0	1	2	0	7	0	0	0	0	2	5	0	0	4	0	0	0	2	2	0	1	1	0	7	1	0	0	2	0	0	0	7	0	0	0	0	0	1	0	1	1	5	2
OTU 36	2	5	0	0	1	0	0	0	27	1	0	0	1	1	0	0	1	1	2	0	2	0	0	0	0	0	1	0	3	1	3	0	0	0	0	1	3	0	2	1	0	0	0	7	0	13	2	2	0	0
OTU 37	1	0	0	0	0	0	0	0	1	0	0	0	0	0	0	1	0	0	0	0	0	0	0	0	2	0	0	0	0	0	0	0	0	0	0	0	0	0	0	0	0	2	0	0	0	0	72	0	0	0
OTU 38	2	1	0	0	1	1	1	0	0	2	1	1	10	4	0	1	3	0	0	0	1	8	1	1	1	0	0	0	0	0	1	0	5	0	4	3	1	6	1	0	21	0	2	4	0	1	0	0	4	0
OTU 39	0	0	3	0	0	0	2	0	0	0	0	0	0	0	0	0	0	2	0	0	0	0	0	0	0	0	0	0	0	1	0	0	0	0	0	5	0	0	0	0	0	0	0	0	0	2	0	0	0	0
OTU 40	5	2	1	0	0	4	0	1	0	0	0	0	3	7	1	0	7	0	1	0	3	1	3	2	0	0	1	0	3	9	5	0	3	2	3	1	0	3	2	1	2	0	1	0	3	2	4	0	1	0
OTU 41	0	0	0	1	1	5	0	0	1	0	0	1	3	10	0	0	0	1	3	1	1	0	0	0	0	3	1	1	0	0	4	1	0	0	1	0	1	2	3	0	0	1	3	1	0	1	0	0	0	2
OTU 42	0	0	0	0	0	0	0	0	0	0	0	0	0	0	1	0	1	0	0	0	0	0	1	0	0	0	3	0	0	5	0	1	0	0	0	0	0	0	0	1	3	1	0	0	0	0	0	1	0	0
OTU 43	0	0	0	0	0	0	0	0	0	0	0	0	0	0	0	0	0	0	0	0	0	0	0	0	0	0	0	0	0	0	0	0	0	0	0	0	0	0	0	0	0	0	0	0	3	1	0	0	0	0
OTU 44	0	0	4	0	0	0	35	1	0	0	8	1	0	0	0	0	0	0	1	0	0	0	0	0	0	0	2	0	0	0	0	0	0	0	0	0	0	0	0	0	0	0	0	0	6	0	0	0	0	0
OTU 45	7	0	0	0	6	1	0	0	0	2	2	0	0	1	119	0	0	1	13	16	4	0	0	1	0	0	1	0	0	1	0	0	0	0	0	8	2	1	1	0	0	0	4	0	1	0	0	0	8	5
OTU 46	2	0	1	1	6	0	2	2	0	0	0	9	0	0	3	0	4	4	1	1	0	4	4	0	0	1	1	0	1	4	7	0	1	0	3	0	0	2	0	4	3	0	1	0	1	0	0	0	3	2
OTU 47	0	0	0	0	0	0	4	0	0	0	3	0	0	0	1	0	0	0	0	0	0	0	0	6	0	0	0	0	0	0	0	0	0	0	0	4	0	0	0	0	2	0	0	0	0	0	0	1	0	0
OTU 48	8	0	6	0	2	2	0	1	1	0	1	3	2	3	3	9	3	0	9	6	0	4	1	1	1	5	5	0	0	0	0	1	0	0	4	1	2	0	0	3	5	0	0	7	6	5	1	0	0	1
OTU 49	8	0	0	0	0	0	0	0	0	0	0	1	0	3	1	1	0	1	0	0	0	2	0	0	3	3	0	0	0	1	0	0	1	0	2	0	0	1	8	30	0	0	0	0	1	0	0	0	0	1
OTU 50	0	0	0	3	2	1	2	0	3	0	3	0	2	0	7	0	0	21	6	0	0	99	0	5	1	0	4	0	0	5	5	2	0	0	0	1	3	0	1	0	9	3	1	0	3	8	1	1	9	1
OTU 51	3	7	1	3	6	0	0	11	0	0	0	0	8	1	0	0	0	0	0	0	0	0	0	2	0	0	4	0	3	0	0	1	0	1	89	0	0	0	0	1	0	0	2	1	3	0	0	6	1	0
OTU 52	4	1	0	6	0	0	2	1	0	0	1	3	7	4	0	41	3	0	1	4	73	2	43	6	0	2	0	3	2	9	6	40	3	4	7	5	7	46	1	3	7	3	2	7	1	10	39	1	2	0
OTU 53	0	0	0	0	0	0	0	0	0	0	0	0	0	0	0	0	8	0	0	0	0	0	0	0	0	0	0	0	0	0	0	0	0	0	0	0	0	0	0	4	0	0	0	0	0	0	0	0	3	0
OTU 54	0	2	0	0	1	3	6	65	6	0	4	1	4	31	3	0	4	2	2	2	0	6	1	7	0	1	6	4	0	0	1	2	1	3	0	4	5	2	1	6	13	7	0	9	5	2	0	0	1	0
OTU 55	0	0	0	0	0	0	0	0	0	0	0	0	0	0	0	0	0	0	0	0	0	0	0	0	0	0	0	0	0	0	0	0	0	0	0	0	0	0	0	0	0	0	0	0	0	1	0	0	0	0
OTU 56	0	0	0	0	0	0	0	1	1	0	0	2	3	0	1	0	0	0	0	0	0	3	0	0	0	2	0	0	0	0	1	0	0	0	1	0	0	0	0	0	0	0	0	0	0	1	0	0	0	0
OTU 57	28	2	16	3	9	6	3	13	0	67	2	4	5	27	1	1	6	4	6	2	3	2	0	13	1	11	3	50	1	2	32	0	4	2	2	0	11	3	1	1	3	3	6	8	9	0	0	0	10	26
OTU 58	1	0	0	0	0	6	0	0	0	0	0	0	3	0	0	0	5	0	1	0	0	0	0	3	0	3	0	0	1	0	0	0	0	6	0	0	4	0	0	27	2	0	102	0	0	0	0	0	0	0
OTU 59	0	1	2	4	3	0	5	3	2	6	1	1	0	0	3	0	0	0	0	147	0	1	6	10	0	4	0	1	0	0	1	3	3	0	2	0	0	5	3	0	0	1	5	0	0	0	0	2	0	2
OTU 60	0	2	2	2	1	1	0	0	0	0	0	1	0	5	1	0	1	1	2	0	1	0	2	1	0	32	2	0	3	9	1	1	0	1	3	0	2	6	2	0	2	6	0	2	1	0	1	1	3	1
OTU 61	6	0	5	1	2	3	7	14	1	6	3	33	1	0	3	3	2	5	4	14	1	2	14	2	0	1	5	1	2	14	0	0	14	0	7	0	0	19	0	0	3	0	2	0	3	0	0	0	0	2
OTU 62	3	0	1	0	0	0	0	0	2	1	0	0	0	0	3	0	1	6	0	0	0	0	0	0	0	0	0	76	0	4	0	0	0	0	0	0	0	0	0	0	0	0	0	0	0	0	0	0	0	163
OTU 63	1	1	7	0	1	0	1	1	0	0	0	0	0	1	0	0	0	2	2	4	0	0	2	0	1	0	0	0	0	0	0	0	1	1	0	0	3	0	0	0	5	3	0	4	0	0	0	0	7	1
OTU 64	0	0	2	1	1	1	2	3	5	0	0	3	9	1	2	1	7	6	4	1	4	4	2	0	1	8	13	0	4	3	0	1	2	0	3	0	0	0	0	17	2	4	0	1	4	1	83	0	1	0
OTU 65	0	0	0	0	0	0	0	0	0	0	0	0	2	0	0	0	0	0	0	0	0	0	0	0	0	0	4	0	0	0	0	0	0	0	0	0	0	0	0	0	0	0	0	0	2	0	0	0	0	0
OTU 66	3	0	0	4	1	1	4	0	2	0	0	1	0	3	0	4	1	5	0	0	1	1	0	0	3	0	0	0	0	0	3	0	0	1	1	0	1	1	8	4	0	2	0	1	0	0	3	0	0	0
OTU 67	0	0	2	0	0	5	0	3	4	0	0	0	0	6	0	0	1	0	2	0	1	0	0	0	0	0	8	0	3	9	2	0	0	0	0	0	1	0	0	0	0	112	0	1	4	0	0	0	2	0
OTU 68	0	0	0	1	0	4	0	2	2	0	1	0	0	0	0	0	0	0	0	0	0	0	1	0	1	0	0	0	0	0	1	1	0	0	0	0	3	0	0	1	0	0	4	4	0	0	0	0	0	0
OTU 69	3	1	4	0	1	0	5	2	1	0	1	1	0	0	2	0	21	5	3	0	0	0	12	0	3	1	1	2	1	0	3	23	6	0	0	3	0	40	4	12	1	2	0	0	1	4	0	1	0	0
OTU 70	0	0	0	0	4	0	0	0	0	13	0	0	0	1	0	0	0	0	1	0	0	1	0	0	0	0	0	14	0	3	4	4	2	0	0	0	1	3	7	1	2	0	0	0	0	0	0	1	0	11
OTU 71	0	1	0	0	6	3	0	0	0	0	0	0	0	5	1	1	0	2	0	1	1	0	0	4	0	2	0	99	1	0	0	3	0	2	0	3	0	1	0	0	0	0	0	5	0	0	0	0	2	0
OTU 72	4	1	1	1	3	0	1	0	1	1	1	3	13	2	3	0	1	0	0	1	9	14	2	0	3	1	0	0	0	3	1	3	0	1	0	0	4	1	2	0	19	6	6	0	4	1	7	2	0	0
OTU 73	0	0	0	0	0	5	0	3	5	0	0	1	0	5	0	2	6	0	3	0	0	0	0	4	2	0	4	1	0	1	2	1	3	0	0	0	4	1	2	0	0	0	1	0	5	136	1	0	0	0
OTU 74	0	0	0	0	0	2	0	0	0	2	1	1	1	1	1	2	1	0	0	0	0	0	0	0	0	3	0	0	0	14	0	1	0	0	8	2	83	0	1	0	0	1	0	6	0	0	0	0	0	1
OTU 75	0	0	3	3	0	2	0	1	2	81	0	0	5	1	0	0	2	0	0	0	1	0	0	1	0	1	4	22	42	0	2	0	11	0	0	2	2	0	2	6	0	2	1	0	1	0	1	0	2	36
OTU 76	0	1	0	0	0	0	0	0	0	0	1	0	0	0	1	0	0	0	3	0	0	0	0	0	0	0	0	0	0	1	1	0	0	1	0	0	0	0	1	0	0	1	0	0	0	0	0	0	0	0
OTU 77	4	1	2	1	6	4	4	0	1	3	7	5	2	0	3	0	1	2	3	0	0	2	0	7	2	0	2	0	1	1	2	1	3	0	0	0	5	0	8	0	0	0	5	3	2	0	0	0	2	1
OTU 78	4	26	7	3	20	1	13	0	8	2	6	2	39	3	9	0	0	1	0	0	0	1	50	35	0	5	3	0	0	0	3	1	0	0	0	21	4	0	0	0	0	1	0	0	4	2	0	13	0	2
OTU 79	8	1	19	4	20	20	6	21	7	5	4	0	18	0	6	3	13	3	9	0	1	1	2	21	6	2	7	2	15	8	1	0	3	12	3	10	1	1	8	4	11	1	5	4	7	5	3	1	8	3
OTU 80	3	2	1	3	0	11	4	2	1	0	3	1	4	0	0	0	4	0	1	0	1	3	1	6	1	0	0	0	1	5	3	2	4	3	0	2	0	3	0	1	6	1	0	4	0	3	0	0	2	1
OTU 81	5	4	0	4	0	1	2	1	6	0	1	2	4	32	0	1	7	4	1	5	0	0	6	3	1	1	0	1	4	3	2	3	0	0	0	0	0	9	1	5	2	1	2	1	1	0	0	1	4	1
OTU 82	0	0	0	1	0	6	0	1	1	1	0	0	2	2	1	1	0	8	1	1	0	0	0	1	0	0	48	0	1	3	0	0	2	7	0	0	7	2	3	0	0	3	0	1	0	0	0	0	0	1
OTU 83	0	0	0	0	0	0	0	0	0	0	0	0	1	0	0	0	0	0	0	2	0	0	0	0	0	0	0	0	0	0	0	0	0	0	0	0	0	0	0	1	0	0	0	0	1	0	0	0	0	0
OTU 84	0	1	5	0	0	0	11	0	0	0	3	0	2	0	2	0	0	2	0	0	0	0	0	3	0	0	3	0	1	0	0	0	4	0	4	0	5	6	0	0	0	1	0	0	0	1	0	2	1	0
OTU 85	0	1	0	0	0	0	0	0	3	0	0	0	0	0	0	0	1	0	0	1	0	0	0	0	0	0	0	0	5	5	0	1	0	0	0	0	0	0	0	0	0	1	0	0	0	0	0	0	0	0
OTU 86	0	0	0	0	0	0	0	0	0	0	0	0	0	2	0	0	0	0	0	0	0	0	0	0	0	0	0	1	0	0	2	0	0	0	0	0	0	0	0	0	0	0	0	0	0	0	0	0	0	0
OTU 87	0	0	0	0	1	0	0	2	1	0	0	0	2	5	0	0	0	0	1	0	0	0	0	0	0	0	1	0	0	0	0	0	0	0	0	0	1	0	2	0	0	0	1	0	0	0	0	0	0	0
OTU 88	0	0	0	0	0	0	0	0	0	0	0	0	1	0	0	0	0	0	0	0	0	0	0	0	0	0	0	0	0	0	0	0	0	0	0	0	0	0	0	0	1	0	0	0	0	0	0	0	0	0
OTU 89	1	4	0	0	0	0	0	1	10	0	0	2	0	0	0	1	0	4	0	0	0	0	0	0	2	1	0	0	0	7	0	0	0	0	0	0	10	0	1	0	0	0	1	2	0	0	0	3	0	0
OTU 90	0	0	0	1	0	0	0	0	10	0	0	0	0	0	0	0	0	0	0	0	0	0	0	0	0	0	0	0	1	0	2	0	0	0	0	0	0	0	0	0	0	0	0	0	0	0	0	0	0	0
OTU 91	0	0	0	0	0	0	0	0	0	0	0	0	0	0	0	0	0	0	0	0	0	0	0	0	0	0	0	0	0	0	0	0	0	0	0	0	0	0	0	1	0	0	0	0	0	0	0	0	0	0
OTU 92	0	0	0	0	0	0	2	0	0	0	0	0	5	2	0	0	0	0	0	0	1	0	0	0	0	1	0	0	0	0	0	0	0	0	0	6	0	1	0	0	0	1	0	0	0	0	0	0	2	0
OTU 93	0	0	0	0	0	0	0	0	0	0	0	0	0	0	0	3	0	3	1	0	0	0	0	0	0	0	0	0	0	0	0	0	0	0	0	0	0	0	0	3	0	0	0	0	0	0	0	0	0	0
OTU 94	8	4	0	0	0	0	1	0	0	0	0	13	0	4	0	1	0	11	13	0	0	4	3	4	4	0	1	0	0	0	11	0	6	5	3	1	0	2	9	6	2	6	24	5	1	0	0	2	9	0
OTU 95	1	0	0	2	0	1	0	0	0	2	0	0	0	0	0	0	2	0	4	0	0	0	0	1	0	0	0	0	0	0	0	0	0	2	0	0	0	0	0	0	0	0	0	0	0	0	0	0	1	0
OTU 96	2	0	0	0	0	0	0	3	0	0	0	0	0	0	0	0	0	0	0	0	0	0	0	0	0	0	0	0	0	0	0	0	0	0	0	0	3	0	0	0	0	2	0	0	2	0	0	0	0	0
OTU 97	0	0	1	0	0	0	0	0	42	0	0	1	0	3	0	0	0	1	1	0	0	0	0	0	0	0	0	0	0	0	0	0	0	0	1	0	0	0	0	0	3	1	0	0	0	21	0	0	0	0
OTU 98	0	0	0	1	0	0	0	0	0	0	0	0	1	0	0	12	2	0	0	0	23	0	0	0	3	0	0	0	0	2	2	8	0	1	0	0	0	0	5	0	0	0	2	0	0	0	8	1	2	0
OTU 99	4	0	0	7	5	1	1	4	1	1	1	4	4	4	0	3	0	9	5	1	3	0	6	2	1	1	4	1	7	10	0	1	0	1	0	1	1	2	2	2	1	2	14	0	0	1	1	0	3	0
OTU 100	3	0	0	0	0	1	0	0	0	0	0	0	0	1	0	0	3	0	6	0	0	0	1	0	0	0	0	0	0	11	0	0	1	0	1	0	2	0	0	0	0	1	0	2	1	3	0	0	5	0
OTU 101	0	0	3	0	0	0	0	0	0	0	0	0	0	0	0	0	0	0	0	0	0	0	0	0	0	0	0	0	0	0	0	1	0	0	0	0	2	2	0	0	0	0	0	0	0	0	0	0	0	0
OTU 102	0	0	0	0	88	0	0	1	0	0	0	0	1	0	0	0	0	0	0	0	0	0	0	0	0	0	0	0	0	0	0	0	0	0	0	0	0	0	0	3	0	0	0	0	0	0	0	0	0	0
OTU 103	0	0	0	0	0	0	2	0	0	0	0	0	4	0	1	1	0	0	0	0	1	0	0	1	0	0	0	0	0	0	1	0	2	0	2	0	1	2	0	0	0	9	0	0	0	0	0	0	0	0
OTU 104	1	0	1	0	0	3	2	0	0	1	1	5	2	3	2	5	2	4	0	5	2	3	0	6	0	7	1	1	0	1	2	0	1	0	3	0	6	1	1	0	6	0	0	1	2	1	0	0	0	0
OTU 105	1	0	0	0	1	0	0	0	0	0	1	0	0	1	0	0	0	0	0	0	2	0	1	3	0	0	0	0	2	0	0	0	0	0	0	0	0	0	1	0	1	0	0	1	0	1	1	0	2	0
OTU 106	1	0	0	0	0	0	0	3	0	0	0	0	0	0	0	0	0	0	0	0	0	0	0	0	0	0	0	0	0	0	0	0	2	0	0	0	0	0	0	0	0	0	0	3	1	0	0	0	0	0
OTU 107	0	2	0	65	0	3	0	0	0	1	0	19	0	0	0	2	1	0	0	0	8	2	4	0	2	1	0	0	0	0	0	8	0	0	0	7	0	0	7	0	2	0	0	0	0	0	1	0	0	0
OTU 108	0	21	0	0	0	0	0	9	0	0	0	0	0	0	0	0	1	0	5	2	0	1	16	1	1	3	6	0	0	2	0	0	0	0	1	0	0	14	0	1	1	2	0	1	7	0	0	13	1	1
OTU 109	0	0	0	0	0	0	0	0	0	0	0	0	0	0	0	0	0	0	0	0	0	0	0	0	0	0	0	0	0	0	0	0	0	0	0	0	0	2	0	0	0	0	0	0	0	0	0	0	0	0
OTU 110	1	4	1	0	0	0	0	0	0	1	0	0	0	0	1	2	2	2	6	2	1	0	0	2	1	2	0	0	2	24	5	0	3	0	0	5	0	0	0	0	1	1	1	8	0	0	0	0	2	2
OTU 111	0	0	0	0	0	0	0	0	1	0	0	0	0	0	0	0	0	0	2	0	0	0	1	0	0	0	0	0	0	0	0	0	0	0	0	1	0	0	0	0	0	6	1	0	0	0	0	0	1	0
OTU 112	0	0	0	0	0	1	0	0	3	1	1	0	2	0	0	0	0	10	0	0	0	1	0	5	0	0	0	0	0	10	0	0	0	62	0	0	0	2	2	2	1	0	1	2	2	0	0	0	0	0
OTU 113	0	0	1	0	0	0	0	1	0	0	0	0	0	0	0	0	1	0	0	1	0	1	0	0	0	0	0	0	0	0	0	0	0	0	0	0	0	0	2	0	0	0	0	0	0	0	0	0	0	0
OTU 114	0	10	6	3	1	6	2	3	0	0	0	0	0	1	3	3	0	0	0	6	0	3	0	8	2	0	4	1	0	5	6	0	0	2	0	1	1	0	12	0	1	0	3	3	1	0	0	3	0	2
OTU 115	2	0	2	3	1	2	2	2	4	0	1	2	3	2	1	8	4	0	1	1	1	1	3	0	2	3	2	0	0	3	0	3	12	8	6	1	2	7	6	0	3	0	0	0	1	2	0	0	4	1
OTU 116	0	0	0	4	2	0	1	0	1	0	0	4	2	0	1	0	6	1	4	8	0	20	1	0	2	1	2	0	2	5	15	2	6	4	3	2	6	0	2	4	61	0	0	0	3	0	3	11	1	0
OTU 117	1	0	1	1	4	0	0	0	0	0	0	2	0	4	0	0	0	0	0	0	1	1	2	0	0	0	0	0	1	3	11	0	3	0	1	0	1	1	0	0	1	1	1	1	0	1	0	0	0	0
OTU 118	0	0	0	3	0	5	0	0	0	0	0	0	0	0	1	0	0	1	0	0	0	76	0	0	0	0	0	0	0	0	0	1	0	0	0	0	0	2	0	0	0	0	0	0	0	0	1	0	0	0
OTU 119	5	1	2	2	0	1	0	2	0	0	0	2	0	0	2	5	0	51	2	0	0	0	4	1	4	0	0	0	1	5	5	0	0	2	1	1	1	1	7	0	0	0	0	0	0	0	0	0	1	0
OTU 120	0	0	0	1	3	0	2	0	0	0	0	1	3	1	0	0	0	0	0	0	0	0	0	0	0	0	0	10	0	0	0	0	2	0	2	8	0	1	0	0	0	2	0	0	0	0	2	0	0	5
OTU 121	0	0	0	0	2	3	1	1	2	1	3	10	1	0	1	0	2	0	8	8	0	3	0	0	0	3	0	1	0	1	0	1	1	1	0	3	0	0	0	1	2	1	0	0	0	3	0	0	0	0
OTU 122	0	0	1	0	0	3	1	1	0	3	0	5	1	4	0	0	5	1	0	1	0	0	1	2	0	0	0	0	0	8	5	2	0	0	0	0	2	8	0	1	0	0	0	1	0	0	1	1	1	2
OTU 123	5	93	7	0	7	2	6	9	3	4	2	3	2	11	0	6	4	3	4	4	1	5	5	4	4	2	13	3	1	9	8	8	68	2	23	4	8	1	4	1	12	0	2	2	2	3	3	49	19	2
OTU 124	0	1	0	1	0	0	0	0	0	2	1	1	0	0	0	0	0	0	4	0	0	0	1	1	0	0	0	0	0	0	1	0	0	0	0	0	0	0	3	1	0	0	0	3	0	0	0	1	0	0
OTU 125	6	5	4	24	1	10	4	6	2	2	2	10	8	5	23	6	2	3	16	3	23	20	3	4	25	1	6	1	1	3	3	46	5	25	5	4	2	2	24	4	27	0	5	11	1	1	13	3	12	0
OTU 126	0	0	0	0	0	0	0	0	0	16	0	0	0	0	21	0	0	0	0	0	1	0	0	0	0	0	0	3	0	0	0	0	0	0	0	0	0	1	1	0	0	0	0	0	0	0	0	0	0	6
OTU 127	6	2	0	1	0	0	0	0	13	2	1	3	2	0	0	0	0	1	0	1	0	0	0	0	3	3	0	0	0	0	0	71	1	0	0	0	0	0	4	0	0	0	0	0	0	3	0	1	1	0
OTU 128	14	15	0	8	1	2	0	4	1	0	4	1	1	9	0	27	3	9	11	0	39	10	17	4	4	13	18	2	5	2	28	7	85	5	2	3	6	8	5	0	9	4	32	5	3	11	12	7	3	1
OTU 129	0	0	0	0	0	0	0	1	0	1	0	0	0	0	2	0	0	0	0	0	0	1	0	0	0	0	0	0	0	0	0	0	0	1	0	0	0	0	0	0	0	1	0	1	0	1	0	1	0	0
OTU 130	5	0	1	0	2	5	4	0	0	1	0	5	1	0	0	0	17	16	0	3	2	0	10	7	1	100	0	1	0	2	0	1	0	1	0	0	1	15	0	23	0	0	1	0	1	0	1	0	0	0
OTU 131	2	8	1	0	17	0	0	0	2	2	0	3	3	0	1	134	0	4	0	0	1	0	0	1	133	1	0	0	0	0	4	2	0	0	0	0	0	1	0	5	0	0	4	1	0	0	0	24	5	0
OTU 132	0	0	0	0	1	1	0	1	0	0	0	0	2	0	0	0	2	0	0	37	1	0	3	0	1	5	0	0	2	6	0	1	0	0	0	0	0	1	0	0	0	1	1	0	0	0	0	0	0	0
OTU 133	0	0	0	0	0	0	0	0	0	0	0	1	0	3	0	0	0	0	0	0	1	0	0	0	0	0	0	0	0	0	0	0	0	0	0	0	0	0	0	0	0	0	2	0	0	0	0	0	0	0
OTU 134	0	4	7	1	0	0	0	9	4	2	1	1	3	1	0	0	0	0	5	1	1	0	1	0	0	0	6	0	1	3	0	5	0	0	1	0	0	0	0	0	0	0	0	0	5	0	4	2	0	0
OTU 135	2	4	0	0	6	2	2	2	2	1	0	0	5	1	0	1	0	0	0	0	0	0	0	0	1	0	0	0	1	1	10	0	1	0	1	0	2	5	0	0	0	6	0	0	1	0	0	2	1	0
OTU 136	4	0	0	6	0	1	0	0	0	0	0	0	0	0	0	0	4	0	0	4	0	0	1	0	0	0	0	1	0	3	0	27	0	0	2	1	0	0	2	0	1	0	0	3	1	0	0	0	3	0
OTU 137	0	0	0	0	0	0	3	0	0	1	0	0	8	0	0	36	0	0	0	0	51	1	0	0	0	1	0	0	0	5	0	33	0	0	1	0	0	0	0	0	2	0	0	0	0	0	24	1	0	0
OTU 138	0	0	1	0	0	0	0	1	0	1	1	0	3	0	0	2	0	0	1	0	0	0	0	1	0	4	0	0	0	0	2	0	0	2	0	0	1	1	1	0	0	1	0	0	0	0	0	0	0	1
OTU 139	1	2	3	2	0	7	1	1	1	24	0	14	2	5	20	4	10	1	4	0	1	0	0	2	3	0	2	5	4	0	4	0	2	0	0	1	14	0	2	1	2	21	29	2	3	1	2	3	37	11
OTU 140	23	1	108	0	6	11	5	2	16	2	0	9	10	12	0	2	2	0	50	1	4	0	2	0	1	1	4	0	7	1	32	1	5	3	2	5	16	2	3	1	6	4	1	9	5	6	0	2	2	1
OTU 141	0	0	0	0	0	2	0	0	0	0	0	0	1	0	0	0	0	0	0	0	0	0	0	0	0	0	0	0	0	2	0	0	0	0	0	0	0	0	0	0	0	0	0	0	0	0	0	0	0	0
OTU 142	0	0	0	0	0	0	0	0	0	0	0	0	0	0	0	0	0	0	0	0	0	0	0	0	0	0	0	0	0	0	0	0	0	0	0	0	3	1	0	0	0	0	0	0	0	0	0	0	1	0
OTU 143	0	0	0	0	0	1	0	0	0	2	0	0	0	0	0	0	0	0	0	1	0	0	0	0	0	0	0	0	1	0	0	0	0	4	0	0	0	0	0	0	0	1	0	0	0	1	0	0	0	0
OTU 144	0	0	0	0	0	0	0	2	0	0	0	0	0	0	0	0	0	0	1	0	0	0	0	0	0	0	0	0	0	0	0	0	1	0	2	0	0	0	1	0	0	1	0	0	0	0	0	0	0	0
OTU 145	8	0	6	1	1	1	0	0	7	0	0	2	5	6	0	0	14	0	0	0	0	0	2	3	0	8	4	1	3	1	1	0	2	3	2	0	1	6	0	2	3	1	3	9	0	0	0	0	0	1
OTU 146	0	0	1	0	0	0	1	5	0	5	0	0	4	2	0	0	0	1	0	0	3	1	0	2	0	2	0	0	0	0	0	0	0	1	33	0	0	3	1	2	1	7	2	1	0	1	0	0	0	0
OTU 147	0	0	0	0	0	0	0	0	0	0	0	2	1	1	0	1	1	0	0	0	0	1	0	0	0	0	0	0	0	0	3	0	5	0	7	0	0	1	0	0	0	0	0	0	0	0	0	0	0	0
OTU 148	2	0	3	2	3	0	3	6	0	0	2	46	5	4	1	0	45	6	5	0	3	0	6	3	0	1	1	0	0	0	0	2	0	0	0	1	0	3	3	17	0	0	1	0	2	3	0	0	0	0
OTU 149	0	0	1	2	0	0	0	0	0	0	0	1	0	0	0	0	0	0	0	1	1	0	1	0	0	0	0	0	2	2	0	0	0	0	0	0	0	0	3	0	0	0	0	0	0	0	1	0	4	0
OTU 150	0	0	0	0	0	0	0	2	2	0	0	0	0	1	1	0	0	0	0	0	0	0	0	0	0	4	2	0	0	0	2	2	0	0	0	0	4	0	0	0	0	0	0	0	0	2	1	0	1	0
OTU 151	0	0	0	0	2	0	0	0	2	0	0	2	0	2	0	0	3	0	1	2	0	0	0	0	0	1	0	0	0	0	0	0	17	0	0	0	0	0	0	0	0	2	0	4	2	0	0	0	0	0
OTU 152	5	0	6	0	0	2	2	1	0	0	1	0	3	1	0	0	1	2	0	4	1	1	0	1	0	1	6	1	1	4	4	0	2	0	3	0	0	0	2	3	0	0	0	0	1	0	1	0	0	0
OTU 153	0	0	1	0	0	0	0	0	1	0	0	0	0	0	0	0	0	0	1	0	0	0	0	0	0	1	0	0	0	0	0	0	0	0	0	0	0	0	0	0	0	0	0	0	0	0	0	0	0	0
OTU 154	0	0	0	0	0	0	0	0	0	0	0	0	0	0	0	0	0	0	0	0	0	0	0	0	0	0	1	0	2	0	0	0	0	0	0	0	0	0	0	0	0	2	1	0	0	0	0	0	7	0
OTU 155	2	0	0	10	1	27	0	1	0	0	0	0	0	6	0	0	0	0	0	0	0	3	0	0	1	0	0	0	6	1	2	0	0	3	6	0	0	4	5	0	2	0	0	1	0	0	0	0	0	0
OTU 156	2	1	2	0	7	0	0	1	3	1	2	2	4	7	1	0	6	0	4	0	0	3	2	7	3	1	3	3	1	2	0	0	5	2	3	7	1	0	1	4	6	0	0	1	3	4	0	0	1	2
OTU 157	2	0	0	0	16	0	0	0	0	1	1	0	0	0	3	0	0	0	0	2	0	0	0	8	1	0	0	0	0	0	0	0	0	0	2	0	0	0	0	0	0	0	0	0	0	0	0	0	19	1
OTU 158	0	0	0	0	0	0	0	0	0	0	0	3	0	0	1	0	0	0	0	0	0	0	0	0	0	0	0	0	0	0	0	0	0	0	0	0	0	0	0	0	0	0	0	0	0	0	0	0	0	0
OTU 159	0	0	1	0	0	0	0	3	3	2	0	2	12	0	0	0	1	0	0	1	1	1	0	0	1	0	1	0	0	1	1	0	2	0	10	0	0	4	2	0	0	0	0	0	5	0	1	0	1	0
OTU 160	4	4	2	11	1	0	14	0	1	1	8	2	4	6	4	5	6	2	2	6	6	1	13	17	7	5	3	0	2	8	9	7	4	13	0	8	0	16	29	1	7	5	0	26	4	10	2	2	0	5
OTU 161	0	0	2	0	5	8	0	0	1	1	0	0	0	0	0	0	0	0	4	2	7	1	0	0	0	14	0	1	1	1	2	0	0	2	0	0	0	2	0	0	3	0	0	0	0	0	4	0	0	13
OTU 162	1	2	2	1	12	0	16	0	1	11	7	4	1	2	0	4	0	0	0	0	0	1	0	28	2	0	2	1	3	0	0	1	0	0	0	6	0	0	5	2	0	0	0	20	0	0	0	1	0	6
OTU 163	0	0	0	0	0	0	0	0	0	0	0	0	2	0	0	0	0	0	0	0	0	0	0	0	0	0	0	0	0	2	0	0	0	0	0	0	0	0	0	0	0	0	0	0	0	0	0	0	0	0
OTU 164	0	0	0	0	0	0	0	0	0	0	0	0	0	0	0	0	0	0	0	0	0	0	0	0	0	0	0	0	0	0	0	0	0	0	0	0	0	0	0	0	0	2	0	0	0	0	0	0	0	0
OTU 165	0	0	0	3	1	1	0	0	2	0	0	0	1	0	0	1	0	0	0	0	0	0	0	0	2	2	0	0	1	0	0	0	0	1	0	0	1	1	1	0	0	0	0	2	0	0	0	0	3	1
OTU 166	0	0	0	2	0	0	0	0	0	0	0	0	0	0	0	0	0	0	0	0	0	0	0	0	0	0	0	0	0	0	0	0	0	0	0	0	0	0	0	0	0	0	0	0	0	0	0	0	0	0
OTU 167	0	0	0	0	0	0	0	11	1	0	0	0	1	0	0	0	1	0	1	0	0	2	0	0	0	1	2	0	0	0	0	0	1	0	0	3	1	0	0	0	3	0	0	0	2	0	0	0	2	2
OTU 168	1	0	0	0	0	2	0	0	1	0	0	3	2	0	1	0	2	0	0	0	0	0	0	0	0	0	0	0	0	0	2	0	4	8	2	0	0	0	1	3	0	0	1	2	1	0	0	0	3	0
OTU 169	0	1	0	0	0	0	0	0	0	0	0	0	0	0	0	0	0	0	0	0	0	0	0	0	0	1	0	0	0	0	0	0	0	0	0	0	0	0	5	0	0	0	0	0	0	0	0	0	1	0
OTU 170	0	0	0	0	0	0	0	0	0	0	0	0	0	0	0	0	1	0	0	0	0	0	0	0	0	0	0	0	0	1	0	0	0	0	0	0	0	0	0	0	0	0	0	0	0	0	0	0	0	0
OTU 171	0	0	0	0	0	4	0	0	0	0	0	0	9	3	0	0	0	5	2	2	0	0	0	0	0	0	0	0	1	1	0	0	3	2	2	3	4	1	0	0	1	0	0	0	0	4	0	0	0	0
OTU 172	1	0	0	0	0	0	0	0	0	0	0	0	0	0	0	0	0	0	0	0	0	0	1	1	0	0	0	0	6	0	0	0	0	0	0	0	0	0	0	0	0	4	1	0	0	0	0	0	0	0
OTU 173	0	0	0	0	0	0	0	0	0	0	0	1	5	4	2	0	0	0	0	0	1	3	0	0	0	0	0	0	4	4	0	0	1	0	0	0	0	0	0	0	3	2	0	0	0	0	1	0	0	0
OTU 174	0	0	2	2	2	0	0	0	0	14	0	19	1	0	22	0	0	0	1	0	1	0	1	0	0	1	0	4	0	1	0	0	0	0	2	0	1	1	1	0	0	0	0	0	0	0	0	0	1	11
OTU 175	0	1	3	0	4	0	1	0	2	0	1	0	4	6	0	0	0	4	1	0	0	1	0	1	0	0	1	2	0	0	4	0	0	0	0	0	0	0	3	0	0	0	1	0	2	2	0	0	0	0
OTU 176	0	6	0	4	0	0	0	0	0	3	0	4	0	0	0	1	1	0	2	1	2	0	1	0	1	9	0	1	0	3	8	0	0	0	2	0	4	1	0	14	0	12	2	1	13	1	1	3	9	0
OTU 177	0	2	0	1	0	2	3	3	2	3	1	1	1	1	0	3	5	1	0	5	2	0	0	2	0	1	0	0	0	5	2	2	3	0	0	0	1	1	0	1	1	3	1	17	1	1	0	1	1	0
OTU 178	0	0	1	0	0	0	0	0	0	0	0	2	0	3	0	0	0	1	0	0	0	1	0	0	0	0	0	0	50	3	0	0	7	0	2	0	0	1	0	0	1	1	1	1	1	0	0	0	0	0
OTU 179	0	0	0	0	0	0	0	3	0	0	2	1	0	0	0	1	0	81	0	1	0	1	0	0	0	7	0	0	0	3	0	0	3	0	3	0	0	1	0	0	0	0	0	0	0	1	0	0	3	0
OTU 180	6	5	11	49	0	2	1	59	40	3	182	0	11	13	1	8	5	15	2	12	24	1	1	0	37	3	118	0	2	5	1	19	0	1	3	5	3	8	80	2	4	1	13	22	6	11	12	3	7	0
OTU 181	0	1	52	0	0	0	3	0	0	1	5	3	0	0	0	0	1	2	0	1	1	0	0	9	0	8	1	1	4	0	0	1	1	0	1	1	0	0	0	0	0	1	0	12	0	0	0	2	15	1
OTU 182	0	0	0	0	0	0	0	0	0	2	0	0	0	0	0	0	0	0	0	0	0	0	0	0	0	0	0	0	0	0	0	0	0	0	0	0	0	0	0	0	0	0	0	0	0	0	0	0	0	0
OTU 183	0	0	0	2	0	0	3	0	0	9	1	5	0	0	0	0	1	0	2	0	0	0	1	0	0	3	0	3	0	1	0	0	0	0	0	4	0	0	0	0	0	1	0	0	0	1	0	0	3	1
OTU 184	0	0	0	3	0	0	0	1	1	0	0	3	9	0	0	0	0	0	0	0	0	0	0	1	2	0	2	0	0	3	1	0	0	0	0	0	0	0	0	0	0	0	1	1	1	0	0	0	0	0
OTU 185	6	1	2	1	0	18	2	0	19	0	0	2	1	11	2	0	1	2	2	4	2	0	0	2	2	1	0	43	6	0	2	3	0	2	1	1	22	0	3	2	1	3	6	0	0	2	1	15	0	7
OTU 186	6	0	5	0	0	0	0	0	0	0	0	1	0	0	0	0	0	0	0	0	0	0	0	0	0	0	1	0	0	0	0	1	0	0	3	0	0	0	0	0	3	0	1	0	1	0	0	0	1	0
OTU 187	0	2	0	1	0	1	0	7	1	0	2	1	6	1	1	0	3	4	1	0	0	0	2	0	0	1	3	6	0	0	2	1	2	1	0	1	0	2	1	3	0	2	1	0	2	3	0	0	4	1
OTU 188	2	0	3	1	0	0	2	1	0	2	1	1	1	2	4	3	0	0	3	9	0	9	1	7	8	7	0	0	6	1	2	1	0	5	4	0	0	6	1	0	20	1	4	0	2	0	0	0	10	2
OTU 189	0	1	0	2	1	3	1	0	4	2	1	19	3	2	2	1	5	2	1	0	1	3	0	5	0	0	0	0	0	0	4	2	0	2	5	8	6	1	0	0	5	2	1	0	10	2	0	0	1	2
OTU 190	0	0	0	1	1	0	0	0	0	0	0	0	1	0	0	0	0	0	0	0	0	0	0	4	0	0	0	0	0	0	0	0	0	0	0	0	0	3	0	0	0	0	21	0	0	0	0	0	0	0
OTU 191	4	1	14	0	8	0	1	16	3	0	0	0	0	10	1	0	0	3	0	0	0	0	0	12	0	0	11	0	1	9	0	1	4	63	0	1	0	0	0	0	1	13	0	3	27	1	0	0	4	3
OTU 192	7	1	3	4	3	0	1	1	1	0	0	3	12	2	3	0	24	1	3	4	3	0	5	3	3	1	0	1	7	2	5	0	0	1	0	0	3	3	0	25	2	13	1	0	4	23	0	1	13	0
OTU 193	0	0	0	0	1	48	0	0	0	0	0	0	0	0	0	0	4	0	2	0	0	0	9	0	0	0	2	0	42	4	1	0	0	30	0	0	1	15	0	1	0	0	0	1	0	0	0	1	4	0
OTU 194	0	2	0	0	6	0	0	2	0	0	0	0	2	0	0	0	3	0	0	0	0	0	0	0	0	0	0	0	0	0	1	0	1	0	1	0	1	0	0	3	5	2	0	0	1	0	0	1	2	0
OTU 195	4	0	1	0	0	0	0	0	0	0	1	0	0	3	1	0	0	2	0	0	0	0	0	1	0	1	2	0	1	7	5	0	2	0	0	1	1	0	2	3	0	2	0	0	1	1	0	0	0	0
OTU 196	0	1	0	2	0	1	0	0	0	1	0	0	0	0	0	4	0	0	2	0	0	0	1	0	0	0	0	0	3	3	1	0	6	2	3	1	0	1	1	1	0	0	1	3	0	4	0	0	2	0
OTU 197	2	0	1	0	6	6	120	0	0	3	70	2	4	4	0	0	5	1	28	0	3	2	3	4	2	0	0	0	3	6	4	1	2	1	0	0	1	0	3	6	3	5	0	3	1	0	0	0	2	0
OTU 198	0	2	1	3	0	0	1	0	1	1	0	0	0	0	1	1	0	1	0	0	0	1	0	0	0	0	0	0	0	0	0	0	0	1	0	1	0	0	0	0	0	0	0	4	0	0	0	0	1	0
OTU 199	0	0	0	0	3	0	0	5	2	0	0	0	0	2	1	0	1	0	0	0	0	0	0	0	0	0	1	0	0	0	5	0	0	0	1	0	1	0	0	0	0	1	0	0	3	0	0	0	0	0
OTU 200	1	1	0	2	4	0	0	0	1	0	0	0	1	0	3	2	0	2	0	2	0	2	0	2	0	0	0	0	0	0	1	0	0	0	0	0	2	0	2	1	0	6	0	45	0	0	0	0	7	0
