	Host 1	Host 2	Host 3	Host 4	Host 5	Host 6	Host 7	Host 8	Host 9	Host 10	Host 11	Host 12	Host 13	Host 14	Host 15	Host 16	Host 17	Host 18	Host 19	Host 20	Host 21	Host 22	Host 23	Host 24	Host 25	Host 26	Host 27	Host 28	Host 29	Host 30	Host 31	Host 32	Host 33	Host 34	Host 35	Host 36	Host 37	Host 38	Host 39	Host 40	Host 41	Host 42	Host 43	Host 44	Host 45	Host 46	Host 47	Host 48	Host 49	Host 50	
OTU 1	11	26	84	35	81	4	0	10	0	68	52	151	31	41	20	14	61	47	11	80	16	36	59	46	3	0	82	39	65	24	38	131	2	34	17	25	0	101	77	0	12	2	0	31	139	12	50	8	22	89
OTU 2	1	2	52	63	0	1	0	0	2	1	4	4	5	50	1834	53	0	6	69	73	14	0	1	1349	5	48	5	0	97	0	11	9	0	3568	2	5	35	0	10	118	1825	0	8	0	211	99	0	42	2	0
OTU 3	7	12	5	0	60	252	3	0	0	1	0	0	0	0	7	16	3	0	117	1	0	6	2	16	0	2	16	7	0	0	0	0	2	27	0	0	0	1	0	77	17	0	2	2	0	0	0	0	42	16
OTU 4	0	0	0	0	0	0	5	0	0	0	0	0	0	0	0	0	0	0	0	0	0	0	0	0	0	0	0	0	0	0	0	0	0	0	0	0	0	0	0	0	0	0	0	4	0	0	0	0	0	0
OTU 5	29	284	0	151	144	649	248	162	40	550	126	221	2447	902	95	1512	1293	20	28	33	0	120	399	333	82	361	52	266	264	82	12	149	111	99	224	136	3	867	235	34	41	37	370	0	13	6	525	73	1	0
OTU 6	19	0	4	49	16	6	8	148	10	1	4	32	35	4	54	0	0	17	58	50	26	17	82	11	18	36	98	0	8	2	1	14	42	48	0	0	96	2	10	1	1001	3	1079	16	47	9	0	7	2	35
OTU 7	46	56	439	13	38	29	44	47	98	7	913	34	94	46	10	13	23	20	241	20	60	45	67	19	57	184	22	42	84	138	170	14	92	87	13	40	3012	27	1931	86	39	79	96	114	116	165	21	10	2	153
OTU 8	56	54	47	17	86	59	68	59	72	72	7	20	21	26	40	34	51	32	456	29	26	96	27	33	46	47	46	24	10	56	75	24	218	77	48	67	214	45	14	152	34	36	32	108	34	14	17	111	14	97
OTU 9	6	0	3	1	5	0	6	0	51	0	1	5	2	20	0	73	0	29	0	0	35	9	20	6	1	12	0	23	15	0	15	6	0	10	3	0	1	14	14	13	9	3	2	11	18	0	8	20	5	0
OTU 10	1	11	23	5	23	0	29	25	101	0	807	2	0	0	0	18	4	2	0	3	0	0	17	13	312	35	12	0	1	0	4	4	0	29	83	0	11	0	1479	17	8	0	0	0	0	126	0	0	37	1
OTU 11	56	28	21	18	81	3	8	72	54	1	0	12	14	8	2	44	4	37	30	54	1	4	10	41	68	22	19	3	70	64	12	23	52	10	4	103	29	2	1	945	4	59	18	135	113	100	0	1	21	26
OTU 12	260	1	50	22	50	21	441	142	22	47	4	2	9	4	23	60	0	22	58	13	79	13	1	35	46	26	15	60	113	79	22	1	77	74	41	20	202	10	1	4	45	32	15	64	27	68	5	12	2	38
OTU 13	0	4	0	0	0	0	0	0	0	0	47	0	0	0	0	0	0	0	13	0	6	0	6	0	15	1	0	0	0	6	0	0	0	0	5	0	0	0	109	98	0	53	0	0	4	0	0	0	58	101
OTU 14	0	1	0	0	0	0	0	11	29	0	2	1	2	5	0	0	10	24	0	0	86	0	20	2	67	44	0	17	9	0	3	1	0	6	0	2	0	0	0	9	0	0	24	10	2	0	0	0	9	5
OTU 15	0	0	0	0	0	0	9	0	0	0	0	4	0	0	0	1	0	68	0	0	1	0	0	0	0	0	0	25	0	2	0	0	0	0	0	0	0	0	0	7	0	0	0	0	0	0	0	0	0	0
OTU 16	0	0	0	0	0	0	0	0	0	0	0	0	0	0	0	0	0	0	0	0	0	0	0	0	0	0	0	7	0	0	0	0	0	0	23	3	0	0	0	0	0	0	0	0	0	0	0	0	0	33
OTU 17	46	7	1	0	34	3	33	9	92	49	0	0	65	7	6	8	53	18	4	5	112	0	35	0	273	24	11	1	0	1	82	0	7	1	0	69	78	5	1	9	0	250	5	0	0	3	3	60	1	20
OTU 18	25	76	50	26	12	63	37	9	15	2	44	52	1	140	8	61	27	64	82	25	18	77	2	11	17	152	13	3	1	29	216	22	19	12	25	1	38	77	34	14	17	53	13	37	31	57	44	8	11	51
OTU 19	4	0	0	0	0	0	0	0	0	0	0	0	0	0	0	0	0	0	0	0	0	0	2	0	0	0	0	0	0	0	0	0	0	0	0	0	0	1	0	0	0	0	0	0	0	2	0	0	0	0
OTU 20	216	65	5	5	27	113	43	74	21	3	0	8	0	107	30	49	20	4	76	2	3	15	32	9	18	216	3	56	18	36	54	3	11	12	42	453	54	87	0	1	12	30	0	174	10	86	48	20	28	4
OTU 21	100	7	24	9	140	116	69	55	11	22	0	0	39	178	21	28	16	76	55	11	62	120	8	4	123	71	18	8	3	134	42	163	82	52	24	16	0	18	4	75	30	0	59	14	3	46	11	0	6	33
OTU 22	3	54	11	37	27	3	59	0	104	30	16	77	32	26	0	30	26	70	158	35	11	2	17	3	5	7	49	280	7	70	66	220	0	19	55	36	62	44	18	2	12	124	83	4	29	61	22	17	2	19
OTU 23	13	15	2	21	13	0	32	7	69	2	0	4	1	1	0	18	0	21	6	16	1	1	33	8	0	0	58	14	3	23	0	15	3	0	1	38	34	18	1	7	0	20	0	213	15	1	6	13	50	0
OTU 24	4	13	66	0	0	0	12	1	29	10	33	86	5	4	9	8	10	0	1	0	582	14	0	0	32	1	25	0	9	1	0	0	6	0	0	7	0	11	46	101	1	2	0	1	2	4	3	25	1	2
OTU 25	0	0	0	0	0	0	0	0	0	0	0	0	0	0	0	0	0	0	0	0	0	0	0	0	25	0	0	0	4	0	0	0	0	0	1	0	0	0	0	0	0	0	1	0	0	0	0	0	0	0
OTU 26	8	1	0	0	1	0	0	4	0	0	0	0	2	0	0	0	0	0	0	1	0	0	10	0	0	28	0	1	0	0	0	34	15	0	0	15	0	1	1	0	0	0	0	0	12	19	1	15	2	0
OTU 27	0	0	1	0	7	0	0	19	358	0	0	0	0	0	0	0	0	0	0	0	0	0	0	1	0	1	0	0	0	0	1	0	0	1	0	0	0	0	0	0	3	0	0	0	0	0	0	0	0	0
OTU 28	2	40	28	48	0	100	40	15	152	59	10	38	38	35	8	247	39	18	120	83	0	23	5	56	185	55	4	4	117	4	9	17	37	13	25	12	17	45	33	23	11	20	2	68	214	4	11	38	169	102
OTU 29	1	28	116	0	18	2	175	14	22	53	6	2	13	3	20	868	34	30	99	15	92	100	28	7	38	40	40	3	46	6	102	155	54	4	2	2	159	46	25	68	0	7	21	65	99	106	24	22	55	238
OTU 30	0	0	0	0	0	0	1	0	0	0	0	0	0	0	3	0	0	0	0	0	0	1	0	0	0	0	0	0	0	0	0	0	0	0	5	0	0	0	0	0	0	0	0	0	0	0	0	0	0	0
OTU 31	1	3	8	3	18	0	0	8	28	1	0	29	0	1	14	2	1	12	0	0	74	0	0	57	47	0	14	0	0	16	1	0	2	110	1	5	37	28	8	6	40	1	7	9	20	1	10	7	1	2
OTU 32	2	127	26	7	79	7	185	44	49	27	3	84	14	6	22	34	40	42	40	52	43	33	6	66	48	43	2018	302	55	70	46	382	8	0	315	51	134	38	47	31	3	76	19	129	243	54	24	21	14	21
OTU 33	246	0	0	0	0	4	0	0	0	0	0	11	0	0	0	0	0	0	1	0	0	0	0	0	0	0	9	0	0	0	0	1	0	1	1	0	0	0	0	0	0	0	0	0	0	0	0	17	0	1
OTU 34	54	7	136	8	44	19	80	198	0	18	1	7	10	13	47	52	50	91	27	11	56	78	1	39	43	32	16	12	12	23	21	30	2	4	9	38	10	18	3	340	0	5	12	7	9	229	12	7	4	27
OTU 35	3	17	13	20	5	120	36	19	62	9	9	5	35	79	15	62	16	4	84	29	847	21	9	57	0	4	5	4	7	19	1	2	1330	30	8	0	56	10	3	71	13	15	0	51	0	6	3	43	56	157
OTU 36	24	18	7	16	34	5	9	198	51	4	19	55	2	104	0	209	3	60	2	2	183	39	23	6	172	220	32	7	3	29	8	0	89	1	4	70	10	0	37	163	0	18	48	9	7	104	0	48	41	102
OTU 37	1	1	0	11	182	12	56	0	19	0	0	0	1	42	6	0	0	0	8	15	7	0	2	0	0	39	32	4	46	29	33	3	0	7	88	25	2	1	0	0	8	67	2	20	122	0	1	1	1031	0
OTU 38	194	0	2	20	19	125	0	107	0	7	5	10	4	4	2	3	0	166	114	28	2	13	9	9	18	54	0	202	8	55	85	23	60	2	16	15	0	3	11	17	1	22	29	300	45	6	2	36	0	92
OTU 39	0	9	4	2	15	1	1	2	19	0	7	0	0	5	0	0	0	2	2	2	0	0	40	9	0	0	1	1	0	0	28	0	0	0	0	0	4	0	12	0	0	20	3	0	8	3	0	47	2	9
OTU 40	17	7	16	5	207	13	70	66	66	8	6	20	21	226	3	39	4	19	36	0	176	219	41	2	84	146	1	731	0	9	30	1	0	55	3	106	6	21	4	151	22	14	0	10	23	177	11	3	0	4
OTU 41	55	58	52	3	67	36	23	68	35	12	35	71	11	27	2620	0	0	159	51	9	5	71	4	6	0	24	15	41	78	6	49	29	2	16	16	11	107	15	44	109	11	17	2	45	27	1	6	21	0	1
OTU 42	0	3	35	168	1	25	48	47	0	3	0	0	2	0	8	0	3	11	26	66	45	4	0	0	55	88	0	63	84	14	0	0	28	0	16	2	4	3	0	5	0	12	31	0	56	0	3	0	0	0
OTU 43	0	0	2	0	0	0	0	0	0	0	0	0	0	0	0	0	0	0	1	0	0	0	0	0	0	0	0	0	0	0	0	0	0	0	0	0	0	0	0	0	0	23	1	0	0	0	0	0	0	0
OTU 44	0	0	14	0	2	0	0	0	34	9	0	2	0	0	1	0	3	129	0	0	2	0	66	16	0	0	12	12	0	0	0	0	7	3	3	40	5	0	0	1	2	1	5	0	5	12	0	0	0	0
OTU 45	185	82	338	7	97	121	38	30	1	0	8	7	157	13	220	204	0	1	59	7	2	34	36	0	1	48	34	9	18	35	192	8	135	1	4	60	13	6	11	99	1	19	39	36	0	0	4	8	3	7
OTU 46	265	10	22	549	28	24	73	57	4	38	912	449	89	7	9	2	42	111	12	804	66	49	12	12	123	45	10	10	621	68	82	236	18	40	70	25	25	88	399	34	22	115	37	56	1606	26	40	1034	191	25
OTU 47	0	9	0	0	6	1	0	0	0	0	0	0	5	0	0	0	0	14	0	1	0	0	0	0	1	0	0	0	0	40	0	3	0	0	0	5	0	0	0	3	0	0	6	0	10	0	0	0	0	76
OTU 48	16	90	66	0	12	11	3	40	9	10	1	3	12	27	14	51	18	24	64	7	41	18	2	3	73	12	17	8	2	8	7	114	4	6	28	6	22	24	13	76	0	88	2	507	69	4	13	1	19	34
OTU 49	5	5	86	12	6	53	60	0	0	66	1	21	0	36	9	8	24	1	0	5	2	102	2	3991	0	35	90	43	42	9	4	0	5	0	2	0	9	54	0	95	0	37	12	7	16	1	29	28	2	79
OTU 50	270	12	8	24	48	120	6	19	25	74	1	7	30	127	289	68	60	11	10	43	383	46	82	235	16	71	8	20	5	1	29	74	30	538	26	73	76	70	0	70	239	68	2	196	9	39	32	23	0	2
OTU 51	8	25	27	8	93	12	2	19	0	2	372	35	0	95	17	11	5	52	2	27	3	32	110	1	33	34	76	10	29	54	1	6	0	11	2	10	77	6	855	0	4	8	4	34	35	0	3	7	22	157
OTU 52	5	3131	39	11	102	5	75	26	64	12	472	1027	55	15	339	5	7	151	113	25	32	26	338	283	125	70	128	103	11	22	17	860	24	496	311	83	15	37	442	38	200	55	47	167	29	15	19	417	5	38
OTU 53	0	0	0	0	0	0	0	0	0	0	0	0	0	0	0	0	0	0	0	0	0	0	0	0	0	8	0	0	0	0	0	19	0	0	0	0	0	0	0	0	1	7	0	0	0	0	0	0	0	23
OTU 54	140	0	64	34	33	507	51	49	45	24	8	7	98	15	53	43	11	60	483	14	56	25	7	18	15	3	134	167	2	63	173	42	31	7	24	17	72	43	0	18	3	141	52	129	8	17	19	57	21	21
OTU 55	0	0	0	0	0	0	0	13	2	0	0	1	0	1	0	0	0	0	0	0	0	0	0	0	0	0	0	0	0	0	0	0	0	0	0	0	0	0	0	0	0	0	0	0	0	0	0	0	0	0
OTU 56	0	16	1	8	1	11	1173	8	17	6	0	2	8	3	4	1	0	12	0	19	7	84	4	1	35	2	0	22	20	24	4	15	0	1	0	1	47	12	2	2	0	14	12	444	9	1	4	3	1	14
OTU 57	182	43	107	12	37	8	16	6	205	37	8	26	78	139	32	39	30	38	231	67	300	103	90	59	34	206	36	130	252	121	83	60	221	25	103	28	33	37	21	67	10	148	57	40	238	697	21	71	237	74
OTU 58	0	1	28	9	145	7	1	33	38	12	10	34	0	126	0	1	2	47	1	4	257	52	1	0	54	2	0	118	1	10	0	6	13	2	0	1	8	23	11	237	1	151	4	0	22	1	7	7	0	1
OTU 59	28	12	43	5	3	7	0	1	3	0	0	0	2	26	5	0	0	40	21	3	0	0	4	2	103	12	12	35	6	19	46	2	7	7	0	10	42	3	10	3	6	89	8	51	15	4	0	4	24	0
OTU 60	12	47	11	36	21	81	44	53	76	3	30	25	98	9	27	41	5	40	4	7	204	0	110	7	32	167	17	43	25	29	13	4	12	16	77	31	145	17	29	104	2	119	1	112	34	280	7	25	8	136
OTU 61	68	35	93	11	86	1283	166	113	46	9	1	12	41	122	48	44	29	87	1	61	275	26	8	35	152	131	16	99	615	107	2	44	23	36	4	81	60	11	8	243	22	8	97	55	42	44	6	105	22	1
OTU 62	16	1	0	0	1	0	5	45	18	1	0	10	0	0	0	30	13	4	0	4	10	0	3	3	2	103	2	20	20	1	9	9	123	0	24	13	0	0	0	0	0	36	3	32	0	32	0	7	0	71
OTU 63	8	8	49	0	3	1	1	0	24	2	2	4	1	6	0	127	5	0	62	0	2	323	20	17	136	2	20	15	2	9	44	169	34	22	72	1	29	14	6	20	22	61	0	0	16	0	5	4	1	0
OTU 64	296	85	84	37	85	98	107	201	71	32	71	140	29	64	25	100	57	110	502	99	171	17	158	29	15	81	111	107	285	115	112	181	14	74	301	54	69	85	102	17	40	23	26	352	515	46	36	258	167	142
OTU 65	0	0	0	0	0	0	0	0	0	0	0	0	0	0	0	1	0	0	0	7	1	1	0	0	0	0	0	0	0	0	0	0	676	0	0	0	0	0	0	5	0	0	0	0	0	0	0	0	3	0
OTU 66	27	16	57	12	17	12	2	70	159	0	5	12	0	5	10	150	5	2	23	60	305	0	2	11	84	37	12	17	2	59	52	17	9	14	61	2	119	6	3	13	2	35	57	26	6	0	2	10	1	258
OTU 67	9	20	11	0	53	26	5	1	52	9	17	50	37	86	2	47	0	43	86	16	30	6	75	2	2	0	0	28	26	2	12	0	28	6	1	23	11	0	19	50	0	27	1	4	9	215	0	2	0	92
OTU 68	0	0	33	10	7	2	0	9	2	0	0	1	10	1	0	0	1	3	66	71	7	5	43	10	340	0	15	3	33	2	11	8	0	0	9	13	5	2	1	0	0	1	9	60	92	2	50	1	21	1
OTU 69	102	0	14	0	0	63	4	64	92	4	22	113	8	605	1	86	27	8	48	2	5	4	23	2	13	45	32	4	12	95	88	77	33	2	67	7	556	16	27	244	4	1305	58	118	13	92	13	225	57	61
OTU 70	0	1	67	14	26	6	23	3	60	12	0	0	0	54	0	0	29	1	24	35	0	22	0	0	0	25	63	38	32	1	49	35	5	4	0	1	0	37	0	39	11	0	0	29	26	2	19	5	2	21
OTU 71	14	49	0	1	6	8	18	20	112	1	0	2	1	0	0	17	26	8	6	6	48	1	2	15	0	0	23	48	0	6	1	0	109	0	0	4	19	85	0	10	0	74	9	96	0	3	48	0	0	40
OTU 72	60	25	6	1	33	27	142	54	39	21	21	30	100	72	3	94	33	102	46	35	2	0	18	2	37	114	79	37	24	179	32	1	9	0	5	14	79	33	12	24	0	117	76	0	48	88	13	120	10	25
OTU 73	6	18	3	1	26	2	22	5	3	14	0	0	9	0	2	31	9	16	242	10	79	22	631	0	125	41	2	4	52	0	340	20	14	2	19	14	20	127	0	17	0	0	12	34	65	23	56	39	1	15
OTU 74	39	0	8	8	29	0	115	212	7	5	1	16	28	8	29	5	1	61	146	19	1	6	4	120	115	21	6	46	5	103	162	118	89	332	7	16	206	39	6	84	200	93	4	49	3	2	20	141	9	10
OTU 75	54	20	0	13	63	20	11	55	12	9	2	5	40	171	7	11	12	149	200	12	112	2	2	5	192	54	96	31	0	75	86	0	59	19	24	61	14	61	0	30	12	8	21	38	12	66	35	13	6	18
OTU 76	2	20	0	20	1	0	52	26	0	4	0	0	0	3	6	24	0	7	0	0	7	4	0	12	0	1	51	0	6	1	0	1	0	0	0	0	2	0	0	0	1	0	0	218	3	13	0	3	0	2
OTU 77	7	4	9	1	3	119	111	30	23	21	27	47	45	13	17	3	5	27	48	0	24	0	65	1	21	72	29	3091	4	3	5	179	31	3	35	2	38	2	75	261	1	68	67	31	2	1	2	63	0	12
OTU 78	2	1	42	30	74	15	89	83	3	1480	1	0	31	0	3	9	0	38	22	16	0	1	19	12	171	4	0	14	55	153	10	7	4	2	23	27	40	52	6	32	2	86	30	6	60	29	30	6	0	39
OTU 79	136	907	92	12	123	83	487	755	68	23	12	42	243	11	62	234	43	56	185	61	50	110	216	45	161	51	108	67	71	534	857	71	118	184	134	69	46	73	13	155	85	111	309	51	70	98	36	119	58	267
OTU 80	2	63	64	2	40	13	73	63	10	52	2	20	107	22	117	74	34	13	402	16	98	49	3587	89	12	4	300	28	26	41	107	69	20	24	3	52	34	171	0	5	12	15	70	47	84	36	83	32	6	38
OTU 81	107	253	169	13	208	84	32	71	296	73	3	15	23	62	741	43	3	73	178	15	78	24	23	4	15	154	273	168	14	6	266	48	40	60	5	113	71	12	19	26	44	100	0	27	49	15	6	13	10	14
OTU 82	13	1	29	175	82	6	75	34	14	11	15	12	25	70	4	63	4	5	10	168	41	47	35	0	56	173	0	93	30	64	21	2	9	65	1	43	11	62	27	13	41	1	0	104	22	10	29	5	113	0
OTU 83	0	0	27	1	0	1	7	11	234	29	0	0	59	0	0	0	8	0	0	0	0	0	1	23	0	0	53	0	0	0	38	25	34	0	2	0	13	12	1	6	0	0	6	0	27	1	3	0	0	0
OTU 84	41	20	6	1	3	7	54	40	52	0	48	57	70	221	37	5	0	2244	39	6	0	190	0	2	12	39	2	1	2	2	4	6	0	2	1	3	1	10	129	0	0	0	0	18	5	7	6	0	0	9
OTU 85	0	0	59	0	0	0	4	74	0	0	0	1	269	0	8	18	0	37	25	0	4	0	0	7	2	0	0	24	0	5	23	0	7	4	0	0	0	9	0	302	6	33	0	286	34	0	3	7	54	0
OTU 86	3	0	0	0	8	28	0	0	0	0	0	0	2	0	0	2	1	0	0	0	0	0	0	0	0	2	0	0	0	6	0	0	16	0	0	1	21	1	0	0	0	0	0	0	9	0	0	0	1	0
OTU 87	0	2	8	1	19	0	0	18	0	0	745	3148	0	2	0	20	0	0	61	0	0	10	0	0	12	0	0	0	7	153	156	0	0	0	0	1	7	2	1578	1	0	49	27	0	2	0	2	0	9	9
OTU 88	0	2	2	0	1	0	2	0	6	0	0	0	0	37	12	1	0	11	1	0	0	5	1	1	0	21	0	4	0	0	6	17	7	0	0	0	0	0	0	0	0	126	0	0	0	0	0	0	11	0
OTU 89	9	8	0	1	86	67	4	17	9	1	0	8	13	85	0	3	0	13	6	21	2	2	0	7	26	0	0	2	1	27	0	9	0	0	0	126	8	2	3	15	0	13	0	0	82	2	2	11	30	0
OTU 90	0	2	0	1	0	0	1	7	0	23	0	2	11	12	4	0	0	0	0	41	0	4	0	0	6	0	8	0	16	0	0	0	3	1	0	8	18	7	0	1	0	0	0	0	1	9	4	0	1	0
OTU 91	0	1	0	0	0	0	29	0	0	14	0	1	0	0	0	13	0	0	0	0	0	0	1	0	0	1	0	0	0	13	1	2621	0	36	1302	1	9	0	0	0	10	0	0	0	0	7	0	0	0	0
OTU 92	4	0	39	3	0	0	0	0	0	0	22	0	6	0	0	0	10	3	0	0	11	16	33	5	27	1	8	10	1	0	0	0	10	0	0	0	2	0	2	4	0	0	3	3	0	0	0	0	1	5
OTU 93	0	1	0	8	1	18	0	0	0	32	7	1	6	0	0	0	0	8	0	0	0	0	0	4	0	7	0	0	5	0	53	0	2	0	0	0	5	1	18	0	0	0	0	10	1	3	0	0	0	5
OTU 94	27	8	254	10	47	102	31	46	54	106	20	45	0	14	39	38	24	1	193	30	227	18	801	34	137	105	32	11	77	28	121	125	18	42	6	32	147	70	14	72	35	80	1	98	102	14	38	14	21	94
OTU 95	8	13	3	0	0	6	0	10	17	2038	3823	3	17	1	4	0	12	14	6	0	1	23	1	13	200	19	0	0	0	0	0	0	0	9	0	2	1	8	0	12	5	0	0	2	1	2	9	0	1	1
OTU 96	0	0	0	0	0	0	0	0	0	39	0	0	0	0	0	0	7	0	0	0	0	1	0	0	0	15	0	0	0	0	0	0	781	0	0	5	0	24	0	0	1	0	0	0	0	0	9	0	0	0
OTU 97	0	0	0	17	1	0	0	2	0	0	0	3	22	0	0	18	0	53	0	103	1	0	14	0	4	0	0	0	4	0	0	0	23	8	0	0	0	0	0	1	6	0	1	0	6	0	0	0	1	0
OTU 98	0	16	4	119	5	1	1	10	113	0	0	0	0	0	6	0	9	0	1	105	2	0	2	0	1	0	73	0	131	2	2	10	79	0	7	1	2	22	4	37	0	15	0	20	122	108	13	0	0	1
OTU 99	208	120	9	23	81	52	75	48	39	32	42	168	20	48	47	152	21	42	2	118	109	28	1	20	11	57	19	189	96	2	105	151	25	45	12	31	10	16	60	1	29	52	12	125	116	45	8	4	160	25
OTU 100	18	90	2	22	6	3	43	8	17	13	0	11	18	3	1	13	12	62	8	0	7	45	66	4	28	30	6	28	0	2	9	0	5	10	21	5	9	77	5	97	1	7	2	5	14	11	32	0	15	6
OTU 101	2	0	0	0	64	0	0	0	0	0	0	0	1	88	0	0	0	0	0	7	0	0	0	0	6	0	0	0	0	4	0	0	0	1	2	0	0	0	1	0	4	1	2	0	0	0	0	0	0	0
OTU 102	50	3	64	0	0	0	0	0	1	12	0	0	1	0	2	26	0	0	27	0	6	38	66	1	0	0	33	0	6	9	0	101	5	2	17	19	0	1	0	0	0	141	0	0	1	32	1	14	3	4
OTU 103	56	536	1	4	33	0	1	44	1	29	0	0	7	4	0	31	21	7	29	5	2	3	14	2	7	0	0	11	27	7	18	16	2	5	11	14	2	45	0	51	4	73	9	0	38	4	21	3	0	12
OTU 104	75	3	2297	38	11	6	17	152	149	0	22	82	55	3	102	200	11	333	103	78	47	29	133	103	15	268	61	2	139	11	10	45	66	224	20	14	58	4	39	1	112	99	6	11	195	55	1	65	158	887
OTU 105	0	2	28	3	3	0	0	30	30	2	0	0	21	63	14	1	0	0	18	5	0	49	0	1	0	31	65	6	0	0	2195	1	0	0	0	0	0	25	5	0	0	3	0	0	2	7	6	0	0	7
OTU 106	0	0	84	18	0	26	0	0	1	0	0	0	30	2	2	0	0	0	25	24	0	8	89	0	59	5	4	49	19	0	0	0	9	12	0	14	2	0	0	1	14	0	0	238	72	1	0	6	59	104
OTU 107	0	0	0	9	34	5	100	9	0	0	7	6	19	0	0	1	0	3	86	0	1	0	12	0	56	0	0	0	0	11	3	4	1356	11	5	22	0	2	6	1	3	8	55	41	0	2472	1	724	6	0
OTU 108	2	34	8	10	1	39	118	0	0	14	10	0	0	11	3	53	0	4	0	46	0	10	5	1	1	19	44	18	8	6	0	4	18	1	0	22	0	11	10	31	8	50	0	15	57	11	1	0	13	23
OTU 109	0	0	24	0	0	0	1	0	0	0	0	0	0	0	1	1	0	0	0	0	0	0	0	0	0	0	0	0	0	1	0	0	0	0	0	0	0	0	0	0	0	0	0	0	0	0	0	0	0	0
OTU 110	191	131	1	0	76	54	185	3	17	190	66	231	453	191	310	41	119	4	26	0	6	83	4	229	47	13	65	84	6	162	231	4	144	344	38	17	47	185	82	2	192	61	23	1	5	6	97	2	5	13
OTU 111	0	0	0	0	7	444	4	0	234	2	0	0	0	0	0	0	0	0	0	2	0	0	0	0	0	0	21	0	1	0	0	92	3	0	4	0	0	0	0	0	0	11	0	0	3	0	0	0	0	0
OTU 112	83	23	48	0	0	1	39	0	7	6	3	20	0	18	0	87	0	0	38	0	11	0	41	0	11	5	42	221	12	0	0	33	42	2	0	4	2	4	6	44	4	23	6	0	0	31	3	5	124	9
OTU 113	0	95	1	0	0	5	5	0	25	1	0	1	6	0	9	12	10	1	1	0	3	0	0	9	0	0	0	0	0	0	1	0	5	4	1	0	0	0	0	0	0	1	0	0	0	10	0	25	175	0
OTU 114	162	853	266	13	3	68	78	106	141	152	19	90	13	69	2	386	438	239	4	25	62	90	5	48	28	52	101	117	7	43	1	18	110	26	80	93	141	249	20	57	9	169	1	46	47	179	123	1	25	109
OTU 115	37	42	65	19	26	24	23	43	40	117	6	67	29	49	34	82	54	55	14	42	8	57	45	10	54	79	145	1	103	155	5	15	190	57	21	57	207	106	11	8	22	133	149	154	75	15	53	176	38	64
OTU 116	2	3	15	13	28	20	14	13	365	8	50	98	8	20	34	22	108	14	142	4	349	88	6	22	1	79	5	2	16	42	5	62	9	56	62	18	0	19	82	14	18	0	117	8	14	1	10	5	1	32
OTU 117	19	35	11	9	243	63	7	613	134	7	15	89	52	3	27	59	3	19	13	7	22	9	30	1	12	61	8	10	1545	169	49	0	174	27	49	58	8	0	70	12	15	36	47	0	25	153	0	36	73	78
OTU 118	0	2	0	0	0	0	1	3	97	0	0	0	5	0	38	3	0	3	0	9	1	0	0	0	14	37	0	6	15	22	0	10	0	0	5	3227	2	0	0	32	0	12	0	32	0	104	0	14	0	1
OTU 119	81	7	42	7	26	16	804	30	5	38	2	2	0	69	67	16	25	235	27	1	2	75	17	26	82	36	66	18	11	0	3	56	6	78	78	13	16	38	3	12	34	33	4	7	2	183	14	5	53	60
OTU 120	15	29	14	46	47	0	26	63	10	0	0	25	1	0	0	0	0	538	140	61	19	0	38	2	6	0	0	9	2	101	36	17	61	3	3	5	5	0	12	8	1	0	39	0	50	51	0	0	19	96
OTU 121	3	3	3	14	0	8	3	1	2	10	2	1	9	59	54	0	10	2	11	1	8	173	7	13	128	54	11	21	2	84	0	8	0	39	31	6	2	36	4	102	17	313	50	13	0	0	23	0	0	148
OTU 122	111	3	132	13	22	1	15	58	26	6	0	1	0	6	2	8	0	65	6	79	0	7	36	0	32	13	15	26	15	25	50	7	44	26	8	15	80	1	0	4	17	34	32	91	45	20	0	12	0	25
OTU 123	69	52	264	158	139	103	647	126	410	186	93	313	22	18	37	172	124	414	209	315	245	4106	324	106	125	421	184	85	691	144	188	618	75	181	417	131	66	151	225	462	80	243	148	198	399	283	75	507	152	137
OTU 124	1	1	7	0	0	1	7	106	2	22	0	8	2	35	1	21	10	0	0	0	0	0	3	5	0	8	1	0	0	0	0	0	13	0	1	4	63	16	0	22	1	23	0	11	0	32	8	0	0	0
OTU 125	178	131	134	113	29	169	370	88	675	749	27	35	621	125	35	3	91	96	59	130	34	175	100	29	248	119	22	143	69	1066	18	61	208	72	52	772	17	146	48	91	17	170	486	218	207	81	2405	28	26	162
OTU 126	0	0	0	7	0	0	1	1	0	1	0	0	2	22	0	0	0	0	0	0	0	0	1	0	0	183	39	0	0	0	13	0	0	0	0	1	7	0	0	0	0	0	0	0	0	0	0	4	0	0
OTU 127	24	39	13	6	9	13	26	0	2	2	17	25	3	20	0	98	24	14	8	2	69	5	0	3	57	35	7	70	35	13	1	0	23	0	1	0	3	6	7	57	0	90	31	72	1	28	1	4	62	16
OTU 128	928	71	917	167	65	415	218	266	97	982	32	140	95	212	275	114	1421	138	525	316	330	99	66	118	666	73	815	210	354	112	436	183	70	256	126	112	106	2513	73	206	136	495	43	38	955	241	1271	129	178	38
OTU 129	0	0	0	0	0	0	2	0	1	12	0	2	0	0	0	0	0	2	0	0	2	0	0	3	0	13	32	30	0	60	0	104	0	20	1	13	4	0	0	0	5	4	0	0	0	0	0	1	0	56
OTU 130	97	128	0	7	0	2	19	10	37	11	25	33	22	31	0	22	2	0	57	0	2	62	0	0	58	177	25	9	13	7	1	0	14	0	2	18	2	21	8	20	1	0	5	71	3	22	8	48	0	17
OTU 131	20	16	5	1	1	17	73	151	0	0	1	1	51	2	12	104	29	726	27	7	0	36	0	3	39	230	21	41	1	19	7	0	169	0	116	1	125	4	0	16	0	232	0	5	0	368	2	819	8	23
OTU 132	0	13	23	5	35	0	36	155	2	17	34	190	2	90	1	4	10	61	29	17	25	17	0	6	0	12	5	57	1	1	11	22	0	10	52	3	102	10	82	0	2	0	5	4	82	0	7	2	9	4
OTU 133	0	6	29	0	0	2	1	7	0	0	0	1	25	0	1	2	0	27	0	0	0	8	0	5	15	0	0	7	0	0	2	0	15	26	0	0	0	0	0	1	10	5	2	0	0	0	0	26	3715	0
OTU 134	0	30	5	45	19	5	5	35	46	35	0	0	11	9	25	0	18	16	29	7	9	11	4	3	24	0	117	0	75	106	40	92	4	4	68	0	1	44	4	36	2	7	20	0	69	122	27	0	68	2
OTU 135	138	3	8	17	73	30	53	18	8	0	4	74	8	16	5	12	1	1	26	15	11	42	225	19	1	41	339	9	0	1582	9	2	192	42	1	21	37	1	28	0	40	30	964	2	36	33	2	46	7	3
OTU 136	23	18	19	10	80	133	0	30	62	0	16	29	8	0	42	8	0	83	11	7	0	15	28	19	33	25	1	24	6	0	3	0	30	9	0	14	17	0	12	125	0	32	0	0	11	29	0	0	2	74
OTU 137	24	7	0	27	64	0	23	213	0	3	57	235	9	1	1	25	0	0	0	41	1	5	27	1	27	1	1	0	51	1	21	36	1	7	2	28	0	1	78	0	1	0	0	25	47	45	0	8	20	0
OTU 138	6	3	6	0	0	0	6	3	76	106	8	5	0	623	1	34	103	2	0	2	20	221	26	56	17	40	0	28	0	0	5	1	1	15	51	0	33	267	0	0	7	64	21	7	0	44	126	6	0	63
OTU 139	66	62	114	46	9	86	39	25	73	48	40	82	13	44	18	65	25	27	47	72	16	35	21	27	863	539	10	47	48	4	106	16	16	37	479	5	37	68	40	49	11	59	32	108	125	13	33	2	5	57
OTU 140	118	137	64	63	21	64	155	238	173	52	4	17	57	650	21	311	129	63	83	39	49	137	24	9	122	419	732	23	62	219	64	4	69	58	61	23	18	110	4	25	35	40	87	828	93	95	59	41	33	87
OTU 141	0	0	0	0	0	0	0	0	0	13	0	0	0	33	0	0	29	0	0	0	0	0	0	0	77	0	0	0	0	0	0	0	0	0	0	0	0	9	0	20	0	0	0	0	0	0	4	0	0	0
OTU 142	3	0	0	0	0	0	0	0	0	0	0	1	0	0	0	0	0	0	0	9	0	2	0	0	3	0	0	0	0	0	0	0	0	0	0	0	0	0	0	41	0	0	0	22	0	0	0	0	0	0
OTU 143	0	0	0	9	0	0	0	6	42	0	13	1	9	1	0	30	0	0	18	2	0	0	0	0	3	0	69	1	0	0	0	1	4	1	0	1	0	0	14	1	0	0	4	17	0	0	0	0	0	0
OTU 144	5	12	231	5	46	7	21	0	0	0	0	17	12	23	0	1	8	0	102	6	0	1	47	2	17	9	26	0	0	1	12	0	0	2	14	0	0	6	3	93	3	0	3	0	0	4	1	0	0	28
OTU 145	58	21	12	1	111	21	149	142	10	13	3	10	23	96	11	78	13	28	21	10	19	91	22	40	26	117	92	0	43	32	4	77	32	138	23	32	37	4	12	46	72	72	111	129	109	51	2558	7	3	41
OTU 146	0	15	11	3	155	4	9	16	63	2	8	14	262	16	10	11	3	45	26	1	37	18	1	13	242	70	145	4	13	87	0	27	57	8	72	42	10	2	34	11	2	10	0	0	4	0	1	14	13	46
OTU 147	19	107	2	19	26	15	57	48	3	2	6	6	26	0	1	1	4	1	14	27	51	0	27	0	7	0	0	0	0	13	1	11	5	4	0	20	3	0	6	0	0	3	0	20	0	4	0	5	2	7
OTU 148	83	66	40	2	1	7	42	0	2	2	17	51	24	3	1	0	5	31	61	0	102	0	48	45	25	0	36	1	82	13	121	174	483	113	88	3	11	1	23	299	62	0	0	81	52	205	0	38	0	3
OTU 149	98	4	0	8	0	41	3	13	26	2	1	29	619	22	2	0	22	18	45	0	11	11	1	6	0	0	3	3	0	15	16	33	1	12	3	60	0	2	0	16	0	26	18	51	0	1	1	2	22	49
OTU 150	9	16	10	8	1	2	0	6	0	8	0	0	8	1	0	0	0	0	0	9	0	2	27	1	6	138	64	21	1	3	1	0	1	2	0	0	5	0	0	115	1	0	0	2	5	0	0	0	0	10
OTU 151	28	29	0	0	51	1	9	0	33	6	1	0	9	17	2	3	0	41	5	0	4	95	7	19	14	18	1	20	0	18	4	0	33	0	0	4	10	40	0	18	0	10	10	62	20	19	23	0	8	2
OTU 152	96	38	0	19	36	35	13	8	113	57	101	297	19	44	10	17	25	94	68	12	173	16	1	24	383	379	27	53	36	54	28	106	14	33	8	0	41	115	226	34	8	24	1	176	46	66	59	2	6	39
OTU 153	0	23	4	3	0	1	0	0	0	0	0	0	0	16	0	0	0	19	0	8	5	0	0	0	0	5	0	0	0	0	0	2	3	0	0	0	0	0	6	11	0	28	0	0	5	18	0	0	0	0
OTU 154	0	0	1	6	0	0	0	0	3	13	0	0	0	0	120	0	3	0	0	24	0	0	0	360	0	0	0	2	0	7	0	0	8	313	0	0	0	25	0	0	131	15	0	0	4	0	10	0	0	0
OTU 155	9	5	1	4	145	68	51	69	25	12	0	0	59	0	31	0	4	14	13	0	16	0	15	24	0	20	1	8	0	0	8	20	2	0	0	138	21	17	0	0	0	1	6	39	0	0	11	9	0	0
OTU 156	129	112	73	6	53	47	5	354	200	51	0	7	27	73	5	29	3131	17	1	7	33	9	1	19	66	128	54	7	29	50	23	76	47	35	31	41	49	90	7	185	19	202	25	30	20	186	50	6	3	9
OTU 157	0	0	0	343	0	11	0	2	2	8	7	2	0	0	0	7	3	0	0	0	0	18	0	0	0	202	24	2	0	0	4	0	33	2	7	0	0	0	31	0	0	0	0	0	15	4	0	2	53	2
OTU 158	0	0	12	16	0	0	0	0	0	0	0	0	48	0	0	0	0	0	0	6	1	0	0	0	0	1	0	1	3	135	26	0	0	0	0	6	0	0	0	0	0	0	109	0	0	0	0	0	0	0
OTU 159	44	0	0	0	230	81	3	0	3	3	0	10	34	22	917	28	34	17	11	0	0	54	0	0	2	149	19	7	25	66	5	0	72	12	5	5	689	0	0	67	6	761	52	29	64	28	0	1920	17	0
OTU 160	61	71	130	57	117	287	49	46	165	25	45	46	27	15	5	111	93	69	119	191	40	25	13	163	65	287	201	13	126	166	120	46	16	54	25	8	275	49	18	11	19	126	39	156	338	8	32	21	16	62
OTU 161	19	3	0	8	21	1	41	0	137	8	7	0	6	53	8	13	3	85	91	21	7	25	5	27	57	24	57	62	0	31	0	15	0	8	3	0	95	5	9	3	2	17	0	31	3	0	4	63	4	24
OTU 162	169	8	3	36	49	29	56	269	15	48	9	0	60	90	5	98	16	79	20	19	223	53	18	31	82	56	3	79	6	45	2	14	0	3	58	13	5	48	9	0	0	36	53	1	0	71	24	71	70	53
OTU 163	0	0	8	0	0	0	7	0	0	3	0	0	0	0	0	0	0	0	0	0	9	0	0	0	0	0	0	0	0	0	0	0	0	0	0	0	3	0	0	0	0	0	0	0	0	25	0	0	0	1
OTU 164	0	0	0	1	0	18	0	0	0	0	0	2	0	0	0	0	0	0	0	46	0	0	0	0	1	0	0	23	0	0	0	0	0	0	0	0	0	0	0	0	0	0	0	0	0	0	0	0	0	2
OTU 165	11	10	3	3	0	159	0	51	1164	2	2	2	57	12	1	1	0	3	50	8	247	14	22	0	11	0	57	2	29	91	22	0	40	10	4	1	0	0	1	3	5	55	31	38	38	0	0	1	105	101
OTU 166	3	20	0	0	1	0	15	25	0	0	0	0	0	0	0	27	0	0	0	0	2	0	0	0	0	0	0	0	0	22	0	0	0	0	0	57	0	0	0	1	0	7	0	0	0	0	0	0	2	0
OTU 167	41	1	5	0	6	9	98	84	62	0	2	3	0	30	3	11	16	19	48	3	6	186	18	2	13	12	0	13	3	1	0	6	5	11	37	39	0	60	4	1	2	7	0	0	4	6	32	12	18	11
OTU 168	0	3	18	5	3	146	6	0	52	0	0	6	33	2	18	58	10	3	17	2	61	2	9	14	14	48	1	6	0	12	6	88	9	6	17	4	32	0	0	20	3	10	1	31	6	8	0	12	12	13
OTU 169	0	0	74	2	0	0	0	0	0	0	0	6	0	0	0	0	7	0	7	0	0	0	0	0	0	0	4	0	0	5	2	22	71	4	0	0	0	0	1	3	1	0	0	32	0	132	0	0	0	0
OTU 170	0	1	82	12	15	0	5	0	0	0	0	0	0	0	0	0	0	0	0	3	0	0	1	0	0	0	0	0	0	1	0	0	0	0	10	0	0	0	0	0	0	0	0	0	0	8	0	0	1	0
OTU 171	38	0	97	66	4	989	5	0	7	13	16	93	32	31	0	192	3	39	277	26	22	2	19	283	0	47	1	1	34	5	104	29	3	68	50	14	33	50	39	114	38	20	2	19	152	59	31	15	13	63
OTU 172	0	0	0	6	0	0	0	5	1	6	2	0	0	0	81	1	6	0	2	9	0	0	0	47	6	0	41	0	0	0	0	0	0	43	27	0	0	0	0	22	12	22	0	0	0	0	0	17	0	0
OTU 173	1	0	0	2	91	9	0	59	2	1	4	10	61	0	3	6	7	9	0	1	0	12	0	1	2	0	0	0	0	484	0	5	4	16	18	92	32	14	0	0	13	0	342	0	0	0	4	29	0	7
OTU 174	7	41	1	6	2807	8	27	5	33	15	4	9	0	13	1	15	43	8	36	19	318	1	18	22	48	0	30	0	1	0	105	0	15	12	0	1595	2	84	0	20	6	39	0	0	25	0	38	720	1	39
OTU 175	112	0	192	7	1	14	21	15	10	1	0	1	48	2	14	144	2	1	9	11	0	6	13	0	45	48	4	0	1	12	8	1	3	22	7	0	0	1	5	0	1	0	0	122	0	3	1	1	20	6
OTU 176	28	7	11	29	76	82	138	3	136	6	28	51	6	9	17	79	7	166	34	56	139	17	22	29	36	68	187	0	1694	43	9	89	5	20	16	22	26	10	24	15	8	103	18	39	10	3	4	7	4	10
OTU 177	2	17	44	0	38	2	25	30	46	1	27	139	0	21	0	32	0	11	13	8	99	10	9	32	129	5	20	5	1	44	17	1	10	48	1	23	1	3	59	60	38	3	1	75	0	21	3	4	3	50
OTU 178	0	0	10	0	224	78	53	211	0	0	0	2	1	5	1	13	0	69	0	15	0	6	2	8	49	0	21	19	3	165	7	0	0	2	0	94	7	0	0	7	7	0	69	2	11	3	0	47	0	2
OTU 179	1236	3	0	1	8	11	0	112	4	0	14	28	0	0	5	6	2	43	3	21	56	27	39	4	7	0	0	51	16	12	0	20	5	5	1	0	40	7	2	12	4	0	20	2	23	3	4	30	1	0
OTU 180	51	19	52	35	143	93	50	113	137	34	24	160	14	120	15	88	174	87	124	31	193	178	67	125	98	194	115	567	8	150	13	63	89	39	63	12	97	141	54	192	39	13	62	96	35	130	59	42	874	197
OTU 181	167	5	78	8	169	51	45	199	142	48	38	26	12	54	2	8	78	0	16	5	95	81	11	1	56	0	26	2	26	99	2	28	0	0	0	22	5	138	63	4	0	4	2	71	10	1	75	1	3	3
OTU 182	135	0	0	0	0	0	0	0	0	0	0	9	0	0	6	0	6	0	0	0	0	0	0	8	0	0	1	1	0	13	0	0	0	56	0	0	0	0	0	0	26	0	4	0	0	0	0	0	0	97
OTU 183	53	1	31	95	12	2	12	9	101	432	0	1	11	0	2	499	473	107	15	142	139	17	24	7	8	0	29	54	1	1	63	49	0	60	1	5	2	1235	0	3	42	66	0	16	3	0	590	85	21	370
OTU 184	2	0	22	21	2	20	1	15	12	0	15	73	45	10	0	0	16	41	0	2	2	45	108	7	0	7	17	0	1	18	32	20	27	4	0	8	47	3	34	33	7	12	0	0	27	15	2	11	44	5
OTU 185	36	27	5	34	156	17	48	19	2	90	26	27	7	7	2	3	12	57	23	30	162	12	21	21	40	50	9	51	55	14	11	1	28	128	12	36	38	52	40	354	80	28	12	51	79	3	22	29	78	10
OTU 186	11	11	16	0	15	12	0	45	18	0	3	2	0	0	4	36	0	3	2	0	0	0	0	2	0	2	0	0	1	3	2	5	0	0	0	2	5	1	0	17	0	2	2	0	0	15	0	0	14	83
OTU 187	50	12	33	10	51	106	102	85	32	113	12	0	49	107	50	104	140	20	86	0	164	48	23	19	62	69	12	13	73	1	94	51	3	69	8	27	111	195	7	41	19	148	2821	13	58	43	100	83	43	28
OTU 188	37	113	32	32	71	320	49	20	1	40	4	16	0	16	67	24	6	0	10	62	55	119	14	23	270	156	25	22	20	10	16	58	0	31	86	6	47	56	7	36	28	207	8	20	38	7	25	138	12	70
OTU 189	51	61	5	28	171	20	17	171	48	64	29	14	13	6	0	15	5	3	28	96	78	5	25	12	95	15	75	48	55	20	75	1	26	8	3253	101	24	13	21	135	1	4	82	16	120	17	13	5	49	2302
OTU 190	0	0	4	0	14	0	0	0	0	0	0	0	1479	0	0	107	0	0	0	4	0	0	0	0	0	0	1	4	0	0	0	3	2	0	0	0	2	5	0	0	3943	0	372	13	10	1	4	1	0	0
OTU 191	1	14	16	90	53	100	7	191	37	2	49	19	6	1478	0	179	22	20	20	246	99	104	18	25	48	52	15	14	190	155	41	105	56	2	37	6	35	14	60	0	0	35	40	21	235	101	5	19	244	0
OTU 192	6	12	131	1965	46	44	48	148	16	11	15	112	8	24	120	135	57	63	2	4244	122	15	35	17	46	136	360	30	20	60	13	13	11	50	11	0	87	54	19	640	52	96	4	312	44	14	34	7	13	12
OTU 193	13	26	15	0	78	24	15	199	0	49	2	46	0	1	38	140	77	13	336	3	2	28	18	110	41	14	56	83	2	110	260	7	154	144	18	15	55	118	17	9	81	0	51	125	9	49	58	28	0	174
OTU 194	334	19	9	4	47	0	170	27	14	76	5	0	2	133	2	15	7	16	15	5	21	29	2	0	86	0	0	13	21	4	50	38	4	2	46	2	5	33	3	0	2	1	1	0	9	2	18	2	65	36
OTU 195	39	120	0	27	0	9	0	20	127	8	2	0	13	15	46	47	13	5	166	190	12	5	1	0	21	0	113	5	93	6	117	0	35	15	38	32	15	0	0	83	12	15	14	26	110	61	0	26	7	6
OTU 196	22	33	126	1	19	8	0	31	1	17	1	21	23	0	1	37	6	17	133	1	43	22	32	14	33	27	25	55	4	3	149	59	2	6	1	9	5	29	14	54	10	72	0	0	9	57	10	46	2	1
OTU 197	166	8	94	18	59	138	193	58	102	392	2	40	249	60	16	21	176	155	367	25	19	83	37	97	43	125	89	22	4	27	118	8	115	152	17	49	27	52	24	201	71	236	2	353	103	53	23	7	78	20
OTU 198	0	6	38	1	0	3	0	182	4	0	0	3	0	0	0	0	0	0	1	0	4	7	1	0	41	40	0	16	0	7	62	0	2	0	7	1	3	0	0	0	0	0	3	29	0	2	0	6	0	8
OTU 199	20	24	31	3974	1	16	0	1	10	0	3	6	6	107	0	0	8	30	12	9	0	10	2	0	56	6	57	0	0	0	22	0	3	3	8	0	17	6	0	12	0	2	1	14	1	23	2	0	0	38
OTU 200	3	7	45	10	17	102	2	49	32	13	0	7	13	108	0	0	1	19	0	26	15	36	22	0	3	0	6	5	15	154	1	51	3	1	88	0	50	1	0	9	0	63	47	0	24	7	0	0	3	1
