	Host 1	Host 2	Host 3	Host 4	Host 5	Host 6	Host 7	Host 8	Host 9	Host 10	Host 11	Host 12	Host 13	Host 14	Host 15	Host 16	Host 17	Host 18	Host 19	Host 20	Host 21	Host 22	Host 23	Host 24	Host 25	Host 26	Host 27	Host 28	Host 29	Host 30	Host 31	Host 32	Host 33	Host 34	Host 35	Host 36	Host 37	Host 38	Host 39	Host 40	Host 41	Host 42	Host 43	Host 44	Host 45	Host 46	Host 47	Host 48	Host 49	Host 50	
OTU 1	143	277	126	77	127	22	41	50	93	242	14	314	149	68	430	16	39	174	0	0	103	189	50	207	1	151	41	31	90	171	3	115	65	11	4	27	15	110	110	84	526	19	45	91	4	149	67	30	33	28
OTU 2	0	0	6	0	0	0	0	18	2	0	0	0	0	9	19	5	0	2	4	35	0	0	3	11	3	2	28	1	4	52	33	60	1	0	1	6	41	0	0	14	0	1	0	16	2	55	0	0	6	1
OTU 3	1	1	7	2	1	0	0	5	10	0	29	21	16	3	9	14	0	0	1	40	19	0	2	6	0	0	26	0	2	7	3	5	19	2	0	0	29	25	29	0	0	0	1	0	1	40	39	11	0	8
OTU 4	0	0	0	0	0	0	0	0	0	2	0	0	0	0	0	0	9	0	0	0	0	0	0	0	0	0	0	0	0	0	0	2	0	0	0	1	0	0	0	0	0	0	0	0	0	0	0	0	0	0
OTU 5	142	271	37	192	82	233	204	1207	73	391	333	449	132	34	189	271	12	234	249	84	481	452	45	629	29	337	36	141	729	1020	25	116	233	398	1052	370	44	19	42	1091	893	395	326	31	162	156	1259	44	11	101
OTU 6	30	49	0	2	15	117	24	5	0	74	41	0	36	18	65	21	31	19	134	3	0	70	0	38	27	8	52	22	22	33	31	29	5	3	0	4	34	0	0	8	0	0	138	1	70	30	38	154	40	17
OTU 7	24	59	105	43	22	407	24	40	33	47	197	23	9	53	8	132	46	15	87	11	54	8	19	6	109	46	273	22	7	35	425	151	68	81	71	21	26	62	114	75	55	11	9	64	82	76	1116	2203	107	66
OTU 8	27	23	23	20	59	9	69	81	12	99	19	9	38	38	34	31	118	81	44	41	49	4	7	16	134	179	83	46	41	7	1	514	105	195	5	40	333	27	406	44	20	20	94	153	32	397	21	59	136	374
OTU 9	26	0	0	130	0	38	10	1	1	14	0	90	0	2	0	48	6	1	9	0	51	0	0	0	8	9	134	3	16	17	2	0	1	0	21	2	0	73	7	53	75	1	2	0	1	0	1	17	18	10
OTU 10	0	0	57	2	2	35	9	0	15	43	1	0	0	3	1	1	0	0	1	0	36	0	15	1	0	0	1	7	28	15	4	3	76	18	26	9	0	1	11	9	0	0	5	7	28	8	2	0	204	6
OTU 11	6	62	46	115	113	9	0	78	27	4	40	17	9	12	5	0	14	40	4	74	5	0	8	1	22	10	5	10	0	22	9	36	60	132	1	51	49	172	74	27	9	18	4	7	210	7	93	110	39	3624
OTU 12	24	25	43	2	13	20	34	47	14	6	63	62	39	153	20	6	27	7	150	44	39	44	28	11	35	41	46	22	6	18	271	110	7	47	37	8	161	4	10	43	6	33	26	17	81	37	18	22	79	10
OTU 13	0	17	0	0	0	0	1	2	2	0	0	0	0	0	0	0	0	0	0	17	0	0	7	0	0	0	0	0	0	1	9	0	12	0	0	0	0	0	72	1	0	0	0	0	0	0	0	0	0	0
OTU 14	3	1	34	0	0	12	0	4	5	1	1	69	11	29	33	42	0	1	3	7	5	2	13	16	2	7	99	1	0	0	2	6	149	2	0	26	38	0	17	122	1	0	8	0	0	0	58	209	45	15
OTU 15	0	0	0	0	0	0	0	0	0	1	0	0	0	0	0	0	0	0	0	0	0	0	0	0	0	0	0	0	0	0	0	0	0	0	0	0	1	0	0	0	0	0	3	9	0	0	0	0	0	0
OTU 16	0	0	0	0	0	0	0	0	0	0	0	0	0	0	0	0	0	0	0	0	0	0	0	0	0	0	0	0	0	0	0	0	0	0	0	0	0	0	0	0	0	0	0	0	0	0	0	0	0	0
OTU 17	36	1	1	6	28	47	3	99	0	127	0	529	0	86	120	0	7	22	6	35	2	16	1	41	3	6	19	12	40	723	52	4	87	5	0	2	6	0	15	35	1195	0	57	1	122	5	13	75	44	5
OTU 18	20	22	16	27	97	40	3	39	7	100	117	8	20	38	134	60	8	27	4	10	15	2	8	76	123	16	113	110	448	16	67	15	27	201	154	37	84	56	38	52	4	11	63	11	31	185	23	46	84	71
OTU 19	1	0	0	0	0	0	0	0	0	0	0	0	0	0	0	0	0	0	0	0	2	0	0	0	0	1	0	0	0	0	0	0	0	0	0	0	0	0	0	0	0	0	0	0	0	0	0	0	0	0
OTU 20	26	1038	352	18	1	21	9	46	92	62	47	13	20	70	12	15	53	3	17	295	16	29	109	8	115	6	13	18	38	41	12	8	11	127	3	1	47	34	33	44	20	7	87	220	116	14	25	1019	62	82
OTU 21	30	28	24	72	39	0	47	29	28	34	26	23	8	4	5	0	0	0	11	32	0	1	12	1	15	3	5	6	36	28	34	29	52	112	56	72	26	86	130	21	20	12	0	35	78	133	6	0	26	146
OTU 22	39	35	1	36	8	2	0	83	0	147	51	1	0	7	38	31	12	20	66	3	42	3	1	13	545	4	76	10	22	4	21	0	2	38	11	2	3	123	25	95	62	3	6	8	8	34	39	32	18	6
OTU 23	0	36	0	0	69	3	19	4	9	12	3	0	15	0	1	0	0	3602	33	1	6	29	0	1	3	7	1	14	4	14	92	2	2	46	9	1	12	22	62	38	29	93	14	21	2	29	0	16	122	84
OTU 24	0	67	1	40	94	1	0	2	0	9	0	0	3	121	5	1	44	2	42	0	3	0	2	3	18	1	0	3	1	7	1	4	6	16	37	77	32	216	56	0	15	107	0	9	7	37	0	70	164	72
OTU 25	0	0	0	0	0	0	0	0	0	0	1	0	0	0	0	0	0	0	0	0	0	0	0	0	0	0	0	0	0	0	0	0	0	0	1	0	0	0	0	0	0	1	8	0	0	1	0	0	0	0
OTU 26	13	0	21	12	12	16	6	0	2	0	11	2	0	0	16	6	2	56	0	0	0	0	19	9	0	1	12	0	0	0	0	1	1	0	0	4	0	54	32	0	0	4	0	1	0	12	2	5	4	0
OTU 27	0	0	0	0	0	0	0	11	0	0	0	0	3	0	37	0	0	0	0	0	0	0	0	24	2	9	2	0	0	15	0	0	0	0	0	0	0	0	4	0	0	2	0	5	25	0	0	0	0	0
OTU 28	160	22	116	4	19	8	28	1	56	25	44	593	38	11	275	7	8	154	7	5	29	14	16	153	32	2	5	55	21	13	320	10	116	88	53	6	19	28	18	84	2	16	73	95	0	0	23	7	42	98
OTU 29	46	6	43	35	40	1	9	0	45	51	61	11	12	1	3	38	2	16	89	8	45	49	9	1	92	5	45	29	27	6	66	35	69	137	36	19	2246	41	29	2	3	16	17	0	99	106	21	56	14	7
OTU 30	0	0	0	0	0	0	0	0	0	0	0	1	0	6	0	0	0	0	0	0	3	0	0	0	0	0	0	0	0	0	0	0	0	0	0	0	0	0	0	0	2	0	4	5	0	0	0	0	0	0
OTU 31	0	6	125	3	1	11	0	17	55	0	5	0	3	4	11	0	19	30	46	6	0	0	64	6	187	1	1	13	0	17	0	0	6	2	2	1	0	1	5	5	9	1	0	27	0	122	0	6	69	0
OTU 32	25	1	6	15	108	15	27	26	7	19	49	32	11	180	19	42	31	7	0	778	83	64	2	4077	113	43	75	98	6	26	297	36	48	32	58	11	7	103	176	135	4	34	18	56	5	12	32	1	15	143
OTU 33	0	0	0	0	0	0	0	0	0	0	0	0	0	0	0	0	0	0	1	0	0	0	2	0	8	5	0	0	1	0	0	1	0	0	8	0	0	0	0	0	0	0	0	0	0	0	0	0	0	0
OTU 34	10	24	0	4	3	0	15	13	8	22	40	113	23	59	36	10	35	4	0	3	1	14	233	15	31	88	36	3	4	35	39	90	0	27	103	1023	33	11	0	7	4	3	9	1	43	0	13	52	13	4
OTU 35	1	10	24	12	5	0	35	3	27	37	1	17	17	24	8	1	21	5	1829	21	45	8	2	2	123	176	13	61	40	18	344	166	5	91	29	0	141	4	71	5	49	9	35	22	76	4	6	79	64	20
OTU 36	16	151	22	0	6	0	5	7	15	39	38	9	4	126	0	12	60	1	2	1	8	1	8	0	99	13	21	52	2	0	38	1	78	44	26	23	95	0	1	66	1	589	1	1	0	46	20	21	36	6
OTU 37	0	9	8	0	1	0	0	14	7	0	2	0	0	47	0	0	38	0	0	0	6	5	13	0	29	91	4	2	0	0	14	52	0	62	0	0	23	30	7	17	0	0	0	11	14	24	155	13	0	0
OTU 38	16	16	36	92	955	83	4	16	13	97	1	44	21	28	8	3	3	7	85	7	3	73	3	0	44	6	9	0	33	12	73	7	178	4	29	511	0	72	0	33	74	430	110	30	31	9	8	1	139	3
OTU 39	0	19	0	7	0	1	0	0	0	3	6	5	0	34	0	1	4	5	2	2	0	0	0	0	0	24	10	0	0	0	5	9	0	1	0	3	9	0	1	4	5	1	0	32	21	18	36	0	0	2
OTU 40	76	6	0	7	49	78	86	36	0	61	1	3	3	380	21	42	114	32	79	17	320	35	1	12	21	14	96	159	23	9	23	16	102	35	10	5	25	75	26	173	17	15	235	18	67	166	4	22	15	0
OTU 41	3	28	1	32	2	26	3	23	0	34	12	4	3	33	5	6	0	3	0	68	44	19	1	3	11	2	1	4	2	0	5	4	11	113	3	5	9	27	24	2	16	2	1	31	56	15	0	24	0	49
OTU 42	27	0	107	0	12	0	6	1	9	0	0	0	0	5	22	16	4	21	0	54	0	0	2	12	0	0	52	0	0	0	0	0	0	13	2	0	0	24	3	0	0	3	36	0	0	0	0	10	35	0
OTU 43	0	0	0	0	0	0	0	0	0	0	0	0	0	0	0	40	0	0	31	0	0	0	0	0	0	0	112	0	0	25	0	0	0	0	0	0	0	0	0	0	0	0	0	0	0	0	0	0	0	0
OTU 44	0	3	0	0	0	95	0	0	0	0	138	11	2	5	1	0	0	0	0	0	0	0	0	1	0	1	0	23	0	0	0	0	1	20	2	0	0	4	1	0	0	2	8	6	0	0	3	10	1	3
OTU 45	997	6	46	16	83	36	18	21	60	29	11	40	569	70	1694	23	29	712	12	28	14	5	28	867	22	24	64	23	10	6	14	6	33	6	25	10	3	52	4	6	8	30	78	27	16	4	7	19	86	7
OTU 46	1	152	7	684	3272	0	1	87	0	36	143	39	6	0	27	68	0	22	32	11	7	258	3	12	35	3	135	64	35	9	336	19	59	23	4	1737	0	3	0	106	28	1901	0	3	36	27	70	18	45	24
OTU 47	9	8	0	5	0	10	0	0	0	0	76	12	25	0	7	57	0	4	0	15	0	7	0	1	0	34	101	4	1	0	1	18	86	5	14	0	0	0	0	0	0	3	1	0	0	16	4	23	0	0
OTU 48	18	165	53	2563	41	19	2197	8	8	20	7	0	22	10	78	58	22	63	67	27	22	6	8	37	45	25	125	94	28	23	42	23	6	57	80	30	7	105	11	82	6	19	17	16	33	15	8	24	50	1
OTU 49	97	0	0	0	0	11	4	10	2	1	19	1	33	65	37	18	31	45	0	3	7	12	0	16	128	4	22	44	0	5	54	3	9	1	47	8	70	0	166	789	0	0	0	1	109	0	307	7	2	43
OTU 50	33	0	46	18	25	2	44	1	7	17	28	34	29	0	117	14	3	10	44	23	20	0	11	67	44	6	22	18	12	5	142	1	7	51	164	15	12	32	12	120	4	6	11	31	7	38	85	17	236	9
OTU 51	1	40	14	0	1	2	1	13	1	40	42	7	1	62	8	103	9	2	17	211	6	49	1	3	110	65	156	8	24	7	1	89	0	34	0	1679	79	58	2	57	32	1	49	9	54	38	23	3	42	0
OTU 52	14	165	111	589	362	39	38	22	44	51	253	37	0	33	43	46	54	14	15	18	93	9	45	28	104	279	79	119	40	30	157	358	101	50	732	217	75	1010	25	42	71	231	19	6	188	130	69	283	64	4
OTU 53	0	0	0	0	0	0	0	0	0	0	0	0	0	0	0	0	0	0	0	0	0	0	0	0	0	0	0	0	0	0	0	0	0	0	3	0	0	0	0	4	0	0	0	6	24	0	0	0	0	0
OTU 54	556	125	68	64	67	3574	18	36	75	56	39	75	1742	816	56	12	402	26	7	13	30	39	28	26	55	65	5	27	27	20	83	17	0	166	24	36	61	179	11	74	30	60	58	8	520	4	37	26	67	33
OTU 55	32	7	0	0	0	0	0	0	0	3	26	0	0	0	0	0	0	0	0	0	0	0	0	0	0	0	0	0	15	0	0	0	0	0	0	0	35	0	0	0	0	0	0	0	0	98	0	0	0	0
OTU 56	0	0	0	1	69	4	0	5	0	18	8	0	22	4	69	0	0	18	29	33	44	0	1	24	2	2	0	19	2	10	10	4	30	27	53	35	24	95	1	1	25	24	0	0	2	11	0	3	0	1
OTU 57	33	29	115	14	67	29	4	414	76	1339	44	341	27	249	118	99	138	56	147	84	62	280	24	53	23	53	243	1009	627	445	162	86	102	22	8	4	69	76	145	99	569	34	45	101	106	193	25	221	279	12
OTU 58	8	2	39	3	30	677	0	0	22	0	19	0	4	79	30	0	31	72	1036	3	11	6	36	10	0	4	4	0	3	0	8	3	1	231	7	14	5	39	40	140	34	12	1518	22	4	22	235	29	0	0
OTU 59	49	22	0	33	65	1	3	26	0	29	0	0	1	13	124	0	0	64	34	17	21	101	0	56	30	0	0	20	11	4	8	0	21	0	29	1	9	11	26	3	149	26	0	3	2	40	0	94	4	10
OTU 60	5	34	28	68	40	1	16	61	52	43	4	120	5	406	46	23	137	712	43	86	11	63	45	17	26	1	19	1	34	8	48	0	39	62	0	12	19	141	53	26	34	6	55	35	44	33	70	10	101	56
OTU 61	55	92	0	129	205	30	5	32	1	10	77	5	61	119	88	27	94	19	46	126	36	24	2	44	8	13	61	87	21	39	8	12	34	24	135	57	29	296	74	80	69	38	84	124	219	112	5	27	13	1
OTU 62	0	26	40	0	2	1	0	2	48	3	6	2	9	24	0	16	14	6	0	1	19	62	15	0	1	2	17	1325	1	12	1	18	0	1	0	0	0	0	0	0	1	0	0	13	0	12	0	2	10	18
OTU 63	25	63	3	3	3	0	13	21	6	3	9	10	0	107	1	11	30	2	3	10	2	0	4334	2	30	14	16	0	11	0	2	24	106	0	23	0	11	0	8	0	0	5	0	49	0	0	0	3	129	0
OTU 64	68	24	25	143	151	14	828	20	29	17	15	13	79	99	151	184	23	38	21	6	0	9	9	66	51	81	435	11	9	29	91	45	148	72	33	70	64	175	169	251	12	71	51	21	2178	5	249	1	48	224
OTU 65	0	0	0	0	0	0	0	0	0	29	1	0	0	2	2	77	0	0	0	0	0	0	0	0	0	0	163	1	7	0	0	0	16	0	0	0	0	0	0	1	0	0	3	5	4	0	0	0	0	3
OTU 66	43	14	41	22	40	20	10	43	2794	10	6	6	15	123	39	24	63	61	23	20	8	25	1454	22	45	3	37	7	19	16	42	2	21	65	10	19	20	68	49	52	46	12	1	19	89	57	17	18	7	16
OTU 67	7	21	11	35	123	1	12	4	12	2	0	6	7	124	1	80	53	0	14	31	38	1	0	0	0	0	153	2	0	1	7	56	10	10	0	10	4	59	0	117	1	39	17	26	96	5	12	40	56	4
OTU 68	1	17	11	0	0	27	27	29	12	21	0	642	0	0	33	9	5	0	56	18	85	0	5	12	9	12	9	20	7	826	0	49	0	0	0	0	1	0	1	23	1460	4	2	0	17	5	0	0	5	2
OTU 69	9	6	80	483	398	22	15	11	15	16	109	0	10	3	5	3	0	4	28	2	77	20	32	1	18	70	15	10	12	124	172	322	2	19	502	278	42	998	135	236	1	204	15	1	20	52	106	64	48	19
OTU 70	35	0	0	70	34	0	5	226	2	682	0	53	3	13	77	2	3	21	7	4	23	81	2	34	0	124	29	263	310	47	62	20	61	14	24	36	0	240	82	69	81	41	2	12	0	53	11	28	5	0
OTU 71	1	2	0	44	32	32	2	0	6	5	61	0	33	81	1	0	28	6	1	0	4	12	2	1	3	47	0	2068	0	1	24	44	0	4	19	5	0	74	0	125	1	16	9	4	3	55	1	0	66	0
OTU 72	0	33	0	20	19	1	1	3	5	0	11	8	0	65	4	2	3	5	117	48	13	39	6	1	44	455	0	30	0	40	19	24	98	0	69	22	19	26	51	34	0	27	2	14	0	14	3	49	8	2
OTU 73	5	57	0	50	17	12	1	126	12	63	5	32	46	196	30	7	78	40	47	22	42	3	1	11	111	6	14	9	27	21	0	18	7	1	13	10	1146	21	2	0	44	5	56	23	19	1950	7	46	19	61
OTU 74	65	21	33	6	1	93	17	9	1	44	5	17	0	61	12	0	27	26	8	12	6	20	12	6	50	14	2	15	38	572	12	28	105	3	5	5	12	0	94	139	45	5	115	10	37	7	16	115	58	31
OTU 75	2	3	4	16	0	26	40	700	2	1059	12	369	1	3	0	4	5	14	19	3	2	945	1	0	4	3	6	203	610	561	29	73	51	65	21	2	17	43	74	120	740	11	0	31	134	22	67	18	5	29
OTU 76	2	19	1	0	0	7	1	18	0	0	3	8	0	5	0	0	0	1	0	114	0	0	0	0	0	5	0	0	1	1	68	0	0	10	0	1	25	8	44	0	0	0	2	30	9	1	0	0	21	1
OTU 77	6	5	35	28	2	6	1221	86	4	86	156	104	2	42	3	0	25	4	6	0	0	27	14	0	17	5	0	2	34	5	9	9	3	29	51	19	115	3	49	15	104	4	10	4	15	135	38	27	48	47
OTU 78	28	226	165	1	42	5	15	25	50	93	207	157	108	52	47	51	40	7	22	31	2	51	37	28	14	1	92	85	67	13	56	45	61	59	0	9	65	62	21	7	55	8	25	13	20	11	50	180	10	57
OTU 79	112	171	33	72	37	184	17	133	20	139	158	78	66	434	85	67	257	37	88	84	82	101	18	301	135	34	154	114	51	52	44	35	73	185	35	24	183	7	348	223	124	48	278	220	165	100	21	37	353	99
OTU 80	12	53	8	11	6	0	3	11	26	35	53	15	4182	171	8	6	25	42	0	16	0	62	21	2	137	4	30	25	9	14	56	24	24	66	45	0	73	30	25	103	33	0	20	77	0	32	27	4	7	14
OTU 81	25	9	31	95	68	7	194	22	5	6	20	0	15	438	1	2	299	3	72	12	429	16	3	1	84	61	10	78	3	8	38	137	7	116	149	21	42	149	29	103	2	43	49	51	5	9	150	31	249	68
OTU 82	53	24	10	125	128	0	0	12	2	3	74	45	0	4	208	279	12	151	11	8	16	14	4	92	4	4	491	5	1	0	0	9	6	31	54	26	15	236	212	2	12	1	42	7	15	5	0	2	11	141
OTU 83	9	0	0	1	0	0	17	0	0	5	0	22	0	29	1	0	20	0	9	0	0	43	0	0	0	0	0	0	0	0	0	0	104	0	0	0	0	0	0	0	27	0	0	2	0	0	6	40	11	16
OTU 84	5	42	93	64	59	22	33	16	20	7	155	5	117	77	74	3	96	49	14	10	25	0	7	244	2	28	7	0	0	0	122	33	30	4	45	25	1	85	10	43	2	11	8	2	3	161	23	9	134	14
OTU 85	0	3	0	0	2	3	2	0	0	0	3	2	1	0	0	16	2	11	0	0	0	1	4	0	6	0	26	41	0	2	10	6	3	5	0	0	0	0	14	1	12	0	0	0	0	3	0	2	0	106
OTU 86	0	0	0	0	0	22	0	0	0	0	0	0	0	0	18	0	0	14	1	0	0	3	0	6	0	0	0	0	0	3	4	0	2	0	0	0	0	0	0	0	0	0	0	0	5	0	0	0	0	0
OTU 87	4	1	0	0	0	0	0	129	0	42	9	1	0	0	0	1	0	0	7	0	0	3	0	0	0	10	4	23	13	0	0	0	0	0	26	0	1	19	33	1	0	0	25	44	0	6	0	1	0	55
OTU 88	0	1	1	5	0	0	12	1	0	1	2	2	0	7	2	0	13	19	0	0	0	0	0	0	0	15	0	1	0	0	0	14	2	19	0	19	0	0	2	1	0	0	0	0	12	0	0	1	69	0
OTU 89	1690	13	9	7	0	0	2	0	3	0	23	0	0	0	17	68	827	0	0	57	12	0	3	14	6	31	98	0	0	1	11	64	4	20	11	6	4	0	41	0	51	3	36	10	7	2	9	0	31	25
OTU 90	0	0	4	0	6	9	0	9	0	24	0	0	10	5	0	0	0	0	0	3	0	1	0	0	0	0	1	0	19	0	0	0	0	0	0	0	0	1	0	0	0	5	0	19	0	0	0	0	0	0
OTU 91	0	0	0	0	0	0	8	4	0	0	0	0	0	0	0	0	0	0	0	0	0	0	0	0	0	0	0	3	0	0	0	0	1	4	3	2	1	0	0	0	31	0	11	1	0	3	0	7	0	0
OTU 92	1	67	5	0	0	17	0	0	0	0	0	0	33	0	0	0	0	0	0	0	0	4	0	0	0	0	3	18	0	1	5	0	3	2	1	0	1	0	0	0	9	1	0	5	19	0	0	2	0	0
OTU 93	1	0	3	0	0	0	15	51	2	146	0	4	1	1	0	0	0	0	0	35	0	0	2	0	0	20	0	0	79	27	22	37	98	0	0	1	1	12	129	0	7	0	0	0	0	0	0	0	30	0
OTU 94	15	89	24	60	25	297	0	0	12	13	71	1	13	35	7	105	1	1	192	49	2	31	6	2	55	9	5	1	24	26	101	34	68	7	4	19	42	94	21	161	10	16	592	63	0	152	85	109	223	3
OTU 95	3	17	1	5	12	0	0	2047	2	0	3	9	16	2	0	0	0	0	1	1	0	0	0	0	0	1	0	0	0	0	14	2	14	7	2	1	1	1	0	0	10	0	4	0	0	20	0	0	8	13
OTU 96	0	0	5	0	0	0	0	0	0	0	0	0	0	0	0	0	0	0	0	0	0	0	0	0	8	0	0	0	0	0	0	1	109	0	0	0	0	0	0	0	5	0	2	0	3	32	3	2	0	1
OTU 97	0	0	15	0	0	0	4	0	1	0	0	329	2	66	0	0	33	0	2	0	0	0	0	0	0	2	0	0	1	7	0	8	0	0	0	0	153	2	0	0	0	1	0	25	4	471	0	1	0	1
OTU 98	23	0	22	0	0	2	5	1	18	0	1	1	0	0	1	0	0	1	20	1	109	6	7	1	7	127	1	11	0	39	40	365	2	69	40	3	0	4	23	0	13	2	9	1	8	0	0	24	10	0
OTU 99	7	43	18	12	41	175	14	6	7	4	9	0	66	138	64	13	113	10	149	72	40	18	3	31	19	72	11	41	28	5	17	226	99	41	30	8	5	41	53	93	33	4	219	20	14	78	16	28	59	15
OTU 100	51	2	5	5	26	17	30	135	3	205	3	4	0	1	4	3	1	2	12	0	6	51	20	4	4	0	2	11	162	21	4	1	25	0	0	21	109	24	8	1	110	0	0	7	8	75	12	13	124	0
OTU 101	30	1	0	3	0	0	0	0	0	21	0	0	0	0	0	0	0	0	0	0	0	0	0	0	1	0	0	0	10	0	27	0	1	0	0	0	0	0	31	0	0	0	1	0	0	0	0	0	0	0
OTU 102	0	0	0	39	19	0	0	0	4	0	1	1	0	18	0	0	18	0	0	0	0	14	0	0	1	0	1	0	2	0	0	7	6	3	0	2	5	9	0	48	30	19	14	24	0	0	20	7	1	0
OTU 103	0	0	4	46	3	11	6	6	12	22	11	33	41	94	1	0	40	8	65	8	15	1	5	1	11	48	0	19	18	49	1	58	38	21	0	10	0	158	11	4	4	0	2	32	7	4	0	0	55	10
OTU 104	16	75	12	8	4	49	251	28	8	44	104	14	76	13	161	16	17	88	7	19	428	65	4	82	21	17	50	139	30	5	282	8	30	17	62	884	3	20	44	67	10	2107	22	3	315	96	1137	42	11	19
OTU 105	1	0	13	0	6	0	0	0	0	1	48	0	1	226	0	0	58	1	0	0	11	0	0	0	17	9	0	0	0	0	4	50	0	2	12	0	28	3	55	118	0	0	18	0	0	1	3	0	1	0
OTU 106	2	0	0	0	0	8	0	0	0	2	2	8	0	0	0	0	3	0	1	0	0	7	7	0	0	0	0	1	0	9	0	0	195	0	0	0	4	8	11	0	1	1	0	1	0	8	0	0	37	1
OTU 107	30	36	645	6	4	0	24	29	328	25	0	11	17	7	20	3	2	3	0	290	14	58	155	10	12	91	1	0	9	3	9	119	16	3	0	7	1	0	44	0	7	2	1	398	0	5	12	11	11	43
OTU 108	1	368	9	245	126	5	1	4	1	29	8	2	7	6	48	111	13	8	46	9	9	0	10	21	79	5	149	12	14	15	1	24	106	47	71	56	0	275	50	57	0	102	0	227	2	3	67	127	29	0
OTU 109	0	0	0	2	4	0	0	0	0	0	0	0	0	0	0	0	0	0	0	0	0	0	0	0	0	5	0	0	0	0	0	0	0	0	0	10	0	5	0	0	0	8	0	0	0	0	0	0	0	0
OTU 110	40	68	18	7	2	3	8	63	6	51	13	72	14	12	85	13	17	62	17	47	13	200	5	26	45	11	19	15	15	22	63	10	6	40	20	3	37	6	4	14	53	0	10	3	1	10	1	115	23	16
OTU 111	0	67	72	1	0	0	0	6	33	2	0	0	0	20	0	0	3	0	11	0	7	0	33	0	0	0	0	0	0	0	35	15	0	0	0	4	3	0	18	12	0	0	19	7	0	0	2	1	0	1
OTU 112	1	38	37	23	0	34	3	5	13	31	6	0	9	18	3	13	0	0	196	0	4	0	14	1	3	0	36	0	14	0	0	0	13	1098	18	0	9	45	0	1	3	0	10	17	0	43	30	3	32	0
OTU 113	0	0	4	0	10	0	33	8	1	5	1	0	0	0	0	0	0	0	32	0	41	4	0	0	58	0	0	0	0	0	0	0	33	0	6	5	0	0	15	3	3	7	0	0	0	0	0	0	0	0
OTU 114	28	110	86	76	6	35	35	12	1548	79	78	2	7	38	38	52	27	37	14	0	3	26	779	14	170	16	120	9	57	9	37	33	6	28	33	7	19	58	192	51	64	0	62	11	20	28	18	141	14	52
OTU 115	89	184	91	28	225	1	27	47	60	77	30	27	19	38	81	82	62	23	7	39	5	76	15	49	22	28	87	21	57	81	8	111	170	83	87	152	45	63	64	12	45	52	61	15	727	24	340	79	188	53
OTU 116	65	13	5	14	18	0	209	11	2	61	16	44	21	33	21	19	10	21	1	7	50	9	1	9	218	70	43	30	38	12	489	91	224	7	19	9	38	11	126	0	5	20	40	258	3	12	21	11	35	11
OTU 117	7	9	58	0	38	13	6	15	12	27	8	13	3	7	28	23	5	2	918	17	0	4	15	12	6	0	49	1	3	10	197	9	16	5	0	1	4	5	7	0	8	1	10	36	27	0	26	17	18	0
OTU 118	13	0	12	31	26	0	0	0	0	0	2	0	10	5	1	7	0	0	0	8	1	1	0	0	0	0	10	0	0	0	0	24	3	0	10	41	0	25	0	0	2	19	0	0	21	5	0	0	0	1
OTU 119	30	7	67	57	23	11	27	10	101	6	9	10	8	23	91	6	8	18	29	15	0	3	26	45	312	2	27	43	1	5	132	8	176	83	73	58	48	47	268	79	9	9	1	18	10	8	2	37	60	72
OTU 120	14	43	0	0	1	15	0	0	2	0	0	1	40	0	0	10	1	10	20	0	0	4	0	0	12	0	8	55	0	1	0	4	42	32	11	0	58	2	1	18	8	0	54	1	15	2	0	3	0	11
OTU 121	1786	5	57	31	0	36	0	3	45	0	91	0	2	11	101	4	11	8	1	1	0	35	10	42	2	1	19	97	0	23	0	2	46	140	1470	0	21	8	33	54	12	2	105	8	18	125	18	3	12	12
OTU 122	63	15	4	64	60	56	40	9	5	22	56	38	2	111	0	0	13	8	45	67	1	71	22	0	7	17	0	39	1	0	177	16	26	0	111	114	33	157	33	54	1	69	89	17	6	7	6	21	12	52
OTU 123	59	1658	690	107	75	82	26	7	340	41	85	8	38	181	153	477	97	48	74	2758	77	19	186	82	68	51	222	145	1446	67	61	92	1489	84	34	40	195	195	341	62	32	30	127	2781	56	108	74	972	276	198
OTU 124	0	0	0	0	0	0	0	0	8	45	16	13	18	11	73	8	0	0	5	0	11	24	0	34	3	2	9	25	14	8	91	9	66	0	1	0	0	0	21	23	18	4	5	0	13	1	52	10	91	44
OTU 125	402	259	39	86	49	118	342	36	56	202	113	48	115	82	354	56	87	255	79	84	552	88	46	179	373	502	94	129	87	56	159	1013	145	762	31	79	53	135	370	106	52	21	135	52	52	110	42	174	243	119
OTU 126	56	101	0	0	3	0	1	42	0	270	0	32	0	0	107	37	0	22	0	0	7	161	0	61	0	1	70	0	98	89	0	0	7	6	0	0	0	0	0	0	158	0	0	0	11	0	1	0	2	5
OTU 127	58	32	138	33	13	7	168	8	44	11	28	0	7	9	28	10	12	11	52	1	332	10	18	12	130	509	31	1	1	10	4	921	13	0	0	2	0	3	112	8	0	0	1	2	2	0	0	0	71	286
OTU 128	84	786	158	113	98	303	57	70	102	233	219	801	44	166	74	245	97	14	362	49	230	1391	53	36	238	80	504	107	140	22	94	135	1053	114	1318	37	211	111	237	54	99	22	562	90	201	124	131	67	44	201
OTU 129	0	0	13	0	0	17	0	1089	0	0	2	0	1	0	1	2	2	1	0	0	0	0	5	0	18	0	1	1	0	0	0	0	7	5	0	0	97	8	0	0	0	0	39	2	0	0	22	1	0	0
OTU 130	20	1	0	72	67	1	3	7	0	61	16	39	0	77	16	0	47	6	65	5	0	1931	0	9	3	45	0	7	4	13	18	50	4	294	1	73	58	58	76	664	0	33	8	5	21	0	218	8	8	79
OTU 131	14	106	92	4	67	63	9	0	25	24	19	0	53	25	42	6	19	30	91	8	3	0	16	17	2009	12	0	1	0	37	69	36	11	36	9	33	4	31	66	141	6	19	95	15	5	38	396	122	74	32
OTU 132	0	31	8	24	1	1	0	0	3	1	40	0	2	0	23	0	1	16	29	0	5	0	1	7	0	41	0	0	8	1	1	23	1	50	103	5	1	37	95	1	0	2	1	0	0	0	0	0	11	0
OTU 133	21	1	0	0	4	36	0	0	0	22	0	6	2	40	0	0	2	0	0	0	0	0	0	0	9	5	4	0	1	0	21	3	38	0	0	2	4	0	0	106	1	2	0	0	0	2	0	0	0	0
OTU 134	5	32	2	2	3	59	1	2	1	20	5	54	1	0	6	59	4	0	31	0	2	11	3	3	202	8	119	30	8	19	3	0	42	0	2	1	1	3	21	9	31	13	42	14	39	59	0	9	6	54
OTU 135	62	23	8	1	18	13	8	14	2	29	9	0	47	9	17	6	0	4	4	16	14	9	1	10	37	16	5	50	4	5	388	16	4	45	131	0	25	2	2	29	30	4	1	45	2	1	0	3	0	58
OTU 136	0	88	12	27	12	7	20	2	5	0	45	2	9	14	0	20	6	2	8	4	121	45	2	0	41	156	50	0	1	2690	15	371	0	31	78	12	52	9	15	0	0	12	5	1	4	0	0	0	30	1
OTU 137	4	1	2	5	0	16	63	19	1	116	0	1	195	12	4	32	4	25	31	6	152	7	7	1	33	199	44	1	37	12	13	472	0	53	1	1	0	55	29	0	14	1	0	21	5	0	10	12	5	24
OTU 138	26	0	4	15	8	0	0	0	3	2	39	0	4	0	21	0	0	125	8	5	0	3	0	10	1	0	1	47	1	3	106	3	19	0	23	57	2	0	0	4	1	9	10	2	3	3	99	45	14	0
OTU 139	366	29	1054	33	10	428	0	331	605	431	128	43	201	34	1142	156	3463	672	203	725	91	32	353	566	40	10	277	149	216	25	68	40	93	47	60	4	20	57	132	4	131	4	444	968	43	87	116	14	429	25
OTU 140	64	165	68	10	20	22	19	16	47	84	185	40	5	601	163	23	234	56	96	37	64	11	50	100	176	32	45	100	30	4	454	11	135	22	8	7	493	34	3	20	8	18	6	40	35	455	28	18	10	55
OTU 141	4	7	0	0	0	12	0	2	0	0	0	5	0	1	0	0	0	0	0	0	0	0	0	0	38	0	0	0	0	0	1	0	0	0	0	0	0	0	0	0	9	0	0	0	6	0	0	0	1	0
OTU 142	0	0	0	1	0	0	0	0	4	0	0	0	0	0	0	0	0	0	0	0	0	0	0	0	58	3	0	0	0	0	3	2	0	0	9	0	9	0	0	0	1	0	0	0	11	27	0	0	0	0
OTU 143	0	0	0	0	0	0	0	0	0	0	0	0	0	17	0	0	0	10	0	0	0	0	0	0	1	0	3	0	0	26	0	0	0	238	0	0	0	0	0	0	120	0	0	0	0	0	10	51	9	85
OTU 144	0	0	0	3	0	0	1	7	2	0	2	1	0	1	0	0	0	0	0	0	0	0	0	0	0	12	0	28	5	0	18	21	13	1	15	0	0	0	1	0	2	0	3	1	6	1	1	9	98	10
OTU 145	17	34	22	127	158	101	5	24	15	75	53	7	34	209	2	2	116	4	13	79	5	79	4	2	14	9	30	10	24	7	190	12	6	66	9	49	23	81	9	27	0	29	98	3	7	29	16	6	0	47
OTU 146	3	11	18	40	17	4	22	10	8	5	3	0	3	79	23	23	34	0	25	19	5	19	13	3	18	3	50	59	23	7	0	9	8	18	4	6	18	80	105	66	23	0	0	4	252	2	173	45	169	9
OTU 147	0	14	2	12	1	0	3	0	1	2	8	1	0	74	2	13	17	1	31	0	0	0	16	3	15	1	25	0	0	7	0	0	165	16	31	1	0	5	2	0	4	1	1	6	0	0	0	3	11	0
OTU 148	1	12	13	126	59	12	3	1	11	6	4	2439	0	93	93	2	43	102	90	35	8	3	1	32	57	27	6	0	1	32	32	87	146	15	87	9	31	203	50	365	15	35	0	31	21	64	314	115	19	21
OTU 149	20	24	17	9	51	2	7	8	1	0	0	29	14	18	35	0	10	17	0	6	26	0	0	18	49	14	0	2	1872	0	0	16	0	16	82	13	1	5	9	3	54	3	0	14	0	8	0	12	21	25
OTU 150	3	2	1	54	7	1	22	11	0	0	0	0	0	0	2	3	0	1	41	0	70	2	0	1	2	6	23	1	0	41	35	4	0	1	31	1	0	57	0	0	2	3	2	1	1	14	21	27	13	6
OTU 151	15	11	8	0	13	0	7	0	2	4	28	5	0	0	51	2	3	9	367	5	0	10	1	34	9	18	2	22	1	0	13	7	283	4	37	32	7	31	59	1	2	1568	2	46	16	0	3	0	2	68
OTU 152	49	56	32	5	6	5	2	22	5	34	29	3	36	98	82	115	41	3	7	27	4	7	4	48	1	27	362	15	31	1	97	7	2	6	86	17	1	38	16	3	88	3	0	1	67	69	0	21	56	6
OTU 153	0	0	0	0	12	1	0	0	0	0	0	0	0	0	0	0	0	0	5	1	0	0	0	0	0	0	0	0	0	0	17	1	0	4	0	0	0	0	0	0	0	0	0	0	0	0	0	28	0	0
OTU 154	5	0	0	863	0	1	0	4	1	0	2	2	0	0	11	1	0	0	0	0	0	0	0	7	5	0	0	14	0	0	0	2	4	30	0	0	0	0	0	0	0	0	0	0	1	0	1	0	159	8
OTU 155	0	0	20	46	122	0	54	7	0	41	98	3	1	43	0	0	10	0	26	22	119	0	0	0	2	0	1	0	1	9	79	10	11	94	145	23	0	216	68	16	0	27	3	20	40	0	0	22	0	14
OTU 156	40	7	14	37	133	4	4	47	42	20	39	28	20	99	14	17	33	4	4	61	39	11	18	10	54	23	38	5	21	21	139	34	150	73	13	95	51	86	11	112	8	142	13	28	6	73	32	5	77	8
OTU 157	50	4	8	1	0	61	0	42	2	7	0	0	72	0	253	4	1	142	7	4	2	2	4	123	69	0	0	0	5	0	0	6	18	0	51	14	0	0	0	0	19	0	1	0	0	0	0	57	475	19
OTU 158	0	0	0	0	9	0	0	0	0	0	15	0	0	7	0	0	0	0	0	0	0	0	0	0	0	0	0	2	1	0	0	0	0	0	3	0	0	0	0	0	0	0	0	9	0	3	1	15	0	0
OTU 159	12	1	80	0	0	8	9	27	39	1	0	3	22	6	7	1164	7	37	7	23	1	2	25	7	9	0	2	41	0	17	66	3	59	2	48	0	16	8	0	50	0	0	9	5	83	12	26	3	1	0
OTU 160	201	262	33	185	78	16	82	40	26	59	270	44	150	30	108	17	28	87	4	112	60	54	8	50	263	196	39	25	27	14	278	532	149	373	160	87	24	87	834	60	49	123	21	114	45	217	106	93	95	220
OTU 161	25	0	6	10	2	7	3	18	1	78	3	20	4	19	25	0	18	2	20	74	28	55	0	10	52	13	7	122	33	27	2	0	10	43	118	0	9	75	37	5	19	0	22	47	2	38	0	6	0	0
OTU 162	22	4	10	3	22	0	2	103	0	194	2	54	30	24	68	17	0	21	101	4	0	130	3	34	34	11	50	61	82	19	0	30	18	1	34	0	9	10	247	3	118	24	0	120	0	7	1	0	8	80
OTU 163	0	0	0	0	0	0	0	0	0	0	0	0	0	1	0	0	0	0	0	1	0	1	0	0	0	0	3	0	0	0	0	0	0	0	0	0	0	0	0	0	0	0	6	0	1	0	0	0	0	0
OTU 164	0	0	0	0	0	0	0	0	0	0	0	0	0	0	0	0	0	0	0	0	0	12	0	0	0	0	0	0	0	4	0	0	0	0	0	5	0	0	0	1	3	0	0	0	0	0	0	0	0	0
OTU 165	0	4	2	15	3	6	14	0	0	1	0	10	12	72	1	10	32	0	32	0	29	5	0	0	2	27	16	1	1	0	14	35	0	3	0	0	55	0	74	5	10	0	0	22	0	34	55	27	117	81
OTU 166	0	0	0	0	0	0	0	0	0	0	0	0	0	0	0	0	0	0	0	0	0	2	0	0	0	10	0	2	0	0	0	0	2	0	1	0	0	0	0	0	0	5	0	0	1	0	2	0	0	2
OTU 167	2	8	0	1	10	3	0	147	1	127	22	7	13	16	0	5	4	0	1	0	15	0	2	0	15	0	15	10	79	0	0	0	11	62	54	2	2	52	0	1	58	17	2	34	77	6	7	2	2	4
OTU 168	56	4	3	4	0	70	321	26	10	0	1	1	28	8	103	3160	2	13	104	0	666	13	6	47	21	35	29	23	2	2	523	7	33	0	64	1	4	9	44	91	21	2	37	54	3	9	26	139	46	17
OTU 169	4	31	3	0	8	3	0	1	0	4	0	0	0	0	0	0	0	0	9	5	0	0	2	0	0	0	0	0	3	6	3	0	22	0	0	0	0	0	18	0	42	0	95	0	0	13	0	0	0	93
OTU 170	0	0	0	0	3	1	0	0	1	0	3	0	0	0	0	0	1	0	0	0	0	0	0	0	0	0	0	0	0	10	0	2	0	0	0	0	0	0	0	0	0	0	0	0	0	0	0	0	0	0
OTU 171	19	0	264	0	17	2	1	3	122	0	0	1	0	11	0	4	8	0	6	278	1	3	55	0	9	160	27	32	0	21	18	235	24	14	1	0	68	16	9	92	2	0	38	86	5	284	3	7	40	2
OTU 172	0	10	0	1	0	0	0	0	0	0	1	0	0	0	0	0	0	0	0	0	0	0	0	0	8	4	0	0	2	1	0	0	15	34	4	0	0	0	0	0	0	0	1	14	0	0	0	0	0	0
OTU 173	0	0	0	27	15	3	0	6	0	31	0	0	2	9	44	3	0	12	17	13	0	57	0	23	3	119	3	0	9	0	0	180	33	19	2	27	0	57	4	2	0	6	43	1	42	0	7	0	0	41
OTU 174	243	0	11	34	13	8	2102	71	5	42	0	7	156	18	510	2	4	206	25	0	3310	3	13	245	15	0	3	89	25	95	0	11	10	0	33	0	1	1	0	7	45	0	0	0	16	3	23	12	65	2
OTU 175	0	1	19	1	0	32	0	0	0	51	13	6	0	7	0	4	9	1	0	14	0	26	0	0	0	2	24	120	13	15	16	0	3	4	4	4	56	0	35	0	2	7	15	6	25	0	0	0	6	5
OTU 176	28	45	8	19	8	68	0	62	6	158	25	0	1	13	27	25	22	12	80	6	24	975	3	9	20	41	44	35	89	17	130	12	30	29	5	6	7	22	18	210	18	11	37	35	44	50	274	66	224	114
OTU 177	24	46	116	10	43	33	10	15	58	36	139	104	18	3	5	44	0	13	72	58	0	2	23	2	8	10	76	10	2	38	34	65	14	3	0	46	35	44	2	26	64	34	10	20	6	6	48	30	53	5
OTU 178	0	0	0	6	16	0	0	3	0	4	1	0	17	63	3	0	82	30	0	6	1	0	0	2	18	7	0	5	0	35	18	38	83	6	0	36	51	0	4	46	1	4	32	2	0	73	0	1	82	21
OTU 179	29	13	1	2	9	10	12	9	0	0	21	1	1	4	0	0	567	5	1	0	0	0	0	0	6	11	1	0	4	3	0	3	121	78	2	4	5	0	0	1	8	4	25	1	89	13	0	0	102	5
OTU 180	38	103	97	102	44	63	33	7	43	22	2392	89	75	82	175	1057	84	120	92	64	116	13	19	105	785	55	1976	29	29	36	62	221	220	157	61	632	361	267	1088	162	7	65	349	13	545	251	189	87	307	487
OTU 181	5	54	0	4	20	47	0	0	0	1	77	81	0	0	11	0	1	12	57	52	0	2	1	5	3	3	0	16	0	19	0	0	18	27	0	13	3	2	75	13	58	0	167	0	0	21	2	5	192	0
OTU 182	0	3	62	0	0	2	0	7	8	74	0	0	0	11	0	1	30	0	0	0	20	0	7	0	0	0	17	0	17	1	2	5	0	0	0	0	699	0	0	0	0	0	0	0	0	0	0	8	0	0
OTU 183	20	1	1	0	0	8	4	88	5	102	2	19	0	1	19	0	2	0	42	57	11	52	2	15	16	3758	0	19	51	59	1	55	75	39	0	0	0	0	15	1	78	0	8	0	5	0	122	47	20	0
OTU 184	2	8	0	1	7	104	30	7	1	17	0	0	0	27	14	1	5	0	0	1	20	0	0	6	0	0	11	0	0	0	0	24	0	8	0	3	0	0	85	0	2	4	58	33	7	40	21	42	4	0
OTU 185	16	15	17	13	19	119	14	23	24	18	44	35	3	198	13	7	144	19	46	13	13	104	17	8	115	0	30	591	6	5	3	10	6	76	15	19	36	3	8	43	7	10	267	14	24	165	104	299	31	19
OTU 186	0	0	2	26	20	0	19	1	6	0	9	0	31	20	0	0	18	6	1	1	0	3	8	0	3	0	0	7	1	12	62	0	1	10	9	6	0	71	19	0	0	5	7	10	0	30	0	0	0	2
OTU 187	58	20	54	58	7	50	27	8	40	4	39	4	28	122	13	8	91	61	55	67	17	38	6	7	28	12	43	113	3	18	137	1	98	32	324	15	11	44	51	123	33	22	30	15	58	94	57	32	227	19
OTU 188	4	37	2599	34	33	18	10	0	1389	52	29	136	107	48	70	0	36	43	24	842	12	19	631	27	38	5	6	41	33	25	77	28	2	48	14	11	32	63	85	109	35	28	204	1353	5	26	80	10	167	100
OTU 189	56	38	13	14	30	412	0	24	358	1	114	2	7	48	111	1	21	115	2	13	42	106	220	49	7	4	11	2	1	0	87	36	32	138	20	7	23	29	19	26	33	44	186	123	23	0	46	169	40	73
OTU 190	5	19	17	24	45	187	1	0	1	0	12	1	0	0	0	1	0	0	187	6	0	37	1	0	53	29	0	0	0	0	0	12	0	0	16	41	0	112	25	0	0	11	846	0	0	30	2	22	0	0
OTU 191	58	40	8	17	29	9	2	32	5	10	19	12	0	120	9	157	37	12	120	7	62	22	1	7	17	58	263	12	5	3	9	150	10	848	54	37	6	67	0	1	0	2	52	4	224	64	118	21	15	28
OTU 192	59	90	58	18	4	74	30	402	55	19	143	76	8	29	43	15	31	14	33	69	14	6	29	16	49	36	25	25	3	19	14	27	104	7	18	5	360	23	25	415	17	18	10	1	34	413	60	15	282	45
OTU 193	26	9	7	57	204	70	27	5	10	83	44	54	3	40	0	0	0	31	6	7	13	17	0	0	19	23	1	13	64	28	122	83	0	191	103	53	0	108	3	47	45	120	48	77	0	3	25	0	84	15
OTU 194	9	89	0	77	11	19	0	30	9	32	1	0	0	21	0	35	12	14	1	10	6	73	10	0	1	0	99	0	5	13	17	17	1	2	0	13	8	1	79	1	72	28	49	2	7	9	0	72	0	35
OTU 195	26	2	0	49	3	10	73	9	0	6	31	7	18	5	0	29	15	0	107	60	10	6	4	0	1	15	60	2	852	0	17	15	98	3	2	4	77	12	17	15	1	0	0	19	16	1	1	4	14	19
OTU 196	10	40	5	6	37	18	14	2	4	38	33	178	9	23	0	2	52	16	3	499	14	8	3	0	0	22	0	5	13	432	10	23	18	42	4	12	28	8	74	8	588	94	20	7	8	170	0	42	6	166
OTU 197	75	160	21	47	28	23	8	19	34	29	1413	5	23	185	26	17	123	127	17	8	10	10	16	14	59	40	27	77	4	27	115	74	84	94	18	43	27	124	202	80	40	26	90	14	714	0	114	17	97	90
OTU 198	0	28	96	0	0	0	0	0	47	34	0	12	0	0	0	2	6	0	0	42	1	11	11	0	0	0	0	63	13	0	0	5	13	63	0	0	0	4	1	0	24	0	0	0	3	2	0	83	0	0
OTU 199	0	8	79	0	4	3	0	0	36	5	5	16	0	0	2	11	1	0	17	22	0	40	11	1	3	1	1	36	3	0	35	3	1	0	4	5	11	10	0	1	11	19	103	7	35	0	0	0	40	1
OTU 200	17	41	20	21	13	33	1	77	5	118	0	0	8	11	94	24	3	89	32	12	2	1	1	48	70	8	44	3	50	30	0	7	2	14	12	2	5	143	0	0	39	7	7	206	8	16	2	18	134	1
