	Host 1	Host 2	Host 3	Host 4	Host 5	Host 6	Host 7	Host 8	Host 9	Host 10	Host 11	Host 12	Host 13	Host 14	Host 15	Host 16	Host 17	Host 18	Host 19	Host 20	Host 21	Host 22	Host 23	Host 24	Host 25	Host 26	Host 27	Host 28	Host 29	Host 30	Host 31	Host 32	Host 33	Host 34	Host 35	Host 36	Host 37	Host 38	Host 39	Host 40	Host 41	Host 42	Host 43	Host 44	Host 45	Host 46	Host 47	Host 48	Host 49	Host 50	
OTU 1	0	4	4	0	0	7	3	9	1	0	0	10	0	7	8	0	0	0	1	4	0	4	0	3	3	7	12	0	2	1	3	0	0	1	6	2	4	1	1	0	2	0	11	2	1	3	0	1	0	1
OTU 2	0	0	0	1	0	3	0	0	2	2	0	0	0	1	1	0	1	1	0	0	0	1	2	0	0	1	0	0	0	1	1	0	2	0	0	1	3	0	1	0	0	0	0	0	0	0	0	0	0	0
OTU 3	1	0	0	0	0	1	1	1	0	0	0	3	0	0	0	1	0	0	5	0	0	0	0	0	0	0	1	0	1	0	0	0	1	0	0	0	0	2	0	1	2	2	0	0	1	1	0	0	0	0
OTU 4	0	0	0	0	0	0	0	0	0	0	0	0	0	0	0	0	0	0	0	0	0	0	0	0	0	0	1	0	0	0	0	0	0	0	0	0	0	0	0	0	0	0	0	0	0	0	0	0	0	0
OTU 5	4	3	34	6	1	20	4	18	1	9	3	37	19	17	2	18	31	0	24	14	0	7	0	19	8	3	11	8	8	3	10	9	0	17	0	2	6	0	20	14	7	0	14	12	17	1	8	0	34	20
OTU 6	0	1	1	0	0	0	1	4	0	2	0	3	0	1	2	0	0	0	1	0	2	1	1	0	0	2	3	0	0	2	0	0	0	0	0	0	4	1	0	3	0	1	2	0	0	0	0	0	0	0
OTU 7	1	0	0	2	0	0	1	6	2	2	11	6	9	4	0	1	13	1	11	0	4	0	5	13	3	13	2	6	1	6	4	1	6	14	0	11	0	1	11	11	3	1	5	1	3	21	0	38	1	0
OTU 8	1	4	0	6	2	5	14	1	2	6	0	0	2	3	10	2	2	0	6	2	1	4	3	4	1	0	0	0	1	0	84	0	1	0	2	0	3	3	1	10	0	0	0	3	6	0	0	5	7	5
OTU 9	0	1	0	0	0	2	0	1	0	0	0	0	0	0	0	0	0	0	0	0	2	0	3	0	1	1	0	2	0	4	0	3	0	1	1	0	0	3	0	1	0	0	0	0	0	27	0	0	0	0
OTU 10	0	0	0	1	0	0	0	1	0	1	0	0	0	0	1	0	0	1	0	0	0	0	3	0	0	42	0	0	0	4	0	0	2	109	0	32	1	0	0	1	0	0	0	0	0	0	0	1	0	0
OTU 11	5	0	1	0	0	0	0	1	1	1	1	9	0	1	4	1	0	14	1	0	1	1	0	0	0	0	3	0	0	7	1	3	0	0	1	0	1	6	0	0	1	0	0	1	0	0	0	4	2	1
OTU 12	12	0	2	4	9	2	3	2	1	8	0	1	7	2	2	2	6	3	0	2	4	2	1	1	0	0	1	2	1	4	0	7	1	0	2	0	7	2	0	1	2	0	2	1	4	1	3	0	2	0
OTU 13	0	0	0	0	0	0	0	0	0	0	1	0	1	0	0	0	0	0	0	0	0	0	1	0	0	0	0	0	0	0	0	0	0	0	0	0	0	0	0	0	0	0	0	0	0	0	0	1	0	0
OTU 14	0	0	0	0	1	0	0	1	2	0	6	0	0	0	3	0	0	1	3	0	0	2	0	0	0	1	2	0	2	1	0	1	3	0	0	1	0	0	0	0	0	0	0	0	0	0	0	3	3	0
OTU 15	0	0	0	0	0	5	0	0	0	0	0	0	0	0	0	0	0	0	0	1	1	0	0	0	0	0	0	0	0	0	0	0	0	0	0	0	0	0	0	0	0	0	0	0	0	0	0	0	0	0
OTU 16	0	0	0	2	0	0	0	0	0	0	0	0	0	0	0	0	0	0	0	0	0	0	0	0	0	0	0	0	0	0	0	0	0	0	0	0	0	0	0	0	0	0	0	0	0	0	0	0	0	0
OTU 17	1	0	7	2	0	18	0	0	0	0	3	0	2	0	2	0	2	0	0	9	0	2	2	4	1	3	17	7	0	0	3	0	0	0	7	1	2	0	2	5	1	0	2	0	11	0	0	0	2	1
OTU 18	0	3	1	2	6	0	0	2	0	1	3	2	1	2	3	0	3	0	0	0	1	1	1	0	3	1	0	1	0	0	0	1	0	0	1	0	0	4	0	0	2	0	0	0	2	0	2	6	0	20
OTU 19	0	0	0	0	0	0	0	0	0	0	0	0	0	0	0	0	0	0	0	0	0	0	0	0	0	0	0	0	0	0	0	0	0	0	0	0	0	0	0	0	0	0	0	0	0	0	0	0	0	0
OTU 20	0	1	1	1	0	1	0	1	6	0	0	3	6	0	0	6	0	5	1	4	3	0	1	3	0	1	0	0	0	3	2	1	0	0	0	1	0	0	0	0	2	0	0	1	0	0	0	38	0	0
OTU 21	0	0	2	1	0	1	2	1	0	0	0	7	2	0	1	2	1	1	0	0	0	0	5	0	0	0	0	2	1	2	0	3	1	0	5	0	2	1	1	2	1	1	3	2	0	3	2	0	1	0
OTU 22	1	1	4	1	1	1	0	1	5	4	0	1	3	3	3	2	1	3	0	0	1	5	0	3	0	1	8	1	0	0	1	0	0	1	2	0	0	0	1	0	0	3	0	1	1	0	4	0	0	0
OTU 23	0	0	0	0	1	0	6	0	1	3	0	4	0	3	1	0	0	0	0	0	0	0	0	1	0	2	0	5	0	0	0	0	0	0	0	2	1	0	0	0	0	5	0	0	1	0	0	0	1	0
OTU 24	2	0	0	3	0	0	0	0	0	1	0	11	2	0	1	0	0	1	0	0	0	0	6	0	0	0	0	0	0	10	0	0	0	0	0	0	3	6	4	1	0	1	0	0	0	0	0	1	0	0
OTU 25	0	23	0	0	0	0	0	0	0	0	0	0	0	0	0	0	0	3	0	0	0	0	0	0	0	0	0	0	0	0	0	0	0	0	0	0	0	0	0	0	0	0	0	0	0	0	0	0	0	0
OTU 26	0	0	0	0	1	1	0	0	0	0	0	0	0	0	0	7	0	0	0	0	0	0	0	0	0	0	0	0	0	0	0	0	2	0	0	0	0	0	0	5	0	0	0	0	0	0	0	0	0	0
OTU 27	0	0	0	0	0	0	0	0	0	0	0	0	0	0	0	0	0	0	0	0	4	0	0	0	0	0	0	0	0	0	0	0	0	0	0	0	0	0	0	0	0	0	0	0	0	0	0	0	0	0
OTU 28	8	0	0	0	10	11	1	3	13	0	0	1	1	1	11	1	1	0	0	4	6	3	3	0	1	4	0	6	1	10	0	3	5	2	1	2	2	3	1	1	0	0	0	1	1	189	1	1	2	0
OTU 29	8	1	0	2	5	1	6	0	0	1	1	0	10	4	2	7	0	3	6	0	2	2	2	0	0	1	1	2	0	1	0	0	0	1	0	0	2	0	3	1	0	1	42	0	0	0	1	4	0	0
OTU 30	0	0	0	0	0	0	0	0	0	0	0	0	0	0	0	0	0	0	0	0	0	0	0	0	0	0	0	0	0	0	0	0	0	0	0	0	0	0	0	0	0	0	0	0	0	0	0	0	0	0
OTU 31	0	0	0	2	0	0	0	7	1	0	0	3	2	0	0	0	0	1	0	0	0	0	0	0	136	0	1	0	0	0	0	1	0	0	0	0	0	0	0	2	1	0	0	0	0	0	4	0	1	69
OTU 32	4	0	0	0	34	1	5	1	1	4	2	1	5	0	1	7	6	2	3	0	0	2	9	2	2	0	10	5	0	0	2	4	1	0	0	122	0	5	0	4	0	0	0	0	1	0	0	8	2	2
OTU 33	0	0	0	0	0	0	0	0	0	0	0	0	0	0	0	0	0	0	0	0	0	0	0	0	0	0	0	0	0	0	0	0	0	0	0	0	0	0	1	0	0	0	0	0	0	0	0	0	2	0
OTU 34	8	5	0	1	6	2	16	1	0	84	0	0	4	1	1	0	0	6	0	0	5	1	0	24	0	16	0	0	0	0	17	3	4	26	1	6	0	0	32	0	0	0	0	0	2	0	0	0	5	0
OTU 35	3	0	0	0	0	0	10	0	0	0	2	0	1	0	0	0	0	0	0	0	0	1	2	0	0	0	0	0	0	0	0	0	7	0	0	1	0	0	0	1	0	0	0	0	1	2	0	0	0	0
OTU 36	0	0	0	1	4	0	1	0	0	2	9	1	1	0	0	1	7	0	1	0	0	0	0	20	0	7	0	3	1	1	10	2	3	20	0	7	0	0	19	4	1	0	0	0	0	2	1	2	5	0
OTU 37	0	0	0	0	0	0	0	1	8	0	0	0	0	0	0	0	1	0	1	0	0	0	4	0	0	0	0	0	0	0	0	0	0	0	0	0	0	0	0	5	0	1	1	0	0	0	0	0	0	2
OTU 38	4	8	3	0	0	3	0	0	3	2	0	2	2	1	2	1	2	0	0	0	0	0	8	0	0	0	0	0	2	0	0	1	1	1	0	1	0	11	1	0	0	0	2	1	2	5	3	0	0	0
OTU 39	0	2	0	0	0	0	7	0	0	30	0	0	0	0	0	0	0	0	0	0	0	0	0	0	0	0	0	0	0	0	0	1	0	0	0	0	0	0	0	0	0	0	0	0	0	0	0	0	0	0
OTU 40	5	3	2	1	21	2	4	0	1	1	0	1	2	2	1	5	0	9	3	0	2	2	0	0	1	3	0	7	1	0	2	0	13	3	0	0	2	0	1	2	2	1	3	0	0	0	0	0	2	2
OTU 41	1	1	0	0	0	0	2	0	0	1	0	0	1	0	0	0	0	0	1	0	2	0	0	0	0	0	0	0	0	1	0	0	0	0	0	0	0	5	0	0	0	0	1	1	0	0	1	1	1	0
OTU 42	0	0	0	0	0	0	0	0	2	0	0	0	0	0	1	0	0	1	0	0	0	0	1	0	0	0	0	0	1	0	0	0	2	0	6	0	0	0	0	0	1	2	0	0	0	0	0	0	1	0
OTU 43	0	0	0	0	0	0	0	0	0	0	0	0	0	0	0	0	0	0	0	0	0	0	0	0	0	0	0	0	0	0	0	0	0	0	1	0	0	0	0	0	0	0	0	0	0	0	0	0	0	1
OTU 44	0	0	1	0	1	0	0	0	1	1	0	2	0	2	4	0	1	0	0	0	0	2	0	0	0	0	1	0	0	0	0	0	2	0	0	0	5	0	0	0	2	0	0	0	0	0	0	0	0	0
OTU 45	30	1	10	0	13	0	0	1	1	0	5	4	2	12	37	0	3	2	1	0	2	17	0	1	7	0	5	4	2	1	0	2	3	0	2	1	8	0	0	1	7	1	0	58	2	0	0	3	70	5
OTU 46	3	0	0	0	0	0	1	9	0	3	0	0	0	0	0	2	0	5	1	0	0	0	0	1	5	2	0	54	0	0	0	0	1	0	5	2	1	2	1	0	0	2	1	0	11	1	1	1	0	0
OTU 47	9	0	0	0	0	0	0	0	2	0	0	0	0	0	0	2	0	1	0	0	0	0	0	0	0	0	0	0	0	0	0	0	0	0	0	0	1	0	0	0	0	0	0	0	0	0	0	0	0	0
OTU 48	0	1	1	1	0	0	41	1	3	2	0	0	2	1	5	3	3	1	0	0	0	6	0	2	0	1	3	0	2	2	4	6	0	0	1	0	2	5	2	1	0	0	0	0	1	0	0	7	10	0
OTU 49	1	2	0	0	0	1	0	0	0	0	1	0	0	0	1	0	1	0	6	0	0	0	0	0	0	2	0	0	0	0	0	0	0	0	0	0	0	0	0	0	0	0	0	0	0	0	0	0	0	0
OTU 50	2	4	0	5	11	0	2	4	4	0	2	0	1	0	1	1	1	2	2	0	2	1	2	2	0	1	0	1	1	0	0	1	0	0	4	0	4	9	0	6	7	0	2	1	0	1	0	5	0	0
OTU 51	1	0	0	0	0	0	1	0	1	6	0	0	4	0	0	4	0	0	7	0	0	0	3	1	0	0	0	0	1	2	1	1	0	1	2	0	0	0	0	1	0	4	1	0	0	0	1	0	0	0
OTU 52	2	2	1	5	9	1	4	1	3	0	0	6	5	3	6	12	4	1	8	1	5	3	0	6	0	0	4	6	0	11	2	5	6	1	8	1	3	6	1	2	2	0	1	1	6	1	1	1	9	0
OTU 53	0	0	0	0	0	0	0	0	0	0	0	0	0	0	0	0	2	0	0	0	0	0	0	0	0	0	0	0	0	0	0	0	0	0	0	0	0	0	0	0	0	0	0	0	0	0	0	0	0	0
OTU 54	3	3	0	1	2	3	1	2	0	0	5	14	0	6	2	3	12	0	1	2	0	6	1	3	0	0	4	3	0	1	3	2	1	2	1	1	4	3	2	0	0	0	0	0	2	0	1	17	0	0
OTU 55	0	0	0	0	0	0	0	0	0	0	0	0	0	0	0	0	0	0	0	0	0	0	0	0	14	0	0	0	0	0	0	0	0	0	1	0	0	0	0	0	0	0	0	0	0	0	0	0	0	12
OTU 56	0	0	2	0	0	0	1	2	0	0	0	5	2	0	0	0	2	1	0	0	5	0	3	0	3	1	0	0	0	0	0	4	2	2	0	1	0	0	0	1	0	0	1	0	0	1	0	0	0	0
OTU 57	1	1	0	1	6	5	4	13	4	9	19	6	5	3	3	4	2	5	0	1	6	0	5	3	1	3	11	3	0	2	80	10	1	0	22	3	2	2	4	9	8	9	3	4	2	3	12	3	4	3
OTU 58	0	0	0	0	1	3	0	0	3	0	0	3	0	2	1	1	0	2	2	0	2	2	0	4	1	0	1	0	5	3	0	1	0	6	1	0	6	0	1	0	0	0	0	0	0	2	0	0	0	0
OTU 59	0	4	0	0	1	1	0	0	0	1	0	0	2	2	1	3	1	0	2	0	4	0	13	0	0	1	0	0	1	3	1	1	0	1	5	0	0	8	3	2	0	1	2	0	2	0	0	0	0	1
OTU 60	2	0	1	1	3	4	0	11	3	12	1	6	1	1	4	6	0	0	0	0	1	17	0	0	62	0	6	0	0	1	1	1	0	1	0	3	0	2	2	5	131	8	3	52	0	1	4	3	1	23
OTU 61	7	5	2	1	1	4	1	0	4	2	0	1	0	5	12	2	2	2	2	5	3	6	1	1	1	7	2	1	2	9	1	2	14	1	2	0	8	25	43	1	2	0	2	0	0	0	80	6	0	1
OTU 62	0	0	0	0	1	0	0	0	8	0	0	0	0	4	0	3	0	0	0	1	0	0	0	1	0	0	0	0	0	0	0	0	0	0	1	0	1	0	0	0	0	0	1	0	0	0	0	0	4	0
OTU 63	1	5	0	0	1	0	0	0	0	0	4	1	1	2	1	0	0	2	0	0	0	0	101	0	0	0	0	0	0	0	0	42	3	0	0	0	0	0	1	3	0	0	1	0	0	0	0	0	0	0
OTU 64	8	2	2	7	3	3	11	0	4	7	96	1	0	2	5	5	0	2	0	1	4	3	3	1	0	0	1	1	2	3	1	10	10	0	6	0	8	12	0	0	0	2	0	0	1	5	1	2	0	0
OTU 65	0	0	0	0	2	0	0	0	3	0	0	0	0	0	0	0	1	0	0	0	0	0	0	0	0	0	0	0	0	0	0	0	0	0	0	0	0	0	0	0	0	1	0	0	0	0	0	0	0	0
OTU 66	5	0	1	0	1	3	2	0	41	0	1	1	2	0	0	1	31	6	5	2	6	0	9	2	0	6	14	0	0	1	1	19	4	5	1	1	3	5	1	0	0	1	1	0	2	1	0	0	0	0
OTU 67	1	3	0	1	0	59	0	2	1	0	0	0	1	1	6	10	0	0	5	19	0	1	0	1	4	0	0	0	0	5	0	2	1	0	0	0	1	0	0	1	1	0	1	1	29	0	1	1	0	1
OTU 68	0	0	1	7	2	0	7	17	0	0	3	0	1	0	1	0	0	1	0	0	2	2	0	1	0	0	25	0	0	0	2	0	0	1	0	0	0	0	9	4	6	1	6	2	6	8	2	0	1	1
OTU 69	0	0	0	3	2	0	4	0	0	7	0	2	5	0	3	0	0	2	3	0	122	2	4	2	3	0	1	6	2	6	0	1	3	1	5	0	2	22	0	0	0	2	0	3	0	1	0	4	0	1
OTU 70	0	1	0	0	3	0	0	8	1	3	4	0	2	0	3	2	2	6	0	0	0	1	0	0	1	0	2	0	0	0	0	0	0	1	0	0	0	11	0	0	5	4	3	0	0	0	3	0	0	0
OTU 71	0	0	7	2	27	0	0	0	6	0	0	0	0	0	0	0	0	0	0	0	0	0	0	0	0	1	0	0	0	0	0	1	0	0	0	0	3	1	0	4	0	0	2	0	0	1	0	1	6	0
OTU 72	5	1	1	3	0	0	2	5	0	1	1	5	0	0	2	0	1	7	1	1	0	1	2	3	0	0	4	0	0	0	0	2	8	1	9	0	1	16	0	8	0	2	2	0	0	0	0	2	0	0
OTU 73	0	0	3	1	0	2	1	1	6	1	0	0	9	0	2	1	1	0	0	7	0	0	1	0	0	1	0	0	0	2	0	0	0	0	1	0	3	0	0	3	6	0	4	1	0	1	0	0	3	0
OTU 74	0	0	0	2	0	1	1	0	3	1	0	1	2	0	0	1	3	1	0	0	0	0	3	1	1	1	0	0	0	0	1	0	3	3	1	0	0	1	0	0	0	0	0	0	0	0	0	0	1	0
OTU 75	0	6	0	7	1	2	0	2	3	16	1	10	6	0	2	3	10	0	0	0	4	1	0	1	1	0	2	2	0	0	0	0	1	2	8	0	10	0	1	8	5	10	33	0	0	1	1	1	1	1
OTU 76	0	0	0	0	0	0	0	0	4	0	0	1	0	0	1	0	0	0	0	0	0	0	0	1	0	4	0	0	0	2	4	0	0	0	2	1	0	0	0	0	0	0	1	0	0	0	0	1	0	0
OTU 77	8	0	0	6	0	0	27	3	1	4	0	2	0	3	1	3	0	0	0	0	0	1	4	3	0	2	1	59	0	0	0	4	2	2	1	3	0	1	0	0	1	19	0	2	1	0	4	3	1	1
OTU 78	5	2	0	0	6	1	5	3	2	2	2	1	2	2	0	9	2	1	2	0	5	0	1	0	0	0	0	1	0	0	0	6	3	0	7	0	1	4	0	7	0	0	0	0	1	0	0	4	86	0
OTU 79	6	1	3	21	3	4	3	8	4	3	55	7	6	6	13	1	1	6	4	2	3	4	8	0	4	0	8	2	3	2	2	6	1	3	31	73	3	2	8	35	7	0	9	10	0	30	4	11	2	1
OTU 80	8	0	2	1	0	0	0	2	1	0	1	0	2	11	3	3	0	3	0	0	2	3	4	0	1	0	2	16	6	0	2	1	13	2	2	0	3	0	1	2	0	2	0	0	2	1	0	0	1	0
OTU 81	4	6	0	3	3	3	0	3	2	2	0	0	0	2	0	5	2	10	4	0	0	0	1	0	0	0	0	13	3	1	0	5	6	0	1	2	5	4	1	2	0	3	0	85	0	1	4	1	0	2
OTU 82	7	0	1	1	0	0	0	0	0	0	1	6	0	82	2	0	1	9	5	0	0	2	0	0	1	0	0	1	46	2	0	0	1	3	0	0	0	0	7	2	1	0	0	0	3	1	1	0	8	3
OTU 83	0	0	0	2	0	0	0	0	0	0	0	0	0	0	0	0	1	0	0	4	0	0	0	0	0	2	0	0	0	0	0	0	1	0	0	0	0	0	1	0	0	6	2	0	1	0	0	18	0	0
OTU 84	0	2	2	0	0	0	0	2	0	1	2	0	0	0	0	2	1	0	0	0	0	0	12	1	0	0	0	6	0	1	0	0	11	0	2	0	0	7	0	2	0	0	0	26	0	0	0	0	3	0
OTU 85	1	0	0	72	0	0	0	0	0	0	0	0	0	2	1	0	0	0	0	0	0	1	0	2	0	5	2	2	0	0	1	0	0	0	0	2	0	0	0	1	0	0	0	0	0	2	1	0	0	0
OTU 86	0	0	0	0	0	0	0	0	0	0	0	0	0	0	0	0	0	0	0	0	0	1	0	0	0	0	1	0	0	7	0	0	0	0	1	0	0	0	0	0	0	0	0	0	0	0	0	0	0	0
OTU 87	8	3	0	2	1	0	1	0	0	0	0	0	1	0	0	0	0	4	0	0	0	0	0	0	0	0	0	0	2	0	0	0	3	0	0	0	0	2	0	0	0	0	0	0	0	0	1	0	0	0
OTU 88	1	0	0	0	0	0	0	1	2	0	0	0	0	0	0	0	0	0	0	0	0	0	0	0	0	0	0	1	0	0	0	0	1	0	0	0	0	0	0	0	0	3	0	1	0	0	0	0	0	0
OTU 89	17	1	0	0	2	2	0	1	0	0	3	0	0	0	4	0	0	16	0	0	4	4	2	0	0	0	0	0	1	0	0	0	0	2	0	0	3	0	0	1	0	0	0	0	0	0	0	6	0	0
OTU 90	0	0	0	0	0	0	0	0	0	0	0	0	0	0	0	0	0	1	0	0	16	0	0	0	0	0	0	0	0	0	0	0	0	0	0	0	0	0	1	0	0	0	0	0	2	0	0	0	0	0
OTU 91	0	0	0	0	0	0	0	0	0	0	0	0	0	0	0	0	0	0	0	0	0	0	0	0	0	0	2	0	0	0	0	0	0	0	0	0	0	0	0	0	0	0	0	0	1	0	0	0	0	0
OTU 92	1	0	0	0	0	4	0	0	0	3	0	0	1	0	0	0	1	1	0	0	0	0	0	0	0	0	5	0	0	0	0	1	0	0	0	0	1	0	0	4	0	1	0	0	0	1	0	0	0	0
OTU 93	0	0	0	0	0	0	0	0	0	0	0	0	0	0	0	0	0	0	0	0	1	0	1	0	0	0	0	0	0	0	0	0	0	0	0	0	0	0	1	2	1	0	0	1	1	0	0	0	0	0
OTU 94	0	0	0	0	0	0	5	5	0	0	1	1	0	0	1	7	1	2	1	8	1	0	11	0	1	1	4	1	0	4	0	0	2	0	0	0	2	1	77	2	4	4	6	1	4	2	1	0	3	9
OTU 95	0	0	0	0	0	0	0	25	0	1	1	0	15	0	0	0	1	0	0	0	0	1	2	0	5	0	2	0	0	0	0	0	1	0	0	1	0	0	0	0	11	0	11	4	0	2	19	0	3	5
OTU 96	0	0	0	0	0	0	0	0	0	0	0	0	2	0	0	1	2	0	0	0	0	0	2	0	0	0	0	0	0	0	0	0	3	1	0	0	0	0	0	0	0	0	0	0	0	0	0	0	0	0
OTU 97	1	0	0	0	0	0	0	1	0	0	0	0	0	0	0	0	0	0	0	0	0	0	2	0	0	0	0	0	0	0	0	0	0	0	0	0	0	0	0	0	0	1	0	1	0	0	0	1	0	0
OTU 98	0	1	0	0	1	2	0	0	8	1	1	0	0	0	0	0	0	0	0	2	1	0	0	0	0	0	0	0	0	2	0	0	0	0	0	0	0	0	0	5	2	0	0	0	1	0	0	0	0	0
OTU 99	0	1	1	0	0	5	2	3	8	2	3	4	3	1	5	2	1	0	8	0	1	153	2	1	2	0	83	7	1	7	0	0	2	3	0	0	1	4	0	1	0	6	1	3	2	0	0	1	0	0
OTU 100	0	0	1	0	0	2	1	3	1	0	1	1	0	3	1	1	0	0	2	2	0	0	0	2	2	3	0	3	0	0	0	3	0	1	5	2	0	1	0	0	3	0	2	3	5	0	1	0	0	0
OTU 101	1	0	0	1	0	0	0	0	0	0	0	0	0	0	0	0	0	0	0	0	3	0	0	0	0	0	1	0	0	0	0	0	0	0	1	0	0	0	0	0	0	0	0	1	0	0	0	0	0	0
OTU 102	0	0	0	0	1	0	1	0	0	0	0	0	0	2	1	0	1	0	0	0	0	0	0	0	0	0	0	2	1	0	0	1	1	0	0	0	3	1	0	0	0	0	0	0	0	4	0	4	0	0
OTU 103	3	0	0	0	0	2	3	0	0	0	0	1	3	0	0	0	1	2	3	0	0	0	2	0	0	0	0	0	0	9	0	0	0	0	0	0	0	0	1	1	0	132	0	0	0	0	2	2	0	2
OTU 104	2	2	1	10	1	5	7	4	6	1	1	45	1	0	0	1	1	1	8	5	6	1	1	2	0	0	2	13	0	0	0	3	0	0	2	0	0	0	4	1	1	0	1	0	1	2	4	2	1	0
OTU 105	0	0	4	0	1	0	0	0	0	0	0	0	0	0	0	1	0	1	0	0	2	0	0	0	0	2	1	1	0	0	0	0	1	0	0	0	0	0	0	0	0	0	0	0	0	0	0	1	0	0
OTU 106	0	2	1	0	0	0	0	0	0	1	0	1	0	1	0	0	0	0	0	0	0	2	0	0	0	0	0	1	0	0	0	0	4	3	0	0	2	2	0	0	0	0	0	0	0	0	0	1	0	0
OTU 107	1	1	0	1	0	0	1	1	9	2	0	5	0	0	0	0	0	0	5	0	0	0	6	4	0	0	0	0	0	0	0	0	0	2	0	0	2	0	2	0	1	5	0	1	1	0	0	1	0	0
OTU 108	0	9	0	0	0	0	1	1	1	0	10	0	0	0	0	0	18	0	0	0	6	0	0	14	0	7	0	1	0	0	9	0	4	4	0	3	1	0	20	0	0	0	2	1	1	1	2	0	0	0
OTU 109	0	0	0	0	0	0	0	0	0	0	0	0	0	0	0	0	0	0	0	0	0	0	0	0	0	0	0	0	0	0	0	0	0	0	0	0	0	0	0	0	0	0	0	0	0	0	0	0	0	0
OTU 110	9	0	2	1	0	5	0	3	0	0	0	3	5	2	3	0	2	0	0	2	0	3	0	0	0	1	0	1	3	0	0	3	7	0	0	0	1	0	0	0	0	1	0	0	0	2	0	12	1	1
OTU 111	0	0	0	0	0	0	0	0	0	0	1	0	0	0	0	0	0	0	0	0	1	0	0	0	0	0	0	0	0	0	0	0	0	0	0	0	0	1	0	0	0	0	0	0	0	0	0	3	0	0
OTU 112	0	0	0	0	1	2	1	0	0	2	0	5	2	3	0	0	0	4	0	0	5	1	0	0	0	0	0	11	2	2	0	0	0	0	0	0	0	0	0	0	0	0	1	0	0	0	0	0	3	0
OTU 113	0	0	0	2	0	0	0	0	0	0	1	0	0	0	2	0	0	0	0	0	0	1	0	0	0	0	0	0	0	0	0	0	0	0	0	0	2	0	0	0	0	0	0	0	0	0	0	0	0	0
OTU 114	0	0	1	0	1	6	0	3	25	3	6	0	3	0	4	0	77	0	4	0	9	1	7	0	3	1	0	13	0	4	0	6	5	5	1	0	0	1	9	2	1	5	2	1	0	0	3	1	1	0
OTU 115	5	1	3	2	0	5	3	1	2	1	2	6	0	1	1	3	2	0	9	3	8	0	0	0	1	0	1	1	1	0	1	1	2	1	2	0	1	5	0	0	4	0	0	3	0	6	1	4	3	0
OTU 116	5	0	0	0	2	2	4	0	0	3	2	5	1	2	2	1	0	4	1	0	0	0	1	1	0	1	0	5	3	0	0	0	1	1	4	1	0	1	0	0	3	1	1	0	0	0	0	2	0	0
OTU 117	2	1	1	1	1	0	0	0	0	0	0	2	0	4	7	4	0	0	1	0	0	5	1	0	0	0	0	0	4	0	0	11	0	1	0	0	1	1	0	5	0	0	0	0	0	0	1	3	0	0
OTU 118	0	0	1	0	0	0	0	0	0	2	0	2	0	0	0	0	0	0	0	0	2	0	0	0	0	0	0	0	0	3	0	0	4	0	0	0	0	5	0	0	0	0	0	0	0	0	0	0	1	0
OTU 119	3	1	8	2	0	3	2	0	0	0	1	0	4	0	1	2	3	10	0	1	0	0	0	0	1	0	0	1	0	1	0	0	1	1	0	0	2	0	0	2	0	0	0	0	4	0	2	5	1	0
OTU 120	0	3	0	1	4	1	0	0	0	0	0	0	0	0	1	0	0	0	0	2	0	0	2	0	0	0	0	0	0	0	0	2	1	0	1	0	0	5	0	0	0	0	0	0	0	3	1	0	1	0
OTU 121	23	5	0	0	1	1	7	1	8	0	0	0	0	5	3	3	1	20	0	0	0	5	0	2	0	0	1	1	0	0	2	0	4	1	0	0	0	0	0	0	2	1	0	0	0	2	2	0	1	1
OTU 122	0	2	1	0	4	0	7	6	4	1	0	2	0	1	0	0	0	2	5	0	0	0	6	0	1	0	0	0	1	9	0	1	0	0	2	0	1	0	0	2	2	3	7	3	1	0	5	0	0	1
OTU 123	6	2	8	1	49	1	5	3	12	1	2	5	3	7	12	5	2	5	19	1	24	8	11	5	0	0	1	4	6	29	3	12	45	7	8	0	5	23	3	7	5	4	0	0	1	1	1	28	13	0
OTU 124	0	0	0	1	0	0	0	0	0	0	0	0	0	0	6	0	0	0	4	0	2	6	0	1	0	0	0	0	0	2	1	0	2	1	0	0	0	0	4	1	0	3	0	0	0	0	0	0	4	0
OTU 125	14	10	8	51	1	0	2	7	3	8	3	10	93	84	10	8	5	15	8	1	7	5	5	0	4	0	4	1	55	6	0	6	13	1	2	0	14	7	0	77	0	2	5	2	2	3	13	5	3	1
OTU 126	0	0	0	0	6	0	0	2	2	9	0	1	0	0	2	2	0	0	0	0	0	0	0	0	0	0	0	0	0	0	0	0	0	2	1	0	0	0	0	2	2	3	1	3	0	0	2	0	0	0
OTU 127	0	0	3	0	0	0	1	0	0	1	0	4	0	0	0	0	1	0	0	0	0	0	0	1	0	0	0	2	0	2	0	3	0	0	0	0	2	0	0	0	0	0	0	0	1	0	1	2	0	0
OTU 128	3	17	2	8	12	1	12	4	7	12	18	2	8	3	0	2	4	42	7	2	1	1	5	6	2	14	20	7	167	8	27	9	17	35	9	3	5	3	3	2	5	12	6	3	1	1	14	4	0	4
OTU 129	0	4	0	0	0	0	2	19	0	0	0	1	8	0	0	2	0	0	0	0	1	0	0	0	1	0	0	0	0	0	0	2	3	0	0	0	0	0	0	0	3	0	9	2	0	0	12	2	0	0
OTU 130	0	0	3	1	3	0	2	0	1	7	0	0	0	6	3	9	0	0	0	0	0	1	0	0	0	0	1	1	1	0	0	5	0	0	0	0	8	0	0	0	0	19	0	0	0	0	1	4	1	0
OTU 131	0	0	0	0	0	0	2	4	4	3	0	17	2	1	0	1	2	0	11	0	0	0	3	1	3	0	0	2	0	0	0	2	1	0	4	0	0	1	1	0	3	1	2	2	0	0	0	6	0	1
OTU 132	0	0	2	5	0	0	0	0	0	0	4	0	0	0	0	0	0	2	0	0	0	0	1	1	1	0	2	1	0	2	0	0	0	1	0	0	0	0	1	1	0	0	0	0	0	0	0	0	0	0
OTU 133	5	0	3	1	0	4	0	0	0	0	0	0	0	0	0	1	0	0	2	1	0	0	0	0	0	2	0	0	0	0	0	0	0	0	0	2	0	0	0	0	0	0	0	0	5	0	0	0	0	0
OTU 134	0	1	0	3	1	3	0	11	2	0	16	2	3	0	0	0	0	1	0	5	0	0	0	3	4	0	0	0	0	0	1	0	1	2	0	0	0	4	8	0	5	21	0	5	0	1	0	0	1	0
OTU 135	3	0	0	2	1	0	0	0	2	0	0	0	0	0	0	0	1	2	0	0	1	0	1	1	0	0	0	0	0	1	1	0	0	0	0	0	0	0	0	0	3	2	0	0	0	3	0	1	0	0
OTU 136	1	0	0	0	1	41	1	2	1	0	0	1	3	1	0	0	1	1	0	23	0	0	0	0	0	0	0	0	0	0	0	0	0	0	6	0	3	2	0	0	0	0	0	0	55	1	0	1	0	0
OTU 137	0	0	0	0	2	0	1	0	0	1	0	4	0	0	0	3	0	0	0	0	1	0	0	0	0	0	11	0	0	1	0	0	1	0	0	0	0	0	0	0	0	0	100	0	0	1	0	0	1	2
OTU 138	1	1	0	1	5	0	0	0	1	0	0	0	3	0	0	4	0	1	3	0	0	0	0	0	0	0	4	0	0	0	0	0	6	0	0	0	0	1	0	0	0	1	0	0	0	0	0	0	0	0
OTU 139	11	6	9	2	9	2	4	3	19	4	2	4	1	14	48	1	0	5	10	0	0	23	0	77	3	1	1	0	24	4	30	7	0	1	4	3	14	2	0	1	2	4	11	2	0	0	10	4	1	1
OTU 140	7	0	1	0	11	0	0	2	1	3	1	5	9	4	4	2	0	0	3	2	3	4	5	3	0	2	1	4	2	5	2	11	5	1	10	0	10	2	0	10	0	3	3	1	2	7	4	0	0	1
OTU 141	0	0	0	0	0	0	0	0	0	0	0	0	0	0	0	0	0	0	0	0	0	0	0	0	0	0	0	0	0	0	0	0	0	0	0	0	0	0	0	0	1	0	0	0	0	0	0	0	0	0
OTU 142	0	0	0	0	0	0	0	0	0	0	0	0	0	0	0	0	0	0	0	0	0	0	0	0	0	0	0	0	0	0	0	0	0	0	0	0	0	0	0	0	1	0	0	0	0	0	0	0	0	0
OTU 143	0	0	1	0	0	0	0	0	0	0	1	2	2	1	0	1	5	0	0	0	0	0	1	0	0	0	1	0	0	0	0	0	0	0	0	0	0	3	0	0	0	0	0	0	0	0	0	0	0	0
OTU 144	2	0	0	0	0	0	0	0	0	0	0	0	0	0	0	0	0	0	0	0	0	0	1	0	2	0	0	0	0	0	0	0	3	1	0	0	0	0	0	0	0	0	0	0	0	0	1	0	0	0
OTU 145	1	65	0	3	0	3	2	0	1	0	2	0	1	3	3	2	0	68	0	0	9	0	2	0	5	0	2	1	0	2	1	1	0	0	0	0	5	0	0	0	0	1	3	0	1	0	0	7	0	1
OTU 146	4	0	0	1	0	0	0	1	3	5	0	0	1	3	8	2	0	1	1	0	0	5	0	0	1	165	0	3	0	0	0	1	9	2	0	79	0	0	2	0	0	0	0	0	0	4	1	1	1	0
OTU 147	0	0	0	0	1	0	1	0	0	6	0	0	2	1	0	1	0	0	0	0	0	0	0	0	0	0	4	0	0	0	0	0	0	0	2	0	0	0	0	0	0	1	0	0	0	0	0	1	0	0
OTU 148	0	0	0	0	2	0	0	1	1	0	0	2	0	1	3	0	2	2	0	0	0	5	1	0	0	0	0	1	0	3	0	3	0	0	1	0	2	5	0	0	0	1	0	0	6	0	72	11	0	3
OTU 149	0	0	0	0	1	2	0	1	0	1	0	0	0	0	0	0	0	0	0	0	17	1	0	0	0	0	0	0	1	0	0	0	0	1	0	0	0	0	0	0	0	0	0	6	1	0	0	5	0	0
OTU 150	0	0	0	0	0	0	0	0	0	1	0	0	1	1	0	0	0	0	4	0	0	5	0	0	0	0	0	0	0	11	1	4	0	0	0	0	0	3	0	0	0	0	0	0	0	0	0	0	0	0
OTU 151	0	0	0	0	0	1	0	0	0	0	1	3	0	1	0	1	0	0	0	2	0	0	7	0	0	0	0	1	0	1	4	0	15	0	1	0	0	0	0	0	0	0	0	0	0	0	0	1	0	1
OTU 152	0	0	1	5	2	1	11	16	3	2	1	0	1	0	5	1	1	0	0	0	0	1	0	0	9	0	2	0	1	1	0	0	1	0	0	1	2	0	1	0	5	2	6	5	0	0	3	0	11	5
OTU 153	0	0	0	0	1	0	0	0	0	0	0	0	0	0	0	0	0	0	0	0	0	0	0	0	2	0	0	0	0	1	0	0	0	0	0	0	0	0	0	0	0	0	0	0	0	0	0	0	0	0
OTU 154	0	0	0	0	0	2	0	0	0	0	0	0	0	0	0	0	0	0	0	0	0	0	0	0	0	0	0	0	3	0	0	0	0	0	0	0	0	1	0	0	3	0	0	0	2	0	3	0	0	0
OTU 155	0	0	3	0	0	0	0	0	0	0	2	0	0	1	0	0	0	2	0	0	0	0	0	0	0	0	0	0	0	6	0	72	2	0	2	0	5	9	0	0	1	0	0	0	0	0	0	0	0	0
OTU 156	0	1	0	1	1	2	0	3	1	0	2	6	1	1	1	2	6	0	1	177	0	0	2	0	1	0	0	1	0	0	0	0	7	1	2	0	2	4	4	5	2	0	0	1	1	0	6	3	1	1
OTU 157	0	0	0	0	0	1	0	1	0	0	0	0	2	0	0	0	1	0	0	2	0	0	1	0	0	0	0	0	0	0	0	0	0	0	0	0	0	0	0	0	1	0	3	2	0	0	0	4	0	0
OTU 158	0	0	0	0	0	0	0	0	0	0	0	0	0	0	0	0	0	0	0	0	0	0	0	0	0	0	0	0	0	0	0	0	0	0	0	0	0	0	0	0	0	0	0	0	0	4	0	0	0	0
OTU 159	3	6	0	1	1	1	3	0	2	1	0	2	0	0	0	23	0	0	1	1	0	0	2	4	26	0	0	1	0	0	0	2	4	1	0	1	0	0	0	1	2	0	1	2	3	0	3	0	1	5
OTU 160	13	5	1	0	0	5	7	7	10	4	3	7	1	0	3	6	0	1	2	8	1	2	2	0	1	10	4	3	0	3	0	9	5	2	4	0	0	0	8	0	3	1	2	0	0	6	0	0	4	2
OTU 161	0	1	0	0	0	0	3	4	4	0	0	4	0	0	0	4	0	0	0	1	1	0	0	1	2	0	0	0	1	2	1	0	0	0	4	0	1	0	1	4	1	0	3	0	0	0	1	0	0	1
OTU 162	5	19	0	3	0	0	0	2	0	0	0	0	6	0	0	1	0	0	2	0	2	0	12	0	1	0	4	7	0	2	0	0	0	0	3	0	0	2	0	9	0	0	2	1	2	0	3	0	0	2
OTU 163	0	0	0	0	0	0	0	0	0	0	0	0	0	0	0	0	0	0	0	0	0	0	0	0	0	0	0	0	0	0	0	0	0	0	0	0	0	0	0	0	0	0	0	0	0	0	0	0	0	0
OTU 164	0	0	0	0	0	0	0	0	0	0	0	0	0	0	0	2	0	0	0	0	0	0	0	0	0	0	0	0	0	0	0	0	0	0	0	0	0	0	0	0	0	0	0	0	0	0	0	0	0	0
OTU 165	0	0	0	0	1	1	1	0	0	0	0	1	0	0	0	0	0	0	41	0	2	0	1	0	0	0	2	0	0	4	0	0	0	0	0	0	1	9	0	0	1	0	0	0	0	1	0	3	0	0
OTU 166	0	0	0	0	0	0	0	0	0	0	0	0	0	0	0	0	0	0	0	0	0	0	0	0	0	0	0	0	0	0	0	0	0	0	0	0	0	0	0	0	0	0	0	0	0	0	0	0	0	0
OTU 167	1	0	0	0	0	1	1	7	3	0	0	0	2	0	0	0	4	0	0	1	7	0	0	0	4	1	0	0	0	0	0	0	0	0	0	0	0	4	0	0	6	0	3	2	0	2	12	0	0	1
OTU 168	3	0	0	0	8	0	13	1	0	0	0	0	0	0	1	44	2	3	0	0	0	0	0	7	0	1	1	4	0	0	4	2	1	1	0	4	0	8	1	0	0	1	0	0	0	1	0	0	2	0
OTU 169	0	0	0	3	0	0	0	0	1	0	0	0	0	0	0	0	0	0	0	0	0	0	0	0	0	0	0	0	0	0	0	0	0	0	0	0	0	0	0	3	0	0	0	0	0	3	0	0	0	0
OTU 170	0	0	0	0	1	0	0	0	0	0	0	0	0	0	0	0	0	0	0	0	0	0	0	0	0	0	0	0	0	0	0	0	0	0	0	0	0	0	0	0	0	0	0	0	0	0	0	0	0	0
OTU 171	0	0	0	1	0	0	1	3	5	0	0	3	1	0	0	0	0	0	0	0	1	0	0	1	3	1	2	0	0	0	1	0	0	0	90	1	0	16	0	0	0	0	0	0	0	0	0	0	0	0
OTU 172	0	0	0	0	0	0	0	0	0	0	0	0	0	0	0	0	0	0	1	0	0	0	1	0	0	0	0	0	0	0	0	1	11	0	0	0	0	0	0	0	0	0	0	0	0	0	0	0	0	0
OTU 173	0	0	0	0	1	0	0	0	0	0	0	0	0	0	0	2	0	0	0	2	0	0	5	3	0	0	0	2	0	2	0	0	0	0	0	0	0	0	0	0	2	0	0	0	0	0	0	0	0	0
OTU 174	6	9	0	7	8	0	26	7	0	0	1	0	1	4	7	0	0	2	0	0	1	10	5	1	0	0	0	1	0	0	1	4	0	0	0	0	5	0	0	8	8	0	8	1	5	0	3	4	0	1
OTU 175	0	0	4	0	0	0	0	0	2	0	0	3	1	0	1	0	0	0	0	0	0	0	0	0	0	0	7	1	0	0	0	0	0	0	2	0	0	0	0	1	0	1	0	0	0	0	0	0	1	0
OTU 176	0	0	1	0	3	1	7	3	0	9	4	1	0	1	2	0	3	0	3	0	3	4	1	84	0	1	0	0	2	4	46	0	3	0	2	1	0	7	1	1	0	4	0	0	0	0	1	4	2	1
OTU 177	6	1	4	0	3	3	0	0	1	25	3	0	4	0	4	9	3	0	0	0	0	1	1	0	0	0	10	3	1	6	0	0	2	1	4	0	4	2	0	1	0	0	0	0	0	1	0	1	0	0
OTU 178	1	0	0	0	5	0	0	2	0	0	0	0	0	0	0	0	0	1	0	0	0	0	0	1	0	0	0	0	0	1	0	0	5	0	6	0	0	0	0	0	1	0	0	0	0	0	0	0	0	1
OTU 179	0	1	0	0	0	0	0	3	2	1	0	0	2	0	4	2	2	0	0	0	1	0	0	0	0	0	0	1	0	0	1	2	1	1	1	0	0	0	1	1	1	1	0	0	0	1	0	1	1	0
OTU 180	3	1	48	3	14	60	0	4	5	2	11	2	0	0	2	41	9	0	5	47	0	0	1	4	1	7	2	1	7	0	1	10	1	8	1	2	136	4	5	23	4	5	1	6	11	2	2	1	15	1
OTU 181	0	0	0	1	0	0	1	2	4	0	3	0	1	0	0	1	0	0	0	0	0	0	0	1	0	0	0	1	0	1	0	0	0	0	1	0	2	1	3	0	0	0	0	0	1	0	1	2	2	7
OTU 182	0	0	0	0	0	0	1	0	0	0	0	0	0	0	1	0	0	0	0	0	0	0	0	0	0	0	0	0	0	0	0	0	0	0	0	0	0	0	0	0	0	0	2	0	0	0	0	3	0	0
OTU 183	9	0	6	0	0	1	0	3	0	3	0	1	0	1	12	0	0	0	0	0	0	2	3	0	1	0	1	0	0	3	0	0	5	0	0	0	1	5	0	0	1	4	2	1	0	5	6	1	0	1
OTU 184	0	0	0	0	0	0	1	1	0	2	0	0	0	0	4	1	0	0	0	0	0	0	0	0	0	0	0	0	0	1	0	1	0	0	1	0	0	0	0	1	3	0	1	0	0	0	1	1	0	0
OTU 185	2	0	8	1	0	0	1	2	0	1	0	0	1	0	2	6	5	0	71	0	0	0	0	2	0	0	0	6	0	3	0	2	4	1	2	0	4	8	0	7	1	0	2	1	0	1	1	15	1	143
OTU 186	0	1	0	2	4	0	0	3	0	0	0	0	0	0	0	4	0	0	0	0	0	0	1	0	25	0	0	0	0	4	0	0	0	0	1	0	0	2	0	0	40	0	0	41	0	0	6	3	0	11
OTU 187	0	61	0	1	2	1	12	1	3	0	12	0	6	8	2	5	2	0	1	1	2	1	0	0	0	23	4	0	2	0	0	0	1	51	4	9	2	1	0	0	5	0	4	2	2	0	0	0	2	0
OTU 188	0	2	0	6	0	0	1	1	22	0	4	8	4	3	0	7	0	3	5	0	0	1	7	5	0	0	3	2	1	2	3	5	6	0	2	0	5	11	3	0	0	1	0	0	0	4	0	2	0	0
OTU 189	1	0	136	2	0	0	5	5	13	1	2	3	7	3	1	1	2	1	2	1	4	1	6	5	0	2	0	0	0	3	1	2	1	3	0	0	1	1	3	2	1	9	2	1	0	0	2	1	3	0
OTU 190	0	13	0	0	0	0	1	1	0	0	0	0	0	0	0	0	0	17	0	0	0	0	0	0	0	0	0	0	0	0	0	0	0	0	1	0	0	0	0	0	0	0	0	0	0	0	0	0	0	0
OTU 191	6	0	0	1	0	0	1	1	2	0	1	7	1	1	0	0	0	1	6	0	4	0	0	5	0	0	1	5	0	0	4	6	4	2	0	0	2	10	6	0	0	16	1	0	0	0	1	0	19	0
OTU 192	4	13	1	54	3	8	0	19	0	1	0	0	27	4	3	5	0	14	3	2	0	3	7	0	10	0	1	1	2	3	2	0	8	3	0	0	0	0	2	4	14	2	6	8	3	0	6	1	0	1
OTU 193	0	1	4	0	0	9	1	2	0	1	4	8	2	2	0	0	45	0	1	1	2	0	1	0	0	2	3	0	2	1	0	1	4	0	0	0	0	3	1	0	3	5	0	0	8	1	0	0	3	1
OTU 194	0	1	1	0	0	0	0	0	1	0	0	0	0	4	0	0	2	4	0	0	0	0	0	0	1	0	2	30	1	0	0	0	0	0	1	0	3	0	0	1	1	2	0	0	135	0	0	3	1	0
OTU 195	0	0	13	0	1	0	5	0	0	0	6	0	0	2	8	0	0	0	1	0	18	5	1	0	0	0	1	0	3	0	0	1	0	0	0	0	1	1	0	0	0	0	0	0	1	3	0	0	0	0
OTU 196	0	0	0	0	1	2	5	4	0	1	3	4	0	0	0	0	0	0	0	4	0	0	0	8	1	3	16	0	0	97	3	2	0	7	0	0	0	0	6	3	1	0	3	1	1	0	1	0	2	0
OTU 197	5	6	1	7	4	6	3	1	4	8	4	1	1	2	7	0	6	0	6	3	0	1	0	1	0	0	5	1	0	4	2	1	0	2	30	1	0	3	3	5	1	5	0	0	0	0	8	3	0	0
OTU 198	0	2	0	0	2	0	0	4	4	0	2	1	0	0	0	0	4	4	0	0	0	0	0	1	0	0	1	0	0	0	0	0	0	0	0	0	0	0	0	0	1	0	3	0	0	0	0	2	0	1
OTU 199	0	3	0	2	0	0	0	2	2	1	0	0	0	0	9	1	0	0	0	0	0	3	5	0	0	0	0	0	0	0	0	0	0	0	1	0	0	0	24	0	0	2	1	0	0	0	0	0	0	0
OTU 200	3	1	0	3	3	3	2	3	0	3	2	1	1	0	0	3	0	0	0	1	0	0	0	0	0	0	1	0	0	0	0	0	0	0	0	0	1	0	1	5	3	1	0	2	0	0	1	1	0	0
