	Host 1	Host 2	Host 3	Host 4	Host 5	Host 6	Host 7	Host 8	Host 9	Host 10	Host 11	Host 12	Host 13	Host 14	Host 15	Host 16	Host 17	Host 18	Host 19	Host 20	Host 21	Host 22	Host 23	Host 24	Host 25	Host 26	Host 27	Host 28	Host 29	Host 30	Host 31	Host 32	Host 33	Host 34	Host 35	Host 36	Host 37	Host 38	Host 39	Host 40	Host 41	Host 42	Host 43	Host 44	Host 45	Host 46	Host 47	Host 48	Host 49	Host 50	
OTU 1	53	118	13	37	61	23	33	24	67	14	30	1	0	13	36	19	46	10	5	1	27	0	6	0	1	0	103	13	7	22	72	0	0	0	167	1	1	52	37	94	4	6	19	25	95	161	67	17	7	1
OTU 2	0	11	10	1	0	11	35	47	2	0	0	10	0	6	1	4	26	15	3	0	9	0	9	0	7	1	27	0	19	1	4	0	0	0	0	0	1	23	11	0	26	7	15	0	14	37	1	7	1	17
OTU 3	0	45	28	0	7	3	10	15	213	64	0	22	4	0	11	0	113	0	0	100	0	2	21	0	10	164	15	0	21	30	31	83	145	0	0	8	22	22	72	42	0	22	50	4	1	28	6	41	7	0
OTU 4	0	0	0	0	0	0	0	0	0	0	0	0	0	0	0	0	0	0	0	0	0	0	0	0	0	1	0	0	8	0	0	0	0	0	0	0	0	0	0	0	0	0	0	0	0	0	0	0	0	0
OTU 5	151	65	76	112	5	849	1138	174	0	180	1260	224	548	818	1021	362	246	9	123	108	318	0	62	0	619	93	355	596	511	55	81	261	45	69	4	397	1373	1010	55	160	10	31	912	467	6	0	563	1364	177	90
OTU 6	0	48	0	1	2	3	7	0	3	2	13	1	0	0	14	7	32	0	10	0	7	89	0	0	5	6	103	0	6	31	4	0	3	27	57	22	1	65	7	0	20	28	7	7	9	54	4	0	173	7
OTU 7	75	20	15	59	68	151	34	139	209	208	141	19	2	92	4	9	92	208	67	27	74	105	8	59	13	10	88	19	31	93	83	4	70	81	198	52	22	514	9	1	126	118	73	2	29	575	2779	92	6	85
OTU 8	20	61	26	259	60	156	152	50	44	24	22	81	22	299	15	8	115	31	69	35	76	162	8	63	2	47	52	35	661	57	46	22	72	19	69	29	100	52	10	415	10	99	10	5	2256	89	1250	76	6	14
OTU 9	290	46	12	786	0	3	2	71	1	5	12	43	1	0	53	12	3	0	14	42	5	27	10	564	47	1	112	15	52	16	0	0	0	13	1	17	13	33	12	1774	8	1	61	32	16	201	0	4	35	0
OTU 10	66	10	3	1	6	152	0	10	9	21	13	17	0	27	19	15	0	0	2	1	51	0	2	173	0	0	7	0	3	1	33	0	2	31	1	14	0	0	19	1	0	4	0	0	3	0	8	3	1	0
OTU 11	185	19	109	25	102	107	53	12	9	61	55	85	1	18	9	1	20	476	50	37	79	94	50	83	15	1	0	12	30	14	81	2	1	3	59	40	4	22	131	32	17	22	35	4	129	62	24	8	57	135
OTU 12	104	105	19	3	182	156	201	121	88	60	13	9	16	210	49	27	103	152	65	111	115	145	11	61	8	61	23	4	3	2	18	1027	1	42	85	45	55	16	60	24	25	2	12	26	58	29	34	49	47	77
OTU 13	19	0	0	0	88	0	1	0	0	0	0	0	0	0	0	19	0	0	0	0	0	4	0	10	0	0	0	3	3	0	0	0	0	0	55	0	0	0	0	0	2	0	0	0	0	5	1	1	0	0
OTU 14	9	0	4	7	0	19	118	11	3	16	0	0	17	7	0	41	1	0	0	33	0	7	1	15	0	93	0	40	12	7	8	84	2	118	1	0	0	5	0	0	5	92	3	0	0	3	9	2	1	0
OTU 15	0	8	1	0	0	0	0	97	6	0	0	0	29	0	0	0	0	0	0	11	0	0	1	0	0	0	0	26	0	0	0	0	0	0	0	3	0	1	0	0	0	0	0	2	0	67	0	0	0	0
OTU 16	0	0	0	0	0	0	0	0	0	0	0	0	1	0	0	0	0	21	0	0	0	0	0	0	0	0	0	0	0	0	7	0	0	0	0	0	0	0	0	0	0	0	0	0	0	0	0	0	0	37
OTU 17	65	50	6	14	254	225	61	27	25	9	8	12	2	36	27	92	15	109	8	160	3	2	4	207	2	33	5	7	19	1	0	16	217	87	502	2870	2	8	4	2	318	44	7	1	1	3	0	0	13	43
OTU 18	3	39	1	67	219	83	4	119	9	16	93	25	560	11	37	53	6	13	3	33	2	18	1	23	33	54	17	891	9	22	39	27	178	68	153	26	0	16	2278	10	54	88	70	9	6	148	2	37	76	56
OTU 19	0	0	0	0	0	0	0	0	0	0	1	0	0	0	0	0	0	0	0	0	0	0	0	0	0	0	0	0	0	0	0	0	0	0	0	0	0	0	0	0	0	0	0	1	0	0	0	0	0	0
OTU 20	0	22	0	11	114	262	105	179	15	180	7	47	46	142	32	57	9	116	30	178	17	115	0	17	30	2	20	60	93	64	107	0	22	191	169	10	4	70	1	36	175	14	34	3	728	26	409	6	29	363
OTU 21	28	28	471	2	127	13	33	60	22	1	17	20	205	94	16	32	7	19	7	123	17	60	249	61	0	2573	26	394	1	61	79	1160	1	168	32	933	47	31	639	40	19	42	4	9	567	18	324	20	1	13
OTU 22	43	1	26	0	64	9	11	28	568	37	31	26	22	25	0	51	111	10	7	19	138	69	15	5	7	110	16	12	5	28	122	41	161	87	412	0	136	27	9	29	55	125	9	13	0	121	567	392	22	3
OTU 23	17	1	5	8	26	0	65	0	6	9	1	77	0	3	0	1	2	0	15	0	1169	27	2	11	2141	91	8	4	23	0	4	52	2	251	17	42	26	37	1	14	5	24	6	2	8	0	1	0	5	3
OTU 24	2	0	0	11	2	0	2	0	53	0	2	37	0	54	0	0	19	19	1	1	8	0	0	9	8	57	29	1	0	118	1	35	26	0	2	1	9	33	10	4	17	35	4	0	10	1	36	17	0	17
OTU 25	0	263	0	20	0	53	0	0	0	0	0	0	1	0	88	0	0	0	2	0	0	0	0	0	0	0	0	0	0	0	0	0	0	0	0	0	0	0	0	40	0	0	0	43	0	0	5	0	0	0
OTU 26	0	0	0	1	5	7	0	0	1	7	0	0	5	0	0	0	0	0	0	0	0	2	0	0	0	0	1	0	52	0	0	0	0	43	1	0	0	0	0	14	3	0	2	0	0	0	0	0	10	4
OTU 27	33	0	0	0	0	0	0	5	0	0	0	0	0	0	0	3	0	0	15	0	0	0	0	0	0	0	1	0	0	4	0	0	0	0	0	0	0	0	0	0	0	0	0	0	0	0	0	0	0	0
OTU 28	20	239	448	314	73	7	3	17	96	246	3	215	51	9	86	102	126	17	15	179	114	2	216	72	125	1	824	168	0	13	49	5	15	4	166	15	16	176	445	437	23	35	153	45	328	1874	778	57	64	29
OTU 29	16	78	39	22	15	4	31	161	31	80	225	164	7	7	34	14	11	51	81	157	26	235	18	69	17	30	5	18	86	1369	31	27	17	13	11	107	11	14	5	1	49	22	37	21	42	38	1	12	89	4
OTU 30	0	0	0	0	0	0	0	0	0	0	0	0	0	0	0	0	0	0	0	0	0	0	0	0	0	0	0	0	0	0	0	0	0	0	0	0	22	0	0	0	3	16	0	0	0	0	0	0	0	0
OTU 31	2	39	0	27	1	2	5	7	7	0	0	16	0	27	27	2	7	75	17	227	1307	0	0	0	0	0	1	6	673	154	4	2	11	28	2	2	11	5	0	17	0	12	12	18	8	1	1	19	57	18
OTU 32	3	38	21	100	41	2	13	40	61	41	7	31	220	46	22	47	47	50	8	91	77	5	12	124	11	43	91	521	189	53	55	29	16	20	84	918	4	24	15	4	5	43	17	16	102	11	31	68	27	10
OTU 33	0	0	17	0	0	1	0	0	0	6	1	0	8	1	1	0	21	0	0	14	0	0	10	38	51	0	1	0	4	0	0	0	0	0	0	0	0	0	0	0	0	0	122	0	0	0	0	7	2	0
OTU 34	0	59	8	7	0	26	61	25	131	16	20	53	65	93	35	20	83	483	10	15	22	59	2	133	12	7	6	6	1	99	2	1	186	9	2	1	823	4	35	27	5	19	19	30	70	48	11	1814	42	306
OTU 35	27	32	0	719	0	43	709	91	70	10	22	44	3	7	0	68	57	9	48	98	38	207	0	19	4	3	124	15	11	185	5	0	14	63	4	8	25	19	4	1412	76	3	2	0	1	55	1	12	98	732
OTU 36	22	32	5	1	10	82	15	13	23	115	11	4	8	34	2	358	34	1	4	77	112	1	0	2	2	30	1	10	8	13	0	6	1	5	3	19	0	1	2	59	78	6	1	10	0	9	12	1	19	3
OTU 37	0	1	0	2	18	0	0	0	2	0	0	0	0	53	1	0	24	0	11	13	0	0	0	0	0	89	0	4	0	10	3	70	0	0	2	59	2	0	0	48	0	35	1	0	19	0	0	2	0	0
OTU 38	127	165	114	20	36	161	107	7	0	0	85	151	0	17	1162	116	12	84	97	1	105	2	57	90	0	3	4	3	32	0	11	2	146	68	21	0	0	5	3	167	42	31	22	596	51	22	34	0	4	102
OTU 39	18	149	2	0	4	10	0	0	3	0	0	19	0	0	37	1	0	0	0	1	0	22	0	0	6	8	0	0	1	10	0	2	2	0	0	0	0	0	1	0	1	3	12	22	0	44	0	3	31	0
OTU 40	8	8	4	65	36	70	112	23	46	38	0	2	11	152	5	14	26	2	7	0	21	22	2	60	21	62	37	16	44	31	28	34	12	57	18	21	0	3	39	28	91	25	28	2	32	18	24	51	194	0
OTU 41	100	304	0	14	9	153	5	85	14	2	405	26	13	11	189	18	8	0	4	12	14	18	0	35	9	42	31	14	23	1	2	37	114	32	208	0	25	13	2	48	3	18	2	97	3	0	3	80	16	242
OTU 42	62	0	9	2	0	0	0	0	46	0	8	0	0	0	0	7	0	12	20	27	1	12	8	72	2	0	3	0	0	5	1	0	0	14	1	2	3	0	0	0	0	4	7	0	0	0	8	25	79	6
OTU 43	0	0	0	0	0	1	0	0	0	0	0	0	2	0	0	0	0	0	0	0	0	0	0	0	0	0	23	0	18	0	0	0	0	0	0	0	0	59	0	3	0	0	0	0	0	0	0	0	0	0
OTU 44	0	0	0	0	19	0	14	0	29	0	0	0	0	1	0	5	0	0	0	32	0	0	0	0	0	1	0	1	0	0	0	0	8	10	40	0	0	0	0	2	0	0	0	0	6	0	5	6	7	6
OTU 45	64	5	34	27	68	25	23	65	2	85	2	11	24	198	5	6	188	60	11	37	17	79	19	106	10	92	74	7	4	13	36	18	31	203	27	14	8	6	14	26	56	192	7	16	54	42	34	31	51	44
OTU 46	35	13	42	51	3	386	19	64	18	39	1104	24	0	28	3	29	40	133	71	114	86	2	18	44	4	12	15	17	36	7	13	4	17	5	28	34	1	19	18	49	29	42	13	1	1	16	0	22	108	20
OTU 47	60	0	0	1	0	2	0	0	1	0	0	0	2	1	0	0	0	0	0	4	0	33	0	1	0	0	22	28	0	5	10	0	2	0	1	2	0	4	3	48	74	0	0	0	0	20	4	1	0	0
OTU 48	34	104	23	16	149	105	53	135	197	6	19	565	268	22	12	14	48	4	302	21	52	135	12	40	0	128	745	512	169	121	1	91	40	128	1	24	15	422	11	20	80	48	4	14	8	8	15	86	1	21
OTU 49	7	2	7	1	0	28	32	28	4	28	13	6	2	0	0	14	12	11	0	147	0	84	4	3	0	25	19	0	76	10	13	0	93	7	19	6	12	0	9	18	23	8	25	0	4	0	1	5	13	23
OTU 50	23	64	6	24	64	44	18	110	34	1118	12	21	15	21	60	23	69	64	13	11	31	31	4	69	442	6	14	7	5	80	24	0	29	0	120	1	29	3	35	53	232	101	663	2573	16	9	11	6	10	13
OTU 51	18	1	2	46	7	113	0	60	2	8	15	76	22	1	3	7	20	37	54	40	1	12	1	39	1	1	0	1	29	1	3	0	10	0	20	0	1	0	9	134	4	71	0	1	7	0	3	16	248	17
OTU 52	59	90	32	24	89	64	41	167	21	1	2	35	13	63	23	42	65	165	156	13	28	134	22	110	4	24	116	6	604	6	133	9	18	89	114	27	60	67	30	91	27	11	13	6	42	4	4	118	148	64
OTU 53	0	6	0	0	0	0	0	11	0	0	0	0	0	0	5	0	4	0	0	0	0	0	0	0	0	0	0	0	0	0	0	0	0	0	0	0	0	0	3	0	3	0	0	0	0	0	0	0	2	0
OTU 54	36	36	59	47	8	10	13	105	39	62	76	50	32	20	13	9	85	57	59	38	117	109	37	70	31	78	42	34	33	71	0	55	68	41	31	55	3	199	79	56	128	34	46	5	75	45	66	48	157	55
OTU 55	1	0	0	0	0	0	0	0	0	0	0	0	0	0	0	0	0	0	0	0	0	0	0	0	0	0	0	0	5	0	0	0	0	0	0	0	0	0	0	0	0	0	0	0	0	0	0	0	0	0
OTU 56	0	60	3	29	59	1	2	0	5	0	1	14	8	9	19	6	34	7	1	4	0	15	3	10	12	20	95	4	0	17	0	9	0	0	62	0	3	78	23	11	14	49	1	21	3	53	7	3	120	3
OTU 57	111	44	140	98	511	510	44	45	126	71	60	100	138	184	70	69	77	328	67	2	19	179	68	133	22	73	188	165	109	120	169	28	13	172	555	39	42	66	97	66	239	63	59	38	145	250	38	30	99	156
OTU 58	15	15	0	0	13	106	73	10	9	0	10	1	17	18	1	0	2	0	5	0	2	28	0	1	2	4	124	0	37	4	0	0	1	0	12	18	0	62	1	6	52	15	0	0	0	49	1	0	56	0
OTU 59	0	81	14	2	77	18	1	0	8	25	0	48	2	101	11	29	360	26	49	62	1	6	8	101	5	0	3	1	68	0	62	0	17	0	33	0	10	0	20	3	0	15	0	2	8	31	15	58	33	13
OTU 60	1	32	8	137	90	50	8	150	97	358	17	54	310	21	60	64	100	85	3	175	44	409	5	91	113	42	798	31	369	0	1	23	47	44	163	40	8	236	69	142	827	57	190	11	0	148	20	30	88	36
OTU 61	1	292	13	11	409	76	12	76	258	164	66	13	16	13	149	241	93	67	33	247	1	80	10	149	21	1	30	14	183	14	207	2	55	63	23	8	62	22	2151	61	205	50	43	67	12	73	9	61	65	42
OTU 62	0	0	5	8	5	0	3	0	6	31	9	0	1	1	0	2	0	0	0	14	0	1	301	0	0	0	2	1	10	12	22	2	2	0	2	3	0	0	2	5	0	0	2	4	0	47	5	8	0	0
OTU 63	60	36	12	23	54	49	49	0	13	3	25	156	2	78	13	25	62	1	0	1	0	2	2	67	0	169	10	38	1	0	19	97	18	195	133	103	35	0	12	10	1	1	4	3	23	4	16	16	68	0
OTU 64	14	22	49	62	35	3	51	22	73	47	47	112	1	108	15	29	62	185	53	49	27	107	31	204	5	0	88	28	11	11	19	1	27	79	20	32	9	46	13	86	158	68	11	9	21	59	10	22	68	30
OTU 65	0	0	0	0	0	0	0	0	0	0	0	8	0	0	0	0	0	0	0	0	0	0	0	0	0	0	0	0	1	1	2	0	0	0	2	0	7	0	0	0	0	11	2	0	0	4	0	0	0	0
OTU 66	37	69	19	4	125	74	12	114	183	11	13	45	4	89	40	42	214	120	5	132	117	21	10	0	5	2	2	10	24	61	53	5	62	12	53	4	27	8	14	87	82	69	15	27	2	37	8	121	8	64
OTU 67	5	71	3	4	30	0	8	18	41	8	1	0	13	5	52	4	36	21	10	132	4	41	1	8	4	18	6	2	62	44	13	7	327	11	2	9	32	8	12	45	43	21	30	18	13	63	1	15	141	1
OTU 68	3	6	34	0	934	0	15	14	56	2	0	9	0	0	2	0	28	2	0	14	97	3	16	23	0	104	2	0	0	138	5	53	49	96	0	38	16	8	70	77	3	17	0	7	39	152	9	18	0	0
OTU 69	6	14	9	87	73	109	10	19	6	9	9	0	10	144	3	0	23	151	11	3	137	3	5	5	17	42	11	7	2	80	163	13	145	5	3	3	7	16	61	97	66	4	11	4	14	16	18	4	7	20
OTU 70	57	39	38	13	0	38	0	7	77	0	24	42	0	27	3	17	23	203	0	0	7	3	16	12	0	72	7	11	0	45	0	17	14	2	5	45	0	16	50	1	1	0	6	0	1	0	2	9	8	69
OTU 71	33	0	0	0	0	155	3	30	91	7	0	0	0	34	0	0	8	17	8	57	16	3	0	69	1	27	2	2	29	20	0	16	4	28	2	1	34	1	12	3	13	6	1	0	9	0	8	83	4	1
OTU 72	136	7	0	8	12	711	8	231	67	11	23	51	126	30	3	0	17	91	11	17	50	3	4560	70	10	1	70	153	67	5	20	0	52	9	6	43	6	124	7	4	38	37	17	10	29	0	4	60	7	80
OTU 73	5	237	23	1	37	131	3	28	69	3	0	3	4	42	106	0	83	27	403	17	35	1	12	92	17	139	205	14	9	5	3	32	19	171	71	4	9	66	19	48	36	19	2	47	25	1	5	27	23	3
OTU 74	33	5	8	6	4	2	232	69	145	14	4	4	5	424	1	6	0	365	2	156	23	35	7	10	20	22	22	1	26	98	7	18	146	29	29	55	401	10	6	7	29	17	39	1	104	10	5	104	22	125
OTU 75	35	2	40	1	58	6	13	249	23	2	47	77	52	10	0	91	112	240	2	0	75	25	23	208	10	275	5	126	34	25	98	123	10	843	451	124	52	10	29	0	167	237	19	4	27	84	21	21	19	116
OTU 76	200	3	1	1	19	69	0	1	0	112	4	8	0	21	501	0	0	22	7	38	4	3	0	160	16	6	6	0	7	0	27	32	81	43	137	0	0	14	0	0	7	7	19	268	1	94	0	3	10	1
OTU 77	106	31	28	83	6	2	25	36	10	46	11	40	76	83	57	44	0	47	6	34	33	7	13	84	14	2	7	51	1	75	11	4	38	20	46	2	1	39	36	115	3	123	22	42	72	40	38	7	11	12
OTU 78	36	52	1	17	6	6	1	112	5	24	58	7	25	47	17	4	3	51	0	18	12	9	1	150	8	97	23	1	43	46	47	45	104	215	1	37	20	8	21	3	39	40	0	4	0	100	4	0	0	6
OTU 79	130	248	115	87	270	105	82	116	44	97	88	213	35	19	102	85	354	186	80	132	274	132	62	214	13	79	1427	51	190	560	131	80	138	488	204	84	75	785	96	121	151	568	55	48	98	361	35	120	88	165
OTU 80	105	61	64	56	14	52	167	155	54	11	2	23	0	57	37	25	5	118	327	175	14	144	36	53	0	44	31	14	0	60	72	11	209	22	38	63	1	62	2	43	36	0	12	34	5	115	6	5	1	22
OTU 81	45	11	247	25	44	61	44	289	151	39	40	54	99	27	31	34	142	155	42	47	14	85	112	132	9	29	34	285	11	1942	43	8	31	13	13	15	188	24	351	47	98	6	22	12	117	19	55	184	1491	75
OTU 82	735	4	17	9	33	37	86	0	15	1	3	0	3	132	2	7	50	26	31	9	135	8	14	1619	1	77	7	2	3	5	13	49	68	141	17	14	13	5	0	155	125	64	3	2	6	2	0	6	210	36
OTU 83	0	2	26	0	4	0	0	0	0	0	0	0	0	14	0	0	0	0	0	91	216	0	9	0	4	41	0	0	14	0	0	25	19	65	0	0	1	0	0	13	18	2	1	0	8	0	0	0	0	0
OTU 84	39	162	21	62	0	1	32	10	47	77	5	5	4	8	74	14	0	10	1	8	60	57	8	27	6	16	38	2	3	0	15	5	1	0	202	0	0	53	24	13	40	83	18	22	0	0	20	0	44	6
OTU 85	4	9	0	26	31	0	19	0	19	1	4	0	2	0	0	6	3	0	0	2	0	0	0	0	1	0	0	25	18	0	2	0	0	0	0	635	28	0	0	17	0	7	0	1	0	97	0	10	28	0
OTU 86	0	0	0	0	7	17	0	32	0	0	29	15	0	4	0	0	0	1	0	59	0	1	0	0	1	0	0	0	0	0	0	0	2	44	0	0	0	0	0	1	0	0	0	0	0	0	1	0	25	0
OTU 87	10	97	0	45	181	3	53	0	4	5	0	6	0	78	74	0	3	12	53	1	1	17	0	1	0	0	1	2	1387	0	2	4	4	0	0	1	0	0	12	4	0	5	31	41	0	11	0	0	72	12
OTU 88	3	0	3	5	1	0	0	6	44	1	0	0	2	5	1	0	16	0	1	30	0	7	0	12	0	4	0	0	0	9	2	0	0	7	4	0	0	0	0	2	10	4	1	0	0	1	0	0	758	0
OTU 89	9	2	12	0	90	0	254	9	1	8	17	49	5	351	0	3	183	178	8	0	0	28	8	0	25	11	2	0	13	0	6	6	9	9	0	6	1	1	0	39	0	16	46	0	1	2	2	3	20	118
OTU 90	0	13	0	2	41	0	5	1	0	13	0	0	0	0	2	0	29	33	0	0	0	28	0	2	3	0	0	5	0	0	0	1	38	5	0	3	10	0	0	0	34	2	7	0	0	2	0	73	0	40
OTU 91	0	0	0	4	27	0	0	0	6	0	0	0	0	5	0	0	34	0	0	1	8	0	0	0	0	0	0	2	0	2	0	0	0	4	88	0	0	0	0	0	122	0	0	0	14	0	0	0	0	0
OTU 92	0	1	4	4	0	0	0	6	22	0	0	27	0	55	0	5	0	41	23	7	0	0	2	0	0	4	1	1	0	4	13	0	5	0	0	1	0	0	0	0	0	3	0	0	0	0	0	11	0	43
OTU 93	0	0	11	0	0	0	99	0	1	0	0	0	0	0	0	22	0	0	0	1	0	0	4	0	0	0	0	0	0	0	0	0	0	5	3	0	1	0	0	3	0	1	0	0	0	0	3	0	2	1
OTU 94	6	45	18	28	6	2	28	1	246	26	1	33	34	9	34	1	120	16	11	124	52	6	4	2	15	1	68	164	49	6	14	2	0	85	10	4	48	12	78	21	16	92	86	10	108	30	60	94	5	0
OTU 95	14	26	0	14	1	29	0	380	1	0	0	38	0	0	7	11	0	0	10	3	0	72	0	8	0	20	10	0	1	207	29	10	54	98	216	0	5	1	0	0	91	64	0	4	0	0	14	0	16	1
OTU 96	0	6	43	0	0	0	0	0	0	0	0	4	0	17	0	10	0	102	0	0	24	0	20	0	9	0	0	1	0	0	0	0	13	0	0	0	1	25	29	0	11	0	15	0	38	2	44	0	18	36
OTU 97	0	0	0	0	0	0	0	11	0	0	0	9	1	30	1	2	45	19	0	20	0	0	0	14	0	0	4	0	0	5	22	0	0	0	1	0	13	0	0	0	5	7	7	0	0	103	1	0	36	3
OTU 98	0	0	5	5	0	8	0	19	2	0	12	0	1	50	0	0	1	0	18	15	0	2	4	4	0	2	0	1	3	0	0	0	69	2	36	0	1096	0	3	29	0	0	0	0	4	1	4	8	43	11
OTU 99	23	72	12	11	55	76	24	341	88	17	19	66	7	10	44	54	19	32	18	56	3	1868	4	18	5	89	73	53	1	44	109	36	0	11	32	24	32	53	1	0	62	101	5	38	75	36	29	66	12	10
OTU 100	2	41	22	8	9	26	0	49	3	2	7	36	7	62	30	0	19	0	26	9	2	53	13	31	0	25	0	8	54	6	1	16	58	64	81	0	33	1	12	0	62	3	0	12	0	24	0	28	0	14
OTU 101	3	0	0	44	5	0	11	3	1	0	78	0	5	6	0	0	11	0	17	0	0	0	0	36	0	10	0	0	0	0	1	0	0	6	0	0	0	0	1	13	4	1	0	1	0	0	4	1	0	0
OTU 102	42	23	54	0	0	10	2	0	129	0	0	0	11	10	3	2	105	2	3402	9	0	2	21	0	0	1	0	0	26	43	1	1	21	51	1	14	7	0	0	14	27	0	0	5	0	0	0	4	7	1
OTU 103	0	151	0	2	71	5	6	5	24	2	17	15	2	2	103	27	6	0	25	1	24	5	0	14	9	63	42	0	11	19	69	41	9	2	2	65	7	21	0	1	52	1471	0	46	0	0	10	1	21	1
OTU 104	46	2	3	7	39	138	20	104	48	18	11	138	26	37	5	74	155	116	0	115	49	26	2	158	4	13	129	32	125	106	32	7	7	41	146	155	8	52	11	0	44	13	33	1	19	295	35	0	26	101
OTU 105	0	34	28	11	2	0	2	0	3	3	0	0	0	0	21	0	0	5	4	1	0	0	11	0	0	0	0	0	10	0	0	0	0	21	1	8	11	0	0	14	0	0	0	8	0	0	3	20	0	0
OTU 106	0	25	0	0	1036	0	11	0	101	2	0	28	1	42	53	460	0	0	41	0	1	0	0	0	0	127	0	0	2	0	0	77	0	0	0	0	33	2	7	0	0	1	0	30	0	0	0	39	0	1
OTU 107	0	42	0	28	7	18	0	0	113	31	1	0	0	122	31	3	0	1	7	4	5	54	0	15	21	6	160	5	0	99	0	3	0	5	0	0	69	64	4	21	0	52	13	5	4	8	6	116	0	48
OTU 108	36	97	9	10	0	0	3	47	2	0	5	3	5	18	41	17	277	87	8	18	11	2	5	32	1	2	5	0	4	48	8	2	44	57	2	0	2	0	6	62	4	0	0	12	30	4	3	1	4	30
OTU 109	1	0	0	0	0	0	0	0	0	3	0	0	5	0	0	0	0	0	0	0	0	0	0	0	0	0	0	0	0	0	0	0	8	0	0	0	0	0	0	0	26	0	0	0	0	0	0	0	0	1
OTU 110	6	139	25	7	33	120	60	120	45	4	2	6	2	13	92	0	0	4	0	0	0	162	10	9	185	39	6	0	95	40	24	25	2	23	0	0	23	60	12	6	27	28	387	52	63	162	16	63	7	15
OTU 111	0	4	15	0	2	0	15	5	5	0	0	0	0	0	0	0	7	42	5	3	0	0	8	0	0	14	2	1	0	0	0	11	0	10	9	0	2	0	0	7	0	0	0	0	0	0	1	17	0	25
OTU 112	2	4	0	10	21	19	1	7	0	7	3	48	10	0	0	0	12	1	0	0	2	1	0	0	7	1	0	69	8	7	7	1	21	5	41	36	0	3	0	5	0	1	31	0	16	10	0	0	16	0
OTU 113	26	11	25	0	3	0	0	0	0	0	0	0	0	4	3	0	0	0	0	34	0	0	10	2	0	0	37	0	0	0	0	0	44	0	0	1	0	1	1	0	1	0	0	0	0	0	0	0	0	0
OTU 114	102	51	6	60	43	44	23	50	548	236	2929	75	8	36	9	35	612	32	15	105	226	29	1	12	19	47	42	15	118	52	1610	14	2	21	10	37	50	50	16	31	126	110	24	19	62	8	16	242	66	27
OTU 115	25	30	70	6	68	55	86	68	12	400	23	78	12	62	6	33	173	27	64	110	223	82	44	76	488	56	134	31	22	13	189	21	58	71	5	4	50	309	9	34	7	34	553	3	19	22	13	0	125	22
OTU 116	253	7	53	1	58	98	0	94	167	28	4	46	114	11	3	2	23	137	36	116	11	27	32	19	12	22	85	2	82	42	23	12	15	221	117	35	19	34	21	39	114	128	43	0	33	52	5	74	11	35
OTU 117	14	0	1	15	68	55	12	55	137	114	1	3	1	27	1	1	189	0	12	2	93	77	0	0	14	174	11	55	75	3	69	142	6	36	9	60	0	0	6	24	7	11	23	6	11	52	6	52	8	0
OTU 118	1	8	0	1	0	1	0	0	53	0	1	0	39	0	0	6	0	0	2	0	4	2	0	12	12	1	3	28	1	0	11	3	0	3	0	0	0	0	0	0	10	0	4	0	4	0	0	1	28	0
OTU 119	3	4	225	74	24	81	56	76	264	9	0	22	4	98	203	4	126	323	15	139	55	124	110	49	0	3	137	52	183	29	84	1	36	12	2	35	80	1072	138	178	26	148	15	132	130	51	72	96	3	75
OTU 120	0	24	1	0	0	1	5	12	66	5	4	42	10	21	21	1	0	0	35	0	0	3	0	0	0	13	0	7	0	9	4	3	6	6	10	0	15	1	32	0	11	3	3	4	5	0	1	4	66	0
OTU 121	18	51	0	7	21	6	1	6	4	25	0	35	7	56	32	101	2	9	38	17	20	4	0	1	40	32	0	0	1	2	15	10	0	46	21	6	2	0	0	5	82	3	15	19	4	34	0	4	19	17
OTU 122	55	217	16	0	67	65	1194	195	20	57	9	14	0	819	81	6	27	7	86	1	54	67	9	1	8	20	5	0	30	0	15	8	16	0	220	2	4	0	13	12	157	30	4	15	2	1	1	4	5	5
OTU 123	68	110	118	254	206	341	92	173	582	51	131	145	45	87	28	16	387	177	241	217	158	287	54	231	35	108	127	88	88	48	204	59	167	126	203	29	139	2423	140	137	340	232	17	22	113	276	111	397	169	73
OTU 124	1	0	0	7	8	0	0	0	9	0	0	0	1	5	0	0	0	39	1	0	3	2	0	0	0	0	11	0	0	0	0	0	14	12	0	0	0	5	16	1	0	118	0	0	0	0	2	0	3	3230
OTU 125	99	224	215	60	29	137	42	85	23	27	49	31	205	103	97	73	149	85	87	658	1246	276	110	84	16	65	55	460	73	131	69	49	85	71	52	47	8	14	114	183	174	519	11	43	209	83	137	8	787	137
OTU 126	0	1	0	5	0	0	22	8	22	24	1	9	10	13	0	0	0	2	1	0	0	0	0	0	13	12	0	0	6	0	10	0	0	0	0	23	0	1	0	0	13	89	10	0	0	1	0	6	2	3
OTU 127	21	13	2031	1	0	2	2	76	1	0	11	16	1	21	19	12	75	0	6	32	6	45	997	19	5	0	24	16	0	9	6	2	6	2	6	2	15	7	0	21	3	2	0	6	1	16	1	0	1	6
OTU 128	184	299	65	68	49	322	72	105	478	102	45	126	123	267	231	247	174	502	63	35	132	101	37	224	29	80	16	256	55	162	200	18	730	41	149	44	116	29	88	259	437	188	45	100	26	115	39	190	216	386
OTU 129	2	0	0	1	13	0	0	14	0	0	0	0	0	0	2	0	0	0	0	1	0	6	0	0	24	45	0	21	0	0	38	10	0	67	0	38	0	0	0	133	11	0	26	4	16	30	1	0	0	2
OTU 130	0	16	4	6	5	1	3	19	36	7	24	339	8	0	5	1	103	5	114	13	21	1	2	15	0	28	78	0	8	162	147	13	19	0	7	56	41	18	10	1	34	49	1	0	38	16	16	46	52	1
OTU 131	9	23	22	5	7	19	0	325	71	31	78	64	0	4	5	4	42	4	101	0	4	7	10	4	59	101	28	1	0	307	44	80	0	21	1	16	1	0	19	50	13	1	87	2	0	0	13	47	10	1
OTU 132	7	17	2	41	0	0	13	19	33	1	74	2	1	5	20	0	12	0	14	3	103	0	1	8	2	0	0	5	23	2	7	1	3	8	20	0	7	0	5	58	0	51	0	17	43	3	3	22	1	2
OTU 133	46	2	7	0	0	0	13	0	12	0	0	1	0	0	0	7	0	0	0	0	0	0	3	0	0	0	41	0	0	0	28	0	3	0	24	0	0	2	3	0	8	2	0	0	6	66	2	0	3	0
OTU 134	29	6	2	15	0	7	48	31	0	25	5	117	28	29	7	23	1	53	41	186	48	18	1	71	9	62	83	23	66	123	36	35	6	12	0	20	25	20	5	7	95	85	52	3	24	5	30	60	75	12
OTU 135	19	16	6	43	1	17	52	116	106	35	0	1	2	6	19	24	2	82	8	4	0	5	165	0	1	31	22	48	0	22	19	12	2	3	37	13	19	7	0	1	72	47	1	0	42	80	7	132	24	48
OTU 136	13	37	7	5	55	98	1	2	10	0	7	88	0	31	15	40	121	1	48	144	67	0	2	13	0	0	0	3	42	0	128	0	102	22	192	21	30	0	72	17	0	0	4	5	23	5	18	221	0	1
OTU 137	10	23	48	40	0	0	0	1	30	0	20	62	3	13	12	0	1	0	0	9	0	7	27	0	0	6	3	0	1	6	12	2	106	2	0	24	27	0	17	0	87	4	0	14	14	72	1	30	412	2
OTU 138	7	12	5	0	10	41	4	0	15	0	0	0	5	0	7	0	0	1	22	9	1	0	3	0	0	70	12	0	50	26	0	38	8	12	30	0	0	0	0	1	0	1	2	3	11	3	0	0	1	0
OTU 139	124	22	75	687	49	156	9	199	111	54	24	90	28	15	2	21	28	34	142	58	38	248	38	136	61	11	19	82	125	18	56	6	19	35	92	13	452	19	58	486	130	28	81	1	12	91	21	783	53	7
OTU 140	26	104	34	69	34	66	1728	155	269	351	425	62	51	16	75	495	305	50	37	234	28	156	22	145	1809	81	45	98	30	53	86	288	2282	73	365	61	1098	12	34	47	73	269	99	26	36	183	5	122	139	21
OTU 141	0	0	0	0	0	2	8	0	0	0	0	0	0	1	0	0	0	0	0	0	0	0	0	0	0	0	0	0	0	0	0	0	0	0	0	0	0	0	0	0	0	0	0	0	0	0	0	0	0	0
OTU 142	0	1	0	0	0	0	0	0	0	0	0	0	0	0	0	0	0	1	0	0	21	12	0	0	0	0	0	0	0	0	0	1	4	11	0	0	0	0	0	0	0	0	0	1	0	0	0	0	59	0
OTU 143	0	0	0	0	18	0	1	0	22	0	0	3	0	0	0	0	0	20	0	117	0	3	0	0	4	0	0	2	7	1	0	0	0	0	28	0	0	0	0	31	0	0	0	0	0	110	0	10	0	3
OTU 144	0	1	14	4	0	0	0	1	0	15	0	2	3	16	0	0	12	0	0	0	0	0	10	0	17	2	2	0	0	0	1	29	0	1	1	1	0	16	0	1	1	0	12	0	0	0	0	5	0	1
OTU 145	31	604	1	6	29	5	54	62	10	15	9	38	45	436	240	2	33	465	5	138	14	94	0	0	14	45	40	29	25	1	34	26	23	121	16	0	3	3	13	4	59	15	105	127	44	36	27	29	572	198
OTU 146	3	55	7	16	21	8	35	0	0	2473	53	44	0	3	2	6	4	52	14	66	31	10	1	115	470	38	60	4	5	0	28	21	70	11	7	18	5	25	50	232	170	16	806	6	55	14	20	2	61	12
OTU 147	1	0	19	2	7	78	65	57	2	7	11	0	7	25	3	2	233	3	0	5	114	0	8	0	4	71	0	1	20	164	129	25	73	7	0	0	2	1	13	0	0	13	5	0	4	5	4	8	0	1
OTU 148	9	120	0	23	48	21	9	1	20	2	20	19	31	131	51	0	2	6	10	3	27	1	0	2	1	626	21	121	18	75	0	256	17	1725	5	309	1	44	2	10	5	0	0	17	18	49	5	0	78	4
OTU 149	41	22	2	11	0	2	1	8	0	1	0	13	0	0	5	0	36	97	0	63	0	0	2	9	10	6	0	0	19	2	1	9	16	31	5	2	3	3	1	0	0	0	77	0	0	1	0	19	5	11
OTU 150	0	1	0	3378	0	0	0	0	20	16	1	0	0	20	0	1	38	1	13	0	5	219	0	12	4	17	14	1	6	0	0	8	15	0	0	18	0	0	6	26	46	61	0	0	59	8	14	0	0	1
OTU 151	0	0	15	13	0	0	0	1	34	14	3	0	6	5	0	14	28	2	11	84	54	25	9	3	6	7	5	8	2	8	14	0	0	27	95	96	14	35	5	84	30	12	6	0	9	23	0	31	7	2
OTU 152	40	89	15	2	28	15	12	183	137	3	70	58	38	84	36	49	3	33	3	13	17	36	9	5	4	67	0	25	21	45	4	39	4	9	1	15	44	0	6	165	31	116	7	30	0	1	3	20	9	3
OTU 153	4	0	0	0	0	42	0	3	0	0	0	0	0	0	0	0	1	13	0	0	0	0	0	0	0	0	0	11	0	0	0	0	0	0	0	0	0	0	0	0	4	0	0	0	0	48	0	0	0	27
OTU 154	3	1	0	0	0	0	0	0	5	0	0	5	0	0	0	0	0	0	4	0	0	3	0	0	471	29	0	0	0	0	0	13	1	20	0	20	0	0	0	0	0	0	696	0	0	0	1	0	5	0
OTU 155	3	1	0	75	0	48	0	20	2	14	22	0	0	1	6	0	3	65	6	2	0	15	0	10	10	0	59	21	13	8	52	0	0	9	4	0	0	2	5	10	0	38	0	0	2	53	1	0	26	46
OTU 156	8	56	37	36	5	20	20	140	28	22	21	46	23	11	45	55	82	28	31	1176	90	35	20	47	18	15	2	2	31	32	6	1	63	106	94	25	6	7	19	27	185	182	0	21	161	29	115	23	26	21
OTU 157	0	0	10	4	38	7	22	0	1	1	0	8	1	153	1	0	18	304	0	0	0	7	3	0	0	9	0	0	0	0	0	4	0	1	32	4	0	0	16	9	10	36	6	1	0	0	0	0	0	245
OTU 158	0	4	0	20	21	9	0	0	0	4	0	0	0	4	0	0	25	0	0	0	0	7	0	0	0	0	0	0	0	3	0	0	0	2	1	1	0	0	0	0	20	0	2	0	0	0	0	0	9	0
OTU 159	0	77	41	1	0	4	446	1	1	0	36	0	23	679	49	44	14	0	16	5	9	15	22	40	0	2	31	34	209	5	0	0	30	11	21	4	15	3	49	0	54	67	1	15	12	34	15	4	0	17
OTU 160	25	344	35	50	251	128	51	136	233	31	38	62	17	197	2395	4378	10	58	53	159	63	135	18	50	5	6	29	31	98	83	105	5	79	181	328	60	1706	23	46	56	72	27	8	1267	59	89	7	70	40	27
OTU 161	449	59	23	6	166	25	57	1	39	10	5	137	4091	48	35	2	65	76	31	50	5	0	12	779	1	32	7	2	0	19	92	20	3	9	60	1	4	0	58	2	26	1	14	24	1301	442	518	2	0	10
OTU 162	2521	208	0	4	59	1	46	44	15	29	8	6	11	15	145	115	10	13	1	36	15	15	0	30	1	14	20	34	82	47	8	1	79	135	2	5	14	7	4	52	77	9	5	41	13	33	0	6	72	0
OTU 163	0	0	0	0	0	0	0	0	0	0	224	0	1	0	0	1	0	1	0	0	0	0	0	0	0	128	0	0	0	0	5	42	0	0	0	0	0	0	0	0	0	0	0	0	0	0	0	0	0	0
OTU 164	0	0	0	0	11	0	0	143	0	0	4	9	0	0	0	9	5	0	0	0	0	0	0	0	6	0	0	0	0	27	0	0	0	0	13	0	0	0	0	1	0	0	0	0	0	17	0	0	17	0
OTU 165	24	13	26	20	1	9	8	23	41	0	39	0	2	29	4	17	22	10	8	0	5	18	9	22	3	9	33	26	0	5	20	3510	20	3	0	13	5	25	0	0	12	0	6	0	0	1	24	0	0	17
OTU 166	0	0	0	1	0	0	0	0	0	0	0	3	0	0	0	0	13	0	0	0	10	0	0	0	0	0	0	0	15	0	0	0	0	0	0	0	0	0	0	0	0	0	0	0	0	0	0	2	0	0
OTU 167	1	11	4	68	0	1	42	125	66	2	1	33	4	30	5	0	47	0	77	67	16	34	2	2	2	0	176	0	90	41	0	3	34	14	12	0	38	58	3	0	37	26	0	10	3	123	2	63	16	2
OTU 168	40	7	33	3	31	40	11	16	24	79	0	16	0	85	23	0	2	63	98	10	0	35	15	37	11	65	4	8	82	1	1	32	21	0	9	0	3	1	0	26	55	68	55	20	0	42	0	0	0	2
OTU 169	17	56	0	10	0	4	11	0	1	0	0	0	1	0	16	13	1	0	0	0	0	0	0	47	0	31	0	0	0	0	0	9	0	0	0	0	0	0	1	0	0	0	0	9	0	9	0	0	19	0
OTU 170	15	0	0	0	0	0	0	0	0	4	0	0	0	0	0	0	0	22	0	0	0	0	0	0	2	0	0	0	0	0	0	0	0	0	0	0	7	3	0	0	2	4	17	0	0	0	0	0	0	0
OTU 171	78	104	7	11	103	583	0	0	139	5	2	13	0	0	40	122	50	3	1	26	0	36	5	77	0	0	0	0	4	8	135	0	1	9	364	15	23	12	4	1	23	9	0	14	1	13	0	48	94	3
OTU 172	2	0	2	0	0	18	0	211	0	0	0	0	0	5	0	29	9	0	0	0	0	0	1	2	16	0	1	0	4	69	0	0	1	0	0	0	1	0	0	0	16	0	5	0	0	0	6	0	0	0
OTU 173	0	73	3	0	0	115	0	10	4	14	14	8	2	4	39	5	97	0	0	20	4	55	1	6	2	4	0	2	29	0	0	0	0	17	2	5	4	4	0	3	1	35	0	18	7	1	0	36	0	0
OTU 174	1	45	2	62	0	4	40	17	11	18	505	15	17	12	22	52	3	109	3	84	3	9	0	2	1	3	5	74	8	1	1179	0	9	4	110	2	5	1	6	0	12	0	2	11	0	4	1	0	53	52
OTU 175	2	28	1	4	40	3	11	2	10	40	30	5	4	67	16	22	59	0	92	6	1	52	0	0	26	22	0	0	2	4	5	13	1	4	0	99	6	3	9	31	2	111	33	4	7	15	14	39	4	6
OTU 176	52	2	0	17	5	2	0	37	46	61	7	74	37	8	8	0	94	36	48	61	2	56	0	55	258	88	72	3	0	154	49	69	7	45	1	5	24	7	4	8	9	80	13	8	18	101	1	18	1	9
OTU 177	853	239	16	21	399	62	82	24	2	26	15	45	8	3	59	104	78	84	83	10	84	69	12	120	14	8	13	8	102	3	19	4	7	64	141	7	0	1	5	24	58	14	38	20	7	46	0	0	10	38
OTU 178	187	1	0	25	5	7	9	31	0	0	32	35	3	24	0	2	14	39	11	0	51	0	0	37	0	29	3	8	7	1	3	11	6	0	26	6	3	0	2	4	6	78	0	0	0	7	0	3	0	38
OTU 179	1	19	0	0	1	0	0	389	106	0	45	12	3	0	24	2	69	7	33	0	52	66	0	1	25	2	0	0	0	154	14	9	86	14	25	14	84	9	7	27	0	16	47	2	11	1	4	142	68	1
OTU 180	29	208	2452	46	469	72	13	74	240	75	35	715	65	7	131	47	245	47	569	396	137	503	1171	62	198	37	66	166	58	138	745	23	205	126	81	199	86	45	83	18	43	198	585	48	88	287	32	149	95	17
OTU 181	16	5	0	6	1	59	49	81	3	1	7	23	4	57	7	3	35	43	0	5	0	2	0	5	21	88	2	20	4	0	12	45	5	12	44	0	11	25	3	98	145	138	16	3	0	14	1	83	8	25
OTU 182	0	3	0	0	0	0	0	0	0	0	0	0	0	0	1	0	15	0	12	0	0	0	0	0	0	0	0	0	0	0	2	0	0	0	23	0	0	2	0	0	0	0	0	0	0	0	0	0	0	0
OTU 183	19	0	0	1	3	28	0	2	6	6	0	21	26	85	0	6	12	2	1	22	86	12	0	0	1	187	4	14	52	12	5	109	27	55	3	11	3	6	5	13	2	0	1	0	3	0	0	0	23	11
OTU 184	2	1	6	5	42	3	14	11	13	39	0	8	0	27	0	2	0	10	0	1	4	43	3	14	0	11	44	0	8	52	3	15	7	0	25	2	3	1	0	6	9	0	13	3	6	4	1	8	0	9
OTU 185	5	35	0	6	36	14	0	6	60	14	10	44	15	8	45	34	21	28	0	40	41	18	0	78	6	177	5	20	40	2	29	68	72	138	9	25	45	2	6	6	170	19	21	12	20	40	1	48	30	28
OTU 186	0	4	60	2	0	127	0	9	0	0	2	3	68	0	0	32	0	2	4	0	0	68	27	0	0	50	1	60	252	0	0	13	1	112	5	43	0	0	150	0	435	1	3	2440	54	0	22	0	0	0
OTU 187	5	670	986	130	74	11	25	83	148	16	8	2409	101	6	286	10	131	36	605	11	28	7	477	58	1	258	52	368	14	78	6	123	147	254	49	39	66	20	826	22	15	86	20	158	1023	18	489	81	251	24
OTU 188	59	16	15	32	143	13	15	59	166	38	0	8	29	12	5	20	79	179	14	34	4	126	11	106	13	56	111	61	66	108	53	20	162	18	31	41	33	20	36	20	16	75	28	1	16	284	25	54	3	151
OTU 189	18	15	4	13	7	13	52	11	117	37	6	20	430	40	1	9	36	59	18	58	80	28	2	152	36	63	60	877	241	85	29	35	85	38	140	14	34	4	10	1	25	166	49	1	59	91	7	55	1	71
OTU 190	0	0	1	0	1	0	37	0	0	0	5	90	0	18	0	2	4	93	16	0	31	0	1	5	1056	46	0	0	0	0	16	38	2	51	5	27	0	1	6	1	10	0	1940	0	0	0	0	0	0	86
OTU 191	33	14	95	2	2	4	11	7	25	22	60	37	1	64	8	4	0	13	29	259	8	105	56	64	1	130	1	5	70	9	49	63	51	2	52	40	8	11	16	10	4	347	1	4	27	4	45	2	17	29
OTU 192	2	155	54	281	50	28	52	490	31	21	38	6	21	181	79	12	24	50	1	16	24	57	29	3	2	108	637	32	55	234	29	43	5	8	40	27	2	259	33	50	257	377	1	24	2	16	287	16	7	66
OTU 193	36	106	7	13	7	80	117	1	29	0	49	183	35	26	58	35	608	46	267	14	59	3	3	11	0	2	1	19	0	18	272	6	81	21	35	540	30	3	4	19	0	14	27	24	18	17	23	21	5	60
OTU 194	6	16	0	1	98	116	17	97	89	963	40	0	0	22	19	5	0	0	1	25	5	88	0	3	209	76	57	0	0	34	840	49	593	69	3	10	30	9	1	0	78	95	318	11	0	43	0	34	44	3
OTU 195	3	55	0	1	0	39	13	47	4	35	21	0	26	16	15	2	0	42	10	52	124	125	0	9	53	3	99	44	120	26	36	2	2	73	34	0	6	33	68	68	36	12	54	11	0	10	1	43	0	27
OTU 196	0	28	6	5	47	4	15	73	2	54	24	34	0	2	24	84	5	8	23	3	12	24	3	78	2	16	0	1	0	22	9	5	29	8	92	10	0	6	77	6	4	9	3	7	14	0	12	0	3	1
OTU 197	101	119	58	9	253	27	31	26	91	22	72	203	738	131	41	152	65	176	227	173	239	137	27	76	5	222	158	1618	164	8	9	141	255	75	452	71	40	75	9	30	405	163	17	25	19	13	12	43	13	98
OTU 198	10	0	4	0	21	1	0	0	17	5	1	5	4	104	0	0	60	6	1	3	1	0	2	1	3	69	0	0	18	7	0	19	0	4	0	2	0	6	2	19	27	0	0	0	0	44	0	0	8	5
OTU 199	0	0	1	11	4	13	55	0	39	30	19	4	26	7	0	3	10	43	2	10	0	24	0	0	0	0	122	35	34	19	5	2	7	0	0	5	8	13	0	44	36	2	0	0	7	0	6	45	12	41
OTU 200	23	117	1	12	8	5	29	3	5	3	1	133	2	3	40	76	32	170	1	48	0	118	0	38	10	41	13	5	85	51	29	40	0	7	36	1	1	0	13	2	210	8	12	19	10	3	0	1	2	64
