	Host 1	Host 2	Host 3	Host 4	Host 5	Host 6	Host 7	Host 8	Host 9	Host 10	Host 11	Host 12	Host 13	Host 14	Host 15	Host 16	Host 17	Host 18	Host 19	Host 20	Host 21	Host 22	Host 23	Host 24	Host 25	Host 26	Host 27	Host 28	Host 29	Host 30	Host 31	Host 32	Host 33	Host 34	Host 35	Host 36	Host 37	Host 38	Host 39	Host 40	Host 41	Host 42	Host 43	Host 44	Host 45	Host 46	Host 47	Host 48	Host 49	Host 50	
OTU 1	3	10	2	9	6	3	5	3	2	3	1	15	1	1	3	2	5	0	4	0	0	15	5	7	0	5	8	8	3	2	1	3	2	0	0	1	1	1	0	12	5	2	0	1	6	7	3	9	4	5
OTU 2	0	2	0	0	0	1	0	3	9	0	0	1	0	1	1	1	2	0	0	0	0	1	0	0	0	1	0	4	1	0	0	0	0	1	0	0	3	0	0	4	0	0	2	0	1	4	0	0	0	0
OTU 3	0	2	0	0	2	0	0	0	0	5	0	0	0	0	0	0	0	0	0	0	0	0	0	3	0	0	0	0	1	0	0	0	0	0	0	3	0	0	0	2	0	0	0	0	0	0	0	0	0	0
OTU 4	0	0	0	0	0	0	0	0	0	0	0	0	0	0	0	0	0	0	0	0	0	0	0	0	0	0	0	0	0	0	0	0	0	0	0	0	0	0	0	0	0	0	0	0	0	0	0	0	0	0
OTU 5	30	0	45	6	4	45	7	0	15	4	36	1	10	4	0	4	40	17	33	23	10	17	4	4	1	16	10	0	18	49	11	20	41	5	0	6	1	2	1	2	6	0	2	52	29	3	39	6	2	12
OTU 6	0	1	0	0	0	0	0	0	2	0	0	0	12	0	0	0	0	0	1	1	2	4	0	0	2	1	0	1	1	0	8	3	0	0	7	0	1	0	0	0	0	1	1	1	0	0	0	0	1	0
OTU 7	3	0	4	6	4	5	1	16	3	12	9	2	7	0	1	0	0	0	17	31	6	0	5	0	0	13	8	1	10	2	17	4	9	3	5	3	0	4	3	23	7	2	2	5	7	7	2	4	1	7
OTU 8	3	5	0	0	2	72	4	1	0	6	0	3	7	7	1	0	6	2	1	3	1	4	2	2	0	1	2	0	0	3	1	1	0	1	1	2	79	4	1	2	0	2	2	4	0	141	3	3	2	2
OTU 9	0	4	0	4	0	0	1	0	0	0	0	0	0	0	3	0	0	0	4	1	5	1	0	0	0	0	39	0	5	0	0	0	0	3	1	0	2	0	0	0	1	2	1	0	0	1	0	0	0	0
OTU 10	1	0	0	0	1	1	0	13	0	5	0	0	0	4	0	0	0	0	5	0	0	1	0	0	0	4	0	0	2	2	3	0	0	0	0	0	2	0	0	23	0	3	0	0	1	2	0	5	53	1
OTU 11	3	0	0	0	0	0	1	0	0	0	0	0	3	5	0	1	0	1	0	2	1	1	0	2	7	1	1	0	0	0	1	0	1	1	2	0	0	1	4	1	0	0	6	0	0	1	0	1	4	0
OTU 12	0	0	1	0	1	0	0	0	3	0	2	2	10	4	0	0	1	0	0	0	4	3	0	0	2	0	0	1	2	0	1	0	1	4	0	1	1	0	0	0	0	1	0	2	3	1	0	4	16	0
OTU 13	0	0	0	0	0	0	0	0	0	1	0	3	0	0	0	0	0	0	0	0	0	0	0	0	0	0	0	0	0	0	0	0	1	0	0	0	0	0	0	0	0	0	0	0	0	0	0	0	0	0
OTU 14	0	0	0	0	0	0	0	0	1	0	0	0	0	0	0	0	0	1	3	1	4	1	0	0	0	0	0	0	0	0	3	0	6	0	0	0	0	0	0	1	0	2	2	0	0	0	0	2	2	0
OTU 15	0	0	0	0	0	0	0	0	3	0	0	0	0	0	0	0	0	0	0	0	0	0	0	0	1	0	0	0	0	0	0	0	0	0	0	0	0	0	0	0	0	0	0	0	0	0	0	0	0	0
OTU 16	0	0	0	0	0	0	0	0	0	0	0	0	0	0	0	0	0	0	0	0	0	0	0	0	0	0	0	0	0	1	0	0	0	0	0	0	0	0	0	0	0	0	0	0	0	0	0	0	0	0
OTU 17	0	1	0	0	0	0	1	0	0	0	0	0	0	2	0	0	0	0	0	0	1	1	1	1	0	0	0	3	3	1	1	0	0	0	1	0	0	1	0	0	0	2	0	1	0	0	0	1	6	0
OTU 18	0	3	2	0	2	11	0	3	3	0	8	0	0	0	2	0	1	0	0	0	0	4	1	3	2	2	0	1	4	7	1	0	1	5	1	5	18	7	2	7	0	4	2	6	1	37	2	0	3	0
OTU 19	0	0	0	0	0	0	0	0	0	0	0	0	0	0	0	0	0	0	0	0	0	0	0	0	0	0	0	0	0	0	0	0	0	0	0	0	0	0	0	0	0	0	0	0	0	0	0	0	0	0
OTU 20	3	2	0	0	0	6	0	6	2	4	0	2	0	1	0	7	0	3	1	0	0	0	0	0	0	4	1	3	1	0	0	0	0	1	1	0	12	0	0	9	0	0	52	1	0	12	0	2	0	2
OTU 21	0	3	10	4	0	0	0	0	1	1	16	0	0	0	1	0	1	2	0	0	1	0	0	5	1	1	1	0	4	0	0	0	20	1	0	0	0	3	4	0	1	1	2	0	0	0	0	2	2	0
OTU 22	2	0	0	0	0	0	0	2	6	2	0	2	10	1	1	0	2	0	0	1	0	0	0	0	4	1	1	3	0	5	0	0	1	91	0	0	0	1	3	0	0	0	3	1	0	0	0	0	0	1
OTU 23	2	0	0	0	0	0	1	0	0	0	0	4	2	0	1	0	0	0	1	0	0	2	1	0	0	0	0	1	0	0	0	2	0	1	6	0	0	0	0	2	3	0	0	0	5	1	9	0	3	1
OTU 24	0	0	0	0	0	0	0	0	0	2	0	2	0	3	2	0	0	0	0	0	1	1	0	0	2	0	3	0	0	0	2	0	0	3	1	0	0	0	0	0	0	0	1	0	0	0	0	0	6	0
OTU 25	0	0	0	0	0	0	0	0	0	0	0	0	3	0	0	0	0	0	2	0	0	3	0	0	0	1	0	0	0	0	0	0	0	0	0	0	0	0	0	0	0	0	0	0	0	0	0	0	0	0
OTU 26	0	0	0	0	0	0	0	0	0	0	0	0	0	0	0	0	0	0	0	0	0	2	0	0	0	0	0	0	0	0	0	0	0	3	1	0	0	2	0	0	0	0	1	14	0	0	5	0	0	0
OTU 27	0	0	0	0	0	0	0	0	0	0	0	0	0	0	0	0	1	0	0	0	0	0	0	0	0	0	0	0	0	0	0	0	0	2	0	0	0	0	0	0	0	0	0	0	0	0	0	0	0	0
OTU 28	1	2	0	3	4	0	1	1	0	1	2	6	2	21	0	2	2	0	0	0	11	5	1	3	118	0	0	1	0	1	7	1	0	0	3	2	1	1	0	5	0	0	4	0	1	0	0	1	0	2
OTU 29	3	0	1	3	1	0	3	0	4	0	0	0	1	0	0	0	2	1	2	0	2	0	0	0	6	0	1	1	0	3	0	0	1	0	3	0	0	2	1	0	3	0	0	0	0	0	3	4	0	0
OTU 30	0	0	0	0	0	0	0	0	0	0	0	0	0	0	4	0	0	0	0	0	0	0	0	0	0	0	0	0	0	0	0	0	0	0	0	0	0	0	0	0	0	1	0	0	0	0	0	0	0	0
OTU 31	12	0	3	25	0	1	0	17	35	6	7	0	0	3	0	0	14	4	24	0	0	1	19	0	0	16	0	0	24	0	9	0	2	0	0	0	2	13	0	19	14	0	0	0	0	3	0	13	0	0
OTU 32	1	0	1	4	1	0	5	1	0	1	1	5	1	6	1	5	2	1	2	0	7	0	2	0	3	0	0	6	2	4	0	0	0	0	3	2	1	0	11	0	0	7	50	0	2	0	0	0	1	0
OTU 33	0	0	0	0	1	0	0	0	0	1	0	0	0	0	0	0	0	0	0	0	0	2	0	0	0	0	0	0	0	0	0	0	0	0	0	0	0	0	0	0	0	1	0	0	0	0	0	0	0	0
OTU 34	61	3	0	2	0	0	3	2	1	3	0	0	6	1	0	1	2	24	0	1	3	0	5	0	1	0	2	1	0	0	4	0	0	2	5	1	2	6	0	2	1	0	0	7	2	2	0	1	3	1
OTU 35	1	0	3	0	2	0	1	0	2	5	19	0	0	0	0	0	0	0	8	1	3	3	0	0	1	2	1	2	0	0	0	5	3	0	0	0	0	3	5	1	0	4	4	0	0	0	0	1	2	7
OTU 36	0	1	1	2	4	0	5	0	2	1	0	10	0	0	0	2	0	3	0	1	2	0	4	3	0	0	1	1	0	0	1	0	0	0	0	0	0	2	1	3	1	1	0	1	0	0	4	2	0	0
OTU 37	0	0	0	0	0	0	0	0	0	0	0	0	0	1	0	0	0	0	0	0	0	0	0	0	0	0	0	0	0	0	0	1	0	1	0	0	0	0	0	0	0	0	0	0	0	0	0	0	0	1
OTU 38	2	10	0	9	10	0	0	9	7	10	1	14	0	6	1	5	9	0	1	0	1	4	1	3	1	4	11	16	2	0	0	46	3	3	0	1	2	7	2	19	5	2	4	0	10	0	0	2	10	11
OTU 39	0	0	0	0	0	0	0	0	0	0	1	1	0	2	1	0	0	0	0	0	0	0	0	0	0	0	1	0	0	0	0	0	0	0	0	0	0	0	0	0	1	3	0	0	0	0	0	1	2	0
OTU 40	0	5	1	3	0	3	6	4	0	1	1	0	3	15	1	3	0	0	2	0	0	0	2	0	0	1	2	0	0	4	7	0	1	0	1	0	1	1	0	3	0	4	0	5	0	1	0	2	0	0
OTU 41	0	0	0	0	0	0	0	0	0	1	0	0	6	0	4	1	0	0	0	0	0	0	0	0	2	0	0	0	0	0	2	0	1	2	0	0	0	0	0	0	0	3	1	1	0	0	0	0	0	1
OTU 42	0	0	16	0	9	0	0	0	0	0	0	15	0	0	52	1	0	0	0	0	0	0	0	0	0	1	0	0	0	0	0	1	0	9	0	0	0	0	4	0	0	82	0	0	7	0	2	0	0	0
OTU 43	0	0	0	0	1	0	0	0	3	0	0	0	0	0	0	0	0	0	0	0	0	0	0	0	0	0	0	0	1	1	0	0	0	0	0	0	0	0	0	0	0	0	0	0	0	0	0	0	0	0
OTU 44	2	0	0	0	0	1	0	3	0	0	0	0	0	0	0	0	0	0	3	0	0	3	0	0	0	0	1	0	0	0	0	0	0	0	0	0	0	0	0	2	0	0	0	0	0	0	0	0	0	0
OTU 45	4	3	1	0	0	1	0	3	1	2	0	0	0	0	6	0	0	0	1	0	1	0	0	0	1	0	0	0	5	4	1	0	0	5	6	1	0	1	2	1	1	1	0	0	2	0	3	1	0	1
OTU 46	2	4	0	1	2	0	0	2	1	5	2	2	0	4	6	0	0	0	2	0	2	0	2	0	22	1	3	7	0	8	7	0	7	0	1	7	0	0	0	2	2	12	5	4	0	0	0	3	0	0
OTU 47	0	2	0	1	0	1	0	0	0	0	0	0	0	1	0	0	1	0	0	0	0	0	0	1	0	0	0	0	0	1	0	0	0	0	0	0	0	0	0	4	0	0	0	0	0	0	0	0	0	0
OTU 48	0	0	0	0	0	0	5	1	1	1	0	2	3	1	3	2	1	3	1	0	8	8	1	1	0	0	3	5	0	0	5	0	2	7	1	0	1	17	2	1	0	0	9	5	6	1	2	2	4	2
OTU 49	0	4	1	0	1	0	1	0	0	0	0	6	2	5	0	0	0	2	0	0	4	0	1	0	1	0	0	0	1	1	0	0	1	0	0	0	0	0	0	0	0	0	1	0	0	0	0	1	2	0
OTU 50	3	1	6	0	0	1	3	1	0	2	0	5	3	5	22	2	1	4	3	0	1	2	0	2	3	0	0	102	0	0	1	18	3	3	0	0	0	0	0	1	0	43	0	0	74	3	0	0	3	43
OTU 51	1	0	0	0	0	0	2	1	22	0	0	0	0	0	0	2	0	1	3	0	0	3	0	0	0	0	0	0	1	0	0	0	1	0	7	0	0	0	0	1	0	0	0	0	0	0	3	1	4	0
OTU 52	9	5	0	2	4	0	0	0	3	0	0	0	3	1	3	0	0	4	5	1	5	0	0	3	3	1	0	1	1	4	0	2	4	1	23	0	0	0	6	4	4	0	5	0	0	1	0	0	0	3
OTU 53	0	0	0	0	0	0	0	0	0	0	0	0	0	0	0	0	0	0	0	0	0	0	0	0	0	0	0	0	0	0	0	0	0	0	0	1	0	0	0	0	0	0	0	0	0	0	0	0	0	0
OTU 54	1	0	0	2	35	2	3	0	3	3	2	75	2	14	2	1	3	1	4	0	5	25	3	0	4	2	2	0	2	4	0	0	0	0	1	0	2	16	0	0	1	3	10	6	1	0	17	2	8	4
OTU 55	0	0	0	0	0	0	0	0	0	0	0	0	0	0	0	0	0	0	0	0	0	0	0	0	0	0	0	0	0	0	0	0	0	0	0	0	0	0	0	0	0	0	0	0	0	0	0	0	0	0
OTU 56	7	0	0	3	0	0	0	0	0	0	0	5	0	0	2	0	1	10	1	2	0	0	4	0	0	0	0	0	9	2	0	0	0	0	0	0	1	0	0	0	0	0	0	0	2	0	0	0	0	0
OTU 57	27	2	2	7	2	1	0	3	0	5	1	6	5	27	2	0	0	15	1	4	3	50	7	4	11	1	3	4	0	0	71	1	1	5	9	1	0	2	1	2	0	4	5	11	3	0	2	2	0	2
OTU 58	0	0	0	0	2	0	0	0	0	2	0	0	0	0	1	0	0	0	0	0	0	0	0	1	2	0	2	4	0	0	1	0	0	0	3	0	4	5	0	0	0	0	0	1	0	0	1	0	0	0
OTU 59	0	3	0	9	5	0	3	0	0	0	0	0	3	4	0	3	0	3	0	4	0	0	3	11	2	0	12	18	1	0	0	2	0	1	0	0	1	0	2	0	6	1	0	1	10	1	0	0	0	0
OTU 60	2	0	6	4	0	0	1	1	2	1	0	2	0	4	2	0	1	1	2	1	2	0	1	0	3	5	1	0	4	8	1	1	5	0	2	0	0	0	0	0	1	3	0	2	0	0	3	89	3	0
OTU 61	3	7	2	2	1	0	7	0	2	0	4	0	0	3	3	2	0	0	7	1	0	6	0	0	1	1	2	1	0	2	1	0	0	9	8	1	0	1	3	0	0	2	1	1	0	0	0	0	1	0
OTU 62	0	0	0	0	5	0	0	0	0	0	0	0	0	0	1	0	0	0	0	2	0	0	0	0	0	0	0	0	0	3	2	18	0	0	0	0	0	0	0	1	1	0	0	2	1	0	1	0	0	42
OTU 63	0	1	1	0	0	0	0	0	3	0	0	0	0	0	1	0	1	4	0	0	1	0	0	1	2	0	4	0	0	0	0	0	0	1	2	0	0	2	0	2	3	1	0	1	0	2	0	0	12	0
OTU 64	0	4	1	1	0	0	0	1	3	0	0	2	4	1	3	1	0	4	2	1	6	2	0	2	2	1	6	8	2	8	2	1	2	0	1	1	0	11	0	2	0	7	7	2	5	0	3	4	5	1
OTU 65	0	0	0	0	0	0	1	0	0	0	0	0	0	0	0	1	0	0	0	0	0	0	0	0	0	0	0	0	0	0	0	0	0	0	0	0	0	0	0	0	0	0	0	0	0	0	0	1	0	0
OTU 66	0	0	0	0	0	0	1	0	2	0	2	1	3	6	1	1	1	0	5	0	0	4	0	1	0	2	2	0	4	0	0	0	3	1	1	0	0	0	6	1	0	0	0	0	0	0	0	0	1	0
OTU 67	0	0	1	2	1	0	0	0	0	1	0	0	0	11	0	0	0	2	0	1	2	5	3	6	2	1	0	0	0	1	0	0	1	0	0	4	0	2	0	0	2	0	0	0	0	1	0	0	11	0
OTU 68	0	1	0	0	0	0	0	0	0	0	0	0	0	0	0	0	0	0	0	0	0	1	1	0	0	0	0	0	0	1	5	0	0	0	1	1	0	0	1	0	0	0	0	2	0	2	0	0	0	0
OTU 69	1	3	2	0	2	0	1	1	0	0	31	0	2	2	0	0	14	1	0	3	0	1	0	0	2	0	0	0	1	2	6	19	3	3	0	2	0	24	1	4	0	0	2	0	3	3	0	0	0	1
OTU 70	0	0	0	0	1	0	0	1	0	0	0	3	0	1	3	2	0	1	0	0	0	0	1	0	2	0	1	1	0	0	1	0	0	0	0	0	0	0	1	1	0	0	0	0	0	0	1	0	0	0
OTU 71	0	0	0	0	0	1	0	0	0	5	0	1	0	0	0	0	0	0	0	0	0	0	0	12	0	0	0	3	0	0	1	0	0	0	1	8	0	0	1	0	0	2	3	2	9	1	0	0	1	5
OTU 72	3	0	2	0	0	0	0	1	0	0	2	1	10	2	0	0	0	1	0	4	3	2	0	0	0	1	0	0	1	1	2	1	1	0	3	0	0	0	0	0	42	0	0	0	0	0	1	0	0	0
OTU 73	0	2	0	1	0	0	2	1	0	2	1	0	1	0	0	2	0	1	0	3	1	0	1	0	0	0	0	0	0	2	0	0	0	0	2	0	1	3	3	0	0	3	1	0	0	2	0	1	0	0
OTU 74	2	9	0	0	0	0	3	0	1	0	0	0	1	7	1	0	0	0	2	3	2	0	1	3	7	1	1	0	0	0	0	0	0	3	0	0	177	0	0	0	0	4	2	0	78	0	0	0	0	1
OTU 75	4	3	1	2	3	0	1	1	4	1	0	0	0	1	0	0	10	5	2	2	2	5	1	0	1	3	0	1	0	6	10	0	3	0	1	0	0	6	1	2	1	1	0	0	0	1	3	5	2	0
OTU 76	0	0	9	1	3	0	0	0	2	0	13	0	0	2	0	166	0	16	13	0	1	1	0	1	1	9	0	0	11	0	0	2	10	0	0	1	0	4	0	0	0	0	0	0	1	0	0	4	0	0
OTU 77	0	0	2	3	0	0	1	0	2	0	1	0	0	0	0	3	0	0	2	0	2	0	1	8	4	0	0	5	6	0	0	15	0	2	1	0	0	0	0	0	2	0	0	1	0	1	2	0	0	22
OTU 78	1	1	0	0	1	0	0	0	1	0	0	1	72	0	0	0	0	4	0	0	7	2	4	94	0	0	0	0	1	0	0	1	0	1	0	37	2	0	0	1	0	1	0	1	0	0	0	10	2	0
OTU 79	1	6	10	7	116	16	6	0	3	1	10	1	27	3	2	2	20	5	0	5	6	13	3	46	3	7	0	2	5	3	2	0	31	15	5	25	1	1	3	1	9	8	0	1	1	1	2	2	2	7
OTU 80	0	0	1	2	0	19	0	1	0	2	3	1	5	0	2	0	0	1	1	0	5	0	0	5	4	2	0	0	2	8	0	2	4	3	0	2	0	0	0	0	2	0	2	1	0	1	0	1	0	2
OTU 81	1	0	0	3	3	0	1	3	0	0	1	4	3	55	0	0	10	2	2	0	0	2	1	0	42	0	0	10	1	1	2	0	0	0	1	32	0	2	0	6	5	2	2	1	2	0	0	7	4	0
OTU 82	0	1	0	0	0	13	3	0	0	1	4	0	0	7	0	0	2	0	1	0	0	6	0	0	0	0	0	1	1	3	0	0	1	4	0	0	11	2	0	0	1	0	1	0	0	16	20	0	0	3
OTU 83	0	0	0	1	0	0	0	0	0	0	1	2	1	0	1	0	1	1	0	1	1	0	0	0	0	0	0	0	0	0	0	0	0	0	2	2	0	2	0	0	0	0	0	0	1	0	0	0	0	1
OTU 84	0	3	4	1	0	0	0	0	0	0	0	0	0	1	0	0	3	0	0	0	2	1	0	0	2	0	0	0	0	1	0	0	3	0	1	0	2	0	0	1	0	2	0	0	0	1	42	0	0	0
OTU 85	0	1	0	0	0	0	0	0	0	0	0	0	4	0	0	0	0	0	0	0	0	0	0	0	0	0	0	0	0	8	0	0	2	1	1	0	0	0	0	0	0	0	1	0	0	0	0	0	0	0
OTU 86	0	0	0	0	0	0	0	0	0	0	0	0	0	1	0	0	0	0	0	0	0	0	0	0	1	0	0	0	0	0	0	0	0	0	0	0	0	0	0	2	0	0	0	0	0	1	0	0	0	0
OTU 87	1	0	0	1	1	0	0	0	0	0	0	0	0	0	0	0	0	0	0	0	0	0	0	0	0	0	0	0	0	0	0	0	0	0	0	0	0	0	0	0	2	0	0	0	0	0	0	0	0	0
OTU 88	0	0	0	0	0	0	0	0	0	0	0	0	0	0	0	0	0	0	0	0	3	0	0	0	0	0	0	0	0	0	0	1	0	0	0	0	0	0	0	0	0	0	0	0	0	0	0	0	0	0
OTU 89	0	0	0	0	1	0	0	0	0	0	50	2	2	0	0	0	0	0	0	0	0	1	0	2	0	0	0	0	0	3	0	0	0	0	0	0	0	0	1	1	2	0	0	0	0	0	0	0	0	0
OTU 90	0	0	0	1	0	0	0	0	2	0	0	0	0	0	0	0	1	0	1	0	0	0	0	0	0	4	0	0	0	0	0	0	0	0	0	0	0	0	0	0	0	0	0	0	0	0	0	0	0	0
OTU 91	0	0	0	0	0	0	0	0	0	0	0	0	0	0	0	0	0	0	0	0	0	0	0	0	0	0	0	2	0	0	0	0	0	0	0	0	0	0	0	0	0	0	0	0	0	0	0	0	0	0
OTU 92	0	2	0	0	0	0	3	0	0	0	0	0	1	0	0	1	1	0	0	0	7	0	0	4	0	0	0	0	0	0	0	0	0	0	0	0	0	0	0	0	1	0	0	0	0	0	3	0	8	0
OTU 93	0	0	0	0	0	0	2	0	0	0	0	0	0	0	0	1	0	0	0	0	0	0	0	0	0	0	0	0	0	0	0	0	0	0	0	0	0	1	0	0	0	0	0	0	0	0	0	4	0	0
OTU 94	16	1	4	3	0	2	0	4	0	17	0	4	3	0	5	0	0	9	12	6	4	0	2	0	9	4	3	0	8	0	17	0	0	5	0	0	1	3	2	8	5	9	0	0	1	4	0	10	5	1
OTU 95	3	1	1	0	0	0	0	0	0	0	0	0	0	0	0	0	0	0	0	1	0	0	0	0	0	0	0	0	1	0	0	0	0	0	0	0	0	0	0	0	0	0	0	0	0	0	4	1	0	2
OTU 96	0	0	0	0	0	1	8	0	0	0	0	0	0	0	0	0	0	0	0	0	0	0	0	0	0	0	0	0	0	0	0	0	0	1	0	0	2	0	0	0	0	0	0	0	0	2	0	0	0	0
OTU 97	0	0	0	1	13	0	7	5	13	0	0	10	0	1	0	7	0	0	0	0	0	4	0	0	0	0	0	0	1	0	2	0	0	1	0	0	0	1	1	1	0	0	2	2	1	0	4	9	0	0
OTU 98	0	0	0	0	0	0	0	0	1	2	0	0	0	0	0	1	0	0	3	0	2	1	19	0	0	1	2	0	1	2	0	0	0	2	6	0	0	0	2	0	0	0	0	0	0	0	0	0	0	0
OTU 99	0	0	1	4	0	0	5	1	2	1	0	0	1	2	1	2	0	2	4	5	0	2	0	1	0	7	1	1	1	3	0	1	0	5	0	1	1	3	4	0	2	3	3	0	0	0	0	0	4	0
OTU 100	0	8	1	0	0	0	0	0	0	0	0	0	0	0	0	0	0	10	0	0	2	0	0	0	0	1	1	1	1	3	1	0	0	1	1	0	0	0	0	0	0	6	3	2	2	1	2	1	0	0
OTU 101	0	1	0	0	0	0	0	0	5	0	0	0	0	0	0	0	0	0	0	0	0	0	0	0	0	0	0	0	3	0	0	0	0	0	0	0	0	0	0	0	0	0	0	0	0	0	0	0	1	0
OTU 102	0	0	1	3	0	2	0	0	0	0	0	2	0	0	0	0	0	0	0	0	0	0	3	0	0	0	0	0	0	0	0	1	1	0	1	0	0	0	0	0	1	0	1	1	1	1	1	0	0	1
OTU 103	0	5	0	1	0	1	0	0	0	1	1	3	2	0	0	0	1	0	0	0	0	0	0	5	0	0	1	16	0	0	2	56	0	0	0	0	0	0	4	0	1	0	1	2	3	1	0	1	0	0
OTU 104	4	5	1	0	0	0	7	0	0	2	0	0	0	1	2	3	2	0	1	0	3	0	0	1	0	0	3	5	4	1	2	2	3	4	3	2	1	0	3	0	0	4	0	2	3	0	1	3	0	3
OTU 105	0	0	0	0	0	1	0	3	0	0	0	0	2	3	0	0	0	0	0	0	1	0	0	0	0	0	0	1	1	2	0	1	0	0	0	0	0	1	0	1	0	0	0	1	0	1	0	2	0	0
OTU 106	0	3	0	4	0	0	0	0	3	0	0	0	0	2	0	1	0	0	0	0	5	0	1	0	0	0	0	0	2	1	0	73	0	0	0	0	0	1	0	0	2	0	3	0	0	0	0	2	0	0
OTU 107	0	0	0	0	0	0	40	0	0	56	0	0	0	0	0	25	0	0	0	2	2	0	0	0	0	0	0	6	5	0	0	3	0	9	0	0	0	0	18	0	0	2	1	0	2	1	2	0	0	3
OTU 108	0	0	0	3	0	1	0	3	2	1	0	0	0	2	0	0	0	3	0	0	0	2	2	0	0	2	93	0	0	0	1	0	0	0	1	0	4	0	0	9	2	1	0	0	0	0	0	2	1	1
OTU 109	0	0	0	0	0	0	0	0	0	0	0	0	0	0	0	0	0	0	0	1	0	0	0	0	0	0	0	0	0	0	0	0	0	0	0	0	0	0	0	0	0	0	0	0	0	0	0	0	0	0
OTU 110	1	1	1	0	2	0	0	0	0	5	0	1	1	1	1	0	2	0	0	0	0	0	0	1	1	0	0	0	0	76	2	1	0	0	0	2	0	3	1	2	0	3	4	0	0	1	0	4	1	3
OTU 111	0	0	0	0	0	0	0	0	0	0	0	0	0	0	0	0	0	0	0	0	0	0	0	0	0	0	0	0	0	2	0	0	0	0	0	0	0	0	0	0	0	0	0	0	0	0	0	0	2	0
OTU 112	1	0	5	0	0	0	2	3	0	0	1	0	0	0	0	0	0	0	4	0	0	0	0	0	0	2	0	4	0	9	0	0	7	2	0	0	0	0	2	1	0	3	0	0	1	1	0	1	0	5
OTU 113	0	0	0	0	0	0	1	0	0	0	0	5	0	0	0	0	0	0	0	0	0	0	0	0	0	0	0	0	0	0	0	0	0	0	0	1	0	0	0	0	0	0	0	0	0	0	0	0	0	1
OTU 114	1	0	3	0	0	2	7	7	79	2	3	1	1	3	0	0	1	3	0	1	34	0	5	10	2	1	0	3	2	0	6	1	0	1	6	3	2	0	2	5	1	0	1	0	1	2	5	5	0	0
OTU 115	1	1	2	2	1	0	0	0	2	8	14	3	1	0	6	1	2	4	3	3	13	0	1	0	0	1	0	0	5	5	2	3	5	1	2	3	0	1	1	1	2	3	0	0	2	0	73	1	1	3
OTU 116	0	20	5	10	2	1	1	4	2	14	3	1	6	0	1	0	0	1	3	3	0	1	9	0	1	3	1	6	6	4	10	1	2	1	9	3	0	2	3	8	113	0	6	0	1	2	1	8	1	1
OTU 117	0	0	0	0	1	0	0	1	1	1	0	0	0	7	5	0	0	0	0	0	1	0	0	3	1	0	1	0	0	1	0	0	0	4	0	0	0	0	0	4	0	12	2	0	0	1	0	0	0	0
OTU 118	0	0	0	0	0	0	0	0	0	1	0	0	0	0	3	0	0	4	0	0	0	0	0	1	0	0	1	0	0	0	0	0	0	0	0	0	0	0	0	0	1	4	0	0	0	0	0	0	2	0
OTU 119	7	0	6	0	0	0	1	0	6	42	0	0	3	1	0	3	1	0	4	3	2	0	0	2	0	0	0	0	3	0	3	0	3	7	1	0	0	2	0	1	4	1	0	0	2	1	6	0	1	0
OTU 120	0	10	0	0	0	0	0	0	0	3	0	0	3	1	0	0	1	1	0	4	2	0	0	0	0	0	0	0	1	0	0	0	0	3	0	0	0	0	0	2	0	0	2	0	0	1	0	1	0	0
OTU 121	0	0	2	0	0	2	0	7	0	0	1	0	1	0	0	0	0	0	1	0	0	0	0	0	0	0	0	2	0	0	0	0	0	5	4	0	0	3	0	8	0	1	2	1	0	4	0	4	0	0
OTU 122	0	0	0	1	0	0	1	0	0	1	3	0	4	0	7	3	0	3	0	0	0	2	1	0	0	0	0	0	0	14	9	0	4	0	0	0	0	0	0	5	3	0	0	2	0	0	0	0	1	0
OTU 123	4	76	3	25	70	3	4	2	3	10	2	23	7	10	3	6	6	101	6	6	10	14	153	2	3	3	8	10	2	9	6	1	16	9	9	2	3	5	3	4	5	3	48	3	29	5	18	6	6	3
OTU 124	0	2	0	0	0	0	0	0	2	0	0	0	0	0	0	0	0	0	1	0	3	0	0	1	0	0	0	0	0	0	0	0	0	0	1	0	0	0	2	0	0	0	0	0	0	0	1	0	0	0
OTU 125	10	2	13	91	6	1	3	5	1	7	6	6	10	15	2	7	0	3	6	5	8	0	48	2	11	2	8	5	2	23	6	2	12	1	3	1	3	7	82	9	51	7	0	6	3	3	3	1	2	8
OTU 126	0	0	0	0	0	0	0	0	0	0	0	0	1	0	0	0	0	0	0	1	0	0	0	0	0	0	1	0	0	1	0	0	0	0	0	0	0	0	0	0	0	2	0	0	0	0	0	0	0	0
OTU 127	0	0	0	3	2	2	1	0	0	0	0	5	0	0	1	1	0	0	0	1	0	0	0	0	0	0	0	1	0	1	2	0	3	3	0	0	0	0	2	3	1	1	0	0	0	0	0	0	0	0
OTU 128	6	8	25	15	3	3	1	5	6	9	2	4	2	6	4	1	2	7	4	24	1	1	5	6	1	1	3	8	20	2	10	2	2	9	5	7	8	1	8	6	19	7	0	0	1	8	2	27	1	2
OTU 129	0	0	0	0	2	1	1	1	0	0	1	0	0	0	1	0	0	0	0	0	0	0	0	0	0	0	0	0	0	0	0	0	0	1	0	0	1	0	0	4	0	1	0	0	0	5	0	0	0	0
OTU 130	2	0	2	1	0	0	4	0	7	0	0	0	1	0	0	3	27	0	2	0	0	0	0	1	0	0	19	0	1	0	3	3	1	0	2	0	0	2	0	0	0	0	3	0	0	0	0	1	0	16
OTU 131	2	0	1	0	1	0	1	0	1	1	1	0	0	3	1	1	0	0	0	0	2	0	0	0	1	3	0	0	0	0	1	0	0	0	0	3	1	0	0	0	0	2	0	0	0	1	0	1	2	1
OTU 132	0	0	0	0	0	0	0	0	0	0	0	0	2	0	0	0	0	0	0	0	0	0	0	0	1	0	3	0	0	2	0	0	2	0	110	0	0	0	0	0	0	0	1	0	0	0	1	0	0	0
OTU 133	0	0	0	0	0	0	0	0	0	0	0	0	1	6	0	0	0	0	0	0	0	0	0	0	0	0	0	0	0	0	0	0	0	0	0	0	0	0	0	0	0	0	0	0	0	0	0	0	0	0
OTU 134	8	2	3	0	1	0	1	0	2	3	1	2	4	0	0	0	0	1	6	3	2	17	0	2	0	0	3	0	1	0	1	0	0	0	4	0	1	0	3	2	0	1	1	1	0	0	6	3	0	0
OTU 135	1	0	0	0	2	0	1	0	0	3	0	3	0	1	0	0	0	0	0	2	3	7	0	1	0	0	1	3	0	0	3	0	0	0	0	0	0	0	0	1	0	0	0	1	2	1	1	2	0	1
OTU 136	0	1	0	0	0	1	0	0	0	0	0	0	1	0	0	0	0	0	0	0	0	0	1	0	0	0	2	1	0	0	1	0	1	3	0	0	1	2	0	0	0	0	0	1	0	0	0	0	1	0
OTU 137	0	2	0	0	0	0	0	0	0	0	0	0	10	1	0	0	2	0	0	0	0	0	0	0	0	0	0	0	0	12	0	0	0	0	0	0	0	0	0	4	0	0	0	0	0	0	0	0	0	0
OTU 138	9	5	0	0	0	1	1	0	1	0	0	0	0	0	2	0	0	0	1	4	0	1	0	2	5	0	0	0	0	0	0	0	0	0	0	2	0	0	1	0	0	3	3	0	1	0	1	0	0	0
OTU 139	1	13	1	3	0	0	4	2	3	0	1	0	1	0	0	1	1	1	6	0	4	1	1	3	1	1	4	0	0	1	5	0	2	27	0	1	0	0	6	2	5	1	0	0	1	0	0	0	29	1
OTU 140	27	3	19	2	1	5	7	17	25	14	17	1	8	10	0	0	0	4	88	21	1	1	0	3	1	16	2	1	40	1	35	1	27	1	0	2	9	3	3	43	1	0	0	3	1	15	0	12	2	1
OTU 141	0	0	0	0	0	0	0	0	0	0	0	0	1	0	0	0	0	0	0	0	0	0	0	0	8	0	0	0	0	0	0	0	2	0	0	0	0	0	0	0	0	0	0	0	0	0	0	0	0	0
OTU 142	0	0	0	0	0	0	0	0	0	0	0	0	0	0	0	0	0	0	0	0	0	0	19	0	0	0	0	0	0	0	0	0	0	0	0	0	0	0	0	0	0	0	0	0	0	0	0	0	0	0
OTU 143	0	0	0	0	0	0	0	1	0	1	0	1	0	0	1	2	0	0	0	0	0	0	0	0	0	0	0	0	3	0	1	0	3	0	0	0	0	0	0	0	0	0	0	0	0	0	1	0	0	0
OTU 144	0	4	3	0	0	0	0	0	0	0	49	0	0	0	0	0	0	0	0	0	0	1	0	0	0	1	0	0	0	0	0	0	0	0	0	0	0	0	1	0	0	0	0	1	0	1	0	0	0	0
OTU 145	2	0	0	1	0	1	5	6	5	0	2	1	2	3	177	4	18	3	0	0	7	5	0	1	6	0	1	0	0	0	2	1	0	1	0	4	0	3	0	0	0	0	1	1	2	2	1	3	0	0
OTU 146	0	0	4	0	0	0	3	0	1	0	0	0	1	4	0	1	0	1	1	0	1	1	0	0	0	0	2	2	0	4	1	0	1	2	1	0	1	0	2	1	0	0	0	2	2	0	0	4	0	0
OTU 147	2	14	0	0	0	1	1	0	0	1	0	0	1	0	0	0	0	4	0	0	0	0	0	0	2	0	0	0	1	0	3	0	0	1	0	0	0	0	0	0	0	0	0	0	1	0	0	0	0	3
OTU 148	2	1	0	0	1	0	0	2	0	0	0	0	1	1	1	0	65	0	1	1	0	0	0	0	2	0	0	0	0	1	5	1	2	3	2	2	0	118	0	1	0	0	0	0	0	0	1	7	1	1
OTU 149	0	1	0	0	0	0	0	0	0	0	0	0	0	0	0	0	0	0	0	0	10	0	0	0	0	1	0	0	0	0	0	0	0	1	1	0	0	1	3	2	0	0	0	0	0	0	5	1	0	0
OTU 150	0	0	0	0	0	0	3	1	0	1	0	0	0	0	0	1	0	0	0	0	0	1	0	0	0	0	0	4	0	0	0	1	0	1	0	0	0	0	3	1	0	0	0	0	0	0	0	0	0	2
OTU 151	0	0	0	2	0	0	4	0	0	0	0	0	0	0	0	3	0	0	0	1	1	1	2	0	0	0	0	2	0	1	0	0	0	0	3	0	0	0	0	0	0	0	1	0	0	0	0	0	0	0
OTU 152	0	6	1	0	4	0	8	2	3	0	1	13	0	5	0	4	0	1	0	1	1	0	0	3	2	0	0	0	1	0	0	0	1	1	0	1	0	0	0	3	0	2	3	0	0	0	0	0	0	0
OTU 153	0	0	0	0	0	0	0	0	0	0	0	0	0	0	0	0	0	0	0	0	0	0	0	0	0	0	0	0	0	0	0	0	0	0	1	0	0	0	0	0	1	0	0	0	0	1	0	0	0	0
OTU 154	0	0	0	0	0	0	1	0	0	2	0	0	3	0	0	0	0	0	0	0	2	0	0	0	0	0	0	0	0	0	0	0	0	0	0	0	0	0	0	0	0	0	0	3	0	0	0	0	3	0
OTU 155	0	0	1	2	3	48	4	1	2	0	0	4	0	0	0	0	0	0	0	0	3	0	0	0	2	0	0	2	0	0	1	0	0	0	0	0	0	0	0	7	1	6	2	0	3	2	0	0	0	0
OTU 156	9	5	0	5	13	2	6	7	7	8	6	32	3	7	3	2	0	2	8	80	1	11	4	2	1	2	5	4	0	3	7	2	3	2	0	5	0	3	1	20	2	8	0	1	1	3	6	6	2	0
OTU 157	0	0	0	0	0	0	0	0	0	0	0	0	0	0	6	1	0	0	0	2	3	0	0	5	0	0	0	12	0	0	4	3	0	0	0	6	0	0	0	0	0	17	0	0	5	0	0	0	26	19
OTU 158	0	0	0	0	0	1	0	0	0	0	0	0	0	0	0	0	0	0	0	0	0	0	0	0	0	0	0	0	0	0	0	0	0	2	0	0	0	0	0	0	0	0	0	0	0	0	0	0	3	0
OTU 159	0	17	0	5	0	0	0	0	1	0	1	1	0	0	0	0	1	0	1	0	0	6	0	0	2	1	0	0	0	4	0	0	0	0	3	0	3	6	0	0	1	0	12	0	0	0	0	1	0	0
OTU 160	14	2	1	1	0	2	109	0	1	0	0	3	10	0	1	67	1	1	2	56	2	2	1	8	0	5	13	6	69	6	8	2	1	9	6	1	2	6	40	1	4	7	0	25	6	3	5	10	6	9
OTU 161	0	2	97	0	0	0	0	0	1	0	0	1	0	4	0	1	0	0	8	0	3	2	0	0	2	0	1	0	0	0	1	0	0	1	1	0	0	1	1	0	0	0	0	1	0	4	1	1	1	1
OTU 162	0	0	0	2	0	0	0	2	1	3	2	3	8	0	1	1	0	0	1	0	1	0	0	58	2	1	1	9	3	1	0	2	7	1	0	23	0	2	5	6	0	6	3	37	1	1	1	0	0	4
OTU 163	0	0	0	0	0	0	0	0	0	0	0	0	0	0	0	0	0	0	0	0	0	0	0	0	0	0	0	1	0	1	0	0	0	0	0	0	0	0	0	0	0	0	0	0	0	0	0	0	0	0
OTU 164	0	3	0	0	0	0	0	0	0	0	0	0	0	0	0	0	0	0	0	0	0	0	0	0	0	0	0	0	0	0	0	0	0	0	0	0	0	0	0	0	1	0	0	0	0	0	0	0	0	0
OTU 165	0	0	31	1	0	0	0	0	1	4	30	1	0	3	0	0	0	0	0	0	0	0	0	1	0	0	1	10	0	0	0	0	64	0	0	0	0	0	0	0	0	0	0	1	0	0	0	0	3	0
OTU 166	0	0	0	0	0	0	0	0	0	0	0	0	0	0	0	0	0	0	0	0	0	0	0	0	0	0	0	0	0	0	0	0	0	0	0	0	0	0	0	0	0	0	1	0	0	0	0	0	0	0
OTU 167	0	0	0	0	0	0	0	0	6	0	1	2	5	0	1	0	1	0	0	1	0	10	0	2	0	0	1	0	0	0	0	0	0	5	0	1	0	0	1	1	4	1	0	0	0	0	1	0	0	0
OTU 168	0	0	0	1	1	0	0	0	1	0	0	0	5	0	1	0	5	0	0	0	3	0	0	0	0	1	1	0	3	2	0	0	0	8	1	1	0	1	0	0	2	0	0	0	0	0	3	0	1	0
OTU 169	0	0	0	0	0	0	0	0	0	0	0	0	0	0	0	0	0	0	0	0	0	0	0	0	0	0	0	0	0	0	0	0	0	0	0	0	0	0	0	0	0	0	0	0	0	0	0	0	0	0
OTU 170	0	0	0	0	0	0	0	0	0	0	0	0	0	0	0	0	0	0	0	0	0	0	0	0	0	0	0	0	0	0	0	0	0	0	0	0	0	0	0	0	0	0	0	0	0	0	0	0	0	0
OTU 171	0	3	1	1	1	2	0	0	0	0	0	1	6	3	1	0	1	0	3	2	0	0	0	0	0	1	0	0	6	1	0	2	0	9	0	154	0	0	1	1	0	3	0	0	0	3	0	0	0	3
OTU 172	0	0	0	0	0	0	0	0	1	0	0	0	0	0	1	0	0	0	0	0	0	0	0	0	2	0	0	0	0	0	0	0	0	2	0	0	0	0	0	0	0	0	0	0	0	0	0	0	0	0
OTU 173	1	0	0	7	0	0	0	1	0	0	0	0	1	3	1	0	0	0	0	0	1	0	1	0	4	0	0	0	0	2	0	1	1	0	1	0	0	1	0	0	4	1	0	0	0	0	0	3	0	2
OTU 174	0	0	0	0	0	0	0	2	1	0	0	0	0	0	0	1	0	0	0	0	0	3	0	0	1	0	1	1	0	0	0	0	1	0	1	0	0	0	0	3	1	0	0	0	1	0	0	1	0	0
OTU 175	1	0	0	1	0	1	0	0	0	0	0	0	0	12	0	1	3	0	0	0	0	22	0	0	1	2	2	0	0	0	1	2	0	0	2	0	0	4	0	0	0	0	0	0	0	0	0	0	0	3
OTU 176	3	1	2	2	0	0	5	1	3	0	0	5	2	1	0	2	0	0	2	0	0	1	0	0	0	1	0	0	6	1	0	7	3	0	1	0	0	1	1	4	0	0	5	1	24	2	0	0	4	7
OTU 177	0	2	1	0	0	0	1	1	0	0	1	3	1	0	2	0	0	0	0	0	1	0	3	0	0	0	6	1	1	0	2	2	7	0	0	0	0	0	0	3	0	0	0	18	0	0	0	0	1	3
OTU 178	0	0	0	0	0	0	0	0	0	0	0	0	0	0	0	0	0	0	0	0	0	0	0	2	3	0	0	0	0	0	0	3	0	0	0	0	2	0	0	0	0	1	0	0	1	0	0	5	0	7
OTU 179	0	2	0	0	0	0	3	0	0	0	0	0	0	0	0	3	0	0	0	30	0	1	0	0	0	0	0	4	32	2	0	45	0	3	0	0	0	0	0	1	0	0	3	0	0	0	1	1	1	66
OTU 180	4	4	0	10	12	1	5	2	8	0	0	8	5	3	4	0	3	1	6	3	55	11	3	2	0	1	6	8	1	8	7	0	0	3	11	4	1	20	86	2	2	4	7	11	2	3	11	2	6	5
OTU 181	0	0	0	2	1	0	1	0	0	0	0	1	0	1	1	0	0	0	0	4	0	0	1	1	4	1	6	10	1	0	4	0	1	0	2	3	0	1	4	0	2	3	0	4	4	1	6	0	20	2
OTU 182	0	0	0	0	0	0	0	0	0	0	0	0	0	0	0	0	0	0	0	1	2	0	0	0	0	0	0	0	0	0	0	0	0	0	0	0	0	0	0	0	0	0	0	0	0	0	0	0	0	0
OTU 183	0	0	2	0	1	0	0	0	0	2	0	0	0	0	0	0	1	40	1	0	0	0	0	3	0	2	3	3	0	0	0	0	2	0	0	0	0	1	0	0	0	0	25	4	1	0	0	9	3	0
OTU 184	0	0	0	1	0	0	3	0	0	1	0	7	0	2	0	0	0	0	0	0	0	0	1	0	1	0	0	0	0	1	1	0	0	1	0	0	0	0	0	0	0	1	0	0	0	0	1	0	0	0
OTU 185	0	0	0	0	1	17	8	2	0	0	2	2	2	2	1	1	0	0	0	0	1	1	0	0	5	1	0	0	0	0	1	0	1	0	6	0	13	0	3	3	0	6	35	0	1	39	0	2	1	1
OTU 186	17	0	0	0	0	0	0	0	8	0	0	0	2	0	1	0	0	9	2	0	1	0	0	0	0	0	0	0	2	0	0	0	0	0	0	0	0	0	0	0	0	0	0	0	0	1	0	0	0	0
OTU 187	1	2	4	0	1	1	2	9	1	0	4	3	7	0	0	1	2	2	6	1	9	3	1	0	2	3	2	0	3	1	2	0	5	0	0	0	0	1	0	17	0	8	0	3	0	3	0	3	1	3
OTU 188	1	5	0	37	0	2	4	1	0	5	3	1	0	1	1	1	2	1	1	0	1	5	19	1	2	1	0	1	2	2	2	0	2	1	5	2	0	0	1	2	18	3	0	1	3	3	12	24	6	3
OTU 189	3	10	0	1	0	0	3	1	0	53	3	4	0	1	0	1	6	1	2	4	22	1	0	1	5	2	0	0	0	0	4	0	3	3	0	0	2	8	1	0	0	1	1	1	0	0	3	1	2	0
OTU 190	0	0	0	1	0	0	0	0	0	0	0	0	0	0	0	0	0	0	0	0	0	0	0	0	0	0	0	0	0	0	1	0	0	3	0	0	0	0	0	0	0	0	0	0	0	0	0	0	0	0
OTU 191	21	6	2	0	0	0	1	0	1	0	0	2	2	3	0	0	0	23	0	0	0	33	0	6	11	0	0	5	0	1	1	2	0	5	0	4	0	0	2	4	0	3	4	1	2	0	2	0	5	3
OTU 192	1	2	2	0	0	3	1	182	1	0	1	1	6	0	3	1	77	0	1	9	7	2	0	1	2	1	1	3	0	1	4	0	3	2	45	0	3	3	7	0	0	1	1	1	4	1	1	1	30	0
OTU 193	0	1	2	1	0	83	0	0	0	0	0	4	1	1	0	0	0	3	0	0	1	0	0	0	0	0	47	0	0	1	0	0	0	4	0	0	0	0	0	0	1	4	0	0	0	0	15	0	1	0
OTU 194	1	0	1	0	0	0	1	0	0	1	2	1	0	1	0	1	1	0	0	0	0	0	0	0	0	1	3	0	0	0	1	0	3	0	0	0	1	3	0	0	0	0	0	0	0	0	0	0	3	0
OTU 195	6	0	2	1	0	1	0	0	0	0	2	0	0	1	0	0	0	0	4	2	2	0	0	3	0	6	0	0	1	7	0	0	2	0	1	0	1	0	1	0	0	0	0	0	0	1	3	0	0	0
OTU 196	0	2	0	0	8	0	0	0	0	0	1	0	0	1	0	1	0	0	1	2	1	0	1	0	0	1	0	0	1	0	1	1	4	4	0	0	0	0	0	0	0	0	3	0	0	0	1	0	0	0
OTU 197	1	12	1	3	0	0	1	0	15	5	0	7	2	4	0	0	2	0	16	0	4	0	0	4	6	10	0	0	9	3	2	0	3	3	7	0	0	10	2	0	1	3	6	7	0	2	2	0	8	0
OTU 198	0	0	0	0	0	0	5	0	0	0	0	0	0	0	0	0	0	0	0	0	1	0	0	0	0	0	0	1	0	0	0	0	0	0	0	0	0	1	0	0	0	0	0	2	0	0	0	0	0	0
OTU 199	0	0	0	2	2	0	1	0	0	0	0	0	1	0	0	0	0	0	0	0	0	4	1	0	2	0	0	0	1	0	2	0	0	0	3	0	1	0	1	0	0	0	0	0	3	0	0	0	0	0
OTU 200	0	1	0	1	0	0	7	0	2	0	0	4	5	0	0	6	1	0	3	0	1	0	0	5	0	189	0	8	0	1	0	0	2	6	2	3	0	2	4	0	0	1	1	99	1	0	4	1	3	2
