	Host 1	Host 2	Host 3	Host 4	Host 5	Host 6	Host 7	Host 8	Host 9	Host 10	Host 11	Host 12	Host 13	Host 14	Host 15	Host 16	Host 17	Host 18	Host 19	Host 20	Host 21	Host 22	Host 23	Host 24	Host 25	Host 26	Host 27	Host 28	Host 29	Host 30	Host 31	Host 32	Host 33	Host 34	Host 35	Host 36	Host 37	Host 38	Host 39	Host 40	Host 41	Host 42	Host 43	Host 44	Host 45	Host 46	Host 47	Host 48	Host 49	Host 50	
OTU 1	0	0	0	0	1	0	0	0	0	3	1	1	0	3	3	1	0	0	2	0	0	2	0	2	0	0	1	2	5	1	0	2	2	5	1	0	0	1	0	0	4	0	0	2	0	2	3	0	1	0
OTU 2	3	0	0	32	1	0	0	2	0	0	2	0	0	0	0	1	0	0	0	0	0	0	0	2	2	0	5	36	6	0	0	0	0	1	0	0	0	0	0	3	0	2	3	3	7	0	0	2	0	2
OTU 3	0	1	0	0	0	0	0	0	1	0	0	0	0	0	1	0	0	0	0	2	0	0	0	0	0	0	0	0	0	0	0	0	0	0	0	0	0	0	0	0	0	1	0	0	1	0	2	1	1	0
OTU 4	0	0	0	0	0	0	0	0	0	0	0	0	0	0	0	0	0	0	0	0	0	0	0	0	0	0	0	0	0	0	0	0	0	0	0	0	0	0	0	0	0	0	0	0	0	0	0	0	0	0
OTU 5	3	0	4	39	2	0	5	31	33	2	17	0	25	7	2	13	46	12	9	1	12	72	4	27	1	10	0	11	0	0	8	2	5	1	17	19	19	36	21	3	1	17	3	0	0	3	7	0	3	2
OTU 6	1	5	0	0	0	0	0	0	0	0	43	3	0	2	1	0	0	1	0	0	6	0	4	5	0	0	0	2	3	1	0	2	1	0	0	5	0	0	74	0	0	0	0	1	1	2	0	0	2	0
OTU 7	7	8	4	0	4	2	7	2	5	6	4	0	5	7	0	0	3	4	1	2	3	4	0	0	4	0	0	1	1	8	2	23	0	5	3	0	2	3	2	2	8	1	4	2	5	0	2	0	1	21
OTU 8	2	6	1	0	0	1	5	1	0	1	1	2	4	1	1	3	3	0	1	2	1	12	0	1	1	0	3	1	1	0	0	0	7	6	0	0	1	1	2	0	5	0	3	1	10	4	0	2	0	1
OTU 9	1	1	0	2	0	0	0	0	1	4	2	2	1	0	0	0	0	0	2	0	0	0	0	0	3	0	0	0	1	0	0	0	0	0	0	0	0	0	0	0	0	5	0	0	1	0	0	0	0	0
OTU 10	0	0	0	0	0	0	12	0	0	0	0	0	1	3	2	0	0	0	0	0	0	75	0	2	9	0	0	0	0	0	0	0	63	0	0	12	0	0	0	3	1	0	0	0	0	1	1	3	0	0
OTU 11	0	0	1	0	1	28	0	0	5	0	0	0	0	1	0	7	1	5	0	0	1	0	0	2	1	0	0	0	0	0	1	0	0	2	0	2	0	0	3	0	0	0	2	0	2	1	0	0	5	3
OTU 12	0	1	0	3	0	1	3	0	1	0	1	0	0	2	0	1	0	1	1	37	79	1	0	1	0	0	7	2	0	3	0	4	0	2	0	2	0	0	2	3	0	0	1	0	10	0	2	4	84	2
OTU 13	0	0	0	0	0	0	0	0	0	0	0	0	0	0	2	0	0	0	0	0	0	0	3	0	8	0	0	0	0	0	0	0	0	0	0	0	0	0	0	0	0	0	4	0	0	0	1	0	0	2
OTU 14	0	1	1	0	0	5	4	0	2	0	0	1	4	0	0	1	1	0	0	0	0	0	0	0	2	1	0	0	0	0	1	0	0	2	0	0	0	0	0	4	0	0	0	0	0	0	0	0	0	0
OTU 15	0	0	0	0	0	0	2	0	0	0	0	0	0	0	0	0	0	0	0	0	0	0	0	0	0	0	0	0	0	0	0	0	2	0	0	0	0	0	0	0	0	0	0	0	0	0	2	0	0	6
OTU 16	0	0	0	0	0	0	0	0	0	0	0	0	0	0	1	0	0	0	0	0	0	0	0	0	0	0	0	0	0	0	0	0	0	0	0	0	0	0	0	0	0	0	0	0	0	0	0	0	0	0
OTU 17	0	0	0	0	0	0	0	1	0	1	1	0	2	0	0	0	1	0	0	2	0	0	2	0	3	0	1	0	0	0	1	0	4	0	1	1	0	0	0	0	0	0	0	0	0	0	1	3	0	0
OTU 18	2	0	1	0	1	0	1	0	0	6	7	0	1	0	0	1	0	1	2	0	1	1	3	0	1	3	1	1	7	0	5	2	2	6	0	0	7	0	29	0	1	0	0	1	1	2	0	0	6	0
OTU 19	0	0	0	0	0	0	0	0	1	0	0	0	0	0	0	0	0	0	0	0	0	0	0	0	0	0	0	0	0	0	0	0	0	0	0	0	0	0	0	0	0	0	0	0	0	0	0	0	0	0
OTU 20	0	1	0	0	2	3	0	0	1	1	1	4	0	3	0	0	0	0	0	1	0	2	3	0	1	3	6	1	0	0	4	0	1	0	0	0	0	0	0	1	1	1	3	0	2	1	5	0	0	4
OTU 21	2	2	0	0	0	0	0	1	1	0	0	0	1	1	2	1	0	0	1	0	0	3	0	3	3	0	2	3	1	0	0	0	1	0	0	1	0	0	1	0	3	0	1	0	0	0	3	3	0	4
OTU 22	4	1	0	2	0	1	4	0	0	0	0	5	0	2	2	4	0	0	5	0	0	0	0	0	0	0	0	3	1	0	0	0	4	2	1	0	0	0	0	0	2	2	1	3	0	0	4	0	0	0
OTU 23	1	0	14	2	0	72	0	0	0	0	16	0	4	0	42	3	0	0	0	0	0	0	0	0	0	2	0	0	2	1	3	2	1	70	0	0	0	0	22	0	0	0	0	49	0	0	6	0	0	0
OTU 24	0	7	163	0	0	0	0	0	1	0	0	18	0	2	0	0	0	0	0	1	0	0	0	0	3	4	0	0	0	0	1	0	0	0	0	0	0	0	0	0	0	0	4	5	1	0	0	0	0	0
OTU 25	0	0	0	0	0	0	0	0	0	0	0	0	0	1	0	0	0	0	0	1	0	0	0	0	0	0	0	0	0	0	1	0	0	0	0	0	0	0	0	0	0	0	0	0	0	0	0	0	0	0
OTU 26	0	0	0	2	0	0	0	0	0	0	0	0	0	0	1	3	0	0	0	0	0	0	0	1	0	1	0	0	0	0	1	0	0	1	0	0	0	0	0	0	0	0	0	0	0	0	1	6	4	0
OTU 27	0	0	0	0	0	0	0	0	0	0	1	0	0	0	0	0	0	0	0	0	0	0	0	0	0	0	0	0	0	0	0	0	0	0	0	0	0	0	0	0	0	0	0	0	0	0	0	0	0	0
OTU 28	9	0	2	1	5	0	0	0	1	8	3	1	2	0	3	1	1	1	6	1	0	0	0	0	4	0	4	0	1	0	2	0	1	1	1	0	0	0	1	0	3	0	1	1	3	0	1	0	1	1
OTU 29	0	0	0	0	0	0	4	1	1	1	0	0	0	1	0	1	32	6	0	6	2	2	10	2	4	0	0	2	0	31	0	67	3	1	0	2	23	87	0	0	161	2	0	0	0	0	0	2	2	7
OTU 30	0	0	0	0	0	0	0	0	0	0	0	0	0	0	0	0	0	0	0	0	0	0	0	0	0	0	0	0	0	0	0	0	0	0	0	0	0	0	0	0	0	0	0	0	0	0	0	0	0	0
OTU 31	1	0	0	0	1	0	0	1	4	0	0	5	0	0	0	0	0	0	4	0	0	0	3	2	0	0	1	1	0	0	0	3	3	0	96	0	0	3	0	0	3	0	0	0	0	1	0	0	0	0
OTU 32	3	4	2	3	7	3	1	0	22	0	1	0	3	9	11	1	4	3	10	5	6	1	18	13	0	0	36	12	1	4	1	3	12	2	4	5	1	24	0	0	10	6	1	0	2	4	2	0	3	1
OTU 33	0	0	0	0	0	0	0	0	0	0	0	1	0	0	0	0	0	0	0	0	0	0	0	0	0	0	0	0	0	0	0	0	0	0	0	0	0	0	0	0	0	0	0	0	0	0	0	0	5	0
OTU 34	4	0	1	0	3	0	0	0	0	2	0	3	5	5	2	0	1	0	0	0	1	0	0	0	0	0	5	0	2	0	0	0	1	0	0	0	0	0	0	1	1	0	0	0	0	0	1	0	0	0
OTU 35	2	1	1	2	4	0	0	0	3	2	8	16	0	0	2	0	0	0	0	0	0	0	0	0	0	1	0	1	2	0	0	0	1	4	1	0	0	0	9	0	0	0	0	3	0	0	1	1	1	1
OTU 36	0	5	0	0	1	0	1	0	1	1	1	0	0	0	1	3	1	2	0	0	0	0	0	0	5	4	0	0	0	0	0	0	0	1	1	0	0	0	0	1	1	3	1	1	0	0	0	0	0	2
OTU 37	9	0	5	0	0	1	0	0	0	0	0	0	0	0	0	0	0	0	0	0	0	0	0	0	5	0	1	1	0	0	0	0	3	0	0	0	0	0	1	1	0	0	33	0	0	0	2	0	1	0
OTU 38	1	6	1	2	3	0	0	1	1	0	6	0	1	0	1	0	0	3	0	0	0	0	0	1	3	2	1	0	1	42	1	0	3	1	0	0	0	0	1	0	1	1	3	1	0	1	1	0	0	1
OTU 39	0	0	0	3	0	0	0	0	0	0	1	0	0	0	0	1	0	0	0	0	0	0	0	3	0	0	3	0	0	0	3	0	1	0	0	1	0	0	0	1	0	0	0	0	1	0	1	0	0	0
OTU 40	0	9	0	0	2	5	0	0	0	1	3	6	8	5	0	0	0	0	27	0	0	0	1	0	11	0	3	0	0	0	1	0	0	0	0	75	0	2	2	0	2	0	5	0	4	0	6	0	0	3
OTU 41	0	0	1	3	2	0	2	1	1	5	0	0	7	1	4	2	0	0	1	1	0	1	0	0	0	0	0	2	0	0	0	0	1	1	0	0	0	1	3	8	2	0	0	8	1	0	0	0	0	0
OTU 42	0	1	0	4	0	0	0	0	0	0	0	0	0	0	0	7	0	0	0	0	0	0	1	0	0	0	1	1	0	0	0	0	2	0	0	0	0	0	0	0	0	1	0	0	5	0	0	0	3	0
OTU 43	0	0	0	0	0	0	91	0	0	0	0	0	0	0	0	0	0	0	0	0	0	0	0	0	0	0	0	0	0	0	0	0	0	0	0	0	0	0	0	46	0	0	1	1	0	0	0	0	0	0
OTU 44	0	0	0	0	1	0	0	0	0	0	0	0	0	0	5	0	0	0	0	0	0	0	0	0	0	0	0	0	0	0	0	0	0	0	0	0	0	0	0	0	0	0	1	0	0	0	69	0	0	0
OTU 45	4	1	1	0	3	1	0	1	0	3	0	5	3	0	0	4	0	0	0	1	0	0	3	1	2	2	7	1	0	0	0	0	0	6	1	0	0	0	1	0	1	0	0	3	2	1	0	1	1	1
OTU 46	19	3	6	0	1	3	3	8	0	0	0	0	1	0	3	3	0	3	0	0	0	0	4	1	0	6	0	3	0	0	0	0	0	4	0	0	0	0	2	0	1	0	6	2	42	1	0	22	0	6
OTU 47	0	0	0	0	0	0	0	0	0	0	0	1	2	0	0	3	0	1	0	0	0	0	2	0	0	0	0	0	0	0	0	0	0	0	0	1	0	0	0	0	0	0	0	0	0	0	0	5	0	0
OTU 48	1	2	0	0	4	0	0	55	1	4	0	2	1	3	0	2	0	1	0	0	3	0	3	1	1	0	3	0	0	0	0	1	0	0	0	2	1	2	1	0	0	0	1	0	1	124	2	0	0	0
OTU 49	1	0	2	0	10	0	0	0	3	0	0	1	0	0	0	0	0	0	0	0	1	0	0	0	0	0	1	0	1	0	0	0	7	2	0	0	0	0	0	0	0	2	6	2	0	0	0	1	1	1
OTU 50	4	0	0	1	1	0	3	1	0	3	0	0	1	5	0	0	0	2	1	2	1	0	2	3	1	0	1	5	1	0	10	0	0	0	0	1	0	0	1	0	5	3	0	1	0	1	2	2	2	0
OTU 51	0	1	5	5	0	0	17	0	14	3	0	0	0	0	0	0	44	0	1	0	0	0	0	0	2	0	0	0	1	0	3	0	0	5	0	0	16	58	0	4	3	3	1	1	0	0	0	1	0	7
OTU 52	0	2	4	0	36	2	2	0	3	7	0	7	0	5	0	0	1	1	26	1	2	6	53	1	6	0	5	1	0	1	0	0	1	4	2	1	0	1	2	3	0	2	0	3	2	1	4	3	1	4
OTU 53	0	0	0	0	0	0	0	0	0	0	0	0	0	0	0	0	0	0	0	0	0	0	0	0	0	0	0	0	0	0	0	0	0	0	0	0	0	1	0	0	0	0	0	0	0	0	0	0	0	0
OTU 54	6	0	2	0	12	0	0	1	1	2	0	1	14	0	3	5	0	0	4	44	1	0	4	1	3	0	1	0	0	0	2	0	2	1	2	0	1	0	1	1	1	2	0	0	2	2	0	2	71	10
OTU 55	0	0	0	0	0	0	0	0	0	0	0	0	0	0	0	0	0	0	0	0	0	0	0	0	0	0	0	0	0	0	0	0	0	0	0	0	0	0	0	0	0	0	0	0	0	0	0	0	0	0
OTU 56	0	0	0	5	3	0	0	0	0	0	0	0	0	0	0	0	0	0	0	0	0	0	0	0	0	0	0	0	0	0	0	0	0	0	0	0	0	0	0	0	0	0	0	1	0	1	2	0	0	1
OTU 57	9	4	0	2	2	3	7	3	0	0	1	11	13	2	3	5	0	2	19	0	2	2	32	2	7	0	5	32	0	1	1	1	2	1	1	1	0	1	0	1	1	1	14	7	4	4	14	1	1	2
OTU 58	0	1	0	0	0	1	2	0	0	3	1	0	0	3	3	0	1	0	0	4	4	3	0	3	6	3	0	0	0	0	0	0	0	0	0	0	0	0	3	0	0	2	0	0	0	0	2	2	0	0
OTU 59	0	0	0	1	0	2	1	2	0	1	1	3	3	0	1	1	0	5	0	2	0	0	0	52	0	0	0	0	0	2	0	1	0	4	2	27	0	0	0	0	1	0	3	0	0	0	3	0	0	0
OTU 60	1	1	0	1	1	1	2	1	1	0	0	2	5	0	1	2	0	0	0	1	0	0	9	36	2	1	1	1	2	2	3	3	1	1	2	10	0	0	0	1	1	0	4	2	13	1	2	0	5	2
OTU 61	1	2	0	14	3	8	2	0	5	1	0	4	4	4	2	3	4	7	0	8	7	7	3	1	4	2	2	10	1	3	13	10	3	1	4	1	1	6	0	1	3	17	1	60	1	0	1	1	3	3
OTU 62	0	6	0	0	0	0	0	0	0	0	2	0	0	0	0	0	0	0	0	0	0	0	0	0	0	2	0	0	2	0	0	0	0	0	0	0	0	0	17	0	2	0	2	0	1	2	0	0	0	0
OTU 63	0	1	0	0	1	0	2	20	0	1	4	0	1	0	143	0	0	0	0	0	1	0	0	1	1	0	0	1	0	0	0	0	0	0	0	0	0	0	1	0	0	0	0	0	0	25	0	0	0	1
OTU 64	5	67	1	2	0	1	0	0	2	4	0	110	0	7	4	4	1	2	1	1	0	2	3	1	1	19	0	60	2	0	1	1	0	1	0	0	0	0	5	1	2	0	0	0	9	0	3	23	11	0
OTU 65	0	0	0	0	0	0	0	0	0	0	0	0	0	0	0	0	0	0	0	0	0	0	0	0	0	0	0	0	0	0	0	0	0	0	0	0	0	0	0	0	0	0	0	0	0	0	0	2	0	0
OTU 66	4	4	1	0	3	0	0	1	0	3	1	3	2	2	3	6	2	2	0	166	3	1	0	0	1	6	3	0	0	3	0	3	1	1	8	0	1	1	3	1	4	0	3	1	3	2	2	3	0	1
OTU 67	0	1	0	0	2	5	2	0	1	1	0	1	10	0	0	0	0	2	0	0	4	2	2	0	1	0	1	0	0	0	0	1	0	1	0	0	0	0	0	0	2	0	10	7	2	0	0	1	1	0
OTU 68	1	0	0	0	0	0	0	0	0	0	0	0	0	0	0	2	0	0	0	0	0	0	0	0	0	0	0	0	5	0	0	0	1	0	0	0	0	0	0	1	0	0	0	0	1	0	0	0	0	0
OTU 69	3	0	18	0	2	24	1	1	0	2	16	1	2	0	22	0	0	2	1	0	0	0	2	1	0	0	3	1	0	3	0	0	1	47	0	0	0	1	20	0	0	0	1	22	4	0	8	8	0	0
OTU 70	0	0	0	0	0	2	0	32	1	0	0	1	1	0	4	0	6	0	0	0	0	1	0	1	0	1	5	0	0	1	1	9	0	1	0	0	7	7	1	0	23	0	0	0	0	1	0	0	0	0
OTU 71	1	0	0	1	0	0	0	0	0	2	0	1	0	0	1	17	0	0	1	0	0	0	2	0	1	0	1	1	0	0	0	0	1	1	0	0	0	0	0	3	3	0	3	0	0	0	0	3	0	0
OTU 72	12	1	5	12	0	0	0	0	1	0	4	0	0	30	1	2	0	17	0	2	10	16	0	0	2	2	4	2	0	0	1	0	3	1	19	2	0	1	14	2	0	14	2	1	5	1	2	1	0	4
OTU 73	8	0	0	0	0	1	0	0	0	5	0	1	0	1	1	0	0	0	1	0	0	2	2	1	3	2	0	1	0	0	0	0	0	1	0	0	0	0	13	0	0	1	0	0	10	3	0	0	5	6
OTU 74	0	2	2	1	0	0	10	2	1	4	0	0	11	40	0	1	1	0	1	0	18	14	0	0	14	0	3	0	2	0	6	1	0	0	0	1	1	1	0	5	2	0	0	0	1	3	0	1	4	0
OTU 75	3	4	1	0	0	3	0	6	0	0	0	0	4	3	0	2	0	10	9	24	1	0	16	7	19	3	7	1	0	1	2	1	5	3	0	4	0	0	0	3	0	0	0	0	0	9	6	1	32	0
OTU 76	0	1	0	0	0	1	0	0	1	0	0	0	0	0	0	0	0	0	0	0	1	0	0	0	0	0	4	0	0	0	0	0	0	0	0	0	0	0	5	0	0	1	1	1	0	0	0	2	0	0
OTU 77	2	0	8	2	2	1	1	1	2	1	0	5	1	0	0	2	0	1	7	1	1	0	3	2	0	1	2	1	2	0	0	1	1	7	0	0	0	0	0	0	0	1	0	2	1	0	2	3	0	0
OTU 78	0	2	3	0	2	0	3	0	0	25	0	1	1	1	0	0	2	1	0	0	2	0	0	0	3	0	0	0	0	0	12	0	0	4	0	0	0	0	1	0	0	0	0	0	0	0	1	6	2	0
OTU 79	7	3	17	13	3	4	7	1	17	6	1	0	13	17	0	2	0	23	5	2	14	8	26	3	16	1	10	0	2	2	3	0	5	2	9	4	1	2	4	3	7	11	3	2	10	6	9	0	4	3
OTU 80	0	2	4	0	1	0	0	5	3	5	0	10	2	0	1	4	14	0	1	4	3	0	10	7	3	1	8	81	2	21	2	24	5	2	1	3	4	33	1	1	52	0	4	0	1	1	1	1	11	1
OTU 81	10	134	2	0	0	1	9	0	1	1	1	0	1	0	0	1	3	18	0	1	0	1	5	3	2	65	3	2	48	0	24	1	8	0	0	1	0	1	2	1	5	0	0	1	9	1	3	2	0	0
OTU 82	4	0	1	0	0	5	11	1	0	1	5	4	0	0	0	0	0	0	2	0	0	0	0	0	1	0	0	2	0	0	0	0	0	0	1	0	0	2	0	7	3	0	0	1	0	0	6	0	0	8
OTU 83	0	0	0	0	2	0	0	1	0	0	0	0	0	0	0	2	0	0	89	0	2	0	0	0	0	0	2	0	0	0	0	0	0	1	0	0	0	0	0	0	0	0	0	0	0	1	1	0	0	0
OTU 84	2	0	14	0	1	8	0	0	1	2	2	1	1	0	6	0	0	0	2	0	0	1	0	5	0	0	0	0	1	0	0	0	0	29	1	5	0	0	14	1	0	1	0	6	2	1	0	0	0	0
OTU 85	0	1	6	0	0	0	0	0	0	0	0	0	0	0	0	0	0	0	0	0	0	1	1	0	1	0	1	0	0	0	1	1	0	3	0	0	0	0	0	0	0	0	0	0	0	0	0	0	0	0
OTU 86	0	0	0	0	0	0	0	0	0	0	0	0	0	0	0	0	0	0	0	0	0	0	0	0	0	0	0	0	0	0	0	0	0	0	0	0	0	0	0	0	0	0	0	0	0	0	0	0	0	0
OTU 87	1	0	0	0	4	1	2	0	0	0	0	0	0	0	2	1	0	1	1	0	0	0	2	0	0	0	0	1	162	0	3	0	0	1	0	0	0	1	0	1	0	1	0	0	0	0	0	5	0	6
OTU 88	0	0	0	2	0	0	0	0	0	0	0	0	0	0	0	1	0	0	0	0	0	0	2	1	0	0	0	0	0	0	0	0	0	1	0	0	0	0	0	0	0	0	0	0	0	0	0	1	0	0
OTU 89	0	1	2	0	5	0	0	0	0	1	0	0	2	0	0	0	0	3	0	0	0	0	1	0	1	1	0	0	0	0	0	0	1	1	0	0	0	0	0	1	0	0	0	0	0	0	0	0	0	1
OTU 90	0	1	0	0	0	0	0	1	0	1	0	1	0	0	0	0	0	0	0	0	0	0	0	0	0	0	0	0	1	0	0	0	0	0	0	0	0	0	0	0	0	0	0	0	0	0	0	0	0	0
OTU 91	0	0	0	0	0	0	0	0	0	1	1	0	0	0	0	0	0	0	0	0	0	0	0	0	0	0	0	0	0	0	2	0	0	1	0	0	0	0	0	0	0	0	0	0	0	0	0	0	0	0
OTU 92	5	0	0	0	5	0	0	0	0	0	0	0	0	0	0	0	0	1	0	1	0	1	0	1	3	0	1	0	0	0	1	0	0	1	0	0	0	0	0	0	0	0	0	0	0	0	0	0	0	1
OTU 93	1	0	0	0	1	0	0	0	0	0	0	0	0	0	0	0	0	0	0	0	0	0	0	0	0	0	1	0	1	0	0	0	4	2	0	0	0	0	0	0	0	0	0	0	0	0	0	0	0	0
OTU 94	5	1	0	0	1	1	0	1	1	0	0	10	1	0	0	0	0	3	2	1	4	0	5	0	2	0	9	0	0	0	1	0	7	2	0	1	0	0	0	1	0	1	9	0	0	3	0	0	6	2
OTU 95	0	0	0	0	0	0	0	0	0	50	1	0	1	0	0	0	0	0	0	0	0	1	0	0	1	0	0	0	0	0	24	0	0	1	0	0	0	0	2	0	0	0	0	101	6	0	0	0	0	0
OTU 96	0	0	0	0	1	0	0	0	0	0	0	0	0	0	0	0	0	0	0	0	0	0	0	0	0	0	0	0	0	0	0	0	0	0	0	0	0	0	0	0	0	0	2	0	0	0	0	0	0	0
OTU 97	0	0	0	0	0	13	1	0	0	0	0	0	0	0	0	0	0	1	0	0	0	0	0	0	0	0	0	3	0	0	1	3	1	0	0	1	0	2	0	0	1	0	0	0	0	0	0	0	1	0
OTU 98	0	0	0	0	0	1	0	1	4	0	0	0	0	0	0	0	0	1	0	0	0	0	0	3	1	2	0	4	2	0	0	0	1	0	0	6	0	0	0	0	0	0	0	0	5	0	1	0	0	0
OTU 99	2	1	1	0	0	2	0	2	16	3	0	0	5	0	0	9	47	1	1	1	0	0	3	3	3	0	1	1	4	0	2	0	0	0	2	3	26	0	2	1	0	5	4	6	4	2	2	4	1	5
OTU 100	0	5	3	2	2	1	4	0	0	1	0	1	6	0	0	1	0	0	0	0	0	0	0	3	9	4	3	1	1	0	1	0	0	2	0	1	0	0	0	2	0	0	0	0	0	3	0	2	0	29
OTU 101	4	0	0	0	1	0	1	0	0	0	0	0	0	0	1	0	0	0	0	0	0	5	0	0	2	0	0	0	0	0	1	0	5	0	0	0	0	0	0	1	0	0	0	0	0	0	1	0	0	0
OTU 102	0	0	0	0	0	0	0	0	0	0	0	1	6	0	1	0	1	0	0	0	0	0	2	0	0	0	0	0	0	0	2	0	1	0	1	0	0	1	0	0	0	9	0	0	0	0	0	0	1	0
OTU 103	1	5	0	0	0	0	2	0	0	6	0	1	0	0	2	2	0	139	0	2	0	0	0	2	1	2	0	3	0	0	0	0	0	1	0	0	0	0	0	0	0	0	2	0	0	0	11	6	3	0
OTU 104	43	0	1	0	11	2	0	2	0	0	2	2	3	1	7	0	0	0	2	0	3	2	1	0	0	0	7	5	1	2	0	2	2	1	3	1	0	0	2	0	1	0	27	1	16	1	1	2	2	0
OTU 105	0	1	0	0	0	0	0	2	1	0	1	0	0	1	0	0	0	0	3	0	0	0	11	4	0	0	5	0	0	1	0	4	0	0	1	1	0	0	0	0	0	0	0	0	0	2	0	0	0	2
OTU 106	0	0	0	3	0	0	0	0	2	0	0	0	0	0	0	0	0	0	5	0	0	0	0	0	0	0	7	0	0	0	0	0	7	0	0	0	0	0	0	0	0	0	0	0	5	0	0	0	0	0
OTU 107	1	0	0	0	0	1	0	0	1	0	0	0	0	0	0	0	0	0	0	0	0	0	0	0	4	0	0	0	0	0	0	0	1	1	0	0	0	0	0	0	1	0	0	0	0	0	0	19	0	0
OTU 108	0	0	0	1	1	0	0	0	1	1	0	2	0	1	1	0	0	4	1	1	0	0	1	0	0	1	2	0	1	0	0	0	0	1	1	0	0	0	3	3	0	1	0	2	8	0	0	3	0	0
OTU 109	0	0	0	0	0	0	0	0	0	0	0	0	0	0	0	0	0	0	0	0	0	0	0	0	0	0	0	0	0	0	0	0	0	0	0	0	0	0	0	0	0	0	0	0	0	0	0	0	0	0
OTU 110	3	0	0	2	3	1	1	0	13	2	1	3	4	1	1	1	1	3	0	0	1	1	0	4	0	0	14	0	0	0	0	1	8	0	6	3	0	0	0	3	0	23	0	3	3	1	0	3	0	5
OTU 111	0	0	0	0	0	0	0	0	0	0	0	1	9	0	0	0	0	0	0	0	0	0	0	0	0	0	1	1	0	0	0	0	0	0	0	0	0	0	0	0	0	0	0	0	0	0	0	0	0	0
OTU 112	0	0	0	1	0	0	0	17	0	0	0	1	2	4	0	0	0	0	0	0	2	1	0	64	0	0	0	0	0	0	0	0	0	2	0	28	0	0	0	0	0	0	1	0	0	62	1	1	0	2
OTU 113	0	0	0	0	0	0	0	0	0	0	0	0	0	0	0	0	0	0	0	0	0	0	0	0	0	0	0	1	0	0	0	0	1	1	0	0	0	0	0	0	0	0	0	0	0	0	0	0	0	0
OTU 114	7	1	3	1	5	0	1	0	5	11	1	6	3	2	1	6	0	2	2	0	1	0	5	4	0	1	6	1	0	1	10	1	68	1	4	5	1	1	1	1	1	2	18	0	7	1	0	1	0	0
OTU 115	1	2	5	0	3	1	4	1	0	2	0	2	1	6	1	16	0	0	10	0	4	43	2	2	8	0	3	1	0	1	4	1	0	8	1	1	0	0	0	3	0	1	1	0	4	9	0	3	0	0
OTU 116	0	1	2	0	3	0	2	3	0	0	0	2	1	9	0	1	1	0	0	0	0	3	1	0	3	0	0	3	0	0	6	1	0	10	0	1	0	1	3	1	1	0	3	4	2	10	1	0	3	2
OTU 117	0	0	1	0	0	2	2	2	2	1	0	0	1	0	1	2	0	0	3	2	2	0	2	1	2	0	1	0	1	0	1	0	0	0	0	0	0	0	4	1	0	0	0	1	0	2	0	0	1	0
OTU 118	0	0	2	0	2	0	0	0	0	0	0	0	0	0	0	0	2	0	2	0	0	0	0	2	0	0	0	0	0	0	3	0	0	3	0	2	0	0	0	0	0	0	1	2	1	2	0	2	0	0
OTU 119	5	2	0	0	4	2	3	0	0	1	0	0	7	0	1	0	0	5	0	4	1	0	3	3	1	3	0	0	4	0	0	0	0	1	1	0	41	0	0	3	0	1	0	0	4	2	0	3	0	1
OTU 120	0	1	13	0	0	0	0	0	0	4	0	1	0	0	4	2	2	0	0	0	0	0	0	0	3	0	0	0	0	0	0	0	0	11	0	0	1	0	15	0	0	2	1	14	0	0	0	0	0	0
OTU 121	0	0	0	1	0	0	0	0	2	0	0	2	0	0	0	7	0	0	0	2	0	0	1	3	2	0	3	2	0	164	0	0	0	0	0	2	0	1	0	0	2	0	1	0	0	1	0	0	0	0
OTU 122	0	0	1	3	0	2	0	0	0	1	0	0	0	0	0	2	0	1	0	0	2	1	1	0	5	0	2	0	0	0	1	0	2	0	0	0	0	1	3	0	1	1	2	0	0	0	1	4	0	1
OTU 123	18	9	8	51	6	5	9	107	9	18	0	7	5	7	10	12	1	0	4	0	2	0	5	4	7	4	14	2	7	2	9	1	4	24	2	3	1	3	11	3	1	3	5	1	16	1	8	15	8	0
OTU 124	0	0	0	0	0	0	0	0	0	1	0	0	0	0	0	0	0	0	0	0	0	0	0	1	0	0	0	0	0	0	0	0	0	0	0	0	0	0	0	0	0	3	0	1	1	0	2	0	0	0
OTU 125	1	3	2	28	5	4	0	5	8	19	1	5	24	12	4	0	0	1	8	7	4	2	4	3	17	0	6	0	2	1	29	1	4	4	1	4	0	0	1	2	0	2	5	4	13	4	26	0	5	7
OTU 126	0	0	0	0	4	0	0	0	0	0	1	0	0	0	0	0	0	0	1	0	0	0	0	1	0	0	0	0	0	0	0	0	0	0	0	0	0	0	0	0	0	0	0	0	0	3	0	0	0	0
OTU 127	0	1	7	0	0	0	0	3	0	2	0	6	1	0	0	5	0	0	0	0	1	2	0	1	0	1	0	0	2	1	0	0	0	8	0	0	0	1	0	0	0	0	2	0	1	11	0	1	1	0
OTU 128	5	6	1	4	6	5	17	5	45	12	1	9	4	4	5	13	4	9	0	6	5	1	1	9	14	7	17	10	25	0	15	4	13	1	7	3	149	3	2	12	9	4	75	2	11	9	0	4	3	49
OTU 129	0	0	0	0	0	0	1	1	0	0	0	0	0	3	0	0	0	0	0	0	0	1	0	0	0	0	0	0	0	0	0	0	0	0	0	0	0	0	0	0	0	0	0	0	0	0	3	0	3	0
OTU 130	0	0	0	1	0	1	0	2	0	0	0	0	2	2	4	1	0	2	0	0	0	0	0	3	0	0	1	0	2	0	0	0	1	0	4	0	0	0	0	0	1	7	0	0	0	0	1	2	1	4
OTU 131	0	0	3	1	0	5	1	2	0	3	1	0	1	2	9	0	2	2	4	0	2	1	7	1	0	0	3	3	2	0	4	0	2	16	0	0	0	1	4	1	0	11	1	0	0	1	0	16	0	0
OTU 132	3	0	0	0	0	109	1	0	1	1	0	0	2	0	0	0	0	3	0	1	0	2	0	0	0	0	0	0	0	0	0	0	0	0	0	0	0	1	0	0	1	0	1	0	1	0	5	0	0	0
OTU 133	0	0	0	0	0	0	0	0	1	0	0	4	3	0	0	1	0	3	0	0	0	0	0	0	0	0	1	0	0	1	0	0	0	0	0	0	0	0	0	0	0	0	0	0	1	0	0	0	0	0
OTU 134	4	0	0	2	2	3	2	0	1	1	0	0	0	0	5	0	0	1	0	0	0	0	4	1	1	0	0	1	1	0	59	1	0	0	0	0	0	0	0	0	3	0	0	0	2	3	1	1	0	0
OTU 135	0	0	1	1	4	1	0	1	1	2	0	0	0	0	0	29	1	1	1	1	0	0	2	2	0	0	6	4	1	2	1	1	2	8	1	1	1	2	1	0	1	0	0	5	0	3	15	1	1	0
OTU 136	0	1	0	0	0	0	1	1	0	0	2	1	0	4	3	0	0	0	0	0	0	4	0	0	1	0	1	0	2	0	1	0	2	0	21	0	0	0	2	0	0	28	1	0	0	0	0	7	0	0
OTU 137	3	0	0	0	0	0	0	0	0	0	0	1	0	0	0	0	0	0	0	0	0	0	0	0	0	0	0	0	0	0	0	0	1	0	0	0	0	0	0	0	0	0	0	1	1	1	1	0	2	0
OTU 138	0	0	0	1	0	0	3	0	0	22	10	0	0	2	0	2	0	0	0	0	1	1	0	1	0	0	0	2	0	0	0	0	0	1	0	0	0	0	0	1	3	0	0	0	0	0	10	2	0	0
OTU 139	6	2	0	5	6	0	1	28	3	10	0	1	0	1	7	4	1	3	3	0	1	0	4	11	10	2	7	3	3	0	2	0	1	0	3	23	0	1	0	0	0	5	16	3	3	7	2	0	0	0
OTU 140	4	3	2	0	0	2	3	1	1	2	1	0	2	7	0	4	1	0	1	1	3	2	12	13	2	0	11	5	1	0	37	3	6	3	4	1	0	4	0	3	0	9	2	1	11	1	2	4	4	4
OTU 141	0	0	0	0	0	0	0	0	0	2	0	0	0	0	0	0	0	0	0	0	0	0	0	0	0	0	0	0	0	0	0	0	0	0	0	0	0	0	0	0	0	0	0	0	0	0	0	0	0	0
OTU 142	0	0	0	0	1	0	0	0	0	0	0	0	0	0	0	0	0	0	0	0	0	0	0	0	0	0	0	0	0	0	1	0	0	0	0	0	0	0	0	0	0	0	1	0	0	0	0	0	0	0
OTU 143	0	0	0	0	0	0	0	0	0	0	0	0	0	0	0	1	32	0	0	0	0	0	0	0	0	0	0	0	0	0	0	0	2	0	0	0	24	0	0	0	0	0	0	0	0	0	0	0	0	0
OTU 144	0	0	1	0	0	0	0	1	0	2	0	0	1	1	0	0	0	0	0	0	0	0	5	0	0	0	0	0	0	0	0	0	0	0	2	0	0	0	0	0	0	0	3	0	0	0	0	0	0	1
OTU 145	3	2	1	0	5	0	3	0	2	0	0	0	0	2	2	0	2	0	2	0	1	3	1	3	1	1	2	2	18	0	2	0	1	5	0	1	0	0	0	103	0	3	0	6	2	0	2	6	0	1
OTU 146	0	0	0	1	1	0	2	1	0	0	0	0	7	0	1	0	0	0	3	1	0	0	4	6	3	5	3	0	1	2	2	2	3	1	55	3	0	1	0	0	0	0	1	0	0	0	0	2	0	0
OTU 147	1	0	0	0	0	0	0	0	0	0	1	0	2	0	3	0	0	6	0	0	0	0	0	0	3	0	0	0	0	0	2	0	2	3	0	0	0	0	0	1	0	2	0	0	0	0	0	0	0	0
OTU 148	3	2	0	53	0	0	0	0	0	0	0	5	3	0	7	0	0	0	0	3	18	0	2	0	4	1	6	3	3	0	0	0	2	0	0	0	0	0	1	28	0	0	3	0	1	0	3	19	0	5
OTU 149	0	0	0	0	0	0	0	0	0	1	0	1	10	0	0	0	0	0	0	0	0	0	0	1	0	0	0	1	0	0	1	0	0	0	0	1	0	0	0	1	0	0	1	0	0	0	0	0	0	1
OTU 150	0	0	3	0	0	0	0	0	0	0	0	0	0	0	0	0	0	0	0	1	0	0	2	0	0	0	0	0	2	0	0	0	0	2	2	0	0	0	0	0	0	0	0	0	2	0	0	0	0	0
OTU 151	0	0	0	0	47	1	0	4	43	0	0	1	7	3	0	0	27	0	1	0	1	2	2	0	2	0	2	0	1	0	0	0	0	0	1	0	8	0	0	1	1	0	2	0	0	2	0	0	0	0
OTU 152	1	0	1	0	1	0	2	0	1	4	1	5	0	86	0	2	0	0	1	1	57	41	3	3	17	1	1	0	1	0	7	0	2	0	22	2	0	0	1	0	0	35	0	0	7	0	2	0	0	0
OTU 153	0	0	0	0	0	0	0	0	0	0	0	9	0	0	0	0	0	0	0	0	0	0	0	0	0	0	0	0	0	1	0	0	0	0	0	0	0	0	0	0	0	0	0	0	0	0	0	0	0	0
OTU 154	0	0	0	0	0	0	0	0	0	7	0	1	0	0	0	0	0	0	0	0	0	0	0	0	0	0	0	0	0	0	0	0	0	0	0	0	0	0	0	0	0	0	0	0	0	0	0	0	1	1
OTU 155	0	0	0	0	2	0	0	0	0	2	0	0	0	0	0	0	0	0	0	0	0	0	0	1	0	0	0	2	1	0	0	0	0	0	42	1	0	0	0	0	0	70	0	0	0	2	0	0	4	1
OTU 156	3	0	0	0	2	0	2	0	1	8	2	1	8	4	3	0	0	2	3	0	0	1	3	4	2	0	2	0	1	0	4	0	1	0	0	1	0	0	0	1	1	0	2	0	5	0	1	0	2	0
OTU 157	0	0	0	0	0	2	0	0	0	0	0	0	0	0	0	0	0	0	1	5	0	0	1	0	0	0	0	0	0	0	0	2	0	0	0	0	0	0	0	0	1	0	0	2	0	0	0	0	3	0
OTU 158	0	0	0	0	0	0	0	0	0	0	0	0	1	0	0	0	0	0	0	0	0	0	0	0	0	0	0	0	0	0	0	0	0	0	0	0	0	0	0	0	0	0	0	0	0	0	0	0	0	0
OTU 159	0	3	3	0	1	0	0	0	1	0	0	0	1	0	1	2	0	0	0	0	0	0	0	0	0	0	1	0	0	0	2	0	2	2	0	0	0	0	0	0	0	0	2	0	1	0	0	41	0	0
OTU 160	5	1	2	0	7	0	1	0	3	5	1	1	2	3	2	13	2	7	3	2	2	0	0	3	13	2	5	3	6	0	0	0	7	0	0	3	0	1	5	36	3	3	2	4	5	0	0	10	3	3
OTU 161	4	3	0	2	1	0	1	0	0	0	0	0	0	2	0	0	0	0	1	2	76	4	4	1	0	0	0	2	0	0	0	0	2	0	0	1	0	3	0	0	2	0	0	2	1	0	0	8	3	6
OTU 162	1	1	0	33	0	0	0	0	10	2	12	0	3	0	1	0	0	2	0	0	1	0	2	0	5	0	3	0	0	3	0	3	3	0	1	2	0	0	2	1	3	0	0	1	2	0	0	2	1	0
OTU 163	0	0	0	0	70	0	0	0	0	0	0	0	0	0	0	0	0	0	0	0	0	0	0	0	0	0	0	0	0	0	0	0	0	0	0	0	0	0	0	0	0	0	0	0	0	0	0	0	0	0
OTU 164	0	0	0	0	0	0	0	0	0	0	0	0	0	0	0	3	0	0	0	0	0	0	0	0	0	0	0	0	0	0	0	0	0	0	0	0	0	0	0	0	0	0	0	1	0	0	0	0	0	0
OTU 165	0	0	0	0	0	0	0	0	5	5	1	1	0	0	1	4	0	1	0	2	0	0	0	0	0	0	0	0	0	0	0	0	4	0	1	0	0	0	0	1	0	0	0	0	0	0	0	0	0	0
OTU 166	22	0	0	0	0	0	0	0	0	0	0	0	0	0	0	0	0	0	0	0	0	0	0	0	0	0	0	0	0	0	0	0	0	0	0	0	0	0	0	0	0	0	0	0	0	0	0	0	0	0
OTU 167	3	0	1	0	0	3	0	1	2	0	1	0	6	1	0	0	0	0	0	3	1	2	1	0	0	1	2	1	1	0	0	0	0	0	0	0	0	0	0	0	0	0	4	0	0	0	1	0	1	0
OTU 168	4	0	0	0	0	0	3	0	5	3	3	0	1	0	0	2	0	1	0	0	0	0	1	0	0	0	0	0	1	0	0	0	0	0	0	0	0	0	0	4	0	0	0	0	4	0	3	0	0	3
OTU 169	0	0	0	0	0	0	0	1	0	0	0	0	0	0	0	0	0	0	0	0	0	0	0	0	0	0	0	0	0	0	0	0	0	0	0	0	0	0	1	0	0	0	0	0	0	0	2	0	0	0
OTU 170	0	1	0	0	2	0	0	0	0	0	0	0	0	0	0	0	0	0	0	0	0	0	0	0	0	0	0	0	0	0	0	0	0	0	0	0	0	0	0	0	0	4	0	0	0	0	0	0	0	0
OTU 171	0	0	0	0	0	5	0	0	0	6	0	0	0	0	0	1	0	0	0	0	0	1	0	0	0	0	2	2	3	0	0	0	0	0	0	0	0	0	0	0	1	1	3	0	0	3	2	2	3	0
OTU 172	0	0	0	0	0	2	0	1	3	0	0	0	0	0	0	0	0	3	5	0	0	0	5	2	0	0	9	0	0	1	0	1	7	0	0	0	0	0	6	0	0	0	0	1	1	4	0	0	0	0
OTU 173	0	0	6	0	0	0	1	0	0	1	0	0	0	0	0	1	0	0	0	0	0	0	1	0	0	0	0	0	0	0	0	0	0	0	0	0	0	0	0	0	0	0	1	0	0	0	1	0	0	0
OTU 174	1	0	0	0	0	0	0	3	0	0	2	1	1	0	0	0	32	3	1	0	0	1	7	0	10	0	2	0	3	0	0	0	0	0	0	1	17	77	0	0	0	1	0	0	2	1	5	15	5	0
OTU 175	0	0	0	0	0	0	0	0	2	0	0	0	1	0	0	1	0	0	55	0	0	0	1	0	0	0	0	0	0	0	5	0	0	0	1	1	0	0	0	0	0	0	0	1	1	0	0	0	0	1
OTU 176	0	4	1	1	3	0	0	1	3	0	0	0	4	2	2	5	2	2	3	0	0	0	3	1	10	6	14	1	3	28	1	67	1	3	1	0	1	2	0	0	3	1	0	4	3	2	3	4	0	0
OTU 177	6	1	5	0	7	0	0	0	1	1	139	5	3	0	3	5	0	0	0	7	0	1	2	1	2	0	0	0	3	0	0	0	1	4	0	1	1	2	2	0	0	2	0	0	1	0	2	0	26	3
OTU 178	0	0	0	0	0	2	1	1	0	0	2	0	0	0	0	1	0	0	0	0	0	0	0	0	8	0	0	0	0	0	0	1	0	0	0	0	0	0	0	0	1	0	1	0	4	0	0	0	3	0
OTU 179	0	0	1	0	0	0	0	0	0	1	0	1	2	0	0	1	2	0	0	0	0	1	0	2	0	0	0	0	0	3	0	0	1	2	1	0	0	1	0	0	0	0	1	0	0	0	0	2	1	0
OTU 180	8	2	2	6	6	1	1	3	11	10	5	2	1	4	1	12	0	6	3	0	0	1	1	2	2	139	5	9	3	3	3	1	5	0	4	1	1	1	2	2	6	1	2	1	5	0	13	8	0	2
OTU 181	0	1	0	0	0	0	55	0	0	4	0	10	0	0	0	0	0	0	0	0	0	0	0	1	0	5	0	1	0	0	0	0	0	0	0	2	0	0	1	43	0	0	0	0	2	0	0	3	0	0
OTU 182	0	0	0	0	0	0	0	0	0	0	0	0	0	0	0	0	0	0	0	0	0	0	0	0	0	0	0	0	0	0	0	0	0	0	0	0	0	0	0	0	0	0	0	0	0	0	0	0	0	0
OTU 183	0	1	1	2	3	1	0	0	0	10	0	1	3	0	0	0	0	0	0	0	0	0	1	0	5	6	15	0	0	0	4	0	0	0	1	0	0	0	0	0	0	4	5	0	0	1	0	5	0	0
OTU 184	0	1	4	0	0	1	0	0	0	0	1	0	0	4	0	0	0	0	0	0	0	0	1	1	3	0	2	0	0	8	2	31	4	0	2	0	0	0	1	0	0	0	3	0	1	0	1	0	0	3
OTU 185	1	5	0	23	0	2	1	2	18	0	0	10	3	26	0	4	0	28	1	1	7	16	0	0	3	1	0	1	0	0	1	0	0	1	9	0	0	1	3	1	0	40	6	1	2	2	0	4	0	1
OTU 186	0	0	0	0	0	3	0	0	1	0	0	3	0	0	0	60	0	0	0	1	2	0	0	0	0	0	1	0	0	0	0	0	0	0	0	0	0	0	0	0	0	0	0	0	0	0	0	1	0	0
OTU 187	0	0	1	0	0	6	3	1	1	3	0	0	4	1	1	0	0	0	1	0	0	0	0	3	0	2	1	7	0	1	1	1	3	2	0	96	0	2	0	4	9	1	7	0	6	2	10	1	2	6
OTU 188	5	4	0	1	1	0	0	2	2	0	17	0	11	0	0	2	0	3	0	0	0	0	0	1	1	3	0	2	2	0	1	2	2	0	1	0	0	0	0	0	0	1	2	0	0	5	0	5	1	111
OTU 189	0	1	1	5	0	1	9	0	1	0	7	5	2	5	1	1	0	0	2	2	1	3	1	3	0	0	1	1	1	0	1	2	1	5	0	0	0	0	0	2	0	0	0	1	0	1	1	3	6	0
OTU 190	0	0	0	0	0	0	0	0	0	0	0	0	20	0	0	0	0	0	0	0	0	0	0	0	0	0	0	3	5	0	0	1	0	0	0	0	0	0	0	0	1	0	1	0	0	0	0	6	0	0
OTU 191	3	5	0	0	0	1	0	1	2	1	11	1	0	0	5	0	1	0	0	0	1	0	7	1	0	2	0	0	0	0	4	0	5	1	0	1	0	1	25	0	0	0	2	1	8	0	20	0	0	0
OTU 192	4	1	0	0	0	3	10	0	1	7	8	6	8	0	1	17	8	1	7	7	0	0	7	1	0	4	3	3	0	40	4	82	4	0	0	0	1	5	0	3	1	2	15	0	3	5	0	4	1	4
OTU 193	0	0	0	1	2	0	5	0	4	1	0	0	0	0	0	5	0	0	0	0	0	0	0	5	7	0	0	0	1	0	1	1	0	1	0	0	2	0	1	0	0	1	3	0	2	3	2	1	0	0
OTU 194	2	0	0	0	2	0	2	1	3	0	0	0	0	0	1	1	0	0	1	0	0	1	0	0	0	0	9	0	1	1	1	2	0	0	0	0	0	0	2	0	2	1	0	0	0	1	0	0	1	0
OTU 195	2	0	0	2	5	0	1	0	0	0	1	1	1	2	0	0	0	0	2	0	0	3	1	0	2	0	1	0	1	0	0	0	0	0	0	1	0	2	2	1	0	4	0	2	4	1	11	3	4	0
OTU 196	3	0	1	0	2	0	1	0	6	0	0	5	11	0	0	0	54	1	7	0	0	0	3	0	2	0	0	2	3	0	0	0	1	1	0	0	38	0	2	0	0	0	0	4	7	0	1	5	0	0
OTU 197	28	3	1	0	5	2	3	2	1	1	0	4	3	1	3	1	0	3	0	5	0	0	2	2	1	42	10	4	0	1	6	2	16	1	0	1	1	1	1	1	6	0	0	5	7	4	9	0	3	0
OTU 198	1	0	1	0	2	0	3	0	0	0	1	0	0	0	0	0	0	0	0	0	0	0	0	0	6	0	0	1	0	0	0	0	0	0	0	0	0	0	1	5	0	0	5	2	0	1	0	0	0	0
OTU 199	0	0	0	0	1	0	0	0	3	0	0	5	2	0	0	5	1	0	0	1	0	0	3	0	4	0	1	3	1	0	0	0	2	0	0	0	0	0	0	0	0	1	0	1	0	0	10	0	0	0
OTU 200	0	5	0	0	0	0	1	1	1	0	1	1	1	5	0	0	0	2	0	0	0	2	2	0	4	3	0	0	1	1	3	6	0	0	12	0	0	0	0	0	0	0	2	0	2	1	0	3	2	2
