	Host 1	Host 2	Host 3	Host 4	Host 5	Host 6	Host 7	Host 8	Host 9	Host 10	Host 11	Host 12	Host 13	Host 14	Host 15	Host 16	Host 17	Host 18	Host 19	Host 20	Host 21	Host 22	Host 23	Host 24	Host 25	Host 26	Host 27	Host 28	Host 29	Host 30	Host 31	Host 32	Host 33	Host 34	Host 35	Host 36	Host 37	Host 38	Host 39	Host 40	Host 41	Host 42	Host 43	Host 44	Host 45	Host 46	Host 47	Host 48	Host 49	Host 50	
OTU 1	2	99	0	251	0	25	195	371	113	176	59	551	1	45	173	64	169	125	216	320	1	194	283	164	19	190	0	208	314	3	149	311	208	8	2	1	111	422	380	227	269	195	22	9	77	0	54	104	51	59
OTU 2	4	18	27	28	6	30	3	7	32	18	3	10	0	17	0	0	1	0	0	0	4	3	3	0	5	0	5	0	37	0	1	0	36	0	2	15	8	0	0	67	3	16	1	0	0	0	0	1	1	0
OTU 3	2	1	5	2	20	0	0	1	12	0	0	1	0	0	0	0	0	2	0	0	12	13	17	0	0	3	1	0	75	0	1	0	0	3	0	0	0	4	1	0	0	4	0	13	20	64	0	0	2	0
OTU 4	0	0	0	0	0	0	0	0	0	0	0	0	0	2	0	0	0	0	0	0	0	0	0	0	3	0	0	0	0	0	0	0	0	0	0	0	0	0	0	0	0	0	0	0	0	0	0	0	0	0
OTU 5	571	92	506	84	372	6	296	194	1002	125	57	101	439	190	1040	147	1347	180	1151	475	113	484	101	39	157	1092	140	12	209	1845	117	165	45	190	31	590	209	24	187	91	307	52	190	537	662	40	1255	412	346	1090
OTU 6	28	3	4	87	0	12	0	16	7	0	4	3	10	1	111	0	0	36	2	18	0	13	10	5	1	5	39	1	38	41	74	4	14	49	16	11	13	3	13	5	1	7	51	24	16	46	108	1	1	0
OTU 7	112	16	11	34	184	106	12	45	204	334	314	63	26	45	16	6	21	25	236	13	260	137	55	91	24	48	96	69	508	41	331	4	11	32	16	83	510	327	0	594	56	39	59	425	60	33	4	233	15	12
OTU 8	18	65	38	14	2	64	14	13	18	30	23	81	21	39	136	54	57	9	11	25	101	84	44	28	20	22	30	51	0	20	27	137	16	46	7	134	3	44	13	6	49	138	157	25	48	19	16	63	17	19
OTU 9	30	62	0	2	2	0	1	22	12	0	0	29	12	0	0	19	4	1	3	0	60	0	2	0	0	33	0	13	0	55	35	44	0	9	5	23	3	81	16	0	0	25	2	0	1	38	0	1	0	1
OTU 10	59	0	10	0	4855	7	1	0	122	196	274	3	3	0	0	0	0	1	185	0	0	0	23	0	0	8	1	7	1	121	123	3	5	0	9	0	5	0	12	562	0	3	1	149	0	0	1	463	1700	11
OTU 11	8	16	13	32	7	0	2	25	0	1	4	10	94	2	13	1	41	12	10	10	3	4	13	0	3	40	0	31	23	6	50	0	25	31	55	3	0	65	11	12	185	26	3	21	2	16	18	13	0	1
OTU 12	31	29	6	44	198	24	1	31	23	6	1	20	18	57	2	24	17	26	19	20	33	9	5	8	26	11	10	1	4	1	10	20	21	15	2	56	57	51	14	24	1	15	53	32	8	2	0	9	305	3
OTU 13	0	0	0	0	3	0	0	0	0	0	0	13	0	0	0	1	0	0	0	5	0	0	0	0	0	0	0	0	3	41	0	0	0	0	0	1	0	0	0	0	0	0	0	2	0	0	0	1	0	0
OTU 14	0	10	14	0	14	3	0	1	0	12	23	0	4	1	0	0	2	21	0	1	0	10	0	15	0	2	1	14	31	0	18	0	4	14	18	38	2	55	22	0	0	1	9	83	5	0	7	11	15	5
OTU 15	0	0	0	5	0	0	0	0	0	0	21	0	0	0	2	0	1	0	0	0	2	0	0	0	0	0	0	0	74	0	0	0	0	0	0	1	0	1	0	7	0	0	0	9	0	0	0	10	11	27
OTU 16	0	0	0	0	0	0	0	0	0	0	0	0	0	0	0	0	0	0	8	0	0	0	0	0	0	0	4	0	0	0	0	0	1	0	43	0	0	0	1	0	0	0	0	0	0	0	0	0	0	0
OTU 17	16	0	0	2	10	13	0	4	9	1	11	10	321	7	0	0	3	34	0	2	24	66	12	98	1	2	32	11	2	9	0	6	28	22	1	4	0	23	3	5	22	3	43	0	34	0	0	16	77	1
OTU 18	13	81	3	15	49	36	0	24	12	2	18	10	49	6	0	60	30	18	12	3	0	24	84	8	1	1	3	50	4	202	28	60	23	29	13	20	10	124	128	13	8	61	43	1	12	104	1	29	19	8
OTU 19	0	0	0	0	0	0	0	0	0	0	0	0	0	0	0	0	0	0	0	0	0	0	0	0	0	0	0	0	0	0	0	0	0	0	0	0	2	0	0	0	0	0	0	0	0	0	4	0	0	0
OTU 20	7	76	16	23	39	7	3	26	9	62	13	0	0	0	0	5	11	2	17	20	3	0	16	17	0	45	82	46	50	38	15	130	5	37	3	15	23	32	10	45	1	37	4	25	2	8	2	27	14	32
OTU 21	3	5	51	42	4	74	12	2	73	3	21	20	57	1	4	27	78	642	10	26	0	4	7	4	0	16	42	27	8	7	0	13	14	21	9	35	42	4	29	39	24	1	10	2	0	18	12	0	0	3
OTU 22	37	9	0	5	16	3	29	9	167	3	7	45	202	13	10	2	34	1	4	33	37	123	4	3	7	8	3	4	34	1	15	38	10	4015	6	4	8	62	4	23	0	7	72	153	96	85	17	77	7	0
OTU 23	5	8	26	23	45	1	0	0	0	2	6	3	23	7	2	9	4	1	4	0	0	4	3	1	3	37	12	1	23	1	16	17	0	0	33	51	5	0	20	0	2	12	4	0	3	48	8	67	2	0
OTU 24	2	0	1	9	0	135	16	105	5	0	0	0	10	92	1	27	8	0	0	68	60	8	2	5	42	1	19	7	67	3	12	5	2	70	0	2	0	0	17	11	9	9	0	7	0	3	0	0	6	0
OTU 25	1	0	0	0	0	16	0	0	0	0	0	0	0	0	2	6	0	0	14	0	0	0	0	0	0	0	0	0	0	0	0	0	0	2	0	0	0	0	0	0	0	0	0	0	0	0	0	4	0	0
OTU 26	4	0	0	0	0	84	0	2	4	0	0	20	1	0	0	4	9	0	0	0	53	38	11	0	0	1	0	0	0	1	25	64	0	0	10	11	7	98	0	0	0	0	10	0	5	0	1	0	5	0
OTU 27	0	0	0	0	75	0	6	4	0	0	0	6	0	0	4	0	0	0	0	24	0	0	0	0	0	0	0	0	0	0	0	4	0	0	0	0	0	5	4	0	1	0	0	0	0	0	0	0	0	0
OTU 28	19	26	6	47	50	11	3	4	18	8	20	187	21	77	28	7	73	9	25	0	33	10	206	66	4018	6	89	48	30	1	72	46	55	24	79	2	13	7	25	119	2	11	10	3	11	2	6	4	30	71
OTU 29	15	13	47	50	3	27	0	16	19	1	2	24	4	34	15	3	46	3	0	24	129	0	21	6	28	37	1	7	7	31	2	6	36	0	44	37	36	13	10	16	8	8	43	370	0	153	7	55	3	17
OTU 30	0	0	0	0	0	0	0	6	0	14	0	0	0	0	0	0	0	0	0	0	0	2	0	0	0	0	0	0	0	0	0	0	0	0	0	27	0	0	0	0	0	0	0	0	9	0	0	0	0	0
OTU 31	174	0	0	15	0	0	5	16	404	574	552	0	6	23	0	0	33	0	442	5	9	9	4	9	8	13	12	0	2189	5	263	1755	0	18	0	0	815	971	0	783	8	9	0	68	0	0	2	458	0	1
OTU 32	3	25	14	17	18	94	132	16	3	13	16	12	11	0	80	1	28	18	45	327	91	31	1	26	0	16	40	27	85	44	17	68	53	5	76	20	59	8	1060	102	41	13	70	20	20	99	13	12	11	20
OTU 33	0	0	0	0	0	0	0	0	0	0	0	0	0	0	0	0	1	0	7	0	17	6	0	1	0	15	0	0	0	0	0	0	0	2	0	0	0	0	0	0	0	0	4	0	1	0	0	0	0	0
OTU 34	1695	10	13	4	12	5	0	12	6	33	22	8	50	3	0	29	0	1	13	1	7	11	1	4	3	70	149	66	33	0	19	155	15	5	16	10	61	1	26	49	4	13	21	15	1	44	0	66	10	18
OTU 35	5	43	1	22	19	11	20	4	2	273	33	0	8	0	67	6	2	14	24	0	46	54	2	23	0	0	65	14	12	0	2	10	6	68	10	0	17	35	23	3	5	20	4	23	26	153	29	18	16	3
OTU 36	3	5	6	3523	2	20	22	33	0	2	94	4	10	0	8	10	3	2	18	1	9	46	15	12	0	8	0	2	56	13	2	2	1	57	0	11	2	1	35	94	19	28	0	44	37	5	0	16	23	13
OTU 37	0	0	1	3	8	0	0	73	8	0	0	2	0	0	0	1	2	0	0	1	0	1	1	0	0	0	0	86	0	0	6	0	0	10	0	16	11	2	3	7	0	0	0	0	0	1	0	14	0	0
OTU 38	47	663	14	377	10	50	229	1032	119	153	79	1310	21	249	283	3546	395	410	86	526	1	462	474	604	120	463	34	243	328	5	75	837	336	64	11	10	42	355	324	135	418	210	33	1	280	94	132	92	255	86
OTU 39	0	3	5	2	4	0	35	0	1	0	26	3	5	27	0	0	11	1	3	0	48	7	0	0	12	0	0	0	4	0	0	0	0	0	0	31	15	27	14	0	0	10	0	11	0	12	2	0	0	2
OTU 40	2	4	11	46	1	22	26	69	7	6	38	2	9	147	10	3	30	15	76	22	75	0	19	15	75	4	101	4	2	0	21	19	3	2	2	39	41	14	3	65	19	6	33	915	1	68	3	2161	15	1
OTU 41	35	1	0	0	9	45	35	16	18	4	1	0	12	1	2	8	4	2	5	55	3	11	16	31	0	3	15	4	0	12	9	4	0	17	8	0	27	0	2	3	0	7	29	2	5	32	2	49	27	25
OTU 42	0	0	10	0	5	0	7	1	0	0	10	89	16	0	3	0	68	0	0	0	4	28	0	0	0	0	0	33	0	1	0	7	5	1	5	8	26	2	1	0	7	3569	0	54	17	0	0	0	1	0
OTU 43	0	0	0	0	0	1	0	0	0	0	0	0	0	0	0	0	0	0	0	0	0	0	0	0	0	0	0	2	0	0	0	0	0	0	0	0	0	0	0	0	0	0	0	0	0	0	0	9	0	0
OTU 44	81	1	0	0	41	19	0	0	28	112	39	0	4	1	2	3	2	0	0	0	0	9	0	3	0	15	3	0	0	7	0	0	2001	0	4	5	0	2	31	24	0	0	10	0	3	11	1	0	3	2
OTU 45	18	14	29	9	333	5346	1	37	5	3	14	47	101	3	11	7	16	13	28	3	47	7	31	26	5	13	10	63	2	72	10	11	39	0	127	5	8	33	112	39	19	3	18	103	9	9	1	7	0	1
OTU 46	96	208	12	6	71	0	8	62	4	81	5	38	0	394	4	159	3	26	8	35	27	5	20	35	222	30	20	57	23	69	34	25	17	16	8	22	60	100	8	29	55	155	42	49	4	19	4	6	25	34
OTU 47	3	0	3	16	0	0	1	1	21	0	0	0	0	0	1	0	0	0	0	29	1	0	1	0	0	0	0	0	0	0	0	10	31	2	6	4	1	0	15	21	1825	0	0	1	0	1	0	1	1	0
OTU 48	31	19	10	2	18	5	110	5	4	4	5	8	58	8	219	22	11	9	5	31	54	87	13	15	4	6	44	21	68	3	7	11	1	107	24	1	17	5	7	19	1	22	37	651	565	227	108	649	8	50
OTU 49	2	119	3	1	0	3	0	26	0	0	0	26	0	1	4	81	4	13	0	0	0	3	13	69	1	11	7	5	0	31	1	0	1	2	19	11	1	0	2	4	30	1	0	9	1	12	6	0	9	25
OTU 50	1	11	53	55	54	6	14	16	12	4	9	7	90	16	6	1	0	0	53	0	65	7	61	49	15	3	69	3453	118	6	58	19	15	82	0	138	18	50	63	57	0	2005	35	0	4	49	2	26	33	3
OTU 51	3	23	2	0	0	0	3	12	541	6	21	24	7	2	49	4	22	11	1	13	20	112	0	20	1	10	1	0	65	0	5	18	3	14	33	32	3	1	40	31	0	0	27	1	79	16	560	2	3	1
OTU 52	31	104	79	23	91	46	37	37	42	18	7	8	28	41	16	86	52	33	84	19	114	12	80	22	97	29	122	31	117	136	19	5	35	30	64	37	134	40	58	124	34	48	8	17	10	14	13	57	23	32
OTU 53	0	0	0	0	0	1	0	0	0	0	0	0	0	0	0	0	0	0	0	0	0	0	0	0	0	0	0	0	0	0	0	0	0	0	0	0	0	0	0	0	24	0	0	0	0	0	1	0	0	0
OTU 54	22	136	60	529	44	12	8	7	50	8	375	1726	22	644	533	23	1063	64	19	10	36	850	44	20	331	53	22	20	12	35	29	1057	27	10	26	59	2	94	20	62	1	51	141	15	337	83	233	19	31	80
OTU 55	0	0	0	0	0	0	0	0	0	0	0	0	0	0	0	0	0	0	0	0	0	0	2	0	0	0	0	0	0	0	0	0	0	25	0	0	0	0	0	2	0	0	0	0	0	0	0	0	0	0
OTU 56	44	6	146	0	26	0	0	0	0	4	1	0	51	3	0	0	0	7	4	0	6	18	11	15	0	29	1	1	0	4	14	1	1	58	0	29	15	6	0	0	6	0	26	12	3	0	0	3	11	0
OTU 57	2176	33	28	44	95	90	6	98	34	10	52	91	34	784	29	14	2	16	12	12	100	1694	31	11	390	15	220	56	57	2	3643	17	50	198	62	55	228	13	54	36	28	34	45	21	850	990	21	71	0	19
OTU 58	0	3	17	0	4	5	5	144	2	0	2	4	1	21	13	0	0	0	8	2	3	2	8	19	8	57	50	43	5	8	1	165	14	1	4	2	16	7	6	0	3	21	0	0	4	27	4	1	10	0
OTU 59	0	0	9	10	57	1	390	2093	5	3	35	0	9	5	2	0	0	470	2	995	20	6	354	767	1	1068	10	195	119	19	26	21	527	35	0	6	15	82	1223	49	1177	271	0	24	19	11	1	17	266	192
OTU 60	35	10	0	31	3	71	8	61	7	7	23	31	12	73	58	7	2	14	8	3	16	38	9	23	40	36	20	64	23	118	83	25	25	5	43	40	12	46	8	41	9	9	1	4	10	4	63	5	28	4
OTU 61	2	48	137	51	151	126	29	21	14	20	21	47	0	34	21	13	18	62	65	105	34	16	24	72	22	35	27	83	4	9	12	37	11	48	58	48	9	35	53	28	39	28	44	25	18	17	11	4	71	24
OTU 62	0	0	0	2	18	0	1	6	0	0	2	23	0	3	5	5	1	22	47	0	0	0	0	33	1	0	0	0	4	0	15	0	7	4	2	1	0	17	2	47	0	1	20	0	1	0	0	0	28	2
OTU 63	19	8	20	10	8	3	8	6	0	0	0	4	1	0	0	1	18	60	0	1	0	19	11	183	0	0	0	24	1	6	0	1	75	59	36	8	1	57	0	2	7	1	0	3	13	31	3	1	113	35
OTU 64	17	221	77	91	35	67	18	4	21	61	29	31	30	30	238	98	18	5	9	24	91	24	27	25	15	74	47	27	2	13	69	95	4	5	33	41	4	29	11	43	45	38	18	69	24	36	84	61	24	13
OTU 65	0	1	0	0	1	0	0	0	0	0	0	0	0	0	0	0	0	0	0	0	0	0	0	0	0	14	0	0	0	0	0	0	0	0	0	0	0	0	6	0	0	1	0	0	0	5	1	0	0	0
OTU 66	33	11	28	67	6	5	46	45	4	8	12	68	8	75	0	6	15	8	84	31	46	0	34	11	42	23	4	29	0	35	4	3	44	50	24	56	5	72	38	46	33	0	28	9	1	13	3	19	4	1
OTU 67	1	2	11	4	12	57	0	12	5	24	30	29	72	394	63	8	4	73	2	4	46	0	63	70	193	4	3	41	0	52	0	19	0	8	7	68	11	31	3	0	1	1	357	0	4	0	47	1	46	23
OTU 68	0	0	2	2	1	0	0	57	1	13	15	14	0	0	2	10	0	0	1	0	2	0	23	1	0	5	0	19	92	0	22	0	3	0	0	4	40	0	10	43	0	22	1	1	1	68	1	0	0	84
OTU 69	76	15	48	341	32	4	9	21	7	22	6	15	0	12	2	0	4	24	95	46	11	27	7	59	3	7	5	5	12	1	46	9	27	13	0	0	29	9	14	13	1	7	5	30	2	6	2	12	9	11
OTU 70	24	0	0	2	0	1	10	3	9	2	4	18	3	32	14	0	0	0	13	5	3	0	1	9	14	10	1	2	0	2	33	0	0	3	3	1	2	4	653	11	6	70	0	11	0	3	1	0	0	3
OTU 71	0	0	2	0	2	7	0	17	0	2	0	11	115	0	0	1	0	267	0	19	21	6	165	406	0	0	7	111	0	3	31	14	152	0	2	21	0	0	5	11	0	65	1	0	0	0	2	0	120	58
OTU 72	10	22	7	9	37	1	0	9	1	10	33	6	31	59	9	16	8	1	16	2	16	8	15	38	28	36	52	15	2	5	25	1	7	8	67	10	4	12	17	3	101	13	0	69	5	1	0	17	5	6
OTU 73	0	42	15	35	49	15	9	25	1	2	9	45	16	0	0	15	0	2	13	0	98	0	22	27	0	16	1	0	27	130	1	2	9	85	32	28	5	23	11	12	6	1	27	0	2	1	7	0	1	0
OTU 74	4	115	14	44	96	3	30	2	3	6	1	22	44	0	3	1399	6	11	9	32	6	6	8	46	0	21	29	1	74	4	3	31	22	54	24	2	78	62	18	3	14	2	33	12	0	1	2	1	13	2
OTU 75	84	1	48	15	6	19	2	5	21	8	12	0	8	8	1	2	4	15	35	17	5	0	8	12	9	10	93	11	44	27	44	757	10	16	86	27	62	63	9	65	7	11	156	62	3	32	0	20	18	1
OTU 76	4	4	0	1	0	1	2	3	0	0	0	0	0	15	8	0	5	1	651	4	3	0	2	1	12	16	0	0	0	0	6	5	25	0	32	1	9	0	8	7	0	14	0	3	0	3	0	15	0	2
OTU 77	7	17	8	9	12	15	3	19	3	13	9	27	3	8	1	10	11	0	6	6	117	26	41	78	6	1	54	37	0	55	0	1	12	18	4	4	0	2	5	7	18	8	28	129	20	35	6	49	26	14
OTU 78	32	1	40	41	80	192	8	41	63	22	4	1	3315	6	0	5	12	18	3	22	10	9	0	28	4	0	38	3	2	9	43	13	8	49	82	18	83	31	22	65	64	1	103	11	0	15	10	18	6	7
OTU 79	109	133	2	11	217	109	41	211	19	28	10	37	1409	48	45	70	24	38	35	33	48	88	45	87	180	120	110	98	113	22	12	38	19	76	326	69	84	34	98	30	80	80	131	66	37	44	27	6	41	4
OTU 80	67	34	14	20	27	11	12	22	4	10	6	17	42	19	4	15	14	35	4	105	39	5	27	127	9	157	29	31	20	16	34	21	33	107	10	0	53	27	7	8	34	12	48	95	4	0	1	9	78	14
OTU 81	7	39	0	149	27	52	1	14	6	50	5	464	72	2557	32	48	88	10	5	2	25	117	5	11	1226	31	78	35	24	33	11	33	47	11	41	27	48	27	174	49	2	0	118	66	82	10	8	155	7	36
OTU 82	10	23	1	51	2	10	19	1	18	17	26	0	3	40	1379	9	9	30	1	37	23	40	10	6	16	1	2	12	8	40	37	42	4	16	5	40	0	18	15	21	6	0	89	30	32	2928	711	34	26	25
OTU 83	26	12	0	37	0	2	3	2	0	0	0	0	0	0	0	26	0	11	1	1	4	0	0	0	0	1	0	25	0	0	20	0	0	16	6	0	0	0	2	0	9	0	11	41	0	0	0	0	0	8
OTU 84	1	0	8	6	0	5	0	0	4	1	0	3	4	3	2987	0	2	0	7	1	81	17	0	8	3	16	5	4	100	0	0	1	0	23	0	6	10	9	1	4	22	26	1	7	2	0	1529	34	0	0
OTU 85	0	16	0	2	95	9	2	0	0	0	10	2	1	0	0	3	0	0	0	0	0	6	0	0	0	4	0	0	0	31	3	1	2	34	0	0	38	3	16	13	0	29	2	18	2	10	4	0	0	33
OTU 86	0	0	0	0	6	0	0	0	0	0	2	0	0	0	0	0	2	0	0	0	0	5	0	8	0	0	19	0	0	0	0	0	0	0	0	0	5	0	2	23	0	0	0	0	1	0	2	0	2	0
OTU 87	0	2	569	1	17	2	1	6	12	0	4	8	0	0	1	0	1	11	12	0	8	12	0	0	0	0	0	7	1	1	0	0	2	19	0	9	0	1	0	8	1	0	5	16	3	0	0	8	1	0
OTU 88	17	0	0	2	0	0	0	33	1	0	0	0	6	0	0	0	0	10	0	0	0	0	0	33	0	0	0	21	0	4	0	0	0	1	1	0	35	2	0	0	0	0	29	0	0	0	0	12	9	2
OTU 89	2	0	41	3	27	0	0	0	1	0	4	18	1	8	2	4	0	11	0	0	8	0	0	6	5	0	7	0	1	0	3	0	0	4	12	2926	0	0	26	6	4	15	0	16	1	2	0	58	0	20
OTU 90	0	0	0	0	0	0	0	18	6	0	3	8	22	0	12	0	24	2	0	0	8	0	0	0	0	0	0	0	1	13	0	0	0	0	0	0	0	0	0	5	0	0	2	56	0	0	6	9	0	0
OTU 91	0	1	0	2	0	3	15	5	0	0	0	2	7	0	0	0	0	0	0	0	0	19	0	0	0	0	0	0	0	0	0	0	0	0	14	37	0	1	2	0	0	8	0	0	0	0	1	0	1	0
OTU 92	0	13	0	0	0	2	11	12	3	3	1	0	37	0	22	0	3	6	0	0	85	1	12	2	0	0	0	8	5	2	22	65	0	3	30	0	39	4	0	0	0	1	2	17	0	38	17	0	5	1
OTU 93	0	7	0	0	1	0	22	0	4	0	0	0	3	23	0	0	0	0	0	34	0	0	16	0	8	4	0	0	0	0	0	4	0	5	0	4	0	0	0	10	0	16	0	0	0	0	12	20	0	20
OTU 94	79	35	0	15	20	47	24	84	289	319	235	113	46	11	28	15	27	0	373	20	22	15	14	8	4	0	57	2	14	44	352	41	2	31	36	5	7	29	39	664	6	24	27	199	3	56	5	97	0	18
OTU 95	0	0	0	55	0	0	0	0	6	0	0	60	19	13	38	0	0	0	14	0	1	19	4	0	8	3	26	9	0	0	1	1	3	3	2	1	9	75	0	2	0	0	0	0	16	0	0	0	0	1
OTU 96	3	0	0	0	0	4	4	71	0	0	0	1	0	0	1	0	3	0	17	1	0	0	0	1	0	0	0	28	0	0	0	0	0	36	0	0	1	5	0	0	0	0	0	4	0	0	0	5	7	0
OTU 97	29	21	0	134	0	1	95	129	150	101	229	296	23	1	25	9	193	4	116	158	0	52	3	18	0	48	2	36	52	2	24	137	0	5	1	3	103	52	135	387	100	0	1	117	25	0	14	0	0	33
OTU 98	2	3	37	0	0	16	0	0	0	4	8	0	18	16	0	0	1	0	0	0	1	9	0	0	6	0	12	0	0	0	0	6	10	6	80	28	0	0	0	0	0	7	2	25	2	8	2	0	0	0
OTU 99	14	149	26	94	29	16	39	110	23	54	39	8	50	8	20	15	16	17	42	77	3	12	140	108	5	79	1239	81	1	32	21	10	28	27	171	11	17	136	30	24	21	10	42	8	2	22	10	6	18	55
OTU 100	0	17	6	13	1	40	5	45	6	2	3	4	11	0	1	6	0	2	2	6	35	46	13	15	0	40	0	0	0	125	0	45	2	42	0	94	23	0	22	11	1	28	5	13	22	7	14	47	4	1
OTU 101	0	0	1	2	14	0	0	0	0	2	0	0	4	0	10	0	0	1	0	0	0	0	0	0	0	5	0	0	2	0	0	4	0	0	0	0	0	0	13	0	0	0	0	5	3	0	1	0	0	0
OTU 102	0	0	0	2	0	6	38	0	0	4	36	8	12	35	0	1	0	0	0	0	0	0	0	0	20	2	0	0	25	0	0	1	1	0	0	0	0	5	0	10	4	0	0	14	0	15	3	2	0	0
OTU 103	2	21	0	3	0	6	10	48	0	16	10	15	21	3	1	3	0	5	16	3	4	3	67	0	1	0	16	21	3	18	0	1	0	4	17	15	118	3	110	16	4	0	1	107	1	6	0	10	0	15
OTU 104	45	0	8	23	12	0	4	51	43	53	25	1	1	13	29	6	6	64	3	7	8	5	138	105	7	17	31	102	3	17	58	1	10	29	83	28	20	30	804	12	0	190	7	21	4	24	13	126	35	1
OTU 105	0	1	19	31	6	0	1	0	3	4	0	6	3	42	0	0	47	0	10	10	0	19	0	14	12	0	0	18	8	23	0	0	11	0	8	0	14	0	0	14	0	0	32	0	14	39	1	0	0	0
OTU 106	0	39	0	6	35	0	0	0	62	5	1	13	0	40	7	0	0	0	0	0	37	5	0	0	20	0	8	0	29	21	8	7	20	4	7	0	0	0	0	14	0	1	26	0	8	0	0	0	3	0
OTU 107	2	3	0	10	0	5	1507	0	0	1514	0	1	6	0	28	16	1	6	42	2758	50	1	0	35	0	0	98	114	6	5	19	2	0	0	9	0	0	20	11	12	6	52	0	41	21	4	7	0	7	3
OTU 108	7	164	82	4	2	25	0	0	98	85	34	11	7	0	11	40	1	11	89	1	28	42	20	23	0	5	7	5	245	5	85	7	2	0	0	3	309	28	11	108	1	6	8	0	41	64	0	6	7	31
OTU 109	0	0	0	0	0	0	0	0	0	0	0	0	0	0	0	0	0	0	0	0	0	0	0	0	0	0	0	0	0	4	0	0	2	0	0	0	0	0	0	0	0	0	0	0	0	0	0	0	0	0
OTU 110	2	74	75	24	62	86	1	4	11	0	3	64	23	34	3	32	5	74	12	0	7	0	31	46	8	14	58	54	80	2367	5	90	48	7	5	89	20	16	8	0	8	62	3	4	7	0	0	6	33	8
OTU 111	0	18	44	4	0	0	1	0	0	0	0	0	0	0	0	0	0	0	5	1	25	0	0	0	0	1	0	20	0	17	0	0	6	23	0	0	0	1	0	0	0	0	0	0	0	8	0	72	0	0
OTU 112	0	0	0	12	19	2	28	0	7	0	0	0	43	2	0	3	0	19	30	49	2	9	6	20	0	4	5	0	53	18	4	0	6	217	0	5	5	4	0	48	1	0	2	20	13	0	0	0	8	0
OTU 113	6	0	0	12	1	0	1	0	0	0	0	13	0	0	0	0	0	0	1	14	0	0	0	1	0	0	19	0	22	0	8	0	0	0	0	0	0	0	12	10	0	0	0	0	0	0	0	0	0	0
OTU 114	73	76	54	3	17	45	9	114	2842	68	125	11	80	25	32	63	48	12	27	16	1567	63	62	34	11	23	1	106	59	18	91	69	26	1	67	33	10	8	11	141	6	18	66	33	42	3	0	1	20	25
OTU 115	13	24	12	30	63	56	3	37	58	45	9	45	73	45	13	0	62	32	60	33	422	0	4	50	28	16	10	21	22	82	81	100	362	17	34	52	58	9	59	12	80	14	64	2488	1	10	2574	64	28	52
OTU 116	184	913	11	37	24	278	3	107	219	289	224	11	143	34	34	482	31	28	328	23	0	41	1	12	20	16	10	6	1250	33	434	7	5	2	36	23	807	549	76	432	29	5	9	220	11	15	3	336	0	14
OTU 117	5	21	4	2	2	157	0	52	9	0	15	0	70	66	20	1	1	0	13	0	22	6	0	7	30	0	27	6	0	31	1	1	1	8	70	9	13	50	26	37	10	69	9	12	0	75	13	106	4	2
OTU 118	0	0	0	0	0	0	32	7	1	0	12	4	65	11	11	0	0	15	0	7	0	6	15	104	4	0	0	6	0	0	2	0	25	0	8	0	4	0	0	0	15	109	14	0	0	31	1	6	90	46
OTU 119	3	82	18	140	33	9	0	40	26	735	3	6	9	3	16	7	4	29	60	4	25	31	32	9	1	1	2	0	68	5	6	6	16	237	0	11	6	2	17	7	36	2	19	62	11	22	0	28	0	33
OTU 120	25	251	1	23	0	27	0	11	4	4	6	0	2	44	0	97	0	0	2	0	10	13	9	0	20	7	0	11	24	57	4	1	3	17	35	25	4	0	35	3	0	0	0	0	2	1	0	1	1	4
OTU 121	10	25	6	23	4	28	0	16	5	44	51	4	0	4	8	20	3	3	5	0	5	12	3	15	3	32	2	13	0	1	17	16	1	12	40	1	4	36	7	256	0	3	64	5	9	3	1	7	4	1
OTU 122	3	0	14	21	54	0	6	0	17	4	13	3	21	1	73	2	13	14	15	28	6	13	3	0	1	0	2	5	13	754	29	120	20	0	2	3	1	111	44	3	18	20	5	0	0	30	29	3	3	3
OTU 123	21	2494	12	166	89	126	34	122	43	40	1640	433	107	230	230	1414	206	120	65	95	94	436	22	131	112	53	67	123	120	192	70	282	25	178	189	74	57	32	893	121	87	72	405	36	2976	54	576	29	86	52
OTU 124	11	2	15	4	0	62	8	5	0	0	1	0	0	7	0	0	0	11	0	3	25	0	17	3	5	0	0	0	0	7	0	8	0	0	0	0	1	0	11	2	0	0	1	0	0	3	0	0	2	0
OTU 125	72	35	75	578	182	28	37	188	66	45	58	49	80	393	62	131	50	30	169	39	50	12	40	50	188	138	97	134	109	355	94	95	11	31	227	2891	92	252	94	102	65	43	47	8	7	260	28	42	37	9
OTU 126	0	18	3	0	1	0	0	0	0	1	0	6	0	0	6	0	6	0	0	1	0	4	20	0	0	0	0	0	0	9	1	1	0	1	3	22	1	0	0	0	0	0	0	3	0	33	0	0	0	0
OTU 127	18	0	1	1	0	14	11	105	0	2	0	46	79	0	0	52	5	20	0	6	75	10	11	26	0	8	241	13	1	5	0	4	19	67	0	0	13	5	17	0	7	1	1	0	4	0	1	65	9	2
OTU 128	46	152	48	14	97	54	39	53	310	114	197	58	62	53	14	37	55	24	110	87	13	74	170	21	19	114	282	83	546	40	261	43	30	66	49	184	1041	2876	42	243	63	11	145	146	39	67	17	37	24	35
OTU 129	0	3	0	1	11	4	0	1	0	0	0	0	0	0	2	12	1	0	0	3	8	0	0	4	0	0	0	1	49	0	0	22	1	0	10	1	0	25	42	5	0	0	0	0	0	34	0	0	0	1
OTU 130	1	16	15	1	1	85	0	2	11	1	1	11	97	3	9	22	39	9	3	9	113	17	9	3	3	1292	0	8	48	0	42	0	10	37	11	13	9	0	115	15	5	15	13	0	1	0	0	2	0	0
OTU 131	0	4	9	58	24	8	17	28	11	2	1	6	24	0	0	0	0	284	25	20	1	13	27	0	0	12	1	1	1	1	4	52	0	15	80	1	4	126	0	3	5	6	5	3	3	565	0	4	0	3
OTU 132	0	7	5	7	6	6	8	0	0	2	7	0	0	1	13	1	5	1	1	0	28	3	1	0	1	5	0	2	17	22	13	0	0	11	4501	18	0	8	5	0	0	35	54	0	4	62	0	20	0	2
OTU 133	1	10	0	0	0	23	1	2	0	0	1	19	0	62	0	0	0	72	0	0	29	0	0	39	28	0	1	70	15	38	0	0	0	7	0	0	1	0	4	3	4	8	0	0	0	0	0	31	26	0
OTU 134	63	9	0	1	5	30	23	15	14	10	1	105	81	0	4	29	8	0	18	23	21	155	4	0	0	76	12	31	0	5	14	43	38	0	32	0	13	49	6	18	9	5	2	15	64	2	5	4	2	1
OTU 135	1	1	4	1	64	12	31	1	25	2	0	0	21	9	31	0	3	36	25	11	77	3	0	47	4	2	0	32	1	0	25	2	3	41	19	0	12	4	1	1	53	36	0	37	0	28	16	70	24	14
OTU 136	15	0	46	5	3	47	4	17	0	4	19	10	19	1	7	0	0	45	1	0	10	4	6	46	0	0	26	18	84	0	0	4	9	9	5	1	7	2	0	5	24	10	1	0	0	0	0	83	54	21
OTU 137	0	7	0	3	1	0	0	1	12	18	0	0	4	0	5	3	0	7	0	0	0	5	0	0	0	3	0	0	0	538	17	17	18	0	13	0	12	1	19	0	4	1	6	2	376	0	0	88	0	0
OTU 138	0	0	5	0	2	1	0	2	3	1	0	4	1	0	0	0	0	0	0	10	0	78	0	11	0	0	5	18	2	0	1	0	3	20	6	41	8	0	14	0	0	17	2	1	19	0	1	0	9	3
OTU 139	42	132	32	15	199	11	81	26	56	5	7	19	19	16	9	12	39	41	10	98	19	54	103	100	5	20	0	7	14	32	69	24	280	1389	37	54	36	19	25	20	62	7	19	24	38	83	9	17	1394	65
OTU 140	644	28	21	170	13	88	31	166	826	711	686	55	104	164	37	8	2	37	2675	28	15	125	29	59	71	2	49	1	82	51	786	52	121	31	18	24	58	92	77	1617	21	27	4550	364	87	37	53	1017	34	87
OTU 141	0	0	0	10	0	0	0	0	0	1	0	0	21	3	0	0	3	0	0	1	0	0	0	0	808	0	0	0	0	33	0	5	0	0	7	0	0	0	0	0	0	0	0	0	0	0	0	0	0	0
OTU 142	0	6	0	0	30	0	0	0	0	0	0	16	3	0	0	0	0	0	0	0	0	0	0	0	0	0	0	0	0	0	0	0	4	0	0	0	0	1	0	0	0	0	0	0	0	0	0	0	0	0
OTU 143	0	0	18	0	0	0	0	12	9	0	4	0	6	0	0	0	3	9	361	0	15	0	6	7	0	10	0	5	1	31	4	1	0	2	0	7	8	0	0	0	0	3	0	3	4	28	0	0	6	0
OTU 144	2	19	0	49	19	0	0	2	0	0	0	1	0	9	0	0	17	0	0	0	1	6	1	0	1	5	14	0	0	0	0	0	0	10	2	18	0	0	2	0	0	5	0	24	1	0	0	0	6	5
OTU 145	9	87	9	8	1	146	12	4	27	11	56	15	48	6	36	55	59	3	3	24	17	21	3	6	2	0	11	2	27	9	61	3	3	41	4	61	13	26	21	39	25	55	64	19	10	1229	4	63	4	20
OTU 146	8	18	3	8	0	10	25	48	1	0	2644	10	40	28	1	15	5	46	13	1	0	44	31	49	12	1	6	9	0	27	15	18	33	9	7	62	49	33	114	0	13	1	3	0	22	27	0	14	4	23
OTU 147	0	0	17	23	29	2	0	100	0	4	7	70	1	0	1	0	4	1	0	1	0	4	5	0	0	2	5	0	1	8	1	0	7	60	0	0	485	0	0	8	82	1	11	0	1	5	0	3	0	28
OTU 148	46	0	16	23	135	52	0	16	3	0	1	0	5	22	24	7	2	5	28	7	18	1	11	8	10	22	0	0	29	28	68	32	22	99	70	7	18	0	150	10	2	20	44	69	3	5	5	6	1	0
OTU 149	0	0	29	8	4	49	0	0	0	0	0	0	65	1	0	0	0	2	0	1	0	0	9	6	0	0	99	2	1	73	4	14	26	28	0	1	0	0	0	0	4	7	1	10	0	18	8	0	0	5
OTU 150	0	0	0	4	0	35	3	1	0	0	5	0	13	0	3	1	3	3	0	0	0	0	0	4	0	0	0	6	0	2	18	0	6	1	1	0	5	0	0	3	0	0	0	0	0	0	1	104	9	2
OTU 151	29	23	0	79	0	13	0	7	0	0	1	19	1	1	1	3	0	12	5	26	5	8	7	22	0	10	14	10	37	5	13	0	133	0	49	10	1979	2	9	1	0	2	9	14	14	0	9	8	4	3
OTU 152	2	3	1	45	79	0	30	0	14	3	7	4	31	15	2	16	4	8	10	43	15	2	26	33	12	10	0	21	11	24	0	8	41	8	1	5	64	18	93	21	1	0	52	44	12	28	1	0	18	13
OTU 153	3	0	0	4	0	0	0	0	0	0	0	0	10	0	35	0	0	0	0	0	0	4	5	0	0	0	0	0	0	0	0	0	0	0	0	0	1	18	0	10	0	0	0	0	1	0	30	0	0	0
OTU 154	0	0	0	0	0	0	0	51	1	0	0	0	3	0	0	0	0	0	0	0	0	0	6	0	0	6	0	3	0	0	0	0	0	0	1	0	0	0	0	0	9	0	0	0	0	0	0	8	0	0
OTU 155	2	9	1	3	45	0	1	27	46	72	34	10	1	0	15	0	2	5	10	0	5	32	20	34	0	0	0	0	32	0	15	5	34	50	5	1	15	12	0	100	3	0	2	16	11	0	6	4	35	1
OTU 156	83	267	205	339	31	30	255	499	250	337	410	795	16	219	189	169	579	178	271	509	86	209	238	391	94	501	49	131	382	79	147	288	221	13	12	64	426	405	264	478	423	72	60	124	120	1	67	359	283	89
OTU 157	22	0	0	12	0	1	9	0	0	0	14	0	2	0	0	0	0	661	4	16	4	7	642	1720	0	0	0	953	0	21	71	0	690	8	0	21	2	0	0	0	0	385	58	0	3	7	0	0	988	146
OTU 158	0	0	0	0	0	0	0	0	0	0	0	0	0	17	0	0	5	0	0	0	0	0	0	0	9	0	0	3	8	0	0	0	0	41	0	0	0	0	0	0	1	0	0	0	0	6	0	2	0	0
OTU 159	22	703	1	20	46	14	9	3	8	27	41	33	2	1	42	289	44	2	19	49	48	10	1	0	0	16	3	0	26	148	16	39	8	0	66	0	25	33	10	165	20	19	10	32	10	17	11	0	8	1
OTU 160	196	72	23	8	31	42	4579	240	76	7	12	55	12	15	94	79	21	108	36	25	25	8	667	197	8	1488	7	290	135	95	329	21	54	69	19	24	6	18	251	6	137	85	43	44	4	78	22	7	116	2081
OTU 161	1	9	106	76	16	21	5	3	8	4	7	3	16	125	0	8	0	4	0	7	31	26	4	0	57	25	88	7	54	3	12	39	28	3	5	74	14	34	0	0	11	19	524	4	19	31	1	38	0	59
OTU 162	0	2	0	37	11	12	142	434	2	23	14	27	11	44	29	2	515	100	13	135	4	42	3439	170	22	32	7	44	49	7	0	6	81	45	17	6	20	8	26	15	61	1	39	23	21	80	24	3	93	2018
OTU 163	0	0	1	0	0	5	0	1	0	0	0	0	0	0	21	0	0	0	0	0	0	0	0	0	0	0	0	0	0	0	0	0	0	0	0	0	2	0	0	4	0	0	0	0	0	0	2	0	0	0
OTU 164	0	0	0	0	0	0	0	0	0	0	0	0	2	0	0	0	0	0	10	0	0	0	4	0	0	0	0	0	0	0	0	0	0	0	0	0	0	0	0	0	0	0	30	0	0	0	2	0	0	1
OTU 165	8	1	13	2	14	10	3	4	3	14	2	0	0	3	1	2	0	24	4	16	18	5	3	10	0	0	7	27	0	25	0	0	14	4	37	0	23	15	1	15	4	1	43	19	3	47	1	63	0	2
OTU 166	0	0	1	0	0	0	0	0	0	0	0	0	0	0	0	0	0	0	0	0	0	0	0	0	0	0	0	0	0	0	0	0	0	1	0	0	0	0	0	0	0	0	0	0	0	0	0	0	0	0
OTU 167	17	7	52	0	4	16	52	24	45	9	10	7	111	6	0	9	48	1	0	193	0	37	36	20	2	51	0	13	0	4	1	11	0	0	0	1	0	23	0	10	44	40	19	0	35	1	4	5	8	0
OTU 168	6	33	59	42	11	24	9	0	6	36	5	2	86	16	74	32	36	25	14	0	26	1	0	50	5	0	0	50	1	15	0	15	36	41	15	46	0	18	2	9	0	1	0	1	1	8	32	0	8	0
OTU 169	0	0	6	0	0	0	0	0	0	0	0	0	0	0	0	2	0	0	0	1	0	0	0	0	0	2	0	0	3	0	0	0	0	0	7	0	0	0	0	0	0	0	0	4	0	0	0	3	0	0
OTU 170	0	0	0	17	0	0	0	0	0	0	1	0	0	0	0	0	5	0	0	1	0	0	0	0	0	0	0	12	0	0	0	0	1	4	0	1	0	0	0	0	0	0	0	0	0	0	0	4	0	0
OTU 171	5	37	18	53	8	1	6	3	18	33	0	3	96	28	5	4	0	0	52	29	59	3	11	0	19	3	2	39	100	2	0	1	2	30	11	7	25	21	8	57	10	12	0	2	8	3	7	35	9	7
OTU 172	0	0	0	0	0	0	1	3	0	0	0	0	0	0	3	0	0	0	0	1	0	1	0	1	0	0	0	1	0	17	0	4	0	1	2	0	0	0	0	0	0	0	0	0	0	0	2	0	0	27
OTU 173	2	0	2	0	0	55	6	8	6	0	3	16	12	2	0	0	27	2	1	0	23	0	0	1	1	0	3	7	19	66	3	3	12	2	0	0	1	0	2	20	2	1	1	0	0	0	22	42	0	0
OTU 174	1	3	9	35	0	0	1	16	27	1	0	3	0	0	0	7	18	0	0	0	18	16	2	4	0	15	1	0	9	3	16	0	2	51	0	62	3	1	58	7	51	33	8	6	8	65	3	5	17	0
OTU 175	5	4	89	4	43	66	1	1	0	36	0	29	7	410	20	5	0	2	0	0	15	865	0	12	212	1	5	28	10	5	7	4	13	0	71	1	0	0	52	0	5	3	2	28	503	27	38	21	23	21
OTU 176	22	18	39	34	36	23	4	64	7	10	26	13	36	20	20	33	17	71	10	6	55	1	4	103	7	7	3988	12	5	0	2	10	8	2	19	16	42	0	15	13	562	60	12	3	2	30	0	48	49	16
OTU 177	8	50	18	66	4	9	5	16	26	23	39	39	11	0	9	21	22	19	35	24	11	3	2	5	0	659	63	30	17	6	43	22	13	28	43	1	28	77	2	7	66	4	153	4	11	0	9	0	9	1206
OTU 178	0	1	1	0	122	1	7	11	0	23	9	23	4	19	0	0	2740	11	4	3	0	19	39	0	15	10	0	27	25	34	3	27	0	0	2	0	1	2	0	36	32	4	10	0	22	48	0	6	2	0
OTU 179	10	93	3	4	0	23	1	4	34	6	0	3	14	5	2	16	3	9	3	0	14	73	73	44	2	8	2	10	1	33	0	15	62	36	0	7	6	25	31	23	2	0	22	141	17	22	1	155	40	6
OTU 180	52	64	11	352	39	108	72	43	45	10	69	1096	54	302	267	86	682	3501	11	112	2121	652	19	47	147	40	17	29	139	164	27	618	93	24	193	29	3	109	102	63	2	62	50	144	341	194	171	88	24	214
OTU 181	10	2	29	19	1	1	23	3	17	27	0	45	3	47	0	1	1	408	15	35	1	10	232	587	29	155	73	487	0	13	0	0	541	11	8	0	0	46	0	4	49	171	23	3	4	11	8	1	341	79
OTU 182	0	0	0	0	0	0	19	102	0	0	0	0	5	16	0	0	0	0	0	64	0	0	0	0	7	0	0	0	0	4	0	0	2	0	0	0	0	0	0	0	10	0	0	0	0	0	0	59	0	0
OTU 183	33	56	9	0	0	0	0	14	38	0	3	9	1	0	42	73	6	0	6	4	56	24	14	0	0	21	43	0	15	0	1	13	3	12	3	4	4	0	14	4	18	8	51	11	8	0	41	25	1	0
OTU 184	0	27	0	12	0	0	0	1	0	8	5	47	3	7	28	0	1	2	6	5	32	0	0	0	3	15	18	0	2	11	19	0	10	1	7	0	15	82	0	34	4	0	6	1	0	2	10	25	0	0
OTU 185	13	7	15	14	27	4	367	23	17	8	9	24	16	20	10	18	37	0	25	656	1	38	50	3	9	35	14	5	23	13	31	4	1	2	42	16	95	7	19	30	0	59	8	0	16	62	2	1	1	67
OTU 186	933	0	0	2	2	0	0	74	364	1	0	0	77	0	0	6	7	2	63	0	32	0	3	0	0	0	61	0	17	0	6	14	0	39	1	12	1	2	0	0	27	0	0	0	0	9	0	85	0	4
OTU 187	24	98	2	17	6	50	6	29	21	56	67	127	32	4	54	30	38	7	86	32	89	69	4	25	1	122	41	15	166	31	71	130	4	105	80	3	26	44	1	62	77	86	4	43	35	30	19	36	22	9
OTU 188	9	27	4355	46	61	37	0	114	1	24	10	4	5	3	217	11	17	4	25	0	10	114	96	52	1	12	48	53	7	2	0	16	17	6	68	35	15	8	31	9	75	3	23	69	53	26	197	30	21	4
OTU 189	37	145	40	11	27	40	9	18	8	2151	25	93	8	80	69	98	0	5	32	25	1152	42	12	16	49	2	53	47	17	0	55	44	1711	20	8	19	6	70	20	32	28	16	35	19	41	19	6	67	4	5
OTU 190	1	39	8	0	1	2	0	0	0	34	0	21	8	0	0	10	0	0	22	0	0	0	0	0	0	0	0	0	2	17	6	0	3	25	0	0	0	0	0	2	0	3	0	4	0	1	0	0	1	0
OTU 191	824	7	24	8	76	39	5	12	8	9	7	2	0	431	4	4	24	382	5	7	34	916	274	750	202	15	34	277	7	3	3	16	226	12	25	54	22	17	195	7	1782	60	100	14	426	62	1	3	339	163
OTU 192	15	11	58	9	1	7	22	25	17	0	9	41	197	5	18	5	11	86	27	53	217	5	32	124	2	5	149	69	9	5	39	10	62	8	948	1	136	87	9	0	1	30	111	92	5	16	27	33	1063	60
OTU 193	4	3	37	163	1	77	6	23	0	3	0	21	19	64	3	21	56	5	33	2	8	14	23	3	30	0	2	8	13	81	71	6	26	44	0	65	1	1	4	0	5	0	8	0	9	0	571	1	1	7
OTU 194	7	2	7	2	1	2	3	7	64	7	17	86	0	14	0	5	4	2	13	1	0	9	15	16	7	1	0	6	22	14	4	36	0	1	3	44	1	5	5	17	0	2	18	25	5	2	0	79	2	1
OTU 195	0	1	0	21	0	112	2	46	7	1	7	0	35	2	6	1	22	23	41	5	75	1	22	79	3	8	29	6	10	120	0	0	24	22	240	10	34	5	0	15	10	1	1	2	0	2	1	5	62	21
OTU 196	0	106	6	9	0	5	0	11	1	10	0	23	5	13	0	18	12	0	8	7	142	2	29	9	9	24	135	7	6	11	0	15	43	4	17	44	9	0	36	15	39	7	6	19	2	21	0	14	0	10
OTU 197	21	201	1516	8	81	115	13	31	60	23	9	74	58	96	5	46	11	27	276	11	43	26	6	144	50	54	140	64	59	110	146	646	11	54	25	66	28	110	22	29	67	22	19	42	52	77	4	67	69	489
OTU 198	2	0	0	4	0	4	3	0	1	0	1	0	0	0	1	0	2	0	1	5	2	1	0	5	0	0	1	2	0	41	11	0	18	1	4	53	4	14	1	3	0	0	26	10	0	11	7	0	9	4
OTU 199	4	17	1	0	0	24	7	5	0	0	0	0	179	31	0	2	1	7	0	2	8	15	0	0	19	2	0	0	9	2	46	3	56	0	0	8	1	0	0	0	32	0	4	18	15	8	2	4	16	1
OTU 200	14	9	31	0	17	2	143	738	43	4	112	2	27	4	1	10	4	135	23	498	21	2	151	314	2	386	119	230	29	10	7	4	129	105	55	60	53	30	309	11	268	76	0	1	631	6	4	10	221	20
