	Host 1	Host 2	Host 3	Host 4	Host 5	Host 6	Host 7	Host 8	Host 9	Host 10	Host 11	Host 12	Host 13	Host 14	Host 15	Host 16	Host 17	Host 18	Host 19	Host 20	Host 21	Host 22	Host 23	Host 24	Host 25	Host 26	Host 27	Host 28	Host 29	Host 30	Host 31	Host 32	Host 33	Host 34	Host 35	Host 36	Host 37	Host 38	Host 39	Host 40	Host 41	Host 42	Host 43	Host 44	Host 45	Host 46	Host 47	Host 48	Host 49	Host 50	
OTU 1	1	4	5	1	5	4	1	1	2	0	0	2	4	0	1	3	1	1	0	0	0	0	0	4	0	2	3	2	0	1	4	0	1	1	5	0	1	0	1	1	0	6	0	0	1	0	5	0	0	0
OTU 2	0	0	0	1	0	0	0	0	0	0	1	0	0	1	1	0	0	1	0	0	0	0	0	0	1	0	0	0	0	0	0	0	0	0	0	3	0	0	2	0	0	0	0	0	0	0	0	0	0	0
OTU 3	1	5	1	0	0	0	0	0	2	0	0	0	0	0	1	2	0	0	0	5	0	0	0	0	0	0	0	0	3	0	0	0	0	2	0	0	0	0	0	0	0	0	0	3	1	0	0	0	0	0
OTU 4	0	0	0	0	0	0	0	0	0	0	0	0	0	0	0	0	0	0	0	0	0	0	0	0	0	0	0	0	0	0	0	0	0	0	0	0	0	0	0	0	0	0	0	0	0	0	0	0	0	0
OTU 5	2	0	0	4	5	47	5	7	0	5	1	10	3	45	15	9	17	0	5	12	24	3	32	2	4	3	29	19	50	4	8	1	3	6	0	5	25	11	0	8	4	0	48	5	5	0	8	0	9	0
OTU 6	0	1	0	0	2	3	0	3	0	0	0	0	0	0	1	3	0	0	0	0	0	0	1	2	1	1	3	1	0	0	1	1	0	0	0	0	0	2	0	1	0	1	1	2	5	0	3	0	3	0
OTU 7	5	0	20	0	1	5	7	5	11	6	0	0	7	2	9	9	6	0	0	0	0	3	3	2	5	1	6	9	3	2	3	0	0	4	2	6	3	2	5	7	0	5	0	5	1	25	9	1	0	1
OTU 8	1	1	4	5	2	8	34	3	4	0	3	4	0	1	0	2	5	1	1	4	0	3	2	1	1	1	1	22	18	1	0	3	1	0	2	1	1	2	1	37	0	2	5	2	6	0	50	1	1	1
OTU 9	0	3	2	1	0	1	109	3	0	2	0	0	0	0	4	0	0	0	0	0	2	5	0	29	0	0	0	1	2	4	0	2	0	0	0	2	0	0	1	81	0	0	0	0	0	19	1	0	0	15
OTU 10	0	1	2	0	0	3	0	0	0	7	0	0	0	1	1	0	0	1	1	0	0	0	1	2	0	1	2	0	0	0	3	1	0	0	0	0	0	1	1	3	0	0	0	0	0	1	0	0	0	0
OTU 11	8	0	7	0	2	0	1	0	1	1	0	3	5	6	3	2	5	11	0	1	0	1	5	5	5	0	1	3	0	0	3	0	1	0	4	6	2	5	0	1	3	9	6	0	4	5	1	6	2	7
OTU 12	2	2	3	1	0	0	0	2	9	0	2	0	3	4	0	4	3	6	7	2	0	2	0	1	2	0	3	1	1	1	0	6	2	1	0	1	0	0	0	2	1	0	1	4	0	4	0	2	2	0
OTU 13	0	0	0	0	0	0	0	0	0	0	0	0	0	0	0	0	0	0	0	0	0	0	0	0	1	0	0	0	0	0	0	0	0	0	1	0	0	0	0	0	0	0	0	0	0	0	0	0	0	0
OTU 14	0	0	0	0	1	0	0	1	0	0	1	1	0	0	0	0	0	0	0	3	0	0	0	0	0	0	0	0	0	0	0	0	0	6	0	0	0	0	0	0	0	0	0	0	0	0	0	0	0	0
OTU 15	0	0	0	0	0	0	0	0	0	0	0	0	2	0	0	0	0	0	0	1	0	0	0	0	0	0	0	0	0	0	0	0	0	0	0	0	0	0	0	0	0	0	0	0	0	1	0	0	0	0
OTU 16	0	0	0	0	0	0	0	0	0	0	0	0	0	0	0	0	0	0	0	0	0	0	0	0	0	0	0	0	0	0	0	0	0	0	0	0	0	0	0	0	0	0	0	0	0	0	0	0	0	0
OTU 17	0	0	0	1	15	4	0	0	0	0	0	2	1	0	0	0	0	1	11	6	0	0	10	6	0	0	0	0	1	0	0	0	6	1	27	0	0	2	0	0	20	2	0	1	16	0	0	0	0	7
OTU 18	1	3	0	12	5	5	0	5	4	0	2	2	0	1	1	1	2	5	1	0	0	10	2	1	0	1	0	1	2	1	1	4	4	0	3	0	135	1	5	0	4	0	0	2	13	10	1	2	0	2
OTU 19	0	0	0	0	0	1	0	0	0	0	0	0	0	0	0	0	0	0	0	0	0	0	0	0	0	0	0	0	0	0	0	0	0	0	0	0	0	0	0	0	0	0	0	0	0	0	0	0	0	0
OTU 20	1	2	7	0	3	2	0	2	1	0	0	0	0	14	2	1	0	5	1	7	0	3	1	0	0	1	2	0	0	3	0	2	0	2	1	0	0	1	0	0	8	3	4	0	0	2	0	0	1	0
OTU 21	8	0	5	4	1	0	3	0	1	1	0	3	71	0	1	10	2	5	2	1	0	1	0	1	0	116	2	0	1	0	3	4	7	14	6	1	44	2	0	0	0	6	3	2	0	4	2	0	0	0
OTU 22	1	3	5	1	1	0	0	5	14	1	1	2	1	0	2	0	2	0	1	5	1	1	1	4	1	0	2	0	0	1	3	6	0	0	2	0	0	0	1	0	0	5	0	0	9	5	0	0	1	0
OTU 23	1	0	0	0	0	0	0	1	1	0	0	0	0	0	0	21	0	0	1	0	83	1	2	0	0	11	0	0	0	0	1	1	1	27	0	0	0	0	1	0	0	2	2	1	0	0	0	0	0	0
OTU 24	1	0	1	0	0	0	0	0	0	0	0	0	0	0	0	1	0	0	2	0	3	4	0	0	0	0	0	0	0	0	0	4	1	0	0	0	0	1	0	0	2	0	0	0	1	0	0	0	0	0
OTU 25	0	10	0	0	0	0	7	0	1	0	0	0	0	0	0	0	0	0	0	0	0	0	1	0	0	0	0	0	0	0	0	0	0	0	0	0	0	0	0	0	0	0	0	0	0	0	0	0	0	0
OTU 26	1	0	0	0	0	0	0	0	0	0	1	0	0	0	0	0	0	1	0	0	0	0	0	0	0	0	0	0	1	0	0	0	0	0	0	0	0	0	4	0	0	0	0	0	0	0	2	2	0	0
OTU 27	0	0	0	0	0	0	0	0	0	0	0	0	0	0	0	0	0	0	0	0	0	0	0	0	0	0	0	0	0	0	0	0	0	0	0	0	0	0	0	0	0	0	0	0	0	0	0	0	0	0
OTU 28	6	0	38	1	5	3	1	2	8	17	1	2	44	0	23	2	8	0	1	10	2	0	0	0	0	2	40	3	0	0	0	0	0	0	2	3	20	2	0	20	0	2	2	8	2	84	58	0	1	1
OTU 29	1	3	1	0	0	1	0	2	0	0	1	1	2	1	0	0	0	1	4	6	0	5	1	0	0	4	0	1	4	95	0	1	1	1	2	3	1	0	1	0	2	6	0	0	0	0	0	1	1	0
OTU 30	0	0	0	0	0	0	0	0	0	0	0	0	0	0	0	0	0	0	0	0	0	0	0	0	0	0	0	0	0	0	0	0	0	0	0	0	0	0	0	0	0	0	0	0	0	0	0	0	0	0
OTU 31	0	2	0	0	0	0	0	2	0	0	6	0	5	0	0	0	0	2	0	3	85	2	1	0	79	0	0	1	22	2	0	0	0	2	0	1	0	0	0	0	4	0	0	0	0	4	0	0	2	0
OTU 32	4	0	2	0	0	0	0	0	4	1	4	0	0	1	3	4	5	2	0	1	2	0	2	0	4	0	1	0	2	1	0	2	6	0	1	1	1	0	14	0	0	12	6	6	0	2	0	1	1	0
OTU 33	0	0	0	0	0	0	0	0	0	0	0	0	0	0	0	0	0	0	0	0	0	0	0	0	0	0	0	0	0	0	0	0	0	1	0	0	0	0	0	0	0	0	0	0	0	0	0	0	0	0
OTU 34	13	5	0	5	0	0	3	2	0	1	1	0	0	6	0	6	3	9	0	1	0	1	0	0	0	2	0	2	0	0	0	3	0	4	0	0	0	0	0	0	0	2	0	0	7	3	3	0	0	0
OTU 35	0	0	5	3	0	1	0	2	2	1	1	7	0	0	2	0	0	1	1	9	2	4	1	0	0	0	1	0	2	1	1	0	0	3	0	0	0	0	1	97	0	0	0	0	0	0	7	0	5	1
OTU 36	4	11	0	2	0	2	5	0	0	0	1	0	0	1	0	4	0	0	1	2	5	0	0	0	1	0	0	1	0	0	1	6	0	0	0	0	0	0	1	1	0	1	1	2	0	1	7	0	0	0
OTU 37	0	0	1	0	0	0	1	0	0	0	0	0	0	0	0	0	0	0	0	4	0	0	0	0	1	4	0	0	0	0	0	0	0	0	0	5	0	0	0	1	0	2	0	0	0	0	1	0	0	0
OTU 38	2	5	4	2	3	3	3	0	0	2	1	4	0	3	0	2	0	0	0	1	0	2	1	0	1	0	0	0	0	0	2	1	4	1	6	0	0	5	0	0	2	8	28	0	15	2	2	1	0	0
OTU 39	0	8	0	2	0	1	0	0	1	0	1	0	1	1	0	0	0	0	0	0	1	0	0	0	0	0	0	0	0	0	0	10	0	0	0	0	0	0	0	0	0	0	2	0	0	0	0	1	0	0
OTU 40	11	0	2	11	0	5	2	5	1	0	0	0	0	4	6	5	2	2	0	0	1	1	4	0	0	1	0	4	1	3	1	2	0	6	1	3	1	0	0	0	2	1	0	2	0	0	1	0	0	0
OTU 41	0	3	0	0	0	0	27	2	0	0	1	0	0	0	0	0	0	0	0	0	1	0	0	6	0	0	0	1	1	0	0	5	0	2	6	2	0	1	1	0	0	1	0	2	5	0	2	0	0	1
OTU 42	1	0	0	1	2	2	0	0	1	0	2	0	2	0	0	0	0	0	0	6	0	0	0	3	0	0	0	0	0	0	0	0	0	0	0	0	0	0	0	0	0	0	0	0	0	0	0	0	0	2
OTU 43	0	0	0	0	0	0	0	0	0	1	0	0	0	0	1	0	0	0	0	0	0	0	0	0	0	0	2	0	0	0	0	0	0	0	0	0	0	0	0	0	0	0	0	0	0	0	0	0	0	0
OTU 44	0	0	0	0	0	0	0	1	0	0	0	0	0	0	0	0	0	2	0	1	0	0	1	0	0	0	0	0	0	0	0	0	6	0	1	0	0	0	0	0	0	0	0	0	2	0	0	0	1	0
OTU 45	12	3	1	3	4	1	2	2	2	2	10	0	1	4	4	0	6	4	4	1	1	1	1	3	1	2	2	5	2	0	0	10	1	1	5	2	0	0	0	1	4	1	0	0	3	0	1	1	4	3
OTU 46	1	0	1	1	2	21	1	4	2	0	2	3	1	5	0	11	0	8	1	6	0	2	0	2	5	0	1	0	0	0	3	2	34	3	4	0	0	0	1	0	0	0	0	0	6	2	2	3	1	0
OTU 47	8	0	0	0	4	0	0	1	0	0	0	0	0	1	0	0	0	0	0	0	0	0	1	4	0	1	0	0	0	0	0	0	0	0	0	0	0	0	0	0	0	0	0	0	0	0	5	0	2	0
OTU 48	1	4	0	1	3	2	4	7	6	1	0	36	7	0	1	1	3	1	8	5	1	4	0	0	3	3	30	0	8	1	1	4	6	0	0	3	1	0	2	0	4	2	0	0	4	1	0	166	0	1
OTU 49	0	0	1	0	0	0	0	2	0	0	0	0	1	0	1	0	0	0	0	1	0	3	0	0	0	0	4	0	1	1	0	3	0	0	0	0	0	1	6	0	0	7	0	0	3	0	0	0	1	0
OTU 50	2	2	1	1	3	2	1	5	0	52	1	1	2	2	111	4	1	2	0	0	0	0	1	1	0	2	1	3	0	4	0	3	0	1	0	5	1	0	3	0	8	3	1	2	1	2	2	0	1	1
OTU 51	0	0	0	4	2	3	0	2	0	0	0	2	0	1	1	0	4	1	0	5	0	0	4	1	0	0	0	0	0	1	0	5	0	0	5	0	0	1	0	0	0	2	0	0	0	0	0	0	6	0
OTU 52	5	0	5	2	1	2	0	3	9	3	12	0	1	7	1	0	0	11	2	1	5	1	3	6	1	1	0	1	29	4	1	6	8	0	4	1	0	1	21	0	2	1	0	0	1	1	1	11	9	2
OTU 53	0	0	0	0	0	0	0	0	0	0	0	0	0	0	0	0	0	1	0	0	0	0	0	0	0	0	0	0	0	0	0	0	0	0	0	0	0	0	1	0	0	0	0	0	0	0	0	0	0	0
OTU 54	8	1	4	2	1	4	0	1	1	2	6	2	0	2	0	8	1	2	0	0	1	10	2	0	2	5	3	0	2	0	0	0	0	0	2	1	0	5	0	2	1	0	0	0	0	1	0	2	0	3
OTU 55	0	0	0	0	0	0	0	0	0	0	0	0	0	0	0	0	0	0	0	0	0	0	0	0	3	0	0	0	0	0	0	0	0	0	0	0	0	0	0	0	0	0	0	0	0	0	0	0	0	0
OTU 56	0	2	4	0	0	0	1	0	0	0	0	0	0	0	0	0	2	0	0	0	0	0	0	1	1	3	1	0	0	0	1	0	0	0	0	1	0	0	0	0	0	1	0	1	0	0	0	0	7	0
OTU 57	9	0	3	6	15	44	1	6	8	2	3	16	3	5	0	2	0	5	3	0	0	7	10	9	2	4	6	5	1	4	11	0	11	12	24	13	9	21	2	1	16	0	91	5	2	7	9	1	1	7
OTU 58	2	0	5	1	0	0	6	0	1	0	0	2	0	0	0	0	2	3	0	1	0	0	0	0	0	0	2	3	0	0	0	2	0	0	0	0	0	1	0	0	7	1	0	0	0	3	4	0	3	0
OTU 59	0	2	0	2	3	0	0	1	0	0	8	2	3	0	0	1	4	1	0	10	0	0	1	0	0	0	0	0	0	0	2	1	0	0	3	0	0	3	1	1	1	0	5	3	3	1	3	0	0	1
OTU 60	0	0	56	5	2	0	0	7	1	15	3	0	0	1	38	1	7	8	1	12	0	21	2	0	21	0	31	3	16	1	0	6	2	1	4	1	0	1	1	8	60	4	2	8	2	2	16	0	2	0
OTU 61	16	13	0	3	25	1	3	0	1	1	7	2	0	1	0	1	0	1	0	3	1	7	0	1	3	0	0	0	0	0	0	0	3	3	1	0	0	0	3	0	5	0	2	3	0	0	2	0	0	0
OTU 62	0	0	0	3	0	0	2	0	1	0	1	0	0	0	0	0	0	0	0	0	0	0	1	0	0	0	0	0	0	0	0	0	0	0	0	0	0	0	0	0	1	1	0	1	0	0	0	0	0	0
OTU 63	16	9	0	22	2	0	0	0	2	0	3	3	3	4	0	35	1	0	0	0	2	0	2	2	1	15	0	0	0	0	0	55	1	12	13	1	1	3	0	0	0	0	0	0	0	1	0	0	0	9
OTU 64	4	2	1	2	0	0	1	1	0	0	41	0	0	2	1	0	1	6	0	0	1	0	5	17	0	0	0	0	2	0	0	3	0	3	0	1	0	0	0	0	7	0	0	7	3	6	5	0	2	6
OTU 65	0	0	0	0	0	0	0	0	0	0	0	0	0	0	0	0	0	0	0	0	0	0	0	0	0	0	0	0	0	0	0	0	0	0	1	0	0	0	0	0	0	1	0	0	0	0	0	0	0	0
OTU 66	0	2	0	0	0	1	2	0	29	0	0	0	0	4	1	3	17	3	1	5	7	0	0	1	2	2	0	0	2	0	1	5	1	0	0	0	0	2	1	0	1	4	0	0	5	0	0	0	0	0
OTU 67	0	6	0	3	0	1	1	0	1	0	0	0	2	0	0	1	0	4	4	14	0	3	0	0	1	0	0	3	2	0	0	4	0	0	0	0	0	0	8	1	1	1	0	11	17	0	0	1	1	0
OTU 68	0	0	1	0	39	0	0	7	3	0	1	0	4	0	1	1	2	0	0	0	4	0	1	0	4	1	0	0	0	1	0	0	0	2	1	1	2	0	0	4	0	3	0	0	6	5	5	0	0	1
OTU 69	3	1	1	3	1	3	0	9	2	1	0	0	1	3	0	3	2	3	2	0	1	0	3	2	1	1	0	3	0	1	1	4	3	2	5	3	0	3	12	2	8	2	2	1	1	0	0	1	2	0
OTU 70	1	3	0	0	0	0	0	4	2	0	3	0	0	0	0	0	0	3	3	0	0	0	0	1	1	1	0	1	0	4	0	0	1	1	1	0	0	0	0	0	2	1	2	1	1	0	0	0	0	0
OTU 71	3	0	0	0	0	0	0	0	4	0	0	0	0	0	0	0	0	0	7	2	0	0	0	0	0	0	0	0	0	0	0	0	0	0	0	0	0	0	0	0	0	0	0	0	0	0	0	0	0	0
OTU 72	2	0	1	2	0	30	1	2	1	1	1	1	1	2	0	7	2	7	3	4	1	2	0	4	4	0	0	2	2	1	0	2	5	0	0	4	2	0	1	0	2	0	0	2	3	0	1	0	0	2
OTU 73	2	4	1	3	0	1	0	1	2	0	0	0	0	1	0	10	8	0	108	2	0	1	0	1	4	3	3	1	4	0	1	3	4	4	4	1	0	0	0	0	3	1	0	0	3	0	0	0	5	2
OTU 74	1	0	1	1	0	0	5	4	1	0	0	0	2	20	0	2	0	19	0	0	0	0	0	0	4	2	0	1	0	2	0	0	0	1	2	7	0	0	2	2	0	0	2	1	3	1	4	0	1	0
OTU 75	0	2	0	98	8	0	4	1	1	0	10	1	1	2	0	6	5	3	0	1	0	1	5	6	3	33	0	1	1	2	2	0	3	42	6	5	0	2	0	1	0	16	0	0	3	9	1	5	0	3
OTU 76	0	0	0	0	3	8	0	1	0	0	0	0	0	0	0	0	0	0	1	1	0	1	7	11	0	0	0	0	1	0	2	0	2	0	7	0	0	9	0	0	0	0	0	0	0	1	1	1	0	9
OTU 77	0	1	0	0	0	0	0	4	1	0	0	4	0	0	3	0	2	1	0	0	3	0	2	0	0	0	0	3	0	0	0	2	0	0	2	3	0	0	2	0	0	12	0	0	2	0	1	0	3	0
OTU 78	0	2	7	5	3	2	1	0	1	0	8	0	0	3	3	6	0	3	6	2	2	0	0	3	0	0	1	1	0	0	1	0	0	0	2	0	0	0	1	0	3	0	0	0	0	1	0	0	0	191
OTU 79	5	8	3	15	6	11	1	11	7	1	44	7	5	0	3	5	4	2	3	1	12	5	11	10	13	7	74	13	8	35	6	13	16	14	19	8	24	12	3	0	4	21	33	10	10	14	9	4	1	6
OTU 80	3	5	2	0	0	3	3	1	0	1	0	0	2	2	9	3	1	10	4	5	0	9	2	0	6	1	0	2	1	2	0	4	1	2	0	1	0	1	4	1	6	6	1	2	14	14	1	0	1	0
OTU 81	11	2	0	1	0	0	2	8	8	0	1	1	33	0	0	3	2	7	0	1	2	2	2	2	0	0	0	5	0	92	0	10	0	0	1	62	18	1	0	0	1	0	3	0	2	1	1	4	92	3
OTU 82	12	1	0	1	1	1	0	1	1	0	2	0	0	4	0	1	0	10	0	0	1	2	1	96	3	5	0	2	0	0	0	0	0	2	0	1	0	0	6	3	4	0	0	0	1	1	3	1	5	31
OTU 83	0	0	0	0	0	0	0	0	0	1	0	1	0	0	1	0	6	0	0	3	0	0	0	0	0	0	3	0	0	0	0	0	0	2	1	0	0	4	0	0	0	0	0	0	0	0	0	0	0	0
OTU 84	0	3	4	1	0	0	0	4	0	0	0	0	0	0	0	3	0	0	0	0	0	0	0	2	0	0	2	0	0	0	0	1	5	0	4	2	0	0	0	0	0	2	0	3	0	0	0	0	0	1
OTU 85	0	8	0	0	0	1	1	0	6	0	3	0	0	0	0	1	0	0	6	0	0	0	0	0	0	1	0	0	0	0	0	2	1	0	0	0	0	0	0	0	0	0	0	0	0	8	0	0	0	0
OTU 86	0	0	0	0	0	0	0	2	0	0	2	0	0	0	0	0	0	0	0	1	0	0	0	0	0	0	0	0	0	0	0	0	1	0	0	0	0	0	0	0	0	0	0	0	0	0	0	0	0	0
OTU 87	12	3	0	0	2	1	1	0	0	0	0	0	0	4	0	4	1	0	0	0	0	1	0	0	0	0	0	0	67	0	0	0	0	0	0	0	0	0	0	0	0	0	2	0	0	0	0	1	0	0
OTU 88	0	0	0	0	0	0	0	0	3	0	0	0	0	0	0	0	0	0	0	1	0	0	0	0	0	0	0	0	0	0	0	0	0	0	0	0	0	0	0	0	0	0	0	0	0	0	0	0	23	0
OTU 89	12	0	4	0	0	1	0	0	1	0	4	0	0	10	0	0	3	10	1	0	0	3	0	0	0	0	0	0	0	0	0	0	1	0	0	0	0	0	0	0	0	0	0	0	0	0	0	0	1	2
OTU 90	0	0	0	0	0	0	0	2	0	0	0	0	0	0	0	0	0	0	0	0	0	0	0	0	0	0	0	0	0	0	0	0	0	0	0	0	0	0	0	0	3	0	0	0	0	0	0	0	0	0
OTU 91	0	0	0	0	0	4	0	0	0	0	0	0	0	0	0	0	1	0	0	0	0	0	0	0	0	0	0	0	0	0	2	0	0	0	0	0	0	0	0	0	5	0	0	3	0	0	0	0	0	0
OTU 92	1	0	0	0	2	0	0	0	0	0	2	0	0	0	0	3	0	1	0	0	0	2	7	0	0	0	0	0	0	0	0	0	4	0	3	0	0	1	0	0	0	0	0	0	0	0	1	0	0	0
OTU 93	0	0	0	0	2	0	0	1	0	0	0	0	0	0	0	0	0	0	0	0	0	0	0	0	0	0	0	0	0	0	0	0	0	0	0	0	0	0	0	0	0	0	0	0	0	0	0	1	0	0
OTU 94	2	2	0	0	0	0	0	0	5	0	3	0	2	2	3	5	6	0	1	2	0	0	2	0	3	0	1	1	0	1	0	0	1	4	2	7	4	1	0	2	1	7	0	1	0	3	3	0	0	3
OTU 95	0	0	0	0	2	2	0	31	0	0	0	1	0	0	0	0	0	0	0	0	0	5	0	1	3	7	0	9	0	15	1	0	1	2	0	0	0	3	0	2	9	1	0	0	3	1	1	3	0	1
OTU 96	0	0	0	0	0	0	0	0	0	0	0	0	0	0	0	0	0	6	0	3	0	0	1	0	0	0	0	0	0	0	0	0	0	0	0	0	0	0	0	0	0	0	0	0	0	0	0	0	2	0
OTU 97	0	0	1	0	0	0	0	3	0	0	0	0	0	0	0	0	0	0	0	3	0	0	0	0	0	0	0	0	0	0	0	0	0	0	0	0	0	0	0	0	0	0	0	1	0	0	0	0	2	0
OTU 98	0	3	1	0	0	0	3	0	4	0	2	0	0	0	0	0	0	0	1	1	0	0	0	0	0	0	0	1	0	2	0	4	1	0	0	3	3	0	0	1	1	1	0	0	1	0	0	0	0	0
OTU 99	0	0	0	0	3	2	0	16	7	1	8	2	1	0	0	4	2	1	4	0	0	73	2	1	8	4	1	6	1	5	0	1	6	2	0	1	0	1	3	1	1	5	0	5	0	1	2	0	0	0
OTU 100	4	8	2	4	0	5	0	1	0	0	4	0	1	0	0	0	0	1	2	1	1	1	1	0	1	0	0	0	1	1	0	0	0	0	0	3	0	0	0	0	3	0	0	2	1	1	0	0	0	0
OTU 101	0	0	0	0	0	0	0	0	0	0	0	0	0	0	0	0	0	0	0	0	0	0	0	0	0	0	0	0	0	0	0	0	2	0	0	0	0	0	0	0	0	0	0	0	0	0	0	0	0	0
OTU 102	0	0	0	0	0	1	0	2	5	0	0	0	1	0	0	5	4	1	0	0	0	1	1	0	2	0	0	0	2	1	0	0	0	2	0	0	0	0	0	0	0	0	0	0	0	0	0	0	0	0
OTU 103	3	2	0	2	0	0	1	3	2	0	0	2	1	0	0	0	0	0	3	0	1	1	0	0	3	4	0	0	0	0	1	0	5	0	4	1	0	0	7	0	1	55	10	2	0	0	0	1	0	0
OTU 104	2	4	1	0	2	11	2	3	0	0	0	0	0	0	0	5	4	1	2	0	2	5	4	7	6	0	0	3	5	7	0	1	3	0	12	1	0	3	0	1	1	0	0	1	0	0	1	4	1	3
OTU 105	0	0	0	1	0	0	0	0	1	0	0	0	1	2	0	0	0	0	4	0	1	0	0	0	0	0	0	0	0	0	0	0	0	0	0	0	0	0	0	0	0	0	0	4	0	0	0	0	0	0
OTU 106	0	0	0	0	87	0	0	0	1	1	0	1	0	3	0	0	0	0	0	0	0	0	0	0	1	0	0	0	0	0	0	0	78	0	0	0	0	0	0	0	0	0	1	0	0	0	0	0	0	0
OTU 107	0	1	1	1	0	0	0	1	8	1	0	0	0	4	0	0	0	2	0	0	0	0	0	0	5	0	3	0	0	1	0	1	0	0	1	0	0	0	0	0	0	0	0	0	0	0	1	0	0	0
OTU 108	0	1	1	0	0	0	0	1	0	0	2	0	0	0	1	0	12	0	0	2	1	0	0	3	0	0	1	0	0	0	1	0	0	2	0	0	2	1	0	1	0	0	0	2	0	2	4	4	1	1
OTU 109	0	0	0	0	0	0	0	0	0	0	0	0	0	0	0	0	0	0	0	0	0	0	0	0	0	0	0	0	0	0	0	0	0	0	0	0	0	0	0	0	0	0	0	0	0	0	0	0	0	0
OTU 110	10	3	1	2	1	2	0	0	5	0	3	0	2	1	0	0	0	1	0	2	4	2	1	0	0	0	0	0	7	2	0	1	1	2	0	2	1	0	0	0	0	0	0	1	1	2	0	0	0	0
OTU 111	0	0	0	0	0	0	0	0	0	0	0	0	0	0	0	0	0	1	0	0	0	0	0	0	0	0	0	0	0	0	0	0	0	0	1	0	0	1	0	0	0	0	0	0	1	0	0	0	0	0
OTU 112	3	0	0	0	1	0	0	0	1	0	0	0	2	0	1	0	0	4	0	0	0	0	1	0	0	0	0	0	0	0	0	1	1	0	3	0	0	1	0	0	0	0	0	0	0	1	0	0	0	1
OTU 113	0	0	0	0	0	0	2	0	0	0	0	0	0	0	0	0	0	0	0	0	0	0	0	0	1	0	0	0	0	0	0	0	0	0	0	4	0	0	1	0	0	0	0	0	1	0	0	0	0	0
OTU 114	0	1	0	0	4	4	0	3	15	1	8	0	0	0	0	0	34	2	2	1	9	5	0	2	14	4	0	2	14	1	75	12	0	4	1	4	1	0	2	0	9	8	2	2	2	2	0	1	0	2
OTU 115	0	0	87	0	0	5	1	2	1	40	0	2	3	0	73	4	1	6	6	4	2	2	0	0	2	1	45	3	3	0	6	2	8	1	1	8	1	7	1	0	2	0	1	3	2	4	0	0	1	0
OTU 116	4	0	0	0	3	6	0	3	3	0	1	1	3	0	0	2	1	6	1	8	0	0	0	2	7	0	0	1	0	2	2	1	0	5	1	0	0	2	0	0	3	4	3	0	0	1	1	0	5	0
OTU 117	2	0	3	0	1	2	0	6	2	0	3	0	0	0	2	1	3	0	0	2	0	3	1	0	1	7	0	37	3	3	0	5	0	0	0	3	0	1	0	0	1	2	2	2	2	2	0	0	5	0
OTU 118	0	0	1	0	0	0	0	0	0	0	0	0	0	0	0	0	0	0	1	0	1	0	0	1	0	1	0	0	0	0	1	0	0	0	0	0	0	0	35	0	0	0	0	0	0	0	0	19	0	0
OTU 119	3	1	0	0	0	1	0	2	7	1	0	1	8	8	1	0	0	20	3	0	1	2	0	2	3	0	6	4	0	0	0	0	1	2	0	12	6	2	0	11	1	0	0	1	1	4	0	5	1	0
OTU 120	1	1	0	6	1	3	3	0	0	0	2	0	0	0	0	0	0	0	0	2	0	1	0	0	1	0	1	0	0	0	0	0	2	0	1	0	0	0	0	1	1	0	0	9	0	0	0	0	4	0
OTU 121	1	0	0	0	0	0	22	1	1	0	5	0	0	0	0	0	0	1	3	0	0	0	2	0	0	0	0	0	0	0	0	2	0	0	1	0	0	0	0	0	0	2	0	1	0	0	0	4	2	0
OTU 122	0	6	0	0	3	0	1	2	2	0	0	2	0	53	0	0	0	2	0	0	0	3	2	4	6	1	0	1	3	1	0	0	1	0	7	1	0	3	4	0	3	1	2	4	1	0	0	0	0	1
OTU 123	11	6	2	0	6	8	32	3	15	1	13	6	2	1	0	0	4	6	3	5	0	11	0	2	2	3	4	1	3	2	8	15	12	3	6	8	2	12	10	8	2	10	4	57	17	9	8	4	3	3
OTU 124	0	0	0	0	0	0	4	1	0	0	0	0	1	1	0	0	0	1	0	0	0	1	0	0	0	0	0	0	0	0	1	3	0	0	0	0	0	0	0	0	1	0	0	0	0	0	0	3	0	0
OTU 125	14	8	2	3	2	6	4	5	2	1	21	0	16	10	0	5	9	4	2	13	57	13	0	0	1	0	1	4	5	3	2	3	0	4	2	20	26	1	119	3	1	9	6	89	7	4	2	56	35	1
OTU 126	0	0	0	0	0	0	0	1	0	0	0	0	0	2	0	0	0	0	0	0	0	0	0	0	0	0	0	0	0	0	0	0	0	0	0	1	0	0	0	0	1	8	0	0	0	0	0	1	0	0
OTU 127	0	0	0	0	0	1	6	1	0	0	3	0	0	0	0	0	1	1	0	0	0	0	0	1	0	0	0	0	0	0	1	0	0	5	0	0	0	0	1	1	0	1	0	2	0	1	1	0	0	0
OTU 128	1	9	0	4	5	6	3	3	14	6	13	3	0	10	14	18	1	25	14	0	7	10	3	9	6	2	0	3	1	3	3	13	4	5	5	1	0	4	3	4	8	5	4	17	6	5	7	11	6	2
OTU 129	0	0	0	0	0	0	1	0	0	0	0	0	0	0	0	12	0	0	0	0	0	0	0	0	0	1	0	0	3	0	0	0	0	18	0	0	0	0	0	0	0	0	0	0	2	0	0	0	0	0
OTU 130	3	2	4	0	0	0	3	4	0	0	0	20	0	0	1	2	2	1	1	0	3	0	22	0	0	0	1	6	1	0	6	0	7	0	0	3	0	31	2	0	1	5	5	0	1	0	0	0	0	0
OTU 131	0	1	0	1	1	1	0	12	7	0	0	2	0	1	0	5	0	0	0	1	0	1	2	0	6	8	1	7	0	12	4	0	1	0	1	0	0	4	1	0	6	0	0	0	0	0	0	0	2	0
OTU 132	1	1	1	0	0	0	0	0	3	0	0	0	0	0	0	0	0	0	1	0	0	0	0	0	0	0	0	1	1	0	0	0	0	0	1	1	1	0	0	0	0	6	0	0	0	2	2	0	0	0
OTU 133	2	0	0	0	0	2	1	0	0	0	0	0	0	0	0	1	0	0	0	0	0	0	0	0	1	0	0	0	0	0	0	0	0	0	0	0	0	0	0	0	0	0	0	0	4	0	0	0	0	0
OTU 134	0	2	9	5	0	1	0	2	2	2	19	0	1	0	0	5	0	0	1	2	0	0	0	0	0	3	3	0	1	0	0	0	3	4	0	0	0	2	0	0	4	3	3	1	1	0	0	0	0	1
OTU 135	10	0	0	1	0	0	0	0	14	0	1	3	1	0	0	1	1	1	4	5	0	1	6	4	2	6	1	1	0	0	1	0	0	0	0	1	0	4	0	3	5	0	2	1	0	3	4	0	0	1
OTU 136	0	0	0	5	5	1	0	0	0	0	2	3	3	0	0	0	5	0	0	9	0	0	103	1	0	0	0	0	0	0	2	0	0	0	3	0	1	5	0	1	1	0	0	6	20	1	0	0	1	1
OTU 137	0	0	1	0	0	1	0	0	0	1	0	1	0	0	0	0	0	0	0	0	0	2	0	0	0	0	1	0	0	0	0	0	1	1	0	0	0	0	0	0	0	0	0	1	1	8	1	0	22	0
OTU 138	0	1	0	0	2	0	1	0	0	1	2	0	0	0	0	0	1	0	0	2	0	0	2	0	0	0	0	0	0	0	1	1	0	0	0	1	0	1	0	0	0	0	0	0	0	0	0	0	0	0
OTU 139	6	4	3	5	2	5	2	7	2	0	0	0	1	0	0	0	0	2	2	1	0	28	5	7	1	0	1	93	1	3	6	6	1	0	12	0	0	2	0	45	1	2	0	0	1	1	65	1	7	2
OTU 140	4	7	10	4	3	6	1	13	7	29	1	0	3	0	5	7	18	1	5	8	3	9	4	0	7	5	9	0	2	8	3	2	14	2	6	2	1	5	2	0	1	9	3	26	4	4	5	0	2	0
OTU 141	0	0	0	0	0	1	0	0	0	0	0	0	0	0	0	0	0	0	0	0	0	0	0	0	0	0	0	0	0	0	0	0	0	1	0	0	0	0	0	0	0	0	0	0	0	0	0	0	0	0
OTU 142	0	0	0	0	0	0	0	0	0	0	0	0	0	0	0	0	0	0	0	0	0	0	0	0	0	1	0	0	0	0	0	0	0	0	0	0	0	0	0	0	1	0	0	0	0	0	0	0	0	0
OTU 143	0	0	0	0	1	0	0	0	0	0	2	0	0	0	0	0	0	1	0	4	0	0	0	0	0	0	0	0	0	1	0	1	0	0	0	1	0	0	0	0	0	0	0	0	0	5	0	0	0	0
OTU 144	2	0	0	0	1	1	0	0	0	0	0	0	0	0	0	0	0	0	0	0	0	0	0	0	0	0	0	0	0	0	0	0	0	0	0	0	0	0	0	0	1	0	0	1	0	0	0	0	0	0
OTU 145	6	35	0	2	1	0	9	6	3	0	0	2	1	11	0	0	4	28	2	0	0	8	1	0	0	0	0	2	0	2	0	0	3	2	2	0	0	3	4	0	6	0	1	7	0	1	0	0	41	0
OTU 146	3	4	1	3	2	0	0	3	0	126	0	0	1	0	3	1	6	0	10	0	0	1	0	1	2	2	0	1	0	1	1	0	1	0	3	1	0	0	3	7	3	1	0	0	0	0	4	0	4	0
OTU 147	0	0	0	1	0	2	0	1	1	0	0	0	0	1	0	2	1	0	1	0	18	0	0	0	0	0	1	0	1	1	5	1	0	0	0	0	0	0	0	0	0	2	0	0	0	0	0	0	0	0
OTU 148	2	6	1	0	0	1	0	0	0	1	0	0	0	1	0	0	0	0	1	0	0	0	0	0	1	52	0	0	0	1	0	0	1	77	1	0	0	0	2	0	0	4	0	0	2	6	4	0	7	0
OTU 149	14	0	0	0	0	0	0	0	0	0	1	0	0	0	0	0	0	2	0	1	0	0	0	0	0	0	0	0	2	1	0	0	0	7	0	0	0	0	1	0	2	0	0	0	0	0	0	4	0	0
OTU 150	0	0	3	0	0	0	0	0	0	1	0	0	0	0	3	0	0	1	0	0	0	18	0	0	0	0	0	0	0	0	0	0	0	0	0	7	0	0	0	3	3	5	0	0	0	0	16	1	0	0
OTU 151	1	0	0	0	2	2	0	0	0	0	0	0	0	0	0	0	9	0	0	1	0	0	0	1	2	1	0	2	0	1	1	0	0	1	0	1	0	0	0	1	1	0	29	0	0	2	0	2	1	1
OTU 152	0	2	1	0	0	3	0	7	1	1	3	0	2	2	2	11	0	5	7	0	0	0	0	0	8	0	0	5	4	1	0	0	0	2	0	2	0	0	1	0	6	0	1	1	0	1	1	0	1	0
OTU 153	0	0	0	0	0	0	1	0	0	0	0	0	0	0	0	0	0	0	0	0	0	0	0	0	0	0	0	0	0	0	2	0	0	0	0	0	0	1	0	0	0	0	0	0	0	0	0	0	0	0
OTU 154	1	0	0	0	0	0	0	0	0	0	0	0	0	0	0	0	0	0	0	0	0	0	0	0	0	0	0	0	0	0	0	0	0	0	0	0	0	0	0	0	0	0	0	0	2	0	0	0	0	0
OTU 155	1	1	1	34	0	1	0	5	0	0	1	0	0	1	0	1	0	0	0	0	0	0	0	0	1	0	0	4	0	4	0	31	2	0	0	3	0	0	3	2	2	3	0	1	1	1	2	10	0	0
OTU 156	6	3	0	3	0	0	0	4	2	1	3	0	2	0	0	0	13	0	0	71	0	0	1	0	2	0	0	5	0	0	0	3	0	2	2	8	1	0	1	0	0	4	3	1	2	1	1	3	0	0
OTU 157	0	0	0	2	0	0	0	0	0	0	0	0	0	4	0	0	0	13	0	1	0	0	0	0	0	0	0	1	1	0	0	2	1	0	0	0	0	0	1	0	0	0	0	0	0	0	0	0	0	0
OTU 158	0	0	0	0	0	0	0	0	0	0	0	0	0	0	0	0	0	0	0	0	0	0	0	0	0	0	0	0	0	0	0	0	0	0	0	0	0	0	0	0	0	0	0	0	0	0	0	0	0	0
OTU 159	14	2	0	0	0	1	0	0	0	0	0	5	0	36	0	0	0	0	0	0	0	0	0	2	13	0	0	0	3	0	0	0	0	1	1	0	0	0	0	2	7	1	0	1	0	0	0	0	0	0
OTU 160	4	10	3	8	11	3	1	3	10	0	9	1	1	3	0	1	0	3	3	1	1	8	9	5	8	2	1	2	8	2	4	10	1	9	7	1	0	14	2	0	14	0	1	3	6	14	5	4	1	3
OTU 161	0	1	0	0	0	0	0	0	2	0	0	0	0	9	0	2	5	3	2	0	3	1	0	49	0	2	1	0	0	0	4	1	0	0	2	0	0	4	0	1	1	0	0	1	0	16	0	1	0	21
OTU 162	1	12	1	2	0	0	4	0	0	0	2	0	0	0	0	0	4	0	1	0	1	3	1	0	1	4	0	0	4	0	0	2	0	1	0	5	1	1	6	0	0	2	2	4	6	2	0	0	1	0
OTU 163	0	0	0	1	0	0	0	0	0	0	0	0	0	0	0	0	0	0	0	0	0	0	0	0	0	0	0	0	0	0	0	0	0	0	0	0	0	0	0	0	0	0	0	0	0	2	0	0	1	0
OTU 164	0	0	0	0	0	0	0	1	0	0	1	0	0	0	0	0	0	0	0	0	0	0	0	0	0	0	0	2	0	1	0	0	0	0	0	0	0	0	0	0	0	0	0	0	0	0	0	0	0	0
OTU 165	1	0	0	1	1	1	0	1	2	0	0	0	1	0	0	0	3	1	3	1	0	0	0	0	0	1	0	0	0	0	0	0	1	0	0	0	0	0	4	0	0	2	0	0	0	0	0	1	0	0
OTU 166	0	0	0	0	0	0	0	0	0	0	0	3	0	0	0	0	0	0	0	0	0	0	0	0	0	0	0	0	0	0	0	4	0	2	0	0	0	0	0	0	0	0	0	0	0	0	0	0	1	0
OTU 167	0	2	9	1	0	0	0	8	6	0	0	0	0	0	4	12	1	3	1	2	1	1	0	0	13	0	4	1	11	3	0	3	1	7	2	0	0	0	3	0	0	1	0	0	0	5	0	0	1	0
OTU 168	0	0	0	2	0	0	4	1	0	0	0	0	0	2	0	1	0	1	1	0	3	0	0	0	1	0	0	4	0	0	0	3	1	0	1	0	0	0	1	0	1	2	0	3	5	0	0	5	0	0
OTU 169	0	0	0	0	0	0	0	0	0	0	0	0	0	0	0	0	0	0	0	0	0	0	0	0	0	0	0	0	0	0	0	0	1	0	0	0	0	0	0	0	1	0	0	0	0	0	0	0	0	0
OTU 170	0	0	0	0	0	0	0	0	0	1	0	0	0	0	0	1	0	0	0	0	0	0	0	0	0	0	0	0	1	0	0	0	0	0	0	0	0	0	0	0	0	0	0	0	0	0	2	0	0	0
OTU 171	0	0	2	2	5	23	0	0	3	0	12	4	0	1	0	0	0	0	1	6	1	0	18	10	0	1	0	0	0	0	3	0	19	1	36	0	0	7	0	0	1	1	0	2	0	0	0	4	4	2
OTU 172	0	1	0	0	0	0	0	9	0	0	0	0	0	0	0	0	2	0	0	0	0	0	0	0	0	0	0	7	0	3	0	2	1	0	0	0	0	0	0	0	0	0	0	0	0	0	0	0	0	0
OTU 173	1	0	0	0	1	4	0	0	6	0	0	0	0	0	0	0	2	0	0	0	0	0	6	0	0	0	0	0	0	0	1	0	0	0	0	0	0	2	0	0	0	4	1	0	0	0	0	0	0	0
OTU 174	0	2	0	7	0	0	1	0	0	0	7	0	0	2	2	2	0	3	0	0	0	0	1	0	3	0	0	1	0	0	66	5	0	3	0	3	0	0	0	2	2	0	0	3	0	0	1	1	8	0
OTU 175	0	1	2	0	0	1	1	2	0	0	0	0	0	1	4	2	5	0	0	0	0	1	0	1	1	0	1	0	0	2	0	0	2	0	0	0	0	1	4	0	0	1	0	0	0	0	0	1	0	1
OTU 176	0	1	3	1	0	0	0	0	0	2	4	0	3	1	6	4	4	1	4	2	3	1	1	0	6	0	1	1	3	1	1	1	0	1	0	3	1	0	0	1	3	1	1	0	0	4	0	0	3	0
OTU 177	3	4	1	0	6	1	0	0	1	3	0	2	0	3	3	0	6	1	2	0	1	0	1	1	0	0	1	1	4	0	1	0	5	1	22	0	0	4	1	2	1	0	1	2	0	2	2	6	5	3
OTU 178	4	0	1	6	0	0	0	0	0	0	2	1	0	0	0	1	2	2	0	0	1	0	1	1	0	0	0	0	4	0	0	2	0	0	0	1	0	2	1	2	0	11	1	1	1	0	1	0	0	0
OTU 179	0	0	0	0	1	0	0	17	6	0	0	0	0	1	1	9	1	2	1	0	0	0	0	0	1	1	2	3	0	9	1	5	0	1	2	0	0	0	0	1	0	0	0	0	0	0	0	0	3	1
OTU 180	1	3	3	6	30	0	12	3	9	1	2	46	6	5	1	5	11	0	21	32	0	12	2	2	0	1	3	4	4	5	39	1	5	3	4	1	2	88	2	1	0	3	3	2	16	12	1	1	3	6
OTU 181	0	2	1	1	0	0	0	3	0	0	0	0	0	1	1	0	1	0	2	0	0	1	2	0	1	0	2	1	0	0	0	0	3	0	3	0	0	0	0	0	6	6	10	0	0	0	0	0	1	0
OTU 182	0	0	0	0	0	0	0	0	0	0	0	0	0	0	0	0	0	0	0	0	0	0	0	0	0	0	0	0	0	0	0	0	0	0	0	0	0	0	0	0	0	0	0	0	1	0	0	0	0	0
OTU 183	0	0	0	0	0	1	0	0	0	0	0	0	0	1	0	7	0	0	0	0	0	0	4	1	3	7	0	0	7	0	0	0	21	3	0	0	0	0	1	0	0	1	0	1	0	0	0	3	0	0
OTU 184	0	0	0	0	0	0	0	0	0	0	2	0	0	0	3	4	0	0	1	0	0	1	0	0	0	0	0	0	0	1	1	0	0	0	0	3	0	0	0	0	0	0	0	1	1	0	0	0	0	0
OTU 185	0	1	2	4	0	0	0	1	6	1	0	0	1	0	1	2	7	2	1	4	0	2	0	0	1	0	0	1	1	2	0	2	0	0	3	6	1	1	3	0	8	0	0	3	1	0	0	0	1	0
OTU 186	0	0	0	0	0	0	0	1	0	0	0	0	7	0	0	0	0	0	1	0	0	0	0	0	10	1	0	3	5	0	0	1	3	2	0	0	1	0	0	0	9	0	0	0	0	0	0	0	0	0
OTU 187	0	48	1	4	0	0	13	4	3	0	4	127	86	0	2	0	8	0	2	2	4	0	8	0	0	2	2	1	0	2	0	0	2	2	1	80	45	3	1	0	0	0	21	0	2	1	1	0	0	0
OTU 188	0	0	0	4	1	1	0	2	14	0	3	0	0	0	1	0	0	6	0	1	0	3	1	3	0	0	2	0	0	0	1	11	1	0	1	1	0	0	0	0	3	0	1	0	7	6	5	0	1	1
OTU 189	1	2	2	0	1	6	0	0	2	3	0	3	0	3	2	1	0	3	38	0	0	2	12	3	3	3	1	5	2	4	0	1	2	2	3	1	0	4	0	0	10	1	1	1	0	0	1	3	3	1
OTU 190	0	0	0	3	0	0	3	0	0	0	0	1	0	4	0	0	0	9	0	0	0	0	0	0	0	1	0	1	0	0	0	0	0	0	0	0	0	3	0	0	0	1	0	0	0	1	0	0	0	0
OTU 191	1	0	0	0	0	0	0	0	2	0	3	0	3	1	0	1	1	2	4	11	0	6	3	1	1	6	0	0	0	0	0	7	1	1	0	3	2	0	0	0	0	19	8	0	2	0	2	2	0	0
OTU 192	6	6	0	1	0	2	0	19	2	0	2	0	2	7	0	3	6	0	0	1	0	1	0	1	17	5	25	5	6	0	0	1	3	5	0	0	0	0	2	1	13	4	1	9	2	0	0	1	0	0
OTU 193	1	4	0	0	0	1	0	2	0	0	2	18	1	7	0	0	29	4	0	0	5	3	1	0	0	1	0	21	4	0	26	0	0	0	0	0	0	37	2	0	1	2	1	0	1	0	0	0	0	0
OTU 194	2	2	0	0	1	1	1	2	2	40	0	2	0	0	0	5	0	0	3	0	0	0	0	0	1	0	0	1	0	1	30	0	0	0	0	4	0	0	0	0	3	0	5	0	63	0	0	0	0	0
OTU 195	0	0	0	0	0	1	0	1	0	0	0	0	0	6	0	1	3	0	3	2	1	1	0	1	1	0	1	0	2	0	1	5	0	0	0	0	1	2	2	0	0	0	1	0	1	0	0	0	2	0
OTU 196	0	0	1	0	3	1	1	1	0	0	4	0	2	0	0	3	1	0	1	0	0	0	0	0	1	0	0	1	0	1	2	3	4	2	3	1	1	0	27	0	1	0	0	0	1	1	0	6	0	1
OTU 197	7	7	5	8	9	5	3	0	3	4	1	5	1	4	3	15	4	3	7	1	7	2	15	13	4	3	8	0	1	1	12	1	3	0	30	6	3	13	6	0	2	3	0	0	5	0	1	3	0	11
OTU 198	0	0	0	0	0	0	0	0	0	0	0	0	0	1	0	4	2	6	0	0	0	0	0	0	0	0	0	0	0	0	0	2	0	0	0	0	0	0	0	1	2	1	0	0	0	0	1	0	0	0
OTU 199	0	0	3	0	0	5	0	0	2	0	0	1	3	0	1	0	1	1	2	0	0	3	0	0	4	0	2	0	2	0	0	0	0	0	0	0	0	0	2	1	3	0	0	0	0	0	0	0	0	0
OTU 200	2	3	0	0	2	0	0	0	0	0	4	2	0	1	0	0	0	0	0	0	0	1	1	2	1	2	0	0	0	0	3	0	0	1	4	0	0	3	2	0	3	1	4	0	0	1	0	0	1	3
