	Host 1	Host 2	Host 3	Host 4	Host 5	Host 6	Host 7	Host 8	Host 9	Host 10	Host 11	Host 12	Host 13	Host 14	Host 15	Host 16	Host 17	Host 18	Host 19	Host 20	Host 21	Host 22	Host 23	Host 24	Host 25	Host 26	Host 27	Host 28	Host 29	Host 30	Host 31	Host 32	Host 33	Host 34	Host 35	Host 36	Host 37	Host 38	Host 39	Host 40	Host 41	Host 42	Host 43	Host 44	Host 45	Host 46	Host 47	Host 48	Host 49	Host 50	
OTU 1	3	10	0	3	11	7	10	2	3	8	0	4	0	2	0	12	1	1	8	0	24	7	3	28	0	0	2	0	6	0	0	2	1	4	0	6	10	7	3	1	7	1	1	0	16	8	32	2	0	39
OTU 2	0	2	2	2	0	0	0	0	5	0	2	2	0	0	0	0	0	4	0	1	0	0	0	0	0	0	0	6	0	0	3	0	0	0	0	0	0	1	0	1	0	0	0	0	0	0	0	0	0	0
OTU 3	0	0	0	0	1	0	3	0	0	5	0	1	2	0	0	0	3	0	0	0	0	0	0	4	0	0	1	3	3	1	0	0	0	4	1	0	0	0	0	0	0	0	0	0	0	0	0	0	2	0
OTU 4	0	0	0	0	0	0	0	0	0	0	0	0	0	0	0	0	0	0	0	0	0	0	0	0	0	0	0	0	0	0	0	0	0	0	0	0	0	0	0	0	0	0	0	0	0	0	0	0	0	0
OTU 5	18	0	55	1	2	32	9	17	2	0	22	11	11	0	0	18	20	9	37	13	11	10	3	10	0	8	34	0	17	36	11	15	21	8	0	3	0	6	3	70	2	1	129	45	23	3	16	5	0	10
OTU 6	1	3	2	2	1	0	1	0	0	0	0	0	1	1	0	0	1	0	2	4	0	2	1	2	6	0	0	0	0	0	2	1	0	2	5	0	2	0	0	0	0	0	0	0	0	1	1	0	1	0
OTU 7	1	1	8	1	1	2	1	3	11	14	1	5	13	0	0	1	0	1	12	38	2	5	2	1	4	3	4	1	3	0	23	1	6	17	3	0	3	1	1	1	3	1	1	4	1	1	2	12	3	5
OTU 8	3	10	0	0	1	50	0	22	57	10	1	2	4	0	8	2	0	2	7	5	0	4	0	0	2	0	28	4	31	1	2	3	2	0	4	194	64	2	7	4	1	1	2	2	0	33	1	4	3	10
OTU 9	2	7	0	0	0	0	0	0	0	1	0	1	1	0	4	0	1	0	3	5	0	0	0	0	0	1	0	0	0	6	0	0	1	6	0	0	3	11	0	0	1	0	0	0	0	0	2	0	0	0
OTU 10	1	0	0	0	0	0	0	0	0	0	0	2	0	3	0	0	0	0	1	0	0	0	2	0	2	6	0	0	0	0	0	0	0	0	0	0	1	0	1	2	0	35	0	0	0	0	0	3	30	0
OTU 11	2	2	1	0	0	1	1	0	0	0	1	0	1	2	1	0	3	2	1	0	0	0	0	1	3	0	0	0	0	0	0	0	3	0	4	0	1	1	5	1	0	0	0	0	0	1	0	6	2	0
OTU 12	0	0	2	0	0	0	0	0	0	1	1	2	7	5	0	0	3	0	2	0	0	2	0	0	0	0	0	0	4	5	3	0	7	1	0	0	1	0	0	6	0	3	1	2	2	0	0	2	15	2
OTU 13	0	1	0	0	2	0	0	0	0	1	0	0	0	0	0	0	0	0	0	0	0	0	0	0	0	0	0	0	0	0	0	3	0	1	0	0	0	0	0	1	0	0	0	0	1	0	0	0	0	1
OTU 14	0	2	0	0	0	0	0	0	0	0	0	0	0	0	0	0	0	0	0	0	0	0	0	0	0	29	0	1	0	0	0	0	3	0	2	0	0	0	1	0	0	5	0	0	0	0	0	0	3	0
OTU 15	0	0	0	0	0	0	0	0	4	0	0	0	3	0	0	0	0	0	0	0	0	0	0	0	0	0	0	0	0	0	0	0	0	0	0	0	0	0	0	0	0	7	0	0	0	0	0	0	1	0
OTU 16	0	0	0	0	0	0	0	1	0	0	0	0	0	0	0	0	0	0	0	0	0	0	0	0	1	0	0	0	0	2	0	0	0	0	0	0	0	0	0	0	0	0	0	0	0	0	0	1	0	0
OTU 17	0	5	6	0	1	0	1	0	2	0	0	0	1	1	0	0	0	0	0	0	0	4	0	0	0	0	2	5	4	0	0	0	0	0	0	0	0	0	0	0	0	1	0	0	0	0	0	0	17	0
OTU 18	0	3	1	2	1	17	174	4	10	2	2	1	1	0	2	0	2	0	1	6	0	6	1	4	2	0	4	1	2	10	0	0	3	3	1	86	12	0	8	1	1	2	0	4	1	11	1	0	1	2
OTU 19	0	0	0	0	0	0	0	0	0	0	0	0	0	0	0	0	0	0	0	0	0	0	0	0	0	0	0	0	0	0	0	0	0	0	0	0	0	0	0	0	0	0	0	0	0	0	0	1	0	0
OTU 20	8	0	0	7	0	2	0	1	2	4	2	1	0	3	0	0	0	0	0	0	0	0	0	2	0	4	1	4	2	0	3	0	0	0	0	1	8	0	0	0	0	0	0	1	1	5	0	0	0	0
OTU 21	1	6	8	1	0	1	4	2	0	0	4	1	0	1	0	0	0	0	2	0	1	2	0	5	2	4	2	0	2	0	0	0	13	0	1	1	0	0	0	1	0	0	0	2	0	1	1	3	1	0
OTU 22	6	1	0	2	0	0	4	1	0	2	1	1	4	2	0	1	0	1	0	2	3	0	0	4	0	1	0	4	0	0	1	2	0	0	2	3	1	1	4	2	0	3	0	0	0	0	1	0	0	0
OTU 23	1	0	0	0	2	6	1	1	0	0	0	0	0	0	0	0	0	0	0	0	0	1	0	0	0	1	0	3	4	0	1	2	0	0	2	1	0	0	0	0	1	0	0	0	0	0	0	0	3	0
OTU 24	1	1	1	1	2	0	0	0	0	3	4	1	0	1	2	1	1	0	2	0	1	0	0	0	3	0	0	0	3	1	1	0	2	0	1	0	0	1	3	0	0	0	0	0	0	2	0	0	3	0
OTU 25	0	0	0	0	0	0	0	0	0	0	0	0	4	0	0	0	0	0	2	0	0	0	0	0	0	0	0	0	0	1	0	0	0	0	0	0	0	0	0	0	0	0	0	0	0	0	0	0	0	0
OTU 26	0	0	0	0	0	0	0	0	0	0	0	0	0	0	0	0	0	1	0	0	0	2	0	0	0	0	0	0	0	0	0	0	0	0	0	0	0	0	0	1	0	3	1	3	0	0	0	0	0	0
OTU 27	0	0	0	0	0	0	0	0	0	0	0	0	0	0	0	0	0	0	0	0	0	0	0	0	0	0	0	0	0	0	0	0	0	0	0	0	0	0	2	0	0	0	0	0	0	0	0	0	0	0
OTU 28	1	3	0	4	5	1	1	1	0	0	3	0	1	17	4	0	3	3	0	1	0	1	0	3	87	0	0	7	0	0	5	1	0	1	3	0	1	0	0	1	0	0	4	1	1	2	1	5	2	0
OTU 29	6	0	0	0	0	2	0	0	0	1	1	0	0	1	2	0	0	0	1	0	1	2	3	0	0	2	0	1	1	0	0	3	4	0	3	0	0	2	1	2	0	0	0	2	0	0	2	6	1	1
OTU 30	0	0	0	0	0	0	0	0	0	0	0	0	0	0	7	0	0	0	0	0	0	0	0	0	0	0	0	0	0	0	0	0	0	0	0	0	0	0	0	0	0	0	0	0	0	0	0	0	0	0
OTU 31	9	0	5	0	0	0	0	0	3	21	1	3	0	0	0	0	5	0	17	1	0	0	20	0	0	4	0	0	1	1	2	0	3	0	0	0	3	0	7	5	9	0	2	4	0	1	2	11	1	1
OTU 32	5	0	5	103	4	0	1	0	0	1	1	0	1	6	7	0	5	1	7	3	2	0	0	0	4	0	0	3	3	2	0	6	2	1	0	0	0	3	10	1	8	0	1	1	0	0	1	1	0	3
OTU 33	0	0	0	0	0	0	0	0	0	0	0	0	0	0	0	0	1	0	0	0	0	0	0	0	0	0	0	0	0	0	0	0	0	0	0	0	0	0	0	1	0	0	0	0	0	0	0	0	0	0
OTU 34	43	1	0	0	0	1	0	0	0	0	0	0	3	2	0	0	5	0	0	3	0	4	1	1	0	2	0	0	13	1	1	0	0	0	0	0	0	2	0	3	12	1	3	1	0	0	0	0	0	0
OTU 35	1	0	1	2	0	0	0	0	2	13	26	11	0	1	0	0	0	0	2	1	2	1	0	0	9	0	0	1	0	0	0	5	1	0	3	0	0	1	4	0	0	2	0	0	0	3	2	0	5	5
OTU 36	2	0	5	1	0	3	0	1	26	0	0	0	0	0	0	0	1	2	4	0	0	0	0	0	0	0	18	8	0	1	0	0	0	0	0	0	1	0	2	0	1	0	0	5	0	9	3	0	2	0
OTU 37	0	0	0	0	0	0	1	0	0	0	0	0	0	0	0	1	0	0	1	0	1	0	0	0	0	0	0	0	0	0	0	1	0	0	0	0	0	1	0	0	0	0	0	1	1	0	0	0	0	0
OTU 38	6	2	5	0	23	1	0	0	1	4	1	5	0	2	0	0	1	6	1	0	0	0	0	0	3	0	0	9	0	0	1	26	8	0	2	1	0	4	1	0	11	2	0	0	1	1	0	3	2	0
OTU 39	0	0	0	0	0	0	0	2	0	0	0	0	0	0	0	0	0	3	0	0	0	1	0	0	0	0	0	2	0	0	0	0	1	0	0	0	0	0	0	0	0	2	0	0	0	0	0	1	8	0
OTU 40	0	0	3	0	2	4	0	1	2	0	0	3	7	9	1	0	0	0	0	0	0	2	1	0	0	3	0	0	2	6	1	0	5	4	0	0	0	0	0	1	0	0	0	0	0	0	0	5	1	3
OTU 41	2	1	0	0	0	0	0	0	1	0	0	0	2	5	4	0	0	3	0	1	0	0	1	0	0	0	0	2	0	0	1	1	1	0	0	0	1	0	5	0	0	0	0	4	0	0	3	0	0	0
OTU 42	1	0	12	1	1	1	0	0	0	0	0	0	1	2	49	0	0	0	0	0	0	0	1	0	0	0	0	0	0	0	1	0	0	0	0	0	0	0	2	0	0	0	0	0	0	0	1	0	0	0
OTU 43	0	0	0	3	0	0	0	0	0	0	0	0	0	0	0	0	0	0	0	0	0	0	0	0	0	0	0	0	0	0	0	0	0	0	0	0	0	0	0	0	0	0	0	0	0	0	0	0	0	0
OTU 44	0	3	0	0	0	0	0	0	0	1	0	0	0	0	0	0	0	0	1	1	0	6	0	0	0	0	0	0	0	0	0	0	0	0	0	0	0	0	0	0	0	0	0	1	8	0	0	0	0	0
OTU 45	2	1	0	0	0	0	1	0	0	0	0	0	0	0	13	0	1	0	6	0	0	0	0	3	5	0	0	0	0	0	5	0	0	2	24	2	1	2	2	3	1	0	0	1	0	0	0	0	0	2
OTU 46	7	2	0	3	3	0	2	0	0	1	0	1	1	2	17	0	0	4	1	0	0	0	1	3	15	5	0	6	0	6	10	0	1	1	0	0	8	3	0	0	3	0	2	1	2	0	0	4	4	0
OTU 47	0	0	0	0	0	0	1	0	0	0	0	0	1	0	0	0	0	0	0	0	0	3	0	0	0	0	0	0	0	0	0	0	0	0	0	0	2	0	0	0	0	0	0	0	0	0	0	0	0	0
OTU 48	0	4	0	0	3	0	1	1	2	4	0	2	0	0	5	0	0	4	1	0	0	7	2	2	0	2	1	7	0	0	0	3	2	0	3	2	2	1	3	0	1	3	1	0	0	2	1	4	0	1
OTU 49	4	1	0	1	11	0	0	0	1	0	0	1	0	13	0	0	1	1	0	2	2	0	1	1	0	0	0	0	2	0	0	0	2	0	0	0	0	0	3	21	1	1	14	0	0	0	0	0	5	0
OTU 50	0	0	0	0	0	0	0	2	1	1	1	0	6	3	17	0	0	21	2	0	1	1	4	10	1	0	0	64	0	2	12	20	0	4	1	1	0	0	1	0	0	2	0	1	0	2	1	8	12	0
OTU 51	2	0	0	0	0	0	1	1	0	0	0	0	0	0	0	0	0	1	4	0	0	5	0	4	1	1	0	0	4	2	0	0	0	0	1	3	1	0	0	0	0	0	1	2	0	0	13	2	2	0
OTU 52	1	10	1	2	3	0	2	0	2	2	2	1	4	2	0	40	2	5	9	2	85	3	1	2	3	0	0	5	1	15	3	1	12	3	5	1	1	98	7	1	3	4	0	3	0	3	0	4	0	3
OTU 53	0	0	0	0	0	0	0	0	0	0	0	0	0	0	0	0	0	0	0	2	0	0	0	0	0	0	0	0	0	0	0	0	0	0	0	0	0	0	1	1	0	1	0	0	0	0	0	0	0	0
OTU 54	2	2	2	1	41	0	1	0	5	2	0	4	3	14	1	0	7	0	5	0	1	11	1	0	6	1	2	2	0	0	4	4	2	0	0	0	0	2	2	6	4	0	3	10	0	0	0	2	8	0
OTU 55	0	0	0	0	0	0	0	0	0	0	0	0	0	0	0	0	0	0	0	0	0	0	0	0	0	0	0	0	0	0	0	0	0	0	0	0	0	0	0	0	0	0	0	0	0	0	0	0	0	0
OTU 56	2	0	0	0	0	0	0	0	0	0	0	0	0	0	0	0	2	1	0	2	0	0	0	0	0	1	0	0	0	0	0	0	0	0	7	0	0	0	0	0	1	3	0	0	0	0	0	0	0	1
OTU 57	25	1	0	6	0	0	1	3	6	6	2	2	12	40	0	2	11	2	1	7	1	33	5	4	2	1	0	1	0	0	41	0	6	1	10	1	8	0	3	1	7	1	2	9	2	0	1	4	6	0
OTU 58	0	0	1	0	0	2	0	0	0	0	4	0	1	0	0	0	3	0	0	4	0	0	0	0	3	0	0	0	1	4	0	0	0	0	4	3	1	0	0	53	0	0	20	1	0	0	0	0	0	3
OTU 59	0	5	2	8	4	0	4	0	0	0	0	0	4	1	0	2	0	0	0	5	3	2	5	7	1	4	0	8	0	1	0	0	0	11	0	1	0	3	3	0	8	0	0	0	0	0	7	3	0	4
OTU 60	0	0	3	2	2	0	0	0	0	0	2	2	1	9	1	0	0	1	0	0	0	1	1	0	6	55	0	5	1	8	1	1	0	0	0	0	0	0	1	2	0	0	1	2	0	2	1	50	1	0
OTU 61	0	5	0	0	0	0	5	107	0	0	4	48	0	4	7	0	1	1	2	3	1	8	1	2	6	1	0	1	2	5	4	0	3	3	13	0	0	22	0	0	0	0	2	0	4	1	0	0	0	3
OTU 62	1	1	0	0	3	1	0	5	0	0	0	0	0	0	0	0	0	11	0	0	0	0	0	0	0	1	0	0	0	0	0	28	0	1	0	0	0	0	0	0	0	0	0	0	0	0	0	0	0	0
OTU 63	0	0	0	0	0	0	0	0	0	0	1	0	0	0	3	1	2	0	0	0	1	0	0	2	0	0	0	0	0	1	1	0	0	0	0	0	2	1	0	0	1	4	0	0	0	0	1	0	11	0
OTU 64	4	6	0	6	0	1	0	0	0	1	0	2	9	1	1	1	10	6	12	0	4	2	0	3	1	6	0	11	0	3	1	0	3	1	0	0	0	0	0	26	0	5	17	1	1	1	0	3	5	1
OTU 65	0	0	0	0	0	0	0	0	0	0	0	0	2	0	0	0	0	0	0	0	0	8	0	0	0	0	0	0	0	0	0	0	0	0	0	0	0	0	0	0	1	0	0	0	0	0	0	1	0	0
OTU 66	4	0	0	0	0	1	0	0	4	0	1	1	2	0	0	2	0	5	4	3	2	2	0	1	2	4	1	1	0	0	4	0	3	0	1	0	0	0	8	0	3	0	1	0	0	0	1	0	0	3
OTU 67	0	4	1	0	10	3	0	1	3	2	1	0	0	3	0	0	1	0	0	5	0	14	13	0	0	0	4	0	2	0	0	0	1	0	0	0	2	0	0	0	0	151	0	2	0	2	1	1	4	0
OTU 68	0	0	0	0	1	0	1	1	2	2	1	1	1	0	3	1	0	0	0	0	0	1	7	2	0	0	1	2	0	1	1	0	0	0	3	0	0	0	0	0	0	0	0	2	0	0	0	0	0	0
OTU 69	3	1	2	0	1	3	1	0	1	0	29	0	0	1	2	0	29	0	12	1	0	2	0	3	2	2	8	1	1	0	9	11	0	5	0	1	0	32	0	10	0	3	11	0	0	2	0	0	1	0
OTU 70	2	0	0	0	3	2	2	0	0	0	0	0	0	3	6	0	0	3	0	0	0	1	0	0	2	0	0	0	0	0	1	0	0	0	0	0	0	2	3	0	1	0	1	0	0	0	0	1	0	0
OTU 71	0	0	0	1	0	4	4	0	0	0	0	1	0	2	0	0	1	2	0	0	0	0	0	6	0	0	0	5	0	0	0	1	1	4	0	1	0	1	1	0	3	0	0	5	0	0	1	0	1	0
OTU 72	4	0	3	1	0	4	4	0	0	3	0	2	5	3	1	6	0	0	4	0	6	1	0	3	1	0	0	2	1	4	0	2	0	3	5	0	0	0	3	0	51	2	0	0	0	0	6	0	1	6
OTU 73	0	3	0	0	0	0	3	1	3	0	2	0	2	1	0	0	2	0	0	1	1	2	0	4	0	0	0	0	1	0	0	0	0	2	3	3	1	0	6	0	7	0	1	0	0	136	0	0	0	0
OTU 74	0	4	1	2	0	0	0	1	0	3	0	0	3	5	3	0	1	0	6	3	1	0	2	1	6	0	1	0	0	7	0	0	1	0	0	3	149	0	0	1	0	0	0	1	0	0	0	4	0	0
OTU 75	1	1	4	0	8	0	1	0	0	2	0	0	0	0	0	0	2	1	4	1	0	6	0	0	3	3	1	2	81	0	5	0	0	0	0	1	3	0	1	2	1	0	1	2	0	0	0	0	0	1
OTU 76	2	0	3	1	0	0	0	0	3	0	9	0	0	0	0	0	0	0	1	1	0	0	1	0	0	1	0	0	0	0	0	0	9	1	2	0	0	1	0	1	0	0	0	0	0	1	0	3	0	0
OTU 77	5	1	18	0	2	0	4	0	1	0	1	0	0	0	2	0	0	7	3	1	0	1	2	17	1	1	0	0	1	0	2	8	1	1	0	0	1	1	0	0	6	0	0	1	0	0	0	0	0	3
OTU 78	0	1	0	0	4	0	42	0	0	0	0	0	41	1	0	0	0	0	5	0	0	0	1	51	1	4	1	0	2	0	0	1	1	36	0	20	5	0	0	0	0	0	0	0	1	0	100	9	0	1
OTU 79	5	5	10	6	76	24	20	3	1	0	13	1	36	1	5	0	19	0	3	6	2	13	1	40	2	0	150	2	9	1	4	6	26	23	5	6	3	0	11	9	3	0	6	5	1	0	1	3	6	4
OTU 80	0	1	3	0	4	12	3	9	0	0	1	1	2	1	5	0	0	0	2	0	0	3	0	1	13	0	0	1	2	4	1	1	3	0	0	0	0	2	0	1	3	3	0	3	0	4	4	1	1	0
OTU 81	1	4	0	1	6	0	2	0	4	0	0	1	0	49	5	0	14	1	0	2	0	2	1	1	23	0	2	1	0	2	4	1	2	1	18	1	2	4	0	3	0	0	7	0	0	0	1	1	0	1
OTU 82	0	2	0	0	3	12	0	10	5	0	11	0	2	4	0	0	0	1	0	0	1	2	0	0	0	1	0	0	4	6	0	0	13	1	0	0	3	1	0	0	0	4	0	1	0	4	0	1	0	2
OTU 83	0	0	0	0	0	0	0	0	0	0	0	0	0	0	0	0	0	0	0	4	0	0	0	0	0	0	0	2	0	0	0	0	0	0	0	0	0	0	0	1	1	0	0	0	0	0	0	0	0	0
OTU 84	0	6	0	0	0	0	2	0	0	1	0	0	2	0	0	0	1	4	0	0	0	2	0	1	0	0	0	0	0	0	0	1	0	0	1	0	3	0	0	0	1	0	0	0	0	0	2	0	0	0
OTU 85	2	2	0	0	0	0	0	2	2	1	0	0	0	0	0	0	0	0	0	0	0	2	2	0	0	1	1	0	1	9	0	0	0	0	8	1	0	0	0	0	0	2	0	0	0	0	0	0	0	0
OTU 86	0	0	0	0	0	0	0	0	0	0	0	0	0	1	0	0	0	0	0	2	0	0	0	0	1	0	0	0	0	0	0	0	0	0	0	0	0	0	0	0	0	0	0	1	0	0	0	0	0	0
OTU 87	0	0	0	0	0	0	1	0	0	0	0	0	0	1	0	0	0	0	0	0	0	0	0	0	0	0	0	0	0	1	0	0	0	0	0	0	4	0	0	0	0	0	0	2	0	0	0	0	0	0
OTU 88	0	1	0	0	0	0	0	0	0	0	0	0	0	0	0	0	0	0	0	0	0	1	0	0	0	0	0	0	0	0	0	0	0	0	0	0	0	0	0	0	0	0	0	0	0	0	0	0	0	0
OTU 89	1	0	1	0	0	0	0	0	2	0	47	0	2	1	0	0	0	1	0	1	0	0	0	1	0	0	1	0	0	11	1	0	0	0	3	0	1	0	3	1	0	0	2	0	0	0	3	0	0	0
OTU 90	0	0	0	0	0	0	0	0	0	0	0	0	0	0	0	0	0	0	0	0	0	0	0	0	0	0	1	0	0	0	0	0	0	0	0	0	0	0	0	0	0	0	0	0	0	1	0	0	0	0
OTU 91	0	0	0	0	0	0	0	0	0	0	0	0	2	0	0	0	0	0	0	0	0	0	1	0	0	0	1	0	0	0	0	0	0	0	0	0	0	0	0	0	0	2	0	0	0	0	0	0	0	0
OTU 92	0	0	0	0	0	0	9	0	0	0	0	0	0	2	0	0	0	0	0	0	0	0	0	2	0	0	0	0	0	0	0	0	0	0	0	9	0	0	0	0	0	0	0	0	0	0	0	0	6	0
OTU 93	0	0	0	0	0	0	0	0	0	0	0	0	0	0	0	0	0	5	0	0	0	0	1	0	0	0	0	0	1	1	0	0	0	0	0	0	0	0	0	1	0	0	0	0	1	0	1	3	0	0
OTU 94	18	1	3	0	0	0	0	1	3	27	2	15	0	0	0	0	0	9	8	9	2	2	1	1	8	4	2	0	0	1	21	2	2	0	2	1	1	3	0	0	5	1	0	2	0	0	0	7	3	0
OTU 95	0	0	2	0	0	0	0	0	0	0	2	0	0	0	0	0	0	1	1	1	0	2	0	0	1	0	0	0	0	0	0	0	1	0	0	0	0	0	0	0	2	0	0	1	0	1	0	0	0	0
OTU 96	0	0	0	0	0	0	0	0	0	0	0	0	0	0	0	0	0	0	2	0	0	0	0	0	0	0	0	0	0	0	0	0	0	0	0	0	3	0	0	0	0	0	0	0	0	0	0	0	0	0
OTU 97	0	0	0	0	17	2	0	2	77	0	0	0	0	1	0	0	0	0	0	0	0	2	0	0	0	2	31	0	1	0	1	0	0	0	0	0	0	0	3	0	1	0	0	3	0	24	0	8	0	0
OTU 98	0	0	0	1	0	0	0	0	0	0	0	0	0	0	0	16	0	0	2	1	25	2	9	0	0	0	1	0	0	0	0	0	0	0	2	0	0	0	5	0	0	1	0	0	2	0	2	0	1	7
OTU 99	0	0	0	3	0	0	0	0	0	2	1	1	2	1	1	0	3	1	3	2	0	2	0	0	1	0	0	0	3	5	4	1	1	1	0	0	1	3	1	2	0	1	3	0	0	2	1	0	3	2
OTU 100	5	3	1	0	0	0	0	83	0	0	0	0	1	0	0	0	3	0	2	0	0	0	0	0	0	0	0	0	1	3	2	0	0	0	2	0	1	1	0	0	0	0	0	0	0	3	0	0	0	2
OTU 101	0	0	0	0	0	0	0	0	0	0	0	0	0	0	0	0	0	0	0	0	0	0	0	0	0	0	0	0	0	0	0	0	0	0	0	0	0	0	0	0	0	0	0	0	1	0	0	0	0	0
OTU 102	0	0	0	1	1	1	0	0	0	0	0	0	0	0	0	0	0	0	0	0	0	0	3	0	2	0	0	0	0	1	1	2	0	0	0	0	4	0	0	0	0	0	0	8	0	0	2	0	0	0
OTU 103	0	2	1	0	0	0	2	0	0	0	0	0	4	2	0	0	0	1	0	0	1	0	1	6	0	0	0	9	0	1	0	45	1	2	0	3	0	0	0	0	0	1	0	3	0	0	0	0	1	1
OTU 104	2	0	6	1	0	0	1	1	0	7	2	5	6	2	7	0	5	5	1	0	0	1	1	0	0	3	0	2	0	0	0	0	0	0	7	0	4	0	0	3	4	1	0	0	1	0	1	6	1	4
OTU 105	0	1	0	0	0	0	1	0	0	0	0	0	1	1	1	0	2	0	0	0	0	0	0	4	0	0	1	0	0	0	0	0	0	0	0	1	0	0	0	0	0	0	0	2	0	0	0	3	0	1
OTU 106	0	12	0	0	0	0	0	0	0	0	1	0	1	0	0	0	0	0	0	0	0	2	0	2	0	0	0	0	0	0	0	59	0	0	0	0	0	0	0	0	0	0	0	5	0	0	0	3	0	0
OTU 107	0	0	0	69	0	1	1	0	0	47	1	30	0	0	0	3	0	0	0	0	14	0	2	0	0	0	0	4	0	0	0	0	0	2	0	0	0	0	5	0	0	0	0	0	3	0	3	1	0	14
OTU 108	0	1	5	0	0	0	0	0	0	1	0	1	0	1	0	0	0	0	0	1	0	3	1	0	0	2	0	0	0	0	0	0	2	0	3	0	1	34	0	0	0	0	0	1	0	2	49	0	1	0
OTU 109	0	0	0	0	0	0	0	0	0	0	0	0	0	0	0	0	0	0	0	0	0	0	0	0	0	0	0	0	0	0	0	0	0	0	0	0	0	0	0	0	0	0	0	0	0	0	0	0	0	0
OTU 110	2	0	0	0	3	0	1	0	1	0	0	0	2	1	0	1	1	6	0	0	2	0	0	0	2	1	1	1	0	62	4	0	0	4	2	0	3	1	1	0	2	0	0	2	0	0	1	3	4	1
OTU 111	0	0	0	0	0	0	0	0	0	0	0	0	0	0	0	0	0	0	1	0	0	2	0	0	0	0	0	0	0	0	0	0	0	0	0	1	0	0	0	0	0	1	0	0	0	2	0	0	0	0
OTU 112	0	0	0	0	0	2	1	0	0	0	0	0	1	0	0	0	0	1	0	1	0	0	2	2	2	0	0	5	0	8	0	0	4	0	0	2	1	0	0	0	1	0	0	0	0	0	1	1	0	0
OTU 113	0	0	0	0	0	0	0	0	0	0	0	0	0	0	0	0	1	0	0	0	1	0	2	0	0	0	0	0	0	0	0	0	0	2	0	0	0	0	0	0	0	0	0	0	0	0	0	1	1	0
OTU 114	1	4	1	0	4	3	0	0	1	1	6	0	1	1	0	3	0	3	0	0	3	0	0	1	0	0	7	4	1	2	11	4	0	1	9	2	0	0	1	0	2	8	0	0	2	1	0	6	0	5
OTU 115	2	11	2	0	2	1	2	0	0	3	18	4	2	1	3	0	6	0	2	12	2	1	2	1	4	1	0	5	0	6	1	3	3	0	0	0	1	0	2	2	2	0	0	0	2	1	2	0	1	2
OTU 116	0	13	0	4	0	2	0	1	4	8	4	3	14	2	1	0	1	2	2	3	2	2	12	1	2	2	0	7	1	4	10	6	4	0	4	0	3	0	3	0	74	0	0	0	1	1	0	1	0	1
OTU 117	2	3	1	0	0	0	1	0	0	1	1	1	0	1	5	3	0	0	0	0	1	0	1	2	1	0	0	0	2	2	4	0	1	0	1	0	3	1	0	0	0	0	0	0	0	1	0	0	1	1
OTU 118	0	0	0	0	0	0	0	0	0	1	2	0	0	1	4	0	1	0	0	0	0	0	0	0	0	0	0	0	0	0	0	0	0	0	0	0	0	1	1	0	0	0	0	0	0	0	0	0	4	0
OTU 119	5	2	0	0	0	4	2	0	0	8	0	7	0	0	4	1	0	59	3	9	0	2	1	0	5	0	0	5	0	6	4	2	3	4	0	0	0	0	15	1	5	0	2	1	1	0	2	0	0	1
OTU 120	0	13	0	1	0	0	0	0	0	10	0	10	2	0	0	0	0	1	0	0	0	0	0	0	0	0	0	0	0	0	0	0	0	0	0	0	0	0	0	0	0	0	0	0	0	0	0	2	0	0
OTU 121	0	1	0	2	0	0	0	0	0	0	1	8	1	0	0	0	5	0	1	0	0	0	0	7	1	2	2	0	0	0	2	0	0	0	7	0	2	0	0	3	0	0	0	0	0	1	0	9	0	0
OTU 122	0	0	1	0	0	0	0	1	0	2	1	0	3	0	1	0	0	0	1	0	0	0	0	2	3	1	0	3	0	13	2	0	5	0	0	1	0	2	0	0	0	1	1	0	0	0	2	0	1	1
OTU 123	3	55	2	3	57	4	4	0	7	10	2	3	13	11	10	0	0	9	7	7	1	18	135	5	1	13	2	16	3	12	6	4	25	10	1	3	1	3	5	0	18	1	0	2	0	8	2	4	11	1
OTU 124	0	0	0	0	0	0	0	0	0	0	0	0	0	0	0	0	0	1	1	0	0	0	0	2	0	1	0	0	0	1	0	2	0	0	1	0	0	0	0	0	0	0	0	0	0	0	0	1	0	0
OTU 125	9	9	5	27	0	4	2	1	1	5	7	1	13	10	1	8	0	0	7	2	15	12	46	5	16	0	0	4	2	10	10	1	12	3	4	0	2	3	44	1	54	2	2	5	9	0	7	4	4	19
OTU 126	0	0	0	0	0	0	0	0	0	0	1	0	3	2	0	1	0	0	0	0	1	0	0	0	0	0	0	0	0	1	0	0	0	0	0	0	0	0	0	0	0	1	0	0	0	0	0	0	0	0
OTU 127	4	1	0	2	2	1	0	1	3	2	0	2	1	0	1	0	0	0	0	1	0	0	3	0	0	0	2	0	1	0	0	7	5	1	0	0	0	3	0	0	0	1	0	0	0	0	1	0	2	0
OTU 128	10	12	20	4	1	8	1	2	6	9	2	3	1	6	5	23	1	3	3	13	47	7	8	2	2	15	0	7	4	2	10	2	3	4	2	0	11	1	3	1	10	2	0	2	97	2	46	42	3	135
OTU 129	0	0	0	0	0	0	0	0	2	0	0	0	0	0	0	0	0	0	0	0	0	0	0	0	0	0	0	0	0	0	0	0	1	0	0	0	0	0	0	0	0	2	0	0	0	2	0	0	0	0
OTU 130	2	0	0	0	0	4	0	1	4	9	2	3	3	0	0	0	26	10	0	2	0	1	1	2	1	117	0	0	0	0	3	7	1	0	4	0	0	21	2	29	2	0	12	0	0	0	0	1	0	2
OTU 131	0	0	0	0	0	0	0	2	1	2	0	0	0	0	0	180	0	0	0	1	3	0	0	5	1	0	1	0	1	0	0	0	0	1	1	0	0	0	0	3	0	0	40	0	19	0	2	0	4	1
OTU 132	0	0	1	0	0	0	0	1	0	0	0	0	2	3	0	0	1	2	0	1	0	0	0	0	0	7	0	0	0	8	0	0	2	0	68	0	0	7	2	0	0	0	0	0	1	1	1	1	0	0
OTU 133	0	0	0	0	0	0	0	0	0	0	0	0	0	6	2	0	0	0	0	0	0	0	0	0	0	0	0	0	0	0	0	1	0	0	0	0	0	0	0	1	0	1	0	0	0	0	0	0	1	0
OTU 134	2	1	0	0	1	0	0	0	0	5	0	1	4	1	0	0	0	0	1	2	2	10	0	0	0	0	0	0	0	4	0	0	3	0	2	1	2	0	1	0	0	0	1	2	0	0	0	0	0	0
OTU 135	0	1	1	0	2	0	0	0	0	3	0	1	0	5	1	0	2	0	0	1	0	1	2	1	0	1	0	4	0	1	10	0	0	0	2	0	2	1	0	0	1	2	0	0	0	0	0	7	3	0
OTU 136	1	0	0	2	0	0	0	0	0	0	5	0	2	3	0	0	2	1	0	1	0	0	0	0	0	0	0	0	1	2	0	0	0	1	2	0	0	4	0	0	0	0	0	1	0	0	0	3	1	0
OTU 137	0	0	1	0	0	0	0	0	0	0	0	0	10	0	0	36	0	0	0	0	79	0	0	0	0	1	0	0	0	7	0	0	1	0	0	0	0	0	3	0	2	1	0	0	0	0	0	3	0	2
OTU 138	1	0	0	0	0	2	2	5	0	0	11	0	2	2	1	0	0	0	1	0	1	3	0	4	4	0	0	0	0	0	1	0	0	3	0	1	0	0	0	1	0	0	0	0	0	0	0	0	1	0
OTU 139	8	4	0	3	4	1	1	3	4	1	3	1	0	2	0	2	1	1	3	2	1	0	0	0	2	3	3	1	0	0	0	0	1	0	0	0	1	0	7	0	0	16	8	0	94	3	3	1	35	1
OTU 140	26	3	14	1	3	4	2	6	13	8	19	2	4	20	1	0	1	0	72	18	0	1	1	2	3	5	4	5	2	4	38	1	25	1	0	3	7	2	1	1	0	1	1	12	0	2	1	5	5	1
OTU 141	0	0	0	0	0	0	0	0	0	0	0	0	0	0	0	0	0	0	1	0	0	0	0	0	10	0	0	0	0	0	0	0	0	0	0	0	0	0	0	0	0	0	0	0	0	0	0	0	0	0
OTU 142	0	0	0	0	0	0	0	0	0	0	0	0	0	0	0	0	0	0	0	2	0	0	18	0	0	0	0	0	0	0	0	0	0	0	0	0	1	0	0	0	0	0	0	0	0	0	0	0	0	0
OTU 143	0	0	0	0	0	5	0	0	0	0	0	0	0	0	1	0	0	0	0	0	0	0	0	0	0	0	0	0	2	0	0	0	6	2	0	0	0	0	0	0	0	0	0	0	0	0	0	0	0	0
OTU 144	0	11	4	0	0	1	0	0	0	0	53	0	0	0	0	0	0	0	1	0	0	0	0	0	1	1	0	0	0	0	0	0	0	0	0	0	0	0	0	0	0	0	0	0	3	0	0	1	0	0
OTU 145	5	0	0	0	0	1	0	2	6	0	1	0	7	4	117	0	19	2	0	0	0	1	1	1	6	0	5	1	3	0	0	2	0	0	0	0	0	0	1	10	0	0	3	5	0	1	0	2	0	0
OTU 146	2	0	0	0	6	0	0	1	3	1	4	0	1	8	0	0	2	0	0	3	0	1	0	0	0	1	1	0	0	0	0	0	1	1	0	0	0	9	3	0	0	8	0	1	0	0	0	0	0	1
OTU 147	0	8	0	3	0	0	0	0	2	0	0	0	0	0	0	0	1	0	0	1	0	1	0	0	0	2	2	0	0	0	3	3	0	2	0	0	0	0	0	0	1	0	0	0	0	0	1	1	0	0
OTU 148	3	1	1	2	0	0	0	0	0	0	0	98	2	0	1	0	44	0	0	1	0	4	2	5	6	0	0	1	0	0	1	0	0	0	0	1	0	0	0	19	0	1	14	0	0	0	0	3	3	0
OTU 149	1	0	0	0	0	0	0	0	1	0	3	0	0	0	1	0	2	2	1	0	0	0	0	0	0	1	1	0	0	1	0	4	0	0	0	0	0	0	4	2	1	0	0	0	0	0	0	0	0	1
OTU 150	0	0	1	0	0	0	0	0	0	0	0	0	0	1	0	2	0	0	0	0	3	0	0	0	0	0	0	0	0	0	0	1	0	0	0	0	0	0	0	1	0	1	0	0	0	0	0	0	0	0
OTU 151	1	7	0	1	1	0	1	0	0	1	0	0	0	0	0	2	0	0	0	0	1	0	1	0	3	0	0	0	0	0	0	1	0	0	4	0	0	0	0	0	0	1	0	1	0	0	0	0	0	0
OTU 152	2	4	2	0	1	0	1	0	0	1	0	0	0	5	3	0	3	0	1	3	1	11	1	0	2	0	0	0	0	0	3	1	0	0	0	1	0	1	0	0	0	1	1	1	0	0	0	2	0	0
OTU 153	0	0	0	0	0	0	0	0	0	0	0	0	0	0	0	0	0	0	0	0	0	0	0	0	0	0	0	0	0	0	0	0	0	0	0	0	0	0	0	0	0	0	0	0	0	0	0	0	0	0
OTU 154	0	0	0	0	0	0	0	0	0	3	0	1	1	2	0	0	0	0	0	0	0	0	4	0	0	0	0	0	0	0	0	0	0	1	0	0	0	2	0	0	0	2	0	0	1	0	0	0	1	0
OTU 155	0	2	3	1	0	18	0	15	0	0	0	0	0	0	0	0	0	0	0	0	0	0	0	0	0	0	0	1	3	1	2	0	0	0	0	0	0	1	0	0	1	0	0	0	0	0	0	0	0	0
OTU 156	6	12	7	2	9	1	4	0	1	3	2	1	3	2	1	0	9	1	3	54	0	5	3	5	0	2	0	4	2	4	1	1	5	6	5	1	4	4	2	5	3	0	2	0	0	2	2	7	0	0
OTU 157	0	0	0	0	0	0	1	0	0	1	0	0	0	3	4	0	0	5	0	2	0	0	0	6	0	0	0	18	0	0	2	1	0	6	0	0	0	0	0	0	2	8	0	0	0	0	0	2	24	0
OTU 158	0	0	0	0	0	0	0	0	0	0	0	0	0	0	0	0	0	0	0	0	0	0	0	0	0	0	0	0	0	0	0	0	0	0	0	0	0	0	0	0	0	0	0	0	0	0	0	0	6	0
OTU 159	1	19	0	0	0	0	0	0	0	2	1	0	2	2	0	0	0	0	2	2	0	1	4	0	0	1	1	0	0	0	1	0	2	0	10	0	0	0	0	1	0	0	0	0	0	1	0	3	0	1
OTU 160	6	2	7	12	3	2	10	1	6	0	0	0	10	2	5	7	5	1	9	29	5	2	0	4	0	3	0	22	3	6	9	7	3	2	8	3	4	22	32	3	0	1	2	24	2	9	12	7	6	15
OTU 161	0	0	84	3	2	5	0	3	2	0	1	0	1	0	1	0	1	1	2	1	0	6	1	0	5	5	0	0	2	4	1	0	1	0	2	0	0	0	0	0	3	0	0	0	0	0	0	0	1	0
OTU 162	0	1	3	0	0	0	15	0	2	3	2	5	0	0	3	0	0	1	1	0	0	0	0	36	3	0	0	5	0	2	0	7	4	21	0	6	0	0	4	0	1	0	0	37	0	0	0	0	1	0
OTU 163	0	0	0	0	0	0	0	0	0	0	0	0	0	0	0	0	0	1	0	0	0	0	0	0	0	0	0	0	0	9	0	0	0	0	0	0	0	1	0	0	0	0	0	0	0	0	0	0	0	0
OTU 164	0	1	0	0	0	0	0	0	0	1	0	0	0	0	0	0	0	0	0	1	0	0	0	0	0	0	0	2	0	0	0	0	0	0	0	0	0	0	0	0	0	0	2	0	0	0	0	0	0	0
OTU 165	2	0	22	2	0	1	1	0	0	1	18	2	0	1	0	0	0	1	0	2	2	1	0	1	0	0	0	2	2	0	0	0	38	1	4	0	1	0	0	0	1	2	0	0	0	0	0	0	0	0
OTU 166	0	0	0	0	0	0	0	0	0	0	0	0	0	0	0	0	0	0	0	0	0	0	0	0	0	0	0	0	0	0	0	0	0	0	0	0	0	0	0	0	0	0	0	0	0	0	0	0	0	0
OTU 167	0	0	0	1	0	3	0	0	0	0	0	1	0	0	1	0	0	0	0	0	0	4	0	0	0	4	0	0	0	0	0	0	2	0	0	2	2	0	0	1	1	1	0	0	0	0	0	0	1	0
OTU 168	2	3	1	1	1	0	0	1	0	1	1	2	1	0	4	0	0	2	0	0	0	0	0	0	5	3	0	2	0	0	4	0	1	0	1	0	1	0	2	1	0	0	0	0	1	0	1	0	1	2
OTU 169	0	0	0	2	0	0	0	0	0	0	0	0	0	0	0	0	0	0	0	0	0	0	0	0	0	0	0	0	0	0	0	0	0	0	0	0	0	0	0	0	0	0	0	0	0	0	0	0	0	0
OTU 170	0	0	0	0	0	0	0	0	0	0	0	0	0	0	0	0	0	0	0	0	0	0	0	0	0	0	0	0	0	0	0	0	0	0	0	0	0	0	0	0	0	0	0	0	0	0	0	0	0	0
OTU 171	0	1	1	0	0	3	0	1	0	3	1	0	9	0	3	0	0	3	5	0	0	1	0	0	2	1	0	3	0	0	0	0	2	1	2	0	0	0	1	0	1	0	1	0	1	0	0	0	0	1
OTU 172	0	0	0	0	0	0	1	0	0	0	0	0	0	0	0	0	0	0	0	0	0	0	0	0	0	0	1	0	7	0	0	1	0	0	0	0	0	0	0	0	0	1	0	0	0	0	0	0	0	0
OTU 173	1	0	0	0	0	0	0	0	1	2	0	1	3	3	0	0	1	0	0	0	0	0	1	0	1	0	10	1	0	0	0	1	0	0	0	0	0	0	0	0	4	0	0	0	0	0	0	2	0	0
OTU 174	0	0	0	2	0	2	0	0	4	0	0	13	0	2	1	0	0	0	0	0	0	1	0	0	0	0	3	1	0	1	0	0	0	0	0	0	1	1	0	0	0	0	0	0	0	1	0	1	0	0
OTU 175	0	0	0	0	1	1	0	0	0	1	0	0	4	1	0	0	0	0	0	0	0	13	0	1	0	0	1	0	0	0	3	1	2	0	0	0	1	0	0	0	0	0	0	0	0	0	0	0	1	0
OTU 176	5	1	0	0	1	1	0	0	4	0	0	0	5	3	0	0	0	0	1	5	1	1	4	2	3	0	1	0	1	0	7	2	2	0	0	0	1	0	2	3	0	18	1	2	0	0	0	2	6	0
OTU 177	1	1	0	0	0	0	2	0	6	1	1	0	0	1	1	0	2	0	2	1	0	0	0	0	0	0	2	5	0	1	2	0	0	0	0	0	0	0	1	0	1	1	0	28	0	0	0	0	2	0
OTU 178	0	0	0	2	2	0	0	0	0	4	0	2	1	0	0	0	0	0	0	0	0	2	0	0	1	0	0	3	74	0	4	3	1	0	0	0	0	0	0	1	0	0	0	0	2	0	1	7	0	0
OTU 179	0	5	0	2	0	0	0	0	0	0	0	0	0	0	0	0	1	121	0	21	0	1	0	1	0	14	0	0	0	3	0	30	0	0	0	0	0	1	0	0	0	1	0	0	1	0	1	1	4	0
OTU 180	6	5	3	43	12	0	0	1	36	4	0	2	3	7	1	18	1	4	2	8	22	10	0	0	4	1	25	7	2	8	1	1	1	130	17	0	1	4	93	1	3	5	34	19	7	29	24	3	3	42
OTU 181	0	0	0	0	0	3	0	1	0	0	0	0	0	0	0	0	0	1	0	0	0	0	0	1	8	3	0	11	0	0	1	4	0	0	1	1	0	3	0	9	0	3	1	8	0	0	0	0	14	1
OTU 182	0	0	0	0	0	1	0	0	0	0	0	0	0	0	0	0	0	0	0	0	0	0	0	0	0	0	0	0	0	0	0	0	0	0	0	0	0	0	0	0	0	1	0	0	0	0	0	0	0	0
OTU 183	0	0	0	3	1	1	2	0	0	1	1	0	0	0	0	0	2	0	0	1	0	0	1	2	0	3	0	4	2	1	0	3	4	3	0	6	0	0	0	0	0	0	1	2	0	2	0	4	1	1
OTU 184	0	2	0	0	1	0	0	0	0	0	0	0	0	0	0	0	0	0	0	4	0	1	0	0	4	0	0	0	0	1	0	1	0	0	0	0	0	0	0	0	2	0	0	2	0	0	0	2	0	0
OTU 185	2	0	2	1	7	15	0	7	14	0	0	0	1	7	0	3	0	1	0	1	0	2	0	0	2	0	10	2	4	1	0	1	1	0	8	2	6	0	9	0	1	1	0	0	11	6	0	0	2	4
OTU 186	19	0	0	0	0	0	0	0	0	0	0	0	0	0	0	0	0	0	0	0	0	0	1	0	0	0	0	0	0	0	0	0	0	0	0	0	1	0	2	0	1	0	0	0	0	0	0	0	0	0
OTU 187	2	3	2	1	0	2	1	0	3	1	4	0	12	0	1	0	2	5	4	0	0	6	0	4	2	0	3	3	1	1	5	1	3	3	2	0	0	4	0	6	0	5	4	7	0	6	7	3	10	1
OTU 188	1	2	2	2	1	4	2	1	1	9	0	3	0	0	1	0	0	0	8	2	1	4	18	3	1	8	3	0	4	2	6	4	6	3	8	1	0	1	0	0	13	4	0	0	0	3	0	33	2	0
OTU 189	1	3	0	3	1	0	0	1	1	54	1	29	0	2	0	0	7	0	1	0	0	1	3	0	12	3	1	1	3	0	0	0	9	3	4	0	0	1	0	3	0	2	0	0	0	0	1	2	1	0
OTU 190	0	0	0	0	1	0	0	0	0	0	0	0	0	0	0	0	0	0	0	0	0	0	0	0	0	0	0	0	0	0	3	0	0	0	1	0	0	1	0	0	0	0	0	0	62	0	0	0	0	0
OTU 191	9	0	1	0	1	1	1	0	0	0	0	1	2	5	0	0	0	2	0	3	0	38	3	9	10	0	0	9	0	0	0	1	1	1	0	1	0	0	1	1	0	6	1	1	1	1	1	0	3	0
OTU 192	2	3	3	2	0	0	1	0	1	1	0	1	7	2	5	0	56	2	0	10	1	0	0	8	1	0	0	0	0	2	4	0	6	4	35	0	2	0	0	24	2	16	18	0	5	32	0	0	19	0
OTU 193	0	0	1	3	0	80	0	47	0	0	1	0	2	2	0	0	4	0	0	0	0	0	1	0	0	0	0	1	42	3	5	0	1	0	0	0	0	30	0	2	1	0	0	1	0	5	0	0	6	0
OTU 194	0	0	0	0	0	0	0	0	0	1	1	0	0	0	0	0	1	0	0	0	0	0	0	2	1	0	0	1	0	1	1	0	2	0	0	0	1	0	0	5	0	2	1	0	0	0	0	0	2	0
OTU 195	6	2	0	0	0	0	1	0	0	0	1	0	0	7	0	0	0	0	0	8	0	0	3	0	0	0	0	0	0	8	1	3	3	7	0	0	1	0	0	0	0	0	5	0	0	1	0	0	0	1
OTU 196	2	1	2	0	0	0	0	0	0	1	0	0	0	0	0	0	0	0	2	2	0	0	1	1	1	0	0	0	0	0	5	0	2	0	3	0	0	0	0	0	1	0	0	0	0	1	0	1	0	0
OTU 197	2	9	4	1	0	3	0	1	0	1	1	6	7	7	1	0	6	1	29	0	0	1	1	1	6	0	1	3	2	3	2	1	1	4	2	0	2	2	3	4	2	1	1	6	0	0	1	2	2	2
OTU 198	0	0	0	1	0	2	0	0	0	3	2	1	2	0	0	0	1	0	0	0	0	1	0	2	1	0	0	0	0	1	0	0	0	0	0	0	0	0	0	0	1	1	0	1	2	0	0	1	0	0
OTU 199	1	0	0	1	0	0	0	0	0	0	0	1	0	1	0	0	2	0	0	0	0	3	0	0	2	0	0	0	0	0	1	0	0	0	1	0	1	0	0	0	0	0	0	1	0	0	0	2	0	1
OTU 200	2	0	0	2	3	0	2	0	0	0	0	0	3	0	7	0	0	0	0	0	0	0	1	6	0	0	0	11	0	2	1	4	5	3	2	0	0	1	3	0	0	0	0	62	0	0	1	0	5	0
