	Host 1	Host 2	Host 3	Host 4	Host 5	Host 6	Host 7	Host 8	Host 9	Host 10	Host 11	Host 12	Host 13	Host 14	Host 15	Host 16	Host 17	Host 18	Host 19	Host 20	Host 21	Host 22	Host 23	Host 24	Host 25	Host 26	Host 27	Host 28	Host 29	Host 30	Host 31	Host 32	Host 33	Host 34	Host 35	Host 36	Host 37	Host 38	Host 39	Host 40	Host 41	Host 42	Host 43	Host 44	Host 45	Host 46	Host 47	Host 48	Host 49	Host 50	
OTU 1	8	6	0	8	1	2	2	5	2	5	9	2	1	0	0	1	3	15	15	5	0	3	5	4	0	2	10	0	1	31	2	12	0	4	12	0	1	6	6	3	2	0	0	0	13	0	2	5	3	15
OTU 2	0	3	0	1	7	1	1	0	0	0	3	0	3	1	0	0	1	0	2	0	0	0	0	0	0	1	0	1	0	0	0	0	1	0	0	3	3	0	0	0	0	0	0	0	0	2	0	1	1	0
OTU 3	0	0	0	0	0	0	1	0	3	0	0	0	0	0	0	0	1	0	0	0	0	0	0	0	0	4	1	1	0	0	0	0	0	0	0	0	0	0	17	24	0	0	0	0	3	1	0	0	0	61
OTU 4	0	0	0	0	0	0	0	0	0	0	0	0	0	0	0	0	0	0	0	0	0	0	0	0	0	0	0	0	0	0	0	0	0	0	0	0	0	0	0	0	0	0	0	0	0	0	0	0	0	0
OTU 5	23	2	18	8	0	1	47	39	30	17	37	15	16	0	50	0	37	2	45	16	2	31	10	1	3	87	3	0	1	19	35	38	17	4	59	18	5	0	9	18	11	27	11	14	0	33	6	0	11	28
OTU 6	3	1	1	7	0	0	3	6	7	0	0	1	0	1	0	0	0	0	10	8	2	5	0	0	4	1	11	2	0	6	0	8	1	0	3	0	3	2	1	0	0	0	1	0	0	4	40	0	0	1
OTU 7	2	0	11	4	1	2	13	2	0	5	5	0	13	3	10	4	4	10	3	0	1	2	13	7	0	0	1	4	1	1	1	1	3	0	0	6	4	1	0	1	1	12	9	5	11	0	6	1	0	0
OTU 8	10	3	4	3	12	6	8	11	3	7	2	1	2	9	1	9	0	6	26	0	4	2	0	4	2	0	2	9	5	7	1	1	3	0	3	1	2	4	1	3	0	0	4	0	8	2	5	10	3	3
OTU 9	0	0	0	0	0	0	3	0	0	0	0	0	0	0	0	0	0	0	0	0	0	1	9	0	0	0	0	0	0	1	0	2	0	0	0	2	0	0	0	0	2	0	3	0	0	0	0	2	0	0
OTU 10	1	0	0	0	0	0	0	0	0	4	1	0	0	0	0	0	0	3	0	0	3	4	0	0	0	0	0	2	2	0	3	0	0	0	0	0	5	5	0	0	0	0	0	1	5	0	4	0	0	0
OTU 11	0	10	1	0	0	3	4	0	1	4	6	3	2	8	0	3	1	0	0	0	1	3	2	0	4	0	0	3	2	2	5	2	0	1	1	2	3	1	0	1	0	2	1	0	2	0	2	0	4	0
OTU 12	1	0	6	3	7	0	1	0	0	4	1	10	1	3	2	0	7	4	0	3	2	0	1	1	0	0	0	6	0	3	0	0	1	0	0	0	1	5	1	0	3	1	10	0	7	6	4	1	0	4
OTU 13	0	0	0	0	0	0	0	0	0	0	0	0	0	0	0	0	0	0	0	0	0	0	0	1	0	0	0	0	0	0	0	0	0	0	0	0	0	0	0	0	0	0	0	0	0	0	0	0	0	0
OTU 14	0	1	0	0	0	3	0	0	0	0	1	6	0	2	0	0	4	2	0	0	0	1	0	3	0	3	0	0	3	0	0	0	1	0	0	0	0	1	6	9	2	0	1	0	1	0	0	0	2	15
OTU 15	0	0	0	0	0	0	0	0	0	0	0	0	0	0	0	0	0	0	0	0	0	0	0	0	0	0	0	0	0	0	0	0	0	0	0	0	0	0	0	0	1	0	0	0	0	0	0	0	0	0
OTU 16	0	0	0	0	0	0	0	0	0	1	0	0	0	0	0	0	0	0	0	0	0	0	0	0	0	0	0	0	0	0	0	0	0	0	0	0	0	0	0	0	0	0	0	0	0	0	0	0	0	0
OTU 17	0	3	2	0	0	2	0	0	0	0	1	0	0	0	0	0	0	3	0	4	0	2	0	4	0	0	0	1	0	0	2	0	5	0	1	0	1	0	0	0	0	0	0	0	0	1	2	2	0	0
OTU 18	2	0	0	1	10	0	0	4	1	1	2	64	2	0	4	0	1	1	2	0	0	0	0	0	0	0	0	0	1	1	1	0	1	7	0	0	0	5	0	0	1	5	3	0	1	0	0	10	1	0
OTU 19	0	0	0	0	0	0	0	0	0	0	0	0	0	0	0	0	0	0	0	0	0	0	0	0	0	0	0	0	6	0	0	0	0	0	0	0	0	0	0	0	0	0	0	0	0	0	0	0	0	0
OTU 20	0	1	0	3	0	1	0	2	0	0	2	0	8	0	2	0	0	0	1	1	6	0	118	2	0	1	0	1	1	0	0	1	0	6	1	0	4	4	0	0	0	3	2	0	0	0	0	9	0	0
OTU 21	0	5	0	0	12	2	0	0	0	1	1	0	0	8	0	2	0	2	0	2	3	0	0	1	8	0	1	3	3	3	5	1	0	2	1	1	0	2	0	1	1	0	0	1	1	0	5	7	2	4
OTU 22	0	2	2	0	4	0	0	2	0	2	0	24	3	1	0	1	1	1	1	0	0	1	1	0	0	0	0	0	2	0	1	0	0	0	0	4	0	2	0	0	79	0	1	0	1	3	3	2	0	0
OTU 23	3	0	0	3	0	1	1	1	0	1	0	0	1	1	3	2	0	4	0	63	0	0	0	1	0	0	4	3	0	7	0	0	3	2	2	0	0	0	0	1	0	0	0	0	0	0	3	3	0	2
OTU 24	0	7	2	0	1	0	0	0	0	0	0	0	0	0	0	0	0	0	0	0	0	1	1	0	1	0	0	0	1	0	2	0	0	0	0	0	0	0	0	1	0	3	24	0	0	1	0	0	0	0
OTU 25	0	0	0	0	0	0	0	0	0	0	0	0	0	0	0	0	0	0	0	0	0	0	0	0	0	0	0	0	0	0	0	0	0	0	0	0	0	1	0	0	0	0	0	0	0	0	0	0	0	0
OTU 26	0	0	0	0	0	0	1	0	0	0	3	0	0	0	0	0	2	1	0	0	0	0	0	0	0	0	0	0	0	0	0	0	0	0	1	1	0	0	0	0	0	0	0	3	0	0	0	0	0	0
OTU 27	0	0	0	0	0	0	0	0	0	1	0	0	0	0	0	0	0	0	0	0	0	0	0	0	0	0	0	0	0	0	0	0	0	0	0	0	0	0	0	0	0	0	0	0	0	0	0	0	0	0
OTU 28	0	0	1	3	3	1	2	1	2	2	1	2	0	0	6	5	3	0	0	1	0	5	1	0	3	0	2	1	0	0	1	3	3	0	1	1	1	1	0	0	3	1	2	2	0	1	5	0	2	0
OTU 29	9	9	0	0	3	0	1	0	0	3	5	6	2	1	4	0	0	3	0	0	1	0	5	5	1	0	0	2	1	2	1	1	0	5	1	3	1	5	2	0	1	3	1	7	20	5	1	4	4	2
OTU 30	0	0	0	0	0	0	0	0	0	0	0	0	0	0	0	0	0	0	0	0	0	0	0	0	0	0	0	0	0	0	0	0	0	0	0	0	0	0	0	0	0	0	0	0	0	0	0	0	0	0
OTU 31	0	0	2	0	0	0	0	0	0	0	0	0	0	0	0	0	0	0	0	0	0	1	0	0	0	0	0	2	0	0	0	0	1	0	1	0	0	0	1	0	1	3	0	0	0	0	2	9	0	0
OTU 32	22	0	0	0	1	0	0	1	0	2	21	0	13	1	8	2	18	3	4	0	1	1	1	0	1	0	0	1	1	5	0	0	6	15	0	12	2	1	0	0	2	1	3	21	1	4	0	33	0	0
OTU 33	0	0	0	0	1	0	0	0	0	0	0	0	0	4	0	0	0	0	0	0	0	0	0	0	0	0	0	0	0	0	0	0	0	0	0	0	1	0	0	0	0	0	0	0	1	0	0	0	0	0
OTU 34	0	1	3	2	4	2	1	0	1	44	0	0	0	5	3	4	0	2	0	0	5	2	0	1	2	10	0	0	4	1	3	1	5	60	1	1	1	1	51	0	0	0	1	0	0	3	0	3	1	0
OTU 35	0	1	0	5	3	11	1	0	0	1	1	9	0	0	0	0	1	12	2	3	1	1	3	8	1	1	2	0	0	0	0	0	21	0	0	0	3	0	0	8	0	0	0	0	1	0	3	8	0	3
OTU 36	0	0	1	0	0	0	3	1	0	2	2	0	0	0	0	1	0	3	3	0	0	0	0	22	0	0	0	0	0	0	0	0	2	105	0	0	0	1	0	0	1	0	7	0	4	3	4	3	0	0
OTU 37	0	0	0	0	0	2	0	0	0	0	0	0	0	0	1	0	0	0	0	0	0	0	0	1	0	0	0	0	0	0	0	0	0	0	0	0	0	0	0	0	1	0	0	0	0	0	0	1	0	0
OTU 38	0	0	0	1	0	0	0	1	1	5	3	0	2	9	0	3	2	0	1	0	2	0	0	0	0	0	2	6	0	2	0	0	0	0	1	2	0	67	0	0	0	0	0	0	0	0	0	1	0	0
OTU 39	0	0	0	0	0	0	0	0	17	1	2	0	0	3	0	5	0	0	0	1	2	0	2	0	0	0	0	0	0	0	0	0	0	0	0	0	0	0	0	0	1	2	0	0	0	0	0	2	0	0
OTU 40	0	15	1	0	2	0	4	0	0	4	5	0	0	0	0	5	1	0	0	0	0	1	4	0	2	2	1	1	0	0	3	0	0	3	0	1	0	0	0	1	8	2	1	0	0	0	0	6	6	0
OTU 41	0	1	1	1	27	0	1	1	0	5	0	1	0	3	2	3	1	2	0	2	1	1	6	0	0	1	0	1	6	3	2	2	4	0	0	0	0	1	2	1	0	4	3	0	2	4	3	0	1	6
OTU 42	0	0	1	0	0	0	0	1	0	0	0	0	0	0	1	0	2	0	0	1	0	0	0	0	1	0	1	0	0	1	0	0	0	2	0	0	0	0	0	1	0	0	1	0	0	0	0	2	0	0
OTU 43	0	0	0	0	0	0	0	0	0	0	0	0	0	0	0	0	0	0	0	0	0	0	0	0	0	0	0	0	0	0	0	0	0	0	0	0	0	0	0	1	0	0	4	0	0	0	0	0	0	0
OTU 44	0	1	0	0	3	0	0	0	0	0	0	5	0	0	0	2	0	0	0	0	0	1	0	0	1	0	0	4	0	0	0	0	0	0	0	1	0	0	0	0	0	0	0	0	0	0	0	0	0	0
OTU 45	0	4	3	1	0	0	0	0	12	2	1	2	5	0	2	2	0	0	0	0	8	80	1	0	1	0	1	0	3	0	3	26	0	0	0	1	0	0	0	0	0	6	1	1	0	1	5	0	1	0
OTU 46	2	2	2	0	1	0	0	0	111	1	0	11	2	1	1	5	0	3	0	1	1	4	4	1	1	0	0	1	1	0	0	0	4	0	0	0	0	3	0	0	3	6	0	0	0	3	8	0	1	0
OTU 47	0	0	0	0	0	0	0	0	0	0	0	0	0	0	7	0	0	0	0	0	0	0	2	0	0	0	0	0	0	2	0	0	0	0	0	0	0	0	0	0	0	0	0	0	0	0	0	0	0	0
OTU 48	0	0	0	0	1	1	1	0	1	1	0	1	0	5	0	0	0	2	0	1	0	1	14	1	3	5	0	0	9	0	0	2	1	1	0	0	0	5	12	20	0	0	2	0	2	5	0	0	0	2
OTU 49	0	4	2	0	0	3	0	0	0	0	0	0	0	0	0	0	0	3	1	0	0	1	2	0	2	0	0	0	34	0	2	0	0	0	0	0	0	0	0	0	0	0	0	0	6	0	0	0	1	0
OTU 50	5	0	2	8	1	4	78	9	0	0	0	2	3	2	1	0	0	8	13	22	0	9	1	3	0	0	1	2	0	30	0	2	0	0	8	0	0	6	0	2	3	13	6	0	0	1	1	1	0	1
OTU 51	0	0	0	0	0	0	4	0	0	0	0	14	1	0	2	2	0	1	0	0	0	1	0	1	1	0	0	3	3	1	0	0	2	8	0	0	0	0	2	0	0	5	1	0	0	14	0	4	1	0
OTU 52	4	2	3	3	11	18	4	0	0	7	8	0	2	16	0	2	0	8	9	2	0	6	0	6	0	0	2	0	0	5	0	0	3	1	3	3	2	1	1	1	1	1	20	0	7	1	21	2	95	6
OTU 53	0	0	0	0	0	0	0	0	0	0	0	0	0	0	0	0	0	0	0	0	0	0	0	0	0	0	0	0	0	0	0	0	0	0	0	0	0	0	0	0	2	0	0	0	0	0	0	2	0	0
OTU 54	0	31	1	0	10	0	2	0	5	0	74	5	8	0	0	3	29	6	0	0	8	0	2	5	1	0	0	2	2	2	11	0	4	0	2	10	3	17	0	0	12	6	0	21	5	6	4	5	10	2
OTU 55	0	0	0	0	0	0	0	0	0	0	0	0	0	0	0	0	0	0	0	0	0	0	0	0	0	0	0	0	0	0	0	0	0	2	0	0	0	0	0	0	0	0	0	0	0	0	0	0	0	0
OTU 56	0	0	0	0	5	1	0	1	2	0	0	0	0	3	0	0	103	0	0	0	0	0	3	0	1	0	1	0	0	0	0	0	1	0	0	51	0	0	0	0	3	0	0	73	6	0	0	3	0	0
OTU 57	1	3	4	0	0	1	2	2	3	3	0	2	3	2	2	3	0	12	0	3	2	0	3	2	1	15	3	1	8	1	1	1	22	1	0	0	2	0	48	5	2	5	2	0	1	17	3	2	1	10
OTU 58	0	0	5	0	0	1	2	3	0	0	2	0	4	1	0	1	0	0	0	1	0	0	0	0	2	0	0	8	0	2	0	0	1	1	3	0	0	0	0	0	4	0	0	0	0	5	3	0	1	0
OTU 59	1	0	0	0	0	1	5	7	0	1	0	0	0	0	0	4	0	1	2	2	1	4	0	0	0	0	0	1	3	1	0	0	4	0	0	0	0	1	0	1	4	0	0	0	6	0	1	1	0	0
OTU 60	0	0	4	0	4	1	1	1	1	1	2	3	1	1	6	0	0	4	0	2	3	0	0	0	0	0	1	2	0	0	0	4	1	1	1	1	0	2	3	1	0	2	11	0	0	0	9	3	0	3
OTU 61	25	0	8	0	9	0	7	19	0	3	0	6	7	3	4	2	1	5	42	0	0	0	0	1	0	0	1	0	15	1	0	0	34	6	1	1	0	0	1	2	1	2	1	5	1	11	0	13	71	10
OTU 62	0	1	0	0	0	0	0	0	1	0	0	0	0	4	1	1	0	0	0	0	0	0	0	0	0	21	0	0	14	0	0	0	0	0	0	0	0	0	39	84	1	0	2	0	0	1	1	2	1	1
OTU 63	0	0	0	0	4	0	0	0	0	0	2	0	0	0	0	5	0	0	0	1	10	0	2	0	6	0	0	0	1	0	0	1	0	0	1	1	5	0	0	1	0	0	0	0	0	1	0	0	0	1
OTU 64	41	2	0	0	2	1	3	33	17	0	2	1	0	3	2	8	2	7	73	1	12	1	5	2	0	0	1	0	5	3	2	65	5	2	0	2	2	3	0	1	2	0	9	0	4	5	3	1	3	1
OTU 65	0	0	0	1	0	0	0	0	0	0	0	0	0	1	4	0	1	0	0	0	0	0	0	0	0	0	0	0	0	0	0	0	0	0	0	1	0	0	0	0	0	0	1	0	0	0	0	0	0	0
OTU 66	0	1	0	0	11	0	1	0	1	2	0	0	0	2	1	3	3	1	0	0	1	0	0	0	1	0	2	1	0	0	0	0	1	4	0	0	1	8	0	2	1	0	1	0	0	4	0	3	0	0
OTU 67	0	1	1	1	4	3	0	0	0	0	0	0	0	6	4	0	0	6	1	0	2	1	3	1	9	0	0	0	0	0	1	0	0	0	0	0	16	2	0	0	2	9	0	0	8	1	1	1	3	0
OTU 68	0	0	4	0	0	1	0	1	0	0	0	0	0	2	1	0	0	6	0	3	0	0	0	1	0	0	0	0	0	0	0	1	0	0	0	0	0	0	0	0	2	0	0	0	0	0	4	0	0	0
OTU 69	0	8	1	1	1	0	0	2	1	3	1	3	1	7	8	4	0	2	0	0	5	0	0	0	4	1	0	3	7	0	3	0	3	0	0	0	1	0	0	0	0	14	4	0	1	0	0	2	2	0
OTU 70	0	6	8	0	0	1	0	1	1	0	0	1	1	0	1	0	0	0	0	0	0	0	0	0	0	0	0	0	0	0	1	1	0	0	0	0	0	1	0	0	0	0	0	0	0	0	0	0	9	0
OTU 71	0	0	0	1	0	0	0	0	0	3	2	0	0	2	1	0	1	0	0	0	0	0	0	0	36	0	0	2	11	0	0	3	0	0	0	1	1	0	0	1	0	0	0	1	1	0	0	0	1	0
OTU 72	0	6	1	0	0	0	1	27	1	1	2	0	119	1	3	1	4	0	1	0	6	0	34	0	6	0	0	0	2	2	2	1	0	2	1	1	9	4	0	0	3	0	1	4	5	0	0	0	1	0
OTU 73	1	0	3	0	0	0	0	1	2	0	0	1	0	1	1	1	0	0	0	1	0	0	1	0	0	0	1	0	2	0	1	5	5	1	0	0	2	0	0	0	0	0	0	0	2	0	0	13	1	1
OTU 74	0	3	1	0	1	4	0	0	0	0	6	1	4	4	2	0	2	0	0	0	1	2	1	0	2	0	0	14	1	2	0	1	2	4	1	2	7	1	1	0	0	2	0	3	2	0	0	17	4	0
OTU 75	0	0	5	1	3	3	2	0	0	1	0	1	0	1	0	6	0	3	3	2	1	1	5	0	1	0	0	1	0	2	0	3	5	3	1	0	0	4	0	0	0	1	0	0	2	1	1	7	0	5
OTU 76	0	0	0	0	0	0	0	0	0	0	1	0	0	4	0	0	0	0	0	0	1	0	0	0	0	0	0	88	0	0	0	0	0	0	1	0	0	1	0	0	0	9	6	1	0	0	2	0	0	1
OTU 77	0	0	1	0	1	0	2	0	0	0	3	2	0	1	1	1	2	0	0	3	1	0	0	1	0	0	0	3	3	0	0	0	0	2	1	2	41	0	0	0	1	0	0	0	0	1	1	1	1	0
OTU 78	2	0	0	0	11	6	0	1	0	0	1	0	0	0	3	4	1	1	2	0	2	1	1	0	2	0	2	0	3	0	0	0	1	6	0	0	0	1	3	0	2	7	7	0	2	2	12	11	0	3
OTU 79	1	13	9	1	4	3	5	54	1	3	4	1	6	8	5	4	4	4	1	5	8	7	0	1	27	0	1	6	1	4	4	4	8	1	4	2	6	5	0	1	9	2	12	4	11	6	3	3	5	0
OTU 80	1	0	2	0	0	0	8	0	0	0	1	1	5	17	0	0	4	0	0	0	0	0	0	0	4	2	0	6	4	0	0	1	0	6	0	2	0	4	1	1	1	3	1	0	9	3	4	3	0	4
OTU 81	1	0	1	0	1	0	4	2	0	1	0	2	0	5	2	12	0	3	7	0	3	1	1	0	0	7	103	2	2	1	1	0	3	3	0	1	2	8	10	55	3	1	2	1	1	7	2	2	1	57
OTU 82	0	0	4	0	1	0	0	0	0	0	0	0	0	7	1	1	0	0	0	0	0	0	3	0	1	0	1	3	0	2	34	0	0	0	0	0	0	0	0	0	3	3	0	0	0	0	6	0	0	1
OTU 83	0	0	0	0	0	0	0	0	0	0	0	0	2	0	1	17	0	0	0	0	1	0	0	0	1	0	0	0	0	0	0	0	0	0	0	0	0	0	0	0	0	1	1	0	0	2	0	0	0	0
OTU 84	129	0	3	2	1	0	6	0	0	1	1	1	0	3	0	0	0	0	0	11	15	2	0	83	1	0	3	3	0	16	0	0	0	0	9	0	4	1	0	0	0	0	3	0	3	0	2	0	1	2
OTU 85	0	1	2	0	0	1	0	0	0	2	1	0	0	0	0	0	0	1	0	0	0	0	0	1	0	0	0	0	0	0	0	0	0	0	0	0	1	0	0	0	0	4	0	1	0	0	0	0	0	0
OTU 86	0	0	0	0	0	0	1	0	0	0	0	0	0	0	0	0	0	0	0	0	0	0	0	0	0	0	0	0	0	0	0	0	0	0	0	0	0	0	1	2	0	0	3	0	0	0	0	0	0	5
OTU 87	0	0	0	0	0	0	0	1	0	0	0	1	0	0	1	0	0	0	2	1	0	0	1	0	4	0	0	0	1	0	0	0	0	0	0	0	0	1	0	0	2	3	0	0	0	2	0	0	1	0
OTU 88	0	0	0	0	0	0	0	0	0	0	0	0	0	0	5	0	0	0	0	0	0	0	0	0	0	42	0	0	2	0	0	0	0	1	0	0	0	2	0	1	0	0	0	0	0	0	0	0	0	0
OTU 89	0	0	0	0	0	0	2	3	0	0	0	0	0	1	0	1	0	3	0	0	1	0	0	2	3	0	0	0	0	0	0	0	0	0	0	0	0	0	0	0	3	0	0	1	0	0	1	0	0	1
OTU 90	0	4	0	0	0	0	1	0	0	0	0	0	1	0	0	0	0	0	0	0	0	0	0	0	0	2	0	1	3	0	4	0	0	0	0	0	0	0	0	0	0	0	0	0	0	0	0	0	3	0
OTU 91	0	0	1	0	0	0	0	0	0	1	0	0	0	0	1	0	0	0	0	0	0	0	0	0	0	0	0	0	1	0	0	0	0	0	0	0	0	0	0	0	0	0	0	0	0	0	0	0	0	0
OTU 92	0	0	0	2	0	0	2	0	0	1	0	0	0	0	0	0	0	0	0	1	0	0	0	0	0	0	0	0	0	0	0	0	0	1	0	0	0	0	0	0	0	1	0	0	0	0	0	1	0	0
OTU 93	0	0	0	0	1	0	0	0	0	0	0	0	0	0	0	0	0	3	0	0	0	1	0	0	0	0	0	3	0	0	0	0	0	0	0	0	0	0	0	0	0	0	0	0	0	0	0	0	0	0
OTU 94	0	17	7	3	0	2	6	0	9	7	0	0	4	1	0	4	0	3	1	0	1	0	3	1	0	0	1	2	2	0	11	24	0	6	0	0	1	1	0	1	13	1	4	1	8	5	15	1	6	3
OTU 95	0	0	0	0	0	0	7	0	0	0	0	0	0	0	0	0	1	0	0	0	1	0	0	0	0	0	0	0	0	0	0	0	0	0	0	1	0	0	0	2	0	0	0	0	0	1	0	1	0	3
OTU 96	0	0	0	0	0	0	0	0	0	0	0	0	0	0	0	0	0	0	0	0	0	0	2	0	0	0	0	0	0	3	0	0	0	0	1	0	0	0	0	0	0	0	0	0	0	0	0	0	0	0
OTU 97	0	0	0	0	0	0	0	0	0	0	0	0	0	1	0	0	0	0	0	0	0	0	0	0	0	0	0	0	1	4	0	0	1	0	0	1	0	0	0	0	0	0	0	0	0	0	0	0	0	0
OTU 98	0	0	0	0	0	1	0	0	6	1	0	2	0	0	1	0	0	0	0	0	0	0	3	0	0	0	2	0	1	0	0	0	0	0	0	0	0	0	0	0	3	0	0	0	0	0	0	1	0	0
OTU 99	9	0	0	0	0	1	1	16	1	30	4	0	0	2	0	7	0	2	10	0	2	13	4	0	2	0	1	6	2	0	1	2	0	6	0	1	8	0	0	0	10	4	0	0	0	0	0	6	0	0
OTU 100	1	0	0	0	0	4	1	1	0	3	0	3	0	0	0	3	0	7	2	0	0	1	0	4	1	0	0	2	0	2	0	0	1	0	62	0	0	0	0	0	0	0	0	0	0	0	0	1	0	0
OTU 101	0	0	4	0	0	0	0	0	0	0	0	1	0	0	0	0	0	0	0	0	0	0	0	0	0	0	0	0	0	2	0	0	0	0	0	0	0	0	0	0	0	0	0	0	0	0	0	0	0	0
OTU 102	0	0	0	0	1	0	0	0	0	0	0	0	0	1	0	0	0	2	0	0	0	0	0	2	1	0	0	0	0	0	1	2	0	0	0	0	0	0	0	0	0	0	2	0	0	0	0	0	0	0
OTU 103	0	0	0	34	0	0	2	0	0	3	0	0	1	2	4	3	1	0	1	38	0	0	4	0	0	0	32	0	0	70	0	4	0	0	29	0	0	0	0	0	0	3	0	0	0	1	0	0	0	0
OTU 104	12	2	7	0	8	0	0	8	14	1	1	5	1	4	1	0	3	5	14	1	1	32	0	1	1	0	0	1	3	0	2	29	3	0	0	1	0	0	1	0	5	3	0	0	3	0	2	0	1	1
OTU 105	0	0	0	1	0	0	0	0	0	1	2	0	0	0	2	0	0	0	1	1	3	0	0	0	0	0	0	0	0	0	1	0	0	0	0	0	2	0	0	0	0	0	0	0	0	0	2	1	4	0
OTU 106	0	4	0	0	0	0	0	0	1	0	0	1	0	1	1	0	0	0	1	0	0	0	0	0	0	0	0	0	0	0	1	0	1	0	0	1	0	0	0	0	0	0	0	0	0	5	0	0	0	0
OTU 107	0	0	0	0	0	0	2	0	0	0	5	2	0	12	0	0	3	0	0	0	0	0	0	0	0	0	0	1	1	0	0	0	0	1	0	0	0	0	0	0	1	0	1	4	6	1	0	6	0	0
OTU 108	3	1	12	3	0	3	0	0	0	2	0	0	0	0	3	6	0	0	0	5	3	0	2	0	1	0	0	0	0	0	1	0	1	1	0	17	1	2	0	0	4	0	0	0	0	0	0	0	4	1
OTU 109	0	0	0	0	0	0	0	0	0	0	0	0	0	0	0	0	0	0	0	0	1	0	0	0	0	0	0	0	0	0	0	0	0	0	0	0	0	0	0	0	0	0	0	0	0	0	0	0	0	0
OTU 110	0	0	0	130	1	0	0	0	0	0	3	1	2	0	1	1	2	0	0	7	1	0	0	0	2	0	0	0	0	10	0	1	9	0	0	8	0	1	0	1	1	0	1	2	0	1	18	2	0	0
OTU 111	0	0	0	0	0	0	0	0	0	0	0	0	0	0	0	0	0	3	1	0	0	0	3	0	0	0	0	0	0	0	0	0	0	0	0	0	1	2	0	0	0	0	0	0	0	0	0	0	0	0
OTU 112	1	0	0	1	1	0	0	0	0	0	0	0	0	0	2	0	0	0	0	0	1	0	0	0	2	0	0	0	0	0	0	0	0	0	7	2	0	0	0	0	0	1	0	0	0	0	6	0	0	0
OTU 113	0	0	0	0	0	0	0	0	2	0	0	0	0	0	0	0	0	0	0	0	0	1	0	0	0	0	0	1	0	0	0	0	0	0	0	0	0	0	0	0	0	0	0	0	0	2	1	0	0	0
OTU 114	1	10	3	0	1	0	7	0	2	3	3	1	1	1	13	3	1	0	0	3	1	1	5	0	8	0	0	7	0	2	5	0	9	0	1	0	6	3	0	0	4	75	0	0	8	2	9	2	5	1
OTU 115	2	5	1	6	9	1	10	0	41	3	4	6	2	2	1	0	3	1	0	1	6	0	7	0	2	1	2	5	2	0	4	0	4	2	0	1	4	0	0	0	6	0	4	2	0	0	3	3	2	2
OTU 116	0	10	0	1	10	7	8	0	1	2	1	19	2	2	8	3	0	26	0	0	2	0	1	9	0	0	2	0	0	6	2	0	0	1	1	0	0	1	0	0	4	15	1	0	0	13	1	0	2	0
OTU 117	0	0	0	0	5	0	2	53	0	0	1	1	1	0	0	0	0	1	0	2	3	1	0	0	0	0	0	0	1	1	0	0	0	0	0	1	0	2	0	0	4	2	0	0	0	10	1	3	0	0
OTU 118	0	0	0	0	0	2	0	0	0	1	0	0	0	0	3	0	0	0	0	0	0	0	0	0	0	0	0	0	13	2	0	0	2	0	0	0	0	2	1	1	0	0	0	0	0	0	0	0	0	0
OTU 119	0	3	0	0	1	3	3	0	1	0	1	3	2	1	3	0	2	2	2	1	1	0	0	1	1	2	1	1	1	5	1	0	3	2	2	1	0	0	7	4	0	0	8	1	1	0	4	4	0	0
OTU 120	1	0	3	1	0	1	0	0	1	0	0	0	0	0	0	0	0	0	0	0	0	0	2	0	0	0	0	14	0	0	0	0	0	0	2	0	0	0	0	0	0	0	4	0	0	0	2	0	0	0
OTU 121	0	1	2	1	0	0	1	0	0	0	1	0	0	0	1	4	0	0	0	43	0	0	3	0	1	0	0	8	2	4	75	0	10	0	1	0	129	1	0	0	0	1	2	0	0	1	0	0	0	0
OTU 122	1	0	1	5	0	0	0	1	0	0	8	3	1	1	0	3	7	0	0	6	2	1	1	0	0	1	1	6	0	1	0	0	0	0	1	5	0	5	1	1	0	1	0	0	9	0	4	0	0	9
OTU 123	0	4	11	1	4	5	8	0	3	1	15	0	0	8	12	14	1	2	1	2	4	6	5	5	30	1	1	1	8	0	2	1	9	1	0	2	3	3	0	1	2	4	4	1	1	5	4	3	2	4
OTU 124	1	0	2	0	0	0	0	0	0	0	0	2	0	1	2	7	0	0	0	0	0	0	1	0	0	0	0	0	0	0	1	0	0	1	0	0	2	0	0	0	0	1	0	0	0	0	0	0	0	0
OTU 125	32	8	4	13	2	12	8	1	0	3	6	3	4	4	12	5	18	5	2	1	5	0	4	6	0	1	4	9	10	2	23	1	4	20	1	12	0	7	2	14	4	8	16	5	2	8	5	3	2	3
OTU 126	1	0	0	0	0	0	0	0	0	0	0	0	0	0	0	0	0	0	0	0	0	0	0	0	0	0	0	0	0	0	0	0	1	0	0	0	0	0	0	0	0	0	0	0	0	0	2	0	0	0
OTU 127	0	0	1	0	1	11	0	1	0	1	9	0	23	4	0	1	0	1	0	0	0	0	0	1	0	1	0	0	2	0	0	0	0	3	0	1	0	2	0	0	0	0	0	0	2	0	2	3	0	0
OTU 128	0	10	9	8	44	3	3	0	0	5	1	10	21	22	6	10	3	3	0	37	14	0	6	0	4	1	10	6	5	2	4	1	2	4	3	152	2	5	0	6	3	4	40	0	2	22	2	10	6	18
OTU 129	0	0	0	0	1	0	0	0	0	0	0	0	0	0	1	0	0	0	0	0	0	0	14	0	0	0	0	0	0	0	0	0	0	0	0	0	0	0	0	0	1	0	0	0	0	0	0	0	0	0
OTU 130	0	0	24	0	0	0	0	0	0	1	7	1	1	0	0	1	1	0	9	0	3	0	0	0	1	0	0	0	2	0	50	0	0	1	0	2	2	0	0	0	0	6	1	5	0	8	1	3	0	1
OTU 131	0	0	4	2	0	2	0	0	0	0	4	1	0	1	7	0	1	0	0	0	0	0	0	0	0	2	0	0	0	0	0	0	1	1	0	1	0	0	2	8	0	0	28	0	2	10	2	1	0	24
OTU 132	0	3	5	0	0	0	0	0	0	8	1	0	0	2	0	0	1	0	0	0	0	0	0	0	0	0	0	0	1	0	0	0	1	1	0	0	0	0	0	0	0	0	0	0	0	0	0	0	1	1
OTU 133	0	0	0	0	0	0	0	0	0	0	0	0	0	3	0	1	0	0	0	0	1	0	0	0	0	0	0	0	0	0	0	0	0	0	0	0	0	0	0	1	0	0	0	0	0	0	0	2	0	0
OTU 134	0	0	1	0	9	0	2	0	0	0	0	0	4	15	0	2	0	6	5	0	0	1	0	2	1	0	0	1	4	1	0	0	0	0	0	0	0	1	0	0	22	2	0	1	1	0	2	0	0	0
OTU 135	2	3	1	0	1	0	0	1	6	0	6	1	0	1	18	1	1	0	0	0	0	7	0	0	1	0	1	0	0	0	0	6	2	0	0	0	1	0	0	2	2	0	0	4	3	0	0	0	1	1
OTU 136	0	2	3	27	0	0	1	0	0	0	2	0	1	0	1	0	0	0	0	0	0	0	0	0	1	0	0	1	0	1	0	0	0	0	1	0	0	0	0	1	0	0	0	0	0	0	5	0	0	1
OTU 137	0	0	1	0	0	0	0	3	34	0	0	0	0	0	1	0	0	0	0	0	0	0	0	0	0	1	0	0	0	0	0	72	0	0	0	0	0	1	0	0	2	0	2	0	0	0	0	0	0	0
OTU 138	1	0	0	0	14	0	0	0	0	0	5	0	1	0	0	2	0	0	1	0	1	0	0	0	2	0	0	1	0	0	0	0	0	0	0	0	0	2	0	0	0	1	0	0	0	0	0	0	0	0
OTU 139	4	13	27	11	11	34	9	2	0	2	6	18	1	5	3	2	1	1	1	6	0	4	2	1	2	97	7	2	4	7	5	0	1	3	7	1	0	4	1	1	1	9	5	1	1	9	2	0	8	4
OTU 140	2	0	3	0	3	65	8	0	2	3	14	1	6	0	2	4	14	0	0	3	5	0	5	2	9	0	0	1	7	2	1	1	8	1	26	7	1	1	1	3	4	0	1	7	3	0	3	3	2	6
OTU 141	0	0	0	0	0	0	0	0	0	0	0	0	0	0	0	0	0	0	0	0	0	0	0	0	0	0	0	0	0	0	0	0	0	0	0	0	0	0	0	0	1	0	0	0	0	0	0	0	0	0
OTU 142	0	0	0	0	0	0	0	0	0	0	0	0	1	0	0	0	0	0	0	0	0	1	0	0	0	0	0	0	0	0	0	1	0	0	0	0	0	0	0	0	0	0	0	0	0	0	0	0	0	0
OTU 143	0	0	0	0	0	0	0	0	0	0	0	0	0	4	0	0	0	0	0	0	1	0	0	0	0	0	0	0	1	0	0	0	0	0	0	0	1	0	0	0	0	0	0	0	0	0	1	0	0	0
OTU 144	0	0	0	0	0	0	0	0	1	0	0	0	0	0	0	0	0	0	1	0	0	2	2	0	0	0	0	0	0	0	0	1	0	1	0	0	0	1	0	0	0	0	0	0	0	1	1	10	0	0
OTU 145	2	0	3	0	0	0	2	3	1	0	0	1	1	14	11	0	0	1	5	0	1	0	4	9	0	0	87	5	9	3	0	0	0	4	3	0	1	0	0	1	1	13	3	0	0	0	3	5	0	0
OTU 146	0	1	0	0	0	0	0	1	0	0	1	0	0	0	3	0	0	0	1	0	3	0	1	1	1	0	0	1	3	2	0	0	0	0	2	1	2	0	1	1	1	0	13	0	0	1	0	2	0	1
OTU 147	0	0	0	0	1	0	0	0	1	0	2	1	0	0	0	1	0	0	1	0	0	0	0	0	0	0	1	1	0	2	0	2	0	1	1	0	0	0	0	0	0	0	0	0	0	0	0	0	0	0
OTU 148	0	14	0	49	0	0	6	1	0	0	0	10	3	0	73	9	4	0	0	36	0	0	2	0	0	1	38	4	0	49	8	0	0	0	27	0	0	0	0	0	1	0	1	0	3	15	2	3	10	0
OTU 149	0	6	0	1	0	0	0	0	0	1	1	2	0	8	0	0	0	0	0	0	0	0	0	0	0	0	0	2	3	1	7	0	0	0	0	0	0	0	0	0	1	0	0	0	0	0	0	1	7	0
OTU 150	0	0	0	0	0	0	4	0	0	0	0	0	0	1	0	1	0	0	1	0	0	0	0	0	3	0	0	0	1	0	0	1	0	0	0	0	0	2	0	0	0	0	0	0	1	0	0	0	0	0
OTU 151	1	6	0	1	0	0	0	0	0	3	2	0	1	0	0	2	3	0	0	0	0	0	1	1	0	0	0	1	0	1	3	0	0	0	0	2	0	0	0	0	0	1	0	0	0	3	0	2	0	0
OTU 152	2	0	1	1	10	0	1	3	1	3	1	14	0	1	2	2	0	0	2	1	3	1	0	0	6	0	4	0	6	0	0	1	0	2	0	0	2	0	0	0	0	4	0	1	0	24	1	2	0	1
OTU 153	0	0	3	0	0	0	0	0	0	0	0	0	1	0	0	0	1	0	0	0	0	0	0	0	0	0	0	0	0	0	0	0	0	0	0	0	0	0	0	0	1	0	0	0	0	0	0	0	0	0
OTU 154	0	0	1	1	1	0	0	0	0	0	0	0	0	0	0	0	0	0	0	0	0	0	0	0	0	0	0	0	0	0	0	0	2	0	0	0	0	0	0	0	0	0	0	0	0	0	0	0	0	0
OTU 155	0	0	0	0	0	3	0	0	0	1	0	0	0	0	1	0	2	0	0	0	0	0	0	0	0	0	0	1	0	0	0	0	1	1	0	2	1	0	0	0	0	1	0	1	0	1	0	0	0	0
OTU 156	0	3	3	0	0	2	4	0	1	3	0	2	1	38	2	42	1	4	6	0	2	0	2	1	0	0	3	41	9	2	2	0	1	0	1	1	0	0	1	2	0	3	7	0	0	3	10	0	1	5
OTU 157	0	0	0	0	0	0	0	0	0	0	0	0	0	6	0	0	0	0	0	0	1	0	1	0	0	2	1	1	0	1	0	0	0	0	0	0	0	0	0	0	0	0	0	0	6	0	0	1	0	1
OTU 158	0	0	0	0	0	0	0	0	0	0	0	2	0	0	0	0	0	0	0	0	3	0	0	0	0	0	0	0	0	0	0	0	0	0	0	0	3	0	0	0	0	0	1	0	0	0	0	0	0	0
OTU 159	0	3	2	0	0	3	1	0	0	0	2	0	4	11	0	0	0	0	1	0	1	0	2	0	4	0	3	1	2	0	0	3	0	0	0	0	2	0	0	0	1	1	5	0	3	0	3	0	1	1
OTU 160	1	1	2	1	3	6	4	2	0	5	3	6	3	3	0	5	3	5	1	0	4	0	8	3	7	54	0	0	4	0	0	0	2	10	0	0	2	4	99	2	6	0	12	3	6	6	3	5	2	2
OTU 161	0	0	0	1	3	2	13	0	0	8	0	0	4	0	1	1	2	1	0	2	2	0	0	0	3	0	0	0	0	0	0	0	3	0	0	0	0	1	0	0	0	3	1	0	0	2	3	5	0	0
OTU 162	3	0	3	0	2	0	1	4	2	3	1	1	0	1	2	0	0	0	0	2	1	1	1	0	5	0	3	0	0	0	0	0	0	0	0	0	1	0	0	1	0	0	2	0	0	0	0	0	0	0
OTU 163	0	0	0	0	0	0	0	0	0	0	0	0	0	0	0	0	0	0	0	0	0	0	0	0	0	0	0	0	0	0	0	0	0	0	0	0	0	0	0	0	0	0	0	0	0	0	0	0	0	0
OTU 164	0	0	2	0	0	0	0	0	0	0	0	0	0	0	0	0	0	0	0	0	0	0	0	0	0	0	0	0	1	0	0	0	0	0	0	0	0	0	0	0	0	0	0	0	0	0	0	0	0	0
OTU 165	0	0	0	0	1	0	2	0	0	0	8	2	0	2	0	0	1	0	0	0	5	0	0	0	1	0	1	0	0	0	1	0	0	0	0	0	1	4	0	0	3	2	0	102	10	1	0	1	0	0
OTU 166	0	0	0	0	0	0	0	0	0	0	0	0	0	0	0	0	0	0	0	0	0	0	0	0	0	0	0	0	9	0	0	0	0	0	0	0	0	0	0	0	0	0	0	1	0	0	0	0	0	0
OTU 167	1	1	0	0	0	0	0	1	0	0	1	2	0	0	0	8	2	0	0	0	0	1	0	0	0	0	0	0	1	0	0	0	0	0	0	0	0	2	0	0	0	3	0	0	4	2	0	0	3	0
OTU 168	0	54	1	0	0	0	0	0	0	0	0	6	6	0	0	2	0	0	1	0	3	2	1	0	1	0	2	0	0	0	34	0	2	0	2	0	0	0	0	1	0	2	0	58	0	0	0	0	24	0
OTU 169	0	0	0	0	0	0	0	0	0	0	0	0	0	0	0	0	0	0	1	0	0	0	0	0	0	0	0	0	0	0	0	0	2	0	0	0	0	0	0	0	0	0	0	2	0	0	0	0	0	0
OTU 170	0	0	0	0	0	0	0	0	0	0	0	0	0	0	0	1	0	0	0	0	0	0	0	0	0	0	0	0	0	0	0	0	0	0	0	0	0	0	0	0	2	0	0	0	0	0	0	0	0	0
OTU 171	2	0	1	1	17	1	0	11	1	0	1	2	4	2	0	2	0	0	0	4	15	1	0	0	2	3	1	2	8	3	1	2	5	0	0	0	6	0	2	0	0	2	0	0	2	0	11	1	1	0
OTU 172	0	0	0	0	0	0	0	0	0	0	3	0	0	0	0	0	0	0	0	0	0	0	0	0	0	0	0	0	0	0	0	0	0	0	0	0	0	0	0	0	0	0	0	0	0	0	4	0	0	0
OTU 173	0	0	0	0	0	0	0	0	0	0	0	0	0	0	1	0	0	0	1	0	5	0	0	0	0	1	0	0	0	0	0	0	0	0	0	0	0	0	0	2	0	0	0	0	0	0	0	0	1	1
OTU 174	0	0	4	3	0	32	2	0	0	2	0	0	0	5	0	0	0	82	1	1	0	1	2	44	0	1	2	1	0	0	0	6	0	0	0	0	0	1	2	1	0	2	0	0	1	9	0	0	0	3
OTU 175	0	0	0	0	0	1	0	0	0	0	0	2	0	0	0	0	2	0	0	0	0	2	0	0	0	0	0	3	0	0	0	0	3	1	2	0	3	0	0	0	0	0	2	0	0	8	0	2	0	0
OTU 176	0	8	16	0	3	0	0	0	0	0	3	13	0	0	4	3	1	0	0	1	2	3	0	2	1	0	0	1	2	5	0	0	3	2	0	0	1	3	0	2	1	5	4	0	0	6	0	0	21	0
OTU 177	0	3	0	1	2	3	0	1	0	1	4	2	3	2	1	5	0	7	1	0	40	0	1	9	1	0	0	1	4	4	0	0	1	1	1	0	17	0	0	0	7	3	0	3	0	3	8	5	1	1
OTU 178	0	2	3	0	0	1	0	2	0	0	3	3	0	0	0	2	0	0	0	0	0	0	0	1	0	0	0	1	0	0	0	1	0	0	0	0	0	0	0	0	0	0	0	0	0	0	0	0	0	0
OTU 179	0	1	7	0	6	0	3	0	1	4	4	1	1	0	0	0	0	3	0	0	2	0	1	1	1	0	0	0	9	0	0	0	0	0	0	1	1	0	0	0	0	0	0	0	0	0	1	0	0	5
OTU 180	1	2	8	0	3	5	2	1	1	1	2	1	24	0	3	25	1	11	3	0	2	4	1	89	5	0	2	15	3	0	2	2	3	4	0	2	3	3	1	1	3	6	4	2	0	2	10	6	4	3
OTU 181	0	0	0	1	1	22	1	0	0	1	1	1	1	7	1	6	0	27	0	1	0	1	2	14	5	0	1	0	0	0	0	0	0	0	0	1	0	0	2	0	44	1	3	0	0	3	0	0	1	0
OTU 182	0	0	0	0	0	3	1	0	0	0	0	3	0	0	0	0	0	1	0	0	0	0	0	0	0	0	0	0	0	0	0	0	0	0	0	0	0	0	0	0	0	0	2	0	0	0	0	1	0	0
OTU 183	0	0	0	0	3	1	0	0	1	2	0	3	0	0	0	5	0	3	0	0	5	2	7	4	1	1	0	3	1	1	0	2	0	9	1	0	0	0	1	1	1	3	6	0	0	0	0	7	0	8
OTU 184	0	0	0	0	0	0	9	0	0	1	0	0	1	0	0	0	1	0	0	1	3	0	0	0	5	0	0	1	5	0	0	0	0	0	0	3	0	0	2	0	0	0	0	1	0	0	0	0	2	0
OTU 185	0	1	5	4	5	1	0	5	1	9	1	1	3	0	0	1	53	0	1	0	0	1	2	1	1	0	1	2	3	7	1	0	1	0	4	22	0	3	0	0	1	3	0	18	2	0	2	0	1	1
OTU 186	0	0	0	0	0	0	0	0	0	0	0	0	0	0	0	1	0	0	0	0	0	2	0	0	0	0	2	1	0	0	0	0	0	0	0	0	0	0	0	0	0	0	0	0	1	0	4	0	0	0
OTU 187	2	3	14	4	6	1	0	6	0	105	0	2	2	0	2	5	1	0	4	9	7	12	3	0	1	0	10	2	0	12	0	8	0	9	6	1	5	6	2	2	19	1	6	0	10	0	10	10	1	1
OTU 188	1	4	9	0	3	4	0	0	4	0	2	4	0	3	4	2	2	4	0	0	1	2	1	4	106	0	3	0	6	1	1	0	1	10	0	2	0	0	1	1	2	1	1	0	3	4	0	10	0	3
OTU 189	0	0	0	5	2	0	1	2	0	1	2	2	2	0	0	15	0	2	1	8	3	0	0	0	0	0	3	5	2	4	1	0	1	1	6	0	0	4	1	0	2	5	0	1	16	7	11	0	2	1
OTU 190	0	0	0	0	0	0	0	1	0	0	0	0	2	1	0	0	0	0	2	0	0	0	0	0	0	0	0	0	0	0	0	0	3	0	0	0	1	1	0	0	2	0	0	0	0	0	0	2	0	0
OTU 191	1	2	0	1	0	43	2	1	0	0	1	4	4	2	2	5	5	0	0	1	88	3	1	0	3	1	0	0	5	0	1	0	0	0	0	1	36	0	0	0	4	2	1	1	0	4	2	4	2	2
OTU 192	2	14	8	1	1	3	3	5	1	1	0	8	2	1	3	1	2	6	11	0	0	1	0	3	3	18	0	2	1	1	5	0	3	6	1	0	0	29	44	78	5	0	3	0	2	17	1	20	5	13
OTU 193	7	3	1	1	2	0	0	17	6	0	2	0	2	0	0	1	0	0	29	0	2	29	0	0	0	0	0	0	24	0	1	6	0	1	0	0	0	67	0	0	1	6	0	0	108	0	10	0	2	3
OTU 194	0	1	26	0	0	2	0	0	21	0	0	0	0	1	2	8	0	0	0	0	0	68	0	0	1	0	0	0	2	0	1	25	0	0	0	0	0	1	1	0	0	0	2	0	0	0	0	1	1	0
OTU 195	0	0	0	0	0	0	2	0	1	1	0	0	0	2	0	1	0	0	0	0	0	0	1	0	3	0	0	0	19	0	0	0	0	0	0	0	0	4	0	0	0	0	1	0	1	0	0	0	0	0
OTU 196	1	0	0	0	1	0	1	0	1	0	0	0	0	1	0	2	0	0	1	1	2	0	3	0	0	1	0	3	0	0	0	0	98	5	72	0	1	16	4	2	1	6	5	0	0	0	0	5	0	0
OTU 197	0	7	1	0	3	1	4	0	1	1	5	2	1	8	2	2	2	0	0	1	0	0	0	0	2	0	2	5	3	2	2	0	4	0	0	2	1	1	1	0	0	3	0	2	2	1	1	0	0	0
OTU 198	0	0	0	0	2	0	0	0	0	0	0	0	0	2	0	0	0	0	0	0	0	0	0	0	0	0	0	6	0	0	0	1	0	0	0	0	0	0	0	0	0	0	0	0	0	0	0	0	0	0
OTU 199	0	0	2	0	1	9	0	0	1	2	6	0	0	0	0	1	0	1	0	0	1	0	1	0	0	1	0	0	0	0	0	0	0	2	0	0	0	1	0	0	0	2	0	0	0	0	2	1	1	0
OTU 200	1	0	0	0	1	0	0	0	0	0	0	1	0	0	0	1	0	0	0	1	0	0	1	0	0	0	0	2	0	0	0	0	0	2	0	0	0	3	0	0	2	0	1	0	0	0	0	1	0	0
