	Host 1	Host 2	Host 3	Host 4	Host 5	Host 6	Host 7	Host 8	Host 9	Host 10	Host 11	Host 12	Host 13	Host 14	Host 15	Host 16	Host 17	Host 18	Host 19	Host 20	Host 21	Host 22	Host 23	Host 24	Host 25	Host 26	Host 27	Host 28	Host 29	Host 30	Host 31	Host 32	Host 33	Host 34	Host 35	Host 36	Host 37	Host 38	Host 39	Host 40	Host 41	Host 42	Host 43	Host 44	Host 45	Host 46	Host 47	Host 48	Host 49	Host 50	
OTU 1	1	4	156	33	6	12	1	61	6	6	19	0	0	87	4	96	26	10	14	34	23	48	18	19	0	4	25	46	16	154	13	57	38	113	27	47	69	10	34	23	90	31	30	52	0	29	1	0	10	10
OTU 2	188	0	1	5	55	4	11	0	49	0	0	6	0	16	2	40	54	8	0	0	0	6	0	10	16	107	61	1295	2	18	1	1	1	0	1	161	0	2	1	17	5	38	118	112	215	0	2	3	1	17
OTU 3	12	0	1	5	0	4	5	60	25	16	0	11	3	0	1	9	8	5	1	30	0	4	0	0	0	0	4	0	16	9	0	15	4	2	7	0	0	32	0	81	7	1	0	0	3	0	60	16	0	1
OTU 4	0	0	0	0	0	0	0	0	0	0	0	0	0	0	0	0	0	0	0	0	0	0	0	0	0	0	0	0	0	0	0	0	0	0	0	0	0	0	0	0	0	0	0	0	0	0	0	0	0	0
OTU 5	100	2	36	89	84	17	25	291	1178	213	663	0	1177	317	0	222	567	235	388	18	1089	347	146	1067	0	0	0	315	570	63	334	0	207	91	179	106	158	175	948	280	162	499	57	49	3	55	260	0	179	46
OTU 6	75	94	69	17	7	1	2	18	10	1	1254	78	7	50	17	25	37	19	70	14	20	13	169	93	17	16	17	71	26	88	24	90	9	16	27	57	29	2	2482	2	33	0	0	42	2	92	9	8	36	1
OTU 7	185	121	36	164	125	27	80	30	8	27	28	18	226	85	29	9	382	3	26	14	2	5	37	67	3	105	58	13	50	32	42	73	33	158	364	92	41	104	48	134	3	62	222	100	164	29	45	5	27	202
OTU 8	59	41	26	9	16	19	36	0	9	73	7	53	214	97	33	1	25	56	31	40	5	1	32	48	118	104	86	27	12	112	10	45	120	33	1433	59	58	76	13	71	6	14	91	13	79	16	27	38	43	72
OTU 9	4	0	2	0	0	6	6	4	2	70	1	55	2	0	14	0	8	3	6	3	0	17	45	34	1	3	7	23	42	56	19	37	6	2	14	7	0	16	3	3	30	0	0	9	20	7	3	0	0	1
OTU 10	2	7	15	14	13	11	292	0	2	23	1	0	0	6	26	1	157	0	2	0	0	0	9	3	403	7	1	3	2	0	0	0	2004	0	149	4	4	3	3	0	0	0	1	0	7	1	56	0	0	83
OTU 11	25	4	14	24	10	541	2	29	26	5	44	3	11	0	4	27	60	65	23	3	12	11	14	22	33	4	5	0	4	4	2	35	13	99	44	10	6	21	83	15	2	70	34	23	87	5	14	50	41	107
OTU 12	40	12	3752	17	6	11	41	5	55	13	6	16	7	25	1	65	55	19	0	1174	672	1	2	8	10	40	15	41	12	75	6	15	12	5	289	21	2	30	13	2	4	17	30	43	58	13	119	157	2270	9
OTU 13	3	0	0	0	0	0	0	0	0	0	0	0	1	0	20	0	0	0	0	7	0	0	0	0	167	0	1	0	0	0	0	0	1	0	119	0	0	0	0	0	0	11	130	0	0	3	0	5	0	0
OTU 14	16	7	3	15	0	87	53	0	0	5	18	27	11	0	0	13	14	0	5	0	0	0	9	1	33	0	1	4	1	1	3	1	1	0	24	44	9	1	21	1	0	0	0	0	11	0	33	0	0	14
OTU 15	3	2	0	0	1	4	40	7	0	0	3	0	0	9	26	0	1	0	0	0	0	1	1	16	0	0	0	1	3	0	0	0	0	0	8	0	0	3	5	2	0	0	0	0	0	0	1	0	0	127
OTU 16	0	0	0	0	0	1	0	0	0	0	22	0	0	0	47	0	0	14	0	0	0	0	0	0	0	0	0	0	4	0	0	0	0	13	0	0	0	0	47	0	0	0	0	2	0	2	0	0	0	0
OTU 17	1	0	3	3	23	10	1	20	16	14	1	1	77	24	43	0	8	0	1	0	0	6	0	17	113	94	80	4	10	13	25	0	39	4	17	22	0	7	2	64	5	3	1	9	13	3	9	84	7	59
OTU 18	68	0	6	4	121	24	4	2	0	48	481	9	13	22	5	27	132	76	19	35	31	12	24	25	4	78	84	10	1	7	55	76	19	92	62	117	14	2519	906	27	0	4	7	67	116	6	57	29	8	11
OTU 19	0	0	0	0	0	0	0	0	0	0	0	0	0	0	0	0	2	0	0	0	0	0	0	0	0	0	0	0	0	0	0	0	0	0	0	0	0	0	0	0	0	0	0	0	0	0	0	0	0	0
OTU 20	0	1	11	0	53	46	4	311	70	34	6	60	37	36	15	2	57	9	20	13	2	24	23	22	8	107	20	1	19	9	142	22	1	11	7	20	26	11	14	8	10	7	50	7	66	12	51	2	3	23
OTU 21	29	12	73	16	4	13	0	3	0	6	0	32	107	9	9	7	83	3	3	4	8	3	6	181	66	1	61	8	8	6	3	21	23	15	12	137	29	5	0	0	5	65	52	2	7	35	0	58	11	22
OTU 22	26	15	2	70	36	16	18	4171	2	21	4	48	10	2	16	166	82	20	47	11	13	4	97	10	18	175	0	17	0	30	62	49	16	36	3	3	52	91	11	45	10	49	78	1	0	13	22	1	5	1
OTU 23	13	13	60	0	1	1422	17	33	11	0	307	0	121	0	1213	67	9	39	14	0	0	0	16	6	62	30	1	0	34	3	26	1	0	2197	4	45	1209	1	605	62	0	0	5	1188	0	0	184	4	11	0
OTU 24	38	153	0	5	0	0	0	0	25	2	5	329	13	0	12	0	9	10	8	0	7	13	11	0	5	0	9	0	9	3	4	0	1	8	16	0	3	1	4	5	22	14	73	43	29	2	2	0	5	5
OTU 25	0	0	5	0	0	0	0	0	2	0	0	0	0	0	0	0	0	10	1	12	0	0	0	6	0	0	0	0	0	0	55	0	0	0	42	0	0	0	0	0	0	0	0	0	0	0	0	0	0	0
OTU 26	2	0	28	2	0	2	0	0	6	3	0	0	0	0	16	4	0	3	0	1	0	0	0	0	0	48	4	0	0	0	0	0	0	0	374	5	0	0	0	0	0	0	7	0	0	5	0	83	104	0
OTU 27	0	6	0	0	0	0	0	2	0	0	0	0	0	0	0	0	0	0	0	0	6	1	0	0	0	0	0	0	0	0	0	2	0	0	0	0	0	0	0	0	0	0	0	0	0	25	0	0	0	0
OTU 28	182	23	41	11	127	13	23	13	11	38	11	3	102	2	51	18	4	1	42	29	7	44	66	19	164	299	78	41	0	115	19	12	33	50	70	30	40	6	11	68	68	25	2	20	81	6	51	77	27	28
OTU 29	97	43	26	7	6	5	32	4	47	42	4	62	32	34	4	22	29	16	92	48	23	50	185	0	17	1	69	45	89	47	2	2	100	30	0	4	13	204	4	21	93	2	50	20	23	1	26	25	32	66
OTU 30	0	0	0	0	0	0	0	0	0	0	0	0	0	0	0	0	0	0	0	0	0	0	0	0	0	0	0	0	0	0	0	0	0	0	3	0	0	0	0	0	0	0	0	0	0	0	0	0	0	0
OTU 31	0	1	10	2	1	4	6	0	85	0	0	92	0	32	22	0	38	2	37	0	0	13	66	61	0	2	93	44	6	108	2	53	58	1	3	0	0	1	0	0	48	20	3	0	8	69	5	2	0	14
OTU 32	146	59	104	193	66	79	79	66	504	7	38	62	53	254	62	107	17	99	141	31	22	243	363	221	28	193	948	314	179	899	22	268	603	3	18	31	137	183	11	109	449	267	24	7	183	87	13	42	56	18
OTU 33	0	0	0	22	0	0	0	1	0	9	1	29	0	0	0	0	0	0	0	8	0	0	0	4	0	3	0	0	5	0	0	0	0	2	0	0	1650	0	1	11	0	0	0	0	0	10	0	0	55	0
OTU 34	84	12	66	3	18	6	6	0	39	43	7	21	30	13	5	11	92	31	6	0	15	28	20	6	30	6	30	13	0	29	1	34	38	13	15	80	1	162	15	83	20	9	4	1	14	1	9	0	28	76
OTU 35	119	94	12	1785	29	51	2	4	51	92	236	493	9	0	37	0	27	0	4	1	1	93	6	2	5	11	0	0	15	1	1	9	6	61	5	4	9	0	422	31	118	4	10	23	2	0	58	80	9	6
OTU 36	7	54	10	59	48	3	36	1	17	6	2	59	4	2	24	43	38	36	20	5	4	31	26	0	85	167	23	4	11	3	0	1	19	0	12	10	6	4	8	7	35	0	0	7	51	3	2	15	2	101
OTU 37	148	3	0	0	0	8	0	0	3	2	1	0	9	14	24	0	2	0	5	2	0	15	0	2	107	116	4	0	142	0	0	12	7	0	0	0	0	0	1	0	31	502	1226	0	0	8	65	0	6	0
OTU 38	79	28	46	170	90	21	27	1	71	22	7	1	8	7	3	50	1	16	4	3	0	21	1	4	33	45	29	0	5	5	6	30	29	50	3	21	0	1	14	1	17	35	8	33	37	8	9	2	18	3
OTU 39	9	0	1	0	0	22	8	4	13	1	5	0	0	0	0	11	4	0	0	0	1	1	0	8	0	11	72	1	9	0	47	14	6	3	0	0	1	0	6	0	0	0	8	19	0	2	1	171	3	0
OTU 40	4	60	11	168	29	78	15	1	45	58	9	170	62	35	3	12	31	9	965	3	1	4	4	5	321	22	107	4	1	24	8	3	65	65	2	5	10	62	26	88	22	45	201	21	159	1	232	3	2	94
OTU 41	25	0	8	47	21	9	8	50	37	155	12	9	42	17	59	3	10	2	0	4	1	11	6	0	43	2	1	3	4	5	55	7	0	57	50	11	79	0	17	84	13	3	0	53	4	2	17	5	7	0
OTU 42	1	0	3	2	0	8	8	60	0	0	0	0	0	10	0	60	0	1	5	4	0	0	29	0	23	0	0	1	0	0	19	0	0	0	0	5	0	0	0	25	0	1	23	0	83	0	0	14	0	0
OTU 43	0	0	0	0	0	0	2393	0	0	0	0	0	0	0	13	0	0	2	0	0	0	0	0	0	0	0	0	0	0	0	0	0	0	0	0	0	0	0	0	0	0	11	13	0	0	0	0	69	0	0
OTU 44	18	0	0	27	18	0	0	18	0	0	0	35	0	0	35	0	0	0	0	0	0	0	0	1	0	0	0	4	0	0	21	0	5	0	0	0	9	0	0	0	0	0	0	0	0	1	2573	0	2	0
OTU 45	23	30	9	82	36	15	1	11	0	13	1	48	19	10	15	97	38	13	48	11	4	5	101	49	40	82	40	20	15	11	9	39	15	55	2	0	6	0	1	0	14	19	78	22	8	15	5	43	12	34
OTU 46	474	171	10	12	35	23	16	1	21	38	2	28	6	3	63	57	33	101	23	5	8	3	20	66	46	196	22	33	12	1	55	46	6	57	8	0	15	58	8	62	15	27	69	14	1145	78	1	476	7	252
OTU 47	0	0	0	0	0	0	20	0	0	0	0	0	5	0	0	6	15	3	7	0	0	0	6	0	9	0	0	0	0	0	0	0	0	0	6	0	0	0	0	1	0	15	0	0	0	0	38	19	0	0
OTU 48	79	9	11	46	45	1	2	13	25	127	13	57	22	84	33	74	37	14	12	0	7	27	23	24	82	303	24	15	64	1	84	9	9	0	88	10	20	84	31	25	82	6	34	3	51	3149	30	36	13	0
OTU 49	77	2	15	0	166	0	0	15	37	19	1	2	2	6	0	1	13	5	0	3	0	3	2	0	5	0	54	0	10	0	0	43	55	0	2	152	0	0	2	135	0	0	52	1	0	17	0	7	22	2
OTU 50	48	0	47	72	56	6	68	27	1	104	16	10	27	35	3	45	35	1	5	21	23	0	14	14	97	113	29	27	17	55	94	31	7	0	47	82	27	51	24	38	9	19	1	1	5	30	37	114	8	48
OTU 51	6	11	45	1	0	2	242	1	369	61	0	22	1	18	5	6	31	0	0	0	1	50	0	0	23	24	15	12	12	22	23	4	7	72	119	0	8	1	0	37	82	23	22	48	3	1	33	34	2	232
OTU 52	81	101	9	147	1062	115	81	28	100	37	10	40	63	90	16	8	14	29	700	6	2	21	1318	35	103	117	209	7	28	29	3	71	39	72	218	1	39	271	17	48	17	20	24	66	17	21	11	53	23	112
OTU 53	0	0	0	0	0	0	0	0	0	0	0	0	0	0	0	0	0	0	0	0	0	0	0	0	0	0	0	0	0	0	0	0	0	0	0	0	0	0	0	0	0	0	0	0	0	0	0	0	0	0
OTU 54	20	6	52	82	111	3	2	22	25	7	1	67	272	8	97	89	110	25	74	1212	409	34	113	65	43	18	35	1	55	8	29	215	12	23	73	30	297	42	3	135	44	37	33	13	32	57	7	211	2410	43
OTU 55	0	0	0	0	1	0	0	0	0	0	0	0	0	0	0	0	0	0	0	1	0	0	0	0	0	0	0	0	0	0	0	6	0	0	0	0	0	0	0	0	0	0	0	1	0	0	0	2	0	0
OTU 56	0	2	0	0	89	12	3	15	1	5	21	9	6	29	2	1	1	20	0	1	1	50	1	3	11	58	1	0	5	0	5	34	2	16	0	27	16	0	35	0	38	10	0	16	53	1	65	11	1	0
OTU 57	148	33	18	70	38	22	37	935	22	52	0	97	374	44	10	91	13	75	514	1	5	19	927	46	294	124	91	1021	91	62	5	81	47	47	129	211	53	68	0	2260	15	37	187	47	214	28	62	35	24	46
OTU 58	4	5	1	18	15	15	7	41	2	17	30	31	14	27	7	1	2	31	0	5	2	12	2	10	99	26	27	0	23	0	1	30	39	1	8	5	2	7	65	23	19	13	0	0	15	0	38	17	3	2
OTU 59	50	0	9	26	0	8	4	51	30	16	0	1	0	0	32	5	3	16	10	5	4	0	7	1934	26	51	2	32	5	45	0	39	3	13	88	3	0	16	0	43	0	37	36	14	1	22	194	0	0	15
OTU 60	25	40	49	12	19	116	73	38	2	16	7	70	181	1	7	44	193	2	12	14	9	3	51	640	50	401	47	6	22	43	3	26	4	22	38	29	5	18	10	189	16	13	33	8	225	5	81	0	9	11
OTU 61	68	58	344	10	77	227	58	152	173	18	14	85	34	492	12	69	59	296	1	140	51	369	1	15	14	38	169	190	307	396	302	3	100	47	68	70	6	112	20	76	788	91	80	1793	105	2	6	5	105	118
OTU 62	1	57	22	14	8	0	0	4	7	42	152	4	0	9	0	6	0	0	0	0	1	0	0	0	0	59	13	0	0	0	0	3	0	4	3	30	4	0	353	8	0	0	1	7	0	2	0	2	0	1
OTU 63	7	15	82	3	0	16	3	0	11	8	0	11	74	1	3745	0	14	0	3	6	0	0	3	119	48	12	1	3	0	4	10	222	0	2	20	0	0	246	2	0	0	0	3	10	4	1081	16	0	0	31
OTU 64	38	1881	34	5	38	6	55	172	16	50	12	3931	19	35	62	57	30	41	55	39	24	16	122	15	17	101	11	1970	71	38	27	8	4	82	80	78	74	94	18	217	27	5	17	99	364	15	87	409	106	32
OTU 65	3	0	0	0	0	4	1	3	0	0	0	0	0	0	0	0	0	0	10	0	0	0	10	0	0	0	0	0	0	0	1	0	0	0	0	0	0	0	0	0	0	0	0	0	0	0	0	6	0	2
OTU 66	21	138	4	27	3	11	20	46	9	25	10	22	15	49	172	117	9	51	0	4472	2551	19	0	16	75	4	54	26	22	59	14	54	40	55	17	9	18	114	24	83	48	27	43	23	52	32	19	50	4	2
OTU 67	3	15	2	9	4	46	35	7	1	31	0	12	202	1	6	0	17	16	1	0	1	3	8	2	40	21	4	24	0	67	14	42	2	86	103	13	39	0	0	36	0	0	51	30	17	15	25	2	9	3
OTU 68	9	16	7	2	10	0	11	0	1	1	0	0	4	10	0	15	0	17	13	0	0	4	27	2	21	0	4	0	0	11	12	4	10	3	1	681	18	17	0	0	22	3	19	5	49	0	0	8	0	1
OTU 69	15	28	4	10	58	808	5	33	26	60	256	15	87	1	740	10	14	2	1	3	11	32	12	1	25	28	62	22	10	72	5	12	65	1481	111	1	655	195	560	0	43	9	20	682	110	39	65	202	0	15
OTU 70	1	33	48	0	29	11	3	0	8	2	0	1	23	21	52	0	0	1	10	0	0	0	20	4	0	75	1	0	0	0	1	3	2	3	2	31	0	1	0	5	0	2	0	0	4	1	2	0	5	0
OTU 71	0	0	1	1	1	11	7	1	4	3	6	37	5	0	5	416	0	0	88	9	0	0	159	7	30	0	70	0	6	0	3	1	34	0	28	0	0	10	11	6	4	47	95	0	0	3	45	3	0	0
OTU 72	293	59	4	3	2	1	11	10	127	67	161	31	16	877	73	81	157	598	38	26	18	655	101	24	11	41	83	18	686	9	20	4	52	22	15	5	40	88	312	26	1536	11	0	28	79	1	73	105	39	59
OTU 73	23	38	173	22	0	20	15	1	13	162	187	84	27	12	1	8	88	42	38	8	33	0	75	7	98	102	10	14	1	6	80	9	2	12	16	5	6	35	376	0	7	19	10	14	147	19	11	5	105	135
OTU 74	32	30	99	11	6	48	59	0	9	4	2	3	118	806	6	8	15	0	0	21	0	0	1	49	193	187	66	59	6	109	86	10	40	38	24	136	4	23	10	8	3	6	3	27	0	25	6	62	23	27
OTU 75	59	32	78	105	0	16	33	8	28	6	1	15	151	25	28	6	15	49	240	410	199	7	520	103	556	126	130	0	15	3	4	79	58	68	42	28	6	133	1	74	1	4	7	33	0	352	15	35	636	29
OTU 76	0	14	66	0	2	11	0	0	0	25	12	0	0	0	0	15	11	13	0	0	0	0	0	0	0	48	30	2	0	0	7	0	3	0	0	7	4	28	17	6	0	10	80	1	7	0	3	28	0	1
OTU 77	0	20	27	787	141	4	7	5	1	38	1	103	11	23	75	57	43	14	69	14	3	60	197	5	25	18	2	20	20	55	3	78	12	78	81	11	3	15	3	64	96	6	10	47	3	25	16	80	2	1
OTU 78	2	28	9	43	11	19	15	212	1	750	3	15	83	33	0	40	7	8	20	0	1	10	27	0	1	4	3	1	1	21	362	47	13	101	16	4	0	31	7	234	25	6	0	32	38	43	11	8	0	2
OTU 79	268	53	35	47	35	46	95	164	264	147	7	19	187	602	26	63	218	620	128	26	34	457	324	73	195	182	194	51	442	170	107	58	108	31	86	87	17	215	20	840	891	1841	26	4	214	57	193	142	17	119
OTU 80	25	61	1716	2	22	0	2	15	53	158	12	214	85	5	36	1	33	43	97	430	144	4	223	62	47	78	323	2334	2	3472	47	83	117	25	67	21	0	22	12	0	1	2	6	7	84	31	9	28	1047	13
OTU 81	82	4092	64	36	5	81	103	10	118	218	23	39	8	7	19	37	17	338	24	14	11	6	92	24	21	77	255	28	8	81	251	89	109	90	39	3145	5	30	54	10	24	8	54	28	358	30	144	12	26	18
OTU 82	110	0	14	19	0	32	183	0	13	15	3	18	3	32	2	8	33	29	3	22	6	4	1	4	2	32	0	8	44	6	0	19	0	1	125	1	16	0	9	47	9	16	34	11	5	6	71	7	9	118
OTU 83	1	0	0	0	96	3	0	7	1	0	1	0	0	1	54	25	3	0	2439	0	6	4	0	4	0	0	181	0	0	1	0	5	55	1	0	0	0	0	1	0	3	38	21	7	8	26	9	9	0	1
OTU 84	56	0	0	34	95	308	27	60	5	44	139	78	2	15	216	16	7	30	10	0	0	0	10	66	1	26	35	1	9	0	1	53	51	822	1	33	427	30	272	9	5	6	0	304	3	50	24	0	1	2
OTU 85	5	10	0	5	0	1	4	54	0	0	1	1	35	1	1	1	6	8	2	0	9	16	15	6	0	0	19	0	1	6	0	0	7	53	1	11	0	8	3	9	2	0	0	0	1	4	39	49	5	0
OTU 86	0	0	0	0	0	0	0	0	0	0	0	0	0	0	0	39	0	0	0	0	0	0	0	0	0	0	0	0	0	0	0	4	0	0	2	14	0	0	0	0	0	0	0	0	0	0	0	4	0	0
OTU 87	0	0	7	0	56	26	199	250	0	0	0	0	42	0	0	45	0	0	0	0	2	0	4	15	1	0	2	51	0	45	30	6	6	31	694	0	3	51	1	466	0	1	0	19	3	6	0	52	1	228
OTU 88	2	0	16	1	4	0	1	1	3	0	0	9	0	3	0	20	0	0	0	5	0	22	2	4	7	0	1	0	3	2	0	0	0	23	32	0	1	19	0	0	51	0	0	0	0	0	5	10	0	0
OTU 89	22	8	7	0	31	1	14	2	0	9	0	6	3	0	15	14	21	14	0	0	0	2	0	0	12	14	5	2	0	0	59	0	4	10	1	1	9	32	0	34	0	5	3	0	36	0	3	0	0	33
OTU 90	0	0	0	5	0	0	0	1	0	0	0	0	0	0	0	2	0	2	0	0	5	2	0	0	18	11	0	0	0	1	0	0	12	0	15	11	3	0	0	13	16	0	0	0	38	0	0	1	0	0
OTU 91	0	0	25	0	0	0	0	0	0	145	0	0	0	0	7	0	3	0	0	2	0	0	0	0	0	0	0	0	0	3	14	0	0	0	0	0	0	362	0	0	0	3	0	0	0	0	0	1	4	0
OTU 92	66	1	0	0	0	0	0	5	1	2	0	0	0	0	0	0	48	15	0	1	3	0	0	2	113	7	3	6	0	0	13	0	0	0	0	0	0	2	0	0	0	0	0	40	7	1	3	0	0	2
OTU 93	28	0	0	0	63	0	2	1	6	0	11	0	0	0	0	0	0	0	0	0	0	0	0	0	0	14	8	8	0	7	0	0	0	0	0	19	0	0	15	0	0	0	0	0	7	0	0	0	1	64
OTU 94	102	2	19	0	72	9	2	12	226	19	0	133	60	6	9	1	4	8	18	1	8	4	49	8	92	139	349	0	54	13	62	80	187	11	15	0	0	36	0	8	23	68	161	5	0	47	1	9	13	7
OTU 95	8	0	2	2	1	0	0	7	0	1273	19	0	0	0	0	5	6	4	1	0	0	15	10	6	38	30	16	0	0	2	600	0	0	19	0	4	2	7	33	0	19	0	3	2668	31	0	0	0	0	3
OTU 96	0	1	14	0	0	0	0	0	0	38	0	0	2	0	1	1	0	0	0	0	0	2	0	2	0	0	0	0	0	0	0	8	0	0	0	0	0	18	0	0	0	0	0	0	0	1	0	0	0	5
OTU 97	3	2	35	2	0	71	0	8	0	0	0	0	1	0	14	6	0	1	0	45	7	12	0	0	5	0	0	65	33	143	63	6	0	0	8	0	0	3	0	0	30	0	5	0	0	5	0	2	35	2
OTU 98	22	3	1	11	10	1	12	10	26	0	0	0	1	1	2	7	0	8	14	7	0	30	14	38	55	0	19	11	0	19	0	42	10	0	49	1	1	0	0	1	30	0	0	2	210	49	31	4	0	3
OTU 99	35	7	22	19	10	49	97	30	145	14	6	30	106	13	26	181	42	102	13	3	22	66	26	49	44	108	157	25	14	35	17	93	91	10	54	35	17	19	6	12	121	98	60	20	13	41	33	64	7	36
OTU 100	11	41	16	12	10	0	196	9	0	12	19	6	74	1	3	54	4	44	1	0	1	15	3	61	104	2	23	14	9	23	86	8	0	107	45	5	40	76	33	0	24	4	9	3	12	16	2	5	0	658
OTU 101	31	0	0	0	0	0	0	4	0	0	1	0	0	0	1	6	67	4	0	2	0	0	0	0	59	0	0	0	0	0	0	30	101	8	7	17	4	1	1	4	5	1	0	5	0	11	13	0	1	0
OTU 102	1	0	3	4	41	0	0	0	0	0	0	0	39	11	1	0	1018	0	12	0	0	40	40	2	1	1	0	10	86	18	7	19	0	0	24	0	0	0	0	20	134	23	66	0	41	7	21	5	5	4
OTU 103	27	83	44	9	5	0	11	0	0	47	0	16	0	6	26	33	8	3537	0	0	1	4	0	0	6	13	0	35	13	41	33	5	3	2	4	44	13	52	1	5	0	0	11	1	1	0	200	7	24	76
OTU 104	1733	19	9	19	326	203	10	0	52	8	20	11	67	25	219	5	19	8	6	9	0	12	26	20	22	173	104	50	16	123	6	3	98	70	888	23	59	112	36	7	72	341	818	40	156	7	35	100	19	39
OTU 105	8	6	1	9	1	0	1	9	2	11	0	0	0	0	0	13	0	8	44	0	0	0	107	182	44	187	110	5	0	17	0	150	37	1	0	6	2	0	0	1	1	0	0	0	0	143	0	0	0	0
OTU 106	3	1	12	64	0	0	5	22	120	0	1	2	0	0	0	0	1	0	101	0	0	7	183	0	1	0	29	8	0	2	0	0	42	0	0	0	0	7	1	0	8	3	20	0	168	0	0	28	0	0
OTU 107	20	7	4	0	10	31	0	0	0	2	1	16	1	0	0	0	4	0	0	10	2	0	0	7	56	1	41	1	0	0	1	6	8	26	7	1	5	14	2	4	0	0	0	1	1	7	0	638	0	0
OTU 108	0	13	0	5	82	0	55	1	47	1	4	1	8	0	12	2	194	45	63	35	1	1	68	34	2	27	7	0	1	0	2	16	1	55	21	1	43	0	8	7	12	4	6	19	131	5	11	25	2	2
OTU 109	0	0	0	0	0	0	0	0	0	0	0	0	0	0	0	0	0	0	0	0	0	0	0	0	0	0	0	0	2	0	0	0	0	0	0	105	0	0	0	0	0	61	63	0	0	0	0	0	0	0
OTU 110	28	1	11	33	34	0	129	0	243	39	0	50	273	4	8	1	15	4	10	4	2	26	24	85	13	1	195	12	5	24	2	94	112	0	172	21	29	25	0	26	53	3	26	6	4	65	30	49	18	82
OTU 111	0	2	16	0	0	15	0	0	0	0	3	1	107	2	23	0	0	0	0	0	0	0	0	13	38	0	0	1	10	1	2	48	0	34	0	0	1	16	7	0	0	0	0	42	0	7	4	0	0	0
OTU 112	20	9	1	23	3	36	0	0	2	10	0	22	26	62	0	2	8	0	0	6	0	15	0	1323	2	59	0	0	0	0	0	3643	2	4	64	0	0	73	0	1	26	19	26	0	0	1919	3	10	3	1
OTU 113	0	0	0	0	1	0	0	1	0	42	0	7	3	0	0	0	0	0	1	0	0	0	1	0	0	0	6	4	34	2	0	0	0	2	0	0	0	47	0	0	0	0	0	0	0	0	0	1	2	1
OTU 114	51	58	0	113	100	26	114	46	93	136	29	115	43	36	48	155	87	86	47	30	10	92	94	65	82	14	121	33	40	71	230	82	2329	8	4	105	9	62	57	33	168	110	122	21	69	68	3	23	15	59
OTU 115	36	18	58	20	56	0	149	10	1	193	14	11	35	58	27	317	90	49	58	38	1	51	121	76	111	109	142	7	255	8	122	107	40	177	12	22	68	3	24	49	132	70	3	32	208	40	26	252	26	64
OTU 116	1	0	48	11	197	4	29	26	45	0	0	31	19	36	12	22	111	0	9	12	5	27	14	64	22	10	11	59	18	69	45	160	4	73	227	38	9	307	2	91	50	74	63	101	56	38	37	11	25	23
OTU 117	13	1	8	28	33	14	14	12	38	78	0	3	144	0	27	127	5	1	54	10	21	24	0	5	0	89	33	0	4	7	16	87	4	31	24	52	8	5	0	15	34	21	3	21	28	31	35	23	1	37
OTU 118	0	0	0	18	24	2	0	8	0	5	0	2	0	0	12	0	3	1	5	0	0	17	3	18	0	161	2	0	0	0	10	0	0	14	0	70	0	29	0	1	9	0	4	5	1	0	6	0	0	0
OTU 119	73	13	21	54	89	24	25	37	0	41	10	5	86	0	9	7	98	50	2	1	2	0	0	1	52	17	4	3	15	6	11	59	4	15	9	24	52	83	22	19	2	0	45	12	5	20	5	2	13	17
OTU 120	2	30	19	10	0	11	0	1	2	83	52	22	37	3	190	12	0	5	0	1	11	3	0	1	30	8	4	32	14	75	0	0	6	367	0	4	135	1	103	0	13	1835	18	204	0	2	1	2	0	1
OTU 121	0	6	106	32	7	5	37	3	13	6	0	11	12	0	0	69	39	23	15	17	3	12	44	28	3	72	3	59	0	90	27	13	1	10	77	10	10	52	0	7	29	0	18	0	27	17	8	3	14	0
OTU 122	80	20	19	1	15	1	16	27	2	52	13	1	0	17	0	29	44	12	88	7	33	27	150	0	130	12	110	0	47	0	43	7	51	29	4	13	29	12	26	27	83	8	67	8	14	0	4	26	5	37
OTU 123	313	240	57	59	188	159	160	156	236	266	57	75	77	111	243	231	109	87	82	21	51	55	199	164	127	129	293	52	41	50	235	77	82	336	74	93	211	321	126	71	124	207	118	140	370	23	86	229	53	91
OTU 124	0	1	0	7	0	1	0	4	0	14	0	0	0	0	0	0	1	0	1	0	0	0	5	0	0	1	13	6	1	0	0	8	2	0	109	0	1	0	0	0	0	5	0	11	0	0	19	1	0	5
OTU 125	39	15	38	127	56	34	21	61	106	676	14	49	701	130	53	48	590	51	33	36	27	10	77	68	358	32	231	48	23	58	296	50	127	86	188	25	30	180	30	87	45	118	89	89	251	35	303	77	45	111
OTU 126	0	0	3	0	204	2	0	0	6	0	4	0	0	0	0	0	0	0	18	0	0	0	33	48	0	98	0	0	0	0	13	0	21	0	0	0	2	168	4	0	0	0	1	0	9	0	0	0	3	0
OTU 127	1	52	0	16	0	12	29	2	0	21	5	130	51	1	3	16	17	6	12	0	21	2	22	12	2	0	71	1	2	1	7	5	3	94	0	61	5	113	9	0	2	11	77	10	10	261	2	1	2	5
OTU 128	229	80	272	212	285	33	806	439	1218	474	12	205	48	228	108	271	126	386	15	72	44	257	50	205	205	245	609	227	116	336	610	211	315	14	45	90	41	236	19	902	566	1242	2257	15	319	165	109	171	71	1097
OTU 129	5	13	0	0	1	7	0	10	0	10	1	0	0	16	0	10	17	0	11	0	0	0	17	15	4	0	0	0	0	0	0	16	0	20	1	10	0	0	5	0	1	0	0	0	0	26	4	0	10	0
OTU 130	3	5	2	5	14	1	30	15	58	2	4	27	85	13	13	47	6	37	2	6	16	122	0	23	17	96	40	0	86	0	58	19	19	2	32	37	8	45	6	5	223	0	105	0	55	15	0	25	6	21
OTU 131	12	2	59	3	2	225	28	3	13	82	23	8	28	54	176	16	59	50	103	0	0	48	239	5	0	195	61	15	62	31	50	64	10	249	25	36	223	7	47	0	145	7	2	79	14	37	1	499	1	40
OTU 132	78	2	0	0	18	3334	6	0	6	37	0	0	7	7	0	1	0	30	6	16	0	0	13	3	2	58	0	5	2	4	4	0	1	0	1	0	0	13	0	34	0	11	30	0	39	1	46	1	0	0
OTU 133	0	1	26	0	0	0	0	27	0	0	0	26	6	1	29	0	5	37	0	2	3	0	0	0	0	1	0	0	0	0	9	0	0	0	0	32	0	0	0	0	0	0	0	0	0	0	1	0	0	0
OTU 134	142	3	25	43	24	76	1	0	5	17	13	9	1	0	93	0	22	14	16	3	6	0	36	46	1	15	23	4	13	29	2011	150	2	25	1	67	21	4	33	19	0	9	5	13	74	34	34	17	20	7
OTU 135	6	0	61	9	21	21	4	0	124	9	0	14	6	13	19	748	462	60	21	12	6	50	31	53	20	18	160	54	32	159	7	149	101	97	25	52	73	56	2	7	125	73	29	34	44	95	202	53	8	0
OTU 136	11	8	0	0	9	3	31	45	2	2	34	32	5	21	23	26	0	17	0	14	28	0	2	15	1	14	18	2	10	25	0	7	7	1	35	4	34	0	69	8	1	0	22	34	7	0	0	69	0	11
OTU 137	53	16	7	4	4	0	0	35	9	0	0	26	15	8	1	0	1	0	0	0	0	0	2	14	34	5	0	3	0	0	1	0	7	1	1	0	1	18	0	4	0	1	10	3	3	1	12	2	19	55
OTU 138	5	5	7	1	0	0	18	4	2	405	4	0	0	29	52	17	14	0	0	0	0	2	0	1	2	44	0	12	7	3	70	0	3	10	1	0	54	13	7	3	11	6	8	1	11	0	308	83	3	0
OTU 139	60	37	2	53	100	42	72	175	45	92	8	33	39	20	58	224	20	16	68	12	5	11	106	279	539	564	75	53	22	66	29	22	20	16	118	66	9	26	21	58	45	139	270	14	48	39	64	19	23	14
OTU 140	79	36	111	32	7	66	98	4	137	52	17	77	42	77	21	10	103	20	129	106	37	100	246	313	69	373	390	75	742	136	1069	295	150	53	64	22	34	59	24	47	143	77	48	29	313	98	305	194	168	112
OTU 141	0	0	0	0	0	0	0	0	2	38	0	0	1	0	0	0	0	0	0	0	0	0	0	0	0	0	0	3	4	1	0	0	0	0	0	0	0	0	0	9	0	0	0	0	0	0	0	0	0	0
OTU 142	0	0	54	0	22	0	0	0	1	0	0	0	0	30	0	8	0	0	0	0	0	0	0	0	7	0	3	0	1	0	3	0	0	0	0	0	0	0	0	80	0	42	26	0	0	0	0	0	6	0
OTU 143	0	0	2	0	0	20	0	0	1	0	0	0	28	0	1	3	36	2	0	1	0	0	0	0	0	3	20	0	1	4	0	0	0	0	8	0	3	0	0	0	0	8	9	0	0	0	0	0	4	0
OTU 144	0	0	15	0	65	6	0	35	14	47	0	5	85	0	0	0	0	0	0	0	0	0	1	1	22	0	0	0	0	0	15	0	0	1	0	2	0	0	0	11	0	1	40	0	0	0	0	0	0	29
OTU 145	60	18	5	25	30	2	67	33	58	23	5	7	12	17	34	42	32	0	15	10	50	8	50	64	18	87	88	3	8	5	17	15	35	41	168	835	40	35	9	61	31	54	0	52	67	2	42	79	1	4
OTU 146	12	12	0	5	0	14	51	8	0	0	6	0	193	4	2	8	46	85	191	1	16	17	374	53	266	124	109	24	8	93	28	134	9	22	7	1	22	186	20	16	15	8	2	6	0	40	5	4	8	18
OTU 147	0	8	63	0	0	1	0	0	0	0	0	47	75	1	41	0	3	39	0	0	3	10	2	37	52	2	5	0	0	0	32	46	0	14	104	21	1	41	0	15	13	0	41	2	73	21	0	0	6	0
OTU 148	31	68	0	20	7	14	1	12	31	12	0	162	53	15	59	26	46	0	9	0	6	2640	0	19	120	22	80	0	15	41	7	15	30	1	2	59	0	74	0	0	11	90	91	8	25	4	100	224	27	51
OTU 149	2	2	8	1	4	0	47	0	2	15	1	31	478	3	3	0	10	0	0	0	10	0	0	6	17	1	0	0	0	9	1	1	0	0	47	0	8	8	1	0	11	0	0	1	0	4	0	0	0	2
OTU 150	9	12	0	0	13	3	0	1	0	0	1	4	0	0	0	6	4	0	44	0	3	19	85	1	0	202	0	0	12	0	1	0	12	60	0	59	30	0	8	0	49	0	2	19	74	0	6	45	0	12
OTU 151	6	0	13	30	1027	0	14	32	1472	8	0	3	34	13	2	1	0	0	0	9	4	7	0	31	113	5	27	5	55	8	0	25	3	2	10	47	3	1	1	23	29	61	63	4	0	39	12	2	1	1
OTU 152	0	30	11	95	6	6	72	3	85	186	9	101	14	2878	3	30	11	14	23	35	10	51	63	59	222	264	133	5	3	12	83	6	94	7	44	68	8	166	14	110	48	18	26	30	96	1	46	19	0	13
OTU 153	3	0	0	2	0	0	0	1	0	0	0	62	0	0	0	0	6	1	0	0	0	0	0	0	0	0	0	0	0	0	0	0	0	0	0	0	0	0	0	0	0	0	0	0	0	7	0	1	0	0
OTU 154	0	0	0	0	0	0	0	0	0	87	0	0	0	0	19	0	2	0	0	0	0	1	3	0	2	0	0	0	0	2	3	0	0	0	0	0	0	0	0	0	0	7	0	0	0	0	0	0	11	0
OTU 155	0	7	0	4	3	3	1	6	1	11	0	4	6	1	0	36	1210	0	0	1	0	2	0	0	37	2	0	4	0	0	10	6	0	9	14	1	15	29	0	3	7	1	5	5	7	0	12	8	11	28
OTU 156	56	5	33	7	6	5	37	18	8	146	2	36	165	10	66	45	31	14	0	30	4	12	3	19	18	141	72	9	24	14	144	32	13	6	31	122	9	42	4	10	20	9	55	3	113	12	15	7	53	0
OTU 157	2	3	45	0	3	6	9	1	4	0	11	0	0	1	0	2	3	0	91	18	4	0	124	0	0	151	6	7	0	22	4	27	0	12	0	0	0	21	14	0	0	0	0	0	25	5	0	0	18	0
OTU 158	0	1	0	3	1	2	0	0	9	9	0	0	6	0	0	0	48	0	0	0	0	0	0	1	0	0	0	0	0	6	2	0	0	0	0	0	0	0	0	0	0	0	0	0	12	0	6	39	0	0
OTU 159	18	40	1	1	0	38	6	5	1	0	7	0	37	11	28	20	69	10	1	0	0	0	1	0	20	226	1	1	1	0	28	7	7	83	1	2	98	69	9	5	0	32	50	73	40	7	0	911	4	1
OTU 160	163	98	11	7	156	29	50	49	93	76	7	51	172	47	17	299	203	32	37	5	497	14	77	70	134	260	133	112	4	161	5	96	103	17	17	79	51	22	13	32	11	8	69	54	52	61	53	219	38	36
OTU 161	69	9	85	0	97	24	50	9	14	4	6	1	17	47	4	38	18	12	61	272	335	19	92	6	1	1	30	74	6	129	105	110	21	2	5	0	47	0	17	12	12	0	3	1	10	12	0	222	98	123
OTU 162	69	0	6	58	12	22	24	31	120	11	455	1	32	21	2	3	0	6	17	0	4	1514	31	8	44	84	124	3	26	52	1	55	120	32	12	12	2200	18	50	26	9	1	44	45	8	0	8	110	29	1
OTU 163	0	0	2	0	1880	0	2	9	0	0	0	3	31	0	0	0	1	1	0	0	0	0	0	0	0	0	0	0	0	0	2	1	0	0	0	0	0	3	3	28	0	0	0	0	0	0	0	0	0	0
OTU 164	0	0	1	0	0	0	0	0	0	0	0	0	6	0	0	113	0	0	0	0	0	0	0	0	21	0	1	0	58	0	0	0	0	0	0	0	18	0	0	0	0	2	0	9	1	0	0	0	0	0
OTU 165	4	6	5	0	5	43	0	3	92	234	0	41	3	2	23	4	252	15	12	1	0	3	9	0	23	2	40	1	23	0	35	7	59	1	62	1	0	37	0	43	13	14	1	2	0	0	8	15	3	0
OTU 166	316	0	0	0	0	0	0	0	0	0	0	0	0	0	0	0	0	0	0	0	0	0	0	0	0	0	0	1	6	0	0	0	0	0	0	0	0	0	0	0	0	0	0	0	0	0	0	0	0	0
OTU 167	3	4	14	5	31	2	2	2	29	0	5	0	59	26	1	27	10	0	0	11	1	0	7	0	2	9	88	0	6	9	1	5	48	15	4	3	0	2	17	0	5	0	33	3	0	13	24	7	2	6
OTU 168	206	0	2	0	1	1	116	3	22	9	5	9	4	2	12	66	4	10	3	1	4	1	10	3	2	4	0	0	0	0	14	29	8	12	35	47	46	19	16	19	0	0	4	4	162	0	78	5	9	18
OTU 169	8	0	0	5	0	2	0	1	0	0	0	5	0	16	0	0	0	0	8	0	0	0	11	4	0	0	0	0	0	0	0	0	0	0	106	0	3	7	0	0	0	0	0	0	0	18	13	0	0	0
OTU 170	0	0	0	0	27	10	0	1	0	10	0	2	0	0	0	0	0	0	0	0	0	2	0	0	0	0	0	1	0	9	0	0	1	0	0	0	0	0	0	5	0	4	30	0	0	9	0	0	1	0
OTU 171	4	0	4	8	1	39	3	3	0	68	0	10	7	3	8	128	15	0	5	6	6	4	26	12	5	9	44	13	4	24	8	38	3	10	13	37	2	31	0	0	0	20	69	0	2	0	22	6	47	8
OTU 172	0	0	0	2	1	54	3	0	40	2	31	0	0	0	0	6	0	51	66	0	0	0	144	50	0	12	222	1	2	12	7	36	76	51	0	2	56	0	78	12	0	0	0	77	12	18	0	0	0	0
OTU 173	1	0	0	14	22	0	0	8	2	0	0	9	5	3	6	12	48	13	0	0	2	0	3	16	0	1	0	0	0	0	0	7	0	14	0	2	0	0	2	0	6	0	2	3	0	0	17	60	16	2
OTU 174	0	56	0	0	1	30	0	28	2	6	10	27	4	11	0	5	6	0	34	0	0	1	62	8	172	4	0	10	0	4	11	35	2	2	27	197	1	2	13	116	10	14	0	39	21	33	47	487	3	2
OTU 175	47	3	0	0	19	2	4	9	16	0	0	0	59	0	0	2	5	31	1222	3	0	0	1	34	6	29	0	20	9	6	31	102	7	5	26	2	7	0	1	1	12	33	0	7	7	14	0	13	0	0
OTU 176	14	28	16	88	43	5	2	123	46	19	0	19	52	19	70	143	153	16	6	6	13	5	11	4	225	1	122	16	14	82	16	32	78	65	37	24	110	62	0	71	53	24	12	67	14	47	28	62	5	11
OTU 177	113	0	0	2	140	38	1	17	55	25	4021	38	41	57	144	54	10	27	16	327	103	16	50	10	54	56	36	5	0	22	3	14	24	74	1	62	26	30	24	27	28	44	77	14	15	6	43	70	783	41
OTU 178	47	1	0	2	3	4	1	299	0	5	0	0	7	34	0	9	25	85	4	1	14	0	3	4	78	2	0	0	0	14	5	4	0	16	0	0	0	42	0	511	5	10	13	1	123	23	14	1	12	2
OTU 179	0	0	15	0	0	20	2	23	9	0	0	0	44	5	2	54	29	19	10	0	4	0	31	1	2	4	3	1	10	5	1	1	0	24	12	6	1	20	2	0	18	25	7	16	0	6	12	72	0	10
OTU 180	152	90	90	124	192	9	96	78	69	199	8	32	44	17	106	110	88	85	21	10	20	510	33	56	26	218	48	62	3720	145	61	70	15	106	74	36	79	52	13	142	39	48	6	94	167	19	334	163	52	114
OTU 181	1	80	0	0	11	33	1866	9	10	67	0	196	31	2	3	10	55	34	8	0	0	53	20	2	19	3	3	7	15	23	38	13	0	16	53	6	3	1	0	8	102	5	0	3	55	5	4	15	0	1
OTU 182	1	0	0	2	0	5	4	0	0	0	0	1	0	0	0	0	0	1	0	0	0	0	0	0	0	0	0	0	0	0	0	0	0	0	8	0	0	0	0	0	0	29	0	0	0	0	5	0	9	0
OTU 183	2	75	0	6	13	18	0	4	19	339	0	134	20	2	0	0	0	16	1	0	0	20	23	10	64	19	187	15	27	0	219	5	62	1	30	45	1	58	0	3	49	20	0	1	0	15	16	170	0	9
OTU 184	18	17	8	0	51	28	25	12	15	1	0	0	1	8	13	25	137	26	8	6	0	0	18	2	36	0	30	1	7	0	24	6	45	8	19	2	0	8	0	1	1	110	87	0	6	0	35	24	5	37
OTU 185	2	89	2	56	5	2	15	61	448	13	13	81	14	775	0	8	15	700	0	0	9	806	0	20	145	90	6	21	615	31	62	19	8	31	6	23	44	14	27	8	1396	12	28	19	58	6	4	69	0	22
OTU 186	1	5	0	48	0	1	1	2	6	0	1	110	0	0	0	1740	4	2	1	1	0	0	2	2	0	0	0	0	0	0	7	0	0	2	0	22	2	0	1	0	0	0	27	0	1	0	0	18	2	1
OTU 187	14	57	111	33	110	53	121	8	22	94	1	25	83	7	6	20	12	3	3	51	28	0	3	5	101	39	35	104	7	148	7	0	5	8	113	25	46	32	3	114	6	67	82	15	136	21	223	1	48	143
OTU 188	82	60	48	36	67	1	2	0	8	8	269	36	96	17	7	180	87	27	7	7	5	3	37	22	147	2	65	30	8	47	6	59	22	9	115	106	9	30	11	153	19	22	82	14	101	60	45	24	5	3213
OTU 189	50	11	44	19	30	25	80	41	2	43	16	23	78	43	18	161	0	89	4	58	14	20	6	56	2	5	0	10	13	14	53	67	4	2	1	28	1	4	28	19	31	29	12	7	7	38	73	90	129	20
OTU 190	0	0	62	0	2	0	0	0	5	1	0	0	494	1	1	1	1	0	0	8	0	0	0	0	23	1	0	22	0	86	0	1	0	1	0	233	26	0	0	0	3	20	30	4	0	2	0	156	12	0
OTU 191	132	104	3	59	10	30	11	8	28	15	289	46	69	9	24	31	20	36	11	4	9	13	39	75	14	4	25	1	0	24	80	71	38	35	8	34	27	7	589	48	16	16	80	7	167	36	632	37	10	43
OTU 192	16	27	85	8	75	20	55	24	1	38	66	175	12	8	79	768	5	37	63	51	1928	29	99	71	30	54	103	8	11	60	24	84	44	59	18	38	7	33	96	2	62	68	80	4	45	19	96	88	89	51
OTU 193	4	13	3	149	0	37	30	1	28	93	4	20	0	18	10	16	191	82	4	11	8	6	6	36	149	16	23	0	13	3	1	52	13	55	18	43	8	7	7	11	1	7	10	35	11	12	10	3	0	7
OTU 194	44	3	3	1	17	9	5	0	9	3	2	0	0	19	1	73	25	0	0	0	0	1	0	2	4	1	94	2	12	0	0	3	79	3	4	16	2	0	4	0	0	0	0	1	0	4	1	0	18	15
OTU 195	5	1	4	1	50	0	4	13	8	0	4	36	46	34	4	2	14	18	9	1	0	25	34	17	43	43	31	0	0	0	0	24	34	39	0	0	15	40	12	0	46	33	1	22	159	6	156	14	25	48
OTU 196	103	14	0	2	12	5	7	0	17	6	4	25	292	42	0	32	37	22	116	2	1	6	288	42	62	5	25	4	8	2	1	27	10	45	10	43	35	76	7	3	22	19	72	22	87	8	9	223	0	10
OTU 197	645	20	166	3080	46	42	88	5	12	124	9	117	107	59	65	23	77	84	44	24	955	5	39	111	226	50	93	29	69	105	88	158	166	97	351	76	14	31	15	21	6	23	39	44	152	102	159	10	47	9
OTU 198	28	0	0	0	103	15	14	0	78	6	17	17	0	0	0	0	1	0	18	0	0	0	21	2	160	0	12	2	14	0	0	1	0	0	0	4	0	1	28	0	0	0	133	4	24	0	0	0	0	0
OTU 199	3	3	0	163	19	0	0	0	0	25	1	7	8	0	16	54	0	30	20	3	0	0	6	38	93	0	7	7	7	3	1	0	14	9	2	123	34	0	1	0	5	35	0	0	11	0	57	0	1	5
OTU 200	6	93	1	2	17	24	0	6	3	8	7	17	6	31	0	17	1	10	13	3	3	8	27	55	148	2	27	0	5	36	38	60	19	22	23	50	49	58	2	1	10	7	59	0	74	27	7	46	5	36
