	Host 1	Host 2	Host 3	Host 4	Host 5	Host 6	Host 7	Host 8	Host 9	Host 10	Host 11	Host 12	Host 13	Host 14	Host 15	Host 16	Host 17	Host 18	Host 19	Host 20	Host 21	Host 22	Host 23	Host 24	Host 25	Host 26	Host 27	Host 28	Host 29	Host 30	Host 31	Host 32	Host 33	Host 34	Host 35	Host 36	Host 37	Host 38	Host 39	Host 40	Host 41	Host 42	Host 43	Host 44	Host 45	Host 46	Host 47	Host 48	Host 49	Host 50	
OTU 1	37	48	11	42	37	106	12	95	0	65	150	24	245	2	181	16	258	41	65	6	0	4	35	60	22	18	4	0	6	1	27	160	73	146	158	104	39	100	208	42	10	104	2	144	97	45	26	262	130	25
OTU 2	5	1	2	1	0	21	2	10	18	7	0	1	2	45	0	1	0	37	0	4	222	0	0	0	0	0	126	1	27	0	7	6	5	1	0	2	16	15	43	77	18	21	0	74	1	3	41	1	18	40
OTU 3	24	55	0	0	1	6	0	0	0	38	2	1	0	149	0	0	11	83	0	8	0	0	0	1	0	0	0	25	0	8	0	88	0	20	15	1	0	0	7	0	1	8	2	8	0	9	9	15	0	41
OTU 4	0	0	0	0	0	0	0	0	0	0	0	0	0	0	0	0	0	2	0	0	0	0	0	0	0	1	0	0	0	0	0	0	0	0	0	0	0	0	0	0	0	0	0	0	0	0	0	0	0	0
OTU 5	294	271	578	240	75	717	86	674	18	171	1607	1506	338	1	0	2	443	698	251	6	110	1137	327	66	69	248	35	1041	2	340	70	191	234	121	80	143	82	389	489	89	571	788	476	100	5	640	451	148	111	16
OTU 6	3	9	16	6	12	93	132	0	55	180	0	28	17	98	0	8	5	28	0	22	1	4	22	3	8	0	6	13	3	1	7	9	6	46	26	0	13	60	0	4	1	1	3	41	0	50	1678	15	116	12
OTU 7	1689	45	400	214	52	14	69	437	1616	28	396	42	380	487	171	53	541	60	32	67	28	269	402	2176	6	80	124	52	2	86	7	1195	192	546	957	4129	72	35	761	42	13	368	67	87	77	72	51	74	889	19
OTU 8	131	4	78	22	14	38	218	67	17	220	117	9	6	27	157	377	40	14	78	222	5	15	3	93	41	30	98	94	150	14	212	465	29	213	6	79	58	46	105	40	45	37	36	101	110	15	140	288	14	149
OTU 9	0	15	242	13	0	3	53	1	21	1	0	0	9	25	26	0	31	18	84	36	30	25	0	0	1	23	56	0	20	0	0	7	18	5	167	1	44	10	10	71	205	5	9	10	2	0	2	0	5	10
OTU 10	35	44	1	0	0	1	12	1	0	0	12	3	45	11	136	1	15	125	0	0	27	4	4	4	0	49	10	12	2	0	31	36	0	2	0	0	45	83	11	16	5	7	8	11	86	8	12	30	4	8
OTU 11	3	479	5	12	2	48	36	76	47	137	61	52	20	236	34	169	4	10	4	86	6	5	21	44	20	2	93	22	100	674	46	149	4	4	168	25	49	0	247	178	1	118	8	10	20	89	3	111	26	80
OTU 12	54	13	37	36	40	6	65	3	35	15	26	42	11	28	12	136	5	51	194	88	17	3	30	26	133	1	12	5	4	36	30	6	8	5	67	46	77	77	3	247	14	1	44	16	4	75	22	44	41	68
OTU 13	0	2	0	0	0	0	0	0	0	16	21	0	0	8	0	0	10	0	0	0	0	0	0	0	0	0	0	0	23	62	0	0	1	0	0	1	105	0	0	0	0	2	0	0	0	0	4	9	1	15
OTU 14	5	2	1	26	0	0	16	0	0	30	2	19	199	9	41	17	8	4	12	70	3	0	8	7	12	3	32	68	0	11	37	0	14	40	2	9	0	34	0	1	8	0	41	5	28	46	3	19	11	49
OTU 15	0	3	0	0	0	0	0	0	0	0	0	0	0	0	0	0	0	0	2	0	0	0	0	0	0	2	2	0	0	0	0	7	0	0	0	0	0	0	0	0	0	0	0	0	0	0	0	0	0	0
OTU 16	0	0	0	0	0	0	0	0	0	0	0	0	0	0	0	0	0	0	0	0	1	0	0	0	0	0	0	0	0	0	0	1	0	0	0	0	0	0	0	0	0	0	0	0	0	0	0	0	0	0
OTU 17	72	0	0	7	35	22	11	0	0	24	15	3	5	4	100	6	1	0	31	4	46	0	2	19	23	0	10	33	24	1043	48	3	0	0	0	2	4	0	4	0	10	7	27	25	50	7	0	86	4	5
OTU 18	13	16	0	10	192	12	67	78	1041	90	62	1915	12	5	48	12	4	57	99	48	172	16	25	32	18	207	12	2	91	22	28	16	13	6	7	61	94	32	65	14	53	38	44	13	15	42	3	187	83	3
OTU 19	0	0	0	0	0	0	0	0	0	0	0	0	0	0	0	0	0	0	0	0	0	0	0	0	1	0	7	0	115	2	0	0	0	0	0	0	0	0	0	6	0	1	0	0	2	0	0	0	0	0
OTU 20	10	1	25	10	27	1	15	1	13	97	55	1	32	7	153	27	24	11	20	4	0	4	5	102	10	4	38	22	10	44	6	94	13	43	3	174	150	34	19	132	38	14	30	16	119	4	38	62	16	65
OTU 21	73	49	0	5	66	28	15	23	6	0	3	31	38	22	0	42	42	174	37	54	30	1	3	1	20	63	50	51	112	7	4	14	12	11	2	0	126	89	7	39	1	4	12	77	0	65	9	0	13	51
OTU 22	176	20	4	16	89	16	17	2	78	4	63	1033	9	54	123	30	75	55	1	29	31	6	2	17	18	5	39	45	114	177	27	73	26	39	71	112	92	2	1	89	11	7	42	59	20	7	9	138	40	0
OTU 23	4	0	0	0	8	26	11	5	11	3	2	0	0	17	5	40	1	1	110	9	1	0	35	4	1	4	4	0	0	0	29	1	1	1	38	9	2	1	15	32	11	4	7	91	0	0	84	19	2	24
OTU 24	3	63	3	0	33	0	10	0	2	0	2	17	2	48	64	47	3	1	84	35	0	2	0	0	32	36	9	7	1	20	24	6	1	56	0	14	2	1	0	88	19	1	1094	9	7	31	35	1	37	0
OTU 25	0	2	0	0	0	0	0	0	0	0	14	4	0	0	0	0	0	0	0	0	0	0	0	12	0	0	0	0	0	0	0	0	0	0	0	11	0	0	0	0	1	0	0	0	0	14	0	31	0	0
OTU 26	3	5	0	3	3	5	5	5	0	0	0	0	0	0	3	0	0	0	0	17	0	0	0	8	0	37	5	8	7	65	2	3	0	0	0	12	80	0	0	1	2	0	0	2	0	0	0	0	0	83
OTU 27	0	0	0	0	4	0	0	0	0	0	0	4	0	0	0	0	0	64	0	0	0	0	12	0	26	0	0	0	0	13	0	0	0	0	3	0	0	0	1	0	0	0	6	0	0	6	1	0	0	0
OTU 28	7	52	65	6	63	47	279	1	10	6	9	20	17	64	6	169	10	52	101	7	21	2	16	5	60	29	11	26	3	249	149	8	3	36	22	11	69	39	8	56	31	4	16	53	0	39	17	8	71	59
OTU 29	5	80	72	7	43	38	81	51	610	15	110	146	142	31	473	47	60	15	101	125	93	29	33	141	24	0	30	12	139	9	82	36	36	36	65	218	39	87	93	34	8	49	13	124	243	303	12	160	21	25
OTU 30	0	0	0	0	0	0	0	0	0	0	0	0	0	0	0	0	0	0	0	0	0	0	0	0	0	0	0	4	0	0	0	6	0	0	0	0	0	0	0	0	0	0	0	0	0	0	0	15	0	0
OTU 31	2	0	5	0	6	0	0	0	0	156	0	0	0	0	3	7	0	8	5	0	5	0	5	0	0	0	19	62	2	0	9	20	3	50	0	2	55	17	0	120	1	0	1	0	0	0	10	4	8	8
OTU 32	40	7	3	20	4	81	113	86	19	56	649	7	50	54	79	122	190	170	559	18	88	21	28	241	46	28	13	298	50	35	23	40	55	45	55	398	64	109	200	39	52	106	31	73	27	15	68	951	164	103
OTU 33	0	0	2	1	0	0	0	0	0	0	0	0	0	16	0	0	0	0	61	1	0	0	0	0	0	29	3	0	0	0	0	0	0	0	0	0	0	0	0	2	0	0	50	0	0	0	0	1	0	0
OTU 34	7	7	7	4	92	64	86	3	5	5	3	3	17	253	16	264	5	53	6	43	87	8	2	1	5	96	53	40	15	22	14	21	4	4403	11	19	4	6	17	32	14	19	3	23	35	4	31	40	96	109
OTU 35	79	39	67	0	31	13	14	2	2	7	2	48	7	3	1	0	5	2	13	10	24	20	35	3	2	5	0	62	0	21	54	239	17	52	18	10	1	45	0	3	11	2	18	0	0	86	157	10	10	13
OTU 36	151	51	20	80	0	15	101	20	45	87	44	71	34	0	15	58	35	42	24	0	96	16	2	9	56	10	5	10	40	16	10	59	25	14	4	70	181	0	115	3	8	46	25	12	3	122	6	61	12	1
OTU 37	1	0	17	0	3	0	100	0	0	0	3	0	13	11	4	14	60	26	0	28	0	12	1	0	4	1	9	0	0	3	3	0	29	2	7	0	2	11	0	4	17	0	1	0	0	0	0	0	21	0
OTU 38	108	0	65	10	8	21	37	1	0	18	52	1	7	101	24	3	14	119	462	0	72	9	48	4	1	105	5	10	0	22	0	29	4	19	32	40	45	0	2	46	6	3	15	33	14	3	45	3	130	265
OTU 39	2	0	21	1	35	4	2	0	6	4	1	0	0	0	1	0	0	0	26	0	2	0	0	0	1	0	9	66	1	0	29	5	1	3	4	0	25	24	1	4	0	1	0	1	3	4	0	0	1	10
OTU 40	6	317	2	117	3	1	36	278	74	5	0	27	70	44	8	332	189	10	15	13	112	79	199	2	18	7	6	15	27	107	12	0	177	29	106	0	72	9	416	15	31	219	35	4	6	53	4	11	14	49
OTU 41	0	1	8	69	1537	5	27	30	12	18	0	0	21	3	0	81	18	0	0	38	255	0	56	0	635	2	14	34	30	184	712	0	9	5	19	0	21	28	78	18	46	24	418	34	10	0	51	1	24	114
OTU 42	11	0	6	0	0	0	1	0	5	0	0	0	0	0	156	0	1	17	2	0	5	0	8	5	0	0	0	1	74	0	8	0	1	1	1	3	2	9	6	7	0	0	0	3	65	0	0	5	0	0
OTU 43	0	0	0	0	0	0	0	0	0	0	0	0	0	0	0	6	0	0	11	0	0	0	0	0	0	3	0	0	0	3	4	0	0	0	0	0	0	0	0	0	0	0	24	2	0	0	0	0	0	0
OTU 44	65	24	1	1	0	0	0	18	0	28	2	62	0	148	0	82	0	0	3	21	14	0	3	0	15	0	2	1	0	1	40	0	0	1	0	0	71	10	5	0	0	4	0	0	0	132	0	9	1	9
OTU 45	44	7	18	0	6	5	15	2	15	3	38	1	31	6	154	222	18	147	1	2623	164	6	5	1798	4	7	6	0	1	29	17	5	1	10	40	51	26	8	11	11	1	15	64	58	89	2	12	32	4	14
OTU 46	26	0	14	19	4	17	274	1	19	5	5	29	39	0	166	60	46	13	48	11	34	22	3	2826	252	5	519	12	2	14	7	73	11	34	23	0	9	150	18	119	1	11	3	2	58	51	8	3	23	29
OTU 47	0	0	2	27	0	0	116	56	0	7	7	0	80	0	96	0	34	0	0	37	0	10	10	0	1	0	0	23	0	0	0	31	26	0	0	1	0	0	47	19	7	17	50	0	10	0	0	2	24	0
OTU 48	5	0	13	18	48	11	15	16	9	145	9	7	1	31	58	9	22	25	53	26	99	3	21	3	47	33	155	67	96	40	3	51	20	30	1987	28	46	58	20	88	5	9	132	53	17	23	2	49	64	4
OTU 49	49	5	69	0	8	0	93	0	0	12	0	0	6	0	39	10	2	0	30	8	1	0	0	0	46	3	0	1	1679	36	21	32	1	20	3	8	1	0	1	1	17	0	3	26	5	1	0	43	40	1
OTU 50	52	9	44	114	34	58	16	38	7	109	4	134	169	49	35	56	108	5	94	58	338	40	151	2	2	26	47	96	3	16	27	35	66	0	47	1	41	2	162	35	10	73	38	102	19	26	33	1	110	11
OTU 51	0	50	1	1	14	6	17	16	5	9	17	132	17	22	201	1	3	27	0	3	24	26	173	7	16	38	0	30	91	18	19	34	0	0	10	9	150	61	28	8	73	27	27	2	137	251	15	35	98	42
OTU 52	11	35	47	7	107	22	110	15	206	80	19	7	110	158	17	51	37	56	19	185	83	17	53	4	88	126	23	80	186	92	12	140	6	103	57	32	60	33	27	202	45	21	474	80	4	13	986	22	12	27
OTU 53	0	0	0	0	0	0	0	0	0	0	0	0	0	0	0	30	0	0	0	0	0	0	0	0	0	0	0	0	0	0	0	0	0	0	0	0	0	0	0	0	0	0	0	0	0	0	0	0	0	0
OTU 54	52	663	30	13	10	63	8	23	32	6	2541	37	28	183	77	166	211	160	76	183	400	27	118	4	191	19	12	22	50	111	98	67	113	45	23	51	19	27	52	39	53	42	5	114	78	69	12	67	24	10
OTU 55	0	0	0	0	0	0	1	0	0	0	0	0	0	0	0	0	0	0	0	0	0	0	0	0	0	0	0	0	0	0	0	0	0	0	0	0	0	0	0	0	19	1	11	0	0	0	0	0	0	0
OTU 56	0	11	24	6	99	7	5	1	2	5	7	0	11	4	11	28	0	34	9	48	75	9	11	0	4	22	0	5	0	0	0	6	0	0	93	13	0	109	1	0	0	0	12	53	0	0	60	0	1	9
OTU 57	86	51	90	29	38	12	95	380	19	30	4	55	162	139	272	43	36	186	98	123	233	1	40	5	214	99	135	114	124	90	155	90	26	10	45	39	310	99	99	51	70	198	180	7	179	118	18	106	57	49
OTU 58	0	21	69	9	7	2	6	3	40	8	6	26	19	38	61	10	4	8	0	0	0	0	21	2	1244	0	0	23	11	46	0	2	3	2	91	14	1	2	17	22	0	7	0	76	18	37	8	3	0	0
OTU 59	21	10	8	1	8	15	2	18	13	0	18	9	4	16	12	94	1	5	13	1	36	4	0	0	44	0	1	53	0	0	58	7	0	2	8	7	0	22	3	13	58	0	76	67	19	37	26	33	81	2
OTU 60	129	46	27	31	121	18	11	22	62	57	17	17	61	20	4	44	10	94	10	73	113	38	48	28	16	65	90	182	69	19	53	117	28	21	83	41	11	205	22	15	6	13	114	78	2	31	48	66	23	92
OTU 61	45	193	378	80	311	1638	610	214	14	203	199	111	274	113	100	39	82	281	171	40	216	80	253	143	15	298	71	105	222	70	34	189	73	151	172	185	17	431	562	162	39	292	92	78	39	215	8	484	303	51
OTU 62	0	0	0	0	0	0	0	1	0	0	17	0	0	1	2	16	1	1	14	13	11	1	0	48	26	0	0	2	26	36	0	0	9	6	7	25	1	0	0	0	3	0	0	5	0	2	0	74	0	5
OTU 63	0	2	4	11	154	50	0	0	26	4	7	0	26	21	25	0	4	3	9	1	3	12	9	5	0	1	0	64	1	9	121	6	0	0	2	30	1	1	9	1	3	5	38	217	20	0	33	38	0	2
OTU 64	146	0	77	131	190	168	20	25	9	149	32	8	4	113	60	3	55	77	4	62	254	216	40	12	77	13	5	36	67	91	21	143	3161	49	28	20	158	43	100	28	48	28	775	229	23	25	14	50	85	28
OTU 65	0	0	0	0	0	0	0	2	0	0	0	0	0	0	0	2	0	0	0	9	0	0	0	0	0	7	0	0	0	6	0	0	0	0	0	0	0	0	1	0	0	0	0	0	0	0	1	2	0	0
OTU 66	0	14	11	30	493	235	52	15	11	267	19	8	8	38	73	23	113	86	12	90	27	12	2	14	19	13	31	14	19	27	13	331	68	127	16	3	1	47	50	89	20	34	9	608	51	17	195	16	104	41
OTU 67	1	5	1	40	370	409	9	29	13	26	10	2	610	92	245	27	17	36	20	90	5	14	58	4	57	17	12	3	79	5	86	6	17	5	62	3	3	102	65	90	2	58	9	593	185	1	132	1	0	1177
OTU 68	11	28	16	0	21	0	46	5	0	12	11	8	1	0	0	1	7	0	0	0	1	0	0	9	11	0	32	256	6	5	23	9	10	33	0	25	1	30	1	39	3	5	1	0	0	13	0	43	0	0
OTU 69	225	52	30	23	16	14	19	1	8	1	20	28	0	177	17	392	20	59	3	33	80	7	1150	25	46	8	45	2	186	19	32	29	3	15	2	5	62	16	28	123	3	1062	6	40	1	49	20	60	22	32
OTU 70	17	18	0	0	50	0	1	47	0	59	10	4	2	90	23	0	15	94	13	0	0	7	122	0	0	45	46	0	0	0	63	27	0	5	64	12	0	0	35	0	0	17	2	22	30	19	26	15	0	0
OTU 71	0	1	12	7	0	6	76	24	58	0	0	1	18	26	0	0	17	1	4	22	46	0	3	1	0	2	18	53	286	56	4	66	0	74	1	1	4	2	35	105	7	34	12	0	0	3	0	0	13	12
OTU 72	76	3	8	447	93	143	28	5	1	2	20	18	2	42	0	5	662	32	92	92	50	374	9	21	43	6	40	5	37	32	1	1	257	18	1218	8	5	68	16	72	9	12	0	164	1	23	26	16	37	14
OTU 73	873	26	0	12	1	111	21	0	17	15	17	6	9	30	0	23	55	2	18	0	12	0	89	0	14	14	16	16	0	14	58	23	35	0	0	1	57	31	9	33	41	4	39	99	2	8	1	3	38	0
OTU 74	25	4	187	1	49	15	304	7	5	1	170	0	147	1	91	32	37	52	4	131	41	9	16	27	394	111	142	214	9	151	235	9	27	3	0	172	20	25	10	5	15	9	170	0	32	0	35	285	135	70
OTU 75	314	5	81	7	18	54	2	30	20	18	35	2	76	144	6	4	36	19	51	30	58	18	8	139	0	14	31	3	1	65	0	78	17	19	10	168	21	2	37	36	49	13	41	124	11	2	51	63	9	55
OTU 76	1	1	107	6	5	12	40	23	0	171	0	0	13	0	74	17	49	3	0	0	204	0	13	1	0	1	58	2	0	5	7	0	24	8	11	3	216	1	27	352	25	14	25	1	46	0	0	0	10	0
OTU 77	53	20	2	18	21	39	150	0	52	37	10	19	2	1	38	2	1	138	5	41	70	9	3	7	16	6	11	301	49	117	11	52	2	0	6	31	0	4	17	72	16	4	31	48	9	48	76	65	55	39
OTU 78	99	8	108	34	419	159	47	59	72	24	73	0	42	34	16	10	79	132	8	6	143	0	182	26	27	207	6	14	29	5	4	30	20	1	161	13	0	6	76	78	0	39	13	495	6	0	106	171	104	28
OTU 79	89	49	406	28	152	102	136	158	174	189	153	47	386	402	430	52	135	1915	353	141	189	152	196	101	51	1343	191	145	102	1077	56	94	56	95	17	84	119	92	238	199	52	115	120	267	159	87	140	233	94	109
OTU 80	47	10	17	7	24	74	102	5	16	8	42	2	8	644	584	16	7	42	0	102	31	2	17	43	41	41	270	66	102	18	24	23	1	12	113	47	320	18	20	54	100	12	3	140	329	2	34	33	30	175
OTU 81	130	69	11	38	44	87	28	12	41	51	36	17	33	116	68	235	52	39	221	29	15	34	8	24	89	11	342	17	178	77	12	108	713	137	20	30	37	12	3	41	2	3	0	54	54	43	1	132	134	23
OTU 82	3	0	42	23	30	3	0	40	8	64	1	0	42	317	5	101	32	8	45	0	141	32	42	0	82	1	12	9	6	3	3	1	32	0	44	2	198	33	28	54	137	9	7	3	1	0	1	9	0	823
OTU 83	1	1	0	0	0	0	0	0	0	0	0	0	0	16	40	38	14	0	6	0	42	37	1	0	2	23	93	0	0	0	14	1	1	0	2	1	0	0	0	0	12	1	0	1	9	0	0	1	1	0
OTU 84	1	0	3	3	7	49	29	10	73	5	0	5	36	19	100	10	21	0	7	48	11	7	0	0	7	0	15	4	0	11	1	159	27	174	5	0	1	10	9	41	3	4	0	128	52	9	24	16	46	53
OTU 85	0	0	0	0	9	0	2	21	0	0	1	8	0	1	0	0	0	4	50	0	0	0	0	0	0	10	58	0	2	10	23	25	0	1	0	0	37	9	20	0	8	16	17	0	1	18	4	0	75	1
OTU 86	0	0	0	0	0	0	0	0	0	0	0	0	0	0	1	0	0	0	0	15	4	10	0	0	0	0	0	0	0	0	166	9	0	0	0	0	0	0	0	0	17	0	43	0	0	0	0	0	0	0
OTU 87	0	0	7	5	68	118	0	0	1	80	1	0	4	41	3	19	0	0	730	1	0	0	0	0	0	5	15	0	38	0	7	3	10	18	89	0	0	1	0	11	13	0	93	262	0	0	18	1	0	0
OTU 88	0	2	0	13	0	0	0	0	0	0	0	0	0	19	0	0	0	0	0	3	0	35	0	1	0	0	0	3	3	0	138	0	0	0	4	0	1	0	3	6	0	2	3	2	1	0	0	0	37	0
OTU 89	0	1	0	0	1	1	3	23	0	220	0	6	0	70	10	0	1	13	0	0	1	4	0	6	1	0	1	1	2	1	7	180	0	4	1	3	0	26	45	0	5	7	0	79	3	6	3	0	20	23
OTU 90	0	0	35	27	23	0	19	0	0	0	0	2	0	1	0	0	7	0	1	78	4	0	0	4	1	22	0	5	0	0	4	2	0	0	3	0	0	237	0	78	1	0	0	0	0	1	0	13	1	0
OTU 91	0	0	168	0	0	0	0	0	0	1	0	0	0	10	1	0	0	14	0	0	0	0	0	0	0	0	0	0	1	0	42	6	0	0	0	0	0	0	0	0	0	0	0	0	0	0	0	6	0	0
OTU 92	14	1	5	0	15	2	7	2	1	2	12	27	0	2	22	3	0	1	0	0	2	0	19	1	0	0	15	25	11	43	12	0	11	0	0	4	12	1	3	14	10	1	5	1	0	57	1	32	0	0
OTU 93	0	0	0	0	0	0	0	0	0	1	0	0	22	66	24	0	0	0	0	0	0	0	0	3	0	0	2	4	19	0	0	0	2	0	0	0	0	0	4	0	24	4	0	0	9	0	0	0	0	2
OTU 94	3	16	97	713	157	45	466	1	59	79	14	43	13	0	121	222	1391	79	4	4	14	855	20	80	83	12	131	58	253	685	104	188	840	5	33	17	124	37	6	73	36	18	191	152	91	66	495	56	15	65
OTU 95	4	6	0	1	0	2	0	0	1	0	0	12	0	0	0	30	0	0	0	0	16	0	0	0	0	0	15	9	14	2	67	11	0	0	63	0	57	47	0	0	19	0	4	13	0	29	0	1	2	2
OTU 96	0	0	0	0	0	0	0	0	0	2	0	0	0	0	3	7	0	0	0	0	0	0	0	3	0	0	0	2	0	0	4	0	0	0	4	10	1	46	0	0	0	0	0	0	4	0	0	0	0	0
OTU 97	0	0	4	0	0	0	0	10	0	0	0	0	8	25	0	0	6	0	2	3	2	40	2	1	6	0	0	0	0	7	0	0	11	0	31	20	0	0	0	0	0	0	5	1	0	0	2	0	2	24
OTU 98	67	2	0	24	11	0	0	0	0	0	7	1	33	0	0	12	12	7	1	0	156	20	63	0	20	0	0	16	120	51	86	8	2	0	29	0	15	9	0	1	0	2	0	0	0	1	0	0	0	1
OTU 99	211	43	33	4	17	54	30	45	44	383	44	49	34	190	124	17	110	29	14	69	359	2	67	7	7	24	165	3	63	0	59	13	20	23	47	18	503	55	104	773	182	45	1	37	60	97	9	181	32	21
OTU 100	4	0	38	1	0	17	51	61	70	0	6	2	6	5	28	204	0	117	11	6	11	0	24	8	14	17	0	9	51	0	36	34	1	39	0	18	1324	19	115	52	367	71	8	47	48	4	31	31	2	13
OTU 101	22	0	4	0	0	0	0	0	56	0	0	0	0	0	3	1	15	25	0	64	30	0	15	0	0	0	0	1	0	10	0	3	0	2	0	0	0	1	0	0	0	0	0	0	0	0	0	0	0	0
OTU 102	29	0	6	0	0	0	1	1	0	0	20	0	16	14	77	15	6	0	69	22	3	29	5	1	1	5	0	44	48	0	1	8	1	2	10	9	1	0	0	0	2	0	1	9	17	0	2	58	1	0
OTU 103	95	4	2	0	7	112	20	10	59	0	0	15	5	67	56	30	2	42	28	20	94	1	4	0	31	68	172	31	9	10	23	1	2	2	2	0	4	44	7	75	622	7	84	1	14	26	29	0	0	0
OTU 104	166	11	145	1	30	7	141	51	75	125	21	15	50	63	38	69	8	145	31	150	128	25	4	0	10	9	11	26	59	105	18	93	31	11	72	32	1	8	150	16	14	91	65	7	11	27	57	19	75	16
OTU 105	9	45	8	0	0	0	0	2	53	1	9	8	0	3	0	16	0	0	6	0	0	0	0	0	31	4	0	5	1	0	13	0	0	0	0	0	0	0	0	0	12	0	0	12	0	18	2	0	3	0
OTU 106	0	4	4	0	0	0	0	1	0	35	3	0	0	7	1	1	0	0	0	0	0	0	12	2	2	1	10	0	1	1	0	19	0	6	3	0	0	0	1	0	2	0	0	0	0	2	0	10	2	0
OTU 107	52	0	6	0	15	0	9	20	9	0	220	0	46	37	29	2	4	20	0	0	50	0	5	119	43	0	0	41	7	1	1	7	1	6	0	203	53	5	22	2	22	21	8	0	24	0	0	461	0	5
OTU 108	20	40	72	0	2	7	77	0	2	67	2	2	25	4	0	21	0	43	1	7	146	11	25	7	100	58	18	1	9	23	42	0	0	3	28	2	5	3	2	1	26	1	0	112	4	3	11	1	10	13
OTU 109	0	0	0	0	0	0	0	0	0	0	0	0	0	0	0	0	0	0	4	0	0	0	65	0	0	0	0	0	0	3	0	0	0	0	0	3	0	0	11	0	0	2	0	0	0	0	0	0	1	0
OTU 110	8	21	65	17	2	40	19	0	0	0	29	20	1	5	190	33	28	17	75	14	9	1	34	2	58	1	167	19	1	76	54	12	9	13	36	24	39	13	0	73	9	1	5	124	101	32	897	78	4	8
OTU 111	1	0	5	4	5	2	2	0	0	4	0	0	0	0	0	3	0	2	23	0	0	60	1	0	29	0	0	15	0	0	0	0	8	0	13	0	0	1	0	8	0	1	15	2	0	0	0	0	155	0
OTU 112	2	3	53	1	47	18	62	59	18	1	0	2	87	191	75	209	6	21	16	8	4	6	15	12	0	31	106	0	0	44	15	0	0	0	25	1	0	24	65	0	0	23	7	18	42	5	26	1	20	26
OTU 113	1	0	0	0	0	1	1	0	0	0	0	0	0	0	0	65	0	0	13	0	1	0	8	0	1	0	1	0	2	0	0	0	0	0	2	0	1	0	0	0	2	0	25	0	0	0	11	8	0	0
OTU 114	40	65	37	113	76	76	7	86	22	39	9	108	61	10	2	129	12	7	70	38	165	1	12	4	54	161	82	88	23	9	34	60	22	22	41	67	13	279	114	90	9	3227	76	117	0	215	390	48	102	134
OTU 115	72	33	143	40	16	40	103	80	96	162	129	44	96	69	151	253	32	74	150	246	109	39	1	35	89	30	40	111	33	300	72	115	47	95	3	46	149	33	109	186	879	81	47	89	111	83	77	298	56	41
OTU 116	11	512	4	238	73	24	21	437	139	76	42	996	911	58	7	19	552	0	319	13	105	391	365	66	3	22	16	9	12	3	17	126	242	135	627	35	101	235	1006	24	8	544	7	69	4	731	24	158	8	13
OTU 117	142	20	9	10	42	27	2	16	0	12	0	41	2	1	9	4	17	189	14	86	28	0	2	1	78	86	55	2	14	90	6	2	12	45	1	8	0	125	51	0	0	14	3	133	0	78	18	26	22	153
OTU 118	0	0	7	6	0	0	0	0	0	4	2	0	1	3	0	0	0	0	4	1	0	1	0	0	1	11	0	2	419	0	171	0	20	0	2	3	4	7	0	19	0	0	0	0	0	1	0	6	0	0
OTU 119	7	34	85	3	92	117	39	49	59	5	8	10	2	70	116	17	2	219	815	50	8	0	24	12	114	146	40	72	15	38	48	32	5	8	0	13	67	7	67	127	8	26	138	69	53	22	108	30	4	98
OTU 120	3	0	71	2	0	2	59	10	15	5	0	5	4	1	3	0	0	101	29	26	0	0	0	10	0	4	2	12	38	0	0	0	5	17	0	9	12	0	1	7	22	2	11	20	8	4	12	0	65	15
OTU 121	0	23	0	0	14	1860	5	2	26	1	1	32	3	0	118	53	3	0	27	35	35	0	4	5	61	8	25	35	252	1	4	2	0	22	0	6	13	34	0	3	0	2	28	114	76	61	36	3	0	42
OTU 122	173	11	10	1857	0	13	14	1	966	2	17	10	76	8	217	103	55	6	39	185	46	29	14	0	49	78	322	0	27	19	173	9	12	2	5	0	23	22	0	125	4	9	0	19	110	16	44	1	0	8
OTU 123	80	116	79	31	36	115	186	161	210	87	69	58	159	142	229	150	88	104	149	69	147	43	89	37	346	27	156	129	113	385	144	61	31	29	238	68	44	95	194	86	60	105	38	118	110	117	171	39	2221	95
OTU 124	1	0	2	0	19	0	3	0	27	6	0	3	0	74	13	95	4	4	0	5	5	1	27	0	6	0	0	2	4	25	0	25	1	13	0	0	0	1	6	10	0	5	0	0	3	3	0	0	0	59
OTU 125	126	64	326	58	55	109	498	117	154	30	77	18	146	85	175	146	150	418	239	98	315	133	168	29	337	106	131	95	186	243	32	141	147	41	95	118	66	85	304	135	2311	136	260	186	73	30	111	107	52	10
OTU 126	0	0	1	0	0	0	0	2	0	2	0	0	0	0	0	0	39	5	0	0	0	1	38	0	2	0	0	2	0	1	18	22	32	4	0	0	1	0	0	83	0	0	2	0	0	0	0	0	4	17
OTU 127	43	6	26	6	60	2	80	4	8	26	127	0	1	46	291	28	12	3	16	50	1	13	0	49	0	4	159	100	71	68	30	35	0	1	9	111	27	4	2	22	0	0	5	42	143	0	4	235	125	7
OTU 128	44	285	96	64	852	125	169	69	265	937	110	199	92	538	73	152	51	145	82	171	322	1508	105	45	548	51	111	296	80	125	877	84	46	81	24	98	111	207	73	190	11	23	890	292	47	432	77	165	96	176
OTU 129	0	1	0	14	0	0	1	0	0	0	0	0	69	0	0	0	114	21	0	0	0	31	0	0	29	1	8	0	0	0	46	0	37	0	177	1	4	0	0	71	24	0	3	0	0	0	0	0	147	1
OTU 130	1	0	1045	3	30	4	71	11	0	3	36	4	22	16	49	3	46	2	7	6	148	5	31	7	1	16	14	9	0	25	6	5	11	15	34	31	13	122	64	0	22	40	17	19	58	12	25	153	9	46
OTU 131	29	0	63	24	10	27	13	24	5	11	2	14	2	16	0	0	2	3	23	156	5	0	0	0	2	3	18	96	1	4	1121	13	5	15	4	0	0	21	108	94	0	26	947	11	3	34	22	7	78	21
OTU 132	1	17	107	14	14	6	9	0	14	1	3	6	1	62	9	18	3	52	13	1	2	0	43	0	5	4	0	1557	26	0	1	2	0	5	21	0	3	1	11	2	0	17	0	4	0	14	8	3	1	2
OTU 133	106	10	1	0	2	0	11	0	0	0	0	19	6	46	0	2	0	17	0	0	0	0	0	0	0	32	0	0	0	0	1	12	0	61	0	0	38	0	0	2	80	1	0	0	0	26	0	3	0	0
OTU 134	2	0	4	67	86	10	43	10	6	1	8	5	89	383	37	23	161	73	21	1	33	84	41	2	1	21	7	4	70	1	49	10	35	0	52	3	1	21	29	35	7	16	3	21	13	12	3	5	134	14
OTU 135	11	7	10	84	82	41	32	4125	0	146	121	3	61	3	20	7	85	15	29	76	35	39	57	29	17	6	36	19	17	0	12	5	16	2	5	74	14	8	136	152	10	39	3	20	16	6	12	143	29	397
OTU 136	21	13	14	0	7	0	0	1	20	23	63	0	117	0	0	1	0	2	86	216	16	0	15	25	0	25	0	255	3	7	2	44	0	1	16	63	11	0	6	0	6	12	0	17	1	0	11	82	29	138
OTU 137	10	9	12	0	8	0	0	4	28	0	4	0	4	20	4	0	1	0	2	8	36	0	2	0	0	8	8	0	0	3	0	25	1	32	56	0	3	2	0	1	2	0	0	0	0	0	0	0	21	0
OTU 138	0	1	0	0	64	38	0	0	0	6	18	4	6	0	0	73	8	0	33	0	170	0	2	0	39	19	9	0	0	9	11	0	1	4	1	0	0	1	0	1	8	0	0	31	2	16	29	33	3	23
OTU 139	8	206	154	17	122	7	177	42	52	44	29	220	22	46	55	17	34	26	23	46	108	19	34	16	15	84	1683	90	181	59	40	22	13	27	94	36	3	91	120	2105	10	43	71	67	22	415	77	45	2	47
OTU 140	180	8	21	15	113	526	32	57	77	185	657	2	92	67	46	103	33	193	84	62	131	31	51	146	91	119	102	163	158	90	208	579	57	287	91	296	49	56	47	47	16	14	4	74	17	2	28	512	65	29
OTU 141	0	1	0	0	0	0	0	0	0	0	0	0	0	1	0	0	0	0	0	1	0	0	2	0	0	0	0	0	0	0	0	0	0	0	0	0	0	0	0	14	0	0	0	0	0	0	0	0	0	0
OTU 142	0	7	0	0	0	0	0	0	0	0	0	0	0	0	0	0	0	0	0	0	7	0	0	0	0	0	3	0	0	0	0	6	0	0	2	0	9	0	3	0	0	0	1	0	0	0	0	0	0	0
OTU 143	10	0	1	15	6	0	49	0	0	0	0	5	0	8	0	6	3	0	0	0	0	0	1	5	0	5	0	16	2	2	3	11	0	0	0	0	0	3	0	6	0	1	0	0	1	9	0	2	4	2
OTU 144	2	0	5	0	0	1	22	1	21	0	15	0	1	20	1	1	0	0	128	0	3	0	0	19	38	0	15	1	11	0	11	1	1	7	20	4	60	7	0	0	0	0	0	1	1	0	0	36	0	0
OTU 145	64	67	46	197	14	27	167	249	33	12	11	37	238	87	4	0	344	544	90	1	4	197	218	3	69	171	16	15	440	58	6	44	222	4	159	0	39	80	639	50	1725	320	15	71	8	79	10	5	72	101
OTU 146	23	23	83	15	8	5	11	19	10	235	14	3	26	15	14	18	65	20	2	6	15	26	13	2	185	1	116	153	162	1	133	4	13	9	48	0	1	9	41	30	0	21	118	30	16	8	13	5	1	1
OTU 147	18	16	0	20	30	1	0	0	0	2	107	0	6	9	1	27	3	36	7	0	0	5	0	31	24	41	16	95	0	100	16	0	1	28	0	87	9	2	1	2	0	1	3	5	4	0	0	244	8	0
OTU 148	9	946	25	0	2	0	0	0	2	15	45	554	0	24	67	51	31	7	24	0	21	0	9	19	45	7	13	30	20	11	41	78	13	31	43	88	95	777	2	37	6	2	13	1	30	1144	56	74	110	10
OTU 149	17	3	0	1	43	0	93	0	238	19	1	2	25	74	0	0	0	4	43	0	0	0	0	0	52	15	7	1	13	2	0	12	1	6	1	35	0	5	0	4	0	0	19	1	0	2	6	0	92	0
OTU 150	0	0	44	1	30	0	41	0	0	164	0	0	7	3	1	0	3	5	0	68	3	1	4	2	0	6	55	0	0	19	1	0	0	4	3	6	17	0	2	20	2	0	14	0	1	0	0	3	1	19
OTU 151	0	68	0	2600	22	0	70	14	13	9	1	24	3	9	6	37	0	17	14	0	133	1	4	0	0	0	5	138	8	15	0	5	1	13	15	3	29	0	11	11	0	10	13	7	2	69	48	3	74	0
OTU 152	9	17	3	31	465	0	2	24	56	14	4	254	36	0	5	15	69	65	61	19	21	44	26	1	140	27	14	0	24	75	139	45	39	107	7	0	6	803	119	8	1	68	14	27	5	425	19	13	18	33
OTU 153	0	0	10	0	0	0	0	6	0	0	0	0	13	0	0	0	0	3	4	4	30	0	0	0	0	1	0	2	0	0	0	0	0	0	0	0	0	0	0	3	0	0	1	1	1	0	0	0	0	0
OTU 154	0	0	0	0	0	0	39	1	7	0	0	19	0	0	0	22	36	30	0	0	0	0	0	0	4	115	0	0	2	0	0	0	0	0	0	2	1	0	0	18	0	0	7	0	0	47	0	0	0	1
OTU 155	1	0	2	20	4	1	0	14	35	1	2	16	0	40	15	3	1	0	60	3	0	4	1	22	104	19	47	23	0	77	11	8	0	20	40	46	13	32	12	0	0	5	6	12	5	40	3	6	65	0
OTU 156	37	5	31	11	71	57	56	28	379	118	10	47	31	893	36	1228	2	51	59	3	143	3	9	3	4	5	20	13	23	65	142	105	0	20	13	24	10	92	95	59	5	43	114	46	14	113	31	6	21	7
OTU 157	60	0	0	9	0	8	0	0	0	331	0	3	0	227	86	0	11	11	21	94	1	12	0	0	9	0	0	0	15	1	10	0	0	15	16	0	0	0	0	14	45	0	0	95	38	3	0	1	29	8
OTU 158	0	0	0	0	1	2	0	0	0	0	0	0	0	0	0	0	0	31	4	0	3	0	0	0	0	0	31	0	0	0	18	0	0	0	0	0	0	0	0	0	0	0	17	1	0	0	0	0	0	0
OTU 159	33	4	0	8	0	10	2	11	1	29	11	1	3	31	5	26	6	95	10	34	25	0	10	1	22	29	16	252	39	104	161	3	0	1	1	0	65	0	47	29	22	34	22	40	0	4	3	9	2	1
OTU 160	128	68	17	48	135	104	1479	11	48	592	30	84	22	30	88	173	47	143	69	121	8	43	33	3	90	93	13	19	48	24	169	42	26	210	72	1	9	176	44	12	48	8	109	228	30	164	66	25	74	28
OTU 161	14	1	11	0	67	114	18	72	14	202	2	14	4	3	77	11	7	8	0	750	138	0	20	1	13	8	425	7	2	31	6	1005	11	256	4	12	44	104	64	164	76	20	118	96	55	21	8	0	48	386
OTU 162	18	17	83	6	0	20	21	1	72	0	1	30	70	0	0	0	9	263	213	30	17	2	84	6	76	258	320	23	1	16	6	69	2	26	90	1	14	26	0	15	7	0	12	43	2	62	5	13	69	56
OTU 163	0	0	0	0	0	2	1	0	1	0	0	0	0	0	0	0	0	9	155	0	1	0	1	0	0	0	0	0	0	0	0	0	0	0	0	8	0	0	0	0	1	0	0	0	0	0	0	0	0	0
OTU 164	0	10	0	0	0	0	0	0	0	0	0	0	4	2	0	0	0	0	0	0	0	0	0	0	0	0	0	0	109	0	0	0	0	0	0	0	1	18	0	0	0	0	0	0	0	0	0	0	0	0
OTU 165	29	1	15	2	159	18	1	10	0	1	6	0	1	2	0	4	0	0	0	19	28	0	0	6	19	13	0	0	5	2	5	123	6	87	0	0	7	1	1	6	0	8	0	127	0	0	1	30	3	135
OTU 166	0	0	0	0	0	0	0	0	0	0	0	1	0	0	0	0	1	0	0	0	5	12	0	0	2	0	0	6	37	0	1	84	0	34	0	0	20	0	0	0	0	0	0	0	0	3	0	0	0	3
OTU 167	26	7	32	1	29	1	4	34	6	7	9	52	11	73	79	13	0	20	2	13	62	0	61	9	0	837	20	26	6	4	0	5	17	0	9	7	30	14	23	67	1	16	0	0	27	103	3	11	0	46
OTU 168	21	3065	21	20	16	19	153	34	25	0	58	9	10	0	5	123	1	0	0	0	8	6	5	26	113	0	1	143	54	1	55	51	3	24	13	107	13	19	46	5	2	32	5	16	14	16	14	115	106	1
OTU 169	7	0	0	0	0	1	0	0	0	0	0	0	0	0	0	0	0	3	0	0	0	0	0	0	0	0	0	0	0	0	0	0	0	0	0	0	0	0	0	0	0	0	0	0	0	0	0	0	0	0
OTU 170	0	0	0	0	0	0	10	0	0	5	0	0	0	0	21	0	0	2	0	0	0	9	0	0	0	0	0	0	0	0	0	0	0	7	0	0	0	0	0	0	0	0	0	0	3	0	0	0	0	32
OTU 171	2	4	5	0	369	511	21	4	10	0	16	0	1	8	45	37	15	15	112	298	4	4	5	11	8	1	35	27	190	3	6	0	3	4	7	3	0	1	6	1	1	0	59	643	16	0	275	24	6	286
OTU 172	8	12	0	0	0	4	0	0	14	0	0	2	0	0	21	36	0	0	0	0	0	2	0	16	0	10	0	0	3	3	30	92	0	25	0	13	0	0	0	3	0	0	0	0	10	1	0	0	0	8
OTU 173	14	3	1	62	2	0	1	7	68	16	0	5	3	41	8	0	51	14	0	0	71	28	11	4	3	33	0	19	84	0	14	28	86	0	0	1	0	23	10	0	0	8	0	6	0	4	0	0	21	2
OTU 174	2	19	37	23	8	10	263	5	1	219	10	9	20	17	42	32	34	63	45	4	51	6	59	37	16	1	2	10	3	59	0	110	4	47	1	23	21	16	23	0	23	21	0	3	24	16	0	37	8	12
OTU 175	121	0	96	1	0	26	0	16	9	21	100	18	10	0	0	31	2	10	9	2	54	9	1	37	8	1	2	46	17	18	0	0	2	0	17	173	8	0	24	5	0	9	0	42	0	32	49	196	0	35
OTU 176	138	181	870	96	54	24	201	39	42	49	86	158	161	3	118	27	138	6	133	72	177	23	2986	36	29	30	204	2	17	45	20	50	89	30	64	117	17	11	108	11	0	66	29	3	56	284	21	42	37	77
OTU 177	0	11	10	27	21	10	2	32	53	34	4	0	18	31	0	9	10	19	175	39	178	37	15	17	17	55	4	0	28	2	235	1	9	8	27	31	10	67	98	56	17	30	35	76	9	2	742	43	13	22
OTU 178	63	2	50	46	25	4	18	0	3	33	0	15	34	23	0	216	0	0	14	30	6	1	106	0	1	33	16	29	0	0	2	3	1	3	6	1	130	1	14	62	252	6	6	13	4	24	0	0	8	0
OTU 179	36	3	34	1	0	1	0	0	0	6	28	0	0	11	22	31	0	17	18	0	1	4	6	181	46	7	0	9	222	0	34	18	0	13	27	449	129	1	2	6	1	1	7	0	18	0	9	80	142	0
OTU 180	88	105	94	53	19	36	80	115	51	118	75	70	54	54	162	204	47	31	161	104	142	1357	48	31	163	2567	65	80	137	21	179	6	27	32	86	43	88	196	180	67	9	106	143	27	72	127	51	113	29	93
OTU 181	33	6	0	1	69	8	3	9	67	10	20	1	2344	101	15	82	3	4	5	35	7	20	7	0	1	1	130	29	9	1	33	36	17	62	3	30	33	2	5	2	11	3	11	40	7	6	4	34	13	19
OTU 182	12	0	0	0	6	0	1	0	0	0	0	0	15	0	0	0	0	0	0	15	7	0	0	0	0	0	0	7	0	0	0	0	0	0	32	0	0	0	0	0	0	0	0	0	0	0	0	11	0	0
OTU 183	0	4	1	74	65	11	0	20	0	19	12	0	30	40	6	30	29	0	2	7	88	51	62	0	177	7	49	14	11	25	742	0	7	1	112	0	16	7	15	1	0	8	325	3	0	1	0	19	8	16
OTU 184	2	43	23	8	0	5	2	12	0	14	0	0	20	0	62	1	13	0	0	4	32	7	42	0	4	1	0	1	19	3	8	120	1	136	11	2	0	0	32	0	8	15	0	106	29	0	33	0	1	26
OTU 185	38	1	88	2	101	21	22	20	38	19	0	0	17	17	160	73	4	54	94	4	35	6	81	18	55	5	237	61	13	1	37	104	1	113	79	22	26	1	31	44	6	14	12	130	110	1	22	3	18	14
OTU 186	89	29	5	6	0	0	1	13	0	20	2	4	0	0	0	0	6	7	15	1	24	0	0	0	2	5	0	9	0	43	25	1	4	0	2	1	7	7	9	3	0	2	76	4	0	6	4	6	0	12
OTU 187	309	72	33	434	98	21	0	39	28	79	44	49	17	29	147	27	1031	1	319	57	85	542	5	59	152	125	128	21	3	37	2	106	554	61	17	81	87	0	37	5	43	13	21	10	66	75	51	127	723	7
OTU 188	22	38	12	99	152	55	59	86	171	1	148	30	0	11	196	21	115	71	49	181	34	71	68	102	9	145	101	326	0	2	71	15	72	3	50	113	8	83	141	95	6	64	18	118	140	57	0	240	70	193
OTU 189	379	3	9	10	15	0	9	36	744	109	35	7	14	54	102	228	1	1	16	112	17	68	14	16	215	16	48	68	78	0	60	76	4	14	0	16	194	6	47	22	2	12	157	10	73	8	92	76	11	82
OTU 190	0	0	0	0	0	0	0	0	0	79	0	0	0	1	0	0	0	16	27	2	16	8	0	0	0	47	0	17	0	2	0	0	0	0	0	1	0	1	1	35	0	0	0	0	0	0	1	2	0	0
OTU 191	100	8	26	290	0	13	104	2	24	1154	6	22	7	119	31	149	492	108	24	0	19	846	5	1	53	0	96	34	185	253	49	37	267	65	114	12	1729	17	16	1	457	1	29	12	0	50	4	7	93	14
OTU 192	101	278	512	2	21	125	147	2	1	39	51	508	8	11	19	316	5	31	93	44	5	8	52	25	2	50	203	149	40	59	38	89	12	13	19	50	1	651	1	20	24	2	8	122	41	931	18	113	54	210
OTU 193	0	0	13	15	0	2	19	6	50	25	4	2	1	1	20	38	19	2	168	16	128	2	0	3	117	0	3	4	142	58	14	36	4	27	24	10	2	10	25	4	1	12	22	6	4611	7	188	0	18	56
OTU 194	193	1	791	0	39	7	0	18	5	16	5	2	28	7	0	18	1	2	44	0	18	1	7	0	49	13	23	109	1	149	0	1	0	0	27	2	3	49	11	86	1	1	1	0	4	5	4	4	1	73
OTU 195	31	0	0	14	3	25	3	2	4	2	0	10	0	44	450	3	9	0	1	19	58	62	4	1	15	9	80	1	288	95	26	12	40	0	1	0	2	11	11	1	5	17	4	3	270	9	3	11	2	13
OTU 196	24	8	14	2	0	10	22	3	166	11	22	0	0	14	89	3	5	44	0	8	106	11	0	11	3	26	25	1	39	46	109	2	804	6	4	4	0	6	10	1	3	3	77	3	49	0	10	8	7	4
OTU 197	40	7	24	12	58	26	30	10	31	20	17	16	24	96	55	142	11	15	69	180	62	9	72	23	874	29	24	70	47	133	142	118	2	81	19	29	280	12	21	47	37	2	6	60	41	42	64	28	29	1454
OTU 198	0	0	0	1	0	0	0	0	4	0	1	0	0	6	38	0	0	15	3	0	24	0	3	0	60	5	0	45	17	40	10	0	0	0	1	1	0	5	1	13	0	0	0	0	48	0	1	0	32	6
OTU 199	8	6	9	15	0	2	4	87	0	0	4	0	40	7	10	0	47	1	3	10	0	64	75	19	9	2	0	164	1	3	33	53	18	3	10	9	1	1442	141	1	2	76	0	3	0	0	9	23	52	0
OTU 200	52	48	9	24	4	1	31	2	5	3	3	44	3	4	1	72	22	0	78	3	17	3	5	3	63	33	35	38	17	6	18	64	1	35	8	12	51	11	3	146	43	3	10	3	1	64	0	2	162	35
