	Host 1	Host 2	Host 3	Host 4	Host 5	Host 6	Host 7	Host 8	Host 9	Host 10	Host 11	Host 12	Host 13	Host 14	Host 15	Host 16	Host 17	Host 18	Host 19	Host 20	Host 21	Host 22	Host 23	Host 24	Host 25	Host 26	Host 27	Host 28	Host 29	Host 30	Host 31	Host 32	Host 33	Host 34	Host 35	Host 36	Host 37	Host 38	Host 39	Host 40	Host 41	Host 42	Host 43	Host 44	Host 45	Host 46	Host 47	Host 48	Host 49	Host 50	
OTU 1	3	6	2	0	14	5	8	2	2	3	0	3	0	5	0	9	4	0	7	0	12	5	3	19	0	0	1	2	1	0	0	4	1	1	8	3	6	4	5	2	11	4	1	0	12	3	25	64	0	23
OTU 2	0	0	1	0	0	0	0	1	6	7	0	3	0	0	0	0	1	1	0	0	0	4	0	2	0	0	2	0	0	0	1	0	2	0	1	1	0	0	0	0	1	0	0	0	0	1	0	1	1	0
OTU 3	0	0	0	0	1	0	0	0	0	4	0	2	4	0	0	1	0	0	0	1	0	0	0	6	1	0	1	6	0	0	0	0	0	0	0	0	0	0	0	2	0	0	3	3	0	0	0	6	0	0
OTU 4	0	0	0	0	0	0	0	0	0	0	0	0	0	0	0	0	0	0	0	0	0	0	0	0	0	0	0	0	0	0	0	0	0	0	0	0	0	0	0	0	0	0	0	0	0	0	0	0	0	0
OTU 5	18	0	7	2	47	33	4	21	5	1	40	11	11	1	0	7	15	11	26	11	7	11	28	10	0	6	25	0	26	50	11	15	12	16	49	3	0	6	0	82	0	3	125	34	22	4	16	11	3	11
OTU 6	0	3	2	2	3	2	2	1	0	4	0	0	5	0	0	0	0	0	5	1	1	4	0	1	4	1	0	0	0	1	0	0	0	0	6	0	0	0	2	0	0	0	1	0	0	0	0	0	0	0
OTU 7	0	1	0	5	1	6	1	0	3	11	1	4	10	0	1	1	2	2	10	2	3	3	6	2	2	0	2	1	2	0	25	1	3	3	1	0	2	2	3	3	1	1	1	0	0	2	1	0	1	8
OTU 8	6	13	0	2	0	37	0	0	43	4	0	6	5	1	7	0	1	2	1	2	2	3	0	4	4	0	30	6	47	3	1	1	5	7	2	152	51	2	6	0	1	1	2	4	3	32	3	0	2	9
OTU 9	3	5	2	1	0	0	0	0	0	0	0	0	0	0	7	0	2	2	6	0	0	0	9	0	0	1	0	0	1	0	0	1	1	0	3	0	1	10	0	0	0	0	0	0	1	0	0	0	1	0
OTU 10	4	0	0	0	0	1	0	0	0	1	0	8	0	0	0	0	0	0	1	0	0	0	1	0	3	2	0	0	1	0	0	0	0	3	0	0	3	0	2	0	1	56	0	0	1	0	0	0	25	1
OTU 11	2	7	0	0	2	5	0	1	0	0	0	0	0	2	0	0	2	0	0	0	0	0	2	2	1	0	0	0	2	0	3	0	2	3	2	0	0	3	1	0	0	0	0	2	1	4	4	0	2	0
OTU 12	3	0	1	4	0	6	0	0	0	0	1	5	1	4	0	1	10	0	1	2	0	0	0	0	0	0	0	2	3	0	4	0	0	2	0	0	0	0	1	0	1	6	2	2	0	0	1	0	6	0
OTU 13	0	0	0	0	0	0	0	0	0	0	0	0	0	0	0	0	0	0	0	0	0	0	0	0	0	0	0	0	0	0	0	0	0	0	0	0	0	0	0	2	0	0	0	0	1	0	1	0	0	0
OTU 14	0	0	0	0	2	0	0	0	3	0	0	1	0	0	0	0	0	1	0	1	2	0	0	0	0	9	0	0	0	0	0	0	1	0	0	0	0	0	0	0	0	10	0	2	0	0	5	0	6	1
OTU 15	0	0	0	0	0	0	0	0	3	0	2	0	0	0	0	0	0	0	0	0	0	0	1	0	0	0	0	0	0	0	0	0	0	0	0	0	0	0	0	0	0	3	0	0	0	0	0	0	0	0
OTU 16	0	0	0	0	0	0	0	0	0	0	0	0	0	0	0	0	0	0	0	0	0	0	0	0	0	0	0	0	0	3	1	0	0	0	0	0	0	0	0	0	0	0	0	0	0	0	0	0	0	0
OTU 17	0	3	6	0	0	0	0	2	1	0	0	3	1	4	0	0	0	0	0	0	0	5	0	0	0	0	1	2	1	1	0	0	3	0	0	0	0	0	0	0	0	0	0	0	0	0	0	3	11	0
OTU 18	0	0	1	3	3	12	159	0	8	0	1	5	1	1	7	3	5	0	1	1	0	2	0	9	1	1	4	1	0	11	2	1	1	8	4	87	8	1	8	0	0	1	0	1	0	11	1	9	0	2
OTU 19	0	0	0	0	0	0	0	0	0	0	0	0	0	0	0	0	0	0	0	0	0	0	0	0	0	0	0	0	0	0	0	0	0	0	0	0	0	0	0	0	0	0	0	0	0	0	0	0	0	0
OTU 20	9	0	0	4	1	0	0	0	1	2	0	0	1	2	0	0	0	2	0	0	0	0	0	3	0	0	2	4	3	0	1	0	0	0	0	1	13	2	1	1	1	0	0	1	1	4	0	0	4	0
OTU 21	1	4	3	1	9	0	6	1	2	0	17	0	0	2	1	0	0	0	3	1	0	3	0	5	1	1	1	0	0	1	1	1	1	1	3	2	0	1	2	2	0	0	0	2	0	0	2	9	7	1
OTU 22	11	8	0	0	5	0	3	0	2	0	1	2	8	0	0	0	0	0	0	3	3	0	0	8	3	3	0	1	0	0	0	2	3	0	4	1	1	0	4	0	2	4	0	0	0	1	0	3	0	0
OTU 23	2	0	1	0	2	2	0	1	0	0	1	0	0	0	0	0	0	2	1	0	0	0	0	2	0	0	0	2	6	0	0	0	0	4	0	2	1	0	0	0	0	0	1	0	0	0	0	0	2	0
OTU 24	0	0	0	3	0	0	0	0	0	3	2	3	0	0	3	0	0	0	2	0	0	0	1	0	1	0	0	1	0	2	0	2	0	1	0	0	0	7	7	0	0	0	0	0	0	3	0	0	3	0
OTU 25	0	0	0	0	0	0	0	0	0	0	0	0	5	0	0	0	0	0	3	0	0	0	0	0	0	0	0	0	0	0	0	0	0	0	0	0	0	0	0	0	0	0	0	0	0	0	0	0	0	0
OTU 26	0	0	0	0	0	0	0	0	0	0	0	0	0	0	0	0	3	1	0	1	0	0	1	0	0	0	0	0	0	0	0	0	0	0	0	0	0	1	0	0	0	1	0	4	0	0	0	0	2	0
OTU 27	0	0	0	0	0	0	0	1	0	0	0	0	1	0	0	0	0	0	0	0	0	0	0	0	0	0	0	0	1	0	0	0	0	0	0	0	0	0	1	0	0	0	0	0	0	0	0	0	0	0
OTU 28	2	2	0	1	2	0	1	0	4	2	3	0	0	23	5	1	0	8	1	0	0	1	0	0	82	0	1	7	0	0	3	1	4	0	0	0	1	0	0	1	0	3	0	1	3	0	1	0	0	0
OTU 29	6	0	1	0	1	8	0	0	2	5	0	1	0	2	3	0	2	3	2	3	0	1	1	0	0	4	0	0	0	0	0	0	0	0	0	0	0	2	4	3	2	0	0	5	0	0	2	0	1	0
OTU 30	0	0	0	0	0	0	0	0	0	0	0	0	0	0	11	0	0	0	0	0	0	0	0	0	0	0	0	0	0	0	0	0	0	0	0	0	0	0	0	0	0	0	0	0	0	0	0	0	0	0
OTU 31	5	0	0	0	0	0	0	0	0	11	2	4	1	0	0	0	5	0	11	0	0	0	0	0	0	5	0	0	0	1	1	0	0	0	0	0	1	0	5	2	5	0	2	0	0	4	1	0	0	2
OTU 32	1	1	0	85	0	0	0	0	3	3	2	0	0	8	2	0	7	0	6	0	1	0	3	0	2	0	1	5	0	0	1	2	1	0	4	1	0	7	8	0	11	0	2	0	0	0	1	0	2	5
OTU 33	0	0	0	0	0	0	0	0	0	1	0	0	0	0	0	0	3	0	0	0	0	0	0	0	0	0	0	0	0	0	0	0	0	0	0	0	0	0	0	0	0	0	0	0	0	0	0	0	0	0
OTU 34	43	0	2	0	0	0	0	0	0	0	0	1	0	1	1	1	4	1	0	2	0	3	76	0	0	2	2	2	14	0	1	0	3	0	7	1	2	0	4	0	12	0	0	0	1	0	0	0	0	4
OTU 35	1	0	0	2	0	0	1	0	0	6	13	3	0	1	0	2	1	1	0	3	4	3	0	4	3	0	0	1	0	0	0	5	0	0	0	0	0	1	5	0	0	2	1	0	0	1	3	0	5	0
OTU 36	4	2	0	0	1	2	1	0	33	1	0	0	0	0	0	1	0	0	1	0	1	0	1	0	0	0	23	6	0	0	0	1	0	0	1	0	3	0	3	0	0	0	0	5	0	15	2	0	3	0
OTU 37	0	0	0	0	0	0	0	0	0	1	0	0	0	0	0	1	0	0	0	0	1	0	0	0	0	0	0	1	0	0	0	1	0	0	0	0	0	0	0	0	1	0	0	0	0	0	0	0	0	0
OTU 38	0	5	0	0	1	1	2	1	1	2	0	1	0	4	0	0	4	1	0	0	0	1	2	0	2	2	0	4	0	2	3	42	6	0	3	0	0	4	0	1	7	0	0	1	1	1	0	1	7	0
OTU 39	0	0	3	0	0	0	0	0	0	0	0	0	0	0	1	1	1	2	0	0	0	0	0	0	0	0	0	1	0	0	0	0	0	0	0	2	0	0	0	0	0	0	0	0	0	1	0	0	3	0
OTU 40	1	5	2	0	0	8	0	0	0	0	3	0	5	8	0	0	0	0	0	1	0	3	3	1	1	5	1	1	2	3	5	3	1	7	1	0	0	4	0	5	2	0	1	0	0	3	0	1	1	4
OTU 41	2	0	0	1	0	1	2	0	1	2	0	0	6	4	2	0	0	4	3	2	0	1	0	0	0	2	0	2	0	1	3	1	0	0	0	0	0	0	7	0	0	0	0	4	1	1	0	0	5	0
OTU 42	3	0	0	0	0	0	1	1	0	0	0	0	1	0	34	0	0	0	0	0	0	0	0	0	0	0	0	0	0	0	1	0	0	0	0	0	0	0	1	1	0	2	0	0	0	0	1	2	0	0
OTU 43	0	0	0	0	0	0	0	1	0	0	0	0	0	0	0	0	0	0	0	0	0	0	0	0	0	0	0	0	0	0	0	0	0	0	0	0	0	0	0	0	0	0	0	0	0	0	0	0	0	0
OTU 44	1	2	0	0	0	0	0	5	0	1	0	1	0	0	0	0	0	0	5	0	0	6	0	0	0	0	0	0	0	0	0	0	0	0	1	0	0	0	0	0	0	0	0	2	3	0	0	0	0	0
OTU 45	1	0	0	0	0	1	2	0	0	2	1	0	0	0	16	0	0	1	12	11	3	1	0	1	1	1	0	0	0	6	0	0	0	0	0	3	2	0	0	0	1	2	0	0	0	0	0	1	1	4
OTU 46	3	2	0	0	6	0	2	0	0	0	0	4	0	1	4	0	1	4	3	1	0	0	3	1	9	5	0	8	2	4	15	0	2	0	0	0	5	0	1	2	3	0	8	0	2	0	2	2	4	1
OTU 47	0	0	0	0	0	0	3	0	0	0	0	0	0	0	0	0	0	1	0	0	0	0	0	5	0	0	0	0	0	0	0	0	0	0	0	1	0	0	0	0	0	0	0	0	0	1	0	0	0	0
OTU 48	0	2	7	0	2	0	2	2	1	3	1	6	0	0	3	3	3	0	5	5	0	15	0	3	0	2	0	2	2	0	0	0	0	1	1	0	0	0	0	0	7	2	0	4	0	0	2	0	0	0
OTU 49	8	5	0	0	0	0	0	0	0	0	0	0	0	6	0	0	1	0	0	0	0	0	0	0	0	1	0	1	0	1	1	0	4	0	4	1	0	1	9	21	1	0	8	0	0	1	0	0	0	1
OTU 50	0	2	0	1	2	0	3	0	2	0	1	0	3	1	11	0	5	18	4	1	4	1	0	5	1	0	3	68	0	1	4	13	1	0	0	3	6	0	1	0	0	1	0	0	0	1	0	3	10	0
OTU 51	3	0	0	4	0	0	1	3	3	0	0	0	0	0	0	0	0	0	3	0	0	9	0	3	1	2	0	0	0	0	0	1	0	0	119	5	0	0	0	3	0	0	0	0	2	0	11	1	2	1
OTU 52	4	10	1	5	1	0	1	3	0	4	3	2	3	2	0	31	3	1	8	6	88	1	37	2	2	1	0	6	0	7	6	3	3	0	7	3	4	76	4	3	6	7	1	3	0	11	3	2	0	8
OTU 53	0	0	0	1	0	0	0	0	0	0	0	0	0	0	0	0	9	0	0	0	0	0	0	0	0	0	0	0	0	0	0	0	0	0	0	0	0	0	0	1	0	0	0	0	0	0	0	0	4	0
OTU 54	1	2	1	2	0	1	0	98	1	3	2	3	4	19	1	0	3	1	5	1	0	7	3	3	4	5	7	0	0	0	2	5	2	0	1	3	11	1	0	6	10	2	6	8	0	0	0	0	6	1
OTU 55	0	0	0	0	0	0	0	0	0	0	0	0	0	0	0	0	0	0	0	0	0	0	0	0	0	0	0	0	0	0	0	0	0	0	0	0	0	0	0	0	0	0	0	0	0	0	0	0	0	0
OTU 56	1	0	0	0	0	1	0	0	0	0	0	0	0	0	0	0	1	0	0	0	0	0	0	1	0	0	0	1	0	0	0	0	0	0	0	0	0	0	0	0	0	0	3	0	0	0	0	0	0	0
OTU 57	15	1	13	1	15	4	1	8	1	15	5	5	6	42	0	0	11	7	4	5	0	18	1	7	4	1	1	1	3	2	32	1	3	3	0	0	6	2	0	1	6	1	0	8	0	3	1	4	5	0
OTU 58	0	1	0	0	1	6	2	0	0	0	4	0	2	0	0	0	4	0	1	0	0	0	0	1	3	0	0	4	0	0	1	0	0	1	1	0	4	1	0	25	0	1	20	1	1	1	0	0	0	1
OTU 59	0	11	1	3	4	1	1	2	0	0	0	1	0	0	0	0	0	0	1	161	4	2	4	5	1	6	1	7	1	0	0	3	6	0	7	1	0	3	1	1	1	0	1	0	3	0	2	4	1	0
OTU 60	1	0	1	0	0	1	1	1	0	1	0	0	1	6	2	0	1	1	1	0	0	4	6	2	15	55	0	3	0	10	0	3	0	0	0	0	0	3	1	3	1	2	3	1	0	1	0	0	0	0
OTU 61	0	9	17	0	4	1	2	21	0	0	2	47	0	2	3	3	2	0	10	4	2	24	14	2	4	1	0	1	1	7	3	0	4	0	5	2	0	17	2	0	1	0	0	1	5	0	0	0	0	2
OTU 62	1	0	0	0	0	1	0	0	0	1	3	0	2	4	0	0	0	9	1	0	0	0	0	0	0	2	2	0	1	0	1	19	0	2	0	0	1	0	0	2	0	2	0	1	0	3	0	0	0	0
OTU 63	0	0	0	0	1	0	3	0	0	0	0	0	0	0	1	0	0	0	1	4	1	0	2	2	0	0	0	0	0	0	2	0	0	0	0	0	3	5	1	1	0	3	0	0	0	0	0	1	8	0
OTU 64	5	3	9	1	0	0	0	6	0	0	0	1	8	0	4	0	3	8	7	2	0	7	1	0	0	5	1	9	4	5	2	0	9	0	3	0	4	0	0	28	2	3	15	1	1	1	2	1	5	2
OTU 65	0	0	0	0	0	0	0	1	0	0	0	0	0	0	0	0	0	0	0	0	0	4	0	0	0	0	0	0	0	0	0	0	0	0	0	0	0	0	0	0	0	0	0	0	0	0	0	0	0	0
OTU 66	1	1	0	1	1	0	0	1	2	0	1	0	1	4	0	1	2	5	2	2	1	2	1	0	1	1	0	1	0	0	1	1	0	1	0	0	0	2	13	1	1	1	1	0	2	0	0	0	0	3
OTU 67	2	2	4	0	0	1	0	3	3	0	0	0	0	5	0	0	1	2	0	0	0	8	0	0	0	0	0	0	3	2	1	0	0	0	1	0	1	1	0	0	0	115	0	2	0	1	0	0	1	3
OTU 68	0	0	0	0	0	5	2	1	1	1	0	0	0	0	1	0	0	0	0	0	0	3	0	0	0	0	0	0	0	0	0	0	0	1	0	0	0	0	0	0	0	0	0	2	0	0	0	0	0	0
OTU 69	2	1	4	1	0	0	2	3	5	0	33	0	1	0	0	0	21	4	8	0	0	4	16	2	4	0	9	0	3	0	2	8	1	1	1	5	4	36	0	12	0	1	8	2	0	1	0	2	0	0
OTU 70	2	0	0	0	0	0	2	0	0	0	0	0	0	1	1	0	0	0	0	0	0	0	0	1	3	1	0	0	0	1	3	0	0	1	0	0	0	2	2	0	0	1	0	1	0	0	0	0	0	0
OTU 71	0	0	0	1	2	9	4	0	0	1	0	0	0	2	0	0	1	6	0	0	0	0	0	7	0	0	0	9	0	0	0	0	0	6	0	0	0	0	0	0	1	0	1	2	0	0	0	3	1	0
OTU 72	5	0	0	5	1	6	2	1	1	3	1	3	6	3	0	1	0	0	1	0	13	3	0	1	0	2	0	0	0	2	0	0	0	1	0	1	1	0	5	1	39	2	0	0	2	0	4	2	1	9
OTU 73	0	2	0	0	2	1	1	2	1	2	0	1	2	3	0	0	1	0	3	0	0	1	0	2	0	0	3	0	0	1	2	0	1	0	1	1	5	0	2	0	1	0	0	0	0	136	0	0	0	1
OTU 74	0	4	0	2	0	0	2	0	0	0	2	1	2	1	4	1	0	0	9	1	0	0	0	0	6	0	0	1	2	11	2	0	3	0	5	2	108	0	0	0	0	0	0	1	0	0	0	2	1	0
OTU 75	2	2	1	0	0	2	1	2	2	2	0	0	0	0	0	2	3	1	0	0	1	5	1	0	6	1	1	0	62	2	7	0	2	0	0	2	6	1	0	1	1	0	0	0	0	0	0	0	0	0
OTU 76	0	0	0	0	0	0	0	3	0	0	5	0	0	0	0	0	0	0	6	0	0	0	0	0	0	1	0	0	1	1	0	1	0	0	0	0	1	0	0	0	2	4	1	0	0	2	0	0	3	0
OTU 77	1	2	3	0	3	0	4	2	3	0	2	4	3	0	3	1	0	3	5	0	1	1	1	8	2	0	0	0	1	1	2	8	0	0	2	0	0	1	1	0	4	0	0	1	1	1	0	4	2	0
OTU 78	2	0	0	0	35	0	32	2	1	0	1	0	50	1	0	0	0	0	0	0	0	4	55	49	2	2	1	0	2	0	1	1	0	0	0	29	0	0	0	0	1	1	0	0	4	1	92	20	0	0
OTU 79	2	4	18	6	19	33	12	8	2	1	11	2	24	2	1	4	18	2	10	4	2	14	2	26	3	4	134	5	12	3	6	1	2	18	2	6	2	2	3	5	8	2	8	2	0	3	5	18	11	6
OTU 80	6	9	1	0	0	8	6	4	1	1	0	1	2	3	6	0	0	3	6	0	0	1	0	1	13	0	1	1	1	1	0	2	3	5	0	1	2	1	0	0	4	0	0	2	0	1	16	0	2	0
OTU 81	2	1	0	0	2	1	0	1	1	1	0	0	7	43	4	2	3	6	0	6	0	1	2	0	25	0	2	4	0	8	2	0	0	0	1	0	0	3	1	2	1	3	2	5	1	0	4	0	1	4
OTU 82	0	0	0	0	0	9	1	0	0	0	5	0	0	4	0	0	0	1	0	0	0	0	0	1	0	0	0	0	1	10	0	0	0	5	0	0	2	3	0	0	0	9	1	2	0	1	0	1	2	0
OTU 83	0	0	0	0	0	0	0	0	0	0	1	0	2	0	0	0	0	0	0	0	0	0	0	0	2	0	0	1	0	0	1	0	0	0	0	0	0	0	1	2	5	2	0	0	0	0	0	0	0	0
OTU 84	0	9	1	0	0	0	0	2	0	0	1	0	3	0	0	0	0	0	0	0	0	3	0	4	0	0	0	0	0	0	1	0	1	0	2	0	2	1	2	1	0	0	0	0	0	0	0	0	0	1
OTU 85	0	2	1	0	0	0	0	0	3	2	0	0	0	0	0	0	0	0	0	1	0	1	0	0	0	2	1	0	2	5	0	0	0	0	0	0	0	2	1	0	0	1	0	0	0	0	1	0	1	0
OTU 86	3	0	0	0	0	0	0	0	0	0	0	0	0	0	0	0	0	0	0	0	0	0	0	0	3	0	0	0	0	0	0	0	0	0	0	0	0	0	0	0	0	0	0	0	0	0	0	0	0	0
OTU 87	0	0	0	0	0	0	1	0	0	0	2	0	0	2	0	0	0	0	0	0	1	0	0	0	0	0	0	0	0	1	0	0	0	0	0	0	3	0	0	0	0	0	0	3	0	0	0	0	0	3
OTU 88	0	2	0	0	0	0	0	0	0	2	0	0	0	0	0	0	0	0	0	0	0	0	0	0	0	0	0	0	0	0	0	0	0	0	1	0	0	0	0	0	0	0	0	0	0	0	0	0	1	0
OTU 89	0	1	0	0	0	0	1	0	6	0	41	0	3	1	0	0	0	0	0	1	0	0	0	3	0	0	1	0	0	14	0	1	0	0	0	0	4	0	5	0	0	1	1	0	0	0	6	0	0	0
OTU 90	0	0	0	0	0	0	0	0	3	0	0	0	1	0	1	0	0	0	0	0	0	0	0	0	0	0	0	0	0	0	0	1	0	0	0	0	0	0	0	0	0	2	1	0	0	0	0	0	0	0
OTU 91	0	0	0	0	0	1	0	0	0	0	0	0	0	0	0	0	0	0	0	0	0	0	0	0	0	0	0	0	0	0	0	0	0	0	0	0	0	0	0	1	0	1	0	0	0	0	1	0	0	0
OTU 92	0	0	0	0	0	0	21	0	0	0	0	0	0	4	0	0	0	0	0	0	0	0	0	0	0	0	0	0	0	0	0	1	0	0	0	12	0	0	0	0	0	0	0	0	1	0	0	2	3	0
OTU 93	1	0	0	0	0	0	0	0	0	0	0	0	0	0	1	0	0	6	0	0	0	0	0	0	0	0	0	0	1	1	0	0	0	0	0	0	0	0	0	3	1	0	0	0	0	0	0	0	0	0
OTU 94	19	4	0	1	0	0	0	4	5	19	4	15	0	6	0	0	0	3	20	1	1	2	1	0	2	10	1	0	0	0	18	0	1	3	1	0	0	2	2	4	3	1	0	2	0	4	1	1	8	0
OTU 95	0	0	0	2	0	0	0	0	0	0	2	0	0	0	0	0	3	0	0	0	0	0	0	0	6	0	1	0	0	0	1	0	0	0	0	0	0	0	0	0	1	0	0	1	0	0	0	1	0	0
OTU 96	0	0	0	0	0	1	0	1	0	0	0	0	0	0	0	0	0	0	0	0	0	0	0	0	0	0	0	0	0	0	0	0	0	0	0	0	3	0	0	0	0	1	0	0	0	0	0	0	0	0
OTU 97	0	0	0	0	0	0	0	2	71	0	0	0	0	1	0	0	0	0	0	0	0	1	0	0	0	7	31	0	0	0	0	0	0	0	0	2	0	0	0	0	0	0	0	3	0	20	0	0	0	0
OTU 98	0	0	1	2	0	0	0	1	0	0	1	0	0	0	0	12	0	0	0	1	21	2	0	0	0	0	0	0	0	2	0	0	0	0	0	0	0	0	4	0	0	0	0	0	0	0	6	0	0	3
OTU 99	0	0	0	2	4	0	0	2	1	8	4	1	2	1	0	0	0	4	7	0	3	4	7	3	6	2	0	1	1	4	3	0	3	0	0	0	1	3	1	1	1	0	0	2	0	4	1	1	3	3
OTU 100	6	2	0	0	2	0	0	2	0	0	1	0	0	0	0	1	4	0	1	3	0	1	0	0	0	0	0	1	0	7	3	0	1	0	0	0	0	0	0	0	0	1	0	1	2	0	0	0	2	5
OTU 101	0	0	1	0	0	0	0	0	0	0	0	0	0	0	0	0	0	0	1	0	0	0	0	0	0	0	0	0	0	0	3	0	0	0	0	0	1	0	0	0	0	0	0	0	0	0	0	0	0	0
OTU 102	0	1	0	0	75	0	0	0	0	0	1	0	0	0	1	0	0	0	0	0	0	1	0	0	2	0	0	0	0	0	1	1	0	0	0	0	1	0	0	0	0	0	0	6	0	0	1	0	0	0
OTU 103	0	2	0	0	5	0	1	0	0	0	2	3	0	7	0	0	0	0	0	1	2	0	0	2	0	0	0	16	0	0	0	39	3	0	3	2	0	1	0	0	0	2	0	2	0	0	1	1	0	0
OTU 104	2	0	0	0	0	3	9	0	1	9	0	6	2	2	5	0	2	3	1	3	0	0	4	1	2	3	4	12	0	0	1	0	1	0	0	0	3	2	0	2	0	0	0	0	0	2	1	0	0	8
OTU 105	0	0	0	0	1	0	2	0	1	0	0	1	2	1	0	0	5	0	0	0	0	0	0	4	0	0	0	0	0	0	0	0	0	0	0	0	0	0	0	0	0	0	0	1	0	0	0	2	2	0
OTU 106	0	1	0	0	0	0	0	2	0	0	2	0	3	0	0	0	0	0	0	0	1	1	0	1	1	0	0	0	0	0	0	51	8	0	4	0	0	0	0	0	0	0	0	4	0	0	0	1	0	0
OTU 107	0	0	1	87	1	0	1	0	0	40	1	11	1	0	1	2	0	0	0	0	5	0	0	0	0	0	0	5	0	0	0	4	0	0	0	1	1	0	3	0	0	1	0	1	1	0	4	1	0	5
OTU 108	0	0	0	0	0	0	0	3	0	0	5	2	0	1	0	0	0	0	1	1	0	7	16	0	0	2	0	0	2	0	0	0	0	0	0	0	0	24	0	0	1	0	0	0	0	0	50	0	1	0
OTU 109	0	0	0	0	0	0	0	0	1	0	0	0	0	0	0	0	0	0	0	0	0	0	1	0	0	0	0	0	0	0	0	0	0	0	0	0	0	0	0	0	0	0	0	0	0	0	0	0	0	0
OTU 110	0	0	0	0	0	0	0	1	2	0	0	1	4	0	0	0	3	2	3	0	1	0	0	1	6	0	1	0	0	52	4	2	0	0	1	0	5	3	0	0	2	0	0	1	0	0	0	0	4	1
OTU 111	0	0	0	0	0	0	0	0	0	0	0	0	0	0	0	0	0	0	0	0	0	0	0	0	0	0	0	0	0	1	0	0	0	0	0	1	0	0	0	0	0	6	0	1	1	0	0	0	0	0
OTU 112	0	1	0	0	5	2	3	1	1	0	1	0	2	0	1	0	0	1	1	0	0	0	0	2	0	0	0	1	0	6	0	0	0	82	0	0	0	1	1	0	1	0	0	0	1	0	0	2	0	0
OTU 113	0	0	1	0	0	0	0	1	0	0	0	0	0	0	0	0	1	0	0	0	0	2	0	0	0	0	0	1	0	0	0	0	0	0	0	0	0	0	2	0	0	0	0	0	0	0	0	0	0	0
OTU 114	0	0	1	1	0	4	0	2	2	1	1	1	1	1	0	2	0	1	0	5	1	5	0	4	1	1	5	2	0	1	3	0	1	1	0	3	3	0	2	0	2	2	2	1	1	1	0	1	2	7
OTU 115	3	2	3	1	0	5	4	2	1	3	8	2	1	2	1	1	5	4	0	0	0	4	1	1	5	3	2	4	0	4	2	9	7	0	3	1	0	2	3	1	0	1	0	3	1	0	2	0	7	0
OTU 116	0	9	1	2	3	0	2	0	1	10	1	2	8	0	0	0	0	3	6	2	0	1	0	0	1	4	0	4	1	3	22	3	7	0	7	0	3	1	4	2	57	1	0	0	0	0	0	1	0	1
OTU 117	3	1	0	1	4	0	1	0	1	2	1	0	3	2	2	0	0	0	0	1	2	0	0	3	0	0	0	3	0	3	1	0	2	0	0	0	0	2	0	0	0	1	1	4	0	0	0	0	0	0
OTU 118	0	0	0	0	0	0	0	0	0	0	0	0	0	0	1	0	0	0	0	2	0	0	0	1	0	0	0	0	0	0	0	0	1	0	0	0	0	2	0	0	0	0	0	0	0	0	0	1	2	0
OTU 119	6	1	0	0	1	2	4	0	1	19	0	8	2	0	2	0	0	47	3	0	1	2	0	1	2	0	0	9	0	3	4	4	2	7	1	1	1	0	4	0	0	0	2	1	0	1	1	1	0	2
OTU 120	0	9	0	1	1	0	0	0	0	8	2	10	3	0	0	0	0	0	0	0	1	0	0	0	0	0	0	0	0	0	0	0	5	0	2	5	1	0	0	0	0	5	0	0	0	0	1	0	0	0
OTU 121	0	1	1	2	3	0	1	0	2	0	5	12	0	0	2	0	3	0	2	2	0	0	0	2	0	1	3	0	0	0	1	1	0	1	1	1	0	1	0	5	1	1	1	0	1	1	0	1	0	0
OTU 122	0	0	0	1	1	0	0	0	0	1	1	1	0	0	1	0	0	0	0	0	0	0	4	1	1	0	0	5	0	8	2	1	0	0	0	0	0	2	3	4	1	1	0	0	0	0	0	1	0	0
OTU 123	10	59	2	0	1	6	3	1	2	10	2	0	9	9	6	7	8	2	3	6	1	5	1	6	2	6	1	20	3	14	6	10	81	2	26	3	6	6	4	5	22	2	1	3	4	7	3	2	15	5
OTU 124	0	0	0	0	0	0	0	0	0	0	0	0	0	0	0	0	0	0	2	0	0	0	0	0	0	0	1	0	0	0	0	1	0	0	0	0	0	0	5	2	2	0	0	0	0	0	1	0	0	0
OTU 125	8	11	8	27	0	8	1	5	2	5	7	2	3	10	2	6	1	6	7	0	20	11	0	7	12	1	3	3	2	13	5	0	6	36	2	0	5	8	45	2	53	5	0	12	16	0	10	4	6	35
OTU 126	0	0	0	0	0	0	0	0	0	0	0	0	0	0	0	0	0	0	0	0	1	0	0	0	0	0	0	0	0	0	0	0	0	0	0	0	0	0	0	2	0	0	0	0	0	0	0	31	0	0
OTU 127	1	0	0	1	0	1	0	0	7	5	0	1	0	0	0	0	0	0	0	0	0	0	2	1	0	1	2	0	0	0	0	4	0	0	0	1	0	0	4	0	0	0	0	0	0	1	0	0	2	0
OTU 128	21	9	4	11	2	6	1	1	3	13	5	4	5	12	10	35	1	4	3	3	54	9	9	1	3	9	1	10	4	5	16	5	85	1	3	3	9	5	6	0	15	2	4	5	101	6	44	1	6	106
OTU 129	0	0	0	0	0	0	0	0	2	0	1	0	0	0	0	0	0	0	0	0	0	0	0	0	0	0	0	0	0	0	0	1	0	0	0	0	0	0	0	0	0	0	0	1	0	1	0	0	0	0
OTU 130	7	0	0	3	1	2	0	3	0	7	6	0	0	0	0	0	32	17	0	4	1	2	6	0	2	129	1	1	1	0	0	2	0	2	0	0	2	19	2	20	1	0	17	0	1	0	3	0	1	1
OTU 131	0	0	1	0	19	0	1	2	1	3	0	2	2	1	0	176	2	0	0	1	1	0	0	4	2	1	3	0	1	0	1	0	0	0	0	3	1	2	0	0	0	0	36	0	10	2	0	3	3	3
OTU 132	0	0	0	0	0	3	0	1	0	0	1	1	2	2	2	0	1	1	0	33	0	0	3	0	0	12	0	0	0	4	0	0	0	0	0	0	0	7	0	0	1	0	1	0	0	0	0	0	0	0
OTU 133	0	0	0	2	0	0	0	0	0	0	0	0	0	9	3	2	0	0	0	0	0	0	0	0	0	0	0	0	0	0	0	0	0	0	0	0	0	0	0	0	0	0	3	0	3	0	0	0	2	0
OTU 134	2	2	8	0	2	0	0	8	2	1	0	0	2	0	6	0	0	0	3	1	2	10	0	3	0	0	0	0	0	2	0	0	0	0	2	0	6	0	3	0	0	0	0	0	1	0	1	5	0	1
OTU 135	1	0	0	0	0	0	0	1	1	4	0	2	0	5	0	0	0	2	0	0	0	0	0	1	0	0	0	6	0	1	8	1	0	0	0	0	0	1	2	0	0	1	1	1	0	1	1	0	0	2
OTU 136	0	0	2	5	0	1	0	0	0	1	1	0	4	0	0	0	1	0	0	0	0	0	2	0	0	0	0	1	1	6	0	1	0	0	1	0	0	4	0	1	0	1	0	1	0	0	0	0	1	0
OTU 137	0	2	0	1	0	0	0	0	0	0	0	0	6	0	0	38	0	0	0	0	65	0	0	0	1	3	0	0	0	8	0	0	1	0	3	0	0	0	2	0	1	0	0	0	0	0	0	0	0	0
OTU 138	1	0	2	0	8	1	0	3	0	0	6	0	3	0	0	0	0	0	0	0	0	0	0	4	1	2	0	0	1	0	3	1	0	1	0	0	0	0	0	1	0	3	0	0	1	0	0	1	0	0
OTU 139	1	10	0	4	2	2	1	2	3	5	0	7	0	2	0	1	4	2	5	0	1	0	0	0	1	0	2	5	2	2	3	0	2	0	4	0	3	1	12	1	2	11	9	1	79	0	0	54	25	2
OTU 140	20	9	131	1	0	6	2	1	18	1	9	8	10	11	2	2	5	1	52	1	0	4	0	0	7	3	5	5	2	3	34	0	0	2	1	3	10	0	0	2	0	1	0	9	0	3	1	1	4	2
OTU 141	0	0	0	0	0	0	0	0	0	0	0	0	0	0	0	0	0	0	0	0	0	0	0	0	12	0	0	0	0	0	0	0	0	0	0	0	0	0	0	0	0	0	0	0	0	0	0	0	0	0
OTU 142	0	0	0	1	0	0	0	0	0	0	0	0	0	0	0	0	0	0	0	0	0	1	0	1	0	0	0	0	0	0	0	2	0	0	0	0	3	0	0	0	0	0	0	0	0	0	1	0	0	0
OTU 143	0	0	0	0	1	0	0	0	0	0	0	0	0	0	4	0	0	0	0	0	0	0	0	3	0	0	0	0	2	0	0	0	0	2	0	0	1	0	1	0	0	0	0	0	0	0	1	2	0	0
OTU 144	0	12	0	0	0	0	0	0	0	0	36	0	0	0	1	0	0	0	0	3	0	0	0	0	0	1	0	0	0	0	0	0	2	0	3	0	0	0	0	0	2	0	0	0	0	0	0	0	1	0
OTU 145	3	0	2	0	0	1	0	6	8	0	5	2	11	2	135	1	14	0	1	0	2	8	0	0	11	4	4	1	2	0	0	1	0	0	0	0	0	0	0	2	0	0	4	3	0	0	0	0	0	0
OTU 146	2	1	0	0	0	0	0	3	0	1	1	0	2	0	0	0	0	1	0	1	1	0	0	0	1	0	2	0	1	1	0	0	0	0	24	0	0	1	2	1	0	9	0	2	0	0	0	0	0	0
OTU 147	1	8	0	3	0	1	0	0	0	2	0	0	0	0	0	1	0	2	1	0	0	0	0	0	3	1	3	0	0	0	3	0	3	0	7	0	0	0	0	0	0	0	0	0	0	0	1	0	1	0
OTU 148	3	1	3	0	3	0	0	3	1	0	0	80	0	6	0	0	50	2	2	0	0	5	0	0	1	0	0	2	2	3	4	0	0	0	1	0	0	2	0	17	0	0	6	0	0	0	0	0	0	0
OTU 149	2	0	0	1	0	0	0	0	0	0	1	0	0	1	7	0	2	1	2	0	0	0	0	0	0	2	1	0	0	3	0	3	0	0	0	0	0	0	0	1	2	0	0	0	0	0	0	0	5	0
OTU 150	0	0	4	1	0	0	0	0	2	0	1	0	1	3	0	0	0	1	0	0	6	1	0	0	0	0	0	0	0	0	2	1	0	0	0	0	0	4	0	0	0	0	0	0	0	4	0	0	0	0
OTU 151	1	6	0	0	0	0	0	0	0	0	1	1	0	6	0	2	0	0	3	5	0	1	0	0	0	2	0	1	0	0	0	1	37	0	1	0	0	0	1	0	1	3	0	2	0	0	0	0	0	0
OTU 152	7	9	1	3	1	2	4	2	0	5	1	1	2	11	0	2	4	1	1	2	5	5	1	6	1	0	1	0	0	0	1	6	3	1	4	0	0	1	2	1	1	3	1	0	0	0	0	0	0	0
OTU 153	0	0	0	0	0	0	0	0	0	0	0	0	0	0	0	0	0	0	0	0	0	0	0	0	0	0	0	0	0	0	0	0	0	0	0	0	0	0	0	0	0	0	0	0	0	0	0	0	0	0
OTU 154	0	0	0	0	0	0	0	0	0	2	0	2	0	0	0	0	1	0	0	0	0	0	0	0	0	0	0	0	0	2	0	0	0	0	0	0	0	0	0	0	0	3	0	0	0	0	0	0	5	1
OTU 155	2	0	0	6	0	21	0	0	0	0	0	0	0	0	0	0	0	0	0	0	0	0	2	1	0	0	0	2	6	0	4	0	0	13	1	0	0	3	4	0	5	0	0	0	0	0	0	0	2	0
OTU 156	11	5	3	3	2	0	4	3	2	3	0	0	1	4	3	0	6	1	2	0	0	4	0	4	0	1	2	0	0	5	1	3	2	3	2	3	6	0	0	9	4	0	1	0	0	1	0	4	1	0
OTU 157	0	0	0	1	8	0	2	0	0	0	0	1	3	1	3	0	0	3	0	0	0	0	0	7	0	0	0	5	0	0	0	1	0	0	0	0	2	0	0	0	0	6	0	0	0	0	0	2	25	0
OTU 158	0	0	0	0	0	0	0	0	0	0	0	0	0	0	0	0	0	0	0	0	0	0	0	0	0	0	0	0	0	0	0	0	0	0	0	0	0	0	0	0	0	0	0	0	0	0	0	0	2	0
OTU 159	0	8	1	0	0	0	2	1	3	0	0	0	0	0	0	2	0	0	0	1	0	2	0	1	1	0	0	0	0	0	0	0	11	0	4	2	0	1	1	0	0	0	0	1	0	0	0	0	0	0
OTU 160	5	1	0	11	1	1	5	1	4	4	0	0	6	0	5	2	3	0	4	3	12	4	14	8	1	3	1	9	0	3	14	2	0	2	0	6	1	15	26	4	2	2	0	27	2	12	6	4	4	18
OTU 161	0	0	2	1	3	8	0	1	0	0	2	1	0	0	0	0	0	0	1	1	1	0	0	1	3	5	1	0	0	1	1	0	1	3	0	0	0	1	0	1	3	0	0	0	0	0	1	2	0	2
OTU 162	2	0	1	0	12	1	20	0	1	4	2	2	0	1	7	1	0	0	3	0	0	0	0	40	1	0	0	3	0	3	0	6	0	0	1	7	0	1	3	2	0	0	2	17	0	2	0	18	0	0
OTU 163	0	0	0	0	0	0	0	0	0	0	0	0	0	0	0	0	0	0	0	0	0	0	0	0	0	0	0	0	0	8	0	0	0	0	0	0	0	0	0	0	0	0	0	0	0	0	0	0	0	0
OTU 164	0	2	0	0	0	0	0	0	0	0	0	0	0	0	3	0	0	0	0	0	0	0	0	0	0	0	0	0	0	0	0	0	1	0	1	0	0	0	0	0	0	0	0	0	0	0	0	0	0	0
OTU 165	1	1	0	3	0	0	0	0	0	0	30	1	2	0	0	0	0	2	0	1	1	0	0	0	0	0	3	0	1	0	0	0	0	3	0	0	1	0	1	0	1	1	0	1	0	0	0	3	0	0
OTU 166	0	0	0	0	0	0	0	0	0	0	0	0	0	0	0	0	0	0	0	0	0	0	0	0	0	0	0	0	0	0	0	0	0	0	0	0	0	0	0	0	0	0	0	0	0	0	0	0	1	0
OTU 167	0	1	2	0	0	1	0	8	0	2	0	0	0	0	1	0	0	0	0	3	0	11	0	0	0	0	0	0	0	0	0	0	0	0	0	1	5	0	0	0	3	0	0	0	0	0	0	0	2	0
OTU 168	2	6	0	0	0	0	0	0	0	1	1	3	1	0	1	1	0	2	0	2	1	1	3	0	3	3	1	2	0	0	1	1	0	1	3	0	0	0	1	1	0	0	1	0	0	0	4	1	1	0
OTU 169	0	0	0	0	0	0	0	0	0	0	0	0	0	0	0	0	0	0	0	0	0	0	0	0	0	0	0	0	0	0	0	0	0	0	0	0	0	0	0	0	1	0	0	0	0	0	0	0	0	0
OTU 170	0	0	0	0	3	0	0	0	0	0	0	0	0	0	0	0	0	0	0	0	0	0	0	0	0	0	0	0	0	0	0	0	0	0	0	0	0	0	0	0	0	0	1	0	0	0	0	0	0	0
OTU 171	0	6	0	0	0	4	0	0	1	0	1	3	14	2	3	0	0	1	5	0	0	3	1	1	0	0	0	0	0	0	0	3	1	2	1	0	0	1	5	1	0	0	0	0	1	1	0	0	0	4
OTU 172	1	0	0	0	1	0	0	0	0	0	0	0	0	0	0	0	0	0	0	0	0	0	0	0	0	0	0	0	7	0	0	1	0	0	0	0	0	0	0	0	0	0	0	0	0	0	0	0	0	0
OTU 173	0	1	0	0	0	0	0	0	0	4	0	0	10	3	0	0	0	5	0	0	2	0	1	0	1	0	12	7	1	6	0	2	0	0	0	3	0	0	0	0	1	0	0	0	0	0	0	0	0	0
OTU 174	0	0	0	1	1	0	0	0	0	0	0	23	0	0	0	0	0	0	0	0	0	3	0	0	0	0	0	12	2	0	0	1	0	0	0	0	0	0	0	0	0	0	1	0	0	1	0	38	0	0
OTU 175	0	0	2	1	1	0	0	2	0	1	0	0	5	5	0	0	0	0	0	0	0	4	2	0	0	0	1	0	2	0	2	1	0	0	0	0	0	0	2	2	2	0	0	0	1	0	0	1	0	0
OTU 176	4	4	0	0	4	0	0	0	0	1	0	2	0	2	0	0	0	0	1	0	1	1	1	2	1	2	1	0	1	1	6	0	1	0	0	0	2	0	0	5	0	10	0	2	0	0	1	2	12	0
OTU 177	3	0	0	0	0	0	0	1	3	0	1	1	3	0	2	0	1	2	0	1	0	2	0	2	0	0	1	7	0	3	2	0	0	0	0	0	0	0	0	1	1	4	1	24	0	0	0	3	1	1
OTU 178	0	3	3	2	0	0	0	0	0	1	2	0	1	1	0	1	0	1	0	0	0	3	0	0	0	0	0	0	75	0	1	1	2	0	4	0	2	0	1	1	0	0	0	0	2	0	3	0	0	0
OTU 179	0	5	0	3	0	0	0	0	0	0	0	0	0	0	0	0	0	113	2	0	2	0	0	1	0	12	0	0	0	2	0	38	6	0	2	0	0	1	0	2	0	0	0	0	0	0	1	0	6	0
OTU 180	3	7	2	30	1	1	0	79	66	5	1	3	11	8	2	21	3	9	1	17	13	9	0	2	8	3	12	7	4	5	0	0	1	1	1	3	1	9	80	5	3	6	27	29	7	16	16	1	5	48
OTU 181	0	0	68	1	1	4	0	0	0	0	0	0	0	0	0	0	1	2	1	0	0	0	1	4	6	3	0	9	3	0	2	9	0	0	0	2	0	1	4	3	0	4	1	15	0	0	0	0	10	1
OTU 182	0	1	0	0	0	0	0	0	0	0	0	0	0	0	0	0	0	0	0	0	0	0	0	0	0	0	0	0	0	0	0	0	0	0	0	0	0	0	0	0	0	0	0	0	0	0	0	0	0	0
OTU 183	1	1	0	3	1	0	4	0	3	2	0	1	0	0	0	0	0	0	0	0	1	0	1	0	0	2	1	1	0	2	0	0	1	0	0	3	0	0	0	0	0	0	0	2	0	1	0	1	1	2
OTU 184	0	1	0	1	2	0	3	1	0	0	1	0	2	0	0	0	0	0	0	0	0	4	0	1	9	0	0	0	0	0	0	1	2	0	1	0	0	1	0	0	0	0	0	0	1	0	0	0	1	0
OTU 185	3	0	3	1	0	21	0	0	2	4	0	0	3	11	1	0	0	0	0	7	2	2	0	2	0	0	13	3	7	1	0	0	0	13	0	1	10	0	2	0	0	0	0	0	12	3	0	1	1	1
OTU 186	6	0	1	0	0	0	0	0	0	1	0	0	1	0	0	0	1	1	0	0	0	0	0	0	0	1	0	1	1	0	1	1	0	0	0	0	2	0	1	0	3	0	0	0	0	0	0	0	0	0
OTU 187	2	1	0	3	2	1	2	1	2	0	5	0	12	1	1	0	6	3	4	0	0	4	1	1	1	1	3	4	0	0	10	0	1	1	0	0	0	4	0	2	2	2	5	6	0	1	6	3	2	2
OTU 188	0	5	1	2	1	4	1	5	2	7	1	3	2	1	1	0	1	1	3	5	2	5	0	3	4	4	1	0	1	0	8	5	0	3	3	0	0	1	0	1	15	1	1	0	1	2	0	1	5	0
OTU 189	4	2	0	1	0	1	0	0	0	39	1	15	2	4	0	0	12	2	0	2	0	1	1	2	2	0	1	2	1	0	4	0	1	1	4	0	3	1	0	2	2	3	0	1	2	3	0	2	2	0
OTU 190	0	0	0	0	0	0	0	0	0	0	3	0	0	0	2	0	0	0	0	0	0	0	1	0	0	0	1	0	0	1	2	1	0	0	0	0	0	1	0	0	0	0	0	0	65	0	0	0	0	0
OTU 191	10	1	14	0	4	0	3	9	1	0	0	0	0	4	4	1	0	4	0	0	0	27	0	9	11	0	0	6	0	0	0	0	1	71	0	0	0	1	0	0	0	5	3	1	0	0	0	4	5	0
OTU 192	1	5	0	0	2	0	1	3	0	2	0	2	11	0	3	0	33	0	1	13	0	1	7	0	7	1	1	1	2	3	7	2	2	0	0	1	5	4	0	33	5	10	16	0	4	34	1	2	16	4
OTU 193	0	0	0	1	0	49	0	0	0	1	0	0	0	1	1	0	3	1	1	1	2	0	17	0	0	1	0	3	40	0	1	0	0	38	0	0	0	21	1	0	2	0	0	0	0	3	1	0	2	1
OTU 194	1	0	1	0	0	0	1	0	0	1	0	0	0	0	0	0	1	0	0	0	3	5	0	1	0	0	0	0	0	0	0	0	1	1	0	0	1	0	0	8	0	3	6	0	0	0	0	0	0	0
OTU 195	1	0	0	1	1	0	1	0	0	0	2	0	0	2	2	2	0	0	0	0	0	3	1	0	1	0	0	1	0	0	2	0	0	0	1	0	0	2	0	0	0	0	13	2	0	0	0	0	0	0
OTU 196	0	0	0	0	0	2	0	0	0	7	2	0	0	0	0	0	0	0	1	0	0	0	0	1	0	1	0	0	1	0	3	0	1	1	0	0	2	0	0	0	0	2	1	1	0	1	0	0	1	0
OTU 197	1	2	0	6	3	2	0	0	0	1	1	1	9	0	1	0	8	1	27	3	0	0	1	6	13	1	1	2	2	8	3	0	5	0	2	0	1	3	7	6	1	1	0	12	0	0	0	0	2	0
OTU 198	0	0	0	1	0	0	0	0	0	1	0	1	0	0	0	0	0	0	0	0	0	0	0	2	2	0	0	0	0	0	0	0	0	0	0	0	0	0	0	0	3	1	0	0	0	0	1	1	0	0
OTU 199	1	1	1	0	0	0	0	0	1	3	0	0	0	0	0	0	0	1	0	1	0	3	0	0	4	1	0	1	0	0	0	0	0	0	0	0	6	0	0	1	0	0	0	0	0	0	0	0	0	1
OTU 200	0	0	0	0	4	0	1	0	0	0	0	0	3	0	7	0	0	0	0	4	0	0	0	8	0	0	0	2	0	1	2	9	0	0	0	1	1	0	5	0	1	2	0	59	2	0	1	3	3	0
