	Host 1	Host 2	Host 3	Host 4	Host 5	Host 6	Host 7	Host 8	Host 9	Host 10	Host 11	Host 12	Host 13	Host 14	Host 15	Host 16	Host 17	Host 18	Host 19	Host 20	Host 21	Host 22	Host 23	Host 24	Host 25	Host 26	Host 27	Host 28	Host 29	Host 30	Host 31	Host 32	Host 33	Host 34	Host 35	Host 36	Host 37	Host 38	Host 39	Host 40	Host 41	Host 42	Host 43	Host 44	Host 45	Host 46	Host 47	Host 48	Host 49	Host 50	
OTU 1	2	0	4	2	1	0	0	0	1	3	0	0	0	1	3	1	0	2	1	0	1	0	0	0	0	0	1	7	1	2	0	1	0	5	0	4	0	0	0	1	3	0	2	0	0	0	2	0	2	0
OTU 2	6	0	0	0	3	188	0	0	0	0	0	0	0	0	0	1	1	0	1	4	0	0	0	26	1	2	6	0	5	0	0	0	7	0	0	6	0	0	0	0	0	0	3	0	5	0	0	1	17	0
OTU 3	0	0	0	0	0	0	0	0	0	0	0	0	0	1	0	1	0	0	1	0	0	0	0	3	0	0	1	1	0	0	0	0	0	0	0	0	0	2	2	0	0	2	0	0	0	0	1	0	3	0
OTU 4	0	0	0	0	0	0	0	0	0	0	0	0	0	0	0	0	0	0	0	0	0	0	0	0	0	0	0	0	0	0	0	0	0	0	0	0	0	0	0	0	0	0	0	0	0	0	0	0	0	0
OTU 5	15	0	3	2	12	4	2	5	5	13	18	0	50	15	0	15	31	9	12	8	0	12	10	4	0	3	0	0	25	2	13	1	1	2	17	2	0	9	17	28	12	3	2	0	0	41	19	0	10	4
OTU 6	2	0	5	4	1	2	2	3	0	1	1	4	1	0	0	0	2	0	0	12	3	0	6	0	0	3	2	0	5	5	0	6	0	0	1	10	2	0	1	0	1	3	0	2	0	9	1	0	11	0
OTU 7	6	2	0	1	3	1	13	6	0	0	1	1	8	0	3	0	20	0	5	0	0	1	0	2	2	4	2	1	0	0	3	1	7	2	24	0	46	3	1	2	1	18	4	1	3	0	2	1	0	9
OTU 8	2	1	1	1	5	0	0	0	0	1	4	4	1	1	1	0	0	2	0	2	2	2	2	5	9	2	1	1	1	0	0	2	6	0	66	0	3	1	90	1	0	0	1	1	2	0	1	0	0	3
OTU 9	0	2	0	0	0	0	1	0	0	0	0	2	0	0	0	0	2	0	0	0	9	0	0	2	1	0	0	1	2	0	0	2	0	0	0	0	0	0	0	1	0	1	3	0	1	1	0	0	0	0
OTU 10	0	0	0	0	0	0	6	2	0	1	0	0	0	0	0	0	3	0	4	0	0	4	0	4	18	0	0	0	0	0	0	0	0	0	25	0	0	0	0	0	0	9	0	0	0	0	1	0	0	7
OTU 11	2	0	0	1	0	0	0	6	2	1	0	1	2	1	1	0	1	0	0	0	1	2	0	1	2	0	3	0	2	0	0	0	0	0	0	0	2	1	1	2	0	0	0	3	7	2	1	1	0	2
OTU 12	0	3	170	1	0	90	0	4	3	1	3	2	0	0	0	1	1	0	7	1	0	1	0	0	0	5	1	5	3	1	1	1	5	0	3	1	1	2	4	0	0	1	1	0	1	5	1	3	2	0
OTU 13	0	0	0	0	0	0	0	0	0	0	0	0	0	0	0	0	0	0	0	0	0	0	0	0	7	0	0	0	0	0	0	0	0	0	1	0	0	0	0	0	0	0	4	0	0	0	0	0	0	0
OTU 14	0	0	0	0	0	0	0	0	0	2	0	3	0	0	0	0	0	0	0	0	4	4	1	0	1	0	0	2	0	0	0	0	0	1	1	0	1	0	0	0	0	3	0	2	0	0	1	2	0	0
OTU 15	0	0	0	0	0	0	5	0	0	0	0	0	0	0	0	0	0	0	0	0	0	0	0	0	0	0	0	1	0	0	0	0	0	1	0	0	0	0	0	0	0	9	0	0	0	0	0	1	0	8
OTU 16	0	0	0	0	0	0	0	0	0	0	0	0	0	0	0	0	0	0	0	0	0	0	0	0	0	0	0	0	0	0	0	0	0	1	0	0	0	0	0	0	0	0	0	0	0	0	0	0	0	0
OTU 17	0	0	0	1	0	0	0	0	0	0	1	0	0	0	0	0	1	0	0	2	0	0	0	0	7	3	4	0	0	0	2	0	1	0	0	3	0	0	1	1	0	1	1	0	0	0	0	1	4	0
OTU 18	2	0	0	2	5	0	1	1	0	7	2	0	0	3	1	5	1	0	0	0	1	0	0	2	0	5	0	0	6	1	0	0	0	2	0	3	4	108	3	0	2	0	1	2	3	0	2	1	1	0
OTU 19	0	0	0	0	0	0	0	0	0	0	0	0	0	0	0	0	0	0	0	0	0	0	0	0	0	0	0	0	0	0	0	0	0	0	0	0	0	0	0	0	0	0	0	0	0	0	0	0	0	0
OTU 20	1	0	0	0	1	0	2	2	0	1	1	0	0	0	0	0	0	0	2	0	0	2	0	0	0	3	1	0	0	0	13	2	1	0	0	2	2	1	0	0	0	1	1	0	1	1	4	0	3	0
OTU 21	1	0	1	1	0	0	0	1	0	2	0	8	8	0	0	1	4	0	31	0	6	1	0	0	2	1	1	5	1	0	2	0	3	0	0	2	1	0	4	0	0	0	1	3	2	0	0	0	3	0
OTU 22	1	0	0	0	3	0	2	1	0	0	0	0	2	0	1	2	0	0	0	0	0	11	1	0	0	6	1	10	2	0	0	1	0	4	0	0	1	7	0	1	3	0	2	0	0	0	3	1	2	0
OTU 23	0	0	0	1	0	0	0	3	0	0	3	0	4	0	68	1	0	0	1	0	0	0	2	0	5	6	0	0	1	0	0	1	0	121	0	0	7	0	0	0	2	2	0	19	0	1	2	0	0	0
OTU 24	0	4	0	0	0	0	0	0	0	0	0	6	0	0	0	0	1	0	0	0	26	0	0	1	0	0	1	2	0	0	0	0	0	0	0	0	0	0	0	0	2	0	0	0	0	0	0	0	0	0
OTU 25	0	0	0	1	0	0	0	0	2	0	0	0	0	0	0	0	0	0	0	0	0	0	0	0	0	0	0	0	0	0	5	0	0	0	0	0	0	0	0	0	0	0	0	0	0	0	0	0	0	0
OTU 26	0	0	0	0	0	0	0	0	1	1	0	0	0	0	0	0	0	0	0	0	0	1	0	0	0	2	0	0	0	0	0	0	0	0	20	0	0	0	0	0	0	0	0	2	0	0	0	2	0	0
OTU 27	0	0	0	0	0	0	0	0	0	0	0	0	0	0	0	0	0	0	0	0	0	1	1	0	0	0	0	0	0	0	0	0	0	0	0	1	0	0	2	0	0	0	0	0	0	0	0	0	1	0
OTU 28	3	0	1	0	2	0	1	3	0	1	0	1	8	0	3	0	3	0	1	2	0	0	1	2	12	13	1	1	1	5	0	0	0	2	7	0	0	2	1	0	0	6	0	2	0	0	4	7	0	2
OTU 29	1	0	0	1	0	7	0	1	3	4	1	3	2	0	3	2	2	0	1	0	2	1	3	1	0	0	12	0	0	2	0	3	10	2	0	2	6	5	0	0	0	1	6	1	1	2	0	0	0	3
OTU 30	0	0	0	0	0	0	0	0	0	0	0	0	0	0	0	0	0	0	0	0	0	0	0	0	0	0	0	0	0	0	0	0	0	0	0	0	2	0	0	0	0	0	0	0	0	0	0	0	0	1
OTU 31	0	3	0	0	0	0	1	0	0	0	0	1	0	0	0	0	0	0	2	0	11	0	1	1	0	0	1	1	0	1	1	3	0	0	0	1	0	1	1	0	1	0	0	0	0	0	0	1	0	0
OTU 32	3	0	13	1	0	5	1	1	1	0	5	0	0	11	1	3	1	7	2	2	4	15	17	0	0	4	47	8	0	25	3	17	4	1	2	0	7	5	14	2	27	3	0	3	15	23	0	5	0	2
OTU 33	0	0	0	0	0	0	0	0	0	0	0	0	0	0	0	0	0	0	0	0	0	0	0	0	0	0	0	0	0	0	0	0	0	0	0	0	0	0	0	0	0	0	0	0	0	0	0	0	0	0
OTU 34	2	0	0	6	3	1	0	1	2	2	1	0	1	0	1	0	1	1	0	2	1	0	1	0	3	0	0	0	2	0	1	0	2	2	2	6	2	0	0	2	0	5	2	2	0	0	0	0	4	1
OTU 35	0	4	0	0	0	1	1	0	0	0	0	8	0	0	0	1	0	0	4	0	20	1	1	5	0	0	1	0	0	0	0	0	39	0	1	0	0	2	13	0	3	0	0	2	0	14	4	1	2	0
OTU 36	0	1	0	0	2	0	2	9	0	1	1	1	0	0	0	0	0	0	0	37	0	1	1	1	5	2	2	6	2	0	0	2	2	0	0	0	1	0	4	1	0	0	0	0	0	1	0	0	0	2
OTU 37	4	0	0	2	0	0	0	0	0	0	0	0	0	2	0	0	0	0	0	0	0	0	0	0	3	6	0	0	0	0	0	1	0	0	0	0	0	0	0	0	2	0	53	0	0	0	3	0	0	0
OTU 38	2	0	1	0	0	0	0	4	7	0	1	2	0	0	0	3	0	0	0	1	0	1	0	0	0	2	0	10	1	0	0	0	0	0	0	0	0	0	0	2	0	1	0	11	3	0	2	1	1	4
OTU 39	0	0	0	0	0	0	0	0	0	0	1	0	0	0	0	1	0	0	0	0	0	0	0	0	0	0	0	0	0	0	0	1	0	0	1	0	0	1	0	0	0	0	0	0	0	0	0	2	0	0
OTU 40	0	4	0	0	1	0	2	4	6	2	2	9	1	0	0	1	6	0	0	0	9	1	0	0	11	1	0	16	0	0	0	0	1	1	0	0	5	3	20	1	1	3	1	0	2	51	13	0	0	3
OTU 41	2	0	2	1	0	1	0	0	0	4	1	0	6	1	1	0	0	0	6	0	1	0	1	0	0	0	1	4	0	0	2	0	0	1	4	0	2	0	2	3	0	0	0	1	0	1	6	0	0	1
OTU 42	3	0	0	20	0	0	1	0	0	0	0	0	0	0	0	4	0	0	0	0	3	0	0	0	1	0	0	2	0	1	0	0	0	0	0	0	0	0	0	1	0	2	0	0	3	0	0	0	0	0
OTU 43	0	0	0	0	0	0	101	0	0	0	0	0	0	0	0	0	0	0	0	0	0	0	0	0	0	0	0	0	0	0	0	0	0	0	0	0	0	0	0	0	0	0	0	0	0	0	0	2	0	0
OTU 44	1	0	0	3	0	0	0	0	0	0	4	0	0	0	0	0	1	0	0	0	2	0	0	0	0	0	0	3	1	0	0	0	0	2	1	0	0	0	0	2	0	0	0	0	0	1	107	0	0	0
OTU 45	0	0	0	2	2	0	1	0	0	1	0	2	1	0	0	6	3	0	0	1	0	2	0	0	1	0	0	3	3	0	2	0	0	1	0	0	2	1	2	1	0	0	4	4	2	3	0	2	1	3
OTU 46	21	8	0	14	2	0	0	1	0	2	0	0	4	0	2	3	0	1	4	0	0	2	0	0	4	12	2	1	0	0	1	2	1	2	0	0	0	1	0	1	1	1	0	0	61	3	1	16	0	2
OTU 47	0	0	0	0	0	0	0	2	0	0	0	0	0	0	0	0	0	0	0	0	0	1	0	0	0	0	0	0	0	0	0	0	0	3	1	0	1	0	0	0	0	1	0	0	0	0	2	0	0	0
OTU 48	2	0	0	3	4	0	0	1	2	3	1	2	3	1	0	0	1	0	1	0	0	2	0	3	1	13	3	5	1	0	1	3	0	0	3	2	0	2	0	4	3	2	0	10	3	4	0	1	3	0
OTU 49	0	0	0	0	4	0	1	1	0	0	2	0	0	0	0	0	0	0	0	0	0	1	5	109	0	0	3	9	3	0	0	0	3	0	0	3	1	0	0	1	0	0	2	0	0	5	0	0	0	2
OTU 50	5	6	1	12	0	1	0	3	3	4	5	0	0	1	0	3	1	1	0	1	5	1	3	11	4	2	2	3	1	3	2	5	2	2	0	2	0	0	4	0	2	0	0	4	0	0	1	1	4	2
OTU 51	0	0	0	0	0	2	8	0	0	0	1	0	0	0	0	2	1	0	0	0	0	0	2	0	2	3	3	1	0	0	0	1	0	1	12	0	4	0	0	1	1	16	0	1	2	2	3	1	0	6
OTU 52	1	3	0	0	52	0	0	0	1	3	5	3	2	1	5	0	3	0	3	1	16	4	60	3	2	5	3	7	0	0	1	0	2	3	1	0	3	5	1	1	0	3	0	11	3	3	0	5	1	4
OTU 53	0	0	0	0	0	0	0	0	0	0	0	0	0	0	0	0	0	0	0	0	0	0	0	0	0	0	0	0	0	0	0	0	0	0	0	0	0	0	0	0	0	0	0	0	0	0	0	0	0	0
OTU 54	0	1	1	6	1	1	2	2	2	0	1	1	11	0	2	1	2	1	1	0	1	3	1	3	0	0	0	1	10	0	1	5	0	3	3	0	5	11	0	4	3	0	5	4	1	4	0	9	10	2
OTU 55	0	0	0	0	0	0	0	0	0	0	0	0	0	0	0	0	0	0	0	0	0	0	0	0	0	0	0	0	0	0	0	0	0	0	0	0	0	0	0	0	0	0	0	0	0	0	0	0	2	0
OTU 56	0	0	0	1	0	0	0	2	0	0	2	0	0	0	1	0	0	0	0	0	0	0	0	1	2	2	1	0	0	0	5	0	1	0	0	0	1	1	0	0	1	0	0	12	1	0	2	1	0	0
OTU 57	7	2	0	2	1	1	0	1	1	0	6	3	18	0	0	6	0	0	7	1	4	7	50	0	4	5	2	14	1	2	1	4	2	2	4	8	5	3	1	116	0	1	0	4	8	1	4	0	1	3
OTU 58	0	0	0	0	0	0	0	0	0	1	0	2	0	0	1	0	0	0	0	0	4	3	0	0	10	0	0	3	0	0	0	1	6	1	0	0	0	1	2	2	0	3	1	0	2	1	3	1	0	2
OTU 59	0	0	1	0	0	0	0	0	1	1	0	0	0	0	3	0	1	0	0	0	0	1	0	0	3	0	0	4	0	3	0	4	0	0	1	0	4	0	0	0	0	0	0	2	0	0	7	0	0	2
OTU 60	0	0	0	0	0	1	2	7	0	0	0	2	10	0	0	0	6	1	3	0	7	0	0	1	3	13	2	0	0	2	3	1	1	0	2	3	1	0	6	1	0	8	1	2	16	0	1	5	0	0
OTU 61	4	1	19	9	2	4	0	7	1	3	4	0	0	19	0	1	0	12	6	0	12	0	0	0	1	1	7	4	2	41	7	0	1	2	1	0	5	0	0	1	35	0	6	3	2	0	4	1	0	1
OTU 62	0	0	0	1	0	0	0	1	1	0	0	0	0	0	0	0	0	0	0	4	1	2	0	0	0	5	0	0	0	0	0	0	1	0	0	6	0	0	0	0	0	0	0	5	0	0	2	0	0	0
OTU 63	1	0	0	0	1	0	0	0	0	0	0	1	0	0	186	0	3	0	0	0	1	1	0	4	3	0	0	0	3	0	1	14	0	0	0	0	0	10	0	0	0	0	0	0	0	0	2	0	0	1
OTU 64	2	95	0	4	1	0	2	5	0	0	0	171	6	0	3	2	5	1	1	2	3	1	1	3	4	6	0	1	1	3	0	0	6	5	1	0	2	4	36	7	1	0	0	6	15	3	1	17	3	3
OTU 65	0	0	0	0	0	0	0	0	0	0	0	0	0	0	0	0	0	0	4	0	0	0	0	0	0	0	0	1	0	0	0	0	18	0	0	0	0	0	0	1	0	0	0	0	0	0	0	0	0	0
OTU 66	0	2	0	1	1	0	0	1	0	1	0	2	0	0	3	2	0	0	2	0	5	2	0	4	0	0	1	1	0	0	0	0	1	5	0	0	17	0	2	3	0	2	3	0	2	0	0	2	3	0
OTU 67	0	0	0	0	0	0	1	0	0	0	48	0	4	0	0	0	0	0	1	0	0	1	0	0	0	2	0	4	4	0	0	0	1	0	2	1	2	3	3	2	1	6	1	0	0	0	0	0	1	1
OTU 68	2	0	0	0	0	0	0	0	0	0	1	0	0	0	0	0	1	0	1	30	0	0	0	1	2	0	0	0	1	0	1	0	0	0	0	32	0	0	5	0	0	0	2	0	5	0	0	0	82	0
OTU 69	0	0	0	0	0	0	0	5	3	1	1	0	4	1	40	1	0	0	0	2	0	0	0	0	1	0	5	2	0	0	0	1	0	78	5	1	16	17	0	0	3	0	1	10	8	1	0	2	0	0
OTU 70	2	0	0	0	2	0	1	0	0	3	0	0	1	0	0	0	4	0	0	0	0	0	0	4	0	0	1	4	4	1	3	0	0	0	0	0	0	0	1	0	0	0	0	0	0	0	0	0	0	0
OTU 71	0	0	0	0	0	0	0	4	1	0	1	0	0	0	0	15	0	0	0	1	2	0	0	0	2	0	1	0	0	0	0	0	1	2	0	0	1	0	1	0	0	0	1	2	0	0	0	2	0	0
OTU 72	6	0	0	0	0	0	0	1	1	0	0	0	0	21	1	2	4	25	1	1	0	2	3	0	2	2	11	0	1	0	1	0	0	0	6	0	3	1	0	0	73	2	0	1	0	5	1	7	1	1
OTU 73	1	0	4	1	0	4	1	1	0	0	0	2	4	0	0	0	0	0	0	0	0	0	1	0	4	0	1	0	0	0	0	0	1	0	3	0	0	0	4	0	0	0	0	0	5	0	0	0	0	2
OTU 74	1	0	3	2	4	4	1	2	0	0	3	0	1	42	0	0	0	0	0	0	2	2	1	0	8	7	0	3	1	2	0	1	2	1	0	4	13	4	0	0	0	2	0	1	0	5	1	5	2	3
OTU 75	2	2	0	2	0	0	0	2	1	0	0	5	2	1	0	1	0	0	0	0	9	0	36	4	25	1	3	8	1	1	0	6	1	1	5	5	6	4	1	3	2	0	1	2	2	1	0	0	0	0
OTU 76	0	0	0	3	0	0	0	0	0	0	0	0	0	1	0	0	0	0	2	0	0	0	0	5	0	0	0	0	1	0	0	0	6	0	0	0	0	0	0	0	0	0	0	15	0	0	0	1	0	0
OTU 77	2	1	0	0	1	0	0	3	2	0	0	0	1	1	1	1	0	1	3	0	3	2	4	0	1	0	0	69	1	1	0	0	2	2	1	0	1	1	2	5	0	0	1	2	0	1	1	5	0	1
OTU 78	0	0	0	11	4	0	0	1	5	40	2	4	5	0	0	5	3	0	10	0	0	0	0	0	0	0	1	3	7	0	22	1	3	0	0	0	0	0	1	13	0	0	2	0	1	0	0	0	0	0
OTU 79	9	4	2	2	5	4	3	37	40	3	2	2	13	26	0	3	15	28	16	120	4	4	10	2	14	6	17	0	4	2	5	5	7	0	3	2	4	6	4	30	38	11	2	0	6	2	10	10	1	2
OTU 80	3	5	91	0	3	36	2	2	4	5	1	7	2	0	2	0	2	1	1	1	8	0	6	5	1	0	11	0	3	174	1	7	2	0	1	0	0	1	9	0	0	0	3	9	5	5	1	1	0	0
OTU 81	1	181	1	1	1	1	1	0	3	8	2	5	3	0	1	1	1	10	2	2	11	2	3	6	2	0	16	2	4	4	6	0	1	4	2	168	1	1	1	0	0	3	3	0	9	3	3	1	0	0
OTU 82	5	1	0	2	0	0	7	2	40	0	0	3	0	0	0	0	0	0	6	0	7	1	0	0	3	3	0	1	3	0	0	0	0	0	0	1	4	3	0	0	0	13	0	6	0	0	0	1	3	3
OTU 83	0	0	0	0	2	0	0	0	0	0	0	0	0	0	0	0	0	0	0	0	0	0	2	0	0	0	0	0	4	0	0	1	2	1	0	0	0	0	0	0	0	1	3	0	4	0	0	0	0	0
OTU 84	1	0	0	0	0	0	1	1	0	3	45	1	0	0	11	0	0	1	0	0	1	0	1	0	0	4	1	0	0	0	0	1	0	32	1	1	4	0	0	1	1	3	1	0	1	0	3	1	0	0
OTU 85	0	0	0	0	0	0	0	0	0	0	1	0	3	0	0	0	0	0	4	2	0	0	0	2	0	0	0	0	0	0	0	0	0	0	0	0	1	0	0	0	0	0	0	18	0	0	0	0	0	0
OTU 86	0	0	0	0	0	0	0	0	0	0	0	0	0	0	0	0	0	0	0	0	0	0	0	0	0	0	0	0	0	0	0	0	0	0	0	0	0	0	0	0	0	0	0	0	0	0	0	0	0	0
OTU 87	0	0	0	0	1	0	3	2	0	0	2	0	0	0	0	3	0	0	0	0	6	0	0	0	0	1	0	0	0	1	0	0	0	0	40	1	0	0	0	10	0	15	0	0	0	0	0	0	3	10
OTU 88	0	0	2	0	0	0	0	0	0	0	0	0	0	0	0	0	0	0	0	0	0	0	0	0	0	0	0	0	0	1	0	0	0	0	0	0	0	4	0	0	0	0	0	0	0	0	0	0	1	0
OTU 89	1	0	0	0	0	0	0	3	0	3	0	0	1	0	0	0	0	0	0	2	0	0	0	0	1	0	1	0	0	0	0	0	0	0	0	0	0	0	0	0	0	0	1	1	1	2	0	2	0	0
OTU 90	0	0	0	0	0	0	0	0	0	1	0	0	0	0	0	0	0	0	0	0	0	0	0	0	0	0	0	0	0	0	0	0	0	0	0	0	0	0	0	0	0	0	0	0	3	0	0	0	0	0
OTU 91	0	0	0	0	0	0	0	0	0	3	0	0	0	0	0	0	0	0	0	0	0	44	0	0	0	0	0	0	0	0	0	0	0	0	0	0	0	26	0	0	0	0	1	0	0	0	0	0	0	0
OTU 92	5	0	0	0	0	0	0	0	0	0	0	0	0	0	0	0	1	0	2	0	0	1	0	0	8	0	0	0	0	0	0	0	0	0	0	0	0	0	0	0	0	0	0	0	0	0	0	0	0	0
OTU 93	0	0	0	0	0	0	0	0	0	0	0	0	0	0	0	0	0	0	0	0	0	0	0	0	0	5	0	0	0	0	0	0	0	0	1	0	0	0	0	0	0	0	1	0	1	0	1	0	0	0
OTU 94	4	0	1	4	8	0	0	0	55	2	2	4	2	0	0	1	0	0	0	1	3	5	5	1	3	8	2	0	9	1	1	0	1	0	0	0	8	2	1	0	0	0	5	0	1	0	1	5	0	0
OTU 95	0	0	0	0	0	0	0	0	28	69	44	0	0	0	0	2	0	0	4	0	8	0	0	0	10	3	0	0	0	0	30	0	0	0	0	0	0	0	0	0	0	3	0	0	0	0	0	0	0	0
OTU 96	0	0	0	0	0	0	0	0	0	0	0	0	0	0	0	0	0	0	0	0	0	0	0	0	0	0	0	0	0	0	0	0	17	0	0	0	0	0	2	0	0	0	0	0	0	0	0	1	0	0
OTU 97	0	0	4	0	0	4	0	0	0	0	0	0	0	1	0	1	0	1	3	0	0	0	0	0	0	0	0	0	1	8	0	0	0	0	0	1	0	0	0	0	3	2	0	0	0	0	0	0	2	0
OTU 98	0	0	1	2	0	0	1	0	0	0	1	0	0	0	0	0	1	1	0	0	0	0	0	0	3	0	0	1	0	0	0	3	7	0	0	0	1	3	0	0	2	1	0	0	3	0	1	0	0	0
OTU 99	3	0	0	4	1	0	1	2	0	0	1	1	2	4	0	3	0	1	0	0	2	0	2	0	0	4	6	3	2	4	0	3	10	0	1	2	2	1	2	0	4	1	5	8	2	0	1	1	2	1
OTU 100	0	2	1	0	0	0	22	0	0	0	2	0	0	0	0	1	0	2	0	0	2	0	0	2	3	0	0	0	1	1	0	1	1	2	0	2	1	0	0	1	0	32	0	0	0	0	0	0	0	30
OTU 101	1	0	0	0	0	0	0	0	0	0	0	0	0	0	0	0	0	0	0	0	0	0	0	0	0	0	0	0	0	0	0	0	1	0	3	0	0	0	0	2	0	0	0	0	0	0	0	0	0	0
OTU 102	0	0	0	0	2	0	0	0	0	0	0	0	1	0	0	0	38	2	0	0	0	0	1	0	0	0	2	0	0	1	0	0	0	0	0	0	1	0	0	0	4	0	3	0	1	3	0	0	0	0
OTU 103	5	1	3	0	0	0	0	1	0	0	0	0	1	0	0	0	0	181	0	4	1	0	1	0	0	0	0	0	1	0	0	1	3	0	1	0	0	1	2	0	0	1	0	0	0	0	9	0	0	2
OTU 104	93	2	2	0	8	0	1	10	0	0	3	2	6	1	17	0	4	3	1	2	1	0	1	1	1	3	9	1	21	4	0	0	16	5	46	5	4	1	0	0	0	3	26	2	7	3	4	1	2	0
OTU 105	0	0	0	0	0	0	0	0	0	0	0	0	0	0	0	0	0	0	0	0	0	1	3	0	1	2	2	1	0	0	0	10	0	0	0	0	0	0	0	0	0	0	1	0	0	0	0	0	0	0
OTU 106	0	0	0	0	0	0	0	1	0	0	0	0	0	0	0	0	0	5	0	0	0	0	3	0	0	0	3	4	4	0	0	0	0	0	0	0	1	0	0	0	1	0	3	7	5	0	0	0	0	1
OTU 107	1	0	1	0	0	0	0	0	0	0	0	1	0	0	0	0	0	0	0	0	0	0	1	0	2	0	0	0	0	0	0	0	26	0	0	0	1	0	0	0	0	0	0	1	0	2	0	22	5	0
OTU 108	0	0	0	0	0	0	2	2	0	0	1	0	0	0	0	0	8	0	0	1	1	0	2	2	0	2	1	0	0	0	0	0	0	0	0	0	0	0	0	0	0	4	0	1	2	2	0	2	0	0
OTU 109	0	0	0	0	1	0	0	0	0	0	0	0	0	0	0	0	0	0	0	0	0	0	0	0	0	0	0	0	4	0	0	0	0	0	0	2	0	0	0	0	0	0	1	0	0	0	0	0	0	0
OTU 110	1	0	0	0	1	0	3	1	0	1	0	1	6	0	0	0	2	1	2	2	0	1	6	15	2	0	7	2	2	1	2	4	1	0	2	1	2	0	4	3	2	4	0	5	0	0	2	1	1	2
OTU 111	1	0	0	0	0	0	0	0	0	0	1	0	0	0	0	0	0	0	0	0	0	9	0	0	0	0	0	0	0	0	0	0	2	2	0	0	0	0	0	0	0	0	0	0	0	0	0	0	0	0
OTU 112	0	0	1	0	0	0	0	1	0	1	0	0	5	0	0	0	0	1	0	1	1	0	0	1	0	0	0	12	0	0	0	130	3	1	2	0	1	0	0	0	0	0	1	0	0	3	0	0	0	0
OTU 113	0	0	0	0	0	0	0	0	0	3	0	0	0	0	0	0	0	0	0	0	0	0	0	0	0	0	0	0	0	0	1	0	0	0	0	0	1	1	0	0	0	4	0	0	0	0	0	0	0	0
OTU 114	4	0	0	0	2	0	1	1	0	6	4	8	1	6	1	5	0	2	0	0	11	4	4	1	1	6	11	8	12	3	5	0	15	1	1	0	9	0	3	2	2	2	3	2	4	11	0	1	1	0
OTU 115	4	0	3	0	0	1	3	7	2	7	6	0	1	2	2	12	3	0	0	1	0	0	11	2	2	4	9	2	0	2	2	6	3	5	0	1	2	1	3	6	5	4	0	9	11	5	3	0	0	6
OTU 116	0	0	2	2	3	1	0	0	0	3	7	0	1	0	0	0	3	0	0	0	0	2	2	1	1	1	0	1	6	5	0	8	9	1	8	0	0	8	0	1	0	1	4	1	1	0	3	0	0	0
OTU 117	0	0	0	0	2	0	0	8	0	2	1	1	0	0	2	2	0	0	1	0	1	0	0	7	1	6	0	0	0	0	1	0	0	0	1	0	5	0	0	0	0	1	0	0	2	0	0	1	0	0
OTU 118	0	0	0	2	1	0	0	0	0	1	0	2	0	1	0	0	0	0	0	0	0	0	0	1	0	8	0	0	0	1	0	0	0	0	1	1	0	0	0	0	0	0	0	0	0	0	1	0	0	0
OTU 119	0	1	1	0	1	0	0	3	1	3	0	0	0	0	0	0	9	1	0	1	0	0	0	2	0	2	0	2	1	1	1	1	1	1	0	0	0	8	1	1	0	1	1	0	0	3	0	0	0	0
OTU 120	0	0	1	1	0	2	0	1	0	1	16	0	1	0	11	3	0	0	1	0	0	0	0	0	1	0	1	0	0	2	0	1	0	13	0	0	0	0	0	0	0	0	0	0	0	0	0	0	1	0
OTU 121	0	0	1	4	2	1	1	0	0	2	0	1	0	0	0	0	3	0	1	0	1	0	3	0	0	4	1	0	6	5	0	0	0	0	0	0	0	0	0	1	1	3	0	5	0	0	0	0	0	2
OTU 122	1	0	0	0	0	0	1	0	1	2	0	0	0	1	1	2	1	0	0	0	0	2	6	0	1	3	4	2	1	0	0	0	7	2	2	0	3	0	1	0	1	0	1	14	1	0	0	0	0	0
OTU 123	16	3	6	3	6	0	3	6	0	6	6	9	2	2	2	1	2	1	0	3	14	5	7	5	2	1	11	5	12	0	2	2	7	6	0	4	7	14	16	3	5	4	6	10	9	31	9	19	7	0
OTU 124	0	0	0	0	0	0	0	8	0	3	0	0	0	0	1	0	0	1	0	0	0	0	0	3	0	0	0	0	0	0	1	0	0	0	0	0	4	0	0	0	0	0	0	0	1	2	0	0	0	0
OTU 125	5	3	1	0	1	0	1	8	0	36	0	3	35	3	0	7	13	1	8	2	7	1	1	0	6	3	10	15	6	1	17	1	5	0	6	0	5	3	2	0	1	3	8	5	17	5	7	5	3	3
OTU 126	0	0	0	0	15	0	2	0	0	0	0	0	0	0	0	0	0	0	0	2	0	1	1	0	0	4	0	0	13	0	0	0	0	0	0	0	0	13	0	0	0	1	0	0	0	0	1	0	0	0
OTU 127	0	1	0	0	0	0	0	0	0	1	0	4	6	0	0	1	0	0	65	0	4	0	0	1	0	1	0	1	0	1	0	0	1	3	1	0	0	2	0	0	0	0	2	1	0	0	0	0	1	0
OTU 128	7	4	11	7	9	3	37	6	1	13	8	10	8	10	0	8	14	14	5	7	13	4	4	9	12	19	14	17	9	17	27	9	6	1	0	2	12	9	10	34	28	77	125	1	24	28	10	1	9	46
OTU 129	0	0	0	0	0	0	0	0	0	0	0	0	0	0	0	0	0	0	0	0	0	5	0	0	0	0	0	0	0	0	0	2	0	0	0	0	0	0	2	0	0	1	0	0	0	0	0	0	0	0
OTU 130	0	0	0	0	0	0	0	0	0	0	0	0	0	0	0	0	0	0	0	0	0	0	1	2	3	3	3	0	0	0	0	0	1	0	0	0	1	6	1	0	4	2	2	1	5	3	0	1	0	0
OTU 131	0	0	0	0	0	1	0	3	0	4	7	0	2	0	3	0	0	5	0	0	0	2	4	0	0	11	0	0	1	0	0	0	1	15	0	1	6	0	0	0	2	0	1	0	0	0	0	31	4	0
OTU 132	0	0	0	0	0	0	0	6	0	6	0	0	0	0	0	0	2	0	0	0	0	1	1	0	1	3	0	0	0	0	1	0	0	0	0	0	0	0	0	1	0	0	2	0	1	0	2	0	0	0
OTU 133	0	0	2	0	0	0	0	1	0	0	0	0	0	0	0	0	0	0	0	0	0	0	0	0	0	0	0	0	0	0	0	1	2	0	0	0	0	0	0	0	0	1	0	0	0	0	3	0	0	0
OTU 134	4	0	0	2	0	0	0	1	0	1	0	0	0	0	1	0	2	0	0	0	0	2	5	1	1	0	0	1	0	0	82	4	0	0	0	0	2	0	7	0	0	0	1	3	5	6	0	0	0	2
OTU 135	3	0	4	1	1	0	0	1	0	0	0	0	1	0	0	46	22	1	28	0	0	4	2	2	2	4	6	0	0	1	0	3	5	2	2	0	0	0	42	0	2	1	0	0	1	10	3	4	0	0
OTU 136	0	0	0	0	0	0	0	1	0	0	4	0	0	0	1	0	0	0	0	0	0	0	0	0	0	0	0	0	1	0	0	0	0	2	0	0	0	1	0	1	0	0	1	0	0	1	1	1	0	0
OTU 137	1	0	0	0	0	0	0	4	1	0	0	0	0	1	0	0	0	0	0	0	0	80	0	0	0	0	0	0	0	0	0	0	0	0	0	0	0	0	0	1	0	0	0	0	2	0	0	0	0	4
OTU 138	0	0	0	0	0	0	0	0	3	14	0	0	0	0	0	1	0	0	0	0	0	0	0	0	0	1	0	0	0	0	6	0	0	0	0	0	0	0	0	1	0	0	0	0	0	0	9	4	0	0
OTU 139	0	2	0	6	4	0	5	2	1	3	0	5	3	0	1	3	0	1	3	0	3	0	4	1	23	10	3	3	2	0	3	2	7	1	4	0	1	1	0	12	0	11	11	2	3	0	3	3	0	2
OTU 140	4	0	8	2	0	12	3	1	3	0	0	4	5	4	0	2	3	0	1	8	4	8	7	1	0	15	22	7	0	10	48	9	2	5	3	0	2	5	3	2	6	9	4	34	11	21	6	8	0	3
OTU 141	0	0	0	0	0	0	0	0	0	1	0	0	0	0	0	0	0	0	0	0	0	0	0	0	1	0	0	0	0	0	0	0	0	0	0	0	0	0	0	4	0	0	0	0	0	0	0	0	0	0
OTU 142	0	0	0	0	0	0	0	0	0	0	0	0	0	0	0	0	0	0	0	0	0	0	0	2	0	0	0	0	0	0	0	0	0	0	0	0	0	0	0	0	0	0	1	2	0	2	0	0	0	0
OTU 143	0	0	0	0	1	0	0	0	0	0	0	0	1	0	0	0	0	0	0	0	0	0	0	0	1	0	0	0	0	0	2	0	0	0	0	0	0	0	0	0	1	0	0	3	0	0	0	0	0	0
OTU 144	0	0	0	0	2	0	0	0	0	1	0	0	2	0	0	0	0	0	0	1	0	0	0	0	0	0	0	0	1	0	0	0	0	0	0	0	0	0	1	0	0	0	4	0	0	1	0	0	0	0
OTU 145	1	1	1	3	1	0	3	1	0	8	0	1	2	1	0	2	3	1	1	59	0	7	1	8	3	7	0	0	1	0	1	0	4	2	4	43	0	0	0	2	0	10	0	2	4	0	1	8	76	0
OTU 146	0	0	0	1	0	0	2	2	1	0	0	0	2	2	0	0	2	3	0	4	1	0	4	0	4	5	6	1	0	0	0	3	5	0	0	0	6	3	0	1	4	2	0	6	0	0	0	0	3	0
OTU 147	0	0	0	1	0	0	0	1	0	0	2	3	3	0	0	0	0	1	5	0	5	0	0	1	1	3	0	0	2	0	0	6	0	0	0	0	0	0	0	0	0	0	0	1	0	0	0	2	0	0
OTU 148	0	1	2	0	0	0	0	1	0	1	1	6	2	1	0	1	0	0	0	0	7	5	0	15	1	0	4	0	3	2	0	0	15	1	0	0	0	1	4	1	0	0	1	1	1	2	0	6	1	0
OTU 149	0	0	0	1	0	0	0	0	0	0	1	0	12	0	0	0	1	0	0	0	2	0	0	0	2	0	0	0	0	0	0	3	0	0	1	0	0	0	0	0	0	0	0	0	0	0	0	0	0	0
OTU 150	0	1	0	0	0	0	0	0	0	0	0	0	0	0	0	0	0	0	0	0	0	0	2	0	0	9	0	0	1	0	1	0	0	0	1	0	0	0	3	0	1	0	0	3	2	1	1	5	0	0
OTU 151	0	0	0	1	45	0	2	2	0	1	0	0	4	1	0	1	0	0	1	0	0	0	0	0	6	1	0	0	79	1	0	2	1	1	1	3	0	0	0	2	1	1	3	1	0	0	0	0	0	0
OTU 152	0	2	0	1	0	0	0	4	0	2	3	3	0	138	0	1	0	0	0	1	3	0	0	0	9	9	4	2	2	4	7	0	0	1	3	0	0	11	0	0	1	1	0	6	3	2	0	0	1	0
OTU 153	0	0	0	0	0	0	0	0	0	0	1	4	0	0	0	0	0	0	0	0	0	0	0	0	0	0	0	0	0	0	0	0	0	0	0	0	0	0	0	0	0	0	0	0	0	0	0	0	0	0
OTU 154	0	0	0	0	0	0	0	0	0	1	0	0	0	0	0	0	0	0	1	0	1	0	0	11	0	0	2	0	0	0	2	0	0	0	0	1	0	0	0	0	0	0	0	0	0	0	0	0	2	0
OTU 155	0	1	0	0	0	0	0	0	0	0	0	0	1	1	0	0	67	0	0	0	0	0	0	1	2	0	0	0	0	0	0	0	0	0	0	0	0	0	0	1	1	0	0	0	0	0	0	0	0	2
OTU 156	0	0	0	1	0	1	0	12	2	3	1	4	8	0	1	3	2	1	5	1	2	3	1	6	2	6	7	2	3	0	2	1	0	0	1	1	5	2	0	0	0	0	0	1	7	1	0	0	0	0
OTU 157	0	1	0	8	0	0	0	2	6	0	2	0	0	0	0	0	0	0	3	2	0	0	1	0	0	3	0	1	0	0	0	4	2	0	0	0	4	0	0	0	0	0	0	0	0	0	0	0	0	0
OTU 158	0	0	0	0	0	0	0	0	0	0	2	0	1	0	0	0	1	0	0	0	0	1	0	0	0	0	0	0	0	0	0	0	0	0	0	0	0	0	0	0	0	0	0	0	0	1	0	0	0	0
OTU 159	0	1	0	0	0	0	0	9	0	0	0	0	2	0	0	1	0	0	2	1	1	0	0	1	2	8	0	0	1	1	0	0	4	0	1	0	34	4	2	0	0	0	2	0	0	2	1	55	0	0
OTU 160	13	0	0	1	5	0	0	7	1	3	3	1	8	0	1	7	4	0	13	2	5	1	5	8	1	5	10	2	0	3	2	13	4	2	2	2	7	1	0	0	0	0	3	6	1	1	1	8	4	2
OTU 161	0	3	0	2	0	0	2	1	2	0	1	0	1	1	2	0	1	2	0	1	0	1	1	0	0	0	2	0	0	3	1	4	1	1	0	0	0	0	0	0	1	2	0	4	1	5	0	6	0	2
OTU 162	0	0	0	5	1	0	2	15	2	1	8	2	3	0	0	0	0	0	0	1	2	0	2	1	2	7	1	6	0	1	1	0	0	0	0	2	0	0	0	1	0	0	2	0	0	0	3	3	0	3
OTU 163	0	0	0	0	102	0	0	0	0	0	0	0	1	0	0	0	0	0	0	0	0	0	1	0	0	0	0	0	0	0	0	0	0	0	0	0	0	0	0	1	0	0	0	1	0	0	0	0	0	0
OTU 164	0	0	0	0	0	0	2	0	1	0	0	0	0	0	0	7	0	0	0	0	0	0	0	0	0	0	0	0	0	0	0	0	0	0	0	0	0	0	0	0	0	0	0	0	0	0	0	0	0	0
OTU 165	0	1	0	0	0	0	0	2	2	4	2	1	0	0	1	0	6	0	0	0	5	2	0	0	1	4	0	0	0	0	1	0	5	0	0	1	2	2	2	1	1	0	0	0	0	2	0	2	0	0
OTU 166	15	0	0	0	1	0	0	0	0	0	0	0	0	0	0	0	0	0	0	0	0	0	0	0	0	0	0	0	0	0	0	0	0	0	0	0	0	0	0	0	0	0	0	0	0	0	0	0	0	0
OTU 167	1	1	1	1	0	0	0	1	124	0	0	0	2	0	0	1	0	0	0	0	0	0	5	0	0	1	1	0	0	0	0	3	0	1	0	0	0	0	0	0	0	0	0	0	0	0	5	0	0	0
OTU 168	13	0	1	1	2	1	0	0	0	1	0	0	1	0	0	3	0	0	2	2	1	0	0	4	0	1	0	0	2	1	0	0	0	0	2	0	5	0	0	0	0	0	0	2	0	0	0	0	6	0
OTU 169	0	1	0	0	0	0	0	4	0	0	0	0	0	0	0	0	0	0	0	0	2	0	0	0	0	0	0	0	0	0	0	0	0	0	0	0	0	0	0	0	0	0	0	0	0	0	0	0	0	0
OTU 170	0	0	0	0	2	0	0	0	0	0	0	0	0	0	0	0	0	0	0	0	0	0	0	0	0	0	0	0	2	0	0	1	2	0	0	0	0	0	0	0	0	0	9	0	0	0	0	0	0	0
OTU 171	0	0	0	1	0	0	1	0	1	1	0	1	1	0	0	0	0	0	7	3	3	0	4	8	0	0	0	0	2	3	0	1	0	1	1	0	1	1	0	0	1	0	0	2	0	2	0	0	0	3
OTU 172	0	0	0	0	0	1	0	0	0	0	0	0	0	1	0	0	0	0	0	0	0	0	3	0	0	0	8	0	0	0	0	5	0	1	0	1	0	0	0	0	0	0	0	0	0	0	0	0	3	0
OTU 173	0	0	0	0	0	0	0	0	0	0	0	0	1	0	0	0	1	0	0	0	0	1	0	1	0	0	0	0	0	0	0	0	0	0	4	0	4	0	0	0	0	0	0	0	0	0	0	1	0	0
OTU 174	0	4	0	5	0	0	0	0	0	1	0	5	0	1	0	1	2	0	0	9	2	0	2	5	10	0	0	1	0	0	0	0	2	1	1	8	0	0	0	3	0	0	1	3	3	0	0	20	10	0
OTU 175	1	0	0	4	0	0	0	0	0	0	6	0	0	0	0	0	0	2	0	0	0	1	0	1	0	0	0	0	1	0	0	1	4	1	0	0	0	0	1	0	0	0	2	0	0	1	0	0	0	2
OTU 176	0	0	0	0	0	0	0	2	1	3	1	4	1	0	1	5	12	3	2	0	5	1	2	0	4	3	5	5	1	2	5	1	0	5	0	1	2	4	0	7	1	0	0	0	1	0	0	2	2	0
OTU 177	4	4	0	1	7	0	0	1	0	4	4	5	3	1	0	1	0	1	0	1	5	0	0	0	1	2	0	0	4	0	0	1	2	2	0	1	2	4	2	0	2	0	1	1	3	0	0	0	3	1
OTU 178	0	0	0	1	0	0	0	0	0	0	0	0	3	0	0	0	5	1	0	0	0	0	0	1	3	1	0	0	0	2	1	0	0	1	1	0	0	0	0	19	0	0	1	5	0	0	6	0	0	0
OTU 179	0	0	0	0	0	0	1	2	0	0	0	0	0	0	0	5	0	0	2	0	0	5	0	1	0	0	0	0	0	0	0	1	0	1	0	0	0	0	2	0	0	2	0	3	0	1	0	2	0	0
OTU 180	1	3	2	10	15	0	10	9	0	2	3	2	3	4	1	6	6	4	1	0	3	3	2	0	5	8	5	10	28	3	3	4	3	3	4	0	5	1	1	6	1	21	0	5	0	0	16	7	5	6
OTU 181	0	4	0	0	3	0	89	25	0	4	0	8	1	0	0	0	1	1	0	0	2	0	0	0	3	1	0	0	3	1	4	0	0	0	2	1	2	0	0	0	0	0	0	5	2	0	0	0	0	0
OTU 182	0	0	0	0	0	0	0	0	0	0	0	0	0	0	0	0	0	0	0	0	0	0	0	0	0	0	0	0	0	0	0	0	0	0	0	0	0	0	0	0	0	0	1	0	0	0	0	0	0	0
OTU 183	0	1	2	3	0	0	0	1	3	10	0	2	1	2	0	0	0	3	4	0	18	14	0	1	0	0	3	3	0	0	6	7	5	1	0	1	0	2	0	1	3	1	1	0	0	5	0	4	0	0
OTU 184	0	0	0	0	0	0	0	0	0	0	0	0	0	0	0	0	1	0	0	0	1	0	0	2	1	0	0	0	0	0	2	0	0	0	0	0	5	0	0	0	0	0	1	0	1	0	0	3	1	2
OTU 185	3	1	0	1	0	0	0	1	3	2	9	0	0	53	0	2	0	42	28	0	4	0	1	0	2	2	0	0	1	1	2	0	4	1	0	2	1	1	0	3	74	0	0	6	2	1	0	4	1	1
OTU 186	0	0	0	1	0	0	0	4	0	0	0	1	0	0	0	105	0	0	0	0	2	0	0	1	0	0	0	6	0	0	0	0	0	0	0	0	0	0	0	0	0	0	1	0	0	0	0	0	0	0
OTU 187	0	4	2	0	3	4	0	5	0	1	0	1	4	0	0	2	0	0	5	2	5	2	2	0	4	0	1	4	0	1	1	1	1	0	0	1	2	4	1	3	0	2	1	4	3	4	9	2	2	9
OTU 188	3	3	1	1	0	0	1	1	1	0	6	1	3	1	0	9	0	0	1	2	2	0	1	6	3	0	5	5	1	3	1	4	0	0	1	1	4	2	0	4	1	2	1	0	1	1	1	0	2	150
OTU 189	1	1	0	5	0	0	1	2	1	2	31	2	0	2	0	1	2	2	0	0	2	46	1	3	0	0	0	1	0	1	3	4	3	0	2	0	6	2	0	1	1	1	0	2	1	2	1	1	0	0
OTU 190	0	0	1	0	0	0	0	0	0	0	0	1	23	0	0	0	0	0	2	24	0	0	0	0	0	0	0	0	4	3	0	0	0	0	0	16	0	0	0	0	0	0	3	0	0	0	0	3	40	0
OTU 191	5	1	0	1	0	0	9	6	0	6	0	0	1	0	0	1	2	0	0	0	2	3	2	3	1	1	0	1	0	0	0	1	0	0	0	2	9	4	1	3	2	2	4	0	8	1	22	0	0	0
OTU 192	2	2	4	52	1	1	5	9	1	0	0	5	2	0	0	29	0	2	21	0	5	3	14	0	0	1	7	1	3	7	0	4	0	2	0	2	2	1	7	0	1	6	2	8	1	6	0	5	2	1
OTU 193	0	0	0	1	0	0	0	8	0	0	6	0	0	1	0	1	3	0	2	2	0	0	0	4	6	0	6	13	1	0	1	1	0	0	0	1	3	2	1	2	0	0	0	2	0	1	0	0	1	0
OTU 194	0	0	0	0	1	0	0	0	1	0	0	0	0	0	0	1	0	0	0	0	0	1	0	0	3	0	1	0	0	0	0	2	2	0	0	0	0	0	0	0	0	0	0	0	0	0	0	0	0	0
OTU 195	0	1	0	2	2	0	0	3	0	0	2	3	4	0	0	2	2	0	0	0	0	0	0	0	1	2	4	2	1	0	0	4	5	0	0	1	1	0	0	0	0	0	0	0	8	5	14	1	0	1
OTU 196	0	0	0	1	0	0	0	0	0	0	1	0	1	0	0	0	1	1	2	0	1	3	10	0	1	0	0	3	0	0	0	1	0	0	1	1	0	4	0	0	0	0	2	2	1	1	0	4	4	1
OTU 197	27	0	3	0	0	7	1	4	6	7	2	1	9	2	1	0	2	1	0	2	2	2	5	11	9	4	2	1	9	2	8	8	3	1	8	0	1	1	3	0	4	2	0	8	7	2	1	1	5	0
OTU 198	5	0	0	0	2	0	1	0	0	0	0	0	0	0	0	0	0	0	1	0	0	0	0	0	6	3	0	0	1	0	0	0	0	0	0	0	0	0	0	0	0	0	1	0	0	0	0	0	0	2
OTU 199	0	0	0	111	0	0	0	2	0	2	1	0	1	0	0	0	0	0	1	1	1	0	2	0	7	0	0	0	0	0	0	0	0	0	0	2	0	0	0	0	0	0	0	0	0	0	5	0	0	0
OTU 200	2	2	0	1	0	1	0	8	0	1	0	3	0	0	0	0	4	0	3	0	3	4	0	2	2	1	1	1	3	0	3	0	0	1	0	0	3	0	0	3	0	1	1	1	2	1	0	0	0	0
