	Host 1	Host 2	Host 3	Host 4	Host 5	Host 6	Host 7	Host 8	Host 9	Host 10	Host 11	Host 12	Host 13	Host 14	Host 15	Host 16	Host 17	Host 18	Host 19	Host 20	Host 21	Host 22	Host 23	Host 24	Host 25	Host 26	Host 27	Host 28	Host 29	Host 30	Host 31	Host 32	Host 33	Host 34	Host 35	Host 36	Host 37	Host 38	Host 39	Host 40	Host 41	Host 42	Host 43	Host 44	Host 45	Host 46	Host 47	Host 48	Host 49	Host 50	
OTU 1	0	2	0	12	0	3	2	9	1	1	9	1	1	1	0	3	3	4	11	13	3	6	2	7	0	33	10	0	4	18	17	15	0	2	0	1	2	3	0	0	3	2	0	0	11	0	1	3	5	3
OTU 2	1	2	0	0	10	0	1	0	0	1	0	0	1	1	0	0	0	0	0	0	0	2	0	0	0	7	0	0	0	0	0	0	0	0	0	0	3	0	7	1	0	0	0	0	0	0	0	0	0	0
OTU 3	0	0	0	0	0	0	0	0	2	0	0	0	0	6	1	0	0	0	0	0	0	0	0	0	0	0	1	0	0	0	0	0	0	0	0	0	0	0	0	0	0	0	0	0	0	5	0	0	0	56
OTU 4	0	0	0	0	0	0	0	0	0	0	0	0	0	0	0	0	0	0	0	0	0	0	0	0	0	0	0	0	0	0	0	0	0	0	0	0	0	0	0	0	0	0	0	0	0	0	0	0	0	0
OTU 5	12	2	20	7	0	5	76	27	24	12	36	20	42	0	59	0	46	1	44	16	6	36	9	39	9	32	4	0	0	26	2	35	12	3	30	26	2	3	1	52	17	30	17	13	0	13	13	1	63	41
OTU 6	0	0	0	2	0	0	1	10	4	4	3	1	0	0	0	0	0	0	13	4	2	4	0	0	1	17	15	0	0	9	0	7	0	0	0	0	2	1	1	1	0	0	0	0	0	1	46	0	2	0
OTU 7	36	4	9	3	2	6	11	1	1	5	16	1	11	6	6	8	5	8	2	0	1	2	6	24	0	4	0	0	5	7	0	0	1	2	1	0	1	2	2	8	7	32	9	1	7	2	3	4	0	0
OTU 8	15	0	4	2	10	0	10	4	2	6	6	2	3	7	4	15	4	6	26	5	3	1	0	0	0	7	0	1	4	5	11	0	1	2	2	1	2	1	1	1	0	1	3	0	6	1	8	11	0	2
OTU 9	0	0	0	0	0	0	2	1	0	2	0	0	0	0	0	0	0	0	0	0	0	0	8	0	0	0	1	1	0	0	0	0	0	0	3	0	0	0	1	0	0	0	1	1	0	1	0	1	0	0
OTU 10	0	2	0	0	0	0	0	0	0	1	0	0	0	0	0	0	0	3	0	0	6	0	0	0	0	0	0	0	0	0	0	0	0	0	0	0	1	3	2	0	0	0	0	0	5	0	3	0	0	0
OTU 11	0	12	1	1	2	1	8	1	0	1	7	6	0	15	4	11	2	0	0	4	2	0	1	1	6	2	0	0	1	0	0	0	0	0	62	0	3	4	2	4	0	2	2	1	1	1	1	2	1	0
OTU 12	4	0	10	1	6	6	0	0	0	5	0	13	1	4	0	1	1	2	0	3	3	0	0	0	0	0	0	8	0	1	2	3	2	0	0	1	1	1	4	0	0	0	3	1	3	8	5	0	0	0
OTU 13	0	0	0	0	0	0	0	0	0	0	0	0	0	0	0	0	0	0	0	0	0	0	0	0	0	0	0	0	0	0	0	0	1	0	0	0	0	0	0	0	0	0	0	0	0	0	0	0	0	0
OTU 14	0	0	6	0	0	2	0	0	0	0	1	7	0	1	0	0	2	7	0	0	0	0	0	0	0	2	0	0	2	0	3	3	0	0	0	1	0	0	0	0	0	0	3	0	0	0	1	0	0	23
OTU 15	0	0	0	0	0	0	0	0	0	0	1	0	0	0	0	0	0	0	0	0	0	0	0	0	0	0	0	0	0	0	0	0	0	0	0	0	0	0	0	0	3	0	0	0	0	0	0	0	0	0
OTU 16	0	0	0	0	0	0	0	0	0	0	0	0	0	0	0	0	0	0	0	0	0	0	0	0	0	0	0	0	0	0	0	0	0	0	0	0	0	0	0	0	0	0	0	0	0	0	0	0	0	0
OTU 17	0	0	1	0	0	5	0	0	0	0	0	0	1	2	1	0	4	3	0	0	0	1	0	0	0	0	0	0	1	0	0	2	0	0	0	1	0	0	0	3	1	1	0	0	0	0	2	0	0	0
OTU 18	0	0	0	1	5	0	1	0	0	1	1	67	0	0	3	0	1	2	0	0	0	1	0	0	2	1	1	0	4	0	3	0	3	9	1	0	1	1	0	0	0	10	0	0	0	1	3	14	0	1
OTU 19	0	0	0	0	0	0	0	0	0	0	0	0	0	0	0	0	0	0	0	0	0	0	0	0	0	0	0	0	2	0	0	0	0	0	0	0	0	0	0	0	0	0	0	0	0	0	0	0	0	0
OTU 20	0	1	0	3	0	3	0	0	0	2	6	0	8	1	1	1	1	1	1	0	2	0	143	0	0	0	0	2	0	0	0	0	0	3	2	0	3	2	0	2	1	2	0	0	2	0	0	8	1	0
OTU 21	3	11	1	0	3	0	0	1	0	0	1	1	0	4	0	2	1	3	0	1	2	0	0	0	3	0	1	3	1	9	3	0	0	6	1	1	4	0	1	1	0	0	0	0	2	1	3	3	1	4
OTU 22	7	0	4	0	6	0	3	0	0	0	2	20	2	1	0	0	1	4	1	0	0	0	2	4	0	1	0	0	2	0	1	0	1	3	0	0	0	1	2	3	75	0	3	1	2	0	1	7	0	0
OTU 23	1	0	0	4	1	0	2	0	0	1	0	0	0	1	7	1	0	4	4	85	0	0	0	0	0	8	2	2	0	1	3	1	3	1	0	0	0	0	0	0	0	0	0	0	0	1	1	2	33	5
OTU 24	0	5	1	0	0	0	1	0	0	0	0	0	0	0	0	2	0	2	0	0	0	0	1	1	0	0	0	0	0	0	0	0	0	0	0	0	0	0	0	0	0	0	14	0	0	0	0	0	0	0
OTU 25	0	0	0	0	0	0	0	0	0	0	0	0	0	0	0	0	0	0	0	0	0	0	0	0	0	0	0	0	0	0	0	0	0	0	0	0	0	0	0	0	0	0	0	0	0	0	0	2	0	0
OTU 26	0	0	0	0	0	0	2	0	0	0	3	0	2	0	0	0	1	0	0	0	0	0	0	1	0	0	0	0	2	0	0	0	0	0	0	1	0	0	0	5	0	0	0	0	0	0	0	0	0	0
OTU 27	1	0	0	0	0	0	0	0	0	3	0	0	0	0	0	0	0	0	0	0	0	0	0	0	0	0	0	0	0	0	0	0	0	0	0	0	0	0	0	0	0	0	0	0	0	0	0	0	0	0
OTU 28	1	1	4	0	7	1	1	0	0	2	3	2	3	0	2	4	3	0	2	1	0	10	1	1	1	3	3	1	1	2	3	0	2	0	0	0	0	0	2	0	0	0	1	1	0	1	2	0	0	0
OTU 29	1	11	0	0	0	1	1	0	0	1	13	6	0	0	2	6	1	2	0	0	1	2	1	0	1	0	0	1	0	0	5	2	1	4	2	2	0	5	2	0	1	6	2	2	16	7	2	7	0	2
OTU 30	0	0	0	0	0	0	0	0	0	0	0	0	0	0	0	0	0	0	0	0	0	0	0	0	0	0	0	0	0	0	0	0	0	0	0	0	0	0	0	0	0	0	0	0	0	0	0	0	0	1
OTU 31	0	0	1	0	0	0	0	0	0	0	1	0	0	0	1	0	2	0	0	0	0	1	1	1	1	0	0	1	0	0	0	0	0	1	0	0	0	0	0	1	0	1	0	0	0	0	4	4	0	0
OTU 32	6	0	0	0	3	0	0	2	0	2	21	0	12	3	11	5	16	4	0	1	5	1	0	1	2	0	0	5	2	0	0	1	1	26	0	9	0	2	3	8	3	2	4	4	1	3	0	29	0	0
OTU 33	0	0	0	0	5	0	0	0	0	0	0	0	0	4	0	0	0	0	0	0	0	0	0	0	0	0	0	0	0	0	0	0	0	0	0	1	0	0	0	0	0	1	0	0	0	0	0	0	0	0
OTU 34	1	0	2	0	7	1	0	0	1	30	0	0	0	3	1	11	1	1	0	3	2	0	0	1	0	0	3	0	2	1	0	0	1	61	1	1	1	1	3	3	0	1	0	0	0	0	0	5	0	0
OTU 35	1	0	1	3	1	16	1	2	0	2	1	12	0	1	0	0	0	24	1	0	1	0	2	1	3	6	2	6	1	5	12	1	20	2	0	1	2	0	0	0	0	0	0	0	2	0	7	3	0	5
OTU 36	0	0	2	0	0	0	0	1	0	6	0	1	1	0	1	1	0	2	0	1	0	0	1	11	0	2	1	0	6	0	0	0	2	97	2	0	0	4	1	0	1	0	2	0	2	6	2	6	0	0
OTU 37	0	0	1	0	0	0	0	0	0	0	0	1	0	0	2	0	0	1	0	0	0	0	0	0	0	0	0	0	3	0	0	0	1	0	1	0	0	0	0	0	1	0	0	0	0	0	0	1	0	0
OTU 38	6	2	1	0	0	0	0	1	0	0	0	0	0	13	0	2	1	0	0	0	0	0	0	1	0	1	0	6	0	1	0	0	0	1	1	0	0	90	36	21	0	0	2	1	0	0	0	0	0	0
OTU 39	0	0	0	0	0	0	0	0	24	0	2	0	0	0	0	2	0	0	0	0	0	0	0	4	0	0	0	0	2	0	0	0	0	0	1	0	0	0	0	0	1	1	0	0	1	0	0	0	0	0
OTU 40	0	16	0	0	1	0	0	0	0	7	4	0	0	1	1	7	3	0	0	0	1	0	3	15	1	1	0	1	1	0	1	0	0	5	3	0	0	0	0	4	4	7	1	1	4	2	0	4	0	2
OTU 41	0	1	1	0	26	1	0	1	0	3	1	3	0	1	1	0	1	1	0	2	0	2	4	2	0	1	0	6	2	6	9	3	1	0	0	0	0	1	7	2	0	8	7	0	2	3	5	0	1	5
OTU 42	0	2	0	0	0	0	0	1	0	0	0	0	0	0	2	0	1	0	0	0	0	0	0	0	3	0	0	0	0	3	4	0	0	3	0	1	0	0	0	1	0	0	3	2	0	0	0	5	0	4
OTU 43	0	0	0	0	0	0	0	0	0	0	0	0	0	0	0	0	0	0	0	0	0	0	0	0	0	0	0	0	0	0	0	0	0	0	0	0	0	0	0	0	0	0	7	0	0	0	0	0	0	0
OTU 44	5	0	0	0	2	0	0	0	0	0	0	0	0	4	0	1	0	0	0	0	0	3	1	0	0	0	0	4	0	0	2	0	0	0	0	0	0	0	0	0	1	0	0	0	1	0	0	0	0	0
OTU 45	7	6	3	3	1	0	0	0	16	2	0	1	4	1	0	1	0	3	0	0	1	70	3	0	0	3	0	0	3	0	2	45	0	1	0	0	0	0	0	3	0	5	1	4	1	5	2	1	0	1
OTU 46	1	0	1	0	1	0	5	0	105	1	0	4	0	5	1	4	0	3	0	0	2	1	3	3	0	5	0	1	1	0	0	0	0	0	0	0	0	1	2	0	1	5	0	0	4	1	6	1	1	0
OTU 47	0	0	0	0	0	0	0	0	0	0	0	0	0	0	3	0	0	0	2	0	0	0	2	0	0	1	0	0	0	0	1	0	0	0	0	0	0	0	0	0	0	1	0	0	0	0	0	0	0	0
OTU 48	0	0	0	0	2	0	1	0	0	1	1	1	0	1	0	0	1	2	1	0	1	0	17	0	0	0	0	0	8	0	3	2	4	0	30	1	0	1	0	1	0	0	3	0	5	1	2	2	0	1
OTU 49	2	1	0	0	0	1	0	0	0	0	0	1	0	0	0	0	0	4	0	0	0	1	0	0	4	0	0	2	31	1	0	0	0	0	0	0	0	0	0	2	0	0	0	0	2	0	1	1	0	0
OTU 50	1	0	1	8	0	6	74	15	0	2	2	0	3	4	2	1	0	5	18	19	0	13	3	3	1	57	3	0	2	38	4	1	0	0	3	0	0	5	1	2	0	5	3	0	2	1	0	0	7	5
OTU 51	0	2	0	0	0	0	2	0	0	0	0	13	0	1	0	0	0	0	0	0	0	0	1	0	0	0	0	1	4	0	0	0	0	4	0	0	0	2	2	1	0	7	5	0	1	10	0	4	0	0
OTU 52	1	1	3	2	4	5	13	0	0	3	4	0	1	4	1	0	3	5	16	5	2	10	0	4	0	24	0	2	3	11	6	1	0	0	0	0	0	1	0	3	0	2	16	1	7	1	36	2	4	3
OTU 53	0	0	0	0	0	0	0	0	0	0	0	0	0	0	0	0	0	0	0	0	0	0	0	0	0	0	0	0	0	0	0	0	0	0	0	0	0	0	0	0	0	0	0	0	0	0	0	0	0	0
OTU 54	2	21	0	0	8	0	6	1	0	0	73	3	10	1	8	4	37	3	1	0	7	0	5	6	1	3	1	3	4	0	5	0	2	0	7	16	1	6	4	24	6	2	2	16	5	3	1	1	69	3
OTU 55	0	0	0	0	0	0	0	0	0	0	0	0	0	0	0	0	0	0	0	0	0	0	0	0	0	0	0	0	0	1	0	0	0	0	0	0	0	0	0	0	0	0	0	0	0	0	0	0	0	0
OTU 56	0	0	2	0	6	0	0	1	0	0	0	0	0	0	0	1	88	0	0	0	0	0	1	0	0	0	1	0	0	0	1	1	0	0	7	50	0	0	0	0	4	0	0	50	10	0	0	1	0	0
OTU 57	3	0	6	1	1	7	4	0	0	2	3	1	2	6	3	3	0	12	2	0	0	1	4	1	5	2	3	0	4	1	5	0	16	3	0	1	4	1	0	4	5	5	1	0	4	10	4	4	1	4
OTU 58	0	0	2	0	0	0	1	0	0	0	0	1	7	0	0	3	0	0	0	0	0	0	0	3	7	0	0	11	0	1	0	0	0	0	0	0	0	0	2	0	1	0	0	0	0	3	3	0	0	0
OTU 59	0	0	0	0	0	1	3	0	0	2	1	0	0	2	0	10	0	1	2	2	3	0	0	0	1	3	2	5	0	0	0	0	8	0	1	0	1	0	0	0	2	0	0	0	3	0	4	0	0	0
OTU 60	17	0	2	1	6	2	1	0	1	0	3	4	1	3	0	0	3	0	0	0	2	0	1	3	0	4	0	3	0	0	5	0	0	3	4	0	0	1	0	5	0	0	6	2	1	0	12	2	1	5
OTU 61	1	0	15	1	13	0	4	27	0	2	0	4	10	2	8	5	1	7	39	2	2	1	0	5	0	0	0	0	12	0	4	0	40	8	47	0	0	0	2	1	0	7	2	1	1	4	0	20	0	2
OTU 62	0	2	0	0	0	0	0	0	1	2	0	0	0	3	0	0	0	0	0	0	0	0	1	0	0	0	0	2	8	0	0	0	0	0	0	0	1	0	0	2	0	1	0	0	0	1	2	1	0	0
OTU 63	0	0	0	0	2	1	0	0	0	2	5	0	0	0	0	1	0	0	1	0	3	0	0	0	2	0	0	0	0	1	1	0	1	0	0	0	5	0	0	0	1	0	0	0	0	0	0	0	0	1
OTU 64	2	2	1	2	9	5	1	38	26	2	4	7	0	1	6	5	1	3	58	0	8	6	6	0	1	0	0	0	7	2	1	47	4	0	1	1	1	1	6	0	2	3	15	2	3	6	1	2	0	1
OTU 65	0	0	0	0	0	0	0	0	0	0	0	0	0	0	5	0	1	0	0	0	0	0	0	0	0	0	0	0	0	0	0	0	0	0	0	0	0	0	3	0	0	0	0	1	0	0	0	0	0	0
OTU 66	0	1	2	0	17	0	1	0	1	2	1	1	0	0	0	9	2	0	2	0	0	0	2	3	1	5	0	2	0	0	1	6	1	2	0	0	1	4	0	0	1	0	0	0	0	3	0	11	0	2
OTU 67	0	3	0	0	12	5	1	0	0	0	1	1	0	2	2	0	0	8	0	0	13	1	2	0	6	3	3	2	0	1	1	0	4	0	2	0	4	1	0	0	2	4	0	0	9	2	1	0	0	0
OTU 68	0	1	5	0	0	0	0	1	1	0	0	1	0	1	2	0	0	1	0	0	0	0	0	4	0	0	0	1	0	0	3	2	0	0	0	0	0	0	0	2	2	0	0	0	0	0	0	0	0	0
OTU 69	6	2	2	0	4	1	2	0	1	4	0	3	0	1	1	6	0	0	0	0	1	0	1	12	2	1	0	3	8	0	0	0	2	1	0	0	2	0	1	0	0	24	0	0	0	1	3	2	0	0
OTU 70	0	6	10	2	1	0	0	0	0	0	0	1	1	7	1	0	0	0	0	0	0	3	1	0	1	0	0	0	0	0	0	0	0	0	0	0	0	0	0	0	0	0	1	0	0	0	0	0	0	0
OTU 71	0	0	1	0	0	0	0	0	0	4	0	1	0	1	1	0	0	0	0	0	0	0	0	0	60	0	0	3	8	0	0	2	0	0	0	1	0	0	0	0	0	0	1	0	0	0	0	0	0	0
OTU 72	2	4	1	0	1	2	0	19	0	1	6	0	149	1	3	0	2	0	1	0	4	1	19	1	4	0	2	1	1	3	3	0	4	0	16	2	3	5	0	4	9	0	2	2	4	0	1	0	0	3
OTU 73	26	2	4	1	0	3	0	0	2	1	0	1	0	0	1	0	0	0	0	0	0	0	0	0	1	0	0	0	0	0	0	2	4	5	1	0	0	2	0	2	0	0	0	0	0	1	0	8	0	0
OTU 74	10	2	1	1	1	6	0	2	0	1	2	0	1	8	0	1	4	0	0	0	0	1	3	0	1	0	0	20	2	2	6	2	1	0	0	8	5	2	1	3	0	7	2	3	4	0	0	8	0	6
OTU 75	12	0	2	0	1	0	0	7	0	0	0	1	0	2	0	1	0	1	0	0	0	4	6	2	0	3	5	0	0	3	7	2	2	2	0	0	0	1	5	0	0	1	0	0	1	2	0	2	0	2
OTU 76	2	0	2	0	0	0	0	0	0	0	0	0	0	3	0	0	2	0	0	0	2	0	0	0	0	0	0	89	0	0	2	0	0	0	1	0	1	1	1	1	0	7	3	1	1	0	0	0	0	0
OTU 77	1	3	2	0	1	0	0	0	0	4	1	2	0	1	3	1	3	1	0	0	1	1	0	0	0	4	0	1	8	1	0	0	0	2	0	0	37	0	1	1	0	1	4	1	0	1	3	4	0	0
OTU 78	1	1	2	1	13	0	0	0	2	1	2	0	0	0	5	6	2	0	1	1	2	0	2	2	5	2	0	0	2	0	6	2	2	8	1	1	0	3	0	0	6	3	5	2	1	10	13	15	0	0
OTU 79	6	6	6	1	9	4	8	83	0	10	1	2	4	8	4	7	0	8	1	1	11	5	3	2	15	6	2	5	1	5	0	1	2	3	7	0	15	6	2	9	7	4	16	3	10	15	2	2	2	0
OTU 80	3	1	1	0	1	0	2	0	0	0	1	0	2	20	0	0	0	0	3	0	3	0	0	0	3	0	0	6	6	0	9	1	1	1	0	0	5	8	7	12	0	3	10	0	18	4	1	2	1	2
OTU 81	6	0	0	0	1	2	1	4	0	2	1	1	0	7	1	5	3	1	6	0	5	5	3	3	0	0	110	4	7	0	0	4	3	1	21	0	0	5	7	1	1	0	0	0	1	4	2	2	0	89
OTU 82	0	0	1	1	0	0	0	0	0	1	0	4	0	7	0	1	0	0	4	1	0	1	0	1	0	1	2	1	0	2	1	0	0	0	0	0	1	0	2	4	2	3	1	0	0	0	1	0	0	0
OTU 83	0	0	0	0	0	0	0	0	0	0	0	0	2	0	0	7	0	0	0	0	0	1	0	0	0	0	0	0	0	0	0	0	0	0	0	0	0	0	0	0	0	0	0	0	0	0	0	0	0	0
OTU 84	0	0	0	7	0	1	6	0	0	3	0	1	1	3	0	2	0	0	0	2	6	0	0	0	4	0	3	0	0	7	0	0	1	0	0	0	6	2	3	0	0	0	2	0	4	0	0	0	8	0
OTU 85	0	0	2	0	0	0	0	0	0	0	1	0	0	0	0	0	0	0	0	0	0	0	0	0	0	0	0	0	0	0	0	0	2	0	0	0	0	1	0	0	0	3	0	1	0	0	0	0	0	0
OTU 86	0	0	0	0	0	0	3	0	0	0	1	0	0	0	0	0	0	0	0	0	0	0	0	0	0	0	0	0	0	0	7	0	0	0	0	0	0	0	0	0	0	0	2	0	0	0	0	0	0	1
OTU 87	1	0	0	0	2	0	0	2	0	0	0	1	1	0	0	0	0	0	0	0	3	0	1	0	1	1	0	0	0	1	0	0	0	0	0	0	0	0	1	0	1	0	4	0	0	0	0	0	0	0
OTU 88	0	0	0	0	0	1	1	0	0	0	0	0	0	0	1	0	0	0	0	0	0	0	0	0	0	0	0	0	0	0	6	0	0	1	0	0	0	2	0	0	0	0	0	1	0	0	0	2	0	2
OTU 89	0	0	1	0	0	0	1	3	0	0	0	0	1	1	0	0	0	0	0	0	1	0	0	0	5	0	0	0	0	0	0	0	0	0	0	0	3	1	0	0	1	0	0	0	1	0	2	0	0	0
OTU 90	0	3	0	0	0	0	0	1	0	0	0	0	2	0	0	0	0	0	0	0	0	0	0	0	0	0	0	1	5	0	0	0	0	0	0	0	0	0	0	0	0	1	0	0	0	0	0	0	0	0
OTU 91	0	0	6	0	0	0	0	0	0	0	0	0	0	0	0	0	0	0	0	0	0	0	0	0	0	0	0	0	0	0	0	0	0	0	0	0	0	0	0	0	0	0	0	0	0	0	0	0	0	0
OTU 92	0	0	0	1	0	0	0	0	0	0	0	0	0	0	1	0	0	0	0	0	0	0	0	0	0	0	0	0	0	0	0	0	0	0	0	0	0	0	0	0	0	0	0	0	0	2	0	0	0	0
OTU 93	0	0	0	0	0	1	0	0	0	0	0	0	0	2	0	0	0	2	0	0	0	1	0	0	0	0	0	5	0	0	0	0	0	0	0	0	1	0	0	0	0	0	0	0	0	1	0	0	0	0
OTU 94	0	7	2	1	0	1	4	1	10	0	0	0	3	0	1	4	0	2	0	0	3	1	0	1	1	8	0	0	7	0	4	16	0	3	4	1	0	5	2	0	7	2	1	0	2	7	13	2	1	2
OTU 95	0	0	1	0	1	0	7	0	0	0	0	0	2	0	0	0	0	0	0	0	0	0	0	0	0	1	0	1	0	0	5	0	0	0	0	0	0	0	0	0	0	0	0	0	0	3	0	0	0	2
OTU 96	0	0	0	0	3	0	0	0	0	0	0	0	0	0	1	0	0	0	0	0	0	0	2	0	0	0	0	0	0	1	1	0	0	0	0	0	0	0	0	0	0	0	0	0	0	0	0	0	0	0
OTU 97	0	0	0	0	0	0	0	0	0	0	0	0	0	0	0	0	0	0	0	0	0	0	0	0	0	0	0	0	1	1	0	0	0	1	0	1	1	0	0	0	0	0	0	0	0	0	0	0	0	0
OTU 98	0	0	1	0	0	0	0	0	4	1	2	1	0	0	0	0	1	0	0	0	1	0	0	0	0	0	4	0	0	0	1	0	0	0	1	0	0	0	1	2	3	0	0	4	1	0	0	1	0	3
OTU 99	2	0	1	0	1	0	3	10	1	28	0	2	0	3	0	7	0	2	16	0	1	18	2	4	0	0	0	18	4	2	0	4	0	6	0	1	0	0	1	3	6	0	0	2	3	4	1	3	0	0
OTU 100	1	0	0	1	0	4	0	3	0	6	0	2	0	0	0	0	0	9	1	0	0	0	0	5	2	1	1	8	0	1	0	1	0	0	0	0	0	0	1	1	1	0	2	0	0	0	0	0	0	0
OTU 101	0	0	2	0	0	0	0	0	0	0	2	1	0	0	0	0	0	0	0	0	0	0	0	0	0	0	1	0	0	0	0	0	0	0	0	0	0	0	0	0	0	0	0	0	0	0	0	0	0	0
OTU 102	0	0	0	0	0	0	0	0	0	0	0	0	0	2	0	0	0	1	0	0	0	0	0	0	0	0	1	0	0	0	0	0	0	0	0	0	0	0	0	0	0	0	0	0	0	0	0	0	0	0
OTU 103	5	0	0	29	1	1	2	0	0	1	1	0	0	1	1	0	0	0	0	45	0	0	0	0	0	1	28	1	0	78	0	2	0	0	3	1	0	1	0	1	0	0	0	2	0	1	0	0	19	0
OTU 104	18	4	12	0	14	1	1	10	10	1	1	0	1	6	2	1	7	6	18	0	0	29	0	6	1	1	0	1	3	2	4	15	2	0	1	3	1	0	0	0	2	3	0	1	0	1	4	3	0	0
OTU 105	0	4	4	0	0	0	0	0	0	1	5	0	0	0	0	0	0	0	0	0	1	0	0	0	0	0	0	0	0	0	2	0	4	1	0	0	1	0	0	0	1	0	0	1	0	0	0	0	0	2
OTU 106	0	1	0	0	0	0	0	0	0	4	2	3	0	0	0	0	0	2	0	0	0	0	0	0	0	0	0	0	0	0	0	0	1	0	3	0	0	0	0	0	0	0	0	0	0	0	0	0	0	0
OTU 107	2	0	0	0	0	0	0	0	0	0	8	1	2	6	0	0	1	0	0	0	2	0	0	0	0	0	0	2	0	0	0	0	0	3	0	2	1	0	0	4	0	2	2	0	2	0	0	2	0	0
OTU 108	1	7	9	0	0	4	0	0	0	0	0	0	0	0	1	7	0	0	0	0	7	0	1	1	1	0	0	0	0	0	0	0	9	0	1	17	1	1	0	0	2	1	0	0	0	0	0	1	0	0
OTU 109	0	0	0	0	0	0	0	0	0	0	0	0	0	0	0	0	0	0	0	0	0	0	0	0	0	0	0	0	0	0	0	0	0	0	0	0	0	0	0	0	0	0	0	0	0	0	0	0	0	0
OTU 110	4	0	0	144	0	1	2	1	0	0	3	4	6	0	2	5	1	0	1	0	3	2	0	1	2	2	0	2	0	0	3	1	5	0	2	15	0	0	1	0	3	1	1	1	0	0	14	0	0	0
OTU 111	0	0	1	0	0	1	0	0	1	0	0	0	0	0	0	0	0	3	0	0	0	0	5	0	0	0	0	0	0	0	0	0	0	0	0	0	0	1	0	1	0	0	0	0	0	0	0	0	0	0
OTU 112	0	0	0	1	0	2	3	0	0	0	0	0	0	5	4	3	0	3	0	0	3	0	1	0	1	0	0	0	1	0	0	0	0	0	3	0	0	0	0	2	0	0	0	0	1	0	10	0	0	0
OTU 113	0	0	0	1	0	0	0	0	0	0	0	0	0	0	0	0	0	0	0	0	0	0	2	0	0	0	0	0	0	0	0	0	0	0	0	0	0	0	0	0	0	0	0	0	0	1	0	0	0	0
OTU 114	2	11	7	0	2	2	7	1	1	0	4	3	0	3	8	2	0	0	0	3	9	1	5	1	7	2	0	1	3	0	1	2	8	0	1	0	3	5	2	1	2	62	1	0	3	5	3	0	2	0
OTU 115	0	3	1	4	4	1	2	0	54	0	7	4	1	6	0	1	5	1	3	0	10	0	9	2	7	0	0	2	0	0	0	0	8	4	1	4	5	1	4	1	3	0	7	2	1	0	2	5	0	1
OTU 116	0	9	0	3	3	9	6	0	0	0	0	28	0	2	12	0	1	14	0	0	0	0	2	17	1	0	0	0	3	0	0	0	2	1	8	0	0	1	0	4	10	12	0	0	0	21	0	2	0	0
OTU 117	1	0	0	0	1	0	0	40	0	0	0	1	2	0	1	0	0	0	0	0	5	0	1	0	1	0	0	2	0	1	0	1	0	2	0	0	0	0	0	0	2	1	0	0	3	2	0	3	0	0
OTU 118	0	0	0	0	0	0	0	0	0	0	0	4	0	0	3	0	0	0	0	0	0	0	0	0	0	0	0	0	6	0	2	0	0	0	0	0	0	1	0	0	0	0	0	0	0	0	0	0	0	2
OTU 119	1	1	0	0	1	3	0	3	0	0	0	0	3	0	4	0	1	2	1	0	1	0	0	0	2	2	0	0	2	1	0	0	5	1	2	0	0	0	27	1	0	0	4	0	1	1	1	1	0	0
OTU 120	0	0	4	0	0	0	0	0	1	2	0	0	0	2	1	0	0	0	0	0	0	0	0	0	0	0	0	6	1	0	0	0	2	0	0	0	0	0	0	1	0	0	3	0	0	0	2	0	0	0
OTU 121	0	0	3	1	0	1	0	0	0	0	1	0	0	0	1	0	0	0	0	51	0	1	6	0	4	7	1	7	3	3	1	1	8	0	2	0	147	0	1	0	1	0	3	0	0	2	0	0	24	0
OTU 122	3	0	0	5	0	0	0	1	0	0	13	3	0	1	0	4	7	0	0	1	5	0	0	0	0	0	1	1	0	1	2	2	0	0	1	4	0	3	1	0	1	0	0	5	8	0	4	0	46	2
OTU 123	12	6	4	3	8	6	8	1	0	4	7	2	3	5	4	14	2	2	4	0	3	2	1	1	38	4	1	1	4	1	2	0	9	2	2	2	1	7	3	4	3	1	0	5	0	6	7	1	1	2
OTU 124	0	0	0	0	0	0	0	0	0	0	0	0	0	3	1	7	0	1	0	0	0	0	0	0	0	0	0	0	0	0	3	0	0	0	0	0	0	0	0	0	0	2	2	0	0	0	0	1	0	0
OTU 125	2	2	14	1	2	3	6	1	0	0	5	3	3	9	13	3	28	8	1	0	4	0	2	4	2	0	4	7	8	5	9	1	5	24	1	10	1	3	2	0	2	14	9	8	9	13	3	8	3	4
OTU 126	0	0	0	0	0	0	0	0	0	0	0	0	0	0	0	0	0	0	0	0	0	0	0	0	0	0	0	0	0	0	0	0	1	0	0	0	0	0	0	1	0	0	0	0	0	0	1	0	0	0
OTU 127	3	3	0	0	2	2	0	1	0	1	5	0	9	2	0	0	2	4	0	0	0	0	0	0	0	0	0	0	1	0	0	0	0	2	0	0	0	2	0	0	0	0	1	0	3	0	0	2	0	0
OTU 128	10	8	13	6	35	4	5	0	1	11	5	11	11	21	2	13	2	4	0	40	12	1	6	1	0	5	5	8	3	1	22	0	1	8	0	164	14	9	69	4	3	7	33	2	2	17	1	26	29	9
OTU 129	0	0	0	0	0	1	0	0	0	0	0	0	0	0	0	0	0	0	0	0	0	0	15	0	0	0	2	0	0	0	0	0	0	0	0	0	0	0	0	0	2	0	0	0	1	0	0	0	0	0
OTU 130	0	0	34	0	0	0	0	0	1	1	3	0	0	0	0	0	1	0	2	0	2	0	0	3	0	1	0	0	0	0	0	0	0	6	0	0	0	1	2	8	1	9	1	0	0	3	2	3	0	1
OTU 131	0	0	5	0	0	1	0	1	0	0	0	0	0	1	12	0	1	1	1	0	0	0	0	2	0	1	0	0	2	0	47	0	0	1	0	0	0	0	0	0	2	0	47	0	3	10	2	3	0	26
OTU 132	0	4	7	0	0	0	0	0	0	0	0	0	0	0	0	0	0	0	0	0	1	0	0	36	0	2	0	0	3	0	0	0	1	0	0	0	0	3	0	0	1	0	1	0	0	0	0	0	0	0
OTU 133	4	0	0	0	0	0	0	0	0	1	0	4	0	4	0	4	0	0	0	0	0	0	0	0	0	5	0	0	0	0	3	0	0	0	0	0	0	0	0	0	0	0	0	0	0	0	0	1	0	1
OTU 134	0	0	0	1	3	0	1	0	1	0	0	0	5	14	0	0	0	0	0	0	0	0	0	1	3	0	0	0	2	0	4	0	2	0	3	0	0	2	0	1	20	1	0	0	2	1	0	0	0	0
OTU 135	0	4	1	0	0	0	0	2	1	0	7	0	0	4	11	1	3	0	1	0	2	5	2	0	2	0	1	0	1	0	0	7	0	0	7	2	1	0	0	5	3	0	1	2	4	0	0	0	1	0
OTU 136	0	1	1	36	1	2	5	0	0	0	1	0	0	0	4	0	0	1	1	0	2	0	0	0	0	1	0	2	1	0	0	0	1	0	0	0	0	0	0	0	0	2	0	0	0	0	1	0	0	0
OTU 137	0	0	1	1	0	0	0	1	50	0	0	0	0	0	3	1	0	1	0	3	0	0	1	0	2	0	0	0	0	0	0	85	0	0	0	0	0	0	0	0	1	0	0	0	0	1	0	0	0	0
OTU 138	1	0	0	0	15	0	0	0	1	0	4	1	0	0	0	10	4	0	0	0	0	0	0	0	1	0	1	0	0	0	0	0	0	0	5	0	0	0	0	0	0	0	0	0	0	0	0	0	0	0
OTU 139	4	4	17	9	6	30	5	0	0	2	2	13	0	6	0	0	3	4	1	12	2	1	1	2	4	2	2	4	8	15	11	1	0	1	1	2	0	2	0	0	3	3	5	3	0	8	4	1	3	2
OTU 140	7	4	2	1	5	76	14	1	2	6	18	3	8	0	1	2	1	2	1	0	2	1	11	0	9	6	3	0	8	1	7	2	11	1	0	2	3	3	0	2	3	0	1	7	6	1	6	1	0	2
OTU 141	0	0	0	0	0	0	0	0	0	0	0	0	0	0	0	1	0	0	0	0	0	0	0	0	0	0	0	0	0	0	0	0	0	0	0	0	0	0	0	0	0	0	0	0	0	0	0	0	0	0
OTU 142	1	0	0	0	0	0	5	0	0	0	0	0	0	0	0	0	0	0	0	0	0	0	0	0	0	0	0	0	0	0	0	0	0	0	0	0	0	0	0	1	0	1	0	0	0	0	0	0	0	0
OTU 143	0	0	0	0	0	0	0	0	0	0	0	0	0	3	0	0	0	0	0	0	1	0	0	0	0	0	0	0	0	0	0	0	0	0	0	0	1	0	0	0	0	0	0	0	1	0	0	0	0	0
OTU 144	0	0	0	0	0	0	0	0	0	0	0	0	0	0	0	0	0	0	0	0	0	0	1	0	0	0	0	0	0	0	1	0	0	9	0	0	0	1	0	0	0	0	0	0	1	0	4	9	0	1
OTU 145	0	0	2	1	0	1	7	1	1	0	1	0	1	6	7	4	0	0	6	0	0	0	1	3	0	1	90	1	14	0	0	1	2	2	0	1	0	0	0	26	0	12	3	1	0	2	0	8	0	0
OTU 146	6	0	0	0	0	1	0	3	1	1	0	1	0	0	4	0	0	0	1	0	3	0	0	1	0	0	0	5	7	4	5	6	0	1	0	0	3	0	1	2	0	0	16	0	0	5	1	0	0	4
OTU 147	0	0	0	0	1	0	0	0	0	0	3	1	0	0	0	3	0	0	0	0	0	0	0	3	0	1	2	0	0	0	0	0	0	2	0	0	0	0	0	2	0	0	0	0	1	0	0	2	0	0
OTU 148	3	13	1	40	0	0	3	0	0	2	0	23	0	0	72	9	2	0	0	45	0	0	0	0	0	1	29	3	0	58	0	0	0	2	1	1	0	0	1	1	1	0	0	0	1	28	2	4	15	0
OTU 149	0	1	0	0	0	0	0	0	0	1	0	2	0	2	0	0	0	0	0	0	0	0	0	0	0	0	0	1	0	2	0	0	0	0	2	0	0	0	0	0	0	0	0	0	0	0	1	0	0	0
OTU 150	0	0	1	0	1	0	0	0	0	3	0	0	0	0	0	0	0	0	0	0	0	1	1	0	1	0	0	0	0	0	1	0	0	0	0	0	0	3	0	0	0	0	0	0	1	0	0	0	0	1
OTU 151	1	8	0	0	0	1	0	1	0	2	0	0	0	0	0	1	1	0	0	1	1	0	1	0	0	1	2	0	0	2	0	0	0	0	5	1	0	0	1	0	0	0	3	0	0	0	5	0	0	0
OTU 152	2	0	0	0	7	0	0	1	0	4	1	7	1	0	0	1	0	0	2	1	1	0	0	2	5	1	0	0	5	0	2	0	0	2	0	0	0	0	0	0	1	2	1	0	0	23	4	2	2	2
OTU 153	0	1	6	0	0	0	0	0	0	0	0	0	0	0	0	0	0	0	0	0	0	0	0	0	0	0	0	0	0	0	0	0	0	0	0	0	0	0	0	0	0	0	0	0	0	1	1	0	0	0
OTU 154	0	0	5	0	1	0	0	0	0	0	0	0	0	0	0	0	0	0	0	0	1	0	1	0	0	0	0	0	0	0	0	0	1	0	0	0	0	0	0	0	0	0	0	0	0	0	0	0	0	0
OTU 155	0	0	0	0	0	0	0	0	0	0	0	0	0	1	0	0	2	0	0	0	2	0	0	0	0	0	0	0	0	0	0	0	0	0	0	0	0	0	0	0	0	0	0	1	0	0	0	0	0	0
OTU 156	2	2	0	1	2	2	0	0	0	2	1	1	2	24	7	41	0	0	6	0	0	0	3	0	0	3	2	44	2	1	6	0	0	1	0	1	0	0	0	0	0	0	7	0	0	6	6	3	1	5
OTU 157	1	2	0	1	0	0	0	0	0	0	0	0	0	3	0	1	1	0	0	1	0	0	2	1	0	0	0	0	0	0	0	0	0	0	0	0	0	0	0	1	0	0	0	0	5	0	0	1	0	1
OTU 158	0	0	0	0	0	0	0	0	0	0	0	5	0	0	0	0	0	0	0	0	1	0	0	0	0	2	0	0	0	0	1	0	0	0	0	0	2	0	0	0	0	0	0	0	0	0	0	0	0	0
OTU 159	0	1	1	1	0	1	0	0	0	0	0	0	0	16	0	0	3	1	0	0	0	0	0	0	0	0	2	1	4	0	3	2	2	0	1	1	0	2	0	0	1	0	3	0	2	0	1	0	0	0
OTU 160	4	1	1	0	5	1	2	1	0	4	2	2	5	2	0	11	2	6	2	1	6	1	6	2	4	3	0	2	4	2	5	1	1	4	1	1	3	0	1	69	5	0	8	0	0	3	2	5	34	1
OTU 161	1	0	0	0	4	0	6	0	0	4	1	1	0	0	0	0	1	1	0	0	0	2	0	0	1	0	0	0	0	0	0	0	0	0	0	1	0	0	0	2	0	0	5	2	0	5	0	3	1	0
OTU 162	0	0	0	0	7	0	0	6	9	0	0	0	0	0	4	2	1	1	2	0	0	0	1	0	7	6	0	0	0	1	0	1	0	0	0	0	1	0	0	1	1	0	0	1	2	1	0	0	0	1
OTU 163	0	0	0	0	0	0	0	0	0	0	0	0	0	0	0	0	0	0	0	0	0	0	0	0	0	0	0	0	0	0	0	0	0	0	0	0	0	0	0	0	0	0	0	0	0	0	1	0	0	0
OTU 164	0	0	1	0	0	0	0	0	0	0	0	0	0	0	0	0	0	0	0	0	0	0	0	0	0	0	0	0	0	0	0	0	0	0	0	0	0	0	0	0	0	0	0	0	0	0	0	0	0	0
OTU 165	0	0	0	1	2	0	0	0	0	0	5	6	1	6	0	2	1	0	0	0	7	0	0	0	1	1	0	0	0	1	0	0	0	0	0	0	1	5	1	0	2	0	0	135	5	0	1	0	0	1
OTU 166	0	0	0	0	0	0	0	0	0	0	0	0	0	1	0	0	0	0	0	0	0	0	0	0	0	0	0	0	3	0	0	0	0	0	0	0	0	0	0	0	0	0	0	0	0	0	0	0	0	0
OTU 167	1	2	1	0	0	1	0	0	0	0	2	1	0	2	0	1	0	0	0	0	0	0	1	0	0	0	0	0	0	0	0	0	0	0	0	0	0	1	7	1	2	3	1	0	1	1	0	0	0	0
OTU 168	1	86	2	0	0	2	0	0	0	0	0	3	4	0	0	3	0	0	0	0	1	3	0	0	0	0	0	0	0	0	0	0	1	0	0	0	1	0	0	0	1	2	1	66	0	0	0	0	1	0
OTU 169	0	0	0	1	0	0	0	0	0	0	0	0	0	0	0	0	0	0	0	0	0	0	0	0	0	0	0	0	0	0	0	0	4	0	0	0	0	0	0	0	0	0	0	0	0	0	0	0	0	0
OTU 170	0	0	0	0	0	0	0	0	0	0	0	0	0	0	0	0	0	0	0	0	0	0	0	0	0	0	0	0	0	0	0	0	0	0	0	0	0	0	0	0	0	0	0	0	0	0	0	0	0	0
OTU 171	0	1	1	3	9	0	0	10	1	0	0	0	0	0	0	0	0	0	3	3	6	2	0	1	1	3	0	4	5	2	1	0	4	1	2	1	10	0	1	0	1	0	1	0	1	0	10	2	0	0
OTU 172	0	0	0	0	0	0	0	0	0	0	2	0	0	0	0	0	0	0	0	0	0	0	0	4	0	0	0	0	0	0	2	0	0	0	0	1	0	0	0	0	0	0	0	0	0	0	2	0	0	0
OTU 173	0	1	0	0	0	0	0	0	0	0	0	2	0	0	1	1	0	0	1	0	1	0	0	52	0	0	1	0	1	0	7	0	0	0	1	0	0	0	0	0	0	0	0	0	0	0	0	0	1	2
OTU 174	0	0	0	2	1	45	1	0	0	4	0	0	0	3	0	0	0	104	0	0	0	0	0	1	0	0	0	1	0	1	4	2	0	0	1	0	0	3	1	0	1	5	0	0	0	4	0	0	0	1
OTU 175	0	0	1	0	0	0	0	0	0	0	0	0	1	0	0	0	1	0	0	0	1	0	0	0	1	0	1	0	1	3	0	1	0	2	1	0	1	1	0	0	0	0	0	0	0	8	2	2	0	0
OTU 176	0	7	13	0	0	0	0	0	1	0	3	3	4	0	2	1	0	1	0	0	1	4	2	5	1	0	0	0	1	0	5	3	5	1	0	0	0	0	1	13	0	1	3	0	0	7	0	1	1	1
OTU 177	1	4	0	3	0	2	0	1	1	0	2	1	1	6	2	4	1	3	3	0	41	1	2	1	0	3	3	0	4	3	5	0	0	4	0	0	21	1	0	2	2	4	1	0	0	3	10	4	1	1
OTU 178	5	0	1	1	0	1	0	3	0	0	1	0	0	1	0	5	0	6	0	0	0	0	2	39	0	0	0	1	3	0	0	0	0	0	2	0	0	3	0	0	0	0	0	0	0	0	0	0	0	0
OTU 179	0	0	3	0	1	0	0	1	0	2	2	0	1	0	0	0	0	2	0	0	0	1	0	0	0	0	0	2	2	0	0	0	0	1	0	0	0	0	25	1	0	0	0	0	0	0	0	0	0	0
OTU 180	4	4	2	2	2	3	3	0	4	2	2	0	11	2	5	20	1	5	1	0	5	4	3	3	3	2	2	13	6	6	5	1	1	4	0	0	0	3	0	2	4	5	4	0	1	0	8	8	0	2
OTU 181	0	0	0	1	0	13	1	0	0	4	0	0	0	4	1	5	0	26	0	0	0	0	1	0	3	0	0	0	0	0	2	1	2	0	0	0	0	1	0	3	66	2	0	0	0	2	0	0	0	0
OTU 182	0	0	0	0	0	5	1	0	0	0	0	0	0	0	0	0	0	1	0	0	0	0	0	0	0	0	0	0	0	0	0	0	0	1	0	0	0	0	0	0	0	0	4	0	0	0	0	2	0	0
OTU 183	0	0	0	1	8	0	0	0	0	1	0	2	0	0	0	3	0	4	0	0	1	1	3	2	0	0	0	0	5	0	8	0	0	0	0	0	0	0	0	0	2	0	4	0	1	1	1	9	0	7
OTU 184	0	0	0	0	0	0	5	0	0	2	0	0	0	0	0	0	0	0	0	0	1	0	0	0	7	0	0	0	2	0	0	0	0	0	0	0	3	1	0	0	2	0	0	0	0	0	0	0	0	1
OTU 185	0	1	1	2	10	0	1	0	1	16	1	1	3	0	3	3	48	1	0	3	0	0	0	2	2	0	0	6	5	2	0	1	3	0	1	21	0	6	9	2	1	4	0	21	6	0	2	6	1	0
OTU 186	4	0	0	0	0	0	0	0	0	0	0	0	0	0	0	0	0	0	0	0	1	0	0	0	0	0	0	1	0	0	0	1	0	0	0	0	0	1	25	0	0	0	0	0	2	0	0	0	0	0
OTU 187	3	3	7	8	4	2	1	10	1	115	2	2	0	2	3	2	1	0	2	13	7	10	1	6	1	47	19	1	1	18	1	7	0	6	6	3	0	4	0	3	22	6	3	2	10	0	15	4	8	3
OTU 188	2	1	4	1	2	7	1	0	0	0	6	4	2	0	5	0	4	5	2	0	8	1	2	6	100	5	2	1	6	0	2	0	0	7	0	1	4	0	3	5	0	1	1	0	4	2	1	10	0	1
OTU 189	23	1	0	5	1	0	0	0	0	1	1	0	3	4	0	12	0	1	2	3	2	0	0	1	1	1	4	0	2	3	0	0	0	0	1	0	1	3	0	2	0	5	2	0	8	14	2	2	1	1
OTU 190	0	0	0	0	0	0	0	0	0	0	0	0	1	0	0	0	0	0	0	0	0	0	0	0	0	0	0	0	0	0	0	0	0	0	0	0	1	0	0	0	0	0	0	0	0	0	0	0	0	0
OTU 191	2	6	1	0	0	49	1	0	0	0	0	1	5	6	3	2	1	0	0	0	90	1	2	1	0	0	2	0	5	0	3	0	1	1	3	2	42	1	0	2	9	1	3	0	1	2	1	1	0	2
OTU 192	6	13	10	0	1	0	4	5	0	4	0	10	1	0	2	1	0	3	15	1	1	0	3	0	2	2	1	1	1	2	8	0	3	4	0	2	0	30	34	3	6	0	3	0	2	16	1	10	1	7
OTU 193	2	1	3	0	0	0	3	11	5	0	0	0	4	1	2	0	0	0	35	0	1	26	1	0	0	4	0	1	22	0	7	14	0	1	0	0	0	69	29	0	0	0	0	0	111	0	13	2	0	2
OTU 194	13	4	23	0	3	0	0	0	17	0	0	0	0	0	0	1	0	0	0	0	0	79	0	0	1	0	0	1	5	0	0	21	0	0	2	0	0	0	1	0	0	0	0	0	0	0	3	0	1	1
OTU 195	6	0	0	1	0	0	3	0	3	1	0	2	0	2	1	0	0	1	0	1	0	1	0	0	1	1	0	0	19	0	0	0	1	0	0	0	0	5	0	0	2	0	1	0	1	1	0	0	0	0
OTU 196	3	2	2	0	2	0	0	0	1	1	0	0	0	2	6	0	0	0	1	0	3	0	3	0	0	0	0	4	0	0	7	0	124	0	0	0	0	15	11	0	0	8	3	0	2	1	0	5	0	2
OTU 197	1	4	2	1	3	0	4	1	0	1	1	0	0	1	0	1	2	0	1	0	2	0	1	2	1	2	0	5	7	0	3	2	3	0	56	1	0	1	0	0	2	3	0	4	4	7	1	0	0	1
OTU 198	0	0	0	0	1	0	0	1	0	0	0	0	0	1	1	0	0	0	0	0	0	1	2	0	0	2	0	2	0	0	1	0	0	1	0	0	0	0	0	0	0	1	0	0	0	0	0	1	0	0
OTU 199	0	3	0	3	0	2	0	0	0	0	2	0	0	4	0	3	2	0	0	0	0	0	3	1	0	0	0	0	0	0	0	0	0	0	0	1	0	0	0	1	1	0	0	2	0	0	2	2	0	0
OTU 200	5	0	1	0	0	0	3	0	0	0	1	0	0	0	3	0	0	0	0	0	0	0	0	0	1	0	1	3	0	0	0	0	0	0	0	0	0	1	0	0	4	0	3	0	0	0	0	0	1	0
