	Host 1	Host 2	Host 3	Host 4	Host 5	Host 6	Host 7	Host 8	Host 9	Host 10	Host 11	Host 12	Host 13	Host 14	Host 15	Host 16	Host 17	Host 18	Host 19	Host 20	Host 21	Host 22	Host 23	Host 24	Host 25	Host 26	Host 27	Host 28	Host 29	Host 30	Host 31	Host 32	Host 33	Host 34	Host 35	Host 36	Host 37	Host 38	Host 39	Host 40	Host 41	Host 42	Host 43	Host 44	Host 45	Host 46	Host 47	Host 48	Host 49	Host 50	
OTU 1	83	3	3	67	12	41	5	58	17	91	101	37	3	113	6	2	23	238	500	82	40	39	33	45	44	44	31	18	70	8	69	160	111	22	417	61	242	138	60	66	61	120	82	88	113	41	97	97	14	121
OTU 2	4	4	0	7	71	5	36	2	1	1	10	9	11	0	0	33	25	0	0	0	2	8	13	2	0	9	14	14	0	0	5	2	26	8	23	1	9	2	7	10	1	12	0	1	0	5	0	3	0	0
OTU 3	34	11	378	2	0	0	98	35	361	24	1	0	0	20	0	0	7	2	86	0	6	3	0	0	0	12	8	9	0	0	0	0	2	3	2	60	27	73	0	597	0	0	0	14	0	0	6	1	0	18
OTU 4	0	0	0	0	0	0	0	0	0	0	0	0	0	0	0	0	0	0	0	0	0	0	0	0	0	0	0	0	0	0	0	0	0	0	0	0	0	0	0	0	0	0	0	0	0	0	0	0	0	0
OTU 5	331	719	341	481	23	360	1127	459	281	407	761	249	733	365	1010	0	604	34	464	245	241	1175	235	1041	212	1128	279	280	745	76	164	434	485	4	971	280	793	253	717	673	30	196	285	277	349	123	201	1314	204	395
OTU 6	66	49	0	1	121	0	117	47	3	0	7	14	38	5	60	14	8	39	160	95	9	36	23	21	558	0	0	41	0	2	1	219	1	24	2	7	33	1	1	0	33	9	0	10	26	1395	466	18	21	15
OTU 7	45	25	23	130	95	3	137	3	8	167	243	49	312	17	158	80	180	155	30	29	44	178	2	22	130	64	54	36	8	43	10	38	118	11	89	37	8	158	30	9	14	462	141	74	177	73	199	473	18	14
OTU 8	11	2	77	44	87	9	36	79	22	17	140	66	114	117	54	176	40	266	582	13	86	76	39	59	63	73	16	35	5	37	39	40	51	139	151	40	213	390	2	8	52	57	74	126	57	45	167	49	1	125
OTU 9	3	7	48	44	0	1	55	1	1	7	52	49	0	4	6	10	28	4	2	3	10	1	0	0	20	13	7	3	2	24	3	5	14	13	26	0	17	23	20	1	2	1	1	51	9	1	0	0	3	0
OTU 10	0	48	28	6	13	0	0	2	11	9	6	0	0	0	50	3	23	133	2	0	4	0	18	0	4	7	38	39	0	31	17	4	81	0	29	0	0	0	39	64	0	0	0	2	1	0	32	0	12	0
OTU 11	0	40	1	25	29	2	97	7	10	34	58	45	30	6	49	112	41	4	24	2	21	94	0	34	1	1	5	61	16	54	56	11	0	46	12	5	33	51	22	30	38	29	62	7	71	7	61	8	17	8
OTU 12	52	45	7	13	189	2	73	6	25	66	15	9	31	13	63	98	203	5	45	29	16	16	69	40	31	3	39	1	1	19	13	38	38	40	6	90	36	0	2	26	54	51	11	116	61	114	28	28	120	1
OTU 13	7	0	0	0	0	0	0	0	0	0	0	0	5	0	0	0	0	0	5	0	0	0	0	0	0	21	2	0	0	6	0	1	7	5	1	0	0	0	1	0	2	0	0	0	0	0	0	0	9	0
OTU 14	6	41	107	22	2	1	10	0	29	15	31	32	0	5	0	0	0	12	9	18	0	167	20	5	2	36	8	0	0	0	66	22	14	10	0	17	2	11	0	193	49	11	1	64	102	17	118	12	4	2
OTU 15	0	0	6	0	11	0	0	0	0	0	3	0	0	0	0	0	0	0	0	0	0	0	44	0	0	0	0	0	0	0	0	2	0	0	0	0	0	0	0	10	24	0	0	17	0	0	24	2	0	0
OTU 16	0	2	4	0	0	0	0	0	0	0	0	0	0	0	0	0	0	0	0	0	0	0	0	0	0	0	0	0	0	0	0	0	0	0	2	1	0	0	0	0	0	18	0	0	0	0	0	0	0	0
OTU 17	0	3	44	34	5	10	164	42	25	14	57	7	1	4	0	1	38	44	0	3	5	51	8	5	0	31	29	3	1	0	39	18	77	12	0	0	0	19	0	29	17	4	37	5	82	24	20	4	17	3
OTU 18	17	8	137	84	67	3	66	19	69	24	136	18	35	35	147	21	45	46	45	6	23	5	0	4	64	2	8	23	2	15	30	12	10	149	12	16	34	11	8	122	0	148	30	1	2	17	48	6	57	23
OTU 19	0	0	0	0	0	0	0	0	0	0	0	0	0	0	0	0	0	0	0	0	0	0	0	0	0	0	0	0	0	0	0	0	0	2	0	0	0	0	0	0	0	0	0	0	0	0	0	0	0	0
OTU 20	15	23	22	21	72	0	18	6	6	59	46	23	135	13	28	8	4	43	14	6	42	4	22	0	6	8	38	63	11	6	23	6	95	170	52	12	11	40	36	29	1	184	34	20	22	2	42	30	0	4
OTU 21	28	40	127	0	454	2	27	48	29	41	0	14	0	3	1	53	0	36	6	3	15	15	1	11	0	73	34	0	0	2	109	4	20	11	14	9	3	44	30	19	54	14	33	21	20	3	58	65	12	1
OTU 22	1	16	7	5	157	1500	1	50	1711	16	18	132	1	76	30	0	49	12	25	636	9	23	728	13	0	4	4	3	2981	19	1	22	17	104	28	2	163	5	16	26	1357	8	4	9	38	33	63	32	10	94
OTU 23	7	50	13	0	11	7	251	0	18	0	0	0	11	4	75	175	18	0	1	45	3	0	43	1	105	4	90	25	5	292	47	100	280	68	102	2	0	4	53	36	24	102	0	4	0	14	103	47	6	0
OTU 24	0	16	6	20	72	6	31	0	5	1	27	3	0	0	3	8	1	1	0	3	0	1	1	0	7	3	0	23	3	0	22	17	0	4	28	1	1	7	0	0	0	35	6	5	8	1	4	0	33	0
OTU 25	0	0	0	0	0	0	0	0	0	0	0	0	0	0	0	0	0	0	0	0	0	0	0	1	7	0	38	0	0	0	0	0	45	0	0	0	0	0	0	0	0	0	0	0	0	32	0	0	0	0
OTU 26	3	20	4	0	0	0	21	0	0	0	2	0	0	1	0	42	0	0	0	0	2	4	0	10	8	0	0	16	3	86	5	0	0	0	0	26	0	0	1	0	7	25	0	211	4	13	0	1	0	6
OTU 27	0	0	0	0	0	0	0	0	0	0	0	0	0	0	0	0	0	0	10	0	0	0	0	4	0	0	0	0	0	0	1	0	0	0	0	0	0	0	1	0	0	0	11	0	0	0	0	11	0	0
OTU 28	98	12	3	2	20	61	153	17	5	44	3	2	28	9	19	15	28	74	5	291	5	1	5	21	10	19	33	25	107	8	30	0	48	0	20	1	13	14	139	6	7	96	20	14	11	19	49	0	364	57
OTU 29	56	40	20	73	14	9	13	5	4	168	185	43	8	0	32	41	112	93	5	1	10	5	11	20	47	26	1	1	23	48	149	2	5	0	41	5	12	2	32	186	98	63	1	182	7	2	236	5	7	4
OTU 30	0	0	0	0	0	0	14	0	0	0	0	0	0	0	0	0	0	0	0	0	0	0	0	0	0	0	0	29	0	0	0	0	0	1	0	0	0	0	0	0	0	0	0	0	0	0	0	0	0	0
OTU 31	1	1	6	0	1	0	0	5	0	0	0	1	17	28	0	0	107	0	9	60	1	3	10	23	0	1	4	31	0	51	13	103	34	1	3	58	0	3	1	3	3	125	13	1	1	0	2	0	8	2
OTU 32	28	3	11	236	20	453	94	13	30	273	458	9	165	0	36	4	419	43	17	20	16	7	66	20	12	0	44	16	901	340	5	41	32	192	33	24	19	40	1846	23	19	238	146	585	56	1	68	18	119	17
OTU 33	610	0	0	0	112	0	0	0	0	0	0	0	0	0	0	0	0	0	0	0	1	0	0	13	0	0	0	0	0	0	0	2	0	0	0	3	0	1	0	0	0	14	0	0	0	0	0	0	0	0
OTU 34	0	30	8	13	121	107	32	5	11	2	20	5	3	1515	68	72	3	84	85	33	9	12	11	4	97	324	28	36	193	46	11	55	20	994	24	419	3511	49	539	13	7	46	37	15	64	183	18	7	47	1489
OTU 35	3	39	11	44	107	6	9	47	0	26	99	800	7	2	62	55	39	363	10	0	87	115	11	18	5	4	63	49	44	25	0	2	100	54	7	20	0	12	57	31	0	36	2511	7	174	13	177	0	31	1
OTU 36	7	1	13	24	5	0	15	22	8	11	39	0	5	67	33	4	0	48	50	0	16	1	189	5	61	8	22	0	3	5	4	0	52	1447	3	17	28	4	2	2	0	6	1	0	22	22	38	3	11	11
OTU 37	0	2	4	0	2	0	4	0	2	8	0	0	0	3	1	8	0	3	0	0	0	0	553	0	0	4	0	9	0	0	3	0	0	7	0	0	0	8	2	5	101	0	1	0	0	3	0	2	3	1
OTU 38	1	13	5	42	11	131	72	3	0	261	57	32	20	0	2	84	40	45	1	44	1	5	0	0	0	4	35	4	378	7	3	95	19	125	122	0	1	4	826	16	18	77	46	59	27	0	3	7	15	5
OTU 39	0	9	0	15	0	0	3	0	0	0	22	0	25	1	0	8	16	17	0	0	0	4	23	0	0	3	0	8	0	0	78	0	0	0	1	39	5	1	2	24	0	72	0	58	19	0	19	9	5	0
OTU 40	12	773	13	47	89	5	57	2	7	78	118	64	4	8	17	204	84	7	1	11	4	590	173	283	8	24	0	94	27	29	41	24	1	157	1	1	15	46	0	8	143	220	70	15	1	29	1	4	1	14
OTU 41	0	65	46	0	343	8	17	0	24	0	1	85	14	2	23	11	6	0	0	21	9	29	33	18	18	24	4	8	56	52	12	24	0	0	42	10	2	0	44	21	3	14	0	0	31	77	226	0	14	21
OTU 42	0	39	0	0	0	0	4	1	0	0	0	0	0	0	94	0	1	0	1	0	9	4	4	0	0	2	0	14	0	2	84	0	0	31	53	13	0	0	0	3	0	0	3	0	0	26	1	0	1	3
OTU 43	0	0	0	0	0	2	0	0	0	0	0	2	0	0	0	0	0	0	0	0	0	0	0	0	0	0	0	0	13	0	0	0	0	0	0	0	0	0	0	0	0	0	4	0	0	0	0	0	0	0
OTU 44	0	8	0	0	31	0	25	0	20	0	0	0	0	0	5	217	0	0	0	0	1	7	0	18	17	0	0	0	0	0	0	5	24	9	3	0	0	0	2	0	1	12	15	17	1	0	0	0	0	1
OTU 45	469	9	7	1	4	17	3	41	9	2	2	17	291	0	0	162	30	10	12	208	13	6	11	0	10	4	11	37	13	100	53	395	24	8	9	30	16	20	2	1	0	158	8	15	0	15	237	16	302	1
OTU 46	59	98	2	49	25	0	30	30	10	21	88	82	2	1	21	7	6	14	96	0	76	52	57	1	9	23	14	5	7	16	13	1	88	64	36	6	9	23	8	18	67	118	0	3	138	46	216	51	2	4
OTU 47	0	0	2	0	0	0	3	0	13	0	0	0	0	0	19	0	0	0	0	3	4	0	0	0	0	0	4	0	0	0	0	8	0	26	1	8	0	0	0	0	26	0	0	0	0	35	3	2	5	4
OTU 48	68	23	23	10	133	5	22	20	62	21	8	52	12	5	29	52	168	45	66	24	0	6	22	33	12	65	11	67	1	64	2	38	10	0	14	91	25	9	5	360	17	24	3	0	24	20	52	0	104	2
OTU 49	21	5	69	1	0	15	22	14	0	2	4	0	0	11	0	0	0	41	64	6	13	0	1	2	2	11	0	4	16	4	7	11	0	0	0	14	7	2	28	33	85	8	7	94	109	6	1	3	0	13
OTU 50	31	267	141	6	14	31	1440	65	15	10	20	1	56	53	86	1	142	65	70	2	39	188	3	255	199	13	113	26	118	2	341	7	226	53	294	56	23	351	126	11	92	194	7	5	35	225	9	22	83	5
OTU 51	3	0	0	0	2	9	78	20	4	24	0	253	29	5	15	8	21	16	9	17	2	10	26	3	6	23	69	3	17	13	12	30	100	98	0	135	8	4	46	5	91	94	834	0	12	2	3	4	24	1
OTU 52	32	107	41	58	449	132	147	140	43	9	151	34	87	53	46	21	100	95	161	44	25	18	42	26	10	120	84	139	269	20	167	92	114	24	65	12	57	16	490	33	52	67	73	25	44	124	392	59	34	103
OTU 53	28	0	0	0	0	0	0	0	0	0	0	0	0	0	0	0	0	0	0	0	0	0	0	0	1	27	0	0	0	2	0	0	35	5	0	0	0	0	0	0	0	0	0	0	15	0	0	0	0	0
OTU 54	45	1	50	439	43	80	277	46	4	748	948	450	291	47	32	117	359	168	96	45	33	4	33	1	10	5	21	31	148	825	37	78	54	115	11	65	35	55	323	210	216	29	452	81	3	43	10	120	24	9
OTU 55	0	0	0	0	0	0	0	0	0	0	0	0	0	0	0	0	0	0	0	0	0	0	0	0	0	0	0	0	0	0	0	0	0	3	0	0	0	0	0	0	0	0	0	0	0	0	0	0	0	0
OTU 56	12	0	0	3	73	0	21	13	0	0	2	0	11	25	59	9	1538	9	49	5	31	3	54	0	2	23	0	0	0	941	44	10	1	1	12	1	16	2	34	85	129	2	0	1002	8	8	4	5	19	3
OTU 57	65	28	364	47	78	10	95	103	100	23	117	75	21	21	70	303	73	389	52	14	15	71	19	34	90	439	30	102	33	30	67	44	54	48	47	407	7	2929	50	56	27	18	23	14	297	26	123	10	53	33
OTU 58	23	2	25	12	17	6	0	0	6	770	58	7	99	5	45	53	23	24	11	0	1	2	1	16	8	0	30	29	0	1	2947	3	40	1	0	0	19	1413	1	10	75	0	102	31	8	27	200	1234	21	0
OTU 59	0	0	3	18	38	3	433	19	0	0	40	1	0	14	4	3	18	27	40	1	6	2	26	0	3	1	3	18	7	61	8	1	7	28	23	0	47	11	13	57	69	1	5	9	0	10	27	3	0	14
OTU 60	244	4	4	8	17	19	74	18	33	1	27	32	111	19	142	23	36	106	13	86	26	17	2	7	11	0	1300	3	12	11	48	139	30	23	20	42	28	9	38	81	2	64	20	130	26	6	278	233	55	17
OTU 61	19	4	14	6	82	5	27	462	70	16	32	1	406	188	194	32	52	9	604	17	323	10	30	25	88	6	11	0	5	15	6	57	36	189	44	203	393	9	0	31	100	82	7	9	54	200	44	239	35	174
OTU 62	6	0	433	3	0	14	9	9	526	0	19	0	9	0	0	21	108	0	2	0	0	2	169	0	0	343	1	0	4	0	16	0	13	4	0	95	0	0	7	1199	73	0	1	35	0	0	107	2	0	1
OTU 63	2	12	1476	0	29	5	9	3	0	6	2	2	1	0	7	96	0	9	0	0	12	0	1	0	46	128	6	36	5	3	38	0	9	1	3	3	7	0	0	0	1	0	41	0	9	19	16	0	15	7
OTU 64	538	57	30	26	73	3055	74	499	5	49	91	9	14	313	181	16	98	64	1861	345	256	58	16	52	36	67	85	84	46	1	12	705	261	233	8	128	893	56	91	56	55	64	5	32	127	29	21	446	285	476
OTU 65	0	5	0	0	0	0	42	0	0	2	0	0	0	0	16	0	0	0	0	0	0	0	13	5	0	1	0	0	0	0	0	0	11	0	0	0	0	0	1	0	44	0	0	0	0	0	0	0	0	0
OTU 66	0	80	11	5	34	61	47	6	226	0	23	29	3	0	30	187	36	29	62	68	0	0	17	135	9	17	128	1	56	23	49	101	239	77	51	1891	11	13	63	262	171	39	16	34	0	6	6	15	16	1
OTU 67	9	15	1	3	67	11	21	0	18	3	7	13	47	1	1	1	29	190	10	16	0	83	78	7	7	4	4	9	31	1	14	29	10	35	0	37	1	17	18	2	11	132	0	7	116	41	3	1	4	2
OTU 68	91	12	37	0	1	3	0	12	3	2	0	0	4	4	7	7	0	9	31	18	0	61	21	0	1	26	1	0	0	23	5	34	5	26	13	19	42	4	0	0	0	1	2	0	120	1	9	5	5	13
OTU 69	2	50	23	21	40	2	57	16	20	18	22	9	24	11	10	11	98	9	111	2	21	10	9	80	29	9	2	19	0	9	7	4	10	15	3	25	2	37	3	113	1	336	1	64	78	0	54	2	8	0
OTU 70	12	2	0	8	1	13	0	7	13	1	6	0	8	0	11	1	2	11	1	0	3	3	3	1	3	0	0	22	39	0	54	0	1	0	0	0	19	1	109	6	24	2	37	0	0	3	0	11	11	0
OTU 71	0	10	34	108	18	2	0	5	2	86	125	1	6	1	7	0	0	24	8	1	1	0	0	3	0	0	1	0	2	72	0	4	0	11	5	0	1	0	13	0	0	4	83	70	42	42	0	44	9	9
OTU 72	0	51	1	64	61	9	3	443	24	10	95	19	2026	0	125	45	27	20	42	34	198	16	57	9	9	81	2	7	23	234	18	61	3	1	3	2	5	3	110	2	154	67	6	115	5	29	21	24	18	10
OTU 73	157	10	128	1	1	0	0	13	3	9	2	1	2	63	19	125	40	1	97	5	10	3	6	20	0	1	51	0	2	6	15	9	77	66	4	0	41	15	0	145	0	0	2	87	1	24	139	34	21	10
OTU 74	53	12	30	52	76	1	46	52	36	26	93	7	54	2	1	30	67	14	62	28	9	51	23	19	18	10	25	29	6	14	77	71	89	53	19	1	2	2	29	5	131	6	49	63	34	155	34	15	7	2
OTU 75	71	2	17	7	50	9	3	71	68	10	10	11	56	10	15	215	8	15	7	22	38	46	2252	22	5	16	24	4	12	1	77	35	14	54	1	2	4	10	12	103	6	83	49	15	35	35	10	10	0	12
OTU 76	0	1	7	0	0	11	0	3	0	21	1	0	3	6	1	9	1	33	0	0	1	1384	0	0	0	0	0	0	9	6	3	0	9	0	34	9	12	0	24	4	0	39	34	0	2886	5	33	5	0	2
OTU 77	6	2	96	2	188	18	39	0	29	106	7	2	40	4	28	13	14	80	32	7	3	12	9	5	46	18	85	36	33	1	47	15	69	184	34	4	24	26	25	66	67	12	44	5	1	149	72	9	7	27
OTU 78	41	19	10	55	154	4	1	20	18	0	91	26	67	9	96	41	52	8	27	0	28	41	66	27	4	11	13	6	2	0	0	0	10	65	2	17	12	12	5	40	36	127	5	99	36	9	7	61	1	14
OTU 79	160	118	58	33	148	73	51	1644	104	88	121	263	101	12	473	227	101	128	35	43	688	46	122	115	50	79	125	50	68	15	20	78	199	54	106	100	44	69	102	156	144	127	268	129	68	121	122	43	129	12
OTU 80	16	3	9	17	10	2	88	6	146	52	39	18	140	17	24	3	259	14	109	6	4	10	15	21	11	4	1	1817	14	42	40	7	5	55	20	100	16	16	91	127	135	38	74	70	58	60	13	1	6	35
OTU 81	11	0	564	56	118	5	9	302	600	22	137	30	119	47	16	35	27	93	232	11	215	33	79	27	13	336	1	604	1	9	72	21	7	27	1	246	163	10	5	755	50	11	56	11	74	14	205	54	40	62
OTU 82	0	8	6	0	8	3	10	85	34	0	1	2	0	10	45	94	21	22	3	4	72	28	53	6	13	9	24	3	4	8	93	10	45	8	61	2	0	13	23	0	47	29	4	2	76	13	7	6	19	1
OTU 83	4	0	0	4	2	0	0	0	11	0	11	6	38	3	0	124	0	0	0	0	0	6	2	0	0	0	14	1	6	0	0	1	44	4	0	0	4	0	0	0	21	6	0	0	0	23	69	0	0	0
OTU 84	14	24	4	1	15	16	36	0	0	75	12	31	3	9	6	19	7	17	0	14	1	1	3	31	1	0	13	0	5	0	179	22	76	165	73	0	6	4	7	38	54	0	17	14	0	119	4	0	0	0
OTU 85	0	17	11	62	25	4	1	2	0	82	110	7	0	16	4	0	7	0	12	0	0	0	8	26	9	0	4	0	7	0	8	0	0	0	0	4	13	54	0	16	11	19	1	17	2	6	0	0	7	2
OTU 86	0	0	36	0	0	1	0	0	0	0	0	0	0	0	29	0	0	0	0	0	0	4	12	0	0	1	0	0	0	0	0	0	0	5	2	1	1	0	0	61	0	0	0	0	0	0	0	19	0	1
OTU 87	0	0	0	0	26	0	5	1	0	35	0	0	30	6	43	16	1	0	18	8	1	0	6	1	24	0	0	0	1	0	47	14	0	3	3	33	16	3	0	29	0	89	6	13	8	0	0	0	17	2
OTU 88	6	0	0	0	0	0	5	0	14	1	0	0	0	1	8	0	0	0	6	1	0	0	17	0	13	325	0	0	0	0	2	1	2	91	0	1	5	0	10	12	42	0	0	19	0	7	0	0	0	0
OTU 89	1	6	1	0	0	3	9	56	22	0	5	0	0	3	0	13	2	0	0	44	19	18	6	13	10	4	7	0	0	14	0	64	17	0	4	15	1	2	3	14	76	0	1	1	2	3	30	2	6	0
OTU 90	0	0	0	5	0	0	9	0	11	0	3	1	46	0	0	10	23	32	3	3	17	0	0	5	1	0	0	0	6	0	14	8	0	0	0	0	0	0	4	0	12	0	0	0	0	0	0	0	0	0
OTU 91	0	0	0	0	0	0	0	0	0	0	0	0	0	1263	0	0	0	0	0	0	0	0	0	0	0	0	0	0	0	0	0	0	0	0	1	0	0	0	0	2	0	0	0	0	1	1	6	0	0	0
OTU 92	7	0	1	0	0	0	0	9	3	0	3	0	0	0	0	0	0	3	0	16	0	0	0	0	10	6	20	12	0	22	32	39	11	0	1	0	0	2	1	3	12	26	45	0	0	5	8	0	0	0
OTU 93	24	0	0	2	3	0	1	5	0	0	0	46	1	0	0	0	0	12	0	0	0	4	0	0	1	1	0	0	1	13	0	0	0	0	0	0	0	0	0	0	0	0	0	0	1	0	14	0	0	0
OTU 94	85	5	54	71	115	43	40	55	6	8	119	77	40	2	42	38	62	20	25	204	13	0	81	8	1	57	9	24	76	6	29	423	24	219	1	24	4	0	41	1	148	21	31	2	67	30	574	4	276	3
OTU 95	2	0	34	12	57	2	83	4	54	2	11	0	11	1	0	41	15	0	6	3921	11	2	0	7	0	0	0	0	0	3	0	0	0	6	0	4	0	0	0	76	10	0	83	1	1	0	33	1075	7	1
OTU 96	0	31	10	0	2	0	0	0	0	0	0	0	0	0	0	0	4	0	0	0	2	0	0	16	76	0	24	0	2	0	2	0	54	0	0	0	0	0	0	0	0	9	36	3	0	42	0	0	0	0
OTU 97	0	3	0	0	1	0	10	0	0	0	3	0	0	1	0	12	0	5	3	5	1	146	0	0	0	27	36	3	3	16	0	16	77	0	5	0	0	12	0	0	8	0	0	72	276	4	0	0	0	4
OTU 98	51	12	121	15	0	0	0	0	0	21	10	0	2	0	0	0	1	0	3	0	9	1	9	0	0	65	14	18	4	1	0	1	0	9	70	7	0	11	17	35	7	0	1	0	1	2	2	3	10	0
OTU 99	82	28	33	19	9	10	9	399	10	26	41	175	2	66	13	42	38	7	313	80	69	9	60	5	331	38	0	3	8	13	41	151	12	257	15	538	114	151	3	0	117	292	599	4	15	808	34	50	80	94
OTU 100	19	8	0	3	4	28	0	0	25	6	0	3	1	5	25	143	3	40	21	6	46	15	6	11	27	7	8	1962	44	10	614	10	31	16	765	27	1	219	48	2	8	32	1	11	52	32	24	0	16	0
OTU 101	0	1	0	15	5	1	0	0	0	80	16	0	0	0	0	0	0	0	2	0	0	0	0	12	2	5	0	0	3	5	0	0	1	0	1	1	0	1	0	0	0	0	0	4	0	0	0	3	2	0
OTU 102	0	8	19	0	94	0	0	3	11	0	0	1	2	0	0	0	0	16	1	0	13	15	4	13	3	44	6	0	0	0	2	0	6	13	60	2	0	1	0	0	2	15	0	0	5	2	0	0	0	1
OTU 103	0	171	2	6	19	7	37	7	0	0	5	10	2	2	157	249	13	2	3	0	9	16	24	93	239	2	250	549	26	59	308	5	520	4	489	4	1	194	5	12	15	46	9	7	12	706	1	15	65	4
OTU 104	114	1024	40	8	2	31	36	131	3	9	12	20	3	83	150	15	171	0	208	314	107	5	43	299	37	50	53	11	11	41	138	654	134	70	224	4	151	24	7	48	283	157	16	26	31	0	90	117	342	88
OTU 105	0	0	0	7	0	0	0	0	0	8	24	9	0	0	1	0	12	11	53	0	7	0	0	2	0	0	0	54	0	0	0	1	1	39	1	12	21	0	1	3	189	5	0	0	0	3	15	7	2	9
OTU 106	0	0	13	0	0	0	0	2	0	0	3	30	1	1	0	0	1	0	0	0	0	5	23	0	2	10	2	0	0	6	0	0	0	0	4	40	2	7	3	16	0	2	19	0	3	0	0	0	12	0
OTU 107	10	0	43	47	0	0	1	6	0	12	61	2	29	23	4	35	1	39	0	0	0	9	5	0	0	0	0	0	0	0	18	0	1	1	0	0	0	0	0	1	0	1	5	197	9	8	22	0	1	0
OTU 108	15	2	11	3	1	3	16	54	7	7	3	0	0	18	9	18	0	15	18	13	96	6	0	14	7	0	0	37	0	16	0	33	6	0	11	4	1	0	8	8	23	0	16	10	39	0	0	7	4	0
OTU 109	0	0	0	0	0	0	0	0	1	0	0	11	3	0	0	0	0	0	0	0	0	0	0	0	0	0	0	0	0	1	0	0	0	0	0	0	0	0	0	0	0	0	0	0	0	0	0	0	0	0
OTU 110	80	3	53	4	4	19	34	28	5	1	8	20	28	8	1	13	54	63	36	83	4	129	9	26	19	70	30	145	0	30	39	131	42	2	42	82	36	2	8	11	5	13	83	36	97	34	161	1896	15	13
OTU 111	5	0	2	0	143	10	0	3	5	0	0	0	0	0	0	0	12	5	0	6	5	0	0	0	0	2	2	0	3	0	0	6	0	10	0	0	6	1	3	0	0	0	0	3	0	28	12	0	1	0
OTU 112	0	9	8	2	3	2	100	0	0	0	5	2	3	0	2	0	0	5	10	0	8	44	0	0	1	8	0	0	1	9	2	2	6	0	118	18	3	18	4	3	5	4	2	3	2	0	37	11	2	9
OTU 113	0	0	0	0	4	5	0	5	4	0	0	14	0	0	1	17	0	0	9	0	1	0	6	0	0	1	8	0	0	17	12	1	0	0	4	0	0	0	9	0	31	1	0	1	0	0	0	13	0	3
OTU 114	57	836	16	42	29	9	33	83	19	44	69	20	0	35	57	80	27	6	140	31	11	18	108	366	49	1	679	2	1	7	204	41	1346	101	35	39	100	56	7	33	72	1236	4	5	24	27	38	25	48	23
OTU 115	65	12	100	12	147	4	10	34	41	38	23	26	138	3	97	30	20	10	6	12	58	28	35	47	24	7	26	32	16	121	70	20	62	253	208	20	4	93	1	38	29	25	72	72	26	16	105	3	9	34
OTU 116	14	26	9	1	170	0	220	61	18	23	1	4	94	9	115	2	44	573	1	11	48	44	313	8	71	107	12	67	0	8	31	20	22	55	26	969	0	16	16	7	268	304	8	1	223	59	21	2	0	1
OTU 117	4	18	26	0	337	12	0	1186	16	16	1	93	8	1	4	3	14	141	1	17	473	1	55	49	66	6	65	19	18	2	13	49	93	126	26	7	0	41	108	2	25	35	24	1	8	78	153	0	0	3
OTU 118	3	0	4	0	0	3	0	0	14	0	0	0	0	0	72	0	0	0	1	0	1	0	24	9	24	0	24	0	8	13	0	0	61	7	1	34	0	0	0	1	0	22	0	0	0	130	0	0	0	3
OTU 119	24	53	26	11	7	11	24	28	2	9	23	2	45	0	2	41	158	35	7	29	30	116	1	1625	38	34	12	83	5	15	1	55	58	35	229	6	15	0	16	18	27	29	9	10	65	1	5	17	18	14
OTU 120	1	2	52	25	0	3	57	7	9	6	40	3	0	4	7	0	1	0	44	0	2	7	5	3	0	44	1	24	1	0	0	0	0	6	0	28	4	3	32	0	0	3	48	0	2	1	20	33	9	2
OTU 121	49	0	41	2	0	12	9	13	2	2	8	4	3	0	0	43	3	8	17	6	12	7	7	0	67	4	0	16	24	9	14	13	2	7	101	2	0	1	4	12	10	71	42	9	3	112	0	2	12	0
OTU 122	1	2	29	52	30	37	0	35	43	220	100	33	7	15	77	1	196	19	18	16	31	40	11	3	13	84	31	42	33	8	3	24	74	3	14	3	12	17	77	7	2	3	189	98	176	39	108	3	35	1
OTU 123	197	106	85	2316	117	246	291	106	37	237	197	92	32	24	362	358	82	55	200	12	31	72	53	121	56	191	69	175	665	43	69	36	152	129	13	95	35	26	342	76	108	127	166	129	118	144	179	43	44	50
OTU 124	0	20	0	0	5	2	23	16	6	0	0	1	8	1	8	54	2	0	0	28	0	5	0	0	0	1	4	0	0	0	7	40	0	42	12	7	2	2	0	7	1	12	2	0	5	0	2	0	64	0
OTU 125	50	53	43	120	47	30	116	84	88	126	324	58	115	16	154	142	470	99	62	75	38	1578	101	33	2482	74	6	83	23	21	47	145	20	313	170	81	22	685	48	207	89	193	340	89	29	77	298	18	13	15
OTU 126	0	0	0	1	0	0	0	25	1	6	0	0	0	0	0	25	1	2	0	0	14	0	0	0	4	3	3	0	0	0	13	0	1	0	1	0	0	20	4	0	2	0	2	0	0	0	0	1	0	0
OTU 127	32	7	0	43	32	14	5	18	13	80	54	106	271	1	2	45	0	174	0	0	27	1	18	3	0	2	1	15	37	0	10	0	3	27	1	3	0	4	86	63	16	9	58	0	8	2	222	9	12	0
OTU 128	804	113	198	53	653	31	255	156	68	133	157	39	421	26	162	444	42	246	139	73	44	76	84	414	73	45	15	88	47	74	81	156	88	233	59	168	114	39	126	335	122	296	36	78	245	95	74	41	116	71
OTU 129	0	0	0	12	0	0	19	0	10	0	16	20	1	2	0	0	11	0	5	2	0	12	0	0	0	0	0	0	0	0	7	4	1	0	10	3	0	7	0	0	0	0	0	59	74	0	0	0	0	0
OTU 130	3	2	2	9	9	6	6	16	0	16	9	8	0	6	0	11	90	8	2	0	18	2	2	5	20	0	5	0	0	3	0	1	39	77	60	117	1	34	0	37	14	99	0	0	14	43	35	3	10	13
OTU 131	10	871	28	14	1	15	2	153	42	3	33	0	7	0	210	47	117	8	12	1	14	3	6	389	89	34	977	4	16	4	3	10	1791	2	8	53	1	0	23	178	12	42	25	87	26	44	10	22	2	5
OTU 132	0	6	2	0	18	4	1	86	1	0	1	3	0	10	0	3	40	0	0	2	41	0	0	9	0	17	3	0	1	4	0	6	5	196	3	17	4	2	0	0	5	0	1	79	0	14	6	0	71	6
OTU 133	0	6	0	0	0	0	0	1	0	0	1	0	21	0	4	33	6	0	0	0	0	3	0	0	26	0	0	0	10	0	0	0	0	0	0	0	0	0	3	0	3	3	0	15	0	0	0	1	0	0
OTU 134	14	6	8	2	127	9	77	30	26	0	2	0	7	14	30	2	97	64	39	15	0	92	110	15	0	0	0	2	27	42	123	31	4	5	10	87	14	86	6	61	229	11	11	23	167	17	14	9	5	5
OTU 135	37	33	73	2675	1	6	10	22	43	70	39	0	2	58	366	46	11	69	40	48	0	1	37	16	1	0	0	23	4	20	55	92	3	15	38	83	54	14	33	6	68	0	101	90	25	28	0	79	109	7
OTU 136	9	19	2	44	1	0	7	14	13	46	77	4	1	5	56	1	0	0	1	0	16	1	2	0	0	10	10	35	0	0	0	1	9	2	18	37	14	9	0	33	24	2	64	0	1	8	39	0	0	4
OTU 137	385	13	0	0	7	0	0	42	6	0	0	0	1	19	14	4	19	0	37	794	1	5	7	0	1	2	0	0	0	0	1	1617	0	1	6	0	25	1	2	5	22	5	0	36	28	29	13	3	387	17
OTU 138	16	2	0	0	88	1	0	0	0	2	1	0	63	0	3	67	5	10	23	0	0	0	16	0	18	4	19	5	1	1	7	0	7	0	0	99	10	11	0	0	21	16	8	0	20	12	33	15	0	6
OTU 139	57	119	19	43	140	12	198	5	6	27	100	2786	12	86	23	72	375	212	68	14	6	31	205	67	121	1677	65	72	41	24	54	36	142	4	77	21	18	77	75	37	121	18	9	39	50	85	81	43	29	33
OTU 140	103	2088	46	204	236	168	354	45	33	3208	405	138	214	29	19	87	148	91	43	33	54	28	57	1173	0	38	15	19	336	2316	128	87	23	60	437	103	36	143	166	225	209	45	69	93	53	47	210	4	3712	16
OTU 141	0	0	0	0	0	0	0	0	0	0	0	0	0	0	0	0	0	1	0	0	0	0	0	0	0	0	0	0	0	16	0	0	0	0	0	0	0	0	0	0	0	0	0	0	0	0	0	0	0	0
OTU 142	5	8	0	0	26	0	0	0	0	0	0	0	0	0	0	0	3	11	0	1	0	0	0	0	0	0	0	0	0	0	0	4	1	0	0	0	0	30	0	0	0	0	0	0	21	0	0	0	1	0
OTU 143	0	10	3	11	5	0	0	0	5	0	27	0	0	0	0	9	1	0	0	2	0	0	0	0	0	0	0	0	0	4	0	3	2	5	60	7	1	0	1	0	7	0	8	0	6	5	0	0	0	0
OTU 144	2	4	0	31	1	0	10	0	0	27	65	33	1	0	12	0	0	0	0	0	0	3	71	0	0	0	12	1	0	0	0	0	34	218	0	0	0	0	0	0	38	19	18	12	0	0	0	0	17	0
OTU 145	6	16	1	45	25	2	94	0	111	6	109	4	21	35	149	0	5	11	42	5	26	2	66	2	10	63	17	746	9	30	47	9	15	20	48	16	23	26	24	6	182	226	52	17	9	52	3	50	49	4893
OTU 146	43	2	0	7	18	1	11	3	41	2	0	18	1	4	49	12	7	20	3	0	18	7	146	22	52	46	3566	30	6	38	26	3	24	4	30	6	1	95	9	0	109	30	11	4	0	27	159	0	56	6
OTU 147	1	0	3	0	75	0	11	2	3	22	0	87	10	7	16	21	13	7	13	0	0	4	0	0	15	1	3	0	8	12	1	0	10	3	0	10	15	4	10	1	16	6	5	8	5	70	0	1	0	25
OTU 148	1	188	0	27	3	1	111	11	8	15	52	10	88	1	1512	301	114	34	25	0	12	12	812	105	267	13	243	170	1	1	288	0	435	44	312	6	1	286	3	0	0	0	162	0	13	585	56	0	6	9
OTU 149	35	0	0	0	3	0	9	0	0	0	0	0	0	3	0	83	3	3	53	3	9	5	0	4	0	0	0	4	0	0	0	7	3	0	63	0	6	3	1	2	14	9	12	0	1	18	0	16	12	8
OTU 150	2	1	8	0	2	1	31	0	0	23	5	0	1	0	99	56	5	1	0	0	0	0	0	0	0	1	1	0	5	0	26	1	0	1	2	0	0	29	22	7	13	0	1	5	0	0	0	0	0	0
OTU 151	39	1	6	38	0	1	5	0	3	0	50	0	102	3	0	17	110	88	0	4	0	13	2	5	6	34	0	12	1	0	31	7	2	0	4	0	19	64	1	30	5	29	3	15	7	0	1	0	2	33
OTU 152	11	2	26	4	312	2	1	25	0	7	1	5	41	0	96	71	0	8	1	10	19	7	51	22	0	28	9	9	0	23	3	21	0	6	23	15	6	48	0	5	79	60	99	8	19	48	56	2	4	0
OTU 153	0	0	0	5	1	0	5	1	0	0	21	2	0	0	0	0	6	0	0	0	0	0	2	0	0	0	0	34	0	0	9	0	0	5	0	0	0	0	0	0	0	3	0	0	1	0	0	0	0	0
OTU 154	0	0	1	0	7	1	0	0	0	0	0	0	0	0	0	0	8	11	0	0	0	37	3	0	0	0	0	0	0	0	0	1	0	0	0	0	0	0	0	0	15	0	0	0	118	6	1	0	0	0
OTU 155	3	1	16	0	97	4	91	16	0	1	2	357	16	0	17	0	92	0	8	24	13	6	0	2	0	110	2	16	7	0	38	63	0	1	17	0	1	4	0	2	65	0	14	2	0	0	1	0	0	1
OTU 156	59	146	15	41	131	1758	65	77	52	1	119	4	140	19	9	531	37	119	87	16	57	4	17	100	37	30	6	166	26	154	126	51	6	18	13	137	52	60	36	60	25	92	9	38	24	28	58	69	51	47
OTU 157	0	0	11	0	0	1	2	0	28	0	2	2	2	0	0	24	0	0	0	0	0	1	66	0	0	72	0	2	0	62	0	0	13	0	0	33	3	1	0	0	18	0	2	4	1	0	4	1	10	0
OTU 158	0	0	0	0	12	0	0	0	0	0	0	0	0	0	0	0	5	0	0	0	0	0	1	0	0	0	0	0	0	0	4	0	0	0	0	0	0	0	0	0	0	0	0	1	0	0	0	0	0	0
OTU 159	0	12	3	7	111	10	1	0	30	18	28	3	35	2	15	23	59	0	38	23	1	0	2	2	6	24	13	51	17	76	165	51	2	63	8	3	9	16	2	2	0	2	1	33	61	38	44	485	2	1
OTU 160	81	6	66	156	156	28	62	25	2	78	261	49	330	447	69	365	25	198	85	15	42	71	105	92	7	673	27	15	12	18	17	40	80	103	112	694	6	24	58	40	49	31	224	15	104	46	80	2	22	19
OTU 161	35	5	1717	4	116	8	76	27	11	0	2	116	161	29	93	31	67	11	126	23	32	1	38	603	78	10	8	10	3	12	21	26	2	15	59	0	48	52	28	15	35	11	6	20	23	8	13	5	50	20
OTU 162	47	14	33	74	78	416	46	32	39	104	149	19	3	3	40	25	17	22	56	25	4	21	20	19	6	34	2	7	746	30	81	42	4	6	0	2	21	15	5	15	2	157	114	16	7	1	35	5	43	2
OTU 163	0	0	0	0	0	0	3	0	13	0	0	0	0	0	0	0	0	0	0	0	0	0	0	0	0	12	0	0	0	0	0	0	0	0	0	0	0	0	0	0	0	2	0	5	0	0	0	6	0	0
OTU 164	13	0	0	0	0	0	0	2	0	0	0	0	0	0	0	0	0	0	0	0	0	0	0	0	0	8	0	0	0	0	0	0	0	6	14	0	0	0	0	0	7	0	0	0	0	0	0	1	4	0
OTU 165	0	0	2	63	4	3	11	30	0	41	170	51	127	5	2	7	36	0	3	18	0	1	0	0	2	7	6	0	13	781	12	32	1	6	16	0	11	0	79	7	47	61	115	1528	4	2	1	5	52	3
OTU 166	0	0	0	0	0	0	0	0	0	0	0	0	0	0	0	0	0	0	0	0	1	0	7	0	0	0	0	0	0	0	0	0	0	0	106	0	0	15	0	0	0	0	0	0	0	0	0	0	2	0
OTU 167	26	5	1	35	11	0	2	31	0	27	54	68	0	12	5	2	51	15	3	28	14	0	2	4	25	25	0	0	0	17	0	66	2	10	0	5	4	0	1	1	108	0	1	0	0	2	2	0	23	0
OTU 168	22	14	2	26	31	1	39	0	21	23	34	73	53	7	48	12	43	46	0	4	0	33	11	28	12	37	12	1	1	738	18	14	12	27	76	7	12	32	36	88	0	5	33	1499	24	1	1	2	17	5
OTU 169	0	10	3	0	0	0	0	0	0	0	0	0	0	0	1	0	0	0	37	0	8	0	0	0	0	0	2	0	0	0	0	0	2	9	2	0	3	4	0	2	0	16	0	0	13	0	0	2	0	0
OTU 170	0	0	0	5	0	0	0	0	0	0	0	0	0	0	0	52	0	0	0	11	0	0	0	0	0	0	4	0	0	0	0	14	12	0	0	0	0	0	0	0	0	0	0	0	6	49	0	18	0	5
OTU 171	1	5	10	0	395	2	7	14	16	8	14	1	5	14	7	75	29	19	176	18	11	13	1	2	44	33	0	84	4	0	1	31	5	3	12	18	20	13	14	0	14	105	22	0	16	12	188	29	14	50
OTU 172	0	3	1	10	0	0	0	0	3	34	28	18	0	0	1	3	0	1	1	1	0	0	6	0	0	0	0	3	0	0	0	2	0	10	0	0	1	0	0	4	1	0	0	0	7	0	27	0	0	0
OTU 173	1	0	0	2	0	0	21	52	10	7	9	0	38	3	8	23	0	0	7	1	5	0	8	1	3	0	0	10	0	4	10	2	0	11	0	8	3	0	1	71	0	0	1	13	1	19	0	2	1	7
OTU 174	95	0	8	0	0	9	56	0	0	0	1	37	24	16	0	13	0	1720	21	151	15	208	18	5	12	50	4	24	12	3	6	272	3	0	5	9	52	1	40	42	0	20	0	0	456	8	0	2	226	0
OTU 175	5	0	29	0	0	2	60	13	0	0	1	0	19	8	3	74	42	0	3	0	0	9	1	35	0	1	3	0	17	0	0	1	10	120	2	1	0	2	7	4	3	22	0	6	5	2	2	10	12	1
OTU 176	48	76	46	69	60	3	4	64	2	19	84	38	12	4	78	92	44	26	92	0	23	61	0	41	40	6	28	10	3	13	14	0	66	7	11	141	34	3	38	31	9	112	27	17	1	199	23	2	40	12
OTU 177	27	25	19	8	44	12	40	0	15	15	42	42	0	20	17	11	93	178	71	5	16	66	146	9	69	9	1	56	19	15	16	9	4	55	56	9	49	19	22	41	261	47	4	45	100	153	83	28	1	18
OTU 178	38	43	0	0	118	18	0	37	0	0	0	17	5	0	0	89	44	182	2	0	0	32	3	3	0	34	3	36	37	12	20	0	8	2	0	3	19	0	35	0	0	0	1	12	35	0	36	0	6	0
OTU 179	2154	2	67	0	77	1	51	0	0	60	0	24	24	3	0	0	7	195	51	4	10	98	16	0	5	0	0	0	0	7	26	12	0	0	27	82	4	6	1	25	1	35	42	2	58	0	0	1	27	30
OTU 180	41	45	22	105	133	12	236	58	58	112	193	59	249	3	187	838	57	152	54	71	17	39	81	42	57	112	23	153	17	92	55	151	33	77	256	95	21	32	26	41	192	161	42	63	140	124	209	62	95	5
OTU 181	3	3	6	9	1	5	16	40	22	3	12	0	18	5	30	182	2	406	12	184	13	61	535	3	27	0	3	2	7	2	71	69	14	6	1	18	11	0	48	6	878	10	27	0	133	18	16	1	32	1
OTU 182	0	0	0	0	0	0	7	0	0	0	0	0	0	0	27	0	10	2	0	0	0	0	0	0	0	0	0	0	1	0	0	0	0	0	0	0	0	0	0	0	0	0	0	0	0	0	0	24	0	0
OTU 183	5	0	5	0	4	1	4	2	0	3	2	16	62	6	12	189	22	95	8	44	2	14	0	9	7	48	0	8	4	86	0	101	0	55	79	43	7	16	0	33	143	47	4	1	6	0	3	12	55	5
OTU 184	4	0	6	1	4	0	128	2	3	0	1	0	2	7	4	5	23	121	53	3	10	1	2	986	1	0	1	7	9	7	0	3	0	86	39	1	4	4	7	0	0	15	0	2	1	0	53	18	17	2
OTU 185	6	3	15	66	108	0	16	126	3	51	145	0	54	28	5	47	607	24	9	61	0	26	19	3	1860	5	73	55	4	502	12	134	93	76	197	0	20	46	8	35	8	85	8	308	41	29	43	10	19	8
OTU 186	10	8	9	2	15	3	2	0	2	6	0	2	0	0	0	2	4	0	0	0	20	8	1	0	23	2	0	0	0	11	0	0	0	2	30	14	1	1	31	0	4	3	2	0	0	4	0	2	2	4
OTU 187	3	104	46	21	156	11	65	198	11	61	24	59	157	63	357	104	48	1	81	125	137	21	117	46	210	14	57	233	29	20	92	267	78	230	174	16	74	67	78	11	237	49	72	9	29	258	135	12	100	27
OTU 188	17	40	13	92	45	9	43	67	384	40	172	82	26	0	327	46	8	29	0	8	4532	34	23	5	12	19	2	21	11	66	81	15	3	148	30	1	2	12	22	95	27	4	14	144	11	11	62	1	6	0
OTU 189	103	68	63	26	125	6	15	9	75	47	59	12	96	439	65	279	5	99	131	11	1	0	112	14	65	7	17	27	32	4	35	23	101	38	45	17	826	13	46	22	148	129	14	10	2	184	154	118	58	370
OTU 190	0	0	44	0	0	25	13	0	0	72	0	0	75	0	7	0	1	1	0	0	0	0	41	0	2	9	0	0	22	0	0	2	8	0	0	0	0	1	5	2	27	0	0	0	0	35	9	1	0	1
OTU 191	4	8	6	34	10	7	77	69	3	19	76	50	118	8	162	74	6	1	48	10	68	45	9	19	6	40	8	13	7	56	12	9	12	62	34	7	12	3	1	3	111	27	73	21	8	50	97	8	166	34
OTU 192	43	0	860	2	65	68	6	189	718	15	6	20	100	48	3	30	8	154	185	51	147	93	25	20	16	1110	2	109	115	60	20	111	21	120	32	509	96	33	159	931	24	51	129	154	170	12	41	91	1	53
OTU 193	45	49	85	40	69	215	55	386	10	96	66	101	0	120	2	89	15	3	306	7	229	11	14	64	2	98	2	3	385	19	0	16	13	0	0	15	252	12	682	17	0	179	38	34	1	7	263	172	37	82
OTU 194	424	23	51	24	10	32	1	4	0	0	33	3	4	0	20	61	0	10	3	189	0	2	4	10	3	14	4	1	76	18	16	374	7	1	2	0	19	0	139	1	3	22	36	7	6	2	2	6	326	0
OTU 195	30	0	35	0	6	54	1	6	0	0	0	0	0	0	0	7	21	122	25	0	2	19	18	1	161	28	0	0	52	2	0	0	2	51	77	29	20	0	194	86	34	45	4	5	43	255	0	0	51	3
OTU 196	33	26	18	85	21	35	0	29	3	36	114	0	14	3206	2	18	0	10	48	42	12	0	3	1	0	70	6	7	118	23	542	80	0	3	1101	18	19	208	215	8	7	36	54	2	5	7	78	11	2	12
OTU 197	39	9	6	125	72	25	150	92	2486	101	305	1343	34	58	31	5	44	48	94	59	82	2	46	6	476	35	7	27	26	9	10	135	20	65	28	16	47	21	58	103	36	95	194	73	63	720	31	36	110	75
OTU 198	112	1	51	0	13	1	1	8	0	40	0	4	47	25	44	0	0	0	0	0	23	1311	0	1	2	0	25	0	1	0	0	0	22	6	0	0	0	0	1	0	0	24	1	34	24	32	0	0	4	19
OTU 199	0	19	12	103	10	9	26	19	0	52	201	11	14	1	12	28	1	3	2	1	24	34	0	1	7	9	0	1	11	34	2	6	1	56	75	21	6	0	11	2	0	45	40	0	62	1	74	6	11	0
OTU 200	1	6	6	9	59	10	1	27	73	1	10	9	59	70	11	1	0	28	12	24	23	3	24	8	12	12	0	3	4	0	56	47	11	9	1	37	48	15	5	3	2	48	4	19	0	18	1	22	42	6
