	Host 1	Host 2	Host 3	Host 4	Host 5	Host 6	Host 7	Host 8	Host 9	Host 10	Host 11	Host 12	Host 13	Host 14	Host 15	Host 16	Host 17	Host 18	Host 19	Host 20	Host 21	Host 22	Host 23	Host 24	Host 25	Host 26	Host 27	Host 28	Host 29	Host 30	Host 31	Host 32	Host 33	Host 34	Host 35	Host 36	Host 37	Host 38	Host 39	Host 40	Host 41	Host 42	Host 43	Host 44	Host 45	Host 46	Host 47	Host 48	Host 49	Host 50	
OTU 1	0	2	0	3	4	1	0	0	1	1	3	1	0	2	0	9	4	11	16	1	4	1	1	0	3	0	2	6	2	0	2	5	14	7	12	4	5	2	2	4	3	7	6	7	1	3	2	3	1	11
OTU 2	0	1	0	0	0	0	1	0	0	0	0	0	0	0	0	0	0	0	0	0	0	0	0	0	0	0	3	0	0	0	1	0	1	0	0	0	3	0	2	0	0	1	0	0	3	2	0	0	0	0
OTU 3	3	0	16	118	1	0	8	1	23	0	0	0	0	0	0	0	0	0	1	0	0	0	0	0	0	2	0	0	4	0	0	0	0	0	0	8	0	4	0	29	0	0	0	0	0	0	0	0	0	0
OTU 4	0	0	0	0	0	0	0	0	0	0	0	0	0	0	0	0	0	0	0	0	0	0	0	0	0	0	0	0	0	0	0	0	0	0	0	0	0	0	0	0	0	0	0	0	0	0	0	0	0	0
OTU 5	7	4	11	6	18	6	53	25	6	81	36	10	37	40	14	18	35	0	9	41	0	30	40	36	9	39	11	16	27	0	7	13	19	0	45	6	24	9	20	16	1	10	11	4	45	8	14	35	4	9
OTU 6	6	0	0	0	0	2	0	1	0	0	1	0	3	1	2	1	0	0	5	0	0	2	2	0	0	0	0	0	0	0	1	8	0	0	3	1	0	1	0	2	1	2	0	0	2	36	18	2	0	0
OTU 7	5	1	0	0	3	3	7	0	1	3	18	2	15	10	9	0	3	10	1	0	5	6	3	1	12	5	0	4	3	1	0	0	3	2	1	1	0	3	0	0	3	9	3	4	0	1	8	20	1	0
OTU 8	2	0	7	8	9	0	0	5	1	0	5	1	7	5	3	12	6	10	20	2	1	8	0	1	0	14	1	5	1	1	2	3	0	2	4	0	11	22	0	0	2	4	2	4	1	3	3	2	0	6
OTU 9	0	0	2	0	1	0	0	0	0	0	0	0	0	0	0	0	1	0	0	0	0	0	0	2	0	0	0	0	0	0	1	0	0	1	0	0	0	1	3	0	0	0	2	7	0	0	0	1	2	0
OTU 10	0	0	0	0	0	0	0	0	0	0	0	0	0	3	0	0	0	6	0	0	1	0	0	0	0	0	2	0	0	1	0	0	2	0	0	0	0	2	5	6	0	0	0	0	0	0	1	0	0	1
OTU 11	0	0	0	1	0	0	3	0	0	1	3	4	2	0	1	0	0	0	0	1	0	3	0	0	0	1	0	2	0	1	4	1	0	0	0	0	2	6	0	1	6	2	1	0	2	1	0	2	4	1
OTU 12	1	1	0	0	11	0	4	1	1	1	0	1	1	2	4	0	4	2	1	1	0	2	2	0	0	0	4	0	0	2	0	5	2	1	0	4	0	0	0	0	1	5	0	6	0	6	1	2	5	0
OTU 13	0	0	0	0	0	0	0	0	0	0	1	0	0	0	0	0	0	0	0	0	0	0	0	0	0	2	0	0	0	0	0	0	2	0	0	0	0	0	0	0	0	0	0	0	0	0	0	0	0	0
OTU 14	0	1	1	0	0	0	1	0	3	0	5	4	0	0	0	0	0	0	0	0	0	6	0	0	0	2	0	0	0	0	0	0	0	4	0	1	0	0	0	7	0	1	0	1	0	0	2	0	0	0
OTU 15	0	0	0	0	0	0	0	0	0	0	2	0	0	0	0	0	0	0	0	0	0	0	0	0	0	0	0	0	0	0	0	2	0	0	0	0	0	0	0	4	0	0	0	0	0	0	1	0	0	0
OTU 16	0	0	0	0	0	0	0	0	0	0	0	0	0	0	0	0	0	0	0	0	0	0	0	0	0	0	0	0	0	0	0	2	0	0	0	0	0	0	0	0	0	0	0	0	0	0	0	0	0	0
OTU 17	0	0	1	0	0	0	7	1	2	0	3	0	3	0	0	0	0	1	0	0	0	0	0	0	0	1	5	0	0	1	2	3	5	0	0	1	0	1	0	1	0	0	1	0	0	0	0	1	0	0
OTU 18	1	0	3	2	3	5	0	0	4	9	4	0	0	1	8	1	1	3	5	1	3	0	3	2	6	1	0	1	0	1	4	1	1	1	0	1	2	0	0	8	0	0	1	0	0	6	4	2	0	3
OTU 19	0	0	0	0	0	0	0	0	0	0	0	0	0	0	0	0	0	0	0	0	0	0	0	0	0	0	0	0	0	0	0	0	0	0	0	0	0	0	0	0	0	0	0	0	0	0	0	0	0	0
OTU 20	0	0	1	0	3	0	4	0	0	3	0	1	6	3	3	0	0	0	1	3	0	0	0	0	5	0	5	0	4	0	1	0	3	7	0	1	0	1	2	1	1	19	5	1	2	0	0	1	0	0
OTU 21	1	0	8	0	0	0	0	8	0	0	0	0	0	3	0	0	0	5	7	0	3	1	2	0	0	3	1	0	0	0	8	2	0	2	0	0	0	0	1	0	4	1	1	1	3	0	3	4	1	0
OTU 22	0	4	1	3	0	1	0	1	74	0	4	2	0	0	1	1	0	0	1	0	1	0	0	0	1	0	0	1	84	5	4	1	1	4	3	0	2	0	0	2	33	1	1	2	0	1	3	4	0	7
OTU 23	0	1	0	0	0	0	9	0	2	0	0	2	1	1	0	0	0	2	0	1	0	1	0	0	4	0	5	2	0	6	1	5	5	0	4	0	0	0	0	3	2	2	2	0	0	2	2	9	0	1
OTU 24	0	0	2	0	0	0	5	0	0	0	0	0	0	0	1	0	0	0	0	1	41	0	0	0	0	0	0	1	0	0	2	0	0	0	0	0	0	3	1	0	0	5	0	0	1	0	0	0	1	0
OTU 25	0	0	0	0	0	0	0	0	0	0	0	0	0	0	0	0	0	0	0	0	0	0	0	0	0	0	1	0	0	0	0	0	1	0	0	0	0	0	0	0	0	0	0	0	0	0	0	0	0	0
OTU 26	0	0	1	0	0	0	0	0	0	0	0	0	0	0	0	0	0	0	0	0	0	1	0	0	1	0	0	1	0	1	0	0	0	0	0	2	0	1	0	0	0	0	0	8	0	0	0	0	0	0
OTU 27	0	0	0	0	0	0	0	0	0	0	0	0	0	0	0	0	0	0	0	0	0	0	0	0	0	0	0	0	0	0	0	0	0	0	0	0	0	0	0	0	0	0	0	0	0	0	0	0	0	0
OTU 28	1	1	1	4	0	1	2	6	2	1	3	0	7	1	5	0	0	1	2	0	0	1	2	3	3	2	0	0	3	0	3	1	2	1	0	0	2	2	9	1	2	4	0	1	0	0	1	0	15	1
OTU 29	10	2	3	1	0	2	1	0	1	2	6	3	0	9	3	0	0	8	0	0	1	4	4	1	1	2	1	1	4	4	4	0	1	0	0	2	2	0	0	6	1	3	4	7	0	0	10	2	0	2
OTU 30	0	0	0	0	0	0	0	0	0	0	0	0	0	0	0	0	0	0	0	0	0	0	0	0	0	0	0	0	0	0	0	0	0	0	0	0	0	0	0	0	0	0	0	0	0	0	0	0	0	0
OTU 31	0	0	0	0	0	1	1	0	0	0	0	1	0	0	0	0	0	1	0	0	0	0	2	4	3	0	0	2	0	5	5	6	0	0	0	1	0	0	0	0	0	5	0	1	0	0	0	0	0	0
OTU 32	1	3	0	1	100	0	5	2	5	1	19	1	8	0	1	2	78	1	0	3	3	0	1	2	1	1	2	0	24	7	1	9	1	12	0	0	2	10	72	0	1	4	1	18	0	0	3	0	4	0
OTU 33	11	0	0	0	0	4	0	0	0	0	0	0	0	0	0	0	0	0	0	0	0	0	8	0	0	0	0	0	0	0	0	0	0	0	0	0	0	0	0	0	0	0	0	0	0	0	0	0	0	0
OTU 34	0	0	0	20	1	0	6	3	1	0	2	0	0	2	4	3	0	3	1	2	2	0	0	0	1	10	2	0	4	2	0	0	2	35	0	18	125	0	15	1	0	3	2	3	0	8	1	1	1	54
OTU 35	3	10	4	1	2	1	3	0	1	4	10	26	0	11	2	0	0	17	0	1	170	4	4	0	0	1	1	3	0	6	0	0	1	3	1	1	0	0	0	1	1	5	106	0	0	3	3	0	0	1
OTU 36	0	0	0	38	0	0	1	4	0	0	0	0	2	5	2	0	0	4	0	0	0	0	1	0	0	0	5	0	0	2	0	0	8	67	1	0	3	0	1	0	0	0	2	1	5	0	0	0	0	0
OTU 37	0	0	0	0	0	0	0	0	0	0	1	0	0	0	0	0	0	0	0	0	0	0	0	0	0	1	0	0	0	0	0	0	0	0	0	0	0	2	0	0	3	0	0	0	0	0	0	1	0	0
OTU 38	1	0	0	0	3	0	3	0	0	0	4	0	3	0	0	0	0	3	1	0	0	1	0	1	2	0	0	0	20	2	1	3	0	8	5	0	1	1	17	0	2	0	0	5	3	0	0	0	1	0
OTU 39	0	0	0	0	0	0	0	0	1	0	0	1	0	0	0	0	1	0	0	2	0	0	0	2	2	0	0	0	0	0	4	0	0	0	0	2	0	0	0	0	0	7	0	5	0	1	0	0	0	0
OTU 40	0	2	0	0	0	0	0	0	0	0	2	2	1	0	0	1	2	0	2	0	0	20	0	12	7	2	0	9	1	3	0	2	1	6	0	1	0	0	0	0	9	2	0	0	1	0	0	1	2	0
OTU 41	0	0	3	0	0	0	0	0	0	0	1	3	2	0	3	0	0	0	0	1	0	3	0	3	0	1	1	0	7	0	0	0	1	0	2	0	1	0	4	1	0	0	0	0	0	6	4	0	2	3
OTU 42	1	0	0	0	0	0	0	0	0	0	0	0	0	0	1	0	0	0	0	0	0	4	0	0	0	0	0	0	0	0	4	1	1	9	5	0	0	0	0	0	0	0	0	0	0	2	1	0	0	0
OTU 43	0	0	0	0	0	0	0	0	0	0	0	0	0	0	0	0	0	0	0	0	0	0	0	0	0	0	0	0	0	0	0	0	0	0	0	0	0	0	0	0	0	0	0	0	0	0	0	0	0	0
OTU 44	0	0	0	0	0	0	4	0	0	0	0	0	0	0	0	0	0	0	0	0	0	0	0	0	0	2	0	0	0	0	0	0	4	2	0	0	0	0	0	0	0	0	0	0	0	0	0	0	1	0
OTU 45	6	0	0	0	0	10	1	0	0	1	0	2	14	0	0	0	0	0	0	2	0	1	12	0	1	0	4	2	0	6	9	7	1	2	0	2	0	0	0	0	0	10	0	0	2	1	11	1	4	0
OTU 46	3	3	0	1	1	2	2	1	2	0	7	5	0	0	4	1	2	6	2	2	0	5	1	0	0	2	1	1	0	2	0	0	4	3	1	0	0	5	2	2	5	2	0	0	0	2	4	2	2	1
OTU 47	0	0	0	0	0	0	0	0	0	0	0	0	1	0	0	0	0	0	0	0	0	0	0	0	0	1	0	0	0	0	0	0	0	7	0	0	0	0	0	0	1	0	0	0	0	2	1	1	0	0
OTU 48	5	0	3	0	0	3	1	5	2	0	0	0	5	0	1	0	1	2	2	0	0	0	2	1	3	0	0	1	5	3	2	1	0	0	1	8	0	0	0	16	2	0	1	0	5	0	5	0	3	0
OTU 49	0	0	3	0	0	14	0	0	0	1	0	0	0	0	0	0	0	1	1	0	0	0	0	0	0	0	0	0	0	1	0	0	0	0	0	0	0	3	5	0	8	0	0	3	0	2	0	0	0	0
OTU 50	1	0	6	0	2	0	51	0	0	1	3	0	1	8	10	1	1	8	0	9	1	7	0	29	0	1	0	6	4	0	8	0	15	3	9	3	0	28	1	2	9	6	2	0	2	3	3	2	8	1
OTU 51	0	3	0	0	0	0	1	3	0	2	0	10	0	0	0	0	0	0	0	2	0	0	0	1	1	0	18	0	1	0	0	4	9	2	0	7	2	1	1	5	0	4	24	0	0	1	0	0	0	0
OTU 52	2	1	4	0	0	1	1	3	3	0	9	4	10	0	0	2	1	0	3	10	0	0	0	2	32	8	1	9	7	3	4	3	3	1	1	0	2	2	29	4	0	1	1	0	4	8	23	2	1	2
OTU 53	1	0	0	0	0	0	0	0	0	0	0	0	0	0	0	0	0	0	0	0	0	0	0	0	0	2	0	0	0	0	0	0	0	0	0	0	0	0	0	0	0	0	0	0	0	0	0	0	3	0
OTU 54	2	5	1	0	1	1	11	1	1	1	35	22	0	4	2	8	0	9	7	0	5	1	1	1	1	2	3	2	1	24	5	4	0	4	1	3	3	0	4	5	4	0	11	3	57	0	2	6	3	0
OTU 55	0	0	0	0	0	0	0	0	0	0	0	0	0	0	0	0	0	0	0	0	0	0	0	0	0	0	0	0	0	0	0	0	0	0	0	0	0	0	0	0	0	0	0	0	0	0	0	0	0	0
OTU 56	1	11	0	0	0	0	1	0	0	0	0	0	0	0	1	4	0	1	10	0	0	0	7	0	0	0	2	2	0	38	0	0	0	0	0	2	0	2	0	4	8	0	0	32	0	1	0	1	2	0
OTU 57	1	6	5	1	0	0	3	5	4	5	4	1	0	4	1	14	20	15	8	2	2	0	3	2	1	16	0	2	2	6	3	0	2	3	1	11	1	71	5	3	0	0	0	4	0	1	3	1	0	1
OTU 58	0	0	2	0	0	0	0	1	0	1	0	0	1	0	1	0	0	0	0	56	0	1	0	0	0	0	0	2	0	0	83	0	4	0	0	0	5	50	0	0	4	0	2	3	0	0	5	44	3	1
OTU 59	0	0	0	0	0	0	17	0	0	1	0	0	0	0	0	0	0	1	0	0	0	2	0	0	0	0	0	0	0	5	0	0	0	0	0	0	1	0	0	1	1	0	0	1	0	0	2	0	0	0
OTU 60	7	2	0	1	1	6	5	4	1	0	2	0	2	1	5	0	0	2	1	2	2	0	1	1	2	0	35	0	1	0	0	6	2	11	3	3	0	2	3	4	3	1	2	9	0	2	9	9	2	1
OTU 61	1	1	0	7	1	3	2	23	2	1	1	3	12	1	4	16	1	1	28	1	0	1	1	0	2	0	0	1	4	2	0	1	3	4	1	9	8	0	1	2	1	1	0	0	1	9	0	5	4	11
OTU 62	0	0	15	0	0	0	1	0	13	0	1	0	2	0	0	0	0	0	0	0	0	0	0	0	0	4	0	0	0	0	0	0	0	1	0	6	0	0	2	50	0	0	0	0	0	0	2	0	0	0
OTU 63	0	0	53	0	0	0	2	0	0	0	1	0	0	0	0	7	0	2	0	0	0	0	0	0	0	4	2	1	2	0	0	0	4	1	0	1	0	0	0	0	2	0	0	4	0	1	0	0	0	0
OTU 64	30	4	5	5	0	9	3	12	1	1	0	3	0	3	3	27	0	4	64	0	0	8	9	0	1	2	3	6	3	0	0	26	11	7	0	5	36	1	9	4	2	6	1	2	1	2	1	25	10	20
OTU 65	0	0	0	0	0	0	0	0	0	0	0	0	0	0	0	0	0	0	0	0	0	0	0	0	0	0	0	0	0	0	0	0	0	0	0	0	0	0	0	0	0	0	0	0	0	0	0	0	0	0
OTU 66	0	5	0	0	1	0	1	0	15	0	1	5	0	0	3	0	0	4	0	0	1	1	0	4	0	1	4	1	1	1	4	10	11	6	3	50	1	0	2	3	7	1	0	1	2	0	0	0	1	0
OTU 67	2	0	0	0	0	0	0	0	1	0	0	1	0	2	0	0	0	5	0	0	0	3	0	0	1	0	0	0	0	0	0	2	0	1	0	5	0	4	3	0	0	6	1	1	0	0	1	0	0	0
OTU 68	11	0	0	0	0	1	0	0	0	0	0	0	1	0	0	2	0	0	9	0	0	11	3	0	0	0	0	1	0	1	0	4	0	0	0	0	2	0	0	0	0	0	1	0	15	0	0	0	1	4
OTU 69	0	0	2	0	0	0	3	1	0	1	1	0	0	0	2	3	0	0	2	2	0	0	0	3	6	0	0	0	0	0	2	0	0	0	0	3	0	2	0	4	0	20	0	1	0	1	2	0	0	0
OTU 70	3	0	1	1	0	1	0	0	0	0	2	1	0	0	4	2	0	0	0	0	0	0	0	0	1	0	0	1	3	1	5	0	1	0	0	0	2	0	1	0	3	0	0	0	0	0	0	0	0	0
OTU 71	0	0	1	0	0	0	0	0	0	0	2	0	0	0	0	0	0	2	0	1	1	2	0	2	0	0	0	0	0	0	0	0	0	0	0	0	0	1	0	0	0	0	4	0	0	5	0	0	0	0
OTU 72	0	0	2	0	0	0	0	10	1	0	1	4	53	0	4	4	0	1	1	0	0	1	0	0	1	1	0	1	1	2	0	1	0	0	0	1	0	0	5	0	0	3	0	4	2	1	0	0	6	0
OTU 73	4	0	6	0	3	1	0	4	1	0	0	0	1	1	0	1	0	0	3	8	0	0	3	3	2	2	7	0	0	2	0	0	1	4	5	0	2	0	0	2	2	0	0	2	0	2	8	0	0	0
OTU 74	0	3	3	0	0	0	0	1	0	0	1	2	3	0	1	1	0	0	6	0	1	1	0	0	0	0	1	0	0	2	2	4	3	5	1	0	1	0	1	0	2	3	0	0	2	4	0	0	1	0
OTU 75	2	1	2	0	0	3	0	1	1	1	2	1	3	0	0	0	3	0	3	0	1	2	0	0	0	0	1	1	1	1	10	0	3	1	1	0	2	0	4	8	1	5	4	0	0	1	0	2	0	0
OTU 76	0	0	1	0	1	0	0	0	0	0	1	0	0	2	0	0	0	3	0	2	0	63	0	0	0	1	0	0	0	0	0	0	0	0	4	0	1	0	2	0	0	0	0	0	1	0	1	0	0	1
OTU 77	1	1	1	1	0	0	0	1	1	0	0	0	1	0	0	0	0	0	0	0	1	1	1	0	0	2	7	3	1	1	1	0	1	7	1	0	1	1	0	4	3	0	0	0	0	4	4	2	0	0
OTU 78	4	0	1	1	0	2	0	1	1	0	4	2	0	0	10	1	0	0	8	0	0	0	5	0	0	0	0	0	1	0	0	0	0	0	0	2	1	0	0	1	3	3	0	3	0	2	2	0	2	0
OTU 79	2	2	0	3	8	0	1	59	14	64	2	8	5	4	26	0	2	2	1	22	2	2	3	4	110	9	2	3	1	0	0	3	8	5	5	6	2	3	3	3	9	4	5	1	2	0	9	5	3	5
OTU 80	1	0	0	0	0	1	4	0	8	0	0	0	4	1	0	5	2	1	14	1	0	0	1	0	1	0	1	51	0	5	1	0	0	1	8	6	0	3	7	3	7	1	0	1	0	1	0	0	0	0
OTU 81	0	0	12	1	0	4	1	13	15	1	3	0	4	1	0	6	0	0	11	0	1	1	0	1	0	5	0	24	1	1	1	4	0	1	0	2	2	1	0	20	4	0	1	2	0	0	9	4	0	0
OTU 82	0	0	0	0	1	0	0	8	0	0	1	0	0	0	1	0	3	2	0	0	0	2	0	1	0	0	1	0	0	3	4	0	0	0	8	0	0	0	1	1	1	1	0	0	0	1	0	0	1	0
OTU 83	0	0	0	0	0	0	0	0	0	0	0	0	1	0	0	0	0	0	0	0	0	0	0	0	0	0	1	1	3	0	0	0	0	0	1	0	1	0	0	0	1	0	0	0	0	0	5	0	1	0
OTU 84	0	0	2	0	2	0	1	0	0	0	0	0	0	0	0	0	0	0	0	0	0	0	0	0	0	0	0	0	0	0	7	2	5	1	2	0	0	1	0	0	1	0	0	0	1	6	0	0	0	0
OTU 85	0	0	0	0	0	1	0	0	0	0	1	0	0	0	0	0	0	0	0	0	0	0	0	0	0	1	0	0	0	0	2	0	0	0	0	0	0	0	1	0	5	0	0	0	0	0	0	0	0	1
OTU 86	0	1	2	0	0	0	0	0	0	0	0	0	0	0	1	0	0	0	0	0	0	1	0	0	0	0	0	0	0	0	0	0	0	0	0	0	0	0	0	9	0	0	0	0	0	0	0	1	0	0
OTU 87	0	0	0	0	0	0	0	0	0	0	0	0	1	0	1	0	0	0	0	2	0	0	0	0	1	0	0	0	0	0	1	1	0	0	0	2	0	0	0	0	0	0	0	0	0	0	0	1	0	0
OTU 88	0	0	0	0	0	0	0	0	0	0	0	0	0	0	0	0	0	0	0	0	0	2	0	0	0	14	0	0	0	0	0	0	0	4	0	0	0	0	1	0	1	0	0	0	0	0	0	0	0	0
OTU 89	0	1	2	0	1	0	0	3	0	0	0	0	0	0	0	0	0	0	0	0	2	0	0	0	0	0	0	0	0	2	0	1	0	0	0	0	0	0	0	0	1	0	0	0	0	1	0	0	0	0
OTU 90	0	0	0	0	0	0	0	0	0	0	1	0	1	0	0	0	0	1	0	0	0	0	0	0	0	0	0	0	0	0	1	2	0	0	0	1	0	0	1	0	3	0	0	0	0	0	0	0	0	0
OTU 91	0	0	0	0	0	0	0	0	0	0	0	0	0	0	0	0	0	0	0	0	0	0	0	0	0	0	0	0	0	0	0	0	0	0	0	0	0	0	0	0	0	0	0	1	0	0	0	0	0	0
OTU 92	0	0	0	0	1	0	0	0	2	0	0	0	0	0	0	0	0	0	0	0	0	0	0	0	0	0	3	0	0	0	2	2	0	0	0	0	0	0	0	0	0	0	0	0	0	0	1	0	0	0
OTU 93	0	1	0	0	0	0	0	0	0	0	0	0	0	0	0	0	0	1	1	0	0	0	0	1	1	0	0	0	0	0	0	0	0	0	0	0	0	0	0	0	0	0	0	0	0	0	1	0	0	0
OTU 94	3	5	2	1	0	1	1	0	0	0	1	2	2	0	1	1	0	1	6	0	0	1	1	0	0	2	0	5	1	0	3	14	2	7	0	0	0	1	1	0	2	0	0	0	0	2	22	0	7	4
OTU 95	0	0	3	0	0	0	4	1	2	0	0	0	0	1	1	0	0	0	0	0	0	0	0	0	0	1	0	0	0	0	0	0	0	0	0	0	0	1	0	0	0	0	4	0	0	0	0	31	0	0
OTU 96	0	0	3	0	0	0	0	0	0	0	0	0	0	0	0	0	0	0	0	0	0	0	0	2	0	0	0	0	0	0	0	0	6	0	0	0	0	0	0	0	0	0	0	0	0	1	0	0	0	0
OTU 97	0	0	0	0	0	1	0	0	0	0	0	0	0	0	0	0	0	0	0	1	0	4	0	0	0	0	2	0	0	4	0	0	1	0	0	0	1	0	0	0	1	0	0	0	0	0	0	0	0	0
OTU 98	1	0	6	0	0	3	0	0	1	0	0	0	0	0	0	0	2	0	0	0	0	0	0	1	0	0	0	0	0	0	0	0	0	0	0	0	0	0	1	2	3	1	0	0	0	1	0	0	0	1
OTU 99	4	2	1	0	0	1	0	13	1	0	1	4	2	1	0	4	0	2	9	2	1	3	2	3	7	4	1	0	2	0	3	6	2	7	1	19	5	5	0	1	2	11	27	1	1	37	2	10	2	1
OTU 100	1	0	1	0	11	0	1	0	5	0	1	1	2	2	0	0	9	1	0	0	2	0	0	0	0	1	0	62	0	2	19	0	1	0	29	0	0	9	2	1	1	0	0	0	5	3	0	0	0	1
OTU 101	0	0	0	0	0	0	0	0	0	0	0	0	0	0	0	0	0	0	0	0	0	0	0	1	0	0	0	0	0	0	0	0	0	0	0	1	0	0	2	0	0	0	0	0	0	0	0	0	1	0
OTU 102	0	1	0	0	0	0	0	0	0	0	0	0	0	2	0	2	3	0	0	0	1	1	0	0	0	1	0	5	0	0	0	0	0	0	3	0	0	0	0	0	0	0	0	0	1	0	0	0	0	0
OTU 103	0	0	0	0	14	0	0	0	0	0	0	0	0	0	2	2	9	0	0	0	2	2	0	0	0	5	4	18	0	3	14	3	17	0	23	0	2	4	0	0	3	1	0	2	4	16	0	0	3	0
OTU 104	7	2	1	3	0	1	1	3	0	1	0	0	1	0	9	2	1	1	2	0	0	0	1	23	4	4	3	1	4	1	3	24	5	5	8	0	2	0	0	6	5	14	0	0	1	0	9	5	17	11
OTU 105	0	0	0	0	0	0	0	0	0	0	4	0	1	0	0	0	0	0	1	0	0	0	0	0	0	0	0	0	0	3	0	0	0	0	0	0	1	0	0	0	9	0	0	0	0	2	0	1	0	0
OTU 106	0	0	2	1	0	1	0	0	0	1	0	1	0	0	0	0	0	0	0	0	0	0	0	0	1	0	0	0	0	0	0	0	0	0	0	4	0	0	0	0	0	0	0	0	0	0	0	0	0	1
OTU 107	1	0	2	0	0	0	0	0	0	0	1	0	1	3	0	0	0	1	0	0	1	0	0	0	0	0	0	0	0	2	0	0	0	0	0	0	0	0	0	0	0	0	0	8	2	0	1	0	0	0
OTU 108	2	0	0	0	0	0	0	2	0	0	0	0	0	0	1	4	0	2	2	0	0	0	0	3	0	0	0	5	0	0	0	0	1	0	1	0	1	1	0	0	0	0	0	0	0	0	0	1	0	0
OTU 109	0	1	0	0	0	0	0	0	0	0	0	0	0	0	0	0	0	0	0	0	0	0	0	0	0	0	0	0	0	0	0	0	0	0	0	0	0	0	0	0	0	0	0	0	0	0	0	0	0	0
OTU 110	10	0	0	0	0	1	0	4	2	0	0	1	0	0	1	2	0	1	3	0	0	6	3	1	0	2	3	2	0	5	1	5	6	0	4	2	1	0	1	1	1	0	2	2	0	4	15	58	4	1
OTU 111	0	0	1	0	0	1	0	0	0	0	0	0	0	0	0	0	0	0	1	0	0	0	0	2	1	0	0	0	0	0	0	0	0	0	0	0	0	0	0	0	0	0	0	1	0	0	0	0	0	0
OTU 112	0	0	1	0	0	0	12	0	1	2	0	0	0	1	0	0	4	0	0	0	0	1	0	0	0	0	0	0	0	1	2	0	0	0	7	1	0	0	0	0	1	2	0	0	1	0	1	0	0	0
OTU 113	0	24	1	0	0	0	0	0	0	0	0	3	0	0	0	0	0	0	0	0	0	0	0	0	0	0	0	0	0	1	0	0	0	0	0	0	0	0	0	0	0	0	0	0	0	0	0	0	0	1
OTU 114	1	2	1	0	1	1	1	5	0	62	0	0	0	115	1	1	3	0	3	3	0	2	0	11	26	1	23	0	0	2	10	1	24	13	2	1	10	0	1	0	8	38	3	0	0	6	1	2	0	0
OTU 115	7	1	5	4	2	2	2	0	3	0	3	0	3	0	5	0	4	0	1	0	2	0	0	1	2	8	1	1	0	4	5	1	1	7	8	0	0	13	3	1	1	3	8	0	5	1	1	0	0	3
OTU 116	1	0	0	2	0	3	7	3	4	2	0	2	2	6	4	0	0	23	1	1	14	0	1	0	1	4	0	1	0	0	0	0	5	0	1	30	1	0	1	0	5	6	0	0	0	0	0	0	0	0
OTU 117	1	3	0	0	2	1	4	22	0	0	0	0	0	1	0	0	0	6	0	0	2	0	0	3	1	1	5	0	1	1	1	4	2	1	1	2	0	1	1	1	3	1	0	0	4	0	2	0	0	0
OTU 118	1	0	2	0	0	0	0	0	0	0	0	0	0	0	5	0	0	0	0	0	0	0	1	0	0	0	0	0	4	1	0	0	2	1	0	4	0	0	0	0	0	3	0	0	0	3	0	0	0	0
OTU 119	1	0	1	8	3	0	0	0	0	2	1	0	1	0	1	0	4	1	0	0	0	5	0	70	0	2	1	2	2	0	0	0	1	0	3	0	0	0	1	2	2	1	4	0	6	3	0	4	2	0
OTU 120	5	0	5	0	0	0	0	0	0	0	0	0	2	0	0	1	0	0	0	0	0	0	0	0	0	3	0	1	0	0	0	0	0	0	0	1	0	0	2	0	0	0	4	0	0	1	0	0	0	0
OTU 121	2	0	0	0	60	0	0	0	0	1	0	0	0	0	0	1	32	0	0	0	0	0	2	0	5	0	1	0	5	3	1	0	0	0	3	2	0	4	2	2	0	2	0	0	0	1	1	0	2	0
OTU 122	0	1	4	3	0	0	0	0	4	0	1	2	0	0	5	1	0	0	1	0	0	6	0	1	0	5	0	0	1	0	0	0	0	0	1	0	2	0	2	1	0	2	4	2	1	5	4	1	1	0
OTU 123	7	1	8	0	2	9	9	3	2	53	6	0	7	2	17	3	2	3	13	25	1	3	3	5	16	13	4	10	29	5	7	3	11	3	2	5	3	4	11	1	6	2	12	13	61	7	9	3	7	4
OTU 124	0	0	0	0	1	0	0	4	0	0	0	0	0	0	1	1	0	0	0	0	0	0	0	0	0	0	0	0	0	0	0	3	0	1	0	0	0	1	0	0	0	0	0	0	0	0	1	0	0	0
OTU 125	5	1	6	6	2	2	5	2	9	1	19	4	7	4	5	6	0	2	2	0	8	50	6	3	1	1	0	8	2	7	3	4	1	7	10	7	0	22	1	7	9	7	11	12	8	4	15	1	3	5
OTU 126	0	0	0	0	0	1	0	0	0	0	0	1	0	0	0	0	0	0	1	0	0	0	0	0	0	0	0	0	0	0	0	0	0	1	0	0	0	2	1	0	0	0	0	0	0	0	0	0	0	0
OTU 127	0	0	1	0	0	0	0	0	0	4	0	0	15	3	0	0	0	3	0	0	1	0	1	4	0	0	2	0	0	0	0	0	1	1	0	0	2	0	3	5	0	1	2	3	0	1	18	0	0	0
OTU 128	30	1	10	1	1	10	8	15	10	6	9	2	17	7	4	5	2	8	10	0	5	1	10	14	13	1	1	1	5	2	5	6	8	15	4	7	3	1	3	9	0	21	2	3	1	2	1	0	3	3
OTU 129	0	0	0	0	0	0	0	0	1	0	4	4	0	0	0	0	0	0	0	0	0	0	1	0	0	0	0	0	0	0	0	1	0	0	0	1	0	0	0	0	0	0	0	3	0	0	0	0	0	0
OTU 130	1	0	2	0	1	1	5	0	1	0	0	0	0	0	0	0	0	0	0	0	2	2	0	1	2	0	0	0	0	1	0	0	2	3	0	3	0	3	0	0	0	0	0	0	0	5	1	0	0	0
OTU 131	2	1	0	1	1	2	0	6	3	2	0	0	2	0	6	2	1	2	3	0	1	0	1	8	0	2	38	0	1	0	0	1	64	0	0	0	0	3	1	13	1	1	3	3	1	9	0	3	0	2
OTU 132	0	0	0	0	0	0	0	0	0	0	1	3	0	0	0	0	1	0	0	0	0	0	3	3	0	0	1	0	2	0	1	0	0	4	1	0	0	0	0	1	0	0	0	0	0	2	0	0	1	0
OTU 133	0	0	0	0	0	0	0	0	0	0	0	0	1	0	0	152	0	1	0	0	0	0	0	0	0	0	1	0	0	0	0	0	0	0	0	0	0	0	0	0	0	0	1	0	0	0	0	1	0	0
OTU 134	0	0	0	0	0	0	2	0	0	2	0	0	0	3	1	1	2	1	1	0	3	2	0	0	0	3	0	3	2	4	3	1	0	0	0	8	2	3	0	0	9	1	2	0	0	4	0	0	1	0
OTU 135	2	0	1	0	1	0	3	0	2	0	0	0	0	0	18	0	2	2	5	148	1	0	1	0	1	0	0	0	0	1	2	2	0	1	0	0	3	0	3	0	6	0	1	6	0	1	0	3	0	0
OTU 136	0	0	1	0	0	0	1	0	0	1	0	0	0	0	2	0	0	0	0	0	0	0	0	0	1	0	3	1	0	0	0	1	0	0	1	1	2	0	0	1	0	0	1	0	0	1	5	0	0	0
OTU 137	1	0	0	0	1	2	0	4	0	0	0	0	0	0	0	1	0	0	1	0	0	0	1	0	0	0	0	0	0	0	0	46	0	0	0	0	1	0	0	3	0	0	0	3	1	0	0	0	6	0
OTU 138	0	0	1	0	0	0	0	0	0	0	2	0	0	0	1	0	0	0	1	3	0	0	0	0	1	0	0	1	0	0	0	0	0	1	0	2	0	0	0	0	0	2	0	1	0	0	0	0	0	0
OTU 139	0	47	0	0	2	0	3	0	1	4	3	86	1	6	1	0	4	12	0	0	3	0	0	2	0	49	4	4	2	2	4	4	5	0	9	1	3	5	6	2	4	0	0	2	0	2	1	7	4	1
OTU 140	2	5	1	0	20	1	8	0	3	16	19	3	3	29	2	0	11	1	3	0	0	2	1	41	0	2	4	0	19	64	2	4	0	4	15	10	4	11	1	7	10	2	15	13	7	4	4	0	143	3
OTU 141	0	0	0	0	0	0	0	0	0	0	0	0	0	0	0	0	0	0	0	0	0	0	0	0	0	0	0	1	0	0	0	0	0	0	0	0	0	0	0	0	0	0	0	0	0	0	0	0	0	0
OTU 142	0	0	0	0	0	0	0	0	0	0	0	0	0	0	0	0	0	0	0	0	0	0	0	0	0	0	0	0	0	0	0	1	0	0	0	0	0	1	0	0	0	0	1	0	0	0	0	0	0	0
OTU 143	1	0	0	0	0	0	0	0	0	0	0	0	0	1	0	0	0	0	1	0	0	0	0	0	0	0	0	0	0	0	0	0	0	0	3	1	0	0	0	0	0	0	0	0	0	0	0	0	0	1
OTU 144	0	0	0	0	0	0	3	0	0	0	3	1	0	0	0	0	0	0	0	0	0	0	0	0	0	0	3	0	0	0	0	0	0	7	0	0	0	0	0	0	2	0	0	4	2	0	0	0	0	0
OTU 145	1	0	0	77	0	1	3	0	3	0	1	0	0	0	9	1	3	2	4	1	1	2	0	0	4	3	1	28	3	4	1	1	4	0	6	0	0	0	2	0	6	8	1	2	0	1	0	4	2	155
OTU 146	0	0	0	0	0	182	4	0	0	0	0	0	0	0	1	0	0	0	0	0	0	0	0	0	2	1	110	0	0	1	0	0	3	0	1	3	0	2	1	0	4	2	2	0	0	0	12	1	5	0
OTU 147	0	4	0	0	3	0	1	0	0	0	1	10	4	0	1	0	0	0	0	0	0	0	1	0	0	0	0	0	2	0	0	0	0	3	0	0	1	1	0	0	0	0	0	0	0	4	0	0	0	0
OTU 148	0	0	0	0	13	1	8	0	0	3	3	1	2	1	45	0	5	3	2	1	2	0	0	2	0	0	9	8	0	0	11	0	15	1	7	0	7	17	0	2	0	0	6	0	9	35	4	1	0	1
OTU 149	4	0	0	0	3	2	0	0	0	0	0	0	0	0	0	1	97	0	2	0	0	0	2	1	0	0	0	0	0	0	2	0	1	0	1	1	0	0	0	0	2	2	2	0	4	0	0	2	0	0
OTU 150	0	0	0	1	0	0	0	0	0	4	0	0	0	0	6	0	0	0	0	11	0	0	0	0	38	0	0	2	0	0	0	0	0	2	1	0	0	0	0	3	0	0	3	0	0	0	1	0	0	0
OTU 151	0	0	0	0	0	0	1	0	0	0	4	0	3	0	0	0	0	4	1	0	0	3	0	1	0	0	1	0	0	0	1	0	0	1	0	0	0	0	0	2	0	0	0	0	0	0	0	0	0	0
OTU 152	0	1	0	0	0	0	1	0	0	0	1	1	1	0	0	0	0	0	1	0	1	2	0	0	2	2	0	0	2	0	1	1	0	0	0	3	0	6	1	0	7	3	3	4	3	0	1	0	0	0
OTU 153	0	0	0	0	0	0	0	0	0	0	1	0	0	0	1	0	0	0	0	0	0	0	0	0	0	0	0	1	0	0	0	0	1	0	0	0	0	0	0	1	0	0	0	0	0	0	0	0	0	0
OTU 154	0	0	2	0	0	0	0	0	0	0	0	0	0	0	0	0	0	0	0	0	0	1	0	0	0	0	0	0	1	0	0	0	0	1	0	0	0	0	0	0	1	0	0	0	0	0	0	0	0	0
OTU 155	0	8	0	0	1	1	2	2	0	1	0	15	0	0	0	0	0	0	0	0	0	1	0	0	0	2	0	0	0	0	0	0	0	0	0	1	0	0	0	0	0	0	0	0	1	0	1	0	1	0
OTU 156	3	161	3	3	0	0	3	6	3	0	5	0	1	4	0	15	0	2	0	0	3	2	0	1	0	0	0	3	0	0	4	0	3	0	2	7	1	3	3	4	4	0	2	0	0	4	1	2	2	0
OTU 157	0	0	0	0	0	0	0	0	0	2	0	0	0	0	0	0	0	0	0	0	0	0	0	0	0	3	0	0	0	1	0	0	1	0	0	4	0	0	0	0	0	1	1	0	0	0	0	0	1	0
OTU 158	0	0	0	0	0	0	0	0	0	0	0	0	0	0	0	0	0	0	0	0	0	0	0	0	0	0	0	0	0	0	0	0	0	0	0	0	0	0	0	0	0	0	0	0	0	0	0	0	0	0
OTU 159	1	0	0	0	0	1	0	0	3	0	0	1	1	0	3	1	0	0	0	1	0	0	0	0	2	0	0	1	0	0	10	5	0	3	0	0	0	0	0	0	0	1	1	4	2	0	0	13	0	0
OTU 160	3	0	0	44	0	2	3	1	0	6	11	2	13	0	8	4	2	8	7	0	4	3	1	4	1	25	1	3	1	2	2	0	0	5	9	28	2	7	2	1	4	1	7	0	0	1	4	4	0	3
OTU 161	0	0	56	1	0	0	2	2	0	0	0	2	14	0	11	2	0	0	1	0	0	1	0	15	0	6	0	0	1	3	4	2	0	0	6	0	1	0	0	1	1	2	0	2	3	2	1	0	4	2
OTU 162	0	0	3	1	0	0	3	0	0	0	5	3	1	0	0	0	0	0	0	0	0	0	2	0	5	0	0	0	38	0	2	4	1	0	0	1	0	0	0	0	0	6	1	1	0	0	3	3	3	0
OTU 163	0	0	0	0	0	0	0	0	0	0	0	1	0	0	1	0	0	0	0	0	0	0	0	0	0	0	0	0	0	0	0	0	0	0	0	0	0	0	0	0	0	0	0	0	0	0	0	0	0	0
OTU 164	0	0	0	0	0	0	0	0	0	0	0	0	0	0	0	0	0	0	0	0	0	0	0	0	0	0	0	0	0	0	0	0	0	0	0	1	0	0	0	0	0	0	0	0	0	0	0	0	0	0
OTU 165	0	0	0	0	0	0	0	0	0	0	7	0	4	0	0	0	0	0	0	0	0	0	0	0	5	1	0	3	2	31	0	5	1	0	1	0	0	0	1	0	3	6	3	48	0	0	1	0	0	0
OTU 166	0	0	0	0	2	0	0	0	0	0	0	0	0	0	0	0	2	0	0	0	0	0	0	0	0	0	0	0	0	0	0	0	0	0	2	0	0	0	0	0	0	0	0	0	2	0	0	0	0	0
OTU 167	1	1	6	0	1	3	1	7	0	0	0	0	0	0	5	0	0	1	0	0	0	0	0	0	0	7	0	0	0	6	0	0	0	1	0	1	0	0	1	0	1	0	0	1	0	0	0	0	2	0
OTU 168	2	1	1	0	0	0	3	0	0	1	2	9	1	1	2	0	0	2	0	1	2	0	2	2	1	1	0	0	0	28	0	0	3	0	0	0	0	1	1	5	0	0	2	59	3	0	0	0	1	0
OTU 169	0	0	0	0	0	0	0	0	0	0	0	0	0	0	0	3	0	0	3	0	0	0	0	0	0	0	0	0	1	0	0	0	0	0	0	0	1	0	0	0	0	0	0	0	0	0	0	0	0	0
OTU 170	0	0	0	0	0	0	0	0	0	0	0	0	0	0	0	0	0	0	0	0	0	0	0	0	0	0	0	0	0	0	0	2	1	0	0	0	0	0	0	0	0	0	0	0	0	0	0	1	0	0
OTU 171	0	0	0	2	0	0	0	0	0	0	0	0	0	0	3	2	0	2	1	4	1	0	0	0	2	2	0	3	0	0	0	2	0	0	0	0	3	0	3	0	1	2	4	0	29	1	3	2	2	0
OTU 172	0	0	0	0	0	0	0	0	0	0	3	0	0	0	1	0	1	1	0	1	0	1	0	0	0	0	0	1	0	0	0	0	0	0	0	0	0	0	0	0	1	0	0	0	0	0	1	0	0	0
OTU 173	0	0	0	0	0	0	0	0	0	1	0	0	0	0	1	1	0	0	1	0	0	0	0	0	0	0	0	0	0	1	0	0	0	0	0	0	1	0	0	3	0	0	1	2	0	0	0	0	0	0
OTU 174	1	1	0	0	0	0	3	0	0	11	5	1	0	27	0	1	0	66	1	0	37	5	2	0	3	1	0	3	0	0	0	12	0	0	0	0	0	0	0	0	0	1	0	0	0	0	0	0	8	0
OTU 175	0	0	0	0	0	0	1	1	0	0	0	0	5	0	3	1	0	0	2	0	0	1	0	0	0	0	0	0	0	0	0	1	0	3	2	0	0	0	0	0	0	0	0	1	0	0	1	0	0	0
OTU 176	3	0	0	0	2	1	1	7	0	0	3	1	5	4	4	1	0	4	2	3	2	0	0	1	3	0	1	0	1	0	0	0	5	0	3	0	0	0	8	0	0	4	3	0	0	10	4	1	0	0
OTU 177	0	1	0	0	1	0	1	0	1	5	0	14	0	2	8	0	1	9	1	1	6	0	0	0	1	0	0	3	2	0	3	1	2	1	3	0	4	0	2	0	4	3	0	4	4	5	2	0	0	0
OTU 178	0	0	0	2	0	0	0	8	0	1	0	0	0	6	1	0	0	6	0	0	2	4	1	0	0	1	0	0	1	0	0	1	0	0	0	0	1	0	1	3	0	3	0	0	1	0	6	0	0	1
OTU 179	101	2	2	0	0	49	1	0	0	3	0	0	0	5	0	1	0	9	0	0	3	5	44	0	0	0	0	0	0	0	1	0	0	0	0	0	0	0	0	6	0	3	2	0	0	0	0	0	0	2
OTU 180	4	5	0	2	12	0	7	4	4	4	5	5	6	9	3	0	5	4	4	1	2	1	2	3	2	3	4	10	1	3	3	6	2	4	5	12	3	1	4	0	5	4	4	1	22	4	3	7	0	2
OTU 181	0	0	1	0	3	0	1	2	0	1	0	0	4	8	0	0	1	14	0	2	12	3	0	0	0	0	0	0	0	0	9	2	0	0	0	2	0	1	1	1	48	0	1	0	0	3	0	1	4	0
OTU 182	0	0	0	0	0	0	0	0	0	0	0	0	0	1	0	0	0	0	0	0	0	0	0	0	0	0	0	0	0	0	0	0	0	0	0	0	0	0	0	0	0	0	0	0	0	0	0	0	0	0
OTU 183	0	1	3	0	4	0	0	0	0	1	0	0	7	1	1	0	1	1	0	0	1	0	0	2	0	0	0	0	0	4	0	2	0	1	0	1	0	0	1	0	3	1	1	0	0	0	0	0	0	1
OTU 184	0	2	0	0	0	1	10	0	1	1	1	0	0	10	0	1	0	12	3	0	1	0	0	25	0	0	0	1	2	0	0	0	0	2	0	0	3	1	0	0	1	0	0	0	0	0	1	2	0	0
OTU 185	0	0	1	1	3	0	0	8	1	0	6	0	0	0	0	0	0	0	0	1	0	0	0	0	3	0	1	0	0	17	1	7	2	3	9	2	0	1	0	1	0	6	0	9	5	2	2	0	3	1
OTU 186	1	0	3	0	0	0	0	0	0	0	0	0	0	0	0	0	0	0	0	0	0	0	0	0	0	0	0	1	0	0	0	0	0	0	0	0	1	0	4	0	2	1	0	0	0	1	0	0	0	0
OTU 187	0	0	2	0	4	0	1	4	0	0	2	3	4	0	14	0	3	0	2	0	0	5	0	5	5	3	4	6	2	1	1	15	2	6	5	1	4	1	3	0	4	2	2	0	10	3	1	1	5	0
OTU 188	2	4	0	0	6	0	0	2	5	1	0	5	2	0	4	1	0	0	0	0	0	1	0	0	0	1	0	1	0	2	5	1	0	1	1	0	3	1	1	4	0	1	0	8	2	1	2	0	0	0
OTU 189	4	0	3	2	0	1	0	1	3	0	2	0	1	1	0	3	0	1	1	1	0	0	4	0	1	2	2	2	0	0	1	3	5	0	3	0	36	0	5	0	11	5	2	0	1	3	2	6	3	16
OTU 190	0	1	0	0	0	0	0	0	0	0	0	0	7	0	0	0	0	0	0	0	0	0	0	0	0	0	0	0	0	0	0	0	1	0	0	0	0	0	0	0	0	0	0	0	0	0	0	0	0	0
OTU 191	3	1	0	0	0	2	4	1	0	0	4	3	1	0	15	1	1	0	2	0	0	4	0	1	0	4	0	0	0	4	0	0	0	0	3	1	1	0	1	2	8	1	1	0	0	0	8	1	6	0
OTU 192	1	0	28	1	0	0	0	9	25	1	1	0	4	1	0	4	0	3	10	1	5	4	2	1	0	37	2	1	3	0	1	9	2	5	0	24	3	2	8	28	1	0	9	1	0	0	1	4	1	4
OTU 193	4	1	6	1	1	1	0	12	1	0	2	9	2	1	0	5	0	0	9	1	1	0	1	2	1	1	0	0	14	1	0	0	1	0	0	0	2	1	30	0	0	17	3	1	0	0	9	4	0	8
OTU 194	10	0	0	1	0	8	0	1	0	0	1	0	0	0	1	0	0	0	0	0	0	0	5	3	0	0	0	2	2	3	0	13	3	0	1	0	1	0	3	0	0	3	1	0	0	0	0	1	30	0
OTU 195	1	0	2	0	0	8	2	0	0	1	0	1	0	0	1	0	0	7	2	0	8	5	2	0	0	1	5	0	2	0	0	0	0	4	5	0	1	0	11	7	2	0	1	1	1	10	0	0	1	0
OTU 196	0	0	2	2	30	0	0	0	0	2	1	0	0	0	0	2	10	1	5	0	0	3	0	0	0	6	0	2	2	4	25	1	0	0	38	0	3	5	2	0	0	0	1	0	19	0	1	0	0	2
OTU 197	3	23	0	1	2	1	9	16	77	1	17	53	2	0	0	2	1	2	3	1	1	1	161	2	7	1	4	3	1	2	4	7	1	3	1	1	2	2	1	2	1	5	10	0	0	27	8	1	0	8
OTU 198	3	0	2	0	0	0	1	1	0	0	0	0	7	0	0	0	0	0	0	0	0	34	1	0	0	0	1	4	0	0	0	0	0	0	0	0	0	0	0	0	0	0	0	4	0	2	0	0	0	0
OTU 199	0	0	0	0	1	0	0	0	0	0	7	1	0	0	0	2	0	0	0	0	0	0	0	0	0	1	0	0	2	0	0	0	0	2	2	0	3	0	1	3	1	1	2	1	0	0	2	0	0	2
OTU 200	1	0	1	0	0	0	2	0	0	0	1	0	4	0	1	0	0	0	1	0	0	0	0	0	0	0	0	0	1	0	0	1	0	0	0	0	2	0	0	0	0	3	0	0	1	0	1	0	3	0
