	Host 1	Host 2	Host 3	Host 4	Host 5	Host 6	Host 7	Host 8	Host 9	Host 10	Host 11	Host 12	Host 13	Host 14	Host 15	Host 16	Host 17	Host 18	Host 19	Host 20	Host 21	Host 22	Host 23	Host 24	Host 25	Host 26	Host 27	Host 28	Host 29	Host 30	Host 31	Host 32	Host 33	Host 34	Host 35	Host 36	Host 37	Host 38	Host 39	Host 40	Host 41	Host 42	Host 43	Host 44	Host 45	Host 46	Host 47	Host 48	Host 49	Host 50	
OTU 1	2	1	1	2	18	5	0	7	2	3	3	1	0	9	5	14	2	0	1	0	2	0	1	0	5	7	14	6	4	9	10	9	3	4	0	4	5	4	2	8	13	11	11	11	1	13	0	3	3	14
OTU 2	0	0	0	0	1	0	0	0	0	0	0	0	0	0	0	2	0	0	0	0	19	1	0	102	0	0	0	0	0	0	4	0	3	0	2	1	0	0	1	0	1	2	0	1	0	0	5	1	0	0
OTU 3	0	0	0	0	0	0	0	0	0	0	1	0	0	0	0	0	0	0	0	0	0	0	0	0	0	0	0	0	0	1	1	0	0	0	7	0	0	0	0	2	2	0	0	0	0	0	1	0	0	1
OTU 4	0	0	0	0	0	0	0	0	0	0	0	0	0	0	0	0	0	0	0	0	2	0	0	0	0	0	0	0	0	0	0	0	0	0	0	0	0	0	0	0	0	0	0	0	0	0	0	0	0	0
OTU 5	12	20	16	14	0	8	25	18	36	4	0	0	8	30	0	5	0	12	17	8	5	8	12	9	12	14	70	12	0	39	30	19	0	21	0	21	24	0	0	19	0	1	12	32	9	1	0	11	22	3
OTU 6	0	0	0	0	0	57	1	0	8	0	0	2	3	2	0	0	0	3	0	0	0	7	0	0	0	0	0	0	0	2	28	1	0	0	0	0	1	0	0	0	0	0	0	0	29	0	0	0	0	1
OTU 7	3	0	0	2	14	6	1	4	2	5	19	6	1	8	6	0	4	3	1	7	2	0	5	55	0	1	1	7	2	0	1	0	0	8	8	0	7	2	1	5	4	5	1	2	0	5	3	5	0	2
OTU 8	0	12	43	66	3	1	10	2	0	3	0	2	3	0	5	0	0	4	0	5	0	2	3	0	4	3	2	2	1	0	12	1	8	4	1	5	7	5	1	1	0	2	3	1	0	4	2	4	1	1
OTU 9	0	0	1	0	0	0	0	0	0	0	1	0	1	0	0	0	0	1	0	0	0	0	3	0	0	0	0	0	0	0	0	1	0	2	0	0	0	0	1	117	0	0	3	0	0	0	1	0	0	0
OTU 10	0	3	0	0	1	0	1	1	0	1	6	0	0	0	0	0	0	0	0	0	2	0	1	0	1	0	1	0	0	2	0	0	0	0	0	0	0	0	0	0	0	0	0	3	0	0	2	0	0	0
OTU 11	2	0	1	5	1	1	0	0	0	8	6	3	0	2	3	3	5	0	0	4	0	0	0	3	0	0	2	2	3	4	0	1	3	0	4	1	7	0	3	1	0	3	1	2	0	2	1	7	0	2
OTU 12	2	1	3	3	2	3	2	1	0	9	3	2	1	4	0	0	2	0	1	0	10	2	0	0	3	0	2	0	0	0	0	1	0	2	4	0	1	1	4	0	2	1	0	0	1	2	4	1	1	1
OTU 13	0	0	0	1	0	0	0	3	0	0	0	0	0	0	0	0	0	0	0	0	0	0	0	0	0	0	0	0	0	0	0	0	1	0	0	0	0	0	0	0	1	0	0	0	0	0	0	0	1	0
OTU 14	0	0	1	0	3	4	4	0	0	0	2	3	0	0	0	0	0	2	0	0	5	0	0	0	1	0	0	0	0	0	0	1	0	9	0	0	1	2	1	2	0	0	1	0	0	2	0	0	0	0
OTU 15	0	0	0	0	0	0	0	0	0	1	0	0	0	0	0	0	0	0	0	0	0	0	0	0	0	0	0	0	0	0	0	0	0	0	0	0	0	0	0	0	0	0	0	0	0	0	0	0	0	0
OTU 16	0	0	0	0	0	0	0	0	0	0	0	0	0	0	0	0	0	0	0	0	0	0	0	0	0	0	0	0	0	0	0	0	0	0	0	0	0	0	0	0	0	0	0	0	0	0	0	0	0	0
OTU 17	0	2	1	0	0	0	0	0	2	0	2	0	3	1	1	2	1	1	1	9	0	3	0	0	0	0	0	0	0	0	1	2	0	0	18	0	1	0	0	2	1	3	0	0	0	0	3	0	1	2
OTU 18	1	1	0	0	0	0	4	0	0	0	2	4	0	0	1	1	1	8	0	3	13	0	0	0	0	2	0	4	2	0	0	6	1	2	1	0	3	0	0	2	0	1	0	0	0	0	1	0	0	3
OTU 19	0	0	1	0	0	0	0	0	0	0	0	0	0	0	1	0	0	0	0	0	0	0	0	0	0	0	0	0	3	0	0	0	0	0	0	0	0	0	0	0	0	0	0	0	0	0	0	0	0	0
OTU 20	0	1	0	0	0	2	3	1	0	0	2	2	5	1	3	2	0	1	0	0	0	0	0	1	0	2	1	2	0	0	0	0	1	0	3	0	5	1	1	0	0	0	0	0	0	0	3	0	0	0
OTU 21	1	0	5	4	3	22	0	9	0	0	14	4	4	1	7	2	8	0	1	0	0	2	9	8	1	4	2	0	3	1	0	5	2	7	0	5	2	2	1	3	11	4	0	0	11	11	5	7	2	6
OTU 22	1	5	0	0	2	0	7	2	0	0	5	0	5	0	1	10	3	0	0	89	0	3	1	0	0	2	1	3	5	0	4	2	7	1	5	0	9	0	0	1	3	10	1	1	1	2	0	0	2	1
OTU 23	1	2	0	1	1	1	1	0	109	0	1	0	0	0	0	0	0	0	0	0	0	0	0	1	2	0	0	2	0	0	0	0	0	2	0	1	0	0	0	0	0	0	1	0	0	0	0	0	0	0
OTU 24	0	0	0	0	0	0	3	0	0	0	11	3	0	0	0	2	0	0	0	0	0	0	0	0	0	0	0	0	0	0	0	0	0	0	1	0	3	0	0	0	0	0	0	1	0	0	0	0	0	1
OTU 25	0	0	0	1	0	0	0	0	0	0	0	0	0	0	0	0	0	0	0	0	0	0	1	0	0	0	0	0	0	0	0	0	0	0	0	0	0	0	0	0	0	1	0	0	0	0	0	0	0	0
OTU 26	0	0	0	1	0	1	0	0	0	0	0	0	1	0	0	0	0	0	0	0	0	0	0	0	0	0	0	0	0	0	2	1	0	0	0	0	0	0	1	0	0	1	0	0	0	0	0	0	0	0
OTU 27	0	0	0	0	0	0	0	0	0	0	0	2	0	0	0	0	1	0	0	0	0	0	0	0	0	0	0	0	0	0	0	0	0	0	0	0	0	0	0	0	0	0	0	0	0	0	0	0	0	0
OTU 28	0	0	0	0	4	1	3	2	25	1	3	4	1	3	5	3	1	14	0	0	0	0	1	0	1	1	0	0	4	1	5	2	1	3	1	2	1	0	1	2	0	1	1	4	1	1	1	0	0	2
OTU 29	6	0	2	46	2	25	0	13	2	3	2	0	0	5	17	7	3	0	3	0	0	3	6	3	9	12	5	7	7	0	10	1	6	5	3	0	1	1	3	0	11	4	4	1	12	6	0	0	6	3
OTU 30	0	0	0	0	0	0	0	0	0	0	0	0	0	0	0	0	0	0	0	0	0	0	0	0	0	0	0	0	0	0	0	0	0	0	0	0	0	0	0	0	0	0	0	0	0	0	0	0	0	1
OTU 31	0	0	0	0	0	0	8	1	0	0	0	0	0	3	0	0	55	0	0	0	0	0	0	28	3	0	3	0	0	44	2	0	1	0	0	0	1	0	0	0	0	0	1	1	0	0	0	0	0	0
OTU 32	0	1	5	0	0	2	1	6	19	0	1	1	2	0	1	0	1	5	26	0	1	51	1	1	4	11	0	2	2	0	53	1	0	0	8	67	1	0	0	0	0	0	3	3	1	122	5	114	1	2
OTU 33	0	0	0	0	0	0	0	0	0	0	0	0	0	0	0	2	0	0	0	0	0	0	0	0	0	0	0	0	0	0	0	0	0	1	0	0	0	0	0	0	0	0	0	0	0	0	0	0	0	0
OTU 34	0	2	0	1	1	0	2	0	1	3	4	3	12	0	1	5	3	0	0	3	1	0	0	5	0	0	0	0	0	0	1	0	1	0	1	1	18	2	0	0	7	1	0	3	1	0	0	0	0	5
OTU 35	1	0	0	1	0	0	9	2	0	1	3	7	0	1	0	3	0	1	0	0	0	0	0	0	2	1	0	3	0	1	1	1	6	0	0	1	0	0	7	0	1	1	0	2	0	0	0	0	0	1
OTU 36	1	0	0	0	5	0	1	8	1	1	7	0	2	0	1	0	0	0	0	1	0	0	6	0	0	0	0	0	1	0	7	2	0	0	1	1	0	0	5	0	4	0	0	3	0	1	6	1	3	1
OTU 37	0	0	0	0	0	1	0	0	0	0	0	0	0	0	0	0	0	0	0	11	0	0	0	0	0	0	0	0	0	0	0	0	0	0	0	0	0	0	1	0	0	0	0	0	0	1	0	0	0	0
OTU 38	0	4	2	0	4	0	0	0	0	0	0	1	0	0	1	1	0	0	25	15	0	0	6	0	0	0	3	0	1	0	0	1	0	1	4	59	0	3	7	0	3	0	1	3	0	0	1	0	1	2
OTU 39	1	1	0	0	0	0	0	0	0	1	2	0	0	0	1	0	0	0	0	0	0	1	0	0	0	0	3	2	1	0	0	0	0	0	0	2	1	0	0	0	0	0	2	2	0	0	0	4	0	0
OTU 40	0	3	0	0	0	0	1	0	0	1	4	0	4	0	0	2	0	2	0	0	2	1	0	0	3	0	0	0	0	0	3	5	6	3	0	1	0	0	1	0	4	0	0	0	2	3	8	0	0	0
OTU 41	0	4	0	1	0	0	0	3	2	1	1	0	2	0	0	1	0	0	0	4	0	0	1	0	5	1	0	0	0	0	2	1	0	0	6	0	0	0	2	0	4	0	0	0	1	0	1	0	0	0
OTU 42	0	0	2	2	5	0	0	0	0	0	0	1	2	0	5	0	0	0	0	0	0	0	0	0	0	0	0	0	3	0	0	3	0	0	0	1	0	3	0	0	0	0	0	0	0	0	0	0	0	0
OTU 43	0	0	0	0	0	0	0	0	0	0	0	0	0	0	0	0	0	0	0	0	0	0	0	0	0	0	0	0	0	0	1	0	0	0	0	0	0	0	1	0	0	0	0	0	0	0	0	0	0	0
OTU 44	0	0	0	0	0	0	0	0	0	0	1	0	0	0	1	0	0	1	0	4	0	0	0	0	0	0	0	0	0	0	0	0	0	1	0	0	0	0	0	4	0	0	0	3	0	0	0	0	0	1
OTU 45	0	12	0	0	1	2	0	0	2	0	3	5	0	0	2	1	1	7	0	0	1	2	1	9	5	0	0	0	0	0	7	6	0	0	3	0	1	1	0	18	0	1	2	2	0	0	0	0	0	1
OTU 46	3	0	0	3	2	3	3	0	6	1	5	0	0	0	0	0	0	0	0	0	4	12	3	0	0	0	0	3	0	1	27	1	2	2	0	0	0	1	5	0	0	2	1	2	0	1	0	2	0	3
OTU 47	0	2	0	0	0	0	1	0	0	0	4	0	0	0	0	0	0	1	0	0	2	0	0	1	0	0	0	0	0	0	0	0	0	0	0	0	0	0	0	0	0	1	0	0	0	0	0	0	0	1
OTU 48	1	0	1	1	1	3	4	0	0	0	0	0	0	0	1	2	0	0	0	5	3	1	0	2	1	0	1	0	0	0	1	0	0	0	0	2	0	0	4	1	2	3	1	2	0	1	1	0	1	1
OTU 49	0	0	1	0	0	0	0	2	0	0	0	0	6	0	0	2	0	0	0	1	0	2	1	1	0	0	0	0	184	0	1	0	1	0	0	0	0	0	0	1	0	0	0	0	1	0	1	1	1	0
OTU 50	3	2	0	0	0	0	0	0	0	4	1	2	2	0	1	0	0	1	0	2	5	1	2	0	0	0	0	2	1	0	0	0	3	1	12	1	0	2	1	0	2	0	2	2	1	0	0	0	3	2
OTU 51	1	0	0	0	1	2	2	1	0	0	0	1	0	1	8	1	0	0	0	0	0	0	0	0	0	1	4	1	6	0	0	0	0	0	0	0	0	2	1	0	1	0	1	0	0	0	0	1	0	1
OTU 52	0	0	0	0	2	8	3	0	0	1	3	0	0	1	3	2	3	3	1	15	1	3	1	2	4	0	0	0	0	1	5	2	6	2	3	0	4	0	11	1	2	4	5	1	0	0	0	1	0	0
OTU 53	0	0	0	0	0	0	0	0	0	0	0	0	0	0	0	0	0	0	0	0	0	0	0	0	0	0	0	0	0	0	0	0	0	0	0	0	0	0	0	0	1	0	0	0	0	0	0	0	0	1
OTU 54	10	0	5	0	0	3	1	1	1	2	1	6	3	0	1	2	1	12	1	4	29	1	2	0	7	1	2	24	3	1	2	4	8	0	0	2	9	72	3	2	1	0	1	1	2	4	3	0	1	7
OTU 55	0	0	0	0	0	0	0	0	0	0	0	0	0	0	0	0	0	0	0	0	0	0	0	0	0	0	0	0	0	0	0	0	0	0	0	0	0	0	0	0	0	0	0	0	0	0	0	0	0	0
OTU 56	0	0	0	0	0	0	0	1	0	0	0	1	5	1	1	0	0	0	0	0	0	0	0	0	0	0	0	0	1	0	0	2	0	0	0	0	0	0	3	0	0	0	0	0	1	0	0	0	0	0
OTU 57	0	20	1	0	4	1	1	2	2	1	1	1	0	2	13	2	4	5	2	2	0	2	3	3	1	3	4	3	2	0	0	2	2	1	2	3	1	0	3	0	0	4	1	2	0	0	1	1	0	1
OTU 58	0	0	1	0	0	0	0	0	1	0	1	7	0	0	0	0	1	1	0	0	0	0	2	0	0	0	0	0	0	2	0	0	0	0	0	0	0	0	1	0	0	0	0	1	0	0	1	0	0	1
OTU 59	0	1	0	0	0	0	0	0	0	3	0	0	0	0	0	0	0	3	0	1	0	0	0	0	0	0	0	0	0	16	0	0	0	0	1	1	1	0	0	0	0	0	0	1	0	0	0	0	0	0
OTU 60	0	4	0	0	0	0	8	2	0	2	1	1	6	51	0	7	2	0	0	0	7	2	8	0	1	0	0	1	1	1	0	0	0	3	0	0	1	0	0	0	7	0	5	0	0	0	5	0	2	2
OTU 61	2	4	2	2	0	5	1	2	3	6	5	0	1	21	5	24	7	7	24	0	6	4	3	3	0	2	69	3	1	5	1	0	3	126	2	29	0	0	1	1	0	1	7	2	0	24	2	74	1	5
OTU 62	0	0	0	0	1	2	0	0	0	2	1	0	1	0	0	0	1	1	0	0	0	0	0	1	0	0	0	0	0	0	0	1	0	0	1	0	1	0	0	0	0	0	0	0	0	0	0	0	0	0
OTU 63	0	0	0	0	5	1	0	0	0	0	0	0	1	1	0	0	0	2	0	1	0	0	0	0	0	0	1	0	0	0	0	0	0	0	3	0	1	0	4	0	0	1	0	0	0	0	0	2	0	1
OTU 64	3	2	0	6	0	1	0	4	1	2	3	5	4	0	1	1	4	0	1	6	5	1	1	0	0	2	0	4	0	2	0	0	3	0	1	1	0	1	2	0	0	3	2	0	1	2	0	1	0	1
OTU 65	0	0	0	1	0	0	0	0	0	0	0	0	0	0	0	2	0	0	0	0	1	0	0	0	0	0	0	0	0	0	0	0	0	0	0	0	0	0	0	0	0	0	2	0	1	1	0	0	0	0
OTU 66	0	10	2	0	1	0	4	0	1	0	0	3	0	0	2	1	0	0	0	0	0	2	0	0	1	0	0	0	0	1	1	0	2	1	19	0	1	3	1	0	2	0	0	51	4	0	2	2	0	0
OTU 67	0	1	15	0	39	1	6	1	0	0	0	1	1	1	0	0	0	0	0	0	1	3	0	0	0	1	1	1	1	0	2	5	1	0	0	0	1	18	0	0	1	0	0	43	0	0	2	0	0	0
OTU 68	11	0	0	4	0	0	2	0	1	1	0	1	0	0	0	0	1	0	0	0	0	0	0	0	0	0	1	1	0	0	0	0	0	2	2	0	2	0	0	0	0	1	0	0	0	0	2	2	0	0
OTU 69	0	0	1	0	3	0	1	1	1	6	5	5	0	1	0	4	0	0	3	0	0	1	0	0	0	0	0	0	0	0	2	0	0	2	1	0	0	2	1	0	1	1	1	3	0	2	1	2	0	0
OTU 70	0	1	1	0	0	3	0	5	3	0	8	0	2	0	4	0	1	0	0	0	0	2	0	26	0	1	0	0	0	3	3	0	0	0	2	0	0	0	0	0	0	0	0	0	4	2	2	0	0	1
OTU 71	0	1	33	0	71	0	8	0	0	1	2	0	5	0	0	0	0	19	1	4	1	0	4	0	0	0	0	0	0	1	0	0	0	0	4	0	0	29	0	0	1	0	0	2	0	0	0	0	3	2
OTU 72	0	1	0	3	0	0	0	0	0	0	1	0	4	1	1	1	0	12	0	0	1	3	3	1	0	0	0	0	1	0	3	0	2	1	1	1	0	0	0	0	1	1	0	3	0	0	0	2	1	0
OTU 73	0	0	0	0	0	1	2	7	0	1	0	1	1	0	0	0	1	1	0	1	5	0	0	0	0	1	0	3	0	0	0	0	0	2	0	1	0	0	1	33	1	0	0	0	1	2	0	3	1	0
OTU 74	0	0	0	2	3	0	6	0	1	0	0	4	0	0	0	1	3	1	0	8	0	3	2	3	4	0	2	0	1	0	2	1	3	0	3	0	4	1	1	0	2	3	3	2	0	1	2	0	1	0
OTU 75	2	8	1	0	0	3	4	1	0	2	1	2	10	0	2	2	0	5	0	0	22	2	4	0	0	0	0	1	1	1	0	0	2	4	11	0	2	0	2	2	3	12	2	4	3	0	0	0	1	1
OTU 76	62	0	0	0	3	0	1	0	0	0	0	0	1	0	0	0	0	12	0	0	1	0	0	0	0	0	1	104	0	0	0	0	0	0	9	0	0	0	0	0	1	0	0	0	0	0	0	0	0	0
OTU 77	0	0	1	1	0	7	0	0	2	0	1	0	1	0	1	1	1	0	0	7	2	0	0	1	1	0	0	0	0	0	0	0	0	1	7	0	5	0	0	4	2	4	0	1	3	0	4	0	0	6
OTU 78	0	0	1	0	0	1	0	0	0	2	1	0	4	8	3	3	1	1	5	1	1	0	4	0	0	1	25	4	1	0	1	5	11	24	0	8	0	1	0	0	1	0	0	1	2	12	7	28	2	1
OTU 79	4	3	5	3	3	3	4	5	3	0	10	8	4	0	7	0	1	2	0	1	11	1	82	1	5	2	1	3	2	33	1	28	12	3	10	0	7	1	3	24	0	3	1	5	3	3	1	3	3	48
OTU 80	16	1	1	11	1	5	1	0	0	17	0	0	0	4	71	5	0	3	0	3	0	0	2	0	0	0	3	39	42	0	5	0	0	6	0	0	0	0	1	2	0	0	0	20	0	0	4	0	0	0
OTU 81	0	4	0	1	0	4	12	1	0	3	4	2	2	1	3	14	0	2	0	1	4	0	4	0	2	0	0	0	2	0	2	4	2	4	1	0	0	0	8	0	0	0	8	0	4	2	1	0	2	0
OTU 82	3	1	0	2	0	0	0	0	0	7	1	12	2	0	2	7	0	0	0	1	6	0	0	0	0	0	0	0	1	1	0	1	1	1	0	0	0	0	1	1	0	0	1	3	0	1	0	0	0	0
OTU 83	0	0	0	0	0	0	0	0	0	0	0	0	0	0	0	0	0	0	0	0	2	1	0	0	0	0	2	0	0	0	0	0	1	0	0	1	0	0	0	0	2	0	0	0	0	0	1	1	0	3
OTU 84	0	0	1	0	1	0	6	5	0	0	0	0	1	0	0	3	3	0	0	0	0	0	0	1	0	3	0	0	0	2	0	0	1	1	6	0	2	0	0	0	13	0	0	1	0	5	0	0	5	0
OTU 85	0	0	0	0	0	0	0	0	0	0	0	0	0	0	1	2	0	3	0	0	0	4	0	1	0	0	0	1	2	0	0	0	0	0	0	0	0	0	1	0	0	0	0	0	0	0	0	0	0	5
OTU 86	0	0	0	0	0	0	0	1	0	0	0	0	0	0	0	0	0	0	0	0	0	0	0	0	0	0	0	0	0	0	0	0	0	0	1	0	0	0	0	0	0	6	0	0	0	1	0	0	0	0
OTU 87	0	0	0	0	0	0	1	0	0	1	0	0	5	0	2	0	0	0	92	0	1	0	0	0	0	0	0	0	0	1	5	0	0	0	0	0	0	0	2	0	0	0	0	1	0	2	0	3	0	0
OTU 88	0	1	0	0	0	0	0	0	0	0	0	2	0	0	0	1	2	0	0	0	2	0	0	0	0	0	0	0	1	0	0	0	0	0	0	0	0	0	0	0	0	0	2	0	0	0	0	0	0	0
OTU 89	0	0	4	0	0	0	2	0	0	0	0	0	0	0	0	0	1	0	0	3	4	0	0	1	1	0	0	0	0	1	1	0	0	0	0	0	0	0	0	0	0	0	0	0	0	0	1	0	0	6
OTU 90	0	0	0	0	0	0	1	2	0	0	0	0	0	1	0	0	0	0	0	0	0	2	0	0	0	1	0	0	0	0	0	0	0	0	5	0	1	0	0	0	0	0	0	0	0	0	0	0	0	0
OTU 91	0	4	0	0	0	1	0	3	0	0	0	0	0	0	0	0	0	0	0	0	0	0	0	0	0	2	0	0	0	0	0	0	3	0	0	1	0	1	0	0	0	0	0	0	6	2	0	0	0	0
OTU 92	0	0	0	0	0	1	0	0	0	0	0	1	0	0	0	0	1	0	0	2	0	0	0	0	0	0	0	0	0	0	0	36	0	0	1	0	2	0	0	0	0	0	0	0	0	0	6	0	0	0
OTU 93	0	0	0	0	0	0	0	0	0	0	0	0	0	0	1	8	0	0	0	0	0	3	0	0	1	0	0	0	0	0	0	0	0	0	1	0	0	0	1	0	0	0	1	0	0	0	0	0	0	0
OTU 94	1	2	5	2	17	10	5	5	2	0	3	1	3	1	6	1	5	0	1	2	0	4	0	2	0	0	4	7	4	2	2	3	16	17	3	1	2	2	19	5	3	14	0	0	4	2	1	3	4	2
OTU 95	0	3	0	0	0	0	1	0	0	2	1	1	0	0	0	0	0	0	0	6	0	0	0	0	0	0	2	0	1	0	0	0	1	0	0	0	0	0	1	0	0	0	0	0	0	0	0	0	0	0
OTU 96	0	0	0	0	0	0	0	0	0	0	0	0	0	0	0	0	0	0	0	0	0	0	0	0	0	0	0	0	0	0	0	0	0	0	0	0	0	0	0	0	0	0	0	0	0	0	0	0	0	0
OTU 97	0	0	0	0	0	0	0	0	0	0	0	0	0	0	0	0	0	0	0	0	0	0	0	0	0	0	0	0	0	0	0	0	0	0	0	0	2	0	0	0	0	0	0	0	0	0	0	0	0	0
OTU 98	0	0	0	3	2	1	0	4	0	0	0	0	16	0	0	0	2	0	0	0	0	1	0	0	0	0	0	0	0	1	3	0	0	0	0	0	8	0	6	0	0	0	0	0	0	0	0	0	0	0
OTU 99	160	1	1	2	3	1	2	0	0	2	4	0	9	95	1	0	2	1	0	0	17	1	1	2	0	0	6	0	0	3	0	1	9	0	4	2	1	3	12	0	4	2	1	1	0	0	5	3	2	1
OTU 100	2	1	97	0	0	2	0	0	0	0	0	2	1	3	0	11	3	2	1	0	2	0	0	1	0	0	2	3	0	0	1	0	3	2	0	2	3	0	0	0	0	3	0	1	0	3	0	2	0	0
OTU 101	2	0	0	0	0	0	1	0	3	0	0	0	0	0	0	0	0	0	0	0	0	0	0	0	2	0	0	0	0	0	0	0	0	0	2	0	0	0	0	0	0	0	0	0	0	0	0	0	0	1
OTU 102	0	0	0	0	0	0	3	0	0	0	1	1	1	0	2	0	0	0	0	2	0	0	0	0	0	0	0	0	0	0	0	1	0	0	0	0	6	0	0	2	0	0	0	0	0	0	0	0	0	0
OTU 103	0	1	0	0	2	0	3	0	1	2	2	0	2	2	0	2	0	0	0	0	5	0	1	0	0	3	3	0	0	0	0	0	4	2	0	2	3	0	5	0	4	0	0	0	0	1	1	6	1	3
OTU 104	0	0	0	1	0	3	0	0	0	1	1	7	3	0	0	2	1	0	1	2	4	0	0	1	1	0	5	0	0	0	0	2	1	3	0	0	2	0	4	0	0	1	0	0	1	0	0	1	0	0
OTU 105	0	0	0	0	0	0	1	0	0	0	1	0	1	0	0	1	0	0	0	0	0	0	0	0	0	0	0	0	0	0	0	0	0	0	0	0	0	0	0	0	0	0	0	1	0	0	1	0	0	0
OTU 106	0	0	0	1	2	0	4	0	0	0	0	0	0	0	0	0	0	2	0	0	1	0	92	0	0	0	0	0	0	0	0	0	0	0	0	0	0	0	22	0	1	0	0	2	0	1	2	0	4	0
OTU 107	0	92	0	0	0	0	0	0	0	0	0	0	0	0	0	1	0	3	0	1	0	2	0	0	4	6	0	1	0	0	0	1	0	0	0	0	2	0	0	0	0	0	0	0	1	0	0	1	0	0
OTU 108	0	2	0	1	0	5	0	0	0	0	0	0	1	0	2	0	0	0	0	0	0	4	0	0	0	0	0	0	2	0	0	0	1	1	0	0	2	0	0	0	0	0	1	3	3	0	1	1	0	0
OTU 109	0	0	0	0	0	0	0	0	0	0	0	0	0	0	0	0	0	0	0	0	2	0	0	0	0	0	0	0	0	0	0	0	0	0	0	0	0	0	0	2	0	0	0	0	0	0	0	0	0	0
OTU 110	0	4	3	0	7	3	5	1	0	1	0	0	2	0	1	0	3	1	0	0	0	4	5	2	5	1	2	1	1	0	2	4	0	1	0	0	0	0	6	6	0	1	0	0	0	0	2	0	0	0
OTU 111	0	0	0	0	0	0	0	0	0	0	0	0	3	0	0	0	0	3	9	0	0	0	0	0	0	0	2	0	0	0	0	0	0	0	0	24	0	0	0	0	0	0	0	0	0	0	0	0	0	0
OTU 112	0	0	1	0	3	1	0	0	5	0	1	0	4	1	0	3	0	0	0	1	4	12	0	0	0	0	0	5	1	0	0	0	1	0	0	1	0	0	0	0	0	0	0	2	0	0	1	0	0	0
OTU 113	0	0	0	2	0	0	0	0	0	0	0	0	0	0	0	0	0	0	0	0	0	0	1	0	2	0	0	0	0	0	0	0	0	0	0	0	0	0	1	0	0	0	0	0	0	0	0	0	0	0
OTU 114	0	1	1	2	2	2	0	5	1	1	6	0	3	4	1	1	5	4	0	1	2	1	0	2	0	2	14	1	1	2	6	0	3	0	1	0	2	2	0	1	3	2	2	1	2	0	1	1	3	10
OTU 115	10	0	1	0	5	2	0	1	1	1	0	8	0	2	2	1	4	20	3	43	5	0	1	0	0	0	4	12	1	1	0	4	13	4	0	0	3	1	51	1	2	0	1	0	3	5	40	10	134	4
OTU 116	0	23	9	0	0	0	8	1	0	0	3	0	0	0	2	0	0	1	0	0	5	0	0	0	0	4	0	1	1	2	3	0	3	2	0	0	11	1	0	8	0	0	0	0	3	0	0	1	0	1
OTU 117	0	3	0	1	4	0	0	10	3	1	0	0	4	0	2	0	67	3	1	0	0	9	0	31	0	3	1	0	1	0	14	0	1	1	0	0	0	1	0	3	3	0	6	0	0	0	0	1	2	2
OTU 118	0	0	2	6	1	0	0	0	0	0	0	1	0	0	0	0	0	0	0	1	0	1	0	0	0	0	0	0	13	0	0	0	1	0	0	0	0	0	0	0	0	0	0	0	0	0	0	0	0	2
OTU 119	0	0	0	0	0	3	1	15	0	1	9	0	1	0	0	4	0	1	82	1	0	0	1	0	1	4	1	1	0	2	0	0	13	1	0	1	2	2	8	1	0	1	1	0	3	3	1	1	1	0
OTU 120	0	0	0	0	0	2	2	0	1	1	0	0	0	0	0	0	0	0	0	0	0	0	0	0	1	0	1	0	0	0	0	0	1	0	0	0	0	0	0	0	2	0	0	0	0	0	0	0	2	0
OTU 121	0	0	1	0	2	0	0	4	1	2	0	0	1	0	3	0	0	1	0	0	1	0	1	0	0	1	0	0	1	1	1	2	0	3	0	0	2	0	3	0	8	0	117	0	0	3	3	0	2	2
OTU 122	0	0	26	0	28	3	2	0	0	5	0	6	3	0	1	0	99	0	0	5	0	0	1	43	0	181	7	1	2	0	1	0	5	2	1	0	0	12	1	0	1	51	0	0	0	0	2	0	0	0
OTU 123	0	7	0	3	1	2	3	3	1	4	6	4	2	5	2	15	3	8	0	2	5	2	6	2	2	7	5	0	0	3	5	6	7	0	12	2	6	4	7	0	3	5	4	3	2	4	6	10	6	2
OTU 124	0	0	0	0	2	1	0	0	0	0	1	0	0	0	0	17	0	0	0	0	0	0	0	1	0	0	0	0	0	0	0	1	0	0	0	0	0	0	0	0	0	0	25	0	1	0	2	0	13	0
OTU 125	0	6	0	6	2	5	16	2	1	9	1	4	3	33	4	1	4	9	3	3	9	0	8	5	11	2	35	2	2	8	1	13	9	8	5	3	7	9	14	22	0	3	1	1	2	6	11	5	0	8
OTU 126	0	0	0	0	2	1	0	0	0	0	0	0	0	0	0	1	0	0	0	0	0	0	0	0	0	0	1	0	0	0	0	0	0	1	2	0	0	1	0	0	1	0	0	0	5	0	0	0	0	0
OTU 127	0	1	0	0	1	2	0	0	0	0	0	0	0	0	0	2	0	0	0	0	6	1	1	0	0	0	2	0	0	0	4	0	2	1	0	0	1	1	0	1	4	0	0	0	3	0	0	0	0	0
OTU 128	2	1	5	4	9	7	13	9	0	3	3	1	4	1	7	4	13	7	0	4	5	1	2	14	2	4	6	3	4	16	5	4	14	4	12	0	5	13	4	2	2	5	1	3	5	38	1	0	4	45
OTU 129	0	0	0	0	0	0	0	0	0	0	3	0	0	0	0	0	0	0	0	0	0	0	0	0	0	0	0	0	0	0	0	2	0	0	0	0	0	0	1	0	0	0	0	0	0	0	0	0	0	0
OTU 130	0	0	0	0	0	13	1	0	0	0	1	2	0	0	0	0	1	0	0	4	1	1	24	0	1	0	0	0	0	0	0	0	2	0	6	2	0	0	0	1	3	0	3	0	6	0	0	1	0	0
OTU 131	0	1	0	16	1	1	0	3	0	0	0	0	1	0	0	0	1	9	0	1	1	0	2	0	0	0	0	0	0	3	0	0	2	0	1	0	6	0	7	0	0	1	5	0	0	0	3	0	5	1
OTU 132	0	0	0	0	0	0	0	1	0	0	0	0	0	0	0	1	1	0	0	0	0	0	0	0	1	0	0	0	0	0	0	1	0	1	0	0	1	2	0	1	0	0	0	1	0	0	0	1	0	0
OTU 133	0	0	0	1	0	0	0	0	0	0	0	0	0	0	0	0	0	3	0	0	1	0	0	0	0	0	0	0	0	0	0	0	0	0	0	0	0	0	0	0	1	0	0	0	0	0	0	0	0	0
OTU 134	0	0	1	1	0	0	1	0	2	0	5	3	5	14	3	0	0	0	0	0	3	6	0	0	0	2	0	1	0	4	15	0	1	1	0	0	6	0	0	1	1	0	1	2	1	2	7	0	1	0
OTU 135	0	0	22	0	1	0	3	9	2	6	3	0	98	0	2	0	1	3	2	0	3	8	1	2	0	5	5	0	1	0	2	4	0	3	1	0	0	0	1	3	2	4	1	2	4	5	3	5	2	3
OTU 136	0	2	0	0	0	0	3	0	0	7	0	0	0	0	2	6	0	3	1	0	3	0	0	1	0	0	0	0	1	1	1	0	0	4	0	4	2	0	0	0	6	2	0	1	0	1	0	5	2	3
OTU 137	0	0	0	0	0	0	0	0	0	0	0	0	0	0	1	0	0	0	0	0	0	1	0	0	1	0	0	0	0	0	0	0	0	0	0	0	9	137	0	0	0	0	1	0	0	0	0	0	0	0
OTU 138	0	0	1	0	0	0	2	0	3	0	1	0	0	0	0	1	0	0	0	2	0	5	1	0	0	0	2	0	0	1	7	1	0	0	1	0	0	0	2	0	0	0	0	1	0	0	6	0	0	2
OTU 139	1	0	10	0	28	0	5	0	0	1	0	7	10	0	1	1	0	3	0	11	3	4	0	0	2	1	0	0	0	0	1	2	0	6	4	1	4	13	16	2	2	28	1	3	1	3	5	2	22	1
OTU 140	2	7	7	5	0	2	30	2	19	16	5	10	13	0	0	1	1	4	0	4	18	4	1	0	0	0	2	2	1	0	0	2	44	3	13	2	17	0	3	0	8	1	2	0	0	2	1	3	0	4
OTU 141	0	0	0	0	0	1	0	1	0	0	0	0	0	0	0	0	0	0	0	0	11	0	0	0	0	0	0	0	0	0	0	0	0	0	0	0	0	0	0	0	0	0	0	0	0	0	0	0	0	0
OTU 142	0	0	0	0	0	0	0	0	0	0	0	0	0	0	0	0	0	0	0	0	0	0	0	0	0	0	0	0	0	0	0	0	0	0	2	0	0	0	0	0	0	0	0	0	0	0	0	0	0	0
OTU 143	0	0	2	0	9	0	0	0	0	0	8	2	0	0	0	0	0	0	0	0	0	0	0	0	0	0	0	0	0	0	0	0	0	0	0	0	0	7	0	0	0	18	0	0	0	0	0	4	1	1
OTU 144	1	0	0	2	0	0	2	2	0	0	0	2	0	0	0	0	0	0	26	1	0	0	0	0	0	2	0	0	0	0	0	1	0	0	0	0	3	0	0	0	0	0	0	0	0	1	1	0	0	1
OTU 145	0	1	0	2	0	3	0	1	0	3	7	1	0	8	0	0	0	2	1	4	1	0	0	0	2	0	23	0	0	2	0	0	0	0	1	4	0	0	6	0	1	5	0	1	3	3	0	0	1	4
OTU 146	0	5	0	1	0	2	13	1	0	0	0	9	1	3	1	0	4	0	2	6	2	1	3	2	0	0	2	1	2	74	0	0	0	0	5	1	13	0	2	0	0	86	1	2	7	0	0	0	1	0
OTU 147	0	0	0	0	1	0	0	0	0	0	0	0	0	0	0	0	0	0	0	0	0	0	4	0	5	0	0	3	0	0	0	3	4	2	0	3	0	0	1	0	0	1	1	0	0	0	0	4	0	0
OTU 148	0	8	1	0	0	0	1	2	0	1	4	0	4	0	0	0	0	2	0	2	1	0	0	0	0	1	0	0	0	0	2	1	8	0	1	3	7	0	0	0	0	1	0	0	0	0	0	2	0	1
OTU 149	0	0	0	1	1	0	3	28	0	0	3	1	0	0	0	0	0	0	0	1	0	0	0	0	0	17	0	0	0	0	2	1	0	2	0	0	0	0	0	0	1	0	0	0	0	1	6	0	0	2
OTU 150	0	1	0	2	0	0	0	0	1	0	0	0	0	0	0	0	0	0	0	2	1	0	0	0	0	2	0	0	0	0	0	0	0	0	0	0	0	0	0	2	2	0	0	0	0	0	0	0	0	0
OTU 151	0	4	0	2	0	2	1	0	0	1	2	0	1	0	0	2	2	0	0	0	1	0	0	0	1	1	0	0	0	0	9	1	0	0	0	0	2	1	2	0	2	0	4	1	2	2	0	0	0	0
OTU 152	2	2	0	1	0	5	1	5	1	0	0	2	5	1	1	0	3	73	0	2	1	0	0	0	7	0	0	0	0	0	5	0	1	0	2	2	1	0	0	1	0	12	3	4	0	0	0	2	0	0
OTU 153	0	1	0	0	0	0	0	1	0	1	0	0	0	0	0	0	0	0	0	0	0	0	0	0	0	0	0	0	0	0	0	0	0	0	0	0	1	0	0	0	0	0	0	0	0	0	0	0	0	0
OTU 154	0	0	0	0	0	0	0	0	0	0	0	0	0	0	4	0	0	0	0	0	0	0	0	0	0	0	1	0	1	0	0	0	0	0	0	0	0	0	0	1	0	0	0	1	0	0	0	0	0	0
OTU 155	1	6	1	0	0	0	0	0	2	2	0	0	0	0	0	0	0	0	0	0	2	0	1	0	0	0	0	1	0	0	1	0	0	0	6	0	0	0	1	0	0	0	1	0	0	2	0	1	0	0
OTU 156	1	5	1	0	2	3	0	89	0	2	2	2	0	0	0	115	0	2	0	1	3	1	2	0	5	36	0	3	0	2	0	0	0	3	11	2	0	3	0	1	0	7	60	1	34	2	2	1	0	1
OTU 157	0	0	0	0	0	21	0	0	0	0	0	1	0	0	0	0	0	0	0	0	0	0	0	0	0	0	0	0	0	30	0	0	0	0	5	3	0	0	3	0	4	1	0	0	8	0	0	0	0	36
OTU 158	0	0	0	0	0	0	0	0	0	0	0	0	0	0	0	0	0	0	0	0	0	0	0	0	1	0	0	0	0	0	0	1	2	0	0	0	1	0	0	0	1	0	0	0	0	0	0	0	0	1
OTU 159	1	0	0	0	1	0	0	1	0	1	0	3	1	0	2	0	0	0	1	1	5	0	0	0	0	3	2	0	0	17	0	0	0	0	2	0	1	0	8	1	3	7	0	0	0	2	5	1	0	0
OTU 160	0	8	2	0	5	4	11	2	0	2	5	3	11	2	5	0	2	27	0	0	1	3	1	0	1	3	6	0	0	1	0	0	2	1	0	5	37	1	31	2	0	1	1	1	1	1	7	2	0	0
OTU 161	22	0	0	10	0	1	2	0	0	35	2	9	0	0	66	0	0	0	0	1	9	0	13	0	0	0	2	31	22	20	0	7	0	0	0	0	2	0	0	12	82	2	18	24	38	0	82	0	26	55
OTU 162	0	0	0	0	0	1	11	1	2	0	0	6	1	0	1	4	1	1	0	0	6	1	0	0	0	0	0	0	0	1	0	0	0	10	0	1	1	0	0	1	2	0	0	0	1	0	4	0	0	1
OTU 163	0	0	0	0	0	0	0	0	0	0	0	0	1	0	0	0	0	0	0	0	0	0	0	0	0	0	0	0	0	0	0	0	0	0	0	0	0	0	0	0	0	0	0	0	0	0	0	0	0	0
OTU 164	0	0	0	0	0	0	0	0	0	0	0	2	0	0	0	0	0	0	0	0	0	0	0	0	0	0	0	0	0	0	0	0	0	0	0	0	0	0	0	0	0	0	1	0	0	0	0	0	0	0
OTU 165	0	0	0	0	2	4	6	0	47	0	2	0	0	0	0	0	2	0	0	4	1	79	4	1	3	0	0	0	0	0	0	0	5	0	5	0	1	1	0	0	2	0	0	0	4	1	0	0	1	0
OTU 166	0	0	0	0	0	0	0	0	0	0	0	0	0	0	0	0	0	0	0	0	0	0	0	0	0	0	0	0	0	0	0	0	0	0	0	0	0	0	0	0	0	0	0	0	0	0	0	0	0	0
OTU 167	0	0	1	3	0	1	0	0	2	0	1	39	0	0	0	0	0	0	0	1	0	1	1	0	0	0	0	0	0	0	0	20	0	1	0	0	0	1	0	26	1	0	0	0	0	3	1	0	19	0
OTU 168	2	7	4	1	0	18	0	0	2	0	0	0	2	0	1	1	0	0	0	0	0	0	0	0	2	0	0	1	0	0	0	0	0	1	0	0	1	2	6	2	0	0	0	0	3	1	0	1	0	0
OTU 169	0	0	0	0	0	0	0	0	2	0	81	0	0	0	0	0	0	0	0	0	0	1	0	0	0	0	0	0	0	0	10	0	0	0	0	0	0	0	6	0	0	0	0	0	0	0	0	1	0	0
OTU 170	0	0	1	0	0	0	0	0	0	0	0	0	0	0	0	0	0	0	0	0	0	0	0	0	0	0	0	0	0	0	0	0	0	2	0	0	0	0	0	0	0	1	0	0	0	0	0	0	0	0
OTU 171	0	1	3	0	1	0	0	1	0	3	0	3	2	0	2	0	2	2	0	0	0	0	1	1	0	0	0	3	5	4	3	2	1	3	6	0	2	1	0	0	40	0	0	49	0	0	0	0	23	0
OTU 172	0	0	0	0	0	0	0	0	0	0	0	0	0	0	0	0	1	0	0	0	0	0	1	0	0	0	3	0	0	0	3	0	0	0	0	0	1	0	0	0	0	0	0	0	0	0	0	1	0	1
OTU 173	0	0	0	0	0	0	1	4	0	0	2	0	0	0	0	0	0	0	0	1	0	0	1	0	0	1	0	0	0	0	0	0	7	0	0	0	0	0	0	0	0	0	0	0	0	0	0	0	0	0
OTU 174	0	0	0	1	0	0	1	10	3	3	0	0	1	0	0	1	0	0	0	0	1	1	0	0	0	3	0	0	0	0	2	0	0	5	0	0	0	0	0	0	0	0	0	1	0	1	1	0	0	1
OTU 175	0	1	0	0	0	3	1	0	0	0	0	1	0	0	0	3	0	0	0	0	1	1	1	0	0	0	0	0	0	2	1	1	2	0	0	0	0	1	0	0	0	0	0	0	2	1	1	0	0	0
OTU 176	0	1	0	1	0	0	6	0	0	0	1	0	1	0	0	0	4	0	0	5	5	1	2	0	140	0	0	1	1	0	1	0	0	4	8	3	0	0	0	0	1	1	2	1	0	24	2	1	0	1
OTU 177	0	0	3	2	9	2	0	0	5	1	7	1	0	0	0	1	0	0	0	2	3	0	0	0	0	0	0	0	0	2	0	0	0	1	1	0	4	0	0	0	4	2	0	1	2	1	5	0	1	3
OTU 178	0	5	0	3	0	2	3	0	0	0	0	5	0	0	3	0	0	0	0	0	0	0	0	0	0	0	0	1	3	0	0	0	5	0	2	0	4	0	2	0	0	2	0	2	0	0	2	1	0	2
OTU 179	1	1	0	0	2	0	0	2	0	0	1	0	0	0	0	0	2	0	0	0	0	1	0	0	0	0	0	4	0	0	3	0	11	0	0	0	0	0	1	0	0	1	2	0	0	0	1	2	0	0
OTU 180	4	5	2	85	2	4	5	5	7	126	4	5	2	3	0	1	9	2	2	3	15	1	3	2	75	1	2	2	2	1	1	95	1	0	5	1	5	5	4	0	0	4	1	0	6	5	1	1	1	2
OTU 181	3	0	0	0	1	1	0	0	0	1	0	0	0	0	0	1	0	1	0	0	4	3	0	0	1	0	0	5	0	0	0	0	0	0	0	0	4	0	0	1	6	4	0	0	0	3	0	0	0	0
OTU 182	0	0	2	0	0	1	4	0	0	0	0	0	0	0	0	0	0	0	0	0	0	0	0	0	0	0	0	0	0	0	0	1	0	0	0	0	0	0	0	0	0	0	0	0	0	0	0	0	0	0
OTU 183	0	0	4	0	4	0	0	3	0	1	0	17	0	0	1	1	0	4	5	3	0	0	0	0	0	0	0	0	0	1	0	0	2	4	6	0	0	2	8	0	0	0	0	2	0	4	44	1	0	0
OTU 184	0	1	0	0	0	0	7	5	3	0	1	0	0	0	0	0	0	0	0	0	1	1	0	0	1	5	0	0	0	1	0	2	0	0	0	0	0	1	0	0	0	0	0	0	104	0	0	2	0	0
OTU 185	0	0	0	1	0	2	1	0	1	0	6	2	0	1	0	3	8	4	0	1	3	0	0	4	0	0	4	1	0	1	1	1	1	6	8	0	3	0	3	0	2	0	4	1	1	0	0	0	0	0
OTU 186	0	6	0	0	0	0	0	0	0	1	0	72	0	0	1	0	0	0	0	0	0	0	0	0	0	1	0	1	1	0	0	1	0	0	2	0	2	0	0	0	0	2	0	0	4	1	2	0	0	0
OTU 187	0	4	1	3	2	2	1	1	21	2	8	3	1	0	0	0	3	2	35	0	9	76	0	2	5	1	0	0	0	0	1	0	17	2	0	82	9	3	1	0	0	1	0	0	3	3	0	0	0	4
OTU 188	1	0	9	1	6	11	18	12	4	10	0	1	10	0	11	3	5	2	2	3	8	5	10	5	4	8	4	6	2	10	9	18	6	6	0	2	5	2	2	18	10	5	0	10	6	2	1	4	6	13
OTU 189	3	4	1	0	0	2	1	3	2	0	0	10	7	50	2	0	1	0	2	3	0	1	2	0	6	1	1	1	3	0	4	0	0	3	19	1	9	0	0	0	1	1	6	3	1	2	5	6	0	2
OTU 190	0	0	1	1	0	0	0	0	0	0	3	0	0	3	0	0	0	0	0	5	0	0	0	0	4	0	1	0	0	0	0	0	0	0	0	0	0	0	0	0	0	0	0	0	0	0	0	0	0	0
OTU 191	0	5	2	1	2	3	0	1	0	0	0	2	1	0	0	9	2	3	0	2	0	0	2	0	0	1	1	0	0	0	0	0	13	0	10	0	0	0	0	0	1	0	6	1	0	3	2	1	0	0
OTU 192	0	1	1	0	2	1	6	1	1	0	4	2	4	1	1	1	1	0	1	2	1	0	1	0	3	3	1	1	0	0	1	23	6	8	4	0	4	0	0	0	0	4	0	2	1	0	2	0	1	0
OTU 193	0	3	1	2	2	2	2	2	5	0	1	0	0	2	2	0	1	4	12	2	2	1	0	0	2	1	3	0	0	1	4	0	8	0	0	13	3	0	1	0	1	1	7	0	0	0	0	3	0	1
OTU 194	0	2	0	1	2	19	1	0	1	0	3	0	1	0	0	0	0	0	0	0	0	2	1	0	0	0	1	1	1	0	0	1	11	0	5	0	7	4	5	2	0	0	0	0	5	0	0	0	0	0
OTU 195	17	0	0	18	2	0	0	3	1	22	1	0	0	0	48	0	0	0	1	1	1	2	3	0	0	1	0	37	22	0	1	0	2	0	2	0	0	0	0	0	0	1	9	28	0	0	4	0	0	0
OTU 196	0	0	2	0	1	0	1	0	0	0	2	0	4	0	0	4	0	0	0	3	0	0	0	0	0	0	0	0	0	3	0	0	1	0	4	0	0	0	0	0	0	0	2	0	0	1	1	0	1	6
OTU 197	2	2	0	2	1	6	1	0	4	2	4	7	12	0	1	7	1	10	0	9	2	2	3	1	3	0	2	2	1	0	8	1	2	2	20	2	0	0	5	5	50	0	0	0	6	7	7	5	36	6
OTU 198	3	1	0	0	0	0	0	0	0	0	5	0	0	0	0	0	0	5	0	0	0	0	0	0	0	0	1	0	0	0	1	0	0	0	0	0	0	0	0	0	0	0	2	0	0	0	1	2	0	1
OTU 199	0	4	1	5	0	0	0	7	0	0	0	3	0	0	0	0	0	0	0	1	0	1	0	0	2	0	1	0	0	0	0	0	0	0	0	1	2	0	1	0	0	2	0	0	0	0	1	1	0	0
OTU 200	1	1	0	0	3	0	2	1	0	3	0	4	1	0	0	0	0	1	0	0	1	0	1	0	1	0	0	1	0	0	3	0	6	0	0	0	5	0	0	4	0	0	0	1	1	0	0	0	0	0
