	Host 1	Host 2	Host 3	Host 4	Host 5	Host 6	Host 7	Host 8	Host 9	Host 10	Host 11	Host 12	Host 13	Host 14	Host 15	Host 16	Host 17	Host 18	Host 19	Host 20	Host 21	Host 22	Host 23	Host 24	Host 25	Host 26	Host 27	Host 28	Host 29	Host 30	Host 31	Host 32	Host 33	Host 34	Host 35	Host 36	Host 37	Host 38	Host 39	Host 40	Host 41	Host 42	Host 43	Host 44	Host 45	Host 46	Host 47	Host 48	Host 49	Host 50	
OTU 1	0	50	23	17	75	219	0	103	8	66	0	0	190	1	24	98	70	67	0	0	0	10	0	51	46	32	9	78	0	2	57	52	0	47	164	10	77	53	415	4	76	4	17	142	22	43	14	20	11	121
OTU 2	2	28	4	12	14	6	6	0	15	1	1	4	3	10	0	62	6	0	0	1	324	127	0	739	0	33	35	1	0	0	13	11	14	29	3	122	26	1	5	35	24	10	10	51	0	31	91	12	47	19
OTU 3	0	3	11	0	4	0	24	0	0	0	1	10	0	6	3	0	5	15	30	0	2	0	30	41	0	0	0	1	15	0	1	2	11	0	6	3	0	1	0	0	201	1	11	7	0	110	6	4	0	0
OTU 4	0	0	0	0	0	0	0	0	0	0	0	0	0	0	0	0	0	0	0	0	0	0	0	0	0	0	0	0	0	0	0	0	0	0	0	0	0	0	0	0	0	0	0	0	0	0	0	0	0	0
OTU 5	469	142	1194	3	233	316	154	133	84	354	164	55	447	1	11	0	0	1106	380	6	25	69	81	92	334	46	17	1223	2	434	170	84	308	490	370	233	184	446	496	55	0	148	792	279	256	1057	0	82	168	316
OTU 6	6	28	7	16	22	0	65	0	0	58	25	8	2	80	56	0	9	0	1	14	1	10	12	3	0	0	0	21	26	6	6	19	33	8	33	15	30	5	0	3	10	0	51	48	20	4	0	41	82	12
OTU 7	1973	28	60	67	54	632	15	21	1841	19	809	115	629	880	178	73	135	26	13	48	67	34	72	283	12	38	80	32	76	48	31	1372	99	4	742	11	18	18	1319	48	77	10	17	59	56	7	21	40	653	54
OTU 8	44	107	22	27	36	18	134	100	51	30	72	287	22	16	68	176	58	13	23	201	4	116	181	20	9	164	57	181	43	15	21	381	184	4	7	48	95	4	27	8	308	8	13	52	2832	9	10	369	29	26
OTU 9	32	33	159	1	8	0	77	2	16	0	7	52	0	61	25	18	34	0	13	0	41	1	6	56	0	41	15	6	0	2	18	4	1	324	48	4	0	5	0	0	1	3	2	23	16	0	0	2	0	0
OTU 10	38	28	5	0	15	6	0	6	6	0	41	1	9	33	76	0	0	56	3	3	14	93	1	8	0	32	1	14	0	17	9	55	1	0	0	2	157	8	16	3	1	2	0	4	64	0	44	0	2	8
OTU 11	0	29	5	37	13	38	88	7	9	58	40	0	35	144	59	252	32	5	24	99	3	99	16	76	25	13	34	34	34	890	31	128	3	28	99	0	26	1	59	116	31	4	21	20	25	77	96	118	0	92
OTU 12	114	29	48	6	26	12	35	62	16	90	81	51	1	9	0	96	4	13	102	120	1	105	13	4	11	94	25	32	19	12	48	4	13	26	0	111	97	45	18	88	155	4	7	65	1	169	1	30	59	8
OTU 13	0	8	0	0	0	0	0	0	3	0	0	0	0	0	2	0	0	0	0	7	0	2	48	0	3	5	0	0	0	0	0	0	3	0	0	0	0	0	0	0	0	3	2	0	0	2	0	10	1	0
OTU 14	4	30	0	0	0	0	9	13	14	7	0	35	147	16	46	3	9	7	5	34	5	10	54	16	0	1	0	0	1	0	100	3	79	4	2	0	64	15	0	2	103	1	36	5	37	11	0	0	0	12
OTU 15	1	0	0	0	0	8	0	13	0	0	0	0	6	0	0	0	0	2	0	4	2	2	0	1	0	0	0	0	1	0	0	0	0	0	0	0	0	0	10	0	11	0	0	0	0	3	0	1	0	0
OTU 16	0	0	0	0	0	0	0	0	0	0	0	0	0	0	0	0	0	0	0	0	55	0	0	0	0	0	0	0	0	0	0	0	0	0	0	1	0	0	0	0	7	0	0	0	0	0	0	0	0	0
OTU 17	13	0	0	1	1	0	52	0	1	0	0	1	1	30	49	1	3	14	8	0	0	17	5	7	1	15	12	17	42	1385	25	2	50	27	3	3	1	0	0	8	2	0	13	1	45	0	21	24	5	24
OTU 18	5	20	19	1	24	18	39	64	1533	10	17	7	19	3	30	122	0	23	68	46	335	82	26	1	12	113	10	18	21	16	7	16	92	2	1	4	116	17	30	21	52	1	4	15	7	51	1951	107	9	54
OTU 19	0	0	0	0	0	0	0	0	0	0	0	0	0	0	0	0	0	0	0	0	0	0	0	0	0	0	14	0	39	0	0	0	0	0	0	0	0	0	0	0	0	0	0	0	0	0	0	0	0	0
OTU 20	0	145	1	0	0	4	2	2	0	227	27	40	6	15	46	19	5	2	12	17	16	0	41	213	5	2	5	18	0	4	38	55	9	40	9	10	64	14	5	71	6	2	26	0	8	4	6	26	4	0
OTU 21	76	10	31	46	28	0	0	67	2	9	4	25	1	2	22	37	129	67	40	181	55	48	189	9	25	0	240	0	6	6	19	2	54	24	39	7	11	37	0	12	221	0	1	32	16	5	36	23	5	128
OTU 22	40	40	32	31	139	19	1	77	14	1	18	0	6	287	166	16	74	23	1	7	5	21	10	84	0	6	74	109	109	20	3	60	888	33	24	122	23	41	38	21	17	2	30	219	93	3	13	40	11	0
OTU 23	34	7	0	25	2	3	73	23	4	2	8	158	5	1	16	11	1	27	42	11	7	28	9	0	4	1	15	11	34	19	58	9	2	25	36	0	31	2	6	90	12	6	13	37	9	5	55	12	4	0
OTU 24	3	0	19	3	0	2	0	0	1	1	0	33	0	72	43	64	9	48	140	3	10	98	1	10	10	1	0	3	0	42	56	33	1	17	0	8	2	0	7	182	10	2	1187	21	29	0	0	4	12	131
OTU 25	0	21	0	0	0	0	0	0	0	0	0	0	0	0	0	2	0	0	0	0	0	0	0	0	0	0	0	0	0	0	0	0	5	0	0	0	0	0	0	0	0	0	0	5	0	0	0	3	0	0
OTU 26	2	0	0	0	0	3	0	0	5	0	1	1	0	14	0	5	1	0	1	1	0	0	0	1	0	3	0	0	0	19	0	0	0	0	4	29	11	0	2	0	48	13	0	1	0	1	0	5	0	1
OTU 27	0	0	4	0	0	0	0	0	0	0	0	0	0	0	0	0	0	5	80	0	0	8	0	0	4	0	0	0	0	0	0	0	0	0	0	0	0	0	0	0	0	0	0	0	0	0	0	0	0	0
OTU 28	10	5	81	36	85	0	304	76	42	66	11	58	2	3	0	174	41	16	53	11	3	8	18	0	22	53	33	1	16	166	48	56	18	3	5	45	90	128	2	19	37	27	19	142	12	78	32	65	16	92
OTU 29	14	28	19	2	78	38	33	2	636	12	7	234	51	23	688	10	26	3	79	11	93	40	213	75	17	524	173	42	161	22	26	51	25	6	75	10	149	16	88	55	55	77	3	107	312	61	28	121	28	137
OTU 30	2	0	0	0	0	0	0	0	0	0	0	0	0	0	0	0	0	0	0	0	0	0	1	0	0	0	0	0	0	0	0	0	0	0	0	0	1	0	0	0	0	0	0	0	0	0	0	0	0	0
OTU 31	11	0	15	19	2	1	0	1	0	290	0	1	0	0	0	14	6	5	4	1	0	1	0	718	0	0	3	19	13	3	1	0	5	0	0	14	66	4	1	382	19	8	0	5	0	1	0	1	0	27
OTU 32	41	87	2	0	9	62	21	106	69	58	63	14	78	79	33	53	0	148	667	8	13	354	73	108	22	121	14	227	148	30	16	13	18	12	15	725	63	38	144	66	70	32	18	78	40	47	192	896	214	33
OTU 33	0	0	1	16	0	0	0	0	0	0	0	0	0	46	0	0	13	11	43	0	0	0	0	0	12	0	0	0	0	0	16	0	0	0	0	0	0	1	0	0	0	4	29	0	4	0	0	2	0	0
OTU 34	42	134	53	0	33	0	41	16	10	10	0	38	1	335	0	208	20	44	3	52	81	44	41	53	3	0	0	21	11	4	6	67	5	16	3	66	16	2	0	34	119	11	4	72	1	9	10	0	42	23
OTU 35	15	18	9	9	44	3	44	4	83	3	0	11	7	9	3	6	18	1	36	0	63	9	32	45	1	60	3	0	9	13	44	126	4	0	0	41	5	27	13	24	63	3	31	92	471	6	13	13	16	258
OTU 36	14	3	18	20	3	8	116	27	85	4	2	2	13	0	20	238	4	24	1	2	38	50	6	63	25	160	2	37	4	2	6	0	66	3	3	53	49	10	12	27	31	8	10	7	4	21	1	25	105	3
OTU 37	0	1	0	2	0	0	55	2	0	2	0	3	0	0	2	28	0	0	0	0	0	0	8	1	0	8	1	0	0	0	0	1	0	1	0	38	0	2	0	0	0	13	2	4	0	4	2	1	0	0
OTU 38	50	46	18	3	8	1	109	56	3	6	55	27	0	102	58	34	2	108	446	6	36	158	288	89	19	13	10	5	0	18	2	3	10	3	6	662	107	11	1	34	45	15	9	20	30	0	50	2	443	33
OTU 39	0	0	97	0	6	0	2	4	9	38	17	0	0	0	2	0	0	0	4	0	0	23	32	0	0	27	0	25	0	1	0	30	0	6	7	4	0	3	0	74	1	1	0	1	3	0	0	51	0	115
OTU 40	5	167	8	12	11	271	8	40	3	48	1	325	306	41	7	106	7	56	5	35	137	25	16	5	2	4	15	24	126	12	54	6	15	17	278	21	80	10	596	21	29	20	19	16	8	2	16	52	1	118
OTU 41	2	198	18	511	2327	44	16	31	6	5	3	18	48	2	16	97	612	30	2	85	111	13	26	73	791	6	34	16	50	159	873	2	3	1560	74	164	35	35	103	1	159	3	474	36	0	29	38	33	62	35
OTU 42	2	1	0	0	0	0	0	22	2	6	0	2	5	0	195	0	0	11	0	0	0	0	10	0	0	0	0	0	102	0	18	0	0	0	16	0	6	0	0	0	0	0	1	0	114	1	1	27	3	0
OTU 43	0	0	0	5	0	1	0	0	0	0	3836	0	0	0	0	1	0	0	8	0	0	0	37	0	0	0	0	0	0	7	0	0	0	0	0	0	1	0	3	0	0	0	4	0	0	0	0	0	0	0
OTU 44	0	1	1	0	0	0	0	0	0	0	1	0	0	0	0	73	1	0	1	36	0	1	0	8	0	1	0	0	0	23	0	0	14	0	0	0	1	0	0	0	0	0	0	0	1	46	55	0	0	10
OTU 45	82	137	20	13	17	8	0	1839	0	5	55	24	10	70	71	125	22	57	32	3762	58	0	54	137	1	15	0	27	4	43	20	1	1992	4	45	13	19	9	12	29	39	12	18	27	56	31	97	22	8	2
OTU 46	79	38	29	11	2	7	411	92	10	15	27	345	16	33	102	0	30	19	34	9	83	34	25	30	173	13	820	1	16	55	12	15	32	647	48	22	23	28	18	46	39	50	12	5	44	18	1	6	4	125
OTU 47	0	0	2	0	0	32	58	1	0	2	0	0	46	0	61	14	0	0	0	14	0	1	0	0	12	5	0	0	10	1	0	11	0	0	0	20	0	0	70	0	0	3	5	0	39	6	0	42	22	0
OTU 48	34	211	26	1	49	2	1	169	11	134	79	87	1	91	51	13	5	0	22	26	114	99	55	6	47	10	112	3	30	18	8	25	3	55	2356	0	0	27	3	2	15	5	13	15	33	107	24	0	11	9
OTU 49	0	0	0	0	1	41	121	110	0	0	4	10	0	7	10	1	20	0	16	0	5	57	0	0	0	12	0	0	2544	0	8	37	0	35	0	0	0	2	2	3	18	6	3	0	4	6	0	0	0	10
OTU 50	76	9	0	2	61	62	0	7	14	81	7	16	85	1	64	14	16	11	88	42	171	126	37	213	1	43	1	5	4	10	2	20	19	1	106	190	80	1	163	41	44	5	2	149	32	58	10	17	60	2
OTU 51	21	14	1	65	1	33	0	27	8	3	0	0	24	18	142	0	61	20	0	8	0	38	3	13	50	9	95	29	1	0	11	2	19	30	4	15	107	76	78	5	76	15	21	2	44	61	26	19	0	1
OTU 52	67	35	25	5	35	3	41	0	85	92	92	30	6	59	5	194	12	38	21	23	30	91	23	201	24	65	48	168	31	10	60	82	24	33	0	76	50	36	7	52	35	74	1126	33	10	6	154	92	56	18
OTU 53	0	0	0	0	0	0	0	0	0	0	0	0	0	0	0	18	0	0	0	0	0	0	0	0	0	0	0	0	0	0	0	0	0	0	0	0	0	0	0	0	0	1	0	4	0	0	3	0	0	0
OTU 54	9	9	91	105	123	12	55	4	13	31	0	76	0	252	82	157	75	66	32	118	611	94	141	282	76	15	22	22	189	72	52	37	31	4	20	26	83	36	18	36	50	16	15	210	30	17	47	23	8	5
OTU 55	0	0	0	0	0	0	0	4	0	0	0	0	0	0	0	0	0	0	0	0	0	0	0	0	0	0	0	0	0	0	0	0	0	0	0	0	0	0	0	0	0	0	0	0	0	0	0	0	0	0
OTU 56	0	0	0	1	65	458	0	10	0	11	43	10	0	0	0	2	10	24	19	18	74	19	0	2	9	0	1	0	14	0	2	0	0	0	2	45	6	16	0	13	18	655	4	99	0	0	5	2	15	7
OTU 57	26	119	30	6	18	50	54	134	17	10	16	19	55	207	451	48	10	176	26	90	191	110	177	219	120	74	210	82	115	68	168	105	6	66	64	84	132	42	127	17	40	21	232	34	240	91	173	195	75	140
OTU 58	2	45	70	0	16	18	7	0	0	7	0	74	35	3	37	3	10	3	10	0	15	125	0	138	2516	36	14	5	30	8	0	11	0	0	36	16	0	0	44	0	9	4	1	16	23	13	8	6	7	93
OTU 59	0	39	0	4	6	0	0	0	14	18	0	0	0	11	2	45	0	61	0	6	43	1	22	1	7	14	2	18	22	0	110	0	8	4	1	16	25	30	0	8	0	182	72	37	0	24	5	1	14	0
OTU 60	19	200	34	5	43	35	22	23	7	92	3	16	29	3	24	84	9	129	90	101	164	5	349	19	0	84	42	59	22	6	15	84	19	21	15	38	4	114	61	36	143	1	27	19	15	39	65	95	1	11
OTU 61	49	341	306	308	39	282	788	7	22	46	83	643	266	183	138	163	625	426	171	47	279	26	23	5	1	21	116	210	72	63	3	180	10	11	205	821	27	287	535	48	14	219	18	48	112	288	28	494	333	34
OTU 62	2	1	0	0	0	0	0	17	0	1	0	0	1	0	0	3	6	0	10	1	26	17	0	0	23	2	0	18	3	5	1	1	0	5	0	0	18	3	0	0	23	4	0	4	0	0	15	56	0	1
OTU 63	34	22	0	21	19	21	0	8	1	0	591	9	30	4	11	0	36	0	44	16	0	4	14	0	9	0	0	24	0	0	62	2	10	53	3	4	5	5	40	0	1	0	41	43	14	2	19	5	0	5
OTU 64	7	86	16	56	160	17	2	102	55	81	1	70	9	70	24	9	104	23	2	50	208	51	67	23	55	129	1	39	131	25	64	108	41	82	32	30	27	35	41	33	5	52	993	167	7	23	42	34	17	12
OTU 65	0	0	0	0	0	0	0	35	0	0	0	0	0	0	0	1	0	0	0	47	10	1	0	12	0	0	0	0	0	48	0	0	0	0	0	1	0	0	0	0	1	0	0	0	1	0	0	0	0	0
OTU 66	9	187	0	3	263	5	3	88	0	101	372	36	4	32	48	2	12	34	3	11	1	75	90	1	67	8	43	3	24	4	3	850	40	1	11	67	20	16	9	124	50	9	7	597	35	9	17	8	91	6
OTU 67	8	60	28	7	317	73	28	15	14	13	30	0	657	10	247	0	13	39	0	129	6	7	12	47	13	6	76	38	0	0	31	84	6	3	38	34	42	39	124	14	8	22	9	606	167	44	52	41	20	9
OTU 68	23	0	0	0	0	13	68	3	19	0	0	1	2	0	0	0	0	0	0	7	7	68	2	0	2	24	9	126	1	1	1	0	22	2	4	0	0	5	29	2	2	6	1	0	0	10	0	111	2	14
OTU 69	20	7	0	34	3	0	15	0	3	8	6	61	0	187	5	206	23	43	8	18	60	106	43	96	7	3	17	39	98	45	2	7	3	3	7	0	11	45	0	12	6	35	0	49	0	95	16	49	6	13
OTU 70	0	5	40	0	0	20	11	7	2	26	2	7	18	15	1	12	2	21	1	1	16	201	0	222	0	3	13	1	54	5	0	1	0	1	75	15	1	19	38	2	11	0	8	3	7	0	3	29	7	11
OTU 71	28	0	3	7	1	27	4	21	29	0	6	2	45	25	0	0	0	6	69	41	62	96	55	32	6	106	1	57	118	47	12	73	0	30	18	1	127	0	43	23	10	0	3	50	3	0	5	63	0	1
OTU 72	36	15	9	35	97	3	3	45	16	5	5	2	0	45	3	7	6	26	15	31	14	1	16	22	8	15	10	3	11	70	9	6	4	23	1748	1	19	31	3	18	45	2	17	162	5	1	3	41	4	149
OTU 73	1702	5	26	4	19	2	63	66	133	18	0	81	3	6	0	17	45	3	1	2	95	27	34	23	3	101	22	52	21	5	3	12	20	12	10	72	41	0	8	19	18	0	13	6	1	22	0	0	15	93
OTU 74	15	22	94	168	76	45	57	30	9	84	27	23	50	8	143	32	333	23	57	84	48	86	89	156	421	3	87	110	0	209	253	11	28	312	4	16	29	8	91	11	32	1	110	45	59	6	3	181	41	113
OTU 75	85	161	6	44	35	5	4	10	0	28	3	32	4	45	1	59	11	42	31	12	134	31	16	6	19	21	27	2	11	40	28	22	2	41	20	102	8	11	9	36	139	26	57	121	4	20	16	2	24	26
OTU 76	8	7	128	2	0	0	6	23	12	98	6	75	1	3	32	48	0	0	0	5	49	3	0	3	6	23	17	1	1	2	6	18	9	6	3	0	378	6	0	583	0	61	5	1	12	0	4	3	2	656
OTU 77	1	63	7	22	24	1	109	1	57	45	30	10	1	0	79	37	11	58	2	50	14	14	28	12	4	179	23	517	41	179	5	5	21	3	4	31	6	37	1	4	84	86	22	38	38	18	94	36	51	73
OTU 78	8	334	199	2	298	57	170	0	17	22	0	109	55	4	24	8	11	82	2	88	120	8	99	17	23	5	3	4	59	29	12	8	8	0	42	193	2	114	97	4	76	1	0	626	16	115	45	246	58	135
OTU 79	29	22	131	57	181	178	331	109	245	248	49	242	309	75	348	157	111	2858	119	60	156	124	1065	105	19	435	291	132	79	988	66	90	79	67	128	119	153	145	314	86	65	75	23	327	79	63	83	294	59	174
OTU 80	64	41	36	8	83	1	139	62	17	29	0	87	3	860	601	0	35	20	26	159	32	81	138	183	23	21	139	16	280	96	21	4	54	53	13	3	337	5	2	23	113	68	1	192	292	7	21	70	2	196
OTU 81	50	90	5	8	15	1	53	36	35	77	22	86	0	73	25	265	34	56	326	59	12	62	73	43	40	48	559	7	142	29	9	144	15	15	23	19	12	8	2	277	16	26	19	13	23	9	150	82	83	45
OTU 82	0	30	30	1	21	36	2	14	1	45	9	4	48	115	9	36	0	10	55	15	123	27	22	123	0	5	9	9	8	6	0	5	4	7	41	6	82	35	95	112	0	15	3	11	10	0	32	7	12	53
OTU 83	0	0	0	0	2	0	0	3	0	0	0	0	4	29	30	78	0	0	1	0	4	0	0	0	1	8	44	0	0	5	0	0	0	0	0	0	0	0	2	2	0	5	0	4	28	0	24	0	0	3
OTU 84	11	94	5	3	0	10	11	11	79	26	69	17	13	5	25	1	1	0	19	41	76	1	49	20	11	131	14	20	1	2	18	91	24	1	17	2	2	19	18	0	94	8	17	20	10	12	5	25	9	26
OTU 85	11	29	5	3	0	0	7	1	1	9	5	16	0	1	8	0	0	4	84	0	0	3	0	9	0	0	35	4	0	1	1	5	1	1	0	0	0	0	0	0	0	4	0	0	11	34	35	0	12	24
OTU 86	0	0	4	0	0	0	0	45	0	0	12	1	0	0	0	0	0	17	0	36	0	0	0	0	0	0	0	0	14	0	125	0	0	0	0	3	0	0	0	0	0	0	64	0	1	0	0	0	0	5
OTU 87	25	1	1	0	73	19	3	7	10	13	2	0	26	5	4	75	2	1	1007	2	0	0	0	0	0	22	1	2	2	0	4	0	0	16	14	0	0	0	34	0	27	2	1	80	0	0	66	11	1	11
OTU 88	0	2	19	0	0	2	0	1	0	0	2	2	0	5	1	3	0	13	0	0	0	0	98	0	0	0	0	36	1	0	23	5	0	24	3	0	0	29	5	0	0	0	13	0	0	0	0	3	0	0
OTU 89	0	0	0	9	13	6	0	19	0	166	24	0	12	16	3	0	0	2	4	16	3	0	0	0	7	0	0	0	66	0	0	215	15	0	6	1	2	0	22	0	131	4	0	20	1	0	0	3	5	0
OTU 90	0	36	9	0	0	3	41	11	0	0	0	0	4	12	4	0	13	1	5	40	0	203	1	1	17	0	0	0	8	1	0	1	7	0	3	1	0	398	4	147	0	0	0	3	19	0	0	0	3	0
OTU 91	15	0	4	5	0	0	0	22	1	0	0	0	0	0	0	0	18	0	0	4	0	26	0	2	14	4	0	6	18	1	0	0	0	0	2	0	0	0	0	0	0	0	0	0	0	0	0	11	0	3
OTU 92	38	11	1	0	13	11	16	0	0	2	0	59	10	20	2	0	12	0	17	1	13	1	0	0	0	0	0	42	0	21	0	0	0	0	26	6	0	0	23	3	0	0	0	8	2	3	0	17	0	0
OTU 93	0	0	0	0	0	5	0	0	1	0	40	66	7	74	10	47	0	1	1	4	0	1	1	0	0	0	0	0	4	1	0	23	0	0	0	0	3	0	14	0	1	5	1	0	0	0	0	0	0	8
OTU 94	6	197	80	25	57	14	412	45	104	1	16	95	14	8	254	144	98	86	26	15	38	36	14	8	95	213	196	68	189	1262	212	56	28	125	7	20	78	9	23	99	14	16	68	108	131	53	23	26	15	57
OTU 95	0	3	6	0	0	0	1	0	0	1	7	12	2	15	51	3	0	0	8	1	3	1	3	0	2	0	115	22	0	0	17	13	6	1	44	0	6	125	1	0	0	7	8	1	25	21	13	0	0	75
OTU 96	0	0	0	0	0	0	0	0	0	1	0	1	0	0	81	0	0	0	0	0	0	0	5	0	0	6	0	0	0	0	0	3	0	0	0	1	0	44	0	0	0	0	0	7	61	0	0	50	0	0
OTU 97	1	0	0	0	0	0	0	0	27	0	28	0	0	45	5	0	2	0	1	0	28	0	0	28	1	69	0	0	0	0	0	1	1	0	0	0	0	0	0	0	172	0	0	0	0	0	0	21	1	0
OTU 98	31	1	0	1	0	7	0	3	9	16	2	0	11	13	0	25	1	0	0	0	36	32	10	0	14	51	0	13	25	1	46	0	0	7	7	0	13	0	12	2	49	7	11	13	0	1	2	4	0	0
OTU 99	158	163	2	31	5	15	60	42	13	94	22	47	22	188	187	7	43	36	35	29	481	38	49	26	72	48	133	56	33	1	19	5	68	75	60	116	1085	81	35	893	104	373	8	42	134	45	81	128	33	2540
OTU 100	32	102	14	56	14	18	109	0	1	27	3	26	15	1	8	131	31	99	0	21	3	4	27	147	74	12	4	70	46	5	22	1	71	15	0	75	1443	18	38	127	36	33	14	16	3	20	127	133	13	0
OTU 101	5	0	0	0	1	0	0	0	3	0	0	0	0	0	0	0	0	1	0	1	19	0	0	15	1	3	0	0	0	16	0	2	0	0	19	0	0	0	0	0	2	5	0	0	0	0	0	6	2	0
OTU 102	23	4	4	0	1	0	15	1	5	0	2	0	0	0	82	0	0	1	12	15	0	1	3	0	5	16	0	31	3	8	0	0	0	0	4	1	0	3	0	0	0	17	0	0	38	1	6	1	0	1
OTU 103	89	12	11	30	13	8	25	4	3	0	5	10	10	73	6	3	11	97	82	28	136	34	35	15	5	4	77	42	21	8	10	16	0	4	45	25	0	9	17	35	2	7	34	25	0	26	0	18	12	75
OTU 104	83	66	49	4	8	25	73	22	33	40	2	28	23	84	35	83	34	113	28	19	143	78	4	79	19	42	8	67	142	18	3	59	36	19	16	32	4	23	43	39	1	5	38	3	8	23	69	27	19	57
OTU 105	26	0	0	0	0	0	0	5	34	0	0	0	0	1	0	8	0	1	5	22	0	0	0	0	0	57	2	1	1	5	4	0	0	0	0	0	25	0	0	4	0	0	0	0	0	27	0	1	0	0
OTU 106	4	1	8	1	0	0	2	0	39	0	0	35	0	0	1	8	8	1	0	0	26	0	1151	1	0	38	0	29	0	3	0	2	0	0	0	0	10	0	0	0	0	5	13	0	1	8	0	0	0	0
OTU 107	9	1482	4	0	0	6	0	0	30	0	0	0	6	0	41	22	4	3	1	0	9	0	4	0	0	48	1	103	0	36	22	1	0	0	0	0	6	9	22	0	0	8	0	0	8	4	2	377	14	2
OTU 108	5	29	6	23	16	1	130	62	41	13	0	98	0	30	17	10	68	4	6	9	71	72	156	20	32	61	16	0	52	3	67	12	0	1	0	3	4	10	2	0	52	61	16	18	7	5	0	2	0	18
OTU 109	0	0	0	0	0	0	0	0	0	0	5	0	0	0	0	0	0	0	0	0	69	0	0	1	0	0	0	0	0	0	0	42	0	0	0	0	0	0	0	1	0	0	2	0	0	0	0	0	0	0
OTU 110	43	138	2	12	6	3	0	1	45	8	12	314	7	19	113	40	32	19	0	0	2	266	141	2	47	40	145	3	1	89	56	3	2	7	7	1	21	9	9	30	0	8	22	89	38	0	35	30	2	38
OTU 111	24	0	5	0	14	0	0	10	0	32	11	1	0	1	0	0	0	0	205	0	9	3	14	1	0	0	0	2	30	0	2	3	0	19	0	550	0	0	0	0	28	0	0	0	0	9	0	0	255	10
OTU 112	0	6	16	0	69	9	50	0	0	0	1	0	4	68	62	75	0	4	7	9	19	0	0	0	6	0	41	3	10	1	0	0	27	1	0	0	0	1	10	8	99	1	9	108	32	3	43	4	0	0
OTU 113	2	0	10	1	0	0	3	0	0	0	0	35	0	0	0	45	0	6	0	0	0	70	0	0	2	0	1	0	0	0	0	3	0	0	2	0	0	0	0	2	0	1	0	0	1	0	0	0	0	0
OTU 114	61	21	52	4	21	42	12	5	25	7	96	3	46	9	24	154	2	28	51	74	99	67	78	18	14	15	16	52	21	4	28	177	10	0	19	47	8	161	86	16	199	112	16	78	12	182	7	99	41	101
OTU 115	41	190	83	62	36	27	137	137	61	187	52	107	21	25	21	297	59	10	188	60	62	172	200	153	38	31	14	213	64	171	34	63	62	44	14	33	158	13	42	154	55	60	33	45	13	29	186	119	16	103
OTU 116	9	337	3	9	12	785	24	62	56	37	29	30	747	172	58	32	15	20	302	41	0	57	1	25	15	105	52	14	2	3	5	90	5	8	618	44	24	583	1522	17	5	4	7	52	8	1167	64	50	21	16
OTU 117	57	0	2	19	0	2	13	15	0	7	72	23	0	3	1	5	20	126	12	122	4	126	82	784	6	3	7	15	11	15	33	25	133	40	3	5	15	291	4	13	118	26	3	10	929	27	18	90	1	40
OTU 118	0	0	0	0	0	1	3	0	13	0	0	35	0	16	2	0	0	25	15	0	0	0	1	9	6	29	0	0	370	0	4	0	30	0	0	0	6	0	2	0	22	2	0	0	0	0	0	0	12	34
OTU 119	0	4	35	91	47	0	70	21	90	2	56	24	1	42	99	75	104	21	1277	1	43	22	9	18	33	179	49	74	4	41	133	8	21	41	11	36	64	10	3	132	168	70	63	129	70	6	3	1	75	121
OTU 120	2	10	68	5	30	0	53	0	0	4	15	18	0	25	26	18	24	0	6	9	12	0	94	0	1	9	2	8	61	0	0	5	0	11	1	68	0	1	0	0	25	0	0	13	4	2	0	0	38	0
OTU 121	0	1	2	0	35	18	11	23	0	0	0	22	20	13	217	28	0	13	0	69	135	17	260	127	9	2	126	13	139	18	46	0	3	32	36	0	0	2	40	1	19	2	7	80	90	77	77	17	17	11
OTU 122	111	11	38	77	11	22	28	215	976	0	5	0	20	21	137	135	118	29	3	74	117	176	3	114	76	2262	98	29	10	19	145	5	65	53	9	29	54	1	37	145	44	12	54	51	75	50	38	20	12	50
OTU 123	160	180	113	55	58	93	90	241	85	55	81	140	97	118	143	200	133	44	121	80	212	121	102	105	61	145	72	99	176	231	81	29	197	23	353	91	50	83	185	75	174	571	13	79	74	99	90	211	3749	147
OTU 124	0	0	1	1386	0	3	0	9	0	1	47	41	3	153	21	215	7	14	6	19	6	0	0	0	4	3	0	1	0	10	8	36	0	2	0	9	17	1	4	0	20	1	0	2	0	3	65	0	17	0
OTU 125	52	110	211	64	14	98	389	70	133	38	171	177	133	190	109	177	182	309	96	111	239	77	176	85	57	176	48	48	69	150	158	102	37	50	245	35	52	43	231	58	74	24	138	59	57	87	55	261	51	4
OTU 126	0	1	0	14	0	5	0	0	0	0	0	0	2	0	0	1	0	4	0	2	0	0	3	17	0	1	0	1	0	0	0	0	0	0	8	0	1	10	5	52	61	0	0	0	0	26	0	0	0	4
OTU 127	2	71	0	3	48	2	48	1	0	23	2	3	0	40	92	1	22	11	14	38	2	5	146	1	0	9	130	172	138	18	18	9	1	14	2	13	3	10	6	0	39	4	5	54	31	28	1	180	32	1
OTU 128	74	52	53	275	1299	4233	33	165	31	449	87	2007	6	715	55	122	602	69	14	104	209	94	225	124	712	33	71	68	121	329	562	73	997	3176	22	29	46	184	20	204	186	109	831	246	54	334	8	323	8	155
OTU 129	0	4	0	0	0	24	2	0	0	10	0	0	20	0	0	0	0	0	0	0	0	0	0	1	1	0	0	0	0	0	15	10	0	0	93	9	17	0	54	111	0	2	0	0	2	1	0	0	74	0
OTU 130	0	6	1444	4	18	1	53	40	0	32	0	30	6	23	45	0	4	2	3	38	10	20	562	9	1	2	14	49	0	0	0	20	0	0	4	0	4	22	13	0	16	412	5	30	22	6	24	103	0	4
OTU 131	1	7	0	47	1	2	0	152	0	7	50	11	1	56	12	5	0	0	75	39	1	73	2	0	8	16	2	8	1	0	2844	43	46	2	1	56	0	8	3	78	34	2	1458	12	3	42	31	9	75	55
OTU 132	12	0	14	4	2	0	2	8	0	0	0	0	3	84	13	21	5	53	20	0	4	33	2	31	25	22	55	2349	0	0	2	0	2	21	2	0	0	0	6	46	2	6	11	11	19	12	41	0	3	0
OTU 133	483	26	0	0	0	1	0	0	0	0	0	0	1	24	0	0	0	20	0	0	0	60	0	44	0	1	0	3	0	4	10	0	0	0	0	3	49	1	2	0	0	14	0	0	1	18	1	0	0	0
OTU 134	10	95	10	1	27	41	12	372	50	1	0	40	27	153	76	8	2	52	1	13	3	102	73	5	24	46	28	2	51	0	21	37	20	7	23	92	1	0	70	0	26	0	7	28	47	2	95	8	9	118
OTU 135	45	10	11	2	9	75	4	111	2	70	7	52	65	0	25	4	12	48	64	86	87	7	48	71	10	3	0	11	23	3	15	5	1	1	38	29	26	4	124	205	124	1	6	30	6	54	30	120	39	62
OTU 136	1	20	4	1	3	0	8	1	0	96	6	0	5	24	2	0	0	34	69	248	1	22	0	0	2	18	19	134	36	62	0	1	189	0	4	134	24	3	6	1	487	0	0	1	1	2	1	126	52	4
OTU 137	0	45	31	0	7	0	19	2	0	0	196	0	0	65	0	4	0	10	1	0	41	0	4	19	0	2	12	20	0	1	0	0	34	14	29	1	0	0	0	0	5	0	0	2	0	14	0	5	10	0
OTU 138	3	0	8	5	29	0	0	1	1	5	0	30	1	0	0	25	5	0	6	0	51	0	12	7	27	1	43	25	0	9	26	10	0	22	2	1	0	0	0	1	62	0	3	80	0	35	9	23	1	0
OTU 139	47	46	235	1	6	29	194	124	3	3	41	35	45	61	88	15	22	28	17	30	207	73	10	155	59	14	2526	75	103	11	13	59	5	8	20	25	4	75	79	2492	10	3414	28	9	56	336	16	129	4	26
OTU 140	367	143	54	3	24	11	52	106	10	179	248	44	10	83	156	68	73	228	100	32	164	45	35	60	211	63	11	191	101	69	124	311	31	22	42	218	62	47	28	8	32	162	19	54	81	13	41	303	70	60
OTU 141	0	0	0	0	0	0	0	1	1	0	0	0	0	0	14	0	0	1	0	0	5	0	0	0	0	0	0	0	0	0	0	0	0	0	0	0	0	0	0	0	0	0	0	4	3	0	0	0	0	0
OTU 142	0	0	0	0	1	0	0	0	0	0	0	0	0	0	0	0	0	0	14	0	60	0	0	1	0	0	0	0	0	0	4	0	0	0	0	2	0	0	0	0	0	0	0	0	1	6	2	0	0	0
OTU 143	3	1	2	1	0	0	89	116	0	22	0	0	0	0	5	0	0	5	11	25	1	0	2	8	4	1	0	2	17	45	0	13	1	0	23	0	0	0	0	3	0	11	0	0	5	6	0	0	0	0
OTU 144	0	0	1	0	0	0	0	1	15	40	6	2	0	0	0	1	0	0	165	1	28	1	0	7	0	13	0	15	1	0	0	0	0	0	0	5	0	8	0	1	1	10	3	0	0	2	0	98	0	0
OTU 145	17	0	34	37	27	169	96	85	26	45	32	47	159	9	15	26	71	497	89	2	46	103	41	39	68	63	49	12	99	19	18	80	13	1	116	53	39	21	366	72	0	535	3	50	16	20	4	18	41	1
OTU 146	0	43	100	195	0	20	6	860	10	727	12	0	17	116	14	22	230	69	3	23	52	0	17	122	233	26	2	55	22	237	194	9	0	186	55	2	1	32	48	2	3	3	72	0	11	5	16	56	3	62
OTU 147	45	4	0	0	0	2	20	0	0	7	5	7	0	36	0	4	9	32	3	10	0	0	85	0	11	0	35	126	6	114	6	4	21	6	2	215	8	2	1	0	0	4	0	20	1	16	1	259	57	45
OTU 148	15	214	2	0	20	8	0	47	0	15	19	92	3	0	1	49	5	10	14	29	42	126	0	0	16	3	0	15	4	31	0	54	113	27	31	87	53	1009	14	34	97	16	13	18	0	1309	5	83	240	16
OTU 149	13	7	11	0	0	3	37	0	217	1	24	1	0	72	9	1	3	0	52	10	0	27	0	126	2	372	0	24	0	13	12	27	17	0	0	4	33	10	3	0	0	0	0	0	0	2	18	25	8	0
OTU 150	0	12	66	1	0	0	12	0	4	36	15	1	0	2	0	3	9	7	0	12	0	17	0	15	0	3	0	1	0	7	7	11	0	1	0	1	2	0	2	1	0	3	10	0	0	0	0	9	0	0
OTU 151	0	0	1	0	7	13	6	50	25	24	17	68	8	1	2	127	0	8	1	0	139	29	23	0	0	8	6	34	0	20	0	70	7	16	5	126	6	0	18	0	15	2	0	6	0	28	97	0	80	8
OTU 152	1	36	10	47	1116	16	6	167	2	43	12	31	17	12	0	25	60	26	64	25	44	120	11	38	166	1	20	4	0	78	117	93	34	69	17	124	1	697	28	2	23	17	102	9	1	130	20	18	31	7
OTU 153	0	0	0	27	5	0	0	6	0	0	0	39	0	0	0	0	60	0	0	0	175	160	0	0	0	0	0	0	0	0	0	0	0	0	0	0	0	0	0	0	0	2	0	0	0	0	0	0	0	0
OTU 154	0	0	0	2	0	0	57	0	0	0	0	0	0	1	20	0	0	25	0	12	0	1	1	0	0	0	0	0	0	1	0	26	64	0	0	0	0	5	0	1	40	0	0	8	2	0	0	0	0	0
OTU 155	2	2	0	2	1	0	0	27	42	3	17	0	0	54	2	2	2	0	63	4	5	0	7	2	13	45	0	64	26	12	56	0	11	1	0	97	0	6	0	14	6	20	13	0	2	27	9	3	33	13
OTU 156	10	105	13	32	31	17	3	70	401	155	47	175	22	840	0	1298	24	97	35	0	108	186	4	3	86	823	15	12	1	87	93	24	35	0	27	454	1	79	34	25	16	38	30	66	2	60	825	22	143	29
OTU 157	88	0	28	1	9	5	5	0	0	423	1	0	4	117	4	0	2	7	33	9	2	14	8	115	31	15	0	0	0	1	20	0	0	23	2	10	1	0	12	0	2	0	12	27	12	0	17	3	4	5
OTU 158	0	0	0	0	0	0	1	0	0	0	0	1	0	0	0	1	0	6	0	0	0	0	0	0	0	0	0	0	28	0	0	0	0	1	0	0	0	0	0	0	0	28	0	2	0	0	0	0	0	0
OTU 159	53	1	0	10	0	8	41	3	8	142	1	26	3	6	1	4	22	34	2	95	18	4	1	2	7	92	18	31	112	45	59	4	13	22	11	2	28	10	15	19	0	9	5	5	0	9	0	8	2	4
OTU 160	109	199	14	30	53	17	1944	34	36	562	13	70	35	21	52	142	87	64	120	16	18	37	42	169	32	116	38	15	90	10	61	63	14	4	14	330	45	21	45	57	60	12	51	49	44	31	41	18	92	5
OTU 161	0	6	0	7	98	3	80	29	13	209	376	64	5	9	429	0	0	3	0	532	121	16	199	4	2	32	400	5	63	1	3	1505	142	10	11	76	59	5	8	266	1600	1	10	206	180	16	4	0	48	409
OTU 162	15	22	34	23	7	5	131	42	28	6	45	14	5	17	39	3	33	192	67	0	7	20	1	52	63	99	7	1	15	7	3	107	13	16	19	73	22	7	19	10	4	21	3	8	8	19	53	7	56	3
OTU 163	0	1	0	4	0	7	0	0	0	0	0	0	10	0	0	1	0	0	138	0	134	0	0	0	0	3	0	0	0	0	0	0	0	0	0	0	0	0	14	0	0	1	0	0	0	1	0	0	0	0
OTU 164	0	0	0	0	0	0	0	0	0	0	0	0	0	0	0	0	0	0	0	2	1	19	0	0	0	12	0	0	31	0	0	0	21	0	1	0	0	0	0	0	0	0	0	3	0	0	0	0	0	0
OTU 165	86	53	15	4	98	0	1	15	10	10	125	1	0	11	5	13	4	64	29	95	164	755	2	2	0	18	0	0	0	0	0	116	75	0	6	57	0	2	0	9	163	2	0	116	9	29	7	11	12	0
OTU 166	0	68	0	0	0	0	0	0	8	0	4	4	0	0	0	0	0	7	0	0	0	17	0	1	0	5	0	0	0	0	0	46	0	0	0	0	0	5	0	11	0	0	0	0	0	0	0	0	0	0
OTU 167	12	19	29	1	8	3	10	29	4	1	20	8	2	16	6	0	7	24	3	5	24	6	123	25	0	7	38	1	32	10	35	1	5	7	23	0	0	0	12	32	2	11	0	13	1	47	17	14	0	0
OTU 168	3	195	1	0	20	0	8	49	68	3	3	21	0	2	1	114	52	0	35	35	29	123	4	103	54	88	7	267	4	0	23	6	63	4	1	36	4	0	1	6	8	841	12	13	1	2	109	127	31	113
OTU 169	0	0	0	0	0	0	0	0	0	0	0	4	0	0	0	0	0	0	0	0	0	0	18	0	1	0	0	0	0	0	0	0	43	0	0	9	3	0	0	0	0	0	0	0	7	0	0	0	0	0
OTU 170	0	0	0	3	0	0	1	0	0	0	0	0	0	0	4	0	0	0	0	3	0	0	0	12	2	0	0	0	0	1	0	0	11	1	0	0	0	0	0	0	50	0	0	0	0	0	0	0	3	0
OTU 171	2	21	18	13	427	4	43	49	0	1	13	35	5	11	0	38	16	38	21	305	19	1	10	23	4	5	0	8	185	1	25	1	112	12	2	28	0	2	5	7	389	9	12	1083	0	28	0	4	5	1
OTU 172	0	3	0	0	0	0	4	0	0	7	42	0	0	0	5	6	0	0	7	0	0	2	0	173	0	2	0	2	0	0	0	87	0	0	0	0	0	0	1	1	17	0	0	0	0	0	22	10	0	0
OTU 173	0	2	2	63	0	2	0	3	38	0	0	0	9	70	0	11	30	13	0	25	0	55	29	2	6	32	0	0	1	0	0	60	6	17	5	118	0	0	6	42	19	1	0	0	0	0	30	17	17	7
OTU 174	0	145	3	4	2	15	286	127	0	445	15	8	18	0	41	60	3	7	14	3	8	36	0	61	6	12	9	0	2	0	3	114	0	4	3	3	2	0	40	1	33	26	0	3	3	0	134	23	2	5
OTU 175	84	4	3	23	11	0	25	0	0	10	0	35	0	29	1	99	0	0	0	2	1	0	3	76	6	1	1	82	0	0	0	2	18	638	9	1	0	0	0	1	8	18	0	40	0	1	0	140	13	42
OTU 176	133	5	893	16	2	138	165	61	53	2	44	58	156	72	189	43	11	35	79	114	31	172	26	83	12	36	160	1	6	22	1	33	74	0	9	22	31	26	258	13	71	28	1	5	123	263	44	52	21	1
OTU 177	3	54	1	1	25	6	2	22	1	0	101	56	4	33	8	1	4	63	56	2	81	14	48	150	13	5	0	1	57	24	63	16	1672	230	44	4	1	14	10	48	22	38	37	39	0	4	4	30	0	19
OTU 178	69	0	29	7	33	2	26	3	2	26	0	0	0	1	16	151	0	2	15	40	13	0	1	13	6	8	23	25	1	2	0	0	18	4	17	4	112	0	6	24	3	0	1	33	10	11	1	2	1	82
OTU 179	138	0	0	29	11	2	0	15	24	5	11	31	0	20	98	28	0	0	67	2	4	64	41	0	29	2	16	2	61	10	41	22	0	0	2	63	43	0	7	94	0	51	1	0	18	6	7	23	52	95
OTU 180	155	132	2	15	80	57	96	166	36	69	16	153	57	105	76	291	21	51	102	38	180	324	47	335	81	55	47	82	78	133	140	16	123	62	89	66	41	47	91	67	19	40	121	99	463	139	332	109	30	108
OTU 181	55	23	0	0	24	0	1	821	2	1	8	33	3868	75	37	1	0	1	0	23	74	1	23	14	7	14	35	13	46	3	59	222	4	25	1	0	17	0	0	5	33	3	61	48	19	3	2	71	3	1
OTU 182	0	0	13	0	0	0	8	0	1	0	0	0	0	0	0	25	0	0	0	14	0	0	0	0	0	3	0	1	0	0	0	0	27	0	3	0	0	0	0	0	2	1	0	16	0	5	0	0	0	0
OTU 183	0	0	5	2	1	53	48	43	0	9	33	142	53	126	56	14	0	58	17	9	81	52	1	36	54	12	15	0	16	0	713	19	5	8	24	88	6	1	93	0	0	1	359	1	31	0	8	4	30	0
OTU 184	7	21	51	0	1	57	15	5	0	0	38	47	71	12	34	32	6	0	0	0	17	159	55	0	23	2	2	1	53	0	5	114	1	1	20	2	15	9	80	0	0	1	1	16	11	13	4	0	2	181
OTU 185	0	26	23	21	58	26	25	60	7	24	33	23	13	18	112	153	92	36	27	4	46	25	18	77	29	4	98	11	22	10	6	163	4	6	69	36	9	12	60	83	32	32	0	197	42	3	1	29	35	5
OTU 186	39	26	17	12	4	0	0	7	0	0	0	53	0	12	0	2	28	3	7	0	7	2	0	3	3	0	0	6	34	88	115	1	0	0	9	0	0	0	0	3	1	0	37	11	0	9	2180	6	1	22
OTU 187	361	12	16	1987	3	7	17	41	43	34	30	136	7	25	136	31	4072	28	309	26	57	1030	13	75	337	70	70	175	3	33	5	76	53	38	8	722	9	33	16	71	18	90	1	12	64	28	22	228	647	35
OTU 188	17	75	11	29	85	60	159	99	223	62	121	266	43	131	297	108	22	62	32	199	40	16	58	66	66	233	121	330	60	93	10	15	120	14	44	138	102	134	108	182	196	74	0	112	117	97	98	291	60	105
OTU 189	355	9	1	0	24	6	10	114	977	87	105	20	15	42	154	95	10	19	67	57	185	10	241	36	82	2	71	61	97	36	10	60	22	58	4	11	95	6	11	39	99	21	10	23	81	42	0	96	2	76
OTU 190	0	5	4	0	20	0	0	0	11	13	0	0	0	0	0	0	0	130	73	0	10	0	0	0	8	26	0	0	0	0	0	0	0	0	0	0	0	0	0	7	0	0	0	11	1	0	29	0	1	0
OTU 191	18	93	2	3001	11	3	7	2	0	1917	10	126	0	49	22	198	88	92	4	26	71	29	4	12	81	8	142	16	262	87	2	9	5	62	4	69	1873	9	4	14	5	54	5	24	10	25	121	75	67	8
OTU 192	102	379	693	23	51	6	25	18	57	69	11	39	1	0	37	231	7	18	35	66	20	86	26	52	1	65	230	74	38	38	1	73	22	22	13	13	9	404	5	3	92	17	0	118	1	1403	14	210	1	91
OTU 193	6	73	6	47	18	225	43	37	30	81	40	3	2	22	10	0	83	41	366	0	133	28	14	0	146	116	16	8	129	137	3	24	0	55	1	178	1	10	0	1	83	2	2	12	6	6	33	4	47	1
OTU 194	26	1	1672	0	0	1	0	0	3	0	1	5	1	1	0	0	0	10	0	0	23	17	2	0	16	1	1	0	115	96	0	13	0	0	58	4	2	22	2	104	25	0	13	0	0	0	1	0	0	0
OTU 195	12	0	9	0	119	6	11	16	18	0	1	310	2	5	561	4	0	0	0	29	0	19	35	36	33	13	222	3	423	34	8	21	0	0	6	23	10	0	8	19	2	24	5	147	342	12	0	0	4	96
OTU 196	4	3	5	0	11	27	5	17	77	0	0	14	18	24	79	0	1	11	1	16	103	0	0	5	1	104	33	14	13	59	126	13	31	12	67	2	7	0	56	30	5	5	135	22	42	15	0	17	14	63
OTU 197	86	114	29	3	36	0	36	89	26	14	57	88	12	83	94	216	1	27	16	206	59	188	353	62	1129	60	22	19	159	95	50	82	109	27	4	67	119	41	5	7	659	38	18	124	54	24	132	25	3	9
OTU 198	0	77	1	0	0	0	0	67	0	2	37	0	0	1	47	0	1	4	13	0	0	8	1	50	1	0	15	15	101	0	0	4	0	13	0	0	3	6	0	60	9	16	0	1	33	0	0	24	16	9
OTU 199	1	26	7	0	5	40	11	29	0	19	3	4	30	9	21	10	2	6	5	35	0	2	13	0	0	8	26	21	17	7	25	1	14	0	36	20	0	2686	71	19	0	24	0	11	8	5	15	0	45	3
OTU 200	19	86	10	8	7	3	14	63	1	10	25	1	2	18	9	21	1	9	41	11	39	18	88	12	4	23	1	8	8	13	22	92	107	1	6	29	224	8	11	66	3	3	18	24	10	40	20	2	34	14
