	Host 1	Host 2	Host 3	Host 4	Host 5	Host 6	Host 7	Host 8	Host 9	Host 10	Host 11	Host 12	Host 13	Host 14	Host 15	Host 16	Host 17	Host 18	Host 19	Host 20	Host 21	Host 22	Host 23	Host 24	Host 25	Host 26	Host 27	Host 28	Host 29	Host 30	Host 31	Host 32	Host 33	Host 34	Host 35	Host 36	Host 37	Host 38	Host 39	Host 40	Host 41	Host 42	Host 43	Host 44	Host 45	Host 46	Host 47	Host 48	Host 49	Host 50	
OTU 1	2	12	0	0	8	6	6	5	0	3	0	1	1	3	0	0	3	1	8	0	32	6	2	20	0	0	0	0	3	0	0	1	2	13	0	4	8	7	2	1	4	0	0	0	15	6	21	3	2	28
OTU 2	0	2	1	1	0	0	0	0	1	2	0	1	0	0	0	1	0	0	0	1	0	6	0	0	0	0	0	9	0	1	0	0	0	0	0	0	0	0	0	0	0	0	2	1	0	0	0	0	0	0
OTU 3	0	0	0	0	1	0	1	0	2	6	0	4	0	0	0	1	0	0	0	0	0	0	0	5	1	0	0	1	1	0	1	0	0	1	1	1	0	0	0	1	0	1	0	0	0	0	0	0	0	0
OTU 4	0	0	0	0	0	0	0	0	0	0	0	0	0	0	0	0	0	0	0	0	0	0	0	0	0	0	0	0	0	0	0	0	0	0	0	0	0	0	0	0	0	0	0	0	0	0	0	0	0	0
OTU 5	28	0	47	1	3	28	4	11	7	0	30	5	12	0	0	3	13	19	25	17	9	26	1	3	0	6	24	0	17	43	9	24	19	10	0	5	0	2	0	82	0	2	0	32	28	8	15	11	1	6
OTU 6	0	3	0	2	0	0	0	0	0	0	0	0	3	0	0	0	1	0	3	1	1	3	0	0	2	1	0	1	1	0	1	4	0	2	5	0	1	0	0	0	2	0	0	1	0	0	0	0	0	1
OTU 7	0	1	5	1	2	4	1	5	4	15	6	3	5	0	0	0	2	0	9	39	1	1	13	4	3	0	1	1	4	1	23	2	10	16	1	0	3	3	0	0	1	1	3	1	0	0	0	16	2	6
OTU 8	7	7	0	1	5	50	0	22	61	5	1	2	5	1	6	0	2	0	4	7	2	4	0	0	2	1	35	5	28	1	3	3	6	0	2	172	42	3	11	0	0	0	3	7	0	32	1	5	1	5
OTU 9	0	8	0	0	0	0	0	0	0	2	2	0	0	0	3	0	4	0	4	3	0	0	0	0	0	0	0	0	0	5	0	0	2	7	0	0	2	9	0	0	0	0	3	0	0	0	0	1	0	0
OTU 10	1	0	0	0	0	2	0	2	0	4	0	1	0	3	0	1	1	0	4	3	0	0	0	0	1	5	0	0	0	0	0	0	0	0	0	0	1	0	0	2	0	31	0	1	0	0	0	1	44	0
OTU 11	3	4	3	1	3	0	0	1	1	0	1	0	1	5	0	0	0	0	1	0	0	0	0	0	3	0	0	0	1	0	3	0	4	1	2	0	0	2	3	0	0	0	4	5	0	0	2	1	0	1
OTU 12	0	1	4	3	0	2	0	0	0	1	1	2	5	2	0	8	3	2	0	0	0	0	0	0	3	0	0	1	4	1	9	0	10	1	0	0	1	0	2	5	0	3	0	0	0	2	0	4	9	0
OTU 13	0	1	0	0	1	0	0	0	0	1	0	0	0	0	0	0	0	0	0	0	0	0	0	0	0	0	1	0	0	0	0	2	0	0	0	0	0	1	0	4	0	0	1	0	0	0	0	0	0	1
OTU 14	2	1	0	0	0	2	0	1	0	0	1	0	0	0	1	0	0	0	0	0	0	0	1	1	0	17	1	1	0	0	0	0	2	0	2	0	0	0	0	0	0	6	9	2	0	0	0	1	3	0
OTU 15	0	0	0	0	0	0	0	0	2	0	0	0	2	0	0	0	0	0	0	0	0	0	0	0	0	0	0	0	0	1	0	0	0	0	0	0	0	0	0	0	0	5	0	0	0	0	0	0	2	0
OTU 16	0	0	0	0	0	0	0	0	0	0	0	0	0	0	0	0	0	0	0	0	0	0	0	0	0	0	0	0	0	2	0	0	0	0	0	0	0	0	0	0	0	0	0	0	0	0	0	1	0	0
OTU 17	0	2	6	0	1	0	1	0	3	0	0	0	3	4	1	1	0	0	0	0	0	2	1	4	0	0	0	6	0	0	0	0	0	0	1	0	0	0	0	0	0	1	1	0	0	0	1	0	10	0
OTU 18	0	5	6	1	0	5	176	6	16	0	1	0	0	0	6	0	0	0	4	10	1	6	3	4	2	0	4	2	6	7	0	0	6	2	1	109	14	0	5	1	0	1	0	7	1	8	1	0	0	4
OTU 19	0	0	0	0	0	0	0	0	0	0	0	0	0	0	0	0	0	0	0	0	0	0	0	0	0	0	0	0	0	0	0	0	0	0	0	0	0	0	0	0	0	0	0	0	0	0	0	0	0	0
OTU 20	9	1	0	3	0	0	1	1	3	6	0	3	0	2	0	0	0	0	0	0	0	3	0	1	0	4	1	1	2	0	4	0	2	0	1	0	11	0	0	0	0	0	45	1	2	5	0	2	0	0
OTU 21	2	2	10	1	1	4	6	2	2	1	19	1	1	0	6	0	0	0	0	0	1	0	0	9	3	0	0	0	1	0	1	0	25	0	1	4	0	0	0	1	2	0	0	2	0	1	1	1	1	0
OTU 22	3	3	0	3	0	0	8	1	0	0	0	2	6	0	0	0	1	0	1	1	2	0	0	7	1	1	0	3	0	0	0	1	0	0	2	3	1	2	0	0	0	2	3	1	0	0	0	0	1	1
OTU 23	0	0	0	0	7	6	0	0	0	0	0	1	0	0	1	0	0	0	0	0	0	2	1	0	0	0	0	0	0	0	0	0	0	0	3	4	0	0	0	0	3	0	0	0	0	0	0	0	4	0
OTU 24	0	1	0	2	1	0	0	0	0	1	3	2	0	1	3	3	0	1	1	0	4	0	0	0	1	2	0	0	0	0	1	0	0	0	1	0	0	3	5	0	0	1	0	0	0	1	0	1	0	0
OTU 25	0	1	0	0	0	0	0	0	0	0	0	0	9	0	0	0	0	0	1	0	0	1	0	0	0	0	0	0	0	0	0	0	0	0	0	0	0	0	0	0	0	0	0	0	0	0	0	0	0	0
OTU 26	0	0	0	0	0	0	0	0	0	0	0	0	0	0	0	0	2	0	0	0	0	2	0	0	0	0	0	0	0	0	1	0	0	0	0	0	0	0	0	0	0	0	0	3	0	0	0	0	0	0
OTU 27	0	0	0	0	0	0	0	0	0	0	0	0	0	0	0	0	0	0	0	0	0	0	0	0	0	0	0	0	0	0	0	0	0	0	0	0	0	0	0	0	0	0	0	0	0	0	0	0	0	0
OTU 28	3	3	1	5	6	0	0	1	0	0	0	0	1	14	1	13	3	1	2	2	0	2	0	3	94	1	0	2	1	2	7	1	1	2	2	0	0	0	0	1	0	0	5	0	1	0	0	4	3	0
OTU 29	11	0	0	0	2	4	2	0	1	1	0	0	2	1	1	0	1	0	1	0	0	1	1	0	0	2	0	2	0	1	0	1	2	0	3	0	0	2	2	0	2	0	0	3	0	0	4	6	0	0
OTU 30	0	0	0	0	0	0	0	0	0	0	0	0	0	0	5	0	0	0	0	0	0	0	0	0	0	0	0	0	0	0	0	0	0	0	0	0	0	0	0	0	0	0	0	0	0	0	0	0	0	0
OTU 31	7	2	10	0	0	0	0	0	2	8	2	3	2	2	0	0	12	0	20	3	1	0	12	0	0	4	1	0	1	0	4	0	1	0	0	0	2	0	3	4	11	0	0	2	0	1	1	8	1	0
OTU 32	3	0	3	102	0	0	0	0	0	2	2	0	0	5	1	1	4	1	5	2	1	0	0	0	3	0	0	2	3	0	1	4	0	1	0	0	0	4	8	2	6	0	32	2	0	0	2	2	1	1
OTU 33	0	0	0	0	0	0	0	0	0	0	0	0	0	0	0	0	1	0	0	0	0	0	0	0	0	0	0	0	0	0	0	0	0	0	0	0	0	0	0	0	0	0	0	0	0	0	0	0	0	0
OTU 34	34	1	0	0	0	2	0	0	0	0	0	0	2	5	1	1	4	0	0	1	2	1	1	0	0	0	0	0	20	1	1	0	1	0	0	0	1	1	1	6	10	1	1	2	2	0	0	0	1	3
OTU 35	1	0	0	2	1	0	0	0	4	10	28	5	0	1	0	0	0	1	4	0	1	0	2	0	6	1	4	1	0	0	1	2	3	0	3	0	0	1	3	0	0	2	0	0	0	1	2	1	8	2
OTU 36	1	0	3	0	0	2	0	0	26	1	0	1	0	0	0	0	1	2	2	1	2	0	3	0	0	0	20	3	0	1	0	0	0	0	0	0	0	2	1	0	0	1	0	5	1	15	1	1	0	0
OTU 37	0	0	0	0	0	0	0	0	0	0	1	0	0	0	0	0	0	0	1	0	0	0	0	0	0	0	0	0	0	0	0	2	0	0	0	0	0	2	0	0	0	1	0	0	0	0	2	0	0	0
OTU 38	4	1	4	0	21	1	0	0	0	8	0	2	0	0	0	0	2	4	0	0	0	0	0	0	6	1	0	4	0	0	0	39	0	0	3	0	0	1	1	1	7	2	5	0	0	2	0	2	6	0
OTU 39	1	0	1	0	0	0	0	1	0	0	0	0	0	0	1	0	0	0	0	0	0	1	0	0	0	0	0	0	0	0	0	0	0	0	0	0	0	0	0	0	0	3	0	0	0	0	0	2	3	0
OTU 40	0	3	2	0	2	7	0	2	0	0	5	0	7	6	1	9	0	0	0	0	0	1	2	0	0	3	0	0	5	8	9	0	5	0	0	0	2	1	0	4	0	0	2	0	0	0	0	4	1	0
OTU 41	1	0	0	0	1	0	0	0	2	0	0	0	1	5	1	3	0	3	0	1	1	0	1	0	0	0	1	0	0	0	3	0	0	0	2	0	1	0	7	0	0	0	0	1	1	1	0	0	2	0
OTU 42	2	0	17	0	1	0	0	0	0	0	0	0	0	1	27	0	0	0	0	1	1	0	3	1	0	0	0	0	0	1	0	0	0	0	0	0	0	0	0	0	0	0	0	0	0	0	1	0	0	0
OTU 43	0	0	0	0	0	0	0	0	0	0	0	0	0	0	0	0	0	0	0	0	0	0	0	0	0	0	1	0	0	0	0	0	0	0	0	0	0	0	0	0	0	0	0	0	0	0	0	0	0	0
OTU 44	1	3	0	0	1	0	1	0	0	1	1	1	0	0	0	0	0	0	1	0	0	4	0	0	0	0	0	0	0	0	0	0	0	0	0	0	0	0	0	0	0	0	3	0	2	0	0	0	0	0
OTU 45	4	1	2	0	2	0	3	0	0	0	0	0	0	0	13	3	0	0	4	0	1	0	1	5	3	0	0	0	0	3	1	1	1	3	21	5	2	0	1	0	3	1	1	0	0	0	0	0	0	0
OTU 46	1	2	1	1	4	0	2	0	0	3	0	2	0	0	8	0	0	3	1	0	1	1	1	10	9	8	0	14	0	4	11	0	0	1	1	1	1	0	0	1	2	1	2	0	0	0	0	2	2	0
OTU 47	0	0	0	0	0	0	0	0	0	0	0	0	0	2	0	13	0	0	0	1	0	2	0	0	0	0	0	0	0	0	0	0	0	0	2	0	0	0	0	0	0	0	0	0	0	0	0	0	0	0
OTU 48	1	4	0	1	0	0	4	0	1	2	0	1	0	1	4	5	0	1	0	1	0	10	5	4	0	1	0	6	2	1	0	2	1	1	4	1	0	0	1	0	0	4	4	1	1	0	0	1	2	3
OTU 49	4	3	0	0	3	0	0	0	0	0	2	0	0	6	0	2	0	0	0	2	1	1	0	0	0	0	0	0	0	2	0	0	1	0	0	0	0	1	5	30	0	0	0	0	0	1	0	0	3	3
OTU 50	3	0	0	0	1	0	1	1	0	0	2	0	2	1	14	2	1	15	7	3	0	1	2	8	2	0	2	65	0	4	6	15	1	14	1	2	5	0	0	0	0	0	1	0	0	1	0	5	6	0
OTU 51	3	0	0	1	0	0	1	0	0	0	0	0	0	0	1	0	0	0	3	0	1	5	0	1	2	0	1	0	3	0	0	0	0	0	8	0	0	0	1	0	0	0	1	0	0	0	14	0	3	0
OTU 52	1	8	1	3	6	1	2	0	0	0	8	0	2	2	0	2	8	3	7	0	91	4	0	3	1	1	1	6	0	15	3	1	7	1	5	0	1	89	2	4	8	0	14	3	0	2	1	3	0	4
OTU 53	0	0	0	0	0	0	0	0	0	0	0	0	0	0	0	0	0	0	0	1	0	0	0	0	0	0	0	0	0	0	0	0	0	0	0	0	0	0	1	1	0	1	0	0	0	0	0	0	1	0
OTU 54	1	2	1	0	39	2	0	0	8	3	0	3	3	18	0	13	5	1	10	0	1	11	4	1	5	2	5	2	1	0	1	4	5	0	0	1	6	1	0	3	7	1	3	12	2	0	0	4	3	0
OTU 55	0	0	0	0	0	0	0	0	0	0	0	0	0	0	0	0	0	0	0	0	0	0	0	0	0	0	0	0	0	0	0	0	0	0	0	0	0	0	0	0	0	0	0	0	0	0	0	0	0	0
OTU 56	1	0	0	0	1	0	0	0	0	0	0	0	0	0	2	0	2	1	0	3	0	0	0	0	0	2	1	0	1	0	0	0	2	0	2	0	0	0	0	1	2	0	2	0	0	0	0	0	0	0
OTU 57	18	0	0	0	1	10	4	2	0	4	2	3	8	35	0	9	6	1	6	5	2	26	8	6	5	2	0	2	0	0	30	1	2	2	14	1	8	1	0	0	4	2	2	5	2	0	2	6	2	1
OTU 58	0	0	0	0	0	0	0	2	0	0	4	0	0	0	0	0	1	0	0	1	0	3	0	2	1	0	0	1	1	3	0	0	0	0	2	1	2	1	0	37	0	2	0	0	0	0	0	0	0	3
OTU 59	0	5	0	7	4	0	2	0	0	0	3	0	0	1	0	1	0	0	0	0	1	2	6	11	1	3	1	8	0	1	0	0	0	3	0	2	0	7	4	0	4	0	0	0	1	0	3	0	1	9
OTU 60	2	0	7	3	0	2	0	0	0	2	2	0	3	6	1	1	1	2	0	0	0	1	0	0	5	72	0	11	0	7	1	1	1	0	1	0	4	2	0	5	0	2	0	1	0	2	2	53	0	3
OTU 61	0	6	0	1	0	3	1	115	0	4	1	49	0	3	9	1	0	0	3	2	6	18	3	2	3	0	0	3	0	4	1	1	0	1	15	0	0	22	10	0	1	0	8	1	3	1	1	0	1	3
OTU 62	1	1	0	1	3	0	0	0	2	0	0	0	0	1	0	0	0	11	0	0	0	0	0	0	0	0	0	0	1	2	2	28	0	0	0	0	0	0	0	0	1	0	0	1	0	0	0	3	0	0
OTU 63	0	1	0	0	0	0	1	0	0	0	0	0	0	0	1	0	1	0	0	0	1	2	0	3	0	0	0	0	0	2	1	0	0	2	0	2	2	3	0	0	0	1	2	0	0	0	0	1	10	0
OTU 64	4	10	0	3	0	1	0	0	0	2	0	3	12	0	8	5	12	1	7	3	2	7	1	3	0	7	0	11	0	4	2	0	2	2	0	1	3	1	1	31	0	2	8	1	0	0	1	6	1	2
OTU 65	0	0	0	0	0	0	0	0	0	0	0	0	1	0	0	0	0	0	0	0	0	3	0	0	0	0	0	0	0	0	0	0	0	0	0	0	0	0	0	0	0	0	0	0	0	0	0	1	0	0
OTU 66	4	0	0	0	1	0	0	0	0	0	0	0	4	1	0	1	1	2	4	0	4	0	1	0	6	3	1	0	0	0	2	0	1	2	0	0	0	1	6	3	5	0	0	0	1	0	0	0	0	1
OTU 67	1	3	0	0	7	2	0	2	4	0	0	0	0	12	0	8	1	0	0	2	0	9	8	0	0	0	0	1	4	3	0	0	2	0	0	1	1	0	0	0	0	153	0	4	0	0	4	0	2	0
OTU 68	0	0	0	0	2	4	0	1	1	1	2	0	0	0	0	0	0	0	0	2	0	4	7	0	0	0	0	1	0	0	1	0	0	0	1	0	0	0	0	0	0	0	0	1	0	0	0	0	0	0
OTU 69	2	1	2	1	2	1	1	0	1	0	35	1	1	0	2	1	21	1	8	3	0	2	0	6	4	0	7	0	1	0	4	11	1	2	2	1	0	52	1	6	0	2	0	0	0	3	0	0	3	0
OTU 70	0	0	0	0	4	2	0	0	0	0	0	0	0	5	7	0	0	1	0	0	1	0	0	0	9	0	0	0	0	1	3	0	0	0	1	0	0	3	2	0	0	1	0	0	0	0	0	0	0	0
OTU 71	1	0	0	0	0	2	2	0	0	0	0	3	0	1	0	0	1	5	1	0	1	0	0	11	0	1	0	5	0	0	4	1	0	2	0	2	0	0	0	0	0	0	6	2	0	0	0	0	0	0
OTU 72	5	0	0	1	0	3	3	1	0	4	2	3	2	8	1	2	1	0	0	0	5	2	0	2	0	0	0	2	0	1	1	1	0	6	5	2	0	0	3	1	45	5	3	0	3	0	4	0	2	6
OTU 73	0	3	0	0	0	2	6	0	2	0	1	0	2	0	0	1	2	0	0	2	0	0	0	1	0	0	2	0	1	1	4	0	0	2	3	1	0	0	3	0	1	0	0	0	0	166	0	0	0	0
OTU 74	0	8	2	1	0	1	1	0	0	1	1	0	2	4	4	0	0	0	4	4	0	0	3	0	4	0	0	0	0	3	1	0	2	2	0	0	159	0	1	0	1	0	0	7	0	0	0	1	0	0
OTU 75	1	2	3	0	5	0	0	0	0	1	0	3	3	1	0	0	1	1	3	2	0	7	0	0	4	3	0	0	88	2	10	0	0	0	0	0	4	0	0	2	1	0	1	0	0	3	0	0	1	0
OTU 76	0	0	3	0	0	0	0	0	1	0	4	0	0	0	0	0	0	0	4	3	0	0	2	0	0	3	0	0	0	0	1	0	8	1	0	0	0	0	0	0	0	1	0	0	0	1	0	7	0	0
OTU 77	4	3	11	1	0	0	3	0	0	3	0	1	2	1	10	1	0	17	1	1	0	0	1	5	0	0	0	0	1	0	2	10	4	3	0	0	1	0	0	0	2	1	1	1	1	1	0	0	0	0
OTU 78	1	0	0	1	5	2	40	0	2	0	0	0	58	2	0	2	1	0	1	0	0	0	2	58	2	2	0	0	0	0	0	0	1	27	0	18	3	0	0	0	0	1	0	0	1	0	95	7	2	1
OTU 79	10	4	4	6	87	23	22	10	6	3	7	0	43	4	3	8	9	0	9	7	3	10	4	42	8	3	142	2	8	3	4	5	31	11	2	7	2	1	5	10	9	3	5	3	2	0	4	0	4	5
OTU 80	2	4	3	0	2	7	0	6	0	0	0	0	2	4	3	5	2	1	1	0	1	0	0	2	9	3	0	0	0	2	0	3	3	0	0	1	2	0	0	1	7	1	2	2	0	0	8	0	4	0
OTU 81	4	4	0	1	2	1	0	1	3	2	0	0	0	54	4	30	7	5	0	0	0	4	0	1	19	1	0	7	0	4	2	2	1	2	10	0	3	5	3	8	0	2	3	1	0	0	0	1	1	0
OTU 82	0	0	0	0	3	14	0	3	5	3	2	2	0	2	2	6	0	0	0	0	0	1	1	2	0	0	1	0	8	3	0	0	15	1	1	0	5	2	0	0	0	9	4	0	0	3	1	0	2	0
OTU 83	0	0	0	0	0	0	0	0	0	1	0	0	0	0	0	0	0	0	1	4	0	0	0	0	0	0	0	0	0	0	0	0	0	4	1	0	0	0	0	0	0	0	0	0	0	0	0	0	0	0
OTU 84	0	8	0	0	0	0	2	0	0	0	1	0	0	0	0	3	0	2	0	0	0	1	0	0	0	1	0	0	0	2	2	0	1	1	1	0	0	0	0	0	3	0	1	0	0	0	0	0	0	1
OTU 85	0	0	0	1	0	3	0	0	3	1	0	0	2	0	0	0	0	2	0	0	0	0	0	0	0	0	0	0	1	6	0	0	0	0	3	0	0	0	0	0	0	2	0	0	0	0	0	0	1	0
OTU 86	0	0	0	0	0	0	0	0	0	0	0	0	0	2	0	0	0	0	0	0	0	0	0	0	1	0	0	0	1	0	0	0	0	0	0	0	0	0	0	0	0	0	0	1	0	0	0	0	0	0
OTU 87	1	0	0	0	0	0	0	0	0	0	1	0	0	1	0	2	0	0	0	0	0	0	0	0	0	0	0	0	1	0	0	1	0	0	2	1	3	0	0	0	0	0	0	2	0	0	0	1	0	0
OTU 88	0	0	0	0	0	0	0	0	0	0	0	0	0	0	0	0	0	0	0	0	0	0	0	0	0	0	0	0	0	0	0	0	0	0	0	0	0	0	0	0	0	0	0	0	0	0	0	0	0	0
OTU 89	1	0	0	0	1	0	0	0	1	1	40	0	1	1	0	0	0	4	0	0	0	0	1	0	0	0	1	0	0	12	0	0	0	0	1	0	3	2	9	1	0	1	0	0	0	0	4	0	0	0
OTU 90	0	0	0	0	0	0	0	0	0	0	0	0	5	0	0	0	0	0	0	0	0	0	0	0	0	0	0	0	0	0	0	0	0	0	0	0	0	0	0	0	0	0	0	0	0	0	0	0	0	0
OTU 91	0	0	0	0	0	0	0	0	1	0	0	0	0	0	0	0	0	0	0	0	0	0	0	0	0	1	1	0	0	0	0	0	0	0	1	0	0	0	0	0	0	1	0	0	0	0	0	0	0	0
OTU 92	0	0	0	0	0	0	12	0	1	1	0	0	1	1	0	0	0	0	0	0	0	0	0	2	0	0	0	0	0	0	0	0	0	1	0	8	0	0	0	0	0	0	0	0	0	0	0	1	9	0
OTU 93	0	0	0	0	0	0	0	0	0	0	0	0	0	0	0	0	0	3	0	0	0	0	2	0	0	0	0	0	0	2	0	0	0	0	0	0	0	0	0	1	0	0	0	0	0	0	0	4	0	0
OTU 94	17	0	3	0	0	1	0	0	0	24	1	8	1	1	0	0	0	6	10	6	0	4	1	0	2	10	0	1	0	1	13	0	2	0	4	0	0	5	0	0	6	1	0	2	0	1	0	10	3	1
OTU 95	0	0	1	0	0	0	0	0	0	0	1	0	0	0	0	0	1	1	2	2	0	0	0	0	2	0	0	0	0	0	0	1	2	1	0	0	0	0	0	0	1	0	1	2	0	0	0	0	0	0
OTU 96	0	0	0	0	0	0	0	0	0	0	0	0	0	0	0	0	0	0	0	0	0	0	0	0	0	0	0	0	0	0	0	0	0	0	0	0	4	0	0	0	0	0	0	0	0	0	0	2	0	0
OTU 97	0	1	0	1	17	5	0	0	77	0	0	0	0	0	0	0	1	0	0	0	0	2	2	0	0	0	35	0	0	0	0	0	0	0	0	0	0	0	0	0	2	0	0	4	0	27	0	4	0	0
OTU 98	1	0	0	2	1	0	0	0	0	0	2	0	0	1	0	0	0	2	1	0	29	4	6	0	0	0	0	0	0	1	0	0	0	0	1	0	0	0	7	0	0	0	1	0	0	0	0	0	0	5
OTU 99	1	0	0	0	0	0	1	0	0	2	0	0	0	3	0	2	2	3	6	2	2	5	0	2	0	0	0	0	2	1	1	1	3	1	0	0	0	6	1	1	0	0	0	1	1	2	2	1	1	0
OTU 100	4	10	2	0	0	1	0	76	0	1	0	0	1	0	1	0	5	0	0	0	0	0	0	0	0	0	0	1	1	4	2	0	0	0	1	0	3	2	0	0	0	0	4	0	1	0	0	0	0	1
OTU 101	0	0	2	2	0	0	0	0	0	0	0	0	0	0	0	1	0	0	0	0	0	0	0	0	0	0	0	0	0	0	0	0	0	0	0	0	0	0	0	0	0	0	0	0	0	0	0	0	0	0
OTU 102	0	0	0	0	0	0	0	0	1	0	0	0	1	0	1	0	0	0	0	0	0	0	1	0	1	0	0	0	0	2	1	2	0	0	0	0	2	0	0	0	0	0	0	5	0	0	0	0	0	0
OTU 103	0	14	3	0	0	2	3	0	0	0	0	0	3	2	0	0	0	0	0	0	0	0	0	7	0	0	0	15	0	0	1	44	0	4	0	0	0	0	0	0	0	1	3	1	0	0	1	0	0	0
OTU 104	0	0	6	2	0	1	2	0	1	4	0	2	3	2	1	117	6	4	1	2	0	1	1	0	0	1	1	6	0	2	5	0	3	1	3	1	1	0	3	5	1	2	1	0	2	1	2	2	1	5
OTU 105	0	0	0	0	0	0	1	0	1	0	0	0	0	0	2	1	2	0	0	1	0	0	0	1	0	0	3	0	0	0	0	0	0	0	1	1	0	0	0	0	0	0	0	3	0	0	0	4	0	2
OTU 106	0	8	0	0	0	0	0	0	0	0	0	0	0	0	0	0	0	0	0	0	0	2	0	0	0	0	0	0	1	0	0	61	0	0	0	0	0	0	0	0	0	0	2	3	0	0	0	3	0	0
OTU 107	0	0	0	79	0	1	0	0	1	45	0	29	0	0	0	0	0	0	0	0	6	0	2	2	0	0	0	2	0	0	1	0	0	2	0	0	0	1	3	0	0	0	1	0	3	0	5	1	0	12
OTU 108	0	1	4	0	0	0	0	1	0	3	0	0	0	1	0	3	0	0	0	0	0	8	2	0	1	4	0	0	1	0	0	0	1	0	1	0	1	24	0	0	2	0	1	0	0	0	43	0	1	0
OTU 109	0	0	0	0	0	0	0	0	0	0	0	0	0	0	0	0	0	0	0	0	0	0	0	0	0	0	0	0	0	0	0	0	0	0	0	0	0	0	0	0	0	0	0	0	0	0	0	0	0	1
OTU 110	1	4	1	1	4	0	0	0	0	2	0	3	7	3	1	3	1	3	0	0	1	0	0	0	1	0	1	1	0	58	2	2	0	1	1	0	1	0	0	1	0	1	4	3	0	0	0	3	2	2
OTU 111	0	0	0	0	0	0	0	0	0	0	0	0	0	0	0	0	0	0	0	0	0	1	1	1	0	0	0	0	0	0	0	0	0	0	0	0	0	0	0	0	0	2	0	0	0	0	0	2	2	0
OTU 112	0	0	1	0	0	1	1	0	0	0	0	0	1	0	0	0	0	1	2	0	0	2	2	1	0	0	0	0	0	4	0	0	0	1	0	1	0	0	1	0	0	0	0	0	1	0	1	0	0	0
OTU 113	0	0	0	0	0	0	0	0	0	0	0	0	0	0	0	0	0	0	0	0	0	0	1	0	0	0	0	2	0	0	0	0	0	0	0	0	0	0	0	0	0	0	0	0	0	0	0	1	0	0
OTU 114	1	1	0	0	1	2	0	0	1	0	4	0	4	1	0	0	0	1	0	0	1	0	0	4	2	0	9	4	1	0	6	3	0	1	7	0	0	0	3	0	4	6	0	0	0	0	1	2	2	5
OTU 115	3	11	6	0	0	1	1	1	1	4	13	2	1	3	3	1	2	2	0	7	2	5	1	0	3	1	0	4	0	5	1	4	3	0	0	0	3	0	1	0	1	0	0	2	0	0	0	0	1	3
OTU 116	0	11	4	5	0	3	0	1	0	10	2	6	11	0	0	0	0	2	3	3	1	3	5	0	1	1	0	6	0	4	14	4	3	0	3	2	5	1	3	0	80	0	0	0	1	0	1	11	1	4
OTU 117	1	1	3	0	0	0	1	0	1	2	1	0	1	0	5	13	0	0	1	0	1	0	0	1	0	0	0	0	0	2	7	0	0	0	1	0	1	0	0	0	0	0	1	2	1	1	2	0	0	1
OTU 118	0	0	0	0	0	2	0	0	0	0	0	1	1	0	7	0	2	0	0	0	0	0	0	0	0	0	0	0	0	0	0	0	0	0	0	0	0	2	0	0	0	0	0	0	0	0	0	0	7	0
OTU 119	2	1	1	0	0	2	3	0	0	14	0	12	1	0	9	4	0	63	2	7	0	0	1	0	1	0	0	5	0	3	4	1	2	1	1	0	0	1	13	0	2	0	1	2	2	0	0	3	0	2
OTU 120	0	7	0	0	1	0	0	0	0	10	1	5	3	0	0	0	1	0	0	0	0	0	0	0	0	0	0	0	0	0	0	0	0	0	0	0	0	0	0	0	0	1	3	0	0	0	0	2	0	0
OTU 121	0	0	0	1	0	1	0	2	1	0	1	4	0	0	0	0	4	0	1	0	0	0	0	4	0	2	2	0	0	1	2	0	0	1	4	0	3	0	0	3	1	0	1	1	0	1	0	4	0	0
OTU 122	1	0	1	0	2	0	1	2	0	8	6	0	1	0	0	0	0	0	0	0	0	0	0	1	1	2	0	6	0	18	3	0	0	0	0	1	0	0	1	3	4	1	0	0	0	0	0	0	0	1
OTU 123	4	50	4	1	53	7	4	4	1	11	3	1	12	7	1	5	4	10	5	7	1	14	130	4	0	9	1	14	1	19	9	7	11	3	5	1	1	7	2	2	11	3	26	5	1	6	2	4	11	4
OTU 124	0	0	0	0	0	0	0	0	0	0	0	0	0	0	0	0	0	0	2	0	0	0	0	0	0	3	1	0	0	1	1	2	0	0	0	0	0	0	1	0	0	0	0	0	1	0	0	1	0	0
OTU 125	5	14	6	40	5	5	1	1	0	3	12	3	4	7	2	11	1	1	9	1	8	6	37	6	23	1	0	2	0	15	7	1	10	6	5	1	1	2	49	0	53	5	5	3	8	0	13	4	5	28
OTU 126	0	0	0	0	0	0	0	0	0	0	2	0	0	0	0	0	0	0	1	1	1	0	0	0	0	0	0	0	0	2	0	1	0	0	0	0	0	0	1	0	0	0	0	0	0	0	0	0	0	0
OTU 127	4	0	0	2	1	1	0	2	4	1	0	3	2	0	0	0	1	0	1	0	0	0	6	0	0	1	1	0	0	0	0	2	5	0	0	0	0	6	1	0	0	0	1	0	0	0	0	0	1	0
OTU 128	8	5	14	2	1	9	2	3	7	10	5	8	1	9	4	1	2	2	8	19	59	9	7	2	2	17	2	10	2	4	17	3	5	3	7	1	2	1	7	1	14	1	1	2	108	7	66	41	5	127
OTU 129	0	0	0	0	0	0	0	0	3	0	0	0	0	0	0	0	0	0	0	0	0	0	0	0	0	0	0	0	0	0	0	0	2	0	0	0	0	0	2	0	0	0	0	0	0	1	0	0	0	0
OTU 130	0	0	2	0	0	1	1	1	1	2	6	1	0	0	0	0	28	12	0	2	0	0	2	2	0	113	0	3	0	1	6	6	0	0	6	0	0	20	2	24	0	0	8	1	0	1	2	0	0	2
OTU 131	0	0	3	0	2	0	1	4	4	5	2	5	1	0	1	1	0	0	0	1	2	0	0	4	1	0	0	0	1	0	0	0	0	1	0	3	0	0	1	1	0	2	0	0	24	1	0	3	4	1
OTU 132	0	0	0	0	1	0	0	2	1	0	0	0	3	1	0	6	0	1	0	1	0	1	0	0	0	2	0	0	0	1	0	0	1	1	80	0	0	8	0	0	0	1	2	0	0	1	0	0	0	0
OTU 133	0	0	0	0	0	0	0	0	0	0	0	0	0	4	0	0	0	0	1	0	0	0	0	0	0	0	0	0	0	0	0	0	0	0	0	0	0	0	0	0	0	0	0	0	0	0	0	0	3	0
OTU 134	0	0	0	1	1	0	0	0	1	5	0	0	2	3	6	0	0	0	5	1	1	7	0	1	0	0	1	0	0	3	0	0	3	0	4	0	1	0	0	1	0	0	0	0	0	0	3	1	0	0
OTU 135	0	3	0	0	3	0	0	0	0	3	1	2	0	4	1	1	1	0	0	1	0	2	1	0	1	0	0	2	0	1	16	0	0	0	1	1	0	0	1	0	0	1	0	0	0	0	0	1	0	0
OTU 136	0	1	0	2	0	0	0	0	0	0	0	0	0	1	0	1	1	0	1	0	0	0	0	1	0	1	0	0	0	1	0	0	0	0	1	0	0	1	0	0	0	0	0	2	2	0	0	3	0	0
OTU 137	0	0	1	0	0	0	1	0	0	0	0	0	4	0	0	1	0	0	0	1	57	0	0	0	0	0	0	0	0	6	0	0	0	0	0	0	0	0	0	0	1	0	0	0	0	0	0	2	0	1
OTU 138	0	0	0	1	0	4	2	0	0	0	12	0	1	1	1	0	0	0	0	1	0	1	0	2	7	0	0	1	1	0	0	0	0	2	0	0	0	0	0	0	0	0	1	1	0	1	0	0	0	0
OTU 139	9	3	1	1	0	1	0	2	3	3	0	4	1	0	0	3	3	0	2	3	2	0	0	3	1	0	4	1	0	1	2	0	3	0	1	0	1	0	6	3	0	22	6	0	77	1	0	1	45	6
OTU 140	23	9	11	2	2	7	1	3	12	8	20	6	8	12	4	8	2	1	76	17	0	0	0	2	3	6	5	6	2	4	32	0	24	2	0	1	13	1	1	2	0	2	1	9	1	4	3	2	3	0
OTU 141	0	0	0	0	0	0	0	0	0	0	0	0	2	0	0	0	0	0	1	0	0	0	0	0	4	0	0	0	0	0	0	0	0	0	0	0	0	0	0	0	0	0	0	0	0	0	0	0	0	0
OTU 142	0	0	0	0	0	0	0	0	0	0	0	0	0	0	0	0	0	0	0	0	0	0	15	0	0	0	0	0	0	0	0	0	0	0	0	0	0	0	0	0	0	0	0	0	0	0	0	0	0	0
OTU 143	0	0	0	0	0	0	0	0	0	0	0	0	0	0	1	0	0	0	0	0	0	0	0	0	0	0	0	0	1	0	0	0	8	0	0	0	0	0	0	0	0	0	0	0	0	0	0	0	0	0
OTU 144	0	7	3	0	0	0	1	0	0	1	46	0	0	0	0	0	0	0	0	0	0	0	0	0	0	0	0	0	0	0	0	0	0	0	0	0	0	0	0	0	0	0	2	0	0	0	0	0	1	1
OTU 145	2	0	0	0	0	3	1	2	1	0	4	0	5	4	149	1	23	0	0	0	0	2	0	1	7	0	5	0	0	1	0	1	0	0	1	0	0	0	0	3	1	1	0	8	0	0	0	1	0	0
OTU 146	0	3	0	0	5	0	0	0	1	0	0	0	1	9	2	0	0	0	0	4	0	0	2	0	0	1	1	2	0	1	0	0	1	2	2	0	1	7	0	0	0	2	1	3	0	1	0	0	0	0
OTU 147	0	12	0	1	0	0	0	0	3	3	0	0	0	0	0	0	3	0	0	0	0	0	0	0	3	0	0	0	0	0	2	0	1	0	0	0	0	0	1	0	0	0	0	0	0	0	0	1	0	0
OTU 148	3	0	0	1	1	0	0	0	0	0	0	117	2	2	3	2	41	1	4	1	0	3	0	3	3	0	0	0	0	3	2	1	0	1	0	1	0	1	0	31	0	1	1	0	0	0	0	3	2	1
OTU 149	0	0	1	0	0	0	0	0	0	0	1	0	0	0	0	0	0	1	2	0	0	0	0	0	0	4	0	0	1	0	0	8	0	0	1	0	0	0	2	3	0	1	1	0	0	0	0	1	1	0
OTU 150	0	0	1	0	0	0	0	0	0	0	0	0	0	1	0	0	0	1	0	0	2	2	0	0	0	0	0	1	0	0	0	2	0	0	0	0	0	1	1	0	0	0	0	0	0	1	0	0	0	1
OTU 151	0	3	0	0	0	0	0	0	0	1	0	0	0	1	0	2	0	0	0	0	1	0	2	0	1	0	0	3	0	0	0	1	0	0	4	0	0	0	1	0	0	2	0	0	0	0	0	0	0	0
OTU 152	5	8	4	0	3	3	0	0	1	2	0	1	1	8	0	9	3	1	0	3	0	3	3	0	1	0	0	0	0	0	1	0	1	2	0	0	0	1	1	0	0	2	1	0	0	0	0	0	0	0
OTU 153	0	0	0	0	0	0	0	0	0	0	0	0	0	0	0	0	0	0	0	0	0	0	0	0	0	0	0	0	0	0	0	0	0	0	0	0	0	0	0	0	0	0	0	0	0	0	0	0	0	0
OTU 154	0	0	0	0	0	0	0	0	0	3	0	1	4	2	0	0	0	0	0	0	0	0	3	0	0	0	0	0	0	2	0	0	0	0	0	0	0	1	0	0	0	3	0	0	2	0	1	0	3	0
OTU 155	0	2	2	5	0	15	0	16	1	0	0	0	0	9	1	0	0	0	0	0	0	0	1	0	0	0	0	5	7	1	5	0	0	0	1	1	0	3	6	0	2	0	3	0	0	0	0	0	0	0
OTU 156	7	5	6	2	7	2	2	1	0	4	8	2	1	3	1	6	5	2	1	63	1	5	2	5	0	2	0	1	0	1	0	3	2	3	2	1	2	1	2	2	7	0	0	1	0	2	1	9	2	0
OTU 157	0	0	0	0	0	0	2	0	0	0	0	0	0	0	2	0	0	4	0	2	0	1	0	10	0	0	1	13	0	0	3	2	0	2	0	0	0	0	0	0	0	6	0	0	0	0	0	0	18	0
OTU 158	2	0	0	0	0	0	0	0	0	0	0	0	0	0	0	0	0	0	0	0	0	0	0	0	0	0	0	0	0	0	0	0	0	0	0	0	0	0	0	0	0	0	0	0	0	1	0	0	2	0
OTU 159	1	10	0	1	1	0	0	0	4	1	1	1	2	0	0	0	0	0	3	4	0	0	9	0	4	1	0	1	0	0	0	0	2	0	7	0	0	0	0	0	0	0	11	0	0	1	0	3	0	0
OTU 160	13	1	5	21	2	0	5	0	7	1	0	1	10	1	7	5	3	2	6	40	4	3	2	6	0	2	0	12	1	7	11	2	1	3	7	6	3	6	34	1	1	2	1	28	4	7	6	14	3	9
OTU 161	1	2	88	0	4	0	0	2	0	0	0	0	0	0	0	0	0	3	2	1	0	6	0	2	4	1	1	0	0	3	0	0	0	0	2	0	0	0	0	0	3	0	1	1	0	0	0	0	0	2
OTU 162	0	0	5	0	1	0	26	0	2	2	0	2	0	2	1	0	0	1	1	1	0	0	0	34	2	3	0	10	0	0	0	5	1	22	0	7	2	3	0	0	1	1	2	31	1	0	1	1	0	0
OTU 163	0	0	0	0	0	0	0	0	0	0	0	0	0	0	0	0	0	0	0	0	0	0	0	0	0	0	0	0	0	5	0	0	0	0	0	0	0	0	0	0	0	0	0	0	0	0	0	0	0	0
OTU 164	0	1	0	0	0	0	0	0	0	0	0	0	0	0	0	0	1	0	0	0	0	0	0	0	0	0	0	0	0	0	0	0	0	0	0	0	0	0	0	0	0	1	0	0	0	0	0	0	0	0
OTU 165	2	0	21	1	0	0	1	3	0	0	18	1	1	0	0	0	0	0	0	1	1	0	0	0	0	0	0	4	1	0	1	0	54	0	1	0	0	1	5	0	0	1	0	0	0	0	1	0	0	0
OTU 166	0	0	0	0	0	0	0	0	0	0	0	0	0	0	0	0	0	0	0	0	0	0	0	0	0	0	0	0	0	0	0	0	0	0	0	0	0	0	0	0	0	0	0	0	0	0	0	0	0	0
OTU 167	0	0	0	0	0	3	0	1	0	2	0	0	0	0	2	0	0	0	0	0	0	5	0	0	0	2	0	0	0	0	0	1	2	1	1	2	0	0	0	0	1	1	2	0	0	0	0	0	0	0
OTU 168	1	2	0	0	0	0	0	2	0	3	0	1	4	0	3	1	3	3	0	0	0	0	1	0	3	4	0	0	0	0	5	0	0	0	1	0	0	0	5	0	2	0	0	0	1	0	4	1	0	3
OTU 169	0	0	0	0	0	0	0	0	0	0	0	0	0	1	0	0	0	0	0	0	0	0	0	0	0	0	0	0	0	0	0	0	0	0	0	0	0	0	0	0	0	0	0	0	0	0	0	0	0	0
OTU 170	0	0	0	0	0	0	0	0	0	0	0	0	0	0	0	1	0	0	0	0	0	0	0	0	0	0	0	0	0	0	0	0	0	0	0	0	0	0	0	0	0	0	0	0	0	0	0	0	0	0
OTU 171	0	4	1	1	0	1	0	4	0	1	0	0	9	1	1	0	0	4	7	0	0	0	0	0	0	0	1	1	0	0	0	1	0	0	0	0	1	0	2	0	0	0	3	0	1	0	0	0	0	1
OTU 172	0	0	0	0	0	0	0	0	1	0	0	0	0	0	0	0	0	0	0	0	0	0	0	0	0	0	2	0	7	0	0	0	0	0	0	0	0	0	0	0	0	1	0	0	0	0	0	0	0	0
OTU 173	0	0	0	0	0	0	0	0	0	2	0	0	4	4	4	1	0	3	0	0	0	0	0	0	2	0	13	5	0	0	0	2	0	0	0	0	0	0	0	0	3	0	1	0	0	0	0	0	0	1
OTU 174	0	0	0	0	0	2	0	1	2	0	0	14	5	1	0	0	3	0	0	0	0	3	0	0	0	0	1	5	0	0	0	0	0	0	0	0	0	2	0	0	2	0	1	0	0	1	0	0	1	0
OTU 175	0	0	0	0	4	1	0	0	0	1	0	1	3	2	0	2	0	0	1	0	0	11	0	1	0	0	2	0	0	0	0	1	0	0	0	0	3	0	0	0	0	0	6	0	0	0	0	0	1	0
OTU 176	3	0	1	0	0	0	0	0	1	0	0	0	5	3	0	1	0	1	2	0	1	1	0	4	3	0	0	0	1	0	2	0	8	0	0	0	2	0	0	2	0	16	6	0	0	2	0	2	9	0
OTU 177	1	0	0	0	0	0	0	0	4	2	0	0	0	0	2	1	0	0	0	2	0	1	0	0	1	0	4	3	1	2	2	0	0	0	1	0	0	0	0	0	4	2	0	22	0	1	1	1	2	0
OTU 178	0	1	0	4	1	0	0	0	0	4	0	3	0	2	0	0	0	3	0	1	0	0	1	0	3	0	0	1	91	0	2	1	0	0	0	0	1	0	0	0	0	0	0	0	1	0	1	12	0	0
OTU 179	1	7	0	0	0	0	0	0	0	0	0	0	0	0	0	0	1	108	0	18	0	0	0	0	0	12	0	0	0	3	0	34	0	0	0	0	0	0	0	0	0	0	0	0	0	0	4	3	7	0
OTU 180	9	6	1	33	17	1	1	0	50	2	0	0	5	3	0	3	5	8	3	2	25	13	1	0	6	4	27	6	2	6	1	2	2	166	22	1	3	3	94	0	3	10	3	11	8	22	31	3	3	52
OTU 181	0	0	0	3	0	2	1	0	0	0	0	0	0	0	0	0	1	3	0	1	0	0	0	4	10	0	0	13	1	0	2	4	1	0	3	1	0	3	0	5	0	5	0	14	0	0	0	0	10	0
OTU 182	0	0	0	0	0	1	0	0	0	0	0	0	0	0	0	0	0	0	0	0	0	0	0	0	0	0	0	0	0	0	0	0	0	0	0	0	0	0	0	0	0	0	0	0	0	0	0	1	0	0
OTU 183	0	1	0	0	0	2	1	0	0	1	0	0	0	0	0	0	6	0	0	0	1	0	4	2	1	4	0	0	1	0	0	0	9	1	1	1	2	0	0	0	0	1	22	1	0	4	0	2	0	2
OTU 184	0	1	0	0	1	0	0	1	0	0	0	0	1	0	0	0	0	0	0	2	0	2	2	0	6	1	0	0	0	4	0	0	0	2	1	0	0	1	0	0	0	0	0	0	1	0	0	4	1	0
OTU 185	1	0	2	0	3	7	0	9	15	3	0	2	2	6	0	2	0	5	0	0	2	3	0	1	0	1	11	1	5	0	0	0	2	0	4	1	17	0	3	0	1	0	42	0	12	5	0	1	3	3
OTU 186	15	0	1	0	0	0	0	0	0	0	1	0	0	0	0	0	0	0	0	0	0	0	1	0	0	0	0	0	0	0	0	0	0	0	0	0	0	0	6	1	1	1	0	0	0	0	0	0	0	0
OTU 187	2	1	4	4	0	2	3	2	2	2	1	1	8	1	0	0	3	8	2	0	0	8	0	1	3	2	1	1	0	1	4	2	2	0	2	0	1	6	0	2	0	1	2	6	0	3	0	4	8	1
OTU 188	1	2	0	3	0	7	2	1	0	2	0	5	0	1	1	0	0	0	3	1	2	4	13	1	6	8	3	0	4	3	2	5	3	0	4	1	0	0	0	0	16	2	0	0	0	0	0	25	4	1
OTU 189	7	5	2	1	0	1	2	1	1	48	1	25	0	2	0	1	7	0	1	1	0	4	4	2	5	1	0	1	2	0	1	0	5	3	1	1	0	3	0	1	4	0	1	0	0	1	0	3	2	1
OTU 190	0	0	0	0	0	0	0	0	0	0	0	0	0	0	0	0	0	0	0	0	0	0	0	0	0	0	0	0	0	0	3	1	0	0	0	0	0	1	0	0	0	0	0	0	58	0	0	0	0	0
OTU 191	16	2	2	0	0	0	1	0	0	0	0	0	1	5	1	2	0	2	3	1	0	29	3	1	9	0	1	6	0	0	4	0	0	0	1	0	0	1	0	0	0	5	6	0	1	0	1	0	10	0
OTU 192	1	2	3	4	1	0	1	0	1	3	0	0	7	2	3	1	61	3	3	10	0	0	1	2	5	0	0	2	0	6	5	0	4	0	35	0	4	2	0	30	3	14	0	0	6	23	0	0	20	0
OTU 193	0	0	0	1	0	75	0	43	0	0	0	0	1	2	0	2	5	0	0	1	0	0	6	0	0	0	0	1	37	2	0	0	2	0	0	0	0	23	1	1	3	0	0	0	0	1	2	0	5	0
OTU 194	0	0	0	1	0	0	0	0	0	0	0	0	0	1	0	0	1	0	0	1	0	1	0	1	1	0	0	5	0	1	1	0	1	0	0	0	1	0	0	3	0	1	0	0	0	0	0	0	2	0
OTU 195	4	1	0	0	0	0	1	0	0	1	0	0	0	3	0	1	0	0	0	6	0	0	3	2	0	0	0	0	1	2	1	1	0	1	0	0	2	0	0	0	0	0	5	0	0	0	0	1	0	0
OTU 196	4	0	0	0	1	0	0	0	0	2	0	0	1	0	0	0	0	0	2	2	0	0	2	0	4	1	0	0	0	0	2	0	3	0	1	0	1	0	0	0	1	1	2	0	0	0	0	0	0	0
OTU 197	1	5	2	3	0	0	0	0	0	3	0	2	6	11	1	0	10	0	27	0	0	2	0	5	10	1	0	1	1	6	2	0	5	0	2	0	1	2	9	7	3	0	3	7	0	1	0	1	1	1
OTU 198	0	0	0	0	0	3	0	0	0	0	0	1	1	0	0	0	0	0	0	0	0	2	0	2	0	3	0	0	1	0	0	0	0	4	0	0	0	0	0	0	1	0	0	5	0	0	0	0	0	0
OTU 199	0	0	2	0	0	0	0	0	0	0	0	0	1	0	1	0	1	0	0	0	0	0	0	0	6	0	0	0	0	1	1	0	0	0	4	0	0	0	4	0	0	0	0	1	0	0	0	0	0	0
OTU 200	5	0	0	2	0	0	2	1	2	0	0	0	1	0	1	1	0	0	0	0	1	0	0	6	0	0	0	12	0	1	0	1	3	2	4	1	0	0	0	0	0	0	0	79	0	0	0	0	9	2
