	Host 1	Host 2	Host 3	Host 4	Host 5	Host 6	Host 7	Host 8	Host 9	Host 10	Host 11	Host 12	Host 13	Host 14	Host 15	Host 16	Host 17	Host 18	Host 19	Host 20	Host 21	Host 22	Host 23	Host 24	Host 25	Host 26	Host 27	Host 28	Host 29	Host 30	Host 31	Host 32	Host 33	Host 34	Host 35	Host 36	Host 37	Host 38	Host 39	Host 40	Host 41	Host 42	Host 43	Host 44	Host 45	Host 46	Host 47	Host 48	Host 49	Host 50	
OTU 1	56	2	2	36	21	35	9	82	34	134	140	16	7	160	17	0	17	166	480	187	36	83	31	33	59	71	19	18	67	20	66	206	119	20	461	72	260	103	65	57	46	97	100	128	139	47	107	106	29	114
OTU 2	4	3	3	0	82	0	42	0	0	0	27	22	14	0	0	40	23	2	1	8	0	3	6	4	0	3	1	4	0	4	17	17	30	5	15	9	1	6	20	2	3	5	0	0	0	0	0	0	2	0
OTU 3	27	16	386	1	0	0	72	23	348	23	0	0	0	14	0	0	7	2	107	0	6	1	0	1	0	10	50	1	0	0	3	4	3	0	0	88	15	43	0	534	1	0	0	5	0	0	5	0	0	7
OTU 4	0	0	0	0	0	0	0	0	0	0	0	0	0	0	0	0	0	0	0	0	0	0	0	0	0	0	0	0	0	0	0	0	0	0	0	0	0	0	0	0	0	0	0	0	0	0	0	0	0	0
OTU 5	322	723	375	168	9	387	1071	483	323	423	652	259	683	401	966	2	595	57	469	271	220	1331	189	968	178	1246	4	252	792	101	244	424	494	8	983	366	815	258	697	636	63	236	303	264	373	138	206	1415	232	327
OTU 6	41	31	1	0	105	0	80	67	4	0	4	4	24	15	34	8	15	32	147	28	11	38	15	9	644	1	244	28	0	2	0	215	0	19	2	2	27	8	0	6	24	2	0	9	18	1445	418	6	45	20
OTU 7	36	19	24	176	32	0	181	5	3	103	299	31	269	2	130	83	219	161	33	47	27	162	4	6	99	74	26	28	4	39	5	36	144	5	86	23	18	146	32	19	11	466	93	68	155	88	229	471	20	16
OTU 8	10	14	53	52	70	1	34	57	11	29	95	40	121	121	74	207	35	227	639	118	61	47	71	58	49	84	84	30	3	34	38	46	51	136	161	41	206	422	2	1	39	35	98	96	32	70	241	99	2	134
OTU 9	2	8	57	103	0	0	64	12	2	3	40	45	2	0	4	9	23	3	0	0	0	0	5	17	27	23	5	2	0	25	0	6	23	2	14	0	1	12	21	0	1	2	0	46	17	0	0	1	6	0
OTU 10	0	47	29	0	1	2	0	0	25	11	4	1	0	0	71	0	16	90	4	8	1	0	18	1	0	2	53	34	2	34	25	0	91	0	25	1	0	0	30	42	6	0	1	6	0	0	24	0	10	0
OTU 11	0	21	2	22	22	11	95	6	1	23	68	54	17	10	35	64	42	2	37	81	18	78	6	13	2	0	6	54	20	35	52	35	2	72	8	2	25	45	45	25	25	40	60	3	77	18	87	2	13	13
OTU 12	24	37	6	6	193	0	30	19	26	55	13	26	24	19	44	78	188	7	42	0	16	15	59	50	52	1	2	5	0	5	4	25	31	49	23	124	32	0	1	25	69	35	18	92	45	82	10	26	137	3
OTU 13	2	6	1	0	0	0	0	0	1	0	0	0	10	0	0	0	0	0	9	0	0	0	0	0	0	17	6	0	0	10	0	0	3	4	0	0	0	0	0	0	0	0	0	0	0	0	0	1	18	1
OTU 14	16	24	99	13	10	0	6	0	24	20	42	36	0	0	0	3	0	28	4	1	3	101	25	0	1	33	3	0	0	1	29	15	24	4	1	13	1	10	0	193	27	3	1	67	137	16	114	2	6	3
OTU 15	0	0	4	0	0	0	0	0	0	0	0	0	2	0	0	0	0	0	0	10	0	0	27	0	0	0	17	0	0	0	0	12	0	0	0	0	0	0	0	4	36	0	0	28	0	0	21	2	0	0
OTU 16	0	0	1	0	0	0	0	0	0	0	0	0	0	0	0	0	0	0	0	0	0	0	0	0	0	0	0	0	0	0	0	0	0	0	0	0	0	0	0	0	0	29	0	0	0	0	0	0	0	0
OTU 17	2	9	31	2	5	4	162	51	20	21	45	8	6	3	0	0	58	34	0	3	8	39	13	0	0	60	31	12	14	1	17	15	58	15	2	0	1	20	2	17	18	1	31	9	90	13	24	7	10	1
OTU 18	9	1	112	5	96	1	93	28	59	40	162	18	19	26	115	9	22	46	44	10	14	2	3	1	64	0	17	9	1	26	46	1	21	119	18	14	40	0	7	151	0	124	32	2	0	20	69	3	54	33
OTU 19	0	0	0	0	0	0	0	0	0	0	0	0	0	0	0	0	0	0	0	0	0	0	0	0	0	0	0	0	0	0	0	0	0	3	0	0	0	0	0	0	0	0	0	0	0	0	0	0	0	0
OTU 20	24	20	17	642	48	1	14	3	5	57	28	7	126	10	19	13	7	30	38	19	29	4	29	5	5	1	134	57	6	11	25	7	74	183	55	12	30	21	52	26	0	140	9	27	13	5	48	17	0	2
OTU 21	20	49	110	8	489	0	15	37	31	37	8	6	1	0	5	56	0	28	5	38	4	23	0	32	0	42	15	6	0	5	117	1	23	9	27	7	2	62	15	25	56	5	54	21	36	2	28	43	4	0
OTU 22	5	16	9	15	170	1485	1	43	1875	15	25	70	5	99	22	1	42	29	8	73	21	20	750	26	1	6	1	0	2970	29	2	17	15	66	36	2	187	10	19	9	1434	5	2	12	49	21	91	25	6	99
OTU 23	2	36	20	38	17	5	195	0	8	0	4	2	3	0	112	132	15	1	5	0	9	0	28	14	98	3	63	11	13	294	46	59	240	34	46	14	1	4	77	53	25	88	0	0	0	32	121	27	7	0
OTU 24	0	24	11	0	74	0	66	0	0	0	21	0	0	0	11	16	6	0	13	0	2	3	4	0	9	0	99	15	0	0	20	20	0	0	39	0	0	1	0	0	0	44	1	15	14	1	9	0	21	1
OTU 25	0	0	4	0	0	0	0	0	0	0	0	0	0	0	0	0	0	5	1	0	0	0	0	0	13	0	36	0	0	0	0	0	30	0	0	0	0	0	0	0	0	0	2	0	0	47	0	0	2	0
OTU 26	1	17	1	3	5	0	13	0	0	0	0	0	0	2	0	36	0	0	0	7	0	10	0	8	11	0	0	11	0	66	11	0	2	0	0	8	0	0	0	0	1	28	0	192	3	18	2	0	0	0
OTU 27	3	0	0	0	0	0	0	0	2	0	0	0	0	0	0	0	0	0	12	0	0	0	0	2	0	0	0	0	1	0	0	0	0	0	0	0	0	0	0	0	0	0	7	0	0	0	0	19	1	0
OTU 28	74	9	0	29	30	39	115	8	0	49	3	0	27	8	18	53	32	93	12	25	19	2	15	12	8	13	18	17	78	13	26	2	45	1	9	1	8	12	87	11	4	68	7	8	15	41	60	0	265	98
OTU 29	50	28	16	72	14	10	9	3	1	125	265	35	8	0	19	73	99	91	7	34	14	22	25	21	32	41	0	13	15	50	115	2	5	2	33	16	4	0	29	162	99	93	11	191	9	4	269	6	2	0
OTU 30	0	0	0	0	0	0	8	0	0	0	0	0	0	0	0	0	0	0	0	0	0	0	0	0	0	0	0	30	0	0	0	0	0	0	0	0	0	0	0	0	0	1	0	0	0	0	0	0	0	0
OTU 31	2	0	21	0	5	0	0	1	0	1	0	2	12	33	0	0	61	0	4	5	0	1	7	5	1	0	0	26	0	45	7	62	18	0	0	73	0	4	0	0	5	144	15	0	0	0	1	0	9	0
OTU 32	24	2	1	26	23	439	102	7	27	277	550	14	119	6	48	5	388	35	27	44	4	5	27	21	16	1	2	16	875	263	11	33	38	183	43	31	26	39	1998	14	31	275	179	648	39	2	76	21	157	15
OTU 33	627	0	0	1	88	0	0	0	0	0	0	1	0	0	1	1	0	0	0	0	1	0	0	14	0	0	0	0	0	0	0	2	0	0	0	7	0	1	0	0	0	29	0	0	2	0	2	0	1	0
OTU 34	2	56	18	37	104	127	47	11	5	5	19	1	3	1545	99	104	9	65	55	5	3	16	17	13	73	324	57	46	242	42	18	53	24	1056	33	368	3300	50	549	15	4	52	59	16	63	180	37	7	56	1590
OTU 35	2	49	30	14	72	10	0	40	2	41	103	887	14	6	82	43	36	378	16	68	75	130	20	3	0	0	55	66	25	20	3	0	127	54	4	11	12	14	39	35	3	24	2473	9	187	0	114	2	19	1
OTU 36	9	0	8	8	6	1	16	40	8	7	28	0	16	40	39	2	0	55	26	1	30	8	159	5	57	6	3	1	8	4	1	1	58	1663	10	9	46	0	2	6	8	24	2	1	27	21	54	8	11	12
OTU 37	0	2	2	8	7	0	2	0	3	8	0	0	1	0	0	3	0	0	0	0	5	0	585	0	0	0	0	9	0	0	2	0	0	0	0	0	2	2	0	0	100	0	3	0	0	0	2	0	0	1
OTU 38	4	2	30	11	23	190	64	5	3	233	102	43	27	0	5	135	50	43	4	17	9	2	0	0	1	3	36	2	359	9	3	72	15	182	123	0	2	0	791	2	25	80	74	83	9	0	3	2	20	6
OTU 39	0	10	0	0	0	0	4	0	1	0	20	0	10	0	0	7	11	12	0	0	0	2	16	0	0	0	68	27	0	0	49	0	0	0	0	56	1	0	0	29	0	88	0	30	18	0	9	0	1	0
OTU 40	4	745	17	63	90	5	56	2	12	57	99	41	1	2	4	205	79	7	0	15	0	613	181	308	5	35	99	121	13	28	40	19	3	192	2	0	17	52	0	1	131	222	76	15	4	7	2	2	0	13
OTU 41	0	58	68	112	413	6	39	2	19	0	0	67	12	7	23	8	2	7	3	32	5	24	48	19	15	21	1	1	10	67	12	30	3	3	34	15	1	7	46	8	2	22	3	0	24	57	247	3	8	9
OTU 42	0	17	0	17	0	0	7	0	0	0	0	0	0	0	85	1	1	1	1	0	7	11	11	1	1	0	85	27	2	0	75	0	0	35	35	17	0	0	1	3	0	0	0	3	2	6	12	0	0	1
OTU 43	0	3	0	0	1	3	0	0	0	0	0	0	2	0	0	0	0	0	0	0	0	0	0	0	0	0	0	0	14	0	0	0	0	0	0	0	0	0	3	0	0	0	0	0	0	0	0	0	0	0
OTU 44	0	0	0	2	44	0	13	0	15	4	2	5	0	0	6	206	1	0	0	0	0	6	2	4	15	9	0	0	0	0	0	1	6	7	2	0	0	0	0	2	9	4	9	14	0	3	0	0	0	1
OTU 45	397	8	1	24	2	5	5	62	4	1	3	11	227	1	10	148	12	11	21	43	6	5	4	0	16	3	127	56	5	87	78	467	15	6	1	9	14	20	0	2	0	126	12	6	0	12	164	2	315	0
OTU 46	40	87	3	96	26	2	34	12	7	19	79	90	10	3	27	4	30	1	30	33	59	55	44	10	1	25	15	14	8	27	11	4	31	40	12	12	4	29	15	39	74	205	4	9	112	40	208	35	2	0
OTU 47	0	0	0	23	0	0	0	0	14	1	0	0	0	0	13	0	1	0	0	13	1	0	0	0	1	0	0	0	0	1	0	9	0	21	0	10	2	0	0	4	7	4	0	0	1	41	0	1	4	2
OTU 48	79	59	19	52	128	6	25	7	62	30	3	46	3	9	46	51	165	30	35	13	1	6	52	13	18	41	78	65	6	56	2	38	28	1	6	34	16	13	11	394	6	14	16	5	5	19	54	1	116	0
OTU 49	23	7	72	1	0	12	12	13	0	0	3	8	0	14	0	0	0	64	64	2	10	5	5	9	0	3	70	3	19	12	17	19	0	0	0	10	27	4	19	18	57	20	0	121	69	8	0	1	1	27
OTU 50	28	266	135	2	3	45	1494	50	18	14	35	5	27	27	70	0	113	94	50	177	30	165	6	164	207	23	203	19	82	4	343	3	217	18	311	62	34	368	108	16	72	218	9	4	24	247	11	29	76	9
OTU 51	0	2	0	26	6	16	83	34	4	27	1	263	17	2	5	8	21	1	1	0	5	6	24	2	14	18	29	7	34	12	5	11	132	88	3	152	0	0	77	11	55	84	836	2	7	0	5	3	36	1
OTU 52	25	59	36	41	354	144	130	155	65	13	123	39	87	42	13	21	97	128	187	121	60	26	34	20	15	94	137	132	308	26	175	58	120	15	50	3	85	39	447	35	58	72	109	34	48	67	352	30	19	83
OTU 53	29	0	0	0	0	0	0	0	0	0	0	0	0	0	0	0	0	0	0	0	0	2	0	0	0	15	2	0	0	0	0	0	12	5	0	0	0	0	0	0	0	0	0	0	19	0	0	0	0	0
OTU 54	30	4	44	60	52	83	282	54	5	667	919	446	316	17	39	101	378	157	86	81	54	2	47	6	12	3	10	17	171	905	58	92	32	107	21	40	35	66	312	156	211	32	508	89	19	33	14	130	42	21
OTU 55	0	0	0	0	0	0	0	0	0	0	0	0	0	0	0	0	0	0	2	0	0	0	0	0	0	0	0	0	0	0	0	0	0	0	0	0	0	0	0	0	0	0	0	0	0	0	0	0	0	0
OTU 56	9	0	0	47	90	0	31	14	0	0	0	0	6	17	39	12	1788	5	56	1	24	0	49	1	0	22	0	4	3	860	57	18	0	0	7	0	26	0	4	78	178	0	0	963	0	1	2	0	11	10
OTU 57	92	29	412	191	62	22	80	108	99	19	116	44	22	5	55	339	70	354	50	3	36	88	10	25	87	494	105	106	48	34	62	22	46	64	43	472	16	2877	49	49	3	40	16	13	300	18	155	31	41	24
OTU 58	31	8	16	28	10	0	0	0	1	786	52	8	112	4	31	70	21	35	6	27	5	2	4	28	3	0	4	24	0	1	3132	10	80	0	1	0	14	1519	0	10	61	0	84	22	13	42	179	1295	27	14
OTU 59	2	0	14	0	41	6	402	15	0	1	15	1	0	16	1	6	7	19	46	8	7	2	23	0	7	7	0	22	8	65	12	0	8	19	18	0	36	5	19	55	76	0	16	9	0	20	39	4	0	14
OTU 60	292	1	1	21	17	16	59	25	25	1	29	29	140	14	100	26	39	67	7	27	18	1	0	0	3	0	26	13	15	9	38	104	38	27	11	40	61	5	24	38	9	73	61	115	19	1	283	260	56	20
OTU 61	27	0	14	23	82	2	44	519	73	20	26	3	429	218	209	19	62	23	646	72	326	9	34	12	86	22	29	0	2	8	2	72	22	172	21	177	367	5	0	11	147	75	2	6	30	201	26	226	31	197
OTU 62	6	0	490	0	2	12	8	3	592	0	10	0	11	0	3	10	119	0	3	0	0	1	114	0	1	315	11	0	18	0	14	3	18	8	0	95	0	1	12	1376	77	0	0	35	0	0	98	2	0	1
OTU 63	0	5	1550	50	47	5	0	0	0	0	0	0	1	0	3	88	1	17	1	0	7	3	0	6	26	94	0	27	9	8	46	1	16	0	4	0	3	0	0	1	6	5	24	0	9	30	15	0	20	9
OTU 64	482	31	41	45	101	3212	70	548	4	47	80	2	31	460	182	21	72	63	1764	29	254	76	21	56	31	62	21	68	80	0	29	725	217	231	0	143	910	67	103	45	48	67	8	25	162	15	9	448	299	482
OTU 65	0	3	0	0	0	0	34	0	0	0	0	0	0	0	9	0	0	1	1	0	0	0	15	15	0	0	0	0	0	0	0	0	1	0	0	0	0	0	3	0	27	0	0	0	0	1	0	0	1	0
OTU 66	3	100	1	19	85	36	55	6	210	1	28	15	0	7	13	158	30	41	61	43	1	2	25	107	19	19	0	1	64	14	27	123	255	79	66	1985	12	7	89	291	134	39	19	26	2	6	4	8	8	4
OTU 67	3	30	0	40	70	12	21	8	33	4	1	28	82	0	6	2	20	222	1	7	2	82	108	5	1	0	34	1	19	10	10	6	13	46	1	23	3	18	37	2	52	156	1	1	115	27	3	0	0	0
OTU 68	104	8	34	0	0	5	0	14	9	3	0	0	6	7	1	2	1	28	36	47	0	40	34	3	1	35	0	0	9	40	0	33	4	24	11	10	25	0	0	0	0	0	0	0	95	0	39	21	6	16
OTU 69	8	31	11	0	64	4	50	20	10	14	27	6	24	3	14	20	61	3	65	85	25	9	4	87	13	3	10	20	4	17	7	4	11	1	2	33	4	38	0	114	0	377	1	77	75	3	39	7	15	0
OTU 70	4	1	0	48	1	8	1	0	3	0	14	0	11	0	25	1	4	18	0	1	2	7	4	9	0	0	0	16	17	0	21	0	0	0	0	7	7	0	106	5	7	4	30	0	2	3	0	6	13	0
OTU 71	0	1	9	0	9	0	0	15	6	84	157	0	6	0	8	0	0	21	6	2	0	3	0	0	4	0	0	3	1	45	0	1	0	10	1	1	2	0	10	0	1	4	71	91	40	66	0	17	22	9
OTU 72	2	62	3	177	67	9	13	431	15	5	95	10	2152	4	141	31	40	33	33	2	245	19	63	16	25	80	1	3	18	193	16	47	3	3	6	0	2	4	89	2	156	61	9	69	6	15	24	16	7	15
OTU 73	143	1	64	51	0	0	0	16	0	20	2	1	0	44	23	89	41	9	117	6	9	1	11	5	2	0	10	0	1	18	1	9	52	67	16	0	53	9	0	103	2	0	0	64	1	27	142	42	18	19
OTU 74	34	23	40	2	98	11	44	58	17	43	86	14	35	2	0	17	65	4	53	4	20	30	11	12	24	9	6	22	16	19	97	49	101	39	32	6	6	4	32	0	110	8	65	58	61	145	38	20	19	6
OTU 75	60	6	5	62	46	2	17	77	42	6	19	1	52	2	24	232	8	16	12	47	27	54	2397	8	9	7	10	1	1	18	51	39	11	57	0	0	7	5	4	76	7	80	42	9	53	28	10	10	2	4
OTU 76	0	3	15	0	0	10	2	0	0	19	8	0	2	0	0	8	3	37	2	0	0	1357	0	1	0	0	1	14	12	9	3	0	4	3	27	12	0	0	25	12	1	46	18	0	2880	2	31	1	0	2
OTU 77	1	2	60	33	187	16	34	0	11	107	4	3	34	6	33	17	13	74	39	3	4	12	15	11	28	23	26	22	19	0	21	23	58	181	21	12	11	2	14	80	76	9	53	7	2	138	62	2	6	9
OTU 78	41	9	1	9	143	3	1	12	17	6	79	16	58	13	108	43	46	5	61	15	26	34	63	29	6	9	140	0	3	0	2	5	10	72	4	17	30	18	12	33	60	120	5	92	39	0	2	41	4	12
OTU 79	180	97	38	79	140	38	53	1637	106	90	117	326	60	13	496	230	84	102	53	33	692	46	73	65	32	65	45	17	85	33	32	91	208	91	124	106	23	57	86	194	148	116	280	137	56	103	104	35	126	9
OTU 80	11	0	3	14	6	4	133	4	143	37	34	18	139	7	43	10	219	32	129	25	1	4	18	19	4	12	31	1847	8	55	21	13	6	76	48	88	36	24	57	98	84	49	85	95	33	23	31	0	4	32
OTU 81	19	5	584	123	94	4	6	276	553	20	100	21	117	83	24	25	21	87	294	43	202	31	94	11	2	381	1130	633	4	17	26	33	5	36	5	252	150	11	5	870	47	11	71	3	34	15	168	68	34	38
OTU 82	0	3	9	10	4	0	4	63	42	7	0	5	1	1	41	74	13	13	5	27	37	39	67	0	24	14	37	2	0	2	119	8	42	4	53	8	0	10	6	0	69	15	11	1	99	14	0	1	33	0
OTU 83	5	0	0	3	0	3	0	0	2	3	10	6	40	0	1	115	1	0	0	2	0	4	0	0	1	0	11	0	2	0	0	0	21	0	4	0	0	0	0	0	18	7	0	0	2	14	60	0	0	0
OTU 84	20	33	7	0	12	9	18	0	1	104	3	48	3	7	3	32	0	5	7	60	0	0	3	41	1	3	23	0	7	0	183	34	65	135	80	6	14	7	6	30	38	0	13	22	1	86	3	0	0	1
OTU 85	0	12	7	5	13	1	0	0	0	64	112	5	0	14	10	0	5	0	11	0	0	0	3	15	1	0	0	2	1	1	13	1	1	0	1	3	16	46	0	38	8	12	12	22	0	2	0	0	4	9
OTU 86	0	0	39	0	0	0	0	0	0	0	0	0	0	0	6	0	0	0	0	0	0	0	2	0	0	0	0	0	0	0	0	0	0	2	12	4	0	0	0	85	0	0	0	0	2	0	0	9	0	0
OTU 87	0	0	0	0	41	0	8	1	0	36	1	0	32	10	81	22	0	1	28	10	0	0	4	1	25	0	6	0	0	0	54	24	0	1	10	30	11	7	0	17	2	107	10	10	6	0	0	2	16	3
OTU 88	1	0	3	0	1	1	20	0	14	0	0	0	0	0	3	0	0	0	1	1	0	0	29	0	11	395	0	0	3	0	0	0	0	75	0	3	0	0	21	13	28	0	0	19	0	0	0	0	0	0
OTU 89	13	15	1	37	0	0	13	31	18	0	1	0	0	0	2	47	4	0	0	259	30	19	10	3	4	0	0	0	2	21	1	31	17	0	0	6	0	0	4	20	68	0	3	0	10	2	29	0	8	0
OTU 90	0	0	0	0	0	0	18	9	24	0	0	0	54	0	0	11	22	28	5	0	6	0	2	1	0	0	0	0	0	0	19	9	0	0	0	0	0	0	3	0	7	1	0	0	0	4	0	0	0	0
OTU 91	1	0	0	0	0	0	0	1	0	2	0	0	2	1307	0	0	0	0	0	0	0	0	0	0	0	0	0	0	0	0	2	0	0	0	0	0	3	0	0	5	0	0	0	0	0	0	0	0	3	2
OTU 92	4	0	0	0	0	0	0	16	3	0	1	0	1	0	0	1	0	4	0	9	0	0	0	2	14	16	12	14	1	12	45	19	19	0	0	0	0	0	0	4	9	12	46	1	0	3	10	0	0	0
OTU 93	29	0	0	0	0	0	0	10	0	0	0	33	0	0	0	1	0	24	0	0	0	6	0	0	0	0	0	0	0	5	0	0	1	0	0	0	0	0	1	0	0	2	0	0	0	0	4	0	1	0
OTU 94	108	12	52	11	127	32	40	49	1	8	88	54	55	4	56	50	91	9	25	10	7	0	85	0	1	55	197	39	54	2	38	404	28	194	5	37	5	0	59	4	157	13	17	3	74	18	626	0	305	1
OTU 95	0	1	29	1	41	0	107	5	63	0	28	1	11	5	0	67	26	11	0	3	0	0	0	11	1	1	0	3	0	0	2	0	0	2	4	9	0	5	1	50	14	0	55	0	0	0	34	1067	1	0
OTU 96	5	34	2	0	0	0	0	0	0	0	0	0	0	0	0	0	12	0	0	0	0	0	0	9	41	0	0	0	0	0	0	0	55	0	0	0	0	1	0	0	0	8	31	4	0	43	0	0	0	0
OTU 97	0	2	0	0	0	0	0	0	1	0	4	0	0	5	0	1	2	0	4	0	0	147	3	0	0	17	7	0	0	17	2	12	108	0	1	0	1	10	0	0	7	1	0	88	244	9	1	0	3	6
OTU 98	59	6	64	0	0	0	0	1	0	37	15	0	0	0	2	0	2	0	1	0	12	0	12	1	0	93	52	14	3	4	0	1	0	11	90	4	1	13	20	45	18	0	0	0	3	0	5	3	0	0
OTU 99	116	15	30	448	7	1	15	404	4	25	29	160	11	81	11	28	36	4	406	40	117	15	67	13	366	25	0	11	2	24	23	129	2	257	16	469	128	101	5	0	143	256	623	9	15	965	31	32	66	92
OTU 100	6	22	1	2	7	28	5	0	9	2	1	0	0	0	13	158	1	34	11	18	28	12	10	10	32	6	1	2044	51	5	710	8	38	9	908	28	0	207	44	1	6	30	6	0	59	58	52	3	17	1
OTU 101	0	0	0	0	0	0	0	0	0	60	32	0	0	0	0	0	2	1	9	3	0	0	0	2	0	0	0	0	0	11	0	0	0	4	6	2	0	0	0	0	0	0	0	0	0	0	0	10	1	0
OTU 102	0	13	18	0	97	0	0	5	18	0	0	0	1	0	0	0	0	22	2	17	4	8	0	13	2	44	2	3	1	0	4	8	8	7	59	2	0	0	0	1	6	17	0	1	0	1	0	1	0	0
OTU 103	0	239	5	34	11	12	56	7	0	3	9	6	6	1	156	247	4	0	13	361	1	4	11	73	250	0	764	554	15	52	339	4	544	2	590	0	0	133	6	2	27	37	3	2	11	702	4	5	58	0
OTU 104	169	857	17	50	15	10	37	126	1	8	4	4	1	76	112	39	111	0	217	2	139	6	55	315	29	60	26	12	14	44	134	705	131	43	232	0	136	29	3	60	294	167	29	24	32	1	97	88	432	84
OTU 105	0	0	1	0	0	0	0	0	0	4	18	17	2	2	4	0	10	9	64	0	6	0	0	1	0	0	45	51	0	0	0	0	0	39	6	7	28	2	0	13	164	1	0	0	0	7	24	8	4	10
OTU 106	0	0	4	0	0	0	0	0	1	2	0	32	2	6	0	0	1	0	1	0	0	6	22	0	0	5	0	2	0	1	1	2	0	2	1	54	2	0	3	2	1	6	15	0	1	0	0	0	5	0
OTU 107	4	0	26	1	2	0	9	1	2	41	73	2	30	3	9	28	0	26	1	0	0	3	2	0	0	3	9	0	1	1	3	0	0	0	0	1	0	0	6	3	0	0	8	200	6	1	14	0	0	0
OTU 108	23	2	12	0	1	0	18	46	15	5	0	0	0	5	14	23	0	16	17	6	67	6	0	22	3	0	2	18	0	8	0	40	8	0	8	0	2	2	14	20	36	1	11	14	47	0	0	15	4	0
OTU 109	0	0	0	0	0	0	0	0	2	0	0	5	2	0	0	0	5	0	0	0	0	0	0	0	0	0	0	0	0	6	0	0	0	0	0	0	0	0	0	0	0	0	0	0	0	0	2	0	0	0
OTU 110	71	1	44	4	9	3	26	11	1	1	15	24	31	15	2	27	35	45	30	1	2	117	14	32	22	62	28	174	5	14	12	120	35	8	37	73	30	4	6	17	1	22	88	44	76	55	194	1878	39	8
OTU 111	9	0	4	15	84	7	2	10	0	2	0	1	0	0	0	0	18	34	2	11	9	0	0	0	0	2	0	0	8	0	11	2	0	1	0	0	4	1	5	0	0	0	0	1	2	40	13	0	1	0
OTU 112	0	11	8	23	5	2	95	1	1	2	0	6	0	1	0	0	0	6	8	0	19	19	0	2	0	22	9	1	6	9	0	2	6	1	71	11	3	10	12	0	2	0	1	3	0	0	41	3	16	4
OTU 113	0	0	1	0	7	0	0	0	0	0	0	8	0	0	0	16	0	0	1	0	10	0	7	0	0	7	25	0	5	34	19	0	0	0	0	0	0	0	4	1	41	2	0	3	0	0	0	13	0	0
OTU 114	42	831	12	81	38	1	27	54	18	62	71	19	4	30	85	40	32	7	135	34	14	0	77	378	48	3	3	4	2	6	177	72	1404	123	32	35	105	21	2	19	61	1295	7	2	19	40	54	19	33	37
OTU 115	76	10	115	150	179	5	7	34	26	11	12	5	133	3	62	18	13	8	3	11	49	27	26	43	12	20	14	14	6	105	69	17	60	191	131	35	10	76	7	31	52	20	72	63	38	6	85	12	5	25
OTU 116	21	12	4	17	160	0	197	36	30	2	1	2	81	1	115	2	29	506	0	29	40	58	271	3	64	102	111	89	0	9	37	28	23	65	18	897	0	20	15	0	259	372	6	4	231	57	24	0	0	0
OTU 117	3	5	21	29	265	4	1	1197	16	15	1	95	13	0	12	0	7	155	1	22	533	4	56	54	62	7	233	23	7	0	19	67	99	99	38	11	0	55	123	2	36	56	14	0	12	65	152	4	1	0
OTU 118	1	0	3	4	0	3	0	0	15	0	1	0	0	0	72	1	2	0	4	0	0	4	29	5	29	0	22	0	7	4	0	0	98	5	10	34	0	0	1	0	0	20	1	0	6	140	2	0	1	0
OTU 119	33	49	9	47	14	4	10	20	15	16	22	13	56	1	7	43	160	48	7	17	47	67	1	1842	31	65	23	64	5	27	0	63	60	31	179	4	17	0	2	62	41	50	6	13	76	1	8	8	7	13
OTU 120	8	2	68	4	0	5	40	8	10	0	53	1	0	10	3	0	1	1	37	881	0	5	12	1	0	20	1	19	5	1	0	0	0	1	0	30	8	0	16	0	0	7	21	4	0	0	20	26	18	5
OTU 121	47	0	53	7	1	4	29	4	4	1	34	5	5	2	0	44	3	17	13	0	11	0	0	2	58	9	51	30	7	3	10	7	3	14	86	11	0	0	4	9	5	36	29	13	3	111	1	1	14	2
OTU 122	1	2	39	26	67	17	1	33	20	216	111	53	6	4	73	6	221	23	15	6	10	58	7	5	15	80	84	23	31	2	2	23	78	4	20	0	13	11	61	15	0	0	209	117	166	29	80	0	33	3
OTU 123	232	70	158	102	119	273	293	64	28	209	190	114	21	19	340	336	103	70	187	96	44	41	44	59	52	156	123	138	631	35	77	45	139	117	4	150	59	33	397	88	85	81	173	110	91	176	210	33	68	34
OTU 124	0	34	0	0	5	0	32	19	7	0	8	1	7	0	0	54	3	0	4	0	1	0	1	0	0	0	3	0	0	0	1	45	0	43	12	4	0	11	0	3	0	18	1	0	3	0	2	0	69	0
OTU 125	48	47	77	975	22	16	158	73	70	139	324	61	129	20	180	109	493	131	74	26	71	1708	99	34	2562	85	67	75	30	29	33	128	32	267	122	77	14	776	61	150	70	166	316	107	48	48	273	3	23	17
OTU 126	0	0	0	0	1	0	0	43	0	0	0	0	0	0	0	23	0	0	0	0	32	0	0	0	0	0	0	0	0	0	10	2	0	0	1	0	0	8	4	0	0	0	0	0	0	0	0	0	0	0
OTU 127	26	8	0	11	29	25	11	27	11	78	57	78	286	0	12	82	6	179	0	0	25	2	0	0	2	3	1	3	53	1	13	0	5	29	0	7	0	8	58	38	2	0	37	1	7	1	221	9	13	0
OTU 128	652	105	152	3271	670	20	205	150	36	104	107	28	346	47	101	406	35	241	132	134	50	79	98	435	49	44	136	80	35	114	51	175	75	224	53	157	149	43	134	289	115	269	32	129	292	91	46	36	76	60
OTU 129	0	1	0	154	0	0	21	0	1	0	17	18	0	0	0	3	4	0	2	0	0	19	0	0	0	0	2	0	1	0	5	0	0	0	8	19	0	11	1	0	0	0	0	60	37	0	0	0	0	0
OTU 130	1	10	2	0	8	0	10	18	1	7	23	12	9	7	1	7	70	2	2	89	8	15	0	3	26	1	15	0	0	0	0	0	34	76	33	96	2	64	5	26	3	76	1	3	14	32	30	4	0	1
OTU 131	10	957	16	2	5	14	15	112	42	15	39	1	9	0	210	32	130	16	5	0	17	3	2	383	48	11	2	1	23	4	2	7	1804	0	5	68	0	0	22	169	14	35	27	88	31	35	4	14	0	1
OTU 132	0	3	0	0	14	4	0	63	5	0	0	7	0	3	1	3	27	0	1	12	11	0	0	18	0	6	8	8	4	5	0	2	3	185	3	9	7	3	1	0	2	0	8	74	4	8	3	0	83	1
OTU 133	3	8	0	5	0	2	0	1	2	0	0	0	21	0	2	38	4	0	0	0	4	4	0	0	16	0	11	0	2	0	2	2	0	6	0	0	0	0	3	0	3	8	0	20	0	0	0	0	0	0
OTU 134	21	4	5	1	150	4	73	32	31	2	11	0	2	8	14	9	110	59	63	809	0	123	123	5	2	0	2	0	14	49	93	49	3	8	0	98	21	48	12	53	220	8	22	18	155	32	7	11	4	12
OTU 135	15	29	76	2	3	4	8	52	45	71	55	1	1	25	292	81	16	49	58	7	3	7	42	15	0	2	5	32	6	26	53	100	6	6	58	64	57	2	11	17	85	2	65	87	41	14	0	71	128	20
OTU 136	10	19	7	21	0	0	0	21	18	59	58	0	1	4	61	0	3	0	0	2	13	0	13	0	0	23	11	55	0	0	1	1	17	1	27	41	9	7	0	18	16	3	54	0	0	21	66	0	1	6
OTU 137	449	10	0	3	8	0	0	48	7	0	0	3	0	21	31	18	8	0	29	0	11	6	7	0	0	0	6	0	0	0	1	1633	0	2	6	0	18	0	0	5	20	7	3	28	27	12	27	0	425	16
OTU 138	7	0	0	15	158	1	4	0	0	6	0	0	67	6	8	82	2	21	24	0	0	0	43	0	29	13	0	2	1	2	10	0	16	0	0	71	11	5	0	0	15	9	1	0	15	10	15	11	0	2
OTU 139	86	132	35	7	151	19	202	1	3	13	85	2982	14	39	26	61	384	230	71	9	5	28	149	70	133	1659	32	91	42	20	44	49	122	13	58	21	48	61	52	47	94	20	3	67	75	76	83	62	18	22
OTU 140	81	2116	98	63	245	145	319	31	18	3344	381	131	230	22	19	64	163	98	17	11	64	25	51	1168	3	25	26	32	316	2526	136	53	15	78	438	95	23	131	144	238	242	58	98	89	74	43	204	2	3605	17
OTU 141	0	0	0	0	0	0	0	0	0	0	0	0	0	0	0	0	0	0	0	0	1	0	0	0	0	0	1	0	0	10	0	0	0	0	0	0	0	0	0	0	0	0	0	0	0	0	0	0	0	0
OTU 142	1	32	0	0	30	0	0	0	0	3	0	0	0	0	0	0	7	5	0	0	0	0	0	0	0	0	0	2	0	0	0	4	0	0	1	0	0	25	1	0	0	0	0	0	10	0	1	0	1	1
OTU 143	0	2	6	0	6	0	0	0	2	0	29	0	0	0	0	0	0	5	0	0	0	0	0	1	0	4	8	0	0	4	0	0	0	6	51	5	0	0	3	0	13	0	15	0	0	3	2	0	1	0
OTU 144	4	9	0	0	10	0	10	0	0	32	66	35	0	0	10	3	0	0	0	0	1	0	15	1	0	0	7	0	0	0	0	0	10	225	1	0	0	0	0	0	42	32	31	1	0	0	0	0	2	0
OTU 145	5	4	4	112	19	3	100	0	49	9	125	0	14	37	141	1	6	8	55	24	21	0	55	1	15	27	1574	733	8	32	29	10	14	24	34	7	21	18	26	1	177	263	41	37	9	44	4	63	38	4960
OTU 146	36	2	0	1	25	4	6	1	39	2	4	28	2	0	51	12	13	15	9	74	36	16	80	37	45	36	23	42	5	28	47	1	26	2	21	2	2	69	6	1	140	31	7	1	1	29	146	1	60	1
OTU 147	3	1	5	0	46	1	11	0	2	25	0	27	20	3	8	19	12	1	12	37	2	4	0	0	33	7	0	0	3	12	0	0	6	5	0	3	10	9	13	3	29	4	20	0	1	92	4	3	0	20
OTU 148	1	252	0	9	1	0	172	7	10	7	61	7	88	0	1613	279	71	39	22	283	3	4	892	101	330	34	482	173	0	0	276	1	459	59	254	0	0	374	11	0	0	0	144	0	14	577	45	0	5	5
OTU 149	19	0	0	0	1	0	9	0	0	4	0	2	2	4	1	115	6	2	33	17	2	1	1	3	2	0	8	0	0	1	1	6	0	5	35	1	8	7	8	0	12	0	5	1	2	42	1	17	20	13
OTU 150	0	3	3	42	1	1	22	1	0	36	6	0	0	0	97	83	1	5	0	0	0	0	0	3	0	0	15	0	3	0	11	16	0	0	5	1	6	49	49	0	8	2	0	4	1	1	2	0	0	0
OTU 151	35	0	13	4	0	0	3	1	8	1	28	2	80	6	0	36	100	86	7	8	0	13	3	0	1	20	31	10	0	1	26	4	0	0	0	0	16	39	0	25	6	28	0	8	16	0	0	4	9	16
OTU 152	13	1	15	95	381	0	7	43	1	13	2	3	48	0	90	68	3	5	1	11	9	4	48	40	2	36	33	6	3	28	0	48	16	6	49	21	4	64	1	19	51	43	67	1	16	42	47	6	18	2
OTU 153	0	0	0	0	5	0	9	0	0	0	17	1	0	0	0	1	2	0	0	13	0	0	2	0	0	0	0	25	0	0	18	0	0	0	0	0	0	0	0	0	0	5	0	1	1	0	0	0	0	0
OTU 154	0	1	0	0	3	0	0	0	0	0	0	0	0	0	0	0	1	8	0	0	0	28	4	3	0	0	0	0	2	0	0	4	0	0	2	1	0	0	0	0	28	0	0	0	96	7	0	0	0	0
OTU 155	5	0	17	1	106	0	83	4	0	2	12	466	20	2	18	0	113	0	3	16	15	1	1	1	0	91	0	10	1	6	48	63	0	9	2	0	0	0	0	0	59	0	4	0	0	0	0	4	1	0
OTU 156	54	171	16	52	114	1796	51	47	56	4	99	9	147	19	20	594	32	156	87	36	28	11	13	107	32	38	287	122	26	148	109	58	14	10	22	180	47	67	45	111	37	75	6	49	29	34	71	61	25	43
OTU 157	0	2	21	29	0	0	1	0	17	0	19	2	5	0	0	17	5	0	0	19	0	0	69	6	0	80	0	0	0	63	0	0	11	0	0	23	0	0	0	0	22	0	6	0	0	2	2	1	3	0
OTU 158	0	0	0	0	3	0	0	0	0	0	0	0	0	0	0	0	1	0	0	0	0	0	0	0	0	0	16	0	0	0	0	0	0	4	0	0	0	0	0	0	0	0	0	0	0	0	0	0	0	0
OTU 159	8	15	3	8	123	13	1	2	25	11	28	18	50	3	29	14	62	0	52	49	1	3	1	1	22	43	0	32	21	42	173	63	10	69	9	6	5	23	0	5	3	6	1	51	61	16	40	470	0	1
OTU 160	136	18	61	66	169	21	92	47	2	106	221	59	393	445	77	317	24	241	64	36	33	80	107	81	6	704	56	9	17	3	19	53	82	91	143	648	15	39	47	55	54	18	227	8	144	26	112	0	11	14
OTU 161	25	6	1685	36	121	3	90	30	19	4	0	159	157	16	74	24	76	13	114	1	27	4	29	601	63	5	47	5	6	14	24	8	1	25	62	0	51	38	27	3	25	8	3	38	26	18	9	4	36	19
OTU 162	65	23	32	24	77	428	34	25	27	105	191	12	0	1	83	23	15	36	42	1	2	14	20	9	3	41	20	4	826	7	72	46	4	4	6	2	12	20	2	22	6	138	119	24	1	2	41	8	50	0
OTU 163	0	0	0	0	0	0	6	0	14	0	0	0	0	0	0	0	0	0	0	0	0	0	0	0	0	2	0	0	0	0	0	0	0	0	0	0	0	0	0	0	0	3	0	0	0	0	0	9	0	0
OTU 164	12	0	0	0	1	0	0	1	0	0	0	2	0	0	0	0	3	0	0	0	0	0	0	0	0	8	1	0	0	0	1	0	0	10	11	0	0	0	0	0	12	0	0	0	0	0	0	0	1	0
OTU 165	1	0	0	0	2	3	5	24	0	23	127	65	98	3	5	5	28	7	1	2	0	0	1	2	1	21	4	0	14	773	3	24	10	6	16	1	5	0	99	5	64	32	114	1474	6	2	0	3	48	2
OTU 166	0	0	0	0	0	0	0	0	0	0	0	0	0	0	0	0	0	0	0	2	0	0	2	0	0	0	2	0	0	0	0	0	1	0	101	0	0	5	0	0	0	0	0	0	0	0	0	0	3	0
OTU 167	34	24	0	4	6	0	0	9	0	15	80	57	0	0	6	0	29	15	5	2	3	0	6	2	4	26	1	0	0	11	0	56	2	4	0	0	2	1	4	0	64	1	5	1	0	4	4	0	15	0
OTU 168	25	33	1	77	8	1	52	0	9	9	31	58	75	5	55	11	46	21	0	0	0	14	4	16	12	9	17	2	1	753	20	22	26	9	51	15	17	33	4	70	0	18	44	1497	14	5	4	7	17	1
OTU 169	0	9	0	3	0	0	0	0	0	0	0	0	0	0	2	0	0	0	29	0	0	0	0	0	0	1	0	0	0	0	0	0	1	2	4	0	0	10	0	0	0	20	0	0	17	0	0	7	0	0
OTU 170	0	0	0	3	0	0	0	0	0	0	0	0	0	0	0	25	0	0	0	0	0	0	0	0	0	0	0	0	0	0	0	4	11	0	0	0	0	0	0	0	1	0	0	0	8	52	3	8	0	0
OTU 171	0	3	12	55	282	0	13	14	14	7	13	0	2	14	7	95	20	1	144	25	6	25	8	5	36	32	44	92	1	0	0	8	0	13	6	20	42	6	24	0	3	104	27	1	15	20	185	52	8	17
OTU 172	0	2	0	0	0	0	0	0	0	15	30	28	0	3	7	4	0	0	0	0	0	0	5	0	0	0	0	5	1	0	0	5	0	3	0	2	8	0	1	3	22	0	0	0	2	2	25	1	0	0
OTU 173	3	0	0	0	2	0	19	56	19	5	15	0	35	5	15	21	0	1	5	0	5	0	16	2	0	0	8	23	0	0	1	1	0	26	0	4	4	0	0	87	11	0	0	7	0	10	0	0	0	0
OTU 174	98	3	9	26	1	3	42	0	0	11	4	31	29	20	1	12	1	1748	23	25	3	253	24	0	2	48	94	19	9	3	6	285	1	5	4	9	41	2	42	72	1	25	5	0	438	5	4	0	162	7
OTU 175	4	1	25	0	0	8	70	7	0	0	0	2	9	0	1	51	30	1	4	1	0	2	0	36	0	0	51	0	14	1	2	1	12	77	2	1	0	1	18	7	4	13	0	2	13	0	4	4	21	0
OTU 176	52	68	44	33	62	0	15	67	2	19	95	41	3	1	91	133	61	13	76	480	22	64	3	40	47	3	17	26	1	16	8	1	37	28	3	136	7	2	34	27	18	121	10	23	2	154	14	3	36	10
OTU 177	26	20	12	43	58	8	30	1	42	26	42	28	0	24	20	8	134	151	23	47	26	45	104	0	43	7	36	99	15	33	28	14	3	67	59	3	26	12	29	18	264	22	1	42	150	133	74	22	0	13
OTU 178	29	49	1	4	109	6	0	54	4	0	0	14	4	0	1	94	40	193	0	3	1	32	2	5	0	30	6	29	21	0	13	0	10	3	0	13	4	0	54	0	1	1	11	9	28	0	40	0	1	0
OTU 179	2289	6	51	10	70	0	59	0	0	57	9	22	21	0	4	0	0	210	47	3249	2	82	8	2	1	0	11	0	0	12	17	19	2	2	9	70	11	6	1	53	0	33	28	0	58	0	0	3	21	18
OTU 180	51	30	14	63	96	13	209	52	24	123	208	55	234	1	209	734	54	182	53	35	33	31	63	30	19	75	221	166	25	96	23	160	23	86	213	119	17	43	24	22	197	127	49	39	141	105	172	54	75	4
OTU 181	6	0	0	9	1	6	15	26	10	0	16	2	24	6	36	205	0	487	14	9	43	44	541	0	29	0	14	7	19	5	41	73	11	4	0	25	29	1	28	27	906	10	7	0	171	7	21	3	54	2
OTU 182	0	0	9	0	0	0	14	0	0	0	0	0	0	0	28	1	6	4	0	1	0	0	0	0	0	0	1	0	0	0	0	0	0	0	0	0	0	0	0	0	0	0	0	0	0	0	0	16	0	0
OTU 183	3	0	7	43	1	0	3	1	1	2	0	16	46	9	20	171	11	100	12	0	2	18	0	6	0	55	6	1	0	89	0	86	5	73	78	30	15	9	1	49	120	30	0	0	12	0	9	8	63	1
OTU 184	3	0	0	4	11	5	135	2	0	0	0	0	13	3	5	10	30	116	47	2	10	4	0	1160	0	0	2	0	9	6	3	0	0	79	41	5	5	2	3	0	0	28	1	5	2	0	66	30	14	2
OTU 185	8	7	19	61	102	4	12	123	2	43	95	0	77	13	12	28	586	20	26	27	4	22	11	1	2008	4	2	36	8	456	18	164	100	92	193	1	18	99	6	29	15	82	17	360	34	46	50	10	25	5
OTU 186	16	11	0	1	34	0	1	0	1	0	0	0	0	0	2	0	1	0	0	2	26	8	3	1	17	4	3	0	0	10	0	0	1	2	18	24	3	0	20	0	2	12	4	0	2	10	0	0	1	3
OTU 187	17	144	56	72	177	7	59	210	20	67	39	34	140	42	357	108	33	4	100	62	163	22	166	32	159	23	544	237	14	17	80	298	110	203	206	4	73	61	57	3	212	35	110	11	11	260	114	26	142	22
OTU 188	26	26	7	1	96	2	37	91	370	62	195	65	35	2	270	40	14	20	16	44	4519	15	35	14	21	14	14	31	5	50	36	21	2	90	18	10	1	16	12	80	42	0	46	121	19	9	49	1	3	3
OTU 189	76	79	39	19	135	14	16	14	56	43	72	3	82	491	51	289	11	61	130	9	16	9	101	17	65	17	42	25	26	1	32	13	73	34	31	14	912	21	43	31	143	161	12	21	3	214	157	138	30	405
OTU 190	0	0	32	1	1	10	21	0	0	62	3	0	74	0	12	0	2	0	0	0	0	0	35	0	1	7	0	0	14	0	0	0	1	1	0	0	1	0	4	2	17	5	0	2	0	29	10	0	5	0
OTU 191	4	16	3	11	38	1	71	119	0	17	80	30	149	13	135	79	4	2	56	3	58	19	10	16	2	76	35	17	2	34	18	12	9	35	32	1	19	1	6	1	82	30	81	12	16	35	64	11	158	42
OTU 192	30	4	910	33	24	73	1	195	755	30	5	8	111	42	15	62	38	120	176	48	136	92	27	10	6	984	20	76	129	30	34	61	14	137	23	427	102	13	170	945	45	10	94	116	143	3	38	138	5	51
OTU 193	29	30	75	35	42	195	68	358	12	77	62	52	1	107	9	111	9	1	314	5	239	3	17	55	3	95	11	10	384	20	1	20	7	0	0	22	252	11	676	8	2	130	24	59	5	6	279	142	37	74
OTU 194	390	35	82	1	16	29	3	2	4	1	27	0	4	1	69	78	0	3	2	4	0	0	1	20	4	5	17	8	52	9	5	321	3	1	0	0	13	3	122	0	0	9	36	3	2	6	3	1	363	4
OTU 195	32	0	23	34	7	58	0	0	0	0	2	2	1	0	10	5	13	116	22	1	3	14	13	4	170	18	44	0	106	3	4	5	0	51	74	35	11	0	166	70	52	55	0	0	29	271	0	0	47	4
OTU 196	41	41	13	0	27	48	0	45	5	41	110	4	12	3167	1	10	1	10	39	21	10	0	0	1	4	44	28	3	120	27	549	60	0	6	1268	7	11	226	282	19	5	39	37	0	6	1	35	6	4	3
OTU 197	26	16	2	71	86	26	180	112	2599	101	259	1282	21	50	31	7	59	42	86	43	69	2	41	8	470	31	95	29	20	8	16	125	23	85	38	24	57	16	36	84	16	139	150	42	35	788	32	36	126	47
OTU 198	128	0	36	3	18	4	0	3	0	39	3	1	58	5	18	0	5	1	1	0	9	1278	0	0	2	0	8	0	4	0	1	0	30	5	3	0	7	0	4	2	0	7	8	42	12	21	0	0	7	19
OTU 199	3	7	13	56	11	9	27	23	0	43	221	13	14	1	25	33	0	1	0	20	10	30	5	0	14	9	32	1	18	10	0	6	0	68	62	16	0	1	25	0	0	45	17	0	91	7	94	5	11	0
OTU 200	3	0	5	27	37	6	14	17	32	6	11	13	74	52	3	3	0	32	24	0	27	8	47	0	3	8	62	2	7	1	62	49	0	26	0	58	33	9	2	0	0	41	0	24	4	6	9	35	20	21
