	Host 1	Host 2	Host 3	Host 4	Host 5	Host 6	Host 7	Host 8	Host 9	Host 10	Host 11	Host 12	Host 13	Host 14	Host 15	Host 16	Host 17	Host 18	Host 19	Host 20	Host 21	Host 22	Host 23	Host 24	Host 25	Host 26	Host 27	Host 28	Host 29	Host 30	Host 31	Host 32	Host 33	Host 34	Host 35	Host 36	Host 37	Host 38	Host 39	Host 40	Host 41	Host 42	Host 43	Host 44	Host 45	Host 46	Host 47	Host 48	Host 49	Host 50	
OTU 1	0	0	4	11	0	1	0	1	0	0	0	0	0	1	2	2	0	3	2	1	2	0	0	0	0	0	2	5	0	8	1	1	0	4	0	2	0	0	0	6	2	0	1	1	0	0	1	1	1	0
OTU 2	7	0	0	0	2	0	0	0	2	0	0	0	0	0	0	1	0	0	5	5	0	0	0	38	3	4	1	0	2	0	0	0	7	0	0	6	0	0	0	0	0	0	3	0	2	1	0	0	17	0
OTU 3	0	0	0	0	0	0	0	1	0	0	0	0	0	1	0	0	0	0	3	0	0	0	0	7	0	0	0	2	0	0	0	0	0	0	7	0	0	0	0	1	0	0	1	0	1	0	2	0	1	0
OTU 4	0	0	0	0	0	0	0	0	0	0	0	0	0	0	0	0	0	0	0	0	0	0	0	0	0	0	0	0	0	0	0	0	0	0	0	0	0	0	0	0	0	0	0	0	0	0	0	0	0	0
OTU 5	11	0	1	2	10	5	2	10	37	13	13	0	42	18	0	19	25	10	17	8	0	6	11	4	0	3	0	4	24	4	12	0	1	0	8	4	0	6	7	17	8	2	3	0	0	31	16	0	8	0
OTU 6	5	1	3	0	0	0	0	0	0	0	0	1	0	0	0	1	1	0	0	7	0	0	6	0	0	1	0	2	9	7	0	1	8	0	3	4	0	0	0	0	2	1	0	2	0	3	0	1	11	0
OTU 7	10	7	0	2	1	2	12	1	1	2	2	0	9	4	0	3	13	0	1	1	1	3	0	1	1	4	0	7	2	1	2	4	11	4	14	0	45	1	4	5	0	19	5	5	6	0	7	0	2	9
OTU 8	3	0	0	2	1	0	1	0	0	2	2	2	2	0	0	0	0	1	0	0	3	0	2	3	7	2	1	0	0	0	1	1	10	0	65	0	4	1	98	0	0	3	2	1	3	0	0	1	0	1
OTU 9	0	2	0	1	0	0	0	0	0	0	0	0	0	1	0	0	1	0	1	0	6	1	0	2	2	0	0	0	3	0	0	2	1	0	0	0	0	0	0	0	1	0	0	0	1	6	0	0	0	0
OTU 10	0	0	0	1	1	0	7	0	0	1	0	0	0	0	0	0	3	0	6	0	0	3	0	1	17	0	0	0	2	0	0	0	0	0	15	0	0	0	0	0	1	22	0	0	0	0	4	1	0	4
OTU 11	1	2	0	2	0	26	1	1	0	0	1	1	4	0	5	1	0	0	0	0	2	0	0	0	1	0	1	2	2	0	0	0	0	2	6	0	3	2	1	0	0	0	2	3	3	2	3	2	1	3
OTU 12	0	3	192	1	1	1	1	0	0	1	0	3	0	0	1	0	2	0	7	1	0	1	0	0	1	0	0	5	0	3	2	2	5	3	3	0	1	1	1	0	1	2	0	1	1	8	2	3	1	0
OTU 13	0	0	0	0	0	0	0	0	0	0	0	0	0	0	0	0	0	0	0	0	0	0	0	0	10	0	0	0	0	0	0	0	0	0	1	0	0	0	0	0	1	0	3	0	0	0	0	0	0	0
OTU 14	2	1	0	1	0	0	3	0	0	0	0	2	0	0	0	0	0	0	0	1	2	3	0	0	0	0	0	1	1	1	0	0	0	1	0	0	1	0	0	0	0	11	0	1	0	0	0	1	0	0
OTU 15	0	0	0	0	1	1	3	0	0	0	0	0	0	0	0	0	0	0	1	0	0	0	0	0	0	0	0	0	0	0	0	0	0	0	0	0	0	0	0	1	0	9	0	0	0	0	0	0	0	4
OTU 16	0	0	0	0	0	0	0	0	0	0	0	0	0	0	0	0	0	0	0	0	0	0	0	0	0	0	0	0	0	0	0	0	0	1	0	0	0	0	0	0	0	0	0	0	0	0	0	0	0	0
OTU 17	0	0	0	0	0	0	0	0	0	0	0	0	2	0	0	0	0	0	0	2	1	2	1	0	10	8	4	0	0	0	0	0	3	0	0	4	0	0	0	0	0	0	1	1	0	0	0	4	1	2
OTU 18	3	2	0	1	4	0	0	0	0	3	4	0	0	1	4	1	4	0	2	0	0	1	1	2	1	5	2	0	3	0	3	2	0	0	1	3	7	111	3	0	0	0	1	3	2	1	1	1	0	0
OTU 19	0	0	0	0	0	0	0	0	0	0	0	0	0	0	0	0	0	0	0	0	0	0	0	0	0	0	0	0	0	0	0	0	0	0	1	0	0	0	0	1	0	0	0	0	0	0	0	0	0	0
OTU 20	0	0	1	0	1	0	1	12	0	0	2	1	1	1	0	1	0	0	4	1	0	2	1	0	1	6	0	0	2	0	5	0	1	0	0	1	2	0	0	0	0	0	0	0	0	0	4	0	0	0
OTU 21	2	3	0	5	0	0	0	1	0	0	0	3	4	0	0	0	6	0	20	0	9	0	0	2	2	0	1	5	0	0	0	1	2	0	1	2	1	1	3	0	0	0	0	0	2	0	0	0	4	0
OTU 22	0	0	0	3	3	0	0	187	0	0	2	4	3	0	1	3	1	0	3	0	3	10	2	0	2	6	1	15	1	1	1	2	0	3	0	1	1	3	1	0	1	0	4	0	2	3	3	0	0	0
OTU 23	0	0	1	0	0	71	0	0	0	1	5	0	3	0	65	2	0	0	1	0	0	3	0	0	0	1	0	0	0	0	1	0	0	114	0	2	8	0	1	0	0	0	0	10	1	0	2	1	0	0
OTU 24	0	4	0	2	0	0	0	0	0	0	0	6	1	0	0	1	0	1	1	1	17	0	1	0	1	0	0	3	1	1	1	0	0	0	1	0	2	0	1	0	2	0	0	0	0	0	1	0	0	0
OTU 25	0	0	0	0	0	0	0	0	0	0	1	0	0	0	0	0	0	0	0	0	0	0	0	0	0	0	0	0	0	0	0	0	0	0	0	0	0	0	0	0	0	0	0	0	0	0	0	0	0	0
OTU 26	3	0	0	0	0	0	0	0	0	1	0	0	0	0	0	0	0	0	0	0	0	1	0	0	0	2	0	0	0	0	0	0	0	0	17	0	0	0	0	0	0	0	0	3	0	0	0	3	0	1
OTU 27	0	0	0	0	0	0	0	0	0	0	0	0	0	0	0	0	0	0	0	1	0	0	0	0	0	0	0	0	0	0	0	0	0	0	0	1	0	0	0	0	0	0	0	0	0	0	0	0	0	0
OTU 28	3	0	1	0	3	1	0	0	3	0	0	0	11	0	2	2	1	0	3	1	0	0	3	2	7	13	1	2	0	7	0	1	0	0	8	1	1	0	1	0	1	3	0	4	2	0	1	3	0	2
OTU 29	1	1	0	0	0	1	0	0	4	2	2	0	1	0	0	2	1	0	1	0	1	1	6	0	0	0	4	0	0	1	0	0	5	2	0	0	9	0	0	0	3	0	1	0	1	0	2	0	0	1
OTU 30	0	0	0	0	0	0	0	0	0	0	0	0	0	0	0	0	0	0	0	0	0	0	0	0	0	0	0	0	0	0	0	0	0	0	0	0	3	0	0	0	0	0	0	0	0	0	0	0	0	0
OTU 31	0	0	0	0	0	0	0	0	2	0	0	6	0	1	0	0	1	0	1	0	12	1	1	0	0	0	8	0	0	0	1	2	0	0	0	1	0	1	0	0	1	1	0	0	0	0	0	1	0	0
OTU 32	4	2	5	6	0	1	3	1	17	0	5	3	0	7	1	2	0	11	0	0	5	10	16	4	1	5	41	8	0	34	1	15	4	1	0	0	13	2	15	1	23	6	0	9	13	23	0	4	0	2
OTU 33	0	0	0	0	0	0	0	0	0	0	0	0	0	0	0	0	0	0	0	0	0	0	0	0	0	0	0	0	0	0	0	0	0	0	0	0	0	0	0	1	0	0	0	0	0	0	0	0	0	0
OTU 34	1	1	0	1	3	2	4	0	0	3	1	0	1	0	1	2	5	0	0	0	2	1	2	0	1	0	0	5	3	0	1	1	0	2	1	4	4	5	1	0	0	1	0	3	0	0	0	0	3	1
OTU 35	1	0	0	66	0	2	2	2	1	0	0	11	0	0	0	2	0	0	2	2	14	0	0	6	0	0	1	0	0	1	1	0	29	1	0	2	3	0	12	1	1	0	0	2	1	13	1	1	4	0
OTU 36	0	1	0	3	1	0	1	0	2	1	3	2	0	0	0	0	0	2	0	25	1	2	0	0	0	5	2	3	0	0	0	0	3	1	0	0	2	0	7	0	0	0	0	0	0	3	0	0	1	2
OTU 37	6	0	0	0	0	1	0	0	0	0	0	0	0	1	0	0	0	0	0	0	0	0	0	0	4	5	0	0	1	0	0	0	0	0	0	0	0	0	0	0	2	0	65	1	0	0	4	1	0	0
OTU 38	0	0	1	10	0	0	2	1	0	0	0	1	0	0	0	1	1	1	0	1	0	2	1	0	1	0	0	12	0	1	0	0	0	0	1	0	0	0	0	1	0	1	0	14	3	0	1	2	0	2
OTU 39	0	0	0	0	0	0	0	0	0	0	0	0	0	0	0	0	0	0	0	0	0	0	0	0	1	0	1	0	0	0	0	2	0	0	0	0	0	0	0	0	0	0	0	0	0	0	0	4	0	0
OTU 40	0	1	0	11	1	0	1	0	1	3	0	6	1	0	0	0	1	0	0	1	4	1	0	0	14	1	1	15	0	0	0	0	6	0	0	0	1	2	24	4	0	5	2	0	5	48	12	0	0	3
OTU 41	1	0	0	0	0	4	1	0	0	3	2	0	4	0	2	2	0	0	9	0	2	0	1	0	0	1	0	3	1	0	3	1	0	4	2	0	5	0	0	4	0	0	0	3	0	0	7	0	1	0
OTU 42	0	0	0	3	0	0	0	0	0	0	0	0	0	0	0	2	0	0	0	0	0	0	1	0	0	1	0	4	1	0	0	1	0	0	0	0	0	0	0	1	0	3	0	0	5	0	1	0	0	0
OTU 43	0	0	0	0	0	0	91	0	0	0	0	0	0	0	0	0	0	0	0	0	0	0	0	0	0	0	0	0	0	0	0	0	0	0	0	0	0	0	0	0	0	0	2	0	0	0	0	3	0	0
OTU 44	2	0	0	4	1	0	0	0	0	0	5	0	0	0	6	0	1	0	0	0	1	0	0	0	0	0	0	5	3	0	1	0	0	1	0	0	0	0	0	2	1	0	0	0	0	0	111	0	0	0
OTU 45	3	0	0	1	0	0	0	0	0	0	0	3	1	0	0	5	9	0	0	1	0	3	2	0	3	1	0	3	5	0	0	1	7	0	0	0	1	1	1	1	0	0	1	3	1	4	0	2	0	0
OTU 46	20	7	1	2	0	0	0	1	0	1	1	0	3	1	3	1	1	2	3	0	0	5	0	3	2	10	0	3	3	0	0	1	2	0	0	0	0	3	1	2	0	2	2	2	47	3	0	24	0	10
OTU 47	0	0	0	0	0	1	1	0	1	0	0	0	0	0	0	0	0	0	1	0	0	0	0	1	0	0	0	0	0	0	0	0	0	0	0	0	0	0	0	0	0	1	0	0	0	0	3	1	0	0
OTU 48	9	0	0	1	2	1	2	1	2	1	2	0	3	0	1	2	0	0	1	4	1	3	0	1	1	18	2	3	0	0	3	0	0	0	7	2	0	0	0	3	2	2	0	13	0	3	2	0	2	0
OTU 49	2	0	0	5	5	0	0	2	1	0	3	3	0	0	0	0	0	0	0	0	0	0	1	117	0	0	0	5	3	0	0	0	2	0	0	3	1	1	0	3	0	1	0	0	1	3	1	0	0	3
OTU 50	4	0	1	1	1	2	0	2	1	6	2	2	3	0	1	1	0	0	0	3	6	0	1	8	5	3	2	1	2	4	4	1	1	2	1	3	1	3	0	1	1	0	0	4	0	0	1	0	4	2
OTU 51	0	0	0	0	0	1	4	1	25	0	0	1	1	3	0	0	1	0	0	0	0	1	4	0	2	2	3	0	0	1	0	0	6	0	8	0	8	0	0	0	1	15	0	1	2	2	5	0	1	6
OTU 52	9	1	0	2	46	0	5	2	1	3	4	5	4	4	1	0	3	1	1	5	15	11	53	4	7	3	5	4	1	0	0	0	0	1	7	1	1	6	0	4	2	3	0	6	2	3	0	0	2	2
OTU 53	0	0	0	0	0	0	0	0	0	0	0	0	0	0	0	0	0	0	0	0	0	0	0	0	0	0	0	0	0	0	0	0	0	0	0	0	0	0	0	0	0	0	0	0	0	1	0	0	0	0
OTU 54	0	1	1	2	4	1	1	5	0	1	0	1	2	0	0	3	11	1	2	0	1	1	1	0	2	0	0	2	4	2	1	9	1	0	3	3	2	1	2	6	2	2	2	3	0	3	0	8	11	1
OTU 55	0	0	0	0	0	0	1	0	0	0	0	0	0	0	0	0	0	0	0	0	0	0	0	0	0	0	0	0	0	0	0	0	0	0	0	0	0	0	0	0	0	0	0	0	0	0	0	0	0	0
OTU 56	0	0	0	0	0	1	0	0	0	0	0	0	0	0	0	0	0	0	0	0	0	0	0	0	2	0	0	0	1	0	1	1	1	0	0	0	0	0	0	0	0	0	0	6	1	0	0	1	0	0
OTU 57	9	0	2	4	0	0	1	61	1	2	4	1	19	0	0	7	2	1	5	2	0	3	62	2	1	2	1	8	4	1	0	1	2	1	2	9	5	2	3	106	1	5	4	3	17	1	9	1	5	3
OTU 58	0	1	0	0	0	0	1	1	1	1	2	2	0	1	1	0	0	0	0	0	3	3	0	0	5	0	0	1	0	0	0	0	5	0	1	0	0	1	1	3	0	2	1	0	2	1	4	1	1	0
OTU 59	1	0	1	6	0	0	0	0	0	1	0	0	0	0	0	0	0	0	0	0	0	1	0	0	3	0	0	3	0	1	0	1	0	0	0	0	4	1	2	0	0	0	2	6	0	0	3	0	0	0
OTU 60	1	1	0	0	0	1	3	1	0	0	0	1	9	0	0	0	5	1	0	0	15	0	0	3	2	17	1	0	0	1	1	2	0	0	1	1	1	0	6	2	1	8	1	0	13	0	3	1	0	0
OTU 61	3	2	20	1	3	1	1	7	4	1	4	3	1	24	0	3	3	23	4	0	10	0	3	2	2	3	7	0	1	31	8	1	0	1	6	0	3	0	0	3	28	3	4	0	2	3	0	0	0	3
OTU 62	0	2	0	0	0	0	0	0	0	2	1	0	0	0	0	0	0	0	0	7	0	1	0	0	0	1	0	0	0	0	0	0	0	0	1	1	0	0	1	0	0	1	2	3	0	0	0	1	1	0
OTU 63	0	0	3	0	2	0	0	0	0	0	1	1	2	0	162	0	0	0	0	0	0	3	0	3	4	1	0	0	1	0	1	18	0	0	0	0	0	19	0	0	0	0	0	0	0	0	0	1	0	0
OTU 64	2	97	0	1	0	3	4	0	1	1	2	167	0	2	4	4	6	1	7	2	6	1	5	0	3	5	2	3	0	1	0	0	9	3	2	1	11	10	26	9	1	1	1	20	8	9	3	18	1	1
OTU 65	1	0	0	0	0	0	0	0	0	0	0	0	0	0	0	0	0	0	4	0	0	0	0	0	0	0	0	0	0	0	0	0	15	0	0	0	0	0	0	0	0	0	0	0	0	0	0	0	0	0
OTU 66	0	0	0	0	0	2	0	2	0	0	1	2	4	0	6	5	0	5	0	0	5	1	0	0	2	0	0	0	2	1	0	1	3	1	0	1	5	8	0	2	1	0	1	1	1	2	2	1	3	0
OTU 67	1	0	1	0	0	2	0	1	0	4	60	0	3	0	0	1	0	0	0	0	0	0	0	2	0	1	0	1	8	1	1	0	2	5	3	0	1	1	5	1	0	4	0	1	0	0	0	1	2	0
OTU 68	1	1	0	0	0	0	0	0	0	0	2	0	0	1	0	0	3	1	3	36	0	0	0	2	1	0	0	0	0	0	1	0	0	0	0	34	0	0	4	0	0	0	1	0	1	0	0	0	97	0
OTU 69	1	0	0	0	0	38	1	0	1	0	0	0	5	2	39	3	0	1	1	2	1	0	0	0	1	3	3	2	0	1	0	0	0	71	3	0	13	5	0	0	4	1	0	10	7	2	1	3	0	0
OTU 70	0	0	0	1	2	0	0	0	0	0	0	0	0	0	0	1	1	0	0	0	0	0	0	1	0	2	0	8	1	0	1	0	0	0	0	0	0	0	0	0	0	0	0	1	0	0	0	0	0	0
OTU 71	0	2	0	1	0	1	0	1	0	0	0	2	0	0	1	19	0	2	0	0	1	0	1	0	7	1	1	2	0	0	0	1	3	1	0	0	2	1	0	0	0	1	7	0	0	0	1	1	0	0
OTU 72	8	1	1	1	1	0	0	0	6	0	0	6	1	30	1	3	7	15	0	1	1	1	5	0	0	8	9	0	4	0	0	0	0	0	2	1	5	6	0	1	62	1	0	0	1	1	6	1	1	0
OTU 73	2	0	6	0	0	0	0	0	0	2	0	0	2	0	0	0	7	0	1	0	0	0	2	0	7	1	0	0	0	0	0	1	1	0	0	0	1	2	0	0	0	0	0	1	0	0	0	0	1	8
OTU 74	0	0	3	0	0	1	3	0	0	0	2	0	3	37	0	0	0	1	0	0	0	2	0	0	9	9	3	1	1	1	1	2	0	2	0	1	14	0	0	0	0	1	1	0	0	3	1	3	1	0
OTU 75	1	1	0	3	0	2	1	3	2	0	1	0	8	3	2	1	0	0	0	1	7	0	25	4	21	1	12	10	1	1	0	2	0	3	1	2	6	3	1	0	1	2	1	2	5	4	0	3	0	0
OTU 76	0	0	1	0	0	0	0	0	0	1	0	0	0	0	0	0	0	0	2	0	0	0	0	1	0	1	0	0	0	0	0	0	6	0	0	0	1	1	0	0	0	0	0	14	1	0	0	1	0	0
OTU 77	0	0	1	37	0	1	1	1	0	0	0	2	1	0	1	2	0	2	0	1	4	2	0	0	0	0	0	62	0	2	0	2	1	2	2	2	1	0	1	2	2	0	0	1	0	0	0	1	1	0
OTU 78	4	0	0	2	3	1	0	3	0	38	2	0	0	3	1	3	3	0	9	2	0	0	0	0	0	1	0	5	5	1	24	0	3	1	0	0	0	0	0	12	0	0	0	0	4	0	0	0	0	2
OTU 79	8	1	2	4	0	2	8	14	5	3	3	3	12	38	1	2	6	20	14	134	7	3	12	2	9	7	21	5	1	3	4	2	2	0	5	4	4	10	3	30	44	5	1	2	0	4	5	5	1	6
OTU 80	5	6	83	0	2	0	0	0	5	5	1	5	1	0	3	0	0	2	1	1	12	0	8	3	1	2	7	0	8	148	2	3	0	0	1	1	0	0	9	1	0	1	2	1	3	8	0	4	0	0
OTU 81	1	166	0	2	1	2	3	0	8	4	1	2	1	0	0	1	0	10	0	1	11	3	2	6	0	1	10	3	4	5	13	4	0	2	3	136	1	2	9	0	1	1	0	2	14	6	1	0	0	2
OTU 82	3	0	0	0	0	0	4	0	0	0	0	3	0	0	0	0	0	0	5	0	1	0	0	0	0	4	0	0	2	0	1	0	0	0	1	0	4	0	0	1	1	15	0	8	0	0	0	0	0	4
OTU 83	0	0	0	0	1	1	0	0	1	0	0	0	0	0	0	4	0	0	0	0	0	0	0	0	0	0	2	0	4	0	0	0	1	0	0	0	0	0	0	0	1	1	3	0	0	0	1	0	0	0
OTU 84	1	1	0	0	0	21	1	0	2	1	32	2	0	2	9	0	0	1	0	0	1	0	1	0	1	0	3	1	0	0	0	3	0	31	0	0	2	0	0	2	0	1	0	1	1	1	3	0	1	1
OTU 85	0	0	0	0	0	0	0	0	0	0	0	0	4	1	0	0	0	0	4	1	1	0	0	2	0	0	1	0	0	0	0	0	0	0	0	0	0	0	0	0	1	0	0	15	0	1	2	0	0	0
OTU 86	0	0	0	0	0	0	0	0	0	0	0	0	0	0	0	1	0	0	0	0	0	0	0	0	0	0	0	0	0	1	0	0	0	0	0	0	0	0	0	0	0	0	0	0	0	0	0	0	0	0
OTU 87	0	0	0	0	3	0	7	8	0	0	1	0	0	0	0	0	0	0	0	0	2	0	0	0	0	1	0	0	0	0	0	0	0	2	33	0	0	0	0	13	1	10	0	0	0	2	0	0	3	8
OTU 88	0	0	1	0	0	1	0	0	0	0	0	3	0	0	0	0	0	0	0	0	0	0	0	0	1	0	1	0	0	1	0	0	0	0	0	0	0	4	0	0	1	0	0	0	0	0	0	0	3	0
OTU 89	2	0	0	0	0	0	0	0	0	1	0	0	0	0	0	0	0	1	0	0	0	0	0	0	0	0	0	0	0	1	0	2	1	0	0	0	5	0	0	0	1	0	0	0	5	1	0	1	2	0
OTU 90	0	0	0	0	0	0	0	0	0	0	0	0	0	0	0	0	0	0	0	0	0	1	0	0	1	0	0	0	0	0	1	0	0	0	0	3	0	0	0	0	0	0	0	0	0	0	0	0	0	0
OTU 91	0	0	0	0	0	0	0	0	0	2	0	0	0	0	0	0	0	0	0	0	0	38	0	0	0	0	0	0	0	0	0	0	0	0	0	0	0	19	0	0	0	0	0	0	0	0	0	0	0	0
OTU 92	1	0	0	0	0	0	0	0	0	0	0	1	0	0	0	0	2	0	0	0	0	3	0	0	9	0	0	0	1	0	0	0	1	0	0	0	0	0	0	0	0	0	0	1	0	0	0	0	0	1
OTU 93	4	0	0	0	1	1	0	0	0	0	0	0	0	0	0	0	0	0	0	0	0	0	0	0	0	0	1	0	0	0	0	0	0	1	0	0	0	0	0	0	0	0	0	0	1	1	0	0	0	3
OTU 94	3	2	2	0	9	0	0	0	4	4	3	9	2	2	1	0	1	0	0	3	8	6	5	0	3	9	12	0	12	0	5	0	0	0	0	0	2	2	1	0	3	0	5	0	3	1	3	1	0	0
OTU 95	1	0	0	0	0	0	0	0	0	66	33	0	0	0	0	1	0	0	3	0	4	0	0	0	7	1	0	0	0	0	35	0	0	0	0	0	0	1	0	0	0	2	0	0	0	0	0	0	1	0
OTU 96	0	0	0	0	0	0	0	0	0	1	0	0	0	0	0	0	0	0	0	0	0	0	0	0	0	0	0	0	0	0	4	0	7	0	0	0	0	0	1	0	0	0	0	0	0	0	0	0	0	0
OTU 97	0	0	6	0	0	2	0	0	0	0	0	0	0	0	0	0	0	0	1	0	3	0	0	0	0	1	1	0	0	5	0	1	0	0	0	0	0	0	0	0	5	2	0	0	0	0	0	0	2	0
OTU 98	2	0	0	0	0	0	1	0	1	0	0	0	0	0	1	0	0	1	0	0	0	0	0	1	0	0	3	0	0	1	0	6	10	0	1	0	1	1	1	0	1	0	0	0	5	2	0	0	0	0
OTU 99	2	0	0	1	1	1	3	0	4	2	0	1	4	3	0	6	0	5	0	0	4	1	1	0	0	1	12	0	2	0	2	4	10	0	1	3	0	0	2	1	0	0	7	6	0	1	0	2	0	1
OTU 100	0	2	0	0	0	0	15	1	1	0	6	0	1	0	1	0	4	0	0	0	0	1	0	2	1	0	0	0	0	0	1	2	0	3	4	0	1	2	0	0	1	47	0	0	0	0	1	0	1	31
OTU 101	1	0	0	0	0	0	0	0	0	0	0	0	0	0	0	0	3	0	2	0	0	0	0	0	0	0	0	0	0	0	0	0	1	0	0	0	0	0	0	0	0	0	0	0	0	0	0	0	0	0
OTU 102	0	0	0	0	3	1	0	0	0	0	0	0	3	0	0	0	38	0	0	0	1	0	1	0	0	0	0	0	0	0	0	0	0	1	2	0	0	3	0	0	2	0	4	2	4	1	0	0	0	0
OTU 103	0	1	1	1	0	0	0	0	0	7	0	0	1	0	0	0	0	175	0	1	3	1	1	0	0	0	0	2	0	0	0	0	1	0	0	0	0	1	2	0	0	1	1	0	0	0	6	0	1	2
OTU 104	61	1	1	0	18	4	0	0	0	0	1	2	3	1	7	0	3	1	1	3	3	0	0	3	0	3	5	1	24	7	0	0	20	6	41	8	5	2	0	0	1	0	27	1	3	1	5	1	4	0
OTU 105	3	0	0	1	0	0	0	0	1	1	0	0	0	1	0	0	0	0	0	2	0	1	2	0	0	6	3	0	0	1	0	3	0	0	0	0	0	0	0	0	0	0	0	0	0	0	0	0	0	0
OTU 106	0	0	0	0	0	0	0	0	1	0	0	1	3	0	0	0	0	1	0	0	0	0	10	1	0	0	2	7	8	0	0	0	0	0	0	0	0	0	0	0	3	1	2	10	6	0	0	0	0	0
OTU 107	1	0	0	0	0	0	0	0	0	0	0	0	1	0	1	0	0	0	0	0	0	0	0	0	2	0	1	0	1	0	0	0	25	0	0	0	1	0	0	0	0	0	0	1	0	3	0	23	2	0
OTU 108	0	0	0	0	0	0	1	0	0	0	0	0	0	0	0	0	13	0	0	0	1	1	1	0	1	1	0	1	1	0	0	0	0	0	0	0	3	0	1	0	1	5	1	7	7	1	0	1	0	0
OTU 109	0	0	0	0	3	0	0	0	0	0	0	0	0	0	0	0	0	0	0	0	0	0	0	0	0	0	0	0	5	0	0	0	0	0	0	1	0	0	0	1	0	0	1	0	0	3	0	0	0	0
OTU 110	5	0	0	0	1	0	3	0	8	2	1	0	7	0	0	0	1	0	1	5	0	2	1	5	3	0	9	0	1	0	1	4	5	2	2	4	3	0	6	1	1	4	1	3	0	0	0	1	4	2
OTU 111	0	0	0	0	0	0	0	0	0	0	1	0	1	0	0	0	0	0	0	0	0	19	0	0	0	0	0	0	0	0	0	3	0	1	0	0	0	2	0	0	0	0	0	0	0	0	0	0	0	0
OTU 112	1	0	0	3	0	0	0	0	0	1	0	1	10	0	0	0	0	0	0	0	0	0	0	0	0	3	0	5	0	0	0	140	3	0	2	0	0	0	0	0	0	0	0	0	0	1	0	0	2	0
OTU 113	0	0	0	0	0	0	0	0	1	5	0	0	0	0	0	0	0	0	0	0	0	0	0	0	0	0	0	0	0	3	0	0	0	0	0	0	1	1	0	0	1	0	0	0	0	0	1	0	0	0
OTU 114	5	1	0	0	1	2	1	2	5	7	4	3	0	3	4	9	3	4	1	0	17	2	7	0	1	3	8	8	13	1	7	5	9	0	0	0	5	2	2	1	2	0	2	2	4	10	0	0	0	4
OTU 115	1	0	1	0	1	0	4	0	1	14	14	1	1	0	4	12	0	3	1	0	1	1	5	2	0	4	4	3	0	3	2	6	0	4	0	1	2	1	0	0	9	2	0	8	10	5	3	7	0	2
OTU 116	0	1	2	1	6	4	0	0	0	0	9	2	1	1	0	1	1	0	0	0	0	2	1	0	2	0	1	0	2	5	0	8	3	0	6	1	0	7	1	3	0	0	1	2	0	0	0	0	0	0
OTU 117	0	0	0	0	1	0	0	1	2	2	3	0	0	0	2	3	0	0	1	1	0	1	1	8	4	6	0	0	0	0	1	2	1	0	1	3	4	0	1	0	0	0	2	0	2	0	1	0	0	1
OTU 118	0	0	3	0	0	0	0	0	0	0	0	0	0	0	1	0	0	0	0	0	0	1	0	1	0	6	1	0	0	1	0	0	0	0	0	2	0	0	0	0	0	0	0	0	0	0	0	0	0	0
OTU 119	0	0	2	3	0	0	1	0	0	1	0	0	1	0	1	1	10	1	0	0	1	0	0	2	1	3	1	2	3	0	0	3	0	1	4	0	4	5	3	0	1	3	1	2	0	5	0	0	0	1
OTU 120	0	0	0	0	0	4	0	0	0	1	9	0	0	0	3	0	0	0	0	0	5	0	0	0	1	1	0	1	0	0	0	1	3	14	0	0	0	0	5	0	0	0	0	0	0	0	1	0	0	0
OTU 121	0	0	0	0	2	0	2	0	0	2	0	0	0	0	0	0	0	2	0	0	0	0	2	1	0	3	0	1	3	1	0	0	1	0	0	0	2	2	0	1	0	8	0	5	0	0	0	0	0	0
OTU 122	2	0	0	0	0	0	0	0	2	1	5	0	0	1	1	1	0	0	0	0	0	0	4	0	2	1	6	0	3	0	2	0	11	1	1	0	1	0	5	0	2	1	1	12	0	6	0	1	1	0
OTU 123	16	8	3	3	6	4	0	0	3	10	2	6	0	2	8	3	5	0	2	0	21	9	11	5	2	4	12	0	11	5	4	7	7	9	1	3	5	29	26	8	4	3	3	5	15	41	10	10	3	4
OTU 124	0	1	0	0	0	0	0	0	0	1	4	0	0	0	1	0	0	1	0	0	0	0	0	1	0	0	0	0	0	0	0	0	0	0	0	0	0	0	0	0	0	0	0	0	0	6	1	0	0	0
OTU 125	5	0	4	7	0	0	1	0	3	40	3	6	29	7	1	4	22	2	2	0	1	5	4	4	13	1	6	19	4	6	9	0	3	2	5	1	6	4	7	0	0	2	10	7	15	10	5	2	3	1
OTU 126	0	0	0	0	17	0	2	0	0	0	0	0	0	0	0	0	0	0	0	0	0	7	3	0	0	9	2	0	25	0	0	0	0	0	0	0	0	12	0	0	0	3	0	0	0	0	0	0	0	0
OTU 127	0	0	0	0	0	0	0	0	0	1	0	4	3	0	0	0	3	1	60	2	6	0	0	2	0	0	0	0	0	0	0	0	0	3	0	0	0	4	0	0	0	0	8	0	2	0	0	0	1	0
OTU 128	12	3	3	10	16	2	33	17	70	20	5	5	5	14	1	14	16	9	5	2	12	2	1	6	9	7	23	19	12	25	29	7	7	2	2	1	7	8	4	31	18	66	126	1	15	22	3	4	11	39
OTU 129	0	0	0	0	0	0	0	0	0	0	0	0	0	2	0	0	0	0	0	0	0	3	0	1	0	0	0	0	1	0	0	1	0	0	0	0	0	0	2	0	0	0	0	0	0	0	0	0	0	0
OTU 130	0	0	0	0	0	0	0	0	0	0	1	0	6	3	0	0	0	0	0	1	0	2	0	1	1	6	3	0	1	0	1	2	6	0	0	1	2	2	2	0	12	0	1	0	6	3	0	1	0	0
OTU 131	0	0	0	0	0	5	0	0	1	4	5	0	3	0	10	1	0	5	2	0	0	2	3	0	1	9	1	0	2	0	3	1	5	12	0	1	0	2	2	1	5	1	0	2	0	0	0	45	0	0
OTU 132	3	0	0	0	0	134	0	0	0	1	0	0	0	1	1	0	0	0	0	0	0	0	2	1	1	1	0	0	0	0	0	1	0	0	0	0	3	0	0	2	0	0	1	0	5	0	2	0	0	0
OTU 133	1	0	1	0	0	0	0	0	0	0	0	0	0	0	0	0	0	0	0	0	0	4	0	0	0	0	0	0	0	0	0	0	1	0	0	2	0	0	0	0	0	0	0	0	0	0	0	0	0	0
OTU 134	7	0	1	0	1	1	1	1	2	3	0	0	0	0	2	0	0	1	0	1	0	2	1	0	0	0	5	0	2	2	87	6	0	1	0	0	1	0	3	2	0	0	0	2	10	8	0	0	0	4
OTU 135	0	0	0	1	0	0	0	0	4	0	0	0	2	1	1	28	18	2	38	0	0	6	0	0	4	1	5	0	0	5	0	6	7	0	2	0	0	0	47	1	6	3	2	2	3	2	2	3	0	0
OTU 136	0	0	0	0	0	0	0	0	0	0	5	2	1	0	1	0	1	0	0	0	0	0	0	3	0	0	0	2	0	0	0	0	0	2	1	0	3	0	0	1	0	0	3	0	1	0	2	0	0	0
OTU 137	1	0	0	0	0	0	0	1	0	0	1	0	0	0	0	0	0	0	0	0	0	58	0	1	0	0	0	0	0	0	0	0	0	0	0	0	0	0	0	3	0	0	0	0	0	0	0	0	0	3
OTU 138	0	0	0	0	0	0	1	0	0	9	0	0	0	0	0	3	0	0	0	0	1	0	1	0	3	1	0	0	0	1	1	0	0	0	0	0	0	0	0	0	0	0	0	1	0	0	5	3	1	0
OTU 139	5	2	0	0	4	1	3	0	2	6	4	3	2	0	1	6	1	4	0	0	1	1	5	1	16	23	0	5	3	0	1	0	12	0	4	0	3	0	0	8	4	7	9	2	0	0	0	1	0	1
OTU 140	5	0	4	1	0	2	4	2	12	1	1	3	9	4	2	1	0	3	4	9	5	3	14	5	3	14	27	4	8	10	56	7	2	7	5	1	1	3	2	0	6	12	3	25	11	8	19	5	1	2
OTU 141	0	0	0	0	0	0	0	0	0	1	0	0	0	0	0	0	0	0	0	0	0	0	0	0	1	0	0	0	0	0	0	0	0	0	0	0	0	0	0	4	0	0	0	0	0	0	0	0	0	0
OTU 142	0	0	0	0	0	0	0	1	0	0	0	0	0	0	0	0	0	0	0	0	0	0	0	0	0	0	0	0	0	0	0	0	0	0	0	0	0	0	0	0	0	0	3	3	0	0	0	0	0	0
OTU 143	0	1	0	0	0	0	0	1	0	0	1	0	1	0	0	0	1	0	0	0	0	0	0	0	2	0	0	0	0	0	0	0	0	1	0	0	0	0	0	1	1	0	0	0	0	0	0	0	0	0
OTU 144	0	0	0	0	3	0	0	0	0	0	0	0	2	0	0	0	0	0	0	0	0	0	0	0	0	0	0	0	0	0	1	0	0	0	0	0	0	0	1	0	0	0	0	0	0	0	0	0	0	0
OTU 145	2	0	0	0	2	1	1	3	0	4	0	0	2	0	2	0	0	0	1	41	1	4	0	3	0	3	2	0	0	0	0	0	2	3	4	44	2	0	0	3	0	8	1	1	3	0	0	7	73	0
OTU 146	0	0	0	0	0	0	0	0	0	0	0	0	5	1	0	2	3	4	1	3	0	2	5	1	9	3	2	0	0	0	0	7	2	1	0	0	6	3	0	0	3	2	0	8	1	0	1	0	1	0
OTU 147	0	0	0	0	0	0	0	0	0	0	1	5	1	0	0	0	0	0	3	1	4	0	0	0	0	0	0	1	0	0	1	6	0	0	0	0	1	5	0	0	0	0	0	1	2	0	0	0	0	0
OTU 148	2	6	0	0	0	0	0	0	1	0	1	2	3	4	1	1	1	0	2	1	1	6	0	11	6	0	2	0	4	2	0	1	12	1	0	0	2	7	0	1	0	0	4	0	3	0	0	2	2	1
OTU 149	0	1	1	0	0	0	0	0	0	0	1	2	14	0	0	0	1	0	0	0	1	1	0	0	2	0	0	0	0	0	0	0	0	1	0	0	0	0	0	0	0	0	0	0	2	0	1	0	0	0
OTU 150	0	0	0	1	0	0	0	0	0	0	0	0	0	0	0	0	0	1	0	0	0	0	1	0	0	5	0	3	0	0	0	0	0	0	0	0	0	0	3	0	0	0	0	2	3	3	0	10	1	0
OTU 151	0	1	1	0	41	0	0	1	74	0	0	0	1	0	0	2	0	0	1	0	0	0	0	0	6	0	1	2	66	0	0	1	0	0	0	8	0	0	0	3	0	2	5	6	0	0	0	0	0	3
OTU 152	0	0	0	1	1	1	0	1	2	2	3	3	2	111	0	2	0	1	1	2	6	0	1	0	8	7	3	2	0	0	4	0	0	1	3	0	0	10	0	1	0	0	0	2	6	3	0	1	0	2
OTU 153	0	0	0	0	0	0	0	0	0	0	0	2	0	1	0	0	0	1	0	0	0	0	0	0	0	0	0	0	0	0	0	0	0	0	0	0	1	0	0	0	0	0	0	0	0	1	0	0	0	0
OTU 154	0	0	0	0	0	0	0	0	0	3	0	0	0	0	0	0	0	0	3	0	0	0	0	17	0	0	1	0	0	0	0	0	0	0	0	2	0	0	0	0	0	0	0	0	0	1	0	1	0	0
OTU 155	0	0	0	0	0	0	0	0	0	1	0	0	0	0	0	3	60	0	0	0	0	1	0	2	4	0	0	0	0	0	0	0	0	0	0	0	0	0	0	0	1	0	0	1	0	0	0	0	3	3
OTU 156	1	2	1	5	0	0	0	0	0	11	0	6	3	0	0	2	2	3	2	3	3	0	2	6	2	7	2	5	3	3	3	2	0	1	3	3	7	4	1	0	4	0	0	1	2	2	0	0	1	0
OTU 157	0	0	0	0	1	0	0	0	0	0	2	1	2	0	0	0	0	0	4	1	0	1	5	0	0	7	0	0	0	0	0	3	2	0	2	0	4	0	0	0	0	0	0	2	0	0	0	0	1	0
OTU 158	0	0	0	0	0	0	0	0	0	0	0	0	3	0	0	0	3	0	0	0	0	0	0	0	0	0	0	0	0	0	0	0	0	0	0	0	0	0	0	0	0	0	0	1	0	0	0	1	0	0
OTU 159	0	5	0	0	0	1	0	0	0	0	1	0	0	0	0	0	2	0	0	1	2	0	0	5	0	6	0	0	1	2	0	0	5	4	1	0	17	4	0	0	0	0	2	0	2	3	0	40	0	0
OTU 160	6	1	2	2	4	1	1	0	7	4	8	4	10	0	2	10	8	2	13	1	7	0	7	12	1	5	5	0	0	4	0	5	5	2	1	1	11	1	2	0	2	0	1	5	2	1	4	4	4	0
OTU 161	0	0	4	0	2	0	1	0	1	0	1	0	0	2	0	3	0	2	0	0	0	1	0	0	1	0	2	0	0	3	1	4	0	1	1	0	1	0	0	1	1	3	0	4	0	0	0	12	0	7
OTU 162	0	0	0	2	0	2	4	0	3	1	10	0	5	1	0	0	0	0	0	0	3	0	2	1	2	6	5	1	0	0	0	5	0	3	0	5	0	0	0	1	1	0	1	0	0	1	1	6	1	0
OTU 163	0	0	0	0	100	0	0	1	0	0	0	0	1	0	0	0	0	0	0	0	0	0	0	0	0	0	0	0	0	0	0	0	0	0	0	0	0	1	0	2	0	0	0	0	0	0	0	0	0	0
OTU 164	0	0	0	0	0	0	0	0	0	0	0	0	0	0	0	10	0	0	0	0	0	0	1	0	1	0	0	0	0	0	0	0	0	4	0	0	0	0	0	0	0	1	0	0	0	0	0	0	0	0
OTU 165	1	0	0	0	0	0	0	0	1	4	0	5	0	0	1	0	7	0	0	0	0	1	0	0	0	1	1	0	0	0	1	0	0	0	0	0	6	1	1	3	0	0	1	1	0	0	0	2	0	0
OTU 166	9	0	0	0	0	0	0	0	0	0	0	0	0	0	0	0	0	0	0	0	0	0	0	0	0	0	1	0	0	0	0	0	0	0	0	0	0	0	0	0	0	0	0	0	0	0	0	0	0	0
OTU 167	0	2	0	0	0	0	1	0	1	0	0	0	0	0	0	2	0	0	0	0	0	0	1	0	0	0	3	2	2	0	1	1	0	0	2	0	1	1	0	0	1	0	1	0	0	0	5	0	0	0
OTU 168	9	0	2	0	0	0	1	0	0	1	0	0	2	0	0	0	0	0	1	1	0	1	0	5	0	3	0	0	0	0	1	0	0	0	2	0	2	0	0	1	0	0	0	0	1	0	1	0	7	0
OTU 169	0	0	0	0	0	0	0	0	0	0	0	2	0	0	0	0	0	0	0	0	2	0	0	0	0	0	0	1	0	0	0	0	0	0	0	0	0	0	0	0	0	0	0	0	0	0	0	0	0	0
OTU 170	0	0	0	0	2	0	0	0	0	0	1	0	0	0	0	0	0	0	0	0	0	0	0	0	0	0	0	0	7	0	0	0	0	0	0	0	0	0	0	0	0	0	3	0	0	0	0	0	0	0
OTU 171	2	0	1	0	1	1	2	0	0	2	0	0	0	0	0	2	0	0	10	0	4	1	2	13	0	1	1	1	2	1	1	0	1	1	0	1	3	0	0	0	0	0	2	2	0	0	1	0	0	1
OTU 172	0	0	0	0	0	2	0	0	4	0	4	0	0	0	0	0	0	1	0	0	3	0	6	0	0	0	9	0	0	0	0	8	0	3	0	0	0	0	0	0	0	0	0	0	0	0	0	0	3	0
OTU 173	0	0	0	0	0	0	0	0	1	0	0	0	0	1	0	0	1	0	0	0	0	0	0	0	0	1	0	1	0	0	0	0	0	0	4	1	7	0	0	0	0	0	0	0	0	0	0	5	0	0
OTU 174	0	4	0	0	0	1	0	0	0	0	0	2	0	0	0	1	0	0	0	10	4	0	0	3	7	0	0	0	0	0	0	2	2	0	0	10	3	1	0	1	0	0	0	1	3	0	0	14	6	0
OTU 175	2	0	0	0	0	0	0	1	0	0	4	0	3	0	0	0	0	0	0	0	0	0	0	0	0	2	0	0	0	0	0	1	4	3	3	0	0	0	0	0	0	0	0	1	0	0	1	0	0	0
OTU 176	1	3	0	3	0	2	0	1	0	4	1	2	3	0	4	5	9	1	2	1	10	2	2	2	7	4	6	5	0	1	0	0	3	2	1	1	3	3	0	4	0	0	0	2	1	1	0	4	2	1
OTU 177	2	2	0	0	2	1	0	1	3	0	3	6	2	1	3	0	1	0	0	3	2	0	5	0	1	2	1	1	2	0	0	0	0	1	1	9	1	1	0	0	1	0	2	0	1	0	4	0	2	0
OTU 178	2	0	0	0	0	0	0	18	0	0	0	0	3	0	0	2	1	2	0	0	0	4	0	1	3	1	0	0	1	5	0	0	0	0	3	1	0	1	0	31	0	0	1	1	1	0	1	0	0	0
OTU 179	0	0	0	0	0	0	0	2	0	0	0	0	0	0	0	5	4	0	0	0	0	0	0	0	0	0	0	0	0	0	0	0	0	1	0	0	2	0	0	0	0	1	0	1	0	1	0	5	0	0
OTU 180	0	6	0	3	12	1	10	5	3	3	7	1	2	2	0	8	4	5	3	1	2	6	1	0	1	9	2	12	11	2	0	1	1	1	3	1	4	0	4	4	3	16	0	5	4	1	13	7	0	3
OTU 181	0	3	0	0	1	0	100	0	0	2	0	5	0	0	0	0	0	0	0	0	2	2	0	0	1	0	0	0	6	0	3	0	0	1	1	0	2	0	0	1	1	2	0	6	3	0	0	1	0	0
OTU 182	0	0	0	0	0	0	0	0	0	0	0	0	0	0	0	0	0	0	0	0	0	0	0	0	0	0	1	0	0	0	0	0	0	0	0	0	0	0	0	0	0	0	1	0	0	0	0	0	0	0
OTU 183	0	3	0	0	0	1	0	0	2	15	0	5	0	2	0	0	0	2	5	0	5	19	2	2	1	0	1	0	0	1	5	3	7	1	0	3	0	0	0	0	0	0	0	1	0	1	0	12	2	2
OTU 184	1	0	0	0	2	0	0	0	1	0	5	0	0	0	0	0	1	0	0	0	0	0	0	1	0	0	0	0	0	0	2	0	0	0	1	0	4	0	0	1	0	1	0	0	0	0	0	3	1	1
OTU 185	2	2	1	0	1	3	0	1	22	2	4	1	0	34	0	1	0	29	27	2	6	0	1	0	4	4	0	0	0	2	2	0	4	0	1	0	2	2	0	5	72	0	0	7	4	1	0	3	2	3
OTU 186	1	0	0	1	0	0	0	0	0	0	0	6	0	0	0	74	0	0	0	2	3	0	0	0	0	0	0	4	0	0	0	0	0	0	0	0	0	0	0	0	0	0	1	0	0	1	0	0	0	0
OTU 187	2	0	3	1	5	1	1	1	0	1	3	0	2	0	0	0	0	0	5	7	2	6	0	0	5	1	2	2	1	4	1	1	5	0	1	1	1	3	2	4	0	1	1	5	7	4	8	1	0	10
OTU 188	1	1	2	1	0	0	1	1	1	0	9	3	1	1	0	12	2	0	0	5	0	0	2	2	3	0	3	5	1	1	0	3	0	1	1	1	4	6	0	2	3	3	3	0	3	0	0	0	4	152
OTU 189	0	1	1	3	0	1	1	0	0	2	18	0	0	2	2	5	0	1	3	0	7	38	0	2	1	0	0	2	1	0	6	1	3	1	4	2	2	0	0	2	2	2	0	1	0	1	7	2	0	0
OTU 190	0	0	1	0	0	0	0	0	0	0	2	0	24	0	0	3	0	0	2	21	0	0	0	0	0	0	0	0	2	0	0	0	0	1	0	16	0	0	1	0	0	0	2	2	0	0	0	11	30	0
OTU 191	4	3	0	0	0	1	4	1	3	0	0	1	0	0	1	1	2	0	0	0	3	5	1	1	1	0	3	1	4	0	0	2	1	6	0	1	4	0	0	3	1	1	5	2	11	0	21	2	1	0
OTU 192	1	6	1	0	2	1	2	0	1	1	0	9	1	0	0	25	0	0	19	0	5	1	10	0	1	1	6	1	2	2	0	3	0	1	3	1	0	1	3	0	1	2	2	10	0	8	4	4	5	1
OTU 193	0	0	0	2	0	1	1	0	1	1	3	0	0	1	0	1	5	1	0	0	0	0	0	7	4	0	1	9	1	0	0	3	2	2	1	2	3	0	0	0	0	0	0	0	0	2	0	0	3	0
OTU 194	1	0	0	1	2	0	0	0	1	0	0	0	1	1	0	0	0	0	1	0	0	0	0	2	4	0	2	0	0	0	0	1	2	0	0	1	0	0	0	0	0	0	0	0	0	1	0	0	0	0
OTU 195	0	1	0	1	1	1	1	0	0	0	2	4	3	0	0	1	0	0	1	0	0	0	1	1	3	3	0	3	1	0	0	2	4	0	0	0	1	0	0	0	1	0	0	0	5	2	5	2	0	1
OTU 196	1	0	0	2	0	0	0	0	0	0	1	1	11	0	0	0	1	0	1	0	1	9	7	0	2	0	2	3	0	0	0	2	0	0	0	1	2	1	0	0	0	0	1	2	3	1	0	5	3	2
OTU 197	27	0	8	119	3	0	1	0	1	5	1	0	5	0	1	0	1	2	1	0	10	0	3	4	9	5	4	3	2	6	8	8	1	5	19	0	2	1	1	1	0	3	0	6	4	3	4	0	3	1
OTU 198	3	0	0	0	6	0	2	0	0	0	0	0	0	0	0	0	0	0	0	0	0	0	0	0	5	2	2	0	3	0	0	0	0	0	0	0	0	0	0	0	0	0	1	0	1	0	0	0	0	3
OTU 199	0	0	0	4	2	0	0	0	0	0	0	0	0	0	0	1	0	1	0	0	2	0	1	0	7	0	0	4	0	0	0	0	0	0	0	2	2	0	0	0	2	0	1	0	0	0	4	0	0	0
OTU 200	1	2	0	1	3	2	0	0	0	0	1	0	1	1	0	0	0	0	6	0	2	2	0	0	2	1	2	2	2	0	3	0	1	1	1	2	2	1	0	1	0	0	0	1	1	3	1	0	1	2
