	Host 1	Host 2	Host 3	Host 4	Host 5	Host 6	Host 7	Host 8	Host 9	Host 10	Host 11	Host 12	Host 13	Host 14	Host 15	Host 16	Host 17	Host 18	Host 19	Host 20	Host 21	Host 22	Host 23	Host 24	Host 25	Host 26	Host 27	Host 28	Host 29	Host 30	Host 31	Host 32	Host 33	Host 34	Host 35	Host 36	Host 37	Host 38	Host 39	Host 40	Host 41	Host 42	Host 43	Host 44	Host 45	Host 46	Host 47	Host 48	Host 49	Host 50	
OTU 1	18	0	68	75	10	47	2	0	31	26	0	2	2	73	38	48	6	96	28	8	23	0	22	0	4	0	54	126	16	66	19	96	16	82	6	61	0	5	0	25	112	1	33	8	0	0	31	7	52	1
OTU 2	186	0	5	53	35	0	0	12	0	0	0	0	0	3	2	7	34	0	72	74	1	0	0	929	59	48	74	0	54	0	0	4	140	0	0	183	0	5	9	0	0	0	64	6	136	6	0	12	449	0
OTU 3	0	0	2	7	0	0	8	10	8	0	8	0	1	3	0	23	4	0	28	2	4	0	0	87	0	6	12	22	1	0	1	0	1	0	36	0	0	35	11	4	2	25	1	0	0	0	31	0	40	0
OTU 4	0	0	0	0	0	0	0	0	0	0	0	0	0	0	0	0	0	0	0	0	0	0	0	0	0	0	0	0	0	0	0	0	0	0	0	0	0	1	0	0	0	0	0	0	0	0	0	0	0	0
OTU 5	370	3	107	40	192	138	39	89	124	257	443	0	1282	291	3	460	629	212	349	129	0	177	227	184	0	43	1	38	615	69	334	11	98	30	321	117	0	200	287	514	329	75	44	0	0	863	444	2	218	55
OTU 6	73	25	112	26	43	1	12	133	16	5	9	75	7	13	1	17	2	2	4	184	59	24	185	0	6	63	23	1	81	170	16	63	73	2	9	223	30	1	12	1	15	48	9	53	0	152	15	0	342	4
OTU 7	201	156	4	61	51	27	266	167	26	14	61	26	145	9	20	43	421	1	97	14	33	34	14	38	24	77	40	64	40	20	36	41	236	60	439	20	1215	61	38	38	8	527	133	49	161	18	92	28	21	215
OTU 8	83	5	13	2	34	10	27	39	2	58	118	52	89	22	9	13	3	30	17	20	19	96	25	111	113	19	49	16	10	10	11	52	200	8	1939	6	104	24	2185	23	3	42	41	60	61	2	28	78	16	40
OTU 9	3	26	1	4	2	0	5	5	38	37	11	59	0	18	3	0	25	29	9	13	128	31	1	50	13	14	4	9	50	7	36	22	1	2	5	0	14	4	0	19	24	1	38	1	10	149	1	7	0	2
OTU 10	3	2	0	3	1	1	196	62	7	33	3	5	3	2	4	9	84	3	109	10	16	50	9	25	463	0	0	1	6	0	2	0	1	2	372	1	2	3	0	2	0	384	0	0	0	0	32	20	2	140
OTU 11	35	13	0	58	0	934	8	93	31	23	17	17	49	3	57	16	53	10	13	3	33	57	18	7	57	6	40	80	50	1	9	8	8	62	18	10	50	41	56	9	0	12	14	75	194	51	44	32	2	24
OTU 12	6	16	4481	19	24	7	26	139	77	46	53	50	3	7	0	12	48	3	84	11	27	28	5	3	2	44	21	73	28	8	18	26	87	20	106	14	19	22	63	3	8	22	20	36	33	146	46	84	24	3
OTU 13	0	0	0	0	0	0	0	0	0	0	2	0	5	0	3	0	0	3	0	0	0	0	0	0	143	0	0	0	15	0	0	0	1	0	76	0	0	0	12	0	16	0	44	0	0	0	0	0	0	0
OTU 14	11	38	0	0	4	9	79	1	0	15	0	50	1	2	14	0	0	0	4	10	88	87	23	3	26	3	2	49	7	3	12	0	1	20	27	13	16	0	1	0	0	137	2	83	0	1	8	27	8	16
OTU 15	1	0	0	0	5	28	116	1	0	0	1	0	0	0	18	0	0	0	0	0	0	0	0	0	0	0	0	6	0	0	0	3	0	41	7	0	0	0	0	25	1	260	3	8	1	0	0	6	0	129
OTU 16	0	0	0	0	0	7	0	0	0	0	0	0	0	0	24	0	0	0	0	0	0	0	0	0	0	0	1	0	0	0	0	0	0	14	0	0	0	0	0	0	0	0	0	1	0	0	0	0	0	0
OTU 17	8	0	0	21	1	6	8	9	0	0	8	0	23	0	1	3	10	3	24	34	2	1	0	0	224	94	75	1	0	12	5	15	72	15	10	96	8	0	4	24	11	18	13	17	11	1	0	103	60	32
OTU 18	26	0	8	32	68	19	6	38	0	96	62	4	2	61	31	45	44	15	16	8	9	13	18	53	4	161	36	13	84	44	8	7	11	45	3	42	94	2876	61	16	24	7	20	104	82	36	25	33	12	1
OTU 19	0	0	0	0	0	0	0	0	0	0	0	0	0	0	0	0	0	0	0	0	0	0	0	0	0	0	0	0	0	0	0	0	0	0	2	0	0	0	0	3	0	0	0	0	0	0	0	0	0	0
OTU 20	8	9	11	2	18	12	11	71	2	19	134	11	13	1	10	0	0	5	60	10	12	30	30	0	8	101	13	13	41	1	242	62	25	21	2	78	41	10	6	2	0	3	57	15	30	25	116	15	28	3
OTU 21	14	18	25	34	0	5	2	20	0	14	0	40	117	2	7	3	87	2	735	31	132	17	0	31	42	16	40	156	16	16	15	10	96	14	15	47	32	13	58	18	8	3	23	15	88	16	0	2	90	6
OTU 22	23	0	5	0	63	20	4	41	3	16	53	47	33	1	22	36	40	11	27	0	15	323	43	0	10	122	10	223	88	39	20	13	23	52	0	20	36	95	13	19	10	13	51	0	12	32	26	10	24	12
OTU 23	0	1	11	1	0	1456	22	84	12	27	67	2	50	3	1482	17	3	19	29	5	3	23	33	0	28	110	4	4	7	1	4	6	0	3049	1	15	156	6	12	2	32	28	0	306	0	7	28	1	5	1
OTU 24	13	69	0	4	1	0	0	0	0	0	3	187	58	9	5	0	3	4	9	0	533	12	5	5	6	8	52	49	19	0	0	2	7	1	0	2	52	0	0	6	72	0	10	6	0	1	7	0	7	15
OTU 25	0	0	0	6	0	0	0	0	7	0	6	2	0	0	0	13	0	0	0	0	0	0	0	0	0	0	0	1	0	1	32	0	0	6	53	0	0	0	0	0	0	0	0	0	0	0	0	0	0	0
OTU 26	12	0	11	0	0	0	0	0	15	9	0	3	1	0	1	0	0	0	1	0	0	63	0	0	0	46	0	0	0	0	10	0	0	0	393	0	0	0	0	0	0	0	7	35	1	0	0	89	0	1
OTU 27	0	5	0	0	0	0	0	0	0	0	0	2	0	0	0	0	0	0	0	22	1	8	13	0	0	0	0	0	0	1	0	6	0	0	0	55	0	0	15	0	0	1	0	4	0	0	0	0	20	0
OTU 28	76	5	26	18	43	10	80	32	3	10	7	22	195	3	65	14	30	1	34	30	16	0	38	35	226	286	52	62	20	127	19	35	14	24	141	21	21	24	15	0	3	169	4	69	31	8	83	148	2	95
OTU 29	33	37	4	44	1	26	14	25	25	47	87	68	57	5	35	45	37	8	39	5	31	82	128	16	3	7	207	2	1	32	12	28	121	41	2	36	128	38	3	16	30	9	48	31	33	12	23	9	13	32
OTU 30	0	0	0	0	0	0	0	0	0	0	0	0	0	2	0	0	0	0	0	0	0	0	0	0	0	0	0	0	0	0	0	0	0	0	0	0	24	0	0	0	0	0	0	0	0	0	0	0	2	3
OTU 31	2	43	3	1	0	0	21	2	0	2	0	119	0	3	3	4	6	20	14	1	300	22	15	5	1	0	90	3	3	41	14	97	13	1	8	14	12	25	14	0	25	24	10	0	2	2	1	19	1	1
OTU 32	143	4	291	18	5	14	29	90	15	4	94	18	18	220	15	22	9	280	25	31	85	286	397	20	11	134	1085	267	16	578	65	444	99	19	20	5	160	117	376	39	645	84	9	73	355	675	8	206	16	37
OTU 33	0	0	0	0	0	0	0	0	1	0	0	7	0	3	0	0	5	0	1	0	0	0	4	1	3	0	4	0	0	0	1	0	0	0	0	0	0	0	0	0	0	1	0	0	0	0	0	0	0	0
OTU 34	41	18	1	139	43	19	33	11	33	82	80	14	23	0	22	35	38	5	3	10	30	3	13	4	11	0	6	42	86	2	24	10	22	28	53	83	54	74	0	43	4	29	29	69	2	11	2	5	77	51
OTU 35	9	70	8	2	0	14	5	0	6	5	0	285	2	6	6	32	1	1	55	60	448	8	11	198	2	7	19	2	12	7	2	0	859	25	9	37	44	30	259	44	60	5	1	37	31	332	88	38	68	0
OTU 36	0	9	5	2	47	0	21	191	17	29	23	31	15	0	3	14	0	9	1	868	14	16	9	4	100	104	30	76	44	7	4	2	29	0	7	22	111	1	109	2	29	21	1	0	7	48	1	31	47	32
OTU 37	168	0	0	133	10	0	0	0	0	0	0	1	1	17	0	0	0	0	2	0	0	2	0	0	102	90	9	0	8	3	0	6	0	0	0	0	0	0	0	0	27	0	1519	13	2	0	60	0	0	0
OTU 38	18	6	17	15	0	1	7	93	166	4	21	13	4	0	0	47	48	2	11	7	37	81	2	4	2	88	0	217	8	11	1	2	48	1	25	8	1	17	1	25	7	31	7	262	85	2	29	28	18	52
OTU 39	2	3	1	0	7	2	4	0	0	0	11	8	0	0	5	20	0	0	1	0	8	4	1	0	14	0	14	5	4	2	0	34	13	3	8	0	0	10	0	1	6	6	0	0	7	10	0	100	0	0
OTU 40	17	73	6	0	13	9	38	64	58	56	10	153	53	15	13	19	97	4	3	11	243	39	5	0	284	37	15	376	4	1	1	26	70	8	12	5	79	69	504	27	8	99	48	7	122	1217	209	0	8	52
OTU 41	8	0	23	25	0	29	0	27	25	140	53	5	138	30	38	27	29	14	109	30	42	2	13	0	4	5	3	55	11	16	64	15	1	71	82	1	127	9	5	118	27	1	1	44	28	3	87	0	11	38
OTU 42	4	0	0	324	2	2	26	0	0	0	0	0	0	0	0	136	1	4	0	0	5	0	22	0	24	0	0	48	24	11	0	2	0	3	10	0	0	0	0	23	1	40	0	1	51	0	3	0	0	2
OTU 43	0	0	0	0	0	0	2658	0	0	0	0	0	0	0	0	0	0	0	0	0	0	0	0	0	0	3	0	0	0	0	0	2	0	0	0	0	0	0	0	0	0	0	17	0	0	0	0	32	0	0
OTU 44	28	12	1	45	5	20	0	5	0	0	178	9	0	0	18	0	3	0	0	1	27	0	0	0	1	0	0	79	39	3	14	0	1	51	7	1	0	0	0	37	2	0	0	0	0	56	3161	0	0	2
OTU 45	11	25	1	67	84	11	5	1	13	26	0	31	26	1	10	60	73	1	14	10	14	31	31	13	43	5	10	71	141	7	32	12	62	27	14	4	27	24	48	9	0	13	75	55	43	66	15	64	22	30
OTU 46	536	175	9	389	39	27	2	107	0	51	32	1	91	0	38	118	8	35	80	1	1	68	7	31	86	283	24	88	16	13	5	20	21	59	5	9	2	46	19	36	21	15	22	17	1288	55	10	474	2	117
OTU 47	0	3	0	0	0	14	13	41	0	0	0	0	0	1	3	0	4	0	0	0	3	15	0	5	0	5	0	0	0	0	0	0	1	15	7	1	9	0	1	0	2	12	0	0	0	4	33	0	0	4
OTU 48	168	6	4	78	44	0	8	27	7	77	13	11	49	42	27	5	3	3	32	25	10	78	0	28	57	317	80	159	26	1	14	91	11	0	128	41	6	40	5	60	30	16	29	300	21	112	84	24	76	3
OTU 49	15	0	0	6	76	0	0	57	0	12	3	3	2	0	0	0	8	5	0	1	0	31	32	2593	3	10	44	188	67	0	9	27	94	0	0	18	15	2	18	47	0	3	55	21	27	114	0	17	0	28
OTU 50	82	93	13	251	1	10	7	36	49	70	103	74	38	11	17	44	26	8	0	43	176	4	43	183	137	66	48	94	19	41	50	59	26	23	45	72	5	11	31	10	14	10	0	170	10	12	30	18	145	19
OTU 51	4	5	9	0	13	14	151	17	0	3	22	36	5	17	0	9	29	0	2	0	4	2	35	4	66	80	58	1	0	6	1	9	36	40	332	0	129	0	0	39	27	279	1	35	27	38	96	22	6	123
OTU 52	38	62	25	2	1294	34	25	14	1	55	53	138	116	62	48	0	35	2	69	28	318	177	1432	82	120	126	110	114	12	13	28	40	60	63	90	30	89	162	6	45	19	75	17	246	41	63	22	83	32	63
OTU 53	0	0	0	0	0	0	0	0	0	0	1	0	0	0	0	0	0	0	0	0	0	0	0	0	0	6	0	2	0	2	0	0	0	0	0	0	0	0	0	0	0	0	0	0	0	1	1	0	0	0
OTU 54	13	11	26	167	66	22	18	64	53	28	46	8	123	3	77	54	128	8	13	22	29	38	51	17	23	0	22	46	141	21	40	129	24	48	43	29	65	117	24	133	56	24	46	109	98	77	2	209	179	30
OTU 55	0	0	0	0	0	0	1	0	0	0	0	0	0	0	0	0	0	0	0	0	0	0	0	0	0	0	0	0	0	0	0	0	4	0	0	0	0	0	0	1	0	1	0	0	0	0	3	0	0	0
OTU 56	1	0	0	18	21	20	2	15	6	7	10	0	0	6	2	3	9	25	1	2	8	24	0	9	47	14	11	0	5	0	54	0	28	31	0	0	3	41	15	0	41	2	0	284	70	4	53	4	0	0
OTU 57	192	33	2	77	4	11	26	17	24	40	111	61	261	26	13	231	30	19	91	42	48	90	1359	44	169	107	34	317	86	24	38	74	63	19	36	145	92	26	61	2871	4	58	30	39	214	14	145	58	77	25
OTU 58	3	20	5	4	10	9	25	18	2	22	28	37	12	10	14	3	5	2	0	0	122	63	0	0	152	1	13	27	1	0	0	4	169	22	13	13	2	13	52	51	16	50	15	0	72	8	42	22	0	9
OTU 59	11	0	15	1	4	2	0	1	35	14	0	0	0	0	7	0	12	15	3	0	6	9	24	2	72	0	3	121	3	53	1	35	3	3	19	1	164	0	2	4	0	0	18	84	0	0	91	1	9	37
OTU 60	2	34	21	16	24	13	95	165	61	22	0	67	145	15	17	17	86	5	53	2	188	8	0	40	70	264	20	4	8	50	18	76	17	14	15	18	34	9	79	108	4	231	8	7	267	0	32	20	7	23
OTU 61	150	48	391	164	72	24	11	56	40	107	93	45	27	548	24	28	17	474	126	0	217	0	9	38	16	29	181	49	96	624	197	20	10	45	155	36	154	0	10	45	976	18	131	74	71	50	42	9	3	80
OTU 62	0	18	0	17	0	1	0	10	11	39	0	1	0	0	2	3	0	1	0	121	8	35	0	0	3	46	0	15	1	1	0	0	13	3	0	35	10	19	7	1	0	5	19	47	6	0	16	41	24	1
OTU 63	16	5	9	0	48	0	0	0	0	0	1	19	27	2	4657	2	72	0	0	0	2	100	0	34	39	1	1	5	24	26	18	349	2	0	9	0	21	423	0	0	3	1	5	1	1	11	11	14	1	5
OTU 64	75	2349	31	65	24	68	46	121	28	7	21	4493	58	0	48	90	94	31	99	53	105	30	40	81	66	100	5	15	47	37	12	7	135	139	32	21	176	155	947	204	53	23	7	374	264	115	59	292	39	55
OTU 65	23	0	0	15	0	0	0	0	0	0	0	0	0	0	0	0	0	3	44	0	2	0	0	0	0	0	0	5	1	0	0	0	355	0	0	0	0	0	0	0	1	0	0	0	0	0	0	0	0	0
OTU 66	31	46	1	66	5	41	14	86	7	27	7	32	19	1	46	54	3	17	24	1	103	35	2	43	42	8	32	8	25	26	3	14	55	111	10	11	249	34	49	101	27	26	57	16	7	30	15	62	62	3
OTU 67	33	0	0	4	1	24	29	3	25	74	1367	6	91	0	25	26	25	0	3	3	4	33	0	3	4	26	0	66	95	6	32	0	18	45	37	48	42	60	31	25	12	66	12	13	9	0	1	3	45	24
OTU 68	49	0	6	0	0	5	0	0	1	0	27	2	0	0	0	27	10	4	19	997	1	0	2	28	54	0	0	0	16	7	16	1	1	9	5	856	15	0	75	0	12	0	23	0	77	0	0	2	2093	5
OTU 69	9	0	9	13	0	916	5	51	66	24	16	0	112	29	860	26	1	11	9	65	27	12	5	13	28	81	48	52	1	8	5	53	0	1786	86	4	276	244	9	17	55	14	18	212	106	82	36	139	6	0
OTU 70	5	7	0	0	63	0	1	14	1	37	13	5	20	6	10	7	60	0	0	13	2	0	0	6	0	21	15	136	72	2	33	0	3	0	0	10	2	2	1	0	1	3	12	19	3	1	13	5	0	0
OTU 71	11	23	0	46	1	7	0	68	26	2	4	52	0	2	6	414	0	50	11	8	47	0	17	0	79	0	30	23	1	6	10	3	56	14	19	2	27	2	5	28	1	0	61	22	1	0	2	31	2	5
OTU 72	116	19	7	0	29	5	14	43	20	6	2	14	0	654	13	54	197	563	15	7	2	34	35	15	31	119	243	5	47	4	5	1	3	5	110	14	102	61	1	9	1739	7	0	4	18	105	44	107	22	25
OTU 73	64	0	153	38	7	0	5	27	0	29	0	9	50	8	4	1	48	0	7	1	2	3	37	13	171	47	1	3	1	1	4	9	39	0	23	14	7	13	73	0	1	8	2	0	108	0	4	0	4	95
OTU 74	15	0	66	7	29	20	25	33	2	5	76	0	45	1162	1	7	0	26	4	38	10	40	19	17	231	235	34	16	51	80	6	50	63	32	0	85	413	29	0	1	3	40	0	21	3	158	31	130	33	28
OTU 75	53	54	7	72	7	24	9	103	2	13	32	52	71	19	33	42	30	17	0	20	160	0	893	117	575	11	136	132	42	24	7	65	9	46	57	68	184	57	48	41	10	4	16	45	23	101	4	36	5	2
OTU 76	0	2	8	54	0	0	0	15	7	5	0	1	0	5	1	0	0	0	27	0	1	0	2	84	12	18	0	2	3	0	7	0	135	0	6	10	28	21	1	0	7	0	10	371	1	34	0	26	1	0
OTU 77	36	4	2	89	46	10	6	30	28	36	1	66	7	11	38	34	3	24	42	43	141	79	24	4	2	1	16	1650	35	26	1	24	18	21	45	0	82	20	9	68	17	5	9	76	0	30	25	120	11	2
OTU 78	25	29	2	207	48	5	2	125	179	900	54	30	86	18	1	68	67	3	264	20	6	1	1	1	14	1	11	80	95	4	369	6	40	9	3	0	35	9	3	287	28	0	17	1	75	4	1	7	4	37
OTU 79	214	46	45	66	72	3	115	723	980	83	75	43	328	688	3	84	171	684	278	3192	106	78	367	113	257	116	322	53	90	78	63	127	155	12	59	59	62	146	102	647	1114	179	13	44	138	79	134	131	57	59
OTU 80	71	136	1975	2	32	4	5	26	37	111	12	199	52	13	16	10	58	39	56	16	174	3	193	41	56	44	178	0	102	4563	68	112	4	3	29	43	7	34	197	6	15	16	104	62	115	218	15	50	22	1
OTU 81	16	4373	22	15	28	18	30	0	76	201	48	125	32	21	15	11	14	288	13	50	318	81	57	95	55	15	285	146	166	77	187	61	31	40	44	3831	112	45	112	2	26	38	52	9	275	89	122	21	1	17
OTU 82	115	2	3	65	1	0	158	61	1168	0	0	50	0	1	0	3	9	16	146	0	119	26	0	3	13	46	10	4	45	1	56	1	1	0	0	12	63	8	2	2	32	332	17	103	0	4	10	18	26	102
OTU 83	0	0	0	4	67	10	4	3	4	0	0	6	0	0	16	20	0	0	0	0	0	0	42	22	1	0	68	0	100	0	0	26	47	13	0	0	0	6	26	3	0	25	59	1	16	11	5	0	0	0
OTU 84	29	12	1	1	8	391	37	31	1	57	909	40	1	9	351	1	4	28	13	14	36	8	7	8	1	106	82	17	22	0	3	95	4	723	14	7	61	2	1	30	6	82	21	11	14	6	83	17	8	2
OTU 85	8	3	0	0	7	0	0	0	0	0	12	0	126	10	4	0	0	0	56	11	11	5	2	63	2	0	6	0	0	0	1	0	0	2	0	12	6	0	0	1	5	0	0	420	20	32	47	23	0	5
OTU 86	0	0	0	0	0	0	0	0	0	0	3	0	0	0	1	36	1	0	0	0	0	0	0	0	0	0	0	0	0	0	1	0	0	0	0	0	0	0	0	0	0	0	0	0	0	0	0	0	0	0
OTU 87	2	0	1	0	35	4	187	16	0	0	79	4	0	0	1	11	2	0	0	0	70	13	20	2	3	12	0	1	0	12	0	0	4	8	740	11	5	2	0	299	0	342	0	0	4	5	0	3	41	194
OTU 88	0	9	28	27	0	2	0	0	0	0	0	18	0	4	0	0	0	0	0	9	0	0	0	0	0	10	3	0	0	19	0	0	17	5	2	2	0	79	0	0	17	0	1	6	0	0	0	0	25	2
OTU 89	41	7	0	1	0	0	8	24	29	31	1	0	11	1	0	0	0	5	0	12	0	0	2	0	25	1	13	0	23	11	1	0	16	0	0	5	31	19	9	0	0	2	3	8	54	65	4	13	32	0
OTU 90	0	0	0	0	1	0	0	0	5	11	0	0	0	0	0	12	0	0	0	0	0	27	0	0	0	0	8	0	0	2	14	0	0	0	24	4	0	0	0	0	2	0	0	0	21	0	0	0	0	0
OTU 91	0	0	0	0	0	0	0	0	10	52	0	0	0	0	0	0	4	0	1	1	0	1142	0	0	0	0	0	0	0	3	0	0	0	1	0	0	0	513	0	0	0	0	7	0	0	0	1	0	0	0
OTU 92	83	0	0	0	0	0	0	0	0	1	0	0	0	0	0	2	30	0	17	3	1	49	0	0	113	10	0	11	0	0	0	0	33	2	0	5	0	0	8	1	0	0	0	11	0	0	2	0	0	3
OTU 93	17	0	0	0	19	2	0	0	0	0	0	5	10	1	0	1	0	1	0	0	0	3	0	0	0	47	10	0	0	4	0	0	4	5	5	0	0	0	0	0	0	1	2	2	13	0	11	0	0	23
OTU 94	121	25	16	58	240	2	0	7	1303	101	160	132	62	26	0	8	60	1	4	52	144	117	97	4	72	259	167	0	216	13	66	4	21	2	0	3	143	45	26	1	12	3	122	19	87	9	64	32	41	0
OTU 95	15	0	1	5	0	5	16	15	405	1451	971	11	0	0	7	29	0	12	51	0	109	0	0	0	200	27	3	1	5	0	743	1	0	7	0	0	0	0	0	0	6	25	1	1	1	0	0	0	0	1
OTU 96	1	0	0	0	0	0	0	0	3	3	0	0	0	0	0	0	0	0	1	0	0	0	0	0	0	0	2	0	0	0	4	0	293	0	1	0	0	1	41	0	0	0	0	0	5	0	0	18	0	0
OTU 97	0	2	124	0	0	0	9	0	0	0	0	11	0	13	2	16	0	9	45	0	22	1	0	0	0	7	3	0	0	149	0	0	0	0	0	14	0	0	0	0	33	9	0	2	0	0	0	0	31	0
OTU 98	3	0	12	42	0	0	11	1	1	0	27	1	0	3	2	0	10	11	3	31	0	0	0	20	26	0	64	1	0	6	0	131	224	0	19	0	49	31	0	8	34	12	1	0	52	11	10	2	0	5
OTU 99	68	0	7	76	29	3	9	68	5	22	15	28	94	54	5	84	4	62	3	0	43	76	36	21	0	54	228	80	32	29	27	93	326	8	45	29	32	30	42	17	63	13	74	252	30	3	34	25	8	23
OTU 100	10	31	18	0	1	38	375	1	14	1	66	2	46	1	26	65	13	32	5	0	10	9	0	40	50	1	1	15	20	26	21	15	4	84	37	0	39	5	19	11	12	959	10	0	2	7	3	0	13	717
OTU 101	12	0	0	0	1	11	0	1	0	0	0	0	0	0	3	0	44	0	32	0	10	0	0	0	0	0	0	0	2	0	2	0	5	21	114	0	0	0	0	24	0	0	0	0	0	0	0	0	0	0
OTU 102	0	0	0	2	80	0	0	13	0	0	0	0	21	5	0	1	893	33	0	10	1	3	29	1	0	4	20	1	14	30	21	9	2	0	6	2	13	27	0	6	55	0	58	17	55	36	0	0	0	5
OTU 103	87	71	31	2	0	1	8	36	3	54	0	12	24	3	10	0	13	4439	3	51	41	8	11	4	2	4	9	22	20	38	8	3	75	4	12	30	3	21	28	0	2	21	3	9	2	1	154	2	6	47
OTU 104	1803	45	41	0	320	104	19	139	1	2	57	15	183	28	222	1	29	11	26	50	116	25	21	75	24	144	168	21	658	67	15	0	399	207	1130	54	146	107	4	10	8	57	649	28	145	33	74	34	43	0
OTU 105	12	0	0	0	1	0	0	13	0	10	14	0	0	6	0	5	0	0	0	19	0	37	69	0	27	134	54	50	0	0	0	117	1	0	0	0	1	0	2	3	0	1	25	0	0	0	0	0	0	0
OTU 106	0	0	5	0	2	0	0	3	13	0	0	0	17	1	0	1	4	44	0	2	0	9	187	0	1	0	64	95	56	0	0	0	0	0	0	7	24	21	3	0	33	5	60	196	97	0	4	9	0	19
OTU 107	22	6	7	24	0	5	0	4	6	0	0	9	0	3	0	0	0	0	0	11	5	3	4	0	81	0	8	17	0	5	6	3	662	5	2	21	23	1	1	19	0	0	4	3	0	74	0	537	56	0
OTU 108	8	0	0	0	2	3	26	41	1	3	3	1	3	1	0	1	298	0	0	7	21	0	35	10	0	47	13	1	4	1	0	3	4	7	1	2	30	0	2	0	0	50	7	62	106	50	0	14	12	8
OTU 109	2	0	0	0	9	0	0	0	0	0	0	0	0	0	0	0	0	0	0	0	0	0	0	0	0	0	0	0	69	0	0	0	0	0	0	70	0	0	0	0	0	0	39	0	3	0	0	0	0	0
OTU 110	69	1	12	9	9	3	67	35	16	53	20	8	196	6	0	0	28	7	40	102	5	22	27	325	52	13	206	33	13	6	59	113	28	3	43	23	59	45	55	37	23	124	1	54	1	26	23	16	102	57
OTU 111	6	0	0	0	0	7	0	0	0	0	10	0	24	0	0	0	0	0	0	0	0	247	0	0	0	1	0	0	3	0	0	10	3	8	0	0	0	31	0	0	0	1	0	0	0	0	2	0	0	0
OTU 112	16	0	5	4	1	5	8	15	3	6	0	11	125	3	4	3	5	0	0	8	19	38	0	4	0	33	2	185	0	9	0	3770	77	16	23	0	15	6	0	7	0	4	10	7	2	36	0	0	6	3
OTU 113	0	0	2	0	2	0	10	6	9	106	0	0	0	0	0	0	2	0	2	0	0	2	0	10	0	0	9	0	9	15	10	0	0	0	0	5	6	53	0	4	5	45	0	0	0	0	28	0	0	0
OTU 114	82	59	15	3	67	21	38	42	49	266	101	139	61	85	28	107	16	11	36	1	253	68	82	34	55	58	190	148	251	51	124	39	265	29	34	7	191	13	70	42	78	49	131	71	66	228	0	8	22	46
OTU 115	52	10	55	101	16	38	96	84	46	99	342	9	13	49	62	222	42	23	31	3	9	9	189	49	37	147	189	79	5	50	57	149	31	74	7	2	118	13	45	59	124	139	32	176	207	81	50	95	0	72
OTU 116	0	5	62	30	134	20	8	2	0	12	168	19	35	23	15	19	70	8	6	39	3	42	33	4	45	32	29	6	104	119	17	173	101	33	157	17	7	320	6	78	1	10	117	30	61	14	18	5	5	3
OTU 117	5	3	1	1	54	9	4	396	7	51	55	4	28	5	17	94	6	0	30	4	21	4	1	174	39	70	19	11	7	11	33	13	5	15	13	28	102	3	16	0	1	17	47	19	60	6	13	45	3	29
OTU 118	0	0	14	6	5	0	0	1	0	0	0	11	4	4	4	0	0	0	0	0	2	1	9	10	2	188	11	24	0	33	0	1	1	2	18	46	0	3	4	0	1	0	0	2	0	0	18	0	3	0
OTU 119	7	3	24	4	25	28	28	24	9	52	6	3	4	0	13	2	113	6	0	26	1	22	2	33	23	34	14	79	34	19	17	22	17	61	46	1	20	132	23	31	33	45	12	37	0	44	0	3	5	18
OTU 120	1	6	37	57	15	141	0	21	1	33	250	30	35	0	221	61	2	3	32	0	28	0	0	10	26	9	3	0	0	54	11	15	44	307	1	0	25	1	24	0	0	0	0	5	13	0	2	1	10	0
OTU 121	11	5	46	34	48	0	68	0	0	47	0	13	0	15	2	5	58	16	13	5	0	2	50	1	2	143	22	14	126	99	13	0	1	0	6	0	17	6	34	3	31	140	2	168	1	8	8	0	17	2
OTU 122	19	0	0	0	3	20	9	12	24	60	76	1	8	8	11	35	59	0	0	4	4	9	130	14	46	45	48	13	41	0	12	11	180	32	39	5	56	8	29	2	21	31	43	177	0	41	5	3	20	7
OTU 123	347	107	69	124	187	68	39	190	54	294	65	128	35	37	96	71	58	72	43	50	369	263	176	141	59	75	300	97	251	72	124	79	153	200	90	78	102	500	686	98	91	98	151	164	302	718	251	504	102	48
OTU 124	0	5	0	0	0	0	0	101	0	57	40	0	0	0	20	0	0	17	1	1	21	8	0	61	0	5	0	2	0	0	3	2	0	1	27	0	49	1	0	6	0	0	3	1	0	54	5	0	7	1
OTU 125	128	42	39	96	22	24	36	130	72	917	49	60	832	66	6	85	640	49	80	42	88	113	82	73	197	60	209	284	145	66	391	7	110	27	124	45	88	86	113	42	5	92	188	127	297	101	195	110	34	69
OTU 126	0	0	0	0	373	0	46	0	2	0	0	0	1	6	0	0	0	0	3	3	0	43	48	3	0	91	37	0	468	0	1	0	0	0	0	0	0	218	0	0	0	76	0	4	0	0	7	0	0	0
OTU 127	22	42	3	2	1	18	0	0	2	18	0	107	100	0	14	12	26	1	1994	36	130	4	14	39	6	17	6	42	0	7	0	2	14	24	19	18	0	24	15	2	2	2	86	11	21	3	3	0	48	12
OTU 128	369	89	231	160	281	21	898	185	94	385	122	183	126	228	40	263	228	293	108	148	272	101	112	148	150	264	643	511	312	373	684	283	141	44	27	112	181	155	214	851	465	1974	2984	74	489	581	181	106	224	1226
OTU 129	0	0	0	0	0	1	0	0	0	0	0	0	0	18	0	3	26	0	8	0	8	53	14	6	0	0	8	2	4	0	0	48	0	3	0	2	0	0	16	0	0	0	0	2	0	0	0	0	4	0
OTU 130	2	0	1	1	0	0	4	0	1	4	10	0	85	18	2	0	9	16	0	41	0	16	23	84	58	121	80	1	12	3	8	37	63	0	14	8	21	56	11	10	88	1	31	57	135	90	2	3	0	0
OTU 131	0	1	22	2	1	164	0	140	4	46	89	12	85	4	159	12	44	70	14	4	3	49	62	1	19	227	17	6	31	24	33	21	65	344	11	22	89	12	42	2	66	1	7	43	2	16	0	894	31	4
OTU 132	22	1	0	5	3	3996	0	162	45	123	3	1	17	0	9	5	20	0	0	0	2	13	25	13	23	33	0	8	0	7	10	10	0	13	0	0	58	5	7	19	0	2	49	5	97	0	38	1	0	1
OTU 133	25	0	13	0	0	2	4	23	0	1	0	1	18	0	0	14	0	11	0	0	0	65	2	0	0	0	4	0	0	9	3	1	38	4	0	18	2	0	0	0	0	3	0	0	0	1	10	3	1	8
OTU 134	107	2	10	44	21	29	6	3	2	36	0	5	0	1	31	0	65	10	8	10	2	62	79	16	34	15	35	31	32	7	2182	97	14	63	1	8	25	3	85	28	2	6	1	62	95	150	1	16	5	46
OTU 135	68	0	59	9	9	8	2	11	3	2	3	10	28	9	14	962	511	54	777	17	0	91	49	21	42	64	203	18	7	94	11	95	94	22	49	6	0	11	1070	33	73	34	66	7	25	108	43	92	0	0
OTU 136	1	4	0	1	19	22	0	39	1	0	79	17	14	6	35	1	4	0	1	2	3	0	1	8	17	23	6	33	3	0	12	16	0	33	33	5	23	12	0	23	14	1	10	1	10	14	4	31	4	14
OTU 137	16	0	1	0	0	0	4	83	0	0	3	1	1	3	0	0	0	0	9	2	0	1423	29	3	14	1	0	3	0	0	1	0	0	0	1	0	0	1	2	34	0	12	0	2	31	0	8	0	0	67
OTU 138	0	0	4	2	5	2	0	1	42	406	0	0	2	9	1	41	0	1	3	0	1	1	1	0	11	44	21	0	0	2	94	0	0	2	9	0	17	0	0	8	0	1	0	11	0	5	224	135	2	0
OTU 139	81	30	7	204	160	17	88	145	15	108	21	100	94	10	22	79	13	16	72	18	82	8	119	26	481	540	44	87	86	36	42	18	174	39	150	26	41	23	5	240	25	206	290	60	49	5	33	63	27	29
OTU 140	100	6	110	83	2	56	102	21	48	94	3	66	149	91	20	9	52	47	26	108	84	177	187	160	23	339	552	95	81	194	1520	223	53	61	29	15	43	94	84	29	176	232	31	859	366	410	249	132	10	49
OTU 141	0	0	0	0	0	0	0	0	6	31	0	0	0	1	1	0	0	0	0	0	0	0	0	0	11	0	0	0	1	1	0	2	0	0	0	0	0	0	0	55	1	0	0	0	0	0	0	0	0	0
OTU 142	1	0	6	0	0	0	0	0	0	0	0	0	0	4	0	0	0	0	0	1	0	0	3	66	0	0	0	0	0	0	1	0	0	0	0	0	0	0	1	23	0	0	40	28	0	3	0	0	0	2
OTU 143	0	8	0	0	0	2	0	0	0	0	6	0	22	0	0	0	21	0	3	0	8	0	7	0	21	4	0	0	4	1	17	0	11	2	3	0	0	0	6	0	3	4	7	33	0	0	0	3	2	0
OTU 144	0	2	4	0	89	0	0	3	7	2	6	0	40	1	0	3	0	0	0	4	1	8	0	0	10	2	0	0	66	0	2	0	2	0	0	0	0	0	54	0	0	0	44	0	0	10	0	0	0	4
OTU 145	39	7	2	12	36	14	43	30	2	46	2	13	43	13	24	20	29	5	77	1104	17	108	13	99	24	156	32	9	50	0	15	7	85	36	47	906	49	7	12	41	3	105	3	60	125	1	19	127	1902	2
OTU 146	0	14	9	47	1	11	37	46	7	2	2	10	90	17	2	6	75	44	3	32	24	43	144	7	192	81	76	13	3	13	1	112	101	12	6	13	76	131	14	1	53	44	0	138	5	1	21	2	38	4
OTU 147	1	52	8	8	0	1	0	23	8	1	25	94	54	0	0	3	14	1	59	20	132	0	1	7	11	19	0	0	12	1	8	100	0	2	8	2	8	28	1	0	3	0	9	16	7	0	7	13	0	7
OTU 148	21	117	16	2	4	18	6	41	0	45	42	95	44	37	4	19	5	17	6	11	112	207	0	234	104	0	26	0	71	15	0	8	304	34	4	6	37	43	53	12	12	17	73	9	35	54	6	136	7	27
OTU 149	0	10	10	65	11	1	1	22	2	1	14	8	445	1	3	0	36	2	10	5	75	14	0	0	39	0	1	8	0	8	1	33	2	5	30	2	17	2	2	1	0	2	3	3	4	1	19	0	0	0
OTU 150	0	15	0	20	2	1	0	0	2	0	1	3	0	5	2	0	4	12	1	0	3	0	52	0	4	272	8	63	8	6	17	1	0	4	27	2	0	1	77	0	21	0	2	52	27	29	0	113	12	8
OTU 151	8	0	4	20	953	6	25	17	7	14	1	3	46	2	1	20	4	0	25	0	0	0	5	0	128	5	12	4	1813	11	4	41	31	17	18	55	5	0	4	61	15	52	97	50	0	1	8	0	0	15
OTU 152	0	43	1	10	24	0	24	72	21	56	94	66	9	3423	11	21	2	27	22	53	268	1	18	2	276	177	47	103	26	33	64	10	0	0	36	7	1	253	0	15	19	26	0	135	108	50	10	8	15	0
OTU 153	0	0	1	0	0	0	0	0	0	0	10	41	0	0	0	0	0	0	0	7	4	0	0	0	2	0	0	0	0	0	0	0	0	0	0	0	3	0	0	0	0	0	1	0	0	2	0	0	0	0
OTU 154	0	0	14	0	0	0	0	0	0	34	6	0	0	0	1	0	0	0	31	0	5	0	0	265	1	3	22	0	0	0	7	0	4	0	0	48	1	0	0	0	0	0	5	0	0	17	0	8	38	0
OTU 155	0	4	13	0	0	0	0	0	0	19	0	11	30	1	2	7	1671	0	5	0	0	3	0	37	68	0	0	7	0	2	0	1	1	1	1	5	6	0	3	0	59	0	2	13	7	1	0	2	15	30
OTU 156	5	21	12	21	0	0	3	361	29	105	36	33	164	3	5	29	75	5	59	46	69	32	18	278	43	159	71	77	91	27	61	4	4	0	11	42	126	31	8	4	23	9	44	7	88	57	4	3	12	7
OTU 157	0	6	20	185	17	0	0	78	40	26	56	0	23	8	0	2	8	0	128	74	0	18	74	1	0	93	16	20	0	18	0	49	89	0	19	0	109	4	33	0	0	0	0	2	5	0	11	0	3	0
OTU 158	0	0	0	0	0	0	2	0	0	0	20	0	35	0	0	0	46	0	0	0	0	7	0	0	0	0	0	0	0	0	0	0	0	0	0	0	0	0	0	0	0	1	3	0	0	14	0	13	0	0
OTU 159	0	27	0	7	0	21	7	67	1	13	19	17	66	0	10	23	45	0	10	49	10	0	18	10	8	263	0	7	28	16	2	0	116	40	19	0	586	56	29	2	0	37	36	28	40	94	10	1071	13	2
OTU 160	151	12	12	55	108	28	8	109	23	92	86	32	207	5	49	268	166	6	263	38	154	13	152	204	49	111	230	30	53	76	56	165	71	48	19	65	225	56	42	0	2	15	49	170	104	71	62	189	60	28
OTU 161	6	10	57	18	34	23	15	71	15	1	26	4	20	47	5	35	41	32	2	20	18	45	23	1	0	5	72	4	3	71	82	55	37	51	13	5	4	8	9	15	33	59	5	85	24	30	0	196	0	88
OTU 162	34	7	14	79	5	15	21	301	33	22	212	12	113	44	20	8	17	1	12	13	24	35	80	15	65	175	138	85	0	16	11	50	1	41	11	33	0	4	7	41	5	31	30	1	2	12	39	106	0	23
OTU 163	0	0	0	0	2547	0	2	0	0	0	0	0	45	0	0	0	6	0	0	0	0	0	3	0	0	0	0	0	0	0	0	0	0	0	0	0	0	5	0	37	0	0	5	5	0	0	0	0	0	0
OTU 164	0	0	1	0	0	1	11	0	5	0	0	0	0	0	1	146	0	0	0	0	0	0	7	0	45	0	1	0	0	0	0	0	3	5	0	0	0	0	0	0	0	16	0	0	0	0	0	0	4	0
OTU 165	0	11	0	19	7	0	0	94	15	145	18	79	0	6	18	0	115	4	4	3	115	22	13	0	13	23	23	3	1	0	29	6	72	0	4	5	50	57	33	35	8	0	0	12	2	43	8	8	0	0
OTU 166	349	0	0	0	2	0	0	6	0	0	0	0	0	0	0	0	0	0	0	0	0	0	0	0	1	0	3	0	0	0	0	0	0	0	0	0	0	0	0	0	0	0	0	0	0	0	0	0	0	0
OTU 167	32	22	0	32	0	1	0	37	3272	7	0	17	18	3	2	70	0	2	0	9	0	3	67	5	0	3	67	4	13	0	1	31	4	1	24	0	1	7	5	21	5	0	1	3	0	13	107	6	2	0
OTU 168	228	0	22	1	27	0	0	0	21	5	0	3	22	0	1	41	0	2	42	58	7	7	0	132	2	66	5	1	12	5	6	2	0	0	40	38	91	5	2	6	0	3	2	20	30	0	23	14	160	3
OTU 169	0	26	2	0	0	0	0	62	1	0	0	40	0	0	0	0	0	0	0	0	31	0	0	2	0	1	0	0	0	1	0	0	0	0	0	0	0	0	0	0	0	0	9	0	0	0	0	0	0	0
OTU 170	0	0	0	1	59	0	0	0	0	0	12	0	0	0	0	0	14	0	6	0	0	0	0	0	0	0	0	5	86	0	0	6	18	0	0	0	0	0	0	0	1	0	77	0	0	0	0	0	0	0
OTU 171	27	1	11	0	9	12	21	0	1	49	3	17	12	2	4	61	0	6	186	24	40	3	38	309	0	1	10	2	50	31	12	9	32	23	14	30	47	14	1	0	9	32	35	24	5	17	34	18	1	57
OTU 172	0	1	0	0	0	19	0	0	0	0	28	0	0	10	0	0	0	2	0	15	23	1	73	30	0	0	147	0	0	0	0	87	8	31	2	9	2	0	0	2	1	0	0	0	1	1	0	0	62	0
OTU 173	0	0	2	2	0	0	0	18	0	0	0	0	12	0	0	2	39	0	0	0	2	5	0	11	0	11	0	31	0	0	0	0	1	0	47	13	126	0	0	8	0	0	1	0	0	0	0	52	0	4
OTU 174	0	22	2	76	0	1	0	30	0	25	18	47	0	6	0	12	4	0	2	207	190	4	50	106	254	0	2	32	2	1	2	49	34	4	2	232	34	8	1	49	1	0	2	21	62	1	5	434	311	3
OTU 175	56	1	0	85	0	2	5	0	1	1	96	0	34	0	0	0	0	24	2	10	0	44	2	4	2	10	3	0	6	1	29	27	68	7	77	6	0	1	24	2	2	4	17	37	0	18	3	24	2	16
OTU 176	17	14	29	3	3	41	0	25	25	110	21	31	21	31	52	150	213	70	52	0	150	28	33	31	200	58	135	89	6	36	28	28	86	82	6	11	51	105	41	67	58	0	6	39	15	11	2	76	34	5
OTU 177	72	27	1	11	72	33	5	41	1	39	62	85	34	19	40	15	12	6	2	39	97	1	51	40	28	26	77	8	45	6	0	7	14	58	12	73	24	63	25	4	18	1	47	24	29	2	28	19	39	28
OTU 178	7	12	13	54	0	7	0	2	3	0	7	5	43	0	1	20	69	13	3	0	0	17	0	41	49	66	0	0	21	64	3	0	0	29	18	0	1	17	0	759	0	0	26	89	23	0	41	0	1	1
OTU 179	0	1	1	2	0	6	17	74	1	0	0	0	27	1	9	117	12	8	25	0	1	72	1	2	0	23	2	15	1	0	0	11	9	7	16	0	5	0	14	7	1	34	4	42	0	32	32	73	0	1
OTU 180	48	83	25	127	328	48	188	67	25	51	102	107	51	39	63	128	103	40	47	32	87	90	32	21	58	216	118	301	489	101	48	19	73	92	66	41	74	38	102	174	54	408	5	75	99	17	304	115	93	62
OTU 181	1	46	3	20	39	5	2331	582	13	101	7	172	9	0	0	9	27	38	1	2	100	21	8	2	91	39	14	1	44	6	81	24	11	14	42	4	73	0	1	1	25	54	5	114	102	17	10	4	1	2
OTU 182	0	0	0	0	0	0	0	0	0	0	0	0	0	0	0	0	0	0	0	0	13	0	0	0	0	0	0	0	0	0	0	0	2	0	15	0	0	1	0	0	0	1	7	0	0	0	0	0	0	0
OTU 183	2	52	16	144	3	14	3	58	44	205	9	118	58	27	1	3	2	22	114	3	284	334	28	33	44	0	75	49	0	19	134	98	122	27	19	15	4	44	3	0	36	12	4	18	4	43	0	158	22	12
OTU 184	9	1	1	25	30	0	6	0	16	1	23	2	0	12	1	19	35	18	0	0	5	22	10	86	8	0	9	7	26	9	46	0	0	0	22	0	72	2	1	30	0	12	100	10	21	0	2	84	0	47
OTU 185	66	51	16	51	0	25	1	37	54	44	143	31	1	885	2	55	0	807	615	16	175	1	14	3	126	85	26	9	8	23	43	19	115	37	11	8	50	55	14	91	1778	6	4	179	28	55	0	65	51	54
OTU 186	7	4	0	7	0	0	0	49	1	0	0	20	0	2	0	2444	5	0	0	2	19	0	25	28	0	0	0	83	1	1	0	0	6	0	0	8	1	1	35	0	0	0	56	0	0	21	0	0	0	1
OTU 187	37	55	43	9	45	1	25	238	7	23	43	43	64	14	3	18	24	14	36	58	94	99	23	1	117	3	29	84	23	94	26	19	58	3	23	15	86	101	51	73	4	46	59	193	179	96	261	39	18	206
OTU 188	59	42	18	36	21	0	34	9	15	4	191	38	35	55	0	261	6	36	28	69	38	11	69	97	44	24	98	132	35	36	16	86	24	2	38	6	125	111	5	49	28	47	33	11	14	26	11	53	91	4032
OTU 189	8	16	6	90	0	1	19	91	33	99	580	11	9	53	3	104	51	36	46	1	73	928	24	43	38	3	4	122	41	11	52	31	54	4	31	32	109	47	45	55	46	21	10	31	22	52	53	13	6	11
OTU 190	0	2	43	0	2	0	0	0	8	0	29	5	648	0	1	10	0	0	89	456	2	0	0	0	0	0	1	8	79	68	0	1	0	1	0	426	0	1	7	0	0	0	37	65	8	0	0	86	1058	5
OTU 191	103	52	6	70	2	28	114	155	14	53	7	32	14	4	28	37	54	2	9	6	91	92	38	35	24	5	48	64	30	1	4	22	4	52	10	16	158	23	5	54	47	34	81	19	273	17	565	18	10	8
OTU 192	20	86	84	1184	64	29	77	202	0	17	8	167	35	14	22	621	3	12	558	3	112	88	213	2	31	32	129	10	80	92	0	62	15	60	17	9	14	26	93	19	1	115	52	247	18	209	22	49	41	6
OTU 193	11	0	6	41	10	4	0	287	3	33	85	3	0	22	0	26	131	20	8	53	2	0	12	145	155	0	55	190	21	0	3	26	49	5	0	24	54	30	30	7	10	0	11	30	10	34	0	4	33	7
OTU 194	11	4	0	2	8	2	2	25	7	1	0	2	23	8	5	3	0	0	7	0	1	12	0	1	88	0	9	14	3	0	11	48	37	13	0	7	4	8	0	0	3	2	2	0	2	21	5	0	11	0
OTU 195	14	27	0	25	86	1	0	57	11	4	38	33	84	0	0	32	7	20	14	1	23	3	13	51	42	46	36	94	21	6	11	74	103	1	0	4	47	24	6	2	15	1	3	0	122	78	180	29	4	40
OTU 196	60	7	6	36	7	0	3	0	0	9	9	21	117	20	0	5	22	10	38	10	27	65	277	2	78	13	5	64	1	3	2	44	60	1	15	81	7	72	15	2	1	13	98	16	28	1	1	129	43	10
OTU 197	646	13	161	7	14	22	35	191	137	126	36	31	118	59	52	5	49	31	9	9	162	67	75	145	208	114	86	31	141	130	150	111	71	53	301	14	57	65	43	2	56	70	15	187	168	39	115	7	77	20
OTU 198	69	3	0	0	67	0	8	2	0	0	0	0	0	0	0	0	0	0	3	0	0	0	6	0	103	49	9	0	77	0	0	0	0	0	1	0	0	0	0	0	0	1	51	0	0	0	3	0	1	38
OTU 199	2	2	0	2763	14	3	0	62	5	44	11	22	5	0	0	0	4	7	29	12	110	7	29	0	138	0	3	74	12	13	1	2	0	8	1	77	47	0	1	0	9	0	0	1	0	2	74	0	0	3
OTU 200	27	35	28	9	44	17	1	241	2	12	24	44	9	14	1	8	93	4	154	2	44	81	4	12	55	8	9	22	41	10	68	29	23	18	31	54	33	11	2	26	2	12	22	5	42	42	5	6	0	52
