	Host 1	Host 2	Host 3	Host 4	Host 5	Host 6	Host 7	Host 8	Host 9	Host 10	Host 11	Host 12	Host 13	Host 14	Host 15	Host 16	Host 17	Host 18	Host 19	Host 20	Host 21	Host 22	Host 23	Host 24	Host 25	Host 26	Host 27	Host 28	Host 29	Host 30	Host 31	Host 32	Host 33	Host 34	Host 35	Host 36	Host 37	Host 38	Host 39	Host 40	Host 41	Host 42	Host 43	Host 44	Host 45	Host 46	Host 47	Host 48	Host 49	Host 50	
OTU 1	54	205	81	31	88	0	58	137	1	470	93	25	263	148	487	84	179	0	29	7	71	245	67	93	1	32	95	123	0	0	3	202	121	15	16	106	18	108	197	91	146	0	118	129	7	114	37	51	0	98
OTU 2	1	0	9	38	0	8	38	13	177	0	8	57	24	2	5	2	2	167	6	10	1	0	1	101	38	9	20	0	29	12	36	39	11	0	0	3	17	0	6	1	16	0	0	5	1	10	2	1	0	7
OTU 3	0	0	1	12	7	45	0	6	1	3	25	19	0	0	3	39	135	1	17	0	0	1	2	178	0	27	1	0	0	2	1	5	6	14	0	6	2	6	3	17	2	41	0	1	0	1	12	6	0	0
OTU 4	0	0	0	0	0	0	0	0	0	0	0	0	0	0	0	0	0	0	0	0	0	0	0	0	0	0	0	0	0	0	0	0	0	0	0	0	0	0	0	0	0	0	0	0	0	0	0	0	0	0
OTU 5	728	593	169	0	377	526	429	1240	61	781	302	53	253	62	547	163	260	167	283	49	58	672	555	109	17	146	199	265	521	462	121	271	215	635	1183	348	53	23	30	1491	0	12	345	190	268	309	1584	164	0	74
OTU 6	13	5	2	1	21	38	2	20	1	25	34	56	80	12	0	36	2	51	100	0	24	15	0	0	15	168	11	26	0	108	23	20	0	1	1	8	0	0	4	0	0	25	311	0	95	12	5	13	48	9
OTU 7	14	47	22	214	165	237	145	33	69	29	55	94	14	97	22	20	124	47	9	11	76	10	78	36	169	5	200	85	132	25	501	49	12	103	73	23	32	113	94	31	22	0	6	31	25	62	1488	2805	80	42
OTU 8	256	26	2	594	28	839	84	103	1092	16	25	174	14	52	31	28	224	11	2	16	28	11	38	179	126	7	20	27	472	6	47	253	155	226	26	79	406	33	585	19	54	21	66	7	17	489	7	36	168	299
OTU 9	61	0	1	23	11	0	50	1	50	1	41	25	0	5	0	7	69	0	8	2	8	1	84	98	0	2	50	1	1	30	1	0	14	15	110	0	0	158	1	31	0	0	17	1	13	0	26	8	39	3
OTU 10	35	4	0	4	9	0	19	9	3	22	1	1	70	26	1	163	144	1	1	0	15	14	6	13	8	67	0	2	63	0	1	12	48	92	0	0	0	1	5	2	4	760	5	2	46	2	1	3	297	1
OTU 11	84	122	13	0	21	119	29	3	1	19	88	37	1	5	0	9	30	181	5	29	0	6	24	38	0	8	14	20	21	0	2	1	68	69	53	1	45	124	15	1	54	16	27	28	126	4	12	122	16	4334
OTU 12	12	33	8	19	2	98	47	16	11	10	59	18	16	138	24	5	33	61	64	20	24	4	9	1	7	50	55	31	16	106	79	42	0	103	40	59	21	32	8	1	71	2	44	12	24	27	2	1	145	15
OTU 13	11	18	0	4	0	34	1	0	0	0	0	0	0	0	0	0	0	1	0	0	0	0	0	0	0	5	0	0	0	4	2	0	0	0	0	0	0	0	2	0	0	4	0	0	0	0	0	0	0	0
OTU 14	21	12	10	1	13	30	1	6	59	1	15	4	0	29	30	1	0	27	12	5	0	1	3	0	38	322	7	0	0	0	0	2	154	0	8	4	54	0	20	49	12	112	0	1	7	1	26	128	43	6
OTU 15	0	0	0	1	0	0	0	0	0	0	0	0	0	0	3	0	1	20	0	0	0	0	15	0	0	0	0	0	0	0	0	0	2	0	0	0	17	0	0	0	29	166	0	1	0	1	0	0	0	3
OTU 16	0	0	0	0	0	0	0	0	0	0	0	0	0	0	0	0	0	0	0	3	0	0	0	0	0	0	0	0	0	16	1	0	0	0	0	0	0	2	3	0	0	0	0	0	0	1	0	0	0	0
OTU 17	9	7	1	1	16	25	1	0	13	77	8	44	34	101	81	10	0	0	12	5	104	39	3	3	9	23	0	12	58	38	21	2	87	4	10	0	5	8	2	59	0	23	72	10	106	0	23	36	24	8
OTU 18	9	87	11	205	63	361	1	0	363	33	18	122	7	65	130	41	32	124	3	4	17	19	13	197	161	13	81	23	2	103	75	1	111	190	117	62	95	109	48	25	10	37	16	27	15	157	52	31	12	31
OTU 19	0	0	0	0	0	0	0	0	0	0	0	0	11	0	0	0	0	0	1	0	0	0	0	0	1	0	0	0	43	0	0	0	0	0	0	0	0	0	0	0	0	0	0	0	0	0	0	0	0	0
OTU 20	246	1696	474	17	100	39	12	3	101	59	51	6	91	165	29	0	12	16	8	314	103	37	18	165	134	40	8	26	28	5	3	1	19	50	0	0	15	1	49	87	52	14	23	144	51	71	41	1068	59	25
OTU 21	16	88	17	71	280	15	19	29	68	6	25	29	76	40	41	3	36	45	2	1	41	4	37	101	35	5	0	8	20	77	17	57	16	26	87	4	15	121	252	4	41	56	13	37	36	103	13	46	21	100
OTU 22	222	12	20	9	14	28	7	2	28	28	34	50	25	21	16	9	7	19	21	0	3	19	5	293	865	67	29	5	2	3	3	4	2	0	0	5	2	29	14	46	138	51	11	11	9	5	4	28	14	10
OTU 23	53	11	1	20	3	8	1	0	32	0	17	0	22	27	0	1	2	50	0	23	2	0	5	2	16	9	0	1	10	2	19	10	0	6	0	17	0	19	3	17	5	0	34	12	11	14	1	0	60	0
OTU 24	3	36	1	0	1	0	0	0	9	0	5	45	16	14	1	0	2	0	4	1	0	0	151	2	118	76	4	3	15	1	0	4	3	75	31	1	43	105	91	2	31	7	0	1	0	13	3	31	120	34
OTU 25	0	0	0	0	0	0	3	0	0	0	0	0	0	0	0	4	0	0	0	0	0	0	0	0	0	0	0	0	0	0	0	0	1	0	0	0	0	0	0	0	0	0	14	0	0	0	0	0	0	0
OTU 26	21	0	7	0	52	6	0	0	4	1	0	0	2	8	0	0	37	1	0	0	0	0	19	2	0	6	0	0	0	3	0	2	8	27	7	0	0	51	74	0	0	0	0	0	0	0	0	4	0	58
OTU 27	0	0	0	0	0	0	0	0	0	0	0	0	7	0	0	0	0	3	0	0	10	0	0	0	0	0	0	24	23	0	0	0	0	0	0	0	0	0	0	0	0	43	0	5	7	0	0	0	0	0
OTU 28	72	46	80	10	92	38	73	6	25	7	4	0	314	76	280	60	9	36	10	53	92	4	2	102	6	59	31	18	31	23	399	5	151	26	18	0	18	22	35	92	5	52	3	72	10	3	39	1	0	15
OTU 29	120	6	18	9	61	40	10	10	35	12	55	17	6	81	120	30	1	57	22	8	67	6	40	18	46	118	1	0	48	20	11	26	62	56	26	13	2708	30	6	12	81	38	57	7	51	101	5	9	0	4
OTU 30	0	0	0	0	0	0	0	0	0	0	0	0	0	1	0	0	1	0	0	0	0	0	0	0	0	0	0	0	0	0	0	0	0	0	0	0	0	0	0	0	0	0	0	0	0	0	0	0	0	0
OTU 31	63	16	60	6	12	0	45	11	16	3	0	77	0	2	12	0	192	3	0	5	0	0	0	0	123	184	1	0	1	5	1	19	0	1	0	1	15	3	18	31	99	2	0	5	0	77	0	32	110	0
OTU 32	30	15	22	15	39	17	52	61	60	5	3	44	66	40	13	120	96	47	18	958	76	0	72	14	148	180	14	83	11	40	329	139	14	21	81	33	13	88	167	69	206	34	13	9	9	19	35	22	44	69
OTU 33	0	0	1	36	0	0	0	0	0	1	0	0	0	0	0	0	0	19	8	0	0	0	0	0	1	0	0	0	0	0	0	0	0	0	2	0	0	0	0	6	11	0	0	0	2	0	5	0	0	0
OTU 34	893	22	0	18	30	9	0	31	10	22	31	0	43	42	11	0	52	84	1	3	50	14	1061	0	31	54	78	19	333	55	97	52	2	10	3	5	20	4	5	10	256	3	1	4	106	2	33	82	18	6
OTU 35	22	1	2	2987	6	32	39	28	23	46	1	259	29	2	31	20	23	20	2330	0	3	21	0	14	39	0	0	3	55	15	176	143	16	4	4	28	53	1	82	6	7	27	6	17	5	30	0	36	69	36
OTU 36	22	19	16	150	15	5	1	1	332	10	0	14	39	74	8	7	4	0	10	3	80	5	15	43	20	13	0	38	5	98	48	1	33	60	2	4	146	1	32	30	7	2	0	0	2	163	6	76	29	18
OTU 37	95	0	1	0	0	15	24	7	0	0	7	2	0	73	0	14	12	33	0	0	8	0	40	0	11	1	2	1	0	0	0	13	12	20	4	0	46	19	0	66	0	4	6	1	0	7	36	21	1	0
OTU 38	83	1	0	20	1	0	15	0	22	62	4	95	12	21	3	24	51	22	4	4	3	41	77	16	68	40	23	0	30	4	87	7	217	18	122	1	12	140	4	8	281	0	97	13	7	0	4	2	206	0
OTU 39	0	0	2	8	0	6	0	0	0	3	23	14	26	0	11	4	0	79	2	10	0	3	0	9	19	11	0	1	0	0	1	0	0	2	0	6	34	0	4	0	3	0	1	4	5	22	5	0	1	5
OTU 40	73	36	0	16	26	62	12	2	26	21	8	47	39	324	3	33	14	1	82	2	179	9	101	29	22	189	72	85	21	315	48	2	58	2	66	0	18	82	27	32	43	4	168	18	40	57	3	43	41	3
OTU 41	26	5	1	3	15	116	35	1	83	9	1	0	61	123	0	1	19	17	0	12	62	7	2	4	19	59	43	2	2	13	56	7	2	32	20	8	1	53	54	33	6	18	5	1	6	0	9	7	0	54
OTU 42	1	0	43	0	0	1	0	0	1	0	1	0	0	0	27	0	7	2	0	0	0	0	2	0	0	3	31	1	6	77	1	3	0	0	0	1	0	0	5	0	23	20	1	0	0	1	2	1	16	0
OTU 43	0	0	0	0	0	0	0	0	0	0	0	1	0	1	4	0	0	0	6	0	0	0	0	0	0	0	40	3	0	0	0	2	1	0	0	0	0	0	0	0	0	2	0	0	0	0	0	0	1	0
OTU 44	52	0	0	0	1	0	30	6	5	0	291	0	0	20	0	0	21	39	5	5	6	0	0	0	0	0	5	5	0	5	2	11	10	8	0	32	0	0	0	0	1	0	0	0	1	2	3	0	0	0
OTU 45	96	0	9	12	108	7	162	19	11	16	35	10	19	37	2073	18	5	93	4	1	16	10	27	73	26	0	69	8	89	56	2	32	77	7	1	28	7	54	12	6	42	67	105	8	19	3	8	13	72	4
OTU 46	194	89	2	7	53	12	42	4	45	67	59	305	30	30	22	55	99	103	19	5	60	40	67	8	37	81	33	63	16	97	208	21	44	11	1	5	26	2	0	117	68	3	4	10	0	28	85	6	55	1
OTU 47	0	0	0	58	14	0	0	3	12	0	99	1	0	0	18	0	0	0	0	0	1	0	1	31	1	26	31	1	1	0	0	6	79	0	0	0	0	0	0	0	0	0	2	0	0	0	0	0	0	0
OTU 48	312	69	22	10	6	62	54	8	76	8	10	74	2	7	132	84	6	19	18	3	2	2	97	33	22	78	185	64	23	0	84	17	2	6	61	1	28	70	0	127	218	0	33	7	69	1	22	30	42	1
OTU 49	88	1	0	6	5	10	5	2	0	1	5	3	45	16	31	28	35	73	14	4	6	1	0	2	90	5	10	22	60	7	33	0	19	0	0	0	0	36	130	691	47	13	50	0	7	8	409	19	9	50
OTU 50	8	43	1	20	39	66	77	17	124	7	19	18	6	13	64	15	40	193	9	7	17	3	8	155	21	13	50	10	1	117	96	17	13	4	80	19	3	84	34	44	65	31	1	35	1	58	58	31	206	25
OTU 51	128	120	24	27	82	40	35	21	0	57	46	4	2	26	2	1	5	19	21	298	6	26	29	101	5	0	170	18	18	36	1	28	1	42	0	18	67	1	8	13	0	0	22	22	82	74	8	55	14	0
OTU 52	146	152	58	31	8	23	63	345	31	14	79	95	29	45	17	749	25	29	3	25	32	6	437	47	19	59	31	66	9	244	58	736	48	83	761	516	39	1430	2	198	66	53	88	11	75	110	104	111	8	5
OTU 53	0	0	0	0	0	0	0	0	0	0	0	0	0	0	0	0	377	0	0	0	0	0	0	0	0	0	0	2	0	0	0	0	0	0	0	1	0	0	0	26	0	1	0	0	9	0	0	0	94	0
OTU 54	20	67	73	55	103	168	62	4	167	104	39	96	13	755	139	46	145	15	2	29	301	52	18	76	45	47	8	16	1	77	53	11	41	207	31	1288	41	41	28	70	120	115	56	12	742	46	38	39	89	20
OTU 55	0	0	0	0	0	0	0	0	1	0	43	0	0	0	8	4	0	0	0	0	0	0	1	0	0	0	0	0	0	0	0	0	0	0	0	0	50	0	0	0	0	0	26	0	0	44	0	0	0	0
OTU 56	1	3	7	1	2	0	14	0	0	1	1	1	17	2	1	73	0	20	22	14	1	0	117	0	0	34	0	28	19	10	8	0	10	1	0	0	0	1	0	13	1	7	1	0	1	5	0	4	5	0
OTU 57	659	20	8	33	242	100	35	5	123	1067	66	159	431	444	21	10	119	54	66	29	235	557	5	499	5	86	119	904	52	79	500	5	12	14	8	2	77	40	46	27	111	23	67	13	68	124	3	55	327	23
OTU 58	19	47	20	0	8	156	7	4	6	0	0	17	24	147	15	6	58	48	1122	1	92	0	2	70	1	184	0	8	60	36	24	7	0	222	6	5	9	28	21	395	40	0	1716	28	2	98	387	21	18	3
OTU 59	0	3	0	27	57	1	3	0	6	94	7	2	41	12	97	37	3	7	62	18	1	42	130	89	7	182	0	2	7	34	8	3	63	8	15	1	2	45	27	3	0	1	5	0	12	15	0	58	7	16
OTU 60	11	15	31	68	20	115	38	5	18	91	3	33	64	229	16	63	21	202	5	23	29	38	14	94	49	1078	8	12	16	455	35	23	10	50	8	13	10	97	53	20	0	219	12	44	15	16	7	18	51	14
OTU 61	20	207	2	478	30	51	22	5	12	57	117	792	61	32	39	63	72	31	62	50	22	25	552	80	0	6	188	132	54	314	2	7	126	2	159	9	22	274	17	41	68	51	69	17	132	75	0	27	12	12
OTU 62	40	1	10	14	7	71	0	0	10	10	16	2	51	25	6	1	27	72	0	2	34	6	6	6	0	5	0	1567	0	44	0	0	0	6	0	3	0	0	0	0	26	7	1	3	0	15	24	0	0	0
OTU 63	12	32	0	0	0	1	31	2	0	4	1	0	2	15	0	24	2	0	28	1	43	4	35	104	41	0	44	0	17	54	0	2	8	23	1	0	9	1	0	34	84	129	0	21	1	1	0	3	254	0
OTU 64	48	29	22	79	45	14	129	7	58	2	7	73	69	54	181	102	134	156	2	48	25	5	96	7	28	121	321	2	186	40	53	33	75	63	60	2	22	115	87	461	16	88	9	25	2669	32	142	26	5	313
OTU 65	0	15	0	1	0	0	1	0	0	4	0	0	0	0	0	0	0	0	0	0	0	1	0	0	1	2	69	0	0	3	0	0	0	0	3	0	1	0	0	0	0	28	0	0	0	0	0	0	0	0
OTU 66	61	9	94	6	0	25	141	12	100	25	42	7	21	88	67	100	5	159	8	3	44	12	72	0	35	9	1	2	34	21	36	12	2	21	4	2	9	49	47	92	36	157	14	3	28	10	24	5	0	44
OTU 67	13	2	6	30	0	146	20	14	23	0	1	17	14	116	8	16	72	58	3	0	18	0	13	1	3	29	153	10	135	135	40	41	0	4	1	10	1	71	13	0	64	2257	4	20	15	0	27	8	80	1
OTU 68	0	5	0	14	12	4	4	31	0	0	0	55	1	12	20	10	6	0	10	0	0	0	0	0	0	0	9	0	0	0	0	61	1	15	1	1	12	1	9	1	12	1	12	0	66	1	0	0	1	12
OTU 69	43	0	37	35	6	6	107	202	59	9	52	18	54	4	10	19	432	180	15	3	2	7	329	6	59	21	17	7	40	7	175	326	0	4	511	142	123	1241	109	343	132	64	1	10	69	65	102	36	5	39
OTU 70	4	0	18	37	1	2	52	26	12	447	0	0	363	5	16	5	15	0	40	0	6	232	6	9	0	28	17	337	0	136	75	44	57	1	46	48	0	137	62	49	50	35	0	1	9	18	14	6	3	28
OTU 71	7	15	2	0	164	37	4	34	11	9	14	2	3	117	3	7	37	124	12	5	82	2	0	14	0	14	0	1971	0	3	10	52	0	20	4	10	5	63	1	4	4	0	14	34	5	11	1	5	38	0
OTU 72	111	63	5	15	89	36	0	23	8	17	0	23	6	95	8	0	26	0	147	0	74	10	21	18	28	61	0	28	20	94	87	52	10	12	2	35	4	18	2	17	597	73	62	7	6	32	0	111	4	1
OTU 73	0	49	21	58	9	228	18	0	70	56	0	24	0	190	21	8	85	44	0	3	198	29	50	124	121	1	33	5	36	18	1	3	18	21	17	0	1508	46	94	4	82	15	27	7	49	2506	5	0	6	34
OTU 74	49	33	12	10	12	0	55	40	17	31	16	107	27	96	34	23	26	56	3	3	81	24	6	28	6	5	29	26	38	212	1	78	32	11	2	23	19	24	74	32	42	0	44	8	2	9	26	80	149	65
OTU 75	9	0	23	79	0	13	7	11	64	1863	4	3	640	0	7	106	23	156	1	9	2	948	119	16	6	102	51	462	986	32	88	30	51	37	7	16	18	1	114	73	72	4	19	6	59	14	79	0	11	59
OTU 76	26	1	0	0	0	17	108	0	0	2	0	2	3	1	0	0	0	0	6	20	0	1	3	8	0	5	5	0	2	3	50	0	0	63	0	0	4	1	15	0	19	246	1	3	5	3	0	30	17	21
OTU 77	115	0	46	16	98	2	12	1	106	175	67	70	50	4	14	10	38	49	2	2	4	96	66	143	3	53	1	1	58	37	85	13	8	0	34	16	5	44	138	24	30	6	10	0	2	142	4	34	56	71
OTU 78	23	353	141	40	680	2	7	27	183	127	220	34	54	64	65	8	3	4	10	26	37	53	845	1004	36	150	113	81	34	5	62	53	55	13	6	11	277	5	38	21	55	3	45	109	3	3	17	223	16	19
OTU 79	135	60	18	145	351	619	700	37	280	185	152	53	206	199	182	10	179	49	137	23	95	86	50	446	77	71	207	138	173	80	100	38	48	175	10	25	110	37	304	161	101	111	315	430	152	106	97	25	252	153
OTU 80	83	35	37	25	34	196	39	2	110	8	44	0	6	32	11	1	133	20	1	0	51	2	63	78	19	11	34	1	49	26	27	13	29	159	41	5	4	38	17	31	82	14	1	33	9	20	17	12	7	5
OTU 81	139	6	11	42	1	1	32	15	153	9	2	7	11	631	22	15	148	227	94	16	273	1	69	8	86	21	83	22	97	29	32	54	24	92	31	12	24	56	25	134	21	29	3	41	44	19	133	18	173	22
OTU 82	18	4	6	10	3	95	39	1	3	57	4	13	6	6	57	18	21	158	32	11	6	30	8	92	2	72	547	100	31	120	0	2	10	100	18	4	30	82	257	3	68	92	0	0	6	3	1	0	14	154
OTU 83	1	0	1	0	39	0	0	0	0	4	0	0	12	0	0	0	2	4	16	0	0	2	0	0	2	0	0	4	1	0	0	0	74	5	0	0	0	1	2	2	82	0	0	9	0	0	1	48	0	2
OTU 84	0	41	38	28	21	1	7	13	30	1	112	0	6	16	41	2	8	45	3	0	6	0	5	11	1	4	3	0	0	8	14	4	51	0	55	1	0	121	16	39	5	18	5	2	1	132	0	2	200	7
OTU 85	47	12	0	7	3	30	5	1	3	2	2	27	23	0	1	0	4	18	0	8	0	0	11	1	23	14	8	16	183	107	8	16	42	0	2	0	0	5	48	0	9	14	23	0	0	8	1	2	0	37
OTU 86	0	0	0	0	0	0	0	0	0	2	0	0	0	11	38	0	0	0	0	0	9	1	0	0	1	0	0	1	4	0	0	0	0	0	0	0	0	1	2	0	0	0	0	0	0	0	2	0	0	0
OTU 87	0	0	0	11	166	5	3	2	0	46	3	5	0	19	0	11	0	0	0	1	21	21	0	0	1	5	3	1	0	0	0	0	0	5	5	4	0	0	16	0	12	0	0	0	0	0	0	0	1	10
OTU 88	0	0	0	1	11	0	0	1	0	0	2	0	2	12	3	4	0	0	0	5	0	0	0	0	1	4	0	0	0	1	1	5	0	0	0	0	0	0	0	0	0	0	0	0	2	0	0	4	64	0
OTU 89	4	32	66	135	0	0	2	4	30	16	33	20	0	0	1	18	0	72	1	15	6	6	6	7	85	0	4	0	4	130	10	10	3	4	3	7	1	1	13	3	4	31	0	0	6	0	5	3	35	11
OTU 90	5	0	1	50	0	0	0	0	102	0	0	0	1	0	2	0	0	67	0	0	4	0	0	1	0	0	0	0	10	0	19	0	52	0	0	9	0	1	5	0	0	0	0	0	1	0	0	0	4	2
OTU 91	2	0	0	30	0	0	0	6	0	0	5	0	0	0	0	0	0	0	0	0	0	0	0	2	0	0	0	0	0	3	8	11	0	0	2	1	24	0	0	0	0	0	0	0	6	0	1	0	0	0
OTU 92	0	26	0	0	7	20	0	2	1	0	2	0	0	23	0	0	21	3	21	7	10	0	0	25	13	14	0	13	11	3	0	2	0	5	0	1	5	0	0	6	5	2	0	7	22	2	3	0	14	0
OTU 93	0	0	0	0	0	4	0	0	0	45	0	0	0	4	0	30	0	39	2	0	0	23	9	0	0	0	0	20	106	0	20	0	84	2	0	2	1	0	52	8	0	14	0	0	0	1	0	0	9	14
OTU 94	244	87	76	30	3	11	117	19	9	11	69	459	40	41	26	106	23	90	289	28	14	2	42	229	60	43	17	14	34	49	195	56	149	21	56	2	42	114	93	101	152	99	527	19	21	153	38	70	215	37
OTU 95	3	0	2	0	0	4	79	0	15	11	0	1	0	0	1	4	61	3	0	3	0	4	5	154	1	17	0	0	3	0	0	1	1	0	0	0	0	0	7	0	39	0	1	22	0	35	0	9	2	2
OTU 96	0	0	2	0	0	0	0	0	0	0	0	3	0	0	0	24	0	0	0	0	3	0	0	0	0	0	0	6	0	0	0	0	16	6	0	0	0	0	0	0	0	47	0	0	6	10	3	0	0	0
OTU 97	0	1	1	463	1	10	39	9	795	1	0	0	32	191	0	35	0	37	0	0	48	1	0	2	0	35	0	0	21	0	0	32	0	0	2	3	153	1	14	4	142	0	0	2	0	551	0	0	0	7
OTU 98	8	7	22	87	4	0	13	140	11	13	0	0	36	0	2	349	61	9	8	12	6	8	0	16	0	22	5	0	1	0	136	293	0	41	0	156	2	0	67	0	2	0	0	0	11	0	4	30	6	18
OTU 99	67	59	30	41	116	3	25	41	26	3	48	77	6	130	31	56	0	233	228	1	130	1	66	85	56	4	8	20	236	59	71	56	81	25	18	46	34	19	34	36	83	107	433	20	17	83	18	4	98	29
OTU 100	61	9	1	4	0	3	38	1	3	71	0	17	67	1	0	0	28	35	8	2	7	43	0	53	0	1	3	0	1	288	0	0	91	0	2	56	16	1	10	1	19	78	0	8	0	47	14	41	88	2
OTU 101	0	0	0	0	7	0	41	0	0	0	0	0	10	0	40	0	0	0	0	0	13	0	0	0	0	46	15	0	0	0	5	1	0	0	0	0	0	0	0	4	0	0	0	0	0	0	0	0	0	0
OTU 102	1	1	0	70	1515	0	0	0	26	0	1	8	0	0	0	0	19	14	0	0	0	0	23	0	0	6	0	4	2	0	0	1	10	0	5	0	23	29	17	0	1	1	0	0	2	8	3	0	6	0
OTU 103	8	5	53	7	28	0	26	20	45	6	6	5	3	121	2	24	35	2	26	0	79	9	0	22	7	0	0	8	1	0	3	48	17	23	23	32	4	81	7	0	3	28	0	7	1	2	6	0	9	10
OTU 104	57	35	14	118	39	153	38	1508	32	52	84	53	10	34	74	91	73	186	4	10	3559	24	7	94	46	159	84	115	56	0	119	8	78	4	31	31	10	25	33	31	85	19	57	6	249	82	1525	29	30	18
OTU 105	0	0	1	3	57	2	0	11	0	0	52	0	1	49	0	0	38	12	10	2	9	0	52	164	22	23	2	0	26	0	0	34	0	0	1	0	6	0	30	18	3	0	0	0	0	28	24	0	0	7
OTU 106	12	1	0	1	0	1	2	0	4	0	1	26	0	0	0	1	0	10	5	0	0	0	0	4	0	12	0	0	2	21	0	0	58	0	0	0	0	0	0	0	0	0	0	0	30	0	9	0	2	0
OTU 107	20	20	736	0	21	3	3	92	1	46	24	205	5	1	1	25	57	2	3	276	10	16	25	3	43	15	0	8	0	0	0	184	0	2	2	45	24	10	80	0	98	0	0	316	0	8	0	1	1	68
OTU 108	1	360	77	0	2	8	8	7	0	4	13	35	0	12	1	5	39	0	42	43	4	3	259	0	17	44	197	3	40	32	7	7	13	19	121	0	0	287	1	14	24	39	1	157	33	0	48	115	14	5
OTU 109	0	0	0	0	0	0	0	0	0	0	0	0	0	0	0	0	0	0	0	0	0	0	0	0	0	0	0	0	0	0	0	0	0	0	14	0	0	47	0	0	0	0	0	0	0	0	0	0	0	0
OTU 110	0	48	21	5	1	13	19	21	10	158	5	23	4	3	56	66	68	35	1	3	0	74	0	61	22	147	18	5	0	596	102	44	28	8	7	47	17	12	31	4	16	89	37	0	0	23	10	81	0	13
OTU 111	2	12	1	16	0	0	0	0	0	2	0	0	0	4	2	4	0	0	0	0	0	2	7	39	0	0	0	1	13	4	23	0	13	0	3	0	0	0	0	19	25	228	6	0	0	0	0	0	2	0
OTU 112	10	2	3	0	6	0	17	0	0	10	0	0	0	6	0	92	1	12	66	0	0	3	0	12	0	2	21	2	28	106	0	0	2	1362	2	3	2	0	0	4	17	0	36	21	0	5	19	5	14	1
OTU 113	1	0	0	1	0	0	0	13	0	3	0	0	0	1	0	0	11	0	1	9	0	0	0	0	5	1	0	0	40	0	17	52	24	0	0	16	14	0	16	0	21	0	0	0	0	0	0	0	2	2
OTU 114	0	119	106	6	65	320	12	9	38	51	31	40	14	45	93	51	5	28	23	1	5	20	6	61	214	9	103	3	83	51	72	5	0	61	48	25	32	81	194	55	43	84	49	21	34	7	10	162	10	86
OTU 115	29	72	60	5	44	117	119	70	59	28	79	58	5	26	30	229	121	86	7	28	21	20	63	33	42	99	100	3	65	44	11	96	86	85	53	9	19	123	48	14	44	46	10	5	1124	45	530	27	122	19
OTU 116	31	27	0	14	31	14	113	54	104	0	13	71	8	49	16	98	51	18	6	4	9	0	2	3	207	54	47	15	161	110	298	115	180	34	11	72	10	36	74	42	1125	20	37	210	20	21	25	95	29	43
OTU 117	73	3	42	20	93	3	92	30	36	2	7	45	17	4	12	1	3	19	1242	30	22	4	73	21	3	24	12	2	7	215	204	27	10	18	0	2683	0	0	1	9	81	15	17	64	22	20	38	12	31	5
OTU 118	20	0	0	0	1	56	23	0	0	0	5	4	0	0	28	1	0	0	0	10	0	0	11	0	0	0	0	6	0	0	0	0	0	0	6	0	0	24	0	0	0	0	0	0	23	1	0	4	0	0
OTU 119	37	12	8	3	23	59	17	3	109	0	1	105	0	9	41	111	73	1139	71	2	16	0	27	34	177	19	4	5	24	40	47	3	64	77	45	0	0	61	142	33	6	16	16	34	9	0	1	4	45	68
OTU 120	6	13	0	0	11	0	1	2	0	12	7	104	1	6	0	21	4	0	2	0	0	6	8	0	1	0	2	123	0	28	2	12	27	5	7	0	14	1	0	0	0	90	3	0	0	2	1	5	0	0
OTU 121	5	0	25	0	60	28	28	5	51	29	81	168	7	6	99	39	62	6	16	0	6	13	7	44	1	14	0	13	36	16	2	1	67	82	1636	1	8	8	4	55	111	30	138	2	27	109	9	1	15	1
OTU 122	33	23	48	9	12	47	16	8	27	24	2	19	16	141	11	50	68	0	13	4	26	10	122	26	1	16	8	11	20	108	160	15	0	11	109	12	5	279	26	33	27	118	7	7	13	20	9	2	1	19
OTU 123	236	1844	754	9	115	62	89	29	223	17	59	180	28	252	41	75	249	194	19	3433	67	8	112	408	89	218	162	58	35	368	191	57	1349	150	34	30	123	102	371	16	361	57	99	3712	25	90	8	1173	528	182
OTU 124	1	9	8	0	25	0	9	0	0	46	37	10	96	11	15	3	1	0	0	4	1	21	55	0	14	0	0	15	0	1	64	0	35	6	0	3	4	0	127	7	29	0	0	0	1	0	12	11	68	81
OTU 125	60	67	19	36	138	258	197	749	6	101	88	218	66	264	728	117	135	56	82	12	50	48	247	67	503	29	275	62	27	105	135	1069	172	643	54	498	57	84	488	65	565	39	110	9	66	75	41	126	181	165
OTU 126	10	14	0	0	0	0	0	0	0	314	0	0	215	2	187	0	1	0	0	2	0	147	0	0	0	3	58	20	0	0	0	0	4	0	0	5	0	0	0	0	1	0	0	0	0	0	0	4	0	0
OTU 127	197	0	17	68	0	0	0	674	150	1	25	102	29	0	18	0	69	10	56	0	8	2	10	3	21	91	22	0	3	0	4	1275	17	27	0	626	10	0	63	0	28	1	30	5	22	10	3	2	73	227
OTU 128	219	779	154	138	80	152	172	194	197	69	108	288	47	239	33	657	131	196	322	68	87	1476	424	67	304	363	465	73	311	23	134	333	1785	61	1638	233	62	26	193	89	175	114	612	63	75	37	75	166	128	57
OTU 129	0	0	0	1	0	121	0	0	0	0	0	0	39	0	0	0	0	0	0	0	0	0	0	0	0	0	0	0	0	0	0	1	13	2	0	0	68	0	1	0	0	9	61	0	0	27	4	0	0	0
OTU 130	33	15	21	3	143	135	2	5	2	0	8	145	3	3	0	0	360	206	87	12	8	2213	186	152	3	1641	9	2	14	14	22	1	1	123	73	0	31	111	83	832	0	15	18	20	27	0	249	10	0	56
OTU 131	48	191	68	0	338	1	9	15	51	10	17	22	93	49	30	2725	15	14	130	20	5	2	47	0	2305	44	4	5	332	6	149	16	10	53	27	13	15	38	6	148	0	91	149	28	1	54	422	372	124	8
OTU 132	33	2	0	0	148	19	6	3	2	0	7	8	0	9	0	5	17	0	0	0	23	0	103	0	1	76	2	1	8	167	8	11	1	20	61	2	1	58	19	0	0	105	0	23	13	0	0	0	17	5
OTU 133	2	47	0	0	45	0	0	0	0	11	0	25	0	23	2	5	7	0	0	1	26	4	0	15	14	0	1	2	3	50	1	0	18	6	11	0	0	10	0	0	2	0	31	1	11	5	0	0	0	0
OTU 134	41	48	0	55	12	0	212	4	7	64	10	1	65	0	7	7	20	1	29	0	1	42	6	5	109	1	181	3	53	21	41	4	80	53	26	1	0	17	4	1	29	1	32	0	26	12	2	5	9	13
OTU 135	12	6	0	45	238	7	3	18	155	52	14	2	23	15	73	17	51	1	2	1	29	20	1	45	13	1	5	2	80	99	312	4	22	47	67	6	0	71	4	60	1	164	4	30	42	10	3	1	0	6
OTU 136	62	34	0	1	3	47	2	238	0	0	5	45	0	13	2	0	50	3	0	2	0	0	92	5	44	0	57	30	24	147	23	476	26	3	66	245	22	30	4	7	60	28	4	5	7	0	0	2	11	10
OTU 137	2	0	0	1	1	0	0	365	1	42	2	1	2	10	3	591	0	0	27	0	0	22	32	0	96	0	2	0	0	42	70	780	0	10	0	439	2	0	69	5	69	2	5	0	2	0	20	1	3	47
OTU 138	19	0	0	1	0	0	1	1	0	9	35	0	5	5	68	87	68	0	0	0	0	6	19	3	2	71	0	3	0	9	159	7	0	8	29	0	3	30	21	16	2	8	1	4	10	1	35	12	27	3
OTU 139	24	68	1278	123	1	48	67	29	89	463	105	241	217	46	752	49	61	33	248	739	42	218	12	112	67	62	192	146	263	94	122	73	163	29	18	16	11	23	154	57	70	524	797	938	6	85	82	8	665	70
OTU 140	468	8	18	136	185	150	419	16	410	30	40	107	13	347	62	80	70	23	80	23	97	22	49	25	56	64	167	59	136	96	675	36	165	29	25	8	491	70	23	25	268	136	19	36	16	310	10	51	63	37
OTU 141	0	0	0	0	0	22	0	0	0	0	0	0	0	14	0	0	0	0	0	0	16	0	49	0	27	1	0	0	0	20	0	0	0	0	0	0	0	0	0	0	0	0	1	0	0	0	0	0	0	0
OTU 142	0	0	0	0	0	0	0	0	24	0	0	0	0	0	0	0	0	0	0	0	0	0	0	0	19	0	0	0	0	0	0	0	0	0	0	0	19	0	0	0	0	0	0	0	0	8	2	0	0	0
OTU 143	0	10	0	1	2	0	34	0	1	30	0	0	11	7	0	0	0	12	1	0	0	19	7	4	2	1	7	0	19	22	19	0	0	56	34	0	0	2	0	0	1	7	0	0	0	1	11	3	4	2
OTU 144	3	0	4	0	21	3	1	8	5	1	0	0	0	0	0	0	0	0	1	0	1	1	0	0	0	0	3	23	0	1	28	13	16	0	0	7	0	0	0	0	21	57	0	1	1	9	16	0	0	0
OTU 145	90	0	9	97	3	6	20	11	153	37	28	7	53	267	6	23	414	0	8	11	91	18	45	16	3	67	51	1	102	26	65	12	1	119	9	0	20	27	6	72	12	53	119	1	0	39	24	11	1	6
OTU 146	1	6	12	0	15	70	0	42	17	69	71	0	0	96	0	0	1	29	105	14	50	44	0	21	86	32	3	70	4	18	1	54	47	2	26	25	2	20	128	100	26	102	2	16	157	0	51	30	4	53
OTU 147	0	0	1	12	16	0	5	0	68	0	0	51	9	39	9	95	6	2	8	13	14	0	47	0	8	52	46	0	19	0	5	10	143	0	9	3	0	0	10	3	0	22	0	6	2	0	0	4	0	0
OTU 148	0	2	27	215	0	11	65	17	6	2	38	1033	0	141	68	11	1066	94	0	19	32	2	79	79	33	9	11	4	49	147	13	37	40	45	68	64	135	81	21	299	0	4	0	3	18	154	159	4	29	8
OTU 149	0	4	0	0	0	0	0	23	2	24	0	11	4	18	0	10	12	0	1	1	0	14	0	2	3	7	0	2	28	65	5	18	1	1	9	2	0	16	62	0	0	1	12	15	3	4	0	0	58	46
OTU 150	0	0	0	0	21	1	0	13	5	8	0	6	0	0	4	0	35	0	0	0	6	7	17	0	45	37	17	5	3	16	23	35	4	0	3	39	0	23	0	0	0	0	1	1	18	0	0	0	11	0
OTU 151	20	5	3	13	7	11	14	0	2	0	7	1	7	4	14	0	77	0	748	0	0	0	0	8	9	22	0	16	0	18	9	0	428	6	0	8	6	6	66	4	114	1	1	8	11	6	1	1	10	45
OTU 152	180	0	1	24	32	49	0	5	35	37	5	72	47	106	21	3	5	1	0	6	73	14	1	101	28	8	126	35	4	30	59	1	2	5	9	3	1	5	47	26	39	1	4	2	12	36	0	8	21	19
OTU 153	0	0	0	0	1	0	0	0	14	0	0	6	0	13	0	0	12	9	0	0	1	0	0	10	0	3	0	1	24	0	0	0	0	18	0	0	0	0	0	0	0	0	0	0	0	1	0	10	0	0
OTU 154	0	0	0	1	0	0	0	0	2	1	3	0	5	0	0	0	6	0	0	0	0	2	1	0	0	0	1	0	0	0	0	0	0	55	1	0	0	0	0	0	0	6	0	1	0	0	0	0	291	0
OTU 155	0	0	0	3	41	511	29	328	0	56	47	0	8	59	9	87	49	0	14	0	6	20	2	4	9	34	37	10	18	0	92	0	5	98	37	1	6	107	81	4	18	1	3	1	4	0	23	48	0	21
OTU 156	35	17	7	86	217	14	74	4	214	39	39	81	40	54	7	5	194	22	2	31	28	20	95	172	9	33	11	48	188	72	84	16	146	21	15	2	10	120	5	82	285	6	53	2	14	126	62	19	34	7
OTU 157	49	0	2	0	342	61	2	0	13	11	2	4	31	6	170	1	70	98	0	1	0	8	0	137	29	68	5	0	0	0	1	0	6	6	0	0	0	11	1	0	0	2	8	3	1	3	0	5	349	3
OTU 158	0	0	0	0	0	13	0	0	0	0	18	88	7	0	0	0	0	0	0	0	0	0	12	0	0	0	0	0	0	0	0	0	0	0	0	0	0	0	0	0	0	0	0	15	0	0	0	3	0	0
OTU 159	17	0	22	33	27	0	8	5	169	6	4	10	7	2	0	71	0	48	6	9	7	5	16	6	1	4	24	3	29	2	29	11	156	9	17	4	16	14	4	21	6	20	7	9	15	1	0	1	0	7
OTU 160	56	214	19	23	41	36	28	201	61	78	260	27	20	122	136	238	89	40	1	31	1339	38	360	345	354	90	48	40	117	364	257	391	102	277	172	215	56	361	708	66	109	136	6	11	22	149	54	68	91	422
OTU 161	86	0	15	8	61	176	1	0	6	28	4	53	35	0	53	39	15	0	1	23	0	14	3	3	9	47	5	59	1	43	8	3	39	34	8	1	4	50	6	0	85	0	14	23	20	9	19	6	42	0
OTU 162	0	27	0	45	236	30	276	6	2	142	21	267	44	17	31	2	0	13	21	0	6	74	7	485	16	31	39	21	16	10	14	17	22	9	3	228	1	3	135	2	3	9	17	17	6	23	3	39	2	59
OTU 163	0	0	0	0	0	1	1	0	0	0	0	0	0	0	0	0	0	0	0	0	0	0	0	0	3	0	0	0	0	65	0	0	0	0	0	0	0	0	0	0	0	0	3	0	0	0	0	0	0	0
OTU 164	0	0	0	0	0	0	0	0	0	0	0	0	0	0	0	0	0	0	0	0	0	0	0	0	0	0	0	0	0	0	0	0	0	0	0	0	0	0	0	0	0	0	0	0	0	0	0	0	0	0
OTU 165	4	30	0	28	37	1	6	0	55	0	4	3	13	25	0	9	49	15	18	9	9	0	0	0	39	51	8	0	147	10	3	1	10	72	15	1	1	15	68	1	2	14	18	0	2	4	26	8	31	17
OTU 166	0	0	0	0	0	0	0	1	0	0	0	0	0	0	0	0	0	0	0	0	0	0	0	0	0	6	0	0	0	0	0	1	0	0	0	0	0	0	0	0	0	0	0	0	0	0	0	0	0	0
OTU 167	3	2	2	55	0	17	0	11	6	36	21	0	0	5	0	4	45	22	2	0	7	23	15	12	0	33	45	12	1	2	0	12	9	58	9	22	0	21	1	0	33	0	6	0	61	55	11	0	0	1
OTU 168	4	5	2	7	28	72	41	1772	4	3	12	114	42	13	46	0	33	71	49	2	19	2	3	30	85	71	28	26	5	15	369	21	58	9	6	18	2	8	60	157	13	3	71	0	46	6	28	19	30	13
OTU 169	0	22	0	0	0	2	2	0	0	9	0	0	0	7	8	1	0	0	0	0	26	4	0	0	0	17	0	0	0	0	0	0	122	8	4	0	0	0	53	0	17	0	29	5	0	0	0	0	2	49
OTU 170	0	0	0	0	0	0	0	0	0	0	0	1	0	0	0	0	0	0	0	0	0	0	0	0	0	0	1	0	0	21	0	0	0	0	0	11	0	0	0	0	0	0	2	2	0	0	0	0	9	0
OTU 171	0	1	350	2	58	193	82	52	0	10	0	24	7	67	1	27	4	50	3	372	54	3	4	20	2	0	6	0	17	39	31	103	4	14	11	74	21	17	18	17	32	6	6	110	17	225	15	15	16	17
OTU 172	0	31	0	0	11	60	1	0	0	1	0	0	0	0	0	0	0	2	0	0	0	0	0	0	1	0	0	1	84	0	16	0	4	0	0	4	14	0	0	4	6	6	0	0	0	0	0	0	0	0
OTU 173	0	6	3	0	0	0	2	45	5	0	0	127	5	16	49	0	0	0	1	0	8	0	1	6	17	0	4	0	76	40	0	126	7	26	2	7	0	27	0	8	0	8	8	0	2	0	7	0	8	6
OTU 174	15	1	1	13	79	2	18	11	24	138	0	241	178	2	811	7	4	1	4	12	1	61	0	6	2	8	0	103	8	17	11	35	1	16	18	13	5	32	12	3	33	1	1	0	0	0	0	1	39	15
OTU 175	0	0	4	20	20	4	6	1	6	5	45	0	0	87	0	7	0	33	6	7	13	4	34	0	1	0	14	152	40	0	25	0	2	8	2	0	11	4	9	4	4	36	14	19	17	2	12	7	18	1
OTU 176	62	98	23	13	26	6	54	1	90	71	2	48	3	0	14	13	4	19	61	33	3	882	5	2	1	24	12	3	66	78	135	9	35	19	27	3	7	41	40	269	6	321	57	3	4	84	135	69	209	18
OTU 177	13	29	55	26	31	118	16	8	37	42	105	0	73	3	12	39	57	30	7	2	0	23	18	9	23	3	95	7	2	50	37	25	6	1	36	18	23	78	3	31	24	37	6	1	30	9	28	7	60	1
OTU 178	0	5	0	1	0	13	10	29	3	12	6	11	3485	75	0	0	12	0	27	8	23	8	0	8	2	0	5	8	847	133	2	48	100	11	1	37	7	12	1	0	9	156	10	9	2	0	1	12	36	0
OTU 179	3	19	11	13	0	9	10	10	3	1	6	57	1	0	4	36	0	1600	10	28	1	0	44	2	7	92	11	1	0	152	0	10	23	13	12	1	4	1	3	6	22	0	1	10	23	0	23	1	23	2
OTU 180	288	140	41	700	46	83	53	107	658	9	3206	92	27	151	92	223	74	334	123	7	71	6	45	17	717	221	2786	13	78	66	21	192	137	176	145	151	215	241	1408	127	137	100	289	6	643	254	70	91	62	732
OTU 181	18	58	1	0	17	54	1	6	0	44	94	5	19	6	0	29	4	4	5	0	5	17	3	159	3	55	8	25	45	22	8	1	27	0	19	3	2	55	27	14	17	12	48	5	0	54	1	0	268	23
OTU 182	0	0	0	1	0	0	0	0	0	19	0	0	0	0	0	0	0	0	0	0	0	5	3	0	0	7	0	0	2	0	0	0	0	14	0	0	1050	0	0	0	0	1	0	0	0	12	0	0	0	0
OTU 183	3	7	1	6	8	8	0	0	18	259	10	230	26	1	8	1	65	47	0	24	3	122	56	10	13	226	3	38	3	17	0	2	40	7	0	0	3	0	40	0	9	0	5	10	4	1	24	8	16	15
OTU 184	5	2	2	2	13	10	0	1	3	0	1	0	0	6	0	2	0	25	1	16	0	0	1	7	0	13	6	8	15	16	0	0	1	6	6	0	3	0	18	0	0	0	110	0	15	5	4	52	0	11
OTU 185	88	6	31	279	8	206	22	3	301	2	1	14	107	356	2	37	2	104	106	2	167	2	2	7	98	4	0	1132	129	6	15	11	2	163	16	9	5	4	27	20	37	13	204	7	3	56	22	539	0	5
OTU 186	97	0	45	0	1	1	21	2	0	0	36	44	13	55	0	5	1	0	50	0	2	0	0	0	18	51	53	12	0	10	7	0	4	0	20	0	0	26	0	0	18	0	3	0	0	0	2	2	1	3
OTU 187	93	21	22	115	26	27	59	3	91	11	56	11	58	115	36	30	12	208	8	10	76	4	179	11	16	106	35	69	11	17	94	10	73	28	327	4	16	98	48	182	21	3	28	47	113	39	173	18	222	40
OTU 188	75	17	3495	20	30	88	59	12	10	62	46	24	38	31	85	28	49	25	16	1668	24	35	26	169	144	146	3	24	86	32	88	19	34	196	39	10	16	59	74	62	321	53	157	1809	6	11	6	11	336	46
OTU 189	2	6	19	87	2	24	44	8	167	10	55	320	49	50	41	89	127	31	17	4	35	182	63	46	2	0	0	3	0	89	82	17	22	35	31	11	40	33	10	10	98	4	101	39	15	99	17	41	80	14
OTU 190	0	1	0	0	54	2	0	0	0	0	28	1	0	0	0	5	0	0	167	0	0	0	25	0	59	0	0	0	1	12	0	0	0	1	45	2	0	130	0	0	15	19	710	0	0	14	0	23	0	0
OTU 191	40	9	7	55	81	30	1	43	19	0	30	107	19	110	25	21	8	34	19	7	71	0	0	184	33	13	233	7	19	225	0	83	54	1072	86	29	1	2	19	39	0	119	0	3	207	47	16	5	27	20
OTU 192	145	103	12	66	158	121	26	19	43	21	83	34	13	32	31	11	469	9	15	28	22	9	232	114	33	3	10	6	47	71	3	38	67	18	4	8	316	12	45	730	23	129	82	1	57	547	204	2	294	27
OTU 193	57	51	17	47	3	686	14	14	5	70	34	47	5	5	19	5	116	5	62	3	2	31	239	86	40	49	0	2	607	5	95	22	8	490	144	380	0	204	2	19	1	4	10	10	8	5	4	1	127	0
OTU 194	1	77	18	24	52	8	6	0	0	113	1	1	104	9	0	8	3	12	1	0	8	54	2	56	0	0	23	5	0	0	22	0	20	5	2	23	5	0	3	9	0	3	21	6	0	6	3	16	0	10
OTU 195	38	0	0	11	66	20	5	8	40	26	11	1	8	18	1	1	0	39	18	8	5	12	1	1	0	36	34	19	0	175	98	21	53	0	1	4	58	15	27	11	0	0	14	0	2	18	2	0	6	15
OTU 196	0	13	14	19	40	5	2922	0	0	50	84	15	0	2	1	33	0	18	0	516	5	20	0	50	2	2	5	0	106	20	41	0	20	41	6	1	36	63	77	1	3	15	4	0	0	125	14	14	19	46
OTU 197	86	32	55	7	48	55	452	23	1	26	1583	85	19	65	18	79	273	32	5	5	45	14	94	138	25	0	0	9	39	107	74	60	100	28	38	20	6	115	172	87	100	401	20	4	737	18	21	7	151	61
OTU 198	0	40	11	0	0	1	0	0	55	47	36	27	48	0	12	1	0	16	2	3	0	22	26	0	1	0	0	13	8	8	0	4	1	59	9	8	0	0	11	0	139	0	1	1	23	0	0	21	0	0
OTU 199	2	2	1	0	3	3	1	2	11	39	1	3	1	5	0	2	10	15	1	0	5	26	0	0	21	34	88	0	0	5	62	1	1	19	2	0	0	0	0	0	6	0	1	9	55	0	11	20	20	0
OTU 200	7	5	1	8	254	18	9	1	5	7	5	74	12	19	82	23	32	0	18	1	26	3	0	13	19	8	13	4	21	26	39	1	11	43	59	8	1	83	2	3	36	42	18	162	33	21	6	7	195	2
