	Host 1	Host 2	Host 3	Host 4	Host 5	Host 6	Host 7	Host 8	Host 9	Host 10	Host 11	Host 12	Host 13	Host 14	Host 15	Host 16	Host 17	Host 18	Host 19	Host 20	Host 21	Host 22	Host 23	Host 24	Host 25	Host 26	Host 27	Host 28	Host 29	Host 30	Host 31	Host 32	Host 33	Host 34	Host 35	Host 36	Host 37	Host 38	Host 39	Host 40	Host 41	Host 42	Host 43	Host 44	Host 45	Host 46	Host 47	Host 48	Host 49	Host 50	
OTU 1	29	24	23	34	2	25	30	31	88	15	46	9	0	33	75	80	18	67	0	54	15	0	10	0	32	2	36	26	10	0	42	12	1	0	36	29	26	38	15	106	1	3	0	16	77	49	93	0	4	7
OTU 2	0	20	8	15	5	2	11	13	3	8	2	11	8	4	0	11	77	24	0	2	827	5	0	10	35	0	0	2	7	0	0	0	1	0	0	1	11	24	58	0	9	0	7	0	2	0	14	0	3	18
OTU 3	0	10	21	6	2	0	0	13	184	60	9	33	1	3	0	0	114	18	0	0	28	0	13	0	11	180	0	103	64	21	5	69	94	0	1	0	26	27	20	35	2	85	38	2	0	6	0	41	1	0
OTU 4	0	0	0	0	0	0	0	0	0	0	0	0	0	0	0	0	0	0	0	0	0	0	0	0	0	0	0	0	0	0	0	0	0	0	0	0	0	0	0	0	0	0	0	0	0	0	0	0	0	0
OTU 5	88	538	80	283	13	383	1050	1505	0	150	1177	2661	405	792	1058	459	153	386	56	11	385	0	96	2	413	169	14	724	426	55	2701	72	0	17	0	233	1346	22	88	232	2	10	850	193	65	234	467	1045	83	141
OTU 6	7	18	0	273	3	0	40	17	23	48	14	43	3	0	9	2	48	64	0	14	13	63	0	12	18	10	22	8	13	21	2	4	3	11	16	1	0	5	5	5	20	8	2	7	3	1	3	1	180	12
OTU 7	29	56	30	76	108	22	52	32	175	9	93	26	8	152	26	3	132	30	17	220	33	129	20	45	8	45	99	74	20	119	2355	24	59	76	237	1115	78	38	46	10	151	113	20	38	13	1140	2441	47	22	70
OTU 8	62	7	41	35	40	129	168	21	41	27	35	36	34	303	28	27	168	33	48	59	5	154	70	88	33	55	26	2942	570	96	516	44	23	69	16	500	174	23	14	368	20	32	9	0	1779	570	909	180	2	55
OTU 9	183	23	66	9	0	35	1	14	1	18	9	29	0	3	63	0	6	25	30	0	2	47	13	384	32	1	0	577	44	8	0	1	1	0	16	0	27	21	7	1478	73	2	11	5	16	0	4	30	18	14
OTU 10	156	0	1	4	0	1	8	15	0	8	18	11	3	8	64	0	0	10	0	0	34	15	16	45	7	17	3	0	0	5	19	0	2	13	22	1	20	0	9	9	0	0	33	2	0	21	24	1	0	1
OTU 11	160	2	30	3	211	96	96	9	52	5	49	24	0	13	14	4	23	4	17	0	52	27	6	151	19	0	2	25	0	19	0	0	29	1	18	2	21	10	75	18	5	7	19	37	135	46	0	5	118	104
OTU 12	63	1	7	94	232	2201	194	8	41	4	28	34	24	204	41	8	135	0	16	41	27	117	5	19	19	95	17	25	30	26	21	796	6	39	40	6	33	38	59	86	72	35	37	10	45	9	47	93	82	98
OTU 13	0	2	0	0	4	0	14	0	0	0	1	3	0	9	0	28	0	0	0	5	0	1	0	41	0	0	18	0	16	4	0	0	0	1	42	1	0	0	0	0	0	1	0	0	0	5	0	0	0	0
OTU 14	0	1	5	4	9	0	71	0	3	13	0	0	59	47	1	40	0	0	32	0	0	0	6	0	0	196	0	1	32	0	9	100	38	136	0	5	0	11	1	4	0	26	0	0	0	0	43	0	2	1
OTU 15	0	0	0	0	0	0	0	0	0	0	0	2	45	1	0	0	0	0	0	0	0	0	0	0	0	0	2	0	0	0	2	0	0	0	0	0	0	0	0	0	0	0	0	11	1	0	16	0	0	0
OTU 16	0	0	3	0	0	0	0	0	0	0	2	1	0	0	0	0	0	0	0	0	0	0	0	0	0	3	0	0	0	0	0	3	0	0	4	0	0	0	0	0	0	0	0	0	0	0	2	0	0	91
OTU 17	65	2	12	15	216	11	39	13	14	1	2	19	64	3	18	104	56	1	0	244	1	25	0	159	1	19	115	5	1	6	2	0	116	69	588	0	12	9	0	0	236	24	5	1	1	4	6	0	9	60
OTU 18	20	119	16	1	169	10	4	8	7	2	195	18	497	0	97	39	32	5	2	61	1163	16	1	24	18	102	39	4	46	16	10	37	205	42	107	0	5	6	2050	3	12	16	141	5	10	1	13	10	294	86
OTU 19	0	0	0	0	0	0	0	0	0	0	0	0	0	0	0	0	0	0	0	0	0	0	0	0	3	3	0	0	0	0	0	0	0	0	0	0	0	0	0	0	0	0	0	29	0	0	0	0	0	0
OTU 20	7	18	7	2	89	41	51	11	31	13	27	54	55	44	31	73	124	20	36	59	19	145	13	55	58	1	30	14	23	32	195	0	59	178	134	183	35	17	51	52	203	15	33	0	603	145	337	8	16	471
OTU 21	80	21	372	14	95	25	12	14	22	30	47	27	145	106	5	61	20	77	13	6	309	61	172	57	20	2065	2	10	11	55	144	1219	17	82	24	143	41	6	431	37	33	84	68	54	531	231	267	8	13	18
OTU 22	3	32	25	5	42	96	20	0	649	24	22	1	49	67	29	40	94	11	51	255	9	33	16	0	3	213	122	318	10	39	229	80	118	69	493	257	147	0	8	14	35	165	8	1	6	278	509	319	74	0
OTU 23	72	10	4	17	3	736	78	2	0	4	0	4	0	7	0	1	1	0	38	2	0	2	3	14	1861	40	0	0	23	2	0	107	2	237	7	0	22	0	0	49	4	2	0	14	87	5	1	13	5	18
OTU 24	0	14	12	1	0	7	19	45	54	15	0	53	7	16	0	9	31	20	6	0	11	0	20	5	16	32	0	29	1	171	112	62	14	1	4	0	3	0	0	1	0	23	4	0	68	0	0	2	11	1
OTU 25	0	0	0	63	0	0	0	47	0	0	4	107	0	0	97	0	2	0	0	0	0	0	0	0	0	0	0	0	75	0	0	0	0	10	3	0	0	160	0	17	0	0	0	0	0	0	0	0	0	0
OTU 26	0	2	0	0	0	0	8	0	0	1	0	0	0	0	0	0	1	0	0	0	0	0	0	0	0	0	0	0	24	4	0	0	0	44	0	0	0	0	0	1	0	2	0	11	1	5	0	0	45	0
OTU 27	44	0	0	0	2	0	0	0	0	0	0	3	0	0	0	0	0	0	0	0	0	0	0	0	0	0	0	0	0	0	0	0	0	51	0	0	0	0	2	0	0	0	0	0	0	0	0	0	0	1
OTU 28	17	217	395	114	64	42	2	62	88	237	10	35	31	7	162	14	140	179	25	140	120	14	220	44	96	129	69	50	18	42	401	22	22	17	133	408	13	180	323	515	24	22	160	42	431	453	933	28	54	32
OTU 29	8	11	34	16	8	20	21	30	14	11	120	58	1	27	14	39	26	17	9	6	9	252	32	64	5	14	2	6	72	1038	0	44	2	11	34	1	10	51	35	7	45	57	41	19	72	0	6	29	21	3
OTU 30	0	0	0	0	0	0	0	0	0	0	0	0	0	0	0	0	0	1	0	0	0	0	0	0	0	0	0	0	0	0	2	0	0	0	0	16	0	0	0	0	0	5	0	0	0	0	17	0	0	0
OTU 31	7	0	11	24	0	595	2	1	0	5	1	40	39	36	103	0	19	4	28	0	0	0	11	21	7	0	0	0	609	197	8	15	13	21	0	0	5	40	0	14	16	13	0	46	28	6	0	0	0	91
OTU 32	1	72	47	90	24	1058	9	10	23	12	7	13	226	25	13	78	42	132	1	5	3	43	33	189	65	55	16	5	66	23	9	13	2	30	39	29	10	4	0	56	106	39	20	23	89	9	1	52	25	3
OTU 33	0	0	22	0	0	5	0	0	0	0	0	0	2	0	0	0	17	3	0	0	0	0	83	17	0	0	0	0	1	0	0	0	0	0	0	0	0	0	0	0	0	0	116	0	0	0	0	14	0	0
OTU 34	8	28	22	65	1	16	20	0	146	19	23	54	51	104	127	1	39	4	47	0	91	62	5	106	8	9	0	63	7	60	12	1	144	4	1	27	821	47	48	0	8	7	3	12	53	8	30	1823	22	310
OTU 35	0	47	0	1	27	2	433	10	18	21	2	12	10	64	3	48	175	71	110	34	2	147	17	25	12	9	278	5	77	167	9	8	0	13	3	0	50	17	1	1064	11	26	7	16	5	0	10	0	102	529
OTU 36	9	0	19	13	1	81	59	1	30	8	0	5	4	18	0	249	3	2	0	8	22	8	8	0	0	24	2	20	35	3	1	7	8	26	0	2	24	5	5	11	3	23	13	21	0	7	6	8	79	21
OTU 37	10	0	0	25	15	4	0	27	19	0	0	0	2	94	0	0	31	0	25	0	0	0	0	20	0	94	0	7	0	8	0	39	0	0	0	0	1	4	0	52	2	47	1	1	8	0	0	0	0	0
OTU 38	129	3	21	151	49	63	45	10	12	0	46	92	6	58	929	124	11	16	55	1	2	26	72	53	2	32	11	4	55	1	42	5	129	47	5	40	2	54	0	292	52	53	12	504	112	23	50	49	12	31
OTU 39	0	1	0	116	0	0	0	28	12	0	3	65	4	0	7	3	0	0	0	4	0	25	0	6	0	13	8	4	0	1	0	2	0	0	1	0	22	121	0	2	0	0	16	39	0	0	0	0	38	1
OTU 40	26	4	8	19	16	20	40	3	43	18	32	11	2	204	1	3	27	18	6	6	26	6	7	50	25	59	4	36	42	4	13	181	7	90	8	21	2	1	11	65	32	32	1	3	28	15	19	12	190	1
OTU 41	16	32	23	114	26	6	44	93	26	50	337	206	1	18	169	21	35	7	9	106	5	1	31	6	4	40	67	7	43	7	6	9	15	0	250	2	7	139	3	21	15	3	10	172	0	0	3	78	20	191
OTU 42	56	0	2	38	0	0	0	7	6	0	7	0	2	17	1	2	5	0	34	3	1	5	1	84	1	0	1	1	0	0	1	0	5	0	0	1	39	0	0	0	0	0	2	0	0	3	0	0	45	0
OTU 43	0	1	0	1	0	0	0	0	1	0	0	0	0	0	0	0	0	14	0	0	0	0	0	0	0	0	0	1	16	0	0	37	0	27	0	0	0	0	0	0	0	0	0	0	0	0	0	0	0	0
OTU 44	0	0	0	0	0	0	39	0	48	9	0	0	8	2	0	10	0	0	4	0	0	0	4	0	0	16	0	23	0	0	21	0	18	1	16	2	0	0	0	0	0	4	0	4	0	2	12	0	0	8
OTU 45	67	39	85	2	72	18	31	17	29	19	9	8	137	188	4	18	123	53	11	64	46	91	43	179	12	99	24	25	46	1	0	32	71	194	23	14	41	0	2	11	29	121	24	12	33	3	4	1	13	24
OTU 46	27	3	55	57	19	37	48	1	22	14	1114	18	11	54	19	37	19	0	223	32	15	13	50	14	23	29	17	9	46	3	0	5	43	27	36	2	6	4	13	218	7	99	0	36	29	3359	4	22	39	31
OTU 47	79	10	0	0	0	0	0	1	0	4	0	3	5	1	0	1	0	2	1	0	0	2	0	11	0	0	0	0	0	24	0	0	0	0	0	0	0	0	0	1	21	0	0	10	0	0	0	0	0	0
OTU 48	40	424	32	13	82	77	34	10	215	327	22	27	202	69	25	3	30	268	286	8	41	32	20	23	3	156	8	101	121	128	28	61	8	157	0	27	10	33	33	8	112	149	17	19	16	8	52	120	16	76
OTU 49	25	10	0	9	12	3	75	0	0	15	18	15	0	20	9	35	0	30	1	9	9	212	0	32	3	56	3	0	14	1	0	10	122	0	23	14	13	3	1	38	32	0	39	1	15	57	5	0	65	4
OTU 50	41	2	24	33	85	45	20	9	60	1	33	41	9	8	11	19	21	38	17	37	0	21	26	5	414	37	27	25	0	144	37	1	68	8	156	44	18	506	16	12	150	56	698	2258	47	42	29	15	2	33
OTU 51	20	0	0	3	4	5	7	18	0	1	8	1	10	0	1	0	4	26	9	8	3	0	0	9	13	1	0	0	11	15	4	8	43	0	38	0	63	4	15	132	16	26	2	20	9	6	12	17	465	0
OTU 52	175	38	17	76	134	4	66	46	62	60	31	55	38	21	23	82	47	89	149	66	12	208	22	30	7	42	23	25	604	11	12	10	27	135	11	14	22	75	44	216	72	55	47	64	47	29	7	117	97	47
OTU 53	0	0	0	0	0	0	0	0	0	0	0	0	0	0	0	0	0	0	0	0	0	0	0	0	0	0	0	0	0	0	0	0	0	11	0	0	0	13	0	0	0	0	0	0	0	0	0	0	0	0
OTU 54	24	16	19	36	24	37	44	10	71	19	15	4	11	16	16	17	47	13	39	24	1966	54	14	38	48	66	2	29	60	98	27	43	80	53	41	18	10	10	37	52	100	48	98	55	134	65	74	65	98	117
OTU 55	0	0	0	4	2	0	0	1	0	0	0	0	0	0	0	0	0	0	0	0	0	0	0	0	0	0	0	0	0	0	0	0	0	1	0	0	0	5	0	0	0	0	0	0	0	0	0	0	0	0
OTU 56	0	67	11	7	35	0	12	21	1	67	2	11	0	5	33	2	66	64	3	25	39	29	0	11	76	1	1	0	0	0	0	51	0	0	18	0	1	9	2	2	58	0	0	56	33	30	0	16	149	2
OTU 57	124	78	84	43	376	11	31	33	115	77	85	22	70	184	54	109	109	1198	46	192	37	202	48	112	52	21	80	59	122	176	49	3	83	100	479	40	16	91	157	115	248	31	79	76	183	53	107	26	22	220
OTU 58	22	68	19	0	10	2	196	0	0	136	16	19	11	10	21	0	3	115	1	0	0	12	1	13	2	47	51	0	4	4	8	2	21	0	47	0	0	15	2	0	31	1	1	0	6	0	2	0	88	17
OTU 59	0	5	12	32	88	0	2	46	8	2	5	81	3	81	92	13	286	0	58	59	3	4	25	75	0	0	53	3	26	6	0	2	34	0	86	2	22	17	3	0	12	11	4	13	2	0	0	60	78	3
OTU 60	22	393	2	3	38	74	30	29	226	201	19	29	198	0	47	54	58	368	5	126	36	401	16	43	99	16	62	102	289	13	6	20	15	17	104	16	16	38	129	87	684	35	172	1	0	9	8	123	49	55
OTU 61	49	7	15	140	317	9	25	74	227	494	2	177	4	54	162	289	28	17	73	1	929	57	23	247	74	7	4	103	521	16	23	1	58	113	11	39	101	601	1956	83	300	90	7	75	44	20	28	29	62	21
OTU 62	0	0	5	8	0	34	0	0	13	1	26	0	2	0	0	0	0	6	0	0	2	0	313	0	3	6	0	7	0	6	0	7	0	12	0	0	3	0	2	0	8	0	1	32	0	0	6	0	13	1
OTU 63	28	460	2	1	47	4	0	21	50	19	23	26	12	21	36	11	5	4	1	138	7	0	1	54	0	156	75	23	2	1	7	19	42	120	218	0	7	0	36	22	0	0	26	30	1	6	0	22	53	5
OTU 64	12	48	4	1	89	19	33	30	121	44	123	38	16	111	71	71	136	66	75	0	12	92	35	191	7	9	1	58	17	7	37	17	79	131	15	25	22	40	17	120	165	94	13	11	28	30	60	15	226	10
OTU 65	0	0	0	0	0	0	0	0	0	0	0	12	0	0	0	0	0	0	0	0	4	0	0	0	0	0	0	0	45	1	0	0	0	0	0	0	0	0	20	0	0	76	0	0	0	1	0	0	0	0
OTU 66	44	10	23	101	118	14	12	4	92	7	21	41	25	84	24	64	300	27	3	20	17	28	9	0	10	4	15	50	46	69	3	23	33	163	47	1	63	44	7	100	57	95	7	37	40	12	7	79	3	40
OTU 67	4	7	20	31	41	58	0	9	48	8	3	24	3	13	31	24	58	2	5	4	22	24	4	9	0	59	5	25	110	78	1	0	191	3	12	2	26	139	26	35	59	29	5	32	6	978	11	46	140	0
OTU 68	0	0	33	14	542	39	24	0	27	1	0	8	0	5	26	0	0	8	0	0	55	0	0	31	0	75	2	15	4	124	46	49	0	53	9	9	0	0	35	50	1	7	0	2	15	6	44	34	2	0
OTU 69	16	0	81	2	129	25	29	11	11	7	7	6	4	288	28	0	18	3	9	0	5	36	1	16	18	33	5	7	4	111	26	26	160	14	0	363	1	0	78	82	38	36	4	0	2	4	21	7	13	28
OTU 70	81	0	9	0	3	0	9	15	32	11	40	3	4	16	70	15	0	0	1	5	3	126	0	61	0	22	8	20	9	99	0	1	55	20	1	1	0	36	1	6	6	1	0	2	16	7	0	1	22	24
OTU 71	11	0	1	1	3	11	4	8	39	0	0	0	0	17	5	0	19	0	0	1	24	2	0	118	0	40	0	20	5	37	13	26	0	1	1	0	39	19	18	3	12	0	0	47	3	10	36	59	1	0
OTU 72	138	10	28	16	25	5	9	0	22	16	86	19	86	37	32	2	18	0	23	9	5	2	3679	55	0	7	6	9	60	9	1	9	32	0	44	8	13	29	8	9	20	46	17	13	57	3	2	78	6	13
OTU 73	3	90	40	92	3	9	29	13	64	87	0	57	13	12	127	0	83	109	594	45	19	14	20	70	37	47	16	38	7	58	12	4	13	175	38	15	16	117	50	50	64	37	18	74	8	197	43	61	22	0
OTU 74	10	7	3	4	8	37	291	15	185	41	0	57	10	283	19	0	0	3	17	20	8	13	16	22	75	0	19	104	52	61	3	50	213	141	62	5	406	38	3	5	24	62	17	11	107	3	15	56	33	79
OTU 75	19	8	45	29	98	44	8	6	24	240	79	2	108	14	0	90	111	4	29	131	1300	14	51	241	4	275	63	13	13	24	12	21	33	892	291	22	26	31	6	1	103	191	8	10	41	18	41	9	6	55
OTU 76	114	20	8	21	10	0	7	6	1	29	2	4	0	33	433	0	4	43	4	36	1	0	0	146	1	4	17	0	10	0	0	8	56	43	54	0	0	0	3	0	1	2	20	298	15	0	0	0	4	27
OTU 77	43	0	4	14	15	1	67	35	3	9	23	40	89	89	4	79	3	11	20	8	27	14	26	99	8	5	2	1	0	38	17	21	50	12	83	7	5	7	61	47	24	123	12	38	28	2	13	7	19	2
OTU 78	86	16	9	4	0	24	5	15	18	0	26	2	26	35	3	7	10	5	22	3	1	25	0	228	49	114	2	6	8	139	10	120	68	167	10	9	0	6	0	1	43	14	4	11	13	5	0	5	0	2
OTU 79	109	644	220	187	289	242	93	25	33	782	152	99	195	39	95	149	378	534	90	954	146	115	37	231	22	85	420	12	84	435	65	184	75	418	312	92	124	100	133	104	129	615	41	54	59	30	81	70	98	199
OTU 80	105	32	85	30	107	1	199	43	44	72	0	40	9	114	9	74	7	61	310	11	4	185	36	20	6	10	0	23	18	92	0	13	142	27	50	5	8	71	10	21	54	77	28	19	28	47	18	7	39	8
OTU 81	33	31	374	4	16	23	58	27	158	8	13	0	103	4	70	18	97	44	8	5	158	73	116	164	95	94	2	61	33	1357	32	19	34	5	13	10	237	68	475	28	78	11	10	13	73	65	83	151	1014	106
OTU 82	692	14	11	2	0	202	117	1	15	39	14	12	25	148	2	4	27	20	38	1	0	5	5	1423	0	79	0	11	1	7	19	4	23	70	38	12	4	16	14	88	86	11	7	17	38	1	23	39	122	0
OTU 83	0	0	4	8	0	121	0	1	0	0	10	7	0	0	0	0	3	0	0	0	4	5	0	7	45	52	0	0	8	0	0	39	70	27	10	0	0	3	0	0	11	10	0	0	40	3	0	5	21	0
OTU 84	16	75	0	48	22	4	23	3	22	41	2	6	1	0	79	28	11	1566	2	117	20	18	0	37	32	21	78	10	0	0	21	4	2	0	266	22	0	29	40	40	8	25	6	29	2	30	31	2	40	48
OTU 85	4	3	0	0	32	4	1	0	4	0	0	0	0	0	1	0	0	0	0	0	1	1	33	12	0	0	0	3	5	0	0	0	0	2	0	1	1	41	0	22	1	37	0	0	1	0	4	11	18	0
OTU 86	0	0	3	0	25	0	0	0	1	0	48	0	1	0	0	0	0	0	0	0	0	1	0	0	0	0	0	0	4	0	0	0	2	78	2	0	3	0	0	0	0	1	0	3	0	0	0	13	8	0
OTU 87	20	0	2	2	288	1	32	17	13	3	23	149	1	145	112	0	3	0	78	0	0	133	0	8	34	4	0	3	1217	0	16	0	0	0	2	1	0	21	3	8	35	85	0	33	0	18	1	0	103	17
OTU 88	0	0	34	0	0	0	0	0	4	0	0	0	16	22	0	0	9	0	0	3	0	0	1	20	19	0	1	2	0	6	0	0	1	0	0	0	0	0	0	0	0	6	0	1	0	2	0	0	521	0
OTU 89	0	0	52	4	79	0	138	7	0	6	0	1	47	188	6	16	111	3	0	15	0	25	2	2	37	2	7	0	0	1	0	24	0	2	0	0	0	0	3	5	0	0	58	4	1	0	0	13	18	31
OTU 90	0	0	0	0	16	0	14	0	5	0	0	0	0	8	6	0	54	0	0	0	3	9	43	0	0	0	0	2	0	0	1	0	68	0	0	2	6	0	7	0	3	20	0	0	0	0	0	98	0	95
OTU 91	0	0	0	0	0	1	0	2	3	0	0	0	0	2	0	0	69	0	0	38	1	0	0	0	0	1	0	0	0	0	0	0	0	7	92	0	0	0	0	4	144	24	0	0	0	0	0	8	0	0
OTU 92	2	0	0	1	0	4	0	1	24	0	0	0	15	65	1	21	1	0	16	0	0	4	6	0	0	32	0	8	4	7	0	0	0	27	0	0	11	2	0	4	9	1	0	0	20	0	0	0	1	66
OTU 93	0	0	0	0	0	0	52	0	1	0	0	1	0	0	0	41	0	2	0	0	6	0	0	0	3	1	0	0	1	0	0	0	0	0	0	0	14	0	5	0	0	0	5	0	0	0	0	0	0	0
OTU 94	9	16	11	97	4	40	3	1	353	74	6	35	12	37	46	18	104	34	14	9	33	54	1	41	83	29	7	177	41	10	2	54	2	94	17	14	15	12	24	30	20	132	138	23	79	18	47	124	28	0
OTU 95	9	7	0	0	9	5	2	5	10	23	3	2	0	0	17	0	0	0	3	130	3	55	1	0	0	57	56	4	10	228	0	0	108	93	241	0	6	32	42	0	106	111	0	23	0	0	0	7	0	0
OTU 96	0	0	85	6	0	2	50	0	0	0	0	9	0	0	0	26	0	0	0	11	15	0	1	0	0	0	3	0	0	0	47	0	1	0	0	59	0	0	4	0	9	3	60	0	2	14	61	0	25	9
OTU 97	0	5	1	23	0	0	0	0	0	3	0	2	3	0	0	0	91	7	0	0	16	12	0	59	0	0	3	0	0	0	0	0	2	0	0	0	1	0	15	0	35	0	0	0	4	1	2	37	27	0
OTU 98	7	0	8	3	1	0	0	1	2	0	7	8	3	2	0	2	0	7	58	0	4	13	0	53	0	19	0	1	0	11	0	15	14	0	56	12	1037	9	3	67	0	1	2	18	0	0	0	10	39	11
OTU 99	23	68	8	58	74	4	6	0	119	59	8	14	17	5	56	56	7	70	108	34	2	1331	4	14	1	63	21	60	4	122	0	11	3	14	32	6	43	30	43	14	67	168	0	8	50	43	17	107	10	6
OTU 100	7	3	17	30	14	8	10	37	7	0	30	4	18	35	23	0	11	0	9	12	0	31	10	15	0	22	0	5	30	0	2	17	56	54	80	3	0	12	1	5	65	2	0	14	9	0	9	9	5	0
OTU 101	2	0	1	0	1	0	0	0	14	0	70	0	22	0	0	0	25	1	0	0	0	0	7	0	3	0	0	7	0	0	2	5	0	2	0	0	1	7	0	0	0	0	0	0	8	0	0	0	0	0
OTU 102	140	0	83	0	0	31	6	0	102	0	0	1	7	69	22	1	26	0	2736	10	4	0	3	0	0	0	9	70	45	72	0	2	0	37	0	0	15	4	0	0	9	0	0	12	0	0	0	21	2	22
OTU 103	6	3812	7	136	50	0	1	87	13	2	24	40	4	11	100	16	7	0	13	13	3	10	0	0	35	57	4	12	31	0	47	100	12	15	19	27	6	60	2	8	115	1362	30	27	6	26	35	2	23	31
OTU 104	102	120	4	15	76	50	96	37	37	61	2	20	14	5	1	64	99	68	1	32	0	28	2	198	24	6	15	16	86	185	28	15	15	26	85	41	10	32	86	16	17	2	92	13	18	39	32	15	70	63
OTU 105	7	0	4	0	1	0	21	12	0	0	0	0	0	0	24	0	0	0	17	5	0	9	17	0	1	0	0	0	3	0	0	1	0	0	9	0	0	8	3	9	0	1	1	12	0	0	5	35	3	5
OTU 106	2	0	2	7	1026	0	35	32	47	1	0	20	0	41	17	405	2	8	60	0	2	0	0	17	0	132	0	20	6	0	3	67	0	0	9	2	9	71	2	0	7	2	3	4	0	17	0	9	0	18
OTU 107	0	49	7	0	0	0	0	31	93	29	9	58	1	187	8	0	3	68	0	9	19	51	1	4	34	6	17	57	6	170	0	1	0	25	0	0	32	0	18	60	15	20	11	7	8	0	0	67	54	26
OTU 108	37	0	65	10	5	38	5	47	32	0	18	83	0	31	2	21	318	1	13	15	19	37	24	28	0	4	6	184	1	50	0	2	32	46	2	4	1	28	0	172	10	0	30	6	44	5	3	7	2	1
OTU 109	0	0	0	0	0	0	0	0	0	0	0	0	1	0	0	0	0	1	0	0	0	0	0	0	0	3	0	0	0	0	0	0	20	0	0	0	0	0	0	0	0	0	0	0	0	0	0	13	0	0
OTU 110	0	5	7	76	30	15	29	11	53	7	3	38	2	33	141	19	32	7	0	4	4	210	1	45	222	0	7	32	29	61	5	44	25	12	11	0	20	62	7	3	67	44	217	41	63	33	0	72	10	56
OTU 111	0	0	20	0	4	0	3	0	0	0	3	15	0	0	0	3	0	0	0	9	0	0	10	0	5	0	4	0	0	6	0	3	0	3	0	1	0	0	35	20	0	0	0	0	1	0	0	17	23	89
OTU 112	7	13	7	10	39	3	0	0	22	3744	0	0	50	0	1	0	10	0	0	28	0	5	1	1	11	7	21	9	4	27	0	24	6	13	16	8	0	7	5	0	4	0	21	39	0	0	0	0	1	13
OTU 113	39	12	1	2	36	1	0	0	0	32	11	0	0	1	7	3	0	23	0	0	0	14	0	2	0	5	0	0	2	0	0	0	104	0	0	0	7	0	8	3	0	19	0	0	4	9	0	19	6	2
OTU 114	22	100	3	35	39	71	8	24	655	69	2556	27	0	0	3	44	514	61	40	40	12	19	21	30	73	31	14	335	104	108	8	14	26	112	8	40	37	2069	61	18	164	21	0	14	43	57	46	346	202	84
OTU 115	57	45	49	16	168	59	116	16	23	41	15	4	12	71	5	40	241	46	115	28	6	29	56	167	292	106	14	10	3	18	23	26	29	60	54	66	66	10	34	21	10	37	424	8	32	34	29	19	49	51
OTU 116	139	25	80	29	81	11	14	2492	109	48	10	4	38	10	9	5	12	40	29	66	45	2	29	50	34	41	21	48	82	12	8	2	0	93	78	24	46	12	36	56	129	56	78	11	59	25	22	17	100	20
OTU 117	8	13	8	6	17	50	6	9	173	1	0	0	19	23	0	3	159	4	4	29	22	157	1	0	0	134	23	82	137	6	24	172	18	74	88	54	2	5	1	6	30	4	4	11	19	1	23	75	7	56
OTU 118	1	50	0	0	0	0	0	14	52	17	0	26	2	0	0	16	0	15	1	2	0	0	7	22	0	8	0	26	4	0	0	2	0	4	2	0	0	5	19	0	1	13	5	4	4	6	2	10	72	2
OTU 119	22	116	260	19	64	8	37	13	180	84	3	0	6	31	168	1	151	78	15	4	52	142	83	92	21	40	2	77	184	16	57	15	63	8	20	89	123	16	197	90	11	243	1	152	46	126	92	93	44	166
OTU 120	4	0	0	5	0	0	2	12	85	4	5	59	1	12	7	0	9	0	98	5	0	1	0	0	6	0	6	45	4	1	0	0	2	0	0	1	2	6	6	0	13	0	10	0	5	0	0	0	72	7
OTU 121	39	9	0	23	44	17	0	37	0	1	1	1	5	25	16	134	0	0	135	24	8	0	4	8	6	6	7	0	21	12	0	8	63	9	8	0	0	21	13	0	93	0	71	61	3	0	0	0	0	34
OTU 122	61	10	21	141	53	3	872	27	31	8	18	73	16	641	82	12	74	15	104	1268	4	98	3	0	29	0	609	15	40	0	16	47	5	10	229	8	1	227	16	11	215	14	33	18	4	47	46	23	18	0
OTU 123	50	74	41	14	98	65	82	88	735	78	113	41	49	164	26	30	366	1759	275	200	122	336	63	227	59	168	87	381	172	185	14	79	142	266	246	25	132	109	89	185	466	296	22	49	117	25	55	376	259	142
OTU 124	2	0	0	2	6	26	0	14	0	0	0	17	0	0	0	3	18	1	2	0	0	0	0	0	1	0	0	0	0	0	3	0	28	25	0	14	0	0	0	5	0	63	0	0	4	10	0	11	0	2413
OTU 125	143	85	89	64	75	631	125	41	66	37	38	67	242	138	74	57	141	90	133	23	131	459	64	113	101	93	15	22	138	142	42	93	17	97	29	8	8	135	195	122	136	524	16	82	128	73	157	101	728	105
OTU 126	0	0	2	0	0	0	0	0	49	0	6	0	0	76	9	0	0	0	0	0	0	0	7	10	1	7	0	30	0	0	0	0	0	0	0	0	0	8	7	0	0	14	0	0	0	0	0	2	0	0
OTU 127	1	4	1727	0	5	16	3	18	15	6	61	40	0	31	0	26	161	0	6	2	1	14	1060	85	3	0	1	6	9	4	0	1	0	0	1	0	27	0	3	25	35	8	1	7	6	1	1	9	2	7
OTU 128	157	28	193	206	92	73	104	76	450	42	55	132	124	170	162	238	245	68	26	91	76	148	49	96	104	197	35	231	47	162	51	19	665	123	111	28	191	158	55	234	416	169	47	97	88	16	77	208	262	436
OTU 129	0	0	1	2	19	0	1	321	1	0	5	896	6	0	0	1	0	0	1	1	0	6	4	6	1	1	0	1	7	2	0	2	1	37	4	0	3	0	0	81	13	9	0	1	76	0	0	0	0	0
OTU 130	7	14	0	34	0	7	12	3	5	41	24	3	1	25	5	0	163	90	141	2	12	37	35	23	28	20	0	0	0	147	0	25	7	5	21	4	48	11	15	2	31	9	6	2	17	3	1	93	48	4
OTU 131	34	3	57	68	55	3	0	1	45	5	55	70	33	5	0	10	8	3	58	0	0	19	6	1	57	35	0	40	0	193	2	121	1	30	4	0	17	20	17	93	42	0	63	2	20	0	0	91	0	5
OTU 132	0	1	0	0	5	38	47	1	31	0	79	10	0	1	16	0	29	0	28	12	0	0	1	8	0	0	11	15	3	0	9	0	0	4	27	1	13	0	2	95	4	78	23	0	77	1	11	49	1	0
OTU 133	36	0	0	11	6	40	35	0	18	6	4	0	0	0	5	0	3	1	2	30	9	0	0	0	0	0	11	7	0	1	0	0	11	29	54	0	0	0	0	2	0	0	0	0	3	0	6	0	1	0
OTU 134	34	64	0	64	0	0	11	1	7	36	48	33	38	0	6	29	4	24	44	1	8	32	9	60	17	55	3	3	49	85	1151	1	8	27	7	1	28	16	80	1	46	180	129	0	95	13	3	32	54	0
OTU 135	70	21	14	0	4	9	159	31	69	21	2	0	12	9	26	0	0	9	11	1	0	2	103	18	1	13	8	31	17	6	5	1	1	38	2	7	14	37	21	0	7	34	21	3	28	4	12	180	13	40
OTU 136	61	56	0	35	58	12	0	54	0	17	25	264	1	60	3	1	40	24	27	20	26	64	17	19	1	29	5	0	8	0	34	0	167	0	141	21	0	4	50	45	0	0	25	74	34	0	70	249	21	8
OTU 137	18	0	24	3	0	0	0	2	88	1	25	0	0	28	1	0	33	7	0	1	0	0	8	0	1	0	0	60	0	0	0	0	104	0	0	0	31	0	10	9	33	0	0	29	23	20	0	54	425	0
OTU 138	0	0	0	36	0	0	0	14	10	7	15	3	1	1	10	0	50	0	49	14	2	0	0	0	20	129	16	4	78	109	5	3	26	10	16	24	5	0	1	13	10	9	0	8	106	0	8	0	0	1
OTU 139	204	22	60	35	73	12	0	11	86	23	32	20	3	9	16	94	3	32	15	52	72	195	37	83	23	34	38	47	26	43	28	10	49	31	112	29	441	12	176	509	98	21	106	5	28	18	49	785	92	53
OTU 140	48	23	11	108	58	40	1460	21	152	22	223	40	111	30	112	343	268	41	83	171	32	186	27	238	1864	75	90	79	69	11	4	286	2064	106	300	3	705	38	56	45	74	323	84	15	17	8	28	81	191	54
OTU 141	0	0	0	0	0	0	0	0	0	0	0	0	0	0	0	0	0	0	0	0	0	0	4	0	0	0	0	0	0	0	0	0	0	0	0	0	0	0	0	0	0	0	1	0	0	0	0	0	0	0
OTU 142	0	0	0	32	0	0	0	0	0	0	0	0	0	0	0	0	0	0	0	0	0	9	0	0	0	0	0	0	0	0	0	0	0	6	0	0	0	0	0	0	0	0	0	0	0	0	0	0	6	0
OTU 143	2	8	0	2	1	0	0	0	83	6	0	2	0	1	12	0	16	4	1	24	4	26	8	7	24	14	13	34	0	3	0	0	0	7	117	0	0	0	0	43	3	22	4	1	2	0	2	49	1	4
OTU 144	0	0	17	0	0	0	0	9	2	0	5	2	18	1	0	0	21	1	0	0	0	0	51	0	4	1	0	1	0	13	5	56	43	0	0	0	1	3	1	0	2	0	15	8	0	0	0	23	0	0
OTU 145	100	30	16	98	50	1	91	93	15	16	51	207	20	582	319	9	20	7	0	1	8	77	4	86	47	36	2	5	34	9	6	18	3	63	2	17	21	255	1	15	49	25	26	107	55	0	52	29	366	259
OTU 146	10	70	23	10	69	42	10	25	9	77	41	36	1	39	1	10	0	92	32	6	5	3	11	39	487	36	4	0	7	0	26	23	20	6	30	300	14	45	17	175	153	2	847	105	36	14	43	9	23	10
OTU 147	0	12	32	0	16	26	40	24	0	7	29	1	32	32	0	3	229	0	19	7	0	1	2	9	0	74	4	0	21	183	3	0	259	1	7	1	40	0	3	2	2	2	0	0	7	25	5	10	0	7
OTU 148	47	0	1	57	119	7	58	7	9	0	26	21	46	40	54	2	0	2	6	0	0	5	13	9	35	497	0	1	0	63	1	224	16	1077	47	4250	34	70	21	20	0	5	0	15	11	2	0	31	34	0
OTU 149	28	0	7	19	1	11	23	5	2	12	0	6	11	4	0	0	26	0	0	9	10	0	40	33	33	10	4	0	40	0	21	1	0	0	0	20	0	0	6	11	3	11	104	0	2	4	52	4	0	29
OTU 150	0	32	2	2475	1	0	0	0	14	1	0	2	1	21	0	2	43	43	6	0	12	126	4	59	2	52	0	10	10	5	0	9	4	1	1	2	0	0	40	46	49	10	0	0	104	0	10	3	0	12
OTU 151	1	2	9	1502	0	56	6	7	35	10	2	19	4	0	1	15	0	26	4	48	2	109	6	0	0	21	20	23	2	0	1	0	0	30	71	3	9	0	6	17	12	14	8	0	10	0	1	54	6	0
OTU 152	36	2	41	42	44	7	22	41	121	10	53	10	37	71	86	12	12	0	0	2	2	105	1	2	10	78	5	79	42	11	20	34	2	5	1	2	38	1594	0	179	42	46	49	11	0	2	27	28	9	16
OTU 153	1	1	0	1	0	0	2	0	0	0	0	0	0	0	0	3	0	0	0	0	0	2	0	0	0	15	0	0	0	6	0	0	0	26	0	0	0	0	0	0	1	0	0	4	0	16	0	9	0	37
OTU 154	0	0	0	12	0	0	0	10	5	4	0	0	14	0	19	17	0	0	4	0	0	15	0	0	345	8	0	2	0	0	0	0	5	56	0	0	0	0	0	1	0	0	500	0	0	0	0	0	0	0
OTU 155	5	2	3	3	0	0	0	0	1	6	32	13	1	0	0	2	12	4	0	6	18	4	3	20	43	0	0	0	12	3	0	0	0	62	47	3	10	2	0	1	13	4	1	3	1	1	2	0	30	29
OTU 156	0	3	13	43	22	110	25	82	31	0	59	43	0	48	42	52	102	23	52	33	0	10	3	53	3	14	20	18	54	18	67	2	79	193	75	45	0	19	3	50	60	177	36	89	223	40	75	12	79	1
OTU 157	1	0	10	1	31	0	82	2	0	0	6	9	0	19	4	2	19	0	0	0	3	0	0	5	0	46	0	0	2	0	0	0	27	0	22	3	0	0	3	1	0	8	4	0	2	0	0	0	0	286
OTU 158	0	0	0	0	18	0	0	0	0	8	0	0	2	62	0	0	9	0	0	0	0	0	0	0	0	0	0	0	0	0	0	1	0	0	0	0	0	0	1	0	9	0	34	0	0	0	0	0	0	0
OTU 159	2	38	27	50	1	11	441	1	0	17	80	22	84	494	15	78	9	12	23	16	28	20	53	50	1	5	3	0	261	22	21	0	27	19	91	22	16	68	59	2	37	81	29	11	16	24	17	0	3	13
OTU 160	6	53	26	184	359	79	22	77	38	481	6	125	92	141	2206	3817	14	54	29	268	27	111	23	61	38	14	142	17	71	146	9	25	64	120	112	4	1655	178	23	64	239	91	29	1336	34	15	24	20	20	78
OTU 161	321	5	1	36	301	0	45	27	68	6	0	11	3627	88	21	2	87	20	9	73	3	2	9	552	0	58	31	28	3	28	133	39	0	22	124	284	0	28	38	1	13	0	9	1	1070	122	438	13	0	94
OTU 162	2109	157	0	180	58	26	91	29	2	16	62	252	4	1	127	194	6	9	11	8	2	9	0	20	1	16	1	1	38	87	12	25	32	174	10	4	11	82	69	10	154	53	9	39	22	4	1	26	58	1
OTU 163	0	0	0	0	0	0	0	0	0	0	131	0	0	0	0	2	0	0	0	0	0	0	0	0	9	137	0	0	0	0	2	28	0	0	0	11	0	0	0	0	0	0	0	21	0	0	0	0	0	1
OTU 164	0	0	0	0	69	0	0	0	0	0	4	2	0	0	0	0	26	0	0	7	0	0	0	0	10	0	6	0	0	17	0	0	0	0	15	4	0	0	2	0	0	6	0	0	3	0	0	0	2	13
OTU 165	49	1	3	4	20	0	0	9	10	6	55	7	3	13	0	5	46	0	0	1	2	11	14	83	0	0	1	7	0	50	11	3180	0	15	0	25	14	12	0	20	1	5	3	1	1	0	46	0	5	42
OTU 166	0	0	0	0	0	0	0	1	1	0	0	0	0	0	0	1	8	0	0	0	0	0	3	0	0	0	0	0	24	3	0	7	0	0	0	0	0	0	2	0	0	0	0	0	0	1	0	0	0	0
OTU 167	4	71	0	3	0	1	76	0	76	105	1	0	0	103	16	10	27	179	44	0	0	13	8	1	1	0	4676	41	10	25	18	0	6	9	11	1	33	25	0	2	15	22	21	27	12	2	33	96	36	7
OTU 168	8	9	2	4	1	71	78	0	17	5	8	0	0	82	29	6	5	14	114	6	4	71	12	63	24	28	5	10	39	9	0	20	55	3	34	12	1	5	11	12	13	16	29	10	3	2	0	11	0	0
OTU 169	12	0	0	15	0	0	0	8	0	0	0	27	0	0	33	59	0	1	0	0	0	0	0	28	0	0	0	0	0	0	0	0	0	0	0	0	0	0	2	0	0	0	0	0	0	0	0	0	0	0
OTU 170	0	0	0	0	0	47	0	0	0	0	0	0	0	0	0	0	0	0	1	0	0	12	1	1	7	0	0	0	0	0	0	0	0	0	3	0	0	0	0	0	0	0	6	0	0	0	0	0	0	0
OTU 171	40	1	4	84	38	0	1	1	139	0	0	23	0	5	29	156	15	0	1	2681	9	44	0	42	2	14	1342	91	12	31	9	10	36	6	239	0	50	101	0	0	21	22	8	16	0	5	0	62	90	0
OTU 172	0	1	0	0	2	25	1	0	0	2	0	0	0	0	0	86	0	0	0	0	0	0	0	0	0	7	0	0	0	101	0	0	14	17	0	0	0	0	4	0	42	3	0	2	0	8	0	0	0	0
OTU 173	1	0	0	39	4	0	8	5	2	0	5	96	1	0	54	1	32	0	1	0	0	99	0	0	19	24	0	3	12	0	0	1	0	25	0	2	4	12	0	0	0	35	6	12	9	0	0	52	7	0
OTU 174	4	4	0	3	21	2	27	0	0	0	474	34	48	6	2	18	38	0	6	53	12	5	3	5	6	0	28	0	29	17	2	1	23	27	107	10	0	50	1	1	5	2	0	15	17	9	2	0	37	73
OTU 175	0	0	3	5	2	1	22	7	34	1	63	5	15	84	8	14	37	1	67	0	7	27	1	0	30	4	0	18	4	1	1	15	0	24	3	4	2	20	1	28	6	66	106	0	6	4	0	32	1	0
OTU 176	2	33	21	6	23	25	7	13	13	61	9	13	57	29	3	13	164	42	45	1	0	14	8	41	335	36	2	5	9	36	7	38	2	54	28	3	23	13	11	2	15	76	21	0	8	7	1	9	12	26
OTU 177	993	31	19	72	207	83	79	100	30	27	18	228	10	14	16	77	37	42	94	50	0	37	2	143	6	8	17	15	59	9	0	34	29	50	64	0	2	98	0	28	184	11	6	29	2	7	3	3	26	7
OTU 178	130	14	0	0	0	33	19	3	2	0	37	1	0	33	0	14	5	1	27	24	0	40	19	7	8	82	6	604	8	21	1	2	59	31	85	0	0	1	0	1	9	166	1	7	14	5	1	1	3	58
OTU 179	9	0	6	1	29	77	2	0	184	0	56	3	0	1	4	1	24	0	93	56	1	22	0	1	7	19	54	90	0	141	1	5	193	10	11	10	28	3	12	39	20	2	74	1	16	0	0	54	98	0
OTU 180	16	64	2427	65	519	82	48	22	266	133	23	107	114	12	124	96	287	89	585	91	95	445	1299	124	146	26	45	145	209	169	28	8	99	193	73	22	129	101	159	21	44	238	494	60	100	11	48	140	68	9
OTU 181	29	0	3	8	10	7	39	11	5	0	33	0	18	49	4	3	31	0	1	48	8	6	3	18	1	6	13	4	7	0	1	172	2	2	108	0	23	5	18	175	197	138	0	0	1	0	1	51	11	12
OTU 182	0	0	0	0	0	0	0	0	0	0	0	0	0	0	0	0	8	0	23	1	0	0	0	0	4	0	1	0	0	0	0	0	0	0	11	2	0	0	0	0	0	3	0	0	0	2	0	0	6	0
OTU 183	52	0	0	0	0	48	0	0	14	2	8	1	11	102	10	61	40	0	11	7	16	28	3	26	0	186	7	7	23	11	2	139	61	96	11	0	1	18	12	7	4	1	0	9	0	2	0	4	8	31
OTU 184	0	27	0	0	34	0	33	0	0	39	6	0	0	9	1	11	3	42	0	44	1	23	0	0	5	24	22	0	0	34	0	0	7	20	41	0	3	26	1	0	0	0	23	9	2	1	0	6	5	12
OTU 185	2	13	10	16	45	27	4	2351	122	11	5	9	2	43	8	5	5	33	6	7	2	2	3	37	6	235	2	48	35	21	12	63	86	257	1	0	17	24	21	6	183	14	19	53	34	47	11	8	19	49
OTU 186	7	0	119	0	0	1	7	3	18	0	0	1	29	31	0	15	0	0	1	0	101	34	12	0	0	28	0	16	168	0	1	0	0	44	41	4	0	2	77	1	276	10	0	1812	41	0	7	9	0	16
OTU 187	11	28	1120	210	76	0	17	37	98	31	3	287	187	16	214	10	109	37	601	11	535	40	586	19	9	163	4	49	26	106	289	73	165	336	99	161	32	157	814	132	62	36	30	149	878	288	365	28	387	9
OTU 188	91	38	7	60	67	9	48	41	208	43	7	26	72	17	33	25	28	28	16	14	23	181	46	115	3	48	4	103	37	176	24	71	229	19	8	19	21	3	60	32	3	19	3	3	26	27	32	26	13	80
OTU 189	74	3	27	11	1	16	123	12	101	1	4	8	294	33	40	34	16	6	13	59	21	72	3	166	39	9	41	52	299	180	18	14	39	12	247	17	34	58	17	20	22	180	132	20	137	5	63	45	23	131
OTU 190	0	0	0	0	0	1	78	0	0	0	31	0	0	71	1	1	0	0	9	6	0	0	0	1	716	18	6	0	2	0	0	34	1	32	0	0	0	0	0	0	0	0	1679	3	0	1	1	0	0	21
OTU 191	62	2	61	50	1	2	13	392	37	2	88	957	3	70	22	5	5	1	58	19	17	230	103	13	4	81	8	19	40	20	14	68	59	29	41	48	29	3	25	46	12	389	23	8	52	25	51	2	26	28
OTU 192	15	213	55	142	71	14	12	14	7	251	54	34	124	214	53	31	86	265	10	3	17	42	55	7	4	239	5	2	186	185	137	87	33	11	58	82	16	23	6	92	253	312	61	126	1	74	388	15	11	35
OTU 193	90	4	15	39	55	29	203	18	30	0	72	1	70	29	7	37	470	0	278	43	15	39	8	1	3	0	19	15	5	0	12	23	157	42	79	27	0	69	21	6	14	46	2	30	1	25	36	0	7	95
OTU 194	42	48	7	0	83	272	13	0	42	52	24	35	0	0	33	5	3	15	0	2	0	0	1	3	93	47	2	20	0	15	0	5	450	28	46	0	29	28	6	5	132	92	359	0	2	0	7	6	6	0
OTU 195	12	69	1	31	0	75	37	0	0	57	28	20	0	8	14	0	0	54	1	11	1	76	25	4	95	25	1	0	148	32	6	11	12	116	2	15	42	7	6	61	22	2	172	29	7	16	16	21	9	12
OTU 196	3	3	6	0	73	21	4	4	8	13	0	6	5	2	40	0	12	0	32	27	13	0	2	27	0	60	5	6	8	1	22	6	11	3	110	0	3	23	40	37	45	21	2	0	24	7	28	52	0	32
OTU 197	244	41	25	60	284	257	108	54	21	55	183	131	750	227	34	181	128	23	158	249	5	102	16	105	8	213	133	8	182	14	10	142	395	109	453	61	33	13	10	19	457	60	54	50	21	18	4	8	23	112
OTU 198	9	0	11	0	3	0	0	7	0	0	0	0	0	38	0	0	34	7	26	0	2	4	8	0	0	22	0	0	23	0	1	21	0	1	0	0	0	0	0	1	52	0	5	1	0	0	0	1	21	14
OTU 199	35	17	0	9	0	29	5	13	46	21	37	0	0	4	3	0	2	46	7	0	0	40	2	3	2	16	0	17	21	51	0	6	0	19	4	1	31	1	1	35	43	10	0	8	74	0	0	57	0	24
OTU 200	10	6	0	63	2	0	14	62	8	2	1	13	3	1	40	102	36	9	19	9	0	70	16	175	0	11	3	6	160	65	1	21	31	1	30	7	1	63	75	4	137	12	0	4	26	4	3	3	17	141
