	Host 1	Host 2	Host 3	Host 4	Host 5	Host 6	Host 7	Host 8	Host 9	Host 10	Host 11	Host 12	Host 13	Host 14	Host 15	Host 16	Host 17	Host 18	Host 19	Host 20	Host 21	Host 22	Host 23	Host 24	Host 25	Host 26	Host 27	Host 28	Host 29	Host 30	Host 31	Host 32	Host 33	Host 34	Host 35	Host 36	Host 37	Host 38	Host 39	Host 40	Host 41	Host 42	Host 43	Host 44	Host 45	Host 46	Host 47	Host 48	Host 49	Host 50	
OTU 1	1	1	2	1	2	1	0	0	0	0	0	0	0	0	6	3	0	5	3	1	1	0	1	0	0	0	3	5	2	4	1	2	0	3	0	2	0	2	1	2	1	0	2	0	2	0	0	0	6	0
OTU 2	3	1	3	3	0	0	1	0	0	0	0	0	0	0	0	0	1	1	1	2	0	0	0	28	0	0	8	0	2	0	0	0	4	0	1	10	0	0	0	0	0	0	2	0	6	0	0	0	8	0
OTU 3	0	4	0	0	0	7	0	1	0	0	0	0	2	0	0	2	0	0	0	0	0	0	0	3	1	0	0	1	0	0	0	0	0	1	1	0	0	0	0	0	0	0	2	0	0	0	1	0	0	0
OTU 4	0	0	0	0	0	0	0	0	0	0	0	2	0	0	0	0	0	0	0	0	0	0	0	0	0	0	0	0	0	0	0	0	0	0	0	0	0	0	0	0	0	0	0	0	0	0	0	0	0	0
OTU 5	26	31	0	0	14	16	23	5	7	21	13	7	68	56	21	12	34	2	11	11	0	8	22	4	0	2	1	0	24	5	19	1	3	7	3	11	0	4	15	21	24	6	4	0	0	36	19	1	13	2
OTU 6	2	3	0	0	2	0	2	3	0	0	0	1	1	0	5	0	0	0	0	6	2	1	0	0	0	5	4	1	5	6	0	6	3	3	2	6	0	0	0	0	3	4	0	0	0	9	2	0	19	2
OTU 7	4	1	5	2	1	0	4	3	3	2	0	2	6	0	0	0	14	5	3	0	4	2	3	0	0	1	0	2	1	2	3	1	7	3	32	0	51	3	0	1	0	17	4	3	2	0	0	0	1	12
OTU 8	1	1	0	0	0	3	1	0	0	7	7	2	4	0	0	0	3	1	1	0	2	2	0	5	4	0	12	0	0	2	0	1	13	3	79	0	7	1	100	0	1	1	2	1	1	0	1	9	2	2
OTU 9	2	0	7	0	0	0	2	0	1	1	0	0	0	0	1	0	1	0	0	1	4	1	0	0	1	0	0	0	2	0	0	0	0	0	0	0	0	0	0	0	0	0	0	1	1	2	1	0	0	0
OTU 10	0	0	0	1	0	2	0	2	0	2	0	0	0	0	0	0	4	0	2	0	0	0	0	1	23	0	0	1	0	0	0	0	0	2	23	0	0	0	0	0	0	8	0	0	0	0	0	0	0	5
OTU 11	0	1	1	7	0	0	2	4	0	1	5	0	0	0	0	0	3	4	4	3	3	3	0	1	1	0	1	5	0	0	1	0	1	0	0	0	5	2	0	0	1	0	1	3	11	0	0	1	0	2
OTU 12	5	1	0	2	1	3	0	5	1	0	1	0	0	2	0	0	5	3	2	1	1	1	0	0	0	0	1	2	1	3	0	0	3	0	2	2	0	1	1	0	1	0	0	1	2	5	1	3	0	0
OTU 13	0	0	0	0	0	1	0	0	0	0	1	0	0	0	0	0	0	0	0	0	0	0	0	0	7	0	0	0	0	0	0	0	0	0	3	0	0	0	0	0	0	0	0	0	0	0	0	0	0	0
OTU 14	0	0	0	0	0	1	0	0	1	1	0	1	0	0	0	0	2	0	0	0	2	10	0	0	1	1	0	6	1	0	0	0	0	0	3	0	0	0	0	0	0	3	0	0	0	0	0	0	0	1
OTU 15	0	0	0	0	0	0	0	2	0	0	0	0	0	1	0	0	0	2	0	0	0	0	0	0	0	0	0	0	0	0	0	0	0	0	0	0	0	0	0	4	0	10	0	1	0	0	0	0	0	3
OTU 16	0	0	0	0	0	0	0	0	0	0	0	0	0	0	0	0	0	0	0	0	0	0	0	0	0	0	0	0	0	0	0	0	0	0	0	0	0	0	0	0	0	0	0	0	0	0	0	0	0	0
OTU 17	0	0	1	0	0	1	0	0	0	0	2	1	0	0	0	0	1	2	1	1	0	0	0	0	8	0	0	0	0	0	0	0	0	0	0	2	3	0	1	0	0	1	1	0	0	0	1	4	3	0
OTU 18	0	1	0	2	3	11	3	0	0	5	1	3	0	0	1	3	0	3	0	0	0	1	0	4	1	6	3	0	3	0	2	0	0	1	0	1	3	148	1	0	0	1	1	2	4	0	0	4	1	0
OTU 19	0	0	0	0	0	0	0	0	0	0	0	0	0	0	0	0	0	0	0	0	0	0	0	0	0	0	0	0	0	0	0	0	0	0	0	0	0	0	0	0	0	0	0	0	0	0	0	0	0	0
OTU 20	4	0	2	0	0	10	0	0	0	0	0	0	1	0	0	1	0	2	1	0	1	0	4	0	0	4	1	0	0	0	9	5	0	2	0	2	1	0	0	0	0	0	1	1	1	0	2	1	0	0
OTU 21	0	0	0	6	0	4	0	0	0	0	0	0	4	2	0	1	2	2	33	0	5	2	0	0	2	0	1	0	0	0	0	0	7	0	0	2	0	0	6	1	0	0	0	2	1	1	0	0	5	0
OTU 22	1	0	0	1	0	1	0	1	0	0	2	0	4	0	1	1	3	4	3	0	1	10	3	0	0	3	0	9	0	1	0	2	0	92	0	1	8	8	3	0	0	0	0	1	0	2	1	1	0	0
OTU 23	0	0	0	0	0	1	0	5	1	3	1	2	6	0	1	0	0	0	1	0	0	0	0	1	0	0	1	0	0	0	2	0	0	0	1	0	8	0	0	0	3	0	0	11	0	0	4	0	0	0
OTU 24	0	0	0	3	0	0	0	0	0	0	0	0	3	0	0	0	0	0	0	0	21	0	0	0	0	0	0	1	0	1	0	1	0	0	0	0	0	0	0	0	2	4	0	0	0	0	1	1	0	0
OTU 25	0	1	0	0	0	0	0	0	1	0	0	0	0	0	0	1	0	0	0	0	0	0	0	0	0	0	0	0	0	0	1	0	0	0	2	0	0	0	0	0	0	0	0	0	0	0	0	0	0	0
OTU 26	0	0	0	0	0	0	0	0	1	0	0	0	1	0	0	0	0	0	0	0	0	3	0	0	0	4	0	0	0	0	1	0	0	0	18	0	2	0	0	0	0	0	1	0	0	0	0	2	0	0
OTU 27	0	0	0	0	0	0	0	0	0	0	0	0	0	0	0	0	0	0	0	0	0	0	0	0	0	0	0	0	0	0	0	0	0	0	0	0	0	0	0	0	0	0	0	0	0	0	0	0	1	0
OTU 28	3	2	5	0	1	0	0	0	0	1	0	0	7	0	0	0	1	0	1	0	2	0	2	1	11	14	0	0	2	4	0	1	3	0	9	2	2	0	1	0	0	10	0	4	3	1	7	4	1	3
OTU 29	0	0	9	1	0	0	15	0	0	0	1	0	3	0	2	2	0	2	1	0	5	1	2	1	0	1	13	0	1	2	0	0	3	0	1	0	6	1	0	1	1	0	1	3	3	1	0	0	1	1
OTU 30	0	0	0	0	0	0	0	0	0	0	0	0	0	0	0	0	0	0	0	0	0	0	0	0	0	0	0	0	0	0	0	0	0	0	0	0	0	0	0	0	0	0	0	0	0	0	0	0	0	0
OTU 31	0	0	0	0	0	0	0	0	0	0	0	0	0	0	5	1	2	0	0	0	7	0	0	0	0	0	5	0	0	1	1	2	0	0	1	0	0	0	0	0	0	0	1	0	0	0	0	0	0	0
OTU 32	8	0	0	2	1	1	6	0	0	2	1	2	0	42	49	0	0	1	1	0	1	10	21	3	0	7	40	11	1	25	0	18	3	0	3	1	3	7	18	4	12	2	0	2	17	15	2	4	2	1
OTU 33	0	0	0	0	0	0	0	0	0	0	0	0	0	0	0	0	0	0	0	0	0	0	0	0	0	0	0	0	0	0	0	0	0	0	0	0	0	0	0	0	0	0	0	0	0	0	0	0	0	0
OTU 34	1	3	2	0	1	0	3	1	0	3	1	2	0	0	0	1	0	1	0	2	1	1	1	1	0	0	2	4	3	0	1	2	0	0	2	1	1	2	0	1	0	4	1	4	0	0	1	0	4	0
OTU 35	0	0	1	0	0	4	0	0	0	0	0	0	0	1	1	0	0	3	3	1	27	0	0	2	0	1	0	0	1	0	0	0	40	0	0	0	2	1	9	1	0	0	0	6	2	13	8	0	3	0
OTU 36	0	0	3	1	0	6	0	1	0	0	1	0	1	2	2	0	0	0	0	36	1	0	1	0	5	2	4	10	3	0	1	1	4	1	1	0	0	0	3	1	2	2	1	0	1	4	0	0	0	0
OTU 37	1	0	0	0	0	2	0	0	0	0	0	0	0	0	0	0	0	0	0	0	1	0	0	0	5	3	2	0	0	0	0	0	0	0	0	0	0	0	0	0	1	0	67	1	1	0	5	0	0	0
OTU 38	0	0	0	0	0	3	0	0	8	0	0	0	0	0	0	0	2	0	0	0	1	2	0	0	1	3	0	11	0	0	0	0	1	0	1	0	0	2	0	0	0	1	0	10	2	0	2	2	0	0
OTU 39	0	0	0	0	0	0	0	0	0	0	2	0	0	0	0	0	0	0	0	0	0	0	0	0	0	0	0	0	0	1	0	4	1	1	1	0	0	0	0	0	0	0	0	0	0	0	0	5	0	0
OTU 40	1	1	3	0	0	3	3	5	1	1	0	2	2	2	1	1	3	0	2	0	14	1	0	1	12	3	0	26	0	0	0	0	0	1	1	0	3	0	30	0	1	6	0	0	5	77	16	0	1	3
OTU 41	0	0	0	2	0	0	41	1	3	2	4	3	1	2	0	5	0	5	1	0	0	0	1	0	0	0	0	3	0	2	4	0	0	2	2	0	5	0	0	6	1	0	0	0	0	0	2	0	4	0
OTU 42	0	1	0	13	1	1	0	0	0	0	0	0	0	0	0	6	0	0	0	0	0	0	1	0	0	0	0	1	0	0	0	0	0	0	0	0	0	0	0	0	0	1	0	0	1	0	0	0	0	0
OTU 43	0	0	2	0	0	2	0	0	0	0	0	0	0	0	0	0	0	0	0	0	0	0	0	0	0	0	0	0	0	0	0	0	0	0	0	0	0	0	0	0	0	0	1	0	0	0	0	0	0	0
OTU 44	0	0	0	0	0	0	0	0	0	0	9	0	0	0	0	0	0	5	0	0	0	0	0	0	0	0	0	2	2	0	0	0	0	0	0	0	0	0	0	0	0	0	0	0	0	0	147	0	0	0
OTU 45	2	87	7	1	4	4	1	0	1	0	0	1	1	0	0	0	0	0	0	0	3	1	0	2	2	1	3	2	3	0	0	0	4	1	1	2	1	0	2	0	0	0	2	1	5	3	1	2	1	0
OTU 46	21	0	4	21	1	1	0	8	0	2	1	1	3	2	0	7	2	3	6	0	0	5	0	4	3	9	0	1	1	2	0	0	0	0	1	0	0	4	0	1	0	1	2	1	39	3	2	13	0	2
OTU 47	0	0	0	0	0	0	0	1	0	0	0	0	0	0	0	0	0	0	0	0	0	0	0	0	0	0	0	0	0	0	0	0	0	0	0	0	0	0	0	0	0	0	0	0	0	0	4	0	0	0
OTU 48	2	0	0	1	1	4	1	0	0	3	2	2	4	0	2	1	3	0	1	0	0	4	1	1	3	7	3	8	0	0	1	1	1	1	1	2	0	2	1	1	0	4	1	12	5	0	0	0	1	0
OTU 49	1	2	5	1	0	7	1	1	0	0	0	0	0	0	0	0	0	0	0	0	0	1	3	116	0	0	4	6	5	0	0	0	2	0	0	0	1	1	1	0	2	0	2	0	1	10	0	0	0	0
OTU 50	2	0	3	12	0	1	0	2	2	4	1	0	2	0	0	2	1	0	1	3	10	4	0	8	2	5	0	0	0	2	2	1	0	6	3	1	1	3	0	1	0	1	0	8	0	0	7	1	5	1
OTU 51	1	1	2	0	0	0	3	1	0	0	0	0	0	2	1	0	0	6	1	0	1	1	0	0	3	3	0	1	0	2	0	1	1	7	12	0	6	0	0	0	0	14	0	7	1	1	3	3	1	6
OTU 52	2	1	3	1	61	6	0	0	0	3	4	2	3	3	3	0	2	4	1	0	11	4	67	8	5	2	8	2	1	1	1	3	1	1	3	1	4	8	0	8	1	5	2	12	1	3	1	7	1	2
OTU 53	0	0	0	0	0	0	0	0	0	0	0	0	0	0	0	0	0	0	0	0	0	0	0	0	0	0	0	0	0	0	0	0	0	0	0	0	0	0	0	0	0	0	0	0	0	0	0	0	0	0
OTU 54	0	1	0	0	0	5	3	2	0	1	1	1	3	2	3	2	7	7	0	0	1	1	1	3	0	1	0	0	2	1	0	1	0	0	0	3	2	7	1	2	1	2	1	9	1	0	0	8	3	1
OTU 55	0	0	0	0	0	0	0	0	0	0	0	0	0	0	0	0	0	0	0	0	0	0	0	0	0	0	0	0	0	0	0	0	0	0	0	0	0	0	0	0	1	0	0	0	0	0	0	0	0	0
OTU 56	0	0	1	1	0	0	0	5	0	3	0	3	0	2	0	0	1	2	0	0	1	0	1	0	0	0	0	0	0	0	0	0	0	1	0	0	0	2	1	0	1	0	0	16	1	0	1	0	0	0
OTU 57	4	2	2	2	1	2	1	0	0	0	3	2	3	1	1	7	0	2	3	3	2	5	51	9	7	4	5	13	1	2	2	5	10	9	3	4	4	3	1	117	2	0	0	2	11	0	4	1	0	1
OTU 58	0	0	0	0	1	0	3	0	0	0	0	0	1	1	0	2	0	4	0	0	3	1	0	0	3	0	0	1	0	0	0	0	6	0	0	0	0	0	1	0	1	4	0	0	1	0	0	0	0	1
OTU 59	0	1	0	0	0	1	0	0	0	1	0	1	0	0	0	0	0	0	0	1	1	0	0	0	2	0	0	11	0	0	0	0	0	3	0	1	6	0	0	0	0	0	0	3	0	0	0	0	0	0
OTU 60	0	0	0	0	0	2	1	6	0	0	0	1	9	4	1	2	0	1	2	0	8	0	0	1	3	9	2	1	1	1	2	1	0	1	0	1	2	1	1	1	0	9	0	0	8	1	0	2	1	1
OTU 61	9	1	11	3	0	50	3	4	1	13	1	3	0	2	96	0	1	4	5	1	6	0	2	4	1	0	5	1	5	20	9	0	0	0	5	1	6	0	1	3	47	1	0	9	3	1	1	0	1	3
OTU 62	0	0	0	0	0	0	0	0	0	0	0	1	0	0	0	0	0	0	0	3	1	3	0	1	0	5	0	0	0	0	0	0	0	0	0	2	0	0	1	0	0	0	0	1	0	0	0	0	1	0
OTU 63	0	0	3	0	0	1	4	0	0	0	0	0	0	0	0	0	2	0	0	0	1	0	0	4	2	0	0	0	1	0	0	14	0	0	0	0	3	12	0	0	1	0	1	0	0	0	0	0	0	0
OTU 64	5	0	3	1	0	4	0	5	0	1	3	1	1	8	3	5	4	12	4	2	1	1	0	5	1	2	1	0	2	1	1	2	3	1	0	1	4	1	44	9	2	2	1	18	8	4	1	17	0	4
OTU 65	6	0	0	5	0	0	0	0	0	0	0	0	0	0	0	0	0	0	0	0	0	0	0	0	0	0	0	0	0	0	0	0	19	0	0	0	2	0	0	0	0	0	0	0	0	0	0	0	0	0
OTU 66	0	0	2	0	0	0	1	1	0	0	1	0	3	7	2	4	0	5	2	0	3	1	0	1	4	0	0	0	0	0	0	0	0	0	0	0	7	0	1	4	0	0	1	1	0	3	1	2	1	0
OTU 67	0	2	3	0	0	2	0	0	0	0	52	0	2	1	1	0	4	8	1	0	0	1	0	0	1	2	2	4	0	0	1	0	3	2	1	2	3	1	0	0	0	2	0	0	0	0	0	0	0	1
OTU 68	3	1	2	0	0	1	0	0	0	0	1	0	0	0	1	1	0	1	0	41	0	0	0	0	0	0	0	0	1	0	0	0	0	1	0	45	0	0	0	0	1	0	0	0	4	0	0	0	83	0
OTU 69	1	0	0	0	0	0	1	1	0	1	0	0	9	0	4	0	0	0	0	4	3	0	1	2	1	1	1	3	1	0	2	2	0	72	4	0	15	8	0	0	3	0	0	9	4	4	2	10	0	0
OTU 70	0	0	0	0	0	0	2	1	0	0	0	0	0	0	0	0	0	0	0	0	0	0	0	0	0	0	0	8	1	0	0	0	0	1	0	0	0	0	0	0	0	1	3	1	0	0	1	0	2	0
OTU 71	0	0	1	0	0	0	0	0	2	4	0	2	0	0	0	17	0	3	0	0	1	3	0	0	3	0	0	4	0	0	1	0	2	0	1	0	0	0	0	0	0	0	3	4	0	0	1	0	1	0
OTU 72	4	0	0	0	0	1	0	6	1	0	0	0	0	2	1	1	7	2	1	0	0	0	3	1	2	5	6	0	1	0	0	1	0	1	0	0	2	6	0	0	68	0	0	0	0	4	3	2	0	1
OTU 73	4	0	1	2	0	2	0	0	0	2	0	2	2	1	0	0	0	0	1	0	0	0	2	2	13	0	0	0	1	0	0	0	1	10	0	0	0	1	1	0	0	0	0	0	4	0	0	0	2	3
OTU 74	1	1	0	0	0	0	2	3	0	0	0	0	0	36	3	0	0	6	0	2	0	2	0	1	11	11	0	1	1	4	2	0	1	0	0	1	11	2	0	0	0	4	1	6	0	3	0	8	3	0
OTU 75	1	0	0	4	1	2	1	4	0	0	3	0	1	0	1	1	1	3	0	0	7	1	35	5	32	0	4	6	0	2	0	7	4	0	0	2	9	0	6	1	0	0	0	3	1	4	1	0	1	0
OTU 76	0	0	0	1	0	0	1	0	0	2	0	0	0	29	0	0	0	0	1	0	0	0	0	1	0	2	0	0	0	0	0	0	4	0	0	1	0	0	0	0	0	0	0	14	1	1	0	0	0	0
OTU 77	0	0	0	0	2	4	0	1	2	1	0	3	0	2	3	0	0	0	1	2	5	1	0	0	0	0	2	73	2	2	0	0	0	1	0	0	5	1	0	0	0	0	0	3	0	1	0	4	0	0
OTU 78	0	3	0	9	2	2	2	5	20	43	2	28	4	0	0	0	4	3	6	0	0	0	0	0	3	0	0	0	2	1	15	0	2	0	0	0	0	0	0	18	0	0	2	0	3	0	0	1	0	0
OTU 79	9	4	2	1	2	12	38	39	35	7	3	88	17	22	1	0	19	8	7	142	3	3	17	1	10	4	7	2	3	2	0	5	7	13	0	1	2	6	4	32	51	5	3	4	0	4	2	6	1	0
OTU 80	3	4	7	0	3	0	3	0	1	5	2	1	2	0	4	0	0	2	0	0	15	1	9	2	1	1	4	0	2	192	2	8	2	63	0	1	0	2	3	0	1	1	7	3	7	9	2	0	1	0
OTU 81	2	1	7	0	0	4	5	0	5	7	2	7	0	0	2	0	0	7	3	2	6	3	5	4	2	1	18	9	7	2	4	7	0	1	6	180	7	1	5	0	1	1	1	1	6	3	6	1	0	1
OTU 82	4	0	0	1	0	0	1	3	45	1	0	109	1	0	1	0	0	0	7	0	6	0	0	0	0	2	0	0	0	0	1	0	0	2	2	1	1	1	0	0	2	10	0	4	1	0	1	2	0	2
OTU 83	0	0	0	0	2	0	0	0	0	0	0	0	0	0	0	0	0	2	0	0	0	0	0	1	0	0	4	0	5	0	1	0	2	0	0	0	1	0	2	0	0	0	2	0	1	0	0	0	0	0
OTU 84	1	0	0	0	0	0	0	1	0	0	48	0	1	0	2	0	2	50	0	0	0	0	0	0	0	2	2	0	0	0	1	0	0	1	2	0	1	0	0	0	0	1	1	0	0	0	8	0	0	0
OTU 85	4	0	0	0	0	0	2	0	0	0	0	0	10	0	0	0	0	0	0	1	1	0	0	0	1	0	0	0	0	0	0	0	0	0	0	0	1	0	0	0	0	0	1	11	1	1	0	0	0	0
OTU 86	0	0	0	0	0	0	0	0	0	0	0	0	0	0	0	5	0	0	0	0	0	0	0	0	0	0	0	0	0	0	0	0	0	0	0	0	0	0	0	0	1	0	0	0	0	0	0	0	0	0
OTU 87	0	1	0	0	0	0	0	0	0	0	0	0	0	20	0	0	0	0	0	0	0	0	0	0	0	0	0	0	0	0	0	0	0	0	39	1	0	0	0	13	0	28	0	0	0	1	0	0	1	13
OTU 88	0	0	0	1	0	0	0	0	0	0	0	0	0	0	0	0	0	3	0	0	0	0	0	0	0	0	0	0	0	1	0	0	0	0	0	0	0	2	0	0	1	0	0	1	0	0	0	0	0	0
OTU 89	3	0	2	0	0	3	0	1	0	1	0	0	0	0	0	0	0	0	0	0	0	0	0	0	2	0	1	0	3	0	0	0	0	0	0	0	2	1	1	0	0	0	0	0	1	0	0	3	0	0
OTU 90	0	0	0	0	0	0	0	0	0	1	0	0	0	0	0	0	0	0	0	0	0	0	0	0	0	0	0	0	0	0	3	0	0	0	0	0	1	0	0	0	0	0	0	1	0	0	0	0	0	0
OTU 91	0	0	0	0	0	0	0	0	0	3	0	2	0	0	0	0	0	0	0	0	0	48	0	0	0	0	0	0	0	0	0	0	0	0	0	0	0	20	0	0	0	0	1	0	0	0	0	1	0	0
OTU 92	4	0	1	1	0	0	3	0	0	0	0	0	0	0	0	0	0	0	1	0	0	0	0	0	3	0	0	0	0	0	0	0	3	1	0	0	1	0	0	0	0	0	0	0	0	0	0	0	0	0
OTU 93	0	0	1	0	0	0	0	0	0	0	0	0	0	0	0	0	0	0	1	0	0	0	0	0	0	1	0	0	0	0	0	0	0	0	0	0	0	0	0	0	0	0	0	0	0	0	0	0	0	0
OTU 94	5	1	5	5	11	3	6	0	62	5	4	1	2	2	1	1	3	0	0	1	0	6	1	0	6	11	4	0	12	0	0	0	1	5	2	0	1	2	0	3	0	0	5	1	3	1	1	1	2	1
OTU 95	0	0	0	0	0	0	0	0	12	55	47	30	0	0	1	0	0	0	1	0	1	0	0	0	5	0	0	0	0	0	35	0	0	0	0	0	0	0	0	0	0	0	0	0	0	0	1	0	0	0
OTU 96	0	0	0	0	0	0	0	0	0	0	0	0	0	2	0	0	0	0	0	0	0	0	0	0	0	0	0	0	0	0	0	0	9	0	0	0	0	0	1	0	0	0	0	0	0	0	0	0	0	0
OTU 97	0	0	0	0	0	0	0	0	0	0	0	1	0	0	9	2	0	0	2	0	1	0	0	0	0	0	0	0	0	11	0	0	0	0	0	0	0	0	0	1	3	0	0	0	0	0	0	0	1	0
OTU 98	0	2	0	1	0	0	0	0	0	0	0	0	0	0	3	0	0	0	0	0	0	0	0	0	0	0	1	1	0	0	0	7	6	0	0	0	0	0	0	1	2	0	0	0	3	0	0	0	0	1
OTU 99	7	0	2	1	0	0	1	0	0	1	1	0	1	3	3	1	0	0	1	1	2	2	2	0	0	9	12	4	0	1	1	2	12	0	1	0	0	0	0	0	4	0	2	7	0	0	0	0	0	2
OTU 100	2	2	4	0	0	0	8	0	0	0	1	0	0	2	0	0	0	5	0	1	0	0	0	2	1	0	0	0	0	0	0	1	0	5	0	0	2	0	2	1	0	48	2	1	0	0	0	0	0	19
OTU 101	0	0	0	0	0	0	0	0	0	0	0	0	0	0	0	0	1	0	0	0	0	0	0	0	0	1	0	0	0	0	0	0	1	0	5	0	0	0	0	0	0	0	0	0	0	0	0	0	0	1
OTU 102	0	0	4	0	0	3	0	1	0	1	0	0	0	0	2	0	37	0	0	0	0	0	1	0	0	0	2	0	1	1	0	0	1	1	0	0	1	5	0	0	0	0	2	3	0	3	0	0	0	0
OTU 103	3	0	0	0	0	0	0	0	0	2	2	1	0	0	0	0	0	0	1	0	0	0	0	0	0	0	0	0	0	0	1	0	0	1	0	0	0	0	0	0	0	1	0	0	0	1	5	0	1	0
OTU 104	79	6	64	0	18	1	23	8	0	0	4	0	11	1	5	0	1	19	0	6	3	0	0	9	0	11	8	0	30	2	0	0	14	4	39	7	2	1	0	0	0	0	25	0	4	0	2	1	2	1
OTU 105	0	0	0	0	0	0	0	0	0	2	0	1	0	0	0	1	0	0	0	0	0	1	5	0	1	3	2	3	0	0	0	2	0	0	0	0	0	0	0	0	0	0	2	0	0	0	4	0	0	0
OTU 106	1	1	9	0	0	1	3	0	1	0	0	0	0	0	2	0	0	0	0	0	0	1	3	0	0	0	1	5	1	0	0	1	0	1	0	0	0	0	0	0	2	3	5	2	2	0	0	0	0	0
OTU 107	1	0	0	0	0	0	0	0	0	0	0	0	0	0	0	0	0	0	0	0	0	0	0	0	8	0	0	0	0	0	0	0	35	0	1	0	1	0	0	4	0	0	0	0	0	0	0	25	1	0
OTU 108	0	0	0	0	1	1	0	2	0	0	0	0	0	0	1	0	10	0	0	0	1	0	5	0	0	4	0	0	0	1	0	0	1	0	0	0	1	0	0	0	1	0	0	0	2	3	0	0	0	1
OTU 109	0	1	0	0	0	0	0	0	0	0	0	0	0	0	0	0	0	0	0	0	0	0	0	0	0	0	0	0	0	0	0	0	0	0	0	0	0	0	0	0	0	0	2	0	0	0	0	0	0	0
OTU 110	1	1	0	0	0	1	0	0	1	2	0	2	6	1	2	0	1	0	1	1	0	0	0	12	1	0	7	0	0	0	1	0	0	0	0	1	1	3	6	2	0	6	0	1	3	1	0	0	2	2
OTU 111	0	1	0	0	0	8	0	0	0	0	0	0	0	0	0	0	0	0	0	0	0	6	0	0	0	0	0	0	0	0	0	0	0	0	0	0	0	3	0	0	0	0	0	0	0	0	0	0	0	0
OTU 112	2	0	0	1	0	1	0	1	0	1	0	0	1	0	0	0	0	2	0	0	1	2	0	0	0	2	0	7	1	0	2	165	2	0	0	0	0	0	0	0	0	1	1	0	0	5	0	0	0	2
OTU 113	0	0	0	0	0	0	0	1	0	3	0	1	0	0	0	0	0	0	0	0	0	0	0	0	0	0	0	0	0	0	0	0	0	0	0	0	0	0	0	0	0	0	0	0	0	0	0	0	0	0
OTU 114	1	1	8	3	2	1	0	0	2	5	5	5	2	0	9	6	2	3	0	0	6	5	1	0	0	8	11	4	2	3	2	1	11	2	0	3	8	2	6	7	4	2	1	3	0	4	0	0	1	0
OTU 115	2	2	0	1	0	2	4	2	4	11	13	2	0	0	3	18	3	3	0	0	0	1	13	2	6	3	4	0	1	2	3	7	0	2	0	0	4	0	1	0	3	4	0	11	3	1	4	2	0	3
OTU 116	1	1	2	1	5	1	0	1	0	0	2	3	0	9	1	1	3	2	0	1	2	1	0	0	2	2	0	0	5	3	1	7	6	0	7	0	1	10	0	4	0	0	6	0	1	0	0	0	0	0
OTU 117	0	0	2	0	0	0	0	20	0	2	1	0	1	2	0	2	0	0	0	0	1	0	0	4	2	3	0	0	3	0	0	0	0	1	0	0	3	1	0	0	0	0	1	1	3	0	0	1	0	0
OTU 118	0	0	0	0	0	0	0	0	0	0	0	0	0	0	0	0	0	1	0	0	1	0	1	0	0	3	1	0	0	0	0	0	0	0	0	1	0	0	0	0	0	0	0	0	0	2	0	0	0	0
OTU 119	0	0	3	1	0	8	0	0	0	1	0	1	0	0	1	1	2	4	1	1	0	3	0	1	4	1	0	4	3	0	0	1	1	0	0	0	1	11	1	0	1	0	2	0	0	2	1	0	0	0
OTU 120	0	0	0	1	0	0	0	1	0	0	13	1	0	0	1	1	1	26	0	0	1	0	0	0	1	0	0	0	0	0	0	0	5	0	0	0	1	0	1	0	0	0	0	0	0	0	0	0	0	0
OTU 121	1	2	4	3	2	0	0	0	0	0	1	0	0	0	2	0	4	0	2	0	0	1	0	0	1	4	0	0	1	8	0	0	0	2	0	0	1	0	1	0	1	1	2	3	1	5	0	0	1	0
OTU 122	0	1	8	0	0	2	6	0	0	4	2	2	0	1	0	2	1	0	0	2	0	2	0	2	0	3	0	0	0	0	2	1	7	1	1	0	1	0	2	1	0	0	3	2	0	0	0	0	2	0
OTU 123	13	2	16	7	8	1	19	8	1	7	4	4	1	17	5	8	1	18	3	1	18	10	4	8	2	0	5	7	15	1	3	4	9	5	4	1	6	15	22	1	3	4	6	8	23	35	10	14	2	3
OTU 124	0	0	0	0	0	0	0	3	0	0	4	0	0	0	0	0	1	1	0	0	1	0	0	1	0	1	0	0	0	0	0	0	0	3	0	0	1	0	0	0	0	0	0	0	0	0	0	0	0	0
OTU 125	3	2	10	4	0	7	0	9	5	28	3	12	14	0	1	4	11	1	5	3	0	3	1	6	6	1	5	10	7	0	10	0	4	1	5	0	1	3	3	1	0	5	15	6	17	3	3	5	0	5
OTU 126	0	15	1	0	19	0	0	0	0	0	0	0	0	0	0	0	0	0	0	0	0	2	1	0	0	8	3	0	27	0	0	0	0	0	0	0	0	10	0	0	0	2	0	0	0	0	0	0	0	0
OTU 127	1	0	2	1	0	1	0	0	0	0	1	0	1	0	0	0	2	0	98	0	5	0	1	0	0	3	0	2	0	1	0	3	1	0	0	0	0	1	0	0	0	0	1	0	1	1	0	0	2	0
OTU 128	9	12	23	1	5	12	63	13	3	9	3	5	3	21	26	4	6	5	2	9	15	2	7	7	3	12	24	6	21	14	23	12	4	0	0	3	13	4	11	20	18	90	122	1	42	24	10	5	4	65
OTU 129	0	0	1	0	0	0	0	0	0	0	0	0	0	0	0	0	4	0	0	0	0	4	0	0	0	0	1	0	0	0	0	1	0	0	0	0	0	0	3	0	2	0	0	0	0	0	0	0	0	0
OTU 130	0	0	5	2	0	0	0	0	0	0	0	0	5	1	2	0	0	0	0	0	1	0	1	3	6	9	3	0	0	0	0	2	2	0	0	0	0	0	0	0	0	0	1	0	4	3	0	0	0	0
OTU 131	0	0	0	0	0	1	2	2	0	0	10	0	6	0	5	0	4	31	0	0	0	0	3	0	3	7	0	0	3	2	0	0	3	3	1	0	4	0	0	0	1	0	0	1	0	2	0	30	1	0
OTU 132	0	0	2	1	0	1	0	7	0	6	0	1	0	3	1	0	1	1	0	0	0	0	0	1	0	3	0	1	0	0	1	2	0	0	0	0	7	0	0	0	0	0	1	0	6	0	2	0	1	1
OTU 133	0	0	0	0	0	0	0	0	0	0	0	0	2	0	0	0	0	0	0	0	0	3	0	0	0	0	0	0	0	1	0	0	2	0	0	0	0	0	0	0	0	0	0	0	0	0	0	0	0	0
OTU 134	1	1	0	5	1	0	0	0	0	2	0	0	0	1	0	1	1	12	0	2	0	2	5	1	0	0	1	2	1	1	95	3	0	0	0	0	1	1	4	1	0	0	0	3	1	2	0	1	0	2
OTU 135	1	8	2	1	0	2	1	2	0	0	0	0	2	1	3	29	16	3	39	0	0	6	6	0	0	2	7	0	0	3	1	7	4	0	1	0	0	1	26	0	3	1	2	0	5	6	0	0	0	0
OTU 136	0	0	3	0	4	7	0	3	0	0	4	0	1	0	0	0	0	5	0	1	0	1	0	0	0	4	1	0	1	0	0	1	0	1	0	0	0	0	0	0	0	1	1	0	0	1	0	3	0	0
OTU 137	3	0	0	0	0	0	0	8	0	0	0	0	1	1	0	0	0	0	2	0	0	57	1	0	1	0	0	0	0	0	0	0	0	0	0	0	0	0	0	4	0	0	1	1	0	0	0	0	0	2
OTU 138	0	0	0	0	1	0	3	0	4	10	0	3	0	0	0	2	0	0	1	0	0	0	1	0	2	0	0	0	0	0	2	0	1	2	2	0	0	0	0	0	0	0	1	0	0	0	10	7	0	0
OTU 139	1	3	14	7	5	7	6	2	2	3	0	0	2	9	4	4	0	2	1	3	5	0	2	1	21	23	6	3	8	0	3	0	4	0	6	0	4	0	0	5	2	4	9	5	3	0	3	3	0	3
OTU 140	2	2	4	0	1	1	0	1	0	5	0	2	2	2	15	4	2	1	0	0	1	5	9	4	0	12	28	0	2	13	82	6	1	4	3	0	3	0	1	1	12	3	0	25	11	13	7	7	2	0
OTU 141	0	0	0	0	0	0	0	0	0	0	0	1	0	0	0	0	0	0	0	0	0	0	0	0	1	0	0	1	0	0	0	0	0	0	0	0	0	0	0	0	0	0	0	0	0	0	0	0	0	0
OTU 142	0	0	1	0	0	0	0	0	0	0	0	0	0	2	0	0	0	0	0	0	0	0	0	1	3	0	0	0	0	0	0	0	0	0	1	0	0	0	0	0	0	0	0	2	0	0	0	0	0	0
OTU 143	0	0	0	0	0	1	0	0	0	0	1	0	0	0	0	0	0	1	0	0	0	0	2	0	1	0	3	0	0	0	0	0	0	0	0	0	0	0	0	0	0	1	0	3	0	0	0	0	0	0
OTU 144	0	2	2	0	0	1	2	1	0	0	0	0	0	1	0	1	0	0	0	0	0	0	0	0	0	0	0	0	1	0	0	0	0	1	0	0	0	0	1	0	0	0	0	0	0	0	1	0	0	0
OTU 145	4	3	2	0	0	1	2	5	0	1	0	0	0	0	1	0	0	1	4	49	0	5	0	3	5	2	3	3	3	0	0	0	4	1	1	37	1	0	2	3	0	1	0	1	4	0	1	2	76	1
OTU 146	0	1	0	3	0	0	0	0	0	0	0	0	7	0	4	1	3	0	0	0	1	3	8	0	5	1	9	0	2	2	0	2	3	0	2	0	5	4	0	1	3	3	0	2	0	0	0	0	0	0
OTU 147	0	0	0	1	0	0	0	2	0	0	0	0	4	0	0	0	3	0	0	0	1	0	1	3	0	0	0	0	0	0	1	3	0	1	0	0	0	1	0	0	0	0	0	0	0	0	0	2	0	0
OTU 148	1	0	3	0	0	0	1	1	0	0	0	0	1	1	1	0	1	1	1	0	11	12	0	9	4	0	0	0	4	0	0	1	18	0	3	1	0	1	3	1	1	1	3	1	0	2	0	11	0	0
OTU 149	0	0	0	2	0	3	0	0	0	0	0	0	22	1	0	0	1	0	0	0	1	1	0	0	0	0	0	0	0	0	0	1	0	0	1	0	2	0	0	0	0	0	1	0	0	0	0	0	0	0
OTU 150	0	0	0	2	0	0	0	0	0	0	0	0	0	1	4	0	0	0	0	0	0	0	3	0	0	14	0	0	0	0	0	0	0	0	0	1	0	0	5	0	0	2	0	0	0	2	0	3	0	0
OTU 151	0	30	2	4	61	0	0	1	0	0	0	0	0	0	0	1	0	0	0	0	0	0	0	0	7	0	0	1	83	2	0	4	2	0	0	1	1	1	2	2	0	0	3	1	0	0	1	0	1	0
OTU 152	1	0	0	0	0	0	3	0	0	3	7	0	0	8	2	1	1	1	0	0	7	0	1	0	11	16	1	1	2	1	0	0	0	0	5	0	0	9	0	0	0	1	0	5	2	2	0	1	0	0
OTU 153	0	0	0	1	0	0	0	0	0	0	0	0	0	0	0	0	0	0	0	0	0	0	0	0	0	0	0	0	0	0	0	0	0	0	0	0	0	0	0	0	0	0	0	0	0	0	0	0	0	0
OTU 154	0	0	0	0	0	0	1	0	0	1	1	2	0	0	0	0	0	0	0	0	0	0	0	19	0	0	0	0	0	0	0	0	0	0	0	1	0	0	1	0	0	0	0	0	0	0	0	0	1	0
OTU 155	0	0	0	0	0	4	0	0	0	2	0	0	0	0	4	0	76	0	0	0	0	1	0	0	4	0	0	0	0	1	0	0	0	0	0	0	0	0	0	0	0	0	0	2	1	1	0	0	0	1
OTU 156	0	0	1	0	1	4	2	18	0	6	1	0	11	1	1	2	2	1	3	0	4	0	1	11	2	4	2	2	2	0	3	0	0	0	1	1	3	0	1	0	0	0	0	1	6	0	0	0	0	0
OTU 157	0	0	0	8	1	2	0	2	0	1	4	0	0	1	0	0	0	0	4	0	0	0	1	0	0	5	1	0	0	1	0	1	2	0	1	0	3	0	0	0	0	0	0	0	0	0	0	0	0	0
OTU 158	0	0	2	0	0	0	0	0	0	0	1	0	3	0	0	0	2	0	0	0	0	0	0	0	0	0	0	0	0	0	0	0	0	0	0	0	0	0	0	0	0	0	1	0	0	4	0	0	0	0
OTU 159	0	2	0	0	0	1	1	3	0	0	1	0	1	1	0	1	2	3	0	0	0	0	0	0	0	6	0	0	2	0	0	0	3	0	0	0	35	0	3	0	0	3	0	0	0	4	2	46	1	2
OTU 160	3	4	14	0	0	17	2	7	2	3	6	2	14	14	0	10	5	5	10	1	10	0	1	8	3	4	4	1	0	1	1	6	6	14	0	1	11	0	0	0	0	1	2	4	5	2	0	9	4	0
OTU 161	0	3	1	0	2	1	0	0	0	0	2	0	1	0	0	3	1	1	0	0	1	2	1	1	0	1	3	0	0	0	5	0	0	0	0	0	0	0	1	0	6	2	1	2	2	1	0	7	0	4
OTU 162	0	96	0	1	0	2	3	17	2	2	10	2	3	0	3	1	0	6	0	0	3	1	1	1	5	10	4	1	0	0	2	0	0	0	0	0	0	0	0	1	0	5	2	0	3	1	0	4	1	0
OTU 163	0	0	0	0	121	0	0	0	0	0	0	0	5	0	0	0	0	0	0	0	0	0	0	0	0	0	0	0	0	0	0	0	0	0	0	0	0	1	0	3	0	0	0	0	0	0	1	0	0	0
OTU 164	0	0	0	0	0	0	0	0	0	0	0	0	0	0	0	2	0	0	0	0	0	0	1	0	1	0	0	0	0	0	0	0	0	0	0	0	0	0	0	0	0	0	0	0	0	0	0	0	0	0
OTU 165	0	0	0	0	0	1	0	3	1	3	0	3	0	0	0	0	2	0	0	0	6	0	0	0	0	5	0	0	0	0	1	0	3	0	0	0	0	4	3	1	0	0	0	1	0	2	0	1	0	0
OTU 166	26	0	0	0	0	0	0	3	0	0	0	0	0	0	0	0	0	0	0	0	0	0	0	0	0	0	0	0	0	0	0	0	0	0	0	0	0	0	0	0	0	0	0	0	0	0	0	0	0	1
OTU 167	1	0	0	0	0	0	0	0	143	0	0	0	0	0	0	2	0	0	0	0	0	0	1	0	0	0	0	0	0	0	0	0	0	1	5	0	0	0	0	1	0	0	0	0	0	0	3	2	0	1
OTU 168	11	2	0	0	0	0	1	0	0	1	1	0	1	2	0	0	0	0	1	0	2	0	0	3	0	9	0	1	0	0	1	1	0	0	1	0	0	0	0	1	0	0	0	2	1	0	0	1	5	0
OTU 169	0	0	0	0	0	0	0	0	0	0	0	0	0	0	0	0	0	0	0	0	6	0	1	0	0	0	0	0	0	0	0	0	0	0	0	0	0	1	0	0	0	0	0	0	0	0	0	0	0	0
OTU 170	0	0	12	0	3	2	0	0	0	0	0	0	0	0	0	0	1	0	0	0	0	0	0	0	0	0	0	0	3	0	0	0	1	0	0	0	0	0	0	0	0	0	2	0	0	0	0	0	0	0
OTU 171	2	0	1	1	1	21	1	0	0	0	0	0	0	0	1	0	0	0	4	0	1	0	1	13	0	2	1	0	3	1	0	1	1	0	0	0	0	0	1	0	0	3	0	2	4	2	0	1	0	3
OTU 172	0	0	0	0	0	0	0	0	0	0	3	0	0	0	1	0	0	0	0	1	0	0	2	0	0	0	3	0	0	1	0	5	0	0	0	0	0	0	0	0	1	0	0	0	0	0	0	0	4	0
OTU 173	0	0	0	0	0	5	0	3	0	0	0	0	0	0	0	0	1	0	0	0	0	0	0	0	0	0	0	3	0	0	0	0	0	0	0	0	7	0	0	0	0	0	0	0	0	0	0	0	0	0
OTU 174	0	1	0	4	0	0	0	1	0	0	0	0	0	0	0	0	0	0	0	13	5	0	1	2	7	0	0	0	1	0	0	2	0	1	0	7	6	0	0	2	0	0	0	5	6	0	0	19	14	0
OTU 175	1	0	1	2	0	0	0	0	0	0	1	0	0	0	1	0	0	0	0	0	0	2	0	0	0	1	0	0	1	0	0	0	1	0	3	0	0	0	0	1	0	0	6	3	0	0	0	2	0	0
OTU 176	2	1	4	1	0	3	2	0	3	3	0	2	0	3	7	4	5	2	0	0	2	0	2	0	2	0	7	5	0	3	0	4	0	4	1	1	1	7	4	2	1	0	2	3	2	0	0	1	0	0
OTU 177	3	0	0	0	1	1	3	3	0	1	3	1	4	0	0	1	0	4	2	1	7	0	2	2	1	2	3	0	2	0	0	0	0	0	0	3	2	0	0	0	0	0	0	2	1	0	1	2	3	0
OTU 178	0	2	0	3	0	10	0	1	0	0	2	0	0	1	0	0	1	0	0	0	1	0	0	1	1	2	0	3	0	1	0	0	0	0	0	0	0	1	0	42	0	0	2	1	0	0	3	0	1	0
OTU 179	0	0	0	0	0	6	2	2	0	1	0	1	3	0	0	2	3	0	1	0	0	5	0	0	0	0	0	0	0	0	0	0	0	0	0	0	1	0	1	0	0	0	0	3	0	1	1	7	0	0
OTU 180	0	9	2	0	7	1	1	6	0	5	0	2	8	7	4	4	3	8	1	1	7	10	2	0	3	8	2	11	13	4	0	2	2	5	1	0	2	2	2	8	1	13	1	9	6	3	10	5	2	4
OTU 181	0	0	0	0	1	3	0	17	1	6	0	2	2	1	2	0	2	0	0	0	6	1	1	1	2	2	1	0	2	2	0	2	0	0	0	0	2	0	0	0	0	0	0	2	1	1	0	0	0	0
OTU 182	0	0	1	0	0	0	0	0	0	0	1	0	0	0	0	0	0	0	0	0	0	0	0	0	0	0	0	0	0	0	0	0	0	1	0	0	0	0	0	0	0	0	1	0	0	0	0	0	1	0
OTU 183	0	0	0	5	0	0	0	1	2	5	0	3	4	0	6	0	0	0	5	0	10	19	1	1	2	0	7	1	0	2	6	4	1	0	3	0	0	0	0	0	2	3	2	0	0	4	0	4	1	0
OTU 184	0	0	5	0	0	2	4	0	0	0	0	0	0	0	0	1	0	0	0	1	0	0	0	3	0	1	1	0	2	0	1	0	3	0	1	0	2	0	0	1	0	0	3	0	2	1	0	3	1	0
OTU 185	0	0	0	4	0	0	2	0	1	2	6	1	0	10	1	3	0	3	28	0	3	0	2	0	5	1	0	2	0	0	0	0	3	1	2	0	5	1	2	7	74	0	0	0	1	2	1	3	1	2
OTU 186	0	0	4	0	0	3	2	5	0	0	0	0	0	0	0	104	1	0	0	0	0	0	0	1	0	3	0	2	0	0	0	1	0	0	0	0	0	0	0	0	0	0	3	0	0	0	0	0	0	0
OTU 187	0	0	0	0	1	3	10	8	0	2	0	0	1	0	0	1	3	0	1	3	2	3	0	0	5	0	1	5	2	1	1	0	2	2	0	0	3	7	3	4	0	0	1	5	6	0	7	0	0	1
OTU 188	3	0	1	1	0	8	0	5	0	0	2	1	0	1	1	10	1	1	0	3	1	0	1	2	1	5	1	2	1	2	2	1	0	0	3	1	4	1	0	0	0	0	2	0	0	0	0	4	5	180
OTU 189	0	1	0	5	1	1	2	8	0	3	30	1	2	2	2	6	1	1	2	0	5	39	1	0	2	0	4	6	0	0	2	0	5	0	0	0	3	1	0	4	0	1	0	0	0	3	2	1	0	0
OTU 190	0	0	3	0	0	0	0	0	0	0	0	0	32	1	0	1	0	0	5	16	1	0	0	0	0	0	0	0	2	3	0	0	0	0	0	30	0	0	0	0	0	0	2	2	0	0	0	2	61	0
OTU 191	4	0	1	7	0	2	7	7	0	0	0	0	0	0	2	3	1	1	1	0	5	4	0	1	1	0	2	9	2	1	0	0	1	0	1	0	2	0	0	0	0	1	0	0	9	2	22	0	0	0
OTU 192	1	2	3	66	4	0	6	8	0	0	0	0	1	0	0	44	1	5	33	0	5	2	9	0	4	0	8	3	3	4	0	5	0	0	1	0	0	0	3	1	0	4	2	19	1	6	0	3	1	4
OTU 193	1	0	0	3	0	4	0	9	0	3	6	0	0	2	0	0	7	6	0	5	0	0	4	1	2	0	2	17	3	0	1	1	7	0	0	1	7	0	0	1	1	0	2	0	0	1	0	1	3	0
OTU 194	1	0	1	0	0	0	0	1	1	2	0	0	2	0	0	0	0	0	1	0	0	1	0	0	1	0	0	0	0	0	0	1	1	0	0	0	0	1	0	0	0	0	0	1	0	0	2	0	0	0
OTU 195	0	0	0	1	1	0	0	2	1	0	1	0	1	0	0	1	2	0	0	0	3	0	0	1	0	0	1	1	3	0	0	3	3	0	0	0	0	0	0	0	0	0	0	0	4	0	1	5	0	0
OTU 196	1	1	1	4	0	0	0	0	0	0	0	0	2	0	0	0	3	0	0	0	0	2	6	0	3	0	1	1	0	0	1	2	2	0	0	0	0	1	0	0	0	0	1	1	1	2	0	6	0	0
OTU 197	26	6	1	0	2	4	0	9	3	17	3	5	5	1	7	0	1	2	0	0	4	2	5	5	8	1	4	0	5	2	6	4	5	2	5	1	2	5	4	1	5	1	0	8	9	0	0	0	2	2
OTU 198	2	0	14	0	0	0	0	0	0	0	0	0	0	0	0	0	0	0	0	0	0	0	2	0	2	2	0	0	0	0	0	0	0	0	0	0	0	0	0	0	0	1	1	0	0	0	0	0	0	0
OTU 199	0	0	0	108	0	4	1	1	0	0	0	2	0	0	2	0	0	0	0	0	5	0	1	0	1	0	0	0	0	0	1	0	0	0	0	0	0	0	0	0	0	0	0	0	0	2	1	1	0	0
OTU 200	4	1	0	0	1	1	5	5	0	1	0	0	0	2	3	1	5	1	2	1	1	5	0	0	4	0	0	1	2	0	0	1	0	0	4	0	0	0	0	1	1	0	2	0	0	1	0	0	0	0
