	Host 1	Host 2	Host 3	Host 4	Host 5	Host 6	Host 7	Host 8	Host 9	Host 10	Host 11	Host 12	Host 13	Host 14	Host 15	Host 16	Host 17	Host 18	Host 19	Host 20	Host 21	Host 22	Host 23	Host 24	Host 25	Host 26	Host 27	Host 28	Host 29	Host 30	Host 31	Host 32	Host 33	Host 34	Host 35	Host 36	Host 37	Host 38	Host 39	Host 40	Host 41	Host 42	Host 43	Host 44	Host 45	Host 46	Host 47	Host 48	Host 49	Host 50	
OTU 1	93	3	88	233	419	432	17	508	513	502	166	0	23	0	260	219	120	0	998	17	32	828	457	43	0	248	56	198	0	258	323	13	58	243	0	212	282	689	53	0	208	454	253	2	108	385	141	138	1141	0
OTU 2	1	35	0	0	0	16	4	0	1	0	0	2	4	5	2	1	46	0	5	0	482	0	0	0	0	1	0	2	5	3	35	1	51	3	6	15	0	0	11	1	0	0	0	13	5	18	92	2	0	23
OTU 3	10	9	0	0	27	0	0	0	0	36	1	16	0	11	6	0	30	0	2	10	8	0	2	1	0	0	13	0	0	0	1	0	21	0	10	4	1	37	23	0	1	2	0	17	0	0	27	0	0	0
OTU 4	0	5	0	0	1	0	0	0	0	0	0	0	0	0	0	0	0	0	0	0	0	0	0	0	0	0	0	0	0	0	0	0	1	0	0	0	0	0	0	0	0	0	0	0	0	15	0	0	0	0
OTU 5	745	472	4	766	170	249	780	1470	719	560	45	95	261	270	1	50	25	248	1403	192	410	151	358	54	257	11	3	231	207	887	832	15	3	573	24	706	768	82	28	420	13	64	1586	41	52	73	33	333	141	1
OTU 6	109	19	16	0	14	1687	17	1	28	3	5	26	26	96	0	30	158	1	12	2	44	0	1	0	101	21	17	3	9	0	555	40	11	2	9	9	60	4	1	0	2	1	5	75	3	18	5	12	1	3
OTU 7	56	62	22	659	25	81	36	13	354	24	735	80	37	155	17	12	398	7	29	104	8	47	37	7	65	1	131	41	273	8	9	33	121	124	146	548	86	46	47	178	14	19	34	30	107	109	36	59	163	135
OTU 8	5	221	154	12	18	1	485	19	60	928	150	22	191	138	25	21	146	72	30	34	14	13	7	74	314	30	104	6	130	2	57	34	31	33	72	39	206	66	29	16	85	40	14	81	16	7	37	26	48	70
OTU 9	1	8	22	6	46	41	13	12	9	0	15	2	85	59	31	25	48	25	16	13	55	7	3	12	0	26	8	0	39	3	18	116	0	0	0	9	1	29	0	67	6	0	0	2	1199	2	0	7	26	8
OTU 10	2	0	0	13	1	0	0	27	0	30	104	47	0	2	0	0	1	6	20	0	83	18	32	1	1	6	1	14	12	1	5	25	0	0	1	0	50	12	1	12	0	15	34	5	4	25	40	0	0	1
OTU 11	6	10	9	5	15	24	7	16	26	81	23	28	60	17	30	63	3	49	10	16	17	13	15	7	3	42	37	4	225	8	29	83	75	2	76	2	81	42	77	6	2	6	1412	105	0	61	32	0	53	76
OTU 12	22	5	13	4	13	17	74	15	86	10	41	87	29	55	5	2	209	75	32	5	136	25	71	0	178	25	137	34	57	44	42	3	180	53	212	14	14	7	22	2	48	3	46	29	82	182	1	49	121	108
OTU 13	0	0	0	3	0	1	0	2	0	0	0	0	1	59	0	0	0	0	0	0	0	1	1	0	0	5	1	0	0	0	0	0	1	0	0	0	0	0	0	0	1	0	0	0	0	0	0	0	0	0
OTU 14	1	32	8	0	0	13	45	0	6	0	33	3	3	0	12	6	59	18	0	40	36	0	33	4	0	0	20	16	0	76	16	34	10	13	14	0	0	2	18	0	0	0	0	1	68	1	0	0	13	75
OTU 15	0	0	0	0	0	0	54	0	4	0	0	6	0	0	0	0	0	0	0	0	31	0	0	0	0	0	26	0	0	2	2	0	3	0	0	0	0	0	0	0	0	0	0	0	4	0	0	0	0	0
OTU 16	0	1	0	0	0	0	0	0	0	0	0	0	0	0	0	0	0	31	0	0	0	0	0	0	0	0	0	0	0	0	0	0	0	0	0	0	0	9	0	0	0	0	0	4	0	0	0	0	0	0
OTU 17	7	34	0	5	25	2	0	18	4	3	21	43	72	1	2	5	1	7	24	5	0	137	2	2	44	0	50	1	1	0	1	57	17	10	556	2	0	3	30	0	5	50	6	1	37	12	100	12	5	5
OTU 18	6	25	159	0	18	5	8	0	15	10	28	33	10	4	6	6	33	81	2	15	401	29	12	2629	36	1	18	8	12	19	31	69	93	14	47	47	26	5	12	77	2	14	28	25	2	3	14	2	1	172
OTU 19	0	0	0	0	0	0	0	0	0	0	0	0	0	0	0	0	0	0	0	0	0	0	0	0	0	0	0	0	0	0	0	0	0	0	0	0	0	0	0	0	0	0	0	0	0	0	0	0	0	0
OTU 20	4	53	18	9	0	2	143	19	23	8	244	56	43	7	1	38	29	10	16	5	0	22	1	16	84	1	18	4	187	12	12	13	109	0	65	10	72	4	120	4	1	14	2	5	18	27	0	4	11	47
OTU 21	47	8	445	117	166	629	34	211	494	277	228	92	41	235	167	105	14	1	542	58	119	431	502	223	40	67	8	214	40	302	12	35	81	267	21	285	41	293	0	27	175	231	272	15	34	494	0	141	774	1
OTU 22	2	47	50	10	27	56	21	13	12	1	108	9	109	4	20	6	34	11	19	2963	6	58	25	7	25	6	84	6	32	7	64	53	136	0	246	68	227	40	24	33	1	34	7	247	55	13	0	0	25	17
OTU 23	22	0	6	30	3	15	21	78	13	0	1	2	0	68	25	0	14	0	0	6	32	2	1	6	0	0	0	1	73	0	1	52	14	0	12	0	32	2	0	130	0	0	12	7	6	5	9	0	3	7
OTU 24	0	0	51	2	2	8	18	4	7	5	268	9	0	25	0	0	30	0	1	1	29	3	7	28	21	21	15	0	13	1	2	1	101	0	3	5	0	0	2	88	2	5	2	0	0	0	2	9	3	36
OTU 25	0	0	0	0	0	0	0	0	2	1	0	0	0	0	0	0	0	0	0	0	0	0	0	0	2	2	0	0	0	0	0	0	0	0	0	0	0	0	13	0	0	0	0	0	0	0	8	0	6	0
OTU 26	3	7	200	6	1	5	55	11	2	0	0	0	32	22	2	4	0	0	15	0	12	12	0	136	0	2	36	0	10	0	3	0	0	1	0	7	2	0	0	0	0	1	0	0	3	0	0	0	5	0
OTU 27	0	0	0	0	2	0	0	0	0	0	0	0	0	0	0	3	0	0	0	0	1	0	0	0	0	0	2	0	0	0	0	3	0	0	0	0	10	0	0	0	0	0	2	0	0	0	0	0	0	0
OTU 28	19	82	86	9	29	28	37	23	11	0	250	49	96	11	8	18	18	32	20	0	2	15	7	54	3	4	4	6	17	7	27	75	23	3	6	6	0	47	1	19	0	5	14	28	35	55	83	13	20	0
OTU 29	237	49	2	182	212	638	70	422	530	308	24	10	0	1	277	166	15	69	706	17	42	413	422	6	79	110	3	232	11	198	270	12	69	292	77	153	29	518	107	141	341	230	352	5	155	757	11	125	1163	100
OTU 30	10	0	0	0	2	0	75	0	0	0	0	0	0	0	0	0	0	1	0	0	0	0	0	0	0	0	0	0	0	0	0	0	0	0	0	0	0	1	0	0	0	0	0	0	0	0	5	0	0	0
OTU 31	0	38	52	7	0	0	52	11	0	2	0	23	2	16	0	0	10	0	41	28	2	0	0	18	1	16	1	0	18	8	48	0	11	0	0	0	3	0	0	0	0	0	1	116	287	0	0	0	7	5
OTU 32	15	27	53	14	12	61	30	23	7	4	22	57	2	17	9	22	15	1	9	22	58	4	25	17	24	28	140	1	76	17	2142	36	12	17	63	22	20	3	27	29	25	7	39	12	10	9	84	4427	26	199
OTU 33	0	0	0	0	0	0	0	0	0	0	24	0	0	0	0	0	5	0	0	0	0	1	0	0	0	0	2	0	0	0	0	16	0	0	0	0	0	0	9	0	10	0	0	0	0	0	0	0	0	0
OTU 34	133	130	21	1	82	34	29	6	62	22	4	27	235	167	30	329	117	31	12	57	121	108	10	5	253	6	65	28	6	17	26	1	170	1	0	15	583	18	39	109	38	64	11	6	8	17	0	3	151	446
OTU 35	0	11	0	0	4	3	265	1	9	50	165	122	7	35	9	5	29	0	3	3	16	41	1	0	660	0	76	0	24	0	1	278	9	0	133	2	20	20	100	10	0	8	42	12	9	1	9	0	0	190
OTU 36	0	2	23	19	1	16	3	36	31	2	1	53	17	0	0	1	3	0	38	5	3	2	2	19	2	32	1	5	77	0	2	22	47	18	1	184	55	8	210	18	67	3	7	635	1	3	114	29	16	18
OTU 37	0	6	55	0	1	1	3	0	0	1	2	6	1	267	5	0	3	4	0	167	0	0	0	14	28	28	0	0	3	13	0	14	0	0	0	9	0	0	10	14	0	0	2	0	8	2	0	0	0	28
OTU 38	7	210	38	4	23	0	68	6	1	0	9	5	42	39	1	0	1	8	27	72	2	3	1	14	13	24	51	0	0	0	21	64	0	1	14	552	15	13	13	141	4	0	0	2	13	16	21	1	5	18
OTU 39	0	24	0	0	0	3	0	0	14	0	20	0	12	0	135	32	0	1	0	0	0	0	0	0	2	2	37	0	25	1	0	1	0	14	5	4	0	4	0	3	0	1	0	2	0	1	7	2	1	0
OTU 40	8	0	81	0	18	6	0	0	2	5	29	40	27	28	1	37	80	0	13	30	221	33	17	39	14	0	0	28	26	0	32	21	71	2	5	29	41	8	8	105	13	1	16	66	6	52	26	11	48	2
OTU 41	3	46	12	9	0	9	16	12	55	18	13	3	9	35	8	0	16	29	2	107	99	11	6	3	26	24	82	3	36	8	11	116	43	0	206	2	14	20	35	14	0	6	0	6	2	0	54	2	26	392
OTU 42	1	0	4	0	18	1	0	0	15	74	3	18	17	1	89	0	0	0	0	5	0	62	8	0	23	6	7	7	3	28	0	0	1	0	0	5	4	0	0	0	3	72	15	1	27	30	17	0	8	0
OTU 43	0	0	8	0	0	0	0	1	0	0	0	0	0	0	0	0	0	0	4	0	38	0	0	4	0	0	25	0	0	0	0	0	0	0	0	0	0	0	0	0	0	0	0	1	0	0	0	0	0	0
OTU 44	0	2	0	0	1	0	0	0	6	3	74	0	3	6	0	0	3	16	0	32	1	0	0	0	155	0	6	0	0	0	1	1	2	2	1	1	0	0	22	40	0	0	0	24	6	0	0	0	2	6
OTU 45	1	89	8	13	3	1	0	34	29	1	99	58	3	193	2	68	40	13	81	38	0	14	1941	10	0	0	1	720	13	1001	40	22	0	2	60	0	140	5	1	9	60	15	16	20	1	36	6	0	13	195
OTU 46	23	38	2	2	5	10	57	16	3	38	67	0	1	26	2	12	13	22	59	17	113	11	26	2	84	51	38	15	694	14	645	1	9	10	15	49	12	53	48	67	0	4	6	235	20	15	27	5	24	3
OTU 47	0	0	0	0	0	0	22	0	0	1	83	34	0	10	0	0	53	1	0	1	2	0	0	0	0	0	28	0	0	0	0	14	0	0	0	13	0	0	0	1	19	0	0	1	0	0	0	0	0	0
OTU 48	3	7	150	4	66	19	81	5	4	369	27	32	23	33	7	2	29	66	26	9	218	118	7	84	133	10	0	3	56	23	0	37	29	10	21	1	9	31	1	42	3	65	46	35	17	72	43	12	15	27
OTU 49	0	0	55	33	12	91	16	68	8	29	12	20	13	6	7	1	1	1	199	2	5	11	11	19	126	1	0	1	49	2	42	2	111	1	36	2	35	3	10	6	4	24	42	0	0	71	73	9	33	5
OTU 50	11	30	144	14	26	2	24	19	41	2	29	36	9	22	16	4	264	68	28	29	15	41	39	81	10	32	70	7	4	8	4	49	16	5	168	36	5	16	2	150	36	4	4	67	17	1	8	5	35	83
OTU 51	17	8	0	6	9	27	0	22	1	6	7	67	24	2	3	1	19	2	33	2	0	1	6	1	6	2	0	0	6	0	0	2	0	5	0	2	14	0	1	19	0	0	3	5	7	5	1	0	8	34
OTU 52	24	76	25	4	3	19	5	10	51	1	39	6	16	367	35	18	576	127	11	373	29	5	73	10	75	30	27	15	48	21	17	299	22	42	22	57	113	23	75	27	26	1	17	60	103	34	35	1	46	44
OTU 53	0	0	0	0	0	0	0	0	0	0	0	0	0	0	0	15	4	0	0	0	0	0	0	0	0	0	0	0	0	0	0	0	0	0	1	0	0	0	0	0	1	0	0	0	0	0	0	0	0	7
OTU 54	15	49	19	5	12	26	60	15	6	13	10	22	4	168	5	34	31	29	30	38	1358	1	486	7	95	5	9	351	75	279	46	121	56	15	10	19	41	3	79	16	49	11	36	27	17	91	13	3	14	142
OTU 55	0	0	0	0	0	0	0	0	0	0	0	0	3	0	0	0	0	0	0	0	0	0	0	0	0	0	0	0	0	0	0	0	0	0	0	0	0	0	0	0	0	0	1	0	0	0	0	0	0	0
OTU 56	0	21	1	0	0	4	0	1	5	51	1	20	0	0	0	1	7	7	0	2	1	3	0	0	96	14	0	1	0	0	10	40	0	34	1	3	1	0	1	3	18	0	0	8	12	0	2	0	8	33
OTU 57	50	361	3	47	42	7	65	94	41	91	50	41	1	287	25	6	286	292	202	206	35	129	42	9	16	34	218	32	105	2	22	110	128	31	86	75	33	20	59	856	24	57	35	215	1459	62	114	42	112	78
OTU 58	0	0	0	0	0	22	76	0	0	5	23	15	0	53	30	1	1	3	2	30	67	1	4	0	0	1	9	1	0	16	2	1	15	0	9	6	13	22	12	125	1	0	3	3	0	12	1	0	72	2
OTU 59	4	32	41	0	5	2	1	0	26	0	3	6	3	11	0	0	252	19	0	11	4	0	3	16	0	0	70	1	0	0	7	37	20	0	3	0	44	7	5	45	20	0	15	0	0	12	0	10	1	58
OTU 60	57	30	28	1	6	6	107	6	21	18	83	72	2	36	18	5	148	6	17	10	184	1	3	10	37	6	79	46	17	10	4	89	38	0	2	0	92	26	62	67	37	0	12	56	28	9	29	1	10	76
OTU 61	345	100	69	153	29	84	17	291	78	23	12	57	73	13	44	593	2	22	621	3	280	32	14	60	51	141	4	14	2	42	341	83	23	4424	0	27	66	152	52	312	25	9	14	94	650	27	37	2063	113	35
OTU 62	1	2	99	0	3	1	0	0	0	14	24	99	9	35	24	0	1	6	1	3	1	20	0	46	85	0	0	2	10	0	0	0	25	18	6	1	24	0	0	15	0	9	0	9	0	10	2	8	58	0
OTU 63	68	0	0	1	3	17	18	2	4	9	58	26	3	63	1	0	36	8	1	0	41	5	19	1	0	0	222	52	4	14	6	46	95	10	118	0	15	0	5	0	1	6	0	49	1	22	0	6	29	6
OTU 64	36	17	103	3	32	42	14	4	69	83	60	72	140	188	8	20	24	11	8	86	79	105	33	64	49	6	63	37	1	6	45	10	88	15	67	77	41	39	94	25	42	75	34	96	4	142	26	1	20	121
OTU 65	0	0	0	0	0	0	0	0	0	0	0	0	0	0	0	9	0	0	0	0	0	0	0	0	10	0	0	0	0	0	0	0	0	5	0	0	6	0	0	0	0	0	0	0	0	0	0	1	0	1
OTU 66	4	43	13	14	0	1	80	29	20	31	29	59	73	22	2	66	31	2	91	12	0	9	7	11	8	0	253	1	7	7	79	4	7	8	161	75	32	6	13	5	23	0	7	10	9	3	16	10	11	4
OTU 67	1	23	14	0	1211	42	0	0	0	55	0	29	21	6	0	3	50	19	9	10	0	73	19	3	51	0	10	2	282	4	58	24	144	3	0	9	13	41	13	1	0	15	13	9	2	20	27	4	23	25
OTU 68	0	0	0	1	0	12	6	2	4	0	0	0	6	18	7	0	15	0	3	2	5	22	19	1	28	23	33	0	1	13	2	0	1	0	36	0	67	0	29	63	0	10	0	1	3	21	11	0	23	7
OTU 69	10	2	15	21	47	11	49	35	1	19	60	71	0	21	17	1	47	18	47	45	46	19	6	338	52	11	79	6	32	0	8	12	33	4	7	6	5	19	1	24	2	8	0	29	16	9	1	0	30	1
OTU 70	1	14	0	4	5	41	50	4	11	39	64	43	44	15	22	0	3	4	7	0	0	26	15	0	6	5	73	4	4	2	0	14	24	54	18	0	7	2	0	17	5	8	0	22	0	0	1	22	0	15
OTU 71	0	0	11	0	2515	1	57	2	28	39	0	3	18	65	11	8	0	659	2	34	53	169	7	14	5	1	1	3	20	7	11	54	5	0	47	81	0	18	0	61	0	60	27	13	13	4	3	0	33	3
OTU 72	1	1	72	0	4	0	36	1	0	2	13	5	236	22	38	3	32	50	4	16	10	5	22	17	3	17	16	4	5	6	154	17	3	14	129	1	13	7	31	25	10	8	10	147	49	0	0	9	14	37
OTU 73	3	20	2	3	48	29	1	1	188	4	12	5	10	44	3	4	42	6	1	69	117	4	0	0	5	16	0	0	51	12	23	45	9	43	84	1	65	64	46	10	0	5	4	3	36	7	7	29	30	0
OTU 74	0	3	25	0	6	11	210	4	6	3	1	239	17	265	2	10	3	12	22	115	6	39	15	8	2	59	94	3	51	18	42	1	69	7	170	26	256	16	42	99	118	6	99	193	64	210	19	4	45	0
OTU 75	578	106	1	1	10	43	14	3	33	1	12	35	115	70	39	20	11	160	0	10	715	0	7	1	18	506	25	10	3	6	12	2	86	33	211	4	129	21	35	0	48	690	4	21	25	29	79	11	7	72
OTU 76	0	11	13	0	0	0	26	0	0	0	29	1	24	25	38	0	18	47	0	0	0	0	1	10	3	6	0	0	70	21	0	195	8	2	244	43	1	0	0	490	0	0	2	5	40	2	2	1	0	1
OTU 77	8	9	2	0	30	89	33	1	10	25	129	17	31	7	6	2	8	2	3	2	3	99	46	1	34	31	41	4	40	45	24	11	17	2	71	19	46	59	4	0	7	81	27	71	79	32	2	4	33	17
OTU 78	8	62	20	3	16	57	1	6	3130	25	12	0	0	175	125	8	3	9	5	25	26	0	0	11	0	152	3	5	53	2	20	0	93	1396	4	158	2	117	3	2	47	0	76	31	16	96	92	655	14	30
OTU 79	10	69	275	14	22	96	54	33	13	18	99	116	87	163	26	16	354	51	49	55	167	33	38	170	145	58	58	37	14	1598	60	194	204	10	273	110	84	89	122	140	77	11	1120	123	6	11	44	12	142	312
OTU 80	26	13	133	14	10	21	151	46	1	11	7	21	23	169	2115	41	9	82	59	268	1	7	13	63	38	8	11	2	6	20	21	14	3	28	23	163	35	5	14	24	14	10	0	0	5	13	37	18	18	76
OTU 81	411	83	294	8	11	42	241	16	38	8	73	23	33	5	2	660	56	16	9	3	64	15	60	109	47	18	82	47	17	10	18	143	16	1	11	20	74	6	178	34	10	5	7	88	37	0	41	3	24	53
OTU 82	12	131	13	1	0	12	6	1	0	0	3	70	21	5	27	6	94	5	7	0	9	5	5	8	104	1	0	8	58	12	1	62	10	5	56	18	6	10	0	116	14	1	16	2	8	10	2	5	2	18
OTU 83	6	0	4	0	13	5	2	2	3	0	0	12	0	0	50	6	0	0	2	11	34	18	19	5	0	30	43	8	0	0	0	0	23	0	1	0	0	56	20	4	10	10	0	0	6	0	0	0	63	0
OTU 84	5	20	46	2	14	0	219	6	0	24	10	22	0	0	8	15	0	0	22	0	8	39	1	26	2	6	137	0	38	2	5	8	20	36	307	27	0	18	12	158	0	2	5	92	5	28	0	46	11	0
OTU 85	8	5	4	5	0	31	10	9	4	3	0	2	0	1	67	0	5	19	30	0	24	0	66	9	6	31	2	17	5	8	0	0	3	22	2	0	0	54	24	18	50	1	0	4	0	0	1	8	24	0
OTU 86	0	0	0	0	0	0	0	0	25	2	0	0	0	0	0	0	0	0	0	0	0	0	0	0	0	0	13	0	4	0	0	27	0	0	2	0	0	37	0	1	4	0	0	17	0	2	0	0	0	0
OTU 87	10	0	4	0	0	0	0	0	8	0	28	0	36	188	0	0	3	0	0	52	2	0	0	0	9	0	12	1	0	0	12	2	19	0	1	0	10	5	5	164	0	0	5	8	0	0	0	0	0	6
OTU 88	1	2	17	0	4	1	0	0	0	4	0	3	8	0	0	39	0	0	0	0	0	0	0	8	11	9	0	3	73	2	0	0	0	1	0	37	0	0	0	5	8	0	2	9	3	0	0	0	0	4
OTU 89	0	13	3	1	1	0	147	1	1	1	0	0	6	109	8	1	47	6	9	119	12	0	0	0	17	0	0	9	6	0	2	0	0	0	0	3	0	0	4	39	3	0	0	0	460	1	1	0	0	0
OTU 90	15	0	0	0	3	48	42	0	0	0	0	0	0	8	0	0	0	38	0	3	37	0	0	0	2	9	23	0	0	0	43	9	23	10	8	0	0	1	2	0	3	0	8	0	2	0	0	16	5	192
OTU 91	0	0	0	0	0	24	5	0	0	0	0	0	0	0	0	0	0	0	0	0	0	0	1	0	0	0	1	0	0	0	0	0	114	0	59	0	0	1	5	15	0	0	0	0	0	0	0	0	0	1
OTU 92	0	10	0	0	0	0	0	0	0	19	0	1	74	34	8	0	2	0	10	56	2	0	8	0	0	2	0	7	29	0	2	0	0	0	56	0	77	9	25	1	18	0	0	0	31	0	42	0	0	29
OTU 93	0	0	0	0	0	0	77	0	8	12	4	0	10	2	0	8	0	0	0	0	0	0	0	0	0	0	4	19	0	0	0	0	0	0	2	50	0	0	0	0	0	0	2	11	1	0	0	0	0	7
OTU 94	19	11	234	36	80	283	44	75	170	49	0	5	111	3	168	7	121	33	155	0	22	140	172	108	92	273	6	70	22	71	87	4	280	180	39	152	65	196	123	37	225	91	122	103	52	219	4	57	278	68
OTU 95	0	38	0	2	2	1	0	8	0	0	70	7	4	0	1	0	35	4	9	15	0	3	0	0	0	23	1	1	6	9	1	0	53	0	0	0	7	3	0	0	1	1	0	11	0	22	4	0	62	0
OTU 96	6	0	0	0	0	0	0	0	0	0	7	1	0	0	0	0	30	0	0	0	0	0	0	0	27	0	2	0	0	0	0	0	0	0	0	0	0	0	0	0	0	3	0	69	0	0	0	0	0	87
OTU 97	2	0	0	0	0	2	0	0	0	0	0	0	0	0	2	0	0	0	0	4	21	0	2	0	1	33	0	0	5	6	0	1	0	0	0	1	0	1	5	0	2	0	0	44	0	0	3	1	0	48
OTU 98	2	6	0	0	1	11	1	0	0	0	0	0	456	17	19	6	3	22	0	1	2	0	0	0	60	3	4	0	23	2	59	0	5	0	6	0	566	12	0	0	33	0	43	61	1	124	0	0	13	7
OTU 99	2050	5	112	4	4	28	12	3	3	27	104	46	125	6	61	6	101	18	11	28	255	5	24	52	121	78	0	42	61	26	24	9	108	2	310	0	76	101	68	33	31	6	8	152	11	47	63	1	36	16
OTU 100	33	12	7	2	18	0	0	12	127	0	5	39	161	60	5	29	15	19	22	3	34	4	32	10	1	29	2	74	33	13	0	21	32	110	27	2	80	44	0	51	5	1	8	0	97	0	13	19	78	39
OTU 101	0	0	0	0	0	0	65	0	1	11	2	27	0	0	0	0	68	0	0	4	0	3	0	0	0	0	3	4	0	0	0	13	8	3	109	0	0	0	1	0	0	0	1	11	6	4	0	0	0	0
OTU 102	0	0	2	0	1	2	1	0	0	0	2	5	70	3	0	0	15	1	10	0	4	0	0	3	5	0	54	17	0	0	4	0	0	0	5	3	25	0	0	1	0	0	1	0	0	0	31	2	0	0
OTU 103	0	0	3	1	1	0	22	1	20	6	15	5	0	3	2	0	10	36	0	26	66	9	5	7	18	4	9	2	3	5	0	1	27	1	0	0	42	1	43	1	16	0	4	0	0	7	34	2	11	9
OTU 104	16	42	3	0	24	22	159	0	9	1	33	5	9	24	4	68	281	52	1	65	0	29	5	1	20	16	51	10	40	1	15	0	42	5	77	0	51	27	18	45	13	18	27	48	5	5	36	1	72	78
OTU 105	0	2	0	0	0	4	0	2	5	1	1	0	0	6	1	0	0	0	0	12	6	0	8	0	2	2	0	4	0	14	16	0	39	0	14	0	0	1	0	65	0	0	0	0	0	3	1	0	12	231
OTU 106	7	1	0	2	3	11	90	2	0	0	18	56	0	11	0	6	0	200	2	0	3	12	0	0	42	0	0	0	0	1	0	0	0	0	36	0	4	9	127	0	0	0	0	28	15	0	67	2	0	26
OTU 107	12	3311	18	0	1	14	0	0	3	0	9	0	0	83	4	4	12	2	0	5	0	2	0	16	5	4	14	0	0	0	35	1	0	0	3	0	38	10	9	32	1	0	1	0	0	0	0	0	1	0
OTU 108	0	42	78	0	7	23	25	0	0	3	6	59	1	51	52	2	179	1	0	53	4	0	16	30	2	11	2	15	49	24	3	50	28	1	6	1	0	29	0	39	2	0	5	7	2	1	6	1	1	74
OTU 109	0	0	0	0	0	0	0	0	0	0	0	0	0	0	0	4	0	0	0	8	16	0	0	0	0	0	0	0	0	0	0	0	0	0	0	0	0	0	0	0	0	0	0	0	0	0	3	0	0	0
OTU 110	3	99	16	6	66	18	32	10	17	19	0	15	19	13	0	0	23	4	1	0	0	64	1	11	22	23	34	2	75	4	93	3	11	7	15	0	49	5	126	82	6	36	66	25	12	49	6	3	4	69
OTU 111	0	0	0	0	0	21	0	0	0	4	0	0	0	0	14	20	118	0	0	0	0	0	0	0	0	0	0	0	0	5	0	0	17	0	14	0	0	21	0	0	0	0	0	0	0	0	0	0	0	0
OTU 112	0	0	122	1351	1	37	4	0	0	4	0	4	73	24	24	0	32	0	0	0	45	17	2	40	0	5	1	9	7	0	7	0	4	2	0	0	0	25	0	0	10	1	0	0	15	0	9	2	0	0
OTU 113	0	0	2	0	0	0	0	0	4	0	2	7	0	2	0	0	0	5	0	0	23	0	0	1	27	3	0	0	0	2	6	0	0	0	0	35	12	0	32	0	0	0	0	0	0	0	1	1	3	0
OTU 114	12	51	296	9	62	46	66	19	156	25	73	105	86	53	132	1	600	32	46	31	110	123	126	165	141	108	66	0	0	25	51	20	74	45	98	64	20	139	55	88	99	63	114	366	107	192	10	23	65	2
OTU 115	19	53	65	1	30	44	76	4	57	33	31	85	8	194	73	24	195	992	6	1039	51	8	21	17	32	45	107	29	8	39	10	47	213	19	89	85	88	121	2540	12	41	8	16	46	44	8	1470	332	11	8
OTU 116	9	798	71	14	19	57	99	50	12	16	85	6	2	67	3	13	0	0	97	0	88	29	49	51	145	28	7	0	45	3	1	157	62	11	6	1	57	4	43	1638	13	3	8	78	58	1	2	5	29	111
OTU 117	15	57	59	182	47	58	4	376	155	42	16	9	11	3	5	16	23	54	734	44	0	71	78	31	23	15	29	58	26	64	536	11	66	25	2	60	3	2	22	80	16	61	45	112	24	155	18	33	186	21
OTU 118	8	25	0	0	15	1	0	1	0	0	0	0	8	9	0	0	2	0	1	1	11	0	0	0	0	0	7	2	0	2	15	0	0	0	14	0	0	0	0	0	2	0	0	14	1	0	8	0	2	0
OTU 119	4	27	223	487	6	67	31	1023	24	0	70	15	78	69	2	15	178	39	13	7	12	3	26	141	18	19	1	14	46	28	0	57	263	3	48	12	114	0	107	15	4	0	0	94	52	8	11	7	97	64
OTU 120	0	0	5	0	1	23	22	0	0	0	35	2	24	8	0	4	5	1	0	0	2	0	0	2	1	2	0	1	7	0	1	2	6	0	0	5	0	53	0	21	33	1	0	168	5	15	2	1	3	0
OTU 121	4	1	18	13	7	1	2	26	56	19	33	11	9	0	46	14	4	0	46	0	1	52	33	6	30	63	0	48	75	32	30	3	205	24	51	121	9	32	30	89	71	17	4	3	31	26	3	35	143	6
OTU 122	41	1	0	8	1448	37	257	18	16	1168	28	318	90	324	19	12	7	0	14	256	14	2775	23	0	189	3	397	16	8	9	4	34	156	11	34	132	7	27	6	20	11	1596	1529	4	2	3137	53	4	0	52
OTU 123	20	115	116	21	34	61	58	46	38	31	108	65	241	336	83	48	126	102	115	41	46	119	79	62	208	82	92	13	215	71	54	69	104	3	150	65	171	76	134	208	48	92	69	357	66	111	123	23	82	124
OTU 124	514	88	0	0	1	21	10	0	0	0	0	0	0	11	0	1161	18	0	0	0	2	0	3	1	0	0	2	3	0	0	0	0	67	0	2	10	0	0	1	18	0	0	10	1	0	0	0	0	0	1598
OTU 125	367	115	173	3	72	40	430	6	38	61	11	30	15	212	148	94	99	242	42	136	198	97	1921	89	88	113	130	951	260	1015	36	331	87	261	54	14	41	196	82	68	77	50	83	140	59	73	146	67	38	240
OTU 126	23	0	1	0	0	71	0	0	10	0	0	0	0	4	3	6	0	15	0	12	0	0	2	1	0	0	3	12	0	0	11	0	0	1	36	3	0	0	10	0	0	0	26	0	1	28	0	1	0	0
OTU 127	0	2	709	0	7	22	19	0	10	5	1	1	38	100	1	4	66	8	0	40	29	7	98	351	15	0	14	18	3097	25	1	114	81	0	6	23	1	1	0	14	69	16	14	0	33	38	11	1	61	57
OTU 128	7	87	300	497	43	160	139	64	95	55	262	110	76	220	73	17	375	214	160	65	101	47	67	144	126	15	170	36	78	13	46	230	508	115	297	164	84	134	248	60	40	71	64	168	108	88	135	56	102	401
OTU 129	0	0	0	0	0	0	8	0	5	66	0	0	0	0	4	3	8	29	0	4	8	3	54	0	0	0	0	25	0	63	8	0	0	0	0	2	17	0	0	0	1	7	44	6	0	17	20	0	91	0
OTU 130	20	2	8	0	1	395	1	2	3	10	36	16	7	23	2	94	94	14	1	30	55	0	3	6	48	9	4	10	0	0	6	0	5	3	408	1839	5	27	13	7	2	3	0	0	15	48	3	8	0	2
OTU 131	0	1	80	14	0	5	31	30	2	14	0	9	5	40	25	2	13	129	73	0	79	2	34	25	15	48	14	18	3	4	19	26	7	0	31	1	167	74	38	44	33	3	3	12	0	1	86	1	7	26
OTU 132	919	20	2	0	3	4	15	0	11	0	1	8	0	56	0	4	0	0	0	12	1	0	29	1	1798	0	6	15	24	31	0	1	4	14	2	11	37	11	17	18	2	0	1	0	1	5	0	0	59	25
OTU 133	0	0	0	0	0	0	1	0	0	1	0	7	0	80	0	0	0	0	0	44	30	0	0	0	0	0	1	0	63	0	0	10	0	0	0	0	2	1	7	5	2	0	0	2	11	5	0	0	25	0
OTU 134	0	4	7	3	1	31	162	5	0	0	284	7	101	68	9	3	56	22	16	0	7	4	10	5	17	2	0	0	12	1	359	32	14	3	72	0	117	11	96	0	0	0	36	28	16	24	57	8	1	16
OTU 135	3	2	7	45	31	123	197	111	108	67	82	11	3614	18	54	58	115	1	142	0	6	64	71	5	24	69	16	91	0	49	96	7	1	81	3	89	11	306	0	7	70	25	89	3	24	234	24	82	395	247
OTU 136	37	95	0	0	5	26	53	0	28	1	40	0	28	12	16	31	71	3	0	46	0	5	16	1	190	50	34	8	9	18	1	46	1	14	27	3	27	18	1	0	91	1	19	4	22	31	8	19	45	0
OTU 137	11	0	5	7	3	0	5	15	0	9	0	4	0	26	1	0	6	0	9	59	0	22	8	5	1	3	0	0	0	14	0	0	94	0	40	10	126	77	2	4	10	4	0	9	9	0	2	0	25	5
OTU 138	1	0	0	1	1	0	9	2	2	0	77	7	0	1	0	8	41	19	14	12	0	0	0	0	5	3	48	0	1	2	39	0	7	7	0	0	11	3	218	2	0	0	2	0	0	2	15	0	0	6
OTU 139	42	44	64	2	873	11	48	3	90	6	87	99	128	10	5	40	44	111	1	8	81	115	42	1969	104	4	40	7	128	17	3	33	63	118	35	10	165	19	112	60	63	576	96	177	24	154	10	61	70	120
OTU 140	60	153	65	13	46	105	725	26	54	49	50	131	202	12	3	129	384	152	41	30	250	108	71	45	606	28	188	30	83	65	101	219	1457	79	279	40	231	11	218	43	13	28	67	83	108	110	53	33	54	106
OTU 141	0	0	0	0	0	0	0	0	0	0	0	0	0	0	0	0	2	0	0	0	100	0	0	0	0	0	0	0	0	0	0	0	0	0	5	0	0	0	0	0	4	0	0	0	0	0	0	0	3	0
OTU 142	0	3	0	0	0	32	12	0	0	0	0	0	0	0	0	0	0	0	0	0	18	0	0	0	0	0	15	1	0	5	0	0	0	4	0	0	0	0	0	0	0	0	2	0	0	0	8	0	1	0
OTU 143	0	6	0	0	380	0	0	0	1	489	6	12	0	2	4	0	6	0	0	0	0	743	0	0	0	37	3	10	1	0	0	11	0	0	85	17	0	51	0	48	25	355	1	0	0	1	0	0	0	0
OTU 144	0	0	1	0	0	0	72	0	5	0	3	0	28	0	3	0	5	26	0	8	0	0	0	0	0	0	1	0	0	0	0	2	33	0	0	100	35	0	0	0	0	0	0	0	0	0	2	8	2	0
OTU 145	28	97	30	0	17	73	73	1	30	32	49	18	11	296	11	10	32	18	5	284	72	31	34	17	165	30	196	100	21	15	55	100	30	3	1	73	9	26	28	66	19	477	27	64	41	61	23	7	113	53
OTU 146	1	18	88	0	8	45	45	0	7	0	14	81	1	181	4	14	67	30	2	117	10	0	0	44	30	0	43	0	6	21	67	85	5	3	22	0	221	42	17	2	10	3020	5	5	2	6	63	5	0	21
OTU 147	0	0	5	0	1	6	0	0	7	12	39	9	1	6	0	1	103	3	0	8	2	3	6	0	44	1	30	9	11	7	1	1	233	30	7	106	31	13	22	1	0	0	3	0	15	0	0	23	15	1
OTU 148	63	5	143	10	3	5	150	15	7	24	2	16	13	180	10	34	55	75	64	72	45	1	15	76	18	0	0	8	3	3	17	231	98	0	62	5	8	17	17	1	4	0	22	73	25	24	9	1	72	13
OTU 149	0	18	0	511	27	7	6	1041	11	0	49	40	0	4	0	8	8	5	6	2	17	20	10	1	1	10	98	0	35	0	1	18	10	13	1	23	7	16	0	6	0	16	34	0	0	15	1	2	0	0
OTU 150	0	54	0	3	0	8	5	4	2	0	0	62	0	0	0	19	28	0	5	1	0	0	0	9	28	0	17	1	8	0	0	0	1	3	0	22	10	1	0	35	23	3	0	8	0	0	13	0	8	0
OTU 151	17	6	6	1	15	25	12	5	7	11	22	11	6	8	0	130	5	8	10	4	0	25	24	3	3	2	2	92	2	11	98	0	91	2	2	0	34	4	3	28	2	1	3	10	44	0	28	0	8	0
OTU 152	0	19	88	2	9	0	31	4	150	95	0	86	120	17	29	78	22	2345	24	13	18	33	172	44	24	53	135	54	348	71	93	44	7	15	2	16	65	2	26	9	24	2	15	58	12	6	76	5	314	0
OTU 153	0	0	0	0	3	0	0	0	2	1	35	6	0	0	0	0	0	0	0	3	0	6	0	0	0	0	0	0	0	0	0	0	1	5	0	0	0	0	0	47	0	1	0	0	0	1	0	0	0	0
OTU 154	0	0	2	0	0	0	0	0	0	0	0	0	0	1	0	2	0	14	0	0	0	8	0	0	0	0	0	0	0	1	0	0	0	2	0	9	0	0	0	0	0	0	2	83	0	1	0	0	0	0
OTU 155	7	3	10	0	38	37	1	0	33	0	0	11	10	0	0	7	26	3	0	13	58	0	51	2	27	9	59	0	36	4	0	13	17	4	0	0	1	5	14	1	3	0	2	1	31	0	0	1	37	3
OTU 156	1682	112	56	1017	29	68	1	1939	45	15	136	2	21	116	47	4025	83	20	4	157	135	94	32	43	40	23	5	47	10	1	12	6	66	39	126	2	18	28	11	76	15	83	4	39	34	37	13	37	32	143
OTU 157	0	0	0	0	1	842	0	1	2	0	0	8	1	4	2	14	0	8	4	0	31	0	1	0	3	8	7	0	0	0	3	1	0	4	78	0	1	3	28	19	138	0	0	11	63	3	35	11	4	360
OTU 158	2	0	0	0	0	0	6	0	0	0	0	0	6	202	0	1	0	0	1	1	9	0	0	2	0	0	23	0	0	0	0	0	51	0	0	0	0	0	0	0	0	0	0	0	0	0	3	0	0	0
OTU 159	9	16	65	2568	0	0	179	7	2	17	1	11	5	122	42	8	20	129	7	58	60	31	2	28	104	8	1	0	3	0	5	3	9	16	34	5	10	29	133	65	14	13	0	20	11	13	129	0	2	61
OTU 160	25	326	50	17	11	147	98	35	14	9	47	45	228	31	37	45	11	690	82	1	17	44	16	14	7	45	282	9	157	4	84	36	87	9	2	17	1130	15	1621	498	16	25	22	22	20	32	502	50	14	84
OTU 161	2	10	93	0	1	48	85	2	9	2	38	88	9	176	2191	10	44	18	0	25	41	0	24	43	62	1641	16	1	120	231	1	24	37	1	27	1374	12	3554	5	59	2070	5	486	2	4	3	2657	0	7	1
OTU 162	8	1	81	23	24	147	211	49	28	34	6	4	15	2	64	31	21	76	84	12	13	53	32	30	17	56	2	23	59	5	211	259	0	28	18	25	45	131	76	95	126	1	1	6	2114	6	41	17	75	7
OTU 163	0	0	0	0	0	0	67	0	0	0	1	0	0	0	0	0	0	0	0	0	0	0	0	0	0	7	0	0	0	2	0	0	0	0	0	0	0	0	0	0	1	1	4	0	0	8	0	0	0	0
OTU 164	0	0	0	0	0	0	0	0	0	0	3	0	0	0	0	0	0	0	0	0	0	0	5	0	0	0	0	0	0	0	0	0	1	0	0	0	0	0	0	16	0	0	0	0	8	3	5	3	0	26
OTU 165	0	0	2	0	28	12	34	0	5	68	15	8	3	43	5	1	0	16	0	27	14	103	11	0	0	5	1	6	1	1	3	30	1	0	88	5	0	1	3	7	0	41	2	7	13	2	0	1	0	93
OTU 166	0	2	0	0	0	0	0	0	0	0	0	0	0	0	0	0	0	2	0	0	0	0	0	0	0	0	0	0	0	0	0	0	0	4	0	21	0	0	0	0	4	0	0	0	0	1	0	0	0	1
OTU 167	1	0	0	0	0	168	1	0	4	16	69	1023	4	93	0	0	11	87	1	56	1	6	1	0	45	16	2604	4	0	1329	18	3	0	8	4	4	12	0	0	2	11	4	0	0	11	3	0	6	4	0
OTU 168	1	118	59	0	4	76	6	0	2	37	115	4	242	50	4	5	4	0	2	135	23	32	19	60	22	28	0	9	23	5	7	33	0	0	7	0	10	5	97	5	2	22	0	154	10	9	9	1	44	5
OTU 169	0	0	0	0	0	0	15	0	0	0	2855	0	0	1	0	0	0	0	8	19	48	6	0	0	0	3	0	0	0	0	23	0	0	0	0	0	0	0	155	0	0	25	0	0	0	0	22	0	0	3
OTU 170	0	0	0	0	0	0	0	0	0	0	0	0	0	0	0	0	0	0	0	0	11	5	0	0	0	0	0	1	0	0	0	0	0	5	0	0	100	10	0	0	0	2	8	0	29	24	0	0	0	0
OTU 171	1	2	28	12	82	29	7	30	17	31	4	290	51	25	50	2	10	19	81	81	28	147	107	13	4	30	515	31	0	18	26	34	2	19	139	3	153	40	17	39	1993	71	46	7	90	54	1	99	181	2
OTU 172	28	0	1	0	0	0	4	0	0	11	0	0	0	0	0	0	0	0	0	0	0	7	0	0	0	6	0	0	0	0	0	0	0	0	0	3	0	2	0	0	0	6	0	1	0	0	2	0	0	0
OTU 173	0	33	22	2	1	13	1	3	0	10	34	0	0	0	0	3	21	0	0	1	0	0	1	21	0	0	81	0	0	4	22	4	72	5	0	0	3	15	1	7	0	0	0	135	2	0	3	1	0	0
OTU 174	18	15	1	10	0	0	31	23	0	6	2	0	10	0	33	30	2	7	55	6	0	3	0	3	8	0	0	5	2	6	0	0	0	1	31	4	7	31	1	12	0	0	7	34	0	21	29	3	1	10
OTU 175	0	1	1	11	11	38	13	14	32	25	0	0	0	0	3	2	117	0	17	0	0	2	41	2	0	6	2	33	5	27	18	4	6	2	23	1	5	11	15	183	3	4	15	3	3	73	10	2	116	13
OTU 176	23	29	77	0	17	33	73	0	1	48	17	58	6	109	11	2	327	53	3	138	67	93	0	42	145	0	35	1	41	1	28	6	16	18	60	72	24	12	1	19	2	54	0	10	4	58	4	19	26	66
OTU 177	49	4	81	0	13	15	91	1	77	41	54	1	7	19	2	12	0	19	23	79	13	21	13	32	5	38	31	25	51	21	31	202	0	8	38	0	75	109	147	1	90	26	9	6	31	22	54	8	18	32
OTU 178	8	32	0	8	0	1	129	10	10	11	1	1	0	3	36	8	1	1	28	0	17	5	2	2	0	1	37	1	41	11	3	67	51	2	8	11	8	36	45	18	16	0	0	9	0	0	44	12	0	32
OTU 179	5	0	0	5	4	0	13	10	27	0	7	73	4	14	7	2	0	2	11	1	0	13	1	0	35	1	181	0	32	8	26	56	241	0	6	18	16	0	3	1	3	10	14	42	2	69	0	3	19	15
OTU 180	69	141	1813	7	56	97	174	7	66	81	110	86	98	61	11	16	106	117	49	36	408	113	87	977	21	54	95	4858	54	45	34	173	4	6	162	44	40	51	23	37	10	73	65	73	128	53	5	15	99	120
OTU 181	0	3	0	0	0	6	22	0	0	18	0	19	1	3	2	22	35	39	1	24	47	4	13	0	6	9	112	0	46	1	36	0	0	9	98	7	5	0	9	90	9	0	11	16	18	7	0	4	10	1
OTU 182	0	0	0	0	0	2	17	0	0	0	0	0	0	0	0	0	4	10	0	0	0	0	5	0	0	0	0	0	0	0	0	0	0	0	0	0	0	0	1	0	0	0	0	0	0	0	0	0	0	0
OTU 183	3	7	33	6	40	8	39	11	8	8	0	747	18	86	2	31	16	298	44	44	2	33	2	36	11	0	0	0	0	19	33	47	44	5	29	21	12	0	74	1	24	14	0	1	2	5	1107	14	7	38
OTU 184	26	13	1	140	7	0	138	229	3	39	1	0	0	71	0	1	0	3	387	51	30	35	1	1	5	1	63	2	1	1	37	2	0	1	2	11	1	8	6	0	0	4	30	0	56	36	0	1	0	0
OTU 185	6	3	49	10	18	21	63	22	55	1	4	10	0	10	2	17	16	65	43	3	45	8	13	18	15	5	76	12	310	2	0	7	104	108	3	7	5	14	29	14	5	1	0	49	6	2	148	19	18	28
OTU 186	0	39	0	0	21	0	11	0	79	0	2	2804	21	0	17	0	2	0	0	12	0	4	1	0	52	15	2	0	0	0	7	0	0	3	98	0	6	8	54	14	13	9	0	70	0	0	83	0	11	3
OTU 187	28	1	212	29	28	66	17	47	7	109	87	5	82	165	0	40	19	11	67	57	275	29	27	100	43	6	84	13	31	35	70	16	175	9	83	25	215	60	35	110	47	16	22	12	4	53	49	11	41	131
OTU 188	61	14	6	208	312	572	214	423	370	232	12	34	54	195	308	209	37	160	821	49	43	522	625	3	71	304	2	290	159	1061	210	3463	51	240	1	361	142	526	37	19	307	157	178	49	128	425	67	140	820	85
OTU 189	0	38	176	89	52	20	29	192	76	45	42	169	35	36	20	15	64	7	354	42	0	16	107	68	21	17	145	44	74	3	210	25	0	62	386	18	41	10	42	3	11	7	52	128	11	151	77	35	175	150
OTU 190	4	32	0	0	0	0	28	0	0	4	56	1	0	77	0	0	0	0	0	33	15	0	5	0	16	2	0	16	11	0	0	0	0	0	44	0	0	0	0	4	0	0	3	3	29	0	12	0	40	49
OTU 191	119	70	25	5	14	23	2	16	12	4	23	6	118	20	9	211	50	25	24	11	3	42	34	0	428	4082	22	1	63	21	25	59	308	1	260	202	1	36	88	144	9	29	0	15	13	3	54	13	31	4
OTU 192	26	8	20	14	8	102	77	21	19	5	107	21	54	205	10	6	374	33	13	57	156	5	15	19	24	11	25	10	17	7	11	85	62	10	38	18	162	6	9	86	12	8	292	2569	150	107	11	2	65	50
OTU 193	2	21	124	24	24	11	39	43	52	5	1	42	29	38	2	0	234	76	52	1	40	54	40	34	11	0	14	1	6	12	53	6	209	47	12	1	45	1	18	98	36	24	15	86	1	0	1	42	0	14
OTU 194	0	103	14	0	36	105	11	1	27	0	31	0	20	1	0	0	10	13	0	1	2	4	4	11	33	5	43	2	45	0	5	4	258	0	71	20	69	0	55	19	19	7	0	25	120	10	0	1	0	3
OTU 195	10	38	17	6	9	36	1	18	2	32	8	22	7	63	1759	13	1	23	8	5	2	21	15	14	3	0	7	3	15	4	1	3	44	1	47	65	124	11	22	58	1	8	0	43	0	1	48	9	2	0
OTU 196	10	0	15	0	12	29	31	0	11	8	19	15	89	0	2	1	0	0	0	19	2	2	15	7	36	4	3	3	1	5	47	0	17	12	101	34	6	12	28	4	6	1	10	0	0	11	1	3	1	12
OTU 197	3	20	164	28	32	37	101	49	294	2491	24	157	37	159	156	42	60	84	45	131	22	24	19	77	146	46	62	9	39	35	81	74	133	60	570	75	33	122	193	12	1800	16	24	69	38	76	117	40	134	62
OTU 198	0	1	5	0	0	2	1	0	11	0	17	0	0	18	0	0	0	32	10	4	3	0	0	1	4	0	0	0	0	0	5	0	1	10	0	0	7	2	0	0	9	0	3	0	0	0	10	2	27	38
OTU 199	14	6	0	7	0	5	0	17	0	0	3	12	3	2	4	0	5	9	11	22	12	4	1	0	1	28	49	0	0	1	45	15	0	2	2	3	79	0	7	9	3	2	0	38	18	0	1	1	1	1
OTU 200	7	19	37	0	17	16	30	3	2	3	17	14	15	15	5	6	30	3	1	137	8	33	72	25	24	3	78	19	0	0	0	58	41	19	33	9	62	3	5	0	1	13	4	0	0	0	19	0	64	128
