	Host 1	Host 2	Host 3	Host 4	Host 5	Host 6	Host 7	Host 8	Host 9	Host 10	Host 11	Host 12	Host 13	Host 14	Host 15	Host 16	Host 17	Host 18	Host 19	Host 20	Host 21	Host 22	Host 23	Host 24	Host 25	Host 26	Host 27	Host 28	Host 29	Host 30	Host 31	Host 32	Host 33	Host 34	Host 35	Host 36	Host 37	Host 38	Host 39	Host 40	Host 41	Host 42	Host 43	Host 44	Host 45	Host 46	Host 47	Host 48	Host 49	Host 50	
OTU 1	0	10	3	0	4	8	0	11	0	0	6	0	0	5	0	0	3	6	0	1	0	7	0	1	0	0	2	0	0	3	3	5	1	2	0	0	4	0	2	0	0	1	13	1	4	3	1	5	3	2
OTU 2	0	0	2	0	3	0	0	0	0	0	0	2	1	0	0	0	1	2	1	0	0	0	0	0	0	0	1	1	0	1	0	0	0	0	0	0	0	0	1	0	1	0	0	0	0	1	0	0	4	0
OTU 3	0	0	3	45	1	0	0	1	0	0	0	0	0	0	0	0	0	0	0	0	0	0	0	0	0	0	0	0	0	0	1	0	0	0	0	0	0	0	0	1	1	0	0	1	0	0	0	0	0	1
OTU 4	0	0	0	0	0	0	0	0	0	0	0	0	0	0	0	0	0	0	0	0	0	0	0	0	0	0	0	0	0	0	0	0	0	0	0	0	0	0	0	0	0	0	0	0	0	0	0	0	0	0
OTU 5	7	1	5	6	34	3	26	5	0	15	36	13	13	15	0	20	16	1	1	34	0	2	6	8	10	39	5	7	3	4	7	0	109	7	3	19	40	9	6	3	4	2	10	5	0	2	16	7	17	15
OTU 6	0	0	0	0	0	6	0	4	0	0	1	0	0	6	0	7	3	1	0	0	0	7	0	0	2	0	0	0	0	0	1	0	1	0	0	2	0	1	0	1	7	0	1	0	1	0	17	1	0	0
OTU 7	0	6	3	2	1	0	2	7	9	1	4	0	12	1	2	0	0	3	8	1	0	2	3	0	1	11	3	0	2	4	4	2	0	4	0	4	2	2	0	1	10	5	3	4	0	2	3	12	2	3
OTU 8	1	6	4	7	4	0	0	4	1	1	0	5	1	1	2	0	2	1	7	2	2	1	7	11	3	3	0	7	1	2	5	1	43	1	8	7	35	0	1	6	0	1	2	2	0	4	7	2	0	1
OTU 9	0	2	0	0	0	2	3	0	0	0	0	0	0	2	0	0	0	1	0	0	1	0	4	0	8	0	0	1	0	0	3	0	0	0	1	0	2	0	0	0	0	0	0	0	0	0	0	1	1	0
OTU 10	0	0	9	0	0	2	0	0	0	2	0	4	0	0	2	1	0	0	0	0	0	1	1	0	3	0	0	0	1	0	0	0	0	0	0	2	0	2	0	0	0	0	0	0	1	3	6	0	0	1
OTU 11	0	6	0	0	0	0	1	3	6	1	2	1	1	0	0	1	1	1	4	0	1	1	5	1	2	1	10	0	2	0	0	0	0	1	5	2	2	2	0	33	3	5	0	1	3	2	1	2	0	0
OTU 12	5	2	0	1	0	3	27	5	0	6	0	0	0	0	0	0	1	1	0	0	0	1	0	2	1	1	0	3	3	2	2	0	3	4	0	1	0	4	0	0	3	5	2	2	0	0	2	0	0	0
OTU 13	0	0	0	0	0	1	0	0	0	0	0	0	0	0	0	0	0	0	0	0	0	0	0	0	0	1	0	0	1	0	1	0	0	3	0	0	0	2	0	3	0	2	0	0	0	1	0	0	0	0
OTU 14	3	0	1	0	0	0	0	1	0	1	0	1	3	0	2	7	0	0	0	0	0	0	0	0	2	0	0	0	1	0	1	0	0	0	0	0	0	0	0	0	1	0	0	1	0	0	3	0	0	0
OTU 15	0	0	0	0	0	0	0	0	0	0	0	0	0	0	0	0	0	0	0	0	0	0	0	0	1	0	0	0	1	0	0	0	0	0	0	0	0	0	0	0	0	0	0	0	0	0	0	0	0	0
OTU 16	0	0	0	0	0	0	0	0	0	0	0	0	0	0	0	0	0	0	0	0	0	0	0	0	0	0	0	0	0	0	0	0	0	0	0	0	0	0	0	0	0	0	0	0	0	0	0	0	0	0
OTU 17	1	0	0	0	3	4	1	1	1	1	0	0	0	1	0	4	0	1	3	1	1	0	0	2	5	1	0	0	2	0	7	0	0	4	1	3	0	0	0	1	1	11	0	1	0	0	3	0	0	1
OTU 18	2	0	1	0	2	0	0	0	1	1	0	1	2	1	2	3	3	1	6	2	1	3	2	3	1	0	1	1	0	5	0	2	0	0	3	2	4	0	6	1	5	9	1	1	1	3	0	6	1	3
OTU 19	0	0	0	0	0	0	0	0	0	0	0	0	0	0	0	0	0	0	0	0	0	0	0	0	0	0	0	0	0	0	0	0	0	0	0	0	0	0	0	0	0	0	0	0	0	0	0	0	0	0
OTU 20	1	0	0	4	0	0	0	0	0	0	1	0	1	0	0	6	0	2	1	0	0	0	4	3	2	1	0	0	7	0	2	1	0	4	1	0	4	2	0	0	4	7	3	3	1	0	0	0	0	0
OTU 21	3	2	2	1	9	0	0	1	1	2	0	1	5	0	5	1	0	1	7	2	0	0	2	3	1	0	0	0	0	1	0	0	2	3	2	0	0	2	2	6	0	1	1	4	0	1	1	3	0	0
OTU 22	0	5	1	5	0	1	4	0	3	0	4	0	0	0	0	2	1	1	6	0	7	0	1	1	2	0	3	1	48	1	0	4	0	2	0	1	0	4	0	0	9	2	0	0	0	0	3	2	1	0
OTU 23	1	1	0	0	2	0	2	0	0	1	1	1	0	2	0	1	0	2	0	0	0	1	0	0	0	0	0	1	0	2	0	1	0	0	1	0	0	0	0	0	0	2	0	14	2	0	6	3	0	0
OTU 24	0	1	0	0	0	0	2	0	0	0	0	1	4	2	0	0	0	0	0	0	41	0	0	0	1	0	0	2	4	0	5	0	0	0	10	1	0	0	0	1	1	0	0	1	0	0	2	0	0	0
OTU 25	0	0	0	1	0	0	0	0	0	0	0	0	0	0	0	0	0	0	0	0	0	0	0	0	0	0	0	0	0	0	0	0	0	0	0	0	0	0	0	0	0	0	0	0	0	0	0	0	0	0
OTU 26	0	0	0	0	0	0	0	0	0	0	0	0	2	0	0	2	0	0	0	0	0	1	0	0	0	1	1	0	0	0	0	0	0	0	0	0	0	0	0	0	0	0	0	0	0	0	5	0	0	0
OTU 27	0	0	0	0	0	0	0	0	13	0	0	0	0	0	0	0	0	0	0	0	0	0	0	0	0	0	0	0	1	0	0	0	0	0	0	0	0	0	0	0	0	0	0	0	0	0	0	0	0	0
OTU 28	0	0	7	3	0	0	1	0	1	4	5	87	0	2	19	0	2	0	1	1	6	2	5	1	1	1	1	5	0	4	0	3	0	0	0	11	10	0	4	0	3	3	6	0	2	0	5	6	5	4
OTU 29	2	0	2	0	1	0	1	4	3	2	1	0	1	2	0	0	0	0	0	1	4	1	0	1	0	1	5	5	4	12	1	1	3	1	0	1	2	5	4	0	2	0	4	1	0	0	2	0	5	0
OTU 30	0	0	0	0	0	0	0	0	0	0	0	0	0	0	0	0	0	0	0	0	0	0	0	0	0	0	0	0	0	0	0	0	0	0	0	0	0	0	0	0	0	0	0	0	0	0	0	0	0	0
OTU 31	12	0	0	0	0	1	0	0	0	0	0	0	0	0	0	0	0	0	0	0	5	0	1	0	2	0	0	0	1	1	1	0	0	0	2	0	0	0	0	0	1	0	0	0	0	1	0	0	0	0
OTU 32	2	1	2	4	1	3	2	2	1	9	3	1	1	3	4	1	4	3	3	0	3	2	1	1	1	0	2	3	21	3	11	0	4	3	2	0	2	1	0	2	2	4	7	8	0	0	2	0	0	0
OTU 33	8	2	0	0	0	0	0	0	0	0	0	0	0	0	0	0	0	0	0	0	0	0	0	0	0	0	0	0	0	0	0	0	0	0	0	0	0	0	0	0	0	0	0	0	0	0	0	0	0	0
OTU 34	1	0	0	5	9	1	3	8	0	1	0	3	1	0	0	0	0	2	1	5	0	0	1	1	1	0	0	0	1	0	0	0	0	0	0	11	0	0	0	20	0	0	4	0	0	1	6	0	0	2
OTU 35	2	17	0	0	2	0	0	0	1	0	0	0	0	2	0	2	0	0	1	0	74	5	1	4	0	0	0	1	5	3	0	0	0	0	0	0	1	1	0	0	0	1	2	3	0	0	3	0	148	0
OTU 36	0	0	0	57	0	0	2	6	2	92	0	1	0	1	0	1	1	0	2	2	7	1	0	4	3	9	2	0	0	4	0	1	0	0	0	3	4	0	3	2	1	0	0	0	0	1	0	0	0	0
OTU 37	1	0	0	0	0	0	1	0	0	0	0	0	0	0	0	0	1	0	0	0	1	0	0	1	0	5	0	0	3	0	0	0	0	0	1	2	0	0	0	0	0	0	0	2	0	3	0	1	0	0
OTU 38	8	1	0	0	0	1	0	0	0	0	0	0	0	0	0	24	0	1	0	1	2	0	0	0	1	0	4	1	8	4	1	0	0	1	0	7	0	1	1	0	4	1	0	29	0	1	2	0	0	0
OTU 39	0	0	0	0	0	0	0	0	0	0	0	0	0	0	0	0	0	0	0	0	0	3	3	0	0	0	0	4	0	0	1	0	0	0	0	0	4	0	0	0	0	0	2	0	0	0	0	0	0	0
OTU 40	2	2	0	1	4	4	12	1	1	1	0	0	0	1	0	2	0	3	0	0	3	0	0	0	5	3	0	3	0	0	1	0	0	0	109	1	20	18	0	6	6	0	2	1	1	0	0	2	0	7
OTU 41	0	2	2	0	0	1	0	0	0	0	2	2	4	2	0	2	0	0	2	2	0	0	0	0	0	1	0	7	1	1	0	1	0	2	0	2	0	3	0	2	0	0	0	0	7	0	1	1	0	1
OTU 42	0	0	0	0	3	0	0	0	0	0	0	0	0	0	0	0	0	9	0	0	4	0	1	0	2	0	0	0	4	0	0	0	0	0	0	0	9	0	0	0	0	1	0	0	0	0	0	0	0	0
OTU 43	0	0	0	0	0	0	0	0	0	0	0	0	53	0	0	0	0	0	0	0	0	0	0	0	0	0	0	0	0	0	0	0	0	0	0	0	0	0	0	0	0	0	0	0	0	0	0	0	0	0
OTU 44	0	2	0	0	0	1	0	0	0	0	0	0	0	0	0	1	0	0	0	0	0	1	0	1	0	0	0	1	0	0	0	0	0	0	0	0	0	0	0	1	0	0	0	0	0	0	0	0	0	0
OTU 45	3	0	4	4	0	1	0	1	6	0	2	1	1	102	1	0	0	0	0	1	1	1	6	0	0	4	0	0	0	1	0	4	0	2	0	4	7	1	0	2	0	4	11	2	1	1	1	2	0	9
OTU 46	0	2	3	3	0	1	1	0	4	0	3	3	0	1	1	2	1	2	5	1	5	0	0	6	3	3	0	5	0	0	5	1	2	1	0	3	0	0	0	0	0	4	0	1	69	2	8	0	0	1
OTU 47	0	0	0	0	0	0	0	0	0	1	0	0	0	5	0	0	0	0	1	0	0	0	0	0	0	0	4	0	1	10	1	2	0	0	0	0	0	0	8	0	0	0	0	0	0	0	0	0	5	1
OTU 48	0	2	3	3	2	33	1	2	0	1	0	2	0	3	3	1	1	1	0	1	2	4	3	1	0	0	0	0	1	0	1	0	1	39	0	13	1	2	0	0	3	0	0	28	0	3	1	1	0	0
OTU 49	1	1	0	2	0	0	0	1	2	2	0	0	0	1	2	4	3	0	0	1	0	4	2	0	0	2	0	0	1	0	0	2	0	0	0	0	0	1	144	4	4	0	0	0	0	0	0	0	0	8
OTU 50	10	2	4	3	1	2	0	4	1	1	0	0	1	0	5	3	0	0	0	1	1	2	6	3	0	1	0	3	6	1	0	1	0	1	0	3	5	0	2	4	2	7	6	4	0	2	0	5	0	3
OTU 51	1	4	0	3	0	6	0	2	2	2	3	0	0	0	5	0	0	11	4	1	0	0	0	3	0	0	0	0	0	0	8	2	0	7	0	1	0	0	0	0	7	2	0	0	0	0	1	3	0	3
OTU 52	4	3	2	4	3	4	0	4	0	0	1	0	1	0	3	2	0	2	0	5	1	0	4	123	8	1	0	12	19	0	0	5	1	2	2	0	0	0	2	3	0	0	2	6	1	1	7	11	0	0
OTU 53	0	0	0	0	0	0	0	0	0	0	0	0	0	0	0	0	0	0	0	0	0	0	5	0	0	0	0	0	0	1	0	0	0	0	0	0	0	0	0	0	0	0	0	0	0	0	0	0	0	0
OTU 54	0	7	1	1	1	127	2	1	3	0	4	0	4	3	14	2	63	4	3	3	0	5	2	1	5	0	1	9	6	2	1	6	25	1	0	2	4	8	1	0	4	1	2	1	0	0	4	3	3	1
OTU 55	0	0	0	0	0	0	0	0	0	0	0	0	0	0	0	0	0	0	0	0	0	0	0	0	0	0	0	0	0	0	0	0	0	0	0	0	0	0	0	0	0	0	0	0	0	0	0	0	0	0
OTU 56	0	2	0	0	8	0	75	0	0	0	0	0	0	0	1	63	1	0	0	0	0	0	0	1	0	5	0	1	0	3	0	1	0	0	0	31	1	11	0	0	1	0	0	25	0	1	1	0	1	0
OTU 57	9	4	6	4	0	0	2	0	4	1	1	8	2	3	1	0	1	0	9	3	6	1	1	2	2	14	3	3	1	4	3	4	4	0	6	3	3	2	3	16	7	6	8	1	13	69	0	3	0	6
OTU 58	0	0	0	0	0	1	1	2	0	0	0	0	3	0	0	0	0	0	0	1	5	0	18	0	0	0	0	0	0	2	3	0	0	3	3	0	18	0	1	4	6	0	5	0	0	1	0	29	1	0
OTU 59	0	0	0	0	0	0	0	0	2	0	0	0	0	1	1	0	0	1	0	0	0	0	0	0	11	0	0	0	1	0	0	0	0	0	1	0	0	3	0	0	0	0	0	0	2	0	0	1	0	0
OTU 60	0	0	2	6	1	0	0	5	6	0	15	8	4	0	10	1	0	0	7	1	2	1	1	0	4	3	1	4	5	3	0	10	1	0	0	1	1	1	1	14	2	0	3	1	0	3	1	18	0	2
OTU 61	1	1	1	4	0	2	8	23	1	3	1	2	2	0	2	0	6	4	5	6	6	5	6	2	9	3	0	0	8	2	6	2	0	4	0	10	4	3	0	9	2	0	3	2	0	4	2	4	2	1
OTU 62	0	3	15	0	0	2	1	0	0	0	0	8	0	0	0	0	0	2	0	0	0	1	0	0	0	6	0	1	0	0	0	0	1	0	0	2	0	0	0	0	0	4	0	0	0	5	3	0	0	0
OTU 63	2	0	51	0	0	0	0	0	2	0	3	19	2	0	0	0	0	1	1	0	0	0	0	3	1	7	0	0	0	0	0	6	0	0	0	2	0	0	0	0	2	0	3	0	0	0	1	0	0	0
OTU 64	19	3	8	6	11	3	4	0	3	2	0	31	3	7	1	0	10	16	22	0	13	19	4	23	0	8	1	7	7	7	3	0	7	1	2	26	1	5	1	0	6	2	13	18	28	5	4	20	2	1
OTU 65	0	0	0	0	0	0	0	0	0	0	0	0	0	0	1	0	0	0	0	0	0	0	1	0	0	0	0	0	0	0	0	0	0	0	0	0	0	0	0	0	0	0	0	0	0	0	0	0	0	0
OTU 66	0	12	6	1	8	2	2	1	10	1	3	0	1	0	0	0	0	1	1	0	3	0	0	0	1	0	22	0	2	31	1	1	0	2	0	0	2	0	16	0	5	2	0	0	2	0	5	7	19	101
OTU 67	0	0	0	2	4	0	0	0	4	1	1	1	5	0	0	0	0	0	1	0	4	0	2	1	2	0	2	1	0	5	3	0	0	0	1	1	0	0	1	0	3	0	1	7	1	1	0	4	3	0
OTU 68	1	0	0	0	0	0	0	1	0	0	0	0	2	0	0	0	0	0	8	0	0	0	1	3	30	0	0	0	0	0	0	0	0	0	0	0	0	0	0	0	0	2	0	5	1	0	0	1	0	2
OTU 69	1	3	8	0	2	45	0	3	0	3	1	8	5	5	1	0	4	0	4	3	0	2	0	6	0	1	2	1	0	4	1	3	1	0	36	5	4	2	0	14	2	80	6	3	0	0	0	0	4	2
OTU 70	0	7	0	1	2	0	2	1	0	0	0	0	1	0	1	3	0	0	0	20	1	5	6	1	0	0	0	1	0	0	1	0	0	0	0	0	2	0	0	0	4	0	2	0	3	0	0	0	0	0
OTU 71	0	0	0	0	0	0	3	0	0	0	0	0	1	0	0	0	2	0	0	1	0	2	3	0	0	0	0	11	2	0	2	0	4	0	1	1	1	0	0	0	0	2	9	4	0	0	1	0	0	0
OTU 72	1	0	0	0	1	1	7	11	5	1	4	1	1	1	6	1	2	0	0	3	2	4	1	2	0	0	0	0	0	0	0	0	2	0	2	4	0	0	0	0	7	0	4	0	3	0	8	0	0	0
OTU 73	4	1	0	0	1	2	2	0	0	0	9	0	4	1	1	5	0	0	9	0	0	0	2	2	0	0	1	1	0	1	1	6	0	3	0	5	0	8	0	0	0	4	1	0	1	2	0	0	0	1
OTU 74	0	1	0	0	3	5	6	16	2	3	0	0	0	0	0	2	0	1	18	5	0	0	1	6	0	0	1	0	3	0	5	0	0	5	2	3	0	10	0	3	12	2	1	0	1	2	1	1	0	1
OTU 75	0	3	4	0	4	0	0	2	0	0	0	6	1	2	0	0	2	3	5	2	3	3	4	0	1	0	1	0	7	1	9	0	0	0	2	0	3	0	1	0	1	0	4	4	0	0	2	8	0	2
OTU 76	0	0	2	0	1	0	0	0	0	0	0	4	0	0	2	11	1	4	0	0	0	0	0	0	0	1	1	3	0	0	0	0	1	1	0	0	2	0	0	0	0	0	0	5	0	0	0	1	0	1
OTU 77	1	0	0	0	0	6	0	1	0	4	2	0	0	2	4	0	3	0	0	0	6	0	6	3	2	4	0	6	3	0	7	1	0	0	2	0	19	3	1	11	0	3	0	1	0	2	3	4	0	0
OTU 78	2	1	1	0	1	1	0	7	2	2	1	0	1	0	0	0	1	0	3	3	0	0	6	0	0	0	0	1	0	0	3	1	2	0	0	0	2	1	0	0	0	1	1	1	2	1	1	2	0	0
OTU 79	5	9	0	5	5	5	27	36	9	12	32	48	52	3	0	2	1	4	4	30	10	2	6	1	3	4	8	3	6	12	1	0	0	5	4	6	10	58	31	1	2	16	3	1	2	0	20	16	4	2
OTU 80	0	0	0	2	1	1	0	7	0	1	4	2	1	3	2	4	1	0	12	4	0	5	0	0	1	1	0	23	0	0	0	0	1	0	2	0	1	13	0	1	4	1	0	2	0	0	3	3	0	1
OTU 81	3	1	2	1	3	1	1	1	3	0	1	2	3	0	11	1	2	2	13	3	12	7	0	0	0	7	0	13	11	2	2	2	2	0	3	9	4	0	1	2	6	0	1	1	2	0	2	0	1	1
OTU 82	0	1	0	0	0	0	5	2	0	0	0	0	0	3	7	0	0	1	0	0	0	0	1	4	3	0	2	0	3	2	0	0	0	0	0	1	0	3	0	0	0	0	6	0	8	0	1	0	0	0
OTU 83	0	0	0	0	1	0	0	0	5	0	3	0	0	0	1	0	0	0	0	0	0	2	0	0	0	0	3	0	0	0	0	6	0	0	0	0	0	0	1	0	0	1	0	0	0	1	0	0	2	1
OTU 84	0	1	2	0	0	0	0	0	0	1	3	0	3	0	0	9	0	164	0	0	1	4	1	0	1	0	2	0	0	1	0	0	0	1	4	0	0	0	1	0	0	0	4	0	0	0	1	0	0	2
OTU 85	4	0	0	0	1	0	0	0	0	0	32	0	1	0	0	0	0	0	1	0	0	0	1	0	0	1	1	0	1	1	0	0	29	0	0	0	0	0	0	3	0	0	0	3	0	0	0	0	2	0
OTU 86	0	0	4	0	0	0	0	0	0	0	0	1	0	0	0	0	0	0	0	0	0	0	0	0	0	0	0	0	0	0	0	0	0	0	0	0	1	0	0	0	1	0	0	0	0	0	0	1	0	0
OTU 87	0	0	0	0	0	0	0	0	0	0	0	0	0	0	0	0	0	0	3	0	0	0	0	0	0	0	0	0	0	0	2	1	0	0	0	0	0	0	0	0	0	0	0	0	0	0	0	0	0	0
OTU 88	0	0	2	0	3	0	0	0	0	0	0	0	0	0	0	0	0	0	0	0	0	0	0	1	0	4	0	0	1	0	0	0	0	0	0	3	0	2	0	0	0	0	0	0	0	0	0	0	0	0
OTU 89	4	0	0	0	0	1	0	0	0	1	0	0	1	2	0	0	1	0	2	1	0	0	3	0	0	0	0	0	0	0	0	0	0	0	0	0	0	0	0	0	2	0	0	0	1	0	3	0	0	1
OTU 90	0	0	0	0	0	0	0	0	1	3	0	0	0	0	0	0	0	0	0	0	0	0	0	0	0	0	0	0	0	0	0	0	0	0	0	0	0	0	0	0	0	0	0	0	0	2	1	0	0	0
OTU 91	0	1	0	0	0	0	0	0	0	0	0	0	0	0	0	0	0	0	0	0	0	0	0	0	1	0	0	3	1	0	0	0	0	0	1	0	0	1	0	0	0	0	0	0	1	1	0	0	0	0
OTU 92	0	5	0	0	0	0	0	0	0	0	0	0	0	1	1	1	0	2	0	0	0	0	0	0	8	0	0	0	0	0	0	0	0	0	0	2	0	1	0	0	0	0	0	0	0	2	4	0	0	0
OTU 93	0	0	0	0	0	0	2	0	0	0	0	0	0	4	0	0	0	0	0	0	2	2	0	0	0	0	0	0	0	0	1	0	0	0	0	0	0	0	0	0	0	0	0	2	1	0	0	0	14	1
OTU 94	0	5	4	1	5	0	7	1	0	2	0	3	0	3	0	1	0	1	18	3	2	7	2	7	7	1	2	3	8	5	2	0	0	4	0	6	1	2	5	6	11	0	3	1	33	0	8	1	2	7
OTU 95	0	0	4	0	0	0	0	0	0	0	4	0	12	3	0	0	0	0	0	0	1	0	0	0	4	0	0	1	1	1	0	1	0	0	0	0	0	0	0	4	0	0	0	0	1	0	0	21	0	1
OTU 96	0	0	0	0	0	0	0	0	0	0	0	0	0	0	0	0	1	0	0	0	0	0	0	0	0	0	0	0	0	0	0	0	0	0	0	0	0	0	0	0	0	0	0	0	0	0	0	0	0	0
OTU 97	0	0	0	0	0	0	0	0	0	0	0	0	0	0	0	0	0	0	0	0	0	0	0	0	0	3	0	0	0	0	0	0	0	1	0	0	0	3	0	0	0	0	0	0	0	0	0	0	0	0
OTU 98	0	0	3	0	4	0	0	0	1	3	0	0	0	1	0	0	0	0	0	0	0	11	1	0	1	0	0	0	1	0	0	0	0	0	1	0	1	0	0	4	0	0	0	3	4	0	1	0	0	3
OTU 99	2	0	0	3	0	1	6	4	0	4	0	0	0	1	0	0	2	0	3	4	3	0	1	13	1	0	6	0	6	1	2	1	3	0	1	4	0	1	1	1	11	0	0	1	0	3	7	0	1	6
OTU 100	0	4	3	0	0	2	0	0	1	2	0	1	0	0	2	0	0	1	0	0	1	0	8	0	1	3	0	9	0	1	0	1	1	2	0	1	1	0	0	6	1	0	3	0	0	0	1	0	2	0
OTU 101	0	0	0	0	1	0	0	0	1	1	0	0	0	0	0	0	0	0	0	0	0	0	0	0	1	0	0	1	0	0	0	0	0	1	0	0	0	0	0	1	0	0	0	0	0	0	0	0	0	0
OTU 102	0	1	0	0	0	0	0	0	0	0	1	1	0	0	1	0	0	1	0	0	0	0	0	0	0	0	200	0	0	0	0	0	0	0	1	0	0	0	0	0	0	0	2	0	0	0	0	0	0	1
OTU 103	0	3	4	0	0	1	0	1	0	0	0	1	2	2	8	2	1	4	2	0	1	1	6	5	1	0	0	1	0	1	1	0	0	70	0	0	7	0	0	4	0	4	2	0	0	2	0	9	0	0
OTU 104	3	2	1	0	8	1	0	2	4	4	2	2	9	1	6	0	0	1	8	1	6	4	0	2	0	1	1	3	1	6	3	2	0	1	2	1	0	0	1	0	0	1	1	0	2	2	5	9	3	5
OTU 105	0	1	0	0	0	0	0	0	0	0	0	0	0	0	0	0	0	0	0	1	0	1	2	0	0	0	0	1	0	0	0	1	0	0	0	2	0	4	0	0	2	0	1	0	0	0	2	0	0	0
OTU 106	4	0	4	0	1	1	0	0	0	0	4	1	0	0	0	9	0	0	0	0	1	0	0	2	0	0	0	0	2	1	0	0	0	0	0	1	0	0	0	0	0	0	0	7	0	0	0	0	0	1
OTU 107	0	0	0	0	0	0	2	1	0	1	1	0	0	0	1	0	0	3	0	0	0	2	2	1	2	0	0	0	0	0	1	0	0	0	0	0	0	0	0	0	0	0	0	0	0	168	0	6	0	7
OTU 108	0	0	0	1	0	0	0	0	0	1	0	0	2	0	1	1	0	0	2	0	4	1	0	0	0	0	0	4	0	0	1	2	0	0	2	1	0	0	0	1	0	1	0	0	2	0	1	5	0	0
OTU 109	0	0	0	0	0	0	0	0	0	0	0	0	0	0	0	0	0	0	0	0	0	0	0	0	0	0	0	0	0	0	0	0	0	0	0	0	0	0	0	0	0	0	0	0	0	0	0	0	0	0
OTU 110	10	0	0	0	0	1	18	2	0	3	85	1	12	47	0	0	3	0	1	0	0	1	1	0	3	0	0	3	4	0	0	2	0	0	2	0	1	18	0	0	1	5	41	0	1	0	10	12	0	4
OTU 111	0	0	0	0	0	0	0	0	2	0	0	0	0	0	0	0	39	0	0	0	0	0	0	0	0	0	0	1	0	0	0	0	20	0	0	0	0	0	1	2	0	0	0	0	0	0	0	1	1	0
OTU 112	1	2	0	0	0	1	1	1	1	0	0	5	0	0	0	0	0	0	2	0	3	0	0	0	0	1	0	5	0	0	0	1	0	0	0	1	0	3	0	1	5	0	1	0	0	0	1	0	0	0
OTU 113	0	7	0	0	0	0	0	0	0	0	0	0	0	0	0	6	0	0	0	0	0	0	1	0	1	0	0	0	0	0	0	0	0	0	0	0	0	0	0	0	2	0	0	0	0	0	0	0	0	0
OTU 114	3	1	0	3	2	3	0	11	13	21	6	3	14	2	9	5	6	7	0	5	0	10	6	3	0	2	15	0	0	38	12	4	0	10	2	1	1	5	35	1	7	10	3	4	1	4	0	0	19	12
OTU 115	3	5	0	3	60	0	1	0	1	4	1	3	1	2	1	0	2	5	5	5	1	4	0	5	6	4	1	2	0	2	3	0	1	1	2	1	0	2	0	0	0	0	1	9	0	0	6	1	0	0
OTU 116	5	1	0	0	0	0	2	0	39	1	0	0	1	1	0	4	0	1	1	0	15	1	4	0	1	5	1	1	3	0	1	0	0	1	0	2	3	1	0	4	0	0	0	0	0	0	0	4	0	0
OTU 117	2	7	7	1	0	1	0	22	1	2	2	7	2	4	0	2	2	1	1	6	0	1	0	1	2	6	3	0	2	7	1	2	2	1	0	0	1	3	5	1	0	0	5	0	2	4	2	5	6	3
OTU 118	0	0	0	0	0	0	0	0	0	5	0	0	0	0	3	2	0	0	0	0	0	0	0	0	0	3	0	0	0	0	0	2	0	2	0	3	0	0	0	1	4	1	0	0	0	0	0	0	0	2
OTU 119	5	0	5	13	1	1	39	0	1	0	0	2	3	0	1	1	5	4	0	0	0	2	1	1	3	9	1	20	5	0	3	0	0	0	1	1	3	45	0	0	2	3	7	4	3	2	1	2	0	0
OTU 120	0	0	0	0	0	1	1	5	0	0	0	0	0	0	0	0	1	2	0	7	0	0	9	0	0	0	0	1	0	0	1	0	1	5	2	0	0	1	0	0	1	0	0	1	4	0	4	3	0	0
OTU 121	0	0	2	1	0	0	1	1	2	5	0	1	3	0	0	2	0	0	0	0	0	0	0	0	0	2	0	2	2	3	0	0	0	2	0	1	2	0	3	12	0	2	2	3	2	0	0	2	1	0
OTU 122	1	0	5	5	1	0	0	4	0	6	2	1	0	0	3	8	0	0	2	0	0	3	0	1	1	3	0	1	0	0	4	2	0	2	0	7	0	5	0	0	0	0	0	1	0	0	2	0	0	0
OTU 123	6	1	19	3	2	5	12	4	13	11	6	4	16	12	4	4	6	7	15	67	11	6	20	43	6	17	7	0	15	21	6	9	6	4	1	8	43	7	13	9	6	3	3	8	8	4	6	7	10	0
OTU 124	0	0	1	0	1	0	0	4	0	1	0	2	1	0	0	1	0	0	0	1	0	0	0	0	0	0	0	0	0	2	0	0	0	0	1	0	1	0	2	1	0	0	0	1	3	6	0	0	1	0
OTU 125	4	3	10	13	18	3	1	2	34	7	5	7	11	3	8	30	11	9	5	65	6	6	3	7	12	10	2	26	6	14	6	0	31	5	4	1	2	8	4	10	13	4	4	10	0	8	16	2	5	2
OTU 126	0	0	0	0	0	0	0	0	0	0	0	0	3	0	0	0	0	0	2	0	0	0	0	0	0	1	0	1	0	2	0	0	0	0	0	0	1	0	0	0	2	0	0	0	0	1	0	0	0	0
OTU 127	1	0	0	1	3	0	3	1	2	0	2	0	1	0	1	2	0	0	0	0	6	0	0	0	3	0	3	1	2	9	2	0	0	1	0	0	0	0	4	0	1	1	0	0	0	0	4	0	4	0
OTU 128	33	7	6	16	7	5	5	9	4	6	1	6	12	43	4	3	80	8	18	7	5	117	0	12	12	8	0	2	8	1	3	2	32	6	53	7	9	2	1	14	13	14	4	4	78	4	8	8	0	11
OTU 129	0	0	0	0	0	0	2	0	0	0	0	0	0	0	0	0	0	0	0	0	0	1	1	0	0	0	0	0	0	0	0	0	1	0	0	0	0	0	0	0	5	0	0	0	0	0	0	1	0	0
OTU 130	4	1	0	0	0	0	0	2	2	0	1	0	0	0	0	3	0	0	0	0	0	3	0	0	0	0	0	0	0	0	1	0	0	86	0	2	0	3	0	0	0	0	2	2	0	0	0	0	0	2
OTU 131	0	2	0	3	0	2	1	7	2	18	12	0	0	0	6	0	0	21	0	7	1	0	1	0	0	1	0	1	2	0	25	10	0	20	0	3	0	0	0	2	0	31	4	0	1	11	0	0	0	14
OTU 132	0	0	8	2	0	0	0	0	1	0	0	1	0	1	0	0	0	0	0	0	0	0	1	0	0	0	0	2	5	0	4	0	0	0	2	0	2	0	0	0	0	0	2	0	0	0	1	1	0	0
OTU 133	0	3	0	0	0	0	0	0	0	0	2	1	0	0	0	0	0	0	0	0	0	0	0	0	3	0	0	0	0	0	0	0	0	0	0	1	0	1	0	0	1	0	0	0	0	0	1	0	0	0
OTU 134	1	0	0	0	5	0	1	1	0	7	0	0	1	0	1	0	1	0	0	2	0	0	3	0	0	2	0	1	0	1	0	0	0	0	1	7	0	0	1	0	1	0	1	0	2	0	0	0	0	1
OTU 135	1	0	2	0	0	0	3	0	0	1	0	1	0	1	0	0	2	0	1	0	0	2	2	1	0	2	0	2	0	0	1	1	1	3	3	2	3	1	0	0	0	2	2	3	0	1	0	4	0	1
OTU 136	1	0	0	0	2	0	0	0	1	0	0	0	1	0	3	0	0	0	0	0	3	2	0	3	1	2	6	24	0	3	0	0	0	1	1	0	6	0	0	0	0	4	0	0	0	1	0	1	1	0
OTU 137	0	0	0	0	1	0	0	0	2	0	0	0	0	1	0	0	0	0	0	1	1	0	70	6	4	0	0	0	0	0	0	0	0	0	0	0	0	0	0	0	0	1	0	0	0	0	0	0	0	0
OTU 138	0	0	0	0	0	2	0	0	0	0	0	14	0	0	0	0	0	1	0	0	0	0	0	0	0	0	0	0	2	2	1	0	1	2	0	0	0	0	1	0	0	3	77	0	0	1	0	0	1	1
OTU 139	5	17	4	10	1	3	1	1	5	1	5	1	13	0	4	0	0	2	2	2	0	0	1	0	67	39	1	4	2	7	93	1	0	0	0	0	4	0	4	0	1	2	2	0	3	0	3	1	2	5
OTU 140	4	1	0	0	4	4	4	4	6	13	0	2	6	1	2	3	1	7	8	4	5	6	18	0	2	7	8	8	15	6	1	148	1	1	5	11	4	6	5	2	9	1	2	56	1	3	4	0	3	1
OTU 141	0	2	0	0	0	0	0	0	0	2	0	0	0	0	0	0	0	0	0	0	0	0	0	0	0	0	0	0	0	0	0	0	0	0	0	0	0	0	0	0	0	0	2	1	0	0	0	0	0	0
OTU 142	0	0	0	0	0	0	0	0	0	0	0	0	0	0	0	0	0	0	0	0	0	0	0	1	0	0	0	0	0	0	0	31	0	0	0	0	0	0	0	0	1	0	0	0	0	0	0	0	0	0
OTU 143	0	0	0	0	0	0	0	0	3	0	0	0	0	3	0	0	0	0	1	0	0	0	0	0	0	1	1	2	1	1	0	0	0	0	0	0	0	0	2	0	0	0	0	0	0	0	0	0	1	0
OTU 144	0	0	0	0	0	0	0	0	0	0	1	0	5	1	0	0	0	0	3	0	0	1	0	0	6	0	2	1	0	0	3	1	0	0	0	0	0	0	0	0	0	0	0	3	1	0	0	0	1	0
OTU 145	3	5	1	52	5	0	1	3	1	5	1	1	0	0	0	4	1	0	0	0	0	0	4	0	0	14	0	28	0	0	0	0	0	7	1	0	1	1	0	0	1	1	0	1	0	4	3	0	1	30
OTU 146	1	5	0	1	1	0	0	0	0	7	29	0	6	2	34	1	0	0	1	0	2	0	3	1	3	9	0	4	0	0	0	27	0	0	0	0	2	3	0	4	1	1	1	0	0	0	0	1	0	25
OTU 147	0	0	0	0	0	0	0	0	0	0	1	1	0	0	0	0	1	0	1	0	4	0	0	0	0	0	0	0	0	0	1	1	1	0	0	1	1	1	0	0	0	0	0	2	1	2	0	0	0	0
OTU 148	1	0	3	0	3	1	0	0	2	9	6	3	0	0	5	0	1	0	11	0	1	2	8	4	0	1	0	8	2	0	5	7	0	0	0	5	1	0	1	16	4	0	1	5	1	5	3	3	1	4
OTU 149	2	0	3	0	0	0	0	0	0	0	0	1	1	0	0	0	0	4	4	2	1	0	18	1	6	0	0	0	0	0	0	0	1	1	0	0	3	0	0	0	0	2	2	0	0	0	0	0	0	3
OTU 150	1	0	0	0	0	0	0	1	0	0	0	0	2	0	0	0	0	4	0	0	0	0	0	0	0	1	0	0	1	1	0	0	0	1	1	0	0	0	0	2	2	0	0	0	1	0	0	0	1	0
OTU 151	2	0	0	2	0	0	2	0	0	0	0	0	0	0	0	1	0	0	4	0	0	1	2	0	0	0	0	0	1	0	2	0	0	0	0	0	0	0	1	1	0	1	0	1	0	0	1	0	0	2
OTU 152	4	4	0	3	1	0	0	0	1	0	1	0	0	1	0	0	1	0	1	0	1	0	1	0	27	4	1	1	1	0	1	0	0	0	4	0	0	3	0	0	2	2	5	8	0	0	4	5	1	5
OTU 153	0	1	3	0	0	1	0	0	0	0	1	3	0	0	0	0	0	1	0	0	0	0	0	0	0	0	0	0	0	0	1	0	0	4	0	0	0	4	0	0	0	1	0	0	0	0	0	0	0	0
OTU 154	0	0	0	0	0	0	0	0	0	0	0	0	0	0	0	0	0	0	0	0	0	0	0	0	0	1	0	0	0	0	0	0	0	0	0	0	0	0	0	0	3	0	0	0	0	0	1	1	0	0
OTU 155	0	0	3	0	1	0	0	19	0	0	0	1	0	0	0	0	0	3	0	3	0	0	0	0	1	0	1	2	0	3	1	0	0	0	0	0	1	0	0	0	2	0	0	0	1	0	2	0	0	0
OTU 156	0	99	0	2	1	2	0	3	4	5	0	1	2	0	0	4	4	1	2	4	1	6	2	0	1	1	2	1	4	1	1	0	1	0	7	2	2	4	2	6	9	9	3	0	0	1	1	3	4	1
OTU 157	1	4	0	0	0	0	0	0	0	0	0	0	0	0	0	0	0	1	0	0	1	0	0	0	0	7	0	0	0	1	1	0	0	0	0	0	0	0	0	0	0	0	0	0	0	0	1	1	1	2
OTU 158	0	0	0	0	0	0	0	0	0	0	0	0	0	0	0	0	0	0	0	0	0	0	0	0	0	0	0	0	5	0	0	0	0	0	0	0	0	0	0	0	0	0	0	0	0	0	1	0	1	0
OTU 159	2	0	1	0	1	26	0	0	0	1	1	0	0	0	0	4	0	0	0	0	0	1	2	0	0	0	0	0	1	0	0	4	0	0	0	1	0	0	0	0	0	54	0	0	0	0	3	1	0	0
OTU 160	1	4	14	13	5	0	1	3	1	2	0	2	6	9	1	1	2	0	2	2	5	6	2	0	2	8	5	1	5	2	1	2	2	3	0	7	0	1	5	1	3	4	0	1	4	1	11	4	0	1
OTU 161	2	0	25	3	10	4	0	0	3	0	1	4	0	5	0	0	0	0	6	0	0	0	2	2	4	0	1	0	4	0	0	0	0	0	0	1	3	2	0	0	2	0	1	1	0	0	4	3	0	1
OTU 162	2	0	1	2	0	1	4	2	0	0	0	0	1	1	2	0	0	0	0	3	4	0	0	1	0	1	0	0	8	0	2	0	0	0	0	0	1	0	0	2	4	0	1	1	1	0	5	2	0	0
OTU 163	0	0	0	0	0	0	0	0	0	0	0	0	6	0	0	0	0	0	0	0	0	0	0	0	0	0	0	0	0	0	0	0	0	0	0	0	0	0	0	0	0	0	0	0	0	0	0	1	0	0
OTU 164	0	0	0	0	0	0	0	0	0	0	0	0	0	0	0	2	0	0	2	0	0	0	0	0	0	0	0	0	0	0	0	0	1	0	0	1	0	0	0	0	0	0	0	0	1	0	0	0	0	0
OTU 165	0	6	0	0	0	2	0	1	67	0	1	0	4	4	2	1	1	0	1	1	0	3	0	0	0	0	0	0	0	0	0	1	1	0	0	0	1	0	0	0	0	0	1	1	0	2	0	0	0	3
OTU 166	1	0	0	0	0	0	0	4	0	0	0	0	0	0	0	0	0	0	0	3	0	0	0	0	0	0	3	0	0	2	0	0	0	0	0	0	0	0	1	0	0	0	0	0	0	0	0	0	2	0
OTU 167	2	1	0	1	0	0	0	2	2	1	0	0	0	4	136	5	0	0	2	0	0	0	1	0	0	2	0	1	0	0	0	0	0	0	2	3	0	0	0	0	0	0	0	2	0	0	0	2	0	1
OTU 168	0	0	2	1	2	0	0	4	3	1	1	0	0	0	0	3	3	0	0	5	2	0	0	0	3	2	0	0	0	0	1	1	1	0	2	0	2	0	0	0	0	1	0	0	3	1	0	0	0	0
OTU 169	0	0	0	0	0	0	0	0	0	0	0	0	0	0	0	0	0	0	1	0	0	0	0	0	0	0	0	0	0	0	0	0	0	0	0	6	0	0	0	0	0	0	0	0	0	0	0	0	0	0
OTU 170	0	0	0	0	0	0	0	0	0	0	0	0	0	0	0	0	0	0	0	0	0	0	1	0	0	0	0	0	0	0	2	0	0	0	0	0	0	0	0	0	0	0	0	0	0	0	1	0	0	0
OTU 171	0	0	0	0	0	0	0	2	0	0	3	0	1	0	0	0	0	0	9	1	0	1	0	4	1	0	0	0	0	1	0	0	0	1	0	0	4	2	0	0	9	0	1	0	0	1	2	0	3	2
OTU 172	3	0	0	0	0	0	1	1	0	0	0	0	0	0	0	0	0	0	1	0	0	0	2	0	0	0	0	0	2	0	0	0	0	0	0	0	0	0	0	0	0	0	0	0	0	1	5	0	0	0
OTU 173	2	0	0	0	0	0	0	6	0	0	1	0	0	0	2	3	3	0	2	1	0	0	0	0	0	0	0	0	0	2	2	1	0	0	1	0	0	0	1	0	0	2	0	0	0	0	0	0	0	0
OTU 174	0	0	0	1	1	0	1	0	1	0	0	1	0	0	0	3	2	3	3	0	10	2	0	2	0	0	1	4	0	5	1	0	0	0	0	0	3	0	1	4	1	1	0	0	0	0	1	0	23	0
OTU 175	3	0	0	0	0	0	3	0	0	0	3	0	5	0	0	0	0	0	0	0	1	2	0	0	0	0	2	1	2	3	0	25	0	2	0	1	1	0	3	0	0	1	0	1	1	1	0	1	1	0
OTU 176	8	2	1	0	5	3	1	3	0	4	0	0	1	11	4	0	5	4	8	1	2	9	0	0	0	0	1	2	0	2	4	0	2	5	0	3	4	1	9	1	1	2	0	1	4	1	1	0	2	0
OTU 177	1	1	0	1	0	0	2	0	4	1	1	0	0	1	0	0	0	0	4	0	6	3	0	0	2	0	0	2	1	2	34	1	2	1	0	0	0	1	0	2	4	1	2	0	0	0	3	1	0	5
OTU 178	5	0	0	0	0	0	6	19	0	0	1	0	2	0	1	0	1	0	0	4	0	0	0	0	0	3	3	0	0	5	0	0	0	0	0	0	0	0	1	6	1	0	0	0	0	0	1	0	2	0
OTU 179	66	0	4	0	24	0	0	0	1	1	0	3	2	1	0	1	1	0	0	0	1	0	0	0	2	0	0	0	1	2	1	0	1	0	1	0	0	3	0	0	0	0	1	0	0	0	0	3	1	0
OTU 180	15	4	1	9	4	1	1	8	9	0	0	1	0	1	2	9	0	1	2	3	13	0	8	2	4	9	0	4	11	0	10	1	0	3	0	10	0	0	0	4	16	0	2	9	1	2	20	6	0	1
OTU 181	9	2	1	0	0	0	5	2	5	0	0	1	0	0	0	2	1	4	1	1	1	2	1	0	5	1	0	0	0	0	1	0	0	1	2	0	1	25	0	0	44	0	1	3	0	1	4	6	0	5
OTU 182	0	0	0	0	0	0	0	0	0	0	0	1	0	0	0	0	0	0	0	0	0	0	0	1	0	0	0	0	0	0	0	0	0	0	0	0	0	0	0	0	0	0	0	0	0	0	0	0	0	0
OTU 183	0	11	1	0	1	5	1	0	9	0	0	1	0	1	0	0	0	8	4	0	4	1	2	1	0	0	9	0	3	38	0	1	0	1	0	1	0	0	27	0	2	1	0	0	0	0	1	0	12	1
OTU 184	5	0	0	0	1	0	0	0	0	0	0	0	4	0	0	7	2	4	1	1	1	5	0	2	0	0	0	0	0	1	0	0	0	1	0	0	1	0	0	1	1	0	4	2	0	0	0	3	0	1
OTU 185	2	0	0	4	7	0	0	4	1	0	1	0	1	0	4	7	0	2	0	3	4	1	1	0	0	1	4	3	1	4	1	2	0	1	0	1	3	1	0	2	2	2	0	0	2	0	4	4	2	1
OTU 186	0	0	6	0	0	0	0	1	0	4	0	0	0	0	0	0	1	0	1	0	0	0	0	0	1	0	2	0	2	0	0	0	0	1	0	0	2	3	0	0	0	0	0	0	4	0	0	1	1	2
OTU 187	0	5	4	1	6	1	0	1	1	2	4	1	1	2	2	12	4	1	5	3	1	7	3	1	1	5	0	12	2	0	1	4	3	2	2	1	3	0	0	1	0	0	7	4	0	1	4	0	0	0
OTU 188	0	1	0	0	0	8	0	3	8	0	1	1	0	3	7	2	42	0	2	0	0	7	7	1	2	1	2	3	2	6	5	0	26	3	0	0	5	0	3	2	0	8	7	1	1	0	1	2	2	0
OTU 189	5	1	3	9	4	5	4	6	5	15	0	2	1	2	1	1	8	0	2	13	2	3	1	1	9	0	1	2	0	1	0	1	2	0	2	6	2	2	0	2	8	0	3	0	5	2	11	8	2	6
OTU 190	0	0	0	3	0	0	0	0	0	0	0	0	0	1	0	0	0	0	0	0	0	0	0	0	0	0	0	0	0	1	0	0	0	0	0	0	0	0	0	0	0	0	0	0	0	1	0	0	0	0
OTU 191	2	2	3	2	0	0	0	0	0	1	2	1	0	0	0	0	0	0	1	0	0	0	2	1	1	4	1	4	0	1	2	3	0	2	61	0	3	2	0	3	9	2	7	0	37	0	3	2	4	2
OTU 192	1	3	28	0	0	0	1	1	0	4	2	10	1	1	0	0	7	0	4	0	1	15	0	1	6	16	0	3	8	7	8	0	0	0	0	4	2	3	2	52	2	1	3	1	9	1	3	2	3	4
OTU 193	0	1	9	2	0	0	0	3	0	6	0	2	1	5	0	3	0	0	14	0	4	0	0	8	3	8	5	3	19	19	0	0	1	1	0	15	0	2	9	3	0	0	0	4	2	1	2	9	9	0
OTU 194	8	0	1	0	0	2	10	0	3	2	0	0	0	2	1	0	0	0	0	0	0	0	0	0	0	0	0	0	0	0	1	0	0	1	1	0	0	12	0	0	0	0	5	0	0	0	1	0	0	0
OTU 195	0	0	5	0	3	0	0	0	0	1	0	0	0	4	0	3	0	4	0	0	0	7	0	0	1	1	0	0	0	0	1	3	0	2	0	0	2	2	0	3	0	0	1	0	0	5	1	1	0	6
OTU 196	0	0	1	3	0	0	0	0	0	3	0	1	0	0	0	1	1	0	0	1	1	0	11	2	0	1	0	2	0	1	0	0	0	0	0	0	5	1	0	1	0	1	2	0	0	0	0	5	1	0
OTU 197	1	12	5	6	34	3	2	6	6	2	0	5	8	4	0	2	0	0	2	0	1	0	1	1	0	6	0	7	0	0	0	0	4	1	3	2	2	1	0	13	2	2	0	12	1	1	7	2	6	0
OTU 198	0	0	1	0	0	2	0	3	0	4	0	1	0	0	0	24	0	0	1	0	0	0	0	0	0	0	0	0	0	0	0	1	0	3	0	0	0	0	0	0	1	0	0	4	1	0	0	0	0	0
OTU 199	2	1	0	0	0	0	0	0	0	0	0	0	2	0	1	0	0	0	0	1	0	0	0	1	6	0	0	0	0	1	0	1	0	0	0	30	1	1	0	0	0	0	0	0	0	0	2	1	0	0
OTU 200	0	0	0	3	2	1	1	1	0	0	0	1	0	0	0	0	0	0	0	1	0	0	0	1	1	1	0	2	0	0	0	0	0	0	0	1	1	0	0	0	0	0	0	0	1	0	1	8	0	0
