	Host 1	Host 2	Host 3	Host 4	Host 5	Host 6	Host 7	Host 8	Host 9	Host 10	Host 11	Host 12	Host 13	Host 14	Host 15	Host 16	Host 17	Host 18	Host 19	Host 20	Host 21	Host 22	Host 23	Host 24	Host 25	Host 26	Host 27	Host 28	Host 29	Host 30	Host 31	Host 32	Host 33	Host 34	Host 35	Host 36	Host 37	Host 38	Host 39	Host 40	Host 41	Host 42	Host 43	Host 44	Host 45	Host 46	Host 47	Host 48	Host 49	Host 50	
OTU 1	0	2	6	0	0	5	2	5	3	0	0	4	0	2	0	5	3	0	0	0	0	1	1	2	1	0	2	2	2	1	1	0	4	0	6	5	9	4	1	1	0	6	0	0	1	2	0	1	1	0
OTU 2	0	3	0	0	0	0	0	1	0	0	1	1	0	0	2	0	0	2	1	0	3	0	0	0	0	1	0	1	0	0	3	0	1	0	0	2	0	0	0	3	0	0	4	0	0	0	0	0	0	0
OTU 3	0	0	6	0	0	0	0	0	1	3	0	15	0	0	0	1	2	0	0	6	0	0	0	0	2	0	0	0	0	2	0	0	0	0	0	0	0	0	0	0	0	0	0	0	0	2	0	0	0	0
OTU 4	0	0	0	0	0	0	0	0	0	0	0	0	0	0	0	0	0	0	0	0	0	0	0	0	0	0	0	0	0	0	0	0	0	0	0	0	0	0	0	0	0	0	0	0	0	0	0	0	0	0
OTU 5	1	0	1	1	1	47	18	20	0	10	4	40	4	8	30	17	26	0	2	10	3	2	0	16	9	2	1	0	14	20	16	7	1	11	0	0	7	14	0	12	9	0	4	2	9	0	13	0	19	3
OTU 6	1	0	1	3	1	0	1	0	0	1	1	3	0	0	0	0	0	0	0	0	1	2	2	0	0	0	0	0	0	4	3	5	0	1	0	1	0	1	0	2	0	1	21	0	0	1	0	0	0	0
OTU 7	2	0	10	0	5	2	3	3	7	1	9	1	0	74	2	8	2	3	0	0	3	1	2	5	3	13	3	5	140	3	14	1	5	3	4	2	1	2	3	6	0	0	5	1	5	25	0	9	2	1
OTU 8	0	0	1	3	0	1	1	0	3	0	4	1	1	0	4	0	5	0	3	0	2	7	4	2	3	0	40	8	0	1	49	12	3	0	2	2	2	1	0	5	3	3	0	0	1	5	1	13	0	7
OTU 9	0	0	6	0	0	0	0	0	0	1	1	2	0	0	0	0	0	0	0	2	0	3	1	0	0	2	2	1	0	0	0	3	0	0	0	6	2	0	3	5	0	0	0	2	0	20	0	1	0	0
OTU 10	0	0	1	0	0	0	0	1	0	0	0	0	0	0	0	0	0	0	0	0	0	0	0	0	0	43	0	5	3	0	0	0	0	0	0	16	0	0	0	0	1	0	0	0	0	0	5	0	0	2
OTU 11	5	3	1	1	0	2	2	1	0	1	1	13	0	0	1	0	0	13	1	4	0	1	7	0	1	0	1	0	1	1	2	1	2	0	6	0	0	0	0	3	3	2	0	0	8	3	0	9	2	0
OTU 12	5	2	2	0	1	1	0	7	2	0	0	0	1	0	2	2	2	10	6	1	2	1	0	1	0	0	0	0	1	1	2	0	3	0	2	0	1	0	0	0	4	1	0	0	2	5	7	1	1	1
OTU 13	0	0	0	0	0	0	0	0	0	0	0	0	0	0	0	0	0	1	0	0	0	0	0	0	0	0	0	1	0	0	0	0	0	0	0	0	0	0	0	0	0	0	1	0	0	0	0	0	0	0
OTU 14	0	0	0	0	1	1	0	0	2	0	1	4	0	0	1	1	0	0	0	1	0	0	0	0	0	1	0	2	0	0	0	0	1	0	1	3	0	0	0	0	0	0	0	0	1	0	0	0	0	0
OTU 15	0	0	0	0	0	0	0	0	0	0	0	0	0	0	0	0	0	0	0	10	0	0	0	0	0	0	0	0	0	0	0	0	0	0	0	0	0	0	0	0	0	0	0	0	0	0	0	1	0	0
OTU 16	0	0	0	0	0	0	0	0	0	0	0	0	0	0	0	0	0	0	0	0	0	0	0	0	0	0	0	0	0	0	0	0	0	0	0	0	0	0	0	2	0	0	0	0	0	0	0	0	1	0
OTU 17	3	0	0	0	0	4	0	0	0	0	0	0	1	0	0	0	2	0	1	3	0	2	0	12	3	0	1	4	0	0	0	3	6	0	16	0	11	0	0	1	2	0	0	7	10	0	1	0	0	0
OTU 18	4	4	0	8	10	2	0	1	4	0	0	0	0	0	0	0	1	1	0	1	0	5	1	0	2	0	1	2	1	2	0	1	1	0	1	0	2	0	4	1	3	1	2	0	4	4	3	4	0	23
OTU 19	0	0	0	0	0	2	0	0	0	0	0	0	0	0	0	0	0	0	0	0	0	0	1	0	0	0	0	0	0	0	0	0	0	0	0	0	0	0	0	0	0	0	0	0	0	0	0	0	0	0
OTU 20	0	3	1	0	2	4	0	5	0	1	0	2	0	4	0	2	0	10	1	10	1	3	3	2	0	1	0	0	0	1	6	1	3	0	6	0	4	0	6	0	5	3	0	0	0	2	1	19	0	0
OTU 21	3	0	1	2	0	2	0	0	0	0	1	8	2	0	0	15	1	2	1	2	3	0	7	0	0	4	1	0	0	0	1	7	1	23	4	0	0	0	2	1	0	1	1	1	0	4	1	3	0	0
OTU 22	5	2	0	6	2	1	27	5	5	2	1	2	0	0	0	0	0	1	0	0	0	2	0	8	1	0	2	3	0	4	3	3	1	0	4	0	2	1	1	0	1	0	2	1	2	4	5	1	1	0
OTU 23	0	0	0	0	6	0	0	0	0	0	0	0	2	0	0	42	0	0	0	0	0	0	1	0	0	1	1	1	0	1	0	2	0	22	0	2	2	0	0	1	0	1	0	1	0	0	0	0	0	2
OTU 24	5	0	0	0	0	0	2	0	0	2	0	3	1	0	1	0	0	0	1	0	0	1	7	0	1	0	0	0	0	5	0	0	0	0	0	0	0	0	0	1	0	0	0	0	0	4	0	0	0	0
OTU 25	0	18	0	0	0	0	0	0	0	11	0	0	0	0	0	0	0	0	0	0	0	0	0	0	0	0	3	0	0	0	0	0	0	0	0	0	0	1	0	0	0	0	0	0	0	0	0	0	0	0
OTU 26	1	0	0	0	0	0	0	0	1	0	0	0	0	0	0	0	0	0	0	0	0	0	1	0	0	0	0	0	0	1	0	0	0	0	0	0	0	0	5	5	2	0	0	0	0	0	0	0	0	0
OTU 27	0	0	0	0	0	0	0	0	0	0	0	0	0	0	0	0	0	0	0	0	5	0	0	0	0	0	0	0	0	1	0	0	0	0	0	0	0	0	0	0	2	0	0	0	0	0	0	0	0	0
OTU 28	2	3	67	0	7	5	4	3	15	3	1	0	0	0	1	3	9	0	6	4	6	0	1	1	3	7	1	1	0	0	2	1	2	0	4	0	0	0	0	1	3	3	1	10	0	123	0	0	0	0
OTU 29	1	4	1	2	4	0	1	0	0	1	1	1	3	1	0	0	0	1	0	3	1	1	7	2	0	0	0	1	2	0	0	1	0	1	0	0	1	1	0	3	1	0	1	1	0	0	1	2	2	2
OTU 30	0	0	0	0	0	0	0	0	0	0	0	0	0	0	0	0	0	0	0	0	0	0	0	0	0	0	0	0	0	0	0	0	0	0	0	0	0	0	0	0	0	0	0	0	0	0	0	0	0	0
OTU 31	0	0	0	0	0	0	0	5	3	1	0	12	0	4	2	2	0	3	0	0	0	0	0	1	108	0	1	0	0	1	0	1	0	1	0	0	0	0	1	5	0	0	48	0	0	1	0	0	0	72
OTU 32	5	0	0	1	11	1	0	2	1	1	5	1	1	2	1	5	4	2	0	0	2	0	5	0	5	1	1	0	0	0	0	2	6	3	0	4	1	2	1	0	0	6	1	0	1	1	0	6	0	0
OTU 33	0	0	1	0	0	0	0	0	0	0	0	0	0	0	0	0	0	0	0	0	0	0	0	0	0	0	0	0	0	0	0	0	0	0	0	0	0	0	0	0	1	0	0	0	0	0	0	1	0	0
OTU 34	14	4	0	0	5	0	1	2	1	6	0	0	0	0	0	0	0	11	0	0	2	0	0	17	0	21	4	83	0	1	3	0	0	0	0	12	0	0	0	0	0	0	0	0	3	0	1	1	0	6
OTU 35	0	3	1	0	0	0	0	0	1	5	1	1	0	0	1	0	0	2	0	1	0	11	0	0	1	0	0	0	0	1	0	1	0	0	0	19	3	2	0	0	0	0	3	0	0	0	0	1	0	0
OTU 36	0	1	0	1	2	3	1	0	0	0	0	0	0	0	0	0	2	0	0	0	1	0	0	23	0	3	1	0	0	0	18	3	1	0	1	1	1	1	4	0	0	0	0	0	0	2	0	1	1	0
OTU 37	0	0	0	0	0	0	1	0	0	0	0	1	0	0	1	0	1	0	0	0	0	1	2	1	0	0	3	0	0	0	6	0	0	0	0	1	0	0	0	3	0	2	0	0	0	0	0	0	0	0
OTU 38	2	6	0	2	3	3	0	0	0	1	0	1	3	0	2	1	0	0	0	4	0	2	6	0	0	1	2	0	0	0	2	1	1	0	3	0	2	0	1	1	0	1	0	0	6	0	2	1	0	0
OTU 39	0	2	0	2	0	0	0	0	0	0	0	0	0	0	0	0	0	0	0	0	0	0	0	0	0	2	0	0	0	0	0	4	0	0	0	0	0	0	0	0	0	0	0	0	0	0	3	0	0	0
OTU 40	18	0	0	10	7	1	0	1	2	0	0	1	0	0	4	8	0	3	0	0	6	0	4	1	1	3	0	5	0	0	0	0	1	2	2	4	0	0	1	3	2	0	1	0	0	0	0	0	0	3
OTU 41	5	2	0	0	1	0	0	1	1	2	1	2	1	1	0	0	0	0	0	0	2	0	1	0	1	1	90	0	0	0	0	0	0	0	1	0	0	0	0	0	0	1	0	1	1	1	0	7	0	0
OTU 42	1	0	0	0	0	1	0	0	8	0	0	0	0	0	0	1	0	0	0	4	1	0	1	2	0	0	0	0	0	0	0	0	0	0	0	0	0	0	0	0	0	0	0	0	0	0	0	0	0	0
OTU 43	0	0	0	0	0	0	0	0	0	0	0	0	0	0	0	0	0	0	0	0	0	0	0	0	0	0	0	0	0	0	0	0	0	0	0	0	0	0	0	1	0	0	0	0	0	0	0	0	0	0
OTU 44	0	0	0	0	0	2	0	0	0	0	0	2	0	0	0	0	2	0	0	0	0	0	0	0	0	0	1	1	0	0	1	2	1	0	0	0	0	0	0	0	0	0	0	0	0	0	0	0	0	0
OTU 45	14	3	0	4	20	3	0	2	0	1	5	0	0	0	4	0	3	3	5	0	0	5	0	0	4	0	1	0	5	0	1	13	2	1	9	1	2	2	0	1	10	2	2	0	0	0	2	0	1	3
OTU 46	3	0	0	1	3	41	2	1	2	1	0	4	0	37	2	0	0	3	1	7	1	2	12	5	0	4	0	0	0	2	0	4	60	0	2	0	1	0	0	0	0	1	0	1	4	0	8	3	1	0
OTU 47	9	0	0	0	0	0	0	0	0	0	0	0	0	1	0	0	0	0	0	0	0	0	0	0	0	0	0	0	0	0	0	0	0	0	0	0	0	0	0	0	0	0	0	0	0	3	0	0	0	0
OTU 48	0	1	0	0	1	1	3	1	3	1	3	1	4	1	2	1	1	1	8	1	0	1	0	9	0	8	1	0	1	91	4	3	1	0	0	0	0	0	3	10	1	2	0	0	4	2	1	0	1	3
OTU 49	3	2	0	0	0	2	0	0	0	0	0	0	0	0	0	0	0	2	0	1	0	1	0	4	1	0	0	0	0	0	0	0	1	0	3	0	1	0	0	1	0	0	0	0	1	1	0	0	0	0
OTU 50	0	1	0	2	1	3	0	3	0	1	0	0	1	1	0	3	1	0	0	0	9	4	7	0	0	1	2	0	3	4	0	9	0	3	0	0	0	0	1	2	7	8	3	0	5	0	0	2	0	2
OTU 51	1	0	1	0	0	2	0	1	0	0	1	0	1	0	0	2	0	0	0	0	5	0	0	0	0	0	0	2	0	1	0	2	4	0	8	1	8	3	0	1	0	1	2	1	0	0	0	2	1	0
OTU 52	0	2	0	7	6	3	1	6	3	1	2	8	0	0	0	0	2	3	2	0	1	0	1	6	2	0	1	0	0	5	1	11	4	0	1	2	0	2	18	2	0	1	0	0	12	1	1	3	3	1
OTU 53	0	0	0	0	0	0	0	0	0	0	2	0	0	0	0	0	0	0	0	0	0	0	0	0	0	0	0	0	0	0	0	0	0	0	0	0	0	0	0	0	0	0	0	0	0	0	0	0	0	0
OTU 54	5	4	1	0	6	4	1	1	3	1	5	14	0	0	1	3	3	0	0	1	2	13	3	5	0	0	0	1	1	7	3	4	3	3	5	37	1	4	1	0	0	1	0	4	0	2	7	7	2	1
OTU 55	0	0	0	0	0	0	0	0	0	0	0	0	0	0	0	1	0	0	0	0	0	0	0	0	9	0	0	0	0	0	0	0	0	0	0	0	0	0	0	0	0	0	7	0	0	0	0	0	0	9
OTU 56	0	0	0	0	0	0	0	0	2	0	0	1	0	1	0	0	0	0	3	1	0	0	1	0	0	0	1	1	0	0	0	0	0	0	0	2	0	1	0	2	1	0	3	0	0	0	0	0	0	2
OTU 57	3	2	6	2	10	72	5	8	2	4	3	12	1	6	3	6	2	2	1	1	12	10	1	2	2	2	9	0	3	50	46	3	18	9	31	0	2	0	1	3	5	4	0	0	5	6	12	8	1	2
OTU 58	1	0	6	3	0	0	0	0	0	0	0	1	0	0	0	0	0	0	1	0	0	0	0	3	1	1	0	0	1	0	4	6	0	0	0	0	0	5	2	0	1	0	0	0	0	6	0	0	2	1
OTU 59	1	2	0	0	0	0	0	0	11	2	11	0	1	0	0	1	7	0	0	4	0	0	4	1	0	0	2	0	0	0	0	0	0	0	4	0	0	0	0	5	2	2	0	0	1	0	0	1	0	1
OTU 60	5	0	81	2	3	0	0	11	2	0	3	2	1	3	60	0	0	2	4	2	12	18	0	1	40	4	1	0	2	0	1	10	1	0	4	1	2	0	2	2	87	1	17	1	1	3	3	2	0	31
OTU 61	17	7	0	0	3	1	2	0	1	4	1	1	2	0	2	0	0	0	0	8	1	12	0	0	1	1	1	3	0	0	0	0	0	1	1	1	3	59	4	5	2	1	0	5	0	2	62	6	1	0
OTU 62	0	2	0	0	0	0	0	0	0	0	0	0	0	0	0	0	0	1	0	0	0	1	0	0	0	0	0	0	0	1	0	0	0	0	0	0	0	3	0	0	0	0	0	0	0	0	0	0	1	2
OTU 63	2	1	0	38	3	0	1	0	0	1	7	0	1	0	0	67	3	1	0	1	0	0	55	0	0	0	0	0	0	4	0	38	1	36	0	0	0	0	0	1	0	0	0	0	0	1	0	0	0	1
OTU 64	3	0	1	1	5	0	1	7	0	0	84	2	0	0	0	1	2	1	1	0	3	2	0	3	2	1	0	1	2	1	2	3	0	0	0	0	1	0	0	3	6	0	1	0	2	9	1	2	0	1
OTU 65	0	0	0	0	4	0	0	0	1	0	0	0	0	0	0	0	0	0	0	0	0	1	0	0	0	0	0	0	0	0	0	0	0	0	0	0	0	0	0	0	0	0	0	0	0	0	0	0	0	0
OTU 66	0	0	0	3	1	0	0	0	26	0	0	4	0	0	0	2	22	8	0	1	3	1	8	3	0	2	1	3	2	3	0	4	0	1	1	2	0	4	0	0	0	2	0	1	3	0	0	0	4	2
OTU 67	0	0	0	1	1	2	0	0	1	2	0	3	9	0	0	1	0	0	3	15	0	1	0	0	1	1	3	0	2	0	0	2	1	1	1	0	16	0	11	0	0	2	1	5	25	0	0	0	2	0
OTU 68	0	0	1	0	11	0	1	12	1	0	4	0	0	1	2	11	2	1	0	0	0	0	0	1	0	0	0	0	2	0	8	0	0	1	0	0	0	0	0	3	2	0	0	1	4	2	2	0	0	0
OTU 69	1	0	1	1	1	2	2	4	2	1	0	1	0	1	2	0	4	2	3	0	85	1	3	0	0	0	0	2	5	0	3	4	3	0	6	2	0	0	3	1	5	1	0	0	1	2	0	8	0	0
OTU 70	1	1	0	0	0	0	0	3	4	0	1	0	0	0	2	0	1	5	0	0	0	0	0	1	2	2	0	0	1	0	0	0	0	0	0	1	0	0	0	0	0	3	3	0	0	0	2	1	0	0
OTU 71	1	1	0	0	15	0	0	0	2	0	0	0	0	0	3	1	0	0	9	0	0	0	0	0	0	0	0	0	0	1	0	0	0	1	0	0	0	0	1	0	3	0	2	0	0	0	0	0	0	0
OTU 72	2	1	1	0	2	39	1	6	0	0	3	5	2	1	1	2	6	9	3	1	0	1	0	0	1	2	0	0	3	2	0	1	1	2	3	0	0	1	1	9	3	0	0	0	2	0	0	0	0	0
OTU 73	2	2	1	1	0	3	0	6	1	1	0	0	0	0	2	7	0	0	160	2	1	1	1	1	1	0	0	1	2	1	0	0	2	2	10	0	1	0	1	0	5	1	1	0	0	0	1	1	0	2
OTU 74	0	0	0	0	7	0	0	1	0	0	0	6	4	0	1	0	0	16	0	1	2	0	0	1	2	1	0	0	0	2	0	0	0	6	0	4	0	0	0	1	0	5	0	0	0	5	0	0	1	0
OTU 75	0	3	5	161	1	2	3	3	1	0	9	0	1	4	0	2	3	0	0	4	3	0	0	3	2	0	3	0	2	0	0	3	1	72	6	0	0	3	0	11	4	11	0	0	2	7	0	0	0	3
OTU 76	1	0	0	0	0	6	0	0	0	1	0	0	0	0	0	0	0	0	0	1	0	0	0	0	0	0	0	0	0	0	0	5	9	0	10	0	0	0	0	0	0	0	0	0	0	0	0	0	0	0
OTU 77	2	2	1	1	0	0	2	1	3	0	0	2	0	1	0	0	0	0	0	0	0	4	2	2	0	4	4	4	4	2	9	1	0	0	0	0	2	0	2	2	0	17	5	0	1	0	6	7	0	0
OTU 78	0	1	0	0	0	4	1	4	3	1	3	3	1	0	0	4	3	11	2	3	5	0	0	0	0	1	7	1	1	4	0	1	1	1	0	0	3	0	0	1	0	0	0	0	0	0	1	0	0	0
OTU 79	10	9	10	4	3	9	1	13	3	3	48	6	5	1	3	1	3	3	5	0	7	7	5	1	10	2	3	8	2	13	3	9	15	2	27	10	2	7	2	43	6	4	9	6	6	26	4	12	6	6
OTU 80	2	2	2	0	4	1	0	2	0	6	1	0	1	0	0	0	0	15	3	1	5	9	10	0	2	1	0	0	5	0	0	4	0	0	0	1	0	3	0	4	0	2	3	1	11	0	1	0	2	1
OTU 81	6	0	0	7	3	0	0	1	2	0	0	0	0	54	1	6	0	10	0	1	1	0	5	0	0	1	2	1	3	0	2	10	1	1	1	0	0	5	0	4	0	1	0	0	3	0	6	10	116	1
OTU 82	10	1	1	0	1	0	0	9	0	2	1	10	0	1	4	1	1	12	0	0	0	0	0	2	4	1	0	1	3	0	0	0	0	1	0	0	0	17	5	0	2	0	1	1	1	5	5	0	24	0
OTU 83	0	0	0	0	0	0	0	0	0	0	0	3	0	0	0	2	3	0	0	0	0	0	1	0	1	0	0	1	0	0	0	0	0	3	0	0	1	1	0	0	0	5	0	0	0	0	1	10	0	0
OTU 84	0	2	1	0	0	1	1	0	2	2	1	1	2	0	0	0	2	0	0	0	0	0	11	4	1	1	0	1	0	0	0	0	3	0	0	66	5	0	0	0	2	0	0	4	0	0	0	0	0	0
OTU 85	0	4	3	0	0	0	0	0	0	2	0	0	0	10	0	0	0	0	2	0	0	1	0	3	0	1	0	0	30	0	3	0	0	0	0	2	1	0	0	0	0	0	0	1	0	0	0	0	2	3
OTU 86	0	0	0	0	0	0	0	0	0	0	0	0	0	0	0	0	0	0	0	0	0	0	0	0	0	0	0	1	0	0	1	0	0	0	0	0	0	0	0	0	0	0	0	2	0	0	2	0	0	0
OTU 87	16	5	0	0	1	0	1	0	0	10	0	0	0	0	2	0	0	5	0	0	0	0	0	0	0	0	5	0	0	0	0	0	0	0	0	0	0	0	0	0	1	0	0	0	0	0	0	0	0	0
OTU 88	0	0	0	0	0	0	0	0	2	0	0	2	0	0	0	0	0	0	0	1	1	0	0	0	0	0	0	0	0	0	0	0	0	0	0	0	0	42	0	0	1	0	0	0	0	0	0	0	27	0
OTU 89	31	0	0	0	0	0	0	1	0	0	9	3	0	0	0	0	1	16	1	0	1	2	0	0	0	1	0	0	3	0	1	0	0	0	0	0	0	0	0	0	1	1	0	0	0	0	0	1	0	0
OTU 90	0	0	0	0	0	0	0	0	0	0	0	0	0	0	0	0	0	0	0	0	15	0	0	0	0	0	0	0	0	0	0	0	0	0	0	0	0	0	0	0	8	0	0	0	0	0	0	0	0	0
OTU 91	0	0	0	0	0	1	0	0	0	0	0	0	0	0	0	0	0	0	0	0	0	0	0	0	1	0	0	0	0	0	0	0	0	0	0	0	0	0	0	0	0	0	0	0	1	0	0	0	0	0
OTU 92	0	0	0	0	0	1	0	0	0	0	0	0	0	0	0	0	0	1	0	0	0	2	0	0	0	0	0	0	0	0	0	0	4	0	2	0	4	0	0	2	0	0	0	1	0	0	0	5	0	0
OTU 93	0	0	0	0	0	0	0	1	0	0	0	0	0	0	1	0	0	0	0	0	0	0	0	0	0	0	0	0	0	0	0	0	0	0	0	0	0	0	0	3	0	0	0	0	1	0	0	1	0	0
OTU 94	5	0	0	0	0	0	0	1	1	0	3	0	1	1	0	5	5	3	0	10	3	0	1	0	0	0	0	0	0	0	1	0	1	1	1	1	0	0	0	2	1	5	0	0	2	1	10	0	0	3
OTU 95	0	0	0	1	4	2	1	19	0	0	2	0	0	4	6	7	0	0	0	0	0	1	3	0	6	0	1	0	14	1	0	0	2	2	4	0	0	0	0	0	15	0	2	0	4	0	12	0	0	2
OTU 96	0	0	0	0	0	0	0	0	0	0	1	0	0	0	0	0	2	1	0	3	0	0	0	0	0	0	0	0	0	0	0	0	0	0	0	0	0	0	0	0	2	0	0	0	0	0	0	0	2	0
OTU 97	0	0	0	0	1	0	0	1	0	0	0	0	0	0	0	1	0	0	0	1	0	0	0	0	0	0	0	0	0	0	0	0	1	1	0	0	0	0	0	0	0	2	0	0	0	0	0	1	0	0
OTU 98	0	0	0	0	3	0	0	1	5	0	2	0	0	0	0	1	0	0	0	2	3	0	0	0	0	1	2	2	0	1	0	8	0	0	0	0	3	114	0	2	1	0	0	1	6	0	1	0	0	0
OTU 99	4	2	0	2	7	0	6	13	7	1	2	5	0	7	0	8	1	0	0	1	5	98	1	3	1	2	1	1	15	1	2	3	1	1	3	8	1	7	1	0	1	9	0	8	1	0	0	2	0	0
OTU 100	4	2	0	1	2	1	0	4	5	7	3	0	1	0	3	0	1	0	0	0	0	0	1	3	0	1	8	0	2	0	4	2	1	0	1	0	2	0	1	0	4	0	0	0	1	0	0	0	1	2
OTU 101	0	1	0	0	0	0	0	0	0	0	0	0	0	0	0	0	0	0	0	0	2	0	0	0	0	0	0	1	0	0	0	0	0	0	2	3	0	0	0	0	0	0	0	0	0	0	0	0	0	0
OTU 102	0	0	0	0	0	0	1	2	0	1	0	0	0	0	0	0	9	0	0	1	0	2	0	0	0	0	0	0	0	0	0	0	0	0	0	0	0	1	0	0	0	0	0	0	0	0	0	2	2	0
OTU 103	0	1	0	0	0	0	2	0	0	7	0	0	0	0	0	0	1	2	0	1	1	0	0	0	0	3	4	0	0	0	0	0	1	0	0	0	1	0	3	3	1	110	0	0	0	0	0	4	0	7
OTU 104	2	3	3	0	1	8	1	4	1	2	0	25	2	0	0	1	4	2	1	1	8	1	2	3	1	0	2	2	4	19	2	2	1	2	8	1	8	2	0	1	0	0	1	2	2	0	2	5	1	2
OTU 105	2	0	0	0	0	0	0	0	1	0	0	2	1	1	0	0	0	0	2	0	0	0	2	0	0	0	0	0	0	2	0	1	0	0	0	0	0	0	0	0	0	0	0	2	0	0	0	1	0	0
OTU 106	3	1	0	0	0	1	4	0	0	0	0	0	0	0	0	2	0	2	0	0	0	0	0	0	0	5	0	0	0	0	0	0	94	2	0	0	0	0	2	0	0	0	0	0	0	0	1	0	0	0
OTU 107	0	0	0	0	0	0	0	1	10	0	0	6	0	0	0	0	0	3	0	0	0	0	0	1	0	0	0	1	0	1	1	0	0	0	0	3	0	1	0	0	0	0	0	0	0	0	0	3	0	0
OTU 108	0	4	0	0	0	0	0	1	0	5	2	0	0	0	0	0	11	0	2	2	2	0	0	6	3	4	1	4	0	0	3	0	0	0	0	10	0	0	4	0	0	0	0	2	0	3	0	1	0	9
OTU 109	0	0	0	0	0	0	0	0	0	0	0	0	0	0	0	0	0	0	0	0	0	0	0	0	0	0	0	0	0	0	0	0	0	0	0	0	0	0	0	0	0	0	0	0	0	0	0	0	0	0
OTU 110	15	5	0	6	3	1	0	0	1	0	2	0	0	0	2	0	0	1	0	0	5	8	1	0	0	0	1	0	0	0	0	1	0	1	3	1	0	1	0	0	1	0	2	2	0	0	0	4	0	0
OTU 111	0	0	0	0	1	0	0	0	0	0	0	0	0	0	0	2	0	0	0	0	0	0	0	2	0	0	0	7	0	0	0	0	0	1	0	0	1	0	0	0	0	6	0	0	0	0	0	0	0	0
OTU 112	0	0	0	0	2	1	0	0	0	0	2	0	0	0	0	0	0	3	0	0	12	0	2	0	0	0	0	0	2	0	0	2	0	0	0	0	0	0	0	0	0	1	0	0	0	0	0	0	0	0
OTU 113	0	1	0	0	0	0	0	3	0	2	0	0	0	0	0	0	0	0	1	0	0	0	0	0	2	1	0	0	0	0	0	0	0	0	0	0	0	0	0	2	0	0	0	0	0	0	0	0	0	0
OTU 114	2	4	0	6	3	0	1	0	27	4	1	1	2	0	0	3	35	2	2	6	1	9	5	5	2	1	0	3	0	0	0	7	0	1	0	1	7	12	3	4	11	4	2	1	0	1	0	4	1	2
OTU 115	1	3	104	0	3	1	74	0	3	2	2	2	149	0	1	0	6	3	4	2	2	2	8	6	7	2	0	1	0	10	1	0	0	0	3	3	1	3	1	8	1	0	3	1	0	1	3	14	2	5
OTU 116	1	3	0	1	1	0	1	0	3	117	1	7	1	0	1	0	0	1	0	7	10	0	0	0	0	1	0	59	0	4	2	2	1	0	4	0	1	0	1	1	2	0	2	3	3	0	4	1	2	3
OTU 117	0	1	1	5	2	1	1	0	2	0	0	0	0	0	0	0	2	2	0	1	4	4	0	4	0	0	0	0	0	0	0	0	1	0	0	0	1	0	0	4	0	0	0	0	1	3	0	1	0	0
OTU 118	0	0	0	0	0	0	0	0	0	0	0	1	0	0	0	0	0	0	0	0	0	0	0	0	0	1	0	0	0	0	0	0	0	0	0	0	0	0	46	0	0	0	0	0	0	0	0	0	0	0
OTU 119	1	0	0	0	1	0	0	1	2	1	8	3	1	2	1	0	5	7	0	0	0	1	0	0	2	9	4	0	0	2	0	1	0	1	0	0	2	1	2	1	0	1	0	3	9	0	1	0	0	1
OTU 120	0	1	0	0	4	0	0	2	1	2	1	0	1	0	4	0	0	0	0	0	0	0	0	0	0	0	0	0	0	0	0	0	0	0	2	0	2	1	0	0	0	0	0	2	0	1	0	0	6	0
OTU 121	11	2	0	2	1	0	0	0	2	4	4	0	0	0	0	1	0	5	1	3	0	0	0	0	3	0	4	0	0	1	0	1	0	0	0	0	0	0	0	0	0	0	1	0	0	0	0	0	0	1
OTU 122	0	2	1	0	8	3	2	4	6	36	0	0	0	0	55	6	0	1	1	0	7	10	1	0	2	0	0	0	4	1	0	0	1	0	9	0	1	1	8	0	3	1	0	3	4	1	3	0	0	4
OTU 123	7	5	2	0	31	7	5	5	19	1	6	1	37	1	1	3	5	3	1	0	22	2	20	11	5	2	55	3	2	4	8	5	6	0	13	2	7	3	19	11	4	7	0	97	3	3	2	27	2	4
OTU 124	0	0	0	2	0	0	0	0	0	0	1	0	0	0	0	0	0	0	0	0	1	2	0	0	0	0	0	2	0	0	0	2	0	0	0	0	0	0	0	0	0	0	0	0	0	0	0	2	0	0
OTU 125	12	9	2	1	6	0	0	4	0	4	4	17	47	3	20	3	23	13	2	3	6	5	6	5	9	3	2	0	6	7	10	6	0	1	3	5	2	21	145	50	9	19	0	85	7	8	6	2	41	7
OTU 126	0	0	0	0	0	0	0	1	0	0	5	0	0	0	0	0	0	0	0	2	0	0	0	0	0	0	0	1	0	0	0	0	0	0	0	0	0	0	0	2	3	7	0	0	0	0	2	0	0	2
OTU 127	1	0	0	0	0	0	3	0	0	1	0	4	0	0	0	0	1	0	1	0	3	0	0	0	0	3	0	0	0	3	0	0	1	0	0	1	1	0	0	1	0	0	0	0	0	0	0	2	0	0
OTU 128	0	22	2	5	14	4	85	6	14	9	16	0	5	1	4	12	0	27	11	1	1	7	7	2	5	24	8	9	5	1	9	8	1	5	5	5	14	1	4	3	7	15	0	14	1	2	15	14	4	1
OTU 129	0	0	0	0	0	0	0	6	0	0	0	1	0	36	0	14	0	0	0	0	0	0	1	0	0	0	5	0	4	0	0	0	0	8	0	3	0	0	0	0	0	0	2	0	3	0	9	4	0	1
OTU 130	3	0	0	1	1	0	1	3	0	0	6	0	0	3	0	1	0	0	5	0	2	0	0	0	0	0	0	2	0	0	0	2	0	0	0	0	2	1	0	1	0	15	0	1	0	0	1	3	2	2
OTU 131	0	0	0	0	1	9	1	9	3	0	0	24	1	4	7	3	0	0	0	0	0	0	1	2	2	1	0	1	3	9	1	0	1	4	9	1	2	1	0	0	1	2	0	0	0	0	2	14	0	0
OTU 132	0	0	2	1	0	0	1	0	1	3	0	0	0	0	0	0	0	0	0	0	0	0	0	4	0	0	1	0	0	0	1	0	0	0	0	0	5	0	0	8	0	1	0	1	1	2	1	4	0	0
OTU 133	1	0	0	0	1	0	0	0	0	0	0	0	3	1	0	0	0	0	1	0	0	0	0	0	0	0	0	0	0	0	0	0	0	0	0	0	0	0	0	0	0	0	0	2	8	0	0	1	0	0
OTU 134	0	1	0	0	2	1	4	6	0	1	12	4	0	0	1	0	1	0	0	8	2	0	0	6	1	3	0	0	2	1	1	2	0	0	1	1	0	0	1	0	7	13	0	1	1	0	0	5	0	0
OTU 135	4	0	2	1	0	1	0	0	1	1	0	0	0	0	0	1	0	0	0	1	1	0	0	1	0	1	0	0	0	1	5	0	0	0	1	0	2	0	0	0	1	0	0	0	0	8	0	0	0	0
OTU 136	0	0	0	0	0	3	1	0	0	0	0	2	1	0	1	0	0	0	0	14	1	0	0	0	0	0	0	0	0	0	0	0	1	0	0	0	19	0	0	0	1	0	0	4	29	0	0	0	0	1
OTU 137	0	0	8	0	5	0	14	0	0	1	1	3	0	0	0	0	0	0	1	0	0	0	0	0	0	0	0	0	1	1	0	0	0	0	0	0	0	0	0	0	1	0	0	0	1	9	2	0	16	0
OTU 138	1	1	0	2	2	0	0	0	6	0	0	2	0	0	0	0	1	0	0	1	0	0	0	0	2	0	0	0	1	0	0	2	2	0	2	0	1	0	0	0	0	0	0	0	0	1	0	1	0	0
OTU 139	9	9	0	6	7	3	0	14	9	3	0	2	1	3	5	0	0	1	2	0	0	24	8	48	6	4	6	5	0	1	25	4	2	0	9	5	9	1	0	0	2	6	2	0	0	1	11	2	4	3
OTU 140	0	4	9	3	14	1	1	4	11	0	2	9	49	2	2	6	3	0	2	2	2	2	8	6	3	3	0	3	2	5	3	5	6	5	9	6	145	0	0	17	0	1	2	66	4	5	0	4	1	5
OTU 141	0	0	0	0	0	0	0	0	0	0	0	0	0	0	0	0	0	0	0	0	0	0	0	0	0	0	0	0	0	0	0	0	0	0	0	0	0	0	0	0	0	0	0	0	0	0	0	0	0	0
OTU 142	0	0	0	0	0	0	0	0	0	0	0	0	0	0	0	0	0	0	0	0	0	0	0	0	0	0	0	0	0	0	0	0	0	0	0	0	0	0	0	0	0	0	0	3	0	0	0	0	0	0
OTU 143	0	0	0	1	0	0	0	0	0	0	5	1	0	0	1	0	2	1	0	0	0	0	1	0	0	1	1	0	0	0	0	0	0	0	0	0	0	0	0	0	0	0	0	0	1	0	0	0	0	0
OTU 144	9	0	0	0	0	0	0	2	0	0	0	0	0	0	0	0	1	1	0	0	0	0	0	0	0	0	0	0	1	0	0	0	0	0	0	0	0	0	0	0	0	0	0	0	1	0	0	0	0	0
OTU 145	3	49	1	0	1	0	1	0	0	14	1	4	14	0	2	0	4	40	2	1	1	4	1	2	0	0	20	3	0	0	0	0	1	1	0	1	0	2	0	1	3	0	3	2	3	0	0	11	57	0
OTU 146	5	1	3	0	0	0	5	5	11	3	0	0	0	1	0	4	0	0	4	0	0	3	3	2	3	115	0	78	6	36	0	1	0	2	0	63	0	0	3	2	1	0	2	0	4	2	5	2	2	1
OTU 147	0	0	0	1	0	0	0	1	0	0	1	0	0	0	2	0	0	0	3	1	1	0	0	0	0	0	0	0	0	1	0	1	0	0	0	0	0	1	0	0	0	0	0	0	0	0	0	0	1	0
OTU 148	0	0	0	0	5	0	0	5	0	0	1	0	1	1	0	1	1	1	0	0	3	0	4	0	0	0	0	0	4	0	0	0	0	110	0	2	0	0	1	1	0	2	0	0	0	0	55	11	0	0
OTU 149	1	0	0	0	1	0	0	0	0	0	0	2	0	0	0	0	0	1	0	0	2	0	0	4	0	0	0	2	0	1	0	0	0	0	0	0	0	1	0	1	0	0	0	0	1	2	2	2	0	0
OTU 150	0	0	0	0	2	0	0	0	0	0	1	1	0	0	0	0	0	0	1	1	0	17	0	15	0	0	0	0	0	0	0	0	0	0	0	0	4	1	3	0	0	6	0	1	0	0	0	0	1	0
OTU 151	0	0	0	4	4	0	0	0	0	0	1	4	0	0	0	0	1	0	0	4	0	0	0	0	1	1	3	2	0	3	5	0	1	0	0	0	0	1	4	1	0	0	0	0	1	0	2	0	0	0
OTU 152	1	0	0	0	2	0	40	12	1	0	1	0	0	3	1	6	1	5	2	1	0	0	0	2	4	0	0	1	11	0	0	0	0	5	2	1	0	1	1	10	6	2	6	0	0	3	0	0	0	3
OTU 153	0	0	0	0	0	0	0	0	0	0	1	0	0	0	0	0	0	0	0	0	0	0	0	0	0	0	0	0	0	0	0	0	0	0	0	0	0	0	0	1	0	0	0	0	1	0	0	0	0	0
OTU 154	0	0	0	0	0	0	0	0	0	0	0	0	0	0	1	0	0	0	0	0	0	0	0	0	0	0	0	0	1	0	2	0	0	0	0	0	0	0	0	1	2	0	0	0	1	0	0	0	0	0
OTU 155	0	0	1	31	0	0	1	4	0	0	1	1	0	0	0	0	0	0	0	0	0	0	2	0	0	0	0	0	0	0	0	54	1	0	0	0	0	0	5	2	1	0	0	0	0	3	1	0	0	0
OTU 156	0	0	0	0	1	2	1	0	1	0	2	1	0	2	0	2	7	2	1	125	0	0	2	0	1	0	1	0	0	0	6	0	0	0	0	0	1	0	0	15	0	0	3	0	1	0	11	4	1	0
OTU 157	0	0	0	0	1	0	0	0	0	0	1	0	6	0	0	0	0	10	0	2	0	0	0	0	0	1	0	0	1	0	0	0	0	0	0	0	1	0	1	0	1	0	70	0	0	0	0	7	0	0
OTU 158	0	0	0	0	0	0	0	0	0	0	0	0	0	0	0	0	2	1	0	0	0	0	0	0	0	0	0	0	0	0	0	0	0	0	0	0	0	0	0	0	1	0	0	0	0	0	0	0	0	0
OTU 159	2	1	1	0	1	0	0	0	0	0	2	0	1	0	4	0	0	0	0	0	5	1	17	4	11	1	1	0	0	0	0	0	0	0	2	4	0	0	0	0	4	1	6	0	0	0	5	0	0	0
OTU 160	6	7	8	4	2	5	0	3	16	0	2	0	3	1	4	2	2	11	4	4	0	4	1	0	6	2	6	1	2	1	0	7	3	2	3	1	1	0	0	0	7	1	1	1	7	17	4	2	0	4
OTU 161	0	5	1	0	5	1	0	0	4	1	0	10	0	0	0	1	1	0	3	1	8	0	2	1	1	1	2	0	0	9	0	1	0	0	2	1	1	0	0	0	0	0	0	1	0	3	1	2	0	2
OTU 162	1	17	1	0	0	0	0	3	0	12	5	2	0	0	79	1	0	0	3	0	0	1	7	0	4	1	5	3	0	2	0	0	1	0	0	0	0	0	0	7	2	2	4	0	0	2	0	0	5	1
OTU 163	0	0	0	0	0	0	0	0	0	0	0	0	0	0	0	0	0	0	0	0	0	0	0	0	0	0	0	0	0	0	0	0	0	0	0	0	0	0	0	0	0	0	0	0	0	0	0	0	0	0
OTU 164	0	0	0	0	0	0	0	0	0	0	0	0	0	0	3	0	0	0	0	0	0	0	0	0	0	0	0	0	0	0	0	0	0	0	0	0	0	0	0	0	0	0	0	1	0	0	0	0	0	0
OTU 165	0	1	0	0	0	0	0	0	1	0	1	0	0	0	0	0	0	0	0	0	1	0	1	0	0	0	0	1	0	0	0	0	0	0	0	0	0	0	2	0	1	0	0	0	0	0	0	0	0	0
OTU 166	0	0	0	0	2	0	0	0	0	0	0	0	0	0	0	0	2	0	0	0	0	0	0	0	0	0	0	0	0	0	0	0	0	0	0	0	0	0	0	0	0	0	0	0	0	0	0	0	0	0
OTU 167	2	0	4	0	1	0	0	5	1	0	0	0	0	2	0	2	0	0	0	0	2	1	0	0	4	0	0	8	5	0	0	1	0	0	0	0	1	0	0	1	5	0	4	0	0	5	11	1	0	0
OTU 168	0	0	0	6	2	0	0	1	0	0	0	0	0	0	0	0	1	3	0	0	0	0	0	1	3	1	3	2	1	0	0	0	0	0	1	0	1	1	0	0	0	1	1	0	0	1	2	5	1	0
OTU 169	0	0	0	0	0	0	0	0	0	0	0	0	0	0	0	0	0	0	0	0	0	0	0	1	0	0	0	0	0	0	0	0	0	0	0	4	0	1	0	1	0	0	0	0	0	0	0	0	0	0
OTU 170	0	0	0	0	0	0	0	0	0	0	0	1	0	0	0	0	0	0	0	0	0	0	0	0	0	0	0	0	0	0	0	0	0	0	0	0	0	0	0	0	0	0	0	0	0	0	0	1	0	0
OTU 171	0	0	0	0	0	30	0	0	0	0	5	1	0	0	0	0	0	1	0	0	1	2	0	0	0	1	0	0	1	3	0	1	19	0	52	0	0	1	0	1	0	0	0	0	0	0	0	0	0	0
OTU 172	0	0	0	0	1	0	0	0	0	0	0	0	1	0	0	0	0	0	0	0	1	0	0	0	0	0	1	0	0	0	0	0	0	0	0	0	0	0	0	0	0	0	0	0	0	0	1	0	0	0
OTU 173	0	0	0	1	0	0	0	0	7	1	0	2	0	0	0	0	2	0	1	1	0	0	0	0	0	5	0	0	0	0	0	0	1	0	0	14	0	0	0	0	1	7	1	0	0	0	0	0	0	1
OTU 174	5	1	0	0	8	0	0	1	0	1	3	2	0	0	0	8	1	0	0	0	2	6	11	2	2	0	1	0	6	2	1	7	1	1	3	0	1	2	0	9	5	0	0	1	0	0	0	1	3	1
OTU 175	0	3	0	0	0	0	0	1	0	2	0	0	0	0	0	0	3	0	0	0	4	0	0	1	0	0	0	0	1	0	0	0	0	0	0	1	0	3	1	0	0	1	0	0	0	2	0	0	0	0
OTU 176	1	1	1	1	4	0	0	0	0	0	0	0	0	1	1	2	8	3	0	4	0	0	8	63	1	2	0	2	1	0	59	7	0	1	0	4	0	0	0	7	2	0	2	0	0	0	3	1	0	3
OTU 177	4	1	0	0	0	3	0	2	3	0	0	0	0	0	3	0	8	6	0	1	0	4	2	0	0	2	0	3	0	0	0	0	9	0	4	0	0	0	0	0	0	0	2	2	4	1	0	0	0	1
OTU 178	1	0	1	1	0	1	0	0	0	0	0	0	0	0	0	1	4	0	1	0	0	0	0	0	0	1	0	0	1	0	0	1	2	0	2	0	0	0	1	2	1	0	0	0	0	0	1	2	0	0
OTU 179	0	0	1	1	0	0	0	12	6	0	1	0	0	4	1	5	6	0	0	0	0	0	1	0	4	2	1	3	3	0	0	3	0	3	0	0	0	0	0	0	2	0	0	1	1	0	0	1	1	0
OTU 180	6	1	4	1	16	0	11	9	13	0	7	10	1	0	5	6	20	0	12	29	13	9	8	10	0	4	0	1	2	0	3	6	1	1	0	7	20	2	0	6	9	2	3	4	14	8	2	1	2	8
OTU 181	0	0	1	0	0	0	0	1	0	0	2	0	0	0	0	1	0	2	0	0	1	0	0	2	0	0	1	0	2	1	0	0	2	0	0	0	1	0	0	0	0	5	0	0	0	0	0	0	1	3
OTU 182	0	0	0	0	0	0	0	0	0	0	0	0	1	0	0	0	0	0	0	0	0	1	0	1	0	0	0	0	0	0	0	0	0	0	0	0	0	0	1	0	0	0	1	0	0	0	0	1	0	0
OTU 183	3	2	0	0	2	0	0	0	0	0	0	3	0	1	0	15	0	0	2	1	1	4	1	1	12	0	0	0	0	0	1	0	24	7	0	0	0	0	0	0	1	0	3	2	0	0	3	0	1	0
OTU 184	0	0	0	0	1	0	0	0	1	0	0	1	0	1	0	0	0	0	0	0	1	2	0	0	0	0	0	1	0	0	0	0	0	0	0	0	2	0	0	0	0	1	0	0	1	0	0	1	0	1
OTU 185	0	1	1	4	0	2	0	7	0	2	0	0	0	0	0	0	4	0	4	1	0	1	0	0	4	0	0	1	4	0	3	4	2	0	0	2	0	3	0	0	4	0	0	2	0	1	1	15	1	75
OTU 186	0	0	0	0	8	0	2	0	0	0	1	0	1	3	8	5	0	0	1	0	0	0	0	0	11	0	0	0	1	0	0	0	0	2	0	0	0	0	0	1	26	0	7	0	0	0	1	0	0	7
OTU 187	1	76	0	0	1	0	16	3	1	29	2	0	1	0	1	4	2	3	6	6	0	0	1	1	0	15	30	12	3	1	6	1	0	3	0	8	2	0	5	4	2	0	4	0	9	2	1	4	2	2
OTU 188	2	0	3	3	0	1	1	1	27	12	8	2	0	0	2	1	0	2	0	4	1	2	9	0	1	0	0	2	1	2	5	5	0	1	2	1	0	0	0	2	5	1	0	0	1	3	0	2	0	3
OTU 189	0	2	0	1	2	0	1	2	5	0	2	9	2	0	7	4	2	2	45	1	5	0	13	0	2	5	0	0	0	1	0	1	2	2	4	2	0	0	1	1	0	2	0	0	0	0	5	4	0	2
OTU 190	0	2	0	1	0	2	0	0	0	0	0	0	0	0	0	1	0	9	0	0	0	1	0	0	0	0	0	0	3	0	2	0	0	0	1	0	0	0	0	0	1	0	0	0	0	0	0	0	0	0
OTU 191	3	0	0	5	0	0	1	0	2	2	3	0	0	0	1	0	1	1	2	3	2	1	4	2	0	0	2	0	0	2	0	7	0	1	0	2	0	3	1	0	0	8	2	0	3	1	0	1	1	0
OTU 192	7	2	0	0	1	0	1	21	3	0	0	1	2	7	3	1	2	5	0	6	3	1	2	3	16	3	1	2	11	1	0	2	1	1	1	2	3	2	1	2	10	7	11	5	0	0	8	0	4	9
OTU 193	0	1	0	1	0	0	0	2	1	0	1	0	2	0	0	1	38	1	0	0	4	2	5	1	0	2	2	5	0	0	0	1	3	1	0	0	4	0	2	0	0	2	1	0	3	1	1	0	0	0
OTU 194	2	0	0	0	0	3	0	2	1	0	0	0	0	1	2	2	1	0	6	0	0	0	0	0	0	0	0	0	6	3	0	0	2	1	1	3	0	1	0	0	2	0	83	1	97	0	1	2	0	0
OTU 195	1	0	1	2	0	0	11	0	0	0	0	0	0	0	0	0	0	0	9	1	10	4	2	0	1	1	0	0	0	0	0	1	1	0	2	1	0	6	0	1	1	0	0	0	1	1	1	1	0	0
OTU 196	0	1	1	0	0	0	0	3	4	0	0	0	3	0	0	1	0	0	0	0	0	0	0	5	0	7	0	2	2	3	3	6	0	1	1	0	3	0	31	0	0	0	1	1	2	0	5	2	0	1
OTU 197	7	14	0	3	5	5	3	3	5	2	4	4	1	83	0	4	16	7	7	2	3	2	5	1	1	1	2	0	0	1	1	3	13	3	23	2	0	2	4	7	2	6	1	5	0	0	6	7	1	2
OTU 198	0	0	0	1	5	0	0	0	1	0	1	0	0	0	0	0	4	2	0	0	0	0	0	0	0	0	0	0	0	5	0	0	0	0	0	0	2	0	0	0	2	0	0	3	0	0	0	1	0	3
OTU 199	0	1	0	0	0	0	0	3	1	3	2	1	0	0	1	0	0	0	0	1	0	3	13	0	10	0	3	0	1	0	0	0	0	1	0	0	0	0	0	0	0	5	3	0	1	0	0	2	0	0
OTU 200	3	0	0	0	0	4	2	0	0	0	3	0	0	0	1	1	0	0	1	2	0	0	1	0	0	0	0	0	0	1	0	1	5	0	4	1	5	2	0	4	4	2	1	1	1	0	1	1	0	0
