	Host 1	Host 2	Host 3	Host 4	Host 5	Host 6	Host 7	Host 8	Host 9	Host 10	Host 11	Host 12	Host 13	Host 14	Host 15	Host 16	Host 17	Host 18	Host 19	Host 20	Host 21	Host 22	Host 23	Host 24	Host 25	Host 26	Host 27	Host 28	Host 29	Host 30	Host 31	Host 32	Host 33	Host 34	Host 35	Host 36	Host 37	Host 38	Host 39	Host 40	Host 41	Host 42	Host 43	Host 44	Host 45	Host 46	Host 47	Host 48	Host 49	Host 50	
OTU 1	0	8	19	14	46	215	0	46	1	54	0	0	226	4	54	83	202	32	44	0	0	0	89	10	31	41	18	32	15	4	67	103	6	18	195	93	63	78	338	12	21	17	23	187	55	92	16	68	37	2
OTU 2	0	25	0	0	6	16	3	0	14	10	0	28	19	7	23	66	9	13	0	0	233	74	0	5	0	1	77	31	0	0	35	0	0	13	0	1	6	8	7	33	0	4	1	44	37	10	91	6	56	18
OTU 3	1	1	52	0	0	2	39	0	3	5	0	19	0	7	0	3	0	58	0	0	0	0	0	2	0	8	0	1	35	1	0	44	0	0	19	4	0	3	0	0	235	0	14	0	0	65	19	17	0	183
OTU 4	0	0	0	0	0	0	0	0	0	0	0	0	0	0	0	0	0	0	0	0	0	0	0	0	0	0	0	0	0	0	0	0	0	0	0	0	0	0	0	0	0	0	0	0	0	0	0	0	0	0
OTU 5	371	148	1021	1	161	225	109	4557	63	267	117	38	520	2	0	0	570	928	347	2	49	84	315	96	271	400	32	1337	10	397	195	162	126	529	109	117	146	506	543	45	3	894	612	276	560	707	0	199	186	36
OTU 6	6	12	1	10	15	0	151	2	5	110	10	0	10	20	31	1	2	7	0	2	0	34	13	16	15	2	0	4	16	0	22	27	188	20	15	35	65	2	1	1	2	17	44	48	6	1	3	0	86	34
OTU 7	2028	47	163	55	79	581	19	363	1827	33	478	96	626	548	109	37	749	30	57	72	37	17	740	2	18	27	68	34	63	119	51	1313	77	50	924	351	21	17	1163	124	140	51	18	104	20	14	47	25	733	20
OTU 8	25	144	49	25	47	72	133	21	22	85	68	419	32	12	96	297	14	12	14	194	2	162	8	34	16	7	103	107	82	18	46	476	103	1	20	4	91	16	46	32	122	43	0	67	23	15	12	219	62	133
OTU 9	12	15	173	2	16	5	72	3	4	0	13	41	20	20	6	0	0	0	31	0	17	0	0	34	4	0	57	1	15	0	4	1	1	249	77	70	5	3	7	0	0	1	4	30	0	0	25	5	11	0
OTU 10	103	82	0	1	6	49	1	5	2	0	30	12	34	2	120	9	1	55	0	1	37	54	0	20	2	45	8	30	0	2	3	32	32	1	1	4	73	22	3	14	14	53	0	3	4	9	14	0	3	3
OTU 11	7	12	3	40	13	25	60	33	47	103	34	0	51	151	79	128	30	1	12	139	14	203	40	28	8	6	54	34	80	848	17	84	11	24	163	53	32	1	148	86	22	35	0	33	1	106	71	54	1	4
OTU 12	126	50	36	4	25	11	13	1	18	45	77	126	1	14	5	35	10	37	164	119	12	62	2	22	43	18	12	4	6	35	32	4	11	27	2	6	36	21	9	134	217	2	14	88	47	126	1	76	47	57
OTU 13	0	10	0	0	5	0	12	0	0	0	0	0	1	0	0	0	17	0	5	0	0	0	0	0	5	3	0	0	2	5	0	10	0	0	0	0	24	0	0	0	0	0	1	0	0	0	1	0	0	0
OTU 14	0	10	0	0	0	0	2	0	0	15	13	11	145	3	35	0	0	9	62	121	1	33	0	57	13	4	0	6	6	2	54	0	139	23	0	1	26	30	4	1	125	21	35	0	2	47	0	1	2	106
OTU 15	0	0	0	0	0	7	0	0	1	0	1	0	0	0	1	0	0	0	0	0	0	11	0	1	0	0	0	0	0	0	0	13	0	0	0	0	2	1	3	0	0	1	1	0	0	0	0	0	0	9
OTU 16	0	0	0	0	0	0	0	0	0	0	0	0	0	0	0	0	0	0	0	0	4	0	0	0	0	0	0	0	0	0	0	0	0	0	0	0	0	0	0	4	2	0	4	0	0	0	0	0	0	0
OTU 17	22	3	0	4	1	0	17	4	0	0	0	3	1	55	21	16	4	2	2	0	27	38	25	5	3	0	1	21	43	1234	44	14	24	7	6	28	1	1	1	0	0	12	0	50	3	0	44	71	6	1
OTU 18	8	4	0	2	157	50	28	19	1232	23	24	12	30	7	13	128	1	26	126	23	318	41	1	44	17	407	17	5	85	6	4	2	53	4	10	16	50	2	31	50	33	5	31	30	26	13	1761	150	35	74
OTU 19	0	0	0	0	0	0	0	0	0	4	0	0	0	0	0	0	0	0	0	0	0	0	0	0	0	0	14	0	69	0	0	0	0	0	0	0	0	0	0	0	0	0	0	0	0	0	0	0	0	0
OTU 20	1	139	8	5	0	10	9	12	0	100	12	61	3	46	77	31	7	0	15	31	23	8	7	41	1	0	1	1	16	59	2	86	10	33	24	22	89	31	12	81	9	44	0	1	5	0	29	35	12	17
OTU 21	42	17	2	77	37	5	5	8	2	12	13	13	6	11	2	41	2	67	0	135	81	18	0	1	34	85	103	6	41	13	19	6	32	99	6	6	91	54	6	26	273	0	0	31	30	16	32	6	1	51
OTU 22	95	59	0	73	85	35	3	0	29	4	51	24	12	170	151	29	6	11	1	17	12	84	23	25	1	7	30	128	104	54	7	48	774	23	18	0	39	13	28	59	36	84	0	134	38	24	5	65	43	11
OTU 23	38	0	1	60	2	5	30	1	8	0	4	57	4	14	2	26	0	3	66	20	0	12	0	37	0	0	7	13	39	27	92	5	13	4	30	21	4	14	0	82	3	0	3	50	73	0	113	23	0	7
OTU 24	0	2	7	0	12	0	6	27	3	1	5	57	2	93	44	30	1	5	147	0	0	113	9	0	29	5	2	1	4	31	53	8	0	24	0	0	0	4	0	162	0	15	1094	13	6	14	7	6	34	0
OTU 25	0	0	0	0	0	0	0	0	0	0	0	0	0	0	0	14	0	1	0	0	0	0	0	1	0	0	0	0	0	0	0	0	0	0	0	2	0	0	0	0	0	0	0	0	0	0	0	26	0	0
OTU 26	1	0	1	0	0	0	0	0	0	3	0	1	0	0	0	0	1	2	0	4	1	11	0	0	1	1	4	0	2	28	10	0	7	7	0	0	11	0	0	0	11	0	0	0	0	15	0	0	1	47
OTU 27	0	0	0	0	0	0	0	0	0	0	1	1	0	0	0	0	0	32	90	0	0	0	0	0	19	6	0	0	0	0	0	0	0	0	0	0	0	1	0	0	0	0	1	0	0	0	0	0	0	0
OTU 28	6	18	56	12	137	7	275	1	25	56	11	26	13	24	7	173	26	4	45	2	3	25	9	69	0	9	63	51	9	168	92	12	67	14	10	7	106	61	7	78	47	2	57	178	33	48	26	45	10	6
OTU 29	3	0	33	36	70	33	26	31	656	0	11	72	92	14	720	42	38	28	88	26	79	49	54	35	64	0	109	21	221	58	87	41	18	32	168	126	156	34	82	47	133	365	12	75	64	164	44	163	13	1
OTU 30	0	0	0	0	0	0	0	0	0	0	10	0	0	0	0	1	0	0	0	0	0	2	0	0	0	0	0	10	0	0	0	0	0	6	0	0	0	0	0	0	0	0	0	0	2	0	0	0	0	0
OTU 31	0	0	32	18	14	8	0	1	0	217	0	3	2	0	0	37	7	1	3	9	4	0	4	53	0	0	2	26	1	3	0	9	7	42	1	4	60	23	0	285	4	0	1	1	0	2	0	1	12	0
OTU 32	36	147	1	17	5	76	98	23	32	64	29	27	82	73	53	70	68	111	601	27	14	354	34	15	65	68	16	296	71	34	17	37	30	34	36	5	65	45	264	48	103	23	35	120	94	20	127	911	201	46
OTU 33	2	0	0	17	0	4	0	0	1	0	1	0	0	40	0	0	0	9	58	0	0	0	0	0	3	6	0	1	0	0	11	0	0	0	0	0	0	0	0	0	0	0	11	0	0	0	0	0	0	0
OTU 34	34	95	28	8	35	6	26	1	0	1	21	96	5	461	5	363	0	60	1	62	86	79	8	17	40	78	56	26	5	28	14	26	5	13	5	3	20	10	3	21	88	2	16	97	39	6	2	8	90	122
OTU 35	24	4	17	39	42	0	12	7	13	13	21	9	5	7	3	0	8	0	10	2	43	87	40	1	0	1	30	0	0	71	19	158	1	19	6	3	11	27	1	5	52	1	23	7	43	42	23	1	60	18
OTU 36	75	0	47	12	2	11	97	8	97	11	6	0	20	2	25	160	4	22	13	8	115	97	6	23	43	6	3	5	13	5	37	13	15	14	3	4	116	12	33	26	14	10	24	41	0	55	10	56	16	13
OTU 37	1	0	0	0	0	0	141	0	0	0	4	5	1	2	0	10	16	0	3	0	0	0	0	0	0	0	1	0	0	4	0	0	7	1	0	3	0	0	0	0	0	0	5	0	0	14	2	0	11	1
OTU 38	64	48	48	8	19	0	51	1	5	24	74	6	1	116	42	30	1	234	535	6	83	149	4	55	18	130	56	14	0	14	1	18	4	0	33	0	87	16	0	5	100	17	8	49	5	1	29	20	267	125
OTU 39	0	0	60	0	25	0	0	0	54	27	5	0	0	0	0	0	0	5	7	0	0	0	0	0	19	0	15	63	0	0	12	19	0	0	17	11	0	4	2	53	1	0	0	0	3	1	2	33	3	5
OTU 40	30	179	0	45	2	351	3	272	13	8	12	224	247	10	2	115	242	22	42	31	100	57	307	11	6	1	9	3	98	46	59	3	38	84	278	162	97	12	474	24	60	1	21	1	8	30	5	37	26	17
OTU 41	1	172	7	520	1871	30	24	19	26	28	0	3	7	2	1	80	7	19	0	124	58	0	66	9	650	0	10	29	39	164	687	1	23	1172	26	5	10	31	120	0	90	0	444	71	24	16	115	10	59	191
OTU 42	4	0	2	0	1	0	5	0	7	5	7	0	0	2	194	0	0	4	1	0	0	0	0	6	0	4	0	0	118	0	17	5	14	17	22	8	0	0	0	1	2	103	2	5	0	0	5	30	0	0
OTU 43	0	0	0	0	0	0	0	0	0	0	3426	0	1	0	0	7	0	4	3	0	6	0	0	0	0	9	0	0	0	22	0	0	0	0	1	0	0	0	0	0	0	0	41	0	0	0	0	0	0	0
OTU 44	8	0	0	0	0	0	0	0	4	2	1	0	0	7	4	78	1	1	1	83	0	1	0	0	0	0	0	3	0	14	61	1	46	0	0	6	23	0	19	0	0	2	1	0	0	132	33	2	2	0
OTU 45	109	154	41	4	5	7	3	0	3	10	48	8	9	30	89	195	11	57	22	2859	130	3	11	26	10	25	1	9	11	0	5	8	1615	4	20	7	54	0	31	30	1	46	66	15	20	28	52	47	0	6
OTU 46	93	30	34	7	1	17	380	2	1	3	52	278	1	17	89	40	19	3	12	10	58	90	3	13	181	15	626	1	26	27	1	21	28	360	46	5	8	54	30	48	27	46	2	19	3	18	10	12	18	34
OTU 47	0	0	0	1	1	26	89	57	0	0	0	0	55	0	29	0	31	0	0	14	13	0	55	0	22	0	0	5	0	0	1	3	0	0	0	0	0	5	25	0	0	17	10	0	0	9	0	0	1	0
OTU 48	34	188	36	0	17	2	5	0	5	154	56	112	12	91	31	6	8	0	38	8	33	152	1	20	17	1	127	3	55	18	14	25	17	32	1904	1131	9	56	27	14	15	21	51	28	4	114	31	6	24	2
OTU 49	8	7	15	0	0	43	115	0	0	0	14	17	2	0	10	25	3	0	15	0	20	142	7	8	10	0	1	10	1884	0	12	106	0	18	2	1	0	0	3	0	68	8	3	5	0	0	0	51	2	1
OTU 50	22	62	15	20	34	3	3	57	0	65	29	0	113	1	105	32	75	11	115	45	315	142	187	41	1	7	6	22	6	19	17	53	44	0	45	12	106	0	107	18	28	51	51	137	23	18	2	9	120	1
OTU 51	3	39	3	56	0	94	0	12	1	3	3	1	29	2	242	10	5	40	5	17	9	18	64	64	93	4	24	27	56	0	71	13	17	23	8	7	142	73	86	0	78	114	23	8	39	115	47	52	7	24
OTU 52	97	69	38	14	70	0	29	1	113	57	119	42	23	143	6	36	0	68	9	67	62	88	17	23	49	44	48	109	123	3	49	129	26	49	35	47	29	17	18	54	48	6	939	55	37	40	231	67	57	0
OTU 53	0	0	0	0	0	0	0	0	0	0	0	0	0	0	0	44	0	0	0	0	0	0	0	0	2	0	0	0	0	0	0	0	0	0	0	3	0	0	0	0	0	0	0	0	0	0	6	0	0	0
OTU 54	48	2	25	59	56	22	33	14	13	17	12	78	7	245	115	149	36	87	52	127	583	114	44	30	156	47	2	22	127	137	77	180	26	39	46	23	74	40	43	5	91	57	2	81	83	48	62	63	21	1
OTU 55	0	0	0	0	0	0	0	0	0	0	0	0	0	0	0	0	0	0	0	0	0	0	0	0	0	0	0	0	0	0	0	0	0	0	0	0	0	0	0	0	0	0	0	0	0	0	0	0	0	0
OTU 56	0	0	7	0	106	375	2	0	0	4	22	1	3	2	11	5	1	10	13	61	63	19	1	8	0	8	0	1	11	0	2	2	1	8	23	7	1	24	3	0	9	3	47	53	48	0	0	0	16	8
OTU 57	41	111	47	43	53	15	55	28	37	20	27	55	71	122	464	48	50	236	14	109	229	93	99	77	88	129	87	61	154	46	74	68	5	40	134	42	204	110	93	36	29	217	213	8	11	34	109	63	72	6
OTU 58	2	38	60	2	13	0	3	0	20	18	15	80	34	55	55	14	1	2	5	2	5	118	19	10	1931	4	7	22	14	26	0	17	32	1	58	23	0	2	3	4	1	505	0	22	5	20	1	14	0	5
OTU 59	0	34	3	1	0	0	5	0	9	30	21	0	3	9	11	54	0	9	30	0	23	0	0	24	51	12	0	65	13	5	142	0	0	3	12	0	31	31	2	7	0	7	25	16	23	49	3	0	58	0
OTU 60	65	203	20	18	41	39	27	5	20	107	12	5	51	8	14	102	47	112	65	81	161	30	30	9	6	74	77	55	26	3	72	38	74	55	22	10	13	138	49	51	65	4	27	93	60	39	98	64	8	146
OTU 61	33	268	415	205	99	220	766	150	9	123	42	607	173	161	46	137	150	350	212	52	244	12	239	17	1	199	73	183	117	36	17	183	80	14	219	105	7	521	346	122	5	16	62	85	30	232	39	492	220	13
OTU 62	0	1	1	0	1	18	0	5	7	0	0	16	9	0	0	0	4	0	22	8	14	30	0	3	28	1	0	21	14	17	0	0	1	0	14	8	4	5	0	5	0	0	0	17	0	0	16	99	1	0
OTU 63	7	12	0	0	13	38	11	0	16	4	632	8	6	12	47	2	0	0	34	7	0	0	6	6	2	0	0	44	0	3	37	3	31	91	2	0	0	6	3	0	1	18	53	159	57	1	28	7	0	0
OTU 64	65	172	15	7	113	78	5	9	29	97	0	45	1	115	50	3	55	29	0	85	269	126	6	112	66	0	9	18	102	33	23	149	25	88	30	29	86	50	28	69	10	17	871	199	74	14	31	46	15	0
OTU 65	0	0	0	0	0	0	0	0	0	0	2	0	0	0	0	0	0	0	0	47	0	0	0	0	0	0	0	0	0	28	0	0	0	0	0	0	0	0	0	0	0	0	0	0	0	0	0	1	0	0
OTU 66	9	102	2	14	353	10	33	0	0	263	325	65	0	26	59	4	7	112	0	30	8	59	3	15	20	25	32	0	18	25	4	619	64	4	2	247	27	10	39	102	49	29	6	554	243	12	3	5	166	26
OTU 67	8	21	44	24	252	93	42	63	8	39	3	2	653	20	172	4	87	18	21	67	5	16	74	3	10	14	47	16	6	5	73	17	5	0	33	1	19	87	96	20	1	82	20	615	248	24	93	41	0	1766
OTU 68	1	0	0	0	23	6	45	9	0	4	4	0	1	0	9	3	5	0	0	1	0	25	2	0	16	0	37	159	4	0	0	0	43	0	19	6	1	5	48	0	0	6	0	0	12	16	0	82	1	0
OTU 69	65	7	4	37	0	2	24	585	0	5	0	122	10	208	5	290	1	75	3	16	110	67	1429	2	29	36	21	24	193	47	22	28	5	20	18	7	60	28	4	36	1	0	4	86	5	35	18	35	6	0
OTU 70	11	0	59	0	19	7	7	1	0	20	34	4	5	11	5	7	0	46	3	8	0	214	23	0	1	23	79	0	13	0	5	22	8	7	22	6	1	6	29	1	27	3	1	13	0	6	0	23	2	2
OTU 71	1	1	15	5	0	19	20	9	55	0	49	8	2	17	0	0	1	0	23	31	67	63	12	134	2	0	15	19	206	56	0	123	0	34	1	0	80	0	77	57	8	0	0	18	8	0	5	14	4	8
OTU 72	31	1	5	35	164	83	5	2	6	2	2	4	10	75	1	21	583	39	16	33	10	3	10	18	21	17	29	14	16	114	4	9	30	30	1750	1056	7	12	4	48	42	0	6	162	52	8	10	49	4	30
OTU 73	1215	31	11	2	17	1	22	29	19	6	0	101	0	6	0	17	11	16	5	11	91	22	44	21	1	5	10	30	11	13	0	1	7	20	10	5	41	7	17	1	59	0	35	25	1	16	15	5	18	36
OTU 74	20	3	113	200	29	40	238	45	16	30	31	8	25	13	25	25	66	83	31	67	65	103	25	1	340	49	49	132	15	157	125	13	12	339	3	10	1	50	30	3	13	12	146	62	27	13	53	284	26	14
OTU 75	179	119	8	34	65	5	4	7	0	62	5	36	24	122	3	35	34	20	57	49	141	8	15	20	4	19	77	2	5	81	9	31	1	16	22	4087	44	4	13	79	82	0	50	117	71	20	36	19	8	79
OTU 76	25	0	105	7	0	1	16	0	0	112	3	181	15	0	30	44	8	1	0	0	130	0	0	140	0	3	29	3	8	1	2	0	6	19	18	0	257	0	17	465	0	20	4	14	0	6	1	0	0	0
OTU 77	19	35	8	6	23	0	135	0	62	83	26	10	5	7	72	12	11	37	4	89	27	5	3	6	5	9	31	497	22	100	19	13	0	8	1	2	0	13	2	17	112	32	6	39	49	18	158	69	71	51
OTU 78	40	407	183	0	515	47	158	13	27	4	6	57	47	19	38	6	36	149	23	6	160	13	100	0	14	82	13	29	46	27	3	15	13	4	59	13	2	47	91	6	118	18	7	456	230	46	25	238	95	36
OTU 79	121	25	285	33	150	267	376	47	225	243	125	349	338	226	441	47	148	2477	143	85	169	90	94	142	45	1528	309	91	174	917	21	65	147	75	108	86	203	102	247	130	205	224	86	370	193	25	115	247	185	31
OTU 80	31	43	16	10	55	11	138	1	37	4	8	88	4	658	645	8	16	13	11	146	31	25	8	170	40	19	287	68	136	88	25	21	45	42	23	4	259	8	1	14	52	319	33	105	27	1	17	67	4	205
OTU 81	76	97	4	23	45	1	64	17	52	56	103	74	10	23	35	261	58	37	282	56	10	54	5	12	65	24	469	9	118	23	61	162	34	61	42	20	19	64	14	219	33	16	9	21	13	44	326	78	102	29
OTU 82	0	3	23	13	22	32	1	50	0	50	32	1	90	152	6	130	53	8	75	5	256	5	63	84	7	0	12	2	2	13	12	1	0	10	50	36	127	89	93	135	13	4	12	5	6	7	61	2	18	1045
OTU 83	1	0	2	1	0	14	0	0	0	0	0	0	0	59	38	92	8	1	4	0	24	0	0	1	10	0	34	0	0	2	0	0	0	0	0	0	2	0	2	7	0	15	0	0	0	2	35	0	0	0
OTU 84	0	61	2	0	0	10	49	16	116	107	115	10	34	9	88	5	26	12	0	72	15	1	8	0	15	0	6	2	23	16	20	84	62	11	26	2	17	11	4	1	56	39	2	27	11	19	14	12	38	44
OTU 85	0	14	0	0	13	8	27	0	0	0	0	34	0	2	0	1	0	0	68	9	5	0	0	0	0	0	27	4	0	0	5	13	0	0	0	0	7	0	0	0	18	0	0	0	0	21	0	0	79	11
OTU 86	0	0	1	0	0	0	0	0	0	0	0	0	0	0	0	0	0	7	8	15	0	0	0	0	0	8	1	0	0	0	120	0	0	0	0	0	0	0	5	0	0	0	48	0	0	0	0	0	0	0
OTU 87	0	1	3	7	130	0	1	0	0	41	0	0	9	3	19	60	1	0	669	1	0	0	1	0	0	0	0	0	12	0	2	2	0	19	50	50	0	0	7	0	32	12	25	108	20	0	3	0	3	0
OTU 88	0	10	3	0	0	4	0	1	0	0	0	1	0	47	16	0	7	4	6	1	0	0	0	0	4	1	0	41	0	2	43	2	5	8	0	0	0	11	39	0	1	7	36	0	2	0	0	0	0	1
OTU 89	1	2	2	0	0	4	2	14	0	327	33	1	3	18	1	20	11	0	0	27	11	0	0	0	5	8	31	0	38	1	0	102	55	4	0	0	1	18	29	1	101	1	11	24	1	0	18	2	3	21
OTU 90	0	60	0	0	19	1	21	3	0	3	0	4	0	15	0	0	18	0	42	45	8	124	16	0	0	0	0	7	11	4	1	2	0	0	0	0	0	282	0	132	0	0	0	0	1	1	0	0	0	0
OTU 91	0	0	38	6	0	0	7	1	0	0	0	0	0	0	0	0	0	5	0	0	0	13	3	0	18	1	0	3	84	0	2	0	0	0	0	8	0	0	0	10	0	0	0	0	0	0	0	0	0	0
OTU 92	14	0	10	1	29	4	9	6	2	3	0	77	0	2	19	0	4	4	0	2	15	2	10	34	0	0	5	127	0	74	22	0	0	0	0	6	47	0	11	20	0	7	0	0	0	0	0	11	0	2
OTU 93	0	2	5	0	0	21	0	0	0	0	8	30	30	28	0	20	6	0	0	1	0	40	0	5	0	0	0	1	34	0	0	0	0	0	10	4	0	0	6	0	0	0	3	1	0	0	0	0	0	0
OTU 94	17	86	99	53	94	3	429	12	147	29	16	27	58	8	254	164	1628	121	41	21	35	29	11	28	42	16	225	54	183	816	226	70	50	70	11	0	60	24	14	113	5	148	92	101	43	70	13	11	5	11
OTU 95	0	0	2	7	0	1	4	0	5	9	2	33	9	6	50	11	0	0	0	0	0	0	0	12	0	0	68	0	4	3	36	5	0	2	15	15	3	111	0	1	0	24	0	5	0	11	59	1	2	0
OTU 96	0	0	0	0	0	3	0	0	0	0	0	0	0	0	86	0	0	0	0	3	0	0	2	0	0	1	0	0	0	0	0	0	0	5	0	0	1	11	0	10	0	37	0	0	0	0	0	45	1	0
OTU 97	0	0	0	7	0	1	0	0	0	0	45	7	0	24	5	0	3	0	16	0	17	17	3	0	0	0	18	0	0	0	0	16	0	0	0	0	0	0	0	0	142	1	0	0	0	0	1	7	9	41
OTU 98	47	3	5	25	2	7	0	2	0	36	0	0	21	5	0	97	1	1	1	0	30	66	31	1	53	0	0	25	48	32	55	8	0	0	22	10	0	0	6	0	72	0	0	3	0	1	4	8	0	7
OTU 99	192	195	12	25	62	6	3	17	28	149	24	19	34	211	256	36	5	43	10	9	357	24	22	342	0	38	177	11	49	1	96	9	91	261	66	35	1026	57	67	921	135	127	18	65	9	28	20	149	18	52
OTU 100	40	20	11	41	28	28	57	21	38	21	6	29	0	5	18	184	11	86	2	15	1	5	33	627	41	28	0	8	104	1	43	24	122	25	13	0	1292	8	44	102	27	8	32	45	6	2	135	64	12	4
OTU 101	15	0	0	0	1	0	0	0	40	0	0	1	0	0	5	13	0	1	0	2	44	0	0	0	0	6	0	0	0	23	0	0	0	0	3	0	0	0	0	0	2	3	0	1	0	0	0	24	0	0
OTU 102	31	13	6	0	0	1	1	1	0	2	1	0	0	0	38	19	2	1	25	36	6	0	0	3	0	0	2	46	22	4	4	0	0	0	1	1	0	0	0	4	17	17	6	0	6	0	9	11	1	3
OTU 103	33	28	1	16	5	10	11	2	8	0	8	5	32	60	68	6	0	61	70	5	98	19	0	1991	40	13	84	53	1	8	26	7	11	23	8	7	0	7	19	43	3	45	57	0	3	32	14	7	1	4
OTU 104	122	25	57	17	5	61	98	27	107	168	39	77	83	100	42	54	38	77	56	22	102	49	20	27	22	50	12	113	132	69	0	100	28	18	30	14	6	4	67	16	1	20	112	3	23	92	62	25	15	7
OTU 105	22	1	0	3	0	5	6	0	77	0	8	0	0	8	0	0	0	4	0	14	0	0	0	10	0	0	0	0	6	0	28	0	0	0	2	0	2	0	4	4	0	0	0	0	1	46	4	0	7	0
OTU 106	13	6	1	0	1	0	0	1	16	8	0	23	0	0	0	4	0	0	1	1	25	0	0	0	0	0	5	0	0	4	0	5	6	5	0	0	0	0	0	0	0	0	2	0	3	4	7	3	0	0
OTU 107	11	1423	0	22	1	0	15	0	21	0	0	24	21	1	8	18	10	3	0	0	20	0	18	8	34	4	1	93	0	13	2	4	10	0	0	0	17	0	65	6	20	2	0	0	0	0	0	320	10	2
OTU 108	12	58	42	23	0	2	150	0	25	1	6	107	0	6	57	0	16	25	0	0	125	55	0	3	62	9	34	0	14	6	59	9	6	14	5	12	3	1	2	0	7	37	6	48	34	39	11	0	2	60
OTU 109	0	0	0	0	0	0	0	1	0	0	14	0	0	0	0	0	0	0	0	0	28	0	7	0	0	0	0	0	0	0	0	9	0	0	0	0	0	0	0	0	0	0	0	0	0	0	0	0	0	0
OTU 110	40	113	19	15	17	52	4	0	0	2	20	210	6	1	99	29	2	12	5	18	0	226	5	13	54	14	151	1	0	159	106	0	9	1	0	3	12	10	4	52	0	61	21	94	1863	0	7	32	4	0
OTU 111	10	0	0	0	45	0	3	0	0	5	0	0	2	16	1	0	0	0	72	0	1	5	0	0	0	0	0	1	3	0	2	0	0	47	14	0	11	0	0	2	12	0	0	0	0	3	0	0	367	3
OTU 112	0	47	40	7	94	8	60	0	0	1	34	7	13	172	82	132	18	0	7	14	25	0	26	0	1	4	90	25	0	22	0	11	23	8	4	2	2	0	18	2	99	48	20	69	25	4	20	1	9	70
OTU 113	0	8	7	0	0	0	3	0	0	0	0	15	0	0	0	32	2	0	0	0	0	28	0	0	7	2	0	0	0	0	0	0	0	10	2	2	0	0	2	0	14	0	0	5	0	8	0	0	0	0
OTU 114	108	21	53	1	30	54	35	22	51	11	65	7	69	48	25	249	62	37	28	45	137	76	38	3	29	17	48	93	10	0	29	138	11	22	32	12	29	50	65	64	184	12	67	120	699	150	9	90	38	83
OTU 115	40	228	138	35	52	34	142	3	87	99	92	48	49	69	33	278	54	17	224	147	35	140	7	154	51	18	46	87	65	234	52	47	65	74	16	5	134	34	59	149	8	20	47	3	13	40	236	163	23	1
OTU 116	7	225	8	2	11	851	47	208	106	27	24	27	825	128	38	44	583	23	346	9	49	14	570	0	1	4	52	7	5	6	11	130	20	14	584	271	54	388	1301	29	27	20	24	23	32	930	72	70	10	29
OTU 117	70	3	4	22	36	5	27	0	1	24	23	8	3	3	20	0	1	139	0	103	4	112	8	1	16	93	37	2	11	26	18	25	135	28	19	3	6	204	9	15	140	8	25	21	44	67	44	47	1	119
OTU 118	0	0	0	1	4	9	20	0	15	0	1	46	0	1	0	0	4	0	24	0	0	0	0	0	0	0	1	1	388	0	109	1	7	2	0	2	16	0	2	5	14	0	0	0	0	0	0	0	14	0
OTU 119	2	6	24	36	108	9	18	0	53	10	52	34	52	29	49	34	3	64	1173	3	19	18	4	15	44	53	25	73	10	5	156	20	40	31	28	85	49	6	46	100	169	21	61	176	136	0	5	4	23	111
OTU 120	2	44	28	28	0	1	24	4	0	0	28	3	9	5	3	7	0	20	25	17	18	0	13	2	3	0	6	14	85	1	1	17	1	79	2	7	0	0	1	12	0	2	0	31	12	0	0	12	13	65
OTU 121	15	0	7	0	27	1	5	0	12	5	2	8	0	1	149	65	0	4	2	31	184	29	12	0	55	5	57	50	218	15	67	1	46	81	20	32	1	19	0	2	15	75	1	80	51	92	75	2	24	4
OTU 122	114	6	11	85	0	62	7	4	1077	5	34	4	40	4	184	145	31	14	26	133	64	142	31	19	69	40	114	11	6	43	96	14	54	73	1	8	25	26	19	211	75	87	15	24	65	18	44	18	0	13
OTU 123	116	155	91	43	46	97	154	22	104	21	91	156	174	88	216	190	82	82	208	89	204	48	79	83	242	32	55	200	152	234	158	20	161	39	442	161	66	90	189	54	193	108	16	119	88	121	149	89	2880	127
OTU 124	3	6	1	1503	6	10	0	2	0	0	24	70	0	80	19	218	2	10	0	0	3	1	0	1	19	3	0	0	0	14	2	26	0	13	6	1	0	0	9	0	25	9	0	5	0	10	58	4	8	48
OTU 125	24	256	313	83	5	91	402	111	160	26	132	195	97	92	141	212	128	335	158	100	317	114	92	2539	115	148	152	124	65	228	41	73	48	116	226	192	54	44	265	75	74	72	192	51	44	105	38	203	50	30
OTU 126	0	0	0	0	12	9	0	0	0	0	0	0	0	0	0	0	0	0	0	0	0	0	12	0	7	1	0	0	0	0	7	23	0	0	0	0	0	0	8	90	11	0	3	1	2	5	0	0	0	23
OTU 127	9	69	15	0	69	4	37	0	4	44	0	3	2	43	119	8	0	11	34	74	0	0	8	4	0	5	188	76	90	33	9	16	0	3	4	0	0	34	16	0	23	64	3	52	28	4	1	273	76	16
OTU 128	61	57	11	344	1208	3699	79	39	57	610	104	1993	20	695	43	93	8	39	19	162	295	97	23	30	879	44	47	118	84	274	706	81	688	2582	2	18	78	116	21	238	181	21	848	295	125	444	33	245	25	104
OTU 129	0	0	0	0	0	79	14	11	0	22	0	0	22	0	0	4	23	8	1	0	0	0	1	22	4	2	0	0	9	0	37	0	0	2	121	27	11	0	14	119	0	0	0	0	0	0	0	7	91	0
OTU 130	2	7	1211	1	26	12	97	19	1	33	1	52	30	33	85	0	19	4	1	8	41	6	22	10	1	1	12	35	3	9	4	34	6	9	4	1	19	32	20	0	4	41	17	37	20	12	22	58	0	70
OTU 131	5	18	20	23	0	0	0	5	6	45	41	1	0	70	51	0	3	5	68	48	5	112	15	3	1	0	2	11	21	3	2138	98	38	2	0	1	0	8	21	43	104	24	1209	6	28	50	10	4	93	13
OTU 132	1	0	62	6	0	7	0	4	0	4	0	8	0	115	0	16	4	47	20	0	4	47	42	12	4	24	7	1840	0	29	10	0	0	24	0	0	3	0	9	37	3	0	0	6	16	21	12	5	0	0
OTU 133	287	15	0	4	0	0	0	0	3	0	21	0	0	44	0	0	0	14	4	0	1	107	0	90	0	29	1	0	0	0	2	10	0	0	0	0	44	0	10	0	1	0	0	5	0	30	1	0	0	0
OTU 134	23	36	12	0	38	8	0	1	21	5	0	49	50	270	93	0	17	64	25	1	14	86	31	20	2	20	9	3	57	1	33	3	12	8	0	9	1	4	32	15	57	45	0	56	26	0	133	2	32	0
OTU 135	40	15	32	2	18	85	38	71	0	78	13	17	40	6	44	6	81	112	29	49	37	8	90	40	20	33	1	32	12	19	22	0	15	12	23	41	25	3	213	220	161	27	6	16	1	7	7	67	25	227
OTU 136	2	68	33	25	2	0	2	0	12	52	34	35	20	23	1	2	4	13	46	405	1	30	0	0	29	16	5	138	38	36	0	1	195	0	0	0	0	2	1	1	599	0	3	5	1	0	0	138	60	205
OTU 137	8	8	23	1	22	11	0	5	8	0	145	0	0	115	0	5	3	0	0	0	49	31	1	11	0	0	0	43	2	0	0	30	17	12	78	64	0	0	10	12	6	0	0	9	0	14	1	15	7	2
OTU 138	0	8	0	0	30	0	0	1	0	18	8	7	0	0	0	66	0	0	11	8	100	13	1	0	24	0	52	6	0	9	27	7	4	1	0	0	0	3	1	0	94	0	16	83	25	65	0	24	0	2
OTU 139	50	124	252	11	50	1	205	33	30	47	17	58	27	18	61	9	22	36	0	27	204	96	2	13	32	18	2127	116	214	23	23	46	12	20	77	64	5	74	101	2239	13	30	31	2	2	382	17	106	3	2
OTU 140	257	150	59	13	64	24	58	65	15	160	315	100	40	51	112	80	75	277	61	19	195	58	44	15	176	122	48	197	98	23	139	623	93	104	37	13	100	83	34	45	25	51	13	74	67	11	38	457	26	38
OTU 141	0	0	0	0	0	0	0	0	0	0	0	0	0	0	34	0	0	0	0	0	0	0	0	0	0	0	1	0	0	0	0	0	0	0	0	0	0	0	0	0	0	28	0	7	0	0	0	0	0	0
OTU 142	0	0	1	0	0	0	0	0	0	0	0	0	0	2	0	1	1	0	27	0	42	0	0	0	0	0	0	2	1	0	7	20	0	0	0	0	0	0	1	0	0	0	0	0	0	0	0	0	0	0
OTU 143	27	1	0	1	2	0	52	8	0	17	6	11	1	0	12	14	0	13	0	7	8	5	0	0	0	6	0	0	11	52	0	13	0	0	4	0	2	0	2	13	20	5	0	0	0	0	1	7	13	0
OTU 144	0	2	13	1	2	0	2	0	0	52	8	0	4	4	0	4	0	0	135	0	8	0	0	6	0	0	2	14	0	2	0	0	3	0	1	0	9	2	1	0	0	0	4	0	2	0	0	75	0	1
OTU 145	11	7	47	68	34	128	209	244	37	6	21	44	209	29	8	2	301	580	73	1	20	122	353	42	75	252	23	10	257	94	0	8	1	30	135	49	52	61	568	79	15	6	1	23	16	34	7	20	56	0
OTU 146	3	6	123	190	0	15	65	14	20	622	6	22	16	49	0	9	36	44	42	10	93	3	0	10	159	11	1	89	87	80	127	2	0	217	39	31	20	18	76	6	5	0	83	1	0	8	4	46	14	8
OTU 147	17	0	20	1	13	0	11	0	3	12	11	27	0	41	2	18	4	6	1	3	2	4	0	9	0	8	16	149	11	102	20	1	2	0	3	31	2	0	7	11	0	0	2	6	37	22	2	293	43	15
OTU 148	7	141	1	0	7	1	0	3	10	15	19	51	4	1	0	2	0	33	40	4	42	140	2	52	14	12	1	16	22	30	20	49	126	60	64	1	107	975	0	51	61	0	7	5	3	1362	9	51	135	39
OTU 149	47	39	5	0	20	0	53	8	233	0	34	0	10	138	0	0	1	2	41	0	0	28	0	0	23	1	0	1	8	10	1	12	0	7	0	3	11	14	0	12	0	0	22	0	22	0	2	3	58	3
OTU 150	0	37	41	0	0	0	29	0	6	71	0	9	0	0	0	1	1	0	0	29	2	15	2	0	1	0	0	0	1	5	10	6	5	0	6	0	13	2	0	0	0	0	15	0	0	0	3	1	1	2
OTU 151	0	1	0	0	14	0	10	6	2	19	0	75	0	0	3	77	1	1	5	2	127	56	0	5	0	6	0	78	13	20	4	40	1	1	4	0	0	0	1	0	0	2	0	23	21	44	26	13	41	0
OTU 152	0	21	2	80	873	30	11	23	10	25	3	17	10	3	4	28	68	43	99	22	82	153	23	1	148	24	30	20	11	78	237	88	1	77	1	8	0	886	44	0	56	1	64	16	16	174	8	40	0	30
OTU 153	0	0	1	0	13	0	0	0	0	2	0	15	0	0	0	0	0	0	0	0	38	218	0	0	1	1	0	1	0	0	0	1	0	3	1	4	0	0	0	0	3	0	0	0	0	0	0	0	0	0
OTU 154	0	0	0	0	0	32	45	0	0	0	0	0	0	0	7	8	0	48	0	0	2	0	0	0	1	52	0	0	0	1	0	0	42	0	0	0	6	1	0	2	48	2	0	3	0	0	0	0	0	0
OTU 155	12	0	4	1	1	11	4	1	51	0	6	2	9	34	13	0	6	13	179	0	0	0	1	13	36	6	0	44	0	58	28	1	0	0	18	0	9	23	0	1	8	6	2	11	0	52	5	2	82	0
OTU 156	31	194	21	83	51	52	46	9	442	196	29	203	43	1104	38	1168	6	47	25	3	88	152	24	0	20	18	11	0	15	76	58	39	9	6	15	8	5	74	74	19	4	27	101	103	17	40	712	7	91	0
OTU 157	120	0	33	0	0	0	5	0	1	404	0	1	8	152	35	0	10	0	27	55	0	2	1	0	36	0	0	1	0	0	8	0	0	17	0	3	0	3	0	0	0	21	8	17	0	0	32	0	29	3
OTU 158	0	1	0	0	0	0	0	0	0	0	0	0	0	0	0	0	0	17	0	0	0	0	0	0	0	0	23	0	8	2	2	1	0	0	0	10	0	0	0	1	0	0	0	0	8	0	0	0	0	0
OTU 159	45	5	0	9	4	14	18	0	0	57	0	42	1	14	3	3	6	92	8	51	6	29	1	37	13	21	42	126	75	103	148	0	74	13	0	1	58	0	33	18	6	0	2	19	13	18	4	2	0	0
OTU 160	121	157	29	13	95	54	1458	212	32	575	3	83	18	22	56	318	5	132	93	34	23	26	39	80	77	88	1	15	31	31	46	43	3	19	28	5	29	40	20	67	38	20	77	47	41	76	60	21	164	55
OTU 161	2	32	1	2	36	16	100	0	24	116	360	39	12	4	234	0	32	2	0	836	225	0	33	26	20	25	458	10	40	3	0	1082	212	11	19	4	15	9	69	273	1209	114	20	202	105	30	0	4	36	498
OTU 162	46	18	35	12	1	0	72	51	40	3	37	8	43	1	6	1	8	178	130	0	15	24	17	20	63	79	122	0	6	9	2	60	6	39	60	16	4	12	12	8	0	5	15	2	18	44	33	6	58	34
OTU 163	0	0	0	0	0	21	0	0	0	0	2	7	0	0	0	0	6	0	124	1	62	5	0	0	0	0	0	0	0	0	0	0	0	0	0	0	0	0	7	0	0	0	0	0	0	0	0	0	0	0
OTU 164	0	0	0	0	0	0	0	0	0	0	1	0	0	0	0	0	0	0	0	0	0	48	0	0	0	0	0	0	60	0	1	0	0	0	0	0	0	0	0	0	0	0	0	0	0	0	0	0	0	1
OTU 165	58	79	1	2	82	0	0	0	11	0	137	0	0	8	1	8	0	66	6	101	131	661	1	0	9	21	0	1	0	3	0	199	184	0	28	16	7	2	0	12	152	0	4	112	7	0	9	48	11	109
OTU 166	7	37	5	0	0	0	0	0	0	0	0	0	0	0	0	0	0	0	0	0	0	20	0	0	0	0	0	0	21	11	0	65	7	0	0	2	0	0	0	0	0	0	0	0	0	0	0	0	0	0
OTU 167	27	55	63	0	4	0	25	1	0	2	15	7	0	80	4	1	5	38	3	0	68	0	4	2	0	888	16	1	18	0	37	4	40	2	20	0	9	1	63	60	26	5	4	3	8	93	12	28	0	10
OTU 168	3	244	6	1	16	18	38	1	55	9	3	24	3	37	14	147	13	6	21	0	19	71	0	14	114	1	0	239	25	2	15	13	39	8	1	4	6	13	9	16	7	11	0	14	2	0	101	169	106	8
OTU 169	4	0	0	0	0	0	0	0	0	0	0	0	0	0	0	0	1	0	0	0	0	0	0	4	0	0	0	0	0	0	0	0	40	0	0	0	6	2	0	0	0	0	0	0	0	0	0	0	0	0
OTU 170	0	0	0	0	0	0	0	0	0	0	0	0	0	0	0	0	1	0	0	14	0	0	0	0	1	0	0	0	16	0	0	0	30	0	0	0	0	0	0	0	47	0	7	0	0	13	0	0	0	64
OTU 171	2	61	0	0	252	3	7	1	4	1	73	55	1	10	4	51	2	77	19	280	11	0	0	5	4	16	5	19	141	0	35	0	60	26	1	3	1	0	0	0	291	3	37	997	528	5	0	13	25	225
OTU 172	0	0	0	0	0	0	2	0	0	0	9	5	0	0	11	41	0	0	0	0	0	0	0	0	1	0	0	1	3	0	7	89	2	0	0	0	0	0	0	5	10	10	0	0	0	0	32	6	0	0
OTU 173	1	1	0	96	0	0	0	1	39	6	0	2	11	69	0	12	11	13	0	17	6	85	0	2	1	31	1	14	38	0	1	69	7	16	0	4	0	1	22	0	86	0	2	0	0	0	13	11	23	1
OTU 174	8	142	0	2	8	8	320	7	0	336	0	28	20	7	73	39	38	19	0	0	22	71	60	1	15	20	7	0	0	16	1	90	1	0	0	0	31	2	50	1	17	41	2	3	8	2	161	32	0	4
OTU 175	126	33	21	79	50	0	2	0	0	2	3	61	20	0	2	92	0	9	7	3	11	0	2	0	32	13	7	59	0	0	6	5	46	655	2	0	0	10	26	3	0	0	0	99	102	5	4	162	9	23
OTU 176	211	2	937	24	38	113	208	1666	76	44	22	56	216	31	120	50	171	12	46	111	62	153	3099	33	9	9	101	8	1	39	10	127	133	4	21	6	43	40	199	5	67	46	17	12	6	333	91	38	62	43
OTU 177	3	33	19	0	35	4	22	0	25	26	67	68	21	12	32	3	11	32	93	12	118	20	5	22	5	36	3	5	91	0	91	0	1724	221	15	22	12	22	43	39	67	23	79	67	1372	21	20	58	2	2
OTU 178	75	7	3	4	14	0	17	8	0	42	3	1	6	1	11	115	0	0	8	14	3	0	26	134	12	0	33	31	0	0	2	14	15	0	0	0	101	0	14	11	0	5	3	26	6	8	0	0	3	5
OTU 179	118	0	5	19	7	0	0	1	2	0	23	23	0	2	83	32	17	0	32	0	0	150	3	1	3	0	23	0	55	5	48	18	0	5	1	2	31	0	2	89	3	51	34	1	0	23	6	48	102	0
OTU 180	170	92	29	38	33	63	143	32	27	59	99	189	118	148	121	162	47	91	116	100	95	291	7	16	104	3264	68	38	149	118	73	23	41	11	69	93	78	57	103	70	54	46	134	57	66	153	210	141	26	0
OTU 181	3	17	2	7	69	1	0	0	7	0	1	29	2918	137	10	16	12	0	2	68	89	30	0	36	6	0	140	4	6	13	119	119	3	60	0	5	53	17	6	4	14	6	12	55	43	1	6	47	1	15
OTU 182	0	0	20	0	4	0	4	2	0	0	0	3	0	0	0	10	0	0	0	32	0	0	0	0	0	0	3	21	0	0	0	0	44	0	36	25	0	0	0	0	0	0	0	4	0	0	0	11	0	0
OTU 183	1	0	2	17	9	15	21	38	0	24	64	88	30	126	2	1	55	6	4	0	118	42	60	2	84	0	4	0	54	1	616	15	0	27	35	12	3	0	49	9	0	1	353	1	0	1	16	1	31	8
OTU 184	18	13	65	0	1	86	4	30	2	4	39	75	95	1	82	12	64	6	1	3	12	205	108	5	1	0	4	0	27	5	11	162	1	0	16	9	0	5	72	0	0	47	4	14	10	77	39	0	0	21
OTU 185	1	5	35	0	74	4	24	6	21	31	21	30	1	1	139	69	24	122	71	0	51	23	47	3	16	69	92	94	6	5	8	200	22	4	61	49	4	15	25	48	6	72	2	130	54	0	15	6	39	24
OTU 186	19	22	24	30	0	0	0	0	0	11	0	69	0	11	1	0	4	0	9	0	1	13	1	0	0	0	0	13	0	66	44	0	0	0	3	2	0	1	2	8	0	0	58	13	11	25	2043	0	0	3
OTU 187	274	17	18	1892	13	42	23	9	78	32	72	219	0	18	104	18	1461	29	293	4	5	776	3	1	218	19	83	43	12	54	13	136	16	60	38	3	18	17	39	10	70	55	30	3	18	116	81	138	722	17
OTU 188	13	104	25	23	159	20	72	117	176	22	126	193	11	48	249	42	73	51	56	279	10	7	101	17	50	56	224	382	1	42	14	4	73	63	27	19	64	124	87	80	197	125	3	100	40	144	44	412	139	109
OTU 189	441	7	5	12	6	44	18	3	886	95	192	60	31	17	93	122	2	10	55	47	78	33	2	32	115	21	86	71	14	12	66	64	10	117	2	1	148	8	23	15	132	43	36	10	5	6	0	99	13	67
OTU 190	0	0	0	0	13	1	0	0	0	41	0	0	0	0	0	0	0	94	58	1	29	0	0	0	0	61	0	0	0	4	0	0	0	0	0	2	0	1	0	59	5	0	0	0	0	0	52	0	0	0
OTU 191	50	88	13	2627	11	12	16	8	2	1604	3	43	2	94	2	109	662	91	76	2	44	18	8	956	58	55	128	15	326	158	40	17	14	46	62	5	1753	0	0	30	31	1	4	11	16	33	90	77	87	10
OTU 192	64	305	600	56	54	18	37	0	8	37	74	4	34	5	16	230	0	12	86	59	3	81	6	8	0	4	273	125	87	6	2	38	22	81	13	12	25	585	5	24	176	7	16	221	41	1074	14	224	13	161
OTU 193	10	173	30	24	8	243	23	9	9	45	47	0	12	34	42	2	7	18	234	10	45	19	2	13	171	5	19	6	148	184	0	1	1	48	4	8	0	6	0	3	131	22	7	0	717	13	35	6	49	43
OTU 194	99	2	1293	3	1	1	12	3	0	3	0	0	9	29	10	0	0	1	0	11	1	9	2	11	8	3	8	2	34	141	0	5	0	1	35	14	30	47	2	139	66	2	0	0	1	1	0	0	0	23
OTU 195	23	0	26	1	66	15	1	0	0	2	0	266	2	15	526	7	54	1	2	21	15	0	2	6	0	0	155	6	364	71	25	40	17	15	0	0	3	1	17	6	7	273	9	58	24	3	2	3	7	9
OTU 196	15	1	8	17	0	2	3	10	133	4	57	11	1	11	50	8	43	11	0	18	78	0	2	1	7	19	56	3	36	29	154	10	39	7	30	5	5	3	58	23	37	24	103	3	1	13	11	3	4	19
OTU 197	111	141	54	18	99	1	31	2	66	24	2	30	27	67	53	234	4	42	26	299	29	180	37	97	1195	37	26	94	139	136	83	35	157	9	23	20	314	5	2	5	526	2984	28	99	61	46	87	54	10	1621
OTU 198	0	108	0	0	0	0	4	1	0	0	127	0	0	3	41	11	1	15	0	1	0	7	0	0	31	0	6	4	67	5	3	0	0	12	0	0	0	5	1	14	0	24	3	0	1	0	0	14	34	0
OTU 199	22	39	2	17	2	34	9	10	3	12	42	24	39	0	21	14	27	33	0	61	7	0	51	0	0	1	21	84	1	9	77	17	46	0	6	45	0	2340	201	2	45	8	1	4	0	2	15	3	17	0
OTU 200	14	73	9	0	5	0	24	16	2	7	35	58	0	1	7	4	7	1	37	4	12	9	0	51	39	2	2	32	12	2	15	70	211	2	23	23	142	8	0	92	34	689	26	3	4	43	26	1	60	29
