	Host 1	Host 2	Host 3	Host 4	Host 5	Host 6	Host 7	Host 8	Host 9	Host 10	Host 11	Host 12	Host 13	Host 14	Host 15	Host 16	Host 17	Host 18	Host 19	Host 20	Host 21	Host 22	Host 23	Host 24	Host 25	Host 26	Host 27	Host 28	Host 29	Host 30	Host 31	Host 32	Host 33	Host 34	Host 35	Host 36	Host 37	Host 38	Host 39	Host 40	Host 41	Host 42	Host 43	Host 44	Host 45	Host 46	Host 47	Host 48	Host 49	Host 50	
OTU 1	7	81	109	24	89	74	19	65	98	17	0	33	68	7	66	78	33	30	6	0	9	0	5	62	21	40	86	27	4	24	78	1	23	12	230	49	66	46	23	40	8	41	28	6	44	15	77	18	25	27
OTU 2	20	1	0	9	0	4	1	12	0	0	5	0	4	50	7	2	1	16	26	1	0	6	0	0	16	9	0	4	0	10	2	1	0	23	19	26	2	0	34	2	0	4	0	4	0	0	0	1	0	0
OTU 3	35	110	30	0	0	0	9	0	89	14	0	2	1	2	33	63	56	0	0	139	4	0	1	5	14	34	4	0	43	0	13	1	52	32	7	4	2	7	0	4	0	45	8	44	14	69	12	0	4	3
OTU 4	0	0	0	0	0	0	0	0	0	0	0	0	0	0	0	0	0	0	0	0	0	0	0	0	0	0	0	0	0	0	0	0	0	0	2	0	0	0	0	0	0	0	0	0	23	0	0	0	0	0
OTU 5	32	3	0	89	49	1056	192	250	2	154	22	252	143	1177	266	349	411	0	350	325	769	16	779	24	97	82	647	382	1227	132	315	14	34	165	0	156	12	319	0	236	9	2	1130	122	146	1	142	0	319	16
OTU 6	1	30	22	0	13	58	0	69	0	4	21	0	23	0	16	62	3	0	0	33	0	18	61	21	22	58	51	6	2	2	11	46	1	4	17	0	12	25	5	17	2	71	40	55	158	7	62	2	40	11
OTU 7	106	16	364	30	70	63	129	111	227	98	101	13	95	72	220	137	192	99	25	1	10	38	73	19	75	31	149	74	54	51	33	19	22	100	78	88	57	22	147	128	16	135	10	119	35	576	263	41	12	9
OTU 8	9	20	66	157	48	138	650	41	98	29	155	36	45	73	17	74	128	46	47	57	22	109	34	41	58	37	22	531	401	39	6	141	31	45	17	49	12	48	64	639	43	33	294	99	131	74	1305	45	18	18
OTU 9	20	42	60	15	0	25	2533	150	0	28	1	0	25	1	116	31	0	0	0	0	11	64	2	693	7	3	59	9	40	63	0	44	9	1	0	22	15	0	62	2336	20	7	0	4	0	315	57	16	2	339
OTU 10	34	11	85	17	4	35	17	0	0	35	0	21	0	6	46	7	0	9	6	0	10	0	4	40	0	33	56	1	11	0	19	3	59	1	1	0	7	25	24	20	12	0	0	0	0	4	30	7	6	16
OTU 11	211	14	173	3	89	7	70	17	10	119	6	91	101	127	218	28	67	360	3	5	1	41	186	185	85	1	19	43	14	7	90	1	57	27	170	141	31	117	17	5	56	202	63	2	53	77	20	96	62	109
OTU 12	69	121	38	64	13	30	4	69	168	3	42	0	14	121	16	94	111	107	189	21	9	58	0	38	45	6	66	74	6	25	0	146	50	45	18	15	89	3	0	19	87	0	28	101	14	45	23	5	14	21
OTU 13	0	0	0	0	0	5	0	0	0	0	0	0	0	2	1	0	0	0	0	0	0	0	0	0	8	0	0	0	5	0	0	0	1	0	17	0	0	4	0	0	0	0	0	0	0	0	0	0	0	0
OTU 14	1	4	1	28	2	6	3	13	11	3	4	1	10	0	0	0	1	0	0	85	0	27	5	4	0	0	0	49	6	5	5	3	16	87	0	0	2	4	3	0	3	0	0	1	0	24	0	0	5	23
OTU 15	0	0	0	0	0	0	0	24	0	0	1	0	8	0	0	0	0	0	0	185	0	0	0	0	1	1	0	0	0	7	0	7	0	0	2	0	0	0	0	6	0	0	0	0	0	27	1	4	4	0
OTU 16	0	0	0	0	0	2	0	0	0	0	0	0	0	0	0	0	0	0	0	0	0	0	0	0	0	0	0	0	0	0	0	22	0	0	0	0	0	0	1	0	0	0	0	0	0	0	1	0	0	0
OTU 17	0	4	0	61	218	160	1	33	4	0	39	78	1	0	0	3	1	85	170	81	1	0	174	180	0	25	0	1	11	11	26	3	191	40	705	7	6	126	2	9	304	17	27	74	498	0	25	0	20	104
OTU 18	30	81	7	223	92	88	12	156	63	6	20	57	10	14	8	29	36	111	14	4	4	161	34	42	2	70	14	55	13	54	65	18	59	6	118	2	41	90	62	15	93	25	12	68	317	191	38	37	1	27
OTU 19	0	0	0	0	0	19	0	0	0	0	0	0	0	0	0	0	0	0	0	0	0	0	0	0	0	0	0	0	0	0	0	0	0	0	0	0	0	0	0	0	0	0	0	0	1	0	0	0	0	0
OTU 20	6	49	109	6	72	60	4	123	48	9	0	18	3	287	32	16	29	206	42	281	7	91	15	16	8	6	39	5	9	75	2	63	46	35	130	3	62	21	11	6	195	46	22	70	0	39	17	0	9	8
OTU 21	96	3	67	174	21	13	49	17	32	27	2	12	1877	10	27	352	62	67	9	89	14	2	9	12	8	3346	61	1	13	15	47	111	97	284	62	29	9	26	16	15	4	152	32	89	2	54	43	0	41	5
OTU 22	52	28	50	83	98	0	2	97	300	32	4	23	26	0	18	7	66	7	6	48	24	74	6	34	6	6	31	18	36	36	55	85	3	8	121	5	81	48	45	0	5	92	30	2	119	87	0	18	33	11
OTU 23	28	12	0	3	0	1	1	3	40	0	9	3	4	0	9	539	2	5	21	0	1811	1	49	0	3	186	0	7	4	0	8	45	5	520	6	0	25	0	3	0	1	59	82	35	13	4	2	0	11	0
OTU 24	40	1	13	0	0	1	13	0	4	0	1	0	2	8	0	10	6	2	24	0	31	71	24	3	0	0	22	4	1	0	3	42	45	9	11	3	3	5	10	0	7	0	0	2	14	0	0	6	17	0
OTU 25	0	293	0	0	0	0	111	0	15	0	0	0	0	0	0	0	0	0	0	0	0	0	7	0	0	0	0	1	0	0	0	0	0	0	0	0	88	0	0	2	0	0	0	3	0	0	0	0	10	0
OTU 26	4	5	28	0	0	1	0	3	1	0	8	0	1	45	12	1	0	10	0	1	12	0	1	0	1	4	0	0	24	6	0	0	0	1	0	1	0	0	98	18	0	0	0	0	0	0	52	17	0	0
OTU 27	0	0	0	0	0	3	0	0	0	0	0	0	0	0	0	0	0	0	0	12	3	1	0	0	0	0	0	0	0	0	0	0	0	0	0	0	0	0	0	0	39	0	0	0	2	0	2	1	0	0
OTU 28	207	44	1039	56	75	48	22	43	350	311	85	52	1272	31	550	37	131	36	51	196	40	14	40	71	19	23	855	120	4	7	13	22	11	6	158	57	1	97	25	688	27	97	39	163	59	2381	1297	15	13	31
OTU 29	47	73	13	0	33	9	39	46	17	27	6	12	49	3	7	94	1	14	39	90	3	173	11	15	4	56	17	34	18	2333	0	14	39	24	24	93	32	16	27	0	70	65	0	12	7	3	4	20	26	8
OTU 30	0	0	0	0	0	0	0	0	0	0	0	0	0	0	0	0	0	0	0	0	0	0	0	0	0	0	0	0	0	0	0	0	0	0	0	0	0	0	0	0	0	20	0	0	0	0	0	0	0	0
OTU 31	24	47	19	0	0	0	1	33	0	0	26	0	53	10	8	20	0	90	1	91	1965	15	19	6	1907	0	1	5	787	23	0	1	1	44	0	31	19	2	0	1	45	7	2	0	11	80	0	0	7	7
OTU 32	133	12	61	17	5	5	23	4	105	22	69	5	18	32	26	83	85	46	11	26	61	14	68	29	60	42	19	19	44	11	8	23	106	33	44	14	15	13	246	15	8	213	72	75	25	42	10	19	25	15
OTU 33	0	5	1	0	0	0	0	0	0	0	0	0	0	0	0	0	0	0	5	0	0	0	0	0	0	0	0	0	0	0	0	12	0	1	0	0	0	0	0	0	0	0	0	1	0	0	0	0	0	0
OTU 34	367	86	15	87	1	13	120	61	65	8	26	6	0	112	3	100	54	219	18	30	11	18	0	3	5	6	6	101	2	34	0	75	44	30	0	9	95	3	21	18	14	23	0	1	131	56	31	0	7	3
OTU 35	11	9	118	23	0	17	11	36	39	27	18	128	3	17	21	1	0	11	13	97	34	103	8	25	7	3	7	0	61	19	3	47	0	46	1	1	27	1	16	2245	37	6	1	7	2	2	70	3	131	11
OTU 36	73	135	0	27	22	62	126	10	9	10	7	7	3	32	5	57	74	3	23	17	74	0	35	2	12	0	6	26	0	0	25	116	18	1	13	1	42	17	15	27	2	42	15	34	1	11	78	42	1	1
OTU 37	1	0	12	0	0	1	67	0	36	1	0	1	11	0	0	0	0	0	0	26	0	0	8	0	17	100	1	0	0	0	0	27	0	0	11	70	0	0	0	18	1	51	4	0	23	0	23	3	0	0
OTU 38	111	66	35	6	60	80	31	4	0	17	16	127	5	72	8	51	12	39	1	44	1	13	8	194	8	8	38	6	0	5	50	22	58	23	173	1	25	152	0	6	47	66	745	20	239	7	16	51	0	95
OTU 39	2	121	4	18	5	11	0	0	22	9	9	0	2	1	2	0	0	0	0	18	30	3	5	0	1	0	9	0	0	0	0	149	0	3	0	0	42	0	0	0	0	0	50	0	0	0	0	27	24	0
OTU 40	272	10	55	298	12	90	57	60	22	2	17	7	2	129	47	149	13	35	30	19	7	30	19	4	3	31	3	96	17	50	4	31	19	136	19	41	37	5	3	10	45	18	7	52	9	1	17	4	48	1
OTU 41	8	134	1	9	27	13	726	34	5	0	17	4	0	2	3	16	3	0	1	0	3	24	5	144	1	2	4	4	21	4	31	72	1	43	80	18	116	6	52	14	5	15	0	100	127	16	25	5	0	85
OTU 42	26	0	14	22	13	9	0	0	36	0	22	0	13	0	0	16	0	0	0	137	0	5	12	63	1	3	0	0	1	0	1	0	1	0	4	1	0	0	11	1	1	6	0	0	0	0	0	0	27	29
OTU 43	0	0	34	0	0	0	0	0	0	19	5	0	0	0	16	0	0	0	0	0	0	0	0	0	0	5	24	0	0	0	0	0	0	0	0	0	0	0	0	0	0	0	0	0	0	0	0	0	0	0
OTU 44	0	0	0	0	0	2	4	1	0	0	0	0	2	10	0	0	1	86	0	38	0	8	2	0	0	4	0	1	0	0	0	0	29	0	4	0	0	1	0	0	9	0	0	6	55	3	1	1	20	0
OTU 45	344	155	80	37	139	3	92	23	35	55	245	25	35	77	86	1	180	133	138	25	9	145	29	128	94	9	18	132	16	5	4	241	40	38	126	55	72	24	22	19	192	46	15	12	60	10	41	4	96	57
OTU 46	46	0	13	24	45	602	12	22	32	0	20	58	7	88	2	124	22	229	121	102	16	153	3	24	80	17	3	14	22	23	31	87	987	21	76	29	20	42	53	9	35	22	8	10	50	17	17	43	18	12
OTU 47	288	6	0	30	21	1	0	14	0	2	0	0	0	8	9	0	0	0	0	0	3	0	2	71	0	1	0	0	0	6	0	0	0	0	7	0	0	0	1	16	13	15	14	0	0	16	78	0	6	27
OTU 48	9	139	16	20	57	57	140	92	88	10	25	1183	114	4	18	43	95	10	132	61	27	127	9	27	70	19	1027	0	88	46	22	144	132	15	13	31	78	15	141	10	50	33	28	41	115	8	20	4099	0	6
OTU 49	5	85	73	17	0	0	17	18	0	7	0	4	5	0	45	0	0	0	0	18	1	71	5	9	1	1	27	30	0	12	8	64	7	0	4	0	14	10	117	8	0	62	2	0	55	0	7	0	17	3
OTU 50	67	65	28	97	40	69	23	206	17	1466	43	3	43	22	3187	23	39	22	28	28	8	13	10	7	9	33	11	28	7	98	1	68	1	20	48	84	40	8	47	22	216	166	25	75	42	13	37	31	27	2
OTU 51	17	2	2	159	27	115	0	60	0	0	48	26	3	10	1	0	26	7	0	58	0	12	38	8	38	9	13	0	0	37	7	100	38	0	76	1	34	20	1	0	4	111	8	18	0	0	6	0	202	5
OTU 52	70	33	113	37	111	66	13	115	74	25	171	6	3	87	37	3	39	249	55	4	64	161	19	83	107	11	3	30	727	44	69	87	159	30	101	27	18	45	340	8	28	11	29	4	49	36	11	284	214	34
OTU 53	0	0	0	0	0	0	0	0	0	0	5	0	0	0	2	0	0	2	0	0	0	0	0	0	0	0	0	0	0	0	0	0	0	0	0	0	0	0	2	0	0	0	0	0	0	0	0	0	0	0
OTU 54	235	39	55	58	41	28	17	5	22	8	232	17	14	34	40	246	104	24	50	33	55	285	55	37	29	203	51	8	46	3	31	1	23	25	71	14	11	61	23	33	95	1	2	3	14	44	55	29	100	17
OTU 55	0	0	0	0	0	0	0	0	0	5	2	0	0	0	0	0	0	0	0	0	0	0	0	0	57	0	0	0	22	0	0	1	0	0	0	0	0	0	0	0	0	0	1	0	0	0	0	0	0	0
OTU 56	0	71	28	2	1	2	7	14	3	3	0	0	0	0	7	5	27	1	0	2	1	3	1	19	23	15	24	0	7	0	5	4	10	3	1	12	11	10	3	8	0	19	0	7	8	0	10	0	140	10
OTU 57	219	49	155	89	296	1253	42	109	105	26	75	177	59	102	21	83	2	169	81	23	18	149	312	268	197	76	93	142	100	72	240	5	385	173	414	195	60	435	51	76	307	79	2321	55	83	254	168	56	34	129
OTU 58	60	5	125	69	0	1	88	3	28	16	6	1	0	2	18	0	15	20	57	13	14	0	3	1	0	0	46	25	7	2	4	79	0	13	6	19	6	4	11	23	106	9	0	28	19	98	68	2	37	1
OTU 59	0	44	0	54	44	7	0	17	3	7	184	82	19	17	1	17	135	20	0	194	14	30	30	53	0	0	1	0	0	10	23	56	0	0	97	0	49	73	69	28	56	25	75	52	67	15	60	6	9	36
OTU 60	16	17	1405	114	31	2	30	229	65	382	39	13	0	14	843	48	73	163	60	247	33	633	12	2	917	0	776	72	434	106	17	150	9	42	150	25	6	9	25	150	1540	126	56	179	95	41	369	46	93	1
OTU 61	286	259	2	8	650	15	121	45	60	6	157	22	1	15	4	35	83	33	16	159	8	189	7	17	125	7	7	2	75	29	2	9	62	42	20	29	96	1	33	6	182	26	13	237	12	12	30	5	0	7
OTU 62	0	12	2	47	0	0	15	4	34	1	35	0	0	5	7	0	5	0	4	1	0	0	26	4	0	0	0	0	0	0	1	0	1	0	1	3	3	0	0	0	17	6	1	2	0	1	0	5	0	5
OTU 63	258	100	0	605	65	13	0	0	37	0	132	67	105	127	5	936	51	8	0	6	25	0	56	69	19	282	1	0	2	2	44	1374	48	353	253	46	1	69	0	0	3	0	7	0	0	23	0	0	1	250
OTU 64	66	13	8	23	1	1	13	78	130	2	867	10	22	38	28	48	19	154	3	81	30	0	67	245	58	24	5	23	114	15	0	191	13	104	7	115	9	10	1	45	82	7	22	73	41	188	80	7	37	122
OTU 65	1	0	0	0	0	0	0	0	1	0	0	0	0	0	0	0	0	0	0	0	0	0	0	3	0	0	0	1	0	0	4	0	0	0	48	0	0	0	1	2	0	29	0	0	0	0	0	0	2	1
OTU 66	9	83	0	33	3	37	25	8	699	4	3	3	8	71	4	31	448	89	20	93	80	29	2	19	30	30	1	10	95	1	28	76	18	2	13	2	29	27	34	2	15	78	17	31	71	0	12	3	0	12
OTU 67	42	91	5	42	21	17	9	49	45	0	22	6	32	16	0	52	41	46	112	249	1	99	2	3	13	19	1	46	61	39	6	147	3	0	0	0	126	15	207	15	25	54	0	238	491	15	38	28	36	2
OTU 68	0	26	2	6	1168	1	1	200	65	0	47	2	48	0	11	41	57	0	3	0	52	0	30	26	100	38	0	33	17	104	1	6	0	70	2	49	10	0	0	66	65	32	0	0	94	124	108	5	0	7
OTU 69	31	34	27	24	26	39	22	148	16	30	7	12	19	44	16	62	54	43	128	5	44	13	53	33	45	21	3	136	10	69	56	55	46	31	29	28	2	48	217	11	70	45	31	22	41	0	7	10	25	12
OTU 70	26	49	0	0	0	16	0	179	70	7	80	4	1	12	0	0	11	148	39	0	1	2	0	30	38	4	3	2	0	56	19	0	17	34	1	1	11	8	0	0	41	23	4	7	10	0	1	0	0	21
OTU 71	51	1	5	0	6	23	1	1	94	1	3	1	0	3	1	17	0	0	115	49	0	4	0	34	16	2	0	0	0	0	0	0	8	0	0	0	0	3	0	5	0	0	0	1	3	0	6	0	2	13
OTU 72	61	3	8	43	5	1009	60	117	22	0	36	15	25	41	9	164	70	91	35	74	69	39	21	84	81	12	19	23	39	27	29	24	138	16	30	96	8	37	2	4	26	19	7	65	37	2	12	52	5	47
OTU 73	5	65	71	28	5	28	10	29	54	4	4	8	18	2	19	207	150	3	2405	49	18	17	30	62	78	81	53	19	36	16	35	27	32	169	95	50	0	32	2	9	64	13	1	8	31	0	17	62	118	26
OTU 74	17	23	32	29	5	12	101	99	15	15	17	0	50	535	1	51	15	403	0	11	0	11	6	2	20	59	16	54	20	52	1	17	26	5	54	186	26	11	40	29	6	4	3	11	84	12	37	12	35	0
OTU 75	4	73	47	2722	91	4	77	40	106	2	153	20	35	23	9	82	50	99	3	37	22	80	92	149	96	450	8	42	16	20	32	7	56	1218	219	118	3	49	38	27	28	317	9	1	90	234	35	91	6	79
OTU 76	2	0	0	7	123	171	2	0	4	14	0	4	0	2	7	14	2	2	8	2	0	20	161	249	0	8	0	0	3	0	31	37	66	3	196	0	12	132	0	7	12	0	10	0	0	6	14	19	2	129
OTU 77	33	32	1	19	11	2	39	88	24	2	0	68	0	27	30	23	13	3	33	3	55	0	83	14	0	0	1	89	10	23	20	105	19	17	46	77	382	7	24	0	8	226	1	47	11	0	7	4	51	13
OTU 78	2	108	54	111	32	105	32	34	5	0	102	1	0	31	8	40	7	54	92	35	4	5	7	30	3	12	24	8	0	11	7	34	3	36	11	6	41	10	12	1	27	14	5	2	65	40	4	1	0	4808
OTU 79	128	207	112	190	222	259	76	254	206	26	1072	235	117	13	60	174	235	48	74	28	243	84	208	319	297	237	2281	141	165	825	210	292	357	289	504	265	165	485	66	32	228	425	648	145	138	414	109	31	85	164
OTU 80	45	101	31	0	13	21	94	69	9	27	8	3	34	120	68	70	17	158	76	105	3	155	14	1	76	18	2	47	22	58	26	43	35	62	5	20	65	27	79	40	42	128	32	27	276	233	69	5	32	1
OTU 81	169	51	2	53	12	13	78	171	99	13	46	25	640	58	5	88	66	140	26	45	121	7	55	66	30	17	28	86	5	2011	2	299	6	4	50	1660	82	14	7	6	76	8	71	10	20	28	23	52	2307	38
OTU 82	298	2	18	10	12	12	0	23	2	0	73	2	0	166	1	46	0	169	0	4	61	108	8	1870	31	89	1	25	1	2	0	8	2	155	0	9	1624	7	170	29	152	9	0	10	22	52	64	33	185	895
OTU 83	10	0	3	0	6	6	19	0	0	17	1	5	15	4	18	0	149	0	1	98	16	6	0	0	3	0	7	5	0	0	0	2	2	59	17	48	0	13	3	1	12	19	22	0	1	0	1	1	0	0
OTU 84	0	71	49	27	13	2	0	113	0	15	27	8	1	6	19	59	6	3	0	0	6	4	33	54	2	5	46	1	0	44	0	30	106	8	82	188	44	0	0	7	34	22	3	62	5	0	4	0	2	32
OTU 85	0	71	0	0	0	14	11	0	98	2	65	4	0	4	15	34	23	0	124	1	3	9	4	0	2	14	3	0	0	0	6	20	38	0	3	23	60	0	0	20	0	18	0	0	4	114	51	0	6	0
OTU 86	0	1	0	5	0	0	0	9	0	0	42	0	0	0	0	0	0	0	0	59	0	0	0	0	0	0	0	11	0	4	0	0	23	1	0	0	0	0	18	0	0	2	9	0	0	0	0	0	0	0
OTU 87	272	121	0	1	20	0	20	0	0	0	0	6	0	73	0	38	8	83	0	6	0	9	2	4	0	1	0	1	1845	0	0	0	0	0	0	1	62	2	0	0	0	0	39	0	0	0	0	5	23	2
OTU 88	7	0	0	18	0	0	0	3	67	0	0	6	0	0	0	0	0	0	22	61	0	1	16	5	0	3	0	0	0	2	0	5	5	0	0	2	0	0	0	0	2	0	0	0	0	0	0	5	543	2
OTU 89	397	4	69	4	0	25	0	8	43	19	141	0	0	322	15	0	55	196	11	0	14	76	0	25	0	0	9	3	0	0	0	0	37	33	0	0	3	0	2	1	9	41	1	0	1	11	0	0	58	15
OTU 90	2	2	0	0	0	0	0	49	4	1	0	0	1	0	0	5	0	25	2	0	0	6	0	0	0	4	0	8	0	10	0	0	0	1	0	0	0	0	0	0	81	0	0	0	4	0	0	0	0	0
OTU 91	0	0	0	0	0	39	0	0	0	0	0	8	0	0	0	0	12	0	0	2	0	2	2	0	0	1	0	0	11	0	14	0	0	0	0	0	1	9	0	0	97	0	0	36	20	3	0	0	0	0
OTU 92	4	3	3	0	28	0	0	1	0	0	30	9	0	20	0	27	3	34	0	0	0	34	75	16	0	0	0	1	0	0	4	0	155	0	76	0	0	54	2	0	5	0	0	0	5	0	0	0	0	10
OTU 93	0	0	3	1	10	1	0	3	0	0	0	0	4	0	0	0	0	0	0	0	0	0	0	0	0	0	0	3	0	0	0	0	0	0	13	39	0	0	20	0	0	0	0	1	6	0	0	38	1	0
OTU 94	59	31	23	23	6	12	6	11	191	8	104	6	102	54	30	130	98	6	21	132	4	2	77	16	69	2	9	28	0	17	0	16	7	103	28	133	25	16	4	25	49	129	45	9	19	44	62	5	15	9
OTU 95	0	0	8	3	27	97	75	743	4	0	0	28	0	2	6	59	0	0	11	0	2	98	36	101	96	69	0	263	17	376	25	0	41	88	68	0	0	28	3	25	284	14	7	0	71	4	82	16	5	58
OTU 96	0	0	0	0	4	7	0	3	0	0	0	0	11	3	0	0	0	198	0	75	0	0	40	0	0	0	0	8	0	4	0	0	0	0	10	6	0	6	0	0	0	0	0	0	1	0	3	0	84	0
OTU 97	0	0	6	1	1	0	0	9	0	0	0	3	1	0	0	0	0	0	0	22	14	0	0	1	33	0	0	0	0	8	0	0	0	17	0	0	0	0	0	1	0	3	0	19	0	36	0	17	51	0
OTU 98	10	14	5	0	5	6	34	61	67	1	35	0	32	0	0	0	0	0	4	28	0	1	0	0	2	13	0	50	15	42	2	48	26	6	0	146	28	2	1	4	5	22	0	0	27	0	1	0	9	0
OTU 99	7	14	25	1	67	38	1	435	79	7	294	17	4	6	2	199	28	32	65	39	35	1960	20	7	66	69	9	307	32	203	12	69	134	39	85	53	27	37	91	9	47	108	11	82	9	32	30	20	1	2
OTU 100	104	138	26	103	2	80	43	18	41	0	54	12	8	0	1	0	5	43	30	13	2	16	13	2	5	10	3	17	31	10	0	1	0	10	13	40	23	3	36	0	80	33	0	22	67	47	1	2	4	2
OTU 101	0	0	0	0	0	0	0	0	0	0	0	5	0	1	0	0	0	0	0	1	0	0	0	0	0	5	1	0	0	4	0	0	15	0	0	0	0	0	0	1	0	0	9	0	0	4	14	0	0	0
OTU 102	0	0	0	0	0	27	2	24	45	0	0	0	9	21	0	46	201	21	2	0	3	7	5	0	6	1	0	0	32	15	1	3	0	15	0	0	4	0	0	0	11	18	2	0	10	0	0	9	0	0
OTU 103	65	97	0	7	1	0	17	31	20	1	0	11	19	0	0	3	0	2	37	13	10	31	0	7	132	75	0	17	0	4	28	4	37	0	44	15	25	21	200	3	122	1592	263	56	3	2	6	6	0	5
OTU 104	31	82	17	17	107	140	31	155	12	6	0	17	26	1	1	96	92	38	46	14	37	110	109	104	165	0	52	46	150	105	60	22	36	0	214	23	50	79	5	20	27	0	8	22	11	86	28	43	53	50
OTU 105	0	16	3	16	0	0	0	4	1	0	0	0	1	5	0	0	0	5	73	31	1	6	0	0	0	0	9	27	6	11	0	0	0	5	0	0	0	0	0	7	2	0	0	44	0	21	18	5	4	0
OTU 106	0	0	6	0	2017	0	0	0	23	3	7	17	12	119	6	15	0	0	2	0	0	0	0	23	11	75	0	0	0	0	0	0	1828	0	14	0	8	12	23	0	0	0	19	4	0	0	0	0	0	12
OTU 107	0	4	53	35	0	7	0	19	233	12	2	1	17	47	27	2	0	35	8	7	0	0	3	0	51	1	53	0	0	5	1	23	12	0	7	10	0	0	12	3	0	0	2	3	0	8	5	2	0	0
OTU 108	11	17	40	7	8	0	10	41	0	3	55	4	14	1	16	11	313	2	0	57	13	5	0	42	0	10	6	2	12	5	10	13	2	48	17	3	0	40	1	27	2	0	0	12	14	42	68	54	44	16
OTU 109	0	0	0	0	0	0	0	0	0	0	0	0	0	0	0	0	0	0	1	0	0	0	0	0	0	7	0	0	0	0	0	0	0	0	0	0	0	0	0	0	0	0	0	0	0	0	0	0	0	0
OTU 110	183	90	46	39	7	134	10	1	78	0	64	0	24	73	3	15	11	19	5	26	69	79	43	11	0	6	1	2	106	7	7	24	21	33	13	25	2	5	14	1	7	1	30	9	25	30	4	1	1	5
OTU 111	0	18	0	0	7	0	0	0	0	0	1	0	0	0	0	26	0	26	0	0	0	0	0	0	0	0	0	0	0	1	0	1	0	0	6	0	0	1	11	1	0	10	0	0	0	0	1	0	0	0
OTU 112	95	0	5	0	22	1	0	6	9	10	3	3	12	5	8	18	1	74	0	0	12	0	18	7	0	2	3	0	0	0	7	22	51	4	27	18	14	40	0	0	2	15	13	0	0	14	2	0	0	3
OTU 113	0	0	1	0	7	0	61	14	0	0	3	0	24	0	0	0	0	0	0	13	0	3	0	0	11	1	0	0	0	4	0	1	0	1	0	48	4	0	30	0	0	0	0	0	1	0	2	7	2	0
OTU 114	39	34	14	20	79	136	13	97	376	22	205	1	9	21	7	10	730	59	44	119	268	58	57	46	156	75	12	64	205	52	1855	386	18	29	33	78	43	9	102	13	215	113	30	34	26	39	5	33	43	17
OTU 115	8	9	2192	65	2	133	24	33	11	780	14	25	61	15	1545	76	109	130	136	59	123	56	48	8	103	10	964	59	65	8	52	32	175	35	83	189	35	74	13	1	53	4	43	23	33	44	3	16	14	4
OTU 116	52	41	12	4	23	83	4	58	140	3	5	27	29	44	21	18	47	133	29	226	5	19	0	32	108	7	5	25	21	45	17	21	12	41	9	4	4	61	23	2	115	57	45	19	1	63	4	36	78	11
OTU 117	28	6	70	17	26	25	9	102	127	35	72	11	6	6	57	22	82	9	3	14	26	53	7	1	40	299	6	985	27	58	3	90	10	0	16	70	7	7	2	11	2	63	65	22	8	132	33	5	89	1
OTU 118	0	0	1	0	0	14	2	0	0	0	5	1	0	0	0	0	3	0	20	4	25	0	1	7	1	20	0	0	0	0	6	0	6	0	0	1	0	0	811	0	0	0	0	0	0	0	3	435	70	3
OTU 119	171	31	57	2	30	14	0	9	156	8	30	14	199	220	53	10	39	384	8	0	12	42	0	27	85	12	55	50	28	7	31	5	31	28	1	349	24	43	30	370	11	45	18	4	21	54	1	64	8	13
OTU 120	47	21	1	59	15	44	41	0	0	0	119	9	6	5	0	0	2	0	14	13	0	16	0	13	26	0	2	0	32	0	1	12	8	0	8	0	31	11	0	3	20	0	0	242	0	4	1	10	68	9
OTU 121	65	15	0	3	0	9	631	7	23	7	103	7	0	4	5	12	6	4	79	25	8	9	3	0	15	15	6	0	1	0	1	21	10	5	22	12	100	0	1	0	21	40	0	104	1	0	8	35	15	0
OTU 122	27	91	0	1	84	14	36	69	33	0	2	16	17	1170	0	32	7	19	3	3	0	136	40	26	219	19	2	36	49	36	11	0	62	3	105	9	36	16	87	2	110	33	36	70	20	2	1	17	8	17
OTU 123	186	144	195	56	110	195	509	120	294	38	333	194	128	18	70	18	364	104	158	145	60	333	53	123	56	21	106	55	54	67	198	227	244	23	219	145	67	364	288	108	104	307	75	1518	277	285	184	213	67	68
OTU 124	0	2	0	0	2	0	138	7	9	0	23	0	6	42	0	5	0	28	1	9	0	29	0	2	12	2	5	0	0	9	8	34	16	29	0	0	0	0	0	0	16	0	0	5	0	0	0	27	1	0
OTU 125	360	204	63	119	53	112	50	79	34	13	480	5	405	185	0	157	195	120	26	425	1659	202	25	30	67	16	7	21	63	24	27	131	32	67	93	646	169	18	2736	34	88	208	193	2152	174	153	70	1466	963	12
OTU 126	0	0	0	5	20	0	0	8	0	0	10	0	0	40	0	0	0	0	0	0	0	0	0	0	0	2	3	0	0	0	0	0	0	8	1	25	1	2	3	2	35	146	18	0	1	0	1	12	0	0
OTU 127	0	13	11	1	0	8	144	68	0	0	6	0	4	0	12	2	42	13	14	4	18	1	0	37	0	1	4	6	16	23	11	0	1	72	5	9	2	9	19	24	21	16	6	48	0	24	34	0	0	17
OTU 128	41	229	12	116	112	198	97	142	445	201	313	49	29	225	372	456	40	780	247	22	97	220	188	148	112	44	11	139	31	68	56	253	79	204	126	57	86	104	103	70	215	181	84	524	68	144	128	162	180	59
OTU 129	0	0	0	0	0	0	3	24	0	0	0	0	0	0	0	264	1	0	0	0	0	13	3	0	0	25	1	47	43	33	1	6	0	395	0	0	0	0	0	0	2	0	0	0	74	0	0	0	0	0
OTU 130	128	19	41	0	0	8	13	40	28	5	70	426	35	0	27	45	60	7	134	4	48	4	594	8	2	1	10	46	23	10	264	5	120	1	1	27	2	767	23	2	8	221	85	5	63	0	14	0	21	4
OTU 131	0	15	2	1	35	2	0	363	121	0	1	77	4	2	3	69	32	0	3	23	3	4	15	1	144	208	4	177	30	156	76	23	47	31	32	0	41	112	24	0	89	0	1	3	10	0	0	5	11	1
OTU 132	2	31	34	2	0	0	0	0	92	0	16	1	30	2	11	3	0	2	91	2	24	4	3	0	3	10	16	8	8	0	0	1	0	5	3	9	8	0	0	11	3	158	38	0	23	20	34	18	0	0
OTU 133	35	0	0	0	0	11	15	0	8	0	5	0	0	9	1	3	3	0	0	0	21	0	0	0	6	5	0	2	1	0	0	0	0	0	0	0	3	2	2	0	0	0	4	4	75	10	0	0	3	0
OTU 134	3	40	105	59	0	7	0	67	18	16	369	11	4	37	17	44	17	2	34	94	9	15	0	27	3	98	48	23	20	37	2	46	49	15	23	3	18	21	5	1	100	139	89	14	45	26	2	38	0	7
OTU 135	279	7	9	47	26	3	10	43	260	6	72	18	0	21	5	12	24	22	71	107	0	22	45	86	29	50	22	11	0	11	50	0	29	4	71	12	15	41	4	34	37	4	11	5	4	77	151	12	10	52
OTU 136	1	0	13	52	41	21	0	1	19	0	103	91	22	0	7	27	151	0	0	294	0	1	2404	16	6	0	20	5	11	0	37	0	0	0	94	0	2	124	0	0	4	5	7	110	510	13	0	7	11	13
OTU 137	0	4	21	4	0	25	0	0	2	15	0	3	0	1	26	1	0	0	8	0	0	30	0	0	0	0	13	0	0	0	0	0	17	30	0	6	0	0	0	25	19	0	0	7	28	199	39	12	384	0
OTU 138	0	21	21	0	29	1	9	15	73	9	16	0	1	0	8	9	2	0	0	30	7	16	40	5	0	5	63	0	21	6	14	110	4	17	0	2	2	1	0	8	0	0	4	8	0	0	3	3	0	5
OTU 139	227	102	47	107	74	186	47	144	149	25	14	50	15	6	25	12	34	45	78	23	14	470	113	178	54	1	13	2385	112	67	79	143	82	13	246	6	41	115	13	1059	13	36	3	13	33	8	1992	4	125	84
OTU 140	58	86	283	133	66	137	97	264	237	749	82	12	36	9	170	209	478	45	41	144	41	117	138	24	152	146	160	42	23	208	23	136	282	60	190	87	29	41	35	43	27	261	49	707	32	172	68	7	83	11
OTU 141	1	0	0	0	0	2	0	0	0	0	0	0	0	0	0	0	0	0	0	0	0	0	0	0	0	2	0	0	0	0	0	0	0	9	0	0	0	0	0	0	0	0	0	0	0	0	0	0	0	0
OTU 142	0	0	0	0	0	0	0	0	0	0	0	0	0	0	0	10	0	0	0	0	0	0	0	0	0	10	0	0	0	0	0	0	1	0	0	0	0	0	0	0	10	0	0	0	0	1	9	1	4	0
OTU 143	0	0	0	6	4	1	1	3	0	0	77	0	0	0	0	11	9	43	0	41	0	0	0	0	11	1	0	16	1	5	0	0	0	0	0	2	0	0	2	0	0	4	0	8	9	70	0	5	0	0
OTU 144	25	0	0	0	9	4	1	0	1	0	0	0	0	0	2	1	23	0	5	0	0	3	0	2	0	2	0	6	0	0	0	3	5	3	0	2	8	0	1	0	9	0	1	16	13	0	0	0	0	0
OTU 145	160	1070	1	26	13	3	173	82	39	1	8	25	14	338	0	13	89	739	60	10	8	120	16	10	5	0	6	22	28	28	12	53	68	45	16	7	530	34	98	0	166	34	21	124	3	4	5	2	944	3
OTU 146	45	167	30	31	33	19	7	56	12	3333	5	1	64	0	45	41	23	3	278	5	44	1	3	12	81	17	42	18	12	26	28	3	2	1	16	69	130	2	19	94	25	20	13	1	42	6	156	4	56	5
OTU 147	0	2	38	18	1	47	0	29	9	0	0	2	0	40	0	14	51	2	10	5	307	0	5	3	6	0	7	0	15	27	265	35	0	10	0	28	1	0	1	0	0	37	0	39	0	0	1	4	0	0
OTU 148	92	125	34	1	0	13	5	9	1	0	1	1	1	24	1	4	12	16	8	0	0	14	8	0	10	1370	0	15	1	4	0	29	7	2274	0	9	53	3	74	28	11	64	5	48	32	101	47	14	44	0
OTU 149	173	4	4	0	2	3	0	0	1	0	48	0	0	0	0	2	2	38	0	60	0	7	6	0	5	16	2	0	24	7	3	0	62	104	5	0	0	0	7	0	48	0	2	5	3	0	2	29	0	0
OTU 150	32	9	49	6	0	0	1	0	2	15	22	0	2	0	54	2	12	2	0	2	0	396	0	0	6	10	54	11	5	8	0	0	1	0	0	108	0	0	76	120	63	105	0	0	0	0	276	57	1	0
OTU 151	49	2	0	11	69	68	0	5	3	0	15	0	0	4	1	0	120	27	12	14	0	22	0	25	36	15	0	1	19	10	1	10	2	31	35	34	20	0	18	9	61	0	825	2	0	30	18	46	17	13
OTU 152	8	31	20	27	2	96	0	157	48	9	43	0	19	32	80	173	0	107	88	28	4	3	16	0	207	0	22	150	31	81	5	4	15	48	7	56	30	6	4	32	137	46	20	3	24	6	61	14	0	0
OTU 153	1	7	0	0	0	0	0	0	0	0	0	7	0	0	0	0	0	0	0	0	4	0	0	0	3	2	0	0	0	0	8	0	17	6	0	0	0	14	0	0	0	0	0	0	1	3	0	4	0	0
OTU 154	8	0	2	0	16	0	0	0	1	0	0	0	0	0	8	0	0	0	1	6	0	0	0	0	0	0	0	0	0	0	1	0	0	0	3	0	0	0	4	0	0	6	0	0	27	0	0	0	0	0
OTU 155	18	10	9	860	2	15	5	136	0	0	20	2	7	12	4	31	4	0	0	6	0	1	40	2	18	0	0	94	5	77	4	695	19	8	4	71	7	0	106	34	73	17	11	6	30	25	76	192	2	1
OTU 156	71	49	8	107	3	6	3	72	44	6	54	11	68	17	6	29	199	24	18	1652	19	21	32	7	53	2	9	115	0	30	3	33	6	26	59	135	36	50	11	2	27	56	74	8	23	21	7	47	10	5
OTU 157	17	0	0	29	2	3	0	0	2	8	0	0	1	125	3	0	8	262	1	84	0	9	1	0	0	3	2	8	3	2	0	30	17	0	0	0	8	0	15	0	5	0	2	13	0	1	2	0	14	0
OTU 158	0	0	0	0	1	0	0	0	0	0	0	0	0	0	0	0	0	0	0	4	3	0	2	0	0	0	0	1	0	0	0	0	0	0	0	1	0	0	0	0	0	0	0	0	0	0	0	0	0	0
OTU 159	202	119	0	10	0	15	4	0	0	0	54	56	0	1120	0	5	5	0	0	3	4	0	8	33	283	1	1	0	89	0	3	10	8	22	6	24	0	3	2	8	128	16	4	2	0	7	8	6	3	24
OTU 160	135	150	65	101	73	88	34	125	221	6	149	69	4	69	8	36	11	109	95	51	8	215	151	74	122	6	44	18	150	81	78	264	47	128	153	25	101	292	73	38	210	17	20	85	223	284	78	106	40	47
OTU 161	1	46	26	6	18	0	0	3	64	24	8	55	0	126	19	32	99	63	34	23	15	8	9	1277	1	33	30	0	7	0	42	20	7	6	37	4	2	75	7	3	14	3	0	1	32	332	12	3	0	630
OTU 162	30	264	10	62	2	18	89	15	16	0	45	3	64	2	5	73	47	32	27	2	8	9	9	39	24	32	0	6	80	0	1	31	7	27	7	118	84	4	171	8	0	48	20	83	138	61	21	15	12	18
OTU 163	0	4	0	6	0	1	0	0	0	0	0	0	0	0	0	0	0	0	0	0	0	0	0	0	0	23	0	0	0	0	0	0	0	0	0	1	0	0	0	0	0	0	0	3	0	25	0	0	17	0
OTU 164	0	0	0	0	3	0	0	112	0	0	15	0	0	3	0	0	0	0	0	0	0	0	0	0	0	0	0	36	0	55	0	0	0	0	0	0	0	0	0	0	0	0	0	0	1	0	0	0	1	0
OTU 165	21	17	6	25	14	38	1	4	57	10	16	7	7	4	9	0	58	26	129	2	3	3	0	2	6	15	2	0	6	0	0	10	29	0	5	0	14	0	117	0	0	37	40	1	25	8	7	59	0	0
OTU 166	0	0	9	0	0	0	0	0	0	2	0	26	0	0	0	0	16	0	1	0	0	0	0	0	2	0	0	0	3	0	0	120	0	15	0	0	0	1	0	0	0	0	0	0	0	1	0	0	5	0
OTU 167	7	52	130	21	4	2	1	151	109	49	1	1	1	2	95	120	6	24	23	86	27	4	2	5	163	7	130	96	174	54	2	13	1	80	5	0	4	0	81	4	6	60	11	6	0	69	3	1	35	3
OTU 168	7	4	0	80	18	20	83	30	0	5	16	7	0	35	2	12	11	44	5	0	23	0	3	16	24	0	1	133	17	12	2	23	6	0	21	0	10	0	7	4	14	27	0	49	33	4	10	50	10	6
OTU 169	0	0	0	0	0	0	0	1	0	0	0	0	0	0	0	4	0	1	0	0	0	0	3	18	0	1	0	0	9	0	0	0	22	0	0	1	0	0	1	2	2	0	2	0	0	0	7	0	0	5
OTU 170	0	0	7	0	0	0	0	0	0	8	0	0	0	0	15	5	0	10	0	0	0	0	0	0	3	0	4	0	5	0	0	0	0	0	0	0	0	0	0	5	0	0	0	0	0	0	17	0	0	0
OTU 171	1	21	83	46	220	673	2	0	62	20	207	79	0	4	2	4	15	6	28	163	10	15	287	311	44	5	19	20	7	0	109	0	411	22	839	17	12	228	0	0	19	10	4	30	13	9	0	17	74	161
OTU 172	0	34	0	0	0	1	0	79	0	0	0	0	2	0	1	0	19	1	0	1	0	8	0	0	0	0	0	174	0	98	1	18	3	0	0	0	7	0	0	0	3	0	0	0	0	0	0	0	1	0
OTU 173	6	20	0	1	26	57	1	0	144	0	9	30	0	1	0	3	14	2	1	2	0	11	92	5	1	0	0	0	0	0	5	4	3	1	20	3	29	38	0	0	1	79	42	0	2	0	0	0	1	1
OTU 174	0	16	1	79	2	0	4	0	0	6	67	0	25	27	16	77	0	55	14	0	1	42	23	2	38	15	1	1	6	1	1670	115	39	47	6	27	7	1	0	25	52	0	1	69	4	28	23	43	143	2
OTU 175	0	82	22	1	2	5	15	51	0	13	31	12	0	21	78	19	62	2	10	6	14	10	22	8	0	11	2	6	8	57	1	3	73	13	3	29	73	24	76	0	0	25	0	0	0	7	0	38	8	4
OTU 176	12	20	38	64	17	5	3	8	19	19	127	1	62	14	75	156	146	23	41	10	24	19	6	3	95	22	20	14	32	12	4	30	2	12	4	170	14	0	20	3	77	98	41	35	20	17	4	78	17	0
OTU 177	98	140	30	1	203	52	4	1	48	20	1	79	13	39	46	16	95	30	23	4	37	7	19	58	2	2	19	7	231	2	64	4	95	58	334	2	54	128	37	30	25	51	17	17	2	70	67	38	116	28
OTU 178	43	0	6	113	0	10	16	0	9	0	16	28	0	0	0	63	40	7	0	15	14	3	106	48	0	6	1	0	76	0	21	88	0	0	6	19	15	38	23	9	4	178	2	65	0	3	26	0	0	21
OTU 179	51	5	10	18	12	12	20	395	145	6	15	16	0	9	7	206	57	33	9	1	0	3	16	5	0	19	5	37	1	210	41	71	4	22	42	0	5	39	24	23	2	1	22	0	7	0	9	3	65	2
OTU 180	52	63	82	94	933	11	401	97	288	7	77	1036	121	62	38	159	313	15	578	698	44	254	87	69	17	24	76	62	89	65	859	53	76	61	42	45	2447	1950	122	11	11	109	78	108	320	237	43	116	55	39
OTU 181	0	22	57	18	1	2	34	23	9	9	0	1	4	15	19	1	34	18	34	4	11	5	12	0	18	62	28	11	8	10	0	0	118	10	41	1	23	0	2	4	80	97	175	2	1	0	8	22	27	0
OTU 182	0	0	0	0	0	0	0	0	0	0	0	0	0	0	1	0	0	6	0	1	0	7	0	0	0	0	0	0	0	0	0	0	0	4	0	3	0	0	0	2	0	0	0	0	28	0	5	0	0	0
OTU 183	1	0	1	1	10	4	5	5	11	0	1	0	0	18	0	236	6	0	4	2	19	19	81	6	144	174	0	4	90	0	1	6	506	117	0	3	0	0	2	1	16	22	1	9	0	0	0	4	0	3
OTU 184	0	0	15	1	0	0	29	9	0	2	45	4	2	0	32	90	0	0	4	0	9	1	15	3	0	0	1	0	3	12	5	15	7	2	11	65	0	9	0	3	1	21	24	24	10	6	2	0	2	0
OTU 185	29	7	45	33	2	4	16	60	85	26	1	7	59	4	17	44	117	56	18	87	18	41	1	3	119	11	22	34	52	17	3	36	11	15	68	111	20	56	13	10	117	0	2	59	58	6	33	36	5	3
OTU 186	9	0	15	0	0	34	0	14	0	0	4	0	234	0	0	0	0	0	26	7	0	0	6	0	240	24	18	78	146	6	0	19	32	21	7	0	10	2	3	1	282	3	3	14	0	0	3	0	3	0
OTU 187	17	1186	9	93	3	0	354	100	73	21	99	3238	2308	22	46	18	113	25	90	43	120	20	331	4	0	69	18	20	10	51	5	4	38	67	32	1681	693	40	20	2	66	21	435	2	80	11	18	14	7	1
OTU 188	81	19	17	161	25	2	33	70	307	0	115	3	10	4	4	8	28	110	9	9	19	85	27	36	13	18	22	3	12	29	24	243	37	10	5	27	8	1	18	25	33	35	9	0	147	142	91	10	25	11
OTU 189	1	12	82	0	32	51	34	44	65	31	0	106	1	48	30	10	2	50	937	23	29	22	398	93	92	68	15	152	45	40	70	51	76	17	65	98	7	175	13	11	196	14	20	18	50	72	31	77	65	47
OTU 190	2	10	0	26	0	2	13	0	2	0	18	51	0	65	6	2	16	290	13	0	13	31	0	0	0	19	1	34	0	0	4	0	7	20	0	0	2	54	4	0	0	20	0	0	0	6	0	0	0	0
OTU 191	21	1	2	25	2	22	19	9	16	2	85	1	46	53	10	66	36	33	120	139	7	60	52	44	2	55	4	4	5	14	1	167	2	11	19	48	2	3	7	47	14	451	221	3	115	11	125	36	7	21
OTU 192	105	91	2	20	43	20	0	244	33	16	36	15	26	166	4	23	135	60	9	77	5	29	11	20	450	94	566	102	98	127	2	91	79	42	28	22	11	4	47	2	279	101	31	179	16	75	11	28	8	8
OTU 193	105	73	0	12	16	24	11	13	0	7	16	494	3	106	0	24	522	82	23	0	174	44	2	1	0	34	8	472	38	1	563	6	0	0	2	2	35	992	24	24	14	85	39	1	23	0	26	0	0	1
OTU 194	56	54	1	0	55	29	5	23	48	1007	1	7	1	0	26	129	3	0	42	2	0	26	35	0	4	28	0	35	8	7	889	3	14	1	28	20	10	13	0	0	93	13	46	0	1713	0	2	3	2	0
OTU 195	1	0	4	0	4	31	3	22	1	0	6	11	5	79	0	40	11	17	147	68	33	28	0	1	35	0	12	1	37	8	8	191	4	13	2	0	0	18	37	5	36	1	3	0	31	45	14	41	34	0
OTU 196	2	12	45	22	71	10	4	41	1	17	143	3	16	0	46	20	16	3	28	6	1	35	2	8	45	10	8	17	5	29	11	86	45	85	45	6	43	0	724	0	15	7	1	26	29	10	1	292	1	5
OTU 197	136	269	154	200	340	90	28	32	54	42	42	90	56	81	59	219	147	97	193	3	130	61	482	344	99	93	108	8	56	18	190	21	174	11	683	135	99	285	92	40	59	107	33	18	260	14	37	35	40	179
OTU 198	1	0	6	1	0	0	1	0	37	0	0	6	0	40	0	122	42	75	0	2	0	0	13	20	4	23	0	0	0	0	0	37	0	5	0	0	2	4	4	31	62	9	0	0	0	0	52	0	0	8
OTU 199	0	0	64	0	2	134	1	1	58	11	12	10	20	36	30	38	2	61	44	14	0	69	2	2	91	0	37	0	61	0	5	0	0	11	0	15	0	27	30	15	13	0	6	1	0	1	16	0	1	1
OTU 200	60	38	3	0	43	18	0	0	0	8	110	89	0	17	7	10	1	44	8	1	1	32	120	70	25	15	1	0	5	1	57	1	10	48	135	0	1	80	81	0	189	13	79	3	114	57	4	8	16	38
