	Host 1	Host 2	Host 3	Host 4	Host 5	Host 6	Host 7	Host 8	Host 9	Host 10	Host 11	Host 12	Host 13	Host 14	Host 15	Host 16	Host 17	Host 18	Host 19	Host 20	Host 21	Host 22	Host 23	Host 24	Host 25	Host 26	Host 27	Host 28	Host 29	Host 30	Host 31	Host 32	Host 33	Host 34	Host 35	Host 36	Host 37	Host 38	Host 39	Host 40	Host 41	Host 42	Host 43	Host 44	Host 45	Host 46	Host 47	Host 48	Host 49	Host 50	
OTU 1	0	0	0	0	0	0	0	0	0	0	0	3	0	2616	0	0	0	0	0	0	0	1	2	1	1	2	0	0	0	0	0	0	0	1	1	1	1326	0	0	3	0	0	0	0	0	0	0	0	0	0
OTU 2	0	0	0	0	1	0	0	0	0	0	1	0	2	0	0	0	0	0	1	0	0	0	0	0	1	0	0	0	0	0	0	1	0	0	0	0	0	0	0	0	0	0	0	0	0	0	1	0	0	0
OTU 3	0	0	0	0	0	0	0	0	0	0	0	0	1	0	0	0	0	0	1	0	0	1	0	0	0	0	0	0	1	0	2099	0	0	0	0	0	0	0	0	0	392	1	0	4	3	0	0	0	0	0
OTU 4	0	0	0	0	0	0	0	0	0	0	0	0	0	0	0	0	0	0	0	0	0	0	0	0	0	0	0	0	0	0	0	0	0	0	0	0	0	1	0	0	0	0	0	0	0	0	0	0	0	0
OTU 5	261	243	739	24	391	1	28	21	290	222	753	112	955	588	1899	1187	249	226	10	393	65	207	1547	1886	88	235	208	1408	431	2942	692	141	4202	364	99	1005	418	32	1561	190	1266	432	373	309	1823	359	47	1329	199	23
OTU 6	0	0	0	0	1	0	0	1	0	0	1	0	1	0	0	1	4	3	0	1	0	0	0	0	1	1	0	0	1	0	339	1	0	285	0	1	0	0	1	1	0	1	0	1	0	0	0	0	0	1
OTU 7	1	2	4	0	1	1	2	1	1	4	0	0	0	1	0	0	1	4	2	2	6	5994	2	0	1	0	7	4159	0	0	1	5	0	2	156	0	0	7	0	1	0	3	1	3	1	2	2	2	2	1
OTU 8	3	1	0	1	4	2	2	1	7	0	2	1	1	0	0	1	0	3522	4	4	4	0	5601	0	5	1	1	1	0	2	3	1	0	1	2	1	0	2	0	0	0	4	0	1	1	1	0	0	2	2
OTU 9	0	4	0	1	0	0	1	0	0	0	0	0	0	0	0	4	0	1	0	0	0	0	0	0	3	0	0	0	1	0	0	0	0	0	0	0	0	0	0	0	0	2	0	0	2	1	2	0	3	0
OTU 10	0	0	1	0	8737	0	1	0	0	0	0	0	0	0	2	0	1	1	0	0	0	0	0	0	0	0	1	0	0	0	0	0	0	0	0	0	0	0	0	0	0	0	0	1	0	0	1	0	1	0
OTU 11	1	0	0	0	1	1	0	0	0	0	4	1	2	0	1	1	0	1	0	0	5	5	0	0	6	1	1	0	0	0	1	1	0	2	0	0	0	0	0	1	1	1	0	1	0	0	0	0	0	0
OTU 12	0	1	2	3	139	0	0	0	1	0	1	0	0	2	0	0	1	1	0	0	0	1	0	0	2	0	0	1	0	4	0	0	0	29	0	0	3	1	1	0	0	0	3	4	0	1	0	0	246	2
OTU 13	0	0	0	2	0	0	0	0	0	0	0	0	0	0	0	0	0	0	0	0	1	0	0	0	0	0	0	0	0	0	0	0	0	0	0	0	0	0	0	0	0	0	0	0	0	0	0	1	0	0
OTU 14	0	0	0	0	0	0	0	0	0	0	0	0	0	0	1	0	0	0	0	0	0	0	0	0	1	0	0	0	4	2	0	0	0	0	0	0	0	0	1	0	0	5	0	4	0	0	0	0	0	0
OTU 15	0	0	0	0	0	0	0	0	0	0	0	0	0	0	0	0	0	0	0	0	3	0	0	0	0	0	0	0	0	0	0	0	0	0	0	0	0	0	0	1	0	0	0	0	0	0	0	0	0	0
OTU 16	0	0	0	0	0	0	0	0	0	0	0	0	0	0	0	0	0	0	0	0	0	0	0	0	0	0	0	0	0	0	0	0	0	0	0	0	0	0	0	0	0	0	1	0	0	0	0	0	0	0
OTU 17	0	0	0	0	0	0	0	1	0	0	0	1	594	2	2	1	0	0	0	2	0	0	0	2	0	1	0	2	2	0	0	1	1	0	1	0	2	2	0	0	0	0	0	2	0	0	0	0	0	1
OTU 18	1	0	3	1	0	2	0	2	1	0	2	2	0	4	4	0	0	0	0	0	1	0	2	2	0	0	0	1	6315	5	1	1	0	1	1	1	1	0	0	3	0	1	3	0	0	3	0	3	1	0
OTU 19	0	0	0	0	0	0	0	0	0	0	0	0	0	0	0	0	0	0	0	0	0	0	0	0	0	0	0	0	0	0	0	0	0	0	0	0	0	0	0	0	0	0	0	0	0	0	0	0	0	0
OTU 20	0	0	1	0	1	1	0	0	0	0	0	2	0	0	0	1	0	0	0	0	0	1	2	1	1	0	3	0	0	0	2	5	0	0	0	0	0	36	1482	2	0	0	1	0	0	0	0	0	0	1
OTU 21	5	0	3	2	2	0	1	1	0	4	0	4	0	2	3	4	0	0	0	0	0	0	2	2	551	1	0	0	1	0	0	2	0	0	0	3	0	0	0	0	0	0	0	0	0	1	0	1	0	1
OTU 22	2	3	0	2	2	0	0	0	0	0	1	0	0	0	0	2	525	1	31	2	1	1	0	0	0	0	0	0	0	8	1	3	0	6864	0	0	0	0	0	7	1	2	0	1	1	1	0	1	0	0
OTU 23	0	0	1	0	0	0	0	681	4	0	0	0	1	0	0	2	0	2	0	0	0	0	1	0	0	0	0	0	0	0	0	0	0	0	1	0	0	1	0	0	0	0	0	0	0	0	0	1	0	0
OTU 24	0	0	0	0	0	0	0	3	0	0	0	0	0	0	0	0	0	0	0	0	0	0	0	0	0	2	0	0	1	0	0	0	0	0	0	0	0	0	0	622	0	0	0	0	0	0	2	2	0	0
OTU 25	0	0	0	0	0	0	0	0	0	0	0	0	0	0	0	0	0	0	0	0	0	0	0	0	0	0	0	0	0	0	0	0	0	0	0	0	0	0	0	0	0	0	0	0	0	0	0	0	0	0
OTU 26	0	0	0	0	0	0	0	0	1	0	0	0	0	0	0	0	0	0	0	0	0	0	1	0	0	0	0	0	0	0	0	1	2	0	0	0	0	0	0	0	0	0	0	0	0	0	0	0	0	0
OTU 27	0	0	0	0	0	0	0	0	0	0	0	0	1	0	0	0	0	0	0	0	0	0	0	0	0	0	0	0	0	0	0	0	0	0	0	0	0	0	0	0	0	0	0	0	0	0	0	1	0	0
OTU 28	0	0	0	0	1	0	0	1	6	0	0	2	0	0	0	509	455	0	0	5	2	0	0	2	0	2	1	212	0	1	0	0	0	2	0	0	0	5	1	0	1	0	0	0	0	4	0	2	0	1231
OTU 29	3	0	0	0	0	3	0	7757	0	1	0	2	0	4	0	1	1	0	0	0	3	1	0	0	0	0	7	0	0	2	1	0	0	0	0	1	3	5752	0	1	1	0	0	0	232	0	3291	8	0	0
OTU 30	0	0	0	0	0	0	0	0	0	0	0	0	0	0	0	0	0	0	0	0	0	0	0	0	0	0	0	0	0	0	0	0	0	0	0	0	0	0	0	0	0	0	0	0	0	0	0	0	0	0
OTU 31	1	0	0	0	0	0	0	0	0	0	2	0	0	0	0	0	0	0	0	0	0	0	0	1	2	0	0	0	7	0	0	0	0	0	0	0	0	0	1	0	0	0	0	0	0	0	0	1	1	1
OTU 32	1	1	5	1	0	3	0	1	0	7	0	1	1	3	6	0	1	1	0	0	5	3	1	1	0	0	1	0	3	0	1	1	4	0	0	0	3	1	5764	0	0	884	3	1	0	1	1	1776	0	0
OTU 33	0	0	0	0	0	0	0	0	0	0	0	0	0	0	0	0	0	0	0	0	0	0	1	0	0	0	0	0	0	0	0	0	0	0	0	0	0	0	0	0	0	0	0	0	0	0	0	0	0	0
OTU 34	0	1	2	0	1	0	0	1	0	0	1	0	0	3	4	0	0	0	2	0	0	1	0	0	0	0	2	0	2	0	3430	0	2	2	1	0	1	0	1	0	1	0	2	0	0	2	1	0	1	0
OTU 35	0	0	0	0	1	1	1	0	0	0	1	0	0	0	0	0	0	0	1	1	0	0	0	2	0	0	3	1	0	2	1	2	0	0	0	0	0	1	0	0	0	2	2	0	1	1	2	0	0	0
OTU 36	1	0	0	1	0	0	0	0	0	2	0	0	0	0	0	0	0	0	0	1	0	2	5	0	0	0	1	0	0	0	1	2	0	0	0	0	0	0	0	2	0	0	0	0	3	0	0	0	0	2
OTU 37	0	0	0	0	0	0	0	0	0	0	0	1	0	0	0	0	0	0	0	0	0	0	0	0	0	0	0	0	0	0	0	0	0	0	0	0	0	0	0	0	0	0	0	0	0	0	0	2	2	2
OTU 38	0	0	1	0	0	2	1	0	0	0	3	0	0	3322	0	0	2	0	3	418	3	0	0	1	0	0	1	0	0	1	1	0	2	2	0	0	1704	0	0	1	0	0	2	0	0	1	4	489	0	0
OTU 39	0	0	0	0	0	2	0	0	0	0	4696	1	0	0	0	0	0	0	0	0	0	0	0	0	0	0	0	0	0	0	2	0	0	0	0	1	0	0	0	1	1	2	0	0	0	0	1	0	0	1
OTU 40	1	1	0	1	0	1	0	0	2	0	0	0	0	0	0	0	0	0	0	1	0	0	0	3	0	7975	1	1	3	0	0	1	0	0	1	1	0	4	1	0	6	1	0	6	0	2	2	0	3	1
OTU 41	1	0	0	0	0	1	1161	2	0	0	0	1	0	0	0	1	0	0	0	0	0	0	0	0	2	0	0	3	2	2	0	1	1	0	1	0	0	0	1	0	1	0	0	0	0	0	2	3	1	1
OTU 42	184	0	0	0	0	0	0	0	1	0	0	0	0	0	0	0	3	0	0	0	0	1	0	0	0	0	4	0	0	0	2	0	0	0	0	0	0	0	0	2	0	0	0	0	0	0	0	0	0	0
OTU 43	0	0	0	0	0	0	0	0	0	0	0	0	0	0	0	0	0	0	0	0	0	0	0	0	0	0	0	0	0	0	0	0	0	0	0	0	0	0	0	0	0	0	0	0	1	0	0	0	0	0
OTU 44	0	0	0	0	0	1	0	0	0	0	0	0	0	0	0	0	0	0	0	1	0	0	0	0	0	0	0	0	0	0	0	0	0	0	0	0	0	0	0	0	2	1	0	0	0	0	0	0	0	0
OTU 45	1	3	0	1	442	9670	2	1	0	2	1	0	0	1	0	0	1	0	0	0	0	2	0	0	0	1	1	2	0	0	1	0	4	0	2	0	1	0	0	0	0	0	0	0	0	0	4486	1	0	0
OTU 46	2	0	1	1	0	0	0	1	2	0	0	3	0	0	0	0	0	2	1	3791	1	0	1	0	0	0	5	0	0	0	0	0	0	1	0	0	0	0	3	1	0	1	0	1	0	0	0	0	0	0
OTU 47	0	0	0	1	0	0	0	0	0	0	0	0	0	0	1	0	0	0	0	0	0	0	0	1	0	0	0	0	0	0	0	0	0	0	0	0	0	0	0	0	0	2	0	0	0	0	0	0	0	1
OTU 48	329	2	0	1	0	0	1	1	5	0	1	5	1	0	3	3	0	0	0	3	1	4	3	0	5	0	0	0	0	0	2	0	1	0	1	0	0	0	1	4	3	0	1	2	0	0	3	0	0	1
OTU 49	0	0	0	0	0	0	2	1	0	0	1	0	0	0	0	0	0	0	1	0	0	0	0	0	2	0	0	2	0	0	0	0	0	0	0	0	0	0	1	0	0	1	1	1	0	0	0	0	0	0
OTU 50	2	6883	832	0	0	0	0	0	1	1	1	1	0	0	2	0	2	0	0	0	0	0	0	1	0	0	0	1	1	0	0	1	1092	2	0	1	0	0	0	1	0	0	1	0	0	1	0	2	3	3
OTU 51	0	0	0	0	1	0	0	0	1	2	1	1	1	0	0	0	0	0	0	0	0	0	1	1	0	0	0	0	0	0	0	0	1	1	3	0	0	0	1	0	3	0	0	0	0	4	0	0	0	0
OTU 52	1	1	0	0	2	22	8102	1	2	8299	1	3	2	2	4	2	1	1	0	0	2	5	2	2	1	1	3	2	0	4	0	0	0	0	0	9	3	0	0	4	1	0	0	7	0	0	1	0	1	0
OTU 53	0	0	0	0	0	2	0	0	0	0	0	0	0	0	0	0	0	0	0	0	0	0	0	0	0	0	0	0	0	0	0	0	0	0	0	0	0	0	0	0	0	0	0	0	0	0	0	0	0	0
OTU 54	1	7	404	6	4	1	5	0	2	0	3	2	2	1	1	1	4	7	1	3	0	0	4	2	1	0	1	0	2	0	3	1	0	0	0	2	2	0	1	1	0	2	1	2	0	2	1	1	5	2
OTU 55	0	0	0	0	0	0	0	0	0	0	0	0	0	0	0	0	0	0	0	0	0	0	0	0	0	0	0	0	0	0	0	0	0	0	0	0	0	0	0	0	0	0	0	3	0	0	0	0	0	0
OTU 56	0	0	2	0	0	0	0	0	0	0	0	0	0	0	0	4	3	0	0	0	0	0	0	0	0	1	0	2	0	0	0	0	0	1	0	0	0	0	0	0	0	0	0	0	0	0	0	0	0	2
OTU 57	0	6	1877	1	2	0	6	0	0	1	1	0	0	2	0	2	0	1	2	1	2	3	1	2	2	1	2	4	4	1	0	2	2	1	1	4	2	2	1	1	0	2	1	0	5	1630	3	0	1	2
OTU 58	0	0	0	2	1	0	0	0	0	0	1	0	0	0	1	0	1	0	1	2	0	0	0	0	0	1	0	0	0	0	0	0	0	0	0	0	0	0	0	0	0	2	0	0	2	0	1	0	0	0
OTU 59	0	0	1	1	0	1	0	0	0	0	0	0	0	0	0	0	0	1	0	0	0	2	0	0	0	0	2	2	0	0	0	2	0	1	2	0	0	2	0	0	1	0	0	0	1	0	0	0	0	0
OTU 60	5	0	4	1	0	217	4	0	3	1	3	0	1	0	2	0	1	0	0	1	0	1	0	0	1	1645	0	1	0	3	0	1	0	0	3	0	0	0	0	0	0	2	0	1	0	2	0	0	0	0
OTU 61	0	0	4	0	1	0	1	2	0	1	2	0	0	1	2	2	1	1	2	1	0	0	1	1	1	2	1	2	0	1	0	1	1	1	1	0	0	0	3	1	0	0	3	2	4	0	0	1	1	0
OTU 62	0	0	0	0	0	0	0	0	2	0	0	1	0	0	0	2	1	0	0	0	0	0	0	0	1	0	0	0	0	0	0	0	0	2	1	0	0	0	0	1	0	1	2	0	0	0	3	0	0	0
OTU 63	1	0	0	0	0	0	0	1	0	0	0	0	0	0	1	0	0	1	0	0	0	0	0	1	0	0	0	1	1	0	0	0	0	1	0	0	0	0	0	0	0	1	0	0	1	1	0	0	0	0
OTU 64	0	4	6	1	1	5	1	1	1	558	0	2	0	2	1	1	0	4	2	1045	5	0	0	6	0	2	2	1	0	2	4	0	2	6	3	0	2	2	0	7279	0	0	3	1	0	0	1	0	3	0
OTU 65	0	0	0	0	0	0	0	0	0	0	0	0	1	0	0	0	0	0	2	1	0	0	0	0	0	0	0	0	0	0	0	0	0	0	0	0	0	0	0	0	0	1	0	0	0	0	0	0	0	0
OTU 66	0	0	1	0	0	0	1	2	0	1	1	0	0	1	0	0	0	0	1	1	0	1	1	0	0	0	0	0	2	6	2	0	0	0	0	0	0	0	1	2	7	1	2	0	0	1	0	0	0	0
OTU 67	0	1	0	0	0	0	1	1	0	0	0	0	0	2	1	1	0	0	0	0	0	0	0	2	0	0	0	0	0	0	0	0	0	0	0	0	1	0	0	0	1	2	607	0	1	3	1	0	0	0
OTU 68	0	0	0	0	0	0	0	0	0	0	0	6769	0	0	0	1	0	1	0	1	0	0	0	2	0	0	1	0	0	0	0	0	0	0	0	0	0	0	0	0	0	0	0	0	1	2	0	0	0	0
OTU 69	0	0	0	0	0	1	0	0	0	0	2	0	0	0	1	0	10	1	0	1	0	0	0	0	1	0	0	1	0	0	1	0	0	0	2	0	0	0	1	1	0	0	0	0	0	0	3	0	0	0
OTU 70	0	0	0	0	0	0	0	0	1	0	0	0	0	1	0	3	0	0	1	1	0	0	0	2	0	0	0	0	0	0	0	0	0	1	1	0	0	0	0	0	0	0	0	0	0	0	0	0	0	1
OTU 71	0	0	0	0	0	0	0	0	1	0	0	0	0	0	0	0	0	6	0	1	1	0	0	0	0	0	1	137	0	0	0	0	0	0	0	75	0	0	0	0	0	0	0	0	2	0	0	0	0	1
OTU 72	2	3	3	2	0	2	1	0	0	1	0	0	3	2	1	0	0	1	0	0	0	1	0	1	1	1	0	0	0	2	2	1	0	1	3	0	1	1	2	0	2	0	0	462	775	0	2	1	1	2
OTU 73	0	0	0	1	2	1	0	6	1	2	0	1	1	1	0	4	1	0	0	0	0	1	0	0	0	2	2	0	0	1	1	3	0	1	0	0	0	0	0	0	0	0	0	0	0	0	0	0	0	0
OTU 74	0	0	0	0	0	0	0	1	1	0	0	1	0	0	0	1	0	0	1	1	0	0	0	7	34	0	0	1	1	2	0	0	0	0	3	0	0	2	1	0	1	0	1	0	0	2	1	2	4	0
OTU 75	0	0	1	1	0	0	0	1453	0	0	0	0	0	0	0	3	0	0	1	0	1	1	2	0	0	0	0	3979	3	0	0	0	0	0	5	1	0	3	0	0	0	3	2	1	1	0	0	2	0	1
OTU 76	1	0	0	0	2	1	0	0	0	0	0	0	0	0	0	0	0	0	4	0	0	0	0	0	0	0	0	0	0	0	0	0	0	0	0	0	0	0	0	0	0	1212	0	0	0	0	0	0	0	0
OTU 77	0	3	2	0	0	0	0	1	1534	0	0	2	0	0	1	0	0	0	0	0	0	1	0	0	1	0	0	1	0	0	1	4	0	0	0	1	0	0	0	1	0	2	7	2	0	3	0	0	2	0
OTU 78	1	1	0	0	0	1	0	0	5413	0	0	1	5411	0	0	1	0	0	2	1	1	1	2	0	1	0	0	0	2	0	3335	0	0	0	0	2	0	0	0	5	0	1	0	0	0	1	0	0	5621	2
OTU 79	2	6	3	0	2	0	4	2	1	3	1	1	2541	2	0	2	4	1	3	1	3	3	3	2	2	2	3	0	21	0	2	4	0	2	2	1	0	5	2	1	0	1	0	1	3	1	0	6066	2	1
OTU 80	1	0	2	1231	5	0	2	1	1	2	2	0	4	0	0	0	6	4	1	1	1	0	0	3	4	0	0	1	1	0	0	0	1	1	3	0	0	0	0	0	0	0	0	1	0	0	0	0	0	0
OTU 81	0	0	0	0	0	0	0	0	0	1	1	3	2	0	1	3	0	1	0	0	0	0	0	1	0	0	2	3	0	0	2	1	0	0	0	1	0	1	1	992	1	0	1	3	0	0	3	0	211	0
OTU 82	0	1	0	0	0	0	0	0	1	2	0	0	0	0	0	0	0	0	0	0	0	0	0	0	0	0	1	0	0	0	1	8126	0	2	0	1	0	0	0	0	0	1	2	0	1	5641	3	1	1	2
OTU 83	0	0	0	0	3	0	1	1	0	0	0	0	0	0	0	0	0	0	0	0	0	0	0	0	0	0	0	0	0	0	0	0	0	0	0	1	0	0	0	0	1	0	0	1	0	0	0	0	0	0
OTU 84	0	0	0	1	0	0	0	1	0	1	0	1	0	2	0	0	0	2	0	0	0	0	0	0	0	0	2	1	1	1	0	2	0	1	0	0	2	1	0	0	0	1	0	0	0	0	0	0	0	0
OTU 85	0	1	0	0	0	0	1	0	0	0	0	0	0	0	0	0	1	0	0	1	0	0	0	0	0	4	0	2	0	0	2	0	0	0	0	0	0	0	0	0	604	0	0	0	1	0	1	0	1	0
OTU 86	0	0	0	0	3	0	0	0	0	0	1	0	0	0	0	0	0	0	0	0	0	0	0	0	0	0	0	0	0	0	0	0	0	0	0	0	0	0	0	0	0	0	0	0	1	0	0	0	0	0
OTU 87	3	0	4	1	0	0	0	0	0	0	0	0	0	0	1036	0	0	0	0	1	0	2	0	0	1	0	0	0	0	0	0	0	0	0	0	0	0	0	0	0	0	0	0	0	0	0	0	1	0	0
OTU 88	0	0	0	1	0	0	0	0	0	0	0	0	0	0	0	0	0	0	0	0	0	0	0	0	0	0	0	0	0	0	0	0	0	0	0	0	0	0	0	0	0	1	0	0	0	0	0	0	0	0
OTU 89	0	2	0	0	0	0	0	1	0	0	0	0	0	1	2	0	0	1	0	0	0	0	0	0	0	0	0	0	0	0	0	0	0	6	0	4615	0	0	0	3	0	0	0	1	0	0	0	0	0	0
OTU 90	0	0	0	0	0	0	0	0	0	0	0	0	1	1	0	0	0	0	0	0	0	0	0	0	0	0	0	0	0	0	0	0	0	0	0	0	1	0	0	0	0	0	0	0	0	0	0	0	0	0
OTU 91	0	0	0	0	2	0	0	0	0	0	0	0	0	0	0	0	0	0	0	0	0	0	0	0	0	0	0	0	0	0	2	0	0	0	0	0	0	0	0	0	0	0	0	0	0	0	0	0	0	0
OTU 92	0	0	1	0	0	0	0	1	0	0	0	0	0	1	0	0	0	125	0	0	0	0	0	0	1	0	0	0	1	0	0	0	0	0	0	0	0	0	2	1	2	0	1	0	0	0	0	0	0	0
OTU 93	0	0	0	0	1	0	0	0	0	0	0	0	0	0	0	0	0	1	0	0	0	0	0	0	0	0	0	0	0	0	0	0	0	0	0	0	0	0	0	0	0	0	0	0	0	0	0	0	1	0
OTU 94	0	0	0	0	4	0	0	0	1	1	1	0	0	2	0	1	1	0	1	2	0	0	1	9	2	72	0	1	0	0	0	1	0	1	0	0	1	0	1	0	0	0	1	0	1	1	3	1	1	3
OTU 95	0	0	1	0	0	0	0	0	0	0	0	0	0	0	0	0	0	0	1	0	0	0	0	0	0	0	2	0	4	0	0	0	0	0	0	0	0	0	0	0	0	0	0	0	0	0	0	0	0	0
OTU 96	0	0	0	0	0	0	3	0	0	0	0	0	0	0	0	0	0	0	0	0	0	0	0	0	0	0	0	0	0	0	0	0	0	0	0	0	0	0	0	0	1	0	0	0	0	0	0	0	0	0
OTU 97	0	0	0	0	0	0	0	0	0	0	0	0	0	606	0	0	0	0	0	0	0	0	0	0	0	0	0	1	0	0	0	1	2	0	0	0	295	0	0	0	0	0	0	0	0	0	0	0	0	0
OTU 98	1	1	0	3268	1	0	0	0	0	0	0	0	0	0	0	0	1	0	0	0	0	0	0	0	0	0	0	0	0	0	0	0	0	0	1	0	0	0	0	0	0	0	0	0	0	0	3	0	0	0
OTU 99	1	0	0	2	0	3	1	0	1	0	0	0	7	1	2	3	0	3	0	1	0	1	0	0	2	0	2150	4	0	0	0	0	0	1	0	1	0	0	2	6	0	0	1	0	0	0	0	3	1	0
OTU 100	0	0	0	0	0	0	0	4	0	0	0	0	0	0	0	0	0	1	1	0	0	0	2	0	0	0	0	0	199	1	2	1	0	0	1	227	0	2184	1	1	0	0	0	0	0	0	1	0	0	0
OTU 101	0	0	0	0	0	2	0	0	0	0	0	0	0	0	0	0	0	0	0	0	0	0	0	0	0	0	0	0	0	0	0	1	0	0	0	0	0	0	0	0	0	0	0	0	2	0	0	0	1	0
OTU 102	0	0	0	0	0	0	0	1	0	0	0	1	1	1	0	0	0	0	0	0	0	0	1	0	0	0	0	0	0	0	0	0	1	0	0	1	2	1	0	0	0	0	1	0	0	0	0	0	3	0
OTU 103	0	0	0	0	0	0	2	1	810	0	0	0	0	0	0	0	0	0	0	0	0	0	0	0	1	0	0	0	1	0	1	1	0	2	1	0	0	0	0	0	0	0	0	0	0	0	0	1	0	2
OTU 104	2	0	0	0	0	1	3	1	0	1	2	0	0	0	2	0	4	4	4	0	1	0	0	2	792	0	0	1	1	0	1	2	0	2	5	4	0	0	0	1	0	1	1	0	1	0	1	0	1	4
OTU 105	0	0	0	0	0	0	0	0	0	0	0	0	0	0	0	0	0	0	0	0	0	0	0	0	0	0	0	1	0	2	0	0	0	0	0	2	0	0	0	0	0	0	2	0	0	0	0	0	0	0
OTU 106	0	0	0	0	0	1	0	0	0	2	0	0	0	0	0	0	0	0	1	0	0	0	0	0	0	0	0	0	0	0	0	1	0	1	0	0	0	0	0	0	0	0	0	0	0	0	289	0	0	0
OTU 107	0	0	0	0	0	0	600	0	0	5	5	0	1	0	0	0	0	0	0	1	0	500	0	0	0	2	2	1	0	0	0	0	0	0	2	0	0	0	0	0	0	0	0	0	0	0	0	0	0	0
OTU 108	0	0	0	0	0	2	2	0	0	0	2	0	0	3	0	0	0	0	0	0	0	0	0	4	0	0	0	0	1	0	0	2	0	0	1	1	265	0	0	0	0	0	0	1	0	0	0	0	0	0
OTU 109	0	0	0	0	0	0	0	0	0	0	0	0	0	0	0	0	0	0	0	0	0	0	0	0	0	0	0	0	0	0	0	0	0	0	0	0	0	0	0	0	0	0	0	0	0	0	0	0	0	0
OTU 110	1	0	2	1	1	0	0	1	2	1	0	1	0	0	0	0	0	0	0	2	0	0	0	0	0	0	0	0	0	4910	0	3	2577	0	0	1	0	1	0	0	0	0	2	0	0	0	0	0	0	0
OTU 111	0	0	0	0	0	0	0	0	0	0	0	0	0	1	325	0	0	0	0	0	0	0	0	0	0	0	0	0	0	0	0	0	0	0	0	1	1	0	0	0	0	0	0	0	0	0	0	0	1	0
OTU 112	0	1	4	0	1	1	2	0	0	0	0	1	0	0	0	0	0	0	0	0	0	0	1	0	0	0	0	6	0	1	0	0	0	0	0	0	0	0	0	0	0	0	0	0	4	1	0	0	0	0
OTU 113	0	0	0	0	0	3	0	0	0	0	0	0	0	0	0	0	0	0	1	0	0	0	0	0	0	0	0	0	0	0	0	0	0	0	0	0	0	0	0	0	1174	0	0	0	0	0	0	1	0	0
OTU 114	0	3	0	1	1	3	1	1	1	0	0	1	4	0	0	6	0	0	0	0	2634	0	0	0	0	0	0	0	1	0	0	0	2	2	0	1	0	0	1	0	2	3280	4	0	0	1	4	1	2	4
OTU 115	2	4	1	1	0	0	1	0	0	0	0	0	1	0	2	0	0	0	2	0	837	1018	1	7204	3	0	0	1	0	1	1	1	1	0	0	0	0	0	1	3	0	0	0	0	3	2	1777	2	3	52
OTU 116	0	1	0	3	0	0	3	0	0	2	3	0	423	0	0	2	0	0	0	0	0	2	0	0	0	1	0	1	0	0	0	0	3	0	1	0	4009	1	0	1	3	0	0	0	4	0	4	0	0	82
OTU 117	0	3	1	0	1	0	5	0	3	0	1	3	1	5	1	0	2	0	1	0	0	0	0	1	0	0	0	2	0	0	0	3	0	1	1	3	1	0	2	0	1	1	3	0	3	0	0	0	0	0
OTU 118	0	0	0	0	1	0	0	0	0	0	0	0	0	0	0	0	0	0	0	0	0	0	0	0	4	0	2	0	0	0	0	0	0	0	0	0	0	0	0	0	0	0	0	0	0	0	1	0	0	1
OTU 119	0	1	0	5382	0	0	0	1	1	1	1	0	0	0	1	0	0	0	2	0	1	0	1	0	0	2	0	0	0	0	0	1	0	8	0	1	0	4	4	1	2	1	1	0	0	0	0	0	0	0
OTU 120	0	0	0	0	0	0	0	0	0	0	0	1	0	0	0	0	0	0	1	1	0	0	0	0	0	0	0	0	0	0	0	0	0	0	3	0	0	0	1	0	3	0	1	0	3	1	0	0	0	0
OTU 121	2	0	2	0	0	0	0	1	0	1	0	0	0	0	1	1	0	1	0	0	0	0	0	0	3	0	0	0	6	1	1	0	2	0	0	0	0	5	2	2	0	0	0	1	0	0	1	0	0	2
OTU 122	0	1	0	0	0	1	0	0	0	0	1	0	0	0	1	0	1	0	0	2	0	0	0	0	2	0	1	0	4	1003	0	0	0	0	2	0	0	0	0	0	0	0	0	0	0	0	1	1	3	0
OTU 123	2	5	6049	1	0	4	3	4	1	2	2	0	3	2	1	8	3	5	2	6	2	6	664	2	7	2	2	4	4	0	1	1578	0	2	0	1	0	4	3	2	2	4	1678	4	0	0	7	247	1	0
OTU 124	2	0	0	1	4	0	0	0	0	0	0	0	0	0	0	0	0	0	0	0	0	0	0	0	0	0	4	0	0	0	0	0	0	0	1	0	0	0	0	0	0	0	0	0	1	0	0	0	0	0
OTU 125	2	1	0	0	176	2	3	3	0	1	2	1	1	1	2	2	1	0	0	3	3	2187	2	6	1	2	0	7	2927	467	1	0	1	1	2	3976	0	2	655	1	0	2	7	0	1	3	5	0	2	2
OTU 126	1	0	3	0	0	0	0	0	0	1	0	2	0	1	0	0	0	0	0	0	0	0	0	0	0	0	0	0	0	0	0	0	3	0	2	0	0	0	0	0	0	1	0	0	0	0	0	0	0	0
OTU 127	0	0	0	0	0	3	2	1	1	0	0	0	0	0	2	0	0	1	1	0	1	0	0	0	4	0	0	0	0	0	0	0	1856	1	0	0	0	0	0	0	0	0	0	0	1	0	0	0	0	0
OTU 128	2	3	1	0	6	1	2	2	0	1	2	4	1	1	1	4	4	0	2	4	0	1	2	6	4	1	378	4	2	6	3	2	2	3	0	9	1	3	1	1	3	3	3	1	1	4	1	4	0	8534
OTU 129	0	0	0	0	0	0	0	0	0	0	0	0	0	0	0	0	1	0	0	0	0	0	0	0	1	1	1	0	0	2	0	0	0	0	0	0	0	0	0	0	0	0	0	0	0	5	1	0	0	3
OTU 130	0	0	0	0	0	0	0	0	0	0	0	0	0	0	0	0	0	0	0	0	0	0	1	0	1	0	0	2	0	2	0	0	2	4	0	0	0	1	0	0	0	1	0	0	1	2	0	0	5	0
OTU 131	0	0	2	0	1	0	0	0	0	0	1	2	1	0	0	0	0	0	0	0	0	0	0	0	0	0	0	0	1	1	0	0	1	0	0	0	0	0	1	0	0	0	0	1	0	537	2	0	0	0
OTU 132	0	0	0	0	0	2	0	0	3	0	0	0	2	2	0	0	1	0	1	0	0	0	1	0	0	0	0	0	1	0	1	0	0	0	7761	2	3	0	1	1	0	0	0	0	5676	0	1	0	0	1
OTU 133	2	0	0	0	0	0	0	0	0	1	0	0	0	0	0	0	0	0	0	0	0	1	0	0	0	0	0	0	0	0	0	0	0	0	0	0	0	0	0	0	0	0	0	1	0	0	0	0	0	0
OTU 134	1	0	0	0	0	0	3	0	1	0	0	0	0	0	0	0	3	0	0	0	0	0	1	0	0	1	0	0	0	4	0	10	1	1	0	0	0	0	1	2	1	0	0	0	2	0	1	8	0	0
OTU 135	0	0	0	1	1	1	0	0	0	0	1	0	0	0	0	0	1	0	0	0	0	3	0	1	1	0	0	1	0	0	1	0	0	0	1	0	0	3	0	1	0	0	0	0	0	0	1	0	0	0
OTU 136	0	0	1	1	0	0	0	0	0	0	0	1	0	1	0	0	0	0	0	0	0	0	2	0	0	2	0	0	0	0	1	1	0	0	0	0	0	0	2	0	0	0	0	0	0	2	0	0	0	1
OTU 137	3	0	0	0	0	0	0	0	0	1	0	0	0	0	0	0	3	0	0	0	0	3	0	0	0	0	0	0	0	561	0	0	0	0	0	2	0	0	0	0	0	0	0	0	0	0	1	0	0	0
OTU 138	0	2	0	0	3	0	0	0	0	1	0	0	1	0	0	0	0	0	0	0	0	0	0	0	0	0	0	0	0	0	0	0	0	0	4	0	0	0	0	0	0	0	1	0	0	0	0	0	0	0
OTU 139	2	0	0	0	3	0	4	0	6	0	0	2	0	1	2	1	0	1	1	1	4	3	2	2	0	2	2	0	0	0	1	1	1	2348	0	0	0	1	451	2	3	0	8	0	0	0	1	3	1	0
OTU 140	1	4	2	3	4	0	1	0	1860	3	1	0	0	1	1	1	2	2	8	2	3	1	1	4	2	1	0	0	5	3	2	5	0	2	0	0	1	3	1	1	0	1	6546	1	1398	0	3	3	0	0
OTU 141	0	0	0	0	0	0	0	0	0	0	0	0	0	0	0	0	0	0	0	0	0	0	0	0	0	0	0	0	0	0	0	0	0	0	0	0	0	0	0	0	0	0	0	0	0	0	0	0	0	0
OTU 142	0	0	0	0	0	0	0	0	0	0	0	0	0	0	0	0	0	0	0	0	0	0	0	0	0	0	0	0	0	0	0	0	0	0	0	0	0	0	1	0	0	0	0	0	0	0	0	0	0	0
OTU 143	0	0	0	0	0	0	0	0	0	0	0	0	0	0	0	0	0	0	0	0	0	0	0	2	0	0	1	2	0	1	0	1	0	0	0	0	0	1	0	1	0	4102	0	1	0	0	0	0	0	0
OTU 144	0	0	0	0	2	0	0	0	0	0	0	0	0	0	1	0	0	0	0	0	0	0	0	0	0	0	0	0	0	1	0	0	0	1	0	0	0	0	0	0	6478	0	0	0	0	1	0	2	1	0
OTU 145	0	0	1	4	0	0	0	0	0	1	0	1	1	1	0	0	0	3	1	0	1	1	0	1	1	1	0	0	0	2	2	1	2	2	2	2	1	0	1	0	0	0	1	9109	4	1751	3	0	0	0
OTU 146	0	0	0	5	0	0	0	1	1	0	1358	0	0	2	1	0	0	0	2	4260	1	1	0	0	1	0	0	0	2	2	1	2	1	5	1	0	0	0	2	1	1	3	0	0	0	0	0	1	1	0
OTU 147	0	4	0	0	0	1	0	0	0	0	0	0	0	0	0	0	0	0	0	1	0	0	0	0	0	0	0	0	0	0	0	2	0	0	0	0	0	0	0	0	0	0	0	0	0	0	0	0	0	1
OTU 148	0	0	0	0	1	0	0	2	0	1	0	0	3	0	1	0	1	0	0	1	0	1	0	0	0	0	0	0	0	0	0	0	0	0	0	2	0	0	0	0	1	0	3	1	1	1	0	0	0	0
OTU 149	0	0	0	0	2	0	0	0	1	354	0	1	0	0	1	0	1	0	0	1	0	1	1	1	0	0	1	2	2	1	3	1	5	1	0	0	0	0	0	0	0	0	0	1	0	2	0	0	0	0
OTU 150	0	0	0	0	0	0	0	0	0	0	0	0	0	0	0	0	0	0	0	0	0	0	0	0	0	0	5	0	0	0	0	0	1	0	0	1	0	3	0	0	0	0	1	23	0	0	0	0	0	0
OTU 151	0	0	0	0	0	2	0	1	2	0	1	0	0	1	1	1	0	0	1	0	1	0	0	189	0	0	0	0	0	1	0	0	2	1	0	1	0	0	1	0	1	0	0	4	0	0	0	0	0	0
OTU 152	0	0	0	1	1	1	0	0	0	0	1	2516	0	1	0	0	3	0	0	2	0	0	0	2	0	0	0	0	0	1	1	0	0	0	0	0	0	2	0	0	0	1	0	0	0	0	4	2	0	0
OTU 153	0	1	0	0	0	0	0	0	0	0	0	0	0	0	0	1	0	0	0	0	0	0	0	0	0	0	0	0	1	0	0	0	0	0	0	0	0	3	0	4	0	0	0	0	0	0	0	0	1	0
OTU 154	0	0	0	0	0	0	0	0	0	0	0	0	0	0	0	0	0	0	0	1	0	0	0	0	0	1	1	1	0	0	0	0	0	0	0	0	0	0	0	1	0	0	1	0	1	1	0	0	0	0
OTU 155	0	0	0	0	0	0	0	0	1	1	0	1	0	0	1	0	1	1	1	0	0	0	0	0	0	0	0	2	0	0	0	0	0	0	0	0	0	5	0	3	1	0	1	0	0	0	2	0	1	0
OTU 156	1	0	1	0	0	0	3	0	1	3	0	2	0	2769	1682	4956	0	1	2	1	0	0	0	0	0	0	0	1	0	1	4	0	2	0	1	7	1364	1	2	0	0	0	0	2	0	0	1	1	1	0
OTU 157	0	0	0	0	0	0	2	0	0	0	0	0	1	0	0	0	0	0	0	1	2	0	0	0	0	2	0	1	0	0	0	0	0	0	0	0	0	0	0	0	0	0	0	0	0	0	0	0	0	0
OTU 158	0	0	0	0	0	0	2	0	0	0	0	0	1	0	0	0	0	0	0	0	0	0	0	0	0	0	0	0	0	0	0	0	0	1	0	0	0	0	0	0	0	0	0	0	0	0	0	0	0	0
OTU 159	0	0	0	1	0	0	0	0	1	1	0	0	0	0	1	0	1	0	1	0	0	0	2	0	0	0	0	0	0	2	0	0	0	3	0	2	0	0	0	0	0	1	0	0	0	0	0	0	2	0
OTU 160	0	0	0	0	3	0	0	0	1	1	0	4	6	2	0	1	0	2	1	1	2	0	2	1	0	0	1	1	2	2	0	1	0	0	0	1	0	3	0	0	2	1	0	1	2	0	0	0	4	1
OTU 161	0	0	0	15	0	0	0	2	0	0	882	0	0	2	1	3	0	0	2	0	0	0	0	0	1	5	0	1	0	0	1	0	0	0	0	1	1	0	1	0	0	0	691	0	0	0	0	0	1	0
OTU 162	1020	0	0	0	0	0	0	0	0	0	0	5	0	0	0	1	0	1	0	0	1	2	0	0	1	2	2	0	1	2	0	0	0	1	0	0	0	0	0	1	0	1	1	1	0	0	0	0	0	0
OTU 163	0	0	0	1	0	0	0	0	0	0	0	0	0	0	0	0	0	0	0	0	0	0	0	0	0	0	2	0	0	0	0	0	0	0	0	0	0	0	0	0	0	0	0	0	0	0	0	0	0	0
OTU 164	0	0	0	0	0	0	0	0	0	0	0	0	0	0	0	0	0	0	0	0	0	0	0	0	0	0	0	0	0	0	0	0	0	0	0	0	0	0	0	0	0	0	0	0	0	0	0	0	0	0
OTU 165	0	0	0	0	0	1	2	0	0	2	1	0	1	0	2	0	0	0	0	0	1	0	0	0	0	0	0	0	1	0	2	0	0	0	0	0	0	0	3	0	0	0	0	0	5	0	1	0	1	0
OTU 166	0	0	0	0	0	0	0	1	0	0	0	0	0	0	0	0	0	0	0	0	0	0	0	0	0	0	0	0	0	0	0	0	0	0	0	0	0	0	0	0	0	0	0	0	0	0	0	0	0	0
OTU 167	0	0	1	0	0	0	0	0	0	0	0	0	0	0	0	1	0	0	0	0	0	0	0	0	0	0	0	0	0	0	1	0	0	0	0	0	0	0	0	0	0	0	1	0	1	1	1	0	0	0
OTU 168	0	0	2	0	0	2	1	0	0	0	0	359	0	8	2	1	8139	0	0	1	1	1	0	1	0	0	1	3	1	3	1	1	0	0	5	1	4	0	0	0	1	1	1	0	1	0	0	0	0	0
OTU 169	0	0	0	0	0	0	0	0	0	0	0	0	0	0	0	0	0	0	0	0	0	0	0	0	0	0	0	0	0	0	0	0	0	0	0	0	0	0	0	0	0	0	0	0	0	0	0	0	0	0
OTU 170	0	0	0	0	0	0	0	0	0	0	0	0	0	0	0	0	0	0	0	0	0	0	0	0	0	0	0	0	0	0	0	0	0	0	0	0	0	0	0	0	0	0	0	0	0	0	0	0	0	0
OTU 171	0	0	1	0	0	0	0	0	0	0	0	0	1	0	0	1	2	1838	7069	1	0	0	0	0	0	0	0	0	1	0	0	0	1	0	0	0	0	0	0	0	1	0	0	0	0	0	2	5	0	0
OTU 172	0	0	6	0	0	0	0	0	0	0	0	0	0	3	0	0	0	0	0	0	1	0	0	0	0	0	0	0	0	0	0	0	0	0	0	0	1	0	0	0	0	0	0	0	0	0	0	0	0	0
OTU 173	0	0	0	0	0	0	0	2	0	0	1	0	0	0	0	0	2	0	0	0	0	0	0	0	1	0	0	1	0	2	0	0	0	0	0	0	0	0	0	2	0	0	0	3	0	0	0	0	0	1
OTU 174	0	0	0	0	0	2	1	2	0	0	0	1	0	1	1	1	1	1	0	0	0	0	0	0	0	1	1	0	0	0	0	0	0	0	0	0	1	0	0	0	2	1	0	0	0	0	0	0	0	0
OTU 175	0	0	2	1	0	0	0	0	1	0	0	3	1	0	0	0	2	0	0	3	1	0	0	0	2	0	0	0	0	1	0	42	0	3	0	0	0	0	0	0	0	0	0	0	1	0	0	0	0	0
OTU 176	0	0	0	1	0	2	0	0	0	0	0	2	1	0	0	3	1	0	0	0	0	3	3	0	0	0	7165	0	3	5	0	2	0	1	0	6	152	1	5	0	0	0	0	0	0	2	0	2	1	0
OTU 177	1	0	0	0	0	0	0	0	0	0	0	0	2	1	0	0	0	0	1	0	3	1	0	2	2	3	0	2	0	1	0	1	2	0	0	3	1	2	0	0	1	1	2	0	0	1	0	0	0	0
OTU 178	0	0	0	0	0	0	0	0	1	0	0	0	2	1	0	0	1	0	0	0	1	0	0	56	1	0	1	0	0	0	0	0	1	0	0	0	1	1890	0	0	0	1	1	0	2	0	0	0	1	5
OTU 179	0	0	0	1	8	0	0	1	2	0	0	1	0	0	0	0	0	0	0	3	0	0	0	0	0	0	0	0	0	0	0	0	0	0	0	0	0	0	0	1	0	1	0	0	0	1	0	0	0	1
OTU 180	2	8	1	1	1	4	0	1	0	6	3	1	0	1	3	1	0	0	1	0	4243	1	1	3	2	0	0	1	2	6	2	5	0	3	0	3	0	1	2	3	1	1	4	1	0	0	0	2	2	2
OTU 181	1	2439	0	0	1	0	0	0	0	1	0	0	1	0	0	0	0	0	0	0	0	1	2107	0	0	0	0	1	1	0	0	0	0	0	4	0	0	0	0	0	1	0	0	0	0	0	0	0	0	0
OTU 182	0	0	0	0	0	0	0	0	0	0	0	0	0	0	0	0	0	0	0	0	0	0	0	0	0	0	0	0	0	0	0	0	0	0	0	0	0	0	0	0	0	0	0	0	0	0	0	0	0	0
OTU 183	0	0	1	0	0	0	4	0	1	0	0	0	1	0	0	0	0	0	1	0	0	0	3	3	0	0	0	0	2	0	0	0	191	1	0	0	0	0	0	0	0	0	0	0	0	0	0	2	0	0
OTU 184	0	0	3	0	0	0	0	3	0	0	0	1	0	1	0	0	3	0	0	0	0	0	0	539	8412	1	1	0	1	0	0	0	2	0	0	0	0	0	3	1	0	0	0	2	1	0	0	1	0	0
OTU 185	1	0	0	1	3	0	0	1	0	480	3	2	0	1	2	1	1	5	1	0	0	0	0	0	0	2	0	0	0	1	0	0	0	3	4	0	2	0	0	0	1	0	1	1	0	0	0	0	0	0
OTU 186	0	0	0	0	0	0	0	2	0	0	2229	0	0	0	0	0	2	1	0	0	0	0	0	1	0	0	0	0	2	1	0	0	0	0	0	0	0	0	0	0	0	0	0	0	0	1	0	0	0	0
OTU 187	1	0	0	0	3	1	5	1	3	2	1	0	0	1	3	6	0	4195	0	1	0	2	0	0	0	3	0	1	0	0	3	0	2	3	2	3	415	3	3	2	0	1	2	1	0	1	0	1	3621	0
OTU 188	8124	2	0	0	0	0	2	2	3	1	0	145	0	0	3	1	0	1	0	0	1	1	2	3	0	0	1	0	0	1	7	0	4	0	1	0	0	0	4	0	10	2	0	2	1	1	1	2	0	0
OTU 189	1	0	0	0	1	2	0	0	0	0	0	0	0	1	0	280	527	3	0	1	2132	2	2	0	1	0	1	0	0	1	4	0	0	0	0	0	0	2	0	0	1	0	0	1	0	1	2	2	2	0
OTU 190	0	0	0	0	0	0	0	0	0	0	0	0	1	0	0	0	0	0	0	0	0	0	0	1	0	0	0	2	0	0	0	0	0	0	0	0	0	0	1	0	0	0	0	0	0	0	0	0	0	0
OTU 191	0	1	0	1	2	0	1	0	1	0	0	1	0	0	0	2954	1	0	1	3	1	4	0	0	0	3	0	0	0	1	0	0	0	0	0	0	0	1	1	815	1	0	0	0	0	0	0	0	5	1
OTU 192	0	334	0	2	1	0	0	0	1	1	0	0	0	0	1	1	0	0	0	0	1	0	0	0	10	2	0	2	1	2	5	0	1	2	1607	0	0	3	0	1	0	0	0	6	2	0	1	1	1	3
OTU 193	2	0	1	2	0	1	0	0	0	0	0	2	0	0	0	0	2	2	3	0	1	0	0	0	0	0	0	0	0	0	1	2	2	0	1	0	0	0	1	0	0	0	0	0	1	0	0	0	0	0
OTU 194	0	0	0	1	0	0	0	0	0	1	0	0	0	0	2	0	0	1	0	0	0	1	0	0	0	0	0	0	0	0	0	1	0	0	4	0	0	0	0	0	1	0	0	0	0	1	0	0	0	0
OTU 195	0	0	1	0	0	0	0	1	0	0	0	0	0	0	0	2	0	1	0	0	0	0	0	0	0	0	0	0	2	0	1	0	3	0	278	2	0	1	1	0	0	0	0	0	0	0	0	1	0	0
OTU 196	1	0	0	1	0	1	0	0	0	0	0	0	0	0	0	2	0	0	0	0	0	0	4	0	2	0	1	0	0	0	0	0	0	0	1	0	0	0	0	0	0	1	0	0	0	0	0	0	2	1
OTU 197	0	0	0	3	2	1	2	1	1	1	2	1	0	0	4964	2	1	1	2693	2	1	4	2	13	7	0	0	3	1	0	3	1	5	2	0	0	0	0	0	0	0	2	0	0	0	1	1	0	0	1
OTU 198	0	0	0	0	0	0	0	0	0	0	0	0	0	3	0	0	0	0	0	1	0	0	0	0	1	0	0	0	0	0	0	0	0	0	0	2	2	0	0	0	0	0	0	0	0	0	0	0	0	0
OTU 199	0	0	0	0	3	0	0	0	0	0	0	0	0	0	0	0	0	0	107	0	0	0	0	0	0	0	0	0	1	0	2	2	0	0	0	0	0	1	1	1	0	0	0	0	3	0	0	0	3	0
OTU 200	0	0	0	0	1	3	1	1	0	0	1	0	0	1	0	0	0	0	1	0	1	0	0	0	0	1	0	1	2	0	0	1	0	0	0	1	0	0	0	0	0	2	2	0	5	0	0	0	4	0
