	Host 1	Host 2	Host 3	Host 4	Host 5	Host 6	Host 7	Host 8	Host 9	Host 10	Host 11	Host 12	Host 13	Host 14	Host 15	Host 16	Host 17	Host 18	Host 19	Host 20	Host 21	Host 22	Host 23	Host 24	Host 25	Host 26	Host 27	Host 28	Host 29	Host 30	Host 31	Host 32	Host 33	Host 34	Host 35	Host 36	Host 37	Host 38	Host 39	Host 40	Host 41	Host 42	Host 43	Host 44	Host 45	Host 46	Host 47	Host 48	Host 49	Host 50	
OTU 1	10	13	5	0	2	0	3	5	0	9	0	10	9	5	14	7	2	11	0	0	2	6	2	0	0	3	4	4	1	6	0	14	4	0	0	1	0	6	6	2	22	3	1	4	0	6	0	3	0	3
OTU 2	0	0	0	0	0	0	0	0	3	0	0	0	0	0	0	0	0	0	2	0	0	1	0	5	0	1	0	0	0	1	3	5	0	0	0	1	1	0	0	2	0	0	0	0	0	3	1	0	0	0
OTU 3	1	0	0	0	0	0	0	0	0	0	1	4	0	0	0	0	0	0	0	2	0	0	1	5	0	0	0	0	0	0	0	0	1	0	0	0	0	1	0	0	0	0	0	0	0	0	1	0	0	0
OTU 4	0	0	0	0	0	0	0	0	0	0	0	0	0	0	0	0	0	0	0	0	0	0	0	0	0	0	0	0	0	0	0	0	0	0	0	0	0	0	0	0	0	0	0	0	0	0	0	0	0	0
OTU 5	7	15	1	15	0	7	8	43	6	21	15	12	5	2	5	29	0	6	8	1	15	30	21	7	1	17	2	6	19	32	0	8	11	15	44	16	2	1	2	45	45	20	10	1	11	11	49	2	2	6
OTU 6	0	0	1	0	1	1	0	0	0	2	0	0	2	1	0	0	0	0	8	0	0	3	0	0	2	1	2	2	0	0	2	0	2	1	0	1	0	0	0	0	0	0	9	1	2	1	2	5	1	0
OTU 7	1	7	0	1	1	17	0	1	4	1	5	0	1	3	0	2	0	1	3	0	2	2	6	1	5	0	12	2	8	3	14	1	2	1	5	0	4	3	5	1	0	2	0	0	4	6	51	103	7	1
OTU 8	1	2	2	0	1	1	7	0	42	3	0	1	1	0	2	1	2	0	1	0	6	1	0	1	4	9	1	2	11	2	1	19	5	5	1	0	21	1	18	4	0	2	1	3	0	20	1	1	1	12
OTU 9	2	0	0	4	0	2	1	0	9	0	0	2	0	0	0	2	0	0	0	0	3	0	2	0	0	0	4	0	0	0	0	0	1	0	1	1	0	2	0	1	1	0	0	0	0	0	1	0	0	0
OTU 10	0	0	1	0	0	0	0	0	0	1	0	0	0	1	0	0	0	0	0	0	0	0	0	3	0	0	0	0	0	0	0	0	2	1	0	0	0	0	0	0	2	0	0	0	0	1	0	0	12	1
OTU 11	0	2	1	3	0	0	0	4	0	0	1	3	0	0	0	0	0	0	0	4	0	0	0	8	0	1	0	0	1	3	0	3	7	8	0	4	0	6	2	1	0	0	0	0	1	0	1	3	2	141
OTU 12	1	1	2	0	2	0	0	2	1	0	1	3	2	4	0	0	3	0	5	0	3	1	1	1	0	4	1	0	0	2	7	5	1	5	2	0	5	1	2	1	0	1	0	1	0	0	0	0	4	0
OTU 13	0	1	0	0	0	0	1	3	0	0	0	0	0	0	0	0	0	0	0	0	0	0	0	0	0	0	0	0	0	0	0	0	0	0	0	0	0	0	1	0	0	0	0	0	0	0	0	0	0	0
OTU 14	0	0	1	0	0	0	0	0	0	0	0	0	2	0	0	0	0	0	0	0	0	0	0	0	0	0	0	0	0	0	0	0	2	0	0	0	1	0	1	8	0	0	0	0	0	0	1	6	2	0
OTU 15	0	0	0	0	0	0	0	0	0	0	0	0	0	0	0	0	0	0	0	0	0	0	2	0	0	0	0	0	0	0	0	0	0	0	0	0	0	0	0	0	0	0	0	0	0	0	0	0	0	0
OTU 16	0	0	0	0	0	0	0	0	0	0	0	0	0	0	0	0	0	0	0	0	0	0	0	0	0	0	0	0	0	0	0	0	0	0	0	0	0	0	0	0	0	0	0	0	0	0	0	0	0	0
OTU 17	3	0	0	0	0	0	2	8	0	5	0	21	1	5	6	24	0	0	0	3	0	0	0	0	0	1	0	1	1	23	0	0	1	0	0	0	2	0	0	1	44	1	1	0	9	0	4	1	3	0
OTU 18	5	1	0	2	3	0	0	0	11	0	1	0	0	5	4	0	1	2	2	2	0	0	1	5	4	0	3	1	0	1	0	0	0	8	4	2	1	0	0	1	0	1	3	0	1	8	0	2	2	2
OTU 19	0	0	0	0	0	0	0	0	0	0	0	0	0	0	0	0	0	0	0	0	0	0	0	0	0	0	0	0	0	0	0	0	0	0	0	0	0	0	0	0	0	0	0	0	0	0	0	0	0	0
OTU 20	1	35	13	0	0	0	0	0	7	1	3	0	2	1	4	0	2	0	0	14	0	2	3	8	6	0	0	2	2	2	0	0	2	3	2	0	3	4	0	2	1	0	4	8	3	4	2	48	4	0
OTU 21	1	2	4	1	3	0	0	0	8	2	1	6	0	0	0	1	0	0	0	0	0	0	2	1	0	1	0	2	0	1	0	2	3	3	4	2	1	2	8	2	0	0	0	0	2	5	0	0	0	4
OTU 22	1	2	0	0	0	0	0	3	3	4	1	0	0	1	0	0	1	0	3	0	1	0	0	5	20	0	4	0	1	0	1	0	0	1	0	0	0	3	1	2	0	0	1	0	4	1	1	1	2	0
OTU 23	0	1	0	0	2	0	0	0	0	0	0	0	0	1	0	0	0	147	0	0	1	1	0	1	0	0	0	0	0	2	0	0	0	1	0	1	0	1	0	0	2	1	1	1	1	0	0	1	5	2
OTU 24	0	6	0	4	5	0	0	0	0	0	0	0	0	6	0	0	2	0	1	0	0	0	10	0	0	0	0	1	4	0	0	0	3	1	3	5	3	10	0	0	0	2	0	0	0	2	0	0	9	0
OTU 25	0	0	0	0	0	0	0	0	0	0	0	0	0	0	0	0	0	0	0	0	0	0	0	0	0	0	0	0	0	0	0	0	0	0	0	0	0	0	0	0	0	0	2	0	0	0	0	0	0	0
OTU 26	0	0	0	0	1	0	0	0	2	0	0	0	0	0	0	0	0	3	0	0	0	0	2	0	0	0	0	0	0	0	0	0	0	0	1	0	0	3	0	0	0	1	0	0	0	0	0	1	0	0
OTU 27	0	0	0	0	0	0	0	0	1	0	0	0	0	0	0	0	0	0	0	0	0	0	0	0	0	0	0	0	0	0	0	0	0	0	0	0	0	0	0	0	0	0	0	1	1	0	0	0	0	0
OTU 28	4	1	2	0	0	1	1	0	0	1	0	19	1	0	15	0	0	2	0	2	1	1	0	5	0	0	1	0	2	0	8	1	5	7	0	0	3	4	0	5	0	0	2	2	0	0	4	0	0	4
OTU 29	2	0	2	0	1	1	1	0	0	1	2	1	0	0	1	0	0	0	1	0	1	1	3	2	5	0	2	0	8	5	3	0	2	6	3	2	78	1	0	1	0	1	2	0	3	9	2	4	1	0
OTU 30	0	0	0	0	0	0	0	0	0	0	0	0	0	1	0	0	0	0	0	0	0	0	0	0	0	0	0	0	0	0	0	0	0	0	0	0	0	0	0	0	0	0	0	0	0	0	0	0	0	0
OTU 31	0	0	5	0	0	0	0	1	0	0	2	0	0	0	0	1	1	0	2	0	0	2	0	1	5	0	0	0	0	0	0	0	0	0	0	0	0	0	0	0	0	0	0	1	0	3	1	0	2	0
OTU 32	0	0	1	0	2	0	0	1	0	1	2	1	0	5	0	1	1	0	0	30	2	1	2	1	5	0	5	2	0	1	12	2	0	3	1	1	0	1	7	11	0	2	3	0	0	0	0	0	0	6
OTU 33	0	0	0	0	0	0	0	0	0	0	0	0	0	0	0	0	0	0	0	0	0	0	0	0	0	0	0	0	0	0	0	0	0	0	0	0	0	0	0	0	0	0	0	0	0	0	0	0	0	0
OTU 34	1	1	0	0	0	0	2	1	0	2	0	1	0	5	2	0	0	0	0	0	0	0	51	1	4	1	1	0	8	0	4	4	0	1	4	50	5	0	0	0	2	0	0	0	1	0	0	0	0	0
OTU 35	0	0	2	0	0	0	1	1	0	0	0	0	0	1	0	1	1	0	69	0	2	0	0	1	4	9	0	2	1	3	14	3	0	1	2	0	8	0	5	0	4	0	1	0	4	0	0	2	4	3
OTU 36	2	6	0	1	0	0	0	0	24	0	2	0	0	5	0	0	3	0	0	0	0	0	9	1	5	0	0	2	0	0	0	0	4	0	0	0	2	0	0	0	0	19	0	0	0	1	0	1	2	2
OTU 37	0	0	1	0	0	0	0	1	0	0	0	0	0	4	0	0	1	0	0	0	0	0	1	0	0	4	0	0	0	0	0	1	0	1	0	0	0	1	0	2	0	0	0	0	0	0	5	1	0	0
OTU 38	0	3	4	0	35	3	0	0	2	4	0	1	0	0	0	6	0	0	2	0	0	3	1	0	3	0	0	0	2	2	3	0	6	0	2	14	0	2	0	1	3	20	1	0	0	0	0	0	9	0
OTU 39	0	0	0	0	0	0	0	0	0	0	2	0	0	1	0	1	0	0	0	0	0	0	0	0	0	0	0	0	1	0	0	0	0	1	0	0	0	0	0	0	0	0	0	1	3	2	0	0	0	0
OTU 40	0	0	0	0	1	1	2	0	0	4	0	0	0	11	2	2	5	1	6	0	11	0	0	1	1	0	2	10	4	1	4	0	6	0	0	0	0	4	3	13	0	1	12	2	1	3	0	0	0	0
OTU 41	0	0	0	0	0	1	0	2	1	0	1	0	0	0	0	0	0	0	0	1	3	0	0	0	1	0	1	0	0	2	0	0	0	6	0	0	0	1	0	0	0	0	0	0	2	1	1	1	0	3
OTU 42	1	0	5	0	0	0	0	0	0	0	0	0	0	2	3	0	0	2	0	3	0	0	0	1	0	0	1	0	0	0	0	0	0	1	1	1	0	0	0	0	0	0	0	0	0	0	0	0	1	0
OTU 43	0	0	0	0	0	0	0	0	0	0	0	0	0	0	0	0	0	0	0	0	0	0	0	0	0	0	10	0	0	0	0	0	0	0	0	0	0	0	0	0	0	0	0	0	0	0	0	0	0	0
OTU 44	0	0	0	0	0	0	0	0	0	0	11	0	0	0	0	0	0	0	0	0	0	0	0	0	0	0	0	0	0	0	0	0	0	0	0	0	0	0	0	1	0	0	0	0	0	0	1	0	0	0
OTU 45	40	0	2	0	0	0	4	1	1	1	2	4	18	4	69	1	0	26	1	1	4	0	0	0	1	1	5	2	2	0	0	0	1	0	0	0	0	2	1	0	0	0	5	1	0	1	0	1	1	0
OTU 46	0	7	0	30	149	0	0	2	0	4	5	0	1	0	1	0	0	1	2	1	1	3	0	0	0	0	2	1	0	0	13	1	3	0	0	72	1	0	0	1	2	66	0	1	2	1	1	0	6	0
OTU 47	0	1	0	0	0	3	0	0	0	0	3	0	1	0	0	0	0	0	0	1	0	0	0	0	0	0	2	0	1	0	0	2	4	0	0	0	0	0	0	0	0	0	0	0	0	1	0	0	0	0
OTU 48	2	4	2	92	4	0	85	0	0	1	0	0	0	2	8	0	2	6	1	0	0	0	6	1	0	0	2	3	2	1	5	3	0	1	1	0	0	3	0	2	0	0	0	1	0	0	4	1	4	0
OTU 49	4	0	0	0	0	0	0	0	0	0	2	0	0	6	2	0	1	4	0	0	0	1	0	1	5	0	0	1	3	1	0	0	0	0	0	0	2	0	10	45	0	0	0	0	2	0	5	0	0	1
OTU 50	2	0	3	2	1	0	1	0	4	0	3	1	0	0	1	0	0	3	4	0	2	0	1	4	2	0	0	2	0	1	5	1	0	1	3	0	0	4	1	3	0	1	0	0	1	4	5	0	15	0
OTU 51	0	3	0	0	0	0	0	0	0	0	1	0	1	1	0	0	0	1	0	10	1	3	0	4	5	1	6	1	0	0	0	6	0	3	0	61	1	2	0	1	3	0	0	0	3	0	1	0	0	0
OTU 52	2	5	5	27	22	1	4	0	1	0	6	1	0	2	0	0	0	1	0	1	4	1	17	5	8	6	3	1	1	4	5	20	4	2	38	7	6	51	0	1	1	9	2	1	12	10	2	10	1	0
OTU 53	0	0	0	0	0	0	0	0	0	0	0	0	0	0	0	0	0	0	0	0	0	0	0	0	0	0	0	0	0	0	0	0	0	0	0	0	0	1	0	0	0	0	0	0	2	0	0	0	2	0
OTU 54	35	5	1	1	7	142	0	1	13	2	1	1	71	25	2	0	11	0	1	2	2	1	3	5	4	0	0	1	1	0	3	1	0	4	0	1	3	5	0	2	1	3	4	0	25	0	0	0	2	1
OTU 55	0	0	0	0	0	0	0	0	0	0	1	0	0	0	0	0	0	0	0	0	0	0	0	0	0	0	0	0	0	0	0	0	0	0	0	0	2	0	0	0	0	0	0	0	0	4	0	0	0	0
OTU 56	0	0	0	0	2	0	0	0	0	0	1	0	3	0	2	1	0	0	4	0	3	0	2	0	1	0	0	0	0	0	0	1	0	2	4	0	0	1	0	0	0	1	0	0	0	1	0	0	0	0
OTU 57	0	3	2	0	1	1	0	18	0	48	2	14	3	5	7	6	7	3	8	2	1	9	1	9	1	3	13	33	5	15	10	3	3	4	0	0	2	2	9	4	24	0	0	1	1	9	0	8	9	2
OTU 58	0	2	1	1	1	28	0	1	0	0	1	0	0	4	2	0	3	0	45	0	0	0	1	4	0	0	0	0	0	1	0	0	0	13	0	1	0	4	1	5	1	1	67	0	0	0	9	1	0	0
OTU 59	0	0	0	1	2	0	0	0	1	0	0	0	1	0	6	2	0	5	1	0	0	2	3	0	1	0	0	0	0	0	0	0	0	0	0	0	0	2	0	0	6	1	0	1	0	1	0	3	2	0
OTU 60	0	2	1	1	1	0	1	5	4	5	0	2	0	12	5	1	7	44	0	4	1	0	3	2	0	0	3	0	2	0	2	0	1	5	0	1	0	8	2	0	2	0	2	3	4	0	1	1	7	0
OTU 61	3	8	0	5	4	0	0	0	3	0	3	0	1	5	3	4	1	3	4	3	0	1	35	9	0	0	1	4	3	0	0	1	1	0	6	3	0	13	2	2	5	3	1	2	18	3	1	1	0	0
OTU 62	0	3	0	0	0	0	0	0	4	0	0	0	0	1	0	1	1	0	0	0	1	2	0	0	0	1	1	44	0	0	0	1	0	1	0	0	0	0	1	0	0	0	0	0	0	0	0	1	0	0
OTU 63	0	3	0	0	0	4	0	0	0	2	0	0	0	1	0	0	1	0	0	1	0	0	1	8	0	0	1	0	1	1	0	1	2	0	0	0	0	0	0	0	0	0	0	2	1	0	0	0	8	0
OTU 64	5	1	2	6	11	2	38	1	6	1	2	0	2	2	10	114	2	3	0	2	0	0	2	1	0	0	19	0	9	3	2	1	6	4	0	3	3	3	8	9	1	6	1	0	90	1	6	0	1	10
OTU 65	0	0	0	0	0	0	0	0	0	0	0	0	0	0	0	0	0	0	0	0	0	0	0	0	0	0	14	0	0	0	0	0	1	0	0	0	0	0	0	0	0	0	0	0	0	0	0	0	0	0
OTU 66	3	0	2	1	0	0	0	5	0	2	0	1	1	3	3	0	1	0	1	2	0	2	4	0	4	0	1	0	2	0	1	0	0	5	0	1	0	3	2	0	0	0	1	1	0	1	2	0	0	1
OTU 67	1	0	0	1	1	0	0	1	0	0	0	1	0	3	0	0	0	0	0	1	1	0	1	1	0	1	5	1	1	0	1	1	0	0	0	0	0	1	0	4	0	0	0	5	2	2	0	2	1	0
OTU 68	0	0	0	0	1	0	0	0	0	0	1	22	0	0	0	35	0	0	2	1	1	0	0	0	0	0	2	0	0	31	0	2	0	0	0	0	1	0	0	0	63	0	1	0	1	0	0	0	0	0
OTU 69	0	0	3	27	22	0	1	0	0	0	1	0	0	0	0	1	0	0	2	0	2	1	10	0	0	2	0	0	4	1	12	10	0	1	18	12	3	33	6	11	1	13	0	0	2	1	1	2	0	2
OTU 70	2	0	0	2	1	0	0	8	0	24	0	3	0	0	2	3	0	1	0	0	2	6	0	0	0	6	2	7	0	3	2	0	1	2	1	3	0	13	4	2	3	1	0	0	0	1	0	3	0	0
OTU 71	0	0	0	1	0	0	0	0	0	0	1	1	2	4	0	0	1	0	0	0	0	0	1	1	0	4	0	68	0	0	0	0	0	1	1	0	0	7	0	3	0	0	1	1	1	1	0	0	1	0
OTU 72	0	3	0	3	1	0	0	0	0	0	1	0	0	3	0	0	0	0	2	0	0	0	0	1	0	19	1	3	3	1	2	4	0	0	3	0	0	0	2	1	0	0	0	0	0	0	0	2	2	2
OTU 73	0	4	1	5	0	0	0	3	2	3	0	0	2	8	0	2	3	1	2	0	0	0	0	11	6	0	1	0	1	2	0	0	1	0	1	1	52	3	1	0	1	0	2	0	1	83	0	1	0	2
OTU 74	2	1	1	1	0	6	2	1	4	3	1	1	0	1	0	0	3	0	0	1	1	0	2	0	0	1	0	0	0	26	0	2	0	0	0	0	2	0	6	6	1	0	2	0	1	1	2	6	3	5
OTU 75	0	0	0	0	0	2	1	22	1	38	0	18	0	0	0	15	0	0	1	0	0	41	4	0	0	0	0	13	45	29	2	2	2	2	0	0	1	1	3	5	30	1	0	0	5	1	2	0	0	2
OTU 76	0	0	0	0	0	0	0	1	0	0	0	0	0	0	0	0	0	0	0	3	0	0	0	0	0	0	0	0	0	0	2	0	0	1	0	0	1	0	0	0	0	0	0	0	0	0	0	0	2	0
OTU 77	0	1	0	0	0	0	39	4	2	3	4	9	0	2	0	2	1	0	0	0	0	3	5	1	2	1	1	0	3	0	0	0	0	3	1	0	5	1	3	0	4	0	0	0	0	5	3	1	5	3
OTU 78	2	7	4	0	2	1	1	1	6	2	12	5	4	3	0	1	3	0	1	1	0	0	18	27	0	0	3	4	0	0	0	0	7	2	0	1	3	2	2	0	2	1	2	2	0	2	2	7	1	2
OTU 79	4	7	2	4	2	10	0	0	18	12	3	1	0	20	1	6	9	2	3	1	1	2	2	14	4	1	13	3	7	1	1	0	2	4	0	1	8	0	13	7	3	3	9	12	6	4	3	5	19	7
OTU 80	3	1	1	0	0	0	0	0	2	0	4	1	181	4	1	0	0	1	1	0	0	2	2	7	4	0	0	0	2	0	1	0	0	8	1	0	2	0	2	3	0	1	1	2	1	1	0	0	0	2
OTU 81	0	2	1	4	1	0	11	1	7	0	0	0	0	24	0	1	6	0	3	0	8	0	1	0	8	1	0	7	9	0	0	4	1	2	3	0	1	4	1	1	0	0	7	1	0	0	10	0	6	0
OTU 82	0	1	0	11	4	0	0	0	1	0	0	0	0	0	8	1	0	3	0	0	0	0	0	6	0	0	21	0	1	0	0	0	2	1	1	2	0	6	11	0	1	0	0	0	0	0	0	0	0	4
OTU 83	0	0	0	0	0	0	1	0	0	1	0	1	0	3	0	0	1	0	1	0	0	1	0	0	0	0	0	0	0	0	0	0	5	0	0	0	0	0	0	0	1	0	0	0	0	0	0	1	0	1
OTU 84	0	0	4	3	5	0	2	1	1	0	6	0	7	5	4	0	5	4	0	0	0	0	1	0	0	1	0	0	0	0	6	0	1	0	2	1	0	7	0	1	0	0	0	0	0	4	1	0	3	0
OTU 85	0	0	0	0	0	0	0	0	0	0	0	0	0	0	0	0	0	0	0	0	0	0	5	0	0	0	2	3	3	0	0	0	0	0	0	0	0	0	0	0	1	0	0	0	0	0	0	0	0	8
OTU 86	0	0	0	0	0	0	0	0	0	0	0	0	0	0	2	0	0	2	0	0	0	0	0	0	0	0	0	0	0	0	0	0	0	0	0	0	0	0	0	0	0	0	0	0	0	0	0	0	0	0
OTU 87	0	0	0	0	0	0	0	3	0	7	1	0	0	0	0	0	0	0	0	0	0	1	0	0	0	0	0	0	0	0	0	0	0	0	0	0	0	1	3	0	0	0	0	0	0	0	0	0	0	3
OTU 88	0	0	0	0	0	0	1	0	0	0	0	0	0	0	0	0	0	0	0	0	0	0	0	0	0	0	0	0	0	1	0	2	0	0	0	0	0	0	0	0	0	0	0	0	0	0	0	0	5	0
OTU 89	54	0	0	0	0	0	0	0	0	0	2	0	0	0	0	1	29	0	1	3	0	0	1	1	4	4	0	0	4	0	0	3	0	2	1	0	0	0	1	0	0	0	0	1	0	0	0	0	0	1
OTU 90	0	0	0	0	0	2	0	1	4	2	0	0	0	0	0	0	0	0	0	0	0	0	0	0	0	0	0	0	0	0	0	0	0	0	0	0	0	0	0	0	0	0	0	0	0	0	0	0	0	0
OTU 91	0	0	0	0	0	0	2	0	0	0	0	0	0	0	1	0	0	0	0	0	0	0	0	0	0	0	0	0	0	0	0	0	0	0	0	0	0	0	0	0	0	0	1	0	0	0	0	1	0	0
OTU 92	0	1	0	0	0	0	0	0	0	0	0	0	0	0	0	0	0	0	0	0	0	0	1	0	0	0	0	1	0	0	0	0	0	0	0	0	0	0	0	0	0	0	0	0	1	0	0	0	0	0
OTU 93	0	0	0	0	0	0	0	3	0	9	0	1	0	0	0	1	0	0	0	0	0	0	0	1	0	0	0	0	2	0	2	0	2	0	0	0	0	0	3	0	0	0	0	0	0	0	0	0	2	0
OTU 94	0	4	0	1	0	3	1	0	0	0	6	0	0	0	0	1	0	1	12	3	0	0	1	14	5	0	0	0	3	1	7	1	5	0	1	0	0	4	0	3	1	0	17	1	0	2	4	6	10	0
OTU 95	0	0	0	0	0	0	0	87	0	0	0	1	2	0	0	0	0	0	0	0	0	0	0	5	0	0	0	0	0	0	0	1	1	0	0	0	0	0	0	0	0	0	0	0	0	1	0	0	0	2
OTU 96	0	0	0	0	0	0	0	0	0	0	0	0	0	0	1	0	0	0	0	0	0	0	0	0	0	0	0	0	0	0	0	0	1	0	0	0	1	0	0	0	0	0	0	0	0	0	1	0	0	0
OTU 97	0	0	1	0	0	0	0	0	33	0	0	16	0	5	0	0	1	0	0	0	0	0	0	0	0	2	0	0	0	0	0	1	0	0	0	0	9	0	4	0	1	1	0	0	0	17	0	0	0	0
OTU 98	0	1	0	0	0	0	0	0	0	0	0	0	0	0	1	0	0	0	0	0	6	0	0	1	0	3	0	0	1	1	6	8	0	2	0	0	0	0	1	0	0	0	0	1	1	0	0	1	1	0
OTU 99	1	1	0	0	1	4	0	0	1	2	0	0	3	3	1	0	6	0	1	4	0	0	3	2	0	3	1	2	9	0	0	7	7	1	1	0	1	0	1	5	2	0	8	1	0	3	0	0	4	0
OTU 100	4	0	0	0	0	0	0	6	2	11	0	0	0	0	0	6	1	0	0	0	1	2	0	0	0	0	0	0	0	0	0	0	3	0	0	2	1	0	0	0	8	0	0	0	0	3	2	0	6	0
OTU 101	1	0	0	0	0	0	0	0	0	0	0	0	0	0	0	0	0	0	0	0	0	0	0	0	1	0	0	0	0	0	0	0	0	0	0	0	0	0	0	0	0	0	0	0	0	0	0	0	0	0
OTU 102	0	0	0	2	0	0	0	0	0	0	0	0	0	2	0	0	1	0	0	0	0	1	0	0	0	0	1	0	0	0	0	0	0	1	0	0	0	1	0	0	0	1	0	0	0	0	2	0	0	0
OTU 103	0	0	0	0	0	0	0	0	0	1	1	0	0	2	0	0	2	0	3	0	0	0	0	0	1	1	0	0	1	1	0	2	1	0	0	0	0	4	0	0	0	0	0	2	0	0	0	0	3	0
OTU 104	1	7	1	0	0	4	7	3	0	3	3	1	1	3	4	0	0	7	1	4	19	7	0	9	2	0	2	6	8	1	18	1	1	1	1	38	0	2	2	1	0	107	0	0	21	5	55	3	0	1
OTU 105	1	0	0	0	1	0	0	0	0	0	4	0	0	13	0	0	5	1	0	0	1	0	5	5	1	0	0	0	2	0	0	4	0	0	0	0	0	0	2	5	0	0	2	0	0	0	0	0	0	0
OTU 106	0	0	0	0	0	0	0	0	0	0	2	0	0	0	0	0	0	0	0	0	0	2	0	0	0	0	0	0	0	0	0	0	4	0	0	0	0	0	0	0	0	0	0	0	0	0	0	0	0	0
OTU 107	6	1	23	0	0	0	2	2	0	1	0	0	1	0	1	0	0	0	0	10	0	5	0	0	2	4	0	0	0	0	0	5	1	0	0	0	1	0	2	0	1	0	0	19	0	0	0	0	0	3
OTU 108	0	6	2	14	6	0	0	0	0	1	0	0	0	0	0	0	0	0	1	2	1	0	8	1	2	0	6	0	0	1	2	1	6	2	2	3	0	12	3	0	0	2	0	9	0	0	1	3	0	0
OTU 109	0	0	0	0	0	0	0	0	0	0	0	0	0	0	0	0	0	0	0	0	0	0	0	0	0	0	0	0	0	0	0	0	0	0	0	0	0	0	0	0	0	0	0	0	0	0	0	0	0	0
OTU 110	4	8	0	1	0	0	1	1	1	4	0	3	2	1	3	4	0	2	0	5	1	11	1	1	3	0	1	1	2	0	4	0	0	1	0	0	1	0	0	2	1	0	1	0	0	0	0	7	2	0
OTU 111	0	3	1	0	0	0	0	0	0	0	0	0	0	0	0	0	0	0	2	0	0	0	0	1	0	0	0	0	3	0	2	0	0	0	0	0	0	0	0	0	0	0	3	0	0	0	0	0	0	0
OTU 112	0	1	1	0	0	2	0	0	0	1	2	0	1	0	0	0	0	1	6	0	1	0	0	0	0	0	1	0	0	0	0	0	0	48	0	0	0	3	0	0	0	0	0	0	0	1	1	0	2	0
OTU 113	0	0	0	0	0	0	0	0	0	0	0	0	0	0	0	0	0	0	2	0	0	0	0	3	7	0	0	0	3	0	0	0	1	0	0	0	0	0	0	1	0	0	0	0	0	0	0	0	0	0
OTU 114	0	4	2	0	2	1	1	0	1	3	3	2	0	0	0	0	3	1	0	0	0	2	1	1	5	2	3	1	5	0	8	1	0	4	1	0	0	0	7	1	1	0	4	0	0	1	2	8	0	2
OTU 115	4	10	2	1	6	1	2	1	3	5	1	1	1	3	9	1	1	0	0	1	1	2	0	2	0	1	6	0	7	1	0	7	10	1	10	2	1	3	2	0	2	4	0	1	26	0	22	3	3	4
OTU 116	0	4	0	2	0	0	9	0	0	5	0	1	0	1	2	0	1	0	0	0	1	0	0	0	5	3	2	0	7	0	14	6	11	0	2	1	2	0	5	0	0	1	0	13	0	0	1	0	0	0
OTU 117	0	1	2	0	0	2	0	1	2	0	0	0	0	0	0	0	0	0	42	4	0	0	5	1	0	0	0	0	0	0	14	0	1	0	0	0	0	0	1	0	0	0	0	1	1	0	2	0	1	0
OTU 118	1	0	0	0	0	0	0	0	0	0	0	0	0	0	0	0	0	0	0	1	0	1	0	0	0	1	2	0	0	0	0	1	0	0	0	0	0	0	0	0	0	0	0	0	1	0	0	0	0	0
OTU 119	0	0	3	3	0	0	1	0	1	0	0	0	0	0	5	0	0	1	1	0	0	0	0	3	15	0	1	2	0	0	6	0	6	1	4	3	2	4	8	6	0	0	1	3	0	0	0	1	1	1
OTU 120	0	1	0	0	0	3	0	0	0	0	0	0	3	0	0	0	0	0	0	0	0	0	0	0	0	0	0	7	0	0	0	0	1	1	0	0	2	0	0	0	0	0	3	0	0	0	0	0	0	1
OTU 121	83	0	3	0	0	0	0	0	8	0	4	0	0	1	0	3	0	0	0	0	0	2	0	1	0	0	2	4	3	1	0	0	1	2	53	0	0	0	1	2	0	0	4	0	0	4	1	1	0	0
OTU 122	0	1	0	6	2	5	1	2	1	3	3	0	0	5	0	0	2	0	1	3	0	1	2	3	2	2	0	1	0	0	6	1	1	0	8	5	1	11	2	2	0	3	2	0	0	0	0	1	1	3
OTU 123	1	62	37	9	4	2	1	0	10	1	5	1	2	7	5	1	5	6	1	118	2	1	11	23	5	3	13	8	1	3	2	7	58	3	3	2	14	6	8	0	1	0	6	120	2	4	3	39	16	9
OTU 124	0	0	0	0	0	1	0	0	0	0	3	0	0	1	2	1	0	0	0	0	1	1	2	0	0	0	0	3	0	0	4	1	3	0	0	0	0	0	2	0	1	0	0	0	0	0	2	0	4	2
OTU 125	25	6	2	2	3	8	18	4	2	5	5	4	7	2	19	4	2	8	2	1	22	1	9	5	17	26	7	14	2	0	6	39	7	33	3	3	10	5	16	3	2	1	4	2	0	3	1	8	11	4
OTU 126	2	7	0	0	0	0	0	4	0	19	0	0	1	0	2	7	0	2	0	0	0	9	0	0	0	0	4	0	0	3	0	0	0	1	0	0	0	0	0	0	7	0	0	0	1	0	0	0	0	0
OTU 127	0	0	6	1	0	0	8	0	6	0	3	1	0	0	0	0	0	0	1	0	18	0	0	2	2	18	2	0	0	0	0	32	1	0	0	0	0	0	7	0	0	0	0	0	0	1	0	0	1	14
OTU 128	0	29	17	7	2	19	2	2	11	9	9	43	0	3	5	1	2	1	12	3	6	54	18	5	12	4	20	5	8	0	8	4	43	1	56	1	4	6	14	3	1	0	23	7	10	7	4	2	2	6
OTU 129	0	0	0	0	0	0	0	53	0	0	0	0	0	0	0	0	0	0	0	0	0	0	0	0	0	0	0	0	0	0	0	0	0	0	0	0	2	0	0	0	0	0	3	0	0	0	1	0	0	0
OTU 130	1	0	1	1	3	0	0	0	0	4	0	1	0	5	0	0	4	0	5	0	0	76	1	5	0	1	0	0	0	0	1	4	0	9	0	7	6	2	6	28	0	1	0	0	1	0	8	0	0	2
OTU 131	0	3	3	2	2	7	0	0	2	0	0	0	1	2	0	0	3	2	4	0	0	0	2	0	80	0	0	0	2	0	3	3	0	2	1	2	2	3	1	6	0	2	8	0	0	2	9	5	3	2
OTU 132	0	1	0	0	0	0	0	0	0	0	2	0	0	0	2	0	0	0	0	0	0	0	3	0	0	0	0	0	0	0	0	2	0	0	5	0	0	0	3	0	0	0	0	1	0	0	0	0	0	0
OTU 133	0	0	0	0	0	2	0	0	0	0	0	0	0	0	0	0	3	0	0	0	0	0	0	0	0	0	0	0	0	0	4	0	0	0	0	0	1	0	0	1	0	0	0	0	0	0	0	0	0	0
OTU 134	0	3	0	0	1	3	0	0	0	1	1	4	0	0	1	1	0	0	0	0	0	0	0	0	10	0	1	2	1	0	0	0	0	0	0	0	0	0	0	0	1	0	3	0	1	1	0	0	0	1
OTU 135	2	1	0	1	0	0	0	1	4	1	2	0	1	0	2	0	0	0	0	0	2	0	0	0	1	1	0	2	2	0	7	1	0	0	9	0	1	1	0	1	1	0	2	0	0	0	0	0	0	2
OTU 136	0	3	0	3	0	0	1	0	0	0	2	0	0	0	0	0	0	0	0	0	5	0	4	0	3	13	4	1	0	129	1	19	0	0	5	1	2	2	1	0	0	2	0	1	0	0	0	0	0	0
OTU 137	2	0	0	0	0	1	0	1	0	4	0	0	4	0	0	1	1	1	1	0	4	3	0	0	1	12	0	0	0	0	2	18	0	0	0	0	0	3	4	0	6	0	0	0	0	0	1	0	0	0
OTU 138	1	0	0	0	1	0	0	0	0	0	1	0	0	0	3	0	0	2	0	0	0	2	0	0	0	0	0	1	0	0	7	0	1	0	0	0	0	0	0	0	0	0	1	0	2	0	3	3	1	0
OTU 139	13	1	46	0	2	17	0	14	1	13	4	0	5	4	56	4	149	25	12	29	1	2	3	7	1	0	7	7	10	1	8	2	0	2	0	0	0	3	4	0	12	0	21	44	1	3	5	0	18	3
OTU 140	4	5	1	1	0	0	1	2	15	1	10	3	0	21	8	52	8	2	5	3	0	1	3	4	12	0	2	3	4	0	19	0	15	3	0	1	14	0	0	3	0	1	0	1	3	10	0	1	1	1
OTU 141	0	0	0	0	0	0	0	0	0	1	0	0	0	0	0	1	0	0	0	1	0	0	0	0	4	0	0	0	0	0	0	0	0	1	0	0	0	0	0	0	0	0	0	0	0	0	0	0	0	0
OTU 142	0	0	0	0	0	0	0	0	0	0	0	0	0	0	0	0	0	0	0	0	0	0	0	1	0	0	0	0	0	0	0	0	0	0	0	0	1	0	0	0	0	0	0	0	0	0	0	0	0	0
OTU 143	0	0	0	0	0	0	0	0	0	0	0	0	0	2	0	0	1	0	0	0	0	1	0	0	0	0	0	0	0	2	0	0	1	11	0	0	0	0	0	0	1	0	0	0	0	0	0	3	0	0
OTU 144	0	0	0	0	0	0	0	0	1	0	0	0	0	0	0	0	0	0	0	0	0	0	2	1	0	2	0	1	0	0	1	2	2	0	0	0	0	0	0	0	0	0	0	0	0	0	0	0	0	0
OTU 145	1	2	0	0	2	1	0	0	1	0	0	3	4	8	1	0	3	0	0	4	0	5	2	0	0	0	0	0	2	0	3	0	1	7	0	1	3	3	0	3	0	1	4	0	0	0	0	0	0	0
OTU 146	0	1	0	1	1	0	0	0	2	0	0	0	2	3	0	0	0	0	2	2	1	0	0	0	2	1	1	3	0	0	0	0	0	1	0	0	0	4	7	5	0	0	0	0	10	0	4	0	1	0
OTU 147	0	0	1	0	0	0	1	0	2	0	0	0	0	2	0	0	4	0	1	0	0	0	1	1	0	0	1	0	0	1	0	0	5	0	2	0	1	0	0	0	0	0	0	0	0	0	0	1	0	0
OTU 148	0	0	2	4	3	0	0	0	1	0	2	106	0	5	5	1	3	3	2	0	2	0	1	6	4	0	0	0	3	1	0	9	7	1	5	0	1	7	0	15	0	0	0	1	0	6	14	3	0	0
OTU 149	1	1	2	0	1	0	0	0	0	0	0	4	0	2	3	1	1	0	0	0	0	0	0	0	1	0	0	0	2	0	0	0	0	0	2	0	0	2	1	0	3	1	0	0	0	0	0	0	0	3
OTU 150	0	0	0	1	0	0	0	0	0	1	0	0	0	0	0	0	0	0	0	0	1	0	0	0	0	0	0	0	0	1	0	2	0	0	2	0	0	2	0	0	0	0	0	1	0	4	1	0	0	0
OTU 151	0	1	0	1	0	0	0	0	0	0	0	0	0	0	0	0	0	0	21	0	0	0	0	0	0	1	0	3	0	0	0	1	17	1	2	0	0	0	2	0	0	58	0	2	1	0	0	0	0	1
OTU 152	1	4	1	1	0	2	0	2	0	0	0	1	0	6	2	3	0	3	0	0	0	0	0	4	0	1	18	1	0	0	5	0	0	0	1	1	0	3	1	0	1	0	1	0	2	3	0	0	0	0
OTU 153	0	0	0	0	0	0	0	0	0	0	0	0	0	0	0	0	0	0	0	0	0	0	0	1	0	0	0	0	2	0	0	0	0	0	0	0	0	0	0	1	0	0	0	0	0	0	0	0	0	0
OTU 154	0	0	0	38	0	0	0	1	2	0	0	0	0	0	0	0	0	0	0	0	0	0	0	0	0	0	0	0	0	0	0	0	1	2	0	0	0	0	0	0	0	0	0	0	0	0	0	0	10	0
OTU 155	0	0	1	4	4	0	3	0	0	0	4	0	0	1	0	0	2	0	2	0	0	0	0	0	0	0	0	0	4	0	9	0	2	2	5	3	0	3	2	0	0	0	0	0	2	0	0	2	1	0
OTU 156	2	0	2	2	6	0	0	5	11	0	2	0	1	6	0	0	4	0	0	2	0	0	4	0	3	0	2	0	5	0	7	2	3	1	0	4	2	8	0	3	0	4	0	0	0	1	4	1	8	2
OTU 157	1	0	0	0	0	2	0	0	0	0	0	0	4	0	4	0	0	5	0	0	0	0	0	4	0	0	0	0	0	0	0	0	0	0	3	0	0	0	0	0	0	0	0	0	0	0	0	0	15	0
OTU 158	0	0	0	0	0	0	0	0	0	0	1	0	0	0	0	0	0	0	0	0	0	0	0	0	0	0	0	0	0	0	0	0	0	0	0	0	0	0	0	0	0	0	0	2	0	0	0	0	0	0
OTU 159	0	0	1	0	0	0	0	2	18	0	0	1	1	0	0	0	0	1	0	0	0	0	6	4	0	0	0	0	1	0	0	0	2	0	3	0	1	0	0	4	0	0	1	0	1	0	1	0	0	0
OTU 160	4	4	2	10	7	1	3	0	3	7	9	0	3	2	4	1	0	3	1	3	6	0	9	7	8	8	4	2	1	2	12	17	7	9	5	6	3	5	27	0	2	7	0	4	0	7	5	3	3	10
OTU 161	1	0	0	0	0	0	0	0	0	0	0	1	0	3	0	0	0	0	0	3	2	2	1	0	0	0	1	3	0	0	1	0	2	2	4	0	1	0	2	0	2	0	0	1	0	1	0	0	0	0
OTU 162	0	1	0	0	0	0	0	3	1	6	0	5	2	2	2	4	0	1	5	1	0	2	0	21	0	0	1	2	0	1	0	1	2	0	0	0	0	0	9	0	6	1	0	5	0	1	0	0	1	1
OTU 163	0	0	0	0	0	0	0	0	0	0	0	0	0	0	0	0	0	0	0	0	0	1	0	0	0	0	0	0	0	0	0	0	0	0	0	0	0	0	0	0	0	0	0	0	0	0	0	0	0	0
OTU 164	0	0	0	0	0	0	0	0	0	0	0	0	0	0	0	0	0	0	0	0	0	2	0	0	0	0	0	0	0	0	0	0	0	0	0	0	0	0	0	0	0	0	0	0	0	0	0	0	0	0
OTU 165	0	1	0	1	0	0	0	0	1	0	0	0	1	6	0	0	1	0	1	0	0	1	0	0	0	0	0	0	8	0	1	2	0	0	0	0	3	0	1	1	0	0	1	0	0	0	1	2	7	1
OTU 166	0	0	0	0	0	0	0	0	0	0	0	0	0	0	0	0	0	0	0	0	0	0	0	0	0	0	0	0	0	0	0	0	0	0	0	0	0	0	0	0	0	0	0	0	0	0	0	0	0	0
OTU 167	0	0	0	1	3	0	0	4	0	10	1	0	1	1	0	3	0	0	0	0	2	0	0	1	1	0	0	0	1	0	0	0	1	1	3	0	0	2	0	0	0	1	1	2	2	1	0	1	0	0
OTU 168	0	0	0	0	0	2	15	2	0	0	0	0	1	0	4	0	0	1	3	0	33	0	0	2	4	0	0	1	0	1	18	2	0	0	1	0	0	0	6	7	0	0	0	3	0	1	1	6	0	0
OTU 169	0	0	0	0	0	0	0	2	0	0	0	0	0	0	0	0	0	0	1	0	0	0	0	0	0	0	0	0	0	0	1	0	1	0	0	0	0	0	0	0	0	0	4	0	0	2	0	0	0	5
OTU 170	0	0	0	0	1	0	0	0	0	0	0	0	0	0	0	0	0	0	0	0	0	0	0	0	0	0	0	0	0	0	0	0	0	0	0	0	0	0	0	0	0	1	0	0	0	0	0	0	0	0
OTU 171	0	1	14	0	1	0	0	0	0	0	0	0	0	0	0	0	0	0	0	10	1	2	0	0	0	6	1	0	5	1	1	8	0	2	0	0	1	0	0	6	0	0	0	6	0	15	0	0	0	0
OTU 172	0	0	0	0	0	0	0	0	0	0	0	0	0	0	0	0	0	0	0	0	0	0	0	0	1	0	0	0	3	0	0	0	1	0	0	0	0	0	0	0	0	0	0	0	0	0	0	0	0	0
OTU 173	0	0	0	0	1	0	0	0	0	1	0	0	1	1	0	0	0	0	0	0	0	3	0	0	0	5	0	0	3	0	0	9	0	2	0	1	0	2	0	0	1	1	2	0	2	0	1	0	0	2
OTU 174	10	0	0	0	0	0	94	2	0	2	0	0	5	2	19	1	1	9	0	0	165	0	0	0	0	0	0	1	0	2	0	0	1	0	4	0	0	0	0	0	2	0	0	0	0	0	0	0	2	0
OTU 175	0	0	0	0	0	0	0	0	0	1	0	0	0	2	0	0	2	0	0	0	0	2	0	2	0	0	1	6	3	2	0	0	0	0	0	0	1	0	0	0	1	0	0	0	1	0	0	0	1	0
OTU 176	1	2	0	0	0	3	0	4	1	14	2	0	0	0	2	0	0	1	3	1	0	34	0	2	0	0	0	1	0	0	5	0	0	1	0	0	0	0	2	6	0	0	2	0	2	2	5	7	8	9
OTU 177	0	1	6	0	1	0	0	1	1	0	3	4	1	0	0	2	0	2	4	3	0	0	0	1	0	0	6	0	1	3	3	0	2	0	0	0	1	2	0	1	3	0	1	0	0	0	3	0	5	0
OTU 178	0	0	0	0	0	0	0	0	0	0	0	0	2	4	1	0	5	1	0	0	0	0	1	0	0	0	0	1	35	0	0	0	3	0	0	0	0	0	0	5	0	0	1	0	0	0	0	0	2	1
OTU 179	0	1	0	1	0	1	0	0	1	0	0	0	1	0	0	0	30	0	0	0	0	0	4	0	0	0	0	0	0	1	0	0	1	3	0	0	0	0	0	0	0	0	0	0	6	1	0	0	7	1
OTU 180	0	6	7	1	4	2	0	0	26	2	76	1	4	3	9	0	3	2	7	1	1	0	1	2	29	2	85	0	1	1	1	5	6	11	2	28	11	4	45	7	0	1	15	1	15	9	4	2	13	21
OTU 181	0	0	0	0	0	1	0	0	0	0	5	4	0	0	0	1	0	0	1	4	0	2	0	12	0	0	0	3	2	0	0	0	0	2	0	0	0	0	2	0	0	0	7	0	0	2	0	1	8	0
OTU 182	0	0	0	0	0	0	0	0	1	1	0	0	0	0	0	0	0	0	0	0	0	0	0	0	0	0	0	0	0	0	0	0	0	0	0	0	32	0	0	0	1	0	1	0	0	0	0	0	0	0
OTU 183	1	0	0	0	0	0	0	5	0	3	0	4	0	0	0	2	1	0	3	0	0	3	2	2	1	156	0	3	0	6	0	0	3	2	0	0	0	0	1	1	3	0	0	0	1	0	2	0	0	2
OTU 184	0	3	0	0	1	1	0	0	0	0	0	0	0	0	0	0	0	0	0	0	0	0	0	0	0	1	1	0	0	0	0	0	0	0	0	0	0	0	2	0	0	0	5	0	0	1	0	1	0	0
OTU 185	1	2	1	0	0	10	0	2	5	0	2	0	0	10	0	1	4	0	0	0	0	4	2	0	2	0	0	33	7	0	0	0	0	4	0	1	0	1	0	0	0	0	14	2	0	6	5	14	2	1
OTU 186	0	0	0	1	0	0	0	0	0	0	0	0	0	1	0	0	0	0	0	0	0	0	0	0	0	0	1	0	0	0	1	0	0	0	1	0	0	0	2	0	0	0	0	0	0	2	0	0	2	1
OTU 187	3	1	3	4	0	5	0	0	0	0	0	0	0	3	0	0	2	3	1	0	0	0	5	0	1	0	0	6	0	2	3	0	3	3	14	0	0	3	5	8	1	0	1	0	8	8	2	2	4	1
OTU 188	0	0	100	0	1	1	1	0	1	1	4	2	4	2	4	2	0	0	2	37	2	0	0	4	2	1	1	0	5	1	1	0	0	10	1	0	5	1	0	4	1	1	6	67	0	1	5	1	7	6
OTU 189	1	2	0	0	4	20	0	0	1	0	6	0	0	2	2	0	1	4	0	0	1	6	4	3	0	0	0	2	0	1	3	2	0	3	0	0	0	3	1	2	0	2	9	1	0	0	0	8	1	1
OTU 190	0	1	0	4	3	14	0	0	0	0	1	0	0	0	1	0	0	0	5	1	0	0	2	0	1	2	0	0	0	0	0	1	0	0	1	2	0	3	2	0	0	0	32	0	0	2	0	0	0	0
OTU 191	3	1	3	1	1	0	1	0	1	0	2	0	1	10	0	0	2	0	7	1	1	1	2	12	1	4	2	0	0	0	0	9	0	28	2	1	0	2	0	0	0	0	7	0	8	3	4	1	0	3
OTU 192	1	1	1	2	0	4	0	16	0	2	0	3	0	0	3	0	0	1	1	4	0	0	8	0	3	1	0	2	0	0	0	2	7	1	0	0	13	2	2	15	0	0	0	0	1	15	8	2	9	0
OTU 193	0	0	0	2	10	4	0	1	0	6	3	0	0	0	0	0	1	3	0	2	0	2	6	8	0	1	0	0	23	2	2	3	0	12	2	4	0	5	0	2	4	3	2	3	0	0	1	0	2	0
OTU 194	0	3	0	0	1	0	0	0	0	2	0	0	0	0	0	2	0	0	0	1	0	3	0	2	0	0	3	0	0	1	3	2	0	0	0	0	1	0	2	0	2	0	1	0	0	0	0	0	0	1
OTU 195	0	0	0	0	0	1	3	1	1	0	0	0	0	0	0	1	0	0	5	0	0	0	0	0	0	0	0	0	1	0	2	0	4	0	2	0	0	0	1	0	0	0	0	0	0	0	0	1	0	0
OTU 196	0	0	2	0	1	2	0	0	0	2	2	6	0	1	0	8	1	0	0	21	0	0	1	1	0	2	0	2	5	9	1	1	1	1	0	2	0	3	5	0	28	2	0	0	0	7	0	1	0	12
OTU 197	2	7	0	0	1	1	0	1	1	3	76	0	1	3	0	1	5	3	0	1	0	1	1	1	2	0	0	3	0	1	3	0	4	1	1	0	2	7	4	3	3	0	3	0	28	0	8	0	3	3
OTU 198	0	2	2	0	0	0	0	0	3	0	2	0	0	0	0	1	0	0	0	2	0	0	0	0	0	1	0	5	0	0	0	0	0	1	0	0	0	0	0	2	0	0	0	0	0	1	0	1	0	0
OTU 199	0	0	2	0	0	0	0	0	1	0	0	0	0	0	0	0	0	0	0	0	0	0	0	0	0	0	1	3	2	0	1	1	0	1	0	0	0	0	0	0	1	0	0	0	3	0	0	0	1	0
OTU 200	1	3	2	3	1	0	0	2	0	5	0	0	0	0	4	0	0	2	3	1	0	0	0	2	0	0	2	1	0	1	0	0	0	0	2	2	0	7	0	0	2	2	0	8	1	0	0	0	3	0
