	Host 1	Host 2	Host 3	Host 4	Host 5	Host 6	Host 7	Host 8	Host 9	Host 10	Host 11	Host 12	Host 13	Host 14	Host 15	Host 16	Host 17	Host 18	Host 19	Host 20	Host 21	Host 22	Host 23	Host 24	Host 25	Host 26	Host 27	Host 28	Host 29	Host 30	Host 31	Host 32	Host 33	Host 34	Host 35	Host 36	Host 37	Host 38	Host 39	Host 40	Host 41	Host 42	Host 43	Host 44	Host 45	Host 46	Host 47	Host 48	Host 49	Host 50	
OTU 1	3	3	1	0	8	5	0	1	1	2	0	3	3	0	8	0	16	4	0	2	0	3	1	0	1	5	10	4	8	3	3	2	0	1	9	2	4	4	2	2	11	3	5	0	1	8	4	0	0	0
OTU 2	1	0	0	0	0	0	0	0	0	0	0	0	0	1	0	0	0	0	0	1	0	0	0	0	0	0	0	0	1	0	0	0	0	0	0	0	0	0	0	0	0	0	0	0	0	1	0	0	0	1
OTU 3	0	1	0	0	0	0	0	0	2	0	0	0	0	0	0	0	0	0	0	2	2	0	0	0	0	0	0	7	2	0	0	0	0	0	0	6	0	0	0	0	0	0	0	0	0	0	0	0	0	2
OTU 4	0	0	0	0	0	0	0	0	0	0	0	0	0	0	0	0	0	0	0	0	0	0	0	0	0	0	0	0	0	0	0	0	0	0	0	0	0	0	0	0	0	0	0	0	0	0	0	0	0	0
OTU 5	9	2	0	0	5	32	9	24	0	0	17	29	6	52	10	7	8	92	0	0	16	10	0	8	72	28	25	17	17	2	8	15	3	13	2	9	20	0	23	7	28	4	28	0	20	41	38	1	0	0
OTU 6	1	11	0	0	0	0	3	0	1	0	2	0	4	0	3	2	0	2	7	0	0	1	1	0	1	6	2	3	6	0	0	1	0	0	0	0	0	2	1	0	3	1	0	1	0	1	1	6	1	0
OTU 7	4	2	4	7	0	0	1	3	4	0	13	1	5	3	1	1	2	5	0	1	0	0	2	1	1	1	2	0	0	0	0	4	8	1	0	13	25	2	1	1	3	1	31	0	0	51	10	43	2	3
OTU 8	0	2	1	7	1	6	10	1	0	4	0	1	0	0	3	2	0	0	1	3	0	1	6	0	0	6	1	2	6	4	1	4	3	30	0	2	2	6	2	0	0	2	1	0	4	2	1	6	7	32
OTU 9	0	0	0	1	0	0	2	0	0	2	0	0	0	3	0	0	0	0	1	0	0	0	0	0	0	0	1	0	1	1	0	1	0	0	0	0	0	3	0	1	4	0	2	0	0	3	5	0	0	0
OTU 10	0	0	0	0	0	0	0	0	0	2	0	0	0	0	1	0	0	0	0	0	1	0	0	0	0	0	0	0	0	0	0	0	1	0	0	0	0	0	0	0	0	0	1	3	0	0	0	0	11	1
OTU 11	0	2	8	20	0	0	0	0	1	5	2	3	0	0	0	0	1	20	2	2	7	0	0	1	4	0	1	3	0	2	0	0	2	0	1	0	0	6	3	0	4	3	1	0	0	2	4	1	1	74
OTU 12	7	3	5	0	5	1	6	5	0	2	7	0	7	0	1	3	0	2	1	1	7	1	2	1	0	0	1	0	1	0	1	2	0	2	0	1	2	0	4	0	4	1	0	0	0	0	5	1	13	4
OTU 13	0	0	0	0	0	0	0	0	0	0	0	0	0	0	0	0	0	0	0	0	0	0	0	0	0	0	0	0	0	0	0	0	0	0	0	1	1	0	0	0	0	0	0	0	0	1	0	0	1	0
OTU 14	0	0	0	0	0	0	0	2	1	0	0	1	2	0	2	1	1	0	0	0	4	0	0	0	1	0	0	0	0	0	1	0	8	1	0	0	0	0	1	0	1	0	2	0	0	0	1	2	0	1
OTU 15	0	0	0	0	0	0	0	0	0	0	0	0	0	0	0	0	0	20	0	0	0	0	0	0	12	0	0	0	0	1	0	0	0	0	0	0	0	0	0	0	0	0	0	4	0	0	0	0	0	0
OTU 16	0	0	1	0	0	0	0	0	0	0	0	0	0	0	0	0	0	0	1	0	0	0	0	0	0	0	0	0	0	0	0	0	0	0	0	0	0	0	0	0	0	0	0	0	0	0	0	0	0	0
OTU 17	0	0	0	0	0	8	0	1	0	0	0	1	0	0	2	0	24	1	1	0	1	0	2	1	1	0	17	1	3	0	0	1	0	0	7	3	7	0	0	6	25	1	10	0	5	24	1	0	0	0
OTU 18	2	0	0	3	16	1	0	2	0	7	3	4	0	0	0	2	2	26	6	5	0	1	0	0	16	1	0	3	4	0	0	1	6	1	2	0	0	11	9	2	0	0	0	0	4	2	1	0	0	2
OTU 19	0	0	0	0	0	0	2	0	0	0	0	0	0	0	0	0	0	0	0	0	0	0	0	0	0	0	0	0	0	0	0	0	0	0	0	0	0	0	0	0	0	0	0	0	0	0	0	0	0	0
OTU 20	5	26	10	0	0	0	0	0	0	1	0	0	0	0	1	5	0	1	0	1	2	2	9	0	1	13	1	15	0	3	0	0	6	0	0	1	2	0	0	0	1	1	1	9	0	2	2	35	10	2
OTU 21	0	0	2	2	0	0	2	0	1	3	14	1	1	0	1	1	0	0	0	1	1	0	2	0	0	1	0	1	0	0	2	1	1	0	0	0	0	3	0	0	0	0	0	0	0	0	0	0	2	1
OTU 22	2	0	0	0	1	1	1	6	6	0	1	1	1	0	5	0	1	0	1	2	0	3	0	1	1	1	3	0	1	2	0	0	1	0	1	1	0	2	0	0	2	0	0	0	0	0	3	0	5	3
OTU 23	0	0	0	0	3	2	0	0	1	0	0	1	1	14	0	1	0	0	0	0	7	4	0	1	0	0	0	1	0	0	0	0	1	2	0	0	0	0	0	0	0	1	0	0	0	1	0	0	6	0
OTU 24	1	0	0	0	0	0	0	0	0	1	0	12	0	0	2	0	0	0	0	0	0	0	0	1	0	0	1	0	0	4	0	0	0	0	0	0	0	13	0	3	1	0	0	1	0	0	0	0	8	0
OTU 25	0	0	0	0	0	0	0	0	0	0	0	0	0	0	0	0	0	0	0	0	0	0	0	0	0	0	0	0	0	0	0	0	0	0	0	1	0	0	0	0	1	0	0	0	0	0	1	0	0	0
OTU 26	0	0	3	0	0	0	0	0	0	0	0	0	0	0	0	3	0	0	1	0	0	0	0	0	0	0	0	1	0	0	0	0	0	0	0	0	0	0	3	0	0	0	0	0	0	0	0	0	0	0
OTU 27	0	0	0	0	0	0	0	0	1	0	0	0	1	0	0	0	0	0	0	0	0	0	0	1	0	0	0	0	0	0	0	0	0	1	0	0	0	0	0	1	0	3	0	0	0	1	0	0	0	0
OTU 28	4	0	0	0	0	0	1	0	4	1	0	1	0	2	8	2	0	7	5	3	58	3	6	2	2	0	4	0	0	0	1	1	8	47	1	131	0	0	8	2	2	6	2	1	2	1	5	2	3	4
OTU 29	11	0	0	0	1	0	0	0	1	6	0	0	2	1	1	0	0	0	0	3	2	0	0	0	0	0	1	1	1	0	0	0	0	1	2	0	0	4	0	0	0	3	0	0	0	0	1	6	0	5
OTU 30	0	0	0	0	0	0	0	0	0	0	0	0	0	0	0	0	0	0	0	0	0	0	0	0	0	0	0	0	0	0	0	0	0	0	0	0	0	0	0	0	0	0	0	0	0	0	0	0	0	0
OTU 31	0	0	7	0	0	0	0	3	12	0	0	0	2	0	0	0	3	0	0	0	1	4	1	1	0	0	1	0	0	0	0	12	0	1	0	0	0	0	0	1	3	1	0	0	0	0	1	0	2	0
OTU 32	0	2	0	3	40	5	2	7	1	2	3	2	8	0	0	8	1	0	0	35	5	0	7	148	1	0	2	1	2	4	9	8	0	1	0	2	0	2	1	0	1	46	0	7	0	0	6	1	0	13
OTU 33	0	0	0	0	0	0	0	0	0	0	0	0	0	0	0	0	0	0	0	0	0	0	0	0	0	0	0	0	0	0	0	0	0	0	0	0	0	0	0	0	0	0	0	2	0	0	0	0	0	0
OTU 34	12	2	4	0	0	2	2	1	3	0	5	1	0	1	1	0	2	1	7	0	0	0	1	0	0	3	2	0	4	0	0	7	0	0	2	0	0	0	0	1	4	3	80	4	0	0	0	4	0	0
OTU 35	1	0	1	0	0	0	0	0	3	0	5	1	0	0	0	1	0	0	0	3	3	0	4	0	0	111	0	0	1	0	7	0	2	0	0	0	0	0	0	0	0	2	0	1	0	0	0	0	5	0
OTU 36	0	1	1	0	12	0	0	1	0	0	0	0	2	0	0	0	0	0	4	1	5	1	0	0	0	0	1	0	1	0	0	0	1	1	0	1	1	1	1	0	1	0	74	2	0	0	0	1	1	0
OTU 37	0	1	0	0	0	0	0	0	4	0	1	0	0	2	0	0	0	1	0	0	0	6	2	0	0	2	0	0	0	0	0	0	0	0	0	0	0	0	0	2	0	0	0	0	0	0	7	0	0	0
OTU 38	0	3	3	1	0	0	1	0	4	1	5	2	0	0	0	0	1	2	0	1	0	0	2	0	0	0	0	1	0	4	2	0	3	0	1	0	0	6	0	1	0	1	2	4	0	0	0	0	4	0
OTU 39	0	1	0	2	0	0	1	1	1	0	0	1	0	3	0	0	0	0	0	0	0	0	0	1	0	0	0	1	0	0	0	0	0	1	0	0	0	0	0	0	0	0	0	2	0	0	0	0	1	0
OTU 40	22	4	0	1	39	0	3	0	2	0	1	1	0	38	0	1	2	1	2	1	0	0	0	2	1	0	2	2	0	1	1	0	4	0	0	0	0	1	0	0	4	0	0	0	1	0	1	2	3	1
OTU 41	0	1	0	0	0	0	0	0	0	3	2	0	0	0	4	0	1	0	0	0	3	3	0	1	0	0	0	0	3	0	0	0	0	0	0	0	0	0	1	2	0	2	0	6	0	0	0	0	0	0
OTU 42	0	0	4	0	0	0	0	0	1	0	0	0	0	0	4	0	0	4	0	1	0	0	0	0	1	0	1	0	3	0	0	0	0	0	1	0	0	0	0	0	0	0	0	3	0	0	0	1	0	0
OTU 43	0	0	0	0	0	0	0	0	0	0	0	0	0	0	0	0	0	0	0	0	0	0	0	0	0	0	0	0	0	0	0	0	0	0	0	0	0	0	0	0	0	1	0	0	0	0	0	0	0	0
OTU 44	0	7	0	0	0	0	0	0	0	0	10	0	0	0	1	1	0	2	0	1	0	0	0	0	0	0	0	3	0	0	0	0	1	0	1	0	2	0	0	1	1	0	0	0	1	0	0	0	0	0
OTU 45	16	0	0	1	18	4	5	3	3	2	4	2	28	1	28	0	1	20	7	1	0	0	6	15	11	1	0	0	1	1	10	6	4	10	0	1	2	0	4	0	0	8	1	3	0	5	6	3	0	1
OTU 46	0	5	0	25	1	1	2	6	0	0	6	5	0	3	0	1	0	2	0	0	2	8	0	4	0	1	0	143	0	0	93	1	0	0	4	0	0	2	3	0	4	17	0	0	0	0	5	3	2	0
OTU 47	4	0	0	0	0	0	0	0	0	0	0	3	0	1	0	4	0	0	0	0	0	2	0	0	0	0	0	0	0	0	0	0	4	0	0	0	0	0	0	0	0	0	0	1	0	0	0	0	1	0
OTU 48	1	9	0	73	2	1	65	4	2	6	7	2	1	0	5	3	0	2	3	2	7	0	2	5	0	1	0	2	0	2	1	0	0	0	2	0	1	5	1	2	0	2	4	8	0	0	0	0	1	1
OTU 49	0	0	0	1	0	0	0	0	0	0	0	1	6	43	1	1	0	0	1	1	0	0	2	0	0	0	0	0	0	3	0	0	0	2	1	0	0	1	2	0	0	1	1	0	0	0	5	0	0	3
OTU 50	0	0	1	0	3	1	4	2	0	0	1	1	0	5	4	0	0	1	1	0	4	0	4	1	2	0	2	1	0	1	3	0	0	0	0	0	0	2	1	3	2	2	1	1	1	1	3	3	4	0
OTU 51	0	5	1	4	0	0	0	2	2	0	1	0	1	7	0	8	0	0	0	2	0	6	0	0	0	1	1	0	0	0	0	0	0	2	0	0	0	0	0	0	14	0	0	1	0	0	4	0	0	2
OTU 52	2	13	2	11	0	1	4	1	0	10	16	19	0	1	6	4	3	0	11	4	1	5	1	6	2	9	2	2	6	6	1	0	2	0	1	1	1	28	4	3	7	0	0	5	1	1	5	9	1	0
OTU 53	0	0	0	0	0	0	0	0	0	0	0	0	0	0	0	0	0	0	0	0	0	0	0	0	0	0	0	0	0	0	0	0	0	0	0	0	0	0	0	0	0	0	0	0	0	0	0	0	0	0
OTU 54	14	3	6	1	2	0	0	0	0	3	0	3	30	4	0	7	4	0	3	0	1	5	1	0	0	0	1	0	2	1	27	0	0	10	1	1	0	2	19	0	1	4	1	2	1	0	4	4	4	0
OTU 55	0	0	0	0	0	0	0	0	0	0	0	0	0	0	0	0	0	0	0	0	0	0	0	0	0	0	0	0	0	0	0	0	0	0	0	0	0	0	0	0	0	0	0	0	0	0	0	0	0	0
OTU 56	2	0	0	0	0	0	0	2	1	0	0	3	0	0	3	0	0	2	0	0	0	1	5	0	0	0	0	0	0	2	0	1	4	0	0	0	0	2	0	1	1	0	0	1	0	0	0	1	0	0
OTU 57	1	7	0	1	4	4	1	7	2	2	1	3	6	0	3	15	3	3	8	6	5	13	7	10	1	4	5	3	14	5	2	5	7	20	5	16	32	9	2	7	9	10	5	14	2	6	0	10	9	0
OTU 58	0	1	6	1	0	0	0	1	0	0	0	0	0	0	4	1	0	0	0	0	0	0	0	1	0	0	2	0	1	1	0	0	2	0	1	24	1	0	0	0	7	3	1	1	0	1	5	0	0	0
OTU 59	0	1	0	0	2	3	0	6	0	0	0	1	0	0	2	1	7	2	0	2	0	1	1	1	0	1	3	0	0	1	0	0	0	0	8	0	2	1	1	7	9	2	3	0	0	6	0	2	0	1
OTU 60	0	2	0	3	0	0	6	5	3	1	0	13	3	2	3	2	0	1	2	8	2	11	0	5	98	0	0	0	1	0	2	0	1	1	4	1	1	1	0	0	1	1	2	4	0	3	2	2	1	0
OTU 61	3	2	0	11	1	0	0	1	1	6	5	11	2	3	6	0	4	2	65	1	0	3	1	2	0	2	0	2	8	4	3	0	3	0	1	0	0	17	2	3	5	0	2	2	1	1	3	13	2	1
OTU 62	0	0	0	0	0	0	0	0	6	0	0	0	1	0	0	6	2	0	0	0	1	7	0	0	0	0	0	0	0	0	0	0	0	1	1	0	3	0	0	0	0	0	0	0	0	1	0	0	0	1
OTU 63	1	2	1	0	0	0	1	7	0	0	0	0	0	0	3	0	2	0	3	0	0	0	136	0	0	0	0	1	0	0	1	70	5	0	0	0	0	0	2	0	0	2	0	0	0	0	0	1	12	1
OTU 64	12	0	2	0	4	1	16	1	2	3	2	1	1	8	6	10	0	9	0	0	0	2	2	6	1	1	0	0	1	12	2	13	11	2	2	16	1	5	1	0	0	0	0	0	0	0	11	0	2	9
OTU 65	0	0	0	0	0	0	0	0	1	0	0	0	0	0	0	0	0	0	1	0	0	0	0	0	0	0	0	0	0	0	0	0	0	0	0	0	0	0	0	0	0	0	0	0	0	0	0	0	0	0
OTU 66	6	1	1	2	0	0	3	0	49	1	0	0	2	1	3	0	0	0	0	1	1	1	21	0	45	3	2	2	3	3	0	15	0	3	1	0	1	2	1	2	2	2	0	4	0	1	2	2	0	0
OTU 67	0	2	1	1	2	91	2	2	2	1	0	0	0	0	0	8	1	2	1	3	4	0	0	1	0	0	0	1	0	0	6	0	0	0	0	0	0	1	1	5	0	2	0	2	45	0	3	0	2	0
OTU 68	0	0	3	0	0	2	4	2	0	0	0	0	0	0	0	0	3	4	0	2	0	1	0	0	1	0	7	2	0	0	0	0	0	0	13	10	14	0	1	20	25	0	1	0	2	13	0	0	2	4
OTU 69	1	0	3	12	0	1	0	2	0	14	2	8	0	0	4	0	0	0	0	6	0	0	0	2	3	1	0	0	1	9	0	0	0	0	3	0	0	23	0	1	3	2	2	5	1	1	7	2	5	2
OTU 70	0	0	0	1	1	3	0	24	2	7	3	2	0	2	3	0	2	3	0	1	0	9	0	0	2	0	0	0	7	7	0	0	0	1	0	0	0	12	1	3	0	1	0	0	2	0	0	0	0	2
OTU 71	0	3	2	0	34	0	0	0	9	2	0	0	2	6	0	0	0	0	6	7	4	0	0	5	2	0	0	0	0	2	0	0	0	2	1	0	0	2	0	0	3	1	0	0	0	0	0	1	0	2
OTU 72	9	1	0	4	3	0	0	0	0	2	0	0	4	0	3	2	2	0	0	0	0	0	0	2	26	0	3	1	0	3	0	0	5	0	1	1	1	4	1	0	4	2	1	0	0	1	2	3	0	8
OTU 73	4	3	0	0	0	0	0	9	1	1	2	1	2	1	3	0	0	0	0	0	0	0	0	0	0	3	0	3	0	1	0	1	2	0	1	1	3	1	2	1	0	1	0	2	0	0	0	0	3	0
OTU 74	4	2	0	4	1	0	0	3	0	0	2	0	2	2	0	2	0	0	0	5	2	4	1	1	0	13	2	1	0	0	3	0	0	6	0	0	0	0	2	1	0	0	1	1	0	9	1	10	0	0
OTU 75	3	0	0	2	0	6	1	4	0	0	1	3	0	0	0	4	12	1	0	0	14	15	2	0	1	0	9	0	18	0	1	0	1	1	10	5	1	1	1	5	17	0	5	1	5	9	3	0	2	0
OTU 76	0	6	0	0	2	0	0	0	0	0	0	0	0	0	0	0	0	0	0	2	0	0	0	2	0	0	1	1	0	1	0	0	0	0	0	0	0	1	0	1	0	0	0	4	0	0	0	4	0	1
OTU 77	4	1	6	0	0	1	30	3	3	0	5	0	1	0	2	2	1	2	0	0	1	5	2	0	0	1	0	0	3	0	0	2	1	0	1	0	0	0	0	4	6	90	3	2	0	0	3	1	14	1
OTU 78	5	12	4	0	7	3	11	1	0	2	5	0	0	1	2	5	0	3	0	1	11	2	0	6	1	5	0	7	8	1	3	0	3	0	2	0	0	1	0	2	0	0	0	1	0	4	4	2	1	0
OTU 79	4	3	3	5	2	7	0	4	3	2	4	7	1	4	7	6	7	2	3	5	2	13	1	6	0	3	10	0	8	1	5	2	5	1	65	86	145	0	31	65	6	3	1	13	0	3	4	6	7	8
OTU 80	2	3	1	0	0	0	1	0	2	1	3	0	82	3	1	4	0	0	1	0	0	1	2	0	0	0	0	0	1	0	36	3	6	54	2	0	1	0	1	0	0	0	0	4	0	0	2	0	0	4
OTU 81	1	0	4	1	0	0	1	0	0	2	3	2	3	0	1	1	3	0	4	3	1	2	2	0	0	2	0	3	0	0	31	6	9	87	0	3	0	2	19	0	4	1	1	1	1	0	2	4	12	4
OTU 82	2	0	5	1	0	0	1	0	0	93	3	2	0	0	8	1	0	1	0	4	1	0	2	1	2	0	0	0	0	4	4	2	0	1	0	0	0	2	2	0	1	0	0	3	0	0	1	0	3	14
OTU 83	0	0	2	0	0	0	0	0	0	0	0	0	0	2	0	0	0	0	0	0	0	2	0	0	0	0	0	0	2	0	1	0	4	0	0	0	0	0	0	0	0	0	0	0	0	0	0	5	2	0
OTU 84	0	0	3	11	4	0	0	2	1	7	3	1	3	0	2	0	0	1	1	0	0	2	0	3	1	1	1	0	7	7	11	0	0	1	0	1	2	6	0	0	1	0	0	0	0	0	3	0	10	0
OTU 85	0	8	0	2	1	0	0	1	0	0	0	0	1	0	2	2	0	0	0	0	0	0	1	0	0	0	1	0	1	0	0	0	0	0	0	0	0	0	1	0	2	0	0	0	0	0	0	0	0	7
OTU 86	0	0	0	0	0	0	0	0	0	0	0	0	0	0	0	0	0	0	0	0	0	0	0	0	0	5	0	0	0	0	0	0	0	0	0	0	0	0	3	0	0	0	0	0	0	0	0	0	0	0
OTU 87	5	0	0	4	0	0	0	0	0	0	1	0	0	1	0	1	0	0	0	0	0	0	0	0	1	0	0	0	0	0	0	0	4	0	3	0	0	0	0	0	0	0	0	0	0	0	0	0	0	2
OTU 88	2	0	0	0	0	0	0	2	0	0	0	0	0	0	0	0	0	0	1	0	0	0	0	0	0	0	0	0	3	0	0	0	0	0	0	0	0	0	0	0	0	0	0	0	0	0	0	0	1	0
OTU 89	23	0	0	0	3	4	0	0	3	0	0	0	0	0	2	0	13	2	20	0	0	0	0	1	0	0	0	0	0	0	0	0	0	0	4	0	6	0	23	0	0	0	0	3	0	1	0	0	1	0
OTU 90	0	0	0	0	0	0	3	0	0	1	0	0	0	0	0	0	0	0	0	0	0	0	3	0	0	0	0	0	0	0	0	0	0	0	0	0	0	0	0	0	0	0	0	0	0	0	0	1	1	0
OTU 91	0	0	0	0	0	0	0	0	0	0	0	0	0	0	0	0	0	0	0	0	0	0	0	0	0	0	0	0	0	0	0	0	0	0	0	0	0	0	0	0	0	0	2	0	0	0	0	0	1	1
OTU 92	2	2	0	0	0	1	0	0	0	0	0	0	2	0	0	0	1	0	0	0	0	0	0	0	1	1	6	0	0	0	0	0	0	6	0	0	0	0	1	0	5	1	0	6	0	3	2	0	0	0
OTU 93	0	0	0	0	0	0	0	0	0	0	0	0	0	0	1	0	0	0	0	0	0	0	1	0	0	0	0	0	1	0	0	0	0	0	0	0	0	0	0	0	0	0	0	0	0	0	0	0	0	0
OTU 94	0	1	2	4	0	0	2	1	5	5	1	0	1	7	0	9	0	0	3	1	3	3	0	0	1	0	4	1	2	2	0	0	0	2	0	2	2	1	0	2	6	0	0	2	0	3	0	1	6	2
OTU 95	0	0	1	0	5	0	1	60	0	0	0	1	0	0	1	0	0	0	1	0	0	0	0	0	0	0	0	0	0	0	0	0	4	0	1	0	0	0	0	0	0	1	6	2	0	0	1	0	0	0
OTU 96	0	0	0	0	1	0	0	0	0	0	0	0	0	7	0	0	0	0	1	0	0	1	0	0	0	0	0	0	0	0	0	0	5	2	0	0	0	0	0	0	0	0	1	0	0	1	0	0	0	0
OTU 97	0	0	0	0	0	0	0	0	0	0	0	0	0	0	0	0	0	0	0	0	0	0	0	0	0	0	0	0	0	0	0	0	0	0	1	0	0	0	0	0	1	0	0	0	0	2	0	1	0	0
OTU 98	1	0	0	0	0	0	4	0	6	0	0	0	0	0	0	1	1	0	0	0	0	0	0	0	0	0	2	0	0	0	0	0	2	0	0	0	1	0	0	0	0	0	0	0	0	0	2	0	0	0
OTU 99	0	7	1	4	2	0	0	0	3	0	0	1	8	0	6	1	4	2	1	1	0	0	0	1	0	0	139	1	1	1	0	0	1	5	0	1	3	3	58	1	2	0	0	0	2	0	0	0	3	0
OTU 100	0	5	0	0	0	1	3	1	7	0	0	0	0	0	0	0	2	0	1	4	1	1	1	0	0	2	0	0	6	0	1	0	1	1	4	0	1	0	1	0	1	0	2	0	0	0	1	0	0	0
OTU 101	0	0	0	0	0	0	2	0	0	0	0	0	1	0	0	0	0	0	0	0	0	0	0	0	0	0	0	0	0	1	0	0	0	0	2	0	0	0	0	0	1	0	0	0	0	1	0	1	0	2
OTU 102	0	1	0	0	0	0	0	1	1	0	0	0	1	0	4	0	0	0	1	1	0	0	0	1	0	2	0	0	4	0	7	0	3	0	0	0	0	2	0	0	0	0	2	0	0	1	0	1	0	0
OTU 103	0	0	4	0	0	1	2	3	0	3	1	5	1	0	0	0	0	0	4	0	3	0	1	0	0	0	0	0	0	3	0	0	0	1	0	0	0	4	0	0	0	0	0	1	0	0	0	0	1	3
OTU 104	2	3	3	1	1	2	8	4	0	0	3	79	1	4	2	2	3	1	6	0	4	2	4	6	2	9	0	7	0	0	0	1	1	2	0	0	0	1	0	5	3	2	1	2	2	1	29	1	3	2
OTU 105	0	0	3	0	0	0	0	0	1	0	6	0	0	0	0	0	0	0	4	0	0	0	0	0	0	6	0	0	0	0	0	0	0	0	1	0	0	0	0	0	5	0	0	2	0	0	0	0	1	0
OTU 106	0	0	2	0	1	0	0	0	0	0	0	0	0	0	0	0	0	0	0	1	0	0	0	0	0	0	0	0	0	2	0	0	9	0	0	0	0	1	0	0	0	0	1	2	0	0	0	0	0	0
OTU 107	0	0	12	0	0	0	3	0	14	0	2	0	0	0	0	0	0	0	0	12	3	2	1	1	0	0	0	0	1	0	0	0	0	0	0	0	1	0	0	0	1	0	0	10	5	0	1	0	0	4
OTU 108	0	9	1	12	0	0	1	0	2	1	0	0	0	4	0	4	0	2	0	1	0	0	0	1	0	5	0	6	1	1	0	0	1	0	0	9	19	2	1	0	0	0	30	4	0	53	0	1	1	0
OTU 109	0	6	0	0	0	0	0	0	0	0	0	0	0	0	0	0	0	0	0	0	0	0	0	0	2	0	0	0	0	0	0	0	0	0	0	0	0	0	1	0	0	0	0	0	0	0	0	0	0	0
OTU 110	1	4	4	2	0	3	2	0	0	0	0	1	0	0	3	0	0	1	1	1	5	5	3	0	0	0	0	1	3	0	0	0	0	0	0	0	2	0	3	0	1	3	0	1	0	0	0	7	1	1
OTU 111	0	1	0	0	0	0	0	0	0	0	0	0	0	0	0	0	0	0	0	0	0	0	2	0	0	0	0	31	2	0	0	1	0	0	0	0	0	3	0	0	0	0	0	0	0	0	0	0	1	0
OTU 112	1	0	0	0	3	0	0	4	0	82	0	1	0	0	0	1	2	1	0	0	0	2	0	0	1	0	0	0	5	7	3	0	0	0	0	0	0	6	3	2	0	1	0	0	0	0	0	0	3	0
OTU 113	0	0	0	6	0	0	2	0	1	0	0	0	0	0	0	0	0	0	0	0	5	1	0	0	0	0	0	0	0	0	0	0	1	0	0	0	0	0	0	0	0	1	4	0	0	0	0	0	0	0
OTU 114	1	1	3	4	0	7	2	6	42	1	3	1	0	2	0	1	8	1	0	0	3	6	9	2	0	1	0	1	6	0	4	13	0	0	3	0	1	3	0	1	0	0	3	2	1	6	0	12	1	0
OTU 115	6	6	2	8	1	1	1	2	1	1	5	4	0	0	2	2	7	0	1	0	6	0	3	1	0	4	0	8	2	2	0	0	1	0	3	0	1	2	0	6	5	1	4	1	2	2	10	7	7	3
OTU 116	6	1	0	10	0	2	5	9	2	5	0	1	8	0	3	0	2	4	67	1	0	1	0	2	1	0	2	1	0	1	1	0	8	3	2	0	0	1	0	0	3	1	1	10	0	1	0	0	2	4
OTU 117	0	1	1	3	0	1	1	0	1	0	0	0	6	0	3	1	0	8	0	3	0	1	0	0	3	0	0	0	0	0	1	0	1	1	0	4	5	0	1	1	0	2	0	0	0	0	0	0	2	2
OTU 118	0	0	0	0	2	1	0	0	0	5	0	2	0	0	1	0	0	0	0	0	1	0	1	0	0	2	0	0	2	5	0	0	5	0	0	0	0	6	0	0	0	0	0	4	0	0	0	0	0	3
OTU 119	4	0	0	3	3	1	0	7	1	0	1	1	0	1	0	0	2	1	3	3	0	0	0	3	0	0	0	0	0	0	3	1	1	0	0	0	0	0	2	0	0	0	0	0	2	2	1	5	1	3
OTU 120	2	4	0	0	0	0	0	0	0	0	0	0	2	0	1	0	0	0	0	0	0	0	1	0	0	0	0	0	0	0	3	1	2	3	3	0	0	0	0	3	0	0	0	0	0	0	0	2	0	0
OTU 121	48	0	4	2	9	0	3	0	4	0	14	0	0	2	4	2	1	5	0	0	0	2	0	3	5	0	0	0	1	0	1	0	3	1	0	0	0	1	33	0	0	2	0	0	0	0	1	0	0	2
OTU 122	0	0	0	2	0	0	1	1	5	0	5	8	2	1	1	3	3	2	0	0	0	1	5	2	3	0	0	0	0	5	1	4	1	0	0	0	0	9	0	1	0	3	1	1	0	0	0	0	0	0
OTU 123	2	47	20	21	57	2	6	3	17	10	6	10	7	0	4	13	6	3	3	79	1	2	12	9	2	26	1	24	46	13	6	6	47	0	0	1	2	18	6	2	4	12	3	65	107	7	11	28	2	3
OTU 124	0	1	0	3	0	0	0	1	0	0	0	0	0	0	1	0	3	6	1	0	2	0	0	0	3	0	2	0	0	0	0	0	2	0	1	0	1	0	1	0	0	0	0	0	0	0	4	1	10	3
OTU 125	8	7	10	3	2	1	8	7	1	9	5	0	6	15	18	9	4	10	4	4	2	10	7	10	2	3	5	3	6	4	4	2	13	4	5	0	0	10	8	127	4	0	0	0	0	5	4	7	13	9
OTU 126	0	6	0	0	2	0	1	6	0	0	0	0	0	0	2	1	0	6	0	0	0	14	3	6	4	0	1	1	0	0	0	0	0	0	0	0	0	0	0	4	3	0	0	0	0	0	0	0	0	0
OTU 127	0	0	3	0	0	1	2	2	0	0	4	12	4	0	0	0	0	0	0	1	0	0	0	0	0	4	0	0	1	1	2	0	0	1	0	0	0	0	0	0	1	1	0	0	0	1	0	0	0	10
OTU 128	3	21	9	1	5	4	2	6	1	4	14	5	1	6	2	13	5	1	7	1	15	48	9	0	1	11	36	15	2	3	3	7	22	2	7	4	5	3	7	3	7	5	3	3	0	10	9	0	1	4
OTU 129	0	1	0	0	0	0	0	16	0	0	0	0	0	51	0	0	0	0	2	1	1	0	0	1	0	0	0	0	0	0	0	0	0	0	2	0	0	0	3	0	0	0	0	0	1	0	0	0	0	0
OTU 130	0	1	6	5	0	1	0	1	0	0	0	0	1	6	6	3	1	0	0	2	26	43	0	1	4	0	0	0	0	1	0	0	1	1	0	1	0	0	0	0	0	0	0	0	2	0	5	6	1	3
OTU 131	0	1	5	0	0	0	0	1	2	0	1	34	3	0	0	0	0	0	0	0	0	2	0	3	0	0	1	1	0	0	2	0	0	2	0	0	0	0	0	0	0	2	0	3	0	2	9	15	1	0
OTU 132	0	3	2	0	5	0	1	0	0	1	0	2	0	0	0	0	0	1	0	0	1	2	0	3	0	3	1	1	3	0	0	0	0	0	0	0	3	0	1	0	0	0	0	0	0	1	0	0	3	0
OTU 133	3	0	0	0	0	0	0	0	0	0	0	0	0	0	3	0	0	0	0	0	0	0	0	1	0	0	0	0	0	0	0	0	0	0	0	0	0	0	1	0	1	0	0	0	0	0	0	0	0	0
OTU 134	1	1	0	0	0	2	0	0	0	9	1	0	0	4	0	1	4	0	1	9	0	0	0	0	0	0	0	2	2	1	1	0	0	0	4	0	2	5	1	0	0	1	0	0	4	0	0	0	0	1
OTU 135	0	2	0	0	1	0	0	0	0	1	1	0	1	0	0	3	0	0	1	2	0	1	0	0	0	0	0	1	1	2	0	0	0	1	1	0	2	0	4	2	0	0	0	0	0	0	4	0	1	3
OTU 136	1	2	0	2	0	68	0	0	0	0	1	0	2	0	0	0	145	0	1	1	0	0	0	0	0	7	0	1	2	0	0	0	0	4	1	4	0	4	0	1	0	0	1	0	49	0	0	1	0	1
OTU 137	0	1	0	0	0	0	6	0	1	0	0	0	21	2	0	5	0	1	0	0	0	0	2	1	0	0	0	0	0	0	0	0	0	9	0	0	1	0	7	0	0	0	1	0	0	1	0	1	0	7
OTU 138	4	1	1	0	0	0	0	0	0	0	0	0	2	0	0	0	0	0	0	0	0	0	0	0	0	0	2	0	0	0	0	1	0	1	0	0	0	0	0	0	3	2	0	0	0	0	2	2	0	0
OTU 139	17	4	26	0	6	0	1	7	9	2	0	4	11	1	55	4	0	12	54	25	1	2	12	29	4	0	0	0	3	2	7	8	4	1	2	1	0	8	8	2	4	55	3	54	0	3	5	4	4	0
OTU 140	1	13	0	1	9	0	0	2	2	0	4	3	3	1	10	2	3	2	4	0	4	4	6	3	3	5	4	2	2	2	3	4	4	2	3	2	3	3	0	10	3	11	2	3	0	0	3	0	6	0
OTU 141	0	1	0	0	0	0	0	0	0	0	0	0	0	0	0	0	2	1	0	0	0	0	6	0	0	0	1	0	0	0	0	0	0	0	0	0	0	0	0	0	3	0	0	0	0	0	0	0	1	0
OTU 142	0	0	1	0	0	0	0	0	0	0	0	0	3	0	0	0	0	0	0	0	0	0	0	0	0	0	0	0	0	0	0	0	0	0	0	0	0	0	0	0	0	0	0	0	0	0	0	0	0	0
OTU 143	0	0	0	2	1	0	0	0	0	1	0	0	0	0	0	0	0	0	1	0	0	0	0	0	0	0	5	0	0	0	0	0	0	0	5	0	1	0	0	0	3	0	5	0	0	6	0	1	0	6
OTU 144	3	0	0	1	2	0	2	1	0	0	1	0	0	1	1	0	0	0	2	0	0	1	1	0	0	0	0	0	0	0	0	0	2	0	0	0	0	0	0	0	0	0	0	0	0	0	0	0	2	0
OTU 145	1	0	2	1	0	1	0	0	2	0	0	0	2	0	1	2	1	1	2	1	2	5	1	0	0	2	1	3	6	0	2	1	0	1	2	0	0	0	0	2	0	0	1	1	0	0	3	6	7	7
OTU 146	0	4	1	5	0	3	0	1	1	0	0	0	3	4	6	0	1	6	1	0	1	1	1	0	2	1	1	2	3	1	0	0	0	0	0	0	0	1	0	0	2	0	0	0	0	0	15	0	4	0
OTU 147	0	0	1	1	3	0	0	1	2	1	2	0	0	0	0	0	0	0	0	0	0	1	2	0	0	0	0	0	0	0	0	1	4	0	0	0	0	0	1	0	1	0	0	1	0	0	0	0	1	0
OTU 148	0	0	1	1	0	0	1	0	1	0	0	2	0	0	7	0	0	14	1	2	1	0	1	1	9	2	0	1	0	0	0	1	2	0	0	0	2	7	0	3	3	2	0	0	0	2	7	10	6	0
OTU 149	0	0	1	0	0	0	0	0	1	0	0	0	0	0	0	1	0	0	0	0	0	0	0	1	0	0	0	0	47	0	4	0	0	0	3	0	0	0	0	0	0	0	0	0	0	0	0	1	0	2
OTU 150	1	0	0	0	0	0	14	1	0	1	0	0	0	1	0	0	1	1	0	0	1	0	0	0	0	0	0	0	1	2	0	1	0	0	0	0	0	6	0	0	0	0	0	0	0	0	0	0	0	0
OTU 151	0	0	3	3	2	0	0	0	2	0	0	1	0	0	1	1	0	1	0	0	0	0	0	3	2	0	0	4	0	0	0	0	13	1	0	0	0	0	0	0	0	1	0	4	0	1	2	1	0	1
OTU 152	5	0	5	0	5	0	1	6	3	0	2	1	0	0	4	2	0	1	0	0	0	0	1	3	0	0	2	0	0	0	5	1	0	0	3	0	0	0	1	1	9	2	0	0	0	0	0	0	4	0
OTU 153	0	0	0	0	0	0	0	0	0	0	0	0	0	0	1	0	0	0	0	0	0	0	0	0	0	0	0	0	0	0	0	0	0	0	0	0	0	0	0	0	0	0	0	0	0	0	0	0	0	0
OTU 154	0	0	0	30	2	5	0	0	0	0	0	1	0	0	0	0	0	0	0	0	0	0	0	0	0	0	0	0	0	0	0	0	1	1	0	0	0	0	0	0	0	0	0	0	0	0	0	0	6	0
OTU 155	0	5	15	0	0	0	2	0	0	4	4	2	0	0	0	0	6	0	0	0	0	0	0	0	0	0	0	0	0	1	0	126	0	0	0	0	0	7	3	0	0	3	0	0	0	0	2	0	0	0
OTU 156	0	1	0	0	0	0	0	3	6	0	4	3	2	1	0	4	1	0	0	7	0	0	2	0	1	1	0	0	0	3	0	0	11	0	2	0	1	4	1	6	0	2	0	3	1	2	2	2	4	2
OTU 157	0	0	0	0	0	0	0	0	0	0	0	0	2	0	1	0	0	1	0	2	0	0	0	3	0	0	0	2	0	0	2	0	1	2	0	0	0	0	0	1	1	0	0	0	0	0	0	1	7	0
OTU 158	0	0	0	0	0	0	0	0	0	0	5	0	0	0	0	0	0	0	0	0	0	0	0	0	0	0	0	0	0	0	0	0	0	0	0	0	0	0	0	0	0	0	0	0	0	0	0	0	0	0
OTU 159	5	0	1	1	0	0	1	2	1	0	3	0	1	0	0	17	0	0	0	5	0	4	3	0	0	0	0	1	1	0	2	0	4	1	0	0	1	0	0	0	1	0	1	0	0	0	1	0	0	5
OTU 160	6	15	2	6	4	1	9	1	6	3	7	2	15	3	0	12	2	0	0	1	0	3	3	6	0	6	2	4	2	3	1	6	9	8	0	4	13	6	8	0	2	3	0	5	0	3	7	5	0	9
OTU 161	0	0	0	0	0	0	0	0	1	0	0	2	0	1	0	3	1	0	0	4	74	1	0	4	0	0	0	0	2	0	1	0	2	2	1	3	4	1	0	1	4	0	0	0	0	0	0	0	0	0
OTU 162	0	1	7	3	0	1	1	2	1	3	2	2	11	1	1	1	1	3	1	0	2	1	1	1	0	2	3	2	6	0	3	0	1	3	3	4	5	1	1	4	10	5	1	0	0	0	0	1	0	0
OTU 163	3	0	0	0	0	0	0	0	0	0	3	0	0	0	0	0	0	0	0	0	0	3	0	0	0	0	0	0	0	0	0	0	0	0	0	0	0	0	0	0	0	0	0	0	0	0	0	0	0	0
OTU 164	0	0	0	0	0	0	0	0	0	0	0	0	0	0	0	0	0	0	0	0	0	0	0	0	0	0	0	0	0	0	0	0	0	0	0	0	0	0	0	0	0	0	0	0	0	0	0	0	0	0
OTU 165	0	1	0	0	0	2	3	0	0	0	0	0	7	0	0	0	1	0	0	0	0	6	0	1	0	3	0	0	1	0	0	0	1	0	0	0	0	0	0	0	0	0	0	4	72	0	0	3	0	0
OTU 166	0	0	0	0	0	0	0	0	0	0	0	0	0	0	0	0	0	0	0	0	0	0	0	0	0	0	0	0	0	0	0	0	1	0	0	0	0	0	1	0	0	0	0	2	0	0	0	0	0	0
OTU 167	0	1	1	0	2	2	0	8	0	0	0	0	0	0	0	0	6	0	0	1	0	0	0	0	0	0	0	0	13	0	0	0	2	0	1	0	2	6	0	3	4	0	0	7	1	0	0	0	0	3
OTU 168	3	3	1	0	0	0	5	0	2	1	4	2	0	0	3	62	0	0	0	0	1	0	0	0	0	0	2	0	0	0	1	0	0	0	0	2	3	1	0	1	1	0	0	2	0	1	0	6	2	0
OTU 169	1	0	0	0	0	0	0	0	0	0	0	0	0	0	0	0	0	0	0	1	0	0	3	0	0	0	0	0	3	0	0	0	0	0	2	0	0	0	0	2	0	0	0	0	0	0	1	0	0	0
OTU 170	0	0	0	0	0	0	0	0	0	0	0	0	0	0	0	0	0	0	0	0	0	0	0	0	0	0	0	0	0	0	0	0	0	0	0	0	0	0	0	0	0	0	0	0	0	0	3	0	0	0
OTU 171	1	0	8	2	0	0	3	5	14	4	0	3	0	3	0	1	0	2	0	8	0	0	0	0	1	2	1	0	0	6	0	0	0	0	127	1	0	5	0	0	1	0	0	0	0	0	0	1	5	1
OTU 172	0	0	0	0	0	0	0	0	0	0	0	0	0	0	0	0	0	0	0	1	0	0	0	0	0	0	0	0	0	0	0	0	2	0	0	0	0	0	0	0	0	0	0	0	0	0	0	0	0	2
OTU 173	0	2	0	0	4	0	1	2	0	0	1	1	4	0	0	0	0	0	0	1	3	1	2	0	0	0	0	0	1	1	0	2	0	1	2	0	0	2	0	0	0	2	0	0	0	0	0	0	0	0
OTU 174	3	1	0	0	4	0	53	0	0	0	0	0	3	1	4	0	0	3	0	0	0	0	1	3	4	0	0	0	0	0	2	3	0	0	0	1	1	0	0	10	0	0	0	3	0	2	2	3	2	0
OTU 175	0	0	5	1	0	0	0	0	0	0	2	0	1	0	0	1	0	0	0	1	0	1	1	0	1	0	11	0	0	0	14	0	0	0	0	0	0	0	0	0	0	0	0	0	0	0	0	1	0	0
OTU 176	1	0	3	1	3	1	0	0	0	0	3	6	1	4	1	0	1	0	3	1	5	12	0	3	0	0	0	1	3	10	3	0	0	2	0	0	0	12	2	5	0	0	3	6	2	0	1	7	7	7
OTU 177	3	0	0	3	0	1	0	0	4	2	2	0	10	0	8	0	2	0	2	1	0	0	2	2	0	2	2	1	0	0	0	0	1	8	0	1	4	4	3	1	2	0	1	0	2	0	2	0	8	0
OTU 178	1	0	0	0	2	1	0	0	0	0	0	0	0	0	0	0	0	0	2	0	0	0	3	0	0	0	0	0	0	0	0	0	2	0	1	0	0	0	0	0	0	0	0	0	1	0	1	0	2	0
OTU 179	0	0	0	0	0	1	0	6	3	0	0	0	0	0	3	1	5	1	2	0	1	0	0	0	0	0	0	0	0	1	1	0	13	1	0	1	1	0	0	0	0	0	1	0	0	0	3	0	0	0
OTU 180	5	9	3	3	5	71	1	5	1	5	58	2	0	2	1	27	5	3	8	2	3	3	0	2	2	20	0	6	2	1	3	3	6	1	1	6	13	4	4	7	5	1	18	5	36	35	9	5	8	21
OTU 181	0	0	0	2	0	1	1	0	0	0	2	0	1	5	0	2	0	2	1	0	1	0	0	0	0	1	0	1	0	1	2	0	2	0	0	0	0	1	1	1	1	0	2	1	0	4	0	0	8	1
OTU 182	0	0	0	0	0	0	0	1	0	0	0	0	0	0	0	0	0	0	0	0	1	0	0	0	0	0	0	0	0	0	0	0	0	0	0	0	0	0	0	0	0	0	0	0	0	0	0	2	0	0
OTU 183	1	0	1	0	0	0	2	3	0	0	2	0	0	0	0	1	0	0	1	4	3	3	0	0	0	1	2	0	3	0	0	0	4	1	0	0	0	1	1	2	1	1	0	0	0	5	3	1	7	1
OTU 184	0	0	0	0	0	0	0	0	0	0	0	0	0	1	1	1	0	0	3	0	1	6	1	0	0	0	0	1	0	0	2	0	1	0	1	0	0	0	1	0	0	5	0	0	0	0	2	5	0	0
OTU 185	0	0	3	0	0	1	5	0	2	1	0	2	0	2	3	7	0	0	7	0	6	1	1	1	0	0	0	6	2	2	4	0	1	0	2	1	2	2	2	4	1	4	0	1	1	4	4	11	4	0
OTU 186	0	0	0	0	4	0	0	1	0	2	0	0	1	0	1	0	3	3	0	0	0	3	0	0	4	0	0	1	0	0	1	0	0	0	1	0	0	3	0	0	0	0	0	1	0	0	0	0	3	0
OTU 187	6	1	5	1	2	0	0	2	8	0	1	2	1	1	2	1	1	0	0	7	5	2	0	0	1	2	0	0	0	1	2	1	9	0	1	0	2	1	1	0	3	2	0	1	0	1	2	2	3	3
OTU 188	1	4	72	2	1	2	0	0	26	4	1	0	4	0	8	2	5	3	0	35	1	1	18	3	5	0	2	2	8	1	0	9	2	0	0	1	1	2	0	0	1	3	2	27	1	4	21	0	2	5
OTU 189	4	2	3	0	2	1	1	2	13	2	2	4	0	2	2	1	0	0	2	0	1	14	3	6	0	7	2	1	5	2	4	1	0	0	0	0	1	3	0	0	0	1	1	4	0	0	2	6	2	2
OTU 190	0	0	2	0	0	0	0	0	0	0	0	1	0	0	0	0	0	0	0	0	0	1	0	0	0	0	0	0	0	0	1	0	0	0	0	0	0	0	0	0	0	0	0	0	0	0	0	0	0	1
OTU 191	1	1	0	2	0	0	0	0	0	10	3	5	0	0	3	1	0	1	1	1	0	0	0	6	0	0	0	0	2	6	1	1	0	0	0	0	0	4	2	0	0	4	0	4	3	2	1	0	0	3
OTU 192	5	7	3	1	3	1	3	24	1	3	1	0	2	14	7	3	0	13	0	4	1	0	0	1	4	2	0	2	0	0	0	0	13	0	0	0	0	4	8	0	2	0	1	0	2	3	9	1	9	1
OTU 193	0	0	0	0	0	0	0	2	2	0	1	1	0	3	2	0	0	4	0	0	0	3	0	0	1	2	0	0	2	1	0	0	0	0	0	3	1	1	7	0	2	0	0	0	0	4	2	0	1	3
OTU 194	0	2	0	0	0	0	0	2	0	0	0	2	0	10	2	15	0	3	0	0	1	0	0	2	3	8	0	3	0	0	1	0	1	0	0	0	1	0	1	0	3	0	0	0	0	0	0	5	0	0
OTU 195	1	1	0	1	1	1	11	0	4	0	1	2	0	2	8	4	0	2	0	3	0	0	0	0	1	0	1	0	17	0	0	0	3	0	0	0	0	0	1	0	0	0	0	0	0	0	0	0	0	0
OTU 196	0	1	0	1	1	3	0	2	2	0	0	0	0	0	0	0	6	1	0	15	1	0	0	0	0	2	19	2	0	183	3	1	1	0	3	1	0	1	2	2	19	2	14	0	1	6	0	0	0	5
OTU 197	7	3	7	0	4	0	1	0	5	1	33	3	0	0	5	0	4	1	4	0	1	3	4	1	1	5	0	3	0	2	0	4	0	2	24	1	0	9	4	1	2	0	0	1	0	1	1	1	15	5
OTU 198	0	0	5	0	0	0	0	0	2	0	0	0	0	0	0	2	0	0	1	0	7	0	1	0	0	0	0	0	0	0	0	0	0	0	0	0	0	0	0	0	0	0	1	0	0	0	0	2	0	0
OTU 199	0	0	0	0	0	3	0	0	0	0	0	0	1	0	1	1	1	0	0	1	0	0	2	0	0	0	0	0	0	0	0	2	0	0	0	0	1	0	0	0	1	5	0	0	0	0	0	2	0	0
OTU 200	2	1	1	0	0	0	2	1	2	2	1	12	3	3	3	1	2	3	1	0	0	0	0	0	0	2	6	1	4	4	0	0	0	1	1	0	1	6	1	1	10	2	1	0	0	0	0	0	3	0
