	Host 1	Host 2	Host 3	Host 4	Host 5	Host 6	Host 7	Host 8	Host 9	Host 10	Host 11	Host 12	Host 13	Host 14	Host 15	Host 16	Host 17	Host 18	Host 19	Host 20	Host 21	Host 22	Host 23	Host 24	Host 25	Host 26	Host 27	Host 28	Host 29	Host 30	Host 31	Host 32	Host 33	Host 34	Host 35	Host 36	Host 37	Host 38	Host 39	Host 40	Host 41	Host 42	Host 43	Host 44	Host 45	Host 46	Host 47	Host 48	Host 49	Host 50	
OTU 1	43	24	0	61	126	19	0	15	23	90	53	32	14	139	0	169	80	48	359	14	79	20	17	4	82	1	26	54	79	39	104	86	358	66	435	105	141	35	68	98	106	198	117	61	70	62	107	67	40	192
OTU 2	0	5	2	0	21	0	11	0	0	0	22	0	8	6	0	1	10	0	0	0	12	7	0	0	0	29	21	50	0	0	30	5	16	3	12	3	44	0	53	0	0	1	4	0	37	19	0	2	1	1
OTU 3	33	0	431	2461	34	44	142	25	434	0	0	4	0	0	0	8	0	346	21	10	0	3	11	0	0	38	0	13	56	1	0	1	1	16	0	236	34	65	4	665	1	0	0	4	0	9	0	1	17	2
OTU 4	0	0	0	0	0	0	0	2	0	0	0	0	0	0	0	0	12	0	0	0	0	0	2	0	0	0	0	0	0	0	0	0	0	0	0	0	0	0	0	0	0	0	0	0	0	0	0	0	0	0
OTU 5	193	84	327	296	380	140	1375	422	93	1892	727	206	840	917	422	651	1174	268	230	762	26	883	949	922	116	1015	271	261	678	15	95	296	474	0	1021	145	596	191	446	448	42	192	250	222	1490	174	143	1142	95	298
OTU 6	129	0	7	4	15	67	137	72	3	21	2	5	54	39	41	44	1	14	98	0	6	30	76	39	1	2	4	9	5	3	34	168	11	34	37	8	32	28	1	24	33	39	1	1	26	1053	403	39	2	3
OTU 7	88	27	12	10	98	52	101	4	19	70	319	63	456	155	190	9	45	9	13	26	117	115	98	8	228	56	31	60	51	17	1	3	26	19	63	101	25	100	12	12	153	271	102	92	3	19	125	647	42	15
OTU 8	14	10	185	124	156	37	27	111	36	57	226	22	111	176	89	252	42	24	517	57	83	124	8	48	13	258	14	59	47	28	53	50	7	73	122	19	200	377	20	38	43	31	55	81	59	53	127	52	24	267
OTU 9	4	1	28	1	5	0	43	1	0	0	6	4	0	0	6	0	22	4	0	0	2	0	3	21	9	2	0	5	7	1	11	4	0	31	31	10	12	93	32	5	0	1	11	166	15	0	54	14	14	13
OTU 10	0	10	2	0	0	0	1	1	18	2	18	0	0	31	49	1	5	75	4	1	59	1	0	0	9	11	75	28	0	15	0	0	51	0	15	4	0	16	92	143	0	0	5	31	16	0	14	2	0	5
OTU 11	5	6	6	19	0	2	71	23	9	8	88	71	102	1	45	35	20	42	61	5	2	102	3	14	0	59	3	48	0	69	58	4	6	6	18	12	36	130	10	79	90	47	30	27	33	16	82	14	105	30
OTU 12	52	19	21	3	213	10	86	61	36	6	3	35	26	43	155	10	80	6	10	12	1	21	22	8	16	18	40	13	8	48	2	101	74	62	8	64	33	6	6	12	77	106	46	125	29	134	48	3	144	0
OTU 13	0	0	0	0	1	0	0	0	0	0	16	0	5	0	2	1	0	0	4	0	0	2	0	1	0	41	0	0	0	0	0	0	8	7	1	0	0	0	0	0	0	1	0	0	0	0	0	0	0	9
OTU 14	0	21	78	2	41	3	22	8	7	0	53	65	3	3	2	0	3	137	1	5	0	154	4	0	1	52	0	2	0	12	0	1	0	34	0	28	0	0	0	275	18	6	2	55	17	3	34	3	0	1
OTU 15	0	0	0	0	0	0	0	0	5	1	27	0	1	0	10	0	0	22	0	0	0	2	0	0	0	0	0	0	0	0	0	10	0	0	2	0	0	0	0	40	0	0	0	8	0	0	37	0	0	0
OTU 16	4	0	0	0	0	0	0	0	0	0	0	0	0	0	0	0	0	0	0	0	0	0	4	0	3	0	1	0	0	0	0	44	0	0	0	0	0	0	0	0	0	0	4	0	0	0	0	0	0	0
OTU 17	0	0	11	5	10	6	182	6	38	12	38	5	16	0	4	7	0	5	8	1	0	72	0	1	0	47	63	9	3	10	7	51	191	21	11	18	0	2	10	14	4	2	9	1	0	0	1	21	6	0
OTU 18	27	1	38	12	46	59	47	22	73	237	50	3	14	22	172	37	26	23	92	39	49	2	13	10	83	32	4	24	12	49	136	1	20	173	10	13	39	25	0	60	0	80	30	8	7	98	160	38	22	49
OTU 19	0	0	0	0	0	0	0	0	0	0	0	0	0	0	0	0	0	0	0	0	0	0	0	0	0	0	0	0	0	0	0	0	0	0	0	0	0	0	0	0	0	0	0	0	0	0	0	0	0	0
OTU 20	3	0	38	8	89	9	105	1	20	36	18	13	245	37	66	13	5	29	9	71	10	19	7	3	133	30	113	2	45	9	47	2	73	148	2	26	50	10	48	35	27	398	95	27	38	0	0	41	10	0
OTU 21	25	4	110	1	5	12	9	155	16	5	12	13	3	50	8	31	4	10	58	0	35	1	19	4	5	60	33	1	0	3	204	37	35	65	5	70	13	2	64	12	42	15	11	14	37	12	43	53	6	0
OTU 22	28	99	7	43	4	3	7	67	1540	8	95	115	0	16	45	2	13	18	10	0	20	21	3	17	6	0	0	17	2190	97	20	47	21	62	37	2	52	16	5	27	836	4	2	75	28	38	77	72	1	110
OTU 23	0	17	4	2	10	2	220	0	21	2	0	11	51	16	53	4	19	37	12	11	12	29	2	0	84	5	52	41	11	275	16	146	90	5	89	0	0	0	0	51	53	87	35	0	53	41	29	129	0	4
OTU 24	4	0	43	0	6	3	78	0	3	0	1	13	0	2	28	0	13	2	0	13	921	3	3	1	5	1	0	44	0	22	0	10	9	0	14	2	0	34	12	4	0	92	33	0	42	11	0	28	6	0
OTU 25	0	0	0	0	0	0	0	0	0	0	0	0	0	0	0	0	0	0	0	0	0	0	0	0	0	0	23	0	0	0	0	0	28	0	0	0	0	0	2	0	0	0	0	0	3	0	0	0	0	0
OTU 26	0	1	3	0	0	0	3	6	0	0	0	0	2	0	11	1	0	0	0	1	0	16	5	3	5	0	0	5	5	101	0	0	2	0	0	54	0	30	0	0	0	4	0	170	1	0	1	28	1	0
OTU 27	0	0	0	0	0	0	0	0	1	3	0	0	0	6	0	7	0	0	8	3	1	0	0	0	0	0	0	0	0	0	0	0	0	0	0	0	0	0	0	0	0	0	15	0	0	0	0	4	0	0
OTU 28	41	18	3	50	3	26	27	115	22	27	65	0	56	35	77	15	12	0	29	24	47	28	32	82	75	21	18	15	82	5	88	8	25	13	20	0	65	26	159	1	95	99	24	52	23	23	113	64	454	18
OTU 29	185	26	62	10	26	115	15	33	12	36	164	46	25	273	91	6	3	82	1	9	56	52	54	21	56	27	15	32	40	35	119	6	1	11	8	13	26	4	9	156	72	171	83	145	4	36	126	36	0	30
OTU 30	0	0	0	0	0	4	0	0	0	0	0	0	0	0	0	0	0	0	0	0	0	0	0	0	0	0	0	20	0	0	0	0	0	0	0	0	0	0	0	0	0	0	0	0	0	0	0	0	0	0
OTU 31	64	3	0	10	17	5	4	0	13	0	0	17	8	0	1	0	6	1	1	0	7	0	18	33	112	5	24	42	0	62	79	197	56	38	1	11	5	0	0	2	10	79	12	6	28	0	6	0	5	7
OTU 32	44	15	0	35	2332	2	101	76	52	20	483	14	266	37	64	12	1878	0	51	42	43	13	26	57	133	8	62	50	482	287	15	144	38	166	6	11	44	154	1747	5	31	153	47	518	14	19	120	2	169	42
OTU 33	418	0	0	32	0	164	0	6	2	6	0	0	0	2	0	0	0	0	0	0	0	0	199	0	1	2	0	0	0	0	0	0	0	14	0	0	0	0	0	0	0	0	0	0	1	0	4	13	0	1
OTU 34	3	20	0	444	9	5	112	27	40	6	32	2	4	13	67	10	0	27	45	7	45	4	3	3	56	153	11	18	119	25	6	5	34	923	39	325	3311	4	382	46	19	52	70	38	47	139	6	35	42	1150
OTU 35	41	411	44	14	4	20	26	7	6	68	161	676	13	216	15	1	8	9	1	7	3872	184	49	15	36	18	38	84	0	149	1	10	19	78	15	32	0	25	50	18	24	38	2216	5	0	129	128	2	47	5
OTU 36	1	5	9	970	3	3	5	127	9	1	45	3	16	33	25	7	1	2	2	1	18	0	0	0	1	5	27	9	0	45	1	15	126	1430	1	38	94	46	17	10	6	11	39	12	58	12	11	0	0	0
OTU 37	0	0	0	0	1	0	0	1	8	0	2	9	0	0	0	0	0	7	0	0	0	0	0	6	0	43	0	9	0	0	0	0	10	4	6	0	0	11	1	8	50	0	0	5	0	1	0	4	6	0
OTU 38	46	2	0	2	102	13	136	14	6	20	48	25	38	11	16	3	13	1	10	8	7	36	11	29	11	0	16	3	516	36	37	141	36	218	118	2	17	38	674	1	60	71	5	47	58	5	1	2	33	0
OTU 39	1	8	0	0	9	0	0	0	1	0	0	6	6	0	0	4	13	0	2	24	0	5	0	36	65	0	2	13	2	0	163	0	0	9	1	64	20	0	0	1	3	86	0	46	0	7	2	0	0	0
OTU 40	7	26	6	11	15	5	8	2	43	1	168	54	12	6	1	9	57	0	15	14	6	452	1	211	166	105	5	201	16	32	6	51	1	181	1	37	5	62	8	2	239	81	38	25	12	16	13	10	28	5
OTU 41	0	43	75	2	4	0	4	3	116	0	57	73	49	5	68	0	11	2	1	1	18	55	2	71	13	90	39	1	127	20	20	5	3	17	74	0	4	11	34	7	0	4	2	1	11	76	91	12	61	45
OTU 42	3	1	2	0	6	2	5	0	0	2	5	0	0	2	25	0	3	0	0	2	0	58	0	0	4	1	0	1	1	0	191	7	11	192	71	0	0	0	0	0	0	0	0	0	1	36	9	2	0	0
OTU 43	0	1	0	0	1	0	0	0	0	0	0	0	0	0	0	0	0	0	0	0	0	0	0	0	0	0	0	1	1	0	0	0	0	0	0	0	0	0	0	0	0	0	0	0	0	0	0	0	0	0
OTU 44	0	1	19	0	0	0	61	0	5	0	2	0	0	1	21	0	0	0	0	0	0	0	1	2	0	7	0	0	1	0	0	0	40	69	0	1	0	2	0	0	0	2	0	2	2	0	0	0	9	2
OTU 45	355	13	3	8	5	170	15	1	12	6	0	69	252	0	28	4	1	0	3	15	4	15	265	4	31	2	75	40	6	65	179	325	24	47	21	48	6	12	13	2	13	239	1	12	80	26	216	13	99	1
OTU 46	71	77	10	3	11	17	30	31	37	6	112	83	40	30	91	32	9	47	38	35	45	55	28	5	58	50	29	3	14	53	28	1	114	57	16	50	2	99	4	97	54	101	2	4	14	75	134	93	16	11
OTU 47	0	0	0	1	0	0	20	0	18	0	1	0	23	0	48	1	0	0	0	3	0	0	1	3	0	1	0	3	0	0	0	0	0	67	0	0	0	0	3	0	20	1	1	0	0	20	24	1	10	0
OTU 48	43	7	94	8	4	36	48	75	35	4	15	4	143	2	7	9	8	216	23	17	23	9	44	81	29	24	56	26	28	9	19	25	2	5	15	91	15	26	2	405	35	57	21	16	23	4	78	7	65	7
OTU 49	11	0	57	3	3	330	21	1	0	49	5	1	2	38	2	6	0	18	2	5	6	2	3	0	4	1	4	0	0	18	46	3	6	0	1	24	16	65	60	31	121	1	0	71	0	61	6	13	1	14
OTU 50	46	8	113	11	151	14	1424	19	4	41	17	23	44	251	186	15	49	0	18	218	65	241	15	398	12	32	51	65	134	1	268	29	320	80	293	67	4	607	46	9	151	171	58	3	142	177	127	48	158	29
OTU 51	2	59	14	3	27	1	86	58	7	49	1	190	18	22	11	8	0	48	11	49	16	4	0	29	38	3	173	3	12	7	21	24	164	146	7	228	77	6	31	95	48	114	763	17	2	14	4	4	35	1
OTU 52	43	43	43	27	12	43	71	96	118	28	154	99	271	21	45	54	26	36	115	186	7	13	10	22	817	166	132	167	218	20	133	54	95	45	45	12	85	11	590	77	22	172	6	11	85	150	452	53	73	62
OTU 53	6	0	0	0	0	2	0	0	0	0	0	0	0	0	0	0	0	0	0	0	0	0	6	0	0	79	0	2	0	0	0	0	0	0	0	0	0	0	0	0	0	0	0	0	0	0	0	0	29	0
OTU 54	50	152	65	8	33	15	272	57	9	34	894	401	131	139	44	101	14	53	170	11	97	59	10	66	49	12	89	70	144	553	103	157	22	83	36	119	46	34	82	102	180	28	278	144	1016	11	19	202	77	26
OTU 55	0	0	0	0	6	0	0	0	0	0	0	0	0	0	0	0	0	1	0	0	0	0	0	0	6	8	0	0	0	0	0	0	0	1	0	0	0	0	0	1	2	0	0	0	0	0	0	0	0	0
OTU 56	49	231	0	0	0	10	59	1	7	0	2	0	0	1	34	71	0	43	144	2	0	0	177	0	5	18	20	66	0	820	9	5	0	3	5	21	23	35	2	77	185	7	9	872	1	44	1	19	15	4
OTU 57	56	44	158	42	23	3	33	111	96	115	124	41	13	75	34	173	669	59	145	48	153	125	31	55	28	421	66	104	47	191	34	43	74	50	39	368	39	2032	118	83	27	14	16	69	8	30	96	2	12	38
OTU 58	7	1	60	1	5	2	2	7	1	15	37	9	51	71	23	4	2	0	9	1401	13	22	3	3	0	0	0	12	0	1	2158	0	149	0	0	0	39	1175	6	0	85	0	43	97	0	11	168	1193	20	16
OTU 59	1	2	0	7	1	0	489	0	6	47	50	2	0	9	0	5	7	24	10	12	36	16	0	0	30	9	0	22	0	113	0	1	25	35	11	1	12	23	5	39	29	0	5	20	0	0	49	7	1	1
OTU 60	173	25	0	39	4	66	94	95	57	14	68	14	49	99	127	12	0	38	27	30	86	22	65	17	28	1	886	2	13	8	33	212	16	109	59	64	15	29	23	69	16	29	31	184	8	24	276	217	49	54
OTU 61	44	15	8	51	34	18	30	537	107	5	9	32	291	20	98	344	19	31	546	27	32	25	9	4	72	3	26	7	106	29	10	0	20	110	22	174	306	2	16	64	48	84	10	41	25	180	2	132	111	253
OTU 62	2	1	453	0	0	0	7	0	468	0	6	0	11	13	0	4	1	605	0	6	0	0	0	1	0	222	0	0	0	11	5	19	8	10	1	127	0	6	43	1201	7	1	0	8	0	3	59	1	0	0
OTU 63	1	1	1431	11	0	0	27	0	8	0	2	0	0	0	0	54	0	0	0	1	5	0	0	4	15	95	34	1	28	4	19	1	46	17	6	30	0	0	9	0	7	0	36	18	0	13	19	1	0	6
OTU 64	728	55	65	257	11	360	44	293	27	20	41	111	1	136	169	783	15	53	1633	34	97	95	347	46	31	12	81	73	69	2	36	464	221	229	16	144	882	7	169	105	39	63	36	36	1	13	69	443	211	533
OTU 65	0	0	0	0	0	0	0	2	1	3	0	0	0	0	3	0	0	0	0	0	0	0	0	0	9	0	0	0	0	0	0	5	0	0	0	0	0	0	0	0	1	0	0	0	0	1	0	0	2	3
OTU 66	14	48	0	2	27	7	61	5	298	18	26	99	0	34	82	3	9	42	4	7	25	17	9	55	4	24	167	16	73	20	44	301	253	84	52	1256	33	14	40	80	291	6	14	64	60	0	8	15	32	8
OTU 67	9	8	0	1	21	14	39	3	49	29	1	30	11	75	11	0	8	0	0	0	64	12	10	1	37	6	0	1	0	1	31	17	18	2	2	98	2	54	26	2	12	71	7	31	0	25	6	8	0	21
OTU 68	131	0	33	0	0	46	0	20	0	0	6	3	18	0	8	59	1	0	138	1	15	153	39	0	0	31	5	13	0	46	23	79	0	4	20	8	69	0	0	0	0	1	11	0	236	0	14	0	28	44
OTU 69	19	4	66	4	2	0	79	6	19	2	13	12	9	1	22	25	3	44	68	25	2	59	9	58	193	51	32	5	6	0	8	0	10	12	17	21	15	9	15	92	18	412	23	21	7	22	50	7	22	6
OTU 70	28	16	17	10	0	25	0	0	9	1	11	50	0	0	31	19	13	3	15	0	0	0	17	0	14	4	0	29	69	32	149	24	8	0	1	0	24	1	61	9	43	0	20	0	3	0	1	1	0	3
OTU 71	0	0	39	0	6	0	23	8	1	0	57	0	3	0	4	0	0	0	0	8	38	26	0	28	0	1	2	26	0	13	1	0	2	36	2	1	0	7	2	0	0	0	62	7	5	62	1	0	9	5
OTU 72	42	16	72	3	3	4	8	273	99	24	31	32	1295	0	87	39	1	11	103	0	0	51	9	1	52	42	0	22	17	194	9	14	1	5	27	27	19	14	103	25	117	72	2	17	43	34	14	60	84	5
OTU 73	152	0	120	0	9	76	0	87	3	0	5	0	12	14	0	54	4	56	107	145	0	0	67	36	28	23	148	0	11	39	50	13	5	71	48	8	23	13	0	101	22	26	0	45	4	12	172	15	6	1
OTU 74	6	29	45	18	1	5	0	35	22	1	23	61	78	0	1	56	16	12	94	1	11	35	12	9	2	3	5	23	0	63	25	78	117	113	33	7	5	10	6	21	89	38	38	13	34	140	3	0	35	2
OTU 75	55	36	57	13	0	14	30	40	49	14	71	55	75	9	10	38	31	71	51	10	16	50	25	15	12	38	11	24	49	45	155	27	28	29	14	25	38	12	115	137	18	116	96	59	7	9	1	31	3	11
OTU 76	1	1	11	0	27	1	1	84	0	3	13	0	9	21	1	0	7	9	0	11	3	1161	7	2	17	18	0	7	0	11	0	10	2	0	115	0	15	2	25	21	1	8	27	1	35	2	15	4	1	2
OTU 77	4	7	28	16	0	9	37	53	21	5	23	7	81	14	35	34	13	88	37	0	46	17	26	0	9	47	208	57	21	12	20	1	56	196	5	30	39	11	14	161	42	0	3	0	3	53	69	43	21	5
OTU 78	86	14	30	4	3	29	8	45	21	0	75	5	19	1	247	25	5	14	74	40	2	5	55	96	13	7	34	2	18	2	2	0	0	8	9	34	67	1	17	21	61	111	0	14	0	31	20	40	18	2
OTU 79	118	90	45	57	142	76	22	1307	235	1877	77	261	103	43	505	24	46	68	39	611	32	86	77	94	2573	168	48	92	35	2	3	68	187	62	121	129	39	107	66	163	168	258	178	127	114	50	144	68	164	72
OTU 80	56	0	17	15	6	35	69	7	258	12	13	13	129	65	13	101	13	37	240	18	3	23	18	27	33	6	15	1377	44	73	4	12	15	45	149	74	5	39	209	71	263	13	14	65	8	16	21	0	44	4
OTU 81	10	4	400	33	2	23	5	382	482	17	69	28	172	11	9	162	0	243	309	10	47	20	7	19	13	139	17	599	24	17	41	72	1	43	3	53	77	20	0	512	67	26	20	97	8	16	239	106	18	13
OTU 82	6	0	9	7	20	6	3	121	1	0	5	0	1	12	63	4	43	1	10	8	1	66	3	44	61	5	45	0	7	16	101	21	10	7	133	3	4	34	12	3	19	57	6	13	21	55	22	17	4	2
OTU 83	0	0	0	1	4	9	0	5	0	0	0	0	34	3	5	0	1	0	0	0	2	0	0	0	0	0	91	26	33	0	1	0	4	0	19	1	3	0	2	0	38	0	0	0	0	0	59	1	11	0
OTU 84	0	8	11	0	77	3	40	0	0	0	11	28	2	0	1	1	5	9	9	1	8	1	2	4	0	0	0	19	2	0	145	39	127	89	21	2	0	36	1	17	22	1	0	1	43	194	8	0	0	0
OTU 85	0	0	0	0	0	6	0	0	0	1	62	7	0	0	6	0	0	0	0	0	0	5	0	8	26	13	0	0	0	6	4	0	2	0	0	0	0	11	6	0	50	28	0	32	0	15	4	19	0	11
OTU 86	0	16	108	0	0	0	1	0	0	0	0	21	0	0	72	0	0	98	0	15	0	18	0	0	0	0	0	0	0	0	0	0	8	0	0	0	0	1	0	194	0	0	0	0	0	0	0	21	0	0
OTU 87	3	0	0	0	0	0	0	0	7	0	0	1	44	2	21	0	1	922	0	25	4	0	1	0	45	0	0	2	0	0	14	12	0	0	6	88	1	2	2	16	1	13	0	0	0	0	0	4	2	0
OTU 88	14	1	0	0	0	0	0	0	1	0	0	8	0	0	0	0	0	0	0	0	4	20	6	0	0	285	0	0	1	0	0	0	0	115	3	7	3	0	26	0	61	0	0	4	0	0	0	0	0	7
OTU 89	0	2	6	2	14	0	0	55	10	0	0	2	3	6	6	3	2	0	1	4	14	0	0	0	3	0	7	1	0	47	0	20	4	1	0	0	1	3	1	0	26	1	23	8	0	1	3	0	7	1
OTU 90	6	0	0	0	0	0	1	1	0	4	4	0	30	9	0	0	0	0	0	2	24	3	0	0	0	2	0	0	4	2	18	41	0	0	0	28	0	0	5	0	27	3	1	0	6	0	1	20	0	0
OTU 91	0	0	0	0	0	0	0	0	0	7	0	0	0	0	6	0	0	0	0	0	0	0	0	0	1	0	0	0	0	0	26	0	0	0	0	0	0	0	0	0	0	0	1	21	0	0	0	0	0	0
OTU 92	7	0	1	4	8	0	0	0	45	0	0	3	0	6	0	0	1	0	0	0	0	1	0	0	0	0	56	4	0	3	49	31	0	0	3	1	1	0	0	0	5	0	24	0	0	0	45	0	0	2
OTU 93	64	6	0	1	3	10	0	16	0	0	0	18	0	1	0	7	0	0	4	0	1	0	25	12	24	0	0	0	0	1	4	0	0	0	0	0	1	0	0	0	1	13	0	4	0	0	8	0	0	25
OTU 94	95	78	69	21	55	58	29	16	11	3	40	132	120	3	34	64	1	5	93	14	6	17	50	10	8	107	14	142	82	1	58	454	48	127	4	16	7	4	6	11	89	0	18	5	7	18	576	3	160	66
OTU 95	3	1	35	0	6	0	13	18	79	0	12	0	0	5	0	0	4	3	3	0	3	2	0	0	0	26	11	3	1	1	0	4	1	0	0	0	0	2	0	7	15	9	83	9	0	1	19	749	0	11
OTU 96	7	0	90	0	4	5	2	0	0	0	0	0	0	0	0	0	0	0	0	0	0	2	0	25	0	0	1	0	0	0	0	0	103	5	1	0	1	0	0	0	0	0	5	0	0	11	0	0	0	0
OTU 97	1	0	1	0	0	2	0	2	0	0	0	0	0	0	0	8	1	0	15	4	0	129	0	58	0	19	32	2	11	126	0	0	25	0	11	0	5	0	0	0	16	0	0	24	4	0	0	0	0	0
OTU 98	40	0	145	0	5	29	0	0	1	0	2	0	0	6	0	0	23	3	0	0	3	8	7	40	0	19	16	0	12	0	6	5	0	0	17	1	0	15	25	7	26	4	1	1	0	13	6	0	2	8
OTU 99	72	51	5	0	0	50	16	340	4	35	16	102	37	36	6	126	1	11	214	81	37	36	75	25	156	103	28	0	61	17	64	217	38	231	29	549	105	106	13	20	79	186	743	47	46	665	24	84	103	15
OTU 100	7	8	1	0	366	13	9	0	84	15	14	15	7	14	6	0	170	7	4	0	45	3	6	6	8	13	0	1458	3	29	455	0	0	5	575	0	2	174	59	7	29	24	14	0	135	16	27	18	4	9
OTU 101	0	0	0	0	0	0	0	0	0	9	0	0	0	0	0	0	0	0	0	0	0	1	0	26	0	7	0	0	0	0	0	0	0	0	0	2	5	0	7	0	0	0	0	2	0	19	1	0	8	0
OTU 102	3	1	0	4	4	0	7	2	0	11	4	4	0	7	3	0	48	0	7	0	18	7	1	22	0	10	1	45	1	0	0	0	23	0	89	4	9	1	1	0	0	0	0	3	53	8	26	0	0	0
OTU 103	0	1	0	13	356	0	10	2	0	12	1	0	2	0	51	10	150	1	6	1	6	8	0	66	10	30	181	379	6	59	224	39	370	4	580	0	25	111	4	1	44	6	0	37	208	522	1	3	70	0
OTU 104	140	27	61	96	89	67	22	106	22	5	1	70	32	0	132	42	60	83	86	14	16	0	72	344	119	89	120	5	80	38	75	795	128	84	109	7	27	6	46	177	136	295	8	3	56	3	127	137	323	174
OTU 105	0	0	0	0	0	0	0	1	0	0	12	0	4	0	0	6	0	1	11	0	0	27	0	1	0	1	0	0	0	47	0	0	4	6	4	0	18	0	1	1	210	11	2	0	0	31	8	19	0	0
OTU 106	0	10	47	21	0	0	0	1	21	2	2	54	22	2	1	0	1	0	0	0	1	0	0	0	7	8	0	0	0	0	0	2	0	2	0	16	2	8	0	4	1	1	0	0	0	0	3	0	7	37
OTU 107	18	1	55	0	1	0	0	9	0	10	24	1	12	54	3	2	0	2	2	0	27	28	5	4	0	0	0	3	0	31	0	0	1	5	0	4	1	14	0	3	0	0	0	167	18	1	26	3	2	7
OTU 108	34	2	1	0	15	22	2	36	0	4	1	4	1	9	13	41	0	0	140	6	7	1	7	18	0	0	0	48	7	4	3	3	12	2	3	1	9	22	1	0	15	1	9	6	0	11	0	27	2	0
OTU 109	0	4	0	0	0	0	0	0	0	0	0	4	1	0	0	1	0	0	0	0	0	0	0	0	0	0	0	0	0	0	0	0	0	0	0	0	0	0	0	0	0	3	0	0	0	0	0	0	0	0
OTU 110	167	1	3	38	1	88	0	34	23	11	19	24	3	5	17	47	1	32	59	13	8	119	82	34	5	39	75	51	1	67	34	101	181	0	99	25	12	0	12	71	29	31	52	6	3	72	388	1220	35	25
OTU 111	28	0	1	0	1	29	3	0	0	18	0	0	0	0	0	0	0	0	2	0	0	0	10	42	9	1	8	0	4	0	0	0	0	0	0	2	0	1	4	0	5	0	0	28	18	0	6	0	0	0
OTU 112	1	7	2	0	25	1	315	0	2	30	13	0	18	5	6	0	26	4	0	0	16	63	0	0	0	0	0	2	0	6	44	0	0	0	159	27	0	7	6	6	28	39	2	1	17	0	25	12	1	3
OTU 113	0	683	2	0	0	0	0	0	0	0	2	72	0	3	0	0	0	0	0	0	0	1	0	1	0	0	0	0	3	28	0	18	0	6	1	0	1	0	0	0	22	0	0	0	0	0	0	19	0	12
OTU 114	67	36	20	2	45	25	25	148	44	1387	58	64	0	2470	77	54	41	1	91	80	39	50	17	260	562	17	534	2	1	36	318	34	879	270	9	17	205	69	76	8	130	920	49	19	3	112	14	58	30	6
OTU 115	88	3	73	94	76	76	46	40	63	4	49	28	75	31	82	7	97	12	30	13	107	37	60	53	27	119	9	104	13	94	85	44	46	217	217	8	30	124	61	23	21	61	146	18	75	57	24	26	39	57
OTU 116	64	22	1	12	3	49	97	63	58	104	4	24	50	252	110	10	0	0	11	20	355	43	24	1	72	101	23	58	0	6	3	32	94	9	69	881	7	1	8	1	189	178	3	18	21	28	0	0	23	4
OTU 117	30	40	60	9	26	25	31	882	1	29	40	77	16	16	1	0	5	8	8	2	23	1	12	97	36	26	98	5	50	27	45	81	31	106	66	50	4	39	19	20	98	6	8	7	62	72	88	1	1	43
OTU 118	18	0	26	5	0	0	2	0	15	0	0	5	0	0	133	0	0	0	0	0	0	0	14	0	7	4	0	0	30	13	0	0	110	21	3	62	0	0	0	0	22	18	0	0	0	108	0	0	0	0
OTU 119	4	0	25	194	101	0	7	16	10	8	12	3	7	0	39	5	56	9	10	4	0	179	6	1668	0	33	8	97	33	1	0	26	21	7	65	0	18	4	20	21	31	27	28	6	107	23	1	84	31	9
OTU 120	39	0	43	0	6	26	0	0	5	7	50	1	5	37	5	28	7	0	24	10	1	0	13	2	0	87	0	26	0	13	1	0	0	0	0	19	0	0	44	0	0	5	13	0	0	23	0	2	8	0
OTU 121	61	0	0	0	1506	4	0	2	2	22	0	0	16	0	2	4	766	24	14	4	1	1	11	0	60	64	25	0	77	61	8	9	24	0	70	10	1	26	18	50	8	53	89	42	0	121	41	2	12	7
OTU 122	0	28	57	40	3	0	5	23	123	4	40	40	24	0	39	36	1	7	48	11	2	79	4	7	0	126	23	1	9	0	0	12	19	12	12	10	8	1	108	26	7	38	168	52	15	109	85	2	6	35
OTU 123	200	50	154	41	64	172	229	97	22	1117	121	27	66	37	463	189	26	33	300	564	17	46	106	97	400	336	52	215	713	119	160	54	253	80	64	130	59	53	421	77	138	97	234	259	1365	192	187	40	127	106
OTU 124	0	0	1	0	1	0	5	82	0	0	0	0	18	2	32	12	0	9	34	0	0	0	0	0	0	6	0	1	1	0	0	31	0	23	0	0	2	12	2	24	0	14	0	0	0	1	6	0	40	11
OTU 125	128	47	116	81	107	71	114	37	148	21	463	87	156	85	206	58	29	77	76	52	83	1179	161	67	36	55	26	181	45	91	69	186	28	318	280	203	11	818	150	152	153	188	326	118	69	64	400	25	48	67
OTU 126	7	2	0	0	0	1	0	15	0	0	0	1	0	1	0	5	0	0	6	0	0	0	7	0	0	0	0	0	0	0	0	0	0	2	0	0	0	14	16	0	6	2	0	0	0	0	0	0	6	0
OTU 127	33	0	12	9	0	2	0	15	7	28	8	0	211	23	6	0	2	40	0	0	48	1	18	67	7	0	41	1	61	1	2	1	10	20	0	0	5	4	36	99	5	7	45	7	0	6	404	7	23	1
OTU 128	723	45	157	44	33	364	112	230	141	120	189	65	503	113	113	157	58	128	285	23	91	121	341	361	227	53	29	53	48	105	91	238	213	361	80	207	40	20	107	307	44	369	34	120	11	86	62	7	70	76
OTU 129	1	30	0	0	0	0	21	1	15	0	30	58	0	0	0	0	4	0	0	0	8	0	13	0	2	0	0	0	0	0	0	24	1	0	52	14	0	40	0	0	1	0	0	43	19	0	0	1	1	3
OTU 130	9	2	17	0	8	10	61	4	11	2	2	8	10	0	6	11	1	0	6	11	16	29	3	11	45	2	6	2	0	22	3	0	31	38	11	72	70	14	5	1	19	17	14	3	1	64	12	3	2	7
OTU 131	57	16	12	49	7	7	2	207	68	40	52	36	35	4	148	28	15	109	37	0	14	0	27	379	0	23	876	0	5	2	12	70	1656	4	0	8	0	34	12	198	11	10	44	92	3	170	8	49	14	34
OTU 132	5	24	6	0	0	0	1	27	0	1	8	36	0	0	0	11	20	8	8	1	0	17	65	55	11	5	25	17	35	8	5	11	7	102	10	5	9	1	16	18	1	11	1	1	13	19	1	3	32	0
OTU 133	0	0	0	1	0	0	0	0	5	0	0	0	31	0	0	3838	0	0	0	10	0	2	0	16	4	1	12	1	3	3	10	0	0	0	0	0	0	0	1	0	0	0	4	0	0	1	0	0	0	0
OTU 134	6	0	4	10	7	0	64	25	40	29	2	0	1	156	61	42	22	0	68	0	50	68	12	4	27	35	0	49	33	80	140	56	36	6	5	173	49	70	4	0	255	11	40	14	7	39	14	18	14	8
OTU 135	43	2	23	3	22	11	27	7	28	49	3	0	1	20	377	56	5	2	88	4069	42	0	22	17	35	46	4	7	17	82	26	24	4	32	12	37	37	5	88	1	114	0	63	99	8	21	1	88	103	14
OTU 136	0	9	18	0	1	19	3	1	8	30	1	8	1	21	17	1	0	30	6	6	0	12	1	0	1	3	47	124	0	1	6	12	4	8	5	41	33	0	4	56	7	0	38	0	7	27	66	2	4	0
OTU 137	100	3	0	0	4	32	3	89	8	0	1	6	0	3	0	10	0	37	20	15	12	0	62	1	0	0	6	0	2	0	0	1208	0	0	26	0	11	0	0	60	7	17	1	80	9	9	5	2	238	0
OTU 138	28	0	14	33	0	5	0	1	0	0	41	0	0	1	1	4	11	0	7	10	15	0	0	7	5	0	13	0	20	0	3	1	3	35	0	56	0	2	1	0	9	43	14	18	4	7	10	5	0	12
OTU 139	5	1313	16	51	104	1	59	5	6	79	94	2484	8	106	25	1	40	15	13	8	47	56	5	51	9	1183	90	31	94	14	87	48	87	3	122	41	66	105	132	39	111	3	4	42	26	95	94	53	70	72
OTU 140	81	67	55	35	513	59	179	11	99	457	482	68	128	783	55	29	256	118	40	15	28	32	59	1130	8	106	48	20	447	1736	118	107	59	83	402	243	66	180	37	237	200	20	190	157	245	77	123	12	3343	77
OTU 141	0	0	0	0	0	0	0	0	0	0	0	0	0	1	0	0	0	0	0	0	0	0	0	0	0	0	0	10	0	0	0	1	0	0	0	0	0	0	0	0	0	0	0	0	7	0	1	0	0	0
OTU 142	0	1	0	2	0	0	0	0	0	0	0	0	0	0	0	0	0	0	0	0	0	0	0	0	0	0	0	0	0	0	0	10	0	0	0	0	0	31	0	0	0	0	3	0	0	0	0	0	0	2
OTU 143	13	2	0	9	0	8	0	0	1	0	0	0	0	1	1	16	0	0	17	0	0	2	8	0	0	0	0	0	0	0	0	0	0	2	113	8	0	0	6	2	0	0	2	1	15	3	0	0	0	2
OTU 144	0	12	2	2	0	7	119	1	0	2	89	5	0	0	0	4	1	0	11	1	1	6	0	0	5	1	20	6	20	0	0	2	24	209	6	0	0	0	0	0	72	0	14	38	27	3	4	2	3	8
OTU 145	24	0	0	2206	10	19	28	17	77	0	27	3	5	7	241	66	81	3	105	41	37	30	20	0	173	92	57	773	64	104	15	55	51	12	235	6	38	4	2	4	111	272	72	71	0	19	4	55	41	4016
OTU 146	11	3	3	0	3	4514	53	8	1	20	7	0	12	1	52	0	2	14	18	13	4	28	3	3	25	60	2766	1	0	69	1	9	56	0	5	55	2	82	11	19	136	17	48	5	3	15	200	21	89	7
OTU 147	18	54	5	12	13	24	1	2	13	0	8	149	78	1	21	0	1	1	0	0	0	6	15	2	0	8	1	0	42	0	1	1	1	19	5	1	50	3	0	3	0	1	0	6	1	129	0	0	0	1
OTU 148	0	4	6	0	273	7	161	8	9	32	162	19	42	49	1249	12	129	7	16	2	36	2	0	75	38	2	332	155	13	3	190	23	408	30	173	17	119	344	5	15	1	0	245	21	152	894	19	10	3	9
OTU 149	97	0	4	2	36	33	9	1	1	0	0	0	0	2	2	26	2358	0	27	30	0	0	44	76	23	0	29	20	3	1	25	0	9	1	33	1	4	1	0	0	46	47	79	3	91	24	1	50	28	21
OTU 150	3	1	0	5	0	0	0	11	0	86	2	0	4	0	102	0	4	23	0	210	0	0	5	2	856	0	0	34	7	0	6	2	0	19	10	0	0	27	3	55	0	0	27	0	0	8	10	0	0	0
OTU 151	0	0	3	0	2	0	39	0	4	39	159	0	30	27	0	28	8	13	57	1	19	36	0	14	2	32	1	12	3	48	3	6	14	30	25	2	4	38	0	27	12	31	29	5	43	17	5	0	0	3
OTU 152	3	13	2	4	3	4	0	14	6	9	18	15	22	0	15	5	0	0	19	4	8	45	5	5	49	43	3	1	32	47	4	12	1	10	6	12	0	172	26	1	113	103	62	28	18	14	14	15	1	2
OTU 153	0	4	0	0	0	0	0	0	1	0	15	4	0	0	0	0	0	6	0	0	0	0	0	0	0	1	0	10	0	0	1	5	14	5	0	4	0	1	0	12	0	0	0	0	0	1	17	0	0	0
OTU 154	1	0	14	0	0	0	0	0	1	2	0	0	0	0	0	0	0	0	0	1	0	17	0	0	0	0	0	0	21	0	0	3	0	20	0	0	1	0	0	0	8	0	2	0	0	0	0	0	0	0
OTU 155	0	168	38	0	4	2	152	49	4	2	2	376	4	1	3	2	2	0	5	0	1	14	4	0	2	54	0	2	2	1	29	16	2	0	1	11	12	0	1	0	10	6	4	18	36	0	3	18	6	16
OTU 156	66	3835	12	43	0	32	31	146	32	22	108	0	37	73	8	280	8	73	17	11	80	46	13	46	3	41	7	122	23	70	13	33	56	1	29	72	71	52	53	156	43	0	19	38	0	20	17	26	34	7
OTU 157	6	5	17	0	0	0	0	4	1	11	0	0	4	1	0	0	0	0	0	0	3	2	1	1	1	65	2	22	10	6	12	0	11	4	0	140	0	9	0	0	0	25	2	3	17	9	0	15	29	0
OTU 158	0	0	1	0	1	0	0	0	0	0	0	0	0	0	0	0	0	0	0	0	1	0	0	0	0	0	0	0	0	0	0	0	0	0	0	0	0	0	0	0	0	1	0	0	0	0	6	0	1	0
OTU 159	5	2	1	0	1	11	4	0	61	2	6	7	60	1	86	9	1	0	18	6	3	3	2	5	38	3	14	9	23	26	157	71	16	47	4	3	16	3	10	0	3	2	22	35	24	35	22	378	2	0
OTU 160	98	29	117	1057	5	103	96	36	28	80	280	28	385	26	143	68	58	11	167	26	129	132	55	80	27	649	45	33	26	88	17	34	35	130	99	674	78	139	31	13	52	27	157	41	26	19	152	49	6	28
OTU 161	1	47	1525	19	3	3	56	34	38	10	25	85	243	7	211	33	3	19	81	7	15	0	0	356	0	83	11	26	27	19	74	36	0	0	54	4	8	22	33	48	62	26	49	52	23	55	28	9	93	27
OTU 162	36	24	44	13	4	4	66	34	1	0	129	22	3	1	7	39	3	7	44	32	0	2	13	12	109	81	28	6	742	4	91	58	10	6	3	16	4	9	1	17	8	187	42	14	4	9	90	24	78	10
OTU 163	0	19	0	0	0	0	0	0	0	0	0	10	0	2	4	0	0	0	0	0	0	0	0	0	0	0	0	0	0	0	0	0	0	0	0	0	0	2	0	0	12	0	3	0	0	0	2	0	0	0
OTU 164	5	0	0	0	0	0	0	0	0	0	0	0	0	0	0	0	0	0	0	0	0	0	0	1	0	0	0	0	0	0	0	0	9	0	3	3	1	0	0	0	0	0	0	0	9	0	0	0	3	0
OTU 165	5	0	7	2	0	3	1	18	0	0	172	0	107	0	6	3	0	0	1	0	0	2	0	10	134	6	13	73	47	709	1	98	13	0	31	4	0	18	32	0	38	191	86	1353	18	0	4	5	8	0
OTU 166	0	0	0	0	44	0	0	0	0	0	0	0	0	0	0	0	43	0	0	2	0	0	0	0	3	0	0	0	2	0	0	1	1	0	37	8	0	0	0	0	0	0	0	0	35	0	0	0	0	0
OTU 167	18	9	42	5	45	23	18	135	0	4	8	4	20	1	64	1	0	0	0	7	7	0	12	3	0	117	0	7	11	121	1	2	18	13	5	14	1	9	32	5	45	1	0	3	4	1	1	5	42	6
OTU 168	33	44	16	9	94	21	81	9	16	14	24	82	68	119	79	0	7	196	1	7	27	14	13	106	5	18	0	7	4	546	0	3	45	21	31	0	2	49	21	178	6	2	34	1337	74	2	14	0	63	2
OTU 169	0	0	8	5	0	0	1	0	17	0	0	0	0	0	0	53	0	0	87	0	0	5	0	3	41	0	0	2	2	0	0	0	0	0	0	0	27	0	0	0	0	1	0	0	0	0	0	3	18	0
OTU 170	1	0	0	0	0	0	0	0	0	0	0	0	0	0	2	0	0	2	0	0	0	0	0	0	0	3	1	5	0	0	3	44	7	0	0	0	1	0	2	11	0	0	0	0	0	0	0	19	0	4
OTU 171	0	0	0	33	1	0	1	2	6	0	4	0	5	22	10	49	7	0	101	49	16	0	1	25	42	49	0	79	2	0	1	43	0	2	1	4	61	1	52	6	20	75	33	1	764	28	94	39	43	19
OTU 172	0	0	0	0	0	0	0	0	0	0	86	1	0	0	5	0	18	1	0	0	0	19	5	0	0	0	1	18	0	0	0	0	0	0	3	0	0	10	0	4	9	0	0	1	1	0	3	0	0	1
OTU 173	0	0	0	2	1	0	21	13	2	5	1	0	36	2	24	20	0	27	20	0	1	9	0	2	34	0	3	0	0	24	6	0	0	3	0	13	1	1	8	48	0	0	4	88	0	3	1	3	0	2
OTU 174	113	41	10	4	1	31	113	6	0	393	41	29	3	658	0	25	8	10	46	0	767	156	54	0	31	72	22	86	13	11	19	223	2	1	0	13	5	4	22	19	0	50	3	3	0	1	0	2	188	2
OTU 175	1	1	21	2	0	0	28	11	1	2	0	6	61	0	20	4	9	1	18	1	2	4	0	26	2	0	1	0	19	10	5	2	2	100	19	5	4	7	0	5	0	0	2	8	0	0	27	0	0	1
OTU 176	49	8	21	4	8	30	30	123	62	3	154	17	23	25	87	17	1	12	81	50	47	40	12	35	62	2	26	10	6	8	33	1	66	7	70	7	17	0	120	17	21	132	69	19	1	203	89	16	22	5
OTU 177	4	75	12	5	19	2	39	9	16	106	85	163	9	115	80	17	9	13	50	21	245	3	1	10	35	13	1	152	73	7	125	28	1	48	108	3	77	8	38	34	153	64	12	72	68	107	91	12	31	7
OTU 178	11	0	2	28	10	36	34	130	0	18	1	5	0	125	12	0	0	4	0	1	42	58	5	0	0	54	8	12	29	2	55	6	0	0	3	35	7	0	17	20	0	23	29	1	3	1	62	0	0	26
OTU 179	2162	13	83	1	4	1072	26	2	2	28	1	9	31	88	0	15	0	35	55	5	82	100	1106	14	9	3	0	0	0	0	15	0	0	0	15	44	0	2	3	69	0	47	82	3	27	2	0	2	0	43
OTU 180	78	75	0	34	215	12	148	74	51	95	215	110	197	241	175	32	101	9	76	32	74	97	14	66	65	53	52	253	37	58	72	50	16	119	288	177	89	77	80	29	193	112	54	45	387	85	153	62	60	46
OTU 181	4	9	3	4	52	2	5	41	62	46	22	7	39	225	19	24	11	0	23	34	206	62	0	0	2	0	0	13	0	2	188	88	3	4	0	32	0	46	39	2	1013	21	13	7	0	116	21	23	68	27
OTU 182	0	0	1	0	0	0	0	0	0	0	0	0	0	1	0	0	0	0	0	0	1	0	0	0	0	0	1	0	0	0	0	0	0	0	0	0	0	0	0	0	0	0	0	29	0	0	13	37	1	0
OTU 183	0	9	27	2	121	4	31	0	1	25	1	28	119	26	19	49	15	20	69	4	25	2	1	53	0	0	5	0	1	114	1	36	0	8	2	38	8	9	17	38	88	47	25	1	3	5	24	2	3	1
OTU 184	10	9	0	1	17	15	162	17	2	28	22	14	21	145	1	24	22	0	72	0	55	0	6	686	0	6	0	29	21	2	5	2	35	43	1	1	27	16	1	0	5	4	0	0	36	0	15	48	28	3
OTU 185	1	3	27	6	95	12	19	144	11	5	168	4	45	2	47	2	24	17	5	30	6	14	0	0	42	2	51	26	0	346	33	101	132	30	205	28	26	35	0	20	8	212	25	252	101	65	75	40	55	3
OTU 186	3	0	120	3	0	1	4	0	0	2	2	0	5	0	0	3	8	10	5	0	0	13	2	0	0	0	2	1	0	8	15	7	0	25	0	0	36	4	58	12	20	7	0	0	9	45	1	1	27	24
OTU 187	3	25	33	0	78	1	45	204	17	6	56	63	152	3	265	20	71	5	34	3	5	109	2	80	83	10	30	213	23	62	185	290	66	137	102	26	89	78	113	13	155	57	51	39	208	148	66	43	99	5
OTU 188	22	102	12	7	100	3	22	84	383	4	29	159	44	0	175	25	7	43	32	0	3	34	5	3	1	43	12	20	3	140	63	19	18	52	29	14	28	28	17	86	0	12	27	150	34	62	83	0	1	6
OTU 189	107	3	64	128	3	34	8	12	68	4	83	9	17	14	13	59	19	0	129	39	44	6	40	2	43	88	42	28	51	17	37	47	112	38	39	31	743	105	58	0	181	103	19	19	44	73	145	141	64	495
OTU 190	3	9	67	0	0	0	0	0	0	0	0	13	117	0	0	0	4	0	0	1	0	0	0	0	0	0	0	0	1	0	0	0	21	0	0	1	0	0	0	0	16	0	0	0	4	33	0	0	0	0
OTU 191	10	56	0	14	0	12	86	45	38	5	73	102	35	3	286	9	18	3947	24	2	4	93	0	17	11	57	29	4	0	26	55	11	0	12	95	15	15	2	22	19	110	52	62	20	26	1	79	49	191	24
OTU 192	40	7	633	21	1	6	0	151	582	34	19	1	102	82	1	125	7	299	285	23	67	142	32	17	52	796	21	137	168	7	27	147	68	114	45	465	127	20	307	658	38	38	222	48	20	12	27	157	8	88
OTU 193	50	58	126	35	2	2	42	252	8	0	39	192	31	1	1	116	8	3	224	14	7	14	16	34	21	33	1	1	309	8	1	0	7	0	1	55	94	16	553	5	1	281	25	10	2	1	137	138	30	147
OTU 194	261	0	12	0	0	141	1	6	0	0	24	2	0	0	30	0	0	2	0	1	1	0	146	97	0	0	1	30	74	71	19	205	3	8	6	0	15	0	84	3	12	59	12	5	0	1	1	24	478	0
OTU 195	76	0	27	5	33	58	43	0	2	19	0	12	0	25	16	15	25	64	25	0	78	58	51	3	7	4	61	0	33	8	6	4	0	75	99	13	13	0	309	123	51	10	28	11	34	252	8	0	42	0
OTU 196	4	2	85	14	574	6	0	17	15	27	52	12	0	15	5	15	299	4	60	0	16	53	4	0	0	107	4	27	115	78	535	65	3	0	915	10	74	201	233	9	37	0	79	2	618	7	81	2	10	60
OTU 197	42	648	2	22	32	5	196	154	1794	12	434	1171	67	1	25	53	23	10	94	15	41	8	3790	28	66	23	47	120	30	95	128	186	24	108	30	27	44	44	44	20	36	114	238	49	8	621	217	82	18	135
OTU 198	61	7	31	0	0	36	2	17	9	0	0	3	127	0	25	0	0	5	0	0	0	1047	29	0	0	1	117	6	0	4	0	0	1	0	1	0	0	2	0	6	0	0	0	131	0	29	16	0	0	0
OTU 199	0	0	0	0	29	17	72	14	4	7	91	20	2	0	7	4	5	15	9	1	0	9	1	3	1	8	6	4	30	0	0	0	0	49	62	9	22	0	23	34	30	21	108	23	11	9	85	3	0	24
OTU 200	3	1	24	21	1	4	15	0	0	0	3	3	55	3	21	6	2	0	30	0	1	7	3	9	4	0	0	7	12	1	0	63	4	0	2	15	30	49	0	0	8	16	5	0	24	56	21	75	100	4
