	Host 1	Host 2	Host 3	Host 4	Host 5	Host 6	Host 7	Host 8	Host 9	Host 10	Host 11	Host 12	Host 13	Host 14	Host 15	Host 16	Host 17	Host 18	Host 19	Host 20	Host 21	Host 22	Host 23	Host 24	Host 25	Host 26	Host 27	Host 28	Host 29	Host 30	Host 31	Host 32	Host 33	Host 34	Host 35	Host 36	Host 37	Host 38	Host 39	Host 40	Host 41	Host 42	Host 43	Host 44	Host 45	Host 46	Host 47	Host 48	Host 49	Host 50	
OTU 1	84	12	93	105	238	372	9	481	343	88	157	0	0	13	291	241	192	0	696	0	11	186	358	9	138	259	147	253	4	217	229	452	46	317	0	195	304	623	28	5	110	305	114	0	94	379	20	210	172	317
OTU 2	0	37	6	0	4	1	0	0	11	0	0	4	1	2	27	3	45	1	15	0	325	1	10	1	0	23	0	2	0	1	17	1	46	4	3	23	0	0	51	0	5	6	0	3	2	21	42	0	10	0
OTU 3	14	7	0	0	51	0	1	0	0	0	3	1	0	1	0	9	0	0	0	6	33	2	11	0	0	0	0	1	0	2	6	1	17	3	73	0	0	54	2	0	11	0	0	1	1	0	71	0	0	26
OTU 4	0	25	0	0	0	0	0	0	0	0	0	0	0	0	0	0	0	0	0	0	0	0	0	0	0	0	0	0	0	0	1	0	0	0	0	0	0	0	0	0	0	1	0	0	0	41	0	0	23	0
OTU 5	667	455	0	214	82	260	698	1083	677	68	35	38	208	153	0	98	3	336	1168	108	347	413	325	65	283	78	2114	217	129	813	945	83	2	597	36	855	549	65	15	377	3	3	322	28	83	17	53	210	21	60
OTU 6	152	49	25	7	2	1788	26	5	4	7	24	8	36	23	0	12	148	20	39	0	34	0	0	1	0	12	7	3	11	1	595	1	73	11	9	46	63	26	0	0	3	1	2	67	1	43	5	0	13	5
OTU 7	90	27	55	28	44	41	25	52	308	25	687	80	81	101	72	10	264	19	42	88	49	38	35	16	16	6	81	29	312	19	21	79	137	143	156	508	97	11	47	215	16	47	24	14	41	159	38	95	70	19
OTU 8	1	206	142	2200	43	32	570	29	65	4	86	11	140	124	18	60	128	126	42	72	11	6	10	118	4	29	7	13	255	21	109	10	48	2	23	42	144	58	24	121	81	57	15	46	12	27	18	51	11	43
OTU 9	0	6	7	0	29	12	43	0	0	2	0	0	34	87	3	8	14	32	1	5	30	0	2	0	0	54	13	0	12	1	25	28	31	28	0	5	3	22	3	49	14	8	5	0	1056	2	8	0	1	20
OTU 10	3	1	0	0	3	0	0	20	8	0	95	25	0	0	0	1	2	12	6	0	40	8	72	3	19	0	0	45	18	0	22	3	0	0	8	1	41	14	11	9	0	1	0	48	0	13	90	0	4	2
OTU 11	0	9	2	13	2	13	22	28	12	42	2	29	21	0	60	26	22	26	15	78	11	1	10	2	4	72	10	12	173	16	24	63	80	13	148	10	111	75	40	7	14	11	34	92	3	72	72	3	44	50
OTU 12	95	18	13	23	28	54	149	11	71	24	17	174	22	46	57	0	189	41	61	13	152	66	90	8	24	24	30	40	58	65	25	73	127	75	264	28	9	5	64	54	24	8	3	60	44	112	10	7	69	1
OTU 13	0	0	0	0	0	0	0	1	1	0	0	2	1	89	0	0	0	0	4	0	0	0	0	0	0	1	0	0	0	0	0	0	10	0	0	0	0	0	0	1	1	0	0	0	0	0	0	2	0	0
OTU 14	0	31	22	10	1	65	124	0	36	12	30	11	3	4	14	0	95	45	0	7	42	24	35	0	18	2	13	31	1	126	2	10	1	50	1	0	11	0	46	4	0	5	0	3	37	5	0	3	0	0
OTU 15	0	0	0	0	0	0	87	0	2	0	0	0	0	1	7	0	0	0	0	0	32	0	0	0	0	12	0	0	0	3	0	0	5	0	0	0	0	0	0	0	0	0	0	0	1	0	0	0	0	0
OTU 16	0	0	0	0	0	0	0	0	0	0	0	0	0	0	0	0	0	44	0	0	0	0	0	0	0	0	0	0	0	0	0	0	0	0	0	0	0	25	0	0	4	0	0	4	0	0	0	0	0	13
OTU 17	2	24	3	0	12	1	7	12	1	1	11	88	66	9	23	6	5	34	19	33	3	3	1	0	1	3	6	1	4	2	7	9	20	5	445	0	1	15	12	0	1	118	0	6	10	0	67	4	1	13
OTU 18	2	10	195	6	4	14	29	3	10	5	56	104	30	1	11	4	35	110	7	50	395	8	11	2438	4	13	10	3	65	75	18	8	88	28	44	11	12	3	6	142	52	61	0	16	25	31	14	1	33	0
OTU 19	0	0	1	0	0	0	0	0	3	0	0	0	0	0	0	0	0	0	0	0	0	0	0	0	0	0	0	0	0	0	0	0	0	0	0	0	0	0	0	0	0	0	0	0	0	0	0	0	0	0
OTU 20	12	83	0	5	9	0	150	44	19	3	197	37	37	12	21	10	37	12	5	2	18	8	1	15	18	4	0	21	215	14	3	2008	118	1	47	13	61	42	100	2	1	5	3	5	8	2	1	6	2	25
OTU 21	15	2	386	14	149	527	30	238	367	36	187	107	142	165	130	54	18	0	435	51	15	1527	414	234	54	100	130	98	40	225	1	417	74	258	23	230	31	213	8	37	114	165	23	43	36	510	12	163	243	99
OTU 22	1	57	40	41	1	48	32	65	25	40	111	9	73	1	30	40	97	10	0	2711	0	1	16	5	20	18	0	40	13	3	45	13	92	0	271	55	292	2	24	53	48	30	9	317	39	9	12	5	3	5
OTU 23	34	1	2	9	41	8	13	38	41	26	19	11	1	126	39	0	5	5	2	1	7	1	24	2	0	1	12	0	158	1	2	2	27	19	28	2	0	1	9	143	12	0	7	1	0	4	2	0	0	1
OTU 24	4	0	46	2	0	6	9	0	21	9	332	14	25	5	0	0	5	18	1	0	26	1	0	61	14	20	4	24	4	0	2	0	78	1	42	0	19	0	4	85	3	3	0	2	0	0	0	2	1	0
OTU 25	0	0	1	0	0	0	0	0	0	0	0	0	0	0	0	0	0	0	0	0	0	0	0	0	0	0	0	0	0	6	0	21	0	0	0	0	0	0	5	0	0	0	0	0	0	0	0	0	0	0
OTU 26	0	2	239	0	1	0	37	0	1	0	1	8	43	39	0	0	2	0	21	0	1	9	0	47	0	0	0	0	0	4	0	0	0	0	0	7	2	0	2	0	2	2	0	0	22	0	0	0	0	0
OTU 27	4	0	0	0	0	0	0	0	0	0	0	0	0	0	0	5	7	1	0	0	2	0	0	0	0	0	0	0	0	0	0	0	0	1	0	0	3	0	0	0	0	0	0	0	0	0	0	0	0	0
OTU 28	6	62	77	6	29	67	60	26	1	25	228	41	159	21	38	24	16	30	1	2	6	10	5	53	14	5	10	44	9	23	7	21	3	27	7	1	10	15	3	9	8	18	8	13	41	7	87	17	2	10
OTU 29	147	59	5	1953	215	668	57	398	562	174	33	10	17	6	276	230	37	83	817	20	21	146	380	15	121	73	133	233	43	155	241	491	118	179	69	187	2	395	84	85	332	148	145	3	121	740	7	91	317	239
OTU 30	12	0	0	0	0	0	30	0	0	0	0	0	0	0	1	0	0	0	0	0	0	0	1	0	0	0	0	0	0	5	0	0	0	0	0	10	0	0	0	0	0	0	0	0	0	0	0	0	0	0
OTU 31	1	0	41	6	0	0	22	4	1	2	2	1	0	32	0	0	14	2	9	25	13	1	1	0	0	14	121	0	38	0	62	1	5	0	0	0	6	0	0	2	0	0	0	181	203	2	1	0	0	1
OTU 32	23	43	75	0	9	42	11	27	4	2	7	28	5	55	22	12	74	7	5	10	95	3	48	12	0	21	10	2	75	13	2098	3	7	28	31	26	44	11	27	39	14	31	0	29	36	66	41	4083	33	10
OTU 33	0	1	0	0	0	0	0	0	0	0	18	0	0	7	0	0	0	0	0	0	0	0	3	0	0	0	0	0	8	0	0	0	0	0	0	1	0	0	19	0	3	0	1	0	0	0	0	1	0	0
OTU 34	85	117	47	17	94	8	6	1	15	2	0	41	240	108	13	293	105	8	83	182	160	2	2	0	31	23	3	63	14	36	10	84	81	5	19	62	693	16	42	99	84	41	64	18	2	69	14	6	33	18
OTU 35	2	3	18	0	3	6	225	0	36	6	158	92	6	76	63	23	45	2	7	0	1	0	3	2	1	0	0	5	63	0	2	1	33	4	69	4	3	44	167	3	22	1	9	8	8	19	35	16	8	5
OTU 36	5	5	44	10	2	11	1	68	11	16	8	14	32	0	16	2	0	6	39	9	1	6	0	11	0	30	18	0	35	6	21	0	25	25	17	125	22	3	149	41	67	1	10	526	2	4	103	6	2	1
OTU 37	2	3	43	3	0	0	0	3	0	1	1	0	0	227	0	0	0	16	0	163	13	0	1	7	0	42	0	0	0	18	1	0	0	0	2	0	9	0	6	17	0	0	0	0	5	0	0	0	0	0
OTU 38	23	98	35	0	38	0	20	8	5	11	34	13	24	14	12	0	26	5	29	146	2	9	1	10	0	23	0	0	10	6	25	12	0	0	18	576	60	16	47	133	1	14	2	0	24	45	22	0	34	16
OTU 39	0	31	1	5	2	0	0	4	5	7	16	0	16	0	81	20	0	0	0	14	1	0	0	1	0	2	14	0	24	6	1	0	6	22	9	20	0	4	46	0	3	0	17	19	0	1	14	13	0	3
OTU 40	5	5	66	0	16	14	1	0	6	4	33	55	9	2	4	25	105	23	26	31	236	11	15	41	4	12	0	11	32	10	6	60	89	8	11	4	4	35	15	87	44	2	59	117	3	61	42	53	36	9
OTU 41	0	51	2	5	7	11	9	43	85	5	10	24	14	61	17	9	12	34	82	62	78	0	0	0	8	40	0	20	78	17	2	15	0	0	176	15	42	50	49	33	1	3	2	7	0	14	34	0	5	26
OTU 42	0	1	3	28	38	0	0	0	14	49	3	51	23	20	29	0	4	0	2	25	1	2	3	0	0	7	4	0	0	72	0	0	2	10	7	1	0	0	0	0	2	62	0	6	68	49	35	0	45	0
OTU 43	0	0	0	0	0	0	0	0	0	0	0	0	0	1	0	0	0	0	0	0	42	0	0	0	0	0	0	0	0	0	0	0	0	0	0	0	0	0	0	0	0	0	0	0	0	0	0	0	0	0
OTU 44	0	0	10	0	2	0	2	0	29	0	77	0	16	0	17	12	24	19	1	62	2	0	8	0	0	18	0	0	15	2	1	2	0	0	0	0	1	0	2	34	0	0	0	18	0	0	0	5	0	8
OTU 45	5	81	22	12	1	10	0	23	68	5	82	40	13	148	17	107	40	7	160	16	10	337	1649	10	376	3	3	778	0	841	67	5	0	7	85	1	43	13	6	32	15	43	43	17	14	129	3	2	55	0
OTU 46	31	11	3	5	5	5	67	8	6	7	73	14	2	34	1	24	50	10	79	6	171	4	1	8	10	55	9	18	696	6	530	9	30	15	2	47	36	70	38	24	19	8	5	198	31	7	9	6	2	20
OTU 47	0	0	0	0	1	1	21	0	0	0	47	16	0	0	0	0	40	4	0	0	3	0	0	1	10	0	0	27	1	5	0	2	0	0	0	0	7	0	0	0	4	0	0	0	0	0	1	3	1	0
OTU 48	7	32	93	0	30	42	102	3	0	0	0	12	15	52	4	12	10	10	4	0	173	3	55	146	11	42	22	24	37	14	4	11	39	16	78	46	0	37	6	27	0	40	13	44	32	195	42	17	63	16
OTU 49	4	2	17	0	22	55	18	8	0	0	13	12	25	11	0	0	11	0	155	0	18	0	13	2	3	5	2	7	23	4	68	6	82	0	8	44	46	2	34	0	4	44	0	16	0	69	49	1	38	0
OTU 50	16	78	77	5	8	4	6	8	115	21	19	65	13	84	11	12	270	62	39	5	43	19	16	133	5	57	1	11	28	7	19	975	9	1	180	52	17	44	7	202	42	19	4	22	3	17	3	21	0	11
OTU 51	32	0	0	6	25	58	4	68	2	2	3	121	20	0	7	13	27	6	36	14	4	0	1	3	2	14	0	7	14	2	9	9	0	0	4	0	14	2	20	11	0	10	7	2	4	24	0	17	11	1
OTU 52	69	46	40	55	23	0	58	14	104	7	71	9	20	255	32	40	539	63	20	414	41	32	92	6	4	130	22	16	30	9	6	382	87	31	35	110	127	51	189	14	79	20	0	86	86	26	43	2	23	8
OTU 53	0	0	0	0	0	0	0	0	7	0	0	0	15	2	0	3	6	0	0	0	0	0	0	0	0	0	0	0	0	0	0	0	0	0	0	0	0	0	0	0	0	0	15	0	0	0	0	0	0	3
OTU 54	29	17	54	11	30	42	27	28	6	2	10	53	2	118	18	43	33	43	54	74	1146	207	400	6	153	3	2	331	91	347	34	2	119	4	0	11	63	9	105	9	37	5	60	32	7	153	22	22	105	4
OTU 55	0	0	0	0	0	0	0	0	0	0	0	0	0	0	0	0	0	0	0	0	0	0	0	0	0	0	0	0	0	0	0	0	0	0	0	0	0	0	0	0	0	0	0	1	0	0	0	0	0	0
OTU 56	14	0	3	0	5	0	0	2	7	0	0	70	14	0	0	0	30	3	0	1	19	1	15	0	0	45	16	0	8	0	4	2	4	32	8	0	5	0	2	6	16	0	5	0	20	7	0	4	19	0
OTU 57	65	437	2	9	62	20	44	123	25	30	26	26	6	320	47	66	386	251	230	176	22	37	46	11	35	22	30	65	99	25	80	22	94	66	63	136	58	11	27	795	5	140	11	86	1278	87	85	40	45	7
OTU 58	1	0	0	26	8	21	40	0	0	29	18	40	1	69	23	0	0	0	11	0	75	15	8	1	0	2	0	0	2	3	9	15	2	12	10	3	21	16	24	85	1	1	9	1	0	0	9	13	0	32
OTU 59	2	25	61	0	17	0	8	0	60	9	3	1	1	9	1	1	225	21	6	37	0	0	8	11	2	0	0	7	0	0	6	0	17	0	54	45	93	2	42	88	7	0	0	0	4	3	1	0	3	0
OTU 60	26	61	61	19	28	21	238	4	86	30	57	12	6	26	47	14	67	0	38	6	181	2332	33	6	53	29	13	90	62	5	14	12	20	15	1	5	87	12	9	52	70	19	34	48	39	20	69	12	12	31
OTU 61	382	110	60	26	55	46	15	212	111	17	58	44	123	34	32	454	6	91	661	14	291	1	22	46	14	179	2054	19	14	90	255	73	15	4271	11	10	62	91	38	420	20	50	240	155	645	19	78	1857	10	251
OTU 62	12	1	142	9	2	0	2	0	3	6	22	38	0	53	4	0	1	2	0	0	3	3	0	63	0	1	4	0	0	0	0	7	21	3	16	2	2	0	10	1	0	10	1	4	0	2	22	3	7	0
OTU 63	26	0	0	6	22	38	0	22	0	22	58	1	1	51	17	8	21	30	2	3	26	28	0	2	28	10	0	68	1	0	0	0	91	4	64	1	17	0	1	6	1	23	6	11	5	56	7	9	25	0
OTU 64	61	38	103	13	18	74	4	9	97	56	60	63	76	84	7	34	8	17	35	152	94	41	53	107	96	12	1	60	32	8	17	5	121	5	53	94	30	90	44	38	13	56	14	161	3	106	5	1	69	16
OTU 65	0	0	0	0	7	0	0	0	0	0	0	0	0	3	0	20	0	0	0	0	0	1	0	0	0	0	0	0	0	5	0	0	0	0	0	0	0	0	0	0	0	0	9	0	0	0	0	0	0	0
OTU 66	1	99	28	1	6	2	98	17	83	7	74	150	36	33	8	46	64	5	116	15	3	1	7	12	12	4	3	20	41	19	88	1332	21	0	149	72	23	3	0	14	6	1	25	40	33	19	35	8	1	0
OTU 67	0	26	8	6	961	49	8	25	21	4	0	54	6	0	1	0	50	24	0	1	2	0	14	0	0	4	13	0	200	2	53	4	91	30	14	14	13	17	1	0	0	1	1	20	34	18	39	2	2	0
OTU 68	0	0	3	0	2	1	6	0	2	1	0	0	25	6	0	4	8	0	2	1	2	1	6	0	0	43	2	0	1	3	1	15	0	7	3	1	93	2	23	26	15	1	0	6	0	45	32	13	21	0
OTU 69	2	4	32	1	67	6	20	51	19	7	52	110	21	20	19	14	72	10	36	47	14	5	2	269	6	0	4	14	40	5	3	6	30	3	10	31	4	17	8	13	8	6	2	57	116	11	2	11	12	7
OTU 70	6	3	0	7	3	22	35	9	0	24	84	61	57	3	21	0	0	1	0	2	1	0	11	0	1	10	38	6	0	2	35	0	16	63	31	2	0	2	1	38	1	15	0	32	12	20	10	12	11	0
OTU 71	72	0	8	0	2481	3	43	0	14	0	25	1	44	19	4	9	1	777	27	0	26	0	22	17	6	0	0	10	28	0	1	7	2	0	76	40	3	42	8	51	13	55	0	28	31	7	0	0	2	7
OTU 72	5	4	34	1	1	7	28	2	0	43	26	11	218	3	78	8	77	126	21	23	11	7	32	10	21	9	0	45	15	2	143	0	34	18	56	24	0	7	1	12	26	6	6	105	86	0	3	27	1	4
OTU 73	7	19	14	3	65	47	10	38	155	23	0	0	2	57	1	13	27	3	6	54	168	20	18	6	0	9	19	0	98	12	38	8	3	43	126	5	74	46	17	3	0	1	0	7	4	1	31	10	0	23
OTU 74	1	2	45	0	23	27	184	5	0	9	1	152	1	378	4	14	4	39	32	169	0	34	79	21	1	130	0	3	75	7	18	42	199	0	113	10	365	22	47	98	39	22	23	147	47	179	0	4	101	8
OTU 75	546	161	0	13	1	39	24	24	30	127	2	46	187	89	40	48	30	166	0	3	581	1	6	11	9	600	34	12	1	0	5	9	67	36	304	4	110	37	1	9	106	573	13	29	34	13	98	1	3	4
OTU 76	17	4	3	12	6	0	42	0	0	0	67	0	10	9	16	1	18	60	0	4	0	1	5	21	0	0	2	0	57	11	1	2	4	2	266	36	2	0	0	380	0	0	0	3	17	0	0	1	0	0
OTU 77	3	5	7	0	5	67	23	1	28	3	56	27	25	0	0	8	42	10	22	26	19	25	50	3	6	33	13	7	40	77	9	2	2	12	52	33	47	91	11	49	1	63	3	26	99	46	20	1	18	44
OTU 78	20	71	6	44	24	122	11	2	2814	111	2	3	3	107	111	1	3	3	2	11	12	15	17	33	1	94	517	1	50	1	32	4	87	1180	9	160	18	51	9	15	138	1	5	34	11	66	86	535	48	53
OTU 79	30	109	363	45	56	111	41	30	15	70	116	172	57	147	34	5	329	94	25	32	239	105	107	155	38	202	4	69	13	1414	93	88	177	23	248	132	192	65	109	155	42	9	4	108	1	10	103	18	5	1706
OTU 80	15	7	109	479	11	31	93	25	12	897	12	19	7	72	2175	6	36	78	77	164	29	13	2	41	2	7	50	7	0	23	11	29	2	54	19	162	43	9	19	44	17	21	4	27	2	18	49	5	15	1
OTU 81	418	105	185	2	28	25	374	2	112	58	34	24	23	5	30	565	42	39	6	11	48	3	41	142	11	12	3	25	7	12	21	29	18	2	7	68	43	39	181	33	24	1	363	81	0	14	51	38	5	39
OTU 82	6	86	3	7	1	0	77	5	4	67	0	161	15	19	45	24	40	1	4	1	30	0	2	39	9	22	3	7	51	16	2	2	70	4	66	7	0	3	1	121	13	1	13	0	8	11	8	0	5	5
OTU 83	1	2	21	6	0	0	0	0	8	35	1	25	3	0	49	3	0	0	25	46	60	0	4	0	0	21	0	0	0	2	1	9	9	0	0	0	8	90	4	0	46	8	0	59	1	0	0	0	0	31
OTU 84	3	0	108	6	17	6	193	26	1	42	26	6	0	0	26	31	7	3	3	1	7	11	3	16	0	4	39	6	71	0	3	8	14	38	290	7	10	3	44	48	30	24	9	37	1	41	3	35	14	0
OTU 85	10	4	11	43	3	23	31	8	0	21	6	8	17	3	49	5	1	25	64	10	35	39	85	2	4	10	0	7	11	0	0	16	0	0	0	0	0	75	13	63	4	0	4	0	0	2	3	29	2	50
OTU 86	0	0	0	0	0	0	0	0	55	0	0	0	0	0	3	0	0	0	0	0	0	0	0	0	0	2	0	0	22	0	0	0	0	1	0	0	0	59	0	0	1	0	0	52	4	15	22	0	2	15
OTU 87	2	0	0	2	0	5	0	1	2	0	47	0	104	135	4	0	0	0	0	28	0	0	0	0	0	0	0	2	0	0	29	0	47	2	1	1	0	0	0	68	8	0	0	6	0	24	0	11	22	0
OTU 88	0	67	1	0	2	0	0	0	0	1	0	7	27	5	4	110	1	6	0	0	0	4	0	3	10	0	0	17	48	5	0	0	0	0	0	6	6	16	2	2	0	0	40	0	2	1	0	0	0	0
OTU 89	19	0	1	0	3	0	106	2	4	1	1	0	0	45	7	8	30	0	19	126	10	1	0	0	4	6	0	4	40	0	14	0	1	1	0	0	0	16	1	53	0	0	16	0	466	3	5	4	1	5
OTU 90	0	0	14	6	4	31	29	0	0	0	0	0	3	24	0	0	0	17	0	20	23	0	0	0	0	3	1	0	3	2	18	3	1	1	54	0	25	2	0	1	0	4	0	19	0	0	0	25	0	0
OTU 91	0	0	0	1	0	45	0	1	0	0	0	0	0	0	0	0	3	3	0	0	0	0	0	0	0	0	0	0	0	0	0	0	124	0	35	0	1	0	0	0	0	0	0	0	11	0	0	4	0	0
OTU 92	6	2	0	5	0	0	1	0	0	26	1	0	26	7	22	0	0	0	4	27	0	3	14	0	1	9	8	1	33	9	23	0	0	1	35	0	121	57	7	0	14	0	1	0	42	0	41	0	0	32
OTU 93	0	0	0	10	1	31	64	0	7	6	0	0	0	12	0	8	0	0	0	0	0	1	0	0	5	0	0	12	0	3	0	0	1	0	1	69	0	0	1	0	0	0	0	18	0	2	3	0	0	0
OTU 94	17	27	181	48	144	343	33	108	142	88	30	9	108	1	189	21	103	25	82	28	32	67	224	103	34	226	56	76	8	69	86	182	389	117	111	140	148	141	227	107	189	148	1	136	48	193	10	64	117	96
OTU 95	0	18	1	0	17	1	17	18	0	0	26	19	3	1	0	0	66	21	0	12	13	5	11	3	0	17	2	0	3	7	10	16	62	0	0	0	1	1	0	0	1	5	0	1	1	0	0	1	0	3
OTU 96	25	0	0	0	1	0	0	0	0	0	1	0	0	0	0	0	21	0	0	0	0	0	0	0	0	0	0	0	0	0	0	0	0	0	0	0	0	1	0	0	0	3	0	92	0	0	0	1	0	0
OTU 97	0	0	10	1	0	3	0	0	4	0	0	4	0	0	0	0	0	0	0	0	16	0	0	0	19	6	0	29	6	0	4	2	11	0	0	0	0	0	0	0	2	0	0	32	0	3	0	3	0	0
OTU 98	0	1	1	25	21	2	1	2	6	4	0	0	394	25	0	30	0	17	2	0	0	5	0	0	0	17	0	0	5	9	19	17	4	0	2	27	480	15	1	0	7	2	13	47	0	149	1	0	93	22
OTU 99	1930	16	99	0	10	27	24	9	7	3	76	37	157	10	8	5	124	25	3	25	213	49	34	105	37	16	3	65	19	11	8	28	117	1	331	16	58	96	99	3	4	8	3	138	2	10	78	31	2	61
OTU 100	55	9	0	0	0	18	9	6	134	7	9	53	168	33	18	17	24	6	35	0	46	11	56	32	4	4	33	18	52	24	8	49	33	87	7	8	79	8	1	76	0	6	2	15	186	6	7	44	4	14
OTU 101	0	0	0	0	0	0	59	0	0	0	0	30	0	0	0	0	54	0	3	2	0	0	0	0	18	0	3	37	0	2	0	15	0	0	152	4	12	0	8	0	0	0	2	2	2	0	0	10	0	0
OTU 102	11	0	0	1	0	5	13	0	12	1	0	23	33	19	3	0	12	0	0	0	3	5	0	12	8	0	2	19	0	2	0	0	7	5	0	0	54	22	0	0	0	0	7	0	0	0	12	3	0	3
OTU 103	0	2	10	18	0	6	71	13	36	0	36	2	0	0	0	1	5	50	4	1	66	1	10	0	1	0	2	1	0	27	0	11	21	0	0	2	38	1	113	7	45	0	0	13	0	3	50	9	1	0
OTU 104	76	40	15	0	3	36	117	13	10	3	16	3	6	41	3	55	276	142	11	163	29	14	27	4	2	65	9	4	34	16	12	42	74	13	50	15	67	10	70	32	20	44	17	30	0	1	34	4	1	4
OTU 105	16	1	0	0	0	0	0	1	0	0	6	0	0	0	1	4	0	2	0	0	0	18	0	0	0	11	0	0	0	13	12	0	19	0	5	2	0	0	0	140	1	2	1	36	0	0	0	0	0	6
OTU 106	30	0	3	1	1	9	76	0	1	7	1	10	0	38	0	7	2	114	0	10	0	9	15	3	2	1	0	1	0	2	0	1	2	0	0	3	2	0	242	0	13	0	0	7	2	0	88	0	0	0
OTU 107	1	3362	23	0	1	39	0	3	4	0	3	1	0	89	2	7	7	13	3	0	0	0	0	2	3	0	0	2	0	1	20	0	0	1	4	0	13	15	2	153	1	8	7	1	1	3	5	0	0	8
OTU 108	2	46	92	28	9	120	16	24	3	21	4	31	28	45	103	0	187	3	0	44	3	14	5	24	2	23	2	2	79	10	1	1	21	7	0	0	6	31	2	14	3	0	2	28	9	1	5	0	0	4
OTU 109	0	0	0	0	0	9	0	0	0	0	0	0	0	0	0	0	0	0	0	0	8	0	0	0	0	0	0	0	0	0	0	0	0	0	0	0	0	0	0	0	0	0	0	0	0	0	0	0	0	0
OTU 110	7	77	30	3	102	11	49	3	43	0	5	17	11	8	7	6	5	8	4	2	12	0	0	7	6	5	3	12	7	4	188	12	25	1	0	22	19	25	76	193	45	55	1	5	19	65	18	5	44	15
OTU 111	0	0	0	0	0	0	0	0	0	1	0	0	1	0	0	2	104	0	0	0	0	1	1	0	0	1	0	0	0	3	0	0	3	0	15	0	0	29	0	1	0	0	18	0	0	3	0	0	0	27
OTU 112	0	0	147	1	0	44	7	0	10	1	3	15	81	1	53	4	0	2	1	1	94	10	0	14	1	17	1	1	14	1	17	4	17	2	0	11	0	90	1	1	17	0	0	1	50	1	5	0	0	13
OTU 113	0	0	4	0	0	1	2	0	0	0	7	18	0	0	0	0	1	6	0	0	33	0	5	0	0	0	0	0	0	10	0	7	0	0	0	37	22	1	9	0	0	0	0	0	0	6	0	0	0	2
OTU 114	1	12	155	74	66	30	66	8	72	51	71	123	65	68	98	8	330	17	55	56	47	9	146	225	7	80	823	18	4	29	105	46	37	4	87	97	13	101	11	116	96	49	8	371	216	129	32	12	25	36
OTU 115	28	51	85	23	47	63	42	6	29	60	106	108	11	254	72	5	247	1031	12	1044	35	23	37	21	41	12	0	92	10	21	21	4	178	4	53	88	29	86	2259	8	30	22	2	36	43	3	1271	358	2	44
OTU 116	6	769	57	3	52	26	229	23	3	0	78	28	9	151	9	41	2	4	112	9	155	1	40	40	0	12	11	0	65	1	0	3	19	26	15	0	40	12	21	1395	9	0	16	59	7	0	16	3	0	11
OTU 117	13	55	99	2	50	41	3	232	118	7	2	8	30	10	8	2	4	40	819	57	23	18	87	33	4	0	12	12	4	60	593	110	42	10	1	91	5	18	14	106	47	8	7	152	22	94	25	16	5038	7
OTU 118	0	25	0	20	5	1	0	17	0	3	1	0	31	3	2	0	0	0	0	11	0	0	0	0	0	1	0	0	0	0	4	0	0	0	3	0	0	7	0	0	2	0	0	5	2	0	26	0	0	0
OTU 119	26	18	166	16	10	73	17	779	48	17	181	9	49	101	9	6	74	17	17	20	14	0	36	191	0	70	1	0	47	73	7	124	168	4	32	1	98	1	56	20	7	0	4	91	15	10	21	1	7	4
OTU 120	2	0	4	0	0	7	40	0	0	1	24	6	9	31	2	0	0	0	1	5	11	2	2	0	12	5	1	23	3	0	2	0	9	0	3	1	0	80	0	2	30	0	2	119	20	40	0	1	28	14
OTU 121	26	17	76	1	2	45	0	58	37	14	28	0	2	0	43	19	0	2	42	0	14	15	15	15	20	47	1	32	8	66	7	54	129	0	36	42	19	30	21	75	92	66	4461	21	19	26	5	53	7	5
OTU 122	13	2	0	14	1035	73	164	23	1	33	7	173	163	330	2	9	46	22	29	183	12	6	23	4	5	8	54	7	5	0	0	4	145	34	24	109	12	24	15	12	12	1495	1	17	47	2642	33	0	1318	2
OTU 123	19	118	139	17	62	44	39	65	69	29	58	76	105	325	71	82	112	150	139	32	73	18	181	66	8	157	15	29	198	17	65	35	83	43	188	33	166	131	143	131	46	96	28	502	80	183	158	31	119	79
OTU 124	513	46	0	0	0	17	0	0	0	0	8	0	2	3	0	953	42	2	0	10	0	0	2	0	0	0	0	0	4	0	0	1	63	0	0	0	0	0	0	40	2	0	449	2	5	2	1	0	1	1
OTU 125	373	148	81	28	62	43	316	30	118	118	17	44	19	230	65	147	70	246	40	130	201	385	1582	116	453	153	1861	913	221	1083	44	26	171	167	71	19	22	233	143	70	33	113	86	157	100	79	144	87	38	114
OTU 126	0	0	0	4	1	72	0	2	0	0	0	0	0	0	0	11	3	1	0	4	4	4	0	0	5	0	0	9	0	0	0	0	2	0	33	0	0	4	0	0	0	0	0	0	0	24	0	0	21	11
OTU 127	25	1	851	6	0	77	0	6	20	6	6	0	57	78	2	0	68	24	1	4	26	8	79	345	0	0	2	0	2652	34	28	20	116	52	0	13	0	1	0	42	90	4	0	0	29	79	5	5	39	0
OTU 128	11	84	340	45	159	127	227	122	72	30	130	73	50	171	57	41	466	275	142	53	109	353	110	131	17	31	48	51	91	72	62	104	467	123	358	129	111	302	232	81	113	58	49	326	116	152	84	89	72	1261
OTU 129	0	2	0	0	8	0	0	0	0	0	1	0	0	0	1	12	2	1	0	2	22	0	82	2	0	0	0	1	0	39	0	35	0	0	0	0	0	0	0	0	0	0	14	15	5	22	0	0	10	0
OTU 130	56	17	4	1	0	273	0	1	28	0	86	43	8	66	0	66	58	14	7	103	62	13	58	6	10	21	1	20	0	0	18	3	17	1	316	1581	20	9	8	0	3	0	47	1	8	40	9	0	19	2
OTU 131	3	0	111	449	1	8	44	25	12	11	21	18	0	3	9	2	26	152	73	0	51	45	5	8	8	38	0	13	1	14	0	1	50	4	13	14	95	102	23	35	38	3	21	1	28	1	117	2	1	66
OTU 132	832	1	14	12	1	1	8	12	2	20	5	26	0	82	5	71	0	6	0	7	2	1	44	0	4	4	1	9	44	32	2	23	0	9	0	0	6	40	13	16	10	7	13	3	0	67	0	8	52	16
OTU 133	2	0	0	0	7	0	0	0	0	3	0	0	0	65	3	0	1	8	1	55	22	1	1	3	0	0	0	0	24	0	1	0	15	2	0	0	0	0	0	0	0	1	0	31	25	0	0	1	1	0
OTU 134	13	6	8	8	5	30	137	18	0	0	214	12	123	46	25	3	58	40	8	0	86	15	7	1	0	6	1	1	8	2	297	19	0	5	90	12	108	15	46	0	3	0	0	55	40	20	58	16	20	1
OTU 135	2	14	0	3	36	82	72	189	85	58	96	12	3405	17	92	49	45	4	89	0	45	114	135	9	48	38	15	94	2	65	71	199	1	60	4	134	5	339	11	0	78	34	35	15	69	240	13	104	112	149
OTU 136	32	79	21	26	2	21	33	0	22	154	80	2	1	0	56	27	80	17	0	15	0	6	19	12	57	39	8	116	35	0	4	10	0	43	6	0	51	24	1	3	159	0	8	11	57	5	19	60	1	9
OTU 137	17	0	8	0	11	0	0	0	0	0	0	0	10	0	22	11	5	0	15	40	5	4	28	6	0	0	0	0	0	0	0	11	51	0	21	1	163	63	0	3	0	4	2	1	0	0	20	0	0	19
OTU 138	1	0	2	4	1	0	4	33	0	5	71	1	1	5	0	35	29	12	0	21	5	12	0	32	1	2	0	3	5	1	30	4	3	0	0	2	0	0	271	0	4	0	7	0	0	3	82	0	1	0
OTU 139	59	38	42	4	1037	3	23	2	91	3	142	129	224	41	10	20	74	89	10	24	167	1	31	1762	7	3	79	14	92	13	26	57	20	110	65	3	99	7	125	40	106	517	33	242	67	141	53	54	45	1
OTU 140	30	87	76	64	59	90	588	29	29	222	55	150	273	62	2	133	326	96	20	43	400	22	82	36	19	36	22	55	34	77	66	47	1318	60	294	40	256	4	224	37	30	16	72	84	137	79	47	15	36	8
OTU 141	0	0	1	0	0	0	0	0	0	0	0	0	0	20	0	1	0	0	0	0	124	0	0	1	0	0	0	0	0	0	0	0	0	0	32	0	0	0	0	0	12	0	0	2	0	0	0	0	0	0
OTU 142	0	1	0	0	0	52	0	0	0	2	0	0	0	2	0	0	22	0	0	0	3	0	0	0	0	0	0	0	0	0	0	0	0	0	0	0	0	1	0	0	0	0	0	0	0	0	0	0	1	2
OTU 143	0	0	0	0	439	0	0	0	0	0	82	12	0	0	0	0	19	0	0	2	1	0	0	0	3	19	0	3	22	20	0	0	0	2	104	11	0	74	0	52	19	352	0	0	0	0	2	8	0	21
OTU 144	1	0	4	1	0	0	77	0	1	1	4	31	26	0	0	0	0	6	0	22	0	0	0	0	1	0	0	1	0	0	0	0	14	0	9	56	49	0	0	0	4	1	0	0	0	0	0	0	0	0
OTU 145	39	153	40	2	27	106	94	0	89	11	45	5	1	363	3	15	44	22	1	227	32	17	13	17	56	24	472	104	10	5	7	63	31	13	11	50	23	53	85	80	53	396	4	110	116	36	32	6	10	29
OTU 146	3	5	51	7	2	56	78	0	36	0	4	89	2	221	1	37	83	3	0	156	27	2	8	43	0	1	7	1	0	45	21	7	0	14	3	0	244	8	21	1	34	3179	33	4	1	13	45	5	1	7
OTU 147	2	2	0	1	0	9	8	2	1	1	26	0	0	1	6	10	185	12	12	0	0	0	36	0	33	13	13	3	36	36	0	18	297	17	3	156	21	3	1	5	2	0	7	0	1	0	2	26	0	3
OTU 148	58	2	177	23	6	0	195	1	0	0	20	16	36	212	5	42	88	97	82	78	38	4	31	14	0	3	5	4	3	5	40	20	161	2	108	5	10	3	10	23	2	0	16	34	57	3	1	0	1	0
OTU 149	0	6	12	1	28	0	0	1049	20	0	16	14	0	3	0	9	21	2	0	43	31	7	1	0	0	4	0	2	31	8	2	1	17	3	0	13	18	23	0	3	1	16	3	8	0	2	8	0	0	14
OTU 150	4	30	0	9	3	0	0	0	0	0	4	59	1	0	0	11	38	0	8	5	8	0	1	12	0	0	0	1	5	3	0	1	0	3	1	5	1	9	0	3	47	1	4	5	0	1	7	0	0	0
OTU 151	36	37	2	8	5	49	19	1	3	2	40	15	1	29	0	172	2	2	63	2	0	11	28	4	34	9	3	55	0	0	116	0	50	0	18	10	12	2	20	99	0	15	74	6	68	0	63	8	0	2
OTU 152	24	24	116	0	4	20	11	9	203	38	2	36	131	10	124	41	25	2067	27	48	7	3	188	104	24	25	25	62	404	38	104	122	2	32	13	9	21	0	0	0	5	13	63	169	12	0	114	35	0	3
OTU 153	4	0	2	0	0	0	0	0	10	0	29	16	0	0	0	0	0	0	5	0	0	0	0	0	0	0	3	0	3	0	0	2	0	11	18	0	1	0	0	17	0	0	0	0	0	0	0	0	0	0
OTU 154	3	0	0	0	1	0	0	0	0	0	0	3	0	1	25	23	0	0	3	1	0	0	7	0	0	2	0	0	0	0	0	0	0	0	9	29	0	0	0	0	0	0	0	61	1	0	0	0	0	0
OTU 155	25	41	5	2	21	41	0	0	40	0	1	1	6	0	1	8	3	25	2	13	90	0	90	0	0	0	0	0	24	12	8	14	1	5	42	3	0	0	25	0	0	11	7	0	2	0	6	2	2	0
OTU 156	1453	51	87	26	37	78	9	2145	40	38	125	1	44	132	28	3705	106	23	4	121	69	54	74	56	31	77	14	73	41	0	6	17	52	45	237	4	41	20	9	66	6	185	1743	49	35	0	33	31	1	1
OTU 157	0	0	4	0	0	652	0	1	7	0	1	6	0	3	0	14	0	0	0	0	7	1	4	0	0	19	0	5	0	1	0	0	0	0	117	0	0	0	46	18	161	0	4	12	128	1	11	49	1	1919
OTU 158	16	0	0	0	0	0	18	0	0	0	0	0	0	239	0	0	0	0	1	0	2	0	0	0	0	0	0	0	1	0	14	0	61	0	0	0	0	0	0	0	4	0	0	0	3	0	0	0	0	0
OTU 159	2	6	45	2	0	0	57	29	39	14	5	21	15	52	34	13	0	62	2	54	51	0	8	11	9	4	18	10	11	0	7	8	24	19	32	43	42	78	161	33	16	11	14	22	7	0	147	3	0	17
OTU 160	27	251	82	4	27	106	172	31	2	20	47	24	237	96	48	49	5	616	133	10	45	7	19	50	7	33	25	11	243	79	73	18	111	39	0	22	892	38	1476	524	47	14	19	44	20	33	502	6	16	14
OTU 161	10	3	98	332	1	71	35	1	22	864	61	52	64	303	1786	0	49	42	8	34	47	5	33	67	3	1421	1	9	137	327	14	0	13	1	38	1164	28	3121	0	18	1996	9	295	0	18	2	2381	0	0	1728
OTU 162	15	5	81	12	15	160	326	74	30	39	6	17	2	5	51	10	6	76	38	4	22	12	36	81	7	32	52	15	22	13	152	32	15	70	18	28	57	147	156	38	92	24	14	4	1729	2	141	14	1	69
OTU 163	0	0	0	0	0	0	71	0	0	0	0	0	1	0	0	0	0	0	0	0	0	0	0	0	0	28	0	0	0	6	0	0	0	0	2	0	2	0	0	0	0	2	0	0	0	0	0	0	0	0
OTU 164	0	0	0	0	0	3	0	0	1	0	0	0	0	0	0	0	0	0	0	0	0	0	1	0	0	0	0	0	50	9	0	0	13	0	0	0	0	1	0	9	0	0	0	0	0	0	12	3	0	0
OTU 165	0	3	45	0	11	17	66	0	0	0	86	1	3	18	5	1	1	1	3	18	27	0	0	2	8	13	2	21	0	0	3	2	16	2	76	3	0	1	0	32	0	55	1	0	51	8	14	0	4	3
OTU 166	0	0	0	0	0	0	0	0	0	0	0	0	0	1	0	0	0	0	0	1	0	0	0	0	0	0	0	0	0	0	1	2	0	0	0	11	0	0	0	0	0	0	0	23	0	0	0	0	0	0
OTU 167	5	25	1	1	6	110	20	3	0	2	62	1033	0	88	0	0	17	36	0	55	0	7	1	3	0	1	1	1	0	1289	29	9	3	10	10	14	20	6	3	0	0	3	6	0	12	33	11	22	9	1
OTU 168	5	115	31	1	3	107	0	2	20	11	42	0	241	140	3	25	1	3	0	161	30	38	22	44	19	9	14	27	41	13	47	51	0	7	3	35	36	8	65	0	14	29	11	108	5	31	19	22	14	14
OTU 169	0	0	0	0	0	1	32	0	0	0	2482	0	0	0	1	0	0	0	19	37	31	1	0	1	0	0	0	0	28	0	23	0	0	0	0	0	0	0	162	0	0	0	0	1	0	1	34	7	0	0
OTU 170	1	0	0	0	0	0	0	5	0	0	0	0	0	5	3	0	0	0	0	0	6	0	0	0	0	0	0	0	0	0	0	0	0	20	0	0	20	0	0	0	0	0	0	0	10	0	3	5	0	0
OTU 171	0	5	10	4	115	0	0	11	55	65	15	285	21	29	62	17	4	13	60	100	3	4	195	35	17	75	29	27	18	45	47	117	7	24	59	3	144	35	16	126	1920	65	3	26	22	98	10	135	34	8
OTU 172	25	0	0	6	1	0	1	0	0	0	0	0	19	0	0	0	0	0	0	0	7	0	19	0	0	0	9	0	5	0	0	0	0	18	2	0	0	8	0	0	0	17	1	0	0	0	0	7	0	1
OTU 173	0	69	27	6	0	12	0	6	0	0	118	0	4	1	3	0	54	0	4	4	19	5	0	7	0	0	6	0	0	0	14	0	74	1	1	0	5	1	1	8	7	0	0	23	4	0	9	4	0	10
OTU 174	21	0	1	23	0	23	19	69	0	38	3	9	27	2	8	28	53	9	33	0	0	16	3	8	0	2	0	1	0	2	13	0	0	8	18	0	2	60	1	18	23	0	1	44	0	8	73	0	2	38
OTU 175	0	4	1	1	7	18	2	5	20	2	0	0	0	0	1	3	48	5	0	4	0	47	50	0	17	6	2	36	3	13	51	89	3	0	14	18	0	1	17	131	0	1	0	3	0	51	1	1	34	0
OTU 176	17	16	32	2	18	4	80	15	10	2	11	1	12	99	34	1	226	64	4	91	86	6	0	71	4665	8	5	2	59	1	59	9	30	31	45	29	21	12	0	60	3	46	2	12	2	91	44	10	58	0
OTU 177	52	14	34	3	21	30	154	27	105	1	157	1	38	17	11	63	0	20	5	91	23	7	7	59	6	9	3	8	22	1	8	9	0	39	32	0	48	196	14	0	42	42	21	9	58	18	38	1	3	46
OTU 178	3	77	0	16	0	5	126	1	12	7	0	2	0	1	34	2	1	1	111	1	12	2	1	0	0	0	0	0	80	10	4	0	53	1	6	11	16	24	20	7	19	0	0	61	3	7	5	34	7	13
OTU 179	0	3	1	0	5	3	0	0	2	0	0	40	5	19	37	9	1	1	15	0	0	0	0	1	8	4	0	10	1	2	40	2	250	3	2	2	25	8	8	0	19	5	0	17	0	63	3	35	16	5
OTU 180	86	189	1578	2180	96	63	145	13	68	4192	107	77	76	65	15	25	295	56	92	25	329	2281	123	794	2110	37	0	4209	34	41	47	67	16	3	125	115	43	44	84	16	12	54	11	88	94	102	73	6	90	24
OTU 181	0	0	1	1	0	18	21	0	3	0	2	10	6	0	3	52	2	30	3	32	18	4	31	7	1	1	0	1	51	0	61	3	0	2	120	0	12	0	4	120	18	1	14	29	1	10	1	11	6	1
OTU 182	0	0	0	0	3	5	58	0	0	0	0	0	0	1	1	0	6	0	1	0	0	0	0	0	0	0	0	0	0	11	1	0	0	0	0	9	0	0	0	0	0	0	0	0	0	0	6	0	0	0
OTU 183	0	0	31	4	98	1	45	41	6	5	14	515	16	43	0	0	54	150	14	26	9	76	0	23	15	7	16	23	2	23	55	0	40	26	14	17	0	1	145	2	13	6	0	6	3	11	867	27	3	8
OTU 184	43	25	0	1	9	5	160	278	2	12	10	0	5	45	0	0	7	3	303	15	16	0	0	12	3	0	1	5	9	0	64	0	4	1	0	3	0	1	0	0	7	0	1	1	39	14	0	7	4	0
OTU 185	7	14	52	14	15	18	24	29	51	8	19	18	16	1	14	19	9	101	20	13	107	27	2	63	17	22	102	41	351	5	1	2	114	69	49	6	23	10	17	11	1	28	17	34	1	17	61	0	14	0
OTU 186	0	70	1	10	16	0	16	0	124	6	5	2763	16	0	34	0	8	0	0	25	0	0	2	0	0	12	0	0	1	0	11	39	15	7	97	2	47	1	38	26	0	2	2	105	0	0	134	8	0	0
OTU 187	39	23	222	6	49	24	7	67	14	22	193	71	71	38	21	57	1	8	59	47	324	43	26	165	89	7	1	2	23	55	89	38	196	2	71	24	205	35	15	87	8	28	5	9	7	66	18	0	25	14
OTU 188	30	2	17	158	366	526	209	366	331	87	4	51	32	167	274	161	35	151	853	105	52	110	554	13	123	363	114	236	201	884	146	446	43	268	8	428	193	511	133	15	299	78	84	39	241	413	64	251	203	249
OTU 189	10	11	168	1	16	11	14	78	36	0	12	104	29	17	58	46	152	1	254	53	5	18	98	61	38	18	28	85	113	8	183	99	9	58	268	32	53	56	33	23	22	9	9	52	31	190	95	59	93	12
OTU 190	3	0	0	0	1	0	8	0	0	0	103	0	0	75	1	0	1	0	0	41	0	0	0	12	20	0	5	42	0	0	0	10	1	0	47	0	0	0	0	35	0	9	0	0	40	0	5	4	0	0
OTU 191	112	58	40	20	36	80	14	26	75	18	58	24	75	43	9	215	2	13	48	9	8	7	34	14	11	3544	2	28	19	10	42	40	312	1	245	113	27	8	62	70	7	12	105	7	4	12	39	21	2	12
OTU 192	19	3	17	2	7	55	100	3	11	19	175	33	38	354	35	5	291	63	19	9	77	29	10	14	4	6	20	8	29	21	4	55	110	41	37	34	176	41	22	121	2	2	1	2115	272	54	46	26	19	13
OTU 193	0	26	143	1	49	30	53	41	95	7	17	71	45	62	9	11	259	68	50	1	96	5	6	29	0	17	46	2	2	2	74	4	159	74	42	17	127	8	22	63	59	5	2	32	5	19	5	72	0	0
OTU 194	2	123	7	0	11	184	20	1	20	0	44	4	68	0	3	0	8	3	4	1	16	0	0	16	0	0	1	0	10	15	5	0	218	2	45	16	71	0	53	25	0	0	0	33	60	0	7	4	1	0
OTU 195	31	7	24	479	15	34	22	70	3	881	1	32	13	41	1618	17	11	38	15	4	0	0	43	71	0	24	8	0	26	0	17	1	32	25	16	78	65	5	12	41	0	4	20	36	0	4	69	2	0	0
OTU 196	8	0	47	0	2	13	44	20	0	0	22	13	92	0	0	1	8	4	0	41	0	2	0	14	1	5	1	3	0	0	7	4	29	28	144	0	5	76	68	9	14	4	1	17	1	11	6	2	9	26
OTU 197	16	13	202	51	37	63	71	27	222	66	38	244	32	247	109	121	54	81	133	124	24	7	32	57	6	16	28	22	31	18	68	53	188	82	492	88	71	77	212	12	1547	2	39	72	53	17	52	27	21	55
OTU 198	0	1	8	0	0	0	1	3	1	0	22	4	0	9	13	0	1	73	1	5	0	0	0	0	0	1	13	0	0	0	22	39	0	9	2	0	1	0	1	0	61	14	0	0	1	6	61	24	1	1
OTU 199	6	26	2	17	0	6	2	56	0	1	0	15	1	7	0	30	0	2	1	6	15	2	0	6	0	22	1	0	3	3	14	1	7	0	0	0	106	2	5	0	4	0	14	35	8	13	2	2	4	0
OTU 200	1	12	8	0	4	4	50	16	19	15	18	43	0	37	6	0	105	6	6	103	1	4	108	25	6	1	3	8	12	29	8	35	40	0	12	33	81	0	1	2	5	17	4	6	36	4	4	0	0	0
