	Host 1	Host 2	Host 3	Host 4	Host 5	Host 6	Host 7	Host 8	Host 9	Host 10	Host 11	Host 12	Host 13	Host 14	Host 15	Host 16	Host 17	Host 18	Host 19	Host 20	Host 21	Host 22	Host 23	Host 24	Host 25	Host 26	Host 27	Host 28	Host 29	Host 30	Host 31	Host 32	Host 33	Host 34	Host 35	Host 36	Host 37	Host 38	Host 39	Host 40	Host 41	Host 42	Host 43	Host 44	Host 45	Host 46	Host 47	Host 48	Host 49	Host 50	
OTU 1	0	8	0	6	0	0	0	32	2	0	0	16	0	3	0	0	0	0	9	0	0	12	0	13	2	19	0	11	20	0	7	16	4	0	0	0	11	9	29	10	6	5	0	2	18	0	0	10	0	3
OTU 2	0	0	0	0	0	3	0	0	0	0	0	0	0	0	0	1	1	0	0	0	0	0	0	0	0	1	1	0	1	0	0	0	0	0	0	0	0	0	0	0	0	0	0	0	1	0	2	0	0	0
OTU 3	0	0	0	0	1	0	0	0	0	0	0	0	0	0	0	0	0	0	0	0	0	0	1	0	0	0	0	0	0	0	0	0	0	0	0	0	0	0	0	0	0	0	0	0	0	2	2	0	0	0
OTU 4	0	0	0	0	0	0	0	0	0	0	0	0	0	0	0	0	0	0	0	0	0	0	0	0	0	0	0	0	0	0	0	0	0	0	0	0	0	0	0	0	0	0	0	0	0	0	0	0	0	0
OTU 5	6	10	24	7	14	0	1	16	4	0	10	8	20	19	48	40	11	5	34	9	8	21	35	3	0	52	9	4	11	102	6	11	8	7	1	19	9	1	8	16	61	1	15	54	15	5	0	14	0	55
OTU 6	0	0	0	0	0	0	0	0	0	2	0	0	0	1	0	3	0	0	0	1	0	0	0	0	3	0	4	0	0	1	1	0	0	10	0	0	0	0	0	0	0	0	0	0	16	1	2	0	0	0
OTU 7	2	2	3	0	5	3	0	2	1	2	2	1	0	1	3	0	0	1	0	1	2	2	1	1	1	0	2	0	34	2	15	0	10	2	4	2	14	8	0	22	99	0	0	4	0	0	1	13	0	0
OTU 8	0	2	3	3	0	1	2	0	0	1	1	5	1	0	0	4	4	81	0	1	1	4	146	0	3	1	0	0	0	2	0	2	0	0	0	6	0	2	1	1	2	0	9	0	7	0	2	0	0	2
OTU 9	0	0	0	1	0	2	7	1	0	0	0	0	1	0	0	0	2	0	0	0	1	0	0	0	2	1	0	0	0	1	0	0	0	0	0	0	0	5	0	0	0	0	0	0	0	0	0	0	0	1
OTU 10	0	0	0	0	252	0	0	0	1	1	0	0	0	0	4	1	0	0	0	0	0	1	0	1	0	0	0	0	2	0	10	0	3	0	0	1	0	0	0	27	0	0	0	11	0	1	0	15	0	0
OTU 11	0	1	0	0	0	0	0	2	1	0	0	1	1	1	2	3	1	2	1	0	6	2	2	1	2	0	0	0	0	1	3	1	0	1	0	0	0	1	0	1	1	0	1	0	1	0	0	0	4	0
OTU 12	2	1	1	0	0	0	0	1	5	0	0	0	0	2	0	2	0	0	1	1	2	0	1	0	0	0	0	0	0	2	1	0	0	0	0	0	1	0	0	1	0	0	3	0	1	1	0	0	6	0
OTU 13	0	0	0	0	0	0	0	0	0	0	0	0	0	0	1	0	0	0	0	0	0	0	0	0	0	0	0	0	0	4	0	0	0	0	0	0	1	0	0	0	0	0	0	0	0	0	0	0	0	0
OTU 14	0	1	1	0	0	0	0	0	0	0	0	0	0	0	0	0	0	0	0	2	0	0	0	0	2	0	0	0	0	0	0	0	0	0	0	1	0	0	0	0	1	0	1	0	0	0	0	0	0	0
OTU 15	0	0	0	0	0	0	0	0	0	0	0	0	0	0	0	0	0	1	1	0	0	0	0	0	0	0	0	1	0	0	0	0	0	0	0	0	0	0	0	0	0	0	0	0	0	0	0	0	0	0
OTU 16	0	0	0	0	0	0	0	0	0	0	0	0	0	0	0	0	0	0	0	0	0	0	0	0	0	0	0	0	0	0	0	0	0	0	2	0	0	0	0	0	0	0	0	0	0	0	0	0	0	0
OTU 17	0	0	0	0	0	0	0	0	0	0	1	0	22	0	0	0	0	0	0	0	1	0	2	0	0	0	0	0	0	0	0	1	0	0	1	0	0	0	0	0	0	0	1	0	1	0	0	0	0	0
OTU 18	2	2	0	0	1	0	0	0	2	0	0	0	0	0	0	1	2	2	0	0	1	0	0	3	0	1	1	1	1	1	0	0	0	0	0	1	1	3	0	0	0	2	2	0	0	1	0	0	0	3
OTU 19	0	0	0	0	0	0	0	0	0	0	0	0	0	0	0	0	0	0	0	0	0	0	0	0	0	0	0	0	0	0	0	0	0	0	0	0	0	0	0	0	0	0	0	0	0	0	2	0	0	0
OTU 20	0	1	0	0	1	4	1	1	1	0	1	0	0	0	0	0	1	0	0	0	1	0	0	0	2	0	1	0	1	0	0	0	1	1	0	0	1	2	0	0	2	0	2	1	0	0	1	7	0	0
OTU 21	1	3	1	0	0	0	2	0	0	1	2	0	1	0	3	0	0	0	0	0	0	0	0	0	17	0	0	2	0	1	0	1	0	0	0	0	1	0	0	0	0	1	1	0	0	2	1	0	0	0
OTU 22	1	0	0	0	1	0	0	2	0	0	0	1	6	0	0	0	14	1	0	0	2	0	3	1	0	0	0	0	0	0	3	1	0	195	0	2	1	1	0	0	1	0	11	8	2	0	2	1	0	0
OTU 23	0	0	0	0	0	0	2	1	0	1	4	0	0	0	1	2	0	0	0	0	0	0	0	1	0	1	0	0	3	0	0	0	0	0	1	0	0	1	1	0	1	0	0	0	0	0	0	0	0	1
OTU 24	1	0	0	0	0	7	0	0	3	1	0	0	0	0	0	0	0	2	1	1	4	0	0	0	0	0	0	0	3	1	0	0	0	2	0	0	0	0	0	0	0	0	0	0	0	2	1	0	0	2
OTU 25	0	0	0	0	0	0	0	0	0	0	0	0	0	0	0	0	0	0	0	0	0	0	0	0	0	0	0	0	0	0	0	0	0	0	0	0	0	0	0	0	0	0	0	0	0	0	0	0	0	0
OTU 26	0	0	0	1	0	1	0	0	0	0	0	1	0	0	0	0	0	0	0	0	0	0	0	0	0	0	0	0	0	0	0	0	0	0	0	0	0	3	0	0	4	0	0	0	0	0	0	0	0	0
OTU 27	0	0	0	0	0	0	0	1	0	0	0	0	0	0	0	0	0	0	0	0	0	0	0	0	0	0	0	0	2	0	0	0	0	0	0	0	0	0	0	0	0	0	0	0	0	0	0	0	0	0
OTU 28	2	0	1	6	1	1	0	0	2	0	0	2	0	0	0	17	11	2	3	1	1	0	2	0	2	2	7	0	0	0	1	3	0	1	1	1	1	0	4	0	0	0	0	0	0	0	0	0	7	1
OTU 29	0	1	2	0	0	0	0	1	0	0	0	0	2	0	0	0	4	1	0	0	3	1	0	3	0	0	0	1	0	4	0	2	1	0	6	0	0	1	0	0	0	0	0	15	1	5	79	0	3	0
OTU 30	0	0	0	0	0	0	0	0	0	0	0	0	0	0	0	0	0	0	0	0	0	0	0	0	0	0	0	0	0	0	0	0	0	0	0	0	0	0	0	0	0	0	0	0	0	0	0	0	0	0
OTU 31	0	0	0	0	0	0	0	1	0	0	0	0	0	0	0	0	0	1	0	0	0	0	0	0	0	1	0	0	120	0	21	118	19	0	0	0	57	44	0	52	19	0	0	6	0	0	0	13	2	0
OTU 32	0	1	0	0	0	3	0	1	12	1	0	0	0	2	1	4	4	0	0	2	0	0	2	0	5	2	0	0	2	1	0	0	0	0	0	0	0	0	41	1	0	0	6	0	3	0	0	0	0	19
OTU 33	0	0	0	0	0	0	0	0	0	0	0	0	0	0	1	0	0	0	0	0	0	0	0	0	2	1	0	0	0	0	0	0	0	0	0	0	0	0	2	0	0	0	0	0	0	0	0	0	0	1
OTU 34	0	2	0	0	0	0	3	0	3	0	1	0	0	0	0	1	0	1	0	0	0	0	0	0	1	1	1	0	2	0	1	0	0	2	0	0	0	1	2	0	0	0	0	1	1	5	1	1	0	0
OTU 35	2	0	0	0	1	3	0	0	1	0	0	0	0	0	0	0	0	0	0	0	1	0	0	0	0	0	0	0	0	0	0	0	0	0	0	0	0	1	2	0	1	0	0	0	0	2	0	0	0	1
OTU 36	0	0	2	156	0	0	0	1	0	1	3	1	0	0	0	0	0	4	0	0	0	0	0	0	0	0	0	1	0	1	0	0	4	0	0	0	0	0	0	1	1	0	0	0	0	1	0	1	1	0
OTU 37	0	0	0	0	0	0	1	0	0	1	0	0	0	0	0	0	0	0	0	0	2	0	0	0	0	0	0	0	1	0	0	0	0	0	0	0	0	0	0	0	0	0	0	0	0	0	0	0	0	0
OTU 38	0	22	0	24	0	0	1	63	13	1	3	63	0	15	1	0	1	0	24	22	0	34	0	26	0	22	0	12	12	0	7	32	1	1	3	0	3	18	19	9	3	11	1	3	27	0	2	3	0	21
OTU 39	1	0	0	0	0	0	0	0	0	0	146	0	0	0	0	0	0	1	0	0	2	0	0	0	0	0	2	0	0	0	0	0	0	0	0	0	0	0	0	0	0	0	0	0	0	0	0	0	0	0
OTU 40	0	0	0	1	0	1	1	2	3	0	1	0	1	0	0	1	0	1	0	1	0	1	2	0	0	0	4	2	1	2	0	0	54	0	0	0	0	0	0	4	0	0	0	57	0	0	2	112	2	1
OTU 41	3	0	0	0	2	3	29	0	0	0	1	1	0	0	0	1	0	0	0	0	0	0	0	0	0	0	0	0	0	7	0	0	0	0	0	0	0	0	0	0	1	0	6	0	1	0	0	0	0	0
OTU 42	4	0	0	0	0	0	0	0	0	0	0	1	1	0	0	0	1	0	3	0	1	0	3	0	0	0	0	2	0	0	0	1	0	0	0	0	1	2	0	0	0	210	0	0	0	0	1	0	0	0
OTU 43	0	0	0	0	0	0	0	0	0	0	0	0	0	0	0	0	0	0	0	0	0	0	0	0	0	0	0	0	0	0	0	0	0	0	0	0	0	0	0	0	0	0	0	0	0	0	0	0	0	0
OTU 44	0	0	0	0	0	1	0	0	0	0	0	0	0	0	2	0	1	0	0	0	0	0	0	0	0	0	0	0	0	0	0	0	0	0	1	3	0	0	2	2	0	0	0	0	0	0	2	1	3	1
OTU 45	1	2	0	0	15	254	0	0	126	1	2	0	0	1	1	1	1	2	0	4	1	0	2	1	0	1	3	1	0	0	0	0	0	0	4	0	0	3	0	2	15	0	0	1	0	0	147	3	0	2
OTU 46	0	3	1	0	6	1	3	0	2	1	0	0	0	16	1	0	0	1	0	113	0	0	0	1	1	1	0	2	1	4	0	0	1	0	4	1	1	1	3	0	0	0	1	0	0	0	1	0	0	0
OTU 47	0	0	0	0	0	0	0	1	0	0	0	0	0	0	0	0	0	0	0	0	0	0	0	0	0	0	0	0	0	0	0	0	0	0	0	2	0	0	0	0	0	0	0	0	0	0	0	0	0	0
OTU 48	11	0	3	0	0	0	0	0	0	6	0	0	0	0	0	0	1	1	1	0	1	0	3	0	2	0	0	0	3	0	0	0	8	2	1	0	2	1	0	0	1	1	3	25	1	2	3	35	1	0
OTU 49	0	2	0	0	0	0	1	1	0	0	2	0	0	0	0	0	0	0	0	0	0	0	1	1	0	0	1	0	0	2	0	0	0	1	0	0	0	0	0	0	0	0	0	0	0	2	3	0	1	1
OTU 50	2	0	17	1	0	0	0	0	3	0	2	1	4	0	1	1	0	0	0	1	1	0	0	2	0	0	0	181	1	2	0	1	1	8	1	0	1	0	2	2	1	80	1	0	1	2	0	0	3	0
OTU 51	0	0	2	0	0	0	0	0	0	0	0	1	1	0	0	0	2	0	2	0	3	1	0	0	0	0	0	0	0	2	0	0	0	0	1	0	0	0	1	0	0	0	2	0	1	0	0	0	0	0
OTU 52	5	0	3	0	5	3	234	0	0	240	0	0	0	1	8	6	0	1	2	4	3	1	1	0	6	0	2	1	0	1	1	0	1	4	2	0	0	2	1	1	0	0	1	0	0	1	2	0	3	0
OTU 53	0	0	0	0	0	0	0	0	0	0	0	0	0	0	0	0	0	0	0	0	0	0	0	0	0	0	0	0	0	0	0	0	0	0	0	0	0	0	0	0	0	0	0	0	0	0	0	0	0	0
OTU 54	4	1	16	42	1	0	0	0	0	1	4	85	1	18	2	1	6	1	0	5	9	36	11	2	2	1	0	2	1	0	0	44	0	0	1	1	1	0	0	0	1	0	4	0	47	3	3	0	0	0
OTU 55	0	0	0	0	0	0	0	0	0	1	1	0	0	0	0	0	0	0	0	0	0	0	0	0	0	0	0	0	0	0	0	0	0	0	0	0	0	0	0	0	0	0	0	0	0	0	0	0	0	0
OTU 56	0	0	0	0	1	0	1	0	0	0	0	0	0	0	2	1	0	0	0	0	0	0	1	0	1	0	0	0	0	1	0	0	0	0	0	1	4	2	0	1	2	0	0	0	0	0	0	0	1	1
OTU 57	1	2	41	1	0	2	2	1	0	0	3	0	7	50	4	0	8	2	4	0	0	84	3	3	0	0	4	0	0	0	144	0	0	5	6	6	3	5	2	0	29	0	2	0	0	65	1	0	0	1
OTU 58	0	0	0	1	0	0	0	0	3	2	1	3	0	0	1	0	1	1	1	0	0	0	1	2	0	0	0	2	0	0	0	0	0	0	0	0	0	1	0	0	0	1	1	0	0	0	0	0	0	0
OTU 59	0	0	0	0	0	0	0	95	9	3	0	0	2	0	0	0	0	0	9	0	3	0	0	47	1	57	0	20	0	1	0	0	0	0	0	0	1	2	55	0	0	9	0	0	0	1	1	0	1	38
OTU 60	0	0	9	1	0	4	0	1	0	0	3	1	0	0	1	0	0	0	1	0	2	0	0	0	0	5	3	3	1	0	0	0	0	0	0	1	3	0	0	0	0	0	0	1	0	0	0	3	0	0
OTU 61	2	0	4	1	1	6	1	0	0	0	0	0	1	0	9	0	2	0	1	0	0	1	2	3	0	0	4	0	0	1	0	0	2	2	0	2	0	2	2	2	1	0	0	0	1	0	0	0	0	1
OTU 62	0	0	0	0	0	0	0	0	0	3	0	0	0	0	1	0	0	0	0	0	0	0	1	1	0	0	0	2	1	0	0	0	0	0	0	0	0	0	1	1	0	2	0	0	0	0	0	1	0	0
OTU 63	0	0	1	0	0	0	0	1	1	0	0	0	0	0	0	2	0	0	0	3	0	0	0	3	0	1	0	1	0	0	0	0	0	0	0	2	0	0	0	0	0	0	0	0	0	0	0	0	0	0
OTU 64	0	3	4	1	0	2	2	0	5	16	0	2	7	0	0	1	0	4	0	27	4	1	0	0	0	1	0	1	0	0	1	2	0	1	0	0	1	0	0	0	0	1	0	2	3	0	0	0	2	0
OTU 65	0	0	0	0	0	0	0	1	0	1	0	0	0	0	0	0	0	0	0	0	0	0	0	0	0	0	0	0	0	0	0	0	0	0	0	0	0	0	0	0	0	0	0	0	0	0	0	0	0	0
OTU 66	2	0	0	0	0	1	0	1	0	2	0	0	0	0	0	0	0	0	0	1	0	1	2	0	2	1	0	0	2	0	0	0	1	2	0	0	2	4	1	1	1	0	0	0	0	0	0	1	2	0
OTU 67	1	1	0	1	0	4	1	1	2	1	1	0	0	31	0	0	1	0	0	2	0	0	0	2	0	0	2	2	0	0	0	1	1	2	0	1	1	0	0	0	0	0	17	0	1	0	2	0	2	0
OTU 68	0	0	1	0	0	0	0	2	0	0	0	0	0	0	0	1	0	0	0	0	0	0	0	0	0	3	0	0	2	0	0	0	0	0	0	0	1	1	0	0	0	0	0	0	0	1	0	0	0	0
OTU 69	1	0	0	26	0	0	0	0	0	0	0	0	0	0	0	1	0	1	4	1	2	0	2	1	0	0	1	0	2	0	2	0	0	0	0	0	1	0	0	8	0	0	0	0	0	3	0	3	0	0
OTU 70	0	0	1	0	1	0	0	2	38	0	0	0	0	0	0	0	0	0	1	0	0	0	0	0	0	0	0	0	0	1	0	0	0	0	1	0	0	0	38	0	0	0	0	0	0	0	1	1	1	10
OTU 71	0	0	0	0	0	0	0	1	0	0	0	0	2	0	1	1	0	3	5	0	0	0	1	13	0	0	0	9	0	0	0	0	0	0	0	1	0	1	0	0	0	6	1	2	0	0	0	0	1	2
OTU 72	0	2	0	0	2	0	0	0	0	0	0	0	0	1	2	0	0	0	1	0	1	0	1	0	0	1	0	0	0	0	0	0	0	0	1	0	0	0	0	0	0	0	0	1	0	0	0	0	0	0
OTU 73	0	6	0	1	1	0	1	1	0	1	0	0	0	0	0	1	1	0	0	0	0	0	1	1	1	0	0	0	0	1	0	0	0	0	0	0	1	0	0	0	0	0	1	0	0	1	0	0	0	0
OTU 74	1	4	1	1	1	1	0	0	0	0	0	2	2	0	1	0	1	1	0	0	1	0	0	0	2	1	0	0	0	0	0	0	0	7	0	2	1	1	1	0	1	0	0	1	2	1	1	2	3	0
OTU 75	0	0	1	0	0	1	0	0	1	0	2	0	0	0	0	0	1	0	1	0	0	0	0	1	0	0	2	0	1	0	2	30	0	0	1	3	0	0	1	4	0	0	0	1	0	3	0	0	0	0
OTU 76	0	0	0	1	0	0	0	0	1	0	1	0	0	0	1	0	0	0	0	0	0	0	0	0	0	0	0	0	1	1	0	0	0	0	0	0	0	0	1	0	0	0	0	0	0	0	0	0	0	0
OTU 77	0	1	0	1	0	1	1	0	0	1	1	1	0	0	1	0	0	3	0	1	1	1	0	2	0	0	1	2	0	2	0	1	1	7	0	0	0	0	0	0	0	2	1	0	1	1	4	0	0	0
OTU 78	1	1	0	0	1	4	2	3	0	6	0	0	156	0	0	3	0	1	0	2	0	0	0	0	0	3	1	0	0	0	2	0	2	0	0	0	0	0	1	1	0	0	3	0	0	0	0	0	181	1
OTU 79	2	3	4	0	8	2	2	2	3	1	2	0	79	1	3	2	2	1	1	4	0	1	6	0	1	0	0	3	1	3	0	1	3	2	6	4	1	0	1	3	0	0	1	1	0	0	2	0	3	79
OTU 80	3	0	1	0	1	2	0	0	4	3	0	0	0	2	0	1	0	2	0	1	0	2	0	0	1	2	0	2	0	0	1	0	0	1	0	0	1	0	0	0	1	2	2	0	0	3	0	0	0	0
OTU 81	3	3	2	7	3	1	2	0	1	0	1	18	0	112	1	2	2	1	0	1	0	8	0	0	1	0	6	1	0	2	1	10	8	1	0	0	1	6	9	0	3	0	3	3	2	2	1	5	18	1
OTU 82	2	0	0	0	3	0	0	0	0	6	0	0	0	0	0	0	3	0	0	0	1	2	0	1	0	0	0	0	0	0	1	0	2	2	0	0	0	4	0	0	0	0	0	0	131	146	0	2	0	0
OTU 83	1	0	0	0	2	0	0	0	0	0	1	0	1	0	0	0	0	0	0	3	0	0	0	0	1	0	0	0	0	0	0	0	0	0	0	0	0	0	0	0	1	0	0	0	0	0	0	0	0	0
OTU 84	2	0	0	0	1	0	0	3	0	0	0	0	0	1	0	0	0	5	0	0	4	0	0	0	0	0	0	0	0	1	1	0	0	0	1	0	0	0	0	0	0	0	0	1	0	0	1	2	0	1
OTU 85	0	1	0	0	2	2	0	0	0	0	0	0	1	0	0	0	1	0	0	0	0	0	0	0	0	1	0	0	0	0	0	0	0	0	0	0	0	0	0	0	0	0	0	0	0	0	0	0	0	0
OTU 86	0	0	0	0	0	0	0	0	0	0	0	0	0	0	0	0	0	0	0	0	0	0	0	0	0	0	0	0	0	0	0	0	0	0	0	0	0	0	0	0	0	0	0	0	0	0	0	0	0	0
OTU 87	0	0	0	0	0	0	1	0	0	0	0	0	0	0	37	0	0	0	0	0	0	0	0	0	0	1	0	0	0	0	0	1	0	0	0	0	0	0	0	0	0	0	0	0	0	0	0	0	0	0
OTU 88	3	0	0	0	0	0	0	0	0	0	0	0	0	0	0	0	0	0	0	0	0	0	0	0	0	0	0	0	0	0	0	0	0	0	0	0	0	0	0	0	0	0	0	0	0	0	8	0	0	0
OTU 89	0	0	0	0	0	0	1	0	1	1	0	0	0	0	0	1	0	0	0	2	1	0	0	0	0	0	1	2	1	0	0	1	0	2	0	140	0	0	0	0	0	0	0	0	0	0	0	0	0	0
OTU 90	0	0	0	0	0	0	0	0	0	0	2	0	1	0	0	0	0	0	0	0	0	0	0	0	0	0	0	0	0	0	0	0	0	0	0	0	0	0	0	0	0	0	0	0	2	0	1	0	0	0
OTU 91	0	0	0	0	0	0	0	0	0	0	1	0	0	0	0	0	0	0	0	0	0	1	0	0	0	0	0	0	0	0	0	0	0	0	0	0	0	0	0	0	0	0	0	0	0	0	0	1	0	0
OTU 92	0	0	2	0	0	0	0	0	2	0	0	0	1	0	0	0	0	13	0	0	1	0	0	0	0	0	0	0	0	0	1	0	0	0	0	0	0	3	0	0	1	0	1	0	0	0	0	0	0	0
OTU 93	0	0	0	0	0	0	1	0	0	0	0	0	0	0	0	0	0	0	0	0	0	0	0	2	0	0	0	0	0	0	0	0	0	0	0	0	0	0	0	0	0	0	0	0	0	0	0	0	0	0
OTU 94	0	2	0	1	0	2	0	1	0	0	5	1	0	0	1	1	1	0	4	2	2	1	1	0	0	4	2	0	0	0	20	1	9	0	0	0	0	0	2	25	0	0	0	7	0	1	0	12	1	0
OTU 95	0	0	0	1	0	0	0	0	0	0	0	1	0	1	0	0	0	1	0	1	0	0	0	0	1	0	0	0	0	2	0	1	0	0	0	0	0	1	0	0	1	0	0	0	0	0	0	0	0	1
OTU 96	0	0	0	0	0	1	0	0	0	0	0	0	0	0	0	0	1	0	0	0	0	0	0	0	1	2	0	0	0	0	0	0	0	0	0	0	0	0	0	0	0	0	0	1	0	0	0	2	2	0
OTU 97	0	0	0	4	0	0	0	5	2	0	0	12	0	1	0	0	0	0	4	0	0	4	0	1	0	5	0	2	3	0	5	3	1	0	0	0	6	3	10	13	1	1	0	2	3	1	0	4	0	4
OTU 98	0	0	2	0	0	0	2	0	0	2	0	0	0	0	0	0	0	1	0	0	0	0	0	0	0	0	0	0	0	0	0	0	0	0	0	0	0	0	0	0	0	0	0	0	0	0	5	0	0	0
OTU 99	0	0	3	4	1	1	0	1	0	1	1	1	1	1	0	3	0	1	2	3	4	0	1	0	0	0	74	0	0	1	1	0	1	0	1	0	0	1	0	2	2	0	4	0	1	0	0	0	3	0
OTU 100	1	1	4	0	0	4	1	0	0	2	0	0	2	0	0	1	0	0	1	0	1	0	0	0	2	0	0	0	0	0	0	0	0	0	0	5	0	0	0	0	0	0	0	0	0	0	1	0	0	0
OTU 101	0	0	0	0	2	0	0	0	0	0	0	0	0	0	1	0	0	0	0	0	1	0	0	0	0	0	0	0	0	0	0	0	0	0	0	0	0	0	0	0	0	0	1	0	0	0	0	0	0	0
OTU 102	0	0	1	0	4	0	0	0	0	1	0	0	0	0	0	0	0	0	1	0	0	0	4	0	0	0	0	0	0	0	0	0	0	0	0	0	0	0	0	0	0	0	0	0	0	0	0	0	1	0
OTU 103	0	0	0	0	0	0	0	0	1	0	3	0	0	0	0	0	0	0	0	0	0	1	0	1	0	0	1	0	0	0	0	0	0	0	0	0	0	1	0	0	2	1	0	3	1	0	0	1	3	1
OTU 104	5	0	1	1	0	0	3	0	6	1	3	0	0	0	0	0	1	4	2	0	1	1	0	4	12	1	0	4	0	1	1	0	0	1	2	0	0	0	30	0	0	1	0	0	0	0	2	1	3	13
OTU 105	2	0	0	2	0	0	0	0	0	0	0	1	0	2	0	0	0	0	0	0	0	0	0	0	0	0	0	0	0	0	0	1	0	0	0	0	0	0	0	0	0	0	0	1	0	2	1	0	1	0
OTU 106	2	0	1	0	0	2	0	0	0	0	0	0	0	0	0	0	0	0	0	0	0	0	0	0	0	0	0	0	1	2	0	0	0	0	0	0	0	0	0	0	0	0	4	0	0	0	13	0	0	0
OTU 107	0	0	0	0	0	0	21	0	0	0	2	0	3	0	0	0	0	0	0	0	0	0	0	0	0	0	1	1	0	0	0	0	0	0	0	1	0	2	0	0	0	0	0	0	0	4	0	0	3	0
OTU 108	0	3	0	0	0	0	3	0	0	0	0	0	0	0	1	0	0	0	0	6	0	0	0	0	1	0	0	0	7	0	3	0	1	1	0	0	8	0	0	3	0	0	0	0	1	3	0	1	0	1
OTU 109	0	0	0	0	0	0	0	0	0	0	0	0	0	0	0	0	0	0	0	0	0	0	0	0	0	0	0	0	0	0	0	0	0	0	0	0	0	0	0	0	0	0	0	0	0	0	0	0	0	0
OTU 110	0	1	0	1	0	2	2	0	0	0	1	2	1	1	0	0	1	1	0	0	0	2	1	2	0	0	0	1	0	116	0	0	0	0	2	1	0	1	0	0	0	1	0	0	0	0	0	0	0	0
OTU 111	0	0	0	0	0	0	1	0	0	0	0	0	0	0	10	0	0	0	0	0	1	0	0	0	0	0	0	0	0	1	0	0	0	0	0	0	1	0	0	0	0	0	0	0	0	0	0	0	0	0
OTU 112	0	0	0	0	0	0	0	0	0	0	0	0	1	0	0	0	1	0	1	1	0	0	1	0	0	1	0	0	0	0	0	0	0	1	0	0	0	0	0	0	0	0	0	0	0	0	0	0	0	0
OTU 113	0	0	1	0	0	0	0	1	0	0	0	0	0	0	0	0	0	0	0	0	0	0	0	0	0	0	1	0	0	0	0	0	2	0	0	1	0	0	2	0	0	0	0	0	0	0	0	0	0	3
OTU 114	3	3	0	0	0	6	2	2	2	1	0	0	4	0	1	1	1	2	0	1	79	1	0	1	3	0	0	1	0	1	1	0	1	0	0	0	0	0	1	8	1	0	0	1	2	0	0	0	2	0
OTU 115	0	0	1	0	3	0	0	4	1	0	0	2	0	0	2	1	7	3	2	0	19	0	5	0	0	0	0	0	0	0	1	1	0	2	3	2	0	2	2	0	0	0	0	122	0	0	54	1	0	0
OTU 116	5	49	0	0	3	0	3	1	1	5	0	0	9	2	1	0	3	1	0	0	0	0	0	0	0	0	1	0	62	0	23	0	11	0	0	0	39	30	1	23	9	0	1	6	0	0	0	10	0	0
OTU 117	2	0	0	0	0	4	3	0	0	1	2	1	1	1	0	1	1	0	2	1	1	0	1	0	0	0	1	1	0	1	0	0	0	0	0	0	0	6	2	0	4	0	0	0	0	3	0	0	0	0
OTU 118	0	0	0	0	0	0	0	0	0	0	0	0	2	0	0	0	0	0	0	0	0	0	0	1	0	0	1	1	0	0	0	0	1	0	0	0	0	0	0	0	1	1	0	0	0	0	0	0	0	0
OTU 119	0	2	1	0	0	0	0	1	0	0	0	2	0	0	0	0	0	1	3	2	1	0	0	1	4	0	0	0	2	1	0	0	0	12	0	2	1	0	0	0	0	0	3	0	1	0	0	1	2	1
OTU 120	0	15	2	0	0	0	0	0	0	0	0	0	0	0	0	0	0	1	3	0	0	0	5	1	0	0	0	0	1	1	0	0	0	0	1	0	0	1	0	1	0	0	0	0	0	0	1	0	2	1
OTU 121	2	1	0	0	0	1	0	0	0	0	0	0	0	1	1	0	0	0	3	2	0	1	1	0	0	0	0	2	0	0	1	0	0	0	1	0	0	0	0	1	0	1	0	0	0	1	0	0	0	0
OTU 122	1	0	0	0	0	1	7	0	0	5	0	1	1	0	0	0	0	0	1	1	0	0	0	0	0	0	0	2	0	30	0	1	1	1	0	0	0	0	0	0	0	0	0	0	1	2	1	0	0	0
OTU 123	3	141	181	13	0	8	1	3	23	2	7	25	3	14	1	0	4	6	3	0	3	13	36	8	2	0	0	4	4	3	1	8	2	2	3	3	5	1	40	2	1	2	28	0	10	1	0	0	0	10
OTU 124	1	1	2	1	0	0	0	0	0	0	0	0	0	0	0	0	0	0	0	1	3	0	0	1	1	0	0	0	0	0	2	0	0	0	0	0	0	0	0	0	0	0	0	0	0	0	0	0	0	0
OTU 125	9	0	3	17	3	2	0	5	12	3	0	1	0	16	5	1	1	3	9	6	2	0	1	0	7	0	1	0	7	15	1	2	0	2	2	129	1	11	1	5	2	0	3	2	2	2	1	1	2	35
OTU 126	0	0	0	0	0	0	0	0	0	0	0	0	0	0	0	0	0	0	0	0	0	0	0	0	0	0	0	0	0	0	0	0	0	0	0	0	0	0	0	0	0	0	0	0	2	0	0	0	0	0
OTU 127	1	2	0	0	0	0	0	2	0	3	1	0	5	0	0	0	0	4	0	0	3	0	0	0	1	0	1	0	0	0	0	0	1	2	0	1	1	0	0	0	1	0	0	0	0	0	0	1	0	0
OTU 128	4	4	0	0	1	1	2	5	1	2	0	2	0	0	0	3	4	2	1	3	3	2	3	3	2	2	14	0	18	1	5	0	167	2	2	1	47	143	3	14	58	0	1	4	0	1	1	8	1	2
OTU 129	0	0	0	0	0	0	0	2	0	0	0	1	0	0	0	1	0	0	0	0	1	0	0	0	0	0	0	0	0	4	0	0	0	0	0	0	0	2	1	0	0	0	0	0	0	0	0	0	0	1
OTU 130	0	0	2	0	0	1	0	0	0	1	0	0	2	0	0	0	0	0	0	3	3	0	0	0	2	69	0	0	1	0	0	0	1	2	0	0	0	0	0	0	0	0	0	0	0	0	0	0	0	0
OTU 131	0	0	3	0	2	0	0	1	0	0	0	2	0	0	0	0	1	0	0	3	1	0	0	1	2	0	0	0	0	0	0	0	0	0	1	0	0	0	0	0	5	0	0	0	0	18	0	0	0	0
OTU 132	0	2	0	0	1	0	0	0	0	0	0	0	1	0	0	0	0	1	1	0	1	0	0	0	0	1	0	0	1	0	0	0	0	1	253	4	0	0	0	0	0	0	0	0	0	1	0	0	0	1
OTU 133	0	0	0	1	0	0	0	0	0	0	0	0	0	0	0	0	0	0	0	0	0	0	0	2	0	0	0	0	0	0	0	0	0	0	0	0	0	0	0	0	0	1	0	0	1	0	0	1	0	0
OTU 134	1	0	0	3	0	0	0	0	3	0	0	4	1	1	0	0	0	1	1	1	0	1	4	0	0	0	0	0	2	0	0	0	0	0	0	2	0	2	0	0	1	0	0	0	0	1	2	0	0	0
OTU 135	1	0	0	0	0	2	1	2	1	2	0	0	0	0	1	1	0	1	0	1	1	1	3	2	1	1	0	0	0	2	0	0	0	0	0	1	0	1	2	0	0	0	0	1	0	1	3	0	0	0
OTU 136	1	0	0	0	0	0	1	0	0	0	1	0	0	0	0	0	0	1	0	0	1	0	0	0	0	0	0	0	0	0	2	0	2	0	0	0	0	1	0	0	0	0	0	1	0	0	0	1	0	0
OTU 137	1	0	1	0	0	0	0	0	0	0	0	0	0	0	0	1	0	0	0	0	0	0	0	1	0	0	0	0	0	20	0	0	0	0	0	0	0	0	0	0	0	0	0	0	0	1	0	0	0	0
OTU 138	0	0	1	0	1	0	1	0	0	0	0	0	0	0	0	0	0	0	0	0	0	0	0	0	0	1	1	0	0	0	0	0	0	0	1	1	0	0	0	0	0	0	0	0	0	0	0	0	0	0
OTU 139	5	1	0	0	6	0	1	3	3	3	2	0	0	0	0	4	3	0	0	2	0	0	4	1	2	1	0	0	0	2	0	0	0	63	1	4	0	1	0	1	0	0	0	0	0	3	1	0	4	0
OTU 140	1	1	2	0	0	2	1	4	4	3	0	1	2	1	4	2	6	2	2	1	4	3	4	1	1	1	0	0	6	1	56	4	33	0	1	1	2	1	3	83	0	0	204	26	1	1	2	51	1	13
OTU 141	0	0	0	0	0	0	0	0	0	0	0	0	0	0	0	0	0	0	0	0	0	0	0	0	0	0	0	0	0	0	0	0	0	0	0	0	0	0	0	0	0	0	0	0	0	0	0	0	0	0
OTU 142	0	0	0	0	0	0	0	1	0	0	0	0	0	0	0	0	0	0	0	0	0	0	0	0	0	0	0	0	0	0	0	0	0	0	0	0	0	0	0	0	0	0	0	0	1	0	0	0	0	0
OTU 143	0	0	2	0	0	0	0	1	0	0	0	0	0	0	1	4	0	0	0	1	0	0	0	0	0	1	0	0	0	1	1	0	0	2	0	0	2	0	0	0	0	0	1	0	0	0	0	0	0	0
OTU 144	0	0	0	0	0	0	0	0	0	0	1	0	0	0	0	2	0	0	0	0	2	0	0	0	0	0	0	0	0	0	0	0	0	0	0	0	0	0	0	0	0	0	0	0	0	0	0	0	0	0
OTU 145	0	2	0	0	0	6	0	0	6	0	0	0	0	0	0	1	0	0	0	1	0	0	0	1	0	0	0	0	0	0	0	0	2	1	0	3	0	0	1	2	0	0	2	1	0	57	1	0	0	0
OTU 146	0	0	1	0	0	0	1	1	0	0	35	0	0	0	0	2	1	0	1	116	0	0	2	1	1	0	0	0	0	1	0	0	0	2	0	6	1	0	3	0	0	0	0	0	0	0	5	0	5	0
OTU 147	0	0	0	0	2	0	1	1	0	0	0	2	0	0	0	1	0	2	0	4	0	0	1	0	0	0	1	0	0	0	0	0	0	4	0	0	23	0	1	0	0	0	2	0	1	1	0	0	1	0
OTU 148	1	0	0	0	6	0	0	0	0	0	2	0	0	0	0	0	1	1	0	0	1	1	0	1	4	0	0	0	0	0	2	0	0	1	0	0	0	0	0	0	0	0	2	0	0	1	0	2	1	0
OTU 149	0	1	1	0	0	0	1	0	0	8	0	0	0	0	1	2	2	0	0	0	0	1	0	0	0	0	4	0	0	0	0	0	0	0	0	0	0	0	0	0	0	0	0	1	0	0	0	3	1	0
OTU 150	0	0	0	0	0	2	0	0	0	0	0	0	0	0	0	0	2	0	0	0	0	0	0	0	1	0	1	0	0	0	0	0	0	0	0	0	0	0	0	0	0	0	0	0	0	0	0	0	0	0
OTU 151	1	6	0	0	0	0	2	0	0	0	0	0	1	0	0	0	1	3	0	0	1	0	0	1	0	0	0	0	0	1	0	1	0	2	1	0	93	0	0	0	0	0	0	2	0	0	0	1	0	0
OTU 152	0	2	2	0	1	0	0	0	0	1	3	0	2	1	0	1	1	1	0	0	0	0	3	1	0	0	0	0	0	0	0	0	0	0	0	0	1	3	1	1	1	0	1	0	0	0	1	2	2	2
OTU 153	0	0	0	0	0	0	0	0	0	0	0	0	0	0	0	0	0	0	0	0	0	0	0	0	0	0	0	0	0	0	0	0	0	0	0	0	0	0	0	0	0	0	0	0	0	0	3	0	0	0
OTU 154	0	0	0	0	0	0	0	1	0	0	0	0	0	0	0	0	0	0	0	0	0	0	0	0	0	0	0	0	0	0	0	0	0	0	0	0	0	0	0	0	0	0	0	0	0	1	0	0	1	0
OTU 155	0	0	0	0	1	0	0	1	1	0	6	0	0	0	1	0	1	1	34	0	0	0	1	0	2	1	0	0	0	0	0	0	0	2	1	0	2	0	0	0	0	0	0	0	0	0	0	0	0	0
OTU 156	1	11	1	20	4	0	0	37	3	0	0	35	0	4	31	159	0	0	20	0	1	21	3	16	0	18	0	6	28	4	8	15	5	1	0	3	18	19	18	23	7	7	2	4	23	0	0	14	1	9
OTU 157	0	0	0	1	0	0	0	0	0	2	0	0	0	0	0	0	0	2	39	0	0	0	0	90	0	0	0	33	0	0	0	0	0	0	0	0	0	0	0	0	0	17	1	0	0	0	0	0	1	0
OTU 158	0	0	0	0	0	0	0	0	0	0	0	0	0	0	0	0	0	0	0	0	0	0	0	0	0	0	0	0	1	0	0	0	0	0	0	0	0	0	0	0	0	0	0	0	0	0	0	0	0	0
OTU 159	1	27	0	0	0	1	0	0	0	2	0	0	0	0	0	0	0	0	0	2	4	0	0	0	3	0	0	0	0	5	0	5	0	0	1	0	3	2	0	0	0	0	0	1	0	0	0	0	0	0
OTU 160	7	1	5	0	0	2	1	9	2	2	0	0	1	0	1	0	1	7	5	1	3	0	1	12	1	56	0	7	0	3	26	0	2	0	0	4	0	0	10	1	0	2	2	0	8	6	0	0	2	13
OTU 161	0	0	0	0	1	0	1	0	0	0	31	1	0	6	15	0	0	0	0	1	1	17	0	0	0	0	0	0	0	0	0	0	0	0	0	1	0	0	0	0	0	0	11	0	0	0	0	0	0	0
OTU 162	17	0	0	0	0	0	2	7	1	0	0	0	1	1	0	0	1	0	1	3	0	0	0	7	0	3	0	4	1	0	0	0	1	0	0	0	1	2	2	0	2	1	0	0	0	5	2	0	0	0
OTU 163	0	0	0	0	0	0	0	0	0	0	0	0	0	0	0	0	0	0	0	0	0	0	0	0	0	0	0	0	0	0	0	0	0	0	0	0	0	0	0	0	0	0	0	0	0	0	0	0	0	0
OTU 164	0	0	0	0	0	0	0	0	0	0	0	0	0	0	0	0	0	0	0	0	0	0	0	0	0	0	0	0	0	0	0	0	0	0	0	0	0	0	0	0	0	0	3	0	0	0	0	0	0	0
OTU 165	0	0	0	0	1	0	0	0	0	0	0	0	0	1	1	0	2	0	1	0	2	0	0	0	2	0	0	0	0	0	1	0	0	0	0	2	0	1	0	1	0	0	0	0	0	0	0	0	0	0
OTU 166	0	0	0	0	1	0	6	0	0	0	0	0	0	0	0	0	0	0	0	0	0	0	0	0	0	0	0	0	0	0	0	0	0	0	0	0	0	0	0	0	0	0	0	0	0	0	0	0	0	0
OTU 167	1	0	1	0	0	0	0	2	0	0	0	2	3	0	0	0	0	1	0	0	0	0	0	1	0	1	0	2	0	0	0	0	0	1	0	0	0	1	0	1	2	0	0	0	1	0	0	0	0	0
OTU 168	0	0	0	0	0	2	0	0	0	3	0	0	1	0	0	0	231	0	0	0	0	0	0	2	4	0	0	0	0	0	0	1	0	0	0	0	0	1	0	0	3	0	0	0	1	0	3	0	0	2
OTU 169	0	0	0	1	0	0	5	0	0	0	0	0	0	0	0	0	0	0	0	0	0	0	0	0	0	0	0	0	1	0	0	0	0	0	0	0	0	0	0	1	0	0	0	0	0	0	0	0	1	1
OTU 170	0	0	0	0	0	0	0	0	0	0	0	0	0	1	0	0	0	0	0	0	0	0	0	0	0	0	0	0	0	0	0	0	0	0	0	0	0	0	0	0	0	0	0	0	0	0	0	0	0	0
OTU 171	0	4	0	2	0	0	0	0	0	0	0	0	2	0	0	0	0	56	0	0	2	2	0	0	0	0	0	0	0	0	0	1	0	0	1	0	0	0	0	3	0	1	0	0	0	0	0	0	0	0
OTU 172	0	0	0	0	0	0	0	2	0	0	0	0	0	0	0	0	0	0	0	0	0	0	0	0	0	0	0	0	0	0	0	0	0	0	0	0	0	0	0	0	0	0	0	0	0	0	0	0	0	0
OTU 173	0	0	0	0	2	0	0	0	0	1	0	0	0	0	0	0	0	0	0	0	0	0	2	0	0	0	0	1	0	0	0	0	0	0	0	0	0	0	0	0	0	0	0	0	0	2	0	0	0	0
OTU 174	1	0	0	1	0	0	0	0	0	0	1	0	0	0	1	0	0	0	0	0	0	1	0	0	0	0	0	0	0	0	0	0	1	0	0	2	0	0	1	0	2	0	0	1	1	2	0	0	0	4
OTU 175	0	0	0	0	1	0	0	0	0	0	2	0	0	24	0	0	0	0	0	0	0	47	0	0	0	0	2	0	0	1	0	1	0	0	0	0	0	0	1	0	0	0	0	0	2	0	0	0	0	0
OTU 176	1	5	0	0	2	1	0	0	42	1	1	1	1	1	1	1	0	1	2	0	0	0	1	0	0	1	205	1	1	0	0	0	0	0	0	0	0	0	0	0	1	5	0	0	2	2	0	1	1	0
OTU 177	0	3	2	0	0	0	1	0	0	2	0	1	2	0	1	0	0	1	0	3	0	0	0	1	0	19	3	3	0	3	0	1	0	4	0	0	1	0	0	0	21	0	2	1	1	0	0	0	0	0
OTU 178	0	0	0	2	1	0	0	0	1	1	0	0	0	0	0	0	0	0	0	0	0	0	0	0	0	0	2	0	1	0	1	0	0	0	0	0	1	0	0	1	0	0	1	0	0	0	0	0	0	0
OTU 179	0	0	1	0	0	0	0	0	0	0	0	0	0	0	0	0	0	0	0	0	0	0	0	3	0	0	0	1	0	2	0	0	1	3	0	1	1	1	0	0	0	0	0	3	0	0	0	11	0	1
OTU 180	4	0	6	29	0	1	2	1	3	2	4	72	3	15	0	1	0	2	6	1	103	19	2	2	2	0	3	4	3	0	1	31	3	2	3	2	1	2	1	0	0	2	0	1	34	2	2	1	0	1
OTU 181	0	1	2	0	0	0	4	0	0	1	0	0	1	1	0	1	0	1	19	1	0	2	58	35	0	5	4	21	1	0	0	0	0	0	0	1	0	4	1	0	2	9	0	0	0	0	0	0	0	1
OTU 182	0	0	0	0	1	0	0	1	0	0	0	0	0	0	0	0	0	0	0	0	0	0	0	0	0	1	0	0	0	0	0	0	0	0	0	0	0	0	0	0	0	0	0	0	0	0	0	1	0	0
OTU 183	0	1	0	0	0	0	0	0	0	0	0	0	0	0	0	0	0	4	0	0	1	0	2	0	0	0	1	0	0	0	0	0	0	0	0	0	0	0	0	0	0	0	3	0	3	0	0	0	0	2
OTU 184	0	0	2	0	0	0	0	0	0	0	0	0	0	2	0	0	0	1	0	0	0	0	0	0	257	0	0	0	0	0	0	1	0	0	0	1	0	0	0	0	2	0	0	0	0	0	0	0	0	0
OTU 185	0	0	0	0	1	1	0	1	0	14	0	0	2	0	0	0	0	2	0	2	0	0	1	0	0	0	2	0	0	1	1	0	0	0	0	0	1	0	4	3	0	1	0	1	0	0	0	1	0	3
OTU 186	0	0	2	0	0	1	0	0	0	1	68	0	0	0	0	0	2	2	0	0	0	0	0	0	0	0	0	0	0	0	0	0	0	4	0	1	0	0	0	0	0	0	0	2	0	2	0	0	0	0
OTU 187	0	3	3	2	4	0	0	2	2	0	1	0	0	0	1	1	0	122	0	0	0	0	0	0	1	2	0	0	7	1	2	1	2	2	0	0	1	6	0	5	5	0	0	1	2	0	1	2	92	2
OTU 188	237	0	0	0	0	4	0	1	0	2	2	0	1	1	1	1	5	0	0	3	1	0	2	1	0	1	1	1	1	0	0	0	0	0	0	1	3	0	0	0	0	0	2	1	4	0	0	5	0	3
OTU 189	0	2	0	0	2	1	1	2	3	0	2	0	0	4	5	4	10	0	0	0	56	0	0	0	1	0	0	0	1	0	0	0	3	2	2	1	1	1	0	1	2	0	0	1	0	1	5	0	2	0
OTU 190	0	0	0	0	0	2	0	0	0	0	0	0	0	0	1	0	0	0	0	0	0	0	0	0	0	0	0	0	0	0	0	0	0	0	0	0	0	0	0	0	0	0	0	0	0	0	2	0	0	0
OTU 191	1	2	0	0	3	0	0	1	1	0	5	0	2	12	0	76	1	1	15	2	0	38	0	35	0	0	0	8	1	0	0	0	3	1	1	0	3	1	4	0	0	5	2	0	0	1	0	2	1	3
OTU 192	0	1	0	0	1	1	2	0	1	3	0	0	2	2	2	0	6	1	0	0	1	1	0	4	0	1	0	2	0	1	1	0	3	0	47	2	0	2	2	0	0	0	2	0	0	0	0	0	3	2
OTU 193	0	0	0	2	1	2	2	0	0	2	0	5	0	0	1	4	3	0	0	0	0	0	1	0	0	0	0	0	1	4	0	0	0	0	0	1	0	0	1	1	0	1	5	0	1	0	0	0	2	0
OTU 194	0	0	1	0	0	0	1	0	0	1	1	1	3	0	1	0	0	0	0	0	0	0	0	0	0	1	0	0	0	2	0	0	1	0	0	3	0	0	0	0	0	0	0	1	0	0	0	0	0	1
OTU 195	0	0	1	0	0	5	0	1	0	0	0	0	6	0	0	4	1	1	0	0	0	0	0	1	1	0	1	3	0	5	0	0	0	0	14	1	0	0	0	1	0	3	0	0	0	0	0	0	0	0
OTU 196	0	0	2	0	0	0	1	0	0	1	0	0	1	0	1	0	0	0	0	0	4	0	3	0	4	1	1	0	2	1	0	0	2	1	1	0	0	0	0	0	0	0	2	0	0	1	0	1	0	0
OTU 197	0	4	1	0	3	0	3	1	0	1	1	4	1	3	157	6	1	0	89	0	0	0	1	1	3	3	3	0	1	1	0	38	0	1	0	1	0	0	0	1	0	0	1	0	0	1	0	0	1	1
OTU 198	0	0	0	0	0	1	0	0	0	0	0	0	0	0	0	0	0	0	0	0	0	0	0	0	0	0	0	0	0	0	0	0	0	0	4	1	1	0	0	0	0	0	0	0	0	0	0	1	0	0
OTU 199	1	0	0	0	0	3	0	0	0	0	0	1	3	1	0	0	0	0	0	1	0	0	1	0	0	0	0	0	0	0	0	1	0	0	0	0	0	0	0	0	0	0	0	0	0	0	0	1	0	1
OTU 200	0	3	0	0	0	0	1	38	18	1	0	0	0	0	2	1	0	0	11	0	3	1	1	10	2	11	4	10	0	0	0	0	1	1	0	0	2	1	18	0	0	3	0	0	1	3	2	5	0	11
