	Host 1	Host 2	Host 3	Host 4	Host 5	Host 6	Host 7	Host 8	Host 9	Host 10	Host 11	Host 12	Host 13	Host 14	Host 15	Host 16	Host 17	Host 18	Host 19	Host 20	Host 21	Host 22	Host 23	Host 24	Host 25	Host 26	Host 27	Host 28	Host 29	Host 30	Host 31	Host 32	Host 33	Host 34	Host 35	Host 36	Host 37	Host 38	Host 39	Host 40	Host 41	Host 42	Host 43	Host 44	Host 45	Host 46	Host 47	Host 48	Host 49	Host 50	
OTU 1	62	220	7	0	276	109	168	63	55	117	0	85	3	48	0	210	88	19	148	10	399	100	67	511	0	6	29	18	71	4	14	26	25	65	6	77	104	146	112	28	150	12	15	3	307	90	663	43	11	915
OTU 2	4	35	22	25	17	14	12	18	98	67	8	22	3	0	3	0	20	43	0	1	0	101	0	36	3	1	11	59	4	5	69	0	0	8	4	3	0	5	0	22	28	1	5	36	0	25	7	9	11	6
OTU 3	0	4	0	9	42	0	39	0	6	93	5	51	127	0	3	6	68	0	30	14	0	0	5	150	23	0	18	106	63	4	0	0	0	0	45	27	3	0	0	30	0	1	28	21	0	0	0	0	53	0
OTU 4	0	0	0	0	0	0	0	1	0	0	0	0	0	0	0	0	0	0	0	0	0	3	0	0	0	0	0	0	0	0	0	0	0	0	0	0	0	0	0	0	0	0	0	0	0	0	0	0	0	0
OTU 5	489	1	964	57	987	762	115	472	98	38	861	334	184	19	3	244	364	314	651	291	166	379	812	139	26	144	705	4	539	888	183	467	818	416	4	64	0	113	8	2039	38	22	3238	1057	621	169	338	88	35	216
OTU 6	23	57	2	50	28	2	1	7	4	46	8	0	194	14	0	7	6	0	82	66	5	89	3	53	96	29	3	2	2	12	9	37	6	2	139	0	37	5	31	0	13	10	11	9	1	7	8	1	9	2
OTU 7	22	20	150	52	24	129	26	40	170	304	49	160	263	1	5	41	47	49	377	9	112	41	37	48	33	9	62	52	62	12	490	40	162	63	23	3	32	85	32	23	47	17	11	55	3	3	28	350	32	133
OTU 8	202	239	1	30	17	1061	11	539	1239	112	14	98	106	71	112	51	60	37	78	29	69	120	14	20	121	0	819	129	846	8	69	50	94	516	65	4332	1273	59	166	19	17	0	23	66	42	831	78	52	79	143
OTU 9	54	136	8	0	5	13	0	0	1	16	7	20	2	20	63	0	68	1	57	0	7	0	237	1	0	6	0	2	4	72	0	8	34	7	1	4	50	267	0	0	11	1	4	5	9	1	16	30	0	0
OTU 10	71	0	0	0	0	61	27	26	5	34	0	68	0	19	3	2	5	1	57	6	0	0	9	2	38	118	0	0	6	1	0	1	6	32	4	0	17	0	34	1	1	1132	0	21	0	20	7	46	836	0
OTU 11	51	103	33	38	32	109	10	1	1	0	20	3	2	57	1	0	17	42	18	46	4	13	28	17	72	0	2	4	30	11	62	1	51	63	82	4	1	74	56	35	5	0	13	41	2	6	63	59	56	26
OTU 12	20	3	22	48	4	41	5	10	6	18	42	39	132	117	13	3	85	0	21	16	7	33	0	13	13	3	9	18	62	29	94	0	191	27	27	1	17	10	49	75	9	172	51	67	12	2	8	87	234	21
OTU 13	2	3	0	4	0	0	0	0	0	27	3	0	0	0	0	0	1	0	0	0	0	1	20	0	0	5	0	0	0	0	0	53	11	0	0	0	5	4	0	25	1	1	8	0	7	0	0	0	0	0
OTU 14	17	19	1	3	2	13	3	4	14	3	0	0	2	4	10	0	0	8	17	32	0	10	0	0	0	507	11	44	11	1	4	7	51	6	44	0	25	5	4	0	0	210	0	7	0	33	25	16	60	26
OTU 15	0	0	1	1	0	0	0	0	47	0	18	0	36	4	0	0	0	3	0	0	0	0	28	0	0	11	19	0	0	3	0	15	0	0	0	0	0	7	3	0	0	69	0	0	0	5	0	2	15	0
OTU 16	0	0	0	0	0	0	0	8	0	0	0	0	0	0	0	0	0	0	0	5	0	0	0	0	0	0	0	0	0	73	16	9	0	0	14	0	0	0	0	0	3	0	0	0	0	0	0	15	0	0
OTU 17	15	61	152	5	8	0	19	5	40	0	10	12	10	70	8	0	1	1	2	27	3	112	0	30	13	5	30	65	29	0	0	0	0	0	48	1	8	0	0	0	0	23	0	2	1	0	14	0	192	3
OTU 18	0	72	15	61	75	341	4227	92	331	31	20	9	27	17	92	34	57	7	41	6	16	114	15	138	43	4	114	17	38	244	12	1	111	184	9	2280	229	8	181	39	11	5	5	120	3	165	21	40	16	68
OTU 19	0	0	0	0	0	0	0	0	0	0	0	0	0	0	0	0	0	0	0	0	0	0	0	0	0	0	0	0	0	0	0	0	0	0	0	0	0	0	0	3	0	0	0	0	0	0	0	5	0	0
OTU 20	186	1	0	92	22	39	1	4	71	110	14	15	21	26	0	3	9	11	0	0	3	4	2	28	11	63	88	127	71	8	40	1	27	24	1	10	255	27	11	5	1	11	1	20	55	147	12	27	45	0
OTU 21	22	71	237	9	570	52	103	26	32	5	244	18	18	21	35	1	0	10	56	65	6	83	10	175	72	18	26	15	38	3	20	29	355	28	22	43	0	8	38	38	21	6	11	124	2	9	17	55	59	2
OTU 22	196	73	15	22	118	1	73	8	20	45	4	26	167	4	7	5	19	0	1	50	90	5	17	214	5	52	2	33	0	2	10	54	11	0	82	18	0	44	48	7	31	45	3	26	6	1	10	8	27	33
OTU 23	17	0	10	1	24	172	20	18	18	5	8	7	0	10	1	0	2	28	8	6	0	21	0	30	1	3	6	13	63	16	19	0	0	93	40	69	9	6	0	3	35	2	1	0	1	0	6	4	82	3
OTU 24	1	28	19	30	0	1	0	1	27	65	67	36	0	16	91	6	18	0	16	8	45	0	18	1	18	22	0	10	31	5	6	11	2	0	27	0	2	49	70	0	20	28	0	0	0	26	0	2	91	2
OTU 25	0	5	0	0	0	0	0	0	0	0	2	0	121	0	0	0	2	0	116	0	0	0	5	0	0	0	0	0	0	5	2	0	0	0	0	0	0	31	0	0	0	0	0	0	0	0	0	0	0	0
OTU 26	0	1	0	0	0	0	1	6	0	0	10	0	0	0	0	2	43	19	1	0	0	11	11	10	0	0	3	1	0	0	0	0	1	0	4	0	1	15	0	0	0	26	2	111	0	3	0	1	4	0
OTU 27	0	0	0	0	0	0	0	0	0	0	0	0	3	0	0	0	0	0	0	0	0	0	0	0	0	0	0	0	17	0	0	0	5	0	0	0	0	0	8	1	0	12	0	0	0	0	0	0	0	0
OTU 28	28	35	93	64	17	7	15	28	25	2	55	0	26	388	60	0	45	74	7	38	3	61	1	35	2140	14	4	127	1	27	166	9	41	5	57	8	17	2	17	74	1	84	18	20	7	2	41	153	5	2
OTU 29	233	11	9	17	7	75	3	34	15	49	38	12	6	56	64	0	7	12	34	36	5	20	26	12	5	93	5	29	22	21	6	55	66	47	103	18	12	35	58	48	46	0	14	96	1	5	54	147	22	5
OTU 30	0	0	0	0	0	0	0	0	0	0	0	0	0	0	270	0	0	0	0	0	3	0	0	0	0	0	0	0	0	0	0	0	0	0	0	0	0	0	1	1	0	0	0	0	0	0	0	0	0	0
OTU 31	134	22	150	5	4	0	0	0	17	240	49	108	13	4	0	0	97	0	297	0	0	0	0	1	0	122	0	2	8	5	52	0	54	0	6	1	27	0	111	89	198	0	44	28	4	31	39	110	25	40
OTU 32	33	30	46	2318	14	5	9	11	31	28	75	10	51	117	34	21	150	5	145	11	18	15	69	0	51	24	8	88	73	12	25	59	49	3	8	3	2	78	197	72	171	7	50	21	0	33	18	20	16	31
OTU 33	0	0	0	0	0	0	0	0	1	2	0	2	1	1	0	0	55	0	1	0	0	0	0	0	0	0	0	0	0	0	0	0	0	0	0	0	0	0	4	9	0	0	20	0	0	1	0	0	0	0
OTU 34	1175	62	0	1	6	13	4	5	1	0	5	7	30	58	6	6	71	13	0	5	22	124	1824	25	1	12	10	13	378	7	77	1	12	7	20	23	4	43	56	74	290	1	19	25	24	4	1	18	1	64
OTU 35	19	0	38	99	2	0	1	16	68	199	617	161	8	20	5	37	14	10	25	56	59	51	0	30	189	17	17	34	8	25	11	102	119	0	88	0	1	14	156	1	0	67	5	3	0	20	54	0	156	36
OTU 36	41	7	72	2	1	22	14	10	817	32	1	1	2	10	7	12	1	32	25	1	18	2	30	2	2	3	453	151	2	32	1	44	3	16	1	0	36	6	48	11	18	15	7	113	61	357	44	25	33	4
OTU 37	0	0	0	0	0	0	0	0	2	0	11	1	0	0	0	16	0	0	31	0	30	0	17	0	0	1	0	0	7	8	0	15	0	0	0	0	0	40	4	10	0	2	0	10	0	0	5	0	0	0
OTU 38	68	147	131	8	28	20	22	1	24	113	16	65	13	96	2	0	70	91	30	7	0	16	38	49	128	8	3	218	14	15	6	960	83	8	0	20	9	91	25	43	159	18	18	1	5	18	4	77	98	0
OTU 39	8	0	11	0	0	24	12	72	0	3	0	0	0	1	3	0	5	26	0	1	0	16	0	0	12	0	2	19	0	24	3	0	3	5	15	19	0	0	3	3	0	23	0	7	10	3	0	39	155	0
OTU 40	24	103	48	9	2	138	4	67	2	17	34	17	68	187	30	1	9	5	1	1	4	23	14	2	16	165	1	8	39	226	117	42	80	77	4	0	46	65	2	54	17	6	24	20	9	42	3	114	15	61
OTU 41	60	2	1	8	1	0	1	2	32	54	1	5	103	137	36	0	7	47	2	35	0	3	0	5	10	8	2	45	4	12	70	22	38	0	66	19	9	0	81	1	7	2	3	68	6	12	3	2	21	0
OTU 42	30	0	231	19	10	10	17	0	0	1	0	0	24	4	902	12	0	0	1	0	9	15	0	20	0	0	10	4	2	19	45	0	0	2	0	0	1	0	20	4	0	45	0	2	0	0	25	0	0	0
OTU 43	0	0	0	42	0	0	0	0	0	0	0	0	0	0	0	0	0	0	0	0	0	0	0	0	1	0	2	2	0	0	0	0	0	0	0	0	0	0	0	0	0	0	0	0	0	0	0	0	0	0
OTU 44	7	41	0	4	4	0	9	0	0	28	6	15	0	1	0	0	14	1	117	9	0	99	0	3	0	8	18	0	0	0	0	0	0	0	11	2	0	0	0	0	3	0	1	8	119	0	0	7	0	0
OTU 45	75	11	25	5	44	4	99	8	15	30	1	4	3	3	327	8	22	8	137	331	48	9	8	91	71	1	5	4	4	72	21	25	3	0	552	46	62	23	2	2	55	16	9	6	1	4	8	45	27	98
OTU 46	73	52	65	24	92	1	82	0	8	20	0	57	16	13	169	11	21	90	35	3	7	2	15	115	233	157	11	178	4	68	301	1	54	1	1	1	104	25	12	34	62	9	19	15	29	23	25	58	76	19
OTU 47	0	0	0	0	0	0	40	0	0	0	0	0	3	0	0	0	1	12	0	20	0	11	0	12	2	4	0	0	0	0	0	0	0	0	36	31	3	0	0	1	0	1	0	7	1	0	2	0	0	5
OTU 48	26	60	21	3	37	3	22	9	23	87	11	69	8	34	57	3	28	9	95	58	7	323	39	36	0	42	19	125	10	3	44	42	19	0	72	40	16	19	46	27	81	37	5	94	13	22	6	69	2	1
OTU 49	200	91	0	0	9	0	11	0	15	10	0	0	2	173	0	0	4	9	0	8	10	5	3	1	0	2	0	6	37	6	4	0	3	0	8	4	0	32	203	435	14	19	309	0	0	0	0	0	58	12
OTU 50	10	9	57	17	96	14	61	22	18	1	10	0	71	41	276	1	46	508	117	18	13	32	0	201	63	3	47	1611	9	99	229	282	60	5	35	49	124	2	43	1	9	15	11	2	13	19	3	84	146	23
OTU 51	59	11	1	28	36	11	83	9	24	0	2	4	11	6	5	5	0	24	73	40	9	161	0	71	4	29	6	0	74	21	4	5	0	1	94	47	16	0	4	12	2	0	4	36	5	6	341	9	60	19
OTU 52	61	238	33	99	31	10	28	2	37	25	89	58	57	38	29	965	63	57	104	116	2273	64	968	88	147	31	6	224	3	277	103	47	190	6	277	59	39	2104	39	48	169	62	18	104	7	87	32	52	20	128
OTU 53	0	0	0	0	7	6	0	0	0	0	0	0	0	0	0	0	67	0	0	0	0	0	0	5	0	0	0	0	0	0	0	0	0	3	0	0	0	0	0	19	0	1	3	0	0	0	0	1	57	0
OTU 54	39	45	44	51	1	12	18	4	149	63	18	19	80	393	30	13	201	27	197	0	12	222	43	12	119	97	75	5	15	23	86	110	26	5	3	24	153	54	6	149	155	56	93	150	14	3	23	67	132	37
OTU 55	0	1	0	0	0	0	0	0	0	0	0	0	0	0	0	0	0	0	0	0	0	0	0	0	0	0	0	0	0	0	0	0	0	0	0	0	0	0	0	0	0	0	0	0	0	0	0	0	0	0
OTU 56	23	4	16	1	2	0	13	7	0	3	0	0	32	0	42	6	15	38	0	9	0	15	10	2	5	8	5	5	1	0	0	0	1	0	70	8	1	10	0	23	27	10	19	1	0	10	8	0	0	0
OTU 57	475	47	11	72	273	85	50	39	81	323	72	76	176	950	39	26	211	100	80	111	36	665	9	137	122	27	11	106	41	25	800	58	79	38	228	19	151	29	40	7	77	24	23	273	31	44	43	103	77	38
OTU 58	0	19	3	0	16	73	38	44	0	0	73	1	2	1	0	1	94	3	13	36	0	3	3	33	45	8	4	56	31	39	2	2	0	49	51	11	135	30	0	1074	0	9	485	5	4	24	0	1	0	47
OTU 59	0	224	16	78	105	0	53	3	14	14	9	10	39	11	0	18	4	12	7	4449	45	17	52	235	17	44	39	174	0	18	0	1	0	0	1	44	25	72	26	10	31	16	11	1	47	0	110	48	48	58
OTU 60	17	0	161	47	5	11	9	3	0	31	5	0	17	167	66	2	21	42	24	0	9	45	309	6	183	1440	1	77	5	293	15	27	16	7	2	1	16	69	50	72	13	47	37	35	1	31	17	1311	21	8
OTU 61	0	181	5	13	42	41	18	2344	11	13	21	1251	37	54	157	13	24	15	63	120	47	499	365	49	71	7	12	8	11	138	54	12	58	24	248	52	7	623	52	6	27	4	23	2	116	19	18	26	4	53
OTU 62	0	13	1	0	0	45	0	38	25	21	7	0	17	24	0	0	0	246	16	5	0	1	0	0	0	25	62	0	1	40	37	514	0	22	3	0	19	1	0	9	1	7	0	8	0	50	0	37	0	0
OTU 63	0	22	4	0	16	1	16	0	0	1	0	0	0	4	43	19	47	0	15	22	25	8	50	58	6	2	0	23	2	0	14	0	3	0	27	11	38	76	20	1	25	76	0	0	8	0	1	40	153	0
OTU 64	68	179	7	93	12	15	12	1	8	18	10	31	191	9	128	52	111	97	179	6	72	157	34	43	9	80	12	279	13	153	26	3	59	9	16	35	39	32	2	534	5	81	280	60	10	9	48	45	92	22
OTU 65	0	0	0	0	0	0	0	0	0	0	0	0	31	0	0	0	0	0	14	0	0	103	0	0	0	0	0	2	0	1	0	0	0	0	0	0	0	0	0	0	1	0	0	0	0	0	0	19	0	0
OTU 66	78	39	0	12	0	8	9	5	70	0	25	11	36	67	1	43	11	34	145	30	83	62	3	0	51	46	35	33	5	0	27	0	66	2	24	3	9	11	217	59	86	11	19	6	2	6	11	2	2	82
OTU 67	48	47	35	5	1	69	2	55	71	17	8	7	1	142	1	4	15	39	7	1	14	186	5	1	2	1	29	14	55	93	4	0	31	22	1	5	48	7	1	13	9	3605	1	49	2	15	31	18	24	74
OTU 68	0	0	0	13	0	55	19	23	15	13	18	45	3	7	20	0	0	1	1	10	8	74	7	0	1	0	16	27	0	11	8	0	4	27	33	0	0	0	34	0	4	1	0	47	3	0	2	1	0	6
OTU 69	38	60	67	22	48	7	43	16	21	19	800	12	2	6	41	4	556	100	250	1	1	74	444	59	127	17	175	10	48	2	132	145	18	2	8	30	31	981	33	320	0	53	233	37	2	88	1	3	23	8
OTU 70	43	0	1	4	10	5	7	3	3	3	2	0	0	69	84	3	0	72	0	0	0	0	24	31	58	16	1	0	4	31	48	0	0	1	0	0	0	78	40	30	57	10	3	2	0	0	5	62	0	0
OTU 71	22	0	5	15	112	88	78	14	0	14	1	10	8	29	2	3	10	45	0	0	2	0	2	151	1	10	0	147	4	0	45	15	10	49	3	20	4	3	13	0	43	4	0	79	2	2	38	2	30	0
OTU 72	98	2	19	112	37	89	27	15	5	123	7	49	127	100	3	65	3	5	59	27	221	21	29	48	3	38	8	20	1	10	1	38	37	48	29	12	10	15	84	22	888	49	6	0	75	23	73	3	16	133
OTU 73	3	54	0	4	16	22	77	51	68	5	45	9	45	46	1	3	47	20	19	42	6	29	1	25	0	7	39	27	6	8	47	3	5	12	110	20	28	5	100	1	91	0	1	2	13	3550	5	0	0	0
OTU 74	0	178	17	26	10	8	2	15	5	3	7	11	72	60	77	5	4	1	182	4	5	1	4	28	110	6	2	21	10	183	17	12	47	7	9	48	3554	2	14	1	0	0	4	61	5	36	1	58	17	3
OTU 75	3	57	105	23	1	0	16	36	13	30	3	11	19	29	10	18	73	11	22	9	41	103	5	2	96	52	7	3	1850	44	185	1	8	0	12	13	31	3	9	37	8	3	6	46	6	12	4	0	29	24
OTU 76	12	0	92	3	0	0	0	2	19	0	164	0	0	3	0	4	0	8	86	17	0	15	0	0	0	66	2	1	0	16	0	4	171	0	38	2	0	1	0	0	1	35	0	0	0	33	0	155	28	0
OTU 77	88	17	294	13	91	5	70	2	27	69	10	60	44	5	133	4	37	146	75	16	25	9	30	212	21	5	0	2	47	11	34	119	32	2	37	15	22	37	15	0	72	33	4	12	32	27	3	3	22	1
OTU 78	55	8	22	31	720	0	838	0	38	0	21	7	1277	59	1	3	7	6	37	0	0	47	1590	1315	42	131	21	1	10	5	12	42	33	0	1	531	49	13	0	19	6	47	10	28	21	22	2526	242	16	0
OTU 79	144	138	225	203	393	714	585	232	29	57	198	72	661	70	81	29	330	35	121	59	15	323	21	838	165	68	3398	51	206	85	153	72	801	370	113	163	81	50	211	208	111	35	96	119	36	19	70	46	222	144
OTU 80	78	78	59	1	16	209	78	188	4	19	5	16	91	128	92	16	15	23	48	1	8	42	13	59	229	5	1	38	48	67	11	83	120	98	1	31	30	34	16	0	90	59	5	64	0	20	222	57	51	0
OTU 81	91	67	2	42	11	17	18	18	56	62	0	32	52	1409	128	24	188	57	2	131	1	63	56	13	586	2	18	71	25	91	36	35	22	7	244	7	55	67	34	103	18	1	74	41	18	1	36	39	25	32
OTU 82	0	6	17	4	0	184	4	174	34	11	107	14	5	49	6	29	0	54	0	17	13	15	10	9	4	11	2	6	146	163	0	0	330	78	35	0	137	16	1	2	0	161	10	9	1	30	0	0	28	4
OTU 83	0	5	0	0	2	1	0	3	14	0	44	2	20	1	0	0	1	0	0	2	0	0	1	2	8	0	16	0	0	16	3	0	0	0	2	0	4	0	2	27	14	2	6	1	0	0	0	1	0	0
OTU 84	0	196	49	8	2	0	7	12	0	3	7	3	38	1	0	3	34	17	0	9	0	35	2	34	32	5	0	6	3	1	45	3	0	0	14	1	8	16	2	4	8	4	0	0	0	0	35	1	0	18
OTU 85	18	48	0	26	0	6	9	25	63	8	2	0	5	0	17	0	0	0	1	68	1	7	6	0	0	13	22	4	73	176	0	9	0	2	182	1	1	8	20	0	4	39	1	2	0	1	0	0	29	0
OTU 86	0	0	0	4	0	0	0	0	0	0	0	0	0	28	2	0	0	0	0	4	0	0	0	0	20	0	0	0	16	0	0	0	0	0	5	0	0	0	0	0	0	0	0	2	0	0	0	0	0	0
OTU 87	0	0	0	20	0	3	24	0	0	0	1	0	3	35	0	3	0	0	1	13	0	1	0	0	0	9	0	0	1	35	0	9	4	4	13	8	77	6	4	0	4	0	5	50	0	0	2	12	4	20
OTU 88	0	41	2	0	0	5	0	0	0	2	0	0	0	0	0	0	0	0	0	0	0	0	0	1	0	0	0	0	4	0	0	1	0	2	0	1	6	4	0	1	0	1	2	0	0	0	0	26	1	0
OTU 89	4	9	15	0	4	3	17	0	63	0	851	3	37	20	11	1	0	48	2	14	1	0	0	11	4	13	34	0	0	264	0	4	8	1	45	1	76	3	90	3	1	26	18	8	5	0	64	0	1	2
OTU 90	0	2	0	1	0	0	0	1	61	0	0	1	62	2	0	0	0	0	0	0	0	0	0	0	3	0	28	0	11	0	0	0	0	0	0	0	2	0	0	0	0	0	0	0	0	6	1	0	0	0
OTU 91	0	0	0	0	0	0	0	0	19	4	0	0	9	0	0	0	0	0	1	1	0	0	0	0	0	8	7	0	0	0	1	0	0	0	5	0	0	0	0	2	7	36	0	0	3	8	10	6	2	0
OTU 92	0	0	5	4	7	4	457	2	0	2	0	0	3	38	2	0	1	0	0	0	1	0	8	36	8	0	0	1	0	0	0	2	2	2	0	210	0	6	0	0	2	5	1	0	3	6	5	0	114	8
OTU 93	6	1	3	0	0	1	0	0	0	0	1	0	0	0	0	0	0	119	0	0	0	0	1	0	3	0	0	0	8	3	0	0	0	1	0	0	4	0	14	27	1	0	0	0	0	0	0	38	0	1
OTU 94	412	60	87	0	2	18	11	31	61	577	60	351	6	20	8	15	2	162	217	24	24	42	46	13	173	95	19	6	15	17	425	20	10	9	53	2	1	99	44	32	78	38	10	71	2	37	15	265	84	7
OTU 95	1	0	36	29	6	0	0	8	0	0	31	0	3	4	1	0	46	0	32	0	0	0	0	13	79	0	10	2	1	1	0	11	47	0	0	4	0	0	0	27	44	0	0	47	2	0	0	0	0	1
OTU 96	0	10	0	0	0	16	1	0	0	0	0	0	0	0	0	18	0	0	3	0	0	14	0	0	0	0	1	0	0	0	0	2	0	3	1	0	62	0	0	0	0	2	0	0	0	0	0	12	0	0
OTU 97	0	0	0	0	0	5	0	14	1879	0	0	0	0	13	6	2	0	0	0	16	0	50	0	0	1	102	783	0	8	0	3	0	3	2	18	1	3	0	6	0	62	0	0	86	0	706	0	159	0	0
OTU 98	16	2	2	39	0	13	0	3	0	0	31	0	0	24	0	320	4	0	4	28	736	57	17	0	0	0	10	0	0	5	0	0	5	9	56	4	15	0	60	0	0	0	0	0	17	1	84	2	13	129
OTU 99	0	3	4	48	40	0	5	3	13	89	50	52	16	33	9	22	70	80	135	8	39	31	36	29	40	3	1	18	55	112	77	39	26	0	24	2	39	55	90	39	8	5	60	27	23	81	37	11	52	22
OTU 100	105	77	9	0	18	33	20	2080	0	3	3	0	3	0	3	4	62	0	30	3	6	22	2	3	8	0	0	5	5	113	38	1	0	22	16	2	2	14	0	15	0	5	1	22	1	54	0	0	35	44
OTU 101	0	0	17	1	0	0	0	0	0	0	0	2	0	0	5	0	0	0	17	0	0	3	0	0	0	1	0	0	0	0	10	7	0	0	2	0	0	2	0	0	0	1	0	0	0	0	0	0	0	0
OTU 102	0	1	0	0	2617	1	1	8	0	0	10	0	8	0	25	2	2	0	8	0	0	3	0	0	9	15	15	0	0	19	10	64	0	0	0	0	26	10	0	0	0	1	3	116	1	4	3	0	0	0
OTU 103	1	99	28	16	67	9	59	0	0	3	33	19	94	92	9	0	12	7	1	17	42	7	0	91	0	1	0	423	7	15	9	924	0	8	17	44	0	1	4	2	3	39	8	37	0	11	17	0	9	20
OTU 104	52	1	102	13	0	68	43	14	29	180	15	96	45	21	159	11	61	61	19	53	17	9	27	11	13	100	51	159	6	0	80	11	64	29	112	14	75	21	11	83	72	25	24	0	27	7	35	99	31	144
OTU 105	9	1	7	1	54	0	52	2	20	0	4	3	36	32	32	3	20	0	0	5	0	1	4	137	0	0	29	1	0	0	5	0	1	0	7	39	0	1	0	5	0	0	0	66	0	0	0	108	0	31
OTU 106	2	198	0	0	2	7	1	2	1	0	19	4	12	0	0	1	0	0	0	7	0	60	0	8	8	0	0	0	0	0	1	1470	0	3	6	7	0	0	0	0	0	0	0	78	0	0	0	58	0	3
OTU 107	0	0	0	1871	4	1	30	3	2	1158	56	477	16	0	39	56	4	7	0	0	148	0	4	0	1	0	2	128	1	3	2	16	1	0	2	13	6	8	163	20	1	2	10	1	18	0	94	24	9	181
OTU 108	0	31	55	0	0	7	3	18	0	8	32	10	1	57	16	0	20	0	1	42	0	91	364	4	1	33	0	0	5	0	25	4	7	6	111	10	9	662	0	1	19	11	1	3	0	4	1263	16	14	0
OTU 109	0	0	0	0	0	0	0	0	0	0	0	0	0	0	0	0	0	0	0	0	0	0	6	0	0	1	0	0	0	0	0	0	0	0	0	0	0	11	0	0	0	0	0	0	3	0	0	0	0	4
OTU 110	12	24	47	3	3	2	8	1	49	3	6	9	64	11	11	7	54	111	29	12	35	0	16	23	114	29	9	29	29	1363	134	27	5	0	25	0	61	24	8	2	7	6	0	66	0	5	26	46	77	54
OTU 111	0	0	0	4	0	0	0	0	0	0	0	0	0	0	0	0	0	0	1	0	0	2	0	2	3	4	0	0	0	5	0	0	0	0	0	26	0	0	0	0	0	127	0	9	7	10	0	49	32	0
OTU 112	0	0	6	12	31	6	66	1	9	2	8	3	17	6	1	4	0	31	10	1	3	40	1	33	14	0	6	40	3	173	0	0	97	2330	0	32	0	0	3	5	22	1	0	3	52	1	9	17	9	1
OTU 113	0	0	0	0	0	0	0	0	1	3	4	0	2	0	0	0	14	0	0	1	15	21	5	0	0	0	2	11	3	0	20	0	0	0	2	1	0	1	15	0	1	1	1	0	2	0	4	2	13	2
OTU 114	14	88	37	25	29	96	8	2	46	4	86	13	66	34	3	32	1	40	34	171	88	30	13	72	21	8	211	28	25	41	157	67	0	42	344	37	11	4	47	0	50	81	22	25	41	31	11	72	21	102
OTU 115	38	323	103	4	11	85	34	42	17	79	350	60	26	44	60	10	88	36	23	9	16	31	37	28	72	77	14	51	23	131	36	151	69	39	19	3	87	14	89	15	24	1	9	35	45	2	60	15	58	24
OTU 116	29	286	51	48	27	11	30	25	29	278	52	71	150	16	5	4	8	65	215	64	20	27	18	47	21	52	0	85	41	45	348	147	32	8	71	20	77	20	78	22	1652	47	7	15	35	13	5	104	4	48
OTU 117	41	54	28	13	54	13	13	0	8	55	37	4	49	84	48	10	18	17	28	3	20	6	24	47	10	3	4	20	15	41	157	0	5	6	20	24	1	57	1	2	9	10	10	37	27	12	19	21	12	12
OTU 118	0	0	0	8	5	1	0	0	0	5	49	1	15	14	78	0	4	2	3	5	4	2	21	0	16	0	0	0	1	0	0	0	2	0	1	1	0	50	9	5	9	1	0	0	0	0	0	0	106	0
OTU 119	82	35	33	0	27	86	52	4	5	347	11	153	15	24	74	35	0	1490	67	18	7	25	3	32	74	2	0	134	5	194	90	43	21	185	37	15	1	3	312	38	120	12	6	18	21	14	33	41	61	103
OTU 120	1	171	12	38	5	1	12	7	0	202	52	156	83	0	1	0	17	0	0	0	2	0	0	0	2	4	3	7	19	4	10	6	0	0	1	38	10	3	0	11	0	53	2	1	1	0	1	52	1	6
OTU 121	0	8	1	18	34	8	4	30	68	7	66	232	5	11	5	0	129	0	48	22	1	0	0	62	4	61	65	1	0	13	32	1	2	5	52	32	46	0	4	40	30	32	20	0	0	24	11	167	1	0
OTU 122	11	4	51	6	14	4	15	7	0	63	35	10	56	2	34	1	0	2	43	0	13	16	29	51	52	15	2	79	0	283	56	4	62	1	12	5	0	31	14	23	97	20	14	5	1	1	6	0	3	10
OTU 123	141	1189	78	31	82	105	61	123	60	136	88	47	325	306	205	52	68	163	83	108	14	279	131	122	27	145	39	406	58	311	203	230	382	48	189	15	97	195	150	22	378	43	12	84	75	108	69	89	401	96
OTU 124	0	2	0	0	5	0	0	4	31	0	0	0	2	0	0	1	0	0	47	2	0	0	12	3	6	35	35	0	0	6	11	41	5	0	3	1	1	0	28	3	4	1	0	14	6	0	3	35	0	3
OTU 125	168	205	189	817	71	134	42	52	11	161	159	108	162	206	49	175	38	18	218	43	362	254	59	106	465	16	34	169	28	258	147	60	315	896	108	41	112	132	1286	14	1328	53	15	133	283	3	313	122	148	678
OTU 126	0	0	0	1	0	0	0	0	12	0	33	0	26	14	0	21	0	0	0	0	45	0	0	0	5	0	1	0	5	30	0	16	0	0	0	0	0	0	16	0	4	3	0	0	2	0	0	0	0	11
OTU 127	61	3	12	72	0	30	0	9	84	39	1	36	85	9	12	0	2	2	1	0	4	0	34	1	0	14	78	0	12	0	11	149	128	10	13	0	16	45	57	5	2	8	3	6	1	8	8	0	20	1
OTU 128	300	287	354	126	27	205	37	93	42	318	65	184	66	229	171	715	50	139	182	42	1266	215	328	31	69	253	41	176	115	61	348	95	55	85	64	14	188	121	184	32	560	19	18	99	2622	110	1158	733	130	3030
OTU 129	2	1	1	0	0	0	2	0	21	0	0	0	0	1	0	0	0	0	1	1	0	0	0	0	0	0	13	3	0	0	0	6	38	0	0	0	0	0	28	1	0	11	0	6	0	58	1	0	15	0
OTU 130	107	0	27	35	9	70	8	2	15	110	102	63	24	12	4	2	632	397	19	116	4	17	218	29	1	3082	33	24	32	0	62	122	6	33	223	0	0	422	80	605	8	1	268	6	19	5	43	25	0	27
OTU 131	14	14	21	4	496	4	4	18	52	48	31	34	21	6	2	4436	25	5	16	3	27	39	22	102	30	3	38	6	24	0	49	3	4	2	21	21	5	19	8	18	0	52	794	12	440	38	4	34	60	42
OTU 132	1	1	6	0	0	15	0	49	3	4	10	38	18	41	0	13	15	53	5	863	17	10	63	0	0	140	0	2	2	127	0	0	57	10	1582	7	0	120	24	0	10	0	10	1	0	12	2	12	1	2
OTU 133	4	0	2	34	0	3	2	4	0	0	0	10	0	100	25	8	0	6	28	0	6	0	1	0	5	0	2	0	1	8	0	1	0	1	0	0	0	0	2	13	1	0	7	0	32	0	5	3	84	0
OTU 134	115	22	18	7	41	2	4	0	39	22	0	3	103	42	91	11	1	2	133	36	31	332	9	59	0	39	1	1	21	56	1	1	56	0	73	1	96	4	37	4	1	3	11	8	7	3	35	1	1	9
OTU 135	22	22	17	7	19	1	8	6	13	73	25	36	15	102	17	4	33	28	0	8	1	58	4	14	0	18	7	94	3	21	218	9	3	0	29	20	28	40	5	0	5	26	0	5	3	11	3	90	0	14
OTU 136	8	19	5	76	9	7	0	0	2	6	18	5	45	12	6	1	45	6	2	20	2	10	16	9	4	4	0	12	12	37	22	22	0	4	31	0	0	46	1	9	3	19	1	11	0	2	0	87	33	0
OTU 137	1	19	34	14	0	2	49	0	0	6	0	2	196	25	2	947	3	11	0	0	1419	0	0	0	3	15	0	1	0	171	33	0	11	2	0	3	0	1	48	0	21	7	0	16	1	0	0	32	0	20
OTU 138	8	11	6	2	36	56	30	70	0	7	204	15	29	2	24	4	11	1	11	0	9	54	0	104	137	20	3	0	15	0	44	1	0	28	2	12	0	0	0	18	0	5	14	0	5	0	5	1	11	3
OTU 139	150	236	49	57	12	31	22	41	53	109	46	110	48	64	9	29	116	78	121	17	69	22	1	33	11	35	30	33	20	8	65	10	55	12	22	7	34	2	202	20	80	356	466	13	1905	48	9	82	951	69
OTU 140	457	111	403	28	5	130	53	72	457	191	388	125	191	370	36	44	46	36	1485	15	24	65	4	30	108	80	99	130	78	88	694	11	459	61	28	55	358	24	50	41	3	49	8	188	23	86	42	201	110	61
OTU 141	0	0	0	0	0	0	0	0	0	0	0	0	18	2	0	0	0	0	16	0	0	0	0	0	271	0	0	0	0	0	0	0	0	0	0	0	0	0	0	0	0	0	0	0	1	0	0	0	0	0
OTU 142	0	0	25	2	0	0	0	0	0	0	4	0	0	1	8	0	0	0	0	0	0	5	0	0	0	1	0	0	0	0	0	0	0	0	0	0	27	0	1	0	0	0	0	0	0	0	2	1	0	0
OTU 143	13	0	0	0	12	31	0	0	2	0	0	5	23	4	28	0	0	0	11	0	0	13	0	18	4	3	0	0	31	1	1	0	137	17	0	0	2	0	3	1	6	0	0	5	2	2	14	5	0	2
OTU 144	0	208	101	0	0	14	0	1	0	3	1176	0	0	0	7	0	0	0	12	4	1	0	4	0	26	8	17	3	0	0	20	0	10	10	13	1	1	0	4	0	12	28	0	1	19	0	0	15	11	0
OTU 145	91	4	8	9	17	27	2	18	127	0	122	5	262	129	3496	4	422	32	16	0	3	147	1	18	212	29	112	27	70	3	45	61	6	20	1	0	19	4	4	145	27	1	71	94	8	7	2	92	9	0
OTU 146	48	15	1	3	1	5	4	10	2	2	35	0	41	103	4	3	0	1	0	5	8	37	37	7	3	6	42	18	0	10	0	1	0	3	20	7	27	139	44	32	0	152	1	51	17	10	9	1	4	1
OTU 147	43	242	0	27	2	8	0	0	49	20	5	8	2	21	0	2	29	19	9	0	0	16	0	1	14	46	35	7	2	0	56	20	11	7	0	0	4	1	6	9	1	8	2	17	4	0	16	29	13	0
OTU 148	29	33	6	28	32	1	7	19	28	6	0	2099	90	53	11	0	1315	34	80	10	19	100	27	73	95	0	0	21	9	61	61	0	9	2	32	0	2	28	7	475	4	6	278	1	0	7	1	83	7	4
OTU 149	24	1	2	27	0	0	0	6	3	0	40	22	4	5	37	27	32	19	72	0	11	0	0	1	2	25	9	6	0	56	4	88	5	0	0	1	3	7	80	12	14	0	0	1	2	2	6	10	33	5
OTU 150	0	0	37	1	0	0	0	0	0	0	2	0	6	25	0	26	0	12	0	0	77	36	0	0	2	2	3	47	4	0	67	6	0	0	1	0	17	16	16	0	0	2	0	2	1	71	2	0	6	0
OTU 151	2	91	19	6	0	9	20	1	0	12	14	21	0	70	2	92	0	0	12	73	12	0	0	2	15	25	7	60	12	0	3	60	28	3	141	0	3	1	25	0	41	33	2	6	13	0	0	11	1	1
OTU 152	69	109	81	20	25	41	41	4	2	70	46	26	71	148	27	19	104	2	35	9	14	131	15	29	51	27	0	0	0	2	108	38	12	23	17	0	3	15	32	25	5	55	16	0	13	0	10	15	2	0
OTU 153	0	5	14	4	0	0	1	0	22	0	0	0	0	2	0	0	0	0	1	0	0	0	0	0	0	0	20	0	4	0	0	0	0	0	8	0	1	0	0	0	0	0	0	0	21	0	0	2	0	0
OTU 154	0	0	0	0	0	1	0	0	0	7	0	43	30	2	0	0	6	0	0	0	0	0	1	0	1	0	0	8	0	27	0	1	5	0	0	0	0	5	6	0	0	58	0	0	14	0	0	14	105	24
OTU 155	15	42	23	69	0	408	0	368	10	1	3	1	20	58	19	0	1	0	20	1	1	0	12	2	1	11	2	74	106	34	80	0	8	202	1	0	0	44	49	1	49	1	1	0	2	0	4	1	14	10
OTU 156	200	169	129	22	81	42	67	16	28	79	108	17	31	80	84	6	208	56	93	22	11	131	10	136	1	31	32	40	11	57	21	64	96	21	59	47	175	14	26	93	69	8	32	9	0	49	11	252	42	7
OTU 157	0	5	0	9	211	1	60	3	0	10	0	20	10	24	90	2	0	109	5	0	0	0	0	208	0	1	1	262	2	0	26	32	0	0	0	8	0	0	0	0	38	168	0	0	0	0	0	7	525	0
OTU 158	3	0	0	0	0	0	0	0	0	0	0	0	0	0	0	0	0	0	0	0	0	0	0	0	0	8	0	3	0	0	0	1	0	0	0	0	0	0	0	0	0	0	0	0	0	5	0	0	63	0
OTU 159	6	417	0	1	7	0	7	0	59	71	29	2	78	1	2	9	4	3	47	95	23	49	2	19	60	5	5	0	3	0	5	16	52	0	124	34	4	17	0	9	0	0	20	6	0	1	0	79	1	14
OTU 160	260	20	119	295	91	50	99	28	75	52	12	13	214	77	127	138	127	42	137	82	213	71	216	189	20	58	71	394	15	129	359	197	119	32	163	55	71	385	763	89	22	12	40	546	71	211	98	274	98	371
OTU 161	33	15	2315	54	23	103	7	61	6	8	21	3	6	0	3	0	1	5	33	28	6	41	0	12	165	113	19	9	10	107	9	0	0	54	43	0	0	4	0	2	92	0	0	21	1	2	22	1	7	21
OTU 162	10	20	54	0	376	15	322	13	62	81	35	40	22	4	103	1	4	13	49	0	0	10	4	844	54	7	12	167	5	13	15	105	84	10	3	253	6	35	117	19	11	7	11	589	8	11	10	14	13	1
OTU 163	0	4	0	0	0	0	0	0	0	0	0	0	5	0	0	0	0	4	0	0	0	0	2	0	0	0	0	0	0	156	0	0	0	0	0	0	0	9	0	0	0	0	0	0	0	0	0	0	0	12
OTU 164	0	59	0	0	0	0	0	0	0	0	0	0	0	0	2	1	7	0	0	1	0	0	0	0	0	0	0	53	0	0	0	0	0	0	0	0	0	0	0	14	0	13	35	0	0	2	0	0	0	0
OTU 165	68	20	403	22	0	36	3	16	0	45	639	9	46	1	4	1	0	7	3	30	18	8	9	10	8	0	13	59	42	1	10	0	1084	24	66	5	12	1	23	1	20	27	0	7	7	0	26	1	15	0
OTU 166	0	0	3	0	0	0	0	5	0	0	0	0	0	0	0	0	0	0	0	0	0	0	0	0	0	4	0	0	0	0	0	0	1	0	0	1	2	0	0	3	0	0	3	0	0	0	0	0	3	0
OTU 167	3	19	0	4	7	30	16	11	0	21	0	7	2	0	24	0	4	0	8	38	0	168	1	8	3	66	0	0	4	8	3	14	78	9	46	49	45	0	0	13	38	25	0	1	0	0	1	0	17	3
OTU 168	43	81	1	20	5	12	11	19	9	23	21	12	60	15	118	1	6	46	8	9	18	22	16	10	56	36	6	24	0	6	100	11	28	6	11	0	1	20	25	15	16	4	4	0	19	5	77	9	10	22
OTU 169	3	0	0	8	0	0	0	0	0	0	1	0	0	2	0	0	0	0	1	0	8	0	0	0	0	0	0	4	0	0	0	18	0	0	0	0	0	0	0	0	10	0	2	0	0	0	0	0	0	0
OTU 170	0	0	0	0	4	0	0	0	0	0	2	0	0	0	0	0	0	0	0	0	0	0	0	0	0	0	2	0	0	17	0	0	0	0	0	0	0	0	0	0	0	0	0	0	1	0	0	0	0	0
OTU 171	0	38	29	0	8	124	0	133	12	27	71	22	252	20	42	0	3	76	153	0	0	15	2	20	0	25	6	8	1	16	5	16	38	72	1	19	1	2	59	21	0	2	0	3	20	6	1	2	0	34
OTU 172	1	0	17	0	17	1	8	0	4	0	0	0	0	0	0	0	3	0	1	0	0	0	9	12	0	2	10	0	154	1	0	10	6	1	0	0	0	5	0	0	0	26	0	0	1	0	0	10	0	0
OTU 173	33	19	0	0	0	1	0	0	13	76	4	16	128	76	5	0	35	51	0	0	8	0	5	0	16	6	219	68	1	63	2	21	6	1	0	13	0	5	2	0	92	0	2	0	4	0	1	56	0	0
OTU 174	1	0	19	28	4	25	0	7	19	6	4	619	17	5	10	0	15	2	9	5	0	41	11	6	7	3	11	125	50	16	0	8	0	6	0	5	20	19	11	0	14	0	3	0	13	27	1	0	0	0
OTU 175	4	1	0	11	21	4	2	0	15	13	1	14	56	68	0	5	2	4	7	0	0	147	11	28	4	0	37	1	0	25	25	6	26	0	14	0	26	10	13	25	8	0	10	0	5	0	0	8	2	0
OTU 176	110	32	9	28	23	3	9	1	40	0	5	1	44	66	24	8	19	7	41	2	7	53	0	40	64	21	13	9	8	0	111	48	207	2	11	8	51	2	32	38	5	396	24	24	0	13	20	68	178	15
OTU 177	39	5	3	1	2	24	7	28	53	13	9	9	17	2	15	2	42	23	11	13	7	55	9	46	5	5	28	138	31	54	29	4	77	10	15	5	14	0	8	0	10	38	4	498	8	6	1	40	71	1
OTU 178	0	54	5	57	1	1	0	0	6	42	23	21	3	15	2	4	10	7	4	4	0	33	0	0	36	8	0	35	1746	8	54	68	0	1	14	0	18	0	6	20	10	5	12	0	40	5	35	178	0	13
OTU 179	0	134	15	40	0	6	0	0	1	0	4	0	0	1	1	8	27	2693	1	0	11	9	2	0	0	256	0	1	12	73	0	904	0	6	2	4	1	11	0	11	4	22	3	0	15	5	51	36	145	6
OTU 180	105	46	61	867	6	16	7	9	1334	96	9	82	258	142	43	362	123	279	48	265	669	242	56	1	135	83	553	190	103	250	6	21	26	10	492	49	36	134	2036	47	78	155	1034	618	246	491	486	84	63	1152
OTU 181	2	2	11	41	20	40	11	14	30	0	0	6	0	12	0	1	24	23	6	22	5	12	24	86	100	69	26	319	20	19	9	86	4	25	45	54	0	32	4	47	12	82	81	405	3	7	0	6	380	15
OTU 182	0	2	0	0	0	0	0	0	0	1	0	0	0	0	11	0	0	0	1	0	0	0	3	0	0	0	0	6	0	0	0	0	0	0	0	1	0	0	0	0	0	0	0	0	0	0	2	1	0	0
OTU 183	1	29	52	48	17	10	96	1	65	10	12	38	1	2	0	0	20	6	0	0	33	3	10	70	1	100	10	35	6	8	0	13	109	6	3	50	1	7	3	8	5	2	11	33	1	83	0	120	36	7
OTU 184	5	30	0	45	5	0	42	16	0	12	0	0	19	3	0	3	3	10	2	8	0	32	4	23	122	1	0	5	15	65	2	5	0	0	17	0	1	18	3	2	24	1	0	0	33	10	0	52	21	14
OTU 185	69	1	25	47	18	434	7	213	203	30	9	16	34	271	17	27	1	19	8	85	12	77	0	37	62	12	160	55	188	28	17	11	94	192	155	5	257	4	53	15	22	1	0	1	271	100	0	26	14	73
OTU 186	321	12	1	0	2	0	1	0	0	0	1	7	0	0	16	9	0	6	2	0	0	3	0	0	4	6	0	16	1	0	14	1	0	0	0	1	10	1	24	1	63	14	0	0	0	3	7	4	0	5
OTU 187	29	42	61	63	27	33	41	17	60	10	54	12	257	18	19	13	95	106	133	0	6	162	39	42	38	23	55	38	10	48	136	46	127	21	5	0	1	87	0	77	43	54	102	100	5	101	51	170	204	40
OTU 188	11	81	22	46	42	75	39	69	26	240	12	44	35	43	10	20	23	4	135	112	34	107	5	69	103	223	35	14	80	25	128	100	84	41	149	28	2	13	12	8	455	17	12	2	3	43	4	765	111	1
OTU 189	58	59	20	20	24	61	26	54	23	1331	36	652	17	30	7	2	226	35	25	17	4	50	23	70	175	8	14	22	84	4	73	15	77	28	41	25	35	76	2	52	77	54	22	12	19	28	12	8	36	15
OTU 190	0	0	0	1	0	0	0	0	0	21	48	0	0	0	34	0	0	0	0	0	0	0	7	1	1	7	7	0	0	9	25	25	1	0	0	0	0	25	0	0	2	0	0	0	1398	0	1	7	2	0
OTU 191	303	33	96	4	92	6	77	6	17	8	4	9	7	169	45	4	4	60	7	2	2	697	0	159	291	12	1	165	3	34	27	4	14	1661	0	7	5	7	4	11	5	128	46	19	0	3	22	24	133	2
OTU 192	57	61	23	41	60	0	61	3	3	48	41	21	188	8	89	4	1168	40	53	408	9	23	34	121	60	27	17	45	11	82	174	12	100	0	867	8	72	59	2	894	39	308	395	0	61	755	24	1	436	48
OTU 193	0	6	42	37	8	1830	0	929	0	4	18	15	22	22	7	10	76	13	15	20	25	4	243	10	2	1	8	65	964	39	19	14	11	911	46	2	13	530	3	18	52	12	20	0	7	58	26	2	77	9
OTU 194	3	0	26	10	14	3	3	0	0	21	15	6	0	8	0	0	43	1	0	0	13	22	0	20	29	1	0	9	11	0	9	0	10	0	1	0	7	0	2	137	2	67	78	3	9	4	0	4	20	4
OTU 195	100	59	38	9	19	10	20	0	1	2	21	0	10	81	0	28	0	2	2	1	2	5	3	23	2	6	0	7	0	92	14	62	26	5	7	1	16	0	12	8	0	0	214	4	0	5	0	6	33	10
OTU 196	22	44	41	4	9	42	0	5	6	63	7	3	3	8	0	0	0	15	47	5	0	3	0	7	21	1	4	2	5	4	76	0	68	13	17	2	15	1	1	9	0	3	0	16	0	2	16	0	3	4
OTU 197	34	134	101	40	51	21	40	20	3	35	19	93	201	49	36	6	192	8	574	31	7	35	29	98	159	38	13	89	61	129	93	13	193	12	35	8	39	33	118	165	55	14	59	215	3	17	1	15	104	17
OTU 198	0	5	5	42	4	37	0	0	6	33	0	22	9	1	0	0	0	0	0	0	0	4	2	31	6	16	2	0	25	0	7	0	0	20	2	0	1	0	3	0	81	1	0	34	12	0	23	5	9	5
OTU 199	29	0	6	25	0	0	0	0	0	21	8	14	3	19	5	3	17	2	1	20	5	100	1	3	65	1	4	4	0	18	44	28	0	0	52	2	13	0	12	6	3	2	5	2	0	6	21	57	13	23
OTU 200	46	2	0	46	98	4	34	8	0	2	3	1	55	9	131	2	1	1	5	75	0	2	9	171	7	5	0	134	0	12	28	89	61	3	105	16	6	3	47	0	17	25	3	1607	2	0	8	0	149	5
