	Host 1	Host 2	Host 3	Host 4	Host 5	Host 6	Host 7	Host 8	Host 9	Host 10	Host 11	Host 12	Host 13	Host 14	Host 15	Host 16	Host 17	Host 18	Host 19	Host 20	Host 21	Host 22	Host 23	Host 24	Host 25	Host 26	Host 27	Host 28	Host 29	Host 30	Host 31	Host 32	Host 33	Host 34	Host 35	Host 36	Host 37	Host 38	Host 39	Host 40	Host 41	Host 42	Host 43	Host 44	Host 45	Host 46	Host 47	Host 48	Host 49	Host 50	
OTU 1	4	4	7	0	3	1	0	3	1	2	0	2	4	0	11	0	8	5	0	1	1	2	2	0	0	9	0	2	3	2	4	1	0	3	2	3	9	4	1	5	23	2	10	4	5	12	4	2	0	0
OTU 2	1	0	0	0	1	1	2	0	0	0	0	0	0	0	0	0	0	0	0	0	0	0	0	0	0	0	0	0	4	0	0	0	1	0	0	0	0	0	0	0	0	0	0	0	0	0	0	0	0	4
OTU 3	1	0	0	0	0	0	0	0	0	0	0	0	1	0	0	0	0	0	0	3	1	0	0	1	0	0	0	0	0	0	0	1	0	0	0	0	0	0	0	0	0	1	0	0	0	0	0	0	0	2
OTU 4	1	0	0	0	0	0	0	0	0	0	0	0	0	0	0	0	0	0	0	0	0	0	0	0	0	0	0	0	0	0	0	0	0	0	0	0	0	0	0	0	0	0	0	1	0	0	0	0	0	0
OTU 5	5	1	0	0	8	1	3	28	0	1	7	21	2	51	11	19	10	108	0	0	10	2	0	13	2	29	0	8	15	4	10	0	3	14	2	17	18	0	42	7	25	1	20	0	1	57	23	0	0	0
OTU 6	0	2	1	0	0	4	0	0	2	2	3	0	4	0	0	0	0	2	7	0	1	7	2	0	0	1	0	3	3	0	0	3	0	5	0	0	0	0	0	0	2	0	1	1	0	1	2	15	3	0
OTU 7	2	2	4	12	1	3	0	2	6	0	7	0	6	4	1	0	1	5	4	4	2	5	1	2	8	2	6	3	0	2	0	16	7	4	1	5	26	0	5	2	3	0	34	0	1	65	29	56	6	7
OTU 8	0	0	0	2	0	1	5	0	1	1	1	7	1	0	1	0	2	3	1	0	0	3	3	1	3	1	1	1	5	0	2	16	2	4	1	0	0	4	4	2	2	0	0	1	0	1	1	2	4	30
OTU 9	0	0	0	4	0	0	1	0	0	0	0	2	0	1	0	0	0	0	2	0	2	0	0	0	9	0	7	0	0	1	0	0	0	0	1	0	0	1	0	0	1	0	0	0	0	1	0	3	0	0
OTU 10	0	1	6	0	0	0	0	0	1	0	0	0	0	0	0	0	0	0	3	1	1	0	0	0	2	0	1	0	0	1	1	0	3	2	0	0	0	0	0	0	1	0	0	0	0	0	0	0	8	0
OTU 11	1	7	2	19	1	0	1	1	0	1	2	5	0	0	3	1	0	30	1	3	7	0	0	2	0	0	0	0	2	0	1	1	10	0	0	0	0	7	3	0	3	6	1	1	0	0	0	5	3	112
OTU 12	4	0	1	1	2	1	6	5	2	0	5	0	1	2	2	0	1	0	1	2	5	0	1	0	6	3	5	5	1	0	1	8	0	2	0	2	0	1	5	0	2	0	0	0	0	0	1	3	6	0
OTU 13	0	1	0	0	0	0	0	1	0	0	0	0	0	0	0	0	0	0	1	0	0	0	0	0	0	0	0	0	0	0	0	0	0	0	0	0	0	0	0	0	0	0	0	0	0	2	0	0	0	0
OTU 14	0	0	0	0	0	0	0	1	0	0	0	0	2	0	8	1	0	2	0	0	2	0	0	0	0	1	0	0	0	0	0	0	7	0	0	0	0	0	0	0	0	0	0	0	0	0	0	4	0	0
OTU 15	0	0	0	0	0	0	0	0	0	0	0	0	0	0	0	0	0	10	0	0	0	0	0	0	0	0	0	0	0	0	0	0	0	0	0	0	0	0	0	1	0	0	0	4	0	0	0	0	0	0
OTU 16	0	0	0	0	0	0	0	1	0	0	0	0	0	0	0	0	0	0	0	0	0	0	0	0	0	0	0	0	0	0	0	0	0	0	0	0	0	0	0	0	0	0	0	0	0	0	0	1	0	0
OTU 17	0	0	1	0	0	2	0	1	0	0	1	0	1	0	0	0	19	0	0	0	1	0	0	0	1	0	1	0	0	3	0	0	1	3	14	1	7	0	0	12	38	0	4	0	14	13	1	1	1	0
OTU 18	2	2	0	3	6	1	1	3	0	6	3	4	0	0	0	2	3	42	2	4	0	4	0	2	3	0	2	0	5	0	1	3	0	2	0	0	2	6	0	3	2	4	0	5	0	1	1	0	0	1
OTU 19	0	0	0	0	0	0	0	0	0	0	0	0	0	0	0	0	0	0	0	0	0	0	0	0	0	0	0	0	0	0	0	0	0	0	0	0	0	0	0	0	0	0	0	0	0	0	0	0	0	0
OTU 20	1	40	18	0	0	1	0	0	1	0	0	0	0	0	0	1	2	0	0	11	1	4	3	2	8	23	1	0	1	2	0	0	3	0	0	0	4	0	1	0	2	0	0	14	1	0	2	39	5	0
OTU 21	0	1	1	1	0	0	4	0	0	2	7	2	0	1	2	2	1	0	0	0	4	0	5	0	0	0	0	0	1	1	1	1	3	2	4	2	0	0	1	0	3	3	0	1	0	0	4	0	1	2
OTU 22	2	5	3	0	0	1	0	0	2	0	5	0	0	1	2	2	0	0	0	0	0	2	0	1	23	1	1	0	0	3	0	6	0	1	5	0	1	2	0	0	0	1	0	0	0	0	0	0	2	5
OTU 23	1	0	0	0	0	2	1	0	1	0	1	0	0	2	1	4	0	0	0	0	4	3	0	1	1	0	0	0	0	0	0	0	1	2	0	1	0	0	0	0	0	1	0	0	0	0	0	0	16	0
OTU 24	0	0	0	0	0	0	0	0	1	6	0	8	0	1	1	2	0	0	0	0	1	0	1	0	0	0	0	0	0	1	0	0	1	1	1	0	0	8	0	2	0	0	0	2	0	0	0	0	9	0
OTU 25	0	0	0	0	0	0	0	0	0	0	0	0	0	0	0	0	0	0	0	0	1	0	0	0	0	0	0	0	0	0	0	0	0	0	0	0	0	0	0	0	0	0	0	0	0	0	0	0	0	0
OTU 26	0	0	1	0	0	0	0	1	0	0	0	0	1	0	0	7	0	0	0	0	0	0	0	0	0	0	0	0	0	0	0	0	0	0	0	0	0	0	0	0	0	0	1	1	0	0	1	0	0	0
OTU 27	0	0	0	0	0	0	0	0	0	0	0	0	2	0	0	0	0	0	0	0	0	0	0	0	0	0	0	0	0	0	0	0	0	0	0	0	0	0	0	0	0	4	0	0	0	0	0	0	0	0
OTU 28	2	4	1	0	1	0	1	0	11	0	0	1	0	4	8	3	1	3	0	7	52	3	1	6	3	2	3	0	5	0	1	0	6	1	0	0	0	1	4	2	2	4	0	0	0	0	1	0	4	6
OTU 29	10	0	0	2	1	1	0	0	0	3	0	0	6	5	0	3	0	0	1	2	1	0	0	0	3	0	7	1	5	1	0	3	1	1	1	0	0	4	7	0	0	0	0	0	2	0	6	4	1	1
OTU 30	0	0	0	0	0	0	0	0	0	0	0	0	0	0	0	0	0	0	0	0	0	0	0	0	0	0	0	0	0	0	0	0	0	0	0	0	0	0	0	0	0	0	0	0	0	0	0	0	0	0
OTU 31	0	0	9	0	0	0	0	1	8	0	0	0	1	0	0	0	2	0	0	0	0	2	0	0	0	0	0	0	0	0	0	0	1	0	0	0	0	0	2	0	1	0	0	0	0	0	1	0	3	0
OTU 32	1	4	0	3	59	1	0	5	2	5	5	10	3	0	1	5	1	2	6	25	2	0	0	146	0	0	1	2	0	1	6	0	0	2	1	15	4	9	2	1	3	54	0	13	0	2	3	0	0	20
OTU 33	0	0	0	0	0	0	0	0	0	0	0	0	0	0	0	0	0	0	0	0	0	0	0	0	0	0	0	0	0	0	0	0	0	0	0	0	0	0	0	0	0	0	0	0	0	0	0	0	0	0
OTU 34	7	4	1	0	1	0	3	2	3	1	9	1	0	0	0	0	1	0	4	1	0	0	5	1	4	2	0	1	1	0	1	2	0	0	1	0	0	1	3	0	1	0	104	1	0	0	0	1	0	0
OTU 35	2	0	0	0	0	0	3	1	8	1	6	0	0	1	2	0	1	0	0	0	0	0	0	1	4	105	0	0	2	0	3	3	1	0	0	0	0	2	0	0	0	0	0	1	0	0	0	1	4	0
OTU 36	1	1	3	0	2	0	0	0	0	0	0	0	3	0	0	0	0	0	1	0	1	1	0	1	1	0	2	0	1	0	0	0	3	1	0	0	0	0	1	1	2	0	63	3	0	0	0	0	4	0
OTU 37	0	1	0	0	0	3	0	0	2	0	0	0	0	0	0	0	1	0	0	0	0	1	0	0	0	2	0	0	0	0	0	4	0	0	0	0	0	0	0	1	0	0	0	0	0	0	11	0	0	1
OTU 38	0	3	2	5	0	4	0	0	11	1	0	0	0	1	0	1	0	0	0	0	0	0	1	0	2	0	0	0	3	0	1	0	6	2	0	0	0	1	1	1	1	0	0	2	0	0	1	0	7	0
OTU 39	0	0	0	2	0	0	0	2	0	0	0	0	1	4	0	0	0	0	0	0	0	0	0	0	1	1	0	0	0	1	0	0	0	0	0	1	0	1	0	0	0	4	0	1	0	0	0	0	0	0
OTU 40	14	2	0	0	45	9	3	0	0	0	1	0	0	46	0	0	0	0	0	5	0	0	0	2	0	0	0	0	0	0	1	0	3	1	0	0	0	0	1	0	0	0	1	4	0	0	0	3	3	0
OTU 41	0	2	0	1	1	0	0	0	0	0	1	0	0	1	1	0	0	0	0	2	0	0	0	0	0	0	2	0	2	0	0	0	1	0	0	0	1	0	3	2	0	1	0	1	0	0	0	0	1	1
OTU 42	0	1	4	0	0	0	0	0	0	0	0	0	0	0	4	0	0	0	0	3	1	0	0	0	0	0	0	0	0	0	0	0	0	0	1	0	0	0	0	1	0	0	0	0	0	0	0	1	2	0
OTU 43	0	0	0	0	0	0	0	0	0	0	0	0	0	0	0	0	0	0	0	0	0	0	0	0	0	0	3	0	0	0	0	0	0	0	0	0	0	0	0	0	0	1	0	0	0	0	0	0	0	0
OTU 44	0	2	0	0	0	6	0	0	0	0	5	0	0	0	3	0	1	1	0	0	0	0	0	0	0	0	0	0	0	0	7	0	0	0	0	0	0	0	0	0	1	0	0	0	1	0	0	2	0	0
OTU 45	25	1	1	0	28	2	1	0	1	0	0	4	20	1	44	1	3	28	5	1	1	0	4	18	0	1	1	16	1	1	17	9	4	0	2	1	0	4	4	0	0	11	0	1	0	0	1	2	0	0
OTU 46	1	9	1	36	2	1	0	5	0	1	3	0	0	1	0	7	0	0	0	0	3	15	0	9	0	4	5	0	0	0	82	0	0	4	1	3	0	2	9	0	0	12	0	0	0	0	7	0	5	0
OTU 47	3	0	0	0	0	0	0	0	0	0	3	2	0	0	0	6	0	0	0	0	0	0	0	0	0	0	6	0	0	0	4	0	5	0	0	0	0	0	0	0	0	0	0	0	0	0	0	0	0	0
OTU 48	0	5	1	63	0	8	79	1	0	1	1	1	0	0	1	4	0	5	1	0	1	1	0	1	1	5	3	0	3	0	3	2	0	1	0	0	1	11	1	1	2	5	1	7	0	1	1	3	0	0
OTU 49	0	0	0	0	0	0	0	0	0	0	0	0	6	58	0	0	0	0	1	0	3	1	2	0	5	0	0	3	4	0	0	0	0	0	0	0	0	2	2	1	0	2	0	0	0	0	4	0	0	3
OTU 50	1	0	4	0	0	1	0	1	0	2	2	0	0	2	4	0	0	1	2	0	2	1	5	0	2	1	1	2	1	0	4	0	0	8	0	0	2	2	1	7	1	2	0	2	0	2	4	2	7	0
OTU 51	0	0	1	1	0	0	0	0	0	1	6	1	0	1	0	5	1	0	0	6	0	3	1	3	3	0	11	0	0	0	3	1	1	0	2	0	0	0	0	0	1	0	0	0	0	0	4	0	0	0
OTU 52	3	5	2	20	2	1	8	1	2	20	15	10	0	0	5	2	1	2	2	3	0	3	0	4	1	6	3	0	10	11	0	11	6	111	3	0	2	28	2	0	1	3	0	4	2	4	1	8	2	4
OTU 53	0	0	0	0	0	0	0	0	0	0	0	0	0	0	0	0	0	0	0	0	0	0	0	0	0	4	2	0	0	0	0	0	0	0	0	0	0	0	0	0	0	0	0	0	0	0	0	0	0	0
OTU 54	9	3	4	2	1	119	4	2	1	0	0	0	33	2	0	5	1	0	7	1	0	3	0	0	4	1	0	28	1	90	22	1	1	0	0	2	0	3	8	0	0	2	0	2	0	0	5	4	1	0
OTU 55	0	0	0	0	0	0	0	0	0	0	0	0	0	0	1	0	0	0	0	0	0	0	0	0	0	0	0	0	0	0	0	0	0	0	0	0	0	0	3	0	0	0	0	0	0	0	0	0	0	0
OTU 56	0	0	0	0	0	0	0	1	0	5	0	5	0	0	3	0	0	1	1	1	0	0	10	0	0	0	1	0	1	0	1	1	2	1	1	0	0	2	0	0	0	0	0	0	0	0	0	0	0	2
OTU 57	3	15	2	1	5	0	0	18	0	1	1	1	4	0	4	14	12	3	0	6	4	2	1	5	3	1	7	0	22	0	5	6	7	6	2	39	35	3	2	12	16	5	9	11	7	9	2	9	4	0
OTU 58	0	0	10	1	0	11	1	1	1	0	2	0	0	0	3	0	0	1	0	0	1	0	0	0	0	0	0	0	1	0	0	2	2	0	0	0	1	0	0	0	5	3	2	0	0	1	11	0	2	0
OTU 59	0	0	1	0	1	0	0	2	1	0	0	0	0	0	5	0	3	0	0	2	0	0	1	0	2	0	0	0	1	3	0	0	0	0	7	5	2	0	2	5	8	3	9	0	5	4	0	0	0	0
OTU 60	0	3	0	2	2	0	0	1	1	0	0	21	3	0	1	0	2	0	0	3	3	9	0	2	3	0	4	0	0	4	0	0	6	1	3	1	0	2	0	0	3	3	3	0	0	1	5	1	1	1
OTU 61	6	1	2	12	0	6	0	3	0	2	0	6	1	3	4	0	9	1	77	3	0	1	0	0	1	5	1	0	17	0	0	1	3	0	1	1	0	19	3	2	4	0	2	2	0	2	6	7	3	1
OTU 62	0	0	1	0	0	0	0	0	5	1	0	0	1	3	0	4	0	0	1	0	0	6	0	1	0	4	1	0	0	0	2	0	0	0	0	1	0	0	2	0	0	0	0	0	0	0	0	1	0	1
OTU 63	0	7	0	0	0	0	0	5	2	0	0	0	0	0	0	0	0	1	1	0	0	0	137	0	0	1	0	0	0	0	1	0	1	5	0	3	0	0	0	0	1	1	0	0	1	0	0	0	11	1
OTU 64	4	0	2	0	1	1	11	1	1	1	0	2	1	10	7	10	0	6	3	0	0	5	7	7	1	0	11	1	3	0	1	0	8	0	2	3	0	3	1	4	0	0	0	0	1	0	18	0	4	9
OTU 65	0	0	1	0	0	0	0	0	0	0	0	0	0	0	0	1	0	0	0	0	0	0	0	0	0	0	6	0	0	0	0	0	0	0	0	0	0	0	0	0	0	0	0	0	0	0	0	0	0	0
OTU 66	0	2	3	0	0	0	0	0	73	2	0	0	0	1	1	0	0	0	0	0	0	0	34	0	1	2	1	2	2	1	0	0	1	0	1	1	0	0	3	4	0	0	0	4	0	0	0	0	0	0
OTU 67	0	0	6	0	0	0	0	1	2	0	0	0	0	1	0	3	0	0	0	0	2	0	0	1	1	0	5	0	0	0	1	0	0	3	0	0	0	0	2	1	0	2	0	2	0	0	2	2	3	0
OTU 68	0	0	7	0	1	0	6	0	0	0	0	0	0	0	0	0	18	2	0	3	0	1	0	0	0	0	0	0	0	7	0	0	0	0	11	3	16	0	0	18	33	1	7	0	6	18	0	0	6	1
OTU 69	0	1	3	18	1	0	0	1	2	9	5	9	0	2	1	1	0	0	0	10	0	1	0	4	1	1	0	0	2	0	0	5	0	0	3	0	0	22	0	0	2	1	1	3	3	0	1	2	7	1
OTU 70	0	1	0	0	4	0	1	16	1	10	1	7	0	0	6	0	2	5	0	0	0	9	0	1	0	2	5	1	8	1	0	2	3	0	0	4	0	7	1	1	0	0	1	0	0	0	0	0	0	2
OTU 71	0	2	0	0	41	1	4	0	4	1	0	1	3	1	0	0	1	0	4	4	1	0	0	4	0	0	0	1	0	1	1	1	2	0	0	0	0	4	0	0	0	3	0	0	0	0	0	1	0	0
OTU 72	7	2	2	0	1	0	0	0	1	0	0	0	3	2	2	0	0	2	0	0	1	2	2	0	1	0	4	1	0	0	0	0	6	0	4	2	2	1	0	0	1	1	1	0	0	0	0	3	0	2
OTU 73	1	2	1	1	0	1	0	18	0	0	0	0	0	0	0	0	0	0	0	1	0	0	0	0	3	5	0	0	0	0	0	4	0	1	0	4	0	2	1	0	0	0	0	0	0	0	1	0	0	0
OTU 74	0	2	0	0	2	6	0	0	0	0	0	0	9	3	0	2	1	0	0	5	4	1	1	0	7	4	0	3	0	1	2	0	3	0	1	0	1	0	2	0	0	1	2	1	3	7	3	5	0	0
OTU 75	0	0	0	0	1	3	0	8	0	1	2	0	1	4	2	0	8	0	0	0	15	35	1	1	1	4	1	0	18	5	1	7	2	2	3	3	3	0	0	5	17	0	5	0	1	15	0	0	3	0
OTU 76	0	2	0	0	0	0	0	0	0	0	1	0	0	0	1	0	0	0	0	8	0	1	0	0	0	0	0	0	0	0	0	0	0	0	0	1	0	1	0	0	0	0	0	7	0	0	0	0	0	0
OTU 77	3	0	10	0	0	0	49	3	0	0	2	0	0	0	1	0	6	0	0	0	2	1	5	0	1	0	0	0	8	2	1	4	0	2	2	1	0	0	1	3	0	81	4	2	0	0	0	0	5	0
OTU 78	3	7	3	1	15	0	6	3	0	1	9	0	4	3	4	9	0	0	0	7	3	1	0	8	0	5	10	4	14	0	2	3	3	2	0	1	0	7	3	3	0	2	1	2	1	2	11	13	0	0
OTU 79	2	5	0	6	3	5	2	4	0	0	4	4	2	0	8	2	4	2	7	3	2	5	4	14	3	4	7	0	2	46	0	7	2	8	90	0	161	2	17	82	2	2	5	4	0	2	0	14	12	5
OTU 80	3	2	0	2	0	0	0	0	2	0	3	0	104	1	0	5	0	0	2	0	1	1	6	0	4	0	0	56	2	2	43	1	2	0	4	0	0	1	1	0	0	1	1	7	2	1	1	0	0	2
OTU 81	4	0	1	1	1	2	2	0	2	2	11	1	2	0	2	5	0	2	4	2	0	0	4	0	0	0	0	1	2	13	22	19	0	5	1	0	0	4	32	0	1	0	0	0	2	1	2	1	8	1
OTU 82	0	0	8	1	0	0	0	1	0	108	8	10	0	0	2	5	0	2	0	1	0	0	1	1	0	1	11	0	0	0	2	0	4	13	0	5	0	7	1	0	0	0	0	0	0	0	1	0	1	3
OTU 83	0	0	2	0	0	0	2	0	0	0	0	0	0	0	0	0	0	0	0	0	0	6	0	0	0	0	0	0	0	0	1	0	7	0	0	0	0	0	0	0	0	0	0	0	0	2	0	1	1	0
OTU 84	0	0	2	7	0	0	0	0	1	2	0	1	3	0	3	0	0	2	1	0	0	1	0	9	1	0	1	1	5	0	11	0	1	0	1	2	0	5	0	1	0	3	0	1	0	1	2	0	5	0
OTU 85	0	2	0	0	0	1	1	0	0	0	0	0	1	0	0	0	0	0	0	1	0	0	0	0	1	0	0	0	0	0	0	0	1	0	0	0	0	0	0	0	4	0	0	0	0	0	0	0	0	7
OTU 86	0	0	0	0	0	0	0	0	0	0	0	0	0	0	0	0	0	0	0	0	0	0	0	0	0	4	0	0	0	0	0	0	0	0	0	0	0	0	0	0	0	3	0	0	0	0	0	0	0	0
OTU 87	2	0	0	2	0	0	0	0	0	0	0	0	0	0	1	0	0	0	0	0	0	0	0	0	0	0	0	0	0	0	2	0	1	4	0	0	0	0	0	1	1	0	0	0	0	0	0	0	0	3
OTU 88	0	0	0	1	0	0	0	0	0	0	1	0	0	0	0	0	0	0	1	0	0	0	0	0	0	0	4	0	4	0	0	0	0	0	0	0	0	0	0	0	0	0	0	0	0	0	2	1	0	0
OTU 89	32	0	2	0	1	1	0	0	0	0	0	0	0	0	1	0	3	0	21	0	0	0	0	0	3	0	1	2	0	0	0	11	0	0	0	0	1	0	24	1	0	1	0	0	1	1	0	0	1	0
OTU 90	0	0	0	2	2	0	2	0	0	0	0	0	0	0	0	0	0	0	0	0	0	0	1	0	0	0	0	0	1	0	0	0	0	0	0	0	0	0	0	0	0	0	0	0	0	0	0	0	0	0
OTU 91	0	0	0	0	0	0	0	0	0	0	0	0	0	0	0	0	0	0	0	0	0	0	0	0	0	0	0	0	0	0	0	0	0	0	0	0	0	0	0	0	0	0	0	0	0	0	0	0	1	2
OTU 92	0	0	0	0	0	0	1	0	0	0	0	0	8	0	0	0	1	0	0	0	1	0	0	3	0	4	0	4	0	0	0	0	0	0	0	0	0	0	0	0	4	0	0	0	1	0	1	0	0	1
OTU 93	0	0	0	0	0	0	0	2	0	0	0	0	0	0	0	0	0	0	0	1	0	0	0	0	0	0	0	0	1	0	0	0	0	0	0	5	0	0	0	0	0	0	0	0	0	0	0	0	0	0
OTU 94	0	2	2	5	0	9	4	2	3	1	2	2	3	4	3	8	0	2	0	5	11	3	0	0	1	0	1	1	2	0	0	8	1	0	0	2	3	1	1	0	6	1	7	2	0	5	2	1	3	0
OTU 95	1	1	0	0	5	0	1	59	0	0	0	0	0	0	0	0	0	0	0	0	0	0	1	0	0	0	0	0	1	1	0	0	1	3	0	33	0	0	0	0	0	0	0	0	0	0	0	0	0	0
OTU 96	0	0	0	0	0	0	0	0	0	0	0	0	0	1	0	0	0	0	0	0	0	0	0	0	0	0	0	0	0	0	0	0	3	0	0	0	0	0	0	1	0	0	2	0	0	1	0	0	0	0
OTU 97	0	0	0	0	0	0	0	0	0	0	0	0	0	0	0	0	0	0	0	0	0	0	0	0	0	0	0	0	0	0	0	0	0	0	0	0	0	0	0	0	0	0	0	0	0	0	0	0	0	0
OTU 98	3	0	1	1	0	0	2	0	5	0	1	0	0	0	0	0	0	0	0	0	0	0	0	0	0	0	0	0	0	0	1	11	1	0	0	0	0	0	0	0	1	0	0	0	0	0	0	0	0	0
OTU 99	1	2	2	2	1	2	0	1	0	1	0	0	10	0	4	0	4	2	2	3	0	1	3	0	4	0	1	2	2	0	0	12	4	2	0	0	1	1	42	0	7	0	0	2	2	0	2	2	4	1
OTU 100	1	1	3	0	0	6	2	8	0	0	0	0	1	0	0	0	0	0	1	5	0	1	0	0	1	2	3	0	5	0	0	1	1	0	7	1	0	0	1	0	0	0	0	0	172	1	4	1	3	4
OTU 101	0	0	0	0	0	0	0	0	0	0	0	0	0	0	0	0	0	0	0	0	0	0	0	0	0	0	0	0	0	0	0	0	0	0	0	0	0	0	1	0	0	0	0	0	0	0	0	0	0	1
OTU 102	0	0	1	0	0	2	0	2	0	1	0	0	0	0	0	0	0	0	1	0	0	0	0	0	0	1	0	1	0	0	4	1	0	0	0	0	0	0	0	0	0	0	1	0	0	0	1	4	0	0
OTU 103	0	0	2	0	0	0	0	1	0	3	0	3	1	0	3	0	0	1	1	0	0	0	0	0	0	0	0	3	2	0	1	8	0	1	0	1	0	7	0	0	0	1	0	0	0	0	0	0	3	2
OTU 104	0	6	0	0	0	1	6	9	2	2	4	101	2	4	2	0	1	6	0	0	0	0	1	8	10	5	0	0	1	0	0	1	2	0	0	4	0	2	0	3	1	6	0	1	0	1	19	4	1	1
OTU 105	0	0	6	0	0	0	0	0	0	0	11	0	0	0	0	0	0	0	7	0	1	0	1	0	0	7	0	0	0	0	0	3	0	0	0	0	0	0	0	1	3	0	0	2	0	0	0	0	0	0
OTU 106	0	0	1	0	1	0	0	0	0	0	0	0	0	0	0	0	0	0	0	1	0	0	0	0	0	0	0	0	0	0	0	3	7	0	0	0	0	0	0	0	0	0	0	0	0	1	0	0	1	0
OTU 107	0	0	10	0	0	0	1	2	11	0	0	2	0	0	0	0	0	0	0	13	0	5	2	1	1	1	0	0	0	0	1	2	0	0	0	0	0	1	0	0	3	0	0	14	1	0	0	0	0	0
OTU 108	1	11	1	3	0	1	2	0	0	1	0	1	0	4	0	4	0	0	0	0	0	0	0	2	1	7	1	0	0	0	0	0	5	0	0	0	15	4	4	0	0	0	24	2	0	46	0	0	0	0
OTU 109	0	0	0	0	0	0	0	0	0	0	0	0	0	0	0	0	0	0	0	0	0	0	0	0	0	0	0	0	0	0	0	0	0	0	0	0	0	0	2	0	0	0	0	0	0	0	0	0	0	0
OTU 110	2	0	2	4	2	1	0	1	0	0	0	0	5	0	0	2	1	2	3	1	9	4	0	2	1	0	0	1	1	0	0	0	0	0	0	3	0	0	0	0	3	3	5	0	1	3	0	6	2	0
OTU 111	0	0	1	0	0	0	0	0	0	0	1	0	0	0	0	0	0	0	0	0	0	0	0	0	0	0	0	69	0	0	0	0	0	0	0	0	0	2	0	0	0	2	0	1	0	0	0	0	0	0
OTU 112	3	1	1	0	0	0	0	8	0	79	0	3	0	0	0	0	0	2	0	0	0	0	0	0	0	0	4	0	3	0	0	1	0	6	0	1	0	0	0	1	0	0	0	0	0	0	0	0	7	0
OTU 113	0	0	0	5	0	0	1	0	0	0	0	0	0	0	0	0	0	0	0	0	7	0	0	0	0	0	0	0	0	0	1	0	2	0	0	0	0	0	0	0	0	0	0	0	0	0	0	0	0	0
OTU 114	1	0	5	3	0	2	0	6	42	5	2	3	0	0	1	3	9	0	3	0	0	12	23	0	5	7	3	0	3	2	0	0	0	2	3	1	2	1	0	0	1	1	1	0	3	6	2	5	2	0
OTU 115	11	11	3	2	0	2	2	3	0	2	7	3	0	0	1	2	4	0	0	1	2	0	3	0	0	4	0	9	2	69	0	3	7	11	0	2	1	2	4	4	3	0	1	1	1	2	9	4	4	4
OTU 116	2	2	0	1	2	0	9	3	0	7	0	3	4	0	0	0	4	0	83	0	0	0	0	1	6	0	3	1	0	38	4	5	10	2	1	0	0	5	0	1	0	0	0	7	1	0	0	1	1	6
OTU 117	0	1	2	6	0	9	0	0	0	0	0	1	1	0	5	1	3	5	1	4	0	0	1	0	0	0	5	1	0	0	1	1	0	1	0	0	1	3	0	0	0	4	0	0	0	0	1	2	0	0
OTU 118	0	0	0	0	1	0	0	0	0	2	0	2	0	1	0	0	0	0	0	0	0	0	0	0	0	0	4	0	0	0	0	0	2	0	0	0	0	8	0	0	0	2	0	5	0	0	1	0	0	0
OTU 119	4	1	0	2	1	0	0	3	1	1	0	1	1	0	0	0	2	1	2	4	0	0	0	3	11	1	1	19	0	0	2	6	0	1	0	0	1	1	0	0	1	0	0	0	1	2	2	4	1	4
OTU 120	5	1	0	0	0	2	0	0	0	0	0	0	2	0	0	0	0	0	0	0	0	0	4	0	3	0	3	0	0	3	7	0	6	0	2	2	4	0	0	7	0	0	0	0	0	1	0	0	0	1
OTU 121	56	0	5	3	0	2	1	0	3	1	10	2	0	6	2	3	1	1	2	0	0	0	0	5	0	0	5	0	0	0	0	0	4	0	0	0	0	3	33	0	0	3	0	0	0	0	0	0	0	6
OTU 122	0	0	5	0	0	1	2	0	5	3	5	2	0	1	3	1	3	2	0	7	3	5	3	0	1	1	0	2	1	0	1	0	1	0	0	1	0	10	2	0	0	0	0	0	2	0	4	0	1	1
OTU 123	6	56	23	17	67	1	4	2	16	6	4	4	5	3	8	11	1	3	5	78	7	3	11	1	3	20	19	0	35	2	5	1	70	6	1	85	3	16	7	0	6	6	1	85	0	2	7	27	11	11
OTU 124	0	3	0	2	1	0	0	0	0	0	0	0	0	0	3	0	1	3	0	0	0	0	0	0	0	0	0	0	0	0	0	0	4	0	0	0	0	0	0	0	1	0	0	0	0	0	4	0	5	0
OTU 125	19	11	5	2	0	2	13	5	1	6	12	2	9	16	33	5	3	9	7	8	8	4	1	3	14	2	7	5	0	0	1	29	6	2	2	1	0	4	10	147	1	2	1	0	1	3	3	6	11	2
OTU 126	0	4	0	0	0	0	1	8	0	0	0	0	0	0	6	4	1	4	0	0	2	13	0	8	0	1	2	0	0	1	2	0	0	0	0	4	0	0	0	1	2	1	0	0	0	0	0	0	0	0
OTU 127	1	0	1	1	0	1	4	2	1	0	1	16	0	0	1	0	0	0	0	1	0	0	0	2	15	3	2	1	0	3	9	25	0	1	0	0	0	0	0	0	0	0	0	0	0	1	0	0	1	18
OTU 128	0	30	5	2	1	2	3	4	1	0	17	3	2	6	4	6	3	1	2	1	7	42	5	0	7	9	19	92	3	5	3	4	16	2	4	7	8	3	5	3	10	2	3	7	8	5	0	2	0	5
OTU 129	0	0	1	0	0	0	0	21	0	0	0	0	0	62	0	0	0	0	2	2	0	0	1	0	5	0	0	0	0	0	0	0	0	0	0	16	0	0	0	0	0	0	0	0	0	0	0	0	0	0
OTU 130	3	0	2	3	1	0	0	1	0	1	0	2	0	3	4	9	0	1	1	0	39	48	0	0	0	1	0	0	0	0	0	0	0	2	0	2	0	1	2	1	0	0	0	0	0	0	10	2	1	1
OTU 131	0	2	2	0	0	6	0	0	0	0	1	37	2	1	0	0	1	0	0	0	0	1	0	0	71	0	0	3	0	0	1	1	1	1	1	0	0	1	1	0	1	0	0	0	2	0	15	11	5	0
OTU 132	1	4	0	2	2	0	0	0	0	0	0	1	0	0	3	0	1	0	0	0	1	1	0	2	0	5	0	1	1	0	2	0	0	0	1	1	1	2	1	1	5	0	2	0	0	0	3	1	3	0
OTU 133	1	1	0	0	0	5	0	0	0	0	0	0	0	0	3	0	0	0	0	0	0	0	0	0	1	0	0	0	0	0	0	0	0	0	0	0	0	1	1	0	0	0	0	1	0	0	1	0	0	0
OTU 134	0	2	0	0	0	2	0	0	1	8	1	0	0	4	0	4	11	0	0	3	0	0	0	1	2	0	1	0	0	0	0	0	0	0	0	0	0	3	1	0	1	0	1	0	0	0	1	0	0	4
OTU 135	1	1	2	1	1	0	1	1	0	0	0	0	1	2	0	1	0	0	0	1	0	1	0	1	0	2	0	0	0	0	0	0	0	0	3	0	0	2	3	1	1	0	0	3	0	0	2	4	0	6
OTU 136	0	1	0	0	5	0	0	0	0	0	0	1	0	0	0	0	179	0	0	1	1	2	0	0	7	6	2	1	1	0	0	4	0	1	0	0	0	0	0	0	0	0	0	0	94	0	0	0	0	0
OTU 137	1	0	0	0	0	2	6	0	0	0	0	0	21	1	2	3	0	1	0	0	0	0	4	0	1	0	3	4	0	2	2	10	1	0	0	0	0	0	2	0	0	0	0	0	2	0	0	2	0	5
OTU 138	1	0	1	0	0	0	0	1	0	0	0	0	1	0	0	0	1	0	0	0	1	0	0	0	0	0	0	0	0	0	0	1	0	0	0	0	0	0	0	0	6	0	0	0	1	1	1	1	0	0
OTU 139	10	1	27	6	17	29	0	6	18	3	2	5	8	0	46	4	1	10	47	18	0	1	10	26	5	0	12	1	6	1	7	3	2	15	6	6	4	3	10	1	7	61	0	53	0	1	6	2	13	0
OTU 140	1	2	7	4	7	0	2	0	0	2	3	1	2	0	6	0	0	4	3	1	2	3	4	6	7	3	3	2	1	0	1	3	5	0	1	2	3	3	1	4	3	7	0	0	3	0	5	0	5	3
OTU 141	0	0	0	0	0	0	0	0	0	0	0	0	0	0	0	0	0	1	0	0	0	0	0	0	0	0	0	0	0	0	0	0	0	0	0	0	0	0	0	0	0	0	1	0	0	0	0	0	0	0
OTU 142	0	0	1	0	0	0	0	0	0	0	0	0	0	0	0	0	0	0	0	0	0	0	0	0	5	0	0	0	0	0	0	0	0	2	0	0	0	0	0	0	0	0	0	0	0	0	0	0	0	0
OTU 143	0	0	0	0	0	0	0	0	0	0	0	1	0	1	0	0	0	0	0	0	0	0	0	0	0	0	0	0	0	0	0	2	0	0	1	0	0	2	0	0	3	0	1	0	0	5	1	2	1	5
OTU 144	3	0	0	1	0	0	0	0	0	0	1	0	0	0	0	0	1	0	2	1	0	0	0	0	0	0	1	0	1	34	0	5	0	1	0	0	0	0	0	0	0	0	0	0	0	2	0	0	2	0
OTU 145	4	1	0	0	0	19	0	1	6	0	0	1	1	0	0	0	2	0	0	0	0	4	1	1	0	1	0	1	1	0	1	4	0	2	0	0	0	1	1	0	1	0	0	0	4	1	1	2	2	5
OTU 146	0	1	3	3	0	0	0	0	1	0	0	2	0	1	1	0	1	7	1	0	0	7	0	0	3	0	1	0	3	1	0	0	0	3	0	0	0	1	3	1	0	0	0	0	2	0	16	0	3	0
OTU 147	0	3	0	0	1	2	0	3	0	0	4	0	0	0	1	0	0	0	0	0	0	0	2	0	0	0	1	0	0	2	0	0	3	1	0	0	0	0	2	0	5	0	0	0	0	1	0	0	1	0
OTU 148	0	2	2	1	1	5	2	0	6	2	0	0	0	0	8	1	0	15	2	1	7	1	0	1	0	1	1	0	0	2	0	0	1	2	0	0	0	11	0	2	2	0	0	0	0	1	9	13	3	0
OTU 149	0	1	0	0	1	1	0	0	0	0	0	0	0	1	0	0	0	0	0	0	0	0	0	0	3	2	0	0	43	0	2	0	0	0	4	2	0	0	0	0	0	0	0	1	0	0	0	0	1	2
OTU 150	2	0	0	2	0	1	11	0	2	0	0	1	1	0	0	0	0	0	0	1	0	0	0	0	0	0	0	0	0	0	0	0	0	0	0	0	0	2	0	0	0	0	0	0	0	0	1	0	0	0
OTU 151	0	0	0	0	2	0	0	0	3	0	1	2	0	0	0	0	1	0	0	0	3	0	0	0	0	1	0	0	1	0	0	0	15	0	0	0	0	0	0	1	0	1	0	1	0	0	0	0	0	0
OTU 152	10	0	5	0	3	2	2	8	6	2	1	0	3	0	6	2	1	0	2	2	1	2	0	7	0	3	10	0	0	0	5	0	0	2	0	1	0	0	1	0	6	0	1	1	1	0	0	0	4	0
OTU 153	0	0	0	0	0	0	0	0	0	2	1	0	0	0	0	0	0	0	0	0	0	0	0	0	0	0	0	0	0	0	0	0	0	0	0	0	0	0	0	0	0	0	0	0	2	1	0	0	0	0
OTU 154	0	0	0	27	2	0	0	0	0	0	0	0	0	0	0	0	0	0	3	0	0	0	0	0	0	0	0	0	0	0	0	0	1	3	0	0	0	0	0	0	0	0	0	0	0	0	0	0	4	0
OTU 155	0	3	10	3	0	0	4	0	0	10	4	3	0	0	0	0	0	0	0	0	0	0	0	1	2	0	0	0	0	0	2	0	0	0	0	0	0	8	1	1	0	3	0	0	0	0	0	0	0	0
OTU 156	3	0	0	0	0	1	0	4	4	4	9	3	1	3	0	0	0	1	0	6	1	1	4	2	3	2	0	0	0	2	1	3	9	1	3	1	0	2	0	0	0	2	0	1	1	0	4	4	7	5
OTU 157	0	0	0	0	0	3	0	0	1	0	2	0	3	0	2	0	0	1	0	0	0	0	0	2	1	0	0	1	0	0	1	0	0	8	1	0	0	0	1	0	0	0	0	0	0	0	0	4	7	0
OTU 158	0	0	0	0	0	0	0	0	0	0	1	0	0	0	0	0	0	0	0	0	0	0	0	0	0	0	0	0	0	0	0	0	0	0	0	0	0	0	0	0	0	0	0	0	0	0	0	0	0	0
OTU 159	0	1	0	0	0	0	2	2	0	0	0	1	1	0	0	31	0	0	0	5	0	5	4	0	1	0	0	2	0	1	5	0	10	0	0	0	0	0	0	0	1	0	0	1	0	0	0	0	0	1
OTU 160	7	14	0	13	3	3	5	1	4	1	7	5	9	0	0	8	0	1	0	0	3	5	4	8	10	3	5	3	3	2	4	16	8	3	1	0	15	7	9	2	2	5	1	2	0	1	9	3	1	6
OTU 161	2	0	0	0	0	0	0	1	0	0	0	2	1	0	0	8	3	0	0	6	96	0	0	0	4	0	0	0	3	2	0	4	1	2	0	1	0	3	1	0	3	2	1	1	0	1	0	0	2	1
OTU 162	2	3	3	1	1	1	0	4	0	0	1	1	8	0	1	1	2	0	2	0	0	0	0	2	1	0	1	1	9	0	2	0	3	0	0	3	4	0	2	2	8	8	2	2	5	5	0	1	0	1
OTU 163	0	0	0	0	0	0	0	0	0	0	0	0	0	0	0	0	0	0	0	0	0	1	0	0	0	0	0	0	0	0	0	0	0	5	0	0	0	0	0	0	0	0	0	0	0	0	0	0	0	0
OTU 164	0	0	0	0	0	0	0	0	0	0	0	0	0	0	0	0	0	0	0	0	0	0	0	0	0	0	0	0	0	0	1	0	0	0	0	0	1	0	0	0	0	0	0	0	2	0	0	0	0	0
OTU 165	0	0	0	0	1	3	1	0	0	0	0	1	5	1	0	0	0	0	1	1	0	3	0	0	0	2	0	2	1	0	0	0	1	2	0	0	0	0	0	1	0	0	0	6	0	0	2	2	6	1
OTU 166	0	0	0	0	0	0	0	0	0	0	0	0	0	0	0	0	0	0	0	0	0	0	0	0	0	0	0	0	0	0	0	0	0	0	0	0	0	0	0	0	0	0	0	0	0	0	0	0	0	0
OTU 167	2	0	1	1	0	0	0	4	0	3	0	2	0	0	0	1	2	0	0	3	0	0	0	0	0	0	0	0	12	0	4	0	0	2	4	2	0	3	0	0	3	0	0	2	4	0	0	0	0	0
OTU 168	1	0	0	0	0	4	10	0	0	2	0	1	0	0	3	80	0	3	0	0	1	1	0	1	6	0	2	0	0	0	4	0	0	1	0	0	0	4	3	1	0	0	0	3	1	0	0	0	0	0
OTU 169	0	2	0	0	0	0	0	0	0	0	0	0	0	0	0	0	0	0	0	0	0	0	2	0	0	0	0	0	2	0	0	0	1	0	3	0	0	0	0	0	0	0	0	0	0	0	0	0	0	0
OTU 170	0	0	0	0	0	0	0	0	0	0	0	0	0	0	0	0	2	0	0	0	0	0	0	0	0	0	0	0	0	0	0	0	0	0	0	0	0	0	0	0	0	0	1	0	0	0	3	0	0	0
OTU 171	1	0	1	0	0	0	3	3	7	2	0	4	2	1	1	1	1	2	0	10	0	1	1	0	1	0	1	1	0	0	0	5	1	0	133	0	0	12	0	0	0	0	1	0	1	0	4	0	1	1
OTU 172	0	1	0	0	0	0	0	0	0	0	0	0	0	0	0	0	0	0	0	3	0	1	0	0	0	0	0	0	0	0	0	0	3	0	0	0	0	0	0	0	0	0	1	0	0	0	0	0	0	1
OTU 173	0	3	3	0	0	0	0	2	0	1	1	1	2	0	0	0	0	0	0	0	2	1	0	0	0	1	0	1	1	0	0	4	0	0	0	1	0	3	0	0	0	3	0	0	0	0	0	0	0	0
OTU 174	11	0	0	0	2	0	54	0	0	1	0	0	10	1	15	0	0	8	0	2	0	0	0	5	2	0	0	6	1	1	2	0	0	0	1	0	2	1	0	6	0	0	0	1	0	1	2	2	0	0
OTU 175	0	0	3	3	1	0	0	0	0	0	0	0	0	0	0	0	0	0	0	0	0	0	0	0	0	0	0	0	2	0	18	0	0	0	0	1	0	0	0	0	0	0	0	0	0	0	0	1	0	0
OTU 176	0	1	0	0	0	0	1	0	0	4	1	2	1	3	0	1	1	0	3	0	9	17	2	2	0	0	1	0	4	0	5	1	0	1	1	1	0	5	4	0	0	0	4	2	1	4	3	3	10	13
OTU 177	0	0	1	7	2	5	0	1	9	0	1	0	7	0	0	1	4	0	1	2	0	0	0	3	0	0	3	3	0	0	0	2	1	2	1	0	3	1	0	4	5	0	0	2	1	3	7	1	2	1
OTU 178	0	0	0	0	0	0	0	0	0	0	0	0	0	0	0	0	0	0	1	1	0	0	7	0	0	0	1	0	0	0	0	0	0	2	0	0	0	0	0	0	0	0	0	0	0	0	0	0	5	0
OTU 179	1	0	0	0	0	0	0	8	0	0	0	0	0	0	1	3	2	0	2	0	0	0	0	0	1	0	0	0	0	0	0	0	11	2	0	5	0	0	0	0	0	0	2	0	0	0	0	0	1	0
OTU 180	9	3	4	3	5	1	6	5	2	1	54	1	2	1	4	29	1	5	1	0	0	3	5	0	14	13	62	0	8	1	5	6	1	7	0	51	16	1	1	0	7	7	18	1	3	48	7	4	10	6
OTU 181	0	1	0	2	0	4	0	0	1	0	0	1	0	0	3	0	0	1	0	0	1	0	0	0	0	2	0	0	0	1	1	0	0	2	0	0	1	0	0	0	0	0	0	0	0	0	0	1	7	0
OTU 182	0	0	0	0	0	0	0	1	0	0	0	0	0	0	0	0	0	0	1	0	0	0	0	0	0	0	0	0	0	0	0	0	0	0	0	2	0	1	0	0	0	0	0	0	0	0	0	3	0	0
OTU 183	1	0	1	1	2	0	1	1	0	0	0	1	0	0	1	0	0	0	4	3	1	5	0	1	1	1	1	0	2	0	0	0	3	0	1	3	0	2	0	0	5	1	0	1	0	1	0	2	0	0
OTU 184	1	1	0	0	0	9	0	2	0	0	0	0	0	0	0	0	0	0	8	0	1	2	0	0	0	0	1	0	0	0	0	1	0	0	0	0	0	0	1	0	1	3	0	0	0	0	1	4	1	2
OTU 185	0	1	1	2	0	0	4	0	0	0	1	1	0	0	1	0	0	0	7	2	6	0	0	0	1	0	0	0	0	0	1	0	1	0	0	1	2	1	2	1	2	3	1	1	1	1	3	9	3	0
OTU 186	0	0	0	1	3	0	0	2	0	0	3	0	3	0	0	0	3	2	0	0	0	5	0	0	0	0	0	0	0	0	1	0	0	0	1	0	0	1	0	0	0	0	0	0	0	0	1	0	0	0
OTU 187	6	1	3	5	3	13	2	4	6	0	2	0	0	1	0	2	0	2	1	2	3	5	0	0	2	3	4	1	1	1	0	4	10	2	1	0	0	1	1	0	3	0	1	1	1	1	10	2	6	0
OTU 188	1	4	56	2	0	0	0	1	31	3	4	0	2	1	5	0	1	2	2	25	0	1	28	3	1	0	2	4	3	0	0	0	0	9	1	1	2	5	1	0	0	4	0	51	0	0	9	0	5	6
OTU 189	5	5	4	1	1	5	0	3	21	0	4	0	0	0	0	1	1	1	2	0	0	22	1	7	1	4	18	0	0	1	2	9	0	0	1	0	0	4	0	0	0	0	0	5	1	0	0	11	5	7
OTU 190	0	0	0	0	0	4	0	0	0	2	0	0	0	0	0	0	0	0	0	0	0	0	0	0	6	0	0	0	0	0	0	0	0	0	0	0	0	0	0	0	0	0	0	0	0	0	0	0	0	0
OTU 191	3	1	0	0	2	0	1	0	0	15	1	1	0	1	4	0	1	0	0	0	0	0	0	2	0	0	14	0	3	0	0	5	1	0	0	0	1	5	1	0	1	6	1	2	0	0	6	3	0	2
OTU 192	5	1	3	0	0	5	1	18	5	2	3	1	8	20	4	1	0	1	1	3	0	0	2	0	0	6	3	3	1	0	1	1	3	2	0	8	1	1	7	1	0	2	1	2	1	0	6	2	5	1
OTU 193	1	2	0	1	0	0	1	0	2	1	2	3	0	6	2	0	1	0	0	1	0	1	0	0	8	0	0	0	3	3	0	0	0	0	0	0	2	5	6	0	8	0	0	0	0	2	0	1	6	0
OTU 194	2	8	0	1	1	0	0	3	0	0	0	0	0	13	2	9	0	0	0	0	0	0	2	0	0	5	0	0	0	3	0	0	0	0	2	3	2	0	0	0	5	1	1	0	0	2	0	1	0	0
OTU 195	0	0	0	1	1	1	8	0	0	2	7	0	0	0	2	0	0	3	0	1	0	1	0	0	0	1	3	0	25	0	0	3	1	0	0	0	0	0	0	0	1	1	0	0	0	0	0	0	2	0
OTU 196	0	4	0	5	0	2	0	0	1	0	0	0	0	1	0	0	1	0	0	15	0	0	1	0	0	2	0	0	1	0	0	3	0	42	2	0	2	0	2	5	25	2	18	0	9	7	2	0	0	2
OTU 197	6	3	8	1	0	1	0	0	4	1	51	1	0	0	3	1	1	0	4	0	0	0	4	1	1	7	4	0	2	3	1	6	0	0	25	0	0	12	1	0	0	0	0	0	1	0	0	2	10	1
OTU 198	0	0	6	0	0	0	0	0	2	0	0	0	0	0	0	1	0	0	0	0	11	0	0	0	0	0	0	0	0	1	0	0	0	0	0	0	0	0	1	0	0	0	0	0	0	0	0	2	0	0
OTU 199	0	0	3	0	0	0	0	0	0	1	0	0	0	0	0	2	0	0	0	0	0	0	0	0	0	0	0	0	0	1	0	0	1	0	0	0	0	2	0	0	0	0	0	1	0	0	0	0	0	0
OTU 200	1	2	1	0	0	2	0	2	0	0	0	7	1	1	8	1	1	5	1	0	2	1	0	1	1	1	0	0	1	0	0	3	0	0	1	0	0	7	0	0	5	3	1	0	2	1	0	0	3	0
