	Host 1	Host 2	Host 3	Host 4	Host 5	Host 6	Host 7	Host 8	Host 9	Host 10	Host 11	Host 12	Host 13	Host 14	Host 15	Host 16	Host 17	Host 18	Host 19	Host 20	Host 21	Host 22	Host 23	Host 24	Host 25	Host 26	Host 27	Host 28	Host 29	Host 30	Host 31	Host 32	Host 33	Host 34	Host 35	Host 36	Host 37	Host 38	Host 39	Host 40	Host 41	Host 42	Host 43	Host 44	Host 45	Host 46	Host 47	Host 48	Host 49	Host 50	
OTU 1	0	1	4	0	1	0	0	0	2	2	0	1	0	3	3	6	0	2	2	5	0	0	1	0	0	0	6	3	11	6	2	0	0	2	0	1	0	1	0	4	1	1	0	0	0	0	0	0	4	0
OTU 2	7	0	2	5	0	0	0	0	0	1	0	3	0	0	0	0	3	0	0	0	0	0	0	35	1	4	4	0	0	0	0	1	5	0	2	1	0	0	0	0	33	3	0	2	10	1	0	0	18	1
OTU 3	0	2	0	0	0	3	0	0	1	0	1	2	0	0	0	0	0	0	0	0	0	0	0	3	0	0	0	0	1	0	0	0	0	0	5	0	0	0	0	0	0	0	0	0	0	0	0	0	0	0
OTU 4	0	0	0	0	0	0	0	0	1	0	0	0	0	0	0	0	0	0	0	0	0	0	0	0	0	0	0	0	0	0	0	0	0	0	0	0	0	0	0	0	0	0	0	0	0	0	0	0	0	0
OTU 5	18	42	0	3	0	27	19	6	19	17	26	10	62	76	22	17	32	4	12	33	0	6	14	6	0	5	4	3	27	6	21	4	1	9	9	0	0	1	12	29	0	4	19	0	0	33	18	4	10	2
OTU 6	1	8	0	1	0	1	0	3	5	0	1	0	3	0	1	0	1	0	0	1	0	2	3	0	2	2	2	0	8	6	0	1	2	0	1	0	0	0	1	1	36	1	31	0	0	6	1	0	22	0
OTU 7	7	0	2	5	2	1	5	7	0	6	2	1	7	1	0	1	24	10	4	0	1	0	2	3	4	3	2	1	2	1	0	2	10	3	37	6	57	2	0	1	1	23	4	6	3	0	4	0	0	13
OTU 8	1	1	0	0	0	3	0	0	0	0	1	2	4	0	0	0	1	0	0	1	0	2	0	6	2	0	0	0	1	0	0	2	6	6	89	4	8	0	99	0	0	2	1	2	0	1	2	4	0	3
OTU 9	0	0	1	1	0	0	0	0	0	2	0	0	0	0	0	0	0	0	0	0	4	0	0	1	0	0	0	0	4	0	0	0	0	0	1	0	1	0	0	0	0	0	1	0	1	4	0	3	0	0
OTU 10	0	1	0	0	0	1	0	0	1	1	0	0	0	0	0	0	1	0	2	0	0	0	0	1	13	2	0	1	0	0	0	0	0	1	29	4	0	0	0	0	0	14	0	0	0	0	0	0	0	7
OTU 11	1	0	0	0	0	0	0	4	2	1	0	0	2	0	2	2	1	1	0	0	2	3	1	2	1	0	0	0	0	0	1	0	0	0	0	2	4	2	0	0	0	1	0	2	13	3	0	0	0	0
OTU 12	0	2	0	0	0	1	1	6	1	0	1	0	1	1	1	0	3	1	0	1	4	1	0	0	0	0	0	3	4	0	0	0	2	0	1	0	1	0	2	0	0	0	4	0	0	5	1	1	0	0
OTU 13	0	0	0	0	0	2	0	0	0	0	0	0	0	0	0	0	0	0	0	0	0	0	0	0	1	0	0	0	0	0	0	0	0	0	2	0	0	0	0	0	0	0	0	0	0	1	0	0	0	0
OTU 14	0	0	0	0	1	0	0	0	0	0	0	0	0	0	0	0	2	2	0	0	4	7	0	0	0	0	1	1	2	0	0	0	0	0	1	0	0	0	0	0	0	1	1	0	0	0	1	0	0	0
OTU 15	0	0	0	0	0	0	0	0	0	0	0	0	0	1	0	1	0	3	0	1	0	0	0	0	0	0	0	1	0	0	0	0	0	0	0	0	0	0	0	3	0	7	0	0	0	0	0	0	0	7
OTU 16	0	0	0	0	0	0	0	0	0	0	0	0	0	0	0	0	0	0	0	0	0	0	0	0	0	0	0	0	0	0	0	0	0	0	0	0	0	0	0	0	0	0	0	0	0	0	0	0	0	0
OTU 17	0	0	0	0	2	2	0	0	2	0	2	0	0	0	0	0	1	0	2	0	4	0	1	0	12	3	0	0	0	0	0	0	0	0	0	0	2	0	0	0	2	3	0	0	1	0	1	1	0	0
OTU 18	0	1	1	5	1	9	2	1	0	1	1	3	1	1	1	1	0	2	3	0	0	1	0	2	0	5	2	0	1	1	0	1	0	0	0	5	3	128	1	0	0	7	3	4	2	0	1	3	0	1
OTU 19	0	0	0	0	0	0	0	0	0	0	0	0	0	0	0	0	0	0	0	0	0	0	0	0	0	0	0	0	0	0	0	0	0	0	0	0	0	0	0	0	0	0	0	0	0	0	0	0	0	0
OTU 20	0	0	2	0	0	9	0	0	1	1	3	1	0	0	0	0	1	6	0	0	1	0	0	0	1	3	0	0	0	0	0	0	0	2	2	1	2	2	0	2	2	0	0	1	0	0	3	0	4	0
OTU 21	0	0	1	5	2	4	1	0	0	0	0	0	1	0	0	0	1	4	42	0	3	5	0	0	2	0	2	0	0	1	119	0	4	0	0	0	2	0	2	0	4	0	1	0	0	1	1	1	1	0
OTU 22	3	0	0	0	1	0	0	1	0	0	4	3	2	2	0	1	0	10	2	0	0	7	1	0	0	3	0	6	0	1	0	0	0	110	0	1	3	8	1	0	3	1	2	0	0	4	1	0	0	0
OTU 23	0	0	0	0	0	0	3	0	0	1	3	2	0	0	0	2	0	0	3	0	0	0	0	0	0	0	0	1	0	0	1	0	0	0	1	0	4	1	0	0	3	0	0	11	0	0	3	0	2	0
OTU 24	0	0	0	1	0	0	0	0	0	0	0	0	0	0	0	0	1	0	2	0	31	0	1	0	0	1	1	1	0	0	0	0	0	0	0	1	0	0	0	0	0	3	0	0	0	0	0	0	0	0
OTU 25	0	0	0	0	0	0	0	0	0	1	0	0	0	0	0	0	0	0	0	0	0	0	0	0	0	0	0	2	0	0	0	0	0	0	1	0	0	0	0	0	0	0	0	0	0	0	0	0	0	0
OTU 26	0	0	0	0	0	0	0	0	0	1	0	0	2	0	0	0	0	0	0	0	0	3	0	0	0	4	0	0	0	0	0	0	0	0	22	0	0	0	0	0	2	0	0	0	0	0	0	4	0	0
OTU 27	0	0	0	0	0	0	0	0	0	0	0	0	0	0	0	0	0	0	0	0	0	0	0	0	0	0	0	0	0	0	0	1	0	0	0	0	0	0	0	0	0	0	0	0	0	0	0	0	0	0
OTU 28	4	0	0	1	2	1	0	0	0	3	0	0	3	0	3	0	0	2	0	2	8	0	0	0	13	12	4	0	3	0	0	1	2	0	1	0	5	0	1	0	4	5	2	1	1	0	4	1	0	1
OTU 29	3	0	4	2	0	1	4	0	2	0	2	0	1	0	3	3	1	1	0	4	4	1	6	2	0	1	11	0	1	3	2	1	6	0	0	4	14	0	0	1	0	0	0	2	0	0	2	0	0	0
OTU 30	0	0	0	0	0	0	0	0	0	0	0	0	0	0	0	0	0	0	0	0	0	0	0	0	0	0	0	0	0	0	0	0	0	0	0	0	0	0	0	0	0	0	0	0	0	0	0	0	0	0
OTU 31	0	0	0	0	0	0	0	0	0	0	0	0	0	0	0	0	0	0	0	0	4	0	1	2	0	0	0	0	0	0	0	1	0	0	0	0	0	2	0	0	1	0	1	0	0	0	0	0	0	0
OTU 32	5	0	0	2	0	3	1	1	3	1	1	0	0	32	48	0	0	1	0	2	1	8	17	7	2	1	46	10	0	23	0	26	0	0	0	0	8	6	16	4	0	2	6	3	14	26	3	3	0	2
OTU 33	0	0	0	0	0	0	0	0	0	0	0	0	0	2	2	0	0	0	0	0	0	1	0	0	1	1	0	0	0	1	0	0	0	0	0	0	0	0	0	0	0	0	0	0	0	0	0	0	0	0
OTU 34	0	1	3	3	2	0	3	2	0	1	5	0	0	0	0	0	0	0	0	0	1	0	0	0	1	0	0	1	6	0	2	0	0	0	1	4	1	0	0	1	1	1	0	5	0	0	1	1	6	1
OTU 35	0	0	0	5	0	5	0	0	0	0	0	1	1	0	0	2	3	1	2	0	27	1	1	4	0	1	0	0	2	0	2	0	38	0	0	0	5	0	7	0	5	0	3	3	4	14	3	2	6	0
OTU 36	0	1	0	3	2	2	0	5	0	0	0	0	0	1	2	0	0	0	0	0	2	0	0	0	4	2	1	3	1	0	0	1	0	0	2	0	2	1	6	0	2	2	7	0	0	5	2	1	0	1
OTU 37	2	0	0	2	0	0	0	0	0	0	0	0	0	0	5	0	0	0	0	0	0	0	0	2	3	0	1	0	0	5	0	2	0	0	0	0	0	0	0	0	0	0	0	0	2	0	2	1	0	0
OTU 38	0	0	0	3	0	3	0	6	1	0	2	0	1	0	0	1	0	4	0	0	0	0	0	1	0	1	0	13	0	0	0	0	6	0	0	0	0	0	0	0	0	2	1	18	1	0	6	0	1	3
OTU 39	0	0	0	0	0	0	2	0	0	0	0	0	0	0	0	0	0	0	0	0	0	2	0	0	0	0	0	0	0	0	0	1	0	0	0	1	0	0	0	0	0	0	0	0	0	0	1	4	0	0
OTU 40	2	0	5	0	1	0	8	4	0	5	0	0	2	0	0	4	7	0	0	0	4	1	0	1	2	4	0	20	0	1	1	0	0	0	0	2	2	0	41	1	0	2	0	1	1	67	4	0	0	0
OTU 41	0	0	1	0	0	1	40	4	0	3	3	2	2	1	4	0	2	4	0	1	4	0	0	0	0	0	0	4	0	2	0	0	0	0	0	0	4	0	0	1	1	2	0	1	1	2	4	0	0	0
OTU 42	0	0	0	6	0	0	0	0	0	0	0	0	2	0	0	4	0	0	0	0	0	0	0	0	2	0	1	2	4	0	0	0	0	0	0	0	0	0	0	0	0	1	0	0	2	0	0	0	0	1
OTU 43	0	0	2	0	0	0	0	0	0	0	1	0	0	0	0	0	0	0	0	0	0	0	0	0	0	0	0	0	0	0	0	0	0	0	0	0	0	0	0	0	0	0	0	0	0	0	0	0	0	0
OTU 44	0	0	0	0	0	0	0	0	2	2	6	0	0	0	0	0	1	10	0	0	0	0	0	1	0	0	0	0	3	0	0	0	0	0	1	0	0	0	0	0	0	0	0	0	0	0	120	0	0	0
OTU 45	1	97	8	1	1	4	2	2	0	2	1	1	2	0	0	0	0	0	0	0	1	3	0	0	4	2	1	1	12	2	0	0	5	2	0	6	5	0	1	0	2	0	5	2	5	2	1	4	0	0
OTU 46	24	1	0	12	2	2	0	2	1	0	1	2	11	0	0	2	0	12	3	2	0	1	0	2	4	11	1	1	1	0	1	0	1	0	0	1	0	1	0	1	0	2	2	1	41	2	0	12	0	2
OTU 47	0	0	0	0	0	0	0	0	0	0	0	0	0	0	0	0	0	0	0	0	0	0	0	0	0	0	0	0	0	0	0	0	0	0	0	0	0	0	0	0	0	1	0	0	1	0	1	0	0	0
OTU 48	3	0	0	0	1	5	0	0	0	1	1	3	3	1	2	1	2	1	0	0	1	1	3	0	2	7	4	6	0	0	0	3	5	0	0	1	0	5	2	1	0	1	1	8	8	1	0	0	1	1
OTU 49	0	1	7	0	3	0	1	2	0	0	0	0	0	0	0	0	0	0	0	0	0	1	0	102	1	0	0	2	2	0	0	0	1	0	0	2	1	0	4	0	0	0	0	0	0	3	0	0	0	0
OTU 50	4	0	2	13	1	12	0	1	3	11	0	1	1	0	0	1	0	1	1	0	16	5	0	2	2	5	2	2	1	1	0	0	0	0	2	0	0	0	1	1	15	2	6	6	1	0	1	0	10	1
OTU 51	1	0	0	0	0	0	3	1	3	0	0	0	0	2	2	1	2	8	1	2	0	0	0	1	0	10	1	1	0	1	0	1	0	3	20	1	2	0	0	3	0	16	0	7	2	0	5	0	0	10
OTU 52	1	1	3	0	1	2	1	3	14	3	0	0	6	2	5	0	0	5	1	8	9	7	75	2	7	6	4	8	1	0	0	3	0	2	6	0	1	12	1	8	7	13	10	19	2	10	2	6	3	4
OTU 53	0	0	0	0	1	0	0	0	0	0	0	0	0	0	0	0	0	0	0	0	0	0	0	0	0	0	0	0	0	0	0	0	0	0	0	0	0	0	0	0	0	0	0	0	0	0	0	0	0	0
OTU 54	0	0	4	0	0	8	10	2	2	1	2	2	1	1	0	0	7	4	0	5	0	3	4	7	0	1	2	3	1	0	3	2	2	1	0	0	1	5	5	0	5	0	0	3	0	5	0	13	1	0
OTU 55	0	0	0	0	0	0	0	0	0	0	0	0	0	0	0	0	0	0	1	0	0	0	0	0	0	0	0	0	0	0	0	0	0	0	0	0	0	0	0	0	0	0	0	0	0	0	0	0	0	0
OTU 56	0	0	1	1	0	0	0	2	0	0	0	0	0	1	0	0	0	2	0	0	2	0	0	0	0	1	0	3	0	0	0	0	2	0	0	0	1	2	0	0	0	0	0	6	1	0	1	1	0	0
OTU 57	8	0	8	0	0	3	1	0	1	0	3	5	2	0	4	6	1	2	6	2	0	1	53	6	6	3	2	8	1	1	10	2	7	1	3	1	5	0	1	108	10	2	3	4	11	2	3	3	1	0
OTU 58	0	0	0	0	1	0	4	1	0	0	1	1	1	2	0	1	0	5	0	6	0	1	0	1	5	1	0	1	0	0	1	0	3	0	0	0	0	0	0	0	0	1	0	0	1	0	4	3	0	1
OTU 59	0	2	1	1	4	0	3	0	0	0	1	0	0	0	0	0	0	1	0	0	1	0	0	0	1	0	0	3	1	0	0	0	2	7	0	3	6	0	0	0	0	0	8	10	0	0	2	0	1	0
OTU 60	1	0	0	4	0	1	0	8	7	0	1	0	5	2	2	2	1	4	1	4	9	0	0	1	6	9	1	2	2	1	0	0	0	3	0	0	9	2	3	4	0	3	1	0	8	2	0	1	0	1
OTU 61	6	1	9	2	4	37	7	3	1	10	3	4	0	2	82	0	3	0	1	3	6	2	0	1	1	0	1	9	4	33	0	0	0	1	1	5	7	1	0	0	0	2	1	9	4	0	1	1	1	4
OTU 62	0	0	1	0	0	0	1	0	0	1	0	1	0	0	0	2	0	0	0	0	0	2	0	0	1	2	0	0	0	0	0	2	3	0	0	0	0	0	0	0	2	0	0	3	0	0	0	1	3	0
OTU 63	0	1	0	0	1	0	1	0	0	0	0	0	0	0	1	0	2	0	0	0	0	1	0	4	2	0	0	0	0	0	0	16	0	0	0	2	0	22	0	0	0	0	0	0	0	2	2	0	0	0
OTU 64	7	1	1	2	3	2	0	5	4	1	0	2	3	3	1	1	4	12	2	6	10	4	1	4	0	4	0	1	0	1	1	1	4	1	0	4	5	4	51	6	1	3	7	16	9	4	2	10	0	2
OTU 65	7	0	0	6	0	0	0	0	0	0	0	0	0	1	0	0	0	0	1	1	0	1	0	0	0	0	0	0	0	0	0	0	22	0	0	0	0	0	0	0	0	0	0	0	0	0	0	0	0	0
OTU 66	2	0	1	0	2	1	0	3	1	0	1	0	0	1	1	3	0	4	3	1	5	2	0	2	5	0	0	1	1	0	2	0	2	2	0	0	6	0	2	3	2	0	8	1	1	2	2	0	0	0
OTU 67	0	3	7	0	0	1	0	0	0	2	81	0	3	0	1	0	0	1	0	5	1	1	0	0	2	4	0	1	3	0	1	0	1	4	2	2	0	0	0	1	0	2	1	0	0	0	0	1	0	1
OTU 68	4	0	3	0	4	0	3	1	1	0	2	0	0	0	0	2	0	2	1	1	2	0	0	0	2	0	0	0	3	0	1	0	0	0	2	2	0	0	0	0	0	1	0	0	2	0	0	0	98	1
OTU 69	0	0	0	0	0	2	1	0	2	0	0	0	5	3	2	1	2	2	0	0	0	0	0	4	1	2	2	1	0	0	1	1	0	77	1	156	22	3	0	0	0	0	7	4	5	1	4	7	1	0
OTU 70	0	0	3	2	0	0	0	0	0	0	0	6	0	0	0	0	0	0	1	0	0	0	0	1	0	2	0	3	1	0	0	1	0	0	0	0	1	1	0	2	0	0	0	2	0	0	1	0	1	0
OTU 71	0	0	2	1	0	0	2	0	0	3	0	7	0	0	0	16	0	6	2	0	2	0	0	0	2	0	1	3	0	0	8	1	5	1	0	0	0	1	0	0	0	0	2	2	0	0	0	1	1	0
OTU 72	0	1	0	0	0	0	1	3	1	0	0	1	3	2	1	0	0	1	2	0	0	0	5	2	0	6	5	0	0	0	0	4	0	1	1	0	0	0	0	5	0	1	0	0	2	0	1	2	0	0
OTU 73	3	0	1	5	1	0	0	2	4	2	0	1	2	0	0	0	3	0	0	0	1	0	0	0	8	0	0	0	1	0	0	0	1	6	0	0	0	1	1	0	3	0	0	0	3	0	0	1	1	0
OTU 74	0	0	0	0	0	0	2	4	0	1	2	176	2	53	2	0	0	4	0	2	0	0	0	1	7	6	0	2	2	0	0	0	5	0	0	0	16	1	0	1	8	2	1	0	0	3	0	7	6	1
OTU 75	0	0	0	0	0	1	0	6	0	1	5	0	0	0	0	0	2	3	2	0	5	0	50	5	22	1	5	2	1	0	0	1	3	0	1	1	5	2	7	0	0	0	2	0	1	2	6	0	0	0
OTU 76	0	1	0	1	0	0	1	0	0	0	0	1	0	54	0	0	0	0	0	0	0	0	1	0	0	2	0	0	0	0	0	0	7	0	0	1	1	0	0	0	0	0	0	11	0	0	1	0	0	0
OTU 77	0	0	0	5	1	3	0	0	3	2	0	1	0	1	1	0	0	0	2	0	2	5	0	1	0	0	2	88	2	4	2	0	0	0	1	0	3	0	1	1	2	2	4	1	0	0	0	6	0	1
OTU 78	0	0	1	2	0	4	2	4	7	57	1	0	5	1	0	0	5	1	18	2	0	0	0	1	3	0	0	0	1	0	0	0	2	0	0	1	2	0	1	12	0	0	1	0	3	0	0	0	0	1
OTU 79	5	3	0	4	1	7	46	27	7	1	0	1	10	31	0	0	16	6	5	43	5	4	9	0	6	4	8	1	4	1	0	9	2	6	3	4	2	2	4	35	1	1	3	2	2	5	3	5	0	1
OTU 80	1	3	10	0	5	3	1	0	57	2	0	1	3	0	5	0	2	2	0	0	14	0	5	1	1	1	18	0	1	193	0	6	2	57	0	2	1	0	4	1	3	0	1	5	3	8	0	1	1	0
OTU 81	0	1	10	3	1	9	3	1	0	8	3	1	0	2	1	0	1	5	2	6	8	1	5	1	5	0	9	9	0	3	0	7	0	2	0	7	3	2	1	2	0	3	0	0	4	3	2	0	0	2
OTU 82	3	0	0	4	0	1	0	2	0	0	0	0	0	0	0	0	0	0	4	0	4	0	2	0	2	2	2	2	0	0	0	0	0	3	0	1	0	1	0	0	2	5	1	8	0	0	8	0	1	4
OTU 83	0	1	2	0	2	0	0	0	0	2	0	1	0	0	0	0	0	0	0	0	0	0	1	0	1	0	2	0	2	0	0	1	3	0	0	0	1	3	0	2	0	0	0	0	2	0	0	0	0	0
OTU 84	2	0	0	1	0	0	0	6	0	0	55	0	2	0	0	0	3	68	1	0	0	0	1	1	0	5	0	0	0	1	0	1	0	0	2	0	0	0	0	0	1	0	1	0	0	0	0	0	0	1
OTU 85	1	0	0	0	0	0	1	0	0	0	0	0	8	0	0	0	0	0	0	0	0	2	0	2	0	0	0	0	0	0	0	0	2	0	0	0	0	0	0	0	0	0	0	5	3	1	1	0	0	0
OTU 86	0	0	0	0	0	0	0	0	0	0	0	0	0	0	0	2	0	0	0	0	0	0	0	0	0	0	0	0	0	0	1	0	0	0	0	0	0	0	0	0	0	0	0	0	0	0	0	0	0	0
OTU 87	0	0	0	0	0	0	0	0	0	0	0	0	0	17	0	1	0	0	0	62	0	0	0	0	0	0	0	1	1	0	0	0	0	0	29	0	0	0	0	19	0	26	6	0	0	0	0	0	0	14
OTU 88	0	0	0	0	0	0	0	0	0	0	0	0	0	0	0	0	0	2	0	0	0	0	0	0	1	2	0	1	0	0	0	2	0	0	0	0	0	4	1	0	0	0	0	0	0	0	4	0	0	0
OTU 89	3	1	2	0	0	0	0	1	2	0	0	0	0	0	0	3	0	0	0	0	0	0	0	1	2	0	0	0	2	0	1	0	0	0	0	0	0	4	2	0	0	0	2	0	5	4	0	6	0	0
OTU 90	0	0	0	0	0	0	0	0	0	0	1	0	0	0	0	2	0	0	0	0	0	0	0	0	0	1	0	0	0	0	1	0	0	0	0	0	0	0	0	0	0	0	0	0	0	0	0	0	0	0
OTU 91	0	0	2	0	0	0	0	0	0	3	0	0	0	0	0	0	0	0	0	0	0	50	0	0	0	0	0	0	0	0	0	0	0	0	0	0	0	28	0	0	0	0	0	0	0	0	0	0	0	0
OTU 92	1	0	3	0	1	0	1	0	3	0	0	0	0	0	0	1	0	0	0	0	0	0	0	0	2	0	0	0	1	0	0	0	1	0	0	2	0	0	0	0	0	0	0	0	0	0	1	0	0	0
OTU 93	0	0	0	0	0	0	0	0	0	0	0	0	0	0	0	0	0	0	0	0	0	0	0	0	0	1	0	0	0	0	0	0	0	0	0	0	0	0	0	0	0	0	0	0	0	0	0	0	0	0
OTU 94	12	3	11	4	5	4	4	4	10	6	7	0	0	2	3	0	0	3	0	3	5	5	0	0	3	10	1	0	8	0	1	0	0	10	1	10	2	0	0	0	0	2	0	0	2	0	7	2	0	1
OTU 95	0	0	0	0	0	0	0	0	0	54	29	0	0	0	0	0	1	1	2	0	2	0	0	0	10	0	0	0	0	0	0	0	0	0	0	0	0	0	0	0	0	1	0	0	0	0	1	0	0	0
OTU 96	0	0	0	0	0	0	0	0	0	0	0	0	0	0	0	0	0	0	0	0	0	0	0	0	0	0	0	0	0	0	0	0	7	2	0	0	0	0	0	0	0	0	0	0	0	0	0	0	0	0
OTU 97	0	0	0	0	0	0	0	0	0	0	0	1	1	0	4	1	0	0	3	0	0	0	0	0	0	0	0	0	0	6	0	0	0	0	0	0	0	0	0	0	0	0	0	0	0	0	0	0	0	0
OTU 98	0	0	3	1	0	0	0	0	0	0	0	0	0	1	3	0	0	0	0	2	0	0	0	0	0	0	1	0	0	1	0	2	18	0	0	1	0	1	0	0	0	0	0	0	1	1	0	0	0	0
OTU 99	0	0	1	5	2	4	0	0	1	0	0	0	3	4	1	1	0	1	1	3	4	3	1	1	0	4	5	5	1	1	0	2	5	0	7	1	1	0	0	0	3	4	1	1	1	0	1	2	1	2
OTU 100	1	1	5	0	5	0	3	0	2	0	3	1	1	0	6	1	0	1	1	0	1	0	0	1	0	0	1	0	2	0	1	1	0	2	2	0	1	0	0	0	0	50	0	0	0	0	0	0	0	12
OTU 101	0	0	0	0	0	0	0	0	0	0	0	0	0	0	0	0	0	0	1	0	0	0	0	0	0	0	0	0	0	0	0	0	0	0	0	0	0	0	0	0	0	2	0	0	0	0	0	0	0	0
OTU 102	0	1	2	0	0	1	0	2	0	1	0	0	0	0	2	0	29	0	0	1	0	0	0	0	0	0	0	0	1	0	0	0	0	3	0	1	1	2	0	0	1	0	0	0	0	1	0	0	0	0
OTU 103	1	0	0	0	0	0	0	0	1	2	0	0	0	0	0	0	0	1	0	0	0	1	0	0	0	0	0	0	0	0	0	0	2	0	0	0	0	0	0	0	0	0	0	4	2	0	3	0	0	0
OTU 104	87	18	62	0	44	0	38	4	1	0	6	2	7	1	1	2	0	9	2	0	4	0	1	5	1	11	4	1	37	1	0	0	7	1	33	27	5	1	0	0	7	0	3	0	10	1	3	2	2	0
OTU 105	0	0	0	1	0	0	3	0	0	0	0	0	0	0	0	1	0	0	0	0	0	0	2	0	0	3	4	1	1	0	0	8	0	0	0	0	0	0	0	0	0	0	0	0	0	0	1	0	0	0
OTU 106	2	0	10	0	3	3	9	1	2	0	0	0	1	0	1	0	0	0	0	0	0	0	1	0	0	0	0	3	0	1	0	2	0	1	0	5	0	0	0	0	0	2	2	14	5	0	0	0	0	1
OTU 107	0	0	0	0	0	0	0	0	0	0	0	0	0	1	0	0	0	0	0	1	0	0	0	0	7	0	2	0	0	0	0	0	29	0	0	0	0	0	0	1	0	0	3	0	0	0	0	35	1	0
OTU 108	0	0	0	0	0	1	0	0	0	0	0	0	0	0	1	0	7	1	0	0	0	1	2	0	0	4	2	1	0	1	0	3	0	0	0	0	1	0	0	0	1	0	0	2	2	0	0	0	0	0
OTU 109	0	0	0	0	0	0	0	0	0	0	0	0	0	0	0	0	0	0	0	0	0	0	0	0	0	0	0	0	1	0	0	0	0	0	0	0	0	0	0	0	0	0	0	0	0	0	0	0	0	0
OTU 110	5	0	0	1	0	3	0	0	1	3	0	0	9	3	3	0	2	0	1	0	0	1	1	13	5	0	7	1	0	0	0	3	0	0	1	0	3	1	0	0	7	1	1	1	3	7	1	1	2	0
OTU 111	1	0	0	0	0	13	0	0	0	0	0	0	0	0	0	0	0	0	0	0	0	2	0	0	0	0	0	0	0	0	0	0	0	0	0	0	0	0	0	0	0	0	0	0	0	0	0	0	0	0
OTU 112	0	0	0	0	0	0	0	0	0	3	2	0	0	0	0	0	0	3	0	0	0	2	0	1	0	1	0	12	0	0	0	154	3	1	0	0	2	2	2	3	0	0	0	1	0	0	0	0	0	0
OTU 113	0	0	0	0	0	0	0	0	0	0	0	0	0	0	0	0	0	1	0	0	0	0	0	0	0	0	0	0	1	0	0	0	0	0	0	0	0	0	0	0	0	0	0	0	0	0	0	0	0	0
OTU 114	2	4	16	1	5	0	0	2	4	9	1	0	7	1	8	5	1	2	1	4	6	2	8	5	4	1	10	6	4	3	0	4	16	0	0	3	14	1	1	1	1	3	0	3	2	1	2	2	1	2
OTU 115	1	3	0	2	0	3	3	5	1	5	6	2	1	0	6	8	7	5	1	0	0	1	4	5	1	5	5	0	0	3	2	8	0	0	0	2	12	0	3	1	0	3	4	7	4	2	0	3	0	2
OTU 116	0	0	3	0	1	0	1	0	2	1	6	0	2	1	2	1	3	0	0	11	1	6	0	0	0	4	3	0	3	0	0	11	2	1	4	0	0	12	0	6	2	0	12	0	1	2	5	0	1	0
OTU 117	0	0	2	0	1	1	0	25	1	0	1	2	4	0	0	2	0	2	0	5	1	0	0	4	1	5	1	0	0	0	0	0	0	1	1	0	1	5	0	0	0	1	10	1	3	0	0	0	0	1
OTU 118	0	0	0	2	0	0	0	0	0	0	0	0	0	0	1	0	0	1	0	0	0	1	0	0	1	1	0	0	0	2	0	0	0	0	3	0	0	0	0	0	2	0	0	0	0	1	0	0	1	0
OTU 119	0	0	2	0	2	4	0	1	4	2	2	0	0	0	4	0	0	0	0	2	0	3	0	4	7	0	2	2	0	0	0	0	0	0	0	1	1	10	2	0	0	0	0	2	0	0	2	0	0	1
OTU 120	0	0	0	0	0	4	0	5	0	0	16	0	0	0	1	1	1	29	1	0	0	0	0	0	4	0	0	0	0	0	3	0	5	1	0	0	2	0	0	0	0	0	2	3	1	0	0	0	0	0
OTU 121	0	2	1	1	1	0	1	0	2	0	0	1	0	0	4	0	2	1	1	2	0	0	0	0	1	5	1	2	0	5	0	2	0	0	0	0	0	0	0	0	0	0	0	7	0	3	0	1	0	0
OTU 122	0	0	5	0	2	1	7	1	1	0	1	1	0	0	0	2	0	3	0	0	0	1	1	0	0	1	0	0	1	0	3	0	5	2	1	0	2	0	1	1	2	0	0	10	0	1	2	0	1	0
OTU 123	12	3	14	10	199	1	12	7	64	5	7	5	1	15	4	5	0	11	0	7	11	11	11	7	3	3	9	11	5	2	38	3	13	6	5	5	1	25	14	10	9	7	6	9	14	43	10	7	3	1
OTU 124	0	0	0	0	0	0	0	2	0	0	0	0	0	0	0	0	0	0	0	0	0	0	0	3	0	1	0	0	0	0	0	0	0	0	0	0	4	1	0	0	0	0	0	0	0	1	0	0	0	0
OTU 125	4	1	8	2	5	4	2	8	5	34	3	7	21	0	1	1	17	1	2	1	4	0	0	5	3	3	4	7	0	0	0	0	8	0	2	10	2	0	10	0	2	2	12	9	6	2	2	1	1	1
OTU 126	0	15	0	0	0	0	0	0	0	0	1	0	0	0	0	0	0	0	0	0	0	1	0	0	0	2	2	0	21	0	0	0	0	0	0	0	0	11	0	0	0	0	0	0	0	0	0	0	0	1
OTU 127	1	0	1	2	0	0	0	0	0	0	0	0	2	0	0	0	0	0	94	2	6	0	1	1	0	1	0	3	0	2	2	1	3	2	1	0	0	0	0	1	0	0	0	0	0	4	0	1	0	0
OTU 128	16	6	18	9	12	12	53	9	0	14	4	3	11	33	44	4	2	8	4	59	16	5	12	7	10	11	33	8	9	14	1	10	6	0	1	12	6	3	17	19	10	84	2	4	38	20	6	3	7	45
OTU 129	0	0	0	0	0	0	0	0	1	0	0	0	0	0	1	0	2	0	0	0	0	5	0	0	2	0	2	0	0	1	0	0	0	0	0	0	0	0	0	0	0	0	0	0	0	1	0	0	0	0
OTU 130	0	0	0	0	0	2	0	0	0	0	0	0	7	0	2	0	0	1	0	0	0	0	2	0	3	7	1	0	0	0	0	0	0	0	0	0	0	0	0	0	0	0	0	3	6	2	0	0	0	0
OTU 131	0	1	0	0	0	0	0	10	0	0	8	0	6	1	3	0	2	16	0	0	0	1	2	1	0	6	1	0	0	2	0	0	5	0	1	0	7	0	0	0	0	0	0	2	0	1	1	49	0	0
OTU 132	1	1	1	0	0	0	0	3	9	8	0	0	1	0	0	2	0	3	0	1	0	0	0	0	0	1	0	0	0	0	2	0	1	0	0	2	10	0	0	3	0	1	0	0	6	0	1	0	0	0
OTU 133	0	0	0	0	0	0	0	0	0	0	0	0	1	0	0	0	0	0	0	0	0	1	0	0	0	0	0	1	0	2	0	0	0	0	0	0	0	0	0	0	0	0	1	0	0	0	0	0	0	0
OTU 134	3	0	1	3	0	0	0	0	0	1	1	0	0	0	0	0	0	1	0	0	0	2	1	1	1	2	2	0	1	0	0	3	0	1	0	0	0	2	1	0	1	3	0	3	2	3	0	0	0	5
OTU 135	1	12	0	0	0	1	0	1	0	0	0	22	0	0	6	46	30	0	49	2	0	1	6	0	1	7	8	0	0	3	20	8	0	2	2	0	0	4	36	0	1	0	24	1	1	3	0	2	0	1
OTU 136	1	0	2	1	0	7	0	6	1	0	0	0	0	0	1	0	0	1	0	0	0	0	0	1	0	0	0	0	1	0	0	3	0	0	2	1	1	0	0	0	0	0	0	0	0	0	0	1	0	0
OTU 137	1	0	0	0	0	0	0	0	0	0	1	0	0	2	0	0	0	0	0	11	3	75	0	0	1	0	0	0	0	0	0	0	0	0	0	0	0	0	0	4	0	3	0	0	0	0	0	0	0	0
OTU 138	0	1	1	0	0	2	1	0	0	6	0	0	0	0	0	1	1	0	0	0	0	0	0	1	0	4	2	1	0	1	0	0	0	0	0	0	0	0	1	0	0	0	0	0	0	0	10	1	0	0
OTU 139	5	5	24	8	9	1	3	4	0	5	0	0	0	2	4	5	2	4	0	7	6	0	2	1	19	17	7	3	8	3	8	1	5	0	8	6	2	5	0	6	0	4	0	6	6	1	2	5	1	6
OTU 140	5	0	0	2	1	6	0	1	1	7	4	2	4	0	16	1	4	1	1	0	1	7	15	4	0	12	32	1	0	14	0	15	1	3	2	0	0	2	1	2	2	4	5	27	5	10	9	6	1	1
OTU 141	0	0	0	0	0	0	0	0	0	1	0	0	0	0	0	0	0	0	0	0	0	0	0	0	2	0	0	0	0	0	0	0	0	0	0	0	0	0	0	0	0	0	0	0	0	0	0	0	0	0
OTU 142	0	0	0	0	0	0	0	0	0	0	0	0	0	1	0	0	0	0	0	1	1	0	0	3	1	0	0	0	0	0	0	0	0	0	0	0	0	0	0	0	0	0	0	3	0	0	0	0	0	0
OTU 143	0	0	0	0	0	1	0	0	0	0	0	0	1	0	0	0	0	0	0	0	0	0	0	0	0	0	2	0	0	0	0	0	0	0	0	0	0	1	0	3	0	2	0	2	0	0	0	0	0	0
OTU 144	0	3	5	0	0	2	4	1	4	0	0	0	0	1	0	2	0	0	0	4	0	2	0	0	0	0	0	0	4	0	0	0	0	1	0	3	0	0	1	0	0	0	0	0	0	0	0	0	0	0
OTU 145	2	1	0	0	0	2	3	6	5	0	0	0	0	0	0	0	0	1	2	0	0	8	0	2	3	2	0	0	1	0	0	0	6	2	2	0	0	0	3	1	1	2	2	1	3	4	1	2	73	1
OTU 146	0	1	3	4	2	2	0	0	0	0	0	1	6	0	4	0	1	0	1	0	5	1	14	0	9	11	10	1	4	3	4	3	1	0	1	0	2	1	0	0	0	3	0	0	1	0	0	0	0	0
OTU 147	0	0	0	2	0	3	0	0	0	1	0	0	1	0	0	0	1	0	3	0	3	0	0	1	0	0	0	1	0	0	0	1	1	0	0	0	0	1	0	1	0	0	2	1	0	0	0	1	3	0
OTU 148	2	1	5	0	0	2	1	0	0	2	0	0	1	0	1	0	0	0	0	2	4	4	0	5	4	0	4	0	4	1	0	1	14	0	0	0	1	4	1	0	6	0	0	4	1	3	0	3	1	0
OTU 149	0	0	1	1	0	7	0	0	0	0	0	0	20	0	0	1	0	0	0	6	3	0	0	0	0	1	1	0	0	0	0	0	0	0	2	0	0	0	0	0	2	0	0	0	1	1	0	1	0	0
OTU 150	0	2	0	1	0	0	0	0	0	0	0	0	0	0	3	0	0	0	0	0	0	0	0	0	0	14	0	0	0	0	0	0	1	0	0	0	0	0	3	0	0	0	0	0	1	5	0	2	0	0
OTU 151	0	43	2	3	0	0	0	0	0	0	0	0	0	0	0	0	0	0	0	0	0	0	0	0	3	0	0	2	93	0	0	2	2	0	0	0	0	0	0	0	0	1	5	6	0	0	0	0	0	0
OTU 152	0	0	0	0	0	0	4	2	0	2	0	0	0	6	2	1	1	1	0	6	8	0	1	3	17	18	1	6	0	1	0	1	0	0	3	2	1	10	0	1	2	1	0	1	3	4	1	1	1	0
OTU 153	0	0	0	0	0	0	0	0	0	0	1	0	0	0	0	0	0	0	0	0	0	0	0	0	0	0	0	0	0	0	0	0	0	0	0	0	0	0	0	0	0	0	0	0	0	0	0	0	0	0
OTU 154	0	0	0	0	0	0	0	0	2	0	0	0	0	0	0	0	0	0	0	0	0	0	0	12	0	0	0	0	0	0	0	0	0	0	0	0	0	0	0	0	2	0	0	0	0	0	0	0	0	0
OTU 155	0	0	0	0	0	3	0	2	0	1	0	0	2	1	1	0	89	1	0	0	0	1	0	0	0	0	0	0	0	3	0	0	0	0	0	0	0	0	0	0	1	2	1	0	1	0	0	1	1	0
OTU 156	0	3	2	0	3	2	4	27	4	7	3	1	9	2	0	2	5	0	0	5	3	1	1	2	0	4	1	2	1	0	1	0	0	0	0	2	3	1	0	0	2	0	0	3	1	2	0	1	0	0
OTU 157	0	0	0	7	0	2	0	2	0	0	0	0	0	0	0	0	0	0	3	1	0	4	1	0	0	6	1	0	0	1	0	2	1	0	0	0	1	0	0	0	1	0	0	0	0	0	0	0	0	0
OTU 158	0	1	1	0	0	0	0	0	0	0	0	0	0	0	0	0	1	0	0	0	0	0	0	0	0	0	0	0	1	0	0	0	0	1	0	0	0	0	0	0	0	0	6	0	0	3	0	0	0	0
OTU 159	0	0	0	0	1	1	0	2	0	0	2	0	3	0	0	0	0	2	0	0	0	0	0	0	0	2	0	2	0	0	2	0	3	0	1	0	24	3	0	0	0	2	1	0	1	0	1	53	0	2
OTU 160	1	1	6	0	4	11	3	4	1	1	0	8	4	3	1	12	7	3	4	3	3	0	3	8	4	6	12	1	5	3	25	3	3	13	0	9	11	2	0	1	6	0	0	5	7	2	2	4	3	0
OTU 161	0	1	0	0	0	1	0	0	1	0	2	0	0	0	2	1	1	8	0	0	0	3	4	4	0	2	10	0	0	1	1	3	0	1	0	0	0	0	2	0	0	2	0	1	0	1	0	7	0	4
OTU 162	0	65	3	5	1	3	1	17	1	1	1	0	5	0	0	3	0	4	2	0	4	2	2	1	3	5	3	1	0	0	0	0	0	0	0	0	0	0	0	1	2	3	3	2	1	0	3	2	0	0
OTU 163	0	0	1	0	0	0	0	0	0	0	0	0	1	0	0	0	0	0	0	0	0	0	0	0	2	0	0	0	0	0	0	0	0	0	0	0	0	0	0	0	0	0	0	0	0	0	0	0	0	0
OTU 164	0	0	0	0	0	0	0	0	0	0	0	1	0	0	0	7	0	0	0	0	0	0	1	0	2	0	0	0	0	0	0	0	0	0	0	0	0	0	0	0	0	0	1	0	0	0	0	0	0	0
OTU 165	0	0	0	0	1	0	0	1	0	2	0	0	0	0	0	0	1	0	0	0	16	1	0	2	0	0	0	1	0	0	0	0	0	1	0	0	0	1	1	0	4	2	8	0	0	3	0	0	0	0
OTU 166	23	0	0	0	0	0	0	1	0	0	0	0	0	0	0	0	0	0	0	0	0	0	0	0	0	0	0	0	0	0	0	0	0	0	0	0	0	0	0	0	0	0	0	0	0	0	0	0	0	0
OTU 167	0	0	0	0	0	0	0	3	0	0	0	1	1	0	0	0	0	0	0	0	0	0	1	0	1	0	5	0	0	0	4	0	0	1	1	3	0	0	1	2	1	0	0	2	0	0	6	5	0	0
OTU 168	11	2	0	0	0	1	0	0	1	0	0	0	4	2	0	0	0	0	0	0	0	0	0	2	0	3	0	0	0	0	1	0	0	0	0	1	1	0	0	0	0	0	0	0	7	1	1	0	2	1
OTU 169	0	0	1	0	2	0	0	0	0	0	0	0	0	0	0	0	0	0	0	0	0	0	0	0	0	0	0	0	0	0	0	0	0	0	0	0	0	0	0	0	0	0	0	0	0	0	0	0	0	0
OTU 170	0	0	4	0	0	4	0	0	0	0	0	0	0	0	0	0	0	0	0	0	0	0	0	0	0	0	0	0	4	0	0	0	5	0	2	2	0	0	0	0	0	0	0	0	0	0	0	0	0	0
OTU 171	4	0	1	1	0	35	1	0	0	0	0	0	1	0	0	3	0	0	4	2	0	1	0	11	0	3	0	0	2	3	0	0	0	0	2	0	1	0	0	0	2	3	0	2	4	0	1	3	0	1
OTU 172	0	0	0	0	0	0	0	0	0	0	2	0	0	0	1	0	0	0	0	0	0	0	0	0	0	0	3	0	0	0	0	2	0	0	0	0	0	0	0	0	5	0	0	0	0	0	0	0	0	0
OTU 173	0	0	0	0	0	0	0	0	0	0	0	0	0	0	0	0	2	0	0	0	0	0	0	1	0	0	0	1	0	0	0	0	0	0	0	0	2	0	0	0	0	0	11	0	0	0	0	1	0	0
OTU 174	0	0	0	2	0	1	0	0	0	1	0	0	0	0	0	0	0	0	0	1	6	0	0	0	7	0	0	0	2	0	2	2	0	0	0	0	2	1	0	0	0	0	0	2	2	0	0	20	13	0
OTU 175	0	1	1	2	4	0	1	2	0	0	0	1	2	0	0	0	0	0	0	0	0	1	0	0	0	0	0	2	0	0	0	1	3	0	0	6	0	0	0	0	0	0	0	3	0	0	0	2	0	0
OTU 176	0	0	3	1	1	0	2	0	1	3	0	0	0	2	3	0	3	6	0	0	5	2	5	0	3	0	3	4	0	1	0	1	1	7	0	4	0	6	2	0	0	0	0	1	2	1	0	9	0	0
OTU 177	0	1	0	0	2	1	6	6	0	6	2	0	9	0	1	0	0	0	0	0	13	0	1	1	4	0	2	1	5	1	1	0	0	0	0	2	1	4	0	1	2	0	2	3	1	0	0	1	4	0
OTU 178	0	0	0	0	0	4	0	5	0	0	1	0	0	0	0	0	3	1	0	0	0	0	0	0	1	0	0	1	1	1	0	0	0	0	3	3	0	2	0	43	1	0	1	2	0	0	2	0	0	1
OTU 179	1	0	1	0	1	5	0	1	0	0	0	0	0	0	0	1	0	0	2	0	0	4	0	0	1	0	0	1	0	0	0	0	4	2	0	0	0	1	1	3	0	1	0	1	0	1	0	4	0	0
OTU 180	0	6	0	4	3	4	4	3	8	0	1	0	8	2	4	2	8	9	0	3	2	1	1	5	6	3	1	19	16	1	1	2	3	6	0	3	7	0	5	2	2	10	3	0	2	4	20	5	1	7
OTU 181	0	0	1	0	2	7	0	18	2	1	1	0	0	0	4	0	7	2	0	0	3	2	0	0	2	0	2	0	0	2	0	4	0	3	1	0	2	0	0	0	0	1	0	4	3	1	0	0	0	0
OTU 182	0	0	0	0	0	0	0	0	0	0	0	0	0	0	0	0	0	0	0	0	0	0	0	0	0	0	0	0	0	0	0	0	0	0	0	0	0	0	0	0	0	0	0	0	0	0	0	0	0	0
OTU 183	0	0	1	7	0	2	0	1	0	14	1	0	3	0	5	0	0	0	4	0	10	13	3	0	1	1	6	1	2	5	0	2	2	1	3	1	0	2	0	0	0	0	1	0	1	2	0	6	0	0
OTU 184	0	0	6	0	1	7	2	0	0	0	0	0	0	0	0	0	0	1	0	0	0	0	0	6	0	0	0	0	2	0	0	0	4	0	2	2	4	0	0	3	2	1	0	0	2	0	0	0	1	1
OTU 185	0	0	1	2	0	0	0	3	0	2	2	2	0	4	0	6	0	2	31	15	5	0	0	3	5	4	0	1	0	0	6	1	0	0	4	2	0	1	0	10	0	0	1	6	5	1	0	2	1	1
OTU 186	0	1	4	0	1	0	2	1	1	0	0	60	0	0	0	107	0	0	0	0	0	0	2	0	1	2	0	8	0	0	56	0	0	0	0	0	0	0	0	0	0	0	1	0	0	1	0	0	0	0
OTU 187	4	1	1	0	0	0	12	1	2	4	1	0	3	0	0	3	0	0	1	0	3	4	1	0	6	2	0	2	0	0	0	1	4	0	0	2	2	0	4	1	2	0	62	3	6	1	6	3	0	7
OTU 188	2	0	1	2	1	5	4	1	0	0	1	0	1	3	2	13	2	0	0	0	0	3	0	3	5	4	3	2	1	0	8	2	4	0	2	1	1	4	0	0	5	0	0	0	0	0	1	2	1	192
OTU 189	1	0	0	3	1	2	0	9	0	1	33	8	2	0	3	6	0	0	0	2	3	47	0	0	6	1	1	5	0	0	3	0	4	1	3	1	3	1	0	0	1	1	2	0	2	2	1	0	0	0
OTU 190	0	2	7	0	3	0	0	0	0	0	0	0	32	0	2	0	0	0	4	0	0	0	0	0	0	0	0	0	3	1	0	0	0	0	0	0	0	0	0	0	119	0	20	4	0	0	0	1	61	0
OTU 191	8	3	0	4	0	2	2	7	0	0	0	1	0	0	0	0	3	0	0	1	3	5	0	0	2	0	0	4	1	0	0	0	0	0	1	4	1	0	0	0	0	2	4	0	8	1	23	0	0	0
OTU 192	1	1	11	59	4	2	13	9	1	0	0	11	1	1	4	43	0	5	32	4	6	0	5	0	3	1	5	1	1	1	17	4	0	1	3	3	1	1	2	1	2	5	0	13	5	2	0	1	2	0
OTU 193	0	0	1	0	0	4	0	9	0	3	5	1	0	0	1	0	6	3	0	0	0	0	6	8	1	0	3	10	0	1	0	3	8	0	0	2	7	0	1	1	7	1	0	0	2	1	0	0	0	0
OTU 194	0	0	0	0	2	0	0	1	0	1	0	0	3	0	0	3	0	0	1	0	0	0	0	0	3	0	0	5	0	0	0	0	0	0	0	0	1	0	0	0	0	0	0	1	0	1	1	0	0	0
OTU 195	0	1	0	0	0	0	0	3	83	0	0	2	1	0	1	0	1	0	0	0	1	0	0	2	0	0	0	2	2	0	1	4	3	2	0	0	1	0	1	0	0	0	0	0	6	2	1	3	0	0
OTU 196	2	0	0	0	1	0	2	0	2	0	2	0	5	1	0	0	0	0	0	4	0	2	5	0	6	2	0	1	0	0	0	0	0	1	1	2	0	0	0	0	1	0	1	0	3	1	0	4	1	1
OTU 197	31	3	2	0	1	0	0	2	0	14	0	3	6	1	7	0	1	5	0	2	1	1	2	9	4	4	7	1	3	3	0	1	5	3	3	2	3	2	1	1	2	1	0	5	9	3	0	0	1	2
OTU 198	0	0	10	0	3	0	0	0	0	0	0	0	0	0	0	0	0	0	0	0	0	0	2	0	3	8	0	0	0	0	0	0	2	0	0	8	0	0	0	0	0	0	0	0	1	0	1	0	0	0
OTU 199	2	0	0	112	0	6	0	0	0	1	0	0	0	0	4	0	0	1	0	0	4	0	1	0	8	0	0	0	0	0	1	0	0	0	0	1	1	0	0	0	1	0	0	0	0	0	9	0	2	0
OTU 200	1	0	1	0	0	1	2	7	0	1	0	0	0	0	1	1	2	2	4	2	1	0	1	0	2	0	1	0	4	0	0	1	0	1	1	0	1	2	0	2	0	0	3	2	1	0	2	0	0	0
