	Host 1	Host 2	Host 3	Host 4	Host 5	Host 6	Host 7	Host 8	Host 9	Host 10	Host 11	Host 12	Host 13	Host 14	Host 15	Host 16	Host 17	Host 18	Host 19	Host 20	Host 21	Host 22	Host 23	Host 24	Host 25	Host 26	Host 27	Host 28	Host 29	Host 30	Host 31	Host 32	Host 33	Host 34	Host 35	Host 36	Host 37	Host 38	Host 39	Host 40	Host 41	Host 42	Host 43	Host 44	Host 45	Host 46	Host 47	Host 48	Host 49	Host 50	
OTU 1	1	6	1	0	4	5	0	6	3	0	0	2	2	0	2	3	3	0	0	0	0	0	0	3	0	4	1	1	0	0	4	0	0	0	9	1	0	1	2	2	0	0	2	0	1	1	2	1	0	4
OTU 2	0	0	0	0	0	0	0	1	1	0	0	0	0	3	2	0	0	0	1	0	0	0	0	0	0	0	0	0	0	0	0	0	0	4	1	2	0	0	0	0	0	1	0	0	0	0	0	0	0	0
OTU 3	3	4	0	0	0	0	0	0	3	0	0	1	0	0	3	1	3	0	0	6	0	1	0	2	0	2	0	0	4	0	0	0	2	2	2	0	0	2	0	0	0	2	1	3	1	0	0	0	1	2
OTU 4	0	0	0	0	0	0	0	0	0	0	0	0	0	0	0	0	0	0	0	0	0	0	0	0	0	0	0	0	0	0	0	0	1	0	0	0	0	0	0	0	0	0	0	0	2	0	0	0	0	0
OTU 5	1	0	0	6	2	47	17	4	0	4	0	11	5	47	16	9	18	0	17	14	31	1	30	1	3	3	35	34	53	6	7	24	0	9	0	6	25	12	0	13	0	0	55	6	2	0	9	6	10	17
OTU 6	0	1	2	0	0	1	0	0	0	1	2	0	0	0	0	1	0	0	0	0	0	1	4	0	2	2	1	0	0	0	1	0	4	0	0	0	1	2	0	0	0	2	1	4	6	1	3	0	2	1
OTU 7	3	3	9	2	1	1	13	4	6	7	5	0	1	0	13	7	8	3	1	0	0	4	5	2	7	1	6	0	1	1	3	4	0	0	11	3	2	1	4	6	1	9	1	3	1	19	13	0	2	1
OTU 8	0	0	1	4	0	11	28	2	4	0	7	1	3	5	0	4	5	1	4	1	2	6	1	4	1	0	1	0	17	3	0	4	1	1	0	1	0	0	1	27	5	3	10	4	3	5	33	1	0	0
OTU 9	1	1	2	0	0	1	86	1	0	0	0	0	0	0	3	0	0	0	0	0	1	1	0	29	3	0	1	0	1	5	1	0	0	0	0	0	0	0	3	82	1	0	0	0	0	13	0	2	1	0
OTU 10	5	0	3	0	0	3	0	0	0	3	1	0	0	0	1	0	0	1	2	1	0	0	0	3	0	0	0	0	0	0	0	0	0	0	0	2	0	0	2	0	0	0	0	0	0	0	0	0	0	0
OTU 11	2	0	10	0	2	0	0	1	0	4	0	5	11	1	6	0	1	12	0	1	0	5	2	4	5	0	0	2	1	0	2	0	1	0	10	4	8	7	0	2	3	4	1	0	4	5	0	2	2	1
OTU 12	0	5	4	1	0	0	0	3	6	0	0	0	2	7	0	3	3	8	4	3	1	1	0	2	4	0	5	0	0	2	0	1	0	0	0	1	1	0	1	1	5	1	1	0	0	1	1	1	3	1
OTU 13	0	0	0	0	0	0	0	0	0	0	0	0	0	0	0	0	0	0	0	0	0	0	0	0	2	0	0	0	0	0	0	0	1	0	1	0	0	0	1	0	0	0	0	0	0	0	0	0	0	0
OTU 14	0	0	0	2	0	2	0	2	0	0	0	0	0	0	0	0	0	0	0	3	0	1	0	1	0	0	0	0	0	0	0	0	0	5	0	0	0	1	0	0	0	0	0	0	0	2	0	0	0	0
OTU 15	0	0	0	0	0	0	0	0	0	0	0	0	1	0	0	0	0	0	0	8	0	0	0	0	0	0	0	1	0	1	0	1	0	0	0	0	4	0	1	2	0	0	0	0	0	0	0	0	0	0
OTU 16	0	0	0	0	0	0	0	0	0	1	0	0	0	0	0	0	0	0	0	0	0	0	0	0	0	0	0	0	0	0	0	0	0	0	0	0	0	0	0	0	0	1	0	0	1	0	0	0	0	0
OTU 17	1	0	0	3	4	8	1	0	2	0	0	1	0	0	0	0	0	2	9	2	0	0	8	4	0	1	0	0	0	0	0	0	5	3	23	1	0	6	0	0	6	2	0	0	27	0	2	1	0	0
OTU 18	1	5	1	10	6	5	0	12	2	1	1	0	2	0	0	0	0	0	1	0	0	4	1	4	0	0	1	66	0	0	3	59	8	1	6	0	123	1	2	0	4	2	0	1	12	12	2	0	0	6
OTU 19	0	0	0	0	0	0	0	0	0	0	0	0	0	0	0	0	0	0	0	0	0	0	0	0	0	0	0	0	0	0	0	0	0	0	0	0	0	0	0	0	0	0	0	0	0	0	0	0	0	0
OTU 20	0	3	3	0	3	6	0	1	1	1	0	0	1	10	0	0	0	7	1	14	1	1	1	0	0	0	1	0	0	0	0	0	0	2	8	0	0	0	1	0	10	1	0	5	1	0	0	0	0	0
OTU 21	7	1	0	4	5	0	1	0	0	0	0	0	58	0	3	12	0	0	0	4	0	0	0	2	2	116	1	26	0	1	5	22	1	12	6	2	37	1	1	0	2	4	2	3	0	6	2	0	1	0
OTU 22	2	1	7	3	1	1	0	1	12	2	0	1	1	0	1	0	1	2	0	1	2	7	0	3	1	0	2	2	0	0	6	0	2	0	6	0	4	2	1	0	0	6	0	0	1	7	0	3	0	0
OTU 23	3	0	0	0	1	0	0	1	1	0	0	0	0	0	0	20	0	1	1	1	65	0	4	0	0	9	1	0	0	0	0	0	0	20	0	0	0	0	0	0	0	1	3	0	0	0	0	1	0	0
OTU 24	3	0	0	0	0	0	1	0	0	0	0	0	0	1	0	0	0	0	1	0	0	0	2	2	0	0	0	1	0	0	0	0	0	0	1	0	2	0	0	0	0	0	0	0	1	0	0	0	0	0
OTU 25	0	11	0	0	0	0	4	0	3	0	0	0	0	0	0	0	0	0	0	0	0	0	0	0	0	0	0	0	0	0	0	0	0	0	0	0	0	0	0	0	0	0	0	0	0	0	0	0	0	0
OTU 26	0	1	1	0	0	0	0	0	0	0	1	0	0	4	0	0	0	1	0	1	0	0	0	0	0	1	2	0	1	0	0	0	0	1	0	0	0	0	3	0	0	0	0	0	0	0	3	0	0	0
OTU 27	0	0	0	0	0	0	0	0	0	0	0	0	0	0	0	0	0	0	0	0	0	0	0	0	0	0	0	0	0	0	0	0	0	0	0	0	0	0	0	0	0	0	0	0	0	0	0	0	0	0
OTU 28	5	3	41	2	5	1	3	1	9	17	4	2	48	0	27	4	7	1	1	5	1	0	1	0	2	1	41	11	0	0	0	14	0	1	4	2	22	5	2	23	3	2	1	8	3	108	51	2	2	0
OTU 29	2	6	0	0	0	0	3	0	0	4	2	1	1	0	1	3	0	1	0	8	0	13	0	0	0	1	0	0	3	103	0	2	0	0	0	4	4	0	0	0	1	2	0	0	0	1	0	0	0	42
OTU 30	0	0	0	0	0	0	0	0	0	0	0	0	0	0	0	0	0	0	0	0	0	0	0	0	0	0	0	0	0	0	0	0	0	0	0	0	0	0	0	0	0	1	0	0	0	0	0	0	0	0
OTU 31	1	1	0	0	0	0	0	2	0	0	0	0	0	3	0	2	0	0	0	4	78	0	1	0	64	0	0	1	28	0	0	0	1	1	0	0	5	0	0	0	3	1	0	0	0	0	0	0	3	0
OTU 32	9	4	2	0	0	0	1	0	5	2	4	0	1	0	1	3	2	6	4	5	5	0	1	6	6	3	0	15	3	0	0	0	1	3	2	0	0	2	14	0	1	4	0	2	0	1	0	0	0	0
OTU 33	0	0	0	0	0	0	0	0	0	1	0	0	0	0	0	0	0	0	1	0	0	0	0	0	0	0	0	0	0	0	0	0	0	0	0	0	0	0	0	0	0	0	0	0	0	0	0	0	0	0
OTU 34	16	4	1	2	0	0	3	2	1	0	0	0	0	5	0	2	3	14	0	0	0	1	0	0	0	0	3	0	0	0	1	0	1	1	0	3	0	0	1	0	0	2	0	0	3	1	1	13	0	0
OTU 35	0	1	9	1	0	1	0	0	0	0	0	4	0	0	0	0	0	1	1	2	2	2	0	0	0	0	0	0	0	0	0	0	0	4	0	0	0	0	1	99	4	0	0	1	1	2	4	3	5	0
OTU 36	4	13	0	3	1	3	4	0	0	1	0	0	0	0	0	1	2	0	2	1	3	0	6	0	0	0	0	0	0	0	1	0	0	0	1	0	0	0	1	0	1	2	0	1	0	0	2	0	0	0
OTU 37	0	0	2	0	0	0	4	0	4	0	0	0	1	1	0	0	0	0	0	1	0	0	0	0	0	7	0	1	0	0	0	0	0	0	0	3	0	0	0	0	0	0	0	0	2	0	0	0	0	0
OTU 38	4	4	0	1	1	3	3	0	0	1	4	3	1	2	0	2	2	2	0	0	0	1	0	6	0	0	2	0	0	0	2	0	5	0	3	0	1	12	0	0	4	4	20	0	13	1	0	2	0	0
OTU 39	0	2	1	1	0	1	0	0	0	0	1	0	0	0	0	0	0	0	0	1	0	1	1	0	0	0	0	0	0	0	0	1	0	0	0	0	0	0	0	0	0	0	5	0	0	0	0	0	0	0
OTU 40	12	0	1	12	3	1	1	0	4	0	1	0	0	2	0	6	0	1	1	0	1	0	5	0	3	3	0	0	1	4	0	0	1	7	1	3	1	1	0	1	0	1	0	0	0	1	2	0	1	0
OTU 41	0	3	0	1	1	1	28	3	0	0	0	1	0	0	0	0	0	0	0	0	0	0	0	5	0	0	0	0	0	0	0	0	2	2	5	1	1	2	2	1	1	0	0	5	2	1	1	1	0	0
OTU 42	1	0	0	0	1	0	0	0	0	0	1	0	1	0	0	0	0	1	0	2	0	0	0	3	0	0	0	0	0	0	0	0	0	0	0	0	0	0	0	0	0	0	1	0	0	0	0	0	2	0
OTU 43	0	0	1	0	0	0	0	0	0	0	0	0	0	0	0	0	0	0	0	0	0	0	0	0	0	1	3	0	0	0	0	0	0	0	0	0	0	0	0	0	0	0	0	0	0	0	0	0	0	0
OTU 44	0	0	0	0	0	0	0	0	0	0	0	0	0	0	0	0	0	1	0	0	0	1	0	0	0	0	0	1	0	0	0	0	2	1	1	0	0	0	0	0	0	0	0	0	1	0	0	0	1	0
OTU 45	13	1	1	0	5	0	4	0	2	7	13	1	4	3	4	0	11	1	8	0	0	6	5	5	7	1	1	0	0	0	1	1	1	1	3	2	2	0	1	1	6	2	0	5	1	0	2	1	4	0
OTU 46	1	0	0	0	1	21	0	1	1	0	1	2	7	2	0	6	1	10	9	3	0	7	1	0	8	1	0	0	0	0	0	1	2	2	3	2	0	1	1	2	0	0	0	2	1	2	0	0	2	102
OTU 47	11	0	0	2	0	0	0	1	1	0	0	0	0	0	1	0	0	0	0	0	0	0	0	5	0	0	0	0	0	0	0	0	0	0	0	0	0	0	0	0	0	0	2	0	0	0	1	0	0	0
OTU 48	0	8	1	1	5	2	6	6	8	0	1	38	3	0	0	2	4	1	8	5	0	5	0	0	6	3	25	19	6	0	2	0	2	0	0	3	0	2	5	0	0	0	2	0	8	0	0	27	0	0
OTU 49	0	2	2	1	0	0	0	0	0	0	0	0	1	0	1	0	0	0	0	0	0	0	0	0	0	0	2	0	0	0	0	0	5	0	0	0	0	0	6	0	0	0	0	0	3	0	0	0	0	0
OTU 50	6	0	0	6	2	6	2	9	1	39	0	1	3	1	108	1	4	0	0	1	0	0	0	0	0	1	1	3	0	3	0	0	1	1	1	1	1	1	0	3	8	9	1	3	1	0	0	0	1	0
OTU 51	0	0	2	10	3	4	1	0	0	0	1	0	0	0	1	0	0	2	0	2	0	0	0	0	2	1	0	0	0	3	0	0	0	0	5	0	0	0	0	1	0	5	1	1	0	0	0	1	7	0
OTU 52	1	1	13	3	7	2	1	2	0	1	9	1	0	5	4	1	2	16	1	0	2	11	2	2	5	0	1	0	26	1	2	37	1	1	5	1	0	2	14	1	4	4	0	0	2	0	1	0	11	1
OTU 53	0	0	0	0	0	0	0	0	0	0	0	0	0	0	0	0	0	0	0	0	0	0	0	0	0	0	0	0	0	0	0	0	0	0	0	0	0	0	0	0	0	0	0	0	0	0	0	0	0	0
OTU 54	6	4	1	2	6	0	3	0	1	0	10	1	3	0	0	10	0	2	4	0	0	8	2	4	3	12	3	1	1	0	2	0	0	1	5	3	0	2	2	1	1	2	0	0	1	2	1	0	5	2
OTU 55	0	0	0	0	0	0	0	1	0	0	0	0	0	0	0	0	0	0	0	0	0	0	0	0	4	0	0	0	1	0	0	0	0	0	0	0	0	0	0	0	0	0	0	0	0	0	0	0	0	0
OTU 56	0	3	1	1	0	0	0	0	0	0	0	0	0	0	0	0	3	1	0	0	0	0	0	1	2	2	0	0	1	0	0	0	0	0	0	0	0	0	0	0	0	2	0	1	5	0	1	0	7	0
OTU 57	11	1	7	2	10	40	2	8	3	1	4	6	7	6	0	4	0	10	4	2	1	4	7	13	1	2	5	3	3	3	6	7	0	4	17	6	11	15	2	3	12	3	88	3	3	9	11	8	2	0
OTU 58	0	0	6	1	0	0	3	0	2	0	0	0	0	0	1	0	0	1	3	0	0	0	0	0	0	0	5	0	0	0	0	0	0	0	1	3	0	0	1	0	2	0	1	0	1	5	4	1	0	0
OTU 59	2	1	0	2	3	0	0	0	0	0	12	2	1	0	0	2	8	0	1	7	0	0	0	2	0	0	0	0	0	0	0	0	3	0	1	0	0	2	1	1	1	1	0	2	4	0	6	0	0	0
OTU 60	0	1	59	5	1	0	0	12	1	19	2	1	0	0	41	1	2	7	1	9	1	23	1	3	37	0	26	1	13	3	0	1	3	5	7	1	1	0	2	4	66	8	4	4	2	3	15	0	2	1
OTU 61	9	8	0	1	24	0	7	1	5	4	16	1	0	1	0	0	4	1	1	9	0	9	0	1	4	0	3	0	7	1	0	0	1	1	0	0	0	1	1	0	3	7	1	15	1	0	0	0	0	9
OTU 62	0	0	0	1	1	0	1	0	2	0	3	0	0	0	0	0	0	0	0	0	0	0	3	0	0	0	0	0	0	0	0	1	0	0	0	0	0	0	0	0	0	0	0	0	0	0	0	0	0	0
OTU 63	8	6	0	20	2	2	0	0	0	0	3	3	0	2	0	26	2	4	0	0	0	0	0	1	3	13	0	1	0	0	1	0	0	24	5	0	2	2	0	0	0	0	0	0	0	1	0	4	0	0
OTU 64	1	2	0	2	0	1	0	2	5	1	35	3	0	4	1	2	0	1	0	0	1	0	2	10	2	0	0	0	4	3	1	0	1	2	1	4	1	0	2	0	5	0	0	2	1	4	2	0	2	0
OTU 65	0	0	0	0	0	0	0	0	0	0	0	0	0	0	0	0	0	0	0	0	0	0	0	0	0	1	0	0	0	0	0	0	0	0	2	0	0	0	0	0	0	0	0	0	0	0	0	0	0	0
OTU 66	0	5	0	2	0	2	0	2	22	0	0	0	0	2	0	0	13	7	1	6	1	0	0	0	2	0	1	1	1	0	3	0	1	1	2	0	1	2	5	0	0	1	0	0	3	0	3	0	0	0
OTU 67	2	2	1	4	1	0	0	2	4	0	4	0	2	0	0	4	3	2	3	10	3	11	0	1	0	0	0	0	4	1	2	0	12	0	0	0	0	0	4	0	0	4	0	8	29	1	2	0	4	1
OTU 68	0	2	0	1	38	0	0	7	2	0	2	0	0	0	1	3	0	0	0	0	2	0	2	1	4	5	0	0	0	5	0	0	2	2	0	1	0	0	0	0	6	0	1	0	5	3	7	0	0	0
OTU 69	5	2	2	1	0	0	0	2	0	2	1	2	0	0	2	1	2	0	4	0	0	0	2	0	0	0	0	0	0	2	0	0	1	1	2	0	2	5	10	5	1	3	2	1	3	0	0	0	2	1
OTU 70	0	3	0	0	0	2	0	4	2	1	0	0	1	0	0	0	0	8	3	0	0	0	0	0	1	0	0	0	0	4	0	0	0	0	1	1	0	0	0	0	0	2	0	1	1	0	0	0	0	0
OTU 71	1	0	2	0	0	0	0	0	2	0	0	0	0	1	0	1	0	0	5	0	0	0	0	1	0	0	0	0	0	0	0	0	0	0	0	0	0	0	0	0	0	0	0	0	0	0	2	0	0	1
OTU 72	2	0	1	3	3	28	5	5	0	0	1	0	1	1	0	5	1	0	0	5	1	0	0	8	1	1	2	3	2	1	0	3	2	0	3	2	1	1	0	0	0	0	1	4	0	0	2	1	0	0
OTU 73	5	6	2	1	0	1	0	2	1	0	0	0	0	0	2	2	5	0	92	1	1	0	2	1	1	6	2	0	0	0	0	0	1	4	3	1	0	0	0	1	2	0	0	0	1	0	0	0	2	1
OTU 74	0	0	2	1	0	2	2	3	3	0	0	0	0	16	0	2	1	13	0	1	0	0	0	0	0	1	0	0	0	0	0	2	2	0	2	9	2	0	1	0	0	0	0	0	3	0	4	0	0	0
OTU 75	1	0	1	97	7	3	8	1	1	0	9	1	0	0	1	1	1	4	0	2	1	1	3	8	2	15	0	0	1	0	0	2	1	41	18	3	0	1	2	4	1	21	0	0	4	3	2	1	0	0
OTU 76	0	0	1	0	3	9	0	1	0	0	0	0	0	0	0	0	0	0	0	2	0	0	3	7	0	0	0	0	0	0	3	0	0	0	7	0	0	3	0	0	0	0	1	0	0	0	0	0	0	3
OTU 77	3	3	0	1	1	2	1	2	1	0	0	3	0	1	1	1	1	0	1	0	1	0	4	0	0	0	0	0	0	0	1	0	1	0	2	2	0	0	0	0	1	8	0	2	2	0	0	1	1	0
OTU 78	1	3	3	3	1	5	3	2	2	0	1	0	0	1	0	2	0	1	4	1	1	0	1	4	0	0	1	0	0	0	1	0	3	2	0	0	0	2	4	0	2	1	1	0	7	0	0	0	0	0
OTU 79	2	7	3	9	10	8	3	14	10	0	45	16	6	2	6	3	8	3	2	2	14	4	19	18	11	7	88	13	8	34	6	11	1	15	12	14	16	15	6	2	7	13	20	7	6	19	4	7	1	4
OTU 80	3	1	1	0	0	0	2	2	2	0	1	0	1	7	6	4	1	5	3	0	0	8	1	1	3	0	1	1	2	2	0	1	6	0	0	1	2	0	8	2	2	5	4	0	3	4	3	0	1	0
OTU 81	5	0	0	3	3	1	1	13	4	1	6	0	24	3	1	0	2	3	2	1	4	1	3	1	1	0	3	10	1	81	1	5	0	1	0	66	11	1	0	0	0	0	4	1	0	0	1	0	85	0
OTU 82	9	0	0	1	0	0	0	0	0	0	7	0	0	9	1	1	0	10	0	0	3	4	0	74	0	3	0	0	1	0	0	0	1	4	0	2	0	1	8	0	3	2	0	0	1	1	2	183	10	0
OTU 83	0	0	1	0	0	0	1	0	0	0	0	0	0	0	0	0	6	0	0	6	0	0	0	0	0	0	0	0	0	0	0	1	0	3	0	2	2	3	0	0	0	1	0	0	0	0	0	0	0	1
OTU 84	0	5	1	0	0	0	0	3	0	3	0	0	4	2	0	1	0	0	0	0	0	1	0	1	0	0	0	0	0	1	0	0	0	2	5	6	0	0	0	1	0	2	0	2	1	0	0	0	0	0
OTU 85	0	4	0	0	0	0	3	0	3	2	1	0	0	0	0	1	0	0	8	0	0	0	0	0	0	1	1	0	0	0	0	0	0	0	0	0	0	0	0	1	0	0	0	0	0	2	1	0	0	0
OTU 86	0	0	0	1	0	0	0	0	0	0	0	0	0	0	0	0	0	0	0	1	0	0	0	0	0	0	0	0	0	0	0	0	0	1	0	0	0	0	2	0	0	0	0	0	0	0	0	0	0	0
OTU 87	18	6	0	0	0	0	1	0	0	0	0	1	0	0	0	5	0	1	0	0	0	0	0	0	0	0	0	0	83	0	0	0	0	0	0	0	0	0	0	0	0	0	4	0	0	0	0	0	3	0
OTU 88	0	0	0	1	0	0	0	0	0	0	0	0	0	0	0	1	0	0	0	5	0	0	1	0	0	0	0	0	1	0	0	0	0	0	0	0	0	0	0	0	0	0	0	0	0	0	0	0	24	0
OTU 89	13	1	3	0	0	0	0	2	4	1	2	0	0	11	1	0	5	13	1	0	1	3	1	0	0	0	0	0	0	0	0	0	0	1	1	0	0	0	0	0	0	1	0	0	0	0	0	0	1	0
OTU 90	0	0	2	0	0	0	0	1	0	0	0	0	0	0	0	0	0	1	0	0	0	0	0	0	0	0	0	0	0	0	0	0	0	0	0	0	0	0	0	0	7	0	1	0	0	0	0	0	0	0
OTU 91	0	0	0	0	0	1	0	0	0	0	0	0	0	0	0	0	0	0	0	0	0	0	0	0	0	0	0	0	1	0	0	0	0	0	2	0	0	2	0	0	6	0	1	1	1	0	0	0	0	0
OTU 92	0	0	0	0	3	0	0	0	0	0	1	0	0	1	0	0	0	2	0	0	0	1	2	1	0	0	0	0	0	0	1	0	0	0	5	0	1	0	0	0	0	0	0	0	0	0	0	0	0	0
OTU 93	0	0	0	0	0	0	1	0	0	0	0	0	0	0	0	0	0	0	0	0	0	0	0	0	0	0	0	0	0	0	0	0	0	0	0	1	0	0	0	0	0	0	0	0	0	0	0	0	1	0
OTU 94	1	0	1	1	0	1	1	0	6	0	6	0	5	3	1	5	3	0	2	5	0	0	2	1	6	2	0	1	0	0	0	0	1	6	1	4	0	0	0	0	2	2	0	0	0	2	5	1	3	0
OTU 95	0	0	0	0	1	2	1	35	0	0	0	3	0	0	0	4	0	0	1	0	0	2	1	6	5	2	0	0	0	12	0	0	3	3	5	0	0	0	0	0	10	0	0	0	6	0	6	0	0	1
OTU 96	0	0	0	0	0	1	0	0	0	0	0	0	2	0	0	0	0	4	0	2	0	0	2	0	0	0	0	0	0	0	0	0	0	0	0	0	0	1	0	0	0	0	0	0	0	0	0	0	5	0
OTU 97	0	0	0	0	0	0	0	1	0	0	0	0	0	0	0	0	0	0	0	2	0	0	0	0	1	0	0	0	0	0	0	0	0	2	0	0	0	0	0	0	0	0	0	0	0	3	0	0	2	0
OTU 98	0	1	0	0	0	0	4	2	4	0	1	0	1	0	0	0	0	0	0	1	0	0	0	0	0	0	1	0	0	1	0	1	1	0	0	4	0	0	0	1	0	1	0	0	2	1	0	0	0	0
OTU 99	2	2	1	0	4	2	0	18	2	0	5	1	0	0	0	15	0	0	2	1	0	78	0	0	4	3	1	0	2	11	0	0	0	0	1	1	0	2	2	0	1	0	1	3	1	2	0	0	1	0
OTU 100	3	2	0	4	0	2	3	2	0	0	4	2	0	0	0	0	0	2	2	0	0	1	0	0	0	0	0	0	0	0	0	0	0	1	1	2	0	0	0	0	1	0	0	0	2	2	0	1	0	0
OTU 101	0	0	0	0	0	0	0	0	0	0	0	0	0	0	0	0	0	0	0	0	0	0	0	0	0	0	0	0	0	0	0	0	0	0	0	0	0	0	0	0	0	0	1	0	0	0	0	0	0	0
OTU 102	0	0	0	0	0	0	0	0	3	0	0	0	0	0	0	1	12	0	0	0	0	1	1	0	0	0	0	0	3	0	0	0	0	1	0	0	0	0	0	0	1	1	0	0	0	0	0	0	0	0
OTU 103	4	10	0	0	0	0	1	0	2	0	0	0	1	0	0	0	0	2	0	0	1	3	0	0	6	7	0	0	0	0	1	0	0	0	1	0	0	2	5	0	6	61	7	0	0	0	0	0	0	0
OTU 104	3	3	0	0	0	2	0	3	0	0	0	1	0	2	0	1	8	4	1	0	4	2	8	4	4	0	4	0	5	5	3	0	0	0	7	1	2	5	0	0	3	0	0	0	1	4	3	0	2	0
OTU 105	0	1	0	0	0	0	0	0	1	0	0	0	0	0	0	0	0	0	2	0	0	0	0	0	0	0	0	0	2	0	0	0	0	0	0	0	0	0	0	0	1	0	1	2	0	0	2	0	1	0
OTU 106	0	0	0	0	81	0	0	0	1	0	2	2	0	5	0	0	0	0	0	0	0	0	0	0	0	4	0	0	0	0	0	0	0	0	2	0	0	0	2	0	0	0	1	0	0	0	0	1	0	0
OTU 107	0	0	2	0	0	0	0	0	11	0	0	0	0	0	0	0	0	5	0	0	0	0	0	0	6	0	2	0	0	0	1	0	0	0	0	0	0	0	0	0	0	0	0	0	0	1	0	0	0	1
OTU 108	0	1	2	0	1	0	0	1	0	0	0	0	1	2	0	0	14	0	0	1	0	0	0	2	0	0	0	0	0	1	0	0	0	0	0	0	0	4	0	0	0	0	0	0	0	0	4	0	1	0
OTU 109	0	0	0	0	0	0	0	0	0	0	0	0	0	0	0	0	0	0	0	0	0	0	0	0	0	0	0	0	0	0	0	0	0	0	0	0	0	0	0	0	0	0	0	0	0	0	0	0	0	0
OTU 110	9	0	1	0	1	5	0	0	5	0	3	1	2	5	0	0	1	1	0	0	2	2	1	3	0	0	0	0	3	0	0	0	0	1	0	1	0	0	2	0	2	0	0	2	0	4	0	0	0	0
OTU 111	0	0	0	0	0	0	0	0	0	0	0	0	0	0	0	2	0	1	0	0	0	0	0	0	0	0	0	0	0	0	0	0	0	0	0	0	0	0	0	0	0	0	0	0	0	0	0	0	0	0
OTU 112	6	1	0	0	0	0	0	0	1	1	1	0	0	0	0	2	1	2	0	0	1	0	2	0	0	0	0	0	0	0	0	0	0	0	0	1	1	0	0	0	0	0	0	0	0	1	0	0	0	0
OTU 113	1	0	0	0	0	0	2	0	0	0	0	0	0	0	0	0	0	0	2	1	0	0	2	0	0	0	0	0	0	0	0	0	0	0	0	1	0	0	2	0	0	0	0	0	2	0	0	0	0	0
OTU 114	3	1	3	3	4	5	0	3	18	1	10	0	0	1	0	0	33	3	4	4	17	3	2	2	8	2	0	0	10	4	83	1	0	0	4	4	0	0	0	0	7	8	1	1	1	0	0	0	1	36
OTU 115	0	0	80	2	0	4	1	3	0	34	0	0	4	3	54	1	7	4	8	3	5	4	0	1	1	0	26	0	4	0	1	0	1	2	1	12	4	3	0	0	5	1	11	2	7	1	0	0	0	1
OTU 116	2	0	1	0	1	3	0	0	12	1	0	4	2	1	3	1	1	8	0	16	1	0	0	1	7	1	1	0	2	3	1	0	0	5	0	0	0	2	0	0	2	0	2	0	0	1	0	0	1	1
OTU 117	0	0	5	4	0	1	2	2	2	0	0	0	0	1	2	1	2	0	0	1	0	3	1	0	1	10	0	0	1	1	1	0	0	1	0	7	0	4	0	0	0	0	1	5	0	6	0	0	2	0
OTU 118	0	0	0	0	0	3	1	0	0	0	0	0	0	0	0	0	0	0	2	0	0	0	0	0	0	3	0	0	0	0	2	0	0	0	0	0	0	0	32	0	0	0	0	0	0	0	0	0	4	0
OTU 119	5	0	0	0	1	1	1	1	10	0	2	1	12	12	7	0	1	14	0	0	1	3	0	3	4	0	1	2	1	1	1	2	1	0	1	10	2	1	1	17	0	6	0	1	1	4	0	0	1	0
OTU 120	1	0	0	1	0	0	0	0	0	1	4	1	0	0	0	0	0	0	0	0	0	0	0	0	3	0	0	0	0	0	0	0	0	0	0	0	0	0	0	0	1	0	0	8	0	0	1	0	4	0
OTU 121	7	0	0	1	0	0	21	1	0	0	2	0	0	0	1	0	0	0	4	1	0	0	1	0	0	0	2	0	0	0	0	0	0	0	2	0	0	0	0	0	1	2	0	3	0	0	0	1	1	0
OTU 122	1	3	0	0	8	0	0	2	0	0	0	1	0	55	0	0	0	2	0	0	0	3	1	0	4	1	0	0	2	0	0	0	0	0	8	0	0	0	2	0	2	0	0	0	0	1	0	3	0	0
OTU 123	5	3	10	0	0	12	16	4	16	0	12	6	2	0	3	1	19	7	7	4	1	13	6	6	5	4	4	0	6	3	4	19	3	1	12	10	2	17	16	9	7	17	6	72	8	16	16	3	2	2
OTU 124	0	0	0	1	0	0	3	0	0	0	1	0	0	1	0	2	0	3	0	0	0	1	2	1	0	0	0	0	0	0	1	0	0	1	0	0	0	0	0	0	1	0	0	0	0	0	0	0	0	0
OTU 125	10	9	6	14	2	6	0	7	1	0	19	0	16	5	1	12	9	3	1	10	60	13	2	2	5	1	0	7	3	2	4	10	2	2	2	33	22	1	103	2	7	6	9	87	6	4	1	1	37	1
OTU 126	0	0	0	0	0	0	0	0	0	0	0	0	0	0	0	0	0	0	0	0	0	0	0	0	0	2	0	0	0	0	0	0	0	0	0	0	0	0	0	0	0	3	0	0	0	0	0	0	0	0
OTU 127	1	1	1	0	0	0	2	0	0	0	0	0	0	0	0	0	3	0	0	0	1	0	0	2	0	2	0	0	0	0	1	0	0	1	0	1	0	0	2	1	0	0	0	0	1	0	2	0	0	0
OTU 128	7	15	0	6	4	10	1	5	22	6	6	1	0	3	12	29	4	36	2	0	1	9	5	8	6	2	1	0	0	2	4	1	42	9	7	4	3	6	3	5	12	7	5	11	1	4	6	0	5	1
OTU 129	0	0	0	0	0	0	0	3	0	0	0	0	0	0	0	20	0	0	0	0	0	0	0	0	0	1	0	0	1	0	0	0	0	22	0	0	0	0	0	0	0	0	0	0	3	0	0	0	0	0
OTU 130	5	3	0	0	0	0	3	6	2	0	3	18	1	0	0	2	3	1	0	1	1	2	29	0	0	0	0	0	1	1	8	0	0	0	0	0	0	22	0	0	0	13	4	0	1	0	0	6	4	3
OTU 131	1	0	0	0	1	0	0	15	6	0	0	4	0	0	0	4	2	1	0	0	0	0	0	0	6	7	0	0	1	9	4	0	0	1	2	0	1	7	1	1	2	0	0	0	0	0	0	0	0	1
OTU 132	0	0	0	0	0	0	0	0	3	0	1	0	1	0	0	1	0	0	6	0	1	0	0	0	0	0	0	0	0	0	0	0	0	0	1	0	0	0	0	0	0	4	2	0	1	0	1	0	0	0
OTU 133	1	0	0	0	0	0	0	0	0	0	0	0	0	0	0	0	0	0	0	0	1	0	0	0	0	0	0	0	0	0	0	0	1	0	0	0	0	0	0	0	0	0	0	0	2	1	0	0	0	0
OTU 134	0	0	8	2	0	1	0	2	0	1	13	0	0	0	0	0	0	2	2	3	0	0	0	0	0	5	3	0	1	0	0	1	1	1	0	0	0	1	0	0	5	4	2	1	0	0	0	0	1	1
OTU 135	7	0	0	2	0	0	0	0	8	0	4	0	0	0	0	3	1	0	2	1	0	0	0	2	1	0	0	0	0	0	2	1	0	0	0	0	0	1	0	3	1	2	2	0	0	0	9	0	0	1
OTU 136	0	0	0	3	1	0	0	0	0	0	3	5	0	0	0	1	2	0	0	20	0	0	80	0	0	0	0	0	1	0	3	0	12	1	5	0	0	6	0	1	1	0	0	2	14	0	1	3	0	0
OTU 137	0	0	0	0	0	0	0	0	0	0	0	0	1	0	1	0	0	0	0	0	0	0	0	0	0	0	2	0	0	0	0	0	0	1	0	0	0	0	0	3	0	0	0	0	1	3	1	0	20	0
OTU 138	0	1	3	0	2	0	0	1	2	0	1	0	0	0	0	0	0	0	0	2	1	0	2	0	0	0	0	0	0	0	0	0	0	0	0	0	0	0	0	0	0	0	1	0	0	0	0	0	0	1
OTU 139	11	4	6	2	4	10	2	6	4	4	1	2	1	0	2	0	1	0	1	2	2	23	4	6	4	2	2	0	0	3	0	124	0	0	6	1	0	10	2	30	1	0	0	2	0	0	82	2	5	1
OTU 140	0	3	11	7	5	4	3	6	12	24	2	0	0	1	3	11	16	5	2	6	3	3	3	1	3	9	4	0	2	7	1	2	160	1	4	6	0	6	0	2	0	17	1	35	2	5	7	0	1	38
OTU 141	0	0	0	0	0	0	0	0	0	0	0	0	0	0	0	0	0	0	0	0	0	0	0	0	0	1	0	0	0	0	0	0	0	0	0	0	0	0	0	0	0	0	0	0	0	0	0	0	0	0
OTU 142	0	0	0	0	0	0	0	0	0	0	0	0	0	0	0	0	0	0	0	0	0	0	0	0	0	0	0	0	0	0	0	0	0	0	0	0	0	0	0	0	0	0	1	0	0	0	0	0	1	0
OTU 143	0	0	0	0	0	0	0	0	0	0	4	0	0	0	0	0	0	1	0	3	0	0	0	0	0	0	0	0	0	0	0	0	0	0	0	0	0	0	0	0	0	0	0	0	3	9	0	0	0	0
OTU 144	1	1	0	0	1	0	2	0	0	0	0	0	0	0	0	0	0	0	0	0	0	0	0	0	0	0	0	0	0	0	2	0	1	0	0	0	0	0	0	0	0	0	0	0	2	0	0	0	0	0
OTU 145	9	41	0	0	0	2	8	6	0	0	2	0	0	17	2	0	5	26	2	1	0	5	0	0	2	0	1	0	0	1	1	0	0	0	0	0	0	0	4	0	4	0	1	6	0	1	0	0	44	1
OTU 146	0	7	1	0	0	0	0	2	0	136	0	0	1	2	6	1	1	2	9	1	1	0	0	0	5	2	3	0	0	1	1	0	2	1	1	1	1	1	0	6	1	1	2	0	2	0	3	0	2	0
OTU 147	0	0	0	0	0	1	0	1	1	0	0	1	0	2	0	0	5	0	1	0	11	0	0	0	0	0	0	0	0	1	10	0	0	1	0	1	0	0	0	0	0	1	0	1	0	0	0	0	0	4
OTU 148	2	2	1	0	0	0	0	0	0	0	0	0	0	2	0	0	0	0	0	0	0	0	0	0	0	47	0	0	0	2	0	0	0	93	0	1	0	0	1	2	2	2	0	3	3	3	0	0	3	0
OTU 149	9	0	0	0	0	0	0	1	0	0	0	0	0	0	0	0	0	1	0	3	1	1	1	0	0	0	0	0	1	0	0	0	0	4	2	0	0	1	0	0	3	0	0	0	0	0	0	0	0	0
OTU 150	0	0	3	0	0	0	0	0	0	0	0	0	0	0	3	0	0	0	0	0	0	16	0	0	0	0	3	0	0	1	0	0	0	0	0	3	0	0	2	7	9	1	0	0	0	0	8	0	0	0
OTU 151	1	0	0	1	4	1	0	2	0	0	1	0	0	0	2	0	3	0	0	0	0	1	0	1	3	1	0	0	3	0	0	0	0	0	1	1	0	0	1	0	0	0	34	1	0	1	0	0	2	0
OTU 152	0	2	0	3	1	0	0	11	5	0	2	0	0	4	1	6	0	8	2	0	0	0	1	0	3	0	0	0	0	3	1	1	0	1	2	3	0	0	1	0	8	2	1	0	1	1	4	0	0	0
OTU 153	0	0	0	0	0	0	0	0	0	0	0	0	0	0	0	0	0	0	0	0	0	0	0	0	0	0	0	0	0	0	1	0	0	0	0	0	0	0	0	0	1	0	0	0	0	0	0	0	0	0
OTU 154	0	0	0	0	0	0	0	0	0	0	0	0	0	0	1	0	0	0	0	0	0	0	0	0	0	0	0	0	0	0	0	0	0	0	0	0	0	0	0	0	0	0	0	0	0	0	0	0	0	0
OTU 155	0	1	0	29	0	0	0	3	0	0	0	0	0	0	0	2	0	0	0	0	0	0	0	0	1	0	0	0	0	3	0	0	0	2	0	2	0	0	2	4	0	2	0	1	1	0	1	0	0	0
OTU 156	0	0	0	4	0	0	0	1	4	0	2	0	2	2	0	3	7	0	1	70	0	1	3	0	1	0	3	0	1	4	0	0	0	1	1	8	1	1	0	0	0	5	4	2	1	0	1	0	1	0
OTU 157	0	0	0	0	0	0	0	0	0	0	0	0	0	6	0	0	0	11	0	5	0	0	0	0	0	0	0	0	0	0	0	0	0	0	0	0	0	0	0	0	0	0	0	0	0	0	0	0	1	0
OTU 158	0	0	0	0	0	0	0	0	0	0	0	0	0	0	0	0	0	0	0	0	0	0	0	0	0	0	0	0	0	0	0	0	0	0	0	0	0	0	0	0	0	0	0	0	0	0	0	0	0	0
OTU 159	8	8	0	0	0	0	1	0	0	0	0	2	0	38	0	0	0	0	0	0	1	0	0	3	9	0	0	0	2	0	0	0	0	1	2	2	0	0	0	0	4	1	0	0	0	2	0	2	0	0
OTU 160	5	7	0	8	5	4	1	8	3	0	4	6	1	5	1	1	1	2	4	11	1	13	8	5	2	0	1	0	1	1	0	0	4	8	10	2	0	4	2	1	11	1	1	7	10	13	6	0	0	2
OTU 161	1	3	2	0	0	0	0	0	3	0	0	8	0	10	0	3	4	2	3	2	4	0	0	37	1	1	0	0	0	0	0	0	0	0	1	0	0	1	0	0	0	0	0	0	0	17	0	2	0	0
OTU 162	0	7	0	5	0	0	5	0	0	0	0	0	1	1	0	0	3	2	1	0	0	2	1	3	1	0	0	1	0	0	0	1	1	3	0	3	0	0	14	0	0	0	0	1	4	4	1	0	1	0
OTU 163	0	0	0	0	0	0	0	0	0	0	0	0	0	0	0	0	0	0	0	0	0	0	0	0	0	1	0	0	0	0	0	0	0	0	0	1	0	0	0	0	0	0	0	0	0	0	0	0	2	0
OTU 164	0	0	0	0	0	0	0	2	0	0	2	0	0	0	0	0	0	0	0	0	0	0	0	0	0	0	0	0	0	0	0	0	0	0	0	0	0	0	0	0	0	0	0	0	0	0	0	0	0	0
OTU 165	1	1	0	3	0	1	0	1	0	2	0	0	1	0	0	0	2	0	5	0	0	0	0	0	0	0	0	0	0	0	0	0	1	0	0	0	1	0	8	0	0	3	0	0	1	0	0	0	0	0
OTU 166	0	0	0	0	0	0	0	0	0	0	0	1	0	0	0	0	1	0	0	0	0	0	0	0	0	0	0	0	0	0	0	0	0	0	0	0	0	2	0	0	0	0	0	0	0	0	0	1	0	0
OTU 167	0	4	10	1	0	0	0	9	8	2	0	0	0	0	3	4	0	0	1	3	2	0	0	0	7	0	1	0	6	2	0	0	0	3	0	0	0	0	2	0	0	1	4	0	2	1	0	0	2	0
OTU 168	1	0	0	2	1	2	5	1	0	0	1	2	0	0	0	1	0	2	0	0	0	0	0	0	1	0	0	0	2	1	0	0	1	0	1	0	1	0	0	1	1	1	0	1	3	0	1	1	0	0
OTU 169	0	0	0	0	0	0	0	0	0	0	0	0	0	0	0	0	0	0	0	0	0	0	0	5	0	0	0	0	0	0	0	0	0	0	0	0	0	0	0	0	1	0	0	0	0	0	1	0	0	0
OTU 170	0	0	0	0	0	0	0	0	0	0	0	0	0	0	0	0	0	0	0	0	0	0	0	0	0	0	0	0	2	0	0	0	0	0	0	0	0	0	0	0	0	0	0	0	0	0	0	0	0	0
OTU 171	0	3	4	3	11	33	2	0	5	0	9	1	0	0	0	0	1	0	1	6	0	1	13	10	3	0	0	0	0	0	10	0	0	0	21	1	0	8	0	0	1	0	0	2	0	0	0	2	2	2
OTU 172	0	1	0	0	0	0	0	8	0	1	0	0	0	0	0	0	0	0	0	0	0	0	0	0	0	0	0	0	0	5	0	0	0	0	0	0	0	0	0	0	0	0	0	0	0	0	0	0	0	0
OTU 173	0	2	0	0	2	2	0	0	4	0	0	0	1	0	1	0	0	0	0	0	0	1	4	0	0	0	0	0	0	0	0	0	0	0	0	0	0	6	0	0	0	1	0	0	0	0	0	0	0	2
OTU 174	0	0	0	5	0	0	2	0	0	0	3	0	0	0	0	0	0	0	1	1	1	0	1	0	1	0	0	0	1	0	63	0	0	1	0	0	0	0	1	0	3	0	0	2	0	0	3	0	2	46
OTU 175	0	4	0	0	0	0	0	0	0	0	1	0	0	2	2	2	3	0	1	0	2	0	0	0	0	2	0	0	0	0	0	0	0	0	0	2	0	2	3	0	0	0	0	0	0	0	0	0	0	0
OTU 176	2	2	1	3	1	0	0	2	0	1	3	0	2	0	7	16	7	1	2	0	0	2	0	0	0	0	2	0	1	2	0	1	0	0	0	12	2	1	1	0	3	1	2	1	0	1	0	0	3	0
OTU 177	6	5	0	0	4	3	0	0	0	1	0	3	1	3	0	2	4	4	1	0	2	0	0	0	0	1	1	0	9	0	2	0	0	1	18	0	0	3	0	2	0	1	0	0	0	1	1	2	3	0
OTU 178	0	0	0	7	0	1	0	0	0	0	0	1	0	0	0	2	5	2	0	0	1	0	1	5	0	0	0	0	2	0	0	0	0	0	0	0	0	1	1	0	0	3	0	3	0	0	1	0	0	0
OTU 179	3	0	1	0	0	0	0	12	9	0	0	1	0	0	0	4	2	0	0	1	0	0	1	1	1	0	1	0	0	12	0	0	0	0	2	0	0	0	0	0	0	0	0	0	0	1	0	3	4	3
OTU 180	3	4	0	4	46	3	17	4	12	1	5	53	9	2	4	5	13	0	18	27	7	3	3	2	1	3	5	0	6	5	34	1	5	2	3	2	1	85	1	0	1	4	5	2	7	2	0	18	2	16
OTU 181	0	0	2	0	0	0	2	0	0	0	0	0	5	1	1	0	0	1	0	0	0	1	0	0	0	3	0	0	0	0	0	0	0	0	1	1	0	0	0	1	2	2	12	0	0	0	0	0	0	0
OTU 182	0	0	0	0	0	0	2	0	0	0	0	0	0	0	0	0	0	0	0	0	0	0	0	0	0	0	0	0	0	0	0	0	0	0	0	0	0	0	0	0	0	0	0	0	0	0	0	0	0	0
OTU 183	0	0	1	0	0	0	0	1	1	0	0	1	0	1	0	9	0	0	1	0	0	0	3	0	3	5	0	0	3	0	1	0	0	2	0	0	0	0	0	1	0	0	0	0	0	0	0	0	0	0
OTU 184	0	0	1	0	0	0	1	0	0	1	2	0	1	0	3	2	0	0	1	0	0	0	0	0	0	0	0	0	0	1	0	0	0	0	1	3	0	0	0	0	0	1	1	0	0	1	0	0	0	0
OTU 185	0	0	2	2	0	0	2	0	3	2	0	0	1	0	0	1	5	2	0	0	3	2	0	1	15	0	0	1	0	1	0	0	3	1	6	7	3	5	1	0	11	0	0	4	1	0	0	0	0	1
OTU 186	0	0	0	0	0	6	0	0	0	0	0	0	7	0	0	0	0	0	1	0	0	0	0	0	13	3	0	1	8	0	0	3	0	0	1	0	4	0	0	0	14	0	0	0	0	0	0	0	0	0
OTU 187	2	36	0	2	1	0	11	4	3	0	2	112	100	1	4	2	2	0	1	0	6	0	11	1	0	2	1	27	0	1	0	23	0	1	0	45	49	1	1	0	3	1	15	1	4	0	1	51	0	0
OTU 188	2	4	1	8	1	0	3	6	8	0	4	0	1	0	0	2	1	3	0	0	0	1	5	2	0	1	1	1	0	1	0	0	4	1	0	0	0	0	0	0	2	2	0	1	7	8	2	0	1	0
OTU 189	0	1	2	0	1	1	1	1	5	2	2	3	0	1	2	0	0	2	45	1	1	3	22	4	1	5	3	39	4	1	2	0	3	1	1	7	1	7	0	0	3	5	0	0	2	3	0	1	0	1
OTU 190	2	0	0	0	0	0	0	0	0	0	0	4	0	4	0	0	0	10	1	0	0	0	0	0	0	5	0	0	0	0	0	0	0	1	0	1	0	0	1	0	0	4	0	0	0	0	0	1	0	2
OTU 191	1	1	0	0	0	0	0	0	0	0	3	1	3	2	0	2	0	1	6	5	1	1	4	2	1	2	0	2	2	0	0	1	1	0	0	2	2	0	0	2	0	18	7	0	5	3	4	0	0	0
OTU 192	3	2	0	1	0	1	0	16	0	0	2	0	2	9	0	0	4	2	0	1	0	1	0	0	15	5	29	0	2	6	2	0	2	0	1	0	0	0	1	2	12	9	1	9	0	3	0	0	2	0
OTU 193	3	3	0	1	0	2	0	1	0	1	1	19	0	1	0	2	23	1	2	0	10	0	3	0	0	0	0	0	1	0	20	0	2	0	1	0	0	30	2	2	1	0	0	0	0	1	2	12	0	17
OTU 194	2	1	0	0	6	2	0	4	4	41	0	0	0	0	0	6	0	0	3	0	0	2	2	0	0	0	0	0	1	1	37	0	34	0	0	1	0	2	0	0	3	0	2	0	74	0	1	0	0	10
OTU 195	0	0	0	0	0	2	0	0	0	0	0	0	0	3	0	4	1	0	0	1	2	7	0	0	0	0	4	0	2	0	2	0	0	0	0	0	0	0	0	0	2	0	1	0	0	1	0	0	3	0
OTU 196	0	1	0	0	3	1	0	1	0	2	11	0	0	0	2	0	1	0	0	1	0	1	0	0	0	1	1	0	0	4	0	0	0	4	2	0	0	0	27	0	1	0	1	2	0	1	0	0	0	0
OTU 197	11	11	4	8	8	5	4	5	2	1	0	5	1	5	1	6	2	1	10	0	7	1	11	6	1	5	7	100	6	0	14	2	9	0	22	9	0	13	6	1	1	5	1	2	7	1	1	4	1	1
OTU 198	0	0	0	0	1	0	0	0	0	0	0	2	0	0	0	15	3	1	0	0	0	0	0	0	0	1	0	0	1	0	0	0	0	1	0	0	0	0	0	0	0	0	0	0	0	1	1	0	0	0
OTU 199	0	0	1	0	0	8	1	0	4	1	0	0	0	3	1	2	0	1	2	0	0	4	1	0	2	1	1	0	1	0	1	0	0	1	0	0	0	1	5	1	2	1	1	0	0	0	1	1	0	0
OTU 200	0	0	1	0	1	0	0	0	0	0	3	5	0	1	0	0	0	5	0	0	1	2	4	1	2	1	0	0	1	0	1	0	6	2	4	0	0	2	5	0	7	1	1	0	5	7	1	3	0	0
