	Host 1	Host 2	Host 3	Host 4	Host 5	Host 6	Host 7	Host 8	Host 9	Host 10	Host 11	Host 12	Host 13	Host 14	Host 15	Host 16	Host 17	Host 18	Host 19	Host 20	Host 21	Host 22	Host 23	Host 24	Host 25	Host 26	Host 27	Host 28	Host 29	Host 30	Host 31	Host 32	Host 33	Host 34	Host 35	Host 36	Host 37	Host 38	Host 39	Host 40	Host 41	Host 42	Host 43	Host 44	Host 45	Host 46	Host 47	Host 48	Host 49	Host 50	
OTU 1	1	1	0	2	0	2	0	2	2	2	3	2	0	4	0	0	1	6	29	12	1	0	4	4	3	4	2	2	0	0	5	8	5	1	13	4	12	6	6	3	0	3	3	2	7	2	0	3	0	5
OTU 2	0	0	0	0	0	0	0	0	0	0	1	0	1	0	0	1	1	0	0	0	0	0	1	0	0	1	1	1	0	1	0	1	0	0	2	0	0	0	0	0	0	0	0	0	0	0	0	0	0	0
OTU 3	1	0	15	0	0	0	3	0	21	1	0	0	0	1	0	0	0	0	3	0	1	0	0	0	0	1	0	1	0	0	0	0	0	0	0	5	0	2	0	21	0	0	0	1	0	0	1	0	0	0
OTU 4	0	0	0	0	0	0	0	0	0	0	0	0	0	0	0	0	0	0	0	0	0	0	0	0	0	0	0	0	0	0	0	0	0	0	0	0	0	0	0	0	0	0	0	0	0	0	0	0	0	0
OTU 5	12	29	17	15	2	14	48	15	9	16	15	9	28	18	41	0	28	3	17	10	6	56	9	43	6	49	8	11	41	7	10	19	15	0	37	12	40	15	25	24	1	5	12	13	14	5	10	55	6	20
OTU 6	2	4	0	0	2	0	5	3	0	0	0	0	2	1	0	0	0	2	6	0	0	1	1	1	29	0	0	2	0	0	0	5	0	0	0	0	2	1	0	0	0	0	0	0	0	56	19	1	2	1
OTU 7	0	0	0	6	3	0	2	0	0	9	10	2	7	1	6	0	13	4	0	4	1	4	0	3	2	5	3	1	0	0	1	1	6	0	3	0	1	3	1	0	0	19	7	6	6	1	9	17	0	1
OTU 8	0	0	2	1	3	0	2	2	2	1	6	3	3	5	4	8	0	10	16	4	2	2	1	4	3	4	1	0	0	2	1	2	1	4	8	2	13	15	0	0	3	2	5	2	1	1	6	0	0	6
OTU 9	0	0	1	2	0	0	4	0	0	0	0	2	0	0	0	0	3	0	0	0	0	0	0	0	0	0	0	0	0	1	0	1	0	0	1	0	1	0	1	1	1	0	0	1	3	0	0	0	0	0
OTU 10	0	1	0	0	0	0	0	0	0	0	0	0	0	0	2	0	0	6	1	1	0	0	0	0	0	0	1	0	0	1	0	0	3	0	0	0	0	0	1	3	0	0	0	1	0	0	1	0	0	0
OTU 11	0	1	0	4	0	0	2	0	0	1	2	3	0	0	1	6	3	0	0	2	0	0	0	0	0	0	1	2	0	0	4	0	0	1	0	0	0	3	0	1	4	3	1	1	3	0	4	1	3	1
OTU 12	0	1	1	1	9	0	1	0	2	4	0	0	1	0	1	4	10	0	0	0	0	1	4	3	1	0	0	0	0	0	0	1	1	1	1	9	1	0	0	0	0	2	0	2	1	4	0	3	6	0
OTU 13	0	0	0	0	0	0	0	0	0	0	0	0	0	0	0	0	0	0	0	0	0	0	0	0	0	1	0	0	0	0	0	0	0	0	0	0	0	0	0	0	0	0	0	0	0	0	0	0	0	0
OTU 14	0	2	6	1	1	0	1	0	1	0	3	3	0	0	0	0	0	1	0	0	0	2	1	0	0	4	0	0	0	0	1	0	0	0	0	1	0	0	0	7	3	1	0	4	3	1	6	1	0	0
OTU 15	0	0	0	0	0	0	0	0	0	0	0	0	0	0	0	0	1	0	0	0	0	0	1	0	0	0	0	0	0	0	0	0	0	0	0	0	0	0	0	0	1	0	0	1	0	0	0	0	0	0
OTU 16	0	0	0	0	0	0	0	0	0	0	0	0	0	0	0	0	0	0	0	0	0	0	0	0	0	0	0	0	0	0	0	0	0	0	0	0	0	0	0	0	0	2	0	0	0	0	0	0	0	0
OTU 17	0	0	1	0	0	0	4	1	2	1	2	0	0	0	0	0	2	0	0	0	1	1	0	0	0	1	5	0	0	0	0	1	2	0	0	0	0	0	0	0	0	0	2	1	2	1	0	1	0	0
OTU 18	0	0	4	2	2	0	6	0	4	6	6	0	1	0	9	0	0	2	2	0	0	0	0	0	4	0	0	0	0	4	2	2	1	4	0	1	1	1	0	6	0	7	3	0	0	0	0	1	2	3
OTU 19	0	0	0	0	0	0	0	0	0	0	0	0	0	0	0	0	0	0	0	0	0	0	0	0	0	0	0	0	0	0	0	0	0	0	0	0	0	0	0	0	0	0	0	0	0	0	0	0	0	0
OTU 20	0	2	2	0	1	0	1	0	0	4	1	0	2	1	0	0	0	3	1	0	0	0	1	0	0	0	2	5	0	1	1	1	9	9	1	2	2	0	1	2	0	5	1	2	0	0	3	0	0	0
OTU 21	2	2	10	0	25	0	1	3	1	0	0	1	0	0	0	1	0	0	0	2	0	1	0	2	0	2	0	0	0	0	3	0	0	0	0	1	0	1	0	1	5	2	1	0	1	0	1	3	0	0
OTU 22	0	0	1	0	11	53	0	1	69	1	0	3	0	5	0	0	1	2	0	1	1	1	23	1	0	0	0	0	105	0	1	3	0	3	3	0	5	0	2	2	51	0	0	1	0	1	1	1	2	1
OTU 23	2	0	3	0	2	0	9	0	0	0	0	0	2	0	1	5	1	0	0	0	1	0	0	0	2	2	1	1	0	10	2	4	11	1	5	0	0	0	1	2	2	1	0	0	0	0	4	1	0	0
OTU 24	0	1	2	0	3	0	0	0	0	0	3	0	0	0	0	0	0	0	0	0	0	0	0	0	1	0	0	1	0	0	1	1	0	0	1	0	0	0	0	0	0	0	1	0	1	0	0	0	1	0
OTU 25	0	0	0	0	0	0	0	0	0	0	0	0	0	0	0	0	0	0	0	0	0	0	0	0	2	0	0	0	0	0	0	0	2	0	0	0	0	0	0	0	0	0	0	0	0	3	0	0	0	0
OTU 26	0	2	0	0	0	0	2	1	0	0	0	0	0	0	0	3	0	0	0	0	0	0	0	0	0	0	0	1	0	5	0	0	0	0	0	0	0	0	0	0	0	2	0	10	0	1	0	0	0	0
OTU 27	0	0	0	0	0	0	0	0	0	0	0	0	0	0	0	0	0	0	2	0	0	0	0	1	0	0	0	0	0	0	0	0	0	0	0	0	0	0	0	0	0	0	0	0	0	0	0	1	0	0
OTU 28	3	1	0	0	0	2	7	0	0	1	0	0	1	0	1	2	2	1	0	2	0	0	0	0	0	0	4	1	4	2	1	0	2	0	3	0	0	0	5	0	1	6	4	1	0	2	5	0	11	1
OTU 29	1	1	2	4	0	0	1	0	0	9	8	1	0	0	4	1	3	4	0	2	0	0	1	1	3	3	0	0	0	4	5	0	0	0	0	0	2	0	0	10	2	6	0	13	0	0	9	1	0	0
OTU 30	0	0	0	0	0	0	1	0	0	0	0	0	0	0	0	0	0	0	0	0	0	0	0	0	0	0	0	0	0	0	0	0	0	0	0	0	0	0	0	0	0	0	0	0	0	0	0	0	0	0
OTU 31	0	0	0	0	0	0	0	0	0	0	1	1	1	4	0	0	2	0	0	1	0	0	0	0	0	0	0	1	0	1	1	3	4	0	0	3	0	1	0	0	0	6	1	0	0	0	0	0	0	0
OTU 32	2	1	0	7	0	19	3	0	2	10	9	0	7	0	1	0	18	3	1	2	1	1	1	0	0	0	3	0	39	15	0	4	1	10	2	1	0	3	84	1	1	11	8	26	6	0	2	1	7	1
OTU 33	25	0	0	0	5	0	0	0	0	0	0	0	0	0	0	0	0	0	0	0	0	0	0	0	0	0	0	0	0	0	0	0	0	0	0	1	0	0	0	0	0	0	0	0	0	0	0	0	0	0
OTU 34	0	3	0	0	10	2	1	2	0	0	1	0	1	67	3	5	1	4	5	0	0	1	0	0	5	9	0	3	9	1	0	2	1	35	1	13	108	3	24	2	0	1	4	0	4	4	0	1	7	70
OTU 35	0	3	1	1	1	1	0	6	0	0	5	35	0	0	4	0	0	15	0	3	1	1	1	0	1	0	3	2	1	0	1	0	2	4	0	1	0	1	1	0	0	1	91	0	8	0	10	0	2	0
OTU 36	1	0	1	0	1	0	0	0	0	1	1	0	1	2	2	0	0	4	2	0	0	0	5	1	3	0	1	0	0	0	0	0	1	71	0	1	1	1	0	0	0	0	0	0	0	0	3	0	0	0
OTU 37	0	0	0	0	0	0	0	0	1	0	0	0	0	0	0	1	0	0	0	0	0	0	33	0	0	0	0	0	0	0	0	0	0	0	0	0	0	2	0	0	6	0	0	0	0	0	0	0	0	0
OTU 38	0	0	0	1	1	8	1	0	0	8	2	1	2	0	0	3	0	0	0	0	0	1	0	0	0	0	1	0	15	0	0	5	1	9	6	0	0	0	42	0	0	4	3	4	0	0	0	0	0	0
OTU 39	0	0	0	0	0	0	0	0	0	0	1	0	1	0	0	0	0	0	0	0	0	0	2	0	0	0	0	1	0	0	3	0	0	0	0	1	0	0	0	5	0	4	0	0	0	0	0	0	0	0
OTU 40	1	32	1	0	4	3	2	0	0	5	4	3	0	0	0	7	5	2	1	1	0	24	9	13	0	2	0	6	2	1	3	0	0	4	0	0	0	2	0	1	5	9	0	1	0	0	0	1	0	2
OTU 41	0	2	1	0	17	0	3	0	1	0	0	4	0	1	2	0	1	0	0	0	0	3	1	1	0	0	0	0	3	3	1	0	0	0	1	1	0	0	1	0	1	1	0	0	1	2	9	0	2	1
OTU 42	0	0	0	0	0	0	0	0	0	0	0	0	0	0	5	0	0	0	0	0	0	0	0	0	0	0	0	0	0	0	4	0	0	0	3	0	0	0	0	0	0	0	0	0	0	0	0	0	0	0
OTU 43	0	0	0	0	0	0	0	0	0	0	0	0	0	0	0	0	0	0	0	0	0	0	0	0	0	0	0	0	1	0	0	0	0	0	0	0	0	0	1	0	0	0	0	0	0	0	0	0	0	0
OTU 44	0	0	0	0	2	0	1	0	0	0	0	0	0	0	0	7	0	0	0	0	0	0	0	1	1	0	0	0	0	0	0	0	0	0	0	0	0	0	0	0	0	1	0	0	0	0	0	0	0	0
OTU 45	12	0	0	1	0	0	0	1	0	1	0	0	13	0	0	6	1	0	0	1	0	0	0	0	0	0	0	3	2	3	3	15	0	1	0	0	0	0	0	0	0	6	0	0	0	1	10	0	17	0
OTU 46	2	3	0	1	0	0	2	1	2	1	4	2	0	0	3	0	0	0	3	2	3	0	1	0	0	1	1	0	0	1	2	0	4	2	3	0	1	1	0	0	3	6	0	0	8	3	6	6	0	0
OTU 47	0	0	0	0	0	0	0	0	0	0	0	0	0	0	1	0	0	0	0	2	0	0	0	0	0	0	0	0	0	0	0	1	0	3	0	1	0	0	0	0	1	0	0	0	0	1	0	0	0	0
OTU 48	4	1	2	1	3	0	1	0	3	1	2	4	2	0	2	1	6	1	1	0	0	0	1	0	0	2	0	3	0	3	0	3	0	0	0	2	3	0	0	12	0	0	0	0	0	1	1	0	4	0
OTU 49	0	0	3	0	0	1	0	0	0	0	1	0	0	2	0	0	0	0	2	0	0	0	0	0	0	1	0	0	1	0	1	1	0	0	0	2	0	0	2	0	3	0	0	4	3	1	0	0	0	0
OTU 50	0	12	3	1	1	0	57	2	0	0	0	0	2	0	8	0	11	5	4	6	0	2	0	4	8	0	1	2	7	0	9	1	5	1	17	4	1	17	4	2	0	6	0	0	5	5	0	4	5	0
OTU 51	0	0	0	0	0	1	2	2	0	2	0	10	0	0	1	0	1	1	0	0	0	1	3	0	0	3	3	0	0	0	0	1	4	5	0	9	0	0	4	1	2	5	35	0	0	0	0	0	2	0
OTU 52	2	5	0	1	12	8	5	3	1	0	7	3	2	2	0	0	8	3	6	3	2	2	1	2	0	3	5	2	4	1	7	1	4	0	3	1	0	1	16	0	1	2	5	0	1	3	16	1	1	4
OTU 53	0	0	0	0	0	0	0	0	0	0	0	0	0	0	0	0	0	0	0	0	0	0	0	0	0	0	0	0	0	0	0	0	0	0	0	0	0	0	0	0	0	0	0	0	1	0	0	0	0	0
OTU 54	4	0	2	17	2	6	4	0	1	32	39	12	16	1	2	6	10	9	4	1	1	1	1	0	0	0	4	0	8	41	3	1	1	6	0	3	3	0	14	7	7	0	16	4	0	1	2	4	1	1
OTU 55	0	0	0	0	0	0	0	0	0	0	0	0	0	0	0	0	0	0	0	0	0	0	0	0	0	0	0	0	0	0	0	0	0	0	0	0	0	0	0	0	0	0	0	0	0	0	0	0	0	0
OTU 56	1	0	0	0	2	0	0	0	0	0	0	0	0	1	2	0	65	0	2	0	3	0	4	0	0	0	0	0	0	40	0	1	0	0	1	1	0	0	1	2	3	0	0	42	0	2	0	1	2	0
OTU 57	4	0	14	5	2	1	8	5	3	1	5	5	1	1	3	12	4	12	1	0	1	2	1	3	7	15	0	6	1	1	4	3	1	1	1	15	0	122	2	5	2	0	0	0	14	0	3	0	0	1
OTU 58	2	0	2	2	0	0	0	0	0	35	2	1	4	0	1	3	0	0	0	0	0	0	0	1	1	0	1	1	0	0	110	0	2	0	0	0	1	52	0	1	7	0	8	0	0	4	9	61	1	0
OTU 59	0	0	0	2	0	0	18	0	0	0	0	0	0	1	0	0	0	1	2	3	0	0	1	0	1	0	0	1	1	3	1	0	0	1	1	0	1	0	0	3	5	0	0	0	0	0	1	0	0	0
OTU 60	9	0	0	1	2	0	3	2	1	0	3	0	3	0	3	2	1	4	1	1	0	0	0	0	0	0	49	0	0	1	2	8	0	0	3	2	2	0	0	2	0	1	1	6	1	0	9	14	1	1
OTU 61	0	0	0	0	3	0	2	16	2	1	2	0	15	6	7	1	3	0	24	3	17	0	3	2	6	0	0	0	0	0	0	5	1	13	1	11	8	0	0	1	3	3	0	1	0	11	2	7	0	9
OTU 62	0	0	24	0	0	0	0	0	22	1	0	0	0	0	0	1	6	0	0	0	0	0	4	0	0	15	0	0	1	0	0	0	0	0	0	4	0	0	0	44	2	0	0	1	0	0	3	0	0	0
OTU 63	0	0	58	0	5	0	0	0	0	0	0	0	0	0	1	5	0	0	0	0	0	0	0	0	3	6	0	0	0	0	2	0	0	0	0	0	2	0	0	0	0	0	1	0	0	1	1	0	1	0
OTU 64	21	3	1	1	3	115	1	21	1	4	4	0	0	16	11	1	1	2	82	1	15	4	1	3	0	3	2	4	3	0	0	25	12	11	0	5	36	3	4	2	2	3	0	1	5	1	0	9	16	22
OTU 65	0	1	0	0	0	0	0	0	0	0	0	0	0	0	0	0	0	0	0	0	0	0	0	0	0	0	0	0	0	0	0	0	0	0	0	0	0	0	0	0	1	0	0	0	0	0	0	0	0	0
OTU 66	0	1	0	1	1	0	1	0	6	0	1	2	0	0	1	9	1	2	3	1	0	0	0	6	0	0	1	0	1	0	1	2	3	6	2	72	1	0	1	8	9	2	1	0	0	2	0	0	0	0
OTU 67	1	2	0	0	2	1	0	0	0	0	0	0	4	0	0	1	2	11	0	0	0	3	1	0	1	0	0	1	0	0	0	2	0	1	0	3	0	0	0	0	0	9	0	0	7	2	0	0	0	0
OTU 68	5	0	0	0	0	0	0	0	1	0	0	0	0	0	0	0	0	1	2	1	0	3	0	0	0	1	0	0	0	1	0	5	1	2	0	0	6	0	0	0	0	1	0	0	7	0	1	0	0	0
OTU 69	0	1	0	0	0	0	1	0	0	0	3	1	0	0	0	0	3	2	1	3	1	0	0	4	2	1	0	1	2	0	0	0	0	1	0	0	0	1	0	8	0	9	0	2	2	0	3	1	0	0
OTU 70	1	0	0	1	0	1	0	0	0	0	1	0	2	0	0	0	0	1	0	0	0	0	0	0	0	0	0	0	3	0	4	0	0	0	0	0	0	0	2	1	1	0	2	0	0	0	0	0	0	0
OTU 71	0	0	1	5	0	0	0	3	0	3	6	0	0	0	0	0	0	3	0	0	0	0	0	0	0	0	0	0	0	4	0	0	0	0	0	0	0	0	1	0	0	0	3	1	3	1	0	0	1	0
OTU 72	0	2	0	3	2	0	2	20	0	0	2	0	79	0	11	0	4	0	0	0	7	0	2	0	0	3	0	0	2	9	4	3	0	0	0	0	0	1	4	0	9	2	1	7	0	0	0	0	1	1
OTU 73	11	1	3	0	0	0	0	0	0	1	0	0	0	3	0	4	0	0	3	0	0	0	1	2	0	0	2	0	0	0	0	0	4	6	0	1	2	2	1	4	0	0	0	3	0	1	9	1	3	0
OTU 74	5	0	1	2	3	1	0	0	2	3	4	0	3	0	0	1	1	1	3	0	0	1	0	0	2	1	0	1	0	0	4	2	3	1	1	0	0	0	1	0	5	1	4	4	3	8	1	1	0	0
OTU 75	1	0	0	0	3	0	0	4	5	0	1	1	1	1	0	10	0	0	0	2	2	1	99	2	1	2	0	0	0	0	3	1	3	1	0	0	0	0	0	4	0	7	2	1	0	2	0	0	0	1
OTU 76	0	0	0	0	0	0	0	0	0	1	0	0	0	0	0	0	0	2	0	0	0	69	0	0	0	0	0	0	2	1	0	0	0	0	3	0	0	0	1	0	0	0	2	0	108	0	1	1	0	0
OTU 77	1	0	3	0	10	1	3	0	1	6	0	0	0	0	2	0	0	1	1	0	2	0	0	0	0	1	3	0	1	0	2	0	5	9	0	0	0	0	1	5	4	0	4	0	0	7	2	0	1	1
OTU 78	2	0	0	1	5	0	0	1	1	0	4	1	4	0	4	1	0	0	0	2	0	2	4	0	0	0	0	0	0	0	0	0	0	2	0	0	0	1	0	4	2	6	0	7	0	0	0	2	0	2
OTU 79	10	6	1	4	5	5	3	72	4	6	5	8	1	0	14	12	3	8	1	1	36	1	8	1	4	2	3	1	2	1	0	3	10	0	5	2	2	3	4	9	4	5	8	4	2	8	5	1	6	0
OTU 80	0	1	0	2	0	1	3	0	5	1	2	0	4	2	2	0	7	1	8	0	0	0	0	0	0	0	0	63	0	2	0	0	1	1	3	5	0	0	3	9	5	2	4	3	1	2	0	0	0	1
OTU 81	2	0	17	2	6	0	0	10	27	2	5	2	4	0	1	1	0	2	16	2	10	3	3	1	0	20	0	22	0	0	4	1	0	0	0	12	11	1	0	32	1	0	3	0	1	0	4	2	2	0
OTU 82	0	0	1	0	1	0	0	2	0	0	1	0	0	1	0	7	1	0	0	0	1	1	2	1	1	0	0	0	0	0	7	0	0	0	4	0	0	2	3	0	3	4	0	0	5	1	0	0	1	0
OTU 83	0	0	0	0	0	0	0	0	0	0	0	2	2	0	0	6	0	0	0	0	0	0	0	0	0	0	2	0	0	0	0	0	1	0	0	0	0	0	0	0	0	0	0	0	0	0	2	0	0	0
OTU 84	1	0	0	0	0	1	1	0	0	7	0	1	0	0	2	0	0	0	0	2	0	0	0	2	0	0	1	0	0	0	10	1	2	3	2	0	0	0	0	2	3	0	0	0	0	3	1	0	0	0
OTU 85	0	0	1	1	1	0	0	0	0	0	4	1	0	0	0	0	1	0	1	0	0	0	0	0	1	0	0	0	0	0	1	0	0	0	0	0	1	1	0	1	0	1	0	1	0	1	0	0	0	0
OTU 86	0	0	0	0	0	0	0	0	0	0	0	0	0	0	0	0	0	0	0	0	0	1	0	0	0	0	0	0	0	0	0	0	0	1	0	0	0	0	0	0	0	0	0	0	0	0	0	0	0	0
OTU 87	0	0	0	0	1	0	0	0	0	1	0	0	0	1	3	0	0	0	1	0	0	0	0	0	1	0	0	0	0	0	2	1	0	0	0	1	4	0	0	1	0	4	0	1	0	0	0	0	2	0
OTU 88	0	0	0	0	0	0	1	0	1	0	0	0	0	0	1	0	0	0	0	0	0	0	1	0	1	14	0	0	0	0	0	0	0	5	0	0	2	0	1	0	1	0	0	1	0	0	0	0	0	0
OTU 89	0	0	0	0	0	0	0	4	1	0	0	0	0	0	0	0	2	0	0	8	0	2	0	3	0	0	1	0	0	0	0	0	1	0	0	0	0	0	0	0	4	0	0	0	0	0	0	0	0	0
OTU 90	0	0	0	0	0	0	1	0	2	0	0	0	2	0	0	0	0	3	0	0	0	0	0	0	0	0	0	0	0	0	2	1	0	0	0	0	0	0	0	0	0	0	0	0	0	0	0	0	0	0
OTU 91	0	0	0	0	0	0	0	0	0	0	0	0	0	50	0	0	0	0	0	0	0	0	0	0	0	0	0	0	0	0	0	0	0	0	0	0	0	0	0	0	0	0	0	0	0	0	0	0	0	0
OTU 92	0	0	0	0	0	0	0	1	0	0	0	0	0	0	0	0	0	0	0	0	0	0	0	0	0	0	3	0	0	1	1	1	0	0	0	0	0	0	0	0	1	0	1	0	0	0	0	0	0	0
OTU 93	3	0	0	0	1	0	0	1	0	0	0	2	0	0	0	0	0	1	0	0	0	0	0	0	0	0	0	0	0	0	0	0	0	0	0	0	0	0	0	0	0	0	0	0	0	0	0	0	0	0
OTU 94	5	0	1	3	4	2	2	0	0	0	11	1	3	0	2	1	2	1	0	0	0	0	5	0	0	4	0	2	1	0	1	18	0	11	0	2	0	1	4	0	5	0	1	0	2	1	27	0	13	0
OTU 95	0	0	0	2	2	0	6	0	2	0	0	0	0	0	0	4	0	0	0	0	0	0	0	0	0	0	0	0	0	1	0	0	0	0	0	0	0	0	0	3	1	0	3	0	0	0	0	53	0	0
OTU 96	0	2	0	0	0	0	0	0	0	0	0	0	0	0	0	0	0	0	0	0	0	0	0	0	8	0	0	0	0	0	0	0	2	0	0	0	0	0	1	0	0	0	3	1	0	2	0	0	0	0
OTU 97	0	0	0	0	0	0	0	0	0	0	0	0	0	0	0	0	0	0	0	0	0	6	0	0	0	2	2	0	0	1	0	1	5	0	0	0	0	0	0	0	1	0	0	1	8	0	0	0	0	0
OTU 98	3	0	4	0	0	0	0	0	0	1	0	0	0	0	0	0	0	0	0	0	0	0	0	0	0	3	0	0	0	0	0	0	0	0	2	0	0	0	1	1	0	0	0	0	0	1	0	0	0	0
OTU 99	4	0	1	1	1	0	1	12	0	3	2	6	0	2	1	1	0	0	9	0	2	1	5	0	13	0	0	0	1	0	2	10	0	5	0	21	4	5	0	0	3	15	26	0	1	36	2	2	2	4
OTU 100	0	0	0	0	1	0	0	0	0	0	0	0	0	0	0	5	0	1	1	4	2	0	1	0	2	0	0	89	3	0	26	0	3	2	25	2	0	14	2	0	1	0	0	0	2	2	0	0	0	0
OTU 101	0	0	0	0	0	0	0	0	0	2	0	0	0	0	0	0	0	0	1	0	0	0	0	1	0	0	0	0	0	3	0	0	0	0	0	0	0	1	0	0	0	0	0	0	0	0	0	0	0	0
OTU 102	0	0	0	0	2	0	0	0	0	0	0	0	0	0	0	0	0	1	0	3	1	2	0	2	2	4	0	0	0	0	0	0	0	1	1	0	0	0	0	0	0	0	0	0	0	0	0	0	0	0
OTU 103	0	6	0	0	0	1	2	2	0	0	1	0	3	0	5	12	0	0	0	21	0	0	0	5	6	0	8	30	1	1	17	0	20	0	27	0	0	4	0	3	0	2	0	0	2	31	0	0	3	0
OTU 104	6	33	1	0	0	1	1	6	0	0	0	0	0	2	3	2	2	0	14	0	3	0	1	8	0	1	4	1	2	0	5	26	6	1	7	0	9	1	0	0	14	3	0	1	1	0	3	4	14	7
OTU 105	0	0	0	1	0	0	0	0	0	0	1	0	0	0	0	0	0	0	2	0	0	0	0	0	0	0	0	3	0	0	0	0	0	5	2	0	0	0	0	0	10	0	0	0	0	0	0	0	0	2
OTU 106	0	0	0	0	0	0	0	0	0	0	0	1	1	0	0	0	0	0	0	0	0	1	0	0	0	0	0	0	0	0	0	0	0	0	0	2	1	0	0	0	0	0	0	0	0	0	0	0	1	0
OTU 107	1	0	0	1	0	0	0	0	0	0	4	0	0	0	0	2	0	1	0	0	0	0	0	0	0	0	0	0	0	0	0	0	0	0	0	0	0	0	0	0	0	0	0	9	1	0	1	0	0	0
OTU 108	1	0	1	0	0	1	0	0	0	0	0	0	0	0	0	0	0	0	2	0	3	1	0	0	0	0	0	0	0	0	0	3	0	0	1	0	0	0	0	0	1	0	0	1	2	0	0	0	0	0
OTU 109	0	0	0	0	0	0	0	0	0	0	0	0	0	0	0	0	0	0	0	0	0	0	0	0	0	0	0	0	0	0	0	0	0	0	0	0	0	0	0	0	0	0	0	0	0	0	0	0	0	0
OTU 110	4	0	2	1	0	2	1	1	0	0	1	0	1	0	0	2	1	2	2	0	0	5	1	1	0	6	2	5	0	1	1	3	1	0	3	3	1	0	0	1	0	1	3	2	4	3	9	71	0	0
OTU 111	0	0	0	0	3	0	0	0	0	0	0	0	0	0	0	0	0	1	0	0	0	0	0	0	0	0	0	0	0	0	0	1	0	0	0	0	0	0	0	0	0	0	0	0	0	0	0	0	0	0
OTU 112	0	0	0	0	0	0	4	0	0	0	0	0	0	0	0	0	0	0	0	0	0	3	0	0	0	0	0	0	0	1	0	0	0	0	3	0	0	2	1	0	2	0	0	0	0	0	2	0	0	1
OTU 113	0	0	0	0	1	0	0	0	0	0	0	0	0	0	0	0	0	0	0	0	0	0	0	0	0	0	0	0	0	0	0	0	0	0	1	0	0	0	0	0	1	0	0	0	0	0	0	1	0	0
OTU 114	3	31	1	1	1	0	2	3	0	1	6	1	1	2	0	3	2	0	6	0	0	2	3	15	1	0	28	1	0	0	6	3	48	1	1	3	3	2	0	1	1	52	0	0	4	0	1	0	4	6
OTU 115	3	0	4	0	5	0	0	0	2	0	0	0	6	0	2	1	0	2	0	0	1	0	0	1	1	0	1	0	0	5	2	1	2	5	8	2	0	2	1	1	1	0	8	4	1	2	5	0	0	0
OTU 116	0	0	0	0	4	0	4	3	1	1	0	0	3	0	5	0	1	21	0	1	2	4	11	0	4	4	0	1	0	1	1	2	1	2	1	34	0	0	0	0	15	12	2	0	9	4	0	0	0	0
OTU 117	0	1	0	0	19	1	0	53	1	1	0	4	1	0	0	0	1	6	0	2	19	0	3	1	6	0	1	2	2	0	0	1	5	4	2	1	0	2	1	0	1	0	0	0	0	1	11	0	0	0
OTU 118	0	0	1	0	0	0	0	0	0	0	0	0	0	0	5	0	0	0	0	0	0	0	2	0	1	0	1	0	1	0	0	0	2	0	0	0	0	0	0	0	0	0	0	0	0	2	0	0	0	0
OTU 119	0	4	0	1	0	0	1	4	1	0	0	1	4	0	0	2	9	2	0	0	1	4	1	62	0	1	0	2	0	1	0	2	3	2	8	0	0	0	0	1	1	1	0	0	3	0	0	0	0	1
OTU 120	0	0	0	2	0	0	5	1	1	0	1	0	0	1	0	0	0	0	2	48	0	0	0	0	0	3	0	2	0	0	0	0	0	1	0	3	0	0	1	0	0	0	3	0	0	0	2	1	0	0
OTU 121	4	0	2	0	0	0	0	0	0	0	1	1	0	0	0	1	0	0	0	0	0	0	0	0	2	2	0	2	0	1	0	1	0	0	4	0	0	0	0	1	1	4	2	1	0	6	0	0	1	0
OTU 122	0	0	2	2	1	2	0	0	0	12	4	1	0	0	3	0	4	1	0	0	1	2	1	0	0	4	0	2	1	0	0	0	4	0	0	0	0	1	0	1	0	0	3	5	5	1	7	0	1	0
OTU 123	7	2	3	88	3	9	17	1	0	7	17	3	1	0	11	25	7	6	15	5	0	2	2	6	4	11	5	12	33	1	3	0	5	9	0	4	1	0	14	3	5	4	8	3	6	10	7	2	2	1
OTU 124	0	1	0	0	0	0	3	0	0	0	0	0	0	0	0	2	0	0	0	0	0	0	0	0	0	0	0	0	0	0	1	0	0	3	0	0	0	1	0	0	0	0	0	0	0	0	0	0	3	0
OTU 125	7	1	2	5	0	2	5	4	7	4	14	1	3	1	7	5	17	0	2	0	0	56	3	1	93	1	0	2	1	3	3	6	0	11	7	5	1	24	2	14	7	5	10	7	0	1	8	0	0	1
OTU 126	0	0	0	0	0	0	0	2	0	0	0	0	0	0	0	1	0	0	0	0	1	0	0	0	0	0	0	0	0	0	0	0	0	0	0	0	0	0	0	0	0	0	0	0	0	0	0	0	0	0
OTU 127	1	0	0	0	3	0	0	1	2	1	1	4	10	0	0	1	0	11	0	0	2	0	0	0	0	0	0	0	1	0	0	0	0	1	0	0	0	0	5	1	0	0	3	0	1	0	8	0	1	0
OTU 128	30	5	6	1	19	1	13	7	1	5	3	0	15	1	3	13	2	13	5	6	2	2	4	14	2	3	2	4	3	8	1	1	4	8	1	4	4	1	4	12	3	6	2	4	5	2	1	2	2	1
OTU 129	0	0	0	0	0	0	2	0	0	0	0	0	0	0	0	0	0	0	0	0	0	0	0	0	0	0	0	0	0	0	1	0	0	0	0	0	0	0	0	0	0	0	0	4	1	0	0	0	0	0
OTU 130	0	0	0	1	0	1	1	1	0	2	0	0	0	1	0	1	2	0	0	3	0	0	0	0	1	0	0	0	0	0	0	0	3	5	2	6	0	1	0	2	0	7	0	0	1	1	1	0	0	0
OTU 131	1	32	2	1	0	0	0	4	1	0	2	0	0	0	7	1	5	1	0	0	0	1	1	16	0	0	33	0	0	0	0	1	77	0	0	2	0	0	1	7	0	0	3	2	1	1	0	1	0	1
OTU 132	0	0	0	0	1	0	0	3	0	0	0	0	0	0	0	0	3	0	0	1	1	0	0	0	0	0	0	0	0	0	0	0	0	6	0	0	0	0	0	0	0	0	0	2	0	0	0	0	4	0
OTU 133	0	0	0	0	0	0	0	0	0	0	0	0	2	0	0	0	0	0	0	0	0	0	0	0	0	0	0	0	0	0	0	0	0	0	0	0	0	0	0	0	0	0	0	0	0	0	0	0	0	0
OTU 134	1	0	0	0	1	0	2	1	0	0	0	0	0	0	3	0	3	1	6	28	0	5	0	0	0	0	0	0	1	1	7	4	0	0	0	1	2	2	0	0	9	0	1	0	8	2	0	0	0	0
OTU 135	0	0	4	115	0	0	0	0	5	4	0	0	0	3	10	4	0	2	4	0	0	1	1	1	0	0	0	0	0	1	0	4	0	1	1	3	2	0	0	0	3	0	3	5	1	0	0	1	4	0
OTU 136	1	1	0	2	0	0	0	1	0	1	4	0	0	0	2	0	0	0	0	0	0	0	0	0	0	1	0	0	0	0	0	0	2	0	1	0	1	0	0	0	2	0	2	0	0	0	1	0	0	0
OTU 137	15	0	0	0	0	0	0	6	0	0	0	0	1	1	0	1	0	0	0	0	1	0	0	0	0	1	0	0	0	0	0	77	0	0	0	0	0	0	0	0	1	0	0	1	0	1	0	0	19	1
OTU 138	0	0	0	0	11	0	0	0	0	0	0	0	3	0	0	2	0	1	0	0	0	0	2	0	2	0	0	0	0	0	1	0	1	0	0	1	0	1	0	0	1	3	0	0	0	0	2	1	0	0
OTU 139	2	8	2	3	3	0	9	0	0	0	4	120	0	0	1	3	15	16	1	2	0	0	8	5	8	55	5	5	0	2	4	1	6	2	4	1	0	5	1	2	3	0	0	3	2	3	3	2	0	0
OTU 140	4	100	2	6	11	4	12	3	1	121	18	5	10	0	2	4	7	2	1	1	5	1	0	39	0	1	1	0	14	92	6	2	3	4	14	3	3	6	12	7	4	1	1	2	3	1	7	1	126	3
OTU 141	0	0	0	0	0	0	0	0	0	0	0	0	0	0	0	0	0	0	0	0	0	0	0	0	0	0	0	0	0	0	0	0	0	0	0	0	0	0	0	0	0	0	0	0	0	0	0	0	0	0
OTU 142	0	0	0	0	2	0	0	0	0	0	0	0	0	0	0	0	0	0	0	0	0	0	0	0	0	0	0	0	0	0	0	0	0	0	0	0	0	1	0	0	0	0	0	0	0	0	0	0	0	0
OTU 143	0	0	0	1	0	0	0	0	0	1	3	0	0	0	0	0	0	0	0	0	0	0	0	0	0	0	0	0	0	0	0	0	0	2	1	1	0	0	0	0	0	0	0	0	0	0	0	0	0	0
OTU 144	0	0	0	2	0	0	3	0	0	0	1	1	0	0	0	0	0	0	0	0	0	0	2	0	0	0	0	0	0	0	0	0	4	7	0	0	0	0	0	0	2	2	0	1	0	0	0	0	0	0
OTU 145	0	0	0	3	3	0	0	0	3	1	5	0	1	2	10	0	0	0	3	1	2	0	1	0	0	0	1	18	0	0	4	0	0	2	1	0	2	0	0	0	7	12	1	1	0	2	0	1	0	176
OTU 146	0	0	0	0	0	0	1	0	1	0	0	0	0	0	1	0	1	0	0	1	0	0	5	1	1	0	158	1	0	2	2	0	3	0	1	1	0	3	1	0	4	0	0	1	0	0	3	0	2	0
OTU 147	0	0	1	0	1	0	1	0	0	0	0	4	1	1	0	0	1	0	0	1	0	0	0	0	1	0	0	0	0	0	0	0	0	0	0	0	0	0	1	0	0	0	0	0	0	4	0	0	0	0
OTU 148	0	11	0	1	0	0	6	2	0	0	2	3	5	0	67	12	3	2	1	5	0	0	28	2	9	1	19	13	0	0	8	0	27	4	12	1	0	11	0	0	0	0	10	0	0	23	3	0	0	1
OTU 149	1	0	0	0	0	0	2	0	0	0	0	0	0	0	1	4	0	0	1	0	2	0	0	0	0	0	0	0	0	0	0	1	0	0	1	0	0	0	0	0	1	0	1	0	0	1	0	0	0	0
OTU 150	0	0	1	0	0	0	2	0	0	0	0	0	0	0	8	1	0	0	0	0	0	0	0	0	0	0	0	0	0	0	2	1	0	0	0	0	0	2	1	0	0	0	0	0	0	0	0	0	0	0
OTU 151	1	1	0	2	0	0	0	0	0	0	1	0	6	0	0	1	4	3	0	0	0	0	0	0	0	1	0	0	0	0	2	1	0	0	0	0	0	2	0	0	0	2	0	2	0	0	0	0	0	0
OTU 152	1	0	0	0	20	0	0	1	0	0	0	0	2	0	3	3	0	1	0	1	1	0	1	1	0	0	1	0	0	2	0	3	0	0	0	0	0	2	0	0	3	3	2	0	0	2	2	0	0	0
OTU 153	0	0	0	0	0	0	0	0	0	0	2	0	0	0	0	0	0	0	0	0	0	0	0	0	0	0	0	2	0	0	0	0	0	0	0	0	0	0	0	0	0	0	0	0	0	0	0	0	0	0
OTU 154	0	0	0	0	0	0	0	0	0	0	0	0	0	0	0	0	0	0	0	0	0	1	0	0	0	0	0	0	0	0	0	0	0	0	1	0	0	0	0	0	1	0	0	0	14	0	1	0	0	0
OTU 155	0	0	1	0	5	0	0	0	0	1	0	21	1	0	1	0	2	0	0	0	0	0	0	0	0	4	0	2	0	0	1	2	0	1	1	0	0	0	0	0	2	0	2	0	0	0	0	0	0	0
OTU 156	5	5	1	0	7	77	4	3	1	0	5	0	6	1	0	18	1	4	1	2	3	0	0	5	2	1	0	5	0	5	3	0	0	0	1	5	2	5	2	1	1	1	1	4	0	0	2	2	2	2
OTU 157	0	0	1	0	0	0	0	0	3	0	1	0	0	0	0	2	0	0	0	0	0	0	3	0	0	5	0	0	0	3	0	0	1	0	0	1	0	0	0	0	1	0	0	0	0	0	0	0	1	0
OTU 158	0	0	0	0	1	0	0	0	0	0	0	0	0	0	0	0	0	0	0	0	0	0	0	0	0	0	0	0	0	0	0	0	0	0	0	0	0	0	0	0	0	0	0	0	0	0	0	0	0	0
OTU 159	0	1	1	0	3	1	0	0	0	1	2	0	3	0	1	1	5	0	3	2	1	0	0	0	1	1	0	2	0	1	4	2	0	2	0	0	0	0	0	0	0	0	0	5	3	2	1	19	0	1
OTU 160	4	0	3	10	9	0	6	1	0	3	8	3	16	15	3	11	1	8	4	3	0	5	2	3	1	22	2	1	1	0	2	3	5	6	2	20	0	0	0	2	7	1	8	0	3	1	3	1	0	0
OTU 161	4	2	89	0	4	1	2	1	1	0	0	3	5	0	2	2	1	0	2	0	2	0	0	41	6	1	0	0	0	1	0	3	0	2	3	0	4	2	1	0	4	0	0	1	1	0	1	0	0	0
OTU 162	2	1	1	1	4	20	1	1	0	4	9	1	0	0	4	0	0	2	1	0	1	1	1	0	0	1	0	0	31	0	0	0	1	0	0	0	1	2	0	0	0	7	4	0	0	0	1	2	3	0
OTU 163	0	0	0	0	0	0	0	0	0	0	0	0	0	0	0	0	0	0	0	0	0	0	0	0	0	0	0	0	0	0	0	0	0	0	0	0	0	0	0	0	0	0	0	0	0	0	0	0	0	0
OTU 164	1	0	0	0	0	0	0	0	0	0	0	0	0	0	0	0	0	0	0	0	0	0	0	0	0	3	0	0	0	0	0	0	0	0	0	0	0	0	0	0	0	0	0	0	0	0	0	0	0	0
OTU 165	0	0	0	4	0	1	0	2	0	1	6	1	7	0	1	1	1	0	0	0	1	0	0	0	0	1	0	0	1	21	1	2	0	0	0	0	0	0	3	0	2	1	4	43	0	0	0	0	1	0
OTU 166	0	0	0	0	0	0	0	0	0	0	0	0	0	0	0	0	0	0	0	0	0	0	0	0	0	0	0	0	0	0	0	0	0	0	2	0	0	0	0	0	0	0	0	0	0	0	0	0	0	0
OTU 167	1	0	0	0	0	0	0	0	0	0	2	3	0	1	0	0	2	1	0	0	1	0	1	1	1	1	0	0	0	0	0	0	0	0	0	0	1	0	0	0	3	0	0	0	0	0	0	0	1	0
OTU 168	3	2	1	3	1	0	1	0	0	0	1	3	1	1	1	2	2	1	0	0	0	0	0	1	0	0	1	0	1	38	1	2	0	1	5	0	0	2	3	4	0	1	3	56	0	0	0	0	1	0
OTU 169	0	0	0	0	0	0	0	0	0	0	0	0	0	0	0	0	0	0	0	0	0	0	0	0	0	0	0	0	0	0	0	0	0	0	0	0	0	0	0	0	0	0	0	0	0	0	0	0	0	0
OTU 170	0	0	0	0	0	0	0	0	0	0	0	0	0	0	0	1	0	0	0	1	0	0	0	0	0	0	0	0	0	0	0	0	0	0	0	0	0	0	0	0	1	0	0	0	1	5	0	0	0	0
OTU 171	0	1	0	0	14	0	0	1	0	0	0	0	0	0	1	4	1	0	6	1	0	0	0	0	3	0	0	4	0	0	0	1	0	0	0	0	2	0	0	0	0	4	0	0	1	0	9	0	1	1
OTU 172	0	0	0	0	0	0	0	0	0	1	1	2	0	0	0	1	0	0	0	0	0	0	0	0	0	0	0	0	0	0	0	0	0	1	0	0	0	0	0	0	0	0	0	0	0	0	0	0	0	0
OTU 173	0	0	0	1	0	0	0	4	0	1	0	0	2	0	0	1	0	0	0	0	1	0	1	0	0	0	0	0	0	0	0	0	0	1	0	0	0	0	0	4	0	0	0	1	0	1	0	0	0	0
OTU 174	3	0	0	0	0	2	0	0	0	0	0	1	0	2	0	1	0	55	2	0	1	10	0	0	1	2	0	0	1	0	0	12	0	0	0	1	1	0	1	4	0	3	0	0	22	1	0	0	7	0
OTU 175	1	0	1	0	0	0	3	0	0	0	0	0	2	0	0	2	2	0	1	0	0	0	0	0	0	0	1	0	1	0	0	0	0	5	1	0	0	0	1	0	0	1	0	0	1	0	0	0	1	0
OTU 176	0	3	4	4	2	0	0	2	0	1	3	4	0	0	1	1	2	0	4	23	0	3	0	4	2	3	0	0	0	0	0	0	1	0	0	10	1	0	0	0	1	2	0	1	0	6	0	0	1	0
OTU 177	1	1	0	0	2	0	1	0	2	0	0	3	0	1	0	0	6	10	1	1	1	3	3	0	2	0	0	4	0	0	0	1	0	1	3	0	2	2	0	2	12	0	0	3	3	8	4	0	0	0
OTU 178	1	7	0	0	2	1	0	2	0	0	0	1	0	0	0	3	1	3	0	0	0	2	1	0	0	1	0	1	0	1	0	0	0	0	0	0	0	0	2	0	0	0	0	1	1	0	2	0	0	0
OTU 179	76	0	0	0	2	0	5	0	0	2	0	1	3	0	0	0	0	13	3	122	0	3	0	0	1	0	0	0	0	0	1	2	0	0	3	4	1	0	0	1	0	1	1	0	6	0	0	0	1	0
OTU 180	0	3	2	5	4	0	9	2	2	5	8	4	7	0	6	35	2	10	5	1	1	0	4	3	1	9	1	4	1	2	5	0	4	1	14	1	0	0	1	2	7	7	1	2	8	5	4	3	3	0
OTU 181	0	0	0	0	0	1	0	1	3	0	0	0	0	0	2	6	0	15	0	2	1	5	21	0	0	0	0	0	1	0	2	4	0	0	0	0	0	0	1	1	31	0	1	0	8	0	0	0	1	0
OTU 182	0	0	0	0	0	0	1	0	0	0	0	0	0	0	1	0	0	0	0	0	0	0	0	0	0	0	0	0	0	0	0	0	0	0	0	0	0	0	0	0	0	0	0	0	0	0	0	2	0	0
OTU 183	0	0	1	0	0	0	1	0	0	0	0	2	1	0	0	7	1	4	0	0	0	0	0	0	0	2	0	0	2	1	0	2	0	5	2	1	0	2	0	0	7	4	0	0	0	0	0	1	3	0
OTU 184	0	0	0	0	0	0	3	0	0	0	0	0	0	0	0	1	1	6	2	1	1	0	0	34	0	0	0	1	0	0	0	0	0	1	3	1	0	1	2	0	0	1	0	0	1	0	2	2	1	0
OTU 185	0	0	0	3	2	1	0	5	0	1	7	0	4	2	1	1	30	3	0	4	0	0	1	0	72	0	2	0	1	17	0	7	4	4	10	0	0	2	0	2	0	4	1	13	2	4	1	1	0	0
OTU 186	1	0	0	0	1	0	0	0	0	0	0	0	0	0	1	0	1	0	0	0	0	1	0	0	3	0	0	0	0	0	0	0	0	0	1	1	0	0	0	0	0	0	0	0	0	1	0	0	0	0
OTU 187	1	3	3	0	5	0	5	10	0	4	2	0	5	3	12	5	4	0	2	3	14	2	6	4	7	1	1	19	2	0	8	8	4	7	8	1	6	2	3	0	8	1	4	0	2	14	6	0	5	0
OTU 188	2	0	0	5	6	0	2	2	17	1	11	2	3	0	14	1	0	1	0	1	185	1	2	0	0	0	0	1	0	2	2	1	0	4	0	0	0	0	1	2	0	0	2	7	0	0	1	0	1	0
OTU 189	6	1	2	0	4	0	2	2	3	1	3	0	5	18	1	12	0	1	5	1	0	0	10	0	0	0	0	0	1	0	0	2	4	1	0	2	43	0	0	0	8	5	0	0	0	8	8	6	4	18
OTU 190	0	0	0	0	0	1	0	0	0	0	0	0	2	0	0	0	0	0	0	0	0	0	3	0	0	0	0	0	0	0	0	0	0	0	0	0	0	0	0	0	0	0	0	0	0	1	4	0	0	0
OTU 191	0	1	0	2	1	0	4	1	0	2	2	2	7	1	7	2	0	0	2	0	1	0	2	1	0	1	0	0	0	6	0	1	0	1	2	1	0	0	0	0	6	1	1	1	0	1	9	0	7	2
OTU 192	1	0	28	2	3	4	0	10	35	1	0	1	5	2	0	2	0	8	5	3	7	3	0	1	0	39	0	3	2	1	0	0	0	6	3	19	6	0	7	44	1	2	6	6	5	0	2	2	0	8
OTU 193	1	1	5	1	2	9	3	15	1	4	2	6	0	3	0	4	0	0	10	0	7	1	1	4	0	5	0	0	16	1	0	0	0	0	0	2	13	0	27	1	0	11	0	3	0	0	15	1	2	3
OTU 194	17	0	2	0	2	2	0	1	0	0	0	0	0	0	2	3	0	1	0	0	0	1	0	0	0	2	0	0	1	0	0	10	0	0	1	0	0	0	8	0	1	1	3	0	0	1	0	0	22	0
OTU 195	2	0	1	0	0	1	0	0	0	0	0	0	0	0	0	1	1	3	1	0	0	2	0	0	6	2	0	0	4	0	0	0	0	0	3	1	1	1	7	5	1	3	0	0	3	15	0	0	5	0
OTU 196	0	0	0	2	1	0	0	3	0	1	4	0	0	133	0	4	0	0	0	2	0	0	0	0	0	2	0	0	7	0	22	2	0	0	43	1	2	14	6	1	0	3	1	1	0	1	4	1	0	0
OTU 197	2	1	0	5	5	2	7	2	92	3	15	47	0	2	2	0	2	2	3	0	2	0	4	0	17	0	0	1	0	0	0	5	1	4	1	2	1	0	2	1	0	2	8	2	1	22	3	3	2	0
OTU 198	2	0	1	0	0	0	1	0	0	1	0	0	2	0	1	0	1	0	0	0	0	58	0	0	0	0	1	0	0	0	0	0	1	0	0	0	0	0	0	0	0	1	0	0	1	0	0	0	1	2
OTU 199	0	0	1	4	0	1	1	0	0	2	7	1	1	0	0	1	0	0	0	1	0	0	0	0	1	0	0	0	0	0	0	1	0	1	4	0	0	0	1	0	0	2	0	0	1	0	6	0	0	0
OTU 200	0	0	0	0	5	1	0	0	2	1	0	0	4	0	0	0	0	2	1	0	0	0	1	0	0	0	0	0	0	0	2	0	1	0	0	5	3	0	1	0	0	6	0	0	0	0	0	2	2	0
