	Host 1	Host 2	Host 3	Host 4	Host 5	Host 6	Host 7	Host 8	Host 9	Host 10	Host 11	Host 12	Host 13	Host 14	Host 15	Host 16	Host 17	Host 18	Host 19	Host 20	Host 21	Host 22	Host 23	Host 24	Host 25	Host 26	Host 27	Host 28	Host 29	Host 30	Host 31	Host 32	Host 33	Host 34	Host 35	Host 36	Host 37	Host 38	Host 39	Host 40	Host 41	Host 42	Host 43	Host 44	Host 45	Host 46	Host 47	Host 48	Host 49	Host 50	
OTU 1	1	0	0	2	4	3	4	3	4	1	0	0	0	0	0	4	0	0	0	0	0	4	0	2	0	1	2	1	0	2	2	3	1	15	9	0	2	0	19	0	3	7	0	5	0	5	3	3	5	5
OTU 2	0	0	0	0	0	0	0	0	0	1	0	2	0	2	0	8	0	0	0	0	17	3	0	30	0	2	0	0	0	0	0	0	1	1	6	7	0	0	1	0	1	0	0	0	0	0	2	0	0	0
OTU 3	0	0	0	0	0	0	3	0	0	0	0	0	0	0	0	0	1	1	0	2	0	1	3	0	0	1	0	0	0	0	0	0	1	0	0	0	0	0	0	0	3	0	0	4	0	0	0	0	0	0
OTU 4	0	0	0	0	0	0	0	0	0	0	0	0	0	0	0	0	0	0	0	0	0	0	0	0	0	0	0	0	0	0	0	0	0	0	0	0	0	0	0	0	0	0	0	0	0	0	0	0	0	0
OTU 5	8	14	7	16	15	22	15	2	0	8	0	6	56	0	0	0	1	47	6	0	4	15	11	3	6	4	63	31	0	29	9	18	15	9	9	4	4	4	40	4	0	99	1	14	15	44	2	4	53	8
OTU 6	0	0	3	2	0	2	7	0	2	1	2	0	0	1	0	0	0	0	2	1	0	5	1	1	0	1	140	0	1	0	0	3	0	1	0	0	4	0	0	1	0	0	3	0	12	0	0	1	0	0
OTU 7	79	0	11	4	5	1	2	1	0	0	8	2	0	69	5	3	5	1	0	1	2	2	3	23	0	3	0	12	6	3	0	69	1	3	4	1	1	66	51	0	2	0	12	3	1	2	2	3	0	2
OTU 8	3	4	25	2	0	1	4	1	0	3	0	30	1	0	3	4	3	0	1	7	1	1	4	0	0	6	0	3	2	0	1	18	2	0	1	5	2	14	0	0	15	0	3	5	1	0	2	14	0	1
OTU 9	1	1	0	1	0	0	2	0	0	0	7	1	0	4	0	0	0	0	0	0	1	1	2	0	0	0	1	0	1	1	0	0	0	1	0	0	0	0	0	0	0	1	2	0	0	1	0	1	0	0
OTU 10	0	2	0	0	0	2	0	0	0	0	2	0	0	0	0	0	0	1	0	1	2	0	0	0	0	0	0	0	0	0	0	3	0	0	0	0	0	0	0	1	0	0	4	0	0	0	0	3	1	0
OTU 11	1	0	3	0	0	6	0	3	7	0	1	0	1	2	1	10	1	0	0	0	0	2	0	0	1	1	0	5	0	44	0	1	0	0	5	0	0	0	0	7	0	0	0	3	1	0	5	10	1	0
OTU 12	2	0	0	1	0	0	0	0	1	0	0	0	0	0	0	4	3	0	5	1	0	9	1	1	9	2	0	0	0	0	1	0	4	6	4	3	1	1	0	2	3	1	4	7	4	1	1	2	0	0
OTU 13	0	0	0	0	0	0	0	0	0	0	0	0	0	0	0	0	0	0	0	0	0	0	0	1	0	0	0	0	0	0	0	0	0	0	0	0	0	0	0	0	0	0	0	0	0	0	0	0	0	0
OTU 14	0	0	1	2	0	0	3	0	0	0	3	1	2	0	2	0	11	0	0	0	1	4	0	0	8	0	0	0	0	0	0	0	0	0	0	0	7	0	0	0	2	0	0	0	2	0	0	0	0	0
OTU 15	0	0	0	0	0	0	0	0	0	0	0	0	0	0	0	0	0	0	0	0	0	0	0	0	0	0	0	0	0	0	0	0	0	0	0	0	0	0	0	0	0	0	0	0	0	0	0	0	0	0
OTU 16	0	0	0	0	0	0	0	0	0	0	0	0	56	1	0	0	0	0	0	0	0	0	0	0	0	0	0	0	0	1	0	0	0	0	0	0	0	0	0	0	1	0	0	0	0	0	0	0	0	0
OTU 17	0	0	0	1	0	1	1	1	0	0	3	0	0	8	0	0	1	0	0	0	0	2	0	0	2	1	0	0	0	63	0	0	0	2	0	0	0	0	1	0	2	0	0	0	0	0	0	0	0	0
OTU 18	1	0	0	0	1	0	5	3	0	1	0	1	0	1	0	0	0	1	3	4	13	2	0	1	0	0	0	3	0	0	2	1	1	9	1	0	11	1	2	1	0	0	4	0	3	0	90	3	0	4
OTU 19	0	0	0	0	0	0	0	0	0	0	0	0	0	0	1	0	0	0	0	0	0	0	0	0	1	0	0	0	10	0	0	0	0	0	0	0	0	0	0	0	0	0	0	0	0	0	0	0	0	0
OTU 20	0	11	0	0	0	4	0	0	0	12	2	0	1	2	1	1	0	0	0	0	0	0	1	2	0	1	0	0	0	0	1	1	0	2	63	0	0	0	1	7	0	6	43	0	6	2	0	0	2	1
OTU 21	2	0	19	1	0	8	1	3	0	0	3	2	0	0	4	0	8	1	0	10	6	2	6	0	2	0	0	2	0	1	0	0	1	1	0	0	0	0	0	0	12	0	3	1	9	0	1	2	0	4
OTU 22	0	2	1	0	4	1	0	4	2	1	6	0	0	10	17	2	0	2	0	0	0	0	0	2	2	0	4	2	0	0	0	2	46	4	0	5	2	0	1	0	0	1	3	13	0	0	3	2	2	0
OTU 23	0	1	0	1	1	0	1	0	0	0	0	1	0	0	0	0	0	3	2	0	5	1	0	0	2	1	0	0	1	0	0	0	0	10	1	0	0	0	1	1	0	0	3	0	0	0	0	1	0	0
OTU 24	0	0	0	0	0	0	1	0	0	2	8	1	0	1	0	1	1	0	3	1	1	1	0	0	0	1	0	0	0	2	4	0	0	0	0	2	0	0	2	0	3	0	1	0	0	0	0	0	0	1
OTU 25	0	0	0	0	0	0	0	0	0	0	0	0	0	0	0	0	0	0	0	0	0	0	0	0	0	0	0	0	0	0	0	0	0	6	0	0	0	0	0	0	0	0	0	0	0	0	0	0	0	0
OTU 26	2	0	0	0	0	0	0	0	0	0	0	0	1	1	0	0	0	1	1	0	0	0	0	0	0	0	0	2	0	0	0	0	0	0	0	1	0	0	0	0	0	0	0	0	0	0	0	0	0	0
OTU 27	0	0	0	0	0	0	0	0	0	0	0	0	0	0	0	0	0	0	3	0	0	0	0	0	0	0	0	0	0	0	0	0	0	0	0	0	0	0	0	0	0	0	0	0	0	0	0	0	0	0
OTU 28	0	0	8	7	0	0	4	0	0	3	0	4	0	3	0	3	0	0	3	1	3	1	1	1	8	5	6	0	0	9	1	0	0	2	0	0	3	1	0	0	0	15	1	6	1	6	2	1	9	4
OTU 29	7	0	0	3	5	0	0	2	1	1	0	9	0	0	22	0	3	0	2	2	2	2	8	2	3	16	2	4	15	2	1	0	0	7	0	0	8	16	2	6	7	1	1	1	2	1	0	5	3	4
OTU 30	0	0	0	0	0	1	0	0	0	0	0	0	0	0	0	0	0	0	0	0	0	0	0	0	0	0	0	0	0	0	0	1	0	0	0	0	0	0	0	0	0	0	0	0	0	0	1	0	0	0
OTU 31	1	0	0	5	0	2	0	0	2	20	0	0	0	0	0	0	30	0	1	0	0	2	0	40	0	0	0	0	0	0	0	0	0	1	0	3	2	1	0	15	0	1	0	0	5	0	0	0	0	3
OTU 32	3	1	9	8	4	0	2	1	0	2	4	1	0	5	3	5	3	1	35	1	0	14	4	2	9	7	0	32	3	0	1	0	0	0	3	27	1	3	2	2	1	2	2	1	0	2	3	49	0	0
OTU 33	0	0	0	0	0	0	0	0	0	0	0	0	0	3	0	0	1	0	2	0	0	0	0	0	0	0	0	0	0	0	1	0	0	0	0	0	0	0	0	0	0	0	0	0	0	0	0	0	0	0
OTU 34	0	4	7	1	0	0	3	1	1	0	1	0	0	12	0	5	4	0	2	0	2	2	2	1	0	0	0	0	0	0	1	1	0	2	2	1	1	1	0	0	5	0	0	4	2	0	2	2	0	0
OTU 35	0	0	0	0	0	0	7	1	0	0	1	0	0	0	1	1	0	1	0	0	2	0	1	0	0	3	0	3	0	1	0	0	1	2	0	1	0	0	1	3	1	0	1	5	0	0	0	0	0	7
OTU 36	0	1	0	0	2	0	1	0	0	0	10	1	0	0	0	3	0	0	0	2	3	0	0	0	0	7	0	0	0	0	0	0	0	8	2	4	1	0	0	1	5	0	4	0	2	0	3	0	0	0
OTU 37	0	0	0	0	0	1	0	0	0	1	0	0	0	0	0	0	0	0	0	0	0	0	0	0	0	0	0	0	0	0	0	0	0	0	0	0	0	2	0	0	0	0	1	0	1	0	0	0	0	0
OTU 38	0	3	0	2	0	0	2	1	0	1	0	1	0	0	4	5	3	2	11	0	5	3	7	1	0	0	0	0	0	0	0	2	0	2	2	36	7	3	0	0	0	0	0	1	0	0	1	0	0	0
OTU 39	0	0	0	0	0	7	0	0	0	4	3	1	0	0	0	0	2	1	0	0	1	0	0	0	1	0	1	2	0	0	0	1	0	1	0	0	2	1	0	1	0	3	0	0	0	0	0	4	0	3
OTU 40	0	4	3	0	0	8	0	0	0	0	0	3	1	3	0	6	3	0	0	1	0	1	1	0	0	0	1	0	3	0	2	0	1	1	21	2	0	1	23	0	0	0	2	0	12	2	0	1	0	3
OTU 41	0	5	3	3	0	0	0	4	62	0	0	0	14	2	0	3	0	1	0	0	2	1	0	1	0	1	0	1	0	11	27	0	0	0	1	4	0	0	0	0	1	2	0	1	0	0	3	2	4	0
OTU 42	0	0	0	0	0	5	0	0	0	0	0	3	0	0	0	0	0	0	0	0	0	0	0	0	0	0	0	0	0	0	1	0	0	1	0	1	0	0	0	0	0	0	0	0	0	0	0	0	0	1
OTU 43	0	0	0	0	0	0	0	0	0	0	0	0	0	0	0	0	0	0	0	0	0	0	0	0	0	0	0	0	0	0	0	0	0	0	0	0	0	0	0	0	0	0	0	0	0	0	0	0	0	0
OTU 44	0	0	0	0	0	0	0	0	0	0	0	0	0	0	0	2	0	0	0	0	0	0	0	0	0	0	0	1	0	0	0	0	0	0	2	0	0	0	0	1	0	0	1	0	0	0	2	0	0	0
OTU 45	1	8	0	5	1	0	4	112	0	2	1	1	0	1	0	2	2	1	0	196	1	2	2	11	2	0	0	0	0	0	2	1	98	0	0	0	0	1	0	1	3	0	0	3	4	0	0	1	0	0
OTU 46	4	1	3	1	0	0	8	0	7	1	10	8	0	0	1	0	0	3	2	0	2	7	0	0	0	1	1	1	1	2	0	4	1	1	0	0	0	42	1	2	1	0	1	1	5	0	3	1	0	7
OTU 47	0	0	0	0	2	1	3	0	0	0	2	0	0	0	3	0	3	1	0	0	0	0	1	1	0	0	0	0	0	0	0	0	0	0	0	0	0	0	2	0	0	1	0	0	0	2	1	0	1	0
OTU 48	6	11	2	0	0	0	1	2	2	2	1	0	0	3	0	2	2	0	1	0	1	7	0	0	1	0	0	1	0	0	1	0	0	0	2	5	0	0	2	2	0	2	0	0	1	1	0	2	1	0
OTU 49	0	1	0	1	0	0	3	1	0	0	0	0	0	0	0	1	0	0	5	0	3	2	0	2	0	1	0	5	111	0	0	0	0	1	3	0	0	0	0	0	0	0	0	0	0	0	0	0	0	0
OTU 50	6	0	1	3	2	1	0	1	0	1	6	0	57	0	2	5	0	1	5	0	1	2	0	6	1	1	1	1	0	0	0	0	0	0	4	6	1	0	0	0	2	0	1	2	4	0	2	1	0	2
OTU 51	0	0	2	1	0	0	0	0	1	0	0	0	0	1	9	0	0	1	0	0	1	5	2	0	0	0	3	1	0	0	0	2	0	0	0	0	1	0	1	0	0	5	0	0	1	3	0	1	1	0
OTU 52	3	1	0	0	1	2	1	0	0	2	0	6	0	0	0	6	1	0	0	0	0	1	0	14	0	0	1	1	1	1	0	1	0	2	2	0	1	0	2	0	0	0	4	1	0	0	1	2	0	0
OTU 53	0	0	0	0	0	0	0	0	0	0	0	0	0	0	0	0	0	0	0	0	0	0	0	0	0	0	0	0	0	0	0	0	0	0	0	0	0	0	0	0	0	0	0	0	0	0	0	0	0	0
OTU 54	0	0	5	0	2	1	4	0	1	4	9	0	3	9	1	1	2	3	0	2	40	4	7	7	7	1	0	3	5	0	1	0	1	5	0	0	2	1	3	4	6	2	2	1	1	6	2	0	1	0
OTU 55	0	0	0	0	0	0	0	1	0	0	0	0	0	0	0	0	0	0	0	0	0	0	0	0	0	0	0	0	0	0	0	0	0	0	0	0	0	0	0	0	0	0	0	0	0	0	0	0	0	0
OTU 56	0	0	0	1	3	1	0	0	0	0	0	1	0	0	0	0	4	1	1	0	2	0	1	0	0	0	1	0	0	0	2	0	0	1	0	0	0	2	0	0	0	3	0	2	4	1	1	0	0	0
OTU 57	1	4	9	0	6	6	2	6	2	0	6	0	2	7	7	5	5	10	1	4	3	1	5	14	2	3	0	3	7	1	6	4	0	4	0	1	3	1	7	0	1	0	5	3	3	2	9	13	1	12
OTU 58	0	3	1	0	0	0	0	0	0	2	1	2	0	1	1	0	0	0	0	0	1	3	0	6	0	2	0	0	0	0	3	0	0	0	0	0	0	0	0	4	1	0	2	0	3	0	0	3	0	1
OTU 59	0	0	0	0	13	0	0	0	4	0	3	0	0	0	0	2	0	0	0	0	2	2	1	3	2	0	0	0	1	0	1	0	0	0	4	0	1	0	0	0	1	0	0	0	0	0	2	0	0	0
OTU 60	0	0	0	0	1	0	1	0	0	3	3	2	0	3	1	5	1	5	6	2	1	3	11	3	3	1	1	2	2	0	0	1	0	1	2	0	0	2	4	1	9	1	0	0	1	0	1	3	0	0
OTU 61	4	10	0	3	11	26	45	0	8	4	2	29	2	17	0	9	2	11	9	2	6	1	2	1	0	1	13	9	6	0	0	13	2	72	7	42	3	18	19	1	2	25	36	4	1	13	3	21	16	0
OTU 62	1	0	0	0	0	0	0	0	0	0	0	0	0	0	0	0	0	0	0	2	0	0	0	0	0	0	0	0	0	0	0	0	0	1	0	0	0	0	0	0	1	1	0	0	0	0	0	0	0	0
OTU 63	2	1	0	0	0	4	0	3	1	0	0	0	2	0	0	0	0	2	4	0	2	3	0	0	0	0	0	72	0	1	0	0	0	1	1	0	0	0	0	0	0	0	0	0	1	0	1	0	0	0
OTU 64	0	3	0	5	5	0	0	0	4	0	1	1	6	4	1	2	2	2	1	0	5	2	3	0	4	2	0	7	5	0	2	1	0	0	0	2	1	1	0	0	0	0	1	9	0	1	0	5	1	3
OTU 65	0	0	0	0	0	0	0	0	0	0	0	0	0	0	0	0	0	0	0	0	1	0	0	0	0	0	0	0	0	2	0	0	0	0	0	0	0	0	0	0	0	0	0	0	0	0	0	0	0	0
OTU 66	2	18	0	1	0	79	0	1	0	0	1	0	0	0	3	0	0	1	0	0	0	1	4	0	0	2	0	0	12	1	0	50	0	0	4	0	0	2	5	1	0	0	2	30	3	0	0	0	0	2
OTU 67	0	1	6	0	0	0	1	1	0	0	3	3	0	0	7	0	0	2	0	1	0	0	0	1	2	0	0	0	3	0	1	6	0	0	0	0	1	2	3	0	1	4	0	26	3	1	0	2	0	1
OTU 68	0	0	0	0	0	1	3	1	0	0	1	0	1	0	0	0	1	0	0	0	0	5	0	0	0	0	0	3	0	0	0	0	0	2	0	0	0	0	0	0	0	0	5	0	0	0	0	4	0	0
OTU 69	0	0	0	4	5	0	0	2	2	0	1	4	0	12	3	8	10	2	0	0	0	0	1	2	1	1	0	0	0	0	0	0	0	0	5	1	0	1	2	0	0	0	5	1	1	1	5	1	0	0
OTU 70	0	0	0	0	0	0	0	0	0	9	9	0	0	1	1	1	1	0	0	0	0	4	0	21	0	0	0	1	1	0	0	1	0	5	0	0	0	0	3	0	0	0	0	0	1	0	0	1	1	0
OTU 71	6	1	15	2	0	0	0	0	0	0	2	0	0	0	0	1	0	0	2	4	4	3	0	0	0	7	1	1	0	3	0	2	4	0	2	0	1	0	4	0	2	1	0	0	0	2	0	4	0	0
OTU 72	0	0	0	2	0	0	0	2	5	0	2	0	0	1	0	1	0	0	0	0	2	0	0	0	0	2	0	0	2	2	0	0	0	1	0	0	0	3	0	0	0	0	0	6	0	0	0	0	0	2
OTU 73	84	2	0	2	0	1	3	0	2	2	1	0	2	0	1	5	1	0	0	0	5	0	2	2	4	6	1	1	1	0	0	1	0	22	0	4	7	0	0	1	0	0	2	1	0	1	2	0	0	2
OTU 74	0	0	0	7	0	0	3	0	34	0	5	1	9	1	3	2	1	0	0	1	3	0	7	3	0	0	0	4	0	20	15	0	0	2	0	0	0	3	0	0	1	0	0	7	0	0	0	6	0	0
OTU 75	4	14	2	0	1	2	2	1	0	1	4	2	3	1	1	0	1	4	1	0	5	0	0	0	0	0	0	0	1	0	2	0	0	0	0	0	1	0	2	1	5	0	7	6	0	0	0	0	0	1
OTU 76	0	2	0	0	0	0	0	0	0	1	1	0	0	0	2	6	0	0	0	0	1	0	0	0	6	0	0	0	0	0	0	0	1	2	2	0	18	0	0	28	2	0	0	0	0	0	1	0	0	39
OTU 77	1	7	0	1	13	6	5	1	1	1	3	0	0	1	0	0	4	2	0	6	1	0	0	1	2	5	0	3	2	7	0	1	0	6	0	1	0	1	0	2	3	0	4	0	5	0	0	1	0	0
OTU 78	0	1	0	0	3	3	14	1	0	0	1	2	0	1	2	0	0	7	0	0	6	1	10	3	0	0	7	0	4	0	1	0	0	18	0	5	1	5	9	0	6	10	6	14	1	9	0	7	5	5
OTU 79	4	2	11	6	1	3	8	8	2	3	18	8	1	1	7	2	4	149	2	0	17	9	56	7	14	9	2	7	3	53	2	4	0	2	2	6	6	1	10	5	3	0	86	12	2	1	1	11	1	0
OTU 80	0	1	0	1	2	1	1	0	3	1	0	6	1	35	43	1	4	0	0	1	1	1	5	6	10	0	0	0	22	0	2	1	0	3	3	1	14	5	1	8	4	1	3	10	1	0	0	1	1	13
OTU 81	0	2	8	0	0	0	2	0	2	4	0	0	1	3	3	5	0	2	9	1	1	0	0	1	6	0	0	2	10	1	0	0	1	7	7	2	0	5	1	10	2	1	0	2	7	0	7	1	1	1
OTU 82	0	0	1	0	0	0	0	1	0	1	0	0	0	3	0	4	3	0	0	2	6	0	2	1	4	0	2	0	0	1	0	0	0	0	0	0	1	0	1	2	1	0	3	0	0	1	3	0	0	0
OTU 83	1	0	2	0	0	0	0	0	0	0	0	0	0	0	0	0	0	0	0	0	5	0	0	0	0	0	0	0	0	0	0	0	0	0	0	0	0	0	1	0	0	0	2	0	0	0	0	0	0	0
OTU 84	0	1	1	3	0	3	1	0	0	0	0	0	0	0	1	0	0	2	0	2	4	1	0	3	3	9	1	0	0	0	2	2	5	11	0	0	0	1	3	0	9	0	0	0	0	0	0	1	0	0
OTU 85	2	0	0	0	0	0	0	2	0	0	0	0	0	0	2	0	0	0	4	0	0	7	0	0	0	0	0	0	0	0	0	0	0	0	1	0	1	1	0	0	0	0	1	0	1	0	2	0	0	2
OTU 86	0	0	0	0	0	0	0	0	0	0	0	0	0	0	0	0	0	0	0	0	0	0	0	0	0	0	0	0	0	0	11	0	0	0	0	0	0	0	0	0	0	0	1	0	0	0	0	0	0	0
OTU 87	0	0	0	0	0	1	0	0	0	0	0	0	0	1	0	3	0	0	46	0	0	1	0	0	2	6	0	0	0	0	0	0	0	3	1	0	0	0	0	0	0	0	0	1	1	1	2	0	1	0
OTU 88	0	0	0	0	0	0	0	0	0	0	0	1	0	0	0	0	0	0	0	0	1	0	4	0	5	0	0	0	0	0	1	0	0	0	0	0	0	0	0	0	0	0	0	0	0	0	0	0	0	0
OTU 89	0	0	0	0	0	1	0	0	0	0	1	0	0	0	0	0	3	0	0	0	2	0	0	0	0	0	0	0	0	0	0	4	0	3	0	0	0	0	0	0	1	0	0	1	2	0	0	1	0	1
OTU 90	0	4	3	1	0	0	1	0	0	0	0	0	0	0	0	0	0	0	0	1	0	12	0	0	0	0	0	0	0	0	1	0	0	0	0	0	0	0	0	1	0	0	0	0	0	0	0	0	0	0
OTU 91	0	0	0	0	0	0	0	0	0	0	0	0	0	0	0	0	0	0	0	0	0	0	0	0	0	1	0	1	3	0	0	0	0	0	0	0	0	0	0	0	0	2	0	0	0	0	0	0	0	0
OTU 92	0	1	1	0	0	0	0	0	0	0	0	0	0	0	0	0	0	0	0	0	0	1	0	0	0	0	0	0	0	1	2	1	0	0	0	0	0	0	0	0	0	5	0	1	0	0	0	0	1	1
OTU 93	0	0	0	0	0	0	0	0	0	0	0	2	0	1	0	6	0	0	0	0	0	1	0	0	0	0	0	0	0	0	0	4	0	0	0	2	0	1	0	0	0	0	2	1	0	0	1	0	0	0
OTU 94	1	3	7	2	0	1	7	6	7	0	0	3	1	0	19	5	3	0	1	2	5	8	0	0	0	2	2	4	3	62	6	0	1	9	1	0	0	0	5	4	1	2	7	6	15	0	2	7	0	0
OTU 95	0	0	0	0	0	1	0	0	0	0	0	1	0	0	0	1	0	0	0	0	0	0	0	0	0	1	0	0	0	0	0	5	0	0	1	0	0	0	2	0	0	5	2	0	1	2	0	0	1	0
OTU 96	0	0	0	0	0	0	0	0	0	0	0	0	0	0	1	1	0	0	0	0	0	0	0	0	0	0	0	0	0	0	0	0	0	0	0	0	0	0	0	0	0	0	2	0	0	0	0	0	0	0
OTU 97	0	0	0	0	2	0	0	0	1	0	0	0	0	0	0	0	0	0	0	0	0	0	0	2	0	2	1	1	0	1	0	1	0	0	0	0	0	0	0	0	1	0	0	0	0	0	0	0	0	0
OTU 98	1	0	1	0	2	3	0	0	0	2	0	0	0	0	0	7	1	0	0	0	0	0	0	0	0	4	0	0	0	0	0	0	0	5	0	1	0	0	0	0	1	0	0	1	0	0	1	0	0	0
OTU 99	5	7	1	1	62	2	1	6	3	0	3	0	1	1	15	1	1	6	2	2	11	0	2	0	4	1	0	0	0	1	0	0	0	1	0	2	52	0	1	63	2	1	0	3	5	0	1	5	0	129
OTU 100	0	1	53	0	2	4	3	1	3	0	0	0	2	0	0	6	1	6	2	1	1	0	5	3	0	0	0	55	0	0	0	1	1	0	0	1	50	0	0	0	5	0	1	0	0	0	5	3	0	3
OTU 101	0	0	0	0	0	0	0	0	0	0	0	0	0	0	0	0	0	0	0	0	0	0	0	0	0	0	0	0	0	0	0	0	0	0	0	0	0	0	0	0	0	0	0	0	0	0	0	0	0	0
OTU 102	0	0	0	0	0	0	0	1	0	0	0	0	2	0	2	0	0	0	0	0	0	0	0	0	0	0	0	0	0	0	1	0	0	1	1	0	0	1	0	0	0	0	0	0	0	0	0	0	0	0
OTU 103	4	0	0	0	3	0	0	0	0	0	0	0	0	0	0	1	2	2	3	1	4	3	2	0	0	0	0	3	1	2	0	1	0	1	2	3	0	0	2	0	2	0	2	7	0	0	0	3	0	3
OTU 104	3	0	0	141	0	1	2	2	1	1	4	4	74	0	0	1	1	3	0	0	6	0	1	0	3	5	1	1	4	0	0	0	0	0	0	3	0	2	1	0	0	0	1	1	0	1	0	0	0	1
OTU 105	0	0	0	0	0	0	1	1	0	0	0	2	0	0	0	0	0	0	0	0	0	0	1	0	0	1	0	0	0	0	0	0	0	0	0	0	1	0	0	0	0	0	0	0	0	0	0	0	0	0
OTU 106	0	0	4	0	0	0	0	0	0	0	0	0	0	0	0	1	0	0	0	0	0	0	80	0	0	1	0	0	0	0	0	1	0	1	0	0	0	0	0	0	0	0	0	0	0	0	1	0	0	1
OTU 107	0	89	0	0	4	0	0	0	0	0	0	0	0	0	11	1	1	1	0	0	0	0	0	0	0	1	0	2	0	0	0	0	0	0	2	0	0	0	0	0	0	2	1	0	0	0	0	0	0	0
OTU 108	0	0	7	1	5	3	8	1	2	0	0	1	0	0	2	3	2	0	0	1	0	8	8	1	0	1	0	0	1	0	0	0	3	4	0	0	0	2	0	0	0	1	0	4	0	0	0	3	0	0
OTU 109	0	0	0	0	0	0	0	0	0	0	0	0	0	0	0	0	0	0	0	0	0	0	0	0	0	0	0	0	0	0	0	1	0	0	0	0	0	0	0	0	0	0	0	0	0	0	0	0	0	0
OTU 110	3	0	3	9	0	0	1	0	3	0	0	7	1	1	5	0	1	0	0	0	0	8	3	0	4	0	0	1	0	0	7	0	0	0	0	1	0	1	0	1	1	0	0	3	0	0	1	1	0	1
OTU 111	0	0	0	0	0	0	1	0	1	1	0	0	0	0	0	0	0	0	7	0	0	1	0	0	0	0	0	0	0	0	0	0	0	0	0	25	0	0	0	0	0	0	0	1	0	0	0	0	0	1
OTU 112	1	1	0	8	0	0	0	0	0	0	0	0	3	4	5	2	3	0	0	2	0	1	2	0	0	0	0	0	0	0	1	0	0	0	3	2	0	0	0	0	1	0	0	6	1	0	2	0	2	0
OTU 113	0	0	0	0	0	0	0	0	0	0	0	4	0	0	0	0	0	0	0	0	0	0	0	0	3	0	0	0	0	0	0	0	0	0	0	0	1	1	0	0	0	0	0	0	0	0	0	0	0	0
OTU 114	3	0	5	0	4	9	0	0	0	1	11	3	16	0	0	2	0	0	1	0	4	2	1	0	0	0	1	0	1	0	0	4	2	4	1	1	0	1	6	1	6	6	1	5	2	2	1	2	4	2
OTU 115	2	7	2	0	6	1	3	2	6	4	0	4	2	0	3	10	7	3	15	2	12	3	3	4	4	5	0	5	1	2	5	1	0	2	0	1	2	1	0	4	0	0	2	2	1	0	5	10	1	4
OTU 116	0	32	9	1	1	2	3	4	5	0	9	7	3	2	5	2	0	0	6	0	2	1	1	0	1	11	0	3	0	0	0	2	0	0	0	2	3	4	75	1	0	0	0	2	2	98	0	4	0	1
OTU 117	0	0	1	2	0	1	0	0	0	0	6	1	0	0	0	0	41	1	0	4	0	2	0	41	1	0	0	1	2	0	1	3	1	1	0	0	1	0	0	0	2	0	0	0	2	0	0	4	0	0
OTU 118	4	0	0	0	0	0	0	0	0	0	0	1	1	0	1	0	0	1	1	0	0	0	0	0	0	1	0	0	16	0	0	0	0	0	0	0	0	0	0	0	1	0	0	0	0	0	0	0	0	0
OTU 119	2	3	0	1	4	7	0	0	10	2	4	0	2	0	0	2	1	0	48	2	0	2	0	1	14	1	0	1	2	2	13	4	1	2	0	0	0	1	2	3	4	0	1	1	3	1	0	1	0	7
OTU 120	0	0	0	0	0	1	0	1	0	0	0	0	0	0	0	0	0	2	0	0	1	0	2	0	0	0	0	0	6	1	0	5	0	1	0	2	0	0	1	0	2	1	2	1	0	0	0	0	0	0
OTU 121	0	0	0	4	0	0	7	1	0	0	1	0	0	2	10	0	1	0	0	1	1	0	2	1	0	0	1	0	5	1	0	0	1	0	0	0	0	0	1	1	4	1	0	3	1	0	0	0	0	0
OTU 122	4	0	16	0	2	0	1	8	9	0	0	2	4	3	4	9	92	4	0	0	4	5	0	15	2	90	0	0	1	2	5	2	0	1	6	1	0	0	2	1	0	3	0	1	1	2	2	2	1	3
OTU 123	3	5	5	3	6	1	0	8	7	7	1	7	2	2	11	4	3	2	6	1	6	3	1	5	7	4	15	4	7	5	3	0	1	2	3	6	5	1	3	3	4	9	4	1	10	3	0	15	7	4
OTU 124	0	0	0	0	0	0	1	0	0	0	0	0	0	12	2	13	0	0	0	0	0	0	0	0	0	0	0	0	0	0	0	0	0	0	10	1	0	0	0	0	0	0	0	0	0	0	4	0	0	0
OTU 125	1	2	1	0	7	17	11	3	7	1	12	8	1	1	3	5	1	16	2	5	10	0	4	1	20	12	32	0	0	0	0	5	1	11	2	9	2	7	9	0	3	12	7	0	3	3	2	9	7	1
OTU 126	0	0	0	0	0	0	0	0	0	0	0	1	0	0	0	0	0	0	0	0	0	0	0	0	0	0	0	1	0	0	0	0	0	1	0	0	0	0	0	1	0	0	0	0	0	0	0	0	0	0
OTU 127	0	1	0	0	0	1	1	1	1	0	0	0	0	0	4	0	2	0	0	4	2	0	3	0	0	0	0	1	0	0	4	0	0	0	0	0	1	0	0	0	13	1	4	0	1	0	0	3	0	1
OTU 128	2	3	7	1	0	4	1	7	57	35	7	92	19	32	5	2	20	1	2	0	2	0	1	6	1	3	1	8	6	29	26	2	45	7	0	4	1	52	0	2	1	0	7	11	4	18	5	11	2	2
OTU 129	0	0	1	0	2	2	0	0	0	0	9	0	0	0	0	0	0	0	0	0	0	0	0	0	0	0	0	1	0	1	0	0	0	0	0	1	0	0	0	1	0	1	0	0	0	0	0	0	0	0
OTU 130	0	4	1	0	15	0	1	0	0	1	0	0	1	1	3	0	0	1	4	0	0	0	24	3	1	2	0	2	0	0	1	0	0	0	0	0	0	2	0	4	0	0	0	2	1	0	0	1	177	0
OTU 131	0	0	0	1	0	9	0	1	2	2	1	9	0	1	1	4	0	1	2	3	0	1	0	0	2	1	0	2	0	0	131	1	2	0	0	0	0	0	1	5	3	0	1	0	1	1	2	0	0	2
OTU 132	0	0	0	0	0	0	0	0	0	0	1	0	2	0	0	2	0	1	1	0	0	0	0	0	3	0	0	0	0	0	0	0	1	0	1	0	0	2	2	2	0	1	0	0	3	0	1	0	0	0
OTU 133	31	0	0	0	0	0	0	0	0	2	0	0	0	1	0	0	1	0	0	0	0	5	0	2	0	0	0	0	0	0	0	0	0	0	0	0	0	0	0	0	0	0	0	0	0	0	0	0	0	0
OTU 134	0	4	0	1	0	1	0	20	0	0	10	1	0	3	6	1	2	1	0	0	0	7	1	0	0	3	0	2	9	0	2	1	1	2	0	0	0	1	0	0	1	0	2	0	4	0	1	0	0	1
OTU 135	1	0	9	6	0	3	0	1	3	2	3	2	0	0	0	0	3	4	1	0	0	6	0	0	3	0	1	8	1	0	2	0	0	7	1	2	3	0	3	1	3	0	1	0	0	2	1	7	0	1
OTU 136	0	0	0	0	0	1	0	0	0	2	0	0	0	0	0	0	0	0	2	7	0	0	0	1	1	0	0	5	1	0	0	1	4	0	0	7	0	0	0	3	6	0	2	1	0	0	0	12	0	0
OTU 137	0	0	0	0	0	0	0	0	0	0	2	0	0	0	0	1	0	0	0	0	0	0	0	3	0	0	0	1	0	0	0	0	0	0	0	0	0	0	0	0	0	0	0	0	0	0	0	0	1	0
OTU 138	0	0	0	0	0	0	0	0	2	0	2	1	1	0	1	1	3	0	0	0	0	0	0	2	0	0	0	0	0	0	1	0	0	0	0	0	0	0	0	0	0	1	0	3	0	1	0	1	1	0
OTU 139	0	1	16	1	1	0	0	4	0	0	2	1	2	3	1	0	0	0	0	0	9	0	0	0	8	3	8	1	2	1	2	1	0	2	73	0	0	1	0	120	1	19	6	0	0	6	0	6	5	0
OTU 140	5	1	3	9	2	19	6	6	4	5	3	2	0	0	5	0	2	4	3	2	13	2	1	4	9	2	0	3	3	0	3	12	0	1	5	4	0	48	1	0	1	1	2	0	2	0	0	4	0	1
OTU 141	0	0	0	0	0	0	0	0	0	0	0	0	0	0	0	0	0	0	0	0	1	0	0	0	0	0	0	0	0	0	0	0	0	0	0	0	0	0	0	0	0	0	0	0	0	0	0	0	0	0
OTU 142	0	0	0	0	1	0	0	0	0	0	0	0	0	0	0	0	0	0	0	0	2	0	1	0	0	1	0	0	0	0	0	0	0	0	0	0	0	0	0	0	0	0	0	0	0	0	0	0	0	0
OTU 143	0	0	7	0	6	0	2	2	0	0	1	0	0	0	0	0	0	0	0	0	0	0	0	1	0	1	0	0	0	0	1	0	0	0	0	0	0	0	0	1	0	0	0	0	1	0	0	0	0	0
OTU 144	0	0	0	0	0	2	0	0	0	4	2	0	0	0	1	0	0	0	11	0	0	0	1	0	0	2	0	0	0	0	0	0	0	0	0	0	0	0	0	0	3	0	0	0	0	0	0	4	0	0
OTU 145	6	0	0	1	29	7	2	4	2	0	2	0	0	4	0	0	3	4	4	0	0	6	6	2	0	4	7	1	2	0	1	7	0	3	1	1	3	0	12	1	0	4	2	0	2	1	1	0	4	0
OTU 146	0	0	0	0	0	3	0	37	30	26	2	0	6	2	1	2	3	0	0	2	4	0	8	5	4	1	0	1	0	4	6	3	0	0	1	1	0	0	4	0	0	2	1	2	0	5	1	10	5	0
OTU 147	4	0	0	0	0	0	1	0	2	0	1	0	4	3	0	0	0	0	0	0	1	0	2	1	4	0	0	1	0	0	0	1	0	1	0	2	0	0	0	0	0	0	0	0	1	0	0	9	1	0
OTU 148	1	9	0	1	2	2	0	1	0	0	8	3	0	1	1	1	1	0	3	1	0	1	0	0	1	0	0	2	0	1	1	2	1	0	2	1	1	0	0	0	7	1	0	3	0	75	0	2	0	0
OTU 149	0	0	0	0	0	0	0	0	0	0	7	0	0	0	0	0	0	1	4	0	0	2	0	2	0	10	0	0	0	0	0	1	0	0	0	4	2	0	0	1	0	0	0	3	6	0	0	0	0	0
OTU 150	0	2	0	18	0	2	1	0	0	0	2	0	0	0	0	0	0	1	0	0	0	0	0	0	0	0	0	0	0	0	0	0	0	0	0	0	0	0	0	0	0	1	1	0	5	0	0	0	0	0
OTU 151	0	1	0	0	0	0	0	0	0	1	14	2	2	0	0	7	2	0	0	1	9	2	2	0	2	0	0	0	0	0	0	0	1	2	4	4	0	0	2	0	2	0	1	0	1	0	1	0	0	1
OTU 152	0	0	1	6	1	2	0	6	9	2	0	2	2	1	0	1	3	0	8	0	0	4	0	0	0	1	0	0	0	3	3	0	0	5	0	2	0	0	4	0	3	0	2	0	4	0	2	0	1	1
OTU 153	0	0	0	0	0	0	0	0	0	0	0	0	0	0	0	0	0	0	0	0	4	0	0	0	1	0	0	0	0	0	0	0	0	0	0	0	0	1	0	0	0	0	0	0	0	0	0	0	0	0
OTU 154	0	0	0	0	0	0	1	0	0	0	0	0	0	0	1	0	0	1	1	1	0	0	0	0	0	0	0	0	0	0	0	0	0	0	0	0	0	1	0	1	2	0	0	0	0	0	0	0	0	0
OTU 155	0	0	4	0	2	1	0	0	0	0	0	0	0	0	2	2	1	0	3	1	0	0	0	0	1	1	0	0	1	0	0	0	1	0	4	4	1	0	0	0	0	0	0	0	0	0	3	0	0	0
OTU 156	4	5	5	4	2	2	3	3	5	0	2	9	3	43	1	56	2	13	1	1	3	9	1	1	1	42	0	2	0	1	1	0	0	1	40	15	0	0	1	0	0	2	7	1	19	0	26	1	0	6
OTU 157	1	0	2	0	0	0	0	0	3	21	0	0	0	0	0	0	0	0	0	1	0	0	0	3	0	1	1	2	0	0	1	0	1	2	0	2	0	0	1	3	0	0	2	0	0	0	0	0	0	0
OTU 158	0	0	0	0	1	0	0	0	0	0	0	0	0	2	0	1	0	0	0	0	0	0	0	0	0	0	0	0	1	0	0	0	0	0	0	0	0	0	0	0	0	0	0	0	0	0	1	0	0	0
OTU 159	1	1	0	0	1	1	2	0	0	2	1	0	2	0	0	0	0	0	0	4	0	0	0	0	1	0	0	1	0	2	4	0	1	0	0	0	0	1	2	0	0	3	4	0	3	0	0	1	3	0
OTU 160	2	3	5	3	1	5	95	5	3	26	3	0	0	0	1	3	0	0	6	0	2	2	0	5	6	1	0	1	0	4	1	2	0	1	1	7	2	4	1	1	1	0	3	3	0	1	3	1	0	1
OTU 161	2	0	0	0	0	1	8	0	1	19	2	4	1	0	33	0	0	0	1	32	3	1	7	0	1	0	0	0	10	0	2	63	6	3	0	3	3	2	0	8	67	0	1	12	24	0	1	1	0	27
OTU 162	1	0	2	4	1	4	2	4	2	2	3	0	0	0	1	3	3	10	1	0	0	3	1	4	0	12	0	14	0	0	4	1	0	4	2	1	1	0	0	4	0	3	5	0	2	0	2	0	0	0
OTU 163	0	0	0	0	0	0	0	0	0	0	0	0	0	0	0	0	0	0	7	0	5	0	0	0	0	0	0	0	0	0	0	0	0	1	0	0	0	0	0	0	0	0	0	0	0	0	0	0	0	0
OTU 164	0	0	0	0	0	0	0	0	0	0	0	0	0	0	0	0	0	0	0	0	0	0	0	0	0	0	0	0	2	0	0	0	0	1	0	0	0	0	0	0	0	0	0	0	0	0	0	0	0	0
OTU 165	5	1	2	19	1	0	0	0	0	1	0	0	0	0	0	0	0	1	0	3	0	34	3	0	0	0	0	0	0	0	0	1	2	0	1	0	0	1	0	0	9	1	1	3	1	0	0	0	1	1
OTU 166	0	3	0	0	0	0	0	0	0	0	0	0	0	0	2	0	0	0	0	0	1	0	1	0	0	0	0	0	0	0	0	0	0	0	0	0	0	0	0	1	0	0	0	0	0	0	0	0	0	0
OTU 167	0	0	3	0	0	0	0	2	0	0	2	0	0	2	2	1	0	2	0	0	0	2	2	0	1	0	0	0	3	0	0	0	0	0	0	0	0	2	1	0	0	1	0	0	0	1	1	0	0	0
OTU 168	0	16	0	0	76	1	2	1	1	0	0	1	2	0	0	8	1	0	1	0	0	0	0	3	0	2	0	0	2	0	1	0	0	1	1	2	1	1	1	0	1	0	0	3	0	0	2	5	0	1
OTU 169	0	0	0	0	0	0	0	0	0	0	31	0	0	0	0	0	0	0	0	0	0	0	0	0	0	0	0	0	0	0	0	0	0	0	0	0	1	0	0	0	0	0	0	0	0	0	0	0	0	0
OTU 170	0	0	0	0	0	0	0	0	0	0	0	0	0	0	0	0	0	0	0	0	0	0	0	0	0	0	0	0	0	0	0	0	0	0	0	2	0	0	0	0	0	0	0	0	0	0	0	0	0	0
OTU 171	2	0	3	0	2	0	1	0	0	0	0	0	0	0	0	1	0	0	1	15	0	0	0	2	0	0	0	0	10	1	1	0	10	0	3	4	0	0	0	0	39	1	3	40	0	0	0	1	0	0
OTU 172	0	0	0	0	0	0	0	0	0	0	0	0	0	1	0	0	1	0	0	0	0	0	0	2	3	0	0	0	0	0	0	0	0	1	1	0	0	0	0	0	0	0	0	0	0	0	0	0	0	0
OTU 173	0	0	0	1	0	0	0	0	0	0	4	0	0	0	0	0	0	0	0	1	0	2	0	0	1	6	0	0	0	0	0	0	3	0	0	0	1	0	0	0	0	0	5	0	0	1	0	0	0	0
OTU 174	0	10	2	0	0	0	3	1	0	7	0	1	0	0	0	7	0	0	1	0	0	1	0	0	1	0	0	0	0	0	0	1	0	1	5	0	1	1	0	0	3	0	2	0	3	0	2	2	0	0
OTU 175	1	0	0	2	0	0	0	0	1	0	0	0	0	2	1	3	0	0	0	0	0	0	0	1	0	1	0	0	0	0	1	0	0	0	7	0	0	0	0	0	0	0	0	8	2	0	0	4	0	0
OTU 176	6	0	1	1	1	7	7	0	4	0	1	3	0	3	6	0	10	3	3	2	1	4	1	2	61	2	8	0	1	0	0	2	1	2	0	0	0	0	1	0	4	6	0	1	9	2	0	1	7	1
OTU 177	0	1	0	0	0	0	0	7	0	0	9	4	0	2	0	0	0	0	0	2	4	0	0	2	0	5	1	0	1	1	2	1	102	0	0	4	0	0	0	0	3	0	0	2	2	0	0	0	0	1
OTU 178	0	2	0	0	0	0	1	0	0	0	0	0	0	0	3	1	1	0	0	0	6	0	0	0	0	1	0	2	2	0	0	0	0	0	3	0	2	1	1	0	1	1	1	5	0	0	0	0	0	4
OTU 179	0	0	2	0	6	0	0	0	0	0	1	1	0	1	6	0	0	0	1	0	0	2	0	0	1	0	0	1	0	0	0	1	0	0	0	1	0	0	0	2	0	0	1	0	0	0	1	3	0	12
OTU 180	3	4	2	5	0	2	5	3	9	0	6	9	4	4	1	7	11	1	6	0	9	8	0	15	42	4	1	5	3	0	3	2	1	3	2	2	6	15	3	1	0	3	1	4	6	0	2	0	0	5
OTU 181	0	0	1	0	3	1	3	50	0	0	0	0	1	0	0	1	0	5	0	1	3	0	0	0	3	1	0	0	0	1	3	1	0	0	0	0	0	0	2	0	0	0	2	3	0	1	2	2	0	0
OTU 182	0	0	0	0	0	0	1	0	0	0	0	0	0	0	0	0	0	0	0	0	0	0	0	0	0	0	0	0	0	0	0	0	0	0	0	0	0	0	0	0	0	0	0	0	1	0	0	0	0	0
OTU 183	0	0	2	0	0	0	0	0	0	3	0	6	0	3	1	2	0	2	0	0	1	0	0	0	5	2	0	0	1	0	28	0	0	2	0	3	0	0	2	0	0	0	0	1	0	1	3	3	0	0
OTU 184	0	0	2	4	0	0	1	0	0	0	0	1	0	0	0	2	0	0	0	0	2	10	0	0	0	0	2	0	4	0	0	0	0	1	0	0	0	1	2	0	0	1	0	0	81	1	3	0	0	2
OTU 185	0	0	2	5	1	4	0	0	8	0	5	0	2	0	3	3	1	5	0	0	1	0	0	3	1	0	2	0	0	0	0	6	1	10	0	0	0	0	2	3	1	1	0	1	1	1	1	0	0	0
OTU 186	2	1	0	0	1	3	0	1	3	0	0	1	0	0	0	2	0	0	2	0	0	1	0	0	0	0	0	0	4	0	3	0	0	3	0	0	0	1	0	0	0	0	0	0	1	0	102	2	0	1
OTU 187	14	0	9	16	2	3	2	0	0	0	10	14	0	0	1	1	2	0	25	0	3	39	2	1	5	6	0	5	0	0	0	2	0	1	0	48	1	5	0	2	0	1	0	0	3	0	0	9	0	1
OTU 188	2	0	8	0	9	2	2	2	1	6	0	5	4	4	6	9	10	7	1	3	3	0	1	2	7	7	3	4	9	1	0	0	0	1	3	6	4	1	6	4	12	2	5	3	3	4	10	3	4	4
OTU 189	17	0	0	1	0	5	0	0	6	0	3	1	2	3	2	0	2	0	0	6	9	0	7	2	8	0	0	0	2	2	1	7	1	1	2	1	2	0	0	3	4	0	4	2	1	0	1	6	0	3
OTU 190	0	0	0	0	0	0	0	0	0	0	0	0	0	0	1	1	1	0	2	0	0	0	0	0	1	0	0	0	0	0	0	0	0	0	1	0	0	0	0	0	0	0	0	2	0	0	0	0	0	0
OTU 191	0	5	1	1	3	4	1	0	6	104	0	2	1	2	1	18	1	1	0	0	3	0	2	0	0	0	0	7	4	1	0	0	1	2	7	2	108	1	0	1	0	2	2	0	1	0	7	5	0	0
OTU 192	0	6	7	1	1	5	2	0	1	0	10	0	0	0	0	0	0	0	0	0	1	6	1	1	1	1	57	1	2	0	0	3	1	2	2	1	0	0	0	0	1	86	2	2	1	51	0	1	51	1
OTU 193	0	3	0	1	0	2	1	0	4	1	0	2	0	1	2	2	1	2	15	1	4	1	0	2	1	0	0	0	3	0	0	1	0	0	1	13	1	5	0	0	4	0	1	1	0	0	0	1	0	0
OTU 194	0	0	0	0	0	0	0	0	0	0	2	0	0	0	0	0	1	0	0	0	5	8	0	0	0	1	0	0	1	0	0	0	0	0	0	0	0	0	0	2	0	0	0	0	2	0	0	0	0	0
OTU 195	1	0	1	0	2	2	1	0	0	0	0	13	0	1	19	1	0	1	0	0	0	1	7	0	4	0	0	0	9	1	0	0	1	0	0	0	3	13	0	5	0	0	2	10	0	1	0	1	0	7
OTU 196	0	0	0	0	0	1	0	0	1	0	3	0	0	1	1	0	1	0	1	0	5	0	1	0	4	1	0	0	0	0	1	0	1	4	0	0	3	0	1	1	0	0	0	0	1	0	0	0	0	4
OTU 197	4	4	1	2	2	6	2	2	0	1	4	3	1	7	3	11	0	1	0	20	2	10	9	1	0	0	0	0	6	2	0	2	3	2	4	0	2	0	1	0	28	6	0	0	11	1	7	0	1	0
OTU 198	0	1	0	0	0	0	0	0	0	0	4	0	0	0	0	0	1	0	0	0	0	0	0	7	0	0	0	0	0	0	1	0	0	0	0	0	0	0	0	2	0	0	0	0	0	0	0	1	0	0
OTU 199	1	4	0	0	0	1	3	1	1	0	0	0	0	0	3	0	1	3	0	0	0	0	0	0	0	0	0	1	0	0	0	1	0	0	2	0	0	0	0	0	0	2	1	1	3	1	0	0	0	0
OTU 200	1	1	0	0	0	7	2	5	0	0	2	0	0	0	0	0	0	0	1	0	1	0	4	2	2	1	0	0	0	0	3	7	8	0	0	0	6	1	0	5	2	0	0	0	0	0	0	0	0	1
