	Host 1	Host 2	Host 3	Host 4	Host 5	Host 6	Host 7	Host 8	Host 9	Host 10	Host 11	Host 12	Host 13	Host 14	Host 15	Host 16	Host 17	Host 18	Host 19	Host 20	Host 21	Host 22	Host 23	Host 24	Host 25	Host 26	Host 27	Host 28	Host 29	Host 30	Host 31	Host 32	Host 33	Host 34	Host 35	Host 36	Host 37	Host 38	Host 39	Host 40	Host 41	Host 42	Host 43	Host 44	Host 45	Host 46	Host 47	Host 48	Host 49	Host 50	
OTU 1	14	20	66	116	60	102	20	77	125	15	1	0	16	6	16	96	66	19	0	18	0	39	0	38	55	34	7	54	0	0	43	80	5	272	137	18	26	87	291	0	80	236	60	101	73	112	79	35	37	122
OTU 2	1	40	1	11	23	0	2	0	0	1	8	4	0	24	0	146	0	11	0	3	245	131	37	758	0	51	15	11	0	3	11	7	5	1	1	128	10	1	0	19	0	7	3	27	1	12	125	10	67	11
OTU 3	2	0	19	4	0	4	80	0	0	0	0	1	0	0	0	1	0	16	36	6	0	1	33	6	0	1	3	0	0	0	8	0	7	1	0	0	0	2	0	1	96	54	16	9	0	11	0	2	1	1
OTU 4	0	0	0	0	0	0	0	0	0	0	0	0	0	0	0	0	0	0	0	0	0	0	0	0	0	0	0	0	0	0	0	2	0	0	0	0	0	0	0	0	0	0	0	0	0	0	0	0	0	0
OTU 5	512	169	1317	329	308	11	189	125	9	469	203	150	410	2	0	16	4	1147	253	9	43	83	167	149	231	45	90	1446	0	581	217	202	427	121	325	192	211	614	517	52	0	2283	220	461	290	1034	8	88	65	300
OTU 6	0	9	0	38	0	31	116	1	3	104	11	11	0	23	12	4	0	9	6	11	1	85	12	0	6	0	1	28	43	26	35	48	20	24	1	49	29	0	0	2	16	0	7	78	330	15	0	26	2	31
OTU 7	1823	15	13	39	51	14	32	18	22	33	752	58	38	961	214	107	89	61	15	21	94	69	78	554	34	40	114	37	181	22	3	1752	71	116	743	5	1	37	1576	26	79	40	32	47	21	6	30	39	55	46
OTU 8	57	120	0	23	8	22	64	72	51	45	160	449	9	14	54	133	34	23	77	118	8	82	112	53	25	96	53	235	31	6	10	327	63	38	3	43	58	0	23	24	224	31	96	111	51	7	37	394	65	64
OTU 9	17	52	49	0	0	18	167	0	6	2	1	26	0	66	6	11	1	31	0	4	47	5	17	38	4	18	4	0	0	6	2	3	0	49	0	7	0	3	17	4	0	14	9	7	18	10	1	2	5	7
OTU 10	53	117	9	27	1	9	1	7	1	0	25	1	0	69	11	3	0	47	0	0	6	18	0	26	1	19	0	4	0	21	5	95	4	2	0	0	44	1	0	0	5	42	6	4	0	1	12	1	0	2
OTU 11	10	19	1	88	13	27	68	12	76	43	24	12	28	166	30	240	54	10	9	40	50	125	0	18	60	43	4	68	18	943	27	92	4	11	53	8	21	9	76	85	14	7	2	2	9	8	98	132	141	62
OTU 12	92	25	29	46	35	5	50	9	17	54	42	35	0	19	12	48	18	18	72	47	20	130	5	27	159	87	4	15	19	20	20	13	9	153	7	95	88	45	4	62	78	101	97	78	142	90	1	42	20	4
OTU 13	0	0	0	0	0	0	0	0	1	1	0	0	0	0	0	0	0	0	10	7	0	0	14	0	12	0	0	3	0	0	0	0	0	0	0	0	3	1	0	0	0	0	0	0	0	0	0	30	0	0
OTU 14	0	51	0	25	0	3	36	1	2	3	8	67	0	0	65	17	3	0	0	17	24	55	14	14	279	5	24	2	1	3	22	8	34	0	2	0	89	15	11	3	110	19	1	1	9	0	0	0	9	12
OTU 15	0	0	0	0	0	0	0	13	11	0	0	0	0	0	0	0	0	0	0	0	0	0	0	0	0	0	0	0	0	0	0	0	0	0	0	0	1	0	0	0	1	0	0	2	4	0	0	0	0	1
OTU 16	0	0	0	0	0	0	0	0	0	9	0	0	0	0	0	0	0	0	0	0	36	0	0	0	0	0	0	0	0	0	0	0	0	0	0	0	0	0	0	0	14	6	0	0	0	0	0	0	0	0
OTU 17	0	4	0	26	0	2	32	0	0	1	7	5	0	100	62	0	0	6	26	0	0	8	1	14	68	26	36	36	10	1630	3	6	52	17	1	6	0	1	3	0	1	0	4	19	0	1	60	14	0	47
OTU 18	8	24	25	3	25	14	29	64	22	2	8	15	9	1	11	68	14	25	103	68	349	75	69	10	2	49	10	27	59	49	14	4	68	123	7	0	136	42	10	2	91	45	27	19	63	26	1552	87	35	54
OTU 19	0	0	0	0	0	0	0	0	0	0	0	0	0	0	1	0	0	0	0	0	0	0	0	0	0	0	27	0	143	0	0	0	0	0	0	0	0	0	0	0	0	0	0	0	0	0	0	0	0	0
OTU 20	2	144	20	7	14	28	3	11	1	240	17	8	0	37	6	10	0	7	10	2	22	0	24	153	1	17	0	23	25	1	31	24	2	43	6	1	63	7	14	112	0	4	3	0	137	37	8	17	3	0
OTU 21	56	24	17	5	0	47	20	44	81	0	40	24	37	38	51	19	38	67	46	234	95	41	176	8	60	2	95	4	11	31	5	16	140	29	1	27	4	10	1	4	298	19	25	53	268	4	6	15	9	129
OTU 22	1	34	31	76	11	54	12	51	56	13	32	3	17	259	234	13	47	2	9	1	0	3	4	31	42	0	88	79	32	0	12	42	1055	66	9	72	60	6	48	43	24	45	236	347	1	11	19	111	4	28
OTU 23	0	0	0	6	3	2	33	17	0	0	0	76	2	4	0	12	4	52	102	10	38	2	13	1	37	10	6	14	39	28	7	2	1	157	5	0	33	6	3	128	22	0	10	10	3	23	27	5	6	10
OTU 24	1	4	41	0	1	2	4	0	48	18	0	38	24	81	43	101	12	15	86	0	16	115	23	0	0	1	4	2	3	0	28	13	0	51	0	18	8	4	0	153	21	0	23	49	52	2	1	0	31	68
OTU 25	0	15	0	0	0	0	0	0	0	0	0	0	0	0	0	2	0	0	0	0	0	0	0	0	0	0	0	0	0	0	0	1	4	38	0	0	0	0	0	0	0	0	0	0	0	0	5	0	1	0
OTU 26	22	5	7	1	0	0	4	0	0	0	0	0	0	5	4	0	0	0	0	0	0	0	0	23	0	0	0	0	0	24	0	0	0	0	1	0	1	0	0	0	14	2	0	0	2	0	0	0	0	0
OTU 27	0	0	0	0	0	0	0	0	0	0	0	0	0	0	0	0	1	0	55	0	0	7	1	6	0	0	0	0	0	0	0	0	0	0	0	2	0	0	0	5	0	0	0	0	0	0	0	0	0	0
OTU 28	6	20	142	99	46	5	144	26	11	85	2	108	7	22	5	97	1	1	25	12	25	29	40	61	118	59	15	3	31	208	19	21	15	88	5	31	76	114	9	5	15	335	68	108	26	101	30	18	52	169
OTU 29	88	2	16	100	75	27	17	33	4	4	14	276	1792	27	527	1	7	12	67	23	46	74	144	63	67	538	212	41	180	116	51	44	31	191	80	7	116	4	167	71	122	85	75	216	36	59	26	100	0	72
OTU 30	0	0	0	0	0	0	0	0	0	0	0	0	0	0	0	0	0	0	0	0	0	0	0	0	0	0	0	0	0	0	0	0	0	3	2	0	0	0	16	0	0	0	0	0	0	0	0	0	0	0
OTU 31	36	0	23	29	0	21	0	2	0	360	9	0	1	2	3	15	6	2	4	0	1	14	0	601	0	1	0	0	0	1	0	9	6	14	0	17	82	0	0	358	4	6	0	8	76	1	1	0	10	29
OTU 32	22	52	8	140	13	14	29	33	10	58	36	9	0	126	54	109	5	93	685	7	3	470	39	139	253	96	27	386	74	8	21	6	16	35	7	688	37	27	67	52	58	21	4	34	23	47	163	908	55	90
OTU 33	8	0	0	1	17	0	0	0	65	0	2	0	7	35	0	0	30	0	45	0	3	0	0	0	0	0	0	0	0	0	24	0	0	0	1	0	0	0	0	1	0	0	0	0	51	0	0	13	0	0
OTU 34	33	135	2	10	11	0	28	22	25	4	18	12	1	230	0	201	14	29	16	41	98	53	35	98	34	2	1	0	54	1	8	25	4	77	2	34	8	0	2	7	85	3	11	39	21	18	43	0	78	32
OTU 35	1	12	3	57	0	1	80	2	3	3	0	8	4	2	0	59	4	3	6	2	32	1	18	33	3	97	2	1	27	0	39	19	3	33	0	44	18	9	2	46	67	6	3	71	3	14	10	8	34	195
OTU 36	21	1	2	34	42	0	110	72	7	0	1	8	4	1	10	175	9	9	0	38	17	44	29	28	19	206	9	4	1	4	5	0	24	132	1	91	24	0	16	0	46	21	11	27	36	8	22	17	104	4
OTU 37	15	0	0	0	17	1	15	0	0	0	2	0	0	0	1	1	2	0	2	0	0	0	3	0	12	3	2	0	0	0	0	20	1	0	0	4	0	1	0	10	0	0	0	12	0	6	0	0	0	0
OTU 38	24	47	24	23	9	3	117	18	0	23	56	19	2	67	58	23	5	57	445	0	51	144	279	100	6	13	76	0	0	3	1	31	4	125	5	647	54	5	5	12	12	19	32	17	4	0	42	0	11	31
OTU 39	7	3	22	0	0	0	1	0	0	29	20	6	0	0	10	0	0	15	0	0	0	13	5	0	0	23	0	52	0	0	0	28	1	13	0	4	2	0	0	67	0	52	0	0	0	0	1	56	0	79
OTU 40	6	151	9	0	26	25	11	18	1	60	6	216	0	39	5	80	3	17	4	9	157	41	43	20	44	1	4	4	115	3	62	22	14	0	357	51	28	2	739	28	2	66	1	1	133	3	38	41	39	124
OTU 41	2	263	40	87	25	3951	7	56	1892	3	0	3	429	26	55	121	918	3	0	44	67	0	2	79	4	4	41	9	15	272	942	0	2	7	30	92	20	31	70	1	113	31	19	18	7	27	71	31	60	27
OTU 42	0	0	0	0	0	0	0	20	2	1	0	2	0	0	87	0	1	0	0	0	0	4	21	0	0	0	8	0	75	0	0	0	1	27	19	0	0	0	2	0	0	0	3	0	2	3	0	5	0	1
OTU 43	0	0	0	0	0	0	0	0	0	0	4055	0	1	0	0	0	3	0	0	0	1	0	6	0	5	0	0	0	0	0	0	0	0	0	0	0	0	0	3	0	0	0	0	6	0	0	0	0	0	4
OTU 44	6	23	0	0	10	4	0	0	2	0	0	0	0	0	1	31	0	4	0	50	0	0	0	0	0	0	0	0	0	4	2	2	0	2	0	0	0	0	0	16	2	1	0	12	0	8	38	1	12	1
OTU 45	30	170	8	64	72	10	26	2116	9	11	43	20	0	106	29	83	0	17	36	4015	41	26	90	267	30	5	0	8	1	9	4	13	2297	6	12	6	33	4	0	31	6	0	36	16	36	2	136	45	34	6
OTU 46	84	26	18	83	40	84	313	27	177	4	17	304	62	52	171	11	81	28	49	1	96	87	62	18	101	15	1106	1	40	35	0	23	31	12	39	16	36	31	25	17	49	43	1	23	184	44	4	8	5	74
OTU 47	3	0	0	0	23	0	9	0	0	2	10	3	0	0	50	21	0	24	0	0	0	22	0	0	0	0	12	6	3	0	0	5	2	5	17	12	0	0	59	0	0	0	0	5	1	13	2	15	10	0
OTU 48	39	216	27	3	36	71	20	132	64	63	40	102	5	80	93	7	11	2	40	2	55	121	120	22	50	8	64	5	4	10	6	16	6	2	2920	27	14	55	57	3	25	171	1	35	10	76	27	0	5	19
OTU 49	0	2	0	14	0	37	120	77	0	0	8	7	0	0	7	9	0	5	57	11	27	90	0	1	0	10	5	1	3020	4	0	12	12	7	1	0	0	0	0	0	0	11	0	4	44	1	0	0	5	16
OTU 50	91	2	7	61	61	11	7	6	0	44	3	3	2	1	25	44	4	24	183	2	101	94	68	191	46	46	3	18	19	10	3	18	2	22	73	160	59	15	75	20	62	14	3786	77	57	14	14	53	17	14
OTU 51	19	5	22	11	7	28	0	12	87	0	0	1	22	29	252	32	66	32	1	1	6	69	3	4	55	1	73	20	2	1	3	0	3	3	15	3	134	50	30	5	10	9	4	5	5	52	4	0	17	0
OTU 52	77	56	9	58	83	21	27	20	8	33	50	12	0	34	17	179	1	6	8	23	7	41	16	224	39	54	56	126	26	4	22	78	6	155	7	12	34	24	6	58	49	73	15	12	72	6	56	131	98	30
OTU 53	0	0	0	0	0	3	0	0	0	0	0	2	0	0	0	0	0	0	0	0	0	0	33	0	0	0	0	0	0	0	0	0	0	0	0	0	0	0	0	0	0	0	0	10	0	0	0	0	0	0
OTU 54	4	8	62	20	11	9	80	40	105	33	0	21	17	196	84	169	31	31	60	154	741	117	211	262	233	8	40	17	103	27	29	13	38	53	15	8	65	25	31	17	120	134	96	144	63	37	20	34	99	11
OTU 55	0	0	0	0	0	0	0	2	0	0	0	0	0	0	2	0	0	0	0	0	0	0	7	0	0	0	0	0	0	0	0	0	0	5	0	0	0	0	0	0	0	0	0	0	0	0	0	0	0	0
OTU 56	0	0	5	19	88	0	0	33	0	7	0	19	0	0	0	0	0	17	46	49	85	10	2	2	12	6	6	0	9	1	4	8	1	113	1	45	11	0	0	38	32	9	28	79	67	5	5	0	0	10
OTU 57	25	113	38	22	45	51	17	73	37	8	17	14	7	261	314	64	14	177	33	55	168	61	195	172	11	65	339	86	116	46	181	31	5	134	67	116	68	15	146	42	47	41	12	33	113	29	231	134	24	152
OTU 58	29	72	35	55	5	7	5	0	8	13	2	45	4	6	21	0	0	18	10	0	3	43	2	77	0	31	9	22	36	1	6	11	7	0	8	6	1	5	19	2	2	5	0	7	75	19	9	23	0	35
OTU 59	0	13	5	0	242	0	3	0	12	31	0	2	8	2	0	33	6	5	1	6	131	21	16	10	10	31	0	10	6	2	106	3	7	33	1	16	10	2	2	16	3	2	10	18	21	3	18	4	15	0
OTU 60	34	116	21	72	7	54	8	16	5	132	24	13	0	15	28	106	0	122	61	72	80	60	303	22	0	24	8	32	114	9	15	64	11	28	32	35	1	92	99	14	212	122	36	13	30	90	30	61	46	4
OTU 61	66	263	346	54	433	34	984	21	53	89	139	644	370	338	85	168	706	407	170	58	349	23	36	9	26	26	52	254	88	37	13	222	7	1344	348	974	7	205	543	5	24	562	44	41	55	429	90	470	69	71
OTU 62	4	4	2	0	0	0	0	30	3	0	0	0	4	17	0	0	1	5	1	0	13	21	0	1	0	8	0	9	2	23	0	3	8	3	0	9	21	1	0	0	24	53	0	7	0	0	22	18	0	0
OTU 63	65	23	2	37	0	32	3	21	31	0	580	0	2	4	5	1	31	17	64	34	0	50	11	15	17	2	0	1	3	13	11	0	0	22	4	2	10	0	20	0	0	11	17	30	18	0	26	6	0	1
OTU 64	6	54	0	21	70	76	16	85	114	92	48	70	26	66	22	31	77	64	34	11	163	33	59	18	16	85	12	65	129	22	126	137	6	2	4	27	10	7	5	24	0	22	103	220	11	26	7	87	10	55
OTU 65	0	2	0	0	0	0	0	5	0	0	0	1	0	0	0	0	0	0	0	19	38	0	0	2	4	0	1	0	0	22	0	0	1	0	0	0	0	0	1	0	0	0	0	0	0	0	0	1	0	0
OTU 66	24	336	0	103	42	2	0	49	13	50	487	0	2	56	57	3	2	10	7	38	21	41	75	2	0	10	49	4	74	22	14	900	4	58	12	102	32	6	30	75	18	0	835	568	143	6	29	6	2	31
OTU 67	14	46	19	31	4	26	36	25	53	17	56	2	14	14	265	4	29	52	8	93	19	35	2	62	8	9	70	106	9	3	4	124	24	14	48	46	37	28	99	20	15	102	368	630	56	34	36	52	0	6
OTU 68	15	0	0	7	0	19	127	7	22	0	0	1	0	7	0	3	3	8	0	8	0	42	29	0	4	17	8	92	0	0	0	0	0	20	1	0	0	0	10	0	2	0	0	0	0	11	0	104	1	0
OTU 69	34	10	0	130	39	1	22	0	47	4	13	55	7	166	0	158	39	16	20	4	19	64	74	109	1	2	35	3	54	16	2	35	0	13	15	0	15	17	34	2	0	1	16	10	31	23	52	3	85	29
OTU 70	0	0	21	3	1	3	0	1	15	41	0	27	1	4	28	0	6	20	3	6	20	170	0	285	23	0	7	2	7	5	2	5	0	80	42	0	0	4	73	0	0	6	1	0	123	0	0	42	0	0
OTU 71	30	15	0	90	0	0	4	19	10	1	13	0	0	17	2	1	0	9	78	66	54	59	54	43	13	99	5	56	27	119	19	77	5	22	43	27	40	0	80	0	56	23	26	67	0	9	0	61	0	0
OTU 72	20	47	12	4	11	23	6	59	10	5	1	2	12	17	10	11	16	24	8	12	11	4	3	18	6	28	1	0	0	44	81	12	0	57	1526	5	3	10	11	12	2	28	55	161	22	5	40	6	4	74
OTU 73	1923	20	1	46	14	18	140	30	38	32	6	98	1	7	4	61	12	0	5	5	109	0	55	18	31	54	27	6	0	17	15	12	23	511	1	64	92	0	1	54	8	6	0	1	3	9	32	0	24	86
OTU 74	1	11	29	156	19	523	79	8	675	29	18	9	187	0	154	54	383	0	26	64	74	92	133	154	11	20	31	79	0	251	375	34	17	19	30	29	3	3	60	5	14	11	150	107	27	0	6	235	20	54
OTU 75	102	151	3	5	4	28	24	17	9	39	0	25	0	29	9	19	7	31	21	5	146	12	26	10	13	3	2	0	13	45	48	2	15	118	21	8	26	6	26	15	172	24	63	104	32	0	14	14	186	40
OTU 76	2	21	47	0	15	4	0	4	3	69	0	25	1	23	83	13	7	0	0	2	43	2	4	0	68	0	49	0	5	0	35	1	6	24	0	0	416	0	0	586	4	27	2	0	2	0	2	0	7	745
OTU 77	43	70	9	16	218	17	219	8	10	46	6	11	8	29	34	11	19	21	7	30	34	2	15	37	80	104	24	684	102	152	0	1	15	250	4	80	6	5	0	0	85	0	6	19	102	4	18	25	7	41
OTU 78	2	170	187	23	7	0	247	4	36	15	9	88	8	18	4	19	23	64	14	45	111	12	90	9	1	7	9	54	54	1	21	2	1	304	35	97	10	82	98	4	88	177	119	362	15	94	9	265	6	91
OTU 79	24	5	40	319	82	40	210	79	71	216	44	243	16	47	239	174	27	3622	103	22	246	69	1287	145	245	337	198	118	85	1072	46	21	43	77	67	111	253	63	173	85	74	162	138	261	102	62	104	292	88	66
OTU 80	91	48	8	27	122	54	42	17	56	17	0	114	14	855	777	39	25	12	2	89	25	45	94	147	149	15	358	22	316	38	3	2	21	101	11	31	441	7	6	95	53	4	85	224	43	1	55	56	14	205
OTU 81	72	124	7	16	14	15	62	11	81	64	0	45	16	59	13	366	21	78	203	49	6	18	59	14	208	19	471	5	149	28	24	17	14	109	2	25	6	4	7	343	33	4	43	23	116	9	179	30	163	2
OTU 82	0	4	79	0	3	0	8	55	3	20	13	12	0	40	20	65	0	23	11	24	91	40	1	55	118	15	19	6	0	3	0	0	2	32	55	0	25	1	102	76	21	25	10	21	0	0	70	0	32	26
OTU 83	0	0	0	0	8	0	4	0	4	0	1	0	0	3	21	60	9	0	0	1	8	0	4	0	0	1	31	0	0	7	0	0	0	3	0	0	0	0	0	0	0	2	2	1	0	1	26	0	33	5
OTU 84	11	66	7	15	19	0	57	0	9	0	53	23	8	1	0	0	10	0	5	43	127	0	3	22	60	170	35	6	1	0	33	88	33	136	12	0	7	0	14	1	55	0	1	2	63	0	2	18	0	4
OTU 85	0	41	0	3	0	0	1	20	0	0	0	1	0	0	34	0	1	0	80	5	0	2	9	5	0	13	47	0	0	0	1	2	2	21	0	2	2	0	0	0	0	9	0	0	2	8	16	2	0	44
OTU 86	0	0	0	3	15	0	0	20	0	0	2	0	1	0	0	0	0	15	6	6	0	0	1	0	0	1	0	0	0	0	138	0	0	7	1	0	1	0	0	0	0	0	15	12	0	0	0	0	0	0
OTU 87	2	0	0	20	1	4	4	0	0	1	3	0	0	0	0	127	0	0	1219	2	0	3	2	6	4	68	0	14	2	1	0	1	0	11	9	0	0	0	13	0	34	0	31	45	2	2	103	11	72	0
OTU 88	0	17	7	0	9	58	0	0	40	1	9	3	5	0	0	0	7	0	1	0	0	38	40	0	163	9	12	0	0	0	0	1	9	0	1	0	0	2	7	0	0	0	0	0	0	0	0	0	0	1
OTU 89	1	0	11	48	2	3	0	32	0	81	20	1	0	61	0	0	1	0	16	7	0	3	10	0	0	0	1	0	17	0	2	159	6	25	1	5	0	0	6	0	55	2	17	19	0	0	11	9	0	0
OTU 90	0	42	17	16	0	9	35	0	35	0	0	6	14	8	27	0	29	0	0	29	0	264	0	0	0	0	0	11	0	0	10	0	0	1	0	33	20	450	0	77	6	0	0	0	0	0	0	4	0	0
OTU 91	0	0	14	17	0	0	0	37	57	0	0	0	13	0	0	1	14	0	0	0	7	9	0	9	0	17	4	4	11	3	0	1	0	0	5	0	0	2	0	0	0	5	0	13	0	0	0	17	0	0
OTU 92	1	0	2	3	0	7	4	0	1	2	0	0	2	42	19	0	0	0	0	5	0	2	0	0	2	1	0	37	0	11	7	1	1	0	10	9	3	0	17	0	13	23	0	6	0	6	12	19	0	3
OTU 93	3	0	6	0	22	0	1	0	0	0	139	31	0	61	0	64	0	2	2	0	4	18	0	0	0	0	0	0	0	9	0	91	0	0	9	10	0	0	12	0	22	0	1	2	0	0	12	0	26	11
OTU 94	8	203	42	31	11	175	226	84	81	6	3	109	26	21	289	95	56	61	47	4	36	77	23	1	11	219	206	41	230	1534	155	12	30	308	1	1	58	33	13	146	40	74	81	131	411	37	63	57	37	30
OTU 95	0	0	11	5	1	0	0	1	0	2	9	19	2	0	23	2	2	1	0	0	0	1	0	1	0	0	38	10	0	1	5	54	2	44	23	0	2	51	20	1	0	8	0	0	33	23	15	13	0	32
OTU 96	0	4	0	0	0	0	2	0	1	0	0	0	0	0	109	0	0	0	1	0	0	0	0	0	0	9	0	0	0	0	0	0	0	2	0	0	0	19	0	0	0	0	0	0	0	0	1	2	0	0
OTU 97	0	0	1	0	28	0	0	0	1	1	12	0	0	5	0	5	0	0	0	2	22	0	0	20	4	25	0	8	7	12	0	0	2	0	0	0	0	1	3	0	66	0	1	0	0	0	0	18	4	0
OTU 98	38	0	1	0	39	0	0	0	0	36	8	3	0	0	11	90	0	0	0	1	31	23	21	0	9	20	0	7	53	9	9	2	0	31	3	4	5	2	1	0	26	0	16	7	2	1	11	8	39	0
OTU 99	89	213	2	48	1013	66	27	23	166	95	15	23	34	153	243	16	74	64	40	15	361	15	33	32	81	53	140	33	30	6	7	23	48	45	7	52	1288	60	37	883	99	9	52	58	39	38	142	190	11	2808
OTU 100	26	79	0	2	53	26	109	4	89	42	8	0	64	2	16	130	70	189	2	51	7	1	43	136	3	0	0	47	0	10	2	5	54	2	1	86	1588	1	2	61	64	10	2	25	0	0	115	137	66	10
OTU 101	4	0	2	0	0	3	1	0	0	0	0	0	0	0	0	0	0	0	0	0	28	13	0	9	0	0	0	0	0	0	0	0	0	11	0	3	0	0	2	0	0	0	0	0	0	0	0	1	0	0
OTU 102	16	3	0	22	0	0	2	0	0	2	0	1	0	0	105	0	0	7	0	0	0	9	0	0	1	6	3	0	4	24	0	0	0	0	0	0	7	1	3	0	0	0	3	0	1	0	11	0	0	5
OTU 103	86	8	1	2	39	12	3	2	13	0	1	18	2	45	23	17	3	82	50	16	88	24	68	29	15	5	12	37	65	44	1	7	12	8	40	20	0	3	18	55	1	3	23	52	5	0	0	64	11	64
OTU 104	65	86	10	2828	140	18	66	19	16	68	15	19	12	23	26	38	19	108	10	38	179	53	0	47	86	77	14	18	109	12	6	53	16	51	24	83	9	18	52	40	13	11	9	14	6	55	85	4	22	84
OTU 105	0	0	0	0	5	0	2	0	0	0	6	0	1	0	0	5	1	0	0	45	1	0	5	3	20	25	0	0	0	5	18	0	0	0	0	0	14	0	1	0	0	0	0	1	4	0	2	0	5	1
OTU 106	1	0	0	4	0	0	3	0	0	0	1	50	0	0	15	5	2	0	0	0	9	0	1302	0	0	12	0	15	0	0	0	0	0	59	0	0	25	0	0	0	0	1	2	0	4	21	1	0	3	2
OTU 107	46	1729	3	11	40	12	0	2	1	0	1	1	2	1	73	30	0	2	2	0	4	0	6	0	4	44	5	108	0	27	22	0	0	2	1	13	2	0	4	0	0	24	3	7	0	2	0	244	18	9
OTU 108	0	34	0	7	105	29	117	82	61	26	1	88	15	0	29	20	36	10	8	8	61	59	173	3	2	53	5	0	69	0	21	7	1	82	0	12	10	0	8	0	86	0	21	57	65	0	0	14	9	16
OTU 109	0	0	0	0	0	0	0	0	0	0	33	0	0	0	0	0	0	0	0	0	65	0	0	0	0	0	0	0	0	0	6	28	0	8	0	0	0	0	0	0	0	0	0	0	0	0	0	0	0	0
OTU 110	47	45	2	74	11	7	3	0	61	10	0	238	5	7	114	13	18	15	8	15	0	249	67	2	180	48	81	20	5	64	71	0	1	13	18	1	31	2	8	26	0	3	6	22	21	0	40	43	13	50
OTU 111	6	0	0	0	0	1	0	11	25	27	0	14	0	0	2	0	1	0	201	10	2	0	24	0	7	8	0	0	14	0	0	1	5	0	3	608	0	0	0	4	7	0	4	20	1	0	0	0	0	0
OTU 112	0	12	0	204	0	0	3	0	7	0	0	0	9	105	64	102	4	9	0	55	0	23	23	2	13	0	78	3	14	0	0	0	37	1	2	9	0	0	9	0	81	1	99	136	4	0	35	0	63	0
OTU 113	9	0	0	0	1	0	2	0	0	2	0	101	0	5	0	14	0	0	0	0	0	11	0	0	16	2	0	0	2	0	0	0	0	1	0	12	3	9	0	8	0	0	0	0	0	0	0	1	8	26
OTU 114	100	3	18	11	261	3	2	3	7	9	100	22	0	13	26	92	6	22	57	39	92	60	26	5	51	19	81	70	9	17	15	249	3	163	17	38	4	61	66	11	236	52	22	46	7	175	0	120	43	88
OTU 115	21	165	42	36	102	41	79	146	112	90	4	128	315	13	42	259	34	40	218	88	74	156	107	105	92	35	12	74	14	124	112	8	71	122	19	72	75	0	16	160	100	17	23	35	85	12	131	123	126	39
OTU 116	28	479	4	17	0	55	64	14	5	49	28	64	0	99	124	25	5	79	96	35	1	21	6	24	64	198	87	9	5	3	13	68	2	3	857	69	15	850	1707	31	12	3	20	18	5	1490	55	29	9	2
OTU 117	45	1	10	4	35	57	7	2	25	22	33	32	11	0	2	3	4	73	7	141	42	42	74	866	2	3	25	43	20	2	38	31	94	27	3	1	0	300	2	0	69	0	13	0	59	15	2	78	1	50
OTU 118	9	0	0	21	17	0	1	0	10	0	0	42	0	16	0	13	1	4	35	5	8	0	0	0	5	14	0	1	368	0	0	9	7	0	0	1	9	0	0	0	22	0	0	0	0	2	16	5	5	0
OTU 119	19	9	9	0	44	39	139	39	105	1	56	8	38	0	53	61	87	25	1234	2	62	125	5	17	340	111	49	39	1	61	139	42	13	48	5	9	100	17	28	115	259	25	41	134	93	4	0	17	29	117
OTU 120	6	0	27	0	0	0	36	7	0	0	55	7	7	7	0	0	13	9	0	20	22	0	56	0	4	1	0	0	76	0	0	21	5	0	4	24	1	1	11	0	12	22	0	44	14	3	2	1	0	0
OTU 121	5	2	0	3	8	3	43	12	2	0	1	9	2	1	171	15	1	10	2	42	128	9	173	84	62	9	62	4	103	3	12	12	13	0	7	5	0	4	25	0	42	1	105	88	41	28	48	11	14	0
OTU 122	50	1	17	16	24	108	5	344	220	0	7	3	53	55	128	155	131	41	22	90	97	240	5	152	44	2257	82	11	79	35	142	11	33	14	15	9	52	3	60	86	49	37	30	54	34	22	78	43	77	56
OTU 123	118	214	98	154	138	65	52	228	114	114	21	128	37	159	167	137	70	10	162	123	207	123	162	97	181	148	144	71	127	108	75	9	129	91	370	67	62	65	157	94	157	283	58	115	248	30	65	268	385	85
OTU 124	9	0	0	3	3	2	1	0	0	8	20	0	2	180	21	130	0	15	6	0	0	0	0	0	0	0	4	1	0	0	0	55	2	0	1	17	5	0	0	0	14	4	16	5	0	1	119	0	75	1
OTU 125	35	138	138	121	101	62	377	73	67	65	108	178	21	95	105	121	68	355	50	125	209	74	208	50	305	274	30	32	95	62	75	88	12	454	241	110	14	106	339	51	80	276	10	24	12	71	22	139	64	8
OTU 126	0	1	0	0	0	0	0	8	0	0	0	0	0	16	0	0	2	0	0	0	6	0	0	17	0	3	15	5	0	0	0	0	1	44	2	0	0	14	38	42	44	8	0	0	0	35	0	5	0	16
OTU 127	12	26	8	0	0	9	27	1	31	3	0	1	11	57	52	1	24	16	8	62	24	17	160	2	15	0	100	34	14	0	21	8	38	0	14	26	0	10	7	4	61	44	2	26	48	57	0	130	0	1
OTU 128	50	32	56	46	168	467	39	114	1337	518	61	2413	317	710	106	132	616	120	58	56	132	59	80	109	68	32	12	89	134	335	533	80	911	129	6	43	59	199	20	101	181	62	153	334	167	519	18	171	66	127
OTU 129	2	0	0	1	5	0	1	1	1	3	4	1	1	0	0	0	1	0	0	4	0	0	0	8	18	1	0	0	3	0	0	13	0	6	23	54	5	0	42	64	0	0	0	0	0	0	0	0	0	2
OTU 130	8	24	1473	12	542	3	34	15	0	21	9	24	0	29	40	4	1	9	26	3	2	16	403	23	82	16	6	64	5	1	3	14	0	5	2	2	7	3	0	9	15	0	36	65	0	9	27	180	2	62
OTU 131	11	0	1	27	6	7	0	120	43	17	58	54	0	25	0	132	3	0	51	44	0	66	15	0	28	15	2	20	0	9	2971	47	27	0	13	44	6	6	20	110	88	15	0	0	66	22	46	78	57	23
OTU 132	10	10	8	0	10	18	4	0	13	0	0	4	7	134	30	58	10	17	5	5	1	1	7	16	29	7	23	2534	0	0	0	0	3	43	14	1	0	9	16	23	5	11	0	0	38	0	12	1	29	5
OTU 133	583	4	0	2	0	19	0	3	0	0	0	0	1	37	0	0	0	5	0	0	2	61	0	39	4	0	0	0	0	1	0	3	0	0	0	0	48	0	0	0	0	0	0	2	0	17	0	0	0	0
OTU 134	11	224	9	8	31	11	13	550	15	1	1	31	5	84	57	28	2	45	0	1	9	109	25	0	13	52	33	6	93	2	55	36	5	23	1	54	4	1	30	3	6	39	0	11	127	0	12	5	12	92
OTU 135	14	0	45	176	2	12	2	81	42	40	3	32	9	1	18	15	18	48	52	51	148	53	32	73	37	13	7	46	61	13	58	4	1	89	114	16	47	19	207	97	129	35	9	0	3	62	20	97	9	27
OTU 136	8	11	0	0	17	3	18	0	0	94	11	7	0	30	20	0	2	6	37	301	18	7	0	8	23	5	9	65	14	21	17	0	79	43	26	121	43	0	20	12	327	0	5	0	3	0	1	166	0	0
OTU 137	1	29	0	2	2	5	2	0	0	0	221	0	0	3	0	0	0	14	0	3	31	5	0	27	0	0	9	1	1	0	0	0	70	8	9	3	0	0	13	0	0	2	1	0	0	19	1	0	0	11
OTU 138	10	0	36	7	8	51	0	0	27	2	0	15	5	0	0	13	5	9	0	2	12	15	6	23	3	0	2	32	6	11	9	0	5	10	0	0	15	1	0	1	29	46	9	62	0	48	14	30	7	4
OTU 139	37	42	282	20	60	5	76	127	21	18	68	5	3	65	19	34	4	36	35	2	240	45	16	103	125	33	2686	86	33	15	18	60	4	59	4	8	8	87	42	2773	15	375	0	19	46	285	12	209	15	27
OTU 140	235	129	53	125	61	36	69	168	137	164	252	77	42	8	123	46	61	134	106	26	256	113	20	39	89	18	13	127	61	31	100	292	29	4	29	251	17	17	21	10	54	6	10	41	32	11	4	268	16	83
OTU 141	1	0	0	0	0	0	1	0	0	0	0	0	0	0	12	0	0	0	0	0	18	0	0	2	0	0	0	0	0	0	0	0	0	0	0	0	0	0	0	0	0	0	0	0	0	0	0	0	0	0
OTU 142	0	0	1	0	0	0	0	8	0	0	0	0	0	0	0	0	0	1	15	0	40	0	0	0	0	1	0	0	0	0	12	0	5	0	0	0	1	0	0	0	0	0	0	3	0	0	0	0	0	0
OTU 143	0	1	1	29	25	24	35	102	24	7	1	0	6	0	8	0	12	1	0	9	17	0	0	18	0	4	0	0	0	41	13	1	0	0	8	0	0	5	14	0	0	0	1	0	22	0	0	0	0	0
OTU 144	0	0	6	0	0	0	3	5	0	157	1	3	0	5	0	28	0	3	250	21	0	1	0	0	8	61	10	77	0	0	0	0	0	1	0	3	0	1	0	0	12	2	0	2	22	0	0	103	12	0
OTU 145	40	2	58	5	895	22	148	90	142	31	32	19	27	31	12	31	52	272	62	10	1	44	106	28	51	41	9	0	74	27	1	55	15	39	118	72	54	36	203	75	6	190	15	30	87	12	2	6	10	50
OTU 146	1	21	52	58	14	215	1	933	630	646	29	0	186	129	31	49	328	13	11	12	98	1	13	93	44	14	0	43	1	203	167	64	0	44	51	27	4	40	90	11	0	117	3	1	1	29	37	137	32	18
OTU 147	53	0	0	3	1	14	21	0	42	0	5	0	12	65	0	0	9	13	0	0	0	4	93	0	110	2	2	148	5	136	4	0	8	55	0	202	0	1	0	3	1	1	0	3	2	0	0	311	0	7
OTU 148	2	202	15	26	30	12	7	66	2	5	11	63	0	0	24	21	0	7	16	43	38	110	0	2	59	4	1	19	1	19	3	46	42	9	14	70	55	1005	16	48	52	1	0	48	1	1768	0	72	11	69
OTU 149	0	25	2	10	1	0	32	1	0	0	8	0	0	35	15	11	0	0	61	0	0	87	9	76	0	282	0	18	0	7	2	13	4	21	0	51	21	10	1	0	0	23	0	0	83	15	0	24	4	1
OTU 150	4	40	125	649	31	0	30	0	1	45	4	4	0	0	0	0	1	34	0	0	0	72	0	4	0	0	0	0	0	0	24	0	0	0	1	6	0	0	1	8	0	4	2	1	24	0	2	1	0	0
OTU 151	0	7	7	5	2	17	3	43	3	9	31	119	0	3	2	134	6	10	3	3	178	18	31	10	39	2	7	0	1	4	0	35	9	50	11	134	1	0	15	0	16	43	20	6	0	20	128	0	66	5
OTU 152	0	34	1	85	30	136	8	133	332	25	12	77	92	7	1	68	140	31	112	0	22	45	23	13	47	33	1	10	8	137	89	38	25	142	34	41	7	753	18	30	56	37	0	5	54	77	85	15	36	15
OTU 153	0	0	0	1	3	0	0	3	9	2	0	8	0	0	4	0	9	0	2	0	106	66	0	0	25	0	0	0	2	0	0	0	1	23	0	0	0	0	0	0	0	6	0	0	0	0	0	0	0	0
OTU 154	4	0	0	0	2	0	9	0	6	0	0	5	12	1	10	0	9	33	2	53	1	7	1	0	0	0	0	0	0	0	0	0	114	16	0	0	0	3	0	27	30	9	0	0	0	2	6	0	0	0
OTU 155	17	0	0	3	20	0	2	35	0	5	7	1	2	78	23	4	9	27	53	6	5	5	0	1	19	109	10	57	9	1	31	6	11	0	0	117	0	0	0	10	12	0	1	0	10	21	5	36	2	9
OTU 156	72	86	15	35	47	39	12	138	92	40	27	154	10	867	24	1388	33	95	52	7	105	84	4	27	60	1070	2	6	1	29	59	24	8	58	7	382	5	20	18	20	25	74	25	63	285	26	776	2	680	35
OTU 157	119	0	0	0	0	30	16	0	102	380	0	0	20	107	0	0	22	24	27	21	4	9	0	98	0	0	0	0	18	0	10	3	0	58	12	62	1	0	19	0	6	0	26	29	0	3	18	4	0	15
OTU 158	1	0	0	0	27	0	0	0	3	0	0	0	0	0	0	0	0	0	0	0	0	0	0	0	0	0	0	0	34	0	0	0	0	0	0	0	0	0	0	0	0	0	0	0	25	0	7	0	0	0
OTU 159	64	1	5	6	11	34	57	4	24	196	2	10	9	5	7	3	36	0	12	49	31	0	1	1	27	32	42	1	35	72	112	0	2	0	13	13	59	16	28	41	9	28	3	3	170	10	1	14	1	18
OTU 160	74	167	4	131	13	49	2273	77	71	513	11	42	25	41	49	162	27	20	173	8	46	91	17	163	57	47	19	6	71	28	79	47	2	68	7	317	20	9	16	42	45	17	19	56	37	12	2	47	89	15
OTU 161	12	18	2	22	2	20	36	44	22	363	450	84	1	2	663	2	10	2	1	760	54	0	245	8	35	44	509	0	139	5	4	1732	225	64	5	83	89	10	29	339	1482	1	134	198	334	2	6	2	1	435
OTU 162	11	2	24	65	36	4	55	55	82	21	5	1	347	7	7	3	44	202	95	9	13	38	7	69	11	115	0	7	10	0	29	109	7	109	33	56	47	13	25	87	0	6	5	7	23	28	115	6	2	0
OTU 163	0	0	0	0	0	0	0	0	0	0	0	0	0	0	0	0	0	0	122	0	100	0	0	0	0	0	0	0	0	0	0	1	0	0	0	0	0	0	0	0	0	0	0	0	0	0	0	0	0	0
OTU 164	0	0	0	2	0	0	0	0	0	0	0	0	0	1	0	0	0	0	0	0	5	6	0	0	0	3	0	0	13	0	0	0	13	0	0	0	0	0	0	0	1	0	0	1	0	0	0	0	0	1
OTU 165	88	29	21	459	4	1	0	9	10	4	65	8	0	8	0	22	0	73	0	22	83	980	16	10	31	26	0	0	0	0	4	104	53	6	7	28	4	1	1	10	90	18	97	82	72	38	0	0	7	0
OTU 166	5	51	0	0	0	0	0	1	0	0	15	1	0	0	0	0	0	0	0	0	9	0	17	0	1	0	0	1	0	0	0	39	0	0	0	0	0	0	0	30	0	0	0	0	0	0	0	0	0	0
OTU 167	0	1	17	24	0	18	24	8	2	0	5	1	0	33	2	0	0	17	0	5	7	14	53	0	0	8	26	11	47	9	0	9	2	0	26	24	19	0	24	7	1	40	0	32	5	5	13	32	0	10
OTU 168	0	261	6	0	1922	1	14	35	41	1	2	6	8	5	7	144	22	0	33	32	20	29	12	89	40	67	8	255	11	6	17	3	40	38	6	13	1	1	1	23	1	15	20	54	0	2	64	72	58	111
OTU 169	0	0	0	0	0	0	0	0	0	5	0	0	0	0	1	0	0	0	0	0	0	0	0	0	0	0	0	0	0	0	0	0	19	0	0	12	18	0	0	0	0	0	0	0	0	0	0	0	0	0
OTU 170	0	0	0	3	0	0	0	0	0	0	0	0	3	4	0	0	9	0	0	3	0	0	0	10	0	0	0	0	0	0	0	0	0	0	0	24	0	0	0	0	33	0	0	0	3	0	0	0	0	0
OTU 171	1	37	0	39	23	1	8	19	0	4	10	7	0	32	0	12	0	20	29	412	6	0	2	11	17	0	2	2	186	2	46	0	164	0	0	28	2	5	0	8	476	30	387	968	2	59	3	8	10	1
OTU 172	0	8	5	0	0	0	5	1	1	37	51	0	0	0	5	0	0	0	14	0	0	2	0	104	38	2	0	0	0	1	0	35	0	2	0	0	0	0	0	0	1	0	1	0	13	0	20	0	0	0
OTU 173	0	1	0	18	0	31	0	4	28	26	5	0	2	24	0	11	17	4	1	45	0	94	42	0	36	76	0	0	20	0	16	49	33	6	0	48	0	0	5	10	54	0	0	13	4	0	41	25	5	3
OTU 174	8	107	34	32	5	2	244	133	0	386	21	7	2	0	8	148	0	0	0	7	8	19	4	42	66	33	3	5	0	1	2	105	2	11	11	0	0	6	37	2	36	4	10	0	13	2	126	22	79	2
OTU 175	48	2	16	13	28	1467	35	5	31	0	2	18	2	47	9	59	6	2	1	0	0	8	2	100	4	0	15	57	18	0	0	3	14	0	0	0	2	0	0	0	31	12	125	73	66	0	0	138	37	29
OTU 176	157	6	958	33	11	51	227	13	48	0	7	107	5	82	157	22	14	19	83	92	27	137	26	76	1474	79	204	18	19	38	4	42	74	36	39	24	24	82	133	39	64	246	6	4	101	150	23	40	49	3
OTU 177	4	21	3	22	27	2	1	43	3	0	31	53	0	38	1	3	2	36	13	21	100	27	38	112	48	81	0	4	73	1	33	8	2055	8	1	49	7	16	10	7	24	7	74	78	92	0	2	35	2	11
OTU 178	32	0	9	0	29	0	0	40	1	0	3	6	0	10	19	83	1	1	14	30	42	1	1	0	1	13	11	7	1	1	0	1	0	12	6	0	35	8	2	1	0	39	5	46	95	4	0	9	33	39
OTU 179	71	0	7	0	41	3	0	0	26	0	6	22	0	68	82	20	4	0	41	0	0	43	46	0	6	3	0	7	1	16	1	1	2	25	6	23	27	1	0	52	0	0	0	1	1	17	22	17	11	215
OTU 180	166	103	22	269	84	30	115	142	63	29	5	242	11	184	52	239	24	33	85	66	181	285	101	450	1126	88	67	40	70	56	185	60	55	54	38	84	57	7	78	139	60	16	30	119	198	71	241	111	124	243
OTU 181	22	0	0	17	26	6	22	1039	0	1	12	15	1	47	0	1	2	8	9	24	88	0	0	10	117	24	8	33	22	27	61	203	2	0	5	1	18	7	2	7	11	9	6	81	3	17	9	55	1	0
OTU 182	0	0	0	0	0	0	18	0	0	0	0	0	0	0	0	0	0	1	0	7	0	24	0	0	0	0	0	0	0	0	0	0	17	0	0	0	12	0	0	5	9	0	9	12	6	0	0	0	0	0
OTU 183	10	0	1	0	7	65	27	0	0	38	39	151	6	118	47	36	0	63	28	27	47	10	2	14	83	1	46	12	1	3	744	14	1	13	62	81	7	1	92	6	8	16	0	0	14	6	0	6	17	1
OTU 184	44	5	26	42	0	0	13	3	0	0	30	39	3	0	37	56	5	0	0	1	2	159	10	5	1	0	21	2	44	0	0	81	0	0	51	0	17	4	85	0	0	36	10	0	1897	13	17	0	37	143
OTU 185	1	6	36	135	52	19	2	33	72	17	42	17	33	14	183	142	66	33	24	8	16	24	16	86	9	21	51	1	1	30	9	81	15	136	46	21	4	3	47	56	22	42	54	104	67	4	2	12	67	4
OTU 186	39	24	13	6	0	47	4	5	55	0	0	39	9	0	0	5	29	1	87	0	0	4	0	0	19	0	1	6	42	62	80	0	2	92	8	0	7	1	0	1	1	19	0	0	8	0	2441	39	2	0
OTU 187	453	2	45	344	93	28	60	31	37	18	8	218	2135	9	116	8	4195	32	371	7	56	1027	7	63	102	85	19	166	2	9	10	49	29	24	7	1005	7	17	29	25	6	10	1	0	52	33	19	346	4	45
OTU 188	16	25	26	11	124	36	132	48	43	89	92	235	5	116	191	227	13	105	47	259	85	24	32	77	54	271	105	370	126	45	0	21	99	5	43	96	73	68	105	173	309	86	73	150	64	133	103	301	132	136
OTU 189	395	12	6	33	15	64	7	66	98	20	29	25	16	81	144	26	47	13	63	107	188	15	196	82	93	2	79	85	84	39	50	113	13	2	12	6	136	2	17	44	192	26	14	28	56	12	0	114	5	22
OTU 190	0	0	1	1	0	0	1	0	0	0	0	0	0	0	0	0	0	37	36	0	0	0	0	3	0	16	0	0	0	0	3	0	0	0	0	0	0	0	0	48	0	0	25	34	13	0	36	0	0	0
OTU 191	1	85	13	35	81	107	2	14	226	2216	43	65	55	62	28	270	91	56	1	24	116	9	28	13	8	3	44	44	224	28	33	2	5	216	4	72	1915	0	3	15	4	3	37	44	58	9	135	70	4603	1
OTU 192	4	281	785	39	55	45	42	16	30	19	11	73	2135	10	19	53	16	51	15	12	39	156	24	39	65	59	52	39	56	6	2	35	12	233	0	0	3	498	4	17	43	1626	91	190	5	1323	0	123	26	23
OTU 193	1	139	0	18	1	61	30	20	142	61	16	32	41	13	21	0	77	37	282	0	231	25	2	3	26	14	0	0	137	31	2	32	1	3	0	157	4	2	0	0	183	1	4	18	21	6	11	8	0	3
OTU 194	10	12	2105	35	0	0	0	0	8	7	6	3	8	0	0	20	15	0	0	1	30	71	0	0	1	9	0	0	52	35	5	1	17	0	23	2	0	10	5	66	6	0	0	0	49	5	2	3	7	12
OTU 195	1	3	8	17	158	0	32	0	0	1	2	208	1	1	688	16	4	8	14	9	0	19	107	21	113	18	194	10	247	15	0	35	15	1	0	9	56	20	0	80	3	31	130	205	2	17	20	9	7	74
OTU 196	8	6	5	9	32	5	1	0	4	7	6	20	0	33	63	0	2	3	20	8	57	0	3	3	110	110	42	8	14	35	120	1	29	64	14	17	0	1	42	90	2	3	0	23	62	1	2	11	0	68
OTU 197	107	63	4	15	59	17	8	89	12	2	58	57	3	127	87	228	14	19	18	189	40	132	304	47	28	57	15	2	215	41	60	65	54	100	7	15	81	38	16	7	867	48	333	77	261	54	136	6	136	60
OTU 198	0	75	0	0	40	3	0	65	0	5	19	0	0	0	1	0	0	5	15	0	0	1	0	116	0	0	6	13	54	1	32	0	1	8	1	0	6	0	0	33	1	17	3	0	0	0	8	4	0	38
OTU 199	13	47	0	0	24	0	19	6	0	2	1	11	0	10	41	3	0	25	9	15	0	0	6	0	0	4	33	21	49	11	5	0	0	3	7	12	0	2999	4	48	0	6	11	8	135	16	2	16	0	0
OTU 200	5	33	32	1	0	15	10	49	11	9	54	0	11	13	0	15	11	1	29	11	49	2	211	13	56	65	0	0	4	3	22	72	135	71	1	25	153	2	8	48	11	4	28	16	20	29	3	9	10	28
