	Host 1	Host 2	Host 3	Host 4	Host 5	Host 6	Host 7	Host 8	Host 9	Host 10	Host 11	Host 12	Host 13	Host 14	Host 15	Host 16	Host 17	Host 18	Host 19	Host 20	Host 21	Host 22	Host 23	Host 24	Host 25	Host 26	Host 27	Host 28	Host 29	Host 30	Host 31	Host 32	Host 33	Host 34	Host 35	Host 36	Host 37	Host 38	Host 39	Host 40	Host 41	Host 42	Host 43	Host 44	Host 45	Host 46	Host 47	Host 48	Host 49	Host 50	
OTU 1	0	0	0	3	5	4	2	5	7	1	1	0	2	4	0	6	0	4	1	2	0	1	0	2	0	2	17	2	0	2	2	5	4	14	6	0	1	0	7	0	5	5	0	7	1	1	4	0	0	9
OTU 2	0	3	0	0	0	0	0	0	0	1	0	1	0	2	1	10	3	0	1	2	13	1	0	51	0	0	0	0	0	0	0	0	0	0	3	8	0	0	0	0	4	0	0	0	0	0	0	4	0	0
OTU 3	0	0	1	0	0	0	0	0	0	0	1	0	0	0	0	0	2	0	2	2	0	0	0	0	0	0	0	0	0	0	0	0	0	0	0	0	0	1	0	0	1	0	0	5	0	0	0	0	0	0
OTU 4	0	0	0	0	0	0	0	0	0	0	0	0	0	0	0	0	0	0	0	0	0	0	0	0	0	0	0	0	0	0	0	0	0	0	0	0	0	0	0	0	0	0	0	0	0	0	0	0	0	0
OTU 5	12	20	5	18	9	30	12	4	0	15	0	10	64	2	0	3	1	37	9	0	7	6	7	2	11	2	51	22	0	24	7	16	0	6	10	5	6	5	42	2	0	101	2	14	21	12	27	4	11	5
OTU 6	3	0	0	1	3	2	4	0	0	1	0	0	0	2	1	0	0	0	1	1	0	2	1	0	0	3	5	0	0	0	0	2	0	1	0	1	2	1	0	1	0	1	2	0	19	0	0	1	0	1
OTU 7	81	3	3	2	2	7	1	4	2	0	13	2	0	54	6	4	6	3	0	0	3	2	11	29	1	5	0	17	7	3	0	84	1	8	5	0	1	73	60	2	1	0	7	2	3	1	2	2	1	2
OTU 8	3	5	32	5	0	0	0	0	1	5	0	27	0	0	1	6	4	0	1	8	0	2	2	2	0	10	1	6	6	0	3	19	1	1	1	7	3	18	1	1	18	0	5	1	0	1	3	16	2	1
OTU 9	0	0	4	0	0	0	0	0	0	0	2	0	0	2	1	0	0	3	0	0	0	0	1	0	0	0	2	2	0	0	0	0	0	2	0	0	0	0	0	0	0	0	0	0	0	0	0	1	0	0
OTU 10	0	3	0	0	2	7	0	0	0	0	2	1	0	0	0	0	1	2	0	1	3	0	0	0	0	0	0	0	0	0	0	0	0	0	0	0	0	0	0	0	0	0	7	0	0	0	1	0	0	0
OTU 11	0	0	2	2	0	1	0	0	1	1	1	0	0	6	0	9	0	2	1	0	1	2	0	3	0	4	3	6	1	43	3	1	2	1	1	0	2	0	0	4	1	2	0	2	0	0	6	3	0	0
OTU 12	6	0	0	1	0	1	3	1	0	0	0	1	0	0	3	1	9	2	5	0	0	9	2	2	12	6	1	1	2	0	1	0	3	6	1	3	4	1	2	3	1	0	1	9	7	2	0	0	0	0
OTU 13	0	0	0	0	0	2	0	0	0	0	0	0	0	0	0	0	0	0	0	0	0	0	0	0	0	0	0	0	0	0	0	0	0	0	0	0	0	0	0	0	0	0	0	0	0	1	0	0	0	0
OTU 14	0	1	2	0	0	0	6	0	0	0	0	3	0	0	0	0	3	0	0	1	2	6	0	1	4	0	0	0	0	1	0	0	0	0	0	0	3	0	0	0	2	0	1	0	0	0	1	0	0	0
OTU 15	0	0	0	0	0	0	0	0	0	0	0	0	0	0	0	0	0	0	0	0	0	0	0	0	0	0	0	0	0	0	0	0	0	0	0	0	0	0	0	0	0	0	0	0	0	0	0	1	0	0
OTU 16	0	0	0	0	0	0	0	0	0	0	1	0	62	1	0	0	0	0	0	0	0	0	0	0	0	0	0	0	0	1	0	0	0	0	0	0	0	0	0	0	0	0	0	0	0	0	0	0	0	0
OTU 17	0	3	1	3	0	0	1	1	0	0	4	0	0	9	0	0	3	0	1	1	0	0	0	0	4	1	0	0	0	68	0	0	0	1	0	0	0	1	0	0	0	0	0	0	0	3	2	0	0	0
OTU 18	0	0	0	0	3	0	3	1	0	1	1	1	0	2	0	0	0	0	3	1	12	2	0	0	3	2	0	2	1	0	0	0	0	8	0	0	1	1	0	0	2	0	3	0	1	2	1	2	0	4
OTU 19	0	0	2	0	0	0	0	0	0	0	0	0	0	0	0	0	0	0	0	0	0	0	0	0	0	0	0	0	4	0	0	0	0	0	0	0	0	0	0	0	0	0	0	0	0	0	0	0	0	0
OTU 20	0	12	0	0	0	0	0	0	0	6	2	0	0	0	0	0	0	0	0	0	0	0	4	7	0	0	5	0	1	0	1	0	2	4	43	2	0	0	1	6	0	2	38	2	3	1	2	0	0	1
OTU 21	0	0	9	1	0	0	1	7	2	0	4	1	1	0	4	0	1	1	1	7	7	7	10	2	5	0	0	1	1	0	0	2	1	0	0	0	0	0	1	2	10	0	1	1	12	2	10	3	3	2
OTU 22	0	3	1	0	4	1	1	7	0	2	3	1	0	3	7	3	0	0	1	0	0	0	1	1	0	0	2	1	3	0	0	1	1	2	0	2	1	1	0	0	0	0	2	15	0	3	1	1	0	0
OTU 23	0	1	0	0	0	0	1	0	0	0	0	0	1	1	0	0	0	8	1	0	1	0	3	0	0	0	4	0	2	0	0	0	0	7	1	0	0	0	1	1	0	0	0	0	0	0	0	1	0	0
OTU 24	0	0	0	0	0	0	1	1	0	1	15	0	0	4	0	3	0	0	2	0	0	2	0	0	1	1	1	0	0	0	0	0	0	0	0	1	0	0	0	0	3	0	0	0	0	1	0	0	0	0
OTU 25	0	0	0	0	0	0	0	0	0	0	0	0	0	0	0	0	0	0	0	0	0	0	0	0	0	0	0	0	0	0	0	0	0	4	0	0	0	0	0	0	0	0	0	0	0	0	0	1	0	0
OTU 26	0	0	0	0	0	0	1	0	0	0	0	0	1	0	0	0	0	0	0	0	1	0	0	0	0	0	0	0	0	0	0	0	0	0	0	0	0	0	0	0	0	0	0	0	1	2	0	0	0	0
OTU 27	0	0	0	0	0	0	0	0	0	0	0	0	0	0	0	0	0	0	2	0	0	0	0	0	0	0	0	0	0	0	0	0	0	1	0	0	0	0	0	0	0	0	0	0	0	0	0	0	0	0
OTU 28	0	0	2	4	0	0	5	1	0	5	1	3	0	1	1	2	2	0	3	0	1	2	2	5	10	2	3	4	3	8	2	1	0	1	0	0	1	2	1	0	0	13	0	6	1	0	0	0	0	9
OTU 29	6	0	0	1	2	0	0	5	1	0	1	14	0	0	16	0	4	0	1	0	0	1	7	0	2	28	8	7	11	2	1	0	0	10	1	1	8	7	5	5	3	4	2	0	3	12	0	4	0	2
OTU 30	0	0	0	0	0	0	0	0	0	0	0	0	0	0	0	0	0	0	0	0	0	0	0	0	0	0	0	0	0	0	0	0	0	0	0	0	0	0	0	0	0	0	0	1	0	0	0	0	0	0
OTU 31	1	0	0	0	0	3	0	0	0	13	0	0	0	1	0	0	26	0	1	0	0	0	0	43	0	0	0	0	0	0	0	0	1	0	0	1	3	0	0	16	0	0	0	0	2	3	0	0	0	3
OTU 32	7	4	12	12	1	1	1	0	0	5	4	4	1	7	1	3	5	0	32	1	0	24	1	2	6	10	1	18	2	0	0	0	0	0	2	27	1	1	1	1	0	3	4	1	0	1	0	58	0	0
OTU 33	0	0	0	0	0	0	0	0	1	0	0	0	0	0	0	0	2	0	0	0	0	0	0	0	0	0	0	0	0	0	2	0	0	0	0	0	0	0	0	0	0	0	0	0	0	0	0	0	0	0
OTU 34	0	7	10	0	0	1	4	2	0	0	0	1	1	6	1	7	5	0	0	4	1	2	2	2	1	1	0	0	0	0	1	2	0	2	1	2	1	1	1	0	6	1	1	0	2	0	0	1	0	0
OTU 35	2	1	0	1	0	1	6	0	0	0	2	0	0	0	0	0	1	0	1	0	0	0	4	1	2	5	0	1	2	0	2	0	0	0	0	0	0	2	0	1	2	0	0	3	1	0	0	1	0	4
OTU 36	0	0	0	0	3	0	1	0	0	0	7	0	0	0	5	5	0	0	0	0	2	0	2	0	0	4	0	0	0	0	0	0	0	4	0	4	0	0	0	1	3	0	0	4	1	2	0	0	0	0
OTU 37	1	0	0	0	1	1	0	0	0	1	0	0	0	0	0	3	0	0	0	0	0	0	0	0	3	0	0	0	0	0	0	0	0	0	0	1	0	0	0	0	1	0	0	0	3	0	0	0	0	0
OTU 38	0	5	1	3	1	0	7	0	1	1	0	0	0	1	11	2	1	4	21	0	0	1	13	4	0	0	0	1	0	0	2	1	1	2	2	20	0	1	0	1	1	0	1	0	0	0	0	0	0	0
OTU 39	0	0	0	0	0	8	0	0	1	0	1	0	0	0	0	1	2	1	0	0	0	0	1	0	0	0	1	3	0	0	1	0	0	0	0	0	0	0	0	1	0	1	0	0	0	1	3	1	0	3
OTU 40	0	4	0	0	0	1	1	0	0	1	2	6	0	3	1	5	0	0	0	1	2	6	0	0	0	2	0	0	0	0	3	0	2	1	20	3	0	2	36	2	0	1	0	0	6	2	0	1	0	6
OTU 41	0	10	1	1	0	0	0	1	60	0	0	0	10	3	0	3	0	3	0	0	4	0	0	1	0	0	0	0	0	13	42	1	24	0	2	2	0	0	0	0	1	3	0	0	0	0	0	3	28	1
OTU 42	0	0	0	0	0	4	1	0	0	0	0	0	0	0	2	0	0	0	0	0	0	0	0	0	0	0	0	0	1	0	0	0	0	0	0	0	0	0	0	0	0	0	0	0	0	0	0	0	0	0
OTU 43	0	0	0	0	0	0	0	0	0	0	0	0	0	0	0	0	0	0	0	0	0	0	0	0	0	0	0	0	0	0	0	0	0	0	0	0	0	0	0	0	0	0	0	0	0	0	0	0	0	0
OTU 44	0	0	0	0	0	0	0	0	0	0	2	0	0	0	0	4	0	0	0	0	0	0	0	0	0	0	0	0	0	0	0	0	0	0	1	0	0	0	0	0	0	0	0	0	0	1	0	0	0	0
OTU 45	1	6	0	1	2	0	6	108	0	0	0	1	0	1	0	5	0	0	4	197	1	1	0	3	2	0	0	1	2	0	4	0	0	5	2	1	1	0	0	2	1	0	0	6	2	0	0	1	0	0
OTU 46	4	2	2	1	0	0	7	1	2	0	12	9	0	3	3	1	0	2	0	0	9	4	1	1	0	4	5	1	3	1	1	0	4	0	0	0	1	40	1	0	3	0	4	2	4	3	0	0	2	3
OTU 47	0	0	0	0	0	0	0	0	0	0	1	1	0	0	1	0	1	0	0	0	0	1	0	0	0	0	0	0	0	0	0	0	0	0	0	0	0	0	2	0	0	1	0	0	0	0	1	0	0	0
OTU 48	6	9	0	0	1	0	2	3	4	1	3	3	0	0	1	0	8	0	1	3	2	9	0	0	1	0	4	0	0	0	1	0	0	2	2	5	0	1	4	1	0	3	0	0	2	2	0	0	1	0
OTU 49	0	1	0	0	0	0	2	0	2	0	1	0	0	0	1	0	1	0	3	0	3	2	0	0	0	0	0	8	110	0	0	0	0	4	1	0	0	0	0	0	0	0	3	0	1	2	1	0	0	0
OTU 50	1	0	0	5	1	0	0	0	0	2	3	0	56	0	1	3	1	3	2	0	1	4	0	3	1	1	1	0	0	0	3	0	3	1	2	4	0	0	0	0	1	0	8	5	3	39	0	0	0	0
OTU 51	0	0	0	1	0	0	0	0	2	0	0	0	1	0	8	0	0	0	0	0	0	3	2	1	1	0	5	3	0	0	0	0	0	0	0	0	0	0	1	0	0	3	0	0	0	0	0	0	1	0
OTU 52	1	3	2	0	10	7	1	0	0	0	0	5	0	0	2	5	2	0	0	0	3	2	1	5	0	6	2	4	0	1	0	0	2	2	2	1	3	0	0	2	0	0	3	2	1	36	2	3	0	0
OTU 53	0	0	0	0	0	0	0	0	0	0	0	0	0	0	0	0	0	0	0	0	0	0	0	0	0	0	0	0	0	0	0	0	0	0	0	0	0	0	0	0	0	0	0	0	0	0	0	0	0	0
OTU 54	0	0	0	0	0	1	1	3	0	0	6	0	2	3	4	3	1	1	1	1	36	0	6	9	3	1	8	2	3	1	0	1	1	5	2	0	0	1	3	3	4	5	5	1	3	1	0	1	0	3
OTU 55	0	0	0	0	0	0	0	1	0	0	0	0	0	0	0	0	0	0	0	0	0	0	0	0	0	0	0	0	0	0	0	0	0	0	0	0	0	0	0	0	0	0	0	0	0	0	0	0	0	0
OTU 56	0	0	1	1	4	0	0	0	0	0	0	0	0	0	0	0	4	0	3	0	0	1	1	0	0	0	0	0	1	0	1	1	0	1	0	1	0	0	0	0	1	0	0	1	2	0	0	0	0	0
OTU 57	2	9	4	0	5	4	1	8	2	4	5	3	2	11	8	5	7	6	0	0	5	4	6	11	0	1	5	4	6	1	4	5	0	5	2	2	8	1	3	1	1	1	4	3	0	2	1	3	1	9
OTU 58	0	4	1	0	2	0	0	0	0	0	1	0	1	1	1	0	1	0	0	0	0	4	0	7	0	3	0	0	0	0	0	0	0	0	1	0	1	0	0	2	0	0	1	0	3	0	1	0	0	0
OTU 59	0	1	1	1	10	0	0	0	2	1	0	1	1	0	0	8	0	0	0	0	3	2	0	0	0	0	0	0	0	0	0	0	0	1	1	0	1	0	0	1	0	0	1	0	0	2	0	0	0	0
OTU 60	0	0	0	4	1	0	0	1	0	1	5	1	0	1	1	6	0	6	1	1	2	2	9	2	5	0	6	2	7	0	0	3	0	2	6	0	1	0	5	1	4	3	0	1	2	0	3	4	0	1
OTU 61	1	15	1	0	13	27	36	0	6	1	9	22	2	18	2	14	5	18	4	1	16	0	4	1	3	5	51	20	8	3	0	6	2	64	6	52	2	18	28	0	4	33	52	2	1	1	4	32	4	0
OTU 62	1	3	0	1	0	0	0	0	0	0	3	0	0	0	0	0	6	0	0	0	0	5	0	0	0	3	0	0	0	0	0	0	0	0	0	2	0	0	0	0	7	0	1	0	0	1	0	0	0	0
OTU 63	1	1	0	2	0	2	0	1	4	1	0	0	0	0	0	1	0	0	1	0	0	2	0	0	0	0	1	54	0	1	0	0	0	0	0	0	0	0	0	0	0	1	0	0	0	0	0	0	0	0
OTU 64	0	6	5	1	4	0	1	1	0	1	3	1	9	2	2	0	2	2	3	1	9	4	3	0	3	7	1	3	3	0	0	1	0	0	0	2	1	3	1	0	1	0	7	3	1	4	3	4	0	3
OTU 65	0	0	0	0	0	0	0	0	0	0	0	0	0	0	0	0	0	0	0	0	0	0	0	2	0	0	0	0	0	0	0	0	0	0	0	0	0	0	0	0	0	1	0	0	0	0	0	0	0	0
OTU 66	3	14	0	0	0	96	0	1	0	5	3	2	0	0	0	1	3	0	0	0	0	1	2	0	0	0	0	0	11	1	0	66	0	3	1	2	0	5	0	2	0	1	3	32	4	0	66	2	2	0
OTU 67	2	2	7	0	1	1	0	0	1	3	1	4	0	0	2	0	0	2	0	0	1	0	0	0	0	1	7	0	0	1	0	0	1	0	0	1	1	2	9	2	1	3	0	28	2	0	0	2	0	2
OTU 68	0	0	0	0	0	1	3	6	0	0	0	0	0	0	0	0	3	0	0	0	0	1	0	1	0	0	0	2	0	0	0	0	0	1	0	0	0	0	0	2	0	0	2	0	0	0	0	3	0	0
OTU 69	1	0	1	5	2	1	0	2	2	0	4	4	0	8	1	5	4	1	1	0	1	0	0	2	0	0	1	0	0	0	2	0	0	1	11	2	2	0	1	1	0	1	5	0	0	0	2	2	0	0
OTU 70	0	0	0	0	0	0	0	0	0	5	6	0	0	0	0	1	1	4	0	0	0	2	0	35	0	1	0	2	0	0	0	0	1	5	0	0	0	0	0	0	0	0	0	0	4	2	0	0	0	0
OTU 71	2	0	21	2	2	0	0	0	0	0	1	0	0	0	0	0	0	0	4	2	2	1	1	0	2	3	1	2	0	6	0	1	0	0	1	0	3	0	3	0	3	0	2	2	0	1	1	2	12	0
OTU 72	0	7	0	0	1	0	0	0	1	1	2	0	0	1	0	0	1	0	0	0	2	0	1	0	0	2	0	0	2	0	0	0	1	0	0	1	0	0	0	0	1	0	0	3	0	0	0	0	2	1
OTU 73	102	1	0	1	0	1	6	1	0	1	0	1	0	0	0	3	3	0	0	0	10	0	4	0	4	4	0	0	2	0	0	1	0	16	2	3	4	1	0	1	0	0	3	2	0	0	0	0	0	6
OTU 74	0	0	2	12	1	0	3	2	42	1	3	4	8	0	1	0	2	0	1	0	1	1	8	3	0	1	0	5	0	14	23	1	17	0	0	0	0	0	1	0	5	0	0	7	2	2	0	7	23	3
OTU 75	1	7	1	0	1	0	1	1	0	0	3	1	1	2	4	0	0	0	0	0	7	0	2	0	0	0	0	2	0	1	2	0	0	0	0	0	1	4	2	0	3	0	1	0	0	0	2	0	0	0
OTU 76	0	0	0	1	0	0	0	0	0	0	0	0	0	0	0	2	0	0	0	2	1	0	0	0	0	0	0	0	0	0	1	0	0	1	2	1	9	0	0	15	3	1	0	0	1	0	0	0	0	37
OTU 77	0	2	0	3	9	1	6	1	0	4	3	0	0	0	3	0	3	0	0	4	1	2	0	0	5	2	0	6	0	19	0	0	3	10	0	5	0	0	1	0	3	0	6	2	3	0	2	0	33	0
OTU 78	0	4	0	0	1	7	7	1	1	0	0	0	0	2	0	0	0	3	0	1	7	2	2	4	0	0	24	1	3	0	0	1	0	7	2	7	0	2	8	2	6	5	11	13	0	4	0	6	1	1
OTU 79	5	0	12	13	1	6	9	2	2	8	12	12	2	5	8	5	7	158	1	1	23	7	40	6	9	15	13	6	0	56	0	0	1	2	2	2	3	1	9	4	6	7	76	8	3	4	33	8	1	0
OTU 80	1	0	0	1	5	1	0	0	1	0	0	6	0	27	43	1	3	2	1	5	0	0	6	5	10	2	1	1	23	0	0	0	3	7	1	0	12	5	0	6	2	0	5	10	0	0	0	2	1	12
OTU 81	1	4	5	0	0	1	3	0	2	5	0	1	1	4	3	13	1	2	2	0	1	0	2	2	9	0	2	0	8	1	0	0	0	2	7	1	0	0	0	16	2	2	0	3	4	0	0	0	8	1
OTU 82	0	0	2	1	0	0	0	3	0	4	1	1	0	2	1	5	2	1	1	1	1	0	1	1	5	0	2	0	0	1	0	0	0	1	0	0	1	0	1	2	0	1	2	1	0	0	3	0	0	0
OTU 83	0	0	3	0	0	0	0	0	0	0	0	0	0	0	1	0	0	0	0	0	3	0	1	0	0	0	0	0	0	0	0	0	0	0	0	0	0	0	0	0	1	0	1	0	0	0	0	0	0	0
OTU 84	2	0	0	0	0	1	0	0	0	0	0	0	0	0	2	1	2	0	0	3	0	0	0	0	3	3	2	0	0	0	0	1	0	11	0	1	2	0	0	0	11	0	3	0	1	0	1	0	1	0
OTU 85	0	0	0	0	0	1	0	0	0	0	0	0	0	0	1	1	0	1	0	0	0	2	0	2	1	0	0	0	0	0	0	1	0	0	0	0	0	0	0	0	0	0	0	0	0	0	0	1	0	1
OTU 86	0	0	0	0	0	0	0	0	0	0	0	0	0	0	0	0	0	0	0	0	0	0	0	0	0	0	0	0	0	0	9	0	0	0	0	0	0	0	0	0	0	0	1	0	0	0	0	0	0	0
OTU 87	1	0	0	0	0	1	0	0	0	0	0	0	0	0	0	2	2	0	52	0	0	0	0	0	0	3	3	0	0	0	0	0	0	0	1	0	0	0	0	0	0	0	0	2	0	0	0	0	0	0
OTU 88	0	1	0	0	0	0	0	0	0	0	0	1	0	1	0	0	0	0	0	0	1	0	3	0	4	0	0	0	0	0	0	0	0	0	0	0	0	0	0	0	0	0	0	1	0	0	0	0	0	0
OTU 89	0	0	0	4	1	0	0	0	0	0	0	0	0	0	0	0	4	0	0	1	0	0	0	0	0	0	0	0	0	0	0	3	0	0	0	0	1	0	0	0	1	0	0	0	0	1	0	3	0	0
OTU 90	0	1	0	0	0	0	0	0	1	0	0	0	0	0	2	0	0	0	0	0	0	12	0	0	0	0	0	0	0	0	0	0	0	0	0	1	0	0	0	0	1	0	0	0	0	0	0	0	0	0
OTU 91	0	0	0	0	0	0	0	0	0	0	1	0	0	0	0	0	0	0	0	0	1	0	0	0	0	0	2	2	2	0	0	0	0	0	0	0	0	0	0	0	0	0	0	0	0	1	0	1	0	0
OTU 92	0	0	0	0	0	0	0	0	2	0	0	0	0	2	0	0	0	0	0	0	0	0	0	0	0	1	1	0	0	1	0	0	0	0	0	0	0	0	0	0	0	0	0	0	0	0	0	0	0	0
OTU 93	0	0	0	0	0	0	0	0	0	0	0	0	0	3	0	3	0	0	0	0	0	4	0	0	1	0	0	0	0	0	0	0	0	0	1	0	0	0	0	0	0	0	4	0	0	0	0	0	0	1
OTU 94	0	7	4	0	0	0	7	2	7	0	0	0	2	4	8	6	0	0	4	0	2	5	0	0	0	3	4	2	1	71	10	2	7	11	3	0	0	0	1	2	1	2	5	6	7	0	1	7	114	0
OTU 95	0	0	0	0	0	1	1	0	0	0	3	2	0	1	0	0	0	0	0	0	0	0	0	0	0	0	5	0	0	1	0	4	1	0	0	0	0	0	4	0	0	4	0	0	0	0	5	0	0	0
OTU 96	0	0	0	0	0	0	0	0	0	0	0	0	0	0	1	2	0	0	0	0	0	0	0	0	0	0	0	0	0	0	0	0	0	0	0	0	0	0	0	0	0	1	0	0	0	0	0	0	0	0
OTU 97	0	0	0	0	0	0	0	0	1	0	0	0	0	0	0	0	0	0	0	1	0	0	0	1	1	0	0	2	1	2	0	0	0	0	0	0	0	0	0	0	0	0	0	0	0	0	0	0	0	0
OTU 98	0	0	1	0	3	1	0	1	0	0	0	0	0	0	0	3	0	0	0	0	0	0	2	0	0	1	0	0	3	0	0	0	0	2	1	0	0	0	0	0	0	0	0	0	0	0	1	0	0	0
OTU 99	0	6	1	1	53	0	1	2	3	0	5	0	3	3	11	5	3	0	2	5	22	0	2	0	7	6	2	0	0	0	1	1	2	1	0	1	86	0	0	65	7	0	3	7	2	1	0	1	10	153
OTU 100	0	3	57	0	1	4	3	1	1	0	0	1	2	0	0	5	2	13	2	2	3	0	0	0	0	1	0	56	1	0	0	1	1	0	1	2	48	2	1	0	3	0	0	0	0	0	1	2	1	0
OTU 101	0	0	0	0	0	0	0	0	0	0	0	0	0	0	0	1	0	0	0	0	0	0	0	0	2	0	0	0	0	0	0	0	0	0	0	0	0	0	0	0	0	0	0	0	0	0	0	0	0	0
OTU 102	0	0	0	0	0	0	0	0	0	0	0	0	0	0	0	0	0	1	0	0	0	0	0	0	0	0	0	0	0	0	2	0	0	0	0	0	1	0	0	0	0	0	0	0	0	1	0	0	0	0
OTU 103	2	0	0	0	2	0	1	0	1	0	0	3	0	0	0	1	1	5	1	1	6	0	1	1	0	0	0	1	1	0	0	1	0	3	1	0	0	1	1	0	3	2	0	0	0	1	2	4	0	2
OTU 104	4	0	0	116	4	1	3	0	1	0	6	5	78	0	0	1	0	2	0	1	2	1	0	1	1	3	0	3	4	0	0	0	157	3	0	3	0	0	0	0	2	2	4	3	0	6	2	0	0	1
OTU 105	0	0	0	0	0	0	1	1	0	0	0	0	0	0	0	0	0	0	0	0	0	0	0	0	0	1	0	0	0	0	0	0	0	0	0	0	0	0	0	0	0	0	0	0	1	0	0	0	0	0
OTU 106	0	0	4	0	0	0	1	0	0	0	1	4	0	0	0	0	0	0	1	0	0	0	76	0	0	0	0	0	0	0	0	0	0	0	0	0	0	0	0	0	0	0	2	0	0	0	0	0	0	0
OTU 107	1	60	0	0	1	0	0	0	0	0	0	0	0	2	2	0	0	0	0	2	0	0	0	2	0	3	0	2	0	0	0	0	0	0	0	0	1	0	0	0	0	0	0	1	1	0	1	3	0	1
OTU 108	0	2	7	1	3	2	6	0	0	0	0	4	0	0	3	0	2	2	0	2	0	6	3	1	0	3	1	0	0	0	1	0	2	9	2	1	0	0	0	0	0	0	0	4	0	2	1	1	0	1
OTU 109	0	1	0	0	0	0	0	0	0	0	0	0	0	0	0	0	0	0	0	0	0	0	0	0	0	0	0	0	0	0	0	0	0	0	0	0	0	0	0	0	0	0	0	0	0	0	4	0	0	0
OTU 110	2	3	0	3	2	1	0	0	0	0	1	5	0	0	4	0	4	0	0	0	0	4	3	0	4	0	1	2	0	0	2	0	0	0	0	0	2	0	1	2	2	0	3	1	1	0	0	0	0	0
OTU 111	0	0	0	0	2	0	0	0	0	0	0	0	0	1	0	0	0	0	6	0	0	0	0	0	0	0	0	0	0	0	0	0	0	0	0	28	0	0	0	0	0	0	0	0	0	0	0	0	0	3
OTU 112	1	0	1	7	0	0	0	0	0	0	0	0	2	7	4	2	0	0	0	3	0	2	2	0	0	0	0	0	0	0	0	0	1	0	0	1	0	0	0	0	5	0	0	4	2	0	0	0	1	1
OTU 113	0	0	0	0	0	0	0	0	0	0	0	4	0	0	1	0	0	0	0	0	0	0	0	0	1	0	0	0	0	0	0	0	0	0	0	0	0	1	0	0	1	0	0	0	0	0	0	0	0	0
OTU 114	2	0	3	0	14	10	0	0	2	0	3	1	18	0	1	4	3	0	0	1	4	1	0	0	2	0	7	1	4	0	1	3	39	4	2	3	0	1	2	1	6	5	0	4	1	3	2	1	0	3
OTU 115	2	5	1	0	2	1	2	3	7	4	1	0	1	0	0	7	2	1	12	0	5	2	0	4	3	3	3	5	0	4	1	0	3	3	1	2	5	0	0	1	1	1	1	2	6	0	5	12	5	0
OTU 116	0	29	6	2	0	0	1	1	5	1	5	3	1	4	4	1	3	0	3	0	1	0	0	0	3	12	1	4	0	0	3	0	0	0	0	4	5	6	88	3	0	0	0	2	1	3	0	5	0	1
OTU 117	0	1	3	5	0	1	0	0	0	2	2	1	2	0	1	0	44	1	0	4	2	8	0	33	0	0	0	3	2	0	1	1	1	1	0	3	0	0	0	0	3	0	0	0	4	0	0	0	0	3
OTU 118	0	0	0	0	0	0	0	0	0	0	0	3	0	0	0	0	0	0	2	1	0	0	0	0	0	0	0	0	15	0	0	0	0	0	0	0	0	0	0	0	0	0	0	0	0	0	0	0	2	0
OTU 119	3	0	0	0	2	4	0	0	10	0	1	1	4	0	1	0	3	0	63	2	3	5	0	0	7	2	0	0	0	3	11	2	7	4	0	3	2	2	1	6	2	0	5	2	3	5	2	2	2	8
OTU 120	2	0	0	0	0	0	3	0	1	0	0	0	0	0	0	0	0	3	0	1	1	0	0	0	1	0	2	4	2	0	0	6	0	0	0	0	0	0	0	0	1	0	0	0	0	0	44	0	0	0
OTU 121	0	0	0	1	0	0	4	0	0	0	0	1	0	2	5	0	1	0	0	0	1	0	8	0	0	1	2	0	9	0	0	0	0	0	0	0	0	0	2	0	0	1	0	5	0	0	0	0	0	0
OTU 122	1	1	21	0	0	0	1	10	15	1	0	0	4	5	4	5	85	2	0	1	2	8	1	20	0	73	3	0	3	5	10	0	7	0	5	0	0	0	4	2	3	1	1	4	5	49	0	1	6	0
OTU 123	2	6	3	3	7	1	1	3	8	8	4	3	5	4	20	6	2	3	3	1	2	12	5	3	3	6	7	5	5	4	5	2	3	3	6	3	2	2	0	5	7	5	7	1	9	5	4	13	7	1
OTU 124	0	0	0	0	0	0	0	0	0	0	0	0	0	11	0	8	0	0	1	0	0	0	1	0	0	0	0	0	0	0	0	2	0	0	20	0	0	0	0	0	0	0	0	0	0	0	0	0	0	0
OTU 125	2	4	0	1	5	17	14	2	3	1	5	10	0	2	4	4	2	7	4	1	8	0	6	3	15	12	17	1	3	0	3	3	1	24	1	13	0	9	8	2	6	9	5	0	0	5	6	10	1	2
OTU 126	0	0	0	0	0	0	0	0	1	0	0	1	0	0	0	0	0	0	0	0	0	0	0	0	0	0	4	0	0	0	0	0	0	1	0	0	0	1	0	0	0	0	0	0	0	2	0	0	0	1
OTU 127	0	1	0	0	2	6	1	0	2	0	1	0	1	2	0	0	2	0	0	4	0	1	7	2	0	0	2	0	3	2	1	1	2	1	0	0	0	1	0	0	15	3	3	0	1	0	0	4	0	1
OTU 128	5	1	15	0	1	2	3	0	56	17	16	95	19	32	2	2	22	1	0	0	3	2	4	10	2	5	3	9	3	13	31	6	36	9	0	4	0	53	2	0	4	1	4	9	8	5	2	3	53	1
OTU 129	0	0	1	0	0	2	0	0	0	2	5	0	0	0	0	0	0	0	0	0	0	0	0	0	0	1	0	0	0	0	0	0	0	0	0	1	0	0	0	2	0	0	0	0	0	0	0	0	0	0
OTU 130	0	0	0	0	22	0	1	0	0	1	1	0	0	1	2	1	1	0	3	0	0	0	24	0	0	2	0	1	0	0	0	0	0	0	0	0	0	0	0	4	0	0	1	4	1	4	0	3	0	1
OTU 131	1	0	0	0	0	9	0	5	0	2	0	4	0	1	0	4	0	1	1	4	1	0	2	0	0	0	4	2	0	1	121	4	0	0	0	1	0	3	0	1	9	0	1	0	2	0	2	1	2	0
OTU 132	0	0	0	0	0	0	0	0	1	0	0	0	2	3	2	0	0	1	1	0	0	0	0	0	0	0	0	0	0	0	0	0	2	3	0	0	0	0	0	0	0	0	0	0	1	0	0	0	2	0
OTU 133	28	2	0	0	0	0	0	0	0	0	0	0	0	0	0	0	0	0	0	0	0	0	0	1	0	0	0	0	0	0	0	0	0	1	0	0	0	0	0	0	0	0	0	0	0	0	1	0	0	0
OTU 134	1	5	2	1	0	1	1	32	2	0	6	1	0	2	3	0	1	1	0	0	0	9	0	0	2	0	0	1	1	0	3	0	0	0	0	1	0	1	1	0	5	0	1	0	3	3	0	0	0	3
OTU 135	0	0	7	4	0	4	0	1	2	2	4	0	0	0	0	1	0	2	2	2	3	7	0	0	0	0	3	1	1	0	3	0	0	1	0	0	2	0	1	3	3	1	3	0	1	0	0	10	1	2
OTU 136	0	0	0	0	0	1	0	0	0	1	0	0	0	1	1	0	0	0	3	6	0	0	0	0	0	0	0	7	0	0	0	0	0	4	0	2	1	0	0	0	7	0	0	1	0	0	3	10	0	0
OTU 137	0	0	0	0	0	1	0	0	1	0	0	0	0	0	0	0	0	0	0	0	0	2	0	2	0	0	1	0	0	0	0	0	0	0	0	0	0	0	0	0	0	0	1	0	0	0	0	0	0	0
OTU 138	0	0	3	0	0	0	0	1	4	0	0	0	4	0	0	0	5	0	0	0	0	0	0	0	0	0	2	0	0	0	1	0	1	0	0	0	0	0	0	0	0	0	0	2	0	1	0	0	1	0
OTU 139	0	0	20	4	3	2	0	3	1	0	3	0	0	2	3	5	3	1	0	1	10	2	0	2	2	1	2	2	5	0	0	0	0	5	95	0	0	0	0	127	0	32	7	0	0	2	3	7	1	1
OTU 140	10	3	3	6	3	24	1	3	3	5	2	2	1	1	3	0	0	2	7	0	15	2	0	1	3	0	0	3	8	0	1	18	4	2	1	4	0	57	0	0	3	1	1	2	2	88	11	12	0	0
OTU 141	0	0	0	0	0	0	0	0	0	0	0	0	0	0	0	0	0	0	0	0	3	0	0	0	0	0	0	0	0	0	0	0	0	0	0	0	0	0	0	0	0	0	0	0	0	0	0	0	0	0
OTU 142	0	0	0	0	0	0	0	0	0	0	0	0	0	0	0	0	2	0	0	0	0	0	0	0	0	2	0	0	0	0	0	0	0	0	0	0	0	0	0	0	0	0	0	0	0	0	0	0	0	0
OTU 143	0	0	6	0	2	0	2	4	1	1	3	0	0	0	2	0	0	0	1	0	0	0	0	0	0	0	0	0	0	0	1	0	0	0	0	0	0	0	0	0	0	0	0	0	0	0	0	0	3	0
OTU 144	1	0	0	0	1	0	0	0	0	5	0	0	0	0	2	0	0	0	16	1	0	0	0	0	1	3	0	0	0	0	0	0	0	0	0	0	0	0	0	0	1	3	0	1	0	3	1	3	0	0
OTU 145	1	1	2	1	14	7	10	6	12	0	2	0	0	5	0	0	2	11	3	0	0	5	1	0	1	2	10	1	6	0	2	3	0	1	0	1	4	1	14	0	0	3	0	0	4	1	6	0	1	1
OTU 146	0	2	0	4	0	0	0	27	24	23	0	0	2	1	1	0	6	0	0	0	4	0	2	3	1	1	7	1	0	3	6	1	9	0	0	4	0	0	3	0	0	3	0	7	3	0	0	4	15	0
OTU 147	3	0	0	0	0	1	0	0	2	0	0	0	2	2	0	0	0	0	0	0	0	0	1	0	3	0	0	4	0	1	0	0	2	4	0	2	0	0	0	0	0	0	0	0	0	0	0	12	3	0
OTU 148	0	6	0	2	2	1	0	1	0	1	4	1	0	0	7	0	0	0	5	1	0	0	1	0	4	1	0	7	0	0	0	1	0	0	1	1	1	0	0	0	0	0	0	3	0	0	3	2	0	1
OTU 149	0	0	0	0	0	0	2	0	0	0	16	1	0	0	1	0	0	0	1	0	0	3	0	1	0	6	0	0	0	0	0	0	0	0	2	5	1	0	0	0	0	0	0	0	5	3	0	1	0	0
OTU 150	0	1	0	25	0	0	0	0	1	3	0	0	0	0	0	0	0	3	0	0	1	0	0	0	0	0	3	0	0	0	0	0	1	0	0	0	0	0	1	0	0	0	1	0	5	0	0	1	0	0
OTU 151	0	0	0	0	0	0	0	0	0	1	20	3	0	0	0	2	0	0	0	0	8	0	1	0	2	1	4	0	0	0	0	0	0	0	7	6	0	2	0	1	3	0	2	0	1	0	1	0	0	0
OTU 152	0	0	2	6	2	0	0	4	6	1	0	2	4	2	0	4	1	0	4	0	1	4	3	0	1	5	1	0	2	3	2	0	5	6	1	3	0	1	2	0	2	1	3	0	6	1	2	1	2	0
OTU 153	0	0	0	0	0	0	0	0	0	0	0	0	0	0	0	0	0	0	0	0	1	0	0	0	0	0	0	0	0	0	0	0	0	0	0	0	0	0	0	0	0	0	0	0	0	0	0	0	0	0
OTU 154	0	0	0	0	0	0	2	0	0	0	1	3	0	0	2	0	0	0	0	0	0	0	0	0	0	0	0	0	0	0	0	0	0	0	0	0	0	7	0	0	0	0	0	0	0	0	0	0	0	0
OTU 155	1	0	2	0	1	0	0	0	0	0	0	0	0	0	3	2	0	0	0	0	0	0	0	0	0	1	0	0	0	0	1	0	0	0	2	2	0	0	0	0	1	0	0	0	0	1	0	0	0	0
OTU 156	3	11	8	1	5	2	1	6	9	0	3	2	2	32	1	60	0	12	1	0	5	9	1	0	6	33	4	0	1	1	6	0	1	2	41	12	2	1	0	0	0	1	1	0	22	13	0	0	2	0
OTU 157	1	0	1	0	0	0	0	0	0	5	0	0	0	1	0	0	0	0	0	0	0	2	0	1	0	4	0	1	0	0	1	0	0	2	0	2	0	0	0	0	0	0	1	1	0	0	0	0	1	0
OTU 158	0	0	0	0	2	0	0	0	0	0	0	0	0	1	0	1	0	0	0	0	0	0	0	0	0	0	0	0	0	0	0	0	0	0	0	0	0	0	0	0	0	0	0	0	1	0	0	0	0	0
OTU 159	0	0	1	0	0	0	2	0	2	3	0	1	1	0	2	0	1	0	1	1	0	0	0	0	1	0	2	1	0	1	2	0	1	0	0	0	1	0	0	0	1	0	0	1	3	0	1	1	0	0
OTU 160	0	0	2	1	3	3	123	11	3	15	1	5	0	0	2	3	0	3	6	2	1	6	0	2	3	2	0	0	1	1	2	1	1	0	1	7	0	2	1	0	0	0	2	3	1	1	1	3	4	0
OTU 161	2	0	0	0	2	0	0	0	0	12	1	5	0	1	36	2	0	0	2	34	3	1	13	0	1	0	0	0	12	0	0	69	1	2	0	0	2	3	0	9	58	0	0	9	29	0	0	1	0	17
OTU 162	4	0	1	3	1	2	3	6	4	0	1	0	4	0	0	2	7	13	1	0	0	0	0	3	0	3	0	16	0	0	3	2	0	7	3	1	0	0	0	2	0	0	15	1	1	3	0	0	0	0
OTU 163	0	0	0	0	0	0	0	0	0	0	0	0	0	0	0	0	0	0	2	0	3	0	0	0	0	0	0	0	0	0	0	0	0	0	0	0	0	0	0	0	0	0	0	0	0	0	0	0	0	0
OTU 164	0	0	0	0	0	0	0	0	0	0	0	0	0	0	0	0	0	0	0	0	0	0	0	0	0	0	0	0	3	0	0	0	0	1	0	0	0	0	0	0	0	0	0	0	0	0	0	0	0	0
OTU 165	6	1	2	22	0	0	0	0	0	0	0	0	0	0	0	0	0	2	0	1	1	47	4	0	3	0	2	0	0	0	1	3	0	0	1	0	0	1	0	1	2	1	1	1	3	2	1	0	0	2
OTU 166	0	2	0	0	0	0	0	0	0	0	0	0	0	0	1	0	0	0	0	0	0	0	0	0	0	0	0	0	0	0	0	0	0	0	0	0	0	0	0	0	0	0	0	0	0	0	0	0	0	0
OTU 167	0	0	4	8	0	0	0	0	0	0	0	0	0	0	1	0	0	2	0	0	0	1	2	0	0	0	0	1	4	0	0	0	0	1	0	0	0	1	0	0	0	0	0	0	0	2	0	0	1	0
OTU 168	0	10	0	0	100	0	0	1	0	0	0	2	1	0	3	6	4	0	2	0	4	0	0	1	1	0	2	1	1	0	0	0	1	0	0	1	3	0	2	3	0	0	0	7	1	1	1	4	1	1
OTU 169	0	0	0	0	0	0	0	0	0	0	47	0	0	0	2	1	1	0	0	0	0	0	0	0	0	0	0	0	0	0	0	0	0	0	0	0	0	0	0	0	0	0	0	0	0	0	0	0	0	0
OTU 170	0	0	0	0	0	0	0	0	0	0	0	0	0	0	0	0	0	0	0	0	0	0	0	0	0	0	0	0	0	0	0	0	0	0	0	3	0	0	0	0	0	0	0	0	0	0	0	0	0	0
OTU 171	0	0	5	2	0	3	0	1	0	0	0	0	0	0	0	0	0	0	0	18	0	0	2	1	0	0	0	0	8	0	0	0	1	0	2	4	0	0	0	0	28	1	2	41	0	0	5	0	0	0
OTU 172	0	0	0	0	0	0	0	0	0	0	1	0	0	0	0	0	1	0	0	0	0	0	1	1	0	0	0	0	0	0	0	0	0	0	0	0	0	0	0	0	0	0	0	0	0	0	0	0	0	0
OTU 173	1	0	0	0	0	0	1	0	0	0	4	0	0	0	0	2	0	0	0	0	0	2	2	1	0	8	0	0	0	0	0	0	0	0	0	1	1	0	0	2	1	0	0	0	0	1	0	1	0	0
OTU 174	0	2	2	0	0	0	7	4	0	25	0	0	0	0	0	7	0	0	0	0	0	0	0	0	4	0	0	0	2	0	0	0	0	0	8	0	0	0	0	2	0	0	5	0	1	0	0	1	0	0
OTU 175	0	0	0	3	0	0	4	0	0	0	0	0	0	4	0	2	0	0	0	0	0	0	0	0	0	1	1	0	0	0	0	0	0	0	9	0	0	0	0	0	0	0	1	11	1	0	0	3	0	2
OTU 176	5	1	3	6	1	5	4	0	0	0	0	0	0	3	0	0	2	3	2	2	0	0	1	5	73	0	5	1	2	0	1	0	0	3	0	0	1	0	1	0	3	14	2	0	9	0	2	1	1	1
OTU 177	0	0	1	0	0	2	0	5	0	0	13	1	0	2	0	0	0	1	3	2	5	0	0	3	0	2	0	1	1	0	4	1	0	0	0	2	1	0	0	0	5	0	0	1	5	3	3	1	0	0
OTU 178	0	2	0	1	0	1	0	4	0	0	0	0	0	0	1	5	0	0	2	0	3	0	0	0	0	0	0	0	0	0	0	0	0	1	2	0	1	1	0	1	0	0	0	2	5	0	1	1	0	1
OTU 179	1	0	0	0	3	0	0	0	0	1	1	0	0	0	6	0	1	0	1	0	0	0	0	0	3	0	0	1	0	0	0	0	1	0	1	0	1	0	1	3	0	0	1	1	0	2	0	3	0	5
OTU 180	2	2	4	7	0	3	8	3	5	5	5	16	2	19	1	15	7	1	2	4	8	3	4	11	60	3	4	3	2	2	3	5	1	1	2	2	7	11	3	6	4	1	0	3	12	0	63	4	6	5
OTU 181	0	0	0	0	0	1	0	49	1	0	0	0	0	0	0	0	0	2	0	0	2	0	0	0	1	0	6	0	2	0	1	0	1	0	0	0	0	0	0	1	0	1	0	2	0	0	0	1	0	0
OTU 182	0	0	0	0	0	0	4	1	0	0	0	1	0	0	0	0	0	0	0	2	0	0	0	0	0	1	0	0	0	0	0	0	0	0	0	0	1	0	0	0	0	0	0	0	0	0	0	0	0	0
OTU 183	0	0	0	0	0	0	0	0	0	6	0	2	0	2	0	5	0	1	2	0	0	0	0	1	4	1	5	0	0	0	21	3	0	7	0	2	0	0	2	0	0	1	1	2	0	0	0	3	0	0
OTU 184	2	0	3	2	0	0	0	0	0	0	0	1	0	0	3	1	0	0	0	0	0	5	0	2	0	0	1	0	2	0	0	5	0	0	1	0	0	0	1	2	0	1	0	0	64	2	0	2	0	2
OTU 185	1	0	4	6	0	11	0	2	3	1	4	2	1	0	8	6	0	4	1	1	2	1	0	3	0	0	4	0	0	1	0	5	2	2	2	1	0	0	5	1	2	0	3	1	4	0	4	0	1	0
OTU 186	0	0	0	0	1	1	0	1	7	0	0	0	0	0	0	0	0	1	0	0	0	1	0	0	0	0	0	0	1	4	2	0	3	3	0	0	0	0	0	2	1	0	0	0	0	3	3	0	3	0
OTU 187	14	0	6	17	0	5	1	1	0	1	10	11	0	1	0	0	1	0	23	2	7	42	4	0	1	10	2	4	0	0	0	0	0	1	0	44	0	1	1	1	0	0	0	0	0	0	1	8	0	2
OTU 188	2	1	10	2	7	0	2	1	2	8	0	0	1	7	15	3	5	6	0	8	5	1	2	0	3	4	4	2	2	1	0	0	0	1	2	0	2	4	4	2	12	6	0	2	0	1	0	2	3	5
OTU 189	15	2	0	1	0	3	0	0	6	2	5	1	0	1	9	0	0	0	2	2	7	1	10	0	9	0	0	0	3	1	1	8	1	0	0	0	4	0	0	4	7	0	1	0	0	0	4	8	4	2
OTU 190	0	0	0	1	0	0	0	0	0	0	0	0	0	0	0	1	0	0	3	0	0	0	0	0	0	0	0	0	0	0	0	0	0	0	0	0	0	0	0	0	0	0	0	1	0	0	0	0	0	0
OTU 191	0	5	0	2	2	2	2	0	6	121	0	1	1	4	1	12	1	2	0	1	3	2	1	1	2	0	0	6	5	0	0	0	1	1	3	4	104	2	0	0	0	0	3	0	2	0	0	6	1	0
OTU 192	0	6	6	0	2	3	4	0	3	0	4	1	0	0	2	1	0	0	2	0	1	6	2	1	5	5	2	1	3	0	0	0	1	2	0	0	0	0	0	0	0	80	1	3	0	0	0	8	0	2
OTU 193	0	5	0	0	0	3	1	1	4	3	0	0	0	3	0	1	1	0	12	0	5	0	0	1	4	1	0	1	2	0	0	0	6	0	2	22	0	5	0	0	3	0	3	2	0	1	0	0	1	0
OTU 194	0	1	1	0	0	1	0	0	1	0	3	0	0	0	0	0	0	1	0	0	4	6	0	0	0	0	0	4	2	1	0	0	0	1	0	0	0	0	0	1	0	0	0	0	3	5	0	1	0	0
OTU 195	1	0	0	1	0	0	2	0	1	0	0	14	0	0	22	0	0	0	0	0	0	0	4	5	6	1	0	0	5	0	0	0	0	3	0	0	5	14	0	9	0	0	0	13	0	0	0	0	0	12
OTU 196	0	0	0	1	2	0	0	0	0	0	1	3	0	1	2	0	2	0	0	0	2	3	0	0	0	3	0	0	1	0	3	0	0	1	0	0	0	0	0	0	0	0	1	0	0	1	0	0	0	5
OTU 197	4	1	2	1	1	5	0	0	3	0	8	7	1	6	2	8	1	1	2	16	1	7	7	0	0	0	0	1	7	0	0	4	1	6	9	0	1	0	0	0	26	2	0	1	11	1	3	3	0	5
OTU 198	0	1	0	0	0	0	0	1	0	1	4	0	0	0	0	0	1	0	0	0	0	0	0	0	0	0	0	0	0	0	0	0	0	1	0	0	0	0	0	1	0	0	0	0	0	0	0	2	0	2
OTU 199	0	7	0	0	0	1	0	2	0	0	0	0	0	0	3	0	1	0	0	0	0	0	0	0	0	0	2	0	4	0	0	1	0	0	0	1	0	0	0	1	0	1	0	1	0	0	0	0	0	0
OTU 200	0	2	0	0	0	3	0	0	0	0	1	0	0	0	0	0	0	0	0	0	1	0	4	0	1	0	0	0	0	0	1	4	0	0	1	0	6	1	0	3	0	0	1	2	0	1	2	0	0	0
