	Host 1	Host 2	Host 3	Host 4	Host 5	Host 6	Host 7	Host 8	Host 9	Host 10	Host 11	Host 12	Host 13	Host 14	Host 15	Host 16	Host 17	Host 18	Host 19	Host 20	Host 21	Host 22	Host 23	Host 24	Host 25	Host 26	Host 27	Host 28	Host 29	Host 30	Host 31	Host 32	Host 33	Host 34	Host 35	Host 36	Host 37	Host 38	Host 39	Host 40	Host 41	Host 42	Host 43	Host 44	Host 45	Host 46	Host 47	Host 48	Host 49	Host 50	
OTU 1	0	1	2	5	1	4	0	7	1	1	2	0	8	0	9	2	9	1	2	0	0	1	0	0	0	1	0	1	0	0	0	10	1	4	4	7	4	5	7	1	0	4	0	7	2	1	2	5	6	1
OTU 2	0	0	0	0	0	0	0	1	1	0	0	0	0	0	0	1	1	2	0	0	8	0	0	1	1	0	2	1	0	1	0	0	0	0	0	0	1	0	1	2	0	1	0	3	0	0	2	0	0	2
OTU 3	0	5	0	0	0	0	0	0	0	1	0	0	0	3	0	0	0	0	0	0	0	0	0	0	0	0	0	0	0	0	0	6	1	0	1	0	0	0	0	0	0	0	0	0	0	3	0	0	0	1
OTU 4	0	0	0	0	0	0	0	0	0	0	0	0	0	0	0	0	0	0	0	0	0	0	0	0	0	0	0	0	0	0	0	0	0	0	0	0	0	0	0	0	0	0	0	0	0	0	0	0	0	0
OTU 5	15	15	18	13	1	33	4	171	1	4	101	0	9	0	0	0	31	28	8	0	7	33	11	2	9	11	1	51	0	17	4	5	2	3	1	10	1	16	21	0	31	1	21	11	23	28	18	14	8	1
OTU 6	0	0	0	0	2	1	4	0	6	6	0	2	1	4	0	1	0	0	0	0	0	0	2	1	0	0	0	0	0	2	0	0	12	2	1	0	1	2	0	0	0	7	2	3	0	0	79	0	3	2
OTU 7	76	0	12	9	0	2	2	22	50	1	13	1	24	21	10	5	25	3	2	2	4	16	22	73	1	2	3	1	0	3	1	38	6	18	38	151	4	1	33	1	1	12	2	3	0	0	1	2	39	2
OTU 8	1	0	2	0	1	1	7	4	0	8	81	7	0	0	14	19	2	1	3	9	0	2	0	5	1	0	1	2	7	1	4	20	3	8	1	5	0	1	2	2	2	2	0	5	4	1	3	11	2	5
OTU 9	0	2	17	0	0	0	1	0	0	0	1	0	1	1	0	0	1	0	4	0	1	0	0	0	0	3	2	0	1	0	0	0	1	0	4	0	1	0	0	3	3	0	0	0	1	0	0	0	0	0
OTU 10	1	1	0	0	0	0	0	1	0	0	0	2	3	0	10	0	0	3	0	0	0	0	0	0	0	1	0	2	0	0	2	3	1	0	0	0	4	4	1	4	1	1	1	0	0	2	0	2	0	0
OTU 11	0	17	0	0	1	0	0	0	2	6	3	2	0	3	1	7	1	0	0	7	0	0	3	4	0	0	4	0	2	20	5	6	0	0	12	2	3	0	11	5	0	0	0	0	0	6	0	3	0	1
OTU 12	1	0	2	0	1	1	3	0	2	3	0	6	0	2	0	3	0	1	8	4	1	0	0	0	7	0	0	0	0	0	0	1	1	0	2	0	4	1	0	13	0	0	0	0	2	6	4	3	0	0
OTU 13	0	0	0	1	0	0	1	0	0	0	0	0	0	0	0	0	0	0	0	0	0	0	0	0	0	0	0	0	5	0	0	0	0	0	0	0	5	0	0	0	0	0	0	0	0	0	0	0	0	0
OTU 14	0	0	0	0	0	0	0	0	0	0	0	0	8	0	1	0	1	0	4	5	0	0	0	0	0	0	0	3	0	0	1	0	8	3	0	2	1	0	0	0	2	0	3	0	0	2	0	1	0	4
OTU 15	0	0	0	0	0	0	0	0	0	0	0	0	0	0	0	0	0	0	0	0	0	0	0	0	0	0	0	0	0	0	0	0	0	0	0	0	0	0	0	0	0	0	0	0	0	0	0	0	0	0
OTU 16	0	0	0	0	0	0	0	0	0	0	0	0	0	0	0	0	0	0	0	0	0	0	0	0	0	0	0	0	0	0	0	0	0	0	0	0	0	0	0	0	0	0	0	0	0	0	0	0	0	0
OTU 17	4	0	0	0	0	1	0	0	0	1	0	1	0	1	2	0	0	0	0	0	0	0	0	0	2	1	0	2	2	53	1	0	2	0	0	3	0	0	0	0	0	0	1	1	0	0	0	1	0	0
OTU 18	0	1	0	0	4	0	5	2	36	6	2	0	0	0	1	1	0	4	2	0	12	0	1	0	1	11	2	0	5	1	0	0	2	0	1	2	4	1	0	1	2	3	2	2	1	4	0	7	3	1
OTU 19	0	0	0	0	0	0	0	0	0	0	0	0	0	0	0	0	0	0	0	0	0	0	0	0	0	0	1	0	4	0	0	0	0	0	0	0	0	0	0	0	0	0	0	0	0	0	0	0	0	0
OTU 20	0	0	2	1	0	0	0	0	0	2	0	2	0	0	2	1	2	0	1	0	0	0	0	6	2	0	0	0	0	3	0	7	0	3	1	4	4	1	1	7	0	0	2	0	0	1	2	2	0	0
OTU 21	5	2	0	0	3	0	4	1	0	0	2	0	0	2	0	3	1	4	0	5	3	0	0	0	0	5	3	0	3	0	0	0	7	0	0	0	2	11	0	0	0	0	0	2	0	2	0	0	0	2
OTU 22	6	0	0	0	3	4	0	0	2	0	0	0	1	2	10	1	5	1	0	0	0	1	0	2	0	0	1	3	5	8	2	4	34	1	0	4	6	0	1	4	1	2	1	4	6	2	0	4	0	0
OTU 23	0	0	0	0	0	2	0	0	0	0	0	9	0	1	0	1	0	1	6	1	0	0	1	1	0	0	0	0	0	0	3	0	0	0	2	0	0	0	0	2	0	0	0	0	4	0	4	0	0	0
OTU 24	0	1	0	0	3	0	0	0	0	0	1	2	1	4	0	2	0	0	4	2	0	0	0	0	1	1	1	0	0	0	1	0	0	4	0	0	0	0	0	6	2	0	39	0	0	1	4	0	0	0
OTU 25	0	1	0	0	0	0	0	0	0	0	0	0	0	0	0	0	0	0	0	0	0	0	0	0	0	0	0	0	0	0	0	0	0	0	0	2	0	0	0	0	0	0	0	0	0	0	0	4	0	0
OTU 26	0	0	0	0	0	0	0	0	0	0	0	0	0	0	0	0	0	0	0	0	0	0	0	0	0	1	0	0	1	2	0	0	0	0	0	0	4	0	0	0	0	0	0	0	0	0	0	0	0	0
OTU 27	0	0	0	0	1	0	0	0	0	0	0	0	0	0	0	0	0	0	0	0	0	0	1	0	0	0	0	0	0	1	0	0	0	0	0	0	0	0	0	0	0	0	0	0	0	0	0	0	0	0
OTU 28	0	1	1	0	1	1	10	0	1	0	0	4	3	3	0	7	2	1	3	0	0	0	1	0	3	2	0	0	0	10	6	1	2	0	1	1	5	2	0	2	2	0	0	4	0	0	0	0	1	0
OTU 29	0	2	1	2	1	0	2	0	36	1	0	4	4	1	28	0	2	0	5	3	4	0	2	1	3	0	4	0	9	0	3	0	2	2	2	5	3	3	3	1	1	1	0	1	2	11	0	9	0	2
OTU 30	0	0	0	0	0	0	0	0	0	0	0	0	0	0	0	0	0	0	0	0	0	0	0	0	0	0	0	0	0	0	0	0	0	0	0	0	0	0	0	0	0	0	0	0	0	0	0	0	0	0
OTU 31	0	0	0	0	2	0	0	0	0	7	1	0	0	0	0	0	0	0	0	0	0	0	0	0	0	0	2	1	0	0	0	0	0	4	0	0	4	0	0	6	0	2	0	0	0	0	0	0	0	0
OTU 32	1	0	0	0	0	6	3	0	0	2	2	1	1	4	1	4	7	4	26	1	2	1	0	11	0	3	1	7	1	2	1	1	1	0	3	31	3	2	10	2	2	15	1	1	10	0	4	40	9	2
OTU 33	0	0	0	0	0	0	0	0	0	0	0	0	0	0	0	0	0	0	4	0	0	0	0	0	0	0	0	0	0	0	0	0	0	0	0	0	0	0	0	0	0	0	0	0	0	0	0	0	0	0
OTU 34	1	0	2	0	2	1	0	0	0	0	0	7	1	11	1	11	0	2	0	0	7	0	0	0	2	6	2	0	1	0	0	0	4	194	1	3	0	0	0	1	4	0	0	1	1	1	0	1	1	6
OTU 35	2	1	3	0	0	0	0	0	0	0	0	1	1	0	0	0	0	0	0	0	1	0	0	0	0	0	0	1	0	2	2	8	1	2	1	0	0	1	0	0	0	0	1	0	6	6	2	0	0	0
OTU 36	8	0	0	2	0	1	1	0	0	2	0	0	0	0	0	4	0	3	2	0	5	0	0	0	0	0	3	0	0	0	0	0	0	0	0	2	6	0	7	0	0	1	0	0	0	7	0	3	2	0
OTU 37	0	0	0	0	0	0	13	0	0	0	0	0	1	1	0	0	1	1	0	0	0	3	0	0	0	0	0	2	0	0	0	0	0	0	0	0	0	1	0	0	1	0	0	0	0	0	0	0	0	0
OTU 38	3	0	2	0	1	2	4	1	0	1	0	1	0	4	0	0	0	4	15	0	3	0	0	0	0	4	0	1	0	1	0	1	0	1	4	0	5	0	0	0	0	4	0	2	0	0	1	0	2	11
OTU 39	0	0	3	0	1	0	0	0	0	0	0	0	0	0	0	0	0	0	4	0	0	0	0	0	0	0	0	2	0	0	0	0	0	1	0	0	0	3	0	0	0	0	0	0	0	0	0	0	0	2
OTU 40	0	12	0	7	0	0	1	11	3	3	2	13	2	1	0	8	8	0	4	0	1	3	5	0	2	1	0	0	1	2	1	0	2	2	3	0	3	1	15	2	3	1	4	0	0	2	0	0	0	0
OTU 41	0	1	0	4	67	0	0	1	1	1	0	1	1	2	0	7	1	0	0	2	10	1	1	0	36	0	1	1	1	9	27	0	0	0	2	0	2	0	2	1	3	1	17	2	1	0	6	0	2	1
OTU 42	0	1	0	0	0	0	0	0	1	0	0	0	0	0	6	0	0	1	0	0	0	0	1	0	0	0	0	0	4	0	0	0	0	0	0	0	0	0	0	1	0	0	0	0	0	0	0	2	0	0
OTU 43	0	0	0	0	0	0	0	0	0	0	0	0	0	0	0	0	0	0	0	0	0	0	0	0	0	0	0	0	0	2	0	0	0	0	0	0	0	0	0	0	0	0	3	0	0	0	0	0	0	0
OTU 44	1	2	0	0	0	0	0	0	0	1	0	0	0	2	0	2	0	0	0	0	0	0	0	0	0	0	0	0	0	0	2	0	3	0	1	0	2	0	1	0	0	0	0	0	0	3	0	0	0	0
OTU 45	1	0	1	0	0	0	0	0	0	0	0	0	0	0	4	12	0	7	0	102	3	0	0	62	0	0	0	0	0	0	0	0	59	1	3	4	1	0	0	2	0	0	2	1	0	1	0	2	0	0
OTU 46	2	0	2	0	0	1	7	3	0	1	0	14	2	0	2	3	1	0	4	0	0	1	0	132	14	0	30	0	0	2	0	0	0	2	2	0	0	3	1	3	0	1	0	1	2	2	1	1	1	2
OTU 47	0	0	0	0	0	0	3	0	0	0	1	0	2	0	1	0	1	0	0	0	0	0	2	0	0	0	0	2	0	0	0	0	0	0	0	0	0	0	1	1	0	0	0	0	0	0	0	0	2	0
OTU 48	0	0	0	1	0	0	0	0	0	8	2	2	0	2	3	0	1	0	3	0	4	0	0	0	0	0	10	0	2	2	0	2	1	0	84	0	0	0	1	1	0	1	1	2	1	2	1	0	1	0
OTU 49	2	0	5	1	0	1	8	0	0	1	0	0	0	0	0	0	0	0	1	1	0	0	0	0	4	0	0	0	72	1	4	2	0	0	0	1	0	0	0	0	0	1	0	0	0	0	0	0	0	0
OTU 50	1	0	5	4	2	3	0	3	0	6	2	0	12	0	1	2	6	0	3	5	10	0	6	0	0	2	0	0	0	0	0	2	1	0	2	0	3	1	2	1	2	6	2	5	4	2	0	1	3	0
OTU 51	0	4	0	0	0	0	0	1	0	0	0	0	1	1	7	0	0	2	0	0	0	0	4	0	1	0	0	2	2	0	0	1	0	1	0	1	10	3	0	0	4	1	1	0	1	3	0	1	2	0
OTU 52	0	2	0	0	5	0	1	2	9	3	2	1	3	5	0	2	0	1	0	3	2	1	3	0	3	7	1	1	5	0	3	12	1	2	1	1	0	5	0	5	4	5	26	1	1	2	44	5	3	2
OTU 53	1	0	0	0	0	0	0	0	0	0	0	0	0	0	0	1	0	0	0	0	0	0	0	0	0	0	0	0	0	0	0	0	0	0	0	0	0	0	0	0	0	0	0	0	0	0	0	0	0	0
OTU 54	3	29	0	0	1	0	0	5	4	0	0	0	3	10	2	3	4	4	2	3	12	1	4	1	4	1	0	1	3	6	4	2	5	2	1	0	0	1	3	2	2	0	0	2	2	3	0	0	2	2
OTU 55	0	0	0	0	0	0	0	0	0	0	0	0	0	0	0	0	0	0	0	0	0	0	0	0	0	0	0	0	0	0	0	0	0	0	0	0	0	0	0	0	1	0	0	0	0	0	0	0	0	0
OTU 56	0	0	1	0	7	1	0	0	0	3	0	0	0	1	0	1	0	2	0	2	5	0	1	1	0	0	0	0	1	0	0	0	0	0	4	0	0	1	0	0	0	0	2	1	0	1	4	2	0	0
OTU 57	2	1	2	0	2	0	1	2	0	1	1	2	5	6	10	4	0	5	4	6	10	1	0	0	4	5	7	6	8	6	5	1	0	1	2	1	15	2	2	1	6	2	10	0	0	1	2	1	6	0
OTU 58	0	0	0	0	2	2	0	0	2	0	0	2	0	2	5	1	0	0	0	0	0	1	0	0	63	0	0	2	0	1	0	0	0	0	4	0	0	0	2	0	1	0	0	3	1	1	0	0	0	0
OTU 59	0	2	1	0	1	1	0	1	0	0	0	0	0	2	0	3	0	0	0	0	0	0	0	0	2	0	1	1	0	0	3	0	0	0	2	0	0	0	0	0	4	5	1	0	4	1	0	1	1	0
OTU 60	7	1	2	2	5	1	1	0	1	4	1	1	4	0	0	2	2	2	0	2	5	0	2	1	0	2	3	3	2	0	2	8	4	2	1	3	0	4	1	1	0	1	2	7	1	2	1	9	3	4
OTU 61	5	6	25	1	10	82	31	6	0	5	2	20	9	5	3	2	3	16	9	3	8	1	12	4	2	20	1	5	7	1	0	3	6	6	2	10	0	17	16	7	1	7	2	3	1	11	1	13	11	3
OTU 62	0	0	0	0	0	1	0	0	0	0	0	2	0	0	0	0	0	0	0	0	0	0	0	1	2	0	0	0	2	0	0	0	0	0	0	3	0	0	0	0	0	0	0	1	0	0	0	2	0	0
OTU 63	0	0	0	0	3	3	0	0	0	0	0	1	1	0	4	0	0	0	0	0	0	0	0	2	0	0	0	2	0	0	1	0	0	0	0	3	0	0	0	0	0	0	4	7	2	0	0	2	0	0
OTU 64	2	0	1	3	4	1	0	1	0	13	0	0	2	8	1	0	1	1	0	1	12	18	0	0	4	2	2	0	1	1	0	2	9	3	3	0	2	1	2	2	1	2	32	13	0	0	0	2	7	0
OTU 65	0	2	0	0	0	0	0	0	0	0	0	0	0	0	0	0	0	0	0	0	0	0	0	1	0	1	0	0	0	0	0	0	0	0	0	0	0	0	0	0	0	0	0	0	1	0	0	0	0	0
OTU 66	0	0	1	2	17	10	1	0	1	12	0	4	3	0	4	0	3	3	0	3	0	0	0	0	1	0	3	0	7	0	0	12	1	7	0	0	0	2	3	4	0	2	0	22	7	2	8	0	3	0
OTU 67	0	0	0	3	12	16	0	2	1	1	1	3	18	0	12	0	4	0	0	9	0	1	1	0	3	2	1	1	1	0	1	1	0	2	2	0	2	5	0	3	0	1	0	20	15	0	8	0	0	59
OTU 68	0	0	0	0	0	0	1	0	0	0	0	0	0	0	0	0	1	0	0	0	0	0	0	1	0	0	0	7	0	0	0	0	0	0	0	0	0	3	0	1	0	0	0	0	0	0	0	2	0	1
OTU 69	5	0	0	0	0	5	1	17	0	0	14	6	1	11	1	11	0	9	0	4	2	0	55	0	1	1	2	1	6	1	0	1	0	0	0	2	3	0	0	3	0	0	1	1	0	0	0	2	0	1
OTU 70	0	0	0	0	1	0	0	0	0	0	0	0	0	3	2	0	0	5	0	0	0	0	4	0	0	3	4	1	0	1	0	1	1	0	1	0	0	1	1	0	0	0	0	0	0	2	1	0	0	0
OTU 71	1	0	1	0	0	0	7	0	2	0	0	0	0	0	0	0	0	0	1	1	3	0	0	0	0	0	0	1	19	1	0	3	0	1	0	0	1	0	3	1	0	0	0	0	0	0	0	0	0	0
OTU 72	4	0	0	16	3	6	0	1	0	0	0	1	0	1	0	0	29	0	4	4	0	11	0	1	0	1	0	0	1	2	0	1	3	0	48	0	0	0	0	6	0	1	0	11	2	0	1	1	1	0
OTU 73	49	2	0	1	0	2	0	1	1	0	0	9	1	0	0	2	5	1	0	0	3	1	5	0	0	1	0	1	0	1	1	0	0	1	0	0	3	0	0	0	2	0	0	2	0	1	1	0	0	0
OTU 74	0	1	7	1	1	1	17	0	0	0	2	0	4	1	1	0	2	6	1	8	2	0	0	6	18	1	2	11	0	16	6	3	1	1	0	8	0	0	0	2	1	4	7	0	2	0	2	10	3	4
OTU 75	12	0	1	0	0	2	0	0	2	6	0	1	1	14	0	1	1	0	0	0	3	0	0	0	0	2	3	0	0	2	0	3	0	0	1	6	1	0	0	1	1	0	1	3	0	0	0	1	0	1
OTU 76	0	0	5	0	0	0	2	0	0	5	1	12	0	0	2	1	1	0	0	0	7	0	0	0	0	0	3	0	0	0	0	0	3	0	3	0	4	0	0	16	1	0	0	0	0	0	0	0	0	0
OTU 77	0	0	0	0	0	1	2	1	2	2	2	3	0	0	2	1	0	3	0	0	3	0	0	0	0	0	1	17	0	3	0	2	0	0	0	1	0	0	0	3	2	4	1	2	7	1	4	1	6	3
OTU 78	5	0	3	1	19	8	3	2	3	1	2	0	0	0	0	0	1	5	0	0	9	0	1	1	0	4	1	0	0	1	0	0	0	0	4	2	0	0	6	1	0	0	0	18	8	0	2	7	6	5
OTU 79	9	2	19	1	6	2	8	3	4	7	0	10	13	14	16	4	4	84	13	5	11	5	6	6	5	47	13	7	12	37	1	6	9	1	2	7	8	3	6	6	4	9	5	2	4	5	8	11	2	2
OTU 80	3	0	0	0	1	1	4	0	0	0	0	5	0	25	24	0	0	0	0	0	3	0	1	1	0	1	14	3	6	1	1	0	6	2	8	2	15	1	0	0	4	0	2	9	0	0	2	1	0	8
OTU 81	4	3	0	2	1	1	1	0	3	2	0	3	2	2	2	11	5	1	14	1	0	2	0	2	1	0	10	2	4	1	3	8	0	7	1	3	0	1	0	4	1	3	1	1	0	1	0	4	6	2
OTU 82	0	0	5	0	2	0	0	0	0	2	3	0	3	8	0	6	3	0	5	0	7	0	1	0	1	0	1	0	0	0	0	1	0	0	1	0	6	7	2	1	4	0	0	0	0	0	0	0	0	31
OTU 83	0	0	0	1	0	0	0	1	0	0	0	0	0	1	2	2	0	0	0	0	1	2	0	0	0	0	2	0	0	0	1	0	0	0	0	0	0	0	0	0	0	0	0	0	0	0	0	0	0	0
OTU 84	0	0	0	1	0	1	1	0	3	0	0	2	0	0	3	0	2	0	0	8	0	0	0	3	0	0	0	0	0	0	1	1	3	2	0	0	0	2	0	0	0	0	0	1	0	1	1	0	1	0
OTU 85	0	0	0	0	0	0	0	0	0	0	0	1	0	0	0	0	0	0	4	0	0	0	0	0	0	2	1	0	0	0	0	3	0	0	0	0	1	0	0	0	0	5	1	0	0	1	0	0	5	0
OTU 86	0	0	0	0	0	0	0	0	0	0	0	0	0	0	0	0	0	0	0	1	0	0	0	0	0	0	0	0	0	0	11	0	0	0	0	0	0	0	0	0	3	0	1	0	0	0	0	0	0	0
OTU 87	0	0	3	0	4	3	0	0	0	1	0	0	0	1	2	5	0	0	29	0	0	0	0	0	0	0	0	0	3	0	1	0	0	0	3	0	0	0	0	0	0	0	4	12	0	0	1	0	0	0
OTU 88	0	0	0	1	0	0	1	0	0	0	1	0	0	1	0	0	0	0	0	0	0	1	0	0	0	0	1	3	0	0	6	0	0	0	0	0	0	0	1	0	1	0	0	0	1	0	0	0	1	0
OTU 89	0	0	0	0	0	0	0	1	0	17	1	0	0	2	0	0	0	1	0	0	0	0	0	0	0	0	0	0	0	0	0	9	0	0	0	0	0	0	2	0	0	1	0	0	0	0	0	0	0	0
OTU 90	0	0	0	3	1	0	1	0	0	0	0	1	0	0	0	0	0	0	0	1	0	1	0	0	0	0	0	2	1	0	0	0	0	0	0	0	0	19	0	2	0	1	0	0	0	0	0	0	0	0
OTU 91	0	0	2	0	0	0	0	0	0	0	0	0	0	0	0	0	0	0	0	0	0	0	0	0	0	0	0	0	1	0	1	0	0	0	0	0	0	0	0	0	0	0	0	0	0	1	0	0	0	0
OTU 92	0	0	0	0	3	0	0	0	0	0	0	5	0	0	1	1	0	0	0	0	0	0	0	0	0	0	0	1	0	3	2	0	0	0	0	0	0	0	0	0	1	0	0	0	0	0	0	0	0	0
OTU 93	0	0	0	0	0	0	0	0	0	0	0	0	0	2	0	0	0	0	0	0	0	0	0	0	0	0	0	0	2	0	0	0	0	0	0	0	0	0	0	0	0	153	0	0	0	0	0	0	0	0
OTU 94	0	0	5	41	3	4	20	0	5	3	0	0	1	1	2	12	50	2	0	0	0	32	0	0	4	0	7	1	8	37	8	1	0	0	3	0	2	2	0	3	0	3	7	8	3	1	18	0	0	2
OTU 95	0	5	0	0	0	1	0	0	0	0	0	0	1	0	0	3	0	0	0	0	0	0	0	0	0	1	2	0	0	0	2	0	0	0	2	0	2	2	0	0	0	0	0	0	0	1	0	0	0	0
OTU 96	0	0	0	0	0	0	0	0	0	0	0	0	0	0	0	0	0	0	0	0	0	0	0	1	0	0	0	0	0	0	0	0	0	0	2	1	0	1	0	0	0	0	0	0	0	0	0	0	0	0
OTU 97	0	0	0	1	0	0	0	0	0	0	0	2	0	0	0	0	0	0	0	0	0	1	0	0	0	0	0	0	0	0	0	0	0	0	0	0	0	0	0	0	0	0	0	0	0	0	0	0	0	1
OTU 98	3	0	0	0	1	0	0	0	0	2	0	0	4	0	0	1	1	0	0	0	3	2	0	0	0	0	0	1	4	0	3	1	0	0	0	0	0	0	0	0	0	0	0	0	0	0	0	0	0	0
OTU 99	9	1	1	0	0	1	0	0	3	12	0	14	1	6	2	0	2	1	0	1	12	0	1	0	1	1	2	1	3	1	2	0	2	1	0	2	29	7	2	34	7	0	0	3	5	5	1	4	0	2
OTU 100	3	0	0	0	1	2	2	1	3	0	1	1	0	1	3	9	0	4	0	0	0	0	0	0	2	0	1	0	2	0	2	1	6	1	0	0	55	1	3	0	8	0	1	0	0	0	0	0	0	0
OTU 101	1	0	0	0	0	0	0	0	2	0	0	0	0	0	0	0	0	0	0	5	1	0	0	0	0	0	0	0	0	1	0	0	0	0	0	0	0	0	0	0	0	0	0	0	0	0	0	0	0	0
OTU 102	3	0	0	0	0	0	0	0	0	0	0	0	1	0	4	1	0	0	1	0	1	0	0	0	0	0	0	0	0	0	0	0	0	0	0	0	0	0	0	0	0	0	0	0	0	0	0	3	0	0
OTU 103	1	0	2	0	0	4	0	0	1	0	0	0	0	0	3	1	0	1	1	4	5	0	0	0	0	0	6	0	0	0	1	0	0	0	0	0	0	1	0	1	17	0	5	1	0	0	2	1	0	0
OTU 104	3	0	1	0	3	0	3	1	9	9	0	4	1	2	2	0	0	1	1	1	2	0	0	0	0	1	0	2	3	2	0	4	1	0	3	0	0	0	5	2	0	0	7	0	0	2	1	3	2	2
OTU 105	1	1	0	0	0	0	0	0	3	0	0	0	0	0	0	1	0	0	0	0	0	0	0	0	2	0	0	0	0	0	3	1	0	0	0	0	0	0	0	0	1	0	0	0	0	4	0	0	0	0
OTU 106	0	0	0	0	0	0	0	0	0	3	0	1	0	1	0	0	0	0	0	0	0	0	1	0	0	0	0	0	0	0	0	2	0	0	0	0	0	0	0	0	0	0	0	0	0	0	1	1	0	0
OTU 107	0	0	0	0	0	0	0	0	1	0	0	3	1	2	0	0	0	0	0	0	0	0	1	4	3	0	0	2	0	0	0	0	0	0	0	15	2	0	4	0	1	0	0	0	0	0	0	17	0	0
OTU 108	0	1	3	0	0	0	5	0	0	6	0	0	1	0	0	1	0	4	0	0	5	0	2	0	2	1	0	0	0	0	4	0	0	0	1	0	1	0	0	0	2	0	0	3	1	2	2	0	0	0
OTU 109	0	0	0	0	0	0	0	0	0	0	0	0	0	0	0	0	0	0	0	0	0	0	1	0	0	0	0	0	0	0	0	0	0	0	0	0	0	0	0	0	0	0	0	0	0	0	0	0	0	0
OTU 110	0	1	6	0	1	2	2	1	0	0	1	13	0	0	6	1	1	0	1	1	0	1	1	0	2	0	11	0	0	6	2	0	2	0	0	0	1	0	0	3	1	1	0	3	57	0	32	1	0	0
OTU 111	0	0	0	1	0	0	0	0	0	0	0	0	0	0	0	0	0	0	0	0	0	0	0	0	1	0	0	1	0	0	0	0	0	0	0	0	0	0	0	0	0	2	0	0	0	0	0	0	10	0
OTU 112	0	0	1	1	7	1	2	0	3	0	0	0	3	6	1	5	1	0	3	0	1	0	5	0	0	0	1	1	0	3	0	0	0	0	0	0	0	0	4	0	0	0	0	1	2	0	0	0	0	0
OTU 113	0	0	0	0	0	0	0	0	0	0	0	0	0	0	0	3	0	0	0	0	0	0	1	0	0	0	0	1	0	0	0	0	0	0	0	0	0	0	0	0	0	0	0	0	0	0	0	0	0	0
OTU 114	0	6	4	3	3	4	1	1	2	2	1	0	2	0	0	9	1	0	1	6	6	1	1	2	1	9	1	7	2	0	1	2	0	3	2	1	1	8	5	2	0	0	4	4	20	4	12	4	5	4
OTU 115	2	1	6	2	2	0	6	1	3	9	0	0	4	8	2	14	0	1	2	8	3	1	0	2	2	0	0	5	0	6	4	6	3	1	0	2	3	1	2	11	41	1	1	4	0	2	7	11	1	1
OTU 116	0	14	0	16	0	0	1	10	6	2	3	1	29	3	0	0	21	2	10	0	5	16	15	1	1	0	0	0	3	1	0	2	0	2	24	3	3	11	44	1	0	0	0	4	1	28	2	6	0	1
OTU 117	6	1	0	0	0	0	0	0	0	1	0	1	0	0	0	0	0	3	1	3	0	0	0	0	1	1	1	0	1	5	0	0	12	2	0	0	0	4	0	0	0	0	1	4	4	5	0	1	2	6
OTU 118	0	0	0	0	0	0	0	0	0	0	0	4	0	0	0	0	1	0	0	0	0	0	0	0	0	0	0	0	11	0	5	0	0	0	0	0	0	0	0	0	0	0	0	0	0	0	0	0	0	0
OTU 119	0	1	2	0	7	2	4	1	5	0	0	1	1	2	3	0	0	13	40	0	0	0	3	0	3	3	3	7	0	1	7	1	2	0	0	0	6	0	2	6	0	0	3	2	1	0	2	1	0	3
OTU 120	0	0	4	0	0	0	3	0	0	0	0	0	0	0	0	1	0	2	2	0	0	0	0	1	0	0	0	1	1	0	1	1	0	0	0	0	0	0	1	0	1	0	0	0	0	0	2	0	1	1
OTU 121	0	1	0	0	0	54	0	0	0	0	0	1	0	0	11	1	0	0	0	0	6	0	0	0	1	0	2	1	8	1	0	0	1	0	1	0	1	2	0	0	0	0	0	7	0	0	2	0	0	2
OTU 122	7	1	0	75	0	0	0	0	31	0	0	0	2	0	12	3	1	0	2	6	8	3	1	0	2	3	10	0	1	0	5	0	3	0	0	0	0	0	2	4	0	0	0	2	4	1	0	0	1	0
OTU 123	5	2	4	2	0	1	8	0	10	1	1	1	11	8	14	7	2	5	6	4	11	1	4	1	8	0	0	8	4	9	4	2	9	0	15	0	2	4	9	3	0	43	1	5	5	4	8	1	93	1
OTU 124	0	0	0	0	0	0	0	0	1	0	0	1	0	3	0	3	0	0	0	0	0	0	0	0	0	0	0	0	0	0	0	0	0	1	0	0	0	1	3	0	0	0	0	0	0	0	0	0	0	1
OTU 125	3	2	21	3	3	1	21	9	6	2	3	13	5	5	3	4	4	16	6	2	10	3	4	2	13	3	4	4	7	7	2	6	3	2	2	3	0	5	13	4	96	1	9	7	1	8	3	8	3	4
OTU 126	0	0	0	0	0	0	0	0	0	0	0	0	0	0	0	0	3	1	0	0	0	1	3	0	0	0	0	0	0	1	0	3	0	0	0	0	0	0	0	2	0	0	1	0	0	0	0	0	0	0
OTU 127	1	0	0	0	4	1	2	0	0	0	0	1	0	2	5	2	0	0	0	2	0	0	0	2	0	0	9	7	2	6	1	0	0	0	1	4	1	0	0	0	0	3	0	1	1	0	0	15	6	0
OTU 128	3	14	5	2	34	6	6	3	4	31	0	60	6	16	1	4	4	6	1	4	12	67	3	4	26	3	0	13	2	7	28	0	23	2	1	4	2	7	5	6	1	1	29	11	3	7	2	7	2	9
OTU 129	0	0	0	0	0	0	0	0	0	0	0	0	1	0	0	0	0	2	0	0	0	0	0	0	0	0	0	0	0	0	2	1	0	0	14	0	0	0	1	10	0	1	0	0	0	0	0	0	2	0
OTU 130	0	0	40	0	1	0	4	1	0	1	0	0	2	2	6	0	1	0	0	0	4	1	1	0	0	1	0	0	0	0	0	0	0	0	1	1	0	0	2	0	0	0	2	2	3	0	2	4	0	2
OTU 131	0	0	1	0	1	0	0	1	0	0	1	1	0	5	1	0	0	1	4	6	0	0	1	0	1	0	0	4	1	0	51	2	0	0	0	0	0	0	3	1	0	1	40	1	1	3	0	0	8	1
OTU 132	0	0	5	0	0	0	0	0	0	0	0	0	0	3	0	0	0	4	0	0	0	0	2	0	0	0	0	60	0	0	0	0	0	0	1	0	1	1	0	0	0	0	0	1	2	1	0	0	0	0
OTU 133	5	1	0	0	0	0	0	0	0	0	0	0	1	0	0	0	0	0	0	0	0	0	0	0	0	10	0	0	0	0	0	1	0	2	0	0	3	0	0	0	4	0	0	0	0	2	0	0	0	0
OTU 134	1	0	0	1	3	1	1	0	1	0	0	1	4	15	4	0	3	3	1	0	3	1	0	0	0	0	0	1	1	0	1	0	0	0	0	0	0	0	1	1	0	1	0	6	4	0	0	1	6	1
OTU 135	1	0	0	0	6	0	1	0	0	4	1	2	7	0	0	0	5	1	1	2	0	1	3	0	0	0	0	2	0	0	1	0	1	0	1	4	1	0	12	4	1	0	0	2	0	0	0	5	0	12
OTU 136	0	0	1	0	0	0	0	0	1	0	0	2	4	0	0	0	0	0	7	12	0	0	1	4	0	0	0	7	0	0	0	1	9	0	0	1	1	0	0	0	0	2	0	0	0	0	1	5	1	8
OTU 137	1	0	2	0	0	0	0	0	0	0	0	0	1	4	0	0	0	0	0	0	3	0	0	0	0	0	0	1	0	0	0	3	0	1	3	0	0	0	0	0	0	0	0	0	0	0	0	0	0	0
OTU 138	0	0	0	0	2	1	0	0	0	0	1	0	0	0	0	3	0	0	1	0	2	0	0	0	1	0	0	0	0	1	0	1	0	0	0	0	0	0	0	0	0	0	0	2	4	2	0	1	0	1
OTU 139	1	5	8	1	9	0	4	0	1	1	88	1	1	2	4	0	2	1	0	4	4	0	1	1	1	4	88	7	4	1	1	3	3	1	2	4	0	2	5	89	0	1	1	0	1	20	0	2	0	1
OTU 140	6	0	1	5	6	35	4	2	3	6	2	2	2	5	2	3	3	10	3	0	3	2	2	5	2	5	2	2	3	2	8	25	6	13	0	9	6	2	3	1	0	0	0	2	3	0	2	19	3	1
OTU 141	0	0	0	0	0	0	0	0	0	0	0	0	0	0	1	0	0	0	0	0	0	0	0	0	0	0	0	0	0	0	0	0	0	0	0	0	0	0	0	1	0	0	0	0	0	0	0	0	0	0
OTU 142	0	1	0	0	0	0	0	2	0	0	0	0	0	0	0	0	0	0	0	0	1	0	0	0	0	0	0	0	0	0	0	0	0	0	0	0	0	0	0	0	0	0	0	0	0	0	0	0	0	0
OTU 143	0	0	0	0	1	0	1	1	0	1	0	3	1	0	0	1	0	0	0	0	0	0	0	0	0	0	0	0	0	2	0	3	0	0	0	1	0	0	0	0	0	1	0	0	0	0	0	0	0	0
OTU 144	0	0	0	0	0	0	0	0	0	2	0	0	0	0	0	1	0	0	8	0	0	0	0	0	0	0	0	0	1	0	0	0	0	0	0	1	4	0	0	0	0	0	1	0	0	0	0	3	0	0
OTU 145	2	4	2	9	2	3	4	3	6	0	0	3	12	4	1	0	7	33	2	0	1	10	6	0	4	6	1	1	12	4	1	2	0	0	3	0	1	3	22	4	59	0	0	3	2	3	1	1	0	2
OTU 146	1	0	0	1	0	0	1	1	2	7	0	2	0	2	0	1	3	1	1	0	0	2	1	0	5	0	1	7	8	0	5	0	0	0	3	0	0	1	4	2	1	0	4	0	0	0	0	0	0	0
OTU 147	1	1	0	0	0	0	0	0	0	0	0	1	0	1	1	1	0	0	0	0	0	0	0	2	0	5	1	5	0	3	0	0	0	0	0	3	0	0	0	0	1	0	0	2	2	0	0	10	0	0
OTU 148	0	33	0	0	0	0	0	0	0	1	0	0	0	1	1	1	0	2	2	0	4	0	1	3	1	1	0	0	1	0	4	3	3	3	2	1	7	42	0	1	1	2	0	0	0	48	0	0	5	2
OTU 149	2	0	0	0	2	0	1	1	6	0	0	0	1	6	0	0	0	0	1	0	0	0	0	0	0	0	0	0	1	0	0	2	0	0	0	0	1	0	0	0	0	1	1	0	1	0	0	0	2	0
OTU 150	0	0	2	0	0	0	2	0	0	5	0	0	0	0	0	0	0	0	0	0	1	0	0	0	0	0	0	0	0	0	0	0	0	0	0	0	1	0	0	0	0	0	1	0	0	0	0	0	0	1
OTU 151	0	2	0	104	0	0	2	0	0	1	0	1	0	0	0	3	0	1	2	0	2	1	0	0	0	0	0	10	0	2	0	0	0	0	2	0	0	0	0	0	0	2	4	0	0	2	0	2	5	0
OTU 152	0	2	1	1	28	1	1	0	2	0	0	0	0	0	0	1	2	3	1	3	2	1	3	0	12	1	0	0	1	7	9	4	1	4	0	0	0	29	3	1	0	0	0	0	1	9	0	0	1	3
OTU 153	0	0	0	0	0	0	0	0	0	0	0	0	0	0	0	0	0	0	0	0	0	0	0	0	0	0	0	0	0	0	0	0	0	0	0	0	0	0	1	0	0	0	0	0	0	0	0	0	0	0
OTU 154	0	0	0	0	0	0	2	0	0	0	0	0	0	0	0	0	0	4	0	0	0	0	0	0	0	3	0	0	0	0	0	0	2	1	0	0	0	0	0	1	0	1	0	0	0	2	0	0	0	0
OTU 155	0	2	0	1	0	0	0	0	2	0	0	0	0	2	0	0	0	1	6	0	0	0	0	0	6	0	0	2	0	0	0	0	0	0	1	1	1	3	0	0	0	2	0	0	0	2	0	0	2	0
OTU 156	1	0	1	0	1	1	3	1	21	5	0	3	2	29	1	48	0	1	0	0	4	0	0	0	0	1	1	0	3	2	5	5	0	0	3	0	0	3	6	2	1	1	8	6	0	2	1	1	0	0
OTU 157	4	0	0	0	0	1	0	1	0	22	0	0	0	11	2	0	0	1	1	7	0	4	0	0	0	0	0	0	0	0	0	0	1	0	2	0	0	0	0	1	0	0	0	0	2	0	0	0	1	0
OTU 158	0	0	0	0	0	4	0	0	0	0	0	0	0	0	0	1	0	3	0	1	0	0	0	0	0	0	2	0	0	0	2	0	0	0	0	0	0	0	0	0	0	0	1	0	0	0	0	0	0	0
OTU 159	0	0	0	0	0	3	0	0	0	2	2	1	0	4	0	1	0	4	0	1	1	0	2	0	1	0	1	9	1	5	4	0	1	0	0	0	3	0	5	1	0	0	0	4	0	0	0	0	0	0
OTU 160	1	3	1	2	7	5	73	7	2	14	6	1	2	2	1	9	1	6	2	10	0	0	3	0	2	4	0	1	6	3	7	2	1	13	2	0	0	4	3	4	5	3	3	6	2	9	4	1	7	1
OTU 161	0	0	0	0	0	9	3	2	1	3	2	0	1	0	7	0	1	0	0	33	13	0	0	0	0	1	15	0	0	1	1	46	6	14	0	0	1	4	2	9	0	1	5	5	5	1	1	0	1	13
OTU 162	1	0	7	0	0	0	2	1	6	0	0	1	3	0	0	0	1	5	7	1	2	0	1	0	1	7	11	0	1	0	1	3	4	2	7	0	2	0	1	2	0	0	0	2	0	4	0	0	4	2
OTU 163	0	0	0	0	0	0	0	0	0	0	0	0	0	0	0	0	0	0	7	0	2	0	0	0	0	0	0	0	0	0	0	0	0	0	0	0	0	0	0	0	0	0	0	0	0	0	0	0	0	0
OTU 164	0	0	0	0	0	0	0	0	0	0	0	0	0	0	0	0	0	0	0	0	0	0	0	0	0	0	0	0	10	0	0	0	0	0	0	0	0	0	0	0	0	0	0	0	0	0	0	0	0	0
OTU 165	3	0	0	0	7	2	0	0	0	0	0	0	0	0	0	0	1	0	0	3	3	0	0	0	0	1	0	0	0	0	0	3	3	2	0	0	0	1	3	0	0	0	0	5	0	0	0	1	0	6
OTU 166	0	0	0	0	0	0	0	0	0	0	0	0	0	0	0	0	0	0	0	0	0	0	0	0	0	0	0	0	2	0	0	4	1	2	0	0	0	0	0	0	0	0	0	0	0	0	0	0	0	0
OTU 167	0	1	1	0	1	0	1	0	1	0	0	0	2	4	6	0	0	0	0	0	7	0	2	0	0	31	0	1	1	0	0	0	0	0	0	0	1	0	2	3	0	0	0	0	4	6	0	0	0	0
OTU 168	0	130	2	1	0	2	5	0	1	0	0	0	0	0	0	9	0	0	0	0	0	1	0	1	2	0	1	3	1	0	1	4	0	0	2	6	0	0	1	0	0	1	0	4	1	1	0	8	8	0
OTU 169	1	0	0	0	0	0	0	1	0	0	0	1	0	0	0	0	0	0	0	0	0	0	0	0	0	0	0	0	0	0	1	0	0	0	0	0	0	0	0	0	0	0	0	0	0	0	0	0	0	0
OTU 170	0	0	0	0	0	0	0	0	0	0	0	0	0	0	2	0	0	0	0	0	0	0	0	0	0	0	0	0	0	0	0	0	0	3	0	0	0	0	0	0	0	0	0	0	0	0	0	0	0	0
OTU 171	0	0	0	0	14	14	0	1	0	0	0	0	0	0	2	2	1	5	3	14	1	0	0	0	0	0	2	0	9	0	0	1	2	0	0	1	0	1	0	0	0	1	2	39	20	0	12	1	1	15
OTU 172	0	0	0	0	0	0	0	0	0	0	0	0	0	0	1	6	0	0	0	0	0	0	0	0	0	0	0	0	1	0	3	5	0	0	0	1	0	0	0	0	0	0	0	0	0	0	0	1	0	0
OTU 173	0	0	0	2	0	0	0	0	3	0	0	0	0	3	1	0	5	0	0	0	1	1	1	0	1	3	0	2	3	0	0	1	0	0	0	0	0	0	4	0	0	0	0	0	0	0	0	0	0	0
OTU 174	0	0	0	0	0	0	6	0	0	13	0	0	1	0	1	0	2	2	1	0	4	1	1	3	0	0	0	0	0	1	0	4	1	3	0	1	3	0	0	0	0	8	0	0	0	0	0	5	0	1
OTU 175	2	0	4	1	0	0	0	0	1	0	0	2	1	0	0	1	0	0	0	0	0	2	0	3	0	0	0	2	0	1	0	0	2	0	1	4	0	0	0	0	0	0	0	0	0	1	1	8	0	2
OTU 176	6	17	30	3	2	0	3	59	1	1	29	3	6	0	5	2	3	1	6	4	3	0	136	3	0	3	5	0	1	1	1	2	4	2	6	3	0	0	5	0	0	2	4	1	0	15	2	3	6	7
OTU 177	1	1	0	0	3	1	0	0	4	2	0	2	0	1	0	0	4	1	4	2	10	2	2	0	0	0	0	0	1	1	10	0	54	0	1	1	0	2	4	4	0	1	2	1	61	1	33	3	0	0
OTU 178	1	1	0	0	0	0	2	0	0	2	0	0	0	1	0	6	0	0	0	5	0	0	4	0	1	1	3	0	0	0	0	0	0	0	0	0	8	0	1	7	13	0	0	0	0	1	0	0	0	0
OTU 179	4	0	0	0	0	0	0	0	0	0	0	1	0	2	2	1	0	1	2	0	0	0	0	12	3	0	0	0	8	0	2	1	0	0	1	16	2	0	0	0	0	3	1	0	0	0	0	2	6	0
OTU 180	3	6	3	1	0	1	5	1	2	9	2	4	0	2	1	4	3	3	6	5	5	58	1	1	3	106	7	3	3	2	11	0	1	3	3	0	2	2	7	0	0	0	3	4	4	5	2	3	0	5
OTU 181	0	1	1	0	0	0	0	0	1	1	0	0	105	4	0	2	2	1	0	4	1	0	0	3	1	0	2	0	0	0	4	1	0	2	0	0	0	0	1	1	3	0	0	3	4	1	2	0	0	2
OTU 182	0	0	2	0	0	0	0	0	0	0	0	0	0	0	0	0	0	0	0	1	0	0	0	0	0	0	0	0	0	0	0	0	0	0	2	1	0	0	0	0	0	0	0	0	0	0	0	0	0	0
OTU 183	0	0	0	3	1	0	0	0	0	0	0	3	1	0	0	0	1	0	0	3	2	1	3	0	5	0	2	0	0	0	29	0	0	0	2	0	2	0	3	0	2	0	23	1	0	0	0	0	0	1
OTU 184	0	1	1	0	0	1	0	0	0	0	0	6	2	0	6	0	0	0	0	1	0	1	6	0	0	0	1	0	0	0	0	4	0	4	1	0	0	0	5	0	0	0	0	2	0	0	0	0	0	0
OTU 185	1	0	1	0	7	1	0	1	0	0	0	0	0	0	8	2	0	1	6	0	3	0	0	0	1	1	6	3	0	0	1	5	1	4	1	0	0	0	1	3	0	0	0	3	4	0	0	0	0	0
OTU 186	5	1	0	0	0	0	0	0	0	0	0	0	0	0	0	0	0	0	1	0	0	0	0	0	0	0	0	1	0	1	1	0	0	0	0	0	0	0	0	1	0	0	2	1	0	2	0	0	0	0
OTU 187	9	1	0	18	3	2	1	0	1	3	0	13	1	0	4	0	47	0	11	1	0	26	1	1	5	4	8	0	1	1	0	5	1	2	0	1	4	0	1	0	0	16	0	0	0	3	0	4	26	1
OTU 188	1	2	0	2	10	4	3	6	6	0	3	18	0	1	9	4	2	7	1	4	0	3	2	1	0	5	5	19	0	0	3	0	3	0	1	3	0	3	5	4	0	7	1	4	0	2	0	12	3	5
OTU 189	20	0	0	0	0	0	1	2	33	3	2	1	1	3	3	8	0	1	5	3	2	0	0	3	6	1	0	3	0	0	0	2	0	1	0	0	2	0	0	2	0	1	4	1	0	0	3	0	0	9
OTU 190	0	0	0	0	0	0	0	0	0	3	0	0	0	0	0	0	0	1	3	0	1	0	0	0	0	3	0	0	0	0	0	0	0	0	0	0	0	0	0	1	0	0	0	0	0	0	0	0	0	0
OTU 191	3	1	0	7	0	0	2	0	1	39	0	1	0	6	0	5	17	1	1	0	0	42	1	0	3	1	4	0	9	6	0	0	1	1	2	1	56	1	0	0	18	0	1	0	1	0	0	1	6	0
OTU 192	2	7	17	0	1	8	6	0	0	3	0	4	0	0	3	7	0	1	3	3	0	0	0	0	1	1	8	3	0	2	4	4	2	0	1	5	0	33	0	2	0	1	1	8	3	40	0	10	4	6
OTU 193	1	1	2	0	1	0	0	0	4	1	1	0	0	1	0	1	0	0	2	0	8	0	0	1	4	0	0	0	8	5	0	0	0	0	1	1	0	0	0	0	0	4	0	0	23	0	6	1	1	2
OTU 194	8	0	38	0	1	0	0	0	0	0	0	0	0	1	0	3	0	0	1	0	0	0	0	0	2	0	2	4	0	11	0	0	0	0	0	0	0	3	1	4	0	0	0	0	0	0	0	0	1	2
OTU 195	0	0	0	0	0	0	0	0	0	1	0	5	0	2	22	0	4	0	0	2	3	0	0	0	0	0	6	0	9	5	2	1	0	0	0	0	0	0	1	0	1	3	0	1	2	0	0	0	0	0
OTU 196	1	0	0	0	0	0	0	0	7	1	0	0	0	0	1	0	1	1	0	0	4	0	0	0	1	1	2	0	1	1	3	3	0	0	0	1	0	0	0	0	0	0	4	1	0	0	0	0	1	0
OTU 197	2	0	1	0	2	0	2	0	0	1	0	10	0	3	2	6	0	0	3	3	2	0	2	0	37	3	2	3	4	4	8	4	4	3	0	1	16	0	0	0	1	0	2	3	1	1	5	1	1	68
OTU 198	0	0	0	0	0	0	0	0	0	0	0	0	0	0	2	0	1	1	0	0	1	0	0	0	7	0	0	3	1	0	3	0	0	0	0	0	0	0	0	0	0	1	0	0	0	0	0	0	0	0
OTU 199	0	2	1	1	0	0	1	0	0	1	0	0	1	1	0	0	3	0	0	1	1	1	4	0	0	0	0	3	0	1	1	4	0	1	0	0	0	64	6	0	0	0	0	0	0	0	0	1	1	0
OTU 200	4	0	0	0	0	0	0	2	1	0	1	2	0	0	0	0	2	0	2	0	1	0	0	0	1	2	0	1	1	0	0	1	6	2	0	0	3	1	0	4	1	2	1	1	1	1	0	0	7	1
