	Host 1	Host 2	Host 3	Host 4	Host 5	Host 6	Host 7	Host 8	Host 9	Host 10	Host 11	Host 12	Host 13	Host 14	Host 15	Host 16	Host 17	Host 18	Host 19	Host 20	Host 21	Host 22	Host 23	Host 24	Host 25	Host 26	Host 27	Host 28	Host 29	Host 30	Host 31	Host 32	Host 33	Host 34	Host 35	Host 36	Host 37	Host 38	Host 39	Host 40	Host 41	Host 42	Host 43	Host 44	Host 45	Host 46	Host 47	Host 48	Host 49	Host 50	
OTU 1	51	13	71	133	243	420	12	438	378	52	192	0	2	9	297	224	85	2	576	4	2	183	343	11	137	284	166	265	4	259	206	498	39	283	0	193	281	621	25	7	111	327	86	0	118	95	16	250	158	308
OTU 2	0	38	3	0	1	3	3	0	21	0	2	0	3	3	35	13	0	0	27	0	366	0	12	5	0	27	3	2	3	4	24	2	50	5	12	9	2	0	35	0	7	18	2	2	0	0	49	2	2	0
OTU 3	21	6	0	0	63	0	1	0	0	0	3	3	0	0	0	3	1	0	2	2	25	10	21	2	0	3	0	1	1	3	11	0	20	0	89	0	0	60	0	0	11	1	1	0	0	0	39	0	1	36
OTU 4	0	11	0	0	0	0	0	0	0	0	0	0	0	0	0	0	5	0	0	0	0	0	0	0	0	0	0	0	0	0	0	0	0	0	0	0	0	0	0	0	0	0	0	0	0	0	0	0	22	0
OTU 5	692	462	0	218	79	237	729	983	664	85	32	66	215	148	0	85	28	269	1170	110	320	398	299	75	373	79	1993	216	135	778	953	69	17	703	42	768	561	52	5	336	1	8	402	23	102	157	35	247	11	55
OTU 6	128	29	9	9	1	1821	36	2	0	10	27	9	39	24	0	19	4	27	35	2	36	0	0	1	0	6	3	0	8	1	617	1	61	9	11	49	51	31	2	5	4	1	8	62	1	0	1	1	5	8
OTU 7	101	34	68	29	61	61	23	51	350	18	648	62	78	115	102	15	73	35	32	132	51	56	48	20	12	6	66	31	301	35	19	69	142	113	173	503	134	22	44	165	19	48	18	22	51	31	38	115	51	22
OTU 8	1	162	112	2119	50	24	537	37	56	2	65	3	139	102	34	58	1	143	36	71	17	11	12	165	7	22	1	15	295	10	102	3	38	6	22	37	160	46	24	104	63	82	36	33	17	32	21	57	2	43
OTU 9	7	3	3	0	34	11	58	0	0	1	0	0	32	102	0	6	0	13	0	7	20	2	1	0	0	46	7	0	10	1	26	20	29	43	0	2	1	26	7	30	5	15	1	1	965	0	6	0	0	23
OTU 10	2	3	0	0	0	2	0	15	7	0	97	15	0	0	1	0	0	10	16	1	33	19	68	0	18	0	2	36	12	0	13	4	0	1	5	0	42	21	9	4	0	0	1	60	1	0	111	0	1	4
OTU 11	0	8	7	6	0	11	17	13	17	55	7	56	14	0	70	40	21	29	13	92	17	6	18	11	4	63	2	12	141	4	18	89	119	9	144	19	169	74	53	6	10	14	37	97	6	3	65	1	39	61
OTU 12	79	27	7	24	45	66	163	8	56	28	7	153	17	45	73	2	38	38	50	3	164	67	92	4	22	34	45	41	43	87	50	73	90	65	238	17	13	1	62	49	33	6	4	62	57	2	24	18	55	2
OTU 13	0	0	0	0	0	0	0	0	7	0	1	0	0	79	0	0	0	0	7	0	0	0	0	0	0	3	0	0	0	0	0	0	14	0	0	0	0	0	0	3	0	0	0	0	0	0	0	0	0	1
OTU 14	0	35	17	9	0	63	109	1	23	10	54	9	3	1	15	0	0	57	0	4	43	17	57	1	10	17	14	36	2	144	0	10	1	37	2	0	4	0	54	4	0	0	3	4	38	2	0	2	0	0
OTU 15	0	0	0	0	0	0	86	0	0	0	0	0	0	0	14	0	0	0	0	0	38	0	0	0	0	21	1	0	0	6	0	0	4	0	0	0	0	0	0	0	0	0	0	0	0	0	0	0	0	0
OTU 16	0	0	0	0	0	0	1	0	0	0	0	0	0	0	2	0	0	45	0	0	0	0	0	0	0	0	0	0	0	0	0	0	0	0	0	0	0	39	0	0	0	0	0	3	0	0	0	0	0	2
OTU 17	1	32	11	2	15	2	4	5	2	0	11	64	70	14	32	3	2	29	25	34	4	4	3	4	0	1	3	1	16	2	8	5	26	5	431	0	0	13	7	0	0	112	0	16	8	1	69	1	3	7
OTU 18	0	13	187	13	8	7	45	4	14	1	57	108	25	0	13	2	24	123	23	37	409	26	15	2406	1	31	19	0	60	65	21	10	84	28	40	15	11	3	3	181	46	60	5	26	22	0	13	0	35	6
OTU 19	0	0	0	0	0	0	0	0	5	0	0	0	0	0	2	0	0	0	0	0	0	0	0	0	0	0	0	0	0	0	0	0	0	0	0	0	0	0	0	0	0	0	0	3	0	0	0	0	0	0
OTU 20	7	66	2	5	19	0	195	52	38	1	211	47	69	12	8	13	4	8	2	1	11	8	0	18	30	8	0	22	224	20	10	2125	119	4	39	1	111	80	125	1	1	14	0	8	10	1	3	12	6	31
OTU 21	14	2	400	14	125	514	21	278	337	24	179	92	160	181	99	53	101	0	461	59	8	1529	454	220	79	100	99	116	25	202	8	426	98	254	11	196	16	195	9	36	112	138	9	47	42	83	10	152	204	89
OTU 22	0	69	52	32	1	48	48	78	18	26	106	8	90	6	58	40	4	14	1	2564	1	4	9	0	25	12	0	30	20	18	24	7	67	4	273	55	299	0	24	60	44	23	8	274	46	0	30	0	7	11
OTU 23	27	5	1	8	32	0	13	32	38	18	11	3	1	141	37	0	1	7	0	1	5	2	40	1	0	0	8	0	154	0	2	3	17	6	18	0	1	1	19	142	9	0	12	0	0	0	1	1	1	3
OTU 24	1	3	54	7	1	6	24	2	27	2	256	20	33	5	0	1	0	22	0	1	33	3	1	42	17	35	1	26	15	0	0	0	60	5	60	0	25	0	0	85	2	4	3	0	2	0	0	0	0	0
OTU 25	0	0	3	0	0	0	0	0	0	0	0	1	0	0	0	0	0	0	0	0	0	0	0	0	0	0	0	0	0	4	0	21	0	0	0	0	0	0	2	0	0	0	0	0	0	0	0	0	0	0
OTU 26	2	0	261	0	0	0	45	0	0	3	0	4	46	22	0	0	0	0	29	0	5	6	2	58	0	0	0	0	1	1	0	0	0	0	0	4	2	0	2	0	9	2	0	0	15	0	0	0	0	2
OTU 27	1	0	0	0	0	0	0	0	1	0	0	0	0	0	0	8	0	0	1	0	1	0	0	0	0	0	2	0	0	0	0	0	0	0	0	0	2	0	0	0	0	0	0	0	0	0	0	0	0	0
OTU 28	6	61	60	2	68	60	69	21	5	22	238	23	197	18	31	15	0	38	0	4	6	18	2	34	16	9	45	57	16	24	25	19	6	38	5	2	3	2	7	9	11	12	6	8	36	8	94	18	0	20
OTU 29	142	37	10	1887	221	594	63	466	604	176	36	4	27	3	267	257	150	71	877	14	16	121	335	18	144	52	145	228	55	140	204	528	115	175	57	189	0	400	80	83	349	118	107	3	123	42	5	89	320	214
OTU 30	5	0	0	0	0	0	31	0	0	0	0	0	0	0	0	0	0	0	0	0	0	0	0	0	0	0	0	0	0	8	0	1	0	0	0	9	0	0	0	0	0	0	0	1	0	0	0	0	0	4
OTU 31	1	0	36	5	0	0	27	5	3	1	0	0	0	34	0	0	2050	1	8	30	3	0	1	0	0	7	125	0	45	0	56	3	8	0	0	2	1	0	2	1	0	0	0	157	158	0	1	1	0	9
OTU 32	14	32	47	0	14	47	5	13	12	0	13	23	5	48	19	15	12	5	4	11	101	13	62	13	4	24	9	12	94	14	1975	1	6	37	26	35	31	4	35	54	14	37	0	44	44	4633	27	3943	31	24
OTU 33	0	0	0	0	0	0	0	0	0	0	12	0	0	3	0	4	0	0	0	0	0	0	7	0	0	0	0	0	7	0	0	0	0	0	0	0	0	0	18	0	2	0	0	0	0	0	0	0	0	0
OTU 34	51	134	45	6	50	9	6	2	12	0	1	46	252	135	4	259	20	2	67	197	134	8	3	0	29	21	0	62	7	59	16	86	100	5	44	73	730	10	24	106	88	31	66	28	0	6	15	4	43	13
OTU 35	0	6	9	0	3	2	237	5	56	13	142	73	2	76	57	30	3	1	7	14	1	0	15	0	0	0	3	10	68	0	3	0	53	8	71	17	2	56	174	5	29	4	8	4	11	2	43	6	5	2
OTU 36	8	10	45	7	7	19	0	60	9	18	6	8	20	0	13	0	1	5	59	5	6	16	0	12	0	28	15	1	48	4	40	0	28	15	13	119	30	3	157	58	45	6	9	488	1	1	135	3	1	0
OTU 37	2	14	42	1	0	0	0	2	0	0	0	0	1	190	0	0	0	31	0	160	25	0	0	7	0	40	0	0	0	13	1	0	0	0	3	0	5	0	4	24	0	0	2	0	1	0	0	0	0	0
OTU 38	19	118	25	1	37	0	40	10	5	11	14	11	25	22	23	0	20	9	13	133	0	13	1	9	0	26	0	1	9	15	27	16	2	2	37	661	66	10	45	86	6	10	3	2	33	1	13	0	44	11
OTU 39	1	21	7	4	0	0	0	1	0	10	6	0	19	0	61	3	0	0	3	24	2	0	0	5	0	0	11	0	20	10	4	2	1	16	16	21	0	3	72	0	3	0	8	29	0	1	7	7	0	0
OTU 40	14	7	62	0	25	14	0	0	15	2	42	43	10	6	1	39	23	20	11	30	190	15	17	56	4	5	0	14	24	5	1	62	106	8	5	2	9	69	15	67	49	0	72	118	3	16	53	43	56	16
OTU 41	1	74	2	3	6	5	0	49	113	12	8	22	8	53	14	19	10	26	97	48	78	0	0	1	1	45	2	23	66	23	9	28	2	5	200	23	46	49	46	26	0	1	5	8	1	0	34	1	24	29
OTU 42	0	1	2	35	59	0	0	9	14	50	5	57	43	24	29	0	17	0	0	16	3	1	7	0	0	9	3	0	3	55	0	0	5	7	7	0	0	0	2	0	3	51	0	13	80	0	37	0	41	0
OTU 43	0	0	0	0	0	0	0	0	0	0	0	1	0	0	0	0	0	0	0	0	41	0	1	0	0	0	0	0	0	0	0	0	0	0	0	0	0	0	0	0	0	0	0	0	0	0	0	0	0	0
OTU 44	0	0	2	0	0	0	6	0	21	0	59	0	19	0	26	13	0	19	3	46	1	0	4	7	5	32	1	0	19	4	0	2	0	7	0	0	0	0	5	30	0	0	0	19	0	0	0	8	0	14
OTU 45	3	95	33	17	4	9	0	10	61	6	103	33	20	134	3	103	41	5	158	32	3	386	1603	30	351	3	0	716	1	818	53	2	1	10	89	2	56	24	5	19	16	27	31	6	5	1	3	4	88	0
OTU 46	31	11	0	13	11	4	86	14	12	9	68	28	1	51	4	19	1	9	72	5	172	1	2	16	10	52	15	30	727	6	540	11	24	19	3	31	25	64	58	9	12	3	5	173	51	2	4	4	5	13
OTU 47	0	2	0	0	3	0	19	0	0	0	42	16	0	0	4	0	6	2	0	0	4	0	0	5	5	1	0	50	2	7	0	0	0	2	0	1	6	0	0	0	6	0	0	0	0	0	0	9	9	0
OTU 48	16	23	83	0	40	41	118	1	2	1	1	13	12	67	4	7	36	18	1	3	209	4	57	165	8	69	32	19	26	13	1	6	42	29	85	63	0	34	10	24	6	33	2	31	39	6	44	20	83	16
OTU 49	4	4	23	3	39	36	23	6	0	0	5	4	21	9	0	1	15	0	138	0	15	2	9	1	6	3	7	5	27	15	78	1	59	3	7	54	32	10	22	0	12	30	0	4	0	4	40	1	34	0
OTU 50	10	56	76	15	5	3	2	12	118	25	10	90	11	111	12	22	1	36	53	2	34	21	16	130	8	47	6	14	25	7	10	959	7	1	249	41	15	54	4	152	27	18	9	12	1	20	5	7	2	12
OTU 51	59	0	0	1	36	73	2	94	6	1	1	109	45	0	17	20	8	10	36	16	9	0	2	2	1	27	0	14	13	2	18	10	0	2	0	0	36	3	8	5	3	20	4	7	1	10	3	11	8	2
OTU 52	53	61	37	65	23	3	59	8	69	7	80	13	21	211	37	43	14	85	31	395	20	23	93	12	6	114	39	6	45	7	8	336	80	25	42	82	111	54	169	13	60	40	2	113	76	2	25	5	32	22
OTU 53	0	0	0	0	0	0	0	0	7	0	0	0	10	1	0	6	0	0	0	0	0	0	0	0	0	0	0	0	0	1	0	0	0	0	0	0	0	0	0	0	0	0	5	0	0	0	0	0	0	10
OTU 54	24	17	73	12	20	66	30	29	5	4	24	77	4	144	18	48	56	80	66	61	1037	214	396	8	154	2	1	330	83	339	47	2	146	1	0	24	57	10	115	7	51	1	86	33	14	1	12	18	108	7
OTU 55	0	0	0	0	0	0	0	0	0	1	0	0	0	0	0	0	0	0	0	0	0	0	0	0	0	0	0	0	0	0	0	0	0	0	0	0	0	0	0	0	0	0	0	0	0	0	0	0	0	0
OTU 56	17	0	6	0	0	2	0	0	19	0	0	68	14	0	0	1	11	0	0	9	16	3	29	0	0	32	19	3	10	0	2	1	2	27	11	1	6	0	9	2	12	0	2	0	17	2	0	4	24	2
OTU 57	68	454	8	5	60	9	34	149	47	22	18	30	11	328	75	65	29	256	203	166	24	49	68	19	35	18	41	76	118	47	85	27	70	64	82	125	57	17	42	894	6	107	6	81	1284	34	72	40	56	6
OTU 58	3	1	1	35	6	10	34	1	0	47	29	48	0	45	27	0	0	7	22	2	53	5	7	0	2	2	1	0	3	8	7	5	1	8	6	3	27	16	42	107	9	2	4	0	0	8	17	14	0	29
OTU 59	1	14	65	0	15	0	0	6	55	7	5	0	2	19	4	0	1	16	6	33	0	0	16	7	0	0	0	16	0	0	5	3	15	1	60	26	86	0	48	95	2	0	0	1	2	0	1	0	1	0
OTU 60	33	92	55	35	25	22	231	4	81	27	60	13	22	17	35	30	7	3	36	29	143	2277	48	12	62	37	7	94	67	6	8	8	14	12	5	11	98	15	11	65	107	16	34	56	56	16	88	16	14	40
OTU 61	318	129	59	30	33	39	20	195	95	20	45	34	104	17	34	379	9	100	633	10	239	0	11	61	30	148	2232	23	4	83	255	65	26	4251	4	5	49	99	27	388	21	21	217	187	604	934	70	1811	14	227
OTU 62	9	0	132	3	0	1	0	2	8	23	8	25	0	75	7	0	1	7	0	0	9	6	0	43	0	0	5	0	0	0	0	10	13	1	15	0	3	8	3	4	0	15	0	2	0	6	19	0	6	3
OTU 63	24	1	4	2	41	41	0	31	0	12	63	1	0	63	18	3	14	23	7	4	11	14	0	6	30	6	0	58	1	4	0	0	93	2	46	4	12	0	0	13	4	28	0	9	5	7	19	27	19	0
OTU 64	57	52	134	27	6	54	5	15	79	49	55	72	49	96	5	29	26	24	32	128	101	40	46	84	100	13	1	70	38	13	16	3	163	5	46	98	22	59	48	32	5	41	18	152	9	0	5	0	58	13
OTU 65	1	0	0	0	6	0	0	0	0	0	0	0	0	7	0	20	0	0	0	0	0	1	0	0	0	0	0	0	0	10	0	0	0	0	0	0	0	0	0	0	0	0	6	0	0	0	0	0	0	0
OTU 66	0	91	17	3	7	1	81	8	94	6	48	119	45	37	5	47	1	6	136	4	1	6	3	18	22	8	7	15	34	25	91	1244	10	0	191	73	27	8	0	11	2	3	35	30	13	9	17	11	1	0
OTU 67	0	24	17	3	955	37	16	28	13	4	1	66	1	0	2	1	2	31	4	0	0	2	31	0	1	5	35	1	189	10	29	2	103	40	7	6	5	26	0	0	0	0	1	29	44	0	31	0	4	1
OTU 68	0	0	2	0	1	3	1	5	0	2	0	3	29	13	0	20	5	0	0	12	6	0	8	1	0	27	2	0	0	3	0	8	0	9	8	0	62	1	29	25	15	1	0	4	0	3	26	15	13	0
OTU 69	5	0	24	4	97	12	19	76	6	6	47	89	19	22	19	50	7	2	59	27	11	9	0	309	6	4	15	18	34	1	3	7	18	5	13	37	2	19	11	27	7	3	1	61	105	6	4	6	14	2
OTU 70	1	10	1	14	3	23	28	7	0	16	76	55	84	2	38	0	7	0	0	4	0	0	6	1	4	3	26	12	1	0	39	0	6	75	28	0	0	0	3	53	0	10	0	35	9	0	6	4	17	8
OTU 71	79	0	3	2	2390	3	33	0	5	0	50	3	28	26	0	6	0	773	8	0	22	1	21	39	9	0	0	2	49	0	0	7	0	0	57	52	3	50	4	70	9	39	0	25	21	0	0	0	0	18
OTU 72	7	6	44	3	0	7	33	1	0	34	28	9	170	3	83	9	0	124	21	10	4	6	33	15	14	16	4	60	32	0	117	2	59	16	40	16	0	4	1	3	26	6	1	118	73	18	0	48	5	1
OTU 73	7	23	9	5	61	37	11	37	127	20	2	3	6	53	1	3	0	14	3	53	186	18	12	13	0	8	30	0	91	19	44	9	5	27	95	6	53	52	38	2	0	1	3	1	0	2	41	17	0	19
OTU 74	2	0	31	0	35	31	196	2	0	6	0	164	0	410	2	8	57	26	42	136	0	49	71	11	4	79	2	1	53	4	10	40	158	4	137	10	325	9	48	99	41	25	26	151	35	0	4	0	106	9
OTU 75	538	141	4	10	3	85	21	35	21	120	4	40	208	117	54	85	1	123	0	6	509	0	5	4	9	618	35	6	6	2	7	6	82	29	268	6	129	34	6	12	122	536	9	36	46	3	104	2	8	9
OTU 76	4	0	2	26	3	0	47	0	0	1	71	0	10	4	12	0	1	57	0	7	0	1	2	28	0	1	0	0	66	17	9	1	4	0	243	39	5	0	0	356	0	0	0	2	14	0	0	7	2	0
OTU 77	1	7	3	1	9	79	11	3	61	2	68	26	44	6	3	7	7	20	19	18	23	17	57	0	5	20	18	3	54	63	22	4	8	12	41	21	56	90	18	33	0	73	2	30	71	6	32	3	6	49
OTU 78	29	48	5	24	24	117	7	0	2537	82	1	0	8	77	121	3	20	0	0	3	11	18	12	13	0	131	512	8	46	0	30	0	81	1067	6	160	27	46	21	25	146	2	5	64	11	236	68	529	29	37
OTU 79	24	97	353	34	40	85	46	35	9	79	106	161	64	120	45	10	4	81	18	39	215	107	155	179	27	209	2	80	9	1351	86	103	184	26	218	128	179	81	80	148	20	17	6	133	7	8	155	20	8	1667
OTU 80	6	11	95	447	17	23	109	35	30	987	5	9	5	52	2086	4	4	74	91	140	33	20	1	48	10	10	88	9	1	31	37	21	8	70	17	191	33	6	11	37	24	21	3	40	7	4	60	5	18	3
OTU 81	430	111	158	3	18	30	364	12	118	54	46	37	15	1	35	496	5	25	20	17	67	5	26	133	31	9	9	35	21	12	35	22	16	0	6	81	50	46	138	28	27	11	369	81	1	21	39	44	16	54
OTU 82	8	98	2	9	0	0	96	2	3	93	0	193	14	25	37	15	2	0	3	0	29	0	1	46	15	23	3	6	38	26	0	3	61	7	75	10	1	7	0	117	11	3	14	0	6	0	10	0	3	1
OTU 83	0	8	17	9	0	0	0	0	12	36	1	27	3	0	59	3	0	0	6	54	46	0	7	0	0	32	0	0	1	1	2	2	13	0	0	1	6	72	0	0	42	12	0	96	0	0	1	1	0	34
OTU 84	7	2	182	3	22	4	221	27	7	40	33	6	0	0	25	37	7	11	8	0	2	8	8	24	4	2	60	6	94	1	1	1	21	29	232	5	6	0	64	16	49	29	6	50	0	33	6	51	18	0
OTU 85	17	7	14	46	1	19	21	10	0	43	9	14	21	6	44	0	3	40	37	22	33	45	74	0	0	16	2	9	3	0	4	17	0	0	0	1	0	44	9	58	1	0	0	0	0	6	12	34	7	80
OTU 86	0	0	0	4	0	0	0	2	38	0	0	0	0	0	1	0	0	0	0	0	0	0	0	0	0	1	0	0	7	0	0	0	0	3	0	0	0	67	0	0	0	0	0	58	2	0	15	0	1	6
OTU 87	0	3	0	0	3	3	0	0	2	0	57	0	93	142	2	2	8	1	0	21	0	0	0	0	0	0	0	2	0	0	19	0	50	1	2	4	0	0	0	68	8	0	0	1	0	10	0	20	16	0
OTU 88	2	39	0	0	2	0	0	0	0	0	0	8	35	8	0	93	0	15	0	0	0	2	0	1	12	0	0	14	47	5	0	0	0	0	0	7	15	22	0	1	0	0	53	0	0	0	0	0	0	0
OTU 89	14	0	0	0	4	0	93	2	4	0	0	0	0	40	16	4	1	0	8	115	4	0	1	2	11	2	3	5	44	1	8	3	1	2	0	0	0	19	0	61	0	0	20	0	422	6	5	8	4	16
OTU 90	0	0	9	16	4	26	25	0	0	0	0	0	12	44	0	0	0	8	0	15	28	0	0	0	0	0	0	0	13	1	18	1	2	0	40	0	34	4	0	0	0	5	0	23	3	11	0	13	0	1
OTU 91	0	0	0	0	0	54	1	19	0	0	0	0	0	0	0	0	0	5	0	0	0	0	0	0	2	0	0	1	0	1	0	0	142	0	25	0	1	0	0	0	0	0	0	0	10	9	0	8	0	0
OTU 92	6	0	0	0	0	1	1	0	0	30	0	0	24	6	33	0	0	0	4	15	0	5	22	0	0	5	4	0	27	6	25	0	0	1	31	0	123	49	8	0	18	3	0	0	28	0	38	0	3	33
OTU 93	0	0	0	5	0	25	57	0	11	6	0	0	0	7	0	18	0	0	0	0	0	2	0	0	2	0	0	23	0	2	4	0	0	0	2	78	0	0	2	0	0	1	0	22	0	0	2	0	0	0
OTU 94	8	47	202	62	121	339	68	107	166	105	18	8	145	1	224	22	63	23	93	27	8	60	168	110	22	252	46	58	4	79	71	149	369	142	78	141	152	187	263	116	161	139	2	98	51	40	11	62	113	84
OTU 95	2	11	0	1	13	4	13	10	0	0	11	14	2	0	1	0	0	3	0	21	9	16	4	13	4	24	1	2	0	6	13	39	70	0	0	0	0	0	0	0	1	10	0	0	0	5	0	4	0	5
OTU 96	28	0	0	0	0	0	2	0	0	0	0	0	0	0	0	0	0	0	0	0	0	0	0	0	0	0	0	0	0	0	0	0	1	0	0	0	0	0	0	0	0	14	0	77	0	0	0	0	0	0
OTU 97	0	0	9	0	0	0	0	1	0	0	0	0	0	0	3	0	0	1	0	0	4	0	1	0	18	2	0	24	3	0	1	1	7	1	0	1	0	0	0	0	0	0	0	22	0	2	0	6	0	0
OTU 98	0	1	6	36	16	1	0	6	1	2	0	0	414	27	0	21	54	20	1	2	0	10	0	11	0	11	0	0	11	5	19	24	2	0	0	31	427	7	10	0	1	0	23	48	2	0	0	2	94	20
OTU 99	1836	12	79	6	11	33	17	6	11	13	92	22	157	9	13	11	6	23	3	22	189	48	27	96	53	7	16	77	17	15	5	33	104	10	357	25	64	79	117	0	7	5	11	149	4	6	80	13	11	37
OTU 100	55	11	3	0	0	16	2	5	137	3	6	37	123	47	28	26	4	10	42	0	39	1	27	40	2	3	53	31	52	22	1	45	41	81	10	7	51	9	1	76	0	5	8	25	204	26	10	48	11	13
OTU 101	1	0	0	0	0	0	37	0	2	0	0	43	0	0	0	0	0	0	2	1	0	0	0	0	10	0	1	39	0	3	0	13	0	0	151	1	17	0	1	0	0	0	0	6	3	0	0	8	0	0
OTU 102	15	0	0	1	1	1	19	0	5	0	1	34	22	14	2	0	1	2	0	7	1	3	2	4	11	0	3	11	0	2	0	0	9	8	0	0	63	36	0	1	0	0	10	0	0	3	11	11	1	0
OTU 103	0	1	8	8	1	5	71	7	25	0	70	4	2	0	0	0	4	42	1	2	52	1	11	0	1	0	1	1	0	22	2	6	13	0	0	0	21	1	94	12	59	0	0	11	0	7	30	13	4	1
OTU 104	98	24	28	6	4	27	104	11	10	0	16	4	11	55	4	35	1	141	16	176	28	21	19	9	8	49	22	4	44	17	20	23	116	27	59	7	79	7	73	34	31	58	25	25	0	0	37	4	2	8
OTU 105	19	0	0	0	0	0	4	0	0	0	9	0	10	0	0	5	0	1	0	1	0	1	0	0	0	22	0	0	0	14	10	0	14	0	0	2	0	0	0	121	7	5	0	37	0	0	0	3	0	3
OTU 106	32	0	0	0	4	7	46	0	1	2	1	11	0	63	0	4	3	139	0	24	0	7	24	5	4	1	0	1	0	1	1	5	4	0	0	10	0	0	252	0	16	0	0	4	3	0	75	1	8	0
OTU 107	4	3297	14	0	0	43	0	3	1	0	4	3	0	51	3	12	0	11	2	0	0	0	2	4	1	1	0	0	0	4	15	1	5	0	7	0	12	21	1	154	5	9	15	0	0	0	11	0	0	14
OTU 108	0	54	78	18	13	106	5	22	0	12	0	26	12	32	87	0	0	5	4	44	8	17	7	40	0	32	5	0	81	5	2	0	22	14	0	2	7	56	0	12	5	0	4	18	7	0	5	0	1	7
OTU 109	0	0	0	0	0	4	0	0	0	0	0	0	0	3	0	0	0	0	0	0	5	0	0	0	0	0	0	0	0	0	0	0	0	0	4	0	0	0	0	0	0	0	0	0	0	0	0	0	0	0
OTU 110	8	90	15	1	111	13	52	3	27	1	3	13	6	11	8	6	33	23	7	10	16	10	0	14	8	1	5	9	5	2	190	20	22	0	0	26	35	30	88	160	44	51	1	14	22	1	33	10	73	19
OTU 111	3	2	0	0	0	1	0	0	0	4	0	0	6	0	0	1	0	8	0	0	0	3	0	0	1	3	4	0	0	2	0	0	6	0	10	0	0	16	0	1	0	0	26	0	0	0	3	0	0	10
OTU 112	0	0	164	2	0	49	9	0	4	0	3	11	89	7	36	11	0	0	0	0	113	9	0	10	4	11	0	2	13	3	20	0	16	0	0	13	0	94	0	0	7	0	0	0	49	1	6	4	0	10
OTU 113	0	5	1	2	0	4	4	0	0	0	1	22	0	0	0	0	0	6	0	0	29	0	3	0	0	0	0	0	0	6	0	5	0	0	0	31	9	2	9	0	0	1	0	0	0	0	0	0	0	0
OTU 114	4	1	215	60	63	33	56	16	107	46	74	75	58	74	110	6	6	39	79	54	27	9	223	196	3	61	833	15	4	27	111	41	27	8	86	86	13	94	30	100	62	62	5	330	215	5	44	4	19	55
OTU 115	36	57	109	17	61	66	39	5	24	62	110	128	14	288	74	9	0	899	9	984	25	21	47	15	35	7	2	104	3	31	17	14	125	18	44	74	10	89	2210	6	31	28	7	30	37	174	1289	394	0	38
OTU 116	5	768	37	6	45	18	218	4	1	0	80	22	13	113	6	45	1	4	130	4	185	5	39	56	0	17	6	1	75	5	0	12	29	16	15	3	65	20	14	1440	8	0	18	61	5	0	14	0	2	6
OTU 117	3	52	132	1	44	47	1	210	114	10	3	6	37	7	7	3	2462	41	798	74	30	26	98	18	6	1	3	12	4	73	616	125	37	11	1	65	8	12	11	109	59	4	11	120	24	5	25	13	4957	6
OTU 118	4	19	0	32	6	1	0	16	0	5	0	0	33	0	4	2	0	0	0	18	0	0	0	0	0	3	0	0	2	0	4	0	0	2	2	0	1	13	1	0	1	2	0	0	0	0	43	0	0	0
OTU 119	30	13	197	10	12	75	33	835	59	12	189	9	31	84	3	0	3	18	23	8	35	0	30	159	1	92	0	2	45	60	6	113	136	9	26	0	84	0	44	34	23	0	3	76	37	2	30	21	6	4
OTU 120	2	1	3	0	0	9	26	0	0	4	8	8	7	10	0	0	7	10	0	4	4	1	0	0	11	4	0	17	0	0	0	1	10	0	2	0	0	94	0	2	38	0	0	106	27	0	1	0	17	18
OTU 121	25	12	67	3	0	41	1	61	30	17	16	0	0	2	38	13	5	1	32	1	42	17	18	11	11	73	8	25	1	50	9	45	127	0	29	27	19	25	20	121	74	54	4285	33	21	22	16	46	8	3
OTU 122	13	4	5	32	1011	70	126	29	0	54	4	129	187	296	7	5	3455	16	21	202	7	9	32	2	9	10	58	4	11	1	0	5	164	24	22	107	11	20	17	13	5	1531	0	11	53	1	13	0	1274	4
OTU 123	18	104	139	15	49	54	27	37	103	18	65	73	128	337	61	90	54	176	151	52	113	24	198	57	13	191	20	26	207	20	83	48	84	61	196	25	216	137	166	138	70	105	27	446	101	8	180	28	128	72
OTU 124	527	34	0	0	0	13	1	0	0	0	2	0	5	3	0	900	1	0	0	15	0	0	3	1	0	0	0	0	3	0	0	0	43	4	1	1	0	0	0	37	6	3	501	0	1	0	1	0	1	2
OTU 125	369	130	89	42	43	73	346	24	135	93	21	32	24	221	62	129	19	265	44	149	231	336	1530	117	428	139	1691	894	189	1067	71	26	168	174	72	21	28	230	144	85	37	81	131	158	100	45	144	124	60	123
OTU 126	0	0	0	6	0	85	0	0	0	0	0	0	1	0	0	13	10	0	0	11	4	1	0	0	3	0	0	10	1	0	0	2	2	0	29	0	0	10	0	0	0	0	0	0	0	0	0	0	23	5
OTU 127	66	4	774	7	0	70	0	19	28	3	8	4	45	90	1	0	23	25	0	0	37	2	103	369	0	0	9	1	2637	34	35	15	71	64	0	5	0	0	0	63	81	8	0	0	16	0	10	3	38	0
OTU 128	8	91	389	37	183	151	211	85	71	27	114	91	59	187	71	44	37	271	175	55	105	350	114	102	28	38	65	41	100	69	68	74	469	100	420	133	119	348	249	51	128	51	49	353	95	1840	92	107	60	1235
OTU 129	3	0	1	0	1	2	0	0	0	0	1	0	0	1	0	16	0	0	0	1	13	0	53	2	0	0	2	3	2	56	0	26	1	0	0	0	0	0	0	0	0	0	6	10	5	0	0	0	3	0
OTU 130	57	15	9	3	0	262	4	3	50	1	75	30	15	80	6	37	9	6	2	123	47	25	26	6	23	13	1	4	2	1	10	7	23	9	348	1641	16	3	11	0	0	0	29	0	1	0	11	0	21	10
OTU 131	4	2	161	425	3	11	54	7	4	1	28	10	4	2	4	0	0	136	88	0	44	36	4	13	2	18	0	8	3	14	0	0	49	9	12	4	115	92	40	48	47	3	24	0	46	0	124	3	0	65
OTU 132	858	0	16	12	0	10	3	14	1	15	5	32	0	77	1	71	39	10	0	1	0	6	69	2	6	12	0	4	18	20	4	37	1	10	3	2	6	50	11	8	6	5	0	5	2	0	1	5	57	13
OTU 133	1	0	1	1	10	0	0	0	0	3	1	0	0	94	1	0	0	2	0	40	16	7	5	4	0	0	7	0	31	0	0	0	8	1	0	0	0	0	0	0	0	0	0	35	16	0	0	2	4	0
OTU 134	19	1	4	4	3	25	139	17	0	0	226	17	149	53	43	0	6	40	4	0	109	22	3	3	0	12	0	12	21	3	311	29	1	0	94	13	145	5	29	0	5	0	0	42	35	20	75	13	23	2
OTU 135	4	6	0	6	27	90	93	150	120	53	109	12	3326	26	96	67	52	16	79	0	63	85	152	9	35	43	16	76	0	64	101	171	1	49	8	123	3	304	12	0	81	44	41	10	82	59	4	99	124	174
OTU 136	43	84	35	15	0	15	31	0	8	166	101	0	2	2	82	29	3	5	0	5	0	9	16	16	46	50	15	98	14	0	5	7	0	45	7	6	49	24	0	8	195	0	8	20	49	19	24	59	2	19
OTU 137	30	0	7	0	4	0	1	0	0	2	0	0	4	0	20	9	0	0	28	31	16	0	23	5	0	0	0	1	0	0	0	11	43	0	15	0	132	46	0	21	1	1	3	0	0	0	16	0	0	12
OTU 138	0	0	5	2	0	1	2	54	0	12	75	0	0	7	0	70	0	22	0	28	10	9	0	31	1	0	0	1	9	3	20	8	1	0	0	0	0	0	234	0	1	0	9	0	0	0	94	1	0	1
OTU 139	76	26	40	2	1046	3	30	1	88	1	85	142	224	35	17	11	15	88	11	38	207	1	27	1673	21	8	59	13	87	5	39	61	39	171	69	8	102	8	159	48	103	448	16	237	65	26	68	31	39	5
OTU 140	24	66	63	86	75	58	632	25	41	188	67	151	239	49	1	168	15	113	26	90	460	17	95	38	13	33	8	62	40	84	84	31	1363	38	322	37	224	2	236	31	32	10	74	87	121	27	52	14	27	11
OTU 141	0	0	0	0	0	0	0	0	0	0	0	0	0	33	0	0	0	0	0	0	152	0	0	3	0	0	0	0	0	0	0	0	0	0	25	0	0	0	0	0	9	0	0	2	0	0	0	0	0	0
OTU 142	0	0	0	0	0	26	0	0	1	1	0	0	0	5	0	0	0	0	0	0	3	0	0	0	0	0	0	0	0	0	0	1	0	6	0	0	0	3	0	0	1	1	0	0	0	2	0	0	0	5
OTU 143	0	2	0	0	487	0	1	2	0	0	69	23	0	0	0	0	3	6	0	2	5	0	0	0	5	40	0	2	24	19	1	0	0	3	89	20	0	100	0	62	22	350	0	0	0	21	4	3	4	32
OTU 144	2	0	11	0	0	1	72	0	5	5	7	35	20	0	0	0	0	6	0	26	0	1	0	0	2	0	0	0	0	0	3	0	7	0	6	49	62	0	0	0	4	1	0	0	1	0	0	0	0	0
OTU 145	44	131	39	4	26	80	82	4	77	2	66	14	2	349	5	17	2	23	1	266	33	18	10	40	71	13	390	111	5	4	2	79	44	9	17	55	24	48	100	80	45	364	0	115	109	5	32	18	4	48
OTU 146	0	14	37	9	20	74	76	1	28	0	7	117	7	184	3	40	0	1	0	142	34	2	8	47	0	1	3	6	0	43	22	1	0	15	3	0	237	18	18	5	28	3278	41	3	3	10	46	16	1	3
OTU 147	0	0	0	4	0	3	5	0	3	2	18	0	2	0	0	11	0	7	17	0	1	0	39	0	27	5	6	4	33	33	0	46	285	25	2	163	31	8	0	8	0	0	5	0	0	12	1	38	0	1
OTU 148	77	16	166	27	3	0	182	5	0	0	24	15	21	156	5	40	0	76	71	108	40	9	43	6	0	6	5	3	13	3	26	16	201	4	77	4	14	1	2	10	3	0	20	37	67	4	0	0	1	0
OTU 149	1	10	3	0	32	1	1	984	33	0	31	10	1	20	0	22	0	0	1	34	29	1	1	0	1	4	0	2	28	17	3	2	21	0	0	3	4	6	1	16	2	14	9	10	0	0	23	0	0	6
OTU 150	4	27	0	1	1	0	1	0	0	0	5	68	3	1	0	14	0	0	7	2	5	0	7	10	0	1	0	0	3	5	0	3	0	2	1	4	0	7	0	4	44	0	8	2	0	0	5	1	0	0
OTU 151	35	21	0	13	1	53	39	0	1	5	51	12	0	26	2	200	0	0	68	3	0	11	45	0	53	4	4	81	3	0	108	1	62	2	17	13	20	10	8	60	0	17	55	4	64	4	45	3	0	0
OTU 152	21	26	96	5	4	26	6	2	221	29	3	43	95	27	109	38	0	2080	31	50	11	2	168	75	25	32	14	70	349	27	71	114	2	36	26	18	26	0	3	2	2	30	49	181	38	7	112	34	3	5
OTU 153	0	0	5	0	1	0	0	0	3	0	30	8	0	0	0	0	0	0	9	0	0	0	0	0	0	0	2	0	1	0	0	1	0	6	12	0	0	0	0	13	0	0	0	0	0	0	0	1	0	0
OTU 154	4	0	0	2	1	0	0	0	0	0	0	0	0	1	45	19	0	0	0	3	0	0	7	0	0	1	1	0	0	0	1	0	0	0	6	28	0	0	0	0	0	0	2	107	2	0	0	0	0	0
OTU 155	34	35	12	0	9	30	0	0	40	0	0	7	1	3	1	7	0	59	25	13	121	0	73	4	0	0	0	0	16	13	13	24	2	2	36	0	0	0	13	0	0	19	7	1	0	0	4	0	2	2
OTU 156	1419	68	98	17	26	61	11	2193	54	49	125	2	39	113	53	3713	0	21	4	95	69	43	66	57	37	89	10	73	41	1	6	27	30	62	240	18	45	28	10	77	13	165	1666	52	59	26	25	40	1	16
OTU 157	0	0	16	0	0	651	0	1	0	0	3	1	0	1	0	40	0	0	0	0	3	0	8	0	0	10	0	0	0	3	0	3	0	0	127	0	0	0	51	20	152	2	6	14	84	17	7	47	0	1901
OTU 158	14	0	0	0	0	0	19	0	0	0	0	0	0	263	0	0	0	0	0	0	5	0	0	0	0	0	0	0	0	0	18	0	47	0	0	1	0	0	0	0	2	0	0	2	7	0	0	0	0	0
OTU 159	8	13	41	3	0	0	50	32	25	7	8	13	13	41	31	12	0	67	2	89	38	1	5	13	11	10	18	9	10	0	14	9	14	8	19	27	53	51	170	35	18	28	13	30	8	1	144	0	0	10
OTU 160	30	298	85	3	41	129	172	41	2	34	40	35	193	96	20	56	6	642	111	14	33	17	25	53	11	22	36	11	228	61	74	17	112	42	1	20	901	17	1376	531	46	17	7	50	13	4	466	1	12	14
OTU 161	4	5	93	328	1	82	30	2	25	883	55	65	94	333	1670	3	0	48	8	42	70	0	29	107	1	1330	1	5	158	390	16	4	18	10	32	1166	24	3060	0	32	2015	4	312	3	16	1	2291	6	0	1689
OTU 162	21	5	51	4	7	119	351	68	26	64	13	18	2	6	30	5	0	57	26	0	22	15	23	53	18	27	36	25	20	11	146	42	18	83	23	11	59	122	159	24	71	14	17	5	1834	5	122	11	0	70
OTU 163	0	0	0	0	0	0	40	0	0	0	0	0	3	0	0	0	0	0	0	0	0	0	0	0	0	40	1	0	0	9	0	0	0	0	0	0	8	0	0	0	0	7	0	0	0	0	0	0	0	0
OTU 164	0	0	0	0	0	1	0	0	0	0	0	0	0	0	0	0	0	0	0	0	0	0	2	0	0	0	0	0	29	6	0	0	29	0	0	0	0	0	0	2	0	0	0	1	0	0	25	2	0	0
OTU 165	0	4	40	1	6	25	47	3	0	0	71	0	5	26	7	0	2	1	7	46	36	0	0	5	5	9	3	16	1	0	3	5	30	2	73	6	0	1	0	60	0	40	2	0	36	0	10	0	11	2
OTU 166	0	0	0	0	0	0	0	0	0	0	0	2	0	1	0	0	0	0	0	4	0	0	0	0	1	0	0	0	0	0	0	0	0	0	0	6	0	0	0	0	0	0	0	23	0	0	0	0	0	0
OTU 167	0	20	9	3	6	99	16	5	0	3	63	1053	0	63	8	0	6	27	0	39	0	6	2	1	0	0	0	4	0	1276	40	1	1	12	17	8	23	2	16	4	0	15	9	0	14	7	14	26	6	1
OTU 168	3	113	49	1	4	95	0	0	16	22	55	2	230	147	0	22	12	2	0	137	21	37	17	63	6	21	14	33	58	29	61	48	0	12	1	27	27	10	86	0	16	19	12	124	10	10	19	34	20	12
OTU 169	0	0	0	0	0	1	26	1	0	0	2589	0	0	0	0	5	0	0	23	26	27	0	0	2	0	0	0	0	30	0	39	0	0	0	0	0	0	0	196	0	0	0	4	0	0	21	31	15	0	0
OTU 170	1	0	3	0	0	0	0	1	0	0	0	0	0	13	3	0	0	0	0	0	5	0	0	0	0	0	0	0	0	0	0	0	0	27	0	0	31	0	0	0	0	0	0	0	7	4	9	6	0	0
OTU 171	1	7	19	4	93	1	2	7	42	79	8	265	31	41	73	13	22	6	51	68	2	10	180	12	23	75	18	45	25	47	52	62	9	24	72	1	105	25	10	148	1887	64	12	24	22	48	8	115	41	10
OTU 172	9	0	0	10	0	0	0	0	0	0	1	0	6	0	0	0	0	0	0	0	9	0	7	0	0	0	11	0	2	0	1	1	0	1	0	0	0	9	0	1	0	14	2	0	0	3	0	2	0	4
OTU 173	0	55	26	1	0	7	0	11	0	0	123	0	5	0	0	0	0	0	2	10	16	2	0	2	0	0	11	0	0	1	26	0	53	1	0	0	4	0	5	0	7	0	0	27	1	0	6	2	0	15
OTU 174	26	0	0	44	1	26	19	56	0	40	2	12	26	0	1	27	0	2	54	2	3	20	0	3	0	0	2	4	0	1	21	0	0	4	33	0	0	62	3	11	14	0	1	40	1	0	71	1	0	38
OTU 175	0	6	2	1	10	17	1	2	36	1	0	0	1	0	0	12	11	0	0	3	0	47	81	1	29	18	9	32	2	10	61	47	4	0	10	13	0	0	27	141	0	1	0	6	0	1	6	15	23	3
OTU 176	7	13	40	0	38	0	83	7	2	0	13	0	23	113	24	9	20	74	6	69	93	7	0	78	4489	8	3	1	43	3	57	5	27	42	80	38	10	15	0	29	5	48	0	15	6	571	35	4	45	6
OTU 177	71	21	47	7	34	57	115	36	127	4	179	2	42	20	14	41	3	37	0	92	9	4	5	59	8	13	2	12	21	2	8	12	1	27	45	6	36	177	6	0	54	55	22	14	72	1	49	0	7	54
OTU 178	5	125	0	30	0	3	120	0	8	10	3	2	0	1	37	0	2	3	113	2	20	2	0	0	0	2	0	0	86	20	0	0	57	1	2	6	31	24	14	0	27	1	0	64	4	22	4	49	4	12
OTU 179	1	0	3	1	13	8	0	2	0	0	0	50	9	27	55	11	7	6	5	0	0	1	1	0	4	0	0	10	1	2	46	0	286	5	4	15	14	3	10	0	23	11	0	22	0	4	6	42	15	14
OTU 180	93	191	1482	2114	77	87	125	32	81	4283	86	87	62	72	10	16	54	31	98	26	383	2271	117	800	2088	21	5	4105	36	61	40	51	28	19	95	166	30	45	90	10	20	81	10	64	87	0	47	3	95	16
OTU 181	0	0	0	0	0	17	26	8	4	0	9	6	8	0	3	37	8	29	14	38	19	7	36	0	1	6	0	2	31	3	77	2	0	0	90	0	11	2	4	125	16	1	30	38	2	7	2	5	14	2
OTU 182	0	0	0	0	6	18	66	0	0	2	0	0	0	0	0	0	0	0	3	0	0	0	2	0	0	0	0	0	0	2	0	0	0	0	0	0	0	0	0	0	0	0	0	0	1	0	3	0	0	0
OTU 183	0	0	29	0	101	1	43	18	7	17	13	517	9	34	2	0	2	148	23	19	16	53	0	24	9	7	3	28	1	12	49	1	32	30	16	13	0	6	129	9	3	8	0	15	13	11	912	34	4	4
OTU 184	81	19	1	0	7	0	200	258	0	3	9	0	8	45	0	0	10	8	256	5	24	1	0	24	1	1	0	5	14	0	43	1	0	0	0	0	0	3	0	1	5	0	3	0	27	4	0	12	18	0
OTU 185	7	6	47	7	11	37	26	40	51	6	30	15	16	3	14	39	140	116	30	11	95	28	4	37	16	10	94	57	394	4	10	7	100	71	44	6	16	14	10	19	5	25	24	29	0	0	61	1	23	1
OTU 186	0	80	0	1	16	1	31	0	156	1	23	2764	17	1	56	1	0	0	0	20	0	3	0	0	0	4	0	1	6	0	8	33	12	6	115	2	53	0	32	28	0	6	1	121	0	0	109	7	0	0
OTU 187	34	25	234	13	52	26	3	56	22	16	180	89	39	57	18	47	18	11	57	62	328	20	28	170	82	7	4	9	16	53	81	35	190	0	45	24	199	54	27	60	7	31	2	12	14	1	24	0	35	14
OTU 188	35	1	18	170	349	488	191	381	313	89	8	42	29	160	320	170	101	173	859	136	89	103	529	12	105	402	81	249	195	811	159	543	70	244	10	471	187	504	137	15	344	92	94	49	274	111	78	203	219	238
OTU 189	14	8	203	0	13	4	12	87	26	9	11	143	29	17	74	54	31	5	235	50	6	18	114	65	34	30	21	72	93	8	168	99	16	45	262	39	45	67	19	25	32	10	27	51	24	44	82	68	66	6
OTU 190	0	0	0	0	3	0	0	0	0	0	109	0	0	97	2	4	0	0	0	34	0	0	0	5	24	0	8	31	0	0	0	15	0	0	43	0	5	0	0	38	0	10	0	0	28	0	4	8	0	1
OTU 191	142	99	34	38	35	122	19	30	83	26	45	22	84	21	11	196	0	12	42	16	6	11	36	8	7	3481	0	52	42	7	34	39	378	0	205	98	35	16	47	89	6	4	132	7	4	27	30	24	2	8
OTU 192	18	2	7	8	3	39	72	21	11	16	151	45	39	303	32	3	9	53	25	33	83	34	3	15	7	5	17	12	19	44	5	62	90	44	52	36	177	40	24	165	0	1	2	2065	264	7	45	9	33	3
OTU 193	0	43	142	1	70	40	55	52	108	9	10	48	40	49	12	18	0	86	32	1	97	8	2	23	0	15	75	5	0	2	64	0	107	59	31	11	133	10	12	68	54	9	3	23	4	19	3	51	0	0
OTU 194	3	111	3	1	23	188	16	0	14	0	31	5	73	0	5	0	0	0	3	3	15	0	6	7	0	4	4	1	17	9	2	0	175	1	69	27	77	0	52	27	0	1	0	31	95	3	1	3	0	0
OTU 195	46	9	21	536	6	25	7	103	2	695	7	43	8	25	1552	14	0	34	21	19	0	0	24	48	1	46	8	0	28	0	13	0	32	7	20	62	56	8	7	32	0	11	32	36	0	4	81	1	0	0
OTU 196	14	0	44	0	1	17	44	6	4	0	8	14	71	2	0	2	3	0	0	44	0	0	0	33	1	13	0	3	0	0	3	0	38	20	134	0	0	73	52	4	19	1	4	52	0	2	6	1	10	49
OTU 197	10	11	183	85	35	108	58	12	253	41	38	246	41	249	92	132	21	90	144	164	31	30	32	48	9	11	44	10	20	35	54	62	161	77	519	93	49	60	207	8	1475	0	62	72	61	33	53	32	42	45
OTU 198	0	0	10	0	4	0	3	0	6	0	36	9	0	21	13	4	0	74	0	7	0	0	0	8	0	0	16	1	1	0	27	26	1	6	1	0	0	0	0	0	47	22	0	0	2	6	54	29	0	0
OTU 199	5	35	2	21	0	6	3	52	10	8	0	13	0	7	0	39	0	0	3	5	12	0	0	2	0	13	3	0	4	0	11	0	16	0	0	1	98	5	7	0	0	1	8	27	4	4	1	2	0	0
OTU 200	1	6	1	2	2	0	51	20	10	25	14	55	0	32	0	0	0	2	6	125	5	9	103	24	12	0	0	7	13	32	3	45	36	3	28	23	89	1	4	6	6	24	6	4	35	1	3	0	0	6
