	Host 1	Host 2	Host 3	Host 4	Host 5	Host 6	Host 7	Host 8	Host 9	Host 10	Host 11	Host 12	Host 13	Host 14	Host 15	Host 16	Host 17	Host 18	Host 19	Host 20	Host 21	Host 22	Host 23	Host 24	Host 25	Host 26	Host 27	Host 28	Host 29	Host 30	Host 31	Host 32	Host 33	Host 34	Host 35	Host 36	Host 37	Host 38	Host 39	Host 40	Host 41	Host 42	Host 43	Host 44	Host 45	Host 46	Host 47	Host 48	Host 49	Host 50	
OTU 1	1	8	7	0	0	0	4	2	0	23	5	0	5	6	25	2	8	0	4	1	1	3	3	3	0	0	4	6	0	0	1	13	5	0	1	4	1	2	15	2	3	0	8	3	1	6	3	2	0	9
OTU 2	0	0	1	4	0	1	1	0	3	0	0	0	0	0	0	0	0	4	0	1	0	0	1	4	1	0	1	0	0	0	1	2	0	0	0	0	0	0	0	0	0	0	0	0	0	0	0	0	0	0
OTU 3	0	0	0	0	1	1	0	0	1	0	0	1	0	1	0	1	6	0	2	0	0	0	1	10	0	4	1	0	0	0	0	0	1	0	0	0	3	0	2	1	0	0	0	0	0	0	1	0	0	0
OTU 4	0	0	0	0	0	0	0	0	0	0	0	0	0	0	0	0	0	0	0	0	0	0	0	0	0	0	0	0	0	0	0	0	0	0	0	0	0	0	0	0	0	0	0	0	0	0	0	0	0	0
OTU 5	31	22	7	0	9	18	13	12	1	31	15	2	14	2	14	8	16	4	10	1	5	10	21	7	1	8	17	11	18	21	6	12	4	27	45	14	3	3	2	72	0	0	11	11	11	16	77	9	0	9
OTU 6	0	0	0	0	1	4	0	12	0	0	2	1	0	0	1	1	0	1	5	0	1	0	0	0	0	6	0	0	0	9	1	1	0	0	0	0	0	0	0	0	0	0	6	0	5	0	0	0	1	0
OTU 7	2	1	1	4	4	6	4	0	4	1	3	4	0	6	0	0	2	1	0	1	2	0	4	1	4	0	2	3	7	0	19	3	1	1	0	2	0	7	1	1	2	0	0	0	0	3	61	117	5	1
OTU 8	13	0	0	24	3	42	4	0	44	0	1	9	1	3	0	0	4	1	1	3	1	42	2	3	10	0	0	1	24	0	0	6	6	7	4	3	15	4	18	0	2	0	2	0	1	14	0	0	4	0
OTU 9	1	0	0	0	0	0	1	0	1	0	3	0	0	0	0	0	6	0	0	0	0	0	1	2	0	0	0	0	0	0	0	0	0	0	6	0	0	11	0	3	0	0	0	0	1	0	1	1	0	1
OTU 10	1	1	0	0	0	0	1	4	0	2	0	0	3	1	0	5	6	0	0	0	0	3	0	1	2	1	0	0	1	0	0	0	0	1	0	0	0	0	0	0	1	41	3	0	3	0	0	0	11	7
OTU 11	1	1	0	0	0	6	0	16	2	0	2	2	0	0	0	0	2	9	0	0	0	3	2	0	0	0	1	2	1	0	0	0	2	1	2	0	1	4	0	0	0	0	2	0	7	0	0	4	0	1
OTU 12	0	0	0	2	0	2	1	3	0	0	0	1	0	4	0	0	0	2	3	2	1	0	0	1	0	1	3	1	0	2	0	8	0	10	0	0	1	1	0	0	1	0	3	0	2	0	0	0	2	2
OTU 13	0	1	0	0	0	1	0	0	0	0	0	0	0	0	0	0	0	0	0	0	0	0	0	0	0	0	0	0	0	0	0	0	0	0	0	0	0	0	0	0	0	0	0	0	0	0	0	0	0	2
OTU 14	0	1	0	0	0	0	0	0	0	0	0	0	0	3	4	0	0	0	0	0	0	0	0	0	0	17	1	0	0	0	0	0	8	0	0	0	0	0	0	2	0	1	0	0	0	0	0	3	3	0
OTU 15	0	0	0	0	0	0	0	0	0	0	0	0	0	0	0	0	0	2	0	0	0	0	2	0	0	0	0	0	0	0	0	0	0	0	0	0	0	0	0	0	1	5	0	0	0	0	0	0	0	0
OTU 16	0	0	0	0	0	0	0	0	0	0	0	0	0	0	0	0	0	0	0	0	0	0	0	0	0	0	0	0	0	0	0	0	0	0	0	0	0	0	0	0	0	0	0	0	0	0	0	0	0	0
OTU 17	0	0	0	0	0	2	0	6	0	1	0	2	1	7	2	0	0	0	1	0	1	0	0	1	0	2	0	0	3	5	1	1	1	0	1	0	1	2	0	1	0	0	3	0	1	0	0	2	2	0
OTU 18	0	1	0	7	5	15	0	1	15	2	1	3	1	1	10	0	3	3	0	0	0	3	1	2	4	1	3	0	0	2	4	0	7	7	4	5	5	7	4	0	0	0	1	2	0	2	0	1	0	4
OTU 19	0	0	0	0	0	0	0	0	0	0	0	0	0	0	0	0	0	0	0	0	0	0	0	0	0	0	0	0	3	0	0	0	0	0	0	0	0	0	0	0	0	0	0	0	0	0	0	0	0	0
OTU 20	11	67	10	2	9	0	0	0	4	4	0	0	2	12	0	0	0	1	0	12	4	33	0	7	5	1	0	1	1	0	0	1	1	0	0	0	1	0	5	6	1	2	0	5	1	4	1	49	4	0
OTU 21	0	2	0	2	10	0	0	5	5	0	1	2	3	5	0	0	2	0	0	0	4	3	2	6	1	0	0	1	0	3	1	2	1	4	0	0	0	4	5	0	0	3	2	0	0	1	0	2	1	1
OTU 22	9	3	0	0	0	0	1	2	0	1	4	3	0	1	0	0	0	1	1	0	0	0	0	10	49	2	1	0	0	0	0	0	0	0	0	0	0	2	0	3	3	1	1	2	1	0	0	2	0	0
OTU 23	1	0	0	0	0	0	0	2	1	0	0	0	1	0	0	0	0	3	0	0	1	0	0	0	2	0	0	0	0	0	0	0	0	2	0	2	0	2	0	0	0	0	4	3	1	1	0	0	6	0
OTU 24	0	1	0	0	0	0	0	0	0	0	0	1	1	1	0	0	0	0	1	0	0	1	6	0	3	3	0	0	2	0	0	0	0	4	0	0	1	2	1	0	2	1	0	0	0	1	0	2	2	0
OTU 25	0	0	0	0	0	0	0	0	0	0	0	0	0	0	0	0	0	0	0	0	0	0	0	0	0	0	0	0	0	0	0	0	0	0	0	0	0	0	0	0	0	0	1	0	0	0	0	0	0	0
OTU 26	0	0	0	0	0	0	0	0	0	0	0	0	0	0	0	0	2	0	0	0	0	0	4	0	0	0	0	0	0	0	0	0	0	1	1	0	0	2	1	0	0	0	0	0	0	0	0	0	0	1
OTU 27	0	0	0	0	0	0	0	0	0	0	0	0	1	1	0	0	0	0	0	0	0	0	0	0	0	0	0	2	1	0	0	0	0	0	0	0	0	0	0	0	0	1	0	0	0	0	0	0	0	0
OTU 28	5	2	4	0	3	0	4	0	0	1	0	0	11	0	19	1	0	0	0	1	4	4	0	3	0	0	0	3	0	1	12	0	3	0	0	0	0	0	3	2	0	3	0	1	0	0	3	0	0	6
OTU 29	3	0	1	2	3	1	0	1	4	0	5	0	0	2	4	1	0	1	2	0	6	0	4	0	2	4	1	0	2	2	2	1	3	1	2	0	97	2	0	1	7	2	3	0	1	3	0	0	0	0
OTU 30	0	0	0	0	0	0	0	0	0	0	0	0	0	0	0	0	0	0	0	0	0	0	0	0	0	0	0	0	0	0	0	0	0	0	0	0	0	0	0	0	0	0	0	0	0	0	0	0	0	0
OTU 31	4	1	3	0	0	0	7	0	0	0	0	4	0	1	1	0	15	0	0	1	0	0	0	0	5	6	0	0	0	2	0	0	0	0	0	0	0	1	0	0	2	0	0	0	0	5	0	1	3	6
OTU 32	0	0	1	2	2	0	1	0	4	0	0	0	0	3	1	2	4	2	0	42	4	1	3	1	4	6	0	4	0	2	7	3	2	2	0	4	0	4	10	1	9	0	1	1	1	0	1	1	0	0
OTU 33	0	0	0	0	0	0	0	0	0	0	0	0	0	0	0	0	0	0	1	0	0	0	0	0	0	0	0	0	0	0	0	0	0	0	0	0	0	0	0	0	0	0	0	0	0	0	0	0	0	0
OTU 34	25	2	0	0	0	1	0	4	1	1	2	0	3	1	0	0	2	2	0	1	2	1	44	0	2	1	1	0	13	0	5	2	0	0	0	0	0	0	0	1	10	0	0	0	2	0	1	1	0	0
OTU 35	0	2	0	148	0	1	0	0	0	1	0	5	4	0	1	0	1	1	105	0	0	0	0	0	4	1	0	0	2	1	8	5	1	0	0	0	1	0	5	0	0	1	0	1	1	3	0	1	7	2
OTU 36	1	0	0	8	0	0	0	0	11	0	0	0	2	2	0	0	1	0	1	1	3	0	0	0	1	0	1	1	0	4	2	0	0	2	0	0	8	0	3	0	0	0	0	0	1	6	0	5	1	1
OTU 37	2	0	0	0	0	0	1	0	0	0	0	0	0	0	0	1	0	2	1	0	0	0	1	0	0	2	0	0	0	0	0	0	2	0	0	0	1	0	0	1	0	0	0	0	0	0	0	0	0	0
OTU 38	4	0	0	1	0	0	1	1	0	1	1	6	3	0	0	1	2	0	1	0	0	0	3	1	1	0	2	0	0	0	2	0	14	1	4	0	0	8	0	0	10	0	2	1	0	0	0	0	10	1
OTU 39	0	0	0	0	0	0	0	0	0	0	1	0	2	0	0	0	0	2	0	0	0	0	0	0	0	0	0	0	0	0	0	0	0	0	0	0	3	0	0	0	1	0	0	0	0	0	1	0	1	0
OTU 40	2	2	1	1	0	6	0	0	0	0	0	2	2	14	0	1	0	0	1	0	4	0	2	0	0	6	1	2	1	10	1	1	5	0	2	0	1	2	1	1	3	0	4	0	2	1	0	0	3	0
OTU 41	2	0	0	0	0	3	0	0	4	0	0	0	1	8	0	0	1	1	0	1	2	0	0	0	2	0	1	0	0	0	3	0	0	1	0	0	0	0	4	0	0	1	1	0	0	0	0	1	0	0
OTU 42	0	0	2	0	0	0	0	0	0	0	0	0	0	0	1	0	0	0	0	0	0	0	0	0	0	0	0	0	0	4	0	0	0	0	0	0	0	0	1	0	0	0	0	0	0	0	0	0	0	0
OTU 43	0	0	0	0	0	0	0	0	0	0	0	0	0	0	0	0	0	0	0	0	0	0	0	0	0	0	2	0	0	0	0	0	0	0	0	0	0	0	0	0	0	0	0	0	0	0	0	0	0	0
OTU 44	1	0	0	0	0	0	1	0	0	0	12	0	0	1	0	0	3	1	0	0	0	0	0	0	0	0	1	0	0	0	0	1	3	0	0	1	0	0	0	0	0	0	0	0	0	0	0	0	0	0
OTU 45	5	0	0	0	4	0	13	1	2	4	1	1	2	1	87	2	0	5	0	0	1	0	1	6	2	0	3	0	2	1	1	0	5	0	0	0	0	1	1	0	1	4	4	0	1	0	2	1	3	7
OTU 46	7	0	0	0	3	0	0	0	0	1	3	13	1	1	0	3	5	1	2	0	2	3	3	0	2	3	2	0	1	4	8	1	3	1	1	0	2	0	0	6	1	3	0	2	0	0	6	0	1	2
OTU 47	0	0	0	0	0	0	0	0	1	0	5	0	0	0	1	0	0	0	0	0	0	0	2	3	0	0	1	0	0	0	0	0	4	0	0	0	0	0	0	0	0	0	0	0	0	0	0	0	0	0
OTU 48	15	2	4	0	1	1	2	2	1	0	0	4	0	0	6	2	0	0	1	0	0	0	4	0	1	4	9	3	1	0	1	1	0	0	2	1	0	3	0	5	7	0	0	0	2	0	0	2	2	1
OTU 49	3	0	0	1	0	0	0	0	0	0	0	0	1	2	3	2	1	3	1	0	0	0	0	0	4	1	1	0	1	0	0	1	1	0	1	0	0	0	5	32	2	0	1	0	0	0	18	0	1	0
OTU 50	1	1	0	0	4	2	4	0	5	0	1	1	0	0	6	2	3	8	0	0	1	0	1	6	1	0	2	0	0	5	8	0	0	0	1	0	0	2	0	0	4	1	0	1	0	2	4	1	11	1
OTU 51	5	8	1	0	6	0	1	6	0	1	1	0	0	6	0	0	0	0	0	18	1	4	0	4	0	0	7	1	2	0	0	2	0	0	0	2	3	0	0	1	0	0	3	0	4	3	1	2	1	0
OTU 52	6	5	0	0	0	0	8	8	4	1	1	4	0	3	2	24	2	1	1	1	3	5	11	0	1	2	0	1	0	6	6	39	2	4	29	23	1	66	0	10	5	0	2	0	1	3	1	4	1	1
OTU 53	0	0	0	0	0	0	0	0	0	0	0	0	0	0	0	0	10	0	0	0	0	0	0	0	0	0	0	0	0	0	0	0	0	0	0	0	0	0	0	1	0	0	0	0	1	0	0	0	2	0
OTU 54	0	2	4	1	7	4	1	61	10	1	1	7	1	23	2	4	11	3	1	0	10	1	0	1	1	1	2	0	1	3	2	2	4	8	0	61	1	4	0	8	6	5	1	0	33	0	1	3	4	0
OTU 55	0	0	0	0	0	0	0	0	0	0	1	0	0	0	0	0	0	0	0	0	0	0	0	0	0	0	0	0	0	0	0	0	0	0	0	0	0	0	0	0	0	0	0	0	0	2	0	0	0	0
OTU 56	0	0	0	1	0	0	0	0	0	0	0	0	0	0	0	3	0	0	0	0	0	0	0	1	0	1	0	1	0	1	0	0	0	0	0	0	0	0	0	1	0	0	0	0	0	0	0	4	0	0
OTU 57	21	2	0	3	14	6	2	4	12	47	1	8	21	13	1	0	8	1	1	1	13	0	0	27	0	4	6	50	2	5	21	1	2	1	2	0	9	1	1	0	8	0	6	0	4	4	0	1	9	18
OTU 58	0	4	1	0	1	2	0	0	0	0	0	0	2	8	1	0	3	2	44	0	1	0	0	1	0	0	0	3	0	0	0	2	0	5	0	1	0	0	1	14	1	1	75	1	0	4	19	0	0	0
OTU 59	0	0	0	1	4	0	0	0	0	4	0	0	2	0	7	1	0	1	2	3	0	0	3	4	0	6	0	0	1	0	1	0	3	1	1	0	1	0	2	0	0	1	0	0	0	1	0	0	0	3
OTU 60	3	0	3	4	1	2	2	0	0	4	0	1	0	7	0	1	2	6	0	1	1	0	0	5	1	58	0	0	1	12	1	1	1	2	1	0	0	3	0	1	0	8	1	3	0	1	0	2	3	0
OTU 61	0	8	0	18	2	3	1	11	0	1	2	43	5	0	0	2	5	0	0	0	0	2	20	4	0	0	8	9	2	14	0	0	3	0	10	0	0	20	3	3	5	3	3	0	3	4	1	0	0	5
OTU 62	4	0	0	1	0	2	0	0	1	0	0	0	1	0	1	0	0	3	0	0	1	0	0	0	0	0	0	67	0	2	0	0	0	0	0	0	0	0	0	1	0	1	0	0	0	0	1	0	0	141
OTU 63	0	1	0	1	0	0	0	0	0	0	0	0	0	0	0	1	0	0	0	0	1	0	0	5	1	0	0	0	1	1	0	0	0	1	0	0	1	0	0	1	3	9	0	2	0	0	0	0	7	3
OTU 64	3	1	1	7	2	2	5	1	0	0	1	0	1	0	5	4	4	8	0	1	1	0	0	2	1	4	12	0	10	3	1	0	1	2	2	0	0	3	5	21	4	3	0	1	119	1	7	0	0	0
OTU 65	0	0	0	0	0	0	0	0	0	0	0	0	0	0	0	0	0	0	0	0	0	0	0	0	0	0	1	0	0	0	0	0	0	0	0	0	0	0	0	0	0	0	0	0	0	0	0	0	1	0
OTU 66	1	1	6	0	0	1	2	0	7	4	1	0	1	2	2	3	0	6	0	0	2	0	3	0	0	0	0	0	0	1	2	0	0	2	1	0	3	1	1	4	2	7	1	0	1	0	1	1	0	0
OTU 67	1	0	0	0	0	3	0	0	0	0	0	1	1	6	0	0	3	1	0	0	0	0	0	0	1	4	6	1	8	8	4	1	0	0	0	0	0	2	2	0	0	87	0	0	1	0	0	1	3	0
OTU 68	0	0	0	0	1	0	0	3	0	0	0	2	0	0	2	0	0	0	1	0	0	1	0	0	0	0	0	0	0	0	0	2	0	0	0	0	0	1	1	0	0	0	0	0	2	0	0	0	0	1
OTU 69	0	0	0	0	0	0	1	4	4	0	0	0	4	1	0	0	18	8	1	0	0	131	14	1	3	1	1	0	0	0	6	15	0	1	26	4	6	38	4	5	2	3	3	0	2	4	8	0	0	1
OTU 70	0	0	4	1	0	0	5	0	0	16	0	0	9	0	1	0	1	0	4	0	0	0	0	1	0	0	1	6	0	2	7	0	1	0	3	4	0	6	9	1	2	0	0	0	0	0	0	0	1	6
OTU 71	1	0	0	0	4	4	0	0	0	0	1	0	0	3	1	0	0	3	0	1	3	0	0	2	0	1	0	76	0	0	0	0	0	1	1	0	4	0	0	1	0	0	0	1	0	0	0	0	2	0
OTU 72	8	3	1	1	1	0	0	0	0	0	1	0	1	6	0	0	4	0	6	0	1	0	0	0	0	2	0	0	3	1	6	4	0	1	0	2	0	0	1	2	17	5	3	0	0	1	0	2	0	0
OTU 73	0	0	0	4	1	8	0	4	4	3	0	1	0	12	2	2	2	3	0	0	7	0	3	8	1	0	3	0	3	0	0	0	2	0	0	0	57	2	2	0	7	0	1	0	3	126	0	0	0	2
OTU 74	1	1	1	0	0	0	1	0	0	0	1	1	2	8	1	0	0	0	0	0	2	0	0	2	0	0	0	2	0	4	0	2	1	1	0	0	0	0	2	0	1	0	0	0	0	1	2	0	8	0
OTU 75	1	0	0	3	0	0	0	6	2	73	1	0	28	0	0	3	1	12	0	0	0	0	1	0	0	4	4	13	40	0	1	1	2	1	1	1	0	0	4	2	1	1	1	0	0	1	3	0	0	31
OTU 76	1	1	0	0	0	1	8	2	0	1	0	0	0	0	0	0	0	0	0	0	0	0	1	1	0	0	0	0	0	0	2	0	0	1	0	0	0	0	3	0	0	8	1	0	0	0	0	1	0	0
OTU 77	7	0	1	1	6	0	1	1	3	4	0	2	3	0	0	2	4	1	0	0	0	0	3	4	0	2	0	0	2	3	3	1	0	0	0	1	1	2	3	3	0	0	3	0	0	6	0	2	1	1
OTU 78	2	17	6	4	26	0	0	0	10	2	11	3	4	2	0	0	0	0	0	1	2	6	52	38	1	9	8	2	1	0	4	2	2	0	0	1	9	0	1	0	0	0	3	4	0	1	0	9	0	1
OTU 79	4	3	0	7	17	32	42	12	11	8	2	3	5	3	7	0	6	4	6	1	6	0	2	22	1	4	5	5	8	5	3	0	1	6	0	1	2	2	10	5	2	2	11	15	5	1	5	1	10	10
OTU 80	3	0	0	0	0	10	1	0	4	0	5	0	0	3	0	0	2	0	0	0	4	2	0	2	2	0	1	0	2	0	0	0	0	9	1	0	0	3	0	0	2	1	0	2	0	0	0	0	0	2
OTU 81	4	0	1	1	0	0	0	2	5	0	0	0	1	21	0	1	7	6	2	0	8	0	2	0	3	2	3	1	4	3	0	3	0	6	0	0	1	2	0	3	2	3	0	1	1	0	5	0	7	3
OTU 82	0	0	0	0	0	7	1	0	0	2	0	0	0	1	2	1	0	6	0	0	0	0	0	1	0	0	21	2	0	7	0	0	4	3	1	1	1	2	16	0	1	4	0	0	0	0	0	0	0	2
OTU 83	0	0	0	0	1	0	0	0	0	0	0	0	0	0	0	0	0	0	1	0	0	0	0	0	0	0	0	0	0	0	0	0	1	1	0	0	0	0	0	0	1	0	0	0	0	0	0	0	0	0
OTU 84	0	1	0	0	2	0	0	0	0	0	5	0	0	2	6	0	0	2	0	0	0	0	0	2	0	0	0	0	0	0	0	1	3	1	1	0	1	4	1	1	1	0	0	0	1	5	0	0	9	0
OTU 85	0	0	0	0	0	2	0	0	1	0	0	1	0	0	1	0	1	0	0	0	0	0	0	0	2	1	0	2	3	7	0	0	5	0	1	0	0	0	2	0	0	0	1	0	0	0	1	0	0	0
OTU 86	0	0	0	0	0	0	0	0	0	0	0	0	0	2	3	0	0	0	0	0	0	0	0	0	0	0	0	0	1	0	0	0	0	0	0	0	0	0	0	0	0	0	0	1	0	0	0	0	0	0
OTU 87	0	0	0	0	6	0	0	1	0	2	0	0	0	0	0	0	0	0	0	0	0	0	0	0	0	0	1	0	0	0	0	0	0	0	0	0	0	0	2	0	1	0	0	0	0	0	0	0	0	0
OTU 88	0	0	0	0	0	0	0	0	0	0	0	0	0	0	0	0	0	0	0	1	0	0	1	0	0	0	0	0	0	0	0	0	0	0	0	0	0	0	0	0	0	0	0	0	0	0	0	0	0	0
OTU 89	0	1	4	1	0	0	0	0	3	0	1	1	0	0	0	1	0	4	0	0	0	1	1	0	2	0	0	0	1	5	0	1	0	0	0	0	0	0	0	0	0	3	0	0	0	0	1	0	3	1
OTU 90	0	0	0	0	0	0	0	0	3	0	0	0	0	0	0	0	0	1	0	0	0	0	0	0	0	0	0	0	1	0	1	0	5	0	0	0	0	0	0	0	0	0	0	0	0	0	0	0	0	0
OTU 91	0	0	0	2	0	0	0	0	0	0	0	0	0	0	0	0	0	0	0	0	0	0	0	0	0	0	0	0	0	0	0	1	0	0	0	0	0	0	0	0	0	0	0	0	0	0	0	0	0	0
OTU 92	0	0	0	0	0	0	0	2	0	0	0	0	0	2	0	0	0	0	0	0	1	0	0	0	0	1	0	1	0	0	0	1	0	0	0	0	0	0	0	1	0	0	0	0	2	0	1	0	0	0
OTU 93	0	0	0	0	0	0	0	0	0	2	0	0	0	0	0	3	0	1	0	0	0	0	0	0	0	0	0	0	5	0	0	0	2	0	0	0	0	0	2	0	0	0	0	0	0	0	0	0	1	1
OTU 94	13	2	2	0	0	0	3	0	0	0	2	17	0	4	0	2	2	4	11	2	0	4	2	6	1	0	0	0	1	0	10	2	6	2	3	0	1	6	4	4	8	3	20	0	0	8	0	3	7	2
OTU 95	1	0	0	0	0	0	10	0	1	0	0	0	0	0	0	1	2	1	0	0	0	0	0	3	0	1	0	0	0	0	0	0	0	0	0	0	0	0	0	0	2	0	0	1	0	0	0	0	0	0
OTU 96	0	0	0	0	0	0	0	0	0	0	0	0	0	0	0	4	0	0	0	0	0	0	0	0	0	0	0	0	0	0	0	0	2	0	0	0	0	0	0	0	0	2	0	0	0	0	0	0	0	0
OTU 97	0	0	0	13	0	0	0	0	30	0	0	0	0	6	0	1	0	1	0	0	2	0	0	0	0	0	0	0	0	0	0	0	0	0	0	0	7	0	1	0	1	0	0	0	0	15	0	0	0	0
OTU 98	2	0	0	2	0	0	0	0	1	1	0	0	0	0	0	12	2	2	0	0	0	0	0	0	0	2	0	0	0	0	4	9	0	4	0	3	1	0	5	0	0	0	0	0	2	0	0	2	1	0
OTU 99	5	1	0	1	6	0	2	1	1	0	1	4	0	3	0	2	0	10	3	0	5	1	1	2	2	0	0	1	11	2	3	3	1	1	1	3	1	0	0	4	5	5	15	0	1	7	0	1	6	0
OTU 100	1	1	0	0	0	0	1	0	0	10	0	1	1	0	0	0	0	1	0	0	1	0	0	5	0	0	0	0	0	26	0	0	6	0	0	1	1	0	0	0	0	2	0	1	0	6	0	0	5	2
OTU 101	0	0	0	0	0	0	1	0	0	1	0	1	1	0	0	0	0	0	0	0	2	0	0	0	0	1	0	0	0	0	0	0	0	0	0	0	0	0	0	0	0	1	0	0	0	0	0	0	0	0
OTU 102	0	0	0	3	60	0	0	0	2	0	0	1	0	0	0	0	0	0	0	0	0	0	1	0	0	0	0	0	0	0	0	0	1	0	2	0	1	1	1	0	0	0	0	0	0	0	0	0	0	0
OTU 103	0	1	3	0	0	0	1	0	3	0	0	0	0	5	0	0	0	1	3	0	2	1	0	0	0	0	0	0	0	0	0	3	0	2	2	2	3	1	0	0	0	2	0	0	0	0	0	0	0	1
OTU 104	2	1	0	9	0	6	2	0	1	0	3	2	0	1	2	1	0	5	0	0	158	0	0	3	2	8	2	2	2	0	8	0	2	0	0	0	1	2	1	1	4	2	1	0	6	2	53	1	1	0
OTU 105	0	0	0	0	2	0	0	0	0	0	4	0	0	4	0	0	2	0	0	1	0	0	1	2	1	1	0	0	1	0	0	2	0	0	0	0	0	0	0	5	0	0	0	0	0	1	1	0	0	3
OTU 106	0	0	0	0	0	0	0	3	0	0	0	0	0	0	0	0	0	0	0	0	0	0	0	2	0	3	0	0	0	0	0	0	3	0	0	0	0	0	0	0	0	0	0	1	1	0	0	0	0	0
OTU 107	2	3	30	0	0	0	0	0	0	2	0	13	1	0	0	0	2	0	0	12	0	0	0	0	3	0	0	0	0	0	0	4	0	0	0	6	0	0	1	0	4	0	0	4	0	0	0	0	0	0
OTU 108	0	13	2	0	0	0	0	3	0	1	0	2	0	0	0	0	0	0	0	4	0	4	11	0	2	1	6	0	1	3	0	0	0	1	2	0	0	11	0	1	0	4	0	5	3	0	0	8	1	3
OTU 109	0	0	0	0	0	0	0	0	0	0	0	0	0	0	0	0	0	0	0	0	0	0	0	0	0	0	0	0	0	0	0	0	0	0	2	0	0	0	0	0	0	0	0	0	0	0	0	0	0	0
OTU 110	0	0	0	0	1	0	1	0	0	3	0	0	0	0	0	7	1	1	0	0	0	3	1	5	1	3	0	1	0	26	2	1	0	0	0	4	0	1	2	0	5	2	0	0	0	0	0	1	0	1
OTU 111	0	1	0	0	0	0	0	0	0	0	0	0	0	0	0	0	0	0	0	0	0	0	3	2	0	0	0	0	0	0	0	0	1	0	0	0	0	0	0	1	0	16	1	0	0	0	0	0	0	0
OTU 112	0	0	0	1	0	0	0	0	0	0	0	0	0	0	0	7	0	0	2	0	0	0	0	1	0	0	1	0	0	0	0	0	0	53	0	0	0	0	0	0	0	0	0	1	0	0	0	0	0	0
OTU 113	0	0	0	0	0	0	0	0	0	0	0	0	0	0	0	0	0	0	0	1	0	0	0	0	0	0	0	0	3	0	0	2	0	0	0	0	1	0	0	0	1	0	0	0	0	0	0	0	0	0
OTU 114	1	6	8	1	5	11	1	3	0	2	0	2	1	3	1	2	0	1	0	0	2	3	0	2	11	0	6	0	3	2	1	3	0	2	1	1	0	4	12	2	2	2	0	0	1	1	0	6	0	1
OTU 115	2	3	2	1	1	3	3	1	4	2	2	1	1	3	1	10	2	6	0	1	0	1	4	0	1	3	6	0	5	2	0	5	4	4	2	2	1	7	2	0	4	1	2	0	47	0	13	0	4	0
OTU 116	1	1	0	0	0	1	5	1	8	0	1	2	0	2	1	1	0	0	0	0	0	0	1	0	10	0	1	2	5	6	10	2	2	3	1	4	0	1	4	0	42	2	1	10	1	3	3	6	0	0
OTU 117	2	0	3	1	5	0	6	3	5	0	1	0	2	0	1	0	0	0	51	0	0	0	3	3	0	1	2	0	0	4	6	1	0	0	0	98	0	0	0	0	1	0	2	4	0	0	1	1	1	0
OTU 118	1	0	0	0	0	3	1	4	0	0	0	0	0	0	3	0	0	0	0	0	0	0	0	0	0	0	0	0	0	0	0	0	0	0	0	0	0	2	0	0	0	0	0	0	1	0	0	0	0	0
OTU 119	4	2	0	0	1	2	0	2	2	1	0	3	0	0	0	5	5	50	2	0	0	1	1	2	5	2	1	1	0	4	2	0	6	4	1	0	0	4	3	0	0	0	1	0	0	0	1	0	0	0
OTU 120	0	0	0	0	0	0	0	0	0	1	0	6	0	0	0	1	0	0	0	0	0	0	0	0	0	0	0	5	0	0	1	1	1	0	1	0	0	0	0	0	0	1	0	0	0	0	0	1	0	10
OTU 121	0	0	0	0	1	2	3	1	1	1	1	10	0	0	5	0	2	0	1	0	0	0	2	1	0	2	0	0	2	2	0	0	2	3	68	0	0	0	1	1	10	2	4	0	0	2	0	0	0	0
OTU 122	2	3	1	0	0	2	1	1	0	1	1	0	0	12	3	1	2	0	1	0	1	1	3	2	0	2	1	0	0	2	6	1	0	2	5	0	0	11	3	2	0	5	0	0	0	0	0	0	0	0
OTU 123	14	88	32	1	1	3	2	2	11	5	2	6	0	10	0	3	10	6	0	150	5	40	3	16	2	5	7	1	2	17	9	3	53	2	1	1	8	5	8	0	15	0	3	161	1	5	1	47	24	6
OTU 124	0	0	0	0	2	0	1	0	0	4	4	1	3	0	1	0	0	0	0	0	0	0	1	0	0	0	0	2	0	0	4	0	0	0	0	0	0	0	3	0	0	0	0	0	0	0	0	0	3	1
OTU 125	3	3	1	0	9	11	11	7	0	2	5	10	3	6	35	4	4	3	5	1	1	5	6	7	22	0	10	1	0	5	9	39	4	32	3	23	1	8	22	4	26	2	11	0	4	2	1	4	8	1
OTU 126	1	1	0	0	0	0	0	0	0	9	0	0	12	0	3	0	0	0	0	0	0	0	0	0	0	0	0	2	0	1	0	0	0	0	0	0	0	0	0	0	0	0	0	0	0	0	0	0	0	1
OTU 127	9	0	0	3	0	0	0	4	1	0	2	4	1	0	0	0	2	0	0	0	1	0	0	0	2	4	4	0	0	1	0	49	0	0	0	26	0	0	0	0	1	0	2	0	0	2	0	0	5	0
OTU 128	9	34	8	6	1	7	8	9	3	3	4	14	2	8	1	34	3	11	8	2	5	44	16	3	19	8	14	3	12	0	8	9	75	5	70	3	3	3	6	1	5	3	32	3	2	2	3	10	2	3
OTU 129	0	0	0	0	0	4	0	0	0	0	0	0	2	0	0	0	0	0	0	0	0	0	0	0	0	0	0	0	0	0	0	0	0	1	0	0	3	0	0	0	0	1	4	0	0	1	0	0	0	0
OTU 130	2	0	3	0	8	2	0	5	3	0	0	3	1	0	0	0	16	12	3	0	1	0	11	10	0	81	0	0	0	0	1	0	0	3	2	0	1	5	9	25	0	0	0	2	3	0	15	0	0	0
OTU 131	4	5	2	0	14	0	0	0	2	1	0	0	3	1	3	104	0	0	8	0	0	2	1	0	88	1	0	0	19	0	3	2	0	1	1	1	0	5	0	9	0	2	7	0	0	3	14	15	4	0
OTU 132	1	0	0	1	7	0	0	0	0	0	0	0	0	0	1	0	1	0	0	0	0	0	7	0	0	3	0	0	1	10	0	1	0	1	3	0	0	2	1	0	0	2	0	1	0	0	0	0	0	0
OTU 133	0	0	0	0	1	0	0	0	0	1	0	0	0	5	0	0	1	0	0	0	0	0	0	1	1	0	0	0	0	2	0	0	0	0	2	0	0	1	0	0	0	0	1	0	0	1	0	0	0	0
OTU 134	2	0	0	0	0	0	7	0	0	2	0	0	6	0	0	0	2	0	0	0	0	0	1	0	8	0	6	0	3	0	2	0	3	1	0	1	0	0	0	0	1	0	0	0	0	1	0	0	0	0
OTU 135	2	0	0	0	8	1	0	5	5	2	2	0	0	0	4	2	2	0	0	0	0	0	0	2	0	0	2	2	1	5	9	0	0	0	1	2	0	4	0	2	0	8	0	0	0	1	0	0	1	0
OTU 136	2	2	0	1	0	3	0	0	0	0	0	0	0	1	0	0	2	0	0	0	0	0	4	0	3	0	4	0	1	2	2	17	4	0	1	16	1	1	0	0	6	0	0	0	0	0	0	0	0	0
OTU 137	0	0	0	0	0	0	0	0	0	3	1	0	0	0	1	38	0	0	0	0	0	0	0	0	3	0	0	0	0	1	7	27	0	1	0	13	0	0	3	1	3	0	0	0	0	0	2	0	0	0
OTU 138	0	0	0	0	0	0	0	0	0	3	4	0	0	0	3	3	4	0	0	0	0	0	0	0	0	5	0	0	0	0	6	0	0	2	0	0	0	1	0	0	0	0	0	0	0	0	1	0	0	6
OTU 139	0	4	55	4	0	0	0	0	2	19	6	12	11	0	26	2	3	2	12	35	2	2	0	7	3	0	10	10	10	7	8	1	5	1	4	1	1	1	5	3	4	17	27	50	1	1	1	0	32	13
OTU 140	15	1	0	3	9	7	10	0	12	2	2	3	0	12	0	2	5	0	2	1	4	0	0	0	2	3	4	4	4	2	23	2	5	3	0	0	26	2	3	2	14	4	1	0	1	12	0	3	1	3
OTU 141	0	0	0	0	0	0	0	0	0	0	0	0	0	0	0	0	0	0	0	0	1	0	3	0	0	0	0	0	0	0	0	0	0	0	0	0	0	0	0	0	0	0	0	0	0	0	0	0	0	0
OTU 142	0	0	0	0	0	0	0	0	2	0	0	0	0	0	0	0	0	0	0	0	0	0	0	0	0	0	0	0	0	0	0	0	0	0	0	0	0	0	0	0	0	0	0	0	0	0	0	0	0	0
OTU 143	0	1	0	1	0	0	2	0	0	1	0	0	0	1	0	0	0	1	0	0	0	0	0	0	0	0	1	0	1	0	1	0	0	1	0	0	0	1	0	0	0	0	0	0	0	0	1	0	0	1
OTU 144	0	0	0	0	3	0	0	1	0	0	0	0	0	0	0	0	0	0	0	0	0	0	0	0	0	0	0	0	0	0	1	0	0	0	0	0	0	0	0	0	2	4	0	0	0	0	0	1	0	0
OTU 145	4	0	0	4	0	0	2	1	5	0	2	0	2	10	1	2	10	0	1	0	5	0	2	0	0	1	2	0	3	2	3	1	0	5	0	0	1	1	0	3	1	4	2	0	0	1	1	0	0	0
OTU 146	0	0	0	0	1	3	0	14	0	1	2	0	0	1	0	0	0	1	8	0	0	0	0	5	0	3	0	4	0	5	0	4	3	0	1	1	0	2	4	2	3	6	1	0	5	0	6	2	0	0
OTU 147	0	0	0	2	1	0	0	0	2	0	0	0	1	2	1	4	0	0	0	0	3	0	0	0	0	2	1	0	0	0	1	0	9	0	0	0	0	0	0	0	0	3	0	0	0	0	0	1	0	1
OTU 148	0	0	0	11	1	0	5	1	0	0	2	34	0	5	3	1	45	3	0	2	1	0	8	5	5	1	0	0	5	2	0	2	2	1	2	2	3	1	0	9	0	1	0	1	2	13	5	0	0	1
OTU 149	0	1	0	0	0	0	0	0	0	0	0	0	0	1	0	0	1	0	0	0	0	0	1	0	0	0	0	1	2	4	0	0	0	1	0	0	0	1	1	0	0	0	0	0	0	0	1	0	3	0
OTU 150	0	0	0	0	2	0	0	2	1	0	0	1	0	0	1	0	0	0	0	0	0	0	1	0	2	4	3	1	0	1	0	0	0	0	0	1	0	0	0	0	0	0	0	0	2	0	0	0	0	0
OTU 151	0	1	0	0	1	0	1	0	0	0	0	0	2	0	1	0	3	2	28	0	0	0	0	1	0	1	0	0	0	1	0	0	14	1	0	0	0	0	1	1	4	0	0	0	0	0	1	0	0	0
OTU 152	7	0	0	1	3	0	0	1	0	1	1	1	1	1	1	0	0	0	0	0	0	0	0	3	2	0	6	3	0	0	3	0	0	0	0	0	0	0	1	0	4	0	0	0	0	1	0	0	1	1
OTU 153	0	0	0	0	0	0	0	0	0	0	0	1	0	0	0	0	0	1	0	0	0	0	0	0	0	1	0	0	0	0	0	0	0	2	0	0	0	0	0	0	0	0	0	0	0	0	0	1	0	0
OTU 154	0	0	0	0	0	0	0	0	0	0	0	0	0	0	0	0	0	0	0	0	0	0	0	0	0	0	0	0	0	0	0	0	0	4	0	0	0	0	0	0	0	1	0	0	0	0	0	0	14	0
OTU 155	0	0	0	0	1	32	1	0	0	2	0	2	0	4	0	3	0	0	1	0	0	0	1	0	1	0	0	0	0	0	6	0	0	3	0	0	0	1	1	0	1	0	0	0	0	0	1	1	0	0
OTU 156	2	0	0	8	11	0	2	0	14	0	1	5	3	1	0	0	10	0	0	0	1	2	3	5	0	0	2	0	3	2	7	0	7	2	2	1	0	1	0	5	13	0	1	0	0	7	0	0	5	0
OTU 157	0	0	0	0	8	4	0	0	1	0	0	0	2	0	1	0	3	0	0	0	0	0	0	8	0	2	0	0	0	0	0	0	0	0	0	0	0	0	0	0	0	0	0	2	0	0	0	0	13	0
OTU 158	0	0	0	0	0	0	0	0	0	0	0	2	2	0	0	0	0	0	0	0	0	0	0	0	0	0	0	0	0	0	0	0	0	0	0	0	0	0	0	0	0	0	0	0	0	0	0	1	0	0
OTU 159	1	0	2	1	1	0	0	2	12	0	0	0	0	0	0	2	0	0	0	0	0	0	0	0	0	0	2	0	2	0	0	0	6	0	1	0	1	0	0	1	0	0	0	0	0	2	0	0	0	0
OTU 160	1	8	0	1	3	0	1	2	6	2	11	0	1	7	9	7	5	3	0	0	49	1	19	9	10	7	1	2	4	14	7	20	2	15	7	3	0	15	24	1	6	2	2	0	1	7	3	1	7	4
OTU 161	4	0	0	0	1	5	1	0	0	0	0	4	1	0	5	1	0	0	0	1	0	0	0	0	1	1	0	1	0	1	3	0	0	1	1	0	0	2	0	0	4	1	0	0	0	0	1	0	4	3
OTU 162	0	1	0	0	6	3	8	1	0	10	1	7	4	1	3	0	0	1	3	0	0	1	0	16	0	1	0	1	0	1	0	1	1	0	0	12	0	0	2	0	0	1	0	1	0	1	1	1	0	2
OTU 163	0	0	0	0	0	0	0	0	0	0	0	0	0	0	0	0	0	0	0	0	0	0	0	0	0	0	0	0	0	2	0	0	0	0	0	0	0	0	0	0	0	0	0	0	0	0	0	0	0	0
OTU 164	0	0	0	0	0	0	0	1	0	0	0	0	0	0	0	0	0	0	0	0	0	0	0	0	0	0	0	0	0	0	0	0	0	0	0	0	0	0	0	0	0	0	0	0	0	0	0	0	0	0
OTU 165	2	0	0	0	3	0	0	0	4	0	0	1	0	1	0	0	3	2	0	0	0	0	0	0	2	2	0	0	5	0	0	0	0	5	2	0	0	0	4	0	0	1	1	1	0	0	0	1	2	0
OTU 166	0	0	0	0	0	0	0	0	0	0	0	0	0	0	0	0	0	0	0	0	0	0	0	0	0	0	0	0	0	0	0	1	0	0	0	0	0	0	0	0	0	0	0	0	0	0	0	0	0	0
OTU 167	0	1	0	4	0	2	0	2	0	1	0	0	0	0	0	0	1	0	0	0	0	1	1	0	0	1	0	0	0	0	0	0	0	1	0	0	0	0	0	0	1	0	0	0	3	2	0	0	2	0
OTU 168	0	1	0	0	0	4	2	6	0	0	0	7	3	0	2	0	1	1	3	0	1	0	0	1	1	1	1	1	0	0	19	4	1	1	1	0	0	0	6	3	1	0	0	0	0	0	1	0	0	0
OTU 169	0	1	0	0	0	0	0	0	0	0	0	0	0	3	1	0	0	0	0	0	1	2	0	0	0	1	0	0	0	0	0	0	2	0	0	0	0	0	2	0	1	0	1	0	0	0	0	0	0	0
OTU 170	0	0	0	0	0	0	0	0	0	0	0	0	0	0	0	0	0	0	0	0	0	0	0	0	0	0	0	0	0	1	0	0	0	0	0	0	0	0	0	0	0	0	0	0	0	0	0	0	1	0
OTU 171	0	0	19	0	2	6	3	2	0	0	0	2	0	4	0	2	0	3	0	8	3	0	0	1	0	0	0	0	2	1	4	2	0	1	0	4	0	1	0	1	0	1	0	2	0	10	2	2	0	0
OTU 172	0	0	0	0	1	1	0	0	0	0	0	0	0	0	0	0	0	0	0	0	0	0	0	0	1	0	0	0	2	1	1	0	0	0	0	0	1	0	0	0	0	0	0	0	0	0	0	0	0	0
OTU 173	0	0	0	0	0	0	0	0	0	0	0	7	0	1	1	0	0	0	0	0	0	0	0	0	1	0	0	0	8	1	0	2	0	0	0	0	0	0	0	1	0	0	1	0	0	0	0	1	0	0
OTU 174	0	0	0	1	3	0	1	0	0	5	1	18	3	0	18	0	1	0	0	0	0	0	0	0	0	0	0	4	0	1	0	1	0	0	1	0	0	0	0	0	2	0	0	0	0	0	0	0	4	10
OTU 175	0	0	0	0	3	0	1	0	1	0	1	0	0	4	0	0	0	5	0	0	0	0	4	0	0	0	1	9	2	0	2	0	1	2	0	0	1	0	0	0	0	0	0	0	0	1	0	0	1	0
OTU 176	3	0	1	1	2	0	3	0	2	1	1	0	0	0	0	1	1	0	1	1	0	0	0	1	0	2	0	0	0	1	6	1	3	0	1	0	0	4	2	12	1	13	3	0	0	5	4	1	16	5
OTU 177	0	0	4	1	1	7	2	1	2	3	4	0	3	0	0	2	2	0	0	0	0	0	0	0	2	0	5	2	0	6	0	0	1	0	3	2	0	7	0	3	2	1	1	0	0	1	0	1	2	0
OTU 178	0	1	0	0	0	0	0	0	0	1	0	0	143	1	0	0	0	0	1	0	0	1	0	0	0	0	0	1	41	5	0	2	7	1	0	1	0	0	0	0	0	4	1	0	0	1	1	3	2	0
OTU 179	0	1	1	0	0	0	0	4	0	0	0	2	0	0	0	2	0	80	0	1	0	2	2	0	1	1	0	0	0	1	0	0	0	1	0	0	0	0	0	0	2	0	0	1	1	0	2	0	0	0
OTU 180	12	4	0	22	2	7	1	58	29	1	132	5	1	14	2	7	3	13	7	1	3	6	1	1	28	11	113	0	1	1	2	12	3	4	5	8	12	10	70	3	9	4	17	0	28	9	4	0	4	4
OTU 181	0	3	0	0	0	0	0	0	0	4	1	0	0	0	0	0	0	0	2	0	0	0	1	12	0	4	0	0	5	0	0	0	0	0	1	0	0	0	1	0	0	0	0	0	0	1	0	0	8	0
OTU 182	0	0	0	0	0	0	0	0	0	1	0	0	0	0	0	0	0	0	0	1	0	0	0	0	0	1	0	0	1	0	0	0	0	0	0	0	49	0	0	0	0	0	0	0	0	0	0	0	0	0
OTU 183	0	1	0	0	1	0	0	0	2	13	0	9	1	0	0	0	2	4	0	0	0	1	2	0	0	10	0	0	1	3	0	0	4	0	0	0	0	0	1	0	1	0	0	0	0	0	0	0	0	0
OTU 184	2	0	0	0	0	0	0	1	1	0	0	0	0	0	0	0	0	0	0	1	0	0	0	1	0	0	0	0	2	2	0	0	0	0	0	0	1	0	0	0	0	0	4	0	0	1	0	0	0	0
OTU 185	3	2	0	8	1	5	0	0	8	0	0	1	3	16	0	2	1	4	6	0	5	0	0	1	2	0	0	40	3	0	0	0	0	5	0	0	0	0	0	6	3	0	1	0	0	0	1	27	0	4
OTU 186	6	0	0	0	0	0	1	0	0	0	3	6	0	3	0	0	0	0	2	0	0	0	0	0	1	0	3	0	0	0	0	0	0	0	0	0	0	0	0	0	0	0	0	0	0	0	0	0	0	0
OTU 187	1	2	1	3	1	4	4	10	2	2	1	0	2	2	3	3	3	5	1	0	5	0	2	2	2	4	1	2	0	1	4	0	2	0	10	0	1	3	0	7	1	0	1	5	7	0	5	0	9	3
OTU 188	6	0	136	2	4	5	0	0	1	5	4	3	4	1	6	2	2	1	0	55	2	0	0	8	3	5	0	0	1	1	7	0	0	8	3	0	0	2	5	1	14	4	2	70	0	0	0	0	11	0
OTU 189	0	0	1	3	0	2	0	3	5	0	3	11	1	0	5	7	4	2	2	0	3	0	0	3	0	0	0	0	0	3	2	1	1	1	0	2	3	0	2	0	5	0	5	1	0	2	0	0	3	0
OTU 190	0	1	0	0	1	0	0	0	0	0	1	0	0	0	0	0	0	0	2	0	0	0	1	0	3	0	0	0	0	0	0	1	0	0	2	0	0	6	0	0	0	0	34	0	1	0	0	2	0	0
OTU 191	2	0	1	2	2	1	0	21	0	0	0	4	0	1	0	3	0	1	1	0	0	2	0	5	1	0	10	1	2	11	1	4	1	40	3	3	0	1	1	2	0	6	0	0	7	0	3	0	3	0
OTU 192	4	3	0	1	8	4	2	3	1	0	2	0	0	1	1	0	17	0	0	2	1	1	6	5	1	0	1	2	5	3	0	1	6	0	0	0	15	0	0	37	1	10	3	0	5	14	7	1	7	0
OTU 193	4	1	1	1	0	31	0	0	0	3	1	2	0	0	1	0	5	1	3	0	0	0	13	1	2	2	0	0	16	0	2	0	0	23	12	9	0	9	0	0	0	0	2	2	0	0	0	0	4	0
OTU 194	0	6	2	1	2	0	1	0	0	6	0	0	6	2	0	1	0	0	0	0	0	3	0	1	0	0	3	0	0	0	1	0	3	1	0	0	0	0	0	1	0	0	0	0	0	0	1	0	0	1
OTU 195	3	0	0	0	1	0	0	0	0	0	1	0	0	1	0	0	0	1	1	0	0	0	0	0	0	1	3	2	0	7	5	1	3	0	0	1	3	0	0	0	0	0	0	0	0	0	0	0	1	2
OTU 196	0	1	1	0	1	1	112	0	0	0	3	0	0	0	1	3	0	0	0	20	1	1	0	1	0	0	0	1	5	0	0	0	2	1	0	0	1	0	1	0	0	0	0	0	0	5	0	2	0	0
OTU 197	3	3	2	0	2	3	16	0	0	3	66	0	0	1	0	4	10	2	0	0	5	1	9	1	0	0	0	0	3	10	3	3	1	3	2	1	0	1	4	2	6	11	0	0	29	2	0	0	1	0
OTU 198	0	0	0	0	0	0	0	0	1	2	2	0	3	0	0	0	0	0	1	0	0	0	1	0	0	0	0	0	1	0	0	0	0	1	0	0	0	0	0	0	0	0	0	0	0	0	0	0	0	0
OTU 199	0	0	0	0	0	0	0	3	1	0	0	0	0	0	0	0	0	2	0	0	0	0	0	0	0	3	2	0	0	0	0	0	1	0	0	0	0	0	0	0	0	0	0	0	5	0	0	0	0	1
OTU 200	0	0	0	0	10	0	2	3	1	0	0	2	0	0	5	1	1	0	0	0	0	0	0	0	2	0	0	1	1	2	0	0	0	0	3	0	0	4	2	0	1	6	0	6	0	1	0	0	9	2
