	Host 1	Host 2	Host 3	Host 4	Host 5	Host 6	Host 7	Host 8	Host 9	Host 10	Host 11	Host 12	Host 13	Host 14	Host 15	Host 16	Host 17	Host 18	Host 19	Host 20	Host 21	Host 22	Host 23	Host 24	Host 25	Host 26	Host 27	Host 28	Host 29	Host 30	Host 31	Host 32	Host 33	Host 34	Host 35	Host 36	Host 37	Host 38	Host 39	Host 40	Host 41	Host 42	Host 43	Host 44	Host 45	Host 46	Host 47	Host 48	Host 49	Host 50	
OTU 1	22	29	0	34	1	692	6	26	328	8	51	17	23	26	45	16	2	22	849	10	64	0	11	659	1	0	53	472	31	23	1	25	0	0	20	17	59	858	207	46	66	22	1	8	0	17	27	41	1702	0
OTU 2	1	13	2	5	5	0	0	12	1	0	0	0	6	1	3	195	120	20	0	0	333	0	0	0	3	0	0	0	1	9	10	0	31	11	0	3	6	0	26	2	2	1	36	1	39	11	8	1	0	27
OTU 3	1	3	0	0	0	2	1	2	11	70	4	0	0	0	0	27	99	0	4	3	30	1	0	0	0	70	0	6	14	98	21	0	21	4	5	12	0	4	10	0	1	64	32	14	10	2	1	0	9	4
OTU 4	0	0	0	0	0	0	0	0	0	0	0	9	0	0	0	0	0	0	0	0	0	0	0	0	0	0	13	0	1	0	0	0	0	0	0	0	0	0	0	0	0	0	0	0	0	0	0	0	0	0
OTU 5	25	234	87	142	34	232	897	1300	133	269	313	177	689	680	624	162	124	166	1731	12	354	0	784	71	564	107	11	528	187	81	2154	117	5	0	0	139	1107	93	113	810	125	5	571	220	45	369	338	107	142	123
OTU 6	17	6	1	438	1	2824	14	13	3	44	11	20	68	11	2	34	107	5	0	1	20	6	1	4	19	2	35	0	0	63	1	4	9	16	30	9	4	0	0	10	0	139	1	88	40	0	63	6	0	7
OTU 7	48	85	22	44	200	33	50	63	23	109	970	18	9	239	67	5	154	48	10	299	7	64	12	28	25	83	61	32	76	168	1511	12	8	68	183	762	46	54	28	47	468	87	48	17	86	852	2004	29	12	112
OTU 8	32	64	69	19	187	6	307	212	3	81	166	20	695	154	83	37	70	9	1	58	4	175	41	19	170	36	35	1	520	24	579	5	28	33	11	694	138	0	13	80	234	24	140	28	89	254	1021	45	2	49
OTU 9	86	0	125	0	35	2	6	41	3728	10	25	0	0	46	20	0	22	75	1	0	12	22	1	1	6	1	4	0	19	33	30	101	52	0	0	0	0	0	0	4	0	5	12	37	67	1	6	99	2	0
OTU 10	21	15	3	5	0	3	0	9	0	0	42	2	1	33	30	10	16	18	0	21	85	2	1	0	16	7	16	1	0	9	39	15	0	49	10	51	0	0	0	7	5	5	55	8	5	13	13	14	0	6
OTU 11	192	24	11	41	38	4	82	12	20	11	38	13	59	8	10	17	47	7	3	31	2	23	0	1	21	12	10	3	50	21	26	96	36	16	26	11	108	3	5	11	4	2	48	53	8	256	3	18	10	8
OTU 12	88	20	6	251	111	2	103	24	275	10	24	45	46	1	90	28	165	8	20	42	54	55	3	16	116	53	89	5	32	2	1	47	152	40	122	18	1	13	4	33	2	130	47	43	32	23	4	42	29	109
OTU 13	0	0	0	4	0	0	0	2	0	0	5	1	1	12	1	0	0	0	0	0	0	0	4	0	1	8	1	1	1	0	0	0	0	0	10	0	0	0	1	0	0	0	0	0	0	8	0	0	0	0
OTU 14	0	0	37	29	7	9	15	3	0	0	83	3	16	59	7	3	2	15	1	0	27	0	2	1	15	280	21	10	57	6	0	2	71	32	0	7	0	5	1	8	7	27	1	0	16	1	159	0	8	0
OTU 15	0	0	1	0	0	0	0	0	0	0	0	0	0	0	0	1	0	0	0	0	0	0	0	0	0	2	0	0	0	0	0	0	0	0	0	0	3	0	0	0	0	0	0	0	0	0	45	0	0	0
OTU 16	0	0	0	0	0	0	2	0	0	1	0	0	3	0	0	0	0	0	0	0	0	0	0	0	0	0	0	0	0	0	0	0	0	0	0	0	0	0	0	0	0	0	21	0	2	0	0	4	0	8
OTU 17	70	22	1	9	28	0	11	17	38	6	0	40	5	7	34	1	73	20	3	228	8	2	70	8	39	31	131	13	93	1	0	33	20	87	573	2	0	3	71	0	0	5	1	19	0	4	2	5	11	6
OTU 18	111	133	156	1	180	8	4	24	5	0	32	11	2	12	79	544	52	4	2	3	767	26	53	8	23	76	7	4	78	14	1	47	132	47	70	12	26	2	23	45	16	17	51	16	29	21	10	9	2	225
OTU 19	0	0	1	0	0	0	0	0	0	0	2	0	0	0	0	0	0	0	0	0	0	0	0	0	0	0	0	0	0	0	0	0	0	0	0	0	0	0	0	0	0	0	0	0	0	0	0	0	0	0
OTU 20	4	25	25	2	102	6	146	17	0	0	133	10	185	11	7	8	104	26	10	21	12	104	22	3	34	7	60	0	17	44	145	16	151	85	34	75	105	2	23	13	128	28	19	24	1	305	159	40	13	295
OTU 21	30	2	362	27	22	834	2	11	286	105	296	8	287	116	55	125	17	12	535	58	273	41	1	487	12	1684	18	310	0	34	64	21	6	286	0	2	43	621	19	10	37	107	27	0	3	139	201	3538	1108	0
OTU 22	15	2	24	1	74	92	5	4	6	15	201	35	22	55	12	0	148	0	60	125	0	0	2	44	5	66	45	30	10	18	108	13	92	20	516	110	162	71	12	41	73	209	0	177	5	162	357	8	143	15
OTU 23	134	0	1	15	103	7	10	1	2	1	2	0	49	36	8	5	0	0	0	23	36	0	0	19	4	50	6	0	16	25	50	62	0	18	67	0	12	0	9	9	0	32	3	0	21	37	2	25	0	13
OTU 24	88	0	73	2	2	0	26	140	2	1	381	0	65	26	3	3	74	1	0	0	18	0	3	0	5	85	0	0	14	27	72	37	92	2	0	2	5	0	6	4	20	0	0	7	2	3	0	1	0	3
OTU 25	0	0	0	129	0	0	0	153	0	0	0	0	0	3	3	2	0	0	0	0	0	0	0	0	0	0	0	0	40	0	0	0	0	0	0	0	1	0	8	2	18	0	5	0	6	0	0	0	0	0
OTU 26	0	0	25	0	0	0	64	7	1	0	0	0	0	0	53	3	0	0	0	14	0	0	0	6	0	0	0	0	48	0	8	0	13	0	0	5	23	0	0	0	0	5	2	0	0	5	3	1	0	0
OTU 27	158	0	0	9	0	0	0	0	2	0	0	0	0	0	0	0	0	0	0	3	0	4	0	0	0	0	0	0	0	0	0	58	0	32	0	0	0	0	0	0	0	0	0	0	0	0	0	5	0	0
OTU 28	40	34	213	72	84	0	20	225	1	181	176	6	80	26	98	33	51	34	12	99	57	31	3	2	2	48	24	12	102	10	487	11	20	38	71	292	17	12	21	56	251	21	114	39	32	246	520	1	26	11
OTU 29	13	16	66	2	4	730	22	48	559	70	1	1	43	13	102	85	68	8	740	97	40	359	14	1064	43	10	13	386	82	877	13	12	8	25	54	3	20	793	11	48	1	7	34	3	17	2	4	13	1560	43
OTU 30	0	0	0	0	0	0	1	0	0	0	0	6	0	0	0	0	0	0	0	0	0	0	0	0	0	0	12	0	0	0	0	0	0	0	0	0	0	0	0	0	0	0	0	0	0	0	0	0	0	0
OTU 31	3	1	37	11	2	2	18	25	4	1	0	16	5	33	34	0	21	0	3	14	3	1	30	1	0	73	15	2	385	70	0	1	23	0	2	3	0	2	0	32	0	48	15	29	0	2	1	1	3	175
OTU 32	8	6	38	57	78	0	27	46	0	0	47	54	67	10	18	5	119	127	15	3	40	44	120	12	3	0	105	19	25	25	47	12	9	9	29	21	9	28	4	7	42	169	22	24	40	22	68	10	39	84
OTU 33	0	2	1	0	0	0	0	0	0	0	0	0	0	0	0	0	35	0	0	15	0	0	0	0	0	1	0	3	0	0	0	0	0	0	0	0	0	3	0	0	0	0	18	0	0	0	0	0	0	0
OTU 34	3	76	15	16	0	49	1	53	25	1	12	5	5	178	106	53	167	6	64	23	91	45	17	20	74	15	12	4	19	15	19	9	192	66	15	15	638	34	2	74	20	7	2	7	7	88	0	2	142	358
OTU 35	15	0	3	1	43	0	313	11	5	1	0	168	32	29	20	8	75	0	9	14	6	226	26	0	579	5	254	14	116	8	70	110	0	132	1	47	55	16	84	2	21	28	18	14	1605	36	0	10	22	226
OTU 36	20	0	2	48	19	33	64	1	5	11	0	0	17	1	0	1	10	5	12	60	40	15	106	10	13	40	0	1	61	3	9	3	26	20	0	17	66	12	98	3	0	50	58	636	33	65	28	1	18	10
OTU 37	0	28	0	14	3	0	3	2	0	0	0	0	0	195	2	0	0	1	0	0	3	0	0	0	21	210	1	0	0	18	0	1	6	0	2	3	0	0	1	0	1	109	8	3	0	0	22	8	0	57
OTU 38	36	142	128	112	0	1	52	11	18	0	24	1	168	9	694	25	51	8	9	19	21	46	16	16	29	5	1	7	28	4	18	36	13	28	24	2	11	3	15	324	10	12	12	0	44	25	52	99	20	8
OTU 39	0	4	6	177	8	0	0	9	3	0	8	0	0	0	0	7	0	0	0	58	2	2	2	0	0	40	0	0	1	0	23	4	0	29	0	18	14	0	0	0	1	3	5	5	84	0	0	1	0	0
OTU 40	28	10	15	33	111	2	20	27	1	6	16	23	11	39	2	22	50	21	4	10	149	16	17	10	34	205	36	0	41	5	42	13	13	40	4	94	38	0	31	38	82	115	17	2	10	5	52	9	7	9
OTU 41	10	29	23	68	2	9	27	110	0	2	0	29	7	71	211	26	18	36	0	86	55	10	6	0	3	20	20	0	297	34	103	2	70	11	242	5	1	0	33	50	9	19	26	42	0	9	0	1	0	142
OTU 42	72	3	0	66	13	0	2	0	1	0	0	1	0	0	10	0	12	9	3	14	0	12	0	7	0	0	0	0	0	0	10	23	2	0	0	0	39	3	0	26	3	2	0	6	75	6	0	21	5	0
OTU 43	0	0	0	0	0	0	0	0	6	0	2	0	0	0	0	0	0	0	0	0	0	0	0	2	1	0	0	0	20	3	0	0	1	0	0	0	8	0	0	0	0	0	0	0	0	0	0	0	0	0
OTU 44	0	2	4	0	2	0	0	7	0	37	52	1	1	0	0	6	4	2	0	0	0	53	0	1	165	66	0	0	19	0	0	5	6	2	17	2	0	0	14	8	0	1	0	0	0	0	2	0	0	12
OTU 45	106	12	3	3	144	3	44	2	5	23	6	0	43	128	3	1	97	19	9	142	11	68	19	10	13	91	1	1	6	13	1	21	9	85	79	5	66	6	7	12	42	72	26	2	24	2	0	7	17	40
OTU 46	61	32	7	100	73	2	93	14	0	37	18	14	40	90	24	76	17	37	4	49	20	8	41	13	40	41	49	0	15	105	31	6	6	21	24	46	17	5	22	94	36	71	43	96	14	2639	13	12	3	0
OTU 47	18	0	0	0	0	0	0	0	0	15	0	16	25	0	0	1	121	1	0	0	0	0	1	0	0	3	6	0	0	0	0	36	0	0	0	1	31	0	0	0	0	0	3	0	0	0	0	31	0	0
OTU 48	12	21	126	13	18	25	55	22	0	239	38	11	428	29	75	4577	45	640	3	52	128	62	0	1	397	169	11	1	211	372	88	16	24	203	10	86	3	0	49	6	4	151	24	24	15	37	0	2	8	3
OTU 49	64	1	41	16	31	0	30	0	0	6	11	10	25	9	32	26	1	0	3	17	1	91	35	0	96	31	7	0	20	7	10	15	56	1	1	1	20	0	2	3	2	87	11	7	0	19	1	39	4	2
OTU 50	87	6	30	60	412	32	2	54	4	44	35	23	16	12	14	2	42	22	7	85	0	10	6	3	42	80	17	3	12	193	36	30	111	27	56	132	55	21	1	97	107	36	486	92	41	1	101	26	15	104
OTU 51	42	8	4	16	13	4	1	15	0	8	3	18	39	5	14	7	4	0	0	0	2	18	1	0	32	0	8	0	3	51	13	37	10	0	6	18	13	0	0	28	30	42	0	24	46	8	4	6	0	60
OTU 52	137	2	26	33	108	49	37	21	16	125	22	17	36	210	29	83	217	10	11	96	75	122	14	22	5	26	49	13	608	63	52	68	27	12	87	18	89	22	56	33	42	2	51	33	60	51	6	133	25	62
OTU 53	0	0	0	0	0	0	13	0	0	0	0	0	1	0	19	0	0	0	0	0	0	0	0	0	0	0	0	0	0	0	0	0	0	0	0	0	0	0	0	0	0	0	0	0	0	0	0	0	0	0
OTU 54	72	16	20	10	17	27	128	59	13	23	106	12	89	17	31	898	11	120	1	31	1877	48	19	29	130	43	23	0	42	98	60	46	60	33	82	23	41	2	1	18	54	127	142	51	4	40	69	106	3	250
OTU 55	0	2	0	0	0	0	0	0	0	0	8	0	0	0	1	0	0	14	0	0	0	0	0	1	0	0	0	0	0	0	0	0	0	0	0	0	0	0	0	0	0	0	0	0	2	0	0	0	0	0
OTU 56	2	36	9	5	73	12	3	3	15	223	0	0	31	13	54	11	54	37	4	5	28	37	6	14	31	0	0	0	36	7	0	6	1	0	0	0	22	1	0	1	0	3	113	0	0	151	2	20	10	32
OTU 57	224	555	87	19	375	15	39	52	17	107	2	129	1521	215	28	5	156	202	24	224	12	241	53	29	99	113	254	20	86	262	202	126	118	46	190	12	3	18	109	1112	19	48	102	206	45	112	74	81	49	255
OTU 58	0	17	0	0	1	0	117	18	1	91	7	1	0	4	9	2	1	36	2	7	14	8	0	0	0	31	4	0	0	0	2	1	3	7	115	0	0	1	11	45	5	0	1	0	1	4	0	1	8	0
OTU 59	8	11	0	40	2	0	0	117	0	2	5	50	4	6	53	4	224	19	0	57	0	16	16	5	1	3	86	1	54	19	0	2	2	6	30	2	55	1	20	39	13	58	4	9	1	8	1	15	2	1
OTU 60	40	0	8	34	116	10	9	41	10	288	3	1	1	44	4	66	83	55	17	16	113	156	101	34	2	54	10	7	182	73	4	17	8	84	38	1	95	25	76	43	21	5	77	73	3	23	44	58	31	26
OTU 61	40	61	9	68	207	37	3	136	2021	525	4	2	5	21	87	317	5	8	1099	9	585	82	29	4085	21	8	3	12	511	177	6	8	18	87	25	107	73	67	121	97	19	36	51	60	136	8	6	33	59	53
OTU 62	0	2	10	0	3	0	1	28	0	5	0	1	18	1	0	2	3	27	0	1	0	3	0	0	2	26	0	0	0	33	33	6	8	47	0	15	8	0	0	0	0	3	1	6	0	4	48	13	0	0
OTU 63	27	7	0	0	9	1	2	9	0	35	0	45	0	5	51	2	22	4	4	265	0	0	7	1	0	120	98	8	0	26	5	8	77	56	89	24	19	5	3	0	0	7	51	87	0	0	6	33	19	0
OTU 64	21	39	12	24	100	32	13	42	46	60	71	10	17	148	147	10	171	18	12	65	56	175	143	89	81	17	15	5	14	26	82	2	63	266	8	9	44	16	50	20	8	23	6	57	38	26	57	1	29	47
OTU 65	0	0	0	0	0	0	0	0	0	0	0	0	4	0	3	1	0	0	4	0	4	0	0	0	0	0	0	0	34	0	0	6	0	0	0	2	0	0	0	0	0	126	0	0	6	7	0	0	1	0
OTU 66	36	13	49	47	205	24	0	4	6	1	1	19	1188	63	3	28	179	7	18	0	15	0	0	2	11	0	55	2791	54	165	89	12	1	93	52	2	56	30	23	24	10	35	181	14	4	26	0	136	22	11
OTU 67	0	15	12	59	11	1	16	30	0	24	0	0	62	2	63	7	61	4	0	0	4	16	7	12	0	91	5	0	116	26	2	6	139	2	43	70	1	1	3	25	18	5	16	51	37	932	36	0	1	5
OTU 68	30	7	2	43	266	4	17	0	0	0	5	7	1	0	5	23	0	1	6	0	41	0	0	0	2	2	3	9	0	43	52	30	1	38	11	8	0	11	3	30	2	3	0	2	0	2	151	18	9	38
OTU 69	36	0	52	30	205	9	28	33	0	16	82	2	7	137	59	51	55	12	3	17	32	95	2	2	36	11	17	4	24	151	24	19	71	7	38	456	14	1	1	29	219	12	9	1	3	39	74	3	6	0
OTU 70	91	69	0	6	25	0	105	1	0	2	32	45	2	5	150	0	29	4	1	12	0	54	50	0	19	3	53	0	9	56	0	19	13	12	19	7	7	0	0	61	0	8	0	14	0	3	115	3	2	59
OTU 71	90	24	4	3	36	8	53	70	0	0	48	6	1	1	27	0	30	259	23	0	1	6	0	0	2	15	16	14	0	2	2	31	0	0	2	8	5	23	0	2	1	95	0	92	2	3	90	58	45	0
OTU 72	288	7	98	32	1	24	49	9	16	33	21	9	75	17	33	0	32	27	2	19	0	13	20	12	1	61	10	0	81	14	31	140	19	17	75	1	32	2	21	24	2	104	15	7	89	23	8	50	6	93
OTU 73	59	24	16	111	14	15	0	80	1	212	4	24	23	47	79	7	80	641	2	39	46	1	13	6	17	10	41	1	25	32	12	36	1	122	45	3	13	9	3	23	0	138	4	0	2	146	7	0	7	10
OTU 74	0	1	16	0	0	41	132	19	31	61	30	75	74	260	1	4	27	29	21	104	30	8	38	26	12	4	153	17	100	5	0	0	194	268	82	52	269	34	16	3	95	57	29	92	11	12	1	26	58	6
OTU 75	7	39	99	0	124	13	12	49	2	202	10	52	68	18	21	512	56	27	14	66	939	43	16	4	3	250	93	2	10	5	7	8	16	519	416	57	159	6	183	0	27	141	12	20	7	35	73	34	20	130
OTU 76	116	111	34	15	0	0	1	1	0	89	45	1	36	1	215	0	1	0	1	5	0	0	0	0	0	0	4	2	0	0	0	60	50	15	75	0	0	1	5	204	0	1	67	5	12	8	0	110	4	2
OTU 77	66	1	4	17	22	4	107	139	1	22	126	43	155	27	46	13	4	20	16	6	15	4	18	0	16	3	47	254	20	72	55	43	104	8	33	5	7	15	8	1	18	164	19	7	99	1	33	10	31	1
OTU 78	119	0	20	6	1	6	4	31	7	10	4	0	21	62	51	9	0	16	0	21	15	5	27	1	2	214	2	62	66	234	6	50	21	280	51	4	1	131	3	3	2	2	4	36	21	2	33	65	0	79
OTU 79	37	57	240	161	189	22	64	110	21	686	63	132	65	51	263	93	316	179	6	1017	187	73	112	14	88	74	257	5	68	295	43	7	155	485	305	238	70	3	61	48	186	481	130	60	123	58	96	157	14	226
OTU 80	30	7	108	10	158	1	205	67	14	114	0	2	3	111	56	4	1	9	9	34	19	71	4	21	106	140	15	15	32	28	32	11	89	27	162	8	30	20	98	1	27	71	102	30	11	80	10	16	20	31
OTU 81	215	24	250	23	16	32	196	182	8	6	85	44	18	6	195	146	94	10	13	40	213	83	55	43	15	35	55	17	48	1041	90	116	45	17	17	49	117	20	12	77	51	49	27	199	55	36	205	48	14	47
OTU 82	257	161	0	5	9	8	106	0	1	66	5	21	2	0	57	26	59	51	0	32	33	7	0	5	93	137	5	2	37	0	0	142	18	205	55	17	0	2	4	234	11	15	39	0	16	2	5	81	0	11
OTU 83	9	2	0	6	0	0	0	0	0	1	0	8	4	0	0	0	0	0	0	1	0	0	22	0	0	1	11	0	1	0	0	5	72	14	30	0	0	1	0	1	2	4	0	6	11	0	0	1	0	10
OTU 84	1	57	9	0	22	1	31	5	0	13	2	46	3	1	77	0	1	331	0	179	25	73	9	1	0	25	57	0	4	26	29	0	1	0	270	23	1	0	0	55	0	50	54	25	8	14	19	7	1	38
OTU 85	0	1	0	9	12	1	0	3	0	0	13	5	0	0	0	6	5	35	3	3	10	21	11	0	10	0	37	0	2	6	1	0	20	0	3	8	0	0	29	0	0	2	0	16	0	0	0	3	5	11
OTU 86	0	0	14	0	0	0	0	0	0	0	0	18	0	0	0	0	0	0	2	4	0	5	0	20	0	0	59	14	0	0	0	7	0	85	0	0	0	7	0	0	0	0	0	0	0	113	6	0	4	0
OTU 87	50	3	1	39	133	0	0	11	1	0	11	3	0	165	122	0	0	0	0	3	0	268	0	7	0	0	0	8	815	6	12	21	2	9	0	2	0	24	0	120	26	91	0	0	0	8	0	117	0	38
OTU 88	0	0	21	51	0	0	78	0	19	0	3	0	2	13	1	1	36	1	0	31	0	0	0	12	0	1	0	0	0	1	1	0	0	0	12	12	0	0	0	0	0	0	0	1	0	30	0	0	0	0
OTU 89	20	1	1	27	99	0	81	0	731	1	0	1	38	167	0	0	202	2	0	14	33	13	6	0	90	0	0	2	1	2	2	16	21	0	2	0	2	0	0	5	4	26	188	8	7	0	29	18	0	1
OTU 90	0	10	0	0	0	47	0	0	0	0	0	0	0	0	21	0	33	0	1	0	0	9	13	0	11	0	0	0	0	0	0	0	21	0	0	2	2	1	2	1	0	0	3	1	40	0	0	0	3	73
OTU 91	0	0	0	11	0	0	0	0	4	0	0	0	0	0	0	0	20	0	0	15	0	0	0	0	3	2	0	0	0	1	0	0	164	11	29	0	0	0	0	0	25	0	0	4	0	0	0	0	0	0
OTU 92	0	0	15	0	0	6	0	0	0	2	0	0	0	60	22	0	0	0	0	0	0	0	6	1	3	49	0	0	25	0	0	0	0	5	7	8	113	0	24	0	0	0	0	0	12	1	0	0	0	6
OTU 93	0	0	0	2	1	0	149	10	0	9	0	0	0	0	26	9	0	3	0	0	2	13	0	4	29	2	0	0	0	0	15	1	0	0	0	1	0	0	0	0	1	0	0	0	0	0	1	0	0	0
OTU 94	29	69	116	49	1	286	39	14	122	110	24	0	37	7	11	6	115	15	278	0	14	1	45	280	172	104	4	157	3	43	42	9	70	18	2	4	40	238	127	0	10	109	84	159	0	31	50	7	516	1
OTU 95	0	0	0	83	47	4	0	1	0	30	0	0	0	0	2	8	5	10	0	63	0	0	0	26	8	5	0	0	0	86	6	3	90	85	137	0	0	0	0	0	0	4	0	0	16	0	19	0	0	0
OTU 96	0	11	0	0	0	0	42	0	0	0	33	0	0	2	0	0	0	3	0	0	2	5	26	0	31	0	0	0	0	0	0	0	0	0	0	43	2	0	0	0	70	0	45	42	0	1	114	6	0	69
OTU 97	8	0	8	0	24	0	5	1	12	0	0	0	1	0	0	8	0	0	0	0	72	0	0	2	0	0	3	805	1	0	0	7	17	1	0	7	0	0	1	0	0	0	4	0	59	24	0	1	0	33
OTU 98	0	2	0	9	4	0	23	14	0	0	2	0	0	0	22	0	2	0	0	1	0	2	1	0	4	0	2	0	1	0	0	1	0	0	1	24	1134	0	0	9	4	9	33	16	9	6	0	3	0	0
OTU 99	141	9	12	207	107	45	28	15	64	206	79	4	4	14	125	43	23	22	13	29	69	1122	104	68	9	279	23	16	19	79	7	30	47	24	62	30	134	19	2	27	14	181	0	91	68	40	17	91	29	6
OTU 100	50	6	2	67	73	0	2	0	192	4	1	0	44	149	45	11	0	9	10	1	16	1	13	511	14	8	0	4	56	3	0	28	115	17	42	2	133	0	0	6	6	0	0	4	116	5	1	0	25	6
OTU 101	0	0	4	0	0	0	10	0	3	0	0	0	0	0	15	0	61	0	0	0	0	0	0	0	8	0	1	0	0	0	4	0	14	14	68	0	0	0	0	3	28	0	0	5	0	0	0	0	0	0
OTU 102	136	1	23	0	0	0	1	10	0	0	0	11	0	7	0	10	0	0	0	20	4	0	21	0	21	9	8	0	71	1	2	11	1	94	0	0	26	0	4	0	1	0	0	4	1	0	0	77	0	5
OTU 103	93	0	3	48	13	0	60	28	3	0	16	4	3	2	82	20	0	8	0	43	15	18	3	7	4	21	9	0	0	14	5	26	22	1	30	112	2	5	24	34	1	846	84	0	161	5	8	0	1	22
OTU 104	128	24	3	20	142	3	125	60	5	22	16	27	6	32	19	27	113	83	2	4	4	16	8	3	23	89	20	2	67	69	105	24	40	66	70	5	14	9	74	2	2	6	3	19	12	55	231	68	9	99
OTU 105	0	15	0	0	20	0	9	15	0	0	0	0	0	1	23	0	0	0	0	5	0	0	0	0	19	2	0	0	0	12	2	0	0	30	0	0	0	3	0	48	10	0	1	0	29	0	0	0	0	79
OTU 106	5	0	0	0	511	14	43	68	0	2	6	0	8	43	3	0	6	0	4	3	1	0	47	0	1	32	0	7	0	0	1	1	0	1	0	29	6	3	207	0	0	17	1	8	0	11	0	0	8	57
OTU 107	0	4251	18	32	42	2	0	8	1	7	0	1	0	109	50	2	1	8	0	115	4	173	0	33	0	4	3	0	0	60	0	0	8	23	0	0	0	2	3	6	1	15	31	111	7	2	15	0	5	0
OTU 108	30	40	17	48	1	10	6	47	0	23	1	8	42	30	0	0	486	3	0	2	7	75	12	0	8	9	15	5	1	77	0	20	26	25	5	0	7	5	0	10	2	0	24	2	0	114	9	1	0	1
OTU 109	0	0	0	0	0	0	2	0	0	0	0	0	0	0	0	0	0	0	0	0	0	0	0	0	0	0	0	0	0	0	0	0	0	0	0	59	0	0	0	0	0	4	0	2	0	0	0	0	0	0
OTU 110	36	52	18	183	26	34	1	0	18	0	0	7	52	32	255	31	20	0	25	51	8	272	13	22	10	5	20	18	67	65	0	5	34	7	4	15	23	22	50	66	21	112	415	89	40	63	0	2	44	111
OTU 111	2	0	0	7	0	0	0	0	0	0	0	0	0	4	27	0	0	9	0	1	0	0	0	0	1	0	9	0	17	2	0	0	1	0	1	27	0	0	0	0	0	0	0	4	0	14	1	0	0	0
OTU 112	6	0	25	0	0	4	8	0	0	2443	1	3	4	0	23	1	24	4	1	15	29	0	0	15	0	1	5	5	3	27	19	0	1	30	1	34	0	1	0	1	5	1	5	0	0	6	8	0	2	1
OTU 113	0	5	0	0	0	5	0	0	4	0	1	3	0	1	23	31	0	0	0	0	92	0	0	0	6	0	9	0	0	0	0	0	35	0	0	0	0	0	21	0	0	0	32	1	0	0	0	16	0	0
OTU 114	65	25	15	79	3	86	52	100	17	46	39	10	5	29	9	19	357	22	95	3	30	0	10	78	38	53	20	91	28	267	0	33	22	125	101	51	6	159	5	16	35	28	59	429	0	20	61	19	195	38
OTU 115	89	78	88	37	174	2	26	29	19	10	16	25	34	177	6	3	287	25	4	31	4	64	44	17	5	48	54	2	34	120	43	49	8	176	61	18	2	1	3661	43	44	15	339	32	20	12	12	265	6	43
OTU 116	152	1237	193	111	20	59	44	1779	8	111	46	5	12	0	1	19	18	0	28	219	31	1	9	6	49	97	16	17	84	8	59	125	9	62	24	31	13	58	0	2517	20	33	111	172	7	38	4	178	71	39
OTU 117	15	28	14	0	67	64	26	1	27	1	36	12	49	4	26	19	62	25	1446	54	61	224	0	62	11	127	13	24	175	31	12	9	53	32	83	129	4	27	0	49	46	53	31	126	35	1	12	0	34	94
OTU 118	2	0	0	1	9	0	1	15	0	0	0	2	36	5	0	0	0	0	1	0	1	0	0	1	13	2	5	3	0	11	0	0	4	0	20	5	0	9	7	0	3	5	22	47	2	0	6	4	1	11
OTU 119	33	26	224	10	64	20	51	21	14	169	19	2	26	82	75	1	109	6	1	91	19	89	5	19	69	42	1	2	85	102	111	24	135	5	16	21	103	2	69	84	19	367	2	121	5	4	180	5	4	104
OTU 120	18	54	7	0	9	2	7	25	1	5	1	1	43	2	36	0	56	0	0	0	2	21	8	0	0	9	20	5	36	0	21	4	0	0	0	2	14	4	1	14	23	4	0	94	12	1	3	11	1	1
OTU 121	22	0	0	3	15	12	3	30	0	6	0	4	67	7	14	24	0	6	38	3	52	14	4	0	12	30	2	9	3	32	2	0	108	69	25	2	3	26	22	9	1	1	28	4	0	15	4	37	69	29
OTU 122	55	0	8	222	105	13	604	5	12	80	1	244	1	460	2	6	205	7	1	904	10	42	10	10	403	7	451	11	115	38	49	23	11	0	48	23	11	2	4	26	12	7	53	50	18	21	23	6	5	5
OTU 123	39	27	90	243	57	69	75	204	19	124	67	47	159	145	82	97	168	375	33	385	111	476	62	53	173	133	119	8	53	278	55	34	31	332	281	31	123	48	94	138	20	351	68	363	39	124	123	74	70	85
OTU 124	0	12	0	0	37	4	0	0	0	60	3	0	17	1	1	1	33	1	0	3	9	6	0	0	0	0	0	0	0	5	39	0	74	47	0	45	12	0	20	0	18	55	0	3	0	0	2	0	0	2155
OTU 125	178	94	297	215	64	53	242	62	25	174	34	19	133	222	101	134	69	39	46	61	203	490	295	64	129	139	37	22	67	169	74	545	45	80	16	70	53	26	103	41	8	431	72	118	18	60	110	98	105	183
OTU 126	0	105	0	0	0	30	0	0	6	0	0	0	0	65	5	0	0	9	9	0	0	56	1	5	0	0	0	3	0	1	0	0	5	0	0	9	17	13	0	47	3	0	0	0	0	0	0	0	16	0
OTU 127	1	0	1366	14	50	0	2	0	1	4	1	0	50	18	6	28	18	11	0	52	8	17	2	1	5	1	1	0	0	5	66	5	62	1	1	4	0	0	19	0	56	17	32	4	1	0	2	4	0	0
OTU 128	185	29	301	278	179	58	88	83	77	51	95	231	48	410	77	37	228	80	58	49	119	128	84	199	99	330	86	708	38	121	73	143	383	141	299	34	144	66	243	84	56	141	35	354	129	24	107	187	115	378
OTU 129	0	0	0	0	0	0	0	177	0	0	0	1	166	0	0	1	0	0	11	0	0	24	0	0	0	0	0	0	0	0	1	0	1	56	0	62	5	4	0	1	15	2	0	0	0	1	6	0	22	57
OTU 130	1	0	41	183	17	219	1	6	1	5	21	6	4	36	14	7	31	1	1	10	14	17	10	15	0	0	4	6	17	65	24	0	4	14	73	0	23	1	3	1	43	21	98	1	104	2	7	58	4	5
OTU 131	17	0	74	30	113	2	2	12	1	0	3	1	83	6	10	13	2	0	20	28	78	33	2	24	38	70	4	15	17	105	2	2	34	38	17	3	19	49	47	7	61	30	28	12	34	17	6	16	39	23
OTU 132	10	34	0	6	19	24	4	8	0	0	0	4	21	13	53	0	21	1351	2	1	1	0	0	1	2650	3	23	1	0	0	55	3	0	3	0	20	0	0	0	47	1	35	0	3	0	9	5	0	7	2
OTU 133	3	1	0	32	0	0	27	9	0	0	0	0	0	8	1	0	2	0	2	68	11	0	0	0	0	0	0	0	9	1	0	0	0	19	16	6	0	0	0	4	0	6	0	0	2	0	2	0	2	0
OTU 134	9	10	2	94	56	4	44	2	1	118	40	5	9	50	20	0	11	3	0	15	0	5	17	1	0	3	11	2	46	41	677	10	11	3	83	0	47	1	45	20	34	75	89	18	100	27	2	4	0	12
OTU 135	37	0	0	14	9	133	124	3	102	38	9	19	13	19	14	0	38	6	212	3	1	7	5	286	16	0	35	103	54	20	0	39	5	54	13	14	4	174	7	0	2	21	9	0	12	22	5	28	424	129
OTU 136	157	39	0	12	16	0	42	29	0	12	19	4	9	79	12	1	58	23	9	36	0	64	0	4	68	18	16	8	5	11	0	66	41	11	133	26	39	14	8	50	4	64	26	0	46	13	52	8	21	0
OTU 137	0	0	6	22	0	0	0	28	0	0	0	2	25	31	1	0	13	34	4	12	0	36	0	0	0	0	0	0	0	0	0	1	67	0	40	3	43	9	1	0	7	0	2	0	3	7	1	6	12	1
OTU 138	0	2	10	5	0	5	0	2	2	0	37	13	6	0	16	0	28	0	3	0	0	6	9	0	0	132	72	4	122	179	0	0	28	0	6	10	7	1	33	0	0	3	0	0	0	21	0	0	8	8
OTU 139	172	9	118	16	49	29	6	66	54	3	33	99	49	9	49	3	63	25	60	77	70	81	3	47	132	14	101	15	77	4	7	88	99	17	88	15	321	19	57	13	4328	55	185	33	41	57	140	70	129	82
OTU 140	30	87	24	148	71	39	973	57	35	3	17	81	49	69	115	33	349	57	37	193	80	172	122	18	475	121	181	14	184	62	33	23	1923	148	407	53	263	16	194	73	25	126	155	68	24	10	74	43	81	57
OTU 141	0	0	0	0	0	0	1	0	0	13	0	0	0	0	0	0	0	0	0	0	88	0	0	0	0	2	0	0	0	0	0	0	0	0	0	0	0	0	0	1	0	0	0	0	0	0	0	0	0	0
OTU 142	0	0	0	12	0	0	1	0	0	0	0	0	0	0	0	0	0	0	0	0	1	0	0	0	0	0	0	0	0	0	0	0	0	0	0	0	5	0	0	0	0	8	0	0	0	23	0	0	0	0
OTU 143	44	0	30	3	18	0	0	0	0	0	0	4	6	0	84	21	68	1	13	7	7	73	2861	7	1	1	33	2	77	49	0	14	2	0	99	0	0	18	0	46	0	0	0	39	2616	0	0	18	19	0
OTU 144	0	0	0	0	0	0	36	14	0	0	9	1	1	0	1	0	8	0	1	0	0	0	14	2	5	0	0	0	0	0	0	8	57	0	1	9	0	0	5	30	1	0	0	0	0	1	0	0	1	0
OTU 145	33	1	2	156	30	1	74	90	6	9	7	13	69	436	82	17	35	2	19	3	29	145	9	23	107	16	34	4	10	40	18	24	23	161	79	28	70	4	20	57	1	43	88	8	104	67	132	53	39	128
OTU 146	22	2	82	25	63	1	66	69	18	105	47	7	57	37	11	8	6	63	11	25	2	38	0	22	0	88	3	6	0	4	30	25	1	13	14	92	24	12	12	1	74	20	312	9	42	56	41	1	11	59
OTU 147	0	0	0	1	28	0	21	1	0	4	45	0	5	88	0	1	198	6	3	0	23	0	3	1	40	2	0	3	0	44	25	0	379	0	19	0	11	0	18	0	4	19	3	4	8	10	0	2	8	0
OTU 148	87	9	64	6	118	16	12	46	3	3	1	0	1	16	6	29	25	30	18	0	26	11	4	0	25	245	3	0	11	113	9	120	12	700	259	3395	23	7	17	64	1102	4	16	55	29	37	8	19	37	10
OTU 149	11	0	0	8	38	1	58	0	1	11	43	0	3	0	0	17	0	8	1	0	25	12	0	0	1	0	3	1	1	2	26	26	0	11	0	42	22	1	6	0	61	0	201	11	20	1	39	13	1	45
OTU 150	1	0	2	1933	55	1	0	0	0	0	11	14	73	1	1	14	51	0	0	24	4	150	0	4	4	0	81	0	45	7	0	0	1	2	0	7	3	0	15	0	27	0	0	3	801	3	8	4	0	0
OTU 151	2	0	5	641	2	16	38	18	11	10	8	4	5	19	4	0	2	6	20	11	5	35	5	27	9	1	24	28	0	5	1	2	9	90	11	27	0	57	11	12	0	210	4	6	562	10	4	1	32	0
OTU 152	52	23	117	21	122	3	16	13	13	46	67	30	9	47	2	3	65	24	53	55	3	172	0	30	3	10	43	6	5	0	0	76	3	5	40	1	92	33	6	9	5	87	23	12	74	4	96	140	124	7
OTU 153	0	0	0	0	4	3	10	1	0	0	0	0	0	1	3	1	0	0	0	7	5	0	0	0	0	0	0	0	5	3	0	0	0	0	0	0	0	0	0	123	0	4	0	1	9	0	0	0	0	10
OTU 154	0	48	19	8	1	0	1	46	0	0	0	3	0	0	23	0	3	0	0	0	0	59	49	3	0	13	0	2	0	0	1	0	0	26	0	0	0	2	0	8	0	1	588	62	0	0	0	0	0	0
OTU 155	0	1	2	1	3	12	0	2	2	0	9	0	1	0	0	16	59	2	0	0	28	6	0	0	0	18	0	0	7	0	1	0	11	40	6	1	9	0	1	11	10	28	0	14	0	2	1	0	0	15
OTU 156	42	71	60	100	14	15	13	56	9	41	6	7	35	109	54	0	34	24	4	36	25	29	81	25	33	5	0	1	40	29	122	36	133	105	121	57	11	1	21	16	81	56	28	62	11	91	132	28	12	25
OTU 157	0	0	14	20	0	1275	24	45	6	11	0	3	0	57	0	1	15	0	0	10	2	0	0	9	47	0	2	1	0	6	0	0	69	2	64	0	0	0	0	0	1	17	0	0	0	11	0	16	0	419
OTU 158	0	0	0	0	0	0	0	0	0	74	0	0	0	23	0	0	12	1	0	9	1	0	2	0	0	0	0	0	18	0	0	0	0	0	0	0	0	0	1	0	0	0	30	0	0	0	0	0	0	0
OTU 159	6	0	49	22	0	12	632	7	0	73	0	1	27	161	39	33	11	14	0	95	55	0	31	2	118	7	0	0	188	3	6	3	67	11	26	57	62	0	119	53	31	11	17	11	1	4	51	1	1	23
OTU 160	81	378	25	92	419	33	72	30	9	125	15	136	20	86	2026	10	21	66	5	207	48	126	1931	12	42	137	222	5	52	51	15	26	53	78	1	22	1573	4	1639	839	50	205	61	17	90	41	68	18	12	57
OTU 161	196	5	10	0	260	1	31	22	1	1	138	0	316	250	32	5	139	24	28	70	18	27	0	0	28	27	0	2130	21	10	334	131	71	0	129	232	20	4532	0	51	130	40	0	48	332	157	540	151	38	17
OTU 162	1389	6	9	8	43	106	118	24	28	9	14	1	3	9	15	1	1	16	96	4	10	11	12	38	33	49	32	59	24	44	3	729	31	196	7	4	20	129	95	36	2	211	43	2	48	46	45	1463	175	0
OTU 163	0	0	0	0	0	0	7	4	0	0	0	0	0	0	0	1	0	0	0	0	0	0	0	0	0	127	0	0	0	0	0	0	0	0	0	0	0	0	0	0	14	0	0	0	22	0	0	0	0	0
OTU 164	0	0	0	0	111	0	0	0	0	0	0	0	0	0	0	12	0	0	2	3	0	3	0	0	0	0	0	0	0	0	0	0	0	0	0	3	0	0	0	0	0	0	0	0	71	0	0	0	13	17
OTU 165	89	21	5	0	0	0	0	19	4	49	70	9	3	1	9	7	11	28	0	15	8	0	554	0	26	5	0	0	3	73	26	45	2	2	19	9	3	6	7	2	6	14	0	0	10	0	16	18	0	92
OTU 166	0	0	0	0	0	3	0	15	2	0	0	0	0	0	0	0	0	44	0	2	0	0	1	0	0	0	0	0	0	0	0	0	0	0	0	0	0	0	0	0	2	0	9	0	0	0	0	0	0	0
OTU 167	32	14	16	0	46	18	123	0	3	116	39	1507	5	226	20	0	9	55	11	1	3	0	2	0	9	1	3337	4	38	12	40	8	0	39	5	10	0	0	6	5	2	0	32	0	8	83	13	63	18	5
OTU 168	0	89	39	2	8	67	13	1	2	211	5	0	22	117	82	1	6	16	5	3	33	18	18	0	0	8	0	1	72	72	14	3	34	27	17	29	57	0	35	44	27	11	43	53	3	10	2	35	14	4
OTU 169	0	0	1	0	0	0	0	2	0	2	3951	0	0	0	0	0	0	0	0	0	0	0	4	0	0	0	18	1	0	0	0	0	0	2	0	0	3	1	68	0	0	1	0	0	0	8	0	0	0	0
OTU 170	0	0	0	0	0	0	4	0	0	0	0	47	0	10	0	0	0	0	0	0	0	0	0	0	0	0	0	0	0	0	5	0	0	1	0	1	33	0	0	0	0	0	10	0	0	0	0	0	0	0
OTU 171	22	1	19	268	111	23	45	5	2	2	11	668	9	17	105	0	17	3191	48	1668	0	2	25	4	6	5	1347	37	28	31	3	7	0	7	122	32	171	32	0	10	27	14	22	17	4	3	14	34	76	14
OTU 172	0	0	0	4	0	0	0	0	1	0	0	0	2	0	0	0	0	0	0	0	0	0	157	5	0	0	0	1	0	95	31	0	0	0	0	0	0	0	7	1	0	0	30	16	0	0	0	0	0	12
OTU 173	0	1	5	1	11	0	0	5	7	1	4	13	0	0	0	8	44	22	0	0	4	195	0	20	5	0	61	0	22	0	13	8	21	2	0	1	1	1	0	7	8	7	8	8	7	0	26	0	0	0
OTU 174	2	0	8	6	34	29	86	2	1	0	1	5	0	26	56	2	0	0	0	69	7	0	14	0	56	9	31	3	33	39	12	0	4	11	69	19	1	1	35	9	5	15	12	40	16	0	1	25	0	33
OTU 175	11	36	2	3	42	0	100	1	16	0	10	0	0	7	64	9	17	11	31	0	3	57	62	3	0	15	0	1	2	34	1	17	40	23	0	1	3	19	0	42	59	30	12	26	18	5	1	4	49	11
OTU 176	28	7	35	1	44	0	26	30	17	18	3	41	116	50	1	1	210	30	3	0	3	5	28	3	15	57	64	8	14	43	4	2	7	30	1	4	10	4	10	7	1	58	73	35	27	62	17	5	4	36
OTU 177	1025	6	97	234	297	2	88	93	6	0	85	0	121	32	102	27	42	14	19	85	39	18	27	30	22	8	0	20	13	81	29	442	10	104	47	48	28	18	102	0	10	1	4	17	30	45	5	265	47	4
OTU 178	106	2	0	1	0	4	74	0	0	53	0	5	0	0	1	0	1	1	0	36	4	1	0	0	0	15	0	0	21	5	1	37	78	2	57	1	2	1	80	1	2	84	1	2	20	0	0	5	0	55
OTU 179	46	0	42	0	127	37	0	2	5	0	15	78	0	39	0	29	31	5	29	55	26	1	1	41	3	20	61	12	4	35	22	86	193	10	62	108	12	7	5	7	0	9	0	112	0	0	7	39	42	0
OTU 180	30	154	2092	87	251	52	71	40	24	227	33	16	60	38	112	139	133	77	50	70	171	737	158	35	64	91	33	17	149	63	82	37	2	347	80	23	60	29	67	73	17	310	597	163	70	92	38	14	100	17
OTU 181	10	3	10	8	23	4	4	4	1	4	3	19	15	20	2	10	38	7	6	38	29	36	38	0	4	4	62	0	89	13	28	1	9	0	52	1	3	0	5	3	0	96	0	7	110	16	3	3	9	3
OTU 182	0	0	0	0	0	6	0	39	0	0	0	6	71	0	0	0	0	0	0	2	0	0	0	0	0	0	10	0	0	0	0	0	3	0	1	0	0	0	6	0	0	0	2	0	1	0	0	1	0	0
OTU 183	77	2	1	2	22	0	23	4	2	9	4	1126	2	27	5	7	67	30	0	32	4	1	5	7	15	251	5	0	5	3	5	43	34	389	9	19	23	2	144	46	12	1	3	1	0	4	0	115	0	33
OTU 184	1	10	0	2	4	0	33	1	1	13	0	15	1	36	3	0	5	4	346	8	2	0	1	1	0	49	20	0	12	19	5	0	2	60	0	1	43	0	12	0	4	1	14	3	3	17	0	0	4	21
OTU 185	14	19	28	47	7	6	3	1434	2	0	36	0	51	25	8	8	56	2	6	7	52	71	8	32	26	221	8	1	67	6	4	2	104	385	81	11	6	6	7	13	2	0	3	10	14	53	7	8	17	66
OTU 186	2	60	14	0	0	0	0	0	0	20	6	3487	48	0	12	50	0	0	0	0	49	7	0	2	14	2	5	0	55	0	20	0	0	36	85	3	0	1	34	15	0	13	17	1	0	10	26	3	1	1
OTU 187	130	29	454	197	124	38	47	46	4	52	213	9	390	48	127	220	89	5	22	0	475	49	10	19	7	200	17	20	26	96	338	39	183	194	127	155	64	28	74	68	66	1	40	45	34	130	166	45	43	29
OTU 188	92	0	17	157	59	639	76	22	361	50	8	8	9	47	20	3	32	9	630	18	0	154	18	553	46	98	0	314	31	37	5	4142	255	13	43	7	49	759	30	25	19	90	19	7	7	19	1	2	1225	25
OTU 189	75	7	48	35	16	55	40	135	5	30	68	42	88	98	78	14	41	15	570	8	14	67	96	38	34	8	107	7	418	149	4	13	90	47	210	12	67	9	8	12	6	117	5	53	56	5	20	2	62	85
OTU 190	0	0	0	0	0	0	24	3	0	0	1	0	18	103	1	0	0	0	0	0	0	8	0	0	0	73	4	0	0	0	0	0	0	53	2	9	0	0	0	0	0	1	1172	0	2	0	0	0	1	194
OTU 191	29	20	27	0	49	0	15	211	7	44	32	8	5	94	197	51	13	45	3	27	44	62	40	0	531	66	7	3	22	15	57	29	136	30	104	22	45	0	46	65	16	283	119	11	8	65	59	17	5	13
OTU 192	54	29	65	87	101	25	40	5	8	53	106	11	39	517	57	1	86	12	2	43	7	72	54	10	12	285	23	6	188	395	101	44	83	19	24	45	123	7	33	92	37	268	194	3186	35	168	274	40	2	36
OTU 193	4	3	25	3	73	11	263	65	11	5	0	7	17	1	49	23	460	0	10	24	47	40	1	18	37	2	16	12	29	0	10	2	127	21	23	151	19	11	21	35	100	32	15	17	1	19	2	30	23	95
OTU 194	30	22	57	0	20	36	15	35	0	50	17	0	10	0	88	10	0	96	3	0	40	0	18	0	88	5	3	0	2	164	0	28	499	7	75	0	6	0	1	30	0	114	154	31	0	4	27	5	7	14
OTU 195	1	15	10	15	3	12	31	0	1	36	50	10	7	54	56	2	2	34	5	25	9	11	51	2	20	1	0	1	312	19	75	8	49	58	5	0	24	4	12	14	2	5	132	24	7	1	72	0	16	0
OTU 196	0	0	2	11	33	0	51	10	0	33	4	7	50	21	0	1	14	2	1	35	0	11	15	25	8	97	5	0	29	26	9	0	53	11	110	6	4	0	5	2	10	0	11	10	0	0	4	24	2	27
OTU 197	249	6	104	67	200	4	273	16	10	32	34	61	7	238	60	1	48	6	18	213	1	214	102	14	47	270	101	28	198	82	67	152	171	258	521	207	12	44	69	19	107	114	65	21	4	21	5	77	20	105
OTU 198	1	0	103	4	1	0	0	1	0	0	1	0	0	5	0	4	6	1	0	52	16	0	7	0	12	44	0	0	61	0	0	0	7	0	8	1	3	0	0	0	0	0	0	1	8	0	0	0	0	23
OTU 199	9	18	1	24	1	1	8	15	38	3	1	1	4	11	8	9	0	20	8	0	45	28	1	5	0	5	14	9	39	126	1	4	0	17	0	2	23	7	0	26	0	59	0	22	5	0	4	2	20	12
OTU 200	2	8	16	111	0	0	0	62	0	8	6	2	26	61	19	2	15	1	0	0	9	69	199	1	66	6	13	0	86	135	9	0	51	20	79	11	42	0	9	5	24	81	1	0	23	10	4	5	0	66
