	Host 1	Host 2	Host 3	Host 4	Host 5	Host 6	Host 7	Host 8	Host 9	Host 10	Host 11	Host 12	Host 13	Host 14	Host 15	Host 16	Host 17	Host 18	Host 19	Host 20	Host 21	Host 22	Host 23	Host 24	Host 25	Host 26	Host 27	Host 28	Host 29	Host 30	Host 31	Host 32	Host 33	Host 34	Host 35	Host 36	Host 37	Host 38	Host 39	Host 40	Host 41	Host 42	Host 43	Host 44	Host 45	Host 46	Host 47	Host 48	Host 49	Host 50	
OTU 1	3	0	0	2	0	2	2	4	2	3	7	2	0	10	0	0	0	7	19	9	4	9	4	1	5	2	0	2	3	0	9	10	8	2	15	2	1	5	3	1	3	3	6	6	13	1	1	2	1	0
OTU 2	0	0	0	0	6	0	1	0	0	0	0	1	0	0	0	0	0	0	0	0	0	2	0	0	0	1	0	0	0	0	1	1	0	0	0	0	0	0	0	0	0	0	0	0	0	1	0	0	0	0
OTU 3	4	2	11	0	0	0	2	0	13	3	0	0	0	0	0	0	0	0	0	0	0	0	0	0	1	2	3	0	0	0	3	0	0	0	0	6	0	0	0	24	0	0	0	0	0	0	0	0	0	0
OTU 4	0	0	0	0	0	0	0	0	0	0	0	0	0	0	0	0	0	0	0	0	0	0	0	0	0	0	0	0	0	0	0	0	0	0	0	0	0	0	0	0	0	0	0	0	0	0	0	0	0	0
OTU 5	9	30	20	5	0	0	29	22	13	37	34	5	27	8	46	0	20	3	16	6	16	18	6	35	6	60	2	6	0	4	8	22	18	0	36	13	20	9	20	21	8	10	22	15	16	8	7	0	13	16
OTU 6	4	1	1	0	4	0	3	1	1	0	0	0	0	4	2	0	0	3	4	0	1	5	0	0	30	0	16	1	0	0	0	5	0	0	0	0	0	0	0	0	0	0	0	1	4	65	19	0	3	0
OTU 7	1	1	0	5	2	3	5	0	0	5	17	2	10	0	7	1	8	10	2	4	1	2	0	1	1	0	1	1	1	0	0	2	8	0	2	0	3	4	0	3	1	22	4	3	13	2	10	2	0	8
OTU 8	1	0	1	2	8	2	1	3	0	1	7	0	6	12	2	5	2	7	21	2	0	3	2	0	1	2	1	1	4	0	0	0	3	4	2	2	12	7	1	0	0	1	6	3	0	1	6	7	0	5
OTU 9	6	0	1	3	0	1	1	0	0	0	1	0	0	0	0	0	0	2	0	0	0	3	0	1	0	0	0	0	0	0	0	1	2	0	0	0	1	0	0	0	0	0	0	2	0	0	0	6	0	0
OTU 10	0	1	1	0	0	0	0	0	1	0	0	0	0	0	1	0	1	2	0	0	0	0	2	1	0	0	0	1	0	0	1	0	0	0	3	0	0	0	3	1	1	0	0	0	0	2	2	2	0	0
OTU 11	0	0	0	0	3	2	4	0	1	1	0	1	4	0	2	6	2	0	0	3	0	1	0	0	0	0	1	1	4	1	1	0	1	5	1	0	0	1	1	2	1	1	2	0	2	1	5	5	1	0
OTU 12	1	1	1	0	9	0	2	0	0	1	0	2	4	1	0	3	19	0	3	1	0	0	3	2	4	0	0	0	0	1	0	2	1	0	2	2	0	0	0	4	3	2	1	8	1	5	0	4	12	1
OTU 13	0	2	0	0	0	0	0	0	0	0	0	0	2	0	0	0	0	0	0	0	0	0	0	0	0	0	0	0	0	0	0	0	0	0	0	0	0	0	0	0	0	0	0	0	0	0	0	0	0	0
OTU 14	0	0	6	0	0	4	0	0	7	0	1	0	0	0	0	0	0	1	0	0	0	0	0	0	0	0	0	0	4	0	0	0	2	0	0	4	0	0	0	8	1	0	0	2	5	0	3	0	1	0
OTU 15	0	0	0	0	0	1	0	0	0	0	0	0	0	0	0	0	0	0	0	0	0	0	0	0	0	0	0	0	0	0	0	0	0	0	0	0	0	0	0	0	2	0	0	2	0	0	2	0	0	0
OTU 16	0	0	0	0	0	0	0	0	0	0	0	0	0	0	0	0	0	0	0	0	0	0	0	0	0	0	0	0	0	0	0	0	0	0	0	0	0	0	0	0	0	0	0	0	0	0	0	0	0	0
OTU 17	0	1	2	0	0	7	6	3	0	0	1	0	0	0	0	0	1	3	0	0	2	2	0	0	0	1	0	1	0	0	0	1	0	0	0	0	0	0	0	0	0	0	0	5	3	0	0	2	0	0
OTU 18	0	0	8	0	2	0	2	1	0	0	5	1	0	3	3	1	1	2	1	0	3	4	0	1	2	1	6	2	4	0	0	0	2	5	1	1	0	0	0	3	0	1	2	0	1	3	1	3	0	0
OTU 19	0	0	0	0	0	0	0	0	0	0	0	0	0	0	0	0	0	0	0	0	0	0	0	0	0	0	0	0	2	0	0	0	0	0	0	0	0	0	0	0	0	0	0	0	0	0	0	0	0	0
OTU 20	0	2	2	27	1	2	3	0	2	0	1	0	3	0	3	2	0	3	0	0	0	1	0	0	0	0	6	1	1	0	0	2	4	7	0	0	0	0	0	0	0	2	0	0	0	0	0	1	0	1
OTU 21	0	2	1	1	18	1	2	0	0	0	0	2	0	0	3	3	0	2	2	1	2	0	0	1	1	2	0	0	0	0	3	0	3	1	2	0	37	2	1	7	1	0	2	2	4	2	5	5	0	3
OTU 22	0	0	0	0	6	0	0	0	65	1	0	3	0	1	1	1	0	3	0	3	0	1	29	0	0	0	0	0	0	1	0	1	0	1	1	0	1	0	1	0	51	0	0	1	2	0	0	7	1	0
OTU 23	0	4	1	0	1	0	12	0	0	0	0	3	0	0	2	13	1	0	0	0	0	2	0	2	5	0	0	1	0	7	0	2	11	1	1	0	0	1	1	1	1	2	0	0	0	8	17	2	0	0
OTU 24	0	0	0	0	2	3	2	0	0	0	1	1	0	0	0	0	0	0	0	0	0	2	0	0	2	1	1	0	0	0	1	0	0	0	0	0	2	0	0	0	0	2	0	0	0	1	1	0	1	1
OTU 25	0	0	0	0	0	1	0	0	0	0	0	0	0	0	0	0	0	0	0	0	0	0	0	0	0	0	0	0	0	0	0	0	0	0	0	0	0	0	0	0	0	0	0	0	0	4	0	4	0	1
OTU 26	0	1	0	0	0	1	0	0	0	0	0	0	0	0	0	0	0	0	0	0	0	0	0	1	1	0	0	0	0	1	0	0	0	0	1	0	0	0	0	0	0	0	0	8	0	1	0	0	0	0
OTU 27	0	0	0	0	0	0	0	0	0	0	0	0	0	0	0	0	0	0	1	0	0	0	0	0	0	0	0	0	0	0	0	0	0	0	0	0	0	0	0	0	0	0	0	0	0	0	0	5	0	0
OTU 28	1	0	0	1	5	0	1	2	0	0	0	0	2	1	0	4	1	2	0	0	1	0	0	0	0	0	0	0	2	2	0	0	1	1	0	0	1	4	6	0	1	2	2	2	2	2	5	0	5	0
OTU 29	1	0	0	5	1	2	2	0	0	1	8	3	0	0	3	3	2	3	1	1	0	2	0	0	0	6	0	0	3	2	2	0	0	0	0	0	1	1	0	3	5	3	2	8	0	0	11	4	0	0
OTU 30	0	0	0	0	0	0	1	0	0	0	0	0	0	0	0	0	0	0	0	0	0	0	0	0	0	0	0	1	0	0	0	0	0	0	0	0	0	0	0	0	0	0	0	0	0	0	0	0	0	0
OTU 31	0	0	0	0	0	1	0	0	0	0	0	0	0	0	0	0	1	0	0	0	0	0	0	0	0	0	0	0	2	1	1	4	0	0	0	4	0	0	0	0	0	9	0	0	0	0	0	5	0	0
OTU 32	0	0	0	1	1	2	6	1	0	15	18	1	7	1	4	0	24	0	0	2	0	4	1	1	1	0	0	1	0	14	1	0	3	7	2	1	1	2	101	0	1	15	8	23	2	0	3	26	5	1
OTU 33	32	0	0	0	3	0	0	0	0	0	0	0	0	0	0	0	1	0	0	0	0	0	0	0	0	0	0	0	0	0	0	0	0	0	0	0	0	0	0	0	0	1	0	0	0	0	0	0	0	0
OTU 34	0	2	1	1	2	0	0	0	0	0	0	1	0	0	1	3	0	0	1	0	0	0	0	0	2	11	2	1	1	0	0	1	3	35	0	15	0	0	16	0	0	0	0	1	4	1	1	1	4	4
OTU 35	0	2	1	2	4	14	0	0	0	2	5	40	0	0	0	0	0	15	2	3	3	2	0	1	0	1	3	2	0	0	0	0	3	1	0	1	0	0	1	0	0	0	94	0	10	0	8	1	0	0
OTU 36	0	1	0	0	0	0	3	3	0	1	0	0	1	1	2	0	0	1	0	0	3	3	3	0	1	0	0	0	0	0	0	0	0	85	0	0	0	0	0	1	0	0	0	0	1	5	1	9	0	0
OTU 37	0	0	0	1	0	1	0	0	0	0	0	0	1	0	0	1	0	0	0	0	0	0	19	0	0	0	0	0	0	0	1	0	0	0	0	0	0	0	0	0	2	0	0	0	0	0	0	0	0	0
OTU 38	0	0	0	0	0	0	0	0	0	3	4	3	0	0	2	1	0	0	0	0	0	0	0	0	0	0	1	0	1	0	0	0	0	3	6	0	1	0	22	0	1	5	6	0	2	0	0	1	2	0
OTU 39	0	0	0	0	0	0	0	0	2	0	0	0	0	0	0	0	0	0	0	0	0	0	0	0	0	0	2	2	1	0	1	0	0	0	0	4	0	0	0	1	1	1	0	1	0	0	0	0	0	0
OTU 40	0	41	3	2	2	2	2	0	0	5	1	2	1	0	0	10	2	0	0	0	1	1	4	13	0	2	1	3	2	1	1	0	0	7	0	0	0	1	0	0	5	11	1	0	2	0	0	3	0	0
OTU 41	0	0	1	2	29	2	1	1	0	0	0	1	2	0	0	0	0	2	0	1	0	0	2	0	1	0	0	0	6	4	0	0	0	0	1	1	0	0	0	4	1	1	0	0	1	5	8	6	0	0
OTU 42	0	0	0	1	0	0	0	0	0	0	0	0	0	0	3	0	0	0	0	0	0	0	0	0	0	0	4	3	0	0	1	0	0	6	0	1	1	0	0	0	1	0	0	0	0	0	0	1	0	0
OTU 43	0	0	0	0	0	0	0	0	0	0	0	0	1	0	0	0	0	0	0	0	0	0	0	0	0	0	0	0	0	0	0	0	0	0	0	0	0	0	0	0	0	0	0	0	0	0	0	0	0	0
OTU 44	0	0	1	0	3	0	1	0	0	0	0	0	0	0	0	7	0	0	0	0	0	0	0	0	1	0	0	0	0	0	0	0	2	0	0	0	0	0	0	0	2	1	1	0	0	1	0	0	0	0
OTU 45	22	0	0	1	0	0	0	1	0	0	0	1	5	0	0	3	2	1	0	0	1	65	0	0	0	0	5	3	6	2	3	25	1	2	0	0	5	0	0	1	0	8	0	0	0	0	2	4	20	0
OTU 46	1	5	0	3	0	2	2	2	0	4	2	0	0	0	2	0	0	0	4	0	0	2	0	0	0	1	0	0	0	3	0	0	0	0	0	1	0	0	1	2	1	13	1	2	3	1	10	5	0	1
OTU 47	1	0	0	2	0	0	0	0	1	0	0	0	0	0	0	0	0	1	0	0	0	0	0	0	0	0	0	0	2	0	0	0	0	0	0	0	0	0	0	0	0	0	1	0	0	0	0	0	0	0
OTU 48	1	5	3	1	4	1	2	0	7	0	0	1	0	0	3	1	7	0	0	1	0	0	1	0	0	5	6	1	3	2	0	1	3	0	0	1	0	0	0	17	0	0	1	1	1	1	1	0	5	17
OTU 49	0	1	3	0	0	3	0	2	2	0	0	0	0	0	0	0	0	6	1	0	1	3	1	0	0	0	7	2	44	0	0	0	0	0	0	0	0	1	2	0	4	0	0	0	3	1	0	0	0	0
OTU 50	3	5	4	1	1	3	76	3	0	0	4	2	0	3	1	0	5	7	2	12	1	7	0	3	12	0	7	0	0	0	10	1	11	0	23	4	1	12	2	2	1	2	1	0	2	18	0	0	4	9
OTU 51	0	0	0	0	0	0	4	0	0	0	0	15	3	0	0	0	2	0	0	0	1	0	2	0	0	1	0	0	3	0	0	0	2	3	0	3	0	0	8	0	2	8	31	0	0	0	0	2	0	0
OTU 52	1	0	2	0	6	1	3	8	1	3	1	2	4	3	2	1	6	3	7	5	2	3	1	2	0	1	8	7	9	4	4	3	4	1	0	0	8	0	20	0	4	2	2	0	1	2	18	0	0	3
OTU 53	0	0	0	0	0	0	0	0	0	0	0	0	0	0	0	0	0	0	0	0	0	0	0	1	0	0	0	0	0	0	0	0	0	0	0	0	0	0	0	0	0	0	0	0	0	0	0	1	0	0
OTU 54	4	0	0	2	3	0	8	1	0	16	33	6	17	9	4	3	12	5	2	0	1	0	5	0	0	0	0	0	2	37	2	1	1	3	3	1	0	4	9	5	8	3	31	4	0	3	1	2	1	3
OTU 55	0	0	0	0	0	0	0	0	0	0	0	0	0	0	0	0	0	0	0	0	0	0	0	0	0	0	0	0	0	0	0	0	0	0	0	0	0	0	0	0	0	0	0	0	0	0	0	0	0	0
OTU 56	0	0	0	4	5	1	3	0	0	0	0	0	0	0	0	0	93	0	2	0	0	0	1	0	2	0	0	0	0	38	2	0	0	0	2	0	0	1	0	5	4	0	0	43	0	0	0	0	0	0
OTU 57	2	0	12	13	0	6	3	4	4	2	3	1	3	0	5	11	0	13	3	0	1	0	0	0	1	22	6	5	8	3	2	0	1	2	3	27	3	125	0	6	1	1	1	1	9	0	0	7	1	54
OTU 58	1	1	1	1	0	2	0	1	0	36	7	0	3	146	0	0	1	0	0	0	1	0	0	0	0	1	0	0	0	0	138	1	2	0	1	0	1	79	0	1	2	0	0	0	0	0	14	1	1	44
OTU 59	0	0	0	0	3	0	20	4	0	0	1	1	0	0	1	0	0	0	4	0	0	0	4	0	0	0	0	0	0	3	0	0	0	0	0	0	0	1	2	5	3	0	3	1	0	0	3	0	0	0
OTU 60	8	0	0	1	1	16	0	0	1	0	0	1	5	0	4	3	1	3	0	1	0	1	0	0	0	0	1	0	3	2	0	7	1	0	0	0	3	0	0	1	0	2	2	1	2	0	5	3	5	3
OTU 61	0	1	1	0	2	5	4	21	0	0	0	0	20	18	7	0	1	1	35	2	12	0	5	0	3	1	1	0	10	0	0	2	0	5	0	0	13	1	0	0	9	1	0	1	0	5	2	10	1	0
OTU 62	0	0	29	0	0	0	0	0	30	0	0	0	0	0	1	0	7	0	0	0	0	0	4	0	0	10	0	0	5	0	0	0	0	0	0	11	0	0	1	52	4	0	0	1	0	0	4	0	0	0
OTU 63	0	1	48	1	5	0	0	0	0	0	0	0	0	0	0	2	0	0	0	0	0	0	0	0	2	1	0	0	5	0	6	0	4	0	1	2	1	1	0	0	0	0	0	0	0	1	0	2	0	2
OTU 64	13	0	0	2	5	6	1	28	1	2	5	0	1	48	7	0	1	5	75	2	8	1	0	1	1	0	4	4	4	0	3	19	6	7	1	10	4	1	7	3	1	9	3	0	3	0	0	6	9	1
OTU 65	0	1	0	0	0	0	1	0	0	0	0	0	0	0	3	0	0	1	0	0	0	0	1	0	0	0	0	0	0	0	0	0	0	0	0	0	0	0	1	0	3	0	0	0	0	0	0	0	0	0
OTU 66	1	2	0	0	2	2	0	0	10	1	1	0	0	1	0	4	0	1	1	1	0	4	1	4	1	0	0	0	0	0	3	4	6	1	0	74	0	0	4	11	6	3	0	2	0	1	0	3	2	0
OTU 67	0	0	0	9	2	1	0	0	0	0	0	0	0	0	0	0	0	9	0	0	0	1	3	0	1	0	0	0	1	0	1	0	1	0	0	0	1	1	3	0	0	12	0	2	6	0	1	2	0	0
OTU 68	3	0	0	0	0	3	0	1	0	1	0	0	0	2	0	0	0	2	6	4	0	0	1	0	0	3	0	0	3	2	0	3	0	1	0	0	4	0	0	0	0	0	0	0	1	0	0	0	1	0
OTU 69	0	1	0	0	2	0	3	1	2	0	0	0	1	0	0	1	0	0	0	0	0	0	0	1	0	0	0	3	1	0	3	0	0	0	0	0	0	0	0	2	0	18	0	3	4	0	0	0	1	0
OTU 70	0	0	0	0	0	2	0	0	0	0	0	0	0	0	0	0	0	0	0	0	0	0	0	0	0	0	0	0	0	0	0	0	0	0	0	0	2	0	7	0	0	0	0	0	0	0	0	2	0	0
OTU 71	0	0	1	0	0	0	0	0	0	2	5	0	0	0	0	0	1	0	0	0	0	0	0	0	0	0	0	0	8	1	0	0	1	0	0	0	1	0	0	0	0	0	2	1	2	0	0	0	0	0
OTU 72	0	3	0	4	1	0	0	14	0	0	4	0	95	0	9	2	4	1	1	0	8	0	2	0	0	7	1	0	1	6	1	3	1	0	0	0	5	0	4	0	6	1	0	4	1	0	0	1	0	0
OTU 73	5	0	2	1	0	0	0	0	0	0	0	0	1	6	2	0	0	2	4	0	2	0	0	0	3	0	0	0	0	2	0	0	0	6	0	0	1	3	0	0	0	0	0	1	0	1	5	6	1	0
OTU 74	7	1	4	0	5	2	0	1	1	1	2	2	1	0	0	3	0	0	2	0	1	2	1	0	5	0	1	0	0	0	2	2	1	0	2	0	0	4	1	0	6	0	0	2	1	3	0	10	0	0
OTU 75	4	0	0	1	1	2	0	5	0	1	1	1	3	1	1	7	0	0	0	0	1	2	138	0	0	0	1	0	6	1	3	0	0	3	0	0	3	0	0	2	0	2	6	0	0	0	1	4	1	1
OTU 76	0	0	1	0	0	1	0	0	0	1	0	0	0	0	0	0	0	2	0	0	0	0	0	0	0	0	0	0	0	0	0	0	0	0	1	0	0	0	2	0	0	4	0	0	138	0	0	0	0	0
OTU 77	0	0	2	0	5	0	1	0	0	5	0	0	1	1	1	0	2	1	2	0	0	0	0	0	4	4	1	1	9	0	0	0	0	10	1	0	0	0	0	3	0	0	3	0	0	4	5	2	0	0
OTU 78	2	0	0	4	6	2	1	1	2	0	0	0	1	1	2	2	1	1	3	0	0	1	0	0	0	0	4	1	3	0	0	0	0	3	0	0	0	1	0	2	5	3	0	4	0	0	1	10	0	0
OTU 79	8	4	4	3	2	7	6	68	3	1	5	12	0	0	20	12	2	6	5	1	33	1	2	1	1	0	2	1	7	2	1	1	5	6	7	3	40	3	5	10	5	5	19	5	5	0	3	5	4	2
OTU 80	0	0	0	0	1	0	6	2	4	1	3	2	2	3	0	2	9	1	2	0	0	2	0	0	0	0	1	64	2	4	0	5	0	2	1	0	0	1	5	1	0	0	3	3	0	2	1	1	2	1
OTU 81	1	0	17	2	1	0	0	8	21	3	5	1	10	1	2	1	3	2	4	0	2	0	5	0	0	14	55	28	5	1	2	0	0	3	1	8	1	0	0	38	7	0	1	0	3	0	5	1	0	0
OTU 82	0	0	0	0	0	0	2	0	0	0	0	0	0	1	2	0	0	0	0	0	0	0	5	0	0	0	0	0	0	0	2	0	3	0	2	0	0	0	0	1	6	0	0	0	2	0	3	0	0	0
OTU 83	1	0	0	0	0	0	0	0	0	0	2	0	0	0	0	3	0	0	0	0	0	0	0	0	0	0	0	0	0	1	0	0	0	0	0	0	0	0	0	0	0	0	0	0	0	0	3	0	0	0
OTU 84	0	1	0	2	0	0	1	0	0	4	0	2	0	0	0	2	0	0	0	1	0	1	0	3	1	0	1	0	1	0	14	1	3	10	6	1	1	0	0	1	1	0	1	0	0	0	1	0	0	0
OTU 85	0	0	0	0	0	0	0	0	0	0	3	1	0	0	0	0	0	0	1	0	0	0	0	0	0	1	0	0	0	1	3	0	0	0	1	0	1	0	0	2	0	0	1	3	0	1	2	0	0	0
OTU 86	0	0	0	0	0	0	0	0	0	0	0	0	0	0	3	0	0	0	0	0	0	0	0	0	0	0	0	0	0	0	0	0	0	0	0	0	0	0	0	2	0	0	0	0	0	0	0	0	0	0
OTU 87	0	0	0	0	3	0	0	0	0	1	0	0	0	2	1	0	1	0	1	0	0	0	0	0	0	0	0	1	0	0	0	1	0	0	1	1	0	0	0	0	0	4	0	1	0	0	0	0	0	0
OTU 88	0	0	0	0	0	0	0	0	0	0	0	0	0	0	1	0	0	0	0	0	0	0	0	0	0	25	0	0	0	0	0	0	0	4	0	0	0	0	0	0	0	0	0	0	0	0	0	0	0	0
OTU 89	1	0	0	0	0	0	0	1	1	0	0	0	0	0	0	1	0	0	0	12	2	3	2	0	0	0	0	0	0	0	0	0	3	0	0	0	0	0	1	2	1	0	0	0	3	0	1	1	0	0
OTU 90	0	0	0	0	0	0	2	0	1	0	0	0	0	0	0	0	0	3	0	0	0	0	0	0	0	0	0	0	1	0	0	2	0	0	0	0	0	0	0	0	2	0	0	0	0	0	0	0	0	0
OTU 91	0	0	0	0	0	0	0	0	0	0	0	0	0	0	0	0	0	0	0	0	0	0	0	0	0	0	0	0	1	0	0	0	0	0	0	0	0	0	0	0	0	0	0	0	0	0	0	0	0	0
OTU 92	0	0	0	0	0	0	0	0	0	0	0	0	0	0	0	0	0	0	0	0	0	0	0	0	0	0	0	1	0	1	1	0	1	0	0	0	0	0	0	0	0	1	3	0	0	1	0	4	0	0
OTU 93	0	0	0	0	0	0	0	1	0	0	0	0	0	0	0	0	0	1	0	0	1	0	0	0	0	0	0	0	0	0	0	0	0	0	0	0	0	0	0	0	0	0	1	0	0	0	0	0	0	0
OTU 94	5	0	0	0	5	6	5	0	0	0	2	2	0	0	1	2	2	2	1	0	0	4	3	0	0	1	12	4	3	0	2	17	1	5	2	3	0	0	2	0	4	0	0	0	0	1	25	0	13	1
OTU 95	0	0	1	0	6	0	4	0	1	0	1	0	0	0	0	0	0	0	0	1	0	2	0	0	0	0	0	0	1	0	0	0	0	0	1	0	97	0	0	0	0	0	0	0	0	0	2	0	0	0
OTU 96	1	0	0	0	0	0	0	0	0	0	0	0	0	0	0	0	0	0	0	0	0	0	0	5	2	0	0	0	0	0	0	0	3	0	0	0	0	0	0	0	0	0	0	0	0	2	0	0	0	96
OTU 97	0	0	0	0	0	0	0	0	0	1	0	0	0	0	0	0	0	0	0	0	0	0	0	0	0	0	0	0	0	0	0	0	2	0	0	0	0	0	0	0	0	0	0	1	9	0	0	0	0	0
OTU 98	1	0	2	0	0	0	0	0	0	1	3	0	0	0	0	0	0	0	0	0	0	0	0	0	0	3	0	0	0	0	0	0	0	0	2	0	3	0	0	2	1	0	0	0	0	0	0	2	0	0
OTU 99	4	0	1	24	0	2	0	19	0	0	0	9	0	4	2	2	0	0	10	0	7	21	2	0	18	0	0	0	0	0	0	9	0	8	1	17	4	0	0	0	3	7	23	0	0	37	1	3	4	1
OTU 100	0	0	0	0	0	0	0	0	0	0	0	0	0	0	1	6	0	1	0	1	0	2	0	1	1	2	0	97	0	0	24	1	4	0	49	1	0	9	2	0	0	0	0	0	1	1	1	0	1	6
OTU 101	0	0	0	0	0	0	0	0	0	2	3	0	0	0	0	0	0	0	0	1	0	0	0	0	0	0	0	0	0	0	0	0	0	3	0	0	0	0	0	0	0	0	0	0	0	0	0	0	0	0
OTU 102	0	0	0	0	3	0	0	0	3	0	0	0	0	0	0	0	0	0	0	1	0	0	0	0	0	1	0	0	0	0	0	0	0	0	6	1	0	0	0	0	0	1	0	0	0	0	0	1	0	0
OTU 103	0	13	0	1	1	2	1	0	0	0	0	0	1	0	8	13	0	0	0	11	0	0	0	3	12	0	33	16	0	1	30	1	28	0	31	0	0	3	0	0	0	2	0	0	0	34	0	0	1	2
OTU 104	11	31	2	2	1	0	3	10	0	4	1	0	0	6	0	1	6	0	12	0	1	12	1	12	2	3	0	0	1	0	2	31	6	2	6	0	5	1	0	0	19	3	0	0	1	0	0	1	9	0
OTU 105	0	0	0	0	0	0	0	0	0	0	0	1	0	1	0	0	0	1	1	0	0	0	0	0	0	0	3	11	0	0	0	0	0	0	0	0	0	0	0	0	3	0	0	0	0	0	0	8	0	0
OTU 106	0	0	1	0	0	0	0	0	0	0	0	1	0	0	0	0	0	0	0	0	0	0	0	0	0	2	0	1	3	0	0	0	0	0	0	3	0	0	1	0	0	0	1	0	0	0	0	0	0	1
OTU 107	0	0	0	0	0	0	0	0	0	1	3	0	0	0	0	1	0	0	0	0	0	0	0	0	0	0	1	0	0	1	0	0	0	0	0	0	0	0	0	0	0	0	1	12	0	0	1	6	0	1
OTU 108	1	0	0	0	0	0	2	2	2	0	0	0	0	0	1	0	0	1	1	0	1	0	0	0	1	0	0	1	0	0	0	2	0	0	0	0	0	0	0	1	1	0	0	0	0	0	0	1	1	0
OTU 109	0	0	0	0	0	0	0	0	0	0	0	0	0	0	1	0	1	0	0	0	0	0	0	0	0	0	0	0	0	0	0	0	0	0	0	0	0	0	0	0	0	0	0	0	0	0	0	0	0	0
OTU 110	3	0	1	0	0	0	0	0	1	0	1	0	2	1	3	0	2	3	2	0	0	0	0	0	0	0	0	6	0	1	0	2	0	0	2	1	1	3	0	0	0	4	1	3	3	2	4	1	1	0
OTU 111	0	0	0	0	3	0	0	1	0	0	0	0	0	0	0	0	0	8	0	2	0	0	0	0	0	0	0	0	0	0	0	0	0	0	0	0	0	0	0	0	0	0	0	0	0	0	0	0	0	0
OTU 112	0	0	0	0	0	1	3	0	0	0	0	0	0	0	0	0	0	0	0	0	1	0	0	0	1	0	0	0	0	0	0	0	1	0	2	0	0	0	1	1	0	0	0	0	0	0	1	0	0	1
OTU 113	0	0	0	0	0	0	0	0	0	0	0	1	0	0	1	0	0	0	0	0	0	14	0	0	0	0	0	0	0	0	0	0	0	0	0	0	0	0	0	0	1	0	0	0	0	0	0	0	0	0
OTU 114	0	32	0	1	0	3	0	1	0	3	5	0	0	2	7	4	2	0	4	0	0	1	1	24	0	0	0	0	2	0	7	1	58	2	0	0	1	2	0	0	2	62	0	0	0	1	1	4	0	0
OTU 115	2	0	1	4	9	0	0	1	1	0	0	0	4	0	1	1	2	0	2	2	0	3	1	0	0	0	1	0	0	2	4	1	4	6	2	0	2	0	1	0	1	1	0	2	3	0	1	1	0	1
OTU 116	1	3	0	0	6	6	9	0	4	1	1	0	3	0	4	0	1	22	0	0	0	2	1	0	3	4	1	2	2	0	0	2	1	1	1	47	0	1	0	0	13	13	0	1	11	5	0	5	0	1
OTU 117	0	1	0	0	8	1	0	62	0	1	2	0	0	0	0	0	0	4	0	0	26	1	0	2	1	0	2	0	0	1	2	2	3	3	0	1	22	1	2	0	4	0	0	0	0	0	2	4	0	2
OTU 118	0	0	0	0	0	0	0	0	1	0	0	0	0	0	3	0	0	0	0	0	0	0	1	1	5	0	0	1	7	0	0	0	4	0	0	3	0	0	0	1	0	0	0	0	0	3	0	1	0	0
OTU 119	0	1	2	1	0	0	0	0	0	1	0	1	2	0	1	0	1	4	0	3	0	2	0	80	0	4	3	0	0	0	0	6	3	0	5	2	1	0	0	3	4	0	0	0	3	0	0	0	0	1
OTU 120	2	0	10	0	0	0	0	0	0	0	2	0	2	2	0	0	1	0	3	37	0	0	0	0	0	2	0	0	4	1	0	0	0	0	0	0	0	0	1	0	0	2	0	0	0	0	0	0	1	0
OTU 121	1	0	1	1	0	0	1	0	0	1	3	1	0	0	1	2	0	1	0	0	0	0	0	0	5	0	2	0	3	0	0	0	1	1	1	1	0	0	0	0	0	0	2	0	0	4	0	2	1	0
OTU 122	0	0	2	0	4	0	0	0	1	12	2	1	1	0	0	0	6	0	2	0	0	2	1	0	0	1	3	2	0	0	0	2	1	0	0	0	2	0	1	0	0	0	7	1	3	0	2	1	0	0
OTU 123	7	3	5	3	9	6	10	3	0	4	6	3	1	7	10	18	2	1	5	6	1	5	2	1	2	5	7	4	12	0	0	2	3	2	1	2	2	2	19	2	3	3	4	2	0	5	11	5	0	3
OTU 124	0	2	0	0	0	0	1	0	1	1	0	0	0	0	0	4	0	0	0	0	0	0	0	0	0	0	0	0	0	0	0	0	0	2	0	0	0	0	0	0	0	0	0	0	0	0	0	0	0	0
OTU 125	2	5	1	50	1	5	8	1	2	3	8	1	10	2	15	5	18	3	0	1	0	0	3	4	97	0	1	0	8	3	3	1	2	10	0	4	11	31	2	5	12	9	4	6	0	3	7	10	0	15
OTU 126	0	0	0	0	0	0	0	1	0	0	0	0	0	0	0	1	0	0	0	0	2	0	0	0	0	1	0	0	0	0	0	0	0	0	0	0	0	0	0	0	0	0	0	0	0	0	0	0	0	0
OTU 127	0	0	1	0	0	7	1	0	1	1	2	3	9	0	0	2	0	3	0	0	0	3	0	0	0	0	0	1	0	0	0	0	0	0	0	0	0	3	4	1	0	0	6	0	3	0	9	1	1	0
OTU 128	19	3	7	133	30	5	3	2	1	1	1	0	12	4	5	17	1	5	10	0	1	4	1	25	3	1	6	2	5	3	0	7	2	14	0	12	0	0	3	7	2	13	1	1	4	0	4	12	1	4
OTU 129	0	0	0	8	0	0	1	0	0	1	4	2	0	0	0	0	0	0	0	0	0	0	0	0	0	0	0	0	0	0	1	0	0	0	0	0	0	0	0	0	0	0	0	0	2	0	0	0	0	0
OTU 130	0	0	1	0	0	0	0	0	0	0	3	0	0	0	0	0	4	0	0	0	0	0	0	0	2	0	1	0	3	0	1	0	1	5	2	2	0	1	0	1	0	2	0	0	1	5	1	4	0	0
OTU 131	0	30	7	0	0	0	1	3	6	3	2	0	2	0	12	0	8	0	0	0	2	0	0	10	1	0	0	0	4	0	0	0	75	0	0	3	0	0	1	10	0	2	0	4	0	0	1	3	0	1
OTU 132	0	0	0	0	2	0	0	3	0	0	0	0	0	0	1	0	1	0	1	0	0	0	0	0	0	0	0	1	0	0	2	0	0	4	0	0	0	0	0	0	0	0	0	2	0	1	1	0	1	0
OTU 133	0	0	0	0	0	0	0	0	0	0	0	0	3	0	0	0	0	0	0	0	0	2	0	0	0	0	0	0	0	0	0	0	0	1	0	0	0	0	0	0	0	0	0	2	0	0	0	0	0	0
OTU 134	0	0	0	1	6	1	1	0	0	0	0	0	0	1	3	0	1	2	1	43	0	0	7	0	1	0	0	0	0	0	1	2	0	0	0	0	1	5	0	0	13	0	0	0	6	0	2	0	0	0
OTU 135	1	0	1	0	0	3	0	0	0	3	0	0	0	1	15	5	0	0	2	0	0	2	2	0	2	0	1	1	0	2	0	10	0	0	1	0	0	0	1	0	5	0	3	5	1	0	0	2	4	0
OTU 136	0	0	0	0	0	0	0	2	2	1	1	0	0	0	0	0	0	0	0	0	1	0	2	0	0	0	1	3	0	0	1	0	0	0	1	1	0	0	0	4	1	0	1	0	0	1	1	0	0	2
OTU 137	21	0	0	0	1	0	0	0	0	0	0	0	0	0	1	1	0	0	5	0	0	0	0	0	0	0	0	0	0	0	0	58	0	0	0	0	1	0	0	0	1	0	0	1	0	1	0	0	18	0
OTU 138	0	0	0	0	5	0	1	0	0	0	0	0	6	1	0	8	0	0	2	0	0	0	0	0	0	0	0	1	0	0	0	0	1	0	0	5	0	0	0	0	0	0	0	0	0	0	0	0	0	0
OTU 139	1	5	0	0	10	46	1	0	2	0	2	129	0	1	3	1	13	7	3	0	0	3	6	0	4	83	2	3	2	0	0	1	2	1	6	0	2	1	5	5	2	2	0	1	7	2	3	1	0	0
OTU 140	0	108	5	7	9	49	10	2	2	143	26	3	8	0	0	9	3	2	0	2	2	5	3	52	1	1	0	0	10	119	10	3	2	8	30	1	3	6	1	12	7	2	6	3	3	2	4	3	165	2
OTU 141	0	0	0	0	0	0	0	0	0	0	0	0	0	0	0	0	0	0	0	0	0	0	0	0	0	0	0	0	0	0	0	0	0	0	0	0	0	0	0	0	0	0	0	0	0	0	0	0	0	0
OTU 142	0	1	0	0	0	0	0	0	0	0	0	0	0	0	0	0	0	0	0	0	0	0	0	0	0	0	0	1	0	0	0	0	0	0	0	0	0	0	0	0	0	0	0	0	1	0	0	0	0	0
OTU 143	0	0	0	0	2	0	0	0	0	0	0	0	0	0	3	0	0	0	0	0	0	0	0	0	0	0	0	0	1	0	0	0	0	0	0	0	0	0	0	0	0	0	1	0	1	0	2	0	0	0
OTU 144	0	1	0	0	0	0	0	0	0	4	4	0	0	0	1	0	0	0	0	0	0	2	0	1	0	0	0	0	0	0	0	0	1	5	0	0	0	0	0	0	3	1	1	0	0	0	0	15	0	0
OTU 145	0	2	0	5	0	2	8	0	1	0	3	0	0	1	2	0	0	0	7	1	0	0	2	0	0	0	71	43	11	0	0	0	0	1	0	0	1	1	1	0	5	12	3	1	0	0	0	0	2	1
OTU 146	0	0	0	0	3	0	0	0	0	1	0	0	1	0	4	0	0	0	0	8	0	0	5	0	0	0	0	0	8	0	1	0	0	1	1	0	0	0	0	0	6	1	0	0	0	2	0	0	3	3
OTU 147	0	1	0	0	0	0	1	0	0	0	0	0	1	0	0	0	0	0	1	0	0	0	1	0	6	0	0	0	0	0	0	0	2	1	0	0	0	0	0	0	1	0	0	1	1	5	0	0	0	0
OTU 148	0	6	0	0	0	0	2	2	0	0	2	1	7	0	56	10	1	0	2	13	0	1	37	6	14	2	23	4	0	0	11	0	22	1	19	2	0	16	1	0	2	0	10	0	0	20	2	2	0	3
OTU 149	0	0	0	0	0	2	0	0	0	0	0	0	0	0	0	3	0	0	0	0	0	0	0	0	0	0	0	0	1	0	0	0	0	0	1	0	0	0	0	0	0	1	0	1	0	1	0	0	0	1
OTU 150	0	0	0	2	0	0	2	0	0	0	1	0	0	0	2	3	0	0	0	0	0	0	0	0	0	0	0	0	10	0	2	0	0	0	2	0	0	2	0	0	0	0	0	0	0	0	0	0	0	0
OTU 151	0	0	0	0	0	2	0	0	2	0	0	0	0	0	0	0	2	6	1	2	0	0	0	0	0	0	0	0	0	0	0	0	0	0	0	0	0	0	0	1	0	0	0	0	1	0	0	0	0	0
OTU 152	3	1	0	3	13	0	0	0	0	0	0	0	0	1	4	4	0	0	0	1	0	2	1	0	0	0	0	0	2	3	0	1	1	0	0	0	0	0	0	0	1	1	1	0	1	0	1	0	0	0
OTU 153	0	0	0	0	0	0	0	0	0	0	0	0	0	0	0	0	0	0	0	0	0	0	0	0	0	0	0	0	0	0	0	0	0	0	0	0	0	0	0	0	0	0	0	0	0	0	0	0	0	0
OTU 154	0	0	0	0	2	0	0	0	0	0	1	0	0	0	0	0	0	1	0	0	0	0	0	0	0	0	0	0	0	0	0	0	0	0	0	0	0	0	0	0	4	0	0	0	0	0	0	0	0	0
OTU 155	0	0	0	0	5	1	4	0	0	0	2	31	0	0	1	0	3	0	0	0	0	0	0	0	0	1	0	0	0	0	0	0	0	0	2	0	0	0	0	0	4	0	0	0	0	0	0	2	0	0
OTU 156	0	7	0	6	3	1	0	0	1	0	0	0	4	2	0	22	4	3	3	2	1	2	0	3	0	5	10	3	1	4	3	0	2	1	1	1	0	1	0	1	4	0	1	1	2	2	2	3	1	0
OTU 157	0	0	0	0	0	1	0	0	0	0	0	0	0	0	0	0	0	0	0	1	0	0	3	0	0	3	0	0	0	2	0	0	2	0	0	0	0	0	0	0	1	0	0	0	0	1	1	0	1	0
OTU 158	0	0	0	0	0	0	0	0	0	0	0	0	0	0	1	0	0	0	0	0	0	0	0	0	0	0	0	0	0	0	0	0	0	1	0	0	0	0	0	0	0	0	0	0	0	0	0	0	0	0
OTU 159	0	0	1	0	2	0	0	0	3	2	1	0	0	29	0	0	2	0	2	0	0	0	1	0	0	3	0	0	1	0	4	4	1	3	0	0	0	0	1	0	0	0	0	1	2	2	1	1	0	0
OTU 160	7	0	0	4	4	4	1	0	0	6	12	2	9	1	0	11	0	13	2	1	2	1	2	0	0	30	4	2	3	0	0	0	3	1	0	39	1	1	2	5	1	0	8	0	3	2	4	12	0	0
OTU 161	0	0	86	0	5	1	5	0	0	0	0	5	2	1	0	0	5	0	2	0	1	0	1	17	1	0	0	1	0	1	1	1	0	0	0	0	1	0	0	1	1	1	0	2	0	0	3	2	0	0
OTU 162	2	0	1	1	5	0	5	2	0	3	6	2	0	0	1	2	2	0	0	0	2	0	0	0	1	1	2	0	0	0	1	5	0	0	0	0	3	2	0	2	0	3	7	0	0	1	0	0	5	3
OTU 163	0	0	0	0	0	0	1	0	1	0	0	0	0	0	0	0	0	0	0	0	0	0	0	0	0	0	0	0	0	0	0	0	0	0	0	0	0	0	0	0	0	0	0	0	0	0	0	0	0	0
OTU 164	0	0	0	0	0	0	0	0	0	0	0	0	0	0	0	0	0	0	0	0	0	0	0	0	0	1	0	0	0	0	0	0	0	1	0	0	0	0	0	0	0	0	0	0	0	0	0	0	0	0
OTU 165	1	0	0	0	0	0	0	0	0	2	10	3	4	0	0	0	1	0	0	1	1	3	0	0	0	0	0	0	0	37	0	1	1	0	0	0	1	0	0	1	1	3	1	58	0	1	0	0	0	1
OTU 166	0	0	0	0	0	0	0	0	0	0	0	0	0	0	0	0	0	0	0	0	0	0	0	0	0	0	0	0	4	0	0	0	0	0	0	0	0	1	0	0	0	0	0	0	0	0	0	0	1	0
OTU 167	1	0	0	0	0	2	0	0	0	1	1	1	0	0	1	0	0	2	0	0	0	0	0	0	0	0	0	0	0	1	0	2	0	1	0	0	0	0	0	0	3	0	0	0	0	0	3	2	0	0
OTU 168	0	0	0	3	0	0	1	0	0	0	1	1	2	0	2	0	6	1	0	0	0	5	0	1	1	0	0	0	0	31	1	4	1	1	2	1	1	1	0	4	0	0	4	60	0	3	0	1	0	0
OTU 169	0	1	0	0	0	0	0	0	0	0	0	0	0	0	0	0	0	0	1	0	0	0	0	0	0	0	0	0	0	0	0	0	0	0	0	0	0	1	0	0	0	0	1	0	0	0	0	0	0	0
OTU 170	0	0	0	0	0	0	0	0	0	0	0	0	0	0	0	0	0	0	0	0	0	0	0	0	1	0	0	0	0	0	0	0	0	0	0	0	0	0	0	0	0	0	0	0	0	0	0	1	0	0
OTU 171	0	0	0	1	13	7	0	1	0	0	1	0	1	1	1	2	0	0	1	0	0	0	0	0	0	1	2	4	5	0	0	0	0	2	2	1	18	0	0	0	0	7	1	0	0	1	8	2	0	0
OTU 172	0	1	0	0	0	0	0	0	0	0	5	0	0	0	0	0	0	0	0	0	0	0	0	0	0	0	0	0	0	0	0	0	0	0	0	0	0	0	0	0	0	0	0	0	0	2	0	0	0	0
OTU 173	0	0	0	0	1	0	3	1	0	0	0	0	0	0	3	1	0	0	0	0	1	0	0	0	0	0	0	1	0	0	0	0	0	0	0	0	1	0	0	3	0	0	0	0	0	0	0	0	0	0
OTU 174	3	0	0	0	0	31	1	0	2	0	0	0	0	0	0	0	0	75	0	0	0	0	1	0	0	1	5	0	0	0	0	8	0	0	1	3	2	1	1	0	0	1	0	0	13	0	1	0	4	0
OTU 175	0	0	2	0	0	0	4	0	0	0	1	0	1	0	0	3	4	0	0	0	1	0	0	0	0	0	2	0	0	0	0	0	0	2	0	0	0	0	2	0	0	0	0	1	0	0	0	6	0	0
OTU 176	2	0	3	0	0	0	0	5	0	2	5	1	0	2	6	1	1	1	1	29	3	6	0	0	1	0	0	1	1	0	1	0	0	1	3	7	0	0	1	0	1	4	0	0	3	5	2	4	0	15
OTU 177	1	0	1	2	0	0	1	0	2	0	3	0	0	0	0	0	3	7	1	0	0	2	6	0	1	0	3	4	2	4	0	1	0	6	4	0	2	1	2	1	8	2	0	0	5	1	3	6	1	1
OTU 178	1	2	0	0	4	7	0	2	1	0	4	0	0	0	1	4	0	15	0	0	4	0	0	1	0	0	0	1	0	0	0	0	2	0	0	1	0	1	3	0	0	0	1	0	0	0	0	0	2	0
OTU 179	103	0	4	1	1	2	1	0	0	2	3	1	1	0	0	0	0	7	0	142	0	0	0	0	0	0	0	0	12	0	0	1	0	0	0	4	0	1	0	0	0	0	0	0	3	0	0	1	0	2
OTU 180	6	1	1	1	3	2	12	1	2	5	5	4	19	0	9	41	3	10	4	1	1	3	2	0	0	1	7	5	5	0	0	6	5	1	2	3	3	1	2	1	4	3	1	1	3	0	9	0	2	1
OTU 181	0	0	0	2	0	8	1	0	0	0	0	0	1	1	2	5	0	16	3	1	1	0	22	0	0	1	0	0	2	0	0	1	0	0	0	3	0	0	1	0	42	0	0	0	9	1	3	0	0	1
OTU 182	0	0	0	0	0	4	1	0	0	0	0	0	0	0	2	0	0	2	0	0	0	0	0	0	0	0	0	0	0	0	1	0	0	0	0	0	1	0	0	0	0	0	0	0	0	0	0	1	0	0
OTU 183	0	1	0	3	0	0	0	0	0	0	0	0	0	2	0	9	0	7	3	0	0	0	0	0	0	1	1	0	0	2	0	0	0	7	3	1	0	0	0	1	2	0	0	0	0	0	0	6	2	3
OTU 184	0	1	0	0	0	0	4	0	0	0	0	0	0	3	0	0	0	0	2	0	3	0	0	65	0	0	0	0	0	0	1	0	0	3	0	0	0	0	0	1	0	3	0	0	0	0	2	0	0	0
OTU 185	0	0	1	1	7	0	0	3	1	2	3	0	0	0	0	0	30	1	0	1	1	3	1	0	72	0	0	0	2	19	1	4	2	5	2	0	0	4	0	1	0	2	0	22	0	1	3	3	3	0
OTU 186	1	1	0	0	0	0	0	0	0	0	0	0	0	0	0	0	0	0	0	0	0	3	1	0	1	0	0	0	0	0	0	0	0	0	0	1	1	0	1	0	0	0	2	2	0	0	0	0	0	0
OTU 187	2	7	1	0	5	0	6	8	1	0	0	1	4	1	6	4	1	0	6	3	6	17	5	2	7	0	11	11	0	0	8	27	3	9	6	0	8	3	0	2	8	3	2	0	1	9	7	3	7	2
OTU 188	1	0	0	1	12	2	1	1	13	3	7	2	0	0	10	5	0	2	0	1	201	1	2	0	0	1	0	1	9	1	0	0	0	3	0	0	2	0	2	1	1	0	2	9	3	0	4	15	0	0
OTU 189	1	1	0	0	4	0	1	3	1	1	1	0	2	13	0	22	2	1	3	1	0	0	2	3	4	1	6	0	8	0	0	3	4	5	2	0	0	1	6	0	3	5	1	0	0	3	11	5	1	32
OTU 190	0	0	2	0	0	0	3	0	0	2	0	0	2	0	0	0	0	0	0	0	0	0	1	0	0	0	0	0	0	0	0	0	0	0	0	0	0	0	3	0	0	0	0	0	0	2	0	2	1	0
OTU 191	0	0	0	0	0	28	3	4	0	0	0	0	9	2	3	8	2	1	4	0	2	1	1	0	0	1	1	0	6	1	1	1	0	7	1	0	1	0	0	0	4	0	3	2	1	1	2	5	5	0
OTU 192	0	0	42	1	1	7	2	5	17	0	3	1	7	5	2	3	0	5	7	2	1	4	0	0	0	34	2	3	0	1	3	7	0	6	1	15	5	1	12	49	0	3	2	3	5	0	5	2	2	3
OTU 193	3	1	2	2	2	4	2	26	0	3	2	3	0	8	1	3	0	0	27	0	5	10	0	1	0	2	1	0	14	1	1	1	0	0	0	0	7	0	30	5	0	3	1	1	0	0	20	2	0	0
OTU 194	17	0	2	0	0	1	0	0	1	0	0	0	0	0	3	1	0	0	0	0	0	72	0	0	0	0	0	0	3	0	0	16	1	0	0	0	0	0	2	0	0	0	0	0	0	0	0	2	24	0
OTU 195	0	0	1	1	0	1	0	0	0	0	0	1	0	0	1	0	3	5	1	0	0	0	2	1	6	2	0	0	19	0	0	0	0	1	0	2	0	0	9	2	3	0	2	0	0	16	0	2	1	0
OTU 196	0	1	0	0	0	1	0	0	2	6	11	0	0	0	0	0	0	0	1	0	0	2	0	1	0	1	3	0	2	0	24	1	0	0	60	0	0	11	7	1	0	4	2	1	0	1	3	0	0	4
OTU 197	3	0	0	3	3	10	12	3	119	1	14	57	1	4	0	0	3	0	5	0	2	0	3	0	16	2	2	5	2	0	0	5	1	1	0	0	1	1	2	1	0	9	4	7	0	37	1	1	1	1
OTU 198	6	0	0	0	0	0	0	0	0	0	0	0	4	0	1	1	0	0	0	0	0	0	0	0	0	0	0	0	0	0	0	0	2	0	0	1	0	1	0	0	0	0	0	0	1	0	0	0	0	0
OTU 199	0	0	0	1	2	4	0	0	0	1	6	0	1	0	0	1	0	0	0	0	0	0	0	1	2	0	1	0	0	0	0	0	0	2	0	0	0	0	0	0	0	3	2	0	1	3	4	0	0	0
OTU 200	0	0	1	1	1	0	3	1	0	0	0	0	4	2	0	0	0	0	3	0	0	4	1	0	0	2	1	0	2	3	4	3	0	0	0	1	1	2	0	0	0	0	0	0	1	3	0	0	1	0
