	Host 1	Host 2	Host 3	Host 4	Host 5	Host 6	Host 7	Host 8	Host 9	Host 10	Host 11	Host 12	Host 13	Host 14	Host 15	Host 16	Host 17	Host 18	Host 19	Host 20	Host 21	Host 22	Host 23	Host 24	Host 25	Host 26	Host 27	Host 28	Host 29	Host 30	Host 31	Host 32	Host 33	Host 34	Host 35	Host 36	Host 37	Host 38	Host 39	Host 40	Host 41	Host 42	Host 43	Host 44	Host 45	Host 46	Host 47	Host 48	Host 49	Host 50	
OTU 1	1	0	3	4	1	3	0	1	0	0	0	0	0	4	2	2	0	2	1	0	3	0	3	0	0	0	2	6	0	2	0	3	0	2	1	4	0	0	0	2	3	0	3	3	0	0	1	1	2	0
OTU 2	8	0	1	0	0	0	0	0	3	0	0	0	0	0	0	0	1	0	3	6	0	0	0	43	3	2	4	0	0	0	1	0	5	0	0	6	0	0	1	1	0	0	2	0	6	0	0	0	15	0
OTU 3	0	0	0	1	0	0	0	0	0	0	0	0	0	0	0	1	0	0	0	0	0	0	0	3	0	0	0	1	0	0	0	1	0	0	0	0	0	1	1	1	0	1	0	0	0	0	2	0	2	0
OTU 4	0	0	0	0	0	0	0	0	0	0	0	0	0	0	0	0	0	0	0	0	0	0	0	0	0	0	0	0	0	0	0	0	0	0	0	0	0	0	0	0	0	0	0	0	0	0	0	0	0	0
OTU 5	13	1	0	5	3	3	3	9	40	5	15	0	45	13	0	21	23	7	15	4	0	7	7	6	0	1	0	2	15	2	11	0	3	1	14	5	0	6	10	14	12	1	0	0	0	29	11	0	13	2
OTU 6	4	2	5	0	1	0	0	1	3	0	0	1	0	2	0	2	0	0	0	11	7	2	8	1	1	0	1	0	5	7	2	4	4	0	3	4	1	0	0	0	1	2	0	0	0	2	0	0	13	0
OTU 7	6	6	0	3	1	0	12	0	2	1	5	1	5	3	1	2	17	1	2	0	1	1	0	2	4	1	2	3	5	0	3	0	9	3	20	4	55	1	2	1	0	18	7	4	7	1	3	2	1	9
OTU 8	1	1	0	3	0	0	0	0	1	1	0	1	3	0	0	0	0	1	0	1	3	1	1	4	4	0	1	0	1	0	0	1	8	1	73	1	8	1	80	1	0	2	2	4	3	0	1	8	1	4
OTU 9	0	0	0	0	0	0	0	0	0	2	0	3	0	0	0	0	0	1	2	0	5	3	0	2	0	0	0	1	2	1	1	2	1	0	0	0	1	0	0	4	4	0	0	0	1	9	0	0	0	0
OTU 10	0	0	0	1	0	0	13	0	0	0	0	0	0	0	0	0	4	0	4	0	2	2	1	0	10	1	0	1	0	0	0	0	0	0	4	2	0	0	0	0	1	12	0	0	0	0	1	2	0	2
OTU 11	1	1	0	3	0	27	0	1	2	1	4	1	0	0	1	1	2	0	2	0	2	0	2	1	2	0	0	2	1	0	3	0	0	3	3	0	3	3	3	1	1	0	2	2	8	4	3	1	0	5
OTU 12	2	0	156	2	0	0	2	0	0	2	0	2	0	1	0	0	0	0	0	0	0	0	0	0	0	0	1	1	0	0	1	2	4	0	5	0	1	0	2	0	0	1	0	0	2	6	3	1	2	1
OTU 13	0	0	0	0	0	0	0	0	0	0	0	0	0	0	0	0	0	0	0	0	0	0	0	1	3	0	0	0	0	0	0	0	0	0	5	0	0	0	1	0	0	0	4	0	0	0	0	0	0	0
OTU 14	1	1	0	0	0	0	3	0	0	0	0	3	0	0	0	0	0	0	0	1	3	1	1	0	2	0	0	0	0	0	0	0	0	0	2	0	0	0	0	0	0	9	0	1	0	0	1	2	0	1
OTU 15	0	0	1	0	3	0	1	0	0	0	1	0	0	0	1	0	0	0	0	0	0	0	0	0	0	0	0	0	0	0	0	0	0	1	1	0	0	0	0	0	0	8	1	0	0	0	0	0	0	7
OTU 16	0	0	0	0	0	0	0	0	0	0	0	0	0	0	1	0	0	0	0	0	0	0	0	0	0	0	0	0	0	0	0	0	0	0	0	0	0	0	0	0	0	0	0	0	0	0	0	0	0	0
OTU 17	0	0	0	0	0	0	0	0	1	0	0	0	0	0	0	0	0	0	0	2	0	0	0	0	8	4	2	0	0	4	0	0	5	0	0	7	0	0	0	3	1	0	0	1	0	0	0	1	0	3
OTU 18	2	2	2	0	5	1	0	1	0	4	93	0	0	4	2	1	4	0	0	0	1	3	2	7	0	3	1	0	5	0	1	1	2	1	0	3	3	118	4	2	1	0	1	4	3	5	0	2	0	0
OTU 19	0	0	0	0	0	0	0	1	0	0	0	0	0	0	0	0	0	0	0	0	0	0	0	0	0	0	0	0	0	0	0	0	0	0	0	0	0	0	0	2	0	0	0	0	0	0	0	0	0	0
OTU 20	0	0	2	0	2	0	0	12	0	1	0	1	0	0	1	1	0	0	1	0	0	3	5	0	0	4	1	0	1	0	12	3	4	0	0	1	2	0	1	0	0	1	1	0	2	2	5	0	1	0
OTU 21	0	1	0	1	0	0	0	0	0	0	0	0	5	0	0	0	2	1	29	0	10	0	0	2	2	0	1	9	0	0	0	1	2	0	1	0	1	1	2	1	2	0	0	3	4	0	0	1	4	0
OTU 22	0	1	0	8	0	4	0	160	2	0	2	2	1	0	1	2	2	0	1	1	3	12	2	0	0	2	1	14	6	0	0	1	0	3	1	1	4	4	1	2	1	0	4	0	0	1	3	0	0	1
OTU 23	0	0	0	0	0	50	1	0	0	1	54	0	3	0	65	1	0	1	1	0	0	1	2	0	0	2	0	0	0	0	1	0	0	102	0	0	3	2	2	0	0	1	0	9	0	1	3	0	0	0
OTU 24	2	7	0	1	0	0	0	1	1	0	0	9	1	0	0	0	1	0	1	0	11	0	2	1	1	0	0	1	0	0	1	0	0	0	0	0	5	0	0	0	2	0	0	1	0	0	0	0	0	0
OTU 25	0	0	0	0	0	0	0	0	0	0	0	0	0	1	0	0	0	0	0	0	0	0	0	0	0	0	0	0	0	0	2	0	0	0	1	0	0	0	0	0	0	0	0	0	0	0	0	0	0	0
OTU 26	0	0	0	0	0	0	0	0	0	1	0	0	0	0	0	0	0	0	0	0	0	0	0	0	0	2	0	0	0	0	0	0	0	0	12	0	0	0	0	0	0	0	0	2	0	0	0	3	0	0
OTU 27	0	0	0	0	0	0	0	0	0	0	0	0	0	0	0	0	0	0	0	0	0	0	0	0	0	0	0	0	0	0	0	0	0	0	0	2	0	0	0	0	0	0	0	0	0	0	0	0	1	0
OTU 28	2	0	1	1	1	0	1	0	0	2	0	0	9	0	4	0	2	0	2	1	2	0	1	1	7	13	5	4	0	6	0	1	0	2	6	1	0	2	0	0	1	11	2	0	0	2	2	5	0	1
OTU 29	1	0	0	0	1	1	0	0	4	0	0	1	5	0	1	1	2	3	8	0	3	3	9	0	0	0	9	0	0	3	1	0	5	1	0	0	6	4	0	0	4	1	1	3	1	0	1	1	0	0
OTU 30	0	0	0	0	0	0	0	0	0	0	0	0	0	0	0	0	0	0	0	0	0	0	0	0	0	0	0	0	0	0	0	0	0	0	0	0	2	0	0	0	0	0	0	0	0	0	0	0	0	0
OTU 31	0	0	0	0	0	0	0	0	6	0	0	5	0	1	2	0	0	0	0	0	15	2	0	0	0	0	3	0	0	4	0	3	1	0	0	0	0	1	0	0	2	3	2	0	0	0	0	2	0	0
OTU 32	3	2	8	5	1	0	2	1	25	0	0	1	0	9	0	2	0	13	1	0	5	13	17	3	4	3	43	17	0	26	2	12	3	0	0	0	10	7	14	1	38	8	1	3	14	25	0	4	0	1
OTU 33	0	0	0	0	0	0	0	0	0	0	0	0	0	0	0	0	0	0	0	0	0	0	0	0	0	0	0	0	0	0	0	0	0	0	0	0	0	0	0	0	0	0	0	0	0	0	0	0	0	0
OTU 34	4	0	0	1	1	1	3	1	0	7	0	0	1	0	1	0	2	2	0	0	1	0	0	0	0	0	0	2	4	0	0	0	1	1	0	6	3	4	0	2	0	0	1	2	0	2	0	0	2	2
OTU 35	0	0	0	72	1	1	0	0	1	0	0	13	0	0	0	2	0	0	1	2	11	1	0	7	0	0	1	0	1	0	0	0	28	1	0	3	1	0	7	1	0	0	0	6	1	13	3	2	1	2
OTU 36	0	0	2	2	2	0	2	0	1	1	0	2	0	0	0	0	0	1	0	22	2	2	0	0	4	4	1	3	3	0	0	0	1	1	0	1	7	0	4	0	0	2	0	0	0	1	0	1	1	0
OTU 37	8	0	0	0	0	1	0	0	0	0	0	0	0	1	0	0	0	0	0	0	0	0	0	0	5	10	0	0	0	0	0	0	0	0	0	0	0	0	0	0	3	0	42	0	0	1	3	0	0	0
OTU 38	5	0	1	5	0	0	0	0	0	0	0	3	0	0	0	5	1	2	0	1	0	3	0	0	3	2	0	12	0	0	0	0	1	0	2	0	0	0	0	0	0	1	0	13	3	0	2	1	0	0
OTU 39	0	0	0	0	0	0	0	0	0	0	0	0	0	0	0	1	0	0	0	0	0	0	0	0	1	0	0	0	0	0	0	1	0	0	0	0	0	2	0	0	0	0	0	0	0	0	0	4	0	0
OTU 40	1	1	1	4	1	2	0	2	1	2	0	8	1	0	0	1	2	0	0	2	4	2	0	0	11	1	1	17	0	0	0	0	1	0	0	0	1	2	22	0	0	3	1	0	10	43	6	0	0	2
OTU 41	1	1	0	0	0	2	0	7	0	11	0	0	5	0	5	0	1	0	5	1	1	1	0	0	2	0	0	3	0	0	2	0	0	3	0	0	2	0	0	4	1	0	0	4	3	1	4	0	1	1
OTU 42	0	0	0	0	0	0	0	0	0	0	0	0	0	0	0	3	0	0	0	0	0	0	2	0	0	0	1	3	1	1	0	0	0	1	0	0	0	0	0	3	0	4	0	0	3	0	0	1	0	0
OTU 43	0	0	0	0	0	0	84	0	0	0	0	0	0	0	0	0	0	0	0	0	0	0	0	0	0	0	0	0	0	0	0	0	0	0	0	0	0	0	0	0	0	0	0	0	0	0	0	2	0	0
OTU 44	2	0	0	1	0	0	1	0	0	0	1	0	0	0	0	0	0	0	0	0	1	0	0	0	0	0	0	1	6	0	0	0	0	1	0	0	0	0	0	1	0	0	0	0	1	5	133	0	0	0
OTU 45	0	0	1	1	2	1	0	0	0	1	0	4	0	0	0	2	2	0	1	0	1	1	1	3	0	0	0	2	4	1	1	0	5	0	0	0	1	2	0	0	0	0	1	2	0	1	0	5	0	0
OTU 46	13	2	0	1	1	0	0	0	4	2	0	0	6	0	1	6	0	1	6	0	0	5	0	3	1	6	0	3	2	1	0	2	6	1	0	0	0	8	1	3	1	1	5	1	47	1	0	14	0	4
OTU 47	0	0	0	0	0	0	0	0	2	0	0	0	0	0	0	0	0	0	0	0	0	0	0	0	0	1	0	0	0	0	0	0	0	2	0	0	2	0	0	0	0	0	0	0	0	0	0	0	0	0
OTU 48	10	0	0	3	4	0	0	1	0	5	0	0	2	2	0	1	0	0	0	1	1	5	0	1	6	23	2	4	1	0	3	1	1	0	5	1	0	0	3	3	2	0	0	11	0	3	2	1	2	1
OTU 49	0	0	0	2	1	0	0	1	3	0	0	1	0	0	0	0	0	0	0	0	0	1	3	101	0	0	2	8	3	0	0	2	7	0	0	1	0	1	1	4	0	2	2	1	3	6	1	3	0	1
OTU 50	2	2	0	3	2	0	0	0	0	3	0	2	1	0	2	2	2	0	0	3	5	0	2	2	9	4	6	5	1	1	6	1	2	0	0	0	1	2	0	1	1	0	0	1	0	1	0	2	3	1
OTU 51	1	0	1	0	0	0	8	2	24	0	0	0	1	1	0	0	1	0	0	0	1	0	1	1	1	4	3	0	0	1	0	1	3	1	9	0	0	0	0	0	1	12	0	0	1	1	1	0	0	4
OTU 52	4	3	2	1	42	2	2	2	0	3	0	8	3	1	1	0	2	0	3	1	13	9	59	2	2	5	5	8	1	0	0	4	1	0	6	0	4	8	0	2	0	1	3	10	0	2	0	4	1	0
OTU 53	0	0	0	0	0	0	0	0	0	0	0	0	0	0	0	0	0	0	0	0	0	0	0	0	0	0	0	0	0	0	0	0	0	0	0	0	0	0	0	0	0	0	0	0	0	0	0	0	0	0
OTU 54	0	2	4	0	4	1	1	3	0	1	1	0	7	0	2	4	6	2	0	0	1	0	5	0	1	0	1	1	4	0	5	2	0	0	3	3	3	2	2	4	5	0	2	6	3	2	0	6	13	1
OTU 55	0	0	0	0	0	0	0	0	0	0	0	0	0	0	0	0	0	0	0	0	0	0	0	0	0	0	0	0	0	0	0	0	0	0	0	0	0	0	0	0	0	0	0	0	0	0	0	0	0	0
OTU 56	0	0	0	0	0	1	0	0	0	0	0	0	1	0	0	0	0	0	0	0	0	2	0	0	1	0	0	0	0	0	1	0	1	0	0	0	0	0	0	0	2	0	0	10	1	0	3	0	0	1
OTU 57	9	0	0	4	0	0	3	49	0	2	0	2	12	3	2	2	1	0	8	3	2	1	46	2	2	3	3	5	5	2	1	3	2	1	1	7	7	1	3	99	1	4	2	1	6	2	4	1	6	1
OTU 58	0	0	0	0	0	3	2	3	0	0	0	0	3	0	1	0	0	0	0	0	4	2	0	0	8	0	1	0	0	0	0	0	5	3	1	0	0	1	0	4	0	1	1	0	1	0	2	1	0	0
OTU 59	3	1	2	3	0	0	0	1	0	1	0	0	0	0	0	1	0	1	0	0	0	0	2	0	1	0	0	5	0	1	0	4	0	0	4	0	5	0	0	0	0	1	1	2	0	0	3	0	0	1
OTU 60	0	4	0	0	0	0	5	2	0	0	0	1	5	0	0	1	2	1	2	0	11	1	0	0	3	16	0	0	0	2	0	5	2	2	0	2	0	0	2	5	0	7	2	0	8	1	0	1	0	9
OTU 61	5	4	15	0	4	0	0	3	2	3	1	2	0	21	0	1	2	18	7	1	6	0	0	2	0	3	15	1	1	25	5	0	0	1	8	3	7	0	0	1	27	1	5	1	1	1	0	0	2	1
OTU 62	0	0	0	0	0	0	0	0	0	1	0	0	0	0	0	1	0	0	0	7	0	3	0	0	0	0	0	1	1	0	0	0	0	0	0	3	0	0	2	2	0	0	1	0	0	0	2	1	2	0
OTU 63	2	0	1	0	3	0	0	0	0	0	0	0	1	0	159	0	0	0	0	0	0	3	1	1	3	0	0	0	0	0	0	15	0	0	0	0	1	14	0	0	0	0	0	0	0	0	0	0	0	1
OTU 64	3	97	0	1	3	4	2	9	1	2	9	170	2	0	8	1	2	2	5	2	7	2	8	3	2	5	0	0	1	2	0	0	2	8	2	0	6	8	44	6	0	0	1	14	7	4	1	15	3	5
OTU 65	1	0	0	0	0	0	0	0	0	0	0	0	0	0	0	0	0	0	4	0	0	0	0	0	0	0	0	0	0	0	0	0	15	0	0	0	0	0	0	0	0	0	0	0	0	0	0	0	0	0
OTU 66	0	1	0	0	0	2	1	3	0	0	2	0	1	0	4	1	1	1	0	0	8	0	0	0	1	0	1	0	1	4	0	1	2	0	1	1	13	3	0	5	1	0	1	0	3	0	0	0	3	0
OTU 67	3	1	0	1	0	0	1	1	0	2	1	0	2	0	0	2	1	0	0	0	0	0	0	0	0	2	0	3	3	1	0	0	0	2	2	0	0	1	3	0	0	3	0	5	0	0	0	2	3	0
OTU 68	0	0	0	0	0	0	0	0	0	0	0	0	0	0	0	1	0	1	1	42	0	0	0	2	1	0	0	0	0	4	2	0	0	1	0	36	0	0	4	0	1	1	0	0	3	0	0	0	74	0
OTU 69	0	0	0	1	0	44	0	0	0	1	41	0	7	2	36	0	0	0	0	4	0	2	0	0	2	5	4	2	0	2	0	0	1	75	3	0	11	5	0	0	4	0	1	7	6	1	1	4	0	0
OTU 70	0	0	0	1	3	0	0	0	0	0	0	0	0	1	1	0	0	0	0	0	0	0	0	1	0	2	0	2	2	0	2	0	0	0	0	1	0	0	1	0	0	0	0	3	0	0	0	0	0	0
OTU 71	0	1	0	0	0	0	0	0	0	0	0	2	0	0	1	15	0	6	2	2	1	0	2	0	3	0	2	1	0	0	0	0	4	1	2	0	0	0	0	0	0	0	4	1	0	0	1	1	0	0
OTU 72	12	0	1	0	2	0	0	0	3	0	0	2	1	22	2	3	9	21	0	0	1	1	2	2	0	6	9	0	3	0	0	0	0	0	4	2	6	3	0	0	60	0	0	0	1	4	2	4	0	0
OTU 73	3	0	1	0	1	0	0	0	0	1	47	0	0	0	0	0	1	0	0	2	0	0	0	0	9	2	1	0	0	0	1	0	0	0	0	0	0	1	3	0	0	0	0	0	2	1	0	0	0	1
OTU 74	1	0	2	0	1	2	2	0	0	0	0	0	6	45	0	0	0	1	0	0	1	0	0	0	12	6	0	2	4	4	0	2	4	1	0	9	14	1	0	0	0	1	0	0	0	4	5	3	4	2
OTU 75	0	1	0	3	0	0	0	0	3	1	1	2	2	1	1	3	1	1	1	0	2	0	21	8	24	1	9	4	1	0	1	3	2	1	3	3	8	2	1	1	0	1	2	6	0	6	0	2	1	0
OTU 76	0	0	1	0	0	0	0	0	0	1	0	0	0	1	0	0	0	0	0	0	0	0	0	2	0	0	0	0	0	0	0	0	5	0	0	4	0	3	1	0	0	0	0	16	0	1	0	1	0	0
OTU 77	0	0	1	34	4	1	1	0	0	1	2	3	0	0	0	2	0	1	2	0	5	2	3	1	0	0	0	64	0	0	0	2	0	0	0	0	3	1	0	2	3	2	0	1	0	0	0	3	1	0
OTU 78	0	1	0	2	0	0	0	5	0	26	1	2	4	1	0	5	0	0	7	4	2	0	0	0	1	1	0	6	3	0	16	1	1	1	0	0	2	1	0	15	2	0	0	0	3	0	0	0	0	0
OTU 79	10	3	2	2	4	1	8	17	8	6	1	1	25	23	0	3	12	35	8	125	4	4	9	11	6	4	14	4	7	4	4	5	2	0	3	4	4	3	7	28	42	7	0	2	5	5	12	14	2	1
OTU 80	4	5	109	0	0	0	0	0	8	6	0	6	1	1	2	0	1	1	2	0	8	0	8	0	2	0	6	0	5	154	2	7	1	0	0	1	0	0	10	0	1	0	1	2	3	10	0	3	0	0
OTU 81	3	178	0	3	3	0	1	0	6	5	2	1	0	0	0	0	0	9	0	1	12	3	2	2	1	0	13	2	8	3	6	0	1	4	1	125	4	3	5	0	0	4	5	0	12	6	2	0	0	1
OTU 82	3	0	0	0	0	0	7	0	0	0	0	1	0	0	1	0	0	0	3	0	5	0	0	0	0	7	0	0	1	0	1	0	0	0	2	0	2	0	0	0	0	14	0	2	0	0	0	0	0	4
OTU 83	0	0	0	0	2	0	0	0	2	0	0	0	0	0	0	2	0	0	0	0	0	0	0	0	0	0	3	0	1	0	0	0	1	0	0	0	0	0	1	0	0	1	1	0	0	0	0	0	0	0
OTU 84	0	0	0	1	3	14	1	2	1	1	8	0	0	0	7	0	0	1	1	0	0	1	1	0	0	1	1	0	0	0	0	1	0	44	1	0	5	0	0	1	1	6	0	4	0	0	0	0	1	0
OTU 85	0	0	0	0	0	0	0	0	0	0	0	0	7	2	0	0	0	0	2	2	1	0	0	1	1	1	0	0	0	0	0	0	0	0	0	1	0	1	0	0	0	0	0	16	1	0	0	1	1	0
OTU 86	0	0	0	0	0	0	0	0	0	0	0	0	0	0	0	0	0	0	0	0	0	0	0	0	0	0	0	0	1	0	0	0	0	0	0	0	0	0	0	0	0	0	0	0	0	0	0	0	0	0
OTU 87	0	0	0	0	0	0	3	5	0	0	0	0	1	0	0	0	0	0	0	0	3	0	0	0	0	1	0	0	0	2	0	0	0	0	38	1	0	0	0	13	0	17	0	0	0	1	0	0	1	12
OTU 88	0	0	3	0	0	0	0	0	0	0	0	0	0	0	0	0	0	0	0	1	0	0	0	0	0	0	0	0	0	1	0	0	0	0	1	0	0	5	0	0	1	0	0	0	0	0	0	0	1	0
OTU 89	1	0	1	0	0	0	0	0	1	0	0	0	2	0	0	1	0	0	1	1	0	0	0	0	1	0	0	0	1	0	0	0	0	0	0	0	2	0	1	0	0	0	2	0	8	2	1	0	0	0
OTU 90	0	0	0	0	0	0	0	0	0	1	0	0	0	0	0	0	0	0	0	1	0	2	0	0	0	0	0	0	0	0	0	0	0	0	1	0	0	0	0	0	0	0	0	0	1	0	0	0	0	0
OTU 91	0	0	0	0	0	0	0	0	0	5	0	0	0	0	0	0	0	0	0	0	0	31	0	0	0	0	0	0	0	0	0	0	0	0	0	0	0	26	0	0	0	0	1	0	0	0	0	0	0	0
OTU 92	3	0	0	0	0	0	0	0	0	0	0	0	0	0	0	0	3	0	1	0	0	2	0	0	9	0	0	0	0	0	0	0	0	0	0	0	0	0	0	0	0	0	0	0	0	0	1	0	1	0
OTU 93	1	0	0	0	1	0	0	0	0	0	0	0	1	0	0	0	0	0	0	0	0	0	0	0	0	5	1	0	0	1	0	0	0	0	0	0	0	0	0	0	0	0	0	0	1	0	0	0	0	0
OTU 94	3	1	0	0	8	0	0	0	6	1	0	11	0	2	0	0	3	1	1	1	5	2	3	1	6	12	10	0	7	0	2	2	0	0	0	0	3	0	2	1	0	0	6	0	0	3	1	0	1	0
OTU 95	1	0	0	0	0	0	1	0	0	57	0	0	0	0	0	0	0	0	0	0	1	0	0	0	7	0	0	0	2	1	31	0	0	1	0	0	0	0	0	0	0	2	0	0	0	0	0	0	0	0
OTU 96	0	0	0	0	0	0	0	0	0	1	0	0	0	0	0	0	0	0	0	0	0	0	0	0	0	0	0	0	0	0	0	0	10	0	0	0	0	0	0	0	0	0	0	0	0	0	0	0	0	0
OTU 97	0	0	5	0	0	1	0	0	0	0	0	0	0	0	0	0	0	0	1	0	0	0	0	0	0	0	0	0	0	6	0	0	0	0	0	2	0	0	0	0	0	0	0	0	0	0	0	0	2	0
OTU 98	0	0	1	0	0	0	1	0	2	0	0	0	0	1	0	0	0	1	0	0	0	1	0	0	1	0	0	0	0	1	0	7	6	0	0	0	1	0	0	0	1	2	0	0	2	1	0	0	0	0
OTU 99	2	0	0	1	0	1	2	1	6	0	0	2	6	0	0	3	3	7	0	1	1	4	0	0	2	1	4	4	4	1	0	4	16	2	0	0	2	1	1	1	2	0	1	11	0	0	0	1	0	0
OTU 100	1	1	1	0	0	0	13	0	0	0	4	0	2	0	1	9	0	5	0	0	0	1	0	8	2	0	0	0	0	2	2	4	0	3	5	0	2	0	0	0	0	28	0	0	0	0	0	0	1	32
OTU 101	0	0	0	0	0	0	1	1	0	0	0	0	0	0	0	0	2	0	1	0	1	0	0	0	0	0	0	0	1	0	0	1	0	1	2	0	0	0	0	1	0	0	0	0	0	0	0	0	0	0
OTU 102	0	0	0	0	1	0	0	0	0	0	0	0	0	0	0	0	31	0	0	0	2	0	0	0	0	0	3	2	0	2	0	0	0	1	0	0	2	1	0	0	4	0	1	0	2	0	0	0	0	1
OTU 103	5	2	1	1	0	0	0	0	0	1	0	0	1	0	2	0	0	167	0	2	1	0	0	0	0	0	0	1	0	0	1	0	2	1	0	2	0	2	1	0	0	2	1	1	0	0	6	0	1	2
OTU 104	73	1	2	1	11	2	0	0	1	0	4	1	4	2	9	0	4	0	0	3	4	1	0	0	0	6	5	1	29	1	0	0	19	7	40	3	8	5	0	0	4	0	32	0	3	3	2	2	4	0
OTU 105	4	0	0	1	0	0	0	0	2	1	0	0	0	0	1	0	0	0	0	0	0	0	1	1	0	10	2	2	0	0	0	9	0	0	0	0	0	1	0	0	0	0	0	0	0	0	0	0	0	0
OTU 106	0	0	0	2	0	0	0	0	1	1	0	0	0	0	0	0	0	3	0	0	0	0	7	0	0	0	2	3	1	0	0	0	0	0	0	0	0	0	0	1	0	0	1	10	3	0	0	0	0	0
OTU 107	0	0	1	1	0	1	0	1	0	0	0	0	0	0	0	0	0	0	0	0	0	0	0	0	3	0	0	0	0	0	0	0	24	3	0	0	0	0	0	0	0	0	0	0	0	3	0	24	0	0
OTU 108	0	0	0	0	1	0	3	0	0	0	0	0	0	0	0	0	17	0	0	0	3	0	2	0	2	0	0	0	1	0	0	0	0	0	1	0	2	0	0	0	0	0	0	4	3	2	0	0	0	1
OTU 109	0	0	0	0	1	0	0	0	0	0	0	0	0	0	0	0	0	0	0	0	0	0	0	0	0	0	0	0	3	0	0	0	0	0	0	1	0	0	0	1	0	0	0	0	0	0	0	0	0	0
OTU 110	7	0	3	0	0	0	10	1	4	0	1	0	9	0	1	0	1	0	3	6	3	1	5	11	2	0	6	0	2	1	2	5	4	3	7	2	1	0	1	1	3	8	0	1	0	0	1	0	2	2
OTU 111	0	0	0	0	0	0	0	0	0	0	0	0	2	0	0	0	0	0	0	0	1	12	0	0	0	0	0	0	0	0	0	0	0	0	0	0	0	2	0	0	0	0	1	0	0	0	1	0	0	0
OTU 112	0	0	0	2	0	0	4	0	0	0	0	0	2	0	2	0	1	0	0	0	0	2	0	1	1	0	0	12	0	0	0	143	3	0	2	0	0	0	0	0	0	1	0	0	0	1	0	0	0	0
OTU 113	0	0	0	0	0	0	0	0	0	5	0	0	0	0	0	0	0	0	0	0	0	0	0	0	0	0	0	0	0	1	0	0	0	0	0	0	0	1	0	0	1	0	0	0	0	0	0	0	0	0
OTU 114	6	4	0	5	5	0	4	1	2	12	0	11	0	2	0	3	1	0	0	0	10	2	3	0	2	5	9	0	8	1	7	2	8	1	0	2	9	0	7	0	0	2	4	3	2	11	0	1	1	6
OTU 115	2	0	2	0	0	1	9	2	3	2	3	0	0	1	5	7	4	2	2	0	3	0	7	1	4	5	6	8	0	2	3	5	1	0	0	0	4	1	2	2	2	6	1	10	17	0	0	2	0	1
OTU 116	0	0	0	1	4	1	0	0	0	0	0	2	4	7	0	0	2	1	0	0	0	1	2	0	4	0	3	0	1	7	2	10	3	1	9	0	1	7	0	2	0	0	5	0	4	1	0	2	0	0
OTU 117	0	0	0	0	3	0	0	1	2	2	0	0	0	1	2	6	0	0	4	0	0	0	2	19	1	7	0	0	0	0	1	1	0	0	0	3	8	0	0	0	0	0	4	0	1	1	1	1	1	3
OTU 118	0	0	0	0	0	0	0	0	0	0	0	0	0	1	0	0	0	0	0	0	0	0	0	0	0	9	0	1	0	3	0	0	0	0	1	0	0	0	0	0	0	0	0	0	0	0	0	0	0	0
OTU 119	1	0	2	1	1	0	0	0	0	3	1	0	1	1	0	1	5	0	1	1	0	2	0	3	1	1	1	3	1	1	0	0	0	1	2	0	2	4	7	0	0	3	1	3	0	3	2	0	0	0
OTU 120	0	0	0	0	0	8	0	0	0	1	8	3	3	0	11	1	0	0	3	0	2	0	0	2	1	2	0	0	0	1	0	0	3	21	0	0	0	0	4	0	0	0	0	0	0	0	0	0	0	0
OTU 121	0	0	1	0	1	0	2	0	0	2	0	0	0	0	0	0	1	1	1	0	0	1	2	0	0	2	0	1	10	1	2	0	0	0	0	0	0	0	0	1	0	1	0	4	0	2	0	0	0	0
OTU 122	2	0	0	0	0	6	0	0	1	3	0	0	0	0	0	0	1	0	0	2	0	0	7	0	1	1	4	0	2	0	0	0	6	4	2	1	4	0	2	2	3	3	2	10	0	1	1	0	1	0
OTU 123	18	3	3	1	9	2	0	2	0	15	2	4	1	2	5	5	3	4	0	1	13	11	7	4	2	2	13	1	9	1	5	1	11	5	1	2	9	20	30	4	4	5	7	4	15	29	10	17	7	1
OTU 124	1	0	0	0	0	0	0	0	0	2	0	0	0	0	1	0	0	0	0	0	0	1	0	2	0	0	0	1	0	0	0	0	0	0	3	0	1	0	0	0	0	0	0	0	0	4	1	0	0	0
OTU 125	4	0	1	13	1	2	1	7	5	30	2	2	32	4	0	4	24	4	5	4	6	4	3	4	18	1	15	9	4	4	19	1	7	1	5	1	3	4	7	1	1	4	6	5	11	4	10	4	3	4
OTU 126	0	0	0	0	11	0	1	0	0	0	0	0	0	0	0	0	0	0	0	0	0	6	2	0	0	2	0	0	17	0	0	0	0	0	0	0	0	12	0	0	0	5	0	0	0	0	0	0	0	0
OTU 127	0	0	0	0	0	1	0	0	0	1	1	2	7	0	0	0	1	0	81	2	4	1	0	4	0	0	2	0	0	0	0	0	0	2	0	6	0	3	0	0	0	0	6	1	0	0	0	0	1	0
OTU 128	24	3	4	7	11	2	42	23	46	22	1	11	1	16	1	9	12	9	5	6	10	2	4	2	4	12	23	17	9	22	23	13	11	4	0	2	9	15	2	32	23	69	117	2	13	18	9	4	8	53
OTU 129	0	0	0	0	0	0	0	0	0	0	2	0	0	1	0	0	0	0	0	0	0	3	1	0	0	0	1	0	0	0	0	0	0	0	0	0	0	0	1	0	0	0	0	0	0	0	0	0	0	0
OTU 130	1	1	0	0	0	0	0	0	1	1	0	0	2	1	0	0	0	0	0	3	0	0	2	2	1	5	4	0	1	0	1	0	2	0	1	1	3	3	2	1	9	0	5	2	3	2	0	1	0	0
OTU 131	0	0	4	0	0	7	0	0	0	4	5	2	3	0	4	0	1	4	0	0	1	4	8	0	1	14	4	1	0	2	4	4	8	12	0	0	3	1	1	0	5	1	0	0	0	0	0	31	0	0
OTU 132	0	0	0	0	0	166	0	0	0	3	0	0	1	0	0	0	1	0	0	0	0	0	0	1	0	2	0	0	0	0	0	2	0	0	2	0	1	0	0	0	0	0	0	3	3	0	2	0	0	0
OTU 133	0	0	2	0	0	0	0	0	0	0	0	1	0	0	0	0	0	1	0	0	0	6	1	0	0	0	0	0	0	0	0	0	3	0	0	2	0	0	0	0	0	1	0	0	0	0	0	0	0	0
OTU 134	4	0	0	0	2	1	0	0	1	3	0	0	0	0	0	2	1	0	0	1	0	5	0	0	1	0	2	2	0	0	86	5	0	0	0	2	1	0	8	1	0	0	0	2	8	6	0	0	0	4
OTU 135	3	0	0	2	1	0	0	0	4	0	1	1	2	0	2	27	15	0	37	0	0	4	0	0	1	0	2	1	2	8	0	5	4	0	2	0	0	1	37	3	6	1	1	2	2	2	3	3	0	0
OTU 136	0	0	0	0	0	0	0	0	0	0	2	1	0	1	1	1	0	0	0	0	0	0	0	0	1	0	0	3	0	0	0	0	0	1	0	0	1	0	1	0	0	0	1	2	1	0	0	0	0	0
OTU 137	1	0	0	0	0	0	0	1	0	0	0	0	0	0	1	0	0	0	0	0	0	63	0	0	0	0	0	0	0	0	0	0	0	0	0	0	0	0	0	2	0	0	0	0	1	0	0	0	0	5
OTU 138	0	0	0	0	0	0	0	0	0	13	0	0	0	1	0	1	0	0	0	0	0	0	0	0	0	2	0	0	0	1	5	0	0	0	0	0	1	0	0	0	0	1	0	1	0	0	13	6	1	0
OTU 139	3	1	0	1	4	4	2	6	1	5	0	3	1	1	1	2	1	2	0	0	3	0	4	2	22	26	2	3	7	0	1	0	5	0	6	1	1	0	0	5	3	7	12	0	1	2	1	2	0	0
OTU 140	5	0	6	1	0	9	4	0	15	2	0	5	2	4	1	0	2	4	0	1	4	7	8	7	3	17	20	10	4	6	41	15	1	5	6	0	1	1	2	0	9	8	3	45	7	18	15	8	1	3
OTU 141	0	0	0	0	0	0	0	2	0	3	0	0	0	0	0	0	0	0	0	0	0	0	1	0	0	0	0	0	0	0	0	0	0	0	0	0	0	0	0	0	0	0	0	0	0	0	0	0	0	0
OTU 142	2	0	0	0	0	0	0	1	0	0	0	0	0	2	0	0	0	0	0	0	0	0	0	2	0	0	0	0	0	0	0	0	0	0	0	0	0	0	0	0	0	0	6	0	0	0	0	0	0	0
OTU 143	0	0	0	0	0	0	0	0	0	0	0	0	1	0	0	0	2	0	0	0	0	0	0	0	0	0	0	0	2	0	0	0	0	0	0	0	0	0	0	0	1	0	0	2	0	0	0	0	0	0
OTU 144	0	0	0	0	8	0	0	0	0	0	0	0	3	0	0	0	0	0	0	0	0	0	0	0	0	0	0	0	0	0	0	0	0	0	0	0	0	0	1	0	0	0	1	0	0	0	0	0	0	1
OTU 145	1	0	0	1	1	1	4	1	0	0	0	0	0	1	2	2	1	0	2	41	2	5	2	1	1	5	0	1	1	0	2	3	7	2	1	42	3	0	2	3	1	2	1	2	9	0	0	7	80	0
OTU 146	0	1	0	0	0	0	3	0	0	0	0	0	6	0	0	1	6	1	0	2	1	1	10	1	9	7	5	0	0	2	0	1	3	1	0	0	5	4	0	0	3	0	0	4	2	0	2	0	2	0
OTU 147	0	3	1	0	0	0	0	0	0	0	0	3	6	0	0	0	0	0	2	1	10	0	0	0	0	0	0	0	0	0	1	7	0	0	0	0	0	0	0	0	0	0	0	1	1	0	0	0	0	0
OTU 148	0	2	0	0	0	0	0	0	0	0	2	5	4	0	0	0	0	2	0	1	6	6	0	12	5	0	2	1	3	1	0	0	12	5	0	1	0	4	3	1	0	4	4	0	1	2	0	7	1	3
OTU 149	0	0	2	1	0	1	1	0	0	0	0	0	23	0	0	0	0	0	0	0	3	0	0	0	3	1	0	0	0	0	0	0	0	0	2	0	0	0	0	0	0	0	0	3	0	0	1	1	0	0
OTU 150	0	1	0	1	0	0	0	0	0	0	0	0	0	0	0	0	0	0	0	0	0	0	2	0	0	7	1	5	0	0	2	0	0	0	0	0	0	0	1	0	2	0	1	1	3	1	0	9	0	2
OTU 151	0	1	0	0	55	0	0	2	76	0	0	0	3	0	0	3	0	0	1	0	0	0	0	0	2	0	0	0	76	0	0	1	1	1	0	2	0	0	0	2	1	1	2	2	0	0	0	0	0	1
OTU 152	0	0	0	2	0	0	0	0	4	2	0	3	1	132	1	0	0	0	0	6	4	0	2	1	8	8	2	3	0	1	5	0	1	0	1	0	0	16	0	4	1	0	0	2	10	1	0	0	1	0
OTU 153	0	0	0	0	0	0	0	0	0	0	0	3	0	0	0	0	0	0	0	0	0	0	0	0	0	0	0	0	0	0	0	0	0	0	0	0	0	0	0	0	0	0	0	0	0	0	0	0	0	0
OTU 154	0	0	0	0	0	0	0	0	1	2	0	0	0	0	2	0	0	0	0	0	0	0	0	6	0	1	0	0	0	0	0	0	0	0	0	2	0	0	0	0	0	0	0	0	0	0	0	1	0	0
OTU 155	0	0	0	0	0	0	0	0	0	2	0	0	3	0	0	3	74	1	0	0	0	0	1	0	3	0	0	0	0	0	0	0	0	0	1	0	0	0	0	0	1	0	0	2	0	0	0	0	3	4
OTU 156	0	1	0	4	0	0	0	0	0	9	0	3	4	1	0	1	3	1	0	0	1	2	0	6	1	9	1	1	2	1	5	0	0	0	0	1	3	0	2	0	2	3	1	0	4	2	0	0	1	1
OTU 157	0	0	0	0	0	0	0	0	1	0	0	0	1	0	0	0	1	0	5	4	0	0	4	0	0	3	0	0	0	3	0	3	3	0	0	0	1	0	3	0	0	0	0	0	0	0	0	0	0	0
OTU 158	0	0	0	0	0	0	0	0	0	0	0	0	1	0	0	0	0	0	0	0	0	0	0	0	0	0	0	1	0	0	0	0	0	0	0	0	0	0	0	0	0	0	2	0	0	0	0	0	0	0
OTU 159	0	1	0	0	0	0	0	0	0	0	3	0	0	0	0	0	6	0	0	5	0	0	0	0	0	9	0	2	1	0	0	0	4	3	0	0	13	1	0	0	0	0	2	0	1	4	0	46	1	0
OTU 160	1	2	0	3	6	0	0	0	4	2	0	3	10	0	3	10	8	0	8	0	9	1	4	3	3	3	8	4	0	5	1	3	2	1	0	2	8	2	0	0	0	0	1	7	1	6	3	5	3	0
OTU 161	0	0	2	0	0	0	1	0	0	0	0	0	1	1	2	0	0	0	1	1	0	0	3	0	0	0	3	0	0	5	3	1	1	0	0	0	0	0	0	0	0	2	0	0	0	3	0	6	0	7
OTU 162	0	0	1	2	1	0	3	2	3	0	5	0	5	1	4	4	0	0	0	0	1	3	2	0	0	5	7	1	1	0	0	7	0	4	0	1	1	0	0	4	1	0	3	0	0	0	0	4	0	0
OTU 163	0	0	0	0	111	0	1	2	0	0	0	0	1	0	0	0	0	0	0	0	0	0	0	0	0	0	0	0	0	0	0	0	0	0	0	0	0	0	0	3	0	0	0	0	0	0	0	0	0	0
OTU 164	0	0	0	0	0	0	0	0	0	0	1	0	0	0	0	10	0	0	0	0	0	0	0	0	2	0	0	0	0	0	0	0	0	0	0	0	0	0	0	0	0	2	0	0	0	0	0	0	0	0
OTU 165	0	0	0	0	0	0	0	0	2	5	0	3	0	1	0	0	5	0	0	0	9	1	0	0	0	2	0	0	1	0	1	1	1	0	0	0	5	0	0	7	0	0	0	0	0	0	0	2	0	0
OTU 166	9	0	0	0	0	0	0	0	0	0	0	0	0	0	0	0	0	0	0	0	0	0	0	0	1	0	0	0	0	0	0	0	0	0	0	0	0	0	0	0	0	0	0	0	0	0	0	0	0	0
OTU 167	0	0	0	0	0	0	0	2	2	0	0	0	0	0	1	4	0	0	0	0	0	0	2	0	0	0	2	0	2	0	0	3	0	0	0	0	0	0	1	0	0	1	0	0	0	1	1	0	0	0
OTU 168	5	0	1	0	1	0	0	0	1	0	1	0	2	0	0	2	0	0	0	1	1	0	0	9	0	1	1	0	0	1	1	0	0	0	2	0	2	0	0	0	0	1	1	0	3	0	1	1	11	0
OTU 169	0	1	0	0	0	0	0	0	0	0	0	2	0	0	0	0	0	0	0	0	1	0	0	0	0	0	0	0	0	0	0	0	0	0	1	0	0	0	0	0	0	0	1	0	0	0	0	0	0	0
OTU 170	0	0	0	0	1	0	0	0	0	0	0	0	0	0	0	0	0	0	0	0	0	0	0	0	0	0	0	0	4	0	0	0	0	0	0	0	0	0	0	0	0	0	2	0	0	0	0	0	0	1
OTU 171	2	0	2	0	0	0	1	0	0	4	0	1	0	0	0	5	0	1	9	0	4	0	2	9	0	0	1	1	1	0	1	3	0	0	0	1	7	0	0	0	0	3	2	2	1	1	1	0	0	4
OTU 172	0	0	0	0	0	3	0	0	4	0	1	0	0	0	0	0	0	2	0	0	0	0	3	1	0	0	8	0	0	0	0	2	0	7	0	0	0	0	0	0	0	0	0	0	0	0	0	0	4	0
OTU 173	0	0	0	0	0	0	0	0	1	0	0	0	0	0	0	0	4	0	0	0	0	1	0	0	0	0	0	1	0	0	0	0	0	0	1	0	4	0	0	0	0	0	0	0	0	0	0	0	0	0
OTU 174	1	1	0	1	0	0	0	0	0	0	0	3	0	0	0	0	0	0	0	16	9	0	2	4	7	0	0	1	0	0	0	2	1	0	0	10	4	0	0	1	0	0	0	0	3	0	1	15	11	0
OTU 175	2	0	0	0	0	0	0	0	0	0	0	0	2	0	0	0	0	0	0	0	0	0	0	0	0	0	0	0	0	1	0	1	4	0	3	1	0	0	0	1	0	0	1	0	0	0	0	0	0	1
OTU 176	1	3	0	4	0	1	0	3	5	7	2	0	1	0	3	8	7	0	1	1	5	3	2	2	10	1	10	3	0	2	3	1	2	1	2	0	0	1	0	4	2	1	0	3	1	0	0	3	0	1
OTU 177	0	0	0	0	2	0	0	0	2	2	2	2	1	0	0	0	0	0	0	1	4	0	1	2	1	2	4	0	2	1	0	0	0	0	0	6	4	3	0	0	0	2	0	0	0	0	4	0	1	1
OTU 178	2	1	0	0	0	0	0	20	0	0	0	0	2	0	0	2	4	3	0	0	0	1	0	2	2	0	0	0	0	2	0	0	1	1	0	0	0	0	0	44	0	0	4	3	3	0	1	0	0	0
OTU 179	0	0	0	0	0	0	0	0	0	0	0	0	0	0	0	8	1	0	1	0	0	4	0	0	0	0	0	0	0	0	0	1	0	0	2	0	1	1	0	0	0	2	0	4	0	2	1	5	0	0
OTU 180	3	2	1	1	10	0	3	4	4	8	0	3	0	1	7	8	3	2	3	1	4	4	3	0	2	8	1	7	21	3	3	0	2	1	4	1	4	1	3	5	4	17	1	5	5	0	21	5	3	4
OTU 181	0	7	0	0	3	0	91	0	1	4	1	5	2	0	1	2	0	0	0	0	5	1	0	0	7	1	0	0	1	2	8	0	0	1	0	0	2	0	0	0	0	6	0	3	5	0	0	0	0	0
OTU 182	0	0	0	0	0	0	0	0	0	0	0	0	0	0	0	0	0	0	0	0	0	0	0	0	0	0	0	0	0	0	0	0	1	0	1	0	0	0	0	0	0	0	1	0	0	0	0	0	0	0
OTU 183	0	3	1	0	1	0	0	0	0	14	0	5	1	1	0	0	0	1	5	0	11	16	0	1	1	0	2	2	0	1	9	3	4	2	0	0	0	2	0	0	1	1	0	1	0	6	0	11	0	0
OTU 184	1	0	0	0	0	0	0	0	1	0	0	0	0	0	0	0	4	0	0	0	2	0	0	6	0	0	0	0	0	0	5	0	0	0	1	0	3	0	0	2	0	2	4	2	0	0	4	3	0	2
OTU 185	0	1	0	2	1	1	0	2	17	4	2	1	0	30	0	3	0	27	31	0	4	0	1	0	5	3	0	1	0	0	2	0	5	1	0	0	2	2	0	3	55	0	0	6	0	6	0	4	6	1
OTU 186	0	0	0	2	0	1	0	0	0	0	0	4	0	0	0	83	0	0	0	0	1	0	1	1	0	0	0	1	0	0	0	0	0	1	0	0	0	0	0	0	0	0	2	1	0	1	0	0	0	0
OTU 187	2	4	8	0	0	1	2	0	0	2	0	1	4	0	0	0	0	1	2	4	2	6	0	0	4	0	0	3	2	9	3	1	6	0	2	1	0	0	3	2	0	1	1	5	15	4	8	1	0	7
OTU 188	1	2	1	4	0	0	0	0	1	0	0	2	1	2	0	9	0	0	1	4	1	0	0	2	3	1	1	11	2	0	0	1	1	1	3	3	3	1	0	3	1	2	2	0	2	0	0	1	1	136
OTU 189	1	0	2	4	0	0	3	1	1	1	0	0	0	4	0	5	3	0	0	0	4	35	2	6	3	0	0	1	4	0	3	1	4	0	0	1	3	0	1	2	3	0	0	3	1	4	1	0	0	0
OTU 190	0	0	1	0	0	0	0	0	0	0	0	0	24	0	0	0	0	0	0	15	0	0	0	0	0	0	0	1	3	1	0	0	0	2	0	19	0	0	1	0	0	0	2	2	0	0	0	3	42	0
OTU 191	1	4	0	3	0	2	7	2	0	2	50	1	1	1	1	2	2	1	1	1	5	3	1	3	0	1	1	5	2	0	0	1	0	2	1	1	2	4	0	0	4	1	3	1	10	0	20	2	1	0
OTU 192	1	4	1	0	1	1	1	1	0	0	0	10	0	0	2	34	0	0	27	0	2	2	4	0	1	2	3	0	6	6	0	1	0	1	1	0	0	0	8	0	0	6	1	6	2	9	2	5	2	1
OTU 193	1	0	0	5	0	0	0	0	0	0	0	1	0	0	0	0	10	0	0	1	0	0	1	3	6	0	1	8	2	0	0	1	2	0	0	2	3	2	0	0	0	0	0	1	0	1	0	0	1	1
OTU 194	0	0	0	2	0	0	0	0	3	0	0	0	0	0	0	0	0	0	0	0	0	0	0	0	4	0	2	0	0	0	0	2	1	1	0	1	0	0	0	0	0	1	0	0	0	2	0	0	0	0
OTU 195	3	0	0	2	4	0	0	0	0	0	0	2	3	0	0	0	0	1	2	0	0	0	0	4	1	0	0	1	3	1	1	2	5	1	0	0	0	1	0	1	2	0	0	0	2	4	7	1	0	1
OTU 196	2	1	0	2	0	0	0	0	1	0	0	3	5	1	0	0	1	1	1	0	1	5	17	0	1	0	1	2	0	0	0	3	2	0	1	1	0	3	1	0	0	0	2	0	5	0	0	3	0	1
OTU 197	19	0	7	121	1	1	2	1	1	8	0	1	4	3	1	0	3	1	0	1	6	2	2	2	5	6	5	4	6	4	0	7	1	0	16	0	1	1	0	0	1	3	0	10	9	2	5	1	5	1
OTU 198	3	0	0	0	3	0	1	0	0	0	0	0	0	0	0	1	0	0	0	0	0	0	1	0	6	0	0	0	3	0	0	0	0	0	0	0	0	0	0	0	0	0	6	0	0	0	0	0	0	1
OTU 199	0	0	0	2	1	0	0	0	0	3	1	0	0	0	0	0	0	0	1	0	2	1	0	1	7	0	0	3	0	0	0	0	1	3	0	3	1	0	0	0	0	0	1	0	0	0	2	0	0	0
OTU 200	0	4	0	0	0	0	0	0	0	0	0	1	0	3	0	0	0	0	5	1	1	4	2	0	2	1	2	3	3	0	2	0	1	0	2	6	2	1	0	0	0	0	0	0	0	2	0	0	0	3
