	Host 1	Host 2	Host 3	Host 4	Host 5	Host 6	Host 7	Host 8	Host 9	Host 10	Host 11	Host 12	Host 13	Host 14	Host 15	Host 16	Host 17	Host 18	Host 19	Host 20	Host 21	Host 22	Host 23	Host 24	Host 25	Host 26	Host 27	Host 28	Host 29	Host 30	Host 31	Host 32	Host 33	Host 34	Host 35	Host 36	Host 37	Host 38	Host 39	Host 40	Host 41	Host 42	Host 43	Host 44	Host 45	Host 46	Host 47	Host 48	Host 49	Host 50	
OTU 1	1	1	4	7	6	3	0	4	2	1	0	0	1	1	0	3	1	0	0	1	0	1	0	8	2	0	1	3	0	0	1	2	0	14	7	1	1	4	13	0	1	6	2	2	4	5	1	2	1	6
OTU 2	0	1	0	2	0	0	0	0	0	0	1	0	0	0	0	9	0	0	0	0	12	10	1	40	0	7	1	0	0	1	1	1	1	0	0	2	0	0	0	1	0	0	0	0	0	0	1	2	5	1
OTU 3	0	0	1	0	0	0	2	0	0	0	0	0	0	0	0	0	0	0	0	1	0	0	1	0	0	0	0	0	0	0	0	0	0	0	0	0	0	0	0	0	4	0	1	0	0	0	0	0	0	0
OTU 4	0	0	0	0	0	0	0	0	0	0	0	0	0	0	0	0	0	0	0	0	0	0	0	0	0	0	0	0	0	0	0	0	0	0	0	0	0	0	0	0	0	0	0	0	0	0	0	0	0	0
OTU 5	23	8	55	7	12	1	6	2	0	20	4	2	13	0	0	1	0	46	18	0	1	4	5	2	9	0	4	58	0	32	14	5	16	8	13	5	6	26	19	1	0	89	13	13	11	42	0	2	2	14
OTU 6	0	0	0	2	0	1	3	1	1	4	2	0	0	0	1	1	0	0	0	0	0	2	0	0	0	0	0	0	2	0	2	2	2	2	0	2	2	0	0	0	0	1	0	2	12	0	0	0	0	0
OTU 7	65	2	1	0	4	0	4	2	2	1	20	2	1	45	6	6	6	3	1	0	4	0	3	21	0	1	5	5	1	2	0	72	2	5	28	0	1	0	62	3	4	2	1	1	2	0	2	0	2	3
OTU 8	2	7	0	1	0	1	2	1	4	5	6	21	1	1	3	6	0	0	1	3	0	2	5	6	3	7	3	11	2	0	0	7	3	2	0	3	2	0	0	0	11	1	7	4	1	1	2	13	1	3
OTU 9	0	3	1	0	0	1	9	0	0	0	0	1	0	0	1	1	0	0	0	1	3	0	1	1	0	3	0	0	0	0	0	0	0	3	0	0	0	0	0	1	0	0	0	1	0	0	0	0	0	0
OTU 10	4	5	0	0	0	0	0	1	0	0	1	0	0	3	0	0	0	4	0	0	0	1	0	0	0	1	0	1	0	2	0	5	0	0	0	0	4	0	0	0	0	2	1	1	0	0	1	0	0	0
OTU 11	0	2	0	4	0	2	1	1	1	3	0	0	0	10	1	12	1	2	0	0	2	12	1	0	1	2	0	6	0	37	3	1	1	1	3	0	0	1	4	2	1	0	0	0	1	0	4	2	13	4
OTU 12	3	0	2	0	2	0	1	0	1	2	1	0	0	0	0	4	0	1	7	5	0	7	0	2	0	3	0	1	1	0	1	0	1	3	0	4	4	0	1	1	4	5	2	1	9	2	0	2	0	0
OTU 13	0	0	0	0	0	0	0	0	0	0	0	0	0	0	0	0	0	0	0	0	0	0	0	0	0	0	0	0	0	0	0	0	0	0	0	0	0	0	0	0	0	0	0	0	0	0	0	1	0	0
OTU 14	0	2	0	1	0	0	0	0	0	2	0	2	0	0	4	0	0	0	0	0	0	0	0	0	0	0	2	0	0	0	0	1	1	0	0	0	6	2	0	0	3	1	0	1	0	0	0	0	0	0
OTU 15	0	0	0	0	0	0	0	0	0	0	0	0	0	0	0	0	0	0	0	0	0	0	0	0	0	0	0	0	0	0	0	0	0	0	0	0	0	0	0	0	1	0	0	0	0	0	0	0	0	0
OTU 16	0	0	0	0	0	0	0	0	0	1	0	0	0	0	0	0	0	0	0	0	2	0	0	0	0	0	0	0	0	0	0	0	0	0	0	0	0	0	0	0	0	0	0	0	0	0	0	0	0	0
OTU 17	0	0	0	1	0	0	0	0	0	0	0	0	0	2	0	0	0	0	0	0	0	0	0	0	0	0	1	0	0	74	0	0	3	0	1	0	0	0	0	0	0	0	0	1	0	0	1	0	0	1
OTU 18	2	0	2	1	1	1	0	2	1	1	0	1	0	0	0	2	1	0	3	1	12	4	2	1	1	1	0	0	2	1	0	0	4	7	0	1	7	1	0	0	2	2	0	0	3	3	79	3	1	3
OTU 19	0	0	0	0	0	0	0	0	0	0	0	0	0	0	0	0	0	0	0	0	0	0	0	0	0	0	1	0	6	0	0	0	0	0	0	0	0	0	0	0	0	0	0	0	0	0	0	0	0	0
OTU 20	0	1	1	1	1	1	0	1	0	14	0	0	0	0	0	0	0	0	0	0	0	0	0	5	1	0	0	1	1	0	3	0	1	0	0	0	1	0	0	7	0	0	0	0	8	0	0	0	0	0
OTU 21	3	0	1	0	0	4	1	2	3	0	1	1	3	0	3	1	1	4	1	10	4	2	7	1	2	0	6	0	0	3	1	0	5	0	0	0	0	0	0	0	10	0	0	3	18	0	0	1	1	7
OTU 22	0	2	1	2	2	1	1	2	2	0	0	0	1	16	10	0	1	0	0	0	0	0	0	1	0	0	4	2	0	0	0	3	46	1	0	1	2	1	3	2	0	0	9	17	0	0	1	7	1	0
OTU 23	0	0	0	0	0	0	3	0	0	0	0	5	0	0	0	0	0	0	2	1	1	1	1	0	0	2	0	0	2	1	0	1	0	9	0	0	0	0	1	4	1	0	0	2	0	1	0	1	0	0
OTU 24	0	0	3	0	0	0	0	0	1	3	0	3	2	3	2	3	0	2	3	0	0	3	1	0	1	0	0	0	0	0	0	2	0	2	0	4	0	0	0	7	1	0	0	3	3	0	0	0	0	1
OTU 25	0	0	0	0	0	0	0	0	0	0	0	0	0	0	0	0	0	0	0	0	0	0	0	0	0	0	0	0	0	0	0	0	0	0	0	0	0	0	0	0	0	0	0	0	0	0	0	0	0	0
OTU 26	1	0	0	0	0	0	0	0	0	0	0	0	0	0	0	0	0	0	0	0	0	0	0	2	0	0	0	0	0	0	0	0	0	0	0	0	0	0	0	0	0	0	0	0	0	0	0	0	0	0
OTU 27	0	0	0	0	0	0	0	0	0	0	0	0	0	0	0	0	0	0	3	0	0	0	0	0	0	0	0	0	0	0	0	0	0	0	0	0	0	0	0	1	0	0	0	0	0	0	0	0	0	0
OTU 28	1	0	3	2	4	0	6	1	1	1	0	3	1	0	0	6	0	0	1	1	2	0	1	2	0	3	1	0	1	8	1	1	1	5	0	1	3	8	0	0	1	15	6	6	2	3	1	0	1	3
OTU 29	3	0	3	5	2	1	0	0	0	1	0	8	70	2	15	0	1	0	3	2	2	1	8	4	0	27	5	0	10	4	1	2	1	11	2	0	4	0	2	0	5	1	3	7	5	0	3	3	0	5
OTU 30	0	0	0	0	0	0	0	0	0	0	0	0	0	0	0	0	0	0	0	0	0	0	0	0	0	0	0	0	0	0	0	0	0	0	0	0	0	0	1	0	0	0	0	0	0	0	0	0	0	0
OTU 31	4	0	0	1	0	0	0	0	0	14	0	0	0	1	0	1	0	1	0	0	0	0	0	23	0	0	0	0	0	0	0	0	0	2	0	0	3	0	0	18	0	0	0	0	3	0	0	0	0	0
OTU 32	1	1	2	7	1	1	0	2	0	0	3	0	0	4	4	10	0	5	43	1	0	24	2	4	0	2	2	13	3	0	1	0	3	2	2	29	1	0	1	3	3	1	1	0	2	0	5	37	3	3
OTU 33	0	0	0	0	0	0	0	0	3	0	0	0	1	0	0	0	0	0	1	0	0	0	0	0	1	0	0	0	0	0	0	0	0	0	0	0	0	0	0	0	0	0	0	0	3	0	0	0	0	0
OTU 34	3	3	0	1	0	0	1	1	0	0	0	1	0	8	0	17	1	2	0	5	2	2	0	8	0	0	0	0	5	0	2	0	0	3	0	3	0	0	0	0	2	1	1	2	0	0	5	0	3	2
OTU 35	0	1	0	2	0	0	2	0	0	0	0	0	0	0	0	2	0	0	0	0	0	0	0	1	0	2	0	0	3	0	2	1	1	1	0	3	0	0	0	0	6	0	0	4	0	2	0	2	0	9
OTU 36	1	0	0	5	0	0	1	2	3	0	0	0	0	0	0	7	0	1	0	4	2	0	4	1	0	10	3	0	0	1	0	0	0	2	0	1	3	0	0	0	0	0	0	3	2	0	0	1	3	0
OTU 37	0	0	0	0	1	0	1	0	0	0	0	0	0	0	0	0	0	1	0	0	0	0	0	0	0	1	0	0	0	0	0	1	0	0	0	0	0	0	0	0	0	0	1	0	0	0	0	0	0	0
OTU 38	0	2	1	0	1	0	5	1	0	1	1	0	0	4	2	0	0	0	13	0	1	6	11	4	0	0	1	0	0	0	0	2	0	4	0	31	3	3	0	1	0	0	0	1	1	0	2	0	1	1
OTU 39	0	0	0	0	0	0	0	0	0	0	0	1	0	0	0	0	0	0	0	0	0	0	0	0	0	0	0	3	0	0	0	1	0	0	0	0	0	0	0	5	0	4	0	0	0	0	0	1	0	3
OTU 40	0	3	0	0	2	2	0	2	1	1	0	8	0	1	0	6	1	0	0	1	8	3	1	1	0	0	0	0	9	0	5	0	0	1	9	3	2	0	39	2	0	1	0	0	8	0	2	2	4	5
OTU 41	0	7	0	3	1	156	0	1	81	1	0	0	19	0	2	5	25	0	0	2	3	0	0	4	41	0	3	0	0	5	29	0	0	0	1	3	1	0	2	0	2	1	1	0	0	1	1	1	1	3
OTU 42	0	0	0	0	0	0	0	0	0	0	0	0	0	0	3	0	0	0	0	0	0	0	1	0	0	0	0	0	1	0	0	0	0	2	1	0	0	0	0	0	0	0	0	0	0	0	0	1	0	0
OTU 43	0	0	0	0	0	0	0	0	0	0	169	0	0	0	0	0	0	0	0	0	0	0	0	0	0	0	0	0	0	0	0	0	0	0	0	0	0	0	0	0	0	0	0	0	0	0	0	0	0	0
OTU 44	1	0	0	0	0	0	0	0	0	0	0	0	0	0	0	1	0	1	0	1	0	0	0	0	0	0	0	0	0	0	0	0	0	0	0	0	0	0	0	1	0	0	0	0	0	0	0	0	0	0
OTU 45	0	7	1	4	5	0	1	80	0	0	3	0	0	2	2	6	0	1	1	164	2	0	2	5	0	0	0	1	0	0	0	0	101	0	3	1	1	0	0	2	0	0	1	2	0	0	4	2	2	1
OTU 46	3	2	0	4	1	4	17	2	10	1	0	15	2	3	3	0	4	1	3	0	2	2	5	0	2	0	39	0	2	2	0	0	3	0	0	2	1	1	2	1	1	2	0	1	9	0	1	3	0	0
OTU 47	1	0	0	0	1	0	0	0	0	0	1	0	0	0	2	2	0	1	0	0	0	1	0	0	0	0	0	1	0	0	0	0	0	1	2	2	0	0	1	0	0	0	0	1	0	1	0	0	0	0
OTU 48	0	6	1	0	2	4	1	8	3	6	3	5	0	5	4	2	1	1	2	1	2	2	7	2	2	1	2	0	0	1	2	3	1	0	111	1	0	5	2	0	1	5	0	0	0	1	0	0	0	0
OTU 49	0	0	0	0	1	2	3	3	0	0	0	0	0	0	0	1	0	0	2	0	3	3	0	0	0	0	1	0	130	0	0	1	0	2	0	0	1	0	0	0	0	1	0	0	6	0	0	0	0	0
OTU 50	5	0	0	0	1	0	0	1	1	2	0	0	0	0	2	0	1	0	9	2	2	1	6	2	0	2	0	0	1	0	0	1	0	2	3	4	5	0	8	1	4	2	134	5	2	0	0	4	1	0
OTU 51	0	1	1	0	0	0	0	1	5	0	0	0	0	0	7	1	3	1	0	0	1	0	0	0	2	0	4	0	0	0	0	1	0	0	1	0	15	3	0	0	0	1	0	0	1	3	1	0	0	0
OTU 52	3	1	0	5	5	0	1	2	1	8	2	0	0	2	1	7	0	0	0	0	0	2	0	8	0	2	1	5	2	0	2	2	1	4	0	1	0	2	1	3	1	2	1	0	3	0	3	3	6	1
OTU 53	0	0	0	0	0	0	0	0	0	0	0	0	0	0	0	0	0	0	0	0	0	0	2	0	0	0	0	0	0	0	0	0	0	0	0	0	0	0	0	0	0	0	0	0	0	0	0	0	0	0
OTU 54	0	0	2	0	0	1	7	1	3	2	0	0	1	5	4	5	1	0	2	2	35	6	10	12	0	0	2	0	4	1	2	0	1	2	1	1	1	2	2	0	2	2	3	10	1	1	0	0	3	1
OTU 55	0	0	0	0	0	0	0	0	0	0	0	0	0	0	0	0	0	0	0	0	0	0	0	0	0	0	0	0	0	0	0	0	0	0	0	0	0	0	0	0	0	0	0	0	0	0	0	0	0	0
OTU 56	0	0	0	1	6	0	0	0	0	0	0	1	0	0	0	0	0	0	0	1	2	1	0	0	0	1	0	0	0	0	0	0	0	4	0	5	0	0	0	2	0	1	2	2	3	0	0	0	0	0
OTU 57	1	3	2	0	0	3	0	7	1	1	0	1	0	11	13	1	1	4	1	1	7	1	6	9	3	3	13	5	7	2	8	4	1	7	6	7	2	1	6	1	2	1	0	0	2	1	14	6	1	5
OTU 58	0	0	1	3	0	1	0	0	0	0	0	1	0	1	0	0	0	1	0	0	0	0	0	1	110	0	0	2	1	1	0	0	0	0	1	0	0	0	1	0	0	1	0	0	3	1	2	2	0	3
OTU 59	0	3	0	0	10	0	0	0	0	3	0	0	0	0	0	2	0	0	0	0	7	0	1	0	0	2	0	0	0	0	2	0	0	1	0	2	0	0	0	1	0	0	0	0	0	0	1	0	1	0
OTU 60	1	3	2	3	0	2	0	0	0	7	2	0	0	0	0	3	0	4	3	2	1	1	8	1	0	1	1	2	5	0	1	5	1	1	3	1	0	9	3	0	9	8	3	0	2	4	0	3	2	2
OTU 61	4	8	14	5	19	6	35	0	2	4	7	22	14	15	6	1	36	8	6	3	9	1	0	2	1	0	2	7	2	2	1	9	0	38	7	29	0	6	18	0	2	37	3	0	2	17	3	12	2	5
OTU 62	0	0	0	0	0	0	0	0	0	0	0	0	1	0	0	0	0	1	0	0	1	1	0	0	0	0	0	1	0	0	0	0	0	0	0	0	0	0	0	0	1	0	0	0	0	0	0	1	0	0
OTU 63	5	0	0	6	0	0	0	4	2	0	28	0	0	0	2	0	3	2	4	0	0	3	0	1	0	0	0	0	1	0	0	0	0	1	0	0	0	0	1	0	0	1	1	2	1	0	1	0	0	1
OTU 64	0	0	0	2	2	1	0	3	5	5	0	1	2	4	0	0	2	2	0	0	6	1	3	1	2	5	2	5	6	1	6	7	0	0	0	1	0	1	1	0	0	1	5	9	0	0	0	4	0	2
OTU 65	0	0	0	0	0	0	0	1	0	0	0	0	0	0	0	0	0	0	0	2	2	0	0	1	0	0	0	0	0	1	0	0	0	0	0	0	0	0	0	0	0	0	0	0	0	0	0	0	0	0
OTU 66	0	22	0	7	4	0	0	3	1	1	18	0	0	0	2	0	1	1	1	3	0	0	1	0	0	0	0	0	4	1	0	32	0	3	1	4	0	1	1	3	1	0	39	21	8	1	1	0	0	1
OTU 67	0	1	3	2	0	2	3	0	1	0	1	0	1	3	11	0	0	4	0	3	1	1	0	5	0	1	1	4	0	0	1	3	0	1	3	4	1	1	5	1	0	5	15	26	2	1	1	4	0	0
OTU 68	1	0	0	0	0	0	11	0	1	0	0	0	0	0	0	1	0	0	0	1	0	4	3	0	1	0	0	4	0	0	0	0	0	0	0	0	0	0	0	0	0	0	0	0	0	1	0	6	0	0
OTU 69	0	0	0	6	1	0	1	0	1	1	0	1	0	4	0	8	3	0	1	1	1	0	4	3	0	0	1	0	0	0	0	0	0	0	0	0	2	0	1	0	0	0	0	0	1	0	2	0	2	2
OTU 70	0	0	1	1	0	0	0	0	0	0	0	2	0	0	3	0	0	1	0	0	0	7	0	7	0	0	0	0	1	0	0	0	0	2	5	0	0	0	2	0	0	0	0	0	3	0	1	3	0	0
OTU 71	2	0	0	3	0	0	0	0	1	0	0	0	0	0	0	0	0	1	3	0	3	4	1	2	1	5	0	2	2	4	0	1	0	0	1	1	0	0	4	0	5	0	1	6	0	0	0	2	0	0
OTU 72	2	3	0	0	2	1	0	2	0	0	0	0	1	1	0	0	0	0	0	0	1	0	0	2	0	0	0	0	0	3	3	0	0	2	62	0	0	0	0	2	1	0	1	7	2	0	0	1	0	1
OTU 73	72	0	0	1	2	0	6	2	3	0	0	5	0	0	0	0	1	0	0	1	2	0	0	1	0	3	0	0	0	0	0	0	1	21	0	3	3	0	0	0	0	0	0	0	0	1	0	0	1	5
OTU 74	0	0	1	7	2	25	5	0	22	0	3	1	8	0	5	2	13	0	1	0	1	5	5	5	11	0	1	0	0	12	16	2	1	1	2	1	0	1	2	1	1	0	9	3	0	0	0	10	0	1
OTU 75	5	5	0	1	0	2	0	0	1	2	0	1	0	1	0	1	0	2	0	0	15	1	0	1	0	0	0	0	0	4	2	1	0	7	0	1	0	0	3	0	11	0	3	8	2	0	0	1	9	2
OTU 76	0	1	2	0	0	0	0	0	0	2	0	2	0	0	4	0	0	0	0	0	4	0	0	0	0	0	2	0	0	0	0	0	0	0	0	0	8	0	0	23	0	0	0	0	1	0	0	0	0	25
OTU 77	1	4	0	2	9	1	6	1	1	3	0	0	0	2	1	0	1	1	0	1	3	0	0	0	0	3	2	28	2	8	0	0	0	5	0	0	0	1	0	0	2	0	0	1	6	2	1	1	1	0
OTU 78	0	4	4	1	0	0	7	0	2	1	0	7	0	4	3	0	1	3	0	1	2	4	6	1	0	0	0	3	2	0	0	0	0	13	3	6	1	4	5	0	3	9	5	17	0	6	0	9	0	6
OTU 79	1	1	1	12	2	4	11	3	4	0	0	9	0	1	9	4	1	150	3	0	5	6	50	7	4	14	10	3	2	46	4	0	1	3	4	3	13	3	5	5	2	6	5	6	4	2	5	17	0	2
OTU 80	7	4	0	0	6	2	0	2	2	0	0	3	1	33	30	0	0	1	0	2	0	1	1	3	1	2	20	0	14	1	0	0	0	2	1	3	19	1	0	5	0	1	2	14	4	0	3	5	0	11
OTU 81	2	3	0	1	0	1	3	0	5	0	0	4	0	4	1	16	0	4	6	1	1	0	2	1	3	3	17	0	7	0	2	1	0	9	0	0	1	0	0	11	2	0	1	0	2	0	5	2	7	1
OTU 82	0	0	1	0	0	1	0	2	0	0	2	1	0	2	0	0	0	0	1	1	4	2	0	1	0	0	2	0	0	0	0	0	0	0	2	0	1	0	4	3	1	3	0	1	0	0	0	0	0	1
OTU 83	0	0	0	0	0	0	1	0	0	0	0	0	0	0	0	3	1	0	0	0	0	0	0	0	0	0	1	0	0	0	0	0	0	0	0	0	0	0	0	0	0	0	0	0	0	0	2	0	0	0
OTU 84	0	3	0	0	1	0	0	0	1	0	4	0	2	0	0	0	1	0	0	2	4	0	0	0	0	6	0	0	0	0	1	5	1	6	0	0	3	0	0	0	0	0	0	1	1	0	0	2	0	1
OTU 85	0	2	0	0	0	0	1	0	0	0	0	0	0	0	0	0	0	0	1	0	0	0	0	1	0	1	1	0	0	0	0	0	0	3	0	0	0	0	0	0	0	0	0	0	0	0	2	0	0	3
OTU 86	0	0	0	0	0	0	0	0	0	0	1	0	0	0	0	0	0	1	0	2	0	0	0	0	0	0	0	0	0	0	8	0	0	0	0	0	0	0	0	0	0	0	0	0	0	0	0	0	0	0
OTU 87	0	0	0	1	0	0	0	0	0	0	0	0	0	0	0	3	0	0	45	0	0	0	0	0	0	6	0	1	0	0	0	0	0	0	0	0	0	0	0	0	1	0	3	3	0	0	5	0	4	0
OTU 88	0	0	1	0	0	2	0	0	0	0	0	0	0	0	0	0	1	0	0	0	0	1	2	0	1	0	0	0	0	0	0	0	0	0	0	0	0	0	0	0	0	0	0	0	0	0	0	0	0	0
OTU 89	0	0	0	1	0	0	0	3	0	2	2	0	0	2	0	0	0	0	0	1	0	0	0	0	0	0	1	0	3	0	0	7	0	1	0	0	0	0	0	0	0	0	0	1	0	0	1	0	0	0
OTU 90	0	1	1	1	0	0	2	0	3	0	0	0	1	0	0	0	0	0	0	2	0	13	0	0	0	0	0	1	0	0	0	0	0	0	0	1	0	18	0	2	0	0	0	0	0	0	0	0	0	0
OTU 91	0	0	2	0	0	0	0	7	2	0	0	0	0	0	0	0	0	0	0	0	0	0	0	0	1	0	0	0	0	0	0	0	0	0	0	0	0	0	0	0	0	1	0	0	0	0	0	1	0	0
OTU 92	0	0	0	0	0	0	1	0	0	0	0	0	0	0	1	0	0	0	0	0	0	0	0	0	0	0	0	4	0	0	0	0	0	0	0	0	0	0	0	0	2	0	0	0	0	0	0	2	0	0
OTU 93	0	0	0	0	0	0	0	0	0	0	7	0	0	1	0	0	0	0	0	0	0	1	0	0	0	0	0	0	0	0	0	6	0	0	0	0	0	0	0	0	0	0	0	2	0	0	0	0	1	0
OTU 94	0	8	1	1	1	9	9	1	2	0	0	3	0	0	9	3	1	0	3	0	0	4	0	0	3	10	4	1	7	39	6	0	0	15	0	0	1	0	0	6	0	4	5	5	18	1	2	2	1	1
OTU 95	0	0	2	0	0	0	0	0	0	0	2	0	0	0	1	0	0	0	0	0	0	0	0	0	0	0	1	0	0	0	0	4	0	4	0	0	1	3	0	1	0	0	0	0	0	1	0	1	0	2
OTU 96	0	0	0	0	0	0	0	0	0	0	0	0	0	0	4	0	0	0	0	0	0	0	0	0	0	1	0	0	0	0	0	0	0	0	0	0	0	0	0	0	0	0	0	0	0	0	0	0	0	0
OTU 97	0	0	0	0	1	0	0	0	0	0	1	0	0	0	0	0	0	0	0	1	1	0	0	1	0	1	0	1	0	1	0	0	0	0	0	0	0	0	0	0	4	0	0	0	0	0	0	2	0	0
OTU 98	2	0	0	0	1	0	0	1	0	2	0	0	0	0	1	3	0	0	0	0	3	0	0	0	0	0	0	0	1	0	0	1	0	3	1	0	0	0	0	0	0	0	2	1	0	0	2	0	4	0
OTU 99	3	7	2	2	41	1	3	1	6	5	0	1	2	5	10	0	3	3	2	0	15	0	3	1	8	0	7	0	4	0	0	1	1	2	0	3	50	5	2	26	6	1	4	3	3	1	10	9	0	119
OTU 100	1	2	0	0	5	0	5	0	5	2	0	0	3	0	0	2	3	9	0	0	0	0	1	7	4	0	0	2	0	2	0	0	2	1	0	6	64	0	0	5	4	0	0	1	0	0	6	10	3	1
OTU 101	1	0	0	0	0	0	0	0	1	0	0	0	0	0	0	0	1	0	0	0	1	1	0	0	0	0	0	0	0	0	0	0	0	3	0	1	0	0	0	0	0	0	0	0	0	0	0	0	0	0
OTU 102	0	0	0	1	0	0	0	0	0	0	0	0	0	0	5	0	0	0	0	0	0	1	0	0	0	1	0	0	2	4	0	0	0	0	1	0	0	0	0	0	0	0	0	0	0	0	0	0	0	0
OTU 103	4	0	0	1	1	1	1	0	1	0	0	1	0	1	0	0	0	5	3	2	3	1	3	2	0	0	0	0	2	2	0	1	0	0	2	0	0	1	0	1	0	0	1	3	0	0	0	5	2	4
OTU 104	0	2	0	114	5	0	1	0	0	2	0	0	0	3	4	0	1	6	0	3	8	5	0	3	0	5	0	2	4	2	0	1	1	2	2	2	0	0	2	2	2	0	0	1	1	2	4	1	2	0
OTU 105	0	0	0	0	0	0	0	0	0	0	0	0	0	0	0	0	0	0	0	2	0	0	0	0	0	2	0	0	0	1	1	0	0	0	0	0	1	0	0	0	0	0	0	0	0	0	0	0	0	0
OTU 106	0	0	0	0	0	0	0	0	0	0	0	4	0	0	1	0	0	0	0	0	0	0	57	0	0	1	0	3	0	0	0	0	0	2	0	0	1	0	0	0	0	0	0	0	0	0	0	0	0	0
OTU 107	2	82	0	0	2	2	0	0	0	0	0	0	0	0	4	0	0	1	0	0	0	0	0	0	0	1	0	5	0	0	2	0	0	0	0	0	0	0	1	0	0	3	0	1	0	0	0	8	0	1
OTU 108	0	4	0	0	6	1	6	1	3	0	0	1	0	0	2	0	0	0	0	0	1	1	10	0	1	3	0	0	1	0	2	0	0	3	0	0	0	0	0	0	4	0	0	3	1	0	0	1	1	1
OTU 109	0	0	0	0	0	0	0	0	0	0	3	0	0	0	0	0	0	0	0	0	3	0	0	0	0	0	0	0	0	0	0	0	0	0	0	0	0	0	0	0	0	0	0	0	0	0	0	0	0	0
OTU 110	2	5	0	2	0	0	0	0	3	1	0	12	0	0	2	0	1	0	0	0	0	5	7	0	0	3	2	1	1	1	5	0	0	5	0	0	0	0	0	1	0	0	0	0	0	0	2	0	1	4
OTU 111	0	0	0	0	0	0	0	1	0	0	0	1	0	0	0	0	0	0	6	0	1	0	0	0	0	0	0	0	1	0	0	0	0	0	0	16	0	0	0	0	1	0	1	2	0	0	0	0	0	0
OTU 112	0	1	0	7	0	0	0	1	0	0	0	0	1	5	5	4	0	0	0	2	0	1	1	0	0	0	5	0	0	0	0	0	3	0	0	0	0	0	1	0	1	0	5	8	0	0	2	0	4	0
OTU 113	0	0	0	0	0	0	0	0	0	0	0	4	0	0	0	0	0	0	0	0	0	1	0	0	0	0	0	0	0	0	0	0	0	0	0	0	0	3	0	0	0	0	0	0	0	0	0	0	0	1
OTU 114	5	0	0	0	8	0	0	0	0	1	2	0	0	0	1	1	0	1	2	2	3	2	1	0	0	1	4	3	1	1	0	8	0	5	2	3	0	5	0	1	9	3	2	4	1	11	0	4	3	3
OTU 115	1	6	2	1	5	1	3	4	8	4	0	3	17	0	1	14	2	2	8	1	0	3	2	2	1	3	2	2	0	7	4	0	2	3	1	3	4	0	3	6	1	0	2	2	2	0	2	5	2	4
OTU 116	0	23	0	0	0	2	3	1	0	1	1	1	0	2	5	0	1	2	5	1	0	1	2	1	0	11	1	3	0	0	0	4	0	0	29	1	1	26	78	1	0	0	3	0	0	56	0	0	0	0
OTU 117	2	0	0	1	2	0	0	0	0	0	0	1	0	0	0	0	1	0	0	6	2	0	5	35	0	0	3	3	1	0	0	0	5	1	1	0	1	8	0	0	6	0	1	0	0	1	0	2	0	3
OTU 118	3	0	0	0	0	0	0	0	1	0	0	7	0	0	0	0	0	1	0	0	0	0	0	0	0	0	0	0	11	0	0	0	0	0	0	0	0	0	0	0	1	0	0	0	0	0	1	0	0	0
OTU 119	1	0	0	0	5	4	3	0	1	0	1	2	2	0	0	4	6	2	60	0	2	4	2	1	2	2	1	0	0	2	3	1	2	0	0	0	5	1	0	4	16	0	1	5	2	1	0	1	0	1
OTU 120	0	0	0	0	0	0	2	0	0	0	1	0	0	1	0	0	0	0	0	1	0	0	1	0	0	0	0	0	4	0	0	1	1	0	0	1	0	0	3	0	1	0	0	1	0	0	0	1	0	0
OTU 121	0	0	0	0	0	0	1	1	0	0	0	0	0	0	13	0	0	0	0	3	2	0	5	4	0	2	2	0	2	0	0	2	1	0	0	0	0	0	1	0	1	0	8	5	0	1	0	1	1	0
OTU 122	1	1	1	0	1	4	1	14	7	0	0	0	1	5	3	5	2	2	0	7	6	11	0	4	3	94	7	0	1	5	10	0	2	0	0	1	4	0	3	6	1	3	1	0	1	0	0	1	6	5
OTU 123	1	9	1	11	6	1	2	8	6	3	1	6	2	2	3	3	0	0	6	5	5	6	5	4	2	7	4	7	9	3	1	1	5	6	7	7	3	6	5	2	6	11	3	3	13	2	1	10	21	4
OTU 124	0	0	0	0	0	0	0	0	0	1	1	0	0	10	0	7	0	0	0	0	0	1	0	0	0	0	2	0	0	0	0	1	0	0	0	0	0	0	0	0	2	0	1	0	0	1	7	0	3	0
OTU 125	1	5	5	4	2	2	10	2	2	3	9	3	1	4	6	6	4	13	3	2	10	0	11	0	2	8	2	1	5	3	2	3	0	11	14	3	0	2	15	1	3	8	0	0	0	1	0	8	0	0
OTU 126	0	0	0	0	0	0	0	1	0	0	0	0	0	0	0	0	0	0	0	0	0	0	0	0	0	0	0	0	0	0	0	0	0	1	0	0	0	1	0	5	3	0	0	0	0	3	0	0	0	2
OTU 127	0	1	1	0	0	0	2	0	0	0	0	0	1	0	2	0	1	0	0	2	0	2	11	0	4	0	3	1	1	0	0	2	2	0	0	1	1	0	1	0	4	2	0	1	3	2	0	6	0	0
OTU 128	4	1	4	1	5	24	2	2	51	20	1	98	13	33	5	5	22	9	1	4	6	4	3	7	27	2	0	4	5	16	27	0	28	5	0	0	1	6	0	5	10	1	7	11	4	23	1	11	3	5
OTU 129	0	0	0	0	0	0	0	0	0	0	0	0	0	0	0	0	0	0	0	0	0	0	0	0	0	0	0	0	0	0	0	0	0	1	1	3	0	0	2	4	0	0	0	0	0	0	0	0	0	0
OTU 130	0	4	50	1	29	0	1	0	0	1	1	3	0	1	1	0	0	1	0	0	0	1	20	0	0	1	0	0	0	0	0	0	0	0	0	0	0	0	0	0	4	0	0	2	0	1	1	2	0	3
OTU 131	1	0	0	2	0	1	0	2	4	0	4	2	0	1	0	6	1	0	5	0	0	1	0	0	0	1	0	1	0	0	118	1	1	0	1	2	1	1	0	2	3	0	0	0	0	2	1	1	2	3
OTU 132	0	0	1	0	0	2	0	0	0	0	0	0	0	5	3	4	3	0	0	0	0	0	0	3	1	0	0	96	0	0	0	0	0	1	0	0	0	0	2	1	0	0	0	0	2	0	2	0	2	0
OTU 133	31	1	0	0	0	1	0	1	0	0	0	0	0	3	0	0	0	0	0	0	1	1	0	2	0	0	0	0	0	0	0	0	0	0	0	0	1	0	0	0	0	0	0	1	0	0	0	0	0	0
OTU 134	1	7	1	2	2	1	0	29	0	0	0	1	0	2	4	0	0	0	0	0	1	7	1	0	0	0	2	0	2	0	1	2	0	1	0	2	0	0	1	0	0	1	0	0	4	0	1	0	1	5
OTU 135	0	0	5	2	1	0	0	4	2	1	0	0	1	0	0	0	0	2	3	6	4	4	1	3	1	0	1	2	2	0	5	0	0	2	7	2	0	0	9	2	4	1	0	0	0	4	1	8	0	2
OTU 136	0	0	0	0	0	0	0	0	0	6	1	0	0	2	2	0	0	1	2	11	1	0	0	0	0	0	0	5	0	1	1	0	2	1	1	7	2	0	1	0	15	0	0	0	0	0	0	6	0	0
OTU 137	0	3	0	0	0	0	0	0	0	0	16	0	0	0	0	0	0	0	0	0	3	0	0	2	0	0	0	1	0	0	0	0	3	0	0	0	0	0	1	0	0	0	0	0	0	1	0	0	0	0
OTU 138	1	0	1	0	0	2	0	0	1	0	0	0	0	0	0	0	0	0	0	0	0	0	0	0	1	0	0	1	0	2	1	0	0	0	0	0	0	0	0	0	0	2	0	2	0	1	0	1	0	1
OTU 139	0	0	12	0	0	1	2	5	0	4	3	2	0	5	0	3	0	2	0	0	7	4	1	5	0	0	105	3	2	2	1	2	0	3	0	2	0	0	1	108	0	15	0	0	1	9	0	5	1	1
OTU 140	11	4	1	4	4	2	3	6	6	9	11	1	1	2	5	3	1	2	3	2	6	5	0	2	4	2	0	4	2	2	3	13	1	1	2	11	1	0	1	1	1	0	1	0	2	1	1	14	0	1
OTU 141	2	0	0	0	0	0	0	0	0	0	0	0	0	0	1	0	0	0	0	0	2	0	0	0	0	0	0	0	0	0	0	0	0	0	0	0	0	0	0	0	0	0	0	0	0	0	0	0	0	0
OTU 142	0	0	0	0	0	0	0	1	0	0	0	0	0	0	0	0	0	0	0	0	3	0	0	0	0	0	0	0	0	0	2	0	0	0	0	0	0	0	0	0	0	0	0	0	0	0	0	0	0	0
OTU 143	0	0	0	4	0	0	3	3	2	0	0	0	0	0	0	0	0	2	0	0	0	0	0	0	0	0	0	0	0	2	0	0	0	0	0	0	0	0	0	0	0	0	0	0	0	0	0	0	0	0
OTU 144	0	0	0	0	0	0	0	0	0	8	0	0	0	0	0	4	0	0	9	0	0	1	0	0	0	2	1	3	0	0	0	0	0	0	0	0	0	0	0	0	0	0	0	0	0	0	1	3	0	0
OTU 145	4	1	1	1	35	0	6	3	5	2	0	3	1	4	0	0	3	16	2	0	0	3	5	1	3	2	0	0	3	1	0	2	1	2	8	3	3	3	2	2	0	9	0	2	9	0	0	0	0	2
OTU 146	0	1	2	2	0	6	0	33	22	24	0	0	12	10	0	3	17	0	0	0	1	0	0	4	18	2	0	0	0	8	9	2	0	1	3	1	0	0	3	1	0	4	0	0	0	2	1	1	0	1
OTU 147	5	0	0	2	0	0	0	0	1	0	0	0	0	1	0	0	0	0	0	0	0	0	3	0	0	0	0	3	1	3	0	0	0	2	0	9	0	0	0	0	0	0	0	0	0	0	0	9	0	0
OTU 148	0	9	1	1	0	1	0	3	0	1	0	2	0	0	0	1	0	3	2	0	1	5	0	0	0	0	0	1	0	1	0	0	2	0	1	1	1	37	1	1	3	0	0	5	0	65	0	1	1	2
OTU 149	0	1	0	1	0	0	2	0	0	0	0	0	0	4	0	1	0	0	2	0	0	6	0	1	0	10	0	0	0	0	0	0	0	1	0	4	0	0	0	0	0	0	0	0	2	0	0	0	0	0
OTU 150	0	4	2	20	0	0	0	0	0	2	1	0	0	0	0	0	0	2	0	0	0	5	0	0	0	0	0	0	0	0	2	0	0	0	0	0	0	0	0	1	0	0	0	0	2	0	0	0	0	0
OTU 151	0	0	0	0	0	0	0	2	0	0	1	5	0	0	0	5	0	0	0	0	6	0	2	0	0	0	0	0	0	0	0	0	3	4	3	6	0	0	1	0	0	1	0	1	0	0	8	0	2	0
OTU 152	1	4	0	1	0	4	0	7	15	2	2	2	4	0	0	1	7	3	5	0	1	1	1	1	10	2	0	0	0	3	1	0	2	5	1	1	0	24	2	0	2	3	0	1	4	0	1	0	2	0
OTU 153	0	0	0	0	1	0	0	0	1	0	0	0	0	0	0	0	0	0	0	0	5	1	0	0	0	0	0	0	0	0	0	0	0	2	0	0	0	0	0	0	0	0	0	0	0	0	0	0	0	0
OTU 154	1	0	0	0	0	0	2	0	0	0	0	0	1	0	0	0	0	1	0	0	0	1	0	0	0	0	0	0	0	0	0	0	2	2	0	0	0	0	0	3	1	0	0	0	0	0	0	0	0	0
OTU 155	1	0	0	0	1	0	0	2	0	1	0	0	0	2	0	0	1	0	2	2	0	0	0	0	0	3	1	2	0	0	1	1	1	0	0	7	0	0	0	0	0	0	0	0	0	1	1	0	0	0
OTU 156	0	3	0	4	2	4	1	5	1	4	1	7	0	31	1	53	1	4	1	0	4	4	0	0	4	33	0	1	0	2	1	2	1	1	0	14	0	1	0	0	2	4	0	1	15	0	27	0	23	1
OTU 157	2	0	0	0	0	1	1	0	1	19	0	0	0	6	0	0	4	1	1	2	0	0	0	2	4	0	0	0	0	0	1	0	0	1	0	2	0	0	2	0	1	0	0	0	0	0	0	1	0	0
OTU 158	0	0	0	0	1	0	0	0	0	0	0	0	0	0	0	0	0	0	0	0	0	0	0	0	0	0	0	0	1	0	0	0	0	0	0	0	0	0	0	0	0	0	0	0	0	0	0	0	0	0
OTU 159	0	0	0	0	1	0	3	0	3	7	0	1	1	0	1	0	0	0	1	1	3	0	0	0	1	2	2	1	1	2	5	0	0	0	0	0	3	0	1	2	0	4	0	1	6	0	0	2	0	1
OTU 160	7	5	0	7	0	1	94	4	3	12	0	3	0	0	3	4	0	1	5	0	2	3	0	6	0	3	3	2	2	1	2	1	0	0	1	19	2	0	2	2	1	2	2	3	0	0	0	1	2	0
OTU 161	0	0	0	0	0	0	4	4	0	12	21	5	0	0	34	0	0	0	0	41	3	0	9	0	2	0	22	0	5	0	0	83	10	4	0	3	5	0	0	7	53	0	4	8	4	0	0	0	0	12
OTU 162	1	0	1	3	1	0	5	3	5	1	0	0	17	0	0	0	1	9	4	1	1	3	0	3	3	5	0	0	0	0	1	4	1	6	1	2	2	1	0	5	0	0	0	1	1	1	8	1	0	0
OTU 163	0	0	0	0	0	0	0	0	0	0	0	0	0	0	0	0	0	0	5	0	2	0	0	0	0	0	0	0	0	0	0	0	0	0	0	0	0	0	0	0	0	0	0	0	0	0	0	0	0	0
OTU 164	0	0	0	0	0	0	0	0	0	0	0	0	0	0	0	0	0	0	0	0	0	0	0	0	0	0	0	0	0	0	0	0	2	0	0	0	0	0	0	0	0	0	0	0	0	0	0	0	0	0
OTU 165	0	2	0	22	0	0	0	0	1	0	1	0	0	0	0	4	0	1	0	2	4	29	0	0	0	2	0	0	0	0	0	4	2	0	0	1	0	0	0	0	1	0	3	5	1	3	0	0	2	0
OTU 166	0	1	0	0	0	0	0	0	0	0	0	0	0	0	0	0	0	0	0	0	1	0	0	0	0	0	0	0	0	0	0	0	0	0	0	0	0	0	0	0	0	0	0	0	0	0	0	0	0	0
OTU 167	0	0	1	1	0	3	2	0	1	0	1	0	0	1	0	0	0	3	0	0	1	0	2	0	0	0	0	0	0	0	0	0	0	0	2	0	2	0	1	1	0	4	0	0	0	0	2	1	0	0
OTU 168	0	13	0	0	64	0	1	1	2	0	0	0	0	0	1	5	0	0	0	1	0	2	1	8	1	0	1	12	0	0	0	1	1	1	0	2	0	1	0	0	0	1	2	2	0	0	0	2	2	5
OTU 169	0	0	0	0	0	0	0	0	0	0	0	0	0	0	0	0	0	0	0	0	0	0	0	0	0	0	0	0	0	0	0	0	1	0	0	0	0	0	0	0	0	0	0	0	0	0	0	0	0	0
OTU 170	0	0	0	0	0	0	0	0	0	0	0	0	0	0	0	0	0	0	0	0	0	0	0	0	0	0	0	0	0	0	0	0	0	0	0	0	0	0	0	0	0	0	0	0	0	0	0	0	0	0
OTU 171	0	4	0	0	0	0	1	3	0	0	0	1	0	1	0	3	0	0	2	13	0	0	0	1	0	0	0	0	7	0	0	0	9	0	0	1	1	0	1	0	20	3	11	35	0	5	0	1	1	0
OTU 172	0	0	1	0	0	0	0	0	1	1	5	0	0	0	0	0	0	0	0	0	0	0	0	3	0	0	0	0	0	0	0	3	0	0	0	0	0	0	0	0	0	0	0	0	0	0	1	0	0	0
OTU 173	0	0	0	1	0	1	0	0	0	1	0	0	0	1	0	0	1	0	0	5	0	2	1	0	0	2	0	0	0	0	0	4	0	0	0	3	0	0	0	0	5	0	0	1	2	0	2	1	0	0
OTU 174	0	3	1	1	1	0	14	4	0	10	0	0	0	0	0	4	0	0	0	0	1	4	0	0	0	0	0	0	0	0	0	7	0	1	0	0	0	2	3	0	2	0	0	0	1	0	9	0	2	0
OTU 175	0	0	0	0	3	49	2	0	3	0	1	1	0	1	0	3	0	0	0	0	0	0	0	4	4	0	0	4	1	0	0	0	1	0	0	0	0	0	0	0	2	2	7	1	3	0	0	5	1	2
OTU 176	2	1	37	1	0	3	10	1	4	0	0	2	0	5	8	2	1	1	4	1	1	5	1	3	2	4	8	1	0	2	0	0	1	2	4	3	1	6	8	1	1	18	0	0	2	2	1	0	2	0
OTU 177	1	1	0	0	1	0	0	2	0	0	3	2	0	2	0	0	1	1	0	0	6	0	0	4	0	4	0	0	2	0	1	1	74	0	0	3	0	0	1	0	1	0	1	6	1	0	0	2	0	0
OTU 178	2	0	0	0	0	0	0	0	0	0	0	0	0	0	0	2	0	0	1	0	2	0	0	0	0	0	0	0	0	0	0	0	0	1	0	0	1	0	0	1	0	3	0	1	2	0	0	0	1	1
OTU 179	4	0	0	0	0	1	0	0	1	0	0	1	0	2	4	1	0	0	2	0	0	2	5	0	0	0	0	0	0	0	0	0	0	1	0	2	1	0	0	5	0	0	0	0	0	0	2	0	0	10
OTU 180	9	1	1	15	1	4	4	10	1	1	0	13	2	9	2	15	1	0	4	0	7	15	3	15	2	4	3	0	4	1	7	2	0	1	3	3	2	0	0	8	3	0	1	4	6	2	5	5	2	6
OTU 181	0	0	0	2	0	1	0	34	0	0	1	1	0	2	0	0	0	0	0	1	4	0	1	0	0	0	0	2	0	1	2	9	1	0	0	0	0	2	1	0	0	0	0	3	1	0	2	1	1	0
OTU 182	0	0	0	0	0	0	0	0	0	0	0	0	0	0	0	0	0	0	0	0	0	0	0	0	0	0	0	1	0	0	0	0	0	0	0	0	1	0	0	0	1	0	1	0	0	0	0	0	0	0
OTU 183	0	0	0	0	0	1	1	0	0	2	0	8	0	4	2	0	0	4	1	0	2	0	0	1	0	0	3	0	0	0	32	2	0	2	3	2	0	0	4	0	0	0	0	0	0	0	0	1	0	0
OTU 184	1	0	2	1	0	0	0	0	0	0	0	0	0	0	1	3	0	0	0	0	0	6	0	0	0	0	1	0	2	0	0	2	0	0	2	0	0	0	5	0	0	3	1	0	84	1	0	0	2	4
OTU 185	0	0	2	5	4	1	0	0	4	1	2	1	2	1	8	5	2	0	1	1	1	1	0	8	3	0	2	0	0	2	0	2	0	4	2	1	0	0	0	4	1	2	0	4	3	0	0	0	0	0
OTU 186	1	1	0	0	0	1	0	1	1	0	0	0	1	0	0	0	0	0	3	0	0	0	0	0	0	0	0	0	3	0	3	0	0	4	0	0	0	1	0	0	1	0	0	0	0	0	95	4	0	0
OTU 187	17	0	1	8	4	1	4	2	1	1	0	8	83	0	1	1	180	3	16	0	2	46	1	5	18	1	1	12	0	0	1	2	2	1	0	31	0	0	0	0	1	0	0	0	3	0	1	11	0	2
OTU 188	0	1	0	1	5	1	6	2	1	3	1	10	0	1	7	6	0	2	4	16	3	2	0	2	0	7	6	11	4	2	0	1	3	0	2	4	3	5	2	14	12	5	3	6	3	5	6	15	5	5
OTU 189	19	0	0	0	1	4	0	6	1	1	1	1	0	5	8	2	0	0	5	4	13	0	4	1	4	0	6	5	4	3	0	6	2	0	0	0	7	0	0	2	9	0	1	1	2	0	0	4	0	1
OTU 190	0	0	0	0	0	0	1	0	0	0	0	0	0	0	0	0	0	0	0	0	0	0	0	0	1	0	0	0	0	0	0	0	0	0	0	0	0	0	0	0	0	0	2	0	1	0	1	0	0	0
OTU 191	0	5	0	1	6	4	0	1	9	86	2	4	1	3	1	9	3	1	0	0	8	0	1	0	4	0	5	0	10	1	1	0	0	12	0	3	77	0	0	1	0	0	1	1	1	0	3	2	191	0
OTU 192	1	9	30	2	5	2	0	0	0	3	0	7	80	1	2	1	1	3	1	0	1	5	1	3	1	1	0	1	4	0	0	1	0	16	0	0	1	21	0	1	1	48	6	6	0	68	0	8	2	2
OTU 193	0	5	0	0	0	2	0	1	5	2	0	1	2	1	0	0	4	1	7	0	14	1	0	1	4	1	0	0	6	2	0	2	0	0	0	8	0	0	0	0	7	0	0	1	1	3	0	0	0	0
OTU 194	1	2	101	1	0	0	0	0	3	0	1	0	0	0	1	1	0	0	0	0	2	1	0	0	1	0	0	0	0	1	0	0	0	0	0	0	0	1	0	4	1	0	0	0	2	0	0	0	0	2
OTU 195	0	0	1	0	7	0	1	0	0	0	1	7	0	0	31	0	0	1	0	0	0	1	5	1	0	1	3	0	8	0	0	1	0	0	0	0	2	2	0	2	0	1	3	8	0	0	1	0	1	1
OTU 196	0	0	1	0	0	1	0	0	0	0	0	0	0	0	2	0	0	0	2	1	4	0	1	0	0	7	2	1	1	2	2	0	3	2	2	1	0	0	1	8	0	0	0	1	2	0	0	1	0	0
OTU 197	4	2	1	0	0	0	0	4	0	0	1	5	1	3	5	15	2	2	1	4	1	6	16	1	39	3	1	0	9	2	2	3	1	2	0	1	2	1	0	0	38	4	17	2	3	8	4	0	6	3
OTU 198	0	4	0	0	0	0	0	3	0	0	0	0	0	0	1	0	0	0	0	0	0	0	0	4	0	0	1	1	2	0	3	0	0	0	0	0	0	0	0	3	0	0	0	0	0	0	0	0	0	0
OTU 199	0	2	0	0	1	0	0	0	0	0	0	1	0	0	0	0	0	2	0	0	0	0	0	0	0	0	1	1	2	1	0	0	0	0	1	0	0	118	0	0	0	0	0	0	6	1	0	1	0	0
OTU 200	1	0	1	0	0	0	0	2	1	0	1	0	0	0	0	0	1	0	0	1	3	1	3	1	0	4	0	0	0	0	0	2	7	5	0	1	6	0	0	3	0	1	0	0	0	4	1	0	0	0
