	Host 1	Host 2	Host 3	Host 4	Host 5	Host 6	Host 7	Host 8	Host 9	Host 10	Host 11	Host 12	Host 13	Host 14	Host 15	Host 16	Host 17	Host 18	Host 19	Host 20	Host 21	Host 22	Host 23	Host 24	Host 25	Host 26	Host 27	Host 28	Host 29	Host 30	Host 31	Host 32	Host 33	Host 34	Host 35	Host 36	Host 37	Host 38	Host 39	Host 40	Host 41	Host 42	Host 43	Host 44	Host 45	Host 46	Host 47	Host 48	Host 49	Host 50	
OTU 1	1	226	0	380	1	15	3	612	194	0	0	527	11	101	2	0	25	7	141	378	0	257	188	475	4	289	0	174	369	0	159	467	250	3	0	0	144	356	514	283	302	176	1	50	323	3	177	204	0	147
OTU 2	0	3	3	3	0	102	0	0	0	0	0	6	0	24	7	56	3	0	3	0	0	0	1	0	0	11	42	0	24	24	0	1	8	2	3	1	0	1	0	7	1	0	0	1	12	0	14	20	0	4
OTU 3	15	0	2	0	1	0	1	0	24	0	1	13	0	0	4	0	0	4	0	0	0	4	14	0	1	0	0	1	15	2	4	5	0	49	0	0	0	11	1	0	0	0	1	0	0	43	2	0	0	0
OTU 4	0	0	0	0	0	0	0	0	0	0	0	0	0	0	0	0	0	0	0	0	0	1	0	0	0	0	0	0	0	0	0	0	0	9	0	0	0	0	0	0	0	0	0	0	0	0	0	0	0	0
OTU 5	168	142	549	189	460	0	54	284	99	0	167	200	506	275	1202	965	367	1	1302	437	108	530	54	28	0	1067	147	48	173	1837	149	199	100	286	16	572	232	45	164	363	394	48	384	1122	294	103	237	353	42	1031
OTU 6	1	0	3	9	6	52	6	14	1	62	0	2	11	8	0	35	3	2	0	5	0	0	3	1	43	8	61	0	1	9	16	36	0	162	0	0	1	0	17	0	7	4	47	1	325	49	0	3	1	0
OTU 7	136	20	17	0	134	80	50	22	53	43	120	23	39	45	22	5	30	27	361	10	122	28	22	28	26	22	181	34	643	46	232	6	15	16	42	88	437	344	18	712	18	3	19	273	9	42	340	236	11	15
OTU 8	27	57	15	65	7	20	25	7	9	8	25	84	40	96	31	108	82	2319	18	26	40	105	12	5	186	52	30	13	9	35	44	83	2	76	9	135	5	14	11	36	18	34	101	25	104	6	2	57	16	26
OTU 9	31	25	0	1	0	0	273	16	0	0	37	6	29	0	1	6	12	0	0	14	19	1	0	5	14	25	3	0	3	33	4	0	4	2	11	0	2	65	1	0	15	5	3	0	3	0	4	8	0	17
OTU 10	8	0	0	5	5681	0	10	22	3	84	0	1	0	0	1	12	23	0	334	0	0	23	8	3	0	0	0	10	1	22	207	8	2	0	2	20	0	0	13	675	16	0	3	130	0	7	0	409	0	5
OTU 11	0	3	6	8	12	28	4	64	0	4	2	46	90	10	24	72	16	16	4	23	76	4	15	18	16	26	9	1	18	6	51	8	10	61	6	17	4	56	2	6	36	6	2	2	2	1	4	3	46	0
OTU 12	97	17	3	6	132	0	0	1	120	1	35	4	5	45	22	45	7	38	0	11	37	4	0	1	22	11	28	2	1	11	4	13	0	17	10	10	17	5	3	2	9	6	67	30	8	8	12	12	213	11
OTU 13	0	0	0	1	0	0	0	0	0	0	0	0	1	0	7	4	0	0	0	0	0	13	0	0	0	0	0	0	0	62	0	0	0	0	0	0	7	0	0	0	0	0	0	0	0	1	0	0	17	0
OTU 14	28	6	20	1	2	0	0	3	0	3	15	0	0	2	9	0	13	2	0	0	14	4	5	1	86	0	0	0	9	2	1	3	0	0	3	14	2	11	3	1	0	0	34	24	0	0	5	2	11	4
OTU 15	0	0	0	0	0	1	1	0	0	0	0	0	0	0	0	0	3	3	1	0	0	0	2	0	0	4	3	11	14	0	0	2	0	0	0	46	0	0	0	6	17	0	0	0	0	5	17	0	6	9
OTU 16	0	0	0	0	0	3	2	0	0	0	0	0	0	1	0	0	0	0	0	0	0	0	0	0	42	3	0	0	0	0	0	3	0	0	22	15	0	0	0	0	0	0	20	0	0	0	0	0	0	0
OTU 17	12	1	1	38	1	2	0	0	0	0	0	7	359	1	1	35	0	0	0	3	30	59	2	35	10	31	32	8	5	6	2	16	9	8	7	2	17	0	2	1	0	9	38	0	14	0	0	11	0	4
OTU 18	47	115	7	5	49	17	1	0	38	17	46	0	30	5	0	27	15	19	2	1	9	10	26	56	17	1	19	15	11	32	9	3	21	28	5	64	15	87	88	4	20	52	30	0	14	70	1	4	2	61
OTU 19	0	2	0	0	0	0	0	0	0	0	0	0	0	0	0	0	0	0	0	0	0	0	0	0	0	0	0	0	0	0	0	0	0	3	0	0	0	0	0	0	0	0	0	0	0	0	0	0	0	0
OTU 20	0	14	5	12	14	19	23	32	20	25	42	23	0	3	4	8	0	1	12	3	25	4	3	1	9	53	56	5	50	34	32	34	6	43	4	8	17	17	1	24	1	12	21	22	2	2	13	55	1	4
OTU 21	0	57	15	3	15	38	47	3	10	49	14	30	27	6	36	7	36	10	31	8	2	16	0	8	501	21	42	18	0	6	0	34	3	1	0	5	29	16	20	44	0	0	37	0	7	14	91	9	7	4
OTU 22	55	5	22	0	0	4	0	25	9	4	8	10	113	0	24	3	437	13	0	53	10	54	2	9	7	7	5	3	17	4	36	21	17	4762	0	11	6	39	1	2	2	0	180	238	18	34	6	53	0	43
OTU 23	12	3	41	17	7	0	17	9	3	18	17	1	0	0	37	107	8	3	0	5	3	17	8	8	8	38	0	25	48	5	5	1	2	7	80	75	6	0	26	0	12	0	3	0	0	16	25	26	0	62
OTU 24	0	18	0	0	0	137	0	50	79	6	1	1	0	22	0	0	7	39	13	22	125	3	5	11	22	0	32	3	24	31	0	3	2	24	2	3	0	1	17	20	37	0	0	0	1	14	6	9	4	64
OTU 25	0	0	0	0	0	0	0	0	0	4	0	0	2	0	0	0	0	1	0	0	0	0	0	0	0	0	0	0	0	0	0	0	0	0	0	0	0	0	0	0	11	0	0	0	0	21	0	0	0	0
OTU 26	0	0	0	9	2	28	0	0	0	2	0	63	1	0	0	13	0	0	0	0	0	0	0	0	13	2	0	0	1	0	27	48	0	0	6	1	2	52	0	0	0	3	2	0	0	0	4	0	0	2
OTU 27	0	0	0	0	46	0	0	0	0	0	0	0	0	0	0	0	0	0	4	0	0	0	0	0	0	0	0	0	16	0	0	0	0	0	0	0	0	0	0	5	1	0	0	0	0	0	3	0	0	0
OTU 28	55	12	7	60	33	10	13	0	29	53	7	152	14	65	9	430	245	62	33	5	27	14	80	69	52	13	109	20	10	2	32	61	34	13	64	15	7	6	59	61	1	17	16	2	7	29	10	3	150	6
OTU 29	39	37	13	47	10	7	2	15	0	58	12	16	7	31	24	45	24	25	4	12	132	2	23	9	46	20	10	5	3	44	5	16	5	3	36	50	52	0	16	11	8	0	29	326	1	87	1	14	29	7
OTU 30	16	5	0	0	0	0	0	0	0	0	0	0	0	0	0	0	0	0	0	0	0	0	0	0	0	0	0	0	0	0	0	0	0	0	0	9	0	0	0	0	0	0	0	0	0	0	0	0	0	0
OTU 31	6	0	5	9	1	6	0	25	3	1	3	30	0	23	8	3	0	8	477	6	0	0	0	2	2	40	6	0	2425	0	391	2327	1	2	0	0	1053	1209	1	945	25	8	9	213	0	7	1113	487	40	11
OTU 32	18	26	6	24	32	107	50	0	296	102	73	9	23	39	22	106	55	21	10	366	58	17	6	37	60	29	29	15	58	89	5	15	14	13	13	11	9	4	1103	24	18	4	46	2	22	15	51	2	67	338
OTU 33	0	0	0	0	0	0	3	0	0	0	0	0	0	0	0	0	21	33	0	0	7	0	0	2	87	0	0	0	0	0	0	0	0	0	0	0	0	0	23	0	0	0	0	0	1	0	0	0	0	3
OTU 34	19	14	5	1	12	6	5	14	8	4	57	3	39	3	8	0	0	11	3	2	17	3	15	4	9	20	22	9	20	16	49	43	6	42	2	6	10	0	3	6	6	3	17	5	21	73	7	59	1	8
OTU 35	17	6	1	1	0	12	2	7	1	6	2	7	2	6	9	1	10	10	0	1	72	3	0	27	8	5	12	2	4	0	2	0	2	28	0	0	29	37	38	0	3	5	29	9	25	41	1	1	20	6
OTU 36	9	10	0	3552	6	0	26	20	18	0	113	16	11	25	3	17	14	43	6	8	18	22	5	7	10	4	6	0	27	47	2	0	8	10	3	1	2	2	26	13	5	0	3	42	13	10	16	34	28	1
OTU 37	8	0	16	1	0	1	6	6	25	64	8	0	0	0	34	0	35	0	0	13	41	0	0	0	0	4	0	5	9	0	0	0	1	17	0	20	0	0	43	0	0	3	0	0	0	0	1	1	3	105
OTU 38	0	565	8	671	19	18	15	1510	256	29	94	1387	21	398	9	7	45	7	90	735	8	722	489	804	1	564	15	359	345	2	149	873	389	17	32	0	87	259	442	186	788	215	17	21	895	57	175	109	0	483
OTU 39	4	1	0	0	7	0	8	0	0	0	3135	8	3	2	0	2	4	7	5	0	45	0	1	1	9	0	13	32	9	2	0	0	0	1	0	3	5	5	10	8	0	8	3	1	0	0	0	4	4	1
OTU 40	19	21	1	13	0	25	36	54	44	2	12	15	5	1	0	37	3	9	28	10	25	9	8	14	21	1	224	0	2	28	7	13	1	0	5	2	14	15	2	58	23	3	37	1099	5	15	8	2399	89	4
OTU 41	35	0	4	0	25	16	792	7	14	5	9	0	0	1	14	34	14	2	1	20	3	10	0	7	1	2	1	8	22	41	1	2	3	3	3	18	37	10	0	7	0	10	27	1	42	41	1	0	4	8
OTU 42	65	0	0	0	13	0	0	11	36	0	0	90	37	1	1	0	15	5	0	0	4	1	0	0	0	1	2	36	18	0	1	24	0	10	3	0	37	12	0	0	0	4446	3	21	28	24	16	0	1	14
OTU 43	0	1	0	4	0	3	0	0	0	0	0	0	0	0	0	0	0	0	0	0	0	2	1	0	0	0	0	0	1	0	0	0	0	0	0	0	0	0	0	0	0	0	8	0	0	0	0	0	0	0
OTU 44	16	17	3	0	0	36	5	0	0	0	2	0	1	5	35	0	56	0	27	1	0	0	0	0	0	16	0	0	0	5	0	0	2510	0	4	36	0	9	14	70	0	0	0	0	0	0	0	34	19	23
OTU 45	104	44	2	23	388	6236	35	6	2890	5	5	9	29	2	8	22	13	37	12	0	41	5	1	2	2	7	35	8	37	10	0	0	5	21	76	2	26	51	33	33	1	6	10	56	0	22	26	5	12	31
OTU 46	1	188	39	3	63	5	100	18	37	42	10	10	6	443	47	4	1	33	1	23	2	2	19	41	44	40	25	50	27	28	11	16	12	15	18	17	33	113	12	5	8	67	19	13	1	15	0	7	17	20
OTU 47	0	1	9	0	0	0	3	12	0	0	0	0	0	9	21	0	24	0	0	10	0	0	0	12	0	0	6	0	0	0	0	1	16	0	0	8	0	1	0	0	2243	0	0	0	0	0	0	0	0	0
OTU 48	161	27	7	4	0	2	3	25	8	50	21	0	31	15	8	23	42	25	2	18	36	21	22	0	126	29	8	22	41	3	0	2	2	65	11	2	22	59	6	9	10	32	69	510	56	64	1	815	26	6
OTU 49	0	142	3	2	0	0	16	63	56	11	8	1	6	11	4	2	29	0	0	0	9	1	11	28	8	0	4	0	0	20	1	0	3	16	4	6	0	1	1	2	27	2	0	2	0	16	0	0	0	0
OTU 50	7	1	4	49	9	1	42	0	71	0	211	41	96	11	2	94	13	0	21	14	31	4	13	23	0	5	42	4302	67	18	22	25	5	77	2	44	17	19	13	58	0	2067	42	2	2	17	20	32	47	0
OTU 51	0	37	4	29	4	12	1	6	29	3	8	0	1	7	2	13	15	0	3	3	42	79	4	2	5	4	2	0	13	16	0	6	0	0	35	18	28	2	29	6	4	0	18	0	9	2	8	3	1	3
OTU 52	20	93	51	11	171	106	5572	1	74	5891	0	14	51	26	74	130	45	34	44	35	70	12	72	28	72	35	45	3	61	77	26	3	14	13	63	10	46	40	8	87	15	29	3	2	7	37	30	2	39	3
OTU 53	0	1	0	0	0	0	0	0	0	0	0	0	0	0	0	5	0	42	0	0	0	0	0	0	0	0	2	0	0	0	0	0	0	0	0	0	0	0	0	0	0	0	0	0	0	0	0	0	0	0
OTU 54	41	36	15	769	18	8	12	35	28	22	17	1983	14	620	35	46	110	20	2	24	69	1020	9	27	104	55	1	7	58	3	0	1146	23	22	39	28	7	35	44	7	3	12	86	11	1096	49	22	9	34	5
OTU 55	6	0	0	0	0	0	0	0	0	14	0	0	1	0	0	0	0	1	0	0	0	0	0	0	0	0	0	0	0	0	0	0	0	28	0	1	0	0	0	0	0	0	0	0	0	0	1	0	0	0
OTU 56	15	0	45	0	30	0	6	0	2	6	2	0	6	0	65	3	4	23	7	5	6	0	12	11	2	1	0	1	9	4	2	3	3	13	2	11	28	40	2	12	5	1	1	0	0	8	0	3	0	7
OTU 57	23	11	32	60	71	23	33	16	21	30	20	26	36	841	43	78	129	83	18	21	37	2025	36	32	17	1	159	24	50	31	4204	5	34	136	63	83	158	12	27	29	12	16	26	16	35	1234	49	28	10	79
OTU 58	8	27	19	8	0	6	40	42	39	5	26	6	5	10	34	2	30	10	0	17	1	4	4	35	0	7	5	15	1	2	0	125	17	0	1	0	14	18	15	0	0	50	7	4	2	10	0	0	0	10
OTU 59	3	0	0	0	10	0	0	2415	309	10	0	0	5	0	0	0	0	77	2	944	60	2	479	990	13	1267	28	297	62	13	0	0	527	17	0	0	17	22	1201	7	1236	269	1	12	14	12	17	7	48	654
OTU 60	66	16	3	35	4	76	0	58	6	5	55	17	24	0	11	28	5	3	2	11	9	20	4	31	5	62	24	29	30	29	36	19	15	9	11	24	100	8	14	10	7	20	7	16	38	7	14	13	28	21
OTU 61	19	4	55	0	64	50	8	27	1	15	2	25	6	9	168	23	156	11	30	21	1	18	33	56	13	4	46	15	22	42	7	7	24	48	54	62	48	18	46	60	22	14	3	20	4	16	8	11	26	64
OTU 62	1	0	1	6	19	0	0	3	0	12	1	33	1	1	3	0	0	17	14	0	0	3	4	48	1	3	9	27	1	1	1	5	29	4	1	4	0	0	0	20	3	3	3	0	26	8	3	19	5	0
OTU 63	5	3	25	2	0	0	1	16	103	2	17	3	3	0	66	33	1	8	0	28	1	8	24	94	0	6	4	35	1	4	0	2	62	9	1	69	9	5	9	0	0	8	0	0	0	17	4	2	0	2
OTU 64	6	119	20	35	13	24	6	24	83	308	1	68	97	21	35	75	5	112	1	28	111	3	4	27	13	53	12	19	22	1	34	28	21	2	2	3	9	17	6	1	10	27	6	34	83	23	3	31	36	20
OTU 65	0	0	1	0	0	0	0	14	0	12	0	0	1	0	0	0	0	1	0	0	6	0	0	0	0	7	0	5	0	0	0	0	0	0	0	0	0	0	0	0	7	2	0	0	0	2	0	0	0	0
OTU 66	67	3	8	30	31	7	2	41	1	61	9	17	8	13	7	17	9	5	28	7	26	33	1	8	20	26	12	8	27	15	16	0	1	42	33	29	4	125	18	51	13	5	3	4	13	2	9	13	22	26
OTU 67	15	4	15	23	33	83	12	12	8	2	7	0	49	662	24	5	23	1	2	4	77	0	30	43	2	3	18	48	0	16	0	29	15	5	0	73	1	9	15	5	2	20	335	0	18	3	1	5	37	5
OTU 68	0	4	3	2	0	4	1	54	0	0	0	0	0	0	0	0	0	14	0	5	1	4	22	3	4	3	2	3	37	0	4	0	4	2	0	0	84	23	0	0	7	2	0	1	0	6	3	1	0	0
OTU 69	8	2	9	573	13	9	6	5	4	10	3	3	16	12	9	32	32	5	30	3	22	2	7	1	8	11	3	4	58	1	61	12	7	11	1	3	12	5	0	53	3	10	9	25	6	22	11	27	1	17
OTU 70	0	4	1	0	0	0	0	19	648	4	0	20	0	5	0	19	3	2	1	8	2	7	16	5	3	5	1	8	0	34	45	0	1	3	2	0	7	1	687	7	0	24	6	8	0	0	1	0	13	333
OTU 71	1	1	0	4	5	5	0	0	11	1	0	12	59	0	1	6	1	42	0	0	10	0	232	291	4	0	12	206	0	21	0	0	129	9	0	31	5	2	20	0	0	176	7	1	0	0	5	33	7	20
OTU 72	22	7	3	8	20	1	78	30	28	9	9	3	7	58	14	1	21	48	2	25	20	19	1	22	16	11	7	3	10	0	5	10	8	0	14	2	0	13	0	4	26	11	5	52	4	9	4	10	64	4
OTU 73	14	160	2	27	49	3	4	1	1	0	11	15	5	10	0	4	14	6	5	1	13	0	7	0	17	6	4	2	11	64	3	6	0	8	25	0	3	13	27	9	0	0	11	2	32	34	4	1	37	12
OTU 74	71	94	43	22	20	17	1	2	9	76	4	22	52	2	78	4	7	6	9	6	13	1	0	0	71	33	5	4	26	0	11	8	2	70	2	14	29	42	7	12	0	2	2	8	48	0	0	25	125	2
OTU 75	26	9	0	6	6	34	20	3	15	4	15	11	1	18	11	0	5	45	36	6	0	1	3	6	63	6	20	9	14	16	92	895	4	31	31	37	49	24	21	66	0	14	61	52	2	103	34	55	3	33
OTU 76	3	0	0	21	0	0	0	3	3	14	5	1	0	0	1	0	2	0	658	1	0	0	0	0	0	2	0	0	5	2	1	4	0	11	34	7	3	16	5	4	0	2	0	14	18	10	3	1	8	0
OTU 77	73	6	30	1	0	24	21	10	4	34	14	13	13	0	60	0	16	69	0	2	68	16	20	23	13	2	46	70	0	99	1	6	11	63	39	1	1	8	2	0	2	15	15	22	2	43	1	30	18	9
OTU 78	96	23	2	6	24	149	16	47	2	45	23	4	4052	9	27	73	7	22	12	8	21	17	0	11	40	1	48	4	1	12	74	1	9	11	39	1	42	0	27	30	17	13	89	0	2	16	4	2	4362	64
OTU 79	86	19	28	7	166	88	64	161	133	27	159	11	1405	25	53	20	76	75	14	73	48	23	20	32	69	107	59	52	162	29	19	49	19	42	278	50	64	54	16	35	47	49	65	48	17	35	122	10	17	1603
OTU 80	117	14	2	5	30	2	6	11	37	29	6	19	40	5	22	17	17	13	3	51	11	6	13	10	19	46	7	35	10	0	56	24	4	30	5	3	12	21	5	10	27	12	72	4	19	19	13	6	43	13
OTU 81	45	37	9	148	30	28	47	13	17	7	52	310	23	2813	32	33	71	55	4	8	9	166	13	8	17	34	44	17	28	0	26	66	7	8	5	7	59	44	145	10	4	2	147	93	96	17	33	117	299	58
OTU 82	47	14	0	7	43	25	31	0	67	201	35	4	1	16	3	0	43	34	3	1	10	23	17	57	23	6	0	1	19	14	15	28	34	60	9	1	0	18	8	3	0	2	24	0	3198	3604	5	24	2	27
OTU 83	13	18	6	0	0	0	0	0	9	0	9	8	3	0	8	11	0	0	0	0	0	2	0	2	0	0	0	4	0	0	33	0	1	2	16	0	4	0	8	0	2	0	0	6	0	0	0	17	0	8
OTU 84	2	22	0	9	0	0	0	0	0	28	8	0	0	3	0	0	14	66	0	13	92	25	19	2	0	1	8	0	16	0	0	0	0	8	1	6	0	7	17	0	20	0	2	0	1	0	15	67	4	86
OTU 85	3	10	0	0	79	57	0	0	3	0	0	0	7	0	0	0	61	3	0	0	0	0	13	8	0	11	0	0	0	0	0	0	8	1	14	15	33	0	0	0	0	4	0	1	0	0	0	0	62	1
OTU 86	0	0	0	0	0	0	0	0	1	0	0	0	15	0	0	0	8	0	0	0	0	1	0	0	0	0	0	0	0	0	0	0	0	0	0	0	0	0	0	1	0	0	4	0	0	0	0	0	3	4
OTU 87	7	0	529	0	0	0	3	2	0	0	0	0	6	2	874	0	4	3	4	0	1	0	0	0	0	0	0	0	0	3	7	6	0	25	0	0	0	0	0	5	0	1	0	1	0	0	0	0	0	0
OTU 88	77	0	0	0	0	0	7	7	0	0	1	1	1	0	0	0	3	0	0	1	0	0	0	0	0	0	0	10	0	1	2	0	0	0	0	5	22	11	0	0	0	0	0	0	0	0	0	5	0	0
OTU 89	1	5	0	0	0	17	17	1	27	10	5	0	6	1	0	4	0	1	2	3	8	0	0	2	6	0	5	14	12	0	0	2	2	36	72	3336	8	0	3	4	0	22	0	0	0	25	3	16	7	6
OTU 90	0	3	0	0	0	0	0	5	0	1	9	4	41	1	1	70	1	0	0	0	9	0	1	0	19	0	0	0	0	1	0	0	1	0	0	0	0	0	0	0	1	0	0	17	95	0	0	0	0	0
OTU 91	0	5	1	4	9	0	0	0	0	0	22	0	0	2	10	0	0	0	0	0	0	20	0	0	5	0	0	0	0	0	0	0	0	0	8	23	0	8	0	0	2	2	1	17	0	0	0	0	0	0
OTU 92	2	0	0	15	0	0	40	0	29	0	0	0	56	3	1	0	1	172	0	0	23	1	2	0	0	0	0	3	0	1	2	11	0	0	0	0	3	7	0	0	0	10	2	1	11	8	0	2	0	0
OTU 93	1	0	0	0	0	0	17	0	0	0	0	1	0	8	0	0	0	0	0	0	0	2	5	0	0	0	2	0	0	0	7	0	0	0	0	0	0	0	0	0	0	0	0	0	0	0	0	15	6	0
OTU 94	3	54	0	8	12	15	2	35	33	16	153	60	23	0	1	31	33	3	430	10	13	0	5	11	0	8	39	1	0	70	444	19	7	17	9	3	4	33	31	858	7	22	12	226	11	49	5	248	9	13
OTU 95	18	0	10	43	0	0	15	0	0	2	0	48	2	32	8	3	0	5	0	1	2	7	0	0	33	1	13	0	0	13	0	1	3	0	13	3	0	19	0	0	0	0	0	0	46	0	0	3	0	3
OTU 96	0	0	5	0	0	4	0	25	0	0	27	1	0	0	11	0	1	0	0	7	0	0	0	4	2	12	0	30	0	6	8	0	1	3	0	0	0	0	0	0	5	1	1	4	0	0	0	47	0	0
OTU 97	0	5	21	79	0	0	1	147	163	1	0	270	0	2	31	0	0	0	143	177	0	75	45	58	0	71	0	70	58	0	31	125	25	6	1	0	104	19	216	282	157	4	0	86	53	1	36	29	0	133
OTU 98	1	0	0	0	0	0	18	0	2	0	6	0	1	11	3	0	0	43	0	0	1	15	1	0	4	13	0	1	0	0	0	8	0	0	157	28	1	0	2	0	0	10	2	30	3	63	0	0	0	2
OTU 99	0	21	10	80	33	38	6	101	5	47	38	0	34	0	6	111	40	10	19	30	19	4	62	78	13	25	1485	13	29	30	13	8	35	4	114	9	15	62	35	32	68	16	27	11	24	4	1	9	32	0
OTU 100	0	23	0	5	1	50	3	5	0	41	6	5	38	0	0	11	0	1	4	0	21	15	0	0	47	16	1	2	6	74	1	0	0	34	4	128	12	0	40	11	0	0	4	0	0	3	17	1	31	1
OTU 101	0	0	20	0	18	0	0	0	0	2	0	0	2	0	36	0	0	0	0	0	1	0	0	0	3	0	4	0	0	1	0	0	0	0	0	0	0	0	1	0	0	0	0	0	0	0	0	0	0	0
OTU 102	0	1	0	8	4	0	0	3	2	46	0	0	1	3	0	0	0	0	0	0	2	9	0	0	0	9	0	0	0	7	0	0	0	8	0	0	0	1	0	0	0	3	0	0	1	3	0	6	30	1
OTU 103	2	0	5	1	10	8	28	29	36	0	14	24	0	4	11	53	6	10	0	1	0	4	35	20	1	21	16	23	0	0	4	6	9	13	1	24	50	6	19	0	9	10	1	59	13	1	0	29	89	3
OTU 104	86	3	0	40	3	2	85	3	164	22	115	41	3	23	8	18	52	72	5	0	5	14	27	68	379	13	0	154	12	17	21	0	24	59	52	11	38	18	718	5	1	144	8	6	21	16	1	58	36	478
OTU 105	6	0	0	0	0	0	1	0	6	0	1	58	1	49	0	0	5	5	4	0	0	19	0	3	8	0	0	0	0	0	0	1	2	0	0	2	0	6	0	13	0	0	65	5	0	32	0	0	10	0
OTU 106	43	0	0	0	7	20	3	0	0	0	3	0	0	0	0	0	0	0	1	0	16	2	1	0	6	3	0	0	13	0	0	0	0	7	0	0	0	0	0	3	0	0	46	9	0	0	4	0	0	0
OTU 107	8	0	17	0	1	0	532	4	16	1	11	0	16	0	0	0	4	0	1	3659	9	0	0	22	4	2	23	28	0	2	4	0	5	6	1	0	0	37	0	7	6	18	0	0	0	18	0	4	22	0
OTU 108	2	95	39	9	0	12	48	9	4	0	0	0	15	0	79	0	0	0	36	0	16	0	20	50	30	9	2	3	330	3	79	2	16	40	0	2	299	6	7	71	3	4	11	3	0	36	148	6	17	3
OTU 109	0	0	1	0	0	0	0	0	0	0	0	0	0	0	0	0	0	0	0	0	0	0	0	0	0	0	0	0	0	0	0	0	0	0	0	0	0	0	0	0	0	0	0	0	1	0	0	0	0	0
OTU 110	62	15	22	62	32	49	11	11	9	6	72	17	42	38	77	21	2	3	1	36	0	5	36	89	6	10	50	44	23	3095	0	10	39	0	34	85	13	39	9	2	9	26	0	16	1	11	23	5	10	0
OTU 111	0	4	99	9	0	1	8	0	30	0	0	5	0	0	200	1	0	12	0	14	78	0	0	0	3	1	0	0	0	2	0	0	0	9	0	1	0	0	0	0	0	0	0	0	0	0	0	10	1	0
OTU 112	11	0	2	0	0	2	2	1	1	0	10	1	82	1	0	1	1	15	4	6	1	7	9	0	4	19	5	0	7	0	4	0	0	80	1	0	5	17	0	2	0	0	10	0	0	15	0	1	9	0
OTU 113	0	5	0	0	2	0	1	13	0	1	1	0	0	0	0	0	0	8	0	1	0	10	0	2	1	0	10	1	0	1	1	0	0	0	0	3	0	2	12	0	0	0	0	3	0	4	1	12	7	47
OTU 114	40	16	0	4	0	67	70	36	19	3	4	23	47	2	9	3	62	53	60	7	1899	3	23	10	68	9	15	3	23	29	28	7	9	2	42	30	16	8	43	102	2	5	25	11	30	0	10	11	4	17
OTU 115	25	15	14	24	45	50	20	35	14	18	85	56	30	74	45	25	63	35	15	24	507	5	6	43	6	26	9	8	24	49	49	54	405	65	53	24	36	20	52	28	26	0	17	2712	9	3	24	39	30	28
OTU 116	113	1180	7	34	15	53	37	28	30	30	5	20	257	96	17	41	20	8	338	38	4	0	0	14	45	8	5	3	1592	13	430	0	0	5	38	7	861	622	14	670	5	6	37	286	49	32	841	421	0	15
OTU 117	4	5	8	6	0	98	46	10	6	7	129	10	28	57	50	12	13	0	12	3	25	3	0	4	0	2	71	25	1	63	13	0	6	1	2	16	8	99	0	19	0	6	18	0	19	79	114	32	0	5
OTU 118	0	0	0	0	0	0	0	0	0	0	0	1	54	8	0	0	0	1	0	5	0	0	31	76	1	0	0	29	0	0	13	0	33	10	0	0	1	2	0	0	0	44	1	0	0	17	0	0	0	0
OTU 119	9	43	21	59	9	8	37	27	4	10	14	26	1	1	40	12	2	33	28	3	20	27	13	11	65	7	0	14	45	0	6	6	0	210	6	40	6	4	31	45	22	4	7	10	15	16	14	27	68	33
OTU 120	0	223	0	0	8	46	7	2	0	20	9	1	0	5	0	10	6	29	0	0	1	1	5	5	26	0	0	9	97	57	9	1	1	42	6	17	0	1	43	0	0	1	5	3	0	0	63	7	1	19
OTU 121	107	17	24	0	0	5	11	15	1	7	5	1	7	5	23	5	24	7	54	6	2	23	5	2	9	3	1	22	0	18	3	2	1	3	8	0	0	14	14	108	22	18	7	21	0	17	7	0	2	6
OTU 122	27	3	5	20	9	16	59	5	0	81	3	61	31	1	16	2	13	5	0	0	2	53	10	3	18	1	1	0	0	785	6	93	2	3	1	18	4	22	3	0	0	0	10	10	38	5	0	2	14	3
OTU 123	90	3205	38	288	27	143	24	33	434	170	39	538	38	176	66	33	151	160	42	55	84	386	111	78	61	9	14	106	162	91	12	296	59	106	134	88	138	11	1067	80	64	114	644	20	432	49	61	22	93	410
OTU 124	41	3	2	9	5	6	0	1	31	0	2	15	0	0	0	43	0	0	0	0	17	0	8	1	33	14	0	0	1	0	0	3	1	0	0	0	15	0	0	1	0	0	7	1	0	0	5	0	0	0
OTU 125	177	15	95	357	181	37	21	116	109	24	33	24	14	334	291	6	46	159	47	5	55	11	9	7	160	46	53	53	105	337	86	30	4	24	89	3052	51	233	46	97	45	32	19	46	28	68	34	51	64	834
OTU 126	0	0	0	0	1	0	1	3	0	8	0	18	0	0	0	0	11	3	0	0	0	0	1	0	0	0	0	3	0	12	0	0	0	0	0	0	1	0	0	0	0	1	0	0	26	11	0	0	2	11
OTU 127	7	10	6	3	2	1	2	21	1	92	23	18	150	1	10	24	43	90	0	1	45	12	0	2	18	30	47	0	6	0	0	0	2	36	7	0	29	10	0	0	0	2	1	0	0	0	0	31	11	8
OTU 128	140	132	20	19	57	38	62	62	62	289	117	25	6	63	27	77	95	47	98	62	84	45	41	47	30	74	275	20	448	40	158	7	22	21	79	134	1078	3304	49	214	25	12	42	170	11	86	897	142	23	98
OTU 129	8	28	0	0	0	0	0	1	6	0	0	0	0	0	0	31	2	0	0	0	29	0	0	0	0	0	0	0	28	37	4	0	0	0	2	0	1	41	86	0	1	0	0	0	0	1	31	1	9	31
OTU 130	23	12	2	0	1	36	13	5	0	32	1	6	27	12	0	16	3	2	5	4	116	10	2	6	25	1544	1	4	15	12	6	1	6	64	1	18	4	12	29	10	9	8	0	0	0	0	4	0	3	12
OTU 131	4	2	1	10	22	0	0	1	1	7	2	24	9	18	7	28	38	0	5	0	9	7	5	22	0	2	0	1	9	16	2	22	18	11	30	0	0	47	9	9	2	0	0	0	0	562	2	1	4	4
OTU 132	0	24	9	23	44	1	0	8	1	3	1	6	12	7	6	1	4	9	0	8	9	0	3	0	7	7	4	0	2	11	0	0	0	12	5679	32	3	7	0	0	6	6	19	0	1	25	7	0	2	52
OTU 133	0	0	0	0	0	0	0	1	0	2	0	22	0	29	0	0	2	0	0	0	0	0	0	42	1	21	8	6	0	48	0	3	17	0	1	2	0	9	14	0	0	12	2	0	0	0	0	4	0	0
OTU 134	6	8	4	2	0	14	6	1	72	1	0	67	84	3	3	0	7	16	5	0	14	111	0	12	16	2	0	21	18	0	35	36	5	4	1	10	6	20	0	4	1	24	0	0	13	5	14	6	10	0
OTU 135	12	5	13	0	17	29	17	39	30	48	8	4	17	8	24	4	40	23	1	34	15	7	24	21	33	13	0	15	1	10	26	0	4	7	2	5	2	3	0	6	52	10	0	35	9	11	5	37	26	0
OTU 136	6	2	1	2	0	9	28	0	9	2	21	3	11	0	3	1	7	46	0	1	39	0	1	16	2	3	11	1	9	0	3	1	8	0	1	17	0	1	0	1	5	0	7	23	0	0	9	74	0	0
OTU 137	11	0	0	3	2	0	0	13	0	0	0	1	0	0	0	13	1	1	1	0	0	1	7	34	0	0	9	0	7	652	19	0	15	0	36	10	0	1	3	2	2	0	0	0	1	7	0	24	3	0
OTU 138	0	1	0	1	13	0	0	0	10	0	0	0	0	0	0	4	0	1	0	0	0	9	5	0	8	0	18	2	0	3	0	0	2	2	8	16	17	2	19	0	0	13	0	1	1	0	0	4	5	3
OTU 139	43	50	12	7	141	7	31	52	12	76	99	6	2	11	24	133	22	5	14	97	10	48	90	57	4	27	5	39	34	41	16	14	284	1466	32	55	27	22	10	29	15	9	24	12	0	85	3	5	30	5
OTU 140	40	63	27	42	21	71	65	146	100	34	45	68	70	81	54	62	44	5	3398	24	25	50	12	27	57	51	53	14	169	27	947	38	18	11	24	24	18	55	72	1805	34	2	5012	511	88	18	68	1327	7	523
OTU 141	0	0	0	0	5	0	0	0	0	0	0	0	16	0	0	0	0	0	0	0	0	0	0	0	0	0	0	0	0	30	0	0	0	0	0	0	0	0	0	0	0	0	0	0	0	0	0	0	0	0
OTU 142	9	0	0	0	15	0	0	0	0	0	4	3	0	0	5	0	0	0	0	0	4	0	0	2	0	0	0	0	0	0	8	0	2	0	1	0	2	0	4	0	0	0	0	0	0	0	0	0	0	0
OTU 143	15	0	4	0	0	0	16	0	0	0	0	0	0	4	17	1	0	0	466	0	12	0	0	0	0	0	0	1	0	4	4	0	1	0	0	1	36	0	0	0	0	0	10	0	0	28	0	3	0	4
OTU 144	0	0	0	1	1	1	0	0	0	9	48	1	0	2	0	14	3	0	1	0	8	0	0	1	0	0	8	0	1	1	0	0	0	0	0	11	0	7	1	3	0	0	0	13	0	0	0	0	2	0
OTU 145	17	54	1	11	2	82	21	0	48	0	5	12	5	2	8	26	15	25	11	4	1	28	1	4	0	2	0	0	15	17	11	6	0	35	3	57	33	18	8	14	3	6	54	9	4	1240	6	43	2	19
OTU 146	6	4	8	22	19	0	39	6	2	15	1047	1	12	12	36	3	24	0	1	1	0	2	37	36	23	0	3	3	13	29	1	1	14	31	8	60	28	10	66	5	2	10	2	6	0	37	15	2	40	18
OTU 147	6	19	0	15	49	0	62	85	27	4	11	34	4	0	0	40	0	12	0	3	3	11	11	0	7	2	9	0	0	0	0	7	0	72	4	0	535	3	0	0	25	0	63	0	7	17	3	3	25	0
OTU 148	36	1	34	12	142	40	28	14	25	6	66	4	2	18	22	10	10	4	7	4	33	15	8	4	7	5	1	0	0	33	32	0	7	59	19	14	23	4	28	20	1	8	53	0	2	2	4	6	7	0
OTU 149	0	10	47	0	2	17	6	0	6	198	0	1	5	0	94	35	0	0	0	1	0	1	0	0	3	0	67	0	0	72	3	0	8	18	15	1	0	0	0	0	0	0	0	16	18	29	9	0	4	3
OTU 150	1	12	0	1	0	18	14	4	1	0	1	1	0	3	0	6	10	0	0	2	0	0	0	2	1	0	0	1	6	0	3	4	1	2	4	0	2	8	5	0	3	0	12	10	0	0	24	0	0	3
OTU 151	7	29	0	18	0	16	28	0	1	1	9	38	16	8	4	6	19	53	0	0	1	4	5	43	0	0	0	1	4	0	4	7	45	13	35	24	2166	5	16	0	3	0	0	48	15	0	7	12	14	4
OTU 152	41	21	3	6	40	3	1	7	0	20	31	7	25	16	19	10	56	11	3	24	0	5	5	11	17	2	4	21	4	0	0	7	6	15	16	3	30	11	110	11	12	3	41	5	0	11	21	0	13	18
OTU 153	0	0	0	0	0	0	0	0	0	0	1	0	18	0	0	30	0	0	0	0	0	0	0	4	0	0	0	0	0	0	0	0	15	0	0	6	0	0	4	0	1	0	0	3	32	0	0	3	1	0
OTU 154	0	0	0	0	0	1	0	47	0	0	0	0	0	0	0	4	1	4	0	1	0	0	0	0	0	15	0	0	0	0	0	0	0	0	0	0	0	0	0	0	2	0	0	0	0	6	0	2	16	0
OTU 155	2	0	18	0	32	0	1	30	42	0	176	5	0	18	20	0	41	46	18	0	0	10	13	32	37	0	0	1	23	2	0	0	19	25	6	0	20	8	0	48	5	0	1	0	18	0	9	9	18	0
OTU 156	19	357	520	458	81	23	3	725	119	5	9	803	32	190	935	3179	16	3	276	489	28	395	158	473	6	428	13	241	590	156	168	543	241	9	4	60	450	655	438	567	457	104	7	97	592	10	312	403	17	203
OTU 157	0	7	0	5	2	1	0	6	2	43	0	9	0	1	5	0	1	16	0	0	0	0	988	1833	0	0	0	849	0	2	20	0	872	0	0	2	0	0	3	0	4	376	16	12	0	0	12	0	2	1
OTU 158	0	0	0	0	1	0	0	3	5	1	0	0	1	7	0	0	0	0	0	0	2	5	0	0	10	0	0	0	52	4	0	0	0	31	0	0	0	0	0	0	0	0	0	0	0	0	9	0	0	6
OTU 159	36	757	0	43	36	10	0	13	27	8	9	12	21	1	0	4	18	5	18	6	82	10	1	0	41	0	3	3	7	181	18	19	0	2	58	0	47	42	12	57	0	2	0	24	29	12	5	0	16	10
OTU 160	131	52	23	11	21	24	11	266	138	34	0	37	21	4	22	30	9	192	18	100	17	0	678	176	16	1564	4	117	64	84	430	17	57	51	49	24	1	15	313	33	104	54	76	7	234	148	31	1	58	265
OTU 161	0	9	152	10	72	8	10	7	0	0	405	11	1	208	222	2	10	0	0	0	18	132	19	17	2	41	48	0	3	6	10	3	3	0	2	92	4	0	1	1	0	2	569	5	8	12	0	15	0	0
OTU 162	410	12	4	0	0	32	23	377	7	0	10	21	19	2	10	9	2	28	0	163	6	11	4130	172	6	25	0	61	34	0	9	4	89	18	2	5	6	14	93	0	158	10	1	3	31	88	29	3	30	1
OTU 163	0	0	1	0	0	42	8	9	0	0	0	0	0	0	1	0	0	0	3	0	0	1	0	0	0	0	1	0	0	0	0	0	0	0	6	0	2	0	0	4	0	0	0	0	0	0	0	0	0	0
OTU 164	0	0	0	0	1	0	0	6	0	0	0	2	0	0	0	0	0	0	0	0	0	0	0	0	0	0	0	0	0	2	0	0	0	0	0	0	0	0	0	0	0	0	47	0	0	0	0	1	0	0
OTU 165	34	1	2	3	29	17	0	3	6	11	8	0	1	4	0	13	20	15	6	0	5	13	3	5	3	0	1	0	0	6	5	0	11	9	34	0	0	1	0	9	0	12	29	18	1	22	2	3	1	0
OTU 166	12	0	0	0	0	0	60	0	0	0	0	0	0	0	0	0	2	0	0	0	0	0	0	0	0	0	0	0	0	0	0	0	1	0	0	0	0	0	0	0	0	0	0	0	0	0	0	0	0	0
OTU 167	11	0	10	13	0	1	10	29	37	2	3	11	94	0	16	9	8	64	2	49	0	2	10	43	19	43	5	11	0	1	17	28	17	10	2	1	3	40	0	6	29	22	1	11	30	0	0	1	0	2
OTU 168	9	32	16	40	3	43	35	0	5	16	25	18	43	6	9	10	5415	4	0	13	0	0	7	69	63	4	1	18	14	0	4	2	22	39	0	8	0	83	21	0	0	0	0	6	55	13	4	25	0	109
OTU 169	0	0	0	26	0	1	41	0	0	1	0	0	0	0	1	7	0	1	0	0	2	0	0	1	0	0	0	3	2	0	0	0	0	0	0	0	2	0	0	0	0	0	0	1	0	1	0	0	16	2
OTU 170	0	0	0	13	0	2	0	0	0	2	1	0	5	0	0	0	0	0	0	0	0	0	0	0	0	0	8	26	0	0	0	0	0	0	0	0	0	0	0	0	0	0	0	0	0	0	0	0	0	0
OTU 171	13	22	0	52	2	9	8	1	0	7	0	4	66	0	0	2	7	1208	21	13	38	8	9	3	3	0	11	26	22	0	19	9	5	2	15	8	19	0	0	47	4	24	0	3	13	3	1	7	1	2
OTU 172	0	0	0	0	0	5	1	19	0	1	0	0	0	0	2	4	2	1	0	3	0	0	1	4	6	0	0	1	0	1	0	0	4	0	1	0	0	0	0	0	10	1	1	4	15	0	0	0	0	0
OTU 173	0	0	0	0	12	23	0	0	4	22	1	0	20	0	0	0	4	23	0	0	4	0	0	21	23	0	0	8	4	41	1	0	15	0	0	0	3	3	0	0	0	0	1	2	0	1	10	1	0	0
OTU 174	6	1	54	26	4	0	3	6	16	8	1	20	0	6	71	6	9	0	2	0	20	64	5	1	17	1	0	22	3	0	17	0	0	1	1	35	0	8	15	1	9	21	0	7	16	124	7	19	9	49
OTU 175	0	1	19	24	28	50	0	2	12	4	97	23	4	441	56	0	3	3	0	0	15	1087	9	8	0	3	29	19	3	29	0	1	6	0	9	1	3	1	10	3	0	0	3	12	0	4	1	3	18	7
OTU 176	89	54	25	29	39	62	33	98	1142	21	64	16	12	1	38	12	36	16	3	16	28	0	3	85	2	0	5202	46	13	1	13	18	27	8	5	14	52	2	16	9	355	112	6	6	11	26	18	8	59	10
OTU 177	20	69	29	2	1	2	1	11	10	148	0	13	34	0	57	2	10	8	4	10	20	11	13	2	13	619	41	86	2	20	3	29	0	101	3	2	0	13	12	10	19	4	142	23	20	25	3	0	34	15
OTU 178	9	0	0	0	83	17	16	0	2	2	4	19	3	0	0	1	0	0	4	0	0	21	2	2	4	11	6	15	20	15	1	24	1	3	2	11	0	0	15	9	1	0	0	1	4	1	4	0	1	3
OTU 179	0	19	0	2	5	14	0	0	15	58	6	6	7	0	0	21	1	13	2	0	3	3	60	101	44	11	0	21	0	2	0	7	37	45	0	14	1	12	37	2	6	14	1	119	0	24	0	214	1	9
OTU 180	61	51	2	593	23	25	91	53	12	34	60	1476	43	301	9	105	58	52	27	61	2715	733	12	61	145	20	20	58	101	102	34	526	37	51	111	54	32	74	60	64	10	43	74	51	480	122	54	37	26	36
OTU 181	0	0	1	1	4	22	57	7	10	37	3	12	4	37	3	0	0	3	2	1	0	7	215	904	3	139	57	594	2	0	3	1	494	1	8	0	12	57	15	9	3	220	0	1	15	9	1	1	4	53
OTU 182	0	0	0	0	6	0	0	15	0	0	0	0	0	1	0	0	0	8	0	23	0	2	0	5	0	49	0	0	7	5	0	0	8	0	0	0	0	0	0	0	14	0	0	0	0	0	15	34	0	0
OTU 183	8	83	1	6	4	2	3	2	17	18	3	5	5	0	0	10	18	65	1	1	44	0	0	0	1	24	37	1	8	9	4	1	3	14	1	0	1	0	3	10	2	3	57	0	86	0	2	5	31	14
OTU 184	5	1	3	10	1	0	12	2	0	2	60	0	7	2	0	6	0	99	7	0	13	1	2	7	5812	0	3	1	10	30	0	6	3	2	7	14	0	31	0	24	0	0	0	29	15	6	10	18	0	2
OTU 185	10	34	35	3	41	32	4	26	0	199	36	6	32	25	20	8	12	23	2	619	1	20	14	4	0	3	23	2	1	14	10	8	0	6	32	0	37	27	84	6	3	19	1	25	1	36	0	3	26	80
OTU 186	2	1	3	4	11	11	0	1	0	24	1494	22	86	0	0	0	0	26	2	6	0	4	1	0	6	2	9	1	3	0	2	0	1	27	0	13	0	0	0	4	3	0	0	19	1	7	4	50	0	2
OTU 187	15	116	4	19	13	39	15	31	86	0	2	73	8	10	3	7	22	2918	51	8	32	15	6	11	61	74	30	6	201	15	63	80	5	50	40	1	6	139	4	102	35	2	14	46	29	25	44	70	2274	7
OTU 188	5313	4	4714	25	12	82	7	45	9	25	37	4	9	0	13	89	88	3	2	14	15	53	25	9	4	16	15	26	21	9	4	24	6	14	3	2	41	20	17	5	26	6	5	79	42	4	20	59	50	22
OTU 189	40	114	47	51	64	57	7	25	9	0	20	32	8	38	89	113	150	11	21	2	1213	5	1	0	10	10	10	63	40	1	6	48	1726	16	56	42	34	127	30	35	9	8	26	11	10	11	32	15	52	103
OTU 190	0	18	5	0	1	11	0	0	0	2	0	8	4	0	0	3	28	0	6	0	0	0	0	0	5	0	0	0	0	0	2	0	0	0	4	0	0	0	3	13	0	2	0	0	0	12	0	0	1	0
OTU 191	2	15	4	1	129	25	0	4	34	7	81	5	12	388	22	2054	11	24	1	6	6	685	369	576	13	13	1	238	5	5	17	12	279	7	10	5	25	31	97	2	2093	84	17	1	2	25	10	5	43	48
OTU 192	12	9	33	2	4	7	45	32	3	45	16	24	129	11	60	26	105	0	5	10	85	23	55	105	9	13	25	64	0	11	13	4	51	26	1085	32	53	32	28	6	25	12	55	35	9	6	1	3	22	11
OTU 193	13	0	22	40	10	124	73	1	83	68	5	51	4	35	24	12	78	60	2	2	2	40	12	3	24	5	4	14	18	40	2	17	1	7	7	34	4	10	7	3	0	2	51	2	13	0	3951	2	22	2
OTU 194	18	0	24	0	4	15	20	0	24	1	5	35	24	7	25	0	24	2	21	0	0	3	0	3	10	0	0	3	0	39	3	17	4	1	0	35	19	2	27	38	0	0	14	58	1	3	0	29	3	5
OTU 195	52	0	0	35	21	84	8	82	15	27	33	8	66	1	1	39	0	17	0	6	43	4	50	110	3	9	0	35	14	123	10	12	56	16	122	21	8	0	0	1	26	2	0	3	3	10	6	0	0	4
OTU 196	6	2	29	3	7	0	42	2	13	6	7	5	6	3	34	18	2	21	0	0	112	1	6	8	36	6	19	3	6	5	1	0	1	19	69	0	19	0	2	1	1	4	18	0	1	24	3	5	0	0
OTU 197	64	47	1720	11	24	3	64	39	40	35	79	20	51	54	3332	78	41	5	324	8	37	1	39	57	66	8	52	52	30	49	52	787	55	6	37	41	17	14	41	41	48	12	25	31	3	58	6	19	4	8
OTU 198	0	0	0	5	0	13	1	0	0	0	1	0	0	0	0	3	3	0	0	0	1	0	0	1	2	0	0	2	3	4	0	1	0	0	31	26	31	0	0	0	0	0	18	6	4	27	0	0	0	2
OTU 199	5	0	0	0	0	45	0	10	0	0	0	11	141	23	4	2	16	0	0	4	0	14	3	1	2	3	0	4	8	5	42	8	6	0	0	1	2	0	0	3	13	0	0	35	13	1	1	6	1	19
OTU 200	13	31	19	2	1	8	0	761	317	14	47	2	7	17	33	8	40	11	7	402	43	14	170	338	1	408	83	238	6	9	0	0	146	56	0	17	36	38	481	23	293	106	0	32	22	24	5	26	21	231
