	Host 1	Host 2	Host 3	Host 4	Host 5	Host 6	Host 7	Host 8	Host 9	Host 10	Host 11	Host 12	Host 13	Host 14	Host 15	Host 16	Host 17	Host 18	Host 19	Host 20	Host 21	Host 22	Host 23	Host 24	Host 25	Host 26	Host 27	Host 28	Host 29	Host 30	Host 31	Host 32	Host 33	Host 34	Host 35	Host 36	Host 37	Host 38	Host 39	Host 40	Host 41	Host 42	Host 43	Host 44	Host 45	Host 46	Host 47	Host 48	Host 49	Host 50	
OTU 1	0	1	6	1	1	0	0	7	2	3	2	4	0	0	1	2	0	0	2	6	0	0	0	2	1	0	1	0	1	6	1	0	3	1	3	0	5	1	4	1	3	1	2	3	0	4	0	0	0	0
OTU 2	0	1	4	0	2	0	0	0	0	0	0	1	0	0	0	0	0	2	0	1	0	0	0	0	0	0	2	6	0	0	1	0	0	0	0	0	0	0	0	2	0	0	0	0	0	0	0	1	0	2
OTU 3	0	1	0	0	0	3	0	0	0	1	1	13	9	0	0	0	0	0	0	1	0	0	0	0	0	0	0	1	1	0	0	0	0	0	0	0	0	1	1	1	0	1	0	0	3	1	0	0	0	0
OTU 4	0	0	0	0	0	0	0	0	0	0	0	0	0	0	0	0	0	0	0	0	0	0	0	0	0	0	0	0	0	0	0	0	0	0	0	0	0	0	0	0	0	0	0	0	0	0	1	0	0	0
OTU 5	0	1	23	4	1	13	5	20	0	45	6	29	15	26	1	21	25	0	11	14	1	3	0	12	3	2	20	0	0	0	6	7	35	7	0	0	7	19	1	13	8	0	9	4	13	2	12	0	36	7
OTU 6	0	0	0	0	0	4	1	1	0	2	0	3	2	0	0	1	0	0	0	0	5	0	1	0	0	0	0	1	0	5	0	0	1	0	0	0	0	0	3	1	0	4	1	0	1	0	0	0	0	1
OTU 7	2	1	1	12	4	2	1	6	3	0	10	3	4	0	3	3	6	4	0	0	7	1	1	8	1	11	1	2	0	5	11	1	3	17	3	2	2	0	2	5	2	0	1	0	0	19	0	14	3	0
OTU 8	0	2	2	1	4	0	18	0	3	2	7	1	1	0	19	1	10	0	0	2	1	8	3	1	1	1	8	0	6	0	66	13	2	4	2	3	1	0	0	5	6	1	0	0	7	0	0	2	3	15
OTU 9	0	3	0	0	1	1	4	1	0	0	0	0	0	0	0	1	0	0	1	1	0	0	3	0	0	0	0	1	0	1	0	4	0	0	0	4	1	0	3	2	1	0	0	0	0	25	0	3	0	0
OTU 10	0	0	0	0	1	0	1	0	0	0	0	0	1	0	3	0	0	0	0	0	0	0	2	0	0	57	0	12	0	3	0	0	0	78	0	12	0	0	1	0	0	0	0	0	0	2	1	0	1	0
OTU 11	11	1	0	0	0	2	1	0	1	1	0	4	0	0	1	0	0	12	0	1	0	2	3	0	4	0	1	0	0	1	0	0	0	0	2	0	1	0	3	0	3	4	0	0	3	0	0	8	1	0
OTU 12	9	4	0	4	1	0	3	3	2	0	0	0	4	0	1	0	5	1	0	1	0	1	4	4	0	1	0	2	2	2	2	1	1	3	4	0	0	1	0	1	4	2	2	0	2	0	3	0	0	0
OTU 13	0	0	0	0	0	0	0	0	0	0	3	0	0	0	0	0	0	0	0	0	0	0	0	0	0	0	0	0	0	0	0	0	0	2	1	0	0	0	0	0	0	0	0	0	0	0	0	0	0	0
OTU 14	0	0	0	1	0	0	0	1	3	0	1	0	0	0	8	1	0	2	0	0	1	4	0	0	0	1	0	0	0	0	0	0	0	0	0	1	0	0	0	0	0	1	5	0	0	0	0	1	2	0
OTU 15	0	0	0	0	0	0	0	0	0	0	0	0	0	0	0	0	0	0	0	5	0	0	0	0	0	0	0	0	0	0	0	0	0	0	0	0	0	0	0	0	0	0	0	0	0	2	0	0	0	0
OTU 16	0	0	0	0	0	0	0	0	0	0	0	0	0	0	0	0	0	0	0	0	0	0	0	0	0	0	0	0	0	0	0	0	0	0	0	0	0	0	0	0	0	0	0	0	0	0	0	0	0	0
OTU 17	0	0	2	3	0	0	0	1	0	0	2	0	6	1	0	0	2	1	2	11	0	2	0	9	0	2	1	5	0	0	1	2	0	0	9	0	10	0	0	2	2	1	0	3	16	0	1	1	1	0
OTU 18	0	6	1	0	11	0	2	2	0	0	1	0	0	1	4	2	3	1	2	0	1	6	0	0	4	0	1	0	5	2	0	0	0	0	1	0	0	1	0	1	0	1	4	0	2	0	9	3	0	28
OTU 19	0	0	0	0	0	0	0	0	0	0	0	0	0	0	0	0	0	0	0	0	0	0	0	0	0	0	0	0	0	0	0	0	0	0	0	0	0	0	0	0	0	0	0	0	0	0	0	0	0	0
OTU 20	0	1	4	1	1	0	0	0	4	0	1	1	0	0	3	1	0	4	0	2	1	4	2	2	1	2	1	0	0	3	2	2	0	1	3	0	0	0	2	5	3	0	3	1	0	1	0	29	0	0
OTU 21	1	0	0	0	1	6	1	0	0	1	0	17	3	0	0	19	0	4	3	0	0	0	2	0	2	0	1	0	3	0	4	4	0	3	0	1	1	0	1	3	1	0	1	0	1	1	1	0	0	0
OTU 22	5	1	1	1	1	0	1	0	9	74	0	0	2	39	2	1	0	3	0	2	1	3	2	2	0	0	0	0	0	4	4	1	1	4	2	0	1	0	1	0	0	0	0	0	2	2	4	2	0	0
OTU 23	1	0	0	0	6	1	4	0	0	1	0	5	0	0	7	61	1	0	1	0	0	0	1	0	0	4	0	0	3	2	0	0	0	0	0	1	2	0	0	0	0	5	0	3	0	0	2	0	0	0
OTU 24	5	0	0	8	1	12	0	0	0	16	0	10	0	7	3	0	1	4	0	0	0	0	7	0	0	0	0	0	0	7	0	0	0	0	0	0	1	0	5	0	0	0	1	0	0	0	0	0	0	0
OTU 25	0	14	0	0	0	0	0	0	0	0	0	0	0	0	0	0	0	0	0	0	0	0	0	1	0	0	0	0	1	0	0	0	0	0	1	0	0	0	0	0	0	0	0	0	0	0	0	0	0	0
OTU 26	0	0	0	0	0	0	0	0	0	0	0	0	0	1	0	0	0	0	0	0	0	0	0	0	0	0	5	2	0	1	0	0	0	0	0	0	0	0	0	4	1	0	0	0	0	0	0	0	0	0
OTU 27	0	0	0	0	0	0	0	0	0	0	0	0	0	0	0	0	0	0	0	0	3	0	1	0	0	0	0	0	0	0	0	0	0	0	0	0	0	0	0	0	0	0	0	0	0	0	0	0	0	0
OTU 28	3	1	3	0	9	0	2	0	14	2	0	0	0	14	19	1	3	1	1	6	5	0	6	3	0	4	1	1	7	3	0	4	0	0	2	0	3	0	1	4	1	1	1	2	2	190	0	2	0	0
OTU 29	11	0	0	0	5	0	2	1	1	13	2	0	5	1	3	0	0	0	2	3	2	2	2	0	0	0	4	1	4	0	0	0	0	3	0	0	6	0	0	0	0	0	0	1	0	0	1	0	1	1
OTU 30	0	0	0	0	0	0	0	0	0	0	0	0	0	0	0	0	0	0	0	0	0	0	0	0	0	0	0	0	0	0	0	0	0	0	0	0	0	0	0	0	0	0	0	0	0	0	0	0	0	0
OTU 31	0	1	2	0	0	0	0	5	2	0	2	3	3	1	0	1	1	8	0	1	0	0	0	2	118	0	0	0	0	0	0	0	0	0	0	1	0	0	1	2	2	0	0	0	0	0	0	0	6	77
OTU 32	6	2	0	2	15	3	7	1	2	3	9	2	11	0	0	3	4	1	0	0	0	2	5	0	1	0	1	1	1	0	0	0	0	0	0	0	2	1	0	3	0	3	2	0	3	0	0	3	8	0
OTU 33	0	0	0	0	0	0	0	0	0	0	0	0	0	0	0	0	0	0	0	0	0	0	0	0	0	0	0	0	0	0	0	0	0	0	0	0	0	0	0	0	1	0	0	0	0	1	0	0	6	0
OTU 34	18	2	0	6	6	0	15	2	0	1	0	0	8	0	2	1	2	4	2	1	2	0	0	27	0	19	0	105	1	0	10	0	0	27	0	7	0	0	0	0	0	0	2	0	1	0	0	1	9	1
OTU 35	0	0	0	0	1	0	2	0	1	0	2	1	4	0	2	0	0	3	0	0	0	0	5	0	3	1	0	0	3	0	0	2	0	1	1	27	0	0	0	1	0	0	1	1	0	1	0	0	0	1
OTU 36	0	0	2	0	1	17	0	0	1	2	2	0	0	0	0	0	4	0	1	0	1	1	0	14	0	10	0	0	0	8	15	7	0	22	3	1	4	0	4	3	0	0	0	0	0	1	1	3	2	0
OTU 37	0	0	1	0	0	0	0	0	1	0	0	1	0	0	0	0	0	0	1	0	0	0	5	0	1	0	0	0	0	0	3	0	0	0	0	1	0	0	0	2	0	4	2	0	0	1	0	0	0	0
OTU 38	4	14	3	0	4	0	0	0	4	0	1	2	0	0	1	0	0	0	1	1	2	1	5	0	1	0	3	0	6	0	6	2	0	0	3	3	1	0	0	0	4	0	1	1	0	2	5	3	1	0
OTU 39	2	2	0	0	0	0	2	0	0	0	0	0	0	0	0	0	0	0	0	0	0	0	0	1	0	0	0	0	0	0	1	2	0	0	0	0	0	0	0	0	0	1	0	0	0	0	3	2	0	0
OTU 40	15	1	1	0	9	0	0	0	1	0	1	2	3	2	1	0	0	4	2	0	1	0	0	1	1	6	4	1	3	0	0	0	1	0	0	1	0	1	0	5	0	0	0	0	0	0	0	2	4	1
OTU 41	2	5	0	1	0	56	2	0	0	0	1	1	2	0	0	1	0	1	0	0	0	0	0	0	1	0	0	2	5	0	0	0	0	0	0	1	0	0	0	1	0	1	1	0	0	0	0	0	1	0
OTU 42	0	0	0	0	0	0	0	1	5	0	0	0	0	1	0	0	0	1	0	0	4	1	1	1	0	0	0	0	0	0	0	0	0	0	5	0	0	0	0	0	1	0	0	0	0	0	0	1	0	0
OTU 43	0	0	0	0	0	0	0	0	0	0	0	0	0	0	0	0	0	0	0	0	0	0	0	0	0	3	0	0	0	0	0	0	0	0	0	0	0	0	0	0	0	0	0	0	0	0	0	0	0	1
OTU 44	0	0	0	0	0	0	0	0	0	0	0	0	0	0	3	0	0	0	0	0	0	0	1	0	0	0	0	0	0	0	1	0	0	1	0	0	0	0	0	0	4	0	0	0	0	0	0	0	0	0
OTU 45	17	3	7	0	26	0	1	6	0	0	9	1	1	1	10	2	0	0	1	0	0	6	2	0	4	0	0	1	0	0	2	15	0	0	0	0	4	0	0	0	13	1	2	0	0	0	0	0	54	1
OTU 46	3	0	0	1	0	3	1	1	1	0	1	2	0	0	0	0	3	3	1	2	1	0	5	2	1	2	0	4	0	0	1	1	2	0	5	1	1	1	0	0	1	0	112	0	6	0	4	0	0	0
OTU 47	7	0	0	0	0	0	0	0	0	1	0	0	0	0	0	0	0	0	0	0	0	0	0	0	0	0	2	0	0	0	0	0	0	0	0	1	0	0	0	0	0	0	0	0	0	0	0	0	0	0
OTU 48	0	0	10	2	0	0	34	0	1	1	5	0	4	0	6	1	1	1	1	0	0	2	0	2	1	3	0	1	1	0	4	2	2	2	3	0	1	2	1	1	0	3	0	0	0	3	3	0	5	1
OTU 49	0	0	0	0	0	0	0	1	0	0	4	0	0	0	0	0	0	1	0	0	0	0	0	0	0	0	0	0	0	0	0	1	0	0	2	0	0	0	0	0	1	0	0	0	1	0	1	0	0	1
OTU 50	0	3	0	5	3	1	1	7	0	2	0	1	2	0	3	3	0	4	0	1	7	2	9	2	0	0	0	0	0	0	1	2	0	0	0	0	0	0	0	1	3	1	2	0	3	0	0	3	0	0
OTU 51	1	0	0	1	0	0	0	0	7	0	0	0	0	1	0	0	0	0	1	0	2	0	0	0	0	0	3	0	1	2	1	1	5	0	8	3	6	0	2	0	0	2	0	5	0	0	0	0	0	2
OTU 52	3	0	2	0	7	8	1	0	3	0	1	10	3	0	6	0	0	1	2	1	11	0	0	3	0	1	8	0	0	11	2	1	6	1	1	2	1	0	11	6	2	1	4	2	4	2	1	3	6	0
OTU 53	0	0	0	0	0	0	0	0	0	0	0	0	0	0	0	0	0	0	0	0	0	0	0	0	0	0	0	0	0	0	0	0	0	0	0	0	0	0	0	0	0	1	0	0	1	0	0	0	0	0
OTU 54	6	0	1	1	4	3	1	0	1	2	3	11	9	0	5	0	3	0	0	0	5	1	4	2	0	0	2	2	4	2	1	1	2	1	5	60	0	0	2	0	2	2	4	1	0	0	3	13	0	1
OTU 55	0	0	0	0	0	0	0	0	0	0	0	0	0	0	0	0	0	0	0	0	0	0	0	0	11	0	0	0	0	0	0	0	0	0	0	0	0	0	0	0	0	0	0	0	0	0	0	0	0	7
OTU 56	0	2	4	3	0	5	3	3	1	0	0	1	0	0	0	0	0	1	2	0	2	0	0	1	4	1	0	2	0	0	1	0	0	0	0	0	0	2	0	2	0	0	0	0	1	0	1	1	1	2
OTU 57	7	3	1	1	4	0	4	17	3	1	8	9	6	3	1	3	1	5	0	2	12	5	2	6	4	5	3	1	0	1	60	9	3	0	23	1	3	1	0	7	6	6	3	4	1	7	9	5	7	2
OTU 58	0	1	0	0	1	0	0	1	4	1	0	1	2	0	2	0	0	0	1	0	2	0	0	7	0	2	0	1	2	9	3	4	3	3	0	0	2	3	1	0	0	1	2	0	0	4	0	0	0	0
OTU 59	5	0	0	1	0	1	0	0	2	1	3	1	6	0	0	0	3	1	0	0	0	0	8	1	0	0	0	1	2	2	0	1	3	0	4	3	0	2	2	3	1	4	0	0	5	0	0	0	0	0
OTU 60	1	0	5	0	3	3	2	4	3	0	0	0	0	0	0	6	2	0	1	11	4	13	0	0	51	3	2	0	0	1	3	6	1	0	3	0	0	0	1	0	109	3	3	1	2	0	2	1	1	24
OTU 61	7	2	4	3	3	1	0	0	4	1	2	4	0	1	10	0	0	0	3	3	0	7	1	0	0	0	0	0	2	6	0	0	1	1	0	0	3	70	7	4	3	1	1	3	1	1	75	2	1	2
OTU 62	0	0	0	0	0	0	0	0	1	2	0	0	0	0	0	0	0	2	0	0	0	1	0	0	0	0	1	0	0	0	0	0	1	1	0	0	0	5	0	0	0	0	0	0	0	0	0	0	7	1
OTU 63	2	3	4	0	2	0	0	0	0	2	4	0	1	0	0	91	3	1	0	1	0	0	62	0	1	0	0	0	0	0	0	39	2	0	2	0	0	1	0	6	0	1	0	0	1	0	0	2	0	1
OTU 64	4	0	0	4	3	2	4	5	1	1	61	0	0	0	1	0	1	0	1	0	0	2	0	3	6	0	2	0	4	2	0	5	0	2	2	0	2	0	1	0	3	1	3	0	1	4	1	5	2	0
OTU 65	0	1	0	0	5	0	0	0	0	0	0	0	0	0	1	0	0	0	0	0	0	2	0	0	0	0	0	0	0	0	0	0	0	0	0	0	0	0	0	0	0	1	0	0	0	0	0	0	0	0
OTU 66	0	0	0	0	0	1	0	0	45	0	0	4	13	0	3	0	34	2	0	8	3	0	12	1	0	4	1	1	0	0	0	1	1	9	1	1	0	1	0	0	0	3	2	0	1	0	0	0	0	0
OTU 67	0	1	3	4	1	1	0	2	2	0	2	0	0	0	0	1	1	0	0	14	0	3	0	2	3	0	1	3	0	7	1	3	1	4	4	1	11	0	4	1	0	0	2	3	20	1	0	0	0	0
OTU 68	0	0	0	6	5	0	3	8	0	3	12	0	4	1	1	5	1	2	0	0	0	0	0	0	0	0	0	0	0	0	1	1	0	0	0	0	0	0	0	8	0	0	2	0	7	4	1	0	3	1
OTU 69	0	0	1	0	2	1	0	3	0	1	3	6	5	0	1	1	0	1	0	1	78	3	1	0	2	1	0	1	5	9	0	2	0	2	11	6	1	0	6	0	5	7	3	0	0	0	0	5	0	2
OTU 70	1	0	0	0	1	0	2	2	1	2	0	0	2	4	0	3	2	7	0	0	0	0	1	0	0	1	0	1	0	0	0	0	0	0	3	1	0	0	0	0	6	1	2	0	0	1	2	0	0	0
OTU 71	1	0	7	0	25	0	0	0	1	0	0	1	1	0	0	0	0	0	4	0	0	0	1	0	0	0	0	0	0	0	0	0	0	0	1	0	0	0	0	4	0	0	0	0	0	0	0	0	8	0
OTU 72	1	0	4	2	4	1	0	5	0	0	2	2	1	0	5	2	3	8	2	1	0	1	2	0	1	0	0	1	0	0	0	6	0	0	5	0	0	0	0	5	0	1	3	0	0	2	0	4	0	0
OTU 73	3	2	0	1	0	1	5	1	2	0	0	0	12	1	1	2	0	0	179	3	0	6	1	0	1	0	8	0	0	6	0	0	0	0	4	0	1	2	1	1	5	0	0	2	0	0	4	1	0	1
OTU 74	1	0	0	1	3	0	3	0	0	0	0	0	2	0	0	0	1	4	0	0	1	1	0	0	1	7	2	0	0	0	1	0	1	6	0	1	0	0	0	0	0	1	0	0	0	0	1	0	1	1
OTU 75	0	0	0	10	5	4	0	3	3	10	7	5	4	9	1	1	7	1	0	1	11	1	0	1	2	0	0	1	2	0	0	2	0	1	1	3	0	0	1	3	1	17	0	0	1	1	1	0	2	0
OTU 76	0	0	0	0	0	0	0	0	0	0	0	0	1	0	0	0	0	0	0	0	0	0	0	3	0	0	0	0	0	4	2	0	0	0	11	0	0	0	1	2	1	0	0	0	0	0	0	0	0	0
OTU 77	10	3	4	10	0	1	27	1	1	3	0	0	0	2	0	2	3	0	1	0	0	0	4	2	0	0	0	4	0	1	8	1	0	3	0	1	3	0	0	0	0	21	0	0	2	0	3	2	0	1
OTU 78	0	3	0	4	11	0	4	1	1	0	2	2	1	0	0	2	0	4	0	4	1	0	2	0	1	0	12	1	0	0	0	5	0	0	5	0	5	0	0	4	0	0	1	1	1	0	0	0	68	0
OTU 79	5	3	4	15	2	94	0	6	2	7	48	6	15	2	16	2	3	8	3	2	7	10	5	1	7	2	18	5	4	2	3	5	16	6	34	2	2	12	0	50	7	5	5	6	1	29	3	11	3	6
OTU 80	3	1	1	1	4	2	0	2	2	0	2	0	0	1	6	2	3	15	1	0	1	3	17	3	3	0	3	0	6	1	4	2	6	0	0	0	0	5	1	9	0	0	1	1	6	1	1	2	0	1
OTU 81	7	1	0	5	0	0	0	8	3	2	3	0	1	0	3	3	1	12	0	0	0	0	1	0	1	0	3	1	3	1	1	12	0	2	1	0	1	4	1	2	0	1	8	0	1	0	9	10	1	2
OTU 82	5	3	2	0	0	1	0	6	0	5	0	13	0	2	7	1	0	5	0	0	0	2	1	0	1	1	0	1	27	9	1	0	50	6	0	0	0	20	0	7	4	0	0	0	3	3	7	0	6	0
OTU 83	0	0	0	0	0	0	0	0	0	0	0	0	0	1	0	0	2	0	0	0	0	0	0	0	3	0	0	1	0	0	0	0	0	0	0	0	0	0	0	0	0	2	0	0	0	0	1	7	3	0
OTU 84	0	0	0	1	0	2	0	1	1	0	0	3	0	0	0	0	1	1	0	0	0	1	14	4	0	0	0	0	0	0	0	0	0	1	5	77	2	0	2	3	4	0	1	2	0	0	0	0	0	0
OTU 85	0	1	0	60	0	3	0	0	3	0	0	0	0	0	3	0	0	0	0	0	1	0	0	0	0	5	0	5	0	0	1	0	3	0	0	6	0	0	0	0	0	0	0	0	0	6	0	0	0	0
OTU 86	0	0	0	0	0	0	0	0	0	0	0	0	0	0	2	0	0	0	0	0	0	0	0	0	0	0	1	0	0	9	0	0	0	0	5	0	0	0	1	0	0	0	0	0	0	0	0	0	0	0
OTU 87	11	4	0	0	1	0	1	0	0	0	0	1	1	1	0	0	0	13	0	0	0	0	0	1	1	0	0	0	0	0	2	0	0	0	0	0	0	0	0	0	0	1	2	0	0	0	1	0	1	0
OTU 88	0	0	0	0	3	0	0	0	10	0	0	2	0	0	0	0	0	0	0	0	2	0	0	0	0	0	0	0	0	0	0	0	73	0	0	0	0	33	0	0	0	0	0	0	1	0	0	0	0	0
OTU 89	22	0	0	0	0	0	2	0	0	0	2	0	0	0	11	0	1	10	1	0	12	4	0	1	2	0	0	0	3	0	0	0	0	0	1	0	1	0	0	0	0	0	0	0	0	0	0	4	1	0
OTU 90	0	0	0	0	0	0	0	0	0	0	0	0	0	0	0	0	0	1	0	0	12	1	0	0	0	0	0	0	0	0	0	0	0	0	0	0	0	0	0	0	3	0	0	0	0	0	0	0	0	0
OTU 91	0	0	0	1	0	0	0	0	0	0	0	0	0	0	0	0	0	0	0	0	0	0	0	0	0	0	0	0	0	0	0	0	0	0	0	0	0	0	0	0	0	0	0	0	0	0	0	0	0	0
OTU 92	0	0	0	0	1	0	0	0	3	1	0	0	0	0	0	0	0	0	0	1	0	1	0	1	0	0	0	0	0	0	0	0	0	0	1	0	1	0	0	2	0	0	2	0	0	1	0	1	1	0
OTU 93	0	0	0	0	1	0	0	0	0	0	0	0	0	0	0	0	0	4	0	0	0	0	0	0	0	0	0	0	0	0	0	0	0	0	0	0	0	0	0	6	0	0	0	0	1	0	0	0	0	0
OTU 94	2	0	0	0	0	4	7	6	0	0	2	0	0	1	4	4	4	3	3	7	0	0	3	0	2	0	3	0	0	2	0	1	1	0	0	0	1	0	3	8	0	2	3	0	6	2	2	0	2	1
OTU 95	0	0	0	0	0	0	0	26	0	2	0	0	19	5	2	12	0	0	0	0	0	1	0	0	2	0	1	1	0	0	0	0	0	0	0	0	0	0	0	0	10	0	16	0	0	0	11	0	0	4
OTU 96	0	0	0	0	0	0	0	1	0	0	0	0	0	0	0	0	1	2	0	0	0	0	5	0	0	0	0	0	0	0	1	0	0	1	0	0	0	1	1	0	0	0	0	0	1	0	0	0	0	0
OTU 97	1	0	0	0	0	0	0	0	0	0	0	0	0	0	1	0	0	0	0	0	1	0	5	0	0	0	0	0	0	0	0	0	0	0	0	0	0	0	0	0	0	0	0	0	0	0	0	2	0	0
OTU 98	0	0	0	0	0	0	0	1	7	0	1	0	0	0	0	0	0	0	0	3	2	0	0	0	0	0	0	0	0	1	0	4	0	1	0	0	2	125	0	4	0	0	0	0	3	0	0	0	0	1
OTU 99	1	0	0	1	5	6	10	20	2	0	0	4	6	21	14	3	3	0	2	2	2	137	2	3	0	8	2	0	2	4	1	4	4	0	7	1	2	2	1	0	3	4	3	2	0	0	4	0	4	1
OTU 100	0	0	2	0	2	1	1	1	1	0	2	0	6	0	0	0	0	1	1	6	6	0	1	5	0	0	2	0	0	0	2	3	2	1	5	1	0	0	0	0	3	1	0	2	3	0	1	0	0	0
OTU 101	0	0	0	0	0	0	0	0	0	0	0	0	0	0	0	0	0	0	0	0	2	0	0	0	0	0	1	0	0	0	0	0	0	0	0	2	0	0	0	0	0	0	0	0	0	0	0	1	0	0
OTU 102	0	0	0	0	0	0	0	0	0	0	0	0	0	1	1	0	4	0	0	0	0	2	0	0	0	0	0	0	0	0	0	1	4	1	0	0	0	0	0	0	0	0	0	0	0	0	0	0	0	0
OTU 103	4	3	3	0	1	0	1	0	0	0	2	0	0	1	0	0	2	0	0	1	4	0	0	0	0	2	3	1	1	3	0	0	0	0	0	0	0	0	2	1	0	110	0	0	0	0	1	4	0	0
OTU 104	5	1	0	7	3	30	5	9	0	0	0	27	0	0	0	3	0	0	2	0	4	1	3	0	1	1	3	0	4	0	1	4	0	2	3	1	4	0	2	2	0	0	5	5	1	1	8	3	2	3
OTU 105	2	0	2	0	1	0	0	0	0	0	0	4	0	0	0	0	0	0	0	0	2	1	1	0	0	0	5	0	2	1	0	0	0	0	0	0	0	0	3	0	0	0	0	0	0	0	0	0	0	0
OTU 106	0	0	2	0	0	0	0	0	0	0	0	0	0	2	1	1	0	0	0	0	0	0	0	0	0	1	0	0	0	0	0	0	0	2	0	0	0	0	0	0	0	0	0	0	0	0	0	0	0	0
OTU 107	0	0	0	0	0	5	2	0	2	0	0	2	3	0	4	0	0	2	0	0	0	0	2	4	0	1	0	0	0	0	0	0	0	0	0	0	0	0	0	0	1	0	1	0	0	0	0	4	0	0
OTU 108	0	10	0	0	1	0	5	1	0	0	2	0	0	3	0	0	23	0	0	0	5	0	0	5	0	5	0	2	0	0	3	0	0	9	0	6	0	1	0	0	0	0	0	1	0	3	1	1	0	0
OTU 109	0	0	0	0	1	0	0	0	1	0	0	0	0	0	0	0	0	0	0	0	0	0	0	0	0	0	0	0	0	0	0	0	0	1	0	0	0	0	0	0	0	0	0	0	0	0	0	2	0	0
OTU 110	20	1	2	3	0	2	5	2	1	0	2	0	3	1	3	1	1	1	0	0	0	3	0	0	0	0	0	0	4	1	0	1	3	0	2	0	7	0	0	0	0	0	0	6	0	0	0	8	0	1
OTU 111	0	0	0	0	0	2	0	0	0	0	0	0	0	0	0	0	0	0	0	0	6	0	0	0	0	0	0	0	0	0	0	0	0	0	0	0	0	0	0	0	0	1	0	0	0	0	0	2	0	0
OTU 112	2	0	0	0	11	0	2	0	1	0	0	0	5	1	0	0	0	1	0	0	8	0	1	0	1	0	0	0	0	6	0	0	0	0	0	0	0	0	3	0	0	1	0	0	0	0	0	0	1	0
OTU 113	0	3	1	0	0	0	0	1	0	0	0	0	0	1	0	1	0	2	0	0	0	0	0	0	0	0	0	0	0	0	0	0	0	0	0	0	1	1	0	1	0	0	0	0	1	0	0	0	0	0
OTU 114	1	2	0	1	0	1	1	0	26	0	0	0	6	1	3	0	54	2	1	3	11	7	1	2	0	0	1	1	1	3	0	8	1	3	0	0	3	8	6	0	4	1	0	4	0	1	1	2	2	1
OTU 115	1	4	1	5	5	7	3	1	2	0	2	3	4	0	1	0	4	1	0	3	1	0	2	3	4	0	4	0	1	2	2	0	0	0	1	1	1	0	0	2	6	0	1	1	0	1	1	7	3	3
OTU 116	3	1	0	0	1	1	7	0	0	2	0	4	2	0	0	1	0	2	0	13	1	0	0	3	4	0	2	79	4	2	2	1	0	2	1	0	0	0	1	0	1	0	0	0	0	0	2	5	0	0
OTU 117	0	3	2	0	0	0	0	0	8	0	0	1	0	0	9	0	0	1	0	0	0	11	1	7	0	0	1	0	0	0	1	8	1	0	0	0	0	1	0	5	0	3	0	0	0	0	1	10	0	1
OTU 118	0	0	0	0	0	1	0	0	0	0	0	0	0	0	0	0	0	0	1	0	0	0	0	0	0	2	0	2	0	9	0	0	0	1	0	0	0	0	56	0	0	1	0	0	0	0	0	0	1	0
OTU 119	1	1	6	0	0	4	7	4	1	0	0	1	3	0	1	2	4	14	3	1	1	0	0	0	1	2	2	0	0	0	0	2	1	0	0	0	2	1	0	3	0	0	0	0	7	0	0	0	4	0
OTU 120	1	1	0	6	3	0	0	0	0	0	0	0	0	0	2	0	0	0	0	2	1	2	0	0	0	0	0	0	1	0	0	0	6	0	2	0	1	4	0	0	0	0	0	3	0	0	1	0	0	0
OTU 121	25	11	0	0	1	0	8	0	4	2	3	0	1	0	7	1	0	4	0	5	2	0	0	1	0	0	0	0	0	0	0	0	1	0	0	0	0	0	0	0	0	0	1	0	0	1	0	0	0	2
OTU 122	0	3	1	2	0	2	2	2	5	0	0	3	3	0	0	1	0	0	1	1	6	2	5	0	1	0	0	0	1	3	0	0	0	3	1	1	0	0	4	1	3	4	0	0	2	1	4	1	0	3
OTU 123	3	9	6	0	33	5	4	4	12	0	5	11	1	0	13	1	8	2	3	0	30	4	21	3	0	4	9	5	6	35	4	2	6	2	8	2	1	3	24	6	2	3	1	98	1	2	4	20	16	2
OTU 124	0	1	0	4	0	0	0	0	0	0	0	1	0	0	1	1	0	0	1	0	1	0	0	0	0	1	0	0	0	1	0	0	0	3	0	0	1	0	1	0	0	1	0	0	0	0	0	0	1	0
OTU 125	6	6	4	40	4	10	8	4	5	2	4	16	69	0	2	1	14	14	1	3	9	6	6	3	3	0	9	2	39	9	4	3	79	0	1	6	1	39	120	52	7	12	0	93	2	5	5	4	7	3
OTU 126	0	0	0	0	0	0	0	1	0	0	2	0	0	0	1	0	0	0	0	0	0	2	0	0	0	0	0	0	0	0	0	0	0	1	0	0	0	0	0	0	3	6	2	0	0	0	0	0	0	0
OTU 127	0	2	6	0	0	2	11	0	0	0	0	2	0	0	0	0	2	0	2	0	0	0	0	0	0	0	0	0	1	0	2	1	0	2	2	0	0	0	0	0	0	0	0	0	1	0	0	1	0	0
OTU 128	0	25	4	4	9	2	5	4	3	4	15	2	4	2	9	5	1	31	9	1	1	4	11	0	0	21	4	10	145	9	13	4	1	28	6	9	7	0	2	1	12	11	2	8	3	1	25	10	2	0
OTU 129	0	10	0	0	0	0	0	5	0	6	0	0	10	0	0	16	0	0	0	0	1	0	0	0	1	0	0	0	0	0	0	2	0	0	0	1	0	0	0	0	3	0	8	0	0	0	4	2	0	1
OTU 130	3	0	8	0	2	0	2	1	0	0	7	0	0	0	3	1	1	1	3	1	0	2	0	0	1	0	0	0	3	0	0	3	8	2	0	0	1	3	1	5	0	16	0	2	2	0	0	0	0	0
OTU 131	1	0	0	4	0	9	1	4	3	1	2	31	0	3	0	3	1	0	0	0	0	0	3	0	3	0	0	0	0	0	1	0	2	0	6	1	1	2	0	0	7	0	2	0	1	1	3	22	2	0
OTU 132	0	1	0	6	0	0	0	0	0	0	2	1	0	0	0	0	0	0	0	0	0	0	4	3	0	0	3	0	0	4	1	0	0	2	0	0	1	1	1	8	2	0	0	0	0	1	0	4	0	0
OTU 133	4	0	4	0	0	0	0	0	0	1	0	0	0	0	0	0	0	0	1	2	0	0	0	0	0	1	0	0	0	0	0	0	0	0	0	0	0	0	0	0	0	0	0	0	7	0	0	0	0	0
OTU 134	0	3	0	0	0	1	2	3	5	0	13	3	3	1	0	0	0	3	0	8	4	0	0	7	2	1	0	0	0	0	3	0	0	6	0	1	2	0	0	0	6	13	2	4	0	0	0	1	0	0
OTU 135	2	3	0	2	0	1	0	0	6	0	2	0	0	0	0	0	0	4	0	0	1	0	0	2	0	1	0	0	0	2	0	0	2	2	1	0	0	0	1	0	0	1	0	0	0	1	1	1	0	0
OTU 136	1	0	0	1	0	0	2	0	0	0	1	0	3	0	0	0	0	2	0	22	0	0	0	0	0	0	0	0	1	0	0	0	0	2	3	0	15	0	0	0	0	0	0	9	43	0	0	1	0	0
OTU 137	1	0	0	0	1	1	4	0	0	40	0	0	4	32	0	0	1	0	0	0	1	1	0	0	0	2	0	1	2	0	0	0	0	0	0	0	0	0	1	0	2	0	0	0	0	4	1	1	0	0
OTU 138	0	2	0	0	4	0	0	0	5	0	1	0	0	0	0	0	1	0	0	0	0	0	0	0	0	2	0	0	0	0	0	1	0	0	1	0	1	0	0	0	0	1	1	0	0	0	0	0	0	0
OTU 139	4	6	4	5	8	2	5	10	9	5	1	4	1	3	34	5	0	6	4	3	1	25	3	57	6	2	4	6	22	6	25	13	1	7	6	4	1	0	3	2	1	2	3	1	2	0	10	4	5	1
OTU 140	2	0	8	4	8	12	0	4	4	3	0	5	8	0	2	0	0	0	2	3	2	2	2	2	1	1	5	2	4	4	3	9	1	2	17	1	183	0	1	8	2	6	0	75	6	3	3	4	5	0
OTU 141	0	0	0	0	0	0	0	0	0	0	0	0	0	0	0	0	0	0	0	0	0	0	0	0	0	0	0	0	0	0	0	0	0	0	0	0	0	0	0	0	0	0	0	0	0	0	0	0	0	0
OTU 142	0	0	0	0	0	0	0	0	0	0	0	0	0	0	0	0	0	1	0	0	0	0	0	0	0	0	0	0	0	0	0	0	0	0	0	0	0	0	0	0	2	0	0	0	0	0	0	0	0	0
OTU 143	0	0	0	0	0	0	1	0	0	0	3	2	0	0	0	0	2	2	0	0	0	0	1	0	0	0	0	0	0	0	0	0	0	0	0	0	0	0	0	0	0	0	0	0	0	0	0	1	0	1
OTU 144	10	0	2	0	0	1	0	4	0	0	0	0	0	0	0	0	0	0	0	0	0	0	0	3	1	0	0	1	0	0	0	0	0	0	0	0	0	0	0	0	0	1	0	0	0	0	0	0	0	0
OTU 145	7	54	3	0	0	1	0	0	0	2	0	1	1	0	3	0	0	65	2	0	1	0	2	1	2	0	2	1	0	1	0	2	1	0	0	0	0	1	1	0	0	0	1	0	3	0	1	11	0	0
OTU 146	3	1	0	1	0	0	1	6	8	0	0	0	3	0	4	3	0	0	10	0	0	4	0	5	3	113	2	68	0	0	1	0	2	0	0	67	0	0	0	2	0	1	2	0	0	2	0	0	0	0
OTU 147	0	0	0	1	0	0	0	0	0	0	0	0	1	0	0	0	0	0	0	0	0	0	1	0	0	2	0	0	0	0	1	0	0	0	0	0	0	0	0	1	0	2	0	0	0	1	2	0	1	0
OTU 148	1	1	0	3	4	0	1	1	0	1	0	2	0	2	1	0	0	1	0	0	1	0	0	0	2	0	0	0	0	4	0	3	1	1	1	0	0	0	2	2	0	3	3	0	3	2	65	13	0	0
OTU 149	0	0	0	0	0	1	0	0	0	0	1	1	0	0	0	0	0	0	0	0	1	0	0	0	0	0	0	2	0	0	0	0	0	1	0	0	2	0	0	2	0	0	2	0	0	1	0	1	0	2
OTU 150	0	0	0	0	0	0	0	0	0	0	0	0	1	0	0	0	0	0	0	2	0	9	0	5	0	1	0	0	0	8	0	0	2	0	0	1	0	1	9	0	0	0	0	1	0	0	0	4	0	0
OTU 151	0	1	0	0	3	1	0	0	0	0	1	9	1	1	1	1	2	0	1	1	0	3	3	0	0	0	2	0	2	2	12	1	0	1	2	0	2	0	1	0	0	3	1	1	0	0	0	0	0	1
OTU 152	0	0	0	7	0	1	16	14	6	8	1	1	0	109	7	9	1	0	4	0	4	1	0	3	9	1	1	1	1	0	0	0	0	2	0	0	0	0	0	3	4	1	7	0	0	2	1	0	7	0
OTU 153	0	0	0	0	0	0	0	0	0	0	0	0	2	1	0	0	0	0	0	0	0	0	0	0	0	0	0	0	0	0	0	0	0	0	0	0	0	0	0	0	0	0	0	0	0	0	0	0	0	0
OTU 154	0	0	0	0	1	0	0	1	0	0	0	0	0	0	0	0	0	1	0	0	0	0	0	0	0	0	0	0	1	0	0	0	0	0	1	0	0	0	0	0	5	0	0	0	0	0	1	0	0	0
OTU 155	0	0	0	1	0	0	0	3	0	0	2	0	0	0	0	0	0	1	0	0	0	0	0	0	0	5	0	0	0	10	0	64	0	1	1	0	0	0	4	0	0	0	0	0	0	0	0	0	0	0
OTU 156	1	0	0	4	1	2	2	6	1	2	2	6	3	0	0	1	4	2	0	122	3	0	0	0	2	1	0	0	1	0	2	0	1	0	1	0	3	1	0	15	0	0	0	0	0	2	2	6	6	0
OTU 157	0	0	0	0	0	0	0	2	0	0	3	0	1	0	0	0	0	2	0	3	2	0	0	0	0	0	0	0	1	5	1	0	0	0	0	0	4	0	3	0	1	0	0	3	0	0	1	5	1	0
OTU 158	1	0	0	0	0	0	0	0	0	0	0	2	0	0	0	0	3	2	0	0	0	0	0	0	0	0	1	0	0	0	0	0	0	0	0	2	0	0	0	0	0	0	0	0	0	0	0	0	0	0
OTU 159	3	2	0	1	1	0	1	0	0	0	0	0	4	0	0	0	0	0	0	0	3	0	12	7	22	0	9	0	1	0	0	1	0	2	0	0	0	0	1	0	3	0	0	0	1	0	4	0	3	7
OTU 160	7	5	3	4	1	0	6	3	16	4	9	1	7	2	1	1	3	7	2	2	0	4	2	1	2	3	0	1	1	12	0	7	2	1	6	0	1	1	4	1	3	2	4	0	2	3	3	3	7	1
OTU 161	1	1	0	0	6	2	3	0	3	1	0	9	1	4	0	0	1	0	5	0	2	2	3	0	0	0	0	0	0	0	2	0	0	0	2	1	0	0	0	2	0	0	4	0	2	3	4	0	1	5
OTU 162	1	19	1	4	1	0	0	5	1	0	0	3	7	0	0	2	1	4	5	0	4	0	7	0	4	1	0	1	0	1	0	1	0	0	3	0	1	0	1	4	1	5	2	0	0	2	0	1	1	0
OTU 163	0	0	0	0	0	0	0	0	0	0	0	0	0	0	0	0	0	0	0	1	0	0	0	0	0	0	0	0	0	1	0	0	0	0	0	0	0	0	0	0	0	0	0	0	0	0	0	0	0	0
OTU 164	0	0	0	0	0	0	0	0	0	0	0	0	0	0	0	0	0	0	0	0	0	0	0	1	0	0	0	0	0	0	0	0	0	0	0	0	0	0	0	0	0	0	0	0	0	0	0	0	0	0
OTU 165	0	0	0	0	0	0	0	0	0	0	0	0	0	0	0	1	0	0	0	1	0	0	1	0	0	0	1	0	0	4	0	0	0	0	1	0	1	0	2	0	0	1	0	0	0	1	2	0	0	0
OTU 166	0	0	0	0	0	0	0	0	0	0	0	0	0	0	0	0	0	0	0	0	0	0	0	0	0	0	0	0	0	0	0	0	0	0	0	0	0	0	0	0	0	0	0	0	0	0	0	0	0	0
OTU 167	3	0	0	0	0	0	0	7	3	2	0	0	0	0	0	3	2	0	0	1	2	0	0	0	3	4	0	1	0	2	0	0	0	1	0	2	0	0	1	0	3	0	6	3	0	5	8	0	0	0
OTU 168	1	1	0	0	10	0	8	0	4	1	2	0	0	0	1	0	3	5	0	0	1	1	2	1	0	2	30	0	1	0	0	0	0	0	3	0	1	0	0	1	0	2	0	0	0	2	0	3	2	1
OTU 169	0	0	0	2	0	0	0	0	0	0	0	0	0	0	0	0	0	0	0	0	0	0	0	3	0	0	0	0	0	0	0	0	0	0	0	0	0	0	0	4	0	0	0	0	0	0	0	0	0	0
OTU 170	0	0	0	0	0	0	0	0	0	0	0	2	0	0	0	0	0	0	0	0	0	0	0	0	0	0	0	0	0	0	0	0	0	0	0	0	0	0	0	0	0	0	0	0	0	0	0	0	0	0
OTU 171	0	0	0	2	0	3	3	0	1	0	4	4	0	0	0	0	0	0	0	0	0	0	2	0	0	0	1	1	0	3	0	1	0	0	52	2	0	0	0	0	0	0	3	0	0	1	0	2	0	0
OTU 172	0	0	0	0	1	0	0	2	0	0	1	0	0	0	0	0	0	0	0	0	0	0	0	0	0	0	0	0	0	0	0	0	0	0	0	0	0	0	0	0	0	0	0	0	0	0	0	0	0	0
OTU 173	0	1	0	1	1	0	0	0	3	0	0	0	0	0	1	0	2	0	0	0	0	0	0	1	0	3	0	0	0	6	1	0	0	1	0	22	0	0	0	1	0	0	0	0	0	0	0	0	0	0
OTU 174	6	2	0	4	7	0	25	6	1	1	6	2	0	0	10	2	1	2	0	0	0	6	7	4	2	1	1	0	0	0	1	5	6	0	0	0	0	1	0	1	1	0	0	0	1	0	1	2	0	8
OTU 175	0	0	0	1	0	0	0	0	0	0	0	1	1	0	0	0	1	0	1	1	2	0	0	7	0	0	0	0	1	0	0	1	0	0	0	2	1	0	0	0	0	2	0	0	0	1	0	0	3	0
OTU 176	2	0	0	0	3	0	1	1	0	3	6	1	3	0	5	0	0	0	0	0	0	1	2	94	0	0	1	0	0	0	56	1	0	8	0	1	0	0	0	1	2	3	2	0	0	0	2	4	2	1
OTU 177	2	0	1	0	3	0	2	4	3	0	2	0	2	0	4	5	7	0	0	0	0	1	2	0	0	3	3	0	1	1	0	1	0	0	6	0	1	0	1	0	0	1	74	1	1	2	0	0	0	1
OTU 178	0	0	0	0	0	0	0	0	0	1	0	0	0	0	1	1	3	0	0	0	1	0	3	0	1	2	0	0	0	2	1	0	0	0	4	0	0	1	0	3	3	0	1	1	1	0	2	0	0	1
OTU 179	1	0	0	0	0	0	0	9	1	0	3	0	4	0	0	5	1	0	0	0	0	1	0	0	3	3	0	4	0	1	0	7	1	5	0	0	2	0	0	1	0	0	4	0	0	0	0	2	0	0
OTU 180	6	3	51	1	14	4	2	6	9	77	2	5	2	32	2	0	11	2	31	37	4	2	0	5	1	3	18	2	7	1	3	6	0	3	1	6	20	0	5	14	10	8	2	12	17	4	2	3	20	13
OTU 181	0	0	0	1	0	0	2	0	2	1	0	0	0	1	0	1	1	0	0	0	1	1	0	1	0	1	0	0	0	0	0	1	1	0	0	0	1	0	1	0	1	0	0	0	0	0	1	4	1	3
OTU 182	0	0	0	0	0	0	0	0	0	1	0	0	0	0	0	0	0	0	0	0	0	0	0	0	0	0	0	0	0	1	0	0	0	0	0	0	0	0	0	0	0	0	0	0	0	0	0	4	1	0
OTU 183	0	0	4	0	0	0	2	5	0	1	0	0	1	0	12	28	0	2	3	0	0	9	0	0	10	0	0	0	1	0	0	0	1	0	0	0	0	0	0	0	1	2	1	0	0	2	2	1	0	3
OTU 184	0	0	0	0	0	2	2	1	1	0	0	1	0	0	7	0	0	0	0	0	2	0	0	0	0	0	107	0	0	1	1	0	0	4	0	0	0	0	0	0	1	0	2	0	0	0	0	4	0	0
OTU 185	2	0	4	0	0	0	5	8	0	0	0	0	1	1	5	0	8	0	1	0	1	4	0	0	9	0	0	0	0	0	0	4	0	5	1	0	0	0	4	1	3	0	0	0	0	0	0	13	0	109
OTU 186	0	0	1	0	8	0	0	4	0	0	0	0	0	1	0	1	0	0	1	0	1	0	0	0	15	0	8	0	1	0	0	0	0	0	0	0	0	0	0	0	24	0	0	0	0	0	6	0	1	9
OTU 187	2	60	1	0	0	0	2	3	9	1	8	0	0	3	1	2	4	3	0	1	3	2	0	0	0	19	6	16	3	0	0	0	9	36	1	8	0	6	0	0	6	0	3	0	10	0	0	5	1	0
OTU 188	3	4	0	3	1	1	0	0	21	2	14	1	1	0	0	0	1	4	2	1	0	1	11	1	2	2	3	1	0	1	2	13	6	0	0	3	0	1	0	5	4	0	0	0	3	2	0	1	2	5
OTU 189	0	1	111	6	4	1	8	0	15	0	4	18	2	4	0	2	2	0	42	0	6	0	10	0	0	3	1	1	8	0	0	3	0	5	1	0	0	1	1	0	2	8	0	0	0	0	0	0	3	0
OTU 190	0	4	0	0	0	0	0	5	0	1	0	0	0	0	0	0	0	7	0	0	0	0	0	0	1	0	0	0	0	0	0	0	0	1	1	0	0	0	0	0	0	0	1	1	0	0	0	0	0	1
OTU 191	2	1	2	1	1	6	1	0	1	0	7	5	2	2	1	0	1	0	4	8	6	0	1	2	0	2	4	0	2	0	0	10	4	1	2	1	1	0	1	0	0	12	0	0	0	3	2	0	9	0
OTU 192	3	8	1	47	3	0	1	12	1	3	1	4	3	0	6	1	4	5	0	11	3	4	1	2	10	0	3	1	0	2	2	2	2	4	2	1	6	1	1	6	11	7	9	3	0	0	4	3	1	2
OTU 193	0	2	4	0	2	1	3	4	0	1	2	0	0	0	0	0	43	0	1	1	0	0	13	0	0	3	0	1	0	1	0	0	0	0	1	1	2	0	0	2	0	1	0	2	2	1	5	0	1	2
OTU 194	0	0	0	1	0	0	2	2	1	0	0	0	2	1	0	2	3	1	1	0	1	0	0	0	0	0	2	0	0	0	2	0	1	0	8	3	0	0	0	2	1	0	1	0	130	0	0	1	0	0
OTU 195	0	2	13	0	0	0	6	0	1	0	1	0	0	33	10	0	0	0	3	1	12	8	0	1	0	0	1	0	1	2	0	6	3	0	2	1	0	3	1	1	0	1	0	0	1	0	0	6	0	0
OTU 196	0	0	0	10	0	1	0	3	1	1	2	1	0	0	0	1	1	0	0	0	2	0	1	3	2	1	0	1	0	79	1	3	0	5	2	0	1	0	38	3	0	2	1	2	2	0	1	0	0	0
OTU 197	6	4	7	3	2	0	11	4	1	0	1	2	0	0	5	2	4	0	3	0	2	2	7	0	5	0	0	2	1	4	3	2	2	1	25	0	2	1	0	5	0	7	0	1	0	2	4	7	2	0
OTU 198	0	3	0	0	1	1	0	1	0	0	0	0	0	0	0	5	3	3	0	1	0	0	0	0	1	0	0	0	0	0	1	0	0	0	0	0	2	0	0	0	1	0	0	0	0	0	0	0	0	1
OTU 199	0	3	1	1	0	1	0	6	2	0	0	2	0	0	2	4	0	0	0	0	0	2	6	0	0	0	0	0	2	0	0	0	1	0	0	0	0	0	1	1	0	4	3	0	0	3	0	0	0	0
OTU 200	2	0	4	7	1	0	0	1	0	1	3	0	0	0	0	0	1	0	1	0	0	0	1	0	0	1	2	0	1	0	0	0	1	0	1	2	8	0	1	3	2	1	1	5	1	0	2	0	0	0
