	Host 1	Host 2	Host 3	Host 4	Host 5	Host 6	Host 7	Host 8	Host 9	Host 10	Host 11	Host 12	Host 13	Host 14	Host 15	Host 16	Host 17	Host 18	Host 19	Host 20	Host 21	Host 22	Host 23	Host 24	Host 25	Host 26	Host 27	Host 28	Host 29	Host 30	Host 31	Host 32	Host 33	Host 34	Host 35	Host 36	Host 37	Host 38	Host 39	Host 40	Host 41	Host 42	Host 43	Host 44	Host 45	Host 46	Host 47	Host 48	Host 49	Host 50	
OTU 1	0	1	3	0	2	3	0	2	0	1	2	0	1	2	0	2	1	5	3	0	0	12	0	4	0	0	2	2	0	11	4	4	7	2	0	1	1	0	1	0	0	2	3	2	4	0	0	0	1	3
OTU 2	1	0	0	0	4	1	0	0	0	0	0	0	0	0	0	2	0	1	0	0	0	0	0	0	0	0	0	0	0	0	0	0	0	1	0	0	0	3	0	1	0	0	0	0	0	0	0	0	1	1
OTU 3	1	0	0	54	2	0	0	0	0	0	0	0	0	0	0	0	0	0	1	1	0	0	1	0	1	0	0	0	0	0	0	0	0	0	0	0	0	0	0	0	0	0	0	0	0	0	0	0	0	0
OTU 4	0	0	0	0	0	0	0	0	0	0	0	0	0	0	0	0	0	0	0	0	0	0	0	0	0	0	0	0	0	0	0	0	0	0	0	0	0	0	0	0	0	0	0	0	0	0	0	0	0	0
OTU 5	0	5	0	3	26	19	15	11	5	10	18	14	13	3	0	88	24	5	0	26	0	0	5	4	8	28	16	10	0	1	11	0	2	27	2	21	0	15	4	3	2	2	13	2	2	5	10	14	13	12
OTU 6	0	1	3	0	1	0	0	1	3	0	2	0	1	3	0	1	2	0	0	1	0	2	2	0	4	1	7	1	0	2	2	0	0	0	0	0	1	6	3	0	0	2	0	0	2	0	16	5	0	2
OTU 7	5	0	21	0	8	0	2	1	9	3	4	2	12	2	0	1	0	4	8	4	1	8	1	4	2	14	2	1	2	3	1	3	4	1	2	3	168	3	1	1	5	5	1	1	0	5	5	3	5	1
OTU 8	0	0	1	3	0	1	0	5	1	1	0	3	0	1	1	0	5	1	9	4	2	4	1	16	4	3	1	6	2	6	4	4	159	5	8	1	2	0	2	2	2	2	4	4	1	5	6	0	1	0
OTU 9	0	0	0	0	2	0	0	0	0	0	2	1	1	2	0	0	0	0	0	0	2	0	0	0	2	0	0	2	0	0	4	0	0	2	0	0	0	0	0	0	1	0	1	0	0	1	0	0	2	0
OTU 10	0	0	1	0	0	0	0	1	0	0	0	6	1	0	1	0	0	0	0	0	2	1	0	0	6	0	0	0	0	0	0	0	1	0	0	0	0	4	0	1	0	0	0	0	4	4	5	0	0	0
OTU 11	2	1	0	0	0	1	0	5	16	0	2	0	0	0	1	0	2	2	0	1	5	0	5	1	2	0	2	0	0	0	0	0	0	0	4	1	1	1	0	41	0	5	0	4	1	1	2	2	1	1
OTU 12	5	0	6	0	4	0	27	2	0	3	0	2	1	3	2	0	1	1	0	1	0	2	1	0	3	2	3	0	5	1	1	0	1	0	2	1	0	3	0	1	0	4	4	0	1	0	11	0	0	0
OTU 13	0	1	0	0	1	0	0	0	0	0	2	0	0	0	0	0	0	0	0	0	0	0	0	0	0	5	0	0	0	0	1	0	0	1	0	0	0	0	0	2	0	6	0	0	0	0	1	2	0	0
OTU 14	0	0	0	0	0	0	0	1	0	0	0	0	1	0	0	0	0	1	0	1	3	0	1	0	1	0	0	0	2	0	5	0	0	0	0	0	1	1	0	0	0	1	1	0	0	1	0	0	0	0
OTU 15	0	0	0	0	0	0	0	0	0	0	1	0	0	0	0	0	0	0	0	0	0	0	0	0	2	0	0	0	1	0	0	0	0	0	0	0	0	0	0	0	0	0	0	0	0	0	0	0	0	0
OTU 16	0	0	0	0	0	0	0	0	0	0	0	0	0	0	0	0	0	0	0	2	2	0	0	0	0	0	0	0	0	0	0	0	0	0	0	0	0	0	0	0	0	0	0	0	0	0	0	0	0	0
OTU 17	2	0	0	0	7	0	3	0	1	1	0	0	0	4	0	0	0	2	6	0	0	0	0	0	0	0	0	0	5	0	2	0	0	1	1	0	1	0	1	0	0	11	0	0	2	0	1	4	0	0
OTU 18	0	0	4	0	2	2	0	0	0	0	0	4	3	4	1	5	3	5	2	4	0	0	0	2	0	2	2	0	0	4	7	1	0	0	7	0	0	1	3	1	1	4	1	0	0	0	0	1	1	3
OTU 19	0	0	0	0	0	0	0	0	0	0	0	0	0	0	0	0	0	0	0	0	0	0	0	0	0	0	0	0	0	0	0	0	0	0	0	0	0	0	0	0	0	0	0	0	0	0	0	0	0	0
OTU 20	4	4	0	5	1	2	4	2	0	5	0	0	2	1	0	0	1	0	4	1	0	0	0	3	0	3	0	1	1	7	1	4	0	0	0	12	2	1	0	3	0	2	5	7	3	0	2	1	1	3
OTU 21	8	1	0	0	5	1	2	4	0	4	1	0	1	1	2	0	0	0	1	2	1	0	2	2	8	6	0	1	3	0	0	1	0	4	0	3	0	0	0	3	4	0	6	2	0	2	0	1	4	0
OTU 22	2	0	1	11	0	0	5	0	4	2	6	0	1	1	0	0	0	3	2	0	1	1	0	8	0	0	0	1	33	0	1	5	0	0	2	2	3	2	2	0	0	3	4	0	0	0	1	3	0	0
OTU 23	1	0	0	0	0	2	0	2	0	0	0	0	1	2	0	2	1	0	0	1	0	1	0	0	2	0	0	0	0	0	0	1	0	0	3	0	0	0	0	0	0	2	0	9	1	0	2	0	1	2
OTU 24	1	0	0	0	0	0	1	0	0	0	0	0	2	0	0	0	0	0	0	0	35	0	0	1	2	1	0	0	0	0	5	1	0	0	10	2	0	0	0	0	0	0	0	0	0	1	1	0	0	0
OTU 25	0	0	0	0	0	0	0	0	0	0	0	0	0	0	0	0	0	0	0	0	0	0	0	0	0	0	0	0	0	0	0	0	0	0	0	0	0	0	0	0	0	0	0	0	0	1	0	0	0	0
OTU 26	0	1	0	0	0	0	0	1	0	0	0	0	2	0	0	0	0	0	0	0	0	0	0	0	0	1	0	0	0	0	0	0	0	0	0	0	0	0	0	0	0	0	0	0	0	0	6	0	0	0
OTU 27	0	0	0	0	0	0	0	1	8	0	0	0	1	0	0	0	0	0	0	0	0	0	0	0	0	0	0	0	0	0	0	0	0	0	0	0	0	0	0	0	0	0	0	0	0	0	0	0	0	0
OTU 28	0	0	1	1	0	1	0	0	2	1	5	83	0	4	12	4	1	1	3	2	5	0	0	1	6	4	0	0	3	4	0	0	0	0	1	53	0	1	0	0	1	1	1	3	7	0	12	0	2	8
OTU 29	0	1	2	0	3	0	0	4	0	0	0	0	6	8	0	79	1	0	0	0	4	5	0	0	0	1	4	1	3	6	1	1	3	0	0	0	1	6	0	3	2	0	5	1	1	4	3	0	11	5
OTU 30	0	0	0	0	0	0	0	0	0	0	0	0	0	0	0	0	0	0	0	0	0	0	0	0	0	0	0	0	0	0	0	0	0	0	0	0	0	0	0	0	0	0	0	0	0	0	0	0	0	0
OTU 31	1	0	0	0	2	0	0	0	0	0	0	0	0	2	0	0	1	0	0	1	3	2	0	0	1	1	2	0	0	0	0	0	0	0	0	0	0	0	1	0	0	0	0	0	0	0	1	0	0	0
OTU 32	4	3	2	2	1	8	1	4	2	1	0	5	0	1	0	1	0	1	10	3	4	5	2	0	2	1	90	0	17	5	10	3	3	0	0	2	1	1	4	1	2	1	5	7	4	1	1	0	4	1
OTU 33	5	0	2	0	0	0	0	0	0	0	0	0	0	0	0	0	0	0	0	0	0	0	0	0	0	1	0	0	0	0	0	0	0	0	0	0	0	0	0	0	0	0	0	0	0	0	0	0	0	0
OTU 34	0	0	0	3	4	0	3	7	1	0	0	1	0	0	0	0	0	2	1	0	0	2	5	1	0	0	0	0	1	1	0	0	1	1	2	2	0	0	0	18	0	0	1	2	0	2	2	0	2	0
OTU 35	0	0	3	0	3	1	0	0	0	1	0	2	5	0	1	0	0	0	0	0	60	0	2	0	0	0	0	3	0	1	0	0	0	2	0	5	2	1	4	5	1	3	0	1	0	0	1	0	141	0
OTU 36	0	0	0	27	2	1	4	3	0	0	0	1	0	0	1	0	0	2	0	3	18	0	0	4	5	7	0	1	0	0	0	2	0	1	0	0	0	1	0	4	0	1	1	1	0	2	3	0	0	0
OTU 37	3	0	0	0	0	0	0	0	0	1	0	0	0	5	0	0	0	0	1	0	0	0	0	0	2	1	0	2	3	0	0	0	0	0	0	0	0	1	0	1	0	2	0	0	0	2	0	2	1	0
OTU 38	2	2	1	0	0	0	0	1	2	2	0	0	2	0	0	3	0	1	2	0	0	0	1	1	3	2	0	0	9	8	3	0	0	0	1	0	4	0	1	0	3	1	0	30	1	1	2	1	1	4
OTU 39	0	0	0	0	0	0	0	0	2	0	0	0	0	0	0	0	0	1	3	0	0	0	5	0	0	0	0	0	0	0	1	1	0	0	1	1	3	0	0	0	0	1	1	0	0	0	0	0	0	0
OTU 40	3	0	0	0	7	0	8	1	7	0	1	0	2	2	1	0	0	0	0	0	9	0	0	0	1	2	0	0	0	0	3	0	0	1	112	2	1	31	0	5	0	0	7	1	0	5	2	1	0	0
OTU 41	0	4	0	0	0	0	0	1	0	0	1	0	0	1	2	1	0	0	4	2	1	0	0	0	0	0	0	0	1	1	0	0	0	0	0	0	0	4	0	0	0	1	3	0	1	0	4	0	6	0
OTU 42	0	0	2	0	4	0	0	0	0	0	0	0	1	4	0	0	0	4	0	0	2	0	0	0	1	0	0	0	3	3	0	0	0	0	0	0	0	3	0	0	0	0	0	0	3	0	0	0	0	0
OTU 43	0	0	0	0	0	0	0	0	0	0	0	0	34	0	0	0	0	0	0	0	0	0	0	0	0	0	0	0	0	0	0	0	0	0	0	0	0	0	0	0	0	0	0	0	0	0	0	2	0	0
OTU 44	1	0	0	0	0	0	0	0	0	0	0	0	0	0	0	0	1	2	0	0	0	0	0	4	0	0	0	1	0	0	0	0	0	1	0	1	0	0	0	0	0	0	0	3	0	0	0	0	0	0
OTU 45	5	8	11	1	0	2	0	0	6	12	9	0	1	93	6	6	1	1	0	3	2	1	18	1	2	1	0	0	0	0	0	0	0	0	1	0	0	0	0	2	0	0	4	2	0	2	0	0	0	0
OTU 46	3	0	0	4	0	0	0	1	1	0	6	0	4	1	1	0	0	10	0	0	3	3	0	2	3	1	2	1	1	0	5	0	0	0	0	0	0	0	0	0	0	1	0	0	84	3	14	2	1	0
OTU 47	0	0	0	0	0	0	0	0	0	0	2	0	0	3	1	4	0	0	2	0	0	0	0	0	0	0	0	0	0	3	0	0	0	0	0	0	0	0	7	0	1	2	0	0	0	0	0	0	1	1
OTU 48	0	10	4	4	2	0	4	0	0	18	3	4	0	3	2	0	3	1	0	1	1	1	0	1	3	1	4	2	0	0	3	0	2	0	2	1	0	0	0	1	0	0	0	34	0	2	2	0	1	1
OTU 49	0	0	2	0	0	5	0	0	1	0	1	1	0	1	1	0	5	0	0	1	0	1	0	0	0	1	1	0	2	0	1	1	8	0	0	2	0	3	162	1	57	0	3	0	0	0	0	0	0	0
OTU 50	7	0	0	3	0	0	0	4	4	2	0	0	7	1	4	2	0	0	0	0	2	0	3	1	1	4	1	76	0	0	3	0	0	0	0	3	2	0	2	4	0	3	6	10	1	2	2	1	0	1
OTU 51	1	1	2	1	0	4	0	8	0	4	1	0	0	0	2	2	0	5	0	0	0	0	0	1	3	0	0	0	1	4	12	1	1	0	1	0	3	0	0	0	0	2	0	1	1	1	0	0	0	1
OTU 52	1	165	0	2	1	1	1	4	3	2	2	0	1	1	9	2	3	0	1	8	2	3	1	106	3	0	0	45	14	0	0	1	4	0	3	0	3	0	1	5	4	1	3	2	0	0	9	0	2	0
OTU 53	0	0	0	0	0	0	0	0	0	0	0	0	0	0	0	0	0	0	0	0	0	0	5	0	0	0	0	0	0	3	0	0	0	0	0	0	0	0	0	0	0	0	0	0	0	0	0	0	0	3
OTU 54	2	0	2	5	0	36	1	0	2	0	9	0	5	4	9	0	50	3	8	4	1	8	3	3	3	1	1	1	1	4	0	5	1	0	0	3	1	2	0	1	0	7	0	2	0	0	2	3	0	3
OTU 55	0	0	0	0	0	0	0	0	0	0	0	0	0	0	0	0	0	0	0	0	0	0	0	0	0	0	0	0	0	0	0	0	0	0	0	0	0	0	0	0	0	0	0	0	0	0	0	0	0	0
OTU 56	1	0	0	0	4	0	72	0	1	0	0	0	5	0	1	1	0	1	0	0	0	0	0	1	1	1	0	0	0	3	0	0	2	4	3	0	0	5	3	0	0	0	0	22	1	1	0	0	1	1
OTU 57	10	0	0	2	4	1	3	0	3	0	1	8	5	1	4	3	0	1	8	1	6	1	4	2	2	7	1	1	7	3	7	2	0	0	6	0	5	5	4	15	0	5	1	2	13	56	2	0	1	6
OTU 58	0	0	0	0	0	0	0	5	0	0	2	0	5	0	0	2	0	1	1	0	4	0	22	0	0	0	0	0	1	1	0	0	0	0	3	0	0	0	1	2	1	0	7	0	0	0	0	1	0	4
OTU 59	0	0	0	1	2	0	0	0	0	0	0	0	2	0	0	0	0	5	0	0	0	0	0	0	9	0	0	0	1	0	0	0	0	0	0	0	0	3	2	0	0	1	0	11	0	1	0	0	0	0
OTU 60	1	2	1	2	0	0	0	7	2	0	6	1	5	0	12	2	4	2	0	1	3	1	0	1	4	2	2	0	3	0	0	19	2	4	0	1	0	4	1	6	22	2	0	0	0	3	2	0	2	0
OTU 61	4	1	6	6	1	109	4	12	1	2	2	2	4	0	3	0	1	6	4	9	3	5	4	1	7	1	4	1	17	1	1	0	4	0	0	1	0	1	0	4	3	0	2	1	3	3	0	1	0	0
OTU 62	0	0	0	1	0	2	2	0	0	0	0	1	0	0	0	0	1	1	0	0	0	0	1	0	0	1	0	1	0	1	0	0	0	0	0	1	7	0	0	0	1	2	0	0	0	5	6	1	1	0
OTU 63	3	0	0	0	0	0	1	0	0	0	0	21	0	0	0	0	0	0	2	0	0	0	1	4	5	1	0	8	0	2	0	2	0	0	0	1	0	0	0	0	0	0	4	0	0	0	1	1	0	0
OTU 64	21	3	3	7	8	2	2	6	4	3	1	28	1	13	1	0	10	7	24	4	7	15	2	20	0	7	6	13	5	0	5	0	6	5	0	7	0	3	4	3	3	2	8	24	22	1	3	0	1	1
OTU 65	0	0	0	0	0	1	0	0	0	0	0	0	0	1	1	0	0	0	1	0	0	0	0	0	0	0	0	0	0	0	0	0	0	0	0	0	0	0	0	0	0	0	0	0	0	0	0	0	0	0
OTU 66	1	2	1	4	5	0	0	6	6	0	4	0	0	3	0	5	0	2	4	0	11	1	0	0	0	1	0	0	2	32	1	5	0	2	0	0	2	0	10	0	7	3	0	2	0	1	3	1	14	6
OTU 67	2	0	1	2	0	0	0	0	1	0	0	0	4	0	1	0	0	0	1	1	0	0	2	0	7	2	0	1	1	3	0	0	0	0	0	1	0	2	9	0	4	0	2	5	0	0	0	0	1	0
OTU 68	0	0	3	1	0	0	0	0	0	0	1	0	2	0	0	0	0	0	6	0	0	1	0	1	21	0	0	2	0	2	0	0	0	0	0	0	0	0	0	1	0	0	0	3	2	0	0	0	0	0
OTU 69	2	0	1	1	0	2	0	1	0	0	1	4	4	2	0	1	1	2	5	1	0	1	0	8	1	1	0	2	0	4	1	7	0	0	37	3	37	6	4	14	0	68	2	1	0	0	0	36	0	2
OTU 70	0	0	2	5	0	0	7	1	0	0	0	0	2	5	0	0	0	0	2	12	2	5	3	0	0	0	0	0	2	0	0	0	1	0	0	1	0	0	0	0	0	0	4	0	4	0	0	0	0	0
OTU 71	0	0	0	2	2	0	1	0	0	1	0	0	1	0	0	0	3	0	0	0	0	1	0	1	1	1	2	0	11	1	0	1	0	1	6	1	0	0	0	0	1	7	3	3	0	0	0	2	0	0
OTU 72	2	0	0	0	0	1	2	11	10	0	4	1	2	2	2	0	1	2	0	1	0	2	2	0	2	0	0	1	7	0	0	4	6	0	2	1	0	2	0	0	0	1	2	0	0	0	2	3	2	0
OTU 73	3	0	0	1	0	0	1	2	0	1	3	1	1	10	1	1	0	2	14	1	2	0	0	1	1	0	0	1	1	3	3	6	0	0	3	2	2	4	0	1	0	7	1	1	1	1	1	3	2	2
OTU 74	0	1	1	2	1	1	6	11	1	2	0	0	1	0	0	0	0	1	17	5	1	0	1	7	0	1	0	36	0	0	0	0	0	0	1	0	0	7	2	2	1	5	0	0	0	0	0	1	0	0
OTU 75	0	0	2	0	0	4	0	3	1	0	0	4	1	1	3	1	0	3	2	1	4	6	4	0	3	0	2	0	7	0	5	0	1	0	3	0	6	9	0	0	0	7	3	2	0	1	0	1	1	0
OTU 76	3	0	1	0	3	0	0	0	0	1	0	5	0	0	1	0	1	0	0	1	0	0	0	0	0	1	0	0	0	3	0	0	0	1	0	0	0	0	1	0	0	0	0	3	0	0	0	1	2	0
OTU 77	0	1	0	0	0	2	5	0	0	2	6	0	1	0	6	1	4	0	0	0	11	5	4	1	5	1	0	1	2	0	0	0	1	0	0	0	2	6	3	16	2	1	1	0	1	0	2	0	0	0
OTU 78	4	0	0	0	0	3	1	8	1	0	0	4	0	1	1	0	2	1	0	4	0	1	10	0	4	0	0	0	0	2	1	0	0	0	0	0	1	0	0	0	0	0	2	1	1	1	2	0	4	1
OTU 79	4	37	1	4	5	1	27	35	2	4	25	31	42	0	3	8	7	5	4	29	6	5	4	1	2	2	4	3	16	21	1	1	0	4	0	1	5	36	17	1	13	19	4	2	0	7	11	5	5	10
OTU 80	0	2	2	0	1	1	3	4	0	0	1	0	2	2	0	0	1	0	9	0	1	2	2	1	1	0	30	1	3	1	0	0	0	0	0	2	1	11	0	0	0	1	3	0	1	0	0	2	0	0
OTU 81	3	6	2	9	0	0	2	6	1	33	0	2	3	5	12	2	4	1	12	2	3	8	0	1	0	1	3	0	15	8	2	2	0	1	2	2	0	2	2	2	0	0	1	5	2	0	2	0	0	3
OTU 82	0	0	0	1	0	1	1	6	1	0	0	0	0	2	1	0	2	0	1	1	0	1	0	0	1	6	0	0	6	0	1	0	0	0	0	2	0	1	4	0	0	0	6	1	2	0	0	0	0	0
OTU 83	0	0	0	0	2	0	0	0	17	0	4	0	0	0	0	0	0	0	0	0	0	0	0	1	0	0	3	0	0	0	0	5	2	2	0	0	0	0	0	0	0	0	1	0	0	0	0	0	0	0
OTU 84	3	2	1	1	0	0	0	0	0	0	6	0	2	1	0	0	3	121	0	0	1	1	2	0	1	0	0	0	0	0	0	0	2	0	1	0	0	0	3	0	0	0	8	0	0	6	1	0	0	0
OTU 85	0	0	0	0	0	0	0	0	0	0	24	0	2	0	0	0	0	0	5	0	0	0	0	0	0	0	0	0	0	0	0	0	0	0	0	0	0	0	0	6	0	0	0	7	0	0	0	0	0	0
OTU 86	0	0	0	0	0	0	0	0	0	3	0	2	0	0	0	0	0	0	0	0	0	0	0	0	0	0	0	0	0	0	0	0	0	0	0	0	0	0	0	0	0	0	0	0	0	0	0	0	0	0
OTU 87	0	0	0	0	0	0	0	0	0	0	0	0	0	0	0	0	0	0	3	0	0	0	0	0	0	0	0	0	0	0	3	0	0	0	0	0	0	0	0	0	0	0	0	0	0	0	0	0	0	0
OTU 88	0	0	0	0	2	0	0	0	0	0	0	0	0	0	0	0	0	0	0	0	0	0	0	1	0	3	0	1	0	0	0	0	0	0	0	0	0	4	1	0	4	1	0	2	0	0	0	0	1	0
OTU 89	2	0	0	2	0	0	0	1	1	0	0	1	0	1	0	0	0	1	0	0	0	0	0	2	0	0	0	0	0	0	2	1	0	0	0	0	1	0	1	0	0	1	0	0	0	0	1	1	0	0
OTU 90	0	0	0	0	0	0	0	0	1	0	2	1	0	0	0	0	0	0	1	0	0	0	0	0	0	0	0	0	0	0	0	0	0	0	0	0	0	0	0	0	0	0	0	0	0	5	0	0	0	0
OTU 91	0	0	0	3	0	0	0	0	0	0	0	0	2	0	0	0	0	0	0	0	0	0	1	0	2	0	0	0	1	0	0	0	0	0	0	0	0	0	0	0	0	0	0	0	2	0	0	0	0	0
OTU 92	0	0	2	0	0	1	0	0	0	0	4	0	0	1	0	0	1	2	0	0	0	0	0	0	5	2	0	0	0	0	0	0	0	0	0	0	0	0	0	1	0	0	0	0	0	0	9	0	0	0
OTU 93	0	0	0	0	1	0	0	0	0	0	0	0	1	1	0	0	0	0	0	0	0	1	0	0	0	0	0	0	0	0	1	4	1	1	0	0	1	0	0	0	0	0	0	1	0	0	0	0	6	0
OTU 94	1	0	1	0	3	0	5	0	2	0	0	1	0	2	2	6	0	2	9	0	1	4	0	4	5	1	1	2	1	7	3	0	4	2	1	1	4	0	0	1	2	3	7	5	13	1	6	3	0	5
OTU 95	0	0	0	0	0	0	0	0	2	0	3	1	10	0	0	0	1	0	0	0	0	1	0	0	2	0	0	0	0	0	0	1	2	0	0	1	0	0	0	5	1	0	0	1	0	0	0	0	0	0
OTU 96	0	0	0	0	0	0	0	0	1	0	0	0	0	0	2	0	0	0	0	0	0	0	0	2	0	0	0	0	0	0	0	0	0	0	0	0	0	0	0	0	0	0	0	0	0	0	0	1	0	0
OTU 97	0	0	0	0	4	1	0	0	0	0	6	0	0	0	0	1	0	0	0	0	0	0	2	0	0	0	0	0	0	0	0	0	0	4	0	0	0	0	0	0	0	0	0	0	0	2	0	0	0	0
OTU 98	0	0	0	0	2	0	0	0	0	0	1	0	0	1	0	1	0	2	0	0	1	3	5	0	1	0	0	0	0	0	0	0	1	0	3	0	0	0	0	0	1	0	2	0	3	0	0	0	0	0
OTU 99	8	1	0	1	0	3	1	0	2	0	2	0	0	1	1	1	2	0	1	0	5	4	0	7	0	1	1	1	4	2	6	0	1	0	0	1	0	6	0	1	0	2	1	1	0	5	0	0	3	0
OTU 100	2	0	0	0	5	0	0	0	0	0	0	1	0	0	1	1	2	4	0	0	1	0	10	0	0	2	0	0	1	0	1	0	0	1	0	5	1	0	0	3	0	0	3	2	0	0	0	0	0	1
OTU 101	0	0	0	0	1	0	0	1	0	1	0	0	1	0	0	0	0	0	1	0	1	0	0	1	0	0	0	0	0	0	2	0	0	0	0	0	0	0	0	0	0	0	3	0	0	0	1	0	0	0
OTU 102	1	1	0	0	0	1	0	0	0	0	0	1	0	0	0	0	0	0	0	0	0	0	0	0	0	0	0	0	0	0	0	1	0	1	0	0	0	0	0	0	0	0	0	1	0	0	0	0	0	0
OTU 103	3	15	0	0	1	0	0	1	0	33	2	3	1	1	5	3	1	3	0	0	1	0	10	0	2	0	3	0	0	0	1	2	0	1	0	1	1	0	0	6	2	0	0	0	6	1	0	0	0	0
OTU 104	2	2	185	1	10	0	2	3	2	0	1	1	4	4	5	9	0	8	5	4	2	1	1	8	0	7	8	6	2	1	8	3	3	5	1	0	0	0	0	1	0	0	4	0	3	6	4	2	0	51
OTU 105	0	0	1	0	0	1	0	0	0	0	0	0	0	1	0	0	3	0	0	0	0	0	1	0	0	1	1	1	1	4	0	0	2	1	0	2	0	5	0	1	0	1	3	0	0	0	0	0	0	0
OTU 106	0	0	0	1	2	0	0	0	0	0	0	0	0	0	0	0	0	0	1	0	1	0	1	3	0	0	0	1	0	0	0	3	0	2	0	0	0	0	0	0	0	1	0	7	1	0	0	0	0	1
OTU 107	0	0	0	0	0	0	1	2	0	1	2	3	0	0	0	0	0	0	1	0	0	0	0	2	4	0	0	0	0	0	3	0	0	0	0	0	0	3	0	0	0	1	0	0	2	117	0	0	0	0
OTU 108	0	0	1	0	4	0	0	0	0	0	0	0	0	0	1	0	0	0	1	0	0	3	0	0	2	0	0	2	0	0	0	2	0	0	0	0	4	0	0	2	0	2	0	2	5	4	0	3	0	0
OTU 109	0	0	0	0	0	0	0	0	0	0	0	0	0	0	0	0	0	0	0	0	0	0	0	0	0	0	0	0	0	0	0	0	0	0	0	0	0	0	0	0	0	0	0	0	0	0	0	0	0	0
OTU 110	14	0	4	1	0	0	6	2	0	1	73	0	8	27	0	1	0	0	2	5	0	4	2	1	14	0	0	82	1	1	1	0	1	0	0	10	0	17	0	0	0	0	40	2	0	4	9	0	0	0
OTU 111	0	0	0	0	0	15	2	0	0	0	0	0	0	0	0	0	21	0	0	0	0	0	0	0	0	0	1	0	0	3	0	0	0	0	1	1	0	0	2	0	0	0	0	1	0	0	0	0	2	1
OTU 112	5	1	0	0	0	0	1	0	0	1	0	0	3	0	0	9	1	0	0	1	8	0	2	0	1	0	0	0	0	0	0	0	0	0	0	0	0	3	0	0	0	0	0	0	0	1	0	0	0	0
OTU 113	0	2	0	3	0	0	0	0	2	0	0	0	0	0	0	0	0	0	0	0	0	0	1	0	0	0	0	0	0	0	0	0	0	0	0	0	0	0	0	0	0	1	0	0	0	0	0	0	0	0
OTU 114	2	64	7	2	0	4	5	7	8	112	3	2	10	2	7	12	1	11	0	8	0	10	7	3	0	1	5	1	6	35	6	2	2	0	0	8	6	1	14	1	12	14	13	5	0	12	0	6	16	13
OTU 115	3	1	1	6	58	1	1	4	2	0	8	2	0	5	1	1	2	1	3	2	1	0	1	8	1	0	2	1	0	1	1	1	1	43	1	16	1	2	0	0	0	1	1	5	2	2	3	0	0	2
OTU 116	0	1	2	1	0	0	4	1	28	3	0	0	0	1	2	0	0	0	0	3	15	0	2	3	1	8	0	0	4	0	0	0	2	0	1	1	0	0	2	2	0	0	1	0	0	0	3	0	0	0
OTU 117	0	1	0	0	1	3	0	27	0	0	2	8	0	2	3	4	0	1	1	5	0	1	3	2	1	3	2	0	2	14	4	0	1	0	4	7	0	0	1	0	0	1	2	0	2	3	14	1	3	5
OTU 118	0	0	0	0	0	0	0	0	1	0	1	0	0	0	0	0	0	4	0	0	0	0	0	0	0	2	0	0	1	0	2	1	0	0	0	0	2	0	0	1	0	3	0	0	0	2	1	0	0	0
OTU 119	3	0	0	6	4	2	44	1	1	0	0	2	1	0	1	1	2	5	1	0	0	5	0	2	1	5	1	2	2	0	3	0	2	0	0	6	3	23	0	1	0	2	10	1	4	1	0	0	1	0
OTU 120	0	0	0	0	0	0	0	2	0	1	0	0	0	0	1	0	0	7	0	2	0	0	6	0	3	0	0	0	0	0	4	2	0	0	1	0	0	1	0	0	0	1	0	0	0	3	6	0	0	0
OTU 121	0	0	0	1	0	0	0	0	1	0	0	3	3	0	0	0	0	0	1	2	0	0	0	0	0	4	0	0	6	0	0	0	0	0	0	0	0	1	2	6	1	1	1	0	2	0	0	0	3	3
OTU 122	10	0	0	15	1	0	1	0	1	2	1	0	0	2	3	0	1	2	4	2	0	0	0	0	1	1	0	1	1	0	12	2	0	0	0	1	0	4	0	0	174	0	0	1	4	0	0	0	0	0
OTU 123	6	1	6	8	3	2	14	7	17	8	6	8	24	6	0	17	2	13	14	83	19	12	25	27	2	15	8	19	16	17	7	2	8	27	7	7	3	5	11	16	6	4	4	2	9	4	12	0	22	9
OTU 124	0	0	0	0	0	0	0	1	0	0	0	3	0	0	0	0	0	1	0	2	0	0	0	0	0	0	0	2	0	2	0	0	0	1	1	0	0	0	3	0	1	0	0	1	3	6	1	3	0	3
OTU 125	8	3	8	3	13	12	10	7	23	3	8	13	10	4	9	3	22	6	5	58	2	3	11	2	8	15	6	2	2	3	2	3	2	37	6	8	5	15	5	9	2	3	5	9	0	5	9	5	8	4
OTU 126	0	0	0	0	0	0	0	0	0	0	0	0	0	0	0	0	0	0	0	0	0	1	0	0	0	1	0	0	0	0	0	1	0	0	0	0	3	0	0	2	0	0	0	0	0	1	0	0	0	0
OTU 127	0	0	0	2	0	1	1	0	0	0	0	0	3	0	3	5	0	3	0	0	11	0	0	1	3	2	0	0	2	2	3	2	0	0	2	0	1	0	3	2	3	3	0	1	0	0	7	6	4	5
OTU 128	32	1	48	15	4	25	12	4	1	2	4	3	10	40	4	1	50	5	18	2	5	116	2	15	7	6	45	12	8	1	4	3	60	138	37	2	6	6	2	4	2	12	5	4	46	4	10	13	0	1
OTU 129	0	0	0	1	0	0	1	0	0	0	0	0	0	0	0	1	0	0	0	0	0	0	3	1	2	1	0	2	0	4	0	0	0	0	1	0	0	1	0	0	0	0	0	0	0	0	0	0	0	1
OTU 130	5	11	0	1	1	1	0	0	3	26	0	0	0	3	0	0	7	0	1	0	0	1	1	0	1	3	1	0	1	0	1	0	2	1	3	0	0	1	0	0	0	0	1	6	1	0	3	0	0	0
OTU 131	0	3	0	2	0	0	0	2	1	0	5	0	0	0	14	0	1	30	0	1	0	0	0	1	0	6	1	1	5	0	20	29	0	0	2	1	11	0	1	0	1	18	3	0	1	7	0	13	0	0
OTU 132	0	0	0	0	0	0	0	0	0	0	0	0	0	0	0	0	0	0	0	0	1	0	2	0	0	0	0	0	5	0	0	2	0	0	0	0	0	0	0	0	0	0	0	0	0	0	0	1	0	0
OTU 133	0	0	0	1	0	0	0	0	0	0	7	0	0	0	0	0	0	0	0	0	0	0	0	0	2	0	0	0	1	0	2	0	0	0	2	2	0	5	0	0	0	0	1	0	2	0	0	0	0	0
OTU 134	0	1	0	0	5	0	1	7	0	0	2	0	0	1	2	3	3	0	0	0	1	0	0	0	0	1	1	0	0	1	0	1	0	4	0	1	0	0	0	4	0	0	2	1	7	0	3	0	0	1
OTU 135	2	3	0	0	1	0	1	6	0	2	1	0	0	2	0	0	8	2	1	2	0	0	2	3	0	2	13	0	7	0	2	0	0	0	1	0	2	2	1	1	0	1	1	0	0	4	0	0	0	0
OTU 136	3	0	0	1	0	1	0	0	1	0	1	0	0	0	2	1	0	2	0	0	0	0	0	1	1	2	0	0	0	0	0	1	0	0	2	0	1	1	0	4	0	3	0	1	0	1	0	0	1	1
OTU 137	0	0	0	2	0	0	0	6	0	0	0	0	0	5	0	0	0	0	0	0	0	0	50	6	5	0	0	2	0	0	3	0	0	0	0	0	0	0	0	0	0	0	1	0	0	0	0	2	0	0
OTU 138	0	0	0	0	0	0	0	0	1	1	0	36	0	0	1	1	0	0	0	0	1	1	0	0	0	0	1	0	3	5	6	2	1	0	0	31	1	0	0	0	0	1	55	0	0	0	0	0	3	3
OTU 139	1	0	0	8	2	1	2	0	0	0	3	6	5	2	1	9	0	1	2	0	0	0	3	0	61	32	0	0	1	3	75	2	0	1	0	0	0	1	4	0	1	3	2	0	4	2	8	0	2	3
OTU 140	4	8	6	2	10	2	3	10	3	48	2	1	2	2	5	3	5	4	7	1	4	9	14	5	1	13	55	2	5	1	0	144	1	1	1	2	0	3	7	0	2	5	4	45	2	0	5	0	12	4
OTU 141	0	0	0	0	0	0	0	0	0	0	0	0	0	0	0	0	0	0	0	0	0	0	0	0	0	0	0	0	0	0	0	0	0	0	0	1	0	0	0	0	0	0	1	0	0	0	0	0	0	0
OTU 142	2	0	0	0	0	0	0	0	0	0	0	0	0	1	0	0	1	0	0	0	0	0	0	3	0	0	0	0	0	0	0	18	0	0	0	0	0	0	0	1	0	0	0	0	0	0	0	0	0	0
OTU 143	0	0	0	0	0	0	0	0	2	0	0	0	0	2	0	0	0	0	2	0	0	2	0	0	0	0	0	0	0	0	0	0	1	0	2	0	0	0	0	0	0	0	0	0	1	0	0	0	2	0
OTU 144	0	0	1	0	0	0	0	0	0	0	2	0	0	0	0	1	0	0	7	0	0	1	0	1	2	1	3	0	0	0	0	2	3	0	0	0	0	0	5	3	2	0	0	0	0	0	0	0	1	2
OTU 145	6	0	1	36	4	0	1	1	0	0	6	3	1	0	0	0	1	0	0	0	1	3	3	0	0	11	0	1	1	3	1	0	0	3	3	2	2	4	1	1	0	2	1	0	0	5	0	13	0	0
OTU 146	0	0	0	1	0	0	1	0	1	0	22	0	16	0	42	0	0	0	3	0	0	0	0	0	10	2	0	2	1	0	1	25	0	0	1	0	5	0	0	1	0	0	0	0	0	0	0	0	0	0
OTU 147	1	1	1	0	0	0	1	0	2	0	4	0	0	0	0	0	7	0	0	0	0	0	1	0	0	0	0	0	0	0	0	0	0	0	0	1	0	0	0	0	0	0	1	0	0	0	0	0	0	0
OTU 148	9	2	0	0	4	0	0	1	3	0	8	0	0	0	7	0	3	0	5	0	0	2	3	4	1	0	0	4	2	0	3	1	0	1	0	0	1	0	0	10	0	0	0	3	0	9	6	0	1	0
OTU 149	5	0	0	0	0	0	0	2	0	0	2	5	4	0	0	2	0	1	3	3	0	0	24	1	0	0	0	0	0	4	0	0	0	0	0	0	0	0	0	1	0	1	0	0	0	0	0	0	0	2
OTU 150	1	0	0	0	0	0	0	0	0	0	1	0	0	0	0	0	0	0	0	0	0	0	2	0	0	3	0	0	1	1	0	0	0	0	1	0	0	0	0	1	0	0	0	0	2	0	1	0	0	3
OTU 151	0	0	0	5	1	0	0	0	0	0	0	0	1	0	0	0	1	0	0	0	1	0	0	1	0	1	0	1	0	0	4	3	0	1	1	0	2	2	1	3	0	0	0	0	0	4	0	0	0	1
OTU 152	4	0	0	4	0	0	1	0	8	1	0	0	1	0	0	0	0	1	2	1	2	1	2	0	34	10	0	2	1	2	0	1	0	0	0	3	0	0	0	0	0	0	8	7	3	2	8	1	0	2
OTU 153	0	1	0	0	0	0	0	0	0	4	1	1	0	0	0	0	1	2	0	0	0	0	0	0	0	0	0	0	1	0	0	0	0	0	0	0	0	1	0	0	0	2	0	0	0	0	0	0	0	0
OTU 154	0	0	0	0	0	0	0	0	0	0	0	0	0	0	0	1	0	0	0	0	0	0	2	0	0	3	0	0	1	0	0	0	0	0	0	0	0	0	0	0	0	0	0	0	0	0	1	0	0	0
OTU 155	1	0	0	0	1	0	1	6	3	0	0	0	0	0	0	1	0	0	1	7	1	1	0	0	3	0	0	0	0	1	0	0	0	0	0	0	0	0	0	0	0	0	1	0	3	0	0	0	0	1
OTU 156	3	0	0	5	0	0	0	2	1	0	0	1	2	0	0	0	1	0	3	1	0	2	2	1	3	6	0	1	2	2	0	0	1	1	5	0	1	6	0	0	1	12	1	0	0	3	3	7	0	2
OTU 157	0	0	0	8	0	0	0	0	0	0	0	0	0	0	0	1	0	0	0	0	0	0	1	0	0	7	0	0	0	0	0	0	1	0	0	0	0	0	0	0	1	0	0	0	0	0	0	0	0	0
OTU 158	0	0	0	0	0	0	0	0	2	0	2	0	0	0	0	0	0	0	0	0	0	0	0	0	0	0	0	0	6	0	1	0	0	0	0	0	0	0	0	0	0	0	0	0	0	0	4	0	0	0
OTU 159	1	0	0	0	2	1	1	1	0	3	2	0	1	0	1	0	0	0	2	0	0	0	6	0	1	0	0	0	1	0	0	1	0	0	1	1	21	0	1	0	0	34	3	0	0	0	0	29	0	0
OTU 160	0	0	2	19	4	2	0	3	2	1	1	2	5	9	4	1	8	1	5	3	3	2	2	2	3	7	2	1	1	5	6	4	2	0	0	0	15	3	2	2	1	11	0	5	0	0	6	1	4	0
OTU 161	0	0	0	7	10	0	1	0	1	0	0	5	0	3	4	0	2	5	5	0	1	7	13	0	1	0	2	0	11	0	0	3	3	4	3	0	0	4	0	0	0	0	0	0	0	0	0	0	1	0
OTU 162	2	0	0	0	1	0	4	7	0	1	1	0	0	0	2	1	0	0	0	0	10	1	1	1	0	0	3	0	10	4	1	0	1	0	0	0	2	2	0	1	0	0	9	2	3	2	5	122	0	0
OTU 163	0	0	0	1	0	0	0	0	0	0	0	0	12	0	0	0	0	0	0	0	0	0	0	0	0	0	0	0	0	0	0	0	0	0	0	0	0	0	0	0	0	0	0	0	0	0	0	0	0	0
OTU 164	0	0	0	0	0	0	0	0	0	0	0	0	0	0	0	0	0	0	0	0	0	0	0	0	0	0	0	0	0	0	0	0	0	0	0	0	0	0	0	0	0	0	0	0	3	0	0	0	0	0
OTU 165	0	0	0	0	3	1	0	4	78	0	3	0	4	6	1	0	1	0	4	0	4	2	0	0	0	0	0	0	0	1	0	0	1	1	0	0	1	0	0	0	0	1	0	0	0	0	1	0	0	0
OTU 166	0	0	0	0	0	0	0	2	0	0	0	0	0	0	0	0	0	0	0	0	2	0	0	0	0	0	0	0	0	1	0	0	0	0	0	0	0	0	2	0	3	0	0	0	0	0	0	0	0	0
OTU 167	0	0	0	1	0	3	7	0	1	0	1	1	4	0	105	0	11	0	1	1	0	0	5	0	0	1	0	0	2	1	0	0	0	2	0	94	0	2	0	0	0	0	0	1	1	0	0	0	0	0
OTU 168	0	1	0	1	1	1	0	3	0	0	0	0	0	0	0	0	4	0	6	11	2	1	0	0	2	1	0	0	0	0	0	1	1	0	0	0	0	0	1	0	0	0	0	2	1	0	1	0	0	0
OTU 169	0	0	1	3	1	0	0	0	0	0	0	0	0	0	0	0	0	0	7	0	0	0	1	3	0	0	0	0	0	0	0	0	0	0	0	0	0	0	0	0	0	0	0	0	0	0	0	0	0	0
OTU 170	0	0	0	0	1	1	0	0	0	0	0	0	0	0	0	0	0	0	0	0	0	0	0	0	0	0	0	0	0	0	4	0	0	0	0	0	0	0	0	0	0	0	0	0	0	0	0	0	0	0
OTU 171	0	0	0	1	0	54	0	0	1	0	4	0	0	0	0	4	0	0	7	0	0	1	2	6	0	2	0	1	0	0	0	0	0	0	0	0	6	3	0	1	0	4	1	1	0	0	4	3	0	2
OTU 172	0	0	0	0	0	0	0	0	0	0	0	0	0	0	2	0	0	0	1	0	0	0	0	4	0	0	0	0	0	0	0	0	0	0	0	0	0	0	0	0	0	0	0	0	0	0	6	0	0	0
OTU 173	1	0	0	0	0	0	0	7	0	0	2	0	0	0	0	1	5	0	0	5	0	0	0	3	0	0	0	0	0	7	1	1	0	0	0	2	0	0	0	0	0	0	0	0	0	0	2	0	0	1
OTU 174	0	0	0	0	0	0	0	0	4	0	0	0	1	0	0	0	0	0	0	0	8	1	0	0	0	1	2	0	0	2	6	1	0	0	0	0	0	0	0	4	0	0	0	0	0	0	5	0	9	0
OTU 175	8	0	0	0	0	0	0	0	0	0	2	0	4	0	1	3	1	0	0	0	0	6	0	0	1	0	3	0	1	5	0	8	0	0	1	0	0	0	1	0	0	0	0	0	0	0	0	0	0	1
OTU 176	1	0	3	0	10	0	0	2	2	0	2	0	1	5	1	4	1	4	0	0	4	18	1	1	1	0	7	1	0	3	13	2	15	4	0	1	0	0	9	2	5	4	0	0	2	3	1	0	1	0
OTU 177	1	0	0	0	0	0	1	1	4	0	0	0	0	1	0	1	0	2	0	0	6	0	0	0	6	1	0	1	4	2	27	0	0	0	0	1	1	0	0	4	1	1	0	2	2	2	0	0	3	3
OTU 178	1	2	0	0	1	0	7	17	0	0	0	1	0	0	0	1	0	4	0	11	0	0	3	0	1	0	1	0	1	0	0	0	0	0	0	3	0	0	0	2	0	0	2	0	0	0	3	0	2	1
OTU 179	55	0	0	2	22	1	1	0	1	0	1	2	2	0	2	0	5	2	0	0	4	0	0	2	2	0	0	0	9	2	0	1	0	8	0	0	0	3	0	0	0	0	0	0	0	0	1	0	2	0
OTU 180	3	0	0	4	2	0	8	9	7	1	0	3	1	3	12	0	1	4	5	6	4	3	4	1	1	7	5	1	8	1	7	1	2	0	4	2	1	0	2	6	2	2	2	3	2	0	19	0	0	3
OTU 181	4	0	0	1	0	0	0	1	4	1	0	0	1	0	2	1	0	2	1	0	4	0	0	0	3	0	0	0	0	0	0	0	0	0	3	1	0	13	3	0	0	0	7	2	0	0	1	1	0	1
OTU 182	2	0	0	0	0	0	0	0	0	0	0	0	0	0	0	0	0	0	0	0	0	0	0	3	0	0	0	0	0	0	0	0	0	0	0	0	0	0	0	0	0	0	1	0	0	0	0	0	0	0
OTU 183	3	0	1	0	1	0	2	1	4	2	0	4	0	3	0	21	1	10	3	0	9	4	0	4	1	0	2	1	3	43	0	0	0	1	0	1	2	0	23	0	13	1	0	0	0	0	2	0	15	19
OTU 184	5	0	0	0	0	2	0	0	0	0	1	0	9	0	0	1	2	2	6	0	0	1	0	1	0	0	0	2	0	0	0	0	0	0	1	2	0	0	1	0	0	0	0	1	0	0	0	0	0	1
OTU 185	1	0	0	5	3	0	0	8	3	0	1	1	2	1	11	0	0	1	1	4	8	0	1	0	0	8	0	0	3	2	0	0	0	1	0	0	5	5	0	14	0	4	4	0	7	2	2	5	1	2
OTU 186	0	0	0	0	2	0	4	0	2	2	0	0	0	0	0	3	0	0	4	0	0	0	1	0	0	0	1	0	0	0	0	0	0	2	0	0	0	2	0	0	0	0	0	0	2	0	0	0	0	1
OTU 187	0	0	2	2	6	3	2	1	3	1	3	9	4	5	2	1	5	1	7	1	2	0	1	0	0	14	0	0	2	0	1	6	0	5	2	7	3	2	0	0	1	3	7	2	2	2	2	0	0	0
OTU 188	0	2	1	0	3	17	1	1	8	1	0	1	0	2	4	2	24	3	0	0	0	6	1	5	6	9	1	0	0	6	4	0	3	0	1	1	0	0	1	0	0	6	8	5	3	0	1	3	0	4
OTU 189	2	0	1	6	1	3	5	1	3	0	1	1	5	6	0	1	16	1	2	6	3	7	3	0	5	0	0	0	0	5	2	3	1	0	0	1	0	9	0	8	0	1	0	2	4	2	11	42	4	128
OTU 190	0	0	0	2	1	0	0	0	0	0	0	0	0	1	0	0	0	0	0	0	0	0	0	0	0	0	0	0	0	0	0	0	0	0	2	0	0	0	0	0	0	0	1	1	0	1	0	0	0	0
OTU 191	4	0	0	0	0	1	2	4	0	1	1	1	0	2	2	1	0	0	2	0	0	0	9	1	0	2	0	1	1	3	0	2	0	0	49	0	1	0	0	2	0	0	6	0	37	4	8	0	2	0
OTU 192	2	0	4	0	0	4	0	3	1	2	1	4	3	2	2	2	4	1	3	2	1	11	0	1	5	18	7	3	5	1	7	3	35	0	1	0	0	0	1	56	0	3	0	1	6	0	0	0	1	0
OTU 193	0	0	6	0	1	0	0	2	1	0	0	2	0	6	0	9	0	0	12	0	0	5	0	12	0	4	3	2	9	15	1	1	5	0	0	0	0	5	14	1	8	0	0	10	3	4	2	0	15	10
OTU 194	10	0	0	0	0	1	8	0	4	0	0	0	3	3	4	1	1	0	0	0	0	0	0	0	0	0	0	0	0	1	0	0	0	1	0	2	0	18	0	0	0	0	9	0	0	2	0	2	0	0
OTU 195	0	0	2	3	2	0	0	1	0	1	0	0	1	2	0	9	0	0	0	0	0	6	0	0	1	0	3	1	1	0	0	2	3	1	2	1	0	0	1	5	0	0	1	1	0	5	0	0	0	0
OTU 196	2	0	0	0	1	0	1	0	1	0	0	0	0	1	0	0	1	0	3	0	0	0	3	1	0	0	0	0	1	0	0	0	0	0	0	5	0	0	0	0	1	5	2	4	0	0	1	3	0	0
OTU 197	3	4	0	9	38	3	0	2	6	5	4	8	1	7	0	0	2	3	9	1	3	0	3	2	1	7	0	1	2	1	1	0	1	16	2	2	3	5	1	11	1	4	0	6	6	5	10	1	5	0
OTU 198	3	1	0	0	0	0	0	1	0	1	0	0	0	0	0	0	0	0	1	0	0	0	0	0	0	1	0	0	0	0	0	0	0	0	0	0	0	0	0	0	0	1	0	4	0	0	0	0	0	0
OTU 199	0	0	0	0	0	0	1	0	0	1	0	0	1	0	0	0	0	0	1	0	0	0	0	2	2	0	0	0	0	0	1	0	0	1	5	2	0	0	0	2	0	0	1	1	0	0	1	0	2	1
OTU 200	0	0	0	4	3	3	0	3	0	0	0	1	3	0	0	0	3	2	0	3	0	2	0	0	1	1	2	0	0	0	1	0	0	2	0	0	2	0	1	1	1	0	0	0	6	0	0	0	1	0
