	Host 1	Host 2	Host 3	Host 4	Host 5	Host 6	Host 7	Host 8	Host 9	Host 10	Host 11	Host 12	Host 13	Host 14	Host 15	Host 16	Host 17	Host 18	Host 19	Host 20	Host 21	Host 22	Host 23	Host 24	Host 25	Host 26	Host 27	Host 28	Host 29	Host 30	Host 31	Host 32	Host 33	Host 34	Host 35	Host 36	Host 37	Host 38	Host 39	Host 40	Host 41	Host 42	Host 43	Host 44	Host 45	Host 46	Host 47	Host 48	Host 49	Host 50	
OTU 1	3	2	3	4	1	1	1	4	3	0	10	1	0	0	1	0	2	11	14	11	2	8	5	6	2	2	0	1	1	0	3	18	6	2	12	1	0	2	3	3	2	0	6	4	11	2	2	0	4	2
OTU 2	0	0	0	0	3	0	1	1	0	0	2	0	6	9	0	0	0	0	2	0	0	1	0	0	1	1	0	1	0	0	1	0	0	0	0	0	0	0	3	0	1	0	0	0	0	0	0	1	0	0
OTU 3	1	0	12	0	0	2	2	0	10	0	0	0	0	0	0	0	0	0	0	0	0	0	0	1	1	3	2	0	0	0	4	0	0	0	0	3	0	2	0	35	0	0	0	0	0	0	0	0	0	1
OTU 4	0	0	0	0	0	0	0	0	0	0	0	0	0	0	0	0	0	0	0	0	0	0	0	0	0	0	0	0	0	0	0	0	0	0	0	0	0	0	0	0	0	0	0	0	0	0	0	0	0	0
OTU 5	13	21	16	2	0	0	36	25	8	11	34	15	32	1	42	0	25	5	17	6	21	15	1	2	21	61	1	0	0	5	10	23	21	0	34	23	18	12	27	23	1	10	18	14	15	6	5	0	17	18
OTU 6	3	1	1	0	3	0	0	3	0	0	0	0	0	0	0	0	0	1	9	3	0	9	0	1	4	0	7	5	0	0	0	18	1	0	3	0	0	0	0	0	0	1	0	0	0	68	18	0	4	0
OTU 7	1	2	0	1	3	2	17	2	0	2	9	0	9	1	6	3	3	6	2	1	3	4	0	3	0	2	3	7	2	2	0	1	1	0	7	2	0	9	0	0	0	26	1	4	5	2	11	5	2	3
OTU 8	0	2	1	3	12	10	2	2	1	10	5	1	6	12	1	6	1	9	13	2	0	2	6	0	4	0	1	2	3	2	1	2	9	4	5	0	8	9	1	2	3	0	0	7	2	2	9	5	2	10
OTU 9	1	0	1	5	0	0	5	2	0	1	2	0	0	0	0	0	1	0	0	0	0	2	2	0	0	0	0	0	0	4	0	1	2	0	0	0	0	0	0	0	0	0	0	1	0	0	0	5	0	0
OTU 10	0	1	0	0	0	2	0	0	0	2	0	0	0	1	2	0	5	1	0	0	0	0	1	0	0	0	2	1	0	0	7	0	3	1	0	0	0	0	1	0	0	0	0	0	0	0	3	3	0	0
OTU 11	0	0	0	1	2	0	5	3	0	8	0	0	4	5	1	0	0	0	0	4	1	0	2	0	0	0	0	7	7	0	1	1	2	2	0	0	0	2	2	0	0	0	1	0	5	3	5	2	0	0
OTU 12	1	0	0	0	8	0	2	0	0	8	0	1	2	7	1	1	8	0	2	0	1	0	3	0	96	5	2	2	0	0	0	1	1	0	0	0	0	0	0	3	2	3	2	0	2	2	3	3	1	0
OTU 13	0	0	0	0	0	0	0	0	0	1	0	0	1	0	0	0	0	0	0	0	0	0	0	0	0	0	0	0	0	0	0	0	0	0	0	0	0	0	0	0	0	0	0	0	0	0	0	0	0	0
OTU 14	0	0	11	0	0	1	0	0	2	0	1	0	0	0	0	0	3	4	0	0	1	1	0	1	0	3	0	0	1	0	0	0	0	0	0	0	0	1	0	14	0	0	0	1	9	0	0	0	0	0
OTU 15	0	0	0	0	0	0	0	0	0	0	0	0	0	0	0	0	0	0	0	0	1	0	0	0	0	0	0	0	0	0	0	0	0	0	0	0	0	0	0	0	1	0	0	0	0	0	0	0	0	0
OTU 16	0	0	0	0	0	0	0	0	0	0	0	0	0	0	0	0	0	0	0	0	0	0	0	0	0	0	0	0	0	0	0	0	0	0	0	0	0	0	0	0	0	0	0	0	0	0	0	0	0	0
OTU 17	1	0	0	0	0	3	0	1	0	1	1	1	0	0	0	0	2	0	1	0	0	4	0	1	0	0	0	0	0	1	0	1	2	1	1	0	0	1	0	0	0	0	0	1	1	0	2	0	1	0
OTU 18	0	0	4	0	3	0	3	1	0	0	7	1	2	2	4	0	0	4	2	2	1	1	3	1	0	0	2	1	3	0	0	0	3	9	0	1	1	0	0	1	1	7	2	2	0	1	1	5	1	0
OTU 19	0	0	0	0	0	0	0	0	0	0	0	0	0	0	0	0	0	0	0	0	0	0	0	0	0	0	0	0	5	0	0	0	0	0	0	0	0	0	0	0	0	0	0	0	0	0	0	0	0	0
OTU 20	0	2	0	49	0	1	0	0	0	6	2	0	3	0	7	1	0	0	1	0	0	0	1	4	1	0	6	0	0	1	0	0	4	7	0	0	2	0	3	0	1	6	0	2	0	0	0	3	2	1
OTU 21	0	0	6	0	7	0	1	1	0	1	0	0	0	3	1	1	0	0	1	4	0	1	2	3	0	1	1	4	2	1	4	0	2	0	0	0	55	1	0	6	4	0	1	0	0	3	0	4	0	0
OTU 22	0	0	1	1	3	0	0	3	67	1	3	1	0	0	1	1	3	5	0	0	4	0	5	0	1	0	0	1	1	0	0	0	0	2	1	0	1	0	0	0	46	0	1	0	3	0	0	1	0	0
OTU 23	0	3	2	1	3	0	5	1	0	0	1	0	1	1	1	10	0	0	1	0	0	1	0	0	0	1	0	6	0	15	5	1	9	2	3	0	0	0	0	0	1	3	0	1	0	4	8	1	0	0
OTU 24	1	0	0	0	4	1	2	1	0	0	0	0	2	0	0	1	0	0	0	0	0	3	0	0	0	2	2	0	0	4	1	0	0	1	0	3	0	0	1	0	0	1	0	0	0	0	0	0	0	0
OTU 25	0	0	0	0	0	0	0	0	0	0	0	0	0	0	0	0	0	0	0	0	0	0	2	1	0	0	0	0	0	0	0	0	0	0	0	0	0	0	0	0	0	0	0	0	0	1	0	4	0	0
OTU 26	0	1	0	0	0	0	0	0	0	0	0	0	0	0	0	5	0	0	0	1	0	1	0	0	0	0	0	0	0	1	0	0	0	0	0	0	0	0	0	0	0	1	0	3	0	2	0	0	0	0
OTU 27	1	0	0	0	0	0	0	0	0	0	0	0	0	0	0	0	0	0	0	0	0	0	0	1	0	0	0	0	0	0	0	0	0	0	0	0	0	0	0	0	0	0	0	0	0	0	0	2	0	0
OTU 28	3	0	1	1	2	0	4	1	0	0	0	0	0	0	2	6	2	0	1	1	4	3	1	2	4	0	0	0	0	3	0	0	0	2	1	0	0	0	3	0	1	2	1	0	0	3	2	1	8	1
OTU 29	0	0	0	1	0	1	1	0	0	1	15	3	0	3	1	2	3	0	0	0	2	1	0	0	1	2	0	1	2	3	5	0	0	0	0	0	0	0	1	4	3	2	8	7	0	2	2	1	0	0
OTU 30	0	0	0	0	0	0	2	0	0	0	0	0	0	0	0	0	0	0	0	0	0	0	0	0	0	0	0	0	0	0	0	0	0	0	0	0	0	0	0	0	0	0	0	0	0	0	0	0	0	0
OTU 31	0	0	0	0	0	0	0	0	0	0	0	0	0	0	0	0	2	0	1	0	0	2	0	0	0	0	0	0	0	0	0	0	0	0	1	1	0	0	0	2	0	4	0	0	0	0	0	2	0	0
OTU 32	0	0	0	1	2	0	3	0	0	5	17	3	7	3	2	0	23	2	0	2	0	4	11	0	3	0	0	0	0	11	1	4	0	15	2	0	3	2	92	0	0	19	3	26	0	1	3	14	4	1
OTU 33	30	0	0	0	3	0	0	0	0	0	0	0	0	4	0	0	0	0	0	0	0	0	0	0	0	0	0	0	0	0	0	0	0	0	0	0	0	0	0	0	0	1	0	0	0	0	0	0	0	0
OTU 34	1	2	0	2	1	0	0	0	0	49	1	0	0	5	3	3	0	4	1	1	6	0	0	0	0	8	4	0	1	2	0	4	5	49	4	21	0	3	21	0	0	2	0	0	1	3	1	8	2	0
OTU 35	0	0	0	2	5	7	0	0	2	2	5	64	0	1	0	0	1	22	0	1	9	0	0	7	0	0	4	0	0	0	1	0	0	3	1	1	0	0	0	4	0	1	118	0	12	0	9	3	0	1
OTU 36	0	1	0	0	1	0	1	0	0	5	0	0	1	0	1	0	0	3	1	0	1	1	6	27	0	0	0	0	0	0	0	0	0	79	0	2	0	0	0	0	0	1	0	0	2	2	3	12	0	0
OTU 37	0	0	0	0	0	3	0	0	0	0	0	0	1	0	0	2	0	0	0	0	0	0	1	0	0	0	0	0	0	0	0	0	0	0	0	0	0	0	0	0	3	0	0	0	0	0	0	2	0	0
OTU 38	0	0	0	0	0	2	0	0	0	0	8	1	2	5	0	3	3	1	0	0	0	1	0	0	1	0	0	8	0	0	0	0	0	1	5	1	0	0	28	0	0	1	1	1	0	1	0	1	4	0
OTU 39	0	0	0	0	0	0	0	0	0	0	0	0	0	0	0	6	0	0	0	0	0	0	1	0	0	0	4	0	0	0	1	0	0	0	0	2	0	0	0	1	0	5	0	0	0	1	0	0	0	0
OTU 40	1	40	1	4	2	3	0	1	1	2	0	1	1	0	1	7	2	0	0	1	4	2	3	0	1	0	3	0	2	0	0	0	0	6	0	0	0	1	2	1	6	8	3	0	1	1	0	2	0	1
OTU 41	2	0	2	2	13	2	3	0	1	2	0	1	0	2	1	0	0	0	0	0	0	0	1	0	0	2	0	3	6	0	0	4	0	0	0	0	0	0	0	1	0	1	1	0	0	3	3	2	1	1
OTU 42	0	0	0	1	0	0	1	1	0	0	0	0	1	0	4	0	0	0	0	0	1	1	1	0	0	0	0	1	0	0	5	2	0	3	0	0	0	0	0	0	0	0	0	0	0	0	0	3	0	0
OTU 43	0	0	0	0	0	0	0	0	0	0	0	0	1	0	2	0	0	0	0	0	0	0	0	0	0	0	0	0	0	0	0	0	0	0	0	0	0	0	0	0	0	0	0	0	0	0	0	0	0	0
OTU 44	0	0	0	0	2	0	0	0	0	0	0	0	0	0	1	5	0	0	0	0	0	0	0	0	0	0	0	9	0	0	0	0	0	0	0	0	0	0	0	0	0	0	0	0	0	0	0	0	0	0
OTU 45	15	2	0	0	0	1	0	1	0	1	0	1	6	0	2	4	3	0	0	0	1	66	1	0	2	0	3	0	6	3	0	29	1	1	0	0	1	0	0	0	0	8	0	0	0	1	11	2	18	0
OTU 46	1	1	0	1	0	2	3	1	1	1	3	1	0	2	3	3	1	1	0	4	0	3	0	0	0	0	1	1	1	1	0	0	1	1	0	0	0	0	1	1	4	13	0	0	0	2	8	1	0	0
OTU 47	0	0	0	1	0	0	0	0	0	0	0	0	0	0	0	0	0	0	0	0	0	0	0	0	0	0	0	0	1	0	0	0	0	0	0	0	0	0	0	0	0	0	0	0	0	0	0	1	0	0
OTU 48	0	1	2	9	4	1	0	0	4	1	0	0	2	6	0	0	0	2	1	1	0	0	0	2	0	2	1	0	1	0	0	4	2	0	0	1	1	0	0	17	0	0	1	1	0	0	2	0	2	14
OTU 49	0	0	4	0	0	4	0	0	0	0	0	0	0	0	0	0	0	3	0	0	3	1	0	0	0	0	1	0	21	1	0	0	0	0	0	0	0	0	1	0	3	0	0	2	1	0	0	0	0	0
OTU 50	3	9	1	0	0	2	52	5	0	6	0	0	0	4	2	0	5	11	6	4	0	9	0	3	10	0	1	1	1	0	14	0	11	0	14	1	1	9	0	1	2	6	0	0	1	17	0	0	0	2
OTU 51	1	0	0	0	0	0	1	1	0	0	0	13	1	1	0	1	0	0	0	0	0	0	5	0	0	0	1	0	5	1	0	0	0	4	0	4	0	0	2	0	2	3	34	0	0	0	0	9	2	0
OTU 52	0	1	4	0	18	3	4	5	0	10	4	3	3	11	0	1	7	4	5	4	0	8	1	5	2	0	5	6	12	0	4	1	2	0	2	0	5	2	15	1	3	2	7	0	1	1	18	1	0	3
OTU 53	0	1	0	0	0	0	0	0	0	0	0	0	0	0	0	0	0	1	0	0	0	0	0	0	0	0	0	0	0	0	0	0	1	0	0	0	0	0	0	0	0	0	0	0	1	0	0	1	0	0
OTU 54	1	1	2	1	3	0	9	0	1	3	57	12	7	0	7	5	18	9	4	0	1	0	2	7	3	0	3	0	5	44	3	1	0	0	3	2	0	1	7	3	12	3	32	3	0	3	0	6	0	1
OTU 55	0	0	0	0	0	0	0	0	0	0	0	0	0	0	0	0	0	0	0	0	0	0	0	0	0	0	0	0	0	0	0	0	0	0	0	0	0	0	0	0	0	0	0	0	0	0	1	0	0	0
OTU 56	0	0	0	4	4	3	2	0	0	0	0	0	0	3	0	0	89	0	3	0	0	0	0	0	0	0	0	0	0	34	0	0	0	0	1	0	0	0	0	1	3	0	0	54	0	0	0	0	1	0
OTU 57	1	1	11	5	1	2	0	2	4	6	0	0	1	5	1	10	0	14	0	0	5	0	4	10	4	22	2	0	7	2	1	1	2	2	0	18	2	137	3	2	2	2	0	0	7	1	5	4	2	60
OTU 58	3	1	0	0	0	0	1	0	0	0	2	0	7	2	0	1	0	2	0	0	0	0	0	1	0	0	0	9	0	0	144	3	0	0	0	0	0	76	0	4	2	0	3	0	0	0	7	1	0	33
OTU 59	0	0	0	0	0	0	15	2	1	0	1	0	1	1	0	0	0	0	2	0	0	0	0	1	0	0	0	5	3	0	0	0	0	0	0	0	2	0	4	4	1	0	2	3	0	0	1	0	0	0
OTU 60	3	0	2	0	3	9	1	2	3	1	1	0	4	1	5	0	0	1	0	1	2	1	2	0	0	1	0	3	3	1	1	5	1	2	0	1	3	0	0	3	0	1	1	2	0	0	13	0	2	0
OTU 61	1	3	2	0	6	5	11	34	0	3	0	0	18	1	7	1	6	1	37	0	0	0	7	1	18	1	0	0	12	1	1	1	3	14	0	6	8	0	0	0	10	3	0	2	1	1	2	18	0	1
OTU 62	0	0	29	0	0	0	0	0	33	1	0	0	2	4	0	0	0	0	0	1	0	0	0	0	0	7	0	1	9	0	0	0	0	0	0	7	0	0	0	60	0	0	0	0	0	0	5	1	0	0
OTU 63	0	0	48	0	2	0	0	0	0	0	1	0	2	0	0	3	0	1	0	0	0	0	0	0	39	0	1	0	6	1	2	0	1	0	0	0	0	0	0	0	0	0	0	0	0	1	0	0	0	0
OTU 64	14	3	0	0	3	4	5	23	2	0	1	2	1	3	4	0	14	2	82	4	6	1	3	14	40	0	3	0	4	0	1	22	2	6	1	2	2	1	2	2	1	3	3	0	8	0	1	7	19	0
OTU 65	0	0	0	0	0	0	0	0	0	0	0	0	0	1	3	1	0	3	0	0	0	1	0	0	0	0	0	0	0	0	0	0	0	0	0	0	0	0	0	0	0	0	0	0	0	0	0	0	0	0
OTU 66	0	4	0	0	3	1	0	0	7	0	0	0	0	2	1	4	0	1	1	2	0	2	1	3	1	0	0	0	2	3	1	2	8	7	1	83	0	0	1	13	3	1	0	0	0	0	0	1	0	0
OTU 67	0	0	0	2	2	4	2	0	0	1	0	0	1	2	0	0	0	5	0	0	6	1	1	1	0	0	0	5	0	0	0	0	0	1	0	0	0	1	3	0	2	13	0	3	11	1	0	3	0	0
OTU 68	1	0	0	0	0	3	0	0	0	0	0	0	1	2	2	0	0	0	3	2	1	0	0	0	0	1	1	0	1	1	0	3	0	1	0	0	0	0	0	1	0	0	0	0	2	0	1	0	1	0
OTU 69	0	0	0	0	1	0	0	0	0	1	1	0	0	5	0	2	0	0	2	2	0	1	0	3	1	0	2	0	3	1	0	1	2	0	0	0	0	0	1	2	0	26	0	0	3	1	4	0	0	0
OTU 70	0	0	0	0	0	3	2	0	0	0	0	1	2	0	0	0	0	0	0	0	1	5	1	0	0	0	3	0	0	2	0	0	0	0	0	0	2	0	6	0	0	0	0	0	0	0	0	0	0	0
OTU 71	0	0	0	0	1	0	0	0	0	2	4	1	0	0	0	0	1	0	0	0	1	0	0	0	0	0	0	13	7	1	0	0	0	1	0	0	0	0	0	0	0	0	3	2	0	3	0	0	0	0
OTU 72	2	4	0	8	1	1	0	14	0	2	4	0	87	0	5	2	3	2	2	1	0	0	0	3	1	6	0	0	4	2	0	1	1	0	0	0	6	0	2	0	3	0	1	5	2	0	3	0	0	0
OTU 73	2	0	3	1	0	1	0	3	1	2	0	0	0	0	0	1	2	0	8	0	0	0	2	0	1	1	0	1	0	1	0	1	0	2	0	0	0	1	0	1	0	0	0	4	0	2	8	14	3	0
OTU 74	1	2	3	1	5	2	2	1	0	2	1	1	2	3	0	0	3	0	3	1	1	4	6	0	4	0	0	14	0	0	4	2	1	0	0	0	2	2	1	1	4	0	2	4	1	3	1	13	0	0
OTU 75	8	0	2	0	0	7	3	1	0	0	0	0	2	4	6	11	1	0	0	0	0	1	2	2	0	1	5	0	4	1	6	0	0	3	0	0	3	0	0	2	0	2	1	1	0	1	1	9	2	0
OTU 76	0	0	0	0	0	0	0	0	0	0	0	0	1	4	0	0	0	2	0	0	60	0	0	0	0	0	0	67	0	0	0	1	0	0	0	0	0	0	1	0	0	1	1	0	151	0	2	0	0	0
OTU 77	0	0	0	1	2	1	1	1	0	1	0	0	1	2	0	0	1	0	1	1	0	2	0	0	1	2	0	2	2	0	1	0	1	5	0	1	0	0	0	1	2	0	2	1	0	2	6	0	1	0
OTU 78	0	1	0	0	4	4	0	2	0	0	1	1	6	0	5	6	0	1	3	0	0	0	5	0	0	1	5	0	2	0	0	0	0	4	0	0	0	1	0	0	12	5	1	2	0	0	4	7	1	0
OTU 79	4	3	1	4	6	6	4	68	6	3	6	10	4	13	17	11	1	6	0	2	3	2	3	1	2	1	2	6	8	2	1	3	6	6	1	6	46	3	10	4	7	8	18	4	4	1	3	9	5	3
OTU 80	2	0	0	0	0	0	3	2	3	0	1	1	2	16	0	1	2	0	4	0	1	4	0	0	1	1	0	4	4	1	1	7	0	1	0	1	1	0	2	3	1	2	1	3	0	0	2	1	0	0
OTU 81	0	0	34	1	5	2	0	5	23	3	3	0	6	10	1	1	1	2	3	0	43	1	1	4	4	9	64	5	5	0	1	1	0	2	0	10	3	1	0	33	3	1	1	1	1	0	7	1	0	3
OTU 82	1	0	0	0	0	1	0	0	1	2	1	0	0	5	1	0	0	0	0	1	0	0	2	1	0	0	0	0	2	0	0	3	4	2	3	1	0	1	0	1	3	0	0	0	0	1	3	5	0	0
OTU 83	1	0	0	0	0	0	0	0	0	0	0	0	2	0	0	1	0	0	0	0	0	0	0	0	0	0	0	0	0	0	0	0	0	0	0	0	0	0	0	0	0	0	0	0	0	0	2	0	0	0
OTU 84	0	2	0	2	0	0	1	0	0	1	1	0	0	2	0	1	0	0	0	2	0	1	0	85	0	0	0	0	1	0	11	0	1	4	5	4	0	5	0	1	0	0	1	0	0	2	0	0	0	0
OTU 85	0	4	1	0	0	0	1	0	0	1	6	1	0	0	0	0	0	0	0	0	0	0	0	0	2	0	0	0	0	3	0	0	0	1	0	0	0	0	0	0	0	3	0	0	0	0	2	0	0	0
OTU 86	0	0	1	0	0	0	0	0	0	0	0	0	0	0	0	0	0	0	0	0	0	0	0	0	0	0	0	0	0	0	0	0	0	0	0	0	0	0	0	3	0	0	0	0	0	0	0	0	0	0
OTU 87	0	0	0	0	0	0	0	0	0	0	0	0	0	0	1	0	2	0	0	0	0	0	0	0	1	0	1	0	0	0	0	0	0	0	1	1	0	0	0	0	0	2	1	0	0	0	0	1	0	0
OTU 88	0	0	0	0	0	0	0	0	0	0	0	0	0	0	0	0	0	0	0	0	0	0	0	1	0	27	0	0	0	0	0	0	0	1	0	0	0	0	0	2	0	0	0	0	0	0	0	1	0	0
OTU 89	0	1	0	0	0	0	2	0	0	0	1	0	0	6	1	0	0	0	0	10	0	1	1	0	0	0	0	0	0	0	0	0	0	0	0	0	2	0	0	0	6	0	0	1	1	0	0	1	1	1
OTU 90	0	0	0	0	0	0	2	1	0	0	0	0	2	1	0	0	0	0	0	0	0	0	0	0	0	0	0	0	2	0	0	0	0	0	0	0	0	0	0	0	0	0	0	0	0	0	0	0	0	0
OTU 91	0	0	0	0	0	0	0	0	0	0	0	1	0	0	0	0	0	0	0	0	0	0	0	0	0	0	0	0	0	0	0	0	0	0	0	0	0	0	0	0	0	0	0	0	0	0	0	0	0	0
OTU 92	0	0	0	0	0	0	0	0	0	0	0	0	0	0	0	0	0	0	0	0	0	0	0	0	1	0	0	0	0	0	0	0	0	0	0	0	0	0	0	1	0	0	0	0	0	1	0	5	0	0
OTU 93	1	0	0	0	0	0	0	0	0	0	0	0	0	0	0	0	0	1	0	0	0	1	0	0	0	0	0	3	0	0	0	0	0	0	0	0	0	0	0	2	0	0	0	0	0	0	0	0	0	0
OTU 94	7	0	0	1	1	9	2	1	1	4	4	1	3	0	0	4	3	1	0	0	0	3	1	0	0	3	4	5	3	0	3	15	4	2	0	0	0	0	1	0	9	0	0	1	1	0	19	2	9	0
OTU 95	0	0	0	0	2	0	10	0	2	0	0	0	0	0	0	3	1	0	0	0	0	0	0	0	0	1	0	0	0	0	0	2	0	0	0	0	109	0	0	1	0	0	1	0	0	0	0	0	0	0
OTU 96	0	1	0	0	0	0	0	0	0	0	0	0	0	1	0	0	0	0	0	0	0	0	0	0	0	0	0	0	0	0	0	0	4	0	0	0	0	0	0	0	0	0	0	0	0	0	0	0	0	124
OTU 97	0	2	0	0	0	0	0	0	0	0	0	0	0	1	0	0	0	0	0	0	7	0	0	0	0	0	2	1	1	2	0	0	3	0	0	0	0	0	0	0	0	0	0	0	12	0	0	4	0	0
OTU 98	0	0	2	0	0	0	0	0	0	1	1	0	0	1	0	0	0	0	0	0	0	0	1	0	0	2	1	1	0	0	0	0	0	0	2	0	1	0	0	0	0	0	0	0	1	0	0	1	0	0
OTU 99	11	0	1	17	0	0	0	19	0	9	5	10	0	3	0	0	0	0	8	0	0	25	1	5	9	0	0	3	1	3	0	7	0	13	0	11	7	3	2	0	7	4	27	0	0	46	0	6	6	1
OTU 100	0	0	2	0	0	2	0	0	0	4	0	0	0	0	0	6	0	4	1	0	0	1	1	1	0	0	1	1	0	0	28	0	1	1	56	0	1	16	0	0	1	0	0	0	0	1	1	4	0	8
OTU 101	0	0	1	0	0	0	0	0	0	0	1	0	0	0	0	0	0	1	0	0	0	0	0	0	0	0	0	0	0	0	0	0	0	1	0	0	0	0	0	0	0	0	1	0	0	0	0	0	0	0
OTU 102	0	0	0	0	4	0	0	0	0	0	0	0	0	0	0	0	0	2	0	0	0	1	0	0	0	0	0	0	0	0	0	1	0	0	2	0	0	0	0	0	3	3	0	0	0	1	0	0	1	0
OTU 103	0	8	1	3	0	0	6	0	0	5	0	0	0	1	5	6	0	0	0	17	0	1	0	0	0	0	37	0	0	0	17	0	20	0	30	0	0	9	0	0	0	0	0	2	0	36	0	0	0	4
OTU 104	14	31	3	0	1	2	0	16	1	2	0	0	0	10	4	0	5	2	18	0	1	10	0	1	16	3	0	1	0	0	9	34	2	2	9	0	5	1	0	2	11	5	1	0	0	1	0	0	14	0
OTU 105	0	0	0	0	0	0	0	0	0	0	0	0	0	0	0	0	0	0	1	0	0	0	2	0	0	0	2	0	0	0	0	0	0	0	0	0	0	0	0	0	3	0	0	0	0	0	1	6	0	0
OTU 106	0	0	0	0	0	2	0	0	0	0	0	1	0	0	0	1	2	0	0	0	0	0	0	1	0	3	0	2	1	0	2	0	0	0	0	2	0	0	0	0	0	0	4	0	0	0	0	0	0	0
OTU 107	2	0	0	0	1	0	2	0	0	1	1	0	1	14	0	2	0	1	0	0	0	0	1	0	0	0	0	4	0	1	0	0	0	0	0	0	0	2	0	0	0	0	1	6	0	0	0	6	0	0
OTU 108	3	0	1	0	1	1	3	0	0	0	0	0	0	0	3	1	0	0	0	0	1	1	2	2	2	0	0	0	0	0	0	1	0	1	0	0	1	0	0	0	2	0	0	0	0	0	0	3	0	0
OTU 109	0	0	0	0	0	0	0	0	0	0	0	0	0	0	0	0	0	0	0	0	0	0	0	0	0	0	0	0	0	0	0	0	0	0	0	0	0	0	0	0	0	0	0	0	0	0	0	0	0	0
OTU 110	0	0	0	1	1	0	3	0	0	0	0	0	0	0	0	0	0	1	1	0	0	0	0	2	2	3	1	1	3	2	0	1	1	0	1	3	0	0	4	0	1	0	0	4	3	2	13	2	2	0
OTU 111	0	0	0	0	1	0	0	0	0	0	0	0	0	0	0	0	0	3	0	0	0	0	2	0	0	0	0	0	0	0	0	0	0	0	0	0	0	0	1	0	0	0	0	0	0	0	0	2	0	0
OTU 112	0	0	0	0	1	0	1	0	0	0	0	0	0	0	0	0	0	0	0	0	1	0	0	0	2	0	1	0	0	0	0	0	1	0	4	0	1	0	0	1	0	1	2	1	0	0	1	0	0	0
OTU 113	0	0	0	0	1	0	0	0	0	0	0	0	0	0	0	1	0	0	0	0	0	2	0	0	0	0	0	0	0	0	0	0	0	0	0	0	0	0	0	0	2	0	0	0	0	0	0	0	0	0
OTU 114	0	50	0	4	4	2	1	1	3	0	5	0	0	1	3	0	2	0	2	0	0	2	205	0	4	0	1	3	0	0	3	1	63	0	1	1	0	1	0	1	6	60	0	0	0	0	1	1	0	1
OTU 115	3	1	3	2	12	0	1	1	0	6	1	1	6	5	3	0	0	0	0	0	2	2	2	0	0	2	1	4	0	4	1	0	0	4	0	0	0	1	1	0	4	1	1	4	0	0	2	3	0	1
OTU 116	0	0	2	1	9	11	7	1	2	1	0	0	0	2	4	1	1	25	1	2	3	0	2	4	2	0	3	3	4	0	2	0	0	1	1	49	1	1	1	0	17	5	0	1	11	6	2	3	0	0
OTU 117	0	2	0	0	9	0	0	58	0	2	1	0	1	0	0	0	0	4	0	0	0	1	0	0	0	0	1	0	0	0	4	3	3	0	1	0	20	1	0	0	2	1	1	2	0	0	5	2	0	0
OTU 118	0	0	0	0	0	0	0	0	0	0	0	0	0	1	6	1	0	0	0	0	0	0	0	0	0	0	3	0	15	0	0	0	2	1	0	5	0	0	0	0	0	0	0	0	0	2	2	0	0	0
OTU 119	0	3	0	2	0	0	1	2	0	2	2	0	5	0	1	0	4	3	0	6	2	0	0	0	0	4	3	0	6	0	0	1	5	2	2	1	0	0	0	1	3	2	0	0	7	0	0	0	0	0
OTU 120	0	0	17	0	0	0	2	0	0	0	1	0	0	0	0	1	0	0	2	33	0	0	0	0	0	0	0	8	2	0	0	0	1	0	0	0	0	0	2	0	0	1	0	0	0	0	1	0	0	0
OTU 121	3	0	1	0	0	0	0	0	0	0	3	0	0	0	2	2	0	0	0	0	0	0	1	1	0	1	1	5	0	0	0	0	0	0	1	0	0	0	1	0	0	0	0	1	0	1	0	2	0	1
OTU 122	0	3	0	0	3	0	0	0	0	0	12	2	0	0	4	0	7	0	0	0	0	3	0	0	1	2	2	5	0	1	0	3	1	0	1	0	0	2	1	0	2	0	7	0	3	0	2	0	3	0
OTU 123	6	3	3	4	13	5	14	4	2	5	9	5	2	6	8	8	6	2	5	2	1	9	2	8	8	5	12	2	19	1	1	2	4	2	1	4	2	1	21	6	5	5	5	1	0	2	7	1	2	1
OTU 124	0	0	0	1	0	0	2	0	0	0	0	0	0	0	0	8	0	0	0	0	0	0	0	0	0	0	0	2	0	0	0	0	2	4	0	0	0	0	0	0	0	1	0	0	0	0	0	0	1	0
OTU 125	4	0	3	47	0	1	12	1	1	1	13	2	8	2	15	13	22	7	2	0	1	1	6	7	1	0	1	7	4	5	3	1	2	13	5	0	17	26	1	2	5	7	5	5	2	2	6	9	1	17
OTU 126	0	0	0	0	0	0	0	1	0	0	0	0	0	0	0	1	0	0	0	0	0	0	0	0	0	0	0	0	0	0	0	0	0	1	0	0	0	0	0	0	0	0	0	0	0	0	0	0	0	0
OTU 127	0	0	1	0	2	4	2	2	0	0	3	2	9	2	0	1	0	9	0	1	22	3	1	1	0	0	0	2	0	0	0	0	0	2	0	0	0	0	2	1	0	0	4	0	0	0	4	1	0	0
OTU 128	21	2	7	134	28	10	6	3	2	5	3	0	16	17	5	10	2	7	8	0	4	0	5	0	0	3	4	7	5	0	1	3	4	6	0	1	1	4	8	4	0	9	1	0	8	3	3	9	1	0
OTU 129	0	0	0	9	0	0	1	0	0	3	1	0	0	0	0	0	0	1	0	0	0	1	0	0	0	0	0	0	0	0	0	0	0	0	0	0	0	0	0	0	0	0	0	0	1	0	0	0	0	1
OTU 130	0	0	1	1	5	0	1	1	0	0	2	0	0	1	0	0	2	0	0	0	0	0	1	0	1	0	0	0	5	0	0	0	0	3	0	10	0	0	0	0	0	10	1	1	0	0	2	5	0	0
OTU 131	0	43	4	0	0	2	0	2	4	0	0	0	0	1	6	0	8	1	0	0	0	0	1	0	0	0	0	0	1	0	0	0	94	0	0	1	0	0	1	7	1	0	0	1	0	0	1	0	0	0
OTU 132	0	0	0	0	0	0	0	2	0	6	0	2	0	0	0	0	0	0	0	0	0	0	0	0	0	0	0	0	0	1	0	1	0	2	0	0	0	0	0	0	0	0	1	2	0	0	0	0	0	0
OTU 133	0	0	0	0	1	0	0	0	0	0	0	0	0	2	0	4	0	0	0	0	0	1	1	0	0	0	0	0	0	0	0	0	0	0	0	0	0	0	0	0	0	0	0	0	0	0	0	4	0	0
OTU 134	0	0	0	0	9	0	3	0	0	0	1	0	1	20	2	0	4	4	3	49	0	0	0	2	7	0	0	1	0	1	2	0	0	0	0	1	0	0	0	0	9	0	0	0	3	3	0	0	1	0
OTU 135	0	1	3	0	1	0	1	1	0	0	3	0	0	2	12	3	0	0	1	0	3	0	0	0	0	0	0	1	1	1	0	10	0	0	0	0	0	0	0	1	5	0	1	2	1	0	2	0	1	0
OTU 136	0	0	0	0	0	0	0	2	1	0	0	0	1	0	0	0	0	0	0	0	0	2	0	0	1	0	0	2	0	0	0	0	0	1	0	2	1	0	0	0	0	1	2	0	0	0	0	0	0	0
OTU 137	22	0	0	0	1	1	1	0	0	0	0	0	0	0	2	0	0	0	0	0	0	0	0	0	0	0	0	1	0	0	0	72	0	0	0	0	0	0	0	0	0	0	0	0	0	0	0	1	37	0
OTU 138	0	0	0	0	8	0	0	0	0	0	0	0	5	1	0	1	0	2	0	0	0	0	0	0	1	2	0	0	0	1	0	0	0	0	0	1	0	0	0	0	0	0	1	0	0	0	0	0	1	0
OTU 139	4	2	1	2	11	31	2	0	1	8	1	113	0	4	4	2	17	6	8	1	0	5	2	9	11	80	3	3	3	0	0	0	6	3	4	1	1	1	0	3	5	0	2	1	2	2	0	1	2	0
OTU 140	1	99	4	5	14	44	5	0	1	5	19	2	3	2	0	9	6	4	1	1	104	3	2	1	2	3	0	0	7	133	9	3	3	5	26	2	2	6	0	3	6	1	6	1	5	0	6	2	151	1
OTU 141	0	0	0	0	0	0	0	0	0	0	0	0	0	0	0	0	0	0	0	0	1	0	0	0	0	0	0	0	0	0	0	0	0	0	0	0	0	0	0	0	0	0	0	0	0	0	0	0	0	0
OTU 142	0	0	0	0	0	0	0	0	0	0	0	0	0	0	0	0	0	0	0	0	0	0	0	0	0	0	1	0	0	0	0	0	1	0	0	0	0	0	0	0	0	0	0	0	0	0	0	0	0	0
OTU 143	0	0	0	0	2	0	0	1	0	0	2	0	0	7	0	0	0	0	0	0	0	0	0	0	0	0	0	3	1	0	0	0	0	0	0	1	0	0	0	0	0	0	0	0	0	0	0	0	1	0
OTU 144	0	0	0	1	0	0	0	0	0	0	0	2	0	1	0	0	0	0	0	0	0	2	5	0	0	0	1	0	0	0	0	0	0	6	0	0	0	0	0	0	0	4	0	0	0	0	1	8	0	0
OTU 145	0	0	0	7	0	2	1	0	0	0	0	0	0	6	11	0	0	0	4	2	0	0	1	5	1	0	86	2	12	0	0	0	0	0	4	1	2	1	1	0	4	14	1	1	0	0	1	3	1	1
OTU 146	0	0	0	0	6	0	0	0	0	1	0	1	0	0	5	0	0	0	2	1	0	0	0	4	1	1	1	10	9	0	1	2	0	0	2	0	1	0	0	0	9	1	0	0	0	3	3	1	2	0
OTU 147	0	0	0	1	1	0	0	0	1	0	0	0	0	0	0	1	0	0	0	1	0	0	0	0	0	0	0	0	0	1	0	0	3	0	0	0	0	0	0	1	1	0	0	0	0	1	0	2	0	0
OTU 148	0	7	0	0	0	1	4	0	0	4	3	3	4	0	76	6	3	1	0	11	0	0	1	1	0	0	14	0	1	0	13	0	16	5	18	1	0	12	0	0	0	0	1	0	0	29	0	1	0	9
OTU 149	0	0	0	0	0	6	1	0	1	0	0	0	0	5	0	1	0	0	2	0	0	1	0	0	0	0	0	0	1	1	0	0	0	0	1	0	0	0	0	0	0	0	0	1	0	0	0	1	1	0
OTU 150	0	0	0	0	0	0	7	0	0	0	0	0	2	0	1	5	1	2	0	0	0	0	0	1	0	0	0	0	5	0	0	1	0	0	0	0	0	0	1	0	0	0	0	0	0	0	0	0	1	0
OTU 151	0	0	0	0	0	2	0	0	1	1	2	0	2	0	0	4	6	1	2	0	0	0	2	3	0	0	2	0	0	0	2	1	0	0	3	1	0	0	0	0	0	1	0	0	0	0	0	1	0	0
OTU 152	0	0	0	1	15	0	0	0	0	3	0	0	2	0	2	2	0	2	0	0	1	1	2	0	2	0	0	0	0	0	0	1	0	0	0	0	0	0	0	0	0	2	0	0	0	0	3	2	2	0
OTU 153	0	0	0	3	0	0	0	0	0	0	0	0	0	0	0	0	0	0	0	0	0	0	0	0	0	0	0	0	0	0	0	0	0	0	0	0	0	0	0	0	1	0	0	0	0	0	0	2	0	0
OTU 154	0	0	0	0	0	0	0	0	0	0	0	1	0	0	0	0	1	1	0	0	0	0	0	0	0	0	0	0	0	0	0	0	0	0	0	0	0	0	0	0	1	0	1	0	4	0	0	0	0	0
OTU 155	0	0	0	0	5	2	7	0	0	0	2	24	0	1	4	0	2	0	0	0	0	0	0	0	0	2	2	0	0	0	2	0	0	0	2	0	0	0	0	0	0	1	1	0	0	0	0	0	0	0
OTU 156	1	6	0	4	0	0	0	0	0	2	1	1	7	22	6	29	0	2	2	3	3	0	0	1	2	0	7	43	4	2	2	4	0	0	2	1	0	1	2	1	1	0	0	0	0	3	6	1	4	2
OTU 157	0	0	0	0	0	0	0	0	0	0	1	0	0	6	0	0	0	0	0	2	1	0	2	0	0	2	0	0	0	1	0	0	0	2	0	1	0	0	0	0	0	0	0	0	0	0	0	3	0	0
OTU 158	0	0	0	0	0	0	0	0	0	0	0	0	0	0	0	0	0	0	0	0	0	0	0	0	0	0	0	2	0	0	0	0	0	0	0	0	0	0	0	0	0	0	0	0	0	0	0	0	0	0
OTU 159	0	0	2	0	1	3	0	0	0	0	1	0	0	2	2	0	5	0	5	1	0	0	0	1	0	0	0	1	2	0	1	4	0	1	0	1	0	0	4	1	1	0	0	0	1	1	0	1	0	0
OTU 160	9	1	0	2	1	8	6	2	1	6	11	2	14	0	0	15	0	4	5	1	4	2	3	2	0	44	1	0	3	2	1	0	2	2	5	52	0	1	1	1	0	0	3	1	8	3	2	4	0	0
OTU 161	0	0	90	0	2	1	4	3	1	7	0	5	5	0	2	0	2	0	1	0	0	1	3	0	4	0	1	0	3	0	0	0	1	0	1	0	0	0	0	0	5	1	0	1	1	2	0	3	1	0
OTU 162	5	0	3	0	4	1	2	0	0	2	7	0	0	1	1	0	0	0	2	0	0	0	0	0	0	2	0	0	0	0	2	1	0	0	1	0	2	0	0	0	0	2	5	0	0	0	0	0	1	0
OTU 163	0	0	0	0	0	0	0	1	0	0	0	0	0	0	0	0	0	0	0	0	0	0	0	0	0	0	0	0	0	0	0	0	0	0	0	0	0	0	0	0	0	0	0	0	0	0	0	0	0	0
OTU 164	0	0	0	0	0	0	0	0	0	0	0	0	0	0	0	0	0	0	0	0	0	0	0	0	0	0	0	0	0	0	0	0	0	0	0	0	0	0	0	0	0	0	0	0	0	0	0	0	0	0
OTU 165	2	0	0	0	0	0	0	0	0	7	7	2	2	3	0	0	0	0	0	0	0	1	1	0	0	0	0	0	0	35	0	0	0	0	3	0	0	0	4	0	1	1	3	64	0	0	0	0	1	0
OTU 166	0	0	0	0	0	0	0	0	0	0	0	0	0	0	0	0	0	0	0	0	0	0	0	0	0	0	0	0	1	0	0	0	0	0	0	0	0	0	0	0	0	0	0	0	0	0	0	0	0	0
OTU 167	3	1	0	0	0	0	1	2	0	0	3	0	0	1	0	1	1	0	1	0	0	0	0	0	0	0	0	0	0	0	0	0	0	0	0	0	1	0	0	0	3	1	1	0	0	0	0	0	0	0
OTU 168	0	1	1	0	0	1	0	0	1	0	1	0	5	0	0	0	2	0	1	0	2	1	0	0	2	1	0	0	0	19	0	0	1	1	6	1	1	1	0	2	0	1	1	72	0	1	0	0	0	0
OTU 169	0	0	0	0	0	0	0	0	0	0	0	0	0	1	0	0	0	0	3	0	0	0	0	0	4	0	0	0	0	0	0	0	0	0	0	1	0	0	0	0	0	0	0	0	0	0	0	0	0	1
OTU 170	0	0	0	0	0	0	0	0	0	0	0	0	0	0	0	0	0	0	0	0	0	0	0	0	0	0	0	0	0	0	0	0	0	0	0	0	0	0	0	0	0	0	0	0	0	0	0	0	0	0
OTU 171	0	0	0	0	13	4	0	5	0	0	0	0	0	0	0	0	0	0	4	0	0	2	1	1	2	1	3	1	1	0	0	0	0	1	0	0	10	0	0	1	0	1	1	0	0	0	6	0	0	0
OTU 172	0	0	0	0	0	0	0	0	0	0	2	0	0	0	0	0	0	0	0	0	0	0	0	0	0	0	0	0	0	0	0	0	0	0	0	0	0	0	1	0	0	0	0	0	0	0	4	0	0	0
OTU 173	0	0	0	0	1	0	2	5	1	0	0	0	1	2	0	3	0	0	0	0	0	0	0	0	0	0	0	0	0	0	0	0	0	1	0	0	4	1	0	5	0	0	0	0	0	0	0	0	0	0
OTU 174	6	0	0	2	0	46	3	0	0	0	0	0	0	5	0	0	0	76	0	0	16	0	1	22	1	3	3	1	1	0	1	7	0	0	0	0	2	0	3	2	0	0	2	0	24	0	2	0	6	0
OTU 175	0	0	0	0	0	1	4	0	0	0	0	0	0	2	0	2	1	0	1	0	0	0	1	0	0	0	1	1	0	0	0	0	0	1	0	0	0	0	1	0	0	0	0	1	0	0	0	6	1	0
OTU 176	1	1	3	2	2	0	3	2	0	7	1	0	0	1	4	4	0	0	0	42	1	7	0	4	0	1	0	0	5	0	1	0	3	1	0	2	0	0	0	0	1	1	0	2	0	4	0	6	0	25
OTU 177	0	0	0	0	1	0	2	0	0	2	2	3	0	0	0	1	0	4	6	0	2	0	1	7	0	0	0	0	5	0	0	0	1	0	0	0	1	2	0	4	13	1	0	2	4	1	4	5	1	0
OTU 178	1	0	1	0	6	4	0	1	0	0	1	0	0	3	0	8	0	8	0	0	0	0	0	1	0	0	0	0	0	0	0	0	1	0	0	0	0	1	4	0	0	1	0	0	0	0	0	0	0	0
OTU 179	106	0	0	3	4	0	2	0	0	1	2	0	0	0	0	0	0	9	0	136	2	0	0	0	0	0	0	0	9	0	0	0	0	0	0	0	0	0	0	0	1	2	1	0	2	0	0	1	0	0
OTU 180	4	0	1	0	6	5	4	0	1	2	8	0	9	2	14	28	4	9	0	0	2	5	4	72	1	0	8	14	4	0	0	4	4	7	1	3	2	1	7	4	5	4	0	1	2	0	12	2	1	1
OTU 181	0	0	0	3	1	7	1	0	0	0	0	1	0	8	0	7	0	17	1	0	2	0	0	4	0	0	0	0	1	0	1	2	0	0	0	1	0	0	0	2	43	1	0	0	10	0	0	2	2	0
OTU 182	0	0	0	0	0	4	2	0	0	0	0	0	0	0	2	0	0	2	0	0	0	0	0	1	0	0	0	0	0	0	0	0	0	0	0	0	0	0	0	0	0	0	0	0	0	0	0	2	0	0
OTU 183	1	0	0	2	4	0	0	0	0	1	0	0	2	2	0	14	1	8	0	0	3	0	4	6	0	1	2	0	0	0	0	1	0	7	3	2	2	2	0	2	0	0	0	0	3	0	0	6	1	1
OTU 184	2	1	0	0	0	0	5	0	0	4	0	0	1	0	0	0	0	0	4	1	0	0	0	0	0	0	0	0	2	0	0	0	0	7	1	1	0	0	1	0	1	0	1	0	0	0	1	0	0	0
OTU 185	0	0	1	0	0	1	0	0	0	10	0	0	0	3	1	2	22	1	2	0	0	0	1	0	0	0	0	20	1	16	1	4	0	0	4	0	0	1	0	1	1	4	0	22	1	1	1	0	4	1
OTU 186	1	0	0	0	0	0	0	0	0	0	0	0	0	0	0	0	0	0	0	0	0	2	0	0	0	0	0	0	0	0	0	0	0	0	0	0	0	0	0	0	0	0	0	0	0	0	0	0	0	0
OTU 187	2	4	0	0	7	0	1	9	2	78	2	0	5	1	4	1	0	0	5	0	0	16	0	1	0	0	19	6	0	0	4	8	11	2	5	2	8	3	3	2	12	4	2	4	1	10	11	4	9	2
OTU 188	0	0	0	2	6	2	2	0	21	1	3	2	0	2	10	1	2	0	1	0	0	0	5	2	0	4	0	2	11	0	0	0	1	5	0	1	0	0	0	1	3	2	1	4	2	0	1	17	0	0
OTU 189	2	3	0	2	2	2	0	0	0	4	0	0	1	0	1	25	0	1	6	2	0	1	1	0	2	0	1	0	4	0	2	0	5	4	0	0	0	0	6	1	7	6	0	0	1	4	5	5	0	27
OTU 190	0	0	0	0	0	0	3	0	0	0	2	0	2	5	0	0	0	0	0	0	0	0	1	0	0	0	0	1	0	0	0	0	0	0	0	0	0	0	2	0	1	0	0	0	0	0	0	2	0	0
OTU 191	1	0	0	2	2	36	4	2	0	4	2	0	9	6	2	6	2	0	2	0	0	4	1	1	1	0	0	1	10	1	0	0	0	6	0	0	1	0	0	1	3	0	6	5	3	1	3	1	1	0
OTU 192	1	0	24	1	0	0	0	4	45	0	0	0	5	2	0	2	0	5	9	2	9	2	4	5	9	39	4	1	0	3	2	0	0	3	1	19	5	1	11	59	3	0	0	5	6	0	7	3	1	0
OTU 193	0	0	1	2	0	4	7	13	0	1	4	1	1	0	0	3	1	0	22	0	0	22	1	0	16	0	0	0	6	0	0	0	1	0	0	0	5	0	33	1	0	10	0	0	0	0	32	1	1	0
OTU 194	17	0	0	0	0	0	0	0	0	0	0	0	0	1	2	5	0	0	0	0	0	60	1	0	0	0	4	0	3	0	0	18	0	0	0	0	2	0	2	1	0	1	0	0	0	0	0	0	10	0
OTU 195	2	0	0	0	1	3	3	1	0	1	0	1	0	4	0	0	0	2	0	0	0	1	0	0	1	0	1	0	23	0	2	0	0	1	2	1	0	0	7	0	0	1	0	0	0	19	0	2	0	0
OTU 196	1	0	0	0	0	0	0	0	4	3	3	0	0	1	0	0	0	0	2	0	1	4	2	0	0	5	2	3	4	0	25	4	0	2	73	1	0	11	6	3	0	0	5	0	0	1	0	3	0	8
OTU 197	0	1	0	0	2	1	4	2	114	0	6	64	2	5	0	0	3	2	4	0	0	0	1	1	0	1	2	4	6	0	4	4	1	1	1	0	3	0	3	0	3	1	5	3	1	47	0	1	1	0
OTU 198	2	0	0	0	2	0	0	0	0	1	0	0	1	0	0	0	0	0	0	0	0	0	0	0	0	0	0	1	0	0	0	0	0	0	0	0	0	0	0	0	0	0	0	0	0	0	0	0	0	0
OTU 199	0	0	0	1	1	10	1	0	0	4	6	3	0	2	0	1	0	0	0	0	0	0	0	0	0	0	1	0	0	0	0	0	0	3	2	0	0	0	0	1	0	0	1	0	1	3	1	0	0	0
OTU 200	0	0	0	3	1	3	1	2	0	1	0	0	1	0	1	0	0	0	0	0	1	4	0	0	2	0	0	2	1	1	1	0	0	1	0	1	0	0	0	0	0	1	0	3	0	0	0	0	0	1
