	Host 1	Host 2	Host 3	Host 4	Host 5	Host 6	Host 7	Host 8	Host 9	Host 10	Host 11	Host 12	Host 13	Host 14	Host 15	Host 16	Host 17	Host 18	Host 19	Host 20	Host 21	Host 22	Host 23	Host 24	Host 25	Host 26	Host 27	Host 28	Host 29	Host 30	Host 31	Host 32	Host 33	Host 34	Host 35	Host 36	Host 37	Host 38	Host 39	Host 40	Host 41	Host 42	Host 43	Host 44	Host 45	Host 46	Host 47	Host 48	Host 49	Host 50	
OTU 1	0	5	8	1	3	56	13	31	3	48	24	0	0	99	25	15	0	64	22	0	34	36	3	84	5	5	1	84	67	55	0	138	15	96	21	7	0	7	16	5	203	50	11	65	0	68	42	4	68	12
OTU 2	87	1	22	1007	14	0	1	0	3	0	26	3	18	9	1	24	1	6	3	0	0	4	1	17	6	0	85	853	47	0	2	2	6	0	14	0	0	1	28	34	0	9	46	0	84	9	0	29	0	8
OTU 3	0	0	6	11	4	0	6	0	20	0	0	0	3	2	0	1	1	0	0	31	2	7	0	0	0	0	4	0	9	0	0	0	0	0	4	0	0	0	8	0	0	0	3	0	46	0	36	0	2	0
OTU 4	0	0	0	0	0	0	0	0	39	0	1	0	0	0	8	0	0	0	0	0	0	0	0	0	5	0	0	0	0	0	0	0	0	0	0	0	0	0	0	0	0	0	0	0	0	0	0	0	0	0
OTU 5	65	0	141	1003	73	638	203	139	1051	48	324	813	1009	212	15	148	1200	174	159	31	581	1701	151	642	0	334	0	391	10	85	154	59	115	236	268	422	634	1005	474	156	70	656	89	126	1	62	190	0	137	35
OTU 6	2	71	3	5	26	18	0	1	13	0	1030	0	11	114	55	3	5	2	29	50	65	12	67	87	25	33	0	57	71	0	0	19	46	20	6	113	5	0	1821	9	33	4	0	1	38	61	0	24	64	0
OTU 7	114	122	65	0	151	234	252	57	53	156	47	0	157	159	8	9	66	73	18	30	60	33	12	27	55	19	32	45	77	313	25	335	7	287	20	40	113	189	138	35	536	25	232	189	259	23	18	16	161	453
OTU 8	88	102	24	17	18	35	46	25	49	41	19	23	147	51	105	39	38	73	669	46	13	527	7	76	100	35	77	76	27	7	9	33	97	38	7	59	31	69	224	39	69	31	36	13	52	83	42	90	7	102
OTU 9	0	9	2	19	40	3	1	44	1	43	37	1	13	3	20	0	10	25	8	5	4	1	32	45	75	29	0	34	42	0	8	0	0	6	0	3	2	15	0	0	14	99	0	0	0	15	8	0	3	8
OTU 10	5	2	7	3	0	4	178	14	0	12	0	0	10	24	70	0	0	9	0	4	0	1558	51	30	288	0	23	0	10	0	0	0	1361	0	0	190	7	5	5	57	5	2	0	2	42	0	4	71	0	45
OTU 11	8	4	15	5	34	3	3	0	102	1	12	16	7	9	36	65	4	67	1	0	11	5	4	40	83	5	0	9	16	8	7	2	1	0	4	26	2	14	18	8	4	19	41	2	41	8	0	34	163	84
OTU 12	4	33	8	78	13	15	47	20	44	23	8	41	30	62	4	69	10	0	21	850	1420	27	35	13	9	5	56	35	1	3	1	19	12	9	9	27	2	9	77	28	25	14	69	67	169	47	48	128	1566	42
OTU 13	0	2	0	0	0	0	0	0	0	21	0	21	0	0	23	36	0	0	0	0	0	1	40	0	159	0	0	1	0	0	0	0	0	0	0	0	18	0	0	0	0	0	115	0	0	0	13	4	0	5
OTU 14	0	12	45	69	5	1	36	0	75	0	5	21	57	14	13	14	1	4	1	0	0	12	1	1	38	9	77	1	1	0	13	0	0	3	12	0	0	0	1	53	4	20	0	1	4	0	0	50	14	5
OTU 15	0	2	0	1	0	0	4	0	0	0	0	0	3	9	16	0	0	0	0	0	0	5	0	6	0	0	0	0	0	0	23	0	101	0	0	0	1	0	0	22	0	0	0	2	1	0	35	0	9	51
OTU 16	0	0	30	12	5	0	0	0	0	0	0	0	0	0	85	0	0	0	5	0	0	0	0	0	0	0	0	1	0	0	1	0	0	0	14	0	0	0	1	0	0	0	0	2	0	6	0	0	0	3
OTU 17	6	4	10	15	2	1	2	13	0	17	2	3	53	16	4	20	39	1	0	41	0	11	76	4	112	2	29	5	8	0	53	35	172	6	2	1	0	0	0	0	12	0	0	29	23	0	16	124	15	30
OTU 18	36	2	34	35	35	20	51	58	11	61	222	11	43	40	16	21	10	65	88	8	11	24	7	5	10	32	14	25	89	4	93	29	54	11	1	4	392	3	481	0	18	60	18	0	59	176	128	11	68	40
OTU 19	0	0	0	0	0	0	0	0	9	0	0	0	0	0	0	0	0	0	0	0	0	0	0	0	4	0	0	0	0	0	0	0	0	0	0	0	0	0	0	0	0	0	0	0	0	0	0	0	0	0
OTU 20	0	79	31	4	33	13	3	0	31	18	23	26	20	23	13	64	5	2	0	24	28	27	7	10	53	21	144	72	2	50	193	7	8	36	0	18	1	2	8	4	71	8	51	9	82	25	63	0	0	59
OTU 21	63	38	51	17	1	5	3	0	8	32	8	42	144	0	6	55	16	14	0	2	30	21	5	90	14	0	93	28	66	1	2	0	33	33	3	74	4	0	33	8	48	0	21	0	36	0	71	64	0	15
OTU 22	104	6	12	19	21	68	98	5	0	12	11	47	25	2	46	57	0	5	0	15	18	5	46	0	1	0	26	101	38	1	53	4	134	3	0	0	6	15	13	0	4	65	88	0	1	2	79	13	14	2
OTU 23	30	0	556	50	0	1	0	39	13	18	251	84	61	8	1122	134	0	8	2	3	3	10	17	6	2	23	14	16	39	35	43	95	7	1	26	0	3	0	547	4	1	1	0	48	0	0	171	14	3	20
OTU 24	15	178	4031	6	1	0	2	0	0	0	8	12	31	15	4	15	2	16	0	12	0	2	9	0	21	68	10	5	0	0	25	0	0	1	0	1	1	10	22	2	1	6	47	1	69	0	3	1	15	0
OTU 25	0	0	0	0	0	0	0	9	0	34	0	0	0	35	0	0	0	0	0	6	1	0	0	1	0	0	0	0	0	0	1	0	0	0	0	0	4	0	0	0	0	0	0	0	0	0	1	0	0	0
OTU 26	0	13	0	23	0	8	10	0	0	0	0	2668	0	0	0	21	0	0	0	0	4	0	0	0	4	0	2	1	0	0	0	0	0	0	0	0	2	0	16	0	0	0	0	0	0	1	32	153	48	0
OTU 27	0	0	0	0	14	0	0	0	0	0	2	0	0	0	0	0	0	0	0	0	0	0	0	1	0	0	27	0	0	0	0	0	0	0	0	0	0	0	0	0	0	1	1	0	0	0	0	12	0	0
OTU 28	250	90	71	129	133	37	5	51	18	109	6	1	84	65	5	4	61	8	0	109	17	12	44	9	31	8	148	40	4	10	64	41	42	18	8	0	8	15	0	26	31	16	31	10	27	2	91	3	47	91
OTU 29	12	22	2	4	2	1731	47	28	24	42	8	15	78	27	22	28	1008	114	4	111	0	40	368	65	38	25	27	9	8	861	18	1546	131	1714	29	36	517	1863	2	4	3514	47	32	780	14	25	48	40	36	63
OTU 30	0	0	0	0	0	0	0	0	3	0	0	0	0	0	1	0	0	0	0	0	1	0	0	0	0	0	0	0	0	0	0	0	0	0	0	2	0	0	0	0	0	0	0	0	0	0	0	0	0	0
OTU 31	7	0	0	0	14	27	6	0	57	0	0	5	1	0	22	0	63	12	20	33	38	0	61	82	1	22	57	26	0	47	1	80	64	8	2046	16	3	33	5	0	21	0	0	32	0	24	1	0	0	0
OTU 32	127	62	24	52	170	185	26	54	584	29	27	24	153	112	360	61	124	50	49	128	95	108	348	369	12	4	794	124	32	112	1	153	333	180	28	263	23	444	20	36	328	113	42	144	115	91	49	23	102	11
OTU 33	0	0	0	0	0	0	0	0	0	1	0	0	0	0	0	0	10	0	2	4	0	0	0	0	0	0	0	0	0	0	1	0	0	0	0	0	0	0	0	0	0	10	0	0	0	1	0	0	68	14
OTU 34	80	21	8	42	103	31	8	28	2	32	28	17	77	48	8	23	24	0	1	44	29	22	60	26	20	4	149	0	43	13	9	8	4	42	13	5	14	24	2	23	90	7	14	0	21	9	54	0	44	29
OTU 35	58	29	36	7	39	0	24	35	57	12	247	4	14	3	63	9	3	30	3	9	9	0	5	4	2	51	12	89	21	0	0	13	35	20	62	0	28	26	306	9	33	11	0	35	2	1	91	13	0	0
OTU 36	12	194	8	17	54	0	55	3	67	48	7	247	4	16	22	99	1	27	5	2	1	5	13	2	29	37	5	0	1	0	16	1	0	3	9	51	0	0	0	20	1	34	9	0	11	10	1	47	0	68
OTU 37	54	0	42	0	1	1	0	0	10	0	1	4	9	6	0	2	0	2	7	0	0	4	0	2	56	0	4	19	0	0	1	22	25	0	22	24	0	1	14	5	0	0	625	0	18	3	75	0	3	0
OTU 38	85	64	36	7	58	6	2	0	59	3	106	10	17	6	33	21	5	7	10	31	1	3	21	5	53	23	54	1	33	790	66	0	23	13	31	0	8	26	27	4	23	4	45	0	32	20	2	3	7	53
OTU 39	0	10	0	33	0	0	0	18	0	0	0	44	0	2	10	38	0	5	0	3	8	0	2	37	2	4	117	1	0	2	119	1	24	0	7	5	0	0	0	1	0	5	0	0	3	0	13	0	0	0
OTU 40	16	80	40	3	3	12	0	4	7	10	108	12	205	154	4	32	21	7	0	5	3	50	55	30	209	12	57	19	1	10	7	7	9	21	13	1453	2	13	58	15	40	0	134	0	127	3	167	10	9	201
OTU 41	15	3	76	24	22	2	53	49	26	93	0	6	29	12	57	1	2	12	4	1	0	20	6	19	15	1	2	0	28	0	9	0	7	1	8	8	1	14	18	197	8	4	5	3	6	13	24	20	75	1
OTU 42	0	0	0	19	0	0	1	0	0	0	0	72	6	0	7	87	2	0	0	0	12	0	11	0	0	0	1	3	0	0	4	1	26	0	0	0	0	0	2	3	0	0	40	0	98	8	4	0	147	0
OTU 43	0	0	0	0	0	0	2065	0	0	0	0	0	17	0	0	0	0	4	0	0	0	0	0	0	0	0	0	0	0	0	0	0	0	0	0	0	0	0	0	1126	0	0	27	0	0	0	0	7	0	0
OTU 44	0	0	8	8	4	1	0	31	7	6	1	0	0	0	27	0	0	0	0	0	1	0	4	1	0	0	1	0	0	0	14	1	0	1	0	0	3	0	0	0	4	0	25	2	2	0	1993	0	0	1
OTU 45	32	68	29	0	20	4	1	24	36	125	5	28	17	29	22	63	3	46	30	26	9	0	157	57	77	57	67	96	18	20	6	0	1	3	18	64	4	1	61	26	11	23	6	6	64	40	6	87	13	86
OTU 46	572	117	209	0	45	0	22	22	16	46	0	54	24	5	169	131	4	122	29	4	2	0	26	19	13	190	21	43	13	2	37	9	1	9	5	1	55	6	128	11	10	10	79	12	720	51	2	514	41	274
OTU 47	0	1	0	0	0	0	0	0	0	0	0	34	13	5	0	66	0	16	0	1	7	0	7	4	0	11	1	0	0	2	0	0	0	2	0	0	0	25	16	0	4	2	0	2	0	0	41	93	0	0
OTU 48	22	30	21	1	73	9	0	13	18	27	52	9	25	55	18	28	2	34	1502	14	148	46	31	58	79	42	50	27	28	19	36	4	12	4	6	121	2	27	32	4	4	6	6	6	70	2950	69	6	7	2
OTU 49	29	1	82	3	99	0	34	7	44	45	4	1	2	15	15	1	0	0	3	3	4	11	0	1	7	0	62	3	12	0	0	1	92	0	11	0	0	3	0	0	0	10	77	3	3	16	1	45	9	2
OTU 50	61	16	0	31	32	50	48	4005	13	56	100	14	11	79	36	45	18	57	28	11	1	24	45	69	91	23	60	128	77	16	188	0	6	16	32	22	7	8	16	1	36	84	3	0	16	39	11	162	48	28
OTU 51	49	39	38	62	0	0	174	25	394	96	0	1	1	16	14	6	827	13	0	0	1	0	0	0	37	0	8	0	13	0	181	35	0	2	36	0	417	1454	7	42	11	16	24	12	1	0	11	23	1	98
OTU 52	38	81	72	10	672	9	82	441	72	143	36	0	26	134	12	12	50	42	22	9	68	124	1380	48	145	18	255	3	1	6	24	23	44	6	36	81	10	20	12	36	8	58	2	6	48	29	41	27	63	97
OTU 53	0	2	0	0	0	4	0	0	0	0	0	0	0	0	0	0	0	0	0	0	0	0	20	0	2	0	0	0	0	0	0	0	0	4	0	0	0	8	0	0	3	0	0	0	0	0	0	0	0	0
OTU 54	174	8	27	27	294	14	26	15	61	34	20	48	305	34	51	138	25	35	587	1105	73	58	104	14	107	8	40	16	13	11	119	6	34	16	67	18	12	7	39	33	19	0	31	13	13	100	39	108	1828	235
OTU 55	0	0	0	0	0	1	0	0	0	0	0	0	0	0	0	0	0	0	0	0	0	5	0	0	0	0	0	2	0	0	8	0	0	0	0	0	0	0	0	0	0	0	0	0	0	0	0	0	0	0
OTU 56	0	1	3	20	25	6	2	0	4	0	0	3	6	4	21	1	1	0	8	7	0	2	5	6	4	0	1	10	8	0	0	1	0	1	16	0	1	2	2	0	1	34	1	4	1	10	21	0	7	1
OTU 57	162	49	23	53	7	23	83	10	24	25	47	59	293	59	41	153	22	67	38	16	57	10	669	85	120	31	148	1029	105	21	117	8	98	12	11	27	5	6	19	23	23	27	289	9	128	54	166	22	37	88
OTU 58	13	5	3	0	36	0	2	27	4	49	26	9	7	55	24	5	1	39	0	89	49	25	0	0	97	2	34	0	5	0	12	0	63	0	2	9	0	10	122	16	0	75	7	8	17	1	20	46	3	4
OTU 59	4	0	0	5	23	30	3	5	0	42	54	17	4	8	6	14	2	84	6	13	37	2	16	1267	6	2	9	33	3	10	2	4	0	35	55	632	6	0	11	5	75	26	71	17	3	4	172	0	2	3
OTU 60	39	1	0	25	79	33	166	4	34	10	11	25	186	7	31	38	1	7	28	17	4	4	155	594	75	35	7	5	25	19	134	62	61	10	0	267	4	81	21	22	19	33	58	35	259	142	79	2	79	45
OTU 61	56	108	46	223	217	60	6	0	65	10	46	32	61	295	23	58	42	325	0	77	348	206	104	33	74	19	70	253	18	94	321	157	112	53	66	8	12	153	147	50	132	353	107	142	73	1	137	53	122	71
OTU 62	5	46	0	0	0	29	0	1	1	0	163	6	1	1	0	24	1	0	3	0	0	0	2	0	0	66	0	14	58	25	7	21	0	29	1	0	0	0	365	0	71	0	13	0	2	37	0	1	0	0
OTU 63	2	0	0	0	4	13	129	0	0	27	23	4	33	1	2745	9	0	1	476	14	15	1	3	64	19	0	1	0	10	20	8	2	1	6	0	37	2	2	10	56	14	0	14	5	0	789	0	1	0	11
OTU 64	33	1509	22	41	17	27	16	72	81	160	36	63	18	62	58	112	24	53	26	65	61	8	32	4	34	601	35	1482	40	6	110	36	25	23	4	10	15	14	54	19	34	4	78	2	461	30	140	336	138	64
OTU 65	10	0	0	0	3	0	0	0	0	0	0	0	0	0	17	0	0	44	0	0	0	0	7	0	0	15	0	0	0	0	0	0	0	0	0	0	0	2	0	0	0	0	0	0	0	0	0	42	0	0
OTU 66	155	140	28	6	26	88	3	29	0	26	63	47	28	31	68	119	8	19	74	3781	19	55	19	5	32	111	56	17	8	25	1	26	50	68	127	5	12	49	28	51	129	21	147	14	87	119	4	85	18	4
OTU 67	20	35	27	1	72	19	34	0	6	24	8	12	266	0	5	1	3	31	3	7	93	4	22	0	70	4	48	8	2	12	15	7	1	8	6	0	0	1	8	1	16	0	147	1	32	3	0	14	21	0
OTU 68	12	0	0	0	2	0	1	0	0	13	25	33	0	0	4	57	2	0	7	26	0	0	0	0	62	0	0	11	347	1	1	14	24	0	8	0	0	0	0	9	0	0	20	4	12	9	12	0	0	1
OTU 69	20	16	339	54	8	0	31	34	0	90	406	9	68	0	457	15	1	39	82	5	0	1	95	2	8	6	26	10	9	2	43	43	67	1	2	9	0	14	337	27	1	0	17	14	114	137	114	203	67	26
OTU 70	13	20	0	0	0	289	24	4	7	15	11	0	52	30	37	7	143	1	22	7	6	13	0	30	1	27	45	11	15	86	5	128	1	286	2	0	116	175	0	2	551	5	1	61	24	38	15	1	0	1
OTU 71	7	1	25	25	2	33	1	9	0	18	5	182	14	5	27	336	11	0	10	28	6	1	80	0	7	3	17	32	43	2	0	0	2	16	0	0	4	16	4	44	32	4	166	18	0	3	3	1	5	21
OTU 72	234	64	30	253	25	2	29	77	64	54	53	40	18	732	62	58	3	408	1	47	134	331	12	2	8	45	119	86	0	2	30	1	116	1	432	33	5	6	222	30	3	373	45	7	94	2	141	57	4	92
OTU 73	147	0	1	2	4	25	5	45	1	53	111	17	1	28	13	38	0	37	4	1	2	42	74	30	51	25	39	30	2	3	12	3	0	5	8	3	1	2	354	13	23	70	0	0	130	8	11	14	58	211
OTU 74	25	44	34	7	28	11	355	45	33	105	5	13	145	738	22	16	27	82	19	6	302	537	5	2	304	18	105	8	106	30	160	19	44	43	1	21	0	12	13	57	88	61	12	14	3	54	0	12	13	27
OTU 75	82	100	55	40	16	1	62	28	25	33	3	11	163	21	37	17	1	249	3655	544	78	31	459	139	732	62	193	33	9	0	18	42	196	4	2	68	12	6	6	149	11	4	4	17	11	186	133	46	472	4
OTU 76	7	60	9	1	1	4	19	1	43	0	2	0	0	62	41	0	0	24	3	1	0	29	2	0	12	24	16	0	6	0	3	0	4	0	5	0	2	0	70	1	3	11	33	0	3	0	3	7	0	39
OTU 77	4	13	71	27	83	3	31	1	34	14	3	61	28	21	6	79	15	30	25	33	53	8	48	11	16	19	76	35	98	5	3	17	14	13	9	0	5	2	6	11	29	12	36	1	1	40	8	44	22	0
OTU 78	29	41	51	0	1	15	121	229	1	467	5	95	48	21	9	118	3	9	1	18	38	6	5	16	60	21	21	0	2	3	325	36	12	22	31	0	0	14	11	0	49	3	4	10	10	0	2	54	24	0
OTU 79	153	45	340	196	192	64	117	101	371	133	114	44	208	402	35	67	17	375	7	108	331	300	502	107	313	38	147	22	43	21	105	67	154	377	370	82	38	112	68	79	85	341	57	38	300	16	83	97	39	200
OTU 80	13	17	7	0	15	594	36	62	45	161	3	38	91	10	30	84	347	43	29	140	55	9	140	149	147	21	223	1717	5	390	89	774	233	610	8	91	155	517	10	76	1178	11	79	485	132	34	26	8	387	53
OTU 81	252	2855	55	3	38	22	153	40	16	97	2	12	69	24	0	25	45	245	28	13	15	6	57	37	36	1452	41	64	1150	3	431	3	122	16	7	9	26	18	93	95	27	16	23	0	321	67	174	28	31	3
OTU 82	114	7	17	9	5	12	316	10	8	33	45	0	59	25	1	0	15	6	5	11	2	0	8	21	4	3	4	10	0	0	7	5	0	37	31	6	7	12	0	200	77	21	15	6	6	12	135	21	22	156
OTU 83	0	4	0	0	34	4	0	2	0	0	4	10	0	1	11	8	0	0	5	1	17	0	1	3	1	0	81	1	0	0	0	0	8	7	4	0	2	8	0	0	7	7	0	0	0	2	29	1	0	0
OTU 84	12	0	177	3	9	0	42	17	20	11	53	0	33	20	169	11	2	6	6	5	1	10	15	92	0	0	5	0	78	3	3	0	0	0	9	74	2	0	173	57	1	8	12	0	63	23	0	0	0	0
OTU 85	28	5	116	1	70	0	0	0	1	17	0	0	4	26	0	0	0	0	0	6	0	1	19	0	17	2	4	1	0	5	20	9	0	0	1	1	0	0	0	0	0	0	0	2	5	1	0	2	0	1
OTU 86	0	0	0	0	0	0	1	1	1	0	0	0	0	0	0	2	0	10	0	2	0	0	0	0	0	0	0	0	0	0	0	4	0	1	0	0	0	0	0	0	2	0	0	0	1	0	0	0	0	0
OTU 87	15	0	1	2	206	11	79	0	0	7	1	22	14	20	21	52	0	0	12	15	1	4	37	0	0	0	0	39	3936	3	57	0	1	15	31	5	0	16	0	79	29	24	0	0	3	21	0	97	4	131
OTU 88	0	0	0	26	0	3	0	0	0	0	1	11	0	2	0	0	0	0	0	0	0	1	28	10	74	0	0	19	0	0	0	0	1	0	0	0	0	12	0	1	1	1	1	4	0	3	0	35	0	0
OTU 89	20	6	36	1	57	0	15	14	5	24	4	0	6	3	0	10	16	66	16	0	0	0	12	15	56	40	7	3	1	0	12	0	10	0	0	14	8	0	1	13	1	9	6	12	49	9	1	0	0	9
OTU 90	5	8	1	0	23	0	0	0	1	0	0	0	3	2	0	5	0	0	0	0	0	0	0	0	0	0	0	0	0	2	0	0	7	0	0	0	2	4	0	10	0	0	0	0	3	0	0	0	0	0
OTU 91	0	0	0	0	0	0	1	30	1	5	0	0	0	11	7	0	0	0	0	0	0	0	0	0	1	3	0	0	0	0	62	0	0	0	0	0	0	0	0	0	0	0	0	1	0	0	0	0	1	0
OTU 92	80	6	0	0	88	0	0	13	15	0	2	1	0	11	0	0	0	29	0	3	1	58	4	21	73	0	4	0	0	0	22	2	0	0	0	6	0	0	0	0	0	0	1	0	17	0	6	0	2	5
OTU 93	0	2	0	0	30	0	39	0	0	0	0	0	0	0	0	0	0	0	0	0	1	0	0	0	5	0	84	0	3	0	0	2	3	0	0	0	0	0	58	0	1	0	0	7	0	0	0	0	2	1
OTU 94	60	7	26	16	7	8	21	44	75	20	27	6	12	8	3	24	5	91	50	27	30	12	22	6	71	37	235	8	34	2	78	26	102	1	5	0	17	9	8	1	1	33	132	1	4	79	2	21	111	72
OTU 95	6	4	4	0	0	0	0	639	0	1144	15	1	0	0	0	11	11	1	1	6	0	11	5	0	30	0	0	0	9	0	453	0	0	0	0	11	1	1	40	5	0	0	3	0	21	9	3	5	2	49
OTU 96	1	3	0	5	20	0	0	0	0	10	0	0	0	0	0	1	0	0	0	0	0	0	1	2	0	0	0	0	0	0	0	3	0	0	3	0	0	0	1	1	1	0	0	0	0	0	0	0	0	1
OTU 97	0	6	0	2	4	12	0	0	0	2	0	0	0	14	0	0	6	1	0	247	0	10	10	2	0	0	8	12	0	5	55	55	35	15	0	0	0	10	0	9	28	7	0	16	0	0	0	1	105	0
OTU 98	23	28	24	6	0	4	1	2	66	0	8	0	1	0	1	3	0	0	0	11	8	0	4	56	4	48	7	45	5	31	2	0	31	0	1	93	0	0	17	0	0	10	6	0	189	0	6	0	1	12
OTU 99	105	17	15	30	15	31	9	48	217	51	1	56	92	35	2	61	913	58	45	7	0	3	15	59	137	0	132	16	89	7	54	17	41	9	41	68	482	17	35	48	23	166	59	9	41	88	26	56	8	67
OTU 100	2	89	69	69	23	5	113	6	8	25	9	14	115	7	1	15	1	23	46	9	11	10	6	56	138	52	23	78	0	4	59	2	1	7	0	18	1	2	2	87	15	23	1	6	45	82	2	66	2	631
OTU 101	39	0	0	0	0	0	27	0	0	0	0	0	0	0	2	0	1	0	2	0	0	88	0	0	5	0	1	0	0	0	7	0	57	0	0	2	0	0	0	16	0	0	1	0	0	6	56	0	3	0
OTU 102	0	0	0	29	15	30	4	1	0	7	5	0	80	2	14	1	10	22	0	0	33	0	30	0	0	1	8	0	1	0	7	0	9	11	43	8	0	6	1	0	15	157	37	0	0	0	12	6	76	0
OTU 103	13	183	1	70	4	9	76	51	6	123	3	13	3	2	57	35	1	3156	2	1	17	3	12	8	2	104	43	64	3	0	9	0	6	9	5	19	2	6	17	1	23	1	100	3	0	0	194	82	50	86
OTU 104	1221	89	69	6	142	19	13	6	21	25	31	5	97	118	157	1	6	10	50	34	101	51	50	33	76	28	112	60	4	18	14	68	28	7	89	15	3	11	35	32	13	33	805	14	204	93	52	114	5	1
OTU 105	7	13	0	4	1	0	0	0	6	2	0	2	0	4	7	5	1	70	5	2	0	18	141	49	23	2	182	1	1	1	0	3	1	0	4	66	0	1	0	0	0	0	0	19	6	31	1	0	1	17
OTU 106	0	0	0	79	0	0	0	0	101	0	10	4	7	3	11	0	11	0	0	16	0	2	0	20	8	0	94	0	0	1	2	0	38	0	11	1	0	0	3	0	0	1	2	0	128	5	2	0	0	0
OTU 107	12	3	0	0	1	13	49	0	13	0	5	0	4	1	1	1	0	4	1	0	5	0	5	1	46	0	14	0	0	6	5	0	45	4	31	1	0	12	6	0	14	13	7	0	3	1	0	559	6	1
OTU 108	2	2	0	16	5	2	34	17	11	49	23	1	0	16	16	0	0	122	3	46	23	15	52	10	3	5	5	0	19	3	3	3	7	0	23	6	1	22	13	73	1	33	0	0	199	13	4	12	1	25
OTU 109	0	0	0	0	0	0	0	0	0	0	0	0	0	0	0	0	0	0	0	0	0	1	0	0	0	0	0	0	9	0	0	0	0	0	0	0	0	0	0	0	0	0	0	0	0	0	0	0	0	0
OTU 110	84	1	11	23	20	0	85	25	165	106	0	1	93	9	38	5	4	59	18	3	4	24	0	83	6	2	392	16	0	12	3	4	148	4	101	64	0	2	11	109	7	317	25	2	81	36	2	43	6	97
OTU 111	0	0	0	3	0	0	0	17	0	0	3	0	256	0	2	0	0	0	3	0	0	9	0	14	12	0	37	3	0	0	1	0	3	0	0	0	0	0	1	0	0	0	0	0	13	1	14	1	5	0
OTU 112	24	1	70	32	0	3	6	6	1	1	12	0	87	11	0	9	0	0	560	0	8	70	0	1368	2	20	0	0	11	18	0	34	1	0	0	693	0	0	0	5	5	0	15	43	13	1192	99	0	13	6
OTU 113	0	0	0	0	0	1	20	0	0	0	0	0	3	0	0	0	0	1	0	4	0	0	0	1	0	0	0	0	2	0	0	0	32	0	2	1	0	0	11	0	0	0	6	1	0	0	0	3	0	0
OTU 114	117	56	83	27	97	2	53	119	150	143	45	60	35	34	78	116	26	53	20	22	56	3	99	73	11	26	116	12	22	12	264	38	1779	1	74	63	25	12	26	36	1	97	359	4	14	38	15	6	0	8
OTU 115	16	12	68	5	133	4	106	37	4	103	53	232	56	129	88	399	8	26	92	9	121	859	152	55	173	36	32	14	5	20	95	15	0	2	35	25	21	36	52	111	4	21	49	17	208	231	7	83	27	97
OTU 116	0	37	27	0	130	5	7	19	15	30	8	23	1	108	2	37	16	11	98	1	4	82	104	76	21	9	11	34	42	6	90	69	2	0	6	10	6	10	61	40	8	1	81	12	39	163	47	28	87	33
OTU 117	0	1	1	0	0	14	16	1	28	31	7	643	18	18	48	32	3	56	17	79	32	0	35	15	56	5	12	6	12	2	10	2	2	6	12	36	0	9	33	37	18	0	5	0	3	26	17	2	8	19
OTU 118	8	0	45	42	71	0	5	3	0	11	2	1	2	0	0	0	15	0	10	0	1	0	0	133	0	1	0	0	0	0	26	3	16	4	0	36	10	0	0	0	7	8	7	0	17	4	5	0	1	3
OTU 119	88	4	23	7	75	38	68	50	0	56	18	8	196	0	34	23	11	18	6	46	6	4	83	35	7	33	43	2	37	0	8	5	6	12	3	0	631	36	11	31	28	20	28	4	176	22	23	59	10	10
OTU 120	0	14	255	0	6	0	11	19	2	30	2	17	7	0	165	34	0	0	0	37	27	2	4	4	18	4	5	7	5	0	0	0	47	4	22	5	4	2	258	0	13	32	24	0	1	0	2	13	0	5
OTU 121	1	3	1	66	0	11	15	22	0	35	14	51	4	1	0	118	49	3	12	20	9	3	52	5	5	32	56	17	0	3746	15	17	3	8	1	33	21	34	6	21	13	20	2	12	2	8	6	39	3	44
OTU 122	34	1	16	38	0	6	1	6	24	20	65	26	13	1	14	39	14	92	0	4	48	35	85	0	165	5	67	2	0	2	0	6	40	14	4	9	3	41	38	18	25	75	55	2	5	0	26	24	9	57
OTU 123	333	359	190	1294	240	52	193	208	307	466	34	299	117	81	285	636	15	16	55	134	65	26	290	228	178	352	371	93	110	111	180	100	87	34	107	63	29	77	207	107	71	90	150	31	343	85	142	357	179	26
OTU 124	2	1	0	2	7	3	0	0	0	38	0	0	3	0	4	0	3	6	11	0	0	0	0	3	2	4	0	0	2	6	0	0	2	0	0	7	0	1	36	0	0	38	6	0	28	22	69	0	0	7
OTU 125	43	117	5	321	177	10	32	487	94	745	57	17	447	207	184	35	3	46	37	91	74	56	90	93	399	58	159	101	26	52	656	129	183	2	41	117	4	53	96	84	4	40	154	37	231	66	471	39	85	162
OTU 126	0	0	20	0	82	0	0	0	0	1	0	0	0	0	0	2	0	0	6	0	0	4	0	15	0	0	22	0	0	0	25	0	0	0	0	7	0	0	1	0	1	7	0	0	0	9	0	6	0	28
OTU 127	2	20	171	0	39	419	1	5	16	95	0	15	55	10	0	26	7	0	100	15	7	29	24	30	0	35	49	0	56	5	6	93	3	3	0	3	7	1	0	0	13	1	48	42	2	232	0	3	15	0
OTU 128	138	170	71	176	184	97	438	211	1168	186	94	135	158	126	83	355	58	187	119	111	76	24	44	330	300	105	356	139	563	33	473	30	309	142	179	28	3217	134	100	259	262	163	1405	19	215	214	30	267	32	857
OTU 129	0	0	11	0	3	0	0	1	0	0	29	0	5	40	0	0	0	0	0	0	0	41	0	4	0	1	30	0	0	1	0	0	0	0	0	12	0	0	0	0	0	5	0	0	0	0	17	0	77	15
OTU 130	4	17	9	53	7	5	38	13	25	0	26	21	13	49	8	74	6	112	2	10	5	1	7	18	0	2	43	0	9	5	38	4	22	2	23	1	8	0	3	0	1	158	9	0	37	15	1	28	59	65
OTU 131	1	6	23	43	4	0	45	43	0	146	42	16	47	131	111	2	87	36	32	5	38	39	213	0	4	2	39	49	73	5	63	17	41	0	3	4	56	45	102	37	2	214	63	3	7	54	14	403	0	2
OTU 132	53	25	0	0	12	2	4	0	20	0	10	0	30	1	13	8	5	17	3	5	0	1	28	0	1	4	0	0	0	0	0	0	0	1	12	9	0	5	0	0	3	27	70	0	28	18	60	0	0	1
OTU 133	3	0	0	0	0	0	0	3	0	0	0	1	0	10	0	0	0	198	5	0	1	0	4	21	0	5	9	0	13	0	0	2	0	0	0	3	0	4	0	0	0	4	0	0	17	2	0	0	1	1
OTU 134	171	2	0	29	17	68	9	2	0	26	21	4	6	113	104	0	2	24	11	25	2	4	26	106	14	1	51	29	19	12	1439	18	13	69	19	21	3	98	13	2	136	1	1	15	49	22	84	5	2	32
OTU 135	40	6	14	119	77	86	0	0	45	57	4	359	5	11	14	738	40	9	0	21	10	3	7	131	0	8	71	55	27	4	13	69	159	5	37	26	9	67	6	0	16	45	12	45	47	2	172	22	33	0
OTU 136	45	20	35	1	0	0	18	2	9	0	114	3	8	25	73	7	0	8	0	34	0	99	6	22	9	3	5	0	10	9	35	4	29	0	272	16	2	41	80	14	0	661	62	11	0	1	0	44	1	3
OTU 137	57	0	6	5	9	0	8	4	0	0	0	0	2	0	2	0	2	0	1	0	2	0	4	0	60	0	5	0	0	0	0	0	6	1	0	1	6	11	0	1	5	0	0	2	2	5	5	13	39	5
OTU 138	1	0	16	22	0	36	1	257	2	452	125	2	0	82	30	0	20	3	1	0	3	19	1	2	0	26	0	0	0	0	18	1	0	8	0	27	4	0	0	0	15	19	0	1	41	0	213	10	1	0
OTU 139	148	32	14	52	178	24	46	24	26	229	35	89	5	25	133	131	18	77	39	50	41	22	64	191	234	13	86	77	41	7	41	7	8	13	78	470	61	16	63	8	27	135	226	16	41	65	20	51	74	14
OTU 140	241	49	106	48	31	23	67	30	78	75	35	31	4	159	18	34	36	2	23	32	135	115	239	379	34	35	128	244	23	32	742	14	216	15	83	156	17	52	43	158	29	123	53	23	531	35	129	248	96	83
OTU 141	0	0	0	0	0	0	0	34	0	29	0	0	0	0	0	0	0	1	0	0	0	0	0	0	2	0	0	1	0	0	0	1	0	0	0	0	0	0	0	0	0	0	0	0	0	0	0	0	0	0
OTU 142	0	0	0	0	9	0	47	1	0	0	0	0	0	50	0	0	0	0	0	0	0	5	4	0	13	2	36	3	5	1	0	0	0	0	0	0	0	3	0	0	0	1	7	0	0	0	0	1	20	2
OTU 143	0	0	0	6	5	0	4	3	0	0	0	12	0	0	1	27	856	0	6	3	3	0	6	0	1	6	0	0	0	2	0	0	61	0	1	0	531	1	0	0	0	0	7	0	0	10	0	0	0	3
OTU 144	29	4	22	0	8	0	3	53	0	94	4	4	5	0	0	7	0	0	6	0	0	2	20	0	11	0	0	0	3	0	0	2	0	0	12	1	0	0	4	1	2	0	50	0	0	2	0	0	0	20
OTU 145	19	51	4	33	101	1	21	4	45	29	24	57	2	81	39	89	43	11	6	7	48	15	5	68	53	2	41	39	314	2	58	24	17	2	16	30	11	4	1	2545	3	26	20	6	63	4	70	109	79	44
OTU 146	3	27	10	93	8	3	48	13	0	9	35	0	130	28	37	4	5	49	12	6	0	4	131	104	151	92	162	8	44	42	8	106	50	7	1720	58	9	26	11	11	10	3	9	26	10	26	7	35	60	26
OTU 147	8	0	0	0	6	0	1	0	0	0	20	1	45	32	73	5	0	38	0	3	0	3	0	3	76	4	0	0	0	0	25	2	8	2	21	3	0	0	1	18	4	24	5	0	4	1	1	3	41	0
OTU 148	30	33	6	1150	2	4	6	19	10	35	9	4	38	0	229	29	12	3	7	103	504	1	25	7	71	1	127	1	115	24	14	2	51	3	1	0	21	5	3	622	4	2	89	7	0	14	33	484	17	169
OTU 149	19	0	0	0	0	1	0	1	1	97	0	0	278	30	5	0	0	8	19	0	0	12	4	57	6	0	2	13	0	2	26	32	9	6	0	8	0	13	0	7	24	0	47	1	0	41	3	0	0	38
OTU 150	11	2	46	2	0	3	8	0	10	2	0	0	10	0	0	3	0	3	0	5	1	2	52	6	0	0	6	14	9	3	0	0	12	7	32	0	11	18	67	2	15	12	0	0	207	0	0	0	1	0
OTU 151	6	0	6	2	1071	0	6	7	1083	0	14	661	108	40	16	0	797	35	16	4	6	10	3	25	59	11	21	7	1	2	2	11	19	4	5	6	262	5	12	18	9	2	14	1	7	57	1	111	0	2
OTU 152	64	10	38	0	29	5	78	62	23	81	83	2	6	1781	81	31	10	19	2	44	1461	819	83	76	293	20	65	0	32	3	162	6	14	3	474	54	15	36	40	4	5	914	62	0	116	3	54	36	1	4
OTU 153	0	0	0	0	0	0	8	8	0	1	0	0	0	0	0	0	0	0	1	0	0	0	16	0	0	0	0	0	0	6	0	57	0	0	0	0	0	0	1	0	0	7	0	12	0	3	0	0	0	0
OTU 154	0	1	0	0	0	2	0	23	0	50	0	1	0	0	0	3	0	1	3	0	0	0	0	0	0	0	0	2	0	0	0	0	0	0	0	0	0	1	6	0	0	0	0	0	0	6	0	0	22	0
OTU 155	0	53	29	0	25	0	3	12	8	36	1	28	11	0	55	42	0	0	3	0	0	5	3	15	4	0	1	17	10	1	14	0	0	0	969	34	0	5	1	15	0	1580	33	1	1	4	0	25	61	3
OTU 156	44	15	56	72	19	6	50	122	44	194	18	34	131	64	40	69	33	19	17	6	0	58	62	79	63	30	60	1	11	1	215	9	60	7	1	46	19	7	47	21	15	11	92	4	58	16	14	0	37	0
OTU 157	0	29	0	0	0	26	0	5	0	3	4	1	1	0	1	1	0	0	0	26	0	19	86	0	2	10	0	21	0	10	0	32	4	21	0	3	19	36	21	3	51	0	0	9	0	0	0	0	107	0
OTU 158	0	5	0	0	0	0	0	0	0	0	0	0	6	0	0	0	0	0	0	0	0	0	0	0	0	0	0	0	0	0	0	0	0	0	8	0	0	0	0	0	0	2	0	0	36	0	0	11	1	0
OTU 159	13	58	62	30	11	2	29	6	41	1	11	8	37	8	0	25	4	14	0	13	3	0	5	0	17	48	13	1	0	0	45	1	55	1	60	0	14	1	4	0	3	0	12	1	1	0	2	861	18	0
OTU 160	255	44	19	20	134	71	74	67	87	37	53	131	83	12	60	342	27	112	3	82	147	35	33	97	168	33	95	135	125	23	16	3	56	78	9	39	21	46	157	759	149	104	59	4	35	6	33	273	250	66
OTU 161	49	116	6	50	17	85	8	4	0	4	13	7	3	32	4	0	9	9	1	139	1625	106	71	47	1	20	2	8	0	7	28	34	33	78	17	48	9	20	0	0	141	36	0	8	2	11	2	141	85	161
OTU 162	99	7	10	913	10	28	0	9	186	70	482	7	13	34	3	22	16	25	2	2	52	4	68	71	96	3	44	2	1	97	7	32	88	63	62	27	2	4	32	32	116	34	91	11	1	0	17	0	69	11
OTU 163	0	13	0	0	1573	0	0	0	0	0	6	8	0	0	0	25	0	1	0	0	0	0	0	1	0	0	0	0	0	2	0	0	0	0	0	0	0	0	0	0	0	0	0	0	0	0	1	0	9	0
OTU 164	0	0	0	0	0	1	0	0	0	0	0	52	0	17	0	134	0	0	7	0	0	0	0	0	7	0	0	0	0	2	0	0	0	0	0	0	0	0	0	0	0	0	0	0	0	0	1	0	0	2
OTU 165	18	0	7	1	1	0	0	53	141	157	9	0	0	14	15	1	1	15	3	15	2	0	0	2	0	2	26	75	5	17	2	2	111	0	29	0	1	8	0	27	0	0	2	0	0	3	3	39	38	11
OTU 166	281	0	0	0	0	1	0	0	0	0	0	1	0	0	0	4	0	0	0	0	0	2	8	0	0	0	0	0	21	0	0	1	0	0	0	0	0	0	10	0	0	0	0	0	0	0	1	0	0	0
OTU 167	27	16	15	0	12	0	16	4	20	18	16	0	104	44	5	0	52	0	5	47	1	109	60	5	1	4	45	26	35	0	1	0	0	0	6	0	0	9	31	0	0	2	133	0	0	24	6	1	4	7
OTU 168	139	0	1	1	4	4	123	2	57	3	8	53	43	1	3	66	11	50	1	9	0	11	33	0	5	1	0	8	50	3	2	7	0	3	34	5	0	7	14	87	7	2	19	20	166	0	63	1	18	24
OTU 169	0	0	0	0	0	0	25	0	1	0	0	12	0	0	2	43	0	0	7	0	0	0	0	0	0	0	0	0	0	0	23	0	0	0	0	0	8	1	14	0	0	0	0	0	0	15	52	0	0	0
OTU 170	0	0	0	0	153	0	0	0	0	0	0	0	0	0	0	0	15	0	0	0	0	1	0	0	0	0	0	4	0	0	0	0	0	0	0	0	0	0	0	0	0	86	20	0	1	0	0	0	0	0
OTU 171	6	0	27	0	0	2	10	6	27	19	5	4	11	0	5	16	0	1	20	0	0	17	12	35	0	15	83	3	79	0	6	6	0	7	4	33	0	27	18	5	20	3	204	0	31	22	75	100	13	3
OTU 172	0	0	0	0	0	0	0	0	39	0	0	0	0	0	0	0	0	95	36	2	0	4	70	12	11	9	201	0	0	26	0	1	263	0	0	43	0	2	168	0	0	8	0	0	9	71	1	0	0	0
OTU 173	10	0	60	0	3	0	0	13	2	21	3	7	7	27	41	9	0	2	12	4	19	0	46	0	2	1	7	2	0	0	0	0	1	2	0	0	0	2	0	0	7	3	15	0	10	22	10	7	29	0
OTU 174	8	0	2	17	4	0	6	0	12	0	12	2	60	2	0	2	851	1	14	1	5	0	161	2	404	1	22	1	52	7	6	4	0	0	0	9	483	1689	22	4	0	9	3	2	12	42	129	463	38	18
OTU 175	22	39	0	5	3	0	16	1	34	6	0	13	33	6	10	13	0	0	3	6	1	0	2	35	0	1	12	14	23	0	63	1	17	0	22	10	6	6	1	1	0	0	0	0	25	0	2	0	3	26
OTU 176	4	117	59	12	71	51	8	8	38	15	3	58	62	12	109	111	19	0	25	20	6	8	34	10	302	137	255	9	44	734	14	1528	6	35	27	1	8	25	30	3	80	56	23	818	58	77	57	84	1	12
OTU 177	184	68	72	9	167	0	6	0	24	28	2688	76	40	53	166	154	8	23	10	100	0	44	10	0	43	13	47	3	26	33	4	16	92	0	62	25	2	10	8	5	1	3	50	0	40	11	48	24	526	27
OTU 178	21	0	8	0	0	0	9	1	0	5	10	3	0	17	0	18	0	8	12	5	6	2	16	0	136	0	5	8	7	4	12	18	5	0	0	2	0	0	0	6	0	24	19	4596	114	5	13	0	101	2
OTU 179	0	0	12	0	43	0	2	8	0	56	0	17	4	39	9	37	19	48	15	40	12	10	2	0	22	2	1	2	6	67	0	7	9	0	11	7	5	24	0	0	1	9	4	0	4	34	0	33	4	18
OTU 180	160	85	53	172	74	46	4	97	235	278	136	125	118	124	69	291	25	122	10	16	41	26	119	117	137	3072	118	275	22	23	102	50	146	40	68	33	74	64	49	59	67	39	41	17	139	8	327	147	52	74
OTU 181	1	23	0	26	2	3734	1525	68	24	132	1	0	17	0	12	1	5	26	0	8	5	1	0	34	9	118	2	11	7	3	5	1	15	0	5	22	2	1	26	654	0	31	0	6	196	4	4	0	8	2
OTU 182	0	0	0	0	0	0	0	1	0	0	0	0	0	0	0	0	0	1	0	0	0	0	4	17	25	0	0	0	0	0	0	2	0	0	0	0	0	0	0	0	0	0	0	0	0	0	0	0	0	0
OTU 183	8	153	22	15	69	0	0	131	0	250	1	10	28	0	1	35	27	0	5	4	3	7	0	2	92	70	406	2	1	0	180	3	19	0	15	0	3	1	0	2	1	117	44	5	9	4	1	117	0	41
OTU 184	0	30	65	1	1	8	1	0	20	0	13	0	0	71	0	0	0	22	0	0	5	6	10	19	54	0	22	3	0	324	26	546	12	3	16	3	4	0	3	0	2	7	47	314	18	9	25	1	0	54
OTU 185	8	151	0	536	22	2	22	4	400	43	13	31	72	687	3	58	8	560	21	5	202	245	0	2	97	63	39	92	0	0	0	13	3	0	259	28	13	21	42	12	3	667	107	1	7	53	32	110	5	54
OTU 186	0	0	0	5	28	0	0	0	59	4	0	665	0	0	0	1105	0	1	18	1	27	5	0	2	32	2	7	8	2	0	0	2	0	0	1	0	3	0	1	2	0	0	0	0	7	45	20	11	0	0
OTU 187	21	68	7	1	36	34	95	45	2	119	7	8	91	67	35	23	13	13	31	22	7	25	7	42	63	53	12	82	28	6	12	27	30	51	18	2438	6	60	8	119	117	20	137	6	109	65	162	35	40	149
OTU 188	152	99	4	14	45	14	24	10	28	10	371	34	321	40	2	104	7	84	40	12	2	13	7	74	64	93	21	62	94	11	5	31	72	3962	40	16	8	8	7	20	5	4	108	28	93	62	11	85	13	2138
OTU 189	0	61	19	16	45	37	51	1	48	7	54	9	102	170	46	18	1	37	10	10	76	73	33	57	32	3	19	37	60	31	10	27	11	8	9	16	17	1	41	57	19	23	17	4	2	26	61	47	204	17
OTU 190	0	0	0	0	0	0	0	0	3	0	2	0	459	0	2	0	0	0	7	0	0	0	0	38	0	0	1	73	141	1	0	0	22	2	0	5	1	0	1	0	3	0	12	0	0	7	0	162	23	0
OTU 191	106	37	10	39	20	5	1	344	54	57	456	4	32	71	140	36	2	18	0	0	60	58	101	31	2	9	33	6	3	10	35	8	168	5	40	39	5	21	476	8	6	9	50	17	230	5	524	11	18	24
OTU 192	85	93	7	8	47	10	116	23	41	33	96	244	88	8	55	509	126	77	48	73	11	10	340	84	31	18	41	17	6	867	47	2075	27	519	20	13	42	137	66	73	35	23	338	1004	36	82	52	38	31	156
OTU 193	2	18	18	52	15	12	80	18	140	51	10	3	39	0	3	21	3	80	26	0	11	25	2	20	141	1	68	0	52	0	0	1	1	6	9	11	6	2	38	13	9	15	33	31	37	32	37	17	1	31
OTU 194	143	66	12	5	70	2	3	0	23	0	0	10	0	0	37	46	0	1	4	0	0	17	0	16	7	37	129	6	17	15	5	79	20	19	38	4	4	4	0	3	47	9	2	29	0	30	0	0	24	0
OTU 195	157	0	43	8	96	4	35	3	1	3	9	5	26	70	15	3	1	2	22	2	35	52	10	26	24	5	66	1	3	19	19	1	5	4	7	19	0	7	61	4	10	81	5	7	60	47	309	59	76	20
OTU 196	99	2	129	2	98	1	40	1	172	26	0	0	241	3	3	1	1114	54	9	11	39	0	107	10	42	11	1	69	27	0	5	1	6	3	4	0	834	19	36	4	7	53	29	7	71	27	29	145	6	0
OTU 197	439	13	65	15	88	76	98	34	26	45	26	38	78	42	50	75	19	25	40	32	30	13	16	41	24	966	166	60	53	43	17	25	322	67	9	18	68	23	53	39	122	39	22	15	119	92	69	1	110	6
OTU 198	14	0	6	1	109	5	25	0	18	7	25	2	3	0	0	2	4	0	2	0	0	0	28	2	84	0	4	37	0	0	0	0	8	0	6	0	1	2	8	89	0	0	222	0	8	9	0	0	0	2
OTU 199	0	2	0	17	19	0	0	11	59	29	10	34	40	0	2	74	27	26	0	31	1	0	37	2	79	12	14	63	41	15	0	0	0	1	0	4	0	23	7	7	1	17	7	3	14	3	105	1	12	14
OTU 200	0	162	17	8	14	4	65	13	0	1	96	0	0	165	12	4	2	62	16	0	1	52	58	19	73	40	21	12	42	57	20	83	2	0	316	13	17	53	8	6	1	0	33	8	20	9	14	49	5	232
