	Host 1	Host 2	Host 3	Host 4	Host 5	Host 6	Host 7	Host 8	Host 9	Host 10	Host 11	Host 12	Host 13	Host 14	Host 15	Host 16	Host 17	Host 18	Host 19	Host 20	Host 21	Host 22	Host 23	Host 24	Host 25	Host 26	Host 27	Host 28	Host 29	Host 30	Host 31	Host 32	Host 33	Host 34	Host 35	Host 36	Host 37	Host 38	Host 39	Host 40	Host 41	Host 42	Host 43	Host 44	Host 45	Host 46	Host 47	Host 48	Host 49	Host 50	
OTU 1	5	52	223	45	110	0	6	3	68	105	0	6	8	49	65	108	0	52	51	77	8	3	50	5	4	2	113	89	103	8	48	22	5	125	4	43	0	109	0	58	116	25	0	15	27	12	55	0	1	78
OTU 2	145	0	92	119	37	6	16	10	0	0	2	55	3	0	0	0	36	12	11	0	0	0	15	1025	21	182	38	2	40	5	0	13	107	2	12	80	17	0	1	1	994	7	10	4	158	13	1	31	1	0
OTU 3	1	0	0	0	0	143	2	1	14	0	0	4	1	0	0	3	3	0	0	0	0	3	0	22	0	1	0	8	3	37	1	0	1	18	19	0	2	15	0	2	0	0	3	0	1	0	0	0	82	1
OTU 4	0	0	0	0	0	0	0	0	0	0	0	0	0	0	0	0	0	0	0	0	0	0	0	0	0	0	0	0	0	0	0	0	0	0	0	0	0	0	0	0	0	0	0	0	0	0	1	0	0	0
OTU 5	406	219	9	71	3	713	522	125	459	463	468	332	1803	1802	342	548	744	134	285	865	0	220	320	250	1	170	64	97	866	126	466	131	133	138	280	0	0	161	459	586	23	56	520	6	0	912	386	54	6	0
OTU 6	50	5	3	32	1	8	11	61	67	1	7	6	37	6	88	6	4	13	1	11	34	18	78	8	0	65	56	1	100	9	0	92	52	21	39	16	6	15	33	15	1057	21	738	24	4	77	18	6	0	77
OTU 7	150	65	107	24	59	11	226	151	14	31	36	32	84	20	4	8	441	78	40	4	32	14	11	36	58	78	32	48	53	101	5	14	183	47	808	163	1745	84	11	39	24	650	131	62	107	22	78	40	28	183
OTU 8	25	78	6	23	2	35	17	37	18	59	62	4	76	19	17	2	67	10	33	14	40	89	3	86	82	49	23	61	28	63	8	23	204	55	2632	88	365	9	2515	18	29	95	90	101	15	15	55	191	14	227
OTU 9	9	0	41	1	22	2	1	1	21	38	0	13	0	0	0	0	20	3	5	2	124	1	0	8	21	23	0	3	38	59	0	4	15	0	0	0	18	2	1	4	18	0	7	12	39	5	6	3	0	13
OTU 10	0	19	4	3	1	28	0	6	0	33	0	1	12	1	0	0	24	1	24	4	0	1	10	36	337	12	11	9	0	13	4	0	14	4	579	17	14	2	0	0	4	340	2	6	0	0	0	0	6	7
OTU 11	26	44	6	11	3	2	27	72	32	3	43	28	32	22	5	53	36	30	55	21	52	60	10	43	53	0	21	58	5	61	26	0	13	11	0	16	60	98	6	5	2	14	34	92	257	24	17	3	11	33
OTU 12	8	129	17	29	7	72	5	85	2	1	12	3	12	26	9	3	105	52	26	60	98	6	1	17	10	6	15	64	45	60	1	9	59	1	35	9	126	41	46	4	4	6	77	4	4	72	6	8	31	77
OTU 13	0	1	0	0	0	34	0	0	0	0	0	8	0	0	0	0	0	0	0	0	0	0	0	0	77	0	0	0	0	0	0	0	5	10	36	2	0	0	0	4	0	0	0	0	0	0	0	1	112	125
OTU 14	0	55	0	0	0	42	2	4	6	1	1	0	0	0	1	9	28	5	0	0	112	148	8	4	5	36	16	72	0	0	0	14	6	14	7	0	0	0	1	0	0	14	21	77	0	2	3	0	28	23
OTU 15	0	26	0	2	0	1	0	0	0	0	23	0	0	20	0	8	0	64	0	33	0	0	0	0	0	0	0	11	0	0	0	4	1	0	2	0	0	0	0	35	0	321	0	0	0	0	0	0	0	0
OTU 16	0	0	0	3	0	0	0	0	0	0	0	0	0	1	0	0	0	0	0	0	0	0	0	0	1	0	0	0	0	0	0	0	0	0	0	0	0	0	0	0	0	0	0	0	0	0	0	0	0	0
OTU 17	0	8	40	0	30	23	26	5	28	0	16	3	3	1	1	0	12	25	11	1	123	0	15	1	241	14	34	0	11	7	0	7	4	4	0	7	47	9	1	19	62	28	0	12	41	2	3	14	25	111
OTU 18	2	98	16	169	9	132	38	0	2	15	39	198	58	7	25	43	12	53	10	11	12	18	23	34	4	161	36	3	46	48	26	17	14	0	3	46	45	3745	42	3	8	45	23	109	82	23	35	84	60	9
OTU 19	0	0	0	0	0	0	0	0	0	0	0	0	2	0	0	0	0	0	0	0	0	1	0	0	0	0	0	0	0	0	0	0	0	0	0	0	0	0	0	0	0	0	0	0	0	0	0	0	0	0
OTU 20	5	8	26	2	15	243	5	18	10	10	89	17	1	5	8	0	6	45	7	5	8	29	7	4	9	162	10	5	1	25	0	15	12	26	18	12	22	19	27	4	62	1	0	73	0	24	71	1	42	25
OTU 21	4	53	54	35	30	197	67	41	30	8	5	0	78	0	31	30	56	61	1110	2	154	86	11	1	73	8	38	3	28	146	3164	13	115	11	5	6	23	17	47	2	66	16	78	11	6	29	74	14	15	25
OTU 22	46	10	2	5	1	14	1	44	15	15	66	52	110	5	28	49	36	125	24	8	1	145	19	1	0	48	28	187	3	229	24	5	3	2658	7	9	105	213	73	0	60	7	45	33	26	78	5	7	2	2
OTU 23	1	0	1	8	0	2	18	38	0	39	63	44	33	1	28	43	0	2	39	0	10	1	0	15	1	20	0	8	0	19	9	0	0	4	1	3	137	13	4	5	53	0	5	198	6	0	17	3	7	33
OTU 24	8	19	0	5	0	8	2	3	0	1	3	2	26	4	35	0	37	0	25	8	502	0	4	0	2	4	13	1	1	47	0	41	1	2	8	0	0	0	10	1	0	57	0	21	2	0	1	11	2	12
OTU 25	0	1	0	0	0	1	0	0	0	13	0	0	0	0	0	8	0	0	0	0	0	0	0	0	2	0	0	27	0	0	1	0	0	0	4	0	0	0	0	0	0	0	0	0	0	0	0	0	0	0
OTU 26	1	5	0	12	0	0	0	0	0	14	2	0	45	0	0	0	0	0	2	0	0	63	0	0	0	43	0	0	0	0	0	7	2	0	414	0	9	1	0	0	9	1	0	7	14	4	0	49	2	1
OTU 27	0	0	0	0	0	2	0	0	4	0	0	0	0	1	0	2	1	1	0	0	0	0	8	0	0	0	13	0	0	0	0	6	0	0	2	0	0	0	0	0	8	1	0	0	0	1	0	0	0	0
OTU 28	101	135	64	56	31	33	7	2	4	52	4	11	75	9	28	1	14	22	39	48	57	2	42	20	189	212	69	39	15	37	1	22	59	3	49	2	38	3	6	10	34	66	34	42	36	2	77	72	139	2
OTU 29	13	4	118	12	60	4	136	26	30	0	64	10	31	27	62	81	26	106	19	28	128	98	66	14	13	11	158	7	51	23	30	42	133	5	1	68	219	9	9	22	1	27	2	49	69	1	37	1	108	294
OTU 30	0	0	0	7	0	0	0	0	0	0	0	0	0	0	0	0	0	0	0	0	0	0	0	0	0	0	0	0	0	0	0	0	0	0	0	0	9	0	0	0	0	0	0	0	0	0	0	0	0	0
OTU 31	0	0	0	0	0	1	3	0	0	25	4	1	1	0	27	5	0	1	0	0	98	0	28	28	0	14	68	28	0	23	2	21	0	0	15	1	0	4	3	2	28	0	17	0	0	0	0	19	5	0
OTU 32	157	64	5	36	4	44	83	37	28	79	44	15	4	903	1604	17	16	13	48	104	12	154	616	130	3	83	1185	248	5	230	6	639	55	73	55	6	229	128	359	51	8	20	57	58	461	606	39	82	33	10
OTU 33	0	0	0	0	0	2	0	0	0	0	0	0	0	9	30	0	0	0	1	2	0	0	2	1	42	9	1	0	0	2	0	0	0	2	1	0	0	0	8	0	0	0	0	0	0	12	0	0	0	0
OTU 34	9	95	68	76	71	16	19	136	0	119	82	0	24	0	0	37	3	27	1	17	51	7	5	4	46	30	13	32	61	40	35	6	17	1	4	76	13	14	14	1	34	0	15	91	5	4	0	0	5	5
OTU 35	16	7	4	48	2	127	0	0	4	1	3	1	23	1	0	33	44	19	35	2	524	15	7	129	2	17	22	1	9	2	45	15	1009	0	3	0	74	37	227	0	105	0	6	79	38	454	94	10	12	14
OTU 36	3	6	26	13	17	23	0	134	1	16	37	17	1	22	33	16	3	29	5	21	72	20	4	40	141	112	16	55	27	1	0	9	67	9	59	2	67	4	67	19	8	107	177	1	5	93	22	73	21	53
OTU 37	58	0	0	37	0	7	0	0	1	0	2	3	2	0	50	0	0	0	1	0	21	0	31	32	71	42	30	3	0	26	1	23	0	0	1	0	1	0	4	1	0	0	19	11	98	0	113	11	555	9
OTU 38	4	21	3	25	1	184	3	90	10	0	45	0	41	0	5	12	45	70	7	8	14	40	0	19	0	10	0	213	2	35	1	11	57	0	3	6	5	1	0	2	15	43	23	397	106	6	23	10	2	96
OTU 39	17	22	0	0	0	0	14	2	12	1	1	0	6	1	0	0	0	0	0	0	29	4	0	0	0	1	0	0	1	0	0	0	0	0	0	9	1	0	4	0	1	4	0	12	0	3	12	152	23	50
OTU 40	40	10	28	1	10	14	118	108	17	137	13	5	90	0	39	76	77	18	1	0	246	27	6	39	177	53	12	711	9	3	54	0	13	13	0	31	63	7	931	3	31	39	1	19	82	1742	219	0	8	39
OTU 41	18	14	14	2	8	24	1098	51	2	96	45	58	31	51	60	4	10	83	9	63	21	5	17	0	5	26	8	155	14	0	16	9	0	0	14	8	23	8	3	87	12	38	8	16	14	5	72	2	72	6
OTU 42	0	34	0	317	0	25	5	3	8	0	0	1	7	0	0	70	2	0	0	0	0	0	1	3	16	1	2	102	29	0	18	2	0	4	0	0	0	0	0	2	0	8	8	0	50	0	1	0	0	0
OTU 43	0	0	10	0	6	0	0	0	5	0	0	0	0	0	0	0	0	0	0	0	0	0	0	0	0	0	0	0	0	1	0	0	0	0	0	0	0	0	0	0	0	1	0	0	0	0	0	23	0	12
OTU 44	0	0	2	0	1	0	0	1	38	10	177	0	0	0	0	18	0	246	0	4	32	0	0	3	0	0	0	0	10	1	2	3	0	0	1	3	17	0	1	0	0	0	2	0	0	0	3378	0	0	2
OTU 45	16	122	175	63	84	66	76	31	0	31	5	4	37	3	13	5	8	16	28	33	45	32	3	3	50	16	25	30	143	39	6	1	130	9	15	146	34	7	17	0	9	13	70	68	71	27	12	70	0	57
OTU 46	604	18	30	525	23	24	10	122	9	44	41	60	135	41	22	98	10	137	85	60	11	103	3	68	77	151	6	38	31	125	53	7	36	2	47	68	1	45	2	22	0	59	31	27	1189	2	0	517	118	72
OTU 47	1	7	0	0	0	0	0	0	0	0	0	1	0	1	0	0	1	0	0	14	0	0	0	8	0	0	0	0	0	83	0	1	0	3	3	1	9	0	0	1	2	38	2	0	17	0	48	0	3	121
OTU 48	51	77	11	13	8	51	72	28	20	55	35	32	116	13	21	28	74	51	3	7	43	38	50	23	30	234	103	73	1	3	17	25	56	3	15	19	11	91	32	15	21	22	15	177	79	43	2	18	45	117
OTU 49	42	15	188	29	63	57	45	31	0	15	3	0	2	3	0	5	0	0	0	15	0	1	8	3225	14	1	24	71	70	0	1	11	50	0	1	36	6	6	72	2	0	2	3	0	28	83	6	0	2	37
OTU 50	65	67	22	182	11	180	3	16	29	97	2	1	94	9	17	15	1	12	1	37	381	90	1	150	56	123	6	3	0	6	17	19	15	31	37	6	1	30	15	7	312	50	86	249	22	4	29	12	4	10
OTU 51	46	1	7	0	3	8	31	82	73	8	29	5	9	48	28	24	29	176	27	61	1	0	14	20	8	74	53	59	8	248	7	22	1	60	390	24	131	9	13	0	0	340	2	96	48	27	74	41	2	6
OTU 52	11	2754	59	19	28	100	5	84	278	34	31	1	112	103	33	6	28	209	12	232	88	216	1889	147	86	145	198	132	30	14	7	101	10	127	151	13	71	165	18	97	147	173	161	398	38	153	21	276	33	54
OTU 53	0	0	0	0	0	0	0	0	0	0	0	0	0	0	0	0	0	0	0	0	0	0	0	0	0	0	0	10	0	0	0	0	0	0	0	0	0	0	0	0	0	3	0	0	0	0	0	0	0	21
OTU 54	6	25	79	21	38	248	161	45	50	21	46	15	131	10	23	3	117	171	4	54	5	49	54	97	7	11	69	36	52	81	5	41	33	73	11	4	38	136	45	8	88	15	0	79	7	72	27	251	15	16
OTU 55	0	0	0	0	0	0	0	0	0	0	0	1	0	0	0	0	0	0	4	0	0	0	0	0	0	0	0	0	0	0	0	0	0	0	0	0	0	0	0	0	0	0	0	0	0	0	0	0	0	0
OTU 56	0	16	31	21	12	3	11	55	1	1	3	1	16	21	2	2	0	16	1	12	29	0	0	7	3	35	3	41	1	1	0	1	6	8	3	6	23	46	0	2	0	0	16	254	23	17	3	3	6	31
OTU 57	199	190	75	77	45	64	58	0	57	16	49	115	91	25	31	222	68	33	109	38	39	53	1496	107	149	109	51	219	32	268	143	40	216	64	43	37	70	15	22	3175	200	29	40	88	244	25	53	91	281	34
OTU 58	3	4	5	32	3	71	73	17	13	0	13	19	24	40	3	10	0	160	0	99	53	24	0	5	169	8	0	26	4	1	0	3	85	11	3	0	2	24	0	5	2	54	4	0	0	4	20	28	35	0
OTU 59	8	0	100	11	61	0	20	3	2	5	1	0	2	2	7	0	29	40	0	1	6	0	1	1	149	0	0	84	22	12	0	0	18	69	0	53	102	8	24	0	5	0	118	113	6	3	46	0	0	0
OTU 60	7	4	2	40	0	42	12	136	68	22	63	7	82	21	7	21	39	100	12	81	154	0	5	17	131	247	9	92	9	22	5	1	69	85	71	1	116	7	47	121	4	106	4	0	133	54	22	18	8	94
OTU 61	137	112	163	79	91	920	164	112	3	104	38	17	5	28	2120	15	45	88	21	41	180	16	14	64	25	28	9	148	139	56	7	7	12	1	37	175	83	11	2	2	21	77	36	99	133	9	47	32	64	56
OTU 62	0	19	14	1	5	2	1	27	0	4	0	2	0	1	0	9	0	0	0	0	1	47	0	0	13	78	1	0	1	0	0	1	71	0	0	3	11	0	2	7	42	12	0	85	3	2	0	22	4	40
OTU 63	0	9	47	0	25	0	17	0	6	18	5	1	5	0	16	1	85	1	7	1	0	44	0	87	60	0	0	1	41	6	0	343	0	6	6	72	4	320	4	11	4	4	6	0	1	49	7	10	6	4
OTU 64	71	101	60	21	34	74	23	131	48	48	26	48	24	87	21	67	81	294	89	181	209	42	15	22	16	73	16	27	9	163	42	32	77	36	19	58	161	183	1147	160	67	69	88	402	323	91	39	262	190	130
OTU 65	92	0	0	21	0	0	1	3	0	0	0	0	0	10	0	0	1	0	16	2	0	4	0	0	0	0	0	0	0	0	0	0	514	0	0	0	0	0	0	0	0	0	0	0	0	0	0	5	42	0
OTU 66	34	28	13	2	8	34	0	43	36	38	11	39	38	32	8	115	3	129	33	36	105	40	2	12	48	2	10	3	1	35	44	0	16	53	13	5	106	7	41	39	20	3	96	11	3	85	11	7	34	244
OTU 67	5	33	78	23	27	47	3	1	47	47	1823	0	64	19	10	60	22	59	26	37	26	9	0	11	7	58	0	21	89	1	9	0	15	61	9	19	100	17	15	24	3	61	0	7	3	2	5	24	4	219
OTU 68	33	0	30	4	14	0	18	12	6	1	14	0	9	18	15	34	2	45	69	42	85	0	5	5	94	15	0	0	32	1	19	0	1	20	7	15	2	0	9	0	3	0	5	0	48	0	0	0	17	24
OTU 69	1	2	8	0	5	33	48	33	102	74	0	0	74	12	21	10	11	8	3	22	3	0	21	16	11	64	15	66	4	110	0	10	0	1722	22	4405	535	135	7	7	37	7	155	177	63	10	221	256	33	194
OTU 70	0	12	81	5	30	18	7	6	4	0	0	2	0	0	0	0	3	0	8	0	0	0	1	22	1	90	2	70	55	5	0	0	3	5	1	24	12	9	0	3	8	5	0	28	0	0	18	16	25	48
OTU 71	6	49	14	4	5	0	21	15	1	96	14	166	0	0	0	427	4	55	6	0	107	13	29	3	34	0	8	20	10	8	183	0	118	4	45	35	0	14	0	20	16	0	51	80	0	0	1	1	9	0
OTU 72	37	141	0	12	0	53	5	73	6	4	28	29	52	39	66	13	47	36	37	76	1	0	79	4	2	130	171	12	4	101	9	80	1	32	20	7	36	34	1	22	13	24	5	0	22	35	107	22	13	24
OTU 73	82	21	11	65	2	16	1	59	182	27	22	5	28	0	0	5	44	9	1	7	28	0	11	32	282	0	4	3	25	15	1	0	29	193	48	6	0	12	26	0	36	5	3	0	143	24	0	25	1	62
OTU 74	5	34	3	3	0	0	20	137	2	15	41	4458	43	1111	30	1	2	69	2	11	7	55	0	14	184	112	0	26	4	171	2	1	124	4	1	14	365	51	1	10	160	35	15	48	5	12	7	96	26	0
OTU 75	2	4	4	28	4	7	0	81	6	19	46	4	12	3	26	4	39	40	2	6	159	4	1221	68	606	8	101	108	9	84	4	97	58	4	22	10	100	38	137	0	18	1	55	61	5	148	67	25	10	2
OTU 76	17	0	2	6	0	1	24	0	5	5	0	0	0	1374	0	3	0	0	13	2	0	0	1	51	4	20	5	0	0	16	0	0	12	4	0	22	0	8	0	0	0	3	3	292	2	0	3	1	2	5
OTU 77	2	22	12	18	5	91	7	2	20	25	0	3	6	24	24	7	1	10	15	27	71	57	15	30	0	17	27	2209	10	13	14	10	5	24	29	1	38	6	17	23	29	29	52	34	13	25	0	125	43	13
OTU 78	51	43	15	120	11	126	34	54	33	1381	17	1	67	25	24	1	27	39	487	59	3	22	2	1	112	2	0	49	22	354	0	3	29	1	7	35	43	6	3	393	7	34	21	19	28	1	0	1	3	151
OTU 79	117	595	65	100	61	174	1301	1000	88	47	126	17	343	777	111	32	372	106	70	1567	212	76	223	15	258	134	402	57	69	336	14	119	76	122	60	73	80	104	34	794	78	58	150	47	140	70	65	79	145	301
OTU 80	45	234	154	24	87	17	66	13	1301	32	8	0	74	10	94	2	9	39	20	11	181	11	134	58	20	5	297	11	90	92	0	148	18	1683	5	41	8	46	169	17	77	12	85	76	129	234	33	30	11	23
OTU 81	43	428	128	27	68	127	85	32	19	180	106	8	54	37	68	22	7	77	13	57	323	32	116	44	86	30	218	154	61	9	2	99	24	8	21	97	58	35	103	14	20	51	18	3	124	146	65	23	1	10
OTU 82	65	9	14	36	6	0	7	52	2	9	0	0	2	2	1	0	0	3	108	2	39	13	11	1	36	105	15	16	2	57	0	1	2	45	31	1	18	42	5	12	45	96	12	129	42	1	50	1	97	1
OTU 83	18	0	64	0	34	0	0	0	0	17	8	12	14	0	28	0	29	0	0	6	0	5	27	10	25	0	37	0	26	0	2	13	53	0	2	13	3	53	0	13	0	0	0	0	21	1	0	0	1	0
OTU 84	59	7	1	13	0	4	0	87	0	3	1309	0	27	0	32	16	20	1596	3	0	0	0	54	4	4	50	39	21	5	47	1	32	1	2	59	5	24	15	0	1	18	35	2	1	24	0	67	5	2	1
OTU 85	36	0	28	3	18	0	21	6	0	0	13	0	151	6	0	3	0	3	16	7	4	0	17	49	0	0	51	3	0	26	0	7	14	1	0	0	7	0	18	0	9	8	3	190	41	19	0	0	106	86
OTU 86	0	0	0	1	0	0	0	0	0	0	0	0	0	0	0	75	0	1	0	0	0	0	0	0	0	1	1	1	0	16	26	0	0	0	0	0	8	0	0	0	0	0	0	0	0	0	0	0	0	1
OTU 87	0	0	2	2	1	0	0	0	0	2	10	0	0	583	0	0	27	0	0	1195	30	0	0	0	2	0	1	36	6	66	0	0	0	0	817	1	0	0	0	539	0	635	65	1	0	5	10	0	17	0
OTU 88	0	0	0	0	0	0	0	1	5	1	0	2	0	0	10	6	0	31	0	0	0	1	0	0	0	43	0	2	5	0	0	12	0	0	0	0	0	50	0	4	2	0	0	0	0	0	8	0	8	1
OTU 89	43	18	34	0	11	30	0	11	5	13	0	2	7	1	0	4	23	4	0	2	15	1	7	9	93	4	7	3	45	0	1	5	7	7	0	6	12	71	13	0	13	2	57	0	66	50	25	46	5	0
OTU 90	5	0	0	0	0	0	4	3	0	18	10	18	0	0	4	18	0	0	20	0	0	0	0	0	0	5	0	0	1	0	12	0	0	0	0	0	39	0	0	0	0	0	0	0	0	1	3	0	0	0
OTU 91	0	0	7	0	4	0	0	0	0	35	0	0	0	0	2	0	0	0	0	0	0	1042	0	2	0	0	0	0	0	4	0	8	0	0	0	0	1	518	0	0	0	5	17	0	0	0	0	9	0	7
OTU 92	14	0	30	14	24	4	71	0	11	0	2	6	0	0	0	2	5	3	7	2	0	5	0	0	57	0	0	1	15	1	2	3	38	0	2	19	2	0	0	0	0	2	0	0	1	0	0	0	1	0
OTU 93	2	15	3	2	1	0	0	0	11	1	3	5	9	0	8	0	1	2	18	14	0	0	0	0	0	6	0	0	4	0	0	0	1	0	0	0	0	0	1	1	0	3	0	0	0	0	0	0	0	0
OTU 94	170	3	331	59	157	135	153	67	447	185	135	5	4	24	36	7	31	25	10	50	168	66	10	6	93	263	56	18	155	130	4	24	28	287	1	166	62	14	5	18	13	24	4	21	125	17	91	23	40	65
OTU 95	0	26	26	0	12	0	6	0	1	1512	980	0	0	0	0	2	32	12	22	0	18	0	0	0	232	16	0	0	0	2	7	0	1	1	0	8	2	13	4	0	0	8	0	0	9	1	8	1	14	58
OTU 96	0	0	0	0	0	0	0	0	1	13	14	0	0	8	0	0	0	0	0	0	0	0	0	0	0	0	0	0	0	9	0	0	373	10	0	0	0	0	0	0	1	0	0	0	0	0	0	0	0	0
OTU 97	0	10	0	0	0	0	0	0	0	2	0	15	0	0	245	60	0	0	41	0	23	0	0	0	0	0	0	0	0	1	18	0	0	0	1	0	0	0	0	0	22	0	0	0	0	0	1	0	0	8
OTU 98	15	0	11	26	7	0	6	0	2	0	3	1	0	3	72	3	0	5	2	0	0	0	21	9	20	2	48	0	9	10	0	61	234	0	0	4	16	12	1	0	0	17	0	0	80	14	1	2	8	1
OTU 99	66	4	43	87	16	104	12	0	47	2	28	4	73	30	50	30	4	46	11	61	48	140	50	32	10	103	93	135	15	19	15	58	265	5	164	34	17	18	10	3	36	66	52	135	11	0	76	6	227	60
OTU 100	6	40	73	3	36	1	48	1	43	0	62	16	3	0	41	23	0	110	2	4	28	0	1	3	0	2	10	1	40	0	0	17	2	92	27	27	66	3	10	21	0	1311	1	0	3	32	7	0	1	4
OTU 101	0	4	2	15	2	1	3	0	0	0	0	0	0	0	0	0	14	0	6	0	0	0	1	0	1	17	0	0	0	10	8	0	0	0	27	0	0	0	0	0	0	30	0	0	0	0	28	1	0	2
OTU 102	4	0	83	0	40	26	5	12	16	36	1	0	0	0	20	2	949	1	0	0	0	1	19	2	0	10	49	0	37	0	0	6	0	43	0	43	7	16	0	12	14	0	1	0	19	0	0	2	0	0
OTU 103	36	497	2	32	0	7	2	5	38	48	3	11	9	0	0	9	0	16	1	0	8	54	1	0	2	0	5	1	1	35	2	0	14	58	13	2	10	15	5	0	46	16	9	33	19	0	94	5	1	9
OTU 104	2398	5	1819	24	927	14	855	179	8	2	153	5	178	12	81	17	2	387	45	25	114	26	33	81	23	236	95	24	760	77	9	12	285	25	1010	796	75	25	16	3	154	13	43	1	240	33	64	4	229	782
OTU 105	0	0	28	14	7	9	21	0	0	0	3	0	0	1	11	13	0	0	0	0	0	0	62	1	0	46	121	3	0	4	0	53	0	0	0	30	0	0	0	0	0	0	11	0	2	2	60	1	0	0
OTU 106	27	4	205	1	98	55	101	30	110	0	0	0	33	0	25	3	6	0	0	3	11	16	46	1	47	0	33	95	30	0	4	22	2	16	2	71	0	0	0	0	14	17	6	248	152	0	2	0	57	36
OTU 107	13	11	0	0	0	23	0	0	0	0	2	0	0	33	0	3	0	1	1	51	7	0	1	0	97	6	3	0	0	0	2	0	632	8	13	9	0	0	0	28	10	0	40	0	1	0	1	629	0	19
OTU 108	0	51	0	0	0	14	0	0	0	0	3	8	0	2	35	0	274	0	0	9	8	8	43	10	0	74	71	0	0	17	0	34	36	0	6	4	18	2	0	10	22	46	18	32	33	1	12	14	3	60
OTU 109	0	0	20	0	7	0	0	0	0	0	0	0	0	0	0	0	0	0	0	0	0	0	0	0	0	0	0	0	43	0	0	0	0	0	0	21	1	0	0	0	0	0	0	0	0	0	0	0	0	0
OTU 110	129	29	28	9	9	27	10	13	4	62	5	46	202	37	20	5	45	0	15	69	11	0	42	252	106	14	96	17	13	207	11	41	33	1	2	0	97	35	13	34	288	55	14	17	39	117	41	11	16	1
OTU 111	15	0	0	0	0	221	0	0	0	0	0	0	2	3	0	0	0	0	0	12	1	120	0	0	0	0	0	0	2	0	0	1	0	0	0	0	2	23	0	0	2	0	0	0	0	0	0	4	1	3
OTU 112	0	9	13	26	7	0	0	2	0	45	38	9	19	2	1	0	1	54	0	5	18	20	0	6	0	12	4	202	17	0	0	4007	96	28	0	2	31	20	25	28	4	17	7	4	0	21	1	1	42	0
OTU 113	0	13	0	4	0	0	0	30	0	19	2	0	2	0	0	0	0	9	0	0	0	0	0	1	1	0	0	6	3	0	0	3	0	0	5	3	0	0	0	11	0	0	28	0	0	0	3	11	143	6
OTU 114	72	383	369	15	196	10	6	71	38	159	71	47	108	22	170	46	18	126	22	67	141	71	111	62	77	36	261	101	112	103	2	89	339	41	13	131	146	17	51	76	48	24	65	85	97	110	72	8	34	14
OTU 115	72	16	20	78	13	43	80	96	46	160	130	34	71	8	104	119	61	122	25	39	5	8	98	118	92	133	249	9	52	124	37	152	29	5	13	25	193	19	52	1	29	77	147	179	128	58	7	69	85	13
OTU 116	17	0	70	2	45	5	40	1	15	9	42	7	20	90	38	31	24	7	22	155	79	121	14	12	34	76	22	0	23	57	1	271	56	11	89	19	0	194	3	103	18	33	128	25	2	15	90	1	5	79
OTU 117	4	10	12	2	5	68	1	498	26	22	30	28	99	12	0	33	30	36	0	43	12	1	1	86	41	84	17	0	4	108	14	0	7	50	37	0	40	50	9	4	6	71	219	12	99	4	0	47	11	124
OTU 118	5	0	1	34	2	0	0	0	5	0	0	0	0	0	10	9	0	94	0	0	12	22	10	1	11	147	8	0	2	2	1	1	0	0	7	0	1	0	4	2	19	0	0	3	0	33	3	0	0	2
OTU 119	6	35	32	14	21	67	1	21	34	40	35	9	10	2	42	2	12	85	2	27	7	28	0	12	38	6	2	132	8	3	0	11	4	1	2	27	8	138	29	0	14	9	6	8	0	6	51	4	114	23
OTU 120	31	19	1	3	0	49	0	76	30	0	346	1	4	8	18	47	0	685	24	34	25	22	4	20	19	1	2	1	0	99	17	1	66	41	0	0	21	5	0	24	0	0	77	21	18	0	0	0	0	36
OTU 121	8	40	65	91	33	22	1	15	22	0	0	34	0	17	118	2	115	11	7	16	0	5	3	1	95	111	9	30	37	0	0	39	2	4	3	2	15	0	17	12	1	9	11	83	3	46	25	15	0	168
OTU 122	0	54	111	6	58	28	76	46	29	30	74	1	7	2	1	40	9	83	6	4	1	9	5	0	3	9	1	2	23	24	33	15	184	57	3	31	13	3	11	10	34	0	20	169	8	4	22	1	0	20
OTU 123	316	62	352	158	5095	30	365	183	1648	207	109	142	24	311	91	125	64	353	37	186	308	326	145	253	69	87	296	155	194	48	867	101	105	207	87	134	39	651	472	176	160	137	168	232	335	1063	404	409	188	230
OTU 124	0	0	0	3	0	4	0	111	5	25	40	0	0	0	0	0	1	37	1	1	9	1	0	44	8	13	0	10	3	0	6	0	0	21	3	5	26	17	9	0	0	14	0	0	4	16	5	0	3	5
OTU 125	93	235	174	32	92	209	48	192	100	702	88	70	447	17	45	25	529	24	64	36	127	24	67	58	65	80	91	263	71	787	12	28	132	72	59	284	169	33	99	40	72	159	336	125	210	29	80	39	14	207
OTU 126	0	0	0	0	0	0	0	3	1	1	30	0	0	0	26	0	0	0	0	0	0	30	35	0	0	125	50	1	719	0	0	17	0	0	0	0	0	130	0	0	0	3	0	0	0	0	0	0	0	0
OTU 127	6	112	6	36	2	2	7	17	3	3	2	5	98	20	12	5	9	0	2457	25	111	0	20	55	39	40	25	48	5	33	6	19	41	37	5	11	0	4	24	5	0	0	84	1	0	62	0	9	61	0
OTU 128	322	43	450	207	219	251	1519	136	86	512	52	65	193	710	900	96	95	136	78	1382	385	95	290	169	350	179	685	267	319	166	131	328	185	13	12	323	158	42	252	828	303	2307	76	33	673	589	137	133	188	32
OTU 129	1	0	0	6	0	0	14	0	13	0	0	0	0	2	17	0	45	10	0	1	0	109	16	0	0	0	39	0	0	204	0	27	0	1	0	0	22	0	5	1	0	0	0	14	0	12	0	1	6	3
OTU 130	1	68	0	2	0	9	0	22	7	0	0	2	160	1	26	0	9	25	12	1	6	2	22	36	113	104	43	0	12	29	0	20	26	0	15	2	1	1	9	5	0	3	10	78	66	50	1	8	19	50
OTU 131	8	10	3	2	0	0	15	188	9	8	214	0	110	5	52	4	15	569	16	7	1	15	23	21	69	177	18	21	1	10	3	17	100	5	17	1	165	4	26	4	0	4	1	41	0	45	41	980	75	2
OTU 132	74	10	12	2	3	0	0	155	18	102	2	16	5	30	22	17	24	120	0	52	0	14	4	7	0	26	7	18	4	0	18	17	14	0	1	13	136	0	4	45	0	5	2	1	201	0	27	0	0	0
OTU 133	2	1	0	0	0	0	0	0	0	2	0	0	37	0	0	2	9	7	0	0	1	50	0	0	0	0	1	35	2	7	0	1	16	0	0	0	1	0	0	0	0	0	1	1	0	0	0	3	2698	6
OTU 134	65	13	10	77	6	1	0	7	1	44	32	1	0	0	4	30	16	57	7	1	2	67	34	37	50	2	41	13	11	196	0	91	15	15	1	5	3	44	48	13	6	31	11	31	37	100	5	9	21	35
OTU 135	43	27	1	26	0	101	8	5	25	12	0	613	11	30	113	1298	440	0	1114	33	10	16	113	6	0	44	264	2	16	1044	568	99	116	52	47	0	2	37	1039	29	9	8	792	21	56	107	13	53	6	0
OTU 136	34	25	11	7	8	216	10	79	24	0	53	1	10	1	5	3	0	16	4	2	16	9	1	4	8	25	4	9	22	14	1	56	1	1	19	11	1	1	0	0	9	3	1	1	26	1	0	38	7	20
OTU 137	19	46	2	12	0	17	6	50	0	0	4	0	14	81	0	0	0	0	14	130	3	2109	4	0	9	0	7	0	0	6	0	3	2	0	4	5	0	0	7	57	0	34	1	0	11	5	9	0	0	64
OTU 138	1	0	29	22	17	14	25	0	20	186	3	10	1	0	8	21	9	2	1	0	27	1	29	16	6	49	39	36	3	14	4	0	16	16	1	32	11	2	13	0	0	1	0	5	2	0	248	62	0	21
OTU 139	92	77	457	102	238	132	98	68	16	45	22	29	18	157	43	34	19	118	35	195	104	24	52	26	651	689	84	120	238	1	250	46	79	2	102	86	66	39	18	157	10	121	17	157	119	6	39	46	15	7
OTU 140	63	116	27	43	6	133	6	32	30	120	17	17	70	5	462	12	76	36	14	41	73	132	280	36	35	347	599	45	6	87	7	406	7	27	50	9	11	21	42	47	39	123	179	741	153	221	167	56	28	153
OTU 141	0	0	0	0	0	0	0	0	0	40	0	0	0	0	0	0	0	0	0	0	0	1	0	0	19	0	0	0	0	0	0	0	0	0	0	0	0	0	0	0	0	0	0	0	0	0	0	0	0	0
OTU 142	0	0	0	0	0	0	0	0	0	0	0	0	5	5	0	0	1	0	0	20	2	0	0	13	1	0	0	0	0	0	0	0	1	0	0	0	0	0	0	33	0	0	0	76	0	0	0	0	6	0
OTU 143	0	0	0	1	0	48	1	1	0	1	0	0	0	0	11	0	0	0	0	0	1	0	27	0	0	0	64	0	1	30	8	18	3	0	0	0	0	0	13	17	5	6	0	44	0	32	0	14	10	0
OTU 144	0	26	70	3	30	26	65	0	103	0	0	7	0	12	2	0	0	0	0	58	1	0	0	0	0	0	1	2	63	0	5	0	0	22	0	68	0	0	27	1	1	7	10	0	0	31	2	7	2	17
OTU 145	29	18	41	15	17	52	56	159	153	17	18	27	0	3	0	16	33	9	45	0	3	132	0	26	66	172	3	7	27	15	14	0	144	34	30	14	33	14	50	6	43	28	31	78	93	30	19	106	9	55
OTU 146	18	14	26	49	12	12	0	7	1	4	4	4	253	4	62	8	38	6	26	9	64	22	196	27	186	139	342	13	21	15	29	83	97	11	32	0	15	32	1	1	0	7	2	29	4	6	4	18	26	269
OTU 147	22	9	0	51	0	34	0	25	13	11	0	6	60	0	8	9	52	0	32	0	105	0	0	42	0	0	1	10	21	5	4	5	2	1	9	13	1	2	0	0	15	7	26	35	1	4	3	61	19	2
OTU 148	38	54	72	1	35	78	0	3	24	18	23	0	16	14	55	2	10	35	4	20	141	226	21	161	62	1	67	1	46	49	2	29	365	1	8	0	42	69	59	0	83	0	13	44	89	118	2	130	11	37
OTU 149	10	7	1	5	22	150	10	13	2	0	7	1	657	13	12	23	21	0	1	40	0	1	3	0	11	7	35	0	0	1	0	13	0	0	11	5	10	15	9	11	4	1	16	1	11	6	24	11	62	84
OTU 150	3	0	0	28	0	0	0	2	0	0	0	8	0	0	36	9	0	3	1	4	6	5	4	0	31	188	10	2	11	10	2	0	4	0	1	0	0	0	26	0	0	0	9	3	6	58	1	43	1	0
OTU 151	1	0	30	37	16	2	19	13	9	0	2	1	0	7	8	14	0	2	4	3	7	0	6	5	97	0	1	45	2481	1	2	12	16	29	0	3	0	0	4	4	2	6	96	35	1	4	25	0	1	56
OTU 152	11	82	2	0	5	47	29	32	4	45	37	13	2	52	17	16	18	42	2	93	124	54	35	13	386	403	28	66	4	23	13	17	25	4	130	31	72	147	21	56	37	34	0	79	42	40	4	17	7	0
OTU 153	0	66	0	0	0	1	0	0	0	0	27	0	0	0	0	0	0	0	0	1	0	0	0	0	0	0	1	0	0	0	0	0	0	0	0	3	0	0	0	0	0	0	0	0	3	0	0	0	1	0
OTU 154	2	0	0	0	0	0	0	0	5	0	23	1	0	0	0	0	0	0	0	0	0	0	0	215	1	0	0	0	0	0	0	8	0	4	0	1	0	0	5	0	88	6	0	2	2	7	0	1	1	0
OTU 155	14	0	0	1	0	101	1	52	6	22	6	0	43	9	16	2	2309	4	0	11	0	3	0	19	13	0	0	15	0	49	7	0	0	4	0	2	0	0	2	2	17	14	26	61	5	3	1	3	1	0
OTU 156	1	88	160	16	88	63	59	509	59	93	44	0	150	20	2	11	95	29	15	76	52	22	0	67	63	128	8	15	22	52	6	5	25	8	0	76	59	15	25	4	13	6	18	54	42	27	18	41	9	9
OTU 157	0	0	1	137	2	16	0	26	0	10	13	1	1	5	13	0	0	13	10	47	0	26	24	0	3	149	32	1	1	5	0	78	52	4	33	0	17	0	7	0	1	7	0	0	0	0	12	0	18	0
OTU 158	0	0	31	0	14	10	20	0	0	2	0	0	35	0	0	0	31	0	0	0	0	0	0	0	0	0	0	0	18	24	0	0	0	0	0	1	0	0	0	0	0	0	50	0	0	46	0	0	0	3
OTU 159	1	1	0	11	0	10	12	50	9	4	97	0	76	3	3	9	27	76	1	2	16	4	1	16	26	104	3	11	11	104	11	0	52	6	2	45	655	26	21	6	1	17	40	4	6	45	31	1430	15	13
OTU 160	86	31	218	19	96	196	81	104	12	67	52	158	126	48	59	270	190	67	141	152	130	13	90	112	128	197	164	17	140	106	765	125	92	324	8	129	323	61	15	31	97	3	54	145	114	62	4	172	159	45
OTU 161	0	37	9	0	5	15	0	4	3	0	14	0	25	11	113	3	56	61	16	5	6	29	76	44	4	21	128	14	12	3	4	41	12	2	0	1	34	25	33	0	2	60	21	74	0	68	49	116	25	34
OTU 162	12	85	21	63	9	68	52	368	2	29	85	3	104	2	4	35	2	84	54	0	142	27	18	32	70	99	54	59	10	55	9	4	11	0	1	23	0	0	4	17	7	52	66	28	9	2	30	39	13	58
OTU 163	0	0	8	0	3	0	1	0	0	0	0	0	39	0	0	0	0	0	0	0	2	0	0	0	6	0	0	0	0	0	0	0	0	0	0	0	0	5	0	0	0	0	0	0	0	0	0	0	0	0
OTU 164	1	0	0	0	0	0	0	0	0	0	0	9	0	0	0	63	0	0	0	0	0	0	6	0	23	0	0	0	0	0	7	0	0	0	0	0	0	9	0	0	0	0	6	0	0	0	0	6	0	47
OTU 165	1	12	8	0	3	32	9	34	21	50	2	3	14	0	0	0	70	3	0	3	259	3	2	1	5	0	4	4	0	21	0	0	14	10	2	1	7	16	55	2	19	23	51	20	4	105	0	2	201	128
OTU 166	677	5	0	0	0	2	0	4	0	0	0	0	0	0	0	0	0	0	0	0	0	0	4	7	0	6	2	0	0	0	0	0	0	0	0	0	0	3	0	0	0	0	0	0	0	0	0	4	0	0
OTU 167	0	6	0	1	0	0	0	107	0	0	5	20	17	8	10	15	26	0	9	15	13	0	42	2	20	2	97	23	0	0	9	23	2	10	12	0	13	0	4	12	10	9	9	47	0	4	113	61	59	13
OTU 168	163	14	3	0	2	2	39	18	47	8	30	3	32	37	5	0	4	24	3	25	3	0	1	53	8	91	2	7	10	3	14	3	18	0	9	18	11	12	5	2	43	3	0	17	139	44	6	5	6	4
OTU 169	0	0	41	0	26	0	0	0	0	0	0	0	0	0	0	0	0	0	0	0	11	2	0	1	0	1	0	0	0	0	1	0	0	0	22	3	0	29	0	1	0	7	0	0	0	0	0	0	0	0
OTU 170	1	0	101	0	47	36	6	7	0	0	0	0	0	0	0	0	0	0	0	0	0	0	0	0	0	0	0	0	60	0	0	0	61	0	16	19	0	0	0	0	0	0	0	0	0	2	0	0	0	0
OTU 171	129	22	41	24	22	634	7	4	16	1	3	0	0	18	31	62	0	3	65	22	22	24	2	204	0	23	2	2	57	30	32	2	5	3	33	10	69	1	1	6	31	28	1	36	65	14	24	19	2	24
OTU 172	0	0	0	2	0	0	0	0	0	0	3	0	0	0	45	2	4	19	0	0	1	0	54	5	2	0	89	5	0	0	0	77	0	0	0	4	11	1	0	0	116	2	5	0	6	0	0	0	29	0
OTU 173	6	38	7	0	3	52	1	35	0	0	0	0	34	0	5	0	54	0	0	9	0	0	3	0	0	1	0	39	0	449	0	0	0	3	1	0	71	1	1	4	0	0	262	17	3	0	0	28	0	9
OTU 174	1	20	13	101	2	31	0	2	0	37	4	0	0	11	3	1	0	2	0	20	220	4	8	34	124	1	21	7	2	0	3	25	2	8	11	0	92	43	0	3	0	0	0	55	40	0	9	489	1	36
OTU 175	15	7	99	26	55	0	17	31	0	0	5	0	58	6	31	0	20	3	0	0	0	4	2	0	0	12	13	6	38	1	0	31	42	9	49	88	4	0	1	10	3	4	13	44	42	2	0	25	51	24
OTU 176	5	1	28	36	24	51	40	9	37	28	8	53	0	51	39	2	93	53	0	77	161	18	41	6	77	40	65	22	10	132	2	19	25	60	0	15	40	194	9	24	5	3	8	52	10	39	7	61	13	50
OTU 177	33	36	44	4	27	15	62	56	2	63	24	1	112	1	41	2	0	9	0	12	172	0	18	45	66	15	42	11	70	38	14	10	2	0	0	42	11	58	6	3	73	0	25	89	44	0	7	17	6	24
OTU 178	0	0	0	16	0	139	3	87	0	9	12	14	1	0	6	39	29	28	20	3	0	0	2	2	28	37	1	27	23	149	10	0	0	0	5	31	0	42	2	970	20	3	21	44	0	0	44	21	6	2
OTU 179	6	3	2	0	5	146	0	73	0	0	16	1	9	3	0	27	4	10	10	2	13	90	2	0	11	12	4	22	0	3	31	0	49	42	0	11	14	33	0	5	1	19	0	10	0	11	0	62	6	0
OTU 180	16	36	30	79	16	113	50	104	212	28	57	23	61	92	91	36	138	232	32	160	90	36	17	128	64	159	57	448	550	114	21	37	105	71	50	12	86	48	63	55	79	218	107	57	98	83	417	82	976	90
OTU 181	0	0	52	0	28	97	12	329	15	55	0	11	6	4	110	0	100	16	4	3	76	52	12	11	52	24	49	1	4	63	0	96	0	3	18	7	48	2	0	2	28	60	8	132	72	9	0	0	22	6
OTU 182	0	0	0	0	0	0	0	0	0	0	0	0	0	0	0	0	0	0	0	0	0	0	0	0	0	0	0	0	0	2	0	0	0	0	0	0	0	0	0	0	1	0	0	0	0	0	0	0	0	42
OTU 183	0	11	3	57	2	29	4	10	0	371	11	2	55	3	118	15	0	1	44	0	186	474	63	20	48	0	150	107	15	10	46	32	51	18	11	27	0	69	3	0	0	13	23	6	46	21	8	138	69	418
OTU 184	1	20	79	11	32	24	64	2	0	2	12	0	2	2	1	24	8	2	19	20	8	5	0	42	0	0	0	5	14	67	1	0	36	0	29	66	16	3	0	38	18	39	2	0	68	19	4	81	140	0
OTU 185	66	17	4	26	3	5	3	10	0	51	81	150	4	212	18	204	14	22	877	440	123	6	2	28	137	45	2	38	1	42	136	2	87	0	65	72	97	30	2	109	61	20	38	162	100	34	18	90	99	4
OTU 186	0	7	94	3	59	10	50	72	7	0	3	1333	5	0	0	2660	0	0	0	1	17	0	2	14	1	25	0	83	12	18	1342	1	1	0	0	24	33	0	1	1	6	2	28	0	2	0	0	0	0	27
OTU 187	26	3	83	24	40	54	177	80	19	109	3	4	44	3	6	20	4	5	15	20	63	66	17	22	125	23	34	36	34	0	1	14	51	14	28	21	94	9	45	19	15	9	1958	72	112	125	138	44	18	31
OTU 188	11	46	29	42	15	147	42	25	0	1	61	106	3	12	67	252	11	26	6	26	28	40	28	107	71	129	70	77	1	9	85	41	20	13	7	18	31	58	1	1	137	41	8	30	4	2	15	57	39	68
OTU 189	24	160	32	64	21	87	1	194	6	96	758	156	24	0	43	143	8	11	12	10	61	1184	21	27	49	20	43	131	20	2	58	3	121	4	8	36	33	20	12	7	5	16	55	9	53	20	13	3	96	1554
OTU 190	0	0	120	2	56	0	7	0	0	0	0	0	820	5	28	0	0	0	56	0	0	0	0	0	0	0	4	0	40	0	2	0	6	0	0	20	0	0	0	0	2911	0	435	91	6	1	0	34	1	0
OTU 191	47	45	50	114	20	67	149	260	7	9	7	12	0	0	28	39	70	22	3	4	122	97	15	1	2	2	23	18	33	193	18	8	2	6	81	36	40	0	11	13	1	44	25	0	293	18	571	6	246	47
OTU 192	2	5	168	1385	76	25	157	196	59	3	26	387	19	27	103	1040	27	147	907	81	135	25	145	3	114	45	273	35	147	6	546	131	6	22	23	55	28	17	63	54	10	52	7	306	9	93	21	50	5	9
OTU 193	4	65	16	0	7	102	15	250	22	35	60	9	0	1	23	5	101	31	24	2	34	0	68	159	94	2	109	232	6	79	0	51	138	34	3	32	147	15	10	15	61	15	1	40	8	40	9	4	32	149
OTU 194	0	0	15	0	12	1	7	4	0	39	9	18	54	6	15	22	8	25	38	12	1	0	2	5	73	4	2	58	0	0	13	0	14	6	4	1	0	4	0	2	1	7	15	25	0	10	37	0	8	9
OTU 195	18	145	0	19	0	0	2	52	2561	0	13	41	35	0	12	20	23	8	0	0	8	0	22	37	3	17	35	35	9	35	13	79	79	30	9	0	37	1	31	5	6	1	3	3	144	40	30	101	11	1
OTU 196	37	0	30	42	11	0	55	1	35	1	20	3	27	23	0	2	13	3	6	58	2	47	164	0	78	67	7	71	24	1	0	7	30	3	13	28	4	0	5	11	53	20	6	21	14	12	12	100	0	10
OTU 197	763	56	64	1	28	63	4	88	28	277	28	82	199	12	132	5	49	95	28	46	46	48	57	186	20	114	139	7	79	38	5	85	173	59	127	41	31	43	26	17	32	47	46	252	141	39	26	49	59	49
OTU 198	3	0	267	4	110	1	18	37	5	0	0	0	0	4	0	2	24	1	1	0	0	2	3	2	96	145	1	4	31	0	2	0	12	0	2	144	0	1	1	5	1	0	0	0	1	1	25	2	32	2
OTU 199	37	51	4	3301	1	62	9	3	5	31	0	3	0	2	15	0	1	23	8	20	84	1	6	2	150	0	5	3	0	0	0	3	0	8	0	17	12	20	0	6	8	0	0	4	10	2	126	4	37	42
OTU 200	16	0	26	1	8	81	32	98	24	19	0	37	12	11	18	9	5	52	22	21	52	22	10	0	56	0	36	5	18	78	0	45	1	13	42	5	36	17	13	26	14	0	65	28	16	24	14	17	44	0
