	Host 1	Host 2	Host 3	Host 4	Host 5	Host 6	Host 7	Host 8	Host 9	Host 10	Host 11	Host 12	Host 13	Host 14	Host 15	Host 16	Host 17	Host 18	Host 19	Host 20	Host 21	Host 22	Host 23	Host 24	Host 25	Host 26	Host 27	Host 28	Host 29	Host 30	Host 31	Host 32	Host 33	Host 34	Host 35	Host 36	Host 37	Host 38	Host 39	Host 40	Host 41	Host 42	Host 43	Host 44	Host 45	Host 46	Host 47	Host 48	Host 49	Host 50	
OTU 1	0	1	4	1	4	0	0	0	0	2	1	6	0	4	0	0	2	2	1	3	1	1	1	1	0	0	4	0	2	1	1	5	0	2	1	1	0	4	4	0	1	0	0	2	6	0	2	1	0	2
OTU 2	0	0	0	2	0	0	0	0	0	0	0	0	0	4	75	1	0	0	5	4	1	0	0	55	0	4	1	0	4	0	0	0	0	139	0	0	1	0	0	7	79	0	1	0	10	3	0	2	0	0
OTU 3	0	0	0	0	4	6	0	0	0	0	0	0	0	0	0	0	0	0	4	0	0	1	0	1	0	0	0	1	0	0	0	0	0	1	0	0	0	0	0	3	2	0	0	1	0	0	0	0	4	0
OTU 4	0	0	0	0	0	0	1	0	0	0	0	0	0	0	0	0	0	0	0	0	0	0	0	0	0	0	0	0	0	0	0	0	0	0	0	0	0	0	0	0	0	0	0	0	0	0	0	0	0	0
OTU 5	2	9	0	8	7	21	9	6	2	24	8	13	86	32	2	69	43	0	0	3	0	4	19	13	3	15	3	17	11	7	0	5	6	5	10	5	0	29	9	1	0	3	15	0	1	0	21	3	0	0
OTU 6	0	0	0	2	0	0	0	11	1	0	0	0	2	0	3	0	0	2	2	5	1	2	3	0	0	0	4	0	0	0	0	0	2	2	0	0	3	0	0	0	38	1	43	2	2	1	0	0	0	1
OTU 7	1	2	14	1	0	2	2	2	5	1	35	1	3	2	1	1	1	1	4	0	2	0	3	1	4	13	0	2	7	6	9	0	4	2	1	2	109	1	74	2	2	1	2	12	3	8	0	0	0	6
OTU 8	1	1	0	2	6	2	1	4	4	2	0	0	0	1	0	1	3	1	18	0	1	2	1	1	2	5	3	4	0	3	1	0	9	3	3	2	5	1	1	6	2	3	2	5	2	2	3	2	1	4
OTU 9	0	0	1	0	0	0	1	0	0	0	0	0	0	2	0	6	0	2	0	0	1	1	2	0	0	0	0	1	2	0	0	0	0	0	0	0	0	0	0	0	0	1	0	0	0	0	0	1	0	0
OTU 10	0	1	2	1	1	0	1	1	6	0	24	0	0	0	0	0	0	1	0	0	0	0	2	1	14	0	0	0	0	0	1	0	0	3	3	0	0	0	55	2	0	0	0	0	0	5	0	0	1	0
OTU 11	4	1	0	0	4	0	0	5	1	0	0	2	3	0	0	3	0	2	2	4	0	0	0	3	3	0	1	0	4	2	0	2	1	0	0	4	0	0	0	45	0	2	0	2	1	3	0	0	1	1
OTU 12	6	0	1	0	2	0	17	4	1	1	1	0	1	0	1	1	0	2	1	0	2	0	0	0	3	1	0	4	5	0	2	0	4	4	5	3	7	2	0	0	3	2	1	1	4	2	1	1	0	0
OTU 13	0	0	0	0	0	0	0	0	0	0	4	0	0	0	0	0	0	0	0	0	0	0	0	0	1	0	0	0	0	1	0	0	0	0	0	0	0	0	3	8	0	4	0	0	0	0	0	0	1	5
OTU 14	0	0	0	0	0	0	0	0	3	0	0	0	0	1	0	0	0	0	0	0	3	0	0	1	3	1	0	1	0	0	0	0	0	0	0	0	0	0	0	0	0	0	3	0	0	0	0	0	0	0
OTU 15	0	0	0	0	0	0	0	0	0	0	0	0	0	0	0	0	0	4	0	0	0	0	0	0	0	0	0	2	0	0	0	0	0	0	0	0	0	0	0	1	0	0	0	0	0	0	0	0	0	0
OTU 16	0	0	0	0	0	0	0	0	0	0	0	0	0	0	0	0	0	0	0	0	0	0	0	0	0	0	0	0	0	0	0	0	0	0	0	0	0	0	0	0	0	0	0	0	0	0	0	0	0	0
OTU 17	8	1	0	0	2	1	1	0	6	1	0	0	1	1	1	0	2	0	1	0	4	0	1	0	12	2	0	0	0	0	3	0	0	0	0	0	3	0	0	0	0	12	0	0	0	1	0	2	0	0
OTU 18	1	1	3	0	0	2	1	0	1	0	1	4	0	4	0	3	1	4	5	0	1	2	0	0	0	7	2	0	0	1	7	1	0	0	0	1	2	3	2	3	0	2	0	2	0	4	2	0	1	3
OTU 19	0	0	0	0	0	0	0	0	0	0	0	0	0	0	0	0	0	0	0	0	0	0	0	0	0	0	0	0	0	0	0	0	0	0	0	0	0	0	0	0	0	0	0	0	0	0	0	0	0	0
OTU 20	9	1	0	0	0	7	3	2	1	0	0	0	0	5	0	3	2	0	3	0	0	1	2	0	0	7	0	0	0	2	3	1	0	0	1	18	3	4	0	0	1	1	0	3	0	1	4	0	1	0
OTU 21	3	0	0	0	7	5	3	1	1	0	0	0	0	7	2	0	3	4	4	1	2	3	0	1	4	2	0	1	0	3	1	2	7	4	3	0	0	0	0	4	0	0	2	0	0	2	0	0	1	2
OTU 22	0	1	1	1	1	0	3	0	8	1	0	1	3	1	0	1	0	2	6	0	0	0	1	0	0	0	0	11	0	4	2	14	0	0	4	4	2	3	1	0	1	5	7	0	2	1	2	0	0	0
OTU 23	2	0	0	0	0	0	1	0	2	0	0	0	0	0	0	0	0	0	0	0	0	0	2	0	0	0	3	0	0	1	0	1	0	0	0	0	3	0	0	0	0	0	0	7	0	0	1	0	3	0
OTU 24	0	1	0	0	0	0	0	0	5	2	1	4	0	1	0	0	0	0	0	0	22	1	0	0	1	0	0	0	0	0	0	0	0	0	0	0	0	0	2	3	0	0	0	0	0	2	0	0	0	1
OTU 25	0	0	0	0	0	0	0	0	0	0	0	0	0	0	0	0	0	0	0	0	0	0	0	0	1	0	0	0	0	0	0	0	0	0	0	0	0	0	0	0	0	0	0	0	0	0	0	0	0	0
OTU 26	0	0	0	0	0	0	0	0	0	0	0	0	0	0	0	0	0	0	0	0	0	0	1	0	0	2	0	0	0	0	0	0	0	0	0	0	0	0	0	0	0	0	0	0	0	1	0	1	0	0
OTU 27	0	0	0	0	0	0	0	1	20	0	0	0	0	0	0	0	0	0	0	0	0	0	0	0	0	0	0	0	0	0	0	0	0	0	0	0	0	0	0	0	0	0	0	0	0	0	0	0	0	0
OTU 28	0	1	2	2	0	7	2	1	4	2	0	3	5	0	1	9	1	1	5	5	0	3	0	1	8	0	0	0	4	0	0	1	1	0	0	0	0	2	0	0	0	0	0	6	10	0	0	3	10	3
OTU 29	0	0	2	0	0	0	9	0	0	1	0	0	1	0	1	47	2	4	5	0	5	3	0	0	2	2	0	0	1	0	3	8	1	0	0	0	7	1	0	3	0	0	2	4	3	8	1	0	3	16
OTU 30	0	0	0	0	0	0	0	0	0	0	0	0	0	0	0	0	0	0	0	0	0	1	0	0	0	0	0	0	0	0	0	0	0	0	0	0	0	0	0	0	0	0	0	0	0	0	0	0	0	0
OTU 31	0	0	2	0	1	0	0	0	2	0	0	1	0	0	0	0	0	1	0	0	6	0	0	3	1	0	2	0	0	0	0	0	0	5	0	0	3	2	0	0	1	0	0	0	1	0	1	1	0	0
OTU 32	0	7	1	0	5	0	4	2	3	1	0	9	1	0	2	0	2	0	1	1	1	1	0	3	5	0	73	15	1	4	0	16	0	0	11	1	5	0	2	1	0	4	0	5	9	3	3	2	1	0
OTU 33	9	0	0	0	0	0	0	0	0	0	0	1	0	0	0	0	0	0	0	0	0	0	0	0	0	0	0	0	0	0	0	0	0	0	0	0	0	0	0	0	0	0	0	0	0	0	0	0	0	0
OTU 34	2	0	4	0	0	0	1	5	0	1	0	1	1	0	0	0	0	4	1	0	1	6	0	0	2	1	2	0	1	0	0	4	0	0	1	0	0	1	0	13	0	0	0	0	0	13	0	0	1	0
OTU 35	0	0	0	1	1	3	3	0	3	0	0	1	3	3	0	9	2	0	4	1	40	1	2	4	0	0	1	0	0	1	0	0	47	1	0	0	1	1	0	1	0	1	0	4	0	0	0	4	1	9
OTU 36	3	0	1	1	0	0	0	11	1	0	0	4	0	2	0	11	0	2	0	0	9	0	0	0	13	7	0	0	0	0	0	0	3	0	0	1	0	0	2	8	0	0	0	1	0	2	0	2	0	5
OTU 37	0	0	0	0	3	1	0	0	1	0	0	0	0	4	0	0	0	0	1	1	2	0	0	0	0	1	2	0	3	3	3	0	0	0	2	3	0	0	0	0	0	3	0	3	6	0	0	0	37	0
OTU 38	7	0	0	2	0	2	0	1	0	0	0	0	0	0	0	0	0	3	5	2	0	0	0	0	0	1	0	8	0	8	5	1	1	0	1	1	0	0	0	1	0	0	1	10	2	0	0	1	0	1
OTU 39	0	3	0	0	0	0	0	0	0	0	1	0	0	1	0	0	0	0	0	0	0	0	0	0	0	0	0	0	0	0	1	0	0	0	0	0	0	0	0	0	0	0	0	0	1	0	0	3	0	0
OTU 40	0	0	0	0	8	0	2	5	2	0	1	0	2	9	0	2	1	0	7	0	9	6	4	0	2	7	0	30	0	0	0	0	0	3	0	4	0	0	0	8	1	2	0	0	0	3	0	0	0	0
OTU 41	2	3	3	0	4	2	0	2	0	0	2	5	0	0	116	0	0	5	1	2	0	0	1	0	0	1	1	2	4	0	2	1	0	0	1	0	11	0	2	1	1	0	0	1	0	0	0	1	0	0
OTU 42	0	0	1	9	0	1	2	4	0	0	0	0	1	0	0	0	0	1	0	1	3	0	0	0	0	10	0	2	4	1	0	0	1	0	0	0	1	0	0	0	0	0	1	0	4	0	0	0	0	0
OTU 43	0	0	0	0	0	0	0	0	0	0	0	0	0	0	0	0	0	0	1	0	0	0	0	0	0	0	0	0	0	0	0	0	0	0	0	0	0	0	0	0	0	0	0	0	0	0	0	0	0	0
OTU 44	0	0	1	0	0	0	0	0	0	1	0	0	0	0	0	0	0	3	0	0	0	0	4	1	0	0	0	0	0	0	0	0	0	0	0	3	0	0	0	0	0	0	0	0	0	1	0	0	0	0
OTU 45	13	2	11	1	5	6	2	0	0	0	0	0	8	0	12	5	0	0	2	0	0	1	1	0	0	3	2	0	0	1	5	1	3	0	0	3	0	0	1	4	0	1	1	1	0	0	0	1	0	0
OTU 46	6	0	0	18	0	0	4	1	0	1	39	25	5	0	0	2	1	0	1	31	5	0	1	1	8	5	1	0	23	4	6	7	1	3	4	0	3	6	20	0	0	4	2	2	89	0	2	45	12	0
OTU 47	0	1	0	0	0	0	0	0	0	0	0	0	0	0	0	0	0	1	0	0	0	0	0	0	0	0	0	0	0	1	0	0	0	0	0	0	0	0	0	0	0	0	0	0	2	0	0	0	0	8
OTU 48	1	6	2	0	0	0	1	1	0	0	0	0	0	1	1	4	1	3	1	0	0	0	0	1	2	0	0	0	0	0	0	2	0	1	2	0	3	0	0	2	0	2	0	16	1	0	0	0	1	0
OTU 49	1	0	1	0	0	3	5	0	0	0	0	2	0	1	1	0	2	0	0	0	0	5	0	160	0	2	2	0	0	0	0	0	0	0	0	0	2	1	0	4	0	3	0	0	0	0	0	0	0	1
OTU 50	17	0	1	2	1	5	0	0	1	7	0	1	1	4	9	2	2	2	0	0	11	1	1	12	1	6	0	0	0	0	0	7	3	18	2	2	4	2	0	4	9	5	0	5	1	1	2	1	0	1
OTU 51	0	1	0	1	2	0	0	2	0	0	20	1	0	5	1	0	0	0	0	1	0	0	8	0	3	2	2	0	2	3	0	1	0	1	0	0	2	0	55	0	1	0	0	1	1	0	0	0	1	11
OTU 52	0	120	1	1	5	1	3	2	2	1	17	40	1	0	14	0	2	8	7	2	1	2	9	11	7	3	1	8	0	0	1	36	1	20	18	1	0	2	23	0	9	3	4	8	2	0	1	12	0	3
OTU 53	0	0	0	0	0	0	0	0	0	0	0	0	0	0	0	0	0	0	0	0	0	0	0	0	0	1	0	0	0	0	0	0	0	0	0	0	0	0	0	0	0	0	0	0	0	0	0	0	0	2
OTU 54	10	0	3	2	1	26	2	4	2	0	0	1	8	1	2	3	0	3	18	1	3	0	0	0	0	0	5	9	0	3	5	2	2	0	1	2	8	1	0	0	0	5	3	3	0	2	0	2	2	0
OTU 55	0	0	0	0	0	0	0	0	0	0	0	0	0	0	0	0	0	0	0	0	0	0	0	0	0	0	0	0	0	0	0	0	0	0	0	0	0	0	0	0	0	0	0	0	0	0	0	0	0	0
OTU 56	0	2	0	0	0	0	44	1	0	0	0	0	0	0	0	0	0	0	0	1	0	3	0	0	0	0	0	0	0	0	0	0	0	0	0	1	0	1	0	0	0	0	0	17	0	0	0	0	0	0
OTU 57	12	2	2	1	3	0	0	1	13	1	0	0	4	5	3	2	1	2	12	2	10	3	5	3	1	6	3	4	11	2	5	5	11	2	5	1	0	0	0	4	0	4	1	4	7	31	1	1	7	4
OTU 58	0	0	0	1	3	0	0	0	0	0	1	3	0	3	0	0	0	5	0	0	12	5	0	0	1	0	0	7	1	0	0	0	0	0	0	1	1	1	0	8	0	2	0	0	1	0	0	0	0	0
OTU 59	1	0	4	0	0	0	0	0	0	0	0	0	0	0	0	0	0	2	0	0	0	0	1	0	5	1	0	0	0	1	1	0	0	0	0	1	1	0	0	0	1	3	0	0	0	0	0	0	2	0
OTU 60	0	2	0	1	1	1	0	1	1	0	2	2	6	1	2	2	0	2	0	0	4	0	3	0	2	5	2	2	2	0	1	0	0	2	5	1	2	0	2	4	0	7	0	13	2	4	0	2	1	5
OTU 61	2	0	3	0	3	45	10	5	1	1	0	0	1	7	3	2	1	4	0	2	10	1	0	2	5	1	0	4	23	3	0	0	3	3	0	3	3	0	0	9	2	2	1	5	0	1	0	6	0	0
OTU 62	3	0	0	0	0	0	1	0	2	0	0	0	0	0	0	2	0	0	0	0	0	0	0	0	0	6	0	0	1	0	0	0	6	0	1	0	0	0	0	0	0	1	0	1	0	1	0	0	0	3
OTU 63	1	0	2	0	0	0	0	0	0	0	0	0	0	0	0	6	0	0	3	0	0	17	0	1	6	0	0	1	0	0	3	6	0	0	4	0	0	0	0	0	1	2	0	0	1	0	0	0	0	0
OTU 64	18	2	6	0	4	7	4	12	3	0	1	7	0	0	0	6	1	2	16	7	5	1	12	2	0	3	4	1	19	5	6	10	1	2	16	2	2	6	3	0	3	0	2	16	17	2	1	8	5	7
OTU 65	0	0	0	0	0	0	0	0	0	0	0	0	0	0	0	0	0	0	0	0	0	0	0	0	0	0	0	0	0	0	0	0	26	0	0	0	0	0	0	0	0	0	0	0	0	0	0	0	0	0
OTU 66	0	1	4	0	2	0	0	2	7	0	1	0	0	0	1	5	0	0	1	2	16	0	0	1	3	0	0	0	0	2	4	0	0	0	1	2	8	0	0	0	0	1	2	2	1	0	0	0	0	9
OTU 67	1	1	0	0	0	2	1	0	1	0	2	4	1	4	0	0	0	1	4	0	1	0	2	0	0	0	0	2	1	0	0	0	0	0	0	2	0	0	0	3	0	0	0	0	0	7	0	0	0	7
OTU 68	0	0	0	0	0	0	0	2	0	0	0	0	0	0	0	0	0	0	3	3	0	1	1	0	18	0	1	1	2	0	1	0	0	0	1	1	0	0	0	0	0	0	0	5	4	0	4	0	1	0
OTU 69	3	0	1	0	0	2	0	4	5	0	1	5	0	34	0	2	2	0	0	0	0	0	1	0	0	3	0	0	1	3	4	2	2	1	2	0	30	1	0	10	0	56	2	9	0	4	0	10	2	3
OTU 70	0	0	4	0	3	0	0	0	4	0	0	0	0	0	0	0	2	0	0	2	0	0	0	0	0	0	4	3	3	0	1	2	0	0	0	0	0	3	0	1	0	0	0	2	1	0	0	0	0	0
OTU 71	1	2	0	0	1	0	0	2	5	0	0	1	0	0	0	0	0	0	1	0	5	0	0	1	0	0	0	3	0	0	0	0	6	0	0	0	2	2	0	1	0	8	0	2	0	1	2	0	0	1
OTU 72	1	0	1	0	1	0	4	2	1	2	1	2	5	4	1	4	2	3	2	2	1	0	2	0	1	5	4	0	2	8	1	0	0	0	1	0	4	1	0	0	0	2	1	0	3	3	1	6	1	1
OTU 73	1	0	0	0	2	0	0	0	0	0	0	0	1	0	0	1	0	1	14	0	2	2	25	0	7	1	0	0	2	0	9	1	1	0	1	1	1	7	0	0	0	0	0	1	1	0	1	1	0	0
OTU 74	0	0	1	0	1	0	3	5	0	0	0	1	1	1	1	0	0	1	7	1	0	0	0	2	4	1	0	2	0	2	5	5	2	15	0	2	11	2	1	5	8	6	0	1	0	0	2	6	2	0
OTU 75	0	0	0	1	3	0	0	2	0	0	0	0	1	11	0	1	0	5	8	1	4	0	0	0	3	2	6	2	0	3	3	0	2	1	0	1	0	1	0	1	0	1	0	2	0	4	0	0	0	0
OTU 76	0	3	0	0	0	0	2	2	0	0	0	0	0	0	2	2	0	1	0	0	1	0	0	0	0	0	1	0	0	0	0	0	0	0	0	0	1	0	0	0	0	0	0	3	1	2	0	0	0	0
OTU 77	1	0	1	0	0	3	4	2	0	0	0	2	4	1	1	0	0	3	1	0	2	0	1	0	1	2	3	126	0	0	0	6	2	0	3	0	0	0	0	14	0	2	2	1	0	0	0	2	0	0
OTU 78	0	0	0	1	3	0	3	1	0	66	0	0	1	0	0	1	0	1	0	3	0	0	0	0	6	1	0	1	1	7	1	0	0	0	0	0	0	3	0	0	0	5	0	0	1	2	1	1	0	1
OTU 79	7	28	4	0	4	5	20	37	3	1	0	0	12	1	2	9	2	2	5	3	2	3	10	2	3	4	7	2	5	35	35	2	9	3	2	1	1	3	0	4	3	5	12	4	2	4	0	3	2	5
OTU 80	0	3	1	0	4	2	1	6	0	1	0	0	2	0	2	0	0	0	26	0	5	1	131	4	2	1	12	2	1	1	4	0	0	0	0	2	3	5	0	0	1	0	2	1	3	5	3	0	1	1
OTU 81	3	15	5	1	8	1	2	2	6	3	0	1	2	1	31	2	0	4	6	0	2	0	2	0	0	6	11	13	0	1	13	2	1	2	0	2	4	1	0	1	0	3	0	0	1	0	1	1	0	1
OTU 82	2	0	1	8	3	0	1	2	0	3	0	1	2	4	0	4	0	0	0	6	4	0	2	0	0	9	0	3	0	0	1	1	0	1	0	1	0	3	1	1	0	0	0	3	1	0	3	1	3	0
OTU 83	0	0	2	0	0	0	1	0	11	1	0	0	0	0	0	0	0	0	0	0	0	0	0	1	0	0	2	0	0	0	1	1	1	0	0	0	0	0	0	0	0	0	0	0	0	0	0	0	0	0
OTU 84	3	1	1	0	1	0	3	1	2	0	1	1	2	5	1	0	0	85	2	0	0	9	0	0	0	1	0	0	0	0	0	3	0	0	0	0	0	0	5	0	0	0	0	0	0	0	0	0	0	1
OTU 85	0	0	3	0	0	0	0	4	0	0	0	0	10	0	0	1	0	3	0	0	1	0	0	0	0	0	0	2	0	0	1	0	0	0	0	0	0	0	0	11	0	3	0	13	2	0	0	0	1	0
OTU 86	1	0	0	0	0	0	0	0	0	0	0	0	0	0	0	1	0	0	0	0	0	0	0	0	0	0	0	0	0	0	0	0	0	0	0	0	0	0	0	0	0	0	0	0	1	0	0	0	0	0
OTU 87	0	0	0	0	1	0	0	1	0	0	35	113	0	0	0	0	0	0	5	0	0	0	0	0	1	0	0	0	0	4	7	0	0	0	0	0	0	0	59	0	0	3	0	0	0	0	0	0	0	0
OTU 88	0	0	0	0	0	0	0	0	0	0	0	0	0	1	1	0	0	0	0	0	0	0	0	1	0	1	0	0	0	0	0	1	0	0	0	0	0	0	0	0	0	8	0	0	0	0	0	0	0	0
OTU 89	0	1	0	0	2	4	1	0	1	0	0	0	0	6	0	0	0	0	0	0	0	0	0	0	2	0	0	0	0	0	0	0	0	0	0	4	0	0	0	2	0	1	0	0	4	0	0	0	3	0
OTU 90	0	0	0	0	0	0	0	0	0	1	0	0	0	0	0	0	0	0	0	2	0	0	0	0	0	0	1	0	0	0	0	0	0	0	0	1	0	1	0	0	0	0	0	0	0	0	0	0	0	0
OTU 91	0	0	0	0	0	0	4	0	0	1	0	0	0	0	0	0	0	0	0	0	0	0	0	0	0	0	0	0	0	0	0	110	0	3	54	0	0	0	0	0	1	0	0	0	0	0	0	0	0	0
OTU 92	0	0	2	0	0	0	0	0	0	0	1	0	0	0	0	0	1	0	0	0	0	2	2	0	1	0	2	0	0	0	0	0	0	0	0	0	0	0	0	0	0	0	1	0	0	0	0	0	0	0
OTU 93	0	0	0	0	0	1	0	0	0	0	0	1	0	0	0	0	0	0	0	0	0	0	0	0	0	0	0	0	0	0	2	0	1	0	0	0	0	0	0	0	0	0	0	0	0	0	0	0	0	1
OTU 94	2	1	11	0	0	1	3	4	4	4	3	0	0	0	3	1	1	0	12	1	9	1	37	2	4	3	1	2	1	1	4	3	2	3	0	2	3	0	2	9	2	1	0	4	4	0	0	0	1	1
OTU 95	1	1	0	0	0	0	0	0	0	90	146	0	1	0	0	0	0	2	0	0	0	1	0	0	6	0	0	0	0	0	0	0	0	0	0	1	0	0	0	0	0	0	0	0	0	0	0	0	0	0
OTU 96	0	0	0	0	0	0	0	0	0	2	0	0	0	0	0	0	0	0	0	0	0	0	0	0	0	1	0	0	0	0	0	0	37	0	0	0	0	1	0	0	0	0	0	0	0	0	0	0	0	0
OTU 97	0	0	0	0	0	0	0	0	0	0	0	0	1	0	0	1	0	2	0	2	0	0	0	0	0	0	0	0	0	0	0	0	0	0	0	0	0	0	0	0	0	0	0	0	0	0	0	0	0	0
OTU 98	0	1	0	4	0	0	0	0	9	0	0	0	0	0	0	0	0	0	0	1	0	0	0	0	0	0	2	0	4	1	0	0	1	0	0	0	0	1	0	1	0	0	0	1	8	1	1	0	0	0
OTU 99	12	5	1	1	2	1	4	5	1	1	1	10	0	1	2	5	0	2	0	3	5	2	0	0	0	3	2	8	2	0	5	8	0	3	1	0	0	1	1	0	1	2	0	6	4	1	1	0	2	0
OTU 100	1	1	0	0	0	0	2	1	2	0	0	0	1	0	0	0	1	4	0	0	0	2	5	0	0	2	0	1	0	0	0	0	0	0	0	2	0	3	0	2	0	0	0	0	0	1	1	0	3	0
OTU 101	0	0	0	0	3	0	0	0	0	0	0	0	0	3	0	0	0	0	0	0	0	0	0	0	0	0	0	0	0	0	0	0	0	0	0	0	0	0	1	0	0	0	0	0	0	0	0	0	0	0
OTU 102	7	0	1	0	0	0	0	0	0	1	0	0	0	0	0	2	0	0	0	0	0	2	2	0	0	0	1	0	0	0	0	2	0	0	0	3	0	0	0	0	0	3	0	0	0	0	0	0	0	0
OTU 103	6	32	0	0	0	0	0	1	0	3	0	0	1	0	0	0	2	0	0	0	0	0	0	0	0	0	0	0	1	0	0	0	1	0	1	2	0	0	0	3	0	2	0	0	1	0	1	0	0	0
OTU 104	4	0	98	3	0	0	2	4	12	0	1	2	0	1	6	4	0	11	10	3	3	2	5	3	0	11	5	0	6	0	1	4	1	10	1	1	6	0	1	0	4	7	0	0	9	1	0	4	7	39
OTU 105	0	0	2	0	0	0	0	2	0	0	0	0	0	0	0	0	0	0	0	0	0	2	0	0	0	1	3	0	0	0	96	0	0	0	0	0	0	2	0	0	0	0	0	0	0	0	0	0	0	1
OTU 106	0	0	3	0	0	1	0	0	0	0	0	0	2	1	0	0	0	0	1	0	0	0	4	0	0	0	0	4	2	0	0	0	0	1	0	0	0	0	0	0	0	0	0	7	4	0	0	0	3	4
OTU 107	0	0	0	2	2	0	1	0	0	0	1	0	1	0	0	0	0	0	6	0	0	0	1	0	0	0	0	0	0	1	0	0	64	1	1	0	0	1	0	0	0	0	4	0	0	118	0	27	0	0
OTU 108	0	0	0	1	0	2	2	0	0	0	0	0	0	0	0	4	0	0	0	2	0	0	0	0	0	0	3	2	0	0	0	0	3	0	0	0	0	1	1	0	0	2	0	1	4	0	0	0	2	0
OTU 109	0	0	0	0	0	0	0	0	0	0	0	0	0	0	1	0	0	0	0	0	0	0	0	0	0	0	0	0	0	0	0	0	0	0	0	0	0	0	0	0	0	0	0	0	0	0	0	0	0	0
OTU 110	8	12	0	0	1	5	11	0	1	8	4	11	14	14	11	3	5	0	0	0	1	0	0	8	0	0	4	2	0	6	9	0	3	13	1	0	0	6	0	0	8	1	1	0	0	0	4	0	0	0
OTU 111	0	0	0	0	0	26	0	0	9	0	0	0	0	0	0	0	0	0	0	0	0	0	0	0	0	0	0	0	0	0	0	6	0	0	0	0	0	0	0	0	0	0	0	0	0	0	0	0	0	0
OTU 112	4	3	0	0	0	0	1	0	0	0	0	1	0	1	0	3	0	0	3	0	0	0	4	0	0	0	1	4	1	0	0	1	2	0	0	0	0	0	1	1	0	2	0	0	0	0	0	0	8	1
OTU 113	0	3	0	0	0	1	0	0	0	0	0	0	0	0	0	0	1	0	0	0	0	0	0	0	0	0	0	0	0	0	0	0	1	0	0	0	0	0	0	0	0	0	0	0	0	0	0	2	8	0
OTU 114	3	34	17	0	0	4	3	6	2	6	0	4	1	3	0	10	17	11	1	4	1	3	2	4	0	2	4	4	0	3	0	0	2	4	4	3	3	13	0	2	0	6	0	2	1	6	0	0	3	4
OTU 115	0	2	3	0	2	1	2	1	1	3	0	5	0	3	3	3	2	5	0	3	0	2	2	0	1	3	5	0	2	5	0	0	8	3	2	2	10	8	2	0	2	4	5	1	4	0	3	10	2	4
OTU 116	0	0	2	1	1	1	1	0	13	0	2	3	0	1	1	2	6	0	5	0	12	3	0	1	0	5	0	0	1	1	0	1	0	4	1	2	0	0	2	1	1	0	2	0	0	0	0	0	0	3
OTU 117	2	0	1	0	6	2	0	21	4	0	0	2	2	0	4	3	0	0	1	0	1	1	1	0	1	1	1	0	64	3	4	0	8	0	0	2	0	0	2	0	1	1	4	0	1	7	0	0	1	2
OTU 118	0	0	0	0	0	0	0	0	4	0	0	0	1	0	1	0	0	0	0	0	0	0	0	0	0	4	0	0	1	0	0	1	0	0	0	129	1	0	0	2	0	0	0	3	0	5	0	0	0	0
OTU 119	3	0	1	0	2	1	35	0	0	1	1	0	0	3	5	0	1	11	0	0	0	2	0	1	4	3	2	0	1	0	0	1	0	5	1	1	0	0	0	0	2	2	0	0	0	8	1	0	3	2
OTU 120	1	2	1	1	4	0	3	1	0	0	0	0	0	0	0	0	0	20	3	3	0	0	4	0	0	0	0	0	0	5	2	1	3	0	0	0	0	0	0	0	0	0	3	0	4	2	0	0	0	5
OTU 121	0	0	0	1	0	1	1	0	0	2	0	0	0	2	2	0	1	0	0	0	0	7	1	0	7	2	1	1	0	3	0	2	0	1	1	0	0	5	0	2	0	10	3	0	0	0	0	0	0	6
OTU 122	7	1	2	1	1	0	0	4	2	0	0	0	0	0	0	0	0	3	1	4	0	1	1	0	1	1	1	2	1	0	3	0	3	1	1	1	5	0	0	1	0	3	2	2	3	0	0	1	0	1
OTU 123	2	3	4	8	5	0	25	7	16	5	8	11	0	0	2	6	5	20	4	9	6	169	9	3	4	19	6	2	25	6	10	22	4	5	21	6	4	7	10	22	3	5	5	9	19	7	0	27	13	3
OTU 124	0	0	1	0	0	0	0	7	0	1	0	0	0	0	0	0	0	0	0	0	0	0	0	0	0	0	0	0	0	0	0	0	0	0	0	0	4	2	0	0	0	0	0	1	0	0	0	0	0	0
OTU 125	4	5	6	5	1	4	19	5	27	32	2	2	23	3	3	0	6	1	3	5	1	10	5	1	11	5	1	2	2	44	0	5	10	7	1	35	2	2	0	3	3	11	21	17	5	2	95	1	0	7
OTU 126	0	0	0	0	0	0	0	0	0	0	0	0	1	0	0	0	0	0	0	0	0	0	0	0	0	8	2	0	0	0	2	0	0	0	0	0	0	0	0	0	0	0	0	0	0	0	0	0	0	0
OTU 127	1	1	0	0	0	0	0	0	0	0	0	1	0	0	0	3	2	3	1	0	3	0	0	0	5	2	0	1	4	1	0	0	0	0	0	0	0	0	0	1	0	3	1	2	0	0	0	0	4	2
OTU 128	37	2	48	11	2	20	6	6	5	44	2	7	5	6	8	5	55	7	21	12	8	4	3	1	26	2	47	6	19	5	16	5	3	8	7	4	10	98	2	5	3	23	4	0	30	19	46	4	6	1
OTU 129	0	0	0	0	0	0	0	0	0	0	0	0	0	0	0	0	0	0	0	0	0	0	0	0	0	0	2	1	0	4	0	5	0	0	0	0	0	0	0	0	0	0	0	0	0	0	0	0	0	1
OTU 130	1	4	0	0	0	0	1	0	3	0	1	2	0	2	0	1	0	0	5	0	0	6	0	0	0	6	1	0	1	0	1	0	0	0	0	0	0	2	0	2	0	0	1	4	1	1	0	6	0	0
OTU 131	1	0	1	0	0	0	6	5	0	0	2	0	0	0	0	5	0	41	2	0	0	1	0	1	5	12	1	4	0	1	0	0	9	0	6	0	6	0	0	0	0	5	0	0	0	9	0	36	0	1
OTU 132	0	0	1	0	0	0	4	3	2	0	0	3	0	2	0	0	0	2	0	0	0	0	0	0	0	1	0	3	0	0	0	2	0	1	0	0	6	1	5	0	0	0	0	0	4	0	0	0	1	0
OTU 133	0	0	0	0	0	0	0	1	0	0	0	0	3	0	0	0	0	0	0	0	0	1	0	0	2	0	0	0	0	0	0	0	1	0	0	0	0	0	0	0	0	0	1	0	0	0	0	3	134	0
OTU 134	0	0	0	1	1	0	0	1	3	0	0	0	0	0	1	0	1	0	2	0	0	0	0	0	1	0	3	0	4	5	1	1	1	0	3	0	0	1	0	2	1	0	0	0	1	6	1	0	3	0
OTU 135	9	0	0	1	3	1	0	0	0	0	0	0	0	1	0	0	1	0	0	1	0	2	11	0	0	1	14	1	0	63	0	0	2	1	0	0	3	0	2	0	3	1	29	0	2	1	0	1	0	0
OTU 136	0	2	0	0	3	6	0	1	2	0	0	1	0	0	0	2	0	6	0	0	0	1	0	0	2	1	1	1	0	0	0	0	1	0	0	1	2	0	0	6	0	0	0	0	0	1	0	0	0	3
OTU 137	0	0	0	0	4	0	0	7	0	0	1	12	0	0	0	3	0	0	0	1	0	0	1	0	0	0	0	0	1	0	2	1	0	0	0	1	0	0	2	0	0	0	0	4	5	1	0	1	0	0
OTU 138	0	1	0	0	0	0	0	0	1	4	0	0	0	23	0	0	8	0	0	0	1	15	1	0	1	1	0	1	0	0	0	0	0	1	2	0	2	19	0	0	0	2	1	0	0	6	10	0	0	1
OTU 139	4	1	8	2	0	4	2	0	1	4	1	4	0	1	1	1	0	1	2	2	0	0	1	1	49	14	1	0	1	0	6	0	0	2	15	0	2	4	2	1	2	3	1	3	2	0	2	1	1	2
OTU 140	4	5	4	1	2	3	6	15	7	2	0	0	0	22	1	13	7	3	2	0	2	3	1	0	1	23	29	1	1	14	4	1	0	5	0	1	0	5	0	1	2	1	7	44	4	8	1	0	0	4
OTU 141	0	0	0	0	0	0	0	0	0	0	0	0	0	2	0	0	0	0	0	0	0	0	0	0	5	0	0	0	0	0	0	0	0	0	0	0	0	0	0	0	0	0	0	0	0	0	0	0	0	0
OTU 142	0	0	0	0	0	0	0	0	0	0	0	0	0	0	0	0	0	0	0	1	0	0	0	0	0	0	0	0	0	0	0	0	0	0	0	0	0	0	0	1	0	0	0	3	0	0	0	0	0	0
OTU 143	0	0	0	0	0	0	0	0	2	0	0	0	0	0	0	1	0	0	0	1	0	0	0	0	0	0	2	0	0	0	0	0	0	0	0	0	0	0	1	0	0	0	0	0	0	0	0	0	0	0
OTU 144	0	0	9	0	7	0	0	0	0	0	0	2	0	0	0	0	0	0	2	0	0	1	3	0	0	0	1	0	0	0	0	0	0	0	1	0	0	0	1	4	0	0	0	0	0	0	0	0	0	1
OTU 145	3	0	0	0	4	1	5	6	2	0	0	1	2	3	0	3	1	1	2	0	1	3	0	1	2	4	2	0	0	1	1	3	2	7	0	0	1	0	0	1	4	1	5	5	4	1	111	0	0	5
OTU 146	0	0	0	0	3	0	1	2	1	0	1	1	10	0	0	0	0	0	0	0	1	0	0	1	7	3	4	0	0	4	0	2	0	0	2	2	1	0	0	0	0	0	0	0	0	0	0	2	0	2
OTU 147	1	6	0	0	0	0	3	0	1	0	0	0	3	0	1	0	0	0	1	0	1	0	3	0	0	0	0	0	0	0	0	0	1	2	0	0	0	0	1	0	0	0	0	1	0	0	0	0	0	0
OTU 148	4	2	4	0	0	0	0	0	0	0	0	0	0	0	0	0	0	1	1	0	3	0	1	2	1	0	4	0	3	0	5	11	21	3	5	1	0	0	1	6	4	0	0	2	1	8	0	2	0	0
OTU 149	5	0	0	1	0	3	0	0	1	0	0	1	34	0	0	0	0	1	1	0	2	0	0	1	0	0	0	0	0	1	1	0	0	0	0	5	0	0	0	0	0	2	1	1	0	0	0	0	0	2
OTU 150	1	1	2	1	1	0	0	0	0	1	0	0	1	0	0	0	0	0	0	0	0	0	0	0	0	7	2	2	0	0	0	0	0	0	0	0	0	0	0	4	0	0	0	0	1	0	0	0	0	0
OTU 151	1	1	0	0	3	0	1	0	0	0	0	0	0	1	0	0	0	0	0	0	0	7	0	1	0	0	0	2	0	0	0	0	0	0	0	0	1	0	0	2	0	0	1	0	1	0	0	0	0	0
OTU 152	3	2	0	1	2	2	0	0	9	4	6	11	3	2	0	0	2	1	2	0	4	1	0	1	15	7	2	3	2	1	1	2	0	1	0	0	0	8	9	0	0	1	1	8	0	5	5	0	0	1
OTU 153	0	1	0	1	0	0	0	0	0	0	0	0	0	2	0	0	0	1	0	0	0	0	0	0	0	0	0	0	0	0	0	0	0	0	0	0	0	0	0	0	0	2	0	0	1	0	0	0	0	0
OTU 154	0	0	0	1	0	0	0	0	1	0	0	0	0	0	5	0	0	0	0	0	0	0	0	17	0	0	0	0	0	0	0	0	0	9	0	0	0	1	0	0	7	0	0	0	0	0	1	0	0	0
OTU 155	0	0	0	0	8	1	4	4	1	0	0	0	1	0	3	0	0	2	0	0	1	0	1	0	0	0	0	0	0	0	1	0	0	0	0	3	0	1	0	0	0	0	0	2	0	0	0	1	0	0
OTU 156	3	1	2	0	3	4	0	8	9	2	0	0	0	3	0	1	134	1	0	0	3	1	0	1	6	8	1	0	3	2	1	3	0	0	0	1	0	2	0	9	1	8	1	2	0	8	3	0	0	1
OTU 157	0	0	0	9	0	0	0	0	0	0	0	0	0	0	0	0	1	0	0	0	0	0	0	0	0	10	0	0	0	0	0	0	3	0	0	0	0	0	1	0	0	0	0	0	1	0	0	0	5	0
OTU 158	0	0	0	0	0	0	0	0	0	0	0	0	0	0	0	0	0	0	0	0	0	0	0	0	0	0	0	0	0	4	1	0	0	0	0	0	0	0	0	0	0	0	6	0	0	0	0	0	0	0
OTU 159	0	0	0	0	7	6	1	0	0	0	0	0	1	0	27	0	0	1	1	0	0	4	0	0	0	3	0	0	0	3	0	0	3	1	0	0	22	0	0	3	2	21	2	0	0	1	0	75	2	0
OTU 160	4	5	10	0	4	13	3	1	7	1	0	1	0	0	0	4	2	1	7	10	2	0	1	5	4	5	4	0	6	6	4	2	0	3	0	1	8	1	1	0	1	4	0	5	13	0	7	0	1	4
OTU 161	0	1	0	0	1	0	1	0	2	0	0	0	0	2	0	1	0	1	2	1	0	1	0	0	2	3	2	3	0	0	0	1	0	0	0	0	6	0	0	0	1	1	0	0	0	0	0	0	0	0
OTU 162	6	0	0	4	2	0	3	11	1	1	0	0	4	1	1	6	0	1	0	0	11	4	1	0	5	2	0	3	0	1	0	2	0	0	1	1	0	2	0	0	0	3	3	0	0	2	2	3	5	2
OTU 163	0	0	0	0	0	0	0	0	0	0	0	0	0	0	0	0	0	0	0	0	0	0	0	0	0	0	0	0	0	0	0	0	0	0	0	0	0	0	0	0	0	0	0	0	0	1	0	0	0	0
OTU 164	0	0	0	0	0	0	0	0	0	0	0	0	0	0	0	0	0	0	0	3	0	0	0	0	0	0	0	2	0	0	0	0	0	0	0	0	0	0	0	0	0	0	0	0	0	0	0	0	0	0
OTU 165	0	0	0	0	0	4	0	0	44	0	0	1	2	1	0	0	0	0	2	0	7	0	0	0	0	0	0	0	1	4	0	0	2	2	0	0	0	0	1	0	1	3	1	2	0	0	0	0	6	3
OTU 166	0	2	0	0	0	0	1	0	0	0	0	0	0	0	0	1	0	0	0	0	0	0	0	0	0	0	0	0	0	2	0	0	0	0	0	1	0	0	0	0	0	0	0	0	0	0	0	0	0	0
OTU 167	0	0	0	0	0	0	2	2	0	0	0	1	0	1	0	1	0	1	0	0	2	3	2	0	0	0	0	0	0	0	0	1	0	0	0	2	0	2	0	0	0	0	0	0	0	0	1	1	0	0
OTU 168	0	0	0	0	0	9	0	0	0	0	0	0	2	0	0	1	0	0	0	0	5	0	0	0	1	1	0	0	0	1	0	2	1	0	0	0	1	0	0	2	0	1	0	2	0	1	0	0	1	1
OTU 169	0	0	5	0	0	0	0	0	0	0	0	0	0	0	0	0	1	0	0	0	0	0	0	0	0	0	0	0	0	0	0	0	2	0	0	0	0	0	0	0	0	0	0	1	0	1	0	0	0	0
OTU 170	0	0	3	1	0	0	0	0	0	0	0	0	0	0	0	0	0	0	0	0	0	0	0	0	0	0	0	0	0	0	0	0	0	0	0	0	0	0	0	0	0	0	0	0	0	0	0	0	0	0
OTU 171	1	0	6	2	1	43	1	0	0	0	1	2	2	3	0	8	0	1	10	2	0	0	1	16	0	2	1	0	4	0	4	1	1	2	0	0	0	1	2	10	0	0	0	0	5	2	1	0	1	2
OTU 172	0	0	0	0	0	0	0	0	0	0	0	0	0	0	3	0	0	0	0	0	0	0	0	3	0	0	2	0	0	0	0	0	0	2	1	0	0	0	0	0	0	1	0	0	0	0	0	2	0	0
OTU 173	0	0	0	0	1	0	0	1	0	0	0	1	0	0	0	0	0	0	0	0	0	1	0	0	1	0	0	0	0	23	0	0	0	0	0	2	2	0	0	0	0	0	20	0	0	0	0	2	0	0
OTU 174	0	1	1	1	113	0	1	0	1	0	0	0	0	2	0	0	4	0	1	0	14	0	2	1	1	0	3	0	0	0	1	0	0	0	0	72	0	8	0	2	0	0	0	0	1	0	2	25	0	3
OTU 175	5	0	4	0	0	2	1	0	1	0	0	0	3	0	0	10	0	0	2	0	0	1	0	0	1	3	0	0	0	0	0	0	0	1	0	0	0	0	0	0	0	0	0	7	0	0	0	0	0	0
OTU 176	1	0	1	3	6	3	7	0	9	0	2	1	1	0	0	2	0	6	3	5	5	1	0	0	2	1	5	0	66	2	0	6	0	1	1	3	0	1	1	0	0	2	0	1	0	0	0	1	1	0
OTU 177	0	1	1	0	0	0	1	3	2	0	0	6	0	0	0	0	0	1	0	0	4	0	0	1	4	0	0	0	0	1	1	0	0	0	0	0	0	0	4	4	2	0	0	1	0	0	0	0	0	2
OTU 178	0	0	0	0	11	1	0	9	0	0	0	0	0	0	0	1	0	4	0	0	0	1	0	1	0	0	2	0	0	4	0	0	0	0	0	4	0	0	0	0	0	0	1	0	0	0	0	2	0	0
OTU 179	35	1	0	0	0	0	0	8	0	0	1	0	0	0	0	0	0	1	0	1	2	0	1	0	0	0	0	4	3	0	0	0	0	0	0	0	1	2	0	0	0	0	0	0	2	0	0	2	0	0
OTU 180	0	2	3	1	1	4	2	3	3	1	1	8	0	6	0	7	7	6	2	0	7	10	3	13	5	9	4	16	0	5	1	4	5	1	3	0	2	5	0	5	0	2	3	4	0	5	3	1	34	7
OTU 181	4	0	3	0	7	0	1	12	2	2	2	2	0	3	0	0	5	0	0	0	3	5	1	0	4	0	0	0	0	4	0	0	0	0	0	1	1	5	0	0	0	0	0	1	1	0	1	0	0	0
OTU 182	5	0	0	0	0	0	0	0	0	0	0	0	0	0	0	0	0	0	0	0	0	0	0	0	0	0	0	0	0	1	0	0	0	0	0	0	0	0	0	0	2	0	0	0	0	0	0	0	0	1
OTU 183	1	0	1	4	0	0	1	1	4	19	0	0	0	0	0	13	19	5	0	10	2	0	1	0	2	0	1	3	0	0	2	0	0	2	0	0	0	47	0	0	1	3	0	0	0	0	18	0	2	11
OTU 184	0	0	5	1	0	1	0	0	0	0	1	3	3	1	0	0	1	0	0	0	0	1	3	0	0	0	0	0	0	0	1	1	1	0	0	0	3	0	2	2	0	1	0	0	1	1	0	2	3	0
OTU 185	1	1	1	0	7	1	1	1	0	3	4	1	0	0	0	0	1	0	1	2	7	0	1	1	1	3	0	2	1	2	0	0	1	5	1	2	3	1	6	17	5	2	2	0	3	0	1	3	3	1
OTU 186	0	0	2	0	0	0	0	1	0	0	0	1	0	0	0	1	0	0	0	0	0	0	0	0	0	0	0	0	0	0	0	0	0	0	0	0	0	0	0	0	0	0	0	0	0	2	0	0	3	3
OTU 187	3	0	1	1	1	4	5	2	1	4	0	0	4	6	3	5	3	1	3	0	10	0	2	1	2	4	1	0	1	0	4	5	0	8	0	2	5	4	0	0	0	5	109	2	3	1	4	5	1	3
OTU 188	1	6	0	2	7	9	2	1	0	0	0	0	0	0	2	0	0	0	0	2	4	2	0	1	2	5	1	1	1	1	0	0	0	3	3	0	1	3	1	0	1	12	1	0	3	0	0	5	0	5
OTU 189	1	6	0	2	8	2	1	4	0	3	0	0	1	0	0	0	1	0	1	1	4	0	1	0	6	0	2	0	1	1	1	0	2	0	131	3	2	0	1	4	1	0	3	1	2	1	0	0	1	93
OTU 190	0	0	0	0	0	0	0	0	0	0	0	0	57	0	0	5	0	0	0	0	0	0	0	0	0	0	0	0	0	0	0	0	0	0	0	0	1	1	0	0	153	0	15	0	1	0	0	0	0	0
OTU 191	0	1	0	5	5	7	0	6	1	0	3	1	0	61	0	3	0	1	3	11	5	6	2	0	1	2	1	0	5	4	1	2	1	0	2	0	1	2	2	0	0	2	3	0	5	4	1	0	10	0
OTU 192	0	1	2	70	1	2	1	7	1	0	0	2	1	1	4	4	0	1	0	182	7	0	0	1	1	4	15	1	0	0	0	0	0	2	0	0	3	2	0	29	0	3	0	11	3	1	3	0	0	1
OTU 193	0	0	0	0	4	2	0	9	0	1	0	0	0	0	0	2	1	0	12	0	0	1	0	3	1	0	4	3	0	4	16	1	5	7	1	0	1	5	0	0	4	0	2	2	2	0	3	1	0	8
OTU 194	7	2	0	0	0	0	7	0	0	3	0	0	0	7	0	2	0	1	0	0	1	3	0	0	4	0	0	0	0	0	2	3	0	0	2	0	0	0	0	0	0	0	0	0	0	0	0	0	0	1
OTU 195	3	5	0	1	0	0	0	0	3	0	0	0	1	1	0	1	1	0	3	6	0	1	0	0	0	0	4	1	4	1	3	0	1	0	3	1	0	0	0	6	0	0	2	0	3	0	0	0	1	0
OTU 196	2	1	5	0	3	0	0	1	0	0	0	0	0	0	0	1	0	0	1	0	3	0	0	2	1	0	0	0	0	0	7	1	0	0	0	3	0	4	0	1	0	3	0	0	1	3	0	2	0	0
OTU 197	6	0	1	1	5	11	10	5	3	12	0	1	14	3	0	0	9	6	20	1	2	1	0	5	0	5	5	0	0	0	4	0	7	7	1	0	1	2	2	6	1	18	1	13	3	0	0	0	1	2
OTU 198	0	1	1	0	0	1	0	7	0	0	0	0	0	0	0	0	0	0	0	0	0	0	0	0	1	2	0	2	0	1	0	0	0	0	0	0	1	0	0	0	0	0	1	0	0	0	0	0	0	0
OTU 199	0	0	0	171	1	1	0	0	2	0	1	1	0	5	0	0	0	2	0	0	0	0	0	0	3	0	3	0	0	0	1	0	0	0	1	0	0	0	0	1	0	0	2	0	0	1	0	0	0	1
OTU 200	0	0	1	0	1	2	0	2	1	0	0	0	2	5	0	0	0	1	0	0	0	2	0	0	1	0	0	0	1	7	0	0	0	0	1	0	1	0	0	0	0	4	3	0	2	0	0	0	0	1
