	Host 1	Host 2	Host 3	Host 4	Host 5	Host 6	Host 7	Host 8	Host 9	Host 10	Host 11	Host 12	Host 13	Host 14	Host 15	Host 16	Host 17	Host 18	Host 19	Host 20	Host 21	Host 22	Host 23	Host 24	Host 25	Host 26	Host 27	Host 28	Host 29	Host 30	Host 31	Host 32	Host 33	Host 34	Host 35	Host 36	Host 37	Host 38	Host 39	Host 40	Host 41	Host 42	Host 43	Host 44	Host 45	Host 46	Host 47	Host 48	Host 49	Host 50	
OTU 1	70	265	98	3	105	80	156	68	110	625	0	20	0	119	577	173	131	13	211	0	462	147	64	317	39	19	18	18	4	14	0	190	57	29	107	177	23	108	95	63	185	9	181	15	30	78	435	300	0	671
OTU 2	15	30	12	1	13	1	4	25	65	26	29	53	0	0	28	2	21	102	22	1	10	24	0	14	1	1	6	32	0	30	61	11	6	4	11	0	0	13	1	1	36	0	2	30	28	15	1	12	24	0
OTU 3	5	0	1	0	39	9	54	1	22	48	0	34	95	0	62	5	52	0	29	14	0	0	0	140	6	0	17	74	43	0	1	7	0	0	10	19	2	12	27	41	0	4	11	28	0	0	0	30	1	0
OTU 4	0	0	0	0	0	0	0	9	0	2	0	0	0	0	2	0	2	0	0	0	0	7	0	0	0	0	0	0	0	0	5	0	0	0	0	0	1	0	0	0	0	0	0	0	6	0	0	0	0	0
OTU 5	485	0	216	122	646	893	579	678	75	549	650	223	203	41	932	248	312	233	577	194	135	233	723	173	16	185	595	0	598	950	128	492	221	484	988	32	0	144	0	2062	5	28	415	1088	198	286	269	931	11	102
OTU 6	70	114	81	4	12	0	0	99	18	19	57	4	200	19	16	4	32	2	19	97	12	86	7	0	1	54	0	11	1	80	0	19	18	0	45	15	18	0	26	0	0	12	705	9	45	15	10	8	58	3
OTU 7	22	59	58	92	133	193	36	71	62	8	33	260	171	15	28	47	38	49	339	11	187	23	88	63	69	14	87	203	66	5	556	89	35	54	10	36	61	83	62	47	52	27	4	21	13	5	18	12	53	147
OTU 8	225	268	86	46	37	942	13	12	1243	18	19	137	134	114	17	56	43	20	115	38	121	69	49	25	148	0	688	85	701	19	19	89	126	395	89	3302	1233	59	265	33	25	4	22	106	33	728	62	12	139	220
OTU 9	17	185	6	13	0	0	20	0	4	1	11	23	0	18	0	3	39	6	95	10	0	4	268	27	1	0	0	6	1	24	0	0	35	1	163	0	0	197	0	1	1	0	2	34	1	0	0	0	1	10
OTU 10	153	1	0	3	0	40	0	3	3	179	0	21	0	1	0	97	0	4	47	0	2	9	13	0	7	50	0	0	29	0	1	0	3	69	0	2	38	52	9	1	8	1043	7	0	0	1	0	0	641	0
OTU 11	17	72	1	11	14	124	25	0	11	11	2	6	16	16	2	21	72	71	18	31	8	24	6	36	9	28	28	6	30	8	18	1	38	53	47	1	28	190	37	9	34	2	12	23	1	57	59	2	30	4
OTU 12	29	49	85	44	2	139	26	17	22	10	67	22	99	69	20	4	73	18	31	38	30	74	13	16	2	24	7	28	89	20	139	27	6	101	21	1	24	28	9	16	23	111	21	42	19	26	1	12	198	8
OTU 13	0	13	0	13	0	0	0	0	0	0	12	1	17	0	0	0	0	0	0	0	0	0	11	0	1	0	2	0	0	2	0	0	0	0	8	2	14	22	0	1	0	1	0	0	0	1	1	0	0	0
OTU 14	0	30	0	0	18	0	2	0	54	2	0	33	0	0	3	0	0	16	10	71	5	17	0	0	0	347	17	63	33	5	17	0	47	0	0	0	0	0	0	0	0	159	17	2	7	25	26	1	58	59
OTU 15	0	0	0	0	0	0	0	0	48	0	0	0	23	0	0	0	0	12	1	0	0	0	41	0	0	6	9	0	1	0	0	0	0	0	0	0	0	10	0	0	1	76	0	0	0	13	0	0	0	0
OTU 16	0	0	0	0	0	0	0	1	2	0	1	0	0	0	0	0	0	0	0	0	0	0	0	0	0	0	0	0	0	124	0	0	0	0	0	0	0	0	0	0	0	0	0	0	0	0	0	0	0	0
OTU 17	11	36	36	7	11	16	38	54	16	25	7	40	29	82	11	0	0	0	13	7	23	67	6	22	3	0	52	71	4	0	3	10	10	1	26	2	0	7	11	1	2	51	9	1	40	12	32	6	284	36
OTU 18	4	31	6	34	68	366	121	22	237	132	23	46	19	7	94	56	79	18	61	48	0	70	25	231	93	1	44	73	53	227	46	5	75	178	20	2224	349	26	168	32	13	24	6	126	28	275	30	47	16	60
OTU 19	0	0	0	0	0	0	0	0	0	0	0	0	0	0	0	0	0	0	0	0	0	0	0	0	0	0	0	0	0	0	0	0	0	0	0	0	0	0	0	0	0	0	0	0	0	0	0	0	0	0
OTU 20	236	0	4	72	117	18	49	11	44	46	0	28	1	132	1	23	18	0	5	6	1	4	9	98	10	57	61	51	94	11	78	4	7	48	0	4	219	45	60	28	1	10	26	31	1	124	5	1	68	0
OTU 21	11	81	60	67	296	39	50	15	38	36	296	9	17	23	23	1	4	1	16	30	5	137	24	83	59	30	63	1	40	7	0	6	25	38	116	33	3	81	139	68	3	33	0	58	63	30	76	9	70	7
OTU 22	194	202	3	17	39	5	114	1	34	6	85	18	204	8	82	16	18	18	10	111	68	18	3	227	1487	46	1	19	1	3	2	65	9	2	108	15	3	57	20	16	63	24	1	4	4158	10	3	44	21	27
OTU 23	13	0	10	3	1	63	37	23	1	12	13	0	3	0	5	1	1	25	18	23	1	4	0	17	4	5	0	10	113	16	0	0	0	26	1	146	2	7	4	14	33	0	13	2	3	0	15	4	65	0
OTU 24	26	25	1	52	0	10	0	0	3	0	42	13	21	9	3	0	25	0	7	1	25	1	29	0	32	106	0	16	4	20	1	2	11	11	0	0	7	65	103	2	5	24	0	6	0	39	19	2	85	12
OTU 25	0	0	0	0	0	0	0	0	0	0	0	0	77	0	0	0	0	2	142	0	0	0	4	0	0	0	0	0	0	0	0	0	1	0	1	7	0	21	0	0	0	0	1	0	0	1	0	0	0	0
OTU 26	6	0	40	0	1	0	10	0	0	3	15	6	0	0	8	1	124	33	3	0	0	21	19	6	0	1	0	0	0	0	0	0	0	0	0	0	1	60	0	0	16	0	0	171	6	0	0	3	0	5
OTU 27	0	0	0	0	0	0	0	7	0	0	0	0	0	0	0	0	0	0	0	0	0	0	0	0	0	0	0	0	2	2	0	0	0	0	0	0	2	0	0	7	0	38	2	0	0	0	0	0	0	0
OTU 28	47	7	6	14	24	8	13	54	20	1	70	2	61	342	639	40	27	70	31	83	5	8	53	35	2	35	17	97	12	21	237	1	18	10	2	17	20	14	10	48	3	91	9	32	11	3	102	291	2	0
OTU 29	218	64	3	5	6	74	17	9	43	0	49	13	40	8	21	4	36	33	12	39	19	7	5	10	46	71	2	5	34	50	0	13	27	14	40	9	43	35	103	34	43	3	15	90	10	0	28	8	40	0
OTU 30	0	0	1	0	0	0	0	0	0	0	0	0	0	0	0	0	0	0	0	0	0	0	0	0	0	0	0	0	0	0	0	0	0	0	0	0	0	0	0	0	0	0	0	0	0	0	0	0	0	0
OTU 31	241	8	0	6	3	0	0	0	8	1	124	168	13	2	5	1	101	26	360	1	0	10	4	5	22	161	2	5	0	27	35	1	10	9	0	1	31	0	45	10	232	0	0	18	2	36	56	0	11	3
OTU 32	8	60	32	2050	5	17	32	6	55	1	45	17	19	106	1	59	112	29	106	22	34	6	96	14	113	58	30	82	127	31	45	41	47	1	16	3	51	88	181	12	331	9	25	49	11	18	35	1646	6	101
OTU 33	0	0	0	0	0	2	0	0	3	0	0	0	0	0	0	0	28	0	0	0	0	0	0	0	0	0	0	0	0	0	0	0	0	3	0	0	0	4	0	17	3	0	0	0	0	0	0	0	3	0
OTU 34	873	53	61	0	13	1	23	58	7	2	4	36	19	111	4	12	90	91	4	51	21	107	1564	22	7	25	5	10	318	9	184	13	25	2	48	18	8	24	25	29	297	3	11	4	53	14	6	4	0	79
OTU 35	30	15	34	133	2	0	10	0	72	39	496	168	21	51	2	10	23	66	9	51	109	11	2	26	94	43	10	18	10	6	107	71	0	2	8	4	2	1	175	1	2	20	0	2	23	71	105	0	153	32
OTU 36	60	11	1	8	7	45	3	0	747	0	15	1	0	26	3	28	3	18	52	2	52	13	17	21	16	8	367	237	12	44	18	36	1	66	31	0	44	0	44	32	8	5	12	143	3	314	109	1	38	1
OTU 37	7	0	0	3	0	0	0	0	0	0	12	0	0	3	0	11	0	0	31	0	18	1	3	1	5	0	0	6	8	0	0	10	4	1	2	0	0	13	1	8	0	26	0	0	1	3	0	0	0	0
OTU 38	52	176	12	0	20	27	17	9	5	19	14	50	96	85	26	1	65	26	33	7	1	14	18	34	11	53	20	44	22	4	24	0	145	1	43	3	16	185	7	36	206	6	17	23	3	29	18	19	96	1
OTU 39	10	6	10	2	0	25	5	7	14	1	0	1	0	0	0	8	1	66	0	0	1	6	0	0	0	1	0	37	0	26	0	0	0	7	5	102	1	0	0	1	0	9	3	0	7	5	6	0	61	0
OTU 40	31	109	12	39	6	171	12	13	3	4	106	45	196	244	0	5	55	1	0	2	10	24	68	22	0	117	14	56	42	230	84	0	41	33	72	36	49	30	2	23	32	1	59	19	34	78	72	0	1	49
OTU 41	22	9	0	14	11	59	1	0	27	2	5	5	89	134	0	0	2	72	56	42	19	13	33	0	42	85	16	104	5	27	75	7	4	2	17	15	15	12	41	0	6	12	55	71	1	0	4	0	65	12
OTU 42	24	1	3	16	3	2	0	1	0	0	12	2	15	0	0	0	0	0	10	0	5	9	1	13	2	0	18	1	0	104	46	4	3	0	0	0	0	0	2	0	15	8	0	0	2	0	30	0	3	8
OTU 43	0	0	7	42	0	0	0	37	0	0	0	0	0	0	0	0	0	0	0	0	0	36	0	0	0	0	0	0	0	0	0	0	0	0	1	0	0	0	0	0	0	0	0	0	21	1	0	0	0	0
OTU 44	14	78	33	0	9	0	799	28	0	1	0	2	0	0	0	0	11	0	54	10	0	134	0	0	0	0	4	0	2	4	0	0	0	0	5	1	0	0	0	0	0	0	2	21	76	0	2	0	0	0
OTU 45	121	7	7	11	115	16	27	38	5	44	11	7	8	6	2781	7	2	13	249	506	62	79	1	60	0	9	4	3	4	93	9	9	0	24	24	152	47	16	4	1	5	1	23	12	34	2	11	1444	88	147
OTU 46	53	95	1	10	92	4	34	6	0	41	4	112	2	28	39	24	78	81	73	25	2	4	44	23	12	45	6	297	10	72	273	2	1	9	19	0	19	71	16	54	86	7	11	15	7	15	13	21	109	11
OTU 47	0	3	0	0	0	1	71	0	0	0	1	2	0	1	0	2	1	17	4	0	0	0	0	109	0	0	17	1	0	0	0	0	0	0	0	51	0	18	0	0	8	0	2	0	1	13	9	0	0	0
OTU 48	50	121	180	3	52	3	2	112	35	3	49	40	44	35	26	84	94	1	132	130	1	340	36	39	15	66	1	79	21	4	10	8	3	14	75	29	6	15	20	60	121	5	2	95	126	49	4	9	26	0
OTU 49	235	87	0	0	0	3	0	7	13	0	0	3	2	205	1	18	5	40	20	0	13	8	0	6	130	19	0	13	5	7	43	0	53	2	47	2	0	40	193	524	19	0	0	3	10	8	1	2	2	0
OTU 50	4	7	7	34	119	54	89	6	85	38	20	11	24	53	35	3	74	435	183	8	11	86	6	85	34	2	127	1582	22	109	109	0	13	3	2	36	108	2	53	7	38	39	10	5	50	57	1	26	183	26
OTU 51	83	1	13	34	22	4	30	153	2	6	3	0	21	4	6	5	4	11	59	29	5	146	5	106	6	12	1	5	67	0	0	0	6	3	2748	29	13	0	7	1	1	0	14	17	71	19	406	2	50	15
OTU 52	92	167	23	103	96	5	64	29	18	32	96	95	116	38	11	1073	65	32	49	142	2050	68	1128	101	5	5	9	203	32	207	158	1174	216	26	151	94	68	1467	18	76	127	98	21	109	26	202	48	6	54	265
OTU 53	0	0	0	0	0	0	0	0	0	0	0	0	0	0	0	0	201	0	0	0	0	0	0	0	0	0	0	1	0	0	0	0	0	0	0	0	0	0	0	18	0	0	0	0	0	0	0	0	48	1
OTU 54	27	18	110	37	0	35	155	2157	145	1	16	35	65	512	7	22	155	88	110	12	12	154	13	24	6	91	47	41	15	16	76	23	56	34	18	49	195	107	19	209	147	162	3	145	87	6	52	2	122	13
OTU 55	0	0	0	0	0	0	0	0	0	0	0	1	0	0	1	0	0	0	0	0	0	0	0	0	0	0	0	0	0	0	0	0	0	0	0	0	0	0	0	0	0	0	8	0	0	8	0	1	0	0
OTU 56	26	2	1	4	1	0	4	11	0	2	0	8	45	0	0	6	11	24	1	4	0	2	1	0	0	31	0	11	5	0	2	0	7	0	4	5	0	0	1	30	27	26	0	0	0	15	15	0	1	0
OTU 57	605	115	308	49	336	122	130	208	149	1557	99	145	136	774	49	37	168	160	95	111	20	415	34	370	18	49	12	108	14	24	538	22	73	49	24	8	263	48	15	16	115	24	89	170	254	30	48	618	86	46
OTU 58	2	31	0	1	8	120	13	0	0	1	119	1	23	7	3	2	107	32	26	0	3	0	0	39	4	52	0	128	9	13	31	0	5	80	11	8	106	10	3	762	11	17	2979	0	0	2	9	1	0	4
OTU 59	0	132	26	132	84	13	79	3	7	112	15	2	1	0	50	10	0	14	14	3660	27	38	96	159	29	117	17	204	3	16	16	20	129	11	31	11	6	33	68	7	31	13	44	0	11	7	78	28	26	56
OTU 60	20	29	36	55	16	3	2	9	18	1	28	19	9	286	1	10	20	49	22	0	29	21	135	14	37	1207	1	33	18	221	9	17	12	37	14	3	51	56	51	58	43	144	12	10	15	26	33	2	64	4
OTU 61	23	155	214	42	70	56	55	256	0	76	33	954	1	11	15	16	23	42	136	164	43	443	261	27	25	12	19	17	28	116	58	20	197	12	90	34	10	457	44	22	17	32	61	1	226	28	49	5	0	11
OTU 62	50	4	1	0	34	9	0	0	33	8	18	0	14	70	5	0	3	118	8	0	0	2	0	0	1	56	19	0	1	98	0	0	0	13	1	1	14	0	3	5	0	0	20	39	0	58	0	1	0	0
OTU 63	1	54	26	0	16	0	43	4	3	22	1	0	0	0	0	27	15	0	25	64	1	22	48	35	27	2	1	0	7	0	6	0	43	1	9	9	23	26	25	1	68	111	0	10	3	0	4	0	160	1
OTU 64	71	180	120	27	31	42	11	54	43	12	0	20	248	30	11	22	74	167	124	32	50	384	27	15	16	127	9	310	63	102	49	14	150	23	97	49	70	24	17	599	41	77	14	53	219	27	25	8	45	6
OTU 65	0	0	0	0	0	0	0	21	0	0	0	0	2	0	0	9	0	0	13	0	0	84	0	0	0	0	17	0	0	1	0	0	0	0	0	0	0	0	0	0	0	0	0	0	23	0	0	0	0	0
OTU 66	51	42	37	21	27	5	16	4	61	8	16	8	25	84	5	57	23	142	50	24	72	22	1	6	96	21	0	10	1	0	4	21	13	13	47	2	17	8	163	58	40	57	0	33	15	1	8	3	0	94
OTU 67	67	51	119	5	0	108	0	90	42	0	0	5	1	74	0	0	43	27	27	8	3	325	26	2	0	1	11	5	78	58	7	0	20	16	4	19	30	32	3	0	3	3015	5	25	154	24	7	0	2	116
OTU 68	1	0	16	15	0	97	10	9	11	0	0	22	0	0	0	1	4	0	2	0	0	22	0	0	7	0	16	9	0	1	7	0	0	73	0	0	2	3	14	2	0	0	15	65	31	2	0	0	0	0
OTU 69	82	67	49	0	15	15	19	103	57	19	600	12	12	1	13	1	446	156	209	1	11	67	348	35	14	10	119	0	45	0	82	778	54	0	18	86	17	1002	39	268	1	44	1	12	67	100	21	10	6	1
OTU 70	7	0	0	0	40	2	18	0	0	586	2	2	0	60	10	0	7	40	7	3	0	0	12	29	7	12	0	5	1	31	77	2	2	6	3	0	25	78	39	43	25	8	1	1	0	0	4	7	2	0
OTU 71	0	1	0	2	84	99	41	5	0	15	3	0	4	53	26	5	0	49	0	5	1	12	0	146	3	3	1	52	0	7	10	11	0	56	0	17	0	0	5	0	14	0	12	125	6	1	29	14	24	2
OTU 72	182	13	23	125	1	39	15	0	8	37	9	27	134	50	16	41	1	1	26	23	178	79	6	42	67	109	12	35	0	35	21	46	4	30	0	17	28	43	107	3	833	61	74	10	36	25	159	6	0	193
OTU 73	1	23	13	7	8	33	15	90	173	20	47	23	25	65	0	2	102	13	18	9	1	95	0	50	39	0	53	13	3	23	41	0	66	4	22	12	111	39	78	1	48	5	10	3	20	3029	0	0	0	4
OTU 74	7	210	1	33	11	2	7	0	4	4	9	19	79	29	24	26	23	2	56	12	8	16	0	27	32	13	8	42	11	329	2	10	28	11	221	59	2741	4	50	7	9	15	1	50	4	5	7	13	25	9
OTU 75	11	79	65	26	0	17	0	60	33	2234	18	10	74	19	0	27	73	8	1	15	32	105	38	0	10	73	14	8	1595	40	169	6	165	15	6	18	46	9	21	50	5	8	2	12	34	10	16	0	20	31
OTU 76	5	15	0	0	0	0	0	21	15	1	138	8	3	1	0	0	0	0	150	0	6	20	0	0	0	37	0	9	0	4	6	2	0	7	0	5	10	0	0	2	7	44	1	0	6	31	0	0	43	9
OTU 77	136	43	86	40	126	41	80	2	82	63	15	135	50	0	69	12	2	107	149	2	18	21	30	196	27	1	3	0	1	11	68	7	2	11	41	11	35	47	53	22	40	33	29	67	24	30	44	32	28	4
OTU 78	83	7	86	2	695	3	437	16	96	158	40	0	1216	108	210	0	0	0	2	14	31	119	1084	1074	1	66	23	20	38	0	40	9	4	4	1	618	20	6	1	20	49	2	10	38	63	41	1741	86	1	12
OTU 79	125	298	397	130	311	648	307	254	98	214	218	57	618	63	222	70	418	70	208	54	19	341	33	788	79	33	3388	59	222	174	101	6	58	376	54	127	50	41	222	143	119	53	50	116	122	40	66	134	181	129
OTU 80	114	84	13	13	5	144	15	13	11	13	2	13	51	76	3	5	36	22	38	0	6	25	8	96	5	0	34	39	54	91	56	2	60	111	43	29	77	90	31	4	112	15	13	103	35	2	182	0	27	18
OTU 81	71	24	6	53	11	15	6	5	123	4	27	6	37	1144	23	18	164	97	5	186	2	60	61	14	19	1	22	90	43	143	115	2	1	63	1	5	91	61	25	93	19	16	18	37	47	5	94	11	78	79
OTU 82	2	7	12	0	9	150	17	1	12	50	116	0	0	37	27	18	10	81	19	18	5	0	11	32	17	36	0	13	61	125	0	0	4	101	11	1	155	24	14	9	1	210	5	7	21	22	18	18	13	2
OTU 83	0	0	0	1	5	0	0	0	0	0	11	0	30	0	0	0	0	0	1	2	0	0	0	0	0	4	32	9	1	7	10	0	0	3	0	2	5	0	1	12	3	33	0	0	0	0	1	0	0	19
OTU 84	2	103	25	11	3	17	218	47	16	11	5	13	36	1	49	3	21	28	0	5	0	56	0	49	2	0	2	33	18	0	15	1	68	0	56	2	72	74	3	5	2	15	0	11	19	6	22	22	16	21
OTU 85	0	80	3	10	0	0	0	17	61	2	8	2	0	1	0	0	5	7	3	58	0	5	0	1	22	4	6	1	53	119	9	0	28	1	12	0	0	5	17	0	0	1	1	0	0	0	7	0	12	2
OTU 86	13	0	0	5	0	0	0	0	0	1	29	0	2	32	1	0	0	1	0	0	0	0	0	0	1	0	0	0	0	0	0	0	2	0	0	0	0	0	0	0	0	0	0	0	4	0	0	0	0	0
OTU 87	0	5	9	1	34	0	0	0	1	7	0	0	10	61	0	3	0	1	0	50	0	0	0	0	17	6	0	0	0	3	0	0	0	0	0	15	78	1	20	0	0	13	1	90	0	0	5	0	0	14
OTU 88	29	9	0	0	0	0	0	11	0	0	0	0	8	0	0	8	0	0	0	0	0	0	0	0	0	0	0	0	0	0	0	0	4	0	0	0	11	0	0	1	1	0	0	2	0	0	0	0	15	1
OTU 89	0	1	0	0	0	0	8	0	68	4	831	11	17	20	0	1	11	12	7	17	0	3	1	47	20	2	34	0	13	211	0	5	19	21	0	3	51	0	31	0	2	26	0	5	11	1	73	0	3	0
OTU 90	0	1	5	1	0	0	3	1	95	0	0	0	58	0	0	0	0	0	0	0	0	1	0	1	7	0	6	7	18	0	0	0	11	0	25	0	0	0	20	0	0	8	3	0	0	0	0	0	0	0
OTU 91	0	0	10	0	1	0	0	0	4	1	0	0	0	0	0	0	0	0	0	0	0	0	0	0	0	15	2	0	0	0	0	0	0	0	0	0	0	0	0	37	0	22	0	0	0	0	7	0	0	0
OTU 92	0	0	0	6	8	2	2	9	0	0	10	0	17	73	0	2	0	0	1	0	1	1	1	0	0	11	0	0	8	0	0	1	0	1	4	120	0	0	0	1	0	10	2	0	0	0	0	0	135	13
OTU 93	4	0	1	0	0	0	1	0	0	0	0	2	0	5	0	12	0	210	0	7	0	0	0	0	19	0	0	0	6	7	0	0	0	0	2	0	28	0	52	9	1	0	0	4	0	0	8	0	0	3
OTU 94	281	101	21	2	0	8	8	1	73	5	17	296	31	19	6	10	3	155	278	7	31	29	82	105	88	80	0	25	2	16	374	17	61	31	15	14	5	32	189	102	87	76	681	85	2	35	38	3	107	12
OTU 95	7	0	0	41	16	19	0	0	2	5	40	0	7	8	5	1	12	15	26	7	10	0	0	19	0	1	57	15	9	0	0	0	0	9	0	2	9	1	0	0	56	0	0	52	0	0	10	2	0	0
OTU 96	4	0	15	0	0	14	0	37	0	0	0	1	0	0	0	24	0	0	0	0	0	19	0	3	0	2	0	0	0	0	0	0	0	16	1	0	45	0	1	3	0	10	0	0	14	0	0	0	0	0
OTU 97	3	10	21	0	0	6	0	4	1346	0	0	20	4	38	0	0	0	5	35	22	0	9	6	0	0	15	751	0	13	1	0	0	1	0	2	0	1	0	0	0	52	0	0	30	0	499	10	0	1	0
OTU 98	0	0	17	37	0	10	2	18	0	0	17	0	0	25	0	376	4	1	0	37	535	42	17	0	49	13	49	0	0	23	76	187	0	38	11	0	18	0	96	0	1	0	8	3	14	3	97	0	4	62
OTU 99	29	3	24	166	70	7	5	49	41	20	27	41	16	68	17	29	20	121	144	20	165	25	126	79	30	16	4	35	92	122	33	37	4	12	11	0	38	35	38	25	31	43	294	42	2	83	44	5	68	9
OTU 100	141	47	17	0	4	43	0	43	0	7	32	0	7	15	4	2	49	0	33	36	3	19	0	3	9	2	1	2	0	70	9	0	38	12	36	11	5	7	11	49	12	20	2	14	18	11	2	2	82	94
OTU 101	0	0	54	0	0	0	5	0	0	0	0	0	0	1	1	0	0	0	8	0	0	0	12	0	0	0	1	0	0	0	20	0	0	0	0	0	4	0	0	12	0	0	0	4	0	0	1	0	0	0
OTU 102	3	4	1	0	2584	1	3	18	1	0	0	0	12	8	0	4	14	0	0	1	0	2	0	0	0	0	0	0	0	3	0	0	8	0	0	0	27	30	2	10	0	0	1	83	1	5	0	0	8	2
OTU 103	2	93	1	17	76	0	7	1	0	15	43	23	91	72	31	0	2	5	0	20	53	2	10	52	0	7	0	368	0	0	13	54	19	6	100	20	25	14	2	1	17	85	18	14	0	0	0	15	0	0
OTU 104	47	20	3	43	5	73	27	0	39	3	72	110	28	22	13	75	23	30	26	94	16	26	21	48	13	92	45	170	0	0	79	11	38	25	5	12	120	8	10	61	66	57	4	6	41	26	41	5	12	214
OTU 105	18	0	0	1	27	0	57	0	33	1	0	4	10	24	44	12	53	3	1	0	15	1	12	88	11	1	0	0	0	0	0	0	0	5	0	23	7	0	9	47	21	0	0	39	0	20	0	20	37	31
OTU 106	3	77	21	0	0	6	3	56	2	2	74	0	19	11	0	1	0	0	0	9	1	86	4	16	0	0	0	0	5	0	0	0	85	2	63	0	0	1	0	0	0	1	3	152	24	0	0	0	4	0
OTU 107	0	0	7	1814	0	9	0	3	0	15	59	444	2	0	2	27	23	6	0	0	96	24	27	0	28	0	16	68	0	0	1	89	6	0	0	67	2	0	101	3	37	23	1	27	2	4	154	1	0	121
OTU 108	0	26	29	1	1	0	0	96	4	1	135	24	1	8	0	0	100	1	60	34	4	185	455	2	0	21	3	0	2	26	3	0	2	2	16	0	0	426	0	5	20	29	0	12	93	0	1350	0	30	11
OTU 109	0	0	0	0	5	0	0	0	0	0	0	0	0	0	0	0	0	0	0	0	0	0	15	0	0	1	0	0	0	0	0	0	0	0	0	0	0	4	0	0	0	0	0	1	0	0	0	0	0	0
OTU 110	28	30	10	0	9	0	48	1	10	15	5	4	5	2	14	0	133	68	58	3	23	14	5	106	1	41	41	23	31	1055	158	10	16	13	2	14	53	32	0	7	42	7	11	113	4	0	29	5	42	46
OTU 111	0	7	2	2	0	0	0	0	10	0	0	0	4	0	0	1	4	0	13	0	0	0	0	0	3	0	0	0	0	0	0	0	0	0	0	35	0	0	0	0	1	191	25	0	0	1	0	0	26	0
OTU 112	4	7	1	20	0	16	7	5	10	24	32	1	42	0	43	2	0	20	0	2	1	11	5	66	17	0	0	83	5	153	1	3	0	2001	0	11	0	1	27	5	42	1	14	0	10	0	8	28	4	1
OTU 113	0	0	33	0	0	0	0	38	0	2	9	0	2	1	0	12	66	1	0	32	38	28	0	0	4	0	0	36	13	0	9	0	0	3	0	10	0	0	7	0	0	1	0	0	17	0	1	0	0	0
OTU 114	30	44	55	43	8	96	25	53	48	15	166	30	22	22	47	15	29	34	29	146	28	58	42	41	82	21	221	45	29	69	149	17	30	15	26	43	12	23	183	0	44	45	7	52	12	56	30	25	15	90
OTU 115	44	161	49	46	19	93	8	86	4	7	252	55	70	34	11	76	84	78	35	23	32	80	35	35	35	32	24	111	9	51	22	25	181	138	97	27	63	52	94	9	38	24	17	50	57	31	20	4	126	21
OTU 116	19	127	0	71	4	8	49	17	38	1	71	101	100	2	13	1	31	70	154	97	3	90	3	46	79	20	17	102	38	111	310	3	239	23	134	32	165	21	111	71	1297	35	1	3	89	3	6	2	5	67
OTU 117	47	29	28	9	59	12	14	9	10	15	8	10	77	53	12	5	2	10	9	6	33	7	40	48	0	10	38	39	2	107	160	9	58	0	8	34	4	53	0	3	16	16	0	45	0	8	4	9	32	0
OTU 118	14	0	0	15	0	28	0	2	2	0	9	0	3	10	28	8	7	6	0	10	9	0	0	0	1	14	0	14	0	0	0	8	1	0	2	2	0	74	0	0	5	0	0	1	0	0	0	10	40	0
OTU 119	97	12	13	4	16	48	26	14	19	9	19	97	27	1	42	43	7	1364	77	53	0	11	16	105	127	1	2	89	0	77	80	0	5	166	22	16	5	12	211	48	52	23	19	1	20	2	57	20	34	176
OTU 120	0	34	0	27	13	0	2	1	9	0	59	149	70	0	0	0	1	0	2	0	9	0	0	4	5	4	0	0	4	7	0	14	53	1	58	96	0	0	3	0	2	82	1	0	0	8	1	0	0	0
OTU 121	2	42	0	9	71	9	35	26	28	8	21	185	14	12	16	8	120	1	103	62	0	12	0	19	0	41	38	44	1	82	8	2	0	15	2	97	49	0	0	35	85	22	15	9	20	29	3	6	6	0
OTU 122	8	1	36	5	10	13	24	9	5	10	3	48	22	7	18	1	18	2	24	3	6	37	51	60	5	91	0	192	2	339	112	4	6	4	17	6	11	57	28	78	73	3	0	32	1	1	12	7	0	6
OTU 123	172	1000	124	30	133	141	94	147	33	49	58	40	280	313	22	71	83	169	158	64	16	285	55	108	73	145	27	343	26	343	279	17	1875	58	504	79	135	168	151	30	334	33	63	75	112	150	57	2247	413	114
OTU 124	0	0	0	1	0	0	4	0	26	5	0	6	4	0	6	16	2	0	49	0	0	1	0	6	32	9	56	2	0	9	40	0	0	5	0	0	1	0	55	2	31	0	0	12	2	0	1	4	7	2
OTU 125	171	131	186	731	68	163	69	143	67	29	187	149	124	157	517	176	51	47	225	11	526	169	85	103	570	30	54	98	19	190	177	1360	103	713	164	75	84	98	945	101	1181	33	173	158	62	21	233	236	204	808
OTU 126	0	0	0	0	0	6	0	0	0	291	22	0	21	5	343	0	0	0	0	0	5	0	0	0	0	0	0	0	0	8	0	14	0	0	0	0	0	0	3	0	12	0	3	0	0	2	0	165	0	0
OTU 127	82	1	1	23	1	1	11	0	125	8	10	85	74	0	7	3	7	12	2	12	0	0	25	25	73	40	77	0	12	0	13	2017	9	8	2	0	42	28	152	0	2	16	1	2	1	37	15	4	35	0
OTU 128	393	362	21	162	15	101	100	100	70	17	114	101	54	151	36	657	45	215	160	67	1113	249	510	123	73	275	75	269	127	51	460	467	2198	95	155	77	181	167	191	11	316	84	978	175	106	129	1189	16	58	2286
OTU 129	0	1	0	0	0	10	0	2	17	0	0	0	0	0	4	0	0	0	2	0	0	0	10	0	0	0	1	0	0	0	0	1	0	3	0	0	2	0	0	0	0	32	0	58	0	91	0	2	0	0
OTU 130	133	5	10	42	25	78	20	20	14	6	176	85	6	9	2	10	517	381	1	128	44	75	200	64	12	3004	40	51	24	6	18	8	3	48	4	2	15	563	63	611	14	12	7	1	48	4	65	2	0	14
OTU 131	11	21	16	3	499	1	19	0	50	8	4	31	33	16	14	3712	9	63	5	2	18	6	9	45	3362	1	12	0	73	5	74	24	24	4	0	23	3	31	1	64	13	68	183	33	6	34	7	4	122	91
OTU 132	0	5	10	0	29	29	0	34	7	0	4	18	12	19	0	0	24	33	6	803	4	0	61	0	10	154	0	0	5	166	1	0	1	0	0	0	0	167	5	1	4	12	0	0	1	0	1	0	2	11
OTU 133	0	0	0	15	0	5	1	0	0	1	0	18	0	124	0	6	0	1	0	0	1	2	1	0	0	0	2	0	0	6	0	0	16	0	1	0	0	0	0	7	0	0	4	0	0	6	36	0	29	0
OTU 134	49	32	112	36	16	11	10	119	32	31	3	1	67	15	9	12	7	0	67	28	30	206	17	25	18	0	11	11	6	66	0	17	1	3	44	5	58	11	23	0	0	1	11	0	94	2	33	2	12	34
OTU 135	20	0	5	2	55	2	3	24	14	12	1	12	54	57	43	1	38	19	3	1	15	15	8	28	0	15	19	120	10	15	244	0	6	1	0	16	33	63	13	0	1	81	1	4	13	6	17	26	22	22
OTU 136	71	42	1	105	3	31	0	10	3	3	28	0	6	14	0	0	43	19	3	19	0	5	25	21	5	11	0	24	31	106	4	610	16	9	24	0	0	44	3	9	11	12	0	8	1	3	1	0	27	8
OTU 137	0	126	2	11	3	1	0	4	0	1	0	4	213	3	0	857	0	10	0	0	1470	0	0	3	14	24	22	10	0	147	38	733	0	2	19	14	0	1	27	0	44	0	1	0	0	0	0	0	2	15
OTU 138	12	28	30	6	56	42	90	28	1	56	126	15	52	2	38	17	0	0	29	0	7	13	0	59	0	67	0	0	8	0	48	8	2	45	0	0	0	23	0	6	2	25	0	0	7	1	0	19	24	0
OTU 139	59	205	30	82	12	86	48	8	18	759	91	201	16	48	666	4	180	41	106	4	77	48	23	41	63	11	26	15	74	31	121	14	114	6	78	11	119	6	156	43	77	548	854	27	17	62	72	327	911	36
OTU 140	492	84	3141	86	63	234	48	78	560	26	281	228	187	296	14	26	40	11	1291	59	33	74	25	18	12	76	132	83	106	67	817	17	50	32	58	57	302	6	43	15	44	57	9	240	31	145	42	5	82	18
OTU 141	0	0	0	0	0	0	0	0	0	0	0	0	3	0	0	0	0	0	2	0	0	0	9	0	0	0	9	0	0	18	0	0	0	0	0	0	0	0	0	0	0	0	0	0	0	0	0	0	0	0
OTU 142	0	0	9	0	0	0	8	16	0	0	0	0	0	0	0	0	0	2	0	2	0	12	0	4	0	0	0	0	0	0	0	0	0	0	0	0	57	0	0	0	0	0	0	0	6	3	0	0	0	0
OTU 143	2	9	0	0	14	17	26	0	1	8	1	0	0	1	12	0	5	2	20	0	1	21	0	7	0	2	0	12	12	0	0	0	0	80	0	0	15	0	0	1	0	14	0	0	1	6	10	8	0	5
OTU 144	0	150	0	0	7	5	4	0	0	0	996	3	0	1	4	4	0	0	2	25	10	3	0	1	0	8	22	0	0	0	3	15	44	4	59	3	4	0	0	0	34	40	0	0	1	4	0	0	5	0
OTU 145	83	22	58	2	39	11	1	95	88	6	158	22	185	194	0	6	332	9	44	0	3	140	14	18	1	74	91	43	94	26	65	4	7	50	39	17	93	40	3	26	36	11	12	147	79	11	0	0	10	19
OTU 146	16	12	66	67	2	37	0	162	4	45	6	0	51	107	0	15	0	1	6	9	27	0	14	9	24	0	69	0	19	5	12	16	6	0	778	6	13	70	62	63	19	235	26	35	3	9	1	0	0	16
OTU 147	18	299	1	48	0	2	8	19	11	0	2	40	28	22	11	20	28	2	9	9	6	0	0	6	2	92	35	6	4	0	39	1	72	4	179	2	0	2	11	5	19	4	7	12	0	2	17	10	2	23
OTU 148	51	12	57	41	59	0	39	66	22	0	1	1851	73	107	5	3	1311	80	83	4	35	123	48	145	15	6	4	25	26	57	61	11	5	0	9	3	0	13	47	509	0	4	8	14	67	17	3	0	26	17
OTU 149	15	1	1	48	0	0	0	1	7	4	28	11	2	8	9	7	13	14	31	0	10	8	4	7	44	26	2	2	0	59	1	9	3	0	26	1	19	0	87	7	23	1	0	0	4	2	0	4	80	2
OTU 150	1	4	7	9	1	0	0	16	16	5	17	2	0	13	0	11	0	3	0	19	76	65	0	0	6	21	9	1	1	5	24	34	0	0	1	0	37	34	14	0	0	0	0	18	40	63	0	0	4	0
OTU 151	0	11	4	39	1	0	1	15	1	0	34	37	4	78	0	28	9	0	17	87	12	5	0	2	4	26	0	24	11	0	0	5	876	5	40	7	3	3	12	3	31	18	1	55	3	0	4	0	0	2
OTU 152	145	152	166	22	11	79	15	73	15	10	44	2	81	127	6	8	51	17	6	36	22	168	47	40	29	15	1	1	9	17	56	9	40	6	105	16	14	9	63	30	17	2	1	5	81	2	7	3	9	24
OTU 153	0	0	3	0	0	0	0	0	22	0	0	0	0	0	1	10	7	0	5	0	11	0	0	0	0	2	2	0	0	0	0	2	1	0	6	0	0	4	0	1	0	0	0	0	0	0	0	0	0	1
OTU 154	3	0	0	2	0	1	0	0	0	0	0	0	6	0	0	0	6	0	0	7	0	0	0	1	1	0	0	4	19	36	0	0	0	13	0	0	0	0	1	3	0	25	32	2	0	0	2	0	114	58
OTU 155	8	48	0	73	3	561	6	6	4	0	2	0	0	65	0	2	31	3	14	1	1	7	16	0	21	3	26	76	51	27	107	2	7	164	36	0	1	71	32	9	81	0	1	12	9	0	1	0	15	9
OTU 156	85	176	116	48	104	33	42	77	48	63	78	6	66	91	42	9	193	43	67	27	8	62	53	74	5	4	48	4	53	53	60	0	96	16	105	67	172	11	6	144	153	21	0	41	27	69	21	15	4	22
OTU 157	1	0	1	0	238	10	66	3	0	63	0	0	20	28	21	0	0	70	3	0	0	0	0	250	1	0	5	304	0	8	6	0	0	5	0	8	3	0	0	0	2	66	0	0	0	13	2	10	478	0
OTU 158	0	0	0	0	0	0	0	0	0	0	0	28	0	0	0	0	0	0	0	0	0	0	0	0	0	8	0	2	0	0	0	0	0	0	2	0	0	0	0	0	0	0	0	0	0	0	0	0	24	0
OTU 159	14	337	37	11	2	3	2	54	158	0	6	4	73	0	0	9	2	5	0	113	2	88	20	12	8	0	3	0	0	18	23	0	173	3	217	26	0	65	12	0	1	1	4	3	73	0	7	0	7	4
OTU 160	203	31	52	196	54	32	212	32	74	79	8	7	149	115	81	94	98	39	138	184	224	105	174	330	327	116	48	233	85	159	223	111	29	167	31	139	15	430	662	79	104	44	34	564	42	265	174	98	157	349
OTU 161	11	3	20	11	53	125	1	8	0	8	50	12	1	0	6	0	4	1	44	80	26	11	0	1	0	159	10	2	1	52	10	7	8	71	1	0	1	54	1	3	40	12	0	25	8	0	27	3	26	34
OTU 162	18	36	12	4	374	12	435	0	73	132	99	61	11	60	158	92	4	3	16	0	2	50	2	706	41	24	1	81	7	34	21	2	36	4	12	162	0	5	55	9	0	8	4	432	32	2	15	81	7	0
OTU 163	0	0	0	0	0	0	0	0	0	14	0	0	24	0	0	0	0	0	2	0	0	0	0	0	0	0	0	0	3	71	0	0	0	0	0	0	0	0	0	0	0	0	1	0	0	0	0	0	0	24
OTU 164	0	75	0	0	0	0	0	0	0	0	0	0	0	0	0	0	5	0	0	0	0	0	0	0	0	0	0	11	0	0	0	0	2	0	0	0	0	0	0	13	0	11	0	3	0	0	0	0	0	0
OTU 165	38	41	0	39	10	44	1	0	1	4	532	5	38	6	3	0	0	0	1	14	18	8	1	15	16	20	47	86	51	0	4	2	4	31	0	3	17	14	14	25	3	4	11	48	3	4	3	0	80	0
OTU 166	0	0	0	0	0	0	4	1	0	0	0	0	0	0	0	0	0	0	0	0	0	0	0	0	0	0	0	0	0	0	0	0	0	0	0	0	0	0	0	1	0	0	0	0	0	0	0	0	9	0
OTU 167	10	33	32	29	0	28	9	252	20	0	2	0	0	0	3	1	8	0	0	13	0	89	0	0	0	14	1	0	1	23	0	1	6	29	22	49	18	0	0	0	41	3	7	5	47	1	0	0	4	1
OTU 168	24	23	20	4	5	31	0	30	14	10	52	27	138	7	3	22	6	21	3	31	18	12	24	9	9	21	8	19	2	1	79	12	69	49	75	6	9	21	16	34	2	7	1	2	3	2	6	0	41	24
OTU 169	0	0	1	0	0	0	0	1	0	0	1	0	0	0	2	0	0	0	0	8	37	0	0	0	10	2	0	6	0	0	1	1	3	0	0	0	0	0	12	0	1	0	0	0	0	1	9	1	0	0
OTU 170	0	0	0	0	0	0	0	0	0	0	14	0	0	0	0	0	0	0	0	0	0	0	0	0	0	0	1	0	0	36	0	0	0	0	0	0	0	0	0	0	0	0	0	0	0	0	0	0	0	0
OTU 171	11	115	5	10	3	104	8	5	0	11	51	18	320	59	0	3	0	85	163	9	2	13	18	23	18	3	22	10	2	33	4	0	18	65	49	21	34	0	23	33	0	2	6	34	8	9	7	0	4	27
OTU 172	3	0	3	0	10	0	24	1	0	0	8	5	2	0	0	3	15	1	0	0	1	1	1	0	0	2	0	9	173	0	2	2	0	1	0	0	0	0	0	0	0	26	0	0	0	0	0	0	3	0
OTU 173	1	14	5	1	3	1	5	0	0	6	0	59	165	93	18	6	0	35	3	14	46	0	0	0	0	20	149	53	8	50	0	18	17	2	0	0	3	0	0	0	95	4	0	3	0	0	1	16	0	6
OTU 174	2	0	0	61	25	15	21	0	0	451	10	604	19	0	833	8	0	1	34	1	0	25	1	3	0	12	14	324	55	6	0	2	0	7	30	0	15	13	1	1	19	1	5	4	25	6	0	427	10	3
OTU 175	2	0	39	11	32	2	35	32	1	2	2	4	117	61	11	0	12	46	27	2	3	125	13	45	10	0	28	6	3	2	95	3	1	0	0	0	24	0	44	10	4	27	3	0	78	5	5	8	1	0
OTU 176	36	42	2	35	80	13	4	5	33	19	35	10	18	39	20	31	14	14	63	4	31	39	2	22	4	50	1	16	5	48	74	5	1	27	8	8	82	36	18	187	14	414	16	55	363	16	85	9	258	36
OTU 177	26	6	15	9	15	30	54	56	86	10	24	13	46	18	5	16	37	114	0	32	8	62	27	43	0	25	6	69	4	88	18	3	8	1	4	10	4	17	1	16	6	18	18	383	35	8	19	1	44	28
OTU 178	1	5	24	22	2	1	0	1	7	2	14	22	1	15	0	10	11	7	2	1	0	46	0	0	8	1	0	37	1629	61	17	0	51	5	28	0	11	9	5	1	33	0	11	65	20	0	111	0	0	54
OTU 179	0	347	16	38	8	3	7	22	21	8	6	1	0	0	0	11	68	2174	2	12	3	9	3	5	2	290	14	16	7	21	0	1	146	23	40	0	2	5	0	24	0	7	0	0	3	0	7	0	127	71
OTU 180	191	73	247	959	9	32	13	1696	1185	24	76	83	261	218	1	508	194	257	50	207	568	238	13	11	1071	85	690	207	193	143	25	331	68	40	68	125	19	232	2157	92	137	42	231	620	118	581	505	0	177	1163
OTU 181	2	5	1129	18	0	41	64	11	0	10	0	12	2	7	0	1	3	27	9	23	6	1	21	137	20	117	1	323	41	0	30	8	1	3	0	42	2	43	64	53	4	48	3	382	0	0	12	0	294	7
OTU 182	0	0	1	0	0	0	0	0	0	0	0	0	0	0	0	4	0	0	0	0	0	0	17	0	0	0	0	0	0	0	0	0	0	3	0	0	0	0	0	0	0	1	0	0	0	0	0	0	0	0
OTU 183	2	47	8	33	7	4	0	2	19	38	8	124	0	0	16	1	17	2	1	0	24	1	0	3	0	58	14	25	5	93	0	15	9	13	49	126	10	0	1	2	15	1	2	7	0	98	4	9	69	28
OTU 184	0	11	22	75	16	8	17	50	6	1	4	58	131	11	0	3	0	30	0	2	0	75	0	13	0	0	1	0	9	26	0	0	12	0	30	0	7	0	0	0	1	6	18	17	39	7	2	0	2	11
OTU 185	76	7	36	55	6	347	33	3	255	18	21	22	47	237	17	5	4	13	17	124	30	19	0	80	49	11	157	53	169	30	13	17	3	134	1	5	340	12	90	30	26	6	125	0	8	82	15	6	35	165
OTU 186	264	0	37	0	3	0	0	1	0	0	0	22	38	2	0	9	12	7	13	9	0	9	0	1	6	17	0	8	34	0	6	6	0	4	9	0	31	2	26	0	34	0	0	0	12	2	7	0	2	6
OTU 187	36	34	11	49	19	34	9	157	93	14	56	22	330	7	22	0	53	112	92	2	1	159	75	32	5	13	125	57	18	38	118	13	21	9	22	2	1	69	28	147	11	23	27	87	56	29	134	8	187	37
OTU 188	1	128	79	21	72	28	39	48	14	38	9	60	17	44	53	24	68	11	67	174	31	110	36	86	31	116	45	0	112	16	131	9	4	61	53	1	19	53	41	10	541	28	37	1	73	43	2	22	117	19
OTU 189	16	39	9	19	25	28	40	34	65	17	74	494	19	95	9	23	235	42	33	13	38	8	26	67	2	3	64	51	57	4	87	28	20	29	79	65	65	44	6	28	89	42	13	11	325	39	5	3	84	4
OTU 190	0	0	2	1	3	3	6	0	0	0	69	0	0	0	0	1	2	0	0	2	0	0	27	37	0	0	20	0	0	1	14	0	0	0	0	0	0	17	0	0	0	1	578	0	0	9	5	0	0	0
OTU 191	191	44	306	10	178	3	82	402	67	49	14	7	1	197	29	13	2	69	2	37	4	631	10	146	0	12	7	80	14	73	9	3	46	1448	21	3	8	7	4	2	3	187	5	28	323	50	3	13	154	0
OTU 192	84	23	19	49	38	3	78	23	3	13	26	77	181	38	30	9	810	21	56	208	4	7	116	117	17	35	11	36	44	93	181	11	32	12	23	36	40	121	42	739	39	263	31	0	24	676	35	15	278	89
OTU 193	0	11	0	2	38	1325	1	7	0	8	5	21	6	38	0	5	111	17	18	8	23	15	227	3	11	38	4	53	957	50	35	15	0	875	1	2	16	390	19	3	50	1	55	2	5	19	25	0	51	1
OTU 194	1	10	2	28	42	6	2	13	0	4	0	22	1	0	0	0	13	1	1	12	11	81	0	2	0	2	0	14	8	0	0	2	12	0	0	12	16	1	0	85	27	60	8	0	25	0	1	0	45	6
OTU 195	16	76	32	11	26	19	16	3	4	1	30	0	1	97	8	0	3	2	0	7	1	65	7	6	0	39	0	12	0	108	46	3	35	0	0	54	26	33	0	0	6	18	0	4	40	8	1	3	12	13
OTU 196	9	23	3	20	0	33	5	3	17	1	19	1	2	2	0	12	14	7	38	7	1	4	2	3	0	0	2	19	39	2	24	5	12	15	20	35	8	25	0	24	7	0	6	47	3	10	8	0	29	35
OTU 197	72	110	10	14	101	66	3276	1	16	46	23	113	171	56	24	4	200	29	705	4	32	23	112	114	20	15	16	20	32	101	99	24	74	33	33	11	18	92	70	135	58	51	10	121	16	38	7	16	113	40
OTU 198	7	4	25	14	0	60	22	0	14	30	4	25	0	0	24	1	0	0	0	0	0	0	19	18	6	12	0	0	49	0	0	0	0	9	0	0	0	0	7	0	45	0	0	32	0	1	13	16	33	42
OTU 199	0	0	34	16	3	2	0	22	0	1	19	9	2	16	0	4	10	5	0	39	1	162	2	0	7	0	6	16	2	1	52	0	9	2	11	7	8	0	12	4	0	15	0	4	108	10	19	0	34	14
OTU 200	6	4	1	33	137	1	77	0	1	8	6	0	94	26	71	17	1	0	0	15	0	1	0	187	21	2	6	93	11	11	17	3	12	0	0	24	50	24	39	1	23	26	0	1238	2	0	6	30	105	0
