	Host 1	Host 2	Host 3	Host 4	Host 5	Host 6	Host 7	Host 8	Host 9	Host 10	Host 11	Host 12	Host 13	Host 14	Host 15	Host 16	Host 17	Host 18	Host 19	Host 20	Host 21	Host 22	Host 23	Host 24	Host 25	Host 26	Host 27	Host 28	Host 29	Host 30	Host 31	Host 32	Host 33	Host 34	Host 35	Host 36	Host 37	Host 38	Host 39	Host 40	Host 41	Host 42	Host 43	Host 44	Host 45	Host 46	Host 47	Host 48	Host 49	Host 50	
OTU 1	1	5	0	2	4	0	3	1	0	0	0	0	0	0	1	2	1	0	0	0	1	0	1	0	1	0	2	0	0	0	1	0	0	0	4	0	0	4	4	6	0	0	2	1	6	4	2	0	0	0
OTU 2	0	0	0	0	0	0	1	3	0	0	0	0	0	0	0	0	1	0	0	0	0	0	0	0	0	0	1	0	3	0	1	0	0	1	0	0	0	1	1	0	3	1	0	0	0	0	0	0	0	1
OTU 3	0	2	2	1	0	0	0	2	7	3	0	1	0	0	0	0	2	0	0	2	0	0	1	0	0	10	0	0	2	1	1	6	2	0	0	1	2	2	5	0	0	3	1	0	0	0	0	2	0	0
OTU 4	0	0	0	0	0	0	0	0	0	0	0	0	0	0	0	0	0	0	0	0	0	0	0	0	0	0	0	0	0	0	0	0	0	0	0	0	0	0	0	0	0	0	0	0	0	0	0	0	0	0
OTU 5	7	3	2	21	0	19	22	6	1	9	45	123	12	25	38	14	13	0	1	4	8	0	2	0	14	6	8	28	20	2	2	5	1	3	0	10	52	39	2	5	2	1	32	26	0	0	20	46	5	3
OTU 6	0	1	0	10	0	0	0	0	1	1	0	0	0	0	0	1	2	0	0	0	0	3	0	0	0	0	1	0	1	1	0	0	0	1	3	1	1	3	1	0	0	5	0	0	0	2	0	0	5	0
OTU 7	3	0	1	0	8	3	4	6	11	8	12	0	0	4	0	0	2	6	3	1	4	4	0	3	0	0	3	4	3	3	2	0	5	3	7	1	5	12	1	0	2	8	2	0	2	29	103	9	0	9
OTU 8	2	7	0	2	2	1	4	0	0	1	1	1	1	20	0	0	5	4	2	2	1	5	0	4	0	1	2	2	25	6	0	3	3	1	5	2	6	3	0	18	0	3	0	0	78	4	43	1	0	0
OTU 9	5	2	1	1	0	0	1	1	0	1	2	0	0	0	4	1	0	0	0	1	0	1	0	28	1	0	1	0	2	0	0	0	0	0	0	1	2	3	1	66	1	0	2	2	2	12	0	1	0	0
OTU 10	0	0	0	0	0	0	0	0	1	1	0	0	0	3	2	0	0	0	0	0	2	0	0	3	0	0	0	0	0	0	0	0	0	3	0	0	0	0	3	0	0	1	2	0	0	0	1	0	0	0
OTU 11	7	1	4	0	8	0	3	0	0	3	2	3	0	0	0	0	2	20	1	3	6	4	2	1	2	0	0	0	0	1	5	0	0	0	2	3	0	0	3	2	1	1	7	0	5	2	2	1	5	0
OTU 12	5	4	1	2	9	128	9	7	9	1	2	0	0	6	1	0	3	8	2	3	4	6	1	2	0	2	0	0	0	0	0	38	0	0	4	1	0	1	0	0	0	1	0	0	3	0	2	0	2	2
OTU 13	0	0	0	0	2	0	0	0	0	0	0	0	0	0	0	2	0	0	0	0	0	0	0	0	0	0	0	0	0	0	0	0	0	0	3	0	0	0	0	0	0	0	0	0	0	0	0	0	0	0
OTU 14	0	0	0	0	0	0	3	0	0	1	0	0	2	1	0	0	0	0	0	2	0	0	1	0	0	2	0	1	1	0	0	4	0	4	0	0	0	0	0	0	0	1	0	1	0	0	0	0	0	0
OTU 15	0	0	0	0	0	0	0	5	0	0	0	0	0	0	0	0	0	0	0	0	0	0	0	0	0	0	0	0	0	0	0	0	0	0	0	0	0	0	0	0	0	0	0	0	0	0	0	0	0	0
OTU 16	0	0	0	0	0	0	0	0	0	0	0	0	0	0	0	0	0	0	0	0	0	0	0	0	0	0	0	0	0	0	0	0	0	0	0	0	0	0	0	0	0	0	0	0	0	0	0	0	0	1
OTU 17	1	1	0	0	9	0	4	1	0	1	0	2	0	1	1	11	0	3	1	10	0	0	0	7	0	1	0	1	1	0	0	0	9	3	23	108	0	0	0	0	10	2	4	0	0	0	0	0	0	1
OTU 18	0	1	1	1	10	0	0	9	0	2	4	0	17	1	3	3	0	1	0	0	1	0	0	1	0	2	0	37	0	1	0	1	8	3	9	0	0	0	84	3	1	0	3	0	0	7	0	0	2	5
OTU 19	0	0	0	0	0	0	0	0	0	0	0	0	0	0	0	0	0	0	0	0	0	0	0	0	0	0	0	0	1	0	0	0	0	0	0	0	0	0	0	0	0	0	0	0	0	0	0	0	0	0
OTU 20	0	0	0	0	2	2	8	10	0	8	0	0	2	8	0	1	1	3	1	8	0	4	0	2	3	0	0	1	3	0	7	0	0	3	4	0	0	4	1	1	7	0	5	0	27	1	14	0	0	14
OTU 21	0	1	19	0	3	0	3	4	1	0	0	1	11	6	1	3	0	0	1	7	0	2	7	2	1	93	1	16	0	1	3	44	0	8	1	44	0	2	21	2	1	2	0	1	22	1	13	0	0	1
OTU 22	1	0	2	0	1	1	0	1	35	3	0	0	2	0	1	1	5	0	1	0	5	2	1	0	0	2	2	1	0	1	2	1	10	2	14	0	9	1	0	0	3	5	0	0	0	4	25	18	2	0
OTU 23	0	0	0	0	0	26	5	0	0	0	0	0	0	0	0	0	0	0	1	0	50	2	0	2	80	5	0	0	1	0	0	1	0	10	0	0	1	2	0	0	1	1	0	0	0	0	0	0	0	0
OTU 24	0	0	0	0	0	0	0	0	2	0	0	1	0	3	0	0	1	0	0	0	1	0	0	0	1	0	0	0	0	8	0	0	1	0	1	1	0	0	0	0	0	0	0	0	1	1	0	0	0	1
OTU 25	0	17	0	1	0	0	0	0	0	0	0	7	0	0	6	0	0	0	0	0	0	0	0	0	0	0	0	0	0	0	0	0	0	0	0	0	0	0	0	3	0	0	0	2	0	0	0	0	0	0
OTU 26	0	0	0	0	1	0	0	0	0	1	0	0	0	0	0	0	0	0	0	0	0	0	0	0	0	0	0	0	1	0	0	0	0	2	0	0	0	0	0	0	0	0	0	0	0	0	0	0	0	0
OTU 27	4	0	0	0	0	0	0	0	0	0	0	0	0	0	0	0	0	0	0	0	0	0	0	0	0	0	0	0	0	0	0	0	0	0	0	0	0	0	0	0	0	0	0	0	0	0	0	0	0	0
OTU 28	0	20	14	7	5	4	0	0	3	5	3	4	2	0	2	4	6	0	0	4	1	1	16	1	1	0	26	4	0	0	2	0	1	0	10	2	1	0	17	21	0	2	10	2	11	69	40	1	3	1
OTU 29	1	2	0	3	0	1	2	6	1	0	7	0	0	0	0	0	0	3	3	6	1	14	1	1	2	2	0	0	5	51	1	3	0	1	1	5	1	2	1	0	4	1	0	2	2	3	0	2	5	0
OTU 30	0	0	0	0	0	0	0	0	0	0	0	0	0	0	0	0	0	0	0	0	0	0	0	0	0	0	0	0	0	0	0	0	0	0	0	0	0	0	0	0	0	1	0	0	0	0	0	0	0	0
OTU 31	0	3	0	0	0	23	0	0	0	0	0	2	0	1	3	0	0	1	1	11	42	0	0	0	0	0	1	0	29	2	1	0	0	1	0	0	0	0	0	0	0	0	0	1	0	0	0	0	1	0
OTU 32	0	2	1	0	3	41	1	3	4	2	0	1	15	0	0	1	3	2	1	2	0	0	0	6	1	2	4	20	5	2	4	2	1	0	4	31	0	0	0	0	0	0	2	0	4	0	2	3	0	0
OTU 33	0	0	0	0	0	0	0	0	0	0	0	0	0	0	0	0	3	0	0	1	0	0	0	0	2	0	0	0	0	0	0	0	0	0	0	0	0	0	0	0	0	0	3	0	0	0	0	1	0	0
OTU 34	0	6	0	0	0	0	4	3	3	0	4	2	8	4	2	0	6	22	1	0	1	5	0	5	0	0	0	0	0	6	0	0	6	0	0	0	24	1	1	0	0	3	1	0	5	0	0	73	2	11
OTU 35	1	0	0	0	0	1	27	2	2	0	0	1	1	0	0	2	3	0	2	2	1	9	0	1	0	0	6	0	1	10	0	2	0	1	0	0	1	0	0	47	4	1	0	0	0	1	0	0	1	33
OTU 36	0	2	0	2	0	2	0	0	0	7	1	2	0	4	0	8	0	0	0	2	4	1	0	0	0	2	0	1	2	0	0	0	0	2	2	0	0	0	0	4	5	1	0	0	0	0	0	0	1	0
OTU 37	0	0	0	0	2	0	0	0	0	0	0	0	0	3	0	0	1	0	0	0	0	0	0	0	0	1	0	1	0	0	0	7	0	0	0	1	1	0	0	3	0	1	0	0	2	0	0	0	0	0
OTU 38	3	8	1	7	1	0	8	0	0	0	1	3	0	0	55	5	0	5	3	0	7	0	3	2	0	0	0	0	3	0	0	0	5	3	0	0	0	0	0	5	2	3	2	29	3	3	2	0	0	0
OTU 39	0	3	0	1	0	0	0	0	0	0	0	2	0	0	1	0	0	0	0	0	0	3	0	0	0	0	0	0	0	0	0	0	0	0	0	0	0	0	0	0	0	0	0	2	0	0	0	0	1	0
OTU 40	0	0	0	0	3	1	4	0	3	2	0	3	0	8	0	0	0	0	0	0	1	0	0	2	2	4	0	1	1	3	3	1	0	3	1	2	0	0	0	1	3	1	1	0	2	1	1	2	3	0
OTU 41	2	14	0	5	0	2	0	3	0	0	23	5	1	1	8	2	0	0	1	0	0	1	0	1	0	4	0	1	1	0	0	0	7	1	11	0	1	1	0	2	0	0	0	6	0	0	0	3	3	9
OTU 42	1	0	0	0	0	1	0	0	0	0	0	0	0	0	0	1	0	0	1	3	0	0	1	7	0	0	0	0	0	0	0	0	0	1	0	0	0	0	0	0	0	0	0	0	0	0	0	2	5	0
OTU 43	0	0	0	0	0	0	0	0	0	0	0	0	0	0	0	0	0	0	0	0	0	0	0	0	0	0	1	0	0	0	0	0	0	0	0	0	0	1	0	0	0	0	0	0	0	0	0	0	0	0
OTU 44	0	0	0	0	0	0	1	0	0	0	0	0	0	0	0	0	1	0	0	2	0	1	0	0	0	1	0	0	0	0	0	0	0	0	1	0	0	0	0	0	0	0	0	0	0	0	0	0	0	0
OTU 45	0	0	2	0	6	2	1	1	0	2	0	0	3	7	0	0	8	7	1	1	1	3	2	7	0	2	2	0	0	0	1	0	0	12	3	1	0	0	1	0	3	8	0	3	1	2	2	2	1	0
OTU 46	3	2	3	0	0	2	1	4	0	3	52	1	0	0	0	3	3	7	3	1	5	0	0	1	2	0	0	1	0	0	0	0	0	1	0	2	0	1	0	3	0	1	0	0	0	1	0	1	2	2
OTU 47	2	0	0	0	0	0	0	0	0	0	0	0	0	0	0	0	0	0	0	0	0	1	0	0	0	0	2	2	0	1	0	0	0	0	0	0	0	0	0	1	5	0	0	0	0	1	0	0	0	0
OTU 48	3	4	2	0	4	2	1	2	11	0	0	0	14	2	0	0	2	1	7	1	3	2	1	0	0	3	34	19	5	4	0	5	0	4	0	1	0	14	0	0	4	2	1	3	0	1	2	0	0	1
OTU 49	0	0	0	0	0	0	6	0	0	1	1	0	0	0	0	3	1	1	0	5	0	6	1	0	0	1	0	2	3	0	0	0	3	0	0	2	1	0	1	0	1	1	2	0	1	0	1	0	2	0
OTU 50	0	2	1	2	4	1	1	0	1	48	0	0	0	0	4	0	2	2	2	0	2	0	0	3	18	1	0	0	0	1	0	0	2	0	5	0	3	0	2	2	11	3	26	87	0	0	0	1	1	0
OTU 51	1	0	0	0	0	0	0	1	0	0	2	0	0	0	0	0	1	0	2	0	0	1	0	1	0	0	0	0	0	0	1	0	3	0	1	0	1	0	0	5	0	2	0	0	0	0	0	4	11	0
OTU 52	0	1	3	2	3	1	2	8	0	0	0	1	1	1	0	2	4	10	7	0	2	4	1	3	0	0	4	0	21	1	7	0	1	3	3	0	2	3	0	5	3	0	1	1	7	1	2	7	2	0
OTU 53	0	0	0	0	0	0	0	0	0	0	0	0	0	0	0	0	0	0	0	0	0	0	0	0	0	0	0	0	0	0	0	0	0	0	0	0	0	0	0	0	0	0	0	0	0	0	0	0	1	0
OTU 54	0	0	2	3	0	5	2	1	1	1	1	0	2	0	1	0	4	2	3	3	3	3	0	0	0	2	1	0	1	6	0	0	2	1	2	2	0	6	1	4	4	0	1	1	2	0	0	2	8	3
OTU 55	0	0	0	0	0	0	0	0	0	0	0	0	0	0	0	0	0	0	0	0	0	0	0	0	0	0	0	0	0	0	0	0	0	0	0	0	0	0	0	0	0	0	0	0	0	0	0	0	0	0
OTU 56	0	0	0	2	1	0	0	0	0	0	0	0	1	0	0	0	0	1	0	0	0	0	0	0	0	0	6	0	0	0	0	0	0	0	4	0	0	4	3	1	3	1	0	1	0	0	1	0	1	0
OTU 57	3	0	6	2	19	1	1	3	3	3	0	0	6	5	0	3	4	8	1	0	0	8	1	7	1	1	4	5	7	6	2	1	0	6	15	2	2	0	4	2	8	2	1	3	2	7	7	0	4	9
OTU 58	1	0	0	0	0	0	6	0	0	0	0	0	0	1	0	0	0	0	0	0	0	1	0	0	0	0	10	0	0	0	0	0	0	0	0	0	0	1	0	0	2	1	0	0	0	1	1	0	1	0
OTU 59	0	4	0	1	5	0	0	0	0	1	0	3	0	4	2	1	17	2	0	1	0	0	1	3	0	0	0	0	3	0	2	0	0	0	3	0	0	0	1	0	0	0	0	0	0	0	0	4	0	1
OTU 60	1	0	1	0	7	1	0	4	5	13	0	1	12	0	1	6	2	3	0	3	6	18	0	2	2	3	38	2	8	0	0	1	7	0	3	2	0	12	4	6	30	1	9	0	0	12	0	1	8	2
OTU 61	1	10	0	3	19	0	0	3	11	3	2	7	0	1	8	12	1	4	1	8	0	0	0	3	1	0	1	0	5	0	14	0	2	6	1	0	1	1	82	4	5	0	0	4	0	2	1	4	3	0
OTU 62	0	0	0	0	1	0	0	0	0	0	0	0	0	0	0	0	0	0	0	0	0	0	8	0	0	1	0	2	1	1	0	0	0	0	0	0	0	0	0	0	0	0	0	2	0	2	0	0	0	0
OTU 63	0	0	0	0	4	0	1	0	0	0	1	1	0	1	0	0	2	1	0	0	0	0	0	1	0	9	0	2	0	0	0	1	1	6	6	7	0	0	0	0	0	0	0	1	0	0	0	2	6	0
OTU 64	0	1	2	0	1	0	2	0	2	2	4	1	0	7	0	3	1	13	2	4	0	1	1	7	2	0	3	1	0	1	0	0	1	2	1	3	0	0	1	3	6	3	0	1	2	1	0	0	4	2
OTU 65	0	0	0	0	0	0	0	0	0	0	0	0	0	0	0	0	0	0	0	0	0	0	0	0	0	0	0	0	0	0	0	0	0	0	0	0	0	0	0	0	0	0	0	0	0	0	0	0	0	0
OTU 66	4	1	0	3	5	0	0	4	9	2	0	0	0	2	2	1	3	0	0	5	1	0	1	0	0	0	0	1	1	2	3	0	2	1	1	0	2	0	0	7	1	3	1	1	0	0	0	4	0	5
OTU 67	0	3	0	2	1	0	0	1	1	0	0	0	0	0	2	1	1	3	0	6	0	2	0	0	0	1	0	0	2	3	0	0	17	0	0	0	2	0	0	0	4	0	1	0	0	1	0	0	4	1
OTU 68	0	0	1	0	42	1	0	0	1	0	0	0	0	0	0	0	1	0	0	1	10	0	1	0	0	4	0	0	0	9	0	0	1	1	0	3	0	0	4	3	0	0	0	0	4	1	1	1	0	0
OTU 69	0	1	4	0	1	4	1	0	0	0	1	0	0	14	1	0	0	16	0	0	6	1	0	0	0	1	0	0	0	3	7	3	4	0	1	0	0	0	1	8	1	0	0	0	0	0	0	0	0	4
OTU 70	6	2	0	0	0	0	0	0	5	0	1	0	0	1	0	2	0	7	0	0	0	1	0	1	0	1	1	0	0	3	0	0	0	0	0	2	0	0	1	0	0	0	0	0	1	0	0	1	1	2
OTU 71	0	0	0	0	0	0	0	0	0	0	0	0	0	1	0	0	0	0	0	2	0	0	0	3	0	2	0	0	0	2	0	1	0	1	0	0	2	0	0	0	0	0	0	0	0	0	1	5	0	0
OTU 72	6	1	0	0	3	0	0	9	2	0	2	1	6	1	0	0	0	4	0	0	1	0	171	5	0	0	1	11	2	0	2	0	4	0	1	4	0	4	0	0	0	2	2	0	2	0	0	3	1	1
OTU 73	0	8	3	2	1	1	0	0	5	0	0	4	0	3	4	0	3	2	11	0	2	0	1	0	1	2	8	0	0	0	0	2	1	6	2	0	0	4	1	4	0	1	0	1	1	0	1	2	1	1
OTU 74	1	1	0	0	0	0	17	2	8	0	1	0	1	15	1	0	0	15	0	3	0	0	2	2	1	1	2	0	2	2	0	2	5	1	4	5	18	0	0	0	0	1	2	0	2	0	0	5	3	5
OTU 75	2	0	3	1	2	3	1	8	0	0	2	0	3	1	0	2	6	5	1	0	4	0	3	11	0	12	0	3	3	2	3	2	0	29	10	4	1	0	0	0	8	10	4	0	1	0	0	1	0	6
OTU 76	4	0	0	0	1	0	0	0	0	6	0	0	0	0	27	0	0	1	0	2	0	0	1	8	0	0	0	0	0	0	0	0	1	2	1	0	0	0	0	0	0	0	0	2	0	2	0	0	0	0
OTU 77	3	2	0	0	0	0	3	0	0	0	0	0	4	5	1	2	0	0	2	6	2	0	2	4	0	1	0	3	0	1	0	0	1	0	3	1	0	1	0	4	0	5	0	3	4	2	0	1	1	0
OTU 78	4	1	0	1	0	0	0	6	0	2	0	1	1	1	0	1	0	0	0	1	0	1	0	5	0	2	0	0	0	3	0	2	4	7	0	1	1	0	0	1	2	2	0	0	0	3	1	0	0	0
OTU 79	8	7	7	6	6	3	7	3	3	2	1	5	2	0	6	5	16	8	5	7	15	7	0	15	3	8	52	4	8	20	8	2	4	22	9	1	4	28	4	3	4	16	3	2	4	17	2	5	6	3
OTU 80	8	4	5	1	0	0	4	6	1	1	0	1	0	3	1	1	0	2	9	7	0	7	3	2	0	0	4	0	0	4	5	1	14	1	2	4	0	3	0	2	2	0	0	1	2	9	1	0	0	3
OTU 81	6	4	6	1	2	0	7	14	5	3	0	0	5	0	5	1	9	3	1	4	0	6	3	9	1	0	4	9	2	82	2	0	2	1	1	0	9	0	10	2	7	0	3	1	3	1	4	3	52	7
OTU 82	27	1	1	0	0	3	4	0	1	0	0	0	0	5	0	0	4	3	2	0	5	0	1	59	0	3	0	0	0	0	0	2	3	7	0	0	0	0	0	7	6	2	0	0	1	0	0	1	5	0
OTU 83	0	0	0	0	0	4	0	0	0	0	0	0	0	0	0	0	0	0	0	6	10	0	0	0	0	4	0	0	2	0	0	1	1	0	0	0	0	0	0	0	0	0	0	0	0	0	0	0	0	0
OTU 84	0	7	0	5	0	0	1	0	1	3	0	4	0	0	2	0	0	0	0	2	5	0	0	1	1	0	0	0	0	0	0	1	0	0	4	0	0	2	3	2	0	3	0	0	0	0	0	0	3	0
OTU 85	0	1	0	0	1	0	0	0	1	0	0	0	0	0	0	1	0	0	0	0	0	0	1	0	0	0	0	1	0	0	0	0	1	0	0	17	3	0	0	1	0	1	0	0	0	4	0	0	3	0
OTU 86	0	0	0	0	1	0	0	2	0	0	2	0	0	0	0	0	0	0	0	2	0	0	0	0	0	0	0	0	0	0	0	0	0	1	0	0	0	0	0	0	0	0	0	0	0	0	0	0	0	0
OTU 87	0	5	0	2	10	0	1	0	0	1	0	3	0	2	1	0	0	0	2	0	0	2	0	0	0	0	1	0	49	0	0	0	0	0	0	0	0	0	0	0	0	0	1	1	0	0	0	0	0	2
OTU 88	0	0	0	0	0	0	0	0	2	0	0	0	0	0	0	0	0	0	0	0	0	0	0	0	0	0	0	0	0	0	0	0	0	0	0	0	0	0	0	0	0	1	0	0	0	0	0	0	33	0
OTU 89	0	0	2	0	4	0	14	0	0	0	1	0	0	17	0	0	1	3	0	0	0	1	0	0	1	0	0	0	1	0	0	0	0	0	2	1	0	0	0	1	0	0	2	0	0	0	0	0	5	1
OTU 90	0	0	0	0	4	0	0	0	0	1	0	0	0	0	0	0	0	1	0	0	0	0	0	0	0	0	0	0	0	0	0	0	0	0	0	1	2	0	0	0	1	0	0	0	0	0	0	9	0	0
OTU 91	0	0	0	0	1	0	0	0	0	0	0	0	0	1	0	0	6	0	0	0	1	0	0	0	0	0	0	0	0	0	0	0	0	0	3	0	0	0	0	0	6	0	0	0	0	0	0	0	0	0
OTU 92	0	0	1	0	0	0	0	1	0	0	0	0	0	3	0	1	0	2	1	0	0	0	0	0	0	1	0	0	0	0	1	0	0	0	0	0	0	0	0	0	0	0	0	0	0	0	0	2	0	0
OTU 93	0	0	0	0	0	0	1	0	0	0	0	0	0	0	0	2	0	0	0	0	0	0	0	0	0	0	0	0	0	0	0	0	0	0	0	0	0	0	0	0	0	0	0	0	0	0	0	0	0	0
OTU 94	1	2	2	2	0	1	2	0	9	1	0	2	1	0	1	0	6	0	0	6	3	0	0	0	0	0	1	6	2	1	0	0	0	3	2	0	0	0	3	0	2	2	3	0	3	0	0	12	0	0
OTU 95	2	3	0	0	0	0	0	25	0	0	0	0	0	0	1	0	0	0	0	0	0	2	0	0	0	0	2	0	0	7	0	0	5	5	11	0	0	0	0	0	7	5	0	0	0	0	0	0	0	0
OTU 96	0	1	1	0	0	1	0	0	0	0	0	2	0	0	0	1	0	6	0	0	2	0	0	0	0	0	0	0	0	0	0	0	1	0	0	0	0	1	0	0	0	0	1	0	3	0	2	0	4	1
OTU 97	0	0	0	0	0	0	0	1	0	0	0	0	0	1	0	0	1	0	0	0	0	0	0	0	1	0	0	0	0	0	1	0	0	0	0	0	0	0	0	0	0	0	0	0	0	4	0	0	1	0
OTU 98	0	0	1	0	0	0	0	1	0	0	0	0	0	0	0	0	0	0	0	0	0	0	0	0	0	0	0	0	0	0	0	0	3	0	2	0	38	0	0	3	0	0	0	0	0	0	0	0	2	0
OTU 99	1	2	1	2	1	0	0	16	11	1	1	3	0	1	2	1	1	2	2	2	0	75	0	2	1	0	3	0	1	1	7	1	0	1	0	3	3	2	0	0	0	5	1	2	1	0	1	3	0	1
OTU 100	0	1	1	0	1	0	0	3	1	0	2	0	0	1	1	0	2	0	0	0	0	3	0	0	0	4	0	0	0	0	0	1	1	1	0	0	2	0	0	0	0	0	0	0	0	2	0	0	0	0
OTU 101	0	0	0	0	0	0	1	1	0	0	4	0	0	0	0	0	1	0	0	0	0	0	0	0	0	0	0	0	0	0	0	0	0	0	0	0	0	0	0	2	0	0	0	0	0	0	0	0	0	0
OTU 102	4	1	4	1	0	0	0	0	9	0	0	1	0	0	0	0	3	0	139	1	0	0	0	0	0	0	0	0	2	2	0	0	0	4	0	2	0	0	0	0	0	0	0	1	0	0	0	2	0	0
OTU 103	0	6	0	3	1	0	0	1	0	0	1	0	0	0	3	0	0	0	1	0	3	0	0	0	1	0	1	0	1	0	0	0	0	0	0	4	0	1	0	0	3	53	0	1	0	0	1	0	1	1
OTU 104	3	0	0	0	2	1	1	3	0	1	0	0	1	0	0	1	2	7	0	3	3	3	0	6	0	0	3	3	7	4	2	0	0	4	6	6	0	3	0	0	3	1	2	1	0	14	1	0	0	7
OTU 105	0	1	0	0	0	0	0	0	0	0	0	0	0	0	0	0	0	0	0	0	0	0	1	0	0	0	0	0	0	0	0	0	0	2	1	0	1	0	0	1	0	0	0	0	0	0	0	1	0	0
OTU 106	0	1	0	0	45	0	0	0	4	0	0	0	0	1	0	22	0	0	0	0	0	0	0	0	0	6	0	0	0	0	0	1	0	0	0	0	4	1	2	0	0	0	0	1	0	0	0	0	0	0
OTU 107	0	1	0	0	0	0	0	0	2	1	0	1	0	5	2	1	0	0	1	0	0	1	0	0	0	2	5	1	0	6	0	0	0	1	0	0	0	2	0	1	0	5	0	0	0	0	0	1	0	0
OTU 108	3	3	0	3	0	0	1	0	0	0	0	6	0	2	1	5	8	8	0	0	4	0	0	0	0	0	0	0	1	0	1	0	2	1	0	0	0	0	2	6	3	0	0	0	1	0	0	0	1	3
OTU 109	0	0	0	0	0	0	0	0	0	0	0	0	0	0	0	0	0	0	0	0	0	0	0	0	0	0	0	0	0	0	0	0	2	0	0	0	0	0	0	0	1	0	0	0	0	0	0	0	0	0
OTU 110	1	8	0	5	1	0	2	5	2	2	0	4	0	1	3	0	0	0	0	0	0	3	0	1	5	1	2	0	2	4	3	0	0	0	0	0	1	0	0	0	0	2	15	1	2	9	2	1	3	2
OTU 111	0	0	0	0	0	0	0	1	0	0	0	0	0	0	0	0	0	6	0	2	0	0	0	0	0	1	0	0	0	0	0	0	0	1	1	0	0	0	0	1	0	0	0	0	0	0	0	0	0	0
OTU 112	0	2	0	0	0	0	0	0	0	0	0	1	0	0	0	0	0	0	0	0	0	0	0	1	0	0	0	2	0	0	0	0	0	0	0	2	0	0	0	0	0	0	2	0	0	1	0	0	0	0
OTU 113	1	1	0	0	0	0	0	0	0	2	0	1	0	0	0	0	0	0	0	0	0	0	0	0	0	0	1	0	0	0	0	0	2	0	0	0	0	0	0	0	0	0	0	0	0	0	0	0	0	0
OTU 114	1	4	0	0	2	2	1	1	19	12	121	2	0	0	0	1	23	1	0	5	4	0	0	0	0	0	0	0	6	2	66	0	0	1	0	1	2	1	0	2	8	5	0	0	1	0	5	12	2	2
OTU 115	1	0	4	0	0	6	5	4	0	16	0	0	2	2	1	1	8	0	5	6	8	4	2	5	18	4	9	1	2	0	8	0	3	0	1	1	1	13	0	0	0	2	22	0	0	1	1	0	6	2
OTU 116	9	1	7	0	3	0	0	6	9	1	0	0	3	1	0	0	0	3	1	2	0	1	1	0	1	0	2	1	3	2	0	0	0	3	4	2	2	1	0	1	3	6	3	0	0	3	2	0	1	3
OTU 117	0	0	0	0	0	1	1	0	2	4	2	0	0	1	0	0	5	0	0	0	1	3	0	0	1	11	1	2	2	0	2	12	0	4	0	2	0	0	1	1	0	1	0	1	1	4	0	2	0	0
OTU 118	0	0	0	0	0	0	0	0	3	1	0	0	2	0	0	2	0	0	0	0	0	0	0	0	0	0	0	0	0	0	0	0	0	0	0	0	0	0	0	0	0	0	0	0	0	0	0	0	4	0
OTU 119	0	0	13	1	2	0	1	2	13	1	0	0	0	6	12	0	3	19	1	8	0	6	4	1	0	0	11	0	3	2	5	2	1	2	0	3	4	58	5	1	1	8	0	6	2	0	2	1	1	2
OTU 120	0	1	0	1	0	0	0	1	3	0	1	0	0	2	0	0	0	0	3	0	0	0	0	0	0	0	0	0	0	0	0	0	0	0	0	0	0	0	0	0	0	0	0	0	0	0	0	0	2	0
OTU 121	0	2	0	2	1	0	0	0	0	1	0	0	0	2	2	7	0	0	3	0	2	0	0	0	0	0	0	0	0	0	0	0	0	4	0	0	0	0	0	0	9	1	0	1	0	1	0	0	0	1
OTU 122	3	7	2	11	2	1	46	14	0	2	0	1	0	29	3	0	4	0	3	0	0	6	1	0	1	0	1	1	4	0	0	0	0	0	12	1	0	0	0	1	7	3	0	0	1	0	0	0	1	0
OTU 123	3	4	6	0	4	4	2	8	25	2	9	0	0	3	0	0	14	8	15	12	9	12	3	11	0	3	10	4	2	4	19	10	9	2	8	4	8	110	4	1	11	7	0	0	6	10	2	10	18	2
OTU 124	0	0	0	0	1	0	0	0	0	0	0	0	0	0	0	0	0	1	0	0	0	0	0	0	0	0	0	0	0	0	0	0	0	2	0	0	0	0	0	0	0	7	0	0	0	0	0	0	1	121
OTU 125	2	11	14	1	4	18	2	4	1	2	0	6	8	2	5	3	10	5	8	26	50	8	9	3	1	5	2	29	5	6	3	3	1	4	4	0	2	1	8	6	4	22	0	4	10	2	7	0	25	6
OTU 126	0	0	0	0	0	0	1	3	4	1	0	0	0	1	0	0	0	0	0	0	0	0	0	0	1	1	0	0	0	0	0	0	0	0	0	0	0	1	0	0	0	6	0	0	0	0	0	1	0	0
OTU 127	1	2	72	1	0	0	1	0	0	0	0	1	0	0	3	0	4	0	2	0	0	2	47	1	0	0	1	0	0	0	0	0	0	0	0	0	2	3	0	2	0	0	0	0	0	0	0	0	0	2
OTU 128	4	10	4	3	3	6	2	4	20	6	0	9	3	5	3	12	8	23	2	3	7	4	1	5	1	3	1	9	5	4	3	0	31	2	7	2	8	1	7	11	21	9	0	1	3	7	1	6	9	12
OTU 129	0	0	0	0	0	0	0	0	0	0	0	31	0	0	0	0	0	0	0	0	0	0	0	0	0	1	0	0	0	0	2	0	0	1	0	2	0	0	1	7	0	0	0	0	1	2	0	0	0	0
OTU 130	0	0	1	0	0	0	0	1	1	0	2	0	0	0	0	0	4	0	6	0	3	0	0	1	0	1	0	0	1	9	7	0	1	0	0	4	0	0	0	0	0	0	0	0	0	0	0	3	1	0
OTU 131	0	0	0	0	2	0	0	7	3	0	2	1	0	0	0	1	1	0	0	0	2	1	2	0	3	4	0	1	0	11	2	6	0	1	1	2	0	0	1	2	0	0	2	0	0	0	0	5	1	0
OTU 132	0	0	0	0	0	2	1	0	1	0	3	0	0	0	1	0	0	0	0	0	0	0	0	0	0	0	0	0	0	0	0	0	0	0	1	0	2	0	0	3	0	1	0	0	1	1	0	0	0	0
OTU 133	3	0	0	0	0	0	1	0	0	0	0	0	0	0	0	0	0	0	0	0	1	0	0	0	0	0	0	0	0	0	0	0	0	0	0	0	0	0	0	0	2	0	0	0	0	1	0	0	0	0
OTU 134	1	0	0	0	0	1	3	1	0	0	0	0	1	1	0	1	0	2	0	9	1	2	0	4	0	2	3	0	0	4	0	1	2	1	0	0	1	1	2	0	1	6	7	1	0	0	2	2	2	0
OTU 135	1	1	0	0	0	0	1	5	8	2	0	0	0	0	1	0	0	2	1	0	0	0	8	0	0	0	0	4	0	0	0	1	0	1	2	0	1	0	0	0	1	3	0	1	3	4	0	4	0	6
OTU 136	0	1	0	0	3	0	0	0	2	0	0	9	0	1	0	2	9	0	4	6	2	0	1	0	0	1	0	1	1	0	5	0	7	0	9	2	1	0	3	1	0	0	0	0	1	0	2	13	0	0
OTU 137	1	0	1	4	0	0	0	0	2	0	2	0	0	4	0	1	3	0	0	2	0	0	2	0	0	0	0	0	0	0	2	0	1	1	0	3	2	0	2	0	3	0	0	0	0	6	1	1	17	0
OTU 138	0	0	0	1	0	0	0	0	1	0	0	0	0	0	0	0	1	0	1	1	0	0	0	0	0	2	0	0	3	2	0	2	1	0	0	0	0	0	0	0	0	0	0	0	0	0	1	0	0	1
OTU 139	8	1	1	0	1	2	0	7	3	0	3	2	1	0	0	1	0	4	6	1	0	10	0	7	2	2	0	5	8	0	2	0	0	1	3	1	18	1	7	22	2	1	1	0	1	6	0	35	1	0
OTU 140	3	2	1	3	3	3	69	8	7	13	13	2	5	0	4	25	17	1	5	15	1	7	0	13	88	3	3	6	4	2	6	16	88	4	12	7	42	0	3	2	2	13	3	2	3	8	0	4	4	0
OTU 141	0	0	0	0	0	0	0	0	0	0	0	0	0	0	0	0	0	0	0	0	0	0	0	0	0	0	0	0	0	0	0	1	0	0	0	0	0	0	0	0	0	0	0	0	0	0	0	0	0	0
OTU 142	0	1	0	0	0	0	0	0	0	0	0	0	0	0	0	0	0	0	0	0	0	0	0	0	0	0	0	0	0	0	0	0	0	1	0	0	0	0	0	0	0	0	0	0	0	0	0	0	3	0
OTU 143	0	0	0	0	0	0	0	0	0	0	0	0	0	0	0	0	0	0	0	3	0	1	0	0	0	0	0	0	0	0	0	0	0	0	4	0	0	0	0	3	0	0	0	0	0	8	0	1	0	0
OTU 144	0	0	0	0	0	0	0	0	0	0	0	0	0	0	0	0	0	0	0	0	0	0	0	0	2	0	0	0	0	0	0	1	0	0	0	0	0	1	0	1	1	0	0	0	0	0	0	0	0	0
OTU 145	1	23	0	11	1	0	2	6	1	1	0	11	3	19	11	0	1	15	0	10	0	4	0	0	0	2	2	4	0	0	1	1	0	0	0	0	0	0	0	0	3	1	1	8	2	4	0	1	25	10
OTU 146	0	0	1	0	3	1	1	0	0	107	4	0	0	0	0	0	0	0	0	3	0	0	0	5	19	0	5	1	0	0	2	0	4	1	1	1	0	1	1	10	8	1	39	0	3	0	3	0	1	0
OTU 147	0	0	0	0	0	2	1	3	0	0	1	0	0	1	0	0	7	2	0	2	3	0	0	0	0	1	0	0	2	5	5	0	3	0	0	0	0	0	0	0	0	0	0	0	0	0	0	0	0	0
OTU 148	0	7	0	5	2	0	1	0	2	0	1	4	0	4	1	0	0	0	0	0	0	0	0	0	0	28	0	1	0	4	0	10	2	76	0	8	0	2	0	1	2	0	0	0	1	0	0	0	2	0
OTU 149	0	2	0	0	0	0	0	0	0	0	0	2	0	0	0	0	0	2	0	4	0	0	0	0	3	0	0	0	1	0	0	1	0	0	1	1	0	0	1	0	0	0	5	0	0	0	2	1	0	1
OTU 150	0	0	0	103	0	0	0	0	1	0	0	0	0	0	0	0	1	0	1	0	0	6	0	3	0	1	0	0	0	0	0	1	0	0	0	0	0	0	1	1	3	4	0	0	1	1	0	0	0	0
OTU 151	0	0	0	62	0	0	0	0	0	1	0	0	0	0	0	0	0	0	0	4	7	1	0	0	1	0	0	0	0	1	0	0	0	3	4	2	2	1	1	2	2	0	1	0	0	0	0	0	0	0
OTU 152	7	3	0	2	1	2	0	8	3	0	1	1	2	5	0	2	0	0	2	3	0	0	0	0	0	6	0	0	1	1	0	1	0	0	0	0	0	0	0	7	1	1	0	0	0	2	0	0	0	1
OTU 153	0	0	0	0	0	0	0	0	0	0	0	0	0	0	0	0	0	0	0	0	0	0	0	0	0	0	0	0	0	0	0	0	0	0	0	0	0	0	0	0	0	0	0	0	0	1	0	0	0	1
OTU 154	0	1	0	0	0	0	0	0	0	0	0	0	0	0	0	0	0	0	0	0	0	0	0	0	19	0	0	0	0	0	0	0	0	0	0	1	0	0	0	0	0	0	26	0	0	0	0	0	0	0
OTU 155	0	0	0	0	0	0	0	1	0	1	0	0	0	0	0	0	0	3	0	0	0	0	0	0	1	0	3	1	2	1	2	0	0	0	0	0	0	0	0	0	0	1	0	0	0	1	0	0	1	2
OTU 156	1	3	0	2	0	1	1	1	0	1	0	0	0	0	0	1	3	2	0	47	6	0	0	2	0	1	0	0	2	1	1	0	2	8	7	1	0	0	0	3	9	11	0	3	8	2	4	0	3	1
OTU 157	0	0	0	0	1	0	0	0	0	0	0	0	0	7	0	0	1	9	0	0	0	0	0	0	0	0	0	0	0	0	0	1	0	0	3	0	0	0	0	0	0	0	2	0	0	0	0	0	0	16
OTU 158	0	0	0	2	3	0	0	0	0	0	0	0	0	1	0	0	0	0	0	0	0	0	0	0	0	0	0	0	0	1	0	0	0	0	0	1	0	0	0	0	0	0	0	0	0	0	0	0	0	0
OTU 159	0	1	2	2	0	1	17	0	3	0	1	2	2	31	2	1	0	0	0	0	1	0	1	1	0	0	0	1	11	0	0	0	5	1	3	0	3	0	2	0	1	4	0	1	1	4	0	0	0	1
OTU 160	1	15	5	10	9	4	1	4	10	2	2	5	1	3	85	146	0	1	6	5	3	3	2	2	1	0	1	2	6	4	5	0	1	7	11	2	63	1	2	2	2	1	2	48	1	0	0	0	3	0
OTU 161	22	3	0	0	9	0	0	1	0	0	0	1	161	1	0	0	3	3	0	2	0	0	1	26	0	4	1	0	0	0	5	0	0	0	1	0	1	0	6	0	1	0	2	3	53	20	20	0	0	1
OTU 162	106	12	0	4	2	0	3	0	0	0	2	6	1	0	6	5	0	0	0	3	0	0	0	0	0	1	0	0	3	5	0	0	2	6	0	1	0	1	1	3	1	2	0	1	2	4	0	0	1	0
OTU 163	0	0	0	0	0	0	0	0	0	0	4	0	1	0	0	0	0	0	0	0	0	0	0	0	0	5	0	0	0	0	0	1	0	0	0	0	0	0	0	0	0	0	0	0	0	0	0	0	0	0
OTU 164	0	0	0	0	0	0	0	8	0	0	0	0	0	0	0	0	0	0	0	0	0	0	0	0	0	0	0	0	0	0	0	0	0	0	1	0	0	0	0	0	0	0	0	0	0	0	0	0	1	0
OTU 165	1	1	5	0	0	0	0	0	0	0	1	0	0	4	0	0	1	2	0	0	0	1	1	3	0	0	0	0	0	0	1	140	1	0	0	0	1	1	0	0	0	1	0	0	0	0	1	0	1	3
OTU 166	0	0	0	0	0	1	0	0	0	0	0	0	0	0	0	0	1	0	0	0	0	0	0	0	0	0	0	0	0	0	0	0	0	0	0	0	0	0	0	0	0	0	0	0	0	0	0	0	0	0
OTU 167	0	0	0	0	0	0	3	8	0	0	0	0	0	1	0	0	0	0	3	1	0	0	0	0	0	0	11	0	4	1	0	0	1	0	1	0	4	3	0	1	4	1	0	0	0	7	1	2	1	0
OTU 168	1	0	1	0	0	3	3	0	2	1	0	0	0	4	2	0	0	3	2	0	0	2	0	1	1	7	1	0	5	0	0	1	1	0	0	0	0	0	0	0	3	0	1	0	0	2	0	0	0	0
OTU 169	0	2	0	0	0	0	0	0	0	0	0	0	0	0	0	1	0	0	0	0	0	0	0	3	0	0	0	0	0	0	0	0	0	0	0	0	0	0	0	0	0	0	0	0	0	0	0	0	0	0
OTU 170	0	0	0	0	0	0	0	0	0	0	0	0	0	0	0	0	0	0	0	0	0	0	0	0	0	0	0	0	0	0	0	0	0	0	0	0	1	0	0	0	0	0	0	0	0	0	0	0	0	0
OTU 171	2	4	0	1	2	0	0	1	4	0	0	2	0	0	2	6	3	0	0	2	0	2	0	4	0	0	0	0	0	0	8	0	0	0	11	0	2	0	0	1	0	0	0	1	0	0	1	0	2	1
OTU 172	0	0	0	0	0	0	0	13	0	0	0	0	0	0	0	0	0	0	0	0	0	0	2	0	0	0	0	0	0	2	0	0	0	0	0	0	0	0	0	0	1	0	0	0	0	0	0	0	0	0
OTU 173	0	1	0	1	0	0	0	0	0	1	0	1	0	0	3	2	1	0	0	0	1	4	0	0	1	1	0	1	0	0	0	0	0	0	0	0	1	0	0	0	0	2	0	1	2	0	0	2	0	0
OTU 174	0	1	0	1	0	0	3	2	0	0	19	1	4	2	0	3	0	3	1	2	1	0	0	0	0	0	0	1	0	0	34	0	2	2	3	0	2	0	0	0	3	0	0	2	0	0	0	0	2	4
OTU 175	0	2	0	0	2	0	0	0	0	1	2	0	0	3	0	0	2	0	3	1	0	3	0	0	1	2	0	0	0	0	0	1	0	2	0	2	0	0	0	0	0	5	3	0	1	2	1	1	0	0
OTU 176	4	1	0	0	0	0	0	0	1	2	0	0	0	0	1	1	5	0	0	0	1	2	0	4	13	4	2	0	0	7	3	4	0	1	0	0	1	2	0	0	0	1	0	0	2	4	1	1	0	0
OTU 177	29	11	0	5	18	1	3	1	0	1	0	4	0	0	1	4	7	4	3	0	3	2	0	8	1	1	0	0	1	0	0	0	0	6	10	1	0	0	0	1	1	2	0	2	0	5	0	0	0	1
OTU 178	12	0	0	0	1	2	0	2	0	0	2	0	0	0	0	0	1	2	1	0	1	0	0	1	0	3	0	0	1	1	0	0	0	0	0	0	0	0	0	0	0	2	0	0	0	0	0	0	0	3
OTU 179	0	1	0	1	0	0	0	13	3	0	1	0	0	0	1	0	4	0	0	0	6	2	0	0	1	1	0	0	0	8	0	0	1	2	1	1	0	0	0	0	0	2	0	0	1	0	0	12	2	1
OTU 180	2	9	83	5	18	1	1	5	16	1	1	4	5	0	4	2	11	3	23	15	3	23	45	1	7	0	3	8	5	0	29	0	8	5	5	8	1	1	2	0	3	8	18	2	3	13	1	9	3	1
OTU 181	2	0	0	0	0	0	1	1	1	1	1	0	0	1	0	0	2	0	0	0	0	0	0	0	1	3	0	1	0	0	0	0	0	0	4	0	2	1	0	4	8	5	0	0	0	1	0	3	0	1
OTU 182	0	0	0	0	0	0	0	0	0	0	0	1	0	0	0	0	0	0	3	0	0	0	0	0	0	0	0	0	0	0	0	0	0	0	0	0	0	0	0	0	0	0	0	0	0	0	0	0	0	0
OTU 183	1	0	0	0	0	1	0	0	0	0	0	0	0	2	0	1	1	0	0	1	2	0	0	0	0	11	0	3	3	0	0	3	1	1	0	0	0	0	0	1	0	0	0	0	0	0	0	0	4	1
OTU 184	0	0	0	0	1	0	1	1	0	2	0	0	0	1	0	0	0	0	0	0	0	1	0	0	0	0	1	0	0	0	0	0	2	0	2	0	0	0	0	0	0	0	0	0	2	0	0	0	0	0
OTU 185	0	0	0	0	2	1	0	0	2	1	0	0	0	4	0	4	0	1	0	0	0	2	0	9	0	7	0	0	1	0	2	4	3	13	0	1	2	0	0	0	7	1	1	0	1	2	0	3	4	6
OTU 186	0	0	4	0	0	0	0	0	0	0	0	0	4	0	0	3	1	0	0	0	0	6	3	0	0	2	0	3	17	0	0	0	0	4	0	2	0	0	5	0	20	0	0	94	0	0	0	0	0	0
OTU 187	0	16	45	16	0	1	0	5	5	2	1	12	7	1	5	0	3	3	35	1	2	1	17	2	0	9	5	12	2	4	2	4	5	8	3	1	3	1	40	1	1	4	3	7	50	0	18	1	11	0
OTU 188	1	1	0	0	5	0	1	1	6	2	0	0	2	0	1	2	0	2	0	2	0	7	0	5	1	5	9	3	2	3	2	0	4	0	0	3	2	0	1	0	0	1	1	0	0	10	0	1	0	4
OTU 189	0	0	0	0	0	4	1	0	2	1	0	0	20	3	0	0	3	5	0	1	3	4	0	7	3	0	1	29	5	4	0	5	1	1	3	0	0	0	0	1	2	9	2	1	4	4	0	0	0	1
OTU 190	0	0	0	0	0	0	0	0	0	0	0	0	0	2	0	0	0	3	0	0	0	0	1	0	51	4	0	0	0	0	3	1	0	4	0	1	0	0	0	0	1	0	71	0	0	0	0	1	0	2
OTU 191	3	0	6	0	0	0	0	0	0	2	1	50	0	7	0	0	0	0	0	5	0	4	0	1	0	0	0	0	1	1	3	5	0	0	1	2	0	0	1	0	0	7	1	1	0	0	3	0	1	2
OTU 192	0	4	4	6	0	0	2	18	0	2	1	5	2	9	8	0	2	1	0	3	1	2	2	0	0	6	34	1	3	8	0	0	0	1	0	0	0	12	4	3	5	15	0	2	0	0	10	0	0	1
OTU 193	1	1	0	1	0	2	6	0	3	0	3	2	1	0	1	2	20	3	12	0	3	0	0	1	0	0	0	1	0	1	15	2	5	1	0	19	0	0	2	2	0	0	1	1	0	0	2	1	0	2
OTU 194	0	0	0	1	0	22	0	6	2	34	1	0	0	0	2	0	0	0	0	4	0	1	0	0	2	3	4	0	0	0	35	0	24	2	0	0	3	0	0	0	2	3	16	0	0	2	0	0	0	0
OTU 195	0	3	0	4	0	4	0	0	0	2	1	1	0	0	1	0	0	2	1	0	6	4	0	2	1	0	4	1	6	0	2	0	0	0	0	0	0	1	2	2	2	0	1	3	0	0	0	1	0	0
OTU 196	0	2	0	2	2	0	0	2	0	0	0	0	0	0	1	2	0	0	2	0	0	0	0	0	0	2	0	0	0	0	0	0	2	2	6	0	0	0	4	1	1	1	0	0	2	0	1	0	0	0
OTU 197	6	2	1	2	3	7	1	0	1	0	2	2	22	8	6	4	8	5	3	7	14	11	0	3	0	13	4	61	6	3	0	8	13	4	25	3	0	3	0	0	19	9	2	0	0	0	0	3	1	4
OTU 198	0	0	2	0	1	0	0	0	0	0	0	0	0	1	0	0	3	0	0	0	2	0	0	0	0	3	0	0	1	0	0	2	0	0	0	3	0	0	0	1	2	0	0	0	0	0	0	0	0	0
OTU 199	0	0	1	0	0	0	1	0	4	1	0	0	0	0	0	0	1	0	0	0	0	1	0	1	0	0	9	1	1	2	0	0	0	0	0	1	0	1	0	1	2	0	0	0	1	0	0	1	1	0
OTU 200	2	9	0	2	0	0	0	0	0	0	0	0	0	0	9	5	3	8	0	2	0	3	0	0	0	1	1	1	6	3	1	1	0	0	1	0	0	0	3	0	8	0	0	1	0	0	0	0	0	0
