	Host 1	Host 2	Host 3	Host 4	Host 5	Host 6	Host 7	Host 8	Host 9	Host 10	Host 11	Host 12	Host 13	Host 14	Host 15	Host 16	Host 17	Host 18	Host 19	Host 20	Host 21	Host 22	Host 23	Host 24	Host 25	Host 26	Host 27	Host 28	Host 29	Host 30	Host 31	Host 32	Host 33	Host 34	Host 35	Host 36	Host 37	Host 38	Host 39	Host 40	Host 41	Host 42	Host 43	Host 44	Host 45	Host 46	Host 47	Host 48	Host 49	Host 50	
OTU 1	142	0	47	16	9	345	0	215	601	477	76	6	8	0	290	222	43	18	977	0	78	1031	596	289	0	253	36	299	0	319	393	16	30	311	2	344	180	876	105	0	300	14	15	0	156	602	92	11	1061	0
OTU 2	5	66	0	2	35	40	3	37	1	0	0	3	0	3	2	0	49	3	3	0	403	5	0	5	0	0	0	0	5	0	0	0	42	0	1	5	1	0	39	0	5	0	11	15	4	8	83	9	0	12
OTU 3	3	28	3	0	0	0	0	0	0	3	0	30	0	0	0	0	60	2	0	17	3	2	2	0	5	2	18	0	9	2	7	7	33	1	9	0	0	10	23	0	0	89	13	18	0	0	14	0	2	1
OTU 4	0	5	0	0	0	0	0	0	0	0	0	0	9	0	0	0	0	0	0	0	0	0	0	0	0	0	0	0	0	0	0	0	0	0	2	4	0	0	0	0	0	0	0	0	0	2	0	0	0	0
OTU 5	836	414	25	143	0	332	913	840	834	649	90	111	457	346	0	71	22	292	1631	319	407	146	543	18	352	39	0	306	191	776	1026	20	0	432	9	625	1051	93	41	693	20	0	558	46	107	60	23	110	201	2
OTU 6	34	32	20	326	9	1894	4	754	9	1	9	17	18	20	9	35	144	9	37	13	76	0	10	0	102	31	26	2	20	2	603	32	9	3	14	7	14	7	7	10	3	175	0	44	0	2	1	1	28	1
OTU 7	57	77	23	103	158	66	38	8	424	12	839	79	64	149	15	13	384	9	55	129	15	25	26	4	80	10	125	30	383	10	8	26	91	165	181	585	101	29	60	74	26	4	25	16	59	90	23	73	116	138
OTU 8	19	181	85	48	118	1	514	29	19	848	157	24	191	98	28	20	110	59	26	58	20	14	10	13	293	29	78	2	165	5	42	23	59	20	30	31	138	62	49	9	79	10	147	111	7	0	39	18	46	75
OTU 9	2	48	21	1	80	36	3	2	15	11	10	0	38	41	34	18	20	15	41	18	38	4	1	7	2	17	8	3	12	0	4	103	1	0	11	3	5	31	9	68	8	39	7	8	1454	6	1	26	15	26
OTU 10	22	0	0	3	1	0	18	18	8	29	82	11	4	0	0	0	4	6	4	9	50	9	7	3	1	12	8	2	10	2	4	8	0	0	1	2	77	3	11	11	0	50	4	0	0	32	19	2	1	4
OTU 11	23	32	10	3	3	7	7	0	6	47	40	37	27	7	30	56	19	54	22	0	52	46	14	6	4	29	20	5	214	5	25	80	49	1	98	2	101	11	110	9	4	29	283	149	9	29	49	18	34	69
OTU 12	28	2	6	338	266	2	88	17	76	5	18	61	20	29	4	9	224	72	56	25	143	20	66	76	212	6	153	33	34	38	30	13	179	54	159	52	18	12	12	5	58	241	151	27	53	105	4	40	155	160
OTU 13	0	0	0	0	0	0	0	0	0	0	20	0	0	34	0	1	0	1	0	0	0	0	0	2	0	0	0	0	0	0	4	0	0	0	0	0	1	0	0	6	5	0	14	0	12	0	0	4	0	0
OTU 14	0	14	8	26	23	5	58	0	9	0	48	5	19	0	12	0	38	23	0	38	40	0	25	8	2	13	18	9	0	15	37	43	30	2	4	1	1	8	26	0	0	0	26	4	16	5	0	0	18	57
OTU 15	0	0	0	23	0	0	8	0	0	0	0	0	0	0	0	0	0	0	0	0	22	0	0	0	0	0	23	0	0	0	6	0	1	0	0	0	0	0	0	0	0	0	0	0	0	0	0	0	0	0
OTU 16	0	0	0	0	0	0	0	0	0	0	0	0	0	0	0	0	0	24	0	0	0	0	0	0	0	0	5	0	0	0	0	0	0	0	0	0	0	6	0	0	2	0	0	6	0	0	7	0	0	0
OTU 17	1	67	0	41	11	0	0	19	1	24	19	44	53	0	14	0	0	17	34	0	10	70	2	0	37	5	71	0	0	0	1	72	12	3	521	15	3	1	57	0	12	2	0	2	61	35	68	8	9	4
OTU 18	1	43	194	9	39	20	23	2	14	9	25	52	29	11	3	7	18	52	3	18	468	21	8	51	27	4	20	11	0	5	30	77	181	4	58	65	16	6	12	76	3	52	20	18	4	5	24	48	2	138
OTU 19	0	0	0	0	0	0	0	0	0	0	0	0	0	0	0	0	0	0	0	0	0	0	0	0	0	0	0	0	0	0	0	0	0	0	0	0	0	0	1	0	0	0	0	0	0	0	0	0	0	0
OTU 20	6	105	27	4	81	1	82	32	0	3	193	42	44	2	0	4	78	2	39	2	0	1	8	2	72	8	13	0	146	1	8	4	81	5	44	6	53	0	36	1	7	119	48	14	11	3	23	65	8	110
OTU 21	93	8	452	19	25	592	11	401	470	251	199	42	37	256	194	113	8	6	464	97	117	418	447	239	27	120	9	150	43	213	10	42	30	270	9	232	52	276	0	10	193	183	16	10	53	540	9	2786	915	3
OTU 22	0	22	39	114	149	48	20	25	3	1	145	3	156	10	9	32	45	8	48	3309	3	61	9	84	52	11	46	9	35	5	24	40	94	5	375	73	239	39	1	27	0	382	4	263	29	49	0	6	11	1
OTU 23	11	0	0	1	324	5	30	0	4	0	0	0	4	83	10	5	8	12	4	11	44	2	0	68	1	1	2	2	30	0	8	71	4	3	16	0	25	2	0	82	1	98	21	0	25	5	4	106	1	14
OTU 24	3	0	44	0	3	1	61	0	3	0	194	0	14	67	11	0	13	4	9	10	21	3	0	0	12	1	9	0	0	0	0	3	106	0	3	5	0	0	0	71	2	1	27	2	0	0	19	1	0	41
OTU 25	0	0	0	39	0	0	0	0	0	0	0	0	0	0	0	0	0	0	0	0	0	0	0	5	0	0	0	0	0	0	0	0	0	0	0	0	0	0	14	0	0	0	36	0	0	2	12	1	0	0
OTU 26	0	4	209	39	7	17	91	0	0	0	0	0	49	22	0	6	1	0	16	0	22	2	0	0	0	4	3	0	11	0	0	1	0	0	0	0	12	0	0	0	0	0	26	0	0	0	0	3	1	0
OTU 27	0	0	0	0	0	0	0	0	0	0	0	0	0	0	0	0	0	0	0	0	7	0	0	0	0	0	0	0	0	0	0	16	0	0	0	2	0	0	0	0	0	0	0	0	0	0	0	0	0	0
OTU 28	16	50	82	84	62	40	53	21	12	9	180	35	62	16	15	9	32	23	0	0	8	18	1	2	4	10	17	4	8	3	6	100	20	2	20	1	2	39	4	28	15	15	116	42	29	42	58	2	2	22
OTU 29	86	18	16	22	78	499	56	327	574	288	21	1	15	2	243	165	43	71	612	10	26	481	487	684	110	199	10	255	9	262	392	20	54	269	90	102	32	465	135	102	306	44	33	5	206	853	13	5	1145	96
OTU 30	2	0	0	0	0	0	77	0	0	0	0	0	0	0	0	0	0	4	0	0	0	0	0	0	0	0	0	0	0	0	0	0	0	0	0	0	0	0	0	0	0	0	0	0	0	0	0	0	0	0
OTU 31	0	36	43	35	1	0	58	3	2	0	0	23	7	29	0	0	2	0	24	29	23	0	3	0	1	16	8	0	28	1	33	1	0	3	0	0	7	0	0	0	0	46	36	54	341	0	0	3	0	28
OTU 32	12	12	10	100	254	124	49	84	11	3	59	57	2	26	1	11	57	1	13	5	47	3	4	44	26	18	122	0	66	2	1995	16	31	28	56	8	27	16	65	29	20	72	31	46	37	20	9	33	6	218
OTU 33	0	0	0	0	0	0	0	0	0	0	7	1	0	0	0	0	37	0	0	0	0	0	0	3	0	0	0	0	0	0	0	0	0	0	0	0	0	0	0	0	3	3	2	0	0	0	0	1	0	0
OTU 34	141	124	1	86	1	53	6	166	70	29	10	15	186	153	23	381	116	62	13	86	98	93	25	109	297	8	39	12	1	8	0	0	158	16	2	17	579	10	10	61	19	4	16	5	18	32	0	71	93	490
OTU 35	3	9	14	26	116	0	263	10	0	35	130	170	2	51	14	1	20	20	2	6	7	38	6	42	616	3	54	1	11	4	19	203	1	2	114	0	16	2	129	7	0	0	7	17	0	41	33	11	0	147
OTU 36	3	0	8	71	47	3	11	27	26	5	1	37	15	0	0	0	14	3	42	1	14	6	1	52	0	20	4	4	83	0	10	3	90	19	1	218	17	3	206	16	44	62	20	554	5	4	126	6	17	0
OTU 37	6	10	64	1	0	0	1	0	0	0	4	0	0	338	3	0	2	5	0	140	0	0	0	0	45	4	0	1	7	0	0	0	0	0	3	34	0	0	0	3	3	114	3	0	0	0	0	62	0	23
OTU 38	2	196	56	141	21	4	45	14	1	3	18	6	23	83	4	1	13	19	14	46	10	1	7	21	14	4	14	0	0	5	19	71	4	5	3	680	7	13	12	139	4	3	11	1	4	20	16	132	0	1
OTU 39	1	55	2	136	0	0	0	0	0	4	46	1	25	0	118	7	0	0	0	0	0	0	0	14	1	0	1	0	8	0	2	0	0	12	0	10	0	0	0	2	0	15	46	0	7	11	0	0	0	1
OTU 40	0	2	19	0	39	9	2	2	3	1	14	13	25	20	2	27	93	1	42	50	202	13	7	39	12	1	11	3	68	7	21	52	50	2	2	28	55	5	1	82	9	24	26	81	3	27	24	83	31	0
OTU 41	0	56	4	75	6	3	10	18	38	1	18	10	61	43	4	0	2	15	3	79	77	8	2	0	88	6	41	0	10	1	0	61	54	1	229	0	12	12	37	5	0	7	62	0	1	1	105	0	13	488
OTU 42	1	0	0	56	7	0	0	9	15	25	2	10	22	4	108	1	0	0	3	4	0	71	8	0	16	1	1	2	0	5	16	0	1	0	0	1	15	0	0	2	0	0	1	0	18	27	22	39	2	0
OTU 43	0	0	0	1	0	0	0	0	0	0	0	0	0	0	0	1	0	0	3	0	7	0	0	0	0	0	20	0	0	0	0	0	0	0	0	0	0	0	0	0	0	0	0	0	0	0	1	0	0	0
OTU 44	0	0	0	1	1	2	0	0	0	4	75	0	5	1	0	0	4	7	0	6	0	0	0	0	175	1	0	0	0	0	10	1	0	0	0	3	0	0	47	80	0	1	0	13	6	0	0	0	1	10
OTU 45	2	94	15	6	88	2	7	0	5	6	53	76	5	205	12	30	19	20	86	25	7	5	1919	8	4	15	3	870	29	1014	31	38	0	1	70	4	87	1	12	31	57	94	23	46	0	17	10	1	20	144
OTU 46	9	31	3	138	257	40	83	0	0	9	47	7	8	33	7	3	37	34	60	22	81	2	16	11	99	38	61	7	888	6	668	10	5	0	7	21	21	38	29	51	1	64	123	153	28	5	26	0	14	2
OTU 47	0	0	0	0	1	0	51	1	0	0	132	37	0	0	0	0	73	0	0	0	1	1	0	0	0	0	28	0	0	0	7	15	0	2	2	6	0	0	0	0	15	0	0	0	0	0	0	0	0	0
OTU 48	13	7	86	18	38	46	79	0	18	446	46	17	7	15	2	0	11	32	12	3	258	107	11	17	106	17	1	18	39	5	12	39	17	3	13	1	12	27	2	24	10	239	71	42	39	43	53	33	64	24
OTU 49	3	0	61	1	33	43	10	3	18	17	20	14	9	2	1	0	5	0	141	2	5	40	7	6	200	0	0	3	61	3	38	0	83	6	6	0	8	2	0	0	0	97	26	0	0	33	19	16	20	0
OTU 50	4	51	88	105	414	5	19	20	31	28	50	24	10	17	9	7	265	41	4	8	12	17	15	3	24	20	63	8	20	6	1	49	42	12	219	39	3	40	0	140	20	87	629	125	13	8	7	105	46	104
OTU 51	0	0	0	2	0	2	0	0	7	0	1	43	27	11	1	0	50	0	26	0	0	1	3	0	0	4	2	0	11	1	2	4	0	0	12	0	1	0	0	18	1	6	69	11	8	0	0	0	2	54
OTU 52	7	106	19	26	28	39	23	17	49	2	14	36	10	459	10	18	563	213	13	287	45	0	37	27	82	34	31	24	56	23	19	224	47	27	23	51	82	17	76	17	16	22	120	56	87	17	82	142	45	72
OTU 53	0	0	0	0	0	0	0	0	0	0	0	0	0	0	0	26	0	0	0	0	0	0	0	1	0	0	0	0	0	0	0	0	0	0	0	0	0	0	0	0	0	0	0	0	0	0	0	0	0	4
OTU 54	29	37	59	24	33	29	66	3	9	4	8	24	21	111	3	33	27	18	31	25	1461	4	527	16	127	2	45	274	62	262	45	83	85	4	30	19	102	1	74	14	9	283	56	37	13	71	3	86	10	236
OTU 55	0	0	0	0	0	0	0	0	0	0	0	0	0	0	0	1	0	0	0	0	0	0	0	0	0	0	0	0	0	0	0	0	0	0	0	0	0	0	0	0	0	0	0	0	0	0	0	0	0	0
OTU 56	2	37	7	0	4	5	0	5	9	18	1	0	0	5	0	0	3	3	0	6	6	1	0	19	31	3	1	0	0	0	9	50	0	20	0	0	4	0	0	6	1	0	22	14	0	2	3	40	0	40
OTU 57	17	304	13	66	302	15	53	14	30	77	36	46	18	234	38	3	203	186	128	172	25	95	14	56	27	46	201	16	121	7	39	78	107	26	107	33	20	20	40	1001	18	13	179	265	1685	30	63	157	75	164
OTU 58	7	0	0	16	61	7	119	0	0	0	25	7	0	81	8	1	21	0	0	32	35	0	14	15	0	4	1	5	0	11	3	4	13	2	27	13	36	40	9	106	1	74	1	8	0	1	7	0	40	3
OTU 59	0	22	33	36	1	0	17	1	16	3	0	9	0	5	0	1	201	32	0	1	28	0	0	0	0	6	50	0	3	0	24	7	0	0	23	0	44	1	10	32	25	12	0	0	2	17	5	1	11	10
OTU 60	24	33	20	31	51	1	124	69	12	5	58	68	2	41	19	10	152	8	19	6	114	3	9	24	39	1	62	35	4	4	3	69	87	3	0	4	96	18	21	44	24	70	126	128	16	16	32	39	11	85
OTU 61	395	119	71	99	142	72	15	49	101	21	0	24	91	4	93	763	12	14	605	4	258	19	44	3621	31	119	6	21	0	29	471	26	48	4814	1	40	86	178	29	179	24	13	52	98	561	40	43	31	91	39
OTU 62	0	3	81	62	8	10	9	0	1	16	24	34	18	23	12	10	2	9	0	2	10	13	6	2	37	0	0	3	4	1	1	0	27	11	0	0	34	0	2	19	1	0	11	26	0	21	0	0	29	0
OTU 63	44	8	0	6	0	11	2	70	0	0	48	59	0	33	3	2	61	0	1	7	19	9	42	0	1	7	273	30	8	27	4	51	163	1	113	0	7	3	0	4	24	24	61	91	0	4	0	79	25	2
OTU 64	46	10	130	43	160	23	9	21	51	55	15	45	72	159	5	26	33	28	7	106	106	87	11	12	52	5	88	19	4	7	6	18	93	25	94	66	70	4	87	21	51	48	23	100	22	104	8	36	29	132
OTU 65	0	0	0	0	0	0	0	0	0	0	0	0	0	0	0	0	0	0	1	0	2	0	0	2	2	1	3	0	0	0	0	0	0	0	2	0	3	0	0	0	0	120	0	0	0	0	0	0	0	2
OTU 66	11	22	27	48	163	10	45	10	2	13	11	46	66	33	0	27	58	5	123	14	0	11	6	9	18	5	128	0	3	1	78	0	33	0	134	35	25	29	8	3	12	9	126	6	6	0	3	246	0	9
OTU 67	0	39	0	113	0	34	18	10	0	32	7	22	21	4	2	0	40	18	13	12	0	35	13	5	29	0	0	2	305	6	24	18	190	0	0	7	0	35	22	2	2	0	4	13	3	42	26	1	18	29
OTU 68	1	0	0	113	112	18	12	52	4	0	0	2	8	1	3	1	7	0	11	3	1	5	19	2	14	14	1	9	0	6	7	0	5	0	26	0	33	2	9	86	0	1	2	0	2	20	32	0	20	8
OTU 69	0	25	34	35	138	13	11	491	2	6	54	28	1	41	8	3	29	2	54	67	58	35	0	7	66	1	77	4	45	0	13	24	77	0	1	16	10	7	3	23	18	38	0	32	16	1	0	31	3	1
OTU 70	2	19	0	10	2	28	63	0	10	10	41	35	31	17	2	0	6	0	1	0	0	19	6	36	10	2	101	8	0	3	5	11	27	12	25	0	2	0	1	50	10	9	0	27	0	0	0	2	4	16
OTU 71	1	0	40	2	0	0	81	20	29	75	1	0	40	62	16	5	1	654	1	16	67	94	5	0	11	10	0	8	58	3	19	63	14	6	53	38	1	41	0	26	0	91	0	16	15	22	1	36	43	6
OTU 72	0	0	36	133	13	15	62	0	0	3	36	0	242	30	18	0	47	53	7	21	2	3	0	28	2	0	12	0	2	0	55	21	19	1	168	2	8	3	15	21	1	29	2	98	80	10	0	185	10	15
OTU 73	0	17	0	147	36	34	2	17	180	0	4	23	11	31	1	24	58	16	2	48	136	2	1	2	20	16	0	7	55	2	18	61	10	58	17	1	67	27	22	26	6	13	0	5	14	0	10	17	4	5
OTU 74	4	4	9	1	17	17	110	25	59	3	11	140	45	185	1	7	21	0	2	177	10	28	7	38	19	41	75	2	13	6	20	1	44	43	177	16	284	35	62	45	70	44	45	144	85	164	12	5	25	0
OTU 75	562	68	7	14	261	32	11	9	16	0	2	23	81	68	24	35	4	151	6	12	736	11	18	0	18	530	34	6	12	7	7	5	113	10	177	1	205	39	25	2	38	67	0	83	4	11	58	61	19	80
OTU 76	0	14	35	5	4	0	9	8	0	2	42	1	13	11	3	2	27	10	0	2	0	0	0	24	6	0	0	0	18	0	9	135	13	0	188	23	4	0	0	461	1	0	30	6	19	0	0	170	0	1
OTU 77	6	7	9	28	46	54	59	46	6	27	168	20	20	32	6	4	45	0	20	2	9	76	45	25	9	13	41	9	32	28	14	13	34	2	50	2	32	49	21	2	14	140	18	58	87	22	1	11	45	32
OTU 78	4	22	11	21	9	52	19	3	3285	12	1	1	0	152	109	2	0	3	3	21	11	0	0	5	0	79	2	0	36	0	0	1	53	1360	4	142	0	116	1	2	99	0	17	20	17	82	72	1	0	36
OTU 79	24	51	277	39	124	87	45	35	22	23	104	57	39	139	26	7	328	18	41	43	147	39	27	82	144	61	102	37	34	1913	21	162	175	3	285	82	105	83	94	105	29	331	136	97	9	8	50	121	89	206
OTU 80	6	12	107	10	112	40	166	20	5	12	14	16	4	180	2723	24	22	31	68	197	15	13	5	72	107	4	58	4	18	2	2	39	3	14	41	154	39	2	54	21	7	67	148	5	2	2	50	14	14	34
OTU 81	298	59	288	52	63	64	220	9	10	6	74	19	20	18	0	636	107	0	24	11	103	8	25	72	26	29	156	6	18	16	27	148	14	4	0	21	101	8	165	77	7	76	71	93	16	8	55	143	28	78
OTU 82	7	192	11	26	0	7	0	3	6	0	10	88	22	2	10	7	151	6	1	0	9	4	1	28	67	9	0	0	23	0	1	50	24	1	56	6	2	12	9	153	29	1	56	12	1	4	1	61	3	32
OTU 83	0	0	3	0	0	0	3	0	10	0	17	1	18	0	61	12	3	0	0	12	17	9	15	0	0	31	32	6	0	6	2	0	46	0	10	1	0	27	19	0	6	1	2	1	0	0	4	7	38	0
OTU 84	0	23	52	7	93	0	205	1	0	3	17	19	1	10	8	1	3	0	8	6	16	13	3	3	5	2	122	1	12	1	5	11	17	12	295	37	9	29	24	125	12	26	32	99	16	3	1	8	7	4
OTU 85	3	0	8	0	0	33	5	3	13	1	0	0	0	0	22	2	12	4	19	0	12	0	25	1	5	33	7	8	2	12	3	0	0	27	0	0	0	79	29	9	60	0	0	2	0	0	0	4	16	0
OTU 86	0	0	0	1	2	0	0	5	0	0	0	0	0	0	0	0	0	0	0	0	0	0	1	0	0	0	24	0	0	0	0	38	0	0	2	0	0	39	0	0	0	0	0	0	0	0	0	0	15	0
OTU 87	0	0	5	96	103	0	1	0	1	0	3	0	40	166	0	1	0	0	5	103	0	0	0	11	0	1	6	0	0	0	7	3	16	0	0	0	0	0	11	245	0	96	1	3	1	1	0	62	1	3
OTU 88	10	0	31	71	3	0	0	0	0	0	2	0	48	1	0	12	0	0	0	0	0	0	0	8	11	0	0	0	89	0	0	0	0	0	4	28	0	3	0	12	8	1	0	1	9	0	0	0	0	0
OTU 89	1	5	4	2	8	0	102	0	8	0	0	7	0	155	6	0	70	0	7	84	28	2	0	0	11	0	0	1	0	0	0	0	0	0	0	0	0	0	10	39	3	75	60	0	474	0	2	7	0	2
OTU 90	1	1	1	0	0	92	9	42	0	0	0	0	2	0	0	0	0	14	0	3	9	0	0	0	0	0	10	0	0	0	36	0	36	4	12	4	0	1	7	0	0	0	0	0	0	0	0	0	1	182
OTU 91	0	0	0	0	0	17	0	0	0	0	8	0	0	0	0	3	0	0	0	0	0	0	0	0	0	0	0	0	1	0	0	0	145	0	41	0	0	0	7	0	0	0	0	0	0	0	0	0	0	0
OTU 92	0	12	0	0	1	0	0	3	2	7	4	0	44	23	5	7	1	0	8	17	0	1	0	0	0	0	2	11	17	0	1	0	0	0	57	0	153	9	50	0	1	0	0	4	33	0	71	5	2	49
OTU 93	0	0	0	0	0	0	96	3	15	1	1	1	7	0	4	1	0	0	0	0	0	0	1	0	0	8	0	4	0	0	0	0	2	1	0	27	0	0	0	0	0	28	34	9	0	0	0	0	6	3
OTU 94	19	14	254	9	15	304	39	136	180	90	0	8	89	0	179	11	133	56	133	2	6	152	167	259	80	223	2	99	12	66	120	2	199	152	42	166	27	239	151	28	145	28	51	119	37	223	13	15	341	65
OTU 95	0	28	0	46	16	0	0	1	0	0	50	7	0	1	0	2	28	1	8	0	0	8	8	0	3	1	0	0	0	1	0	4	61	0	8	0	2	0	4	0	0	7	0	2	0	3	0	0	20	0
OTU 96	5	4	0	0	0	0	0	0	0	0	6	0	0	1	0	1	0	0	6	0	0	0	0	0	32	0	0	0	0	0	0	0	0	0	0	1	0	0	0	0	0	0	0	68	0	0	0	0	0	91
OTU 97	2	0	8	2	12	0	0	0	0	0	0	5	0	0	0	3	0	0	0	4	45	0	7	0	1	14	0	0	0	3	0	2	0	0	0	1	0	2	0	0	10	0	0	99	0	1	0	0	2	30
OTU 98	3	20	0	0	0	22	0	2	2	1	1	1	475	1	15	8	0	8	0	1	0	0	0	0	25	0	24	0	28	0	22	0	3	0	0	0	659	19	0	0	39	0	67	67	0	147	0	11	2	4
OTU 99	1844	1	99	288	142	31	9	13	8	16	82	65	94	4	42	2	137	3	14	13	150	11	24	46	101	39	17	17	70	12	23	6	130	4	209	3	84	70	32	44	34	179	41	100	19	44	44	201	35	27
OTU 100	68	10	13	55	24	0	5	11	142	0	2	5	95	83	6	113	5	4	33	18	45	18	50	401	5	7	1	44	36	26	1	27	73	130	42	0	89	46	0	49	3	9	7	1	123	0	8	3	116	11
OTU 101	0	0	0	6	0	0	105	0	0	1	3	3	0	0	0	0	35	0	4	7	0	0	0	0	0	0	0	0	0	0	6	4	21	1	88	0	0	0	5	0	0	0	0	2	0	0	0	0	0	0
OTU 102	4	0	0	0	0	1	0	0	1	0	2	19	52	0	0	0	17	5	1	3	6	0	1	10	7	1	31	2	0	0	25	0	1	1	3	0	46	0	0	11	0	28	36	0	13	1	11	107	0	0
OTU 103	7	12	1	26	25	3	0	22	14	5	17	7	3	0	0	6	49	61	0	20	55	2	6	59	33	0	3	1	3	2	1	9	32	2	1	1	14	0	22	0	2	656	63	0	1	2	25	93	12	1
OTU 104	13	69	2	6	29	4	143	22	2	0	17	6	6	23	20	52	223	39	1	30	12	23	10	149	24	10	30	3	30	7	3	29	86	7	42	14	40	16	21	34	27	29	22	80	7	23	17	69	25	98
OTU 105	0	0	0	1	0	0	0	0	8	1	9	0	0	0	0	0	4	0	1	16	2	0	17	0	0	1	0	4	0	13	14	0	29	1	12	0	0	1	9	120	0	0	1	0	0	1	2	14	11	181
OTU 106	0	0	0	2	653	37	91	10	1	4	16	52	0	3	1	0	0	168	0	0	11	2	0	25	21	0	0	2	0	0	9	0	0	0	28	0	1	0	70	8	1	0	1	37	14	0	40	6	0	31
OTU 107	25	3438	14	0	1	3	0	3	0	0	45	9	0	50	0	0	18	0	0	7	0	9	2	32	2	0	15	0	0	0	0	3	0	0	3	0	8	1	0	10	0	0	7	0	0	0	0	0	0	0
OTU 108	0	19	42	35	0	30	21	28	4	3	13	6	22	24	42	0	204	0	0	67	1	2	17	23	0	16	5	6	38	11	0	19	51	2	0	2	3	41	1	28	16	27	0	23	4	1	0	13	5	46
OTU 109	0	0	0	4	0	0	0	0	0	0	0	0	3	0	0	0	0	0	0	6	9	0	0	0	0	0	0	0	2	0	0	0	0	0	2	5	0	0	0	0	0	0	0	0	0	0	0	0	0	0
OTU 110	10	139	31	52	60	67	0	16	11	16	7	14	1	31	3	1	8	10	0	1	2	76	0	30	25	15	35	0	81	0	33	2	17	10	5	0	35	3	74	102	0	70	396	34	3	94	3	3	2	64
OTU 111	0	0	0	0	0	0	0	0	0	0	0	0	0	0	10	2	28	0	0	0	0	4	0	4	2	0	0	0	0	0	2	0	0	0	2	3	0	22	1	3	0	0	9	0	9	0	0	1	2	0
OTU 112	0	10	67	2	1	3	14	13	0	0	0	12	28	63	18	1	18	1	0	2	72	18	0	0	0	9	0	0	10	0	6	0	5	0	0	1	0	4	0	2	8	72	25	0	0	0	0	3	0	0
OTU 113	0	1	2	10	31	0	1	1	1	0	0	7	0	0	0	0	0	16	0	0	26	0	0	0	13	0	0	0	0	0	0	0	0	0	0	46	9	0	36	0	0	9	19	1	0	0	0	12	0	0
OTU 114	4	1	220	162	21	58	44	11	105	23	88	81	117	56	166	9	495	24	76	4	113	85	78	137	100	118	46	36	2	34	24	21	45	29	69	73	11	132	44	24	84	29	78	412	68	244	18	48	163	6
OTU 115	25	33	72	31	137	75	102	61	38	12	93	77	17	151	73	6	217	1101	13	976	29	8	3	25	18	37	130	4	6	1	33	131	125	22	98	70	31	106	2490	11	48	84	394	59	14	26	1404	136	11	7
OTU 116	11	885	94	13	4	23	71	29	2	25	57	4	2	28	0	18	0	10	97	2	43	29	5	14	187	12	25	7	49	1	10	227	68	1	1	0	24	22	33	1808	17	45	69	105	40	7	1	178	20	70
OTU 117	18	90	88	3	187	65	4	19	105	88	24	10	2	10	5	5	51	47	950	13	5	76	79	0	40	5	14	32	32	52	736	16	45	43	0	70	0	30	19	70	2	30	66	89	31	84	5	28	205	41
OTU 118	0	12	0	1	0	2	0	22	0	0	0	0	6	25	7	0	8	2	5	0	20	7	8	0	0	3	16	3	0	4	0	0	1	0	19	0	0	5	0	2	0	0	8	70	0	0	0	0	6	0
OTU 119	4	40	122	17	105	116	43	87	25	3	37	18	121	46	2	20	130	70	8	10	22	2	32	16	12	2	17	28	23	16	2	86	181	11	60	27	151	3	57	25	8	213	6	61	78	12	8	50	92	97
OTU 120	3	0	7	10	0	29	2	0	0	0	41	0	42	0	0	0	17	1	3	4	0	2	0	0	16	5	4	0	0	0	13	1	0	0	5	7	4	51	0	35	18	26	1	193	0	0	9	43	2	0
OTU 121	0	0	8	8	105	2	0	3	38	33	33	3	2	9	35	22	17	1	26	1	1	26	69	0	77	53	2	32	38	45	32	3	201	18	51	86	15	32	2	101	60	17	85	4	27	11	4	18	113	0
OTU 122	23	2	0	61	145	104	350	29	8	1526	6	252	71	385	0	7	37	7	22	208	0	3024	9	33	258	2	305	3	2	3	0	43	86	3	46	114	12	28	2	5	18	16	35	5	1	3431	104	3	9	40
OTU 123	15	90	149	168	22	81	81	122	34	31	89	65	215	275	61	33	146	163	166	58	39	86	46	69	207	109	69	14	154	21	55	81	42	13	260	52	206	90	157	259	51	281	106	323	43	115	95	144	60	171
OTU 124	625	58	0	0	24	3	7	0	0	1	1	1	0	13	0	1250	17	2	0	0	15	0	0	0	1	0	1	0	0	0	0	0	61	0	13	19	0	6	1	0	9	58	0	0	0	0	0	4	0	1445
OTU 125	435	63	328	228	57	39	386	17	21	61	12	28	23	255	127	102	120	165	11	104	159	143	2182	205	147	155	116	1047	176	1085	8	402	65	184	76	4	9	201	144	95	60	80	59	161	29	45	120	96	72	140
OTU 126	3	2	8	1	65	112	0	17	4	0	0	0	1	11	0	23	0	14	0	3	8	2	9	3	0	0	37	6	1	3	1	0	0	8	23	0	3	0	10	1	0	0	0	0	2	22	0	0	0	2
OTU 127	0	5	755	59	6	31	13	54	7	0	8	1	14	75	0	0	54	4	1	33	18	4	34	0	21	0	9	12	3400	19	2	45	94	3	43	27	9	2	0	6	32	4	0	1	4	18	0	46	55	122
OTU 128	8	139	304	217	147	73	88	23	89	36	339	77	46	130	45	56	341	240	119	107	129	92	37	175	125	13	157	25	30	16	63	284	495	76	355	100	92	118	323	88	30	270	59	237	98	68	127	118	91	425
OTU 129	0	0	0	4	28	0	4	5	0	30	1	0	5	0	0	2	0	50	0	0	29	18	87	0	2	0	0	51	0	55	3	0	0	2	2	23	4	0	0	0	0	0	0	1	0	58	9	0	113	0
OTU 130	39	2	4	228	53	374	7	66	2	0	38	0	2	17	7	122	76	0	0	5	59	1	0	1	40	10	2	3	9	0	2	0	37	1	393	1970	2	15	7	1	7	29	104	20	15	23	1	18	3	10
OTU 131	0	0	64	39	130	0	22	6	0	0	2	0	1	42	4	2	5	144	60	0	78	0	8	95	18	37	24	2	2	5	5	0	1	10	32	0	110	30	12	27	25	115	40	4	3	18	72	0	12	1
OTU 132	1026	14	0	0	0	40	1	2	12	2	0	7	1	63	0	1	0	1	1	12	0	4	40	0	1654	0	22	31	23	14	0	3	23	3	0	4	39	0	20	4	8	2	0	2	0	7	3	3	87	8
OTU 133	0	0	1	24	2	0	4	0	0	0	0	20	0	57	0	9	0	0	1	40	37	0	0	0	6	0	0	0	17	0	0	26	1	0	0	0	0	0	4	3	1	0	0	0	0	8	0	9	5	4
OTU 134	1	2	16	69	51	48	102	1	4	1	221	0	75	69	0	1	18	27	10	17	8	4	0	14	0	0	1	0	3	0	352	21	28	0	75	0	126	12	61	4	0	4	36	8	12	16	42	19	2	5
OTU 135	3	1	0	48	0	169	190	158	146	42	62	22	3852	14	39	42	100	2	168	1	14	80	132	352	3	80	31	85	1	68	129	1	3	63	1	119	4	209	0	2	81	13	0	1	14	209	25	40	387	189
OTU 136	53	75	0	182	42	6	48	3	7	0	96	0	14	28	19	40	42	5	2	44	0	0	43	68	107	24	10	20	1	28	0	20	3	2	55	4	28	12	2	0	36	146	39	9	5	24	27	8	59	0
OTU 137	0	0	24	2	0	0	5	0	0	7	0	13	0	45	8	0	8	0	12	36	7	18	15	4	1	17	0	3	9	8	0	0	110	0	7	11	110	48	0	0	11	0	0	3	5	0	0	12	6	0
OTU 138	2	2	0	24	0	0	3	0	1	0	54	43	8	0	0	0	26	14	54	5	2	0	0	7	0	0	65	0	0	0	25	0	0	0	6	2	8	0	132	0	1	26	4	0	0	2	42	0	0	11
OTU 139	20	31	57	40	81	26	30	34	116	36	55	129	101	10	6	27	81	127	14	1	100	120	78	7	113	5	65	26	49	38	0	27	56	136	76	29	144	19	119	23	50	10	240	105	34	152	19	77	72	100
OTU 140	45	121	34	202	75	81	716	37	54	49	55	138	203	24	12	62	359	151	26	13	209	93	31	14	423	12	208	9	56	23	72	52	1388	33	223	60	250	4	168	36	40	147	105	73	124	63	28	74	33	83
OTU 141	0	0	0	0	0	0	0	0	0	0	0	0	0	0	0	0	0	0	0	0	175	0	0	0	0	0	0	0	0	0	0	0	0	0	0	0	0	0	0	0	0	0	0	0	0	0	0	0	0	0
OTU 142	0	0	0	0	0	40	33	0	0	0	0	0	0	0	0	0	0	0	0	0	15	0	8	0	0	2	18	3	0	3	0	3	0	0	0	0	0	0	0	0	0	0	0	0	0	5	0	0	4	0
OTU 143	0	0	0	0	0	2	0	0	0	404	7	15	0	0	8	0	7	2	0	0	0	703	1	7	0	41	5	5	0	0	2	19	2	0	25	10	0	49	2	37	7	9	0	0	1	1	2	46	6	1
OTU 144	0	0	0	0	0	0	100	0	1	0	3	0	26	0	5	0	10	10	0	3	2	0	2	2	0	4	6	2	5	0	0	0	27	0	0	120	31	0	0	0	0	0	2	0	0	0	0	0	5	2
OTU 145	11	58	3	165	44	33	97	18	51	31	64	3	3	289	2	8	3	36	0	282	43	59	42	82	111	14	158	18	82	17	32	105	9	23	0	136	56	5	43	30	3	3	108	22	20	63	4	201	88	65
OTU 146	24	8	129	3	124	8	109	21	8	0	8	22	2	188	4	9	42	1	28	111	16	0	2	18	16	10	61	0	2	3	52	57	9	3	6	0	170	28	26	12	7	0	204	3	0	4	58	0	9	46
OTU 147	1	0	7	5	17	0	1	14	15	2	21	13	0	10	0	8	129	17	1	26	0	2	0	10	82	1	25	2	3	0	0	0	293	21	1	46	29	2	8	0	1	0	3	0	20	2	3	2	1	1
OTU 148	30	6	168	1	111	6	40	3	22	0	0	3	10	245	0	18	82	35	36	79	12	0	38	6	1	2	0	11	7	16	10	284	130	0	104	26	2	2	28	33	8	1	7	68	16	14	8	58	112	24
OTU 149	0	7	1	1	22	0	30	0	9	0	46	40	1	15	0	1	4	15	0	4	8	22	3	0	0	0	44	0	3	0	0	26	11	6	23	15	3	3	4	0	9	0	40	9	0	22	6	111	4	0
OTU 150	0	30	0	1123	4	22	1	0	15	14	0	34	1	0	0	10	45	0	11	0	0	3	1	21	17	0	0	3	5	1	0	7	0	8	1	2	21	0	3	14	21	10	0	4	0	0	3	0	1	1
OTU 151	9	12	10	308	29	5	20	42	2	33	0	11	0	27	4	50	5	1	16	23	3	45	39	66	24	2	9	22	5	16	35	25	23	1	0	0	15	0	1	3	4	80	22	31	22	1	18	1	26	0
OTU 152	11	4	144	0	2	0	9	14	63	29	11	148	102	21	22	24	12	2643	39	4	23	21	147	9	11	17	89	68	392	70	79	37	6	29	0	25	51	11	4	7	32	34	0	32	7	22	27	77	312	1
OTU 153	0	0	0	0	0	0	0	4	0	2	18	13	0	0	0	2	7	0	0	0	0	12	1	0	0	1	0	0	0	1	0	0	0	0	0	0	0	0	0	81	0	2	0	0	0	0	0	7	0	0
OTU 154	0	0	0	0	0	1	0	0	4	0	0	0	0	0	0	0	0	12	0	0	0	3	0	0	0	0	0	0	36	0	0	1	0	6	1	13	2	3	0	0	0	0	462	39	0	0	0	0	0	0
OTU 155	3	0	9	0	22	27	0	0	15	0	1	19	0	1	1	0	30	0	1	20	115	3	34	7	34	11	59	15	40	15	0	7	20	2	0	0	3	15	19	0	0	27	1	0	2	1	1	0	24	4
OTU 156	1942	165	97	106	120	98	6	19	47	8	97	5	6	78	28	3881	92	7	14	199	89	78	16	110	46	16	10	4	20	4	16	0	66	30	145	2	6	59	1	27	37	187	1	45	8	42	9	44	28	83
OTU 157	0	0	0	87	1	930	0	221	3	0	0	0	0	3	0	18	5	1	0	0	41	0	1	35	4	1	1	0	0	0	11	1	15	2	81	0	0	3	34	55	79	13	79	0	30	1	27	0	2	471
OTU 158	0	0	0	0	0	0	9	11	0	0	0	0	0	132	0	8	0	0	0	16	7	0	1	0	0	0	26	0	0	0	0	0	23	0	0	0	0	0	0	0	0	0	0	0	0	0	0	0	0	0
OTU 159	2	8	28	8	0	1	275	35	14	9	2	10	0	128	26	6	14	103	14	62	90	30	1	15	145	10	31	0	6	1	11	20	21	8	31	21	15	39	113	78	42	8	23	9	4	2	73	48	0	74
OTU 160	17	310	26	148	359	145	59	49	38	8	41	64	303	80	18	55	17	911	70	26	33	29	1	141	3	48	170	2	126	0	63	55	73	14	5	11	1304	11	1833	528	9	188	47	16	48	27	542	24	10	93
OTU 161	3	1	41	2	211	44	127	4	0	1	18	94	22	151	2098	10	30	5	0	58	40	0	1	6	40	1833	29	1	123	271	1	12	29	2	24	1476	2	3813	3	75	2048	13	43	2	1	5	3002	222	3	0
OTU 162	0	6	65	11	1	119	265	80	25	16	5	1	0	23	55	40	4	57	117	9	45	26	27	114	20	68	0	23	31	15	159	430	0	17	26	21	39	84	70	65	82	387	32	10	1992	4	39	794	63	16
OTU 163	0	0	0	0	0	0	33	0	0	0	0	0	0	0	0	0	0	0	0	0	0	0	0	0	0	0	0	0	0	0	0	0	0	0	0	1	0	0	0	0	0	0	0	0	0	21	0	0	0	0
OTU 164	0	0	0	0	50	0	0	3	0	0	0	0	0	0	1	0	0	0	0	0	1	0	0	0	1	0	8	0	0	0	0	1	0	1	0	0	0	0	0	15	0	0	0	0	0	0	0	0	0	29
OTU 165	0	3	2	45	17	2	19	4	14	61	1	6	4	33	0	0	0	3	0	16	7	66	1	0	0	1	0	2	4	1	0	32	13	1	64	9	16	1	1	1	3	1	1	5	0	0	11	14	0	67
OTU 166	0	0	0	1	0	0	0	0	0	0	0	0	0	0	0	0	0	0	0	0	0	0	0	0	0	0	0	0	0	0	0	0	0	0	0	10	0	0	0	0	0	0	0	0	0	0	0	0	0	10
OTU 167	4	2	1	51	8	153	0	17	7	5	67	1250	2	90	0	6	5	37	22	43	10	0	2	20	50	8	2738	1	1	1348	47	2	0	6	20	1	0	8	7	3	5	0	48	0	5	1	3	71	0	1
OTU 168	0	148	50	7	2	124	1	85	2	24	115	2	167	77	0	3	5	2	13	85	25	28	8	0	21	13	1	11	27	2	0	43	2	0	19	5	6	10	65	28	0	19	66	125	26	0	5	33	36	10
OTU 169	0	0	0	0	0	0	0	0	0	7	3010	0	0	1	0	0	0	0	17	26	25	10	0	0	0	0	2	0	15	0	13	0	0	0	0	0	0	0	138	4	0	0	17	0	0	0	17	2	0	1
OTU 170	0	0	0	0	0	0	0	0	0	3	0	0	0	0	0	0	0	0	0	0	0	7	0	0	0	0	0	0	0	0	0	0	0	0	0	0	82	1	0	0	0	0	0	0	35	30	0	2	0	0
OTU 171	7	2	39	217	178	28	12	0	25	81	0	391	46	73	40	5	20	17	92	35	5	132	80	26	0	29	645	36	0	48	31	33	6	26	267	1	143	25	11	49	2176	0	8	15	22	59	0	72	161	0
OTU 172	8	0	0	0	0	2	0	0	0	6	1	0	0	0	0	0	1	0	1	0	2	15	0	5	0	4	0	0	2	0	0	0	0	0	0	0	0	0	16	0	0	0	24	0	0	1	0	0	0	5
OTU 173	0	42	16	0	0	1	9	13	0	4	25	1	0	6	0	1	31	3	13	2	0	4	1	0	2	0	102	0	0	1	5	1	40	0	2	0	3	10	0	0	1	0	0	80	3	0	1	15	4	0
OTU 174	1	10	3	19	23	10	26	0	7	6	17	2	1	2	9	24	1	31	33	5	0	0	0	0	17	0	17	0	0	0	3	2	8	0	20	0	3	18	2	12	2	39	11	23	0	10	23	9	1	38
OTU 175	2	1	7	2	0	32	34	52	27	14	0	0	0	7	2	0	117	0	21	0	2	2	84	4	3	2	5	38	2	49	43	14	13	7	7	14	1	3	14	113	0	50	79	0	3	83	1	1	132	2
OTU 176	13	6	74	31	47	9	82	29	5	41	14	83	1	131	11	10	322	27	7	139	76	80	2	4	118	0	45	1	63	2	4	7	33	12	32	51	1	0	6	21	4	3	7	2	17	55	3	24	37	31
OTU 177	27	10	74	283	96	22	107	8	26	10	50	2	14	45	11	19	3	5	11	34	5	30	11	9	7	65	6	12	53	4	33	228	0	9	41	1	21	173	112	0	80	132	12	12	22	24	28	113	11	37
OTU 178	1	9	0	9	0	8	157	109	4	4	0	2	0	1	35	16	0	5	29	0	9	2	0	0	0	0	77	1	11	0	0	56	32	1	37	3	8	22	71	9	23	72	42	21	1	0	60	0	0	67
OTU 179	8	1	0	73	135	0	6	10	11	4	2	97	0	25	2	0	3	2	9	0	0	14	1	13	8	1	316	3	22	0	21	75	167	3	18	9	0	0	1	16	4	27	0	54	3	55	0	5	7	8
OTU 180	73	175	2006	235	287	88	167	71	63	63	114	75	69	36	10	9	150	91	38	9	325	79	61	65	24	48	57	5061	48	24	28	133	5	25	207	23	33	72	61	64	42	336	419	83	78	52	7	22	118	59
OTU 181	1	0	4	89	69	14	8	0	0	5	0	2	0	2	15	20	21	30	3	30	44	10	7	6	2	1	96	2	28	2	18	4	0	0	136	6	8	0	38	45	0	59	6	13	31	4	0	0	9	1
OTU 182	0	0	0	0	2	5	30	3	2	1	3	0	11	0	3	0	1	9	0	0	0	0	0	0	0	0	0	0	0	0	0	0	0	0	0	0	0	0	6	0	0	0	0	0	0	0	0	0	0	0
OTU 183	5	33	19	7	0	4	33	1	29	0	19	773	16	39	5	37	57	178	3	23	7	33	4	24	8	0	1	5	6	0	7	29	55	7	32	6	1	0	95	19	1	81	12	0	6	8	1363	123	1	33
OTU 184	11	11	4	1	8	2	93	1	0	23	1	0	1	95	0	0	0	0	325	21	33	8	0	0	1	2	58	2	4	0	99	4	1	0	5	0	0	2	4	0	0	12	42	0	43	13	0	0	0	2
OTU 185	0	9	32	5	15	6	38	1	44	0	20	5	3	10	9	12	17	37	48	11	42	2	16	47	9	1	101	9	329	6	18	3	94	63	5	0	1	34	19	32	10	21	5	69	2	1	95	56	30	85
OTU 186	1	16	0	5	0	3	0	5	25	0	0	2988	12	1	2	0	6	0	0	0	0	8	0	0	34	17	8	0	4	0	14	0	0	6	99	0	0	19	71	6	5	1	1	50	0	7	24	0	6	7
OTU 187	33	4	288	131	8	27	4	17	1	93	82	16	114	108	0	29	11	15	96	26	270	41	49	102	34	0	96	19	13	21	106	35	192	17	73	4	218	32	57	115	21	4	2	39	1	27	74	71	105	101
OTU 188	82	12	23	160	70	463	174	2876	487	235	20	90	39	213	252	200	89	140	536	44	94	556	532	312	75	351	0	252	156	1147	228	3335	100	281	3	351	96	566	15	0	363	73	54	40	176	391	31	22	1029	127
OTU 189	2	45	173	4	3	56	59	726	100	16	134	142	36	25	36	15	77	5	326	16	4	39	57	80	20	1	84	17	58	31	206	86	9	56	210	8	6	12	84	15	2	95	166	151	25	102	117	9	149	93
OTU 190	0	16	0	0	0	0	34	0	4	0	46	0	0	42	0	0	0	0	11	43	19	0	14	0	14	0	0	17	0	7	0	0	0	0	31	0	0	0	1	2	0	0	774	0	24	2	1	0	50	50
OTU 191	177	77	5	17	133	4	4	8	14	11	3	1	80	20	4	310	12	4	19	1	16	7	18	10	523	4170	41	12	42	13	28	71	332	3	210	159	0	18	85	87	1	199	68	12	10	1	50	33	49	26
OTU 192	12	11	26	14	37	65	60	100	8	20	108	29	82	311	3	6	365	22	6	109	138	11	21	24	34	6	22	4	39	7	1	63	54	1	81	10	159	4	3	87	11	282	249	2513	113	87	16	44	23	17
OTU 193	2	5	80	33	28	9	65	5	35	1	1	12	26	30	0	2	296	38	74	5	13	11	18	4	22	1	10	1	0	12	74	9	224	33	10	0	27	7	40	44	26	35	97	61	8	2	7	28	14	31
OTU 194	0	74	31	1	12	108	2	23	14	4	57	2	21	12	0	1	0	1	0	3	11	10	0	2	64	0	22	0	14	0	0	0	324	1	56	21	71	0	42	18	4	99	109	2	131	0	2	40	1	0
OTU 195	2	28	19	26	5	31	4	0	0	3	5	6	11	87	1743	15	0	45	15	22	0	39	4	3	8	8	13	0	17	1	2	6	53	0	39	92	143	3	15	50	0	30	3	57	0	0	51	6	0	0
OTU 196	0	2	20	0	51	3	43	27	11	0	29	26	96	2	0	2	0	0	6	21	11	1	1	60	36	0	11	0	0	0	61	6	19	12	104	21	4	0	23	0	1	5	43	3	3	6	2	1	0	1
OTU 197	4	7	109	188	196	25	111	13	195	2830	54	203	9	166	101	65	57	47	29	157	11	17	37	36	146	35	87	33	48	28	26	127	128	111	508	38	14	91	149	28	1954	100	35	48	37	48	110	67	114	27
OTU 198	0	2	25	51	7	0	0	4	17	0	4	0	0	26	1	0	0	38	0	7	1	1	12	2	10	1	0	1	0	8	11	0	0	11	0	1	3	0	0	1	3	47	6	0	2	0	15	0	21	46
OTU 199	1	17	0	57	7	3	0	2	0	2	4	1	27	3	0	0	15	0	1	13	23	0	4	25	9	20	23	0	1	2	20	36	0	0	1	4	51	0	1	47	4	22	2	46	6	4	2	1	4	5
OTU 200	5	4	41	99	38	4	10	0	8	3	11	18	14	25	1	11	7	26	5	124	11	28	32	3	50	2	86	13	4	9	0	79	50	11	75	12	70	1	4	5	1	128	1	2	1	0	2	10	62	147
