	Host 1	Host 2	Host 3	Host 4	Host 5	Host 6	Host 7	Host 8	Host 9	Host 10	Host 11	Host 12	Host 13	Host 14	Host 15	Host 16	Host 17	Host 18	Host 19	Host 20	Host 21	Host 22	Host 23	Host 24	Host 25	Host 26	Host 27	Host 28	Host 29	Host 30	Host 31	Host 32	Host 33	Host 34	Host 35	Host 36	Host 37	Host 38	Host 39	Host 40	Host 41	Host 42	Host 43	Host 44	Host 45	Host 46	Host 47	Host 48	Host 49	Host 50	
OTU 1	0	0	3	0	0	8	0	2	0	2	1	0	10	0	6	2	6	0	1	0	0	0	1	1	1	2	0	1	1	0	1	4	0	1	7	0	3	3	17	1	0	1	1	9	4	2	1	9	2	0
OTU 2	0	0	0	0	0	0	0	0	0	0	0	2	1	0	0	2	0	0	0	0	13	3	0	0	0	0	2	1	0	1	2	0	0	0	0	0	0	0	2	1	0	1	0	3	1	1	0	0	2	4
OTU 3	0	0	0	0	0	0	0	0	0	0	0	0	0	1	0	0	0	2	0	0	0	0	1	0	0	0	0	0	0	0	0	2	0	0	1	0	0	0	0	0	0	0	0	0	0	1	0	2	0	7
OTU 4	0	0	0	0	0	0	0	0	0	0	0	0	0	0	0	0	0	0	0	0	0	0	0	0	0	0	0	0	0	0	0	0	0	0	0	0	0	0	0	0	0	0	0	0	0	0	0	0	0	0
OTU 5	15	5	32	0	4	8	4	179	6	10	78	0	17	0	0	0	26	35	10	0	3	1	22	2	6	14	1	54	1	15	3	7	5	8	5	5	5	9	20	1	36	2	32	6	18	33	27	9	9	0
OTU 6	0	3	0	0	1	0	15	0	2	8	0	0	0	0	0	0	0	0	0	1	0	0	3	0	1	0	0	0	0	0	0	1	4	0	0	1	4	0	0	0	0	3	0	7	1	0	79	1	5	3
OTU 7	89	1	11	3	6	24	1	22	64	0	7	4	24	18	3	2	27	1	4	1	1	0	25	0	0	1	8	1	0	5	3	56	3	24	35	15	2	1	28	4	0	10	3	0	0	0	1	1	25	1
OTU 8	2	1	3	0	2	7	5	3	1	7	96	19	0	3	5	11	0	0	3	8	0	4	0	0	0	1	0	5	1	0	5	17	7	13	0	4	4	1	3	2	1	0	1	1	2	0	5	12	0	5
OTU 9	0	1	12	1	0	0	5	0	0	0	0	0	0	5	0	0	0	0	2	0	1	0	0	0	0	0	1	0	0	0	0	0	1	0	3	0	0	1	0	0	4	0	0	0	0	0	0	0	4	0
OTU 10	2	3	0	0	1	0	1	1	0	0	0	0	2	0	6	0	0	1	0	0	1	2	0	0	0	3	1	1	0	0	0	0	0	0	0	1	5	0	0	0	0	0	0	0	0	1	0	0	0	0
OTU 11	0	0	0	8	0	3	2	1	3	4	1	1	2	9	7	10	0	0	0	5	0	4	1	0	0	0	3	0	5	27	2	5	0	2	9	2	1	0	8	8	0	0	0	0	0	0	0	3	0	0
OTU 12	3	4	0	1	0	0	0	0	0	2	0	10	0	1	2	2	1	1	5	1	1	6	0	0	1	7	0	0	0	1	0	1	1	0	0	0	0	0	0	6	0	1	0	1	0	8	0	2	1	1
OTU 13	0	0	0	0	0	0	0	0	0	0	0	0	0	1	0	0	1	0	0	0	0	0	0	0	1	0	0	0	0	0	0	1	0	0	0	0	4	0	0	0	0	0	0	0	0	0	0	0	0	0
OTU 14	0	0	0	0	1	0	0	0	2	0	0	0	4	0	1	0	0	0	2	4	0	1	0	1	0	0	0	0	0	0	2	0	2	0	0	0	3	0	0	0	1	0	1	1	0	4	0	0	0	1
OTU 15	0	0	0	0	0	0	0	0	0	0	0	0	0	0	0	0	0	0	0	0	0	2	0	0	0	0	0	0	0	0	0	0	0	1	0	0	0	0	0	0	0	0	0	0	0	0	0	0	0	1
OTU 16	0	0	0	0	0	0	0	0	0	0	0	0	0	0	0	0	0	0	0	0	1	0	0	0	0	0	0	0	0	0	0	0	0	0	0	0	0	0	0	0	0	0	0	0	0	0	0	0	0	0
OTU 17	0	0	0	0	1	0	3	1	1	0	0	0	0	1	2	0	1	0	0	0	1	1	1	0	0	0	0	0	2	63	6	0	0	0	0	0	2	0	0	0	0	0	0	1	0	0	2	3	0	0
OTU 18	2	0	0	0	5	1	1	0	42	4	0	2	2	0	0	1	0	0	1	0	9	0	1	4	2	17	0	0	3	0	0	0	2	0	1	0	3	0	1	1	0	2	1	3	0	2	0	9	1	1
OTU 19	0	0	0	0	0	0	0	0	0	0	0	0	0	0	0	0	0	0	0	0	0	0	0	0	0	0	1	0	5	0	0	0	0	0	0	0	0	0	0	0	0	0	0	0	0	0	0	0	0	0
OTU 20	0	2	0	0	1	0	0	0	0	6	0	2	0	2	3	0	0	0	0	0	0	2	0	4	1	0	0	0	3	3	0	3	0	2	0	4	2	0	1	1	0	0	0	1	0	0	0	2	0	0
OTU 21	2	0	0	3	0	0	1	0	0	0	0	0	0	1	0	2	0	3	1	3	5	0	0	0	2	5	5	0	1	4	0	1	0	0	2	0	2	1	0	1	0	0	0	4	1	1	1	0	0	1
OTU 22	3	1	0	1	6	1	1	0	2	0	0	1	0	8	8	1	2	4	0	0	3	3	0	0	0	0	1	6	1	2	2	1	37	0	0	0	2	1	3	2	1	0	0	3	4	1	0	2	3	0
OTU 23	2	0	0	2	0	0	0	0	0	0	0	0	0	0	0	1	1	0	4	1	0	0	0	1	0	1	0	0	0	0	4	0	1	0	1	2	0	0	0	1	1	0	0	4	4	0	2	0	0	1
OTU 24	0	0	0	0	0	0	0	0	0	0	0	3	0	4	0	2	0	0	11	0	0	2	0	0	1	0	0	0	0	1	1	0	0	1	1	0	0	1	0	8	0	1	51	1	1	0	0	0	1	0
OTU 25	0	0	0	0	0	0	0	0	0	0	0	0	0	0	0	0	0	0	0	0	0	0	0	0	0	0	0	0	0	0	0	0	0	0	0	0	0	0	0	0	0	0	0	0	0	0	0	4	0	0
OTU 26	0	0	0	0	0	0	0	0	0	1	0	0	0	0	0	0	0	0	0	3	0	1	0	0	0	4	0	0	0	4	0	0	0	0	0	0	2	0	0	0	0	0	0	0	0	0	0	0	0	1
OTU 27	0	0	0	0	0	0	0	0	0	0	0	0	0	0	0	0	0	1	0	0	0	0	0	0	0	0	0	0	0	0	0	0	0	0	0	0	0	0	0	0	0	0	0	0	0	0	0	0	0	0
OTU 28	1	0	1	0	7	1	12	0	2	0	1	0	0	1	0	10	0	0	1	0	0	0	0	4	1	0	0	5	1	10	4	3	2	0	0	0	4	1	1	4	0	0	0	3	2	5	0	1	1	0
OTU 29	1	0	0	2	0	1	0	5	20	1	0	2	3	0	25	3	1	0	4	2	5	2	4	2	2	1	2	3	8	0	5	0	1	1	3	4	3	3	7	2	0	0	0	3	2	7	1	2	2	1
OTU 30	0	0	0	0	0	0	0	0	0	0	0	0	0	0	0	0	0	0	0	0	0	0	0	0	0	0	0	0	0	0	0	0	0	0	0	0	0	0	0	0	0	0	0	0	0	0	0	0	0	0
OTU 31	0	0	1	1	0	2	0	0	0	5	0	0	0	0	0	1	0	1	0	0	0	0	0	1	0	0	1	5	0	0	0	0	0	0	0	0	1	1	0	6	0	1	2	0	0	0	0	0	1	0
OTU 32	0	12	1	1	0	6	9	0	4	0	0	6	3	1	3	6	0	5	24	2	0	18	2	2	3	2	0	10	0	0	1	2	0	0	2	0	4	2	15	2	0	22	0	10	4	1	4	45	9	5
OTU 33	0	0	0	1	0	0	0	0	0	0	0	0	0	0	0	0	0	0	0	0	0	0	0	0	0	1	0	0	0	0	0	0	0	0	0	0	0	0	0	0	0	0	0	0	0	0	0	0	0	0
OTU 34	0	3	1	0	4	0	0	0	0	1	0	4	1	15	0	11	0	3	1	0	4	0	0	0	1	4	5	1	2	3	2	1	0	203	0	0	0	0	0	1	1	2	2	2	2	0	0	2	1	9
OTU 35	1	3	1	1	2	0	0	0	0	0	0	0	1	0	0	0	0	0	0	0	3	4	2	0	0	0	2	1	1	2	0	3	0	3	0	0	1	0	0	0	0	1	2	0	1	0	1	0	1	1
OTU 36	1	0	1	0	0	0	1	0	1	1	0	0	4	0	1	10	1	0	2	0	8	4	0	0	1	0	0	0	1	0	1	2	0	1	0	0	3	0	5	0	0	0	0	0	0	2	0	4	0	0
OTU 37	0	0	0	0	0	0	8	0	0	0	0	0	0	0	0	0	0	0	1	0	0	0	0	0	0	0	0	0	0	0	0	0	0	0	0	0	0	1	0	0	0	2	0	0	0	0	0	0	0	0
OTU 38	3	1	0	1	1	0	1	0	0	0	0	0	0	4	1	0	0	8	18	0	3	5	0	1	0	5	2	1	0	0	0	1	0	0	3	0	7	0	0	0	1	6	1	3	0	0	1	2	6	7
OTU 39	0	0	3	0	2	0	0	0	0	1	0	0	0	0	0	0	0	0	0	0	0	0	0	0	0	0	0	3	0	0	0	0	0	0	0	4	0	0	0	0	0	0	0	0	0	0	0	1	0	0
OTU 40	0	7	0	0	0	16	2	8	0	0	3	9	4	0	0	7	13	0	0	0	2	0	10	1	0	0	0	0	4	0	1	0	2	1	9	7	5	0	22	4	0	0	0	0	0	1	0	1	0	1
OTU 41	0	2	0	14	70	1	0	0	1	2	0	0	0	1	0	7	1	1	0	3	1	0	1	0	29	0	1	0	3	9	38	0	0	0	4	0	2	1	4	0	0	0	11	2	0	0	1	0	2	8
OTU 42	0	0	0	0	0	0	0	0	1	0	0	0	0	0	8	0	0	0	0	0	0	0	0	0	0	0	0	0	4	0	1	0	0	0	1	2	0	0	1	0	0	0	0	0	0	0	0	0	0	0
OTU 43	0	0	0	0	0	0	0	0	0	0	0	0	0	0	0	0	0	0	0	0	0	0	0	0	0	0	0	0	0	3	0	0	0	0	0	0	0	0	0	0	0	0	1	0	0	0	0	0	0	0
OTU 44	3	0	0	0	0	0	0	0	0	0	0	0	0	0	0	2	0	0	1	3	0	0	0	0	0	0	0	0	0	1	9	0	0	0	0	0	0	0	0	0	0	0	0	0	0	3	0	0	0	0
OTU 45	1	8	1	0	0	0	0	0	0	0	0	0	0	0	4	7	0	4	0	124	7	0	0	1	0	0	0	2	0	0	1	0	70	0	0	0	2	0	0	0	0	0	2	2	5	0	0	0	0	0
OTU 46	3	1	2	0	0	1	9	0	0	1	0	18	0	2	3	2	0	0	2	0	5	3	1	1	7	0	29	0	1	0	0	0	1	0	7	0	0	5	3	4	0	0	0	0	0	0	2	1	0	0
OTU 47	0	0	0	0	0	0	4	1	0	0	2	0	6	0	1	0	1	0	0	0	0	0	4	0	0	0	0	0	0	0	0	0	0	0	0	0	0	0	2	0	0	0	0	0	0	0	0	0	1	0
OTU 48	2	14	2	0	3	0	0	0	0	3	5	8	0	3	1	0	1	1	0	1	1	7	0	0	0	0	4	0	0	3	0	2	0	0	76	38	0	0	2	4	0	0	2	1	1	8	0	0	4	0
OTU 49	1	0	0	0	0	1	8	0	0	0	0	0	0	0	0	3	0	0	1	0	0	6	0	1	1	0	0	0	81	0	0	1	0	2	0	0	0	0	0	0	1	0	0	0	0	0	0	0	0	0
OTU 50	1	1	2	1	0	0	0	6	0	8	0	0	6	0	3	2	1	1	2	0	5	3	6	0	0	1	0	1	0	0	0	4	2	1	0	0	12	1	8	4	1	2	2	8	0	1	2	1	6	0
OTU 51	0	2	0	4	0	6	0	0	0	0	0	0	0	1	8	0	0	0	1	0	1	0	4	1	1	2	0	1	2	0	1	1	1	1	1	1	9	3	1	0	5	0	3	0	1	2	0	1	0	1
OTU 52	3	9	0	2	5	0	2	0	9	0	2	1	0	7	0	3	0	3	0	3	3	0	0	1	0	3	1	2	5	0	1	8	1	2	4	1	2	0	0	0	1	1	36	1	1	3	55	2	2	0
OTU 53	0	0	0	0	0	0	0	0	0	0	0	0	0	0	0	1	0	0	0	0	0	0	0	0	2	0	0	0	0	0	0	0	0	0	0	0	0	0	0	0	0	0	0	0	0	0	0	0	0	0
OTU 54	0	0	5	1	0	2	6	0	1	1	1	1	1	9	10	6	2	2	5	8	25	7	3	5	6	4	0	1	1	1	6	4	3	2	4	1	0	2	3	0	0	0	0	9	4	5	1	3	3	0
OTU 55	0	0	0	0	0	0	0	0	0	0	0	0	0	0	0	0	0	0	0	0	0	0	0	0	0	0	0	0	0	0	0	0	0	0	0	0	0	0	0	0	2	0	0	0	0	0	0	0	0	0
OTU 56	0	0	0	0	2	12	0	0	0	0	0	0	0	1	2	0	0	0	4	4	5	3	0	1	0	1	0	1	1	0	0	0	0	0	0	0	0	0	1	0	1	1	1	6	0	0	0	0	0	0
OTU 57	3	10	2	6	6	1	1	0	2	0	0	5	2	6	22	3	1	11	1	3	6	6	1	1	2	5	4	5	10	2	3	3	0	0	5	3	11	2	1	1	1	4	13	0	1	2	0	4	4	0
OTU 58	0	1	0	0	3	0	0	0	0	0	0	4	2	1	2	0	0	0	0	0	0	11	0	0	87	0	0	0	0	3	0	0	1	0	5	2	0	0	0	0	0	0	0	1	0	1	0	1	0	0
OTU 59	0	4	1	0	0	0	0	0	2	0	0	0	0	1	2	4	1	2	2	0	1	0	0	3	3	0	0	2	0	0	6	0	0	0	2	0	2	1	0	0	2	3	3	1	0	2	0	1	2	0
OTU 60	4	4	1	1	4	1	2	1	0	4	0	1	3	0	0	2	3	2	0	2	8	0	2	0	1	3	5	4	3	0	5	2	0	0	0	1	1	3	2	0	0	0	0	4	3	0	2	1	1	7
OTU 61	1	10	14	2	4	7	36	2	1	7	3	16	9	3	2	7	9	11	6	4	7	0	10	0	0	8	1	9	2	1	1	7	5	5	8	9	0	20	22	8	1	7	2	2	0	9	1	22	17	2
OTU 62	0	0	0	0	0	0	0	0	0	0	0	2	1	0	0	1	0	0	1	1	3	0	0	0	2	0	0	2	0	2	0	0	0	0	1	0	0	0	0	0	0	0	0	1	0	0	0	5	0	0
OTU 63	0	0	0	0	1	1	0	0	0	0	0	0	0	0	0	0	0	0	2	0	0	0	0	1	0	0	0	0	0	0	2	0	0	0	0	0	0	0	0	0	0	0	3	3	1	0	1	3	0	0
OTU 64	1	7	0	1	2	4	0	2	1	7	0	4	0	4	3	0	5	4	0	3	10	3	0	4	2	0	0	0	6	1	0	3	6	3	2	7	1	2	2	3	1	0	38	4	1	2	2	2	3	0
OTU 65	0	0	0	0	0	0	0	0	0	0	0	0	1	0	0	0	0	0	1	3	0	0	0	0	0	0	0	0	0	1	0	0	0	0	0	0	0	0	0	0	0	0	0	0	0	0	0	0	0	0
OTU 66	0	8	0	1	11	1	2	1	0	10	0	4	1	4	0	0	2	0	0	1	1	6	0	0	0	3	1	0	3	2	0	14	2	5	0	9	0	0	2	2	1	4	0	15	13	0	6	0	6	0
OTU 67	0	1	0	2	17	6	1	0	0	0	1	0	31	1	7	0	0	2	0	2	0	0	5	0	0	0	2	1	0	0	2	0	0	0	0	0	1	6	4	4	0	0	0	18	21	0	3	0	0	59
OTU 68	0	0	0	0	1	0	0	1	0	0	0	0	0	0	0	0	0	0	0	0	0	1	0	0	0	0	1	4	0	0	0	0	1	0	0	0	0	3	0	1	0	0	0	0	0	0	0	2	0	1
OTU 69	2	0	0	2	0	0	2	19	0	0	8	5	0	5	3	8	0	3	0	0	6	6	60	0	1	0	3	1	6	1	2	0	0	0	1	1	2	0	0	1	0	1	1	6	0	3	0	3	0	1
OTU 70	0	0	0	0	3	0	2	0	0	1	0	0	0	2	0	1	0	3	0	0	0	6	2	0	0	1	4	0	0	0	1	1	0	0	1	0	0	0	0	0	0	0	0	0	0	0	0	2	0	0
OTU 71	0	0	0	0	0	0	0	0	0	0	0	0	0	0	0	0	0	0	1	0	1	2	1	5	0	0	2	1	5	1	0	5	0	1	0	0	3	0	0	1	2	1	0	1	0	0	0	2	1	3
OTU 72	0	0	0	1	7	3	1	0	1	1	0	0	1	1	0	1	25	1	0	2	1	1	0	0	0	0	3	2	1	3	0	0	0	0	69	51	0	0	0	3	0	0	1	4	2	0	2	5	2	0
OTU 73	53	2	0	1	2	1	1	1	0	1	0	2	0	0	0	2	0	1	0	1	2	0	2	1	0	1	0	0	0	0	0	0	0	0	0	1	1	1	0	0	1	0	2	3	0	1	0	0	3	1
OTU 74	0	0	2	8	2	1	5	3	0	1	1	2	4	1	4	1	1	1	0	4	3	7	6	0	15	2	3	4	2	6	2	0	0	0	2	0	2	1	1	0	0	0	6	2	3	0	0	13	1	1
OTU 75	8	5	1	1	2	0	0	0	0	3	0	3	2	4	0	1	2	1	4	1	0	2	0	0	0	0	3	0	0	3	0	5	0	0	0	141	3	0	1	8	1	1	4	7	5	1	0	0	3	0
OTU 76	0	0	3	0	0	0	2	0	0	3	0	12	0	0	2	1	0	0	0	0	9	0	0	7	0	0	1	0	0	0	0	0	0	0	0	0	12	0	1	12	1	0	0	0	0	1	0	0	0	0
OTU 77	0	1	0	0	3	0	4	0	4	0	1	0	0	1	4	0	0	4	0	6	0	1	0	0	1	0	1	15	0	6	2	2	0	0	0	0	0	0	0	1	1	2	4	4	2	2	1	1	3	1
OTU 78	4	30	6	0	17	6	3	0	5	0	1	3	1	1	1	0	1	3	1	0	5	0	2	0	2	1	0	0	1	0	1	0	0	0	2	2	0	1	5	1	0	3	0	17	9	0	6	4	11	1
OTU 79	4	1	14	1	11	10	11	1	7	10	1	9	22	13	18	3	5	107	7	6	8	3	4	5	2	64	8	2	3	42	0	3	8	1	1	2	4	5	10	4	4	6	1	9	13	2	3	10	6	0
OTU 80	0	0	2	0	0	0	2	0	2	0	0	1	1	15	30	0	1	0	0	4	0	3	0	8	1	0	13	3	4	2	0	2	1	2	0	0	11	1	0	2	8	0	0	5	2	1	1	0	0	8
OTU 81	5	3	0	2	0	1	1	3	1	2	1	10	2	2	3	9	1	1	10	5	0	3	0	0	3	0	21	1	5	0	2	5	2	5	6	1	1	2	0	4	0	2	0	0	0	2	1	2	2	2
OTU 82	0	0	0	0	3	1	0	0	0	3	5	1	2	3	0	5	3	0	2	0	15	3	3	6	2	0	1	0	0	0	0	0	0	0	2	0	6	2	2	6	0	0	0	1	2	0	1	0	0	37
OTU 83	0	0	0	0	0	0	0	0	0	0	0	0	0	2	1	1	0	0	0	0	1	0	0	0	0	0	2	0	0	0	0	0	0	0	0	0	0	0	0	0	0	0	0	0	0	0	0	0	0	0
OTU 84	0	0	1	0	0	0	2	0	9	2	0	0	0	0	2	1	1	0	0	3	1	0	0	1	1	0	0	0	0	1	0	5	2	4	0	0	0	0	0	0	0	1	0	2	0	0	0	1	0	2
OTU 85	0	0	0	0	1	2	0	0	0	0	0	1	0	0	0	0	0	0	9	0	1	0	0	0	0	0	1	0	0	0	1	3	1	0	0	0	0	0	0	0	0	1	0	0	0	2	0	0	6	1
OTU 86	0	0	0	0	0	0	0	0	0	0	0	0	1	0	0	0	0	0	0	2	0	0	0	0	0	0	0	0	0	0	4	0	0	0	0	0	0	0	0	0	0	0	8	0	0	0	0	0	0	0
OTU 87	0	0	0	3	6	0	0	0	0	2	0	0	0	1	2	0	0	0	26	0	0	0	0	0	0	0	0	0	0	0	0	0	0	0	2	3	0	0	0	0	0	1	0	6	1	0	0	0	0	0
OTU 88	0	1	0	0	0	0	0	0	0	0	0	0	0	0	0	0	0	0	0	0	0	0	0	0	0	0	0	2	0	0	2	0	0	0	0	0	0	0	0	0	0	0	0	0	1	0	0	0	0	0
OTU 89	0	0	0	0	0	0	0	0	0	9	0	0	0	1	0	0	1	0	0	1	0	0	0	0	0	0	1	0	1	0	0	4	1	0	0	0	0	2	2	0	0	0	0	0	0	0	0	0	0	0
OTU 90	0	3	0	0	0	0	1	0	0	1	0	0	0	0	0	0	2	0	0	2	0	6	0	0	0	0	0	0	0	0	0	0	0	0	0	0	0	16	0	5	0	0	0	0	0	0	0	0	0	0
OTU 91	0	0	2	0	0	0	0	0	0	0	0	0	0	0	0	0	0	0	0	0	0	0	0	0	1	0	0	0	4	0	1	0	0	0	0	0	0	0	0	0	0	0	0	0	1	0	0	0	0	0
OTU 92	0	0	0	0	1	0	1	0	0	0	0	7	0	0	1	0	0	0	0	0	0	0	1	1	0	0	0	2	0	4	3	0	0	0	0	0	1	0	0	2	2	0	0	0	0	0	0	0	0	0
OTU 93	0	0	0	0	0	2	0	0	0	0	0	0	3	3	0	1	1	0	0	0	0	1	0	1	0	0	0	0	3	0	0	0	0	0	1	0	0	0	1	0	0	171	0	0	0	0	0	0	0	0
OTU 94	1	3	1	0	5	0	17	1	6	2	0	1	0	0	9	8	58	0	1	1	2	1	0	3	8	0	11	0	9	29	10	5	2	0	1	0	3	1	0	2	0	1	4	9	4	2	25	1	0	2
OTU 95	0	0	0	1	0	0	0	0	0	0	0	3	0	1	2	1	0	0	0	0	0	0	0	2	0	0	2	0	0	0	1	0	0	0	1	1	0	2	0	0	0	0	0	0	0	2	0	0	0	0
OTU 96	0	0	0	0	0	1	0	0	0	0	0	0	0	0	1	0	0	0	0	0	0	0	0	0	0	0	0	0	0	0	0	0	0	0	0	0	0	0	0	1	0	0	0	0	0	0	0	0	0	0
OTU 97	0	0	0	0	0	0	0	0	0	0	0	1	0	3	0	0	0	0	0	0	1	1	0	0	1	0	0	1	0	0	0	1	0	0	0	0	0	0	0	0	0	0	0	0	0	1	0	0	0	4
OTU 98	3	0	0	0	1	0	0	0	0	1	0	0	1	0	0	2	1	0	0	0	2	3	3	0	2	0	0	0	4	1	3	0	0	0	0	0	0	0	0	0	0	0	0	0	0	0	0	1	0	0
OTU 99	10	4	1	1	2	1	0	4	2	12	0	1	2	9	5	2	1	0	3	1	11	0	1	16	2	2	5	1	1	1	3	0	1	0	2	2	33	7	1	22	8	0	0	2	0	2	0	3	1	2
OTU 100	1	0	0	1	0	0	1	3	3	2	1	1	0	0	2	10	0	0	1	0	0	0	1	23	1	2	0	0	5	0	1	3	7	0	0	0	42	3	1	2	17	0	0	2	0	0	0	3	0	0
OTU 101	0	0	0	0	0	0	0	0	4	0	0	0	0	0	0	1	0	0	0	0	0	0	0	0	0	0	0	2	0	0	0	1	0	0	0	0	0	0	0	0	0	0	0	0	0	0	0	0	0	1
OTU 102	3	0	0	0	0	0	0	0	0	0	0	0	1	0	0	2	2	0	0	1	0	0	0	1	0	0	0	5	0	0	0	0	0	0	1	0	0	0	0	0	0	0	0	0	0	0	0	0	0	0
OTU 103	0	1	0	0	0	1	0	0	0	0	0	0	2	2	2	1	0	3	3	0	3	1	0	72	0	1	0	0	0	1	0	0	0	0	0	0	0	0	1	2	37	0	0	1	0	0	0	0	0	0
OTU 104	4	1	1	2	0	2	4	4	4	7	1	5	2	4	4	2	1	6	2	0	2	3	1	1	1	0	0	6	5	6	0	5	1	3	1	1	0	1	4	1	0	0	1	0	1	4	0	3	2	0
OTU 105	2	0	0	0	0	0	0	0	2	0	0	0	0	1	0	0	0	2	0	1	0	0	0	0	0	0	0	0	0	0	0	0	0	0	0	1	0	0	1	0	0	0	0	0	0	4	0	0	0	0
OTU 106	0	0	0	1	0	0	0	0	0	1	0	1	0	1	0	0	0	0	0	0	2	0	0	0	0	0	0	0	0	0	0	3	0	2	0	0	0	0	1	0	0	0	0	0	0	0	0	1	0	0
OTU 107	1	56	0	0	0	0	2	0	2	0	0	3	0	2	0	2	1	0	0	0	1	1	0	0	4	0	0	1	0	1	0	0	0	0	0	0	3	0	1	0	0	0	0	0	0	0	0	13	0	0
OTU 108	0	2	1	1	0	0	6	0	0	0	0	3	0	1	0	0	0	4	0	0	8	2	0	0	5	0	3	0	1	1	0	0	0	0	0	0	3	0	0	0	0	0	0	3	0	3	4	0	1	1
OTU 109	0	0	0	0	0	0	0	0	0	0	0	0	0	0	0	0	0	0	0	0	3	0	1	0	0	0	0	0	0	0	0	2	0	0	0	0	0	0	0	0	0	0	0	0	0	0	0	0	0	0
OTU 110	2	4	2	0	1	3	0	0	0	0	0	9	0	0	7	1	0	1	1	0	0	6	0	1	2	0	6	0	0	4	5	0	1	0	0	1	2	2	0	1	1	0	2	10	61	0	33	0	0	0
OTU 111	0	0	0	0	3	0	0	0	0	0	0	0	0	0	0	0	0	0	6	0	0	2	1	0	0	0	0	1	0	0	0	0	0	0	0	0	0	0	0	0	0	6	0	0	0	0	0	0	7	0
OTU 112	0	1	1	1	1	0	2	0	0	0	0	1	1	3	4	13	1	0	0	1	0	0	3	0	0	1	6	2	0	0	0	0	0	0	0	0	0	0	2	0	0	0	0	4	3	1	1	0	1	1
OTU 113	0	1	0	0	0	0	0	0	0	0	0	0	0	0	0	3	0	0	0	0	0	0	0	0	0	0	0	0	0	0	0	0	0	0	0	0	0	0	0	0	0	0	0	0	0	0	0	0	0	0
OTU 114	5	0	1	0	1	2	1	0	1	0	1	0	5	2	2	7	2	0	2	3	10	4	2	0	0	3	0	6	3	0	0	4	0	2	2	0	0	5	1	4	0	0	3	7	30	9	17	2	1	3
OTU 115	3	14	4	2	2	1	2	0	6	9	1	0	0	3	0	9	1	0	10	4	2	3	0	8	1	0	2	4	0	4	0	3	3	0	1	1	4	3	2	6	40	0	2	1	1	1	1	6	0	0
OTU 116	1	7	0	0	2	34	1	6	7	4	0	0	46	7	2	2	24	0	13	1	1	1	19	0	0	0	1	0	0	1	1	2	0	3	21	12	3	6	51	2	0	0	0	0	1	39	1	6	0	1
OTU 117	4	0	0	2	3	0	0	0	0	1	0	0	0	0	0	0	0	9	0	1	0	7	0	0	2	2	1	0	0	2	0	0	7	0	0	0	1	7	0	0	0	1	1	1	5	7	0	1	0	8
OTU 118	0	0	0	0	0	0	1	0	2	0	0	1	0	0	0	0	1	0	0	0	0	0	0	0	0	0	0	0	26	0	7	0	1	0	0	0	0	0	0	0	0	0	0	0	0	0	0	0	0	0
OTU 119	0	0	1	0	4	1	2	1	4	0	0	0	1	3	3	0	0	6	38	0	0	0	0	1	4	1	3	2	1	1	3	1	5	0	0	1	1	1	3	7	0	0	5	3	3	1	10	0	0	4
OTU 120	0	0	1	1	0	0	0	0	0	0	0	0	0	0	0	0	0	0	3	0	0	1	0	0	0	0	0	0	2	0	0	0	1	0	0	0	0	0	0	0	0	0	0	1	0	0	1	0	0	4
OTU 121	2	0	0	0	0	0	0	0	0	0	0	2	0	0	8	3	0	1	0	0	8	1	0	0	3	0	2	6	9	0	6	0	3	0	0	1	0	3	0	0	0	0	0	4	0	3	1	0	0	0
OTU 122	7	0	0	5	0	2	0	0	42	1	0	0	2	0	8	3	3	0	1	9	7	4	1	0	1	2	4	0	0	0	6	1	2	4	0	0	0	0	0	8	0	0	2	1	4	1	1	0	1	2
OTU 123	2	2	3	7	3	5	9	0	5	0	1	7	6	6	5	4	1	2	2	3	5	6	8	1	11	1	1	12	5	12	3	0	8	0	13	7	0	5	12	1	1	61	1	5	7	4	6	8	108	5
OTU 124	0	0	0	54	0	0	0	0	0	0	0	2	0	3	1	8	0	0	0	0	0	0	0	0	2	0	0	0	0	0	0	1	0	1	0	0	0	0	1	0	0	0	0	0	0	0	1	0	0	2
OTU 125	3	7	17	4	0	3	11	10	4	1	8	11	3	10	5	1	10	10	8	2	11	4	7	104	7	5	12	7	2	9	0	4	2	3	6	9	4	6	12	2	110	0	10	4	1	5	3	1	0	2
OTU 126	0	0	0	0	0	0	0	0	0	0	0	0	0	0	0	0	0	0	0	0	0	0	0	0	0	0	0	0	0	0	0	3	0	0	0	0	0	0	0	5	0	0	0	0	0	0	0	0	0	2
OTU 127	0	2	1	0	2	0	1	0	0	0	0	0	0	4	7	1	0	1	3	1	0	0	0	0	0	0	1	5	3	2	0	3	1	0	0	0	0	0	0	1	0	5	0	1	1	2	0	12	4	0
OTU 128	2	1	3	22	41	140	6	4	2	25	4	69	3	27	4	1	1	0	4	8	12	6	1	1	25	2	2	8	2	8	36	5	27	0	1	0	5	5	3	10	1	0	28	15	0	22	1	9	3	6
OTU 129	0	0	0	0	0	3	0	0	0	1	0	0	1	0	0	0	2	0	0	0	0	0	0	2	1	0	0	0	0	0	3	0	0	0	4	4	0	0	1	7	0	3	0	0	0	0	0	0	4	0
OTU 130	1	0	47	0	0	0	4	3	0	0	1	0	0	0	6	0	1	0	1	0	3	0	0	1	0	0	0	0	0	0	0	1	0	0	1	0	1	4	0	0	0	0	0	4	0	0	1	2	0	2
OTU 131	0	0	1	1	0	0	0	0	0	1	0	0	0	2	3	0	0	1	5	4	0	0	1	0	0	0	1	0	0	0	67	1	1	2	0	0	0	0	3	6	0	2	37	1	2	1	0	0	5	1
OTU 132	0	0	5	1	0	1	0	0	1	0	0	0	0	2	0	0	0	3	1	0	0	2	1	0	0	0	0	62	0	0	0	0	0	0	0	0	0	0	0	2	0	0	0	0	4	0	0	0	0	0
OTU 133	10	1	0	0	0	0	0	0	0	0	0	0	0	0	0	0	0	1	0	0	0	4	0	6	0	2	0	0	0	0	0	0	0	0	0	0	5	0	0	0	4	0	0	0	0	3	0	0	0	0
OTU 134	0	1	0	0	2	0	1	0	0	0	0	1	5	14	4	0	6	3	0	0	2	3	0	0	0	0	0	1	1	0	2	0	0	0	0	0	0	0	3	1	0	2	0	2	0	1	1	0	0	0
OTU 135	2	0	0	1	1	3	2	0	1	4	2	3	3	1	0	1	1	3	2	0	0	0	8	1	1	1	0	3	0	0	1	0	0	0	6	0	0	1	6	7	2	1	0	2	0	0	0	7	2	12
OTU 136	1	6	0	0	0	0	0	0	0	1	0	0	2	1	0	0	0	0	1	22	0	1	1	0	0	1	0	8	4	1	0	0	7	1	0	0	0	0	0	1	1	2	0	0	0	0	0	3	3	5
OTU 137	1	0	1	0	0	0	0	1	0	0	0	0	0	7	0	0	0	0	0	0	3	1	0	0	0	0	0	0	0	0	0	5	0	4	3	3	0	0	1	0	0	0	0	0	0	0	0	0	1	0
OTU 138	0	0	0	0	3	0	0	0	0	0	1	0	0	0	0	2	0	0	0	0	1	0	0	0	0	0	1	0	0	0	2	1	0	0	0	0	0	0	0	0	0	1	0	1	2	0	0	0	0	1
OTU 139	4	4	8	1	3	0	10	1	0	5	111	1	2	0	0	0	0	1	1	0	7	6	0	0	2	1	97	3	13	1	1	2	1	1	8	1	0	3	2	101	0	0	2	0	1	10	0	4	0	0
OTU 140	8	8	4	1	6	0	7	2	0	4	0	1	2	1	7	1	2	6	3	0	8	2	3	1	11	2	4	6	8	0	5	31	6	15	1	1	5	2	1	3	2	1	1	4	3	0	2	14	0	0
OTU 141	0	0	0	0	0	0	0	0	0	0	0	0	0	0	1	0	0	0	0	0	0	0	0	0	0	0	0	0	0	0	0	0	0	0	0	0	0	0	0	0	0	0	0	1	0	0	0	0	0	0
OTU 142	0	0	0	0	0	0	0	0	0	0	0	0	0	0	0	0	0	0	1	0	2	0	0	0	0	0	0	0	0	0	0	0	0	0	0	0	0	0	1	0	0	0	0	0	0	0	0	0	1	0
OTU 143	2	0	0	0	0	0	0	0	0	2	1	0	0	0	0	0	0	0	0	0	1	0	0	0	0	0	0	0	0	2	0	1	0	0	1	0	0	0	0	0	0	0	0	0	0	0	0	1	0	0
OTU 144	0	0	2	1	0	0	0	0	0	0	0	0	0	0	0	0	0	0	6	0	3	0	0	0	0	0	0	1	0	0	0	0	2	0	0	0	2	0	0	0	0	0	1	0	0	0	0	2	0	0
OTU 145	0	0	2	2	1	2	10	9	4	0	3	6	4	2	0	0	16	23	3	0	0	10	9	3	2	8	0	0	7	10	0	1	0	0	2	1	4	1	25	3	61	2	0	1	0	4	0	1	1	0
OTU 146	0	0	12	10	0	0	1	0	0	16	0	2	0	2	0	2	1	2	0	0	1	0	1	0	6	0	1	5	5	3	5	0	0	0	3	3	0	0	3	6	2	0	3	0	0	0	0	0	0	1
OTU 147	0	0	0	0	2	0	0	0	0	0	0	1	0	0	1	1	0	1	0	0	0	0	1	2	0	0	0	10	1	6	0	0	0	0	1	1	1	0	0	0	0	0	3	2	1	1	0	13	0	0
OTU 148	0	11	0	0	0	0	0	0	0	4	0	1	0	0	0	0	0	1	2	0	0	10	0	4	0	0	0	0	1	1	1	3	2	6	1	0	3	29	0	2	0	1	0	1	1	50	0	2	7	0
OTU 149	3	1	0	0	1	0	3	1	10	0	0	0	0	5	0	0	0	0	2	0	0	2	0	0	1	0	0	0	0	0	0	0	0	0	0	0	0	1	0	1	0	0	1	0	0	0	0	0	1	0
OTU 150	0	4	1	0	1	0	1	0	0	1	0	0	0	0	0	0	0	0	0	1	0	0	0	0	0	0	0	0	0	0	0	0	0	0	0	0	1	0	0	0	0	0	2	0	0	0	0	0	0	0
OTU 151	0	0	0	1	0	0	0	0	3	0	0	2	0	0	0	0	0	1	1	0	2	2	0	0	0	0	0	3	1	0	0	2	0	1	0	0	0	0	0	0	1	1	0	0	2	0	0	0	0	0
OTU 152	0	1	0	6	22	0	0	0	0	2	0	0	0	0	0	1	1	3	3	0	2	10	1	0	5	2	3	0	1	6	11	2	0	5	0	0	0	35	2	0	0	0	1	1	1	2	0	0	0	0
OTU 153	0	0	0	0	1	0	0	0	0	0	0	0	0	0	0	0	0	0	0	0	1	4	0	0	0	0	0	0	0	0	0	0	0	0	0	0	0	0	0	0	0	0	0	0	0	0	0	0	0	0
OTU 154	0	0	0	0	0	1	2	0	0	0	0	0	0	0	0	0	0	3	0	0	1	0	0	0	0	4	0	0	0	0	0	0	2	0	0	0	0	0	1	0	0	0	0	0	0	0	0	0	0	0
OTU 155	0	0	0	0	0	0	1	0	2	0	0	0	0	5	0	0	0	1	3	0	0	0	0	0	5	0	0	1	0	1	0	0	0	0	1	0	0	2	0	0	1	2	0	1	0	0	0	1	4	0
OTU 156	0	5	1	6	3	4	6	1	16	13	0	7	2	38	1	54	0	1	0	0	3	6	1	0	0	1	0	0	1	2	2	5	0	0	0	0	0	0	2	0	0	0	2	3	2	1	2	0	1	0
OTU 157	2	0	2	0	0	0	0	0	0	11	0	0	0	5	2	0	0	0	1	2	0	0	0	0	0	0	0	0	0	0	0	0	0	0	1	0	0	0	0	0	0	0	0	0	0	0	0	0	0	0
OTU 158	0	0	0	0	0	0	0	0	0	0	0	0	0	0	0	0	0	1	0	0	0	0	0	0	0	0	1	0	0	1	0	0	0	0	0	0	0	0	0	0	0	0	0	0	0	0	0	0	0	0
OTU 159	2	0	0	0	0	0	1	0	0	1	0	0	0	1	0	0	0	9	0	1	0	0	0	2	2	3	4	6	0	2	6	0	0	0	0	0	3	0	2	1	1	0	1	2	0	0	0	0	0	0
OTU 160	4	6	0	2	8	1	63	6	3	26	3	2	0	0	4	15	1	6	2	1	0	1	2	2	4	6	0	2	2	0	4	1	0	5	2	0	0	6	1	1	1	4	2	3	1	7	0	0	6	3
OTU 161	0	1	0	0	0	3	3	0	0	2	0	1	0	1	2	0	0	0	0	30	9	0	1	3	0	0	9	0	0	0	0	32	8	16	1	2	1	2	2	11	0	2	0	10	4	0	2	1	0	21
OTU 162	2	0	4	1	0	0	1	2	2	0	0	1	2	0	0	1	0	10	8	0	4	1	0	0	7	5	8	1	0	0	1	1	1	3	4	0	2	0	0	0	0	2	1	0	0	3	0	0	6	2
OTU 163	0	0	0	0	0	3	0	0	0	0	0	0	0	0	0	0	0	0	8	0	2	0	0	0	0	0	0	0	0	0	0	0	0	0	0	0	0	0	0	0	0	0	0	0	1	0	0	0	0	0
OTU 164	0	0	0	0	0	0	0	0	0	0	0	0	0	0	0	0	0	0	0	0	0	1	0	0	0	0	0	0	0	0	0	0	0	0	0	0	0	0	0	0	0	0	0	0	0	0	0	0	0	0
OTU 165	1	4	0	0	6	0	0	0	0	0	0	0	0	0	0	0	0	1	0	3	4	15	0	2	1	0	0	0	0	0	0	7	5	5	0	2	0	0	0	0	0	0	0	2	0	0	0	3	0	5
OTU 166	0	0	0	0	0	0	0	0	0	0	0	0	0	0	0	0	0	0	0	0	0	0	0	0	0	0	0	0	1	0	0	2	0	3	0	0	0	0	0	0	0	0	0	0	0	0	0	0	0	0
OTU 167	3	3	1	0	0	0	0	0	0	0	0	2	0	6	0	1	0	1	1	0	6	0	2	0	0	39	2	0	1	0	0	0	1	0	0	0	4	0	1	1	0	0	0	0	1	3	2	0	0	0
OTU 168	0	13	1	0	0	1	6	0	4	0	0	1	0	0	0	3	3	0	1	0	0	1	0	0	2	0	0	10	2	1	1	1	0	0	0	0	0	3	3	0	1	1	0	1	0	0	0	9	3	0
OTU 169	0	0	0	0	0	0	0	0	0	0	0	0	0	0	0	0	0	0	0	0	0	0	0	0	0	0	0	0	0	0	0	0	1	0	0	0	2	0	0	0	0	0	0	0	0	0	0	0	0	0
OTU 170	0	0	0	0	0	0	0	0	0	0	0	0	0	0	0	0	0	0	0	1	0	0	0	0	0	0	0	0	0	0	0	0	0	0	0	0	0	0	0	0	0	0	0	0	0	0	0	0	0	4
OTU 171	0	5	1	0	9	0	0	0	1	0	0	0	0	0	0	0	1	4	1	16	0	0	0	0	0	0	1	2	11	0	1	0	3	0	2	0	0	0	0	0	0	0	0	28	14	0	17	0	0	8
OTU 172	0	0	0	0	0	0	0	0	0	0	0	0	0	0	1	5	0	0	0	0	1	0	0	0	0	0	0	0	1	0	2	7	0	1	0	0	0	0	0	0	0	0	0	0	0	0	0	0	0	0
OTU 173	0	0	0	6	0	0	0	0	0	0	0	0	0	8	0	0	1	0	0	1	0	5	0	0	0	0	0	0	3	0	0	1	1	0	0	0	0	0	1	0	0	0	0	0	0	0	0	0	2	0
OTU 174	0	9	0	0	0	0	8	0	0	13	0	0	0	1	2	1	4	2	0	0	1	0	1	0	1	0	0	0	0	1	0	3	0	0	0	2	1	0	2	0	0	11	0	0	1	0	0	1	0	2
OTU 175	8	0	4	6	0	0	0	0	0	0	0	5	1	0	0	3	0	0	0	0	1	0	0	0	1	2	0	1	0	0	2	1	2	0	0	0	0	1	1	0	0	0	0	6	3	0	0	8	0	0
OTU 176	2	0	34	0	3	4	11	70	6	3	34	1	6	0	4	0	3	0	7	5	5	5	106	4	0	0	4	0	0	0	0	1	2	3	2	0	5	1	1	1	0	1	4	1	0	15	1	3	1	1
OTU 177	0	1	0	0	3	0	0	0	1	3	0	3	1	1	0	0	0	1	7	0	3	3	0	2	1	0	0	0	2	1	2	0	81	0	1	0	0	1	1	1	1	0	3	1	48	0	26	4	0	0
OTU 178	5	0	1	0	0	0	2	0	0	0	0	0	2	0	0	8	0	0	0	2	0	0	2	5	0	0	1	0	0	0	0	1	0	0	0	0	6	0	0	1	4	0	1	1	0	1	0	0	0	0
OTU 179	6	0	2	2	0	0	0	0	0	0	0	0	0	0	0	3	0	0	0	0	0	10	0	1	1	0	0	0	5	0	1	2	0	0	0	0	1	0	0	0	0	4	1	0	0	0	0	3	3	0
OTU 180	3	2	0	3	0	2	5	4	2	7	0	5	7	3	1	5	1	9	9	3	2	11	0	1	4	116	4	0	1	1	5	1	0	1	2	2	4	1	4	1	1	0	7	3	6	1	2	0	0	1
OTU 181	1	0	0	0	1	0	0	0	1	0	0	0	95	4	0	0	1	1	2	4	2	3	0	1	0	0	2	0	0	0	2	3	0	1	0	0	2	3	0	0	0	0	1	2	2	0	3	1	0	1
OTU 182	0	0	0	0	0	0	0	0	0	0	0	0	0	0	0	0	0	0	0	1	0	0	0	0	0	0	0	0	0	0	0	0	0	0	0	0	0	0	0	0	0	0	0	0	0	0	0	1	0	0
OTU 183	0	0	0	0	3	3	0	1	1	0	0	3	2	1	0	0	3	0	0	0	3	0	4	0	3	0	0	0	1	0	25	0	0	0	1	0	1	0	2	1	1	0	12	0	1	0	1	0	1	0
OTU 184	1	0	4	0	0	4	0	0	0	1	0	1	2	0	5	0	1	0	0	0	1	9	0	0	0	0	1	0	0	2	1	4	0	3	0	0	0	0	3	0	0	0	0	3	0	2	0	0	0	1
OTU 185	0	0	2	0	5	0	1	0	1	0	0	0	1	0	8	4	0	10	1	0	1	0	0	0	1	2	6	4	1	0	1	12	1	5	2	2	0	1	2	3	0	1	0	5	0	0	0	0	1	0
OTU 186	0	0	1	0	0	0	0	0	0	0	0	3	0	1	0	0	0	0	0	0	0	0	0	0	0	0	0	2	0	1	4	0	0	0	0	0	0	0	0	0	0	0	2	0	0	0	0	0	0	1
OTU 187	5	0	0	66	2	2	0	1	1	3	2	5	1	3	4	1	52	0	10	0	0	37	1	2	9	1	3	1	0	4	0	6	0	1	1	0	1	0	1	0	0	12	1	0	1	10	0	2	32	0
OTU 188	0	2	0	0	3	0	0	2	6	1	4	15	0	3	11	1	7	2	1	10	3	0	2	2	2	6	7	14	0	0	0	0	4	0	1	0	0	3	4	3	1	0	0	4	1	5	1	18	4	5
OTU 189	20	0	1	0	0	1	1	0	29	4	0	2	0	1	5	5	1	0	2	2	2	1	1	0	7	0	7	4	0	0	3	3	0	1	0	0	3	1	1	0	0	0	1	3	0	0	0	4	1	5
OTU 190	0	0	0	0	1	0	0	0	0	0	0	0	0	0	0	0	0	1	4	0	0	0	0	0	0	4	0	0	0	0	0	0	0	0	0	0	0	0	0	3	0	0	0	0	0	0	1	0	0	0
OTU 191	2	1	0	92	0	2	1	0	1	63	0	1	0	8	0	7	27	5	0	0	3	2	1	31	3	1	5	4	6	6	3	2	1	1	3	0	62	0	1	1	8	1	1	0	1	0	0	0	5	0
OTU 192	3	9	25	3	2	1	1	0	0	3	0	0	0	0	0	13	0	2	2	2	1	3	1	0	0	1	6	2	10	1	0	2	0	0	0	1	2	18	0	0	0	0	5	12	1	40	0	8	0	7
OTU 193	1	7	3	0	1	12	0	0	2	1	0	0	1	2	1	0	1	0	10	1	2	0	0	0	2	0	0	0	9	4	0	1	0	0	0	0	0	0	0	0	1	0	0	0	29	2	12	0	2	1
OTU 194	7	0	60	0	0	0	0	0	0	0	1	0	1	3	1	0	0	0	0	3	0	0	1	3	0	0	1	1	0	4	0	0	0	0	0	4	3	1	1	4	0	0	0	0	0	0	0	0	0	2
OTU 195	3	0	0	0	3	0	0	0	0	1	0	13	0	0	14	0	0	0	0	0	1	0	0	0	0	0	2	0	18	5	0	4	0	0	0	0	0	0	0	0	0	0	0	1	1	0	0	0	0	0
OTU 196	2	0	0	1	0	0	0	0	7	0	0	0	0	0	0	0	1	0	1	2	2	1	2	1	0	1	2	0	3	1	3	0	0	0	4	0	0	0	0	0	1	0	3	0	0	0	0	1	0	0
OTU 197	1	8	1	1	1	0	1	0	2	2	1	4	0	2	2	5	0	2	2	11	3	4	4	4	35	2	3	1	5	9	4	2	5	1	1	4	5	2	0	0	2	0	0	3	3	1	2	1	1	70
OTU 198	0	2	0	0	0	0	0	0	0	0	0	1	0	0	5	1	0	0	0	0	0	0	0	0	0	0	0	0	0	0	1	0	0	0	0	1	0	0	0	1	0	0	0	0	0	0	0	3	2	0
OTU 199	0	2	0	0	0	2	0	0	0	0	0	0	2	0	2	0	2	0	0	2	0	0	2	0	0	0	1	6	0	1	1	0	2	0	0	4	0	115	4	0	0	0	0	0	0	0	0	0	1	0
OTU 200	2	2	0	1	1	0	0	0	0	0	0	0	0	0	0	0	1	0	0	0	1	2	0	1	2	0	0	1	0	0	0	3	13	2	1	0	5	0	0	12	5	2	1	0	0	1	2	0	7	1
