	Host 1	Host 2	Host 3	Host 4	Host 5	Host 6	Host 7	Host 8	Host 9	Host 10	Host 11	Host 12	Host 13	Host 14	Host 15	Host 16	Host 17	Host 18	Host 19	Host 20	Host 21	Host 22	Host 23	Host 24	Host 25	Host 26	Host 27	Host 28	Host 29	Host 30	Host 31	Host 32	Host 33	Host 34	Host 35	Host 36	Host 37	Host 38	Host 39	Host 40	Host 41	Host 42	Host 43	Host 44	Host 45	Host 46	Host 47	Host 48	Host 49	Host 50	
OTU 1	31	124	33	14	48	59	19	30	54	20	1	10	128	29	69	44	17	15	21	5	64	4	36	7	1	54	102	9	0	0	85	24	0	0	237	22	0	111	119	58	6	5	16	22	70	88	25	6	0	42
OTU 2	0	7	0	0	0	0	37	38	23	13	0	9	0	11	16	31	45	18	1	41	0	0	10	12	5	0	10	0	0	0	2	0	0	5	0	57	3	12	28	1	22	18	0	15	0	8	6	3	0	2
OTU 3	5	51	14	0	3	14	0	44	131	24	2	15	5	1	56	61	133	0	5	83	0	0	79	29	0	95	14	1	17	0	50	0	111	0	0	8	92	0	0	0	0	74	8	37	6	50	10	0	0	8
OTU 4	0	0	0	0	0	0	0	0	0	0	0	0	0	0	0	0	0	0	2	0	0	0	0	0	0	0	0	0	0	0	0	29	7	0	0	0	0	0	0	0	0	0	0	0	0	0	0	0	0	0
OTU 5	81	23	1	131	28	1188	1422	221	2	206	81	156	62	1226	247	202	392	2	253	301	549	0	72	0	0	58	620	810	935	144	227	788	10	140	0	627	366	2703	822	188	18	16	1304	440	58	0	163	181	269	374
OTU 6	0	49	28	3	11	26	0	3	7	6	29	8	3	0	9	41	27	0	5	0	7	14	1	1	35	12	124	0	0	35	1	17	11	0	9	7	13	5	5	1	14	23	31	0	1	1	58	6	101	3
OTU 7	32	39	392	37	105	51	17	87	168	210	201	24	5	78	234	260	153	119	12	13	65	116	84	20	8	41	65	9	21	66	36	105	37	87	47	13	3	24	54	56	74	111	20	17	2	519	338	33	31	67
OTU 8	21	27	26	273	51	125	103	23	112	27	168	98	66	204	35	145	94	48	58	21	29	173	52	75	54	27	26	10	377	88	113	66	76	7	44	12	7	37	27	621	24	52	534	31	2735	81	966	46	4	32
OTU 9	286	93	35	927	8	9	1	121	0	37	0	20	66	2	199	4	1	5	16	32	9	9	0	666	0	5	69	6	65	44	6	20	8	1	4	8	4	3	0	1858	1	9	0	7	26	317	15	3	7	0
OTU 10	24	7	51	1	7	68	0	0	12	38	0	3	8	43	45	0	3	0	11	2	25	0	8	69	0	1	25	11	22	1	77	11	1	27	0	4	3	12	4	1	0	7	0	0	0	3	10	13	0	23
OTU 11	182	5	157	9	68	39	27	11	2	62	32	162	195	39	66	15	41	311	103	56	6	53	2	239	21	0	0	13	65	11	42	11	25	24	205	80	24	52	62	29	43	77	88	0	91	78	14	122	56	44
OTU 12	26	107	15	24	118	70	138	129	99	13	52	11	40	182	6	52	47	225	12	52	6	61	54	132	55	57	29	17	36	15	44	4	3	41	26	0	32	37	4	52	26	12	32	10	26	65	15	49	52	13
OTU 13	13	0	0	0	32	0	0	0	1	0	1	0	4	0	0	10	0	0	0	0	0	7	0	3	31	0	0	0	0	0	9	0	9	0	68	0	0	4	49	0	0	0	0	3	3	0	1	0	2	0
OTU 14	24	0	0	2	0	6	15	21	0	0	3	17	0	7	0	2	0	3	3	94	0	15	0	15	1	13	0	0	9	2	14	0	0	144	14	0	76	13	0	1	7	39	4	1	0	15	0	16	0	0
OTU 15	0	0	0	0	0	0	0	10	0	0	0	0	0	0	8	0	0	0	0	31	7	0	0	0	0	0	0	57	7	0	0	58	0	0	0	1	60	2	0	0	0	0	0	0	0	59	0	0	0	1
OTU 16	0	0	0	0	0	0	0	0	0	1	0	0	1	0	1	2	0	10	0	0	0	0	0	0	0	0	0	0	0	0	10	6	0	0	0	0	0	0	0	0	0	0	0	0	0	0	0	0	0	0
OTU 17	49	25	0	10	198	154	1	80	21	3	10	24	5	0	32	27	2	76	1	84	0	0	14	153	10	16	3	0	21	0	4	28	153	40	530	3377	51	306	234	0	279	43	113	2	5	0	137	2	3	7
OTU 18	4	101	10	13	194	94	4	145	20	62	25	15	9	12	0	8	6	84	15	11	0	89	8	30	23	10	0	1437	7	4	55	1190	263	8	149	1	2	114	116	10	34	28	13	9	4	150	58	17	75	59
OTU 19	0	0	0	0	0	0	0	0	0	0	0	0	0	0	0	0	0	0	0	0	0	0	0	0	0	0	0	0	0	0	0	0	0	0	0	0	0	0	0	0	0	0	0	0	0	0	0	0	0	0
OTU 20	6	22	50	0	96	137	110	190	5	139	47	22	4	118	52	38	1	131	6	185	32	62	2	0	0	0	33	35	42	117	38	32	4	81	84	12	134	37	64	0	224	20	23	34	925	63	1	43	4	1
OTU 21	0	11	84	10	87	1	6	2	40	0	54	4	1434	31	141	389	1	1	6	74	23	22	17	3	21	2878	68	431	0	42	43	452	9	150	61	888	30	25	32	19	64	51	16	1621	739	110	48	7	44	50
OTU 22	20	24	101	15	66	8	10	5	360	14	9	99	0	4	18	117	63	83	76	48	20	59	192	9	59	32	54	14	10	18	132	3	116	10	275	3	31	126	109	22	9	212	36	0	0	70	4	6	22	51
OTU 23	0	4	0	0	30	0	3	32	51	8	54	78	0	9	18	641	1	0	49	0	1393	3	29	1	6	164	8	2	28	0	0	11	10	441	12	68	23	13	0	0	20	50	71	77	0	1	0	34	0	1
OTU 24	0	5	1	3	4	0	6	0	19	4	13	12	7	2	30	1	0	9	0	2	2	33	6	0	12	23	2	32	0	95	0	6	1	57	31	0	15	77	20	0	3	73	1	4	9	0	6	0	8	0
OTU 25	0	391	0	13	0	27	0	0	0	0	2	0	0	1	0	0	1	0	0	0	0	0	0	0	9	0	0	0	0	0	0	0	0	0	0	0	0	0	0	9	0	0	0	0	0	0	0	0	0	0
OTU 26	0	8	61	0	0	0	9	3	0	1	31	0	0	5	40	0	2	0	0	0	0	1	0	0	5	0	0	0	90	0	2	0	0	9	4	0	0	1	1	3	0	2	0	0	0	0	91	0	38	0
OTU 27	0	0	3	1	1	0	0	0	0	0	1	0	0	0	0	0	0	0	0	0	0	0	0	0	0	0	0	0	0	0	0	0	0	0	0	0	0	0	0	0	0	0	0	0	1	0	15	0	0	0
OTU 28	7	143	756	366	77	18	15	44	163	358	63	88	1032	0	421	98	150	23	62	213	63	2	84	50	37	0	983	256	0	30	68	463	5	1	105	1	133	30	104	571	59	38	64	2	463	2171	1053	63	45	11
OTU 29	12	62	5	2	9	0	25	42	2	4	32	75	11	3	11	60	3	21	67	31	8	177	0	51	29	83	0	13	67	1659	21	25	0	5	15	132	72	29	5	4	46	37	24	231	12	40	2	43	49	872
OTU 30	0	0	0	0	0	0	0	8	0	0	0	0	0	0	0	0	0	0	0	0	0	0	0	0	0	0	0	0	0	0	1	0	0	0	0	0	0	0	0	0	1	28	0	0	0	0	0	0	0	0
OTU 31	23	30	67	49	0	0	0	43	22	0	6	12	35	7	1	77	2	76	1	79	1687	0	7	1	1452	2	0	0	691	52	0	4	0	29	1	12	67	0	4	76	0	27	18	0	13	24	0	1	19	23
OTU 32	11	101	68	9	23	4	14	17	92	24	33	3	15	47	91	69	105	31	4	45	53	10	47	89	133	24	21	484	101	12	29	8	18	56	62	821	137	418	92	42	2	83	36	1709	16	26	46	1	0	18
OTU 33	0	0	7	0	0	0	0	0	0	42	0	0	0	0	0	0	0	0	0	3	0	0	0	27	0	0	0	0	0	0	0	1	2	0	0	0	1	0	4	0	1	0	6	0	0	0	0	0	4	1
OTU 34	19	86	0	26	5	1	39	44	122	27	0	34	9	113	26	134	96	331	3	2	95	36	57	41	11	3	34	20	0	53	5	35	180	0	7	5	40	0	8	52	6	14	6	23	5	72	59	197	40	59
OTU 35	2	0	144	946	31	33	598	20	84	24	45	57	1	0	27	3	23	43	48	47	119	216	43	10	20	3	78	12	47	103	1	2	1	128	3	1	27	1	0	1792	84	3	30	15	6	4	109	27	149	14
OTU 36	13	90	14	13	27	57	6	4	7	24	68	1	1	30	2	63	6	3	1	13	93	26	2	2	16	2	5	2	4	2	11	13	0	26	2	9	8	5	928	22	40	0	7	1	0	34	42	2	12	0
OTU 37	0	0	23	18	0	0	0	1	42	0	6	0	0	12	0	5	5	0	0	15	0	0	24	0	8	98	0	1	0	1	0	5	1	0	0	24	8	0	0	27	2	66	0	44	0	0	0	2	0	0
OTU 38	115	140	25	5	33	139	98	4	3	1	9	100	66	38	0	19	0	143	75	1	8	6	2	228	2	2	29	5	42	6	23	1	175	15	117	0	5	93	165	11	41	34	447	3	47	16	0	94	9	88
OTU 39	1	294	8	0	0	3	18	0	0	0	37	4	2	0	0	0	0	3	0	0	26	9	0	3	4	0	0	0	8	12	0	0	0	3	0	0	19	0	0	0	0	1	54	0	0	10	0	1	20	0
OTU 40	4	34	60	13	11	55	69	30	72	5	17	4	14	164	11	70	3	6	0	50	27	81	31	5	48	138	19	11	63	46	20	10	1	110	0	62	2	1	28	65	51	15	6	97	11	5	49	14	111	2
OTU 41	76	241	2	34	6	40	8	120	11	0	1	44	5	0	22	71	3	1	40	0	8	9	2	151	0	1	13	3	62	17	5	1	79	23	168	0	28	41	52	77	0	7	9	1	12	17	2	5	13	20
OTU 42	48	1	13	3	4	13	0	4	30	0	0	0	2	0	1	36	0	7	0	119	0	1	13	48	4	0	0	19	0	4	5	1	17	1	11	0	51	0	0	0	0	26	48	0	0	0	0	0	75	5
OTU 43	0	0	9	0	0	0	0	0	0	0	0	0	0	0	0	0	0	0	0	12	0	0	0	0	0	0	70	0	0	0	0	0	0	0	0	0	0	0	0	0	0	0	0	0	0	0	0	0	0	0
OTU 44	0	0	0	0	0	0	0	0	9	0	0	0	1	0	0	17	0	42	0	40	0	7	1	0	0	1	0	10	0	0	9	0	11	1	8	0	11	2	3	0	0	0	0	0	0	1	0	0	2	0
OTU 45	74	53	21	14	42	54	63	31	35	86	216	41	101	70	40	6	195	100	31	18	9	226	10	141	87	107	43	0	3	5	12	106	29	106	74	10	22	35	29	18	98	30	17	33	43	27	50	4	73	6
OTU 46	5	16	4	19	6	592	4	26	55	11	36	32	49	54	1	179	37	120	22	229	68	20	29	22	157	2	17	7	40	19	17	28	30	25	96	5	95	88	6	28	39	21	33	24	18	23	27	11	36	2178
OTU 47	18	0	0	14	0	0	2	31	0	0	0	0	0	0	48	8	0	0	0	0	4	1	0	57	0	0	1	0	0	6	0	7	1	0	2	0	0	0	0	27	76	0	81	0	0	32	154	9	0	0
OTU 48	30	75	30	7	118	22	21	75	208	7	38	876	34	13	48	54	96	4	461	31	50	179	94	32	64	10	581	473	186	42	4	19	70	69	1	10	18	21	21	21	21	28	20	21	32	3	9	426	0	39
OTU 49	0	35	46	5	0	32	3	29	1	22	53	0	18	0	72	0	5	4	2	35	0	32	0	1	0	1	5	1	51	9	25	1	58	21	0	0	1	5	12	30	1	72	11	2	7	0	0	14	22	1
OTU 50	0	81	82	2	21	118	12	173	24	1338	10	24	89	21	2387	16	16	45	1	6	48	49	12	5	28	41	15	1	10	111	0	17	34	18	75	0	3	39	91	20	205	181	26	15	41	14	147	4	55	30
OTU 51	6	1	112	21	17	138	8	20	2	4	55	54	1	1	14	2	29	0	78	90	7	0	0	14	48	6	0	0	2	11	24	1	13	0	54	0	35	74	6	69	0	62	5	1	0	0	2	11	216	24
OTU 52	64	53	204	9	183	60	8	228	35	1	225	86	2	28	108	12	38	242	17	14	86	205	16	96	194	17	40	18	713	5	53	860	53	58	63	18	10	51	50	32	56	12	21	14	5	33	25	40	221	3
OTU 53	0	0	0	0	1	0	0	0	0	0	0	0	5	0	0	0	0	0	0	4	0	0	0	0	0	0	0	0	0	0	1	0	0	0	0	0	0	0	0	0	0	0	2	1	0	0	0	0	0	0
OTU 54	21	25	8	38	38	22	16	18	8	62	146	70	192	49	81	177	19	90	24	19	64	250	7	65	46	184	73	10	75	117	2	0	55	14	114	28	12	52	115	68	184	64	31	67	111	81	53	7	158	69
OTU 55	0	0	0	0	0	0	0	0	0	0	0	0	0	0	0	0	0	0	0	0	0	0	0	0	1	0	0	0	17	0	0	0	0	0	0	0	0	0	0	0	0	0	0	0	0	0	0	0	0	2
OTU 56	1	95	20	4	3	5	3	17	14	9	0	0	0	24	3	38	119	0	1	1	6	0	4	0	43	48	48	6	0	1	0	0	0	2	28	0	1	18	19	7	11	37	0	0	0	12	39	1	73	10
OTU 57	113	30	81	80	452	608	20	118	70	29	94	185	200	131	3	95	22	124	78	9	3	216	34	174	116	48	182	208	174	127	187	122	9	173	472	29	15	158	204	139	283	46	1996	8	97	208	323	280	84	65
OTU 58	2	1	21	1	4	28	0	0	22	0	0	12	8	5	0	3	4	8	0	3	3	17	6	0	1	0	132	0	21	1	2	12	0	1	0	0	0	12	0	0	61	20	31	0	1	73	70	10	45	0
OTU 59	10	72	85	0	85	8	28	0	11	9	85	44	43	57	16	31	280	22	17	189	0	7	6	54	5	14	0	0	14	12	29	1	22	6	62	0	112	44	25	1	0	55	51	0	25	41	60	20	15	0
OTU 60	2	36	1323	94	55	44	27	369	44	356	22	16	2	63	967	20	82	84	3	182	44	374	21	49	705	11	619	14	404	48	3	9	84	53	183	4	1975	37	130	169	1351	96	53	2	0	38	156	29	130	21
OTU 61	18	255	11	1	609	32	35	40	214	49	198	34	4	19	15	51	44	26	26	293	5	97	106	105	14	0	33	0	121	15	100	0	24	83	36	0	102	29	650	7	208	34	5	0	3	31	32	6	4	133
OTU 62	1	0	0	0	8	6	13	0	3	0	4	0	0	1	2	8	0	4	0	0	2	0	2	0	3	9	0	0	7	2	0	0	0	0	13	9	597	6	0	3	1	0	0	34	0	36	1	10	0	0
OTU 63	36	96	0	18	76	79	27	2	20	3	81	98	44	48	0	658	58	0	28	1	23	0	11	76	28	208	1	67	0	0	45	13	3	287	260	74	0	67	70	25	7	0	0	135	15	35	12	23	73	11
OTU 64	84	30	17	15	31	14	17	47	86	43	856	145	12	77	6	17	14	107	69	51	35	38	37	238	69	46	14	10	81	33	17	13	76	79	47	10	60	65	74	21	143	13	12	23	18	145	37	63	47	20
OTU 65	0	0	0	0	0	0	0	1	0	1	4	0	0	0	0	0	0	0	0	0	0	0	0	0	0	0	0	0	0	0	0	0	0	0	59	0	0	20	0	0	0	48	0	0	0	0	0	4	0	0
OTU 66	8	30	10	11	7	52	19	107	260	1	2	5	0	79	30	7	333	146	0	140	79	26	144	20	29	44	7	13	20	8	8	4	32	21	62	0	41	22	56	24	32	79	42	10	0	1	52	1	2	1
OTU 67	11	94	0	31	6	1	0	24	46	37	54	0	55	17	1	28	2	43	0	213	6	91	26	3	25	3	7	11	60	26	8	1	254	4	3	14	191	1	2	52	12	113	3	14	17	7	19	0	87	16
OTU 68	16	28	56	16	1009	0	11	118	66	5	70	0	50	0	21	15	56	0	0	5	120	0	30	23	80	172	0	0	9	42	0	33	58	52	5	51	0	10	1	68	53	7	45	35	30	102	99	0	0	0
OTU 69	30	14	33	50	14	45	13	67	0	2	4	4	4	58	17	26	33	87	2	16	62	12	0	34	22	6	20	23	2	71	63	1	24	28	0	3	9	0	4	88	47	5	99	3	5	10	18	1	3	29
OTU 70	71	28	0	4	0	16	0	9	42	4	5	10	6	0	0	20	0	193	1	10	0	0	13	12	47	6	11	3	1	55	0	6	0	0	5	1	0	0	32	10	0	35	0	0	0	0	3	11	5	0
OTU 71	7	0	5	0	5	61	3	4	124	5	5	0	0	39	2	12	14	5	3	15	8	0	47	18	0	2	0	0	0	31	0	31	1	20	1	0	10	2	0	1	5	0	0	6	0	2	57	0	0	6
OTU 72	92	11	11	1	1	747	7	130	91	5	162	0	1	19	6	86	25	109	1	58	9	0	44	103	26	2	70	49	136	9	87	40	34	3	24	0	52	14	31	2	45	10	24	1	0	25	25	86	5	11
OTU 73	6	169	35	5	4	60	11	34	34	2	5	4	44	30	99	74	136	20	377	37	0	1	18	31	60	99	143	9	11	11	6	10	5	193	60	7	39	9	41	13	69	0	19	44	12	0	9	5	29	5
OTU 74	7	1	38	3	3	4	225	30	152	3	11	4	19	496	11	116	0	317	0	151	24	21	72	5	16	70	1	0	9	95	6	1	71	14	38	5	46	50	33	4	18	11	13	48	42	6	77	7	42	0
OTU 75	30	3	96	24	29	7	47	95	24	19	104	12	73	39	6	11	92	186	1	9	66	11	18	115	164	429	18	24	11	10	82	17	1	1011	238	99	39	128	170	24	113	326	1	155	28	223	33	17	23	37
OTU 76	85	13	41	2	13	220	1	0	1	2	1	0	4	0	21	0	1	0	0	13	12	0	0	123	3	17	0	13	16	0	91	0	40	1	167	1	1	170	105	4	17	4	3	0	0	61	4	0	1	2
OTU 77	102	64	17	1	44	3	22	47	16	20	4	42	43	101	77	63	23	14	16	22	25	0	7	74	15	0	5	25	9	19	3	7	60	9	54	1	115	17	24	10	7	161	3	0	25	7	0	59	57	9
OTU 78	21	52	74	7	22	63	12	99	2	4	95	0	3	7	1	52	15	67	0	17	8	4	3	90	12	46	24	0	24	32	11	4	95	65	1	9	21	19	16	11	62	6	1	26	0	29	31	0	4	75
OTU 79	142	140	96	51	307	231	6	177	220	43	1002	222	170	6	17	147	267	165	84	84	336	84	106	415	468	219	2041	156	253	710	186	195	30	530	381	47	1751	162	167	81	218	418	320	41	103	409	151	168	119	81
OTU 80	4	61	7	22	6	32	158	67	2	14	63	6	11	163	108	89	31	143	416	103	7	112	1	2	70	23	33	6	18	37	93	32	118	84	15	28	28	805	9	11	13	84	1	11	3	145	122	21	4	8
OTU 81	7	43	29	9	57	23	36	210	291	19	136	49	585	29	26	11	51	148	21	53	97	3	149	27	67	0	17	155	3	2191	59	67	15	17	9	2	25	3	13	22	34	11	86	0	267	23	23	36	1877	42
OTU 82	920	0	3	24	36	11	179	12	0	5	158	13	0	163	1	58	13	104	4	14	115	42	0	1898	42	160	13	9	0	3	2	11	14	118	20	32	5	1	2	71	138	29	3	75	0	56	151	3947	185	13
OTU 83	0	0	0	3	3	2	0	1	0	0	0	3	0	0	8	0	53	0	3	145	71	12	0	0	1	4	3	0	0	10	9	30	0	59	1	4	38	3	0	6	2	1	5	8	0	1	0	0	0	6
OTU 84	0	95	84	18	0	1	19	16	0	25	9	0	5	9	0	130	0	1	0	0	6	53	0	1	3	1	19	14	0	22	1	6	2	23	148	0	6	16	33	20	39	69	15	3	13	11	0	6	35	2
OTU 85	0	2	1	21	1	0	11	0	80	0	104	0	0	0	4	27	1	0	0	0	0	0	47	1	0	0	0	29	33	0	0	9	0	5	1	809	0	9	0	9	3	29	24	1645	0	75	13	0	26	5
OTU 86	0	0	0	0	0	0	0	0	0	0	25	0	1	1	0	0	0	1	0	47	2	18	0	0	0	0	20	6	0	2	0	0	0	52	1	0	13	1	0	0	0	0	0	0	0	1	0	0	9	0
OTU 87	4	112	0	0	75	0	38	3	0	0	6	15	0	90	4	24	0	66	3	19	0	0	0	0	2	0	0	11	1479	0	0	0	10	3	6	0	2	1	0	0	0	11	44	1	0	1	0	0	29	0
OTU 88	0	0	0	1	0	0	0	7	65	0	0	0	0	4	1	2	0	4	0	45	0	0	19	2	22	1	1	0	10	0	0	0	17	0	0	0	14	0	11	0	0	0	1	7	0	0	0	0	580	0
OTU 89	0	4	53	5	17	0	117	2	16	28	71	0	0	368	0	50	100	256	0	2	28	81	8	2	0	8	1	0	6	0	0	2	0	7	8	4	0	1	4	8	8	19	13	4	0	0	0	0	33	9
OTU 90	0	0	26	0	30	0	0	8	0	6	1	0	4	1	0	3	0	19	0	0	0	6	0	0	6	2	0	0	0	0	0	0	47	0	0	1	0	0	0	0	61	0	0	3	5	0	0	0	1	1
OTU 91	1	0	0	0	10	5	2	0	0	3	0	0	0	1	0	0	44	0	0	0	0	3	0	0	0	0	0	0	0	4	16	0	1	0	46	0	0	32	0	0	92	0	5	0	0	4	13	0	0	0
OTU 92	0	5	9	0	55	0	46	1	10	0	33	21	0	29	5	0	0	71	13	0	0	5	4	5	0	5	1	0	4	0	0	32	7	0	59	1	0	24	41	1	1	0	6	10	1	2	0	5	1	26
OTU 93	0	0	18	0	0	0	6	0	0	1	0	1	0	1	0	0	0	0	0	0	0	0	0	0	0	1	0	0	0	0	0	0	3	0	13	0	0	0	0	0	0	0	0	0	0	12	0	0	0	0
OTU 94	17	25	29	8	2	3	50	0	163	22	103	17	69	51	26	145	127	7	12	156	26	11	81	4	24	7	108	46	6	8	58	84	11	119	19	0	131	32	8	4	30	114	42	1	33	13	40	16	2	1
OTU 95	8	0	4	15	2	114	0	761	3	0	0	39	10	1	5	34	3	1	11	0	4	115	2	40	72	30	0	0	0	345	19	0	66	86	76	2	9	8	38	42	115	3	0	12	4	7	79	14	1	0
OTU 96	0	0	0	0	0	0	0	1	0	0	0	0	45	50	0	0	0	133	0	0	0	0	0	0	5	0	0	0	0	0	0	0	0	0	0	0	0	1	0	0	19	1	0	0	26	0	0	0	40	0
OTU 97	0	0	0	0	0	1	0	0	0	0	0	1	0	1	6	0	4	0	0	12	1	0	0	0	6	0	0	0	0	0	0	1	0	5	5	0	0	0	5	0	0	0	0	0	0	39	2	0	40	0
OTU 98	3	0	0	24	0	1	4	29	20	3	0	44	3	14	0	0	0	0	10	4	12	7	6	6	9	0	1	8	0	4	0	37	111	0	0	8	0	2	0	63	13	8	16	0	0	0	2	1	15	0
OTU 99	0	62	41	5	62	26	23	385	127	0	256	17	12	29	3	341	10	19	0	46	39	1719	74	2	97	36	18	9	41	113	22	10	1	3	22	29	18	27	61	13	72	85	35	14	7	4	1	1	11	1
OTU 100	2	41	16	0	24	41	0	58	12	4	19	12	40	53	26	1	13	9	11	6	0	27	3	12	13	45	1	9	15	9	2	0	14	46	76	10	1	21	11	0	31	0	0	78	13	17	32	48	0	2
OTU 101	0	0	0	4	0	0	0	0	0	0	8	24	3	0	1	17	0	11	10	0	0	0	0	5	23	17	0	0	5	2	0	0	0	0	0	0	0	5	1	3	0	0	4	3	0	0	0	6	4	0
OTU 102	1	0	0	0	11	12	2	24	73	2	0	0	0	1	0	0	110	0	3819	14	0	1	38	0	10	0	0	0	20	32	0	37	34	54	0	0	7	0	1	0	64	0	2	2	0	3	0	0	0	1
OTU 103	4	123	0	0	5	1	1	3	3	11	1	8	14	1	2	5	1	0	5	8	4	0	3	7	162	49	6	4	3	14	15	1	3	18	18	17	0	35	8	0	78	1624	209	1	5	1	54	0	0	11
OTU 104	142	22	8	10	49	74	2	108	27	20	1	73	17	39	16	133	215	85	38	146	41	31	15	179	188	1	74	53	198	205	25	7	15	57	137	255	50	46	72	32	114	7	66	566	23	163	5	44	60	71
OTU 105	0	8	6	2	0	1	0	0	25	1	0	0	0	0	0	10	0	0	0	5	5	0	10	0	1	5	0	0	1	0	3	1	0	35	1	0	0	0	0	1	1	0	0	0	1	3	0	2	5	0
OTU 106	0	34	24	0	1610	9	28	4	50	0	27	92	0	73	7	5	0	0	38	0	0	0	32	9	3	131	0	0	0	3	3	1	16	0	0	63	9	5	6	1	0	4	0	18	0	0	0	27	1	0
OTU 107	0	5	53	10	15	0	0	1	270	13	0	8	2	49	32	8	3	30	9	0	8	42	138	0	260	6	109	1	0	82	0	20	7	0	0	0	0	0	0	10	0	13	29	4	6	14	0	0	0	10
OTU 108	7	59	32	27	24	0	2	55	0	0	63	0	0	7	0	1	292	7	1	4	31	5	0	19	0	3	8	1	26	48	20	10	13	57	0	7	0	11	21	49	0	0	4	0	0	1	13	14	7	7
OTU 109	0	0	0	0	0	0	0	0	0	0	0	0	0	0	0	0	0	0	0	0	0	0	0	0	0	0	0	0	0	0	0	7	6	0	0	0	0	0	0	0	0	0	0	0	0	0	0	0	0	0
OTU 110	9	103	34	3	30	178	64	16	93	4	2	0	57	33	0	8	13	11	0	2	26	152	56	11	4	3	54	0	67	17	15	31	8	36	7	1	0	13	5	24	9	3	51	9	41	202	3	23	7	9
OTU 111	0	9	0	0	0	6	0	0	9	0	0	2	1	0	0	12	0	48	3	2	1	0	5	0	0	3	0	0	0	0	0	0	3	9	4	0	0	0	7	1	0	0	9	0	0	0	0	2	0	0
OTU 112	0	0	2	0	28	1	1	4	0	44	3	0	0	11	62	10	9	48	0	3	0	0	0	0	0	0	1	50	8	0	2	37	0	2	35	2	2	1	58	7	0	0	0	5	0	30	0	0	0	4
OTU 113	0	0	16	0	1	5	0	0	2	0	11	0	1	3	0	9	0	0	2	36	0	0	1	0	0	0	0	0	0	0	0	1	6	27	0	0	0	0	0	0	0	3	0	1	3	0	0	0	1	0
OTU 114	53	25	42	7	68	41	8	24	442	97	269	11	53	66	1	13	833	56	8	196	267	43	227	33	42	77	47	8	156	57	1587	17	18	26	24	3	44	13	8	11	173	127	25	2	56	24	2	25	48	1107
OTU 115	21	5	1724	18	59	56	62	217	0	674	36	104	36	31	1264	48	145	14	43	93	108	113	0	42	133	41	521	8	47	5	183	22	26	111	17	0	15	14	3	7	79	0	25	15	15	26	0	24	19	2
OTU 116	369	39	0	2	0	144	0	70	281	24	33	94	36	3	14	7	37	190	39	147	16	43	144	3	119	14	87	9	34	41	2	1	12	138	8	0	120	8	11	7	136	123	7	3	5	97	8	10	37	1
OTU 117	9	2	170	34	17	119	0	71	106	121	40	17	2	18	19	18	79	0	3	10	68	109	56	5	50	321	2	16	76	3	33	18	1	26	6	88	47	6	11	18	0	50	26	157	2	51	29	16	10	12
OTU 118	1	0	0	0	0	34	0	2	18	1	0	7	0	0	0	1	1	0	0	0	2	0	12	1	0	0	0	11	0	1	13	0	0	0	0	1	5	10	5	1	0	0	4	8	0	0	55	2	41	19
OTU 119	7	1	52	93	11	59	70	24	209	6	17	1	224	60	46	84	28	376	7	28	47	49	237	30	58	22	82	51	55	20	39	66	30	6	17	7	1	2	31	266	17	83	7	30	92	34	1	25	22	4
OTU 120	10	11	0	0	29	1	21	0	53	0	119	60	7	12	0	0	2	0	32	0	0	2	32	13	48	0	1	0	3	1	0	2	0	2	0	4	13	1	10	7	2	0	5	7	2	11	0	52	51	0
OTU 121	0	34	0	0	0	12	0	23	1	29	106	7	0	56	48	12	1	0	4	3	39	27	0	4	7	55	9	6	0	0	31	13	5	41	30	3	1	2	27	10	41	35	7	5	0	42	18	0	15	0
OTU 122	48	148	10	0	130	21	1335	154	17	5	26	31	2	1081	8	30	11	25	21	0	12	155	4	34	409	27	1	0	46	11	0	1	14	4	248	0	2	66	32	0	98	16	40	9	3	0	0	16	19	0
OTU 123	102	124	245	176	38	320	33	125	398	24	165	153	152	80	12	3	475	96	92	200	79	346	214	156	101	53	184	68	109	63	115	317	288	47	220	42	39	119	42	279	217	203	78	66	66	499	168	128	226	147
OTU 124	0	0	0	0	0	0	26	3	5	0	30	0	6	0	5	10	0	67	0	3	0	1	3	11	13	0	0	0	2	1	5	4	3	19	0	0	0	0	0	0	16	43	3	2	24	0	0	2	7	1
OTU 125	65	306	99	67	74	167	74	31	60	19	293	7	308	98	41	86	264	63	5	631	1414	310	24	102	113	26	17	359	120	58	54	389	40	41	69	19	164	20	80	118	247	397	158	41	126	56	23	35	906	37
OTU 126	0	0	0	0	0	0	8	0	18	15	2	7	0	64	0	0	0	2	0	0	11	0	7	0	0	30	0	0	0	0	0	0	0	0	0	21	0	10	0	0	20	97	39	6	0	0	0	1	0	0
OTU 127	24	20	29	0	1	3	4	58	13	0	31	0	0	9	0	3	118	0	0	14	68	14	6	112	5	27	16	0	13	12	8	6	4	0	22	5	2	3	0	10	36	2	2	8	25	5	1	13	3	19
OTU 128	109	302	134	89	65	241	104	60	157	91	296	100	64	265	388	714	120	704	25	38	59	80	73	158	126	66	44	60	76	110	124	26	671	127	156	11	44	119	543	261	220	120	45	47	19	75	210	19	156	42
OTU 129	0	0	0	2	0	7	0	47	0	0	0	0	6	0	0	334	0	9	0	0	0	7	0	0	0	58	0	10	0	22	0	1	0	299	0	18	1	0	0	12	0	0	0	4	0	0	0	0	3	0
OTU 130	1	29	17	0	3	13	0	69	45	10	59	388	19	0	36	106	109	12	124	17	12	18	20	5	2	11	34	15	4	76	130	0	37	0	13	4	18	7	6	0	21	204	93	13	12	1	22	166	26	99
OTU 131	11	46	6	14	20	38	0	276	133	18	1	57	0	1	29	53	29	8	23	9	0	0	77	11	140	113	11	11	14	215	50	3	0	32	42	31	62	71	13	93	56	0	0	53	0	0	4	62	1	53
OTU 132	0	12	16	23	8	1	36	2	73	7	17	31	46	2	0	0	0	0	0	0	91	0	39	0	19	0	3	0	0	13	7	0	2	2	38	0	0	15	7	45	0	119	31	0	23	30	20	7	1	7
OTU 133	1	0	0	0	0	1	0	1	0	0	0	0	0	0	0	5	0	0	6	0	0	0	0	0	0	0	39	0	1	0	6	0	6	2	0	0	0	0	0	0	0	0	0	0	0	11	0	0	0	0
OTU 134	5	28	41	0	0	10	20	28	36	11	275	30	15	34	0	6	14	1	37	141	56	7	18	16	0	144	51	28	26	40	34	27	14	29	7	17	21	0	1	5	125	138	44	19	14	2	23	52	4	0
OTU 135	10	6	50	30	27	8	18	26	225	39	105	14	1	37	24	9	11	42	2	32	2	5	133	21	0	39	40	7	1	14	53	10	0	6	14	19	80	2	19	103	50	10	22	24	0	82	128	1	26	7
OTU 136	1	0	0	1	27	8	1	13	29	3	113	136	38	31	4	34	159	1	101	359	29	1	14	0	3	0	0	0	15	0	97	2	207	61	116	1	161	39	58	2	29	0	1	11	15	0	1	69	4	10
OTU 137	0	21	24	13	0	36	0	0	18	0	0	12	52	1	39	0	4	6	7	6	0	0	14	0	2	38	8	1	0	2	13	4	86	11	5	9	0	0	1	12	13	0	2	44	34	101	0	17	505	5
OTU 138	0	2	69	0	1	0	50	3	38	0	11	0	1	0	1	2	0	0	0	0	5	0	10	0	12	47	20	0	20	18	1	0	1	32	0	3	21	0	0	0	9	1	1	8	0	8	43	0	3	0
OTU 139	107	36	30	379	182	238	6	150	93	100	36	79	76	13	14	23	18	14	77	15	39	394	38	103	96	18	7	54	76	85	68	2564	4	18	182	2	10	86	56	582	62	22	27	10	55	17	1580	14	67	26
OTU 140	16	104	290	50	43	71	2202	185	258	507	154	32	27	30	43	285	301	87	6	159	17	113	3979	84	112	173	93	49	27	89	75	10	3290	76	247	25	84	54	1572	101	25	292	16	44	23	337	130	18	55	864
OTU 141	0	0	0	0	0	0	16	0	0	0	0	0	0	0	0	0	0	0	0	0	0	0	0	0	0	0	0	0	0	0	0	0	0	0	0	0	0	0	0	0	0	0	0	0	0	0	0	0	0	0
OTU 142	4	0	0	0	0	7	0	0	0	0	0	0	0	0	0	0	0	0	0	0	0	9	0	1	0	0	0	0	0	0	1	2	7	0	0	0	0	0	0	0	9	0	0	0	0	0	0	0	46	0
OTU 143	0	0	15	0	1	0	0	1	6	0	3	0	11	0	10	12	0	28	2	62	0	0	3	0	7	0	0	0	1	10	0	0	0	0	9	0	47	0	0	5	1	3	0	0	0	80	0	0	0	0
OTU 144	10	23	0	0	5	0	4	0	0	5	7	1	0	8	1	38	0	0	0	0	0	0	0	0	0	0	0	0	26	15	2	2	0	3	0	2	0	0	5	1	0	0	0	0	0	0	0	1	19	0
OTU 145	37	617	55	1	29	32	155	73	45	9	3	24	28	334	1	22	111	614	5	91	1	205	26	1	40	2	13	8	13	0	36	5	46	116	18	4	116	366	1	16	94	1	19	2	13	10	18	2	635	8
OTU 146	30	134	69	56	33	5	15	14	0	2659	0	45	4	2	136	11	10	31	30	53	33	0	0	65	44	62	52	7	2	41	48	13	38	9	5	31	6	7	4	105	85	21	118	69	4	8	119	5	95	40
OTU 147	18	9	49	3	33	23	46	62	64	3	0	3	3	51	26	0	171	0	20	3	259	1	39	1	2	5	2	0	32	131	190	1	26	1	3	0	0	6	0	0	3	18	19	0	0	4	0	1	4	99
OTU 148	7	123	60	37	4	4	12	0	1	0	16	11	19	56	25	3	59	0	15	0	10	6	0	0	20	706	13	33	1	25	0	7	0	1756	17	249	8	0	13	48	9	41	1	640	18	50	37	15	71	17
OTU 149	29	39	0	2	3	0	0	6	0	3	84	25	0	1	117	0	2	30	0	29	0	3	0	23	8	6	0	5	25	1	16	0	0	38	24	0	5	5	1	0	20	2	0	0	0	5	13	0	17	2
OTU 150	0	5	2	4429	6	0	0	1	2	31	29	0	0	11	113	0	18	0	7	1	0	413	0	0	0	2	1	5	0	0	0	1	20	7	0	1	0	2	0	69	48	35	0	0	2	13	114	0	0	1
OTU 151	0	1	0	23	28	22	7	1	11	0	1	0	6	5	65	2	44	39	7	95	29	31	3	1	37	21	0	1	7	3	10	0	0	23	130	35	1	17	20	30	6	1	745	68	1	28	3	9	50	4
OTU 152	18	47	3	17	1	48	9	169	84	3	6	5	6	42	42	110	17	51	0	9	3	2	39	2	150	43	4	17	3	20	0	1	11	51	0	2	10	0	13	75	93	82	28	1	2	14	44	7	17	29
OTU 153	0	1	0	0	0	16	0	0	0	0	0	0	0	0	0	0	0	0	0	0	1	0	0	0	0	0	0	0	0	0	1	0	0	0	6	0	0	0	0	0	11	0	1	0	0	9	1	7	0	13
OTU 154	0	0	0	0	0	0	0	0	5	0	0	0	0	0	16	0	0	0	0	0	0	26	1	1	0	9	1	0	0	0	0	0	5	0	0	8	0	0	0	0	1	0	0	28	0	0	0	0	0	0
OTU 155	3	2	4	63	0	76	1	102	11	0	4	0	1	2	4	13	3	18	0	4	1	0	7	3	3	0	1	16	63	0	60	0	6	8	2	0	24	7	0	66	4	54	2	5	3	26	20	0	9	0
OTU 156	9	57	6	5	2	3	13	43	33	2	49	5	76	19	4	148	133	32	17	1188	16	16	17	68	81	6	19	21	29	39	0	20	31	58	128	1	692	60	121	18	126	160	155	0	50	37	14	4	17	50
OTU 157	0	0	5	0	3	0	26	0	0	0	0	0	0	181	0	0	22	411	0	23	0	16	0	0	7	0	0	7	1	0	16	0	0	0	38	3	36	6	0	1	0	16	0	15	0	0	0	0	0	1
OTU 158	0	35	11	0	0	0	0	1	0	0	0	0	1	0	0	0	1	0	3	0	0	1	0	10	3	0	0	0	0	0	2	0	0	0	0	0	0	0	0	0	39	0	0	0	2	0	0	0	12	0
OTU 159	6	95	8	2	5	0	406	4	5	0	8	33	19	852	23	3	2	0	1	1	3	26	3	9	205	1	4	1	145	4	0	9	21	12	11	2	0	15	19	1	115	28	14	1	11	22	46	18	4	4
OTU 160	56	305	22	20	153	62	35	85	146	16	60	100	2	90	71	0	13	65	57	117	24	206	66	69	162	2	62	48	132	102	68	37	73	276	325	19	18	681	80	62	121	26	48	23	5	188	260	40	12	6
OTU 161	528	52	14	0	60	0	70	2	59	34	79	47	14	110	8	9	90	38	43	64	0	20	29	1052	1	27	2	0	0	23	37	8	31	3	66	0	8	72	0	4	55	1	0	0	1289	327	0	59	0	8
OTU 162	3271	266	17	12	13	3	12	59	29	5	51	3	5	11	0	43	22	36	1	18	10	37	13	45	27	13	5	20	41	0	2	6	67	77	4	45	1	2	37	32	10	29	41	47	9	43	46	32	77	1
OTU 163	1	0	0	0	0	0	0	0	0	0	0	0	0	0	0	0	0	11	0	0	0	0	0	0	12	88	0	0	1	0	0	0	0	0	0	3	0	0	0	0	0	0	0	26	0	0	0	0	0	0
OTU 164	0	0	4	0	77	1	0	160	0	0	42	0	0	0	0	0	0	0	0	0	0	0	0	0	0	0	0	12	0	12	0	0	0	0	0	2	0	0	5	0	0	0	0	0	0	0	1	0	10	0
OTU 165	6	0	0	2	19	34	11	26	37	0	6	0	10	0	0	8	40	3	0	0	0	0	25	16	0	11	10	0	5	11	15	24	3	14	1	0	2	4	1	0	0	4	20	9	2	0	46	3	11	9
OTU 166	0	5	0	0	0	0	0	0	0	0	0	6	0	0	13	0	13	0	0	1	0	0	0	3	0	9	0	0	0	0	0	0	0	0	0	0	0	0	0	0	0	0	0	0	0	0	0	13	0	7
OTU 167	2	42	187	145	1	0	1	155	124	0	4	64	0	4	44	88	10	0	38	84	37	31	62	2	94	3	144	2	140	6	9	2	80	90	12	1	54	7	9	0	13	70	0	0	0	57	13	8	8	0
OTU 168	26	0	0	13	48	10	36	63	5	42	9	39	35	39	2	1	0	65	15	2	9	76	3	37	20	25	14	0	60	6	6	2	22	15	0	7	2	0	25	33	25	66	7	3	10	28	35	21	6	19
OTU 169	5	0	0	0	0	0	0	1	0	0	0	0	0	0	0	1	0	0	0	0	0	0	0	29	0	10	0	0	1	0	0	0	0	0	0	1	2	0	4	0	0	0	0	0	0	0	3	0	0	0
OTU 170	0	0	0	2	0	0	0	0	0	28	0	0	0	0	0	0	0	0	0	0	0	0	0	0	0	0	0	0	0	15	6	1	0	1	0	0	0	0	0	0	11	0	0	3	0	0	0	0	0	0
OTU 171	117	92	181	21	139	533	7	3	67	7	164	39	17	1	23	5	41	8	10	67	1	3	30	122	169	0	33	0	0	0	173	1	11	1	584	15	96	265	417	0	6	78	3	14	6	13	0	10	80	14
OTU 172	17	0	0	0	16	9	0	269	0	0	40	7	1	0	0	0	0	0	0	0	0	0	0	11	0	0	0	0	22	79	0	0	0	0	0	0	4	0	0	0	1	0	0	0	0	0	0	0	0	0
OTU 173	0	110	0	0	6	69	0	0	89	2	0	13	0	0	0	20	40	9	11	17	0	25	44	1	0	0	0	0	2	2	0	0	6	0	42	9	0	0	0	0	0	88	5	0	0	1	14	8	1	62
OTU 174	1	41	1	14	6	3	48	0	6	31	37	5	0	13	2	77	32	72	5	52	5	16	3	3	24	28	0	51	26	0	1528	3	3	17	13	2	28	3	27	20	17	0	17	9	2	22	16	5	102	884
OTU 175	21	27	38	1	1	5	3	3	11	39	8	7	5	36	41	6	90	1	24	0	3	15	4	39	1	16	4	1	0	26	0	20	5	1	0	39	6	21	16	11	0	12	44	63	1	9	20	0	5	9
OTU 176	20	0	87	7	8	3	2	17	23	32	151	13	31	2	197	123	29	45	1	9	0	11	16	5	31	46	28	3	20	32	30	15	4	29	0	0	41	43	4	12	21	126	51	13	26	45	9	15	11	54
OTU 177	988	223	23	4	215	100	43	16	83	40	9	64	1	28	65	38	92	97	79	8	61	44	43	83	8	7	6	7	100	1	40	47	10	55	232	0	8	137	246	17	58	29	1	4	0	26	51	13	97	24
OTU 178	66	0	1	21	1	13	2	5	0	0	0	15	2	19	1	62	25	22	15	1	36	0	0	57	4	16	0	3	48	0	2	2	0	0	8	0	2	0	0	13	8	144	1	6	1	4	22	3	1	20
OTU 179	1	10	38	9	2	0	23	490	211	22	1	4	5	0	14	137	94	16	0	1	17	31	118	0	3	1	1	1	0	324	7	14	60	12	20	1	0	11	42	3	9	27	0	16	3	4	0	29	84	45
OTU 180	31	199	83	10	712	49	35	128	294	66	49	832	111	21	65	198	261	19	531	669	61	473	133	69	213	91	63	92	58	65	876	70	222	63	97	323	212	8	7	5	62	122	46	78	53	239	18	341	91	284
OTU 181	3	25	31	34	0	37	24	25	3	0	19	23	17	50	65	2	27	109	20	0	0	5	2	0	38	92	2	5	0	0	0	1	0	49	30	10	1	68	18	43	61	42	107	11	6	4	0	2	6	0
OTU 182	0	0	10	0	0	0	1	0	0	1	0	0	0	0	0	0	0	0	0	0	0	0	0	0	0	9	0	0	0	0	0	2	0	0	5	0	0	0	0	0	0	0	1	0	0	0	15	0	0	0
OTU 183	12	22	1	1	0	5	7	0	2	1	26	0	0	65	0	215	28	0	1	0	21	20	0	7	99	170	2	44	49	0	4	1	1	96	1	18	1	0	4	14	1	1	14	66	0	0	5	15	7	2
OTU 184	0	2	6	0	2	1	1	9	2	21	49	0	0	39	37	31	0	0	1	1	3	9	0	2	1	3	17	3	1	56	3	2	0	3	17	2	2	12	0	3	6	2	47	4	0	0	19	0	13	6
OTU 185	21	12	37	1	19	78	1	15	116	46	1	7	31	25	42	8	18	43	0	15	133	36	61	64	161	26	1	8	13	13	27	79	81	47	76	21	30	11	71	2	84	15	7	4	26	8	37	27	32	0
OTU 186	0	0	0	11	0	125	0	1	1	4	12	0	247	0	2	0	4	1	0	0	0	3	1	0	231	24	11	71	208	0	0	19	1	91	4	1	0	4	29	8	381	0	54	2	149	0	1	25	2	0
OTU 187	20	744	1	45	46	4	25	91	64	11	83	2704	2393	35	11	13	140	0	1246	18	66	6	22	19	21	219	7	440	8	47	21	469	27	61	28	26	12	5	21	16	35	34	414	70	1095	45	14	1336	118	35
OTU 188	58	6	49	39	15	9	15	40	173	26	99	3	26	6	1	74	69	175	5	7	15	43	93	43	25	78	22	27	4	38	44	16	130	8	27	6	13	3	10	74	2	19	6	10	19	168	94	0	0	6
OTU 189	29	24	79	4	61	77	23	1	65	79	50	36	4	70	45	27	27	37	35	114	6	17	968	114	57	45	39	1156	140	59	7	6	4	19	69	43	25	18	70	8	50	188	0	72	3	66	18	3	32	24
OTU 190	0	7	0	0	3	0	36	0	0	0	0	89	1	39	0	0	0	159	34	0	20	38	0	0	0	8	0	0	0	0	17	0	0	17	0	0	0	0	0	0	0	18	0	0	0	0	0	10	0	42
OTU 191	30	10	5	2	18	19	8	50	53	0	49	19	98	62	13	15	15	17	14	152	2	64	21	34	34	54	1	23	27	3	8	22	24	58	19	30	88	14	3	24	6	327	186	72	46	33	171	2	5	59
OTU 192	5	134	33	204	133	51	99	516	6	9	17	6	36	231	32	32	95	69	5	13	2	21	1	5	343	86	633	17	65	109	32	6	5	22	75	6	8	6	32	33	470	362	18	22	29	77	13	7	27	8
OTU 193	3	62	38	1	6	103	145	15	20	0	35	267	16	40	3	1	535	74	136	10	138	48	9	33	4	18	9	1	24	0	318	3	50	4	12	648	13	44	39	8	7	63	15	16	16	27	99	295	6	223
OTU 194	3	28	0	1	161	108	1	38	65	985	0	0	0	3	2	105	0	3	0	5	3	68	31	6	1	55	50	0	3	0	890	0	770	17	13	6	0	123	8	6	56	19	72	50	2	0	1	0	13	261
OTU 195	2	6	7	1	0	43	81	8	1	8	19	2	7	31	11	2	3	69	1	77	143	136	0	0	0	6	83	27	47	73	13	0	0	26	17	0	13	5	6	5	49	1	51	0	1	45	69	10	5	15
OTU 196	3	10	46	0	49	2	3	22	4	43	250	15	58	3	40	3	10	2	7	6	4	0	1	55	67	0	3	5	8	77	0	12	2	29	114	4	4	82	67	1	0	19	0	14	34	4	15	37	4	4
OTU 197	126	241	207	9	263	97	65	26	58	8	80	222	67	52	80	189	100	102	133	141	204	121	32	203	86	119	87	1757	162	32	45	51	120	7	492	49	81	302	178	11	182	103	123	66	24	36	53	34	15	106
OTU 198	0	1	14	0	41	0	0	0	12	0	0	19	0	38	0	227	87	38	18	0	2	0	7	3	0	80	0	0	0	25	0	0	5	3	0	22	0	0	5	2	63	0	1	39	0	13	124	0	0	1
OTU 199	0	0	63	0	1	69	38	0	108	1	0	0	9	31	27	10	2	64	0	2	2	11	44	0	9	0	86	1	33	3	16	1	0	1	0	0	6	5	3	0	20	0	11	0	4	0	129	56	0	27
OTU 200	10	46	7	1	2	35	20	4	13	73	177	126	14	5	26	5	22	80	17	27	15	67	5	43	51	1	5	1	23	2	22	31	55	12	21	5	10	24	41	2	173	8	76	3	7	13	3	121	1	1
