	Host 1	Host 2	Host 3	Host 4	Host 5	Host 6	Host 7	Host 8	Host 9	Host 10	Host 11	Host 12	Host 13	Host 14	Host 15	Host 16	Host 17	Host 18	Host 19	Host 20	Host 21	Host 22	Host 23	Host 24	Host 25	Host 26	Host 27	Host 28	Host 29	Host 30	Host 31	Host 32	Host 33	Host 34	Host 35	Host 36	Host 37	Host 38	Host 39	Host 40	Host 41	Host 42	Host 43	Host 44	Host 45	Host 46	Host 47	Host 48	Host 49	Host 50	
OTU 1	87	170	0	356	2	11	2	557	142	2	0	416	14	82	6	0	228	6	162	318	0	238	209	394	8	261	0	212	314	0	159	461	266	7	0	0	128	333	538	214	373	205	1	37	318	1	142	190	0	120
OTU 2	0	10	6	12	0	99	0	0	0	1	1	7	0	8	9	81	4	0	1	0	2	0	1	1	0	5	21	0	35	4	0	1	10	0	2	1	3	0	0	14	2	0	3	0	24	1	24	11	0	0
OTU 3	5	1	10	0	1	3	6	1	32	0	2	6	0	0	2	0	3	0	3	1	0	1	10	0	1	0	3	0	39	0	2	3	0	61	0	4	0	13	0	0	0	0	2	1	0	68	0	0	0	3
OTU 4	0	0	0	0	0	0	0	0	0	0	0	0	0	0	0	0	0	0	0	0	0	0	0	0	0	0	0	0	0	0	0	0	0	4	0	0	0	0	0	0	0	0	0	0	0	0	0	0	0	0
OTU 5	786	131	579	170	445	1	77	251	106	0	205	188	464	309	1283	1066	1598	0	1167	458	135	527	81	41	0	1201	137	49	201	1804	89	166	67	232	27	668	210	54	127	320	340	38	313	885	244	69	176	336	58	928
OTU 6	16	0	6	15	7	47	20	6	3	52	2	11	29	0	3	20	5	0	0	8	5	1	12	1	37	12	107	7	6	7	30	32	2	126	0	7	0	0	11	0	12	2	90	9	346	36	1	4	0	7
OTU 7	159	19	27	1	157	76	62	20	69	31	128	21	36	57	18	7	15	29	325	14	131	44	22	16	29	6	182	55	627	75	263	2	14	19	31	75	436	287	15	645	29	10	36	303	6	49	321	230	16	5
OTU 8	42	32	19	104	6	43	39	4	11	5	35	91	24	68	40	123	23	2147	21	27	47	126	9	5	116	44	14	16	10	30	44	94	2	62	7	117	4	32	4	42	24	56	102	17	102	4	3	50	13	4
OTU 9	1	13	0	5	0	1	218	12	1	1	20	17	28	0	3	6	7	3	1	1	16	0	4	0	12	18	3	0	1	64	9	2	4	0	13	6	2	38	4	1	13	8	3	0	0	2	11	2	1	2
OTU 10	76	0	0	0	5783	1	8	14	1	111	0	0	1	0	0	7	1	1	340	2	0	23	16	1	1	0	0	6	0	36	173	4	3	0	5	6	0	1	13	599	10	0	0	127	0	1	0	475	0	12
OTU 11	26	12	5	9	15	4	15	67	0	0	6	19	93	9	23	69	17	20	2	23	39	15	9	21	39	17	0	8	9	8	43	6	6	46	10	6	3	68	0	0	43	9	3	4	17	8	0	12	42	3
OTU 12	1	40	4	6	148	2	0	3	87	1	9	5	12	36	14	28	3	39	0	15	24	1	3	3	27	13	19	0	5	2	6	28	0	13	4	31	25	3	1	4	0	11	65	29	3	3	23	3	196	2
OTU 13	0	0	0	3	0	0	0	0	0	0	0	1	1	0	16	1	0	0	0	0	0	6	0	0	0	0	1	0	0	46	0	0	0	0	0	0	0	0	0	0	0	0	0	0	0	2	0	0	10	0
OTU 14	0	6	27	0	5	1	1	0	1	6	6	0	0	4	2	0	0	1	0	2	6	3	4	4	50	0	2	4	18	0	0	0	0	8	3	23	8	28	2	0	5	2	42	39	0	1	25	19	4	2
OTU 15	0	0	0	0	0	4	4	0	0	0	0	0	0	0	0	0	0	6	0	0	0	0	7	0	0	0	16	1	17	0	0	0	0	0	0	58	1	0	0	10	10	0	0	0	0	1	7	1	2	2
OTU 16	0	0	0	0	0	2	1	0	0	0	0	0	0	0	0	0	0	0	0	0	0	0	0	0	31	11	0	0	0	0	0	1	0	0	33	23	0	0	0	0	0	0	7	0	0	0	0	0	0	0
OTU 17	2	0	6	20	0	0	1	2	3	1	4	9	301	0	1	44	0	3	0	5	24	59	14	49	13	58	37	6	4	17	4	18	4	2	7	0	16	2	5	0	0	14	49	0	16	1	11	19	0	7
OTU 18	1	103	2	9	52	25	0	6	36	15	64	2	25	4	0	22	5	32	20	5	13	9	52	48	24	0	14	28	2	56	18	15	13	49	11	30	10	85	104	4	17	23	39	12	29	94	1	1	0	26
OTU 19	0	2	0	0	0	0	0	0	0	0	0	0	0	0	0	0	0	0	0	0	0	0	0	0	0	0	0	0	0	0	0	0	0	6	0	0	0	0	0	0	0	0	0	0	0	0	0	0	0	0
OTU 20	18	13	8	23	51	16	15	26	18	31	23	45	10	3	3	9	23	0	9	6	25	2	6	0	20	36	34	12	47	26	43	61	5	71	6	36	16	8	1	37	0	31	18	14	5	2	20	53	9	4
OTU 21	1	32	13	17	13	39	62	3	15	57	11	18	40	12	23	13	43	6	20	12	0	11	0	1	417	6	25	44	1	7	1	29	16	1	0	20	18	15	44	71	0	0	28	2	0	10	59	1	1	0
OTU 22	13	4	12	1	0	3	1	28	0	10	10	19	128	6	21	0	21	9	0	64	7	63	0	4	6	9	2	11	8	9	37	41	0	4605	1	4	5	35	1	7	1	0	162	300	19	35	5	58	0	0
OTU 23	1	2	35	10	6	0	9	9	3	9	29	5	2	0	48	95	0	0	1	1	5	7	10	18	1	32	3	21	34	2	4	0	5	6	87	74	4	1	13	0	1	8	3	0	0	9	25	49	1	2
OTU 24	0	8	0	5	0	140	0	36	65	4	5	0	0	29	1	0	2	32	2	31	113	14	4	2	20	0	36	5	22	15	0	4	5	18	1	0	0	0	33	10	61	0	0	0	1	14	6	1	1	0
OTU 25	0	0	0	0	0	0	0	0	9	0	0	0	0	0	0	0	0	0	0	0	0	0	0	0	0	0	0	0	0	0	0	0	0	4	0	0	0	0	0	0	11	0	0	0	0	10	0	0	0	0
OTU 26	12	0	0	5	0	39	2	0	0	2	0	74	0	0	0	0	32	0	0	0	3	0	0	0	11	7	0	0	2	0	31	51	0	1	4	4	7	31	0	1	0	5	2	0	0	4	8	0	0	0
OTU 27	0	0	0	0	59	0	0	1	0	0	0	0	0	0	0	0	0	1	0	1	0	2	0	0	0	0	1	0	5	1	0	0	0	0	4	0	0	0	0	4	0	0	0	0	0	0	8	0	0	0
OTU 28	30	9	3	57	16	0	17	1	41	37	19	116	5	49	0	343	40	86	24	14	39	7	134	58	44	16	72	18	23	3	47	68	23	10	55	14	9	9	64	87	1	6	13	7	6	46	17	0	202	75
OTU 29	1	28	13	48	2	16	13	12	2	74	12	10	3	28	27	58	11	31	7	23	211	0	14	11	56	43	16	9	14	46	2	18	5	6	31	52	65	2	17	8	0	0	35	313	0	72	8	17	20	4
OTU 30	0	1	0	1	0	0	0	0	0	0	0	0	0	0	0	0	0	0	0	0	0	0	0	0	0	0	0	0	0	0	0	0	0	0	0	29	0	0	0	5	0	0	0	0	0	0	0	0	0	0
OTU 31	217	2	3	12	0	3	1	16	2	2	0	42	0	9	7	6	24	5	512	2	0	0	0	12	0	23	14	0	2489	0	359	2239	1	2	0	0	999	1158	0	957	26	2	2	174	0	10	1139	468	87	0
OTU 32	11	24	14	6	18	84	48	2	283	75	92	12	16	34	19	90	2	39	47	346	79	15	8	36	51	19	40	15	85	86	14	7	7	23	36	10	16	1	1191	14	18	9	30	4	14	23	46	0	67	3
OTU 33	0	0	0	0	0	0	2	0	0	0	0	0	0	0	0	1	0	37	0	0	4	0	2	0	131	0	0	0	0	0	0	0	0	0	1	0	0	0	2	0	8	0	0	0	0	0	0	0	0	1
OTU 34	2087	30	4	0	8	2	4	10	8	9	38	0	73	1	8	13	9	12	1	0	18	4	6	7	8	22	48	12	9	18	37	43	5	35	4	11	7	1	6	20	4	18	27	4	26	68	12	40	8	1
OTU 35	2	10	0	13	0	4	3	6	0	4	3	6	0	18	9	4	1	0	2	1	43	0	2	38	21	7	14	4	1	2	1	4	0	43	0	0	39	64	37	0	5	1	47	7	14	72	0	0	34	2
OTU 36	5	0	1	3593	5	0	36	27	48	1	113	8	4	16	11	9	9	29	12	3	7	32	8	11	6	1	13	2	23	75	7	0	0	1	2	3	1	1	29	28	2	0	2	33	3	12	15	38	39	2
OTU 37	0	0	5	3	0	0	1	23	24	68	5	0	0	1	23	0	2	0	0	9	12	1	0	0	1	1	1	27	8	1	0	2	9	24	0	14	0	3	26	0	0	1	0	2	0	0	0	0	5	0
OTU 38	40	576	10	663	19	12	22	1393	295	30	85	1469	14	346	24	16	664	1	163	635	5	599	457	676	10	521	9	334	308	0	134	876	365	27	53	0	70	271	408	190	676	195	17	8	849	36	145	132	2	217
OTU 39	0	4	0	0	6	1	5	0	1	0	3129	6	4	0	3	6	9	15	5	0	47	0	0	2	4	0	15	12	9	0	0	4	0	0	0	6	2	1	15	16	0	3	8	7	0	0	0	0	15	0
OTU 40	6	17	4	15	3	35	52	59	71	6	10	2	7	3	1	24	15	7	32	28	35	14	17	15	34	2	220	9	4	15	5	9	3	1	6	16	31	12	1	53	30	1	18	1066	4	25	11	2316	89	9
OTU 41	3	3	2	9	38	19	792	11	5	1	3	0	4	7	23	24	0	0	1	26	3	34	2	17	1	2	0	8	20	63	1	12	8	18	0	6	39	2	0	9	0	3	52	0	29	33	4	2	5	1
OTU 42	0	0	0	3	9	0	0	4	33	2	0	99	44	0	2	0	42	7	0	0	0	0	0	4	1	0	2	28	21	0	0	17	0	10	1	0	39	3	0	0	0	4285	3	15	24	13	17	0	2	0
OTU 43	0	0	0	3	0	1	0	0	0	0	0	0	0	0	0	0	0	0	0	0	0	0	0	0	0	0	0	0	4	0	0	0	0	0	0	0	0	0	0	0	0	0	9	0	0	0	0	0	0	0
OTU 44	1	12	0	0	11	42	1	0	0	0	2	0	0	2	61	0	0	0	10	0	0	0	3	0	0	21	0	0	0	4	2	0	2421	0	2	43	0	11	15	80	0	1	0	0	0	0	0	21	20	0
OTU 45	4	44	14	15	380	5861	25	19	2746	0	1	2	35	11	20	15	0	38	5	17	43	4	1	7	1	0	7	24	18	9	0	2	16	19	92	0	26	42	59	19	10	3	13	66	2	22	23	4	17	0
OTU 46	16	184	15	6	74	4	127	30	40	63	6	20	0	432	35	2	6	38	9	32	0	7	41	50	70	64	35	97	52	61	19	19	11	16	24	27	28	137	12	9	7	77	11	16	1	20	0	6	9	24
OTU 47	5	0	16	0	0	0	4	5	0	0	0	0	0	6	17	1	0	0	0	14	1	0	0	4	0	0	2	0	0	0	0	0	22	0	0	19	0	0	0	13	2188	0	0	0	0	0	0	0	0	0
OTU 48	3	44	8	10	0	5	8	20	10	39	8	5	25	24	13	39	6	69	1	26	46	21	12	1	114	19	15	47	50	10	3	3	6	55	12	6	14	29	8	8	8	62	37	585	38	70	1	773	32	6
OTU 49	0	131	5	5	0	9	10	69	82	18	10	1	5	4	0	7	0	0	4	0	11	0	13	39	0	0	0	0	1	23	0	0	1	9	0	16	0	0	2	0	35	1	1	4	5	12	0	0	0	8
OTU 50	23	5	22	58	16	7	41	0	81	0	251	24	46	13	3	87	42	0	23	27	31	1	5	5	6	24	36	4124	91	10	21	37	4	80	2	49	23	12	15	50	1	2074	46	6	1	24	12	31	30	0
OTU 51	0	20	4	12	5	9	4	13	38	1	9	0	0	7	1	5	3	0	0	0	35	75	1	0	0	9	0	0	32	11	0	11	0	0	35	47	13	2	22	3	8	0	17	1	23	1	3	2	1	0
OTU 52	7	105	77	3	97	93	5373	12	61	5743	4	26	33	27	71	189	13	52	54	24	65	15	55	15	54	43	90	13	43	84	20	1	11	17	68	30	52	32	4	91	11	31	0	7	6	21	28	7	37	28
OTU 53	0	0	0	0	0	0	2	0	0	0	0	0	0	0	0	8	0	36	0	0	0	0	0	0	0	6	0	0	0	0	0	0	1	0	0	0	0	0	0	0	0	0	0	0	0	0	0	0	0	0
OTU 54	1	93	22	683	13	8	28	21	17	34	12	1867	42	653	32	23	1011	33	3	9	48	981	17	22	126	50	3	7	28	5	4	1038	21	26	39	15	4	38	43	9	7	19	78	15	947	59	35	0	26	10
OTU 55	0	0	0	0	0	0	0	0	0	18	0	0	1	0	0	0	0	0	0	0	0	0	0	0	0	0	0	0	0	0	0	0	0	37	0	0	0	0	0	2	0	0	0	0	0	0	0	0	0	0
OTU 56	9	9	64	0	24	2	8	8	0	6	7	6	17	0	79	6	0	12	0	1	9	0	2	15	0	1	0	0	6	6	6	0	3	24	2	23	21	45	3	1	8	1	3	0	0	0	0	0	2	1
OTU 57	2250	7	55	56	73	26	30	24	28	5	27	19	22	864	57	102	0	72	23	21	31	2162	32	40	12	2	139	47	48	16	4246	3	19	136	66	95	131	15	9	29	5	11	44	10	25	1208	53	32	14	12
OTU 58	0	5	13	0	1	11	39	53	30	15	18	4	17	1	42	4	0	5	0	13	4	0	0	43	0	13	10	9	0	4	1	152	26	0	11	0	21	22	12	0	2	60	0	2	14	19	2	0	2	0
OTU 59	0	0	0	0	19	2	2	2283	304	18	0	0	0	0	2	1	0	55	4	999	59	5	443	929	2	1136	7	259	84	14	0	6	632	18	1	0	28	39	1312	16	1264	259	0	21	13	6	5	16	48	222
OTU 60	20	26	3	74	3	117	1	69	1	12	60	19	45	5	23	38	9	1	5	2	3	8	5	11	7	60	20	21	22	35	37	28	21	10	17	34	89	22	17	15	10	25	9	14	50	1	30	14	13	3
OTU 61	0	7	38	13	82	64	20	27	4	13	2	42	7	5	132	22	5	8	33	33	8	9	37	71	11	10	46	40	12	37	4	34	34	47	48	59	17	28	36	60	23	5	9	24	6	11	11	8	23	21
OTU 62	0	1	0	2	10	0	0	4	0	4	0	32	4	11	3	0	10	22	19	0	0	8	8	27	0	1	13	29	1	0	0	0	16	0	0	1	0	5	2	19	3	1	12	0	23	6	5	23	3	4
OTU 63	0	13	8	2	1	0	0	10	111	0	9	3	9	0	65	22	27	12	0	13	0	8	64	162	0	1	4	57	0	16	0	0	46	11	7	36	3	34	11	0	1	5	0	4	0	11	0	5	0	29
OTU 64	19	172	38	52	22	24	12	15	77	366	12	80	66	27	49	88	23	168	8	38	107	0	4	10	9	45	27	13	19	0	43	26	34	3	3	3	4	24	17	12	9	15	5	21	116	22	0	27	51	3
OTU 65	0	0	0	0	0	0	0	14	0	14	0	0	0	0	0	0	0	3	0	0	4	0	0	0	0	12	0	2	0	0	0	0	0	0	0	0	0	0	0	0	6	0	0	0	0	7	0	2	0	0
OTU 66	22	3	7	45	16	5	4	21	1	57	5	20	6	21	11	31	23	29	26	19	32	29	1	2	17	19	9	14	9	3	23	0	6	46	15	13	4	105	11	25	42	4	6	5	2	5	5	9	31	0
OTU 67	0	7	11	23	25	108	5	25	20	0	9	14	43	550	17	11	2	5	1	2	65	0	20	59	0	0	30	32	7	31	1	48	23	2	1	64	0	20	8	5	3	10	338	3	27	1	14	9	25	6
OTU 68	1	2	2	1	4	14	0	51	0	0	3	1	0	1	0	9	1	0	0	0	0	6	27	0	1	1	1	14	29	2	12	1	8	0	2	0	70	7	1	7	1	11	0	4	0	22	0	2	0	21
OTU 69	37	0	14	503	18	24	0	19	8	8	10	3	8	8	14	18	3	0	31	27	14	8	6	9	7	7	4	13	35	2	91	2	1	5	1	0	25	4	1	29	2	23	11	29	0	5	25	39	1	1
OTU 70	33	5	0	0	1	0	2	16	620	10	0	10	1	12	2	34	10	0	4	14	6	19	16	2	0	8	0	0	0	21	54	0	0	1	3	3	10	8	619	8	0	42	0	13	0	1	0	0	12	8
OTU 71	2	2	1	16	5	3	0	0	1	3	7	10	60	0	1	1	7	40	0	8	2	0	200	232	10	0	15	225	1	21	2	0	142	3	3	38	1	0	6	0	1	142	0	0	4	0	6	18	0	90
OTU 72	8	12	1	6	10	8	131	18	12	3	2	4	21	40	27	4	2	26	1	27	18	10	6	27	41	9	8	0	5	7	10	4	16	6	54	1	3	17	4	1	21	9	0	76	6	3	0	5	48	2
OTU 73	0	141	2	10	33	16	0	5	2	3	10	32	0	1	2	6	9	4	1	1	13	0	14	1	9	8	8	5	11	86	8	2	0	1	20	2	0	27	22	3	1	5	9	1	29	26	5	8	31	11
OTU 74	13	103	71	15	19	10	0	1	8	80	1	25	36	1	73	8	13	0	3	9	34	5	0	6	56	43	2	13	26	2	9	14	10	80	7	6	48	42	10	5	9	6	7	3	65	1	5	17	172	0
OTU 75	49	8	7	12	7	10	11	12	20	18	3	29	1	14	5	2	9	32	20	6	1	0	1	12	54	19	25	17	14	12	106	838	0	13	39	19	50	38	11	50	1	4	82	64	2	41	49	49	6	1
OTU 76	2	1	0	9	1	0	3	10	19	33	28	0	0	1	0	0	0	2	638	0	0	3	0	0	0	0	0	2	4	1	0	1	3	13	56	4	6	24	6	1	0	1	0	6	20	1	9	0	3	0
OTU 77	0	14	21	0	4	24	24	21	2	53	9	16	5	0	63	1	14	50	1	0	90	16	22	31	5	0	33	43	0	114	0	4	27	32	36	3	10	19	2	0	5	24	22	49	12	45	2	23	5	9
OTU 78	17	22	0	12	27	143	14	42	1	29	12	6	3945	18	50	124	2	16	24	1	28	24	0	29	15	0	54	9	8	1	68	12	9	13	22	19	46	3	17	37	41	11	118	13	10	24	11	5	4033	0
OTU 79	178	52	27	3	181	69	78	149	173	23	137	28	1507	35	17	39	14	98	3	88	71	20	30	45	41	115	79	61	133	31	19	40	27	50	237	55	78	52	25	34	48	42	84	69	42	24	63	11	12	9
OTU 80	36	13	6	6	47	3	23	20	45	53	2	16	41	8	28	11	14	4	3	61	20	5	17	17	19	37	16	16	2	0	63	28	13	31	2	18	13	9	8	13	51	6	88	30	19	33	18	4	48	4
OTU 81	36	36	0	105	20	32	41	0	14	5	28	316	34	2712	40	34	139	47	0	11	1	113	10	10	40	30	50	38	19	5	57	52	2	11	17	1	74	37	149	10	10	0	138	110	78	16	61	125	346	5
OTU 82	3	5	2	14	77	22	56	4	76	187	26	0	0	30	2	9	0	37	2	4	15	11	26	35	5	2	0	0	37	13	21	44	15	41	0	6	0	26	6	2	1	5	34	1	3289	3426	1	23	17	16
OTU 83	13	42	0	6	0	0	0	0	4	0	15	2	1	0	0	5	0	0	1	0	0	6	0	10	2	0	1	20	0	0	45	0	0	13	21	0	0	0	8	0	3	2	1	1	0	0	0	25	0	0
OTU 84	0	13	2	3	0	0	0	0	0	25	13	0	0	1	1	2	0	91	5	3	71	13	5	1	0	1	14	0	19	0	0	1	0	17	0	4	0	5	6	4	15	2	1	1	0	0	4	86	10	2
OTU 85	0	9	1	0	64	70	0	0	8	0	4	0	19	2	1	0	0	0	1	4	3	1	3	1	0	2	0	4	0	3	0	1	6	0	11	23	28	1	6	0	0	5	0	0	0	4	0	5	70	2
OTU 86	0	0	1	0	0	0	0	0	0	0	0	0	6	0	0	1	0	0	0	0	0	0	0	5	0	0	0	0	0	0	0	0	0	0	0	0	5	0	0	9	0	0	5	2	0	0	0	3	0	0
OTU 87	5	0	550	0	0	6	4	6	0	0	0	0	6	0	923	0	0	1	8	0	0	1	0	0	2	0	0	0	0	8	5	7	0	17	0	1	0	0	0	3	0	0	1	5	0	0	2	0	0	0
OTU 88	2	1	3	0	2	0	2	22	7	0	0	0	3	0	0	0	2	0	0	0	0	0	0	0	0	0	0	5	0	0	7	0	2	0	0	2	36	6	0	0	0	0	6	0	0	0	0	9	0	0
OTU 89	0	0	0	0	0	5	20	0	50	5	0	0	8	1	0	0	0	4	0	5	11	2	0	5	2	0	9	14	9	0	0	6	0	26	62	3293	5	0	0	0	0	37	1	0	4	30	2	35	9	0
OTU 90	0	3	0	0	0	0	0	24	0	3	1	9	38	0	0	58	19	0	0	0	9	0	0	0	12	0	3	0	0	3	0	0	0	0	0	0	2	0	1	1	0	0	0	29	102	0	0	0	0	0
OTU 91	0	2	0	4	2	1	0	0	0	0	15	0	0	0	13	0	0	5	0	0	0	9	0	3	1	0	0	0	0	0	0	0	0	0	7	45	0	5	0	0	0	6	2	11	0	0	0	0	0	0
OTU 92	0	9	0	5	0	0	38	6	13	0	0	0	57	7	0	0	0	164	0	1	29	1	7	0	0	0	0	0	0	3	8	24	2	0	1	0	10	15	6	0	0	9	7	0	34	7	0	2	2	4
OTU 93	1	0	0	0	0	0	2	0	0	0	0	0	0	13	0	0	0	0	0	0	0	0	13	0	0	0	1	0	0	0	2	0	0	3	0	4	2	0	0	0	0	7	0	0	0	0	0	11	14	6
OTU 94	219	51	4	1	7	19	2	41	44	16	155	84	15	0	1	46	38	3	439	19	12	2	6	4	3	10	29	3	5	36	425	33	12	10	10	4	4	23	14	846	20	15	1	184	2	56	8	261	5	4
OTU 95	0	0	5	54	0	0	2	0	0	0	0	49	7	20	0	0	23	11	0	1	0	11	1	0	32	0	4	9	0	32	0	6	8	0	27	0	1	32	0	0	0	0	0	0	41	1	0	2	0	3
OTU 96	11	0	2	0	0	8	4	46	0	0	22	3	0	0	37	0	0	0	0	11	0	0	0	3	0	0	0	37	0	27	9	0	0	2	0	0	0	0	0	0	2	0	0	4	0	0	0	43	0	0
OTU 97	18	0	17	103	0	4	11	121	148	0	0	302	0	4	39	0	159	0	138	199	0	111	28	47	0	95	1	64	45	0	26	139	11	7	0	0	109	21	214	346	130	2	12	85	60	0	57	1	0	15
OTU 98	4	3	0	0	0	0	14	0	0	0	0	0	1	9	1	2	0	47	0	2	1	9	0	0	0	2	3	7	3	2	3	7	0	0	171	24	0	1	12	0	3	3	10	43	0	53	0	0	2	0
OTU 99	6	54	22	59	37	9	2	117	5	27	18	1	39	0	6	86	1	0	33	33	31	4	74	85	8	23	1544	18	12	30	14	1	44	2	154	3	22	58	16	46	40	2	43	13	19	1	10	7	58	47
OTU 100	0	11	0	4	5	62	4	4	0	50	9	9	46	0	0	6	0	1	0	0	36	25	1	3	17	12	6	6	7	58	0	0	0	34	3	111	14	5	23	21	1	0	4	2	1	11	28	10	35	0
OTU 101	0	0	7	0	24	0	0	2	0	0	0	0	0	0	39	1	0	0	0	0	0	0	0	0	4	0	8	0	0	0	0	0	0	0	0	0	0	0	0	0	0	0	0	0	0	0	0	0	0	0
OTU 102	0	0	0	6	0	0	6	0	0	37	0	0	8	2	0	0	0	1	0	1	1	2	0	0	0	7	0	0	0	3	0	1	0	7	0	0	0	0	0	0	0	1	2	0	0	2	0	11	45	0
OTU 103	0	0	0	0	1	3	25	37	37	0	5	17	1	4	10	69	1	6	4	0	4	0	39	14	1	11	22	13	2	3	9	3	0	16	8	18	93	1	9	2	21	5	1	88	6	4	1	4	104	15
OTU 104	30	7	0	55	10	3	72	20	183	25	121	29	8	25	19	7	7	88	5	1	4	33	40	70	253	20	4	111	22	7	23	13	13	43	83	26	37	28	755	4	3	151	5	11	22	6	4	70	28	21
OTU 105	0	0	1	7	2	0	0	1	4	0	0	69	0	38	0	0	28	8	9	3	0	21	0	0	8	0	4	0	0	0	0	0	5	0	0	1	0	3	0	20	0	0	94	2	0	40	1	0	16	0
OTU 106	4	2	0	1	3	7	1	0	0	0	1	0	0	2	0	0	0	0	1	0	20	8	1	5	5	0	0	0	41	0	2	0	0	1	8	0	2	0	0	12	0	0	67	15	0	1	2	0	1	0
OTU 107	1	4	10	0	1	2	461	4	21	0	8	10	32	0	0	4	1	0	0	3454	10	0	3	13	14	4	34	30	3	3	7	2	5	6	0	0	1	56	0	14	11	17	0	0	0	11	0	3	9	0
OTU 108	23	154	64	2	0	8	38	0	4	0	0	0	11	0	67	1	0	1	46	0	31	5	43	60	32	6	2	3	389	1	86	0	2	24	0	10	299	14	14	78	3	0	11	5	4	34	127	0	40	25
OTU 109	0	0	0	0	0	0	0	0	0	0	0	0	0	0	0	0	0	0	0	0	0	0	0	0	0	0	0	0	0	0	0	0	0	0	0	0	0	0	0	0	0	0	0	0	7	0	0	0	0	0
OTU 110	3	28	25	49	41	50	10	2	25	22	87	14	44	71	75	24	3	0	5	36	3	13	78	100	17	6	48	35	33	3071	4	48	65	2	25	101	0	9	4	6	16	38	1	13	1	18	19	7	8	41
OTU 111	0	10	94	20	0	0	7	0	38	1	1	1	0	0	190	0	0	6	0	7	89	0	0	0	6	4	0	13	1	0	0	0	1	11	0	0	3	4	1	2	0	0	0	0	0	0	2	31	0	0
OTU 112	0	0	0	0	0	1	9	0	12	0	19	0	44	6	2	12	0	17	0	19	2	11	4	1	2	17	1	0	29	0	2	2	0	80	0	0	3	10	0	0	2	0	1	1	0	6	1	8	15	0
OTU 113	0	0	0	4	7	0	0	20	0	1	0	2	0	0	0	0	0	5	0	2	0	7	0	0	4	0	6	0	2	0	0	0	0	0	0	0	0	2	22	0	0	0	1	0	0	2	0	5	14	0
OTU 114	18	47	17	1	0	38	68	25	28	0	0	9	56	4	10	2	13	30	45	1	1917	13	27	11	74	9	21	7	30	24	79	28	30	7	64	31	4	6	33	163	8	16	29	24	20	4	9	20	1	5
OTU 115	10	2	14	29	43	37	39	47	23	46	74	40	37	85	48	36	33	37	11	21	496	3	26	35	16	17	11	12	9	52	38	51	381	68	54	23	23	28	51	35	22	6	29	2697	5	9	23	52	46	17
OTU 116	186	1143	5	20	17	91	43	28	32	9	8	27	252	66	26	35	20	5	359	52	5	1	3	13	52	5	2	5	1497	22	350	1	0	12	53	13	791	642	25	535	0	3	38	323	52	31	758	424	7	0
OTU 117	0	24	14	13	0	110	38	15	13	15	126	8	47	36	35	17	0	2	12	3	23	1	0	4	5	7	59	21	0	34	9	0	4	0	24	12	7	77	4	19	0	14	40	0	36	72	126	29	2	0
OTU 118	1	0	0	0	0	0	0	0	0	0	0	0	38	8	0	1	0	0	0	9	0	1	39	108	0	0	0	11	0	0	7	0	31	0	1	0	0	0	0	0	1	59	1	0	0	27	0	0	0	16
OTU 119	9	37	42	102	5	3	35	72	4	17	19	3	5	1	42	5	14	19	29	1	25	14	11	13	26	15	2	25	55	0	15	15	0	230	8	51	5	0	33	42	31	1	13	7	6	8	24	35	53	2
OTU 120	2	243	0	0	10	45	7	18	1	28	8	3	0	12	2	10	0	36	0	0	0	10	7	3	31	0	0	1	89	37	5	1	0	56	18	20	0	1	49	0	4	0	8	2	5	2	51	4	5	4
OTU 121	1	11	6	1	0	1	8	21	3	2	31	0	0	0	46	3	0	3	43	2	7	36	0	2	8	29	1	21	1	9	8	1	0	5	19	1	2	9	14	117	24	6	24	13	0	21	16	5	14	0
OTU 122	0	7	2	12	16	37	41	11	6	88	0	44	21	6	2	1	25	5	0	1	0	20	0	10	5	1	4	0	4	832	8	133	1	8	2	12	3	32	9	1	0	1	8	15	46	5	0	7	11	0
OTU 123	21	3087	24	206	31	176	27	47	405	193	40	482	50	216	47	22	191	146	31	51	93	443	82	92	104	36	62	115	144	78	36	277	48	147	117	76	143	12	940	119	54	86	629	23	353	83	70	30	79	36
OTU 124	0	3	1	11	1	18	0	3	26	1	0	7	2	0	0	58	0	1	0	0	12	5	9	8	34	10	3	0	0	0	0	4	0	0	6	0	2	0	0	0	0	0	2	0	0	0	2	6	1	3
OTU 125	39	25	92	368	191	46	48	151	178	34	21	23	22	281	293	10	38	151	34	1	57	10	19	17	184	44	67	72	101	304	85	30	3	24	125	2746	54	253	53	73	33	46	11	37	26	69	45	86	64	15
OTU 126	0	0	3	2	0	0	4	2	0	8	0	8	0	4	0	0	2	6	3	0	0	0	11	0	0	0	0	0	0	17	0	0	0	0	1	0	0	0	0	0	0	0	0	3	31	15	0	1	4	7
OTU 127	0	2	5	0	1	0	0	28	0	45	29	26	186	1	12	31	10	108	0	8	36	8	0	2	24	25	42	1	3	0	1	0	4	35	8	0	19	12	1	1	0	1	3	4	0	0	1	36	1	0
OTU 128	89	178	31	12	60	76	57	102	51	274	89	31	16	94	42	72	12	78	104	48	42	61	34	51	40	58	346	22	461	31	146	9	11	23	89	114	1032	3360	75	271	28	15	47	143	40	99	878	59	27	17
OTU 129	2	23	1	0	0	0	0	2	10	0	0	0	0	0	0	36	0	0	0	0	37	0	2	0	0	0	0	0	39	29	1	0	0	0	3	0	0	36	133	0	0	0	0	0	0	0	76	0	7	2
OTU 130	0	25	6	0	1	80	8	1	0	18	3	3	24	4	0	11	4	3	10	3	113	12	0	1	23	1467	5	1	26	8	7	0	1	66	0	11	1	12	35	17	5	27	6	2	3	1	2	0	3	0
OTU 131	2	3	0	19	22	1	2	3	0	2	2	7	11	11	14	30	12	0	13	0	11	24	12	29	0	3	0	1	8	17	4	17	10	32	37	0	3	61	6	0	2	7	4	1	0	565	0	0	8	9
OTU 132	0	8	7	14	18	4	0	8	0	7	1	10	12	7	5	0	25	22	1	8	31	0	5	0	0	3	2	0	0	14	0	0	0	32	5249	29	11	8	0	0	5	9	16	0	0	22	15	5	8	1
OTU 133	0	0	0	0	2	1	1	0	0	7	0	21	0	31	0	0	24	1	0	3	1	0	3	48	0	11	11	7	0	54	0	2	23	0	0	0	0	1	4	0	0	31	2	0	0	0	0	5	0	1
OTU 134	26	5	0	0	2	18	5	0	50	6	0	60	99	3	6	5	12	7	4	4	18	74	0	5	14	10	8	40	9	1	24	27	41	0	8	15	8	9	0	14	15	18	9	2	49	6	18	7	13	0
OTU 135	18	3	15	1	33	26	10	29	47	76	2	0	22	1	12	6	1	8	0	28	19	2	9	26	35	5	0	38	0	6	29	0	4	1	0	1	11	5	4	18	56	19	0	36	22	19	3	70	21	4
OTU 136	0	1	3	0	3	7	23	0	8	3	21	1	5	0	7	0	3	71	2	0	39	0	0	18	6	3	20	0	20	2	0	0	14	0	0	10	1	0	0	1	15	0	6	11	0	0	9	47	1	0
OTU 137	3	0	1	2	0	0	0	2	0	4	2	1	0	0	1	15	1	1	0	0	0	0	7	35	0	0	1	0	1	578	22	2	15	0	28	10	0	0	0	9	3	0	0	0	1	2	2	30	4	2
OTU 138	0	0	0	8	14	3	0	1	15	0	0	3	0	0	0	5	1	2	0	0	0	8	1	8	2	1	14	8	0	0	0	0	2	1	7	16	7	3	14	0	1	29	0	2	0	2	2	2	10	2
OTU 139	2	60	22	13	104	15	11	66	12	89	79	12	9	8	16	91	5	11	21	132	13	54	90	48	5	40	10	31	25	56	27	13	187	1502	38	48	11	35	16	35	24	2	28	29	7	69	20	9	44	51
OTU 140	452	74	21	57	15	87	97	128	56	24	71	56	56	96	66	83	13	10	3480	30	41	56	11	28	65	30	40	7	199	13	836	15	64	13	14	39	30	55	96	1659	51	6	4834	463	140	36	80	1357	22	6
OTU 141	0	0	0	0	2	0	0	0	0	0	0	0	14	0	0	0	0	0	0	0	0	0	0	0	0	0	0	0	0	28	0	0	0	0	0	0	0	0	0	0	0	0	0	0	0	0	0	0	0	0
OTU 142	2	0	0	0	20	0	0	1	0	0	14	0	0	0	10	0	0	0	0	0	0	0	0	0	0	0	0	0	0	0	1	0	3	0	0	0	0	0	4	0	0	0	0	2	0	0	0	0	0	0
OTU 143	0	0	3	0	0	0	14	0	0	0	0	0	2	0	14	0	4	0	373	0	14	0	0	1	2	0	0	5	0	10	0	1	2	0	0	13	33	0	8	0	0	0	4	0	0	47	0	0	0	0
OTU 144	0	0	0	15	15	0	0	0	1	1	40	0	5	0	0	10	0	0	0	0	9	1	0	0	0	0	5	0	0	8	1	0	0	1	0	26	0	1	0	0	0	0	0	10	0	0	2	0	6	0
OTU 145	7	60	6	28	8	100	11	0	36	3	13	20	0	5	16	48	8	35	6	4	1	31	1	0	0	16	3	0	26	15	14	6	0	37	9	74	16	24	22	14	22	30	68	10	14	1350	29	61	13	1
OTU 146	5	2	18	11	23	0	45	12	4	3	1088	6	12	6	15	5	2	1	3	2	14	8	43	34	19	1	0	3	6	21	8	0	10	35	11	66	46	6	91	4	0	1	3	2	0	32	15	0	58	16
OTU 147	1	1	0	6	56	0	80	96	33	7	6	24	4	2	0	49	8	9	0	3	1	13	10	0	2	7	6	1	0	0	0	9	0	120	5	0	600	3	2	1	33	0	54	2	3	9	0	4	21	7
OTU 148	28	1	30	16	143	46	26	25	24	23	50	5	1	29	7	7	6	2	20	4	22	13	3	0	9	21	0	0	4	29	49	3	26	66	25	12	29	2	49	9	0	6	37	7	0	4	0	0	10	3
OTU 149	0	1	53	0	5	26	8	0	7	153	1	0	29	0	66	43	0	0	0	6	1	3	1	0	2	0	81	1	1	58	2	4	16	12	7	0	0	0	7	0	0	0	0	29	15	13	16	2	3	0
OTU 150	4	9	0	0	0	16	10	7	0	0	0	0	1	7	1	2	0	0	0	0	0	0	0	1	1	0	0	1	4	0	3	2	0	8	11	0	0	6	1	0	3	0	7	10	0	1	55	0	1	0
OTU 151	4	20	3	40	0	12	33	7	0	2	5	32	7	7	10	1	15	45	5	0	3	7	3	37	1	0	0	3	7	0	12	2	48	5	34	21	2294	5	4	0	10	2	0	50	8	1	2	12	13	0
OTU 152	2	16	6	10	37	5	1	2	6	28	16	23	36	17	24	3	6	8	7	28	2	9	4	7	8	8	2	12	0	0	0	2	16	10	10	7	44	3	82	20	2	2	30	13	0	10	34	1	13	2
OTU 153	0	0	0	0	0	0	0	0	0	0	0	0	13	0	0	24	0	0	0	0	1	0	0	8	1	0	0	0	0	0	0	2	6	0	0	0	0	9	0	0	0	0	0	1	46	0	0	0	0	0
OTU 154	0	0	0	1	0	0	0	28	0	0	0	0	2	0	0	1	0	2	0	0	0	0	1	0	0	28	0	0	0	0	0	0	0	0	0	0	0	1	0	0	8	0	0	0	0	0	0	1	17	0
OTU 155	1	2	6	0	14	1	0	33	30	0	130	5	0	8	25	0	0	73	10	5	0	23	28	41	59	1	0	1	23	0	0	1	23	42	3	2	22	2	1	57	2	1	2	0	19	2	21	9	20	15
OTU 156	54	327	448	462	66	39	26	639	115	13	18	877	36	203	901	3120	428	1	225	482	15	293	202	395	14	522	23	270	593	116	113	466	307	6	15	70	399	580	388	650	561	143	17	83	569	29	286	348	19	100
OTU 157	12	10	0	4	5	0	0	11	0	45	0	11	0	8	6	1	2	10	5	3	1	0	908	1810	1	0	3	969	0	11	35	0	731	3	0	0	0	0	5	0	5	366	19	5	0	0	4	2	0	425
OTU 158	0	0	0	0	0	0	0	0	5	5	0	0	0	23	0	0	0	0	0	0	0	0	3	0	0	0	0	0	44	4	0	0	0	24	0	0	0	0	0	0	0	0	0	0	0	0	1	0	0	3
OTU 159	28	715	0	40	23	21	3	4	30	8	4	28	10	0	0	0	15	7	38	13	68	28	0	0	34	1	0	4	4	149	17	18	0	1	63	6	46	57	11	35	4	1	1	19	25	28	3	0	12	0
OTU 160	202	49	25	18	29	28	18	303	108	46	1	70	26	1	23	29	18	158	15	60	14	2	625	236	10	1491	0	127	89	91	413	24	56	48	41	37	4	52	318	9	141	46	84	17	193	175	65	3	60	2201
OTU 161	5	7	149	15	49	8	20	19	0	0	423	3	0	190	252	21	2	4	0	0	10	123	28	1	11	48	84	0	9	20	14	11	6	1	3	108	1	3	0	6	0	3	537	0	18	9	1	20	2	15
OTU 162	0	6	1	2	1	31	35	427	7	0	7	25	43	9	11	12	672	26	0	170	18	43	3877	175	0	45	2	32	39	3	6	6	88	11	5	17	1	3	79	7	117	6	2	14	32	101	22	12	38	2012
OTU 163	0	0	1	0	3	51	12	9	0	0	0	0	0	0	0	0	0	0	1	0	0	0	0	0	1	0	0	0	0	0	0	0	0	0	6	0	5	0	0	21	2	0	0	0	3	0	0	0	0	0
OTU 164	0	0	1	0	0	0	0	15	0	0	0	0	0	0	0	0	0	0	2	0	0	0	0	0	0	0	0	0	0	0	0	0	0	0	0	0	0	0	0	0	0	0	23	0	0	0	0	0	0	0
OTU 165	3	0	10	8	7	8	0	16	11	8	10	0	0	2	4	21	1	12	6	2	15	17	9	6	19	0	6	1	0	10	12	0	12	3	72	0	3	0	0	6	0	12	50	21	2	4	0	19	2	4
OTU 166	0	0	0	1	0	0	54	0	0	0	0	0	0	0	0	0	0	0	0	0	0	0	0	0	0	0	0	0	0	0	0	0	2	0	0	0	0	0	0	0	0	0	0	0	0	1	0	0	0	0
OTU 167	9	0	26	13	0	3	23	20	33	0	4	27	105	1	15	7	23	103	3	97	0	8	19	24	19	91	3	10	1	0	16	22	6	3	0	0	2	79	2	13	36	15	1	7	37	1	0	0	1	13
OTU 168	1	64	45	79	8	48	28	1	2	10	41	28	51	15	8	13	5	16	7	5	0	3	3	96	25	0	1	10	14	0	0	16	49	51	10	0	2	52	13	0	0	1	1	1	70	11	9	9	14	3
OTU 169	1	2	0	30	0	3	43	0	0	1	0	0	0	0	0	5	0	0	0	1	0	0	0	0	0	0	0	1	2	0	0	0	0	2	0	0	0	1	0	0	0	0	0	0	0	0	0	0	2	0
OTU 170	0	0	0	10	0	4	0	0	0	0	0	0	0	0	0	0	0	0	0	0	0	0	0	1	0	0	6	26	0	0	0	0	0	0	0	0	1	0	0	0	0	0	1	0	0	0	0	0	0	0
OTU 171	13	30	0	45	19	16	9	0	0	18	1	6	68	1	2	1	3	1230	16	24	28	7	4	1	0	2	6	50	34	3	20	13	6	4	6	6	30	3	0	65	0	52	1	2	7	1	2	4	3	3
OTU 172	0	1	0	0	0	9	0	12	0	0	0	0	0	0	5	9	0	3	0	0	0	0	0	7	4	0	0	0	0	0	1	0	3	2	0	0	0	0	0	2	10	0	1	0	0	0	0	0	0	0
OTU 173	0	0	0	1	2	32	0	8	4	52	1	0	8	1	0	1	11	21	0	0	11	1	0	30	30	0	0	5	5	29	0	5	18	0	0	1	1	0	0	11	0	1	0	11	1	0	19	1	1	0
OTU 174	0	0	55	28	0	2	6	9	8	16	4	12	2	10	91	21	12	0	0	0	5	65	8	1	25	1	0	5	2	1	8	0	1	1	2	37	0	18	15	0	24	35	0	10	14	93	13	40	19	3
OTU 175	0	0	17	21	16	42	0	0	5	2	163	25	21	527	47	2	8	6	0	0	10	989	2	22	0	0	26	5	12	33	2	0	4	6	10	0	3	1	8	4	1	2	12	24	1	10	0	8	18	3
OTU 176	5	69	21	40	36	85	24	105	1216	67	64	22	9	2	53	1	4	18	14	29	31	0	6	80	3	1	4858	41	8	2	4	10	14	14	11	21	46	6	16	14	357	119	6	6	3	19	16	7	67	3
OTU 177	3	51	26	7	0	5	0	4	22	154	0	21	35	0	52	1	3	32	5	46	3	0	8	0	14	616	63	53	1	2	18	27	0	91	16	5	2	15	1	15	36	12	129	24	9	10	6	0	31	1523
OTU 178	0	1	3	0	97	6	11	1	4	9	3	6	12	1	2	0	2771	0	0	0	0	23	11	0	2	5	0	12	27	12	1	12	0	0	0	15	1	0	9	6	1	1	0	0	0	0	0	2	2	5
OTU 179	0	25	2	0	0	23	0	1	13	62	0	7	6	0	0	19	2	22	10	1	1	20	29	84	29	1	0	18	0	0	0	4	51	71	2	5	1	7	21	4	4	3	0	100	0	47	0	211	0	12
OTU 180	8	30	4	589	30	33	82	39	8	21	43	1383	40	291	14	107	716	48	27	100	2590	730	27	70	192	50	7	56	83	157	37	587	73	42	91	65	34	76	64	54	2	55	54	88	457	130	38	54	31	331
OTU 181	1	1	1	0	4	2	51	19	17	29	4	20	11	38	3	0	8	3	6	4	1	13	264	940	0	111	26	449	1	0	0	0	527	3	16	0	3	73	5	4	6	161	1	0	6	13	5	1	0	124
OTU 182	0	0	0	0	1	0	0	34	0	0	0	0	0	6	2	0	0	8	0	54	0	7	1	0	0	25	0	0	0	3	0	0	15	0	0	0	2	0	2	0	21	0	0	2	0	0	5	29	0	0
OTU 183	3	62	0	0	4	0	2	3	16	22	1	2	4	0	0	3	1	52	9	0	34	6	3	0	1	23	39	0	11	16	2	4	2	18	0	0	0	1	6	17	1	2	88	1	110	0	1	8	28	0
OTU 184	0	2	0	11	0	0	9	5	0	1	26	1	6	0	0	11	0	118	2	2	6	0	0	13	6022	0	2	5	3	22	3	4	0	3	3	17	0	48	0	16	0	2	2	6	27	0	6	45	0	0
OTU 185	8	45	27	12	47	9	2	33	1	162	56	18	42	17	24	8	17	28	0	581	3	6	22	4	3	0	12	4	0	12	15	3	6	4	57	0	25	6	59	18	7	21	1	24	9	46	2	10	41	13
OTU 186	964	2	5	4	9	5	0	5	0	6	1557	34	98	0	1	0	18	13	10	4	3	1	9	0	1	0	12	0	0	0	2	2	2	37	0	49	0	0	0	11	19	1	0	20	1	5	3	39	1	3
OTU 187	30	72	3	16	10	50	34	41	85	0	3	103	15	5	2	14	42	2891	73	4	28	20	2	19	43	53	33	5	225	25	67	69	1	49	42	0	22	119	5	109	37	11	20	33	35	18	67	69	2196	2
OTU 188	5	18	4697	17	10	78	0	42	15	29	21	3	13	14	30	127	1	6	1	6	3	76	21	16	0	32	26	20	12	14	5	18	0	4	31	10	31	11	30	6	36	4	3	80	54	9	6	41	41	8
OTU 189	5	129	15	34	59	81	2	31	25	0	18	38	7	45	94	98	34	7	30	1	1250	10	1	2	22	11	26	66	28	0	8	61	1759	29	60	42	26	82	28	19	8	2	39	5	20	20	34	16	51	1
OTU 190	4	31	0	0	5	12	0	0	0	1	0	13	4	0	1	17	6	0	12	0	0	0	0	0	6	0	0	0	0	4	11	0	0	0	0	0	0	3	1	14	1	5	0	0	0	25	0	0	7	0
OTU 191	846	3	6	8	93	28	1	5	35	6	51	2	3	453	59	1909	1	37	3	2	9	729	399	684	22	23	1	233	1	0	4	27	259	4	5	7	36	43	123	8	1909	62	23	0	6	45	19	4	49	200
OTU 192	16	8	41	6	3	4	41	34	2	49	26	22	149	6	58	16	22	7	6	8	116	32	65	119	17	8	55	79	0	11	24	1	54	25	1088	37	83	41	21	14	10	17	64	19	6	1	9	7	29	21
OTU 193	3	1	24	38	8	131	88	4	61	78	7	46	0	57	14	11	33	47	1	1	0	22	8	0	20	3	0	6	10	59	17	16	1	16	7	47	2	2	13	2	0	4	43	2	15	0	3882	6	29	4
OTU 194	1	1	19	0	5	7	21	3	27	1	5	35	8	1	17	0	9	0	20	2	0	2	0	16	13	0	5	0	11	38	2	28	0	0	0	38	15	2	18	50	3	0	8	71	2	3	0	33	6	0
OTU 195	1	1	0	43	4	88	7	62	13	12	41	4	57	0	3	28	7	9	0	6	50	3	41	101	4	8	0	26	2	128	4	4	25	10	124	19	12	0	2	1	28	11	0	0	1	12	5	0	1	14
OTU 196	0	1	30	6	0	0	50	5	11	18	13	22	5	8	39	15	10	18	1	6	122	3	11	1	50	12	21	1	0	33	0	0	5	20	88	4	10	0	0	1	8	11	11	0	9	52	9	2	2	3
OTU 197	42	79	1624	15	20	14	94	52	45	29	58	64	57	77	3046	62	16	11	278	4	43	9	59	45	93	5	71	71	22	40	57	800	30	19	23	24	23	26	95	52	47	8	25	59	12	94	5	24	13	417
OTU 198	1	0	0	5	0	19	0	0	0	0	0	0	0	0	0	1	0	0	0	1	1	0	0	0	0	0	0	2	1	20	0	0	0	0	24	18	35	2	0	2	0	0	11	6	0	30	0	0	0	0
OTU 199	7	2	0	0	3	69	2	6	0	1	2	14	91	39	6	0	5	2	0	12	3	14	4	9	0	3	0	10	11	5	44	19	10	0	0	0	2	0	0	2	18	0	0	39	4	0	2	6	2	1
OTU 200	0	23	17	3	6	13	2	759	277	9	42	3	4	5	41	1	9	11	14	382	24	5	211	354	5	470	102	209	9	35	1	3	182	59	11	17	38	33	448	48	243	118	0	22	18	6	11	19	19	103
