	Host 1	Host 2	Host 3	Host 4	Host 5	Host 6	Host 7	Host 8	Host 9	Host 10	Host 11	Host 12	Host 13	Host 14	Host 15	Host 16	Host 17	Host 18	Host 19	Host 20	Host 21	Host 22	Host 23	Host 24	Host 25	Host 26	Host 27	Host 28	Host 29	Host 30	Host 31	Host 32	Host 33	Host 34	Host 35	Host 36	Host 37	Host 38	Host 39	Host 40	Host 41	Host 42	Host 43	Host 44	Host 45	Host 46	Host 47	Host 48	Host 49	Host 50	
OTU 1	50	177	120	17	102	146	0	90	8	39	3	47	84	4	162	0	307	138	3	36	16	43	44	25	0	116	0	82	31	67	51	31	0	63	142	56	194	87	56	125	511	23	93	47	124	304	73	6	0	6
OTU 2	20	3	1	0	9	2	42	0	1	0	0	0	0	2	0	1	0	10	0	1	18	0	1	1	1	0	2	1	2	24	0	2	2	1	0	0	0	0	0	0	1	0	0	5	3	3	0	0	0	22
OTU 3	4	30	0	2	0	0	0	0	23	1	30	14	13	1	0	0	0	23	0	105	8	0	0	46	0	0	23	22	34	0	0	2	0	1	0	0	3	0	1	15	0	2	0	8	0	0	14	0	0	112
OTU 4	29	0	0	0	0	0	0	0	0	0	0	0	0	0	0	0	0	0	0	0	0	0	0	0	0	0	0	0	0	0	0	0	0	0	0	0	0	0	1	0	2	0	0	4	0	0	0	0	0	0
OTU 5	115	35	0	3	235	758	147	685	17	13	326	737	148	1234	382	321	281	2611	0	6	366	191	37	314	103	697	0	424	391	248	222	355	48	372	66	408	625	0	851	135	567	62	751	0	135	1153	772	57	12	3
OTU 6	6	238	23	4	0	2	18	1	71	2	80	1	100	0	62	20	0	29	146	19	5	71	40	5	0	91	49	113	191	5	4	37	0	35	0	2	4	13	1	0	54	8	13	23	9	26	12	159	59	10
OTU 7	77	56	172	258	6	19	8	100	90	7	248	13	127	62	76	23	57	78	74	39	44	88	40	24	114	51	117	27	30	49	4	14	160	128	10	61	702	35	51	82	76	5	777	24	5	1227	734	1186	93	101
OTU 8	20	49	66	136	4	62	215	22	13	69	4	49	12	10	56	73	29	29	59	83	7	4	98	20	157	49	93	22	122	24	132	31	65	172	31	11	33	126	43	9	17	20	35	24	4	59	69	44	113	802
OTU 9	0	17	1	148	0	5	42	4	0	34	11	48	1	56	19	18	7	6	37	0	14	0	2	0	125	0	117	6	1	22	0	0	0	1	7	1	4	71	3	0	67	3	15	1	6	45	27	64	0	1
OTU 10	1	9	84	3	0	6	27	0	6	0	0	1	0	0	1	1	1	5	12	16	2	0	0	7	106	1	34	2	1	2	36	1	87	77	0	0	1	0	11	3	3	2	4	6	0	1	0	0	168	4
OTU 11	6	138	73	409	20	2	24	17	7	61	109	94	25	0	31	18	4	625	33	61	152	21	0	2	23	26	2	75	2	0	20	1	46	70	25	3	5	160	53	0	103	108	12	37	2	11	35	139	49	2278
OTU 12	103	33	75	27	82	1	125	117	29	7	116	4	129	25	42	9	0	25	34	44	96	44	63	5	93	15	164	16	83	1	17	28	11	84	4	62	9	8	138	13	51	17	0	21	2	2	41	30	158	30
OTU 13	0	24	0	0	0	0	1	0	0	0	0	0	2	0	1	0	0	0	6	0	0	0	0	0	0	0	0	18	0	0	14	0	0	0	0	0	1	0	1	0	5	1	0	2	0	5	0	0	15	0
OTU 14	0	0	21	0	0	4	0	45	23	0	2	0	21	0	72	14	3	27	0	0	26	2	0	1	0	0	0	0	6	35	0	2	202	0	1	0	2	0	4	1	3	9	1	1	7	1	21	86	1	6
OTU 15	0	0	0	0	0	0	0	0	0	0	1	0	0	3	0	3	0	335	0	0	0	0	0	0	0	0	0	0	3	0	0	0	0	0	0	1	0	7	0	0	0	0	0	102	1	0	0	4	0	5
OTU 16	0	0	3	0	0	0	0	1	0	0	0	3	0	0	1	0	0	0	25	0	0	0	0	0	0	1	3	0	0	0	0	0	0	4	0	0	0	0	0	0	0	0	0	0	0	2	0	5	0	0
OTU 17	9	0	3	3	0	294	0	25	3	0	36	1	13	0	112	0	630	33	5	1	37	4	31	12	58	2	3	0	60	127	0	15	6	68	244	5	232	2	1	206	858	17	164	1	358	417	19	6	0	7
OTU 18	26	13	17	59	217	98	7	61	35	122	79	117	48	6	20	74	123	934	126	116	20	65	4	52	19	23	80	8	198	21	6	0	30	88	4	10	17	173	67	45	5	38	5	115	2	14	28	11	12	64
OTU 19	0	0	0	0	0	0	26	0	0	0	0	0	0	0	0	0	0	0	0	0	0	0	0	0	0	0	0	0	0	0	0	0	0	0	0	0	0	0	0	0	0	0	0	0	0	0	0	0	0	0
OTU 20	41	875	431	26	4	17	3	3	56	6	1	11	18	10	2	44	34	8	8	247	124	96	37	20	140	323	6	453	15	25	0	17	100	33	0	3	27	26	23	4	64	0	11	290	0	33	46	940	130	21
OTU 21	4	33	5	20	12	10	133	6	0	29	161	29	2	15	32	16	12	13	0	8	24	33	52	1	38	19	2	11	9	42	57	29	39	67	28	33	17	31	44	4	33	24	10	1	6	0	52	5	43	73
OTU 22	26	63	76	2	10	6	2	51	80	59	119	17	3	7	79	58	15	4	3	56	2	81	0	58	531	24	35	27	18	45	6	0	10	32	60	47	62	66	2	24	64	4	2	1	0	13	73	10	48	87
OTU 23	8	5	13	1	35	0	8	2	33	1	1	0	36	127	3	31	0	4	3	1	132	199	1	77	20	7	3	2	2	14	13	0	29	29	14	27	1	1	15	1	3	8	1	8	0	15	0	0	310	24
OTU 24	17	6	8	0	2	1	1	0	3	92	0	181	0	0	4	16	1	0	0	4	26	0	0	9	14	0	5	0	15	37	0	2	14	48	10	17	13	268	0	119	0	1	0	24	0	0	0	0	115	0
OTU 25	0	0	0	0	0	0	0	0	0	0	3	0	0	0	0	0	0	0	0	0	11	0	0	0	0	0	0	0	1	0	0	0	0	0	0	0	0	0	0	0	0	0	0	0	1	0	25	0	0	0
OTU 26	0	0	43	0	0	0	0	12	11	0	0	6	15	0	0	62	0	0	2	0	0	0	2	7	0	0	0	0	0	0	0	0	0	0	0	0	0	0	28	0	0	0	4	5	1	0	0	1	4	0
OTU 27	0	1	0	3	0	0	3	0	0	0	0	0	35	0	1	0	0	0	0	0	0	0	0	7	0	5	0	0	0	0	0	0	0	0	0	0	2	0	0	40	2	110	0	0	0	16	0	0	0	4
OTU 28	44	12	7	0	17	14	9	3	320	2	1	3	31	73	259	101	10	143	57	102	1427	139	60	123	51	12	148	4	71	48	36	31	181	12	22	8	0	4	158	9	70	174	6	5	5	9	45	4	80	105
OTU 29	276	10	0	50	63	3	13	10	37	60	13	28	54	67	16	38	5	0	10	68	56	34	3	0	86	42	60	5	97	34	0	0	30	5	32	1	0	94	86	3	13	14	1	10	0	20	125	104	4	53
OTU 30	0	0	0	0	0	0	0	0	0	0	0	0	0	0	0	0	0	0	0	0	0	0	0	0	5	0	0	0	0	0	0	0	0	0	0	0	0	0	0	0	0	0	0	0	0	0	0	0	0	0
OTU 31	0	0	201	13	4	2	0	104	282	0	0	1	1	2	0	0	16	0	0	0	1	61	60	1	15	8	29	0	1	0	2	333	9	13	0	19	7	0	9	10	47	20	0	0	3	41	51	0	78	0
OTU 32	40	137	18	77	1561	22	28	74	33	89	112	110	78	19	33	90	35	26	76	584	95	0	86	3624	25	4	13	45	9	18	102	80	8	16	12	467	44	158	70	11	50	1308	0	197	26	30	115	37	5	396
OTU 33	0	0	0	0	2	0	0	0	0	0	0	0	0	0	0	0	1	0	0	0	0	0	0	0	0	0	0	0	0	0	0	0	0	0	0	8	0	0	0	0	0	0	0	1	0	0	0	0	0	3
OTU 34	194	46	42	4	49	6	69	48	23	15	240	3	14	15	35	4	31	37	122	6	26	3	28	8	51	58	2	19	118	17	39	19	10	18	35	24	0	18	26	35	92	27	2691	44	1	9	4	91	0	7
OTU 35	41	0	42	11	1	4	10	12	112	3	65	7	1	21	9	7	7	0	9	32	57	12	82	6	86	2929	2	0	22	15	82	11	20	0	0	2	2	7	9	2	0	12	20	20	10	3	26	38	85	3
OTU 36	16	38	16	0	54	0	1	51	4	0	0	2	13	31	1	4	0	6	81	9	30	19	1	24	24	2	21	22	44	3	12	0	69	25	8	23	43	10	17	24	26	1	1632	78	45	28	21	9	31	11
OTU 37	6	18	0	0	0	5	0	4	58	0	32	0	19	34	0	0	3	0	1	0	0	68	0	1	30	10	2	9	4	1	3	0	23	4	8	3	0	0	0	8	0	3	4	0	21	5	180	0	0	0
OTU 38	36	36	66	101	1	10	3	10	104	34	38	51	0	5	8	1	13	25	8	14	7	5	52	4	31	11	0	15	28	4	82	34	213	35	4	10	24	63	39	18	9	23	9	28	2	11	5	3	141	11
OTU 39	1	30	0	43	0	5	25	64	0	0	4	7	22	64	15	3	3	9	0	0	0	0	0	0	6	0	0	17	0	7	0	0	0	25	2	0	1	1	6	4	0	4	1	75	0	0	1	0	0	8
OTU 40	353	81	2	45	991	17	132	14	22	3	28	1	2	1137	3	29	21	0	30	75	19	13	18	59	19	3	6	37	2	1	0	10	146	7	1	3	0	10	28	8	56	15	21	50	3	1	10	36	66	3
OTU 41	7	9	0	22	17	10	2	0	1	47	63	8	2	6	29	4	14	2	0	24	46	0	4	15	1	1	22	6	26	0	7	1	36	1	6	0	3	20	97	35	6	42	8	29	2	9	1	0	12	7
OTU 42	13	34	63	0	0	0	0	2	11	0	3	0	0	0	37	0	1	27	8	10	0	22	0	0	0	4	19	19	7	0	0	0	18	16	1	3	0	1	1	4	0	0	0	4	5	0	0	23	34	1
OTU 43	0	0	0	0	0	0	0	0	0	0	0	0	0	0	0	2	0	0	0	0	0	0	0	0	0	0	71	0	1	0	0	0	0	0	0	0	0	0	0	0	0	23	0	0	0	1	0	0	0	0
OTU 44	0	90	0	0	0	9	0	0	7	0	208	0	4	0	36	37	7	37	0	3	0	0	31	0	0	0	0	42	3	4	76	0	14	0	0	0	37	0	21	2	18	0	10	0	5	4	0	13	0	0
OTU 45	758	1	2	0	566	35	20	115	88	42	34	93	667	25	897	46	52	581	87	63	13	20	58	415	28	29	80	0	9	2	284	68	138	1	29	6	39	71	161	0	2	217	18	38	6	14	78	92	7	9
OTU 46	23	157	0	632	43	2	1	111	10	20	53	16	1	14	12	180	1	0	2	5	19	291	30	112	17	57	162	3802	48	59	2637	30	0	72	15	91	0	28	157	0	12	291	2	4	1	9	109	52	81	4
OTU 47	114	4	0	0	0	0	2	0	0	0	37	14	2	10	13	119	0	1	1	8	0	22	4	0	8	0	60	6	0	9	41	0	110	1	0	0	4	22	1	17	0	1	3	0	0	0	0	0	40	0
OTU 48	5	147	10	1820	2	0	1741	57	0	135	79	55	6	1	43	97	6	25	64	27	56	16	7	17	55	108	74	83	8	37	62	0	1	18	18	24	2	182	28	72	36	66	59	210	21	38	32	33	10	9
OTU 49	0	0	0	10	0	3	22	0	0	16	0	6	175	1332	14	4	3	0	21	6	11	9	23	0	97	0	0	0	79	5	0	0	1	4	35	1	5	41	59	33	0	73	0	1	4	1	144	3	13	44
OTU 50	8	6	104	27	51	4	35	40	15	51	21	16	28	105	107	4	8	10	36	0	41	14	101	48	65	16	35	2	17	18	76	38	14	202	7	10	28	57	61	121	52	45	16	66	1	8	38	78	48	21
OTU 51	14	39	18	40	17	1	1	72	64	18	64	21	18	41	2	140	1	0	0	76	11	103	0	21	70	0	179	19	9	7	14	2	13	0	1	1	4	25	4	0	108	4	0	12	14	2	59	7	12	42
OTU 52	76	146	9	397	29	28	147	25	32	416	358	389	18	22	118	83	55	13	101	134	23	86	3	141	2	142	114	79	180	292	23	9	60	2350	21	0	13	749	36	48	66	27	10	40	21	82	29	265	41	15
OTU 53	0	0	0	2	0	0	0	0	0	0	0	0	0	0	0	2	0	0	8	1	0	0	0	1	0	31	56	0	10	0	0	0	2	0	0	0	0	0	0	0	0	0	0	0	0	0	1	0	0	0
OTU 54	216	128	193	31	40	21	29	17	30	66	27	33	793	64	11	117	51	8	143	33	26	44	45	34	84	10	0	43	78	2104	672	6	4	12	20	7	10	76	251	14	14	61	20	42	23	13	85	69	77	5
OTU 55	1	0	0	0	0	0	0	0	0	0	0	0	0	0	6	0	0	0	0	0	0	0	0	0	0	0	0	0	0	0	0	0	0	0	0	0	0	0	4	0	0	0	0	0	0	0	0	0	0	0
OTU 56	6	0	6	0	2	0	2	22	33	28	0	57	2	1	47	3	4	7	13	18	1	6	108	3	2	0	3	0	15	6	10	70	104	14	0	3	0	109	0	3	0	2	0	1	0	4	0	3	5	21
OTU 57	45	208	66	72	159	109	8	309	13	64	47	45	106	0	116	274	200	75	136	201	90	141	51	162	77	41	185	97	502	20	65	37	100	159	116	1036	745	158	74	214	219	180	167	187	136	157	41	208	216	25
OTU 58	1	3	94	27	4	11	13	0	13	2	65	1	0	1	138	0	3	27	7	13	21	1	0	6	3	0	2	1	24	0	0	0	26	8	8	2	10	2	5	1	176	53	48	52	9	98	154	0	1	13
OTU 59	1	27	18	14	51	87	2	87	6	4	0	26	0	3	52	3	174	2	2	25	25	3	57	8	18	36	0	11	18	23	2	51	0	0	91	109	23	45	37	138	184	55	88	10	60	167	1	18	14	0
OTU 60	15	54	6	22	8	3	41	145	43	81	3	400	37	14	31	12	38	37	15	72	46	223	1	59	91	9	73	29	53	88	14	0	69	140	84	23	17	55	20	1	108	17	53	84	0	119	70	36	41	38
OTU 61	73	37	41	350	17	76	1	49	18	93	9	205	54	18	104	32	123	74	1660	114	1	19	6	63	5	52	88	23	253	9	42	0	128	16	68	18	2	376	82	33	89	0	46	45	10	54	131	229	97	23
OTU 62	4	14	11	0	29	12	0	0	90	0	1	1	44	17	4	132	20	0	9	7	6	157	14	19	3	27	20	10	0	0	1	14	7	5	0	0	1	0	6	0	0	0	0	0	8	2	1	0	0	4
OTU 63	5	132	11	1	15	0	7	114	10	0	18	2	2	0	49	1	0	7	42	2	1	0	3534	0	1	13	0	48	1	0	23	1803	82	116	0	91	0	1	12	5	8	15	3	14	0	0	2	0	317	38
OTU 64	134	12	12	2	34	17	315	40	105	36	11	70	55	115	143	172	35	96	46	3	37	111	90	75	46	35	299	3	76	3	46	368	196	8	30	23	10	104	18	30	11	16	5	29	24	1	346	2	49	215
OTU 65	0	0	1	0	0	0	0	0	20	0	0	0	1	0	0	17	0	2	1	0	0	0	4	0	0	0	82	0	0	0	5	5	7	0	0	0	0	0	0	0	0	1	0	0	0	3	0	0	0	0
OTU 66	84	28	57	34	3	0	31	35	1738	0	6	17	33	25	40	4	1	4	2	6	11	15	698	12	10	39	22	14	30	7	15	397	9	1	2	16	6	27	60	63	22	16	1	104	18	19	8	41	0	8
OTU 67	5	41	95	16	13	2461	48	28	33	2	3	0	4	11	15	115	4	0	28	32	42	4	4	17	32	14	160	16	4	8	91	4	3	5	0	10	0	0	0	13	9	29	4	63	33	3	63	37	67	28
OTU 68	2	9	122	0	10	109	59	30	0	1	0	2	1	1	35	1	279	22	0	32	0	33	8	0	6	2	21	4	0	200	11	9	3	4	411	53	339	0	22	638	658	6	129	4	101	431	2	0	119	45
OTU 69	15	31	73	387	0	12	0	24	4	293	70	296	1	65	44	40	30	30	2	165	0	20	0	44	15	5	28	12	14	2	26	2	2	10	67	13	0	580	6	7	58	19	41	109	30	28	95	85	137	33
OTU 70	0	0	7	7	32	13	1	252	69	188	45	120	39	23	107	0	16	69	1	1	0	197	9	23	3	9	149	0	120	30	0	15	16	1	24	132	18	265	19	45	1	21	2	22	0	28	0	0	0	44
OTU 71	6	33	20	0	724	0	32	0	95	26	6	4	53	89	6	1	0	11	132	125	38	0	1	126	3	0	6	19	0	7	4	0	3	14	10	0	6	46	0	2	7	29	0	6	27	0	3	14	10	15
OTU 72	107	54	30	50	43	0	0	10	14	5	9	12	101	94	59	4	11	34	1	40	6	1	10	28	35	24	35	35	9	30	2	5	121	1	94	60	41	72	64	0	42	18	12	2	1	12	43	39	7	161
OTU 73	24	53	10	22	8	2	7	266	29	19	14	35	10	0	29	0	7	0	0	17	3	6	5	0	48	101	19	28	0	23	0	5	11	121	0	185	22	24	14	12	8	86	1	16	1	2	40	49	66	1
OTU 74	21	54	2	41	17	11	0	25	3	19	26	6	215	15	6	79	26	0	26	90	59	70	31	1	190	207	2	33	3	34	64	14	51	12	42	0	3	15	55	46	34	6	84	21	65	104	56	119	0	2
OTU 75	52	0	0	27	18	131	40	151	5	14	11	30	8	80	31	52	251	10	11	20	386	529	22	24	13	19	1	0	315	119	65	1	82	36	132	146	135	17	0	96	557	5	107	13	120	341	8	0	65	9
OTU 76	0	62	0	0	2	0	4	63	1	1	19	0	0	2	6	0	0	0	1	111	1	7	0	8	0	2	0	37	1	0	1	0	0	3	4	8	0	12	5	0	0	2	0	135	1	0	2	46	0	0
OTU 77	72	2	139	6	5	55	963	91	31	1	133	0	5	20	34	13	78	5	5	0	70	28	69	6	69	26	0	1	133	93	1	31	10	49	76	25	0	3	28	53	70	2339	42	49	4	0	51	39	346	18
OTU 78	110	318	141	16	188	20	189	63	0	36	185	8	60	27	42	177	35	28	9	132	123	65	54	122	8	105	216	160	265	5	32	23	83	40	14	13	0	60	27	65	21	35	6	34	12	45	78	191	0	6
OTU 79	137	50	28	98	56	77	29	112	67	59	93	57	60	89	264	153	177	30	177	146	136	175	38	203	94	114	82	29	38	881	98	13	47	303	2030	33	3903	44	862	1950	209	104	99	188	29	144	53	159	231	185
OTU 80	33	16	4	14	11	9	5	3	22	9	113	16	2572	36	12	72	18	3	33	2	34	43	88	17	172	3	2	8	26	20	1174	65	21	0	47	0	8	12	12	24	1	3	3	159	18	21	66	10	14	57
OTU 81	76	17	86	55	17	14	128	2	9	33	133	49	43	30	10	120	8	26	84	83	10	30	84	10	19	12	6	8	24	384	582	53	37	49	20	55	27	25	642	14	24	2	9	2	23	12	31	54	173	83
OTU 82	27	2	134	38	23	0	18	30	3	2409	152	207	7	37	124	99	0	43	13	74	39	1	39	26	1	19	255	3	4	4	31	21	41	278	0	88	12	213	56	9	1	0	0	12	22	6	10	4	87	122
OTU 83	0	0	45	0	3	0	15	1	0	0	0	0	0	10	0	1	0	0	3	0	0	74	0	5	0	0	0	0	15	0	13	0	140	0	2	0	0	0	0	0	1	1	9	0	0	0	0	88	44	0
OTU 84	10	0	75	135	22	13	8	25	21	172	60	78	44	3	130	0	2	39	40	3	0	1	5	111	20	7	30	0	26	13	273	0	33	15	21	49	12	197	0	1	9	77	0	13	1	27	18	8	153	4
OTU 85	2	125	0	3	5	0	15	0	1	2	0	9	17	0	7	25	0	9	0	0	0	9	2	0	4	1	8	64	4	5	0	0	7	0	0	10	1	5	0	7	77	0	0	0	3	3	0	1	0	121
OTU 86	0	6	0	0	0	0	0	0	0	0	0	0	0	0	0	0	0	0	0	0	0	0	1	2	0	65	0	2	2	0	0	3	0	0	0	0	0	0	5	2	0	28	0	0	0	0	0	0	0	0
OTU 87	54	0	0	87	1	0	0	1	0	0	3	0	0	5	2	2	0	0	0	0	1	2	11	1	0	4	4	0	0	0	0	0	67	27	0	26	0	0	1	8	2	0	0	13	6	1	2	5	6	39
OTU 88	30	0	0	2	0	0	0	0	1	0	4	0	0	0	9	0	0	0	10	0	1	0	0	0	0	0	2	0	110	0	0	0	0	1	0	0	6	1	0	1	6	2	5	3	0	0	17	20	25	1
OTU 89	889	1	12	4	41	50	0	1	15	0	0	1	2	0	36	5	124	44	564	0	3	0	16	3	38	0	68	0	0	0	0	6	0	0	29	0	71	0	505	40	0	17	1	57	14	15	9	8	57	21
OTU 90	0	0	0	30	35	0	32	0	2	5	5	0	0	0	6	0	0	2	0	0	7	0	33	3	0	0	0	0	24	0	0	12	0	0	0	0	2	0	2	0	1	0	1	0	0	0	0	33	12	0
OTU 91	0	0	0	0	0	0	0	0	1	0	0	0	0	0	0	5	0	0	22	0	0	0	0	0	0	0	1	0	4	0	0	0	0	0	0	0	0	0	0	13	0	2	54	0	4	1	0	0	12	10
OTU 92	27	31	0	6	0	18	12	5	0	0	0	0	88	0	0	0	24	1	0	1	3	0	0	35	0	53	0	22	3	0	0	0	0	4	3	0	0	0	5	4	108	4	7	104	7	20	58	0	0	5
OTU 93	0	0	0	0	0	1	0	32	0	0	0	3	0	6	0	0	2	0	0	8	0	0	2	0	9	0	0	0	41	7	0	0	1	1	0	21	0	0	0	3	0	1	1	0	0	0	0	0	2	0
OTU 94	0	17	37	144	2	1	65	75	132	47	23	12	81	246	29	167	4	21	27	74	99	135	5	1	59	20	17	7	33	14	15	3	15	50	3	22	38	29	13	45	137	15	80	86	2	87	22	30	235	22
OTU 95	15	18	0	1	98	3	81	1486	0	1	0	0	0	1	5	19	0	0	10	3	0	10	11	1	21	0	9	11	2	1	1	4	44	180	3	754	0	0	0	0	12	7	13	7	1	0	58	0	2	10
OTU 96	0	12	0	0	0	0	0	0	0	0	0	0	0	34	0	0	0	0	2	0	0	0	1	0	0	0	0	6	1	0	0	0	80	0	0	0	3	0	0	11	3	0	30	0	0	38	0	11	0	0
OTU 97	1	0	0	0	0	0	0	0	0	0	0	0	0	0	0	0	7	0	0	0	9	0	18	0	0	0	0	0	0	0	0	12	0	1	7	0	0	0	0	0	0	0	0	0	0	5	0	9	0	6
OTU 98	6	0	7	19	0	1	25	0	82	0	0	1	1	3	0	3	4	0	2	0	0	4	1	7	19	0	0	0	1	3	1	0	32	0	12	2	0	0	0	3	20	0	10	6	0	0	2	0	0	7
OTU 99	4	81	12	43	75	55	0	13	30	57	0	38	198	0	119	2	71	15	28	57	2	21	9	56	33	6	44	25	19	5	4	6	77	12	7	4	31	64	1267	12	102	8	2	17	39	15	31	43	121	26
OTU 100	23	66	24	12	3	35	62	92	11	2	7	6	11	0	0	1	67	0	19	45	6	16	0	1	44	44	100	32	108	5	4	2	80	1	106	36	1	0	14	0	63	0	62	0	4221	11	49	3	66	64
OTU 101	9	0	0	0	0	0	23	1	0	4	0	8	0	0	0	0	0	0	0	0	0	0	0	0	0	0	0	0	16	0	0	0	0	0	7	0	0	0	35	0	0	0	0	0	2	0	0	4	1	34
OTU 102	2	0	6	17	1	3	3	38	14	0	14	0	16	0	13	0	0	5	5	4	0	0	0	0	0	8	0	0	35	1	61	0	28	8	5	11	0	8	0	1	5	25	28	0	0	0	0	55	0	3
OTU 103	2	20	39	16	8	0	8	8	2	109	3	39	96	1	35	0	0	21	61	11	19	9	16	0	1	16	2	12	10	0	5	2	0	3	10	7	0	125	0	0	1	27	5	95	1	0	45	5	7	49
OTU 104	25	235	46	26	51	41	149	233	26	26	81	1978	29	65	78	25	46	68	68	10	42	36	36	117	100	232	0	128	21	98	4	6	28	29	11	164	8	23	10	58	20	110	1	97	2	23	526	26	51	4
OTU 105	0	0	77	1	0	0	2	0	1	22	125	0	0	1	0	1	0	0	141	0	9	27	5	0	0	57	0	0	3	0	1	11	7	0	0	0	7	0	0	13	45	0	9	41	0	0	0	0	2	1
OTU 106	17	0	19	4	27	0	1	0	0	0	7	0	17	14	0	1	0	1	2	17	0	0	4	0	0	0	2	0	3	4	0	0	293	36	0	0	0	15	0	0	1	0	3	10	0	5	1	2	32	0
OTU 107	0	1	358	0	0	6	40	11	256	5	17	17	0	0	5	3	1	3	13	234	37	58	32	5	18	0	7	0	12	0	2	8	2	6	1	2	38	3	12	0	64	0	0	297	18	13	19	10	0	45
OTU 108	8	181	23	269	2	0	63	0	12	22	0	39	0	128	0	138	3	13	8	14	0	5	6	30	101	77	6	93	38	10	1	0	114	4	5	1	385	39	64	15	0	3	530	110	9	1381	35	3	19	0
OTU 109	0	30	0	0	0	0	0	0	0	0	0	0	0	0	0	0	0	30	0	0	0	0	0	0	0	0	0	20	0	0	0	0	0	0	0	0	0	0	36	0	0	0	0	0	0	0	0	0	0	1
OTU 110	16	65	35	8	25	21	0	62	4	0	0	9	26	2	79	46	18	30	34	1	143	162	25	44	4	12	1	30	9	12	3	3	0	26	22	60	25	2	47	1	127	59	72	20	38	100	10	197	17	28
OTU 111	0	50	35	0	0	0	0	0	0	30	7	17	0	1	0	0	5	6	0	0	0	2	27	0	0	2	0	783	33	1	0	28	0	0	0	0	6	54	0	0	2	7	4	12	0	0	0	0	0	0
OTU 112	52	17	4	0	35	1	4	67	0	2132	5	11	0	2	0	5	6	7	0	0	44	62	1	2	0	2	147	9	103	1	34	1	0	210	0	10	0	68	36	11	4	41	1	8	0	12	10	6	105	0
OTU 113	0	4	0	57	0	5	32	0	10	0	2	0	1	0	0	0	5	1	0	0	135	26	1	0	0	0	0	1	1	0	0	0	37	5	0	0	0	0	0	0	0	24	3	3	12	0	0	0	0	0
OTU 114	30	4	89	81	1	109	10	126	1043	27	29	84	5	1	45	37	202	6	22	10	31	163	492	9	102	124	171	2	146	39	88	486	31	28	21	36	39	86	9	10	57	39	51	18	132	73	41	170	21	14
OTU 115	291	189	67	109	16	37	9	86	63	81	161	46	25	20	48	48	125	8	6	15	96	4	51	6	3	163	17	88	36	1444	8	20	167	174	7	21	14	109	26	97	102	46	66	65	12	46	299	214	129	110
OTU 116	180	30	3	52	10	43	108	41	59	24	7	53	84	9	58	21	59	27	1889	19	1	14	3	40	131	16	71	23	23	869	25	0	240	27	43	2	0	58	0	8	55	7	6	194	13	3	21	5	93	92
OTU 117	0	7	35	73	0	10	5	29	1	11	0	8	52	2	136	9	17	92	0	73	11	25	2	0	3	0	48	2	0	1	46	20	7	38	2	22	61	46	14	7	3	29	2	56	0	2	33	80	12	15
OTU 118	0	1	0	0	16	0	0	0	0	84	5	79	0	17	0	0	0	4	1	0	40	4	23	2	0	16	30	0	29	0	0	6	112	1	1	23	0	193	0	0	0	11	0	79	0	0	7	1	0	46
OTU 119	97	4	16	72	54	44	1	40	11	26	34	22	7	3	14	0	90	4	14	54	0	1	6	19	362	6	6	0	6	7	33	14	44	2	6	3	14	18	17	3	4	5	2	26	21	14	83	31	59	69
OTU 120	40	27	4	1	2	0	27	1	3	0	0	1	54	0	2	5	0	0	22	0	0	0	20	0	129	0	11	16	1	42	100	16	51	0	47	0	9	2	2	87	2	0	1	23	0	0	0	26	0	5
OTU 121	1285	0	67	75	113	6	66	3	94	17	189	13	5	31	173	34	18	86	19	4	3	4	7	133	12	0	153	0	38	1	0	9	67	30	2	0	3	51	729	1	7	39	0	23	6	0	37	0	10	89
OTU 122	4	0	70	12	0	27	93	9	64	73	90	148	51	20	15	34	23	88	0	99	55	39	168	13	23	26	0	0	28	0	21	93	34	0	4	49	1	247	39	8	17	4	1	10	39	2	69	2	6	22
OTU 123	137	1112	589	425	1534	39	156	72	367	202	88	191	77	38	160	314	66	83	81	1733	51	45	312	174	12	511	353	579	969	33	115	111	1229	233	21	1986	43	484	144	53	64	136	29	1955	19	110	247	758	137	190
OTU 124	0	29	1	35	4	4	5	2	0	0	35	8	0	16	95	0	12	106	11	0	67	2	0	2	0	0	16	15	0	6	4	0	74	3	2	0	38	6	1	0	13	5	17	0	0	0	115	1	124	74
OTU 125	369	207	152	74	66	23	211	96	66	172	216	72	133	413	511	167	51	213	116	135	183	198	97	167	325	127	108	97	62	15	73	62	291	101	64	59	35	250	181	3322	41	42	38	36	99	100	37	156	205	130
OTU 126	0	221	0	6	15	1	17	101	0	0	0	0	0	0	99	90	6	77	0	0	44	276	16	130	0	13	16	101	16	26	0	3	1	0	5	113	0	0	0	49	63	13	6	0	2	2	0	4	0	0
OTU 127	2	26	54	34	0	0	29	12	1	2	95	402	33	22	3	1	0	4	0	28	2	1	8	34	293	37	100	12	33	87	116	9	3	5	0	1	0	8	9	1	0	18	3	1	0	14	0	0	5	271
OTU 128	30	576	227	30	99	83	15	207	24	48	443	62	60	134	48	161	145	16	49	117	376	1143	172	8	297	246	544	276	117	116	128	52	566	74	104	127	167	129	133	61	320	74	32	127	113	129	83	58	35	109
OTU 129	2	3	33	0	0	0	4	575	0	5	0	0	0	1320	0	0	0	0	12	83	7	0	6	0	120	2	5	1	0	2	0	4	0	0	8	229	0	0	35	0	0	1	0	0	0	0	12	0	0	0
OTU 130	23	6	69	127	2	26	13	18	0	10	2	27	15	132	139	138	45	21	30	37	843	1225	0	1	0	0	1	3	9	8	4	0	40	90	4	28	16	21	22	0	0	2	0	13	5	1	211	99	30	26
OTU 131	0	42	58	6	4	2	0	0	101	0	9	955	79	54	6	1	22	1	34	25	5	25	15	31	1803	2	0	25	1	6	8	2	0	15	3	5	0	9	51	2	53	32	0	39	19	6	267	257	75	0
OTU 132	4	115	38	5	32	4	8	0	3	34	2	27	8	0	17	7	15	10	2	2	9	35	0	108	30	137	14	53	0	9	6	0	8	10	13	3	32	31	19	4	21	1	8	0	2	17	16	18	24	3
OTU 133	162	0	0	0	0	0	0	2	0	7	0	0	1	0	48	0	0	8	1	0	0	1	1	31	0	0	11	0	0	4	0	0	0	0	0	6	2	3	8	1	2	0	0	0	0	1	0	0	6	0
OTU 134	2	57	5	4	6	84	0	41	14	175	35	16	0	85	1	58	165	14	1	77	8	9	14	14	13	3	55	23	22	18	21	8	0	11	27	13	1	49	7	0	6	34	20	2	35	2	1	15	1	36
OTU 135	3	40	11	10	58	3	10	7	1	30	4	0	2	18	4	49	11	12	0	8	4	32	1	59	1	4	4	17	25	2	3	1	0	0	12	0	21	17	34	37	6	18	0	9	7	55	91	50	9	159
OTU 136	0	45	2	7	59	1942	4	3	7	4	27	1	48	0	2	0	3876	2	28	28	1	12	5	28	135	186	49	22	19	9	3	0	8	38	19	0	10	20	0	3	0	0	4	0	2261	1	4	19	15	3
OTU 137	21	19	6	0	1	12	180	0	2	3	3	0	435	12	10	117	30	8	4	0	0	2	56	7	43	21	51	6	38	0	42	28	7	7	27	2	16	3	75	1	16	15	9	0	47	2	1	82	0	150
OTU 138	48	0	56	0	1	2	0	5	21	13	21	0	5	7	5	0	3	0	2	0	0	1	4	1	0	0	0	0	1	0	0	7	13	2	1	0	4	0	15	4	96	3	36	29	36	32	63	29	0	2
OTU 139	238	67	606	102	281	14	20	168	313	90	14	79	168	13	1190	153	29	440	1219	694	1	6	290	559	45	22	475	39	136	35	140	138	51	272	86	117	35	133	222	62	112	1669	37	1259	61	71	135	46	385	34
OTU 140	45	260	54	101	131	2	52	34	40	29	119	38	37	2	219	10	14	132	110	48	119	112	210	142	165	84	109	116	78	23	15	63	62	27	58	40	75	80	37	107	132	155	58	30	67	8	22	32	104	85
OTU 141	2	25	0	0	0	8	0	0	0	0	0	0	0	0	1	0	21	14	0	0	0	1	25	0	0	0	0	16	0	0	0	8	0	0	0	0	0	0	0	0	60	0	6	0	0	7	0	0	23	0
OTU 142	0	0	35	3	0	0	0	0	0	0	0	2	12	0	0	5	0	0	4	0	0	0	0	0	37	0	0	0	0	0	0	0	0	13	0	0	0	1	0	0	4	0	0	0	0	0	0	0	0	0
OTU 143	0	0	0	14	0	0	0	0	0	25	0	0	11	1	0	2	0	0	0	0	0	0	0	0	0	8	0	0	0	1	1	4	0	50	40	0	15	21	0	30	35	0	15	0	0	156	5	28	62	83
OTU 144	33	2	0	8	1	0	17	2	0	0	9	0	0	25	5	7	0	0	59	52	0	25	0	5	0	0	0	0	4	696	6	0	11	2	7	10	2	3	4	0	0	0	0	0	0	19	0	0	22	7
OTU 145	83	9	6	7	4	34	4	14	95	4	16	0	48	12	42	22	69	10	61	60	38	133	32	40	89	8	20	7	67	2	43	11	6	7	2	12	2	18	29	10	1	0	17	7	100	7	84	52	99	120
OTU 146	2	24	19	18	23	32	5	10	25	0	0	34	18	95	163	0	68	107	16	1	30	41	2	7	76	10	25	14	75	35	14	5	20	38	0	10	0	30	16	19	26	2	0	6	32	1	408	1	64	22
OTU 147	1	54	5	21	42	6	2	39	2	12	51	4	7	0	1	2	4	0	0	0	0	57	61	4	17	0	3	20	0	21	1	22	124	20	12	3	0	4	13	0	56	1	3	42	1	9	1	2	18	0
OTU 148	5	41	53	23	3	3	19	2	49	31	13	96	0	26	238	1	8	433	39	38	36	54	23	43	4	38	27	28	32	18	1	6	33	49	3	0	15	176	18	55	29	28	5	0	0	64	225	223	89	5
OTU 149	14	2	28	0	26	0	3	16	14	0	5	0	8	5	0	0	0	0	0	18	3	1	1	2	104	28	0	1	1011	0	41	4	0	0	64	15	2	1	0	1	1	0	0	3	0	0	1	9	0	14
OTU 150	3	1	0	11	0	0	223	21	4	10	10	8	3	14	0	30	0	28	0	1	17	0	0	1	7	0	3	0	1	3	2	0	0	0	0	4	1	77	1	0	0	0	1	0	2	14	1	0	2	5
OTU 151	13	0	2	49	32	11	6	1	21	21	0	28	1	0	15	3	6	18	0	0	23	0	2	31	10	0	2	0	0	3	1	0	330	0	0	0	1	5	0	12	10	29	0	55	0	26	22	0	0	5
OTU 152	107	2	91	9	143	12	72	186	54	1	37	7	22	0	92	63	75	13	28	40	13	49	19	98	3	58	360	1	2	37	79	0	50	31	19	128	3	8	26	11	96	19	4	0	44	8	1	6	66	8
OTU 153	0	0	0	9	0	0	0	4	0	9	11	5	3	0	9	1	0	0	0	0	0	0	1	0	3	0	7	0	0	0	0	2	7	0	0	0	0	1	0	7	1	0	0	0	42	0	0	0	0	9
OTU 154	0	0	1	656	79	17	0	0	0	0	0	0	0	0	0	0	27	0	13	0	0	0	0	0	0	0	0	0	0	0	0	1	9	35	0	0	0	0	0	0	54	0	0	0	8	0	0	0	147	0
OTU 155	3	36	169	24	0	8	117	15	2	145	172	82	24	0	0	19	35	2	8	0	0	17	23	2	35	0	5	21	0	6	28	3718	0	0	9	9	5	169	35	6	0	49	1	0	0	24	8	0	0	3
OTU 156	22	58	5	14	9	0	1	65	81	45	187	41	41	32	3	80	0	24	28	91	1	5	68	7	95	47	34	24	17	75	37	25	192	50	32	20	5	92	20	59	1	68	1	3	7	4	50	41	184	122
OTU 157	6	16	1	0	2	0	0	0	3	0	29	0	78	1	25	1	0	23	0	0	0	3	5	125	20	0	21	9	0	7	57	0	0	221	5	0	0	0	4	38	28	0	0	5	0	0	0	59	210	13
OTU 158	0	0	0	0	0	0	0	0	0	0	74	0	9	2	0	0	0	5	0	0	0	0	0	0	0	0	0	0	0	0	0	0	0	0	0	0	0	0	0	0	0	0	0	3	0	0	0	0	0	0
OTU 159	67	7	15	21	24	0	46	33	2	2	17	5	33	35	8	781	16	29	0	58	0	68	57	26	33	4	12	3	13	47	112	6	197	0	0	1	9	2	28	0	17	0	0	3	0	0	13	0	9	102
OTU 160	167	439	26	165	67	4	236	25	54	43	213	83	263	24	3	138	13	36	14	65	29	109	109	155	205	130	114	210	45	50	73	88	116	98	20	54	241	112	106	30	79	73	9	75	14	24	161	175	14	175
OTU 161	12	6	2	0	1	39	14	26	18	14	3	30	46	0	0	93	92	4	0	58	2054	19	2	41	124	0	18	4	60	41	4	2	39	23	16	36	12	50	31	38	58	20	12	44	24	14	30	0	2	2
OTU 162	15	12	116	19	26	24	50	45	34	10	45	14	151	11	31	12	27	25	32	17	39	28	38	64	57	12	11	4	334	0	10	10	83	0	25	87	109	19	64	60	231	167	38	5	75	62	14	7	8	36
OTU 163	9	0	0	0	0	0	0	0	0	0	0	0	0	0	0	0	0	0	0	0	0	30	0	0	0	0	0	0	0	0	0	0	0	40	0	2	0	0	0	0	0	0	0	1	0	0	0	0	0	0
OTU 164	0	0	0	0	0	0	0	0	2	0	0	0	0	0	0	0	0	0	0	0	0	0	0	0	0	0	2	0	3	0	0	0	3	0	0	0	0	0	0	0	0	0	0	6	2	0	0	0	0	0
OTU 165	0	1	1	17	6	2	62	1	0	3	5	1	89	15	0	5	9	3	9	3	4	24	3	0	0	34	1	0	40	2	3	1	12	2	0	0	3	13	0	4	8	0	2	102	2	3	53	59	142	22
OTU 166	0	0	0	0	0	0	0	0	0	0	0	0	0	0	0	0	0	0	0	0	0	2	0	0	0	0	0	0	0	3	0	0	0	6	0	0	1	0	4	0	0	0	0	5	0	0	3	0	0	0
OTU 167	38	8	13	3	32	34	0	160	2	20	7	15	11	0	6	2	48	1	0	24	4	1	7	2	6	14	1	5	300	18	22	1	38	31	31	37	33	63	1	3	40	5	4	78	65	26	0	8	0	4
OTU 168	75	12	13	8	26	5	278	8	6	15	14	34	0	7	115	1812	12	29	0	0	29	23	9	0	116	2	55	3	4	45	38	0	3	7	6	34	22	81	30	9	39	2	0	82	0	4	0	43	35	6
OTU 169	0	18	0	0	0	0	0	0	0	0	0	0	0	0	0	0	0	0	0	7	0	0	20	0	0	0	3	12	64	3	0	13	5	0	39	0	0	2	2	28	0	0	1	0	0	0	9	0	0	0
OTU 170	0	0	0	0	0	0	0	0	14	13	0	0	0	0	0	0	0	0	0	1	0	0	0	0	0	0	0	0	5	1	0	0	0	27	1	0	0	0	0	0	12	0	10	0	0	0	62	0	0	0
OTU 171	38	3	110	23	5	6	39	67	218	89	0	69	18	69	1	20	1	31	0	208	0	6	14	0	12	21	72	0	4	14	5	12	17	1	3310	45	0	197	7	0	7	1	29	0	2	18	30	17	29	23
OTU 172	3	1	0	0	0	0	0	0	22	0	0	0	0	0	0	0	0	8	0	45	0	1	0	0	0	0	0	0	0	0	0	0	42	0	1	1	0	0	0	0	0	0	3	8	0	0	0	0	2	46
OTU 173	21	25	26	5	13	0	1	92	0	24	11	67	47	1	0	0	0	0	7	11	72	15	30	0	0	5	1	13	13	1	0	4	14	0	7	36	0	52	1	1	0	69	9	4	0	0	11	25	1	4
OTU 174	253	30	26	18	66	9	1435	16	0	8	0	31	247	4	342	0	4	192	1	20	0	12	68	174	64	0	0	18	1	8	87	38	0	1	8	0	17	11	73	216	1	18	2	42	18	22	55	76	24	3
OTU 175	10	0	81	38	5	0	0	28	0	0	1	0	0	0	0	24	0	0	2	0	0	18	0	6	1	6	24	0	14	0	269	0	0	6	0	27	1	6	1	3	0	1	0	14	0	1	2	18	1	8
OTU 176	0	35	23	65	49	34	20	10	3	39	38	82	42	88	3	6	51	0	35	12	215	387	31	79	11	1	13	23	83	6	52	20	0	33	21	15	6	204	28	13	18	32	21	97	3	23	99	91	256	263
OTU 177	34	3	22	142	21	40	13	30	180	12	31	11	116	8	67	18	60	0	29	25	26	8	5	25	4	1	69	1	5	8	20	5	81	11	39	6	51	31	46	80	160	8	24	5	9	14	101	8	78	12
OTU 178	2	2	2	0	2	8	0	0	0	0	2	0	6	0	1	0	8	0	84	19	2	0	77	6	2	1	43	0	6	0	0	38	3	83	58	32	0	0	0	7	0	0	0	1	0	3	2	1	24	7
OTU 179	0	0	12	1	2	13	23	159	11	1	8	11	14	8	22	34	17	23	52	4	4	2	3	16	15	0	7	0	1	1	25	0	318	31	0	52	10	12	1	2	34	1	13	0	38	53	0	0	3	2
OTU 180	146	186	59	114	91	1748	46	96	37	53	1486	52	46	31	49	771	78	42	81	15	23	56	92	24	406	422	1509	91	103	14	82	82	232	207	30	1252	241	45	54	52	146	64	367	50	70	822	167	137	212	354
OTU 181	12	13	0	29	11	1	20	0	3	0	8	0	5	69	32	6	0	42	43	0	61	28	0	6	10	27	4	9	10	6	30	3	4	20	0	3	7	9	8	6	36	19	1	1	5	27	0	30	206	14
OTU 182	0	0	17	0	0	0	0	29	0	1	3	0	15	1	0	0	0	0	8	0	18	0	0	0	0	0	0	0	0	23	0	0	0	0	0	42	0	3	1	0	0	0	0	0	1	0	0	76	0	4
OTU 183	69	0	38	12	25	0	57	79	20	12	2	1	0	0	54	2	1	14	37	92	13	123	0	0	23	23	3	0	79	24	6	0	65	40	9	27	7	31	17	20	59	19	0	3	23	37	36	33	76	20
OTU 184	15	47	42	0	0	0	3	14	0	0	5	3	1	8	0	0	0	0	101	1	8	62	7	0	0	5	14	24	7	1	7	1	7	16	4	1	0	7	3	2	1	31	4	0	12	0	72	106	10	0
OTU 185	35	17	35	49	1	2	91	51	9	42	48	65	0	28	24	22	1	0	224	11	91	5	10	9	55	0	40	153	37	32	24	4	8	1	73	20	44	52	27	45	33	106	15	13	2	37	91	300	97	9
OTU 186	0	1	0	28	68	3	0	35	47	5	24	14	19	0	12	13	17	44	1	14	0	31	0	4	0	0	26	1	3	0	12	1	0	21	59	2	0	34	5	0	0	0	6	8	0	0	9	0	13	23
OTU 187	138	19	66	27	69	33	25	35	191	17	62	25	9	57	40	50	41	12	13	123	62	97	5	63	63	109	72	11	21	44	61	8	160	65	24	13	21	19	27	3	48	26	4	73	20	56	114	73	141	55
OTU 188	22	72	1826	64	8	35	6	22	777	55	27	34	106	15	63	44	72	47	44	684	11	16	480	47	21	10	72	34	90	9	3	189	11	139	3	17	50	121	15	8	48	67	16	851	11	48	266	25	113	152
OTU 189	58	56	54	36	39	10	12	63	603	24	104	90	5	27	35	56	28	51	83	13	30	459	59	85	16	101	314	35	31	34	39	57	31	1	45	8	4	28	0	4	36	40	10	79	36	10	25	269	80	58
OTU 190	0	3	12	0	0	0	0	0	0	0	0	27	0	0	0	1	0	0	2	0	5	3	0	0	113	1	3	1	0	1	0	0	0	0	10	0	0	5	0	0	0	0	4	0	0	0	0	0	1	1
OTU 191	17	28	13	36	27	28	33	6	3	239	37	71	0	11	98	14	34	63	0	36	13	20	0	139	10	13	278	23	87	10	10	6	19	0	0	0	6	188	49	1	10	101	6	63	26	41	118	13	2	95
OTU 192	160	76	93	3	30	13	29	458	42	23	57	33	56	372	108	104	15	124	8	89	37	1	14	0	20	105	54	34	47	3	20	15	172	35	0	202	8	43	119	8	5	6	45	39	41	30	160	23	154	7
OTU 193	2	9	1	3	0	24	7	13	46	15	70	20	1	132	14	11	49	11	0	34	2	42	14	0	192	33	8	1	105	65	1	0	8	47	0	1	46	48	97	7	101	6	22	0	43	38	56	8	113	23
OTU 194	35	103	83	45	22	0	2	125	3	0	0	1	10	300	29	196	0	17	6	8	15	0	13	41	0	226	25	68	4	43	9	5	6	70	14	27	2	0	4	0	65	1	1	0	6	16	20	29	2	3
OTU 195	0	8	0	26	45	2	185	9	1	6	87	8	2	1	75	4	0	35	15	96	1	1	0	29	1	10	41	3	586	12	0	0	28	4	3	0	0	9	52	2	3	3	0	4	4	1	0	7	30	0
OTU 196	5	55	9	27	44	72	1	1	28	9	1	0	2	7	0	3	118	4	58	446	6	0	9	1	8	72	3	30	0	9	0	4	21	979	52	4	97	2	29	116	450	16	434	0	122	252	7	4	8	142
OTU 197	154	123	105	38	125	20	14	27	47	41	996	83	22	29	81	34	30	61	84	14	21	13	94	11	25	167	66	56	23	47	7	52	30	26	734	23	64	140	158	27	18	1	30	27	25	43	42	33	294	46
OTU 198	5	0	140	0	2	0	0	0	66	0	0	3	0	1	0	26	0	0	11	1	97	0	16	0	0	7	0	0	1	11	0	14	0	0	0	6	0	0	13	0	6	0	7	0	3	0	4	56	0	0
OTU 199	2	1	35	0	0	4	5	1	0	28	0	13	11	0	4	26	0	0	0	9	1	4	23	0	0	30	0	0	1	1	0	8	26	0	0	1	11	9	0	0	8	8	15	29	0	0	0	7	0	15
OTU 200	23	33	61	2	10	22	30	6	6	49	1	196	17	74	78	43	46	68	31	11	49	54	9	31	7	18	0	16	37	8	0	3	0	3	31	11	8	84	3	14	136	65	47	6	49	2	0	9	123	2
