	Host 1	Host 2	Host 3	Host 4	Host 5	Host 6	Host 7	Host 8	Host 9	Host 10	Host 11	Host 12	Host 13	Host 14	Host 15	Host 16	Host 17	Host 18	Host 19	Host 20	Host 21	Host 22	Host 23	Host 24	Host 25	Host 26	Host 27	Host 28	Host 29	Host 30	Host 31	Host 32	Host 33	Host 34	Host 35	Host 36	Host 37	Host 38	Host 39	Host 40	Host 41	Host 42	Host 43	Host 44	Host 45	Host 46	Host 47	Host 48	Host 49	Host 50	
OTU 1	79	159	2	2	4	10	4	120	2	1	110	1	6	24	31	0	106	38	129	120	3	247	5	86	0	1	194	0	24	18	77	18	237	0	7	63	123	2	1	0	20	106	157	17	159	28	12	14	0	81
OTU 2	1	12	58	0	0	0	1	0	21	0	0	8	55	12	1	37	0	0	0	0	11	10	0	0	4	97	0	76	4	30	3	0	0	0	0	0	2	0	0	12	1	0	3	3	0	0	4	0	31	9
OTU 3	8	3	58	1563	0	0	1	55	0	6	42	79	34	0	2	0	0	0	30	1	0	11	34	8	1	38	0	3	1	6	34	0	2	39	0	2	3	0	4	14	0	0	0	2	10	3	0	0	0	0
OTU 4	0	0	0	0	0	0	0	0	0	0	0	0	0	4	0	0	0	0	0	0	0	0	0	0	0	0	0	0	0	0	0	0	0	0	0	0	0	0	0	0	0	0	0	0	0	0	0	0	0	0
OTU 5	97	102	125	386	949	79	700	215	188	531	18	172	324	734	139	953	467	239	58	153	0	70	163	42	346	763	106	200	204	317	518	134	112	0	36	659	669	258	1138	164	81	58	243	215	9	93	268	470	1	341
OTU 6	19	22	5	1	1	4	20	35	2	3	1	26	12	14	2	59	12	7	27	10	6	94	1	11	158	27	3	17	4	1	2	27	23	34	0	21	0	0	13	20	128	22	60	5	5	13	299	118	5	9
OTU 7	53	76	91	15	37	69	2	14	69	60	3	44	510	47	46	74	366	98	116	72	10	15	41	44	16	123	111	98	47	99	107	34	151	10	15	55	47	30	109	0	262	102	84	108	12	28	23	336	36	55
OTU 8	7	52	189	318	157	114	19	69	75	15	16	13	5	39	28	53	3	60	265	5	32	140	50	155	48	111	16	233	16	113	58	141	18	73	11	183	1128	4	94	68	9	21	24	42	36	2	35	117	97	14
OTU 9	0	26	0	18	4	0	18	4	0	0	2	0	8	0	0	0	12	33	6	8	0	14	31	7	108	25	3	0	18	4	23	9	31	94	4	44	11	9	1	45	6	25	2	13	3	0	37	0	4	2
OTU 10	93	0	118	0	6	0	22	0	9	25	29	0	29	0	16	0	41	81	1	41	101	9	0	2	31	12	23	0	1	6	10	1	59	1	0	18	0	14	0	1	0	32	14	1	13	102	135	32	0	61
OTU 11	1	152	21	3	0	49	21	28	171	73	16	144	17	15	5	102	13	1	81	19	35	21	5	71	64	30	9	11	86	10	0	20	24	3	51	23	22	49	19	749	82	7	55	9	17	0	107	36	112	10
OTU 12	59	16	15	8	1	25	723	8	0	41	76	78	16	41	2	7	72	50	1	132	54	22	1	7	80	35	2	4	29	32	149	101	286	28	63	81	31	102	7	61	24	90	9	119	4	39	85	9	52	14
OTU 13	7	0	0	0	1	0	0	0	1	6	15	0	0	44	0	0	64	61	0	74	0	1	0	0	0	30	0	0	0	2	48	5	151	2	0	2	0	13	0	0	18	48	0	0	0	1	5	0	3	4
OTU 14	23	30	0	0	22	1	6	92	0	0	3	174	3	9	0	189	2	6	1	0	9	2	31	1	28	1	24	0	5	4	29	6	1	19	0	3	70	3	0	3	1	6	1	0	0	19	38	15	14	13
OTU 15	0	14	0	0	6	3	2	1	0	4	0	0	0	0	0	0	0	0	0	0	0	0	0	0	27	0	6	0	34	0	1	0	0	0	0	0	0	0	0	0	3	0	0	0	0	0	0	0	0	0
OTU 16	0	0	0	26	0	1	0	0	10	0	0	0	0	0	0	0	0	0	0	0	2	0	0	0	0	0	0	0	0	0	0	105	0	0	0	0	0	0	0	0	0	0	0	0	0	0	0	0	0	1
OTU 17	94	4	44	22	17	7	33	0	27	22	2	12	1	44	0	23	110	74	59	74	1	2	3	21	52	36	10	23	72	9	83	33	165	0	1	18	69	14	6	2	114	112	0	4	0	24	10	0	20	22
OTU 18	50	2	69	27	9	5	14	8	40	49	43	1	40	17	25	31	10	11	160	2	69	97	104	84	52	34	48	8	7	68	24	55	8	103	11	63	90	21	96	65	62	20	46	24	51	15	2	85	180	32
OTU 19	0	0	0	0	0	0	0	0	0	0	0	0	0	0	0	0	0	0	0	0	0	0	0	0	0	0	0	0	0	0	0	0	0	0	0	0	0	0	0	0	0	0	0	0	0	0	0	0	1	0
OTU 20	31	3	19	135	33	30	9	23	9	7	2	27	41	56	25	94	55	57	9	69	19	9	35	6	11	27	55	0	73	10	84	4	123	103	0	16	10	8	17	0	46	48	58	41	0	24	22	0	1	5
OTU 21	31	34	94	19	41	36	18	191	3	17	6	0	60	0	37	2	0	4	12	3	46	9	118	18	99	39	17	0	5	27	0	6	6	9	3	61	1	47	4	6	81	9	3	47	1	48	41	179	20	3
OTU 22	32	81	26	47	5	9	14	56	75	62	16	18	3	0	1	12	12	15	11	40	55	12	6	1	5	3	27	2	1290	20	2	49	92	5	31	9	25	156	1	0	434	24	17	16	2	16	45	13	29	0
OTU 23	40	3	0	12	6	11	0	2	0	64	3	21	35	1157	8	27	23	27	3	47	37	1	1	0	14	25	109	12	0	73	8	89	80	6	4	7	0	3	88	13	0	21	1	144	0	0	165	146	6	13
OTU 24	17	2	11	1	4	14	31	0	19	0	0	48	44	2	14	0	1	0	0	4	1035	0	11	0	0	7	0	10	0	35	6	0	6	0	116	16	7	15	6	77	2	5	0	2	0	17	24	0	23	1
OTU 25	0	0	0	0	0	0	0	0	0	81	0	0	0	0	10	0	6	15	0	1	0	0	8	1	0	12	0	0	0	0	5	0	2	0	0	0	0	1	0	0	0	5	1	0	0	0	0	0	0	0
OTU 26	0	12	0	0	2	0	0	71	2	2	0	1	17	0	0	31	0	0	0	0	0	0	0	0	1	1	6	0	7	22	0	8	0	0	2	0	0	1	9	0	0	0	1	0	0	0	101	0	0	0
OTU 27	0	0	0	0	0	0	0	0	266	0	0	1	0	0	0	0	26	6	0	13	0	0	0	0	0	0	0	0	9	0	5	0	16	0	0	3	0	0	0	2	21	11	0	0	0	0	0	0	0	0
OTU 28	36	21	51	0	2	11	25	9	11	10	25	24	27	12	218	8	4	1	86	9	109	70	8	33	39	99	133	75	140	99	7	57	14	2	8	165	223	10	28	18	113	11	40	13	43	16	100	75	193	29
OTU 29	0	1	7	10	38	161	30	95	97	65	23	35	6	0	14	25	575	28	1	11	120	18	8	1	41	7	66	158	22	276	22	11	32	200	10	13	24	14	163	27	28	30	79	39	5	2	94	33	13	0
OTU 30	0	0	0	0	0	0	0	0	0	0	0	0	0	0	0	0	0	0	0	0	0	0	0	0	0	0	0	0	0	0	0	0	0	0	0	0	0	0	0	0	0	0	0	0	0	0	0	0	0	0
OTU 31	77	22	5	39	1	9	1	2	9	0	71	21	1	133	0	1	2	5	0	2	215	1	28	0	1	20	17	31	0	19	3	60	3	3	0	0	0	0	4	0	56	0	2	0	0	40	0	0	32	0
OTU 32	21	8	68	60	36	98	9	100	7	127	43	73	65	16	17	7	15	28	210	40	160	55	2	112	61	127	42	74	444	37	141	119	99	17	5	19	0	6	29	48	34	24	50	72	16	9	30	18	344	3
OTU 33	140	18	0	5	0	0	0	0	0	0	0	0	0	0	0	0	2	0	3	0	0	0	15	0	0	0	1	0	0	0	0	0	0	0	0	1	0	0	0	0	0	0	0	0	1	37	0	29	9	0
OTU 34	13	1	1	340	312	34	0	117	16	6	52	0	41	16	6	0	0	23	22	0	4	29	150	5	51	100	5	2	10	7	0	7	1	1	54	224	26	2	4	319	43	6	134	40	23	7	25	51	118	14
OTU 35	28	328	1	11	18	71	9	44	6	0	14	917	0	19	46	9	0	3	31	3	2508	35	90	8	0	0	27	49	2	198	2	15	5	578	27	0	34	23	133	97	43	0	8	18	17	10	32	5	52	0
OTU 36	0	10	43	955	5	9	4	127	1	2870	33	2	22	35	34	12	44	48	43	20	175	14	19	23	220	196	0	0	1	43	46	6	39	5	0	153	117	10	28	8	7	28	24	28	6	1	22	7	6	20
OTU 37	14	14	2	1	0	1	26	3	0	0	11	0	1	0	0	0	0	21	1	0	7	18	2	0	0	69	22	0	15	0	0	0	0	0	7	0	0	31	2	34	34	2	0	14	3	0	5	0	3	9
OTU 38	52	2	96	9	9	14	3	36	48	48	1	33	3	0	42	844	48	76	9	38	8	0	5	4	12	9	0	0	232	50	39	192	71	0	10	30	15	1	23	15	136	30	9	812	7	55	7	50	89	1
OTU 39	0	13	0	0	0	68	0	9	11	2	0	0	0	0	3	2	3	0	0	0	0	0	39	0	0	0	10	171	12	16	4	2	0	0	0	0	23	0	9	0	0	10	91	0	0	0	5	0	16	0
OTU 40	39	10	42	20	39	37	386	17	2	14	11	96	19	11	12	79	0	13	7	1	76	18	29	11	7	21	13	171	16	2	20	64	1	18	3374	16	581	471	3	161	221	5	57	89	10	8	8	35	70	122
OTU 41	2	72	147	8	3	17	0	37	2	19	0	88	38	7	12	81	21	1	3	16	2	11	7	0	1	68	39	76	79	18	18	26	27	24	3	12	16	36	7	23	1	16	18	0	0	0	28	46	127	5
OTU 42	37	3	0	0	0	55	0	0	0	0	17	1	16	64	0	0	11	73	1	13	89	0	89	0	0	6	1	8	27	0	6	1	26	0	1	0	154	0	0	1	2	6	36	1	15	1	0	0	3	3
OTU 43	0	0	0	0	0	0	0	0	0	0	0	0	2033	0	0	0	0	0	0	0	0	0	0	0	0	0	0	0	0	0	0	13	0	2	0	0	0	0	0	1	0	0	0	0	0	0	0	0	0	0
OTU 44	35	20	1	0	0	14	1	0	1	16	4	0	5	0	0	1	64	19	7	55	15	1	17	4	2	0	5	47	4	0	0	28	90	1	5	0	0	6	1	23	0	14	0	32	1	5	0	0	0	0
OTU 45	215	56	18	27	22	4	15	52	7	20	9	42	12	22	12	10	11	0	16	0	16	30	48	1	0	45	178	9	13	62	9	127	0	28	8	46	95	40	1	4	18	0	137	17	22	74	63	6	259	163
OTU 46	76	43	18	78	5	49	12	0	87	75	2	18	87	19	46	35	62	63	76	89	35	20	23	37	128	84	119	56	5	33	73	80	156	48	20	105	10	69	19	17	15	75	11	16	2426	45	231	41	0	2
OTU 47	1	0	0	0	0	21	0	0	0	30	0	1	0	0	0	1	1	1	0	2	0	0	3	0	12	25	29	0	128	67	0	1	7	0	3	0	0	0	32	0	1	0	4	0	0	10	24	0	0	0
OTU 48	1	34	126	11	27	47	23	14	18	9	8	16	14	39	93	20	26	9	21	12	135	52	24	9	29	2	116	7	55	4	32	23	30	128	0	637	45	31	33	14	59	18	11	788	22	1	53	14	28	23
OTU 49	3	4	0	34	24	0	0	29	4	6	0	3	0	0	14	52	20	0	2	6	0	5	0	2	0	0	36	53	0	27	6	80	11	2	0	17	6	9	1	178	132	8	22	8	1	3	0	10	17	75
OTU 50	93	70	17	58	41	20	4	69	56	55	9	3	44	101	47	29	134	123	4	72	37	0	133	5	13	82	109	111	157	15	49	69	153	173	1	16	192	1	66	111	121	102	111	56	6	85	6	175	175	40
OTU 51	68	241	28	43	40	149	2	14	46	26	40	275	44	16	16	0	124	66	59	144	0	3	5	28	1	2	29	9	53	9	145	32	283	160	25	8	76	0	7	2	136	144	4	0	5	13	2	13	2	56
OTU 52	47	6	71	59	15	16	21	142	11	32	8	145	26	1574	115	40	16	15	26	31	63	83	84	24	190	42	150	101	250	28	62	107	53	24	34	40	1	2	37	34	20	20	18	98	1	20	463	72	3	36
OTU 53	0	0	12	0	0	0	0	0	0	0	0	0	0	0	0	0	0	0	0	2	0	0	0	0	0	35	1	0	0	18	0	0	6	0	0	0	0	0	3	0	10	0	0	1	0	0	0	0	0	0
OTU 54	0	25	48	47	72	382	55	133	97	36	13	273	76	18	100	12	45	14	109	17	16	50	19	62	28	8	151	102	119	70	2	177	36	30	2	143	27	15	62	27	98	10	40	30	31	12	67	178	113	77
OTU 55	0	0	0	0	0	0	0	0	0	0	0	0	0	0	0	0	2	0	0	0	0	5	0	0	0	2	0	0	0	0	0	0	0	0	0	0	0	0	0	0	0	0	0	0	7	0	0	0	0	0
OTU 56	24	76	5	34	291	10	2984	13	16	0	10	0	0	1	17	1725	0	12	45	5	0	17	15	23	7	48	6	88	2	75	4	39	8	10	15	992	0	92	0	0	41	0	0	687	11	28	1	12	0	15
OTU 57	65	23	209	58	37	2649	21	125	78	13	100	75	22	22	28	36	13	4254	214	14	107	71	39	93	54	410	104	203	103	221	26	144	26	29	44	65	17	32	128	601	103	93	58	51	39	57	55	48	28	128
OTU 58	63	28	2	35	5	2	29	30	33	26	13	15	221	206	0	0	20	26	2	33	1	0	797	0	6	10	0	0	0	71	58	34	57	8	8	9	750	0	35	269	207	11	645	50	0	40	0	762	0	1
OTU 59	0	0	0	24	15	0	6	5	94	2	0	18	0	26	1	30	9	0	7	130	7	30	0	9	116	26	6	1	57	0	4	0	5	0	4	0	0	0	28	0	5	0	14	0	3	0	59	0	2	8
OTU 60	80	14	53	351	28	59	5	214	158	1	3	0	19	17	357	6	12	1	42	12	126	10	2	16	95	45	474	59	141	187	1	597	34	86	29	21	45	23	52	90	128	21	9	68	14	19	239	419	147	131
OTU 61	57	144	4	61	1	24	80	392	5	43	76	70	52	14	108	15	26	89	143	80	57	92	5	44	18	57	33	7	121	18	141	24	165	53	24	112	51	0	37	52	16	92	56	43	30	34	12	143	27	29
OTU 62	1	45	229	0	44	35	40	4	1	2	1	12	1	0	3	0	43	25	3	39	34	21	50	3	0	56	0	0	4	0	18	0	103	1	0	0	0	0	1	5	17	22	0	0	0	0	43	0	0	0
OTU 63	28	4	943	0	6	3	0	0	11	34	0	1	23	0	7	0	0	0	5	0	49	0	11	4	66	159	68	3	13	4	3	17	0	1	2	35	0	2	1	9	28	0	16	2	2	42	13	46	0	20
OTU 64	761	13	292	191	152	128	24	86	68	110	304	33	95	144	60	191	189	106	947	178	227	472	129	443	49	128	6	76	226	140	152	293	385	4	44	623	18	76	1124	36	66	196	223	418	782	360	83	717	261	5
OTU 65	0	0	0	0	0	0	0	4	0	0	0	0	0	0	0	0	0	1	0	0	0	0	0	0	0	0	0	0	0	0	0	0	0	0	0	0	0	5	1	0	1	0	1	8	0	7	0	0	0	11
OTU 66	3	229	42	78	63	32	80	27	326	70	14	121	77	14	6	12	4	31	9	48	0	8	12	1	18	9	78	20	61	884	57	262	92	1	19	1	72	11	264	0	225	33	67	54	15	3	42	154	99	3532
OTU 67	0	3	14	7	4	0	7	2	112	0	13	35	28	55	11	8	0	1	10	10	60	33	51	2	6	25	64	2	0	90	7	3	19	27	22	24	4	3	9	0	25	6	4	0	25	3	50	105	6	17
OTU 68	0	5	12	0	4	53	36	2	1	0	14	3	25	0	0	0	3	17	255	0	2	42	0	117	1226	7	0	2	4	1	3	13	0	3	7	0	0	9	0	1	16	0	0	55	24	16	0	0	39	0
OTU 69	6	172	208	15	5	1	1	54	2	21	26	243	74	3	72	8	14	21	191	5	4	15	93	84	29	27	179	0	36	11	22	39	13	47	1007	86	26	43	4	221	65	3167	20	41	10	0	55	21	36	49
OTU 70	2	87	0	14	16	3	0	77	11	1	24	4	37	50	0	7	3	1	5	0	7	51	208	7	3	0	0	37	0	5	0	30	0	12	29	24	52	0	0	20	53	0	110	15	44	0	4	0	2	8
OTU 71	2	0	25	25	6	19	98	0	0	43	13	0	0	0	0	1	1	2	4	13	8	3	14	0	0	0	3	158	112	9	28	0	28	12	9	19	30	117	3	0	15	19	120	102	2	8	0	54	1	12
OTU 72	60	10	60	19	61	43	44	159	42	41	8	20	36	20	12	5	0	9	0	4	2	86	90	2	3	18	1	1	2	5	38	22	4	424	18	61	12	22	16	2	106	8	6	24	60	37	33	31	2	5
OTU 73	163	5	147	8	26	23	10	90	43	1	1	5	18	44	28	61	1	1	62	2	0	0	4	3719	4	2	274	47	13	1	23	52	1	35	0	66	0	60	11	0	0	1	20	29	1	75	25	52	36	28
OTU 74	6	24	23	1	3	87	178	207	9	27	29	20	2	3	3	49	27	68	315	54	26	51	21	149	2	3	76	48	120	0	76	3	115	58	14	35	1	333	7	54	150	45	39	14	21	0	6	12	9	30
OTU 75	8	4	98	2	33	1	50	62	16	22	0	26	118	6	19	18	139	134	42	85	21	0	253	20	10	19	8	2	31	51	204	62	157	116	7	4	89	23	14	7	53	107	90	38	1	5	42	111	81	28
OTU 76	0	5	61	8	6	0	0	1	0	2	0	23	0	6	22	340	0	8	21	0	1	56	0	15	0	7	0	1	1	0	0	0	0	0	1	4	0	7	0	0	2	0	13	136	19	1	6	11	35	1
OTU 77	27	0	25	1	10	9	20	21	13	99	68	0	1	4	83	0	22	30	19	23	83	47	53	14	77	2	210	127	31	24	75	1	67	7	7	16	851	51	5	49	25	27	36	0	7	32	113	51	69	10
OTU 78	43	21	15	40	0	0	1	160	12	80	49	123	41	16	8	0	25	14	15	12	2	88	24	17	18	3	32	31	3	0	7	13	18	11	0	0	4	2	36	0	9	12	0	40	43	6	24	36	53	3
OTU 79	51	65	79	74	142	52	736	948	291	344	71	231	1086	15	15	54	123	151	121	92	71	36	135	70	39	102	95	63	136	467	138	105	193	291	78	104	23	1476	242	123	199	136	14	32	20	10	351	195	261	46
OTU 80	30	30	40	36	48	0	62	78	4	26	27	79	16	13	48	19	25	11	196	4	64	62	1	71	9	37	61	847	5	7	0	90	4	29	9	1	4	167	23	8	263	0	1	43	39	20	28	35	1	0
OTU 81	6	55	56	22	58	84	33	128	32	2	86	88	57	4	447	23	4	4	170	0	83	99	27	96	105	58	116	212	33	59	52	23	1	271	32	218	40	2	9	15	148	1	2	14	81	0	46	4	2	48
OTU 82	29	41	0	2	49	9	39	54	1	31	2	15	18	13	0	50	15	2	61	20	0	41	51	24	20	10	16	4	20	83	10	22	31	1	0	0	19	3	72	1	46	15	33	0	33	0	31	43	42	1
OTU 83	0	0	2	0	7	15	7	0	104	1	1	63	0	1	104	3	1	0	1	3	32	0	0	0	0	26	308	2	0	38	0	0	7	0	0	0	0	3	24	7	0	0	0	0	0	3	15	1	0	128
OTU 84	0	5	47	1	3	20	3	1	2	16	61	0	31	30	10	54	1	0	6	3	12	49	114	10	32	25	18	2	45	5	15	6	11	61	40	0	44	19	2	0	4	8	88	0	22	0	36	30	6	0
OTU 85	0	0	19	3	1	101	0	0	21	0	0	1	7	16	1	0	0	2	5	4	0	0	1	3	2	27	0	11	11	0	1	30	4	0	0	0	0	0	0	66	5	1	0	21	3	0	0	0	0	1
OTU 86	0	0	45	0	0	3	0	0	0	0	0	0	0	0	0	0	0	0	0	0	0	0	0	0	0	0	3	0	0	0	0	0	0	0	0	0	0	1	3	0	0	0	0	0	0	0	0	69	2	2
OTU 87	0	4	0	0	3	48	0	0	0	0	0	128	0	708	0	0	1	0	17	0	25	3	25	6	0	0	59	0	6	0	2	17	0	0	0	1	2	0	0	1	0	5	9	1	3	0	2	4	24	2
OTU 88	1	13	49	0	26	1	0	0	9	0	0	0	0	28	0	0	0	0	0	0	0	0	0	0	0	56	0	29	1	33	0	0	0	0	2	0	0	83	61	0	56	0	0	0	0	4	7	0	0	0
OTU 89	0	0	0	0	8	13	0	26	5	2	15	0	1	3	0	0	10	7	75	4	1	2	0	45	18	11	8	1	4	11	3	0	7	1	6	0	10	8	0	50	22	13	3	0	3	0	1	0	10	0
OTU 90	0	4	0	0	0	76	0	0	27	1	9	26	0	0	0	0	0	0	36	0	0	0	0	6	3	1	2	5	0	16	0	76	0	0	0	4	0	0	0	0	2	0	0	9	0	0	73	2	0	8
OTU 91	77	12	1	0	0	4	0	2	0	0	0	0	11	45	0	0	0	0	3	0	0	0	72	1	3	0	1	22	0	0	0	5	0	0	0	0	5	0	5	0	0	0	0	0	1	19	0	0	0	0
OTU 92	1	22	0	2	7	4	0	6	1	2	5	1	96	9	0	0	17	28	0	26	0	0	0	0	57	7	0	0	0	0	12	22	57	2	0	3	0	22	0	0	0	35	3	10	4	1	14	14	2	0
OTU 93	0	8	0	6	1	0	1	0	0	12	29	0	2	0	1	0	0	0	0	0	32	40	1	0	2	1	0	0	31	0	0	0	0	52	10	0	0	0	0	0	0	0	0	16	15	0	0	0	2	3
OTU 94	122	220	108	27	59	8	100	2	6	2	87	89	27	9	29	9	18	16	178	26	64	118	14	112	207	44	8	135	104	9	12	229	35	8	30	88	94	20	4	36	180	23	21	68	877	90	487	7	44	23
OTU 95	18	1	32	1	0	20	0	0	10	0	0	0	324	6	0	0	2	3	0	3	0	4	0	0	61	1	29	5	0	0	1	139	3	1	0	1	0	0	0	2	6	1	6	33	0	3	41	335	42	0
OTU 96	1	1	0	1	0	0	0	0	0	0	0	4	0	0	0	0	0	0	0	0	0	0	0	0	0	0	0	0	2	0	18	3	0	22	0	0	0	0	0	0	11	0	0	8	1	0	0	0	0	0
OTU 97	0	5	0	0	32	0	0	0	0	0	3	0	5	1	0	28	0	2	3	0	10	0	23	0	0	51	0	0	1	0	0	12	0	8	0	6	0	43	0	0	0	0	0	0	1	0	0	5	0	0
OTU 98	35	0	77	0	60	0	0	11	4	68	32	0	0	85	0	4	0	9	0	12	1	118	19	1	0	1	3	0	5	9	14	0	13	12	18	0	1	2	2	90	0	7	0	3	90	25	0	0	3	31
OTU 99	59	44	10	14	17	119	109	102	51	28	41	60	5	6	1	39	11	30	203	3	14	107	15	108	1	67	82	36	180	24	0	313	4	1840	35	111	26	42	6	7	143	7	12	36	47	27	3	4	91	109
OTU 100	50	48	49	32	1	11	0	7	26	29	3	1	14	12	8	2	0	3	5	3	31	1	109	7	0	115	20	526	14	34	0	26	12	1	3	16	142	6	32	114	8	2	60	25	0	4	5	34	104	12
OTU 101	0	0	0	0	8	11	1	0	0	0	0	0	0	0	0	0	0	0	0	0	22	0	0	0	34	11	0	88	6	0	0	50	0	0	0	0	0	0	0	11	0	0	0	0	14	0	14	0	0	1
OTU 102	0	16	60	0	0	7	0	0	1	6	73	17	0	21	0	0	16	30	1	33	0	0	0	1	6	10	0	4	0	1	8	0	62	0	40	0	0	1	0	0	4	79	8	0	0	2	60	2	12	0
OTU 103	1	38	23	2	3	0	20	0	0	127	45	5	49	0	185	3	91	102	53	79	4	70	164	26	2	1	83	96	5	0	136	104	183	2	22	1	251	6	8	62	5	108	80	13	35	0	16	69	13	0
OTU 104	25	111	25	29	169	64	4	36	131	13	64	66	122	57	187	19	46	53	45	60	65	34	12	22	86	110	231	40	76	96	25	239	131	64	12	28	9	90	17	11	65	59	65	8	24	3	141	19	284	75
OTU 105	0	0	0	0	0	5	10	63	0	2	0	12	11	0	0	36	38	11	0	17	0	0	0	0	6	0	0	0	8	0	0	1	47	0	0	28	3	53	2	0	75	43	42	0	1	0	34	3	0	0
OTU 106	9	0	34	17	8	9	0	6	0	0	0	139	0	0	0	505	1	4	0	0	0	0	1	0	5	12	0	0	16	6	6	8	0	25	0	2	0	2	0	1	37	10	0	286	5	0	1	0	2	0
OTU 107	0	13	18	0	12	0	20	7	1	1	38	11	0	0	45	0	0	0	32	0	1	5	22	21	69	27	1	0	0	6	0	13	0	2	30	3	19	21	8	1	3	0	0	0	3	3	0	9	47	104
OTU 108	0	9	30	9	2	16	9	3	1	4	38	0	20	0	44	40	17	6	36	11	67	1	5	22	1	12	41	78	28	0	16	14	22	26	19	37	1	0	0	31	24	9	0	16	33	0	8	2	0	0
OTU 109	0	0	0	0	0	0	0	0	0	0	0	0	0	0	0	0	0	0	0	0	0	0	0	0	0	0	0	0	0	0	0	0	0	0	0	0	0	0	0	0	0	0	0	0	0	0	0	0	0	0
OTU 110	530	32	12	23	0	5	297	67	10	57	72	11	239	570	10	6	25	9	94	7	2	25	0	70	176	3	144	82	84	10	24	2	24	7	67	1	7	333	4	32	10	11	943	23	15	226	388	374	144	59
OTU 111	0	0	0	0	0	0	0	0	44	0	0	1	0	0	16	0	0	0	0	0	4	12	0	0	0	18	2	2	0	14	0	0	0	3	1	0	0	0	2	0	0	0	0	0	0	1138	0	0	0	0
OTU 112	34	24	114	0	2	47	0	6	16	0	0	2	0	1	0	8	1	3	0	0	118	2	37	0	18	1	0	5	0	4	0	2	0	14	0	33	6	61	30	0	145	0	0	0	0	33	43	0	5	33
OTU 113	6	227	0	0	24	5	0	0	0	0	0	150	0	7	4	18	2	0	2	0	0	0	0	5	0	0	0	0	0	0	3	30	0	0	0	19	0	0	0	0	87	0	1	0	0	5	0	0	1	0
OTU 114	75	62	26	76	37	19	63	131	526	528	54	88	204	33	222	12	330	317	95	300	5	139	30	56	25	100	304	2	23	860	391	0	601	37	7	14	93	102	478	1	172	302	331	75	39	49	3	67	133	208
OTU 115	77	25	117	93	1942	97	32	164	54	11	72	14	40	3	50	10	11	9	61	19	47	36	11	54	43	97	12	62	52	97	24	73	42	75	51	21	25	70	25	59	19	23	39	140	4	480	151	94	170	21
OTU 116	43	35	3	63	13	7	23	106	783	24	22	21	57	1	14	40	2	25	3	16	277	19	5	0	44	96	12	33	122	1	5	39	34	4	49	0	113	66	9	17	91	8	1	1	5	31	0	44	198	6
OTU 117	1	170	132	1	1	22	1	554	26	41	1	3	43	0	5	29	22	35	72	43	8	46	16	47	71	84	36	0	65	122	39	137	65	29	3	18	1	53	496	5	112	17	3	2	56	1	89	10	8	86
OTU 118	0	0	0	0	0	27	0	0	4	5	0	0	1	0	20	27	35	24	0	14	10	0	1	0	18	60	56	2	48	0	20	0	36	40	0	25	0	17	0	1	44	17	0	1	0	0	22	0	2	17
OTU 119	33	12	79	99	20	100	766	1	11	24	68	28	17	33	1	66	10	30	24	878	0	77	4	20	33	119	9	143	47	4	11	147	28	6	5	18	1	2272	1	17	79	6	60	75	45	17	78	138	26	0
OTU 120	1	0	5	8	0	55	6	33	27	0	9	0	52	7	1	5	8	36	28	3629	0	0	100	24	0	0	7	50	3	4	3	0	44	6	0	3	13	11	0	0	1	11	8	9	0	16	32	59	34	2
OTU 121	17	71	74	7	0	5	16	0	31	22	7	39	7	8	33	12	7	9	1	31	22	58	4	4	3	187	3	50	3	16	7	5	69	5	8	1	13	16	10	199	0	16	16	4	31	3	21	1	1	0
OTU 122	81	31	72	43	44	15	8	84	12	114	33	100	8	0	5	60	36	32	148	27	4	28	15	68	8	15	18	30	0	5	62	156	61	170	1	85	2	197	19	4	30	37	7	15	10	12	40	1	32	28
OTU 123	223	41	406	102	69	57	194	213	293	172	156	48	499	127	38	119	203	285	413	202	49	299	173	1031	99	379	82	39	298	474	109	71	387	291	13	182	1262	274	262	58	146	207	99	126	169	96	145	159	94	22
OTU 124	1	0	130	0	17	0	3	29	0	0	11	2	1	0	1	36	0	17	7	0	10	9	0	0	3	0	0	25	15	10	0	55	0	0	3	0	0	0	4	1	15	0	0	0	0	0	0	2	0	0
OTU 125	140	36	194	217	419	348	67	157	623	219	85	217	213	33	15	477	71	212	131	74	93	30	109	63	218	145	95	293	80	161	68	107	162	131	47	71	20	120	72	232	206	90	123	182	20	85	357	78	386	18
OTU 126	0	0	10	0	0	0	11	0	1	0	6	0	28	5	0	0	1	0	0	0	0	2	0	1	0	10	2	2	6	0	0	17	0	4	0	0	0	61	0	0	47	0	0	0	12	0	0	0	23	0
OTU 127	38	2	0	0	33	160	24	48	63	22	5	30	39	0	2	0	7	4	5	20	96	0	0	3	75	1	8	69	189	100	47	5	48	15	2	0	5	1	48	4	27	28	6	40	0	14	217	33	16	2
OTU 128	704	118	116	86	241	153	102	286	39	341	1952	79	175	80	39	124	476	86	742	103	91	3682	35	604	86	19	70	121	204	24	89	139	200	86	1223	141	76	22	28	195	269	342	52	24	2074	325	86	126	24	150
OTU 129	0	0	0	0	0	0	0	0	13	0	0	0	0	0	27	0	0	0	26	0	0	0	4	10	10	0	0	4	2	1	0	171	0	2	0	0	3	22	0	2	16	0	2	19	0	1	17	0	109	14
OTU 130	21	8	12	52	2	50	32	60	84	56	0	8	1	37	0	97	3	42	0	2	1	42	11	0	2	4	2	16	3	10	28	39	5	16	5	6	0	19	8	19	11	0	3	5	23	2	19	28	12	5
OTU 131	12	38	26	132	27	55	19	205	69	495	3	0	3	35	321	11	589	712	12	563	52	2	17	5	35	84	518	5	181	27	693	54	1071	3	0	24	49	13	32	36	10	503	16	0	3	0	3	11	0	282
OTU 132	56	0	104	1	0	2	0	0	39	0	0	88	0	44	2	5	7	3	1	0	85	4	32	0	0	12	25	11	211	11	80	22	0	96	1	2	84	5	2	12	13	0	12	16	3	15	4	18	32	0
OTU 133	0	14	0	0	0	0	0	18	16	0	0	0	0	0	5	0	0	0	0	1	0	0	1	0	4	0	41	0	0	0	0	0	1	55	0	0	0	0	0	0	39	0	39	0	0	1	17	35	0	2
OTU 134	68	1	10	4	6	4	10	58	1	54	32	23	57	5	8	3	2	2	27	3	37	67	12	15	4	47	25	4	22	0	0	8	17	44	0	57	26	0	2	8	32	3	40	7	37	36	4	8	0	8
OTU 135	7	7	50	31	15	67	3	0	1	131	23	31	5	17	6	1	78	108	113	22	6	53	23	49	0	14	30	24	20	16	77	12	70	31	28	58	24	73	42	7	39	50	36	40	14	2	1	112	139	17
OTU 136	7	86	26	1	32	11	12	7	13	4	3	5	36	0	19	27	58	54	6	54	41	0	0	1	44	41	7	295	2	2	10	16	105	0	2	33	38	42	3	60	0	76	0	0	1	7	16	4	1	4
OTU 137	108	9	7	2	47	4	15	35	0	0	0	0	42	19	0	1	0	7	18	0	34	3	2624	19	65	0	17	0	0	2	3	571	0	0	9	0	0	0	0	0	1	0	7	0	3	29	3	0	58	1
OTU 138	1	3	1	6	0	4	0	5	1	0	21	0	1	1211	0	19	46	22	0	46	27	3	9	4	6	0	6	15	43	13	11	45	108	0	1	0	0	1	0	18	4	23	2448	2	3	0	3	0	1	9
OTU 139	2	436	178	123	44	135	20	8	29	8	14	984	142	72	143	48	15	16	54	24	80	1	32	36	1835	818	60	115	43	130	3048	21	45	141	19	0	128	6	71	22	88	26	134	37	6	0	150	5	76	234
OTU 140	35	17	74	24	336	318	35	37	314	161	7	334	123	40	54	68	31	68	113	27	192	65	304	75	64	290	19	219	441	238	68	15	56	212	13	240	50	70	15	87	197	23	52	2266	44	28	58	242	1587	56
OTU 141	0	0	0	0	10	0	0	0	0	0	0	0	0	0	0	0	0	0	0	0	0	0	0	0	1	2	0	10	0	0	0	0	0	0	0	0	0	0	2	0	0	0	2	0	0	0	0	0	0	0
OTU 142	8	0	0	0	0	0	0	0	0	0	0	0	0	1	0	0	0	0	1	0	0	0	0	5	0	0	0	0	0	0	0	0	0	0	0	0	0	1	0	0	0	0	0	0	6	12	0	0	0	0
OTU 143	0	50	0	2	25	203	7	0	0	5	2	12	0	0	0	0	17	10	0	9	0	0	33	0	2	7	0	40	0	46	1	14	15	0	0	0	0	0	9	5	0	11	16	0	0	1	0	0	11	2
OTU 144	1	1	3	0	0	55	0	0	0	1	4	0	28	0	11	0	0	0	78	0	24	16	2	32	36	0	55	48	0	35	3	0	0	4	0	0	0	0	16	0	0	0	0	8	14	0	0	24	11	0
OTU 145	14	28	119	1449	105	20	31	54	7	57	22	41	28	30	35	101	16	157	0	23	8	28	36	0	23	253	21	460	8	48	0	138	54	92	0	37	59	13	14	8	5	38	0	17	20	17	9	0	30	546
OTU 146	12	13	0	12	17	13	91	1	39	103	1	101	230	2	1025	14	6	16	40	4	24	3	4	19	32	63	1650	45	10	1	8	38	9	115	2	68	18	48	1	58	10	15	2	7	7	10	10	4	5	725
OTU 147	36	2	14	0	26	1	19	0	3	5	25	55	20	69	1	1	7	0	17	0	48	8	0	20	3	0	23	41	3	0	18	48	0	33	1	19	15	17	0	2	0	0	2	0	18	3	0	9	20	14
OTU 148	16	0	108	1	90	56	4	8	26	130	0	9	94	0	111	40	66	66	157	26	5	34	178	50	32	6	451	178	29	9	80	40	53	114	1	7	7	14	0	349	73	40	38	100	13	0	236	50	1	185
OTU 149	177	1	78	0	0	3	7	18	0	1	0	1	25	1	7	9	0	0	17	0	24	8	640	3	17	0	25	1	15	29	1	0	0	43	0	0	110	3	0	14	9	0	2	6	5	122	9	6	61	44
OTU 150	77	0	2	3	16	4	0	13	3	1	0	0	0	3	0	1	6	0	0	4	4	2	13	0	1	29	4	0	6	7	0	0	3	81	0	0	0	0	7	102	113	15	0	0	0	3	7	0	0	0
OTU 151	4	1	2	69	15	1	0	1	17	3	2	100	15	0	0	26	3	1	63	0	4	15	11	15	10	31	0	6	27	137	22	36	0	87	3	0	0	0	5	76	4	0	8	22	1	3531	7	0	52	1
OTU 152	4	72	12	143	35	39	9	3	16	9	1	12	8	38	37	9	47	35	89	29	19	17	20	29	966	24	15	66	116	30	7	34	61	0	13	50	10	10	3	43	81	30	82	73	0	4	86	108	13	38
OTU 153	4	29	37	0	0	4	0	0	19	5	1	1	0	34	3	0	36	7	0	46	0	11	0	0	0	0	0	0	11	0	20	43	97	0	0	0	0	0	0	0	0	42	0	0	23	0	25	0	0	0
OTU 154	0	0	3	0	0	0	0	0	1	0	0	0	0	0	0	28	0	2	0	0	0	0	0	0	0	23	0	0	1	0	4	0	0	3	0	0	7	1	9	0	21	0	0	0	0	0	1	16	10	0
OTU 155	0	42	122	0	0	5	0	164	7	1	8	14	0	47	0	0	55	40	0	15	5	0	0	158	0	1	3	37	1	8	34	53	24	0	0	4	47	0	5	0	14	27	15	1	0	0	20	1	0	6
OTU 156	112	3082	26	53	0	2	12	201	23	26	554	29	25	43	11	74	21	30	4	17	59	16	252	2	71	41	51	150	83	0	22	34	38	15	326	38	39	13	7	81	119	33	2	1	20	76	83	184	102	10
OTU 157	7	10	0	0	0	26	0	0	0	4	0	0	11	0	0	2	0	0	2	1	2	3	0	3	5	115	34	0	6	15	0	60	3	4	0	0	0	0	1	0	1	2	0	0	0	0	1	1	0	35
OTU 158	0	0	0	0	1	0	0	0	1	3	0	1	0	0	0	0	0	0	0	0	0	0	0	0	29	0	0	0	67	0	0	0	0	0	0	30	0	0	0	31	0	0	0	0	0	0	89	1	0	0
OTU 159	97	19	31	24	12	1	2	8	22	2	7	0	35	203	14	7	7	12	64	16	8	3	84	29	24	22	48	35	23	0	3	81	34	39	1	19	2	0	0	6	35	1415	55	13	2	28	24	181	10	6
OTU 160	65	122	149	438	44	65	8	33	42	52	66	29	7	41	130	71	69	38	204	48	131	174	22	125	78	372	99	3	73	156	11	109	94	113	29	242	16	47	83	46	12	33	62	56	79	33	151	106	72	8
OTU 161	18	6	951	84	103	34	3	0	22	0	35	77	4	8	9	3	8	9	242	9	2	20	44	109	2	0	0	31	82	1	2	37	14	0	21	47	25	20	2064	26	55	4	5	1	6	12	51	5	35	22
OTU 162	72	3	16	61	0	111	45	89	19	10	21	63	17	31	18	71	5	3	0	6	20	27	0	0	57	6	53	1	492	0	1	50	10	37	18	3	4	0	4	4	17	15	91	10	9	35	65	83	11	22
OTU 163	0	0	0	0	0	0	0	0	0	0	0	0	97	0	0	0	0	0	0	0	0	1	8	0	0	0	0	0	0	0	0	0	0	0	1	0	0	0	0	0	3	0	2	0	0	0	0	0	0	0
OTU 164	0	0	0	0	0	0	0	0	0	1	1	0	0	0	7	0	0	0	11	0	0	0	0	0	1	0	0	0	0	0	0	0	0	0	0	13	0	0	0	0	0	0	0	0	3	0	32	0	0	0
OTU 165	28	100	0	1	0	228	8	11	2279	3	0	1	8	10	2	19	17	23	11	31	34	35	2	5	1	0	29	11	5	0	4	213	42	7	0	0	16	29	20	3	1	22	3	70	30	9	0	24	9	16
OTU 166	0	0	0	0	0	0	0	54	0	0	0	0	0	0	0	0	0	0	0	0	29	0	5	0	0	0	0	0	0	31	1	0	2	0	0	0	5	0	0	0	0	0	0	0	0	0	0	0	0	0
OTU 167	26	34	0	5	35	16	5	55	10	11	1	0	48	20	3609	27	4	1	3	5	1	0	0	0	23	0	2	25	13	1	0	6	10	27	3	61	0	0	10	8	2	2	25	1	0	39	2	50	42	7
OTU 168	0	7	17	14	27	33	4	91	19	5	25	235	20	1	24	3	43	7	36	23	49	13	3	29	28	88	44	27	2	44	41	15	38	0	42	23	7	31	59	24	21	19	2	2	6	6	85	11	28	5
OTU 169	0	12	0	0	0	1	0	0	0	0	2	0	0	0	0	43	0	0	43	0	0	14	0	15	0	0	0	1	0	0	0	0	1	0	4	186	0	0	0	0	0	0	0	2	0	0	3	0	71	0
OTU 170	0	0	0	0	0	4	0	0	3	0	0	1	0	1	0	0	42	3	0	16	0	0	0	0	0	0	0	0	0	0	57	0	31	0	0	0	0	0	0	0	0	8	3	0	0	0	27	0	0	0
OTU 171	10	2	1	7	0	54	1	11	33	0	60	19	54	9	9	7	19	13	150	10	9	4	18	55	46	18	71	2	1	61	0	25	22	50	1	15	47	23	3	16	55	16	50	9	0	0	146	69	52	48
OTU 172	0	0	0	19	1	3	0	0	0	0	0	0	1	0	0	4	0	0	17	0	0	0	96	13	14	0	1	5	0	14	0	0	0	10	0	0	0	1	0	14	0	0	4	0	1	0	28	0	0	0
OTU 173	72	4	0	0	0	0	14	60	0	0	0	5	0	0	36	37	0	10	24	3	0	24	1	11	0	15	15	1	0	0	0	106	3	0	2	16	0	0	1	0	1	11	1	17	8	1	2	14	1	0
OTU 174	37	0	51	0	11	3	0	0	40	0	20	2	1	18	7	95	0	6	8	0	330	16	12	1	4	44	11	150	1	62	21	167	0	3	8	0	50	3	13	8	3	0	7	0	22	28	13	39	474	9
OTU 175	64	2	11	13	5	17	31	9	6	0	1	2	72	3	0	0	0	7	14	1	40	0	3	1	0	42	17	5	67	26	1	0	2	0	0	0	27	13	14	0	0	0	3	2	0	17	0	42	17	2
OTU 176	46	11	35	71	97	113	124	119	1	45	53	39	34	11	16	53	61	51	144	65	155	307	22	75	15	9	57	14	2	66	63	1	139	9	22	51	3	50	6	0	21	58	15	22	103	25	23	6	25	40
OTU 177	19	104	31	2	51	13	0	4	73	43	34	12	6	4	0	13	11	0	8	5	179	65	17	7	39	16	17	75	29	37	831	33	13	0	14	0	52	22	8	33	66	3	11	7	32	0	64	15	19	241
OTU 178	135	20	0	9	7	40	2	357	4	41	0	3	0	314	12	16	0	1	0	0	19	4	6	0	1	2	28	1	16	76	0	3	0	32	0	59	0	2	10	47	28	0	68	102	0	28	0	1	0	1
OTU 179	1644	15	18	23	455	1	0	2	4	0	11	0	14	42	33	21	31	19	24	3	7	97	0	11	31	1	49	9	59	18	18	8	19	1	0	0	6	29	2	6	3	7	47	20	47	759	1	3	0	48
OTU 180	86	122	5	58	138	59	29	202	126	28	48	279	61	62	193	301	64	17	79	60	105	19	174	47	129	158	116	300	247	76	50	105	98	15	24	43	28	27	33	77	490	60	158	96	53	26	486	96	42	61
OTU 181	40	43	22	91	7	21	55	70	56	5	1	0	44	54	10	12	2	0	4	2	144	11	14	0	92	0	0	0	6	24	17	36	7	0	3	0	63	303	33	16	897	3	109	72	6	13	48	138	5	21
OTU 182	0	1	0	0	0	0	0	0	0	0	0	0	0	12	0	0	0	0	2	1	0	0	0	0	0	2	0	0	0	0	24	4	1	0	0	0	0	0	0	0	10	0	1	0	0	0	0	0	0	0
OTU 183	3	176	2	2	28	10	1	17	379	0	18	114	17	13	2	1	13	8	19	30	38	0	3	8	5	2	0	45	70	1287	0	40	47	12	1	14	1	0	885	6	90	23	0	10	0	0	11	8	43	8
OTU 184	148	0	1	0	36	4	51	1	12	10	11	29	56	21	5	63	23	17	162	23	56	114	3	80	7	70	0	31	1	9	10	27	44	14	17	0	19	2	0	4	0	15	20	3	40	56	19	106	61	27
OTU 185	51	11	23	54	77	34	39	279	9	0	11	2	2	20	52	88	71	53	19	78	26	2	0	7	15	19	74	73	38	97	38	281	124	9	6	8	20	59	86	112	41	120	26	5	3	15	151	159	9	56
OTU 186	1	10	104	22	57	0	32	1	0	3	0	6	1	0	5	19	0	0	0	1	13	80	0	1	20	1	14	50	14	0	0	63	7	1	0	4	23	36	0	0	18	2	4	34	75	0	42	18	0	8
OTU 187	62	105	211	5	127	32	0	81	13	66	40	138	0	47	65	60	34	34	104	22	25	68	37	51	6	41	169	270	36	6	23	58	38	1280	12	16	104	5	5	11	25	20	140	131	19	56	58	10	36	61
OTU 188	34	63	9	3	46	591	10	49	37	37	4	91	35	8	62	65	3257	66	4	68	17	34	29	13	46	99	50	18	43	69	62	17	137	7	11	46	44	7	94	116	3	63	135	5	10	66	2	55	29	28
OTU 189	99	8	84	77	25	24	13	87	37	603	33	17	26	18	20	7	29	37	73	316	43	74	141	45	85	11	10	80	18	19	31	33	42	48	25	44	16	85	34	121	122	10	17	9	54	94	225	223	39	46
OTU 190	16	1	35	7	4	0	0	2	0	4	0	10	0	0	0	19	0	0	0	2	0	0	0	0	1	0	0	0	0	18	0	0	5	0	1	0	0	0	6	2	28	0	4	1	0	6	0	0	3	0
OTU 191	47	88	18	59	18	46	5	1	26	5	3609	263	32	42	53	62	4	15	67	23	3	36	79	35	76	164	15	194	72	35	7	8	39	58	2035	20	34	19	36	5	19	16	173	75	892	13	116	60	241	50
OTU 192	14	61	243	19	17	65	18	38	3	16	214	167	3	40	0	119	55	31	128	54	51	372	0	89	46	684	33	187	87	97	53	50	104	261	55	139	62	91	45	1963	72	90	54	19	141	20	66	35	58	52
OTU 193	4	85	179	0	0	263	0	81	14	62	63	92	64	8	3	79	0	8	229	1	6	106	37	111	89	76	0	36	233	216	0	34	2	27	16	223	0	4	4	26	19	1	4	43	32	2	86	81	23	57
OTU 194	356	29	24	2	5	24	361	6	14	0	2	1	0	3	42	6	11	0	7	6	3	0	0	7	0	0	1	2	73	11	0	158	10	20	8	0	0	403	3	0	20	2	73	3	1	176	0	2	342	0
OTU 195	4	0	5	4	90	0	0	0	0	33	15	2	0	24	11	1	56	40	8	74	1	64	3	7	7	53	121	27	0	9	18	2	132	4	0	12	28	1	0	54	7	79	6	32	37	2	12	6	120	87
OTU 196	56	7	56	27	61	0	1	9	10	15	1	25	10	149	0	35	14	21	14	16	6	2	151	3	9	8	0	127	37	3	4	15	20	108	10	51	168	9	41	32	0	8	276	0	1	2	87	4	7	5
OTU 197	64	349	55	185	1146	166	24	55	60	75	20	758	62	12	3	0	41	41	47	41	62	48	4	12	92	323	7	170	9	4	76	286	89	14	50	69	14	51	45	781	24	24	14	154	36	8	207	105	92	9
OTU 198	71	0	1	0	0	3	0	40	1	73	3	13	0	1	2	568	27	30	28	30	3	0	0	15	8	0	3	1	1	0	10	8	63	0	2	0	1	22	0	1	0	20	0	91	1	32	0	0	0	5
OTU 199	64	12	46	3	0	44	23	5	0	6	0	0	7	0	34	9	7	10	0	9	29	0	6	0	127	4	29	8	7	1	1	6	17	26	1	1429	4	17	0	17	7	3	0	32	1	45	72	0	64	16
OTU 200	0	28	44	17	5	38	0	42	16	13	1	6	13	0	1	0	0	0	30	2	1	14	1	15	3	1	0	59	15	0	4	81	4	17	5	1	72	34	7	33	0	3	6	6	8	4	3	93	58	5
