	Host 1	Host 2	Host 3	Host 4	Host 5	Host 6	Host 7	Host 8	Host 9	Host 10	Host 11	Host 12	Host 13	Host 14	Host 15	Host 16	Host 17	Host 18	Host 19	Host 20	Host 21	Host 22	Host 23	Host 24	Host 25	Host 26	Host 27	Host 28	Host 29	Host 30	Host 31	Host 32	Host 33	Host 34	Host 35	Host 36	Host 37	Host 38	Host 39	Host 40	Host 41	Host 42	Host 43	Host 44	Host 45	Host 46	Host 47	Host 48	Host 49	Host 50	
OTU 1	0	0	2	4	9	1	3	5	7	12	0	0	0	4	3	13	0	0	1	0	0	2	0	0	9	0	20	7	0	9	3	10	0	17	0	2	6	1	3	2	12	10	0	9	1	1	0	1	2	8
OTU 2	0	0	0	0	0	0	0	2	0	0	1	0	2	0	0	1	0	1	0	0	23	2	0	86	0	0	1	0	0	0	0	0	0	0	0	1	0	0	0	0	2	0	2	0	0	0	2	1	0	1
OTU 3	0	0	1	0	0	0	0	0	0	0	1	0	0	0	0	0	0	0	0	1	0	1	1	0	0	1	0	0	0	0	3	0	1	0	2	0	0	0	0	0	2	0	0	0	0	0	0	0	0	0
OTU 4	0	0	0	0	0	0	0	0	0	0	0	0	0	0	0	0	0	0	0	0	0	0	0	0	0	0	0	0	0	0	0	0	0	0	0	0	0	0	0	0	0	0	0	0	0	0	0	0	0	0
OTU 5	4	14	10	8	27	33	14	22	5	0	0	4	10	6	0	1	0	7	11	12	6	14	4	11	8	10	68	1	0	49	20	10	33	12	3	8	39	47	12	3	0	0	14	29	14	8	14	15	9	4
OTU 6	0	1	0	0	0	0	0	0	0	0	1	0	2	0	0	0	0	0	0	0	0	4	1	0	0	0	2	2	3	0	20	0	0	2	0	0	0	0	0	0	0	2	1	0	23	0	3	6	4	1
OTU 7	99	0	0	2	3	4	3	4	1	0	9	0	0	103	3	3	4	0	1	7	0	0	3	43	0	1	0	5	3	1	2	2	0	4	13	1	4	0	10	4	2	4	6	9	4	0	0	4	4	6
OTU 8	8	5	48	3	0	4	3	0	5	14	2	30	5	2	2	1	0	5	3	6	1	5	6	0	3	5	1	2	1	1	3	5	26	3	1	3	7	4	0	120	3	4	1	0	0	1	2	8	3	0
OTU 9	0	2	0	1	0	1	0	0	0	0	2	0	0	2	0	0	1	0	0	1	1	0	0	0	0	1	1	1	0	0	0	0	0	0	0	0	0	0	0	0	2	1	0	0	1	0	0	2	0	0
OTU 10	0	0	0	2	0	2	0	0	0	0	3	0	0	0	1	0	0	0	0	0	1	0	0	0	0	0	0	0	4	0	0	0	0	0	0	0	0	0	1	0	1	0	3	0	0	0	0	0	0	0
OTU 11	0	0	5	0	0	2	0	1	1	0	4	0	0	0	0	6	0	0	0	7	1	0	0	2	1	0	5	5	0	5	1	1	2	0	9	0	5	0	0	0	0	5	1	2	0	0	0	6	1	3
OTU 12	1	1	0	1	1	0	5	0	0	2	5	2	1	0	0	2	1	0	2	1	9	2	0	4	7	0	1	2	2	1	2	5	2	7	5	1	0	1	7	0	0	0	0	1	1	2	1	1	0	2
OTU 13	0	0	0	0	0	0	0	0	0	0	0	1	0	0	1	0	0	0	0	0	0	0	0	3	0	0	0	0	0	0	0	0	0	0	0	0	0	0	0	0	0	0	1	0	0	0	0	0	0	0
OTU 14	0	0	1	0	0	0	3	0	0	2	0	0	1	0	2	1	0	4	0	1	3	8	0	0	0	0	0	0	0	1	0	7	0	0	2	0	0	0	0	2	3	0	1	0	0	0	1	0	0	0
OTU 15	0	0	0	0	0	0	0	0	0	0	0	0	0	0	0	0	0	0	0	0	0	0	0	0	0	0	0	0	0	0	0	0	0	0	0	0	0	0	0	0	0	0	0	0	0	0	0	0	0	0
OTU 16	0	0	0	0	0	1	0	0	0	0	0	0	0	0	0	0	0	0	0	0	0	0	0	2	0	0	0	0	0	0	0	1	0	0	0	0	0	0	0	1	0	0	0	0	0	0	0	0	0	0
OTU 17	0	0	0	0	0	0	0	0	0	0	0	0	4	1	1	0	0	0	2	2	0	1	1	0	0	2	0	0	0	0	3	2	1	0	9	0	1	0	0	0	3	1	0	0	0	2	0	1	1	1
OTU 18	0	1	0	2	0	1	2	2	1	0	0	3	1	0	0	1	4	8	0	8	15	0	0	0	1	0	0	2	0	0	1	0	0	4	2	0	0	1	0	0	2	2	2	0	3	0	0	0	0	2
OTU 19	0	0	1	0	0	0	0	0	0	0	0	0	0	0	0	0	0	0	0	0	0	0	0	0	0	0	0	0	6	0	0	0	0	0	0	0	0	0	0	0	0	0	0	0	0	0	0	0	0	0
OTU 20	0	4	0	3	0	4	0	0	0	0	2	0	9	2	1	0	0	4	0	0	0	1	4	1	0	0	0	3	1	0	1	0	0	1	1	0	0	1	0	0	0	0	62	0	5	0	1	4	0	2
OTU 21	0	4	4	1	0	4	2	0	1	0	8	0	8	0	11	1	4	1	1	1	3	8	7	2	0	1	0	1	1	4	0	2	2	4	0	0	3	1	0	2	4	1	0	0	5	0	1	2	2	0
OTU 22	0	10	0	2	1	2	0	1	0	0	8	0	7	2	10	1	6	0	0	51	1	0	0	1	0	0	0	4	3	0	3	3	0	0	5	0	0	1	0	2	0	1	1	10	0	1	1	1	4	2
OTU 23	0	0	0	0	0	0	2	0	1	10	0	2	0	0	0	1	0	0	2	3	0	0	1	0	3	0	0	0	1	2	0	1	0	8	0	0	0	0	3	0	0	2	2	0	0	0	1	0	2	0
OTU 24	0	0	0	0	0	0	0	0	0	3	7	0	0	2	0	0	0	0	2	0	7	2	1	0	0	3	0	0	0	0	0	0	0	0	0	2	0	1	0	2	1	0	0	0	0	0	0	1	0	0
OTU 25	0	0	0	0	0	0	0	0	0	0	0	0	0	0	0	0	0	0	0	0	0	0	1	0	0	0	0	0	0	0	0	0	0	0	0	0	0	0	0	0	0	0	0	0	0	0	0	0	0	0
OTU 26	0	0	0	0	0	0	0	0	0	0	0	0	6	0	0	0	0	0	0	0	1	0	0	0	0	0	0	0	0	0	0	0	0	0	0	0	0	0	0	0	0	0	0	0	1	0	0	0	0	0
OTU 27	0	0	0	0	0	0	1	0	0	0	0	0	0	0	0	0	0	0	0	0	0	0	0	0	0	0	0	0	0	0	0	0	0	0	0	0	0	0	0	0	0	0	0	0	0	0	0	0	0	0
OTU 28	0	0	4	1	0	1	4	0	0	0	5	0	1	0	3	1	1	0	0	0	2	4	2	2	1	0	2	8	0	1	6	4	1	2	2	3	0	7	2	2	0	1	1	2	9	0	0	0	2	1
OTU 29	2	1	1	1	0	0	1	2	2	3	1	22	1	4	19	0	2	0	9	2	0	8	6	2	7	17	7	11	9	0	5	1	0	1	2	1	0	0	2	13	10	3	1	4	3	11	8	1	16	3
OTU 30	0	0	0	0	0	0	0	0	0	0	0	0	0	0	0	0	0	0	0	0	0	0	0	0	0	0	0	0	0	0	0	0	0	0	0	0	0	0	0	0	0	0	0	0	0	0	0	0	0	1
OTU 31	0	0	0	0	0	7	0	0	1	0	0	0	0	0	0	0	39	0	0	0	1	0	0	24	0	0	0	1	0	35	2	0	0	0	0	0	1	0	0	0	0	1	0	0	1	1	2	0	0	1
OTU 32	7	5	3	1	5	0	0	0	0	0	5	2	0	6	1	4	0	7	30	1	0	41	2	2	0	8	1	2	2	4	48	3	0	0	7	48	1	1	1	1	1	2	3	6	1	2	22	67	2	0
OTU 33	0	0	0	0	0	0	0	0	0	0	0	0	1	3	0	2	0	0	1	0	0	0	0	0	0	0	0	0	0	0	0	1	1	0	0	0	0	0	0	0	0	1	0	0	0	0	0	0	0	0
OTU 34	2	5	4	0	1	0	1	5	1	1	2	1	9	2	0	2	8	0	0	9	0	0	0	2	0	0	0	0	2	0	2	1	0	1	6	0	0	1	0	1	3	3	1	0	0	0	0	0	0	3
OTU 35	0	1	0	0	0	2	0	0	0	3	0	0	3	0	0	1	0	2	1	0	0	0	3	1	3	1	0	4	0	0	0	0	0	0	0	1	1	0	0	0	2	0	1	0	0	0	0	0	0	1
OTU 36	0	2	0	5	0	0	1	1	0	1	9	0	4	0	2	1	0	0	0	0	1	0	3	0	2	9	0	0	0	2	1	2	0	2	7	0	0	0	0	0	5	1	0	2	1	2	0	0	1	0
OTU 37	0	0	0	0	0	0	0	0	0	0	0	0	0	0	0	1	0	0	0	6	0	0	0	0	0	0	0	0	0	0	0	0	0	0	0	0	0	0	0	0	0	0	0	0	0	0	0	0	0	0
OTU 38	0	3	0	1	1	0	1	0	0	0	0	0	0	3	2	2	3	0	33	7	1	2	7	1	0	0	2	2	0	2	0	0	0	0	0	33	0	1	0	0	1	0	1	4	0	0	1	0	0	0
OTU 39	0	0	0	3	0	8	0	0	0	1	3	0	0	0	0	0	0	0	0	3	1	0	2	0	0	0	2	0	0	0	3	0	0	0	0	0	0	0	0	0	0	1	0	0	0	0	0	1	0	2
OTU 40	0	3	5	0	0	0	1	4	0	1	1	1	3	2	0	0	0	2	0	0	1	0	0	0	0	0	1	0	1	0	0	7	3	0	0	1	2	3	0	0	2	0	0	0	1	0	4	1	0	0
OTU 41	0	2	0	0	0	0	0	0	81	0	2	0	0	5	0	1	2	0	0	2	1	1	0	0	0	0	1	0	1	0	0	1	0	0	8	1	0	0	0	0	4	0	0	0	0	5	0	0	1	1
OTU 42	0	0	3	0	0	0	0	0	0	0	1	0	10	0	4	0	0	0	1	0	0	0	0	0	0	0	0	0	2	0	0	0	1	0	0	0	0	0	0	4	0	0	0	0	0	0	0	0	0	0
OTU 43	0	0	0	1	0	0	0	0	1	0	0	0	0	0	0	0	0	0	0	0	1	0	0	0	0	0	0	0	0	0	0	0	0	0	0	0	0	0	0	0	0	0	0	0	0	0	0	0	0	0
OTU 44	0	0	0	0	0	0	0	0	0	1	1	0	0	0	0	0	0	2	0	0	1	0	0	0	0	0	0	0	0	2	0	0	0	0	1	1	0	0	0	0	0	0	0	0	0	1	0	1	1	0
OTU 45	2	2	0	0	1	0	1	0	1	1	1	1	4	0	0	3	0	3	2	2	1	2	0	5	4	4	0	1	3	2	5	9	0	2	1	0	0	0	0	0	0	0	0	3	1	0	1	0	0	0
OTU 46	1	2	1	0	0	0	4	107	3	1	4	2	1	0	1	0	2	0	0	1	6	12	4	0	0	1	0	1	0	0	23	4	1	7	0	3	0	1	3	0	1	4	1	0	2	0	7	0	2	0
OTU 47	0	0	0	1	0	0	0	0	0	0	2	0	0	0	0	0	1	1	0	1	0	0	0	0	0	0	3	2	0	0	0	0	0	0	0	0	0	0	0	0	0	0	0	0	0	0	0	0	1	1
OTU 48	0	5	5	0	1	1	0	0	2	2	4	0	2	2	1	2	2	0	1	7	2	2	1	2	1	0	2	2	0	0	0	2	3	0	2	1	2	1	2	0	2	3	2	0	3	0	1	0	2	0
OTU 49	0	1	0	0	1	0	1	0	1	1	1	0	2	0	0	0	1	1	3	0	1	1	0	1	0	8	1	0	147	0	0	0	0	4	0	0	0	0	1	0	0	2	1	2	1	3	0	0	0	0
OTU 50	0	2	0	2	0	0	0	1	1	6	2	0	0	1	0	1	0	0	3	8	1	0	0	2	0	0	0	1	0	2	1	1	0	0	13	1	1	2	0	2	4	5	0	0	5	44	0	1	0	0
OTU 51	0	0	3	0	1	0	0	0	0	0	1	1	0	0	6	0	0	0	1	0	0	0	0	0	0	0	3	0	0	0	0	0	0	0	0	0	0	2	1	1	1	0	0	0	2	0	0	0	0	2
OTU 52	0	1	0	0	3	0	1	1	0	3	5	1	3	7	1	6	1	2	1	9	3	5	1	6	2	1	1	2	0	0	10	2	0	3	0	0	3	7	0	1	2	3	1	2	0	28	0	4	3	3
OTU 53	0	0	0	0	0	0	0	0	0	0	0	0	0	0	0	0	0	0	0	0	0	0	0	0	0	0	0	0	0	0	0	0	0	0	0	0	0	0	0	0	0	0	0	0	0	0	0	0	0	0
OTU 54	4	1	4	10	0	0	0	0	1	2	2	0	1	5	2	4	1	10	1	10	33	1	16	5	3	1	2	11	8	0	1	4	0	1	0	1	0	0	93	0	2	0	4	1	0	0	0	0	1	3
OTU 55	0	0	0	0	0	0	0	0	0	0	0	0	0	0	0	0	0	0	0	0	0	0	0	0	0	0	0	0	0	0	0	0	0	0	0	0	0	0	0	0	0	0	0	0	0	0	0	0	0	0
OTU 56	0	0	0	0	0	0	0	0	0	0	1	1	0	0	0	0	2	0	3	0	0	0	0	0	0	1	0	0	1	0	0	0	0	0	0	0	0	0	0	0	0	0	0	1	0	0	0	0	0	0
OTU 57	1	7	5	3	1	7	2	0	4	1	1	0	0	2	8	0	8	16	1	2	1	3	4	6	1	0	8	8	5	3	4	5	0	2	5	3	5	0	34	3	0	7	1	3	0	0	0	10	0	2
OTU 58	0	1	0	0	0	0	0	1	0	0	2	0	1	1	1	0	0	0	0	0	0	1	0	0	0	0	0	0	1	0	0	0	1	0	0	0	0	0	0	0	2	0	1	0	0	1	0	0	1	1
OTU 59	0	0	1	0	19	0	0	0	0	2	2	1	0	0	2	0	0	0	2	5	3	1	0	0	0	2	0	0	0	17	2	0	1	0	0	0	0	1	0	3	0	1	0	0	0	1	0	0	1	0
OTU 60	0	1	1	0	0	0	0	1	0	1	1	2	2	6	0	5	0	0	0	1	5	0	3	0	3	1	1	4	4	1	0	0	0	0	7	1	0	0	0	0	3	1	0	0	0	0	3	3	0	1
OTU 61	2	6	1	0	19	21	62	3	0	5	0	29	0	15	2	7	2	1	25	3	8	3	3	2	3	3	50	0	1	8	11	3	3	100	0	37	0	2	55	2	1	1	42	0	1	1	3	47	3	0
OTU 62	0	4	0	0	0	0	0	0	1	2	0	1	0	0	0	0	0	0	0	2	0	1	0	0	1	0	0	0	0	0	0	1	0	0	0	1	0	0	0	0	2	0	2	0	0	0	0	0	0	0
OTU 63	0	0	4	0	0	2	0	5	1	1	0	0	6	0	1	0	0	0	1	0	0	2	0	0	0	0	4	0	0	1	0	0	0	0	1	1	2	2	0	0	0	4	0	0	0	0	1	0	0	0
OTU 64	0	2	1	0	0	2	1	0	2	2	3	5	4	3	4	5	1	0	1	6	5	0	0	0	4	8	0	3	2	0	0	3	1	0	2	0	3	2	3	1	0	4	0	11	0	1	1	1	1	2
OTU 65	0	0	0	0	0	0	0	0	0	0	0	0	0	0	0	0	0	0	0	0	0	0	0	0	0	0	0	0	0	0	0	0	0	0	0	0	0	0	0	0	0	0	0	0	0	0	0	0	0	0
OTU 66	0	16	0	1	0	139	0	0	0	0	0	6	1	0	4	3	0	3	1	0	0	3	1	0	1	0	3	7	2	7	4	8	1	1	21	0	0	0	0	0	2	0	2	49	8	0	7	1	0	1
OTU 67	0	4	17	0	0	4	0	0	0	0	0	0	7	1	6	0	1	0	0	0	5	0	5	1	1	0	1	0	0	2	1	0	8	0	0	0	0	0	0	3	0	0	0	52	0	0	3	0	0	0
OTU 68	0	0	0	5	0	0	2	2	0	0	0	1	0	0	0	0	1	0	0	0	0	3	0	1	0	0	0	1	1	0	0	0	0	4	0	0	0	0	1	0	0	4	4	0	0	0	0	3	0	0
OTU 69	2	0	3	0	0	0	1	2	0	13	2	2	0	8	0	6	1	0	0	0	0	2	0	2	1	0	1	0	1	0	3	0	0	3	1	1	0	3	3	2	0	1	7	0	1	0	4	0	0	0
OTU 70	0	0	0	0	0	0	0	0	0	0	9	0	8	0	3	0	0	0	0	1	0	4	0	34	3	0	2	3	1	6	0	0	0	1	0	0	0	0	0	1	0	0	0	1	2	0	2	0	0	0
OTU 71	0	0	29	0	0	0	0	0	0	4	1	0	0	0	0	0	0	12	0	0	0	0	1	1	0	6	2	0	1	0	1	0	17	1	0	0	1	0	0	0	5	0	0	1	0	1	0	3	0	0
OTU 72	1	0	0	5	0	1	0	0	1	0	1	0	5	0	0	1	4	6	0	2	1	0	2	0	0	1	0	1	0	0	7	2	0	1	2	1	1	0	0	0	2	0	0	1	0	0	0	0	0	1
OTU 73	97	1	0	5	0	0	2	4	0	0	0	0	1	4	0	2	3	3	1	3	15	0	0	0	0	11	0	6	2	4	0	0	0	7	4	4	2	0	0	1	1	2	3	0	0	4	1	0	0	6
OTU 74	0	1	0	0	0	1	0	1	54	3	3	1	9	0	2	0	3	2	0	2	0	10	8	0	1	0	1	0	0	0	1	1	0	0	1	0	0	0	0	1	0	0	0	0	1	0	1	2	2	2
OTU 75	0	10	1	0	0	0	2	14	0	3	0	1	14	3	0	2	0	4	0	0	7	1	0	0	0	0	0	0	1	0	1	0	3	0	11	1	6	4	2	0	5	10	3	4	0	1	0	2	1	0
OTU 76	0	0	0	35	0	0	0	0	0	0	3	1	0	0	1	1	0	3	0	1	0	0	0	0	0	1	0	86	0	2	1	1	0	0	0	0	0	0	0	0	6	0	0	0	0	0	2	0	3	34
OTU 77	0	1	0	0	5	2	10	0	0	0	2	2	0	0	2	0	1	1	0	11	2	0	2	1	6	0	0	0	2	1	0	0	1	3	4	0	53	0	3	3	3	0	4	0	2	0	0	0	1	1
OTU 78	0	0	1	0	3	11	13	0	1	0	2	0	3	1	3	1	0	1	0	1	0	0	0	0	2	0	19	1	7	0	1	3	1	22	0	7	0	0	16	2	3	0	16	6	2	0	1	13	3	1
OTU 79	0	4	13	63	5	5	3	1	2	2	12	2	3	4	4	6	5	1	1	3	14	8	76	1	7	4	4	11	2	28	3	19	3	7	11	0	4	2	0	1	7	1	114	3	6	3	0	6	3	4
OTU 80	0	4	1	19	0	0	2	0	1	22	0	2	0	18	50	0	0	2	0	5	1	0	1	1	1	3	6	21	34	0	2	0	0	4	2	0	0	0	0	34	0	0	2	26	0	1	0	2	0	19
OTU 81	0	6	2	0	0	0	1	0	0	9	3	2	1	3	1	26	0	3	0	0	0	1	4	0	5	0	0	1	5	0	4	2	2	2	4	0	1	0	3	0	0	0	2	0	1	0	0	0	1	1
OTU 82	0	1	0	1	0	1	1	0	0	5	0	3	0	0	0	3	0	0	0	2	1	1	0	3	2	0	0	4	0	0	0	3	1	0	0	0	0	1	0	1	0	0	1	0	0	0	0	0	0	1
OTU 83	0	0	2	0	0	0	0	0	0	5	0	0	0	0	1	0	0	0	0	3	2	0	0	0	0	0	0	0	0	0	0	0	0	0	0	1	0	0	0	3	0	0	0	0	0	0	0	0	0	0
OTU 84	0	0	0	0	3	0	3	0	0	1	0	0	2	0	0	1	11	0	1	0	0	0	1	1	0	4	2	0	0	0	2	0	0	12	1	3	36	0	0	0	12	0	5	2	0	0	1	0	2	0
OTU 85	1	0	0	0	0	0	1	0	0	0	0	0	0	0	1	1	0	4	1	1	0	5	0	1	2	0	1	1	0	2	0	1	0	0	0	0	0	1	0	0	0	0	0	0	0	1	3	0	0	0
OTU 86	0	0	0	0	0	0	0	3	2	0	0	0	0	0	0	0	0	0	0	0	0	0	0	0	0	0	0	0	0	2	0	0	3	0	0	0	0	1	0	0	0	2	0	0	0	0	0	0	0	0
OTU 87	0	0	0	0	0	0	0	0	0	0	0	0	2	0	0	2	0	2	54	0	0	0	0	0	0	0	0	0	0	0	0	0	15	0	0	0	0	5	1	1	0	0	0	0	0	0	0	0	0	0
OTU 88	0	1	0	0	0	1	0	0	0	1	0	0	0	0	0	0	0	0	0	0	0	0	0	0	0	0	0	0	0	0	0	1	0	0	0	0	0	0	0	0	0	0	0	0	0	0	0	0	0	0
OTU 89	0	0	4	0	0	3	0	0	0	0	0	0	1	0	0	0	2	0	0	5	0	1	0	2	0	0	0	0	0	0	0	0	0	0	5	0	0	1	0	0	0	0	2	0	0	0	0	0	0	0
OTU 90	0	0	0	0	0	0	0	0	0	1	0	0	0	0	0	0	0	0	0	0	0	2	0	0	0	0	0	0	0	0	0	0	0	0	3	0	0	0	0	0	0	0	0	0	4	0	0	0	0	0
OTU 91	0	0	0	0	0	0	0	0	0	0	0	0	0	0	0	0	0	1	0	0	0	0	0	0	0	0	0	0	0	0	0	0	0	0	0	0	0	0	0	0	0	0	0	0	0	0	0	3	0	0
OTU 92	0	0	0	0	1	0	1	0	0	1	1	0	0	2	0	0	0	0	0	0	0	0	0	0	0	0	0	0	0	0	0	23	0	0	0	0	0	1	0	0	0	0	0	1	0	0	0	0	0	0
OTU 93	0	0	0	0	0	0	0	1	0	0	0	3	6	0	1	1	0	0	1	0	0	0	0	0	0	0	0	0	0	0	0	0	0	0	0	0	0	0	0	0	0	0	0	0	0	0	0	0	0	0
OTU 94	4	2	4	2	2	0	8	7	6	0	0	1	2	1	13	0	1	1	3	2	0	7	0	2	0	1	3	3	5	0	5	4	3	17	5	0	9	10	4	15	0	12	1	2	2	1	6	9	6	0
OTU 95	1	0	0	0	0	3	0	0	0	1	0	3	0	0	0	0	0	1	0	1	1	0	0	0	0	0	2	0	0	0	0	0	0	0	0	0	0	0	0	0	0	0	1	1	0	0	0	0	0	0
OTU 96	0	0	0	0	0	0	0	0	0	0	0	0	0	0	3	4	0	0	0	0	0	0	0	0	0	0	0	1	0	0	0	0	0	0	0	3	0	0	1	0	0	0	0	0	0	0	0	0	0	0
OTU 97	0	0	0	0	0	0	0	0	0	0	0	0	0	0	0	0	3	0	0	0	0	0	0	1	0	2	0	0	0	0	0	0	0	0	0	0	0	0	0	0	0	0	0	0	0	0	1	2	0	0
OTU 98	0	0	0	0	0	0	0	0	0	1	0	0	11	0	0	3	1	0	0	1	0	0	1	0	0	16	0	0	0	0	2	0	0	3	0	0	0	0	0	0	0	0	0	0	1	3	1	0	0	0
OTU 99	0	1	1	0	75	0	0	5	0	0	3	0	1	0	1	6	0	0	1	0	19	1	1	0	4	0	4	2	0	0	0	0	3	3	8	2	0	0	32	1	1	5	0	4	0	2	1	1	2	180
OTU 100	1	3	60	1	4	1	0	0	0	0	0	0	2	2	0	6	3	6	3	0	2	0	0	0	0	0	0	1	2	0	0	0	26	0	1	1	0	9	1	2	1	3	1	1	0	0	0	6	0	3
OTU 101	0	0	0	0	0	0	0	0	0	0	0	0	0	0	0	0	0	0	0	0	0	0	1	0	0	0	0	0	0	0	5	0	0	1	0	0	0	0	0	0	3	0	0	0	0	0	0	0	0	0
OTU 102	0	0	0	0	0	0	0	0	0	0	0	0	0	0	1	0	0	0	0	1	0	0	0	0	2	0	0	0	0	0	0	0	0	0	2	1	0	0	0	2	0	0	0	0	0	0	0	0	1	0
OTU 103	0	0	0	0	1	0	0	0	0	1	2	0	0	1	0	0	0	0	0	0	1	0	0	0	8	4	1	0	1	1	0	0	1	0	1	0	0	0	0	1	0	1	1	1	0	0	6	12	0	1
OTU 104	0	1	2	0	2	0	1	0	1	2	0	1	0	0	2	2	0	1	0	11	4	1	0	0	2	3	2	2	0	0	0	5	0	2	0	0	0	0	3	0	1	3	1	0	0	2	2	0	0	0
OTU 105	0	0	0	0	0	0	0	0	0	0	0	0	0	2	0	1	0	0	0	0	7	0	1	0	0	1	0	0	0	0	0	0	0	0	5	0	0	0	0	0	2	0	0	0	0	0	0	0	0	0
OTU 106	0	0	3	1	0	0	0	0	0	0	0	0	0	0	0	0	1	0	0	0	0	0	63	0	0	0	0	0	0	0	0	0	0	0	3	0	0	1	0	0	0	0	0	0	0	0	0	0	1	0
OTU 107	3	94	0	0	0	0	0	1	0	0	0	0	2	0	3	0	0	0	0	0	0	0	0	0	2	1	0	0	0	3	0	0	0	0	1	0	0	0	1	1	0	0	0	0	0	1	0	3	0	0
OTU 108	2	1	0	0	0	0	0	0	0	0	0	0	3	0	4	0	0	0	0	0	0	5	0	0	0	4	0	0	2	0	0	3	0	1	0	0	0	0	2	0	1	0	0	5	0	4	1	0	0	0
OTU 109	0	0	0	0	0	0	0	0	0	0	0	0	0	0	0	0	0	0	0	0	2	0	0	0	0	0	0	0	0	0	0	0	0	0	0	0	0	0	0	0	0	0	0	0	0	0	0	0	0	0
OTU 110	3	5	1	0	0	0	1	1	2	2	1	0	0	0	6	0	2	0	1	1	2	5	3	2	3	0	0	0	0	1	2	8	0	0	0	0	0	0	1	2	2	2	0	1	1	0	2	0	0	0
OTU 111	0	0	0	0	0	0	0	0	0	0	0	0	0	0	0	0	0	1	2	0	0	0	0	0	0	0	0	0	0	0	0	0	0	1	0	18	0	0	2	0	0	0	0	1	0	0	0	0	0	0
OTU 112	7	0	1	1	0	0	0	0	0	0	0	0	0	0	4	6	1	0	0	1	3	3	0	0	0	0	2	1	0	0	0	0	0	0	0	0	0	0	0	0	2	0	0	9	0	0	8	0	0	0
OTU 113	0	0	0	0	0	0	0	0	1	0	0	2	0	0	0	0	0	0	0	0	0	0	2	0	2	0	0	1	0	0	0	1	28	0	0	0	0	0	1	0	0	0	0	0	0	0	0	0	0	0
OTU 114	1	0	3	0	6	7	0	4	1	17	3	4	6	1	3	4	5	1	1	3	0	1	0	0	2	0	12	1	4	3	5	0	2	0	5	0	0	0	0	0	4	0	0	3	1	1	2	3	1	1
OTU 115	1	1	0	6	0	2	6	0	6	1	6	2	0	0	0	8	7	19	9	29	4	0	2	1	0	1	3	15	3	6	0	2	0	6	4	1	0	0	4	1	4	9	0	0	4	0	1	7	106	10
OTU 116	0	28	2	1	0	1	1	2	3	0	3	1	1	1	0	1	0	0	2	2	0	1	0	0	1	2	0	5	0	0	1	0	0	2	1	4	2	1	0	3	3	3	0	1	0	0	0	2	0	3
OTU 117	0	2	0	0	0	0	0	0	0	0	0	0	3	0	0	0	66	26	0	2	4	2	0	27	0	0	0	2	0	0	18	0	0	1	0	0	0	1	0	0	8	0	1	0	0	0	1	2	1	1
OTU 118	0	0	2	0	0	0	0	0	0	0	0	0	0	0	0	0	0	1	6	0	0	3	0	0	0	2	0	0	13	0	0	3	1	0	0	0	0	0	0	0	0	0	0	1	0	0	0	4	0	0
OTU 119	0	0	1	0	1	1	0	0	16	2	3	1	0	0	1	5	1	0	58	5	0	2	1	0	8	18	0	1	0	0	0	0	2	3	1	0	0	0	0	0	2	0	0	1	2	4	0	0	1	0
OTU 120	0	0	0	0	0	0	0	0	0	4	0	0	2	0	0	0	0	2	0	0	0	0	0	0	0	0	1	0	1	0	0	0	0	0	0	0	0	0	0	0	2	0	0	0	0	0	0	0	0	0
OTU 121	1	0	0	0	0	0	1	0	1	1	0	6	4	3	1	1	0	0	0	1	0	0	6	0	0	0	2	0	5	1	6	7	1	1	2	1	0	0	0	0	7	2	1	0	2	0	0	0	1	0
OTU 122	0	1	15	0	1	1	0	22	20	3	1	0	3	1	5	3	85	5	0	3	2	1	0	35	0	111	5	0	2	1	2	1	15	4	3	0	30	26	1	4	2	35	1	1	0	66	2	0	0	0
OTU 123	2	8	5	4	3	2	0	4	7	0	2	1	3	2	3	2	5	5	3	1	1	1	2	0	5	8	2	2	2	1	6	9	1	1	6	3	4	0	7	2	5	15	3	1	5	5	2	5	8	1
OTU 124	0	0	0	0	0	0	0	0	0	0	0	1	0	11	0	10	0	0	0	0	0	0	0	0	0	0	0	0	0	0	0	0	0	0	0	0	73	0	0	0	0	0	0	0	1	0	0	0	4	0
OTU 125	2	12	4	5	10	12	14	1	0	2	2	1	2	0	2	5	4	15	10	5	8	1	9	0	7	6	37	1	5	2	1	18	0	18	1	16	0	3	13	2	0	1	5	1	3	8	3	4	2	1
OTU 126	0	0	0	0	0	0	0	0	0	0	2	0	0	0	1	0	0	0	0	0	0	0	0	0	0	0	2	0	0	0	0	0	0	1	1	0	0	0	0	0	0	0	0	0	0	0	0	0	0	0
OTU 127	2	2	1	0	0	0	0	1	0	0	0	1	1	1	0	0	1	0	0	0	2	0	2	0	0	0	1	0	0	1	10	0	1	1	0	0	2	0	2	1	2	0	4	0	7	0	4	4	0	1
OTU 128	1	1	8	1	0	5	2	10	57	3	8	161	3	57	2	0	16	5	4	5	2	2	3	16	8	4	11	3	0	21	6	4	1	4	18	6	0	5	2	1	4	5	2	1	10	3	8	5	8	1
OTU 129	0	0	0	0	0	1	0	0	0	0	0	0	0	0	0	0	0	2	3	0	0	0	0	0	0	0	0	0	0	0	0	3	0	0	0	0	0	0	0	0	0	0	0	2	0	1	0	0	0	0
OTU 130	0	1	0	0	30	2	0	0	0	1	3	0	3	0	2	0	0	1	0	2	1	0	36	1	0	3	0	0	4	0	0	0	2	0	2	3	0	1	0	0	0	1	0	0	2	0	0	4	0	0
OTU 131	2	1	0	0	0	1	1	3	0	2	0	6	0	0	0	1	0	7	0	3	1	0	1	0	1	0	3	0	0	3	1	1	0	0	8	0	1	2	0	0	1	3	0	0	0	0	0	1	5	0
OTU 132	0	0	0	0	0	0	1	0	0	1	0	0	2	0	0	0	0	0	1	0	3	0	1	3	1	0	0	0	0	0	1	2	0	0	3	0	0	0	0	1	0	0	1	0	0	0	0	0	0	0
OTU 133	49	0	1	0	0	0	0	0	0	0	0	0	3	0	0	1	0	3	1	0	0	0	0	0	1	0	0	0	0	0	0	0	0	0	0	0	0	0	0	0	0	0	0	0	0	0	114	0	0	0
OTU 134	0	1	0	0	0	0	0	0	0	1	5	1	5	1	2	0	0	7	0	1	1	7	0	2	1	2	0	3	4	1	15	1	0	0	1	2	3	0	0	2	1	3	0	5	4	1	1	1	1	2
OTU 135	1	0	22	2	0	0	3	2	2	5	6	1	77	2	3	2	6	5	2	1	0	3	1	1	0	1	3	5	0	1	3	3	14	7	0	1	6	2	5	8	3	5	6	3	0	0	4	6	0	2
OTU 136	0	0	0	0	0	1	1	0	0	9	0	0	0	0	3	1	0	1	0	0	2	0	0	0	0	0	2	1	2	4	0	4	0	4	0	10	0	0	2	2	5	0	0	1	0	0	0	3	0	0
OTU 137	0	0	0	0	0	0	0	0	0	0	0	0	0	1	0	0	0	1	0	0	0	0	0	4	0	0	0	0	0	0	0	0	0	0	0	0	0	0	0	0	0	0	0	0	0	0	0	0	0	0
OTU 138	0	0	0	0	0	0	0	2	0	0	0	0	0	0	0	1	2	0	0	4	1	5	0	1	0	0	1	1	0	0	1	0	0	0	0	2	0	0	0	0	0	0	0	0	0	0	0	0	0	0
OTU 139	0	2	25	0	2	2	0	5	4	3	1	0	10	3	0	0	0	4	1	5	15	1	2	0	1	0	1	2	3	0	0	0	14	2	0	0	2	16	2	0	1	9	5	1	0	0	0	7	9	0
OTU 140	1	4	5	1	2	25	0	0	1	18	12	2	9	0	0	2	6	1	3	1	16	1	2	0	11	2	1	0	5	6	1	2	8	0	17	2	2	38	2	0	7	1	0	4	2	122	3	3	2	1
OTU 141	0	0	0	0	0	0	0	0	0	0	0	0	0	0	0	0	0	1	0	0	3	0	0	0	0	0	0	0	0	0	0	0	0	0	0	0	0	0	0	0	0	0	0	0	0	0	0	0	0	0
OTU 142	0	0	0	0	0	0	0	0	0	0	0	0	0	0	0	0	0	0	0	1	3	0	0	0	0	0	0	0	0	0	0	0	0	1	0	0	0	0	1	0	0	0	0	0	0	0	1	0	0	0
OTU 143	0	0	3	0	0	0	1	4	3	0	7	0	0	0	0	1	0	0	1	1	3	0	0	0	0	1	0	0	0	0	0	0	1	0	0	0	7	5	0	0	0	10	0	0	0	0	0	0	0	0
OTU 144	0	0	0	0	1	0	0	0	0	0	0	0	0	0	0	0	1	0	11	0	0	0	0	0	0	1	0	0	0	0	0	0	0	0	0	0	0	0	0	0	0	0	0	0	1	2	0	0	0	0
OTU 145	3	3	0	3	6	12	0	3	2	2	10	0	0	0	0	0	1	0	3	1	0	0	3	0	1	2	17	2	2	0	1	0	1	0	2	1	3	5	5	0	0	3	0	0	3	0	2	0	0	3
OTU 146	2	3	1	1	0	2	1	56	36	0	1	0	1	2	2	4	4	1	0	0	0	0	2	5	0	2	2	0	2	49	0	0	0	0	1	1	25	29	0	1	0	85	0	2	2	0	0	1	1	0
OTU 147	2	0	0	0	0	0	1	1	2	0	0	0	0	0	0	0	0	0	0	0	0	0	4	0	8	0	0	0	0	0	0	0	0	14	0	0	0	1	2	0	0	0	0	0	0	0	5	26	2	0
OTU 148	0	10	0	0	1	2	0	3	1	0	3	1	5	0	1	8	0	1	0	3	0	2	0	1	0	0	1	1	0	1	2	1	0	0	4	0	3	2	0	1	2	8	0	0	1	0	0	4	4	1
OTU 149	0	3	1	0	0	0	0	0	0	0	6	0	0	0	0	1	2	0	0	3	0	0	0	2	0	6	0	0	0	0	0	0	0	0	0	2	0	0	0	0	0	0	0	0	0	1	0	0	0	0
OTU 150	0	0	0	0	0	0	0	0	0	0	0	0	1	0	0	1	1	0	0	0	1	0	0	1	2	1	0	0	0	0	0	0	0	0	0	0	0	0	0	0	0	0	0	0	1	0	0	0	3	0
OTU 151	0	0	0	1	0	1	0	2	0	1	6	2	0	2	0	6	0	0	0	0	4	0	0	0	0	2	0	6	0	2	1	9	0	0	0	7	1	0	0	0	0	1	1	0	0	0	0	0	0	0
OTU 152	0	0	0	0	0	0	3	9	5	0	0	2	5	2	1	3	5	73	3	3	0	1	0	0	0	1	1	0	0	1	8	2	0	6	9	1	9	8	2	0	0	17	1	0	6	1	0	2	2	0
OTU 153	0	0	0	0	0	0	0	0	0	0	0	0	0	0	0	0	0	0	0	0	1	0	0	0	0	0	0	0	0	2	0	0	101	0	0	0	0	0	0	0	0	0	0	0	0	0	0	0	0	0
OTU 154	0	0	0	0	0	0	0	0	0	0	0	1	0	0	4	0	0	0	0	0	0	0	0	0	0	0	0	0	0	0	0	0	0	0	0	0	0	0	0	1	0	0	0	0	0	0	0	0	0	0
OTU 155	0	1	2	1	1	0	0	0	0	0	0	0	0	0	1	2	0	2	0	0	8	0	0	1	0	2	0	1	0	0	0	1	2	0	2	5	0	1	0	1	0	2	0	0	1	1	0	1	0	0
OTU 156	0	3	2	0	1	1	0	3	5	0	0	7	0	43	1	98	0	7	1	2	1	5	0	0	4	33	2	0	0	1	0	3	2	0	6	5	3	5	3	0	0	7	4	0	35	27	0	0	0	0
OTU 157	4	0	2	0	0	0	0	0	1	0	0	0	0	0	1	0	0	0	0	0	0	0	0	0	0	0	0	0	0	34	0	0	0	0	4	4	0	0	0	0	0	5	1	0	8	0	0	0	1	0
OTU 158	0	0	0	0	2	0	0	0	0	0	0	0	0	1	0	0	0	0	0	0	0	0	0	0	0	0	0	0	0	0	0	0	0	0	0	0	0	0	0	0	0	0	0	0	0	0	0	0	0	0
OTU 159	1	0	1	1	0	0	0	1	3	3	1	0	0	0	0	0	1	4	0	12	0	0	0	1	0	0	1	0	0	8	0	3	0	0	2	0	2	0	2	0	1	1	0	0	2	0	0	1	0	1
OTU 160	1	7	1	3	2	0	170	1	3	5	4	0	7	2	2	0	0	18	1	5	3	0	0	1	4	0	0	0	0	0	0	0	0	0	3	5	0	4	2	0	1	3	2	2	6	3	0	2	4	1
OTU 161	1	0	1	18	0	1	0	0	0	11	5	4	3	0	65	3	0	0	0	1	5	1	8	0	0	0	0	23	9	22	6	2	0	0	2	1	1	0	0	23	72	0	0	16	35	0	1	1	23	10
OTU 162	0	0	0	0	1	0	2	2	3	2	2	0	1	0	0	2	0	0	2	1	1	3	0	0	1	1	1	0	0	0	2	3	0	8	0	0	2	0	0	0	0	0	10	1	2	2	0	0	6	1
OTU 163	0	0	0	0	0	0	0	0	0	0	0	0	0	0	0	0	0	0	1	0	1	0	0	0	0	0	0	0	0	0	0	0	0	0	0	0	0	0	0	0	0	0	0	0	0	0	0	0	0	0
OTU 164	0	2	0	0	0	0	0	0	0	0	0	0	0	0	0	0	0	0	0	0	0	0	0	0	0	0	0	0	0	0	0	0	0	0	0	0	0	0	0	0	0	0	0	0	0	0	0	0	0	0
OTU 165	22	0	0	0	0	0	0	0	0	0	1	0	0	0	0	0	0	2	1	1	1	63	2	3	2	0	2	2	0	0	0	0	0	0	1	0	0	0	1	0	1	0	1	3	0	0	29	0	2	1
OTU 166	0	0	0	0	0	0	0	0	0	0	0	0	0	0	0	0	0	0	0	0	0	0	0	0	0	0	0	0	0	0	0	0	0	0	0	0	0	0	0	0	0	0	0	0	0	0	0	0	0	0
OTU 167	1	0	2	0	0	0	3	0	0	0	1	1	0	0	3	0	2	0	1	0	0	0	1	0	1	0	3	0	2	0	0	12	0	0	0	0	0	0	0	2	0	0	1	0	0	0	2	0	14	0
OTU 168	0	6	0	0	119	0	0	1	2	3	0	1	0	0	0	1	1	0	0	2	4	0	0	0	1	2	1	0	0	0	2	0	1	0	0	0	1	0	0	0	0	5	0	2	3	2	0	1	0	2
OTU 169	0	0	0	0	0	0	0	0	0	0	89	0	0	0	0	0	0	0	0	4	0	0	0	0	0	0	0	0	0	0	3	0	0	0	0	0	0	0	0	0	0	0	0	0	0	0	1	0	0	0
OTU 170	0	0	0	0	0	0	0	0	0	1	0	0	0	0	0	0	0	0	0	0	0	0	0	0	0	0	0	0	0	0	0	0	0	0	2	0	0	0	0	0	0	0	0	0	0	0	0	0	0	0
OTU 171	1	0	2	1	1	3	0	0	2	3	0	0	1	0	0	0	0	0	0	1	0	0	2	1	0	1	1	0	6	0	5	1	0	1	3	2	1	0	4	1	48	1	0	43	2	0	0	4	45	0
OTU 172	0	1	0	0	0	0	0	0	1	0	0	0	0	0	0	0	0	0	0	0	0	0	0	0	1	0	1	0	0	0	0	0	0	0	0	0	2	0	0	0	0	0	0	0	1	0	0	1	0	0
OTU 173	0	0	0	0	0	0	0	0	0	0	2	0	0	0	0	0	0	1	0	3	0	0	1	1	1	3	0	1	0	0	3	0	0	0	0	0	0	0	0	0	1	0	0	0	0	0	0	3	0	0
OTU 174	0	6	0	127	0	0	4	1	0	3	1	1	0	1	0	7	0	4	6	0	0	0	1	1	0	3	0	0	0	0	4	0	0	3	0	0	0	3	2	0	1	0	2	0	3	0	0	0	2	0
OTU 175	0	1	0	0	0	1	0	0	0	0	0	0	0	1	0	1	0	0	0	3	0	0	0	0	0	3	0	0	0	0	2	5	0	0	0	0	0	1	0	0	0	0	0	1	2	3	0	0	1	0
OTU 176	2	1	2	0	0	3	2	0	0	0	1	0	0	0	1	1	1	4	2	1	3	3	4	3	107	1	3	7	1	0	2	1	0	2	4	0	2	0	1	0	6	1	3	1	5	1	4	1	0	3
OTU 177	0	0	0	0	2	2	1	0	1	2	5	2	0	0	0	1	0	0	0	3	0	2	0	0	3	1	0	0	2	0	0	0	0	1	1	2	4	4	0	0	1	0	0	2	4	1	0	3	3	0
OTU 178	0	1	0	3	0	0	0	4	4	0	0	0	0	0	2	0	1	0	1	0	3	0	0	0	0	0	0	5	0	0	0	0	2	0	1	0	0	0	0	0	0	0	0	5	0	0	1	0	0	2
OTU 179	0	0	0	3	1	0	0	1	0	0	0	0	0	0	3	0	3	0	0	2	0	0	0	0	0	0	0	9	0	0	0	1	0	0	1	0	0	0	0	1	0	0	0	3	0	1	0	2	3	4
OTU 180	1	5	4	8	3	4	0	1	2	97	5	22	3	3	1	6	4	3	7	1	17	5	2	5	67	1	1	2	1	3	1	70	4	5	7	3	0	86	5	1	1	2	4	2	6	0	0	3	1	3
OTU 181	0	3	0	0	0	0	0	33	2	0	0	0	0	0	0	0	0	2	0	2	3	0	1	0	1	0	0	2	2	0	5	0	0	0	0	1	1	4	0	0	0	1	0	0	1	0	0	0	0	0
OTU 182	0	0	0	0	0	0	0	0	0	1	0	0	0	0	0	0	0	0	0	0	0	0	0	0	0	0	0	0	0	0	0	0	0	0	0	0	0	0	0	0	3	0	0	0	0	0	0	0	0	0
OTU 183	0	0	0	0	1	1	0	0	1	7	0	3	0	0	0	0	0	5	4	2	0	0	1	1	0	1	0	0	0	0	0	1	5	0	8	2	0	0	1	0	0	2	0	0	3	0	0	1	0	0
OTU 184	0	0	0	0	0	0	0	2	0	0	0	0	0	0	0	0	1	0	0	0	3	4	0	0	1	3	0	0	0	0	0	0	0	1	0	0	0	0	0	3	0	0	0	0	74	1	0	0	0	3
OTU 185	0	2	1	1	0	2	3	0	5	1	4	0	0	1	4	1	5	4	1	2	4	3	0	2	0	0	3	1	0	3	0	0	1	4	2	1	2	0	1	2	1	10	1	0	7	0	3	0	0	1
OTU 186	0	0	0	0	0	1	0	0	0	0	0	0	0	0	0	0	0	1	0	0	0	0	0	0	0	0	0	1	2	0	0	1	1	0	1	0	1	0	0	0	1	5	1	1	3	0	2	1	0	1
OTU 187	20	2	2	0	0	2	1	0	0	0	7	7	0	0	1	0	4	3	20	1	5	53	1	0	4	1	1	1	0	0	1	1	7	0	4	79	0	0	5	0	3	0	0	0	5	1	28	8	3	0
OTU 188	1	3	8	1	3	1	0	1	0	8	1	2	12	5	7	12	9	4	3	5	6	3	7	5	2	9	10	2	5	3	11	13	4	1	0	2	3	5	2	10	14	1	1	3	5	0	4	11	11	4
OTU 189	18	0	0	3	1	5	0	0	0	0	0	0	10	0	0	3	4	1	1	2	4	3	14	0	6	0	3	7	1	0	11	0	0	0	17	1	0	0	1	1	4	0	0	0	1	0	30	2	0	1
OTU 190	0	0	0	0	1	0	0	0	0	0	2	0	0	0	0	0	2	0	1	3	0	0	0	0	2	0	3	0	0	0	0	0	0	0	1	0	0	0	0	0	0	0	0	1	0	0	0	0	0	0
OTU 191	0	1	0	0	3	2	1	0	1	0	0	0	1	3	1	5	0	2	0	0	0	1	2	0	2	1	1	0	1	0	0	0	2	3	4	0	0	0	2	0	1	2	1	0	0	0	5	0	0	0
OTU 192	1	4	5	3	0	1	3	2	1	2	7	0	5	3	2	0	1	1	1	0	2	3	1	1	0	3	0	1	0	1	2	16	3	6	3	1	1	0	5	1	0	4	3	0	2	1	1	1	0	1
OTU 193	0	6	0	0	0	3	0	0	0	0	0	0	0	0	3	2	0	0	8	0	5	1	1	0	1	1	3	0	0	0	4	0	0	0	1	21	0	2	0	2	3	0	0	0	0	0	1	0	0	0
OTU 194	0	1	0	0	0	0	0	0	0	0	0	0	2	0	0	3	0	0	1	0	0	3	0	0	1	1	0	0	0	0	0	1	0	0	1	0	0	0	0	0	0	0	0	0	0	1	0	0	2	0
OTU 195	0	0	0	4	0	0	0	0	0	12	0	8	0	0	54	1	1	2	0	0	1	0	3	0	2	1	2	29	22	0	5	1	0	0	0	0	0	1	0	23	0	4	0	14	0	0	0	0	0	12
OTU 196	0	0	0	1	0	0	0	0	0	0	0	0	4	0	0	0	0	0	0	1	1	1	0	0	1	0	0	0	0	6	0	0	0	1	2	0	2	0	0	0	0	1	0	0	0	0	0	0	0	0
OTU 197	0	0	3	0	0	1	2	2	0	0	6	2	3	6	1	14	0	3	0	9	1	4	5	0	0	1	3	2	3	0	8	2	2	4	13	2	0	3	2	3	30	0	1	0	4	0	1	0	22	5
OTU 198	0	1	0	0	0	0	0	0	0	0	5	0	1	0	0	0	0	5	0	0	0	1	0	1	2	0	0	0	3	0	0	1	0	0	0	0	0	0	1	47	0	0	3	0	0	0	0	1	0	1
OTU 199	1	5	0	0	0	2	0	0	0	0	1	0	0	0	0	0	2	0	0	0	0	0	0	1	2	0	1	1	0	0	0	1	0	1	1	0	0	6	0	0	0	0	0	0	0	0	0	0	0	0
OTU 200	0	0	0	0	0	2	1	1	0	2	0	0	0	0	0	2	0	0	0	0	0	1	6	0	1	0	0	0	0	1	3	0	0	0	2	1	0	0	0	0	0	0	0	0	3	0	0	0	0	0
