	Host 1	Host 2	Host 3	Host 4	Host 5	Host 6	Host 7	Host 8	Host 9	Host 10	Host 11	Host 12	Host 13	Host 14	Host 15	Host 16	Host 17	Host 18	Host 19	Host 20	Host 21	Host 22	Host 23	Host 24	Host 25	Host 26	Host 27	Host 28	Host 29	Host 30	Host 31	Host 32	Host 33	Host 34	Host 35	Host 36	Host 37	Host 38	Host 39	Host 40	Host 41	Host 42	Host 43	Host 44	Host 45	Host 46	Host 47	Host 48	Host 49	Host 50	
OTU 1	0	51	0	2	0	1	0	43	0	0	0	0	1	82	0	0	0	0	0	0	3	0	0	24	0	0	0	0	45	0	0	0	2	0	0	0	38	11	19	15	22	0	0	15	0	0	0	1	0	4
OTU 2	0	0	0	0	0	0	0	0	0	0	1	1	0	0	0	0	0	0	0	0	0	0	0	0	0	0	0	0	0	0	0	0	0	0	0	0	0	0	0	0	0	0	0	0	0	0	0	1	0	0
OTU 3	0	0	0	0	0	0	0	0	0	0	0	0	0	0	0	0	0	0	0	0	0	0	1	0	0	0	1	0	0	0	76	0	0	2	0	0	0	0	0	0	0	0	0	0	0	0	0	0	0	0
OTU 4	0	0	0	0	0	0	0	0	0	0	0	0	0	0	0	0	0	0	0	0	0	0	0	0	0	0	0	0	0	0	0	0	0	0	0	0	0	0	0	0	0	0	0	0	0	0	0	0	0	0
OTU 5	7	14	24	0	20	0	2	12	6	2	23	6	19	12	81	53	9	2	0	15	2	10	51	10	0	9	4	38	8	121	30	1	132	15	0	42	16	13	14	51	29	19	13	15	48	17	0	54	5	8
OTU 6	0	0	0	0	0	0	0	1	0	0	0	0	0	0	0	0	0	0	0	0	0	0	1	0	0	2	0	0	0	0	11	0	0	4	1	0	0	0	0	0	0	0	0	0	0	1	0	0	0	0
OTU 7	2	3	1	1	2	2	0	1	0	0	0	0	0	0	0	0	0	0	0	0	2	233	0	0	1	1	1	125	31	2	1	2	0	2	13	3	1	14	1	0	2	0	0	0	1	0	1	0	0	6
OTU 8	0	0	0	0	0	0	0	0	0	0	0	2	1	0	0	2	1	120	1	0	1	0	202	0	6	1	1	0	0	0	0	2	0	0	0	1	0	1	0	1	2	0	0	0	2	2	1	0	1	0
OTU 9	0	1	0	0	0	0	0	2	0	0	0	0	0	0	1	0	0	0	0	0	0	0	0	0	1	0	1	0	0	0	0	0	0	0	0	0	0	0	0	0	0	0	0	0	0	0	0	0	0	1
OTU 10	0	0	0	0	318	0	0	0	0	1	0	0	0	0	1	0	0	0	0	0	1	0	0	0	0	0	0	0	0	0	0	0	0	0	0	0	0	0	0	0	0	0	0	0	0	1	0	0	1	0
OTU 11	0	0	0	0	0	0	0	0	1	0	0	0	0	1	0	0	0	0	0	1	3	0	0	1	1	1	0	0	1	0	1	0	0	2	0	0	0	0	0	0	0	0	0	0	0	1	1	2	0	0
OTU 12	0	0	0	2	5	0	0	0	0	0	0	1	0	1	0	0	0	0	1	0	0	1	2	0	0	0	0	0	0	1	0	0	0	0	0	0	0	0	0	0	0	0	0	0	0	0	0	0	9	0
OTU 13	0	0	0	0	0	0	0	0	0	0	0	0	0	0	0	0	0	0	0	0	0	0	0	0	0	0	0	0	0	3	0	0	0	0	0	0	0	0	0	0	0	0	0	1	0	0	0	0	0	0
OTU 14	0	0	0	0	0	0	0	0	0	0	0	0	0	0	1	0	0	1	0	1	0	0	1	0	1	0	0	0	0	0	1	0	0	0	0	0	1	0	0	2	0	0	1	1	2	0	0	0	0	0
OTU 15	0	0	0	0	0	0	0	0	0	0	0	0	0	0	0	1	0	0	0	0	0	0	0	0	0	0	1	0	0	0	0	0	0	0	0	0	0	0	0	0	0	0	0	0	0	0	0	0	0	0
OTU 16	0	0	0	0	0	0	1	0	0	0	0	0	0	0	0	0	0	0	0	0	0	0	0	0	0	0	0	0	0	0	0	0	0	0	0	0	0	0	0	0	0	0	1	0	0	0	0	0	0	0
OTU 17	0	1	0	0	0	0	0	0	0	0	0	0	26	0	0	0	0	0	0	0	0	0	0	0	0	0	0	0	0	0	3	0	0	0	1	0	0	0	1	0	0	0	0	0	0	0	0	0	0	0
OTU 18	0	1	1	0	0	1	0	0	0	0	0	0	0	0	0	0	0	0	1	0	0	2	1	0	0	0	0	0	0	0	0	1	0	0	0	0	1	2	0	1	1	0	0	0	3	0	1	1	1	1
OTU 19	0	0	0	0	0	0	0	0	0	0	0	0	0	0	0	0	0	0	0	0	0	0	0	0	0	0	0	0	0	0	0	0	0	0	0	0	0	0	0	0	0	0	0	0	0	0	0	0	0	0
OTU 20	0	0	0	1	0	0	1	0	0	0	1	1	0	0	0	0	1	0	0	0	1	0	0	0	0	0	0	0	0	0	0	2	0	1	0	0	0	0	0	0	0	0	0	0	0	0	1	0	0	0
OTU 21	0	0	0	0	0	0	0	0	0	0	0	0	0	0	1	0	0	0	0	0	0	1	0	0	26	0	0	0	0	0	0	1	0	0	0	0	1	0	0	0	0	1	0	0	0	0	0	0	3	1
OTU 22	0	0	0	0	0	1	0	0	1	3	0	0	0	0	0	2	19	0	0	1	0	0	2	0	1	0	0	1	0	0	0	0	0	242	0	0	0	0	0	0	0	0	4	0	0	1	0	0	0	0
OTU 23	0	0	1	0	0	0	0	0	0	0	0	0	0	0	0	0	0	0	0	0	0	0	0	0	0	0	0	0	1	0	0	0	0	0	2	0	0	1	0	0	0	0	0	0	0	0	0	0	0	0
OTU 24	0	0	0	0	0	4	0	0	0	1	0	0	0	0	0	0	1	0	0	1	1	0	0	0	0	0	0	2	0	0	0	1	0	0	1	0	0	0	0	0	1	0	0	0	0	0	0	0	0	0
OTU 25	0	0	0	0	0	0	0	0	0	0	0	0	0	0	0	0	1	0	0	0	0	0	0	0	0	1	0	0	0	0	0	0	0	0	0	0	0	0	0	0	0	0	0	0	0	0	0	0	0	0
OTU 26	0	0	0	1	0	0	0	0	0	0	0	0	0	0	0	0	0	0	0	1	0	0	0	0	0	0	0	0	0	0	0	0	0	0	0	0	0	0	0	0	0	0	0	0	0	0	0	0	0	0
OTU 27	0	0	0	0	0	0	0	0	0	0	0	0	0	0	0	0	0	0	0	0	0	0	0	0	0	0	0	0	0	0	0	0	1	0	0	0	0	0	0	0	0	0	0	0	0	0	0	0	0	0
OTU 28	0	0	1	0	0	0	0	1	0	0	1	2	0	4	0	11	13	1	0	0	0	1	0	0	0	0	0	0	0	0	1	0	0	0	1	0	0	2	0	0	0	0	0	0	0	1	0	0	1	1
OTU 29	1	0	0	0	0	0	0	0	1	0	0	1	1	1	0	0	1	0	1	0	1	0	0	0	1	1	1	0	0	2	0	0	0	0	0	0	0	0	0	0	0	1	0	0	6	1	108	1	0	0
OTU 30	0	0	0	0	0	0	0	0	0	0	0	0	0	0	0	0	0	0	0	0	0	0	0	0	0	0	0	0	0	0	0	0	0	0	0	0	0	0	0	0	0	0	0	0	1	0	0	0	0	0
OTU 31	1	0	0	0	1	0	0	0	0	0	0	0	0	0	0	0	1	0	0	0	0	0	0	0	0	1	0	0	131	0	0	0	0	1	0	0	0	42	0	4	0	0	0	0	0	0	0	0	0	16
OTU 32	0	24	1	2	1	0	0	1	0	0	0	0	0	0	0	0	1	0	0	1	3	0	0	0	0	0	0	0	0	2	0	1	1	2	1	0	2	0	46	10	16	53	1	7	0	0	1	68	0	0
OTU 33	0	0	0	0	0	0	0	0	0	0	0	0	0	0	0	0	0	0	0	0	0	0	0	0	0	0	0	0	0	0	0	0	1	0	0	0	0	0	0	0	0	0	0	0	0	0	0	0	0	0
OTU 34	0	1	1	0	0	0	0	0	0	0	0	1	0	0	0	0	0	0	2	0	0	0	1	0	0	2	0	0	0	0	119	0	0	0	0	0	0	0	0	0	0	1	0	0	1	0	0	0	0	0
OTU 35	1	0	0	1	0	0	0	0	0	0	0	0	0	0	0	0	0	1	0	0	0	1	0	1	0	1	0	0	0	0	0	0	0	0	0	0	0	4	0	0	0	0	0	0	0	0	0	0	0	0
OTU 36	1	1	0	0	0	0	0	0	0	0	1	0	0	1	1	0	1	1	0	0	0	1	0	0	1	1	0	0	0	0	0	2	0	0	0	0	0	2	0	0	0	0	0	0	0	0	0	0	1	0
OTU 37	0	0	0	0	0	0	0	0	0	0	0	0	0	0	0	0	0	0	0	0	0	0	0	0	0	0	0	0	0	0	0	0	0	1	0	0	0	0	0	0	0	0	0	0	0	0	0	0	0	0
OTU 38	0	51	0	1	0	0	0	45	1	0	1	0	0	116	0	0	0	0	0	10	0	0	0	29	0	0	0	0	20	0	4	0	0	0	0	0	68	13	25	6	29	0	1	21	0	0	0	16	0	7
OTU 39	1	0	0	0	0	0	0	0	0	0	143	0	1	0	1	0	0	0	0	0	0	0	0	0	0	0	0	0	0	0	0	0	0	0	0	0	0	0	0	0	0	0	0	0	0	0	0	1	0	0
OTU 40	3	0	2	0	0	1	0	0	1	0	0	0	0	0	1	0	0	0	0	1	0	0	0	0	0	284	1	0	1	1	0	0	0	0	0	0	0	0	1	0	0	0	1	0	0	0	0	0	1	0
OTU 41	0	1	0	0	0	1	30	0	1	0	0	1	0	0	0	0	0	0	0	0	0	0	2	0	1	0	0	0	0	1	0	0	0	1	0	1	0	0	0	0	1	0	0	1	1	0	0	0	2	0
OTU 42	12	0	1	0	0	0	0	0	0	2	0	0	0	0	0	0	0	0	0	0	0	3	1	0	0	0	0	0	0	0	0	0	0	0	0	0	0	0	0	0	0	0	0	0	0	2	0	0	0	0
OTU 43	0	0	0	0	0	0	0	0	0	0	0	0	0	0	0	0	0	0	0	0	0	0	0	0	0	0	0	0	0	0	0	0	0	0	0	0	0	0	0	0	0	0	0	0	0	0	0	0	0	0
OTU 44	0	0	0	0	0	1	0	0	0	0	0	1	0	2	0	0	0	0	0	0	0	0	0	0	1	1	0	0	1	0	0	0	0	0	1	0	0	0	0	0	0	0	0	0	0	0	0	0	0	0
OTU 45	0	0	0	0	11	330	0	0	0	1	1	0	0	0	0	0	2	0	0	1	0	0	1	0	0	0	0	0	1	0	1	1	0	0	0	0	0	5	0	0	0	0	0	0	0	0	155	1	0	1
OTU 46	0	1	0	1	1	1	0	2	0	0	0	0	0	0	3	0	0	0	0	132	0	2	0	0	0	0	2	0	1	0	0	0	0	2	0	0	0	0	0	1	1	1	0	0	0	1	0	0	0	0
OTU 47	0	0	0	0	0	0	1	0	0	0	0	0	0	0	0	0	0	0	0	0	0	0	0	0	0	0	0	0	0	0	0	0	0	0	0	0	0	0	0	0	0	0	0	0	0	0	0	0	0	0
OTU 48	12	25	2	2	1	0	0	0	0	2	0	1	1	1	0	0	1	0	0	0	0	0	0	0	0	0	0	0	0	0	0	0	0	0	0	0	0	1	0	2	5	0	1	3	0	0	0	1	0	0
OTU 49	3	0	0	0	0	0	0	0	1	0	1	0	0	0	0	0	0	0	0	0	0	0	0	0	0	1	0	0	0	0	0	0	0	0	1	0	0	0	0	0	0	0	0	0	0	0	1	1	0	0
OTU 50	0	0	19	0	0	0	1	0	1	1	2	0	0	0	0	1	0	0	3	1	0	0	0	2	0	2	1	1	0	0	0	0	41	2	0	2	0	0	0	1	0	1	1	0	0	0	0	3	0	0
OTU 51	0	47	0	0	1	1	0	0	0	1	0	0	2	0	0	0	0	0	0	0	0	0	1	0	0	0	0	0	0	0	0	0	0	1	1	0	0	0	0	11	15	1	0	12	0	0	1	0	0	0
OTU 52	0	0	2	0	1	6	307	0	0	308	0	0	1	1	1	0	0	0	2	2	0	0	0	0	0	0	1	1	0	0	2	1	0	0	0	1	0	0	0	0	0	0	0	0	1	0	2	0	0	1
OTU 53	0	0	0	0	0	0	0	0	0	0	0	0	0	0	0	0	0	0	0	0	0	0	0	0	0	0	0	0	0	0	0	0	0	0	0	0	0	0	0	0	0	0	0	0	0	0	0	0	0	0
OTU 54	3	80	14	4	0	3	2	0	0	0	0	0	0	0	2	2	0	2	0	0	0	0	5	0	0	4	2	0	0	0	0	0	0	1	0	0	0	0	0	46	86	1	0	49	0	0	0	0	0	0
OTU 55	0	0	0	0	0	0	0	0	0	0	0	0	0	0	0	0	0	0	0	0	0	0	0	0	0	0	0	0	0	0	0	0	0	0	0	0	0	0	0	0	0	0	0	0	0	0	0	0	0	0
OTU 56	0	0	0	3	0	0	0	0	0	0	0	0	0	0	0	0	1	1	0	0	0	0	0	0	0	0	0	0	0	1	0	0	0	0	0	0	0	0	0	0	0	0	0	0	0	0	0	0	0	0
OTU 57	0	0	63	0	0	1	1	0	1	0	1	0	1	1	0	1	0	0	0	0	1	1	2	0	1	0	0	3	0	0	0	1	0	0	0	0	1	0	0	0	0	0	0	0	2	79	1	0	1	1
OTU 58	0	0	0	0	0	0	0	0	0	0	0	0	0	0	0	0	0	0	0	0	0	1	0	0	1	0	0	0	0	0	0	5	1	0	0	0	0	0	0	0	0	0	0	0	2	0	0	0	0	0
OTU 59	0	0	2	0	0	0	0	124	0	0	0	0	0	0	1	0	0	0	0	0	1	0	0	51	0	0	0	1	0	0	1	0	1	0	3	0	0	0	69	0	0	0	0	0	0	0	0	0	0	0
OTU 60	0	0	2	0	2	13	1	0	0	0	0	0	0	0	0	0	0	0	1	0	2	2	0	1	1	52	0	0	0	0	0	0	1	1	1	1	0	0	0	0	0	0	0	0	0	1	0	2	0	0
OTU 61	0	0	1	1	1	0	0	0	0	2	1	1	0	0	0	0	0	0	0	1	0	0	0	0	0	0	0	1	1	0	0	0	0	0	0	4	2	0	0	0	0	0	0	0	0	0	0	1	0	1
OTU 62	0	0	0	0	0	0	0	0	0	0	0	0	0	0	0	0	0	0	0	0	0	0	0	0	0	0	1	0	0	0	0	0	0	0	0	0	0	0	0	0	1	0	0	1	0	0	0	0	0	0
OTU 63	0	0	0	0	0	0	0	0	0	0	0	0	0	0	0	2	0	0	0	0	0	0	0	1	0	0	0	2	0	0	0	4	0	0	0	2	0	0	0	0	0	0	0	0	1	2	0	0	0	0
OTU 64	0	5	0	0	0	0	1	0	0	21	1	0	2	2	1	0	2	1	0	37	2	2	0	0	1	0	0	1	0	0	0	0	0	0	0	0	1	0	0	0	1	0	0	0	2	0	0	1	2	0
OTU 65	0	0	0	0	0	0	0	0	0	0	0	0	0	0	0	1	0	0	0	0	0	0	0	0	0	0	0	0	0	0	0	0	0	0	0	0	0	0	0	0	0	0	0	0	0	0	0	0	0	0
OTU 66	0	0	0	0	0	1	0	2	0	0	0	2	0	0	1	0	0	0	0	0	2	0	0	0	0	0	0	0	0	0	0	0	0	0	0	0	0	0	0	0	0	0	0	0	0	0	0	0	0	0
OTU 67	0	0	0	0	0	0	0	0	0	0	0	0	1	0	1	0	0	0	0	0	0	0	0	0	0	0	0	1	1	0	0	0	0	2	2	0	1	0	0	0	0	0	18	0	0	1	0	0	2	0
OTU 68	0	0	1	1	0	0	0	1	0	0	0	240	0	0	0	0	0	0	0	1	0	0	0	1	0	0	0	0	0	0	0	0	0	0	0	0	0	1	0	0	0	0	0	0	0	0	3	0	0	0
OTU 69	1	0	1	0	0	0	0	0	0	0	2	0	1	0	0	0	3	0	2	0	0	0	0	0	0	0	0	1	0	1	0	2	1	0	0	0	2	1	0	1	0	0	0	0	1	0	0	0	0	0
OTU 70	0	0	0	0	0	0	0	1	0	0	0	1	0	1	0	0	0	0	0	0	0	0	1	0	0	2	0	0	0	0	1	0	1	0	0	0	1	0	45	0	0	0	0	1	0	0	0	0	0	0
OTU 71	1	0	0	0	1	0	0	0	1	0	0	0	0	0	0	0	0	0	0	0	0	0	0	11	0	0	0	5	0	1	0	1	0	0	0	0	0	0	0	0	0	1	0	0	0	2	0	0	2	0
OTU 72	2	0	0	0	0	0	0	0	1	0	0	0	0	1	0	0	0	1	0	0	0	0	0	0	0	0	0	1	0	0	0	0	1	0	0	0	0	0	0	0	0	0	0	0	38	0	0	0	1	0
OTU 73	0	0	0	0	0	0	0	0	0	0	0	0	0	0	0	0	0	0	1	0	0	0	0	0	0	0	1	1	0	0	2	0	0	1	0	0	0	0	1	0	0	2	0	0	0	0	1	0	0	0
OTU 74	0	1	1	0	0	0	0	4	0	0	0	1	0	2	1	0	0	0	0	2	0	0	0	0	5	1	1	0	3	0	0	0	0	0	1	0	0	0	0	0	0	0	2	11	0	0	0	1	1	0
OTU 75	1	0	0	0	0	1	0	0	0	0	0	0	1	0	0	0	1	0	0	0	0	0	0	0	1	0	0	186	1	0	0	1	2	0	0	2	1	0	0	0	0	0	0	0	0	0	0	1	1	0
OTU 76	0	3	1	0	0	0	0	0	0	0	0	0	0	0	0	0	0	0	0	0	0	0	0	0	0	0	0	0	0	0	0	0	0	0	0	1	0	0	0	0	0	44	0	0	0	0	0	0	0	0
OTU 77	0	0	0	1	0	0	0	2	55	0	0	0	0	0	3	1	1	2	0	0	0	1	0	1	0	0	0	0	0	1	1	1	0	1	0	0	0	0	0	0	0	0	1	1	0	0	1	2	0	0
OTU 78	0	0	0	0	0	1	0	0	210	0	0	0	218	0	0	0	0	0	0	0	1	0	0	0	0	0	0	0	0	0	102	0	0	0	0	3	0	0	0	78	1	0	0	0	0	0	0	0	222	0
OTU 79	0	0	1	1	3	0	0	0	3	0	2	0	90	1	0	0	1	0	0	0	0	2	0	0	2	1	0	1	0	2	2	0	2	1	1	0	2	0	1	0	0	0	4	1	2	0	0	207	0	0
OTU 80	0	0	0	35	1	0	1	0	0	2	0	1	0	0	0	0	0	1	1	2	0	0	0	0	0	1	0	0	0	1	2	0	0	0	0	0	0	1	0	0	0	1	2	0	0	0	0	0	1	0
OTU 81	0	0	0	0	0	0	1	0	1	0	0	0	0	0	1	0	0	0	1	0	0	0	0	1	0	0	0	0	0	0	2	0	0	0	0	0	1	0	3	0	0	0	0	0	0	0	0	1	12	0
OTU 82	0	0	0	0	0	0	0	0	0	0	0	0	1	1	0	0	0	0	0	0	0	0	0	0	0	0	0	0	2	0	1	300	0	0	0	1	2	3	0	0	0	1	0	0	0	182	0	1	0	0
OTU 83	0	0	0	0	0	0	1	0	0	0	0	0	0	0	0	0	0	0	0	0	0	0	0	0	0	0	0	0	0	0	0	0	0	0	0	0	0	0	0	0	0	0	0	0	0	0	1	0	0	0
OTU 84	0	1	1	0	0	0	0	0	0	0	1	0	0	0	0	0	0	1	0	0	1	0	0	0	0	0	0	0	0	0	0	0	0	1	0	4	0	0	0	0	1	0	0	0	0	0	0	0	0	0
OTU 85	1	0	0	0	0	1	0	0	0	0	0	0	0	0	1	0	0	0	0	0	0	0	0	0	0	0	0	0	0	0	0	1	1	0	0	0	1	0	0	0	0	0	1	0	0	0	0	0	0	0
OTU 86	0	0	0	0	0	0	0	0	0	0	0	0	0	0	0	0	0	0	0	0	0	0	0	0	0	0	0	0	0	0	0	0	0	0	0	0	0	0	0	0	1	0	0	0	0	0	0	0	0	0
OTU 87	2	0	0	0	0	0	0	1	0	0	0	2	0	0	34	0	0	0	0	0	0	0	0	0	0	0	0	0	0	0	0	0	0	0	1	0	0	0	0	0	0	0	0	0	3	0	0	1	0	0
OTU 88	0	0	0	0	0	0	0	0	0	0	0	0	0	1	0	0	0	0	0	0	0	0	0	0	0	0	0	0	0	0	0	0	0	0	0	0	0	0	0	0	0	0	0	0	0	0	0	0	0	0
OTU 89	0	0	0	0	0	1	0	1	0	2	0	0	0	0	0	0	0	0	0	1	0	0	2	0	0	0	0	0	0	0	0	0	0	2	0	162	1	0	0	1	1	0	0	0	0	0	0	0	0	0
OTU 90	0	0	0	0	0	0	0	0	0	0	0	0	0	0	0	0	0	0	0	0	0	0	0	0	0	0	0	0	0	0	0	0	0	0	0	0	0	0	0	0	0	0	0	0	0	0	0	1	0	0
OTU 91	0	0	0	0	0	0	1	0	0	0	0	0	0	0	0	0	0	0	0	0	0	0	0	0	0	0	0	0	0	0	0	0	0	0	0	0	0	0	0	0	0	0	0	0	0	0	0	0	0	0
OTU 92	0	0	0	0	0	0	0	0	0	0	0	0	0	0	0	0	0	10	0	0	0	0	1	0	0	0	0	0	0	0	0	0	0	0	0	0	0	0	0	0	0	0	0	0	0	0	0	0	0	0
OTU 93	0	0	0	0	0	0	0	0	0	0	0	0	0	0	0	0	0	0	0	0	0	0	0	0	0	0	0	0	0	0	0	0	0	0	0	0	0	0	0	0	0	0	0	0	0	0	0	0	0	0
OTU 94	1	0	1	0	0	0	1	1	0	0	2	0	0	0	0	1	0	0	0	1	2	0	0	0	0	4	2	1	0	0	2	0	0	0	1	0	0	0	0	0	1	0	1	0	0	0	1	0	0	0
OTU 95	0	0	0	0	0	0	0	0	0	0	0	1	0	0	0	0	0	0	0	0	0	0	0	1	0	0	0	0	0	0	1	0	0	0	0	1	0	0	0	0	0	0	0	0	0	0	0	0	0	0
OTU 96	0	0	0	0	0	0	0	0	0	0	0	0	0	0	0	0	0	0	0	0	0	0	0	0	0	0	0	0	1	0	0	0	0	0	0	0	0	0	0	0	0	0	0	0	0	0	0	0	0	0
OTU 97	0	13	0	0	0	1	0	26	1	0	0	0	0	34	0	0	0	0	0	0	0	0	0	7	0	0	0	0	9	0	0	0	2	0	0	0	15	0	4	2	6	0	0	4	0	0	0	0	0	0
OTU 98	0	0	0	117	0	0	1	0	0	0	1	0	0	0	0	0	0	0	0	0	1	1	0	0	0	0	0	0	0	0	0	0	0	0	1	0	0	0	0	0	0	0	0	0	0	0	0	0	0	0
OTU 99	2	0	0	2	0	0	0	0	0	0	0	0	0	0	0	0	0	2	0	0	0	0	0	0	0	1	94	2	0	0	2	0	0	0	0	1	0	0	1	0	0	0	0	0	0	0	0	2	0	0
OTU 100	0	0	2	1	0	1	0	0	0	0	1	1	0	0	1	0	0	0	1	0	1	1	0	0	0	0	0	0	0	2	0	0	0	2	0	5	1	0	0	0	0	0	0	0	1	0	1	0	2	1
OTU 101	0	0	0	0	0	0	0	0	0	0	0	0	0	0	0	0	0	0	0	0	0	0	0	0	0	0	1	0	0	0	0	0	0	0	0	0	0	0	0	0	0	0	0	0	0	0	0	0	0	0
OTU 102	0	0	0	0	0	0	0	0	0	0	0	0	0	0	0	0	1	0	0	0	0	0	0	0	0	0	0	0	0	0	0	0	0	0	0	0	0	2	0	0	0	0	0	0	0	0	0	1	1	0
OTU 103	0	0	0	1	0	0	0	0	34	1	0	0	0	2	0	0	0	0	0	0	0	0	1	1	1	0	0	0	0	0	0	0	0	0	0	0	0	0	2	1	0	0	3	0	0	0	0	1	0	0
OTU 104	0	0	2	0	0	1	0	0	0	0	1	0	0	0	1	0	0	0	2	0	0	0	0	1	43	0	0	0	0	0	1	2	0	0	0	0	1	0	35	0	1	0	0	2	1	1	0	0	2	0
OTU 105	0	0	0	0	0	0	0	0	0	0	0	0	0	0	0	0	0	0	2	0	0	0	0	0	0	0	1	0	0	0	0	0	0	0	0	0	0	0	0	1	0	0	0	0	0	1	0	0	0	0
OTU 106	0	0	0	0	0	0	0	0	0	0	0	0	0	0	0	0	0	0	2	0	0	0	0	0	0	0	0	0	0	0	1	0	0	0	0	0	0	0	0	0	0	0	0	0	0	0	9	0	0	0
OTU 107	0	0	0	0	0	0	22	0	0	0	0	0	0	0	0	0	1	1	0	2	0	28	1	0	0	0	0	0	0	0	2	0	0	0	0	0	0	0	0	1	0	0	0	1	0	0	0	0	0	2
OTU 108	0	0	3	0	0	0	0	0	0	0	0	0	2	0	0	0	0	0	0	0	0	1	0	0	0	0	1	0	3	0	0	0	0	0	0	0	2	1	1	0	0	0	0	0	5	0	0	0	0	1
OTU 109	0	0	0	0	0	0	0	0	0	0	0	0	0	0	0	0	0	0	0	0	0	0	0	0	0	0	0	0	0	0	0	0	0	0	0	0	1	0	0	0	0	0	0	0	0	0	0	0	0	0
OTU 110	0	0	0	0	0	0	0	0	0	1	0	0	1	0	0	0	1	0	0	1	0	0	0	1	0	0	0	1	0	162	0	0	92	0	0	0	0	0	0	1	0	0	0	0	0	0	0	0	0	0
OTU 111	0	0	0	0	0	0	0	0	0	0	0	0	1	0	12	0	0	0	0	0	0	0	0	0	0	1	0	0	0	0	0	0	0	0	0	0	0	0	0	0	0	0	0	0	0	0	1	2	0	0
OTU 112	0	0	0	0	0	0	0	0	0	0	0	0	2	0	0	0	0	0	0	0	1	0	0	0	0	0	0	0	0	0	0	0	0	0	0	0	0	0	0	0	1	1	0	0	0	0	0	0	0	0
OTU 113	0	0	0	1	0	1	0	0	0	0	0	0	0	0	0	0	0	0	0	0	0	0	0	0	0	0	0	0	0	0	0	0	0	0	0	0	0	0	2	0	0	0	0	0	0	0	0	0	0	0
OTU 114	0	1	0	0	0	3	1	0	0	0	0	3	0	0	2	0	0	0	0	0	91	1	0	2	0	1	0	0	0	1	1	0	2	0	0	2	1	0	0	0	2	108	0	1	1	0	0	1	2	1
OTU 115	0	0	0	1	0	1	0	2	3	0	0	1	2	0	1	0	4	0	1	3	30	31	0	0	0	0	0	2	0	0	0	0	1	0	0	2	1	0	0	0	0	1	0	0	0	0	92	1	0	0
OTU 116	2	2	0	2	0	0	3	1	1	0	1	0	15	0	2	0	0	0	0	0	0	0	1	0	0	0	0	0	71	0	0	0	0	0	0	0	155	24	0	2	1	0	1	0	2	1	0	1	0	19
OTU 117	0	0	0	0	1	1	1	1	0	0	0	0	0	1	0	0	0	0	1	0	0	0	0	0	0	1	1	0	0	0	3	0	0	0	0	0	0	1	0	0	0	0	0	0	0	0	0	1	0	0
OTU 118	0	0	0	0	0	0	0	0	0	0	0	0	0	0	0	0	0	0	0	0	0	0	0	0	0	0	0	0	0	0	0	0	0	0	0	0	0	0	1	0	0	0	0	0	0	0	0	0	0	0
OTU 119	0	0	0	199	2	0	0	0	1	0	0	0	0	1	1	0	0	1	2	0	0	0	0	1	0	2	1	0	1	0	0	0	1	1	0	0	0	0	0	0	3	0	0	0	0	0	0	0	0	0
OTU 120	0	0	0	0	0	0	0	0	0	0	0	0	0	0	0	0	0	1	0	0	0	0	0	0	0	0	0	0	0	2	0	0	1	0	0	0	0	0	0	0	0	0	0	0	1	0	0	0	0	0
OTU 121	1	0	0	0	1	0	0	0	0	0	0	0	0	1	0	0	0	0	0	0	2	0	0	0	0	0	0	0	0	1	0	0	2	0	0	0	0	0	0	0	0	1	0	33	0	0	0	1	0	0
OTU 122	0	0	0	0	1	0	0	0	0	2	0	1	0	0	2	0	0	0	1	0	0	0	0	0	0	0	0	0	0	37	0	0	0	0	0	0	0	0	0	0	0	0	0	0	0	0	0	0	0	0
OTU 123	2	0	225	1	3	1	0	3	0	1	0	0	0	1	3	3	0	1	1	0	2	1	17	2	1	0	0	4	1	1	3	43	0	3	0	1	1	2	43	0	1	3	53	0	0	4	1	4	2	0
OTU 124	0	0	0	0	0	0	0	0	0	1	0	0	0	0	0	0	0	0	0	0	0	0	0	0	0	0	0	0	0	0	0	0	0	0	0	0	0	0	0	0	0	0	0	0	0	0	0	0	0	0
OTU 125	4	0	4	0	9	1	1	0	1	0	1	0	0	1	4	0	0	0	0	1	1	52	1	0	2	0	3	0	0	19	1	0	1	0	0	134	0	11	1	0	1	2	1	0	1	2	1	0	0	4
OTU 126	0	0	0	0	0	0	0	0	0	1	0	0	0	0	0	0	2	0	0	0	0	0	1	0	0	0	0	0	0	0	0	0	1	0	0	0	0	0	0	0	0	0	0	0	0	0	0	0	0	0
OTU 127	0	0	0	0	2	0	0	1	0	0	1	0	1	0	1	0	0	0	0	0	0	0	0	0	1	0	0	0	0	0	0	0	81	0	0	0	1	0	0	1	1	0	0	2	1	0	0	0	0	0
OTU 128	3	2	0	3	1	2	1	0	0	2	0	2	0	1	1	2	3	0	0	1	2	1	2	0	0	1	16	0	20	2	1	1	0	1	1	0	4	212	0	0	0	0	1	131	1	0	0	0	1	91
OTU 129	0	0	0	0	0	0	0	1	0	0	0	0	0	0	0	1	0	0	0	0	0	1	0	0	0	0	0	0	0	0	0	0	0	2	0	0	0	0	0	0	0	0	0	0	0	0	0	0	0	0
OTU 130	0	0	0	0	0	0	1	1	0	0	0	1	2	0	0	0	0	0	0	0	0	0	0	0	0	0	0	0	0	0	1	3	0	1	0	1	1	0	0	0	0	0	0	0	0	0	0	0	0	0
OTU 131	0	0	0	0	0	0	0	0	0	0	0	0	0	0	0	0	0	0	0	0	0	0	0	0	0	1	0	0	0	0	0	0	0	0	0	0	0	0	0	0	0	0	0	0	0	22	0	0	0	0
OTU 132	0	0	0	0	0	0	0	0	0	2	0	0	0	0	0	0	0	0	0	0	0	0	0	0	0	0	1	0	0	0	0	1	0	0	287	0	0	0	1	0	0	0	0	0	209	0	3	0	0	0
OTU 133	0	1	0	0	0	0	0	0	0	0	0	1	0	0	0	0	0	0	0	0	0	0	0	0	0	0	1	0	0	0	0	0	0	0	0	0	0	0	0	0	3	0	0	0	0	0	0	0	0	0
OTU 134	0	0	0	0	0	0	1	0	0	0	0	0	0	2	0	0	0	0	1	0	0	1	2	0	0	3	0	0	3	0	0	0	0	3	0	1	0	0	0	1	0	0	0	0	1	1	0	0	0	1
OTU 135	1	0	0	0	0	0	0	0	0	0	0	0	0	0	0	0	0	0	0	3	0	1	0	1	0	0	1	1	0	0	1	1	0	0	0	0	0	0	0	0	0	1	0	0	0	1	0	0	0	0
OTU 136	0	3	0	0	0	0	0	0	0	0	0	0	0	0	0	0	0	2	0	0	1	0	0	0	0	0	0	0	0	0	1	0	1	0	1	0	1	0	0	0	0	0	0	0	0	0	0	0	0	0
OTU 137	0	1	0	0	0	0	0	0	0	0	0	0	0	0	0	0	0	1	0	0	0	0	0	0	0	0	0	0	0	19	0	0	0	0	0	0	0	0	0	0	0	0	0	0	0	0	0	0	0	0
OTU 138	0	0	4	0	0	0	0	0	0	0	2	0	0	0	0	0	0	0	0	0	0	0	0	0	0	0	0	0	0	0	0	0	0	0	1	0	0	0	0	0	0	0	0	0	0	0	0	0	0	0
OTU 139	0	1	0	0	0	0	0	0	2	0	1	1	1	0	3	0	0	0	0	1	0	1	0	1	0	0	0	0	0	0	0	1	0	83	0	2	0	0	0	0	0	0	0	0	2	0	0	0	0	0
OTU 140	2	0	2	0	0	0	0	0	45	0	0	0	1	0	1	6	0	1	2	1	2	0	1	0	2	0	0	0	0	0	2	4	0	0	1	1	0	0	1	0	0	0	252	0	36	0	0	1	1	0
OTU 141	0	0	0	0	0	0	0	0	0	0	0	0	0	0	0	0	0	0	0	0	0	0	0	0	0	0	0	0	0	0	0	0	0	0	0	0	0	0	0	0	0	0	0	0	0	0	0	0	0	0
OTU 142	0	0	0	0	0	0	0	0	0	0	0	0	0	0	0	0	0	0	0	0	0	0	0	0	0	0	0	0	0	0	0	0	0	0	0	0	0	0	0	0	0	0	0	0	0	0	0	0	0	0
OTU 143	0	0	0	0	0	0	0	0	0	0	0	1	0	0	0	0	0	0	0	0	0	0	0	0	0	0	0	0	0	1	0	0	0	0	0	0	0	0	0	0	0	142	0	0	0	0	0	0	0	0
OTU 144	0	0	0	1	0	0	0	0	0	0	0	0	0	0	0	1	0	0	0	0	0	0	0	0	0	0	0	0	0	0	0	0	0	0	0	0	0	0	0	0	0	0	0	0	0	0	0	1	0	0
OTU 145	1	1	0	0	0	0	1	0	1	3	0	0	0	0	0	0	0	0	3	0	0	0	0	1	0	0	0	1	0	0	2	0	2	0	0	2	0	0	0	0	0	0	2	0	0	65	1	0	0	0
OTU 146	0	0	0	0	0	0	0	0	0	0	57	0	0	0	0	0	1	0	0	171	0	1	1	2	0	0	0	0	0	0	0	0	0	1	0	0	0	2	0	33	18	2	1	7	0	0	0	0	0	0
OTU 147	0	0	0	0	0	0	0	0	2	0	1	0	0	0	1	0	0	0	0	0	0	0	0	0	0	0	0	0	0	0	0	0	0	0	0	0	4	0	0	0	0	0	0	0	0	0	0	1	0	0
OTU 148	0	0	0	0	0	0	0	0	0	0	2	0	0	0	0	0	1	0	0	0	0	1	0	0	2	0	0	0	1	2	0	1	1	2	0	1	0	0	0	0	0	0	0	0	0	1	0	0	0	0
OTU 149	0	0	0	0	0	0	0	0	3	6	1	0	0	0	1	0	0	0	0	0	0	0	0	0	0	0	0	0	0	0	1	1	0	1	0	0	0	0	0	0	1	0	0	2	0	0	0	0	0	0
OTU 150	0	2	1	0	0	0	0	0	0	0	0	1	0	0	0	0	1	0	0	0	0	0	0	0	0	1	0	0	0	0	0	0	0	0	0	0	0	0	0	0	0	0	0	0	0	0	0	0	0	0
OTU 151	0	0	0	1	0	0	0	0	1	1	0	0	0	0	0	0	0	1	0	0	0	0	0	0	0	1	0	1	1	0	0	0	0	0	0	1	0	0	0	0	0	4	0	0	0	0	1	0	0	0
OTU 152	0	0	0	0	1	0	0	0	2	0	0	82	0	0	1	1	0	0	1	0	0	1	0	1	0	0	0	0	0	0	1	0	1	0	0	0	0	0	0	0	0	0	1	0	2	1	0	0	0	1
OTU 153	0	0	0	0	0	0	0	0	0	0	0	0	0	0	0	0	0	0	0	0	0	0	0	0	0	1	0	0	0	0	0	0	0	0	0	0	0	0	0	0	0	0	0	0	0	0	0	0	0	0
OTU 154	0	0	0	0	0	0	0	0	0	0	0	0	0	2	0	0	0	0	0	0	0	0	0	0	0	0	0	0	0	0	1	0	0	0	0	0	0	0	0	0	0	0	0	0	0	0	0	0	0	0
OTU 155	0	0	0	0	0	4	0	1	0	0	0	0	0	0	0	0	0	3	1	0	0	2	0	0	1	0	0	0	0	0	0	0	2	0	0	0	0	0	0	0	0	0	0	1	0	0	0	0	0	0
OTU 156	1	44	1	0	0	0	1	39	1	1	1	1	0	111	50	171	0	0	0	0	0	2	2	25	0	0	1	0	33	1	0	0	0	0	0	3	41	17	30	14	36	0	0	20	1	0	0	0	0	6
OTU 157	0	0	0	0	0	0	0	0	0	0	0	0	0	0	0	0	1	0	0	0	0	0	0	75	0	1	0	0	0	0	0	0	0	0	0	0	0	0	0	0	0	1	0	0	0	0	0	0	0	0
OTU 158	0	0	0	0	0	0	0	0	0	0	0	0	0	0	0	0	0	0	1	0	0	0	0	0	0	0	0	0	0	0	0	0	0	0	0	0	0	0	0	0	0	0	0	0	0	0	0	0	0	0
OTU 159	0	0	0	1	0	1	0	0	0	1	0	0	0	0	0	3	0	0	0	0	0	0	0	0	0	0	0	1	0	0	1	0	0	0	0	0	0	0	0	0	0	0	0	0	0	0	2	0	0	0
OTU 160	0	1	0	1	0	0	3	14	1	1	0	0	0	0	1	0	1	2	0	0	0	1	0	7	0	3	0	0	0	1	2	1	1	1	0	0	0	0	6	1	0	0	1	0	3	0	0	1	1	0
OTU 161	0	0	2	1	1	0	0	0	0	0	38	0	0	0	0	0	0	0	0	0	0	0	0	0	0	0	0	0	0	0	0	0	0	0	0	1	0	0	0	0	0	2	19	0	0	1	0	0	0	0
OTU 162	27	0	1	0	1	0	2	6	1	0	0	1	0	0	0	0	0	0	1	0	0	0	0	7	0	0	0	0	0	0	0	0	0	0	0	0	1	1	7	67	0	0	0	0	1	0	0	1	3	2
OTU 163	0	0	0	0	0	0	0	0	0	0	0	2	0	0	0	0	0	0	0	0	0	0	0	0	0	0	0	0	0	0	0	0	0	0	0	0	0	0	0	0	0	0	0	0	0	0	0	0	0	0
OTU 164	0	0	0	0	0	0	0	0	0	0	0	0	0	0	0	0	0	0	0	0	0	0	0	0	0	0	0	0	0	0	0	0	1	0	0	0	0	0	0	0	0	0	0	0	0	0	1	0	0	0
OTU 165	0	0	0	0	1	0	0	0	0	0	0	0	0	1	0	1	0	0	0	0	2	0	0	0	1	0	0	0	0	0	0	0	0	0	0	0	0	0	0	0	0	0	1	0	2	0	0	0	1	0
OTU 166	0	0	0	0	0	0	2	0	0	0	0	0	0	0	0	0	0	0	0	0	0	0	0	0	0	0	0	0	0	0	0	0	0	0	0	0	0	0	0	0	0	0	0	0	0	0	0	0	0	0
OTU 167	0	0	0	0	0	0	0	0	1	0	0	0	1	0	0	0	1	0	0	0	0	0	0	1	0	0	0	0	0	0	0	0	0	0	0	0	0	0	1	0	0	0	0	0	1	0	0	0	0	0
OTU 168	0	0	0	0	0	0	0	0	0	2	2	12	0	0	0	0	290	0	1	0	0	0	0	0	0	0	0	0	0	0	0	0	0	0	1	1	0	0	0	0	0	0	0	0	0	0	0	0	0	0
OTU 169	0	0	0	1	0	0	0	0	0	0	0	0	0	1	0	0	0	0	0	0	0	0	0	0	0	0	0	0	0	0	0	0	0	0	0	0	0	0	0	0	0	0	0	0	0	0	0	0	0	0
OTU 170	0	0	0	0	0	0	0	0	0	0	0	0	0	0	0	0	0	0	0	0	0	0	0	0	0	0	0	0	0	0	0	0	0	0	0	0	0	0	0	0	0	0	0	0	0	0	0	0	0	0
OTU 171	1	1	0	0	0	0	0	0	0	0	0	0	0	0	1	0	0	79	272	0	1	0	0	0	0	0	0	0	0	0	0	0	0	2	0	0	0	0	0	0	0	0	0	0	0	0	0	2	0	0
OTU 172	0	0	0	0	0	0	0	3	0	0	0	0	0	0	0	0	0	0	0	0	0	0	0	0	0	0	0	0	0	0	0	0	0	0	0	0	0	0	0	0	0	0	0	0	0	0	0	0	0	0
OTU 173	0	0	0	0	1	0	0	0	0	0	0	0	1	0	0	0	0	0	0	0	0	0	0	0	0	1	0	0	0	0	0	0	0	1	0	1	0	0	0	0	0	0	0	0	1	0	0	0	0	0
OTU 174	0	1	0	0	0	0	0	0	0	0	0	0	0	0	0	0	0	0	1	0	0	0	0	0	0	0	0	0	0	2	2	0	0	0	0	0	0	0	0	0	0	0	0	0	0	2	0	0	0	0
OTU 175	0	0	0	0	0	0	0	0	0	0	1	0	0	0	0	1	0	0	0	0	0	0	2	0	0	0	0	0	0	0	0	0	0	1	1	0	0	0	0	0	0	0	0	0	0	0	0	0	0	0
OTU 176	0	0	0	1	0	1	0	0	0	0	0	1	0	0	0	0	0	0	0	0	0	0	1	0	0	0	249	0	1	0	0	1	0	0	0	2	5	0	1	2	0	0	3	0	0	0	0	0	1	0
OTU 177	0	0	0	1	1	0	0	0	0	1	0	3	0	0	0	0	1	0	0	0	1	0	0	0	2	0	0	1	0	1	0	0	0	1	0	0	0	1	0	0	0	0	0	0	0	1	0	0	1	1
OTU 178	0	0	0	0	0	0	0	0	0	1	0	0	0	3	0	0	0	0	0	0	0	1	0	0	0	0	1	0	0	2	0	0	0	0	0	0	1	0	0	0	0	0	0	0	0	0	0	0	0	3
OTU 179	0	1	0	0	0	0	0	0	0	0	0	0	0	0	0	0	0	0	1	0	1	0	0	0	0	0	2	1	1	0	0	0	0	0	0	0	0	0	0	0	0	0	0	0	3	0	0	0	0	0
OTU 180	1	4	1	0	2	3	0	0	6	4	0	0	0	2	1	2	0	0	0	0	148	3	0	0	0	0	0	1	1	0	0	0	0	0	0	0	4	0	0	1	1	0	2	0	0	0	1	1	0	0
OTU 181	0	0	1	0	0	0	1	0	0	0	0	0	0	0	0	1	0	0	0	0	0	0	76	53	1	0	1	1	0	0	0	1	3	1	0	0	0	0	2	0	0	0	0	0	0	0	1	0	0	0
OTU 182	0	0	0	0	0	0	0	0	0	0	0	0	0	0	0	0	0	0	0	0	0	0	0	0	0	0	0	0	0	0	0	0	0	0	0	0	0	0	1	0	0	0	0	0	0	0	0	0	0	0
OTU 183	1	1	0	1	0	0	0	1	0	0	0	0	0	0	0	0	0	0	0	0	0	0	2	0	0	0	0	0	0	0	0	0	12	0	0	0	0	0	0	1	0	0	4	0	0	0	0	0	0	0
OTU 184	0	0	0	0	0	0	0	0	0	0	0	0	0	0	0	0	1	0	0	0	0	0	0	0	286	0	0	1	0	0	0	4	0	0	0	0	0	0	0	0	0	0	0	0	0	0	0	0	0	0
OTU 185	0	0	1	2	0	0	1	0	0	15	0	2	0	0	0	0	0	0	0	0	0	0	0	1	1	0	0	0	1	0	1	0	0	0	0	0	0	0	1	0	1	0	0	1	0	0	0	0	0	1
OTU 186	0	0	1	0	0	1	0	0	0	0	99	0	0	0	0	0	0	0	0	0	0	0	0	0	0	0	0	1	0	0	0	1	0	0	0	1	0	0	1	0	0	0	0	0	0	0	0	0	0	0
OTU 187	0	0	0	0	0	0	0	1	0	3	0	1	0	0	0	0	0	153	1	0	0	0	0	0	1	2	0	1	1	0	0	0	0	0	0	0	10	5	0	0	0	0	1	0	1	0	0	0	109	2
OTU 188	285	2	0	0	0	2	2	0	3	0	0	11	0	1	0	0	0	1	0	0	0	1	0	1	0	1	0	2	0	0	0	0	1	1	1	1	1	0	0	1	2	1	1	0	0	0	1	0	0	0
OTU 189	0	1	0	0	0	0	1	0	0	0	1	1	0	1	0	16	26	0	0	0	80	0	1	0	0	0	1	3	0	0	0	0	1	0	0	0	0	2	0	0	0	0	0	0	1	0	2	0	0	0
OTU 190	0	0	0	0	0	0	0	0	0	0	0	0	0	0	0	0	0	5	0	1	0	0	1	0	0	0	0	0	0	0	0	0	0	0	0	0	0	0	0	0	0	0	0	0	0	0	0	0	1	0
OTU 191	3	1	0	0	1	1	0	0	3	0	1	0	0	0	0	109	0	0	0	0	0	0	1	53	1	0	0	1	2	0	0	1	0	0	0	0	0	0	0	0	0	1	0	0	0	0	0	0	0	0
OTU 192	0	1	3	0	0	0	0	0	0	1	1	0	0	0	0	0	0	0	2	1	0	1	0	0	0	1	0	1	0	0	0	0	0	0	55	0	1	1	0	0	0	1	0	0	0	0	0	4	0	0
OTU 193	4	0	0	0	0	1	0	0	0	0	0	0	0	1	0	1	0	1	1	0	0	1	0	0	0	1	0	0	0	3	0	1	0	0	0	0	0	0	0	1	1	0	0	0	0	0	1	1	0	215
OTU 194	0	0	0	0	0	0	0	0	0	0	0	0	0	0	1	0	0	0	0	0	0	0	0	0	0	0	0	0	0	0	0	1	0	0	0	0	0	0	0	0	0	0	0	0	0	0	0	0	0	0
OTU 195	0	1	0	0	1	1	0	0	0	0	1	0	0	0	0	0	0	0	0	0	0	0	0	1	0	0	0	0	0	0	0	0	0	0	15	2	0	0	0	0	0	0	0	0	0	1	0	1	1	0
OTU 196	0	0	0	0	0	0	0	0	0	0	0	0	0	0	0	0	3	0	0	0	3	0	6	0	1	0	1	0	0	0	1	0	0	0	0	0	0	1	0	0	0	0	0	0	1	0	0	0	0	0
OTU 197	3	0	1	0	0	0	0	2	0	0	0	3	2	0	169	3	0	0	77	1	0	0	2	1	0	1	0	0	0	0	1	0	0	1	1	1	3	0	0	38	103	1	0	55	1	0	0	0	0	0
OTU 198	0	0	0	0	0	0	0	0	0	0	0	0	0	0	0	0	0	0	0	0	0	0	0	0	0	0	0	0	0	0	0	0	0	0	0	2	0	0	0	0	0	0	0	0	0	0	0	0	0	0
OTU 199	0	2	0	0	0	0	0	0	1	0	0	0	0	1	0	0	0	0	4	0	0	0	0	0	0	0	0	0	0	0	0	0	1	0	0	0	0	0	0	0	0	0	0	0	0	0	0	0	0	0
OTU 200	0	0	0	1	0	0	1	52	0	0	0	0	0	0	1	0	0	0	0	0	0	0	0	19	0	1	1	0	0	1	0	0	0	3	1	0	0	0	32	0	0	0	0	0	3	0	0	1	1	0
