	Host 1	Host 2	Host 3	Host 4	Host 5	Host 6	Host 7	Host 8	Host 9	Host 10	Host 11	Host 12	Host 13	Host 14	Host 15	Host 16	Host 17	Host 18	Host 19	Host 20	Host 21	Host 22	Host 23	Host 24	Host 25	Host 26	Host 27	Host 28	Host 29	Host 30	Host 31	Host 32	Host 33	Host 34	Host 35	Host 36	Host 37	Host 38	Host 39	Host 40	Host 41	Host 42	Host 43	Host 44	Host 45	Host 46	Host 47	Host 48	Host 49	Host 50	
OTU 1	49	4	30	113	334	277	0	332	73	117	157	5	16	118	115	319	53	0	39	1	22	38	69	76	110	133	290	168	0	171	139	180	18	156	0	67	163	166	80	132	206	328	158	310	99	101	12	169	90	444
OTU 2	1	2	0	3	36	13	4	1	1	0	0	0	0	4	0	25	0	0	3	21	499	21	0	20	5	0	1	3	1	0	44	0	48	1	12	12	0	32	34	4	3	37	0	5	0	12	106	41	2	0
OTU 3	31	0	36	0	41	0	0	2	6	0	21	2	8	1	1	2	0	21	1	9	23	24	3	0	0	1	0	0	0	9	81	0	1	2	66	4	1	12	0	7	38	0	0	7	3	1	111	33	20	28
OTU 4	0	0	0	1	0	0	0	0	0	0	0	0	0	0	0	0	0	0	0	0	15	0	0	0	0	0	0	0	0	0	0	0	0	0	0	0	0	0	0	0	0	0	0	0	0	0	0	0	0	0
OTU 5	567	505	412	252	0	134	767	575	716	59	12	16	206	873	0	172	0	219	453	121	254	359	227	329	392	391	1723	293	49	1089	830	366	31	655	3	350	474	14	2	430	7	20	410	820	382	51	4	340	520	42
OTU 6	109	59	1	0	1	1332	25	14	203	0	27	34	84	33	7	3	2	55	0	0	0	213	9	8	13	3	23	8	0	36	744	8	26	43	1	1	47	19	17	3	11	0	1	4	787	1	5	3	3	36
OTU 7	103	5	30	6	141	147	51	78	35	144	437	90	11	107	158	20	158	11	8	133	16	19	431	41	8	50	87	84	200	26	35	9	99	182	290	30	125	49	85	216	48	85	23	66	68	122	114	103	25	70
OTU 8	9	134	897	1832	85	11	380	83	32	101	14	24	89	15	47	26	3	169	23	191	25	73	128	181	68	74	28	29	200	21	208	29	165	38	13	55	179	60	36	18	10	63	146	33	15	118	43	82	6	22
OTU 9	14	64	10	0	1	0	0	0	1	9	51	0	12	1	0	8	0	20	0	0	65	6	15	4	0	0	1	0	0	1	4	44	15	13	3	0	1	0	8	3060	0	4	46	1	3	15	16	1	0	0
OTU 10	3	21	0	0	8	5	7	19	7	18	110	20	2	12	3	0	0	2	0	0	40	0	7	37	20	3	15	0	30	35	5	9	0	19	3	1	30	33	0	0	3	3	8	11	6	1	17	17	0	28
OTU 11	29	12	0	47	12	20	1	43	0	136	75	42	38	16	79	16	105	22	8	117	29	2	9	66	0	10	38	84	44	55	10	11	62	6	127	22	115	0	10	4	1	9	15	72	3	29	66	49	2	128
OTU 12	34	31	95	33	82	47	111	23	0	108	42	105	24	31	1	8	30	43	0	3	187	34	25	15	61	23	40	28	49	4	11	22	28	60	147	7	4	25	87	6	42	24	6	2	33	67	56	33	23	17
OTU 13	0	0	0	18	0	0	0	31	0	0	3	1	0	1	0	0	0	0	0	0	0	0	0	0	0	4	0	0	0	0	0	0	16	0	0	0	0	0	0	0	14	0	0	0	2	0	0	1	5	0
OTU 14	3	0	5	8	30	62	79	1	0	0	80	9	19	1	22	0	0	63	2	0	35	3	5	0	0	2	0	2	1	0	9	29	3	134	34	5	4	20	32	78	1	13	9	0	61	20	2	0	1	0
OTU 15	0	2	0	0	0	0	22	0	0	3	0	0	0	0	0	0	0	0	0	0	3	0	0	0	0	0	0	0	14	0	0	0	2	0	0	0	0	0	8	0	0	0	0	0	1	0	1	2	0	0
OTU 16	0	0	0	0	0	0	0	0	0	0	0	0	0	0	0	1	0	1	0	0	0	0	0	0	0	0	0	0	22	0	0	0	0	0	0	0	0	0	0	0	1	0	0	0	0	0	0	0	0	0
OTU 17	0	43	15	11	12	0	16	10	19	1	0	17	39	20	20	61	1	6	1	112	21	29	3	0	0	9	1	1	78	0	44	29	17	1	334	1	0	6	3	14	23	48	1	0	0	0	41	11	9	18
OTU 18	31	1	0	5	0	1	75	4	0	5	55	99	10	3	14	31	26	255	3	96	294	5	25	26	3	9	5	61	159	3	6	70	20	95	56	3	33	9	9	54	27	79	21	14	15	0	47	7	11	8
OTU 19	0	0	2	0	0	0	0	0	0	0	12	0	0	0	42	0	0	0	0	0	0	0	0	0	0	0	0	0	0	0	0	0	0	0	0	1	0	0	0	0	0	0	0	0	0	0	0	0	0	0
OTU 20	40	59	12	1	29	23	85	37	24	18	130	20	71	13	18	28	2	57	9	12	3	11	4	70	17	10	18	44	183	9	10	5	19	0	51	3	59	11	66	19	0	12	14	2	12	17	17	14	0	0
OTU 21	29	16	64	60	63	498	25	312	12	1	235	138	136	67	126	20	149	3	39	49	0	44	172	3	74	116	38	14	22	49	8	101	76	94	0	85	34	52	52	77	201	77	2	18	280	413	59	157	105	114
OTU 22	11	127	0	3	31	2	135	84	7	5	126	18	120	0	93	118	36	2	0	2042	0	24	45	119	27	41	15	46	63	34	51	29	94	3	83	8	252	0	16	7	48	118	44	87	0	5	14	2	23	67
OTU 23	9	38	23	4	3	4	19	6	2847	62	5	0	11	0	10	0	5	0	8	19	4	1	4	15	72	4	3	37	180	3	1	0	27	106	1	4	0	3	9	1	0	5	10	0	8	12	9	8	0	40
OTU 24	2	2	1	4	0	0	43	0	0	4	335	190	2	18	0	35	1	18	0	0	1	0	4	1	23	0	2	0	11	5	11	5	7	19	20	0	37	0	9	0	0	2	6	3	1	8	0	0	0	7
OTU 25	0	0	0	27	0	0	0	0	0	0	1	0	0	0	0	0	0	0	0	0	5	1	0	0	0	0	0	0	0	0	0	0	1	0	0	0	0	2	0	0	0	0	0	3	0	0	0	0	0	0
OTU 26	0	0	1	1	2	8	0	0	0	0	0	1	15	0	16	0	1	1	0	0	0	0	0	0	0	2	0	1	0	1	55	0	38	0	4	0	3	1	27	0	0	0	0	1	1	4	2	0	0	2
OTU 27	0	0	0	0	0	0	5	0	1	0	0	35	0	0	0	0	18	1	0	0	0	0	1	0	0	0	0	0	0	0	3	0	0	0	0	0	0	0	0	0	0	0	0	0	0	0	1	0	0	0
OTU 28	2	22	20	27	41	64	69	127	735	22	92	74	88	18	18	29	33	248	14	2	15	1	21	10	4	53	71	11	129	21	100	56	14	25	34	33	9	3	36	20	27	27	19	66	36	11	49	12	10	46
OTU 29	150	43	50	1441	106	543	14	346	43	102	41	14	22	87	386	180	53	43	39	14	6	96	132	21	247	195	124	202	220	24	224	35	98	118	60	46	2	57	89	43	222	96	62	61	219	74	2	62	107	50
OTU 30	0	0	0	0	0	0	1	0	0	0	0	3	0	0	0	0	1	0	0	0	0	0	0	0	0	0	0	0	0	0	0	0	0	0	0	0	1	0	0	0	0	0	0	0	0	0	0	0	0	16
OTU 31	0	0	0	1	10	14	182	14	0	0	6	2	7	75	0	5	1448	0	0	27	0	0	0	0	27	3	110	0	65	1071	50	0	20	10	2	0	11	0	4	6	0	1	16	1	10	0	15	0	0	0
OTU 32	17	43	90	13	12	56	24	127	463	17	46	33	14	8	28	42	34	85	712	10	60	1140	12	32	18	188	15	43	56	9	1449	9	16	31	149	1453	6	15	41	19	20	8	81	108	35	3366	80	2876	11	28
OTU 33	0	2	0	3	0	1	0	0	0	1	0	2	0	0	0	27	0	0	0	0	0	0	0	0	0	0	0	5	0	0	0	0	0	0	0	0	0	6	3	0	0	0	0	0	0	0	5	0	0	0
OTU 34	22	109	20	5	9	15	40	5	37	30	49	71	269	3	26	236	143	2	0	135	88	4	4	322	22	2	0	9	11	16	27	27	101	2	57	0	645	13	2	1	66	7	14	15	7	7	26	1	35	49
OTU 35	85	6	2	34	0	6	245	88	5	12	73	140	1	5	23	12	15	4	0	6	5	0	0	15	12	38	11	66	41	8	6	16	103	5	13	10	53	0	135	4	27	12	8	28	5	6	32	12	12	15
OTU 36	7	13	19	0	12	31	13	147	0	8	168	28	74	3	33	10	11	0	7	14	25	15	77	1	2	85	20	1	108	1	146	26	15	2	17	4	0	53	187	20	141	16	6	89	8	7	141	28	68	31
OTU 37	23	0	0	0	0	3	0	22	0	0	6	5	0	0	7	21	0	0	0	299	18	2	2	0	0	1	0	0	0	1	1	0	0	0	2	0	7	0	33	15	6	1	0	0	0	0	1	0	4	0
OTU 38	12	69	23	6	73	30	43	1	3	20	8	48	0	0	35	13	5	5	691	191	0	14	270	4	1	0	55	10	13	19	19	20	13	1	62	1442	32	109	145	25	22	15	29	47	14	14	13	37	15	18
OTU 39	2	27	3	2	0	0	21	0	2	81	33	1	13	24	50	0	1	3	6	61	3	4	43	1	2	0	102	110	3	0	14	0	0	0	0	7	13	2	19	0	7	3	33	20	7	12	0	59	2	1
OTU 40	86	80	6	8	6	13	11	2	2	6	54	5	66	3	1	38	8	19	1	36	87	12	2	47	24	1	15	0	24	25	20	44	83	20	0	10	2	30	11	1	27	2	0	16	11	23	168	28	15	52
OTU 41	0	83	17	12	15	2	8	21	5	14	32	0	11	17	6	26	3	0	0	38	2	0	19	6	15	20	6	7	55	7	11	7	3	2	101	0	1	0	77	5	13	0	13	5	6	1	31	1	9	2
OTU 42	5	0	7	67	60	0	0	1	0	19	0	15	105	0	77	0	0	0	1	0	0	2	16	3	4	3	0	4	0	0	0	51	0	0	0	4	0	21	0	8	0	43	4	29	0	13	0	0	0	0
OTU 43	0	0	0	0	0	0	0	0	0	0	0	0	0	0	0	0	0	0	0	0	52	0	0	0	0	0	0	0	0	0	8	0	0	0	0	0	0	0	6	0	0	0	0	0	0	0	0	0	0	0
OTU 44	17	0	1	0	0	2	0	0	0	0	26	3	13	0	12	0	0	28	0	40	0	0	0	0	0	0	0	0	15	11	0	29	0	16	0	0	0	1	29	3	15	0	0	20	1	0	4	0	9	14
OTU 45	32	175	7	7	5	22	35	11	25	23	20	91	5	8	41	33	37	46	2	8	5	31	0	14	212	7	3	21	14	6	107	269	6	5	31	2	57	10	7	439	9	6	27	2	10	11	26	2	7	9
OTU 46	20	0	20	26	37	39	70	27	118	32	56	34	0	3	5	5	2	10	0	4	170	236	133	13	1	13	25	45	461	19	628	37	19	86	2	4	51	9	112	10	1	1	15	25	27	36	10	12	1	59
OTU 47	0	31	0	5	0	0	37	0	0	14	126	0	0	0	0	0	31	4	0	0	41	0	0	4	1	0	1	4	10	0	0	0	0	1	0	0	29	0	0	0	0	22	2	10	15	0	5	1	0	34
OTU 48	30	37	53	4	73	89	77	2	2	1	22	6	3	4	12	54	19	1	2	18	134	5	12	40	45	1	17	13	103	34	10	13	18	13	50	5	25	18	61	35	42	113	18	3	45	11	19	5	27	66
OTU 49	5	6	6	0	12	12	6	18	9	0	4	0	115	2	0	8	7	0	3	3	0	92	24	19	13	35	4	0	38	1	15	1	32	0	2	4	0	12	47	1	2	2	11	3	6	8	16	34	1	0
OTU 50	53	38	11	0	1	10	0	8	0	33	14	85	15	8	8	0	4	54	2	12	112	5	38	2266	2	10	1	92	10	23	4	10	33	18	273	3	1	18	5	3	36	19	50	12	3	25	5	0	25	16
OTU 51	26	12	2	10	83	59	11	68	6	1	0	87	1	6	111	10	3	1	2	0	4	12	0	0	2	47	63	28	50	18	0	8	2	0	1	9	0	14	18	6	48	3	7	3	2	27	1	9	15	4
OTU 52	234	24	20	28	20	35	34	37	10	7	84	2	20	21	31	108	67	117	3	432	17	68	14	24	28	20	20	5	72	30	53	20	131	40	46	5	82	12	242	29	57	27	18	25	10	1	7	11	30	41
OTU 53	2	0	0	0	0	0	0	1	1	0	4	0	5	2	0	0	0	0	0	0	0	0	0	0	0	0	0	0	0	4	0	0	0	0	0	0	0	0	1	0	8	0	0	0	0	0	0	0	2	16
OTU 54	71	4	36	24	18	116	42	31	21	30	62	146	47	12	42	45	50	197	7	87	849	28	29	98	129	10	58	505	107	21	53	73	271	6	2	20	100	1879	44	80	47	6	84	7	101	80	36	14	20	136
OTU 55	5	0	0	0	0	0	0	0	0	0	0	0	0	0	0	0	1	0	0	0	0	0	0	0	0	0	0	0	0	0	0	0	0	0	0	0	0	0	0	0	0	0	0	0	0	0	0	0	0	0
OTU 56	35	0	0	0	0	12	1	13	1	0	0	44	55	4	15	18	5	3	1	0	1	1	0	0	4	1	0	3	33	0	4	28	3	0	15	0	0	0	63	0	10	2	0	3	20	0	31	2	5	0
OTU 57	81	495	46	14	58	24	61	106	8	20	9	25	5	58	236	68	146	225	29	121	17	9	216	90	57	46	123	31	111	4	3	65	64	100	126	55	42	43	94	21	6	170	55	81	10	57	96	100	2	4
OTU 58	31	0	8	23	0	9	31	0	22	26	8	117	1	0	3	0	5	10	0	0	6	0	14	5	1	9	7	0	3	44	0	1	0	4	4	4	38	2	43	1	19	1	5	1	1	0	40	0	11	32
OTU 59	2	21	48	2	11	3	0	5	4	35	0	0	0	1	6	23	2	63	1	10	4	0	5	50	4	0	0	7	2	592	0	4	0	18	5	5	72	13	84	0	1	3	0	0	0	1	0	2	0	1
OTU 60	93	30	1	12	5	4	265	22	25	15	50	31	64	1031	13	121	24	10	2	0	150	51	206	23	47	10	37	12	39	15	3	1	10	57	5	9	23	14	1	5	148	7	74	23	0	1	57	10	56	35
OTU 61	228	102	33	166	10	60	10	89	110	131	77	0	146	645	97	505	85	110	490	0	269	108	62	20	7	34	1819	8	105	196	167	26	109	3141	8	933	48	0	34	28	1	51	157	103	19	659	40	1768	1	233
OTU 62	0	13	0	49	22	28	4	1	1	37	9	8	2	3	0	0	29	3	0	0	20	0	0	10	0	0	5	0	0	0	0	26	2	3	17	0	3	0	0	0	0	0	0	1	2	13	1	0	0	1
OTU 63	54	0	35	4	80	10	0	2	2	0	29	26	35	8	20	0	1	15	2	46	13	14	1	3	27	0	12	0	5	1	13	4	9	0	56	7	3	5	58	1	0	110	2	3	5	0	12	8	0	4
OTU 64	34	13	6	110	4	33	1	115	9	114	52	63	82	27	56	43	31	1	38	134	47	26	32	20	47	36	14	54	9	16	20	17	196	18	56	8	29	9	35	16	1	52	51	9	21	24	8	17	0	38
OTU 65	0	0	0	23	0	6	0	0	0	0	0	0	0	0	0	7	0	0	0	0	13	2	0	0	0	0	0	0	0	0	0	0	0	0	0	0	0	0	0	0	0	0	48	0	5	0	0	0	0	0
OTU 66	4	207	18	4	6	12	137	1	61	15	31	60	6	8	42	28	6	8	1	5	5	25	26	17	15	7	0	7	84	1	78	13	21	12	349	2	27	38	22	0	25	8	0	1259	50	4	14	4	9	2
OTU 67	0	5	480	0	761	21	75	18	0	12	4	88	18	24	30	4	0	0	1	2	8	43	27	31	12	17	32	12	226	8	16	25	49	0	1	13	19	427	8	1	19	2	0	1175	3	11	38	12	11	0
OTU 68	18	0	0	21	4	23	29	6	0	18	2	15	31	0	0	0	56	0	3	10	7	1	0	3	0	0	20	15	0	0	0	0	5	43	7	3	54	0	52	4	0	20	10	0	4	8	45	15	0	0
OTU 69	8	9	25	3	66	1	35	29	32	24	34	29	3	8	36	171	30	8	20	1	2	30	7	7	9	8	5	8	22	7	16	6	4	34	19	20	17	27	48	1	6	41	11	75	19	43	6	33	4	41
OTU 70	11	36	7	5	0	125	13	79	30	2	147	6	95	0	64	0	8	0	0	3	0	47	1	3	0	36	43	0	25	31	26	2	3	35	39	1	0	0	6	0	6	2	0	0	86	13	67	1	9	16
OTU 71	92	3	987	2	2113	0	53	4	1	25	39	0	26	0	0	0	0	432	1	44	1	0	85	0	0	13	5	4	60	11	6	0	0	5	140	2	0	1003	0	1	34	0	1	12	0	0	5	0	22	37
OTU 72	32	22	3	21	1	29	14	4	9	6	25	28	100	12	45	19	28	279	1	6	23	52	44	0	3	1	11	23	7	4	79	4	20	20	36	18	19	3	1	0	31	12	1	104	41	0	37	22	22	40
OTU 73	1	0	0	1	70	20	6	128	7	24	0	14	0	9	3	23	3	58	11	71	171	0	11	15	1	45	1	10	57	3	14	0	36	74	33	13	23	10	56	739	11	0	0	9	28	10	0	54	7	8
OTU 74	8	11	2	11	144	18	84	13	40	1	31	102	18	5	7	35	84	29	1	171	4	51	60	82	51	0	26	0	68	9	29	20	83	12	83	6	170	61	52	5	65	16	114	55	4	0	11	5	21	37
OTU 75	416	200	14	13	1	123	75	24	10	50	2	76	257	3	48	27	7	167	1	8	466	23	22	50	0	6	1	103	21	4	0	10	81	84	345	1	143	17	31	53	198	331	5	32	23	1	19	1	106	9
OTU 76	0	0	3	19	24	5	17	0	7	3	38	0	21	0	0	5	3	147	0	24	32	7	7	0	0	0	2	2835	113	2	14	13	2	1	162	0	0	4	3	4	34	10	1	5	1	40	12	0	17	3
OTU 77	36	1	62	9	11	133	3	9	5	2	58	1	1	14	4	2	22	11	4	80	44	0	23	18	7	6	6	0	73	12	3	28	2	77	148	16	107	3	28	107	44	52	18	6	63	16	61	15	18	59
OTU 78	6	1	10	29	8	62	0	13	38	72	15	0	105	182	118	22	0	12	128	13	2	23	80	0	1	8	365	77	45	9	27	41	254	986	13	311	36	10	4	8	126	14	1	51	27	287	152	612	57	1
OTU 79	37	53	109	137	100	38	82	107	8	55	251	270	106	12	108	6	45	37	16	88	368	24	2119	99	61	52	38	101	78	698	48	564	265	72	303	17	236	84	52	626	76	59	62	73	58	72	61	33	45	1099
OTU 80	2	8	39	365	88	42	30	13	8	814	17	8	18	98	1792	85	9	80	1	133	16	3	55	2	9	12	59	935	88	15	77	8	26	119	8	1	1	36	0	17	27	32	1	762	6	15	74	22	15	15
OTU 81	379	127	7	28	17	63	348	19	13	140	117	85	20	12	78	367	15	29	10	16	51	14	80	91	152	1	5	12	41	6	25	65	63	58	19	13	5	0	238	16	21	1	231	42	65	40	44	3	12	7
OTU 82	4	50	0	39	0	3	26	0	0	87	3	324	48	2	84	68	21	7	1	30	83	1	2	14	3	8	3	29	28	26	1	49	87	0	9	0	0	6	3	6	1	6	9	32	0	8	41	4	2	7
OTU 83	0	0	1	43	1	0	0	2	0	23	3	5	0	0	26	0	0	9	2	83	55	0	0	0	2	0	3	0	0	7	0	1	31	1	0	3	17	1	2	0	18	5	5	14	0	0	9	30	20	22
OTU 84	15	0	8	0	3	8	89	57	2	52	45	5	18	5	42	78	68	3	7	0	5	0	7	1	3	26	35	3	63	6	2	3	3	74	126	13	6	9	7	18	201	0	4	74	4	69	1	10	101	5
OTU 85	34	18	0	22	1	4	38	4	3	33	8	5	0	0	74	7	16	20	0	10	0	72	2	1	5	0	0	54	46	11	0	13	3	1	2	4	0	2	16	6	1	8	10	0	2	0	2	19	0	114
OTU 86	0	1	0	0	1	0	0	0	0	0	0	0	0	0	0	0	7	0	0	6	0	0	0	0	0	0	0	0	0	7	6	0	2	0	1	0	0	0	1	0	0	57	0	0	0	17	0	0	0	23
OTU 87	0	2	0	0	0	0	5	1	0	26	0	0	93	0	11	0	5	0	2157	18	17	12	17	0	1	0	0	0	9	2	83	0	17	0	13	13	7	0	23	0	0	0	0	0	6	41	0	27	0	0
OTU 88	0	62	6	0	0	0	4	0	7	1	0	21	15	0	2	73	13	1	0	0	24	1	9	0	0	0	0	0	46	0	0	2	0	0	0	0	6	3	0	0	0	0	82	0	0	1	2	0	0	0
OTU 89	1	1	34	1	0	0	66	0	0	0	8	0	20	0	15	11	10	0	1	63	29	14	1	6	11	0	14	0	46	21	12	10	5	10	1	0	2	1	0	5	0	10	0	5	0	1	14	0	0	48
OTU 90	4	0	0	2	0	8	46	9	1	0	0	0	0	8	0	0	0	2	0	0	5	88	0	10	1	4	3	4	12	0	28	1	0	0	75	0	50	13	0	0	0	3	0	4	0	0	4	0	0	4
OTU 91	0	72	0	4	0	69	0	36	0	0	0	0	0	0	0	0	0	20	0	0	0	0	0	0	1	6	0	0	0	2	3	0	68	0	0	8	0	0	0	0	0	0	0	0	62	17	2	17	0	0
OTU 92	0	0	1	0	1	1	7	2	0	1	0	9	7	10	0	0	11	0	0	33	9	0	3	1	0	5	0	0	1	15	0	1139	0	0	0	5	24	0	0	2	3	2	1	8	0	0	94	0	0	46
OTU 93	31	0	0	0	0	0	13	0	3	1	0	0	0	0	8	150	0	0	0	0	0	16	0	0	10	0	1	0	10	0	9	0	6	3	10	0	0	0	20	0	0	0	13	0	3	0	3	0	0	0
OTU 94	82	65	143	65	312	360	103	58	7	14	32	6	97	12	258	7	104	15	18	26	9	86	1	59	1	36	62	80	1	32	66	117	461	338	200	17	81	62	364	94	140	174	2	78	134	2	36	62	59	23
OTU 95	0	52	0	5	1	0	70	4	0	25	6	0	5	1	11	0	1	1	0	102	11	8	0	13	0	3	16	1	11	0	6	0	54	0	0	0	0	1	5	4	1	0	0	0	0	2	6	0	0	9
OTU 96	33	0	0	0	0	0	0	1	0	0	0	0	0	0	0	0	0	0	0	0	0	0	0	0	0	0	11	0	4	0	9	0	0	0	1	0	0	0	0	0	0	0	0	0	0	0	4	0	0	0
OTU 97	0	0	12	0	0	0	4	0	0	0	12	18	0	0	0	1	0	2	0	0	0	1	0	1	0	3	0	0	1	0	8	0	0	0	0	0	23	0	0	1	0	0	0	0	0	0	2	3	0	0
OTU 98	4	0	0	65	34	17	0	33	2	0	0	2	395	1	1	27	41	0	0	2	2	1	2	151	6	38	5	0	169	2	60	7	0	14	0	0	464	0	70	0	0	5	1	0	5	0	8	0	0	1
OTU 99	1509	33	0	33	50	69	52	7	23	2	79	2	180	2670	12	26	19	5	20	1	269	92	18	75	59	3	48	22	27	17	1	7	247	12	299	34	96	16	280	11	65	48	10	48	21	7	54	61	21	76
OTU 100	49	28	2162	10	8	40	2	0	1	0	2	18	103	57	0	140	61	61	21	0	78	4	2	25	0	0	47	18	143	8	23	4	65	14	11	56	54	0	3	0	2	31	0	24	6	52	41	122	0	14
OTU 101	0	0	0	1	7	0	6	0	25	0	0	3	1	0	0	0	0	0	0	6	0	0	0	0	16	0	0	0	0	0	10	0	0	0	83	0	12	0	0	1	0	0	1	0	0	0	0	0	0	18
OTU 102	61	0	0	0	0	9	26	0	0	0	1	19	5	1	7	9	4	0	0	54	0	0	0	38	2	0	0	0	4	0	2	9	24	1	0	17	82	5	0	25	0	3	5	7	0	6	0	11	0	0
OTU 103	12	4	43	9	13	0	105	33	16	21	30	0	37	37	0	1	3	11	7	8	79	0	8	8	0	31	55	4	0	0	18	2	12	20	0	22	60	0	85	1	107	1	0	4	6	9	17	35	54	7
OTU 104	14	9	2	55	32	80	28	15	0	6	29	50	44	18	1	15	17	18	9	154	121	1	6	69	35	18	119	1	18	1	2	56	71	62	10	11	40	14	73	45	2	6	0	6	42	0	26	25	0	0
OTU 105	74	0	0	0	0	0	56	1	5	1	14	7	14	15	0	14	2	0	0	3	29	25	0	0	0	0	0	2	5	0	2	0	3	0	26	0	0	3	0	2	1	11	0	10	1	0	0	0	0	0
OTU 106	78	0	2	43	31	0	69	0	1	8	7	11	5	0	1	1	0	110	0	10	18	2	1946	0	0	0	0	0	11	2	0	0	0	0	0	2	9	0	330	0	92	4	0	31	0	0	29	0	42	8
OTU 107	3	2777	0	2	1	38	2	35	0	0	0	2	1	0	0	15	0	20	0	8	0	10	0	2	14	16	7	6	17	20	4	2	5	5	8	0	24	0	13	11	15	2	5	2	47	9	0	10	13	12
OTU 108	6	87	18	3	6	166	5	0	2	3	0	0	63	3	17	7	6	1	0	10	7	25	10	44	19	6	0	5	51	3	10	17	16	26	6	0	10	0	2	50	2	0	6	55	48	0	60	0	4	16
OTU 109	0	0	0	0	0	0	0	0	0	0	0	9	0	0	0	0	0	0	0	0	12	0	0	0	0	0	0	0	0	0	0	0	0	0	0	0	2	0	0	4	0	0	0	0	0	0	0	0	0	0
OTU 110	2	68	72	1	66	35	132	51	15	7	7	21	33	1	29	0	40	46	1	32	0	118	42	43	51	28	11	2	1	11	62	79	0	3	0	9	12	37	135	55	0	32	0	8	33	9	1	1	0	24
OTU 111	0	0	0	0	5	7	0	2	0	19	0	13	28	0	0	0	0	30	247	0	1	2	2	0	1	0	30	0	0	0	0	0	8	0	0	605	0	1	3	0	0	0	0	0	2	0	0	2	0	0
OTU 112	0	0	7	0	56	6	0	5	125	3	5	0	87	1	41	28	1	0	0	3	87	428	0	3	9	14	1	42	2	0	20	0	71	1	17	0	0	10	0	5	0	0	3	88	25	10	60	2	0	4
OTU 113	0	0	0	18	0	0	0	10	0	1	0	0	0	2	0	0	0	0	0	0	0	0	67	0	15	2	0	0	0	2	0	0	0	0	0	0	10	1	25	0	2	5	1	0	0	5	0	0	0	1
OTU 114	27	1	39	134	75	48	0	103	28	45	118	37	87	148	154	14	84	45	1	56	23	60	30	4	0	60	424	16	10	80	160	7	25	4	140	3	80	40	2	39	91	18	33	40	46	0	14	13	33	192
OTU 115	30	22	25	15	85	101	4	15	13	55	25	182	19	16	75	20	65	637	45	1016	40	2	21	1	12	7	38	479	13	38	19	38	179	54	68	96	54	18	1634	26	56	11	11	15	42	67	1149	149	3222	176
OTU 116	5	609	155	0	8	2	241	18	4	0	87	27	34	3	55	14	2	46	6	14	45	0	5	70	15	32	15	13	40	15	39	0	20	37	20	5	268	25	8	362	0	9	0	6	15	10	0	52	0	9
OTU 117	0	19	12	0	150	87	1	218	89	28	15	30	51	18	21	1	1922	94	0	37	74	274	16	6	3	137	31	3	21	2	497	17	21	7	2	1	12	22	0	59	55	13	58	5	14	12	25	17	30	9
OTU 118	1	11	32	31	1	0	0	1	3	5	0	47	28	3	0	0	0	31	1	26	0	26	2	0	10	1	0	0	0	22	0	5	9	0	7	0	9	14	1	2	0	0	0	0	1	5	1	2	0	28
OTU 119	30	0	32	25	26	69	43	461	3	14	207	1	7	5	37	22	8	8	2094	43	3	1	2	10	61	233	10	1	58	12	0	46	223	12	29	20	148	30	76	23	13	33	20	7	69	44	42	109	6	2
OTU 120	0	6	0	1	2	4	61	0	0	0	0	20	6	2	0	17	1	30	0	14	22	11	0	6	16	0	11	0	1	7	0	1	28	25	0	0	4	0	2	0	38	0	0	2	1	0	0	0	18	1
OTU 121	3	4	2	17	8	82	0	35	18	68	1	3	8	4	96	19	0	1	0	1	28	2	35	4	67	17	3	0	2	3	5	88	26	39	1	4	64	0	52	1	99	15	3327	5	27	59	65	2	49	31
OTU 122	7	0	768	5	749	91	66	5	1	126	7	111	129	28	28	10	2696	44	3	153	0	1	0	120	3	4538	121	3	6	3	2	1	111	26	24	4	13	367	15	3	11	1510	0	17	32	3	6	11	4	13
OTU 123	33	176	77	66	91	29	84	39	62	15	147	64	96	92	61	245	85	175	48	75	81	11	116	717	50	75	73	55	257	36	140	114	103	70	201	63	216	80	213	30	137	104	125	35	33	233	152	148	77	75
OTU 124	436	0	0	0	23	29	0	1	6	0	9	0	0	0	0	744	0	2	1	2	0	0	0	0	0	3	0	2	3	14	0	7	0	0	0	0	0	0	3	3	0	0	399	2	24	8	3	0	146	5
OTU 125	440	164	27	41	72	166	441	129	30	170	32	88	21	649	97	99	147	198	33	119	341	41	110	115	419	44	1162	48	116	100	54	515	203	217	130	73	88	84	216	457	15	30	78	34	104	126	224	211	7	178
OTU 126	0	0	0	0	31	71	2	10	13	2	0	4	0	23	0	22	0	1	1	0	6	0	0	0	0	2	26	0	0	0	0	0	5	7	17	0	0	31	2	0	14	0	1	0	61	0	0	0	5	5
OTU 127	32	21	0	2	7	91	0	10	18	3	5	0	37	17	1	26	14	14	2	6	82	75	4	0	0	0	26	1	1928	0	75	12	39	2	0	5	45	9	3	27	93	47	0	0	40	10	0	11	44	7
OTU 128	29	105	88	151	272	195	217	132	5	79	105	84	99	78	74	71	300	227	11	156	124	51	42	104	50	73	84	23	121	542	116	61	563	153	382	26	83	213	117	36	88	163	45	15	77	1281	77	45	46	951
OTU 129	4	0	0	0	0	0	0	0	7	2	5	0	2	0	0	0	0	0	0	0	2	0	1	0	0	0	0	0	21	0	0	75	5	0	3	1	0	15	2	14	3	0	0	6	0	0	0	0	5	0
OTU 130	18	4	1	1	0	286	15	3	0	14	36	20	1	0	6	0	13	24	5	114	28	0	676	0	3	1	0	6	0	3	4	2	118	3	142	18	42	4	14	2	15	2	61	3	127	7	5	3	9	0
OTU 131	0	11	11	423	5	3	3	33	0	1	3	0	35	1	7	35	5	188	0	27	33	3	18	74	0	26	0	0	0	24	0	11	38	0	34	1	152	1	125	3	68	52	87	1	2	8	121	0	44	33
OTU 132	725	0	0	0	1	0	0	0	0	1	0	6	2	0	0	33	27	6	0	0	4	4	11	0	8	3	3	0	25	1	0	45	0	24	1	2	12	6	9	13	0	3	5	7	1	0	1	16	0	30
OTU 133	0	0	0	18	0	0	0	9	3	0	0	0	3	0	0	7	8	49	0	46	1	0	2	0	0	0	5	0	60	1	5	0	3	0	0	0	0	6	0	0	2	0	0	0	0	0	0	0	1	0
OTU 134	47	15	5	11	1	6	64	41	102	20	80	29	141	250	72	1	1	42	4	0	70	76	18	6	0	22	12	8	83	3	363	0	26	2	0	4	89	0	1	8	61	8	20	30	16	29	134	23	33	0
OTU 135	22	12	478	12	26	20	34	222	38	247	60	2	2302	27	82	62	70	65	28	8	59	110	8	25	19	119	96	31	16	60	73	114	27	156	13	41	3	0	6	69	83	56	23	19	39	56	30	74	35	78
OTU 136	93	67	13	7	0	1	37	3	1	338	13	8	0	2	120	59	4	55	42	4	33	1	20	0	9	3	1	60	12	30	33	11	3	125	2	106	68	0	0	6	148	6	0	70	1	22	14	121	68	12
OTU 137	4	0	0	0	8	2	2	1	0	29	1	0	0	0	16	14	0	2	0	4	0	9	12	54	18	0	0	1	0	0	0	0	16	0	2	0	210	2966	1	0	1	0	0	1	0	0	0	0	0	0
OTU 138	10	0	3	0	0	2	15	44	20	1	17	0	3	5	0	34	4	39	0	43	7	30	0	3	0	26	45	0	34	19	112	2	5	0	26	0	0	0	149	13	0	0	0	16	1	0	77	0	0	36
OTU 139	58	6	307	5	710	15	41	0	21	27	36	118	288	11	6	10	13	85	3	184	260	62	0	134	72	2	20	5	67	8	42	9	7	108	27	8	89	369	208	22	45	617	4	14	28	15	163	37	587	8
OTU 140	29	107	123	89	70	27	617	52	683	243	135	204	353	5	15	66	11	101	9	90	317	30	26	109	30	19	58	69	22	7	31	12	948	61	319	20	285	21	167	24	151	55	60	7	14	17	20	52	60	99
OTU 141	0	0	0	0	1	1	0	1	0	0	0	0	0	0	0	0	0	0	0	0	101	0	0	0	0	5	0	0	0	0	0	0	0	0	15	0	0	0	0	0	0	1	0	2	0	0	0	0	0	0
OTU 142	0	0	0	0	0	4	0	0	0	0	0	0	0	0	1	0	0	0	0	0	9	5	0	0	0	0	0	0	0	0	0	0	0	30	2	0	0	0	0	0	0	0	0	2	0	0	0	0	0	1
OTU 143	0	0	165	0	273	0	1	1	4	0	170	53	2	0	0	0	0	52	9	1	3	5	0	0	18	0	4	0	14	4	2	0	9	23	23	16	1	191	0	0	1	370	11	0	15	7	0	54	2	92
OTU 144	1	0	0	33	15	1	76	54	0	0	8	14	0	4	0	0	0	0	522	32	0	0	2	15	0	25	0	14	0	4	15	7	0	0	0	4	93	3	0	10	6	2	0	0	0	29	20	4	2	3
OTU 145	6	145	0	31	28	41	38	28	3	30	84	2	1	195	10	2	0	66	46	66	44	5	3	29	39	4	415	3	0	38	6	3	16	17	15	72	10	15	178	0	10	260	3	5	36	48	29	46	6	88
OTU 146	4	44	0	14	0	25	171	9	1	2	7	206	6	65	23	20	38	0	5	125	37	7	35	57	12	7	78	5	18	1690	2	17	25	7	73	6	281	0	6	0	27	2410	41	23	36	31	36	2	18	1
OTU 147	8	0	6	1	12	5	7	1	1	7	1	7	0	0	1	0	0	1	24	0	5	2	58	4	72	0	0	3	5	0	1	40	51	113	0	46	10	0	4	8	1	29	40	0	3	1	8	81	1	0
OTU 148	24	31	15	2	3	14	30	20	2	7	58	1	85	1	1	15	3	16	8	69	59	0	0	10	0	13	3	28	4	2	10	9	163	7	22	17	86	0	10	9	1	11	14	5	11	1	3	31	0	19
OTU 149	0	0	0	0	0	1	41	785	0	2	50	46	4	0	0	1	0	3	4	32	1	0	2	0	0	376	0	0	6	5	20	27	0	10	10	23	0	0	0	6	4	4	1	7	0	9	105	2	2	30
OTU 150	0	22	1	18	0	0	0	31	13	0	0	12	16	0	6	6	0	11	0	18	15	0	0	0	0	28	0	0	0	0	2	17	0	2	0	0	0	0	2	12	65	1	0	13	9	1	0	0	32	0
OTU 151	80	103	2	39	8	141	44	0	4	2	80	0	14	0	1	80	3	0	6	13	31	17	6	49	20	0	1	0	23	0	147	10	0	0	6	27	35	5	42	26	6	19	71	9	43	20	36	5	0	2
OTU 152	112	29	18	0	0	42	20	54	47	1	0	61	148	67	3	21	38	1696	6	31	4	33	27	1	64	53	17	1	320	1	87	8	3	15	113	26	34	8	2	4	8	217	51	36	9	0	17	115	4	1
OTU 153	10	9	0	7	0	0	0	14	0	27	0	15	8	0	0	0	0	0	0	0	12	0	0	0	0	4	0	0	8	6	4	0	0	0	0	0	3	0	1	0	0	0	1	0	0	1	0	0	0	0
OTU 154	2	0	0	5	0	0	0	0	0	0	0	0	0	15	83	0	0	4	0	0	0	0	0	1	0	0	31	0	0	2	1	2	24	0	1	0	0	0	0	9	0	0	0	23	0	0	0	1	0	0
OTU 155	40	84	10	3	2	19	0	18	6	27	0	0	1	0	4	0	0	76	6	6	63	0	14	3	0	39	0	3	7	0	46	18	1	5	46	21	3	0	0	7	7	34	33	7	6	38	12	18	4	1
OTU 156	1023	50	63	59	42	55	11	1823	6	26	73	43	27	4	8	2833	17	29	11	25	69	11	15	1474	31	1019	7	31	38	6	9	1	2	36	216	1	6	21	8	8	17	146	1891	6	841	48	16	15	7	4
OTU 157	0	0	0	5	1	536	9	0	0	0	4	12	0	2	0	3	1	0	12	0	0	0	0	4	2	0	0	5	10	759	14	0	0	0	157	45	0	4	53	0	87	11	0	4	262	1	25	43	42	1596
OTU 158	0	0	0	0	0	0	1	0	0	2	0	0	1	0	0	0	0	0	0	0	0	0	0	0	0	0	0	0	0	0	2	0	31	0	0	0	24	0	1	0	10	0	0	0	0	0	0	0	5	2
OTU 159	1	0	0	3	20	5	43	44	6	24	7	14	51	0	15	16	0	39	13	104	56	2	10	0	1	57	4	11	8	423	4	5	1	17	66	16	45	5	162	65	55	81	2	21	3	2	99	22	25	16
OTU 160	20	253	98	13	136	139	364	46	10	77	70	43	143	17	66	57	18	609	21	15	39	57	12	524	10	21	78	27	132	3	17	15	29	24	17	41	848	49	866	36	12	38	6	32	60	44	247	109	4	12
OTU 161	0	10	12	269	31	25	8	4	10	673	97	107	99	1	1348	0	2	11	0	37	215	0	372	8	5	6	4	849	170	643	0	169	3	2	47	1	22	11	6	174	1709	5	294	547	1127	38	1921	3	827	1321
OTU 162	105	10	0	3	2	83	248	28	37	29	12	46	1	27	14	28	12	33	0	0	64	11	4	26	0	11	40	11	34	41	65	26	8	137	8	5	91	11	67	9	40	4	13	1	21	9	82	0	21	93
OTU 163	0	0	0	0	0	0	10	0	0	1	0	0	29	0	0	0	0	0	0	0	0	0	0	0	0	0	0	0	0	0	0	8	0	0	0	0	0	0	0	4	0	0	0	0	0	0	0	2	0	0
OTU 164	0	0	0	0	0	0	0	0	0	0	0	9	1	0	0	0	0	0	0	0	0	0	0	1	0	1	0	0	54	0	0	0	60	20	0	0	0	0	0	0	0	5	1	0	0	0	17	8	0	0
OTU 165	23	1	2	16	26	131	72	1	1119	5	71	4	4	1	3	6	17	4	6	97	36	2109	15	2	6	0	4	0	16	0	1	8	80	0	85	8	34	17	0	0	37	0	2	8	49	2	62	6	28	1
OTU 166	0	0	1	0	0	0	0	0	0	0	0	0	2	0	0	1	1	0	0	0	0	0	0	0	0	0	0	0	0	0	0	3	0	0	0	0	10	0	0	0	0	0	0	2	0	0	2	0	0	0
OTU 167	53	0	14	44	11	39	5	12	28	1	108	869	1	13	8	0	9	13	0	11	0	51	24	29	1	5	0	0	0	0	29	626	10	11	8	0	8	27	1	500	26	2	0	2	21	57	21	0	650	1
OTU 168	0	141	7	4	20	267	2	8	14	19	32	2	133	39	5	45	1	7	7	13	4	0	23	5	14	2	0	50	2	12	22	1	0	3	0	13	12	11	140	11	2	21	4	4	112	12	2	25	1	4
OTU 169	0	2	0	0	1	0	0	0	20	0	2240	1	0	1	0	0	0	0	0	11	3	17	0	0	0	0	0	0	18	0	70	3	0	0	0	1	0	0	71	0	0	0	0	0	0	0	26	5	0	0
OTU 170	4	0	1	0	7	0	0	0	0	14	0	1	1	0	0	0	0	0	0	0	0	0	5	6	0	0	0	0	0	0	0	0	0	10	8	0	15	0	0	0	0	2	0	0	0	6	0	0	0	0
OTU 171	9	68	53	0	59	0	14	32	0	55	20	76	70	3	87	10	31	59	6	6	0	11	45	2	12	15	36	36	34	30	22	8	49	58	134	26	55	20	6	0	1507	20	7	1156	0	20	3	71	754	5
OTU 172	52	1	0	1	0	0	0	0	2	0	2	0	0	13	0	2	18	0	15	0	0	2	17	0	0	0	40	0	2	0	37	0	11	0	0	11	0	0	1	0	0	0	0	0	4	2	0	36	0	7
OTU 173	0	0	0	0	0	0	36	48	0	0	111	0	39	0	13	23	10	0	0	53	19	27	18	1	3	21	0	0	11	0	0	20	80	0	2	0	0	1	0	0	0	3	0	0	2	0	0	21	0	11
OTU 174	12	0	2	6	1	7	19	98	10	40	5	4	22	7	0	28	0	0	0	3	7	11	8	2	0	46	10	1	24	3	26	0	16	54	24	1	1	2	9	0	3	5	3	7	10	0	49	8	4	21
OTU 175	0	5	0	6	2	24	3	18	24	0	9	14	0	4	0	55	2	0	0	0	22	38	15	10	7	5	3	0	42	22	89	18	6	19	0	0	8	3	12	2	1	1	0	2	17	1	47	6	2	12
OTU 176	15	10	18	21	6	30	241	8	1	8	29	7	67	6	26	5	17	38	3	52	143	59	40	13	3466	1	0	44	18	19	55	6	3	103	166	17	66	1	0	27	48	55	29	20	19	699	48	19	18	26
OTU 177	30	1	21	27	179	58	22	7	54	22	164	15	10	0	2	22	9	46	0	57	15	1	20	106	12	2	7	1	6	15	1	0	5	13	44	0	73	60	7	3	52	68	6	14	83	16	92	2	27	42
OTU 178	2	110	0	36	31	3	87	0	3	0	0	64	0	0	33	9	0	0	8	9	9	6	1	27	44	0	8	25	22	0	0	0	101	1	8	20	54	1	6	1	0	45	0	42	4	8	34	12	0	1
OTU 179	10	7	1	4	38	0	0	5	0	1	35	19	19	0	15	5	8	1	20	0	0	0	17	10	7	0	4	95	0	4	20	3	199	5	25	15	0	42	3	15	0	3	21	34	2	2	7	30	0	4
OTU 180	146	105	39	1777	136	153	158	48	57	3326	66	53	116	45	32	96	90	57	32	74	435	24	64	115	2162	16	73	70	73	14	121	2444	49	34	173	36	69	48	155	42	11	153	10	15	96	32	23	25	5	27
OTU 181	31	9	0	9	8	33	61	3	3	20	0	5	6	0	0	50	0	48	1	14	23	6	1	33	6	1	2	165	32	2	44	1	4	1	0	6	75	0	20	15	29	47	1	0	0	67	0	0	17	0
OTU 182	0	1	39	0	40	19	146	0	0	14	0	0	0	0	0	0	0	0	0	0	0	0	0	0	0	0	0	0	0	0	0	0	7	0	6	3	0	3	3	0	0	16	0	0	3	0	0	0	0	0
OTU 183	3	3	113	0	50	0	19	127	0	37	4	503	0	0	7	12	0	233	21	61	1	0	14	40	17	57	0	10	9	24	42	0	21	25	83	15	27	32	145	13	0	4	0	14	2	101	908	18	0	0
OTU 184	23	49	8	5	0	7	150	231	68	1	0	22	0	2	1	0	15	0	7	0	26	27	0	6	3	122	2	0	0	10	3	14	0	0	0	12	15	0	0	18	10	0	26	3	2406	5	1	47	5	9
OTU 185	7	8	38	3	14	70	59	3	5	0	128	38	19	38	11	92	186	151	1	43	93	69	6	16	18	6	115	8	418	25	27	0	74	127	66	1	69	6	14	24	23	80	94	12	26	10	23	13	9	6
OTU 186	2	33	24	1	0	0	33	17	1	0	2	2332	1	1	62	0	0	0	0	8	0	0	0	16	1	11	0	45	125	0	3	1	0	3	151	0	31	2	25	0	0	38	0	19	13	13	167	2	0	0
OTU 187	72	153	26	62	89	65	28	34	714	55	184	100	22	30	27	1	75	38	1075	29	250	1888	17	102	92	11	30	0	5	32	13	26	248	23	7	2118	181	56	26	19	29	17	1	19	40	11	26	4	14	65
OTU 188	105	11	265	141	177	341	304	304	97	159	1	31	110	28	254	158	136	71	70	122	176	128	148	51	149	134	115	128	143	219	116	375	94	111	4	88	77	105	96	588	255	107	67	168	198	52	64	129	120	264
OTU 189	31	26	42	18	10	24	34	68	87	12	9	271	200	1190	102	83	6	5	23	77	20	40	71	88	100	14	60	29	128	10	266	4	30	19	347	42	88	7	12	6	38	11	115	60	8	72	143	114	22	33
OTU 190	0	0	1	18	0	0	0	0	0	3	129	0	0	45	0	0	2	0	0	54	0	0	0	0	62	0	39	0	0	0	0	1	6	0	8	0	0	0	14	0	0	0	0	0	0	0	9	0	0	5
OTU 191	33	96	77	14	60	72	1	57	11	1	25	25	18	14	20	215	36	28	3	13	7	17	55	35	13	5	47	1	8	2	10	13	509	23	278	11	17	22	19	6	1	18	55	25	33	50	59	74	0	5
OTU 192	82	16	8	26	43	37	99	43	22	28	178	58	121	4	29	5	16	0	0	61	18	7	43	36	92	42	24	27	12	2	26	576	68	108	188	4	86	34	41	28	1	17	14	36	19	16	41	4	0	3
OTU 193	0	90	82	17	65	23	41	72	37	2	26	9	8	62	24	3	11	66	314	38	103	49	5	58	10	17	114	2	6	4	95	3	264	0	22	637	91	10	5	1	62	47	59	2	12	0	0	109	41	12
OTU 194	31	55	4	3	34	226	16	0	2	2	33	0	36	1	9	28	0	31	0	1	0	59	6	77	0	2	7	25	13	1	0	14	223	7	124	13	169	28	50	7	0	0	0	6	82	3	0	6	0	8
OTU 195	51	6	1	437	7	20	2	61	44	349	16	0	29	1	1387	0	10	8	1	29	55	12	75	9	13	43	0	701	73	5	83	25	28	1	21	1	0	1	9	2	1	39	128	730	0	6	49	0	0	2
OTU 196	29	8	3	2	21	2	9	4	0	0	4	5	62	1	5	61	3	3	1	17	2	14	5	21	0	0	0	1	1	46	1	12	71	2	95	1	1	7	154	2	9	7	30	2	0	33	29	4	8	71
OTU 197	11	67	9	52	74	207	27	32	57	40	151	211	170	3	12	196	19	150	5	192	69	45	122	87	42	11	101	72	26	27	111	15	123	44	439	9	6	11	93	65	1402	1	36	30	68	47	152	36	702	96
OTU 198	1	0	0	2	0	0	0	0	0	0	58	6	1	0	34	0	0	123	2	0	0	2	0	0	1	0	7	22	1	5	25	1	2	0	0	9	3	0	0	0	9	0	3	4	6	1	25	16	4	9
OTU 199	0	99	6	38	2	0	8	165	9	0	4	45	0	4	0	6	0	5	7	18	8	3	0	43	2	79	18	10	5	1	10	0	3	0	5	17	26	0	8	4	0	3	2	2	0	2	1	43	0	0
OTU 200	9	34	6	7	57	8	33	3	33	77	1	27	3	8	0	4	0	5	0	14	22	8	23	32	22	8	32	3	8	6	39	18	82	12	5	0	113	9	4	69	2	4	14	26	2	4	9	1	2	12
