	Host 1	Host 2	Host 3	Host 4	Host 5	Host 6	Host 7	Host 8	Host 9	Host 10	Host 11	Host 12	Host 13	Host 14	Host 15	Host 16	Host 17	Host 18	Host 19	Host 20	Host 21	Host 22	Host 23	Host 24	Host 25	Host 26	Host 27	Host 28	Host 29	Host 30	Host 31	Host 32	Host 33	Host 34	Host 35	Host 36	Host 37	Host 38	Host 39	Host 40	Host 41	Host 42	Host 43	Host 44	Host 45	Host 46	Host 47	Host 48	Host 49	Host 50	
OTU 1	0	0	1	2	0	3	0	2	0	0	0	0	0	4	0	1	0	0	0	1	3	0	2	1	0	0	4	12	0	9	0	3	0	2	3	1	0	1	3	1	6	3	4	6	0	1	0	0	5	0
OTU 2	8	0	0	0	2	1	0	0	1	0	0	0	0	2	0	2	1	0	2	0	0	0	0	0	1	1	0	0	1	0	0	0	1	0	0	8	0	0	0	0	0	2	1	6	9	0	0	0	0	1
OTU 3	0	0	0	1	0	1	0	0	0	0	0	0	0	2	0	1	0	0	0	1	0	0	0	0	0	0	0	0	0	0	0	0	0	0	1	0	0	0	0	0	0	0	0	0	0	0	0	0	0	0
OTU 4	0	0	0	0	0	0	0	0	0	0	0	0	0	0	0	0	0	0	0	0	0	0	0	0	0	0	0	0	0	0	0	0	0	0	0	0	0	0	0	0	0	0	0	0	0	0	0	0	0	0
OTU 5	4	0	2	7	1	4	0	11	50	14	20	1	52	16	0	15	26	9	6	0	0	5	3	53	0	0	0	1	26	1	10	0	2	3	8	8	5	8	49	17	7	14	0	2	0	7	13	0	3	1
OTU 6	1	5	4	0	1	0	1	0	0	2	0	2	0	0	1	0	3	1	0	3	2	0	3	1	0	0	3	0	0	4	1	7	0	0	1	4	0	0	129	0	3	0	0	2	0	4	0	0	2	0
OTU 7	9	4	0	4	3	0	12	1	0	2	3	2	4	3	1	3	16	0	4	0	3	2	2	2	0	1	0	3	0	0	4	1	8	5	12	1	0	6	2	2	0	5	6	1	9	1	5	0	0	8
OTU 8	2	6	0	0	0	0	0	0	2	1	3	4	7	2	1	0	1	0	1	0	6	8	2	4	7	2	4	0	0	5	2	4	13	2	78	1	1	2	0	1	0	0	3	1	4	1	2	0	0	0
OTU 9	0	0	0	0	1	0	0	0	0	1	0	3	0	0	0	0	0	0	5	0	4	1	1	1	1	1	0	0	1	1	1	1	0	0	0	0	0	0	0	0	0	0	0	0	1	1	0	0	0	0
OTU 10	0	1	0	0	0	0	7	0	0	0	0	0	0	0	1	0	6	0	2	0	2	3	0	0	10	0	0	1	0	0	0	0	0	0	6	1	0	0	0	0	1	0	0	0	3	0	2	0	0	6
OTU 11	2	0	0	1	0	32	0	1	0	0	2	0	0	0	1	3	1	2	1	0	4	2	0	1	3	0	1	1	0	0	0	1	1	4	1	0	0	0	3	1	1	6	4	1	2	0	1	4	1	3
OTU 12	0	0	152	2	0	1	0	0	0	1	1	2	0	0	0	1	3	1	1	53	0	1	0	1	0	0	0	8	0	0	3	0	4	0	10	3	2	0	0	0	0	0	1	1	6	0	4	5	86	0
OTU 13	0	0	0	0	0	0	0	0	0	0	0	0	0	0	0	0	0	0	0	0	0	0	0	0	4	0	0	0	0	0	0	0	0	0	7	0	0	0	0	0	0	0	4	0	0	0	0	0	0	0
OTU 14	1	0	0	1	0	1	4	0	0	0	0	0	0	0	0	0	1	0	0	0	2	2	1	0	1	0	0	2	0	0	0	0	0	1	2	0	0	0	0	0	1	0	0	0	0	0	0	1	0	0
OTU 15	0	0	0	0	2	0	1	0	0	0	0	0	0	0	0	0	0	0	0	0	0	0	0	0	0	0	0	0	0	0	0	0	0	0	0	0	0	0	0	0	0	0	0	0	0	0	0	0	0	10
OTU 16	0	0	0	0	0	1	0	0	0	0	0	0	0	0	0	0	0	0	0	0	0	0	0	0	0	0	0	0	1	0	0	0	0	0	0	0	0	0	1	0	1	0	0	1	0	0	0	0	0	0
OTU 17	0	0	0	0	0	1	0	0	0	1	0	0	4	1	0	0	0	0	0	0	0	3	0	0	3	4	3	0	0	0	0	0	7	0	0	3	0	0	0	2	0	1	0	0	3	0	2	4	0	1
OTU 18	2	2	1	1	5	2	0	1	0	5	89	0	0	0	0	1	2	2	1	0	0	1	3	0	1	8	2	1	2	0	1	0	1	5	1	4	0	88	38	4	1	0	3	1	3	0	1	1	0	0
OTU 19	0	0	0	0	0	0	0	0	0	0	0	0	0	0	0	0	0	0	0	0	0	0	0	0	0	0	0	0	0	0	0	0	0	0	0	0	0	0	0	0	0	0	0	0	1	0	0	0	0	0
OTU 20	0	0	3	0	0	0	0	6	0	0	1	1	2	2	1	1	1	1	0	1	1	0	3	0	1	10	0	2	0	0	2	1	0	0	0	3	2	1	1	0	0	1	3	0	3	1	0	1	0	0
OTU 21	1	2	0	3	0	1	0	0	0	1	0	2	4	0	1	0	4	0	25	0	10	2	0	2	4	0	4	4	1	1	0	0	4	0	0	7	0	0	0	0	0	7	0	0	0	0	0	0	1	0
OTU 22	0	0	0	2	0	0	1	188	0	0	3	0	0	0	1	3	2	0	2	0	2	10	3	0	0	3	0	6	0	1	1	2	0	1	0	0	0	0	2	2	0	2	5	1	1	0	0	0	0	0
OTU 23	0	0	3	0	0	64	0	0	0	0	55	0	10	0	51	1	0	2	1	2	1	0	3	0	3	1	0	0	0	0	1	0	0	102	0	1	60	0	11	1	0	0	0	51	0	0	9	0	3	0
OTU 24	4	3	0	0	0	0	0	0	3	0	0	11	3	0	0	0	2	0	0	0	19	0	0	0	0	0	2	0	0	0	0	0	0	2	0	0	0	0	1	0	0	0	3	2	1	0	2	0	0	0
OTU 25	0	0	0	0	0	0	0	0	0	0	0	0	0	0	0	0	0	1	0	0	0	0	0	0	0	0	0	0	0	0	1	0	0	0	0	0	0	0	0	0	0	0	0	0	0	0	0	0	0	0
OTU 26	1	0	1	0	0	1	0	0	0	1	0	0	0	0	0	0	0	0	0	0	0	0	0	0	0	2	0	0	0	0	0	0	0	0	11	1	0	0	0	0	0	0	0	0	0	0	0	2	0	0
OTU 27	0	0	0	0	0	0	0	0	0	0	0	0	0	0	0	0	1	0	0	0	0	0	0	0	0	0	0	0	0	0	0	0	0	0	0	0	0	0	0	0	0	0	0	0	0	1	0	0	0	0
OTU 28	3	2	1	5	10	0	2	0	0	2	0	0	6	0	1	0	0	0	5	1	1	0	1	0	1	11	1	2	0	7	0	1	2	3	4	3	0	0	0	1	0	2	1	0	4	0	1	5	1	6
OTU 29	0	1	1	0	0	0	1	0	0	0	0	1	1	0	0	0	0	0	2	1	1	7	6	0	0	0	6	0	8	2	1	0	5	2	0	0	0	4	0	0	4	1	0	1	0	0	3	1	2	3
OTU 30	0	0	0	0	0	0	0	0	0	0	0	0	0	0	0	0	0	0	0	0	0	0	0	0	0	0	0	0	0	0	0	0	0	0	0	0	0	0	0	0	0	0	0	0	0	0	0	0	0	0
OTU 31	0	0	0	0	0	0	1	0	1	0	0	2	0	0	0	0	0	0	1	0	10	0	3	1	0	0	4	0	0	1	2	2	0	0	0	0	0	0	0	0	5	0	1	0	1	2	1	0	0	1
OTU 32	8	1	10	3	1	0	1	0	19	0	0	2	3	5	1	2	2	10	3	2	10	14	18	1	0	8	35	6	10	26	0	12	2	0	1	0	6	3	1	2	19	22	1	1	9	3	0	1	1	0
OTU 33	0	0	0	0	0	0	0	0	0	0	0	2	0	0	0	0	0	0	0	0	0	0	0	0	0	1	0	0	0	0	0	1	0	0	0	0	80	0	0	0	0	0	0	0	0	0	0	0	0	0
OTU 34	5	1	0	0	2	0	2	0	2	2	0	2	2	0	1	0	4	4	0	1	0	1	0	4	0	0	0	2	0	1	0	4	0	0	0	3	0	11	0	3	0	0	0	0	0	0	0	0	0	3
OTU 35	4	2	1	75	0	4	0	0	0	0	1	14	1	0	0	0	0	0	3	0	14	0	1	0	0	1	0	0	2	0	0	0	37	2	0	1	1	1	24	1	4	0	0	0	0	0	2	3	0	0
OTU 36	1	2	2	1	1	0	0	0	1	0	0	1	0	0	1	1	2	2	0	1	0	3	1	0	3	9	5	1	0	0	1	0	1	0	1	3	0	0	0	0	1	0	1	0	6	0	0	4	0	3
OTU 37	5	0	0	0	0	0	0	0	0	0	0	0	0	1	0	0	0	0	0	0	0	0	0	0	2	5	0	0	2	0	0	3	0	0	0	0	0	0	0	0	1	21	46	0	0	1	2	0	0	0
OTU 38	8	4	1	10	2	0	1	0	4	1	2	0	0	0	0	0	0	1	0	0	0	1	0	0	0	1	6	17	0	1	0	0	2	0	1	2	0	0	0	0	0	1	1	0	2	0	1	0	3	1
OTU 39	0	0	0	0	0	2	0	0	0	0	0	0	0	0	0	0	0	0	0	0	0	0	0	0	0	1	0	0	0	0	0	3	0	0	0	0	0	0	0	0	0	0	0	1	1	0	0	3	0	0
OTU 40	1	4	1	6	1	1	1	0	0	1	0	4	4	0	1	0	3	2	0	0	4	3	0	0	11	0	2	26	0	2	0	0	5	3	0	1	0	11	0	1	1	2	4	0	10	0	4	1	0	0
OTU 41	0	0	0	2	1	1	0	0	0	5	0	0	3	0	3	0	0	0	2	0	1	2	1	0	0	0	0	0	0	1	2	0	1	4	4	0	3	0	1	6	2	0	0	2	0	0	3	0	0	0
OTU 42	0	0	0	2	0	2	0	1	0	0	1	0	0	0	0	7	0	0	0	0	2	1	0	0	0	0	0	2	0	0	0	0	0	1	0	0	0	0	0	5	0	0	0	0	3	0	0	1	0	0
OTU 43	0	0	0	0	0	0	107	0	0	0	0	0	0	0	0	0	0	0	0	0	0	0	0	0	0	0	0	0	0	0	0	0	0	0	0	0	0	0	0	0	0	0	3	0	0	0	0	3	0	0
OTU 44	1	0	0	0	1	0	0	0	0	0	0	0	0	0	3	0	0	0	0	0	0	0	0	0	0	0	0	2	0	1	1	0	0	0	0	0	0	0	0	0	0	0	0	0	0	0	117	0	0	0
OTU 45	1	1	1	1	6	0	0	0	0	0	0	2	0	0	0	2	1	0	2	0	2	1	1	1	2	1	0	2	0	0	0	2	2	0	0	0	1	1	0	0	1	0	2	0	0	1	2	1	1	1
OTU 46	22	6	0	1	0	0	0	0	5	1	1	1	2	0	2	0	3	1	3	0	0	9	1	0	0	7	2	4	0	0	0	3	4	0	0	0	0	1	2	2	1	0	6	1	42	1	0	12	0	4
OTU 47	0	0	0	0	0	0	0	0	0	0	0	0	0	0	0	2	0	0	0	0	0	0	1	0	0	0	0	0	0	0	0	0	0	0	1	0	0	1	1	0	0	0	0	0	0	0	2	3	0	0
OTU 48	5	0	2	3	1	1	1	2	1	4	0	0	2	0	1	3	0	1	2	0	1	6	0	2	2	15	2	1	5	0	5	1	0	0	5	2	0	3	0	2	5	0	1	0	0	120	0	3	0	1
OTU 49	1	0	0	0	4	0	0	1	3	0	1	0	1	0	0	0	0	0	0	1	0	1	1	0	0	0	2	7	0	0	0	3	6	0	0	5	0	0	0	2	0	0	3	0	0	0	0	2	2	1
OTU 50	4	0	0	5	0	0	3	1	0	0	0	4	1	2	0	5	0	0	0	0	10	3	3	0	12	7	1	2	2	0	6	0	8	0	1	4	0	1	0	2	1	0	2	0	0	1	1	0	0	1
OTU 51	1	0	2	0	0	0	9	0	18	0	1	2	0	0	0	0	3	0	0	0	0	0	0	0	4	2	2	2	0	1	1	1	1	3	17	0	0	0	0	1	2	1	0	0	0	0	1	4	0	5
OTU 52	2	1	0	6	47	4	4	2	3	3	0	4	0	3	0	0	0	0	1	1	10	7	64	5	6	3	13	9	1	1	0	1	0	0	5	0	3	5	0	2	0	1	2	1	0	1	0	0	0	3
OTU 53	0	0	0	0	0	0	0	0	0	0	0	0	0	0	0	0	0	0	0	0	0	0	0	0	0	0	0	0	0	0	0	0	0	0	0	0	0	0	0	0	0	0	0	0	0	0	0	0	0	0
OTU 54	0	2	0	0	2	2	0	2	2	0	4	0	5	0	2	1	4	1	5	64	3	1	9	5	2	1	0	1	3	1	3	7	1	0	2	2	14	0	1	8	0	2	0	0	1	1	0	9	95	0
OTU 55	0	0	0	0	0	0	0	0	0	0	0	0	0	0	0	0	0	0	0	0	0	0	0	0	0	0	0	0	0	0	0	1	0	0	0	0	0	0	0	0	0	0	0	0	0	0	0	0	0	0
OTU 56	0	0	1	0	4	0	0	0	0	1	0	0	0	0	0	0	0	0	0	0	0	1	0	0	2	2	0	1	0	0	0	0	2	2	0	0	0	0	0	0	4	0	0	0	2	0	0	0	0	0
OTU 57	6	0	4	2	0	0	2	43	2	4	1	5	10	2	0	5	0	0	6	1	4	2	44	0	6	6	3	13	1	2	0	3	0	1	1	6	1	5	0	110	0	1	7	0	6	3	5	2	2	3
OTU 58	1	1	2	1	0	1	0	2	0	0	0	0	0	2	0	0	0	0	0	0	6	0	0	0	9	0	1	2	0	0	0	0	8	1	1	0	0	0	0	1	2	1	0	0	1	0	3	0	0	0
OTU 59	1	0	0	1	0	0	0	0	0	1	0	0	0	0	2	0	0	1	0	0	2	0	1	93	1	0	0	5	0	3	0	0	0	0	1	0	1	0	0	0	0	0	4	0	0	0	9	0	0	1
OTU 60	0	2	3	1	0	0	1	1	1	0	0	1	5	0	0	7	8	0	3	0	13	0	1	30	3	17	1	0	0	2	0	1	0	2	3	0	1	1	0	10	0	0	2	1	13	1	3	0	0	1
OTU 61	1	1	12	0	3	3	1	3	7	1	0	2	1	12	0	0	3	16	5	2	9	1	0	0	0	3	4	1	11	25	17	0	1	3	1	3	1	2	0	3	27	5	2	77	6	0	0	1	2	5
OTU 62	0	6	1	5	0	0	0	1	0	0	0	0	0	0	0	0	0	0	0	0	0	1	0	0	0	0	0	1	0	0	0	0	0	0	0	0	0	0	17	0	0	0	0	0	0	0	0	0	0	0
OTU 63	0	0	0	0	0	0	0	0	0	0	0	1	4	0	158	0	1	0	0	0	0	4	2	4	2	0	0	0	0	0	0	7	0	0	0	0	0	17	0	0	0	0	0	0	0	47	1	0	0	1
OTU 64	0	81	0	0	2	0	3	5	0	3	2	163	2	0	2	1	2	2	0	2	8	2	4	0	2	0	0	0	1	3	1	0	8	9	4	1	4	8	1	11	1	0	0	6	15	0	2	13	1	0
OTU 65	1	0	0	0	0	0	0	0	0	0	0	0	0	0	0	0	0	0	1	0	0	0	0	0	0	0	0	0	0	0	0	0	11	0	0	0	0	0	0	0	0	0	0	0	0	0	0	0	0	0
OTU 66	0	6	0	0	1	1	0	0	0	0	1	3	2	0	4	5	1	1	2	175	3	4	0	0	2	0	2	0	0	3	1	0	1	4	1	0	0	1	0	3	1	0	1	1	1	0	0	2	0	0
OTU 67	1	3	0	0	0	0	2	0	0	2	0	1	4	0	1	0	3	0	0	0	0	1	0	0	2	0	0	2	0	2	0	1	0	1	2	1	1	0	0	1	0	0	0	3	0	3	0	0	0	0
OTU 68	1	0	0	0	0	0	0	0	0	0	0	0	2	0	0	0	0	1	0	0	0	0	1	0	2	0	0	0	0	2	0	0	0	1	0	27	0	0	0	0	2	0	2	0	1	0	0	1	0	0
OTU 69	1	0	0	2	1	31	1	1	2	4	40	1	3	0	36	0	0	0	1	0	0	2	0	0	0	0	2	0	1	2	0	2	3	67	12	0	26	15	20	0	1	1	1	21	3	0	0	5	0	0
OTU 70	0	0	0	0	3	0	0	0	0	0	0	0	0	1	6	0	1	0	0	0	0	0	0	1	0	7	1	1	0	0	0	0	0	0	0	1	0	0	0	0	0	0	0	0	0	0	0	0	0	0
OTU 71	0	0	0	0	0	0	1	1	0	0	1	1	0	0	1	20	0	1	0	1	0	0	3	0	2	0	0	1	1	0	0	0	2	0	1	0	0	0	1	0	0	4	2	0	0	0	5	0	0	0
OTU 72	9	0	0	0	1	0	0	2	2	1	0	2	0	27	3	1	8	18	0	1	1	1	9	1	0	3	3	0	37	0	0	0	1	1	1	0	5	3	11	1	60	0	0	1	3	0	3	4	3	2
OTU 73	3	2	7	0	0	0	1	0	1	6	44	2	3	1	0	0	3	3	0	0	0	0	3	0	6	6	0	0	0	0	1	1	1	2	3	0	0	2	19	1	2	0	1	0	5	1	1	0	3	2
OTU 74	0	0	2	0	0	1	4	0	0	0	0	0	2	43	0	0	0	0	2	0	0	0	0	0	10	9	2	1	0	4	3	4	5	0	2	8	2	0	0	0	0	0	1	0	0	1	1	5	8	0
OTU 75	2	4	3	5	1	1	0	1	1	0	1	2	4	0	0	1	0	2	1	17	6	0	17	4	21	3	10	9	0	0	0	5	2	3	1	3	1	2	0	4	3	2	0	0	0	22	1	2	30	0
OTU 76	0	0	1	1	0	0	0	0	0	0	0	0	0	0	0	0	0	0	0	0	0	0	0	0	0	0	0	0	0	0	0	1	7	0	0	0	0	2	0	0	0	0	1	0	0	0	0	0	0	0
OTU 77	0	0	0	30	9	0	0	0	0	0	4	2	1	2	1	4	0	0	6	0	4	2	5	0	0	0	0	59	3	0	1	1	0	3	0	0	0	0	0	2	2	1	0	3	0	2	0	3	0	0
OTU 78	1	4	0	2	0	0	2	6	0	31	6	1	4	0	0	3	3	1	11	0	1	0	3	0	0	0	0	1	0	0	10	0	1	1	0	0	0	1	0	3	0	0	1	0	1	0	0	1	0	0
OTU 79	10	3	1	1	4	1	4	11	7	3	3	0	9	26	3	2	9	20	10	0	3	6	13	2	12	3	9	6	23	4	4	0	4	0	3	2	2	14	0	31	34	56	5	0	8	0	7	7	2	2
OTU 80	1	3	85	1	0	0	0	0	3	3	0	4	2	0	2	0	0	0	5	18	13	0	6	5	3	2	16	0	0	150	2	3	0	1	1	1	0	1	1	0	0	1	2	0	3	3	0	4	49	0
OTU 81	2	165	2	2	0	2	5	0	5	4	1	2	0	1	0	2	1	12	1	0	5	1	0	0	3	1	12	5	0	0	4	4	0	5	0	145	0	4	2	0	2	0	3	1	11	3	5	0	2	3
OTU 82	4	0	1	2	0	0	5	0	1	1	0	1	0	2	0	0	0	0	3	0	0	0	0	0	0	0	0	0	1	0	0	0	0	0	5	0	0	2	0	2	0	2	0	0	0	0	1	0	0	2
OTU 83	0	0	0	0	3	0	0	0	3	3	0	0	0	0	4	1	0	0	0	0	0	0	0	0	0	0	6	0	0	0	0	1	6	0	0	0	0	0	0	0	0	0	1	0	0	1	0	0	0	0
OTU 84	0	1	0	1	2	12	4	3	0	4	6	0	0	0	7	0	0	1	0	0	4	1	0	1	0	1	0	1	0	1	0	6	0	24	0	0	13	0	4	0	0	0	0	10	0	1	2	0	0	2
OTU 85	1	0	0	1	0	0	0	0	0	0	0	0	1	0	0	0	0	0	4	0	3	0	0	0	0	0	1	0	0	0	0	0	0	1	0	0	0	0	0	1	1	0	0	0	0	0	2	1	0	0
OTU 86	0	1	0	0	0	0	0	0	0	0	0	0	0	0	0	1	0	0	0	0	0	0	0	0	0	0	0	0	0	0	0	0	0	0	0	1	0	0	0	0	0	0	0	0	0	0	0	0	0	0
OTU 87	0	0	0	0	3	0	7	11	0	0	1	0	0	0	0	0	0	0	0	0	2	1	0	0	0	0	0	0	0	1	1	0	0	0	28	0	0	1	0	12	0	0	0	1	0	1	0	1	0	8
OTU 88	0	0	1	0	0	0	0	0	1	0	0	0	0	0	0	1	0	0	0	0	0	0	0	0	0	0	0	0	1	0	0	0	0	2	0	0	0	4	0	0	2	0	0	0	0	0	0	0	0	0
OTU 89	0	0	0	0	0	0	0	0	0	0	0	0	0	0	0	0	0	2	0	0	0	0	0	0	0	0	3	0	0	0	2	1	0	0	0	0	1	0	0	0	0	0	0	0	3	0	2	0	0	0
OTU 90	0	0	0	0	0	0	0	0	0	0	0	0	0	0	0	1	0	0	0	0	0	2	0	0	2	1	0	0	0	0	0	0	0	0	0	0	0	0	0	0	0	0	0	0	0	0	0	0	0	0
OTU 91	0	0	0	0	0	0	0	0	0	10	0	0	0	0	0	0	1	0	0	0	0	39	0	0	0	0	0	0	0	0	1	0	0	0	0	0	0	15	0	0	0	0	0	0	0	0	0	0	0	0
OTU 92	2	0	0	1	0	0	0	0	0	0	0	0	0	0	0	0	4	0	2	0	0	2	0	0	7	1	0	1	0	0	0	0	0	0	0	0	0	0	0	0	0	0	0	0	0	0	0	0	0	0
OTU 93	2	0	0	0	3	0	0	0	1	0	0	0	0	0	0	0	0	0	0	0	0	0	0	0	0	2	0	0	0	0	0	0	1	0	0	1	0	0	0	0	0	0	0	0	0	0	0	0	0	2
OTU 94	1	0	0	0	4	1	0	0	11	0	0	6	7	1	0	1	1	0	0	0	10	4	4	0	3	6	11	1	0	1	5	2	0	1	1	0	0	0	0	0	1	5	6	0	0	1	0	1	0	1
OTU 95	0	0	0	0	0	0	0	0	0	56	0	0	0	0	0	1	0	0	0	0	5	0	0	0	3	1	0	0	0	0	37	0	0	3	0	0	0	1	1	0	0	0	0	120	1	0	0	0	0	0
OTU 96	0	0	2	0	0	0	0	0	0	2	0	0	0	0	0	0	0	0	1	0	0	0	0	0	0	0	0	0	0	0	0	0	8	0	0	0	0	2	0	0	0	0	0	0	0	0	0	0	0	0
OTU 97	0	0	1	0	0	4	0	0	0	0	0	1	0	0	0	0	0	0	3	0	0	0	0	0	0	0	0	0	0	7	0	0	0	0	0	3	0	0	0	0	1	0	0	0	0	0	1	0	3	0
OTU 98	2	0	1	0	0	0	0	0	3	0	1	0	0	0	0	0	0	1	0	0	0	0	0	5	1	0	0	1	0	1	0	1	9	0	0	0	0	0	0	0	6	0	0	0	2	2	0	0	0	0
OTU 99	4	0	1	2	1	1	1	0	7	1	0	1	2	0	0	1	2	13	0	0	0	2	3	1	2	6	7	4	1	1	1	0	12	0	1	1	0	1	1	1	3	6	2	0	1	0	2	1	2	3
OTU 100	0	3	1	0	0	1	10	0	0	1	0	1	1	0	0	4	0	3	0	0	1	0	1	0	3	0	1	1	0	0	2	0	0	6	2	0	2	3	0	0	1	1	1	1	0	0	0	2	0	24
OTU 101	1	0	0	0	0	0	0	0	0	0	0	0	0	0	0	0	1	0	0	0	0	0	0	0	0	0	0	0	0	0	0	0	0	0	5	0	2	1	0	2	0	0	0	0	0	0	0	0	0	0
OTU 102	0	0	0	0	3	0	0	0	0	0	0	0	0	0	0	0	47	0	1	0	0	0	0	0	0	1	0	2	2	0	0	0	0	0	0	0	0	0	0	0	3	1	0	0	0	0	0	0	0	0
OTU 103	1	2	0	0	0	0	0	0	0	3	1	0	0	0	0	1	0	165	0	0	1	0	0	0	0	0	0	1	0	1	2	0	2	0	0	0	0	0	0	0	0	0	0	0	0	0	5	0	1	3
OTU 104	90	1	0	1	14	10	0	0	4	0	1	0	6	2	10	0	1	0	1	1	1	2	2	0	0	10	3	2	0	7	0	0	24	3	34	2	6	2	1	0	1	18	24	2	9	0	0	3	1	6
OTU 105	1	0	0	0	1	0	0	0	0	0	0	0	1	1	0	0	1	0	0	0	0	4	2	4	1	13	2	1	0	0	0	6	0	0	0	0	0	0	0	0	0	0	0	0	0	7	0	0	0	0
OTU 106	0	0	0	4	0	0	0	1	1	0	0	0	0	0	0	1	0	0	0	0	0	0	2	0	0	0	0	5	0	0	0	0	0	0	0	0	0	0	0	0	0	0	0	0	7	0	0	1	0	0
OTU 107	0	0	0	0	0	0	0	0	0	0	0	0	0	0	0	0	0	0	0	0	0	0	0	1	0	0	1	0	0	0	0	1	15	0	0	0	0	1	0	1	0	0	0	1	0	0	0	19	0	0
OTU 108	0	0	0	1	2	0	5	0	0	0	2	0	0	0	0	0	4	2	0	0	4	3	7	1	0	0	0	0	0	0	0	0	0	1	0	0	1	0	0	1	0	0	0	2	2	0	0	0	0	0
OTU 109	0	0	0	0	1	0	0	0	0	0	0	0	0	0	0	0	0	0	0	0	0	0	0	0	0	0	0	0	0	0	0	0	0	0	0	1	0	0	0	0	0	2	2	0	0	0	0	0	0	0
OTU 110	1	0	3	1	1	0	7	0	8	1	0	0	12	0	0	0	1	0	2	0	0	0	0	2	1	0	10	4	1	0	0	4	3	0	4	0	0	0	0	6	1	0	3	0	2	3	3	1	2	8
OTU 111	1	0	1	0	0	0	0	0	0	0	0	0	7	0	1	0	0	0	0	0	0	9	0	0	0	0	0	0	0	0	0	0	0	0	0	0	0	0	0	0	0	0	0	0	0	0	0	0	0	0
OTU 112	3	0	0	0	0	0	0	0	0	1	0	0	1	2	0	0	0	0	0	0	2	0	0	69	0	1	0	5	0	0	0	147	5	0	2	0	0	0	0	0	0	0	1	0	0	78	0	0	1	1
OTU 113	0	0	0	0	0	0	0	0	0	0	0	0	0	0	0	0	0	0	0	0	0	1	0	0	1	0	0	0	0	0	0	0	0	0	0	0	0	3	0	0	1	0	0	0	0	0	0	0	0	0
OTU 114	4	3	0	1	4	2	0	0	2	10	3	1	1	4	2	4	4	2	0	0	10	6	3	0	0	0	3	7	3	3	11	4	9	0	1	5	0	3	1	3	8	4	3	1	1	6	0	0	0	2
OTU 115	1	0	3	0	4	0	4	0	0	11	2	0	0	1	1	10	6	3	0	0	4	2	9	5	5	7	7	3	3	0	6	9	0	3	1	1	7	1	0	5	4	0	0	1	10	0	2	7	2	4
OTU 116	0	0	3	1	8	1	0	2	0	0	0	1	0	1	0	0	3	1	0	0	0	1	1	0	1	0	0	1	1	4	0	4	9	4	6	4	2	13	0	4	1	1	2	2	4	2	1	0	2	0
OTU 117	0	0	0	1	1	2	0	1	1	2	0	0	4	0	0	2	0	0	1	0	0	0	0	0	0	0	1	0	0	0	0	3	0	3	1	1	0	1	0	0	0	1	1	1	1	1	1	2	0	2
OTU 118	0	0	1	0	2	0	0	0	0	0	0	0	0	0	1	0	0	0	0	0	0	0	0	0	0	6	0	0	0	0	0	0	0	0	0	3	0	1	0	0	0	0	0	0	0	0	0	0	0	0
OTU 119	0	0	0	3	4	0	0	1	0	3	0	0	3	0	0	0	7	0	1	0	0	1	0	1	2	1	0	2	0	0	0	2	2	0	2	0	1	4	0	0	1	0	1	0	3	1	0	0	0	0
OTU 120	0	0	1	0	0	2	0	0	0	0	8	3	2	0	7	0	0	0	3	0	1	0	0	0	0	0	0	0	1	3	0	0	0	17	0	2	1	0	2	0	0	93	0	5	0	0	2	0	0	0
OTU 121	0	0	5	0	2	0	0	0	1	3	0	0	0	0	0	0	2	1	2	1	0	2	0	1	0	5	0	0	2	2	1	0	1	1	1	1	0	1	0	3	0	0	1	0	1	0	2	0	0	0
OTU 122	2	0	1	0	1	0	0	1	0	0	0	0	0	3	0	0	0	0	0	1	0	0	8	0	6	0	3	0	2	0	3	0	11	1	1	0	1	0	0	0	3	2	0	2	0	0	0	0	0	1
OTU 123	15	9	2	1	6	1	5	5	5	12	11	2	3	2	8	8	7	4	1	0	19	7	10	3	4	4	10	1	0	3	8	0	6	14	5	1	9	11	3	2	3	7	3	9	10	1	11	11	2	11
OTU 124	0	0	0	1	0	0	0	0	0	3	1	0	0	0	0	0	0	0	0	0	2	0	0	0	0	0	0	0	0	0	0	1	0	0	2	0	0	0	0	0	0	0	0	0	0	0	3	0	0	0
OTU 125	3	1	3	5	4	2	0	1	2	33	0	3	31	7	2	3	11	5	2	0	2	4	3	2	11	2	16	16	1	1	7	1	2	0	4	4	0	10	0	5	1	4	9	2	12	0	7	1	2	1
OTU 126	0	0	0	0	9	0	1	0	0	0	0	0	0	0	0	0	0	0	0	0	0	5	3	0	0	1	0	0	0	0	0	0	0	0	0	0	0	3	0	0	0	0	0	0	0	0	0	0	0	0
OTU 127	1	0	0	0	0	0	1	1	0	0	1	7	4	0	1	0	2	0	59	0	1	2	1	0	0	0	0	2	0	0	0	0	0	2	0	0	0	5	1	0	1	1	5	0	1	12	0	0	0	0
OTU 128	9	3	13	9	5	1	36	30	48	9	1	5	2	8	4	11	5	9	6	2	8	3	1	6	9	9	22	19	10	17	26	12	5	1	1	2	1	7	2	39	15	42	111	0	23	2	6	3	6	41
OTU 129	0	1	0	0	0	0	0	0	0	0	0	0	0	1	0	0	0	0	0	0	0	2	2	2	0	0	0	0	0	1	0	3	0	0	0	0	0	0	0	0	0	0	0	0	0	2	0	0	0	0
OTU 130	0	2	0	0	0	0	1	0	1	0	0	1	6	1	0	1	2	1	0	1	0	2	0	0	0	6	2	0	2	0	0	0	1	0	4	1	0	2	0	1	15	1	3	0	5	0	0	1	0	0
OTU 131	0	0	3	0	0	10	0	0	0	1	3	0	4	1	10	0	0	2	0	0	1	2	5	0	0	13	0	1	3	1	4	6	5	10	1	0	7	1	0	0	4	0	0	4	0	5	0	27	1	2
OTU 132	2	0	0	0	1	143	1	0	1	5	1	0	2	0	0	0	0	0	0	0	0	1	0	1	0	2	0	0	0	0	0	1	2	0	0	0	0	0	0	0	0	1	2	0	1	0	1	0	1	0
OTU 133	0	0	1	0	0	0	1	0	0	0	0	1	0	0	0	0	1	2	0	0	0	8	0	0	1	0	0	0	0	0	0	0	1	0	0	0	0	0	0	0	0	0	0	0	0	0	0	0	1	0
OTU 134	6	0	0	0	1	5	0	0	1	3	0	0	0	0	2	0	0	0	0	0	0	2	3	1	0	0	2	1	0	0	96	2	0	1	0	5	0	1	3	2	0	0	0	0	5	3	1	2	0	2
OTU 135	2	0	0	0	0	0	0	0	5	0	0	0	0	1	0	34	28	2	44	0	0	1	0	2	1	2	3	1	5	7	1	3	8	4	0	0	2	0	0	0	6	1	4	1	0	1	4	2	0	0
OTU 136	1	0	0	0	0	0	0	0	0	0	1	1	0	0	3	1	0	0	0	0	0	0	0	0	0	0	0	1	1	0	0	0	0	1	2	0	0	1	3	0	0	0	0	1	0	0	0	2	0	0
OTU 137	2	0	0	0	0	0	0	0	0	0	0	0	0	0	0	0	0	0	3	0	0	39	1	1	2	0	1	0	0	0	0	0	1	0	0	0	0	0	0	1	0	0	0	0	0	0	2	1	1	1
OTU 138	1	0	0	0	0	0	2	0	3	11	0	0	0	2	0	0	0	0	0	0	0	0	0	0	1	4	0	0	0	2	0	0	0	0	0	1	0	0	0	1	0	0	1	0	0	0	11	7	0	0
OTU 139	3	2	0	2	4	4	4	6	2	6	1	1	4	0	4	5	0	2	1	0	4	0	3	17	25	28	1	4	0	0	4	1	3	0	4	0	0	2	2	2	2	10	9	2	3	1	3	2	1	2
OTU 140	0	2	4	4	0	2	1	0	6	6	1	7	2	2	2	0	7	2	1	4	6	8	2	15	0	11	21	3	32	8	34	15	2	0	4	1	4	4	1	1	11	4	1	1	11	5	12	13	6	2
OTU 141	0	0	0	0	0	0	0	0	0	1	0	0	0	0	0	0	0	0	0	0	0	0	0	0	0	0	0	0	0	0	0	0	0	0	0	0	0	0	0	1	0	0	0	0	0	0	0	0	0	0
OTU 142	0	0	1	0	0	0	0	0	0	0	0	0	0	2	0	0	0	0	0	0	0	0	0	0	0	0	0	0	0	0	0	0	0	0	0	0	0	0	0	1	0	3	4	0	0	0	0	0	0	0
OTU 143	0	0	0	0	0	2	0	0	0	0	0	0	0	0	0	1	2	0	0	0	0	0	0	0	0	0	0	1	0	0	0	0	0	1	1	0	0	0	0	0	0	0	3	0	0	0	0	0	0	0
OTU 144	0	0	0	0	6	1	0	0	0	0	0	0	1	0	1	0	0	0	0	0	0	0	0	0	0	0	0	0	0	0	0	0	0	0	0	1	0	0	0	0	0	0	2	0	0	0	1	0	0	3
OTU 145	0	0	0	1	2	1	0	2	2	1	0	0	1	0	2	5	0	0	7	0	0	3	1	2	1	6	8	0	1	2	1	0	4	2	4	23	0	0	1	1	1	0	0	3	3	0	1	5	0	0
OTU 146	0	1	0	0	1	0	3	0	0	0	0	0	7	1	0	1	4	3	0	0	3	1	7	2	5	6	4	1	0	2	0	6	2	0	0	0	0	2	0	0	1	0	0	0	0	2	0	0	0	1
OTU 147	0	0	1	0	0	0	0	0	0	0	1	6	1	0	0	0	1	0	5	0	11	0	0	1	2	0	1	0	0	0	4	2	0	0	2	0	0	1	0	0	0	0	1	0	1	2	0	1	0	0
OTU 148	0	2	0	3	1	1	0	1	0	0	2	11	9	4	1	2	1	0	1	0	5	3	0	4	5	0	5	0	0	1	1	0	4	0	1	2	0	7	0	1	1	5	6	0	0	0	1	5	2	4
OTU 149	1	0	0	0	0	0	2	0	1	4	0	0	22	1	0	0	0	0	0	0	2	0	0	0	2	0	0	0	1	0	0	0	1	0	2	0	0	0	0	0	0	0	0	0	0	0	0	0	0	0
OTU 150	0	0	0	0	1	0	1	0	0	0	0	0	0	0	0	0	1	0	0	0	0	0	1	0	0	9	0	2	0	0	0	0	0	3	0	2	0	0	0	0	1	0	0	1	5	0	0	2	0	0
OTU 151	1	0	1	0	33	0	1	1	60	0	0	0	1	0	0	1	0	0	2	0	0	0	1	1	6	0	1	1	0	0	0	0	0	0	0	2	0	0	0	1	1	2	2	2	0	2	0	0	0	0
OTU 152	0	1	0	0	0	0	1	0	3	6	0	1	1	137	0	2	0	0	1	1	5	0	3	0	11	12	5	2	0	1	3	0	0	0	3	1	0	12	0	2	3	0	0	1	3	0	1	1	0	0
OTU 153	0	0	0	0	0	0	0	0	0	0	0	6	0	0	0	0	0	0	0	0	0	0	0	0	0	0	0	0	0	0	0	0	0	0	0	0	0	0	0	0	0	1	0	0	0	0	0	0	0	0
OTU 154	0	0	0	1	0	0	0	0	0	0	0	0	0	0	1	0	0	0	0	1	0	0	0	0	0	0	0	0	0	0	0	0	0	0	0	0	0	0	0	0	0	0	0	0	0	0	0	0	1	0
OTU 155	0	0	0	0	0	0	0	0	0	1	0	0	1	0	0	0	52	0	1	0	0	0	0	0	1	0	0	1	1	0	0	0	0	0	0	0	0	1	0	0	1	0	0	0	0	0	1	0	1	1
OTU 156	1	0	1	1	0	0	0	1	2	8	1	3	5	0	1	0	5	2	2	2	1	3	0	3	2	4	1	3	5	1	5	1	0	0	2	4	0	4	0	0	2	1	1	0	7	1	1	0	1	0
OTU 157	0	0	2	0	0	0	2	0	0	0	0	0	0	0	0	0	0	0	3	0	0	0	2	0	0	8	0	0	0	0	1	1	3	0	0	0	0	1	0	0	0	1	0	0	1	0	0	0	1	0
OTU 158	0	1	0	0	0	0	0	0	0	0	0	0	0	0	0	0	1	0	0	0	0	0	0	0	0	0	0	1	0	0	0	0	0	0	0	0	0	0	0	0	0	1	0	0	0	0	0	1	0	0
OTU 159	0	2	1	0	0	1	0	0	0	0	0	0	2	0	2	0	2	0	1	0	0	0	0	0	2	11	0	1	0	0	0	0	1	4	0	0	3	6	0	1	0	2	3	3	2	1	0	53	0	0
OTU 160	5	5	0	0	4	2	2	2	8	3	1	4	13	0	1	10	10	2	13	0	3	2	4	5	8	4	8	0	1	5	0	5	1	3	0	3	1	2	0	0	1	0	0	4	0	1	3	5	2	1
OTU 161	2	0	5	0	3	0	1	0	1	0	0	0	0	1	2	1	0	1	0	13	0	4	2	0	0	0	2	0	0	4	3	0	9	0	0	0	0	0	0	0	0	0	0	0	0	0	0	13	2	8
OTU 162	1	0	0	1	1	0	2	0	6	0	1	0	1	0	0	0	0	0	4	1	1	1	5	0	4	8	8	3	0	1	0	5	0	1	1	1	95	0	1	2	2	0	0	0	0	0	0	3	0	0
OTU 163	0	0	0	0	87	0	0	1	0	0	0	0	3	0	0	0	0	0	0	0	0	0	0	0	0	0	0	0	0	0	0	0	0	0	0	0	0	0	0	0	0	0	0	0	0	0	0	0	0	0
OTU 164	0	0	0	0	0	0	0	0	0	0	0	0	0	0	0	7	0	0	0	0	0	0	0	0	3	0	0	0	2	0	0	0	0	0	0	0	0	0	0	0	0	0	0	1	0	0	0	0	0	0
OTU 165	0	0	0	0	0	0	0	1	2	9	0	1	0	0	1	0	7	1	0	0	0	0	1	0	0	0	1	0	0	0	2	0	2	0	1	0	0	1	1	2	0	0	0	0	0	0	0	1	0	0
OTU 166	12	0	0	0	0	0	0	0	0	0	0	0	0	0	0	0	0	0	0	0	1	0	0	0	0	0	0	0	0	0	0	0	0	0	0	0	0	0	0	0	0	0	0	0	0	0	0	0	0	0
OTU 167	1	0	0	0	0	0	0	0	1	0	0	0	1	1	0	3	0	0	0	0	1	0	0	1	0	0	1	0	0	0	1	0	0	1	0	0	0	1	0	0	1	0	1	0	0	0	1	1	0	0
OTU 168	2	0	0	0	1	0	0	0	1	0	0	0	0	1	0	2	0	0	0	0	0	0	0	1	0	1	0	0	0	0	2	0	0	2	1	1	0	0	0	1	0	0	1	0	9	0	0	1	0	0
OTU 169	0	0	0	0	0	0	0	0	0	0	1	3	0	0	0	0	0	0	0	0	0	0	0	0	0	0	0	0	0	0	0	0	0	0	2	0	0	0	0	0	0	0	0	0	0	0	2	0	0	0
OTU 170	0	0	0	0	2	0	0	0	0	0	0	0	0	0	0	0	0	0	0	0	0	0	0	0	0	0	0	0	0	1	0	0	2	0	0	0	0	0	0	0	0	0	1	0	0	0	0	0	0	0
OTU 171	2	0	0	0	0	1	1	0	0	5	0	0	0	0	0	5	1	0	12	0	0	0	1	1	0	0	0	0	0	2	0	1	0	1	1	4	0	4	0	0	0	0	0	0	0	0	1	0	1	0
OTU 172	0	0	0	0	0	3	0	0	8	0	4	0	0	0	0	0	0	1	0	0	0	0	4	0	0	0	9	0	0	0	0	0	0	2	0	0	3	0	1	0	0	0	0	3	0	0	0	0	0	0
OTU 173	1	0	0	0	0	0	0	1	0	0	0	0	0	0	0	0	0	0	0	0	0	0	0	0	0	0	0	0	0	0	0	0	1	0	0	0	0	0	1	0	0	0	0	0	0	0	0	2	0	0
OTU 174	0	2	0	0	1	1	1	1	0	0	0	1	0	0	0	0	0	0	1	0	4	0	2	0	9	1	0	1	0	0	0	0	1	0	0	9	0	0	0	2	0	0	0	0	4	0	0	10	0	0
OTU 175	3	0	0	0	0	0	0	0	0	0	0	0	9	0	0	0	0	2	1	1	0	1	0	0	0	0	0	0	0	0	0	1	8	1	2	0	0	0	0	0	0	0	0	1	0	0	0	0	0	0
OTU 176	0	1	0	0	1	0	0	3	2	4	1	0	1	2	4	7	8	1	1	0	11	1	1	0	6	0	9	7	0	1	0	2	3	2	1	0	1	2	0	4	3	0	2	4	0	0	1	4	0	2
OTU 177	5	0	0	0	2	3	0	0	3	0	0	6	2	2	2	2	1	0	2	15	1	1	0	0	4	0	5	0	0	0	0	0	0	0	0	1	2	2	1	0	0	1	2	0	2	0	1	3	18	4
OTU 178	0	0	0	0	0	0	0	17	0	0	0	0	1	0	0	3	2	2	0	0	0	2	0	0	2	0	0	0	0	1	0	0	0	0	1	2	0	2	0	16	0	0	2	0	2	0	1	0	1	0
OTU 179	0	0	1	0	0	0	0	0	0	0	0	0	0	0	0	7	0	0	0	0	1	3	2	0	0	0	0	1	0	0	0	1	1	0	0	0	0	1	0	0	0	0	0	0	0	0	0	1	0	0
OTU 180	6	3	4	4	16	0	5	5	4	7	1	3	1	1	5	9	2	7	4	0	1	5	1	0	2	2	2	8	144	8	4	1	2	10	4	2	2	0	1	4	1	0	2	2	2	2	13	13	1	2
OTU 181	0	4	0	0	2	1	69	0	1	3	0	8	1	1	0	0	0	1	0	0	8	0	1	0	1	0	0	0	0	3	4	1	0	1	3	0	0	0	0	1	5	0	0	1	2	0	0	1	0	1
OTU 182	0	0	0	0	0	0	0	0	0	0	0	0	0	0	0	0	0	0	0	0	2	0	0	0	0	0	0	0	0	0	0	0	0	0	0	0	0	0	0	0	0	1	0	0	0	0	1	0	0	0
OTU 183	0	1	0	1	3	1	0	0	0	10	0	4	0	0	1	0	1	0	2	0	11	12	2	1	5	0	6	0	0	0	8	2	6	0	0	1	0	4	0	0	0	0	0	0	0	5	2	4	0	0
OTU 184	0	0	0	0	2	0	0	0	0	0	0	0	0	0	1	0	1	0	0	0	0	0	0	0	0	0	1	0	0	0	0	0	0	0	0	0	0	0	0	0	0	2	1	0	1	0	0	0	0	2
OTU 185	0	2	1	2	0	0	0	2	16	1	0	2	1	33	1	1	2	26	22	0	1	0	0	0	13	5	0	0	24	2	2	0	0	1	0	0	0	1	0	0	65	0	2	0	4	0	0	2	0	2
OTU 186	0	0	0	2	0	0	0	0	0	0	0	4	0	0	0	81	0	0	0	0	2	0	1	0	0	0	0	8	0	0	0	0	0	0	0	1	1	0	0	0	0	0	1	0	0	0	0	1	1	0
OTU 187	3	2	7	3	3	2	2	0	0	4	0	1	0	0	0	4	0	0	0	3	0	7	0	0	2	1	0	3	0	5	1	0	2	0	5	0	3	3	0	5	0	0	1	1	5	0	8	0	3	3
OTU 188	1	1	0	2	3	0	0	1	7	0	0	3	2	2	1	6	1	0	2	0	3	3	1	0	0	1	1	1	2	2	1	2	2	0	2	2	0	1	0	6	2	2	2	0	2	3	2	1	0	145
OTU 189	1	0	0	1	1	3	9	0	0	3	0	0	0	1	0	8	2	1	1	2	2	39	0	1	0	0	0	0	0	2	2	3	3	0	0	2	0	0	1	1	0	1	0	0	0	0	1	7	10	0
OTU 190	0	0	1	0	0	0	0	0	0	0	0	0	17	0	0	0	0	0	7	0	0	0	0	0	0	0	0	0	0	5	0	0	0	0	0	9	0	0	0	0	0	1	1	1	0	0	0	1	0	0
OTU 191	3	5	0	2	0	1	3	1	0	3	48	2	4	0	1	1	0	2	0	0	5	1	0	2	0	0	2	6	0	0	4	6	1	1	0	5	0	1	18	1	0	1	3	2	6	2	24	2	0	0
OTU 192	0	3	1	1	1	0	6	1	0	2	0	19	2	0	5	30	0	1	23	0	6	1	8	1	2	4	2	0	1	5	1	5	0	4	0	0	1	2	6	0	2	1	7	0	1	0	0	0	7	1
OTU 193	1	0	0	6	0	0	0	0	3	2	0	0	0	1	0	1	5	2	0	0	0	0	0	1	8	0	0	7	0	0	0	1	0	1	0	2	0	0	0	0	0	0	0	1	0	1	0	0	0	1
OTU 194	0	0	0	0	0	0	0	0	0	0	0	0	0	0	0	0	0	0	0	0	1	0	0	1	0	0	3	0	0	0	0	0	1	0	1	1	0	0	0	2	0	0	0	0	0	1	0	0	1	0
OTU 195	1	0	0	0	1	0	0	0	0	0	0	3	2	1	0	0	1	1	3	0	0	3	0	1	1	1	5	3	0	1	0	2	5	1	0	0	2	3	0	0	0	0	0	2	6	0	9	2	0	0
OTU 196	0	0	0	2	0	0	0	0	2	1	0	1	5	0	0	0	2	1	1	0	0	3	17	2	3	0	1	1	0	0	0	1	0	1	0	3	0	1	0	0	1	0	3	1	3	2	0	17	0	4
OTU 197	30	0	7	118	2	1	7	0	1	6	1	3	2	4	4	0	2	1	1	1	7	2	5	1	13	4	2	4	3	4	4	13	5	2	16	2	1	1	0	0	1	0	0	0	6	5	8	1	4	0
OTU 198	1	0	0	0	1	0	0	0	2	0	0	0	0	0	0	0	0	0	0	0	0	0	1	0	6	0	0	0	0	0	0	0	0	0	0	0	0	0	1	0	0	0	3	0	0	0	0	0	0	0
OTU 199	0	0	1	9	1	0	0	0	0	3	0	0	0	0	0	2	0	0	0	0	1	0	1	1	4	0	0	7	0	0	0	0	1	0	0	3	1	0	0	0	0	1	0	0	0	0	2	0	0	0
OTU 200	2	2	0	0	1	0	0	0	0	0	0	0	0	2	0	0	0	0	2	0	3	3	0	1	3	0	0	1	0	0	1	4	1	0	1	0	1	1	0	0	0	0	1	0	1	0	0	1	0	1
