	Host 1	Host 2	Host 3	Host 4	Host 5	Host 6	Host 7	Host 8	Host 9	Host 10	Host 11	Host 12	Host 13	Host 14	Host 15	Host 16	Host 17	Host 18	Host 19	Host 20	Host 21	Host 22	Host 23	Host 24	Host 25	Host 26	Host 27	Host 28	Host 29	Host 30	Host 31	Host 32	Host 33	Host 34	Host 35	Host 36	Host 37	Host 38	Host 39	Host 40	Host 41	Host 42	Host 43	Host 44	Host 45	Host 46	Host 47	Host 48	Host 49	Host 50	
OTU 1	3	37	6	38	19	469	4	28	373	5	34	53	4	20	320	60	14	123	830	14	43	0	35	590	15	0	108	255	6	24	475	34	4	0	1	406	73	734	225	21	66	16	2	15	121	18	15	12	1421	1
OTU 2	2	36	0	0	3	7	0	7	0	1	0	1	3	20	0	0	154	0	1	4	393	4	0	0	0	0	3	1	0	3	2	0	56	2	1	2	26	2	42	9	4	1	16	18	1	0	3	3	0	24
OTU 3	0	1	0	0	0	0	0	0	12	59	9	1	0	0	0	1	10	0	1	9	2	0	0	0	0	77	11	2	0	99	0	3	9	3	25	0	6	0	11	1	0	81	55	2	0	14	0	0	1	3
OTU 4	0	0	0	0	0	1	0	0	0	0	0	0	0	0	0	0	0	0	0	0	0	0	0	0	0	0	0	0	0	0	0	0	0	0	0	0	0	0	0	0	0	0	0	0	0	0	0	0	0	0
OTU 5	2	278	61	91	1	225	1052	1172	96	429	244	199	558	477	162	140	56	220	1797	1	341	0	895	50	429	166	0	414	282	96	771	108	1	0	0	1184	1106	102	39	908	88	11	607	129	203	338	372	102	145	63
OTU 6	16	29	0	473	0	2585	12	13	0	72	8	43	13	10	2	5	187	14	2	14	22	7	19	7	50	0	39	0	0	49	12	25	3	44	14	1	23	1	0	1	1	178	0	123	1	12	32	0	11	0
OTU 7	47	29	38	56	129	17	59	39	8	84	967	16	30	205	5	13	186	30	34	258	10	72	14	10	41	60	77	14	476	135	21	15	25	95	213	613	35	9	19	63	529	47	16	13	11	905	1895	57	33	215
OTU 8	29	111	95	3	175	16	385	125	11	52	180	22	119	135	12	11	111	20	4	49	12	140	43	27	213	70	1	8	121	36	3	11	19	3	1	1	76	18	30	14	155	21	87	70	5	254	937	17	8	83
OTU 9	91	0	60	0	94	1	5	26	3609	3	9	21	19	19	22	20	23	21	10	7	28	3	0	35	0	0	0	1	0	18	36	34	25	1	10	0	4	7	0	2	0	2	9	19	1927	0	6	84	13	25
OTU 10	39	12	2	0	1	1	0	20	1	3	59	20	1	18	0	1	4	0	0	0	96	0	0	2	6	4	0	1	1	4	0	17	3	43	24	0	8	1	0	39	0	16	41	1	8	0	1	2	0	25
OTU 11	184	31	15	12	12	2	5	8	15	68	43	33	41	6	5	36	42	56	2	43	10	40	3	8	14	51	1	1	103	33	11	66	29	14	32	0	139	6	22	2	2	3	94	124	12	255	14	13	27	42
OTU 12	18	10	4	355	161	3	112	38	143	30	12	109	4	0	15	10	112	13	108	29	89	115	9	26	266	62	111	0	8	1	16	31	152	94	79	5	7	21	3	24	5	134	66	50	94	19	47	29	49	97
OTU 13	1	0	0	0	0	0	0	1	0	0	0	0	0	50	0	0	0	1	1	0	0	0	9	0	0	0	0	0	0	0	0	1	0	0	18	0	0	0	0	0	0	0	0	3	4	0	0	0	0	0
OTU 14	0	8	27	39	10	5	36	4	0	0	46	0	1	44	3	0	31	0	1	0	25	9	0	6	34	257	13	6	0	25	0	3	146	30	4	0	0	2	22	15	18	2	3	6	0	0	148	0	11	11
OTU 15	0	0	0	0	0	0	0	0	0	0	0	0	0	1	0	0	0	0	0	0	0	0	17	0	1	0	0	0	0	0	0	0	9	0	0	0	0	0	0	0	0	0	1	0	0	0	19	0	0	0
OTU 16	0	0	0	0	0	0	0	0	8	3	0	0	0	0	0	6	0	3	0	0	0	0	0	0	0	0	0	0	0	0	0	0	0	6	0	0	0	7	0	0	0	0	10	0	0	1	0	2	0	2
OTU 17	37	27	0	28	23	1	10	20	62	17	10	63	0	11	3	25	65	27	9	238	9	7	35	7	26	26	130	19	0	9	0	59	32	72	454	0	0	2	34	0	0	6	0	0	68	3	0	1	28	56
OTU 18	133	101	126	2	167	0	3	42	10	2	28	71	16	0	2	7	59	34	0	24	679	59	31	10	19	169	12	4	14	1	4	46	94	99	88	8	28	11	26	50	41	33	55	25	2	21	3	2	12	215
OTU 19	0	0	0	0	0	0	0	0	0	0	0	0	0	0	0	0	0	0	0	0	0	0	0	0	0	0	0	0	0	0	0	0	0	0	0	0	0	0	0	0	0	33	0	0	0	0	0	0	0	0
OTU 20	0	44	19	15	79	12	111	26	5	0	208	26	16	1	3	11	156	3	1	42	5	100	18	4	29	10	20	5	138	57	0	2	153	165	23	2	126	1	16	11	167	50	87	11	1	319	152	64	4	284
OTU 21	3	0	431	26	31	706	1	3	263	188	334	47	52	239	193	5	18	1	598	52	208	106	14	389	0	1326	5	248	42	50	188	61	7	279	6	226	71	527	0	0	57	119	3	4	108	57	65	3551	1121	21
OTU 22	14	26	36	42	127	43	17	13	0	3	118	22	73	32	46	12	169	3	73	151	11	1	9	94	10	37	54	2	50	19	47	10	118	13	564	21	159	73	6	40	12	244	2	184	2	99	297	32	104	18
OTU 23	145	0	0	3	91	6	6	8	1	0	0	0	10	36	21	22	5	24	0	7	62	0	11	39	18	47	0	0	20	31	19	53	21	3	11	0	11	0	1	3	4	40	9	4	0	54	2	48	0	0
OTU 24	105	14	59	4	5	2	22	173	2	0	312	0	11	31	4	3	33	0	0	2	18	1	7	6	16	53	0	0	0	87	0	36	76	15	1	1	8	0	0	26	14	2	14	0	0	1	8	0	0	10
OTU 25	0	0	0	93	0	0	0	73	0	0	0	0	3	0	0	0	0	0	1	0	1	0	0	0	0	0	0	2	0	0	0	0	0	0	2	0	0	0	4	0	15	0	50	0	1	0	0	0	0	0
OTU 26	0	0	35	0	3	0	101	14	31	1	0	0	24	0	2	0	0	1	1	25	0	0	0	10	2	14	0	4	2	0	1	0	9	0	0	1	21	0	0	0	0	0	17	3	20	4	0	2	0	0
OTU 27	163	0	0	0	0	18	0	0	15	0	0	0	0	0	0	0	0	0	0	6	0	15	0	0	0	0	0	0	0	0	0	72	0	0	0	0	0	1	0	0	0	0	0	0	0	0	1	0	0	0
OTU 28	31	8	208	90	59	17	34	118	1	149	184	5	9	2	0	9	56	37	5	86	35	32	1	1	4	30	25	5	72	3	15	31	18	31	74	23	12	26	64	14	178	34	61	22	1	166	491	23	42	15
OTU 29	0	34	84	4	12	678	59	36	533	53	21	4	1	52	422	5	71	9	739	64	36	321	8	862	48	15	1	240	10	1071	317	52	8	38	85	345	20	684	63	85	2	14	37	0	236	7	15	1	1383	62
OTU 30	0	0	0	0	0	0	40	0	1	0	0	38	0	0	0	0	0	0	0	0	0	0	0	0	0	0	16	0	0	0	0	0	0	0	0	0	0	2	0	0	0	0	0	0	0	0	0	0	0	0
OTU 31	0	0	47	57	2	18	35	52	0	8	0	26	0	48	0	0	2	0	6	17	0	6	20	0	0	51	0	13	14	83	1	0	6	0	1	0	0	0	0	0	1	82	14	52	401	30	0	0	0	100
OTU 32	3	7	36	24	170	10	53	34	13	11	43	41	5	18	10	5	118	3	6	0	49	60	138	13	1	6	81	67	23	46	2	5	5	20	0	1	13	10	0	30	28	149	3	95	16	59	83	10	53	89
OTU 33	1	0	0	0	0	0	0	3	0	0	11	0	0	0	0	0	72	0	0	28	0	0	0	0	0	1	0	0	0	1	0	1	0	0	0	0	0	0	0	0	1	0	13	0	0	0	0	0	0	1
OTU 34	8	61	22	64	4	89	8	94	11	9	44	1	231	140	780	1	105	10	28	2	43	119	0	67	101	3	26	8	42	16	21	6	185	20	16	9	856	30	9	144	10	4	0	6	14	66	10	3	93	411
OTU 35	53	0	0	20	59	8	265	11	29	12	3	265	49	35	4	0	61	0	3	0	0	255	45	5	603	18	122	0	20	26	25	112	2	79	13	15	54	5	100	0	24	24	16	7	0	73	18	18	15	252
OTU 36	29	6	0	49	29	19	33	10	13	15	1	6	0	0	6	24	20	49	14	76	49	12	114	9	0	69	0	0	49	14	0	34	123	2	1	2	33	34	115	5	0	65	85	549	2	68	19	0	16	2
OTU 37	10	26	0	0	7	0	0	0	0	4	0	0	0	239	0	1	0	1	0	0	0	0	0	0	31	292	0	20	0	25	1	0	12	0	30	6	0	0	12	0	2	87	22	1	1	0	14	22	0	52
OTU 38	48	186	103	96	0	1	39	9	6	8	25	2	9	24	7	2	24	1	2	71	40	49	38	14	3	9	20	10	3	9	1522	32	12	13	14	814	25	7	9	351	0	15	13	0	8	3	23	146	20	7
OTU 39	8	0	8	170	35	3	7	13	0	5	28	0	3	1	3	0	0	0	0	125	3	2	0	6	0	47	1	0	0	0	0	0	0	39	0	0	18	0	0	0	0	0	28	0	0	1	0	0	0	0
OTU 40	98	14	10	4	84	11	37	51	0	0	0	32	41	16	3	2	104	1	18	27	141	13	13	9	10	159	22	3	0	8	5	6	34	83	0	3	30	7	16	22	129	62	19	10	3	1	102	17	24	26
OTU 41	3	27	6	72	6	1	32	106	13	8	16	20	8	69	0	5	1	1	0	57	33	13	17	0	25	19	22	1	2	0	0	4	118	6	188	0	50	1	32	29	8	7	58	67	4	5	3	0	0	337
OTU 42	51	0	0	90	61	0	0	5	13	0	0	0	31	0	11	0	44	1	17	0	0	3	4	22	0	0	0	2	6	3	0	2	3	2	0	1	10	4	1	51	0	1	0	0	8	23	0	48	23	0
OTU 43	0	0	0	0	0	0	2	0	0	0	8	0	0	0	0	0	0	0	2	0	0	0	0	0	0	0	0	0	8	0	3	0	0	1	0	0	8	0	0	3	0	0	0	4	0	8	0	2	0	0
OTU 44	0	0	0	0	0	0	0	6	0	57	33	0	0	0	2	7	0	9	2	8	1	35	4	1	152	56	0	0	0	0	0	10	1	8	23	6	1	0	27	29	0	0	0	0	0	1	1	0	0	9
OTU 45	72	12	1	9	127	6	12	0	23	7	10	6	5	89	10	8	37	0	19	101	15	33	7	14	4	101	3	6	9	3	12	8	19	67	95	20	46	0	0	21	21	45	48	23	3	18	8	26	5	64
OTU 46	24	10	12	102	148	8	112	42	5	0	31	28	8	95	2	24	13	32	21	28	11	12	61	8	84	27	61	13	1132	69	8	1	10	10	46	14	25	11	25	53	42	37	77	107	3	2235	10	16	3	1
OTU 47	4	0	1	0	0	0	0	0	3	8	12	13	0	0	0	0	88	0	0	0	0	0	3	0	0	0	12	0	0	0	0	21	0	0	3	1	4	0	0	0	0	0	0	0	0	0	0	11	0	0
OTU 48	0	14	103	2	30	37	30	39	0	190	26	18	11	21	5	19	47	22	24	36	181	36	29	14	221	228	49	5	14	482	1654	7	13	272	26	11	0	8	41	9	4	283	17	12	7	25	4	11	3	37
OTU 49	91	3	46	25	25	1	14	0	0	40	39	0	1	10	2	0	10	0	68	7	9	152	50	7	100	26	16	0	38	4	7	1	71	0	2	5	37	0	14	4	26	62	25	3	0	22	5	16	12	0
OTU 50	125	0	71	73	408	0	1	142	2	59	28	36	7	1	6	5	101	30	9	70	4	72	0	8	59	32	101	12	7	189	10	56	57	40	122	2	13	16	2	73	120	63	557	121	0	15	110	63	13	149
OTU 51	59	4	2	5	6	14	0	4	3	1	5	24	11	0	0	0	12	3	2	0	3	19	7	1	8	3	17	4	7	80	0	24	0	7	4	0	19	8	0	27	8	26	20	10	0	7	0	3	6	45
OTU 52	182	17	4	12	62	17	42	13	21	106	16	32	14	279	7	46	424	89	4	52	75	149	20	9	17	59	84	30	45	56	1	94	42	11	46	0	61	9	65	38	89	27	77	59	25	160	9	207	71	25
OTU 53	0	0	0	0	0	0	13	0	0	0	0	0	0	0	0	0	0	0	0	0	0	0	0	1	1	0	0	0	0	0	0	0	0	0	0	0	0	0	0	0	0	2	0	0	0	0	0	0	0	0
OTU 54	9	25	59	9	19	11	72	116	9	20	40	5	1	68	29	5	7	11	2	3	1883	46	30	58	129	139	26	7	17	100	0	116	108	19	22	2	16	18	9	19	57	205	160	88	9	17	29	115	4	275
OTU 55	0	5	0	0	0	0	0	0	0	0	2	0	0	0	0	0	0	0	0	0	0	0	0	0	0	0	0	0	0	0	0	0	0	5	0	0	0	0	0	0	0	0	0	0	0	0	0	0	0	0
OTU 56	7	19	3	0	39	6	3	35	42	274	0	0	4	15	5	0	41	0	0	23	27	13	4	9	14	0	1	0	50	10	7	2	14	1	0	1	12	1	1	0	21	0	54	4	2	100	0	7	0	12
OTU 57	166	486	35	25	321	26	64	61	21	155	11	102	17	360	24	903	139	103	24	194	24	226	56	43	77	124	283	28	98	224	25	87	110	53	101	13	30	3	100	979	15	44	154	259	1591	163	97	69	28	123
OTU 58	0	20	1	3	0	9	114	16	1	61	1	10	1	2	7	8	7	17	0	7	16	5	0	10	5	36	1	0	7	25	2	2	3	0	57	7	0	1	15	50	32	6	0	2	0	10	0	2	9	2
OTU 59	4	27	1	80	5	0	6	111	2	3	0	20	14	2	0	18	175	28	1	31	2	3	19	0	3	14	66	0	2	20	0	5	0	5	10	0	50	1	13	92	34	26	17	0	0	8	2	3	0	8
OTU 60	28	3	2	81	114	4	29	37	20	179	12	5	19	55	5	1	121	22	6	28	98	124	88	10	9	83	14	15	3	34	0	17	17	59	7	5	74	39	61	38	32	11	93	58	0	1	54	160	7	19
OTU 61	29	161	7	94	191	92	4	96	1655	665	0	17	89	2	1849	19	22	37	961	9	402	74	100	3682	11	17	0	14	4	166	564	50	7	107	22	25	82	66	69	163	18	43	40	52	822	27	6	23	80	63
OTU 62	0	4	10	0	16	0	18	8	4	22	1	3	2	9	6	6	0	5	0	5	1	7	0	5	3	6	0	0	0	48	1	10	10	9	2	5	6	0	4	1	11	0	22	4	1	0	20	13	4	0
OTU 63	22	27	0	1	29	3	0	5	2	2	0	27	6	21	0	2	26	3	0	423	0	25	20	1	0	33	109	15	0	29	2	0	96	59	55	0	10	4	0	0	0	0	56	120	0	0	1	19	35	11
OTU 64	8	42	51	48	116	30	2	79	69	44	47	22	35	158	23	21	185	38	14	56	56	158	47	38	68	24	17	6	3	58	10	22	81	129	18	19	18	44	35	20	43	12	2	84	27	5	26	0	78	47
OTU 65	0	0	0	0	0	0	16	0	0	0	0	0	0	1	0	0	0	0	0	0	13	0	0	0	0	0	0	0	0	0	0	0	0	0	0	1	0	0	0	0	0	111	0	0	0	3	0	1	0	0
OTU 66	69	5	30	47	150	6	1	8	20	1	7	25	16	56	4	3	252	8	41	6	9	4	1	12	16	1	84	2499	12	209	11	14	0	110	65	10	25	9	2	30	21	69	221	0	0	55	6	88	50	7
OTU 67	2	23	3	108	0	0	33	32	0	52	1	1	0	1	3	25	38	23	8	2	0	3	10	3	3	134	8	8	406	52	0	12	130	18	14	7	3	16	0	26	35	5	18	45	2	855	12	6	23	14
OTU 68	152	2	0	86	238	18	29	2	2	0	8	2	0	0	2	5	0	1	9	2	58	0	1	5	19	10	0	4	0	8	11	0	2	7	15	0	1	0	1	58	1	2	0	10	0	9	132	9	5	56
OTU 69	46	16	32	11	243	0	25	108	0	13	75	5	4	77	15	3	64	8	6	23	25	82	4	21	44	4	22	0	58	207	10	43	77	2	12	1	19	3	1	46	163	24	3	10	5	128	109	5	4	1
OTU 70	133	40	1	5	35	0	91	1	0	5	72	38	8	0	0	1	14	0	2	33	0	18	35	1	0	0	68	0	2	30	7	66	40	20	26	0	0	0	1	56	0	48	20	0	13	5	110	0	6	32
OTU 71	56	17	12	3	19	0	80	53	0	9	53	4	5	13	0	423	2	788	25	0	43	0	0	0	7	3	1	10	1	11	21	31	0	0	0	13	6	27	0	13	0	53	0	64	0	3	139	51	48	0
OTU 72	361	35	101	79	3	15	91	20	23	21	46	13	176	22	4	10	55	14	7	34	2	3	9	5	6	67	16	6	11	12	3	116	49	39	81	0	40	10	27	20	3	91	0	45	44	24	14	71	16	96
OTU 73	49	31	0	69	33	15	0	70	1	142	18	10	11	28	3	0	67	1	0	50	99	0	52	2	9	37	12	0	151	2	2	14	14	115	45	27	19	19	6	23	0	152	15	6	0	243	1	6	1	15
OTU 74	3	2	4	0	4	17	75	30	23	25	47	35	99	196	28	10	16	3	31	138	43	12	35	43	62	12	127	28	0	3	21	1	107	259	147	8	282	21	17	28	94	68	19	95	16	18	0	18	68	10
OTU 75	5	53	45	3	105	18	2	48	3	129	12	20	86	19	2	54	41	141	2	30	820	58	22	5	1	333	70	6	18	2	1	10	81	756	379	13	204	36	170	3	55	132	11	25	5	16	167	55	38	69
OTU 76	102	63	10	0	0	0	14	2	0	93	45	0	0	0	0	0	0	2	1	0	0	0	16	0	0	0	0	5	10	6	6	68	16	39	141	0	0	0	8	240	0	0	28	0	12	27	3	56	0	0
OTU 77	83	3	1	14	22	25	87	156	15	18	158	46	24	6	1	8	7	18	14	18	40	27	27	2	17	0	19	376	3	17	13	55	103	3	9	14	1	19	7	7	3	167	6	6	4	6	96	5	49	4
OTU 78	220	1	21	46	7	0	24	28	30	17	10	1	9	29	0	1	3	0	0	60	0	8	11	0	9	152	14	56	11	202	1	17	14	222	3	92	4	108	0	6	4	1	20	35	0	5	11	35	0	36
OTU 79	91	3	316	125	205	21	38	110	33	740	42	66	43	119	55	14	344	24	24	833	179	89	119	104	121	61	230	27	15	145	20	49	79	520	547	16	107	37	112	79	254	483	97	72	7	62	107	150	13	241
OTU 80	21	4	91	4	83	5	156	34	25	154	6	43	10	112	22	9	13	22	6	26	7	63	12	36	99	75	23	9	22	14	2	16	42	6	134	126	35	20	115	34	46	66	118	38	26	148	0	0	17	32
OTU 81	177	30	221	42	27	56	232	163	16	3	88	73	38	8	52	3	126	0	1	35	147	132	84	101	0	114	75	16	19	881	7	59	29	54	2	2	92	9	28	56	23	45	25	182	2	73	140	79	5	65
OTU 82	311	205	1	18	5	1	65	17	1	81	8	18	1	4	0	0	84	1	0	48	25	9	8	0	93	91	10	2	33	0	3	28	22	230	75	11	0	0	3	195	4	6	26	0	3	27	11	119	0	11
OTU 83	25	1	4	40	0	0	0	0	0	0	20	9	1	0	0	0	8	0	0	0	5	0	21	0	0	0	25	0	0	10	0	0	42	0	39	7	0	24	0	0	5	1	0	2	0	7	0	9	0	0
OTU 84	1	55	12	27	39	1	45	1	0	3	10	41	0	11	0	3	3	3	1	153	5	118	24	0	2	1	70	0	12	7	1	0	0	0	299	7	4	41	5	65	4	59	58	21	0	5	2	11	3	11
OTU 85	32	1	0	0	2	34	6	15	0	0	2	0	1	1	19	0	0	0	0	0	8	50	24	23	7	1	62	2	0	0	0	0	3	2	0	3	0	25	17	0	0	11	0	2	0	0	0	4	6	0
OTU 86	0	0	5	1	0	0	0	7	0	0	0	0	0	0	13	0	0	0	0	0	0	4	0	14	10	0	90	3	13	0	0	6	1	50	0	0	0	0	0	0	0	0	0	0	0	35	0	0	3	0
OTU 87	39	12	0	45	95	0	0	1	0	1	5	0	8	175	7	0	2	1	2	2	0	221	1	11	0	4	2	36	0	6	0	18	10	0	0	3	0	3	0	140	63	112	0	0	0	0	0	90	0	21
OTU 88	0	0	45	61	0	0	57	2	15	0	13	1	134	1	5	0	15	0	0	33	0	0	0	11	0	0	0	1	22	0	0	2	0	0	0	0	0	0	0	0	0	1	0	0	14	89	0	0	0	0
OTU 89	8	2	18	26	54	1	75	10	693	0	0	0	0	233	0	2	142	1	0	19	23	2	2	0	97	2	5	22	1	5	0	2	45	0	0	0	0	0	0	42	28	47	118	12	342	0	14	33	0	1
OTU 90	0	0	3	0	0	56	0	0	0	0	0	0	0	1	0	0	4	1	0	0	0	7	8	0	12	0	0	0	0	0	0	0	36	0	0	2	0	3	0	0	0	0	0	0	0	0	0	0	0	114
OTU 91	0	0	0	0	0	0	0	0	7	0	0	0	0	4	5	0	1	0	0	24	3	0	0	19	0	0	4	2	0	0	0	4	118	1	25	0	0	0	0	5	7	1	0	1	0	1	0	0	0	0
OTU 92	0	1	21	0	0	0	2	0	4	2	0	2	30	34	14	33	0	39	0	0	0	0	5	27	1	55	1	6	0	0	3	1	2	6	27	0	88	0	39	0	0	0	0	0	1	0	1	4	0	42
OTU 93	0	0	0	3	0	0	105	17	0	0	0	4	0	0	0	0	0	0	0	0	14	3	1	0	14	0	0	0	0	0	0	0	0	0	0	0	0	0	4	0	0	17	0	1	0	2	0	0	0	3
OTU 94	18	43	97	13	8	297	52	26	92	116	16	15	44	3	102	30	84	60	276	24	6	29	47	218	238	154	2	201	3	43	119	12	70	17	11	95	42	227	190	24	9	68	65	141	66	12	68	3	352	4
OTU 95	1	0	0	74	19	4	2	6	3	50	4	1	0	5	24	0	19	0	2	99	0	0	2	32	2	0	0	6	0	60	0	13	147	175	55	0	0	6	0	0	1	18	2	0	9	0	5	0	2	6
OTU 96	0	38	0	0	0	0	31	0	0	0	27	0	0	5	0	0	0	0	0	0	0	5	28	1	31	0	0	1	0	0	0	0	0	0	0	0	0	0	0	0	120	0	17	20	0	0	73	7	2	74
OTU 97	0	1	8	0	19	0	0	4	33	0	3	0	1	0	0	0	0	0	6	0	58	0	0	0	0	0	0	783	7	0	4	1	9	0	0	0	0	0	5	2	0	2	0	9	11	4	0	0	0	19
OTU 98	0	6	2	8	0	1	7	1	0	1	2	0	502	0	0	0	1	0	1	1	2	12	0	0	18	0	0	0	0	4	0	0	0	1	0	7	1031	0	0	0	0	6	44	18	2	11	1	0	0	15
OTU 99	174	11	19	154	120	34	49	3	140	219	55	22	160	13	14	2	58	2	13	22	73	877	70	47	47	153	64	8	14	68	5	26	82	6	113	31	77	61	8	41	12	160	6	79	31	33	13	104	6	1
OTU 100	92	3	0	44	46	9	8	3	228	0	0	0	75	143	279	0	7	0	22	4	31	1	52	550	1	6	2	6	0	32	1	7	81	13	49	0	87	7	7	0	0	2	11	19	120	3	3	0	17	0
OTU 101	0	0	3	1	0	0	38	0	0	0	0	0	0	15	0	0	32	0	2	0	0	1	0	0	3	0	0	0	0	0	0	0	27	1	65	0	33	0	0	5	42	0	6	6	0	0	0	0	0	0
OTU 102	190	0	8	4	0	0	0	0	0	0	0	4	10	15	0	0	13	0	1	6	9	0	33	2	0	0	25	1	0	13	0	6	2	89	0	0	16	2	0	0	0	1	29	0	9	2	0	170	2	7
OTU 103	57	0	4	73	26	5	43	31	0	3	27	0	2	6	5	3	7	15	1	1	75	26	0	18	13	23	6	2	3	20	1	18	29	0	9	1	0	19	11	11	3	923	41	2	0	6	1	0	8	4
OTU 104	161	30	6	22	77	10	131	58	35	4	19	10	32	18	6	17	131	34	5	0	11	57	7	9	23	94	26	0	10	45	5	2	122	46	77	16	27	16	56	13	1	29	6	16	11	20	180	48	5	71
OTU 105	0	2	0	0	10	0	4	5	0	2	0	0	0	0	0	0	0	1	0	0	0	1	0	0	14	0	0	0	0	2	0	0	1	29	0	1	0	0	1	53	0	0	0	0	1	2	0	0	10	153
OTU 106	7	3	0	0	575	17	45	27	0	0	7	0	9	12	0	52	16	90	0	0	19	0	54	0	0	33	0	0	1	0	1	0	0	2	1	0	4	0	108	0	0	7	0	11	2	34	1	0	2	68
OTU 107	0	4129	12	1	13	2	0	13	0	3	3	0	1	31	8	4	5	7	0	234	0	222	0	19	0	0	1	2	0	33	0	0	0	19	21	1	0	0	32	5	8	0	21	57	2	5	13	0	0	8
OTU 108	15	31	9	99	2	39	9	36	3	6	31	1	10	11	0	5	289	8	0	2	3	112	71	0	1	19	1	12	56	53	0	52	6	3	8	1	19	5	3	7	1	5	16	7	0	74	0	0	1	6
OTU 109	0	0	0	0	0	0	0	0	0	0	0	0	0	0	0	0	0	0	0	0	0	0	0	0	0	0	0	0	0	0	0	0	0	0	0	0	0	0	0	0	0	0	0	0	0	0	0	0	0	0
OTU 110	25	63	42	199	83	33	10	1	4	17	1	23	5	13	27	2	20	11	39	54	2	215	0	43	7	33	18	34	10	53	42	2	29	3	0	0	37	14	47	65	16	107	470	41	16	12	0	12	45	63
OTU 111	0	2	0	2	0	0	0	0	16	0	5	0	0	0	7	0	0	1	0	0	2	0	0	11	19	0	6	0	0	0	0	0	0	0	1	0	0	0	4	5	0	1	11	0	0	0	0	0	0	1
OTU 112	0	0	37	0	0	23	1	0	0	2183	1	4	0	2	0	3	33	5	0	0	12	0	7	1	1	3	9	0	6	14	0	2	1	35	0	2	1	13	0	8	1	9	6	1	4	16	7	0	0	0
OTU 113	0	0	0	0	1	5	0	2	8	2	1	0	0	0	0	7	8	7	0	3	81	3	0	0	9	1	3	0	0	0	0	0	11	3	3	0	4	0	15	0	0	0	21	10	17	0	0	6	0	6
OTU 114	48	30	67	144	21	98	47	104	14	72	23	23	1	12	24	10	405	10	117	3	98	48	1	48	45	91	40	100	30	210	58	56	40	95	158	120	5	280	1	10	19	40	80	441	6	47	95	70	225	18
OTU 115	119	64	149	48	246	20	38	33	14	13	10	54	25	166	1	815	276	1749	17	25	15	83	36	3	21	80	54	12	7	75	5	125	40	172	77	10	39	30	3256	32	34	40	286	25	14	35	37	187	10	60
OTU 116	93	1060	179	105	21	32	53	1602	5	77	77	12	11	2	1	3910	3	0	15	153	80	15	11	6	26	61	20	35	41	1	2	106	24	62	17	18	45	47	0	1949	31	43	72	137	19	45	21	138	44	74
OTU 117	30	48	17	0	20	76	58	2	35	1	36	20	0	16	11	9	39	12	1107	73	26	213	0	33	8	132	3	7	5	14	604	78	41	36	56	15	28	20	3	71	22	53	88	110	7	0	17	0	74	102
OTU 118	12	7	1	0	3	0	12	32	0	0	0	0	3	0	2	1	5	0	1	0	0	10	0	3	29	0	13	18	0	15	0	0	11	0	7	10	0	18	13	0	8	6	12	46	1	0	10	2	0	0
OTU 119	27	40	173	2	113	33	40	0	22	133	46	8	132	67	12	23	101	31	24	148	27	107	4	24	83	38	0	25	0	67	9	14	186	21	53	0	92	7	53	103	20	366	1	92	0	4	176	20	42	125
OTU 120	1	44	1	0	0	50	16	36	0	0	1	0	17	0	3	0	37	0	0	0	21	27	25	3	19	0	0	17	0	9	0	0	0	0	0	12	11	27	1	7	4	7	0	129	0	0	23	1	0	0
OTU 121	34	0	0	0	25	0	3	37	4	0	1	7	0	1	0	4	7	7	3	2	39	8	1	0	34	96	10	27	1	10	0	0	144	46	24	36	4	55	20	51	0	0	34	0	1	9	5	49	79	35
OTU 122	85	0	0	226	144	65	567	18	15	55	5	300	32	493	2	2	126	0	1	724	5	54	5	9	411	6	440	35	18	11	9	37	42	0	54	8	12	24	9	6	27	3	29	22	18	24	62	15	15	2
OTU 123	28	26	35	168	76	49	62	147	7	103	64	27	110	164	28	31	227	71	45	160	97	398	41	58	156	160	103	90	62	326	16	73	22	283	265	14	112	47	54	47	31	259	117	308	21	149	132	79	54	182
OTU 124	7	20	3	0	29	0	1	0	0	46	2	0	0	6	3656	0	27	7	0	25	32	1	0	0	1	1	0	0	0	25	0	0	30	20	3	0	2	0	0	2	35	98	0	0	0	0	0	2	0	1737
OTU 125	134	21	287	224	51	42	375	122	18	191	34	43	29	200	71	51	95	34	36	51	151	305	245	124	168	125	53	48	56	269	39	445	64	67	90	20	41	69	135	58	18	253	81	84	31	118	171	98	119	162
OTU 126	0	76	0	0	0	94	0	0	9	0	0	0	7	54	11	0	0	2	0	4	0	141	0	28	5	0	0	2	0	0	1	2	8	0	0	0	2	0	0	7	0	2	0	0	8	0	0	0	6	3
OTU 127	14	6	1362	11	31	0	6	9	1	0	28	0	3	39	0	0	17	4	0	36	7	2	1	0	24	0	0	13	4061	0	8	10	51	8	1	4	4	4	1	0	21	11	22	0	0	0	0	15	6	1
OTU 128	154	35	301	215	137	20	102	164	79	47	135	200	47	352	89	67	208	98	69	33	168	134	85	198	149	427	134	727	31	107	24	237	516	81	267	41	160	73	212	179	82	211	63	376	46	82	134	83	76	330
OTU 129	0	0	0	0	30	0	0	147	0	5	2	0	6	0	0	0	0	0	6	0	0	15	0	0	0	0	1	0	0	0	0	0	0	73	0	0	4	0	0	0	7	0	0	4	0	0	0	0	55	2
OTU 130	0	1	7	269	18	249	4	23	1	12	33	7	50	9	321	102	46	7	9	7	33	25	2	7	32	1	3	23	6	113	0	1	6	23	157	2305	2	10	30	1	49	28	81	0	0	20	2	40	1	0
OTU 131	27	6	91	15	142	3	1	14	2	4	2	2	8	2	54	29	3	47	26	11	105	31	3	113	23	67	8	0	1	110	0	0	17	88	77	29	24	60	43	4	61	92	23	1	2	1	3	29	24	35
OTU 132	44	32	0	0	16	44	2	0	29	0	0	0	0	19	6	0	5	0	8	0	0	0	0	6	2136	2	19	1	17	0	0	0	0	5	0	4	0	4	0	21	10	19	0	4	7	11	0	0	8	0
OTU 133	0	0	0	26	9	0	16	0	0	0	0	0	0	9	0	0	9	0	0	79	34	0	0	0	0	0	0	0	0	1	0	1	0	47	25	0	6	0	0	0	0	0	0	0	0	0	0	0	24	2
OTU 134	0	7	3	141	27	22	48	1	2	83	104	17	32	112	2	18	48	34	19	17	0	14	13	4	1	0	23	0	22	56	3	0	9	4	144	5	84	2	36	9	109	41	51	28	2	29	38	14	0	34
OTU 135	31	0	19	1	37	121	113	0	35	63	49	36	4424	14	114	1	41	1	170	6	11	26	10	232	7	1	23	124	13	11	116	39	16	68	1	123	19	199	10	1	0	43	6	1	12	22	0	30	411	121
OTU 136	126	85	6	1	3	1	79	28	0	15	13	1	0	143	18	7	54	3	0	19	1	74	15	21	136	39	2	0	4	14	1794	47	49	23	192	14	35	35	12	29	0	35	28	13	0	22	27	10	28	0
OTU 137	0	0	11	14	2	0	0	5	0	1	0	0	3	39	2	9	10	2	0	75	0	19	0	9	0	0	0	2	0	0	2	0	127	0	37	0	69	7	0	0	0	0	0	1	0	0	1	0	3	2
OTU 138	0	0	3	33	0	9	1	0	4	3	13	41	0	0	13	32	44	67	9	0	1	7	3	29	0	106	43	0	5	119	0	0	39	11	19	0	0	0	74	1	8	0	1	0	0	7	0	0	1	3
OTU 139	181	11	95	35	116	109	12	92	64	8	29	120	170	6	14	19	79	32	0	87	70	40	0	25	148	9	45	3	29	10	7	28	90	18	76	46	234	72	51	1	3996	64	245	111	29	71	136	137	173	115
OTU 140	38	49	4	124	88	29	904	36	27	4	41	204	156	56	55	66	327	164	35	205	132	118	114	11	500	105	154	26	9	68	38	45	1528	270	410	5	271	23	152	13	24	123	130	54	16	27	62	47	122	55
OTU 141	0	0	0	0	0	0	1	0	0	11	0	0	0	0	0	0	0	0	0	0	156	0	0	0	0	0	0	0	0	0	0	0	0	0	0	1	0	0	0	5	0	0	0	0	0	0	0	0	0	0
OTU 142	0	0	0	4	0	0	17	0	0	0	0	0	0	0	0	0	7	0	0	3	3	0	0	0	0	0	0	0	17	0	0	2	0	0	0	0	1	0	0	0	0	4	0	0	0	30	0	5	0	0
OTU 143	26	0	14	3	15	4	0	0	0	0	0	20	0	0	12	0	35	0	2	4	0	70	2463	23	0	1	10	25	1	17	0	0	0	0	64	22	0	30	0	92	1	15	0	35	0	15	1	13	13	0
OTU 144	1	1	0	0	0	4	51	15	17	3	4	0	3	0	2	3	17	12	0	0	7	0	6	1	10	1	4	0	0	0	0	16	85	0	0	21	0	25	7	5	0	0	1	0	5	0	1	0	0	6
OTU 145	61	48	0	136	39	11	76	100	6	13	0	20	12	289	6	13	13	45	13	58	52	60	32	13	100	2	55	0	15	92	4	43	2	130	19	8	27	1	30	64	7	17	120	0	5	67	75	101	37	110
OTU 146	11	0	37	31	92	1	39	57	25	58	42	15	6	111	19	0	13	5	37	38	8	20	5	44	7	81	16	7	17	10	21	13	2	14	4	5	107	23	11	3	85	16	304	8	23	25	127	0	5	34
OTU 147	0	1	1	3	54	1	26	0	0	7	105	1	0	87	0	24	156	61	5	0	6	12	6	0	46	0	17	4	1	57	0	3	331	4	7	0	12	0	27	2	0	4	13	2	4	15	4	0	0	0
OTU 148	147	0	94	1	109	11	12	39	13	2	0	4	15	94	11	15	87	20	23	1	3	14	7	23	19	229	10	0	16	94	3	179	60	589	152	2	46	9	9	46	930	0	19	63	2	29	2	15	80	13
OTU 149	0	0	0	12	35	0	55	1	1	3	39	0	1	0	1	1	0	0	10	0	50	16	3	1	0	0	18	0	4	0	12	4	0	5	3	17	20	6	0	3	34	1	114	8	0	13	73	8	12	33
OTU 150	0	3	0	1645	35	4	0	3	1	0	11	2	0	0	0	0	44	6	0	49	0	148	0	0	1	0	86	0	0	0	0	0	0	0	0	1	4	9	14	3	2	0	0	1	0	9	0	4	1	0
OTU 151	16	16	0	474	3	21	71	6	19	0	5	9	2	34	21	0	1	0	34	0	0	58	5	45	1	3	24	57	3	2	20	12	38	47	43	11	1	21	2	4	14	213	3	74	3	1	14	2	21	0
OTU 152	83	31	132	24	23	3	5	23	35	26	16	53	56	39	11	1576	101	3125	31	40	2	126	11	27	25	4	117	10	258	0	22	93	0	7	61	9	73	37	2	12	14	65	12	14	21	1	78	73	194	3
OTU 153	0	0	0	0	0	5	2	0	0	19	0	0	0	8	3	0	0	0	0	2	10	0	0	6	0	1	0	0	0	5	0	0	0	1	1	0	0	0	0	90	0	1	0	0	0	0	0	0	0	0
OTU 154	0	18	2	0	0	2	0	1	0	0	0	0	2	0	0	1	0	5	0	0	0	62	101	0	0	29	0	0	11	0	0	0	0	10	0	8	0	0	0	14	0	0	461	29	3	3	0	0	0	0
OTU 155	48	0	0	0	18	3	0	5	0	2	0	7	0	12	0	0	38	0	0	0	46	9	0	0	12	19	0	1	11	0	1	13	16	15	5	4	21	0	1	1	34	7	0	16	0	3	0	2	1	3
OTU 156	26	100	60	124	37	45	4	82	15	41	5	5	2	168	35	5	14	8	31	44	26	1	43	61	32	0	0	8	12	42	5	41	106	27	139	8	1	4	11	37	42	146	25	71	4	71	116	20	48	26
OTU 157	0	0	4	19	20	1229	2	69	0	19	7	2	1	47	3	0	12	1	18	1	7	0	0	11	24	3	2	0	6	0	0	4	57	0	112	2	1	10	0	2	1	7	19	0	0	4	27	0	0	557
OTU 158	2	0	0	0	0	0	0	0	0	79	0	0	0	58	0	0	3	0	0	4	0	0	2	0	0	0	0	0	0	0	0	0	4	0	0	0	0	0	0	0	0	0	83	0	0	0	0	0	0	0
OTU 159	0	13	34	27	7	0	450	10	0	73	1	7	23	190	0	24	18	106	2	132	92	21	7	0	123	0	9	0	0	5	0	9	62	0	35	3	23	31	102	117	68	2	10	21	1	7	35	1	0	38
OTU 160	98	294	39	65	351	59	68	57	4	103	13	161	771	152	33	544	0	1057	15	224	36	111	1487	58	27	72	187	41	16	94	28	32	68	107	11	5	1519	6	1810	670	32	161	45	3	1	21	56	13	7	52
OTU 161	147	0	52	0	313	10	43	29	3	43	117	23	17	249	5	1	65	0	18	171	17	41	2	8	9	13	3	2007	140	16	12	122	66	3	67	2057	16	4092	5	124	66	16	18	27	2	190	536	147	8	14
OTU 162	1088	5	37	13	43	131	206	44	61	18	28	0	2	15	41	22	8	48	139	8	7	18	19	93	65	22	25	129	73	3	60	624	23	152	3	32	59	136	97	134	1	385	33	6	2570	65	67	1213	118	2
OTU 163	0	0	0	0	0	0	22	0	0	0	0	0	0	0	0	0	0	0	0	1	0	0	0	0	0	127	0	0	0	0	0	0	0	0	0	0	0	0	0	0	19	0	0	0	0	0	0	0	0	0
OTU 164	0	0	3	0	62	0	0	0	0	3	0	11	0	0	2	0	0	0	0	0	0	4	2	2	0	0	0	4	0	0	0	0	0	0	0	0	0	0	0	9	0	0	0	1	0	2	0	0	7	38
OTU 165	63	11	0	4	3	4	10	10	11	13	31	6	1	22	2	3	2	6	11	2	0	1	756	4	12	4	9	3	0	83	0	48	18	7	80	5	7	12	2	7	18	6	12	6	5	0	1	26	14	80
OTU 166	0	0	0	0	0	0	0	8	0	0	0	0	0	0	0	0	0	0	0	0	3	0	0	0	0	0	0	0	0	0	0	0	0	0	0	0	0	0	0	0	1	0	1	0	0	0	0	0	0	0
OTU 167	33	40	3	0	26	55	13	36	1	123	42	1293	0	176	0	27	10	18	27	0	0	0	0	0	8	0	3070	13	68	24	2	6	1	112	16	6	0	0	1	7	4	5	50	1	0	99	5	61	15	5
OTU 168	6	100	25	1	25	111	8	0	0	163	39	11	52	139	0	0	8	20	4	0	30	1	20	0	0	21	0	1	0	29	1	17	19	1	7	0	56	6	7	59	78	0	25	146	4	0	2	56	13	2
OTU 169	0	0	0	0	0	0	0	4	0	0	3552	5	0	0	0	16	0	27	0	0	3	0	0	0	0	0	8	1	0	0	0	0	0	0	0	0	0	0	122	0	0	0	0	0	0	1	7	0	2	0
OTU 170	0	0	0	0	0	0	0	0	0	0	0	13	43	0	0	0	0	0	0	0	0	0	0	0	0	0	0	0	0	0	3	0	1	0	0	0	30	0	1	1	0	0	0	0	4	0	0	0	0	0
OTU 171	34	1	41	243	185	0	0	1	0	5	20	506	119	18	5	6	28	3	88	1648	3	2	56	10	8	1	1116	77	2	54	29	13	2	7	118	13	188	27	9	47	15	1	6	13	0	7	8	19	101	5
OTU 172	0	0	3	0	13	1	0	0	0	0	1	0	0	0	14	0	0	2	0	1	1	4	130	18	0	1	0	4	0	100	11	0	0	0	0	0	0	0	14	0	0	0	20	3	3	0	0	0	8	45
OTU 173	1	29	2	2	0	0	0	0	17	0	19	2	1	0	6	0	108	0	1	6	19	212	0	10	7	5	159	0	0	0	0	3	25	2	1	1	7	0	1	5	0	0	0	45	4	0	24	9	0	0
OTU 174	0	0	13	1	44	25	104	5	1	4	9	0	0	3	0	24	4	38	2	47	0	1	20	0	66	1	31	14	0	25	1	1	4	4	108	5	0	23	27	6	27	30	37	7	0	4	1	24	0	34
OTU 175	27	7	0	0	2	0	102	0	23	0	20	7	0	6	2	0	80	2	62	0	2	60	63	2	3	36	1	1	3	22	19	16	11	14	0	9	1	17	8	59	71	39	28	4	1	3	17	0	163	0
OTU 176	37	0	23	6	48	0	119	95	9	0	1	37	0	165	0	8	200	16	0	1	22	14	60	3	36	32	86	5	31	55	4	1	0	7	19	6	0	0	15	25	16	43	45	26	17	51	1	17	9	25
OTU 177	759	16	125	261	171	15	56	78	3	0	40	0	4	11	16	14	30	44	21	125	25	0	36	23	34	3	3	3	36	120	10	429	0	165	63	50	11	47	120	15	16	28	2	17	7	39	27	283	46	13
OTU 178	167	8	4	16	0	16	106	2	0	61	0	19	3	7	0	7	0	16	0	34	7	0	9	0	1	36	6	0	1	12	1	102	48	6	22	1	0	0	136	7	1	41	1	9	0	6	0	11	5	39
OTU 179	35	0	34	1	150	24	0	33	4	1	11	115	27	27	13	1	5	0	30	42	16	6	1	22	0	8	106	9	0	47	7	112	145	2	39	0	1	2	0	14	2	25	0	82	0	6	1	27	49	1
OTU 180	41	160	2100	139	238	74	106	127	90	264	64	47	59	10	40	17	92	50	55	126	243	670	225	78	106	67	28	55	60	60	27	22	8	310	101	23	40	57	46	97	35	255	682	139	45	88	74	23	81	17
OTU 181	2	0	28	8	112	0	9	1	0	5	21	4	1	2	1	3	35	9	1	6	21	53	57	4	1	0	101	1	4	1	0	0	0	12	84	8	1	15	8	20	0	45	10	0	0	18	0	0	4	2
OTU 182	0	0	0	1	0	32	0	38	0	1	0	0	0	0	0	10	0	10	0	2	0	0	0	0	0	0	11	0	0	0	7	0	12	0	0	0	1	0	8	0	0	0	0	0	0	0	0	0	0	0
OTU 183	55	0	1	0	3	16	24	8	45	11	0	867	18	50	24	63	63	144	0	93	0	0	6	50	38	264	2	0	1	1	0	1	81	359	5	1	10	0	195	84	2	35	5	0	6	3	12	196	0	37
OTU 184	2	60	0	0	8	0	52	1	16	22	0	2	18	69	0	4	2	1	358	7	3	0	0	0	6	59	0	5	2	12	196	2	0	77	6	1	10	0	0	1	0	0	30	0	26	5	0	0	1	4
OTU 185	79	4	12	32	12	5	16	1407	12	16	1	7	2	31	8	2	5	9	10	20	38	80	20	19	33	194	41	4	609	13	6	2	131	358	14	0	3	0	14	18	0	25	11	6	0	49	81	7	21	89
OTU 186	0	115	0	0	0	0	0	6	0	37	0	3203	0	0	0	2	5	21	7	0	11	76	0	0	10	6	7	0	8	0	0	3	0	37	82	0	3	0	79	1	0	8	1	2	0	13	35	0	0	0
OTU 187	157	28	426	209	108	30	11	8	1	58	170	6	77	47	39	14	36	34	42	6	360	55	3	64	3	186	43	12	61	153	43	81	169	178	77	12	118	7	128	93	116	17	67	35	2	186	102	25	63	36
OTU 188	74	1	19	142	49	622	38	41	368	17	2	9	69	27	235	20	38	31	504	13	6	270	14	450	95	84	3	344	78	37	359	3880	232	62	18	365	71	721	43	63	58	56	44	15	138	58	6	17	1262	16
OTU 189	108	21	103	47	4	94	87	114	39	41	144	106	3	26	25	5	42	8	540	7	24	74	83	57	21	18	225	7	0	80	180	45	51	18	247	18	14	24	20	8	14	137	23	91	33	4	18	1	41	166
OTU 190	0	2	0	11	0	0	30	0	3	0	6	0	0	70	0	1	0	0	0	0	0	9	6	0	1	169	0	0	0	0	0	2	0	36	40	0	0	0	0	0	0	0	1010	0	5	0	0	0	2	96
OTU 191	30	71	33	2	56	5	13	162	32	44	12	34	25	94	2	10	5	35	0	17	47	38	83	4	542	148	3	10	17	7	3	33	151	35	75	14	10	50	67	49	54	223	74	3	28	47	168	17	0	21
OTU 192	35	13	49	60	111	29	32	10	20	121	174	0	30	365	1	1	179	5	1	31	34	46	135	4	20	212	20	3	69	397	2	79	75	57	41	0	178	0	20	112	87	172	183	3136	29	174	265	41	13	14
OTU 193	2	2	52	2	46	12	210	73	0	1	0	5	5	15	0	14	455	32	10	7	18	27	2	0	13	0	23	28	5	16	2	13	114	57	1	2	22	0	18	15	94	27	36	5	1	9	1	31	17	98
OTU 194	50	39	91	0	0	67	1	60	3	43	39	0	0	8	0	0	0	1	4	1	29	0	29	0	36	1	1	18	3	174	12	22	560	0	24	2	2	0	5	11	10	99	98	18	137	1	4	11	9	28
OTU 195	0	3	10	19	6	12	41	2	2	76	37	13	7	70	0	3	0	3	0	11	7	17	68	0	1	10	2	23	14	1	0	7	49	85	0	13	26	2	6	21	34	5	59	46	9	4	70	1	28	2
OTU 196	2	10	2	0	15	3	26	34	0	27	23	3	34	26	42	1	0	1	0	27	17	8	1	68	0	121	16	1	14	8	3	17	13	4	92	3	5	0	5	0	0	2	35	14	1	4	0	6	0	2
OTU 197	283	28	138	104	202	15	159	0	18	66	59	117	4	265	36	23	70	35	69	329	7	138	98	55	84	284	95	17	15	106	3	200	145	276	490	29	2	67	88	56	84	79	41	10	16	36	30	73	42	40
OTU 198	0	1	127	11	6	0	0	0	3	0	0	1	1	22	0	0	4	0	0	32	7	10	3	1	14	35	0	0	0	10	0	0	1	0	0	0	7	0	0	0	0	14	15	7	0	12	0	0	0	60
OTU 199	0	22	5	30	0	16	15	43	0	4	30	2	8	2	0	0	0	0	39	0	62	10	18	0	8	5	20	18	1	143	4	0	1	0	5	6	40	5	0	28	0	46	0	16	9	1	0	1	15	8
OTU 200	0	1	17	119	13	0	2	44	39	7	25	6	25	64	0	0	31	2	0	8	1	185	167	1	74	3	8	4	1	184	0	11	58	3	37	8	32	1	41	42	36	55	12	0	16	0	59	4	2	60
