	Host 1	Host 2	Host 3	Host 4	Host 5	Host 6	Host 7	Host 8	Host 9	Host 10	Host 11	Host 12	Host 13	Host 14	Host 15	Host 16	Host 17	Host 18	Host 19	Host 20	Host 21	Host 22	Host 23	Host 24	Host 25	Host 26	Host 27	Host 28	Host 29	Host 30	Host 31	Host 32	Host 33	Host 34	Host 35	Host 36	Host 37	Host 38	Host 39	Host 40	Host 41	Host 42	Host 43	Host 44	Host 45	Host 46	Host 47	Host 48	Host 49	Host 50	
OTU 1	30	23	0	12	26	93	10	92	20	75	118	16	24	0	41	39	279	179	22	0	30	7	89	155	78	94	25	0	12	1	222	136	1	118	268	188	150	66	335	76	116	129	7	63	123	19	38	132	12	4
OTU 2	1	0	10	0	8	5	0	0	14	3	0	3	1	20	0	18	2	0	0	4	37	1	0	36	2	0	0	0	0	1	0	0	7	0	6	0	13	4	53	2	1	37	0	107	7	0	17	5	55	45
OTU 3	4	68	0	5	7	2	2	2	0	55	5	22	1	197	0	0	0	22	11	15	0	0	0	296	1	4	2	26	9	41	9	55	0	10	11	0	0	0	35	0	1	0	0	0	0	15	2	8	0	23
OTU 4	0	0	0	0	0	0	0	8	0	0	0	0	0	0	0	0	0	0	0	0	0	0	0	0	0	0	0	0	0	0	0	0	0	0	0	0	0	0	0	0	0	0	0	0	0	0	0	0	0	0
OTU 5	381	150	407	160	42	990	50	454	7	125	1453	1207	836	6	1932	0	460	241	1696	19	193	783	407	945	51	615	1287	96	0	300	63	90	800	70	70	79	159	87	250	2290	571	742	320	39	2	458	485	85	201	75
OTU 6	1	16	48	0	1	65	118	2	48	147	17	10	0	84	4	5	18	1	2	8	51	13	9	1	82	9	0	44	2	4	7	19	46	3	6	8	5	2	6	13	1	27	18	41	4	53	1474	21	137	0
OTU 7	1694	27	308	186	32	28	91	346	1464	49	527	26	214	464	337	72	418	163	8	28	15	289	704	435	41	1600	0	23	42	84	39	1265	20	489	993	3378	122	65	795	242	335	235	125	18	120	108	99	6	684	11
OTU 8	180	25	244	2	31	125	232	60	45	335	67	41	63	51	12	253	9	44	79	196	136	55	13	22	37	5	39	12	178	4	237	296	44	286	37	17	33	47	40	21	60	4	25	112	95	19	289	241	25	235
OTU 9	0	0	192	0	0	0	94	0	85	12	0	0	0	30	22	1	81	2	6	35	13	43	91	2	8	4	0	1	15	0	1	30	0	0	212	1	0	0	29	1	13	2	40	9	0	0	5	5	5	21
OTU 10	0	136	6	31	0	0	2	1	4	2	0	3	8	56	30	1	0	2	303	2	42	8	6	16	0	0	144	2	18	0	3	36	0	0	0	4	15	36	25	0	19	15	18	81	69	17	49	0	3	1
OTU 11	25	456	6	14	3	32	21	5	26	116	192	59	5	240	146	169	10	26	25	39	19	16	91	157	5	8	14	0	75	525	69	149	35	6	173	35	0	35	303	111	62	156	15	30	61	116	27	104	62	16
OTU 12	68	8	80	74	58	19	63	10	17	31	46	103	22	87	26	63	16	57	20	37	6	1	38	33	219	39	7	83	1	26	46	4	3	3	92	50	5	25	82	31	6	37	34	21	71	40	54	10	33	87
OTU 13	1	0	0	0	0	0	0	0	0	43	0	0	20	0	21	0	0	0	4	0	0	0	0	0	0	3	4	0	0	126	0	0	0	0	0	11	0	0	0	1	0	0	1	0	0	0	0	0	0	8
OTU 14	6	2	18	5	0	0	0	4	24	17	22	9	0	1	1	53	28	94	13	106	15	0	10	1	0	1	2	1	19	8	0	0	0	17	0	0	97	4	1	30	0	6	26	10	8	56	18	9	36	42
OTU 15	0	0	0	0	0	0	0	0	0	0	0	0	0	0	0	0	28	3	0	0	0	1	0	0	0	0	0	0	5	4	0	0	4	0	0	0	0	0	0	0	0	0	0	0	0	0	0	0	5	0
OTU 16	0	0	0	4	0	0	0	0	0	0	0	0	0	0	0	0	0	0	0	0	0	0	0	0	0	0	0	0	0	0	0	0	0	0	0	0	0	0	0	0	3	0	0	0	0	0	0	0	0	0
OTU 17	76	9	0	0	25	10	2	0	0	31	43	25	16	3	0	19	31	57	8	0	1	21	13	0	21	12	7	0	21	757	19	3	0	25	2	13	25	0	0	18	24	7	23	4	6	0	13	16	0	8
OTU 18	30	4	12	9	213	3	50	84	1074	197	22	1591	74	35	25	2	48	36	2	26	19	54	23	9	27	12	0	12	165	22	1	57	64	32	15	27	2	12	30	12	10	74	93	5	51	25	35	273	19	6
OTU 19	0	0	0	0	0	0	0	0	0	0	0	0	0	0	0	0	0	0	0	0	0	0	0	0	0	0	0	0	71	0	0	0	0	0	0	0	0	0	0	0	0	0	0	0	0	0	0	0	0	0
OTU 20	1	1	60	59	0	36	23	18	2	79	37	2	15	22	8	42	55	47	2	3	11	6	3916	4	1	106	5	2	5	8	9	71	4	94	16	195	42	38	16	19	21	25	44	60	77	2	8	86	10	88
OTU 21	83	62	8	5	10	5	43	37	7	11	1	12	16	110	24	53	41	91	28	28	52	0	2	2	51	9	12	32	95	14	41	20	2	0	3	21	1	5	7	0	1	7	2	177	18	27	16	9	7	48
OTU 22	217	14	9	2	57	36	11	23	129	10	66	828	10	14	0	4	69	0	26	4	32	22	47	3	13	47	4	32	59	152	18	112	14	38	93	66	12	31	10	36	40	24	63	6	54	5	7	133	1	2
OTU 23	25	1	6	20	2	0	12	5	28	1	1	3	1	12	45	75	10	0	22	26	0	3	100	0	37	1	0	10	0	0	19	11	2	0	11	0	2	5	7	23	1	1	0	44	7	1	172	0	6	19
OTU 24	0	49	7	0	14	4	0	0	0	1	0	9	0	14	2	46	10	39	28	0	0	6	29	0	30	0	1	14	0	35	20	3	0	7	0	2	0	0	0	0	5	1	912	10	2	20	11	0	64	20
OTU 25	0	0	10	0	0	0	0	0	0	0	0	0	0	3	0	0	0	0	0	0	0	0	0	7	0	16	1	0	0	0	0	0	0	0	0	22	0	0	7	0	0	0	0	0	0	0	0	34	0	0
OTU 26	6	0	0	9	0	0	0	0	0	0	47	0	1	0	0	0	0	2	3	35	6	0	1	0	0	11	15	3	0	48	23	16	3	0	0	74	0	0	0	71	3	0	0	3	0	3	0	0	0	58
OTU 27	0	0	0	0	0	0	0	6	1	0	0	0	0	0	0	0	0	0	0	0	0	5	0	0	0	0	0	3	0	13	0	0	0	0	0	0	2	0	0	0	0	18	0	0	0	0	0	0	0	0
OTU 28	11	54	16	12	61	51	235	0	52	7	49	5	0	1	8	124	13	21	136	17	1	2	18	9	190	10	42	32	3	226	205	20	27	26	58	5	0	25	5	8	40	8	6	29	46	0	35	19	57	1
OTU 29	41	88	9	7	24	0	160	26	301	0	156	126	8	24	98	70	43	36	37	95	109	15	42	65	24	122	25	8	32	1	175	60	3	75	41	278	81	131	124	54	7	65	26	114	294	177	48	191	42	68
OTU 30	0	0	0	0	0	0	0	0	0	0	0	0	0	0	0	0	0	0	0	0	0	0	0	0	0	0	0	0	0	0	0	0	0	0	0	0	0	0	1	0	0	0	0	0	0	0	0	21	1	0
OTU 31	6	9	0	9	34	10	1	0	5	83	6	5	0	2	0	30	6	2	0	1	0	0	0	0	0	5	0	13	0	0	15	0	0	29	2	18	0	0	0	0	0	7	0	0	0	7	40	30	27	15
OTU 32	108	22	4	17	10	93	151	130	29	27	454	4	309	79	140	107	112	99	9	89	17	32	47	68	13	318	11	22	52	1	4	63	10	15	141	591	35	16	203	236	185	76	56	20	43	16	20	1161	88	66
OTU 33	1	0	0	0	9	0	11	0	0	0	0	1	0	43	0	0	0	0	0	0	0	0	0	0	0	0	0	5	2	0	0	1	0	1	0	0	2	0	0	0	13	6	11	5	0	0	0	0	0	0
OTU 34	63	13	7	29	121	49	10	7	72	0	4	12	1	137	8	170	24	24	30	36	6	2	8	3	27	47	3	0	18	9	27	0	46	3900	0	64	47	7	7	7	0	9	18	9	25	2	22	43	127	27
OTU 35	82	36	167	1	82	77	2	4	49	7	0	85	4	19	37	1	0	699	45	3	15	73	4	13	0	28	41	11	1	42	66	199	604	126	84	15	548	0	10	21	5	11	0	3	0	38	147	63	76	19
OTU 36	72	12	47	142	6	30	202	0	13	121	25	39	36	22	59	39	52	0	1	2	21	1	5	86	66	24	0	2	35	53	0	90	50	26	6	60	5	12	110	43	59	39	3	1	26	191	5	113	2	0
OTU 37	0	0	16	5	2	0	98	17	1	6	0	0	0	12	0	1	44	3	0	0	0	1	0	0	0	18	0	8	9	1	0	14	0	0	3	13	2	0	0	0	2	0	0	0	0	12	0	2	85	3
OTU 38	137	11	69	24	15	32	11	0	1	34	122	1	14	257	20	20	8	0	17	14	1	13	18	10	0	49	13	18	3	29	3	0	0	1	2	48	4	3153	15	127	21	2	110	28	16	13	31	1	120	325
OTU 39	1	0	10	0	18	26	5	6	13	12	3	0	0	4	24	0	6	0	1	0	7	1	2	7	4	1	4	0	1	0	0	7	18	6	0	0	1	4	0	0	4	8	0	0	15	3	2	0	2	7
OTU 40	0	380	21	115	2	18	19	309	38	2	32	114	0	13	124	407	116	43	30	6	52	101	80	147	33	0	1	22	30	33	51	6	12	98	166	0	28	22	295	10	13	138	0	47	40	26	0	176	38	43
OTU 41	0	0	11	199	1077	38	22	39	11	8	2	11	0	3	9	79	13	25	413	71	16	9	2	35	507	0	262	280	35	97	661	24	28	2	2	0	9	10	63	6	9	62	382	1	28	4	12	3	64	195
OTU 42	0	0	0	22	1	1	0	0	0	0	0	10	0	6	15	0	0	0	2192	0	0	0	10	0	0	0	997	0	27	0	8	0	0	0	1	1	7	25	2	0	0	0	0	0	52	0	2	22	7	0
OTU 43	0	0	0	0	0	0	0	0	0	2	0	0	0	0	0	0	6	0	0	0	0	0	0	1	0	0	0	0	0	0	0	0	0	0	0	0	0	0	15	4	0	0	34	39	0	0	0	0	0	0
OTU 44	51	0	10	28	0	9	0	55	9	21	0	93	0	67	0	122	38	0	8	21	0	0	1	0	8	0	0	37	4	0	36	4	0	0	9	2	0	0	0	0	0	0	1	1	0	89	0	0	1	13
OTU 45	79	42	93	5	3	4	71	3	0	24	5	8	30	0	3	250	4	37	0	2180	81	8	11	0	18	70	1	1	25	8	16	9	15	38	40	76	1	22	1	6	0	32	41	104	46	5	0	7	14	13
OTU 46	2	69	2	7	10	18	279	13	50	6	19	36	6	48	11	118	76	9	16	28	7	21	24	4	169	3	34	54	8	3	0	299	14	33	66	5	7	66	22	24	8	39	9	10	119	22	7	11	55	51
OTU 47	0	0	0	32	0	3	138	57	0	0	0	1	0	1	69	0	8	37	0	0	1	4	1	27	0	0	0	0	0	1	0	22	1	0	0	0	0	0	32	0	0	0	17	0	0	0	0	0	28	4
OTU 48	10	0	3	11	85	13	3	0	5	40	3	15	3	125	1	7	4	3	8	9	44	5	678	11	20	19	0	0	111	54	18	198	15	16	1707	21	15	3	42	3	8	9	99	63	5	47	1	38	63	69
OTU 49	72	26	44	4	0	5	74	4	8	0	0	0	1	0	0	49	0	0	0	12	10	0	4	0	56	8	0	30	1190	48	9	3	0	4	18	7	0	11	3	0	0	0	3	19	24	0	10	45	0	34
OTU 50	15	1	104	56	44	45	49	20	4	111	37	169	2	57	75	13	65	103	346	15	40	4	48	46	10	13	242	19	9	21	68	50	32	12	50	3	102	17	106	3	20	156	2	135	25	87	29	15	189	52
OTU 51	7	32	4	27	24	45	10	7	11	1	0	299	5	4	1	3	2	0	9	0	17	7	4	3	0	8	16	3	182	12	5	18	0	27	0	7	1	40	11	3	0	37	25	0	83	244	4	156	267	27
OTU 52	28	41	49	4	123	8	76	31	285	77	57	23	4	256	42	74	91	175	1	333	17	76	18	61	54	10	13	56	188	85	79	163	12	96	22	41	137	57	93	65	9	6	438	23	110	53	801	20	46	8
OTU 53	0	0	0	0	1	0	0	0	0	0	0	0	0	0	0	24	0	0	0	2	0	3	0	0	0	0	0	0	0	0	0	0	0	0	0	0	0	0	0	0	0	0	0	0	0	0	0	0	0	0
OTU 54	30	510	48	77	63	34	1	26	24	13	2254	139	746	241	61	109	420	43	65	110	49	85	25	121	178	9	26	118	45	142	133	155	54	19	23	28	18	41	183	1124	978	11	3	121	91	101	84	141	40	51
OTU 55	0	0	0	0	0	0	0	0	0	0	0	0	0	0	0	0	0	0	0	0	0	0	0	0	0	0	0	0	0	0	0	0	0	0	0	0	0	0	0	0	0	0	0	0	0	0	0	0	0	0
OTU 56	5	0	3	24	128	0	7	3	2	3	0	0	0	17	4	9	5	1	4	11	14	35	6	0	24	3	2	11	0	1	0	1	0	0	47	4	1	19	1	0	4	5	1	45	48	0	3	0	5	0
OTU 57	206	19	259	61	16	8	136	270	16	23	12	9	14	132	205	11	12	181	69	128	23	74	19	24	150	28	31	83	162	193	209	90	522	84	32	74	55	57	106	0	41	260	168	34	101	75	8	122	122	23
OTU 58	1	17	38	0	9	3	1	0	97	14	14	19	46	14	5	6	5	9	12	7	51	2	50	0	839	42	2	220	0	77	4	3	0	17	141	93	5	17	0	20	19	14	5	83	18	65	0	0	0	9
OTU 59	23	0	1	3	22	1	10	1	22	10	8	9	2	7	15	156	35	1	32	0	43	8	2	3	5	0	8	154	42	4	0	16	12	0	3	2	25	8	4	19	7	3	93	103	6	9	71	41	60	15
OTU 60	272	3	58	73	223	33	8	16	110	53	47	45	21	12	6	11	45	66	1	70	51	14	44	6	24	9	8	32	45	99	51	22	64	3	88	20	22	22	5	16	24	16	199	114	30	3	84	46	30	44
OTU 61	27	85	330	109	282	1183	503	209	31	248	187	62	136	55	213	62	64	81	7	5	10	74	45	181	2	125	10	26	302	75	68	218	722	36	126	308	37	37	368	90	155	206	36	32	74	281	13	316	235	43
OTU 62	1	1	0	0	0	6	1	19	8	1	52	17	0	10	12	12	1	0	0	0	13	0	2	0	11	12	0	31	193	0	0	2	3	0	14	9	0	1	0	15	0	10	2	1	2	0	13	51	0	26
OTU 63	1	0	0	1	96	5	0	1	2	24	23	11	0	5	2	0	0	7	86	2	189	30	11	0	2	5	30	0	14	25	36	3	39	12	5	2	42	25	1	1	0	3	18	198	51	1	20	8	5	0
OTU 64	153	2	104	95	122	72	56	70	31	158	25	54	18	87	12	15	54	1	2	58	121	335	57	12	50	41	0	35	156	122	26	173	18	3	18	80	5	3	29	1	58	35	604	282	4	108	52	83	185	4
OTU 65	0	0	0	0	0	0	0	8	0	0	0	0	0	1	0	1	0	0	0	0	0	0	0	0	4	0	0	4	0	3	0	0	0	0	5	0	0	0	0	0	0	0	0	0	0	0	0	0	1	0
OTU 66	2	18	17	34	557	89	10	6	18	195	0	5	40	4	22	31	143	0	29	174	123	9	4	47	6	11	6	6	92	59	23	399	75	113	15	11	2	17	95	0	19	13	1	270	41	47	115	79	119	3
OTU 67	0	55	11	41	358	346	4	36	2	16	17	12	0	29	60	5	50	298	33	128	301	58	151	50	74	6	10	46	1	44	45	4	212	2	85	2	48	141	94	14	4	119	4	569	280	5	158	8	11	871
OTU 68	21	58	19	0	27	4	55	12	11	2	1	0	8	11	1	0	3	26	74	0	0	8	0	8	12	35	20	5	0	0	46	0	0	4	3	50	16	14	4	10	0	3	28	0	22	0	1	26	0	0
OTU 69	213	25	22	29	92	16	68	7	45	12	37	60	6	179	113	282	32	8	2	140	4	32	0	50	6	0	2	19	188	1	5	4	10	36	2	11	15	3	70	8	8	628	3	3	4	58	6	68	34	62
OTU 70	4	71	41	0	36	3	0	61	0	63	21	2	13	184	28	21	1	0	318	2	7	13	0	3	1	2	100	0	1	0	49	19	0	0	15	9	0	5	22	21	3671	64	0	0	15	9	10	22	0	11
OTU 71	8	0	11	3	1	0	184	0	23	3	0	7	1	25	0	1	41	5	0	34	0	3	0	1	0	11	0	2	165	47	1	16	0	61	6	25	0	2	3	0	0	23	13	12	2	0	19	7	22	4
OTU 72	108	8	0	430	34	85	27	1	12	4	39	5	4288	17	22	5	756	6	6	160	99	163	538	1	7	0	0	70	4	22	33	42	51	24	917	8	11	11	17	59	45	7	1	206	16	5	13	18	50	15
OTU 73	587	29	19	1	6	109	35	11	0	33	1	42	6	26	45	15	96	71	22	17	21	6	24	35	34	0	8	86	62	3	66	2	123	12	6	6	1	0	55	3	0	0	62	175	0	1	2	45	21	55
OTU 74	34	6	126	7	51	1	293	2	10	10	78	63	165	3	5	44	50	73	68	84	8	16	38	14	285	73	15	289	25	52	113	57	1	21	2	169	12	9	17	59	222	64	90	1	16	12	9	439	82	79
OTU 75	284	54	69	3	32	114	33	0	173	78	3	11	8	142	7	29	14	36	0	3	65	23	11	14	1	139	3	1	9	56	0	113	21	57	6	232	76	5	32	0	15	4	21	96	9	12	50	102	2	178
OTU 76	3	0	80	8	22	7	10	11	6	101	5	6	0	5	16	43	0	0	1	8	0	7	0	0	0	4	14	2731	6	10	2	4	18	1	0	9	0	19	0	1	0	115	19	0	53	0	0	0	38	0
OTU 77	54	37	7	44	30	43	48	4	8	48	19	55	2	11	56	45	14	28	1	150	34	22	8	18	82	13	2	79	24	41	15	81	36	33	13	37	4	0	19	6	8	4	62	15	1	31	99	20	32	31
OTU 78	65	24	68	39	257	61	111	31	50	48	36	0	0	17	334	72	10	4	1	0	274	41	114	50	11	13	3	6	24	4	3	37	24	1	257	15	9	15	131	20	2	72	58	375	40	0	91	127	75	32
OTU 79	64	75	199	35	126	153	151	252	222	132	117	42	42	464	113	85	116	177	10	34	253	281	18	61	85	57	14	43	116	904	52	87	93	101	37	113	79	107	119	104	42	108	224	364	173	174	162	190	88	63
OTU 80	23	44	51	71	72	123	141	3	36	37	10	12	50	534	14	61	9	2	17	243	62	19	50	7	18	24	0	72	107	12	71	33	17	3	96	57	0	188	12	115	20	0	10	138	360	26	76	32	1	115
OTU 81	190	28	16	67	45	41	0	10	123	89	10	28	3	169	9	194	24	48	2	12	37	88	11	9	39	13	13	69	117	180	12	57	65	66	7	53	9	11	14	6	22	0	32	32	23	27	3	129	53	5
OTU 82	4	8	32	78	32	9	1	70	64	74	7	2	4	225	0	91	20	0	1	0	2	17	8	22	220	3	5	12	55	2	3	1	7	23	31	3	7	1	30	1	0	33	15	15	1	17	5	63	20	993
OTU 83	2	0	0	0	0	5	0	0	1	0	0	1	2	0	1	158	1	1	0	0	0	57	27	0	3	0	0	0	1	0	2	0	0	20	12	0	2	0	1	0	0	0	0	1	0	0	0	0	0	1
OTU 84	1	3	0	0	5	7	23	0	15	20	2	4	1	17	1	13	22	17	14	2	117	3	1	6	15	4	3	0	0	9	1	76	32	153	20	7	1	52	3	0	6	1	2	127	100	54	5	0	14	129
OTU 85	0	0	15	0	10	0	18	49	0	4	2	0	6	0	7	0	1	0	34	0	2	0	1	0	0	0	11	0	0	1	23	10	2	0	1	2	2	0	12	0	0	15	6	0	0	49	2	9	38	1
OTU 86	0	0	0	0	0	0	0	2	0	0	2	2	0	0	0	0	0	0	175	31	0	0	2	0	4	0	89	0	0	0	351	46	0	0	22	1	0	0	0	0	0	0	6	0	0	0	0	0	0	0
OTU 87	23	0	14	13	107	176	3	2	0	46	1	22	0	25	0	0	16	1	5	0	138	6	0	0	0	0	2	1	5	19	62	8	86	2	15	0	4	0	1	5	4	8	55	211	0	0	0	0	0	3
OTU 88	0	0	11	29	0	0	1	9	0	0	0	0	1	0	0	0	1	0	72	18	0	69	0	0	1	0	66	0	48	0	125	1	0	35	4	0	0	0	0	0	0	26	0	0	0	13	0	0	35	9
OTU 89	3	0	0	0	2	3	5	38	0	113	0	11	0	76	5	0	3	0	0	12	63	10	0	1	26	7	0	8	0	0	0	86	0	8	1	0	0	3	21	0	0	13	0	135	7	0	0	0	12	12
OTU 90	0	5	1	0	0	0	0	0	0	0	0	0	0	0	0	10	0	7	0	6	0	1	0	0	0	0	0	0	36	0	1	0	1	0	0	0	1	0	0	0	13	1	0	0	0	0	0	0	0	0
OTU 91	0	0	173	0	0	0	0	0	0	0	3	0	8	0	0	1	0	0	0	0	0	0	0	0	0	0	0	0	0	0	8	0	0	0	0	0	0	0	0	0	0	0	0	0	0	7	0	5	0	0
OTU 92	0	3	0	6	7	0	13	5	16	25	0	25	0	1	0	2	0	0	0	0	0	3	1	0	0	15	0	2	9	14	3	2	15	0	0	45	0	0	0	0	0	0	3	0	0	63	0	49	0	0
OTU 93	0	0	0	17	2	0	0	0	0	0	0	0	0	30	0	0	3	25	0	0	0	1	0	0	0	0	0	16	11	0	0	1	0	0	0	0	11	0	0	2	1	1	4	0	0	0	4	0	0	0
OTU 94	0	90	37	472	198	3	724	21	32	147	27	27	19	6	23	172	1089	10	54	0	10	512	17	2	1	14	2	8	156	458	81	227	20	14	17	27	8	65	18	13	56	37	103	110	122	121	562	57	30	35
OTU 95	0	20	3	2	0	10	16	6	36	1	0	0	2	1	30	6	6	13	66	0	14	7	0	0	0	0	33	0	9	0	32	9	0	7	9	0	10	0	0	0	0	5	3	30	0	70	13	0	0	1
OTU 96	0	0	16	0	9	0	0	3	0	0	0	0	0	0	0	2	0	0	22	0	0	0	0	0	0	0	9	0	0	0	26	0	0	0	0	0	0	0	0	0	0	0	0	0	0	1	0	0	0	0
OTU 97	0	27	0	0	0	0	0	21	23	0	0	0	0	38	5	8	0	0	1	0	0	0	0	2	2	0	0	8	43	38	5	0	1	0	26	0	0	0	9	0	0	0	0	0	0	11	8	1	12	0
OTU 98	45	40	0	52	0	1	0	2	9	0	29	32	20	0	0	8	11	8	51	0	5	12	5	0	44	0	447	17	175	28	171	0	0	3	5	0	0	0	5	27	0	1	1	2	0	0	6	0	0	7
OTU 99	201	0	39	11	16	5	54	9	23	325	66	73	46	88	78	52	153	26	19	124	15	53	35	49	50	24	61	28	53	13	29	16	10	21	38	105	47	39	54	31	77	39	13	67	53	91	20	93	16	18
OTU 100	66	9	30	0	27	31	17	157	71	2	48	20	1	0	5	84	10	320	31	28	11	6	8	27	3	35	1	110	45	17	2	6	26	26	15	72	199	4	47	0	3	19	1	89	5	34	2	14	2	1
OTU 101	4	1	15	0	0	0	0	0	40	2	7	0	0	0	0	0	32	0	0	106	0	0	0	0	0	5	0	0	0	0	6	0	1	0	0	2	0	0	1	0	0	0	0	0	0	0	0	0	0	0
OTU 102	10	1	0	2	0	0	0	0	1	0	8	0	0	72	0	21	0	0	2	5	6	0	7	0	0	0	8	0	0	2	2	0	0	13	15	2	0	0	6	0	0	5	0	12	0	0	0	25	32	1
OTU 103	156	0	2	15	1	43	6	15	90	11	0	5	1	40	15	60	5	0	6	11	0	0	9	20	65	2	5	46	7	6	15	2	12	10	73	4	0	0	49	5	3	11	27	5	1	10	27	0	4	17
OTU 104	120	30	148	0	62	2	68	110	63	40	9	60	0	134	47	8	26	49	27	75	2	67	12	61	16	9	22	6	56	125	86	62	20	19	49	4	39	1	107	1	13	49	86	25	4	0	118	17	37	3
OTU 105	9	33	0	0	0	47	0	0	41	0	0	6	0	25	19	11	7	0	7	0	39	0	0	1	78	0	1	0	0	3	39	2	17	7	0	0	0	0	3	4	0	0	4	5	0	68	21	4	2	0
OTU 106	0	1	0	13	1	5	0	0	8	27	0	0	1	0	0	0	5	0	0	0	0	0	2	17	1	4	0	9	0	0	1	28	3	3	0	0	0	0	28	0	0	0	0	15	2	20	0	12	8	0
OTU 107	32	1	5	9	0	3	21	0	14	0	72	0	57	48	41	0	0	48	0	0	12	8	7	4	16	15	0	23	6	0	0	2	0	4	41	15	0	2	20	46	53	47	0	5	11	0	0	292	2	7
OTU 108	8	111	96	8	0	18	53	0	1	53	0	3	4	0	0	84	5	44	5	0	62	50	2	10	75	0	2	2	0	0	0	0	37	3	27	2	5	0	3	0	2	1	1	98	6	6	0	5	4	18
OTU 109	0	0	0	0	0	0	0	0	0	0	0	0	0	1	0	0	0	0	0	0	0	0	0	0	0	1	0	0	0	0	0	0	0	0	0	0	1	0	0	0	0	0	0	0	0	0	0	0	0	0
OTU 110	4	0	75	93	2	142	31	6	2	0	45	50	67	5	31	59	11	0	43	45	88	9	21	4	50	0	30	15	37	122	41	1	45	0	94	5	6	23	4	26	6	0	37	106	35	0	513	50	5	3
OTU 111	0	0	0	0	20	0	0	0	5	0	2	0	0	0	1	0	0	0	0	0	1	30	36	0	40	0	0	22	1	2	0	0	0	0	4	0	0	0	2	3	25	0	12	0	0	0	9	2	233	4
OTU 112	7	9	21	11	5	4	22	94	0	3	9	0	0	184	57	92	32	20	4	0	0	14	13	6	23	0	2	2	0	64	38	12	0	25	39	13	7	0	18	13	19	42	12	31	1	13	26	11	9	11
OTU 113	0	0	4	0	0	6	0	0	0	21	0	0	0	0	0	86	0	0	0	3	11	2	0	3	1	0	0	0	0	1	0	0	0	0	1	0	0	0	1	0	0	0	0	0	0	0	0	0	0	0
OTU 114	5	124	43	112	42	293	2	197	6	92	26	112	5	3	80	102	71	51	39	89	150	23	31	83	179	15	16	49	36	0	85	14	120	29	56	50	22	8	202	63	48	2802	46	216	16	182	318	43	163	172
OTU 115	48	42	59	90	16	60	172	135	117	115	246	75	60	66	1	157	16	17	33	189	285	9	169	74	98	25	28	16	61	413	58	80	32	47	7	62	17	15	116	63	72	92	93	47	40	93	75	91	76	19
OTU 116	9	531	3	197	80	27	14	350	158	176	0	712	5	105	558	12	764	253	1	17	6	263	328	537	5	19	3	12	48	9	18	205	18	78	540	57	222	0	1100	1	103	315	9	27	0	708	27	91	5	25
OTU 117	149	71	3	18	47	36	1	3	23	3	12	36	56	6	54	9	36	44	7	46	46	6	0	5	94	0	18	78	1	155	3	2	3	70	20	1	0	1	4	0	0	41	3	123	3	95	18	61	6	93
OTU 118	1	0	3	0	0	0	1	0	0	0	0	0	1	27	23	3	10	0	103	8	0	1	0	0	0	3	43	0	298	0	255	20	0	0	0	0	8	0	0	0	8	0	0	0	4	0	0	0	1	0
OTU 119	2	56	80	3	43	98	40	50	36	1	0	11	8	29	61	39	3	0	15	34	39	3	2	5	163	38	6	17	74	46	30	4	44	40	1	66	8	58	28	0	19	4	134	75	88	44	100	57	10	59
OTU 120	0	9	98	0	0	5	35	23	36	10	1	4	4	0	0	1	0	0	0	28	1	3	6	1	1	0	0	226	27	0	0	17	0	1	0	0	0	0	21	0	2	1	0	0	0	88	9	0	76	0
OTU 121	0	19	2	9	0	1811	0	0	38	11	1	0	16	11	4	117	0	23	23	106	39	93	0	1	5	26	13	59	256	35	17	2	550	8	1	62	0	23	1	0	0	8	36	102	50	44	15	1	0	72
OTU 122	163	2	6	1423	0	11	54	0	498	4	166	6	16	4	13	83	0	19	93	166	39	42	1	0	106	9	39	8	66	52	104	23	8	2	18	4	98	67	0	100	61	7	4	60	116	8	75	0	2	22
OTU 123	140	142	160	59	58	104	147	93	173	220	62	67	57	96	98	275	129	89	95	65	65	110	163	95	331	2371	44	198	132	392	164	99	137	109	277	91	45	49	132	19	71	164	94	164	96	140	110	106	1648	96
OTU 124	0	0	26	0	19	1	0	19	72	0	0	0	0	84	4	75	1	1	21	0	9	38	2	0	26	0	15	6	20	4	27	22	0	1	0	0	0	0	0	0	13	43	34	0	0	2	0	0	0	22
OTU 125	212	56	243	38	65	113	540	116	148	101	180	21	18	121	222	197	114	138	71	124	60	152	94	107	188	30	32	230	249	152	50	77	69	29	93	76	35	19	197	58	124	148	305	193	33	139	79	146	103	19
OTU 126	0	1	1	0	0	0	25	0	0	0	0	0	0	0	0	0	0	4	0	5	0	0	0	0	0	0	1	0	0	0	15	0	0	0	0	0	2	0	18	0	0	0	1	0	0	7	0	0	0	52
OTU 127	10	32	20	8	45	39	64	4	32	61	27	0	232	76	6	20	120	122	13	46	40	1	1	0	0	669	8	0	21	94	22	56	19	2	2	63	184	36	7	30	20	2	4	49	65	15	62	193	52	3
OTU 128	126	266	268	149	1055	136	198	104	209	872	182	159	286	489	38	298	61	45	348	170	143	1258	26	73	489	86	170	321	74	170	515	150	45	81	39	110	20	59	186	142	101	58	685	263	127	375	124	276	69	141
OTU 129	2	0	0	1	0	0	0	0	6	0	3	2	1	15	6	0	135	28	0	0	0	9	111	0	3	0	0	14	0	0	5	0	0	0	155	0	33	0	0	0	0	0	0	0	0	1	0	0	75	0
OTU 130	13	0	889	4	25	45	87	28	1	72	44	17	33	2	13	1	49	7	12	15	8	3	22	17	1	24	4	10	28	70	15	7	0	38	31	15	2	45	46	65	17	86	35	2	98	52	69	80	24	9
OTU 131	44	7	161	48	7	9	5	10	1	34	2	10	0	3	254	0	11	7	419	96	0	11	7	78	22	6	235	2	0	13	997	18	16	4	7	1	0	1	182	3	1	2	822	8	1	86	9	1	106	39
OTU 132	0	56	117	38	5	1	0	0	0	2	0	1	0	71	4	8	0	1	0	0	10	1	24	1547	2	0	1	5	11	2	4	0	3	46	41	0	0	0	45	3	1	17	1	0	0	7	5	0	7	2
OTU 133	68	0	6	0	0	0	7	7	0	0	0	10	0	74	1	0	0	1	1	0	0	34	0	0	0	0	0	0	0	1	0	19	0	32	0	0	8	0	0	3	0	14	0	18	0	23	7	20	0	0
OTU 134	9	0	2	125	147	6	2	18	28	5	27	1	41	198	0	20	187	84	46	26	1	133	16	6	15	3	20	16	121	1	41	7	46	22	13	0	0	14	10	0	4	49	29	10	25	0	40	0	28	3
OTU 135	0	101	6	38	76	2	1	3557	1	175	181	27	25	8	95	21	94	3	8	16	32	45	0	18	8	46	6	8	16	0	25	4	10	9	1	45	1	33	38	65	50	0	5	49	59	34	1	68	10	276
OTU 136	3	0	1	1	3	1	7	9	2	11	126	4	0	4	9	2	0	22	6	247	2	37	48	0	0	16	0	0	0	1	0	7	2	0	15	55	0	0	1	51	58	2	0	48	0	7	41	27	92	88
OTU 137	0	1	22	0	0	0	2	2	0	0	0	5	0	5	3	0	1	0	8	3	0	10	0	0	2	0	2	4	5	58	0	3	4	21	30	0	5	1	2	0	2	0	1	0	4	0	0	0	0	2
OTU 138	1	0	3	0	72	77	31	30	0	49	31	5	19	0	1	186	3	7	1	4	8	9	0	0	78	6	0	18	0	4	2	3	4	9	0	0	1	3	0	2	81	1	0	45	2	6	38	0	0	15
OTU 139	14	166	190	18	352	4	163	135	133	88	42	302	8	91	81	44	71	13	2	39	28	38	64	76	5	8	0	5	220	61	12	76	29	38	45	11	15	9	109	7	7	47	124	75	19	557	79	25	56	12
OTU 140	131	27	36	4	64	562	22	0	69	164	548	11	483	32	6	107	41	47	107	100	50	19	82	7	203	126	85	16	149	137	143	316	351	243	161	293	98	24	4	197	162	70	7	88	45	11	51	322	121	37
OTU 141	0	0	0	0	0	0	0	0	0	0	0	0	0	0	0	0	0	0	0	0	1	0	0	0	0	0	0	0	0	0	0	0	0	0	0	0	0	0	0	0	0	0	0	0	0	0	0	1	0	0
OTU 142	25	0	0	0	0	0	0	0	1	0	11	1	0	0	0	0	0	0	0	0	0	0	0	5	0	0	0	0	0	0	0	0	0	0	4	0	0	0	13	0	0	1	0	0	0	0	0	0	6	0
OTU 143	21	0	0	0	33	14	105	3	0	5	2	0	0	47	0	3	0	2	0	0	0	0	0	0	75	1	0	0	0	0	0	0	0	0	14	1	1	0	1	0	0	0	0	6	1	0	15	3	2	0
OTU 144	8	0	0	5	3	0	26	6	0	7	1	0	0	14	1	0	23	0	9	1	10	0	0	0	38	9	0	11	3	0	5	1	1	5	0	9	1	5	0	1	1	0	1	0	12	0	10	115	0	0
OTU 145	71	58	40	419	10	9	132	251	39	13	38	81	34	116	294	19	98	40	79	3	8	342	117	343	35	5	17	52	392	91	8	35	22	9	248	4	20	8	619	622	2	288	49	33	27	56	2	35	45	71
OTU 146	47	73	26	10	0	0	29	65	5	166	4	3	5	52	21	10	50	4	22	2	64	0	21	21	201	0	7	110	130	1	136	36	0	21	36	12	39	3	30	0	8	2	355	39	7	50	1	30	4	2
OTU 147	6	0	13	0	29	0	0	1	11	0	21	2	78	9	0	82	0	10	25	6	0	3	0	4	113	6	48	9	0	234	54	0	7	11	0	18	42	7	1	45	49	0	6	6	12	0	0	218	10	49
OTU 148	5	713	30	26	0	20	0	4	15	38	6	626	18	25	2052	119	20	1	32	0	0	1	7	3	80	28	27	4	35	16	61	163	10	9	48	85	0	17	16	5	48	15	21	0	45	1049	27	84	288	11
OTU 149	13	20	6	0	64	0	69	4	372	1	17	0	1	27	3	0	1	38	6	0	12	4	1	13	178	12	0	60	5	1	5	43	9	2	0	43	0	0	0	4	0	2	14	4	0	3	2	2	46	0
OTU 150	0	4	29	2	16	2	78	0	0	122	2	0	0	2	0	0	0	10	0	71	0	26	19	0	2	2	1	8	0	8	1	0	0	3	0	9	0	0	0	0	0	1	70	1	0	0	0	1	6	0
OTU 151	9	150	0	2250	3	0	42	16	5	0	17	30	12	20	44	67	2	9	1	8	18	0	14	14	3	0	0	0	1	0	0	0	35	27	49	0	11	3	17	28	0	13	28	5	3	78	73	26	53	2
OTU 152	45	30	0	29	451	8	0	4	23	10	10	284	6	36	15	8	22	16	101	10	0	27	0	46	57	1	44	0	6	164	241	44	0	70	5	4	44	1	67	9	39	111	3	60	3	563	42	20	109	34
OTU 153	0	4	81	0	0	0	1	19	0	0	0	2	3	0	0	9	0	0	0	2	0	0	9	0	0	0	0	1	0	0	0	2	0	0	0	0	6	9	0	1	0	5	0	2	11	0	0	0	2	2
OTU 154	0	0	21	1	3	0	60	0	0	0	0	0	2	1	0	16	3	0	0	0	0	0	5	0	0	0	0	31	0	0	0	0	0	0	0	0	0	0	0	0	0	3	1	14	0	1	6	0	0	7
OTU 155	1	21	0	0	91	0	19	0	21	2	7	7	15	1	3	0	9	1	0	13	83	42	11	23	138	31	3	10	0	73	3	15	15	51	14	53	29	4	71	9	2	89	1	60	4	23	1	20	7	2
OTU 156	0	6	7	17	77	13	91	42	151	159	6	80	42	664	83	845	3	45	23	3	12	37	7	7	24	6	44	1675	39	42	188	122	83	55	6	13	54	7	28	5	10	95	118	21	14	92	39	9	0	2
OTU 157	115	3	0	0	1	0	2	0	0	255	0	0	0	231	1	2	0	6	0	26	0	1	1	0	15	0	8	0	1	10	53	7	31	27	0	0	0	28	1	6	0	0	3	39	66	4	3	4	38	10
OTU 158	0	0	0	0	0	0	0	0	0	0	0	10	0	0	0	0	0	0	0	0	1	0	0	0	0	0	0	0	0	0	0	0	0	0	0	0	0	0	0	0	0	0	8	0	0	0	0	0	0	0
OTU 159	12	30	0	52	10	5	1	1	7	5	24	9	4	90	14	44	1	85	31	48	13	5	0	22	8	0	19	2	49	31	64	12	4	0	0	0	1	2	56	8	897	7	141	20	6	1	7	0	0	2
OTU 160	60	109	26	48	120	52	1283	24	31	415	49	24	26	29	2	165	11	44	77	169	109	87	32	22	38	2	30	26	135	49	68	21	50	325	72	4	16	3	41	2103	26	26	106	176	16	242	86	79	107	9
OTU 161	16	3	0	15	22	129	5	46	0	91	3	4	3	3	5	20	3	25	0	525	24	41	6	17	4	64	0	3	6	97	16	903	38	236	17	93	33	15	49	16	12	10	107	54	38	24	24	12	75	375
OTU 162	1	1	106	6	20	10	5	12	41	2	2	32	0	0	22	7	0	29	0	66	7	31	34	11	85	4	2	28	32	74	5	19	4	86	33	24	13	2	14	6	2	0	5	66	1	1	4	7	60	27
OTU 163	0	0	0	0	0	12	0	0	1	0	0	0	0	0	0	0	0	0	0	0	0	0	0	0	0	0	0	0	0	0	0	0	0	0	0	0	0	0	0	1	0	0	0	0	0	0	0	0	0	0
OTU 164	0	0	0	0	0	0	0	0	0	0	1	0	14	0	0	1	0	0	0	0	11	0	0	0	8	0	0	0	51	0	0	0	1	0	0	0	0	0	0	0	0	2	0	2	0	0	0	0	0	1
OTU 165	23	8	39	0	168	0	1	14	0	6	3	1	3	72	4	8	3	0	2	106	87	0	9	5	7	0	22	4	17	2	0	75	3	22	4	3	0	0	1	4	12	20	0	192	0	5	2	26	13	93
OTU 166	0	0	0	0	0	0	0	0	22	0	0	0	0	0	0	0	0	1	0	0	0	10	0	0	0	0	0	0	84	0	1	28	0	45	0	0	0	0	0	0	0	0	0	0	0	0	0	0	0	0
OTU 167	28	0	0	0	10	1	0	23	17	15	0	9	8	117	6	52	24	8	0	0	0	0	4	9	5	7	0	0	21	1	3	8	3	0	0	23	1	16	9	2	8	33	2	0	42	49	3	4	0	54
OTU 168	27	2764	58	22	17	7	145	67	53	108	32	126	9	1	29	77	0	8	34	14	12	12	0	33	115	14	4069	92	58	15	41	20	11	14	11	59	3	6	63	11	5	90	35	8	14	67	42	55	74	24
OTU 169	0	0	0	1	0	1	1	0	0	1	0	0	0	0	0	0	0	0	0	0	0	0	4	0	0	0	1	0	0	0	0	0	0	0	10	0	0	1	0	0	0	0	0	0	1	0	0	0	0	0
OTU 170	0	0	0	0	0	5	6	0	0	0	0	0	0	0	0	0	13	0	0	16	2	7	0	1	0	0	0	0	0	0	0	1	0	13	0	0	0	0	0	0	0	0	0	0	0	0	0	0	0	71
OTU 171	8	56	40	47	259	499	0	8	39	9	38	0	0	0	1	34	0	0	6	470	228	4	39	0	12	0	17	31	147	0	8	0	220	1	8	7	1	20	0	2	4	0	11	452	26	9	250	1	6	240
OTU 172	0	0	1	0	2	0	0	4	0	0	21	0	0	0	0	26	0	4	68	0	0	1	0	0	4	0	15	3	0	9	42	41	7	0	1	0	0	2	0	17	3	0	0	0	3	0	0	0	0	51
OTU 173	13	1	9	19	0	0	7	53	86	1	0	5	0	9	0	21	73	12	4	1	0	11	14	1272	10	15	1	0	75	3	16	64	0	4	10	3	0	1	41	0	0	8	0	34	1	0	5	0	72	0
OTU 174	5	30	67	36	0	2	109	12	2	193	7	23	1	30	25	17	30	2853	0	16	5	11	6	19	35	18	1	33	0	117	5	62	10	73	4	23	1606	23	31	9	1	54	0	0	56	88	1	10	6	0
OTU 175	14	1	30	3	0	3	1	53	64	64	86	53	32	2	33	74	0	6	0	0	13	24	27	0	50	29	7	8	43	10	0	1	13	2	49	106	0	0	0	38	31	1	3	25	1	21	16	146	1	95
OTU 176	45	65	562	119	56	23	112	60	118	20	68	201	64	3	46	72	71	48	36	52	7	68	15	69	22	84	27	1	1	42	21	80	29	5	60	160	11	0	121	300	32	107	38	41	0	171	12	46	16	152
OTU 177	22	6	17	31	2	0	8	13	167	85	26	19	0	38	1	10	6	87	126	97	1212	10	64	51	3	13	53	3	43	8	221	0	3	35	90	31	22	6	104	37	14	9	61	14	8	19	458	46	81	0
OTU 178	40	0	45	13	0	37	11	24	1	79	32	11	4	24	0	119	6	33	2	1	0	0	9	1006	5	0	0	5	5	7	2	0	3	9	27	5	0	3	0	8	10	1	38	0	4	21	8	7	3	0
OTU 179	47	0	86	2	0	27	0	4	2	3	47	2	0	0	6	2	4	26	13	0	3	16	40	1	68	118	1	27	86	1	41	32	0	2	55	348	3	4	1	39	17	15	26	30	12	0	1	55	194	11
OTU 180	102	89	107	156	97	38	41	223	28	164	19	6	77	24	81	274	86	166	68	256	45	1065	29	133	220	840	43	92	156	32	100	20	32	25	178	46	46	1	270	6	47	143	171	72	2	157	128	187	24	117
OTU 181	0	1	0	0	40	0	20	1	83	2	0	13	26	88	1	98	1	959	36	104	4	72	2	0	0	8	11	0	0	26	113	29	1	63	0	25	558	12	0	3	4	0	1	5	22	0	7	3	59	13
OTU 182	0	0	2	0	0	0	5	0	0	0	0	0	0	6	0	0	0	44	0	0	0	1	1	0	0	0	6	0	0	0	8	0	7	0	12	0	9	0	0	0	0	0	18	0	0	0	0	14	0	0
OTU 183	0	0	9	139	115	2	0	4	0	11	24	6	0	52	45	3	19	32	183	27	52	107	37	0	190	3	37	39	7	3	517	36	13	10	40	7	0	4	2	0	7	17	243	17	6	8	17	33	3	0
OTU 184	5	15	22	1	3	26	7	39	7	33	0	0	27	0	0	1	6	0	0	9	32	0	1	8	5	0	0	0	39	0	0	166	4	172	0	0	0	1	10	13	0	0	33	157	4	2	5	0	6	47
OTU 185	7	6	108	1	48	7	24	29	35	6	12	5	8	2	20	7	11	8	1	10	36	18	2	6	109	31	2	86	27	31	32	154	7	249	41	79	0	74	18	8	7	84	8	216	146	4	50	6	33	1
OTU 186	134	2	0	0	0	0	62	20	1	76	0	2	1	0	0	0	0	1	81	1	25	0	0	11	19	3	40	4	13	58	8	0	2	41	0	18	0	24	24	2	0	0	12	0	52	0	29	0	16	1
OTU 187	303	63	48	278	101	0	2	29	19	129	28	32	5	115	12	99	726	16	9	11	49	465	12	7	186	36	13	66	17	25	13	84	28	30	6	55	0	53	8	63	25	48	94	23	100	54	146	145	633	17
OTU 188	97	28	24	155	121	79	28	48	171	6	299	67	202	11	80	55	180	20	31	73	55	40	24	144	56	69	28	0	24	6	53	80	12	8	36	107	1	88	284	68	132	101	19	111	172	4	53	299	39	199
OTU 189	235	3	19	7	12	21	17	52	515	121	3	4	37	69	40	311	77	10	38	146	22	35	13	42	278	12	18	5	41	33	86	121	26	72	3	41	3949	83	55	11	59	31	62	94	152	82	157	18	15	120
OTU 190	0	0	14	0	17	0	10	0	6	63	0	0	8	0	2	0	2	0	14	11	0	0	0	0	0	0	0	17	0	0	22	0	2	0	0	0	0	2	7	0	0	0	18	0	8	0	8	0	0	0
OTU 191	56	3	33	177	2	3	57	22	1	893	30	2	41	151	39	89	478	31	29	3	2872	756	75	20	15	14	33	0	121	198	164	40	3	63	139	37	1	0	15	16	15	15	132	98	1	52	8	37	79	3
OTU 192	157	373	403	12	24	200	183	20	7	17	14	418	31	31	1	162	4	29	14	70	106	4	20	19	26	81	22	6	62	82	92	39	49	75	28	75	41	1095	59	16	22	10	61	153	124	476	7	259	51	170
OTU 193	9	0	2	11	0	0	6	20	81	11	40	0	146	5	1	58	1	5	11	9	2	0	1	0	20	673	6	16	155	77	29	117	0	57	37	26	3	1973	1	15	28	6	0	0	4026	10	251	3	1	33
OTU 194	214	11	892	1	0	1	0	9	23	2	8	5	2	5	26	31	0	0	8	3	7	1	1	43	39	0	0	13	11	173	0	0	0	9	0	0	9	0	85	5	18	1	0	49	0	0	21	0	1	43
OTU 195	39	2	1	1	13	8	2	1	14	0	0	35	4	53	4	0	64	4	4	48	0	73	3	0	18	0	1	3	342	44	22	2	5	12	0	0	3	65	1	3	1	57	22	16	120	11	5	20	17	28
OTU 196	12	4	14	0	18	4	11	0	251	20	10	0	16	25	4	7	9	5	72	4	15	1	0	19	20	0	23	1	64	25	90	0	3148	0	7	3	1	737	28	4	3	20	141	5	21	13	0	44	1	16
OTU 197	23	41	54	33	189	161	58	30	73	28	28	27	3	34	7	103	19	0	82	251	68	3	5	21	620	65	56	469	115	159	214	154	81	101	55	82	4	55	60	14	6	36	4	52	83	28	57	13	45	1619
OTU 198	0	21	9	1	0	9	0	0	3	0	1	1	2	0	0	0	0	1	37	0	0	0	1	19	45	0	6	13	2	51	11	14	0	1	2	1	0	20	6	0	2	0	8	0	31	0	0	12	93	0
OTU 199	4	0	1	5	0	6	14	155	0	0	2	2	1	0	83	7	57	0	4	0	0	87	4	88	50	1	2	8	2	1	2	3	3	28	34	7	28	1	187	27	0	21	0	1	1	0	13	94	145	0
OTU 200	37	25	0	27	18	27	64	1	12	16	1	48	0	0	42	13	64	9	1	8	17	5	1	3	35	7	0	17	14	3	0	16	4	29	0	7	7	1	1	12	25	31	35	16	4	20	8	0	95	28
