	Host 1	Host 2	Host 3	Host 4	Host 5	Host 6	Host 7	Host 8	Host 9	Host 10	Host 11	Host 12	Host 13	Host 14	Host 15	Host 16	Host 17	Host 18	Host 19	Host 20	Host 21	Host 22	Host 23	Host 24	Host 25	Host 26	Host 27	Host 28	Host 29	Host 30	Host 31	Host 32	Host 33	Host 34	Host 35	Host 36	Host 37	Host 38	Host 39	Host 40	Host 41	Host 42	Host 43	Host 44	Host 45	Host 46	Host 47	Host 48	Host 49	Host 50	
OTU 1	77	248	0	17	296	115	204	63	51	82	0	334	9	50	2	2	40	26	125	12	402	111	61	383	2	6	154	36	101	4	1	9	16	172	9	88	172	122	63	30	137	20	0	0	422	105	706	52	11	937
OTU 2	0	45	9	21	0	10	1	1	59	43	38	2	0	2	0	2	9	30	3	22	0	75	3	3	0	2	13	150	0	43	17	0	0	8	0	0	0	0	0	5	0	0	78	14	1	14	1	0	3	0
OTU 3	1	6	1	0	26	0	34	0	10	101	5	0	42	0	0	13	36	0	2	0	0	2	0	61	6	2	12	32	20	3	9	4	0	48	5	32	0	0	0	26	1	4	7	1	1	11	0	4	15	0
OTU 4	0	0	0	0	0	0	0	0	0	0	0	0	0	0	0	0	3	0	0	0	0	0	0	0	0	0	0	0	0	0	0	0	0	0	0	0	0	0	0	0	0	0	1	0	0	0	0	0	0	0
OTU 5	590	6	1037	41	30	880	200	478	131	29	796	127	223	26	0	36	530	349	509	447	283	506	84	138	44	106	272	0	485	1107	155	495	659	305	4	171	0	157	17	2197	75	45	0	1045	762	190	284	97	45	333
OTU 6	0	53	2	31	17	21	17	7	7	4	1	5	113	11	0	1	4	4	93	123	0	60	2	35	53	11	1	20	14	11	24	42	4	35	134	12	21	0	29	0	0	0	0	5	0	1	0	0	27	0
OTU 7	34	24	167	46	65	82	19	45	134	385	40	22	241	13	19	9	63	19	336	979	42	29	207	36	55	43	59	27	44	23	521	101	234	311	39	200	79	83	22	23	67	27	46	40	14	46	12	316	43	112
OTU 8	160	276	5	33	53	1315	5	655	1642	101	36	70	100	114	101	62	53	82	65	119	89	155	90	9	96	5	61	154	772	22	49	53	98	1	54	1	1418	49	144	28	7	7	19	132	10	797	59	85	58	115
OTU 9	39	86	0	0	0	4	0	1	0	41	4	0	6	2	114	5	13	0	46	94	1	0	0	3	0	6	461	0	0	89	2	0	24	193	1	2	27	386	0	2	8	0	40	0	0	0	0	17	0	0
OTU 10	42	9	0	0	0	36	1	12	29	43	0	0	0	47	5	34	48	1	109	40	0	0	3	1	128	92	4	3	2	0	3	0	1	0	0	0	26	1	23	31	0	1157	0	13	0	20	16	41	839	1
OTU 11	60	75	40	0	29	45	21	23	0	0	6	11	27	75	4	49	39	36	5	7	8	10	2	34	74	1	30	6	10	13	42	10	20	22	58	9	4	48	35	10	3	6	70	18	9	0	21	53	18	10
OTU 12	23	6	63	19	5	25	8	9	7	43	48	6	109	120	44	264	83	7	31	0	4	7	8	20	33	3	144	26	50	51	85	4	169	13	11	11	3	8	33	80	0	100	2	89	6	23	12	91	257	2
OTU 13	0	16	0	1	7	0	0	0	0	6	0	0	0	0	1	0	12	0	0	0	0	0	0	0	0	4	0	2	0	0	0	87	18	0	0	0	3	9	1	26	0	6	0	0	0	0	0	4	0	2
OTU 14	18	43	5	11	11	4	7	2	2	1	5	0	0	0	20	0	0	0	55	7	0	0	0	11	1	631	14	33	0	7	0	3	33	1	34	29	22	0	0	0	0	125	120	14	0	42	13	36	103	0
OTU 15	0	0	0	0	0	0	0	0	35	0	3	0	68	0	0	0	0	0	4	0	0	0	5	0	0	0	0	0	0	1	0	12	0	0	0	0	0	0	0	1	0	60	0	0	0	14	0	0	78	0
OTU 16	0	0	0	0	0	0	0	0	0	0	0	0	0	0	1	0	0	0	0	0	0	0	0	0	2	0	0	0	0	29	0	19	0	0	15	0	0	0	0	0	0	0	0	0	0	0	0	27	0	0
OTU 17	10	79	119	0	23	0	21	0	33	1	41	0	16	39	10	59	14	1	1	16	3	85	24	31	3	15	2	118	5	1	0	0	0	11	30	1	7	0	1	5	14	42	25	0	1	20	11	0	252	3
OTU 18	13	116	22	85	38	328	4464	119	277	32	39	71	18	1	62	2	35	3	74	156	59	74	18	191	97	1	38	43	94	214	9	1	103	107	13	5	284	4	165	17	4	15	50	156	1	147	26	12	7	84
OTU 19	0	0	0	0	0	6	0	2	0	0	0	0	0	0	0	0	0	0	0	0	0	0	0	0	0	0	2	0	0	3	0	0	0	0	0	0	0	0	0	0	0	0	0	0	0	1	0	6	0	0
OTU 20	151	18	1	66	1	19	0	16	72	80	12	0	8	22	2	11	0	4	3	0	1	17	8	0	10	46	2	92	33	2	35	2	13	2	3	13	240	0	1	1	0	1	956	5	11	111	3	32	2	5
OTU 21	17	45	235	0	36	52	108	12	36	5	342	3	30	2	87	11	2	10	8	3	0	71	6	211	67	20	34	14	12	13	14	3	352	42	15	48	1	7	11	9	20	0	43	63	2	30	7	39	30	0
OTU 22	103	55	9	42	4	0	101	0	4	63	12	8	188	5	2	17	13	0	3	26	25	0	1	177	36	11	45	42	2	0	12	42	4	38	83	8	24	28	74	13	10	42	140	19	1	1	0	4	8	28
OTU 23	42	0	4	2	175	122	2	65	0	8	0	13	1	4	5	21	3	14	3	11	2	25	26	9	0	0	10	43	64	7	18	2	19	5	59	9	0	0	0	1	48	1	9	0	0	6	7	25	61	26
OTU 24	6	10	2	42	21	11	0	6	4	54	28	7	1	18	94	30	1	21	19	1	5	0	2	0	19	15	26	0	5	13	14	16	1	2	36	8	6	45	51	0	0	45	46	2	13	19	2	24	67	6
OTU 25	0	10	0	0	0	0	0	0	0	0	0	0	106	0	0	0	0	0	104	0	1	25	11	0	0	0	0	0	0	0	19	0	0	0	0	0	0	31	5	0	0	2	0	0	0	0	0	0	0	0
OTU 26	0	0	12	0	0	0	0	0	0	0	0	0	0	0	0	0	24	5	2	0	1	50	0	0	0	0	2	1	0	0	0	0	0	0	0	0	0	9	0	4	0	11	16	70	3	0	0	0	0	0
OTU 27	0	0	0	0	0	0	0	7	0	0	0	0	0	0	0	0	0	0	0	0	0	2	0	0	0	0	0	0	0	0	0	0	0	0	0	0	0	0	25	1	0	4	0	0	0	0	0	0	0	0
OTU 28	39	75	82	21	94	17	14	2	1	7	20	25	23	479	15	312	34	18	10	41	0	101	8	37	2266	28	13	100	0	33	211	14	10	22	33	2	29	1	24	5	0	50	72	5	8	2	11	88	52	0
OTU 29	154	16	0	13	20	57	20	32	5	5	40	3	32	22	59	11	24	5	26	0	5	25	22	37	0	75	162	40	18	13	18	52	55	11	44	77	12	51	65	23	23	10	25	61	1	1	66	152	18	1
OTU 30	0	0	0	0	0	0	0	0	0	0	0	0	0	0	181	0	0	0	0	0	0	0	0	0	0	0	0	0	0	0	0	0	0	0	0	0	0	0	0	0	0	0	0	0	0	0	0	0	1	0
OTU 31	171	35	160	3	0	7	4	5	40	293	54	2	27	7	0	15	239	2	453	24	18	0	348	3	4	143	1	0	18	6	60	1	49	7	18	3	35	0	56	130	134	7	19	11	16	24	14	181	15	46
OTU 32	82	22	64	2824	2	9	0	8	0	36	27	23	21	180	44	16	103	11	155	52	31	20	10	1	89	12	15	90	17	18	11	65	45	18	11	7	0	86	203	72	120	2	811	40	18	4	47	8	37	22
OTU 33	0	0	0	0	3	2	0	0	0	0	5	0	0	0	5	0	83	0	0	2	0	0	0	0	0	0	0	0	4	0	0	0	0	0	9	0	0	0	3	10	0	0	0	0	0	0	1	0	0	0
OTU 34	1365	22	4	1	0	19	2	2	4	5	11	11	54	73	21	24	161	9	1	23	7	47	23	8	5	27	0	0	532	10	69	5	24	4	10	0	6	8	25	88	185	26	0	31	57	5	2	1	1	41
OTU 35	18	1	44	64	31	4	6	0	86	265	537	57	0	29	1	0	2	48	78	1	36	20	16	17	152	0	21	59	13	0	22	93	139	6	48	35	3	26	127	1	0	25	10	0	6	54	30	6	82	63
OTU 36	39	6	130	2	59	7	0	1	952	16	0	25	0	1	1	1	5	10	65	11	12	0	60	0	3	2	186	104	0	12	11	52	0	0	10	0	5	17	26	0	4	3	2	55	19	378	43	58	23	11
OTU 37	1	0	10	0	0	0	0	0	2	0	9	0	0	1	0	0	0	2	3	0	0	0	2	0	0	0	0	0	1	8	6	33	0	0	0	5	0	20	4	0	0	10	0	17	5	3	8	0	0	0
OTU 38	48	76	106	4	495	33	34	9	15	184	24	1	3	161	0	16	74	164	21	0	3	0	20	88	121	6	109	220	4	15	2	871	46	38	12	54	4	56	17	23	178	35	189	3	6	24	0	69	162	6
OTU 39	6	21	35	0	3	14	0	22	0	3	11	2	2	2	10	0	7	0	0	1	0	14	6	0	19	0	12	52	0	31	0	2	0	5	4	0	0	0	0	0	0	28	3	0	4	2	0	57	98	0
OTU 40	18	77	106	6	16	130	3	74	8	3	36	17	122	242	6	175	12	5	0	4	10	26	24	13	16	110	150	5	23	129	157	15	150	2	8	10	64	20	0	17	11	8	29	45	2	28	0	101	7	35
OTU 41	75	1	0	5	2	15	0	4	14	14	1	14	99	86	56	49	1	22	1	34	1	4	34	2	0	0	41	1	3	5	66	1	44	0	31	2	2	0	112	1	15	4	21	47	14	2	5	9	18	5
OTU 42	31	0	333	48	57	0	5	0	0	0	0	0	10	8	969	47	0	1	0	27	0	2	49	7	0	0	0	27	1	31	23	0	2	5	0	0	1	0	11	0	0	37	0	0	2	0	11	0	6	0
OTU 43	0	0	0	26	0	0	0	0	6	0	0	0	0	0	0	0	0	0	0	0	0	0	1	0	1	0	0	1	0	19	0	0	0	0	0	0	0	0	0	0	3	0	0	0	0	0	0	0	0	0
OTU 44	45	28	0	0	3	0	0	4	0	18	10	2	3	0	0	0	5	0	59	15	0	83	0	0	1	13	35	0	0	0	0	0	0	0	0	4	2	0	1	0	15	4	46	0	120	1	0	0	2	0
OTU 45	60	29	12	5	39	2	69	0	5	23	9	31	0	2	288	37	13	0	158	9	45	30	10	123	73	1	34	0	2	72	26	22	6	42	491	70	65	11	18	3	18	5	22	10	11	0	8	24	10	52
OTU 46	63	33	11	16	62	6	68	8	1	49	9	3	12	0	299	38	19	74	28	3	1	19	52	120	310	73	139	204	4	113	252	6	45	57	1	66	63	29	4	27	70	33	54	23	7	12	3	39	67	1
OTU 47	0	6	0	0	0	0	6	0	0	0	0	1	0	19	0	179	0	0	4	0	0	14	0	8	0	0	0	1	0	10	0	5	0	0	9	0	17	0	0	3	0	0	0	0	0	0	2	0	0	1
OTU 48	37	43	2	1	6	7	27	5	17	74	14	10	19	34	135	16	6	30	37	26	9	285	53	42	15	75	19	90	0	32	49	52	21	12	88	3	19	17	16	22	29	64	268	87	15	15	15	19	33	7
OTU 49	86	32	6	0	69	4	1	3	4	2	15	0	3	153	0	45	9	15	1	20	3	0	9	2	1	1	3	11	10	0	2	0	31	1	11	3	4	19	53	634	5	57	12	0	0	1	4	0	89	39
OTU 50	29	2	22	3	14	31	102	19	35	4	10	2	100	96	279	16	18	471	89	23	0	17	32	193	35	1	16	1704	7	20	115	425	67	421	23	2	68	9	33	1	14	28	29	6	2	3	12	66	102	2
OTU 51	27	5	0	4	1	18	19	10	9	0	0	6	2	0	27	0	1	6	77	3	0	117	0	44	31	5	13	2	22	40	1	2	2	7	135	6	4	0	5	0	0	1	14	32	0	4	230	1	69	4
OTU 52	34	230	8	41	45	4	28	2	22	11	110	26	70	48	31	54	74	118	171	45	2346	56	54	59	76	14	9	216	1	278	95	9	166	37	149	26	27	2265	46	42	92	40	208	102	12	47	4	83	16	69
OTU 53	0	0	0	2	1	0	0	0	0	0	0	0	0	0	0	0	23	0	0	10	0	0	0	1	0	0	0	0	0	0	0	0	0	0	0	0	0	0	3	16	1	12	0	0	0	0	0	0	8	0
OTU 54	42	82	23	5	1079	20	25	9	115	78	14	34	54	513	23	413	186	13	150	3	8	371	23	42	175	119	21	36	5	25	74	102	93	22	9	33	93	72	7	104	143	14	100	220	0	5	21	81	117	21
OTU 55	0	0	0	0	0	0	0	0	0	0	0	0	0	0	0	0	0	0	0	0	0	0	0	0	0	0	4	0	0	0	0	0	0	0	0	0	0	0	0	0	2	0	0	0	0	0	0	0	0	0
OTU 56	52	0	3	2	9	0	1	0	0	2	3	0	7	0	9	1	30	24	0	72	0	0	24	3	35	9	7	0	5	1	0	0	3	1	79	1	0	5	1	15	39	24	1	8	0	0	1	1	1	0
OTU 57	585	41	22	41	52	133	40	43	9	155	44	14	186	844	18	170	139	44	76	160	45	872	149	72	89	86	2	66	32	12	954	20	24	60	212	66	148	62	20	44	75	62	99	214	4	19	37	51	32	48
OTU 58	2	7	10	0	12	61	27	31	2	0	124	5	0	1	5	0	67	13	1	30	0	17	4	48	75	7	77	90	25	28	9	0	0	9	72	4	73	24	6	1169	0	10	2	20	2	35	1	0	1	19
OTU 59	1	153	4	81	64	0	109	0	18	5	39	61	77	30	7	9	2	8	12	59	77	22	126	243	4	45	81	175	2	11	4	0	2	162	0	52	5	130	48	4	82	8	0	23	54	1	89	48	33	103
OTU 60	52	5	223	56	54	21	6	6	1	52	35	22	27	87	18	36	39	41	27	1	4	66	16	16	135	1569	96	139	10	177	19	15	35	18	16	35	29	47	50	56	1	20	26	26	11	8	13	1530	7	14
OTU 61	6	200	18	11	30	25	35	2837	17	21	37	24	44	85	120	50	13	11	40	50	22	374	37	55	87	3	84	17	15	72	22	38	28	33	373	28	1	646	53	7	40	15	92	6	30	20	17	0	4	71
OTU 62	14	0	0	3	100	47	0	23	40	18	12	0	8	20	0	7	1	282	19	1	0	4	0	0	0	0	0	0	14	96	107	640	0	1	2	0	0	6	8	1	17	2	0	16	0	19	2	24	2	0
OTU 63	1	16	0	0	4	3	14	3	3	4	2	0	5	7	36	15	25	0	9	3	2	44	4	40	1	0	69	12	0	23	6	2	0	16	13	0	22	51	5	1	19	63	6	12	0	1	5	31	186	1
OTU 64	40	195	10	66	1	7	32	2	4	22	16	8	194	6	140	85	153	39	231	51	24	153	8	59	13	83	95	234	6	141	32	3	85	27	4	2	4	15	10	724	0	99	265	68	12	6	26	79	87	21
OTU 65	0	0	0	0	1	0	0	0	0	0	0	0	48	0	0	11	2	0	4	1	0	161	0	1	2	0	0	0	0	0	0	0	0	0	0	5	0	0	0	0	13	3	0	0	0	0	0	53	0	0
OTU 66	71	30	7	8	1	0	3	0	83	5	24	78	41	23	2	46	28	17	155	22	69	50	8	9	38	32	62	7	1	4	67	7	36	34	45	1	1	18	192	34	45	3	8	37	9	9	20	1	2	100
OTU 67	2	48	24	6	132	66	0	26	91	11	0	0	4	219	2	100	11	11	4	52	4	176	139	2	1	6	1	14	56	73	1	1	34	0	7	55	23	0	4	8	14	3999	5	60	10	26	38	14	40	23
OTU 68	0	0	0	1	34	60	1	48	43	10	10	4	25	1	27	29	0	1	0	16	8	56	179	2	7	1	0	11	0	0	32	0	1	0	14	18	0	1	27	1	1	3	3	41	0	0	3	4	0	20
OTU 69	61	52	40	19	12	57	41	14	67	3	739	0	8	12	56	25	540	28	176	61	0	31	12	80	107	19	13	22	8	1	176	193	8	59	0	109	14	1083	26	259	3	12	17	9	0	38	5	5	31	6
OTU 70	28	1	0	0	29	7	0	0	0	0	0	0	0	35	186	37	4	28	0	0	2	3	8	0	91	0	28	0	0	12	25	0	0	1	12	14	4	56	21	0	7	4	1	0	0	0	2	61	2	0
OTU 71	23	0	0	1	0	35	110	18	4	15	2	1	1	47	0	52	31	50	1	13	5	1	2	227	0	1	0	138	20	3	50	32	19	86	1	73	16	2	13	1	66	11	103	60	3	6	21	0	76	3
OTU 72	140	0	25	52	6	36	35	16	3	97	18	96	114	124	10	23	0	0	41	20	86	12	0	61	0	12	10	14	2	119	44	19	10	67	95	4	0	14	88	1	1247	41	55	1	86	3	40	0	8	172
OTU 73	0	85	0	2	1	20	30	21	44	5	70	4	30	15	5	25	16	7	9	87	0	24	2	72	1	3	47	36	19	49	27	11	0	35	98	12	36	2	79	12	34	7	35	0	2	3553	2	4	0	0
OTU 74	3	184	10	30	6	4	14	14	0	9	4	7	43	61	58	18	7	14	79	38	2	0	41	18	156	20	166	0	9	119	10	20	46	19	19	33	3850	2	4	0	15	3	8	59	2	13	1	56	1	6
OTU 75	53	31	70	4	85	1	3	6	17	34	15	3	57	8	6	19	68	8	49	127	9	198	12	5	62	40	3	31	2132	70	200	5	41	1	3	42	18	9	2	64	7	4	15	17	3	14	1	1	15	9
OTU 76	6	1	127	4	0	3	0	1	23	3	146	0	0	2	0	3	0	0	101	75	0	7	21	0	0	40	0	0	0	29	2	0	261	6	12	1	1	5	0	0	0	20	0	1	0	48	4	115	2	0
OTU 77	96	65	299	20	17	9	91	11	6	67	4	1	55	28	70	23	9	158	52	7	0	4	21	184	42	20	16	1	32	3	66	190	25	84	26	115	27	49	6	1	107	16	23	10	7	12	5	0	41	1
OTU 78	64	14	16	24	134	4	880	0	17	1	9	0	1401	56	0	109	34	0	37	4	3	56	29	1735	28	59	2	6	1	0	2	13	31	713	16	939	115	4	6	27	0	14	2	30	27	18	2882	225	21	6
OTU 79	144	141	170	153	2052	639	472	264	36	93	296	36	828	92	74	187	329	11	192	115	59	321	105	921	140	60	72	53	227	35	109	82	775	448	140	513	81	10	218	247	170	67	56	72	33	10	49	70	139	85
OTU 80	52	12	53	3	62	208	15	127	0	8	7	3798	90	38	88	133	14	24	18	0	3	36	0	39	191	30	1	14	28	97	1	93	94	24	5	11	20	8	17	9	86	42	11	79	0	17	218	18	52	10
OTU 81	65	67	7	13	177	14	30	14	32	55	5	21	17	1451	79	479	162	15	5	30	8	35	47	49	716	11	194	87	11	54	43	21	19	28	329	491	59	93	23	144	14	3	36	11	14	10	6	61	20	13
OTU 82	4	18	1	0	15	340	9	187	127	12	133	9	2	108	7	69	0	60	9	7	21	29	13	15	2	15	41	4	201	80	2	0	224	14	37	0	177	22	5	0	0	121	52	4	0	61	7	2	38	22
OTU 83	0	0	7	0	7	0	7	0	1	0	5	1	21	8	0	8	0	4	8	80	0	0	0	12	1	0	0	13	0	13	0	0	0	18	9	0	0	18	13	11	11	0	1	0	0	0	0	0	0	0
OTU 84	0	176	28	11	4	0	2	0	1	2	10	1	0	1	0	26	28	34	12	0	0	29	0	2	2	10	12	6	4	35	50	33	5	4	31	45	5	0	15	7	19	0	3	0	1	0	26	2	0	0
OTU 85	16	37	0	9	0	19	0	7	54	2	0	2	7	1	14	0	2	19	0	0	0	31	16	0	0	14	0	0	33	123	14	9	3	0	82	7	0	7	1	1	2	20	0	4	0	1	0	0	39	1
OTU 86	0	0	0	10	0	0	0	0	0	0	1	0	0	8	0	3	0	0	0	22	0	0	17	0	50	0	0	1	0	0	0	0	12	0	13	0	0	0	0	0	0	0	0	5	0	0	0	4	0	0
OTU 87	20	1	0	0	16	0	16	0	0	6	9	0	0	36	3	20	2	5	2	0	0	4	0	16	4	0	0	0	2	11	0	2	0	0	34	0	41	0	24	0	7	0	0	21	1	0	0	6	0	0
OTU 88	0	16	7	0	0	0	0	0	0	4	0	0	0	0	0	0	0	0	2	0	0	6	0	0	0	0	3	1	0	0	0	1	0	0	0	1	5	0	1	1	0	0	0	0	0	2	2	37	0	0
OTU 89	0	0	0	8	12	0	6	1	35	0	1124	0	33	6	0	1	16	26	8	15	10	0	4	7	0	8	13	0	2	274	3	18	2	2	31	9	19	10	76	20	4	11	6	2	0	0	85	1	0	9
OTU 90	9	7	0	0	0	0	0	0	13	2	0	0	80	4	0	20	0	0	0	6	0	1	0	0	0	0	0	0	11	2	0	0	0	0	0	0	0	0	0	0	0	4	0	0	0	10	0	0	0	0
OTU 91	1	2	0	0	0	0	0	0	5	0	0	0	10	0	0	0	0	0	0	9	0	30	0	0	0	0	0	0	0	0	0	0	0	0	10	1	0	0	0	0	0	11	0	0	0	19	4	2	0	0
OTU 92	15	0	0	0	1	4	393	1	12	17	0	1	3	50	0	2	0	0	0	1	0	0	0	19	6	0	8	0	14	0	19	2	0	11	0	63	5	1	0	0	2	2	0	2	0	0	0	17	180	9
OTU 93	12	0	0	2	0	0	1	0	0	3	0	0	0	0	6	0	2	147	17	0	1	0	6	2	5	6	0	0	1	10	0	0	0	0	0	0	16	0	2	0	0	0	0	0	0	1	2	33	0	0
OTU 94	403	9	75	10	0	15	3	1	41	635	44	9	11	31	16	50	9	138	266	192	11	61	21	10	187	193	145	5	3	33	477	20	2	1	43	0	1	108	5	10	80	36	11	45	0	17	1	297	53	16
OTU 95	0	0	42	15	9	3	0	1	0	0	15	4	2	0	0	7	18	4	28	66	0	5	0	0	62	0	2	1	1	0	0	31	29	0	0	8	3	0	2	22	20	0	0	7	0	2	4	5	4	0
OTU 96	0	6	0	0	0	2	0	1	0	0	0	0	5	0	0	0	0	0	0	0	0	0	0	0	0	0	0	0	5	0	1	0	0	1	0	0	60	0	1	0	0	0	0	0	0	0	0	39	5	0
OTU 97	0	0	0	10	408	39	0	25	1818	0	0	10	0	0	0	2	8	0	0	0	0	45	16	0	3	75	0	0	0	0	39	0	2	0	19	0	4	0	36	1	59	0	0	104	3	758	0	146	0	0
OTU 98	9	2	0	35	0	0	0	0	0	0	25	57	0	6	21	4	1	1	26	13	698	110	255	0	1	2	0	0	0	7	0	11	4	0	15	0	3	13	65	1	3	11	7	2	0	1	40	0	1	102
OTU 99	4	12	8	46	3	2	7	1	8	99	12	3	14	73	14	36	103	128	83	52	36	44	8	23	1	0	115	5	26	118	36	26	39	17	14	13	66	33	68	63	2	31	60	1	7	30	38	4	57	49
OTU 100	106	138	28	1	3	74	7	2068	15	4	0	7	22	1	8	1	38	4	18	1	10	8	2	7	6	7	14	16	18	133	31	1	0	2	19	2	39	5	4	13	8	18	101	22	2	31	0	4	3	26
OTU 101	2	1	0	30	0	0	0	0	3	0	0	0	0	0	2	14	0	0	4	0	0	1	0	0	0	0	0	0	0	0	2	0	2	0	0	0	0	0	0	9	3	0	0	0	0	0	0	0	0	0
OTU 102	0	0	0	4	15	3	1	1	16	1	9	0	28	0	34	2	0	2	0	12	0	0	68	3	57	0	0	4	1	26	0	53	1	32	7	1	37	0	5	0	0	0	5	112	0	17	9	0	0	2
OTU 103	0	157	8	11	1	0	56	0	0	21	18	9	49	79	1	12	8	5	1	33	17	7	12	107	3	12	2	362	0	29	13	1084	7	25	0	37	0	0	5	0	0	16	29	60	1	13	39	0	6	25
OTU 104	63	18	112	20	1	10	5	9	15	135	55	30	146	46	49	3603	63	67	21	19	36	11	30	10	5	42	76	139	10	35	100	10	89	10	58	25	87	38	38	48	34	23	6	6	17	15	62	61	32	75
OTU 105	1	3	0	0	0	0	51	0	20	0	2	5	21	18	26	44	8	0	2	2	0	0	0	113	0	0	0	3	0	0	17	0	9	13	0	0	1	0	0	0	0	6	1	54	0	2	0	68	0	28
OTU 106	2	291	0	0	0	19	1	4	0	0	8	0	8	0	0	1	4	0	0	3	0	36	3	3	15	16	3	0	2	9	0	1340	0	0	13	0	0	0	1	0	0	0	14	140	0	0	0	29	0	1
OTU 107	0	1	0	1987	2	0	15	0	12	1219	45	126	3	0	16	0	1	13	1	21	104	0	10	25	3	0	1	137	1	1	7	36	0	31	0	0	2	3	190	12	1	0	1	5	75	5	45	6	1	246
OTU 108	0	13	114	0	0	8	0	8	0	16	13	6	3	29	0	54	0	0	0	53	0	113	37	0	0	56	1557	10	4	0	16	4	4	0	113	6	54	800	6	3	16	0	2	4	6	12	1227	5	28	0
OTU 109	0	0	0	0	0	0	0	0	0	3	0	0	0	0	3	0	0	0	0	0	0	0	0	0	0	0	0	0	0	0	0	0	0	0	0	0	0	0	0	0	0	0	0	0	0	0	0	0	0	0
OTU 110	6	20	45	8	107	4	11	2	53	27	7	12	76	27	2	79	44	87	3	0	42	0	1	15	28	21	6	30	8	1573	82	12	0	29	16	18	67	5	7	25	9	3	106	51	1	2	9	44	60	37
OTU 111	0	0	0	0	0	4	0	4	0	0	3	1	4	0	2	0	0	0	0	0	0	3	6	0	0	7	0	0	0	1	0	1	0	0	0	0	0	0	0	0	2	29	0	0	0	0	0	37	51	0
OTU 112	0	3	10	4	7	6	27	3	1	3	17	0	39	0	0	0	1	22	31	2	0	31	37	38	17	7	0	50	0	157	0	0	97	9	9	64	6	4	7	1	0	2	5	0	14	0	7	8	0	0
OTU 113	0	2	0	2	0	0	0	0	0	0	0	4	0	0	0	0	11	0	1	0	6	0	6	0	0	0	5	18	1	1	0	0	0	7	3	6	0	1	6	0	5	0	5	0	1	0	0	3	0	4
OTU 114	3	67	22	0	81	52	40	24	73	3	98	21	22	72	17	11	7	32	10	1	60	10	32	59	34	5	30	69	22	53	216	66	7	48	262	40	0	13	57	4	12	60	10	31	44	32	21	47	37	89
OTU 115	43	234	78	3	15	55	3	26	23	94	197	32	27	12	79	14	33	38	27	149	17	33	101	8	62	17	9	12	31	76	21	155	59	3	6	111	51	21	93	2	55	2	28	12	18	1	30	13	42	46
OTU 116	27	211	114	92	6	36	34	17	3	212	34	48	218	41	18	22	3	72	109	64	30	19	185	73	14	54	72	98	17	89	351	91	52	6	159	119	42	7	47	2	2255	6	102	2	10	10	10	193	15	72
OTU 117	30	53	85	5	3	0	27	12	15	23	33	2	9	175	83	210	5	4	50	0	17	3	1	24	20	4	19	14	9	50	106	1	0	5	35	46	31	7	12	0	4	1	21	31	7	3	14	10	13	5
OTU 118	0	0	0	0	0	3	0	0	0	0	33	0	11	0	137	0	49	0	1	1	0	50	0	0	4	0	178	5	0	0	0	0	5	0	0	0	11	36	0	26	0	0	0	0	0	4	0	0	175	0
OTU 119	56	34	60	11	4	49	17	18	10	396	24	6	29	36	72	27	2	1770	57	151	13	46	41	29	13	0	13	91	2	94	91	31	43	7	29	40	5	5	221	11	82	2	13	28	21	2	22	32	3	50
OTU 120	13	208	5	6	12	3	5	3	0	293	51	0	60	3	5	0	13	9	3	15	0	0	3	9	3	34	2	2	5	1	5	0	2	0	15	0	0	0	0	2	2	4	60	4	0	3	1	35	1	0
OTU 121	11	0	0	11	6	0	29	0	78	1	41	0	16	0	0	7	61	1	30	4	2	12	8	70	4	64	0	9	17	19	20	1	11	28	59	16	78	0	0	67	2	3	24	22	0	46	9	170	0	5
OTU 122	4	17	48	1	6	1	3	10	0	96	47	12	90	2	42	3	25	1	40	7	0	9	0	12	27	49	20	68	0	405	72	0	34	0	6	0	6	19	28	13	68	40	3	13	3	0	11	0	19	5
OTU 123	122	1417	120	23	1514	131	80	62	36	215	67	59	228	235	92	123	80	215	83	166	43	312	3578	151	57	101	117	307	60	256	194	164	368	103	150	27	117	142	65	10	341	61	913	98	33	43	94	59	299	42
OTU 124	0	0	0	1	4	0	3	0	13	0	1	0	1	0	3	0	0	2	20	0	1	0	0	15	3	38	3	0	0	1	4	39	3	6	8	0	0	0	20	0	12	0	3	3	21	0	6	14	0	0
OTU 125	186	221	207	773	135	70	57	21	7	152	200	304	143	148	62	173	28	10	236	67	375	119	956	131	354	18	158	125	11	321	201	41	371	61	112	48	99	108	1660	3	1294	45	102	106	192	1	362	104	162	788
OTU 126	0	0	0	0	0	0	0	0	8	0	24	862	36	13	0	2	0	0	10	4	5	0	0	1	2	0	63	0	0	25	0	8	0	0	3	0	0	0	16	0	0	2	23	0	0	0	0	0	0	0
OTU 127	125	36	18	66	17	26	0	18	74	27	4	2	57	0	7	21	6	0	16	9	0	1	54	0	0	3	0	2	10	3	19	61	169	1	1	24	7	21	59	0	1	13	11	0	0	11	6	0	31	0
OTU 128	202	275	361	67	97	229	16	101	126	252	117	1559	75	292	145	92	38	76	156	354	1456	141	88	34	80	401	62	215	61	39	346	44	41	18	96	144	103	58	149	30	488	24	69	33	2561	75	1272	835	71	3028
OTU 129	0	0	7	0	2	4	0	5	39	0	0	0	0	0	0	0	0	0	0	16	0	0	0	0	0	0	0	0	6	0	3	0	75	0	0	0	2	0	39	0	0	0	0	0	0	68	1	0	18	0
OTU 130	42	3	59	10	19	35	16	10	59	86	97	0	1	20	0	0	732	320	4	5	7	0	14	35	2	3207	614	35	9	1	102	140	21	22	191	0	3	463	65	472	9	1	133	6	9	13	24	2	1	25
OTU 131	0	3	11	0	12	2	47	2	29	75	8	0	56	6	24	16	0	21	18	44	18	13	0	102	61	0	30	3	6	6	23	24	0	47	15	13	0	14	3	10	0	35	0	5	572	42	34	19	109	33
OTU 132	1	2	1	4	0	41	1	29	4	11	1	0	32	37	0	51	10	42	0	3	0	19	0	2	33	112	38	1	0	97	0	2	33	2	1944	25	0	107	25	4	4	6	39	0	0	6	5	35	6	1
OTU 133	19	0	6	0	0	1	7	0	0	1	9	3	6	82	30	20	0	12	16	0	2	0	7	11	0	1	0	2	12	0	0	0	0	0	0	70	0	8	0	0	0	1	1	0	1	0	7	2	57	2
OTU 134	61	11	21	19	13	1	0	0	25	40	0	24	87	20	33	8	16	0	191	103	20	198	10	0	0	4	40	1	2	18	0	26	32	1	88	13	94	2	42	5	10	0	3	2	15	2	34	20	7	40
OTU 135	6	56	29	0	24	0	11	1	0	65	2	1	2	81	24	37	18	6	5	32	0	55	4	23	2	13	81	88	0	15	163	19	2	21	6	17	34	22	11	13	3	23	4	12	7	11	0	53	17	1
OTU 136	13	5	16	41	8	7	8	8	1	0	47	0	38	34	12	10	12	0	13	11	0	13	0	17	3	2	2	4	12	4	6	15	5	2	61	17	0	60	0	0	0	16	3	16	1	0	0	67	49	0
OTU 137	0	10	18	0	4	0	0	0	0	6	0	32	219	0	0	28	7	3	0	17	1777	4	0	0	10	26	14	0	0	196	9	0	28	0	0	3	1	2	66	0	1	0	0	2	0	0	0	43	0	42
OTU 138	38	35	14	26	1	84	23	48	10	19	90	0	45	14	19	3	8	0	9	36	2	32	3	66	143	28	0	11	37	2	20	1	0	48	0	66	3	4	0	6	3	1	43	0	0	7	0	0	0	0
OTU 139	149	126	25	25	11	31	17	20	38	103	34	44	64	14	22	74	52	25	87	47	82	32	20	42	17	0	6	23	2	14	38	12	43	27	3	10	53	9	166	13	47	574	91	5	2088	53	36	22	921	101
OTU 140	455	135	366	29	60	134	40	77	193	184	327	14	167	312	61	116	60	28	1790	411	15	43	24	64	64	116	202	82	99	99	776	10	482	31	7	33	261	17	53	17	15	27	1	195	4	78	31	132	85	32
OTU 141	0	0	0	0	0	0	0	0	0	0	0	0	35	0	1	0	0	0	13	4	0	0	1	0	193	0	0	0	0	0	6	0	2	0	0	0	0	0	0	0	0	0	0	0	3	0	0	0	0	0
OTU 142	0	0	0	0	0	0	0	0	0	0	0	0	0	1	1	0	0	0	0	21	0	0	439	0	0	0	0	0	0	0	0	0	0	0	0	0	19	0	0	0	0	0	0	8	2	0	0	1	0	0
OTU 143	0	0	1	0	0	7	5	9	0	7	0	1	0	0	70	0	0	0	18	0	2	23	2	8	0	0	12	1	16	0	2	16	178	4	0	0	5	0	0	0	0	0	0	3	0	9	8	0	0	0
OTU 144	0	216	66	0	1	18	0	6	2	11	1219	0	1	0	0	0	0	0	12	0	0	0	5	0	8	1	0	0	0	2	7	0	7	0	9	0	0	3	6	1	3	2	9	2	17	0	0	3	16	6
OTU 145	72	2	2	10	26	70	17	33	147	1	101	1	183	80	3639	21	448	13	19	2	0	115	12	40	270	3	24	27	48	6	28	30	2	15	1	0	10	14	10	213	36	3	0	110	1	13	0	55	4	0
OTU 146	28	58	0	0	79	0	6	1	41	22	39	2	47	68	13	20	12	7	1	56	0	63	8	9	9	1	3	57	0	35	8	8	36	23	20	9	11	86	57	16	0	166	0	65	0	18	13	44	10	0
OTU 147	9	168	5	73	0	0	0	0	66	20	3	9	0	6	4	4	41	2	3	25	0	8	2	0	10	39	21	1	1	0	25	10	15	13	0	0	1	2	5	13	1	0	5	0	0	9	2	20	3	1
OTU 148	79	20	7	38	15	2	20	0	2	6	4	0	81	31	29	22	1171	16	53	20	3	38	13	35	51	0	89	56	0	17	94	22	7	9	3	5	4	13	0	546	3	3	27	2	2	1	1	78	32	0
OTU 149	29	4	1	12	12	0	0	0	10	3	16	26	0	2	2	0	18	41	47	0	14	0	1	0	1	16	29	3	10	30	0	103	0	1	0	2	10	11	49	4	9	1	0	3	5	1	4	56	35	30
OTU 150	0	0	13	18	3	0	0	0	7	1	0	350	0	9	0	1	6	8	3	0	76	45	0	2	0	0	0	16	10	1	13	35	0	0	5	1	12	12	32	0	0	1	1	3	3	21	3	1	0	7
OTU 151	5	77	6	0	14	3	4	1	2	37	15	17	0	27	2	17	0	4	0	2	6	0	30	3	18	2	2	104	2	0	6	24	6	0	51	3	1	0	21	2	31	31	14	0	7	0	1	5	0	16
OTU 152	48	130	27	35	32	4	16	3	1	47	19	14	18	148	44	173	35	15	14	54	9	90	36	26	34	8	7	0	1	0	44	12	27	38	17	2	0	34	9	17	0	20	35	2	0	0	6	26	3	1
OTU 153	0	0	0	0	0	0	0	0	6	0	0	0	0	0	0	0	0	0	1	0	0	0	1	0	0	0	0	0	15	6	0	0	0	0	14	1	0	0	0	0	0	0	0	4	0	0	0	0	0	0
OTU 154	0	0	0	0	0	0	0	0	2	37	0	0	76	5	0	0	19	0	2	3	2	0	80	0	0	0	12	3	0	26	0	0	0	0	1	11	0	13	4	0	0	92	0	4	6	0	0	6	58	10
OTU 155	1	16	26	6	43	522	0	333	29	0	4	0	4	77	5	0	2	0	3	8	0	1	1	2	0	13	7	68	236	6	139	0	2	1	6	3	5	32	65	2	58	1	48	0	0	0	1	2	9	0
OTU 156	179	169	168	21	186	8	58	5	27	53	114	0	16	139	93	150	164	66	53	1668	1	97	85	140	14	61	73	32	4	14	36	84	93	74	33	51	76	19	49	110	57	1	32	17	1	98	10	205	48	0
OTU 157	0	0	0	2	0	0	76	0	0	3	0	0	5	11	68	0	0	199	1	45	0	1	0	152	0	5	5	336	0	0	5	84	0	86	6	114	0	6	0	0	24	205	0	0	0	0	0	9	525	0
OTU 158	8	0	0	0	0	0	0	0	0	0	2	0	0	0	0	0	0	0	0	0	0	0	0	0	0	0	0	0	0	0	3	3	0	0	0	0	0	0	0	0	0	0	0	0	0	2	0	0	77	0
OTU 159	10	394	0	8	22	5	9	0	67	25	53	7	54	1	2	0	1	13	63	66	5	108	98	30	35	24	53	3	0	13	4	2	42	16	174	0	6	12	5	4	3	0	199	2	0	2	0	48	0	17
OTU 160	233	64	90	430	39	36	144	12	66	9	25	268	207	92	137	43	89	41	100	943	219	80	19	148	26	51	366	403	47	126	350	130	55	87	220	86	53	261	725	29	8	16	38	570	84	250	157	275	91	433
OTU 161	12	2	2320	18	82	46	3	24	52	5	4	7	0	3	15	0	0	30	44	6	0	80	40	4	109	75	80	2	10	96	9	2	10	2	37	0	1	6	1	2	72	0	27	3	2	10	38	6	0	16
OTU 162	6	2	45	6	2	23	466	1	35	62	20	2	12	25	10	0	4	40	39	36	0	8	10	921	58	8	13	220	0	0	2	133	83	530	0	486	22	62	88	0	11	10	23	848	5	21	35	1	14	2
OTU 163	0	0	0	0	0	0	0	0	0	0	0	0	0	0	0	0	0	4	0	0	0	0	2	0	0	0	0	0	0	102	0	0	0	0	0	0	0	46	0	0	0	0	0	1	0	0	0	0	0	0
OTU 164	0	49	0	0	0	0	0	0	0	5	1	0	0	0	0	0	26	0	0	0	0	0	0	0	0	0	0	11	0	0	0	0	0	0	0	0	0	0	0	32	0	4	0	0	0	0	0	0	0	0
OTU 165	71	0	456	32	0	37	2	17	0	16	765	0	38	1	0	2	3	5	2	2	3	4	0	7	25	0	48	72	22	0	10	0	1442	0	53	5	2	10	68	4	0	6	2	0	10	1	19	8	41	9
OTU 166	0	0	0	0	0	0	0	0	0	0	1	0	0	0	0	0	0	0	0	0	0	0	4	0	0	6	0	0	0	0	0	5	0	0	0	0	0	0	0	0	0	0	2	0	0	0	0	0	0	0
OTU 167	23	4	0	2	1	38	1	28	2	4	0	2	12	6	30	12	15	0	17	0	2	97	0	8	0	26	4	2	0	5	2	5	63	6	10	3	30	3	0	8	25	18	35	0	3	1	0	5	8	0
OTU 168	44	20	4	17	5	25	0	20	8	43	8	28	53	24	43	37	13	69	0	0	18	12	11	0	26	29	0	13	2	0	91	7	13	1	13	13	13	3	107	9	46	3	8	0	14	0	48	3	28	34
OTU 169	1	0	0	3	0	0	0	0	0	3	0	1	0	1	1	0	0	0	1	0	0	0	0	0	0	0	1	0	0	0	5	0	0	0	0	0	0	0	0	0	0	0	0	0	0	0	0	0	1	0
OTU 170	0	0	0	0	0	0	0	0	0	0	0	1	0	0	0	19	0	0	0	0	0	0	0	0	0	0	0	0	0	17	0	0	0	0	0	0	0	0	0	0	0	0	0	0	0	0	0	0	0	0
OTU 171	3	76	18	6	4	43	2	26	0	55	15	1	254	14	29	30	3	40	141	0	3	18	1	7	13	17	20	24	4	18	3	22	31	12	1	3817	5	4	48	1	3	0	28	3	10	6	22	2	0	18
OTU 172	0	0	2	0	0	0	8	0	10	3	0	2	0	1	0	0	0	0	0	0	1	0	0	10	1	0	0	0	139	6	0	10	0	0	0	0	9	6	0	0	5	7	0	0	0	0	0	1	0	0
OTU 173	16	2	1	0	2	4	0	0	12	47	2	1	60	99	36	44	11	23	0	1	1	3	55	0	85	13	0	53	18	12	0	33	0	0	0	23	1	2	5	4	97	5	5	0	3	0	1	105	0	0
OTU 174	0	0	9	23	5	28	0	8	32	6	5	2	43	27	14	0	5	17	0	5	2	71	1	0	0	0	20	95	36	15	17	2	1	0	1	7	16	6	0	2	26	2	5	6	1	18	0	8	8	0
OTU 175	13	1	0	0	68	14	3	10	13	34	9	0	56	115	0	22	20	27	10	1	0	295	22	4	0	2	4	4	3	35	35	15	10	0	19	12	16	0	2	16	1	6	32	12	2	0	2	0	0	1
OTU 176	61	16	19	27	34	3	6	4	24	2	4	16	30	25	3	51	4	26	37	92	7	78	77	16	26	11	6	8	4	0	68	32	183	4	0	21	30	3	33	16	3	310	127	48	3	15	13	52	253	6
OTU 177	23	2	24	1	11	14	11	9	55	20	11	0	3	4	51	21	21	10	8	20	0	34	0	19	3	1	152	135	22	59	54	0	19	14	11	0	4	3	4	4	9	15	5	444	0	5	11	57	47	1
OTU 178	5	22	8	40	27	2	0	3	12	35	4	1	19	23	1	0	17	10	0	0	0	19	7	0	61	29	1	33	1957	1	28	58	3	0	8	44	11	1	1	2	1	1	1	5	6	4	4	237	1	0
OTU 179	3	147	13	15	0	0	2	0	6	0	2	0	0	1	9	0	33	2876	5	481	7	0	2	5	1	323	35	5	1	49	1	944	0	2	0	1	0	24	49	0	0	31	9	3	6	0	51	21	109	0
OTU 180	89	89	68	1027	323	17	1	6	1231	47	17	574	185	80	54	30	74	138	41	65	649	203	66	3	140	70	39	133	51	192	62	15	38	3976	459	61	41	87	2148	36	53	174	115	329	272	544	530	81	54	1215
OTU 181	6	4	0	51	0	40	39	14	14	3	0	1	2	0	0	6	11	8	2	71	1	0	36	85	108	16	63	297	4	29	28	72	6	26	59	14	0	44	20	78	7	100	1	326	5	4	2	7	374	0
OTU 182	0	0	0	3	0	0	0	0	0	1	0	0	0	2	0	0	0	0	0	0	0	0	0	0	0	0	0	11	0	0	4	0	0	0	0	0	1	0	6	0	0	0	0	0	0	0	0	0	1	0
OTU 183	1	10	42	20	20	3	26	0	1	17	12	7	2	33	5	1	35	0	2	0	10	0	27	56	20	54	154	26	33	16	0	14	126	22	0	3	9	9	7	11	0	10	700	25	1	79	0	107	10	33
OTU 184	0	55	0	10	29	0	11	3	6	5	0	0	19	0	0	4	2	0	0	23	0	29	18	19	122	0	9	23	26	59	9	0	3	39	4	3	11	6	0	0	5	19	24	0	15	2	0	24	38	9
OTU 185	76	12	30	21	57	370	12	190	329	34	5	22	21	120	8	16	5	68	11	7	49	74	8	25	37	19	12	70	125	27	0	0	35	12	117	1	252	3	89	2	6	1	1101	8	316	125	27	32	57	47
OTU 186	370	16	4	0	0	0	0	0	0	0	2	4	2	5	20	5	0	0	29	6	0	0	12	0	0	0	0	0	0	8	7	0	0	0	0	0	1	0	51	0	26	0	6	2	0	2	0	3	0	0
OTU 187	17	25	86	37	23	31	14	22	50	20	121	22	300	19	21	4	84	83	124	2	15	138	11	39	51	67	88	45	6	49	107	11	57	10	23	11	0	103	4	103	14	48	19	133	5	69	50	139	250	26
OTU 188	26	84	9	86	17	88	60	55	19	151	18	21	25	11	46	19	25	2	84	28	17	130	359	108	36	240	0	21	101	35	101	122	113	25	141	88	2	12	1	1	473	38	45	7	5	50	0	892	111	29
OTU 189	50	86	2	54	16	63	35	20	10	1376	13	0	18	39	2	23	324	39	53	17	0	57	46	57	164	10	12	17	49	57	75	10	145	43	43	83	4	26	3	68	98	13	72	7	6	18	7	26	33	0
OTU 190	0	0	4	0	12	0	3	0	0	11	17	0	0	0	3	0	0	0	0	0	0	1	0	3	0	0	11	0	0	0	59	12	0	9	0	0	0	2	1	0	1	0	3	0	1384	0	0	10	0	0
OTU 191	390	50	70	20	20	14	40	3	16	2	4	33	5	133	19	47	12	80	18	31	1	684	44	71	219	8	0	119	11	11	43	6	20	26	1	6	11	25	4	5	1	101	204	10	11	0	38	6	200	19
OTU 192	50	83	27	81	5	2	52	0	3	37	26	14	202	18	101	58	1438	2	68	138	23	74	25	137	64	35	25	66	1	82	86	0	108	44	1021	16	38	67	5	891	46	284	1	2	141	940	5	12	549	47
OTU 193	0	12	10	22	5	1843	3	1008	0	31	17	1	26	56	8	100	100	8	12	1	3	4	33	5	13	6	828	36	1071	23	27	4	16	4	14	49	1	559	13	20	60	33	5	24	6	12	3	6	94	3
OTU 194	1	0	15	1	0	0	4	0	3	16	15	3	0	17	1	0	42	6	2	10	0	13	2	20	9	9	10	12	5	4	30	1	4	2	0	0	50	0	5	76	2	64	0	2	0	0	0	1	48	1
OTU 195	116	51	20	10	10	0	8	1	0	1	5	0	2	64	1	52	1	4	28	168	1	0	46	18	0	0	23	0	19	87	6	16	30	10	0	1	26	21	43	3	8	1	126	5	0	8	5	6	38	15
OTU 196	45	30	6	1	18	8	1	1	0	36	3	1	7	9	3	6	2	6	69	7	5	9	61	4	21	13	23	0	4	2	126	1	52	5	9	5	1	3	3	5	29	15	104	5	4	2	12	8	6	2
OTU 197	5	219	63	28	5	54	46	15	32	87	27	20	109	130	41	10	167	13	675	3	11	39	17	97	185	15	287	40	50	187	69	22	108	49	84	15	55	86	124	113	58	46	152	192	2	31	8	50	52	19
OTU 198	0	0	0	45	0	20	2	2	0	18	1	5	12	0	0	0	1	2	2	0	1	45	0	6	17	3	5	1	2	0	0	0	0	26	2	0	0	0	0	0	20	0	0	61	0	0	12	1	0	15
OTU 199	0	3	4	16	13	5	0	0	0	11	2	5	51	17	15	14	16	2	0	0	1	65	7	0	105	0	3	2	3	66	46	0	3	0	41	56	13	1	27	7	2	0	0	8	0	0	4	20	1	15
OTU 200	80	2	4	37	36	2	47	4	2	2	6	29	107	1	50	6	0	14	21	1	5	0	9	105	2	2	30	250	0	9	18	81	49	56	87	1	5	0	37	5	6	24	19	2048	4	0	5	2	207	17
