	Host 1	Host 2	Host 3	Host 4	Host 5	Host 6	Host 7	Host 8	Host 9	Host 10	Host 11	Host 12	Host 13	Host 14	Host 15	Host 16	Host 17	Host 18	Host 19	Host 20	Host 21	Host 22	Host 23	Host 24	Host 25	Host 26	Host 27	Host 28	Host 29	Host 30	Host 31	Host 32	Host 33	Host 34	Host 35	Host 36	Host 37	Host 38	Host 39	Host 40	Host 41	Host 42	Host 43	Host 44	Host 45	Host 46	Host 47	Host 48	Host 49	Host 50	
OTU 1	3	6	27	11	38	405	0	251	552	12	25	21	15	8	226	201	56	85	866	7	54	881	26	352	3	4	94	319	0	12	395	37	21	2	0	247	131	748	84	27	380	23	1	1	148	673	133	5	1181	5
OTU 2	3	14	0	0	23	13	1	19	0	6	0	1	2	32	0	4	86	2	0	14	450	0	1	4	3	0	2	33	0	0	0	0	26	0	11	0	5	1	51	0	0	0	7	26	1	3	44	0	0	19
OTU 3	0	25	0	0	0	0	0	5	0	1	5	18	0	0	0	2	67	0	3	1	0	9	5	0	4	136	3	0	0	133	0	3	10	1	5	2	0	7	36	2	5	35	40	3	0	0	7	1	0	9
OTU 4	0	6	0	0	0	0	0	0	0	0	0	0	1	0	0	0	0	0	0	0	0	0	0	0	0	0	0	2	0	0	0	0	0	0	0	0	0	0	0	0	0	0	0	0	0	0	0	0	0	0
OTU 5	1	310	87	104	2	267	1043	999	1022	389	79	125	580	418	184	108	89	398	1625	250	320	126	791	27	464	183	1	77	184	196	1214	99	9	0	0	708	1048	53	41	785	38	3	498	121	153	108	8	88	153	34
OTU 6	57	13	22	478	2	2221	9	986	1	114	10	25	13	15	2	17	81	24	6	3	58	2	43	0	122	1	7	0	7	17	892	18	30	41	2	2	34	3	3	9	0	183	0	88	0	1	1	9	31	0
OTU 7	53	57	18	56	154	52	70	20	343	98	927	51	33	173	43	13	266	9	40	81	3	29	22	12	89	60	50	30	443	78	11	37	88	78	117	566	70	12	20	58	3	7	21	2	1	62	16	42	89	183
OTU 8	36	105	100	10	54	7	444	5	6	88	158	15	191	85	21	2	98	22	4	53	31	17	26	5	214	89	42	31	137	87	4	4	35	1	13	15	62	73	51	21	29	8	112	75	19	7	36	9	11	30
OTU 9	23	10	63	31	84	2	1	21	5	3	10	36	27	39	4	3	7	8	16	15	25	6	1	20	0	0	0	2	4	2	0	56	10	2	12	0	17	24	0	2	12	14	10	8	1611	0	0	63	1	12
OTU 10	43	0	0	0	1	0	0	5	0	3	59	9	3	7	0	0	6	1	0	4	100	18	0	0	0	0	1	12	0	22	0	5	2	40	13	0	52	1	7	29	0	18	32	1	0	23	1	4	0	8
OTU 11	179	5	27	18	1	8	6	0	5	14	25	22	25	6	15	39	36	32	8	4	30	33	7	9	12	15	3	0	116	29	11	41	34	20	77	0	80	8	82	0	6	10	151	113	3	10	58	29	12	28
OTU 12	1	13	3	352	221	5	89	8	52	42	26	89	12	29	46	13	255	40	46	6	129	46	51	72	285	86	179	14	17	5	38	18	145	141	152	7	8	31	0	13	20	168	69	32	121	139	3	47	106	185
OTU 13	2	0	0	0	0	0	0	0	0	0	5	0	0	41	0	0	0	9	19	6	0	0	0	12	0	0	0	6	0	0	11	0	0	4	0	0	0	0	0	0	0	0	7	0	2	0	0	0	0	0
OTU 14	9	4	48	16	40	0	48	4	4	2	46	0	4	6	3	0	29	4	0	8	20	0	7	8	8	347	2	3	1	11	4	5	75	40	4	4	3	2	38	7	0	0	4	1	23	1	4	0	20	30
OTU 15	0	0	0	0	0	0	4	0	0	0	0	0	0	0	0	0	0	0	0	0	3	3	0	2	0	4	14	0	0	0	0	0	4	0	0	0	1	0	0	1	0	0	0	0	0	0	1	0	0	0
OTU 16	0	0	0	0	0	0	0	0	0	0	0	0	0	0	0	0	2	7	0	0	0	0	0	0	0	0	0	0	0	0	0	0	0	0	0	0	0	6	0	0	1	0	0	0	0	0	5	0	0	0
OTU 17	3	68	2	33	15	5	0	8	4	63	17	74	19	2	0	0	7	32	14	1	12	24	31	0	49	32	43	5	1	3	1	81	1	104	499	0	6	1	68	1	0	3	0	5	52	24	68	9	0	48
OTU 18	91	44	161	5	69	8	5	4	16	0	46	27	10	2	9	21	25	11	6	2	497	6	8	23	20	159	10	16	3	4	8	83	133	89	70	65	31	3	0	75	4	14	20	33	9	4	21	40	8	177
OTU 19	0	0	0	0	0	0	1	0	0	0	0	0	0	0	0	0	0	0	0	0	0	0	0	0	0	0	0	0	0	0	0	0	0	0	0	0	0	0	0	0	0	1	0	0	0	0	0	0	0	0
OTU 20	1	70	49	9	58	1	129	5	0	1	173	53	12	3	0	0	155	3	31	7	1	0	8	0	118	19	9	42	160	33	15	3	72	196	49	0	42	0	20	3	0	113	17	37	2	0	3	95	1	190
OTU 21	6	4	397	27	43	495	3	247	570	232	231	38	48	359	95	65	13	4	419	151	123	548	71	217	10	1143	1	239	81	13	144	28	14	200	56	255	77	374	4	3	186	166	14	0	55	530	4	3419	990	1
OTU 22	14	10	76	79	146	67	5	17	16	27	125	0	201	18	47	21	30	22	80	3882	9	19	8	42	50	74	11	16	40	14	29	42	143	22	339	77	266	33	2	47	14	248	7	288	11	41	0	18	33	24
OTU 23	50	0	1	15	185	3	17	1	0	7	0	0	0	33	1	7	45	19	0	2	95	0	1	46	1	9	0	15	18	31	0	86	0	5	0	0	25	0	1	25	0	44	0	0	23	0	0	135	0	25
OTU 24	57	2	45	2	0	0	101	0	0	1	257	2	8	138	22	6	17	1	3	35	10	0	48	10	11	126	0	1	3	24	0	8	52	66	1	10	0	1	0	29	1	3	2	0	8	3	0	2	0	12
OTU 25	0	0	0	77	0	0	0	0	0	0	0	0	0	5	0	0	0	0	0	0	0	0	0	0	0	0	0	0	0	1	0	0	0	0	0	1	0	0	9	0	0	0	29	0	0	0	10	0	0	0
OTU 26	25	3	117	26	0	0	82	0	0	1	0	0	10	2	0	0	0	0	9	0	0	0	0	0	0	43	0	0	0	0	0	0	2	0	0	0	11	0	0	0	0	8	11	1	5	0	0	8	0	0
OTU 27	301	0	3	0	0	3	0	0	0	0	0	0	1	0	0	0	0	0	0	0	0	7	0	0	0	0	0	0	0	0	0	18	0	0	0	0	0	0	0	0	0	0	0	0	0	0	0	0	0	0
OTU 28	57	30	197	54	71	37	29	25	3	209	215	31	45	7	0	9	39	45	8	3	13	15	3	8	0	13	50	6	76	9	1	49	7	6	24	6	1	39	5	2	19	5	74	49	43	22	19	3	10	7
OTU 29	3	55	43	26	39	521	75	316	575	77	48	0	8	27	395	153	18	36	789	12	33	647	16	851	70	23	22	229	0	828	436	10	68	80	54	187	10	552	67	105	265	60	46	5	237	746	23	10	1211	97
OTU 30	0	0	0	0	0	0	108	0	0	0	0	0	0	0	0	0	0	0	0	0	0	0	0	0	0	0	0	0	0	0	0	0	0	0	0	0	0	0	0	0	0	0	0	0	0	0	0	0	0	0
OTU 31	8	1	72	44	4	9	67	2	0	1	1	41	5	45	6	0	1	0	24	9	2	2	17	0	2	18	2	8	8	151	18	0	0	0	0	7	3	1	16	0	0	45	4	53	433	0	4	3	0	59
OTU 32	30	3	3	127	271	67	103	14	11	10	58	43	3	0	31	12	76	2	2	0	46	41	114	37	18	14	121	49	37	97	2422	9	34	16	23	6	7	20	41	40	9	132	10	89	14	18	32	16	5	155
OTU 33	0	0	0	0	1	0	0	0	0	0	8	0	0	0	0	0	39	0	0	0	0	0	0	0	1	0	0	0	0	0	0	0	0	0	0	0	0	0	0	0	0	0	9	0	0	0	0	0	3	0
OTU 34	26	68	6	87	8	71	9	325	60	12	3	1	140	144	978	472	161	31	19	98	90	93	5	100	195	6	33	13	19	44	2	0	137	11	5	16	731	12	0	103	4	16	6	5	42	42	3	14	131	413
OTU 35	29	1	9	47	97	13	289	9	2	0	90	222	12	39	39	19	18	13	8	16	2	58	10	70	550	4	82	3	1	0	4	110	0	125	65	7	33	1	147	4	3	3	9	26	4	3	42	1	5	174
OTU 36	16	0	5	60	32	11	6	16	13	5	0	30	6	1	6	1	16	37	20	0	21	12	45	52	3	33	1	16	70	0	0	8	110	5	0	86	21	22	186	27	10	67	113	459	17	13	113	8	22	0
OTU 37	1	0	39	0	11	1	0	0	0	1	10	6	0	263	0	0	0	0	0	103	0	2	0	0	25	218	0	35	1	23	0	0	1	2	12	30	1	3	0	9	1	104	8	0	11	0	0	26	0	8
OTU 38	0	260	74	96	14	2	48	6	4	0	25	2	6	65	1	0	14	19	16	37	41	6	16	23	5	8	17	3	0	6	29	57	6	0	5	930	0	22	10	272	15	12	21	1	5	32	6	180	8	15
OTU 39	8	25	0	159	0	0	0	0	0	33	68	0	41	6	0	5	0	0	0	16	0	0	0	18	9	34	0	14	1	0	0	15	2	26	0	0	2	2	0	0	0	2	42	3	2	5	0	0	0	0
OTU 40	99	1	21	8	80	21	32	2	5	5	1	15	53	22	38	4	100	3	34	93	205	23	12	3	12	211	9	0	15	46	12	36	89	71	15	43	55	15	0	44	6	7	45	93	2	24	44	57	22	15
OTU 41	12	34	7	42	0	3	7	1	14	12	29	26	28	48	0	0	10	3	0	44	86	8	45	24	47	26	23	8	12	4	1	29	36	49	182	0	33	3	47	16	2	5	32	1	1	4	40	0	29	410
OTU 42	74	4	0	67	22	0	0	0	6	0	3	0	0	0	0	0	3	5	9	2	0	66	2	0	11	0	1	0	1	0	6	0	0	27	0	0	2	5	0	1	2	0	5	0	6	8	0	1	41	2
OTU 43	0	0	0	0	0	0	5	0	0	0	0	0	0	0	0	0	0	0	0	0	2	0	0	0	0	0	9	0	0	0	0	0	0	0	0	0	0	0	0	0	0	0	0	0	0	0	0	0	0	0
OTU 44	0	0	2	0	1	0	0	0	0	52	35	0	0	0	32	3	0	12	0	1	0	0	10	1	120	61	0	8	3	0	0	0	0	0	0	4	0	0	32	69	0	5	1	1	6	2	0	7	0	17
OTU 45	103	54	3	6	91	1	32	6	8	0	48	30	10	164	27	15	17	14	83	86	1	35	19	4	1	42	14	0	14	14	26	35	8	84	52	3	72	2	4	45	83	60	30	44	8	6	10	4	17	87
OTU 46	5	24	15	139	264	81	87	6	1	0	20	31	8	105	23	18	30	80	58	45	48	3	45	0	138	8	61	6	943	51	857	8	6	26	5	36	19	6	23	81	6	43	107	141	4	3	19	29	3	8
OTU 47	36	0	0	0	3	0	4	0	0	0	142	45	0	0	0	1	57	0	0	0	0	0	22	0	0	0	44	0	0	0	0	30	0	0	0	1	0	0	0	0	0	0	0	0	0	0	3	5	0	0
OTU 48	9	2	105	29	82	74	41	29	17	124	77	24	2	2	0	1	10	28	5	0	224	62	49	12	206	135	4	11	56	514	9	10	15	226	16	1	8	14	14	13	6	219	38	25	26	22	22	39	21	37
OTU 49	141	0	40	14	1	8	1	0	14	4	55	12	1	2	0	5	7	2	118	0	7	41	74	20	89	48	0	2	17	3	50	0	111	2	1	1	60	0	0	0	0	131	31	1	0	32	9	16	23	1
OTU 50	168	9	49	105	390	2	1	24	34	128	47	35	25	10	2	1	120	40	12	3	11	43	1	8	19	39	77	0	29	344	0	56	19	74	91	35	4	41	2	128	17	45	524	98	6	7	0	99	61	180
OTU 51	61	0	2	5	1	2	1	0	6	3	3	68	21	0	16	1	67	0	14	0	1	1	35	7	8	55	29	16	1	162	6	4	2	13	13	1	5	0	0	11	0	42	49	52	4	0	1	9	13	72
OTU 52	74	55	11	29	34	25	14	11	27	64	21	17	22	496	6	10	455	191	15	208	49	10	47	2	31	21	29	16	42	38	2	167	67	36	41	14	82	15	64	0	4	18	146	64	30	44	33	99	52	14
OTU 53	0	0	0	0	0	3	0	0	0	0	0	0	0	0	0	11	0	0	0	0	0	0	0	1	0	0	0	2	0	0	0	0	0	0	0	0	0	0	0	0	0	0	0	0	0	0	0	0	0	0
OTU 54	11	42	24	6	28	17	133	0	9	7	4	10	2	72	9	9	39	14	4	25	1465	22	82	37	153	87	16	25	26	87	1	125	66	9	14	7	49	5	58	14	3	223	94	26	3	66	12	96	5	258
OTU 55	0	0	0	0	0	0	12	0	0	0	0	0	0	0	0	0	0	0	0	0	0	0	0	0	0	0	0	0	0	0	0	0	0	0	0	0	0	0	0	0	0	0	0	0	0	0	0	0	0	0
OTU 56	0	59	0	0	7	0	1	0	10	250	0	2	4	7	6	0	45	0	0	7	28	7	6	2	9	31	4	3	1	0	1	48	13	14	1	4	8	0	0	28	0	0	83	3	1	1	4	14	8	19
OTU 57	111	405	20	91	346	3	71	9	64	115	87	73	18	319	68	6	215	116	60	171	112	102	71	34	93	63	276	24	164	261	6	132	107	56	83	18	24	22	55	844	13	20	183	251	1615	4	53	156	65	139
OTU 58	12	0	0	3	9	11	140	0	4	95	26	10	7	42	12	2	24	2	1	16	70	0	0	9	3	89	15	1	1	7	0	15	1	0	41	2	10	0	20	75	0	93	0	1	0	0	11	0	49	1
OTU 59	3	15	16	60	0	7	0	3	11	2	3	15	0	29	1	5	209	15	4	16	35	0	53	0	0	44	45	10	5	19	5	0	10	6	36	0	22	12	24	62	11	10	2	11	2	0	0	0	4	5
OTU 60	14	45	2	40	57	0	40	29	20	171	17	34	4	56	2	9	199	14	8	30	125	3	71	43	22	62	43	32	7	51	2	55	36	91	7	10	33	4	20	42	2	33	111	79	1	6	69	53	18	46
OTU 61	74	115	44	90	166	76	4	32	47	824	6	38	126	2	1534	817	38	30	771	2	258	29	148	3677	17	8	5	39	2	182	415	24	14	173	18	14	135	105	46	144	43	38	32	91	718	26	24	7	103	45
OTU 62	2	6	37	21	4	0	30	0	7	17	15	26	7	31	19	8	0	8	0	9	4	21	0	0	6	0	0	0	0	66	2	0	31	3	0	0	9	0	9	1	0	0	34	0	0	22	2	15	8	0
OTU 63	25	29	0	0	1	7	0	16	41	0	25	23	1	25	0	4	45	6	0	19	27	3	4	0	0	56	144	33	17	12	1	20	104	52	71	0	54	0	0	2	0	12	75	149	0	33	5	63	62	1
OTU 64	10	16	83	63	140	22	5	29	28	43	11	32	53	143	39	63	104	47	7	83	76	57	18	27	109	22	50	29	25	84	0	17	82	99	65	69	16	15	68	28	13	22	3	29	44	85	25	7	65	109
OTU 65	0	0	0	0	0	0	0	0	0	0	0	0	0	0	0	1	0	0	0	0	29	0	0	0	0	0	0	0	0	0	1	0	0	0	0	0	0	0	0	0	0	67	0	0	0	0	0	0	0	0
OTU 66	55	2	14	10	180	8	34	4	2	11	13	24	78	7	7	8	134	20	137	10	2	14	3	15	33	5	77	2166	3	223	62	36	21	108	86	19	23	0	25	9	0	13	133	0	6	6	21	261	5	47
OTU 67	30	33	0	155	3	35	8	18	0	35	0	11	10	4	0	2	29	44	3	6	1	49	14	0	0	176	2	49	361	34	9	12	164	23	3	2	3	18	33	19	5	2	4	23	10	36	16	11	14	10
OTU 68	130	0	0	92	136	20	0	38	2	0	4	11	13	0	0	1	18	0	14	0	6	0	1	3	22	0	0	1	0	0	6	0	2	0	30	0	18	4	19	42	0	2	4	0	0	7	27	0	29	24
OTU 69	5	13	6	24	201	0	14	618	0	33	31	2	8	81	45	8	51	15	6	64	31	13	23	1	11	2	75	6	42	142	1	11	85	14	10	30	10	3	0	49	3	77	6	12	9	3	1	13	7	2
OTU 70	112	28	1	13	7	2	20	1	0	18	72	27	13	9	1	3	11	0	12	1	1	2	18	8	5	0	137	0	0	14	7	32	23	43	42	0	12	6	4	81	4	25	2	8	0	0	1	2	6	40
OTU 71	6	4	22	0	0	1	74	8	10	16	2	10	44	37	0	1	0	592	2	15	96	67	0	2	3	13	1	10	26	20	10	95	4	6	5	58	4	28	0	7	12	79	0	56	4	14	0	41	41	5
OTU 72	454	25	70	133	33	10	84	0	0	26	8	26	279	25	8	1	38	7	17	18	9	2	1	2	6	122	4	1	16	22	21	81	17	15	115	13	34	9	27	29	2	35	31	73	126	10	4	130	2	37
OTU 73	40	27	2	89	35	36	10	27	286	91	3	61	14	45	0	13	42	28	0	39	117	0	35	1	29	28	4	2	94	13	1	19	15	100	56	22	29	13	17	35	8	51	6	0	0	1	24	14	16	2
OTU 74	2	0	7	4	5	28	182	12	43	7	18	169	93	221	14	14	12	2	8	119	7	31	53	34	36	0	110	17	15	2	23	3	47	217	157	2	318	49	31	37	23	71	24	119	63	105	2	23	63	3
OTU 75	6	85	17	15	192	28	2	16	11	102	0	16	67	16	35	21	7	145	0	11	801	18	28	4	35	189	24	39	0	3	0	3	109	608	310	0	246	35	31	7	21	129	13	94	8	20	24	56	14	122
OTU 76	136	40	8	0	0	11	30	1	3	53	67	0	6	2	0	2	8	14	2	1	7	0	4	1	6	8	1	3	11	5	1	120	36	33	176	5	0	0	14	394	0	3	58	0	24	0	0	82	0	0
OTU 77	132	7	8	47	56	71	59	44	16	2	117	11	28	18	5	7	7	3	34	0	4	43	58	5	11	1	49	504	17	10	19	28	20	5	24	4	9	52	10	1	30	107	2	18	28	40	0	7	40	33
OTU 78	248	7	21	32	47	26	37	0	3241	1	7	3	0	66	18	20	1	0	0	23	2	1	5	0	2	65	11	118	16	214	0	7	31	222	2	115	10	114	0	0	62	1	3	5	7	39	7	1	0	67
OTU 79	93	40	209	50	170	64	52	31	5	900	16	56	57	128	29	24	439	29	15	39	182	11	154	71	107	63	176	36	41	102	17	125	90	411	492	80	113	39	133	90	14	370	105	110	3	11	61	117	67	286
OTU 80	48	11	45	1	52	9	151	14	0	158	33	4	0	249	13	20	16	53	21	131	0	25	9	124	107	39	47	2	15	79	6	46	7	58	83	112	58	2	67	15	1	73	110	26	20	2	40	2	14	9
OTU 81	173	47	252	45	37	72	187	13	9	6	80	19	26	31	120	537	63	11	10	25	116	16	51	65	6	67	60	17	25	761	4	42	15	95	7	17	76	3	118	87	1	47	62	142	1	5	20	80	16	27
OTU 82	372	215	2	3	3	0	3	13	1	61	2	36	12	1	3	0	117	12	4	2	26	0	22	5	95	52	3	0	2	2	7	25	31	114	109	1	12	34	0	167	22	0	32	1	1	4	1	86	0	55
OTU 83	25	0	5	0	0	0	4	0	16	1	0	0	0	0	0	0	12	0	0	0	33	4	1	0	0	1	53	0	0	0	0	0	14	10	29	1	0	24	2	3	18	0	0	0	1	0	5	9	14	2
OTU 84	3	60	15	40	35	2	120	1	0	0	8	49	8	2	2	0	3	0	1	3	30	0	18	1	1	2	124	0	1	7	2	1	1	0	365	45	0	23	30	124	11	25	68	43	13	1	8	3	0	1
OTU 85	7	0	3	0	6	32	5	8	23	19	5	0	1	0	8	9	0	0	37	0	4	0	3	20	20	0	42	9	0	8	22	0	0	6	3	2	2	92	19	0	54	6	0	0	0	4	0	0	33	3
OTU 86	0	0	0	0	7	0	0	0	0	0	1	0	0	0	1	0	8	0	0	0	0	0	0	0	0	0	63	36	0	1	0	40	0	31	0	0	0	17	0	0	6	0	0	0	0	0	0	0	10	2
OTU 87	3	8	0	81	61	0	0	0	0	2	6	0	20	152	1	1	0	0	16	71	1	0	0	0	0	2	33	15	2	0	0	0	2	0	0	0	0	1	0	196	1	117	0	0	0	0	1	87	2	3
OTU 88	0	0	33	50	1	0	32	0	0	0	1	0	80	0	26	11	0	0	1	0	0	0	3	6	0	1	0	3	67	1	0	0	0	2	0	13	4	2	0	6	0	0	0	0	11	0	0	0	0	0
OTU 89	9	3	9	15	18	3	54	0	0	6	0	0	0	134	0	3	74	3	0	70	13	1	0	4	35	16	7	4	2	3	7	0	9	0	0	0	1	0	7	103	0	103	71	0	334	0	2	18	0	0
OTU 90	0	0	2	0	0	99	3	61	0	2	0	0	2	0	9	3	0	16	4	0	0	0	10	0	14	0	0	1	0	2	15	4	61	0	16	0	0	0	0	1	0	0	0	0	0	0	0	0	2	236
OTU 91	0	0	0	0	0	4	0	0	0	0	19	0	0	3	22	1	0	0	0	2	0	2	0	2	0	0	5	18	0	0	0	1	246	0	58	0	0	0	0	9	0	0	0	0	0	0	0	0	0	0
OTU 92	0	0	0	0	0	0	0	0	0	0	2	0	64	18	0	0	0	11	1	10	0	7	1	7	0	60	2	1	17	0	2	0	0	16	109	1	85	4	84	0	0	0	0	14	13	0	52	10	0	47
OTU 93	0	0	0	0	0	0	89	0	0	0	0	0	7	0	0	0	0	0	0	0	0	0	18	0	20	0	0	0	4	0	0	0	0	0	0	0	1	0	0	0	0	5	3	0	0	0	0	3	6	10
OTU 94	84	27	166	3	1	335	49	145	231	164	2	8	88	1	149	48	111	80	224	10	8	110	44	199	174	162	0	320	8	94	86	5	178	23	63	103	45	215	170	51	123	32	48	141	54	186	55	17	345	8
OTU 95	3	24	0	48	8	1	0	1	3	23	12	0	0	0	1	16	39	0	0	1	0	0	0	0	0	0	0	0	2	100	0	0	81	117	13	1	1	2	0	0	2	11	0	2	11	9	2	0	22	0
OTU 96	0	25	0	4	0	0	1	0	0	0	13	0	3	0	2	0	0	0	0	0	0	0	1	0	14	8	3	0	0	0	0	0	0	0	0	0	0	0	0	0	0	0	10	32	0	0	0	0	0	90
OTU 97	0	0	2	1	6	0	0	0	0	0	0	3	3	0	0	0	0	0	5	0	36	3	0	0	0	0	3	806	4	0	0	7	0	0	0	1	0	0	0	0	0	6	0	101	6	0	12	0	6	25
OTU 98	0	11	0	0	0	0	0	0	0	0	1	3	380	2	2	2	0	5	2	6	3	0	16	0	37	15	8	0	8	0	6	0	1	0	1	0	743	22	2	0	10	0	28	58	0	86	0	15	0	1
OTU 99	344	16	57	234	179	18	20	10	13	164	70	86	151	14	12	0	48	2	1	8	136	13	123	55	75	208	35	13	75	75	18	9	83	6	202	28	59	71	14	59	28	197	19	116	3	0	17	146	18	7
OTU 100	38	21	0	100	30	1	2	4	55	2	0	9	65	88	254	81	25	0	34	35	12	8	60	382	1	9	1	12	20	41	10	12	100	45	38	0	98	24	0	29	9	48	5	5	138	2	2	0	67	1
OTU 101	1	3	0	1	0	0	104	1	0	1	0	0	0	7	0	0	49	0	11	7	0	0	22	0	0	0	0	0	0	0	2	0	34	6	88	0	1	0	0	3	0	0	0	3	0	0	0	0	0	3
OTU 102	246	0	1	1	0	0	1	5	1	2	0	17	31	3	0	0	15	0	6	1	8	0	43	0	3	3	20	0	0	7	15	0	1	118	0	0	25	0	0	2	0	9	25	0	13	4	8	155	0	3
OTU 103	30	1	0	50	30	1	13	10	8	1	22	5	2	0	1	9	27	23	2	0	78	0	22	49	22	80	0	3	2	45	3	19	12	0	5	0	2	0	11	1	0	917	74	2	0	2	35	40	14	12
OTU 104	102	28	1	10	87	3	106	5	9	14	10	1	2	4	13	20	271	42	6	11	6	10	31	85	41	104	20	0	25	82	0	21	90	46	77	26	54	15	35	21	7	6	2	36	4	13	34	40	23	85
OTU 105	7	0	0	0	18	0	5	0	6	0	14	2	0	1	0	0	0	0	0	0	0	0	0	0	20	3	0	0	0	6	17	0	17	25	1	0	1	2	26	110	1	2	0	0	0	1	0	10	6	220
OTU 106	0	2	0	0	598	15	48	2	0	0	9	20	2	34	0	0	1	83	0	3	11	0	50	8	20	0	0	1	0	0	2	9	5	2	15	1	3	0	69	0	0	7	0	43	9	0	32	0	5	53
OTU 107	0	3881	0	3	7	12	0	1	0	17	5	9	0	52	15	1	8	3	0	23	0	0	1	32	0	2	16	3	0	38	2	0	0	9	27	10	0	0	1	3	0	7	23	3	1	0	5	0	6	9
OTU 108	40	17	29	40	2	38	14	39	6	1	34	3	16	40	2	0	203	2	0	28	0	0	31	12	12	6	0	6	44	52	0	35	33	19	4	1	15	19	4	20	8	4	4	49	0	0	5	0	11	24
OTU 109	0	0	0	6	0	0	0	0	0	0	0	0	0	0	0	0	0	0	0	0	0	0	0	0	0	0	1	0	0	0	0	0	0	0	0	4	0	0	0	0	0	0	0	0	3	0	0	0	0	0
OTU 110	94	64	47	91	35	59	1	6	6	23	8	5	0	2	53	2	9	0	6	0	9	41	3	27	4	81	30	10	54	98	1	0	28	2	9	0	43	2	78	35	1	93	391	31	1	51	14	11	17	51
OTU 111	0	0	0	16	0	1	0	0	0	8	2	0	0	3	0	0	5	0	0	0	1	0	1	19	25	0	0	0	0	0	0	0	0	24	0	1	1	0	0	4	0	5	25	0	5	3	0	0	0	0
OTU 112	3	0	48	19	0	31	4	13	0	1732	11	13	11	30	0	0	13	0	0	6	31	14	5	14	1	1	6	0	14	0	0	4	8	0	6	0	3	20	0	4	10	39	7	0	0	0	0	7	0	1
OTU 113	0	1	0	0	16	12	0	16	0	0	0	0	0	0	0	1	10	26	0	0	26	9	1	2	18	0	0	0	1	1	0	0	10	0	4	8	0	0	18	0	0	0	28	12	3	5	0	4	0	6
OTU 114	166	2	133	127	17	50	35	14	137	48	52	46	68	32	18	8	401	3	90	6	101	119	6	76	102	103	34	29	1	219	48	15	27	111	133	128	4	298	23	22	159	25	74	440	34	200	4	39	174	17
OTU 115	163	30	70	25	160	20	62	58	12	17	69	43	32	67	42	16	256	1397	46	1030	22	18	31	4	14	22	72	37	1	65	25	106	183	160	57	19	17	41	2610	10	26	58	397	37	15	21	1487	104	18	20
OTU 116	8	1064	169	59	0	58	38	13	14	33	52	4	3	18	22	23	1	4	78	4	110	8	58	4	133	144	11	99	19	18	14	216	48	59	4	1	49	45	39	2105	17	38	71	64	59	7	5	201	23	53
OTU 117	30	70	66	6	92	102	31	14	90	15	24	39	5	6	37	5	54	54	1194	4	25	85	12	17	25	42	10	43	9	3	541	35	60	77	13	28	4	17	22	98	10	60	57	102	14	177	13	1	82	72
OTU 118	0	13	0	0	1	0	8	14	0	2	0	0	0	2	0	0	13	0	3	0	0	0	0	0	6	0	6	0	3	9	1	0	3	0	22	0	0	12	6	0	6	9	16	51	1	0	0	0	0	11
OTU 119	28	11	109	13	125	73	14	38	25	90	11	16	89	30	20	10	155	37	7	14	40	13	8	54	26	43	20	55	4	66	2	124	130	45	65	14	108	12	74	52	5	201	5	86	48	11	4	48	70	55
OTU 120	0	3	0	3	0	23	2	2	0	2	61	1	23	0	0	3	21	0	2	0	0	0	5	2	0	0	5	76	0	0	4	2	0	21	0	4	19	12	0	21	11	3	0	119	0	0	0	45	1	0
OTU 121	40	0	1	3	63	2	0	0	61	1	3	9	3	18	41	8	13	0	19	12	14	59	0	0	63	51	0	55	31	10	31	1	146	20	75	85	0	82	4	108	39	9	43	5	25	23	5	21	106	13
OTU 122	54	2	1	121	131	106	450	34	10	98	6	191	79	484	3	6	55	0	20	254	7	3218	5	58	362	1	406	30	2	26	4	80	85	1	36	60	1	13	2	0	10	31	22	1	5	3871	48	14	17	3
OTU 123	6	123	152	168	42	22	47	87	47	247	53	62	207	205	41	11	169	82	91	115	86	67	52	75	151	88	168	70	95	325	30	88	50	218	214	32	136	62	87	166	32	347	76	351	54	117	51	121	57	187
OTU 124	1	24	0	21	29	9	3	0	0	131	2	10	0	8	2999	1350	21	0	0	1	17	0	0	2	0	0	0	0	0	9	0	4	52	23	19	13	0	1	0	6	0	59	0	0	1	0	0	0	0	1514
OTU 125	159	72	420	187	70	25	341	15	28	121	17	52	33	232	86	58	88	28	37	81	161	82	338	159	212	33	109	77	164	300	9	497	76	39	75	23	18	220	99	64	95	247	73	149	67	86	103	126	83	184
OTU 126	0	16	1	0	12	138	0	35	4	0	0	1	5	32	12	1	0	12	0	12	0	0	0	21	0	0	0	3	0	0	1	0	0	0	8	0	0	0	0	0	0	0	0	0	5	14	0	0	1	0
OTU 127	3	0	1139	34	6	8	14	30	14	23	25	1	8	53	0	8	20	4	5	20	2	0	23	18	8	10	11	0	3595	23	12	46	84	13	24	13	17	2	0	0	0	15	10	1	4	10	0	35	45	50
OTU 128	181	92	302	193	157	41	71	13	67	92	289	64	59	213	120	48	284	205	95	85	178	56	129	220	78	511	163	801	43	79	51	196	467	104	242	62	159	54	340	103	29	287	60	308	70	73	105	112	61	372
OTU 129	0	0	0	1	26	0	11	0	59	12	0	5	8	0	0	0	0	5	0	0	1	106	0	0	0	0	1	0	0	0	0	0	0	55	0	5	2	0	0	1	0	0	2	8	0	45	1	0	99	0
OTU 130	0	0	6	241	30	345	3	99	1	4	88	1	17	4	367	146	77	0	9	0	32	6	1	6	45	1	5	29	0	96	6	0	16	103	298	2265	2	18	37	8	10	33	74	13	24	10	1	48	3	0
OTU 131	12	5	33	20	133	0	10	0	0	1	0	3	0	10	43	5	3	190	33	7	57	3	0	98	51	127	6	6	1	90	18	1	24	36	68	0	95	71	62	14	36	112	32	0	20	10	44	18	0	0
OTU 132	27	21	2	10	1	58	7	13	10	0	2	0	0	47	0	0	2	1	5	22	4	0	0	0	1541	1	37	12	24	0	0	3	12	26	2	18	9	0	3	2	0	6	7	0	0	8	1	0	48	1
OTU 133	0	0	0	17	4	0	11	0	9	0	0	1	0	24	0	0	0	0	0	12	44	14	0	0	6	0	0	0	5	0	0	4	0	34	0	0	5	0	0	2	0	0	0	0	0	10	1	9	21	3
OTU 134	0	3	1	101	25	36	50	3	0	183	126	4	37	67	12	0	16	20	8	27	1	11	22	16	7	2	28	7	1	55	390	13	12	2	85	5	119	0	44	3	0	18	102	18	4	13	38	21	1	16
OTU 135	5	1	5	25	12	189	190	109	224	64	72	8	4101	13	131	67	58	19	139	13	9	140	29	280	0	11	25	60	7	4	105	13	6	45	4	145	0	167	0	20	81	3	2	9	25	173	4	8	407	145
OTU 136	72	73	0	62	4	6	50	10	16	4	40	0	8	69	0	20	80	11	2	43	0	10	15	50	145	112	20	1	30	28	3	44	9	18	77	3	74	47	5	4	18	82	88	11	0	17	5	13	72	0
OTU 137	1	0	40	7	0	9	2	2	9	2	0	0	0	78	0	2	33	0	0	61	0	6	0	7	1	7	0	9	0	0	0	4	99	0	12	0	190	22	0	0	8	1	0	3	12	0	0	1	17	0
OTU 138	0	0	0	36	0	1	2	1	0	0	13	66	0	1	11	3	17	43	49	2	0	4	1	12	0	73	55	0	0	87	19	1	2	0	8	4	6	0	111	0	0	14	0	0	7	2	70	0	0	0
OTU 139	258	35	33	25	106	25	8	10	73	16	44	140	145	24	15	15	127	46	1	7	108	123	17	17	133	48	40	0	25	24	0	30	58	21	84	27	141	37	96	5	21	32	328	116	42	139	17	120	165	154
OTU 140	70	89	25	181	139	18	745	30	41	8	49	117	225	31	110	40	343	200	36	12	219	82	79	12	464	146	275	66	29	76	27	77	1741	253	402	46	312	11	102	32	63	102	120	45	98	70	25	94	71	60
OTU 141	0	0	0	0	0	0	0	0	0	4	0	0	0	0	2	0	0	0	0	0	126	0	0	0	0	0	0	0	0	0	0	0	0	0	0	0	0	0	0	0	0	0	0	0	0	0	0	0	0	0
OTU 142	0	0	0	14	0	21	27	0	0	0	0	0	0	0	0	0	2	0	0	0	22	0	2	0	0	0	0	1	0	0	0	3	0	0	0	0	0	0	0	0	0	0	0	0	0	14	0	3	0	0
OTU 143	7	12	5	3	11	4	0	0	0	3	0	7	1	1	3	0	7	7	1	0	0	655	1898	19	0	0	1	24	29	39	0	1	0	0	28	11	0	59	0	59	24	8	3	2	0	14	0	31	0	0
OTU 144	48	2	0	0	1	2	60	4	0	63	0	2	4	0	8	6	6	5	0	0	3	0	0	0	2	0	17	0	0	0	3	0	29	17	0	74	3	0	10	0	0	0	1	0	0	1	0	13	1	0
OTU 145	15	40	2	141	81	42	140	20	15	12	8	18	1	237	17	4	1	20	18	139	63	53	33	44	77	12	30	3	53	62	21	64	9	155	19	56	60	2	26	36	1	12	121	0	5	29	0	82	31	116
OTU 146	19	20	123	1	145	1	93	1	2	26	12	12	2	240	16	15	51	12	39	150	18	2	23	14	17	64	35	9	8	1	19	29	1	5	21	0	109	12	7	6	4	1	265	4	6	1	18	18	2	16
OTU 147	0	12	0	9	49	7	10	6	5	17	35	15	0	32	0	1	154	39	5	12	0	3	0	0	69	0	45	8	0	48	0	2	317	15	0	1	21	0	1	0	0	5	0	1	37	0	0	5	0	0
OTU 148	249	6	140	6	99	1	30	1	28	6	0	9	24	138	0	6	108	32	25	88	1	17	3	3	2	258	9	0	0	248	26	259	140	475	118	1	9	15	36	63	4	8	26	59	0	34	0	12	90	16
OTU 149	0	2	0	1	44	0	48	0	6	0	78	11	5	4	0	0	0	2	0	0	11	16	9	2	0	12	36	0	9	5	0	17	1	0	3	4	2	1	0	2	1	2	83	0	0	5	5	38	16	5
OTU 150	0	21	0	1317	20	6	10	0	0	2	3	9	3	2	0	1	66	1	4	0	0	1	0	5	45	0	22	37	1	8	0	15	0	0	0	0	22	1	1	9	1	15	2	10	0	0	1	0	0	0
OTU 151	32	5	0	355	20	14	16	46	4	1	6	5	0	24	41	12	1	0	5	10	0	26	5	62	12	10	15	82	25	1	14	4	24	62	3	0	1	7	2	9	5	164	27	34	23	2	2	0	24	4
OTU 152	102	5	108	1	29	2	3	6	72	12	23	139	60	27	2	35	49	2791	50	8	3	44	11	19	20	4	87	27	405	0	45	66	1	1	12	5	47	46	10	12	27	32	0	44	9	12	12	98	224	2
OTU 153	0	0	0	0	0	0	1	0	0	22	6	6	0	0	0	0	2	0	0	0	0	1	12	0	0	1	0	0	0	0	0	0	0	0	0	0	0	0	0	90	0	0	0	0	0	0	0	0	0	0
OTU 154	0	6	0	0	0	2	0	0	4	1	1	4	0	0	1	0	0	4	0	0	0	0	51	0	0	48	1	0	43	0	0	11	0	0	15	36	0	0	0	0	0	0	498	5	0	0	0	8	3	0
OTU 155	46	0	5	0	48	20	0	2	7	2	0	39	0	15	0	5	64	2	9	2	85	0	4	0	24	22	16	9	74	1	7	0	10	11	0	0	11	6	13	0	3	8	9	0	0	6	0	0	7	1
OTU 156	29	202	53	122	60	106	5	31	31	28	48	26	1	138	67	4229	28	0	2	88	77	28	30	106	30	7	14	9	16	14	0	2	133	21	142	26	10	50	2	8	25	188	29	67	3	22	3	24	49	31
OTU 157	1	0	0	27	13	787	1	292	0	2	0	0	0	0	8	0	25	5	0	0	24	1	0	46	15	0	0	0	1	0	0	1	42	0	81	1	0	5	16	0	2	20	66	2	6	0	0	0	2	515
OTU 158	1	0	0	0	0	0	5	0	0	44	0	11	0	52	0	3	0	1	0	27	0	0	2	0	0	0	0	0	0	0	1	0	45	2	0	0	0	0	0	0	0	0	38	0	0	2	0	0	0	0
OTU 159	20	13	34	12	22	0	329	17	7	71	0	18	5	191	11	0	6	107	0	87	64	10	10	2	107	1	37	26	5	3	10	14	41	0	55	17	9	35	107	104	23	10	11	28	5	0	46	50	0	35
OTU 160	143	293	54	97	313	168	67	63	10	74	37	101	490	79	43	42	3	947	58	35	34	6	1339	167	21	67	129	37	80	41	14	34	54	144	7	24	1336	23	1875	618	8	180	59	3	16	27	829	25	5	68
OTU 161	179	0	62	2	227	31	84	5	1	10	26	31	2	109	3	1	39	3	4	104	21	1	9	7	39	9	5	1686	112	0	10	6	31	24	23	1661	2	4018	2	97	1978	5	53	21	1	22	3528	175	4	18
OTU 162	1048	0	91	12	2	168	245	80	31	14	4	4	0	14	49	36	18	66	198	6	45	36	27	129	31	17	6	144	52	3	101	409	0	190	11	59	59	140	69	36	65	441	39	0	2175	21	54	787	60	7
OTU 163	0	0	0	0	0	0	41	0	0	25	0	0	0	0	0	0	0	0	0	0	0	0	0	0	0	67	0	0	0	0	0	0	4	0	0	0	0	0	9	0	0	0	0	0	0	2	0	0	0	0
OTU 164	0	0	0	0	82	4	0	0	0	0	18	0	0	1	0	0	0	0	0	0	0	3	6	0	0	0	2	0	0	0	0	0	0	0	10	0	0	0	0	16	0	0	0	0	0	0	0	0	5	16
OTU 165	57	30	0	55	12	3	5	10	0	4	10	6	1	37	13	0	0	0	1	12	5	35	759	0	1	6	0	0	10	103	1	45	2	1	41	8	12	0	4	3	0	1	8	2	0	0	0	6	3	44
OTU 166	0	0	0	0	0	0	0	0	0	0	0	0	0	0	0	8	0	0	0	0	0	0	0	0	0	0	0	0	0	1	0	0	0	0	0	0	1	0	0	0	0	0	0	0	0	0	0	0	2	0
OTU 167	25	14	24	47	5	114	22	27	3	74	59	1107	0	109	4	0	11	51	24	57	6	5	0	13	42	0	2967	1	26	1	16	3	0	42	17	0	0	7	12	3	1	0	47	19	1	16	0	41	3	10
OTU 168	1	72	36	10	8	145	4	75	25	65	64	7	92	106	0	3	2	12	0	54	16	13	35	8	11	6	1	3	5	30	0	44	9	9	16	31	45	0	43	17	0	5	83	201	18	0	4	17	51	46
OTU 169	7	0	0	0	0	0	0	3	0	0	3392	0	0	3	3	0	0	0	5	0	6	10	0	0	0	0	29	0	0	0	2	0	0	1	0	0	1	0	160	0	0	0	0	0	0	1	41	1	3	0
OTU 170	0	0	0	0	0	0	1	0	0	0	0	0	0	0	0	0	0	0	0	0	0	3	11	0	0	0	0	0	0	0	0	0	0	0	0	2	66	0	0	0	0	0	0	0	5	7	0	2	0	0
OTU 171	32	0	17	264	184	6	3	3	50	18	9	435	104	85	0	0	1	20	64	21	8	80	39	26	4	8	761	27	4	17	24	61	1	9	193	2	167	39	14	5	2846	3	5	5	23	45	3	30	104	4
OTU 172	0	7	0	0	0	21	0	3	12	0	5	0	0	0	0	0	0	2	4	2	0	24	109	14	0	4	0	0	0	32	1	0	3	0	0	0	0	0	34	0	0	0	31	0	0	8	3	0	12	5
OTU 173	0	57	1	0	4	0	0	5	0	0	32	1	0	1	37	7	50	3	9	0	6	2	4	6	0	11	135	10	0	0	0	2	49	10	19	0	0	26	0	0	17	1	0	60	3	0	0	32	0	0
OTU 174	0	3	7	4	33	3	113	6	7	26	43	9	0	21	1	1	0	13	17	3	9	0	19	0	33	4	10	17	0	59	15	1	16	4	81	0	3	4	0	0	3	41	14	3	1	2	5	12	1	33
OTU 175	1	0	3	15	1	26	21	15	49	1	0	1	0	0	0	0	135	0	46	0	14	39	84	0	2	9	25	1	1	8	10	32	21	1	0	43	7	0	18	67	0	48	39	3	6	114	5	0	216	6
OTU 176	73	9	42	14	51	11	105	27	9	6	4	104	15	130	12	20	321	14	2	51	56	81	57	5	48	68	47	2	116	100	0	5	14	14	25	12	2	0	0	29	0	29	12	2	14	14	2	67	31	58
OTU 177	448	10	104	277	164	11	68	1	21	1	33	12	15	20	34	16	20	10	6	9	6	28	10	1	53	4	21	0	11	224	0	326	0	215	56	16	26	74	99	5	32	44	11	16	0	9	44	149	27	39
OTU 178	105	16	7	15	0	18	166	39	3	111	1	20	7	5	2	1	0	19	10	0	10	5	7	0	0	84	20	11	0	7	3	40	19	21	43	1	6	13	135	0	12	48	8	4	0	3	38	1	0	69
OTU 179	36	0	10	27	176	6	0	8	5	21	0	134	14	16	0	1	0	0	23	12	1	4	0	12	11	3	259	0	42	109	14	77	117	5	72	25	0	2	0	19	0	12	2	64	0	52	1	6	2	6
OTU 180	14	117	2095	216	304	94	124	27	43	224	85	76	29	6	32	14	140	68	28	3	396	41	248	90	96	144	71	48	30	57	25	67	21	294	165	41	52	60	44	73	31	337	488	110	34	37	21	4	114	46
OTU 181	6	2	23	42	72	18	3	0	3	12	14	1	4	7	2	3	4	26	11	7	29	7	97	2	6	17	65	1	28	1	0	0	3	24	115	16	1	8	30	27	2	38	3	27	6	0	11	1	0	13
OTU 182	0	0	0	0	0	6	11	1	0	0	0	3	0	0	17	0	0	6	0	0	0	0	0	0	0	3	0	0	2	0	0	1	0	0	1	0	0	2	21	1	4	0	1	0	0	0	2	0	0	0
OTU 183	21	3	1	19	1	22	53	7	11	0	8	758	17	42	5	11	45	217	1	19	1	13	1	55	65	235	0	2	2	3	0	12	95	257	17	15	2	6	182	6	1	52	4	1	11	0	1244	148	15	28
OTU 184	0	25	0	3	0	4	79	0	3	11	0	5	2	50	1	4	0	4	289	35	18	30	22	0	1	22	30	6	0	25	127	11	1	131	0	0	7	0	0	16	0	4	24	4	59	13	16	8	5	0
OTU 185	56	14	24	31	24	1	6	0	21	16	0	23	1	9	34	8	5	20	47	1	42	3	41	51	20	356	90	4	429	8	14	0	94	237	18	2	1	7	56	72	4	38	1	45	2	15	44	42	72	104
OTU 186	0	15	5	0	0	6	2	0	9	1	3	3286	0	2	0	0	0	0	2	0	25	30	0	0	32	0	5	0	33	0	6	2	0	175	114	0	0	12	168	2	2	0	0	16	5	5	39	0	0	1
OTU 187	120	20	299	123	76	7	13	21	41	68	143	19	98	74	43	21	27	22	86	19	346	47	48	80	19	130	116	22	38	114	77	67	243	136	56	8	227	9	134	116	5	2	7	29	6	54	42	35	110	29
OTU 188	56	14	5	108	28	537	108	2995	517	9	8	84	57	108	379	149	96	97	494	38	38	553	14	349	112	82	10	258	172	25	266	3623	106	65	0	372	99	622	0	11	327	73	34	44	143	576	12	18	1112	67
OTU 189	74	40	170	10	2	137	62	689	46	22	103	109	20	27	18	11	40	0	402	12	11	32	102	84	27	6	109	19	18	15	209	42	45	13	189	9	14	20	48	24	11	152	111	169	36	33	79	8	98	91
OTU 190	1	29	1	11	0	0	15	0	0	0	24	1	0	86	2	0	0	0	1	53	0	1	5	0	9	162	0	5	0	5	0	0	1	104	52	0	0	2	0	0	0	0	888	0	7	0	19	0	0	50
OTU 191	25	72	13	0	98	34	12	10	8	34	27	8	40	49	2	351	11	5	14	28	10	4	130	8	587	135	17	4	45	32	0	62	235	32	159	64	20	8	53	68	2	139	74	1	17	1	20	59	9	29
OTU 192	19	17	65	8	70	35	43	49	9	201	205	6	85	276	11	6	230	29	13	166	93	6	140	41	15	187	22	10	87	264	0	65	34	73	58	5	161	17	15	90	12	173	206	2752	61	34	4	54	25	21
OTU 193	0	16	81	70	42	4	195	2	27	28	7	0	3	21	0	1	348	53	35	20	12	9	9	0	0	5	2	69	1	75	22	34	206	67	0	0	2	6	6	16	3	29	123	15	26	0	1	11	46	102
OTU 194	28	55	68	5	0	134	4	12	3	53	64	8	0	14	8	0	0	0	0	18	13	0	30	0	72	4	19	16	9	144	0	0	343	0	33	2	24	8	67	5	5	99	175	18	90	2	15	28	6	2
OTU 195	0	7	23	12	20	31	18	2	1	68	5	0	6	76	1	0	0	22	5	50	1	3	36	9	9	8	27	1	9	13	1	4	51	107	29	57	87	5	12	56	1	26	19	28	2	0	52	3	1	5
OTU 196	0	18	2	0	38	12	61	12	5	14	25	40	51	30	31	17	0	2	10	12	4	0	13	49	2	124	7	33	1	2	20	13	12	32	94	26	0	1	5	1	0	0	69	7	1	8	3	57	6	2
OTU 197	285	11	118	143	166	55	147	22	227	132	55	104	4	278	22	20	75	42	31	148	7	31	157	60	82	339	100	8	6	99	17	187	72	298	524	39	11	76	112	22	2092	89	46	39	24	32	88	30	68	55
OTU 198	0	2	81	16	18	0	0	9	10	0	1	0	0	65	0	0	0	4	0	32	8	1	3	0	14	26	0	0	1	7	0	0	0	0	0	0	3	0	0	0	0	58	1	0	0	0	6	0	18	57
OTU 199	7	12	0	62	0	3	41	1	8	1	1	0	12	0	0	0	12	0	1	2	33	5	83	8	9	25	36	14	2	104	22	8	5	0	0	0	87	5	0	27	0	100	0	29	0	0	3	0	3	8
OTU 200	19	2	13	194	39	1	0	0	7	56	14	15	13	52	6	1	20	17	6	31	0	22	200	0	28	5	34	5	27	105	0	36	91	4	38	5	38	14	2	8	7	136	32	7	14	23	14	1	31	104
