	Host 1	Host 2	Host 3	Host 4	Host 5	Host 6	Host 7	Host 8	Host 9	Host 10	Host 11	Host 12	Host 13	Host 14	Host 15	Host 16	Host 17	Host 18	Host 19	Host 20	Host 21	Host 22	Host 23	Host 24	Host 25	Host 26	Host 27	Host 28	Host 29	Host 30	Host 31	Host 32	Host 33	Host 34	Host 35	Host 36	Host 37	Host 38	Host 39	Host 40	Host 41	Host 42	Host 43	Host 44	Host 45	Host 46	Host 47	Host 48	Host 49	Host 50	
OTU 1	19	27	74	41	28	11	2	6	9	46	0	15	8	48	85	87	1	115	64	37	25	6	51	1	0	1	71	179	33	71	8	101	11	63	0	39	0	10	0	62	123	0	46	3	12	1	44	0	50	0
OTU 2	116	8	23	53	23	3	30	21	1	2	0	0	5	2	4	4	56	5	49	84	0	0	3	872	37	73	125	0	73	1	2	2	63	0	22	150	0	0	0	0	3	0	85	5	123	0	0	9	360	9
OTU 3	0	53	0	0	1	96	0	7	3	0	6	0	13	0	1	10	13	0	13	1	0	1	0	135	10	10	7	22	1	2	0	0	0	19	31	1	7	25	6	2	0	4	4	7	0	0	11	0	18	0
OTU 4	0	0	0	0	0	0	0	0	0	0	0	0	0	0	0	0	0	0	0	0	0	0	0	0	0	0	0	0	0	0	0	0	0	0	0	0	0	0	0	0	0	0	0	0	0	0	0	0	0	0
OTU 5	406	855	4	50	314	522	387	102	79	344	445	5	1672	265	551	374	661	110	398	201	0	142	315	137	1	47	57	31	622	89	373	23	81	253	144	220	0	112	301	563	398	100	93	0	9	863	443	39	312	55
OTU 6	29	56	0	20	32	50	42	100	2	14	0	31	29	15	95	0	12	0	0	174	66	6	213	5	8	81	49	10	116	159	7	101	108	61	32	250	34	1	27	43	41	44	3	38	8	195	19	1	371	13
OTU 7	150	28	106	52	45	13	124	163	27	46	58	17	78	1	11	22	636	97	79	7	31	46	28	40	64	45	30	56	65	18	37	33	179	52	877	5	1399	99	6	30	14	582	105	41	68	0	73	21	18	369
OTU 8	64	35	2	3	25	74	31	30	12	69	106	21	58	4	5	22	18	32	18	3	49	85	2	148	162	32	71	24	19	19	12	56	253	36	1929	6	145	8	2244	22	6	88	6	51	74	7	25	103	53	45
OTU 9	3	1	61	6	5	12	8	1	14	51	0	49	2	8	12	0	25	10	11	3	98	15	0	34	38	8	10	0	38	15	17	6	0	1	0	0	0	0	0	4	9	1	49	4	28	97	27	29	0	6
OTU 10	0	0	0	13	6	77	17	92	1	48	0	3	3	2	1	11	71	1	65	7	9	10	33	81	397	0	0	9	0	0	18	0	1	19	468	1	0	3	4	5	0	281	0	0	0	3	0	8	1	141
OTU 11	38	24	18	54	0	3	34	102	21	49	86	21	57	7	16	21	84	105	43	8	48	66	12	7	50	2	22	66	14	0	8	7	14	2	29	0	97	65	4	4	9	2	27	80	229	22	18	22	0	35
OTU 12	22	28	1	49	23	84	11	94	14	26	26	22	9	1	4	12	32	107	47	2	55	18	17	11	1	56	26	104	21	27	13	49	63	3	87	9	29	24	49	1	4	13	11	4	39	76	30	78	17	7
OTU 13	0	0	0	4	0	21	1	0	0	0	2	0	0	0	1	0	0	1	0	0	0	0	0	0	84	0	0	0	14	0	0	0	0	4	37	0	5	0	2	0	0	0	11	0	0	5	0	0	0	0
OTU 14	9	0	6	1	0	27	24	0	11	20	0	50	0	1	0	0	1	54	1	1	98	132	9	0	8	13	2	58	1	0	17	1	0	5	55	2	11	9	0	3	0	74	3	49	6	2	0	17	4	7
OTU 15	0	0	0	0	0	0	0	11	0	0	0	0	0	0	0	3	0	52	0	0	0	0	0	0	2	0	0	9	0	0	0	0	0	0	8	0	0	0	1	46	0	224	0	36	0	0	0	0	0	75
OTU 16	0	0	0	0	0	0	0	0	0	0	0	0	0	0	0	1	2	4	0	0	0	0	0	0	0	0	0	0	0	0	0	0	0	0	0	0	0	0	0	0	0	0	0	0	0	0	0	0	0	0
OTU 17	15	9	55	33	1	20	26	0	3	2	20	9	16	0	0	1	16	18	21	14	23	5	7	0	240	45	20	0	1	11	3	8	21	3	0	61	52	0	2	9	0	2	39	0	16	1	9	127	73	31
OTU 18	11	7	4	77	42	206	87	0	4	81	57	6	13	17	29	49	19	30	6	1	16	3	2	68	18	181	29	3	110	19	30	23	0	8	5	38	87	3101	43	2	40	31	18	73	72	17	18	50	39	15
OTU 19	0	0	0	0	0	0	0	0	0	0	0	0	0	0	0	0	0	0	0	0	0	0	0	0	0	0	0	0	0	0	0	0	0	0	0	0	0	2	0	0	0	0	0	0	0	0	0	0	0	0
OTU 20	27	0	50	0	1	249	3	55	0	11	71	8	3	1	3	5	3	109	37	2	14	13	33	0	5	110	19	2	16	9	239	65	17	50	0	85	7	14	7	1	2	0	9	39	30	11	89	5	15	1
OTU 21	2	6	9	26	0	148	30	13	5	17	5	43	86	0	31	9	116	59	886	58	92	21	0	3	35	0	63	16	9	17	6	16	129	3	33	56	20	1	62	3	4	2	18	9	28	20	2	1	85	3
OTU 22	44	2	5	27	17	6	1	72	0	10	96	4	56	2	41	28	35	166	64	9	5	274	42	2	1	90	19	241	60	19	5	7	9	2347	7	11	61	152	83	14	11	20	11	10	2	35	34	12	60	6
OTU 23	0	3	9	2	0	1	44	55	9	26	52	0	52	11	43	30	0	0	20	11	4	1	7	13	3	77	3	0	4	0	32	10	11	0	12	0	142	16	0	8	26	0	0	206	0	0	36	0	5	3
OTU 24	15	1	0	33	0	3	5	0	0	1	0	251	73	3	9	0	4	0	2	0	523	12	16	0	5	6	13	18	5	0	1	24	1	0	0	5	1	0	7	0	27	20	2	2	0	0	17	6	1	7
OTU 25	0	3	0	0	0	2	0	8	13	0	0	0	0	0	0	12	0	0	0	0	0	0	0	0	0	0	0	11	0	0	13	0	0	0	42	0	0	0	0	0	0	0	0	0	0	0	0	0	0	0
OTU 26	0	0	0	1	0	6	1	0	3	14	0	1	6	0	0	0	0	0	1	0	2	78	0	11	0	51	0	0	0	0	15	0	0	3	393	0	13	4	1	0	0	3	9	19	2	6	0	71	0	2
OTU 27	0	0	0	0	0	4	0	5	0	0	0	0	0	1	0	1	0	0	2	10	0	0	5	0	0	0	0	0	0	0	0	0	0	0	0	21	0	0	0	0	0	1	0	0	0	0	0	0	24	0
OTU 28	52	5	30	19	34	4	19	0	5	12	0	17	139	6	11	9	8	16	27	30	45	0	43	61	157	231	32	26	45	54	21	29	65	24	109	26	34	4	10	12	13	190	11	76	51	0	73	136	23	76
OTU 29	9	4	143	19	3	7	237	11	0	25	79	43	43	16	69	47	42	75	23	5	91	47	77	8	2	14	210	0	11	23	0	25	113	7	5	18	229	34	1	28	31	10	40	33	80	18	25	2	27	32
OTU 30	0	0	0	0	0	0	0	0	0	0	0	0	0	0	0	0	0	0	7	0	0	0	0	0	0	0	0	0	0	0	0	0	0	0	0	0	28	0	0	1	0	0	0	0	0	0	0	0	0	0
OTU 31	0	0	2	1	0	1	0	0	0	0	6	97	0	25	90	1	0	0	17	6	198	8	9	10	2	0	82	1	8	41	12	47	6	3	3	15	3	42	10	0	57	10	5	0	0	0	0	46	0	2
OTU 32	156	5	2	8	6	87	173	26	16	15	66	19	4	328	1359	28	2	20	35	13	40	257	464	44	15	150	1156	271	23	663	32	504	74	67	24	8	170	197	434	44	655	66	2	97	449	581	37	129	11	49
OTU 33	0	1	0	1	0	0	1	0	0	0	0	0	0	1	33	0	0	0	2	0	0	0	9	0	15	8	0	0	0	0	1	0	0	0	0	0	0	0	0	0	4	0	0	0	0	0	0	0	0	0
OTU 34	53	21	111	70	25	7	64	49	34	89	56	7	4	0	2	14	8	46	0	21	15	2	6	6	56	6	6	20	96	1	15	12	22	7	40	80	29	56	5	7	0	28	45	92	1	3	2	28	105	33
OTU 35	0	0	6	18	0	69	9	1	0	3	7	280	7	0	42	17	11	47	82	36	516	5	2	146	0	1	14	1	6	0	0	0	1120	1	0	32	37	21	258	18	10	4	8	58	41	451	135	17	33	1
OTU 36	1	2	58	6	32	82	1	148	5	22	35	6	12	4	35	2	0	3	1	741	20	2	16	3	117	52	49	109	37	3	3	5	31	14	9	13	51	1	89	3	19	64	8	1	3	65	2	59	30	13
OTU 37	130	0	10	35	11	18	0	0	0	0	1	4	0	27	37	0	0	0	0	0	5	0	1	9	75	57	23	0	6	11	1	12	0	0	0	0	5	0	0	0	37	0	1660	34	13	0	140	0	0	0
OTU 38	11	2	8	30	0	115	14	90	134	0	28	11	30	0	1	9	60	13	0	2	24	69	1	10	1	60	8	183	10	3	3	1	54	5	12	2	3	30	7	2	6	28	0	261	108	0	51	16	12	76
OTU 39	36	0	0	0	0	0	81	0	1	5	13	1	4	0	0	28	0	0	0	0	3	20	4	0	6	0	24	3	2	1	0	31	9	2	22	0	0	4	0	0	0	0	0	0	8	1	0	116	1	0
OTU 40	29	4	77	0	0	22	163	110	34	71	1	121	24	13	40	74	65	0	9	3	266	53	3	15	262	60	15	554	2	0	4	12	23	58	9	7	87	3	604	32	10	113	17	13	106	1635	280	12	5	50
OTU 41	4	5	11	19	4	2	913	26	47	154	40	4	82	6	16	20	14	130	67	21	11	0	30	2	0	18	9	91	13	17	28	14	0	11	42	6	128	3	7	115	15	33	2	20	25	0	88	0	24	18
OTU 42	0	7	0	375	10	41	18	0	0	0	0	0	0	2	0	112	1	0	0	0	0	0	18	2	16	0	12	38	21	0	0	0	0	33	0	0	0	2	0	0	0	57	1	0	64	2	6	0	5	7
OTU 43	0	0	16	0	0	24	0	0	0	0	0	0	0	0	0	0	0	0	0	0	0	0	0	0	0	0	0	0	0	0	0	0	0	0	0	0	0	0	0	0	0	0	42	0	0	0	1	26	0	0
OTU 44	10	0	0	27	3	0	1	4	0	6	216	10	0	1	7	0	0	209	0	0	15	0	0	0	0	0	0	41	69	1	0	0	0	0	8	8	2	0	5	22	4	1	0	0	0	10	3326	0	2	0
OTU 45	36	1894	159	59	69	60	54	13	13	30	1	34	34	1	4	12	14	9	5	11	82	16	8	34	34	28	16	71	101	0	3	1	62	25	10	6	42	2	35	5	1	4	94	57	78	51	12	43	23	17
OTU 46	480	14	89	415	27	8	13	144	3	70	26	2	120	18	44	45	19	131	89	0	2	89	12	36	92	199	22	86	19	20	7	6	18	3	14	2	1	91	7	12	50	23	35	7	1285	28	12	464	1	122
OTU 47	0	0	0	0	0	0	0	24	0	0	2	0	1	1	6	1	1	14	0	1	0	11	0	0	0	0	0	0	0	0	0	2	0	0	8	0	1	0	0	2	0	26	1	2	10	5	58	0	2	10
OTU 48	91	10	16	40	22	103	25	13	6	46	17	1	93	5	23	20	21	24	46	10	1	97	17	29	45	180	56	191	8	1	11	85	9	9	52	42	21	65	5	55	9	21	31	299	46	79	29	9	46	1
OTU 49	26	48	114	45	43	84	31	50	1	0	1	0	3	0	13	0	5	3	2	0	0	20	66	2817	0	0	64	181	121	0	8	23	63	5	0	10	9	5	58	40	2	20	77	11	22	163	1	1	2	19
OTU 50	69	49	42	170	13	140	16	56	31	151	77	102	31	0	2	41	13	9	5	14	201	19	18	160	83	82	27	33	15	36	66	64	18	115	53	38	23	4	36	16	8	22	0	293	1	10	60	36	89	19
OTU 51	11	12	10	0	0	0	47	44	0	9	24	14	1	19	65	7	16	107	36	2	25	8	45	2	78	61	16	31	0	19	0	26	40	75	389	0	122	2	1	21	16	311	9	72	51	29	62	29	0	105
OTU 52	43	8	73	15	1286	85	3	0	2	19	33	112	169	28	52	4	49	147	34	16	236	120	1641	87	73	150	107	119	10	27	18	24	38	49	129	41	54	209	21	60	29	121	27	298	53	96	34	162	79	63
OTU 53	0	0	0	0	0	0	0	0	0	0	0	0	0	0	0	2	0	0	0	0	0	0	0	0	0	0	0	9	0	0	0	0	0	0	0	0	0	0	0	0	0	0	0	0	0	0	0	0	0	0
OTU 54	7	56	86	120	49	197	85	18	16	24	26	5	82	1	72	31	171	132	19	10	15	25	47	28	27	24	23	18	68	39	30	141	52	23	11	33	99	122	5	63	17	21	62	97	42	41	2	177	135	13
OTU 55	0	0	1	0	0	0	0	1	0	0	0	0	0	2	0	0	0	0	5	0	0	0	0	0	0	0	0	0	0	0	0	0	0	0	0	0	0	0	0	0	2	0	0	0	0	0	2	0	0	0
OTU 56	0	0	36	12	1	49	1	113	9	29	3	1	11	8	10	3	7	49	1	3	4	3	15	20	21	20	0	2	14	1	13	0	20	17	0	1	2	35	6	0	16	0	3	307	16	18	30	0	3	2
OTU 57	216	56	63	48	11	49	56	10	14	23	51	78	173	2	30	227	46	38	153	49	32	70	1440	125	140	151	87	246	67	37	25	71	114	150	51	113	54	39	53	2981	3	81	42	57	197	6	104	44	75	14
OTU 58	2	20	0	13	11	31	49	9	1	8	17	27	30	0	0	20	0	75	0	0	75	28	0	3	158	1	2	33	1	15	0	5	150	10	2	0	5	30	23	47	2	63	0	0	55	2	19	16	0	27
OTU 59	22	1	95	2	2	9	3	6	15	14	4	0	0	0	10	4	6	34	2	0	3	5	0	0	71	8	2	143	8	16	0	2	9	82	34	4	124	7	3	9	1	2	3	68	5	0	58	0	6	14
OTU 60	5	28	28	14	4	17	15	182	26	30	0	84	155	1	22	48	56	18	14	0	176	1	6	41	111	158	41	59	6	19	5	52	28	41	5	18	72	7	36	77	0	212	2	1	202	9	13	70	5	59
OTU 61	169	83	169	127	41	987	107	72	19	207	80	94	16	499	2053	7	10	53	104	7	205	5	12	46	30	3	134	83	90	861	199	20	4	25	138	51	186	3	0	24	1076	20	109	126	69	40	38	19	13	54
OTU 62	0	0	23	3	0	0	1	7	5	11	0	1	0	0	0	0	0	0	2	59	2	37	0	1	5	53	0	0	0	0	22	1	5	0	0	39	2	7	21	1	0	0	23	55	1	2	0	50	35	0
OTU 63	8	45	52	3	16	15	59	0	0	0	4	4	23	0	9	0	48	1	6	1	12	39	0	148	15	0	0	10	25	31	12	355	3	1	2	0	16	359	2	2	0	1	26	1	0	12	5	17	0	0
OTU 64	120	13	35	100	16	52	14	116	11	17	21	4878	66	6	19	64	151	269	65	36	160	10	20	70	24	126	30	9	13	36	28	16	109	2	33	4	164	138	923	199	15	53	23	362	243	86	21	205	8	72
OTU 65	48	0	0	44	0	0	2	0	0	0	0	0	0	0	0	0	0	9	15	0	0	0	0	0	0	0	0	12	0	0	0	0	435	0	0	0	11	0	2	3	0	0	0	0	0	0	0	0	0	0
OTU 66	32	0	42	42	5	4	33	52	9	18	7	55	37	1	15	105	12	140	29	21	111	42	3	35	50	2	8	25	3	4	4	1	34	41	1	18	114	31	59	80	0	12	47	18	4	66	5	28	26	1
OTU 67	47	48	82	4	5	20	1	8	7	46	1454	1	80	3	5	27	70	152	9	3	2	6	0	4	20	36	10	52	29	5	33	0	33	33	16	46	41	18	10	20	8	45	11	1	0	0	13	11	39	9
OTU 68	57	7	66	0	0	11	8	6	0	0	18	2	0	0	17	57	8	15	21	1135	20	0	0	16	42	0	0	0	13	0	0	16	0	13	3	991	3	0	35	0	3	0	21	0	68	0	0	0	2066	4
OTU 69	1	2	12	5	9	7	17	48	15	23	3	1	101	37	63	17	10	16	9	28	3	11	12	36	25	57	45	63	9	26	11	19	1	1699	75	0	352	208	30	34	36	0	4	200	119	38	75	162	1	1
OTU 70	7	21	55	0	43	0	77	7	2	14	0	8	20	0	0	2	19	7	1	10	15	3	0	15	3	32	6	112	100	5	17	4	0	1	1	1	0	0	3	0	0	0	38	5	0	2	50	8	1	0
OTU 71	0	0	42	17	1	0	35	28	40	21	7	30	5	0	0	360	0	47	9	18	51	18	7	3	62	8	19	38	0	2	27	0	58	0	16	0	11	0	3	11	0	1	24	66	0	0	5	23	5	0
OTU 72	81	0	14	0	20	114	26	59	1	8	0	0	19	764	24	69	139	19	23	9	4	1	70	22	13	146	192	6	36	12	0	15	4	44	97	10	40	57	7	6	1661	18	0	10	48	65	60	104	32	22
OTU 73	83	18	23	105	1	49	3	17	6	39	2	14	54	2	2	0	30	0	7	0	19	6	18	11	272	3	0	0	5	9	15	4	10	201	39	12	2	36	24	2	0	6	3	1	134	0	0	21	13	58
OTU 74	15	9	22	9	3	10	64	48	0	1	91	1	26	1187	19	21	3	55	1	36	6	76	17	2	243	220	21	41	16	87	13	20	41	0	1	38	369	24	0	13	14	60	32	67	1	124	22	177	76	3
OTU 75	16	2	25	90	10	22	14	83	3	13	39	98	10	15	46	31	27	79	4	6	201	1	922	77	620	8	97	126	14	6	8	217	53	0	44	26	128	25	138	24	24	7	5	47	18	174	32	4	10	0
OTU 76	0	0	0	52	0	0	36	1	0	8	0	0	1	1	28	0	0	2	17	3	0	2	5	65	1	60	0	10	5	0	4	0	65	22	0	15	38	9	0	0	10	0	0	272	4	9	0	4	0	6
OTU 77	41	3	3	35	49	134	3	29	15	44	0	64	6	13	57	1	3	25	28	37	145	71	15	11	0	3	17	1997	50	51	8	0	1	40	49	8	65	20	29	78	18	19	5	65	0	19	0	122	14	2
OTU 78	3	31	6	131	44	77	32	107	261	1207	38	17	100	12	15	14	91	57	412	0	23	10	3	4	46	10	6	25	71	5	510	7	29	1	12	0	7	3	7	411	7	0	16	22	90	0	3	2	0	12
OTU 79	195	54	41	95	53	344	929	749	1046	76	66	60	263	687	57	76	250	58	128	3581	88	49	321	40	242	100	374	57	58	55	28	161	138	324	50	36	70	143	126	582	1257	115	29	66	104	97	144	101	23	23
OTU 80	66	127	145	0	30	18	84	24	45	92	43	103	38	27	97	1	65	53	30	41	224	1	212	13	38	45	152	1	80	4396	111	140	30	1500	14	27	18	42	132	0	49	11	121	114	107	200	73	34	38	3
OTU 81	33	41	137	13	44	103	45	5	88	178	54	134	28	12	38	14	13	102	57	29	257	68	56	88	71	20	282	147	178	35	125	96	23	29	90	4488	100	39	112	4	16	60	66	5	197	32	99	8	5	16
OTU 82	97	1	0	41	1	7	1	111	1441	2	1	45	7	6	18	9	8	2	162	0	74	15	6	0	23	57	11	3	11	0	19	3	5	38	7	8	37	50	0	4	20	217	4	136	12	2	60	19	21	100
OTU 83	0	0	61	0	47	0	1	0	7	3	0	0	4	1	21	23	0	15	0	0	0	0	32	15	3	0	71	0	75	1	7	30	87	13	0	1	2	16	24	8	11	2	55	0	22	4	0	1	0	0
OTU 84	28	0	27	1	2	0	0	56	3	25	1114	2	9	8	43	0	3	1382	18	0	7	4	12	3	2	70	73	20	1	5	8	47	0	4	4	6	15	5	1	11	17	27	9	0	10	0	119	12	18	2
OTU 85	37	0	9	6	0	0	54	5	0	8	0	4	121	0	0	0	0	4	35	12	7	0	0	24	4	0	4	0	0	0	1	0	12	0	0	0	36	0	2	10	0	1	4	344	22	9	28	2	0	0
OTU 86	0	0	0	0	0	0	0	0	1	0	0	0	0	0	1	105	0	0	0	0	0	0	0	0	0	0	1	1	0	0	0	0	0	0	0	0	0	0	0	0	0	0	0	5	0	0	0	0	0	1
OTU 87	0	10	0	0	13	0	0	9	0	3	29	15	0	0	0	12	0	0	0	3	35	0	1	2	0	1	0	0	0	3	0	0	0	8	741	17	0	3	0	381	0	405	0	0	9	5	0	0	31	307
OTU 88	2	0	0	6	0	0	0	0	1	0	0	0	1	7	31	0	0	37	0	0	0	0	0	0	2	4	4	0	0	11	0	0	0	0	24	0	0	89	0	0	11	0	0	12	0	0	5	0	3	0
OTU 89	38	46	72	1	1	49	3	15	5	13	0	7	0	0	0	0	3	2	1	25	12	0	0	7	40	0	41	0	39	0	1	24	0	0	15	2	45	21	27	3	1	0	9	14	49	35	13	56	16	0
OTU 90	0	0	0	0	0	0	21	0	1	6	0	0	0	0	0	22	0	0	19	2	0	12	9	0	0	0	8	0	0	1	18	0	0	0	0	1	2	0	0	0	0	0	0	2	4	0	10	0	0	0
OTU 91	0	0	0	0	0	0	0	0	24	62	0	0	0	0	0	0	0	0	0	0	0	1241	0	2	0	0	0	0	0	0	6	0	0	0	1	0	0	515	0	1	0	0	8	0	0	8	0	16	0	0
OTU 92	74	0	61	0	6	0	38	0	0	0	5	0	0	0	0	20	34	0	17	0	0	41	0	0	108	7	0	12	0	1	9	0	56	6	0	2	0	0	0	1	0	0	7	0	4	0	2	0	0	0
OTU 93	40	0	1	0	0	0	0	3	0	0	0	2	0	0	0	0	0	7	28	0	4	12	1	0	0	27	2	0	0	3	0	0	1	0	4	0	0	0	0	0	0	0	0	1	2	0	13	0	0	15
OTU 94	185	92	194	94	286	57	92	28	1352	86	178	64	60	3	24	10	25	12	2	26	127	139	77	11	86	341	147	0	156	17	20	1	37	195	6	0	39	42	24	17	11	0	108	26	61	18	73	66	18	23
OTU 95	25	0	0	0	0	0	2	15	367	1613	1043	32	4	2	35	15	5	14	46	0	64	1	0	3	180	5	0	0	0	2	714	0	1	0	1	0	0	11	1	0	9	29	12	1	1	0	2	0	0	0
OTU 96	0	0	0	0	0	0	0	0	0	0	0	0	0	0	0	0	0	0	2	0	0	0	0	3	0	0	0	0	0	0	2	0	361	0	0	0	2	0	23	0	0	0	0	3	0	0	0	2	1	0
OTU 97	0	30	8	0	1	0	0	1	0	1	0	9	0	55	181	51	0	0	57	0	18	0	0	0	0	3	5	0	6	226	0	0	1	0	0	3	0	0	2	2	78	9	0	0	0	0	0	0	8	0
OTU 98	12	1	0	40	0	0	0	0	0	0	5	0	0	24	69	0	8	0	9	20	0	0	0	12	17	1	24	2	3	31	0	105	252	0	7	0	9	12	0	7	56	33	0	0	60	7	0	0	0	2
OTU 99	97	33	90	53	19	42	20	24	0	14	31	48	108	39	63	56	4	14	2	19	78	102	54	22	3	96	158	70	17	17	25	95	270	68	82	3	20	10	24	6	51	35	25	195	10	9	14	9	15	23
OTU 100	28	28	143	2	0	33	204	0	19	0	67	2	36	11	23	7	11	167	3	3	9	1	0	54	31	0	0	0	10	43	3	37	8	83	41	0	53	4	13	20	16	1063	35	1	2	6	13	1	13	591
OTU 101	0	0	0	4	1	0	0	0	0	0	0	0	0	0	0	0	35	2	31	0	0	0	0	0	0	12	0	0	0	0	0	0	11	6	48	0	0	0	3	10	0	9	2	0	0	0	0	0	1	6
OTU 102	0	0	175	3	56	21	15	20	0	8	0	0	7	26	56	0	830	1	0	9	0	0	36	1	1	0	33	0	22	35	18	2	0	32	1	3	33	47	0	1	53	2	32	18	18	39	0	0	0	0
OTU 103	42	8	14	0	0	12	8	12	4	93	13	20	3	1	9	16	5	3	2	38	30	11	4	0	5	0	0	1	1	14	2	0	8	18	4	17	0	31	36	0	0	4	3	6	15	3	118	0	2	13
OTU 104	1940	282	1560	29	307	20	689	171	1	7	59	30	160	31	52	1	23	338	10	31	69	10	7	113	4	202	161	19	564	31	12	6	426	65	1086	57	115	86	10	0	31	30	674	6	140	26	71	9	58	0
OTU 105	0	0	4	0	0	0	10	15	4	11	29	0	0	0	0	15	0	0	0	15	0	31	58	0	48	123	105	77	0	0	8	103	0	0	0	0	0	0	0	4	0	11	14	0	0	0	23	0	0	0
OTU 106	3	19	242	1	0	20	63	0	9	11	0	0	12	19	34	2	4	0	0	15	0	19	117	0	0	0	45	110	25	7	2	2	2	4	0	8	3	2	1	9	38	15	100	196	93	0	7	0	1	12
OTU 107	37	0	0	6	3	9	1	2	0	0	0	5	0	7	1	1	2	0	0	0	5	5	3	6	117	6	2	28	0	1	2	1	758	0	6	0	12	1	0	24	4	1	12	16	2	24	0	563	31	1
OTU 108	5	20	1	0	1	11	2	34	0	2	0	3	1	0	2	0	271	1	2	0	6	0	29	2	0	52	10	3	5	4	3	8	1	1	3	0	25	25	0	1	0	37	0	67	44	63	0	4	3	13
OTU 109	0	30	21	0	15	0	0	0	0	0	0	0	0	0	0	0	0	0	0	0	0	0	0	4	0	0	0	0	53	0	0	0	0	0	0	25	0	0	0	0	0	0	29	0	0	0	0	0	0	0
OTU 110	34	4	24	40	14	75	32	45	23	38	9	2	136	2	21	4	36	8	25	108	4	4	41	288	25	3	152	41	33	0	47	49	23	1	11	61	37	54	69	54	8	116	4	42	9	17	23	18	63	65
OTU 111	10	0	0	1	0	201	0	0	0	0	0	0	10	2	5	1	0	0	1	1	0	240	0	0	3	0	0	0	0	0	0	0	6	0	0	0	0	16	0	0	0	0	0	0	0	5	0	0	0	0
OTU 112	10	2	5	20	3	5	16	8	0	27	3	0	36	0	0	0	1	37	2	5	1	37	0	2	0	10	1	202	11	6	46	3740	42	11	8	0	9	9	1	7	0	27	13	0	3	55	12	0	0	11
OTU 113	0	0	0	0	1	0	0	8	13	53	0	0	0	0	0	0	2	0	0	7	0	0	0	0	0	0	0	0	2	0	9	0	0	0	0	0	12	6	0	0	0	10	0	1	0	0	0	0	1	0
OTU 114	92	38	239	11	83	49	48	43	19	212	74	101	65	47	134	158	33	149	39	4	219	90	87	28	89	92	238	63	110	94	57	33	298	34	35	15	161	34	70	120	89	37	113	60	88	150	2	17	19	16
OTU 115	116	83	2	68	5	39	108	87	48	123	308	4	32	10	110	251	32	174	23	17	14	5	249	55	106	156	158	7	23	46	69	185	9	26	4	2	168	10	42	22	48	143	4	211	191	62	34	90	17	131
OTU 116	7	17	64	19	76	10	59	3	2	51	94	14	49	8	14	41	51	5	20	17	27	41	21	9	34	44	9	8	140	80	2	221	87	6	100	6	22	275	2	83	17	1	90	6	58	32	6	2	5	8
OTU 117	1	0	31	9	14	18	0	467	8	23	36	17	34	3	1	62	2	20	18	0	29	17	23	179	57	94	18	6	13	18	4	2	0	129	2	1	38	11	0	1	1	25	11	24	50	8	7	34	2	35
OTU 118	0	0	0	25	0	0	0	0	0	1	0	6	0	7	19	3	0	51	0	5	11	15	6	2	0	106	22	5	0	40	0	10	1	0	15	19	3	0	9	0	11	0	0	2	3	25	0	0	13	5
OTU 119	3	1	33	5	16	170	8	22	4	26	30	2	2	1	37	29	121	110	3	8	2	45	9	67	63	39	8	115	51	3	38	23	9	9	7	0	18	198	58	16	23	2	38	47	1	33	17	10	2	7
OTU 120	13	1	0	48	1	42	0	69	1	8	273	8	21	0	7	58	18	597	35	0	12	9	0	6	24	2	4	1	0	39	1	4	78	31	2	1	26	1	16	2	0	0	0	4	11	3	5	0	1	1
OTU 121	6	46	84	52	18	0	0	4	3	20	2	1	0	13	69	2	76	2	37	15	5	1	44	19	36	154	18	7	71	185	4	8	0	22	3	1	42	2	15	1	19	41	20	93	1	31	12	6	20	2
OTU 122	9	73	182	0	1	43	142	19	14	68	69	1	11	0	0	58	24	76	7	20	1	14	34	7	45	30	23	7	24	0	8	16	162	45	41	9	54	0	28	13	1	0	53	178	2	3	1	5	60	1
OTU 123	334	81	343	203	134	44	321	235	41	212	100	208	58	57	121	132	51	473	68	37	387	363	164	166	97	85	227	112	290	58	92	70	200	97	114	71	162	604	676	48	46	122	108	199	367	1016	189	309	91	24
OTU 124	0	0	2	0	0	0	0	84	1	33	33	5	0	0	0	0	6	10	0	0	6	0	0	77	0	14	0	0	8	0	0	0	2	88	8	0	68	0	0	1	0	0	0	0	0	15	0	4	3	0
OTU 125	99	46	300	92	60	211	17	179	132	752	37	43	606	8	41	79	542	18	92	84	90	54	45	134	127	53	110	257	101	31	298	3	67	31	94	30	71	57	128	42	7	109	263	127	312	46	139	117	55	79
OTU 126	0	454	4	0	430	0	0	0	0	0	0	0	0	4	1	0	0	0	0	0	0	66	34	0	5	160	53	0	679	0	1	0	0	0	0	0	1	188	0	2	4	74	0	0	0	1	2	7	0	0
OTU 127	25	1	31	10	1	2	10	3	2	5	14	52	71	0	5	5	26	6	2101	10	137	0	15	23	28	29	15	44	0	11	1	10	23	33	46	16	0	41	1	2	2	1	55	6	7	7	2	2	69	0
OTU 128	363	227	445	159	161	207	1428	218	68	366	74	190	75	195	875	169	158	96	62	188	388	101	221	130	291	269	620	289	368	440	734	288	160	16	32	85	251	79	180	708	443	2271	3117	32	746	448	131	62	160	1209
OTU 129	0	0	1	0	0	0	10	0	0	0	0	2	0	6	26	1	65	0	0	0	2	40	3	0	0	0	24	0	0	0	0	86	0	3	0	1	0	0	73	0	5	0	0	2	1	0	0	0	0	0
OTU 130	0	19	40	1	0	19	7	0	0	6	23	1	112	16	59	8	7	4	6	3	3	0	31	51	109	110	104	0	1	15	0	30	23	0	34	1	13	73	6	16	51	0	30	58	97	68	2	0	0	0
OTU 131	1	9	2	0	7	13	32	111	1	25	119	0	110	15	73	27	37	771	13	3	0	12	46	1	9	223	10	10	43	35	19	43	75	46	12	2	109	2	21	3	57	2	0	51	0	26	3	915	20	0
OTU 132	7	22	21	3	1	6	7	127	58	130	1	0	0	0	3	7	19	81	0	2	0	16	0	31	2	20	0	23	0	6	31	22	0	1	0	0	135	0	7	37	0	3	32	7	115	2	14	1	1	1
OTU 133	10	0	5	0	0	0	0	10	0	0	0	0	21	0	0	1	0	0	0	0	0	84	0	9	4	0	0	15	0	70	0	0	45	11	2	8	4	0	0	0	0	0	0	5	0	0	3	0	0	2
OTU 134	60	2	5	58	15	5	5	0	0	32	1	2	0	0	0	13	63	156	0	8	1	91	54	19	22	2	11	74	25	12	2513	104	13	0	0	2	17	27	102	39	3	6	1	75	35	142	13	12	0	54
OTU 135	7	170	53	17	3	29	30	5	1	2	3	4	38	18	100	970	471	37	781	17	5	78	105	21	8	39	214	0	6	69	4	137	91	64	41	2	0	22	927	20	72	49	36	17	42	154	25	48	1	1
OTU 136	0	27	47	14	38	212	2	61	0	1	101	4	27	0	3	1	5	73	0	4	4	0	1	11	5	30	3	3	12	1	5	21	0	8	34	0	8	5	1	9	4	5	14	1	5	7	17	62	0	8
OTU 137	7	0	14	0	0	0	0	122	0	0	25	3	8	0	4	0	0	0	7	0	4	1573	17	0	6	0	2	0	6	0	0	3	0	0	0	0	0	3	13	49	0	15	0	5	10	0	13	0	1	41
OTU 138	0	11	8	7	4	2	64	1	66	225	1	0	3	20	4	36	0	0	0	0	0	0	7	0	19	36	22	12	1	0	122	0	19	19	22	0	3	0	10	9	0	5	4	3	0	10	305	154	0	0
OTU 139	105	96	380	165	91	101	118	153	25	84	19	73	39	11	45	88	22	73	30	24	161	2	139	7	452	554	103	98	174	21	27	13	109	13	135	3	111	17	15	136	24	141	257	61	60	8	38	86	26	36
OTU 140	124	5	56	54	8	80	17	33	33	112	24	24	115	113	309	45	71	53	7	32	46	143	227	109	2	381	654	53	39	178	1664	204	58	60	41	6	27	51	104	10	164	154	26	792	189	395	179	108	11	55
OTU 141	0	1	0	0	4	0	0	0	6	37	1	0	0	0	0	0	0	0	0	0	0	0	0	0	44	0	0	2	5	0	6	0	0	0	0	0	0	0	0	25	0	0	0	0	0	0	0	0	0	0
OTU 142	0	0	18	0	0	0	0	0	0	0	0	0	0	0	0	0	0	0	0	0	0	0	6	43	16	0	0	0	0	0	0	0	0	0	5	0	0	0	1	29	0	0	15	70	0	4	0	0	0	0
OTU 143	0	4	1	0	4	42	0	0	0	0	18	0	18	0	1	0	11	4	0	0	0	3	23	0	6	0	37	1	1	0	6	1	9	3	4	0	0	1	23	1	0	22	0	32	0	2	0	0	1	3
OTU 144	2	21	17	1	45	13	59	6	4	2	1	0	4	0	0	5	0	2	0	0	0	8	0	0	2	0	0	4	69	2	1	0	0	7	0	3	0	0	64	0	0	2	18	2	0	4	4	0	0	0
OTU 145	34	42	23	5	38	113	105	73	1	24	6	2	15	2	28	3	30	39	78	1083	7	99	13	77	42	89	34	43	32	1	6	0	132	54	30	973	21	4	49	51	8	74	5	50	161	15	44	115	1976	0
OTU 146	0	28	15	40	1	25	13	4	6	0	4	25	163	23	96	6	48	14	11	2	35	44	131	3	172	74	227	1	9	33	3	113	78	5	26	2	62	149	0	1	39	41	1	102	1	11	7	2	2	1
OTU 147	10	6	2	14	1	1	7	59	3	8	13	78	44	0	0	2	49	0	50	3	152	10	0	41	5	7	0	0	6	1	11	57	0	29	2	12	12	10	3	1	0	2	0	4	3	4	10	25	0	3
OTU 148	23	31	61	1	15	24	26	25	9	35	58	87	33	14	53	16	17	33	20	3	176	265	0	179	113	3	48	0	26	42	0	48	322	7	7	9	8	95	79	5	18	10	46	22	53	65	4	162	24	0
OTU 149	0	0	0	60	0	114	17	14	2	3	0	23	580	3	8	1	31	1	3	0	59	3	4	1	32	2	11	9	0	12	0	31	0	1	27	0	11	0	1	4	2	0	26	0	2	0	3	8	0	6
OTU 150	0	0	0	44	0	19	0	0	7	0	1	5	1	13	103	0	0	5	2	0	5	0	34	0	8	233	9	22	0	0	0	5	0	0	2	31	0	0	81	0	39	7	0	18	16	23	1	147	14	3
OTU 151	4	942	78	20	1355	0	7	8	0	0	2	6	26	0	11	15	2	3	2	0	23	0	1	1	92	9	0	4	2250	11	2	50	37	0	13	22	5	6	23	28	5	14	72	27	1	0	4	0	2	5
OTU 152	24	3	0	2	8	28	43	33	5	55	137	92	8	3669	31	19	3	20	11	41	160	8	22	2	359	300	39	64	26	26	50	15	0	1	28	21	2	142	0	25	37	73	5	113	82	36	3	11	41	13
OTU 153	0	0	9	0	7	0	0	0	0	0	11	2	0	0	0	0	0	0	0	4	5	2	0	0	5	0	0	0	0	0	0	0	0	0	0	0	0	0	0	0	0	0	0	0	0	0	3	5	0	0
OTU 154	0	0	0	0	0	2	14	0	0	24	20	2	0	0	0	0	1	0	4	6	3	0	0	233	1	0	5	0	0	17	18	0	0	0	0	16	0	0	4	0	0	0	1	1	0	20	0	0	39	0
OTU 155	1	7	0	0	0	150	0	4	0	39	1	0	9	15	51	2	1792	1	2	1	0	5	0	52	39	0	0	8	0	24	4	0	1	0	0	8	1	0	3	1	34	0	1	35	18	2	4	0	1	25
OTU 156	1	17	48	30	15	58	56	420	63	67	40	44	179	0	12	68	100	21	67	24	81	44	0	199	46	138	41	68	50	9	38	21	10	2	16	25	105	38	1	0	9	3	45	6	86	42	8	2	6	27
OTU 157	0	0	1	222	17	26	0	91	6	17	41	0	8	0	0	0	1	0	108	44	0	13	42	0	0	162	33	10	2	20	0	25	61	0	28	3	74	0	32	0	0	0	1	1	0	9	6	0	2	0
OTU 158	0	5	102	0	0	29	1	0	0	0	14	0	54	0	0	0	47	1	0	0	0	0	0	0	0	0	0	0	1	0	0	0	0	0	0	0	0	0	0	0	0	0	16	0	0	31	1	0	0	0
OTU 159	6	37	1	2	4	6	5	92	1	25	44	10	65	2	0	33	49	48	7	10	14	0	7	6	30	193	2	1	16	0	0	0	82	4	6	12	593	60	45	0	0	39	6	4	17	62	23	1184	12	17
OTU 160	163	102	298	47	59	298	29	89	22	77	94	86	214	7	35	263	134	140	172	27	197	21	119	174	85	123	211	64	68	26	101	159	83	238	25	33	322	81	15	10	10	5	71	169	130	69	52	212	68	10
OTU 161	4	33	18	7	17	2	19	7	4	1	15	17	40	26	57	42	30	66	0	12	39	45	46	32	2	15	72	0	4	88	29	11	18	2	29	0	7	8	31	3	22	63	21	61	24	78	0	201	3	59
OTU 162	11	1961	11	64	14	72	89	315	18	27	143	15	77	12	48	31	0	102	12	1	38	51	20	13	137	178	100	85	0	24	17	15	3	0	9	12	0	8	11	27	15	28	11	5	42	2	16	39	22	13
OTU 163	0	0	12	0	3034	0	0	0	0	0	0	0	44	0	0	0	0	0	0	0	0	0	0	2	2	0	0	0	0	0	0	0	0	0	0	1	0	21	0	73	0	0	16	0	0	0	0	0	0	0
OTU 164	6	0	3	0	0	0	0	0	0	0	0	0	0	0	0	94	0	0	1	0	0	0	9	0	53	0	0	0	0	0	0	0	7	0	0	0	0	0	0	0	0	2	0	5	0	10	0	0	8	0
OTU 165	0	2	17	3	0	10	1	55	25	116	16	73	6	2	4	3	83	22	0	9	140	4	0	10	8	34	20	0	0	0	26	0	42	0	2	0	14	34	38	6	2	0	2	25	1	91	15	4	1	0
OTU 166	449	0	0	0	0	8	0	46	0	0	0	0	0	0	0	0	0	0	0	0	0	0	0	0	0	0	3	0	0	0	0	3	0	0	0	0	0	0	0	0	0	0	0	0	0	0	0	0	0	0
OTU 167	9	0	4	8	0	1	0	21	3505	0	2	5	19	0	0	49	0	0	3	39	6	0	29	20	2	3	83	16	7	0	0	5	0	39	45	7	0	1	13	26	4	2	5	22	1	25	127	15	0	8
OTU 168	338	31	4	0	1	9	51	7	0	10	5	4	25	1	0	15	1	11	35	28	12	2	2	62	0	191	4	18	3	7	4	6	5	8	32	9	54	1	0	3	1	0	6	37	51	0	18	24	71	3
OTU 169	0	0	1	0	0	5	4	45	0	4	4	39	0	0	0	0	0	5	0	0	78	0	0	0	0	4	0	0	0	0	0	0	2	0	8	0	0	2	0	0	0	0	7	0	3	0	0	0	0	1
OTU 170	0	26	176	0	37	56	10	2	0	0	0	0	0	0	0	0	5	0	3	0	0	0	0	0	4	12	0	0	101	1	0	1	27	0	0	1	0	0	0	0	0	0	129	0	0	0	0	0	0	0
OTU 171	46	4	23	6	12	592	0	1	0	14	2	14	4	7	27	33	2	9	153	0	33	0	26	243	0	36	7	2	79	20	0	10	25	3	16	17	48	3	9	29	9	83	16	41	41	25	22	17	1	25
OTU 172	0	2	0	0	0	0	1	1	1	0	24	6	0	11	47	0	10	0	0	11	10	9	39	3	2	0	153	2	1	5	0	63	0	0	0	40	7	0	0	0	12	0	0	0	0	0	0	0	9	0
OTU 173	0	0	0	0	0	89	7	18	0	0	1	0	26	0	0	0	45	0	1	0	0	0	4	0	0	0	4	48	3	0	0	19	0	0	24	8	158	0	0	0	0	1	1	2	0	5	1	28	2	2
OTU 174	0	7	3	110	0	14	1	23	0	22	8	83	1	0	1	14	7	0	3	254	181	10	21	85	220	0	7	46	1	0	1	35	28	7	0	185	66	24	0	19	0	1	12	28	119	3	0	396	342	1
OTU 175	16	4	61	57	0	5	10	0	0	0	47	3	12	3	7	1	1	1	5	11	2	31	0	0	0	11	0	0	13	4	2	27	28	5	53	1	5	0	21	10	1	12	48	39	10	13	0	49	7	2
OTU 176	12	18	61	28	3	56	49	2	21	100	17	55	6	45	144	60	153	117	16	0	108	4	17	13	109	44	131	123	3	40	51	33	68	126	4	9	61	134	65	37	90	2	10	71	22	7	1	60	45	0
OTU 177	28	21	22	0	71	39	102	21	15	16	47	87	115	10	55	19	2	57	5	13	159	6	17	68	33	26	73	3	46	9	9	1	9	4	9	44	16	39	7	16	33	2	10	66	46	0	21	36	33	4
OTU 178	5	6	3	71	0	169	13	47	1	0	40	7	60	1	19	19	66	17	9	2	12	2	4	23	27	53	0	20	10	19	1	1	0	7	58	7	1	16	0	981	0	2	15	90	0	9	43	0	6	0
OTU 179	4	1	2	0	0	98	5	62	0	2	4	2	54	1	0	63	40	10	38	0	6	86	1	0	1	0	5	15	0	2	1	1	19	24	6	3	9	8	22	10	0	12	0	19	5	30	10	161	4	0
OTU 180	16	318	39	58	279	46	39	97	5	69	118	54	83	44	164	97	74	242	46	31	109	66	13	53	90	182	33	239	502	97	33	28	85	182	40	24	89	44	96	166	44	348	34	128	105	56	343	136	90	71
OTU 181	1	3	6	4	45	66	4	455	21	85	7	78	2	3	64	0	61	3	0	2	146	57	4	5	77	46	4	0	38	48	36	64	17	9	49	0	56	0	2	0	20	39	15	97	84	29	0	0	0	20
OTU 182	0	2	4	4	0	0	0	0	0	0	2	0	0	0	0	0	0	0	0	0	0	0	0	0	0	1	0	0	0	1	0	0	0	5	0	0	0	4	0	0	0	1	19	0	0	0	0	0	3	0
OTU 183	0	6	25	153	0	11	1	21	43	127	6	133	41	21	75	31	10	2	99	3	248	449	25	14	29	0	113	38	1	40	97	90	27	6	18	8	4	15	0	0	59	31	9	9	2	50	5	122	34	0
OTU 184	1	12	73	2	11	37	106	0	3	6	5	2	0	1	0	18	27	0	1	1	9	30	0	67	12	9	7	0	24	1	46	0	66	0	40	7	83	6	0	16	1	17	119	0	42	12	15	106	0	18
OTU 185	99	24	2	34	17	0	9	34	26	72	121	49	2	953	6	100	2	30	623	11	94	0	28	13	133	22	9	17	8	7	26	4	64	2	30	12	106	84	7	117	1807	2	15	136	39	45	5	43	25	52
OTU 186	4	1	216	19	2	37	50	53	4	0	1	15	0	0	0	2572	12	0	0	1	46	3	5	12	0	24	1	81	0	1	0	6	7	0	0	0	5	0	7	1	0	1	31	0	2	2	0	0	0	0
OTU 187	42	23	55	5	27	116	318	177	2	59	45	13	57	4	11	9	37	0	41	25	40	43	37	16	160	6	27	90	28	54	29	8	57	22	11	5	98	81	56	87	1	16	39	175	136	62	227	16	22	144
OTU 188	62	12	63	48	2	227	4	59	12	23	118	16	25	28	71	266	4	16	30	88	32	30	53	106	35	70	97	102	18	13	15	32	15	11	63	22	85	68	1	25	46	40	30	4	5	28	8	40	85	4472
OTU 189	20	22	10	98	9	67	24	115	28	72	683	27	7	24	17	146	21	3	31	2	61	1013	39	17	53	2	37	99	22	4	66	1	58	21	6	9	56	39	17	65	29	26	3	20	34	43	20	7	3	23
OTU 190	0	0	67	0	12	0	3	0	0	4	10	3	740	0	30	11	1	0	82	569	9	3	0	0	0	0	4	0	66	47	0	0	1	5	0	489	0	6	4	1	6	2	33	95	7	0	0	109	1343	0
OTU 191	60	8	63	87	1	75	92	202	4	21	3	69	13	18	72	38	59	10	8	2	120	103	46	14	12	1	21	106	17	12	0	5	2	2	45	9	149	10	0	5	29	36	42	15	352	13	632	10	2	6
OTU 192	10	30	148	1485	62	10	132	282	0	7	3	272	42	16	20	716	7	79	686	13	142	84	142	4	28	46	136	11	105	70	6	121	13	4	14	2	7	17	73	22	10	124	66	334	31	120	4	50	4	25
OTU 193	25	4	24	26	17	136	15	306	1	39	103	0	2	5	9	31	119	29	6	34	0	3	57	132	142	7	56	317	40	9	8	27	138	12	0	18	88	8	27	49	8	9	14	9	4	44	2	16	53	3
OTU 194	18	6	14	0	0	4	28	7	11	33	0	0	65	0	6	32	10	18	21	0	0	17	0	0	84	0	0	21	6	0	0	7	25	0	4	0	0	7	0	19	0	3	12	24	2	2	15	0	5	2
OTU 195	2	12	0	8	50	0	8	49	2	4	32	28	75	4	64	26	43	7	0	14	53	1	0	53	58	23	39	46	25	0	15	56	108	5	0	3	47	9	7	0	20	0	0	0	95	67	111	104	3	5
OTU 196	19	7	62	61	0	1	12	0	5	30	9	10	71	3	7	0	44	0	20	2	18	50	232	0	73	39	15	78	0	1	1	29	41	6	9	54	17	39	12	0	6	14	26	15	6	14	3	161	16	1
OTU 197	711	202	17	9	43	100	7	133	84	222	5	25	254	36	153	4	21	121	5	31	67	69	74	197	139	133	149	4	152	73	184	125	96	41	235	18	79	89	51	22	73	43	2	172	155	27	69	1	32	35
OTU 198	26	3	194	0	82	4	12	3	0	3	1	0	0	0	0	0	0	0	0	10	0	0	22	0	63	115	7	0	53	0	1	0	3	1	4	0	0	3	0	0	0	5	31	0	0	0	11	6	2	19
OTU 199	2	3	7	2682	1	67	7	23	5	27	4	37	10	0	7	0	1	11	58	8	66	0	28	0	91	0	1	21	13	10	2	0	1	1	0	14	30	0	0	0	9	0	1	0	1	2	96	0	0	1
OTU 200	62	3	5	6	15	43	90	204	0	14	9	41	5	7	36	19	88	16	114	1	88	54	3	4	34	13	25	20	27	8	35	34	8	0	61	4	39	8	3	26	8	1	11	9	15	30	16	4	0	13
