	Host 1	Host 2	Host 3	Host 4	Host 5	Host 6	Host 7	Host 8	Host 9	Host 10	Host 11	Host 12	Host 13	Host 14	Host 15	Host 16	Host 17	Host 18	Host 19	Host 20	Host 21	Host 22	Host 23	Host 24	Host 25	Host 26	Host 27	Host 28	Host 29	Host 30	Host 31	Host 32	Host 33	Host 34	Host 35	Host 36	Host 37	Host 38	Host 39	Host 40	Host 41	Host 42	Host 43	Host 44	Host 45	Host 46	Host 47	Host 48	Host 49	Host 50	
OTU 1	0	65	164	37	45	60	16	70	165	48	6	133	59	0	59	94	54	13	5	4	8	1	12	125	21	39	83	57	4	16	39	0	35	19	186	61	39	102	29	106	17	44	33	22	50	25	54	8	7	46
OTU 2	64	0	0	8	2	4	1	0	0	0	17	27	18	20	0	0	0	29	39	23	0	9	3	0	7	12	0	0	0	11	78	1	0	10	13	18	1	0	38	0	0	4	1	8	0	2	1	0	2	0
OTU 3	22	67	21	1	0	0	3	0	79	10	0	370	0	2	23	20	27	11	0	116	5	5	0	3	3	17	10	2	43	3	0	1	54	23	19	0	34	20	0	17	0	21	11	43	24	35	0	1	0	1
OTU 4	0	0	0	0	0	0	0	0	0	0	0	0	0	0	0	3	0	0	0	0	0	0	0	0	0	0	0	0	0	0	1	2	0	0	4	0	0	0	0	1	0	0	0	0	8	0	0	0	0	0
OTU 5	19	1	0	78	52	1209	141	258	0	724	22	599	130	1235	357	409	416	6	439	263	779	33	892	35	114	99	572	440	1378	294	279	13	44	160	0	314	17	329	0	1058	29	1	1040	211	170	3	171	0	313	425
OTU 6	0	49	80	0	11	32	2	34	0	36	1	55	40	0	24	78	1	8	0	26	0	6	48	11	19	40	42	15	5	12	95	30	9	0	31	2	9	13	0	68	3	49	38	55	142	19	67	4	21	5
OTU 7	61	29	354	32	52	48	84	84	305	15	104	40	77	124	189	225	224	114	26	5	26	34	59	15	64	48	164	61	35	48	201	14	32	75	72	111	36	44	105	8	13	45	12	100	15	806	366	61	9	66
OTU 8	17	11	77	122	51	88	550	38	93	175	156	119	15	21	22	53	136	29	49	52	44	124	36	11	101	52	40	636	484	67	906	141	5	50	27	48	14	22	43	429	23	21	282	141	141	54	1274	23	20	6
OTU 9	13	58	105	21	0	5	2795	109	1	1	0	60	36	4	78	36	5	10	0	3	0	66	2	706	1	0	45	71	25	0	2	67	5	0	0	32	10	0	32	5	38	29	0	4	0	301	96	52	7	28
OTU 10	11	9	114	20	19	33	21	1	0	12	0	5	0	0	72	13	0	0	10	0	1	0	3	40	0	48	66	5	15	14	4	12	29	4	8	0	8	60	28	14	32	4	3	0	0	0	17	22	0	1
OTU 11	147	7	133	20	142	6	131	37	17	69	26	98	66	143	245	20	73	326	40	8	6	28	108	262	66	21	75	55	18	1	22	10	77	49	224	132	8	117	44	79	38	185	44	0	112	12	4	109	50	15
OTU 12	126	63	37	79	5	12	4	44	120	5	62	24	6	121	19	85	149	121	207	13	12	50	0	14	24	11	26	48	8	69	16	111	45	30	6	27	55	1	3	43	84	2	16	76	31	66	42	5	0	41
OTU 13	0	0	0	0	0	12	1	0	0	3	0	0	0	3	0	0	1	0	0	0	0	0	0	0	18	0	0	0	14	0	1	0	0	0	8	2	0	0	0	0	0	0	6	0	0	0	0	0	0	0
OTU 14	5	0	1	40	0	7	0	15	19	0	7	47	1	3	0	0	4	2	0	56	0	8	3	5	0	0	0	44	7	2	102	0	42	39	1	0	2	5	0	1	8	0	1	0	0	8	1	1	0	21
OTU 15	0	0	0	0	0	0	0	23	2	0	0	0	0	0	0	3	0	0	0	245	0	0	0	0	0	24	0	0	0	0	0	1	0	0	0	0	0	0	0	0	0	0	0	0	0	2	0	2	0	6
OTU 16	0	0	0	0	0	0	0	0	0	0	0	0	0	0	0	0	0	0	0	0	0	0	0	0	0	0	0	0	0	0	0	3	0	0	0	0	0	0	2	0	0	0	0	1	0	0	0	0	0	6
OTU 17	0	16	3	40	291	211	19	24	0	4	49	1	0	0	1	12	14	51	170	105	1	10	135	230	0	42	0	0	19	1	19	15	174	64	734	41	2	129	1	19	236	36	10	83	533	2	32	0	8	0
OTU 18	40	69	24	211	88	49	2	91	77	9	13	28	4	11	16	37	25	47	14	0	3	156	55	46	14	47	14	58	5	5	38	8	30	5	144	9	21	141	47	8	121	20	5	57	266	158	33	51	0	14
OTU 19	0	0	0	0	0	73	0	0	0	0	0	0	0	0	0	0	0	0	0	0	0	0	0	0	0	0	0	0	0	0	0	0	0	0	0	0	0	0	0	0	0	0	0	0	0	0	0	0	0	0
OTU 20	1	59	98	5	40	73	0	97	31	0	1	84	1	271	46	23	31	204	58	244	3	95	24	38	13	3	48	14	8	33	122	37	46	51	97	9	60	4	25	1	200	86	4	58	6	27	24	4	5	45
OTU 21	73	0	85	132	17	7	29	36	44	1	5	193	1970	0	55	359	74	86	6	33	3	7	18	2	19	3720	41	0	7	0	42	179	145	294	41	32	4	57	14	20	7	115	10	90	0	16	37	6	16	190
OTU 22	34	41	61	88	83	5	22	137	258	2	0	61	35	10	31	0	41	20	14	40	6	95	4	77	20	7	21	23	70	13	31	73	7	6	159	8	41	71	30	4	0	77	8	5	119	53	3	6	29	46
OTU 23	49	11	0	2	3	2	0	17	75	66	6	0	2	0	0	558	1	9	7	0	1848	0	56	0	20	203	0	0	1	3709	0	29	24	483	15	0	21	0	0	152	2	73	114	50	1	0	0	2	3	1
OTU 24	51	2	25	0	2	0	0	0	0	2	1	178	0	4	4	23	2	18	7	0	5	36	15	7	1	1	13	0	2	0	2	80	27	9	6	0	2	4	5	9	11	3	2	1	1	8	0	2	2	1
OTU 25	0	306	0	0	0	0	132	0	3	0	0	0	0	0	0	0	0	0	0	0	0	0	0	0	0	0	0	0	0	0	0	0	0	0	0	0	119	0	0	2	0	0	0	7	0	0	0	0	8	0
OTU 26	8	0	17	0	0	16	0	0	15	7	5	22	5	25	3	2	0	8	0	0	11	0	1	0	0	0	10	5	18	0	0	0	0	0	0	0	0	0	94	1	0	1	1	1	3	0	14	3	0	3
OTU 27	0	0	0	0	0	0	0	0	1	0	0	1	1	0	0	0	0	0	2	0	2	0	0	0	0	0	0	0	0	0	0	0	0	0	0	0	1	0	0	0	79	3	0	0	0	0	0	8	0	0
OTU 28	200	39	1310	41	87	45	32	36	425	1724	67	30	1453	18	591	54	158	53	45	165	34	18	24	78	33	17	919	42	15	70	15	11	15	10	201	28	7	98	18	35	35	72	19	228	72	2576	1320	11	14	3
OTU 29	76	102	13	3	20	9	17	43	12	6	1	6	49	13	8	44	3	4	28	109	8	183	0	45	3	33	5	6	6	6	1	50	70	10	20	98	44	20	14	48	79	65	11	3	3	3	31	23	15	16
OTU 30	0	0	0	0	2	0	0	0	0	0	0	0	0	0	0	0	0	1	0	0	0	0	0	0	0	0	0	0	1	0	0	0	0	3	0	0	0	0	0	0	0	8	0	0	0	0	0	0	0	0
OTU 31	37	54	14	2	1	0	0	25	1	49	15	391	36	25	10	42	0	53	0	74	1861	1	14	2	1940	0	4	3	860	0	2	1	3	38	2	31	15	0	0	9	55	11	3	5	5	47	6	0	4	24
OTU 32	82	49	26	2	2	9	31	39	76	9	116	0	3	49	24	81	54	46	3	4	25	14	91	14	58	41	13	11	50	58	41	30	132	10	25	7	17	15	112	42	4	159	32	46	47	58	4	28	16	26
OTU 33	0	8	1	0	0	0	0	2	2	0	0	0	0	0	0	0	0	0	0	0	0	0	1	0	0	0	0	0	0	0	0	2	0	0	0	0	0	0	0	0	0	0	0	0	0	0	0	0	2	0
OTU 34	351	107	6	45	4	6	96	65	82	20	18	0	2	104	0	45	47	339	23	13	1	13	5	2	25	0	9	105	13	0	56	63	27	69	5	3	74	0	1	40	28	27	15	1	95	54	10	12	1	16
OTU 35	4	38	72	32	12	12	1	27	10	3	12	93	0	13	44	12	2	30	19	138	18	89	4	1	17	5	35	0	40	7	29	57	5	25	7	2	62	1	17	7	9	30	19	0	12	1	81	3	103	12
OTU 36	37	116	5	28	11	58	80	7	19	1	10	23	1	15	9	54	135	15	32	8	31	1	17	0	8	1	3	18	2	31	696	150	4	1	8	0	62	19	10	19	0	39	4	15	0	16	57	37	2	5
OTU 37	0	6	0	0	7	0	50	0	43	0	0	0	30	0	0	0	0	0	0	12	3	8	0	1	1	87	0	6	1	2	10	38	0	0	11	60	2	0	4	0	0	47	0	0	57	0	12	2	0	0
OTU 38	96	41	46	19	68	60	38	10	10	1209	19	4	1	42	9	33	6	36	0	57	0	5	15	131	11	0	27	3	0	4	41	36	102	44	161	0	24	75	1	1690	54	56	813	43	277	2	12	53	0	2
OTU 39	6	134	9	13	2	3	0	0	23	12	14	6	0	0	17	0	0	0	0	34	30	0	0	0	1	0	7	0	0	0	0	156	0	0	0	0	48	0	0	11	0	0	14	0	1	0	1	0	17	0
OTU 40	312	0	22	258	3	42	71	76	13	30	6	16	2	108	15	117	1	80	34	21	3	23	10	6	2	18	12	71	1	1	2	18	4	208	18	32	12	1	14	0	57	8	0	39	10	0	21	5	19	24
OTU 41	8	150	6	9	38	21	730	11	6	0	23	14	3	2	4	3	0	14	0	4	5	22	24	108	6	8	3	0	3	28	32	25	0	26	49	27	104	28	64	0	0	0	2	138	130	0	22	7	0	1
OTU 42	28	3	8	30	14	14	0	0	28	1	32	0	0	0	0	30	0	0	0	127	0	7	3	55	0	0	1	0	5	0	13	1	1	1	20	2	0	0	7	0	5	9	0	13	0	1	0	0	28	8
OTU 43	0	0	37	0	0	0	0	0	0	0	12	0	0	0	18	1	0	0	0	0	0	0	0	0	0	13	13	0	0	0	0	0	0	0	0	0	0	0	0	0	0	0	0	0	0	0	0	1	0	0
OTU 44	0	0	0	0	0	7	0	0	0	1	0	3	0	18	1	0	3	139	4	30	14	0	0	0	0	0	0	0	0	23	63	0	30	0	0	0	0	0	0	0	18	1	0	2	45	1	0	0	5	1
OTU 45	315	84	57	44	119	5	101	66	38	19	281	55	19	130	46	1	141	76	137	21	15	107	57	76	118	17	30	123	55	42	104	255	55	64	178	54	46	35	15	22	225	81	23	9	55	10	26	2	82	62
OTU 46	47	1	5	49	27	757	13	46	23	13	3	44	4	105	2	80	53	201	84	88	15	113	42	22	66	21	2	7	35	26	15	68	980	8	48	16	9	47	42	21	54	9	15	31	63	13	15	32	12	32
OTU 47	227	0	0	29	10	0	0	9	0	0	0	0	0	2	0	0	0	0	0	0	0	0	12	29	0	4	0	1	0	0	0	8	2	0	17	0	0	2	0	0	1	12	1	0	0	63	35	0	16	0
OTU 48	13	176	7	12	18	67	73	115	132	10	14	58	100	7	15	41	89	3	159	56	25	95	31	5	85	23	1146	0	52	14	83	176	83	22	11	80	80	18	133	27	26	4	10	22	93	21	8	4220	7	65
OTU 49	0	61	42	13	0	0	11	10	0	1	0	4	3	0	38	3	0	0	0	13	0	30	4	6	0	0	31	59	0	1	0	57	15	7	6	1	17	13	69	0	0	11	0	3	30	0	5	4	0	6
OTU 50	54	69	20	84	17	60	16	192	14	488	41	20	45	53	3252	61	40	22	1	20	5	19	23	7	22	19	8	45	6	33	17	43	13	2	16	76	11	0	66	26	298	185	21	54	31	26	50	27	23	97
OTU 51	8	8	2	89	45	151	2	34	0	36	44	6	0	4	1	0	18	7	3	33	5	0	30	16	29	4	2	2	7	17	0	96	21	4	91	17	10	27	3	53	0	137	29	22	2	2	0	0	174	5
OTU 52	109	12	29	31	48	66	33	57	81	51	158	256	4	113	38	2	21	312	21	5	111	102	30	79	57	15	12	44	594	194	62	79	148	8	71	13	9	30	345	50	7	14	25	5	30	10	7	283	174	25
OTU 53	0	0	0	0	0	0	0	0	0	3	9	0	0	0	0	0	0	4	0	0	2	0	0	0	0	0	0	0	0	0	0	0	0	0	0	0	0	0	0	0	0	0	0	0	0	0	0	0	0	0
OTU 54	176	100	65	45	57	45	41	7	31	0	153	300	37	20	28	197	98	24	31	39	36	240	14	60	42	212	41	9	38	65	62	6	26	56	114	22	4	48	1	10	114	5	12	9	5	22	51	5	111	4
OTU 55	0	0	0	0	0	0	0	0	0	0	0	0	0	0	0	0	0	0	0	0	0	0	0	0	66	0	0	0	21	0	0	0	0	0	0	0	0	0	0	0	1	0	0	1	0	0	0	0	0	0
OTU 56	0	50	4	0	1	0	0	4	16	0	0	38	1	0	4	17	20	3	6	1	0	0	9	33	35	4	3	0	4	9	34	23	10	3	0	0	10	3	8	33	4	48	3	2	17	0	22	1	158	16
OTU 57	221	89	144	106	206	1203	37	83	78	17	95	399	91	44	56	71	30	137	84	23	9	127	246	363	189	70	64	189	84	19	1048	33	358	105	443	177	34	336	48	36	269	73	2649	38	118	232	164	26	51	55
OTU 58	68	5	125	59	0	6	82	1	6	11	3	16	0	1	48	5	17	0	73	0	6	7	0	1	10	0	62	15	6	4	14	36	2	0	4	1	24	9	19	1	69	4	1	19	30	76	43	0	61	3
OTU 59	0	50	1	22	40	0	6	1	5	47	227	4	28	4	2	16	192	29	0	249	30	20	53	75	0	0	0	0	2	92	4	43	25	2	98	4	51	66	74	95	30	29	74	30	68	0	55	28	8	4
OTU 60	40	12	1402	99	56	0	24	210	122	61	70	3	6	15	764	62	33	79	40	237	63	568	3	4	1061	3	715	88	482	69	3	119	30	15	136	13	8	31	20	92	1497	85	47	114	49	62	394	37	65	154
OTU 61	299	236	12	9	685	16	108	59	29	8	125	19	10	8	9	61	48	29	43	143	4	179	9	25	108	1	9	12	97	17	43	1	76	26	4	26	98	5	10	7	152	20	4	210	9	19	36	5	13	31
OTU 62	0	22	1	15	0	1	30	7	52	0	22	8	0	0	6	0	0	1	6	2	8	0	30	0	0	0	0	0	1	10	6	1	0	1	3	5	3	0	0	5	10	1	0	8	0	0	3	2	0	0
OTU 63	253	60	10	549	47	30	4	0	39	12	121	2	59	94	6	1036	41	15	23	0	19	0	73	55	10	182	8	2	0	11	13	1120	27	514	199	114	11	68	1	18	0	1	8	34	0	31	0	0	5	1
OTU 64	86	12	22	15	6	6	4	105	107	64	1045	51	18	7	6	15	64	110	12	81	23	8	57	253	69	19	10	18	117	53	18	165	5	46	4	63	14	21	3	44	52	14	26	43	77	197	108	13	29	57
OTU 65	0	0	0	0	3	0	0	0	2	0	0	0	0	0	0	0	0	0	0	0	0	0	0	0	0	0	0	0	0	0	0	1	0	0	15	0	0	0	0	1	0	41	2	0	0	1	0	0	0	0
OTU 66	27	65	0	36	11	27	25	21	552	29	3	173	10	42	1	29	448	95	3	72	134	15	0	24	22	3	0	9	76	362	14	64	18	2	5	3	25	43	9	42	20	150	34	24	102	2	39	3	2	8
OTU 67	45	76	1	37	9	5	6	46	28	2	3	22	14	7	0	18	28	41	84	338	6	101	0	3	3	21	0	19	43	4	4	174	9	0	0	7	50	6	140	7	37	28	0	186	479	21	16	31	6	2
OTU 68	0	21	0	15	1086	3	3	235	87	2	90	29	27	1	2	65	54	0	8	0	26	0	15	16	111	33	0	96	19	35	45	16	0	108	0	38	6	0	0	0	27	27	0	0	86	93	127	2	0	94
OTU 69	54	28	21	33	35	65	31	160	1	6	27	51	38	24	22	21	46	60	99	19	12	8	50	24	39	40	13	110	12	58	22	48	20	12	48	28	7	53	131	64	37	34	39	14	28	32	28	13	24	93
OTU 70	51	20	2	0	0	12	7	184	36	0	62	17	0	17	0	5	32	79	12	0	9	7	0	22	27	1	0	41	6	36	23	0	12	34	1	1	18	9	0	12	30	22	3	3	10	23	6	0	2	58
OTU 71	57	5	6	0	0	9	1	3	43	6	6	1	0	0	0	9	4	3	113	58	0	1	0	7	32	0	2	0	10	0	0	3	26	0	1	5	0	0	0	13	33	7	1	10	9	1	0	0	0	0
OTU 72	42	2	10	28	2	924	56	95	8	11	27	52	27	58	12	143	129	110	40	83	26	18	12	79	68	7	4	28	26	98	31	40	154	33	45	95	5	37	4	34	75	16	9	56	41	2	1	16	2	16
OTU 73	25	57	73	28	44	42	2	27	57	0	3	13	9	1	34	235	96	3	2402	47	9	52	73	56	86	104	32	29	33	12	22	9	36	102	96	23	10	71	16	6	111	18	0	12	40	0	20	49	81	16
OTU 74	8	24	28	15	13	31	46	81	18	38	12	65	83	573	3	49	11	321	2	6	0	1	7	0	13	61	12	52	23	12	57	21	10	13	76	197	33	15	2	2	19	3	0	18	57	56	25	5	62	21
OTU 75	3	18	38	2963	80	19	64	53	84	78	197	115	39	21	19	76	77	87	2	34	32	34	81	111	51	531	17	38	69	68	43	16	62	1447	233	103	3	36	22	24	48	282	10	13	163	187	69	49	7	5
OTU 76	1	0	0	33	107	201	0	0	8	0	1	10	0	0	1	16	0	5	6	2	0	11	232	170	0	0	0	0	0	7	16	72	88	3	213	0	11	122	0	4	1	0	4	4	0	2	4	3	18	0
OTU 77	52	65	10	42	21	7	34	59	36	8	2	55	11	21	8	19	12	11	17	1	37	0	90	9	0	0	3	30	22	0	4	74	17	2	68	41	372	11	40	44	8	285	17	31	22	0	0	11	52	7
OTU 78	8	112	37	75	26	114	93	39	8	7	98	5	2	42	6	47	17	74	72	86	9	3	0	34	21	5	14	9	2	9	1	14	0	62	14	2	38	2	14	5	21	15	10	0	40	17	0	23	3	0
OTU 79	163	231	155	224	219	301	48	313	180	30	1148	145	93	21	63	172	168	27	75	41	287	114	241	322	410	199	2484	195	148	80	61	285	404	171	586	278	145	421	90	73	226	446	669	167	127	455	110	35	54	182
OTU 80	67	118	17	2	15	3	123	78	32	1	5	23	46	89	19	76	13	161	70	99	6	155	3	2	92	3	14	35	25	48	20	46	26	56	7	22	78	19	61	6	30	87	8	33	226	189	14	23	14	39
OTU 81	144	56	2	83	39	17	34	135	41	4	95	69	732	50	0	77	46	139	13	8	97	5	30	8	30	13	0	104	3	19	44	209	12	4	61	1831	58	3	5	12	17	9	92	1	30	20	3	17	2416	85
OTU 82	303	1	6	2	1	2	1	43	0	24	68	98	1	137	2	40	0	212	0	0	40	75	54	2236	43	49	3	14	1	2	24	5	0	150	0	18	1775	0	156	0	182	1	0	30	60	53	53	46	357	38
OTU 83	10	0	1	0	4	0	22	1	1	18	19	0	1	1	7	0	142	0	1	73	25	0	3	0	1	0	1	9	0	26	0	6	0	38	3	13	1	10	21	41	11	35	5	0	0	0	0	0	1	1
OTU 84	1	33	30	6	8	5	0	71	3	15	28	18	6	3	40	38	6	0	3	0	6	7	16	56	1	0	18	19	4	2	3	29	84	1	81	100	26	0	0	5	57	8	0	99	0	0	1	1	5	22
OTU 85	0	78	5	0	0	6	12	2	70	3	22	0	0	1	1	47	26	0	123	1	0	19	0	0	0	5	1	0	0	4	31	7	31	0	0	11	65	0	0	0	0	11	0	0	18	95	50	0	9	3599
OTU 86	0	0	0	8	0	0	1	9	0	0	28	0	0	0	0	0	0	0	0	75	0	0	0	0	0	0	0	1	0	0	0	0	18	8	0	0	0	0	11	0	1	0	0	0	0	0	0	0	0	0
OTU 87	220	147	0	13	13	1	30	0	1	0	1	10	0	81	0	12	0	135	1	15	0	2	1	1	0	0	0	0	1969	0	0	0	0	1	2	1	83	0	0	12	0	3	8	0	0	0	0	15	36	0
OTU 88	0	0	0	8	0	0	1	7	95	0	0	21	0	0	0	0	0	0	1	89	0	11	15	14	0	6	0	0	2	0	1	0	0	0	0	0	1	0	0	0	0	0	0	0	1	0	1	0	583	3
OTU 89	463	0	52	2	3	31	5	0	12	0	140	18	4	341	17	2	39	181	16	1	21	52	0	6	9	0	32	0	4	7	0	0	39	22	4	0	0	5	0	0	0	37	0	0	9	3	0	0	13	2
OTU 90	0	8	0	2	0	2	0	25	0	0	0	0	0	0	0	26	0	60	0	0	0	0	7	0	1	11	0	6	0	0	0	0	0	23	0	0	0	0	0	0	85	0	0	0	8	0	0	0	0	24
OTU 91	0	3	0	0	0	28	0	0	0	1	0	0	0	0	0	0	0	0	0	2	2	0	0	0	0	1	0	0	0	0	1	0	0	0	0	0	9	21	0	3	64	0	0	60	31	3	0	0	1	0
OTU 92	0	0	2	2	60	10	0	8	0	0	30	4	0	18	0	20	0	40	1	0	0	61	35	12	0	1	1	0	4	0	4	0	157	0	47	10	0	35	0	0	0	0	0	0	0	0	0	1	4	0
OTU 93	0	1	0	0	5	1	1	0	0	1	0	0	0	13	0	0	0	0	0	0	0	0	0	0	0	0	0	0	5	0	22	0	0	4	11	54	0	0	24	0	0	0	1	1	35	0	0	23	0	0
OTU 94	52	37	11	30	1	16	12	25	127	26	119	54	57	12	17	116	77	17	34	164	5	5	39	1	63	5	6	26	8	47	11	23	6	109	16	91	28	19	6	37	36	138	15	31	32	36	95	7	6	19
OTU 95	1	9	5	1	29	89	56	707	3	0	1	30	2	12	1	49	9	0	2	0	3	62	54	45	127	81	2	272	46	28	7	0	57	61	51	0	0	39	1	1	268	11	0	0	87	1	67	7	0	297
OTU 96	0	0	0	0	20	5	0	0	0	0	0	1	41	23	1	0	5	190	0	57	0	0	72	0	0	0	0	5	0	0	47	0	0	0	21	17	0	3	0	0	0	0	0	0	3	1	0	0	78	0
OTU 97	0	0	0	0	0	0	2	7	0	0	0	0	0	0	0	3	0	1	0	21	11	2	0	6	60	0	0	0	0	2	0	0	1	9	0	0	0	0	0	0	3	0	0	4	0	18	0	0	48	1
OTU 98	0	8	0	2	2	0	54	60	102	0	75	1	33	0	6	0	0	0	0	65	3	2	2	0	0	28	0	5	8	0	1	35	5	5	3	70	2	0	0	0	1	30	0	0	34	0	0	0	7	12
OTU 99	40	19	20	11	39	32	7	429	126	8	260	155	0	22	11	164	32	13	41	22	42	2178	18	30	63	59	10	246	26	38	21	87	136	45	104	35	23	52	28	55	51	117	28	111	5	22	36	18	11	255
OTU 100	118	93	0	54	1	79	32	22	47	3	51	11	8	3	0	1	17	34	24	31	3	11	2	2	4	28	0	24	11	1	77	8	0	3	10	12	19	14	10	0	79	31	0	3	37	13	0	1	10	12
OTU 101	0	1	0	0	0	0	0	11	0	5	3	7	0	0	0	0	0	0	0	0	0	4	0	0	0	14	0	0	2	0	14	3	7	0	0	0	0	0	8	20	4	0	1	0	0	0	16	5	0	0
OTU 102	4	0	0	0	0	17	10	7	14	2	0	12	18	0	0	32	229	15	4	1	2	6	0	0	0	1	0	2	26	57	3	0	0	28	0	5	0	1	2	4	3	7	4	0	0	1	0	0	0	0
OTU 103	66	106	2	1	0	5	32	55	16	350	0	0	16	0	6	0	0	3	25	31	1	44	3	7	49	38	1	51	0	2	3	0	33	0	18	17	41	12	111	727	99	1742	343	42	8	0	1	16	0	33
OTU 104	31	53	39	7	112	127	54	106	29	20	2	623	24	0	7	140	76	19	49	4	52	83	95	56	88	4	21	67	130	30	86	19	40	0	241	19	41	83	9	43	14	9	2	21	10	102	31	26	43	49
OTU 105	0	4	0	15	0	0	0	15	8	0	0	97	0	0	0	0	2	21	57	40	1	39	0	0	1	0	0	6	0	0	2	0	5	13	0	0	0	0	0	0	0	0	0	70	0	39	34	8	0	3
OTU 106	0	24	8	0	2023	0	0	0	10	0	0	0	0	67	22	14	0	0	4	0	1	0	0	30	0	96	5	0	0	0	0	0	1940	0	18	0	12	23	20	48	0	0	32	0	8	0	0	3	0	0
OTU 107	4	1	86	6	2	24	0	7	228	17	5	14	8	28	14	0	0	57	0	3	0	0	7	7	45	0	53	0	3	1	0	54	18	0	2	6	0	2	31	16	0	0	6	0	1	13	1	0	0	7
OTU 108	10	9	30	9	2	2	32	45	1	0	35	0	1	16	6	22	299	0	1	74	13	12	1	7	2	23	12	1	11	134	62	5	16	46	30	18	0	11	14	2	1	0	0	24	13	84	74	56	35	8
OTU 109	0	0	0	0	0	0	0	0	0	0	0	0	0	0	0	0	0	0	0	0	0	0	0	0	0	3	0	0	0	0	0	0	0	0	0	0	0	0	0	0	0	0	0	0	0	0	0	0	0	0
OTU 110	248	30	11	53	5	170	12	1	65	2	107	2	21	56	2	4	6	11	3	4	41	73	40	12	4	5	11	0	66	17	2	17	15	24	2	22	7	0	19	24	21	1	6	11	35	11	11	0	0	0
OTU 111	0	19	0	0	0	0	5	0	0	0	0	0	0	0	0	37	0	20	0	0	0	0	0	0	0	0	0	0	0	2	0	0	0	1	2	0	0	0	18	0	0	5	0	0	0	0	0	0	0	0
OTU 112	47	0	23	5	28	0	4	1	6	33	5	2	16	0	11	16	2	81	0	0	12	1	13	11	3	18	4	2	0	0	6	20	27	0	37	19	6	11	0	85	5	55	34	0	0	7	1	1	3	1
OTU 113	0	1	2	0	10	0	75	13	0	3	10	18	26	0	0	0	0	0	0	22	1	0	0	0	13	0	1	2	27	0	0	0	0	0	2	16	0	0	55	0	0	0	0	2	0	2	0	0	0	19
OTU 114	13	70	6	18	55	78	0	80	390	6	228	2	10	15	5	11	862	32	16	88	267	90	83	42	188	50	0	53	159	433	36	351	38	20	26	63	17	3	118	39	211	103	13	39	23	65	15	16	48	34
OTU 115	22	9	2168	43	17	164	10	21	10	0	17	26	38	18	1660	47	60	102	147	57	41	34	49	5	55	11	1068	41	74	71	12	34	107	40	81	184	6	45	0	32	79	3	34	29	25	40	1	14	10	2
OTU 116	88	14	9	31	27	106	4	67	142	4	3	286	12	62	1	6	51	83	12	193	4	13	0	22	91	5	8	4	33	10	56	34	29	58	47	0	21	47	51	26	35	39	28	1	0	6	1	17	70	470
OTU 117	27	22	36	25	19	43	25	59	104	72	54	22	8	4	42	5	54	27	4	30	5	84	0	0	24	185	25	1228	15	1	15	86	5	0	19	67	12	18	7	95	0	91	68	2	20	160	38	18	35	35
OTU 118	0	0	0	0	5	45	0	0	5	0	0	0	0	0	0	0	12	2	19	2	7	1	0	0	0	6	0	0	0	3	4	0	3	13	0	0	0	0	918	0	0	1	0	0	0	3	1	494	11	0
OTU 119	124	32	28	5	2	10	1	19	84	5	3	14	225	275	21	19	42	374	39	0	14	74	0	10	38	10	19	44	15	14	21	18	12	39	0	354	27	23	11	0	16	39	0	9	31	28	5	103	4	15
OTU 120	21	33	10	40	3	21	39	2	0	0	100	0	0	0	0	0	0	1	0	15	0	1	0	0	39	0	3	0	11	21	0	8	0	0	10	1	8	6	0	1	28	0	0	206	0	0	6	3	21	0
OTU 121	118	24	0	14	1	3	696	4	21	3	128	6	0	4	3	9	1	18	86	28	1	2	0	0	41	0	0	3	0	0	43	28	30	27	12	10	95	1	10	4	32	76	0	146	1	0	0	73	23	8
OTU 122	20	84	8	16	64	30	46	76	77	20	0	54	18	1353	0	35	7	12	15	7	0	177	36	32	172	17	5	26	44	17	1	3	95	6	112	9	36	28	107	36	123	3	13	117	26	0	3	28	2	692
OTU 123	260	155	131	23	133	108	483	133	255	1842	271	72	125	16	51	3	279	85	122	128	63	275	35	167	94	9	52	80	25	113	294	240	131	18	167	150	65	311	356	97	103	273	58	1593	252	320	148	148	52	102
OTU 124	2	12	0	1	0	4	63	2	5	2	7	0	1	27	0	1	0	11	7	9	0	32	0	0	1	0	0	2	3	15	0	40	11	17	0	0	0	2	0	6	0	0	3	0	1	0	0	32	5	0
OTU 125	307	254	24	139	62	135	29	46	68	83	411	228	376	182	13	194	191	122	23	338	2194	180	9	39	90	10	19	28	102	92	202	194	46	69	54	579	140	20	2929	400	54	197	192	1987	171	157	69	1595	1054	51
OTU 126	0	0	0	2	8	0	1	0	3	35	42	0	1	24	0	1	1	0	0	9	2	12	0	0	0	0	0	0	0	0	0	0	0	2	0	51	0	2	0	109	16	114	38	0	0	6	10	18	0	0
OTU 127	0	17	0	4	0	15	119	62	2	33	7	129	0	0	0	1	35	2	13	2	1	1	16	15	0	0	0	7	14	1	5	3	24	54	2	6	10	7	17	2	20	10	2	32	0	18	43	0	0	32
OTU 128	49	199	10	74	106	184	170	145	576	53	239	28	47	228	415	395	12	915	354	31	50	261	244	101	74	24	3	147	36	27	329	217	119	214	74	76	53	94	141	141	247	219	67	443	64	123	132	44	129	57
OTU 129	1	0	1	4	0	0	0	60	0	0	0	0	0	0	1	278	0	2	1	0	0	6	16	0	0	88	0	60	28	0	0	2	0	314	0	0	0	0	0	1	33	0	0	0	76	0	0	2	0	97
OTU 130	139	9	33	2	0	4	1	47	11	90	97	0	21	10	35	21	90	1	206	6	32	9	539	7	0	2	16	54	15	61	29	20	80	6	1	21	12	702	19	148	3	218	55	2	58	1	7	2	46	37
OTU 131	0	23	0	4	16	30	1	253	63	20	1	591	8	6	0	96	34	1	5	36	4	8	21	20	116	144	0	103	48	19	0	6	26	43	69	4	14	187	18	5	133	8	6	3	5	0	6	0	19	135
OTU 132	0	11	35	6	4	3	0	1	84	3	57	67	4	1	11	0	4	3	47	5	17	0	14	0	0	17	21	0	16	0	56	0	0	7	6	11	5	0	0	17	14	139	6	1	18	26	43	14	0	0
OTU 133	30	0	0	0	0	2	24	0	3	1	1	0	1	2	5	0	3	0	0	0	7	2	0	4	1	27	0	0	0	0	0	2	0	0	0	1	0	0	0	0	0	0	0	5	117	1	2	0	4	0
OTU 134	0	31	58	54	4	13	0	103	16	156	291	16	0	35	25	25	25	5	92	134	0	13	3	15	5	53	32	59	14	1	26	52	28	0	1	13	30	19	10	217	102	195	110	4	77	9	3	13	1	56
OTU 135	319	10	13	50	6	20	16	21	242	0	94	8	1	26	7	3	15	25	34	96	5	8	59	35	36	20	10	3	0	1	216	1	38	10	30	11	3	60	1	0	30	4	2	19	1	83	80	20	6	31
OTU 136	1	13	21	92	35	46	1	1	39	3	81	17	5	1	8	8	76	8	0	244	3	2	2407	38	2	0	9	1	8	4	0	0	0	3	124	0	1	156	0	1	20	1	0	106	524	3	0	7	6	0
OTU 137	0	1	54	23	6	34	0	2	0	0	0	35	0	0	22	0	0	0	13	0	0	10	0	0	0	0	30	1	0	0	2	0	1	52	0	12	1	0	1	2	24	0	0	10	26	228	50	24	495	0
OTU 138	32	43	30	0	31	0	15	1	107	0	0	23	0	0	3	2	0	5	0	77	6	30	44	9	4	0	19	0	1	38	0	103	0	17	0	1	5	8	4	2	0	1	1	23	4	9	52	0	1	1
OTU 139	236	189	26	99	22	127	26	106	168	17	15	86	19	8	13	24	40	33	96	17	7	605	90	130	40	0	15	1978	100	4	480	176	28	28	208	2	67	129	6	10	10	17	1	26	53	14	2172	12	87	42
OTU 140	74	44	354	83	70	59	55	291	160	59	40	399	120	6	184	201	307	1	21	83	43	109	106	46	157	134	162	76	18	52	9	153	248	32	149	69	18	64	37	72	28	259	44	764	21	151	78	10	114	119
OTU 141	0	0	0	0	0	0	0	0	0	0	0	0	0	0	0	0	0	0	0	0	0	0	0	0	0	0	0	0	0	0	0	0	0	9	0	0	0	0	0	0	0	0	0	0	0	0	0	0	0	0
OTU 142	0	5	0	0	9	0	0	0	0	0	0	0	0	0	0	14	0	0	0	0	0	6	0	0	0	19	0	0	0	0	0	0	0	0	0	0	9	0	0	0	9	0	0	2	0	0	0	1	0	0
OTU 143	0	0	0	25	0	5	0	20	0	0	53	38	0	0	0	9	32	32	0	10	0	0	2	0	24	0	0	12	0	0	0	0	3	4	0	24	0	0	0	0	0	0	1	5	13	47	1	0	0	7
OTU 144	29	0	0	0	8	3	1	1	1	0	0	1	0	2	0	0	52	0	28	0	0	2	0	0	0	0	0	9	1	0	0	2	1	1	0	0	2	1	1	0	1	6	0	0	32	0	0	0	0	0
OTU 145	122	1110	3	13	0	31	251	103	17	0	10	262	7	419	6	16	52	799	68	3	10	108	6	2	6	1	2	18	23	1	1	20	69	33	5	1	632	20	115	44	176	62	31	123	4	1	13	16	908	68
OTU 146	71	253	57	18	7	1	12	121	72	6	2	0	95	2	30	100	16	0	226	5	22	0	4	7	125	13	29	32	11	0	0	0	7	2	3	60	95	3	37	1	49	13	5	4	27	8	95	11	72	79
OTU 147	6	1	11	4	1	21	1	25	4	8	5	0	0	25	0	6	50	0	12	2	360	1	0	1	3	0	10	2	3	956	8	56	0	16	0	11	0	0	0	1	1	26	0	41	0	0	2	0	1	1
OTU 148	69	111	21	8	1	7	26	16	2	5	4	28	22	25	23	3	14	9	21	5	0	24	13	0	8	1410	6	20	2	12	6	28	9	2192	2	16	68	0	23	18	8	89	16	49	21	110	43	29	38	12
OTU 149	160	6	0	0	0	3	0	5	0	7	85	70	0	0	0	2	1	37	2	48	0	14	1	1	13	22	0	1	6	0	113	0	53	53	4	7	0	4	0	10	67	1	5	1	3	0	0	24	0	0
OTU 150	9	0	53	5	0	0	0	1	0	0	12	0	5	0	52	18	21	4	0	0	0	332	0	0	5	10	24	1	0	0	1	1	0	0	0	56	0	0	65	0	17	89	0	1	2	7	246	43	0	0
OTU 151	29	3	3	26	18	70	2	10	13	1	8	15	3	6	3	0	125	14	9	14	0	13	5	21	18	17	1	2	19	2	233	11	8	18	54	14	12	2	6	1	35	9	1025	0	1	35	12	34	17	7
OTU 152	35	13	76	24	0	52	0	161	29	23	48	35	27	27	42	166	1	147	27	29	3	0	11	0	162	2	38	135	30	2	32	2	7	50	5	60	9	0	2	39	80	52	9	1	26	0	58	17	1	46
OTU 153	0	28	0	0	2	0	0	1	0	0	0	0	0	0	0	0	0	0	0	0	5	0	0	0	7	0	0	0	0	0	3	0	28	20	0	0	1	8	0	0	0	2	0	0	0	0	0	0	3	2
OTU 154	2	0	0	0	18	1	1	0	1	0	1	1	0	0	0	2	0	0	0	0	0	0	3	0	0	0	0	10	0	0	42	2	2	0	10	0	0	1	0	0	0	2	1	0	42	0	1	0	0	0
OTU 155	10	5	0	851	0	26	0	147	13	4	9	44	6	8	0	22	1	1	0	4	0	0	41	0	19	0	0	105	13	2	0	925	36	12	3	79	0	0	84	20	66	18	19	4	3	21	89	177	0	70
OTU 156	25	55	9	88	18	11	6	63	35	2	73	34	64	12	4	79	189	35	47	1747	33	43	8	5	22	24	2	66	1	61	116	23	5	12	46	112	55	26	3	9	16	59	7	2	17	17	7	20	3	20
OTU 157	12	0	0	19	3	10	0	0	0	0	3	0	0	82	14	1	8	249	0	108	0	15	0	1	0	1	0	0	0	9	1	19	14	19	0	0	8	0	12	0	10	0	4	20	0	0	2	1	35	0
OTU 158	0	0	0	0	0	0	0	0	0	0	0	0	0	3	0	0	0	0	0	1	0	3	0	0	0	0	0	0	0	0	1	0	0	0	0	0	0	0	0	0	0	0	0	0	2	0	0	0	0	0
OTU 159	135	61	0	8	2	22	16	0	0	17	33	1	0	1279	1	2	30	1	0	0	11	1	4	16	223	0	0	2	91	73	4	18	1	8	4	28	2	1	0	25	174	0	7	4	1	3	6	8	3	0
OTU 160	168	261	104	161	61	145	46	79	174	3	145	48	8	65	35	20	6	109	149	84	0	214	252	59	87	6	48	43	90	18	84	277	45	113	163	28	102	197	72	15	202	35	3	109	187	275	49	131	44	24
OTU 161	8	40	54	1	31	0	9	11	86	7	3	188	0	54	18	20	103	60	71	18	9	2	1	1302	0	49	22	3	0	7	6	15	3	1	46	0	9	80	2	1	1	0	0	10	5	350	25	12	10	7
OTU 162	2	195	7	70	1	2	74	17	11	264	52	81	44	3	8	55	26	11	22	0	6	6	14	15	52	31	2	11	38	18	37	15	5	13	3	82	91	2	202	51	0	61	22	63	96	5	16	16	39	11
OTU 163	0	0	0	0	0	0	0	0	0	1	0	0	0	0	0	0	0	0	0	0	0	0	0	0	0	0	0	0	0	0	0	6	0	0	0	0	0	0	0	0	1	3	0	0	0	48	0	0	2	0
OTU 164	0	0	0	0	1	0	0	101	0	0	5	3	0	0	0	0	0	0	0	0	0	0	3	0	0	2	0	42	0	0	0	0	16	0	0	0	2	0	7	0	0	0	0	0	3	0	0	0	0	37
OTU 165	0	23	6	11	1	23	0	10	51	20	50	0	0	11	3	0	37	40	96	9	8	10	0	1	7	18	5	2	0	10	5	14	12	0	31	0	3	1	103	53	8	125	30	0	35	1	4	82	1	0
OTU 166	0	0	0	0	0	0	0	0	0	0	0	0	0	0	0	0	35	0	0	0	0	0	0	0	0	0	0	0	0	6	0	69	0	0	0	0	0	5	0	1	0	0	0	0	0	0	0	0	2	0
OTU 167	9	13	164	30	1	1	9	126	192	0	11	40	0	0	79	104	2	52	3	48	15	9	3	12	131	5	87	125	135	33	8	7	1	105	1	1	9	0	102	5	8	25	9	12	0	72	4	11	4	76
OTU 168	0	0	1	54	2	12	52	73	9	0	6	27	5	32	0	8	24	55	0	5	32	6	1	4	12	1	0	83	0	72	6	7	6	0	21	1	2	2	0	1	4	39	0	84	52	1	4	39	4	39
OTU 169	1	0	0	0	0	0	0	0	0	4	0	0	0	1	0	0	0	0	0	0	0	0	2	28	0	0	0	0	0	3	0	0	9	0	0	0	0	0	0	0	0	0	0	0	0	0	0	0	0	0
OTU 170	0	0	20	0	0	0	13	0	0	0	0	32	0	0	9	25	0	14	0	0	0	0	0	8	5	0	7	0	8	0	0	0	0	0	0	0	0	0	3	0	0	0	0	0	0	0	22	0	0	0
OTU 171	1	16	42	60	344	633	1	3	49	4	134	39	1	0	8	27	6	1	7	123	6	12	396	393	29	9	22	22	12	1	2	7	506	22	834	9	21	263	1	1	0	14	1	16	8	5	0	19	84	1
OTU 172	0	9	0	0	0	0	1	103	0	0	0	18	1	0	0	0	17	0	0	20	0	11	0	3	0	0	0	142	0	0	2	6	0	1	0	1	7	0	0	0	0	0	1	1	0	0	0	0	4	22
OTU 173	0	15	0	3	41	35	2	0	144	35	2	54	1	0	0	11	6	0	5	2	0	13	70	20	0	0	0	3	0	17	0	2	3	0	46	0	9	20	0	59	1	104	35	12	3	1	0	3	9	0
OTU 174	1	30	1	74	0	0	4	0	0	2	68	8	27	21	12	48	1	25	10	7	0	42	5	0	23	7	1	0	0	1	4	208	36	59	5	59	4	5	6	5	50	0	1	42	0	5	19	17	151	0
OTU 175	1	94	41	3	0	1	11	39	0	1	28	8	0	12	40	0	86	0	0	1	14	5	8	2	8	15	26	4	17	36	4	4	54	0	0	35	50	10	68	0	0	12	2	2	2	29	5	42	2	2
OTU 176	4	8	58	69	5	3	1	0	30	138	81	2	74	0	54	103	170	31	46	17	31	2	10	4	113	8	31	28	35	98	1132	60	9	12	0	110	8	1	21	58	98	146	19	2	9	38	5	59	25	1
OTU 177	53	167	31	1	299	16	14	5	31	21	0	7	0	20	29	2	80	97	6	10	15	5	74	57	0	6	18	7	267	43	23	2	117	74	384	0	31	148	68	16	52	78	18	15	0	62	30	12	140	2
OTU 178	28	0	0	95	4	24	5	8	3	0	19	6	0	3	0	140	16	2	0	22	12	0	58	39	3	9	0	1	21	21	1	47	0	0	27	2	6	30	33	1	20	114	1	46	0	0	21	4	1	1
OTU 179	43	0	10	10	16	20	11	425	74	4	31	16	6	16	19	138	75	15	6	4	9	7	1	0	1	24	3	62	5	29	19	89	1	15	10	5	0	31	16	27	1	0	24	0	17	12	43	12	63	164
OTU 180	113	42	102	134	1051	35	414	103	298	160	40	189	88	76	45	145	228	21	563	724	73	271	45	42	4	15	64	17	92	216	41	67	38	109	35	53	2688	1946	102	188	26	82	86	76	341	220	29	70	35	53
OTU 181	1	22	63	29	6	8	24	54	13	139	0	6	3	16	15	20	44	30	20	5	19	3	32	1	33	83	28	0	13	12	3	0	128	2	30	0	20	7	26	353	74	89	192	0	4	2	1	8	85	40
OTU 182	0	1	0	0	0	0	0	0	0	0	0	0	2	0	0	0	0	0	0	0	0	22	0	0	0	0	0	0	0	0	0	0	0	0	0	0	0	0	0	2	0	0	0	1	10	0	1	0	0	0
OTU 183	8	0	1	4	4	3	3	13	5	3	3	79	0	11	2	386	6	0	1	5	21	32	42	15	124	168	0	0	115	8	23	10	417	125	0	10	0	0	4	3	21	16	2	8	0	0	4	0	0	1
OTU 184	0	0	3	0	0	1	30	16	0	1	35	29	0	0	4	42	9	3	9	10	0	0	10	2	4	0	2	0	0	0	95	43	9	2	22	77	6	27	0	6	0	4	1	1	10	2	3	1	2	5
OTU 185	19	11	31	24	8	11	4	92	37	2	1	26	60	1	31	46	112	37	16	100	44	37	16	0	119	15	20	34	51	99	86	62	12	18	27	100	14	22	10	11	139	1	3	77	49	40	14	35	13	42
OTU 186	12	0	24	0	0	24	0	24	0	1	0	1	266	0	4	11	4	0	67	1	0	0	1	0	211	36	12	78	150	0	50	15	28	31	0	2	0	0	1	6	391	1	8	21	0	0	1	5	5	29
OTU 187	12	1112	11	142	3	0	265	112	129	237	112	56	2142	13	17	62	66	38	56	76	33	21	359	0	3	77	10	35	1	100	121	5	40	86	7	1945	686	29	27	825	58	18	419	1	111	3	7	22	34	57
OTU 188	32	1	11	183	19	3	27	37	419	7	139	40	5	9	4	2	16	94	3	1	42	146	22	11	6	13	7	2	10	61	63	167	14	16	1	14	4	0	51	2	72	4	6	0	148	142	65	27	24	4
OTU 189	14	13	55	1	36	48	36	73	142	31	7	116	4	36	24	7	4	73	994	18	5	13	383	100	126	46	20	159	44	12	31	33	108	15	84	65	2	153	28	39	113	33	12	19	47	32	18	27	22	33
OTU 190	0	13	0	37	2	0	14	4	1	0	3	2	0	117	0	8	7	230	2	0	0	42	0	0	0	0	0	27	1	6	0	0	3	12	0	0	2	26	0	0	0	24	0	0	0	2	0	0	0	0
OTU 191	28	19	0	41	1	12	20	12	29	207	122	24	31	46	3	36	20	14	155	113	5	61	37	39	13	31	0	1	2	7	11	165	7	8	13	26	8	2	2	363	28	469	181	0	84	10	119	48	12	0
OTU 192	217	70	6	23	49	40	1	308	11	96	32	85	0	157	2	26	184	82	9	113	4	9	22	27	462	110	586	168	136	12	29	136	112	72	22	16	22	9	20	44	358	103	14	206	14	85	21	18	35	173
OTU 193	93	53	1	20	24	19	16	28	0	27	7	27	0	61	1	13	611	107	28	4	132	32	0	5	5	57	1	421	12	168	24	2	2	4	10	9	28	1243	33	56	11	60	24	5	51	2	25	0	0	5
OTU 194	81	64	1	0	33	12	0	42	57	3	5	0	0	1	9	82	11	1	82	0	0	49	22	0	0	11	0	67	20	4	122	2	17	1	34	1	8	15	1	37	129	6	20	4	1684	1	0	0	0	19
OTU 195	0	0	1	0	1	34	6	27	2	34	7	12	7	75	0	27	26	35	93	44	13	71	0	0	10	0	0	0	17	16	38	188	4	14	6	1	1	8	69	24	34	0	10	3	33	61	9	27	34	19
OTU 196	0	11	23	29	53	13	1	73	17	33	141	9	1	4	17	32	10	0	25	2	2	16	4	3	35	0	8	27	1	8	65	83	32	54	27	1	14	16	838	3	17	0	0	35	17	0	0	330	3	26
OTU 197	121	390	138	210	393	94	24	38	43	37	37	23	66	61	103	259	389	73	166	14	82	59	429	343	123	43	78	7	48	249	70	41	171	10	657	113	186	312	153	83	15	82	51	20	150	9	97	57	46	24
OTU 198	2	2	3	0	1	0	0	0	56	0	0	0	1	67	1	88	26	84	0	0	1	0	11	6	3	11	1	0	0	32	0	61	0	9	0	1	0	0	4	0	36	0	1	3	0	0	27	7	0	1
OTU 199	3	0	39	1	0	85	3	0	50	4	7	0	2	4	27	85	1	31	49	52	1	110	0	4	141	3	20	0	38	9	35	3	1	56	0	24	0	11	25	11	2	5	5	1	0	7	3	0	14	0
OTU 200	69	15	5	0	92	13	1	0	2	46	109	6	1	2	1	20	3	37	17	5	2	25	82	59	25	12	2	0	8	0	1	0	64	64	187	0	6	57	56	61	141	14	24	0	94	33	0	20	19	1
