	Host 1	Host 2	Host 3	Host 4	Host 5	Host 6	Host 7	Host 8	Host 9	Host 10	Host 11	Host 12	Host 13	Host 14	Host 15	Host 16	Host 17	Host 18	Host 19	Host 20	Host 21	Host 22	Host 23	Host 24	Host 25	Host 26	Host 27	Host 28	Host 29	Host 30	Host 31	Host 32	Host 33	Host 34	Host 35	Host 36	Host 37	Host 38	Host 39	Host 40	Host 41	Host 42	Host 43	Host 44	Host 45	Host 46	Host 47	Host 48	Host 49	Host 50	
OTU 1	1	0	8	5	15	20	0	18	13	2	5	0	0	2	13	8	5	0	27	0	2	8	4	2	7	9	6	6	0	7	9	25	0	13	0	13	11	21	1	0	9	17	6	0	8	0	1	4	10	14
OTU 2	0	1	0	0	1	1	0	0	0	0	0	0	0	1	2	2	0	0	0	0	11	1	0	1	0	0	0	0	0	0	2	0	2	0	0	0	0	0	3	0	0	0	0	0	0	0	3	0	0	0
OTU 3	1	1	1	0	2	0	0	0	0	0	0	1	0	0	0	0	0	0	0	0	1	0	0	0	0	0	0	0	0	0	4	0	0	0	0	0	0	1	0	0	0	0	0	0	0	0	1	0	0	2
OTU 4	0	0	0	0	0	0	0	0	0	0	0	0	0	0	0	0	0	0	0	0	0	0	0	0	0	0	0	0	0	0	0	0	0	0	0	0	0	0	0	0	0	0	0	0	0	0	0	0	0	0
OTU 5	23	21	16	2	2	1	32	41	16	3	1	0	7	3	0	4	0	11	32	5	14	16	19	11	21	24	76	7	7	37	38	2	2	35	1	29	31	0	0	22	0	0	17	3	2	3	1	5	0	4
OTU 6	8	0	0	0	0	72	0	0	0	0	2	1	6	0	0	1	3	1	2	0	1	0	0	0	0	25	0	0	0	0	37	0	3	1	0	1	2	0	0	1	0	1	0	2	0	0	0	0	0	2
OTU 7	0	0	6	0	4	1	1	3	11	4	31	3	3	3	5	3	6	0	4	5	2	3	10	2	0	1	5	5	10	1	0	3	4	6	5	30	1	1	1	9	2	3	3	0	0	0	4	6	2	2
OTU 8	0	9	25	97	3	0	21	2	2	0	5	0	6	3	1	0	1	0	0	6	1	0	4	4	3	0	0	3	14	0	6	0	0	0	2	3	5	1	0	3	4	4	5	3	0	1	6	4	1	2
OTU 9	0	2	0	0	1	2	1	0	0	0	0	0	1	0	0	1	0	1	1	0	0	0	0	0	0	0	0	0	1	0	0	1	0	3	0	0	0	0	1	0	0	1	0	0	35	0	0	0	0	0
OTU 10	1	0	1	0	0	0	0	0	1	0	2	0	0	0	0	0	0	0	0	0	0	0	0	1	2	0	2	0	4	0	0	0	0	0	0	0	2	0	0	0	0	0	0	2	0	0	1	0	0	0
OTU 11	0	1	0	5	1	0	1	0	1	1	1	4	1	0	6	2	0	3	1	4	2	0	0	0	0	0	1	4	7	0	0	5	0	0	7	3	3	4	1	1	0	0	1	5	0	0	7	0	1	7
OTU 12	2	2	0	0	1	4	11	2	5	3	0	6	2	3	0	0	1	2	2	0	9	4	0	0	0	1	7	0	8	4	0	6	3	2	7	0	0	0	1	0	1	0	0	0	1	1	1	1	1	1
OTU 13	0	0	0	0	0	0	0	0	0	0	0	0	0	7	0	0	0	0	1	0	0	0	0	0	2	0	0	0	0	0	0	0	0	0	0	0	0	0	0	0	0	0	0	0	0	0	0	0	0	0
OTU 14	0	0	0	0	0	3	3	0	1	0	4	0	0	0	2	0	0	2	0	0	0	1	0	0	0	1	1	2	0	4	0	0	0	3	0	0	0	0	1	0	0	0	3	0	0	0	0	0	0	0
OTU 15	0	0	0	0	0	0	2	0	0	0	0	0	0	0	1	0	0	0	0	0	2	0	0	0	0	0	0	0	0	0	0	0	0	0	0	0	0	0	0	0	0	0	0	0	0	0	0	0	0	0
OTU 16	0	0	0	0	0	0	0	0	0	0	0	0	0	0	1	0	0	1	0	0	0	0	0	0	0	0	0	0	0	0	0	0	0	0	0	0	0	0	0	0	0	0	0	0	0	0	0	0	0	0
OTU 17	0	2	0	0	1	0	0	0	0	0	0	1	4	0	1	0	0	0	0	1	0	1	0	0	0	0	0	0	0	0	1	0	0	0	19	0	0	1	0	1	0	6	0	2	1	0	0	0	0	0
OTU 18	0	0	0	2	2	0	0	0	0	0	5	3	0	0	2	1	1	10	4	2	15	2	1	0	1	0	1	2	7	7	1	2	7	8	6	1	2	0	1	5	2	2	0	0	1	0	2	0	4	0
OTU 19	0	0	0	0	0	0	0	0	0	0	2	0	0	0	0	0	0	0	0	0	0	0	0	0	0	0	0	0	0	0	0	0	0	0	0	0	0	0	0	0	0	0	0	0	0	0	0	0	0	0
OTU 20	2	3	0	0	0	0	3	1	1	2	5	3	4	0	0	0	0	0	1	0	0	2	0	4	6	0	0	2	8	0	1	88	4	0	6	0	6	3	5	0	0	0	0	2	1	1	0	0	0	1
OTU 21	0	1	3	1	2	37	0	11	9	2	1	4	5	6	8	2	4	0	20	3	0	58	1	0	3	10	1	2	1	5	0	10	1	5	1	4	0	13	1	3	8	9	2	2	1	7	1	3	9	4
OTU 22	0	1	0	3	0	2	3	3	0	0	3	0	3	0	6	5	0	0	0	102	0	0	0	7	1	1	0	0	0	0	0	0	4	0	2	1	7	0	4	6	3	4	1	14	0	0	2	0	0	0
OTU 23	1	0	0	0	1	0	0	0	1	1	1	0	0	8	0	0	0	0	1	1	0	0	0	2	0	0	0	1	3	0	1	0	0	2	0	0	0	0	2	1	0	0	0	0	1	0	0	0	0	1
OTU 24	0	0	0	0	0	0	1	0	3	0	4	2	2	0	0	0	1	0	0	0	1	0	0	0	1	0	0	0	0	0	0	0	2	0	0	1	2	0	0	6	0	0	0	0	0	0	0	0	0	0
OTU 25	0	0	0	0	0	0	0	0	0	0	0	0	0	0	0	0	0	0	0	0	0	0	0	0	0	0	0	0	0	0	0	3	0	0	0	0	0	0	1	0	0	0	0	0	0	0	0	0	0	0
OTU 26	0	0	0	0	0	0	0	0	0	0	0	0	3	2	0	0	0	0	2	0	0	0	0	0	0	0	0	0	0	0	0	0	0	0	0	0	0	0	1	0	0	0	0	0	1	0	0	0	0	0
OTU 27	0	0	0	0	0	0	0	0	0	0	0	0	0	0	0	0	0	0	0	0	0	0	0	0	0	0	0	0	0	0	0	0	0	0	0	0	0	0	0	0	0	0	0	0	0	0	0	0	0	0
OTU 28	0	3	0	0	1	2	2	1	0	4	12	1	8	2	1	0	1	2	0	0	0	0	0	1	0	0	5	3	2	1	1	0	0	0	2	0	0	0	0	2	1	0	1	0	3	0	0	2	0	1
OTU 29	4	0	3	61	9	17	2	22	20	16	0	0	0	1	16	16	9	1	33	1	0	6	9	0	9	12	2	7	1	1	7	20	6	3	5	7	0	10	3	5	6	5	2	0	5	2	0	1	8	12
OTU 30	0	0	0	0	0	0	1	0	0	0	0	0	0	0	0	0	0	0	0	0	0	0	0	0	0	0	0	0	0	0	0	0	0	0	0	1	0	0	0	0	0	0	0	1	0	0	0	0	0	0
OTU 31	0	0	0	0	1	0	4	1	0	0	0	0	0	1	0	0	70	0	0	2	0	0	0	0	0	0	4	0	4	0	0	0	0	0	0	0	0	0	0	0	0	0	0	6	12	0	0	0	0	0
OTU 32	1	1	1	0	3	2	1	1	2	0	3	3	0	4	0	1	0	2	1	1	3	0	0	0	0	2	0	0	4	1	70	0	0	1	7	1	0	1	0	8	3	0	1	4	1	180	2	157	2	2
OTU 33	0	0	0	0	0	0	0	0	0	0	1	0	0	0	0	0	0	0	0	0	0	0	0	0	0	0	0	0	0	0	0	0	0	0	0	0	0	0	0	0	0	0	0	0	0	0	0	0	0	0
OTU 34	1	9	5	0	0	2	1	0	0	1	0	1	9	3	1	14	2	0	6	11	5	0	1	11	1	0	0	0	0	0	0	0	7	0	4	4	30	1	1	2	3	0	0	1	0	0	0	0	1	0
OTU 35	0	0	0	0	0	0	10	3	2	0	1	4	0	2	2	0	0	0	1	0	0	0	0	0	0	0	0	2	3	0	0	0	9	0	4	0	1	0	2	0	1	0	0	0	0	0	3	0	1	0
OTU 36	0	0	0	0	0	2	0	0	0	1	4	0	3	0	0	1	0	0	1	0	0	1	0	0	0	0	1	0	3	0	6	0	0	1	0	1	1	0	4	2	4	1	1	19	1	0	8	1	0	0
OTU 37	0	0	0	0	0	0	0	0	0	0	0	0	0	8	0	0	0	0	0	8	2	0	0	0	0	0	0	0	0	0	0	0	0	0	2	1	0	0	1	1	0	0	0	0	0	0	0	0	0	0
OTU 38	2	1	3	0	2	0	1	0	0	3	1	1	0	1	1	0	0	0	1	4	0	1	9	0	0	0	0	1	0	0	2	0	2	0	4	23	2	0	4	1	0	0	0	0	2	1	0	0	0	0
OTU 39	0	3	0	0	0	0	0	0	0	0	0	0	5	0	0	0	0	0	0	0	0	0	0	0	0	0	2	1	0	0	0	0	0	0	0	2	0	0	0	0	1	0	1	0	0	0	0	0	0	0
OTU 40	1	2	0	0	0	0	0	0	4	0	0	1	2	0	0	4	0	0	0	0	1	0	0	0	1	0	0	0	0	0	1	5	4	1	0	0	0	1	3	0	0	0	2	3	0	0	3	1	1	0
OTU 41	0	2	0	0	0	0	0	1	2	1	1	2	0	2	0	0	0	0	3	3	1	0	2	2	0	1	0	0	3	1	0	0	0	1	10	3	1	2	6	0	0	0	0	0	0	0	5	0	0	1
OTU 42	0	0	3	2	6	0	0	0	0	1	0	1	0	2	2	0	0	0	0	1	0	0	0	0	0	0	0	0	0	3	0	0	0	0	0	0	0	0	0	0	0	3	0	0	4	0	2	0	4	0
OTU 43	0	0	0	0	0	0	0	0	0	0	0	0	0	0	0	0	0	0	0	0	2	0	0	0	0	0	0	0	0	0	0	0	0	0	0	0	0	0	0	0	0	0	0	0	0	0	0	0	0	0
OTU 44	0	0	0	0	0	0	0	0	1	0	4	0	0	0	0	0	0	0	0	4	0	0	0	0	0	0	0	0	5	2	0	0	0	1	0	0	0	0	0	0	0	0	0	0	0	0	0	0	0	1
OTU 45	0	6	0	0	0	0	0	0	1	1	3	1	0	0	0	6	3	0	4	0	0	13	0	1	15	0	0	0	0	32	3	0	0	0	2	1	1	0	1	1	2	1	2	0	0	1	0	0	6	0
OTU 46	0	0	1	1	0	0	5	0	0	0	3	0	0	1	0	0	0	0	2	3	11	0	7	3	0	0	0	0	25	0	22	0	0	3	0	2	3	1	8	1	0	0	0	10	5	4	0	2	1	2
OTU 47	0	0	1	0	0	0	3	0	0	0	2	0	0	0	0	0	0	1	0	0	0	0	0	0	0	0	0	0	0	0	0	0	0	0	0	0	0	0	0	0	1	1	0	0	0	0	0	0	1	0
OTU 48	0	0	0	1	1	0	9	0	0	0	1	2	0	1	0	0	1	3	1	0	10	0	2	0	0	0	0	0	2	0	0	2	1	0	4	1	1	1	1	1	1	6	0	0	2	0	2	0	5	1
OTU 49	0	0	2	0	0	0	0	0	2	0	0	0	0	0	0	0	0	0	0	0	1	0	0	1	0	0	0	0	2	0	4	0	1	0	0	1	0	2	1	0	0	1	0	0	0	0	0	0	2	0
OTU 50	1	4	0	0	0	0	0	0	2	0	1	7	0	5	2	1	0	1	1	0	1	1	0	126	1	0	0	2	0	1	2	46	0	1	8	2	0	3	0	6	1	2	0	3	0	1	0	0	1	1
OTU 51	0	0	1	0	1	1	3	3	0	0	0	3	1	0	1	0	0	0	4	0	0	0	0	0	0	3	0	0	0	0	0	0	0	0	0	0	2	0	0	0	0	0	0	0	0	0	0	1	0	0
OTU 52	2	4	0	3	0	0	2	0	0	2	3	0	1	10	0	1	4	3	0	20	2	2	4	0	2	0	0	1	0	0	2	8	6	0	1	2	3	5	7	0	2	1	0	4	1	0	0	0	0	1
OTU 53	0	0	0	0	0	0	0	0	0	0	0	0	0	0	0	0	0	0	0	0	0	0	0	0	0	0	0	0	0	0	0	0	0	0	0	0	0	0	0	0	0	0	0	0	0	0	0	0	0	1
OTU 54	1	0	1	1	1	4	3	1	0	0	1	1	0	6	1	2	3	3	0	1	41	9	0	2	4	3	2	26	1	7	2	0	9	0	0	0	7	1	1	1	2	0	4	0	1	0	1	0	3	3
OTU 55	0	0	0	0	0	0	0	0	0	0	0	0	0	0	0	0	0	0	0	0	0	0	0	0	0	0	0	0	0	0	0	0	0	0	0	0	0	0	0	0	0	0	0	0	0	0	0	0	0	0
OTU 56	0	0	0	0	0	0	0	0	0	0	1	0	1	0	0	0	0	0	0	0	0	1	0	1	0	39	1	0	1	0	0	0	3	0	0	0	0	0	0	1	0	2	0	0	0	0	1	0	1	0
OTU 57	4	24	4	0	4	2	2	4	1	0	0	0	0	14	9	2	2	6	2	3	0	1	1	1	1	0	1	2	4	0	1	2	1	5	3	8	2	0	2	35	0	3	0	3	47	2	1	1	2	0
OTU 58	0	0	0	1	0	0	2	0	0	1	0	5	0	1	1	1	0	1	2	0	0	1	0	0	0	0	0	1	0	0	0	1	1	1	0	3	3	2	1	5	0	2	0	0	0	0	2	0	0	3
OTU 59	0	0	0	0	3	0	0	0	2	0	0	0	0	2	0	0	0	3	0	0	0	0	2	3	0	0	0	0	1	0	0	0	0	0	4	3	4	0	3	3	0	0	1	1	0	2	1	0	0	0
OTU 60	3	3	1	0	0	0	14	0	7	4	2	0	1	2	2	0	1	0	4	2	6	73	0	0	1	0	0	1	1	0	0	0	0	5	1	0	3	2	0	2	4	1	0	0	4	1	2	0	1	0
OTU 61	8	2	1	2	0	1	2	0	5	0	1	0	9	2	0	17	2	3	35	1	12	0	0	0	1	0	71	2	2	1	5	2	1	148	0	1	2	7	2	11	0	3	12	6	37	39	2	67	2	9
OTU 62	0	0	0	0	0	0	0	0	0	0	0	0	0	2	0	0	0	0	0	0	0	1	0	0	0	0	1	0	0	0	0	0	0	2	0	0	1	0	1	0	0	0	0	0	0	0	1	0	0	0
OTU 63	0	0	1	0	1	0	1	0	0	0	1	0	0	0	1	0	0	0	3	1	1	1	0	0	2	0	0	0	0	0	0	0	3	0	1	0	0	0	0	0	0	0	0	0	0	0	0	1	4	0
OTU 64	2	2	0	1	1	0	0	1	2	3	3	0	3	3	0	2	2	0	1	3	3	1	1	0	5	1	0	0	0	0	1	0	11	1	5	4	0	3	2	0	0	0	0	10	0	0	0	0	7	1
OTU 65	0	0	0	1	0	0	0	0	0	0	0	0	0	4	0	1	0	0	0	0	0	0	0	0	0	0	0	0	0	0	0	0	0	0	0	0	0	0	0	0	0	0	0	0	0	0	0	0	0	0
OTU 66	0	3	0	0	2	0	3	0	5	0	2	10	2	1	1	3	0	0	4	1	0	0	2	0	1	0	3	0	2	2	3	39	0	0	8	4	0	0	0	0	1	0	0	0	0	0	0	0	0	0
OTU 67	0	3	10	0	28	1	2	1	1	1	0	0	0	0	1	0	0	2	0	0	0	0	0	1	0	2	2	0	9	0	0	0	5	1	0	1	0	0	0	0	0	0	0	0	3	0	2	0	0	1
OTU 68	0	0	0	0	0	1	0	0	0	0	0	1	1	0	0	0	0	0	0	0	0	1	0	1	0	0	0	0	0	0	0	0	0	0	0	0	1	0	2	0	0	0	0	0	0	0	0	0	0	0
OTU 69	0	0	0	1	2	0	1	3	0	0	1	1	0	1	3	2	1	0	2	0	0	0	2	0	0	0	0	0	0	0	0	0	3	0	2	2	0	0	0	3	0	1	0	2	2	0	0	0	0	0
OTU 70	0	2	0	1	0	2	0	1	0	0	5	3	0	0	2	0	0	0	0	0	0	0	0	0	0	0	1	2	1	0	1	0	0	0	6	0	0	0	0	4	0	0	0	1	1	0	2	0	0	1
OTU 71	5	1	43	0	105	0	1	0	2	1	4	0	1	2	0	0	0	30	0	0	0	0	2	0	0	0	0	0	1	0	0	0	0	1	3	3	0	1	0	1	2	0	0	0	2	0	0	0	0	1
OTU 72	0	1	0	1	0	1	2	0	0	0	0	0	6	0	3	0	0	8	0	0	0	1	0	0	0	0	1	1	1	0	2	0	0	3	1	0	0	0	0	0	1	0	1	1	4	2	0	0	0	0
OTU 73	0	0	0	0	2	0	0	0	5	1	0	0	0	1	0	0	0	2	0	0	3	0	0	0	0	0	0	0	1	0	0	1	0	7	0	0	0	1	2	3	0	0	0	0	1	0	0	2	0	0
OTU 74	0	0	0	0	0	1	8	0	0	0	0	8	0	19	0	1	5	4	2	7	1	2	0	7	0	0	1	0	1	0	1	0	2	0	6	0	16	1	2	7	6	1	0	15	2	0	0	0	4	1
OTU 75	16	8	0	0	1	1	3	1	3	4	0	3	8	5	3	4	0	10	0	0	25	1	1	2	1	2	3	0	1	0	0	1	3	3	7	1	5	2	0	1	4	24	1	4	1	0	3	0	1	0
OTU 76	0	0	1	0	1	0	4	0	0	0	7	0	1	0	0	0	0	2	0	0	0	0	0	0	0	0	0	126	2	0	3	0	0	0	8	2	0	0	0	10	0	0	0	0	1	0	0	0	0	0
OTU 77	0	3	0	0	0	4	0	0	5	0	2	0	0	1	0	0	2	0	0	1	0	0	1	0	0	5	0	0	2	2	0	0	0	2	2	0	7	5	0	6	0	3	0	0	1	1	0	0	0	0
OTU 78	5	1	0	1	0	3	0	0	82	3	0	1	0	4	9	0	0	2	0	0	0	3	1	0	0	3	20	5	1	0	0	0	6	42	0	3	1	1	0	0	6	0	0	2	0	13	3	25	0	0
OTU 79	3	5	6	4	1	1	2	1	1	4	2	7	2	6	1	0	1	6	3	3	17	4	92	4	2	1	1	1	0	61	6	0	9	3	7	4	13	1	4	3	2	1	2	7	0	3	7	2	2	53
OTU 80	0	0	0	14	2	0	4	0	3	30	0	0	1	0	62	1	0	4	3	8	0	0	5	0	1	0	1	34	2	1	3	1	0	10	0	8	0	0	0	3	1	1	1	3	0	0	3	1	0	0
OTU 81	18	7	0	1	1	2	20	0	6	6	1	2	2	1	4	16	0	0	1	0	2	0	1	1	4	2	0	0	0	3	0	1	3	1	0	5	3	2	11	0	1	0	4	5	0	0	2	0	2	4
OTU 82	0	6	0	5	1	0	2	0	0	2	0	9	0	2	1	1	2	0	0	0	1	0	0	1	0	0	0	2	1	0	0	0	2	0	4	0	0	0	0	1	0	0	1	0	4	0	1	0	0	2
OTU 83	0	0	0	0	0	1	0	0	1	0	0	0	0	0	1	0	0	0	0	4	1	0	0	2	0	0	0	2	0	0	0	0	4	0	0	0	0	3	1	0	0	0	0	7	0	0	0	0	0	2
OTU 84	0	0	1	0	0	0	1	0	1	0	1	0	2	0	1	0	3	1	0	1	0	0	0	0	0	0	2	2	2	1	0	0	0	2	6	1	0	1	0	1	6	1	0	2	0	3	0	6	0	0
OTU 85	0	0	0	0	0	0	0	0	0	2	0	0	1	0	1	0	0	0	2	2	0	1	0	0	0	0	0	0	0	0	0	0	0	3	0	0	0	1	1	4	0	0	0	0	0	0	0	0	0	5
OTU 86	0	0	0	0	0	0	0	0	0	0	0	0	0	0	0	0	0	0	0	0	0	0	0	0	0	0	0	0	0	0	0	0	0	0	0	0	0	4	0	0	0	0	0	1	0	0	0	0	0	0
OTU 87	0	0	0	0	0	0	1	0	0	0	0	0	5	0	0	0	0	0	0	0	0	0	0	0	0	0	0	0	0	0	1	0	0	0	0	0	0	0	1	5	0	0	0	0	0	2	0	2	1	0
OTU 88	0	4	0	0	0	0	0	0	0	0	0	0	0	0	0	1	0	0	1	0	0	0	0	1	0	0	0	0	3	0	0	0	0	0	0	1	0	0	0	0	0	0	1	0	0	0	0	0	0	0
OTU 89	0	0	5	0	0	0	1	0	0	0	0	0	1	1	1	0	0	0	1	4	0	0	0	0	2	0	0	0	3	0	2	0	0	0	0	0	0	0	0	1	0	0	0	0	18	2	0	0	1	0
OTU 90	0	0	0	0	0	0	4	0	0	0	0	0	0	2	0	0	0	0	0	0	0	0	0	0	0	1	0	0	0	0	3	0	0	0	2	0	1	0	0	1	0	0	0	1	0	0	0	0	0	0
OTU 91	0	0	0	0	0	1	0	2	0	0	0	0	0	0	0	0	0	1	0	0	0	0	0	0	0	1	0	0	0	0	0	0	4	0	1	0	0	0	0	0	0	0	0	0	2	2	0	0	0	0
OTU 92	1	0	0	0	0	0	0	1	0	1	0	0	2	0	0	0	0	0	0	0	0	0	0	1	0	0	0	1	0	1	0	0	0	0	0	0	6	2	0	0	1	0	0	0	0	0	0	0	0	4
OTU 93	0	0	0	0	0	0	3	0	0	2	0	0	0	0	0	3	0	0	0	0	0	0	0	0	0	1	0	0	0	1	1	0	0	0	0	1	0	0	0	0	0	0	0	0	0	0	0	0	0	0
OTU 94	0	0	2	4	5	9	4	1	9	3	3	0	4	0	10	1	2	0	3	1	1	9	0	1	0	3	2	3	0	7	2	12	17	7	6	1	8	7	13	8	4	5	0	2	1	3	0	2	6	0
OTU 95	0	0	0	0	0	0	0	0	0	0	0	0	0	0	1	0	0	0	0	0	0	1	0	0	0	0	0	0	0	0	0	0	2	0	0	0	0	0	0	0	0	0	0	0	0	0	0	0	0	1
OTU 96	1	0	0	0	0	0	0	0	0	0	0	0	0	0	0	0	0	0	0	0	0	0	0	0	0	0	0	0	0	0	0	0	0	0	0	0	0	0	0	0	0	0	0	1	0	0	0	0	0	0
OTU 97	0	0	0	0	0	0	0	1	0	0	0	0	0	0	0	0	0	1	0	0	0	0	0	0	0	0	0	0	0	0	0	0	0	0	0	0	0	0	1	0	0	0	0	0	0	0	0	0	0	0
OTU 98	0	0	0	0	3	0	0	0	0	0	0	0	12	0	0	0	4	0	0	0	0	0	2	19	0	0	0	0	2	0	1	0	0	0	0	1	18	1	0	0	1	0	0	4	0	0	0	0	6	0
OTU 99	76	0	0	0	1	5	0	0	4	0	3	0	7	3	0	1	0	0	0	0	9	2	1	1	1	1	1	0	0	1	2	2	6	0	12	0	2	2	5	0	0	2	0	4	1	0	6	1	1	0
OTU 100	3	0	124	0	0	0	0	0	8	0	0	1	4	1	0	3	1	0	0	0	3	0	1	3	0	0	4	0	1	0	0	2	1	3	1	0	1	0	0	3	0	0	1	1	8	1	1	0	0	0
OTU 101	0	0	0	0	1	0	0	0	0	0	0	2	0	0	0	0	0	0	0	0	0	1	0	0	0	0	0	0	0	0	0	0	0	0	4	0	0	0	0	0	0	0	0	1	0	0	0	0	0	0
OTU 102	1	0	0	0	0	0	2	0	0	0	0	1	0	2	0	0	0	0	0	0	0	0	0	1	0	0	0	0	0	0	0	0	0	0	1	0	1	0	0	0	0	0	0	0	0	0	1	1	0	0
OTU 103	0	0	0	0	0	0	0	0	3	1	3	1	0	0	0	0	0	1	1	0	1	0	0	0	0	0	0	0	0	0	0	0	0	0	0	0	0	0	4	0	1	0	0	1	0	0	1	1	0	1
OTU 104	1	0	0	1	0	3	6	0	0	1	0	0	0	8	0	1	0	3	1	4	3	0	0	1	2	1	0	0	0	3	0	5	9	3	0	0	2	0	4	5	2	0	0	0	2	0	1	1	0	0
OTU 105	1	0	0	0	0	0	0	0	1	1	2	0	0	0	0	0	0	0	0	0	0	0	0	0	0	0	0	0	0	0	1	0	0	0	0	0	0	0	0	3	0	1	0	0	0	0	0	0	0	0
OTU 106	2	0	0	0	3	0	0	0	0	0	1	0	0	1	0	0	0	4	0	0	1	0	94	0	0	0	0	0	0	0	0	1	0	0	0	2	1	0	8	0	3	0	0	0	0	0	3	0	0	0
OTU 107	0	137	0	0	0	3	0	0	0	0	0	0	0	2	0	2	0	0	0	0	0	0	0	0	0	1	0	0	0	0	1	0	1	0	0	0	0	1	1	4	0	0	2	0	0	0	0	0	0	1
OTU 108	0	2	0	0	0	2	0	0	0	1	0	0	0	1	2	2	0	1	0	0	0	0	1	0	0	2	1	0	5	1	0	0	0	0	0	0	0	1	0	1	0	0	0	0	0	0	1	0	0	1
OTU 109	0	0	0	0	0	0	0	0	0	0	0	0	0	0	0	0	0	0	0	0	0	0	0	0	0	0	0	0	0	0	0	0	0	0	0	0	0	0	0	0	0	0	0	0	0	0	0	0	0	0
OTU 110	0	4	3	0	3	1	3	0	1	0	0	0	0	0	3	0	0	4	0	0	0	1	2	1	2	0	0	1	1	2	6	1	1	0	0	4	1	5	5	2	0	5	0	0	1	0	3	0	0	0
OTU 111	0	1	0	0	0	0	0	0	0	0	0	0	0	0	0	0	0	3	0	0	0	0	0	0	0	0	0	0	0	0	0	0	0	0	0	0	0	0	0	0	0	0	2	0	0	0	0	0	0	0
OTU 112	0	0	0	0	0	3	1	0	0	0	0	0	6	0	2	0	0	0	0	0	8	0	0	0	0	1	0	1	0	0	1	0	1	0	0	1	0	4	0	0	0	0	0	0	2	0	1	0	0	3
OTU 113	0	0	0	1	0	0	0	0	0	0	0	0	0	0	0	0	0	0	0	0	1	0	0	0	0	0	1	0	0	0	0	0	0	0	0	1	0	0	0	0	0	0	0	0	0	0	0	0	0	0
OTU 114	2	0	1	1	2	2	2	1	5	4	3	4	4	3	0	0	0	0	0	1	0	0	2	0	1	0	29	2	0	2	2	3	0	0	4	2	1	1	0	2	3	0	0	8	3	0	1	0	2	4
OTU 115	0	1	0	0	0	9	2	0	0	2	1	2	2	26	4	0	0	22	2	40	1	1	2	0	2	1	0	26	0	1	0	1	5	5	1	3	0	5	86	1	1	0	0	2	2	2	44	18	0	2
OTU 116	0	20	3	0	5	1	5	1	0	0	4	0	1	6	0	2	0	1	3	1	5	1	0	1	0	51	0	0	3	0	1	2	0	2	1	0	2	0	0	55	0	0	0	0	0	0	3	0	0	0
OTU 117	2	2	1	0	4	1	0	12	7	3	0	1	1	0	1	0	90	2	35	0	5	2	0	0	2	0	1	0	0	5	27	4	1	0	0	3	0	1	0	2	2	0	0	1	0	0	3	0	173	0
OTU 118	0	0	0	0	1	0	0	1	0	1	0	0	1	0	0	0	0	0	0	2	1	0	0	0	0	0	0	0	0	0	1	0	0	0	0	0	0	2	0	0	0	1	0	0	0	0	2	0	0	0
OTU 119	0	0	1	1	0	7	4	31	1	1	14	0	0	1	0	1	0	4	0	5	0	0	0	3	0	1	1	0	1	1	1	4	4	0	3	0	5	1	4	1	0	0	0	1	0	0	0	1	0	0
OTU 120	1	0	0	0	0	0	2	0	0	0	0	1	4	0	0	0	0	1	0	0	0	0	0	0	0	0	0	0	0	0	0	1	1	0	1	1	0	2	1	0	5	0	0	3	0	0	0	0	1	0
OTU 121	1	0	0	0	0	2	0	3	0	2	0	0	0	0	2	1	0	0	2	0	1	0	1	2	1	2	0	1	0	2	0	2	2	0	2	1	1	1	4	6	4	1	178	2	3	1	1	2	0	1
OTU 122	0	0	24	0	35	4	5	2	1	5	0	4	8	14	0	0	122	0	1	9	0	0	3	1	0	1	1	0	0	0	0	2	7	1	0	8	0	0	0	0	0	43	0	1	4	0	2	1	53	0
OTU 123	3	7	2	0	0	0	0	1	3	3	1	4	2	20	8	8	4	13	9	1	1	1	1	25	0	2	1	4	14	4	5	4	10	2	6	0	7	8	8	8	9	10	2	30	5	1	4	3	0	5
OTU 124	24	1	0	2	0	0	0	0	0	0	0	0	0	0	0	26	0	0	0	0	0	0	0	0	0	0	0	0	0	0	0	0	1	0	0	0	0	0	0	1	0	0	19	0	0	0	0	0	0	1
OTU 125	19	2	1	3	2	2	13	3	12	5	0	0	2	6	5	6	1	15	5	4	5	12	6	6	16	2	67	2	9	43	5	3	7	4	3	7	2	10	14	4	0	0	3	3	1	4	3	7	5	5
OTU 126	0	0	0	0	1	5	0	0	0	0	0	0	0	0	0	0	1	0	0	0	0	1	0	0	0	4	2	0	0	0	1	0	0	0	2	0	0	0	0	0	0	0	0	0	0	0	0	0	1	0
OTU 127	1	1	0	0	0	2	0	1	1	0	0	0	2	2	0	0	0	1	0	0	2	0	0	0	0	1	1	1	98	8	2	0	0	0	0	0	1	0	0	3	2	2	0	0	2	0	0	1	2	0
OTU 128	1	2	5	3	12	7	5	8	4	2	5	9	5	9	4	6	7	9	6	5	1	10	1	3	1	4	5	2	3	4	5	1	23	4	14	2	1	10	4	3	6	9	1	15	4	66	3	1	1	52
OTU 129	2	0	0	1	0	0	0	0	0	0	0	0	0	0	0	0	0	0	0	0	0	0	0	0	0	64	0	0	0	5	0	4	0	0	0	0	0	0	0	0	0	0	0	0	0	0	0	0	0	0
OTU 130	2	0	0	0	0	9	1	0	0	0	7	1	0	4	0	1	1	0	0	1	1	0	32	1	0	9	0	0	0	0	0	2	0	0	8	58	1	0	0	0	1	0	0	0	0	0	0	0	2	1
OTU 131	0	0	1	12	0	1	0	0	0	0	0	0	0	0	0	0	0	2	2	0	3	2	0	1	0	0	0	0	0	0	0	0	5	0	0	1	5	8	1	0	3	0	2	0	1	0	5	0	0	3
OTU 132	36	0	0	0	0	2	0	0	0	0	0	1	0	3	0	1	2	0	0	0	0	1	0	0	0	0	0	0	1	0	0	0	0	1	0	0	0	1	0	0	0	0	0	0	0	0	0	0	1	0
OTU 133	0	0	0	2	1	0	0	0	0	0	0	0	0	4	0	0	0	0	0	7	0	0	0	0	0	0	0	0	0	0	0	0	0	0	0	0	0	0	0	0	0	0	0	0	0	0	0	0	1	0
OTU 134	1	0	0	0	0	1	5	0	0	0	8	2	4	1	1	0	0	6	0	0	6	2	0	3	0	0	0	1	1	0	7	1	0	0	1	1	5	0	0	0	1	0	1	3	2	1	5	0	5	1
OTU 135	0	0	19	1	0	2	0	10	2	7	2	0	120	2	0	2	0	2	1	0	1	2	1	0	0	1	0	3	0	4	3	2	0	2	0	1	0	11	0	0	3	1	0	0	3	0	0	6	4	7
OTU 136	1	4	0	1	0	0	2	0	0	9	3	0	0	0	1	1	0	0	0	0	0	0	0	2	0	0	0	1	0	0	0	0	0	0	0	1	3	0	0	0	9	0	0	0	0	0	0	2	0	1
OTU 137	0	1	0	0	0	0	0	0	0	0	0	0	0	0	0	0	0	0	0	1	0	0	0	2	0	0	0	0	0	0	0	0	3	0	4	0	8	0	0	0	0	0	0	0	0	0	0	0	0	0
OTU 138	0	0	0	0	0	0	0	6	0	0	0	0	0	2	1	2	0	1	0	4	1	0	0	0	0	0	0	0	0	0	0	0	1	0	0	0	0	0	7	0	0	0	0	0	0	0	2	0	0	0
OTU 139	5	1	19	0	31	0	3	1	1	2	1	5	7	3	0	1	0	3	0	2	9	0	0	0	1	0	1	0	0	0	7	4	1	2	2	1	7	0	7	3	3	20	1	4	0	3	2	3	3	0
OTU 140	1	0	5	5	1	0	34	1	1	6	3	9	26	1	0	3	2	6	0	17	32	2	0	4	1	0	0	0	3	0	5	1	49	5	14	3	4	0	7	1	3	0	2	8	5	0	2	0	5	1
OTU 141	0	0	0	0	0	0	0	0	0	0	0	0	0	1	0	0	0	0	0	0	2	0	0	0	0	0	0	0	0	0	0	0	0	0	0	0	0	0	0	0	0	0	0	0	0	0	0	0	0	0
OTU 142	0	0	0	0	0	0	0	0	0	0	0	0	0	1	0	0	0	0	0	0	0	0	0	0	0	0	0	0	0	0	0	0	0	0	0	0	0	0	1	0	0	0	0	0	0	0	0	0	0	0
OTU 143	0	0	7	0	13	0	0	0	0	1	6	1	0	0	0	0	0	1	0	0	0	0	0	0	0	0	0	0	2	2	1	0	0	0	0	0	0	3	0	5	2	15	0	0	0	1	0	0	0	0
OTU 144	0	0	0	0	0	0	4	0	0	0	1	1	0	0	0	0	0	0	0	0	0	0	0	0	0	0	0	0	0	0	0	0	0	0	0	1	4	0	0	0	0	0	0	0	0	0	0	0	0	0
OTU 145	2	3	0	0	2	2	2	0	4	0	1	0	0	12	0	0	0	3	2	8	0	1	0	2	0	0	23	0	0	0	0	2	1	0	3	2	0	5	6	3	1	13	0	4	2	1	2	0	0	2
OTU 146	0	1	0	0	0	5	5	0	0	0	0	14	0	5	1	5	0	1	0	3	1	0	0	4	0	0	1	0	1	2	1	1	0	1	0	0	2	1	2	1	2	106	1	0	0	2	2	1	1	0
OTU 147	0	0	0	0	0	0	0	0	1	0	0	0	0	0	0	0	0	0	0	0	0	0	4	0	0	0	0	0	1	1	0	2	10	2	0	10	1	1	0	3	0	0	0	0	0	1	0	3	0	0
OTU 148	2	0	0	0	0	0	7	0	0	0	1	0	2	5	0	2	0	2	3	1	1	0	0	0	0	0	0	0	0	0	1	1	6	0	2	0	0	0	0	1	0	0	1	1	0	0	1	0	2	0
OTU 149	0	0	0	0	1	0	0	41	4	1	4	1	0	0	0	0	0	0	0	1	5	0	0	0	0	0	0	0	0	1	0	0	0	0	1	0	0	0	0	0	0	3	0	0	0	0	1	0	0	0
OTU 150	0	0	0	0	0	0	0	2	0	0	0	1	0	0	0	1	0	0	0	0	0	0	0	0	0	0	0	0	0	0	0	0	0	0	0	0	0	0	0	0	2	0	0	0	0	0	1	0	0	0
OTU 151	6	1	0	3	0	1	0	0	0	0	1	0	0	1	0	2	0	0	4	0	0	0	1	0	4	2	0	0	0	0	3	0	1	0	0	2	0	0	0	0	0	0	0	0	1	0	2	0	1	0
OTU 152	2	0	0	1	1	2	0	0	17	0	0	5	3	0	3	1	0	72	1	1	0	0	0	4	5	0	1	3	18	3	1	3	1	1	2	1	1	0	0	0	0	4	2	11	1	0	4	2	0	1
OTU 153	0	0	0	0	0	0	0	0	0	0	0	0	0	0	0	0	0	0	0	0	0	0	0	0	0	0	0	0	0	0	0	0	0	0	0	0	0	0	0	0	0	0	0	0	0	0	0	0	0	0
OTU 154	0	0	0	0	0	0	0	0	0	0	0	0	0	0	0	0	0	0	0	0	0	0	0	0	0	0	0	0	0	0	0	0	0	0	0	4	0	0	0	0	0	0	0	9	0	0	0	0	0	0
OTU 155	0	3	0	0	0	1	0	1	2	0	0	0	1	1	0	0	0	3	0	0	1	0	0	0	0	1	0	0	0	1	0	1	0	0	0	0	0	0	0	0	0	0	0	0	0	0	1	1	0	0
OTU 156	56	2	3	0	0	1	0	82	0	1	3	6	0	6	1	141	3	0	1	1	4	4	1	63	2	3	1	0	2	0	0	1	1	2	11	0	2	1	1	4	2	10	65	0	2	0	1	1	0	0
OTU 157	0	0	0	0	0	28	0	0	0	0	0	0	0	0	0	5	1	0	0	0	0	0	0	0	1	15	0	0	0	1	1	0	0	0	6	0	0	0	6	0	5	0	0	0	3	0	0	2	0	69
OTU 158	0	0	0	0	0	0	0	0	0	0	0	0	0	9	0	0	0	0	0	0	0	0	0	0	0	0	0	0	0	0	0	0	1	0	0	0	0	0	0	0	0	0	0	0	0	0	0	0	0	0
OTU 159	0	0	0	0	0	0	1	1	2	2	0	2	2	1	2	0	0	3	0	4	3	0	0	2	0	0	0	0	0	0	0	0	0	0	1	1	2	4	7	3	1	0	1	1	0	0	3	0	0	0
OTU 160	1	14	2	0	3	4	9	5	0	1	4	2	8	4	0	1	3	23	6	0	2	2	1	17	1	5	2	0	9	2	2	0	2	1	0	2	47	0	44	17	0	0	3	0	1	2	16	1	0	0
OTU 161	0	0	1	12	0	3	0	0	6	23	2	2	3	9	67	0	1	0	1	3	2	0	27	0	1	1	0	34	5	12	0	0	0	0	0	35	0	113	0	2	78	0	10	0	0	0	90	0	0	62
OTU 162	4	0	0	0	1	6	7	1	1	1	0	4	0	0	1	0	0	2	3	1	1	0	1	6	1	33	2	1	1	0	10	0	2	5	2	1	2	11	7	4	4	0	2	0	69	0	1	2	0	2
OTU 163	0	0	0	0	0	0	1	0	0	0	0	0	2	0	0	0	0	0	0	0	0	0	0	0	0	0	0	0	0	1	0	0	0	0	0	0	0	0	0	0	0	1	0	0	0	0	0	0	0	0
OTU 164	0	0	0	0	0	0	0	0	0	0	0	0	1	0	0	0	0	0	0	0	0	0	0	0	0	0	0	0	3	1	0	0	0	0	0	0	0	0	0	0	0	0	0	0	0	0	1	0	0	0
OTU 165	0	0	0	0	1	2	3	0	0	1	2	0	0	0	0	1	0	0	0	1	2	0	0	0	0	0	0	0	1	0	0	0	1	0	4	0	0	1	0	1	0	1	1	0	1	0	4	0	1	0
OTU 166	0	0	0	0	0	0	0	0	0	0	0	0	0	0	0	0	0	0	0	0	0	0	0	0	0	0	0	0	0	0	0	0	0	0	0	0	0	1	0	0	0	0	0	0	0	0	0	0	0	0
OTU 167	1	0	0	1	0	5	0	0	0	0	0	40	0	0	0	0	0	0	0	0	0	0	0	0	0	0	0	0	0	39	1	0	0	0	1	0	2	0	0	0	0	1	0	0	0	0	0	1	0	0
OTU 168	0	4	0	0	0	2	0	0	0	1	2	0	3	3	0	0	0	1	1	6	2	4	0	0	0	1	0	0	0	0	1	2	0	0	1	2	1	0	2	0	0	2	0	8	0	0	0	1	0	1
OTU 169	0	0	0	0	0	0	1	0	0	0	99	0	0	0	0	0	0	0	0	2	0	0	0	0	0	0	0	0	1	0	1	0	0	0	0	0	0	0	1	0	0	0	0	0	0	2	2	0	0	0
OTU 170	0	0	0	0	0	0	0	0	0	0	0	0	0	1	0	0	0	0	0	0	3	0	0	0	0	0	0	0	0	0	0	0	0	0	0	0	0	0	0	0	0	0	0	0	0	0	0	0	0	0
OTU 171	0	2	1	0	2	0	0	0	3	6	2	8	0	3	2	0	2	0	2	4	0	0	0	0	4	0	2	3	0	0	3	3	0	0	3	0	4	1	0	3	60	3	0	0	2	0	0	4	2	0
OTU 172	1	0	0	1	0	0	0	0	0	0	0	0	0	0	0	0	0	0	0	0	1	0	0	0	0	0	1	0	0	0	0	0	0	0	0	0	0	1	0	0	1	1	0	0	0	0	0	0	0	0
OTU 173	0	1	0	0	0	0	1	0	0	0	15	0	0	0	0	0	0	0	1	0	0	0	0	0	0	0	1	0	1	0	0	0	0	0	0	0	0	0	0	0	0	0	0	2	0	0	0	1	0	0
OTU 174	0	0	0	0	1	3	0	1	0	1	0	2	1	0	0	1	0	0	3	0	0	1	2	0	0	0	0	0	0	0	1	1	0	2	1	1	0	3	0	0	1	0	1	0	0	0	0	1	0	1
OTU 175	0	0	0	0	0	0	0	0	1	0	0	0	0	0	3	3	0	0	0	0	0	2	0	0	0	0	0	0	0	0	1	0	0	0	0	0	0	0	1	5	0	0	0	0	0	0	0	0	1	0
OTU 176	0	0	0	0	1	0	4	0	1	0	1	0	1	5	0	0	0	4	0	1	3	0	0	0	145	0	0	0	3	1	1	2	0	1	4	4	0	1	0	0	0	3	0	0	0	21	5	0	1	0
OTU 177	3	0	1	0	3	1	4	2	8	3	9	0	0	0	0	1	1	0	0	1	0	0	0	1	0	1	0	1	0	0	0	0	0	0	2	0	3	5	0	0	6	4	0	0	4	0	2	0	0	1
OTU 178	0	5	0	3	0	0	3	0	1	0	0	1	0	0	4	1	0	0	2	0	1	0	0	0	1	0	0	0	3	0	0	0	4	0	0	0	0	2	0	0	1	1	0	2	0	0	0	1	0	0
OTU 179	0	0	0	1	2	0	0	0	0	0	2	1	1	1	0	0	0	0	1	0	0	0	0	0	0	0	0	1	0	0	2	0	16	0	0	0	0	0	0	0	1	0	0	4	0	1	0	1	2	1
OTU 180	3	9	1	86	2	5	2	1	5	148	6	5	3	2	1	4	2	3	7	2	12	91	1	2	85	2	0	0	3	5	1	2	0	0	5	6	3	1	6	3	0	3	0	0	3	0	2	0	4	0
OTU 181	1	0	0	0	0	1	0	1	0	0	0	0	0	1	0	1	0	1	1	1	3	2	0	0	0	1	0	6	0	0	1	0	0	0	2	0	3	0	0	2	1	0	2	0	1	0	0	0	0	0
OTU 182	1	0	0	0	0	1	8	0	0	2	0	0	0	0	0	0	0	0	0	0	0	0	0	0	0	2	0	0	0	0	0	0	0	0	0	0	0	0	0	0	0	0	0	0	0	0	0	0	0	0
OTU 183	0	0	2	0	1	0	3	0	0	2	0	23	0	2	0	1	0	8	0	3	0	2	0	1	0	0	0	0	0	2	2	0	1	0	0	1	0	0	2	0	0	0	0	1	0	1	40	2	0	0
OTU 184	1	0	1	0	0	0	7	11	0	0	0	0	0	2	0	0	0	0	10	0	3	0	0	0	0	0	0	0	1	0	2	0	0	0	0	1	0	0	0	0	0	0	0	0	1	0	0	1	0	0
OTU 185	0	1	1	0	0	3	1	0	0	1	3	0	0	0	2	2	9	5	1	0	3	1	0	0	0	1	4	0	18	0	0	0	2	2	7	0	2	0	0	1	0	3	4	2	0	0	3	0	1	0
OTU 186	0	1	0	0	0	0	3	0	4	0	0	98	0	0	2	0	0	0	0	0	0	0	0	0	1	0	0	1	1	0	0	1	0	1	5	0	3	0	5	2	0	0	0	1	0	0	6	0	0	0
OTU 187	1	2	3	0	6	2	1	3	0	2	9	4	2	1	1	3	1	1	0	2	16	2	3	2	4	1	0	0	1	3	0	0	8	0	0	1	8	1	0	3	0	1	0	1	3	0	0	1	2	1
OTU 188	2	0	7	9	16	20	4	13	17	6	0	3	6	5	20	6	3	10	31	3	7	7	13	0	5	11	5	4	8	34	6	24	3	3	3	15	10	34	6	1	9	3	3	2	25	4	2	5	6	12
OTU 189	0	2	0	0	0	0	0	7	0	0	0	6	4	0	4	3	0	1	11	3	1	2	0	1	0	0	0	3	4	2	8	4	0	0	14	3	2	4	2	1	3	1	2	1	0	1	6	7	4	0
OTU 190	1	0	0	0	0	0	0	0	0	0	6	0	0	4	0	0	0	0	0	1	0	0	0	0	2	0	0	0	0	0	0	1	0	0	3	0	0	1	1	2	0	0	0	0	0	0	0	0	0	1
OTU 191	0	3	0	2	5	3	3	2	5	0	1	0	2	3	1	6	1	0	0	2	0	0	2	0	1	1	0	0	0	0	1	2	13	0	8	1	1	2	0	2	0	0	2	2	0	2	2	2	2	1
OTU 192	1	1	0	0	1	2	1	0	0	0	4	1	0	13	4	0	0	1	2	1	1	2	1	2	3	2	0	0	0	2	0	5	4	4	2	0	5	1	0	5	0	0	0	90	8	0	2	0	2	0
OTU 193	0	2	3	0	4	0	1	2	5	0	0	0	1	2	3	0	0	4	4	0	1	4	0	0	0	1	4	0	0	0	2	0	7	0	1	0	4	0	0	2	0	4	0	1	1	2	0	7	1	0
OTU 194	0	1	1	0	2	11	0	0	1	0	1	0	2	1	0	0	0	0	0	0	0	0	1	0	0	11	1	0	0	0	0	0	7	0	4	2	7	0	1	3	0	0	0	0	1	1	0	4	0	0
OTU 195	5	0	0	18	0	0	1	6	0	19	1	1	0	1	49	1	0	2	1	0	0	0	4	0	0	0	0	32	0	0	1	0	3	0	0	2	1	0	0	2	0	5	2	0	0	0	6	0	0	0
OTU 196	2	0	0	0	0	1	3	0	0	0	1	0	2	0	0	1	0	0	1	1	0	0	0	0	0	1	1	0	0	0	0	0	0	0	9	0	0	5	5	0	1	0	0	5	0	1	0	0	0	1
OTU 197	0	2	1	3	4	7	2	0	16	3	2	11	3	7	1	6	0	4	6	5	2	1	3	1	3	1	6	0	0	1	2	2	9	4	16	5	0	3	8	3	61	0	3	0	1	1	2	2	3	0
OTU 198	0	0	0	0	0	0	0	0	0	0	1	0	0	0	1	0	0	8	0	0	0	0	0	0	0	0	2	2	0	0	0	1	0	0	0	0	0	0	0	0	0	1	0	0	0	0	1	0	0	0
OTU 199	0	0	0	5	0	0	0	4	0	1	0	0	0	0	0	0	0	0	0	2	0	0	0	0	0	0	0	2	3	0	2	1	1	0	0	0	1	0	0	0	0	0	0	0	0	0	0	0	0	0
OTU 200	0	0	0	0	1	0	0	1	0	2	0	3	0	0	0	0	0	0	1	2	2	0	1	4	0	0	0	0	1	4	0	0	0	0	1	1	0	0	0	0	0	0	5	0	1	0	0	0	0	0
