	Host 1	Host 2	Host 3	Host 4	Host 5	Host 6	Host 7	Host 8	Host 9	Host 10	Host 11	Host 12	Host 13	Host 14	Host 15	Host 16	Host 17	Host 18	Host 19	Host 20	Host 21	Host 22	Host 23	Host 24	Host 25	Host 26	Host 27	Host 28	Host 29	Host 30	Host 31	Host 32	Host 33	Host 34	Host 35	Host 36	Host 37	Host 38	Host 39	Host 40	Host 41	Host 42	Host 43	Host 44	Host 45	Host 46	Host 47	Host 48	Host 49	Host 50	
OTU 1	75	130	205	88	59	17	5	150	51	172	5	64	173	19	230	5	355	285	14	6	97	77	57	42	0	151	2	0	21	87	28	63	32	49	2	4	0	79	48	100	601	19	12	97	54	0	112	2	101	0
OTU 2	30	2	36	0	4	33	8	3	0	0	11	3	1	0	6	3	0	0	5	31	11	10	0	7	7	0	0	0	3	0	0	16	1	0	27	9	0	0	28	1	0	0	0	50	24	0	13	0	0	7
OTU 3	0	15	11	3	3	5	1	1	27	0	26	0	3	0	15	2	0	4	2	63	25	1	12	30	0	0	14	4	6	0	0	5	0	0	0	0	16	0	1	8	1	9	0	1	2	38	32	0	1	30
OTU 4	9	0	0	1	0	0	0	0	0	0	0	0	0	0	0	0	0	0	0	1	0	0	0	0	0	0	0	0	7	0	0	0	0	0	0	0	0	0	0	0	0	0	0	0	0	0	0	0	0	0
OTU 5	73	101	33	79	294	118	196	689	9	351	406	736	158	1211	372	295	243	185	0	31	391	418	132	425	18	751	0	224	434	233	287	55	89	589	811	248	21	1	1350	683	634	148	661	2	290	124	867	34	0	69
OTU 6	4	124	12	0	15	158	10	12	35	0	101	9	63	2	17	7	7	2	36	8	52	75	27	42	0	15	100	30	139	0	22	59	7	17	0	4	1	8	0	9	42	1	1	0	41	50	11	234	36	42
OTU 7	51	34	101	185	18	160	5	43	60	1	123	66	71	37	34	31	7	24	52	10	10	38	89	12	97	13	195	49	9	0	14	308	90	86	51	3	11	38	100	131	39	14	17	10	7	763	759	1628	140	117
OTU 8	27	37	80	111	43	46	57	9	17	39	12	22	16	4	54	76	19	40	113	32	7	15	13	2	81	5	53	29	62	20	23	336	66	123	64	75	292	39	22	2	17	26	1	21	14	52	19	27	81	558
OTU 9	0	1	0	115	3	15	26	0	3	10	0	10	4	2	12	71	42	1	24	5	3	3	1	0	29	0	111	3	13	3	7	2	0	2	0	0	0	96	4	7	65	3	0	2	9	9	0	58	0	2
OTU 10	1	9	87	5	0	0	9	0	0	8	0	5	7	0	0	0	0	0	5	28	0	3	25	9	41	6	3	0	80	1	0	10	40	43	28	0	0	0	10	1	0	0	0	11	0	0	3	0	159	6
OTU 11	19	129	29	227	41	4	51	36	5	6	148	19	0	3	11	17	17	26	2	55	22	22	34	27	2	54	26	0	0	9	18	14	108	39	3	2	45	251	3	54	25	26	224	59	1	76	8	144	72	3160
OTU 12	71	18	93	20	7	16	30	32	12	6	38	4	93	0	30	6	16	2	11	73	40	44	14	10	60	76	75	1	13	2	18	76	49	69	49	18	260	2	34	8	0	6	0	39	13	2	76	38	182	10
OTU 13	2	27	0	0	0	0	0	0	1	0	0	0	0	0	0	0	0	0	0	0	0	0	0	0	0	0	1	0	0	0	0	0	0	1	0	2	0	0	0	0	3	0	0	0	0	0	0	0	6	8
OTU 14	0	4	14	1	0	0	0	23	1	0	5	70	19	33	22	21	2	0	2	1	6	0	10	4	3	0	67	3	2	0	0	0	178	13	28	3	30	9	0	114	5	1	19	0	10	163	33	208	36	2
OTU 15	0	0	2	0	0	0	0	0	0	0	0	0	1	1	0	0	0	1	0	0	0	0	0	0	0	0	0	0	1	0	0	0	0	0	2	1	19	0	0	0	0	0	0	65	2	0	0	0	0	0
OTU 16	0	0	0	0	0	0	0	0	0	0	0	0	0	2	0	0	0	0	6	0	0	0	0	1	0	0	0	0	0	0	0	0	0	0	0	1	0	0	0	0	0	2	0	0	2	0	0	0	0	0
OTU 17	0	0	7	12	2	68	0	134	1	196	5	38	16	15	101	4	414	521	3	5	10	20	30	3	12	2	23	5	47	81	2	3	10	37	1	10	0	0	1	34	749	52	9	4	1	19	3	24	61	4
OTU 18	20	33	1	23	115	44	46	88	42	6	89	31	17	21	62	43	36	2	9	30	7	10	0	54	71	8	136	94	202	4	0	29	48	24	11	80	138	110	14	77	44	24	12	38	6	34	55	24	58	58
OTU 19	0	0	0	0	0	0	20	0	0	0	0	0	0	0	0	0	0	0	0	0	0	0	0	0	0	0	0	1	0	0	0	0	0	0	0	0	0	0	0	0	0	0	0	0	0	0	0	0	0	0
OTU 20	39	1219	356	32	9	7	4	14	86	0	13	4	15	8	14	31	26	2	1	233	92	98	170	14	134	678	8	2	4	8	12	8	30	48	25	16	32	26	4	34	26	1	6	247	32	590	15	845	90	16
OTU 21	10	72	6	91	1	0	147	0	2	2	125	26	2	17	1	29	7	5	17	30	5	4	40	5	14	7	1	7	38	2	51	26	65	31	43	91	116	114	6	89	10	10	12	17	5	36	36	1	42	103
OTU 22	56	85	55	4	3	3	5	39	53	63	65	48	1	27	93	44	2	58	1	10	15	46	0	13	377	46	83	0	21	37	3	16	6	22	24	1	1	107	13	110	12	0	11	4	5	6	40	5	28	82
OTU 23	0	91	0	0	1	39	14	0	4	0	8	12	58	5	29	22	4	25	7	0	67	77	0	28	0	0	0	4	2	1	4	3	52	55	50	10	3	4	1	12	13	8	2	4	73	0	1	0	138	69
OTU 24	0	12	3	4	0	0	0	0	40	21	0	0	10	0	0	17	0	21	0	4	0	5	1	0	0	23	27	0	0	15	0	1	1	69	40	125	9	184	0	1	4	0	0	14	1	17	9	40	135	0
OTU 25	0	0	0	0	0	0	0	4	0	0	0	1	0	0	0	0	0	0	0	0	1	0	0	16	0	0	0	0	0	0	0	0	0	0	4	0	0	0	0	0	0	1	0	0	0	0	0	0	0	0
OTU 26	11	0	85	0	4	18	4	1	0	0	0	2	14	0	1	20	0	0	1	0	0	0	6	32	4	2	1	0	0	0	0	0	0	0	1	12	37	50	11	0	0	5	0	43	0	3	0	0	0	2
OTU 27	0	5	0	0	0	0	0	0	0	0	0	0	35	0	52	0	0	0	0	0	0	0	0	24	0	0	0	15	0	0	7	0	0	0	0	0	0	0	0	0	0	80	0	0	0	0	0	0	0	0
OTU 28	164	27	51	0	50	15	30	2	120	19	17	30	6	20	422	43	3	4	1	65	1418	74	73	205	27	2	63	11	75	13	21	6	195	32	62	0	60	7	78	74	4	47	8	106	12	29	19	9	61	103
OTU 29	211	6	0	57	6	3	1	13	88	27	5	20	4	40	7	68	10	10	22	9	51	5	8	3	55	16	52	12	82	20	10	30	76	0	96	66	1931	36	83	4	5	4	15	7	14	59	59	49	9	38
OTU 30	0	0	0	0	0	0	0	0	0	0	0	0	0	0	0	0	0	0	0	4	0	0	0	0	0	0	0	0	0	0	0	0	0	0	0	0	0	0	0	0	5	0	0	0	0	0	0	0	0	0
OTU 31	0	0	50	9	10	0	0	46	150	0	15	4	0	13	0	0	5	0	0	18	1	7	25	41	59	0	13	2	0	0	0	5	4	21	11	20	0	0	21	0	14	28	9	2	19	14	22	0	73	0
OTU 32	27	20	10	48	1829	74	4	27	14	17	115	123	84	39	55	34	38	9	67	760	28	19	45	3755	29	8	57	117	15	4	43	11	16	12	41	39	39	128	20	98	64	1650	16	139	54	90	76	3	21	259
OTU 33	0	0	6	0	0	0	0	0	0	0	1	0	0	0	0	0	0	6	0	0	0	1	0	0	0	0	0	0	0	0	0	0	0	0	0	0	0	16	0	2	0	0	0	0	0	0	0	0	3	5
OTU 34	88	9	40	0	7	3	36	18	1	22	234	3	16	2	25	9	12	83	16	15	60	2	39	3	49	6	5	3	137	6	4	8	13	3	75	886	28	11	39	1	2	7	0	8	51	0	0	91	3	20
OTU 35	53	4	18	0	3	2	24	5	127	0	41	0	25	5	59	2	4	10	13	0	23	15	49	1	85	3251	22	125	50	0	77	119	30	21	69	27	110	5	5	6	8	0	2	8	5	8	2	71	41	0
OTU 36	25	153	5	3	34	5	2	31	3	1	2	48	8	22	4	1	3	3	21	0	57	7	12	7	124	11	9	47	3	0	1	0	110	13	7	83	127	4	12	50	10	0	10	151	20	6	13	8	40	0
OTU 37	0	28	2	2	3	1	0	1	1	0	18	0	9	0	11	0	7	0	19	1	8	48	1	0	0	11	0	5	0	0	0	63	18	0	3	2	0	2	0	0	16	0	0	0	6	11	226	10	0	0
OTU 38	2	62	132	64	0	127	0	34	36	31	11	11	2	0	15	0	2	60	0	2	9	12	27	19	25	0	5	0	13	9	12	37	169	87	67	338	51	87	1	15	0	4	0	31	9	16	21	5	131	2
OTU 39	0	22	8	11	0	0	2	0	1	0	13	0	29	1	1	0	4	0	0	0	0	0	0	0	5	2	15	4	5	0	2	9	0	7	1	0	2	1	0	0	0	19	1	31	0	5	24	2	3	0
OTU 40	255	32	22	12	1526	118	51	8	3	19	0	44	3	1813	3	43	2	2	36	40	7	28	2	47	33	0	6	235	0	3	33	6	53	9	14	26	3	43	46	86	1	14	918	24	39	11	5	83	36	17
OTU 41	10	1	4	26	0	22	0	8	15	0	60	22	1	27	27	1	12	0	0	29	18	9	1	1	2	10	20	0	25	1	15	3	16	2	10	23	2	71	12	11	3	7	8	43	10	0	6	14	8	27
OTU 42	29	0	148	2	0	0	0	0	3	1	0	0	0	0	5	29	0	1	6	38	0	1	0	17	1	0	64	13	0	0	0	5	0	0	0	0	0	0	2	8	0	29	0	0	0	0	0	41	8	1
OTU 43	0	0	0	0	0	0	0	0	0	0	0	2	0	0	0	0	0	0	0	0	0	0	0	7	6	0	123	0	0	0	17	0	0	0	0	0	0	0	9	0	0	5	0	1	0	0	0	0	1	0
OTU 44	7	32	0	0	0	89	10	0	0	0	104	0	11	0	21	0	5	0	1	1	0	16	22	0	1	1	0	1	0	0	30	0	0	0	0	6	0	0	0	5	28	0	0	0	33	21	13	40	0	5
OTU 45	542	18	71	4	620	28	20	15	82	14	16	0	597	25	1285	2	7	4	120	14	19	2	126	527	4	5	37	2	3	9	269	60	104	17	34	84	28	35	302	25	12	315	17	44	49	26	44	59	8	28
OTU 46	31	66	27	757	12	5	6	116	16	7	163	2	1	9	5	116	3	19	2	15	22	343	0	32	27	60	58	87	71	6	2884	1	5	44	0	1491	3	8	147	3	5	285	2	1	171	4	50	7	83	1
OTU 47	75	25	0	1	3	0	16	0	0	0	68	7	34	0	0	122	0	0	0	0	0	0	4	0	0	0	186	0	0	0	35	0	106	0	0	0	1	0	1	0	0	0	0	0	0	57	3	45	0	0
OTU 48	2	206	47	2318	32	131	2361	13	21	8	30	18	8	24	40	62	0	10	6	4	80	7	4	98	54	87	91	86	52	7	9	69	0	2	72	41	4	108	44	76	13	45	12	141	67	48	13	40	9	16
OTU 49	62	0	0	14	9	6	2	0	4	0	1	354	34	1837	1	0	1	16	28	19	33	3	3	49	139	25	9	44	17	0	7	2	3	0	48	23	27	21	72	719	4	36	912	9	6	108	276	5	2	96
OTU 50	26	3	3	29	5	28	7	9	14	1	22	60	16	69	29	21	14	8	5	14	19	16	9	65	40	14	8	15	13	5	40	16	30	184	89	0	27	32	94	104	17	36	30	44	28	32	102	45	221	17
OTU 51	0	6	2	43	6	5	0	12	45	10	77	34	2	0	6	188	10	12	6	153	28	24	3	6	60	5	150	6	58	3	1	148	9	9	0	1270	140	89	1	19	39	0	0	10	25	3	75	5	36	26
OTU 52	29	86	127	338	48	5	167	16	40	288	496	33	20	2	100	138	12	28	16	6	12	87	30	98	96	134	138	102	104	184	11	247	64	3027	654	289	180	850	2	64	49	43	0	48	107	118	41	196	56	1
OTU 53	0	0	0	0	0	0	0	0	0	0	0	6	0	0	0	22	0	0	0	0	0	0	0	0	3	18	37	0	0	0	0	0	0	0	0	0	0	0	0	16	0	0	0	0	0	0	0	0	0	1
OTU 54	196	66	227	21	14	3297	42	21	92	479	37	17	1143	7	28	37	31	17	130	9	27	52	7	45	108	53	24	41	29	2228	816	16	28	19	11	10	14	95	190	57	29	23	2	74	43	2	31	60	54	53
OTU 55	28	0	0	0	0	0	0	0	0	0	4	0	6	0	0	0	0	7	0	0	0	0	0	0	0	0	0	0	0	0	0	0	0	0	0	0	2	0	36	0	0	0	0	0	0	0	0	0	0	0
OTU 56	12	0	1	0	3	12	0	0	9	11	4	0	0	0	17	0	0	0	0	65	0	1	88	0	4	0	12	0	0	5	8	55	34	0	24	11	2	168	7	4	1	0	0	0	24	13	1	0	0	23
OTU 57	44	86	88	29	54	20	1	447	13	100	26	65	64	20	72	238	298	121	90	116	105	267	66	136	14	21	224	1092	650	78	59	117	169	145	14	30	188	144	14	45	482	56	934	208	117	157	11	308	267	10
OTU 58	5	0	75	1	5	460	2	8	0	0	55	20	6	4	117	6	52	0	26	5	0	7	1	8	0	0	0	0	38	0	0	44	2	3	49	0	1	3	7	96	106	30	2	30	11	5	233	10	8	0
OTU 59	13	31	8	55	71	3	0	99	0	81	1	1	8	2	34	4	131	266	0	34	34	39	0	60	19	31	0	19	0	32	7	0	3	0	41	13	42	11	7	0	362	49	0	1	25	29	7	20	0	16
OTU 60	24	18	16	77	30	13	11	56	26	22	9	54	33	11	33	0	30	44	15	211	14	216	13	40	41	16	33	0	17	12	4	19	91	58	3	8	0	63	13	57	102	25	4	7	32	61	66	34	111	28
OTU 61	69	75	16	190	18	59	7	5	37	24	70	64	75	8	211	31	90	58	2046	119	47	1	40	71	13	74	87	83	84	5	41	10	101	15	47	52	74	256	5	72	117	0	6	102	5	4	85	61	34	42
OTU 62	0	13	10	0	1	2	0	0	19	0	0	0	64	0	0	163	6	0	0	10	0	189	4	0	7	34	34	883	15	1	4	5	0	0	0	0	1	0	0	0	7	0	0	0	48	40	0	13	0	14
OTU 63	36	118	1	0	7	6	6	126	27	1	11	0	8	0	11	4	1	1	48	4	1	0	3564	0	3	23	2	2	2	1	0	2	191	62	18	0	4	18	0	2	0	24	0	59	0	16	5	14	126	15
OTU 64	73	15	46	48	30	2	490	65	53	0	19	98	60	36	128	191	5	21	25	15	15	111	43	80	33	36	377	16	36	0	24	49	296	3	109	38	113	142	40	146	14	44	21	16	6	7	332	1	21	390
OTU 65	0	0	0	1	0	0	0	0	0	2	1	0	25	0	0	86	0	0	0	3	0	0	0	0	2	1	77	0	0	0	0	0	12	1	0	0	0	0	0	0	0	0	0	0	0	0	0	17	0	6
OTU 66	10	14	27	29	32	0	9	31	2077	0	8	102	18	9	79	0	1	8	2	16	7	19	1264	25	16	5	7	40	51	1	6	14	9	1	24	15	6	26	46	103	6	51	5	35	0	1	1	26	8	16
OTU 67	2	85	129	102	4	29	11	1	23	5	0	40	0	18	3	91	0	1	8	19	41	7	0	3	4	5	223	1	22	1	85	88	9	70	0	10	67	0	1	59	6	31	14	51	0	3	53	13	123	5
OTU 68	5	11	36	2	0	38	11	35	9	376	0	0	0	0	15	0	434	933	9	7	1	10	4	29	0	0	0	31	0	178	0	23	2	26	0	10	0	0	1	12	1061	0	0	9	0	11	0	0	44	6
OTU 69	9	10	77	527	14	32	0	25	26	2	110	92	4	64	3	26	1	3	3	85	3	22	0	23	20	18	33	12	16	2	24	254	0	66	380	211	39	596	8	266	22	0	37	27	43	28	111	43	96	14
OTU 70	9	0	1	41	13	0	4	240	20	85	0	22	11	22	57	6	25	47	13	8	2	171	0	44	2	1	149	130	191	39	1	9	4	1	62	29	28	194	25	71	18	17	12	1	87	0	0	10	0	11
OTU 71	16	15	4	1	890	114	47	0	40	6	0	136	2	104	0	0	42	1	59	62	19	23	0	11	0	0	5	1890	0	10	0	9	0	14	0	6	1	68	0	184	36	4	52	0	0	0	24	33	23	20
OTU 72	153	24	13	23	24	3	3	18	19	14	0	5	19	9	19	6	0	34	1	33	3	6	28	7	156	16	51	79	8	34	9	11	90	0	113	0	35	42	78	9	9	26	7	0	2	61	34	107	2	12
OTU 73	2	85	3	33	0	19	2	233	13	19	11	9	38	7	27	0	8	32	28	114	2	21	2	0	50	28	25	4	2	7	12	127	56	40	48	52	633	1	8	0	33	20	0	7	0	4	2	49	58	33
OTU 74	110	138	26	52	6	68	8	2	9	19	17	91	45	42	0	30	52	92	2	97	23	5	9	1	215	109	0	30	2	15	30	20	85	5	20	17	1	12	26	58	63	13	30	27	25	96	47	194	31	0
OTU 75	46	1	3	3	15	24	71	464	9	135	42	143	11	57	7	26	238	212	7	5	489	647	4	76	0	6	34	224	493	97	16	74	17	27	43	33	24	34	12	178	583	0	26	1	286	10	14	15	25	3
OTU 76	28	31	0	5	0	0	1	38	0	0	31	0	0	0	0	0	0	22	4	168	1	34	0	0	0	0	0	0	12	2	3	11	0	0	1	0	0	1	0	0	0	1	0	105	1	0	9	7	0	4
OTU 77	59	13	144	1	0	0	1029	81	8	50	89	4	13	6	23	18	14	105	4	0	35	52	58	3	64	2	9	0	60	98	6	31	4	36	118	65	66	0	26	17	24	2752	4	0	2	25	71	37	104	62
OTU 78	66	368	152	24	111	10	102	57	0	1	230	5	81	1	68	182	4	41	36	89	88	36	117	29	2	138	241	100	270	2	45	55	99	17	14	30	25	66	67	9	8	3	1	45	59	161	122	168	3	23
OTU 79	158	106	16	69	80	107	7	119	51	2032	132	79	182	68	209	56	95	4059	161	46	111	176	13	307	117	68	97	65	27	1048	61	88	29	188	68	35	189	17	988	205	175	84	32	112	97	1458	49	125	447	70
OTU 80	46	54	2	0	11	10	2	3	20	88	37	86	3288	19	6	27	15	72	18	6	43	124	96	2	272	41	6	103	4	44	1469	3	33	3	43	3	85	18	42	157	28	8	9	167	119	10	30	6	16	29
OTU 81	19	3	43	59	5	24	164	8	14	1463	57	44	9	16	12	41	2	0	116	27	45	53	51	15	65	2	8	6	5	741	640	236	18	39	130	48	70	38	749	105	9	18	7	19	3	50	41	44	125	104
OTU 82	37	4	54	62	64	18	2	98	4	2	71	7	0	0	51	141	7	20	10	48	0	13	0	31	9	6	239	0	10	0	21	0	9	389	35	2	2	245	48	1	28	24	0	1	0	8	10	26	38	112
OTU 83	26	0	18	1	0	4	34	0	1	0	0	0	16	0	0	0	0	28	4	0	11	70	0	0	12	13	1	0	10	0	11	0	92	18	0	3	11	0	0	0	0	0	0	0	96	13	0	91	55	0
OTU 84	0	7	114	85	38	41	29	67	88	2	122	13	122	7	55	0	0	0	61	18	1	1	1	206	10	8	9	0	2	0	162	20	17	53	2	14	13	140	5	33	1	58	3	3	0	13	44	33	124	19
OTU 85	2	5	0	0	17	0	16	7	7	0	0	8	0	17	4	12	22	0	0	37	0	0	0	0	3	1	27	30	0	0	1	0	0	0	0	19	2	0	6	72	55	0	6	0	0	0	40	1	9	70
OTU 86	0	0	0	0	0	40	1	0	0	0	4	0	1	0	7	2	0	1	0	0	0	1	0	0	0	0	0	0	0	0	0	0	0	0	0	1	0	0	0	0	1	0	0	0	0	10	0	0	0	1
OTU 87	51	14	0	20	0	1	0	68	1	7	22	0	0	0	2	2	2	3	0	2	0	0	1	1	1	3	1	0	0	6	0	5	4	0	8	1	0	28	0	0	0	2	0	12	8	2010	1	4	3	106
OTU 88	0	0	0	1	0	10	3	0	0	11	46	0	1	2	17	0	0	0	1	0	14	1	0	0	0	0	3	0	77	4	0	0	0	10	0	36	5	4	0	0	0	0	0	3	0	0	14	32	24	2
OTU 89	911	7	10	1	14	0	0	0	12	1	16	0	22	1	0	7	40	8	394	0	0	5	0	3	27	27	96	0	0	1	7	145	0	10	9	2	1	0	685	0	78	0	0	17	20	0	40	1	5	20
OTU 90	1	0	0	1	4	16	1	0	0	0	0	0	0	5	0	0	0	0	0	15	0	0	0	0	0	0	0	0	11	0	2	12	0	1	0	0	13	0	0	0	1	0	1	1	1	9	0	0	0	0
OTU 91	0	0	0	1	0	0	0	0	1	0	0	0	0	0	0	12	1	0	23	0	0	0	1	0	0	0	0	0	0	0	0	1	0	0	0	3	0	0	7	0	18	1	0	0	0	0	0	0	0	1
OTU 92	2	59	6	3	9	0	18	1	0	0	5	2	114	6	0	0	34	0	0	0	0	34	1	0	0	43	0	9	0	0	0	2	0	1	1	15	1	0	0	0	86	2	2	10	0	0	17	0	0	0
OTU 93	0	0	0	0	0	0	15	69	2	2	0	1	1	0	0	0	0	0	0	135	0	2	0	1	2	0	0	0	19	0	0	0	68	6	0	0	0	0	0	1	0	0	0	1	0	0	0	0	1	0
OTU 94	59	36	68	92	29	217	20	41	15	0	55	201	26	139	1	134	18	5	25	115	87	67	4	4	55	52	21	38	16	4	2	73	16	55	0	21	5	107	12	167	78	13	71	51	24	61	73	81	193	0
OTU 95	0	18	5	0	58	0	53	1785	0	8	0	4	1	0	29	23	0	26	16	0	1	28	0	9	0	8	0	0	2	0	0	0	7	8	0	1	23	16	6	3	1	3	0	2	0	0	1	0	0	5
OTU 96	0	21	2	0	0	0	0	0	0	0	0	0	0	0	0	0	11	0	0	5	0	0	0	0	0	0	0	0	0	0	0	0	63	0	22	0	0	0	0	0	72	0	0	0	0	1	2	0	5	0
OTU 97	17	1	19	0	1	0	0	0	0	0	0	6	0	0	0	0	0	2	3	0	11	0	0	0	0	0	0	0	0	0	0	14	0	0	8	3	251	0	0	0	0	0	0	0	0	1	0	0	0	10
OTU 98	41	0	25	0	1	5	100	0	9	3	0	9	0	6	6	0	0	6	6	1	0	0	0	0	14	4	8	43	5	3	0	265	8	9	59	2	2	1	13	1	7	0	4	6	0	18	0	6	4	0
OTU 99	0	45	2	5	11	38	33	5	31	5	0	8	43	5	133	10	28	15	5	50	39	20	36	11	69	38	6	44	28	10	6	251	92	30	28	15	37	107	1327	69	44	0	1	33	40	7	17	23	113	23
OTU 100	15	27	40	7	1	67	6	86	1	16	12	2	39	0	0	40	52	21	1	36	2	5	1	2	1	30	8	21	118	1	1	17	38	33	6	67	59	4	0	8	82	0	0	10	25	0	27	10	61	10
OTU 101	30	0	0	0	0	0	0	3	0	0	0	24	5	0	0	0	8	0	0	0	0	0	0	0	0	0	0	0	0	0	0	0	2	0	1	0	0	0	7	6	1	2	0	0	0	0	0	2	5	10
OTU 102	1	14	9	3	36	9	20	3	0	0	4	0	17	16	0	0	14	4	0	18	4	0	2	3	1	0	0	8	107	0	69	7	13	0	0	0	2	1	0	55	38	19	3	2	0	0	14	47	3	0
OTU 103	1	7	6	19	0	1	4	10	6	1	0	0	26	0	45	3	0	1	42	4	4	29	11	1	11	6	20	50	33	0	32	157	3	8	1	19	6	84	2	0	2	6	0	81	6	0	24	0	44	44
OTU 104	39	131	50	12	50	45	272	58	8	17	45	64	46	56	122	10	9	35	15	9	8	6	11	75	137	156	12	116	52	25	50	87	11	26	47	983	15	85	6	168	0	110	27	68	12	23	627	32	51	8
OTU 105	0	0	36	0	0	0	0	0	0	8	99	94	2	17	0	0	11	35	70	0	14	1	0	3	13	138	0	7	0	12	2	81	2	0	6	0	0	0	0	52	34	0	7	1	22	0	0	0	1	7
OTU 106	3	0	7	0	0	10	2	0	0	0	0	1	6	1	0	2	4	7	0	0	3	0	1	0	5	15	11	0	0	0	0	33	212	16	0	0	0	12	2	2	0	0	0	3	0	0	0	1	18	2
OTU 107	1	5	410	10	9	14	35	40	244	4	0	0	7	2	2	0	28	3	1	187	28	58	139	69	36	8	18	27	4	1	2	58	4	0	0	0	0	5	30	2	58	0	2	341	47	1	0	39	2	17
OTU 108	2	301	8	232	0	17	32	18	0	1	1	44	0	24	39	135	4	10	3	14	0	3	4	38	62	149	37	57	38	2	0	10	81	36	84	57	0	96	71	60	2	0	18	143	8	26	41	30	52	9
OTU 109	0	1	0	0	0	0	0	0	0	0	0	0	0	0	6	0	0	0	0	0	0	15	0	0	0	0	0	4	0	0	0	0	6	0	0	76	0	9	2	0	0	0	0	0	0	0	0	0	0	0
OTU 110	14	113	49	17	8	16	4	78	4	20	17	10	62	1	74	35	37	43	0	3	144	101	0	24	9	33	2	67	7	16	16	24	8	11	18	19	3	3	16	11	77	78	2	60	74	25	15	196	28	36
OTU 111	0	22	82	2	0	0	1	0	4	0	0	0	0	0	0	0	0	0	1	0	1	0	15	0	2	21	0	0	7	0	0	26	0	0	0	0	0	6	1	9	0	2	0	1	16	0	0	0	0	0
OTU 112	4	60	21	16	0	75	11	106	3	6	5	0	1	0	2	3	6	37	0	0	22	33	0	0	0	31	44	0	70	4	26	13	0	142	81	1	23	51	98	5	7	3	0	58	19	0	7	1	180	4
OTU 113	0	0	0	26	6	5	21	5	0	0	0	0	0	0	3	0	0	0	1	0	58	7	0	0	20	0	2	1	2	0	0	0	16	6	1	0	0	1	0	0	1	0	0	0	5	1	6	5	1	0
OTU 114	28	13	25	60	6	54	10	40	1316	31	23	1	37	3	34	72	141	54	42	33	62	63	688	14	125	44	211	16	122	14	26	11	9	18	43	18	2	93	1	22	69	12	3	15	4	102	7	171	55	63
OTU 115	116	354	172	74	7	80	23	97	29	23	65	18	21	43	125	45	21	57	6	32	51	8	25	30	17	129	13	6	63	1970	45	148	256	85	12	238	59	50	76	58	84	6	3757	63	11	61	256	92	162	49
OTU 116	115	10	30	80	2	6	278	0	0	2193	34	1	59	0	29	24	31	19	2525	12	7	12	31	49	161	0	69	1	31	1042	3	51	302	22	22	2	169	93	33	0	32	17	0	167	18	2	20	18	60	11
OTU 117	0	8	115	10	1	49	5	52	5	5	3	1	52	10	79	26	12	7	4	20	13	1	8	1	51	0	115	27	16	2	2	2	2	49	0	15	1	21	11	3	5	33	5	31	9	48	17	29	32	1
OTU 118	0	1	2	2	6	0	5	0	2	2	0	0	0	0	0	10	1	1	2	0	27	2	16	1	0	0	8	10	0	1	0	0	10	1	12	0	0	176	0	1	0	5	0	28	0	3	0	12	2	2
OTU 119	57	6	20	22	60	3	0	21	16	11	0	21	23	8	52	1	5	3	31	11	11	4	7	25	257	27	14	114	0	1	15	120	44	11	61	47	78	30	3	41	17	25	1	54	52	8	23	43	13	42
OTU 120	30	29	0	0	0	18	8	0	3	223	1	0	58	1	0	10	4	234	0	6	0	0	40	0	67	6	5	35	0	81	32	1	62	0	0	0	168	0	1	11	25	0	0	1	1	3	3	8	1	21
OTU 121	1843	6	45	70	32	15	7	0	72	2	225	41	2	2	178	3	1	9	9	4	1	0	1	175	1	6	106	43	9	3	0	3	35	1	1082	19	4	17	894	70	0	60	1	1	2	21	3	4	5	34
OTU 122	15	2	59	86	3	28	31	4	18	4	73	55	59	41	68	9	2	11	1	121	50	65	83	7	15	12	3	26	13	5	32	19	15	4	68	63	12	249	47	150	0	12	20	14	0	21	97	9	17	108
OTU 123	127	1251	699	223	1608	111	82	64	638	17	69	36	131	5	47	386	34	26	79	2201	23	46	208	119	80	719	274	155	954	12	68	158	1475	162	62	195	141	331	63	57	47	102	1	2109	39	336	131	745	271	156
OTU 124	1	2	0	4	9	15	3	0	0	0	1	0	0	0	130	0	3	0	5	5	49	12	0	43	10	0	2	29	0	0	0	1	221	21	0	0	15	4	9	1	0	14	0	0	9	0	94	13	109	46
OTU 125	519	319	78	88	53	49	274	135	91	4	155	93	135	386	529	135	46	22	160	133	70	115	70	72	378	115	146	167	45	5	125	924	196	88	190	84	129	177	187	53	100	16	211	41	35	70	67	183	118	91
OTU 126	28	129	0	0	10	0	0	143	2	24	0	0	2	0	171	75	47	144	9	4	91	281	0	84	19	36	30	0	25	22	1	0	0	0	0	0	0	0	0	2	51	111	0	2	89	0	0	0	0	3
OTU 127	22	74	133	43	0	0	41	41	45	3	5	24	31	7	37	2	1	2	4	1	0	23	0	59	156	54	81	10	25	4	76	690	0	15	2	9	0	2	1	59	2	1	3	11	0	0	13	2	36	361
OTU 128	61	628	264	132	100	132	23	176	33	76	187	62	60	41	82	298	126	60	32	77	392	1005	81	54	198	295	529	136	58	47	145	99	814	33	1454	70	297	200	39	58	281	25	26	83	762	38	107	43	60	141
OTU 129	0	0	29	2	0	1	0	560	0	0	3	3472	0	1701	0	0	0	2	0	3	0	9	18	2	24	4	23	0	0	0	4	6	1	0	8	22	118	0	0	0	0	0	867	1	0	0	29	3	0	5
OTU 130	18	7	19	41	0	7	8	10	0	0	0	204	25	80	67	20	0	0	11	23	1092	1575	0	12	24	3	5	2	18	3	2	42	25	12	1	91	23	113	9	570	0	0	31	67	4664	2	230	24	27	41
OTU 131	40	11	85	6	5	204	22	0	45	3	13	36	80	44	16	28	12	4	6	11	0	29	33	46	1996	20	1	0	1	3	11	21	25	13	4	99	13	17	35	97	48	0	20	9	14	4	480	218	91	8
OTU 132	0	97	2	11	52	0	1	0	0	2	2	6	1	4	16	5	1	27	12	0	8	3	0	33	12	86	8	6	7	6	6	6	0	9	51	0	0	19	7	30	12	4	3	1	2	9	0	28	11	0
OTU 133	117	0	0	0	5	20	0	0	1	4	2	9	3	0	20	0	0	0	0	0	0	1	0	2	0	0	19	0	0	3	0	7	8	0	0	0	0	0	31	0	0	0	0	9	0	2	1	0	1	0
OTU 134	0	36	3	0	6	109	14	20	4	1	22	172	2	145	18	26	49	0	6	4	0	26	9	2	79	9	71	85	50	0	8	34	26	4	25	2	0	24	0	75	36	17	69	10	3	7	3	6	5	47
OTU 135	19	14	2	12	1	7	2	8	15	15	2	38	0	3	1	24	9	34	6	27	12	7	3	20	12	45	0	73	1	4	6	39	7	1	150	8	55	29	25	71	1	12	2	44	0	23	93	24	0	120
OTU 136	1	41	9	10	63	0	20	13	0	0	10	10	36	1	1	8	4907	0	10	24	20	21	0	5	82	53	42	1	24	0	9	175	15	17	71	2	43	41	13	2	0	0	0	9	7	3	3	2	7	2
OTU 137	0	1	10	0	3	70	29	7	0	8	21	0	363	0	74	20	1	17	5	0	7	1	2	1	41	0	36	0	74	7	84	451	13	0	2	4	0	21	14	0	16	0	0	5	0	54	0	37	0	120
OTU 138	51	10	7	8	0	2	0	0	0	0	9	2	15	2	0	0	33	0	1	0	9	0	2	6	4	2	1	10	0	0	0	1	27	13	133	1	2	1	0	1	51	0	1	0	0	1	88	20	1	5
OTU 139	424	56	910	45	194	557	3	248	405	61	39	34	101	2	1241	194	57	114	1459	555	0	55	355	458	106	9	521	273	204	33	145	63	40	288	51	36	74	51	126	27	228	1805	1	1077	24	7	193	80	526	18
OTU 140	54	166	154	54	135	9	9	52	73	4	163	16	25	0	146	27	20	11	83	60	37	84	84	197	237	68	78	66	45	3	26	45	135	16	46	30	410	24	17	35	50	175	0	88	29	23	77	54	44	25
OTU 141	0	0	0	0	0	0	0	0	0	0	2	0	0	0	0	0	1	0	0	0	0	0	0	0	0	0	0	0	0	0	0	0	0	0	0	0	0	0	0	0	29	0	0	0	0	8	0	0	10	0
OTU 142	0	0	24	0	0	0	0	0	0	0	0	0	0	0	3	0	0	0	0	0	0	0	0	0	63	0	0	0	0	0	0	0	0	7	1	0	0	0	0	23	4	0	0	0	0	0	0	0	1	0
OTU 143	7	3	0	0	0	0	10	0	0	13	0	1	0	0	5	0	35	42	0	0	3	8	0	0	0	0	2	0	2	9	7	18	8	7	0	0	16	8	8	0	79	4	0	26	0	35	55	19	18	86
OTU 144	11	16	0	0	0	2	0	0	4	1	0	1	0	0	0	0	2	0	16	2	0	1	8	2	1	0	1	30	35	737	0	68	13	14	0	1	2	0	0	4	0	0	0	1	0	3	3	0	37	0
OTU 145	43	46	0	30	0	274	5	30	44	15	17	1	26	7	12	0	19	4	121	85	24	93	17	8	58	14	14	22	55	1	28	21	3	28	74	36	50	58	28	20	7	16	3	3	52	2	53	55	52	50
OTU 146	3	0	15	35	17	17	48	3	36	56	8	30	18	46	51	4	19	3	31	0	0	70	1	1	91	21	27	101	114	41	8	6	14	27	3	10	11	11	17	55	43	17	21	2	46	14	343	2	71	13
OTU 147	0	40	13	0	12	19	19	13	0	27	111	32	1	4	1	1	19	20	6	0	0	0	28	0	2	0	17	30	1	12	4	5	138	1	2	0	4	20	0	17	20	0	2	3	7	5	0	1	0	12
OTU 148	2	38	7	62	29	20	3	9	19	10	0	232	0	87	117	9	13	27	29	65	62	52	11	85	23	38	6	17	12	6	8	34	58	35	18	0	19	185	2	373	52	41	38	0	17	67	195	165	74	0
OTU 149	4	40	11	0	2	0	0	22	12	12	0	9	4	9	10	2	12	8	35	0	8	4	0	30	37	15	1	6	1780	2	44	1	0	1	68	10	11	20	0	11	26	41	2	23	1	0	0	0	1	0
OTU 150	9	3	0	28	0	1	61	73	7	0	6	0	8	2	1	61	0	14	1	3	0	0	10	11	0	3	11	22	0	1	17	0	25	0	37	0	8	64	24	0	2	0	1	0	1	26	0	10	0	4
OTU 151	0	0	1	4	48	30	3	12	10	0	21	0	0	0	21	0	0	6	0	0	17	2	1	3	0	0	2	14	27	0	6	1	281	2	0	56	2	41	5	8	1	2	0	79	0	2	19	0	3	66
OTU 152	96	14	133	0	140	6	7	137	16	34	37	1	19	0	49	117	53	52	123	45	8	4	3	109	1	20	337	7	2	14	51	0	5	25	110	0	6	11	27	0	121	27	0	4	8	26	25	23	36	0
OTU 153	0	0	0	0	3	0	1	0	0	4	35	0	0	0	1	0	0	0	0	0	0	0	0	0	0	0	7	4	9	0	3	0	0	0	0	0	0	0	0	0	0	0	0	0	1	0	1	4	3	0
OTU 154	0	1	0	876	91	0	2	1	0	8	0	0	0	0	0	0	27	0	28	0	6	0	6	4	0	0	0	0	0	0	0	1	10	114	0	0	3	0	0	1	13	14	0	0	0	1	0	9	222	0
OTU 155	0	13	146	31	0	6	119	14	1	1	80	23	1	8	0	6	9	1	6	10	3	0	0	2	22	20	1	6	0	1	39	0	0	1	58	0	0	343	10	20	19	0	2	17	0	1	1	0	1	2
OTU 156	31	21	3	10	4	7	1	65	36	17	141	19	15	4	5	62	10	42	60	196	8	26	74	3	22	21	15	3	23	18	15	42	163	54	26	121	26	101	45	43	24	7	3	30	64	2	10	28	78	7
OTU 157	38	13	4	1	12	25	0	0	0	11	31	1	90	0	76	1	1	44	3	0	1	0	48	56	53	0	1	0	0	3	24	3	0	197	143	0	1	0	23	1	21	9	0	0	58	23	0	69	408	82
OTU 158	0	0	0	0	0	0	0	2	0	0	26	1	1	0	0	2	0	0	0	0	0	3	0	0	0	0	0	0	0	0	0	0	0	0	0	0	0	0	0	0	0	0	0	0	0	0	0	0	0	0
OTU 159	17	5	44	0	2	11	55	24	14	0	1	1	18	13	0	855	3	0	4	8	5	76	15	35	101	0	21	6	19	0	41	12	110	0	99	6	18	7	0	0	20	15	8	8	66	1	1	3	8	36
OTU 160	145	303	8	213	35	21	100	9	80	21	293	11	166	4	85	74	29	56	18	107	54	98	88	122	382	196	68	0	26	6	58	583	162	23	123	166	68	110	78	40	75	74	0	77	39	32	104	142	43	153
OTU 161	32	28	1	5	17	15	2	72	2	21	41	70	42	15	9	39	115	32	0	45	2431	53	3	0	63	10	27	52	15	21	6	3	22	0	271	1	9	71	33	99	63	0	15	50	16	4	4	0	5	3
OTU 162	8	0	19	6	4	40	5	65	31	52	22	1	52	7	59	17	98	110	13	48	0	30	4	27	45	3	32	58	231	23	7	1	58	5	22	14	26	45	31	0	211	78	1	39	31	4	0	3	30	53
OTU 163	5	0	0	0	0	0	0	0	0	0	0	0	0	0	0	0	0	0	0	3	0	0	0	0	0	0	0	0	0	0	0	0	0	0	0	0	0	0	0	0	0	0	0	0	1	0	0	0	0	0
OTU 164	0	0	0	0	0	0	0	0	0	0	0	0	0	0	0	0	23	0	0	0	0	4	0	0	0	0	0	0	0	0	15	0	0	0	0	0	0	0	0	0	39	0	0	0	0	0	12	0	0	3
OTU 165	3	3	1	4	4	5	53	0	4	0	3	1	22	0	0	2	19	0	0	1	0	4	11	0	5	2	0	2	13	0	10	1	3	34	4	46	21	2	3	1	14	1	0	72	16	0	44	87	104	53
OTU 166	0	0	0	0	0	0	0	0	0	1	0	0	0	0	0	0	0	0	0	0	0	0	0	0	0	0	0	0	0	1	0	0	0	1	5	11	0	0	0	0	0	0	0	0	0	0	0	0	0	0
OTU 167	1	1	13	4	26	1	0	208	5	2	2	0	1	3	13	11	32	10	27	4	0	12	20	0	9	13	0	0	153	0	13	4	19	13	19	1	15	38	0	7	24	6	2	66	10	4	2	1	12	1
OTU 168	74	0	4	1	18	147	199	15	4	8	6	112	16	30	105	2254	19	48	0	2	34	6	0	45	54	3	70	50	2	11	18	1	19	21	23	22	0	38	18	125	15	0	17	132	0	40	25	68	73	7
OTU 169	11	14	0	0	0	0	0	0	10	31	0	0	1	0	0	0	0	51	0	0	0	0	23	0	0	0	0	0	37	16	0	0	21	0	0	0	0	0	0	0	0	0	0	0	0	0	0	0	0	12
OTU 170	0	0	0	2	0	0	0	0	0	0	6	9	0	0	0	0	3	0	0	0	0	0	0	0	0	0	0	0	0	0	2	0	0	2	0	0	0	0	1	0	0	0	0	0	0	0	29	0	4	0
OTU 171	17	3	132	30	4	28	5	4	243	3	1	113	26	23	37	6	0	0	1	338	2	24	15	0	13	6	41	39	1	2	1	321	5	1	15	26	29	82	26	71	1	2	7	24	0	14	36	2	6	7
OTU 172	0	0	2	0	1	0	0	1	0	1	0	0	0	0	0	0	0	0	0	12	1	0	0	7	0	2	0	0	1	0	0	0	36	9	43	11	0	5	0	0	4	2	0	17	0	0	0	0	51	36
OTU 173	0	47	32	15	0	1	0	40	0	2	5	0	39	0	1	10	0	15	1	0	30	61	2	0	0	10	14	58	0	5	0	176	29	10	11	1	27	24	1	0	0	32	0	13	27	1	0	4	6	44
OTU 174	262	0	5	42	58	4	1729	76	4	11	4	6	256	0	474	3	3	64	0	6	1	0	32	177	49	1	2	114	9	2	96	0	9	30	37	0	2	0	45	1	10	50	0	6	1	7	42	33	90	0
OTU 175	1	0	73	5	14	1	9	8	1	1	23	4	0	1	6	4	1	0	1	0	7	5	1	0	3	0	24	25	6	2	532	12	11	6	23	0	11	4	0	0	0	0	0	34	37	9	7	5	0	0
OTU 176	36	35	28	22	3	67	21	31	8	0	22	121	7	67	5	9	11	18	6	19	401	518	21	13	11	21	19	91	61	0	23	28	13	149	21	11	29	117	28	275	27	15	36	75	369	8	98	15	299	263
OTU 177	0	12	43	100	15	9	31	25	94	31	102	2	62	0	10	37	78	86	0	82	14	19	10	15	32	34	56	0	7	17	6	103	24	21	1	35	62	17	12	1	151	0	0	18	20	45	109	28	41	36
OTU 178	0	0	0	1	3	14	0	6	1	0	0	13	0	8	0	0	0	47	47	78	0	5	67	0	42	3	15	1	0	0	0	52	8	38	1	17	107	1	4	79	0	0	2	0	3	23	9	0	52	1
OTU 179	1	4	5	1	4	17	8	61	0	4	4	5	1	1	7	64	16	8	92	2	7	27	0	6	9	8	1	3	22	0	31	9	130	35	4	0	7	4	4	0	42	1	0	5	17	2	1	6	52	0
OTU 180	104	93	78	123	49	100	44	66	54	33	1746	148	56	11	53	978	24	25	83	66	28	7	37	87	433	342	1628	26	27	8	21	113	226	220	101	418	222	195	70	91	78	71	35	8	23	64	175	115	274	373
OTU 181	1	19	1	11	5	141	7	3	23	0	23	6	0	16	2	0	3	0	9	22	25	0	22	12	3	28	7	6	3	0	7	2	2	81	2	0	44	6	4	29	22	29	10	0	0	0	0	1	196	4
OTU 182	1	0	28	0	0	3	0	11	0	13	0	0	0	0	0	0	0	0	0	0	0	0	0	0	0	0	0	0	0	7	0	0	0	0	0	2	577	0	0	0	0	0	0	0	0	6	0	52	0	0
OTU 183	10	3	14	7	3	2	24	40	13	13	6	2	6	0	2	0	10	0	0	90	16	135	0	10	6	6	16	0	34	7	14	18	24	30	1	8	8	1	16	17	31	25	0	5	51	12	181	34	14	44
OTU 184	1	55	3	7	7	150	26	38	0	2	9	2	0	0	0	3	0	0	41	5	1	94	7	5	0	0	0	16	6	0	0	50	8	0	3	7	9	1	4	16	1	11	0	0	0	50	30	101	0	7
OTU 185	30	26	17	46	13	12	18	52	2	36	68	36	15	29	1	43	23	22	137	0	126	75	42	43	84	43	54	644	17	18	14	9	13	4	21	108	48	9	15	78	51	19	14	47	15	106	65	398	33	1
OTU 186	5	0	0	9	41	0	0	10	18	5	40	0	0	0	1	5	0	2	0	3	5	14	1	0	3	1	3	9	1	2	9	0	6	0	23	0	3	58	0	0	0	1	0	0	5	0	7	17	0	0
OTU 187	212	13	33	28	75	140	58	5	165	14	59	77	7	11	12	11	19	2	69	82	5	66	4	20	55	31	30	112	31	9	4	73	210	62	361	42	19	26	21	93	36	4	9	25	6	1	59	59	149	23
OTU 188	11	49	1587	93	4	4	55	30	1119	1	32	48	24	23	51	10	34	11	39	584	18	22	434	72	3	8	6	36	153	3	26	12	39	83	18	0	13	104	2	244	25	34	10	1183	32	1	169	2	168	140
OTU 189	166	58	71	36	9	344	3	62	611	28	133	11	10	2	60	16	6	6	42	16	45	198	112	42	15	53	107	51	23	11	26	67	14	22	2	6	12	74	28	79	32	58	5	194	119	109	23	104	68	48
OTU 190	0	19	31	2	5	124	0	0	0	0	0	0	0	0	0	1	0	2	1	31	0	33	4	0	117	7	0	0	0	0	0	0	0	3	1	26	0	88	0	0	0	0	0	0	3	1	0	0	19	0
OTU 191	7	43	7	8	8	6	4	27	7	31	10	36	18	24	121	76	3	1	4	9	7	36	4	11	2	3	265	31	14	14	23	124	14	17	33	14	77	104	58	43	11	66	12	1	23	0	82	51	17	70
OTU 192	87	11	73	11	36	71	19	327	30	7	149	639	130	410	115	14	18	9	20	119	16	54	44	17	16	42	43	30	13	10	25	3	58	60	33	28	293	38	82	874	39	31	225	29	58	1144	166	6	129	7
OTU 193	30	8	5	22	3	36	59	1	15	41	109	74	22	54	27	12	54	41	1	7	1	32	23	1	146	15	8	67	14	28	20	28	8	60	87	1	18	54	46	55	77	32	32	0	0	0	109	4	112	11
OTU 194	24	164	1	97	46	2	0	131	0	73	0	1	1	312	2	147	40	41	0	67	82	0	11	30	22	74	69	1	1	36	0	1	1	0	1	5	5	1	0	6	124	0	155	1	75	53	0	49	12	0
OTU 195	7	0	7	57	30	56	127	33	6	9	55	1	0	12	50	10	1	0	2	52	20	7	7	2	0	4	38	25	676	3	7	77	44	17	27	60	84	17	40	26	1	0	5	0	6	1	2	0	16	9
OTU 196	2	50	0	21	36	25	8	0	13	47	5	0	8	0	0	8	228	130	46	372	0	0	7	1	16	16	1	5	3	45	0	59	0	911	0	29	105	14	24	8	441	36	0	9	13	6	0	23	7	127
OTU 197	104	117	85	62	72	9	9	15	34	12	1133	43	9	19	78	25	4	32	79	2	18	28	18	28	87	71	44	11	33	5	3	155	97	90	13	33	57	186	93	52	18	6	5	30	67	29	76	28	222	46
OTU 198	2	8	45	0	0	0	1	0	44	12	12	0	6	0	5	0	0	1	4	4	55	0	37	5	5	2	0	34	0	2	0	0	0	3	7	20	6	7	0	0	0	0	0	0	1	13	3	86	0	0
OTU 199	1	7	47	1	9	0	0	12	24	20	14	3	7	0	1	43	8	1	0	1	7	36	13	4	0	0	4	83	0	8	9	0	22	1	0	13	0	3	0	2	0	0	0	59	38	0	0	2	1	2
OTU 200	21	51	34	0	3	22	4	38	35	14	6	35	10	19	41	15	29	12	17	7	4	29	46	55	44	27	17	0	24	19	11	40	7	28	40	8	19	114	1	20	39	59	2	58	8	20	9	2	53	5
