	Host 1	Host 2	Host 3	Host 4	Host 5	Host 6	Host 7	Host 8	Host 9	Host 10	Host 11	Host 12	Host 13	Host 14	Host 15	Host 16	Host 17	Host 18	Host 19	Host 20	Host 21	Host 22	Host 23	Host 24	Host 25	Host 26	Host 27	Host 28	Host 29	Host 30	Host 31	Host 32	Host 33	Host 34	Host 35	Host 36	Host 37	Host 38	Host 39	Host 40	Host 41	Host 42	Host 43	Host 44	Host 45	Host 46	Host 47	Host 48	Host 49	Host 50	
OTU 1	54	242	4	3	248	115	160	65	59	89	0	58	2	39	1	187	65	26	127	11	410	111	82	516	0	4	14	24	98	6	4	12	32	188	7	114	159	189	108	28	194	20	26	2	297	102	708	55	19	1109
OTU 2	2	44	24	34	9	12	10	14	111	65	3	18	0	0	2	1	14	56	0	16	0	63	2	16	0	2	13	74	3	20	70	0	0	4	5	2	0	0	0	41	17	1	3	35	0	28	4	16	18	3
OTU 3	0	1	0	4	47	0	27	0	9	131	4	68	96	1	1	1	54	1	12	10	0	0	0	95	23	0	20	73	55	9	7	0	0	40	38	38	2	0	0	13	0	2	25	14	0	0	0	0	31	0
OTU 4	0	0	0	0	0	0	0	0	0	0	0	0	0	0	0	0	0	0	0	0	0	2	0	0	0	0	0	0	0	0	0	0	0	0	0	0	0	0	0	0	0	0	0	0	0	0	0	0	0	0
OTU 5	566	0	996	54	1082	734	166	421	88	30	779	292	153	30	0	303	453	315	598	440	196	390	702	120	17	107	700	6	492	963	186	492	766	255	9	78	0	140	2	2010	34	22	3280	1121	689	158	344	82	32	216
OTU 6	17	31	6	57	17	6	5	14	6	20	4	0	144	6	3	6	11	0	99	105	6	80	0	40	109	26	1	5	9	17	4	17	3	78	125	0	38	4	18	0	4	9	6	11	0	8	10	6	10	10
OTU 7	12	16	132	51	13	103	36	43	160	330	57	151	252	4	5	30	47	53	380	1031	88	42	44	34	49	19	86	31	73	5	484	60	163	313	33	9	43	92	35	27	41	10	8	48	1	9	25	330	48	111
OTU 8	232	271	0	17	15	1193	2	598	1291	118	18	83	132	79	91	44	41	45	80	156	59	141	22	24	133	0	825	110	718	7	81	52	79	17	66	4400	1292	53	208	28	10	4	12	65	30	907	95	83	48	158
OTU 9	48	176	14	5	2	16	0	0	0	32	6	18	3	14	72	1	67	0	56	96	6	0	217	4	0	5	0	0	2	76	0	14	55	188	2	0	45	318	0	0	9	0	1	12	9	1	18	24	8	0
OTU 10	60	0	0	0	0	42	25	21	8	19	0	49	0	28	3	4	12	0	56	25	0	1	5	2	77	145	3	0	6	0	0	0	2	0	4	0	24	3	17	14	1	1103	1	11	0	20	8	46	863	0
OTU 11	60	90	41	25	26	68	12	0	2	1	19	1	4	88	4	2	29	25	7	13	0	3	34	30	67	1	2	4	19	1	71	0	35	31	87	5	1	72	55	29	2	0	8	34	1	4	50	105	54	18
OTU 12	16	1	43	48	7	44	6	9	12	23	58	35	134	125	27	6	54	3	29	0	2	23	2	21	14	4	3	14	83	22	106	1	194	64	31	2	17	15	33	84	6	166	44	49	24	2	9	82	287	24
OTU 13	0	2	0	3	0	0	0	0	0	15	4	4	0	0	0	0	3	0	0	0	0	1	9	0	0	4	0	0	0	2	0	70	6	26	0	0	8	12	0	22	0	4	4	0	15	0	0	1	0	0
OTU 14	17	39	1	1	2	9	3	15	5	4	2	0	1	0	14	1	1	4	12	0	0	4	0	2	3	541	17	52	3	0	1	2	65	0	47	0	37	1	14	0	0	184	0	9	0	33	19	18	71	12
OTU 15	0	0	0	5	0	0	0	0	52	0	7	0	36	1	0	0	0	0	0	0	0	0	18	0	0	6	13	0	0	8	0	13	0	0	0	0	2	10	6	0	0	67	0	0	0	4	0	1	25	0
OTU 16	0	0	0	0	0	0	0	7	0	0	0	0	0	0	0	0	0	0	0	0	0	0	0	0	0	0	0	0	0	77	14	8	0	0	20	0	0	0	0	0	0	0	0	0	0	1	0	8	0	0
OTU 17	12	68	145	2	10	0	25	3	37	7	10	6	33	63	25	0	5	2	7	0	1	95	0	27	11	8	28	61	27	0	0	0	0	13	43	3	1	0	2	1	0	34	1	0	1	1	11	0	205	5
OTU 18	1	91	21	48	74	364	4285	101	349	37	41	21	22	15	90	28	57	3	35	144	58	114	4	124	49	3	132	32	44	259	3	2	118	95	12	2215	240	3	164	33	7	2	6	121	4	151	11	20	15	62
OTU 19	0	0	0	0	0	1	0	0	0	0	0	0	0	0	0	0	0	0	0	0	0	0	0	0	0	0	0	0	0	0	0	0	0	0	0	0	0	0	0	2	0	0	0	0	0	0	0	6	0	0
OTU 20	183	4	0	99	8	30	4	1	63	91	20	32	13	33	1	0	0	2	0	10	0	7	4	19	11	59	102	145	55	5	45	1	24	11	0	18	243	27	8	5	0	14	0	21	23	183	10	30	20	5
OTU 21	18	95	230	11	573	55	97	41	17	8	258	12	13	20	48	0	0	18	44	7	1	61	5	184	104	46	25	12	45	16	22	27	329	32	26	72	1	11	20	21	11	1	17	116	0	8	25	41	69	3
OTU 22	153	28	7	27	94	0	83	14	12	52	4	49	163	8	9	33	13	1	0	19	66	6	10	185	4	36	1	32	0	1	19	49	20	30	97	16	5	59	43	8	16	31	7	24	2	2	4	2	25	41
OTU 23	22	0	15	0	15	196	23	29	11	7	7	5	0	33	0	0	2	20	1	4	0	29	0	28	0	2	2	14	70	14	30	2	3	2	48	77	3	8	0	7	47	4	0	0	0	0	3	15	100	10
OTU 24	2	33	6	39	0	1	1	0	23	50	37	47	0	29	77	5	17	1	37	0	29	1	19	0	17	18	0	0	27	15	12	9	10	0	43	0	0	47	96	0	2	43	0	0	2	27	0	6	57	1
OTU 25	0	1	0	0	0	0	0	0	0	0	1	0	162	0	0	0	0	0	138	0	0	0	14	0	0	0	0	0	3	5	4	0	1	0	0	0	0	31	3	0	0	0	0	0	0	0	0	0	0	0
OTU 26	0	0	0	0	2	0	0	1	0	0	5	0	0	0	0	3	29	20	0	0	0	26	6	4	0	0	0	0	0	0	1	0	2	1	0	0	0	20	0	4	0	35	5	83	0	1	0	2	2	0
OTU 27	0	0	0	0	0	0	0	0	4	0	0	0	1	1	0	0	0	0	0	0	0	9	0	0	0	0	0	0	6	0	0	0	5	0	0	0	0	0	17	0	0	10	0	0	0	0	0	0	0	0
OTU 28	21	52	86	73	20	16	10	22	16	2	49	0	15	390	42	0	64	72	11	25	5	63	1	37	2253	26	1	152	3	20	125	11	15	23	71	5	17	2	21	59	3	64	31	24	18	3	29	140	18	0
OTU 29	268	13	9	14	9	70	8	25	16	39	26	17	10	48	59	1	3	7	19	2	4	26	33	15	5	96	3	36	27	17	5	69	58	3	93	15	14	35	77	34	19	0	8	95	1	5	66	132	15	11
OTU 30	0	0	0	0	0	0	0	0	0	0	0	0	0	0	294	0	0	0	0	0	2	0	0	0	0	0	0	0	0	0	0	0	0	0	0	0	0	0	0	0	0	0	0	0	0	0	0	0	0	0
OTU 31	149	15	156	0	0	0	0	0	13	303	31	121	10	3	1	0	93	0	337	19	0	0	0	0	0	111	0	1	14	6	40	0	58	0	5	7	36	0	91	110	210	0	34	32	6	29	36	129	22	35
OTU 32	53	21	46	2369	0	9	5	14	21	36	52	9	39	103	56	7	145	12	184	42	31	3	57	1	49	18	8	109	42	16	17	47	52	23	2	2	5	78	223	84	168	7	28	23	3	34	31	17	14	27
OTU 33	0	0	0	0	0	1	0	0	1	3	0	7	1	0	0	0	66	0	1	10	0	1	0	0	0	0	0	0	0	0	0	0	1	0	0	0	0	0	6	12	0	0	9	0	0	0	0	0	0	0
OTU 34	1306	44	0	1	8	27	1	0	0	2	5	5	51	50	5	8	92	6	0	56	26	97	1941	14	0	9	3	9	400	2	75	1	33	13	7	7	2	33	56	72	334	9	25	36	48	3	0	13	6	60
OTU 35	20	0	44	85	6	0	4	8	73	197	571	163	8	28	1	34	7	14	47	0	44	37	1	12	174	6	17	41	2	11	19	124	97	4	84	0	2	15	136	2	0	63	4	5	2	19	25	1	145	31
OTU 36	51	4	95	3	0	16	14	15	828	16	0	3	1	5	0	9	5	27	25	27	21	6	12	1	1	2	491	200	1	24	5	32	1	5	2	0	30	10	32	7	16	12	7	89	35	326	28	16	33	1
OTU 37	0	0	0	0	0	0	1	0	2	0	15	1	0	2	2	16	1	0	29	3	13	1	18	0	0	0	1	0	5	12	2	21	3	0	0	0	0	31	2	3	0	3	0	4	4	0	11	0	0	0
OTU 38	43	112	151	16	29	28	16	2	16	120	23	66	11	112	5	0	89	139	23	0	0	12	22	68	130	5	0	178	6	24	10	882	72	8	7	19	9	95	28	27	212	37	11	1	7	24	2	77	96	0
OTU 39	8	0	5	1	0	11	5	64	0	0	0	0	2	0	13	0	4	22	0	0	1	21	0	0	8	0	0	24	0	13	1	0	5	1	6	12	0	0	3	0	0	23	0	3	6	3	0	30	98	0
OTU 40	33	82	84	5	0	128	4	57	4	21	61	24	108	221	38	2	18	5	2	2	6	33	16	0	13	174	1	11	38	203	77	34	78	27	4	1	46	43	0	47	25	5	14	29	8	44	3	116	26	57
OTU 41	84	5	0	13	1	4	1	3	32	29	1	8	82	130	49	0	3	44	0	26	1	5	0	7	0	1	1	40	6	11	61	29	36	0	74	6	4	0	82	2	8	0	1	58	7	9	9	0	13	1
OTU 42	32	0	264	25	4	5	9	1	0	0	0	0	19	9	929	6	0	0	0	0	10	6	0	10	0	0	7	13	0	26	42	1	0	4	0	0	2	0	15	0	0	36	0	0	0	0	17	0	0	0
OTU 43	0	0	0	47	0	0	0	0	0	0	0	1	0	0	0	0	0	0	0	0	0	0	0	0	4	0	2	4	0	0	0	0	0	0	0	0	0	0	0	0	0	0	0	0	0	0	0	0	0	0
OTU 44	13	33	0	0	0	0	2	0	0	20	8	4	1	1	0	0	6	0	143	21	0	98	0	0	0	5	17	0	0	0	0	0	0	0	12	4	0	0	2	0	12	0	0	9	113	0	0	4	1	0
OTU 45	71	20	14	1	49	12	129	6	9	22	1	10	3	5	319	12	31	4	116	5	45	7	4	98	74	1	9	2	8	49	29	18	5	17	531	42	71	10	10	11	37	23	13	6	0	7	10	37	51	95
OTU 46	66	50	61	28	70	0	72	1	2	21	0	40	14	17	174	3	23	77	21	3	10	5	13	134	299	124	9	242	2	66	295	0	56	57	3	0	103	19	12	33	73	16	20	16	28	10	19	37	75	15
OTU 47	0	0	0	0	1	1	47	0	0	0	0	0	4	0	0	0	1	17	1	1	0	19	0	4	2	1	0	3	0	3	1	0	0	0	30	29	22	0	0	1	0	0	2	0	0	0	0	0	0	2
OTU 48	43	55	17	3	28	0	27	12	18	112	11	48	3	20	64	4	14	8	82	16	10	270	19	45	0	56	33	126	15	1	24	46	21	14	107	31	15	15	30	15	53	61	2	69	10	19	9	59	3	2
OTU 49	143	84	0	1	9	0	5	0	11	11	3	5	3	184	0	2	6	16	0	23	16	0	5	8	0	4	1	3	39	1	14	1	8	0	3	5	1	29	162	462	8	17	296	0	0	5	2	0	80	17
OTU 50	6	14	29	23	102	6	55	29	17	1	11	2	92	43	284	5	45	485	80	31	6	26	0	220	73	3	32	1616	7	60	220	320	78	392	29	44	94	1	36	0	9	13	3	0	11	14	6	78	144	12
OTU 51	40	12	0	20	25	22	73	6	24	3	0	0	3	11	23	11	1	19	74	3	19	173	0	57	5	18	10	0	54	10	3	4	1	13	100	38	18	0	7	8	1	0	6	35	0	3	305	10	45	23
OTU 52	45	272	31	88	40	6	24	0	27	17	107	48	65	27	25	1020	60	67	164	42	2298	77	1050	80	117	34	5	203	3	265	94	29	227	46	248	63	27	2097	58	56	139	40	12	98	9	89	32	63	23	86
OTU 53	0	0	0	0	2	1	0	0	3	0	0	0	0	0	0	0	66	0	0	2	0	0	0	8	0	0	0	0	0	0	0	0	1	0	0	0	0	0	2	14	0	4	2	0	0	0	0	0	28	0
OTU 54	27	46	29	55	4	21	19	11	158	94	4	31	95	474	26	15	217	22	154	0	10	253	22	15	121	105	52	24	5	15	84	129	54	6	6	8	122	54	14	129	171	44	77	182	16	2	18	72	116	34
OTU 55	0	0	0	0	0	0	0	0	0	0	0	0	0	0	0	0	0	0	0	0	0	0	0	0	0	0	0	0	0	0	0	0	0	0	0	0	0	0	0	0	0	0	0	0	0	0	0	0	0	0
OTU 56	24	2	8	4	4	0	6	1	0	2	1	0	23	2	40	0	14	43	0	57	0	9	4	8	11	14	2	2	2	0	0	1	0	0	69	2	0	10	0	18	29	22	10	1	0	0	11	0	0	0
OTU 57	465	83	17	75	250	80	89	46	74	298	63	103	224	906	21	19	236	77	63	139	46	684	13	134	106	26	9	110	73	9	872	23	92	103	242	26	152	29	40	21	96	16	33	263	31	26	49	96	52	23
OTU 58	1	10	4	1	14	62	13	42	0	0	68	1	3	1	0	2	94	1	2	46	5	14	10	19	53	4	2	56	24	53	7	0	0	0	62	17	73	20	0	1143	0	8	490	5	1	34	0	1	0	30
OTU 59	0	213	18	97	105	0	61	5	6	17	21	5	48	16	0	37	10	6	8	55	65	17	68	221	19	64	26	183	0	18	8	0	0	171	0	53	10	113	22	19	44	24	11	2	48	0	100	58	58	50
OTU 60	13	0	156	43	1	15	15	5	1	33	14	4	16	125	51	0	14	51	34	3	8	25	375	1	159	1536	5	101	9	300	20	32	4	25	2	0	12	53	56	46	16	39	36	35	2	28	14	1274	17	7
OTU 61	1	164	4	1	21	36	36	2499	22	21	42	1261	24	80	130	25	21	20	35	63	46	532	299	48	63	23	7	9	10	135	60	16	49	46	229	31	7	598	48	6	29	2	21	6	81	16	22	10	4	78
OTU 62	0	12	1	0	0	34	4	44	37	13	1	1	20	29	0	0	1	272	5	5	0	0	0	0	0	24	46	0	3	54	38	602	2	17	2	1	15	3	1	20	3	5	1	14	0	23	4	66	0	0
OTU 63	0	12	3	1	21	2	16	0	1	1	2	0	0	3	42	11	57	0	12	40	13	5	58	55	2	2	0	12	0	1	19	2	0	3	32	12	33	66	32	3	27	80	0	1	1	3	2	46	155	1
OTU 64	78	161	7	93	26	15	11	1	10	26	7	34	212	1	110	34	133	67	144	41	71	132	17	67	9	78	19	244	23	116	37	4	57	46	15	21	23	22	2	584	4	81	294	51	13	9	33	50	125	30
OTU 65	0	0	0	0	1	0	0	0	0	1	0	0	51	0	0	0	0	0	11	0	0	133	0	4	0	0	0	1	0	2	0	0	0	0	0	0	0	0	0	0	10	1	0	0	1	0	0	19	0	0
OTU 66	71	51	0	13	0	4	1	10	54	1	42	8	40	42	1	58	17	44	124	30	86	58	4	2	45	45	51	14	1	0	54	0	51	20	35	2	9	22	236	62	100	19	13	9	1	5	23	0	4	71
OTU 67	18	37	24	8	0	56	8	37	79	12	3	10	0	146	6	3	14	24	2	88	2	244	6	0	6	3	27	11	45	104	9	0	34	0	6	1	35	5	3	9	11	3763	3	46	0	16	42	18	27	42
OTU 68	0	1	0	8	0	43	19	19	7	17	23	45	14	1	32	2	0	0	0	0	4	72	2	0	0	0	9	16	0	7	11	0	3	0	16	1	0	0	33	0	8	0	0	47	6	0	2	3	0	6
OTU 69	42	55	83	23	29	20	43	22	29	10	811	4	1	5	51	1	568	65	224	33	5	85	486	54	98	16	139	14	36	0	114	179	9	52	2	34	37	995	20	363	0	47	244	25	0	47	0	5	30	2
OTU 70	28	0	1	1	6	9	4	0	9	0	0	0	1	67	101	2	0	72	0	1	0	1	18	17	57	7	2	0	3	17	41	0	0	3	2	0	2	72	32	24	30	10	4	0	0	0	0	50	0	2
OTU 71	29	0	8	11	78	69	107	25	0	10	0	14	1	34	3	0	15	51	0	1	3	0	5	183	0	12	0	135	10	7	58	9	5	101	3	14	10	1	19	1	33	3	0	71	3	2	34	0	39	0
OTU 72	107	14	11	98	39	64	46	20	6	91	8	45	108	100	8	64	1	1	34	12	181	24	14	65	4	21	8	22	2	28	5	43	51	97	67	19	3	13	90	21	899	25	9	0	61	10	60	0	12	143
OTU 73	2	63	0	1	17	23	67	31	56	1	47	15	32	30	0	7	57	27	14	53	5	43	0	50	1	7	51	27	18	9	44	1	3	28	108	26	39	3	120	0	82	0	1	1	17	3443	2	1	2	0
OTU 74	0	178	15	22	11	11	6	22	1	9	2	9	52	64	87	5	9	6	142	59	2	1	1	31	92	1	5	7	10	165	15	11	67	35	5	56	3432	0	18	7	4	0	4	62	2	19	1	68	12	0
OTU 75	7	56	103	13	1	0	13	22	17	39	6	11	24	31	8	9	80	7	31	96	29	128	0	2	118	56	5	5	2012	49	197	0	16	2	16	23	54	0	8	44	22	3	15	43	3	12	0	0	45	20
OTU 76	8	0	136	2	0	0	0	0	21	0	135	0	0	0	0	0	0	9	113	29	0	9	0	0	0	61	6	0	0	14	1	0	181	12	42	4	0	4	1	0	0	23	0	1	1	52	0	131	29	2
OTU 77	88	16	344	9	121	4	50	0	9	86	7	76	55	2	114	0	25	200	67	12	3	20	22	225	26	3	4	1	55	6	24	140	35	74	28	18	28	33	8	0	83	37	2	25	22	10	1	3	30	4
OTU 78	50	8	27	22	697	4	861	0	22	0	16	3	1332	78	0	0	15	1	48	4	0	41	1728	1396	50	116	23	3	8	3	8	47	39	754	0	535	91	19	0	24	6	42	7	20	21	25	2569	199	10	3
OTU 79	130	121	180	199	383	704	489	234	39	72	239	55	658	71	58	26	319	26	148	215	39	307	17	767	138	55	3459	40	214	79	135	68	837	504	105	147	105	35	178	223	149	45	117	91	24	5	70	50	166	103
OTU 80	80	64	42	1	16	186	69	142	5	7	6	11	124	77	112	6	6	27	47	0	7	44	13	36	274	17	1	23	41	66	4	69	122	21	1	18	29	37	23	4	74	56	4	67	0	18	182	39	57	9
OTU 81	96	81	9	23	7	18	36	12	53	60	0	35	31	1474	85	18	214	44	3	11	6	51	41	18	656	0	36	72	20	72	22	29	28	45	300	6	57	69	32	127	14	3	61	23	20	0	25	53	27	22
OTU 82	1	10	7	3	3	228	2	206	56	34	110	18	11	99	2	9	0	46	0	6	5	9	5	6	6	11	9	4	146	110	0	0	336	7	25	3	148	15	0	0	0	170	8	12	1	46	3	2	19	7
OTU 83	0	3	2	0	3	0	1	1	11	0	17	2	22	3	0	0	2	0	0	79	0	0	0	1	0	0	23	0	0	20	0	0	0	17	2	0	2	0	0	12	10	0	2	0	0	0	0	0	1	0
OTU 84	0	219	52	15	6	0	14	10	1	7	5	4	39	3	0	0	39	21	0	1	0	53	12	16	29	3	0	6	17	14	30	26	0	3	31	1	9	23	5	5	2	4	2	1	0	0	29	1	0	11
OTU 85	14	16	0	23	0	4	8	43	37	9	2	0	2	0	20	1	0	0	0	0	1	33	5	0	0	7	29	2	41	179	3	6	0	1	115	5	0	11	32	0	3	45	0	8	0	0	0	2	48	1
OTU 86	0	0	0	7	0	0	0	0	0	0	0	0	0	29	1	0	0	0	0	11	0	0	0	0	41	0	0	0	6	0	0	0	0	0	7	0	0	0	0	0	0	0	0	1	0	0	0	0	0	0
OTU 87	0	0	0	15	0	3	22	0	1	0	9	1	2	40	0	0	0	1	2	0	0	0	2	0	0	13	2	0	2	24	1	13	3	10	21	12	79	8	6	3	2	2	0	34	0	0	1	14	2	4
OTU 88	0	41	0	0	0	2	0	0	0	3	0	0	0	0	0	0	0	0	0	0	0	1	0	1	1	0	0	0	0	0	0	0	0	0	0	0	0	0	0	0	0	0	0	0	0	0	0	17	0	0
OTU 89	3	3	12	0	3	1	13	0	52	0	938	0	50	14	2	0	2	47	1	13	0	0	0	8	0	19	26	0	0	293	6	5	12	5	30	2	69	3	110	9	4	26	15	7	1	0	48	0	1	4
OTU 90	0	3	0	1	0	0	0	0	27	0	0	0	75	3	0	0	0	0	0	4	0	0	0	0	10	0	16	0	3	3	0	0	0	0	0	0	2	0	0	0	0	3	0	0	0	12	0	0	0	0
OTU 91	0	0	0	0	0	0	0	0	19	1	0	0	18	0	1	0	0	0	1	0	0	0	0	0	0	4	7	0	0	1	0	0	0	0	8	0	0	0	0	0	7	28	0	1	0	1	10	2	0	0
OTU 92	0	0	7	0	9	2	422	0	2	5	0	0	1	49	0	0	0	0	0	0	0	1	0	28	20	0	0	5	1	0	5	3	0	16	0	213	0	4	1	0	0	0	0	0	0	1	0	1	154	5
OTU 93	5	0	0	0	0	2	0	0	0	0	0	4	0	0	0	0	3	133	0	2	0	0	0	0	15	2	0	0	11	13	0	0	0	0	0	1	5	0	12	14	0	0	1	0	1	0	1	46	0	0
OTU 94	429	39	76	0	1	15	6	26	43	596	59	344	6	7	22	12	6	160	185	176	17	57	44	7	149	156	16	6	16	34	439	14	7	3	59	9	9	81	25	10	86	47	6	76	2	37	12	262	74	21
OTU 95	0	0	27	44	9	0	0	5	0	0	40	0	0	5	0	0	35	0	28	64	0	2	0	9	85	0	9	0	4	0	0	27	53	34	0	5	0	1	1	28	34	0	0	55	3	7	0	0	0	0
OTU 96	0	19	0	0	0	6	3	0	0	0	0	0	2	0	0	3	0	0	10	0	0	7	0	0	0	0	0	0	0	0	0	0	0	0	1	0	57	0	0	0	0	0	0	0	0	0	0	23	5	0
OTU 97	0	0	0	4	0	18	1	22	1896	0	5	0	0	4	3	0	4	0	0	4	0	48	0	0	0	85	756	0	3	0	8	0	1	0	18	1	3	0	7	0	69	1	0	80	4	720	0	150	0	0
OTU 98	17	0	3	50	0	2	0	1	0	2	25	0	0	24	0	399	4	0	5	4	698	48	11	0	0	0	11	0	0	1	0	0	5	0	38	0	9	8	63	0	0	4	0	0	14	0	62	0	30	151
OTU 99	1	16	0	49	19	2	3	4	13	84	33	40	14	27	14	19	80	95	145	54	30	29	28	32	14	2	5	12	54	124	69	44	40	7	16	4	39	72	49	48	2	11	34	22	7	66	37	16	48	38
OTU 100	87	87	4	0	7	44	8	2146	0	1	6	0	14	0	5	12	51	0	32	1	12	18	7	10	3	2	5	4	11	168	40	1	0	5	6	0	8	6	0	16	0	1	0	14	3	47	0	1	20	54
OTU 101	0	0	10	6	0	0	0	0	0	3	0	0	0	0	5	2	0	0	10	0	0	3	1	0	0	0	0	0	0	0	4	10	0	4	0	0	0	5	0	0	0	0	5	0	0	0	0	0	0	1
OTU 102	0	2	0	0	2883	1	1	13	0	0	7	0	11	1	30	3	3	2	1	2	0	1	2	3	18	22	5	0	0	14	4	58	0	12	0	0	26	6	0	0	0	0	1	122	1	5	11	0	0	0
OTU 103	1	109	27	20	64	12	59	1	0	4	16	17	74	63	8	0	9	17	0	15	19	11	5	121	0	5	0	369	2	41	10	1014	4	22	18	38	0	2	11	4	4	28	1	52	1	8	14	1	2	34
OTU 104	42	4	99	19	5	64	36	18	27	161	28	93	61	36	134	4	80	59	27	4	29	21	13	11	0	98	35	172	0	1	86	11	77	17	107	22	83	27	20	66	54	19	15	1	27	14	51	117	44	127
OTU 105	4	3	14	5	56	0	58	0	22	0	4	4	35	30	25	2	28	0	0	7	1	0	2	118	0	0	14	0	0	0	9	0	2	0	3	46	2	2	0	0	0	0	0	76	2	0	0	109	0	29
OTU 106	3	216	0	0	6	7	0	4	0	0	17	4	5	0	1	0	1	0	0	1	1	62	0	13	8	0	0	1	0	0	1	1443	0	1	2	6	1	0	0	0	0	0	0	97	2	0	2	66	0	1
OTU 107	1	2	1	1824	1	3	23	0	4	1078	27	489	10	0	49	60	9	13	1	8	149	1	1	5	0	0	2	124	2	6	6	22	0	14	0	11	4	12	153	33	0	0	22	1	25	0	59	43	5	208
OTU 108	1	17	83	1	2	15	0	23	0	19	29	5	2	41	9	0	3	1	2	66	0	90	344	5	2	37	1	0	3	0	37	7	13	0	134	6	18	734	0	0	11	9	0	9	0	11	1337	6	25	0
OTU 109	0	0	0	0	0	0	0	0	0	0	0	0	0	0	0	0	0	0	0	0	0	0	1	0	0	0	0	0	0	0	0	0	0	0	0	0	0	3	0	0	0	0	0	0	1	0	0	0	0	1
OTU 110	18	42	37	5	3	2	7	5	61	2	0	14	68	11	5	7	45	126	28	2	38	1	5	6	110	9	25	52	20	1352	116	30	7	84	32	0	42	12	10	0	6	6	2	65	0	6	26	51	58	82
OTU 111	0	0	0	0	0	0	0	0	0	0	0	0	0	0	0	0	0	0	1	0	0	3	0	0	0	5	1	0	0	0	0	0	0	0	0	33	0	0	0	2	0	112	0	6	0	1	0	41	34	0
OTU 112	0	0	2	17	29	9	72	1	18	0	4	8	27	3	0	1	6	26	4	5	0	25	2	57	16	0	0	50	0	197	0	0	94	11	0	26	1	1	7	0	6	3	3	1	34	0	15	9	1	2
OTU 113	0	0	0	0	0	0	0	0	0	2	4	0	0	0	0	2	19	0	0	0	15	6	1	0	0	0	0	18	3	0	21	0	0	24	1	1	0	0	9	0	1	1	0	0	1	0	0	7	11	5
OTU 114	10	110	39	12	30	59	7	1	32	10	110	4	59	29	1	38	2	38	29	3	81	31	8	55	7	5	190	72	30	37	144	58	2	47	335	29	7	4	42	2	49	79	19	27	44	25	7	78	11	111
OTU 115	39	267	88	6	10	55	19	44	10	90	312	61	18	35	70	5	84	30	37	134	23	27	17	23	52	60	11	38	35	114	34	103	68	6	28	1	92	18	64	6	25	2	10	28	46	9	44	16	79	23
OTU 116	27	275	57	57	21	25	18	24	47	253	64	89	155	33	6	5	10	75	158	61	19	21	5	35	31	41	2	113	39	34	295	113	24	0	94	6	84	13	78	14	1838	24	15	8	29	18	5	97	0	68
OTU 117	36	61	43	5	40	4	10	1	7	59	33	10	35	85	68	15	7	28	27	0	26	0	21	70	8	2	0	15	27	25	131	0	1	7	17	13	6	53	3	6	10	12	8	19	37	15	18	7	15	12
OTU 118	0	3	0	2	0	0	0	0	0	15	44	0	23	16	103	0	7	0	1	3	1	6	27	1	13	0	0	0	0	0	0	2	1	0	2	1	0	47	8	10	2	0	0	0	0	0	0	0	117	0
OTU 119	105	26	39	4	29	59	59	3	9	324	4	150	2	17	84	22	0	1445	95	168	10	42	0	45	41	1	9	139	4	172	96	22	34	25	22	14	1	4	280	37	136	0	7	19	14	6	29	33	56	98
OTU 120	0	185	20	18	1	4	7	3	0	230	41	127	58	0	0	0	3	0	3	4	0	0	0	2	2	6	0	6	15	3	1	4	0	9	2	20	3	1	0	2	1	35	0	3	0	0	0	72	0	7
OTU 121	0	3	0	25	33	11	4	27	53	10	45	233	3	14	5	0	121	0	56	6	0	2	0	72	2	55	53	0	0	25	21	0	7	25	54	29	76	0	3	50	19	16	16	8	1	20	7	206	0	0
OTU 122	12	5	43	3	30	3	11	10	0	111	25	7	80	1	31	2	1	1	52	6	9	28	18	55	52	19	5	96	0	316	62	2	61	4	13	6	1	33	23	31	91	23	14	12	0	3	3	0	6	7
OTU 123	127	1233	49	19	66	107	64	106	61	167	97	79	336	267	221	35	58	213	93	281	19	341	89	143	22	126	50	420	48	270	224	185	359	153	139	15	118	178	127	21	397	30	13	80	55	128	71	116	381	85
OTU 124	0	1	0	0	5	1	0	1	30	0	1	0	0	0	0	0	0	1	28	0	0	0	3	4	8	41	30	0	0	5	9	61	2	6	7	0	0	0	25	8	0	0	0	6	8	0	2	30	0	5
OTU 125	204	190	208	771	58	144	58	42	36	154	207	109	164	195	47	170	16	36	205	79	373	228	80	126	439	6	21	149	16	240	194	53	324	57	108	32	115	116	1335	8	1281	54	19	129	268	4	325	120	116	627
OTU 126	0	0	0	0	0	0	0	1	13	1	43	0	24	16	2	12	0	0	0	0	42	0	0	0	4	0	0	0	6	41	0	24	0	0	0	0	0	0	16	0	3	3	0	0	0	0	0	0	1	3
OTU 127	92	12	11	62	0	43	0	7	67	50	0	33	76	5	20	1	5	1	3	8	0	4	16	2	0	9	76	3	8	1	13	123	134	19	0	0	12	36	74	0	0	8	1	2	2	23	10	1	40	3
OTU 128	256	273	365	112	15	207	33	92	61	324	85	199	67	220	181	626	46	143	174	351	1320	162	344	37	56	319	26	183	104	77	340	67	63	70	73	13	162	85	169	25	521	24	13	83	2623	116	1277	789	128	2936
OTU 129	2	0	4	0	0	0	1	5	20	0	0	0	0	1	0	0	0	0	0	1	0	0	0	0	0	0	10	0	0	1	0	14	49	0	0	0	0	0	15	0	4	7	0	1	0	46	1	0	19	0
OTU 130	103	0	44	31	6	91	5	2	26	133	104	52	30	11	11	3	625	322	13	55	3	16	226	18	4	2988	28	27	32	4	79	124	15	16	217	0	0	406	78	625	12	7	284	2	12	9	19	24	0	24
OTU 131	5	10	22	6	509	2	11	18	47	73	24	32	32	3	2	4519	16	10	9	36	26	21	17	129	17	10	33	5	26	0	55	5	1	56	19	31	0	31	5	9	1	35	926	7	481	44	22	40	78	42
OTU 132	1	0	7	0	0	17	0	47	5	3	1	15	4	38	0	8	23	39	5	40	13	19	65	0	1	97	0	5	0	119	0	0	39	0	1727	10	0	136	30	0	7	0	0	0	0	11	2	14	2	0
OTU 133	6	0	1	19	0	2	3	4	0	0	0	14	0	112	32	1	0	8	12	0	4	0	1	3	7	0	4	0	0	2	0	2	0	0	0	0	1	2	0	15	5	2	5	0	44	0	3	1	75	0
OTU 134	76	19	25	16	17	3	0	0	32	34	0	7	101	34	74	7	5	4	156	111	34	270	5	44	0	37	4	0	16	54	2	3	60	7	75	3	113	0	34	7	0	2	4	13	6	12	41	1	4	11
OTU 135	16	59	9	2	12	0	11	1	5	67	9	46	7	106	25	0	19	5	0	18	1	57	3	21	3	17	3	82	7	19	212	9	1	15	41	24	29	15	6	0	7	17	0	7	4	8	0	83	2	4
OTU 136	8	17	3	70	5	1	3	0	1	8	25	4	31	14	15	0	25	3	7	17	1	17	21	6	0	3	0	21	12	25	14	20	1	0	43	1	1	47	3	4	1	8	0	17	4	0	1	58	32	0
OTU 137	0	19	29	5	0	2	36	0	0	5	0	2	199	15	1	1007	3	13	0	9	1432	0	1	0	4	24	0	8	0	222	46	0	6	5	1	1	1	4	58	0	20	12	0	14	1	0	0	36	0	27
OTU 138	20	10	8	3	63	68	33	65	3	14	189	9	33	10	14	0	18	0	13	44	5	52	0	110	110	16	0	3	11	0	35	0	8	55	0	24	1	0	0	15	1	2	19	1	0	1	0	1	8	0
OTU 139	121	178	48	34	14	34	26	35	53	90	40	101	46	32	12	24	67	39	105	47	79	23	1	24	2	28	25	29	8	5	67	5	62	9	24	6	30	3	182	17	54	389	497	15	1961	57	11	43	960	69
OTU 140	465	95	371	30	11	117	34	70	366	189	337	124	219	398	42	20	38	29	1646	338	16	51	6	12	100	115	86	118	42	109	815	23	415	101	18	52	362	31	48	32	7	38	10	189	30	80	58	195	79	42
OTU 141	0	0	0	0	0	0	0	0	0	0	0	0	29	0	0	0	0	0	20	4	0	0	0	0	236	0	0	0	0	0	0	0	0	0	0	0	3	0	0	0	0	0	0	0	5	0	0	0	0	0
OTU 142	0	0	16	6	0	0	0	0	0	0	9	0	0	0	3	0	0	0	0	20	0	1	0	0	0	4	0	0	0	0	0	0	0	0	0	0	10	0	3	0	0	0	0	0	0	0	0	0	0	0
OTU 143	10	2	0	0	10	23	0	0	1	0	0	0	15	1	19	0	0	0	12	0	0	13	1	29	3	0	0	0	39	0	2	0	181	9	1	0	1	0	2	0	1	0	0	5	1	2	7	2	0	2
OTU 144	0	240	97	0	0	20	1	0	0	1	1282	2	0	0	1	0	2	0	8	0	0	0	1	0	14	9	0	0	0	0	7	0	12	0	17	1	1	0	12	0	21	15	0	1	28	0	0	8	6	1
OTU 145	83	10	3	4	12	38	6	21	152	0	87	5	228	91	3410	2	432	56	15	8	2	122	8	25	219	25	86	20	77	4	31	60	1	17	1	0	18	15	3	156	28	1	64	74	10	8	4	74	9	3
OTU 146	47	13	0	2	3	1	7	7	8	1	35	0	51	105	4	2	5	8	0	50	0	51	45	9	7	12	52	31	1	18	1	2	10	19	13	4	21	115	25	10	0	163	0	46	12	12	13	15	2	10
OTU 147	42	228	0	34	1	3	1	1	52	22	4	12	0	13	0	0	30	11	4	13	0	22	2	1	11	49	41	2	1	2	45	33	26	7	0	0	4	2	9	8	2	3	2	7	4	0	19	30	4	0
OTU 148	37	30	10	26	30	1	22	16	15	2	1	2198	90	38	15	1	1233	38	76	46	11	108	20	68	90	0	0	29	1	55	47	4	12	15	26	1	2	27	8	540	1	8	282	2	0	8	1	61	27	2
OTU 149	18	5	7	15	0	0	0	2	7	0	48	9	0	2	23	6	40	29	84	0	10	1	3	0	2	24	6	5	0	38	0	99	0	2	1	0	9	5	73	7	5	3	0	4	1	4	5	20	27	16
OTU 150	1	0	25	0	0	0	0	2	0	0	2	0	0	16	0	19	0	9	0	1	81	30	2	0	2	0	7	46	2	0	47	16	0	0	3	0	20	18	26	1	0	2	0	0	1	44	4	0	4	1
OTU 151	5	120	15	4	0	2	28	0	0	21	11	15	0	44	8	76	0	0	1	13	10	0	0	1	15	12	6	73	12	0	0	51	20	4	138	0	0	0	16	0	22	26	0	1	7	0	2	6	0	0
OTU 152	85	139	65	17	17	32	29	1	3	63	35	19	61	159	32	8	96	2	26	107	10	130	8	24	51	19	1	1	0	10	121	32	14	13	12	2	2	16	13	41	0	29	10	1	4	1	11	21	2	0
OTU 153	0	8	1	3	0	0	0	0	14	0	0	0	0	1	0	0	0	1	3	0	0	0	0	0	0	0	25	0	4	0	0	0	0	0	8	0	0	0	0	0	0	0	0	0	4	0	0	2	0	0
OTU 154	0	0	0	0	0	0	0	0	3	11	2	37	51	2	0	0	2	0	0	3	0	0	4	0	0	0	0	7	0	45	0	0	8	2	0	2	1	10	3	0	0	49	0	0	9	0	1	3	83	25
OTU 155	12	34	27	57	2	448	0	342	18	0	0	0	24	78	13	0	3	0	17	14	0	0	19	3	4	8	5	40	145	31	86	0	3	3	4	0	0	48	32	0	40	0	1	0	0	0	8	1	13	4
OTU 156	208	140	167	27	81	41	84	7	74	58	77	24	26	88	90	6	234	48	98	1561	6	116	5	144	10	43	37	49	11	57	23	57	65	109	52	41	146	9	15	80	65	9	42	21	0	45	10	221	31	7
OTU 157	0	3	2	7	130	1	59	1	0	15	0	8	7	15	81	0	0	127	4	41	0	0	0	244	1	0	8	281	0	0	31	45	2	72	2	13	0	0	1	2	37	159	0	0	2	0	0	4	527	0
OTU 158	2	0	0	0	0	0	0	0	0	1	0	0	0	0	0	0	0	0	0	0	0	0	0	0	0	1	0	1	0	0	0	0	0	3	0	0	0	0	0	0	0	0	0	0	0	13	0	0	85	0
OTU 159	7	393	0	1	7	0	11	0	61	55	30	4	77	7	2	8	1	1	48	78	14	51	0	19	30	12	17	7	2	0	9	19	45	1	147	24	2	5	0	17	2	0	15	0	1	1	0	122	0	6
OTU 160	257	30	103	349	100	25	107	28	94	29	21	13	219	77	97	151	114	33	136	673	275	69	201	175	15	46	64	364	44	168	338	161	82	59	169	76	84	369	789	54	24	11	28	530	60	251	119	327	93	388
OTU 161	25	17	2236	51	14	82	8	55	6	2	16	0	12	1	8	0	0	8	41	31	7	63	5	18	136	134	14	9	15	101	4	2	1	4	45	0	0	10	2	2	93	0	0	17	5	2	23	1	10	25
OTU 162	9	25	70	0	435	26	315	4	60	94	46	31	19	30	73	2	5	14	34	32	0	11	8	841	73	11	9	157	4	6	17	87	89	422	3	253	9	28	121	9	10	7	2	685	9	11	14	11	16	0
OTU 163	0	0	0	0	0	0	0	0	0	0	0	0	1	0	0	0	1	5	0	0	0	0	1	0	0	0	0	0	0	151	0	0	0	0	0	0	0	15	0	0	0	0	0	0	0	0	0	0	0	9
OTU 164	0	61	0	0	0	0	0	0	0	0	1	0	0	0	2	0	17	0	0	0	3	0	0	0	0	0	0	50	0	0	0	0	0	0	0	1	0	0	0	20	0	7	27	0	0	1	0	0	0	0
OTU 165	91	8	420	39	5	23	10	19	0	31	725	10	43	11	0	4	1	2	7	4	12	8	12	16	7	0	8	44	36	0	7	0	1118	2	55	2	12	11	41	4	22	22	0	2	5	0	28	0	42	0
OTU 166	0	0	3	0	0	0	0	11	0	0	0	0	0	0	0	0	0	0	0	0	0	0	0	0	0	4	0	0	0	0	0	0	0	0	0	0	0	0	0	0	0	0	0	0	0	0	0	0	4	0
OTU 167	3	15	0	7	6	36	16	14	0	14	0	4	5	0	18	0	8	1	11	0	0	174	3	5	5	48	1	0	6	22	2	14	82	2	36	57	57	1	3	7	41	23	0	1	2	2	0	1	16	2
OTU 168	25	65	1	24	9	4	3	17	13	26	12	9	48	13	148	3	5	65	4	3	25	8	4	19	68	49	1	12	0	11	76	12	24	1	15	0	4	10	26	6	29	7	3	4	24	6	37	5	14	26
OTU 169	4	0	0	13	0	0	0	1	0	0	1	0	0	9	0	0	0	0	0	0	7	0	0	0	0	0	0	4	0	0	0	8	0	0	0	0	0	0	0	0	11	0	1	0	0	0	0	0	0	0
OTU 170	0	0	0	0	0	0	0	0	0	0	1	0	0	0	0	0	0	0	0	0	0	0	0	0	0	0	0	0	0	21	0	0	0	0	0	0	0	0	0	0	0	0	0	0	0	0	0	0	0	0
OTU 171	0	42	14	2	6	118	0	99	8	18	69	21	218	21	30	0	2	71	150	0	0	16	7	15	1	34	4	10	0	15	3	23	37	18	3	12	3	7	56	5	0	0	1	5	19	14	2	3	0	22
OTU 172	2	0	3	0	5	0	4	1	6	0	0	0	0	0	0	0	0	0	0	0	0	0	3	14	0	0	7	1	119	10	0	9	7	0	0	0	0	4	2	1	0	14	0	0	8	0	0	6	1	0
OTU 173	33	15	0	0	1	0	0	0	18	97	0	18	112	94	15	0	39	44	0	0	3	0	7	1	21	3	261	91	2	48	2	29	2	6	0	8	1	11	2	1	80	0	0	0	12	0	4	55	0	0
OTU 174	0	0	10	24	7	29	2	11	30	2	14	605	21	20	10	0	23	15	7	7	1	41	13	12	6	2	15	120	52	11	2	2	0	10	1	3	23	31	7	1	28	0	8	0	10	29	4	10	3	2
OTU 175	3	0	2	3	11	16	3	1	23	24	0	16	82	87	0	2	5	9	11	14	0	179	8	16	3	0	33	5	0	21	36	8	21	0	4	0	19	11	8	19	4	0	2	1	4	0	0	10	3	0
OTU 176	123	38	10	28	20	10	7	0	48	0	3	2	55	44	8	0	11	9	34	169	8	40	1	41	56	26	13	3	10	2	117	46	183	0	6	3	61	3	36	27	0	447	38	32	0	12	5	60	166	9
OTU 177	35	5	3	0	7	23	18	21	54	12	8	4	2	1	30	2	39	35	19	10	1	32	15	25	4	2	24	175	27	65	30	2	60	13	15	3	9	3	10	1	13	21	0	507	4	6	2	58	60	0
OTU 178	0	38	9	48	0	0	0	1	3	44	23	18	4	32	2	3	17	14	7	11	0	40	0	0	56	13	0	20	1872	4	61	88	0	1	14	0	8	0	12	5	15	6	15	0	37	3	18	156	0	5
OTU 179	1	144	3	40	0	1	0	0	0	0	1	0	3	1	0	5	32	2679	1	479	9	10	4	2	0	268	0	0	9	57	0	915	1	1	1	1	0	23	3	6	1	21	3	0	17	0	61	43	104	2
OTU 180	100	40	79	957	0	16	2	12	1360	98	20	87	188	112	46	387	113	217	75	88	690	233	46	0	129	68	626	143	83	201	16	15	26	3523	412	41	45	108	2055	37	79	180	958	503	261	588	449	79	56	1212
OTU 181	0	11	13	47	30	44	15	7	30	0	1	0	0	5	3	4	18	30	5	59	2	8	16	87	104	48	22	323	16	10	10	99	6	9	41	40	0	36	13	57	10	94	61	380	0	2	0	8	409	7
OTU 182	0	0	0	0	0	2	0	0	0	0	2	0	0	0	9	0	0	0	0	0	0	0	0	0	0	0	0	5	0	0	1	0	0	0	0	0	0	0	0	0	0	0	0	0	0	0	1	0	0	0
OTU 183	0	23	38	28	27	11	94	0	42	12	19	17	2	1	0	1	15	6	0	9	17	1	6	67	6	112	1	32	17	10	0	25	90	40	4	62	2	5	0	3	5	3	6	34	0	72	0	84	31	15
OTU 184	7	31	1	38	6	0	29	11	0	10	0	0	17	0	5	1	2	9	0	37	0	35	13	16	110	2	1	2	18	78	4	10	4	32	15	0	0	22	0	0	35	7	0	0	38	7	0	85	13	10
OTU 185	65	0	20	46	15	402	11	234	237	21	6	19	35	236	18	31	2	31	8	17	14	71	2	31	63	11	178	62	161	25	10	5	60	5	135	9	268	0	102	14	17	4	1	6	290	95	5	42	25	62
OTU 186	339	15	0	1	0	0	0	1	6	0	0	4	0	0	17	2	0	3	3	0	0	3	0	1	2	2	0	4	1	1	6	0	0	2	0	0	12	0	29	0	41	7	0	0	0	9	3	1	0	0
OTU 187	17	38	72	49	33	37	39	22	49	8	97	13	237	8	25	8	84	100	125	14	4	154	45	57	36	20	54	41	8	28	147	55	105	28	4	4	4	87	1	79	26	63	93	134	12	91	67	156	220	46
OTU 188	19	94	18	55	42	135	41	58	15	194	5	68	29	34	26	15	24	1	117	39	46	121	0	94	86	247	33	13	76	23	112	89	104	36	144	22	1	11	6	0	404	28	7	1	0	39	4	783	128	16
OTU 189	51	76	22	28	18	53	41	66	10	1294	26	659	20	34	2	1	226	66	37	15	4	68	27	52	190	12	6	24	60	11	69	15	102	92	44	17	19	79	8	66	67	45	21	16	11	33	13	14	9	14
OTU 190	1	0	0	2	0	0	2	0	0	17	24	0	0	1	18	0	0	0	0	0	0	0	11	0	0	8	0	0	0	7	41	28	0	0	1	0	0	14	0	0	0	0	0	0	1392	0	1	8	2	0
OTU 191	284	31	121	0	86	12	58	8	8	3	3	4	21	109	54	0	3	77	17	30	0	723	0	132	281	7	10	112	10	17	35	13	12	15	1	12	4	6	3	10	5	113	36	23	5	1	18	14	137	2
OTU 192	52	58	38	39	63	1	57	6	18	55	29	19	190	6	106	12	1217	43	60	230	11	26	30	141	38	17	5	66	6	71	151	8	96	39	838	5	75	63	2	897	49	311	430	0	74	782	14	2	500	41
OTU 193	2	0	49	56	3	1842	1	815	0	14	14	18	28	34	5	11	66	7	18	27	19	5	278	7	9	3	6	36	991	21	23	9	15	5	51	1	13	508	0	22	52	16	19	13	6	46	26	5	102	12
OTU 194	1	0	30	2	8	3	4	1	0	10	8	4	0	0	0	0	32	1	0	0	8	7	0	16	39	0	0	17	13	0	11	0	10	6	1	0	13	1	11	129	5	82	73	1	3	1	3	0	30	5
OTU 195	84	72	34	9	14	11	17	2	1	1	17	2	10	104	1	27	0	5	6	128	2	4	0	31	0	2	0	9	1	100	7	59	19	31	7	1	25	0	14	4	0	0	243	2	0	13	0	11	18	10
OTU 196	19	29	38	2	1	41	0	0	0	51	10	10	4	29	2	0	5	34	66	16	0	15	0	3	25	3	1	6	2	5	69	0	41	6	12	3	3	0	1	1	11	5	1	22	1	5	20	2	0	5
OTU 197	28	142	93	72	44	8	36	21	6	51	32	96	203	79	45	3	188	1	625	7	5	31	35	88	141	36	15	67	67	170	89	14	188	38	42	23	87	47	121	115	45	12	67	225	0	19	3	24	65	13
OTU 198	0	1	0	65	14	42	0	0	5	47	1	15	9	0	0	0	0	0	0	1	0	5	1	40	12	12	0	0	14	3	5	0	0	39	0	0	0	2	0	0	77	1	0	27	3	0	20	5	7	6
OTU 199	20	0	8	21	3	0	0	1	0	21	10	14	5	23	11	1	21	6	0	0	3	78	0	6	54	0	1	4	0	23	40	6	4	0	75	2	6	0	16	7	5	0	3	7	8	3	6	43	1	17
OTU 200	50	0	1	59	91	4	29	2	0	0	0	1	50	0	120	1	5	0	8	3	2	1	1	158	14	1	1	186	0	11	15	65	64	47	92	21	5	1	56	1	7	30	1	1730	2	1	13	0	144	5
