	Host 1	Host 2	Host 3	Host 4	Host 5	Host 6	Host 7	Host 8	Host 9	Host 10	Host 11	Host 12	Host 13	Host 14	Host 15	Host 16	Host 17	Host 18	Host 19	Host 20	Host 21	Host 22	Host 23	Host 24	Host 25	Host 26	Host 27	Host 28	Host 29	Host 30	Host 31	Host 32	Host 33	Host 34	Host 35	Host 36	Host 37	Host 38	Host 39	Host 40	Host 41	Host 42	Host 43	Host 44	Host 45	Host 46	Host 47	Host 48	Host 49	Host 50	
OTU 1	125	248	123	102	95	32	48	50	89	262	14	246	178	30	409	1	83	261	0	0	72	149	69	146	0	103	53	15	89	147	84	63	64	5	2	20	10	96	141	65	550	9	38	78	0	153	96	16	41	3
OTU 2	9	1	34	4	3	9	0	51	1	2	0	1	3	4	21	1	0	2	1	24	0	0	4	14	3	1	1	0	9	15	0	49	1	0	5	7	36	0	0	23	1	13	1	12	16	48	0	2	0	0
OTU 3	0	0	9	0	0	0	2	4	6	0	29	6	10	0	14	15	0	0	5	45	0	0	2	2	0	2	13	0	2	0	1	0	17	5	0	0	31	4	0	2	0	0	0	8	8	38	21	11	0	22
OTU 4	0	0	0	0	0	0	0	0	0	2	0	0	0	0	0	0	9	0	0	0	0	0	0	0	0	0	0	0	0	0	0	12	0	0	0	0	0	0	0	0	0	0	0	0	0	0	0	0	0	0
OTU 5	106	297	59	138	536	183	215	1159	70	399	349	391	115	47	253	290	15	407	280	80	249	520	25	494	45	410	9	166	674	1162	196	154	170	382	916	228	26	13	138	1052	845	430	332	50	139	182	1152	21	8	131
OTU 6	20	55	0	0	15	156	50	5	6	114	73	9	25	27	55	28	45	5	131	1	84	113	0	37	30	5	55	19	29	42	29	43	3	2	2	17	23	0	32	17	9	4	141	3	102	23	13	147	63	9
OTU 7	54	53	71	44	8	291	27	29	48	43	174	32	19	43	20	92	61	8	104	9	6	2	23	10	120	26	251	27	9	44	11	192	62	88	104	16	12	34	15	39	17	21	1	77	103	107	952	2279	122	129
OTU 8	67	16	26	19	14	11	89	50	36	48	17	8	32	18	10	53	140	6	23	23	2	1	3	14	83	162	69	42	54	4	32	412	111	272	16	28	356	32	21	13	15	19	118	111	23	439	18	51	175	428
OTU 9	16	3	1	177	0	45	10	0	0	24	0	90	7	0	0	41	16	30	16	0	1	1	0	2	14	14	110	0	21	4	0	0	3	0	14	0	0	52	1	102	59	9	0	2	0	2	0	43	27	11
OTU 10	0	6	67	0	0	24	33	14	4	52	0	0	3	4	0	1	0	0	0	0	0	1	0	1	0	1	1	0	15	17	4	1	55	6	14	0	0	0	0	5	0	0	5	14	4	1	0	2	220	0
OTU 11	3	55	55	124	1	19	1	73	10	10	77	29	1	3	6	1	53	6	29	76	1	2	31	13	9	1	11	0	5	18	2	52	74	79	10	61	34	207	12	40	10	22	0	1	192	8	103	94	39	3700
OTU 12	41	13	33	12	3	20	55	26	10	12	59	43	32	165	28	2	43	3	126	66	22	15	3	34	29	28	48	27	6	7	17	110	3	84	57	5	190	1	9	8	9	37	34	24	87	85	25	28	70	5
OTU 13	0	15	0	0	0	0	0	0	0	0	0	1	0	0	0	0	0	0	0	2	0	2	17	0	0	0	0	0	0	0	0	1	0	0	0	0	0	1	48	0	0	0	0	0	0	0	3	0	0	6
OTU 14	0	1	18	4	1	2	0	7	10	0	0	64	0	35	21	8	1	2	2	9	1	0	10	23	2	5	100	4	1	0	1	2	161	0	2	14	48	1	0	99	5	1	1	0	0	6	55	234	55	16
OTU 15	0	0	1	0	0	0	4	0	0	0	0	0	0	0	0	0	0	0	0	0	0	0	0	3	7	0	0	0	0	0	0	0	0	0	0	0	5	3	1	0	0	0	0	22	3	0	0	1	0	0
OTU 16	0	0	0	0	0	0	0	5	0	0	0	0	0	1	0	0	0	0	0	0	0	0	0	0	0	0	0	0	0	0	0	0	1	0	0	0	0	0	0	0	0	0	0	0	0	0	1	0	0	0
OTU 17	29	11	0	1	2	28	8	120	0	132	0	535	4	136	148	0	17	542	2	22	8	9	13	38	0	1	35	14	57	707	2	0	75	12	0	0	0	2	1	39	1085	0	25	0	162	22	38	42	47	4
OTU 18	15	37	10	38	41	84	15	40	12	190	91	12	10	23	166	68	16	19	7	8	8	9	10	70	122	4	101	102	433	15	17	14	20	163	132	28	88	52	26	74	23	1	66	22	24	164	20	57	54	61
OTU 19	7	0	0	0	0	0	0	0	0	0	0	0	0	0	0	0	0	0	0	0	0	0	0	0	0	0	0	0	0	0	0	0	0	0	0	0	0	0	0	0	0	0	0	0	0	0	0	0	0	0
OTU 20	38	1020	410	29	13	28	1	36	91	69	20	14	27	99	6	9	88	7	27	265	15	31	155	7	88	7	3	4	36	41	23	12	23	91	4	0	39	24	458	21	10	2	80	242	102	16	15	992	66	81
OTU 21	12	44	25	113	2	3	30	25	40	3	33	45	5	14	4	2	4	9	2	19	2	1	35	4	20	4	3	5	54	33	1	38	29	129	35	98	55	94	10	16	14	13	1	33	54	79	19	13	5	182
OTU 22	15	35	14	14	0	0	4	74	0	101	49	0	0	16	37	24	12	49	92	9	10	16	0	25	491	15	64	16	11	2	0	0	1	64	0	0	0	180	20	156	98	0	4	13	9	19	45	2	34	32
OTU 23	0	28	2	0	0	17	12	18	15	13	6	0	14	0	0	8	0	30	26	0	22	56	1	10	0	7	0	19	5	8	9	2	0	63	27	2	1	6	16	29	45	68	28	11	0	45	1	16	119	77
OTU 24	4	67	1	21	6	0	0	0	8	13	0	0	5	145	3	0	15	14	44	0	5	1	1	0	9	4	1	3	6	1	0	7	0	21	53	87	30	240	53	0	30	102	2	23	12	33	1	64	180	19
OTU 25	0	0	0	0	0	0	0	0	0	1	0	0	0	0	0	0	0	0	0	0	0	0	0	0	0	0	0	0	0	0	0	0	0	1	0	0	1	0	0	0	0	6	9	0	0	0	0	0	1	0
OTU 26	39	0	34	4	19	18	1	0	0	0	15	0	0	0	26	18	2	0	2	0	0	0	21	8	0	0	22	2	0	0	1	0	0	0	0	0	0	47	0	0	0	0	0	2	1	11	0	0	1	1
OTU 27	1	0	0	0	5	0	4	13	0	0	0	0	7	0	29	0	0	0	0	2	0	0	1	20	0	3	0	3	2	29	16	0	0	0	0	0	0	0	0	0	0	4	0	0	47	0	0	0	0	0
OTU 28	174	32	79	2	84	11	16	2	91	46	38	663	34	4	232	23	10	6	7	31	1754	34	23	208	60	11	24	47	18	7	21	8	126	53	94	6	49	36	18	43	11	18	93	96	4	1	30	1	29	43
OTU 29	84	12	8	95	1	3	5	2	48	46	63	19	22	0	12	44	0	4	90	3	6	46	5	4	77	18	74	2	35	8	15	57	75	136	27	20	2149	34	6	9	13	19	25	6	112	110	39	59	21	3
OTU 30	0	0	0	0	0	0	0	0	0	0	0	0	0	1	0	0	0	6	0	0	0	0	0	0	0	0	0	0	0	0	0	0	0	0	0	0	0	0	0	0	10	0	7	0	0	0	0	0	0	0
OTU 31	0	0	90	24	8	1	0	10	26	0	11	12	3	7	1	0	27	4	31	1	0	0	54	31	172	0	0	16	0	1	6	10	0	1	0	0	0	0	0	7	5	0	0	7	2	123	2	11	98	5
OTU 32	6	7	2	25	2069	10	1	11	4	10	30	73	26	228	14	38	55	4	5	708	20	41	9	3984	87	53	119	74	1	22	22	31	35	26	119	10	16	138	9	206	12	35	28	78	1	17	56	11	9	195
OTU 33	0	0	0	0	0	0	0	0	0	0	0	0	0	0	0	0	0	0	0	0	0	0	1	1	7	2	0	0	0	0	0	0	0	0	23	0	0	1	0	0	1	0	0	0	0	0	0	0	0	2
OTU 34	23	14	5	0	13	4	26	22	6	19	61	94	17	34	27	12	27	0	9	1	8	30	237	20	20	93	37	1	39	57	13	36	7	51	67	972	31	35	13	21	0	0	10	2	39	9	2	27	1	8
OTU 35	3	17	26	32	7	3	11	1	46	40	3	10	28	40	14	3	16	16	1856	32	3	1	13	0	112	167	17	85	37	25	21	133	4	77	40	0	108	1	9	0	30	6	33	24	145	5	12	38	44	17
OTU 36	9	132	6	5	3	0	4	24	1	54	16	14	1	53	3	0	53	0	3	0	15	9	21	0	94	4	26	39	12	0	2	2	65	120	4	7	97	0	67	59	1	717	2	26	3	48	45	7	13	8
OTU 37	0	0	1	0	0	0	0	21	7	0	0	0	0	63	2	0	64	0	0	0	8	35	14	0	18	127	4	2	0	0	0	49	0	115	0	0	35	22	0	3	1	0	0	2	15	14	175	25	0	0
OTU 38	19	11	59	105	10	120	0	23	30	63	2	45	15	63	4	0	2	27	22	7	44	102	11	0	51	5	8	2	22	4	7	31	199	0	47	369	4	56	5	27	60	382	197	19	33	2	14	4	183	0
OTU 39	1	15	1	5	0	9	2	0	0	2	11	1	1	64	0	0	0	0	1	0	2	0	0	0	1	23	15	0	1	10	0	2	0	0	0	8	0	0	9	4	0	3	0	35	21	46	36	0	2	0
OTU 40	123	10	8	12	1488	75	73	53	3	66	5	9	2	308	24	40	148	3	48	21	21	40	0	26	30	13	55	179	50	10	7	14	95	43	12	4	18	81	11	158	1	8	193	18	81	142	5	45	11	0
OTU 41	4	44	6	12	1	46	0	21	4	37	37	0	7	14	26	3	1	3	2	80	6	23	0	4	26	6	0	17	3	20	7	6	13	103	3	15	5	35	49	0	9	3	2	31	30	41	0	7	0	39
OTU 42	25	0	141	0	18	0	7	1	15	0	0	0	0	1	26	18	0	0	0	38	1	0	0	4	0	0	41	11	0	0	0	0	0	7	1	0	0	9	0	0	0	0	58	0	1	0	0	14	25	0
OTU 43	0	0	0	0	0	0	0	0	0	0	0	0	0	0	0	19	0	0	42	0	0	0	0	8	0	0	104	0	1	32	0	0	0	0	1	0	0	0	0	1	0	0	0	0	0	0	0	0	0	0
OTU 44	0	0	6	4	0	85	0	5	0	0	129	10	4	9	4	1	0	0	0	1	4	3	0	0	0	0	4	17	0	0	0	0	3	45	9	0	0	0	0	0	1	1	21	1	0	0	11	16	0	1
OTU 45	813	12	27	32	463	20	30	15	82	51	9	20	565	78	1708	20	59	1	12	32	39	9	51	774	25	31	60	25	17	26	322	24	47	10	28	12	6	36	1	14	2	39	43	62	17	4	10	40	69	9
OTU 46	3	115	7	681	15	9	5	105	3	89	124	42	5	6	9	75	0	5	52	12	132	250	25	35	23	17	100	50	31	13	3398	9	17	27	6	1823	0	0	65	35	15	2072	4	6	38	41	85	9	102	26
OTU 47	30	14	0	2	2	0	0	0	0	0	87	19	25	2	1	54	9	0	0	10	8	14	0	0	0	40	113	0	0	0	25	4	103	0	9	0	0	0	6	0	1	2	18	0	0	7	1	5	0	0
OTU 48	30	127	48	2411	46	50	2299	3	5	28	27	6	8	14	108	58	10	2	93	35	36	17	1	51	46	30	108	67	48	25	1	41	3	97	40	48	10	120	86	101	8	22	3	15	62	12	9	27	50	0
OTU 49	99	0	0	0	13	15	9	7	1	1	26	0	21	78	39	24	50	0	7	1	10	20	0	35	87	1	9	40	12	16	8	0	17	0	41	13	40	8	3	873	0	1	0	1	76	7	339	11	15	49
OTU 50	51	7	26	7	10	3	16	4	1	34	29	11	28	27	90	7	8	0	34	26	16	29	5	116	64	13	23	29	12	0	16	2	10	42	103	27	4	24	3616	102	0	20	15	45	8	22	103	48	265	0
OTU 51	0	7	19	0	11	11	0	2	5	24	74	2	5	81	11	120	4	10	16	229	16	71	0	0	84	50	161	8	18	19	1	105	0	63	5	1507	83	68	7	71	21	0	44	26	105	22	71	0	80	7
OTU 52	18	162	91	542	38	18	85	15	32	32	260	16	8	50	59	66	39	31	9	28	1	1	17	62	109	249	138	79	44	47	3	321	99	68	757	304	107	1019	84	25	80	188	8	8	160	140	70	259	71	5
OTU 53	0	0	0	0	0	0	0	2	0	0	1	0	0	0	0	0	0	0	0	0	0	0	0	0	0	1	16	0	0	0	0	0	1	0	0	0	0	0	1	5	0	2	0	14	1	0	0	0	0	0
OTU 54	447	96	118	38	22	3508	30	16	44	87	17	81	1612	916	34	0	323	22	3	4	3	24	3	24	78	49	2	32	37	17	871	51	3	211	20	26	73	138	39	99	35	102	29	2	596	0	23	30	69	31
OTU 55	26	0	0	0	0	0	0	0	0	3	44	0	0	0	0	0	0	0	0	0	0	0	0	0	0	0	0	0	22	0	0	0	0	5	0	0	27	0	0	0	0	0	0	0	0	139	0	0	0	0
OTU 56	1	1	1	0	11	0	0	5	1	4	19	0	15	1	65	0	5	0	4	25	0	0	24	9	0	2	0	2	5	15	12	5	30	7	69	41	7	109	0	0	1	20	1	3	3	6	0	0	2	3
OTU 57	46	18	139	16	23	28	5	424	114	1325	47	370	42	255	128	147	123	288	120	63	170	301	62	59	21	54	344	980	613	440	15	137	169	34	4	27	120	87	15	89	579	34	48	74	92	160	14	257	285	6
OTU 58	22	2	51	0	9	671	0	0	20	7	15	0	0	40	33	3	55	20	1026	15	0	9	10	8	1	8	0	0	19	0	0	7	0	227	2	1	1	49	0	146	63	9	1305	14	1	1	266	17	0	6
OTU 59	38	47	0	19	33	5	2	26	3	14	0	3	0	19	84	4	1	121	32	38	26	41	0	88	30	3	0	18	6	4	0	0	21	1	33	18	3	26	23	9	210	35	0	1	5	5	6	62	2	12
OTU 60	5	52	29	81	8	4	12	50	60	97	3	70	9	257	48	17	85	21	11	107	69	73	42	65	20	3	9	3	50	8	1	8	45	74	14	19	15	107	20	28	52	19	42	34	41	41	94	22	106	29
OTU 61	60	60	3	109	27	60	3	14	6	0	59	7	96	162	122	20	117	43	42	178	6	9	4	26	5	12	39	56	42	81	31	14	44	1	119	67	35	267	21	85	80	30	95	144	164	76	22	20	51	3
OTU 62	2	8	34	0	0	3	0	4	44	8	0	0	12	36	2	15	16	2	0	0	56	91	8	1	0	12	41	1234	0	8	6	1	1	2	0	0	2	1	18	0	9	0	0	13	4	13	0	9	0	15
OTU 63	22	71	5	1	0	5	9	29	23	3	13	8	0	130	0	6	61	0	25	1	0	0	4186	0	37	0	0	0	11	1	0	15	167	0	22	0	22	28	35	0	1	0	0	88	0	7	0	10	186	15
OTU 64	141	41	15	146	60	24	718	7	47	22	14	28	113	45	132	149	23	7	37	4	14	39	29	29	51	100	381	1	18	53	52	26	174	69	63	79	36	182	1	301	20	141	37	31	2105	2	175	0	33	277
OTU 65	0	0	0	2	0	0	0	0	0	1	0	0	0	15	0	29	0	0	0	0	3	1	1	0	0	0	128	0	0	0	0	4	8	0	0	0	0	0	0	0	0	0	20	0	0	0	0	0	0	6
OTU 66	58	28	41	32	23	8	21	31	2776	17	3	32	17	172	71	34	69	17	32	11	2	6	1378	34	26	9	24	0	8	15	8	5	26	91	30	10	10	46	25	89	43	5	0	25	107	36	16	9	6	6
OTU 67	14	28	34	35	0	18	19	4	16	0	1	28	11	111	2	63	88	1	19	38	2	0	1	4	0	8	221	4	1	0	10	68	3	7	2	4	28	25	8	130	3	41	38	40	34	0	14	16	51	1
OTU 68	1	15	41	3	0	7	28	26	16	6	0	608	1	0	25	0	24	756	65	24	1	1	4	5	2	19	0	39	8	805	2	31	0	0	0	2	0	1	7	28	1405	7	2	0	16	38	0	0	13	0
OTU 69	4	1	102	503	2	11	24	13	8	2	121	0	1	9	20	3	13	0	16	9	0	6	10	4	60	42	29	3	0	49	1	249	0	62	432	271	27	1018	4	236	0	169	13	4	13	76	93	55	41	0
OTU 70	43	0	4	100	20	6	14	232	0	618	5	62	8	4	68	1	4	21	0	5	43	99	8	37	11	160	55	299	287	65	6	18	0	10	55	46	11	230	542	58	58	28	0	5	0	39	2	37	2	1
OTU 71	0	5	0	13	843	26	20	0	2	5	43	1	36	69	1	0	79	0	0	31	6	3	8	1	4	82	1	2113	3	3	12	55	8	18	0	8	0	61	17	125	3	23	1	1	3	76	5	2	56	0
OTU 72	27	52	16	11	1	4	11	0	13	0	16	31	0	150	9	0	6	0	126	51	8	20	51	5	79	481	1	44	3	54	2	23	100	0	60	10	40	10	24	59	1	25	0	27	4	27	1	55	3	5
OTU 73	7	45	2	37	4	9	6	198	1	70	1	30	36	168	82	2	102	31	29	47	5	19	1	0	55	9	26	1	26	14	37	38	7	1	15	2	974	36	35	0	58	7	46	31	39	1980	4	49	8	18
OTU 74	123	29	41	50	0	54	20	12	3	79	8	30	8	87	5	1	18	41	1	20	52	40	17	16	81	11	2	7	11	593	13	28	114	9	8	4	28	0	2	124	71	23	96	18	31	3	15	148	40	9
OTU 75	21	6	8	2	2	49	58	589	1	927	16	365	8	3	1	3	10	285	3	7	400	940	3	0	45	3	3	275	741	453	6	81	16	42	31	10	6	27	10	131	581	9	0	18	103	17	53	8	2	28
OTU 76	6	7	1	0	0	5	0	10	0	0	9	11	0	8	0	2	0	0	0	116	1	0	1	2	0	4	4	0	7	0	2	0	3	17	0	1	39	0	0	2	0	17	6	52	32	0	6	0	4	0
OTU 77	9	3	32	10	3	1	1092	108	0	136	90	69	4	33	4	11	11	63	1	0	27	35	43	0	9	6	1	0	72	5	0	5	0	3	96	28	120	5	1	8	127	1	15	0	10	146	77	25	56	73
OTU 78	16	241	180	5	44	0	25	21	9	103	290	97	116	63	73	65	45	14	25	45	45	39	75	55	19	4	139	68	81	18	49	73	55	55	7	15	74	56	124	2	34	7	25	20	43	12	74	143	2	68
OTU 79	126	153	30	71	88	173	35	131	16	144	97	105	92	366	101	80	262	4854	96	68	62	100	14	284	103	45	182	88	54	37	34	48	49	176	33	23	106	5	108	150	105	67	309	266	139	87	26	44	378	136
OTU 80	24	37	2	9	6	2	4	11	18	36	43	1	4026	126	14	33	58	18	1	33	56	81	28	6	150	20	4	30	3	14	1969	10	13	87	20	4	105	27	15	102	42	1	34	64	3	58	60	7	4	42
OTU 81	33	7	49	51	12	2	143	42	3	3	30	16	28	361	2	12	317	3	64	14	0	15	9	5	104	56	17	92	5	3	554	156	34	81	154	14	23	71	1	57	8	46	78	21	20	5	170	40	171	63
OTU 82	58	62	45	134	89	0	0	40	7	0	82	62	0	7	148	256	18	12	18	14	6	3	0	93	4	18	471	4	2	1	0	3	3	14	80	8	8	201	34	2	37	0	49	3	39	12	1	5	10	78
OTU 83	2	2	0	0	2	0	23	0	1	2	1	8	0	35	1	0	42	4	2	0	5	49	2	0	0	0	0	0	0	0	0	0	88	1	0	0	2	0	0	0	10	0	2	0	1	0	3	94	6	1
OTU 84	2	19	51	95	107	19	37	1	27	1	138	11	127	84	84	4	96	0	8	6	0	8	1	197	1	62	26	0	0	7	40	5	20	1	13	32	0	71	15	27	1	17	9	0	1	97	30	10	94	5
OTU 85	0	0	0	0	0	6	0	3	2	3	0	8	0	4	0	31	7	8	0	1	0	6	0	0	1	0	43	54	0	3	0	15	0	0	0	0	1	0	1	2	14	0	0	1	0	2	3	0	0	55
OTU 86	0	0	0	0	0	12	0	0	0	0	0	0	0	0	25	0	0	0	0	0	0	6	0	4	0	0	0	0	0	2	0	0	0	0	0	0	0	0	0	0	0	0	0	0	0	0	0	0	0	0
OTU 87	7	0	0	1	1	2	1	151	0	39	12	0	0	0	0	0	0	0	12	1	0	1	0	0	2	1	37	9	20	1	0	2	5	0	61	0	0	49	0	0	0	0	17	30	2	3	0	0	0	110
OTU 88	16	0	4	12	0	1	2	1	0	0	32	0	0	3	0	0	6	0	0	0	0	0	0	0	1	13	0	0	1	1	0	18	5	10	0	13	0	3	0	0	0	0	0	2	8	0	2	5	103	0
OTU 89	1481	26	18	5	9	0	1	2	0	4	34	0	0	0	9	42	675	29	0	58	2	2	1	17	14	10	133	0	1	2	0	110	1	40	12	10	17	0	11	2	80	3	38	25	5	10	18	0	18	16
OTU 90	0	2	4	0	0	30	1	11	0	5	0	2	21	1	2	0	0	1	0	5	0	0	0	0	0	0	0	0	30	0	6	0	0	0	0	0	0	2	0	0	2	28	0	14	0	1	0	0	0	0
OTU 91	0	0	1	0	0	0	15	5	0	0	0	0	0	0	0	2	9	9	0	0	0	0	0	0	0	0	0	0	0	0	0	0	0	7	0	2	0	1	0	2	20	0	14	0	0	11	0	0	6	0
OTU 92	2	54	7	0	0	28	0	1	0	5	0	0	41	2	0	0	3	2	0	0	1	15	0	0	0	0	2	8	0	6	8	0	6	11	0	0	0	0	29	0	20	0	2	17	0	0	6	2	0	1
OTU 93	0	0	0	0	0	0	15	63	6	111	0	0	0	0	0	0	0	3	1	45	1	0	0	1	0	9	0	1	61	25	0	18	60	0	0	0	1	5	0	0	5	0	0	0	0	0	0	0	32	0
OTU 94	10	66	30	39	2	286	15	3	13	13	56	14	6	26	6	108	4	8	226	76	27	31	5	5	100	7	4	3	13	21	2	30	52	11	1	17	41	76	35	138	24	21	613	34	0	145	85	86	189	0
OTU 95	0	22	3	0	0	0	0	2129	1	3	0	2	0	0	0	0	0	15	0	6	0	3	2	1	1	31	0	0	0	1	4	1	7	2	0	0	3	2	25	2	23	0	2	0	1	36	5	0	3	9
OTU 96	0	0	1	0	0	0	0	0	0	0	0	0	0	0	0	0	0	6	0	0	0	0	0	0	12	0	0	0	0	0	0	0	51	0	1	0	0	0	0	0	24	0	1	1	1	27	1	0	0	0
OTU 97	0	10	18	0	0	0	0	0	1	0	8	267	1	39	0	0	20	0	0	0	0	0	0	0	1	0	1	0	0	0	0	6	0	0	3	0	204	1	0	0	0	0	6	10	18	475	0	0	0	0
OTU 98	23	4	20	2	0	0	10	2	25	0	0	1	0	0	0	2	0	2	25	0	0	0	1	2	0	119	1	9	6	21	2	258	4	73	18	1	0	19	0	0	5	0	19	0	0	0	1	42	14	0
OTU 99	5	41	2	23	6	172	13	3	19	1	6	12	48	95	131	15	109	40	114	79	0	3	15	22	21	63	13	22	8	3	13	233	140	44	44	9	33	30	25	59	65	29	151	47	6	57	7	35	51	12
OTU 100	77	30	15	8	1	22	16	148	0	217	7	11	6	0	3	8	8	59	12	0	26	43	18	1	0	1	0	20	142	37	1	0	45	3	3	38	54	29	0	14	101	0	1	1	2	41	7	0	86	0
OTU 101	37	0	0	0	0	0	0	0	0	5	2	0	0	0	2	0	0	0	0	0	0	0	0	0	4	0	0	0	0	0	0	0	0	0	0	0	0	0	0	0	0	0	0	0	1	0	0	1	0	0
OTU 102	0	7	0	50	0	0	3	1	11	0	1	0	4	44	2	0	25	18	0	3	5	0	2	0	5	2	1	1	3	0	4	7	4	5	5	1	2	15	0	52	34	8	16	4	0	3	16	14	0	0
OTU 103	1	8	0	43	1	1	16	8	13	40	5	61	43	93	1	5	61	0	38	5	1	8	6	0	3	48	0	27	7	75	31	52	30	29	0	17	6	132	0	1	0	5	2	25	12	5	3	0	75	17
OTU 104	34	79	14	17	32	29	248	21	7	27	93	36	66	13	201	12	3	3	7	19	18	61	2	66	32	29	48	135	41	28	33	22	66	27	66	907	17	33	21	139	5	1973	34	13	403	69	987	23	11	10
OTU 105	0	0	24	0	0	0	0	0	0	4	85	5	0	237	4	0	94	3	2	0	0	0	0	0	6	4	0	1	7	0	0	91	2	0	0	1	11	3	0	108	2	0	14	0	0	1	1	0	0	0
OTU 106	0	0	3	0	2	1	1	0	0	6	0	3	0	0	3	2	10	1	0	0	2	13	0	1	2	0	0	1	0	2	0	13	317	0	0	0	0	5	2	4	4	0	0	0	1	5	0	0	23	2
OTU 107	28	16	629	0	20	10	22	54	366	30	0	10	5	1	41	0	0	17	7	153	34	66	167	19	12	64	6	1	9	8	8	52	11	10	0	0	0	2	9	0	27	0	3	305	1	0	3	14	0	42
OTU 108	3	382	31	211	12	0	7	11	0	25	6	0	14	18	19	142	4	0	81	1	0	1	16	31	36	2	51	10	18	13	0	7	112	52	76	53	4	287	195	60	1	123	1	227	0	8	45	76	8	0
OTU 109	0	0	0	0	0	0	0	0	0	0	0	0	0	0	4	0	0	0	0	0	9	2	0	0	0	0	0	0	0	0	0	0	0	0	0	10	0	5	0	0	0	6	0	0	0	0	0	0	0	0
OTU 110	37	66	22	9	12	5	1	24	0	84	34	50	25	32	55	33	12	9	9	40	88	210	7	28	47	26	12	53	23	13	15	21	11	8	29	0	36	3	19	19	31	2	0	0	3	9	1	153	27	42
OTU 111	0	89	85	28	2	0	0	0	18	0	0	0	0	5	0	0	2	0	19	1	0	1	42	0	3	0	0	0	0	0	0	15	0	0	0	0	1	1	18	15	0	0	32	7	0	0	0	0	0	1
OTU 112	4	68	40	27	0	28	6	20	10	7	0	0	31	23	0	1	1	13	207	1	1	0	0	0	4	6	16	1	29	0	25	3	1	1045	15	0	7	42	38	0	24	0	26	5	0	71	16	12	52	0
OTU 113	0	3	0	0	0	0	33	5	0	15	0	0	0	0	0	0	0	1	57	0	23	12	0	1	44	0	0	0	0	0	2	0	17	0	0	5	0	0	0	0	2	1	0	0	0	0	0	0	0	0
OTU 114	35	67	75	85	2	65	38	10	1593	141	51	3	9	45	21	39	60	35	17	2	21	16	638	17	167	9	131	15	89	9	3	46	3	20	50	8	4	33	39	38	75	6	87	27	18	66	10	202	24	58
OTU 115	75	274	77	44	5	20	19	42	125	142	65	23	10	40	62	35	57	16	0	68	13	44	17	50	17	3	38	12	56	77	11	121	165	102	83	169	66	90	123	14	49	68	49	18	695	48	333	133	241	103
OTU 116	57	5	19	5	12	1	236	13	2	88	17	40	19	17	18	16	6	21	0	7	2	10	1	27	194	151	11	14	15	10	9	99	225	5	20	18	62	10	9	7	32	6	41	199	1	18	13	19	73	7
OTU 117	21	0	68	13	2	11	0	9	6	16	16	2	32	7	49	12	2	0	829	9	0	0	5	25	0	1	47	4	5	16	7	0	19	11	11	4	3	4	4	1	2	0	5	20	61	0	15	31	22	0
OTU 118	6	0	14	15	0	11	3	0	0	0	2	3	19	2	2	1	5	2	0	0	0	1	1	0	0	0	5	1	1	0	2	3	0	1	34	23	1	45	0	0	4	4	0	0	37	1	1	0	4	0
OTU 119	16	12	43	55	34	24	11	7	110	8	3	2	25	11	74	2	8	8	57	30	0	4	12	57	243	0	21	32	4	1	7	20	181	65	78	75	38	22	2	55	14	10	2	12	22	3	0	48	81	111
OTU 120	15	57	0	1	0	34	0	2	3	4	0	2	35	0	3	6	0	239	21	0	0	4	18	0	29	0	17	26	0	6	20	0	39	25	10	0	62	0	57	15	4	0	41	0	18	15	9	0	0	1
OTU 121	1649	2	35	9	14	43	0	0	32	9	146	7	0	10	114	0	27	0	2	3	11	26	13	60	8	1	30	43	6	14	1	0	86	184	1345	1	13	11	3	85	0	3	78	17	8	172	7	7	9	42
OTU 122	66	8	11	87	6	90	35	5	1	9	67	65	22	114	2	8	15	2	35	32	20	86	45	7	3	22	0	41	0	1	14	17	40	4	70	125	33	125	314	42	4	75	74	40	23	4	9	17	8	57
OTU 123	76	1527	752	108	2068	100	59	34	449	77	102	37	65	136	92	402	136	2	79	2550	9	23	213	76	58	71	288	129	1321	90	25	90	1287	94	33	53	145	180	1022	50	15	16	103	2645	62	110	126	936	279	239
OTU 124	1	0	0	0	22	0	0	0	3	37	26	19	38	10	49	19	5	4	4	0	10	14	0	21	2	1	0	21	1	1	17	1	66	0	0	0	0	0	0	17	5	0	5	2	9	0	85	21	102	27
OTU 125	421	238	40	88	100	105	306	39	64	199	106	50	106	63	375	93	61	19	128	108	61	158	55	133	466	434	49	145	87	46	69	1075	191	626	69	126	111	187	175	181	51	66	131	67	38	125	105	100	224	142
OTU 126	33	57	0	1	13	0	0	27	0	228	0	25	0	0	124	81	0	68	0	0	130	169	4	134	0	0	43	0	89	89	0	0	9	3	0	1	7	0	58	0	152	0	0	0	0	0	12	7	0	9
OTU 127	38	36	118	39	9	5	114	11	50	23	15	3	26	0	29	3	3	0	8	0	2	4	14	23	131	505	48	0	1	5	12	859	5	0	0	7	1	6	55	9	0	0	8	0	0	2	0	0	39	316
OTU 128	80	872	180	104	59	248	61	77	85	233	239	917	57	200	116	303	90	72	351	61	617	1327	78	37	204	168	479	122	134	57	80	69	1151	97	1344	41	181	82	437	57	128	25	618	128	174	97	79	55	31	203
OTU 129	0	0	6	0	1	15	0	909	1	0	0	1	0	0	0	0	0	0	0	0	0	1	3	2	26	0	15	0	0	0	0	0	10	8	0	0	119	4	0	0	0	2	69	1	0	3	5	8	0	5
OTU 130	15	11	0	77	2	1	21	7	2	85	16	53	14	86	52	0	14	0	46	8	901	1691	0	0	0	41	1	0	21	22	3	58	13	304	0	89	40	53	2	499	1	23	16	5	17	2	141	14	12	78
OTU 131	6	109	84	0	1	65	7	4	26	15	15	1	57	10	34	0	1	5	91	24	1	0	6	14	1971	1	4	2	1	50	19	47	0	21	6	51	26	25	37	183	17	4	122	10	4	21	484	127	59	28
OTU 132	0	34	5	45	5	0	0	0	6	0	74	0	11	0	13	0	1	0	54	1	4	0	0	14	0	11	1	0	0	2	4	1	0	51	55	0	4	35	19	2	0	0	0	0	0	0	0	13	7	1
OTU 133	57	0	2	1	0	28	0	3	0	17	0	22	0	38	0	1	0	0	0	0	0	0	0	1	3	4	4	0	0	0	0	0	37	0	0	6	9	0	0	59	0	3	0	0	0	4	1	5	0	0
OTU 134	3	27	9	2	6	89	2	11	2	10	12	48	0	2	3	62	7	13	5	2	15	13	20	10	145	1	101	13	13	50	0	8	26	2	2	0	5	8	13	28	18	17	20	12	24	82	1	7	0	35
OTU 135	104	22	12	2	2	0	17	5	6	16	7	2	45	31	12	38	0	4	2	26	5	3	6	3	49	22	6	61	5	10	15	47	8	21	156	2	30	0	7	17	15	16	0	54	6	11	1	19	0	37
OTU 136	6	124	19	29	18	5	8	14	1	1	56	0	20	14	0	15	9	0	21	13	39	53	0	0	31	159	42	0	0	2454	4	264	2	11	87	4	30	27	54	1	0	16	12	1	3	0	2	0	15	0
OTU 137	11	0	0	0	1	23	65	42	0	159	2	1	120	5	17	18	9	2	23	13	0	9	0	5	45	193	41	1	55	1	62	605	0	60	0	0	0	40	0	0	4	0	0	65	0	0	2	11	20	52
OTU 138	25	14	9	3	2	2	0	1	0	5	60	0	2	0	7	0	3	1	11	4	7	9	0	26	5	0	0	63	0	0	2	18	40	0	27	39	0	6	0	0	7	4	6	1	0	2	72	29	7	0
OTU 139	397	69	992	28	293	419	6	336	418	266	62	37	234	66	1191	169	3278	106	267	709	19	51	376	542	65	36	336	182	156	45	105	62	72	54	24	17	31	77	34	7	214	4	404	1004	20	24	207	4	445	11
OTU 140	71	120	90	17	76	10	24	29	56	48	141	54	40	646	147	14	199	16	103	77	15	16	40	174	235	65	42	135	33	27	14	5	104	15	15	15	492	39	70	20	33	50	4	71	22	437	50	7	14	25
OTU 141	5	8	0	0	0	0	0	0	0	0	0	2	0	0	0	0	0	3	0	0	0	0	0	0	39	0	0	0	0	0	0	0	0	0	0	0	0	0	0	0	11	0	0	0	3	0	0	1	0	0
OTU 142	0	0	0	0	0	0	0	0	0	0	0	0	0	0	0	1	0	0	0	0	1	4	0	0	65	4	0	0	0	0	0	2	0	0	16	0	18	0	0	0	0	3	2	0	6	38	0	0	0	0
OTU 143	0	0	0	2	0	1	5	0	0	0	10	2	1	4	0	0	0	58	0	0	0	0	14	0	4	0	29	0	0	20	2	9	1	198	2	0	1	0	0	0	106	0	0	3	0	0	14	18	6	78
OTU 144	6	0	0	1	1	0	0	0	5	0	0	4	0	0	1	2	1	2	1	4	0	0	0	7	0	13	0	72	8	6	0	52	8	2	5	1	0	0	0	4	1	9	0	3	0	5	0	10	50	1
OTU 145	32	20	23	125	6	112	8	15	15	53	38	2	18	176	2	2	169	2	32	55	48	64	4	1	43	49	1	46	35	9	6	38	12	29	15	34	27	51	12	9	2	17	97	0	18	23	12	4	13	23
OTU 146	14	4	8	49	23	9	5	4	11	3	2	10	3	60	23	14	5	8	46	6	4	27	3	1	30	8	79	61	22	13	0	8	28	13	11	8	37	56	13	57	17	0	0	2	284	6	232	21	139	19
OTU 147	2	14	1	2	4	1	0	0	0	0	11	0	5	138	1	34	32	1	20	3	2	1	18	0	7	0	33	1	1	0	2	11	141	24	29	2	4	13	8	4	1	0	18	4	0	0	5	16	14	1
OTU 148	0	16	9	170	7	20	17	0	1	22	1	2296	0	63	81	1	90	4	104	23	3	0	6	54	68	74	13	0	3	30	3	38	141	11	72	2	7	174	1	421	21	22	0	19	50	18	238	131	55	6
OTU 149	27	24	29	6	0	1	17	15	8	1	0	15	34	10	5	0	19	21	1	4	0	0	1	18	44	48	0	0	1816	3	18	5	0	12	64	34	8	1	5	2	43	0	2	9	13	0	0	2	10	13
OTU 150	6	0	0	28	1	0	39	17	0	0	0	0	0	1	13	14	0	0	51	0	0	0	0	9	4	2	19	20	0	37	0	1	1	2	69	2	2	57	0	0	0	0	0	5	3	30	6	26	11	0
OTU 151	9	7	18	6	50	2	10	0	4	9	28	4	0	6	45	1	1	4	346	3	1	1	0	16	1	3	0	7	3	0	3	7	340	0	28	51	4	27	4	0	3	1229	0	43	10	3	0	6	0	76
OTU 152	89	27	42	14	86	4	20	40	7	45	23	8	53	92	69	174	40	64	1	6	3	17	0	76	1	15	350	32	11	0	28	21	3	3	138	17	11	21	13	6	116	7	6	3	52	107	0	14	84	14
OTU 153	0	0	0	0	0	0	0	0	0	1	0	0	0	0	0	0	0	0	1	0	9	1	1	0	0	0	0	0	0	0	0	0	0	0	0	0	0	0	0	0	0	0	0	0	1	0	0	31	0	0
OTU 154	10	0	14	738	12	1	5	25	0	0	3	1	0	0	8	0	6	0	0	0	0	0	0	3	4	0	0	2	0	0	0	0	9	8	0	0	0	2	0	0	0	0	2	4	0	0	0	0	195	10
OTU 155	2	1	45	60	0	0	66	14	2	72	83	4	0	89	4	6	26	0	24	47	1	4	0	0	6	0	0	0	6	4	0	0	2	125	101	9	3	263	0	15	0	24	3	8	18	0	0	7	0	6
OTU 156	54	21	11	36	6	2	5	57	45	15	33	14	7	69	22	10	23	6	8	75	16	22	34	6	74	13	54	1	1	33	9	36	120	99	17	105	29	97	3	120	18	160	27	6	31	51	7	0	79	9
OTU 157	42	0	32	0	30	25	0	16	0	0	3	0	48	1	172	4	0	11	1	1	0	0	16	112	111	1	2	1	4	13	23	2	3	0	62	4	0	0	0	0	18	1	0	0	1	0	0	26	483	38
OTU 158	0	0	1	0	0	0	0	0	0	0	6	0	0	1	0	5	0	0	0	1	0	0	0	0	0	0	0	0	0	0	0	0	0	0	0	1	0	0	0	0	0	0	0	4	0	8	0	10	0	0
OTU 159	4	1	59	0	0	14	21	10	33	3	3	0	28	19	27	1046	23	0	8	17	3	14	12	35	53	0	0	28	2	39	12	8	54	5	125	5	25	11	1	49	2	3	13	10	54	25	17	3	10	5
OTU 160	152	303	32	132	15	21	64	31	66	78	241	88	169	63	144	22	11	21	6	86	46	131	35	72	353	196	29	13	35	49	60	622	96	397	169	76	37	93	138	54	36	85	6	132	40	216	118	77	54	155
OTU 161	16	3	4	8	18	18	5	40	0	100	3	13	2	14	21	1	2	16	24	75	3128	34	0	6	53	20	20	130	39	28	0	2	16	36	187	1	9	46	0	12	49	4	35	47	1	35	3	3	1	0
OTU 162	24	5	11	2	6	0	4	98	10	181	1	23	20	28	97	35	3	94	69	3	44	123	2	36	25	9	66	91	123	18	5	26	39	1	25	9	1	34	0	0	182	27	8	85	9	26	2	2	7	47
OTU 163	0	0	0	0	0	0	0	0	0	0	0	0	0	0	0	0	0	0	1	12	0	0	0	0	0	0	2	0	0	0	0	0	0	0	0	0	0	0	0	0	1	0	13	0	0	0	0	0	0	0
OTU 164	0	0	0	0	0	0	0	0	0	0	0	0	0	0	0	2	0	7	0	0	2	13	4	0	0	0	0	0	0	7	0	0	0	0	1	1	0	0	0	0	13	0	0	0	0	0	1	0	0	2
OTU 165	0	0	3	1	10	14	11	0	0	1	1	5	8	77	3	32	33	4	29	0	0	0	0	0	0	19	8	7	0	1	1	27	0	0	1	5	55	0	0	9	7	0	0	36	13	50	64	25	76	38
OTU 166	0	0	0	0	0	0	0	0	0	3	0	0	0	0	0	0	0	0	0	0	0	0	0	0	0	3	0	0	0	4	0	0	0	0	1	9	1	0	0	2	0	9	0	0	0	0	0	0	0	5
OTU 167	1	1	3	3	2	1	0	168	1	139	6	12	13	10	0	0	12	16	0	2	0	0	0	0	10	0	14	3	67	0	7	2	2	53	65	0	8	68	12	1	33	19	1	28	74	2	7	3	4	7
OTU 168	65	15	0	5	61	79	265	10	10	5	3	5	11	5	123	3030	0	20	160	0	9	8	12	41	11	37	24	46	1	9	12	1	73	1	47	6	1	4	3	96	24	0	28	79	6	19	40	151	54	15
OTU 169	3	30	0	0	13	0	0	0	0	0	0	0	0	0	0	0	0	27	6	7	0	0	0	0	0	0	0	0	22	1	0	0	17	3	1	3	0	0	36	0	46	0	89	0	0	4	0	0	0	80
OTU 170	0	0	0	0	0	0	0	0	0	0	7	0	0	0	0	0	0	0	0	0	0	0	0	0	0	0	0	0	0	1	0	1	0	0	0	0	1	0	0	1	0	0	2	1	0	0	9	0	0	0
OTU 171	6	0	262	15	0	8	4	4	126	12	0	8	0	28	2	0	0	0	10	235	4	3	47	2	27	165	35	17	1	16	0	285	17	0	0	1	73	27	2	104	0	6	37	64	6	276	1	1	13	9
OTU 172	3	18	0	0	0	0	0	0	0	0	0	0	0	0	0	2	0	0	0	5	0	0	0	0	2	2	0	0	0	1	0	0	22	20	11	0	0	0	1	0	2	0	4	10	0	0	0	0	1	1
OTU 173	0	2	4	53	5	0	3	22	0	23	1	0	18	7	32	10	0	0	0	12	17	34	0	13	1	77	19	7	0	4	2	198	39	1	1	17	0	34	0	2	0	18	65	0	34	0	2	0	2	51
OTU 174	221	0	4	36	91	0	1953	66	0	37	2	27	178	14	440	1	2	25	25	1	0	0	17	156	3	0	4	87	34	121	90	2	38	5	30	0	0	9	0	7	53	0	1	0	11	5	14	4	118	0
OTU 175	0	0	25	0	0	13	0	0	1	43	35	4	3	7	5	5	1	0	1	7	8	21	0	6	0	1	17	87	7	17	845	11	2	25	0	0	66	0	6	0	0	8	18	27	26	1	0	2	0	6
OTU 176	56	56	19	5	5	87	3	56	0	162	17	1	19	13	2	4	29	6	46	14	409	861	12	8	22	40	43	25	107	27	25	20	21	26	0	13	45	35	31	267	13	12	42	45	62	74	204	69	200	128
OTU 177	12	37	136	31	0	36	35	27	76	32	236	113	41	0	5	47	0	32	80	83	0	0	19	2	12	16	35	4	0	48	7	36	4	1	5	63	53	28	9	19	55	56	0	27	5	7	66	51	22	23
OTU 178	0	4	0	5	0	0	5	3	1	0	2	0	9	82	4	1	80	3	2	20	3	0	22	0	54	4	2	5	2	42	0	32	39	12	1	39	50	0	2	39	1	3	36	2	0	59	0	2	60	16
OTU 179	10	10	5	9	1	20	8	24	1	1	20	4	6	0	0	12	440	10	2	12	0	0	0	0	0	8	0	0	0	2	2	3	194	118	1	0	1	0	1	7	12	0	16	6	61	38	0	1	113	4
OTU 180	90	132	50	109	37	87	32	26	43	14	2265	149	50	89	136	1200	82	3	98	69	10	18	12	59	648	56	1886	24	29	39	36	267	190	157	47	641	293	252	62	155	6	45	330	11	582	158	213	81	348	340
OTU 181	14	38	2	3	11	59	0	0	13	0	98	73	3	6	11	3	0	23	26	30	2	0	3	3	12	3	0	9	0	0	1	6	52	19	0	7	10	1	22	3	42	0	136	0	1	15	0	0	195	0
OTU 182	0	0	45	0	0	0	0	13	0	37	0	0	0	16	0	0	14	0	1	0	0	0	4	0	0	0	4	0	14	0	0	0	0	2	2	0	750	0	1	0	0	0	0	0	0	0	0	37	0	0
OTU 183	33	14	18	7	1	3	2	101	11	116	0	36	0	1	3	1	0	28	25	84	35	47	0	1	12	3503	1	17	38	40	5	14	82	15	0	3	22	1	0	1	40	1	5	1	0	1	122	55	24	12
OTU 184	0	5	5	7	6	125	21	13	2	2	0	0	0	9	0	0	18	0	0	1	0	4	1	10	0	0	3	4	0	5	0	22	5	2	0	0	0	0	1	0	0	2	53	22	25	23	36	78	10	0
OTU 185	6	26	23	33	0	91	26	33	5	22	82	22	0	214	9	25	101	21	17	11	105	159	34	20	96	2	15	634	5	12	0	6	10	89	4	65	38	11	26	22	38	5	292	24	19	144	87	289	17	36
OTU 186	1	6	0	31	4	0	14	0	11	4	24	16	32	14	0	1	2	0	2	0	0	4	1	0	3	0	0	15	0	0	15	0	4	19	28	14	0	61	0	0	0	5	1	5	0	40	3	0	3	1
OTU 187	87	35	28	52	5	75	23	1	99	1	38	6	30	111	24	7	121	6	44	127	5	14	2	8	19	30	42	81	27	30	8	6	132	52	303	28	13	61	3	92	23	24	80	24	26	60	48	29	189	22
OTU 188	8	15	2219	54	9	34	36	1	1179	67	11	141	86	61	69	6	26	16	13	902	32	33	582	27	21	6	9	103	79	24	33	28	4	36	12	10	30	76	28	98	41	26	256	1275	4	25	118	14	140	104
OTU 189	81	77	10	13	35	379	0	40	322	4	141	1	7	61	75	4	19	14	2	29	42	130	156	55	12	0	24	18	0	13	1	39	31	87	13	14	34	51	25	30	35	27	208	163	6	8	48	138	40	103
OTU 190	6	28	15	26	0	220	2	0	0	2	14	1	0	1	0	0	0	0	181	10	21	27	3	0	79	12	1	0	0	0	0	2	0	0	26	16	0	146	10	1	0	30	830	0	0	42	2	1	0	0
OTU 191	50	28	28	16	1	3	6	24	3	46	13	22	6	126	23	133	22	9	220	10	3	42	8	1	5	52	300	0	5	6	0	152	2	888	48	26	27	104	42	5	5	0	59	0	228	37	153	27	5	48
OTU 192	51	77	75	11	7	81	38	329	46	15	155	89	9	10	76	8	30	16	28	73	3	16	52	13	31	43	23	54	3	14	4	27	64	34	25	18	377	43	70	460	38	17	21	0	46	440	61	13	274	19
OTU 193	29	8	3	76	9	54	47	18	6	89	28	10	0	30	4	0	3	40	12	18	13	7	7	4	23	49	1	23	40	11	0	62	9	187	89	27	10	167	8	44	65	77	32	37	0	1	36	0	123	11
OTU 194	4	76	3	92	0	5	3	52	6	32	1	0	0	3	0	26	40	35	1	26	21	45	13	0	0	0	135	0	6	6	0	15	0	0	0	2	11	4	62	1	75	33	30	5	5	45	0	88	1	30
OTU 195	22	2	0	84	4	29	120	2	4	1	34	6	7	20	0	25	3	0	126	33	3	1	1	1	0	17	71	0	786	1	0	33	65	0	0	6	71	15	0	14	4	0	0	6	8	1	0	7	6	16
OTU 196	5	49	15	1	8	8	21	1	14	24	29	102	13	8	1	1	52	234	7	445	0	9	0	0	1	3	1	7	5	387	0	27	53	44	23	51	29	16	26	13	488	113	9	2	1	121	0	48	5	118
OTU 197	69	131	67	67	25	13	13	47	35	15	1280	2	0	184	13	13	87	18	19	22	8	23	26	23	107	22	20	57	5	45	1	83	88	82	12	66	43	153	82	88	59	32	74	27	710	1	86	30	114	69
OTU 198	0	17	110	0	0	0	0	0	66	21	0	3	3	0	0	4	10	4	0	52	11	1	19	0	0	2	1	48	11	0	0	0	8	29	2	4	5	9	5	0	13	4	0	0	0	0	1	90	1	1
OTU 199	1	1	86	2	3	3	0	1	22	13	13	30	1	0	0	10	0	2	5	62	51	56	9	0	8	0	11	37	0	0	0	0	0	1	0	0	16	15	0	0	1	25	126	22	17	0	2	0	27	1
OTU 200	23	71	44	28	26	30	3	41	12	102	0	1	2	3	62	28	0	18	33	6	8	9	5	43	87	0	30	7	31	18	1	3	0	9	2	0	4	113	53	11	40	13	10	228	13	33	2	22	94	8
