	Host 1	Host 2	Host 3	Host 4	Host 5	Host 6	Host 7	Host 8	Host 9	Host 10	Host 11	Host 12	Host 13	Host 14	Host 15	Host 16	Host 17	Host 18	Host 19	Host 20	Host 21	Host 22	Host 23	Host 24	Host 25	Host 26	Host 27	Host 28	Host 29	Host 30	Host 31	Host 32	Host 33	Host 34	Host 35	Host 36	Host 37	Host 38	Host 39	Host 40	Host 41	Host 42	Host 43	Host 44	Host 45	Host 46	Host 47	Host 48	Host 49	Host 50	
OTU 1	0	0	0	0	0	4	1	0	0	2	1	0	0	2	3	0	0	0	0	0	3	2	0	2	0	0	0	3	2	0	0	1	1	4	0	0	0	0	0	0	8	5	1	3	0	2	1	2	2	2
OTU 2	1	0	0	34	0	0	0	0	2	0	1	0	1	0	0	0	0	0	0	0	0	0	0	0	0	0	4	24	2	0	0	1	0	2	3	0	0	0	0	3	0	0	1	0	6	0	0	1	0	0
OTU 3	0	0	0	0	0	0	0	0	0	0	0	0	0	0	0	0	0	0	0	0	0	0	0	0	1	0	0	0	3	0	0	1	0	0	0	0	0	0	1	0	0	0	0	0	3	0	0	0	0	0
OTU 4	0	0	0	0	0	0	0	0	2	0	0	0	0	0	0	0	0	0	0	0	0	0	0	0	0	0	0	0	0	0	0	0	0	0	0	0	0	0	0	0	0	0	0	0	0	0	0	0	0	0
OTU 5	1	0	3	34	2	18	8	5	43	3	15	31	48	7	1	9	49	7	5	2	22	81	6	22	0	9	0	14	0	3	6	5	2	2	13	21	30	39	16	5	2	25	6	2	0	2	5	0	6	1
OTU 6	0	4	0	0	3	0	0	0	0	0	42	0	1	5	2	0	1	0	0	2	5	0	3	2	0	3	0	1	7	0	0	0	1	0	0	3	0	0	73	1	2	0	0	0	1	3	0	2	4	0
OTU 7	6	5	5	0	8	8	9	0	5	6	0	0	8	4	0	0	1	3	2	3	3	1	0	0	0	0	1	2	5	16	1	16	0	8	0	0	3	6	4	3	15	1	9	5	10	0	1	0	10	16
OTU 8	1	9	0	0	1	2	3	2	1	4	0	0	5	2	11	2	1	3	35	4	2	16	0	4	6	3	5	2	2	2	1	0	7	10	0	1	0	6	7	0	6	0	1	0	2	4	4	2	0	2
OTU 9	0	0	0	0	1	0	0	0	0	2	1	0	1	0	1	0	0	2	0	0	0	0	1	4	4	0	0	1	1	0	1	0	0	0	0	0	0	0	0	0	2	5	0	0	0	1	0	0	0	0
OTU 10	0	0	0	0	0	0	7	2	0	0	0	0	0	3	1	0	0	1	0	0	0	64	3	1	12	0	1	0	0	0	0	0	47	0	0	5	0	1	0	2	0	0	0	0	0	0	0	4	0	1
OTU 11	0	0	0	1	0	1	0	0	4	0	0	1	0	1	0	4	0	4	0	0	0	1	0	1	3	0	0	0	1	0	0	0	0	2	0	0	0	2	1	1	0	0	0	0	2	0	0	0	7	2
OTU 12	1	2	0	4	0	1	2	0	2	1	1	1	0	3	0	1	0	0	0	42	53	2	3	0	1	0	1	1	0	1	0	1	1	0	0	1	0	0	3	1	1	0	7	4	4	1	1	5	69	1
OTU 13	0	0	0	0	0	0	0	0	0	0	0	1	0	0	1	0	0	0	0	0	0	0	0	0	7	0	0	0	0	0	0	0	0	0	0	0	0	0	0	0	0	0	4	0	0	0	0	0	0	3
OTU 14	0	0	1	5	0	0	4	0	1	0	0	0	3	3	0	0	0	1	0	0	0	1	0	0	1	0	4	0	0	0	0	0	0	0	0	0	0	0	0	3	0	2	0	0	0	0	0	0	1	0
OTU 15	0	0	0	0	0	0	0	0	0	0	0	0	0	1	1	0	0	0	0	0	0	1	0	0	0	0	0	0	0	0	1	0	2	0	0	0	1	0	0	0	0	0	0	0	0	0	1	0	0	1
OTU 16	0	0	3	0	0	0	0	0	0	0	0	0	0	0	4	0	0	0	1	0	0	0	0	0	0	0	0	0	0	0	0	0	0	0	1	0	0	0	1	0	0	0	0	0	0	0	0	0	0	0
OTU 17	1	0	0	0	0	0	0	1	0	1	0	0	1	0	0	0	5	0	0	3	0	0	4	0	5	0	0	0	1	0	4	0	4	0	0	0	0	0	0	0	0	0	0	3	2	0	1	7	0	2
OTU 18	1	0	2	3	1	0	2	2	0	1	12	1	5	1	0	0	0	3	0	0	0	0	0	1	1	0	1	0	4	1	4	2	1	4	0	0	10	0	18	0	1	3	2	0	4	5	4	0	4	2
OTU 19	0	0	0	0	0	0	0	0	1	0	0	0	0	0	0	0	0	0	0	0	0	0	0	0	0	0	0	0	0	0	0	0	0	0	0	0	0	0	0	0	0	0	0	0	0	0	0	0	0	0
OTU 20	0	3	1	0	1	0	0	0	3	0	0	0	0	1	1	3	2	0	0	1	3	0	0	0	1	1	11	1	1	1	9	0	0	0	0	0	0	0	0	1	5	1	1	1	6	1	2	0	0	5
OTU 21	1	4	3	0	1	0	0	0	0	1	0	1	3	0	0	3	0	0	0	0	0	2	0	4	1	0	1	0	1	0	0	0	1	0	0	2	0	0	1	0	1	1	0	0	0	0	2	7	0	0
OTU 22	6	0	0	2	0	4	5	0	0	0	0	2	0	0	3	1	0	0	0	0	0	0	1	0	0	0	1	6	1	0	0	0	8	1	0	0	0	0	0	0	0	2	1	0	0	0	4	1	0	0
OTU 23	1	0	25	5	0	0	0	3	0	0	8	5	6	0	35	5	0	0	0	0	0	1	0	0	0	0	1	0	0	2	0	3	0	76	1	0	0	0	30	0	0	0	0	2	0	0	10	0	0	1
OTU 24	0	8	161	1	0	0	0	0	0	0	1	0	1	1	1	0	0	0	0	1	0	0	0	0	1	4	1	0	0	0	1	1	0	1	0	0	0	2	1	0	0	1	3	0	3	0	3	1	1	0
OTU 25	0	0	0	0	0	0	0	0	0	1	0	0	0	0	0	0	0	0	0	2	0	0	0	0	0	0	0	0	0	0	0	0	0	0	0	0	0	0	0	0	0	0	0	0	0	0	0	0	0	0
OTU 26	0	0	0	1	0	0	1	0	0	0	0	98	0	0	0	1	0	0	0	0	0	0	0	0	0	0	0	0	0	0	0	0	0	0	0	0	0	0	1	0	0	0	0	0	0	0	1	8	1	0
OTU 27	0	0	0	0	1	0	0	0	0	0	0	0	0	0	0	0	0	0	0	0	0	0	0	0	0	0	0	0	0	0	0	0	0	0	0	0	0	0	0	0	0	0	0	0	0	0	0	1	0	0
OTU 28	8	6	1	4	11	0	0	1	0	3	1	0	2	4	0	1	3	0	0	5	0	0	3	0	1	0	4	1	0	0	2	0	4	0	0	0	2	2	0	1	4	1	2	0	2	0	1	1	5	2
OTU 29	1	1	0	0	0	70	3	2	2	1	0	1	3	1	0	1	34	4	1	4	0	1	15	2	3	0	0	0	0	31	0	67	5	0	3	1	25	67	0	0	130	1	0	30	0	0	1	3	0	3
OTU 30	0	0	0	0	0	0	0	0	0	0	0	0	0	0	0	0	0	0	0	0	0	0	0	0	0	0	0	0	0	0	0	0	0	0	0	0	0	0	0	0	0	0	0	0	0	0	0	0	0	0
OTU 31	0	0	0	0	2	2	0	0	0	0	0	0	0	0	0	0	2	1	1	2	1	0	3	6	0	0	1	4	0	1	0	3	2	0	74	0	0	1	0	0	2	0	0	2	0	1	0	0	0	0
OTU 32	6	2	1	0	7	5	0	1	28	1	1	0	2	5	11	2	4	1	4	5	4	2	18	18	0	1	28	4	3	4	0	3	14	1	2	7	0	19	1	0	9	10	1	3	7	4	1	2	6	0
OTU 33	0	0	0	0	0	0	0	0	0	0	0	0	0	0	0	0	0	0	0	0	0	0	0	0	0	0	0	0	0	0	0	0	0	0	0	0	0	0	0	0	0	0	0	0	0	0	0	0	2	0
OTU 34	4	0	0	4	4	1	0	2	0	0	1	0	1	2	0	2	0	0	0	3	1	0	1	0	1	0	4	0	1	1	0	0	0	1	0	0	0	0	0	1	2	1	2	0	2	0	3	0	1	1
OTU 35	2	0	0	1	5	1	2	0	1	0	11	0	0	0	2	0	0	0	0	0	1	0	0	0	0	2	0	5	0	0	0	2	3	2	1	0	0	1	14	0	1	0	0	2	0	0	2	0	0	0
OTU 36	0	7	0	0	1	0	1	0	2	2	0	7	0	2	0	2	0	1	0	0	0	0	2	0	1	2	0	0	0	0	0	0	0	0	0	4	0	0	0	0	0	0	0	0	0	0	0	3	0	2
OTU 37	3	0	2	0	0	0	0	0	0	0	0	0	0	0	0	0	0	0	0	0	0	0	0	0	2	0	0	0	0	0	0	0	0	0	3	0	0	0	0	0	0	0	23	0	1	0	1	0	0	0
OTU 38	2	2	1	2	1	0	0	0	3	1	4	0	0	0	4	0	1	0	0	2	0	0	1	0	0	0	3	0	1	33	5	0	0	0	0	0	1	0	0	0	0	0	4	0	0	0	0	0	0	1
OTU 39	0	0	0	4	0	0	0	0	0	0	0	0	0	0	1	1	0	2	0	0	0	0	0	1	0	0	3	0	0	0	3	0	2	0	0	0	0	0	0	0	0	0	0	0	0	0	1	0	0	0
OTU 40	1	2	1	0	0	2	0	1	1	1	2	0	6	9	0	2	0	1	0	1	0	1	0	1	17	0	3	1	0	2	1	1	0	0	1	66	0	1	2	0	1	0	7	0	4	0	6	0	0	6
OTU 41	1	0	2	1	1	0	4	2	0	2	0	0	1	0	0	1	0	0	0	0	0	0	1	0	1	0	1	0	2	0	0	0	1	1	0	0	0	0	1	9	0	0	0	0	0	1	1	0	7	0
OTU 42	0	0	0	0	0	0	0	0	0	0	0	1	0	0	0	2	0	0	0	0	0	0	0	0	0	0	0	0	0	0	0	0	2	0	0	0	0	0	0	0	0	0	1	0	3	0	0	0	4	0
OTU 43	0	0	0	0	0	0	86	0	0	0	0	0	0	0	0	0	0	0	0	0	0	0	0	0	0	0	0	0	0	0	0	0	0	0	0	0	0	0	0	53	0	0	2	0	0	0	0	2	0	0
OTU 44	0	0	0	0	0	0	0	2	0	0	0	0	0	0	2	0	0	0	0	0	0	0	1	0	0	0	0	0	0	0	0	0	0	0	0	0	0	0	0	0	0	0	1	0	1	0	78	0	0	0
OTU 45	3	2	0	0	2	0	0	3	3	13	0	1	0	1	0	2	0	0	0	1	0	0	4	2	1	3	2	6	1	1	0	0	0	5	0	0	0	0	2	2	1	2	0	0	1	1	0	3	1	4
OTU 46	19	6	12	0	1	0	1	1	1	0	0	0	0	0	10	3	0	5	1	0	1	0	5	1	1	10	0	2	1	0	1	0	0	3	0	0	1	0	3	0	1	1	3	0	28	2	0	21	1	21
OTU 47	0	0	0	0	0	0	0	0	0	0	0	4	1	0	0	6	0	0	0	0	1	0	0	0	0	1	0	0	0	0	0	0	0	0	0	0	0	0	0	0	0	0	0	0	0	0	1	4	0	0
OTU 48	0	3	1	0	1	0	0	3	1	1	0	0	4	5	2	1	1	3	71	1	7	2	0	6	1	1	4	1	1	1	1	1	0	0	0	7	0	0	1	0	0	0	0	0	3	125	2	1	0	0
OTU 49	4	0	1	0	5	0	0	0	3	2	0	0	0	0	0	0	0	0	0	1	0	2	0	1	1	0	1	0	0	0	0	0	4	1	1	0	0	0	0	0	0	1	0	0	0	0	0	3	0	0
OTU 50	1	1	0	0	1	1	0	161	1	2	2	1	0	0	3	1	2	4	1	1	0	0	3	3	2	1	1	3	2	0	12	0	1	1	2	1	0	0	2	0	3	4	0	0	0	0	2	6	1	0
OTU 51	2	3	1	3	0	0	9	2	17	3	0	0	0	1	0	0	31	0	0	0	0	0	0	0	0	0	0	0	0	0	7	2	0	4	3	0	25	51	0	2	1	0	2	0	0	0	0	0	0	7
OTU 52	3	4	2	0	23	0	1	18	5	8	1	0	3	4	1	0	6	5	0	2	2	3	57	1	12	0	7	0	0	0	1	1	3	2	1	5	0	1	0	2	0	0	0	0	1	1	3	1	1	10
OTU 53	0	0	0	0	0	0	0	0	0	0	0	0	0	0	0	0	0	0	0	0	0	0	1	0	0	0	0	0	0	0	0	0	0	0	0	0	0	0	0	0	0	0	0	0	0	0	0	0	0	0
OTU 54	7	0	2	0	14	0	2	0	2	0	0	4	13	1	0	3	0	2	31	40	2	0	6	1	4	0	3	0	0	0	5	0	3	0	7	1	0	0	1	3	1	0	1	0	3	7	4	4	73	5
OTU 55	0	0	0	0	0	0	0	0	0	0	0	0	0	0	0	0	0	0	0	0	0	0	0	0	0	0	0	0	0	0	0	0	0	0	0	0	0	0	0	0	0	0	0	0	0	0	0	0	0	0
OTU 56	0	0	1	2	0	0	1	0	0	0	0	0	1	0	2	0	0	0	0	1	0	0	0	1	0	0	0	1	1	0	0	0	0	0	0	0	0	0	0	0	0	2	0	0	0	0	0	0	0	0
OTU 57	5	2	0	2	0	1	6	0	3	0	0	5	14	8	6	5	1	1	0	2	4	2	23	6	3	0	4	38	3	0	6	1	3	0	0	5	0	0	0	0	1	1	10	0	4	2	4	0	2	5
OTU 58	0	0	0	0	3	0	0	2	0	3	1	0	2	5	0	0	0	1	0	4	4	0	0	0	5	0	2	0	0	0	0	0	3	0	0	0	0	0	4	1	0	1	1	0	2	1	3	2	0	0
OTU 59	0	0	0	0	2	3	0	1	0	4	2	0	0	1	2	0	0	2	0	1	2	0	0	49	0	0	1	2	0	0	0	0	0	2	1	27	0	0	0	0	6	0	2	1	0	0	3	0	1	0
OTU 60	0	0	0	0	1	0	8	0	0	0	0	0	6	0	0	1	0	0	2	0	0	0	5	24	4	1	0	0	2	1	1	3	0	0	0	16	2	5	1	3	1	3	2	2	15	8	6	0	0	3
OTU 61	2	8	5	10	5	1	1	0	0	0	4	2	3	11	1	1	3	14	0	3	9	3	6	0	2	1	3	13	0	3	18	8	6	1	1	0	0	10	5	3	5	8	7	7	9	0	6	6	2	1
OTU 62	0	1	0	0	0	2	0	0	0	0	8	0	0	0	0	1	0	0	1	0	0	0	0	0	0	0	0	0	0	0	0	2	0	0	0	0	0	0	13	0	4	0	1	0	0	2	0	0	0	0
OTU 63	1	0	0	0	0	0	9	0	0	0	0	0	2	0	100	1	0	1	14	0	0	0	0	4	1	1	0	0	0	0	1	0	0	0	0	0	0	0	0	1	2	0	1	1	0	25	0	0	0	0
OTU 64	2	69	0	2	0	3	1	4	3	3	3	2	0	3	3	8	0	0	0	4	7	0	3	0	1	29	4	57	1	0	4	0	2	5	1	0	2	2	3	0	4	1	1	0	14	1	6	20	7	4
OTU 65	0	0	0	0	0	0	0	0	0	0	0	0	0	0	0	0	0	4	0	0	0	0	0	0	0	1	0	0	0	0	0	0	0	0	0	0	0	0	0	0	0	0	0	0	0	0	0	2	0	0
OTU 66	4	9	1	0	2	7	0	0	0	1	3	2	1	2	3	8	0	0	1	154	0	1	1	0	1	2	0	0	1	1	0	3	1	6	1	1	0	2	3	4	5	2	4	1	1	6	0	3	0	1
OTU 67	0	1	0	0	5	1	0	0	0	0	0	0	21	0	0	0	0	0	0	0	5	0	0	0	1	0	1	1	0	1	1	1	0	3	1	0	0	0	0	0	4	0	8	0	2	0	0	0	0	0
OTU 68	0	0	0	0	0	0	0	0	0	0	0	1	0	0	0	2	0	0	0	1	0	0	0	0	5	0	0	0	9	0	0	0	3	1	1	1	0	0	0	0	0	0	1	0	0	0	0	0	0	0
OTU 69	0	0	10	0	0	0	1	1	0	6	14	1	0	0	23	2	0	2	1	1	0	0	5	0	1	0	3	0	1	0	3	0	3	59	0	0	0	1	12	2	0	0	1	0	6	3	1	7	4	2
OTU 70	0	0	0	0	0	22	2	1	0	0	1	0	3	1	1	0	5	0	0	0	1	2	0	1	0	3	3	0	0	3	0	10	0	1	0	0	4	8	0	0	19	0	0	2	1	0	1	0	0	0
OTU 71	1	0	2	0	0	3	0	0	0	0	1	5	0	0	0	20	0	0	0	0	0	0	5	0	0	0	0	4	0	0	0	0	0	0	0	0	0	1	0	0	1	0	5	0	0	0	1	0	0	1
OTU 72	14	0	1	5	0	0	0	0	3	1	4	1	0	26	1	1	0	11	0	2	6	14	1	0	0	0	6	2	0	0	2	1	3	6	18	0	0	0	10	0	1	16	2	2	2	0	7	0	0	5
OTU 73	5	0	0	0	0	0	0	2	0	3	6	2	0	0	1	1	0	0	2	0	0	5	0	1	2	1	0	1	0	0	0	0	0	2	1	0	0	0	18	0	0	1	0	0	7	0	2	0	2	12
OTU 74	0	2	4	1	2	1	13	1	2	5	0	1	6	36	1	1	0	1	2	0	11	23	0	0	9	0	2	1	7	2	4	1	1	1	0	0	0	1	0	4	6	3	1	1	0	2	0	1	0	2
OTU 75	10	7	3	6	0	0	6	0	1	2	1	1	7	2	2	1	0	8	139	13	3	0	19	5	26	2	11	0	0	0	1	1	7	4	0	2	0	1	0	7	0	0	0	1	1	7	4	0	21	0
OTU 76	0	3	1	1	0	0	1	0	1	0	0	0	0	2	1	0	0	0	0	0	0	3	1	0	1	0	3	0	0	1	0	0	0	0	0	0	0	0	4	0	0	1	0	0	0	0	0	2	0	1
OTU 77	1	1	3	1	6	1	2	0	2	0	0	1	1	1	1	1	0	2	1	0	0	1	2	0	0	0	4	0	2	0	0	0	1	2	0	0	0	0	0	0	2	0	1	0	0	4	0	2	1	0
OTU 78	2	5	1	0	0	0	1	9	0	11	0	4	0	0	0	7	0	0	0	0	1	1	0	2	1	0	0	0	0	0	9	0	0	0	0	0	0	1	0	0	1	1	0	1	2	0	0	1	0	0
OTU 79	7	1	18	8	10	3	4	6	14	3	5	1	9	15	1	1	1	18	0	3	18	11	25	3	19	2	4	4	0	0	1	2	9	3	12	3	3	7	0	4	0	11	2	3	10	1	3	6	0	1
OTU 80	0	0	0	0	0	18	2	1	0	5	0	1	4	0	1	11	10	1	0	8	4	0	7	4	3	1	6	71	1	22	3	32	8	2	0	2	5	13	1	1	45	1	3	21	4	3	1	0	19	1
OTU 81	9	107	5	0	0	1	4	0	0	2	0	0	1	0	0	3	0	9	0	0	0	0	0	2	4	49	0	3	42	0	18	0	1	4	0	0	2	0	4	5	1	2	3	0	22	3	6	0	0	0
OTU 82	4	0	1	0	0	0	16	0	1	0	0	0	0	0	0	0	0	0	1	0	0	0	0	2	0	0	0	0	0	0	0	1	0	0	0	0	0	3	0	11	3	1	1	0	1	0	4	0	3	6
OTU 83	0	0	0	0	3	0	0	0	0	0	0	0	0	0	0	1	0	0	0	0	0	0	0	0	0	0	4	0	0	0	0	0	0	1	1	0	0	0	0	0	0	0	0	0	0	0	1	0	0	0
OTU 84	0	0	6	0	3	0	3	1	0	1	2	0	4	1	10	0	0	0	0	0	0	0	1	4	0	0	0	0	4	0	0	0	0	27	1	3	0	0	6	3	0	1	0	0	1	1	0	0	0	0
OTU 85	0	0	9	0	3	0	0	0	0	0	0	0	0	0	0	0	0	0	0	0	0	0	0	0	0	0	0	0	0	0	1	0	0	0	0	0	0	0	0	0	0	0	0	0	0	0	0	0	0	0
OTU 86	0	0	0	0	0	0	0	0	0	0	0	0	0	0	0	0	0	0	0	0	0	0	0	0	0	0	0	0	0	0	0	0	0	1	0	0	0	0	0	0	0	0	0	0	0	0	0	0	0	0
OTU 87	1	0	0	0	9	1	1	0	0	0	0	1	1	0	1	0	0	0	0	1	0	1	0	0	0	0	0	2	157	0	3	0	0	0	1	0	0	0	0	3	1	0	0	0	0	1	0	1	0	3
OTU 88	0	0	0	0	0	0	0	0	0	0	0	1	0	0	0	1	0	0	0	0	0	0	0	0	4	0	0	2	0	0	0	0	0	3	0	0	0	0	0	0	0	0	0	0	0	0	0	2	0	0
OTU 89	0	0	2	0	4	0	0	0	1	0	0	0	0	0	0	0	1	0	1	0	0	0	0	0	2	1	1	0	0	0	0	0	1	4	0	0	0	0	0	0	0	1	0	1	0	0	0	0	0	0
OTU 90	0	0	1	0	0	0	0	0	0	0	0	0	0	0	0	0	0	0	0	0	0	0	0	0	0	0	0	0	0	0	0	0	0	0	0	0	0	0	0	0	0	0	0	0	0	0	0	0	0	0
OTU 91	0	0	0	0	0	0	0	0	0	0	0	0	0	0	2	0	0	0	0	0	0	0	0	0	0	0	0	0	0	0	3	0	0	2	0	0	0	0	0	0	0	0	0	0	0	0	0	0	0	0
OTU 92	1	0	0	0	6	0	0	2	0	0	0	0	0	0	0	0	0	1	0	1	0	0	0	0	6	0	0	0	0	0	2	0	0	0	0	0	0	0	0	0	0	0	0	0	1	0	0	0	0	1
OTU 93	0	0	0	0	2	0	0	0	0	0	0	0	0	0	0	0	0	0	0	0	1	0	0	0	0	0	2	0	1	0	0	0	0	0	0	0	0	0	4	0	0	0	0	0	0	0	0	0	0	0
OTU 94	2	1	0	2	0	0	1	2	4	1	3	1	0	0	1	1	1	3	1	1	2	1	1	1	2	0	17	0	1	0	5	0	8	1	0	0	0	1	0	0	0	2	7	1	0	2	0	0	1	3
OTU 95	0	0	1	0	0	0	0	14	0	44	0	0	0	0	0	0	0	0	0	0	0	1	1	0	0	0	0	0	0	0	18	0	0	0	0	0	0	0	2	0	0	0	0	0	0	0	0	1	0	0
OTU 96	0	0	0	1	4	0	0	0	0	1	0	0	0	0	0	0	0	0	0	0	0	0	0	0	0	0	0	0	0	0	0	0	0	1	0	0	0	0	0	0	0	0	0	0	0	0	0	0	0	0
OTU 97	0	0	0	0	0	2	0	0	0	0	0	0	0	1	0	0	0	0	0	7	0	0	0	0	0	0	0	2	0	0	7	2	0	0	0	0	0	1	0	0	0	0	0	1	0	0	0	0	5	0
OTU 98	0	2	1	0	0	0	0	0	6	0	0	0	0	0	0	0	0	0	0	1	1	0	0	1	0	2	0	5	1	2	0	0	1	0	0	4	0	0	1	0	0	1	0	0	7	0	0	0	0	0
OTU 99	1	0	1	0	0	1	1	1	9	3	0	0	6	0	0	1	28	3	0	1	0	0	3	3	7	0	5	0	5	0	2	0	1	0	3	1	15	1	1	1	1	10	2	0	3	3	3	3	1	7
OTU 100	0	6	0	1	1	0	5	2	1	1	0	0	10	0	1	2	0	2	1	0	0	2	0	2	2	2	1	0	0	0	1	0	0	2	0	1	0	0	0	2	1	0	1	0	1	4	0	4	0	27
OTU 101	1	0	0	0	0	0	1	0	0	0	0	0	0	0	0	0	0	0	1	0	0	7	0	0	0	0	0	0	0	0	0	0	3	0	0	0	0	0	0	0	0	0	0	0	0	1	1	0	0	0
OTU 102	0	0	0	3	1	1	0	0	0	0	0	0	0	0	0	0	3	0	0	0	0	0	0	0	0	0	0	0	0	0	0	0	0	0	2	0	0	0	0	0	2	5	3	0	0	0	0	0	4	0
OTU 103	2	2	0	0	0	1	6	4	2	6	0	1	0	0	2	3	0	143	0	0	0	0	0	0	0	3	1	2	0	0	1	0	0	0	0	2	0	0	1	0	0	0	3	0	0	0	11	2	2	2
OTU 104	62	5	1	0	10	0	0	0	0	1	0	1	2	7	9	0	0	0	2	0	2	2	1	1	2	1	6	5	0	0	1	2	2	2	6	0	0	0	2	1	0	3	35	1	15	2	3	4	1	0
OTU 105	0	1	0	0	0	0	0	0	1	0	0	0	0	1	0	3	0	3	1	0	0	2	5	2	0	0	2	0	0	0	0	0	0	0	0	4	0	0	0	0	0	0	0	0	0	1	0	0	0	2
OTU 106	0	0	0	3	0	0	0	0	4	0	0	0	0	0	1	0	0	0	0	1	0	0	0	0	0	0	5	0	0	0	0	0	3	0	0	0	0	0	0	0	0	0	0	0	4	0	0	0	0	0
OTU 107	1	0	0	0	0	1	1	0	0	0	0	0	0	0	0	0	0	0	1	0	0	0	0	0	2	0	2	0	0	0	1	0	0	1	0	0	0	1	0	0	0	2	1	0	0	0	0	18	0	0
OTU 108	0	0	0	0	0	0	2	0	0	0	1	0	0	1	1	0	0	5	1	1	2	1	2	1	0	0	0	0	1	0	0	0	0	0	0	0	0	1	1	2	0	1	0	0	8	0	0	0	0	1
OTU 109	0	0	0	0	0	0	0	0	0	0	0	0	0	0	0	0	0	0	0	0	0	0	0	0	0	0	0	0	0	0	0	0	0	0	0	0	0	0	0	0	0	0	0	0	0	0	0	0	0	0
OTU 110	7	0	2	4	0	0	3	0	8	1	0	0	6	3	2	0	0	0	1	0	0	3	0	3	0	0	21	1	0	0	0	0	5	1	7	4	0	0	2	5	0	10	2	0	4	1	1	1	0	6
OTU 111	0	0	0	0	0	0	0	0	0	0	0	0	9	1	0	0	0	0	0	0	0	1	0	1	1	0	3	0	0	0	0	0	0	0	0	0	0	0	0	0	0	0	0	0	0	0	3	0	0	0
OTU 112	1	0	3	2	0	0	0	0	0	0	0	0	6	1	0	0	0	0	28	0	0	4	0	52	0	1	0	0	0	1	0	1	0	0	0	30	0	0	0	0	1	0	0	1	0	43	2	1	1	0
OTU 113	0	0	0	0	0	0	0	0	1	0	0	0	0	0	0	0	0	0	0	1	0	0	0	1	0	0	0	0	0	0	0	0	4	0	0	0	0	0	0	0	0	0	0	0	0	0	0	0	0	0
OTU 114	3	2	3	1	5	0	3	9	5	4	2	4	1	3	3	5	0	2	1	2	2	0	5	5	0	1	4	2	1	3	10	0	67	3	0	1	2	1	1	0	1	3	12	1	0	2	0	0	0	0
OTU 115	1	1	4	1	3	0	5	1	0	4	2	17	1	5	3	23	0	0	4	1	8	29	6	5	5	2	0	0	0	0	5	0	0	7	2	0	0	2	3	2	0	1	3	0	7	8	0	3	0	7
OTU 116	0	3	1	0	6	1	0	0	2	0	0	0	0	2	0	0	1	0	3	0	0	5	4	5	0	0	1	1	1	1	4	3	0	7	2	1	0	0	2	0	0	1	2	2	2	6	3	0	3	2
OTU 117	0	1	0	0	0	0	1	0	0	1	1	27	1	0	2	0	0	4	0	2	0	0	1	1	2	0	0	0	2	0	0	0	0	0	1	0	0	0	1	1	1	0	1	0	0	3	1	0	0	2
OTU 118	0	0	0	2	2	0	0	0	0	1	0	0	1	0	0	0	3	0	0	0	0	0	0	7	0	0	0	0	0	0	3	0	0	4	0	3	0	0	0	0	0	0	0	0	0	0	1	0	0	0
OTU 119	2	1	1	0	1	3	4	0	0	1	0	0	9	0	0	1	2	2	0	1	0	1	3	1	0	1	0	0	1	0	0	0	0	3	0	0	21	1	1	1	3	1	0	0	4	0	2	4	0	1
OTU 120	0	0	9	0	0	0	1	1	0	0	0	0	0	0	8	1	0	0	0	1	2	0	0	0	1	0	0	0	0	0	0	0	1	16	0	0	0	1	7	0	0	3	2	0	0	0	0	0	0	1
OTU 121	0	0	0	4	0	0	1	2	0	2	2	1	0	0	0	3	4	0	0	1	0	0	3	0	0	1	5	1	0	172	1	1	0	0	0	3	2	3	0	0	1	1	0	0	0	1	0	2	0	0
OTU 122	0	0	0	0	0	0	0	0	0	1	2	0	1	0	2	5	0	1	0	0	3	1	2	0	9	0	2	0	0	0	0	0	1	2	0	0	0	3	2	1	2	2	0	0	1	0	0	2	0	2
OTU 123	10	11	8	65	8	2	3	13	12	18	2	8	7	4	14	14	1	0	0	7	3	3	14	13	7	19	13	5	1	3	10	2	5	23	4	1	0	2	4	5	4	2	4	0	12	4	7	11	5	0
OTU 124	0	0	0	0	0	0	0	0	0	0	0	0	0	0	0	0	0	0	0	0	0	0	0	0	0	0	0	0	0	0	0	0	0	0	0	0	0	0	1	0	0	1	0	0	0	1	1	0	0	0
OTU 125	3	3	0	12	6	0	3	15	4	32	3	2	14	7	8	3	0	3	1	2	3	0	3	4	20	0	7	10	1	2	26	4	12	3	2	2	0	3	6	4	0	4	5	1	3	2	21	0	2	6
OTU 126	0	0	0	0	4	0	0	0	0	0	0	0	0	0	0	0	0	0	1	0	0	0	0	0	0	0	1	0	0	0	0	0	0	0	0	0	0	0	0	0	0	0	0	0	0	1	0	0	0	3
OTU 127	0	0	8	0	0	17	0	0	0	5	0	2	5	0	0	1	0	0	7	0	0	0	0	2	0	4	4	0	3	0	0	4	0	2	0	0	0	0	0	0	2	0	6	3	0	8	0	0	1	0
OTU 128	4	10	2	4	8	6	18	7	54	10	3	11	1	9	3	10	3	4	3	7	7	2	0	12	10	8	15	6	28	0	16	3	12	1	12	1	125	3	3	15	14	4	50	1	5	10	2	8	1	37
OTU 129	0	0	1	0	0	0	0	1	0	0	2	0	0	1	0	0	0	0	0	0	0	0	0	1	0	0	0	0	0	0	0	0	0	0	0	1	0	0	0	0	0	0	0	0	0	0	1	0	2	0
OTU 130	0	0	0	2	0	0	0	0	1	0	3	1	2	3	0	6	0	4	0	1	0	0	0	0	0	0	2	0	0	0	2	0	0	2	5	0	1	0	0	0	0	7	1	0	3	7	0	2	3	2
OTU 131	0	0	1	3	2	0	2	4	0	10	0	0	2	6	8	0	3	4	0	0	1	2	7	0	0	0	0	4	5	0	2	0	1	7	0	0	2	4	3	0	0	6	2	0	1	2	0	23	0	0
OTU 132	1	1	0	0	0	0	1	0	1	0	0	0	2	0	2	0	0	0	0	0	0	0	5	0	0	0	0	0	0	0	0	0	0	0	0	0	0	0	0	0	0	1	4	0	1	0	1	0	0	0
OTU 133	1	0	0	0	0	0	0	0	0	0	0	0	0	1	0	0	0	10	0	0	0	0	0	0	0	1	4	0	0	0	0	0	0	0	0	2	0	0	0	0	0	0	0	0	0	0	0	0	0	0
OTU 134	12	0	0	3	0	4	0	1	0	0	1	0	1	5	5	0	0	3	1	0	0	0	0	4	1	0	2	6	0	0	63	3	1	0	0	0	0	2	0	0	7	0	0	0	2	3	5	0	0	0
OTU 135	2	1	0	4	2	3	0	0	1	0	0	18	1	1	0	27	2	1	0	0	0	0	0	4	0	0	3	0	0	0	0	5	9	2	3	1	0	4	0	0	1	0	1	1	2	0	11	0	0	0
OTU 136	2	1	0	0	0	0	1	0	1	0	3	0	0	1	1	0	0	0	0	1	0	4	1	1	0	0	0	0	1	0	1	0	1	0	8	0	0	4	6	0	0	31	2	0	0	0	0	1	0	0
OTU 137	3	0	0	1	0	0	0	0	0	0	0	0	0	0	0	0	0	0	1	0	1	0	0	0	3	0	0	0	0	0	0	0	1	0	0	0	0	0	0	0	0	0	0	0	0	2	0	0	1	0
OTU 138	0	0	1	1	0	0	0	11	0	23	6	0	0	3	0	0	1	0	0	0	0	0	0	0	0	0	0	0	0	0	0	0	0	2	0	1	0	0	0	0	0	1	0	0	0	0	7	0	0	0
OTU 139	5	0	1	1	7	0	0	1	0	7	3	6	0	2	2	8	2	1	1	1	0	0	3	11	9	1	3	4	2	0	4	0	0	0	5	24	1	0	1	0	1	4	9	0	0	4	1	3	4	0
OTU 140	6	1	3	2	2	1	6	1	3	4	0	2	0	3	0	2	4	0	0	1	5	4	6	16	1	0	1	13	1	0	24	1	11	1	2	5	0	1	1	5	0	3	3	0	31	5	3	10	2	1
OTU 141	0	0	0	0	0	0	0	1	0	1	0	0	0	0	0	0	0	0	0	0	0	0	0	0	0	0	0	1	0	0	0	0	0	0	0	0	0	0	0	0	0	0	0	0	0	0	0	0	0	0
OTU 142	0	0	0	0	1	0	0	0	0	0	0	0	0	0	0	0	0	0	0	0	0	1	0	0	0	0	4	0	0	0	0	0	0	0	0	0	0	0	0	0	0	0	0	0	0	0	0	0	0	0
OTU 143	0	0	0	1	0	0	0	0	0	0	0	1	0	0	0	0	37	0	0	0	0	0	0	0	0	2	0	0	0	0	0	0	4	0	0	0	36	0	0	0	0	0	0	0	0	1	0	0	0	0
OTU 144	4	0	0	0	0	0	0	1	0	7	0	0	0	0	0	0	0	0	0	0	0	0	0	0	0	0	0	0	0	0	0	0	0	0	3	0	0	0	0	0	0	0	0	0	0	0	0	0	0	1
OTU 145	1	0	0	3	3	0	0	0	4	1	0	2	0	2	0	5	3	0	0	0	3	0	1	3	2	0	2	4	12	0	1	2	0	3	1	1	0	1	0	118	0	0	2	0	5	3	0	8	2	0
OTU 146	1	0	0	2	0	0	2	0	0	0	3	0	5	2	4	0	0	3	0	0	0	0	6	2	12	1	4	1	0	2	0	5	3	0	65	2	0	0	0	0	0	0	0	2	0	1	0	4	0	0
OTU 147	0	0	0	0	0	0	0	1	0	0	2	0	2	3	1	0	0	2	0	0	0	0	0	0	2	1	0	0	0	0	1	0	0	0	0	0	0	0	0	2	0	1	0	0	0	0	0	0	0	0
OTU 148	2	0	0	52	0	0	0	0	0	3	0	0	0	0	14	4	0	1	0	6	28	0	0	1	3	0	4	0	6	2	0	0	1	4	1	0	0	1	0	16	0	0	5	0	0	0	1	13	0	2
OTU 149	0	0	0	0	0	0	0	0	0	3	0	0	15	1	0	0	0	0	0	0	0	1	0	3	2	0	0	0	0	0	2	2	0	0	0	0	0	0	0	0	2	0	2	0	0	0	0	0	0	2
OTU 150	0	0	1	0	0	0	0	0	0	0	0	0	0	0	0	0	0	0	0	0	0	0	2	0	0	0	0	0	0	0	0	0	1	1	0	0	1	0	1	1	0	1	0	0	5	0	0	0	0	0
OTU 151	0	0	0	0	41	0	0	1	43	0	0	27	4	2	2	0	24	0	1	1	0	1	0	0	1	1	1	0	0	0	0	0	0	0	0	0	14	0	0	1	0	0	0	0	0	2	0	3	0	0
OTU 152	4	0	2	0	1	0	7	2	0	5	2	1	0	69	2	0	0	0	0	1	55	28	6	1	11	1	3	0	1	0	6	1	0	0	17	3	0	1	2	1	0	33	2	0	3	1	1	2	0	1
OTU 153	0	0	0	0	0	0	0	1	0	0	0	0	0	0	0	0	0	0	0	0	0	0	0	0	0	0	0	0	0	0	0	1	0	0	0	0	0	0	0	0	0	0	0	0	0	0	0	0	0	0
OTU 154	0	0	0	0	0	1	0	0	0	4	0	1	0	0	0	0	0	0	0	0	0	0	0	0	0	0	0	0	0	0	0	0	0	1	0	0	0	0	1	0	0	0	0	0	0	0	0	0	1	0
OTU 155	0	1	1	0	0	0	0	0	0	4	0	3	1	0	0	1	0	0	1	0	0	0	0	0	0	0	0	2	1	0	0	0	0	0	31	1	0	0	0	0	0	65	0	0	0	0	0	1	2	0
OTU 156	0	1	1	1	0	0	2	7	0	10	0	1	7	2	0	4	0	1	0	1	0	2	3	2	3	0	4	0	1	0	4	1	2	0	0	2	3	0	4	1	0	2	4	1	1	2	2	0	1	0
OTU 157	0	4	0	0	0	0	0	0	0	0	0	0	0	0	0	0	0	0	0	1	0	1	0	0	0	2	0	1	0	1	0	2	0	0	0	0	0	1	1	0	4	0	0	0	0	0	0	0	3	0
OTU 158	0	0	0	0	0	0	0	0	0	0	0	0	0	0	0	0	0	0	0	0	0	0	0	0	0	0	0	0	0	0	0	0	0	0	1	0	0	0	0	0	0	0	0	0	1	0	0	0	0	0
OTU 159	0	1	3	1	0	0	0	0	1	0	1	0	3	0	0	3	0	0	0	0	0	0	0	0	3	1	2	0	0	0	2	0	2	1	2	0	2	0	1	0	1	0	0	0	0	0	0	39	1	0
OTU 160	9	3	1	1	6	1	1	2	3	2	2	14	3	0	2	10	5	5	0	4	3	1	0	3	9	0	7	3	4	0	1	1	3	0	0	0	0	1	10	35	3	6	4	0	1	0	1	4	7	2
OTU 161	2	2	0	0	0	1	0	0	0	1	2	0	0	0	2	1	0	1	0	5	52	3	3	1	1	2	0	0	0	0	1	2	1	1	1	2	1	0	0	0	6	0	0	0	0	0	0	6	7	8
OTU 162	3	1	1	29	3	2	0	0	4	5	19	1	0	1	0	0	0	1	0	0	3	0	3	6	6	0	2	0	0	3	0	0	5	1	3	0	0	0	0	2	6	1	5	0	0	0	0	0	6	0
OTU 163	0	0	0	0	54	0	0	0	0	0	0	1	0	0	0	0	0	0	0	0	0	0	0	0	0	0	0	0	0	0	0	0	0	0	0	0	0	0	0	0	0	0	0	0	0	0	0	0	0	0
OTU 164	0	0	0	0	0	0	0	0	0	0	0	4	0	1	0	5	0	0	0	0	0	0	0	0	0	0	0	0	0	0	0	0	0	0	0	0	0	0	0	0	0	0	0	0	0	0	0	0	0	0
OTU 165	2	0	1	0	0	0	0	2	4	6	0	0	0	0	2	0	0	0	0	3	0	0	0	0	0	0	1	2	0	0	0	0	4	1	4	0	0	1	0	0	0	0	0	0	0	0	0	1	1	0
OTU 166	8	0	0	0	0	0	0	0	0	0	0	0	0	0	0	0	0	0	0	0	0	0	0	0	0	0	0	0	2	0	0	0	0	0	0	0	0	0	0	0	0	0	0	0	0	0	0	0	0	0
OTU 167	0	0	3	0	0	0	0	0	0	2	1	0	6	1	0	0	2	0	0	0	0	2	0	0	0	0	2	0	0	0	0	0	0	1	0	0	0	0	1	0	0	0	10	0	1	0	0	0	0	0
OTU 168	6	0	0	0	0	0	5	0	3	1	1	2	3	0	0	3	1	3	0	0	0	0	0	0	0	0	0	0	1	0	0	0	0	0	0	0	0	1	0	1	1	0	0	2	7	0	4	0	2	4
OTU 169	0	0	0	0	0	0	1	0	0	0	0	2	0	0	0	1	0	0	1	0	0	0	0	0	0	0	0	0	0	0	0	0	0	0	0	0	0	0	0	0	0	0	0	0	0	0	4	0	0	0
OTU 170	0	0	0	0	6	0	0	0	0	0	0	0	0	0	0	0	0	0	0	0	0	0	0	0	0	0	0	0	0	0	0	0	0	0	0	0	0	0	0	0	0	4	3	0	1	0	0	0	0	0
OTU 171	0	0	1	0	0	1	0	0	1	2	0	1	0	0	0	0	0	0	0	0	0	0	0	0	0	0	4	1	3	0	2	0	0	0	0	2	0	0	1	0	1	0	14	0	1	2	2	6	4	0
OTU 172	0	0	0	0	0	0	0	0	1	0	0	0	0	0	0	0	0	3	3	0	0	0	1	0	0	1	9	0	0	1	0	0	12	2	0	2	0	0	9	0	0	0	0	0	0	2	0	0	0	0
OTU 173	0	0	2	0	0	0	0	1	1	0	0	0	1	1	2	0	0	0	0	0	0	0	5	0	0	0	0	1	0	0	0	0	0	2	0	0	0	0	0	0	1	0	1	0	0	0	0	0	1	0
OTU 174	0	0	0	0	0	0	1	0	0	0	0	0	0	0	0	0	36	0	0	0	0	0	9	0	13	0	1	0	2	0	0	0	0	0	0	0	19	75	0	0	0	2	0	0	4	0	5	12	3	0
OTU 175	1	1	0	0	1	0	0	0	1	0	0	0	0	0	0	0	0	1	0	0	1	0	0	0	0	0	0	1	2	0	4	0	1	0	1	0	0	0	0	0	0	0	0	0	2	0	0	0	0	0
OTU 176	0	8	4	0	3	3	2	0	0	1	0	1	3	0	4	5	2	0	1	1	0	0	2	2	12	3	13	0	4	17	0	62	0	2	0	0	0	1	1	0	3	2	1	27	2	0	2	1	0	1
OTU 177	8	0	3	1	5	0	1	0	1	1	123	1	2	2	7	9	2	1	0	2	0	7	0	0	1	0	1	0	1	3	0	0	6	5	7	0	0	0	0	0	1	0	1	0	1	1	2	2	21	1
OTU 178	0	0	0	0	0	0	1	0	0	0	0	0	0	0	0	1	0	0	0	0	1	0	0	0	6	0	0	0	0	0	1	0	0	0	0	0	0	0	0	0	0	0	0	185	4	0	0	0	3	1
OTU 179	0	0	2	0	1	0	0	1	0	2	0	1	0	3	0	2	2	3	1	1	0	0	0	0	0	0	0	0	0	0	0	1	1	0	0	2	0	1	0	0	0	0	0	0	2	2	0	2	0	1
OTU 180	9	2	2	3	9	2	1	6	12	14	6	3	1	7	3	10	4	4	0	0	1	2	4	3	2	150	8	10	1	1	7	1	2	2	4	1	2	3	5	2	1	2	0	1	2	0	10	6	2	6
OTU 181	0	0	0	4	0	152	52	2	0	5	0	0	0	0	0	0	0	1	0	0	0	0	0	1	0	5	0	0	1	0	0	0	1	0	0	0	0	0	3	21	0	1	0	0	6	0	0	0	0	0
OTU 182	0	0	0	0	0	0	0	0	0	0	0	0	0	0	0	0	0	0	0	0	0	0	0	0	0	0	0	0	0	0	0	0	0	0	0	0	0	0	0	0	0	0	0	0	0	0	0	0	0	0
OTU 183	0	7	1	0	6	0	0	7	0	10	0	0	0	0	0	1	0	0	0	1	0	1	0	0	5	3	14	0	0	0	5	0	3	0	0	0	0	1	0	0	1	3	0	0	0	1	0	2	0	2
OTU 184	0	1	1	1	1	0	0	0	1	0	0	0	0	2	0	0	0	1	0	0	0	0	0	1	0	0	1	0	0	18	0	15	1	0	1	0	0	0	0	0	0	1	1	18	0	1	0	0	0	2
OTU 185	0	4	0	22	1	0	1	0	16	1	0	4	0	29	0	1	1	28	1	0	11	12	0	0	4	3	4	4	0	0	0	0	0	0	15	1	0	3	4	0	0	33	3	0	0	1	1	3	0	2
OTU 186	0	0	0	0	1	0	0	0	3	0	0	20	0	0	0	39	0	0	1	0	0	1	0	0	0	0	1	0	0	0	0	0	0	1	1	0	0	0	0	0	0	0	0	0	0	3	2	0	0	0
OTU 187	2	2	0	1	1	1	4	1	0	3	1	0	3	1	0	0	0	1	2	0	0	4	0	4	3	4	0	1	1	0	2	2	2	0	1	94	0	4	0	4	7	2	6	2	5	3	8	4	2	3
OTU 188	13	5	0	0	3	0	1	0	0	1	16	1	9	1	0	2	1	0	5	0	0	0	0	6	2	3	0	1	3	1	0	2	0	0	1	0	0	0	0	1	0	0	4	1	4	1	0	3	3	85
OTU 189	0	0	1	0	0	0	4	0	0	1	1	0	4	5	3	4	0	0	0	0	2	0	2	1	1	0	0	0	1	1	2	0	0	0	1	0	1	0	3	1	0	0	1	0	0	3	3	0	13	0
OTU 190	0	0	0	0	0	0	0	0	0	0	0	0	14	0	0	0	0	0	0	0	0	0	0	2	0	0	0	7	6	0	0	0	2	0	0	0	0	0	0	0	1	0	0	0	0	0	0	7	0	0
OTU 191	1	5	1	5	0	0	0	20	3	6	12	2	2	3	5	0	0	0	0	0	2	1	2	1	0	1	1	0	0	1	0	0	4	1	0	2	0	0	17	0	0	1	1	0	6	0	29	1	3	1
OTU 192	3	4	0	0	2	0	3	1	0	2	1	12	3	0	1	24	10	5	1	3	1	1	16	3	1	1	4	0	0	29	3	83	1	0	1	0	2	5	3	1	0	0	14	42	2	5	0	1	1	2
OTU 193	0	0	0	2	0	0	0	0	3	1	0	0	2	0	0	0	0	0	1	0	2	0	0	0	5	0	3	0	5	0	0	1	0	1	1	2	0	1	1	0	0	0	1	2	1	1	1	0	0	2
OTU 194	4	1	0	0	3	0	0	0	3	0	0	0	0	0	2	1	0	0	0	0	0	3	0	0	2	2	2	1	2	1	0	4	1	1	3	2	0	0	0	0	3	1	0	1	0	0	0	0	0	0
OTU 195	1	0	1	0	4	1	1	0	0	0	1	0	1	2	0	0	0	0	1	0	2	0	1	1	1	0	1	0	0	0	0	0	1	1	0	2	0	0	2	0	0	2	0	0	3	0	13	3	2	0
OTU 196	2	0	5	0	1	0	2	0	4	1	0	0	7	1	0	0	47	1	0	0	1	0	4	0	1	0	0	3	2	0	0	0	0	3	0	0	31	0	3	0	1	3	0	1	5	0	2	10	0	0
OTU 197	26	0	4	0	3	3	6	5	1	1	1	0	5	1	2	3	1	2	1	0	3	1	1	1	1	30	5	3	4	0	1	1	15	0	0	2	3	1	3	1	4	0	0	0	4	6	3	1	0	0
OTU 198	0	0	0	1	2	1	0	0	0	0	0	0	0	0	0	0	0	0	1	0	0	0	0	0	2	0	0	1	0	0	0	0	1	0	0	0	0	0	0	1	0	0	11	0	0	1	0	0	0	0
OTU 199	0	0	0	0	1	0	0	2	2	0	0	0	1	0	0	5	0	1	0	2	0	0	3	0	1	1	1	1	1	0	0	0	0	0	0	0	0	4	0	0	0	0	0	0	1	0	7	0	1	1
OTU 200	0	4	1	1	1	0	0	1	0	0	6	0	0	4	0	0	0	4	0	0	0	2	4	0	5	0	0	0	3	1	1	3	0	1	14	0	0	1	0	0	0	0	1	1	0	0	0	2	0	8
