	Host 1	Host 2	Host 3	Host 4	Host 5	Host 6	Host 7	Host 8	Host 9	Host 10	Host 11	Host 12	Host 13	Host 14	Host 15	Host 16	Host 17	Host 18	Host 19	Host 20	Host 21	Host 22	Host 23	Host 24	Host 25	Host 26	Host 27	Host 28	Host 29	Host 30	Host 31	Host 32	Host 33	Host 34	Host 35	Host 36	Host 37	Host 38	Host 39	Host 40	Host 41	Host 42	Host 43	Host 44	Host 45	Host 46	Host 47	Host 48	Host 49	Host 50	
OTU 1	49	256	65	21	116	1	64	29	8	485	89	15	300	83	444	91	263	12	50	206	188	65	92	194	0	83	224	94	0	27	6	144	177	55	84	57	48	124	184	63	165	12	171	51	60	118	168	85	1	364
OTU 2	0	0	13	50	3	4	82	26	70	5	2	41	22	0	50	0	20	186	7	22	4	44	7	62	12	0	6	1	6	28	84	12	0	0	0	9	3	0	16	2	13	0	0	2	0	1	8	4	19	8
OTU 3	0	0	0	25	14	78	1	9	8	0	28	35	1	3	22	20	163	4	12	8	2	2	0	119	0	15	8	0	1	0	2	8	0	5	10	1	13	11	9	15	0	59	8	0	4	10	3	0	0	0
OTU 4	0	0	0	0	0	0	0	0	0	6	0	0	1	0	0	0	0	0	0	0	0	0	0	0	0	0	0	0	0	0	2	0	0	0	0	0	0	0	0	0	0	0	0	0	0	0	6	0	0	0
OTU 5	570	476	232	7	509	576	605	435	30	677	259	75	314	55	594	194	181	231	370	297	292	331	562	86	36	228	213	260	646	448	178	314	235	595	824	6	139	50	15	1599	0	24	226	217	501	195	1001	204	0	447
OTU 6	3	1	0	5	13	66	5	218	12	24	17	33	48	8	10	90	19	36	216	7	0	0	8	1	3	125	4	0	9	104	26	16	4	0	9	26	0	15	1	1	0	9	462	0	0	1	44	3	60	9
OTU 7	11	41	15	88	142	211	107	53	153	55	23	185	5	49	57	24	92	51	1	29	16	56	107	62	148	5	78	6	119	20	495	47	5	97	96	95	10	105	25	65	24	7	12	20	62	29	56	3101	82	56
OTU 8	173	25	5	561	59	680	69	37	1040	6	15	185	4	42	10	80	132	25	37	4	17	22	30	106	174	2	5	22	596	15	28	184	153	287	66	2651	310	39	409	10	69	8	22	1	8	557	172	14	201	18
OTU 9	72	0	0	23	9	0	42	8	65	0	21	2	0	21	1	3	40	17	0	0	1	4	99	84	0	1	10	1	0	42	7	1	9	14	33	10	0	271	3	42	1	3	0	0	1	1	10	2	0	10
OTU 10	94	1	0	8	0	4	10	76	5	96	2	2	89	50	0	183	64	0	4	0	3	13	14	2	33	43	0	13	100	0	0	4	8	91	0	0	1	2	3	0	5	972	0	2	6	1	17	0	463	99
OTU 11	44	73	24	1	13	207	1	145	7	2	40	48	20	1	10	5	69	219	2	4	21	37	8	43	2	9	19	7	2	0	0	9	18	27	24	25	3	177	27	12	46	4	9	16	22	3	2	60	12	2
OTU 12	6	37	8	10	1	127	105	50	9	25	54	5	15	12	44	0	72	46	11	22	49	19	12	1	1	25	49	16	26	38	91	67	10	185	5	11	11	16	46	20	60	4	20	1	3	9	244	5	127	22
OTU 13	0	1	0	7	0	2	0	0	0	0	0	0	0	0	0	0	0	0	0	0	0	0	0	0	0	0	0	2	0	0	0	0	0	1	11	12	0	0	0	0	3	0	0	0	0	0	0	6	0	12
OTU 14	7	37	0	11	15	28	1	3	37	0	1	26	2	0	24	2	0	1	8	12	1	12	2	10	14	439	0	0	2	0	3	0	85	2	10	0	29	3	13	3	0	81	4	0	11	36	3	45	84	10
OTU 15	0	0	1	0	5	12	1	0	0	5	0	0	0	1	21	0	0	56	0	10	2	8	30	0	0	0	0	0	0	0	0	0	0	0	0	0	0	0	0	0	14	162	0	0	4	0	0	0	0	0
OTU 16	0	0	0	0	0	0	0	0	0	0	0	0	0	0	0	0	0	0	0	0	0	0	0	0	0	0	0	0	0	43	0	0	0	0	0	0	0	0	0	0	0	0	0	0	0	1	0	0	0	0
OTU 17	5	2	2	2	28	0	4	104	6	45	2	30	20	131	106	2	4	1	13	49	0	19	3	46	20	29	11	34	10	13	6	2	34	4	47	3	4	5	22	11	1	6	122	3	16	1	32	1	118	0
OTU 18	14	50	8	121	88	330	8	26	308	82	24	115	11	53	153	6	59	41	3	81	19	27	3	291	154	10	77	18	9	156	61	6	95	320	39	1859	77	71	80	25	0	28	5	1	74	146	58	27	13	63
OTU 19	0	0	0	0	0	0	0	0	0	0	0	0	0	0	0	0	0	0	0	0	0	0	0	0	0	0	0	0	25	0	0	0	0	0	0	0	0	0	0	1	0	0	0	0	0	0	0	0	0	0
OTU 20	176	1797	499	24	132	6	1	7	55	61	67	35	67	275	30	0	20	8	9	9	729	0	7	182	88	5	2	13	61	10	55	14	23	30	2	32	61	7	34	44	31	15	16	198	72	176	16	1069	12	6
OTU 21	24	69	33	24	277	16	16	27	129	10	13	19	53	9	19	9	33	29	8	4	35	74	61	106	40	37	8	0	81	59	3	33	3	81	143	58	18	112	210	19	1	51	0	42	115	45	5	70	12	14
OTU 22	236	6	4	5	12	36	0	16	15	4	34	54	3	3	73	26	23	18	14	34	0	13	24	199	1179	29	20	5	12	2	1	20	7	0	85	46	11	17	9	35	90	50	15	5	8	14	39	12	5	8
OTU 23	41	3	1	9	0	19	1	42	6	3	35	0	17	9	1	10	0	29	7	0	14	20	16	5	4	0	13	2	26	10	17	10	5	20	1	172	4	0	0	0	11	5	7	4	0	7	31	0	86	10
OTU 24	24	9	1	1	0	0	2	0	0	4	3	26	3	0	4	1	9	0	0	3	7	21	114	0	68	147	0	5	6	6	7	4	3	81	0	0	50	91	107	0	0	7	0	0	0	87	5	0	100	0
OTU 25	0	0	0	0	4	0	24	0	1	0	0	0	0	0	9	0	0	3	0	0	0	0	0	1	0	0	1	0	0	0	0	0	5	0	0	0	0	0	0	0	0	0	26	0	0	0	4	0	0	1
OTU 26	30	0	0	2	19	0	0	0	2	1	0	0	0	8	1	2	63	0	1	0	0	0	8	0	1	0	0	0	1	0	0	0	2	20	0	1	0	20	23	2	0	0	3	0	1	0	0	3	0	1
OTU 27	2	0	0	0	0	0	0	0	0	3	0	0	13	5	0	0	0	0	0	0	5	0	0	0	0	0	0	0	22	0	0	0	0	0	0	0	1	0	0	0	0	51	0	0	0	1	8	0	0	0
OTU 28	82	59	113	2	84	26	35	13	12	7	0	0	385	140	421	8	4	74	4	216	290	1	19	54	1	56	25	11	8	58	406	6	165	12	8	51	2	28	38	65	12	82	3	88	27	7	0	3	0	80
OTU 29	192	13	3	12	27	61	12	101	75	19	54	0	7	23	111	6	20	35	18	56	0	11	32	14	33	115	6	6	34	28	10	12	26	83	47	17	2858	44	53	3	28	8	25	4	23	47	28	1	0	6
OTU 30	0	0	4	0	0	0	0	0	0	0	0	6	0	0	0	0	0	0	0	0	0	0	0	0	0	0	0	0	0	0	0	0	0	0	0	0	0	0	0	0	0	0	0	0	0	0	0	0	0	0
OTU 31	87	40	11	9	0	2	75	0	22	1	6	127	0	1	2	0	127	7	1	0	16	82	0	3	35	243	5	0	0	34	3	5	8	8	4	1	11	13	41	4	106	0	14	0	0	46	7	28	58	43
OTU 32	2	34	31	15	8	0	45	10	72	0	0	16	13	77	16	96	196	78	1	12	42	184	117	37	129	164	25	29	34	14	224	64	43	28	95	40	0	97	252	27	195	30	8	6	10	2	49	35	33	9
OTU 33	0	0	0	12	0	0	0	0	2	0	0	0	0	0	0	0	0	3	0	0	0	0	0	0	0	0	0	0	0	3	3	0	26	0	0	0	0	0	0	15	0	0	0	0	0	0	0	0	0	0
OTU 34	829	30	9	12	7	8	3	115	23	7	30	22	22	52	4	11	116	50	7	1	0	112	1352	2	11	12	66	5	335	25	99	65	2	3	34	14	3	0	9	20	275	10	19	2	0	19	9	15	0	1
OTU 35	9	25	3	3703	0	26	47	15	16	30	12	142	53	38	17	4	27	47	2246	8	18	7	1	2	50	19	3	0	37	2	126	33	40	0	48	0	9	0	104	0	4	24	0	3	5	13	41	37	88	27
OTU 36	26	23	12	194	16	9	14	18	530	0	3	10	18	53	1	2	19	8	13	0	19	0	4	76	21	3	6	0	19	58	20	0	13	28	45	2	145	2	16	60	26	2	1	0	10	298	69	86	23	22
OTU 37	50	0	0	1	4	0	10	1	0	0	9	0	0	14	0	14	0	20	0	0	0	0	16	0	34	7	0	5	0	0	0	9	35	1	8	1	11	22	1	26	1	12	0	0	1	28	1339	0	1	3
OTU 38	63	1	1	21	8	1	8	3	13	36	2	55	14	39	3	7	93	7	9	2	10	107	45	22	25	45	2	1	37	14	26	8	314	16	54	3	2	201	7	0	372	0	73	3	1	13	2	1	222	24
OTU 39	0	0	0	6	0	10	1	8	0	1	13	0	5	0	4	1	1	95	0	1	0	6	0	0	23	0	0	0	0	14	0	0	0	1	0	81	19	0	0	2	1	14	0	4	0	23	0	0	27	6
OTU 40	37	23	0	29	1	131	1	47	70	31	0	8	40	276	7	40	39	0	61	1	0	1	90	41	16	186	31	47	66	289	92	4	33	15	145	19	36	81	16	45	131	2	166	0	7	66	43	26	26	3
OTU 41	17	0	1	5	7	100	14	1	93	1	0	5	6	99	0	13	18	34	3	0	10	1	1	0	44	18	52	5	0	1	77	29	0	22	32	5	1	46	76	14	3	0	8	4	2	5	22	10	3	0
OTU 42	7	2	4	1	0	0	18	0	4	7	0	0	0	1	25	0	0	11	0	19	0	48	4	1	3	2	10	0	1	173	0	1	0	0	0	1	0	0	19	1	20	0	0	2	0	0	31	0	19	7
OTU 43	0	0	0	0	0	0	0	0	0	0	0	0	0	0	0	0	0	0	2	0	0	0	0	0	0	0	32	0	0	0	0	0	0	0	0	0	0	0	0	0	0	0	0	0	0	0	0	0	0	0
OTU 44	45	0	0	0	0	0	34	0	0	0	319	0	0	0	1	0	11	2	0	0	0	16	0	0	1	0	21	0	0	0	0	32	2	0	0	0	0	0	0	5	0	2	0	0	0	0	0	0	0	0
OTU 45	84	3	22	1	131	9	91	15	20	13	23	0	36	34	2281	6	2	77	10	1178	1	32	9	99	22	1	42	25	25	40	5	19	80	5	43	99	2	35	15	0	16	46	52	19	87	3	10	31	72	82
OTU 46	76	49	0	3	29	37	30	1	3	39	23	307	24	36	62	39	100	155	19	26	13	144	99	3	40	32	20	8	5	104	170	38	55	2	16	6	2	30	0	236	108	8	5	8	29	3	1	10	80	72
OTU 47	0	0	0	18	0	0	0	2	12	0	64	0	1	3	7	0	0	4	0	3	0	0	5	56	0	0	0	1	0	0	2	2	70	0	0	136	0	0	0	4	1	1	3	0	0	0	0	1	0	0
OTU 48	238	28	15	21	29	36	56	109	28	3	1	86	1	37	72	104	28	5	0	45	17	41	28	35	55	83	178	10	11	4	130	1	13	16	55	92	13	29	22	203	153	3	22	2	25	23	56	2	19	27
OTU 49	160	13	0	0	1	2	6	0	0	1	0	28	0	15	28	15	7	4	14	12	20	31	6	0	101	26	8	31	26	0	40	3	29	0	44	4	1	15	151	699	49	18	28	2	2	16	33	2	8	9
OTU 50	16	13	2	41	51	36	67	8	88	21	10	5	2	19	74	16	55	387	1	31	7	1591	0	187	22	11	61	0	12	148	111	24	19	3	32	32	58	78	25	21	109	38	2	9	27	84	5	14	243	9
OTU 51	110	185	21	0	152	22	7	191	3	44	13	1	30	32	0	24	0	2	16	0	35	45	2	90	10	2	138	6	86	1	0	41	6	2	1634	49	32	7	18	3	1	0	37	21	72	108	0	96	5	0
OTU 52	122	86	25	9	7	5	53	82	28	26	55	72	15	125	2	791	102	29	7	1	7	91	689	78	16	56	70	48	41	201	109	952	176	51	194	121	49	1506	2	91	110	72	37	1	3	135	745	39	14	28
OTU 53	0	0	0	0	0	0	0	4	0	0	0	0	0	0	0	0	391	0	0	0	0	0	0	0	0	0	0	0	0	0	0	0	0	0	0	0	0	0	0	35	0	0	1	0	0	0	0	0	40	0
OTU 54	12	41	17	85	72	118	44	1551	141	21	66	72	20	572	113	22	147	77	6	55	22	158	32	52	33	84	26	4	0	47	44	27	75	170	63	56	20	27	15	146	184	205	13	8	47	66	20	17	73	48
OTU 55	0	0	0	0	0	0	0	0	0	0	0	0	0	0	0	0	0	0	3	0	0	0	0	0	0	0	0	0	0	0	0	0	0	4	0	0	12	0	0	0	0	0	47	0	0	45	0	0	0	0
OTU 56	13	1	14	3	0	6	0	0	10	4	0	5	22	1	1	43	0	0	2	0	0	42	21	3	0	16	4	32	14	1	16	0	7	0	1	2	12	0	0	6	0	3	0	0	5	4	0	0	0	0
OTU 57	763	61	9	72	249	112	37	185	152	1296	43	144	623	455	31	2	92	37	125	23	24	108	4	373	15	50	151	1263	51	92	546	10	79	42	72	15	86	35	80	44	154	27	114	9	130	148	10	27	186	483
OTU 58	5	41	12	3	16	193	11	0	0	3	12	1	4	135	13	5	93	41	1070	9	7	20	9	89	4	111	1	13	29	25	53	17	0	154	3	13	28	27	6	695	8	0	2125	6	0	87	1	19	1	0
OTU 59	0	34	2	27	77	0	13	60	24	109	14	4	56	0	92	59	1	15	67	58	1	95	136	222	0	91	0	14	8	0	40	0	82	1	40	1	12	42	84	5	0	14	21	2	17	21	10	24	19	78
OTU 60	12	9	15	40	12	61	21	6	16	37	1	20	30	297	6	88	47	92	8	6	21	69	15	26	52	1086	26	18	9	351	35	18	10	18	84	19	14	58	50	26	11	191	2	34	14	8	5	21	56	13
OTU 61	17	74	8	667	18	30	102	294	27	37	70	992	37	6	12	58	5	39	56	7	10	25	497	48	16	39	208	80	74	246	9	27	204	22	133	70	3	340	14	16	13	49	42	7	6	20	11	13	13	52
OTU 62	49	0	0	3	5	45	2	2	10	33	10	0	18	75	0	0	18	45	0	0	0	10	0	0	0	36	8	1720	0	56	1	0	0	14	11	1	0	0	0	29	3	9	34	0	4	0	2	6	1	3530
OTU 63	5	19	0	7	5	0	29	9	1	0	17	0	13	20	0	23	5	0	0	0	0	34	29	56	12	1	41	19	2	16	13	1	0	34	0	37	3	2	4	3	42	164	0	4	4	0	11	0	162	3
OTU 64	62	28	28	54	43	36	86	3	90	2	4	24	22	36	153	129	155	52	2	82	13	48	49	29	19	168	384	13	130	75	58	44	61	35	92	47	18	71	43	483	62	42	2	45	352	37	1957	19	18	15
OTU 65	0	1	0	0	0	0	0	7	0	0	0	0	0	0	0	0	0	0	0	0	2	0	0	0	0	0	17	0	0	6	0	0	1	0	0	0	0	12	0	0	1	15	0	0	0	0	0	0	0	0
OTU 66	54	1	12	25	0	27	46	3	108	0	32	17	10	82	49	72	5	129	16	23	17	33	36	2	35	0	7	0	9	3	42	1	19	52	23	9	11	26	67	29	61	152	2	1	0	19	11	10	0	0
OTU 67	21	6	6	16	12	159	36	79	41	4	9	7	4	56	10	14	66	37	1	5	39	39	1	10	0	4	89	17	206	88	29	9	4	1	4	10	3	18	6	3	8	2436	1	1	4	0	0	0	20	26
OTU 68	1	0	0	8	4	27	1	116	8	1	2	62	0	18	24	9	0	1	18	10	0	1	0	2	2	2	51	7	2	0	0	10	0	18	4	0	2	7	22	5	0	2	38	0	8	0	0	0	1	1
OTU 69	76	24	3	21	6	7	88	136	77	0	41	13	43	11	18	3	445	207	4	7	4	11	298	12	22	3	16	19	9	1	135	475	29	0	67	8	81	1118	21	319	64	72	8	0	2270	140	0	8	1	22
OTU 70	9	0	3	29	28	0	36	0	21	592	2	0	275	3	15	0	24	7	14	10	0	70	7	24	0	43	8	268	0	119	125	26	7	13	69	5	0	73	41	38	37	29	0	0	22	0	8	14	0	319
OTU 71	0	5	8	4	89	97	9	0	19	4	12	1	0	152	1	0	22	124	5	0	0	6	0	26	0	0	0	2186	0	4	5	4	3	47	6	44	10	18	4	1	0	0	6	4	26	5	1	1	52	1
OTU 72	187	49	7	26	27	40	6	6	19	24	24	11	32	97	7	0	21	13	98	1	21	299	35	40	38	130	14	8	7	107	72	43	9	21	29	36	6	44	20	17	632	48	88	14	13	17	165	96	1	8
OTU 73	0	13	0	37	9	143	54	34	39	58	3	23	15	271	11	13	72	14	3	8	0	21	62	128	93	0	61	11	7	10	4	28	0	3	32	7	1564	76	98	5	36	1	10	5	8	2986	64	23	2	24
OTU 74	23	12	10	17	0	4	33	18	23	3	27	111	5	99	31	50	0	46	0	6	0	0	20	34	2	6	6	28	7	186	2	43	39	19	301	66	3	4	58	24	46	20	16	8	1	15	7	15	57	9
OTU 75	14	1	10	50	0	16	8	53	61	2003	22	5	715	2	15	81	55	84	9	10	0	7	140	16	0	85	97	460	1110	38	57	29	74	36	1	110	2	1	24	84	32	64	45	14	3	13	31	4	17	738
OTU 76	1	10	0	0	2	0	73	20	0	2	0	3	3	0	0	0	0	0	2	0	0	1	1	0	0	9	3	1	3	2	48	0	2	70	4	4	10	6	8	2	2	135	0	1	2	6	0	39	19	0
OTU 77	177	2	5	5	148	19	44	26	48	116	55	146	45	2	37	1	23	44	15	17	9	11	25	152	0	16	2	1	47	6	35	15	17	1	4	4	25	39	141	1	45	2	31	0	67	51	27	21	14	54
OTU 78	27	554	153	111	626	6	2	0	234	74	234	112	44	118	125	2	12	0	3	58	269	83	910	956	28	90	126	26	19	24	51	9	69	0	17	375	318	0	6	23	10	6	19	101	361	44	14	267	26	55
OTU 79	118	49	21	113	330	794	725	315	169	181	153	67	262	173	266	32	201	51	140	161	68	48	27	427	137	110	107	110	209	114	83	6	101	183	116	183	80	43	304	193	103	74	215	363	158	109	78	29	123	283
OTU 80	138	42	18	15	21	218	24	9	78	1	106	10	2	21	3	1	129	0	4	2	37	175	47	100	7	3	2	1	107	41	7	0	54	174	1	97	7	146	15	18	135	14	4	30	3	23	10	12	45	0
OTU 81	78	29	21	101	4	1	28	37	128	12	2	14	2	764	10	7	159	131	66	6	16	40	62	2	70	28	67	19	98	76	55	37	19	116	45	21	1	67	9	92	12	66	1	3	5	11	3	11	96	4
OTU 82	19	1	0	14	5	140	19	2	2	13	20	7	2	25	48	45	25	181	15	27	6	1	18	39	3	19	834	61	40	105	9	0	17	122	0	5	5	74	246	0	33	179	1	5	1	11	18	1	9	32
OTU 83	3	1	0	0	49	7	1	1	5	2	0	3	9	0	0	0	0	6	2	0	4	1	0	3	0	20	0	0	0	0	0	0	47	5	0	16	0	0	2	0	55	5	0	0	28	0	6	32	0	19
OTU 84	0	33	7	21	8	7	0	26	15	0	66	0	0	5	81	0	35	51	0	35	51	2	0	61	2	0	0	0	3	1	19	9	72	9	89	7	22	165	0	5	9	0	2	3	1	78	3	6	82	4
OTU 85	1	10	10	14	1	0	0	0	66	0	0	10	1	1	0	5	13	10	0	0	30	0	1	0	25	0	0	19	148	138	0	2	39	0	4	1	0	9	94	0	18	25	2	0	1	0	0	0	5	1
OTU 86	0	0	0	0	0	0	0	0	0	0	2	0	0	20	8	0	0	0	3	2	4	0	0	0	0	0	0	20	0	1	8	0	0	0	2	4	0	0	0	0	0	0	0	0	0	0	0	0	2	0
OTU 87	0	5	0	5	80	7	1	0	0	26	8	0	0	36	6	0	8	0	0	5	7	0	1	3	0	0	1	4	0	0	1	0	1	0	4	35	0	0	30	0	16	0	13	9	88	0	0	1	0	6
OTU 88	0	0	0	1	0	2	0	0	0	0	0	0	0	0	0	0	1	0	5	0	0	30	0	0	0	12	0	1	0	0	0	0	0	0	0	0	0	1	0	0	0	0	0	0	0	7	1	9	24	0
OTU 89	0	18	10	85	0	0	0	21	115	5	12	53	1	6	1	15	0	78	0	0	39	29	14	0	49	5	0	2	0	267	3	0	0	1	3	43	0	0	18	2	0	25	7	1	0	2	0	13	29	0
OTU 90	0	0	0	77	0	0	0	1	110	0	0	0	0	17	3	0	0	1	0	0	4	0	0	0	19	0	0	0	31	0	24	2	36	11	0	1	0	0	2	0	0	0	0	0	0	0	0	3	0	0
OTU 91	0	0	1	6	0	0	0	0	7	0	0	0	0	0	0	0	0	0	0	0	0	0	0	0	0	0	0	1	0	0	0	16	0	0	0	18	2	0	0	3	0	1	0	1	0	3	27	0	0	2
OTU 92	0	4	2	0	1	4	0	41	0	3	2	0	0	26	9	3	37	3	13	8	0	0	0	3	2	27	0	12	0	0	0	27	0	0	0	122	0	0	0	0	7	0	18	0	0	0	12	0	52	0
OTU 93	0	0	0	12	8	0	0	0	0	9	0	0	5	1	0	34	4	99	0	0	0	22	0	0	0	0	0	30	72	0	0	0	38	4	2	0	0	0	14	10	0	0	0	2	0	1	2	1	1	0
OTU 94	246	121	34	4	2	24	140	26	1	11	34	318	48	39	69	23	14	102	285	30	134	54	90	135	34	30	29	5	25	35	229	30	143	37	22	15	49	40	105	141	149	95	555	21	5	88	9	102	166	29
OTU 95	11	3	0	0	3	40	47	0	20	6	0	3	3	15	0	8	48	60	0	0	0	0	6	167	6	5	3	0	0	0	0	0	1	11	0	0	1	0	1	0	21	0	5	2	9	2	3	0	11	0
OTU 96	0	0	0	0	0	0	0	18	0	0	0	0	0	0	0	31	0	0	0	0	0	2	0	0	0	0	0	0	1	0	0	0	5	4	0	0	4	0	0	0	0	58	0	2	0	9	0	0	0	0
OTU 97	5	0	0	488	0	0	50	0	841	0	0	5	1	208	0	17	0	16	0	0	0	8	0	0	0	11	0	0	29	0	0	13	9	1	26	0	205	1	0	11	83	0	0	0	0	478	0	0	0	0
OTU 98	2	54	23	23	1	0	0	32	17	6	0	0	0	0	1	242	20	2	13	0	16	4	1	8	11	28	7	0	0	17	116	213	0	57	0	0	0	2	83	0	0	13	4	2	0	0	214	15	29	0
OTU 99	66	35	16	19	125	5	69	33	32	3	50	62	6	116	9	39	3	160	267	3	6	40	73	95	48	12	37	20	170	49	77	55	6	27	1	29	43	12	21	42	53	48	582	3	79	149	123	4	96	2
OTU 100	110	11	0	1	0	14	52	11	10	39	0	14	21	7	0	0	61	25	3	0	0	5	0	11	0	4	1	1	0	278	13	16	79	0	95	9	20	3	15	1	7	34	4	9	0	30	7	36	186	53
OTU 101	0	0	0	0	0	0	33	0	0	0	0	7	0	0	3	0	0	3	0	2	0	0	1	0	0	35	13	0	0	0	0	0	0	0	40	0	0	18	2	14	0	0	7	0	0	0	0	1	3	14
OTU 102	14	12	0	45	2022	9	0	10	21	0	3	13	0	0	0	0	56	7	0	0	10	1	26	0	4	2	0	1	0	5	2	2	48	7	10	1	1	51	0	3	3	1	0	0	986	0	0	0	0	0
OTU 103	0	0	22	7	48	2	17	8	49	2	7	0	3	85	8	13	28	0	6	4	0	32	0	70	2	0	9	0	12	0	14	52	0	4	164	1	0	32	1	5	13	88	3	3	13	4	4	0	30	4
OTU 104	64	26	6	197	10	107	28	45	22	37	45	57	10	51	38	105	90	129	1	22	27	185	0	80	12	144	58	97	17	4	141	41	73	0	53	65	35	62	0	24	63	14	16	2	3	65	31	8	24	15
OTU 105	4	1	1	0	46	0	0	3	0	0	46	0	0	46	0	0	37	0	2	0	0	1	11	196	18	2	0	5	13	4	0	17	0	0	0	0	7	0	33	36	6	0	0	0	30	11	9	0	5	16
OTU 106	0	14	0	0	0	1	0	47	15	0	0	36	0	2	5	0	0	0	0	1	0	1	0	0	1	0	18	5	9	9	0	0	19	0	6	0	3	0	0	0	2	5	0	0	2	1	3	0	0	0
OTU 107	13	34	382	1	0	22	0	2	0	29	5	329	9	6	6	9	25	3	0	4	1011	79	26	0	29	6	12	0	1	0	0	171	0	0	0	95	0	3	95	0	68	0	1	272	0	2	29	4	3	0
OTU 108	0	361	87	7	0	17	5	79	2	0	3	35	0	8	2	0	55	2	27	0	275	16	289	7	41	24	179	0	22	34	3	0	4	7	18	1	2	323	1	18	22	24	5	35	0	0	0	202	14	18
OTU 109	0	0	0	0	0	0	0	0	0	0	0	0	0	0	0	0	0	0	0	0	0	0	0	0	0	0	0	0	0	0	4	0	0	3	0	0	0	4	0	0	0	0	0	0	0	0	0	0	3	0
OTU 110	26	36	7	1	3	1	20	8	5	92	0	11	32	13	33	53	47	28	8	19	24	3	6	108	8	131	3	11	1	582	105	33	11	7	4	0	0	19	21	6	31	48	12	0	0	2	4	72	25	56
OTU 111	0	33	0	8	4	1	1	0	0	0	0	0	0	0	0	0	0	1	1	0	0	1	0	11	0	0	0	0	0	0	6	0	14	0	1	73	0	1	0	2	0	214	19	0	0	0	28	6	3	0
OTU 112	13	1	2	2	1	0	1	25	12	2	3	0	5	0	0	11	0	64	44	0	1	11	9	15	0	0	4	0	0	107	0	0	0	1599	6	42	1	0	23	18	21	3	4	1	0	0	17	4	8	9
OTU 113	0	1	1	0	0	0	4	0	0	12	0	0	6	1	0	0	46	2	0	0	2	10	1	0	0	0	0	0	20	0	0	19	16	0	0	7	10	0	9	0	14	0	0	0	1	8	0	1	11	0
OTU 114	10	216	86	7	30	264	1	71	21	62	6	48	19	37	73	28	4	22	40	39	156	38	19	133	160	10	49	2	45	79	128	29	16	75	3	37	10	54	262	12	69	109	76	48	6	15	1	196	32	65
OTU 115	24	67	58	11	70	80	42	65	39	24	55	39	10	17	45	166	115	88	23	26	25	62	41	26	92	79	31	0	66	58	19	71	162	95	228	14	6	122	110	4	57	2	36	25	14	16	42	7	121	17
OTU 116	24	0	1	19	56	8	81	47	66	1	3	67	3	34	13	14	9	9	7	4	1	681	0	23	200	66	21	14	101	188	272	64	141	31	49	70	0	41	100	96	1174	26	10	195	23	1	69	99	12	4
OTU 117	55	14	3	39	178	2	19	22	51	6	11	12	17	30	1	1	1	41	1434	1	8	13	27	80	11	16	43	1	0	157	211	24	56	2	55	10	2	16	3	9	45	9	24	7	83	7	43	3	17	2
OTU 118	9	0	0	0	0	55	0	18	0	0	0	0	0	1	13	0	0	4	0	6	1	1843	0	0	0	0	0	0	2	0	0	9	0	2	0	0	0	57	3	0	0	0	0	1	0	0	11	5	7	5
OTU 119	34	12	3	0	34	17	6	49	94	11	0	102	11	11	23	112	9	1317	47	6	5	28	19	31	114	9	6	10	0	131	106	2	15	84	40	20	1	42	185	23	10	5	19	1	19	1	27	3	28	26
OTU 120	8	13	0	0	15	0	0	3	0	16	1	126	1	5	8	24	1	2	6	4	0	0	0	0	0	0	0	135	1	13	2	0	70	10	97	116	0	1	0	2	4	117	1	0	3	1	8	7	0	228
OTU 121	9	0	0	7	47	17	25	47	49	6	29	179	16	0	43	14	36	0	14	18	1	67	0	31	5	30	0	5	42	63	0	6	59	52	1	188	44	1	4	83	66	60	80	2	26	72	1	0	0	4
OTU 122	5	19	2	9	20	72	35	16	41	3	6	70	5	176	16	18	30	0	26	10	4	13	77	52	5	14	25	28	1	131	204	20	0	5	14	3	0	221	50	68	6	36	1	5	5	0	8	5	0	22
OTU 123	180	2210	729	26	38	49	87	101	110	54	105	116	34	283	58	83	164	227	46	26	1070	204	136	242	73	166	152	40	72	306	163	80	1402	84	421	63	82	167	189	7	377	37	72	4368	23	140	27	1334	481	9
OTU 124	0	7	5	0	12	0	3	0	0	51	28	21	52	0	3	5	2	2	0	3	6	2	23	1	5	6	2	0	1	0	94	0	12	0	23	0	1	23	162	9	43	0	1	2	7	0	0	4	70	32
OTU 125	79	51	30	37	96	270	166	197	44	112	71	167	84	141	697	144	119	77	130	333	126	378	90	71	526	45	199	44	27	156	181	1198	117	663	53	198	35	60	577	84	717	36	135	19	71	45	235	100	230	55
OTU 126	7	16	7	0	0	12	0	0	0	318	0	0	179	0	267	0	0	0	0	148	25	0	0	0	0	4	20	29	0	10	0	0	4	0	0	0	0	3	1	0	0	0	0	1	0	0	7	14	0	37
OTU 127	286	14	0	80	0	0	0	1	177	0	15	109	52	1	4	7	44	4	12	1	8	36	1	5	26	14	4	1	6	0	24	1455	1	11	2	0	14	5	70	0	18	3	38	0	0	45	8	7	65	47
OTU 128	231	549	140	25	18	135	205	157	95	18	101	246	16	197	12	817	143	262	451	5	352	108	487	88	189	357	419	88	250	14	306	357	2143	88	151	14	16	24	135	67	231	74	714	62	9	49	372	161	82	56
OTU 129	8	8	0	0	0	63	0	0	4	0	0	0	4	0	15	2	4	0	0	6	0	3	0	0	0	2	5	0	2	0	2	0	0	22	1	0	20	0	0	0	1	30	34	2	2	51	0	0	0	0
OTU 130	32	18	13	2	68	68	0	39	17	3	10	104	21	19	0	25	297	260	10	0	5	0	144	76	0	2118	26	13	34	1	10	0	0	59	13	8	14	236	67	555	6	14	13	15	18	6	22	19	1	2
OTU 131	29	192	57	7	441	8	0	1	65	38	22	19	94	15	25	2952	34	23	141	16	68	3	30	37	2677	0	3	2	143	0	65	15	0	17	0	47	8	86	33	198	1	52	136	14	230	46	6	585	156	1
OTU 132	19	3	2	21	96	31	1	43	1	0	0	3	1	12	2	19	38	0	2	0	0	34	153	7	11	82	0	0	26	120	0	14	17	14	0	8	0	72	1	0	0	58	0	12	21	0	47	0	18	0
OTU 133	7	37	0	0	16	1	0	0	1	2	1	20	0	48	0	7	2	0	0	0	0	0	1	9	7	0	0	0	0	8	1	0	18	0	0	0	3	8	1	0	0	0	15	1	9	14	0	0	4	0
OTU 134	24	52	1	21	0	3	86	22	1	70	13	1	53	3	2	3	0	0	23	0	0	0	9	22	62	0	146	9	23	37	30	5	12	45	84	0	8	20	8	4	6	6	1	0	0	7	30	2	0	22
OTU 135	27	9	1	40	130	0	0	76	133	23	15	3	65	51	78	19	43	10	4	2836	20	17	8	39	4	4	12	15	83	87	253	0	0	6	1	1	0	94	2	14	3	106	19	0	70	0	9	4	7	3
OTU 136	147	3	3	1	3	31	4	7	1	2	0	4	1	9	15	1	126	10	2	9	7	27	40	0	24	5	27	5	41	96	5	543	35	11	31	31	16	38	13	10	25	5	15	0	1	3	0	1	86	4
OTU 137	0	3	0	0	0	0	5	12	1	15	7	0	21	2	0	738	0	0	4	0	1	0	30	0	56	6	2	3	0	109	57	718	0	5	47	9	0	0	72	39	34	0	5	0	0	3	540	2	23	1
OTU 138	34	0	1	0	14	0	0	6	0	27	35	0	2	2	15	63	56	0	0	5	1	16	3	18	0	95	0	0	0	7	71	0	3	45	0	0	0	59	22	21	4	18	7	0	17	0	12	0	33	67
OTU 139	28	39	1676	33	16	84	31	21	99	748	70	214	280	48	852	36	67	20	348	435	3257	51	12	37	36	11	113	240	166	49	230	52	96	36	43	42	18	20	88	28	83	496	668	897	3	67	59	6	646	375
OTU 140	487	7	16	127	224	253	399	65	259	41	83	141	45	274	53	35	127	27	62	26	31	45	50	10	12	64	82	27	113	115	629	21	71	45	88	47	648	51	73	50	139	70	61	3	146	313	99	34	105	86
OTU 141	0	0	0	0	0	37	0	0	0	0	0	0	1	5	0	0	0	0	0	0	0	0	42	0	1	0	0	3	0	23	0	0	2	1	0	0	0	0	0	0	0	0	0	0	0	0	0	0	0	0
OTU 142	0	0	1	1	0	0	0	1	47	0	0	0	0	0	0	0	0	0	2	0	0	4	0	0	17	1	0	0	0	0	0	0	0	1	0	0	5	0	1	0	0	0	0	1	2	21	0	0	0	0
OTU 143	0	0	0	0	0	0	35	3	0	9	1	0	8	1	2	0	0	30	0	0	1	3	0	0	7	0	1	2	33	51	26	0	0	51	11	1	4	4	0	3	0	5	0	0	0	1	2	16	0	27
OTU 144	1	0	6	4	10	0	0	4	5	0	0	9	0	0	0	6	2	0	0	0	2	0	0	1	2	0	2	6	0	0	54	22	18	0	34	0	0	19	2	17	16	69	0	0	1	0	0	3	0	1
OTU 145	69	1	1	103	37	17	24	52	191	64	0	18	1	172	11	4	335	1	2	1	16	35	29	9	12	83	41	7	69	24	60	0	3	115	83	1	7	31	0	32	28	82	84	1	9	9	24	10	9	0
OTU 146	0	0	8	1	8	41	7	317	18	78	34	2	10	83	8	0	0	13	81	7	3	9	1	18	102	11	2	19	2	13	18	22	29	5	982	23	19	78	86	108	18	127	13	0	2	29	38	10	2	4
OTU 147	8	0	2	35	11	0	4	5	20	1	9	18	0	66	1	94	12	0	0	1	0	34	30	3	1	33	10	0	3	4	42	2	158	0	82	3	0	3	16	0	0	0	0	0	0	0	0	4	6	8
OTU 148	0	0	4	277	12	0	92	102	10	5	62	1035	5	117	24	19	1072	98	1	13	15	5	62	105	31	18	10	23	62	113	44	55	29	20	6	7	59	93	50	289	0	0	35	0	11	111	12	5	43	6
OTU 149	3	4	0	5	0	4	7	2	15	0	0	3	0	0	0	10	5	15	3	0	1	2	1	10	3	3	0	16	14	49	7	30	0	0	11	9	0	3	42	8	10	3	0	1	0	0	3	0	76	21
OTU 150	0	0	0	0	29	0	0	4	12	0	0	12	7	7	0	0	26	8	0	0	6	3	0	0	50	111	34	10	5	2	37	38	4	3	0	1	11	15	0	0	2	0	0	0	11	19	23	0	15	5
OTU 151	0	0	1	5	4	11	10	1	9	0	5	19	15	8	25	23	42	0	603	12	0	50	2	31	5	21	0	4	35	7	0	0	482	18	52	0	0	2	52	10	36	0	5	9	2	5	0	0	1	1
OTU 152	212	0	0	8	4	51	0	11	13	40	18	35	16	94	3	15	0	1	0	3	5	5	10	41	13	34	129	11	1	77	63	3	4	9	39	0	6	2	47	32	87	0	13	7	9	13	9	13	48	0
OTU 153	0	3	0	0	4	0	7	0	23	6	0	3	0	0	0	0	4	9	2	0	0	3	0	0	0	20	0	0	0	0	0	0	0	0	55	0	0	0	0	0	0	0	0	0	0	0	7	2	0	0
OTU 154	0	0	0	0	1	0	0	0	4	0	4	0	0	1	0	0	11	0	5	0	0	0	0	2	0	0	12	0	16	2	0	0	0	53	2	0	0	2	0	6	16	36	5	4	2	1	0	0	397	0
OTU 155	3	0	1	2	25	688	0	0	0	9	0	3	0	64	0	41	15	3	6	0	1	61	0	0	27	9	7	11	42	2	103	0	1	68	46	1	0	31	133	23	20	6	19	0	18	2	5	39	1	7
OTU 156	28	6	2	95	205	22	43	56	131	48	25	116	28	148	21	5	201	18	10	11	24	91	64	137	13	28	39	38	73	45	56	10	164	28	153	158	21	36	5	108	315	19	13	2	47	48	4	1	30	16
OTU 157	0	1	3	18	254	21	0	1	4	20	1	0	43	6	82	2	11	152	1	50	0	1	0	155	10	23	0	0	3	0	3	0	0	18	35	1	0	0	3	0	2	2	19	1	121	0	0	0	271	0
OTU 158	0	0	0	0	0	1	0	0	0	0	1	22	1	0	0	0	0	0	1	0	0	11	0	0	0	0	0	0	0	0	0	0	0	0	0	0	0	3	0	0	0	0	0	0	1	0	0	5	0	0
OTU 159	34	7	6	60	17	2	0	34	171	5	28	13	4	4	0	42	15	1	1	0	9	5	2	29	2	4	38	0	15	24	43	19	139	0	313	3	11	13	26	30	6	2	3	5	1	11	58	1	3	0
OTU 160	86	157	17	28	61	18	42	28	86	37	251	21	28	149	122	152	106	58	7	97	55	87	375	278	284	51	65	16	75	260	167	421	77	279	38	137	98	261	625	26	128	117	14	27	53	187	71	72	175	52
OTU 161	88	0	0	11	120	216	69	7	4	21	5	13	48	7	55	35	45	0	6	28	0	8	5	1	45	85	2	149	0	55	4	2	8	57	11	4	0	51	2	0	86	5	52	8	72	4	94	6	41	77
OTU 162	9	26	1	42	251	7	171	12	49	138	89	191	47	48	21	40	2	8	17	10	26	5	16	700	32	23	31	8	14	9	8	6	32	21	16	256	10	1	77	6	0	2	3	3	96	18	5	43	12	96
OTU 163	0	0	0	0	0	2	0	0	0	0	0	0	0	0	0	0	0	0	0	0	0	0	1	0	0	0	0	0	0	48	0	0	0	0	9	0	0	0	0	0	0	0	0	0	0	0	0	0	0	0
OTU 164	0	0	0	0	0	0	0	16	0	0	0	3	0	1	0	0	0	0	0	0	0	0	0	0	0	0	0	0	0	0	0	0	2	0	1	0	0	0	0	0	0	0	0	0	0	0	0	0	0	2
OTU 165	22	5	0	17	42	0	8	2	14	1	37	2	1	9	2	3	36	3	37	2	0	3	0	0	50	33	0	0	136	2	11	3	1	62	2	0	3	0	81	12	19	31	27	1	31	17	4	1	72	20
OTU 166	0	0	0	2	0	0	0	0	0	0	0	0	0	0	0	0	0	0	0	0	0	0	9	0	0	1	0	0	0	0	0	2	0	8	6	0	0	0	0	0	0	0	0	0	0	1	0	0	0	1
OTU 167	0	1	0	32	2	35	1	207	59	10	1	0	4	0	1	0	88	29	1	0	0	50	7	26	1	18	51	10	0	11	2	33	2	32	64	83	7	13	0	1	89	1	0	0	1	13	1	0	29	6
OTU 168	36	0	0	13	5	53	14	112	20	0	8	112	1	18	16	5	16	62	7	5	1	28	5	11	13	34	1	15	5	38	202	53	52	78	22	9	7	1	51	60	19	2	7	0	0	15	13	1	36	3
OTU 169	0	51	1	8	0	0	0	0	1	0	0	6	2	20	0	0	0	0	5	0	5	0	0	1	0	7	0	2	0	0	0	0	60	0	0	9	0	29	128	0	17	0	0	11	0	2	0	0	0	1
OTU 170	0	1	1	0	0	0	0	0	0	0	0	0	4	0	2	2	0	0	0	1	0	0	0	3	0	0	8	0	0	42	2	0	7	0	0	0	0	0	0	0	0	0	1	0	0	0	0	0	0	0
OTU 171	0	4	414	1	13	105	49	11	6	16	11	4	2	39	9	24	0	63	0	4	17	0	11	15	14	5	18	0	13	77	21	71	4	8	27	13	72	9	1	36	8	16	4	111	44	157	21	18	3	0
OTU 172	8	3	0	3	0	11	0	3	0	0	8	0	0	1	0	2	0	0	1	0	6	2	0	0	0	0	0	2	113	6	7	0	0	0	0	0	0	3	5	0	0	1	0	0	0	0	9	0	0	0
OTU 173	5	3	0	0	0	0	13	1	9	0	0	65	1	29	28	2	0	9	0	20	0	29	0	2	1	3	17	3	77	39	0	21	0	7	0	0	0	0	0	16	33	27	56	0	2	0	44	0	0	0
OTU 174	31	0	4	9	36	15	30	4	2	313	1	437	212	0	704	18	0	5	1	346	8	0	1	0	3	3	0	82	18	44	0	11	2	1	84	10	3	9	7	6	11	0	0	1	21	1	12	0	5	210
OTU 175	0	10	0	12	60	0	1	35	6	0	16	1	0	68	1	3	0	40	0	0	4	2	22	13	0	7	32	78	5	3	42	0	4	3	0	16	14	17	6	0	2	41	18	5	7	20	2	13	1	0
OTU 176	29	72	16	31	10	2	91	7	73	42	0	38	6	9	4	21	18	1	61	6	15	21	16	8	20	68	11	2	26	80	109	5	67	0	5	28	26	22	12	276	2	334	47	3	17	80	9	25	260	60
OTU 177	1	50	21	26	5	39	2	65	30	77	68	28	40	8	0	35	28	31	1	0	3	3	1	0	5	10	27	6	5	80	73	25	19	4	0	25	15	44	2	21	1	27	10	3	0	27	21	11	83	14
OTU 178	0	29	1	4	1	0	2	5	1	7	0	10	3905	53	0	0	40	4	9	0	16	0	0	2	8	21	3	13	1149	117	20	28	155	3	10	2	0	4	0	5	57	91	19	0	2	0	0	16	42	4
OTU 179	2	32	12	3	4	5	2	59	7	4	23	38	3	10	0	29	5	1571	0	12	33	0	4	4	25	105	4	5	7	77	9	11	28	12	57	8	0	27	0	26	12	2	1	7	0	0	0	0	28	7
OTU 180	296	57	16	448	54	84	17	1275	865	19	3882	89	25	196	27	377	58	316	183	13	151	141	46	4	872	219	3190	7	54	116	17	322	69	122	92	90	186	211	1748	47	220	67	316	3	21	355	176	67	96	17
OTU 181	0	36	5	3	9	44	3	3	0	8	101	0	15	7	0	1	6	11	4	0	12	8	14	120	0	140	14	7	92	14	0	21	2	5	7	8	5	33	13	0	6	11	13	5	11	16	1	17	393	3
OTU 182	0	0	1	0	0	0	6	0	0	6	0	5	0	0	0	0	0	0	0	0	0	0	16	0	0	7	0	3	0	0	0	0	0	0	0	0	1291	0	0	4	0	0	0	0	0	0	0	0	0	0
OTU 183	1	12	3	0	7	1	6	2	15	158	15	184	24	0	0	0	95	69	0	0	9	10	40	0	8	169	0	63	1	115	0	9	1	33	11	117	2	0	33	5	10	0	0	0	0	4	0	0	58	14
OTU 184	17	1	1	0	3	1	0	22	0	1	1	9	0	4	1	0	0	10	18	0	19	4	3	3	8	2	3	0	19	17	4	0	1	2	22	0	3	0	19	2	8	0	30	0	2	3	23	15	0	2
OTU 185	112	3	10	225	8	201	35	1	436	1	1	75	21	402	19	46	18	58	123	9	7	0	8	13	90	1	4	1185	95	23	15	18	1	142	18	20	2	8	20	60	34	7	154	5	0	7	6	502	5	205
OTU 186	182	3	22	0	3	0	0	0	2	0	15	36	7	45	3	2	3	3	33	5	1	2	5	1	4	14	29	7	0	7	0	7	0	0	0	0	0	23	0	0	61	0	9	0	0	2	62	0	6	0
OTU 187	88	57	44	63	29	6	36	266	52	20	22	19	22	32	24	28	48	174	2	9	33	19	192	10	25	79	11	34	40	13	47	35	9	7	17	40	19	56	88	170	30	15	50	36	12	50	3	24	201	63
OTU 188	82	0	4236	11	15	124	72	1	3	61	48	79	54	41	59	59	30	22	26	26	8	110	36	197	113	101	2	9	59	17	63	7	12	194	53	11	3	96	44	11	443	104	146	2072	5	4	34	7	324	45
OTU 189	2	16	20	25	8	20	14	98	86	19	20	444	35	42	53	47	183	38	12	23	18	97	58	77	10	1	9	1	10	6	65	10	8	47	72	99	33	45	22	10	78	0	33	7	2101	47	13	9	114	50
OTU 190	0	11	0	0	41	0	0	0	0	0	5	0	5	0	10	0	1	0	144	7	0	0	12	13	12	0	0	0	0	2	3	1	0	0	8	1	0	188	0	7	0	13	680	0	2	0	2	6	1	0
OTU 191	74	4	1	30	75	13	0	392	66	8	20	101	5	162	4	32	1	88	14	2	15	5	0	315	1	1	250	10	26	196	5	62	64	1053	59	13	21	39	31	21	4	122	23	0	61	24	4	3	42	5
OTU 192	197	94	25	39	220	95	4	54	23	23	73	56	1	92	36	1	506	9	30	19	40	1	269	103	24	5	14	9	85	54	33	28	15	6	7	13	249	1	31	703	38	181	27	5	103	484	12	2	278	10
OTU 193	16	75	3	17	11	874	38	6	1	33	6	12	1	31	9	10	93	19	23	1	42	6	198	32	37	67	2	0	705	37	38	29	1	462	10	20	0	318	2	39	0	7	31	2	4	2	4	10	116	10
OTU 194	2	43	40	0	122	1	5	0	0	92	4	9	12	14	2	1	10	2	0	1	11	24	0	46	23	3	13	2	2	0	10	0	21	1	16	0	4	0	0	71	24	60	20	1	59	2	33	23	5	15
OTU 195	31	1	2	33	53	23	0	3	0	4	6	16	1	35	8	0	1	25	3	2	0	0	3	6	4	18	98	5	0	234	70	3	24	4	10	30	22	10	29	28	1	0	4	0	29	29	1	1	5	14
OTU 196	0	54	6	25	16	23	3476	6	6	12	66	1	0	0	0	40	0	20	0	0	1	0	4	10	3	31	4	0	151	20	31	0	21	22	29	103	25	63	28	0	15	1	4	0	8	41	0	12	26	1
OTU 197	107	31	23	8	34	61	538	18	3	47	1655	61	41	87	16	46	188	31	3	2116	16	8	155	99	36	10	5	23	63	117	130	29	48	28	29	5	0	21	119	83	124	300	20	14	14	9	11	1	84	7
OTU 198	2	36	3	6	3	0	0	3	22	53	18	26	57	0	13	2	0	0	28	6	21	0	47	0	0	0	0	6	20	25	0	0	0	22	7	0	0	0	0	0	74	2	0	5	0	0	0	0	0	0
OTU 199	0	0	1	1	1	1	2	125	19	28	16	5	1	14	4	2	3	0	0	1	3	0	0	2	38	4	91	7	2	5	51	0	9	3	29	16	3	6	0	0	1	7	0	5	0	3	0	16	15	19
OTU 200	21	9	0	1	194	9	6	9	1	5	0	37	0	3	43	29	18	1	14	29	2	6	16	65	32	11	0	0	7	21	58	3	12	0	4	2	0	45	25	3	20	36	15	175	103	0	23	7	118	37
