	Host 1	Host 2	Host 3	Host 4	Host 5	Host 6	Host 7	Host 8	Host 9	Host 10	Host 11	Host 12	Host 13	Host 14	Host 15	Host 16	Host 17	Host 18	Host 19	Host 20	Host 21	Host 22	Host 23	Host 24	Host 25	Host 26	Host 27	Host 28	Host 29	Host 30	Host 31	Host 32	Host 33	Host 34	Host 35	Host 36	Host 37	Host 38	Host 39	Host 40	Host 41	Host 42	Host 43	Host 44	Host 45	Host 46	Host 47	Host 48	Host 49	Host 50	
OTU 1	0	4	0	0	0	3	3	11	0	1	5	2	1	0	2	1	11	11	2	9	2	0	4	6	2	57	0	0	3	0	8	4	0	4	2	4	9	5	2	2	3	0	0	2	7	0	2	4	1	0
OTU 2	0	0	0	0	0	0	0	0	0	1	0	0	0	1	0	0	0	0	1	0	2	0	0	2	3	1	0	0	0	0	1	3	3	1	0	0	1	2	0	1	0	0	0	4	0	0	0	1	7	2
OTU 3	0	4	0	0	0	0	2	0	0	0	1	0	0	8	0	0	0	0	0	0	0	0	0	10	0	0	0	1	0	1	3	0	0	0	0	1	0	1	0	0	0	0	0	0	0	1	0	0	0	3
OTU 4	0	0	0	0	0	0	0	0	0	0	0	0	0	0	0	0	0	0	0	0	0	0	0	0	0	0	0	0	0	0	0	0	0	0	0	0	0	0	0	0	0	0	0	0	0	0	0	0	0	0
OTU 5	14	5	18	3	1	53	87	23	0	22	40	39	37	0	68	0	18	7	56	8	1	38	16	17	29	36	57	1	0	5	5	3	36	4	32	3	3	8	5	87	9	26	18	1	0	23	15	0	3	1
OTU 6	0	0	2	0	0	2	0	2	0	0	1	0	0	6	0	0	1	0	0	0	1	3	0	0	17	28	0	4	1	0	0	0	4	0	0	1	0	0	2	0	1	0	0	0	0	3	40	1	5	0
OTU 7	58	2	8	10	1	1	18	5	48	14	15	5	6	19	15	2	19	7	2	7	1	10	22	19	1	2	0	0	2	2	1	59	0	17	3	3	3	5	1	6	6	9	14	0	6	5	3	0	30	1
OTU 8	16	1	8	0	3	8	1	2	3	8	4	1	0	3	1	7	0	2	2	0	5	3	0	0	4	4	2	2	7	0	6	13	2	22	1	9	1	2	1	1	0	0	1	5	9	0	9	9	3	8
OTU 9	0	0	4	0	0	0	2	0	3	1	0	0	0	4	0	1	5	0	0	2	1	1	3	0	0	0	0	0	1	0	0	3	0	0	0	1	1	0	0	1	1	1	0	0	0	0	0	1	0	4
OTU 10	0	3	0	1	0	0	2	0	0	0	1	0	0	5	2	0	0	0	7	0	1	1	0	0	0	1	8	0	0	0	0	2	0	0	0	0	0	1	1	0	0	1	1	3	4	1	1	0	0	0
OTU 11	0	20	0	0	0	2	6	0	3	0	7	3	1	13	8	2	0	0	0	0	1	0	2	7	1	0	1	0	0	18	1	5	1	0	101	1	0	3	2	3	0	1	0	2	2	4	0	6	10	1
OTU 12	5	0	3	5	2	0	0	0	2	0	0	1	0	1	3	1	1	2	0	1	0	1	0	2	0	0	0	6	1	2	1	0	1	0	0	0	0	2	1	2	0	3	0	0	5	0	3	0	1	1
OTU 13	0	0	0	0	0	0	0	0	0	1	0	0	0	0	0	0	0	0	0	0	0	0	0	0	0	0	0	0	0	4	0	0	0	0	0	2	0	0	0	0	0	0	0	0	0	0	0	0	0	0
OTU 14	0	0	2	0	0	0	0	0	3	0	0	0	0	1	0	0	0	3	0	0	1	0	0	0	0	1	0	0	1	0	0	1	0	0	0	0	3	0	0	1	2	0	0	0	0	2	3	0	3	0
OTU 15	0	0	0	0	0	0	0	1	0	0	0	0	0	0	0	0	0	1	0	2	0	0	0	0	0	0	0	0	0	0	0	0	0	0	0	0	0	0	0	0	0	0	0	0	0	0	0	0	0	0
OTU 16	0	0	0	0	0	0	0	0	0	0	0	0	0	0	0	0	0	0	0	0	0	0	0	0	0	0	0	0	0	0	0	0	0	0	0	0	0	0	0	0	0	0	0	0	0	0	0	0	0	0
OTU 17	1	0	0	0	0	0	0	2	0	0	0	2	0	0	1	1	1	3	1	0	0	5	2	0	1	1	0	0	0	30	0	0	1	0	1	4	2	0	0	2	0	1	2	1	0	0	2	0	0	0
OTU 18	1	0	2	0	11	0	2	0	45	1	0	60	3	0	0	0	0	3	0	0	0	1	2	0	2	1	0	0	13	3	0	5	4	0	0	4	3	1	0	0	0	4	1	0	1	2	2	15	1	0
OTU 19	0	0	0	0	0	0	0	0	0	0	0	0	0	0	0	0	0	0	0	0	0	0	0	0	0	0	0	0	3	0	0	0	0	0	0	0	0	0	0	0	0	0	0	0	0	0	0	0	0	0
OTU 20	0	0	1	8	1	2	0	1	0	4	0	0	7	1	1	5	5	1	0	0	1	1	156	0	0	1	0	0	0	1	0	0	0	3	0	1	2	3	2	1	1	4	1	1	1	0	1	8	0	7
OTU 21	1	5	1	1	0	0	1	1	2	0	0	0	0	12	1	4	2	9	1	0	3	0	0	0	0	1	0	1	1	1	2	0	0	0	0	0	0	1	1	0	4	0	0	3	1	1	1	0	0	0
OTU 22	7	1	0	1	1	1	4	0	7	0	1	26	2	0	0	1	2	0	0	0	1	1	4	2	0	0	1	0	2	6	1	5	2	2	0	0	0	1	1	5	102	0	0	1	2	0	2	5	0	0
OTU 23	0	0	0	0	0	2	0	0	2	0	0	0	0	0	3	4	1	0	0	0	0	0	2	1	5	0	0	0	0	0	4	0	0	0	0	0	0	0	0	2	0	0	0	2	0	0	3	0	0	1
OTU 24	0	2	0	0	1	0	0	0	0	0	0	0	0	2	0	3	0	3	1	0	0	0	0	0	3	0	0	0	0	0	0	0	0	0	1	0	2	0	0	0	1	0	24	0	1	2	0	0	2	2
OTU 25	0	0	0	0	0	0	0	0	0	0	0	0	0	0	0	0	0	0	0	0	0	0	0	0	0	0	0	0	0	0	0	0	0	0	0	0	0	0	0	0	0	0	0	0	0	0	0	1	0	0
OTU 26	1	0	0	0	0	0	1	0	0	0	1	0	0	0	0	0	0	0	0	1	0	0	0	0	1	0	1	0	1	1	0	3	0	0	0	0	0	0	0	4	0	0	0	2	0	1	0	0	0	3
OTU 27	0	0	0	0	0	0	0	0	0	0	0	0	0	0	0	0	0	0	0	0	0	0	0	0	0	0	0	0	0	0	0	0	0	0	0	0	0	0	0	0	0	2	0	0	0	0	0	0	0	0
OTU 28	0	5	2	0	1	0	0	1	1	0	3	3	0	0	2	5	0	0	12	0	0	0	0	0	0	2	1	2	0	8	7	1	2	0	0	1	0	1	1	2	1	0	0	3	1	0	0	0	2	0
OTU 29	2	1	0	0	0	0	0	0	13	1	6	8	0	0	6	1	1	2	2	0	7	0	2	6	0	0	2	0	0	0	7	0	1	2	0	0	11	4	1	1	0	1	2	1	16	9	0	4	4	5
OTU 30	0	0	0	0	0	0	0	0	0	0	0	0	0	0	0	0	0	0	1	0	0	0	0	0	0	0	0	0	0	0	0	0	0	0	0	0	0	0	0	0	0	0	0	0	0	0	0	0	0	0
OTU 31	0	0	0	0	3	0	0	0	0	0	0	0	0	0	0	0	0	0	1	0	0	0	0	0	1	1	0	1	0	0	0	0	0	4	0	2	0	0	0	0	0	0	0	0	0	0	2	7	0	1
OTU 32	8	0	0	2	2	0	2	3	3	0	28	1	12	1	6	6	6	0	0	5	0	0	0	4	1	0	0	0	7	0	0	2	3	0	1	0	0	1	1	11	4	1	3	0	2	4	0	48	3	3
OTU 33	0	0	0	0	0	0	0	0	0	0	0	0	0	0	0	0	0	0	0	0	0	0	0	0	0	0	0	0	0	0	0	0	0	0	0	0	0	0	0	0	0	0	0	0	0	0	0	0	0	0
OTU 34	3	1	0	0	1	2	0	0	1	69	3	0	0	9	1	9	0	2	0	0	0	0	0	0	1	0	0	1	1	0	1	0	0	130	0	0	4	0	0	1	0	0	1	1	1	0	0	4	5	0
OTU 35	2	0	3	4	10	2	2	0	1	1	0	1	2	0	1	0	0	29	3	0	0	6	1	7	2	3	0	2	0	2	3	7	23	5	1	0	22	0	0	0	0	0	0	0	0	0	7	2	2	1
OTU 36	4	0	4	4	0	0	3	0	0	1	1	3	2	0	3	2	1	1	0	0	0	0	0	8	1	0	2	2	0	0	0	4	2	0	0	4	0	0	0	2	0	1	0	0	0	9	1	7	0	0
OTU 37	0	0	0	1	0	0	1	1	0	0	0	0	0	3	2	0	3	0	0	0	0	0	0	1	0	0	0	4	1	0	0	4	0	0	3	0	0	0	0	0	2	0	0	0	1	0	0	0	1	0
OTU 38	4	0	2	0	1	0	0	0	0	1	6	0	0	11	1	1	0	0	0	0	0	0	1	0	2	2	0	1	0	2	0	0	0	0	0	0	0	104	59	8	0	0	6	0	2	0	2	0	12	13
OTU 39	0	0	0	0	0	1	0	0	1	0	0	0	0	1	0	0	0	0	0	0	0	0	0	1	0	0	0	0	1	0	0	0	0	0	0	0	0	0	0	0	0	1	0	0	0	0	0	0	0	0
OTU 40	0	15	1	5	0	1	1	2	1	2	4	2	0	0	2	16	7	1	1	1	8	1	1	12	0	0	3	2	0	4	1	0	1	7	1	0	0	3	1	1	2	2	0	1	0	0	1	11	1	2
OTU 41	0	0	1	8	41	1	2	0	0	0	1	0	0	0	1	3	2	0	12	0	0	1	1	0	0	2	11	12	3	1	20	2	0	0	0	0	0	0	0	0	0	2	8	0	0	2	1	0	1	4
OTU 42	0	0	1	3	0	1	0	0	0	0	0	0	0	0	2	0	0	0	89	0	0	0	0	0	0	0	36	0	0	0	4	0	0	0	0	0	0	2	0	0	0	0	2	0	1	0	0	3	1	0
OTU 43	0	0	0	0	0	0	0	0	0	0	0	0	0	0	0	0	0	0	0	0	0	0	0	0	0	0	0	0	0	0	0	0	0	0	0	1	0	0	0	1	0	0	1	1	0	0	0	0	0	0
OTU 44	2	0	0	2	0	3	0	0	0	0	0	2	0	0	0	2	1	0	0	0	0	0	0	0	0	0	0	0	0	0	3	0	0	0	1	0	0	0	0	0	2	0	2	0	0	0	0	0	0	2
OTU 45	2	0	1	0	1	0	0	0	0	4	0	0	8	0	0	10	0	4	1	0	1	1	0	0	0	0	0	1	0	1	3	0	1	6	0	0	0	1	0	0	0	0	2	7	2	2	1	0	0	0
OTU 46	0	3	1	0	1	3	10	4	0	0	2	3	0	1	0	3	4	0	1	2	0	0	0	0	1	0	2	0	0	1	1	12	0	3	2	1	1	2	0	0	0	2	0	0	0	4	1	1	3	3
OTU 47	0	0	0	0	0	0	0	0	0	0	0	0	0	0	0	0	0	0	0	0	0	0	0	0	0	0	0	0	0	0	2	0	0	0	0	0	0	0	0	0	0	0	0	0	0	0	1	0	0	0
OTU 48	0	1	1	1	0	1	4	2	0	1	0	0	0	1	0	0	1	0	2	1	0	0	20	2	1	0	0	0	5	2	2	7	1	2	40	0	2	1	0	0	0	0	3	2	3	2	2	1	0	2
OTU 49	4	3	2	1	0	1	0	0	0	0	0	0	0	0	0	0	0	0	0	0	1	0	0	0	0	0	0	0	37	1	0	0	0	0	0	1	0	0	1	0	0	0	0	1	0	0	0	2	0	2
OTU 50	1	0	1	3	0	1	101	1	0	2	0	7	3	2	0	0	1	2	9	0	2	0	7	3	0	48	14	0	1	5	0	1	1	1	0	2	2	1	2	0	4	5	0	10	0	5	1	0	22	1
OTU 51	0	0	0	2	0	2	4	0	3	0	0	11	0	3	0	0	0	0	1	0	0	0	0	0	0	0	2	1	3	0	1	2	0	0	0	0	0	2	0	1	0	1	0	0	0	12	1	3	17	1
OTU 52	1	1	6	0	2	1	5	3	15	2	5	0	0	9	3	1	1	5	1	0	0	1	1	3	15	16	1	0	10	4	4	8	3	2	0	2	5	1	0	4	3	0	18	5	3	2	27	0	0	1
OTU 53	0	0	0	0	0	0	0	0	0	0	0	0	0	0	0	0	0	0	0	0	0	0	0	0	0	0	0	0	0	0	0	0	0	0	0	0	0	0	0	0	0	0	0	0	0	0	0	0	0	0
OTU 54	0	17	3	2	4	2	1	6	0	1	100	6	28	5	3	5	21	3	0	9	6	1	2	7	0	1	0	7	2	3	6	6	1	6	7	0	0	3	3	32	20	1	1	2	14	5	0	7	3	1
OTU 55	0	0	0	0	0	0	0	0	0	0	0	0	0	0	0	0	0	0	0	0	0	0	0	0	0	0	0	0	0	0	0	0	0	0	0	0	0	0	0	0	0	0	0	0	0	0	0	0	0	0
OTU 56	2	0	1	0	11	0	0	0	0	0	0	0	0	0	0	0	0	0	0	0	0	1	1	0	0	0	0	1	0	3	0	0	0	0	1	0	0	1	0	1	0	0	0	3	3	0	2	0	0	0
OTU 57	8	2	7	1	2	0	2	0	2	1	0	3	1	6	6	0	0	5	0	2	4	3	0	2	1	0	3	3	4	10	5	4	16	1	0	1	0	1	1	0	0	5	4	3	1	6	2	4	8	1
OTU 58	0	1	1	0	0	0	0	0	5	0	0	3	2	0	2	0	2	0	0	2	3	1	3	0	0	0	0	9	0	0	0	0	0	2	0	0	0	0	2	1	0	1	0	4	1	2	0	0	0	0
OTU 59	0	0	0	0	3	0	3	0	0	0	0	0	0	1	2	7	0	2	2	3	3	0	0	0	0	1	0	7	2	1	1	0	1	0	0	0	0	0	0	0	0	0	0	3	0	0	3	3	4	1
OTU 60	9	1	3	5	10	2	0	0	3	0	1	3	0	1	3	0	1	2	0	0	0	4	0	1	3	0	4	1	1	1	5	0	2	0	1	1	0	1	0	1	0	0	7	12	1	0	6	2	0	0
OTU 61	2	1	19	5	9	57	7	1	0	1	6	3	7	3	4	5	7	7	1	1	2	7	4	10	2	0	0	0	13	2	1	7	29	2	26	2	1	1	0	0	2	10	3	0	0	16	2	13	13	2
OTU 62	0	0	0	0	0	0	0	0	0	0	1	0	0	2	1	0	1	0	0	0	3	0	0	0	0	0	0	0	6	0	0	0	0	0	0	0	0	0	0	1	0	0	0	0	0	0	0	3	0	0
OTU 63	0	0	0	0	3	0	0	0	0	0	0	0	0	0	0	0	0	0	11	0	10	2	1	0	2	1	2	0	0	0	3	1	0	3	0	1	2	1	0	0	0	1	1	7	2	0	0	0	0	0
OTU 64	7	0	3	6	4	5	0	2	2	0	2	2	1	0	0	0	4	1	0	2	2	10	2	1	0	2	0	2	17	3	0	2	2	0	1	10	0	0	0	0	1	0	21	8	0	3	0	3	4	2
OTU 65	0	0	0	0	0	0	0	0	0	0	0	0	0	0	0	0	0	0	0	0	0	0	0	0	0	0	0	0	0	0	0	0	0	0	0	0	0	0	0	0	0	0	0	0	0	0	0	0	0	0
OTU 66	0	0	2	3	9	3	7	1	0	1	0	0	1	0	1	2	3	0	1	2	1	0	0	3	7	4	1	0	2	0	1	8	1	0	1	3	2	1	1	0	0	0	0	4	3	3	6	6	3	1
OTU 67	0	4	0	1	18	14	1	1	0	1	2	2	0	0	1	0	1	10	2	2	13	1	2	0	0	1	1	9	1	2	0	0	5	0	1	0	0	7	2	0	0	3	1	27	13	0	2	0	0	40
OTU 68	0	1	0	0	0	0	0	0	0	0	0	0	0	0	1	0	1	2	5	0	0	0	1	2	0	0	1	0	0	0	1	0	0	0	0	0	0	0	0	0	0	0	4	0	2	0	0	0	0	1
OTU 69	6	1	0	0	3	1	0	0	0	4	0	2	0	16	3	11	1	0	0	0	0	0	0	3	0	1	0	6	5	0	0	0	0	2	0	0	1	1	2	0	0	22	1	1	0	3	0	3	3	1
OTU 70	1	8	1	0	1	1	0	0	2	0	0	0	1	9	2	0	0	0	11	0	1	0	0	0	0	0	2	0	0	0	1	1	0	0	0	2	0	2	0	1	0	4	0	0	0	0	0	1	1	1
OTU 71	0	0	0	0	0	0	0	2	3	3	0	0	0	0	0	3	0	0	0	0	0	0	0	0	0	0	0	0	9	1	0	0	0	3	0	1	0	1	0	0	1	1	0	0	0	0	2	0	0	1
OTU 72	6	0	1	15	1	1	0	33	0	1	1	1	138	0	0	0	29	1	1	14	4	6	17	0	0	0	0	2	0	0	5	2	4	1	15	0	0	0	0	4	13	1	0	10	2	1	0	0	1	0
OTU 73	19	1	1	0	0	6	0	1	0	0	0	0	0	1	2	0	0	4	0	1	0	0	2	1	1	1	0	9	3	0	2	0	6	1	0	0	0	0	0	0	2	0	2	7	2	0	0	2	0	0
OTU 74	3	0	6	0	3	0	0	1	2	1	3	0	3	0	0	0	1	2	2	0	0	0	0	4	2	0	0	10	1	1	8	0	0	0	3	0	0	0	1	2	0	5	6	0	0	0	0	20	5	5
OTU 75	16	0	4	0	0	2	2	0	4	1	0	0	3	7	0	1	0	1	0	0	1	2	4	0	1	3	0	0	0	1	0	6	1	1	0	0	3	2	0	0	0	0	0	4	0	0	1	3	0	8
OTU 76	0	0	1	1	0	0	0	0	0	0	0	0	0	1	1	1	0	0	0	0	0	0	0	0	0	0	0	103	0	0	0	0	2	0	0	1	0	0	0	0	0	4	1	0	1	0	0	0	2	0
OTU 77	2	1	0	4	0	0	0	0	1	0	0	5	0	0	2	1	1	0	0	3	2	1	0	0	1	0	0	3	5	2	1	0	1	0	0	0	0	0	0	0	0	0	6	0	0	0	4	0	0	1
OTU 78	1	3	4	4	8	2	0	0	7	0	5	1	0	0	11	5	2	1	1	0	9	6	0	0	6	1	0	1	2	0	1	1	0	0	0	0	0	2	1	0	13	0	5	17	5	0	9	4	4	1
OTU 79	1	8	7	1	10	8	2	0	9	3	2	3	4	9	3	3	2	5	7	2	17	5	3	0	3	1	4	0	2	39	0	4	4	4	0	7	5	4	1	8	4	6	11	21	10	7	10	5	0	2
OTU 80	4	2	1	2	1	6	0	0	1	0	2	0	4	14	0	3	0	0	1	1	0	0	3	0	0	0	0	0	6	2	3	0	0	0	0	2	1	6	2	2	1	0	1	4	13	2	3	2	0	2
OTU 81	9	1	0	1	0	5	1	28	5	0	1	0	2	8	0	15	0	0	0	3	0	11	2	0	3	0	1	1	6	11	0	1	0	6	19	0	0	2	1	2	1	2	1	1	0	1	1	0	2	1
OTU 82	3	0	6	4	1	0	0	0	0	1	0	0	0	9	0	3	0	0	0	0	0	0	0	1	2	2	0	1	1	1	0	0	0	1	0	1	0	0	0	0	0	2	0	0	0	0	1	2	0	38
OTU 83	0	1	0	0	0	0	0	0	0	2	0	0	0	0	0	10	0	0	0	0	0	2	0	0	0	0	0	0	0	0	0	0	0	0	0	0	0	0	0	0	0	0	0	0	1	0	0	0	0	0
OTU 84	0	1	0	0	0	0	4	1	2	3	0	0	0	1	0	1	1	3	1	201	9	0	0	0	0	0	3	0	0	0	0	3	2	11	1	0	0	1	3	0	1	0	0	8	4	0	0	0	2	2
OTU 85	0	0	0	0	0	0	0	0	0	0	0	0	0	0	0	0	0	0	0	0	0	0	0	0	0	0	1	0	0	1	0	0	1	0	0	0	0	0	0	0	0	2	0	0	0	1	0	1	1	0
OTU 86	0	0	0	0	0	0	0	0	0	0	0	0	0	0	0	0	0	0	10	0	0	0	0	0	0	0	8	0	0	0	12	1	0	0	0	0	0	0	0	0	0	0	1	0	0	0	0	0	0	0
OTU 87	0	0	0	0	2	5	0	0	0	0	0	2	0	0	0	1	0	0	2	0	1	0	0	0	0	0	0	0	0	0	0	0	1	0	0	4	0	2	0	1	0	0	3	11	0	0	0	0	0	0
OTU 88	0	0	0	0	0	0	0	0	0	0	0	0	1	0	0	0	0	0	1	0	0	3	0	0	0	0	1	0	1	0	4	0	0	0	0	0	0	0	0	0	0	0	0	0	0	1	0	1	0	0
OTU 89	0	0	0	0	0	0	1	1	0	1	0	0	0	0	0	0	1	1	0	1	4	0	0	0	0	0	0	0	0	0	0	2	0	0	0	1	0	0	0	0	0	0	0	6	0	0	0	0	0	0
OTU 90	0	2	0	0	0	0	0	0	0	0	0	0	0	0	0	1	0	0	0	0	0	4	0	0	0	0	0	0	5	2	0	0	0	0	0	0	0	0	0	0	0	0	0	0	0	0	0	0	0	0
OTU 91	0	0	10	0	0	0	0	0	0	0	0	0	0	0	0	0	0	0	0	0	0	0	0	0	0	0	0	0	0	0	0	0	0	0	0	0	0	0	0	0	0	0	0	0	0	0	0	0	0	0
OTU 92	0	0	0	0	0	0	0	0	0	0	0	1	1	0	0	0	0	0	0	0	0	0	0	0	0	0	0	0	0	0	0	0	0	0	0	2	0	0	0	0	0	0	2	0	0	3	0	0	0	0
OTU 93	0	0	0	0	0	0	0	0	0	0	0	0	0	0	0	0	0	0	0	0	1	0	0	0	1	0	0	2	0	0	0	0	0	0	0	0	0	0	0	0	0	0	0	0	0	0	0	0	0	0
OTU 94	2	6	0	16	2	0	6	24	2	0	0	0	0	2	1	10	34	0	1	23	0	21	1	1	38	11	0	2	8	15	4	7	1	0	11	1	0	4	1	0	23	2	5	5	4	6	28	3	3	0
OTU 95	0	1	0	0	0	0	1	0	1	4	2	0	0	1	0	1	0	0	7	1	0	0	0	0	0	0	1	0	0	1	6	1	0	1	0	0	0	0	0	0	0	0	0	1	0	2	0	0	0	0
OTU 96	0	0	0	0	0	0	0	0	0	0	0	0	0	0	0	5	0	0	0	0	0	0	0	0	0	0	1	0	0	0	0	0	0	0	0	0	0	0	0	0	0	0	0	0	0	0	0	0	0	0
OTU 97	0	1	0	0	0	0	0	0	0	0	0	0	0	0	0	0	0	0	0	0	0	0	0	0	0	0	0	0	1	4	0	0	0	1	0	0	0	0	0	0	0	0	0	0	0	0	0	0	0	0
OTU 98	1	0	1	1	1	0	0	0	0	0	3	1	1	0	0	0	0	1	4	0	0	2	0	0	0	0	19	0	4	0	1	0	0	0	0	0	0	0	0	2	0	0	1	0	0	0	0	0	0	0
OTU 99	6	1	1	0	1	0	0	2	1	35	5	0	3	3	2	6	2	1	1	0	0	1	4	8	2	0	0	5	4	0	0	1	0	3	0	5	1	0	0	2	0	0	4	2	3	2	3	4	1	0
OTU 100	8	0	0	0	2	1	0	0	4	1	0	2	0	0	1	3	0	12	1	0	0	1	0	4	0	0	0	1	1	2	0	0	0	3	0	0	8	0	0	2	0	1	0	4	0	0	0	0	0	0
OTU 101	0	0	5	0	0	0	0	0	4	0	2	0	0	0	0	0	0	1	0	0	0	0	0	0	0	0	0	0	0	0	0	0	0	0	0	0	0	0	0	0	5	0	0	0	0	0	0	0	0	0
OTU 102	1	0	0	0	0	0	0	0	0	1	1	0	0	1	0	0	0	0	0	0	0	0	0	0	0	0	0	0	0	0	0	0	2	1	0	0	0	0	0	0	0	0	0	1	0	0	1	2	0	0
OTU 103	1	0	0	2	0	2	0	0	1	0	0	0	0	5	2	0	2	0	0	1	0	0	2	1	0	2	0	2	1	1	0	0	0	0	0	0	0	0	0	0	0	0	0	0	0	0	1	0	2	1
OTU 104	0	2	6	1	5	1	1	0	3	4	0	2	1	3	1	1	0	0	4	0	0	1	1	7	0	1	3	3	0	10	2	0	0	0	0	69	2	0	0	1	0	5	0	0	0	0	6	0	0	0
OTU 105	0	0	1	0	0	3	0	0	3	0	0	0	0	0	0	0	0	0	1	0	0	0	0	1	0	0	0	0	0	0	2	0	4	0	0	0	0	0	0	0	0	0	0	0	0	1	1	1	0	0
OTU 106	0	0	0	0	0	0	0	0	1	0	1	0	0	0	0	0	0	0	0	0	0	0	0	0	1	0	1	0	0	1	0	1	0	0	0	1	0	0	0	0	0	0	0	0	0	1	0	0	0	0
OTU 107	3	0	0	0	0	2	0	0	0	0	1	2	3	4	1	1	0	0	0	0	3	0	0	0	0	0	0	1	0	0	0	0	0	0	0	0	0	0	0	0	0	3	0	0	2	0	0	7	0	2
OTU 108	0	1	8	0	0	0	0	0	0	1	0	0	0	0	0	1	1	0	1	0	4	1	0	0	0	0	1	0	0	0	0	0	3	0	0	2	0	0	0	0	1	0	0	5	0	2	0	0	1	3
OTU 109	0	0	0	0	0	0	0	0	0	0	0	0	0	0	0	0	0	0	0	0	0	0	0	0	0	0	0	0	0	0	0	0	0	0	0	0	0	0	0	0	0	0	0	0	0	0	0	0	0	0
OTU 110	0	0	1	2	0	3	0	1	0	0	2	0	2	0	1	6	2	0	2	0	2	1	1	1	7	16	3	0	0	7	0	1	3	0	0	0	0	1	1	1	0	0	4	0	1	0	21	1	0	0
OTU 111	0	0	0	0	0	0	0	0	1	1	2	0	0	0	0	0	0	1	0	0	0	0	4	0	1	0	0	0	0	0	0	1	0	0	0	0	0	0	0	0	0	0	1	0	0	0	1	0	7	0
OTU 112	0	1	2	0	2	1	0	1	0	0	0	0	0	7	1	4	1	2	2	0	0	0	0	0	0	0	0	1	0	0	0	1	0	1	1	0	0	0	0	0	1	0	0	0	0	0	4	2	0	2
OTU 113	0	0	0	0	0	0	0	0	0	0	0	0	0	0	0	4	0	0	0	0	1	0	0	1	0	0	0	1	0	0	0	0	0	0	0	84	0	0	0	0	0	0	0	0	0	0	0	0	0	0
OTU 114	1	10	2	3	6	11	0	1	1	0	1	4	0	1	1	3	3	4	4	0	7	3	2	2	4	4	0	3	2	1	0	0	4	0	0	0	2	0	1	6	0	104	6	13	1	10	6	0	7	9
OTU 115	4	1	4	6	1	1	7	0	6	0	5	2	5	3	0	5	3	0	3	0	12	0	9	0	5	1	2	1	2	13	4	1	5	1	0	4	0	0	0	4	1	6	2	4	2	0	2	7	0	0
OTU 116	0	14	0	4	6	4	5	12	5	0	1	37	0	5	21	0	29	7	0	10	0	5	7	18	0	1	0	0	3	0	1	10	0	2	5	1	4	0	0	1	13	15	1	2	0	32	3	1	3	1
OTU 117	7	0	0	0	0	0	0	0	0	4	1	0	1	0	5	1	2	1	1	3	0	0	0	0	0	1	3	7	1	9	2	0	0	2	1	0	0	0	0	0	1	1	0	1	0	2	0	7	0	5
OTU 118	1	0	0	0	0	0	0	1	0	0	0	0	0	0	0	0	1	0	1	0	0	0	0	0	0	0	5	0	7	0	10	0	0	0	1	0	3	1	0	0	0	0	0	1	0	0	0	0	0	0
OTU 119	0	0	1	0	2	0	0	0	0	0	0	2	0	0	0	1	0	0	0	0	3	0	0	0	0	1	0	0	0	2	1	0	2	0	0	0	0	3	35	0	0	0	8	7	3	3	1	2	1	1
OTU 120	0	0	8	0	0	1	1	0	0	0	0	0	1	0	0	0	0	0	0	0	0	0	0	0	0	0	0	2	4	0	0	0	0	0	0	0	0	0	0	0	0	1	0	0	0	0	3	0	4	0
OTU 121	0	1	0	0	0	61	0	0	1	0	0	0	1	0	0	5	0	0	0	0	2	6	0	0	2	2	0	3	9	1	0	0	14	0	0	0	0	1	0	0	0	0	0	3	0	2	0	0	0	0
OTU 122	2	0	0	51	0	0	1	0	33	0	8	0	4	0	1	3	0	0	2	0	3	0	0	0	5	1	0	2	0	4	3	2	1	0	0	0	4	1	0	3	0	0	0	2	2	0	5	0	1	0
OTU 123	6	6	12	7	2	6	0	4	4	3	7	2	0	2	5	11	11	2	3	2	3	6	11	4	6	7	2	5	2	11	5	9	4	4	0	10	1	3	1	2	8	3	3	4	7	4	10	0	40	1
OTU 124	0	0	0	0	0	0	0	2	4	0	0	0	3	2	0	4	0	0	0	0	0	3	1	0	0	0	0	0	1	0	1	2	0	0	0	0	0	0	0	0	0	10	1	0	0	0	0	0	0	4
OTU 125	13	1	8	3	7	1	0	1	10	1	7	3	2	6	7	3	8	7	5	1	6	3	5	3	2	4	0	4	7	2	1	3	3	0	1	6	1	0	0	4	0	6	14	4	5	4	3	1	5	1
OTU 126	0	0	0	0	0	0	0	0	0	0	0	0	0	0	0	0	0	0	0	0	0	0	0	0	0	0	0	0	0	0	0	0	0	0	0	0	0	0	0	1	0	0	0	0	0	0	0	0	0	0
OTU 127	0	1	0	0	0	2	0	3	2	0	2	0	9	5	0	0	7	9	1	4	0	0	0	0	1	0	0	0	1	4	0	1	0	0	3	3	4	3	0	3	2	0	0	0	6	1	1	11	1	0
OTU 128	4	9	8	10	46	8	3	1	3	4	9	13	18	20	2	18	0	4	12	2	12	44	1	1	5	1	9	11	3	10	35	6	1	6	2	22	3	0	89	7	8	1	25	6	3	13	6	12	3	6
OTU 129	0	0	0	0	0	0	0	5	0	0	0	0	0	1	3	1	4	0	0	2	0	0	5	0	0	0	0	0	0	0	0	0	0	0	0	0	0	0	0	0	2	0	0	0	0	0	0	0	2	0
OTU 130	0	0	38	0	2	1	0	1	0	2	0	0	1	0	0	0	2	0	1	1	1	0	0	0	2	3	0	0	3	4	1	0	0	1	0	0	0	0	1	2	1	6	4	0	1	5	1	1	0	0
OTU 131	1	0	5	2	0	2	1	0	0	0	0	0	1	0	2	0	1	0	14	2	0	1	0	4	1	0	3	0	0	0	43	2	0	1	0	2	0	0	0	0	0	0	34	1	0	1	0	1	5	2
OTU 132	0	8	5	1	0	0	0	0	0	0	0	0	0	4	1	0	0	0	0	0	3	0	1	55	0	0	0	0	0	0	3	0	0	3	0	0	0	0	0	0	0	1	0	0	0	0	0	0	0	0
OTU 133	2	0	0	0	0	0	0	0	0	2	0	2	1	5	0	0	0	0	0	0	0	0	0	0	0	0	0	0	0	0	0	0	0	2	0	0	0	1	0	0	0	0	1	2	0	2	0	1	0	0
OTU 134	0	0	0	7	3	2	0	2	3	1	0	0	3	13	0	3	6	8	3	1	1	4	1	1	0	2	2	2	2	0	1	0	2	0	1	1	0	0	0	0	7	2	1	1	0	0	1	0	0	1
OTU 135	0	6	0	1	0	0	0	2	0	0	12	0	1	0	8	2	8	0	0	0	0	1	0	0	1	0	0	0	0	0	4	0	0	0	0	9	0	1	0	3	1	0	0	2	1	4	0	1	1	14
OTU 136	0	0	1	0	2	1	0	0	0	0	3	0	1	0	1	0	0	0	0	0	2	2	0	0	1	0	0	0	1	0	0	0	1	0	0	0	0	0	0	0	0	0	0	1	0	0	0	3	0	5
OTU 137	0	0	2	0	0	0	0	0	0	2	0	0	0	0	0	0	0	0	0	1	0	1	1	0	0	0	0	1	0	0	0	0	1	3	0	0	0	0	0	0	0	0	0	1	0	0	0	0	0	0
OTU 138	0	0	0	0	3	3	0	0	0	0	1	0	0	0	0	13	0	0	0	0	0	0	0	1	0	0	0	0	0	1	0	0	0	0	0	0	0	0	0	0	0	0	2	0	0	0	0	0	0	3
OTU 139	1	4	11	0	10	0	2	1	5	0	3	22	0	8	1	1	1	0	0	2	0	2	2	1	1	0	0	0	5	0	0	9	1	3	1	1	0	1	0	0	0	4	1	1	1	25	3	1	2	3
OTU 140	4	5	0	0	6	15	22	0	4	5	12	1	12	1	0	4	2	1	1	0	6	2	4	2	6	3	3	2	10	9	11	13	18	7	0	6	1	3	2	7	0	0	0	5	1	0	3	14	10	1
OTU 141	0	0	0	0	0	0	0	0	0	0	0	0	0	0	0	0	0	0	0	0	0	0	0	0	0	0	0	1	0	0	0	0	0	0	0	0	0	0	0	0	0	0	0	0	0	0	0	0	0	0
OTU 142	0	0	0	0	0	0	0	0	0	0	1	0	0	0	0	0	0	0	0	0	0	0	0	0	0	0	0	0	1	0	0	0	0	0	0	0	0	0	0	0	0	0	0	0	0	0	0	0	0	0
OTU 143	0	0	0	0	0	0	0	0	0	0	0	0	0	1	0	0	0	0	0	0	0	0	0	0	0	0	0	0	0	0	0	1	0	0	0	3	2	0	0	2	0	0	0	0	0	0	0	0	0	0
OTU 144	0	2	0	0	0	0	0	1	0	0	0	0	0	0	0	0	1	0	0	0	0	0	0	1	0	0	0	0	0	0	0	2	0	0	1	0	0	1	0	0	0	0	0	0	0	0	0	11	0	0
OTU 145	6	3	0	10	0	1	1	3	0	0	0	2	2	3	11	3	1	6	7	0	0	6	4	4	0	0	0	2	11	1	0	4	0	0	0	0	1	0	0	39	1	15	2	0	0	1	2	0	1	1
OTU 146	1	2	3	1	0	0	1	3	1	0	1	0	0	2	0	0	1	0	1	0	1	0	0	0	0	0	1	3	5	0	4	2	0	1	0	23	0	0	0	0	2	0	17	0	1	3	0	1	0	1
OTU 147	0	0	3	0	2	0	0	0	1	0	0	0	0	0	0	4	0	0	0	0	0	0	0	0	0	1	1	0	0	4	0	0	0	0	0	0	3	1	1	2	0	0	0	0	0	0	0	5	0	0
OTU 148	2	34	0	2	0	3	2	1	0	0	0	23	4	0	86	3	1	1	0	1	0	0	0	0	1	0	0	0	1	0	0	10	1	0	0	0	0	0	1	0	0	1	0	0	3	33	0	4	11	1
OTU 149	1	4	0	0	6	0	1	0	12	0	0	0	0	0	0	0	0	0	1	0	0	0	0	1	2	0	0	1	0	0	0	2	0	0	0	0	0	0	0	2	0	0	1	0	1	1	1	0	0	0
OTU 150	0	0	3	0	2	0	0	0	0	0	2	0	0	3	0	0	0	0	0	0	0	1	0	0	0	0	0	2	0	0	0	0	0	1	0	1	0	0	0	0	0	0	5	0	0	0	0	0	0	0
OTU 151	0	6	0	88	1	1	0	0	0	1	1	1	1	0	1	3	0	0	0	0	0	0	1	0	0	0	0	0	0	0	0	0	2	2	9	0	0	0	0	0	0	0	3	0	2	3	4	0	0	0
OTU 152	3	1	0	1	21	0	2	2	0	3	1	13	0	0	3	2	4	1	0	1	0	6	1	1	0	0	1	0	0	7	13	5	0	3	0	0	0	1	0	0	1	6	0	5	1	27	0	0	4	2
OTU 153	0	0	4	0	0	0	0	0	0	0	0	0	0	0	0	0	0	0	0	0	0	0	0	0	0	1	0	0	0	0	0	0	0	0	0	0	0	0	0	0	0	0	0	0	1	0	0	0	0	0
OTU 154	0	0	1	0	0	0	0	0	0	0	0	0	0	0	0	0	0	0	0	1	0	0	1	0	0	2	0	0	0	0	0	0	0	0	0	0	0	0	0	0	0	1	1	0	0	1	0	0	0	1
OTU 155	0	0	0	0	0	0	1	0	0	1	0	1	0	0	0	0	0	0	0	0	1	2	0	0	0	0	1	0	0	1	0	0	0	0	0	0	1	0	0	1	0	5	0	4	0	0	0	0	2	0
OTU 156	0	2	0	3	3	0	2	0	8	2	0	2	2	26	4	32	1	0	1	0	0	4	1	4	0	5	0	72	0	2	10	4	0	2	0	5	3	0	1	0	0	7	6	0	2	2	2	1	0	0
OTU 157	6	0	0	0	0	0	0	0	0	1	0	0	0	5	0	0	0	0	0	0	0	0	1	0	0	0	0	0	0	4	0	1	0	1	0	0	0	0	0	0	0	0	0	3	9	0	0	0	3	0
OTU 158	0	0	0	0	0	0	0	0	0	0	0	1	0	0	0	0	0	0	0	0	0	0	0	0	0	0	0	0	0	0	0	0	0	0	0	0	0	0	0	0	0	0	0	0	0	0	0	0	0	0
OTU 159	0	1	0	7	0	0	0	1	0	0	1	0	0	4	0	1	0	4	1	0	0	1	2	0	0	0	4	1	2	2	4	0	1	0	0	0	0	1	0	0	1	0	2	2	0	0	0	0	0	0
OTU 160	5	6	1	1	3	3	0	0	0	10	3	3	0	3	0	3	0	3	0	8	6	1	3	0	2	4	0	1	5	6	6	2	0	15	0	2	2	1	0	63	1	0	5	4	0	4	4	6	6	1
OTU 161	0	0	0	0	1	3	14	1	0	1	2	0	0	0	0	0	0	2	0	1	1	1	0	1	0	1	0	1	0	3	0	24	3	7	0	2	0	0	0	1	0	0	4	4	0	0	0	0	0	14
OTU 162	2	0	2	0	2	0	0	0	2	2	0	1	0	0	0	2	1	0	0	0	0	0	0	0	0	0	0	0	0	1	0	1	0	1	0	0	1	0	0	0	1	0	0	5	1	0	0	0	3	0
OTU 163	0	0	0	0	0	3	0	0	0	0	0	0	0	0	0	0	0	0	0	0	0	0	0	0	0	0	0	0	0	0	0	0	0	0	0	0	0	0	0	0	0	0	0	0	0	0	0	0	0	0
OTU 164	0	0	1	0	0	0	0	0	0	0	0	0	0	0	0	0	0	0	0	0	0	0	0	0	0	0	0	0	3	0	0	0	0	0	0	0	0	0	0	0	0	1	0	0	0	0	0	0	0	1
OTU 165	0	0	1	0	7	0	0	0	0	0	3	0	0	3	0	0	0	0	0	1	1	0	2	1	0	0	0	0	0	0	1	2	0	1	1	0	1	1	0	1	0	0	0	9	0	0	0	2	1	5
OTU 166	0	0	0	0	0	0	0	0	0	0	0	0	0	1	0	0	0	0	0	0	0	1	0	0	0	0	0	0	1	0	0	0	0	0	0	0	0	0	0	0	0	0	0	0	0	0	1	0	0	0
OTU 167	1	0	0	0	0	0	0	2	4	0	0	0	0	3	0	1	1	0	0	0	0	0	0	0	0	0	0	0	0	0	0	0	0	0	0	0	0	2	0	0	3	3	0	1	3	0	0	0	0	1
OTU 168	0	88	1	0	0	0	2	0	0	0	3	6	1	0	0	1	0	0	2	0	0	0	0	1	2	0	139	3	0	0	0	2	0	2	0	0	0	0	0	0	0	1	0	0	1	3	1	1	5	1
OTU 169	0	0	0	0	0	0	0	0	0	0	0	0	0	0	0	0	0	0	0	0	0	0	0	0	0	0	0	0	0	0	0	0	0	0	0	0	0	0	0	0	0	0	0	0	0	0	0	0	0	0
OTU 170	0	0	0	0	1	0	0	0	0	0	0	0	0	0	0	0	0	0	0	0	0	0	0	0	0	0	0	0	0	0	0	0	0	1	1	0	0	0	0	0	3	0	0	0	0	0	0	0	0	0
OTU 171	1	3	0	1	8	15	0	2	0	0	1	0	0	1	0	1	0	0	0	0	14	0	3	0	6	3	0	2	8	1	0	0	7	0	0	1	0	0	0	0	0	0	0	18	2	0	14	0	0	11
OTU 172	0	0	0	0	1	0	0	0	0	0	1	0	0	0	0	0	2	0	0	0	0	0	0	0	0	0	1	0	0	0	1	0	0	0	0	0	0	1	1	0	0	0	0	0	0	0	0	0	0	0
OTU 173	2	0	0	2	0	0	0	0	1	0	0	0	0	0	1	0	0	0	0	2	0	0	0	58	2	0	0	0	0	0	2	4	0	3	0	0	0	0	0	0	0	0	0	0	0	0	1	0	2	0
OTU 174	0	2	2	2	0	0	0	0	0	1	0	0	0	2	2	0	2	111	0	1	0	0	0	0	1	0	0	0	0	3	0	0	2	2	0	5	71	2	0	0	0	10	0	0	2	0	0	0	0	1
OTU 175	0	0	2	0	1	0	0	0	3	0	2	1	0	0	4	1	0	0	1	1	0	3	0	0	0	0	0	0	4	2	0	0	1	0	0	0	0	0	0	1	0	0	0	0	0	3	0	7	1	9
OTU 176	0	6	16	3	1	0	0	2	4	0	0	3	3	0	5	2	1	3	1	1	1	6	3	4	1	0	2	0	0	1	1	1	1	0	0	0	0	0	0	5	1	7	0	2	0	13	0	2	1	4
OTU 177	0	0	3	0	0	2	0	0	4	1	3	0	0	2	0	3	3	4	10	1	48	1	2	0	8	7	0	0	2	0	8	0	0	4	0	2	0	0	0	5	1	0	4	0	1	0	7	1	4	0
OTU 178	1	0	2	0	0	4	0	0	0	0	1	2	0	0	0	3	0	4	0	1	0	1	0	39	0	0	0	0	0	0	0	0	0	1	0	1	0	0	0	0	0	0	1	0	0	1	0	0	0	0
OTU 179	1	0	2	1	1	1	1	0	0	0	1	0	0	0	3	0	0	4	0	0	0	2	4	0	0	0	0	4	7	0	1	4	0	0	0	0	0	0	26	2	0	0	1	1	0	0	0	0	7	0
OTU 180	2	6	2	7	1	1	1	0	1	0	1	2	9	0	1	15	5	6	3	1	3	48	1	2	4	4	2	3	15	1	8	1	2	0	1	6	2	2	0	0	1	9	2	4	0	1	17	10	1	4
OTU 181	0	0	0	0	3	0	1	0	4	2	0	0	0	3	0	6	0	29	4	0	0	0	0	0	1	0	0	1	0	0	3	4	0	1	0	0	15	0	0	2	70	2	0	1	1	0	0	0	4	0
OTU 182	0	0	0	0	0	0	0	0	0	0	0	0	0	1	0	0	0	1	0	0	0	0	0	0	0	0	0	0	0	0	0	0	0	0	0	0	1	0	0	0	0	0	1	0	0	0	0	0	0	0
OTU 183	0	0	0	8	5	0	1	1	0	0	0	0	0	2	3	0	0	2	5	0	1	3	0	0	0	0	2	3	0	1	14	1	1	0	0	0	1	1	0	0	1	0	7	0	0	0	3	0	0	0
OTU 184	0	1	2	2	0	0	5	3	0	5	0	3	1	0	0	0	1	0	0	1	3	0	0	0	1	0	0	0	1	1	0	9	0	8	0	0	0	0	0	1	0	0	1	5	0	0	0	0	0	0
OTU 185	0	0	5	0	3	0	1	1	1	6	1	1	4	1	1	1	3	0	0	0	0	0	0	0	0	1	4	4	2	0	1	2	0	10	1	1	0	6	3	0	1	1	0	6	10	0	1	0	0	0
OTU 186	1	1	0	0	0	0	0	0	0	2	0	0	0	0	1	0	0	0	1	0	1	0	0	1	0	1	0	0	0	2	0	0	1	0	0	1	0	1	35	0	0	0	1	0	2	0	1	0	1	0
OTU 187	8	2	2	6	6	1	3	19	3	124	4	0	0	3	2	2	32	2	2	15	2	11	1	0	8	66	0	3	0	2	1	6	2	8	10	1	0	1	2	4	15	4	5	2	6	0	13	6	17	1
OTU 188	4	1	1	7	7	4	7	2	7	0	11	3	6	1	6	2	12	1	1	0	3	1	4	4	0	8	0	0	2	0	4	7	0	1	1	0	0	0	1	1	3	4	1	2	4	0	0	10	2	5
OTU 189	17	0	2	0	0	0	2	1	17	1	0	0	5	3	1	8	5	1	3	1	0	1	2	0	3	2	2	1	4	0	3	4	2	2	3	3	165	2	1	0	2	3	4	0	18	3	11	1	2	1
OTU 190	0	0	0	0	0	0	0	0	0	0	0	0	1	0	0	0	0	0	0	0	0	0	0	0	0	0	0	0	0	0	1	0	0	0	0	1	0	0	0	0	0	0	0	0	0	0	0	0	0	0
OTU 191	5	2	3	6	0	0	1	8	0	0	1	1	1	7	3	0	15	1	0	15	104	39	6	1	0	0	2	0	3	16	7	2	2	1	5	21	0	0	1	5	7	0	6	5	1	1	2	5	10	0
OTU 192	6	10	14	1	0	9	0	0	0	1	0	13	2	0	3	0	0	3	0	1	1	0	0	4	0	2	2	0	6	6	7	0	2	4	0	0	1	41	33	2	0	0	3	7	2	24	0	12	2	7
OTU 193	0	0	0	0	0	0	2	0	4	0	0	0	2	0	1	2	0	0	0	0	0	0	0	1	3	4	0	0	7	3	1	5	0	3	0	1	2	76	42	0	0	1	0	0	124	0	10	0	0	6
OTU 194	7	0	33	2	0	0	0	2	2	0	1	0	0	0	0	4	0	0	0	0	1	0	0	2	0	0	0	0	0	11	0	0	0	1	0	1	2	0	0	0	0	0	0	3	0	0	1	0	1	0
OTU 195	2	0	0	0	4	0	0	0	0	0	0	2	0	5	0	1	2	1	0	0	0	0	0	1	0	0	0	0	14	4	0	0	0	0	1	0	0	3	0	0	2	1	1	1	8	0	0	1	2	0
OTU 196	3	0	0	0	3	0	0	1	7	2	0	0	0	1	0	0	0	1	5	0	1	0	0	0	0	0	1	0	2	2	1	0	126	1	0	1	0	36	16	0	0	4	5	0	0	0	0	0	0	0
OTU 197	3	1	3	2	9	3	3	134	5	0	2	2	0	1	0	4	0	0	6	0	0	2	0	1	1	0	1	11	11	10	4	5	3	1	73	1	0	0	0	1	1	3	0	2	2	2	1	1	0	66
OTU 198	0	3	0	0	0	0	1	0	0	0	0	0	0	0	0	0	0	0	2	0	0	0	0	1	134	0	0	1	0	0	0	4	0	0	0	0	0	0	0	0	0	0	0	0	0	1	0	0	1	0
OTU 199	0	0	0	0	2	0	0	2	0	1	0	0	1	0	3	1	1	0	0	1	0	3	0	3	0	0	0	0	2	0	1	0	0	3	0	0	0	0	0	1	0	1	0	0	0	1	0	1	7	0
OTU 200	6	1	0	0	0	0	0	1	2	0	0	2	0	1	4	0	2	0	0	1	0	0	1	0	0	0	0	0	0	0	0	3	0	5	0	3	0	0	0	2	1	1	1	3	0	0	0	0	4	4
