	Host 1	Host 2	Host 3	Host 4	Host 5	Host 6	Host 7	Host 8	Host 9	Host 10	Host 11	Host 12	Host 13	Host 14	Host 15	Host 16	Host 17	Host 18	Host 19	Host 20	Host 21	Host 22	Host 23	Host 24	Host 25	Host 26	Host 27	Host 28	Host 29	Host 30	Host 31	Host 32	Host 33	Host 34	Host 35	Host 36	Host 37	Host 38	Host 39	Host 40	Host 41	Host 42	Host 43	Host 44	Host 45	Host 46	Host 47	Host 48	Host 49	Host 50	
OTU 1	181	97	16	242	17	153	34	222	25	27	238	58	10	13	3	42	115	262	292	245	87	200	129	133	1	784	328	0	61	528	167	212	0	94	1	48	86	98	11	11	89	65	0	16	329	0	47	134	36	185
OTU 2	5	38	0	1	157	1	18	0	0	7	39	0	17	31	2	6	10	1	8	0	55	12	14	22	10	25	4	0	4	0	18	0	2	2	2	19	58	3	59	19	5	4	0	4	0	8	1	2	18	15
OTU 3	5	0	0	0	0	0	21	1	6	0	0	14	5	91	19	0	6	1	8	0	0	0	0	21	0	9	9	2	0	0	0	1	0	2	0	1	0	0	0	1	0	6	1	0	26	41	0	2	0	1717
OTU 4	0	0	0	0	0	0	0	0	0	0	0	0	0	0	0	0	0	2	0	0	0	0	0	0	2	0	0	0	2	0	0	0	0	0	0	0	0	0	0	0	0	0	0	0	0	0	0	0	0	0
OTU 5	585	118	299	283	0	148	1665	976	584	373	775	407	912	0	1214	0	952	68	1053	395	125	981	117	937	95	689	102	4	3	509	44	883	560	52	602	592	68	35	33	1169	353	643	279	351	1	449	201	29	239	762
OTU 6	137	1	4	68	0	1	34	136	132	20	12	26	6	21	0	0	9	14	266	164	96	126	6	25	69	680	221	50	5	223	1	245	52	0	24	0	39	9	13	61	0	29	7	2	0	79	981	13	0	3
OTU 7	57	36	159	15	6	68	387	14	0	181	442	13	298	183	236	93	166	346	102	4	55	45	238	609	24	39	32	67	71	41	43	5	119	28	86	86	29	62	45	317	113	561	217	103	390	41	171	39	23	3
OTU 8	242	64	134	34	101	111	205	191	31	151	47	8	66	216	27	300	39	133	542	72	102	38	19	12	17	177	24	101	200	131	221	12	74	144	4	34	62	0	31	41	9	30	73	30	133	26	132	167	26	68
OTU 9	1	0	3	11	0	0	31	0	0	43	0	4	5	17	2	9	16	2	9	5	1	20	168	4	3	2	14	10	5	0	0	18	0	7	45	2	2	9	8	0	41	5	85	19	9	9	4	41	0	2
OTU 10	4	70	7	8	21	0	0	2	2	32	4	1	1	5	13	1	0	65	6	11	173	30	0	1	4	11	0	41	5	11	0	0	3	0	0	2	60	41	21	9	3	0	3	0	128	0	126	5	30	0
OTU 11	0	276	7	16	1	24	93	6	13	72	152	109	0	207	74	156	42	19	0	41	81	8	28	54	44	25	9	13	23	43	13	47	14	6	1577	21	65	37	55	92	20	50	41	65	76	25	39	23	180	6
OTU 12	0	8	175	5	143	94	14	3	3	67	66	257	12	51	42	57	102	109	0	51	38	7	4	25	7	17	2	204	17	25	42	18	61	8	0	45	29	61	28	16	24	52	77	8	159	100	102	22	1	10
OTU 13	0	0	0	0	0	2	0	0	0	18	0	0	0	0	0	6	0	0	0	0	0	0	0	0	0	0	0	0	0	0	0	0	11	0	0	2	0	0	1	0	0	0	2	0	0	0	0	0	0	0
OTU 14	0	44	43	14	1	51	0	3	5	40	14	87	3	37	11	0	38	89	0	1	0	0	1	46	5	84	0	0	57	1	60	24	12	6	13	8	8	2	0	17	1	1	49	0	13	4	20	0	20	564
OTU 15	0	0	0	0	0	0	0	0	1	0	0	0	0	0	0	2	0	4	0	0	0	0	0	0	3	0	8	0	0	0	0	0	0	6	15	0	0	0	0	0	49	1	0	0	0	0	4	0	0	0
OTU 16	0	0	0	0	0	0	0	0	0	0	0	1	0	0	0	0	0	0	0	0	0	1	0	0	0	0	0	0	0	0	13	0	0	0	0	0	0	0	0	0	0	0	0	0	0	0	0	0	0	0
OTU 17	0	27	46	11	0	66	0	9	0	5	46	0	4	26	8	16	8	104	1	14	3	26	15	0	19	63	0	2	23	22	0	9	22	0	14	4	3	0	0	105	8	13	2	7	4	6	31	1	9	0
OTU 18	24	45	1	30	276	6	17	6	9	41	33	1572	16	5	124	0	20	31	42	3	0	15	9	24	41	12	7	3	87	9	61	4	34	193	14	4	4	80	29	40	21	85	52	12	11	40	108	338	23	17
OTU 19	0	0	0	0	0	0	0	0	0	0	0	0	0	0	0	0	0	0	0	0	1	4	0	0	0	0	0	0	185	0	0	0	0	0	0	0	0	0	0	0	0	0	0	0	0	0	0	0	0	0
OTU 20	1	46	5	30	0	18	25	15	4	69	69	5	177	20	17	49	15	43	9	6	58	1	2971	8	9	2	6	5	37	9	23	0	1	107	49	3	57	52	105	40	27	81	30	13	39	8	2	250	31	1
OTU 21	2	94	27	1	131	24	7	22	7	19	34	9	33	103	18	68	8	57	5	24	41	13	0	13	190	12	27	58	33	152	135	1	2	53	47	22	40	10	12	19	17	0	0	15	27	42	122	165	74	61
OTU 22	1	30	71	0	99	7	18	13	8	17	54	615	33	41	13	4	25	111	4	6	15	5	42	74	0	62	0	5	14	25	17	2	13	41	18	19	1	23	47	69	2033	0	93	9	45	53	53	69	9	0
OTU 23	32	2	2	91	4	5	19	12	4	44	23	6	48	41	33	67	0	43	63	1994	0	2	0	21	21	144	87	29	1	174	133	0	69	33	7	2	5	5	1	14	1	23	1	0	1	18	88	45	5	68
OTU 24	1	124	31	0	33	0	3	12	0	3	0	2	0	0	0	27	0	10	2	2	0	5	44	13	3	0	1	0	16	0	0	0	0	0	20	1	0	3	0	0	2	13	590	12	1	12	0	6	43	0
OTU 25	0	0	5	0	0	0	0	0	0	0	0	0	0	8	1	14	0	0	0	0	0	0	0	40	0	0	0	0	0	0	7	0	0	10	0	0	0	16	0	0	0	0	0	1	0	0	0	51	0	0
OTU 26	0	0	0	9	0	0	18	1	0	0	36	0	10	1	0	0	63	0	0	0	0	1	6	37	0	0	0	1	36	6	4	3	0	0	6	49	0	0	0	86	0	0	0	24	0	0	3	0	1	0
OTU 27	0	0	0	0	0	0	0	0	0	44	0	0	0	0	0	0	0	0	0	5	0	0	0	0	1	4	1	6	0	3	0	0	0	0	0	0	1	0	0	0	0	0	0	0	0	0	0	9	0	2
OTU 28	2	41	71	35	147	43	24	3	14	60	74	21	34	12	137	87	93	11	11	16	11	125	8	25	21	50	45	38	6	5	61	21	60	0	4	42	2	46	72	21	58	0	33	22	8	16	80	10	29	18
OTU 29	6	247	2	14	16	15	15	11	7	49	176	243	15	55	79	26	61	87	12	7	40	27	73	35	25	1	7	6	10	14	127	23	13	61	47	23	12	137	63	8	64	146	13	130	443	189	51	126	127	79
OTU 30	0	0	0	0	0	0	0	0	0	0	0	0	0	0	0	0	0	0	0	0	0	0	0	0	0	0	0	0	0	0	0	0	0	0	0	0	0	0	0	0	0	0	0	0	0	0	0	0	0	0
OTU 31	27	0	42	1	10	0	0	0	6	0	12	0	1	0	1	25	11	0	46	0	0	2	3	24	2	2	2	35	11	7	17	0	8	31	6	4	2	0	1	94	5	44	3	0	3	1	72	105	1	15
OTU 32	732	0	7	1	27	14	14	49	1	65	583	18	279	62	204	94	501	54	17	10	49	21	25	42	77	3	13	47	22	38	2	13	66	521	10	313	59	26	56	91	92	71	115	248	29	55	3	683	0	1
OTU 33	0	0	2	0	72	0	0	0	0	0	0	0	0	104	0	0	9	0	0	0	16	1	5	0	0	0	0	1	0	3	0	0	0	0	0	0	25	0	0	0	0	17	0	0	0	0	0	0	0	0
OTU 34	0	17	49	65	176	30	7	2	24	927	6	0	10	70	53	202	2	42	0	37	37	26	7	30	25	0	27	10	75	46	4	23	4	1672	19	12	13	21	31	90	2	6	0	2	29	56	16	123	13	0
OTU 35	15	2	46	75	67	312	32	28	5	11	78	119	6	11	1	9	24	551	43	68	40	15	76	0	58	59	61	54	2	60	167	9	498	75	37	5	32	11	0	23	4	1	5	4	48	0	165	73	1	142
OTU 36	5	10	14	18	0	0	12	17	3	65	11	20	18	2	29	31	0	57	25	13	33	0	9	283	8	47	16	1	27	1	17	6	58	2671	69	8	0	36	44	8	2	11	63	1	79	122	56	97	4	9
OTU 37	0	0	17	1	0	6	3	0	0	0	0	38	0	0	55	1	1	7	2	1	2	0	0	0	6	0	0	1	27	0	0	0	3	13	26	1	0	0	1	0	32	5	6	0	1	0	0	39	0	3
OTU 38	0	4	32	10	2	2	3	14	13	40	81	1	25	261	1	20	32	3	2	0	26	2	0	11	0	43	15	118	21	15	0	5	16	7	29	21	13	2029	931	359	9	2	36	10	0	0	13	36	4	1
OTU 39	0	0	6	10	0	0	7	11	508	7	1	4	0	22	0	120	0	0	1	3	5	0	36	70	6	17	4	10	34	0	0	0	15	1	28	0	2	0	0	2	13	18	0	0	19	1	11	14	2	0
OTU 40	0	372	8	0	26	4	59	5	8	139	50	8	0	16	22	252	41	5	1	1	6	2	158	347	62	42	19	40	8	0	32	0	6	80	36	11	6	19	4	77	192	141	27	22	22	11	0	121	150	23
OTU 41	0	20	42	8	689	13	24	5	1	56	2	67	2	25	35	22	25	50	0	51	32	21	60	71	2	42	2	101	50	71	291	27	16	9	1	8	2	40	46	13	1	93	97	0	25	32	88	5	8	131
OTU 42	11	7	7	0	0	4	0	10	1	0	0	10	0	3	62	0	16	2	16	14	7	0	10	1	2	0	21	13	0	14	102	1	0	74	0	14	0	0	1	1	0	3	44	10	7	0	0	144	3	46
OTU 43	0	0	0	0	0	0	1	0	0	0	1	0	2	0	4	0	0	0	0	0	1	0	0	10	0	0	0	0	0	0	0	0	0	0	0	0	0	0	0	0	0	0	123	11	0	0	7	0	0	0
OTU 44	0	0	1	3	10	0	0	8	2	20	0	54	1	70	10	36	0	0	0	0	0	33	6	0	1	0	0	159	0	0	67	0	1	0	5	0	0	0	4	6	14	0	1	0	0	0	0	0	0	6
OTU 45	5	85	100	24	0	0	10	1	434	71	15	35	78	10	10	47	14	51	8	2	50	1794	68	3	55	8	1	17	71	0	26	992	3	8	22	7	9	29	25	38	5	115	79	12	5	35	85	18	18	21
OTU 46	10	44	21	14	12	1	84	45	2779	19	24	111	5	68	44	108	0	24	15	6	30	27	60	9	13	28	2	37	33	0	18	0	51	0	29	3	2	72	55	10	73	128	16	11	28	123	118	22	22	10
OTU 47	0	0	0	0	16	6	0	2	0	6	0	1	0	0	119	0	0	0	0	3	0	0	35	39	0	22	0	0	2	31	4	10	0	0	1	0	1	0	0	0	0	20	6	0	0	0	0	0	0	5
OTU 48	0	8	0	33	20	21	7	1	8	24	6	23	5	106	1	9	29	41	0	6	14	16	561	38	19	5	0	26	173	0	62	5	102	20	968	22	5	43	5	25	9	3	30	2	103	77	13	16	1	21
OTU 49	0	51	37	0	0	71	0	3	16	0	0	4	6	0	1	4	5	31	4	0	1	37	19	0	51	0	0	6	872	2	0	0	0	0	0	0	8	4	11	35	0	0	1	1	48	0	42	16	23	0
OTU 50	160	20	43	283	26	98	1801	138	1	39	8	36	67	56	52	9	13	130	304	396	5	258	77	39	36	1281	216	17	15	880	79	97	4	2	74	5	5	134	33	62	111	117	127	0	15	76	17	11	10	61
OTU 51	0	14	2	0	0	0	83	0	0	5	6	354	35	8	2	12	0	4	1	6	0	18	17	11	1	19	2	36	106	2	8	8	0	89	18	0	1	63	20	17	3	217	75	0	27	262	6	163	0	3
OTU 52	80	86	55	83	203	181	159	18	2	114	91	29	29	238	22	27	40	149	188	43	18	141	9	91	21	430	33	34	148	153	135	19	22	11	25	33	31	25	7	135	5	18	361	20	182	43	652	33	2557	76
OTU 53	0	0	0	0	0	0	0	0	0	0	0	0	0	0	0	0	3	2	0	0	0	0	0	0	0	0	0	0	0	0	0	0	0	0	0	0	0	0	0	0	16	0	0	0	0	0	0	12	0	0
OTU 54	6	650	9	6	98	7	162	14	61	14	1758	57	362	45	102	170	707	131	16	11	270	5	126	113	25	110	8	59	49	29	156	3	25	12	182	430	83	158	104	817	250	49	21	395	155	74	12	46	342	84
OTU 55	0	0	0	0	0	0	0	0	0	0	0	0	0	0	0	0	0	0	0	0	0	0	0	0	0	0	0	0	0	2	0	0	0	0	0	0	0	0	0	0	0	0	0	0	0	0	0	0	0	0
OTU 56	2	2	62	0	161	17	0	16	2	0	0	0	9	24	6	8	2396	0	1	0	0	0	67	0	14	8	11	0	3	3	20	16	33	11	58	1259	0	0	11	0	77	15	4	1483	175	1	32	24	1	5
OTU 57	3	26	177	33	14	57	37	9	34	74	5	9	39	127	84	45	31	296	8	25	79	9	66	90	29	15	39	55	116	28	162	7	425	32	14	10	59	23	24	89	55	125	36	7	72	291	59	105	5	112
OTU 58	3	2	30	0	0	4	20	6	0	24	6	68	107	7	0	21	0	3	5	16	0	2	19	35	45	2	16	184	1	70	2	5	10	1	0	0	0	0	21	1	67	0	0	0	1	100	63	2	4	13
OTU 59	45	13	1	1	11	0	84	91	1	16	22	5	4	29	6	173	0	65	91	26	64	41	2	7	16	12	19	144	25	1	1	0	93	12	17	0	24	22	2	5	81	0	4	0	82	0	55	8	3	14
OTU 60	2	27	166	68	120	29	34	17	14	23	107	73	15	68	86	2	24	31	3	16	57	11	4	72	14	52	13	50	24	3	107	6	21	28	105	53	3	13	25	76	13	11	258	13	14	39	224	62	20	93
OTU 61	592	17	233	12	258	25	178	797	22	55	14	126	196	32	244	80	49	51	1118	2	19	22	21	148	1	11	23	7	379	16	71	7	871	193	746	13	13	12	101	22	2	179	93	44	66	215	15	397	1700	85
OTU 62	0	6	0	0	0	3	9	0	0	18	0	9	0	83	13	8	0	9	1	0	14	1	12	0	0	0	0	22	249	0	0	0	0	15	0	0	24	14	18	20	17	15	3	5	2	64	13	66	9	0
OTU 63	1	5	0	0	63	4	7	8	6	10	55	0	7	0	0	12	7	0	3	13	147	0	26	0	69	35	1	3	1	20	29	2	22	1	19	2	150	2	0	0	15	0	16	0	0	24	7	0	3	23
OTU 64	873	57	40	26	120	86	77	686	610	6	82	73	5	80	73	149	82	125	1792	25	233	88	125	15	14	1	0	9	224	78	8	1479	87	29	87	38	35	29	96	2	14	38	317	21	66	122	17	68	42	2
OTU 65	0	0	0	1	1	0	0	2	4	0	0	1	0	1	109	0	15	0	0	0	0	0	0	0	0	0	0	0	0	0	0	0	1	0	0	26	2	4	31	0	0	0	5	8	0	0	0	0	0	1
OTU 66	7	39	72	6	488	4	30	1	11	67	10	3	0	71	14	154	12	13	7	5	5	4	3	30	40	108	5	10	13	23	88	25	17	126	5	8	33	189	20	1	27	3	9	2	4	72	5	107	9	28
OTU 67	0	56	16	9	235	15	11	14	2	6	13	4	0	111	32	1	5	162	2	1	257	0	108	6	338	101	19	42	0	12	28	1	53	0	34	3	202	74	1	5	53	87	6	0	264	85	42	4	21	7
OTU 68	2	3	163	0	9	6	2	13	6	0	20	3	0	28	42	10	0	77	3	2	0	23	7	127	0	0	1	3	4	0	42	11	0	0	6	1	2	29	0	15	32	0	0	0	9	0	21	0	2	9
OTU 69	1	107	2	3	57	33	32	10	24	22	2	43	3	133	72	199	5	7	4	13	32	1	12	189	67	21	0	103	193	5	8	6	42	7	0	1	38	2	8	29	0	531	23	8	5	51	48	49	55	1
OTU 70	0	90	159	4	19	13	2	0	0	4	1	27	61	128	44	0	0	0	0	1	1	70	5	9	1	29	0	2	0	39	5	5	14	0	1	0	0	65	0	0	0	0	14	0	1	9	1	0	60	0
OTU 71	0	5	6	0	3	6	3	0	5	76	31	0	6	7	6	8	19	0	0	2	2	0	0	3	1230	11	0	63	170	0	32	19	2	4	15	7	5	10	1	8	0	0	1	12	16	0	8	5	6	11
OTU 72	13	111	11	2	76	20	22	496	1	6	74	3	3456	15	53	2	60	39	21	3	105	19	599	7	64	7	14	28	10	48	39	9	28	9	357	17	98	32	15	71	234	50	48	44	76	12	7	7	49	11
OTU 73	1	50	98	6	10	13	11	7	12	8	3	7	0	2	36	66	1	3	1	0	9	0	17	9	54	2	3	9	13	2	27	66	164	79	25	0	10	1	7	30	5	0	10	0	18	12	3	125	37	17
OTU 74	0	65	29	13	31	69	5	6	0	45	86	12	45	145	8	24	40	22	0	35	105	44	60	26	18	27	1	349	44	62	191	20	16	128	7	135	82	89	22	29	0	133	30	77	55	4	26	193	36	69
OTU 75	5	2	67	19	98	31	62	99	14	21	55	32	0	64	5	44	28	64	20	10	4	31	241	16	31	76	49	29	1	46	165	19	32	46	7	3	15	28	26	31	0	0	17	0	31	48	51	71	2	48
OTU 76	1	0	16	8	6	0	0	0	1	0	3	0	2	30	0	3	30	3	2	0	11	0	0	0	0	0	1	2309	0	15	8	0	35	9	21	2	21	26	10	54	7	229	66	38	24	2	6	1	1	1
OTU 77	1	34	33	0	21	0	11	9	1	19	17	52	12	23	43	7	18	19	3	35	8	17	0	10	0	162	4	35	91	26	3	5	3	49	14	17	938	4	55	2	1	3	33	8	15	39	106	54	29	1
OTU 78	16	2	27	13	239	37	3	0	13	3	55	13	0	0	188	112	46	0	28	1	38	10	55	49	77	56	4	24	73	2	135	21	33	102	9	18	4	68	0	18	217	57	101	31	43	127	264	251	4	38
OTU 79	14	215	125	15	222	57	161	1811	11	137	97	74	90	230	156	131	17	190	33	22	220	112	48	47	475	168	84	164	44	152	41	22	152	41	103	20	213	207	95	355	135	99	316	37	221	326	54	77	109	6
OTU 80	4	10	38	14	24	5	50	4	5	18	19	0	109	491	12	15	8	5	10	8	22	13	11	9	74	36	6	161	122	2	140	14	14	60	5	6	53	173	146	233	6	60	85	11	382	66	65	115	10	84
OTU 81	51	37	18	4	9	14	63	87	2	95	10	51	59	193	71	146	27	21	87	9	64	54	44	50	37	2	2703	77	117	16	5	53	118	28	348	7	21	68	221	27	88	5	25	10	25	113	34	99	44	1954
OTU 82	10	14	40	25	13	17	0	3	5	8	0	53	0	175	2	22	3	2	21	14	20	16	5	77	4	5	23	42	13	42	92	6	5	0	0	0	15	13	64	67	54	72	39	4	6	4	86	4	15	38
OTU 83	0	1	0	0	2	0	0	0	0	0	7	0	36	7	30	380	0	0	0	0	0	10	1	0	10	0	0	3	1	0	1	0	1	1	0	0	0	1	1	2	0	14	4	4	2	1	5	0	0	0
OTU 84	3401	4	36	37	9	1	125	1	10	93	42	26	4	78	10	18	0	6	0	175	214	17	13	16	78	2	67	9	0	327	2	0	12	0	15	4	108	36	64	0	3	3	13	2	32	0	4	1	4	0
OTU 85	0	6	73	0	0	32	2	10	1	23	62	0	2	1	5	0	2	10	3	2	1	0	5	0	0	3	0	0	0	0	0	0	24	0	0	4	0	0	0	0	0	68	1	14	0	17	5	0	1	0
OTU 86	0	0	0	0	0	7	43	0	0	1	12	0	0	0	0	0	0	0	0	0	0	0	5	0	0	0	0	5	0	0	176	0	0	0	0	0	0	0	0	0	0	0	27	0	2	0	0	0	0	92
OTU 87	0	0	0	4	57	6	0	9	4	0	7	25	10	5	4	0	8	0	1	1	41	3	68	8	73	0	5	0	5	1	11	1	0	0	0	2	25	0	48	0	3	16	49	0	0	20	0	0	0	5
OTU 88	0	0	0	0	0	14	0	0	0	1	0	0	2	5	21	1	0	0	0	4	1	0	0	0	0	0	0	0	21	0	66	1	1	18	1	0	18	14	5	4	4	4	0	8	27	2	0	29	0	30
OTU 89	2	0	4	1	13	8	80	11	0	12	4	0	1	27	0	3	0	46	2	0	14	15	0	11	57	0	4	0	0	1	0	0	0	3	1	0	7	9	10	0	43	0	0	4	0	4	38	3	0	0
OTU 90	0	55	0	0	1	0	17	38	0	4	0	0	43	0	6	0	4	0	0	0	0	0	0	0	0	0	1	10	134	0	2	0	0	4	0	0	0	0	0	0	0	10	0	0	0	0	1	0	37	0
OTU 91	0	0	125	0	0	2	0	0	0	7	0	0	0	0	0	0	0	0	0	0	0	0	0	1	1	0	0	0	0	2	0	1	5	0	0	0	0	0	0	0	6	1	1	0	0	0	0	0	0	0
OTU 92	1	0	0	15	0	0	7	0	0	0	1	5	0	0	2	0	1	0	3	3	0	0	0	0	0	0	0	1	0	6	4	0	16	6	0	0	0	0	1	0	1	3	4	0	1	15	6	15	0	0
OTU 93	0	0	0	0	0	0	1	0	0	2	2	0	0	26	0	0	0	46	0	0	0	41	0	0	0	0	2	135	0	0	0	1	0	0	3	4	2	0	0	0	0	0	0	0	0	7	0	0	1	0
OTU 94	43	262	95	32	35	34	102	19	209	47	4	7	52	5	17	101	10	35	69	35	55	42	61	7	24	197	30	51	83	4	143	469	2	36	269	1	25	69	34	63	202	10	122	13	138	185	427	80	114	55
OTU 95	0	0	9	0	13	0	159	20	0	0	0	0	7	0	14	21	0	0	0	0	47	13	0	5	0	42	0	2	1	0	100	2	0	0	0	1	0	0	9	0	0	0	0	4	0	57	0	0	1	65
OTU 96	0	0	0	16	18	0	1	0	0	0	0	0	0	0	7	0	4	0	0	11	0	0	5	0	0	0	2	0	1	24	34	0	0	0	3	0	0	0	2	0	2	0	17	0	0	0	0	2	0	23
OTU 97	0	30	6	0	3	0	0	0	0	1	0	0	1	57	0	0	15	0	0	0	2	0	0	0	0	51	0	0	12	6	0	0	3	1	1	10	0	3	2	1	17	0	3	32	1	0	0	1	21	0
OTU 98	0	9	9	16	7	0	0	0	158	8	64	33	0	0	0	12	30	0	0	0	16	0	13	0	0	0	18	10	49	0	57	1	0	4	1	8	25	0	3	55	35	0	7	20	4	0	0	29	2	32
OTU 99	188	12	31	2	17	36	38	329	22	806	50	26	10	97	12	139	18	42	363	3	75	541	133	90	47	49	11	361	87	16	2	111	18	84	20	14	68	11	33	46	205	53	13	10	37	79	16	144	0	3
OTU 100	26	3	0	14	0	142	40	38	12	88	6	97	0	0	0	17	0	185	64	0	0	16	3	167	77	8	16	100	43	28	1	8	7	1	1	0	3	0	21	22	23	0	30	2	0	6	6	2	1	2
OTU 101	0	0	58	0	0	17	0	6	0	0	35	19	0	0	0	0	0	7	0	0	0	1	0	0	0	0	3	0	0	1	0	0	0	0	0	0	0	8	1	2	0	0	0	0	0	0	0	0	0	0
OTU 102	0	0	0	2	23	0	0	0	1	0	14	1	0	33	0	1	1	25	0	0	2	0	2	0	0	0	11	0	0	1	1	0	1	0	2	0	0	6	0	3	0	0	29	0	0	0	0	0	0	3
OTU 103	6	3	5	1008	11	3	26	0	1	22	10	0	0	49	46	72	14	0	12	895	6	0	76	5	0	37	803	32	0	1683	4	79	2	9	100	14	0	4	0	39	15	39	3	2	0	7	0	6	1	10
OTU 104	193	44	246	7	148	2	22	305	247	94	21	42	18	118	34	28	95	46	443	25	0	708	13	167	7	88	3	5	74	18	52	464	85	0	76	61	1	2	7	6	75	126	0	15	44	15	64	18	12	18
OTU 105	1	76	28	0	0	0	4	0	0	6	72	0	0	0	0	0	2	0	3	8	36	0	7	0	5	0	19	0	0	9	8	0	48	19	33	5	21	0	0	0	15	0	0	6	0	1	2	69	46	2
OTU 106	11	20	0	0	0	20	3	0	0	44	23	38	0	22	6	0	9	14	17	2	0	1	0	0	8	0	2	0	3	0	0	0	13	0	40	5	1	0	0	16	2	0	1	0	0	40	0	0	26	0
OTU 107	0	0	0	0	0	1	7	7	0	0	128	36	59	183	1	0	37	5	0	2	3	0	2	0	8	1	11	41	15	2	0	0	0	91	1	4	3	0	1	30	14	8	26	47	83	7	0	177	0	0
OTU 108	12	77	159	13	2	33	0	16	0	3	4	0	0	0	8	180	0	9	19	33	78	0	53	17	8	1	4	0	2	0	1	1	141	4	13	554	44	37	45	6	64	22	0	12	1	0	1	17	38	3
OTU 109	0	0	2	0	0	0	0	0	0	0	1	0	0	0	0	0	0	0	0	0	0	0	0	0	0	0	0	0	0	0	0	0	0	0	0	0	1	0	0	0	0	0	0	0	0	0	0	0	0	0
OTU 110	18	0	16	3363	12	17	20	5	1	1	55	81	108	6	21	72	31	3	32	69	55	22	0	22	59	52	18	48	0	74	34	26	126	4	42	259	0	36	42	0	27	22	10	40	11	11	354	19	1	11
OTU 111	0	0	7	3	5	12	0	0	6	0	0	0	0	0	0	0	0	35	5	0	0	0	58	0	0	0	0	0	0	0	0	22	0	0	0	0	1	31	0	2	0	1	0	0	0	0	0	0	0	0
OTU 112	4	2	0	63	26	6	22	0	0	0	0	0	1	40	88	24	6	21	6	0	48	0	10	0	23	0	6	2	9	0	0	4	22	1	39	8	0	0	0	47	4	11	1	2	24	0	127	2	3	0
OTU 113	0	1	0	18	1	0	0	0	6	2	10	0	4	3	0	3	0	0	0	2	0	39	7	0	0	1	0	6	0	0	0	0	0	0	0	0	0	0	0	1	1	6	0	0	0	20	15	3	0	0
OTU 114	3	324	125	2	30	20	124	21	23	10	161	40	2	39	193	79	24	20	5	53	165	23	99	37	64	99	0	43	46	63	26	42	160	35	40	5	85	24	48	69	95	1945	41	19	69	110	126	31	130	20
OTU 115	5	48	61	105	199	15	171	3	1116	45	164	108	35	41	11	31	92	42	18	20	175	5	134	58	41	156	17	76	36	10	19	3	96	49	16	53	100	43	43	20	131	32	186	39	45	19	39	80	19	9
OTU 116	0	281	5	12	140	190	172	2	4	25	5	810	7	67	283	29	39	383	1	1	5	13	52	450	10	12	10	8	38	54	1	0	54	13	156	33	19	23	19	59	178	289	4	5	2	525	37	25	136	2
OTU 117	1	20	0	11	92	0	32	1215	7	4	10	11	47	22	22	4	21	11	5	2	49	16	31	3	11	1	1	20	33	7	5	1	15	42	10	9	32	33	6	5	57	20	0	25	13	76	41	106	8	0
OTU 118	0	0	0	0	0	15	1	0	0	5	3	37	0	2	111	0	0	0	0	0	0	1	0	2	0	13	16	1	262	6	106	0	7	1	0	0	2	22	0	11	0	1	1	0	0	0	0	0	0	42
OTU 119	12	37	4	5	26	15	16	4	2	1	13	72	36	39	55	0	5	69	14	8	34	3	2	15	45	37	5	9	41	147	11	27	77	22	39	1	29	0	647	18	1	0	155	14	30	11	80	20	27	11
OTU 120	2	12	49	0	3	28	10	0	15	6	4	0	0	49	5	0	0	0	4	18	10	5	23	20	0	33	5	215	23	0	0	0	2	5	8	2	23	1	1	11	0	0	106	1	0	0	75	0	1	0
OTU 121	0	10	80	15	23	11	3	12	12	2	8	12	26	7	25	36	2	0	0	1390	5	1	87	9	88	78	18	185	129	26	0	15	306	1	21	0	3489	0	34	0	6	9	71	2	16	52	3	0	6	1
OTU 122	0	0	1	77	9	0	11	32	1	9	191	21	16	5	2	90	165	5	1	62	93	5	26	25	1	7	29	72	5	35	46	4	5	15	2	105	12	80	32	67	0	2	3	33	300	1	47	2	0	57
OTU 123	37	109	166	51	164	73	152	20	43	50	313	33	56	98	150	207	94	76	83	4	87	77	146	45	940	228	12	28	154	78	98	42	113	41	54	36	42	110	60	128	96	59	46	59	52	141	118	54	48	98
OTU 124	5	1	56	0	0	3	30	8	0	1	0	0	0	49	13	104	0	7	7	0	0	0	12	8	0	8	0	0	0	2	20	12	0	0	0	0	8	0	0	0	3	34	44	4	0	0	0	4	0	13
OTU 125	849	119	229	184	104	192	122	57	4	42	169	91	106	158	350	84	657	157	20	39	131	32	99	133	69	6	70	170	193	57	228	11	71	470	69	339	50	78	32	54	80	348	281	281	126	195	110	155	51	107
OTU 126	0	0	0	0	0	5	0	0	0	0	0	0	0	0	1	0	0	0	0	0	12	0	0	0	0	0	1	0	0	0	7	0	15	2	0	0	0	0	5	4	0	2	0	0	0	0	62	0	0	4
OTU 127	3	22	5	7	40	127	4	29	4	65	176	1	199	81	3	13	4	102	7	3	15	2	7	0	4	0	2	7	25	1	0	0	2	69	10	12	0	23	30	1	0	1	22	12	56	0	21	94	10	0
OTU 128	0	244	287	157	983	47	83	6	14	135	59	344	344	368	62	252	63	74	0	1078	445	23	116	36	56	90	118	244	129	50	577	16	70	276	48	3598	134	145	1632	190	154	111	731	6	66	458	86	502	153	276
OTU 129	0	0	0	3	6	4	3	0	0	0	0	0	0	4	14	0	0	0	3	0	0	0	328	0	0	0	6	0	0	0	0	0	0	0	1	0	3	0	0	2	25	2	9	7	18	0	0	1	0	0
OTU 130	24	2	606	4	18	0	1	7	30	3	22	2	0	0	13	1	31	0	49	1	77	2	16	3	1	10	1	4	21	25	44	2	0	21	1	11	27	14	38	241	19	155	21	41	17	58	35	91	0	15
OTU 131	7	6	199	0	15	48	7	1	0	2	2	4	0	17	194	10	16	11	10	1	4	2	6	114	1	3	0	0	13	0	1030	1	1	18	12	15	20	5	0	12	41	0	888	0	43	204	55	16	0	511
OTU 132	0	65	184	0	0	0	1	0	0	111	34	0	0	55	0	1	11	4	0	0	3	4	0	838	0	67	1	0	31	1	5	0	25	13	0	6	22	6	11	3	13	8	14	0	21	1	0	6	30	4
OTU 133	0	0	6	0	0	0	0	0	0	19	0	67	0	131	0	36	0	0	7	0	3	2	0	0	1	77	0	0	1	3	50	0	4	0	0	0	0	5	0	0	0	0	2	0	0	0	1	19	0	8
OTU 134	9	8	0	15	120	38	38	2	9	7	0	0	122	478	3	17	1	77	16	1	1	8	1	44	32	1	1	6	34	4	81	3	9	0	16	1	5	4	6	11	326	79	3	9	27	5	1	0	3	11
OTU 135	21	74	7	0	17	0	11	20	58	0	131	42	3	84	294	59	22	1	37	9	43	141	21	0	37	26	8	0	9	0	24	193	32	10	101	29	22	4	4	40	70	0	30	38	117	35	6	0	28	7
OTU 136	2	31	58	790	25	12	27	8	0	0	30	2	18	0	62	0	4	9	1	0	0	1	0	0	14	67	1	72	16	2	0	2	1	18	0	7	5	1	5	0	0	7	3	0	0	2	37	23	13	4
OTU 137	0	0	15	0	0	4	0	20	1274	1	0	2	0	0	31	4	0	0	0	13	3	5	21	30	38	29	1	8	4	1	0	2065	4	0	0	0	0	51	1	0	32	7	4	6	0	5	0	4	0	0
OTU 138	13	1	0	17	248	0	0	7	0	5	32	12	40	29	1	284	14	0	17	0	5	1	2	0	61	0	4	2	21	3	0	0	1	3	122	3	1	1	0	3	0	6	15	8	21	9	0	0	0	4
OTU 139	60	255	392	177	111	799	173	9	5	19	98	434	9	165	10	1	60	85	8	249	26	59	24	82	36	17	105	21	161	303	241	24	6	20	7	13	2	21	23	11	69	45	77	36	5	272	114	29	144	109
OTU 140	3	35	76	29	127	2029	243	16	43	230	467	78	241	30	42	90	194	26	6	17	59	90	143	14	188	75	38	13	269	43	218	54	291	70	16	88	37	28	53	69	102	32	45	80	81	50	119	166	36	119
OTU 141	0	0	0	0	0	0	0	0	0	0	0	0	0	0	0	9	0	0	0	0	0	0	0	0	0	0	1	0	0	0	0	0	0	0	1	0	0	0	0	0	12	0	0	2	0	0	1	0	0	0
OTU 142	0	0	0	0	0	0	27	0	0	0	0	0	2	0	0	0	0	0	0	0	0	0	0	0	0	0	1	0	0	0	3	2	0	4	0	0	0	0	0	6	0	0	0	0	0	0	12	0	0	0
OTU 143	0	4	1	0	18	0	0	0	0	2	0	0	0	43	4	0	0	0	0	0	19	1	1	0	1	0	0	20	8	3	5	2	0	0	1	3	15	24	0	0	0	0	1	1	1	1	5	0	1	3
OTU 144	0	5	1	1	0	3	0	1	0	0	4	0	0	6	0	0	0	0	0	0	0	6	13	0	0	3	1	0	0	0	11	0	0	96	0	0	3	4	5	1	11	18	0	1	26	0	42	218	0	7
OTU 145	34	14	62	7	6	27	78	20	13	11	9	4	11	323	280	49	3	1	69	0	12	0	62	55	0	29	2157	29	229	51	3	51	33	27	20	1	1	0	10	678	11	234	71	14	8	33	30	86	2	3
OTU 146	8	1	2	3	0	13	2	35	11	22	2	15	7	1	47	14	1	0	21	4	102	1	0	26	20	6	2	50	152	48	103	33	6	8	7	0	66	10	24	59	55	6	390	4	7	69	18	21	0	39
OTU 147	14	10	7	0	29	0	0	2	0	5	42	29	2	0	0	60	0	0	24	0	0	2	7	47	5	30	20	7	0	20	0	4	46	59	0	1	6	0	3	98	18	0	1	0	1	0	4	63	1	8
OTU 148	9	322	48	961	6	0	189	0	38	17	33	383	39	75	1818	172	43	0	12	955	17	0	13	16	4	9	859	28	0	1467	0	4	0	37	2	22	17	2	31	17	7	5	0	5	35	680	13	88	208	0
OTU 149	5	131	14	5	1	3	0	4	0	22	0	25	1	67	6	1	0	0	12	0	2	0	0	2	0	1	0	33	28	14	1	0	0	2	15	0	0	6	1	6	33	4	1	6	0	0	11	0	48	0
OTU 150	11	0	19	0	5	0	80	1	0	28	2	8	0	1	0	8	4	2	21	3	0	5	25	3	15	0	0	0	10	0	10	10	4	0	2	2	0	34	0	0	1	5	2	3	7	0	0	0	2	9
OTU 151	0	158	4	18	0	7	6	2	1	42	13	2	7	7	6	30	58	0	0	19	35	0	12	1	16	40	34	34	31	40	5	1	3	1	176	34	6	1	7	4	2	25	38	1	1	44	95	23	43	0
OTU 152	38	0	1	35	349	0	52	25	5	69	32	311	3	0	22	74	2	0	79	28	28	7	1	16	80	48	36	0	60	0	81	1	4	29	42	1	15	5	11	4	6	40	19	22	0	576	77	54	1	28
OTU 153	0	16	135	0	0	6	3	0	0	0	1	0	0	6	0	0	0	4	0	0	0	0	0	12	0	4	0	0	0	0	16	0	0	0	0	0	1	0	1	0	7	0	0	0	4	0	15	3	11	0
OTU 154	0	0	64	7	24	0	0	0	0	0	0	0	0	0	0	0	0	0	0	0	13	0	21	0	0	12	0	31	1	0	0	0	14	2	1	0	12	0	41	0	6	0	1	0	0	0	0	0	0	0
OTU 155	0	0	11	0	16	28	18	12	2	17	10	29	2	5	17	12	34	0	0	0	6	0	0	3	15	0	1	1	0	3	2	0	0	12	2	8	15	15	16	5	0	30	0	43	6	10	2	16	0	0
OTU 156	66	77	34	14	11	44	106	20	5	58	49	68	29	602	108	1009	1	32	124	7	1	8	51	16	10	78	62	1161	64	7	220	4	10	10	6	9	1	18	4	0	8	6	165	37	30	88	146	15	24	69
OTU 157	0	8	17	14	0	9	4	5	0	2	9	0	0	78	0	3	6	0	0	10	10	1	31	28	0	0	0	1	3	1	7	8	0	0	27	0	0	0	0	28	1	0	0	5	180	0	0	13	3	11
OTU 158	0	0	0	0	0	0	0	2	0	0	0	107	0	0	0	0	0	0	0	0	23	0	0	0	0	21	0	27	0	0	12	0	0	0	0	0	2	0	0	0	0	1	0	0	0	0	0	0	0	2
OTU 159	4	31	36	17	0	68	2	1	14	0	41	1	30	312	6	8	30	43	14	0	15	1	28	0	41	0	56	31	32	5	9	44	25	0	19	9	20	26	2	7	27	18	136	0	29	33	19	11	13	23
OTU 160	17	87	57	15	186	61	85	33	13	169	58	62	56	73	8	199	50	90	61	9	121	36	138	46	147	68	14	32	76	18	118	18	46	84	33	40	37	74	59	1217	169	16	227	12	54	145	103	143	66	38
OTU 161	1	2	2	18	71	42	234	21	3	242	2	10	72	2	0	7	100	42	7	13	11	15	0	15	48	5	4	19	1	11	17	0	32	20	13	31	18	24	0	37	3	20	165	31	14	29	13	96	0	7
OTU 162	25	3	50	7	134	32	0	35	103	47	10	33	0	21	72	37	2	20	54	8	6	12	39	16	69	134	11	0	11	11	18	37	1	13	0	0	19	1	14	0	8	14	20	19	18	4	7	0	3	6
OTU 163	0	0	0	0	0	0	0	0	0	0	0	1	0	0	0	0	0	0	0	1	0	0	0	0	0	1	0	0	0	0	0	0	0	2	0	0	0	0	0	0	0	0	0	0	0	0	2	0	1	0
OTU 164	0	0	48	0	0	0	0	0	0	0	0	0	0	0	0	0	0	0	0	0	0	0	0	5	0	0	0	0	3	0	0	0	0	0	0	0	0	0	0	0	0	0	0	0	0	0	0	0	0	0
OTU 165	0	1	2	4	46	4	42	0	6	5	120	50	4	85	0	13	57	0	0	1	167	1	10	24	66	3	19	1	0	1	22	32	5	1	1	14	39	100	12	2	34	21	0	2796	67	0	9	0	0	3
OTU 166	0	0	0	0	0	0	0	0	0	0	0	0	12	0	0	0	0	0	0	0	0	0	0	0	0	4	0	1	83	0	0	0	0	0	0	0	6	0	0	0	0	0	0	0	0	0	0	0	0	0
OTU 167	6	31	39	0	0	5	1	6	11	3	41	20	0	12	0	89	13	6	10	0	0	1	16	8	0	1	0	0	10	4	13	23	0	3	9	10	1	41	118	5	25	70	54	2	27	73	0	0	32	9
OTU 168	1	1862	27	9	5	11	6	0	0	0	50	131	76	5	4	76	0	13	2	9	21	109	10	13	9	2	14	6	10	20	1	8	53	0	6	0	1	7	19	11	8	68	20	1729	4	8	8	4	940	0
OTU 169	7	0	0	11	0	0	0	0	0	0	0	0	0	0	0	0	0	0	13	0	0	0	0	0	0	0	0	0	0	2	0	0	70	0	0	0	0	0	0	0	0	0	0	5	0	0	0	0	0	0
OTU 170	0	0	0	0	0	0	0	3	0	0	0	0	0	0	0	8	0	0	0	1	0	0	0	0	0	4	0	0	0	0	0	0	0	0	0	0	0	0	0	0	10	0	0	0	0	0	0	0	0	0
OTU 171	23	47	29	40	316	2	3	192	5	0	37	2	25	44	1	24	13	0	63	87	338	18	6	17	58	36	44	53	94	32	6	9	176	11	54	2	178	6	41	1	30	10	16	0	44	1	288	11	19	3
OTU 172	0	3	0	0	0	1	0	0	0	0	50	23	1	0	1	0	15	6	0	0	0	0	0	34	1	0	0	0	0	26	110	0	0	0	0	7	2	0	7	0	0	0	1	23	0	0	46	0	0	25
OTU 173	1	21	0	1	0	0	11	2	1	8	0	18	6	2	31	2	1	3	3	24	27	0	0	1032	0	0	4	0	7	0	138	0	0	0	1	10	26	4	0	6	0	1	8	0	0	0	3	0	5	26
OTU 174	1	0	62	26	2	1133	82	2	31	29	1	0	1	107	0	0	1	2252	2	4	2	3	26	4	0	4	22	26	0	4	73	89	3	0	3	1	1	54	14	12	2	44	2	2	11	108	0	9	0	41
OTU 175	0	2	3	0	0	0	12	0	0	8	25	14	6	1	7	5	17	25	0	8	16	19	7	1	9	0	9	28	0	7	0	0	37	45	4	17	37	11	0	0	0	0	29	0	6	165	31	106	0	0
OTU 176	5	204	348	2	39	24	3	1	9	52	54	179	32	6	100	48	4	68	15	4	18	123	44	102	15	7	1	15	47	26	44	37	72	19	6	7	7	9	9	361	10	66	40	44	10	157	9	43	557	42
OTU 177	22	76	2	25	19	51	0	24	20	3	61	32	17	32	65	130	43	130	45	32	861	13	63	5	9	113	40	7	99	144	88	15	3	72	3	20	490	17	28	38	106	66	26	43	9	70	261	148	30	26
OTU 178	1	13	48	2	13	45	0	35	0	3	21	18	5	47	1	132	0	106	3	0	4	2	12	882	0	6	0	19	15	5	0	1	0	1	9	0	0	35	3	0	0	18	5	8	9	2	12	0	10	0
OTU 179	2	3	144	0	81	31	42	5	7	34	43	23	27	9	1	0	10	86	4	0	0	0	4	5	12	0	4	19	98	1	28	3	2	2	33	4	4	1	523	55	0	11	6	2	0	1	0	1	1	14
OTU 180	31	80	140	34	75	107	78	6	73	17	88	28	379	53	99	442	42	201	64	10	99	86	32	60	101	79	56	258	106	101	134	78	61	66	13	15	58	108	24	46	34	182	93	8	18	31	257	172	52	52
OTU 181	3	8	0	12	3	387	16	0	14	72	30	29	3	116	52	258	0	598	7	6	12	14	43	0	25	11	33	0	0	0	67	13	37	6	3	1	0	18	9	119	1356	26	0	2	5	79	0	7	2	24
OTU 182	0	0	0	0	0	110	26	0	0	0	0	21	0	0	0	0	0	26	0	0	0	0	0	0	0	0	0	0	0	0	0	0	0	20	0	0	1	0	0	0	0	0	105	0	0	0	0	43	0	0
OTU 183	1	0	0	42	168	3	1	0	17	51	0	18	0	25	13	133	0	52	2	0	40	39	54	39	8	2	2	28	26	14	443	28	5	50	1	0	0	5	30	2	14	86	149	0	18	14	10	95	0	298
OTU 184	0	0	2	2	4	0	151	8	1	130	9	0	48	0	2	0	1	0	0	33	35	1	7	0	143	2	15	3	55	5	11	1	5	0	0	10	34	1	2	3	10	0	0	0	24	15	0	1	0	9
OTU 185	10	24	92	62	112	18	23	18	14	197	16	40	68	8	67	48	1113	9	17	28	3	8	5	29	65	0	30	103	137	95	9	11	37	16	16	632	50	79	238	30	12	114	11	522	56	10	28	42	13	10
OTU 186	0	4	0	3	0	3	0	0	17	0	0	0	14	0	1	2	0	0	0	1	8	6	0	0	0	5	0	26	0	0	5	14	4	0	1	0	0	43	687	10	0	9	3	0	9	2	2	0	0	3
OTU 187	91	20	175	227	111	51	86	200	41	2563	15	26	20	30	58	91	60	24	176	258	161	249	79	71	36	1113	325	28	9	457	43	265	8	110	103	38	41	87	25	201	289	60	151	32	191	0	253	196	14	24
OTU 188	16	50	133	19	90	89	53	14	13	9	183	89	35	25	174	27	91	64	31	1	118	38	54	246	2671	76	32	25	88	14	47	5	16	133	21	59	74	8	78	52	61	30	78	54	111	56	35	334	25	17
OTU 189	28	25	11	98	40	27	6	1	6	60	34	10	54	48	4	248	12	38	74	118	49	5	13	33	37	24	58	20	147	125	44	10	11	50	14	2	7	118	8	53	19	87	47	9	303	267	172	66	17	10
OTU 190	0	0	0	0	4	0	0	2	0	0	0	1	24	0	0	0	0	0	0	7	0	2	2	0	0	0	0	9	2	1	13	0	26	0	0	0	3	23	0	0	3	0	0	0	0	0	0	9	2	0
OTU 191	4	67	16	7	18	1142	25	13	0	18	7	36	126	63	73	73	50	1	12	0	2087	30	78	11	20	16	9	3	151	1	132	5	5	12	72	28	1073	32	14	31	142	12	115	25	31	48	84	63	43	52
OTU 192	176	334	289	8	21	11	66	239	1	61	24	205	64	5	45	28	33	125	403	18	84	2	23	48	50	43	17	28	22	46	215	36	34	123	26	17	30	685	749	66	59	9	61	0	77	380	63	275	187	155
OTU 193	362	7	48	52	31	1	35	400	183	2	16	3	109	22	15	10	4	17	747	2	34	820	10	11	0	113	0	8	674	8	52	223	4	29	3	2	4	1691	809	12	0	56	11	5	2541	10	214	36	40	39
OTU 194	0	49	760	0	6	4	0	1	399	3	1	0	1	7	37	107	0	0	0	5	11	1621	1	6	51	20	3	3	97	0	17	573	1	0	84	4	0	11	9	12	0	3	1	2	1	0	39	13	21	2
OTU 195	0	1	4	7	9	13	35	2	22	6	8	20	21	29	5	19	2	48	2	12	0	3	9	2	54	27	0	1	447	21	2	0	7	0	2	0	0	147	33	28	34	10	16	2	48	17	1	5	0	0
OTU 196	17	6	44	2	10	1	0	6	20	16	21	1	2	25	38	0	0	1	25	0	45	0	48	0	5	11	0	65	9	0	132	2	2769	129	4	1	14	637	174	0	7	127	88	1	4	4	1	161	7	122
OTU 197	7	72	100	34	85	20	118	48	2	24	78	2	12	104	19	53	61	2	12	5	50	2	12	42	36	47	35	148	46	5	70	12	112	13	1517	17	50	55	12	29	22	103	6	46	82	62	62	15	29	35
OTU 198	0	0	0	1	12	0	0	3	0	0	0	0	1	6	13	0	0	0	0	3	0	1	14	0	3	50	1	69	0	0	36	10	0	11	28	0	0	8	4	0	0	35	0	0	0	21	0	3	0	7
OTU 199	1	16	16	31	6	120	0	8	1	44	65	0	6	17	29	65	33	13	4	5	5	0	80	29	0	2	10	2	0	16	2	0	6	10	3	24	0	36	0	25	12	21	0	12	0	3	156	16	16	0
OTU 200	6	3	56	7	0	3	9	8	2	2	5	26	14	7	61	3	0	5	17	1	0	0	49	15	26	21	37	78	1	0	0	0	2	3	0	1	3	54	0	1	81	3	15	3	0	1	3	13	0	3
