	Host 1	Host 2	Host 3	Host 4	Host 5	Host 6	Host 7	Host 8	Host 9	Host 10	Host 11	Host 12	Host 13	Host 14	Host 15	Host 16	Host 17	Host 18	Host 19	Host 20	Host 21	Host 22	Host 23	Host 24	Host 25	Host 26	Host 27	Host 28	Host 29	Host 30	Host 31	Host 32	Host 33	Host 34	Host 35	Host 36	Host 37	Host 38	Host 39	Host 40	Host 41	Host 42	Host 43	Host 44	Host 45	Host 46	Host 47	Host 48	Host 49	Host 50	
OTU 1	46	180	2	43	154	54	0	27	48	52	83	58	7	140	0	0	20	290	458	50	19	18	21	25	71	4	29	17	79	18	79	146	165	13	414	96	205	105	82	86	57	152	159	97	161	56	139	37	11	98
OTU 2	2	9	0	1	4	7	82	5	3	4	34	10	8	0	0	35	10	0	1	5	1	9	0	0	2	18	27	26	0	0	14	16	65	11	7	3	14	0	29	1	10	5	0	0	13	9	0	9	1	1
OTU 3	83	0	429	1	11	0	102	25	356	7	6	6	0	6	0	1	7	2	99	0	3	1	0	0	4	12	1	6	18	0	0	0	4	6	1	152	16	99	0	636	0	5	0	24	1	0	6	1	10	25
OTU 4	0	0	0	0	0	0	0	0	0	0	0	0	0	0	0	0	0	0	0	0	0	0	0	0	0	0	0	0	0	0	0	0	0	0	0	0	0	0	0	0	0	0	0	0	0	0	0	0	0	0
OTU 5	239	501	375	442	437	273	1108	424	254	370	817	208	876	419	732	0	497	30	481	143	163	892	385	953	155	1092	281	317	791	16	128	417	388	11	940	247	843	287	654	615	45	208	229	223	1425	132	189	1132	206	343
OTU 6	96	3	8	6	5	6	78	76	11	2	0	0	34	3	60	33	3	52	241	153	13	75	3	22	13	3	5	32	14	3	9	298	9	26	7	1	42	0	10	4	9	22	0	17	7	1206	437	32	7	13
OTU 7	46	139	25	46	65	2	98	2	7	155	271	76	329	28	231	93	173	177	6	45	96	118	40	18	221	37	66	47	16	60	9	12	98	6	73	39	17	136	34	15	33	428	148	50	46	82	176	431	10	2
OTU 8	9	41	117	41	72	16	50	149	30	11	158	8	114	97	38	146	28	289	644	14	67	96	26	65	36	110	1	19	13	21	65	32	65	74	125	22	219	371	3	18	42	58	95	94	41	67	198	33	7	165
OTU 9	0	11	50	45	20	2	57	0	3	22	26	16	0	0	9	10	22	1	7	20	13	0	45	0	2	2	3	0	9	22	0	0	21	30	22	1	3	38	26	8	2	3	6	61	15	0	1	5	14	0
OTU 10	0	9	31	4	4	0	0	0	30	2	10	8	0	0	61	6	11	80	3	0	3	0	2	4	0	15	50	24	0	30	5	0	110	0	41	0	13	3	46	123	2	0	0	2	16	6	27	0	14	2
OTU 11	15	14	0	40	8	0	115	12	6	32	29	16	48	2	17	60	51	3	49	4	9	103	17	3	15	3	13	31	2	60	27	5	1	31	29	7	43	108	12	33	109	37	17	12	15	2	51	6	43	4
OTU 12	62	11	14	5	247	0	105	14	8	55	10	11	25	13	69	80	158	21	13	44	27	3	4	34	38	12	44	8	0	51	4	60	79	35	23	65	31	12	6	34	70	88	27	146	6	87	21	24	78	1
OTU 13	5	5	0	0	0	0	0	0	0	0	0	0	3	0	0	0	0	0	0	0	0	0	0	0	0	36	0	0	0	7	0	0	20	0	0	0	8	0	0	0	0	0	0	0	0	1	0	0	17	6
OTU 14	2	4	67	31	0	6	5	2	16	30	37	30	1	10	0	0	0	1	13	25	0	255	20	11	18	33	33	0	4	1	47	2	1	16	4	28	0	4	0	211	26	24	0	68	2	3	98	6	20	2
OTU 15	0	0	8	0	0	0	0	0	10	1	5	0	0	0	0	0	0	0	0	0	0	0	0	0	0	0	0	0	0	3	0	0	0	0	0	0	0	0	0	71	5	0	0	10	0	0	16	0	4	0
OTU 16	0	0	13	0	0	0	0	0	0	0	0	0	0	0	0	0	0	0	0	0	0	0	1	0	4	0	0	1	0	0	2	15	0	0	1	0	0	0	0	0	0	13	0	0	0	0	0	0	0	0
OTU 17	0	0	21	37	20	13	199	50	35	32	70	1	0	5	0	14	18	26	4	4	0	115	16	0	5	49	16	1	1	11	36	10	66	12	0	15	0	5	0	20	31	8	43	9	8	6	25	13	22	1
OTU 18	28	4	57	101	0	16	57	29	88	46	84	3	41	47	176	14	67	56	37	3	32	0	33	8	60	20	1	43	0	30	21	15	7	120	5	3	60	17	21	92	4	117	10	1	19	27	109	10	82	63
OTU 19	0	0	0	0	0	0	0	0	0	0	0	0	0	0	0	0	0	0	0	0	0	0	0	0	0	0	0	0	0	0	0	0	0	0	0	0	0	0	0	0	0	0	0	0	0	0	0	0	1	0
OTU 20	28	24	12	11	33	1	42	1	7	54	42	0	168	4	42	0	2	37	35	8	32	34	6	3	120	29	28	18	13	1	24	5	70	219	34	11	11	23	56	18	9	202	85	28	51	1	49	46	1	12
OTU 21	5	3	172	1	2	5	64	36	66	34	1	0	3	1	10	41	4	51	35	2	11	16	2	10	2	102	70	2	3	0	109	12	16	38	4	8	12	35	30	7	52	2	33	6	15	7	52	52	8	19
OTU 22	2	57	2	5	14	1512	18	58	1783	33	65	134	0	103	37	0	79	11	19	758	19	10	6	22	13	3	1	8	2597	10	0	11	12	76	64	3	168	2	17	22	1083	19	12	42	25	20	59	39	11	133
OTU 23	1	58	18	0	64	7	230	0	23	2	0	4	36	1	42	204	15	6	2	56	0	1	1	3	32	5	75	28	14	381	26	144	237	23	137	16	1	1	32	27	16	65	8	5	61	39	34	58	0	0
OTU 24	0	12	12	17	16	19	26	0	28	0	17	0	5	3	26	12	0	0	1	1	0	1	2	0	31	1	8	13	2	17	5	0	0	0	10	6	2	30	0	3	0	66	14	0	8	0	0	2	24	3
OTU 25	0	0	0	0	0	0	0	0	0	0	0	0	0	0	0	0	0	0	0	0	0	0	0	0	0	1	44	0	0	0	0	0	55	3	0	0	0	0	0	0	0	0	0	1	0	6	0	0	0	0
OTU 26	0	0	1	0	0	2	12	0	3	0	1	0	1	0	2	11	0	0	0	1	5	5	0	4	10	0	0	11	0	110	0	0	0	0	0	8	0	7	0	1	4	18	0	239	0	1	0	13	0	0
OTU 27	0	0	0	0	0	0	0	0	0	0	0	0	0	0	0	0	0	0	0	0	0	0	0	0	0	0	0	0	0	0	0	0	0	1	0	0	0	0	5	0	0	0	19	0	0	0	0	6	0	0
OTU 28	49	6	0	1	3	70	95	39	3	44	0	2	24	14	32	19	7	48	1	309	31	34	1	47	66	4	21	18	90	18	105	2	38	0	25	1	8	49	140	2	12	115	22	58	21	13	34	14	394	57
OTU 29	77	15	30	89	4	2	18	9	8	138	94	27	25	0	78	52	149	117	16	5	18	4	29	55	45	47	0	19	26	72	146	5	2	8	18	11	32	5	22	251	36	95	31	154	3	13	195	34	6	5
OTU 30	0	0	0	0	0	0	4	0	0	0	0	0	0	0	0	0	0	0	0	0	0	0	0	0	0	0	0	31	0	0	0	0	0	0	0	0	0	0	0	0	0	0	0	0	0	0	0	0	0	0
OTU 31	17	3572	1	1	13	0	0	2	0	1	0	1	33	31	1	0	106	0	0	62	1	0	1	18	82	0	1	47	0	57	29	119	45	0	6	24	0	4	0	1	0	172	0	1	23	0	0	1	7	12
OTU 32	9	33	20	160	2886	430	104	31	59	260	402	14	234	9	42	7	448	76	45	43	4	3	74	11	106	8	24	49	833	290	3	99	42	233	56	8	25	56	1893	21	16	224	156	667	10	15	107	19	108	10
OTU 33	748	1	0	0	0	0	0	0	0	0	0	0	0	0	0	0	0	0	0	0	0	0	0	3	0	0	0	0	0	0	0	0	0	2	0	0	0	3	0	1	0	0	0	0	0	0	0	0	0	0
OTU 34	0	9	8	20	6	130	74	2	30	3	9	6	8	1344	64	110	14	66	38	30	0	16	20	1	39	273	15	8	197	26	10	17	8	1083	16	394	3301	63	446	23	11	83	56	13	15	248	33	5	46	1451
OTU 35	6	5	38	41	2	0	20	47	0	40	119	760	7	2	50	58	36	291	6	4	85	174	9	32	19	18	94	56	21	61	7	3	97	69	14	32	1	2	49	49	0	30	2338	0	7	40	175	5	19	9
OTU 36	6	0	24	36	9	2	29	23	11	8	44	0	11	68	39	6	1	34	19	0	14	1	15	2	5	6	49	0	0	43	1	4	90	1440	2	22	59	8	4	0	0	5	4	13	13	23	27	5	0	5
OTU 37	2	0	8	0	0	0	21	2	0	0	1	0	2	1	1	31	0	0	0	4	6	0	0	2	0	9	0	19	0	0	0	0	2	12	0	0	0	22	0	7	62	0	0	3	0	1	0	0	5	1
OTU 38	11	67	2	20	57	198	69	1	1	322	29	38	15	1	3	74	37	37	4	42	1	12	19	0	20	5	42	4	354	28	12	65	15	119	114	3	12	15	880	8	72	60	37	27	63	6	8	8	16	0
OTU 39	0	0	0	27	2	1	0	1	0	0	4	3	37	7	4	3	23	1	3	0	0	2	9	0	40	7	0	20	0	1	63	1	0	0	0	38	4	12	0	37	0	59	0	87	9	0	10	0	0	2
OTU 40	38	0	21	63	3	51	39	3	16	97	192	57	13	26	30	202	77	5	11	15	3	632	31	229	109	44	1	90	12	31	16	17	15	119	9	7	34	42	3	18	147	204	60	6	0	44	2	1	3	12
OTU 41	0	33	59	38	4	11	17	1	33	1	7	98	11	2	38	32	3	0	0	26	13	31	26	108	4	50	22	5	73	29	23	9	1	9	47	0	1	2	54	7	0	13	2	9	26	77	196	2	8	46
OTU 42	0	29	0	8	25	0	2	0	2	0	2	0	0	9	71	0	0	0	0	2	16	7	1	0	0	0	0	1	0	1	117	2	0	91	57	6	0	0	0	6	2	0	4	0	17	65	2	0	3	0
OTU 43	0	0	0	0	0	0	0	0	0	0	0	0	0	1	0	0	0	0	0	0	0	0	0	0	1	7	0	0	9	0	0	0	0	0	0	0	0	0	0	0	0	2	0	0	0	0	0	0	0	0
OTU 44	0	0	14	0	0	0	36	0	14	0	5	0	0	0	9	172	0	0	0	0	0	2	1	19	6	0	0	1	0	0	3	0	21	19	7	0	0	0	3	0	0	8	0	12	0	0	0	0	5	0
OTU 45	356	5	13	3	7	8	8	50	28	1	6	31	258	17	0	139	53	7	19	160	12	11	3	4	93	1	36	22	6	96	68	325	3	13	15	38	1	23	18	0	9	186	0	14	4	4	224	3	257	12
OTU 46	32	12	14	3	42	1	36	30	26	18	68	71	19	6	10	2	11	31	63	20	74	26	13	1	43	29	19	7	1	34	39	1	122	38	20	35	10	48	6	54	68	94	6	12	9	66	147	84	0	21
OTU 47	0	0	0	3	0	0	0	0	22	3	7	0	6	0	30	0	0	0	0	2	5	0	0	0	0	0	0	0	0	0	0	24	0	30	0	0	0	0	0	0	15	0	3	0	0	45	31	0	2	0
OTU 48	21	6	51	24	4	12	47	48	49	36	12	53	32	10	18	58	104	35	75	29	4	0	20	110	17	32	29	38	1	45	2	39	7	1	3	72	36	27	2	414	24	31	17	3	12	5	52	6	60	0
OTU 49	15	0	65	1	0	40	14	20	3	0	1	6	0	4	0	2	1	66	29	1	1	0	0	6	0	25	0	2	2	0	8	4	5	2	2	22	6	6	30	21	112	2	0	126	0	10	1	1	0	3
OTU 50	38	172	97	4	110	12	1350	71	16	13	35	3	31	55	122	1	148	76	26	16	41	265	2	307	104	4	131	17	173	5	334	12	163	51	379	118	19	445	114	41	124	218	8	8	154	263	28	16	85	7
OTU 51	0	2	0	0	1	3	127	18	0	22	4	241	23	4	40	32	34	9	5	38	2	2	0	0	81	8	170	0	4	5	8	2	139	121	0	213	8	0	48	11	119	155	780	9	0	4	12	2	28	1
OTU 52	51	30	33	39	21	121	160	177	82	48	181	76	123	29	50	43	110	63	144	62	40	41	15	8	821	190	73	175	230	33	161	50	92	27	68	8	70	8	483	46	36	95	31	10	53	146	478	100	67	73
OTU 53	8	0	0	0	0	0	0	0	0	0	0	0	0	0	0	0	0	0	0	0	0	0	0	0	0	19	0	0	0	0	0	0	41	0	0	0	0	0	0	0	0	0	0	0	0	0	0	1	0	0
OTU 54	63	9	54	449	10	166	215	26	23	711	949	420	218	75	42	102	369	186	146	15	48	18	187	8	25	8	46	80	140	718	69	92	26	105	19	84	29	46	221	166	244	46	339	92	1228	25	8	111	29	11
OTU 55	0	0	0	0	0	0	0	0	0	0	0	0	0	0	0	0	0	0	0	0	0	0	0	0	0	1	0	2	0	0	0	0	0	0	0	0	0	0	0	0	0	0	0	0	0	0	0	0	0	0
OTU 56	9	12	1	2	12	0	19	1	0	2	3	2	4	12	72	0	1598	8	115	2	24	5	0	0	0	18	0	17	2	812	40	15	1	0	9	10	12	19	30	58	158	1	2	882	8	8	3	1	10	6
OTU 57	35	6	340	41	13	23	72	95	93	20	210	105	28	22	55	253	68	377	52	26	15	140	15	51	12	424	12	116	38	61	51	26	66	105	23	394	60	2643	63	65	26	23	32	31	11	18	131	15	33	57
OTU 58	32	0	22	22	0	11	1	0	9	771	96	0	122	12	46	82	27	54	3	4	0	25	7	5	0	5	15	20	2	3	2586	0	49	0	0	6	35	1350	11	0	86	0	42	61	0	27	179	1262	41	2
OTU 59	1	16	0	62	16	19	474	1	0	4	105	0	0	5	1	3	1	51	37	0	10	0	15	1	1	0	1	6	1	69	2	0	23	36	14	0	43	20	26	27	51	1	5	3	0	14	53	0	1	2
OTU 60	164	22	1	5	16	0	98	20	24	1	17	78	63	12	151	8	71	98	16	88	37	8	3	11	10	1	1062	0	9	33	28	161	51	24	15	51	40	3	37	63	21	26	25	185	12	0	265	275	30	17
OTU 61	36	27	11	1	14	5	21	482	75	33	20	20	310	97	163	34	58	15	452	10	292	12	2	15	24	3	25	5	38	3	15	24	30	189	46	162	379	15	1	30	53	49	26	20	11	129	40	214	102	154
OTU 62	0	1	457	1	0	11	20	11	497	4	13	0	6	1	0	13	97	0	3	0	3	2	7	0	0	283	4	3	4	5	7	0	6	0	0	104	0	0	11	1068	58	0	4	22	0	0	89	0	0	0
OTU 63	0	1190	1393	16	0	38	3	4	3	0	4	3	9	1	13	76	3	5	1	0	4	0	5	0	0	98	0	5	21	1	25	0	2	12	15	8	0	0	9	0	0	2	61	3	0	43	31	14	8	2
OTU 64	566	13	71	15	2	3040	63	366	15	56	67	39	6	318	275	14	33	96	1655	421	265	72	9	36	20	68	107	82	60	11	16	627	248	218	4	160	905	54	62	102	63	39	15	44	6	23	37	503	242	453
OTU 65	0	0	0	0	0	0	33	0	0	4	0	1	0	0	26	0	1	0	0	0	0	0	0	5	0	0	0	0	0	0	0	1	0	0	0	0	0	0	0	0	30	0	0	0	0	0	0	0	0	0
OTU 66	1	25	3	1	36	25	57	7	214	0	44	23	0	0	33	128	9	38	32	86	0	4	0	133	4	37	123	2	38	28	31	190	227	103	41	1653	19	8	65	165	183	14	16	31	19	11	0	23	41	3
OTU 67	14	0	7	8	8	1	43	2	53	5	11	11	20	1	2	33	15	183	2	57	1	37	0	0	61	9	4	0	36	7	16	27	4	43	10	77	0	18	20	1	30	136	2	30	5	24	3	2	7	27
OTU 68	137	6	45	1	0	0	0	32	2	2	19	0	3	0	31	2	1	14	36	14	7	68	0	1	0	12	1	0	2	32	10	39	30	10	1	1	60	2	4	0	1	0	4	8	313	3	0	8	11	24
OTU 69	5	2	40	35	3	0	68	6	25	15	2	4	28	0	23	24	90	1	106	0	7	32	15	150	225	9	1	13	0	9	5	0	13	11	2	45	6	4	3	85	2	441	11	38	8	2	98	6	11	2
OTU 70	25	0	0	0	0	35	0	2	21	0	19	6	4	1	25	0	1	0	5	1	14	0	0	0	3	0	0	15	55	3	76	6	6	0	5	5	5	0	134	1	13	9	42	0	0	0	0	12	0	4
OTU 71	2	2	88	128	1	3	5	0	0	65	80	0	0	26	2	1	0	37	3	2	0	0	64	2	0	1	16	1	4	80	0	1	0	10	1	0	1	1	2	0	0	0	90	41	1	91	0	29	2	35
OTU 72	9	1	7	77	7	3	0	371	61	3	52	45	1804	4	105	26	44	13	65	18	199	28	35	10	36	75	14	5	37	232	13	19	3	2	10	0	4	0	126	2	161	88	4	65	9	38	27	45	42	8
OTU 73	218	8	118	0	14	1	0	21	9	1	0	0	15	72	2	158	28	0	87	3	21	2	0	14	0	6	28	0	16	25	21	0	47	79	16	0	18	26	2	106	12	0	1	81	1	9	139	24	21	1
OTU 74	40	10	42	46	4	5	8	24	60	21	72	31	77	8	10	64	73	5	55	19	39	44	49	4	11	13	8	6	11	22	63	59	67	69	33	1	3	1	3	9	133	21	93	49	21	62	55	3	6	1
OTU 75	106	0	23	10	6	4	2	97	26	18	9	30	15	9	14	237	13	0	3	50	74	49	8	41	47	16	29	10	25	0	98	32	20	29	1	16	18	4	28	82	13	86	69	16	0	18	1	49	3	14
OTU 76	13	4	21	0	20	51	0	4	0	9	0	0	10	9	9	9	0	34	0	0	0	1368	0	0	18	0	0	0	9	0	0	0	6	0	45	5	25	1	51	8	0	34	56	0	23	0	36	0	2	0
OTU 77	11	15	58	3	17	10	40	19	95	97	1	9	54	12	22	8	14	37	35	8	1	5	2	3	4	25	114	47	30	4	36	3	73	180	10	0	31	9	22	74	100	12	8	6	12	122	45	10	9	15
OTU 78	64	4	31	25	0	7	2	21	24	7	91	20	64	4	131	16	70	1	63	0	19	45	25	71	50	11	20	4	1	0	0	0	14	44	14	46	26	1	1	60	66	103	1	50	0	0	21	31	3	20
OTU 79	140	68	38	71	88	31	45	1508	132	102	71	209	166	8	451	172	94	123	79	38	608	49	33	124	3019	109	78	45	67	15	21	160	213	30	177	105	57	75	80	78	141	138	232	88	90	100	91	80	140	15
OTU 80	46	4	0	43	11	9	105	6	157	121	21	12	132	8	33	8	234	26	158	2	2	12	25	38	4	7	2	1623	55	46	31	3	0	40	35	79	20	34	132	119	141	10	68	70	5	73	12	4	19	32
OTU 81	15	8	515	30	3	15	23	378	507	22	120	28	151	61	2	47	40	52	300	7	240	44	10	31	6	316	6	702	9	14	44	40	9	29	4	261	146	7	4	545	53	20	45	12	2	10	169	60	15	45
OTU 82	2	50	8	2	21	10	2	111	11	0	8	1	0	4	40	80	22	35	0	6	121	34	0	24	34	11	21	0	5	15	148	5	28	13	83	0	0	65	12	0	38	69	2	3	12	23	27	11	11	25
OTU 83	17	0	1	7	0	0	0	0	1	0	9	0	69	3	0	136	0	0	0	0	0	0	0	0	0	0	35	12	16	1	0	4	31	12	27	0	2	0	0	0	30	0	0	1	1	15	68	2	0	0
OTU 84	0	29	9	5	59	22	46	2	0	32	7	16	0	22	0	15	9	29	4	28	5	2	2	29	0	1	19	0	2	0	182	16	65	151	64	0	0	19	7	10	71	1	3	10	11	221	7	1	0	8
OTU 85	0	0	0	94	0	0	0	0	0	79	68	5	0	3	6	0	30	0	0	0	0	0	72	23	25	13	0	8	14	1	10	0	0	0	0	4	11	29	1	4	49	44	3	24	1	10	0	0	10	5
OTU 86	0	0	75	0	0	3	0	0	0	0	0	0	4	0	16	0	0	0	0	0	0	4	0	0	0	0	0	0	0	0	0	0	0	0	0	4	3	0	5	96	0	0	0	0	3	0	0	10	1	0
OTU 87	0	5	0	0	4	0	8	3	0	66	0	0	51	0	12	12	11	1	2	8	0	0	0	2	22	0	1	0	3	3	31	13	0	0	5	57	13	1	1	44	1	40	8	2	5	3	0	0	17	1
OTU 88	10	0	1	1	0	0	1	0	2	0	0	2	0	0	0	0	0	0	0	0	0	0	0	0	1	274	0	0	0	0	3	0	3	95	0	0	4	0	0	14	48	1	2	12	0	0	1	0	0	0
OTU 89	0	3	0	0	0	16	5	52	15	0	0	2	0	1	2	0	0	0	10	75	8	4	0	15	3	3	7	0	1	34	0	71	16	0	0	5	5	1	2	12	87	8	6	7	2	7	23	4	4	2
OTU 90	0	0	2	1	0	0	5	1	0	0	1	2	44	1	0	0	53	29	0	0	26	0	0	10	0	2	2	0	17	0	27	15	0	0	2	1	1	0	0	0	13	0	0	0	0	0	0	9	1	0
OTU 91	0	0	0	0	0	15	0	0	0	4	0	0	0	1198	0	0	0	0	0	0	0	0	0	0	0	0	0	0	0	0	0	0	0	0	0	1	3	0	0	0	0	0	0	0	0	0	5	0	0	1
OTU 92	0	1	0	3	0	0	0	5	12	9	3	0	10	0	1	0	2	1	0	15	0	0	0	0	6	0	39	6	2	18	18	23	3	0	0	0	0	6	0	0	1	13	17	0	0	2	26	0	0	0
OTU 93	24	0	0	3	2	0	0	5	4	0	0	15	0	0	0	2	0	19	0	0	0	0	0	4	6	1	0	1	0	7	0	0	0	0	0	0	0	0	0	0	0	6	0	0	1	0	30	4	1	0
OTU 94	121	2	96	68	10	54	51	34	5	5	119	50	16	10	26	25	107	5	47	214	29	11	53	6	0	88	6	48	64	4	41	476	72	136	2	37	0	9	5	15	170	2	12	0	0	14	526	0	242	47
OTU 95	0	0	46	15	0	1	58	18	47	11	13	0	1	24	3	24	10	5	10	3601	16	3	15	0	4	7	0	1	1	0	0	0	0	9	0	0	0	0	1	32	0	10	72	5	2	0	6	908	8	1
OTU 96	0	0	22	0	13	0	2	0	0	0	0	0	0	0	0	0	0	0	0	0	7	0	0	12	3	0	56	0	3	0	8	0	81	0	0	0	0	1	0	0	0	6	28	0	0	4	0	0	0	0
OTU 97	2	2	0	0	0	0	12	5	1	0	1	0	0	0	0	30	0	1	0	15	0	169	0	11	0	39	29	3	0	18	0	3	88	0	9	0	3	10	0	1	8	0	0	28	8	17	0	0	0	0
OTU 98	52	35	145	14	7	1	0	0	0	11	9	1	0	0	0	0	0	0	0	0	22	7	5	3	4	61	11	3	13	0	0	0	0	0	28	0	0	2	8	19	7	5	14	0	16	1	3	1	11	0
OTU 99	111	2	9	14	13	10	11	386	22	23	24	161	38	26	17	22	33	54	334	117	68	9	10	10	166	32	0	2	33	21	54	239	19	297	27	498	144	218	5	0	81	293	579	3	24	912	4	53	92	49
OTU 100	12	352	0	0	361	22	0	0	31	2	7	0	1	2	17	152	0	22	9	14	26	7	3	1	8	7	5	1804	30	6	668	13	17	17	687	33	2	210	77	8	19	25	0	1	252	38	32	3	24	1
OTU 101	0	0	0	5	0	0	1	0	0	72	25	5	0	0	5	0	0	0	0	15	0	0	0	38	1	14	0	0	0	0	0	0	0	0	2	0	0	1	2	0	0	1	0	1	2	0	0	0	6	0
OTU 102	0	63	1	2	31	3	0	12	0	0	2	2	0	4	0	3	0	15	0	3	3	23	0	8	5	52	3	0	0	0	0	0	7	2	96	2	1	0	0	0	1	20	0	18	40	3	2	0	0	0
OTU 103	1	252	0	0	247	1	17	0	0	0	7	12	5	0	90	261	4	0	8	2	2	26	1	51	13	3	205	389	8	49	232	64	470	2	541	3	7	120	3	6	35	21	10	32	252	575	2	15	75	1
OTU 104	137	97	36	18	115	54	43	133	20	6	16	27	7	96	119	37	177	1	178	389	68	2	12	308	81	57	37	32	43	15	134	711	99	90	191	7	96	28	13	58	291	169	14	12	82	0	94	128	353	73
OTU 105	0	0	1	4	0	0	3	0	0	11	2	0	0	0	0	2	19	3	52	0	0	7	3	2	0	0	1	37	1	0	1	0	0	22	0	3	13	0	2	2	209	0	0	0	0	3	7	13	7	16
OTU 106	0	0	30	13	0	1	0	0	0	1	1	25	17	0	13	1	1	0	0	0	0	5	0	0	0	11	2	0	0	11	2	0	0	0	0	29	0	23	0	0	0	0	0	0	5	0	0	0	18	7
OTU 107	12	0	60	79	11	0	0	9	0	5	64	0	30	31	26	22	0	26	1	8	2	13	23	6	0	0	0	1	0	19	21	0	0	0	1	0	0	0	0	21	17	0	0	203	0	0	29	0	0	0
OTU 108	25	0	1	15	0	1	4	99	2	8	0	2	0	17	17	21	9	9	26	9	151	11	10	47	3	3	0	41	3	4	0	19	0	0	0	14	8	0	1	3	24	7	20	4	0	1	3	45	7	4
OTU 109	0	0	0	0	0	0	0	0	0	0	0	21	0	0	0	0	0	0	0	0	0	0	0	0	0	0	0	0	0	1	0	0	0	0	0	0	0	0	0	0	0	0	0	0	0	0	0	0	0	0
OTU 110	150	16	39	1	5	46	30	24	2	0	1	26	14	6	1	12	35	46	67	122	1	197	1	46	11	46	26	91	1	41	29	102	100	0	40	60	21	0	0	60	18	25	53	41	8	60	222	1775	13	5
OTU 111	16	0	2	0	0	1	0	10	7	0	0	0	2	0	0	1	14	4	2	0	0	0	0	8	0	9	0	0	5	2	1	0	0	8	0	0	3	0	13	0	0	0	0	12	0	13	2	0	0	0
OTU 112	0	31	4	0	30	1	149	0	4	5	3	0	1	0	3	0	1	14	0	0	2	38	1	16	3	0	0	0	6	3	0	2	3	0	123	20	0	6	4	0	25	5	0	4	69	0	15	24	0	5
OTU 113	0	0	0	1	1	0	0	8	0	0	0	43	0	0	0	12	5	0	18	1	0	0	8	0	0	0	8	1	0	16	1	0	5	0	20	0	10	0	0	3	16	0	0	0	0	0	0	2	0	0
OTU 114	34	19	13	60	46	16	31	83	52	34	49	33	2	52	78	153	46	8	180	19	11	22	35	245	601	1	668	3	9	8	270	57	1064	191	57	41	137	42	31	32	68	1134	25	15	17	18	42	44	19	27
OTU 115	66	158	113	15	118	7	55	26	64	13	52	18	98	30	69	27	24	23	32	11	59	18	9	43	25	22	37	67	9	95	55	64	49	175	241	34	0	105	34	43	32	50	79	49	223	13	85	13	21	43
OTU 116	23	42	6	0	8	0	167	94	32	28	6	0	119	0	76	3	50	556	7	0	43	44	1	17	65	114	22	28	2	7	24	7	35	52	43	886	1	7	6	2	248	161	0	0	23	46	27	1	0	8
OTU 117	16	11	42	9	6	12	1	1178	14	12	11	109	20	0	0	2	1	114	11	19	343	0	0	92	19	11	57	1	31	1	23	93	103	119	28	17	0	45	35	3	56	38	22	2	37	73	129	3	3	0
OTU 118	0	0	14	0	0	1	0	0	27	0	0	0	0	0	108	0	0	0	0	0	3	0	0	4	14	0	17	1	5	18	0	0	99	30	0	30	0	0	0	0	3	14	0	0	0	139	0	0	0	4
OTU 119	34	94	28	24	97	7	50	17	0	3	4	7	22	3	14	94	133	11	1	37	48	204	26	1467	8	31	56	86	26	23	3	23	35	35	153	14	2	4	36	35	11	19	29	3	119	16	2	53	20	33
OTU 120	6	0	43	14	0	0	27	0	1	24	66	0	0	0	5	0	0	0	27	0	0	4	15	7	0	97	0	40	1	6	2	0	1	2	0	16	3	0	37	0	0	0	33	0	1	0	5	20	16	0
OTU 121	33	35	19	4	1863	6	26	0	1	0	4	8	0	2	18	34	16	8	12	7	30	12	4	0	32	14	0	4	45	5	31	2	1	0	73	0	0	9	15	5	7	53	63	26	18	118	2	1	17	9
OTU 122	0	7	23	76	4	52	1	32	75	144	95	18	13	21	87	0	172	0	12	6	8	77	40	4	6	124	63	34	19	4	13	13	110	1	1	12	15	7	83	11	4	17	93	134	0	52	109	0	33	20
OTU 123	243	25	83	2389	63	180	246	66	21	229	187	69	47	22	396	468	91	91	134	22	62	58	1083	120	368	229	62	212	727	72	113	48	149	159	40	141	26	28	350	59	164	105	287	212	1398	150	200	36	28	51
OTU 124	2	0	0	0	3	0	44	21	6	2	0	0	13	13	13	81	6	0	1	21	1	10	0	0	0	2	3	0	1	0	0	59	0	68	6	1	5	31	2	3	0	0	0	0	4	0	0	0	51	3
OTU 125	64	84	28	143	108	26	146	50	104	91	385	60	149	51	210	184	478	104	37	63	57	1209	166	56	50	87	7	141	10	43	46	162	52	324	221	71	20	750	69	215	106	132	339	141	118	115	325	20	24	32
OTU 126	0	0	3	0	1	0	0	24	0	7	0	4	0	0	0	18	2	1	0	0	10	0	0	0	0	0	0	0	0	0	2	0	0	0	0	0	0	17	5	1	3	0	0	0	0	0	0	0	0	0
OTU 127	4	1	0	31	0	14	13	32	19	75	48	31	222	3	0	61	2	146	0	0	11	0	17	18	2	0	0	0	66	2	4	0	12	55	7	0	13	2	94	140	18	6	62	0	0	1	258	1	8	2
OTU 128	769	40	196	54	33	63	183	151	67	129	190	25	453	88	152	436	90	313	206	103	84	86	39	410	188	14	17	123	30	80	77	236	225	267	64	167	108	22	98	391	83	374	83	89	16	95	107	41	69	70
OTU 129	0	15	0	0	5	0	11	0	8	1	21	42	0	5	0	0	0	0	0	0	0	7	0	0	0	0	0	0	0	0	0	12	0	0	31	2	1	14	0	3	2	0	0	61	10	0	0	0	0	0
OTU 130	0	25	16	3	27	26	39	12	8	8	4	4	2	1	2	13	94	6	7	3	4	2	1	6	20	0	4	1	3	2	0	1	17	86	19	85	13	23	0	30	30	50	3	0	3	65	16	5	0	2
OTU 131	22	0	1	7	15	9	4	160	37	3	6	23	7	7	251	57	55	9	6	0	5	1	5	466	5	36	856	0	16	6	1	64	1673	0	0	51	0	2	14	125	16	7	11	87	0	84	9	44	8	16
OTU 132	1	20	3	0	0	12	3	48	8	0	0	7	0	1	0	17	42	0	9	7	36	0	0	22	0	20	8	2	0	7	4	0	18	102	0	22	0	8	0	11	5	1	0	24	1	1	0	1	59	0
OTU 133	0	0	1	4	0	9	0	0	1	0	0	0	38	1	0	21	14	3	0	0	0	0	0	0	0	1	1	0	9	0	5	0	0	0	0	0	0	9	0	6	0	2	1	5	0	1	0	0	0	0
OTU 134	1	2	5	1	4	4	83	65	38	18	14	0	20	37	18	1	78	146	64	42	1	106	0	11	1	5	0	7	85	49	127	41	4	0	9	87	18	151	13	35	241	2	23	13	6	23	4	1	5	0
OTU 135	42	25	70	2370	10	4	45	8	47	112	62	0	0	15	396	25	21	68	40	50	5	4	1178	14	0	17	0	31	15	31	30	67	1	15	47	74	30	10	23	1	63	1	131	82	10	5	0	34	109	15
OTU 136	6	10	4	12	4	0	9	18	5	10	27	3	0	0	36	2	0	3	4	7	10	0	16	1	0	0	32	33	0	5	0	1	0	1	27	32	12	2	0	36	17	0	26	0	7	20	39	1	0	2
OTU 137	299	4	4	0	11	0	0	47	0	2	1	0	3	64	6	0	29	0	19	550	1	0	0	0	1	20	1	0	0	0	0	1423	0	6	17	0	24	0	0	18	1	2	0	38	1	29	27	9	409	4
OTU 138	21	0	2	0	1	0	0	0	0	3	0	0	9	0	9	99	6	1	5	0	0	0	0	13	10	0	16	0	1	0	2	13	5	14	0	97	6	0	0	0	39	28	22	21	6	8	35	13	1	25
OTU 139	32	27	13	59	45	0	118	6	17	13	74	2853	16	123	40	52	383	258	43	7	56	66	37	79	6	1620	48	44	50	19	74	61	140	7	48	26	32	57	58	23	139	7	8	59	14	78	103	23	29	40
OTU 140	68	169	72	287	318	124	370	47	63	3164	512	157	194	72	26	87	101	42	35	9	51	32	112	1262	28	48	48	37	340	2247	152	112	11	72	391	136	41	136	68	276	199	54	99	125	217	73	130	4	3606	26
OTU 141	0	0	0	0	0	0	0	0	1	0	0	0	0	0	0	0	0	0	0	0	0	0	0	0	0	0	0	0	0	0	0	0	0	0	6	0	0	0	0	0	0	0	0	0	0	0	0	0	0	0
OTU 142	2	0	0	0	0	0	0	0	0	0	0	0	0	0	0	2	0	2	1	1	0	0	0	0	0	0	0	0	0	0	0	15	0	0	0	2	0	39	0	0	0	1	0	0	0	0	0	0	2	0
OTU 143	2	4	2	27	3	0	1	0	1	9	6	3	0	0	0	28	0	1	1	9	0	1	10	1	0	0	1	1	0	12	0	0	0	4	11	21	3	0	2	0	11	0	1	0	10	8	0	0	2	0
OTU 144	0	3	0	30	0	0	14	1	3	6	62	8	3	6	9	0	0	0	0	0	0	0	16	0	2	0	22	0	0	0	0	0	30	125	0	0	0	0	0	1	46	6	20	4	4	0	0	0	4	0
OTU 145	11	32	4	63	43	5	68	0	72	0	75	21	10	60	250	7	1	4	53	0	13	0	16	10	139	61	18	810	33	51	34	9	17	21	94	5	24	27	15	20	143	278	27	29	44	24	10	45	14	4638
OTU 146	45	19	0	8	10	1	29	7	1	5	0	21	8	5	43	38	14	24	2	1	43	1	2	48	16	23	3367	21	2	60	8	10	42	1	16	28	0	143	13	6	150	22	28	24	25	1	320	0	108	7
OTU 147	0	0	11	0	0	0	11	0	1	0	0	91	18	2	15	22	22	0	5	0	0	27	0	0	0	0	2	1	18	24	10	1	14	1	0	11	37	0	5	0	20	0	0	6	0	107	0	1	0	24
OTU 148	0	166	0	11	132	4	89	4	0	59	77	15	67	7	1334	339	60	51	22	0	11	4	15	51	1	6	292	203	7	0	355	0	430	51	306	0	4	272	2	1	2	3	170	4	217	679	31	0	1	0
OTU 149	41	23	0	0	38	1	0	0	0	0	2	3	0	0	7	78	16	2	32	9	9	5	1344	10	29	0	0	7	0	0	0	6	3	0	38	0	0	0	3	0	23	43	17	5	46	4	4	42	8	26
OTU 150	12	0	0	0	8	16	1	0	1	32	5	0	0	3	122	47	14	0	0	0	0	0	0	0	879	0	1	0	3	0	15	9	3	4	0	0	0	18	9	25	3	0	19	1	8	0	0	5	0	0
OTU 151	7	12	7	3	3	1	7	1	22	0	56	1	85	1	1	3	113	129	7	5	0	41	0	11	14	22	5	5	1	0	32	6	10	0	15	3	8	41	0	52	4	25	12	18	8	0	1	2	2	2
OTU 152	1	3	33	2	3	1	4	24	0	7	6	5	19	0	50	23	7	17	2	19	13	16	0	10	68	30	0	0	0	83	7	8	13	2	4	6	0	70	0	2	102	128	67	11	3	57	38	2	1	2
OTU 153	0	0	0	5	0	0	8	0	0	0	9	5	1	1	3	1	0	0	0	0	0	0	3	0	0	0	0	42	0	0	8	0	0	0	0	0	0	0	0	1	1	3	0	4	0	0	3	0	0	0
OTU 154	1	0	0	1	0	5	0	0	0	0	0	2	1	0	0	4	1	0	0	0	0	44	0	0	0	0	1	4	0	3	0	0	0	1	0	0	0	0	0	0	13	0	0	0	0	0	0	0	0	0
OTU 155	0	22	23	0	21	15	103	8	0	25	29	382	6	8	0	0	133	0	9	7	19	11	0	0	0	93	10	5	9	1	40	17	7	5	23	9	7	15	0	10	62	0	11	0	41	0	3	8	0	0
OTU 156	98	1	22	62	5	1581	52	75	76	1	127	3	89	29	6	590	24	93	75	12	85	6	24	73	23	20	11	205	26	117	136	40	16	22	3	125	60	50	65	93	30	55	4	42	2	21	21	68	30	74
OTU 157	2	0	24	3	0	3	20	4	28	0	0	0	1	2	0	12	2	0	1	0	2	0	0	0	2	46	0	6	0	30	2	0	25	0	2	60	3	0	0	2	15	3	0	1	0	12	0	0	10	0
OTU 158	0	0	0	0	2	0	0	0	0	0	0	0	0	0	0	0	0	0	0	0	0	0	0	0	0	0	0	0	0	0	21	1	0	0	0	0	0	0	1	0	0	0	0	2	0	0	0	0	0	0
OTU 159	0	7	0	0	3	1	0	0	42	41	10	0	10	2	42	4	46	10	62	15	1	0	0	0	0	7	4	67	40	59	171	34	6	81	9	5	11	18	18	3	0	4	0	35	2	50	22	562	0	3
OTU 160	89	100	43	164	46	31	97	17	6	65	260	31	268	395	107	361	11	201	93	23	73	110	102	125	18	646	56	39	24	20	16	36	65	134	122	756	28	48	52	22	65	35	203	38	59	54	123	14	29	42
OTU 161	6	42	1597	0	8	0	69	41	17	11	3	77	201	78	183	29	73	28	119	9	13	1	0	491	4	38	29	20	11	23	42	15	0	1	50	2	21	45	16	52	51	2	6	14	30	7	9	13	65	40
OTU 162	19	12	28	135	4	303	53	44	10	147	157	17	0	1	33	35	1	7	44	2	9	30	53	9	95	45	9	9	708	40	121	89	2	0	8	13	20	9	4	29	3	145	40	20	2	7	51	0	78	0
OTU 163	2	6	0	0	1	0	0	0	3	0	0	1	0	0	0	0	0	0	0	2	0	0	0	0	0	0	0	0	0	0	0	0	0	0	0	0	0	0	0	0	2	0	0	0	0	0	0	20	0	0
OTU 164	6	9	0	0	10	0	0	0	0	0	0	0	0	0	0	0	0	0	0	0	0	0	0	0	0	2	0	0	0	0	0	0	0	0	13	2	0	0	0	0	0	0	0	0	6	0	0	3	0	0
OTU 165	0	3	5	70	8	1	9	30	0	54	158	25	135	4	0	69	66	0	4	9	0	5	38	0	44	5	2	1	5	757	8	64	1	16	62	2	11	0	72	5	42	74	111	1442	14	4	0	5	47	2
OTU 166	0	52	0	0	83	1	0	0	1	5	0	0	0	0	0	0	0	0	0	0	0	2	0	0	0	0	0	0	0	0	0	0	0	0	70	0	0	7	0	0	0	0	0	0	69	0	0	0	0	0
OTU 167	11	8	8	39	9	1	0	58	0	19	55	39	1	13	23	4	80	10	0	12	19	0	22	1	0	57	1	0	3	50	4	5	2	35	0	6	39	0	0	1	87	0	14	0	0	0	1	7	66	0
OTU 168	9	55	14	25	48	0	69	8	13	23	29	194	40	10	66	23	34	125	3	6	0	18	2	57	3	34	19	1	3	639	15	19	22	28	67	1	0	26	27	121	0	10	20	1473	56	19	3	0	28	11
OTU 169	0	0	0	0	0	0	0	0	8	0	0	0	0	0	0	0	0	0	51	0	0	0	0	0	14	0	0	0	0	0	0	1	0	0	2	0	0	0	0	0	5	25	0	0	0	0	0	0	0	0
OTU 170	0	0	0	0	0	0	2	0	0	1	0	0	0	0	0	50	0	0	1	2	0	0	2	0	0	0	9	2	0	0	0	15	18	0	0	0	0	1	0	0	1	0	0	0	0	16	0	30	0	8
OTU 171	2	28	4	0	8	14	0	6	6	12	8	0	0	13	10	105	15	23	222	43	15	0	0	1	81	49	0	57	3	1	1	34	3	1	10	34	9	8	37	2	25	165	28	10	842	16	145	32	20	43
OTU 172	0	0	8	1	0	0	0	0	3	57	25	3	0	0	2	3	0	0	0	0	0	5	4	0	0	0	0	7	0	0	0	0	0	8	0	1	0	0	0	6	2	0	0	0	2	0	34	0	0	0
OTU 173	1	2	0	0	0	0	17	19	11	11	12	0	36	0	26	77	6	0	17	4	8	1	1	3	0	0	1	18	0	6	45	0	0	0	0	13	2	0	3	77	0	0	0	25	0	9	0	0	3	19
OTU 174	88	0	5	0	11	4	48	1	0	2	5	35	13	74	0	13	0	1630	71	80	56	152	0	0	22	63	4	67	30	2	30	309	4	0	3	1	30	1	24	32	1	26	3	1	0	5	0	3	175	0
OTU 175	0	2	27	6	0	0	27	27	1	2	0	0	49	29	18	51	38	4	3	11	4	15	2	33	9	0	0	3	23	1	2	0	17	132	0	5	1	5	13	0	9	12	2	11	0	2	1	3	0	0
OTU 176	33	9	18	29	1	3	4	115	9	25	100	38	10	16	69	43	35	25	99	4	19	52	21	36	59	2	27	0	9	18	24	8	54	12	18	62	30	0	87	5	27	129	49	9	3	164	66	10	47	21
OTU 177	54	46	20	3	16	21	27	3	29	9	73	114	30	18	41	16	149	192	59	16	7	30	3	7	31	16	0	133	40	14	98	8	6	53	67	8	107	10	0	34	151	55	7	32	27	160	43	24	4	18
OTU 178	43	0	0	0	3	0	0	53	0	5	1	4	0	2	9	79	19	237	0	0	3	52	0	13	1	53	7	5	33	4	28	0	25	2	1	11	24	2	42	0	2	2	3	3	2	2	36	1	2	7
OTU 179	2205	4	51	1	16	14	71	0	0	73	2	3	23	0	10	0	10	164	80	0	24	86	0	4	13	0	2	9	0	10	51	0	0	0	36	56	1	1	0	5	0	45	128	0	36	2	0	0	4	9
OTU 180	62	136	32	112	219	17	200	62	34	99	195	116	182	2	174	704	58	170	46	125	45	70	52	49	59	129	48	202	15	83	118	156	26	103	253	108	38	43	73	18	133	140	81	57	222	97	233	50	96	37
OTU 181	0	1	3	9	1	3	10	55	38	5	7	0	20	3	15	184	12	418	22	150	12	52	8	0	5	1	12	0	2	3	76	78	17	3	2	35	21	9	35	5	891	18	26	0	0	61	20	7	83	3
OTU 182	0	0	0	0	0	0	0	0	0	0	0	0	0	0	1	0	16	0	0	0	0	0	153	0	0	0	0	0	1	0	1	0	0	1	0	0	0	0	0	0	0	0	0	0	0	0	0	31	0	0
OTU 183	2	38	1	1	36	5	8	2	0	0	0	27	100	11	14	114	25	77	21	43	3	8	0	44	17	33	3	10	2	66	4	67	0	56	40	80	14	9	3	24	111	41	2	9	13	1	9	22	17	4
OTU 184	3	9	2	3	8	0	86	0	1	0	7	0	9	0	0	10	14	152	58	0	19	0	5	807	0	0	0	29	8	7	0	0	20	35	14	0	26	13	1	0	0	0	3	0	10	0	45	29	24	20
OTU 185	0	58	17	112	62	13	24	114	7	132	155	2	34	19	22	62	574	9	9	98	2	13	58	0	49	5	90	47	11	493	24	81	87	41	133	7	5	27	10	105	23	90	13	273	96	26	71	37	46	4
OTU 186	5	19	41	0	2	2	0	1	3	0	14	0	0	0	0	4	46	0	11	2	26	23	0	0	0	0	0	2	0	24	0	1	2	1	28	2	1	0	31	0	11	0	0	0	10	14	0	0	20	5
OTU 187	12	74	59	49	55	3	42	206	74	62	15	59	220	69	347	96	85	0	43	90	172	10	27	48	22	11	60	256	23	27	69	261	82	205	135	28	55	46	83	22	206	64	73	7	133	233	116	29	79	21
OTU 188	27	17	3	50	18	29	29	76	375	42	84	82	20	3	177	69	13	23	9	25	4354	28	35	4	0	25	4	21	0	90	24	11	0	144	78	1	9	25	22	119	28	3	27	151	11	32	52	3	4	4
OTU 189	93	30	118	46	34	10	10	28	45	29	83	19	67	409	27	261	13	73	110	16	23	4	17	14	47	26	27	9	44	2	30	40	154	26	48	1	739	21	81	5	101	106	11	26	31	100	181	110	43	335
OTU 190	0	5	71	0	0	32	6	1	0	67	0	0	113	0	4	0	22	0	0	0	0	1	0	0	0	9	0	0	0	0	0	2	39	0	0	0	0	0	3	0	17	0	0	0	0	65	0	0	0	0
OTU 191	9	21	2	81	0	4	102	53	1	11	64	71	114	6	178	47	4	9	31	33	51	73	46	19	11	36	1	2	0	42	9	32	29	34	21	8	17	7	6	12	100	21	56	30	7	20	70	43	192	28
OTU 192	32	14	727	0	1	54	10	159	681	27	6	7	126	21	1	32	2	148	234	48	122	69	4	6	32	1025	4	83	96	65	28	133	64	135	13	504	69	21	238	907	51	64	202	96	1	15	29	132	3	47
OTU 193	44	0	58	16	1	200	61	380	5	99	68	96	2	134	3	44	16	4	287	17	239	9	12	22	105	84	4	0	312	25	3	27	22	8	2	19	229	5	565	24	1	205	50	35	2	7	211	101	59	88
OTU 194	306	3	38	29	0	40	0	11	0	0	37	19	2	0	31	34	12	14	0	248	1	1	12	16	22	4	12	16	65	21	8	251	14	20	5	1	10	0	110	0	11	50	33	7	1	0	4	7	355	0
OTU 195	75	46	43	6	14	88	26	0	2	2	5	2	0	0	0	4	20	88	40	0	12	82	3329	3	7	8	5	13	101	1	8	0	0	48	98	27	10	3	236	101	14	15	12	26	47	267	2	0	78	7
OTU 196	29	541	28	58	550	30	0	38	2	15	119	3	6	3018	5	23	4	29	39	21	24	25	35	0	3	86	4	23	138	26	482	42	2	13	1135	2	24	180	279	7	4	6	70	2	605	4	72	7	17	25
OTU 197	43	4	3	154	17	42	190	124	2052	77	273	1280	63	101	26	0	8	23	54	44	73	10	35	32	36	15	18	59	28	8	38	125	5	46	54	20	53	33	41	124	58	86	229	53	16	699	63	31	60	102
OTU 198	84	3	61	0	0	0	11	15	0	19	0	4	34	17	26	0	2	4	0	15	26	1167	0	0	9	0	33	11	0	0	2	0	4	1	1	0	1	0	5	1	0	22	1	36	0	70	0	0	0	4
OTU 199	1	20	21	100	43	15	29	17	0	39	223	6	8	1	14	29	9	0	2	0	26	4	39	2	5	1	0	2	24	9	1	2	6	77	64	10	17	0	27	28	14	14	80	0	30	5	87	0	2	0
OTU 200	0	3	10	9	0	6	1	21	71	1	1	5	79	48	9	1	0	1	25	22	14	18	15	1	23	9	0	2	10	4	13	72	10	22	0	23	48	8	2	2	1	41	6	24	3	13	0	42	98	17
