	Host 1	Host 2	Host 3	Host 4	Host 5	Host 6	Host 7	Host 8	Host 9	Host 10	Host 11	Host 12	Host 13	Host 14	Host 15	Host 16	Host 17	Host 18	Host 19	Host 20	Host 21	Host 22	Host 23	Host 24	Host 25	Host 26	Host 27	Host 28	Host 29	Host 30	Host 31	Host 32	Host 33	Host 34	Host 35	Host 36	Host 37	Host 38	Host 39	Host 40	Host 41	Host 42	Host 43	Host 44	Host 45	Host 46	Host 47	Host 48	Host 49	Host 50	
OTU 1	10	0	63	97	12	23	37	0	33	44	1	3	2	52	42	70	6	94	55	15	16	0	39	0	0	0	71	182	24	62	12	77	17	76	2	68	0	5	0	12	133	0	31	19	6	1	36	4	69	0
OTU 2	144	0	5	36	31	4570	16	19	2	0	1	0	3	11	0	11	28	0	79	65	0	0	0	884	50	50	89	0	64	0	0	11	129	0	0	160	0	0	2	1	0	0	68	1	147	5	0	11	420	1
OTU 3	0	0	0	2	0	0	2	15	1	0	6	0	4	0	0	16	6	0	16	0	0	0	0	79	3	8	14	27	1	3	1	0	0	0	36	0	0	39	19	3	2	25	3	1	0	1	36	0	33	0
OTU 4	0	0	0	0	0	0	0	0	0	0	0	0	0	0	0	0	0	0	0	0	0	0	0	0	0	0	0	0	0	0	0	0	0	0	0	0	0	0	0	0	0	0	0	0	0	0	0	0	1	0
OTU 5	368	2	72	46	255	39	312	103	142	228	420	0	1404	345	14	402	622	209	345	156	0	192	246	174	0	46	14	29	586	74	318	14	86	29	258	141	0	199	262	516	323	68	55	2	1	808	517	6	213	59
OTU 6	53	40	114	36	31	49	58	136	14	13	7	68	16	4	0	4	13	6	1	144	55	21	195	1	0	68	30	8	66	180	10	80	73	0	6	177	28	0	13	10	3	42	18	48	1	164	16	5	345	2
OTU 7	233	146	19	58	90	8	179	191	28	26	62	20	119	5	36	19	443	1	89	13	21	27	18	43	33	75	32	63	31	17	40	39	252	56	560	29	1301	56	10	47	15	546	132	27	136	18	86	18	16	239
OTU 8	69	0	4	9	22	3	29	41	8	68	139	60	76	21	6	16	4	16	17	13	24	80	13	137	119	15	49	8	20	10	10	44	222	9	1863	18	121	23	2234	6	2	58	65	60	68	2	34	109	43	35
OTU 9	0	22	5	5	0	1	10	5	41	28	6	51	0	7	0	0	22	28	6	22	129	25	1	65	17	7	2	4	43	9	33	25	0	4	3	0	8	1	0	21	21	3	56	0	17	121	1	4	1	0
OTU 10	0	0	0	7	0	0	14	89	3	32	0	1	0	0	2	13	72	2	109	4	18	40	12	53	474	0	0	2	0	1	10	0	3	2	385	3	6	0	0	3	0	389	1	0	0	0	17	19	1	147
OTU 11	35	14	0	46	0	0	31	71	34	33	36	21	48	5	60	18	81	3	9	8	49	59	2	12	69	1	33	55	55	2	3	22	10	62	22	6	61	27	49	11	1	6	7	80	196	26	28	47	1	29
OTU 12	11	24	4576	31	9	2350	25	114	55	36	32	52	4	12	6	17	52	1	45	4	38	19	10	10	1	40	29	89	24	21	15	6	99	16	139	18	28	28	49	0	1	21	13	29	35	144	54	72	34	2
OTU 13	0	0	0	0	2	0	0	0	0	0	1	0	4	1	0	0	0	2	0	0	0	0	0	0	119	0	0	0	11	0	0	0	0	1	59	0	4	0	13	0	8	0	42	0	0	0	3	0	0	1
OTU 14	12	42	0	0	1	0	17	2	4	9	0	56	0	0	19	0	2	1	7	7	67	87	37	1	35	1	7	61	7	0	15	0	0	28	33	2	13	0	0	0	0	111	7	65	3	0	0	13	8	5
OTU 15	0	0	0	0	0	0	0	3	0	0	0	0	0	0	15	0	0	0	0	0	0	0	0	0	0	0	0	5	0	0	0	2	0	49	8	0	0	0	0	15	0	246	0	4	0	0	0	2	1	105
OTU 16	0	0	0	0	0	0	0	3	0	0	0	0	0	0	11	0	0	0	0	0	0	0	0	0	0	0	0	0	0	0	0	0	0	13	0	0	0	0	0	0	0	0	2	0	0	0	0	0	0	0
OTU 17	4	0	4	26	3	5	20	3	0	0	10	0	26	0	1	0	2	0	21	30	3	0	0	0	225	98	75	2	0	15	10	13	57	8	2	93	9	0	6	20	3	19	29	9	19	1	0	103	67	23
OTU 18	31	0	8	18	72	9	82	26	1	81	54	2	1	73	15	44	40	9	15	3	12	11	6	58	9	155	27	16	99	45	13	18	3	21	3	30	83	2825	70	18	14	1	24	69	76	30	35	30	29	5
OTU 19	0	0	0	0	0	0	0	0	0	0	0	0	0	0	0	0	0	0	0	0	0	0	0	0	0	0	0	0	0	0	0	0	0	0	0	0	0	0	0	8	0	0	0	0	0	0	0	0	0	0
OTU 20	18	6	4	2	17	0	26	51	5	24	121	4	10	8	7	0	0	10	40	3	11	23	43	2	9	99	9	14	21	2	255	67	30	27	6	69	19	11	11	3	1	5	48	30	20	18	102	4	25	1
OTU 21	5	10	22	45	4	15	18	45	0	13	0	79	110	5	6	4	114	5	753	30	117	24	0	38	60	21	48	119	13	18	22	16	87	33	16	61	28	6	76	6	4	1	39	12	70	24	0	0	88	13
OTU 22	31	0	4	3	34	5	1	47	1	16	50	32	53	1	44	25	27	3	26	0	15	327	28	1	3	112	15	254	66	20	21	6	19	86	0	21	31	94	36	23	12	3	45	0	13	34	13	20	40	10
OTU 23	1	1	9	6	0	5	25	67	6	30	60	2	37	1	1521	8	0	12	21	5	0	8	19	2	31	93	2	0	5	1	6	6	1	3212	5	5	177	0	8	4	40	19	0	339	0	4	41	0	2	5
OTU 24	11	88	0	13	0	0	0	1	0	0	14	180	40	17	4	1	2	5	10	0	551	9	4	11	9	8	30	68	23	0	2	4	0	4	3	1	32	0	0	4	48	2	13	2	0	0	10	0	8	12
OTU 25	2	0	0	2	0	0	0	0	10	0	5	0	0	0	2	18	0	0	0	0	0	0	0	0	0	0	0	2	0	1	12	0	0	4	46	0	0	0	0	0	0	0	0	0	0	0	0	0	0	1
OTU 26	12	0	6	0	0	3	4	0	17	16	0	5	1	3	0	0	0	0	0	0	0	49	0	0	0	22	0	0	3	0	21	0	0	0	345	0	2	0	0	0	0	7	6	44	0	0	0	83	0	0
OTU 27	0	3	0	0	0	0	0	0	0	0	0	3	0	0	0	0	0	0	0	16	0	7	20	0	0	0	0	0	0	0	0	0	0	0	1	52	0	0	4	0	0	6	0	9	0	0	0	0	15	0
OTU 28	91	9	27	18	34	12	14	23	5	8	2	33	199	3	47	10	41	2	43	27	11	0	23	30	223	326	63	45	20	140	21	42	18	29	170	17	27	32	10	0	10	179	7	78	63	3	78	123	5	67
OTU 29	33	41	6	31	2	194	245	29	27	40	73	77	53	0	21	42	37	14	44	1	41	53	114	11	4	9	194	2	0	33	10	23	138	39	2	31	156	36	4	11	41	17	69	51	31	23	10	6	23	41
OTU 30	0	0	0	0	0	0	0	0	0	0	0	0	0	0	0	0	0	0	0	0	0	0	0	0	0	0	0	0	0	0	0	0	0	0	0	0	29	0	0	0	0	0	0	0	0	0	0	0	0	3
OTU 31	5	44	5	1	3	1	1	0	0	2	1	86	3	7	3	2	0	38	22	4	323	22	16	6	1	0	88	2	0	44	9	101	9	1	4	13	10	18	19	0	29	14	20	1	0	0	0	26	1	9
OTU 32	172	3	284	17	5	136	144	72	22	5	101	13	15	251	13	20	8	267	32	26	77	274	420	19	8	182	1181	287	17	600	74	423	88	37	16	3	181	142	342	42	637	52	7	63	395	635	9	195	30	35
OTU 33	0	0	0	0	0	0	0	0	2	0	0	0	0	10	0	0	0	0	5	0	0	0	2	0	5	4	7	0	0	0	0	0	0	0	0	0	0	0	0	0	5	4	0	0	0	0	0	1	0	0
OTU 34	30	13	4	123	42	1	105	16	43	46	86	18	18	0	34	31	35	7	0	8	29	2	7	4	23	2	9	25	74	7	14	12	23	31	55	84	35	48	1	56	1	31	35	85	1	8	6	16	86	34
OTU 35	9	104	14	0	0	9	0	0	3	9	0	243	3	10	5	23	1	4	42	67	578	6	18	198	0	5	20	0	8	5	0	5	803	19	20	23	33	22	190	25	29	6	5	47	34	336	53	39	58	0
OTU 36	1	7	4	3	24	3	4	169	9	16	21	16	15	0	1	16	2	9	6	849	19	6	16	4	109	75	39	110	43	4	2	14	30	0	22	21	74	0	71	7	20	29	6	0	5	45	3	30	32	18
OTU 37	148	0	0	59	14	0	1	0	0	2	0	4	1	30	2	1	0	1	0	1	0	0	0	0	88	131	16	0	5	5	0	14	1	0	1	0	0	0	1	0	41	1	1555	21	6	0	68	4	0	0
OTU 38	31	2	6	32	0	0	10	97	140	0	9	17	17	0	0	33	53	2	6	5	53	101	0	4	2	89	0	193	19	8	6	0	51	7	11	4	2	15	2	11	15	33	7	241	57	0	47	37	5	50
OTU 39	7	0	0	1	3	0	109	0	0	0	15	10	0	1	1	24	0	0	0	0	9	2	1	0	35	1	25	6	6	1	0	37	13	5	26	0	0	12	0	0	0	7	0	1	19	5	0	115	1	0
OTU 40	19	77	6	2	11	2	100	104	55	65	5	139	41	23	3	18	58	2	0	17	251	51	1	1	295	27	19	398	3	0	2	15	47	3	4	3	81	37	525	31	22	90	40	9	142	1337	207	9	4	60
OTU 41	5	0	20	8	0	11	992	25	19	142	46	1	98	22	28	39	30	9	91	18	36	3	10	1	14	6	7	76	17	18	54	17	0	79	62	0	144	13	12	101	28	0	0	53	23	4	106	0	23	25
OTU 42	5	0	3	345	2	0	3	0	0	0	0	3	0	0	0	137	3	8	0	0	15	2	21	0	33	0	0	51	20	9	0	0	0	2	7	1	1	0	0	10	0	46	0	0	59	0	2	0	0	4
OTU 43	0	0	0	0	0	0	0	0	0	0	0	0	0	0	0	0	0	2	0	0	0	0	0	0	0	0	0	0	0	0	0	3	0	0	0	0	0	0	0	0	0	0	23	0	0	0	0	45	0	0
OTU 44	25	10	0	35	11	0	7	4	0	0	164	15	0	1	42	0	5	0	0	0	23	0	0	0	0	0	0	71	53	1	11	0	0	87	12	4	0	0	0	37	0	0	0	0	1	71	3157	0	0	0
OTU 45	24	25	0	65	101	0	50	1	3	33	1	33	18	4	10	59	70	1	24	10	11	23	26	17	51	8	2	65	134	10	10	0	61	20	18	2	33	24	44	26	2	2	84	67	48	53	7	58	8	17
OTU 46	545	157	7	371	37	5	36	125	1	53	19	0	80	9	56	83	7	40	78	2	1	77	12	41	92	253	16	92	17	20	14	22	31	62	0	8	2	48	17	17	36	15	39	15	1339	50	6	495	2	111
OTU 47	0	0	0	0	0	0	0	42	0	0	0	0	0	0	9	0	1	0	1	0	2	11	0	0	0	5	2	1	0	0	0	0	1	19	8	0	19	0	0	0	0	26	0	0	0	7	34	0	0	8
OTU 48	141	2	1	71	36	1	18	25	8	60	20	9	64	32	9	5	12	4	25	21	4	98	1	42	68	285	71	165	35	1	18	66	11	6	81	52	6	47	13	76	30	31	22	278	23	104	49	14	41	1
OTU 49	12	1	1	19	57	1	25	66	0	4	7	0	6	0	0	0	4	5	6	2	0	20	56	2690	1	6	54	196	83	1	6	15	103	0	0	25	14	1	16	35	0	1	51	15	24	105	2	9	1	12
OTU 50	88	62	36	229	0	23	27	57	36	68	94	75	46	24	14	26	18	3	2	50	196	11	35	152	160	109	34	72	5	54	40	74	31	12	35	47	10	1	20	29	16	12	0	216	14	16	47	30	149	34
OTU 51	12	9	18	0	5	9	23	19	1	4	33	18	6	28	8	5	29	1	9	0	10	0	43	3	105	86	26	4	0	20	0	9	37	20	387	1	148	0	0	23	18	262	8	27	44	36	110	24	3	118
OTU 52	33	71	19	6	1362	12	14	10	5	46	49	162	134	69	33	0	47	3	90	18	288	146	1537	107	95	139	100	109	7	5	14	28	44	56	99	33	75	199	13	33	28	55	36	303	55	83	34	112	37	28
OTU 53	0	0	0	0	0	0	0	0	0	0	0	0	0	0	0	2	0	0	0	0	0	0	0	0	0	3	0	1	0	1	2	0	0	0	0	0	0	0	0	0	0	0	0	0	0	0	0	0	0	0
OTU 54	12	16	27	150	37	9	71	76	38	34	57	22	125	1	45	34	130	4	18	17	23	40	48	17	26	3	14	36	140	30	44	159	34	61	36	32	93	104	9	112	37	24	50	79	83	40	0	193	147	23
OTU 55	0	0	0	0	0	0	0	0	0	0	0	0	0	0	0	0	0	0	0	0	0	0	0	0	0	0	0	0	0	0	0	0	7	0	0	0	0	0	0	0	0	1	0	0	0	0	7	0	0	0
OTU 56	0	2	0	11	6	0	0	36	6	9	19	0	0	11	6	0	10	18	0	11	7	12	2	15	48	17	5	1	8	0	84	4	25	16	0	0	5	56	36	0	24	3	0	265	67	13	48	2	1	0
OTU 57	179	34	8	79	4	2	96	15	19	14	67	73	237	21	25	279	29	23	132	42	25	104	1452	71	135	157	68	343	91	24	39	51	46	49	42	108	87	38	44	2983	12	79	32	53	210	9	161	39	66	29
OTU 58	0	17	2	3	9	0	32	16	0	8	21	54	9	14	4	1	6	4	0	0	123	57	0	1	169	0	8	22	1	0	0	7	187	32	25	14	2	27	44	44	11	68	14	0	49	7	35	7	2	24
OTU 59	14	0	10	1	9	10	1	1	38	21	0	1	0	0	10	5	9	8	0	0	2	8	22	0	82	0	1	116	2	41	0	21	1	4	11	0	126	1	0	0	0	0	10	105	0	0	73	0	3	19
OTU 60	5	29	20	17	24	13	1	171	33	15	0	61	185	10	5	20	65	2	35	0	140	11	2	42	58	218	36	2	1	35	14	66	20	9	18	25	63	9	67	89	3	159	7	8	250	7	20	46	5	25
OTU 61	173	28	392	201	60	173	104	78	22	132	109	52	15	505	26	39	10	462	132	4	227	6	18	32	23	41	208	45	100	680	210	20	4	28	191	27	189	3	9	59	978	20	126	91	61	52	38	6	2	59
OTU 62	0	20	0	2	0	0	0	7	1	30	0	4	0	0	0	0	0	0	0	129	12	30	0	0	8	51	0	5	0	1	1	0	3	0	0	60	6	23	8	2	0	2	28	67	6	0	6	58	45	0
OTU 63	13	5	12	0	39	6	52	0	0	0	2	10	45	2	4911	1	49	0	0	0	2	108	0	55	44	0	2	5	27	22	13	386	0	0	9	1	17	397	0	0	1	0	19	0	0	23	12	20	0	5
OTU 64	82	2315	33	99	16	15	16	111	16	2	12	4513	65	1	49	85	116	31	87	49	96	23	31	84	41	84	12	14	30	51	16	2	115	119	20	8	189	185	977	220	28	12	6	327	257	109	49	260	36	66
OTU 65	29	0	0	29	0	0	0	0	1	0	0	1	0	0	0	0	0	1	33	0	0	0	0	0	0	0	1	23	0	0	0	0	312	0	0	0	0	0	3	8	1	1	0	0	0	1	0	0	0	0
OTU 66	48	53	2	49	8	0	17	61	4	29	4	36	32	2	49	67	9	14	26	4	104	23	1	42	33	4	37	16	10	19	4	5	45	92	6	13	231	19	47	91	9	5	68	19	10	36	17	56	51	0
OTU 67	21	0	0	0	2	0	2	8	22	65	1311	0	134	0	20	30	26	0	3	1	2	20	0	6	13	37	4	54	74	1	28	1	26	56	23	64	22	65	34	14	18	77	19	10	9	1	0	9	67	21
OTU 68	62	0	1	2	0	1	1	0	0	0	17	1	0	0	0	47	16	5	10	992	7	0	0	21	54	0	2	0	6	0	4	4	2	2	6	886	10	1	51	1	19	0	25	0	86	0	1	0	2033	2
OTU 69	2	0	14	17	1	3	26	52	63	42	15	0	106	27	883	19	3	20	13	54	19	2	4	16	30	55	62	32	0	12	4	37	0	1708	114	1	220	260	13	17	44	3	18	230	123	70	45	102	7	0
OTU 70	15	3	0	0	59	0	94	16	1	33	12	11	12	5	0	13	50	0	0	14	8	0	0	8	0	41	17	121	83	5	27	0	0	1	1	7	1	4	0	0	3	10	30	14	3	0	18	4	1	0
OTU 71	9	12	0	36	0	0	63	93	28	2	1	66	0	2	5	374	2	47	12	7	46	1	10	0	75	0	34	20	1	7	9	1	66	13	20	0	22	0	10	11	0	0	50	50	3	0	3	38	0	3
OTU 72	81	7	3	2	44	1	62	60	7	10	1	11	12	613	18	68	170	595	17	11	3	16	59	14	36	108	232	1	40	11	6	3	3	15	100	14	85	65	8	13	1827	31	0	1	24	128	46	91	17	25
OTU 73	70	0	163	51	0	83	3	31	3	18	0	21	42	12	0	4	47	1	9	1	9	2	29	23	158	36	1	4	3	1	0	6	39	0	40	9	2	14	56	1	0	6	3	1	137	0	6	2	8	106
OTU 74	14	0	62	10	31	27	59	44	0	8	110	5	24	1190	3	3	1	9	1	37	16	45	15	8	245	187	23	36	43	91	8	36	115	21	0	65	402	24	1	1	9	47	2	32	0	154	38	157	49	11
OTU 75	36	43	6	102	22	0	2	86	5	13	27	69	52	8	32	50	35	22	0	26	176	2	827	98	535	18	120	131	25	15	9	115	13	57	42	53	132	59	80	26	15	5	5	52	19	97	0	24	4	4
OTU 76	2	2	0	44	0	0	23	11	7	8	0	6	0	1	0	1	0	0	20	1	1	0	0	81	5	36	0	1	2	0	13	0	132	0	0	4	22	15	0	0	9	0	6	296	1	29	0	28	0	0
OTU 77	23	9	3	60	51	1	3	25	27	38	4	54	10	24	23	25	0	8	30	48	134	54	23	6	0	0	15	1785	42	36	0	3	17	32	26	1	89	9	16	66	13	14	3	79	0	9	12	118	16	2
OTU 78	14	31	0	181	60	0	57	149	217	855	39	53	112	21	5	61	70	3	233	23	12	7	1	3	19	1	7	85	92	9	429	12	52	4	7	5	20	4	3	320	18	1	32	2	89	2	0	14	5	22
OTU 79	218	51	35	95	73	17	902	680	1048	86	73	42	324	766	6	89	166	635	185	3208	110	69	338	71	252	148	332	56	77	61	61	167	138	10	48	49	45	137	121	625	1144	205	30	39	116	87	108	162	79	70
OTU 80	87	137	2092	14	28	997	75	45	49	96	29	166	36	12	7	10	63	48	53	21	161	2	165	33	52	62	182	1	77	4467	108	116	15	8	25	37	1	37	189	2	14	7	103	88	99	202	43	34	19	2
OTU 81	28	4458	12	15	59	3	55	2	85	234	41	117	50	19	11	19	14	258	21	49	268	72	34	115	52	19	324	158	141	52	155	68	40	37	60	4086	111	36	140	5	15	45	58	2	235	62	124	8	4	14
OTU 82	89	7	2	43	4	0	0	77	1219	1	1	62	0	0	0	6	4	6	222	1	77	24	5	0	10	59	14	4	49	3	56	5	10	0	1	12	58	36	2	3	16	280	16	157	2	1	10	26	25	95
OTU 83	0	0	0	2	53	0	0	0	4	0	5	1	0	0	15	18	0	0	0	0	0	0	36	26	2	0	60	0	116	0	0	20	48	20	0	0	0	17	24	3	0	34	61	0	17	10	2	1	0	0
OTU 84	42	12	1	3	0	1	16	15	0	37	956	31	10	8	337	0	3	26	15	6	17	14	36	4	8	82	43	9	12	0	8	99	7	696	3	9	32	1	0	31	8	52	11	2	17	13	96	17	5	1
OTU 85	12	5	0	0	4	0	64	0	0	0	19	0	116	12	0	0	0	0	39	20	3	0	0	53	4	0	7	0	0	0	7	0	0	0	0	6	14	0	1	2	2	0	3	456	13	23	60	39	0	2
OTU 86	0	0	0	0	0	0	0	0	0	0	0	0	0	0	0	57	1	1	0	0	0	0	0	0	0	0	0	0	0	0	1	0	0	0	0	0	0	0	0	1	0	0	0	0	0	0	0	0	0	0
OTU 87	1	0	3	0	17	1	0	11	0	0	77	12	0	0	2	14	2	0	0	0	70	6	18	0	1	0	0	2	0	4	0	0	1	3	808	23	2	7	0	288	0	392	0	0	6	6	1	0	56	231
OTU 88	0	7	26	35	0	17	0	0	0	0	0	12	0	5	0	0	0	0	0	4	0	0	0	0	4	9	0	0	0	43	0	0	18	4	4	0	0	127	0	0	18	0	0	5	0	0	1	0	26	7
OTU 89	55	3	0	0	0	0	0	24	15	56	1	0	4	1	0	0	0	4	0	20	5	0	0	2	9	0	10	1	7	7	0	2	11	3	4	0	35	18	16	4	0	4	3	10	51	62	2	20	41	3
OTU 90	0	0	0	0	0	0	22	0	3	22	0	1	0	0	1	17	2	0	0	0	0	30	2	0	0	0	11	0	0	0	23	0	0	0	11	2	0	0	0	0	1	0	0	0	24	0	0	0	0	0
OTU 91	0	0	0	0	0	0	0	0	30	69	0	0	0	0	0	0	4	0	0	0	0	1266	0	2	0	0	0	1	1	1	0	0	0	0	1	2	0	567	0	0	0	0	9	2	0	0	0	0	0	0
OTU 92	70	0	0	0	0	0	34	1	0	0	0	0	0	0	0	3	41	0	38	3	4	69	0	0	110	10	1	13	0	0	0	0	62	0	0	3	0	0	3	0	0	1	1	2	0	0	2	0	0	0
OTU 93	21	0	0	0	7	0	0	0	0	0	6	2	8	1	0	0	0	0	2	0	0	5	0	0	0	41	3	0	0	1	1	0	4	10	3	0	0	0	0	0	0	0	1	3	25	0	9	0	0	29
OTU 94	117	29	17	73	261	10	88	10	1222	107	189	89	54	22	0	6	55	4	6	50	141	91	81	2	97	212	166	3	219	12	51	2	31	9	0	2	124	52	41	8	8	3	125	28	94	7	82	52	37	7
OTU 95	21	0	0	6	3	0	1	10	408	1508	955	10	1	0	5	18	0	9	63	0	103	0	0	0	185	21	7	2	2	0	719	1	0	7	0	0	0	0	4	0	4	29	5	0	1	0	0	0	0	2
OTU 96	0	0	0	0	0	0	0	3	4	0	0	0	0	0	0	0	0	0	7	0	0	0	0	0	0	0	0	0	0	0	5	0	288	0	0	0	0	0	32	0	0	0	0	0	0	0	0	20	0	0
OTU 97	0	0	101	1	0	58	0	0	0	0	0	11	0	32	0	26	0	22	48	0	29	0	1	0	0	5	2	2	1	159	0	0	1	0	0	5	0	0	0	2	71	17	0	0	0	0	0	0	24	0
OTU 98	16	0	16	30	0	7	0	0	2	0	20	0	0	8	0	0	4	31	5	17	0	0	0	9	13	0	40	1	0	15	0	126	250	0	1	1	45	23	1	1	36	25	0	0	68	14	3	0	1	14
OTU 99	70	2	8	76	30	1	10	45	12	22	20	21	87	44	7	85	2	49	0	5	42	65	42	27	1	74	188	49	20	23	36	91	350	9	56	13	44	41	39	17	36	27	72	243	16	6	34	41	14	15
OTU 100	9	20	26	0	8	10	204	2	12	9	63	0	38	2	38	43	12	29	2	3	28	7	0	29	40	1	0	8	23	12	9	14	2	73	37	1	44	6	14	19	16	982	9	1	6	14	9	0	18	679
OTU 101	13	0	0	3	0	0	0	0	1	0	0	0	0	0	3	0	39	0	17	0	3	0	0	2	0	1	0	0	0	0	1	0	7	10	128	0	0	0	0	19	0	0	0	0	0	0	0	0	0	3
OTU 102	0	0	6	2	43	5	37	12	0	9	0	0	26	5	0	0	913	33	0	12	5	0	21	0	0	6	14	0	20	38	13	7	4	0	5	5	16	35	0	3	61	0	52	23	35	61	0	0	0	2
OTU 103	83	54	17	1	0	9	6	14	0	61	1	17	20	2	9	12	1	4462	0	58	25	5	5	2	4	4	0	17	16	33	2	3	38	7	15	27	4	18	24	0	0	7	2	8	4	0	135	5	0	36
OTU 104	1920	41	32	2	287	18	573	169	4	4	87	34	145	37	170	1	30	13	15	41	101	22	4	94	22	155	171	36	625	48	7	0	439	228	1162	72	147	102	19	16	17	52	614	28	128	27	100	23	68	1
OTU 105	10	2	0	0	0	0	3	10	0	28	13	0	0	4	0	5	0	0	0	22	2	37	56	0	20	141	57	44	0	0	0	118	0	0	0	4	0	0	2	0	0	0	23	0	0	0	4	0	0	0
OTU 106	0	1	1	0	3	1	29	3	13	0	0	0	18	3	0	0	9	32	0	1	0	8	172	0	0	0	80	130	67	0	0	0	1	2	0	3	14	17	3	0	23	11	58	166	110	0	3	0	2	10
OTU 107	36	4	4	15	0	3	5	1	0	0	1	21	0	0	0	2	0	0	0	14	12	4	0	0	84	0	6	22	0	0	8	3	629	1	6	29	26	0	0	22	0	0	7	5	0	54	0	586	43	0
OTU 108	9	0	0	0	4	0	1	54	0	2	6	0	1	1	0	3	347	0	1	6	9	0	26	14	0	56	24	0	1	0	0	1	1	6	2	0	17	4	5	1	0	59	1	68	76	48	0	8	1	8
OTU 109	0	0	0	0	10	0	1	0	0	0	0	0	0	0	0	0	0	0	0	0	0	0	0	0	0	0	0	7	69	0	0	0	0	0	0	56	0	0	0	0	0	0	30	0	0	0	0	0	0	0
OTU 110	45	2	8	21	17	5	29	44	28	92	12	18	206	2	0	0	38	16	41	76	3	15	48	334	28	5	166	44	16	0	62	96	26	0	52	25	43	33	66	30	34	148	3	57	3	23	24	13	74	71
OTU 111	4	0	0	0	0	0	0	0	0	0	6	0	11	0	0	6	0	0	0	0	0	235	0	0	0	0	0	0	0	0	0	6	7	2	0	0	0	28	0	0	0	1	0	0	0	0	3	0	0	0
OTU 112	26	0	8	8	0	6	18	10	2	16	0	13	91	0	2	0	1	0	0	6	7	36	1	4	0	16	3	145	4	13	6	3638	59	16	7	1	10	3	0	8	0	15	11	7	5	30	2	0	2	5
OTU 113	0	0	6	0	0	1	0	5	9	103	0	0	0	0	0	1	2	0	0	0	0	2	0	7	0	5	7	0	3	9	11	1	0	0	0	0	15	54	0	4	2	49	0	0	0	0	9	0	0	0
OTU 114	82	63	12	2	78	5	77	49	29	280	96	126	72	68	19	113	17	13	37	4	232	79	90	37	57	87	213	157	210	70	119	25	314	17	38	4	184	14	62	39	72	54	108	69	75	204	1	9	31	34
OTU 115	73	9	46	96	13	20	103	93	51	97	355	15	18	38	45	224	36	44	33	1	15	8	241	53	36	148	201	53	4	67	69	172	25	75	14	1	154	6	55	37	113	130	18	153	181	87	51	113	2	84
OTU 116	2	3	61	29	114	38	63	1	1	25	153	17	31	12	13	18	112	10	8	44	4	41	22	9	41	56	24	2	137	101	13	211	89	20	123	2	4	265	3	83	2	8	145	31	66	12	18	2	8	0
OTU 117	2	10	2	7	36	2	3	427	4	35	48	17	24	1	11	98	4	0	25	3	22	0	6	142	46	85	27	6	7	9	19	6	0	19	7	23	65	3	15	0	2	18	33	22	74	5	22	63	1	32
OTU 118	0	3	8	15	10	0	0	0	0	0	0	16	1	5	6	0	0	0	0	2	5	3	2	8	1	149	10	11	0	20	0	5	4	10	23	48	0	0	13	0	1	0	0	0	1	0	14	0	8	0
OTU 119	1	2	21	7	28	6	12	29	5	54	3	8	3	1	24	9	105	9	0	18	5	34	6	23	27	39	13	84	38	14	22	33	19	55	26	0	13	170	37	41	23	34	19	55	0	24	2	5	5	5
OTU 120	1	12	20	32	3	10	3	44	3	25	284	16	29	0	174	64	4	2	34	0	29	2	0	6	39	10	2	0	1	57	7	12	56	330	0	0	19	1	16	3	0	0	0	4	18	0	1	6	2	0
OTU 121	3	5	53	21	38	37	0	0	1	31	0	9	2	17	1	2	76	24	21	8	1	0	69	7	13	111	35	9	116	118	10	0	0	0	7	1	26	2	22	1	34	91	3	130	6	14	12	3	23	5
OTU 122	23	0	0	0	1	0	154	11	14	56	63	0	8	3	14	57	46	0	1	5	1	14	114	15	62	33	68	12	34	2	13	10	162	37	41	6	80	1	16	9	17	15	39	207	4	24	1	5	25	4
OTU 123	385	111	73	168	166	42	320	181	46	252	86	119	53	26	110	81	47	66	51	53	437	278	158	140	62	68	311	97	260	59	105	74	169	233	65	117	113	475	639	41	88	105	123	170	264	845	262	453	103	56
OTU 124	0	3	0	0	0	0	0	104	0	52	55	1	0	0	4	0	0	4	0	1	20	2	0	84	0	7	0	0	0	0	4	1	1	6	20	0	71	1	1	2	0	0	0	3	1	54	2	0	3	0
OTU 125	111	53	24	76	34	13	12	157	71	831	50	45	754	68	3	110	649	46	92	52	101	89	67	57	152	57	231	280	181	38	397	6	145	22	99	34	73	83	98	31	12	85	211	94	332	102	182	110	33	67
OTU 126	0	0	0	0	362	0	0	1	1	0	0	0	0	5	0	0	0	0	7	6	1	33	55	0	2	72	39	0	520	0	2	0	0	0	1	0	0	217	0	0	0	87	0	1	0	3	8	0	0	0
OTU 127	22	40	2	9	0	0	6	0	0	18	0	84	89	3	9	19	6	1	2006	36	127	0	5	26	6	7	2	24	0	5	1	8	19	17	36	25	1	39	19	3	2	1	63	7	13	8	2	0	35	6
OTU 128	357	87	248	125	282	134	1254	204	91	408	119	201	70	188	13	234	217	315	79	156	288	83	149	164	164	318	598	411	289	463	687	262	191	23	21	121	230	124	168	839	454	2083	2862	41	518	605	198	73	221	1208
OTU 129	0	0	0	0	8	0	22	0	0	0	0	0	0	30	1	3	27	1	0	0	4	48	18	0	0	0	18	3	1	0	0	45	0	0	0	0	0	0	25	0	0	0	2	0	0	0	0	0	1	0
OTU 130	0	0	3	0	0	1	5	4	0	5	11	0	81	18	0	0	15	18	1	44	1	10	24	56	72	91	74	1	6	7	6	24	34	0	18	11	31	97	5	14	65	3	29	76	100	84	0	5	2	1
OTU 131	0	0	25	11	5	15	18	115	9	51	89	4	80	23	160	6	50	63	23	18	6	32	63	0	8	235	5	2	29	25	23	19	55	337	4	17	131	4	55	3	70	1	12	48	3	9	0	890	13	0
OTU 132	20	1	0	2	2	0	14	117	41	145	2	0	8	0	8	0	20	2	0	1	1	13	19	18	9	38	0	9	1	7	21	16	0	21	0	0	81	3	12	27	0	0	44	5	94	1	33	0	0	0
OTU 133	23	0	8	0	0	6	4	28	0	0	2	0	26	0	1	5	0	2	0	0	0	56	0	0	0	1	10	3	0	20	7	0	31	3	0	10	0	0	0	0	1	2	0	2	0	0	21	0	0	12
OTU 134	87	0	5	50	11	5	0	1	2	25	0	1	0	1	34	0	57	2	6	11	1	65	61	13	28	10	26	30	24	25	2162	118	20	38	0	5	28	6	92	52	0	3	4	91	76	156	1	13	0	65
OTU 135	44	0	44	11	14	23	37	9	3	1	1	3	25	5	10	940	505	52	731	19	0	88	55	33	33	55	200	9	8	87	14	118	69	9	53	6	4	16	1027	43	71	37	63	9	35	120	55	94	0	2
OTU 136	1	5	1	1	20	1	10	39	3	1	96	20	24	0	33	0	23	2	0	2	3	0	0	3	1	25	3	24	4	0	19	17	3	46	48	4	22	4	0	21	9	6	11	2	16	26	7	43	0	13
OTU 137	28	0	2	0	1	1	0	85	2	2	4	0	3	0	0	0	0	0	6	1	0	1503	24	1	10	1	0	1	1	1	0	1	0	0	0	0	0	0	4	16	0	6	0	5	16	0	15	0	1	71
OTU 138	0	0	1	6	2	1	66	1	41	355	0	0	4	6	1	24	0	0	5	0	1	0	1	0	32	42	18	0	0	0	108	2	0	0	10	0	7	2	2	17	3	1	0	5	0	4	277	113	5	0
OTU 139	100	43	6	216	102	3	67	144	13	75	18	84	86	14	18	109	25	18	76	13	120	15	159	17	500	522	42	71	108	26	38	29	178	29	130	24	39	16	4	216	15	180	297	71	60	1	21	50	20	34
OTU 140	89	18	102	68	4	285	23	18	48	113	11	63	135	113	22	7	77	47	13	85	106	157	175	179	19	376	590	100	43	181	1594	250	55	57	27	11	25	94	64	28	177	185	31	868	307	380	224	157	12	42
OTU 141	0	0	0	0	0	0	0	0	8	33	0	0	0	0	0	0	0	0	0	0	0	0	0	0	14	0	0	0	3	0	0	0	0	0	0	0	0	0	0	65	0	0	0	0	0	0	0	0	0	0
OTU 142	0	1	0	0	0	0	0	0	1	0	0	0	0	0	0	0	0	0	1	0	0	0	9	45	0	0	0	0	0	0	0	0	0	0	0	0	0	0	6	31	0	0	42	34	0	12	0	0	0	16
OTU 143	0	6	0	0	4	0	5	0	0	0	14	0	10	1	0	0	23	4	1	0	3	0	17	0	7	1	1	0	2	2	7	0	11	0	4	0	1	0	17	3	3	2	3	39	0	2	0	0	1	1
OTU 144	0	0	0	0	67	0	31	0	7	7	2	1	18	0	0	3	0	0	0	5	0	2	0	0	2	0	6	0	84	0	0	1	0	0	2	0	0	0	49	1	0	0	29	0	0	15	0	0	0	1
OTU 145	26	7	2	12	30	3	76	37	4	28	0	11	55	3	27	11	33	3	59	1137	19	95	13	93	39	139	24	19	53	0	6	4	77	31	54	903	49	1	18	18	9	109	6	56	108	11	18	133	1963	2
OTU 146	3	11	5	32	1	0	14	16	17	0	1	10	96	28	4	5	48	35	5	33	27	42	109	6	160	79	128	4	1	20	0	89	84	11	12	19	72	121	3	2	58	33	0	141	0	1	15	8	30	4
OTU 147	4	69	0	19	0	0	4	44	15	3	31	93	59	2	0	3	25	3	75	13	122	2	0	19	13	31	3	0	6	0	1	116	0	1	8	19	12	25	6	1	3	0	9	12	5	0	8	13	0	7
OTU 148	18	88	26	0	8	17	52	25	2	78	54	132	48	19	6	33	15	8	8	7	125	245	0	227	132	4	29	0	53	20	2	12	351	18	1	7	26	54	60	16	17	11	83	13	20	83	4	124	17	25
OTU 149	0	8	6	50	2	6	51	20	5	0	9	11	493	2	3	2	30	0	9	12	77	12	1	0	43	0	3	7	0	8	0	25	2	2	22	2	10	0	2	1	0	2	13	0	6	0	9	1	0	0
OTU 150	1	13	0	17	3	0	0	0	9	1	2	6	0	6	0	0	3	10	4	0	8	0	64	0	4	213	0	40	4	1	7	0	0	3	7	3	0	1	116	0	34	0	2	34	34	23	2	142	10	5
OTU 151	5	0	3	21	1029	0	1	20	0	14	2	3	51	1	6	13	4	2	17	0	1	0	9	1	114	0	3	10	1963	7	1	54	27	25	12	20	1	0	3	27	17	61	103	35	0	3	2	2	1	8
OTU 152	0	49	4	3	21	3	44	76	14	48	110	81	8	3333	5	6	5	26	25	61	260	0	20	4	261	165	28	94	37	13	63	11	2	13	38	16	0	256	1	14	33	43	0	112	111	41	8	3	30	2
OTU 153	0	0	0	0	0	0	0	0	0	0	19	19	0	0	0	0	0	0	0	3	7	0	0	0	8	0	0	0	1	0	1	0	0	0	0	0	0	0	0	0	0	0	0	0	0	0	0	2	0	0
OTU 154	0	0	14	0	0	14	5	0	0	11	6	1	0	0	0	0	1	0	14	3	7	0	0	260	0	0	23	0	0	0	19	0	11	0	0	29	0	0	0	0	0	0	8	0	0	7	0	4	56	0
OTU 155	0	8	6	0	0	7	0	0	1	23	0	12	25	5	1	5	1572	1	3	4	0	2	1	32	62	0	0	4	1	6	0	0	0	0	1	4	3	0	3	3	24	0	1	14	6	0	1	0	16	38
OTU 156	3	19	10	31	10	9	56	399	37	111	38	36	211	2	7	41	71	6	46	68	65	35	19	276	36	147	72	92	99	29	35	7	10	0	16	50	139	35	13	6	27	2	49	6	87	59	7	0	7	7
OTU 157	0	6	21	214	20	12	0	86	17	20	50	0	24	6	0	0	13	1	148	53	0	19	44	0	0	139	16	7	0	10	0	43	79	0	19	0	103	0	32	0	0	0	0	2	1	0	15	0	3	0
OTU 158	0	0	0	0	0	0	1	0	1	0	10	0	34	0	0	0	36	0	0	0	0	8	0	0	0	0	0	0	0	0	0	0	0	0	0	0	0	0	0	0	0	1	4	0	0	21	0	5	0	0
OTU 159	0	28	0	5	2	0	3	104	0	25	34	22	63	0	7	38	43	1	11	38	11	1	13	15	16	201	0	7	18	10	3	0	77	21	14	0	565	49	51	0	0	22	38	16	36	86	26	1109	15	4
OTU 160	130	14	30	66	113	10	60	109	21	80	107	32	209	2	23	257	175	10	267	30	214	35	155	154	52	142	217	53	53	61	53	171	72	43	22	58	291	66	30	2	4	17	45	150	91	70	92	204	85	18
OTU 161	2	3	41	15	16	12	8	31	35	0	15	3	20	24	15	21	50	13	6	18	20	46	25	17	0	6	71	0	4	61	63	49	39	49	15	6	5	7	28	8	35	44	15	59	36	26	0	173	0	85
OTU 162	33	3	7	81	11	4	132	320	43	17	192	11	108	40	25	12	6	4	18	8	25	29	50	15	65	186	100	83	2	13	13	46	3	51	10	23	0	9	4	50	9	34	11	0	3	6	43	71	1	19
OTU 163	0	0	0	0	2654	0	0	0	0	0	0	0	21	0	0	0	0	0	0	0	0	0	10	0	0	0	0	0	0	0	0	0	0	0	0	0	0	8	0	51	0	0	6	6	0	0	0	0	0	0
OTU 164	1	0	0	0	0	0	0	0	4	0	0	0	0	0	1	162	0	0	0	0	1	0	5	0	60	0	3	0	0	0	0	0	5	0	0	0	0	1	0	0	0	17	1	0	0	2	0	0	3	0
OTU 165	0	14	0	15	10	0	0	80	18	144	21	94	0	5	12	1	90	5	6	9	126	11	3	3	9	18	23	0	2	0	37	4	55	1	2	1	37	59	42	30	3	1	0	18	0	50	10	15	1	0
OTU 166	409	0	0	0	2	0	0	20	0	0	0	0	0	0	2	0	0	0	0	0	0	0	0	0	0	0	1	0	0	0	0	0	0	0	0	0	0	0	0	0	0	0	0	0	0	0	0	0	0	0
OTU 167	28	14	0	11	0	0	13	35	3279	12	1	16	26	1	4	60	1	1	0	8	0	0	49	2	0	1	66	9	4	0	0	20	3	4	40	0	2	6	8	33	0	0	3	6	1	12	94	1	4	0
OTU 168	210	8	52	1	12	21	42	2	10	14	0	2	13	0	3	24	0	1	64	65	12	0	3	100	0	81	3	6	17	5	3	2	0	0	63	4	82	7	0	4	0	1	7	14	43	2	17	11	127	0
OTU 169	0	22	0	0	0	0	3	65	0	0	0	52	0	0	0	0	0	0	0	0	43	0	0	2	0	4	0	0	0	0	0	0	0	0	5	0	0	0	0	0	0	0	14	0	1	0	0	0	0	0
OTU 170	0	0	0	1	30	0	13	0	0	0	8	0	0	0	0	0	6	0	11	0	0	0	0	0	0	7	0	8	60	0	0	12	16	0	0	0	0	0	0	0	0	0	90	0	0	0	0	0	0	0
OTU 171	33	4	12	2	8	6	7	0	0	29	1	25	16	1	3	48	0	24	179	24	49	1	26	285	0	11	9	13	58	34	7	13	27	13	9	15	44	14	0	0	4	57	29	22	3	29	23	21	3	56
OTU 172	0	1	1	0	0	2	0	0	0	1	26	0	0	12	1	0	5	5	0	19	16	2	70	20	0	0	168	1	0	0	0	100	4	15	6	7	2	0	0	1	3	0	1	0	1	3	0	0	53	0
OTU 173	0	0	1	2	0	0	4	3	0	0	0	0	19	1	1	5	56	0	0	0	0	9	0	10	1	10	0	24	0	0	0	0	0	1	29	6	147	1	1	4	0	0	7	0	0	0	0	49	0	0
OTU 174	0	22	2	107	0	0	0	21	0	31	16	72	0	5	0	10	5	0	3	232	166	3	47	113	237	1	6	39	0	0	1	44	40	2	0	249	37	7	0	66	1	0	0	34	105	1	1	466	322	0
OTU 175	53	3	0	75	0	0	11	0	0	2	98	2	25	0	0	0	1	21	5	6	2	48	0	6	0	20	0	0	23	1	23	23	51	2	82	5	0	0	22	6	2	1	24	37	0	16	3	27	1	15
OTU 176	3	20	17	15	3	7	53	7	40	92	14	30	17	36	36	149	217	76	31	0	131	9	29	13	188	63	89	123	6	39	32	33	82	77	3	20	55	113	60	53	72	1	4	48	26	10	4	93	32	5
OTU 177	66	28	0	9	80	0	74	26	9	43	56	81	56	18	32	15	16	5	2	31	89	5	38	44	29	24	76	5	58	9	3	8	14	44	12	69	22	65	29	2	26	2	46	42	25	8	13	32	29	29
OTU 178	6	16	13	55	0	6	21	4	2	0	11	11	35	0	4	9	85	6	0	0	1	7	0	39	59	57	0	3	26	43	4	0	0	14	19	0	5	18	0	776	0	1	22	95	19	0	40	0	1	1
OTU 179	0	1	1	3	0	0	0	62	1	0	2	0	31	1	2	100	20	0	33	0	0	69	0	1	4	16	2	13	0	1	0	9	3	6	14	0	4	3	23	2	0	28	3	39	2	39	13	79	0	1
OTU 180	41	66	29	119	329	24	57	64	18	73	88	84	50	52	59	118	97	37	35	24	94	89	33	15	72	229	100	319	468	96	52	23	86	109	46	23	83	27	120	201	65	434	20	83	88	31	286	98	93	73
OTU 181	2	81	6	11	46	0	11	518	28	111	4	141	6	1	0	9	42	29	3	2	87	45	10	9	106	30	9	3	32	18	78	32	15	4	44	1	64	2	2	2	14	38	5	103	95	9	11	4	0	13
OTU 182	0	0	0	1	0	0	0	0	0	0	0	0	0	0	0	0	0	0	0	0	5	0	0	0	0	0	0	0	0	0	0	0	1	0	14	0	0	0	0	0	1	0	10	0	0	0	0	0	0	0
OTU 183	0	42	14	149	1	3	0	57	42	174	8	126	41	25	1	12	5	41	119	2	267	371	31	29	35	0	50	53	0	18	116	117	130	9	20	17	9	23	1	0	30	19	6	7	6	41	2	153	17	5
OTU 184	2	0	1	9	23	0	65	1	13	0	19	5	1	13	0	20	33	13	0	0	2	32	9	74	10	0	15	7	11	13	47	0	5	6	23	0	75	6	0	29	0	13	100	6	16	2	1	75	1	27
OTU 185	43	60	12	54	0	4	9	31	49	74	172	40	13	939	13	80	0	885	617	21	139	4	19	11	159	90	20	11	9	22	43	11	127	24	9	6	59	74	6	94	1784	3	2	153	50	71	0	53	43	55
OTU 186	6	0	0	4	0	0	105	46	1	0	0	5	0	0	0	2497	7	2	0	0	34	0	20	23	0	4	0	82	0	0	0	0	5	1	0	9	0	0	42	0	0	1	49	0	0	15	0	0	0	3
OTU 187	39	44	55	18	53	32	298	217	7	51	48	44	87	10	1	22	18	9	38	30	90	82	33	2	134	4	24	74	30	94	11	12	59	2	28	13	73	54	41	108	5	45	45	161	146	67	273	16	9	217
OTU 188	67	26	26	42	24	9	15	9	6	4	174	32	32	44	0	242	5	42	17	80	31	8	77	107	55	22	99	133	40	28	22	89	18	0	41	16	104	116	9	58	37	50	29	9	18	29	19	45	89	4243
OTU 189	5	16	4	102	1	1	30	105	29	94	600	18	9	67	1	136	47	49	48	4	64	1029	27	37	33	1	7	78	53	5	73	30	37	8	20	16	94	61	42	62	66	16	2	26	25	40	38	15	6	25
OTU 190	0	0	27	0	5	10	6	0	4	0	29	5	677	0	0	10	0	0	78	467	2	0	0	0	0	0	0	6	81	72	0	0	0	0	2	464	0	7	6	0	0	0	42	69	19	0	1	80	1099	6
OTU 191	73	35	1	71	3	0	133	150	19	60	4	24	13	17	14	42	53	9	6	3	72	88	23	45	22	2	39	80	41	3	0	24	4	39	10	11	156	21	1	46	29	53	86	17	270	22	519	7	7	2
OTU 192	7	86	62	1221	48	24	224	232	2	11	9	189	57	11	27	648	3	8	634	0	104	73	183	2	23	52	114	10	80	92	0	90	8	63	17	7	18	32	106	16	1	117	39	273	29	224	30	46	23	2
OTU 193	7	4	8	43	6	6	23	306	1	40	79	2	0	9	3	31	113	6	5	52	0	0	23	147	126	0	89	222	31	4	7	23	54	7	1	19	41	42	37	14	6	0	12	22	5	25	0	0	43	2
OTU 194	12	6	1	6	6	1	7	11	3	4	1	2	38	9	2	2	6	0	15	0	0	17	1	0	74	0	4	16	4	0	5	24	32	11	0	4	3	7	0	2	0	2	0	1	0	21	1	0	5	0
OTU 195	13	22	1	14	106	1	8	56	10	2	21	22	68	0	1	32	22	18	4	2	30	2	4	52	46	40	19	78	47	0	8	73	148	7	1	3	42	9	3	4	25	0	0	0	125	68	150	28	5	16
OTU 196	49	3	5	20	5	2	46	0	0	14	12	10	77	4	0	0	26	3	42	6	16	56	253	1	68	24	8	54	0	4	0	28	43	0	18	79	23	61	22	0	0	7	55	9	27	10	1	105	40	6
OTU 197	663	21	133	11	22	69	8	147	168	180	24	43	153	36	29	1	41	29	0	15	129	75	108	172	191	112	91	13	170	150	169	127	52	59	305	18	58	93	50	1	60	62	9	192	180	15	99	1	82	9
OTU 198	65	0	0	0	83	0	1	0	0	0	0	1	0	1	0	3	0	1	5	2	0	0	18	1	97	74	2	0	73	0	0	1	0	1	0	0	0	0	0	0	4	5	43	0	0	0	12	0	0	37
OTU 199	0	3	3	2772	6	0	17	58	9	36	12	15	15	0	0	0	8	18	43	38	104	1	27	1	142	0	1	44	16	20	3	1	0	14	0	69	36	0	0	0	13	1	4	4	0	1	92	0	0	4
OTU 200	26	35	16	4	38	8	88	208	0	20	20	59	8	12	3	10	98	5	204	4	50	67	2	5	59	11	3	22	39	6	74	42	13	31	32	24	34	6	7	28	1	5	28	10	42	44	2	12	0	42
