	Host 1	Host 2	Host 3	Host 4	Host 5	Host 6	Host 7	Host 8	Host 9	Host 10	Host 11	Host 12	Host 13	Host 14	Host 15	Host 16	Host 17	Host 18	Host 19	Host 20	Host 21	Host 22	Host 23	Host 24	Host 25	Host 26	Host 27	Host 28	Host 29	Host 30	Host 31	Host 32	Host 33	Host 34	Host 35	Host 36	Host 37	Host 38	Host 39	Host 40	Host 41	Host 42	Host 43	Host 44	Host 45	Host 46	Host 47	Host 48	Host 49	Host 50	
OTU 1	10	73	0	1	21	14	3	20	142	18	75	10	9	50	2	4	93	33	327	25	103	24	145	71	125	0	13	39	58	49	225	46	199	5	45	146	128	47	33	10	28	108	128	55	0	7	62	35	0	28
OTU 2	0	9	1	1	0	0	0	0	25	2	0	11	7	14	0	1	13	5	7	6	5	10	16	15	0	83	4	21	1	25	32	51	0	0	6	0	29	0	52	0	29	0	8	0	72	0	0	19	17	0
OTU 3	71	1	143	2010	4	11	137	35	4	1	3	46	1	1	9	0	2	190	71	0	1	11	1	19	0	101	0	1	18	2	0	8	0	4	0	41	43	5	11	24	0	0	0	0	0	0	0	10	4	44
OTU 4	0	0	0	0	0	0	0	0	0	0	35	0	0	0	0	0	0	0	0	0	0	0	0	1	0	0	0	0	0	0	0	0	0	0	0	0	1	28	0	0	0	0	0	0	0	0	0	0	0	0
OTU 5	109	57	284	477	1147	159	1380	217	97	1776	100	149	305	287	599	960	1238	267	138	748	1	559	201	315	71	810	155	276	538	451	73	336	467	75	558	773	601	197	135	312	81	169	133	333	947	286	224	729	39	32
OTU 6	101	1	0	50	24	24	117	67	11	21	21	1	9	8	8	74	24	0	28	20	3	33	17	30	4	14	0	0	3	0	25	71	28	8	28	26	52	1	30	66	107	59	0	7	63	13	628	36	4	72
OTU 7	31	83	113	38	111	53	42	8	72	64	90	63	345	16	127	64	22	5	94	80	92	87	37	24	137	72	69	92	89	103	57	42	23	24	102	6	41	17	33	18	216	390	43	84	16	51	78	372	121	152
OTU 8	12	57	212	253	57	78	69	93	22	13	62	11	134	12	248	32	109	57	307	24	13	75	36	52	13	267	41	108	31	67	68	107	29	93	159	221	101	19	12	100	20	26	22	87	206	32	36	45	39	31
OTU 9	8	30	26	3	13	1	59	0	2	0	0	1	29	0	0	1	5	42	2	2	15	2	2	2	0	33	0	6	3	3	2	0	2	68	1	5	2	1	71	37	18	14	0	0	45	3	40	1	0	0
OTU 10	1	4	0	1	9	0	1	1	0	0	1	13	0	1	13	1	3	28	2	0	127	15	14	1	17	7	41	23	0	59	1	1	75	1	26	9	3	5	195	4	0	13	2	0	25	11	15	4	1	0
OTU 11	12	58	4	19	6	3	53	6	71	16	12	99	0	40	147	57	88	53	58	1	23	168	29	9	21	10	1	27	17	9	100	1	19	7	6	4	21	33	4	810	117	5	11	17	60	111	49	35	109	0
OTU 12	136	14	9	0	2	18	132	34	5	17	33	62	4	0	117	21	54	6	2	3	172	16	4	20	4	5	22	45	19	13	9	131	141	8	80	1	52	24	4	18	43	96	32	44	88	2	38	24	76	92
OTU 13	0	0	0	0	0	0	0	0	0	0	0	0	0	1	0	0	0	4	7	4	0	0	0	0	0	33	0	0	0	0	0	0	47	0	0	24	0	0	0	0	3	0	0	4	0	0	0	0	10	0
OTU 14	0	0	17	0	5	40	23	35	2	17	14	159	0	2	4	113	0	132	9	0	7	40	2	0	0	9	0	0	0	1	12	1	1	0	1	1	1	1	3	3	6	22	0	2	0	35	90	28	8	0
OTU 15	0	14	0	15	0	29	0	0	0	0	0	0	0	0	0	0	0	0	0	0	0	1	0	11	4	0	4	0	9	1	0	13	0	0	0	0	12	0	0	0	0	0	0	8	0	0	30	0	0	0
OTU 16	0	0	1	0	0	0	0	0	0	0	0	0	0	0	0	1	0	0	0	0	1	0	0	0	0	0	0	0	0	0	0	45	0	0	0	0	0	0	0	0	0	1	0	1	0	0	0	0	0	0
OTU 17	13	10	3	23	1	13	109	8	15	29	16	0	0	3	22	26	4	48	10	29	0	28	29	24	5	39	6	0	2	0	66	58	220	0	1	1	36	5	105	3	21	2	23	3	4	19	20	0	3	0
OTU 18	0	16	29	40	36	18	77	7	76	302	3	1	35	42	157	16	13	8	159	40	40	5	153	8	42	30	27	5	73	0	312	17	1	119	4	62	28	1	30	14	6	34	95	16	21	12	143	48	89	12
OTU 19	0	0	0	0	0	0	0	0	0	0	0	0	0	0	0	0	0	0	0	0	0	0	0	0	0	0	0	0	0	0	0	0	0	0	0	0	0	0	0	0	0	0	0	0	0	0	0	0	0	0
OTU 20	37	15	75	43	50	6	63	13	23	38	27	35	36	10	40	29	1	48	0	70	18	98	34	18	132	53	8	14	39	54	57	2	102	35	37	10	25	5	25	39	51	377	36	12	8	37	13	30	5	12
OTU 21	34	1	43	24	37	25	28	272	16	9	44	11	109	3	2	0	0	90	25	9	36	0	8	15	40	151	3	26	2	17	6	0	0	17	32	31	33	11	4	9	86	30	33	2	59	1	47	68	21	11
OTU 22	56	90	7	35	5	55	10	58	18	0	473	32	39	1	40	7	3	94	0	0	23	6	10	20	8	3	16	5	1519	66	33	77	38	33	10	1	37	184	14	0	730	1	18	3	1	12	28	0	0	3
OTU 23	19	0	0	1	28	0	199	0	0	11	51	1	37	1	38	4	80	10	17	0	10	0	0	3	136	8	59	9	0	7	1	174	22	28	18	0	7	10	2	0	9	68	53	10	7	7	118	189	0	15
OTU 24	26	0	24	0	0	11	0	0	0	9	9	129	26	0	2	1	4	3	43	0	822	0	0	10	0	0	9	19	5	69	0	8	0	2	0	0	22	4	30	49	0	142	32	0	2	5	7	3	2	4
OTU 25	0	0	0	0	0	0	0	0	0	0	0	0	0	0	0	0	0	0	0	0	0	0	0	0	0	6	0	0	0	0	0	0	22	0	0	0	0	0	2	0	0	0	0	0	0	0	0	0	0	0
OTU 26	1	0	1	0	0	0	0	0	0	2	0	0	21	0	1	1	0	1	0	0	0	16	0	0	0	0	0	38	36	0	0	4	0	0	0	0	1	7	1	12	0	10	0	5	0	14	12	63	0	0
OTU 27	0	0	0	0	0	0	0	0	0	0	0	0	7	0	0	8	0	0	12	0	0	2	0	2	0	0	0	0	41	0	0	0	0	0	0	28	5	0	0	0	18	0	4	0	0	3	0	0	0	0
OTU 28	13	16	72	61	5	29	1	38	52	6	8	17	1	44	5	35	25	13	68	99	60	85	60	43	67	94	46	50	152	4	167	95	64	38	57	80	71	14	241	28	122	4	33	38	35	24	93	14	318	46
OTU 29	55	17	33	34	2	194	21	78	76	24	65	30	6	53	31	48	6	184	2	78	115	30	44	25	48	2	46	19	21	271	98	1	33	51	173	4	47	3	22	17	51	185	144	54	13	43	105	24	2	71
OTU 30	0	0	0	0	0	0	0	0	0	0	0	0	0	0	0	0	0	0	0	0	1	0	0	0	0	0	0	0	0	0	0	0	0	0	0	0	0	0	0	0	0	0	0	0	0	0	0	0	0	0
OTU 31	87	24	3	7	0	0	23	13	41	0	29	4	0	13	18	0	0	1	0	0	171	0	49	1	84	3	9	38	6	22	118	143	12	0	0	2	3	11	0	2	66	189	4	0	9	5	1	4	43	19
OTU 32	7	27	7	73	10	169	153	60	24	89	10	31	2	20	54	4	1468	14	85	60	108	41	29	51	102	42	59	48	434	58	36	131	89	22	57	35	102	3	1672	23	56	263	48	49	51	25	93	8	247	142
OTU 33	206	4	0	25	0	0	4	0	0	13	2	0	0	0	3	0	0	0	1	0	0	0	0	0	0	0	6	0	0	0	0	7	0	0	0	0	0	4	0	0	0	0	1	0	0	0	0	50	9	107
OTU 34	15	2	0	317	597	28	63	125	17	17	20	7	2	18	31	7	11	14	113	1	51	61	10	1351	7	252	2	7	36	13	39	5	35	53	4	66	2713	15	178	66	18	4	152	0	56	4	7	81	38	1
OTU 35	43	353	21	2	30	57	3	64	5	117	13	891	3	10	0	34	26	1	26	19	3116	39	5	0	0	31	37	142	16	346	0	26	8	866	88	13	2	1	58	66	21	2	1617	22	1	23	46	20	1	9
OTU 36	0	25	31	745	0	46	10	210	15	1	0	1	0	11	27	30	12	0	43	5	164	0	30	35	5	32	12	6	11	2	69	21	94	4	19	19	89	2	13	3	4	13	100	33	78	4	72	12	1	17
OTU 37	7	11	0	7	9	0	0	0	0	0	3	1	5	0	0	0	1	0	0	0	14	0	0	0	0	53	4	0	25	0	0	0	0	0	0	0	0	16	0	0	88	0	3	11	9	1	13	3	21	0
OTU 38	47	7	77	13	5	29	156	10	4	8	12	52	3	12	22	1176	13	11	7	0	2	82	5	0	59	0	10	4	516	34	5	133	52	4	1	5	0	0	484	23	68	23	4	828	43	11	0	12	56	32
OTU 39	0	1	0	6	0	0	0	0	61	9	13	0	4	22	0	4	0	5	0	11	0	38	44	0	39	2	0	67	1	45	86	0	10	0	2	1	0	3	0	6	11	61	1	35	0	18	0	1	0	0
OTU 40	4	35	2	0	31	43	21	11	6	1	1225	117	12	4	28	124	137	15	8	42	33	502	20	7	79	43	39	188	8	17	19	12	43	9	12	5	11	753	12	64	238	19	11	44	3	220	0	47	28	13
OTU 41	4	75	139	1	6	20	55	0	5	11	1	74	37	0	143	20	2	7	51	4	16	31	1	5	21	151	1	30	11	12	1	4	34	6	1	13	1	0	31	26	0	2	1	4	18	10	37	24	80	0
OTU 42	1	0	0	2	0	0	0	2	59	18	0	0	0	23	54	28	0	0	0	0	16	25	92	15	1	1	0	0	0	0	187	5	3	0	0	0	46	0	7	0	2	0	0	6	0	58	0	0	0	1
OTU 43	0	0	0	0	0	0	0	0	0	0	0	0	2821	0	0	0	0	0	1	0	0	0	0	0	0	0	0	0	0	0	0	5	0	0	0	0	0	0	0	0	0	0	0	0	0	0	0	0	0	0
OTU 44	0	0	1	0	0	29	30	0	2	0	0	0	0	0	47	0	0	3	0	1	0	0	0	0	2	0	0	0	2	0	0	0	62	0	3	2	0	0	0	0	0	6	0	0	8	1	0	0	0	0
OTU 45	142	49	38	85	55	7	0	48	47	0	25	101	12	24	10	0	0	4	25	12	0	47	30	9	25	6	146	0	40	2	92	193	28	8	32	14	15	10	24	21	45	165	7	1	88	501	76	9	172	262
OTU 46	65	165	22	3	10	104	0	8	20	14	65	18	62	11	32	17	4	149	48	180	81	40	3	34	52	78	76	5	43	12	5	55	174	22	23	9	59	5	0	33	3	0	6	1	65	57	183	121	21	8
OTU 47	22	8	4	4	0	15	0	0	7	0	0	7	0	6	83	0	2	4	0	0	0	0	0	0	1	5	6	5	39	0	6	0	0	0	0	8	0	0	0	0	27	0	0	0	0	0	12	29	2	0
OTU 48	17	21	139	22	52	0	84	42	40	0	93	46	19	18	17	64	3	124	73	20	27	10	12	0	78	29	58	36	12	21	34	17	5	6	1501	1145	3	24	12	16	42	35	3	965	5	16	60	6	138	55
OTU 49	6	0	5	1	5	0	9	30	0	21	12	12	18	0	0	2	0	60	14	66	1	2	0	20	19	6	15	39	0	0	0	6	0	0	1	3	43	4	28	74	36	1	1	1	11	8	0	10	0	64
OTU 50	59	9	48	3	26	5	1191	6	73	74	24	12	23	41	112	140	96	0	23	202	51	303	178	27	24	74	78	30	70	46	251	98	167	187	127	6	43	10	80	197	115	68	30	110	165	123	82	138	71	36
OTU 51	5	176	22	53	12	16	173	69	16	16	39	229	2	5	0	8	1	2	51	40	2	0	13	122	59	2	104	26	4	51	16	37	184	314	13	3	262	5	60	26	35	2	969	2	4	5	1	4	22	0
OTU 52	49	7	51	60	0	41	133	172	46	57	45	166	11	34	33	35	70	90	52	177	31	69	105	13	486	165	173	80	251	6	74	29	53	19	7	30	32	23	349	26	5	387	59	3	170	66	292	35	24	48
OTU 53	0	0	0	0	9	0	0	0	0	0	0	0	0	0	0	0	0	0	0	3	0	0	1	0	0	13	0	0	0	1	0	0	0	0	0	0	0	0	0	0	0	0	0	0	0	0	0	0	0	0
OTU 54	8	156	41	9	58	503	88	40	60	7	28	407	66	48	57	9	249	67	127	47	66	72	77	23	163	5	154	134	142	86	150	192	22	107	67	82	53	10	87	23	190	29	349	6	704	30	27	209	90	63
OTU 55	0	0	0	0	0	0	0	0	0	0	3	0	0	0	0	0	0	0	0	0	0	0	0	0	0	0	0	0	0	0	0	0	0	1	0	0	0	0	0	0	0	0	17	0	0	0	0	1	0	0
OTU 56	51	126	0	14	120	16	156	0	0	0	88	2	1	0	8	2002	4	10	124	1	2	8	0	6	12	15	2	109	2	41	0	1	15	24	0	1526	19	49	0	1	192	14	28	775	2	3	1	0	46	46
OTU 57	11	47	213	73	19	3480	63	58	35	107	62	50	55	17	37	65	449	55	161	126	98	161	6	13	67	227	109	107	115	130	24	77	74	11	77	82	36	44	171	726	62	65	29	110	84	79	68	54	5	26
OTU 58	11	0	45	3	3	5	0	6	875	86	20	3	483	428	77	11	1	8	4	951	14	82	774	3	0	1	2	8	1	84	1721	31	52	26	13	2	15	22	44	360	211	21	26	7	27	11	97	975	0	0
OTU 59	0	0	1	0	7	60	391	0	6	124	5	0	0	1	17	1	18	4	8	35	0	31	8	4	111	40	2	3	9	41	54	0	20	0	9	7	4	0	19	26	56	3	24	0	2	10	61	0	1	4
OTU 60	204	21	31	72	10	90	153	125	36	66	35	2	123	25	97	3	5	3	29	13	121	1	30	12	3	5	910	25	45	204	33	446	49	36	66	37	39	13	7	24	77	68	26	24	30	16	268	248	92	99
OTU 61	52	11	36	10	2	5	50	487	46	67	33	105	59	8	104	3	6	24	230	114	8	22	39	96	66	8	5	40	101	23	59	16	100	2	45	135	176	4	9	6	32	105	13	8	9	19	23	148	27	20
OTU 62	0	71	318	0	5	21	87	0	0	0	0	16	4	0	0	2	0	405	0	1	8	0	4	7	0	110	6	3	0	7	3	8	50	0	34	0	10	0	38	2	22	9	12	0	5	1	89	1	17	0
OTU 63	2	1	1242	2	0	1	39	0	8	6	0	6	0	2	3	10	53	0	3	2	2	16	25	0	7	150	169	0	30	0	54	18	0	13	2	1	0	0	2	1	9	1	16	0	1	6	1	8	0	0
OTU 64	770	84	201	328	189	38	54	152	96	84	25	72	163	36	135	106	17	46	1029	28	114	24	43	453	66	45	79	29	82	108	133	460	299	3	157	631	929	22	112	1	74	174	41	628	27	30	60	730	261	480
OTU 65	0	0	0	0	0	0	2	0	1	0	0	0	0	1	0	0	0	0	0	0	0	0	1	11	0	0	0	0	0	0	0	0	0	0	0	0	13	0	0	0	0	0	1	0	0	2	0	0	0	0
OTU 66	1	96	4	16	31	5	60	7	55	99	70	40	22	41	99	21	11	17	19	45	2	28	67	15	2	11	124	13	74	913	91	234	352	0	24	9	39	35	21	1	180	5	23	1	4	9	22	39	29	14
OTU 67	12	3	2	8	1	4	81	15	3	24	23	52	26	5	105	3	8	28	25	0	87	1	10	5	6	1	31	0	0	64	26	65	8	3	40	9	6	8	1	36	21	33	0	31	3	19	37	24	1	594
OTU 68	34	2	3	5	7	5	0	46	2	17	1	13	1	0	28	51	1	16	193	0	0	309	7	2	0	1	21	0	3	1	0	75	0	2	0	79	7	3	7	0	0	0	0	117	76	190	21	5	63	37
OTU 69	0	51	217	9	10	2	112	71	35	0	0	61	3	13	7	9	52	40	176	16	7	48	17	27	278	1	16	0	4	3	31	30	17	19	7	86	48	0	17	43	41	312	46	4	40	25	36	35	15	29
OTU 70	4	31	0	0	11	0	0	35	122	0	0	1	2	64	44	0	38	0	28	0	0	2	143	2	6	0	0	14	17	4	331	30	2	0	7	19	4	2	247	98	17	0	55	0	6	0	1	5	7	5
OTU 71	0	6	57	0	1	3	75	1	1	0	485	2	3	0	5	1	0	18	0	7	31	3	1	253	8	0	0	13	5	0	18	2	9	45	46	0	0	200	0	1	0	0	65	0	20	0	11	11	2	1
OTU 72	32	16	35	42	3	95	16	460	2	16	112	13	18	5	19	3	5	2	55	7	4	42	2	11	35	29	6	8	9	32	4	26	42	957	4	34	17	27	125	14	111	82	18	30	10	34	0	15	40	99
OTU 73	92	23	183	0	10	6	43	168	15	1	5	9	1	3	0	1	4	8	67	44	0	7	14	61	11	9	144	6	24	11	37	4	2	4	2	104	124	0	0	7	9	91	9	1	11	8	59	11	27	13
OTU 74	8	18	38	0	17	16	3	173	9	6	1494	52	21	0	42	50	35	18	175	13	70	150	13	16	38	3	46	30	53	7	14	39	169	20	2	64	31	658	20	51	78	55	30	8	1	78	1	13	36	27
OTU 75	24	38	14	11	0	17	19	64	87	27	26	30	112	516	28	2	25	33	72	43	1	58	105	44	36	21	18	31	66	14	189	50	31	65	20	12	82	13	137	1	38	322	92	24	8	88	13	91	6	8
OTU 76	0	0	38	0	1	8	7	0	0	0	5	5	2	0	0	268	3	40	0	22	0	691	2	33	0	0	3	0	8	0	0	3	0	11	0	0	69	0	39	0	1	0	1	246	16	401	0	0	26	10
OTU 77	44	34	113	7	16	1	13	24	9	0	9	11	57	2	35	2	41	197	6	25	88	2	29	16	90	34	156	76	22	8	32	0	48	2	1	1	28	22	18	52	5	19	2	16	7	0	54	69	146	8
OTU 78	33	8	1	0	46	5	0	88	1	12	2	1	4	1	100	10	1	0	37	80	2	10	7	26	34	11	1	4	10	0	1	7	14	1	8	7	57	3	34	5	34	85	4	0	38	4	1	79	60	6
OTU 79	93	117	11	45	101	52	84	1163	24	1423	98	169	1398	7	341	41	32	60	81	485	84	137	13	30	2182	200	117	86	33	531	55	87	274	203	29	49	71	2006	96	44	163	94	153	77	110	139	121	135	241	57
OTU 80	16	44	7	7	0	25	121	3	15	7	151	47	50	267	58	73	57	98	121	7	18	48	3	30	31	22	43	1095	32	23	5	12	12	22	33	67	60	86	225	30	229	31	10	23	27	16	23	10	10	39
OTU 81	37	31	259	13	1	72	24	260	51	43	53	10	95	24	7	10	9	213	223	35	18	30	27	51	26	68	86	346	1	7	51	19	22	66	29	200	99	1	13	4	77	69	68	2	3	8	105	81	10	15
OTU 82	6	35	1	10	5	1	6	87	12	0	0	0	25	0	53	3	9	5	0	11	4	67	15	6	121	0	12	15	7	4	10	5	51	8	5	0	13	4	1	14	3	49	10	50	35	86	69	36	32	14
OTU 83	0	1	0	1	1	0	1	1	9	9	0	0	0	8	0	1	1	0	0	0	0	1	11	0	3	0	139	19	20	15	23	0	13	6	0	0	0	0	2	3	0	1	0	0	14	4	26	0	0	0
OTU 84	4	4	27	9	0	10	25	36	102	24	1	14	5	32	0	5	5	50	29	0	6	0	54	4	6	6	21	7	9	3	171	13	32	43	15	24	4	2	0	2	1	1	2	4	84	13	113	23	1	36
OTU 85	19	0	3	0	0	9	6	3	0	5	0	4	4	0	1	0	1	0	0	1	1	21	0	0	81	25	0	31	0	0	0	10	1	6	55	6	0	0	0	0	56	1	9	0	21	7	0	6	1	0
OTU 86	0	0	156	0	0	0	0	0	0	0	0	7	0	0	25	0	0	81	2	1	0	0	0	0	0	1	0	4	0	0	0	0	0	0	0	0	0	1	0	0	0	0	0	0	0	0	0	17	1	27
OTU 87	22	0	0	0	0	21	1	2	11	16	1	105	0	3	6	0	49	738	2	47	51	0	27	2	11	15	10	0	0	2	57	0	0	0	17	0	4	0	1	7	22	55	0	0	4	4	0	0	0	0
OTU 88	31	54	4	0	3	10	0	0	0	0	63	0	0	0	0	0	0	0	0	0	0	0	0	4	0	323	0	0	0	13	0	0	0	9	0	0	5	11	5	0	145	0	0	0	0	0	0	0	0	10
OTU 89	5	0	14	14	2	1	1	45	8	2	7	2	6	2	0	13	1	0	20	0	65	2	0	7	0	0	0	0	2	25	0	0	4	0	5	0	16	23	0	16	24	12	27	10	9	1	0	2	0	1
OTU 90	0	13	0	0	0	9	0	0	0	0	27	0	0	0	0	0	0	13	7	6	0	0	0	0	0	0	0	1	0	12	0	86	0	0	0	2	0	1	0	0	84	15	0	0	0	0	0	0	1	0
OTU 91	0	0	0	0	0	0	0	1	9	0	5	0	7	2	2	2	0	0	0	0	0	0	17	0	0	0	0	0	0	0	26	1	0	0	0	0	0	0	3	5	0	0	0	0	0	0	0	0	0	0
OTU 92	3	1	0	0	0	0	0	0	4	5	3	12	0	0	0	0	0	2	0	6	0	0	30	0	1	4	1	3	0	0	40	18	0	3	28	0	1	1	0	2	0	0	0	0	0	0	63	13	4	4
OTU 93	12	45	0	0	1	0	0	0	0	3	1	44	0	0	3	0	0	0	30	0	0	12	2	0	5	0	1	0	9	1	0	0	0	18	0	18	0	0	0	0	0	0	0	1	0	0	5	5	10	19
OTU 94	139	111	28	12	45	37	6	2	34	11	37	153	3	16	103	17	36	7	131	1	6	40	46	14	0	58	16	337	136	1	98	319	29	63	19	71	33	48	2	0	237	7	23	15	68	46	853	5	87	34
OTU 95	13	8	34	0	59	0	18	14	2	0	0	4	322	0	0	1	4	5	33	0	0	1	0	16	0	8	18	0	0	0	0	71	4	40	0	14	28	0	3	2	0	13	114	11	0	11	24	621	0	11
OTU 96	0	0	18	0	0	0	3	0	0	0	0	0	0	2	0	2	0	4	0	0	0	45	0	0	1	4	0	0	0	0	0	0	4	1	0	0	0	1	0	0	0	7	0	0	0	9	0	0	0	0
OTU 97	1	0	0	2	12	0	0	2	5	0	0	1	30	13	0	67	7	0	0	0	0	102	7	0	0	66	0	0	0	0	6	0	0	8	1	0	0	0	0	0	1	0	0	11	0	54	1	0	0	0
OTU 98	29	0	107	0	20	12	8	0	24	13	0	1	1	12	0	8	17	0	0	0	0	0	12	0	5	0	28	1	1	13	14	0	2	0	0	4	5	1	22	89	1	6	0	0	0	1	5	0	14	0
OTU 99	46	10	10	19	61	95	13	192	25	9	18	85	4	8	61	31	14	23	280	93	0	24	21	48	94	113	35	4	115	15	84	242	44	2423	7	100	95	52	32	3	110	250	808	18	71	3	1	19	71	24
OTU 100	3	2	68	25	3	4	13	7	85	18	0	62	5	62	30	1	197	4	1	14	1	30	135	0	12	13	7	1203	2	50	218	5	1	0	9	8	0	0	103	58	5	0	31	7	181	32	10	31	81	43
OTU 101	0	1	0	0	2	0	0	0	0	38	0	0	11	0	0	0	1	0	10	0	0	0	0	21	0	0	0	7	15	0	0	5	0	26	0	9	40	14	0	0	0	5	0	0	0	0	0	0	0	1
OTU 102	2	0	27	17	0	0	2	3	0	0	0	0	7	0	4	0	53	0	8	0	5	1	0	0	2	1	0	55	0	3	0	17	10	0	32	16	0	0	0	12	2	1	0	0	34	4	0	0	17	5
OTU 103	0	3	1	22	2	10	46	0	131	18	22	1	3	58	126	2	86	21	84	15	1	36	157	10	2	37	72	269	3	0	294	50	267	0	0	27	18	0	5	113	35	85	1	25	68	3575	11	13	34	1
OTU 104	142	37	51	61	131	36	33	58	29	32	78	63	136	15	78	10	112	37	84	31	31	57	51	18	241	78	197	13	23	68	104	589	136	95	9	60	49	66	23	5	152	282	78	0	74	24	49	76	251	135
OTU 105	4	0	1	7	0	5	0	10	0	9	85	2	0	2	0	23	6	15	0	0	0	18	1	11	0	0	1	2	0	0	2	0	9	3	34	0	19	55	16	0	187	2	75	3	10	4	7	40	16	13
OTU 106	9	1	136	6	0	14	0	9	8	0	0	174	1	16	0	551	0	15	1	2	2	0	5	0	1	0	4	6	0	0	12	20	3	0	3	0	7	0	0	0	15	21	0	398	0	7	0	1	0	0
OTU 107	7	2	25	4	21	1	1	0	0	0	1	0	0	0	18	20	3	0	7	3	2	84	0	4	0	0	21	10	0	4	1	0	0	2	0	21	8	6	0	9	0	0	2	16	4	19	26	3	19	0
OTU 108	7	4	4	0	0	0	0	2	28	4	21	0	18	2	3	7	26	43	87	0	8	1	19	0	21	23	23	80	26	0	26	7	1	2	0	58	0	0	13	26	89	0	0	0	12	2	5	40	0	9
OTU 109	4	0	0	0	0	0	0	0	0	0	0	0	0	0	0	0	0	0	0	0	0	0	0	0	0	0	0	0	0	0	0	0	0	0	0	0	0	0	0	0	0	0	0	0	0	0	0	0	0	0
OTU 110	395	5	37	49	4	34	36	73	26	17	1418	31	307	7	8	21	30	120	34	84	5	123	58	2	84	19	45	9	40	7	113	9	68	22	1	21	2	669	2	5	7	17	23	20	1	69	270	834	67	68
OTU 111	1	3	0	0	1	0	0	0	0	0	2	4	0	0	0	0	0	0	0	0	1	0	0	0	11	0	2	0	8	14	0	0	3	0	14	0	0	0	17	2	0	0	3	0	0	0	0	0	0	0
OTU 112	63	18	54	0	6	41	290	4	4	7	21	7	0	1	3	16	0	48	0	4	0	40	1	0	0	0	0	0	0	1	1	1	1	8	2	1	0	6	2	2	111	81	0	4	24	4	16	2	10	7
OTU 113	0	379	0	0	4	0	19	0	0	22	1	140	3	0	1	0	27	0	0	6	0	0	0	0	0	8	0	1	5	0	0	14	1	0	0	0	0	0	0	4	20	0	6	1	15	1	0	13	0	0
OTU 114	41	17	7	37	6	6	34	160	76	1567	50	152	71	56	193	32	115	5	114	62	26	73	98	123	487	24	361	0	5	991	232	1	1201	26	1133	30	251	27	124	46	172	1092	25	4	5	69	10	17	126	26
OTU 115	21	4	48	124	3213	29	38	105	13	17	7	17	59	6	107	12	91	10	18	26	82	59	4	18	53	94	39	73	13	109	29	57	23	110	15	10	35	169	134	63	17	107	114	45	61	15	85	75	29	35
OTU 116	5	10	24	13	10	23	64	127	3	41	97	13	3	6	298	57	26	20	0	3	323	66	6	0	64	136	8	97	142	40	14	32	48	41	74	3	0	28	5	4	107	43	24	10	21	14	0	1	74	18
OTU 117	20	106	53	5	13	14	10	668	7	21	107	43	7	1	8	9	5	10	112	0	2	7	5	0	87	168	149	2	33	81	12	172	39	21	55	52	0	45	1	9	179	57	24	6	0	8	11	2	2	17
OTU 118	0	1	15	47	0	12	0	0	5	0	0	0	1	2	78	25	6	0	0	0	0	2	4	0	0	37	43	0	70	0	2	4	141	3	0	0	4	0	13	7	10	0	0	5	14	6	0	3	0	0
OTU 119	5	16	26	135	0	5	2	7	5	51	67	6	23	0	47	145	40	0	5	1	2	222	0	12	2	114	22	189	41	3	7	48	50	9	17	1	22	2093	6	4	77	1	33	148	52	125	14	79	26	58
OTU 120	0	15	23	0	2	5	8	4	6	0	25	0	9	2	1	0	43	2	9	0	0	12	9	0	1	18	1	73	7	0	3	0	0	0	11	4	0	0	23	1	8	43	62	0	21	0	0	3	0	90
OTU 121	39	11	22	9	3	7	1	1	1	25	38	12	10	1	19	9	509	80	13	3	0	1	9	12	29	70	0	15	38	11	1	19	35	30	19	0	18	0	30	61	0	112	93	2	1	0	15	1	5	2
OTU 122	54	15	29	57	37	26	0	120	1	11	2	46	14	0	175	48	15	8	121	17	5	172	0	14	0	104	8	19	1	0	3	9	25	75	32	37	40	8	122	1	9	83	42	2	5	51	74	0	6	15
OTU 123	219	118	270	53	59	147	87	239	4645	525	95	27	363	2310	385	60	69	101	251	812	11	97	126	37	504	256	45	76	532	511	216	57	244	166	80	244	56	114	423	103	123	128	174	51	1434	85	309	82	169	290
OTU 124	0	0	2	0	1	1	0	30	5	0	10	1	0	0	5	4	0	14	42	0	0	0	5	0	12	0	9	17	0	0	7	34	2	3	1	32	0	0	0	0	0	4	0	0	3	0	0	0	21	0
OTU 125	182	26	160	169	95	279	69	82	279	137	41	154	107	129	165	573	34	122	103	67	245	1088	49	1804	83	66	16	317	23	47	111	188	79	161	1419	57	41	51	272	310	72	183	215	281	46	582	407	81	96	117
OTU 126	0	0	0	2	0	0	0	0	3	0	9	0	2	1	0	0	0	0	1	0	1	0	0	1	4	0	0	0	0	3	0	0	0	0	1	2	2	13	0	13	42	0	6	6	26	0	0	4	44	1
OTU 127	94	30	21	1	21	15	3	4	0	38	15	2	15	0	7	0	1	77	5	0	24	26	0	0	8	2	3	45	181	43	4	11	30	0	1	6	4	1	88	2	12	76	6	9	9	12	390	19	26	4
OTU 128	795	125	132	87	157	98	134	280	52	121	29	35	74	19	111	72	58	111	455	174	181	115	29	34	153	46	27	64	241	9	82	116	169	99	56	229	61	17	89	38	72	262	72	29	16	56	69	201	41	304
OTU 129	0	23	0	0	0	44	13	0	0	6	0	8	3	0	4	0	0	0	2	16	1	1	1	0	5	9	5	0	0	0	0	51	0	3	17	10	0	0	0	40	0	0	0	0	0	8	3	0	98	0
OTU 130	6	0	12	0	1	67	31	0	32	1	52	1	22	12	35	69	16	0	31	4	12	56	31	19	21	2	1	1	3	2	41	47	24	0	0	14	35	31	6	3	13	14	0	58	8	0	1	53	0	3458
OTU 131	47	12	56	52	17	36	4	239	21	20	47	15	0	15	131	4	2	108	1	16	68	0	22	0	20	34	836	41	58	40	17	67	1274	5	0	5	0	1	40	62	1	3	1	1	41	1	6	0	23	8
OTU 132	22	1	34	0	1	0	1	0	26	0	2	97	2	8	10	2	14	13	0	0	10	7	33	0	0	3	3	37	126	0	81	17	4	0	2	0	0	0	28	2	7	0	9	0	0	0	2	19	38	8
OTU 133	0	6	10	0	0	0	0	1	0	0	0	0	3	0	8	0	0	3	0	0	0	0	12	3	0	1	11	0	7	0	3	3	3	0	0	0	2	0	0	14	6	0	0	0	3	0	0	9	0	0
OTU 134	31	0	6	5	9	2	91	7	11	18	127	10	20	7	145	3	85	9	63	0	40	67	24	12	21	41	0	74	3	1	16	4	7	78	125	32	22	67	4	9	183	5	100	55	1	28	6	13	11	5
OTU 135	101	10	4	1	32	97	17	15	20	9	90	0	68	13	315	0	2	0	106	2956	4	34	17	4	21	45	1	8	11	0	53	7	81	11	11	118	5	51	30	0	139	4	80	0	11	6	0	158	112	22
OTU 136	0	52	19	0	20	0	0	2	45	18	2	2	3	10	9	81	43	49	1	10	0	24	21	7	2	27	63	192	5	10	42	6	59	2	6	1	10	0	14	8	0	8	43	0	11	1	62	1	3	0
OTU 137	40	3	0	7	44	0	0	77	1	0	6	0	31	0	0	0	10	20	0	7	38	5	3559	2	3	0	0	0	1	0	0	986	0	10	0	0	3	0	0	0	0	21	6	4	27	0	0	5	288	9
OTU 138	0	0	0	5	6	0	11	1	0	0	5	0	0	0	4	0	7	12	13	1	29	2	0	0	0	0	110	0	80	0	0	7	13	13	8	10	0	1	11	0	7	2	57	1	0	0	4	41	0	14
OTU 139	0	738	80	60	10	100	128	4	116	12	16	1837	56	46	36	175	76	71	16	54	16	30	85	8	22	784	223	86	17	79	197	1	41	9	42	4	28	12	185	14	82	25	2	119	41	9	110	30	122	6
OTU 140	93	81	23	34	112	288	272	22	37	344	131	200	20	3656	42	45	179	138	159	35	201	127	428	37	34	80	55	66	387	272	88	59	29	104	495	57	55	95	14	119	233	9	206	2784	442	20	70	133	2554	124
OTU 141	0	0	0	0	0	0	0	0	0	0	0	0	0	0	0	0	0	0	0	0	0	0	0	0	0	0	0	36	0	0	0	0	0	0	1	0	0	0	0	0	0	0	0	0	57	0	0	0	0	0
OTU 142	0	0	0	0	0	3	0	0	0	0	0	0	0	0	0	0	0	0	0	0	2	3	0	0	0	0	0	0	0	0	0	3	0	0	0	0	0	0	0	0	0	1	0	0	0	0	0	0	0	5
OTU 143	7	65	6	0	6	343	0	4	0	8	0	0	0	0	22	0	0	0	3	0	0	0	0	0	0	0	1	5	0	0	0	65	0	0	0	6	1	0	9	0	6	0	21	0	7	0	0	0	0	1
OTU 144	0	0	0	2	6	83	57	0	0	0	9	0	23	0	0	0	0	0	66	0	3	3	0	1	12	0	23	62	34	4	6	0	0	4	0	26	3	0	4	22	9	11	0	1	7	9	0	70	0	0
OTU 145	4	12	21	2042	34	34	35	59	22	18	73	12	7	5	192	79	27	5	21	47	12	20	15	8	269	156	75	542	15	1	20	35	87	39	17	18	15	41	0	19	67	301	47	2	2	6	5	14	54	19
OTU 146	15	2	52	1	1	2	163	27	164	0	87	32	349	62	14	7	3	13	4	50	30	65	14	2	6	113	2221	8	0	22	35	8	74	42	0	4	12	26	7	21	74	22	158	0	3	32	48	7	131	27
OTU 147	22	65	0	0	0	6	0	0	0	37	4	111	11	0	3	12	2	0	39	1	3	32	0	8	10	19	26	33	1	0	0	19	1	2	0	20	16	2	32	20	0	30	6	0	7	19	16	0	1	43
OTU 148	30	5	45	21	5	44	159	4	63	0	21	36	4	11	806	2	115	49	25	2	116	26	44	39	19	14	324	176	10	25	53	45	200	109	7	24	80	16	4	287	13	2	79	3	87	8	120	66	2	0
OTU 149	59	2	36	0	6	0	34	2	14	0	6	4	13	12	1	8	1833	2	45	3	15	0	640	20	11	0	91	1	3	2	15	1	22	87	24	5	27	0	9	10	18	40	158	2	62	0	1	127	48	7
OTU 150	23	2	0	0	0	2	35	38	0	181	1	0	0	0	5	0	6	24	10	65	0	9	0	2	736	34	0	0	0	0	0	0	7	1	0	0	2	0	10	33	34	21	28	0	0	34	2	3	2	0
OTU 151	1	0	5	17	1	15	50	0	8	76	0	1	8	3	69	60	3	3	40	22	26	168	11	21	4	20	0	7	27	26	4	13	0	0	10	7	34	0	20	25	17	32	0	0	64	87	0	0	1	0
OTU 152	0	20	0	38	1	0	0	0	2	10	8	25	56	0	15	37	8	26	28	1	6	29	12	10	3	28	34	25	55	1	11	27	30	9	2	17	18	1	10	65	20	52	26	1	68	13	28	13	5	23
OTU 153	0	0	1	0	2	7	1	0	0	0	0	2	0	0	0	0	0	0	0	0	0	0	0	0	0	0	1	0	5	6	0	20	50	0	0	0	0	0	0	0	0	0	22	0	2	0	22	0	0	18
OTU 154	0	1	6	0	0	0	2	3	0	0	43	0	0	0	15	29	0	0	0	0	0	0	0	5	0	0	0	0	3	0	0	0	0	4	5	0	4	0	0	0	53	0	1	0	0	13	0	0	0	0
OTU 155	7	106	55	0	22	5	64	52	2	0	0	185	3	1	5	5	0	1	0	2	1	1	6	15	17	34	0	50	5	5	1	23	13	0	0	0	40	0	0	18	23	5	1	13	52	0	2	23	6	9
OTU 156	91	3719	67	7	49	67	11	97	12	71	42	3	13	5	46	102	24	182	9	2	113	44	200	17	47	65	16	122	101	5	37	52	23	1	13	20	41	7	81	39	134	8	13	4	1	11	82	161	36	43
OTU 157	0	17	0	0	0	23	0	0	1	1	0	0	0	0	3	1	17	21	0	1	0	3	0	2	0	105	4	0	0	0	2	11	11	2	0	8	7	0	1	11	17	2	26	0	0	6	0	0	2	0
OTU 158	0	0	0	0	0	0	0	0	4	0	0	0	0	1	0	0	0	0	0	5	0	0	0	0	0	0	0	0	28	0	0	3	0	0	0	3	0	0	0	0	0	0	0	0	0	0	50	0	0	0
OTU 159	6	6	6	3	1	2	10	2	85	0	0	0	109	26	59	33	17	3	15	27	19	58	71	4	1	6	6	0	15	2	143	105	22	29	3	1	14	0	31	21	22	12	7	28	31	21	13	251	1	17
OTU 160	122	109	86	694	114	62	27	27	6	187	23	9	2	0	232	47	41	43	258	60	101	201	13	43	108	528	70	6	83	68	19	33	62	44	69	183	73	1	22	29	35	33	107	56	42	529	143	70	71	51
OTU 161	35	25	1599	88	5	15	21	19	77	20	0	35	33	37	237	1	15	2	88	0	9	0	24	10	17	62	0	33	101	0	44	57	11	0	18	55	19	0	83	20	31	4	116	3	49	1	22	17	102	0
OTU 162	41	7	18	10	0	86	114	20	28	0	6	68	2	25	42	9	11	1	30	42	28	5	33	1	0	84	19	0	738	4	103	104	0	42	35	6	2	0	15	0	0	175	128	2	0	4	67	26	44	23
OTU 163	0	0	0	0	0	0	0	0	0	0	30	0	0	0	0	0	0	0	0	0	0	0	2	1	0	0	0	0	0	0	5	0	0	0	0	0	1	16	0	0	24	0	50	0	0	0	0	0	0	4
OTU 164	1	0	0	0	0	0	0	0	0	0	0	0	1	0	0	0	0	0	0	0	0	0	0	0	0	0	0	0	0	0	0	0	0	0	0	0	0	5	0	2	0	0	0	0	6	0	15	0	0	0
OTU 165	0	5	6	1	0	50	2	6	0	0	30	23	0	0	6	11	0	10	37	14	11	27	3	3	0	0	9	53	25	1	3	91	8	5	19	4	5	20	58	3	48	176	12	3	0	15	4	4	33	0
OTU 166	0	0	0	0	0	0	0	4	0	0	0	0	0	0	0	0	0	0	0	0	0	0	0	0	0	0	0	0	0	0	0	0	0	0	0	0	0	0	0	0	0	0	0	0	42	0	0	0	2	0
OTU 167	18	37	25	2	23	35	0	249	17	4	9	6	0	9	40	1	0	0	0	30	10	0	7	1	0	72	6	11	10	0	26	6	13	3	4	0	6	0	85	4	10	9	1	18	6	3	14	0	89	8
OTU 168	25	36	13	23	36	13	56	6	3	0	0	116	11	0	0	7	57	86	12	12	16	15	1	2902	9	75	24	1	30	50	7	1	33	0	21	2	3	1	15	10	14	16	17	0	45	0	60	1	118	37
OTU 169	0	0	0	4	7	12	0	0	0	0	0	0	0	1	0	20	0	0	73	0	2	6	0	0	0	0	0	0	8	5	0	0	0	0	0	143	0	0	0	0	4	0	0	4	12	4	0	0	42	0
OTU 170	0	0	0	0	0	0	0	0	0	0	0	0	2	0	0	0	0	0	0	0	0	0	0	0	1	0	0	0	0	1	0	1	0	0	0	6	0	0	0	0	4	0	0	0	0	0	0	0	0	0
OTU 171	0	3	0	19	4	27	2	0	4	81	2	39	8	3	0	4	0	22	172	153	34	7	6	15	63	53	26	45	1	2	31	16	17	22	7	94	24	0	87	29	4	42	32	0	888	11	57	14	16	9
OTU 172	0	1	3	0	0	30	0	0	9	3	2	9	0	0	59	0	14	3	0	0	0	76	7	0	0	0	0	0	0	37	21	0	8	11	0	0	0	1	0	0	0	0	0	0	0	30	0	10	0	0
OTU 173	8	0	5	1	4	0	16	0	4	35	14	15	0	1	5	0	9	31	70	0	0	0	0	6	3	6	0	5	0	1	0	13	7	16	2	16	7	2	0	3	0	2	11	2	0	0	1	27	0	0
OTU 174	72	3	11	1	21	11	15	0	3	315	0	0	1	5	14	44	0	10	0	7	655	87	0	0	26	31	29	138	1	252	16	156	0	1	301	1	0	5	0	2	1	6	0	21	1	43	3	0	381	25
OTU 175	23	0	19	7	0	0	47	37	0	0	0	37	7	1	4	0	116	4	1	0	40	0	0	2	6	0	3	9	44	0	0	7	0	2	1	0	9	7	29	0	0	0	0	15	0	0	30	15	10	1
OTU 176	150	24	11	49	16	73	24	146	23	8	16	45	34	8	77	110	13	15	166	53	83	55	17	7	128	18	59	21	0	4	24	0	59	0	3	33	6	2	170	1	18	98	136	3	15	25	32	7	1	76
OTU 177	73	53	2	7	9	36	110	24	43	71	88	77	6	10	45	3	31	38	99	4	205	3	62	46	101	68	40	60	116	135	88	61	23	0	55	25	103	35	2	0	130	58	45	0	27	1	56	6	18	4
OTU 178	0	0	0	9	2	0	139	195	26	48	0	0	3	12	26	12	4	20	6	6	8	36	15	15	13	13	38	7	84	37	34	1	0	0	64	5	40	0	28	0	0	14	14	86	0	23	23	2	0	0
OTU 179	2053	2	61	6	439	1	23	1	1	7	0	4	8	5	23	38	0	0	84	22	60	57	1	0	1	0	21	1	1	35	0	51	1	52	13	12	0	1	5	15	2	64	50	39	32	28	9	31	0	758
OTU 180	48	193	4	48	34	86	80	48	11	158	130	180	26	514	60	87	103	28	38	45	73	120	47	69	134	100	119	220	125	178	121	39	38	8	218	29	157	41	25	34	199	72	142	86	263	51	377	8	42	57
OTU 181	11	1	0	64	3	69	8	34	132	0	528	0	13	40	46	10	6	5	1	28	68	4	93	5	7	2	5	0	25	52	151	51	1	6	90	2	9	277	3	0	970	1	10	9	0	10	15	91	7	0
OTU 182	0	0	0	0	0	0	0	0	0	49	0	0	1	0	1	0	0	0	0	0	0	0	0	0	0	9	0	0	3	0	0	1	0	0	0	0	0	0	0	0	5	0	0	0	0	0	0	10	0	0
OTU 183	0	42	75	0	1	2	24	17	0	6	27	78	1	0	1	0	17	62	23	2	83	7	1	0	13	13	6	20	1	1982	2	71	9	0	52	13	6	22	3	14	75	17	15	10	0	0	1	6	0	0
OTU 184	41	0	3	1	16	7	121	21	1	68	0	0	66	0	0	9	0	10	42	33	57	10	0	5	1	72	1	27	7	29	0	6	17	2	19	0	4	7	13	13	0	0	1	18	87	2	7	27	70	1
OTU 185	0	14	10	25	11	17	51	78	5	16	67	8	32	8	61	9	3	10	43	96	14	18	3	14	110	36	40	40	17	65	3	196	105	13	48	6	26	34	14	18	28	203	24	2	49	0	116	38	24	4
OTU 186	0	2	126	0	17	0	80	1	21	33	21	0	0	16	15	40	4	6	0	0	24	44	13	4	0	3	0	1	0	0	17	68	0	0	0	0	16	74	15	0	30	0	0	36	2	0	23	0	0	2
OTU 187	46	51	37	29	37	12	51	336	113	4	41	97	25	79	265	102	79	25	43	8	6	65	131	80	26	37	18	246	62	6	219	198	125	1333	18	29	150	14	127	1	71	14	30	7	227	38	53	76	47	16
OTU 188	73	89	18	19	10	483	40	30	30	4	1	106	11	4	105	35	31	18	34	1	5	42	6	47	7	75	11	30	7	16	35	21	14	21	5	28	94	15	28	53	11	47	31	30	83	20	48	16	5	91
OTU 189	68	11	38	56	18	76	20	37	0	7	49	0	42	8	64	53	6	69	134	218	45	17	1	381	25	105	35	52	22	6	10	3	65	6	12	34	677	32	41	50	117	79	40	6	28	4	217	101	42	11
OTU 190	0	0	65	0	33	0	7	0	0	0	0	5	0	0	1	0	6	0	0	0	0	0	0	0	15	0	0	0	0	10	0	0	0	0	3	0	0	3	0	5	8	0	0	0	0	0	1	0	0	0
OTU 191	37	75	12	101	2	8	135	2	59	43	13	175	33	30	377	81	6	3245	20	28	8	113	93	17	74	140	7	28	44	17	123	13	6	12	26	17	27	32	93	10	31	26	100	19	133	46	136	19	211	1
OTU 192	79	4	459	32	0	29	6	41	18	3	14	21	23	13	8	34	43	336	395	11	47	96	23	35	107	784	51	215	195	36	29	56	56	235	27	115	67	9	241	3140	12	35	330	11	42	49	13	56	13	77
OTU 193	21	12	130	28	22	115	45	67	0	14	2	157	112	2	13	11	19	0	209	4	19	8	0	7	40	13	0	18	209	39	1	85	9	0	26	96	24	0	609	0	0	193	89	0	4	2	194	139	4	28
OTU 194	553	1	1	1	22	1	6	19	34	36	67	20	3	13	0	11	11	4	0	2	0	13	15	1	7	0	3	44	27	2	46	227	4	28	10	0	2	707	37	0	61	52	3	5	0	5	0	0	324	155
OTU 195	38	14	20	2	35	2	2	0	0	2	25	1	28	2	59	40	20	84	13	0	8	57	0	8	38	70	135	8	17	0	2	1	34	12	4	18	16	4	237	13	23	18	3	31	25	52	6	17	47	25
OTU 196	41	9	43	57	11	6	0	5	157	9	5	28	0	83	25	36	331	4	0	2	0	14	178	31	1	14	15	62	97	7	396	45	3	144	859	0	53	4	149	127	11	3	80	0	626	3	25	14	5	0
OTU 197	39	382	26	34	1561	311	139	138	18	12	1	806	15	6	78	18	50	13	100	67	7	51	1	39	138	117	5	187	18	12	11	211	100	41	35	46	76	11	50	697	46	70	95	37	24	10	441	171	104	13
OTU 198	68	13	10	0	3	0	0	47	0	1	6	1	0	0	99	555	0	0	9	0	0	698	0	0	0	0	34	3	3	0	0	1	44	0	2	0	0	0	1	1	0	0	1	135	2	540	15	0	3	67
OTU 199	79	0	6	9	0	102	45	2	2	24	1	0	0	0	0	2	1	2	2	4	0	0	1	50	3	0	2	3	42	0	0	1	13	53	17	1305	74	0	27	1	19	18	47	0	0	1	105	6	20	0
OTU 200	20	3	59	49	9	11	4	3	1	23	0	0	6	3	15	5	10	16	0	3	1	5	8	9	10	8	0	16	0	8	27	45	1	15	2	4	10	1	0	0	2	40	16	0	35	5	29	22	85	12
