	Host 1	Host 2	Host 3	Host 4	Host 5	Host 6	Host 7	Host 8	Host 9	Host 10	Host 11	Host 12	Host 13	Host 14	Host 15	Host 16	Host 17	Host 18	Host 19	Host 20	Host 21	Host 22	Host 23	Host 24	Host 25	Host 26	Host 27	Host 28	Host 29	Host 30	Host 31	Host 32	Host 33	Host 34	Host 35	Host 36	Host 37	Host 38	Host 39	Host 40	Host 41	Host 42	Host 43	Host 44	Host 45	Host 46	Host 47	Host 48	Host 49	Host 50	
OTU 1	8	2	0	85	58	71	52	98	143	44	11	0	10	74	6	111	3	87	23	51	2	55	24	84	20	31	119	46	1	22	59	26	19	287	141	30	43	14	221	0	88	264	10	117	25	2	80	51	36	124
OTU 2	0	75	16	16	2	1	7	0	3	7	1	34	0	44	18	133	31	0	11	28	344	68	0	961	0	12	1	4	2	16	0	2	15	7	89	181	8	20	9	5	37	6	15	0	0	1	2	17	42	1
OTU 3	0	0	23	4	0	5	18	5	2	0	4	5	0	0	1	0	17	3	13	34	0	4	29	1	0	10	10	0	1	0	3	0	5	0	0	0	0	0	1	0	46	11	0	27	0	6	0	1	0	2
OTU 4	1	0	0	0	0	0	0	0	0	0	0	0	0	0	0	0	0	0	0	0	0	0	0	0	0	0	0	0	0	0	0	0	0	0	0	0	0	0	0	0	0	0	0	0	0	0	0	0	0	0
OTU 5	229	288	198	415	390	632	260	81	0	348	0	201	1416	12	1	40	27	1246	172	2	101	219	160	104	241	119	1217	621	0	605	228	427	429	190	243	177	128	77	971	74	0	2391	63	334	376	220	549	151	282	207
OTU 6	20	1	9	42	41	29	101	2	13	46	19	5	2	37	33	0	1	0	23	5	11	78	17	0	6	48	3598	8	14	6	14	57	0	28	14	22	33	19	1	14	6	20	117	13	435	0	1	45	4	19
OTU 7	2040	11	147	39	110	112	24	49	17	3	221	50	1	1420	152	78	138	22	34	10	51	101	107	582	48	105	0	376	179	35	11	2081	3	152	66	13	14	1790	1560	42	14	1	182	60	13	67	73	101	20	63
OTU 8	70	111	746	56	3	71	40	36	12	128	14	595	13	22	22	79	104	8	12	162	26	51	62	29	23	124	3	101	128	9	48	413	61	41	25	142	63	294	29	24	305	5	115	59	32	36	76	319	26	33
OTU 9	18	2	23	7	15	0	44	0	0	0	31	30	0	66	5	0	0	28	0	5	32	12	36	17	1	4	9	43	6	15	2	0	3	82	2	0	0	3	8	10	0	23	17	10	7	11	9	22	12	2
OTU 10	2	58	2	2	25	74	0	0	1	0	65	22	13	26	8	12	36	8	0	6	35	0	0	0	0	0	1	0	0	0	0	43	2	5	1	0	5	6	0	4	26	5	124	1	0	1	48	1	0	0
OTU 11	3	0	17	7	0	47	18	14	66	33	84	2	13	84	12	207	2	18	5	2	23	48	0	17	4	50	7	105	15	1110	36	56	0	12	94	8	48	1	33	79	5	12	0	37	9	2	82	157	2	14
OTU 12	74	21	5	42	9	0	85	21	14	58	5	27	1	7	45	36	153	28	95	14	17	73	20	72	255	58	15	22	37	8	20	9	15	92	67	66	88	18	10	59	59	32	51	145	78	21	8	26	0	3
OTU 13	1	0	0	0	1	17	0	0	0	0	0	0	0	0	0	0	0	0	45	2	0	0	9	1	0	0	0	0	0	0	0	0	0	7	0	1	0	0	4	0	0	0	3	0	0	9	0	27	12	0
OTU 14	1	15	36	10	0	2	86	7	0	3	33	66	2	0	15	12	98	2	0	25	63	100	1	31	138	0	0	5	1	12	0	1	4	12	1	2	98	9	0	0	75	0	20	0	5	0	25	1	4	0
OTU 15	0	0	1	0	0	0	0	0	0	0	0	0	0	0	0	0	0	0	4	0	0	6	0	0	2	0	0	0	0	0	0	0	1	0	2	0	0	0	0	0	0	1	0	0	8	0	1	33	4	0
OTU 16	0	0	0	0	0	0	0	0	5	0	1	0	1670	11	0	0	0	0	0	0	8	2	0	0	0	0	0	0	0	10	0	0	0	0	0	0	0	0	0	0	0	0	0	0	0	0	0	2	0	5
OTU 17	3	35	37	37	3	0	43	17	0	7	18	0	0	118	26	1	23	2	28	15	2	19	0	12	45	30	0	23	2	1674	1	2	2	88	0	4	0	9	1	0	18	0	0	4	1	19	6	9	16	22
OTU 18	4	7	5	2	39	3	138	46	8	19	28	45	5	31	11	1	0	14	77	65	399	66	9	13	52	23	4	19	1	0	31	7	43	193	12	0	90	27	19	24	61	4	71	26	36	63	87	54	1	119
OTU 19	0	0	16	0	0	0	0	0	0	0	0	0	0	0	42	0	0	0	0	0	0	7	1	0	11	0	0	0	205	0	0	0	1	0	0	0	0	0	0	0	0	0	0	0	0	0	0	0	0	0
OTU 20	4	239	20	12	0	43	0	1	0	233	72	13	7	7	12	14	4	0	0	0	14	12	91	45	7	16	12	7	23	1	21	7	2	71	1539	21	5	17	17	116	5	24	958	3	101	53	56	20	3	22
OTU 21	23	5	305	49	24	118	9	85	72	6	109	19	27	9	89	11	88	36	34	211	67	129	274	60	47	1	0	13	17	66	0	19	108	40	4	10	22	8	33	10	242	14	39	29	306	25	107	38	38	73
OTU 22	2	39	9	6	56	38	12	95	36	43	171	12	2	186	271	45	6	6	14	5	4	7	27	20	25	19	148	29	59	9	0	32	1044	22	0	81	24	6	2	17	1	11	41	329	1	83	7	25	25	3
OTU 23	0	9	0	28	1	0	25	11	0	2	6	48	10	4	10	11	3	171	17	0	79	4	5	0	49	7	0	0	22	9	2	0	0	240	23	8	2	0	25	48	0	4	21	2	0	0	1	13	12	4
OTU 24	0	17	1	13	0	2	17	3	8	4	276	10	1	74	5	45	0	0	70	8	35	32	0	0	3	19	1	1	1	10	28	5	6	0	0	36	0	9	3	29	30	2	23	1	3	41	2	0	22	44
OTU 25	0	0	0	0	0	0	0	0	0	0	0	0	0	0	0	2	0	0	0	0	0	0	0	0	0	0	0	0	0	2	0	0	0	94	0	0	0	0	0	1	0	0	0	0	0	0	5	1	0	0
OTU 26	14	24	0	0	0	0	7	0	0	4	0	0	34	2	0	0	0	5	11	0	9	0	0	7	0	0	0	19	0	0	0	0	0	0	0	0	0	0	0	1	0	0	0	0	39	23	4	0	0	0
OTU 27	0	0	0	0	0	0	0	0	0	0	0	0	0	0	0	0	6	0	34	0	0	9	0	0	0	0	0	0	0	1	0	0	0	12	0	0	14	0	0	22	0	0	0	0	0	1	0	0	0	0
OTU 28	4	0	112	98	29	0	71	28	0	59	51	91	0	41	12	34	22	5	70	2	26	38	42	81	131	49	162	20	16	222	20	10	3	79	1	0	30	40	12	11	0	350	45	144	47	27	6	20	16	129
OTU 29	119	1	23	38	77	16	14	70	13	53	16	453	2	32	593	4	72	1	61	53	22	90	246	96	106	611	26	121	255	19	7	1	27	206	6	22	135	283	124	83	132	44	97	125	44	147	10	79	13	100
OTU 30	0	0	0	1	0	42	0	0	0	0	0	0	0	0	0	0	0	0	0	0	0	0	0	0	0	0	0	0	2	0	0	20	0	0	0	0	0	0	0	2	0	0	1	0	0	0	0	0	0	0
OTU 31	34	0	0	2	0	68	0	1	16	344	9	0	8	13	0	0	727	3	16	1	2	10	0	923	3	0	2	0	4	0	3	2	1	0	2	47	62	6	4	286	0	3	0	0	40	74	55	0	10	73
OTU 32	79	83	297	253	55	9	42	14	1	105	97	64	3	131	10	86	67	12	780	7	5	589	27	108	165	163	23	708	51	0	26	1	11	3	25	694	31	76	31	37	16	53	73	37	9	30	1	1277	10	36
OTU 33	1	0	7	20	0	0	0	0	35	6	0	0	0	56	0	0	18	0	66	0	0	0	0	0	0	0	0	0	0	0	46	0	0	0	1	0	0	0	0	0	0	0	0	0	0	6	0	1	0	0
OTU 34	24	107	184	0	15	10	45	64	20	0	1	1	0	142	2	161	141	2	31	60	46	59	42	45	23	6	0	1	5	11	38	53	35	58	50	52	64	20	3	2	115	2	31	47	22	0	13	42	13	50
OTU 35	21	1	1	22	0	9	95	18	1	1	28	1	1	7	6	0	4	0	19	18	6	0	103	25	12	99	8	39	70	8	41	0	9	8	4	18	0	5	4	28	24	8	32	99	20	4	3	34	2	204
OTU 36	12	3	0	9	56	24	39	16	9	0	291	9	3	0	69	98	8	0	8	28	29	15	76	15	1	118	0	8	1	2	0	2	7	94	41	110	3	10	14	15	72	0	7	57	32	41	6	3	8	0
OTU 37	29	0	10	1	19	48	0	0	0	4	0	0	2	2	0	39	0	0	4	0	0	1	2	0	18	0	0	0	0	1	0	28	0	1	1	1	0	27	0	1	8	0	11	0	17	0	0	1	0	0
OTU 38	1	186	20	29	14	3	63	27	3	40	1	26	8	20	154	62	68	49	441	3	32	42	308	87	0	9	6	8	4	1	2	41	0	34	44	654	45	44	0	13	17	12	9	30	0	22	11	1	3	6
OTU 39	1	1	2	0	16	234	0	0	2	27	139	6	1	1	0	13	79	35	0	7	1	3	30	2	9	16	12	60	0	1	3	54	6	18	6	0	8	9	1	65	0	20	0	2	0	11	103	71	5	31
OTU 40	31	52	106	0	1	59	35	11	0	63	23	93	12	69	0	125	7	9	11	16	25	26	32	9	22	29	6	13	47	21	35	28	4	23	520	54	6	89	775	15	11	9	20	0	214	121	25	28	21	108
OTU 41	4	130	15	100	27	0	5	12	1495	10	19	7	351	67	3	94	32	49	1	32	56	6	2	24	7	17	4	10	2	316	1000	8	16	2	26	38	1	12	15	7	57	16	10	33	5	1	0	22	797	2
OTU 42	0	0	9	4	1	39	13	0	2	0	3	5	0	0	17	13	0	0	0	1	6	0	0	0	3	0	1	6	60	0	0	0	3	12	0	10	0	0	0	0	0	2	4	0	0	0	0	0	2	0
OTU 43	0	13	0	2	0	0	0	0	5	0	0	6	0	0	0	0	0	0	0	0	0	0	0	0	0	0	0	0	0	0	0	0	0	0	0	0	0	0	0	0	0	0	0	0	0	0	0	0	1	0
OTU 44	22	3	4	0	0	5	11	0	1	0	9	0	0	0	0	60	4	0	10	15	6	0	0	0	0	0	0	1	2	0	0	0	5	1	7	0	1	3	0	17	16	0	6	5	4	0	3	4	0	3
OTU 45	47	180	6	35	40	1	107	2872	3	14	39	1	1	18	1	103	63	9	89	4730	26	46	27	240	11	13	1	17	10	4	93	7	2497	42	41	17	21	0	2	24	40	1	24	63	61	1	2	9	4	12
OTU 46	111	47	36	119	1	4	233	10	70	2	207	232	11	51	128	13	4	58	28	15	113	214	27	18	23	29	26	1	21	37	5	23	2	9	7	25	36	1109	37	17	49	43	43	30	148	41	8	5	17	124
OTU 47	6	0	0	0	56	1	15	1	0	0	46	4	0	4	26	44	15	28	0	0	0	7	0	6	0	0	14	2	0	2	0	1	0	0	0	12	4	14	33	1	0	21	0	0	0	0	16	5	0	1
OTU 48	108	233	15	0	15	9	34	68	40	37	83	58	0	53	13	25	90	36	27	7	28	196	37	4	27	14	15	25	16	10	13	4	8	8	51	91	13	4	54	21	33	30	1	3	59	33	3	8	8	8
OTU 49	1	15	0	27	0	0	60	18	11	0	4	0	8	0	4	4	1	1	56	2	47	52	1	17	5	15	0	88	3053	0	7	0	0	43	34	4	0	7	0	0	1	0	56	0	66	71	17	15	1	0
OTU 50	71	9	19	65	35	21	2	17	15	43	182	3	1348	1	33	137	2	19	99	29	12	79	20	115	26	49	10	9	3	18	24	8	13	19	36	90	25	6	27	0	20	13	45	104	53	879	7	7	8	18
OTU 51	21	0	17	6	6	5	1	0	53	0	0	15	3	4	205	0	1	21	2	0	6	54	31	0	25	1	32	72	0	0	1	6	0	5	2	4	5	0	37	0	1	58	0	2	0	3	40	23	10	1
OTU 52	69	90	51	13	73	97	45	14	8	8	4	44	7	2	60	149	23	2	0	5	56	29	34	197	1	33	10	78	5	8	13	33	1	83	60	8	61	14	32	67	13	19	62	55	14	665	71	85	7	7
OTU 53	0	0	0	0	0	0	0	0	0	0	0	0	0	0	0	0	0	0	0	0	0	0	7	0	0	0	0	0	0	0	0	0	0	0	0	0	0	0	0	0	0	0	14	0	0	0	0	0	0	0
OTU 54	5	32	78	6	23	40	35	41	17	39	183	5	39	203	66	56	4	49	28	72	735	70	226	242	170	18	58	70	120	20	8	2	29	120	67	7	53	13	37	48	123	95	76	53	111	50	6	68	9	39
OTU 55	0	0	0	0	12	0	0	19	0	0	0	1	0	0	0	0	0	0	0	0	0	0	0	0	0	0	0	0	0	0	0	0	0	0	0	0	0	0	0	0	0	0	0	0	0	0	0	0	0	0
OTU 56	4	0	0	28	68	9	0	4	0	0	0	0	1	0	0	22	86	4	70	4	49	6	10	2	25	2	13	0	38	12	12	12	2	38	0	14	4	4	0	8	9	15	0	105	84	3	0	8	0	2
OTU 57	26	220	110	4	142	58	32	79	93	41	88	21	52	173	238	156	145	151	8	62	93	48	225	165	10	23	31	53	105	20	82	65	17	94	42	46	155	21	144	21	30	52	128	90	33	39	24	161	23	162
OTU 58	6	117	7	40	10	0	14	0	1	17	33	17	1	32	5	0	3	0	7	6	25	73	0	104	3	70	4	0	1	0	7	1	7	0	11	4	2	50	1	32	14	5	55	3	40	11	61	29	3	25
OTU 59	1	5	25	2	296	3	3	11	30	29	46	3	14	2	0	83	7	0	0	0	60	37	18	12	6	28	0	2	20	0	52	0	0	6	52	1	21	0	0	2	13	0	25	10	1	66	5	0	0	0
OTU 60	1	31	12	98	17	6	1	1	0	50	70	26	11	31	22	84	11	51	43	22	31	63	250	32	59	10	12	86	119	2	5	80	23	30	91	16	14	7	68	25	144	31	5	53	13	0	53	96	7	5
OTU 61	110	267	3	12	359	695	1036	8	97	47	121	712	43	527	40	274	83	377	189	26	212	14	101	5	17	72	324	244	131	42	24	267	9	1747	171	1073	52	377	606	7	55	624	1262	107	34	17	128	721	85	7
OTU 62	37	18	0	14	20	6	0	3	0	0	49	1	1	13	0	2	26	0	0	51	4	41	2	0	0	24	2	0	1	0	1	0	16	20	0	6	0	3	1	3	107	3	6	0	0	24	0	0	5	0
OTU 63	27	4	24	29	0	33	3	38	23	16	0	0	31	1	1	27	3	13	16	1	1	91	2	3	7	0	3	1565	0	20	19	0	3	15	8	2	0	2	3	0	0	11	15	3	22	10	0	0	47	3
OTU 64	25	113	70	74	75	2	15	3	24	39	61	57	199	116	22	8	60	39	50	10	143	75	37	9	62	149	5	135	128	1	36	37	4	5	5	64	7	32	27	23	18	3	30	105	30	77	56	114	25	40
OTU 65	0	0	0	0	0	1	0	0	0	0	0	0	6	0	0	0	0	0	0	0	28	0	0	27	6	0	6	1	0	27	0	1	1	0	0	0	0	0	7	0	0	3	0	0	0	0	6	0	0	0
OTU 66	51	400	4	33	0	2149	0	28	12	77	32	62	0	19	67	13	82	11	1	27	0	30	55	15	6	8	1	12	123	12	0	1395	6	49	58	27	4	36	17	65	29	4	75	698	115	2	1721	45	22	43
OTU 67	37	32	312	22	37	54	1	16	26	10	68	35	13	0	106	12	9	81	38	12	46	1	1	19	28	2	43	4	17	0	0	89	1	0	2	12	27	38	102	3	61	80	16	674	42	23	10	63	4	26
OTU 68	0	0	1	0	0	41	88	15	3	0	6	0	13	4	2	0	59	2	4	0	3	113	1	2	3	0	0	22	2	2	0	0	2	38	0	3	4	0	0	2	1	0	122	8	8	31	5	148	0	1
OTU 69	34	14	7	71	83	2	12	40	57	1	103	75	6	242	17	302	114	81	59	14	2	26	5	94	8	47	10	9	12	0	24	1	4	13	163	31	39	23	30	3	3	9	139	14	1	12	31	23	2	2
OTU 70	0	0	3	31	4	0	0	2	0	94	125	1	0	26	41	12	10	60	1	7	3	93	3	776	1	16	7	21	3	0	1	1	0	74	1	0	9	1	34	0	5	13	7	0	84	70	0	9	0	0
OTU 71	77	12	454	75	3	12	0	33	1	0	22	0	0	0	5	15	0	23	76	66	77	66	31	11	16	74	15	74	1	70	7	70	38	3	48	3	24	11	63	0	89	22	25	30	5	45	4	60	344	0
OTU 72	2	71	5	20	24	4	14	19	35	9	25	2	4	0	6	19	13	2	2	2	49	2	15	19	9	49	0	12	21	9	0	22	0	35	1	28	21	41	1	11	9	0	21	101	14	4	7	6	30	16
OTU 73	2092	10	4	4	0	10	62	27	50	68	19	34	8	16	18	177	86	3	0	0	224	0	31	37	37	88	0	13	29	9	0	28	1	400	11	103	87	45	3	77	8	1	118	25	1	43	10	0	4	62
OTU 74	1	17	13	142	3	3	46	26	1068	21	52	34	275	12	95	43	56	8	0	15	26	28	199	87	7	22	1	93	3	356	471	31	12	13	13	7	6	52	14	3	41	3	3	154	34	1	38	141	501	36
OTU 75	16	264	6	9	12	15	41	36	1	27	110	43	24	33	25	0	20	31	13	24	133	0	50	0	2	0	1	25	3	7	44	7	11	35	13	8	33	19	12	20	76	1	74	72	14	1	18	3	15	7
OTU 76	4	7	0	0	0	0	2	0	3	8	5	30	4	0	36	51	0	0	13	15	36	0	1	0	74	7	0	3	2	0	16	2	21	34	39	2	428	0	0	498	54	1	0	14	17	0	1	0	0	1002
OTU 77	21	94	0	9	193	44	170	3	8	71	71	3	2	11	9	1	37	5	6	64	54	6	11	9	93	88	1	92	48	391	26	0	28	220	1	47	4	7	10	4	73	7	117	16	116	2	43	15	544	0
OTU 78	11	66	30	3	60	102	298	16	11	8	7	45	5	53	6	16	16	126	7	14	102	36	94	40	2	6	164	54	94	1	20	2	4	348	38	155	5	41	205	24	116	312	184	302	1	30	12	188	7	79
OTU 79	109	56	212	235	69	108	159	116	29	190	331	150	62	87	246	104	97	3688	26	22	479	150	1383	124	230	255	81	111	66	1382	38	41	25	45	42	125	145	59	163	111	38	133	2039	263	64	152	801	283	9	34
OTU 80	28	17	2	38	102	38	20	10	25	8	13	175	21	652	959	20	53	17	5	46	38	12	146	96	161	53	9	30	539	4	19	5	22	87	43	11	376	63	46	255	71	12	145	291	30	71	17	55	66	210
OTU 81	43	170	101	7	5	11	62	1	65	106	18	24	49	99	24	330	7	85	90	28	26	12	55	14	160	26	9	18	198	36	0	16	25	95	109	14	0	88	17	316	40	28	7	76	89	9	42	26	151	16
OTU 82	0	7	14	0	11	12	1	47	3	44	15	0	3	96	29	66	63	5	20	7	62	1	9	70	92	19	11	19	23	9	6	0	7	28	6	1	10	5	51	27	17	28	68	11	7	13	29	0	27	4
OTU 83	1	1	36	0	0	0	1	0	1	0	0	1	0	0	14	5	15	0	0	0	105	3	7	0	11	0	1	1	0	0	0	0	0	0	0	0	0	2	0	0	10	2	25	0	0	0	0	0	0	1
OTU 84	30	75	14	12	13	73	29	5	7	1	0	24	0	0	67	8	56	4	7	65	83	4	20	36	37	121	6	1	23	10	19	44	49	220	0	1	12	7	43	6	125	10	44	0	47	10	0	12	2	0
OTU 85	3	7	1	0	3	1	4	21	0	2	0	0	2	0	32	10	0	2	55	0	0	77	1	21	5	0	0	0	0	0	0	9	0	0	6	5	8	2	1	0	0	0	7	1	0	0	26	0	0	33
OTU 86	0	0	0	0	11	0	0	4	0	0	0	0	0	0	0	0	0	0	0	1	2	1	1	0	0	0	0	0	0	0	158	7	0	8	0	6	3	0	0	0	0	1	8	1	0	0	1	0	0	0
OTU 87	1	0	18	2	0	19	0	0	8	4	0	2	0	3	0	96	15	1	1102	0	0	19	0	0	5	62	12	15	2	0	0	0	0	55	15	0	4	0	6	0	0	13	0	45	10	0	0	6	0	0
OTU 88	0	24	1	0	0	0	1	0	40	0	0	12	0	0	1	0	0	0	0	0	6	0	58	1	67	29	0	12	0	3	0	0	0	0	0	0	0	0	6	5	0	0	0	0	0	0	0	0	13	0
OTU 89	0	0	39	90	5	44	0	12	1	21	30	0	0	35	1	11	42	0	0	7	7	0	1	1	0	2	0	3	0	7	0	97	12	15	0	1	6	2	1	0	40	0	2	5	0	33	4	39	1	0
OTU 90	1	20	24	18	0	0	0	0	15	4	0	1	0	0	13	0	0	0	0	7	4	252	0	11	0	0	0	8	0	0	18	3	7	0	0	22	0	0	0	9	11	0	0	0	9	9	0	2	0	9
OTU 91	0	0	14	0	0	0	0	0	4	2	1	0	0	0	0	0	0	0	10	0	0	0	0	2	0	12	6	50	15	0	0	0	0	0	2	0	0	0	0	0	0	13	0	0	0	0	0	28	0	6
OTU 92	2	4	1	1	0	1	0	0	19	1	0	0	1	13	4	0	5	5	0	2	0	7	0	0	0	5	2	0	0	10	23	0	0	0	0	0	1	0	0	0	15	7	2	23	7	2	0	0	4	7
OTU 93	1	1	0	3	0	0	0	0	3	0	3	14	0	27	0	83	16	0	0	0	2	70	0	0	7	0	0	0	0	0	0	19	0	0	12	6	0	22	2	0	2	0	78	6	0	0	1	0	0	3
OTU 94	19	149	124	26	12	16	201	131	290	3	5	50	64	61	306	55	87	16	82	18	93	192	12	3	1	177	27	88	143	1584	240	2	6	282	41	3	5	4	16	65	33	50	176	163	243	0	8	110	2973	17
OTU 95	3	0	0	0	0	37	2	0	0	0	18	31	3	0	12	0	2	0	1	3	1	0	0	0	1	19	31	0	0	1	41	46	0	2	0	1	0	18	38	0	1	51	21	0	49	0	74	3	9	13
OTU 96	0	0	1	0	0	0	0	1	0	0	0	0	0	0	33	16	0	2	2	0	0	0	0	0	3	22	0	0	0	0	0	0	0	0	14	0	0	0	0	0	0	0	35	0	0	0	0	0	1	0
OTU 97	0	0	0	0	22	0	0	2	3	0	0	0	10	0	1	0	2	0	0	8	0	0	0	27	6	3	1	24	3	12	0	3	2	0	0	0	0	0	1	0	27	4	0	0	1	0	0	11	0	1
OTU 98	7	0	8	0	44	55	0	14	0	13	2	1	0	0	19	75	45	0	2	2	2	0	28	0	0	17	0	0	62	0	9	12	0	52	10	1	0	0	0	0	7	1	2	7	0	69	12	0	1	1
OTU 99	77	221	20	40	1338	16	38	73	152	39	51	2	37	51	321	62	27	71	76	75	450	6	47	28	170	72	6	10	6	46	4	0	16	15	18	67	1663	4	16	1472	145	16	36	76	73	35	11	61	174	3308
OTU 100	0	78	1618	0	45	99	133	11	91	1	1	0	28	1	30	128	63	282	27	34	32	6	25	6	1	12	0	1482	4	7	1	25	18	0	3	40	1603	5	0	24	143	0	16	1	27	0	36	83	26	32
OTU 101	0	6	0	0	0	0	1	0	0	2	0	0	3	0	0	28	0	1	0	1	0	0	0	0	11	0	0	0	0	0	0	0	1	8	2	0	2	0	0	3	1	0	0	1	3	0	0	0	0	0
OTU 102	3	0	4	0	0	2	0	1	3	1	0	7	5	5	27	0	0	12	0	0	0	0	0	8	18	0	0	0	1	0	14	0	4	4	8	0	8	6	0	0	0	2	0	0	0	10	0	1	0	0
OTU 103	52	8	1	0	112	4	20	0	4	4	2	25	1	41	14	12	34	82	11	37	164	42	25	7	3	22	1	74	37	28	4	25	9	47	38	17	0	13	28	6	43	6	64	40	0	14	21	101	0	39
OTU 104	26	13	15	3091	82	28	84	6	49	7	52	94	1778	22	7	13	18	55	4	20	111	35	0	11	62	44	5	29	66	13	6	3	13	61	3	78	2	32	17	5	20	13	67	76	8	123	42	13	16	22
OTU 105	0	0	0	0	0	1	7	17	2	10	5	21	0	0	0	3	0	0	0	0	0	11	15	0	2	20	2	1	10	0	9	0	0	0	2	0	0	0	0	0	0	2	0	2	19	0	0	0	6	1
OTU 106	0	0	111	4	0	0	14	1	0	0	0	33	0	7	8	12	6	0	5	0	0	0	1485	0	0	9	0	13	0	1	0	1	0	14	2	2	0	1	0	1	0	0	29	0	0	1	0	0	0	0
OTU 107	13	1650	3	7	44	5	0	1	0	0	2	0	0	27	94	29	15	15	10	11	0	0	0	18	1	88	3	31	0	0	1	0	14	3	11	11	25	0	1	6	7	2	1	3	6	9	3	115	0	4
OTU 108	33	31	201	23	32	63	101	15	5	0	0	88	0	2	72	15	66	3	0	23	4	135	118	5	0	28	4	0	15	0	6	5	20	189	22	15	1	29	0	4	22	10	0	91	2	0	19	50	0	14
OTU 109	1	5	0	0	0	0	0	0	0	0	0	0	0	0	0	0	0	0	0	0	16	0	0	3	0	0	2	0	0	0	0	14	0	20	0	0	0	0	0	0	0	1	5	0	0	0	42	0	0	0
OTU 110	99	46	42	106	11	11	5	10	11	13	10	160	2	5	145	12	39	23	0	16	5	140	58	0	121	6	0	36	6	2	89	0	5	2	3	7	17	17	0	33	33	0	39	42	18	1	0	5	10	17
OTU 111	0	12	0	0	9	0	1	0	5	12	0	0	0	8	1	0	0	0	223	0	0	0	0	0	0	3	0	0	0	0	0	0	0	0	3	800	0	0	0	0	15	0	0	28	1	0	0	0	0	12
OTU 112	26	0	16	108	0	0	1	13	0	0	3	0	13	81	106	82	78	1	0	41	0	29	26	1	18	0	0	1	2	0	8	0	27	2	41	17	0	2	3	1	71	0	5	123	31	0	1	0	11	14
OTU 113	4	0	0	0	0	0	0	0	1	0	0	127	1	2	9	10	2	1	0	0	1	0	0	0	26	0	0	0	0	0	0	0	0	0	0	0	4	17	0	0	1	0	0	0	0	1	0	0	5	0
OTU 114	74	6	100	6	241	150	4	20	25	5	150	94	580	1	20	70	21	19	34	55	54	108	12	6	65	13	64	8	81	6	14	141	22	71	51	55	9	16	87	12	142	120	5	120	18	99	55	99	1	44
OTU 115	8	219	57	32	81	31	30	110	215	127	6	41	48	35	32	186	137	53	297	41	183	145	38	109	36	32	7	95	14	70	51	20	15	85	39	37	74	7	5	85	57	11	62	22	109	3	161	213	138	83
OTU 116	0	529	157	31	4	33	113	70	41	24	263	127	18	63	134	10	54	0	124	5	13	8	24	11	87	272	0	61	1	6	36	39	1	14	2	62	45	80	2140	82	1	1	0	18	25	35	1	93	0	29
OTU 117	15	9	73	72	9	18	11	0	2	25	81	9	4	2	0	0	1127	43	5	66	48	117	15	938	0	0	0	47	18	10	1	34	25	20	7	30	9	3	1	21	56	0	3	2	84	9	9	57	0	51
OTU 118	5	0	3	20	0	6	9	9	0	0	0	78	3	23	8	0	0	2	49	12	1	3	3	6	2	7	0	0	333	0	1	0	16	0	0	0	5	0	0	0	35	0	0	0	8	0	0	1	17	0
OTU 119	44	55	4	0	64	177	40	7	287	16	47	16	95	18	29	39	53	33	1375	27	71	78	3	15	227	67	5	15	8	54	206	48	14	62	21	6	20	29	38	64	130	16	75	98	97	39	33	28	63	250
OTU 120	2	0	1	0	0	13	20	0	3	0	9	3	1	4	0	0	0	49	0	4	22	0	7	0	23	0	14	37	63	6	0	124	2	6	3	7	8	0	26	7	15	20	14	8	3	0	1296	0	3	5
OTU 121	15	1	1	24	7	6	157	18	0	0	4	16	1	19	101	2	22	1	3	44	88	7	120	38	43	7	20	3	159	3	46	5	10	1	0	0	0	6	20	4	59	28	1	65	27	0	0	0	6	4
OTU 122	14	4	476	8	21	16	14	277	351	3	9	8	154	43	85	143	1929	54	0	22	14	221	12	416	13	2424	24	3	57	78	199	12	14	33	141	37	6	11	98	12	43	41	14	73	36	1173	3	51	175	16
OTU 123	79	238	80	63	141	40	23	137	181	128	112	113	43	60	284	112	91	61	126	43	112	161	71	107	135	142	578	236	149	126	88	9	34	90	98	86	51	55	58	126	198	190	153	78	178	170	66	359	112	62
OTU 124	6	0	0	0	2	0	8	1	0	18	2	0	0	243	11	277	2	0	19	0	0	0	7	0	0	0	0	3	0	0	1	13	0	2	312	6	4	1	2	0	0	0	1	0	0	0	0	0	0	0
OTU 125	29	99	22	34	97	349	387	93	125	66	163	197	14	39	55	103	64	327	86	63	238	20	107	40	446	320	879	16	37	2	64	142	20	400	44	221	10	154	235	29	129	245	145	32	34	73	235	126	96	59
OTU 126	0	3	0	1	0	0	0	2	0	0	0	3	0	4	15	0	0	8	0	0	0	0	0	0	0	0	7	19	31	0	0	0	0	14	0	0	2	23	6	4	10	13	0	2	0	29	0	1	2	9
OTU 127	9	23	3	0	5	54	19	13	54	8	6	7	5	34	61	0	37	8	25	85	15	17	91	9	22	3	9	5	24	10	47	6	39	14	4	5	13	8	25	31	232	18	75	5	42	10	0	83	12	1
OTU 128	108	69	204	18	39	95	63	108	1367	588	334	2464	394	704	63	77	477	96	49	21	94	29	78	166	124	39	9	159	45	376	522	129	1030	158	60	124	27	1498	19	69	95	21	77	232	193	154	76	132	1189	66
OTU 129	1	0	12	0	3	44	0	0	0	15	149	0	0	0	0	0	0	0	0	0	0	0	1	1	1	1	0	0	0	0	0	0	0	2	0	5	0	1	3	27	0	0	0	0	0	0	0	0	0	0
OTU 130	9	55	9	15	527	1	32	7	9	20	37	1	4	60	51	17	7	9	60	0	20	0	553	19	11	23	0	33	5	0	25	5	0	1	10	5	1	44	1	48	0	1	19	56	13	90	1	79	3	27
OTU 131	37	5	0	5	0	158	2	72	55	37	12	102	0	9	0	89	0	17	17	93	16	30	19	8	54	23	7	46	0	27	3092	49	38	12	11	0	0	4	25	67	135	10	6	0	48	11	5	15	73	21
OTU 132	4	1	0	0	0	1	0	1	12	0	14	4	5	85	39	10	8	8	5	1	0	0	1	0	3	0	2	0	0	2	0	2	0	26	31	3	13	3	27	8	1	3	2	7	29	12	0	0	15	1
OTU 133	853	14	0	0	0	9	18	0	1	5	2	0	0	43	0	0	3	0	0	0	0	34	1	16	0	0	0	1	0	0	7	10	0	2	0	7	17	0	0	0	5	0	3	8	0	0	5	0	0	0
OTU 134	1	149	5	37	4	37	9	730	26	2	220	35	0	109	106	8	49	29	3	13	4	178	3	16	59	26	2	2	59	0	41	4	3	21	2	29	4	15	9	8	46	8	22	9	141	45	10	4	13	42
OTU 135	6	0	207	170	0	110	9	42	26	53	82	31	11	20	2	31	68	41	80	56	60	127	0	13	31	8	17	98	40	29	47	12	18	64	0	9	64	2	92	26	141	27	13	0	2	20	2	222	24	80
OTU 136	1	0	0	13	2	27	1	0	0	82	2	8	4	28	14	2	24	6	67	144	0	5	0	14	2	4	0	122	5	10	4	3	73	37	0	106	4	11	5	17	242	0	33	21	6	0	21	195	5	4
OTU 137	3	2	1	0	0	0	0	0	0	0	13	0	0	3	3	1	0	15	0	0	1	56	0	53	0	1	4	13	0	1	8	0	0	0	1	0	0	0	0	0	1	4	4	2	0	0	1	0	1	1
OTU 138	0	0	27	3	1	0	4	1	53	0	14	0	33	7	3	21	57	0	2	0	0	9	0	40	0	1	6	5	3	4	14	1	0	0	14	0	1	0	0	0	0	19	0	78	0	9	2	23	29	0
OTU 139	5	9	418	42	92	60	12	114	13	33	24	24	11	74	28	49	51	26	4	15	219	45	13	6	90	70	215	43	52	5	34	16	11	114	2168	4	7	9	38	3282	20	463	112	13	6	74	63	256	16	50
OTU 140	209	88	136	131	97	557	47	112	73	131	115	96	22	14	76	34	23	77	109	18	264	63	10	43	133	30	4	157	114	41	31	388	11	14	53	99	5	1152	1	3	71	5	26	24	53	2404	207	161	74	47
OTU 141	0	0	0	0	0	0	3	0	0	0	0	0	0	0	5	0	0	0	0	0	107	0	0	0	0	0	0	0	2	0	0	0	0	0	0	0	0	0	0	3	0	0	0	0	0	0	8	0	0	0
OTU 142	0	0	0	0	0	0	0	0	0	0	0	0	0	0	0	0	6	0	0	0	39	0	3	9	0	55	0	2	0	0	26	0	0	0	0	0	0	0	0	0	0	0	0	0	0	0	2	0	1	0
OTU 143	0	0	157	1	50	1	93	53	61	13	47	0	14	0	21	0	0	1	6	0	0	5	0	11	2	18	2	0	3	18	77	0	0	0	5	0	0	0	0	0	3	3	0	0	7	2	22	0	52	0
OTU 144	5	0	1	0	12	33	0	0	0	65	5	0	1	4	41	0	0	0	315	19	0	1	2	0	2	12	7	2	0	1	0	3	11	0	4	0	3	0	0	3	22	12	7	6	0	130	13	86	0	0
OTU 145	65	27	29	9	527	221	119	82	93	2	64	0	6	59	0	1	94	200	147	8	0	111	152	38	44	66	82	27	66	11	50	79	1	29	0	66	82	7	235	30	0	145	14	4	78	13	111	6	16	61
OTU 146	3	60	0	78	7	67	5	745	696	527	40	0	101	47	13	42	141	5	0	10	100	2	57	152	49	14	39	16	1	145	138	19	1	19	26	37	0	3	113	12	2	99	4	108	5	0	5	153	297	0
OTU 147	67	0	0	0	1	7	43	3	47	0	0	2	35	77	1	2	2	0	2	0	1	0	15	0	128	5	0	95	0	52	19	26	2	101	8	61	7	4	1	8	0	0	3	0	3	1	5	316	20	14
OTU 148	1	174	4	18	33	45	5	49	11	10	289	34	5	26	33	48	19	0	65	42	16	93	2	1	88	34	4	106	0	37	18	12	26	2	76	30	18	0	15	0	122	9	2	27	0	4	99	105	1	21
OTU 149	1	11	0	1	1	1	13	0	3	0	392	5	8	43	7	0	0	8	20	0	3	38	0	79	2	236	0	17	0	1	0	2	1	0	1	77	8	1	0	11	0	0	5	2	111	122	2	10	0	0
OTU 150	0	18	0	701	9	12	54	0	18	39	5	0	4	0	1	0	0	34	11	1	30	12	0	0	0	0	6	0	0	0	28	2	0	0	2	0	0	0	0	9	0	16	20	0	53	0	0	5	0	0
OTU 151	0	16	7	4	12	16	2	0	0	37	307	80	13	1	4	140	23	2	0	32	177	12	42	0	45	37	12	0	11	0	12	3	16	14	116	72	1	22	8	6	53	27	17	5	7	2	27	1	1	30
OTU 152	13	14	20	103	8	14	9	105	225	30	3	36	91	11	3	97	49	0	78	17	16	100	27	4	16	48	19	3	5	76	89	0	3	85	27	49	4	36	50	0	33	29	92	2	87	5	90	16	158	1
OTU 153	0	0	0	0	1	0	1	0	0	0	0	0	0	0	0	0	1	0	0	0	88	3	0	0	9	0	0	0	3	0	0	0	0	0	0	0	0	11	1	4	2	0	0	0	0	0	0	0	0	0
OTU 154	0	4	0	0	0	0	29	0	1	0	22	32	0	0	17	0	0	12	0	17	0	0	0	0	0	0	0	1	0	0	0	0	8	0	0	0	0	79	0	16	11	0	0	0	0	1	0	0	0	0
OTU 155	27	0	39	5	18	30	2	5	0	0	7	5	8	0	77	40	12	8	24	1	25	0	0	0	13	42	0	4	0	0	5	0	3	0	61	113	7	0	0	2	9	1	0	7	3	36	0	3	0	1
OTU 156	114	100	44	40	80	11	12	117	143	3	67	179	43	1097	10	1394	10	279	20	6	118	156	14	13	53	828	7	5	39	15	90	0	1	49	775	285	4	43	21	12	6	22	89	5	569	378	4	15	87	45
OTU 157	57	0	23	0	1	6	10	5	34	401	0	0	0	17	1	1	14	1	5	8	0	24	1	104	0	18	0	32	4	0	14	0	5	46	1	38	5	0	9	10	11	0	23	20	1	0	1	2	7	1
OTU 158	4	0	0	0	47	0	0	0	0	0	3	0	0	32	0	12	0	0	4	0	0	0	0	0	0	0	0	0	1	1	0	0	0	0	0	0	0	0	0	0	0	0	0	0	15	0	0	0	0	0
OTU 159	27	20	2	1	33	0	54	7	51	66	23	11	19	0	39	1	5	0	3	47	45	0	6	0	4	0	13	17	3	31	104	6	13	0	0	0	36	9	11	1	28	20	66	14	79	9	13	9	0	0
OTU 160	27	36	71	46	62	132	2681	154	66	609	66	36	32	0	75	72	8	26	103	2	48	90	21	95	56	59	1	42	11	41	36	40	4	17	45	250	32	56	33	4	19	2	80	85	45	60	17	15	61	24
OTU 161	41	1	12	5	0	12	115	6	15	449	58	123	15	1	864	8	12	0	31	743	86	25	361	25	61	15	0	1	269	11	14	1786	382	59	3	12	75	56	3	241	1579	1	6	250	605	5	14	6	0	533
OTU 162	30	3	28	116	12	46	59	79	35	39	64	7	27	4	0	32	59	166	42	0	20	42	35	31	3	79	0	356	1	8	44	28	0	123	28	29	0	0	3	64	7	1	135	13	61	24	2	2	16	0
OTU 163	0	0	0	0	1	0	0	0	0	0	5	0	0	0	1	0	0	4	132	0	88	0	0	0	0	0	0	0	0	0	0	0	0	8	0	2	0	2	0	0	0	0	0	0	0	0	0	0	0	0
OTU 164	0	0	0	0	0	0	0	0	0	0	0	0	0	0	0	0	0	0	0	0	0	33	0	0	0	0	0	0	44	0	2	0	0	23	0	0	0	0	0	0	0	0	0	0	0	0	0	0	0	0
OTU 165	133	23	43	630	14	1	0	1	2	0	3	9	1	4	3	2	3	56	10	50	24	1158	21	0	25	2	7	0	1	0	5	20	12	0	2	11	0	1	3	1	116	27	60	67	28	21	0	0	1	17
OTU 166	0	32	0	0	0	0	0	0	0	0	0	0	0	0	11	0	0	0	0	0	6	0	0	0	0	3	0	0	0	0	1	2	0	0	0	0	0	0	0	5	0	0	0	0	0	0	0	0	0	0
OTU 167	0	10	80	60	0	0	4	0	1	21	53	12	0	11	14	5	0	11	1	0	0	4	106	3	7	9	0	15	52	0	1	3	0	8	14	27	4	44	8	0	0	3	3	11	5	22	1	6	5	4
OTU 168	4	327	2	2	2308	2	16	15	30	5	15	8	14	0	41	143	61	27	31	7	41	0	4	42	25	41	0	16	23	2	29	3	9	37	22	20	53	9	53	42	11	0	2	73	15	29	5	90	22	30
OTU 169	0	3	0	0	10	0	0	0	0	0	939	0	0	0	17	0	4	0	0	0	3	1	0	4	0	0	0	0	11	0	0	0	0	0	0	0	0	0	0	3	0	0	0	0	0	0	0	0	0	0
OTU 170	4	0	0	0	0	0	0	0	0	0	0	0	0	0	0	5	0	0	0	0	0	1	0	0	0	0	0	1	2	0	0	0	0	1	0	40	0	0	0	0	2	0	0	0	0	0	0	0	0	0
OTU 171	4	15	78	32	4	9	12	5	10	22	1	1	12	1	2	26	11	1	29	517	5	1	7	8	8	23	1	0	146	1	32	2	258	0	40	89	0	15	2	6	753	3	48	1025	0	6	130	22	2	0
OTU 172	0	0	0	1	0	0	0	0	1	3	5	0	0	12	0	3	21	0	0	0	1	0	3	71	26	7	0	0	0	2	0	27	0	10	4	0	0	0	2	0	2	0	0	0	22	0	0	0	0	0
OTU 173	14	0	0	16	2	0	27	3	13	0	72	2	4	0	0	16	3	0	6	24	22	43	99	1	14	134	0	0	3	2	0	2	9	4	0	30	5	3	0	11	20	0	16	0	0	9	13	40	15	1
OTU 174	0	106	23	0	0	2	113	110	1	392	0	16	1	5	2	273	0	0	7	5	0	2	0	1	27	0	3	0	9	1	0	0	0	21	94	3	3	11	6	6	33	7	88	0	14	0	10	48	3	11
OTU 175	21	1	1	36	3	0	45	1	16	0	0	0	2	68	20	61	16	0	0	9	0	4	0	18	0	4	0	19	1	1	9	0	1	0	154	0	2	1	0	12	13	0	7	128	57	1	0	93	2	52
OTU 176	104	44	28	120	21	156	72	9	16	10	23	39	5	81	133	9	187	88	72	46	40	36	16	112	1783	20	168	11	12	14	6	22	32	70	4	0	23	10	30	46	118	319	56	8	184	8	64	33	7	27
OTU 177	3	9	2	15	11	41	4	81	0	2	192	38	1	41	2	5	1	4	17	29	80	12	8	69	33	51	0	27	33	6	22	31	2205	7	2	38	1	21	4	1	53	2	7	106	83	63	26	10	31	23
OTU 178	13	10	1	7	0	18	6	84	18	1	1	0	1	0	79	42	16	0	23	1	91	0	8	0	0	22	0	11	4	0	6	0	0	1	41	1	27	21	5	13	0	0	7	54	90	0	1	14	16	32
OTU 179	23	1	72	0	37	0	0	3	1	1	19	4	0	9	94	6	21	6	50	0	0	12	0	4	37	0	0	15	0	0	2	0	0	6	4	4	29	14	0	138	0	0	16	5	2	36	2	39	0	168
OTU 180	74	90	68	219	43	68	107	79	148	30	121	361	55	234	26	282	256	17	81	58	227	142	74	292	1394	114	11	94	107	28	112	94	28	60	116	20	164	345	56	65	55	27	17	66	196	2	1506	44	104	154
OTU 181	6	7	19	0	35	28	13	1211	4	0	3	11	4	6	0	10	0	56	0	15	120	5	3	7	74	24	10	19	35	17	44	11	9	0	55	2	2	5	2	24	4	18	10	22	4	0	0	54	0	16
OTU 182	0	0	0	0	0	0	90	6	0	0	0	4	0	0	0	0	4	0	0	12	0	0	0	3	0	8	0	0	4	0	0	1	18	0	0	1	3	0	0	0	32	0	0	0	8	0	0	0	0	0
OTU 183	0	11	34	17	2	15	38	1	5	42	9	90	5	98	63	51	5	49	8	0	17	13	0	1	72	14	9	43	2	0	701	34	0	70	0	42	0	6	50	3	0	20	6	25	25	4	14	45	3	5
OTU 184	41	1	68	16	0	0	3	0	9	6	3	9	1	0	32	62	6	4	0	0	52	94	1	33	0	36	14	0	45	0	0	60	0	3	22	0	0	22	49	13	6	23	5	4	1693	77	13	8	0	62
OTU 185	2	9	95	88	70	168	2	13	96	14	160	2	44	6	162	91	58	100	23	12	63	33	1	47	9	0	14	5	2	38	16	63	6	133	25	18	4	1	49	66	16	28	43	18	103	1	70	3	70	4
OTU 186	25	9	0	13	10	27	24	23	122	0	11	4	6	14	0	4	0	16	47	2	0	18	0	8	3	0	1	0	110	30	37	1	0	124	0	0	9	1	0	20	0	1	1	0	13	119	45	13	48	5
OTU 187	441	3	154	401	9	144	68	3	4	7	117	219	2	5	42	12	64	1	585	15	95	959	44	28	111	135	15	134	3	1	16	35	3	44	44	1208	0	55	27	13	9	25	11	18	54	2	59	233	3	66
OTU 188	23	14	180	11	124	37	27	47	32	109	6	68	32	149	309	224	185	145	22	171	136	10	56	84	105	109	56	88	164	15	1	2	72	22	132	114	29	113	134	106	329	120	36	138	41	28	18	108	22	170
OTU 189	384	5	4	76	26	126	5	36	89	25	41	42	11	75	92	4	80	8	70	134	186	12	139	23	187	1	0	10	100	29	32	109	64	9	14	8	68	20	19	71	168	0	36	33	18	52	209	116	63	40
OTU 190	0	0	0	1	0	1	0	0	0	0	0	0	20	0	5	2	29	15	44	0	0	0	1	0	5	0	5	0	0	0	0	0	0	4	3	0	0	0	0	3	0	7	0	27	4	0	0	0	0	0
OTU 191	0	105	8	23	64	51	68	2	140	2620	0	29	25	45	13	362	24	33	1	11	100	18	37	2	51	3	1	73	129	9	1	14	5	115	103	86	2472	28	3	1	0	3	27	1	48	9	3	110	35	6
OTU 192	0	159	170	27	23	145	101	13	55	4	147	32	3	6	11	18	0	8	16	17	46	107	48	10	68	106	1159	37	37	4	3	3	6	98	10	27	0	0	9	9	30	2391	64	154	13	17	0	66	23	24
OTU 193	11	160	8	14	0	70	32	7	133	15	15	30	1	20	4	44	20	25	302	26	215	7	3	21	46	11	6	8	91	7	5	13	11	6	46	408	9	85	12	15	70	17	26	45	28	24	0	0	16	6
OTU 194	0	22	1	2	9	7	0	0	4	1	62	11	17	0	2	20	28	9	0	0	31	114	9	1	0	15	0	19	41	2	2	0	2	12	4	0	1	1	0	31	2	0	17	4	48	146	1	7	2	0
OTU 195	10	0	1	9	52	10	50	1	5	4	0	209	0	2	718	10	10	7	1	5	1	3	131	24	124	14	0	5	217	1	2	22	8	12	3	10	112	336	1	140	1	0	14	293	0	0	1	5	10	183
OTU 196	4	0	2	2	7	2	0	0	5	2	35	34	3	31	16	9	62	0	14	17	75	10	33	0	27	84	1	0	16	11	39	10	7	89	30	1	16	0	0	21	13	2	30	3	10	4	2	21	2	70
OTU 197	102	113	51	45	34	160	23	27	16	20	151	129	14	127	80	267	57	33	58	367	41	189	251	80	24	14	14	4	152	8	49	88	187	149	160	28	31	14	19	11	706	37	13	38	372	51	22	29	12	51
OTU 198	0	30	0	1	4	0	2	22	0	2	180	0	0	0	0	1	8	0	0	0	6	0	0	74	0	0	0	0	29	0	24	0	0	22	1	0	0	9	0	63	0	0	1	0	1	6	0	36	0	16
OTU 199	24	79	15	10	0	49	18	22	1	2	0	0	0	0	32	0	29	41	1	0	0	3	1	0	0	0	9	1	66	0	0	7	1	0	2	31	24	6	0	11	1	24	3	35	25	11	0	0	0	3
OTU 200	8	32	0	0	2	115	15	9	6	0	0	8	13	0	0	0	1	1	4	0	31	0	115	6	68	41	8	16	9	0	9	96	242	11	20	6	98	16	0	43	7	11	17	33	21	17	40	3	0	23
