	Host 1	Host 2	Host 3	Host 4	Host 5	Host 6	Host 7	Host 8	Host 9	Host 10	Host 11	Host 12	Host 13	Host 14	Host 15	Host 16	Host 17	Host 18	Host 19	Host 20	Host 21	Host 22	Host 23	Host 24	Host 25	Host 26	Host 27	Host 28	Host 29	Host 30	Host 31	Host 32	Host 33	Host 34	Host 35	Host 36	Host 37	Host 38	Host 39	Host 40	Host 41	Host 42	Host 43	Host 44	Host 45	Host 46	Host 47	Host 48	Host 49	Host 50	
OTU 1	25	118	43	19	52	51	8	28	54	28	0	9	152	20	74	42	32	15	12	7	74	3	37	7	0	60	111	8	0	0	78	21	0	0	211	27	0	106	88	76	16	3	10	24	61	117	18	8	1	37
OTU 2	1	5	1	1	0	0	40	61	17	10	0	10	0	11	6	23	26	29	1	22	0	0	19	14	5	0	9	0	0	0	0	0	0	3	1	47	6	19	31	0	22	15	0	1	0	8	11	4	0	1
OTU 3	7	38	15	0	7	15	0	36	118	22	0	11	3	0	52	55	152	0	6	86	0	0	63	29	0	103	18	2	19	0	40	0	139	0	0	7	82	1	0	2	0	62	3	6	4	52	6	0	0	8
OTU 4	0	0	0	0	0	0	0	0	0	0	0	0	0	0	0	0	0	0	2	0	0	0	0	0	0	0	0	0	0	0	0	29	3	0	0	0	0	0	0	0	0	0	0	0	0	0	0	0	0	0
OTU 5	91	24	1	152	21	1199	1396	212	2	196	95	162	51	1180	241	196	371	2	254	292	493	0	71	0	1	54	627	731	876	149	220	772	18	122	0	608	385	2747	785	172	13	20	1186	288	57	0	135	177	248	380
OTU 6	1	34	27	1	8	34	0	2	3	1	28	15	1	0	7	32	24	0	4	1	9	6	0	0	39	10	119	3	0	44	0	36	19	0	8	11	12	4	2	3	16	39	27	0	6	2	54	5	90	0
OTU 7	44	46	365	31	106	51	14	108	164	201	234	37	14	61	231	266	150	148	9	18	48	126	107	11	19	35	79	9	35	93	44	110	37	75	52	22	4	43	47	56	96	116	20	29	3	478	346	34	43	70
OTU 8	16	26	39	283	55	142	100	30	106	22	176	107	64	168	61	116	103	63	51	23	40	187	50	61	51	17	32	8	351	84	100	55	66	12	51	11	4	32	29	617	16	20	543	11	2769	62	1013	49	2	31
OTU 9	305	94	28	977	16	5	0	145	0	31	0	24	56	3	197	5	0	10	13	31	14	8	0	625	0	1	88	9	77	36	2	26	3	2	3	4	9	5	0	1827	2	8	1	1	19	253	19	8	7	2
OTU 10	30	5	47	0	4	49	0	0	9	35	0	2	5	34	40	0	1	1	9	0	35	0	4	48	1	4	24	9	12	0	93	7	1	28	0	8	4	7	8	0	0	7	3	10	1	8	14	11	0	32
OTU 11	186	7	162	10	54	41	22	13	1	41	19	173	204	40	67	18	27	339	112	53	7	51	0	245	25	4	1	16	69	4	45	8	15	27	223	84	32	87	49	24	46	96	82	18	103	86	9	91	41	41
OTU 12	26	103	9	38	114	73	141	129	116	11	48	10	33	177	7	58	47	222	16	54	11	75	38	119	67	60	26	19	19	15	37	2	9	34	18	1	16	39	3	56	31	8	26	7	31	54	6	42	46	12
OTU 13	21	0	0	0	37	0	0	0	1	0	0	0	3	0	0	7	0	0	0	0	0	12	0	6	14	0	0	0	0	0	7	0	5	0	64	0	0	2	52	0	0	0	0	0	2	0	0	0	1	0
OTU 14	23	0	0	5	0	2	25	12	0	0	6	11	0	6	0	2	3	1	3	89	0	16	2	16	0	24	0	0	8	6	17	0	0	154	13	0	64	11	0	1	9	43	12	0	0	12	0	15	0	0
OTU 15	0	0	0	0	0	1	0	4	0	0	0	0	0	0	10	0	0	0	0	39	3	0	0	1	0	0	0	90	4	0	0	65	0	0	0	0	74	1	0	0	0	0	0	1	0	50	0	0	0	1
OTU 16	0	0	0	0	0	0	0	0	0	0	0	0	0	0	5	3	0	10	0	0	0	0	0	0	0	0	0	0	0	0	11	3	0	0	0	0	0	0	5	0	0	0	0	0	0	0	0	0	0	0
OTU 17	34	35	1	9	222	165	1	92	23	1	12	30	5	0	31	27	0	96	4	74	0	0	16	174	12	11	5	2	12	0	5	19	143	32	514	3380	60	301	257	0	283	49	107	5	7	0	126	4	4	11
OTU 18	6	116	4	12	190	80	5	135	31	56	33	17	5	14	0	13	6	73	27	19	0	73	4	43	24	8	0	1466	7	6	66	1130	257	12	145	3	4	95	150	13	31	35	16	21	3	158	62	10	63	48
OTU 19	0	0	0	0	0	0	0	0	0	0	0	0	0	0	0	0	0	0	0	0	0	0	0	0	0	0	0	0	0	0	0	0	0	0	0	0	0	0	0	0	0	0	0	0	0	0	0	0	0	0
OTU 20	1	22	54	0	101	162	125	215	4	128	47	31	8	119	39	32	3	113	4	191	33	58	2	0	1	0	37	41	35	98	52	30	8	98	92	5	129	24	57	0	189	17	14	0	841	52	1	38	2	1
OTU 21	0	8	83	3	93	0	2	3	43	0	43	3	1359	35	152	417	0	2	4	73	21	16	10	9	21	2755	82	424	0	57	40	455	9	140	69	949	31	29	29	23	50	46	20	23	806	78	56	12	37	39
OTU 22	21	27	117	13	67	8	9	15	359	8	7	93	0	5	20	121	53	103	75	37	17	60	208	5	69	46	56	26	5	20	158	2	120	13	259	1	37	142	94	30	9	218	45	38	0	83	6	6	17	76
OTU 23	0	6	1	0	26	0	12	44	50	9	57	67	3	4	20	623	0	0	57	1	1373	11	30	0	10	171	15	0	24	0	0	15	8	389	11	76	26	19	0	0	16	53	55	0	0	2	2	32	2	0
OTU 24	1	1	1	0	1	0	3	0	25	9	8	13	13	1	28	1	0	10	0	2	1	19	7	0	3	30	3	19	0	95	0	3	0	64	47	0	9	58	22	2	8	79	0	1	6	0	4	0	8	2
OTU 25	0	338	0	22	0	16	0	0	0	0	3	0	0	2	0	0	0	0	0	0	0	0	0	0	9	0	0	0	0	0	0	0	0	0	0	1	0	0	0	10	0	0	0	0	0	0	0	0	0	0
OTU 26	0	6	70	0	0	0	1	1	0	2	24	1	0	3	33	0	2	0	0	0	0	3	0	0	3	0	0	0	108	0	0	0	0	11	10	0	0	0	4	9	0	0	0	0	0	0	79	0	46	0
OTU 27	1	0	4	1	0	0	0	0	0	0	0	0	0	0	0	0	0	0	0	0	0	0	0	0	0	0	0	0	0	0	0	0	0	0	0	0	0	0	0	0	0	0	0	0	0	0	14	0	0	0
OTU 28	8	159	760	341	79	10	21	33	140	378	61	90	1014	0	413	113	135	16	58	218	48	1	81	61	40	0	934	254	0	30	76	476	9	1	103	1	132	26	141	550	47	40	61	7	464	2248	1023	64	44	9
OTU 29	18	58	2	7	11	1	22	47	2	8	35	88	16	1	10	62	8	12	65	32	15	185	0	60	46	88	0	12	68	1597	16	22	0	5	23	161	64	34	0	1	50	43	27	3469	23	31	1	22	49	844
OTU 30	0	0	0	0	0	0	0	5	0	0	0	0	0	0	0	0	0	0	0	0	0	0	0	0	0	0	0	0	0	0	1	0	0	1	0	0	0	0	0	0	2	27	0	0	0	0	0	0	0	0
OTU 31	19	33	53	44	0	0	0	44	24	0	7	15	50	4	1	77	2	63	2	67	1666	0	4	1	1387	1	0	0	733	61	0	5	0	29	1	14	78	0	5	92	0	20	14	12	14	26	0	2	34	17
OTU 32	17	84	65	10	38	2	7	8	98	29	14	3	11	47	78	62	90	30	2	45	62	9	40	72	151	36	16	488	86	13	33	7	18	60	50	791	140	388	86	54	6	96	29	12	14	29	61	2	4	17
OTU 33	0	0	7	0	0	0	0	0	0	36	0	0	2	0	0	0	0	0	0	2	0	0	0	32	0	0	0	0	1	0	0	0	0	0	0	0	0	0	0	0	0	0	3	0	0	0	0	0	5	1
OTU 34	36	78	0	28	3	4	55	41	123	39	0	32	14	112	43	132	83	295	18	0	97	43	69	47	12	2	19	14	0	40	2	41	165	0	11	2	35	0	11	58	5	12	3	36	8	76	64	229	46	72
OTU 35	7	0	159	924	24	45	642	34	91	11	64	43	0	0	26	4	13	46	61	57	132	196	52	6	20	9	65	5	41	111	0	0	2	141	4	1	34	2	0	1714	94	3	54	6	7	14	76	29	96	12
OTU 36	4	104	24	18	21	44	11	3	7	35	77	5	0	24	1	52	2	1	0	21	111	19	5	5	17	3	4	1	2	3	14	9	0	34	0	10	20	5	934	19	39	0	11	1	0	27	38	2	6	5
OTU 37	0	0	29	6	0	2	0	3	32	0	1	1	0	17	0	7	15	0	0	16	0	0	40	1	1	90	0	0	0	1	0	2	0	0	0	21	2	1	0	21	6	75	0	0	0	4	0	2	0	0
OTU 38	145	135	26	8	35	129	83	0	3	0	21	94	76	33	0	19	0	166	84	4	4	2	7	223	1	1	29	3	46	7	39	1	186	26	135	1	4	96	140	19	37	25	471	46	60	15	0	80	14	86
OTU 39	0	268	6	0	0	1	15	0	0	0	31	8	5	0	0	0	0	1	0	0	16	5	0	1	1	0	0	0	5	9	0	0	1	4	2	0	16	0	0	0	0	1	57	0	0	7	0	1	34	0
OTU 40	4	33	54	13	10	60	77	40	61	9	18	5	16	152	5	70	2	1	0	32	22	77	31	5	38	122	17	14	82	29	7	12	1	98	0	61	0	3	26	76	73	11	3	0	5	8	53	19	149	1
OTU 41	75	253	4	28	9	48	14	97	21	1	1	48	3	1	14	67	2	0	40	1	3	8	6	138	0	1	17	1	53	12	7	1	91	16	160	0	25	32	42	90	3	8	12	12	14	17	3	4	26	27
OTU 42	45	1	13	2	1	8	2	1	35	3	0	0	0	0	2	29	0	11	0	121	0	1	4	45	5	0	0	17	0	6	4	1	5	0	6	0	48	0	0	0	0	20	43	2	0	0	0	0	60	5
OTU 43	0	0	10	0	0	0	0	0	0	0	0	0	0	0	0	0	0	0	0	16	0	0	0	0	0	0	63	0	0	0	0	0	0	0	0	0	0	0	0	0	0	0	0	0	0	0	0	0	0	0
OTU 44	0	0	0	0	0	0	0	0	14	0	1	0	0	0	0	16	0	50	1	34	0	4	1	0	0	1	0	8	0	0	6	2	14	1	12	0	6	0	1	0	0	0	0	0	0	2	0	0	2	0
OTU 45	87	46	15	17	44	40	58	32	22	81	249	51	101	68	39	4	181	114	36	14	8	237	6	158	89	107	24	1	3	10	15	129	22	134	74	9	30	41	22	26	108	31	24	4	40	28	46	2	77	5
OTU 46	4	15	2	23	6	596	5	22	56	20	36	32	60	42	0	182	34	128	15	219	80	22	27	20	156	1	14	7	32	19	14	51	34	34	71	7	118	64	3	47	44	28	48	1072	15	8	32	13	60	2204
OTU 47	13	0	1	6	0	0	3	21	0	3	0	0	0	0	47	14	1	0	0	0	4	4	0	68	0	0	3	0	0	14	0	12	0	0	4	0	0	0	0	18	104	0	86	0	0	20	155	10	0	0
OTU 48	26	60	34	12	133	20	30	76	178	5	49	963	40	13	54	61	97	4	503	24	52	190	70	21	68	13	647	467	196	49	4	16	58	69	1	6	23	28	23	21	23	33	19	50	34	8	18	418	1	34
OTU 49	0	13	45	2	0	37	0	22	2	35	64	0	16	0	59	0	9	2	3	37	0	27	0	2	1	1	8	1	51	9	25	1	69	24	0	0	1	3	14	26	0	59	13	0	13	1	0	9	23	0
OTU 50	1	67	72	3	31	117	8	154	15	1348	9	22	110	28	2358	13	12	46	0	6	45	38	6	4	17	47	5	2	11	114	0	36	42	19	95	0	3	45	84	34	189	166	28	6	37	20	149	8	44	21
OTU 51	10	4	105	19	11	95	7	26	0	3	62	61	4	2	16	4	22	0	89	84	11	1	0	13	42	3	0	0	2	6	22	2	21	0	49	0	33	72	9	64	1	67	5	15	0	0	4	6	214	22
OTU 52	55	48	204	9	151	63	10	224	37	1	187	98	8	28	106	26	46	232	21	16	108	205	11	114	185	22	45	19	755	4	64	802	65	63	40	14	9	49	58	28	64	7	18	3	6	30	21	34	242	8
OTU 53	0	0	0	0	1	0	0	0	0	0	0	0	6	0	0	0	2	0	0	3	0	0	0	0	0	0	0	0	0	0	0	0	0	0	0	0	0	0	0	0	0	0	6	0	0	0	0	0	0	0
OTU 54	21	27	4	41	40	17	13	22	10	60	134	78	198	41	97	173	26	73	16	27	106	249	15	96	61	191	69	6	70	97	0	0	48	19	104	32	8	40	124	56	199	60	31	30	108	67	43	6	176	67
OTU 55	0	0	0	0	0	1	0	0	0	0	0	0	0	0	0	0	0	0	0	0	0	0	0	0	0	0	0	0	4	0	0	0	0	0	0	0	0	1	0	0	0	0	0	3	0	0	0	0	0	1
OTU 56	0	110	33	5	11	10	2	22	19	9	0	1	0	20	1	40	100	0	1	0	4	0	4	0	45	50	48	7	0	2	0	0	0	0	28	0	1	32	26	6	13	47	0	3	0	8	27	2	74	6
OTU 57	106	42	64	74	451	651	15	124	69	48	112	136	186	151	3	93	11	144	69	16	4	208	29	175	168	45	162	213	171	123	182	118	5	207	505	42	22	123	209	138	257	48	1915	33	70	204	317	300	72	63
OTU 58	2	0	19	4	0	35	0	0	26	2	0	9	14	14	0	4	1	6	0	2	3	19	5	0	2	0	101	1	25	4	0	13	0	1	0	0	0	18	0	0	52	16	35	1	4	74	87	12	33	1
OTU 59	5	69	106	0	100	7	35	0	17	13	82	52	41	51	9	27	248	24	35	156	0	10	5	60	2	11	0	0	8	18	37	2	28	7	51	0	107	45	33	0	0	61	59	0	27	34	69	33	19	0
OTU 60	1	44	1269	115	59	46	23	399	45	357	19	17	5	69	1047	37	81	72	0	174	59	386	25	63	674	11	683	12	396	42	5	12	97	64	186	9	1933	46	140	150	1273	105	80	5	0	72	139	23	124	13
OTU 61	10	255	6	2	594	32	33	42	222	55	198	27	4	24	14	67	52	40	28	283	8	83	93	102	15	0	38	2	140	3	93	0	32	67	47	0	82	29	637	5	213	39	4	76	3	30	28	4	1	123
OTU 62	3	0	0	0	11	1	12	0	4	0	1	0	0	1	4	4	0	8	0	0	0	1	1	0	3	5	0	0	4	4	0	0	0	0	12	6	602	2	0	0	3	1	0	0	0	37	4	5	0	0
OTU 63	40	87	0	14	95	98	24	0	18	3	80	88	48	45	1	610	64	0	39	0	14	0	6	83	21	189	0	61	0	0	37	21	3	318	261	69	0	75	75	25	1	0	0	6	23	34	19	27	89	10
OTU 64	88	40	12	22	16	25	9	42	91	53	876	127	8	87	8	21	11	111	83	49	45	53	40	212	98	33	22	7	74	32	21	23	78	80	36	10	76	84	74	25	130	25	5	13	18	129	32	62	53	32
OTU 65	0	0	0	0	0	0	0	0	1	1	2	0	0	0	0	0	0	0	0	0	0	0	0	0	0	0	0	0	0	0	0	0	0	0	52	0	0	16	0	0	0	49	0	0	0	0	0	5	0	0
OTU 66	8	51	4	8	8	41	13	88	287	1	5	3	0	60	35	8	330	131	0	133	75	21	175	26	23	23	3	19	29	6	11	1	32	8	64	1	40	32	59	29	39	62	39	2	5	0	58	1	2	5
OTU 67	12	86	0	30	7	3	2	31	59	36	67	3	56	11	2	43	7	47	0	177	4	115	21	1	23	4	5	10	60	32	8	3	257	6	4	8	174	1	2	65	22	108	2	6	22	8	10	0	98	13
OTU 68	13	33	52	8	973	0	14	121	53	3	75	0	43	1	14	10	41	1	0	3	97	0	29	17	90	206	1	0	5	54	0	45	65	64	7	41	0	12	2	81	47	12	43	0	47	92	104	0	3	1
OTU 69	28	22	30	49	21	39	15	90	0	5	5	1	6	55	10	32	18	88	2	15	59	21	0	26	25	2	30	19	4	70	68	1	33	23	1	1	7	0	3	80	56	11	116	9	12	9	23	9	10	22
OTU 70	65	28	0	5	0	21	0	14	34	2	4	10	6	0	0	33	0	183	0	9	0	1	9	6	60	7	6	1	0	43	0	6	0	0	4	1	0	0	15	8	0	50	0	0	3	2	2	9	5	0
OTU 71	9	2	3	0	5	44	4	2	127	1	1	0	0	59	1	9	17	12	3	7	18	0	24	23	0	3	1	0	3	31	2	19	4	17	3	0	11	2	0	1	9	0	1	1	0	0	61	0	0	4
OTU 72	90	9	10	0	8	768	4	141	90	1	152	1	0	25	10	78	20	115	3	61	14	1	60	103	36	3	71	49	132	14	91	47	30	2	10	2	56	12	31	10	42	11	23	3	1	11	17	69	3	7
OTU 73	2	156	33	3	7	61	6	35	40	0	5	9	34	34	103	56	153	14	352	45	0	0	29	50	74	98	132	14	7	8	13	11	2	196	56	7	47	15	33	10	52	0	11	4	9	0	13	1	30	10
OTU 74	4	1	46	4	0	4	233	18	179	5	18	7	29	506	14	144	0	305	0	161	23	21	73	3	17	95	0	0	14	92	5	0	78	15	35	5	35	61	27	3	22	9	9	0	35	4	87	1	35	0
OTU 75	28	3	96	17	36	11	28	103	18	14	101	9	86	24	7	7	89	192	1	14	68	12	17	128	141	419	12	30	7	20	80	36	1	1059	245	98	27	135	184	17	83	315	1	24	39	182	26	16	26	41
OTU 76	66	10	53	1	18	181	0	0	2	6	1	0	8	1	13	0	4	0	0	16	5	0	0	121	2	26	0	17	20	0	106	0	53	1	174	0	1	138	85	5	26	5	0	2	0	55	3	0	0	4
OTU 77	108	57	16	1	28	5	19	44	21	18	4	46	42	96	69	57	32	10	14	35	29	0	5	70	20	1	8	26	8	41	3	14	52	9	65	2	101	15	17	18	9	164	7	6	34	2	3	71	62	8
OTU 78	17	57	66	9	21	61	12	79	2	5	99	0	1	8	2	50	27	63	0	19	4	14	2	87	5	59	39	0	23	45	10	4	73	45	1	8	19	27	9	9	56	10	0	44	0	35	38	0	1	91
OTU 79	139	146	90	44	285	242	8	188	209	56	955	189	184	5	16	134	245	168	102	82	371	93	73	408	459	237	2015	160	251	688	163	198	37	549	376	49	1827	160	183	96	209	432	346	42	108	433	138	163	125	75
OTU 80	6	56	3	20	4	37	159	62	5	14	60	9	16	165	109	84	23	137	405	117	9	77	2	5	75	29	44	3	21	37	92	28	115	69	15	30	32	796	5	9	8	74	3	4	3	145	135	25	5	5
OTU 81	5	47	22	8	56	30	45	199	290	21	156	36	583	32	24	26	56	170	21	53	91	9	142	21	71	1	13	156	2	2173	70	60	24	10	10	1	22	2	10	24	36	12	67	30	256	19	20	47	1918	51
OTU 82	895	0	7	10	39	13	156	11	0	3	153	9	0	182	2	69	11	78	1	11	146	37	0	1869	58	178	9	8	1	1	1	5	4	127	24	36	2	0	2	75	145	15	2	20	2	45	166	3918	211	26
OTU 83	0	0	0	3	2	1	0	1	1	0	0	2	0	0	2	0	45	0	4	172	69	12	0	0	0	4	1	0	0	6	7	47	3	66	1	10	32	1	0	6	1	1	6	0	0	1	0	0	0	2
OTU 84	0	89	73	29	0	0	24	10	0	34	14	0	7	14	0	127	0	0	0	0	7	43	0	3	2	1	23	11	0	17	3	6	0	28	161	1	4	26	29	30	59	66	12	0	6	21	0	6	43	1
OTU 85	0	2	0	29	1	0	7	0	83	9	108	0	0	0	3	30	6	1	0	0	0	0	54	0	0	0	1	21	42	0	0	7	0	6	1	705	0	6	0	3	4	37	21	4	0	93	10	1	20	14
OTU 86	0	3	0	0	0	0	0	0	0	0	26	0	0	0	0	0	0	0	0	52	0	14	0	0	0	0	17	14	0	0	0	0	1	57	1	0	8	1	0	0	0	0	0	0	0	0	0	3	6	2
OTU 87	17	104	0	1	100	1	40	1	0	0	3	19	0	90	3	13	0	52	7	25	0	1	0	0	2	0	0	6	1470	0	0	0	8	0	5	0	0	1	0	0	0	10	40	0	0	4	0	2	30	0
OTU 88	0	0	0	2	0	0	0	10	59	1	0	0	0	3	1	1	0	1	0	46	0	0	28	5	17	1	1	1	10	0	0	0	15	0	0	0	9	0	10	0	0	0	2	0	0	0	0	0	597	0
OTU 89	0	6	61	2	22	0	85	2	11	42	77	1	0	358	0	37	113	227	0	2	17	91	9	3	0	5	0	0	9	0	1	3	0	9	9	5	0	1	5	8	3	14	5	8	0	1	0	1	32	15
OTU 90	0	0	17	0	27	0	0	2	0	7	0	0	2	0	0	3	0	23	0	0	0	6	0	1	13	1	0	0	0	0	0	0	38	0	0	3	0	0	0	0	43	0	0	0	0	0	0	0	0	0
OTU 91	0	0	0	0	22	1	3	0	0	6	0	0	0	2	0	0	31	0	0	0	0	6	0	0	0	0	0	0	0	6	10	0	0	0	40	0	0	28	0	0	112	0	5	0	0	5	9	0	0	0
OTU 92	0	8	13	0	45	0	46	1	11	1	41	17	0	26	3	0	0	94	14	0	0	6	4	4	0	1	0	0	3	0	0	26	6	0	66	3	0	32	39	0	0	0	7	16	2	3	0	5	2	27
OTU 93	0	0	21	0	0	0	8	0	0	3	0	1	0	0	0	1	0	0	0	0	0	0	0	0	0	1	0	0	0	0	0	0	4	0	9	0	0	0	0	0	0	0	0	0	0	11	0	0	0	0
OTU 94	24	21	24	6	1	1	38	1	193	19	108	10	83	41	27	150	121	18	7	144	22	13	62	6	16	2	103	61	3	6	45	103	8	118	20	3	144	32	12	6	32	90	49	0	29	18	30	12	3	2
OTU 95	5	0	5	19	1	118	2	730	0	0	0	31	11	1	7	40	3	2	12	0	4	126	5	32	89	21	0	0	0	371	4	0	78	71	86	3	5	10	26	33	108	5	1	0	4	6	124	12	2	1
OTU 96	0	0	0	0	0	0	0	10	0	1	0	1	41	45	0	0	0	128	0	1	0	0	0	0	6	0	0	0	0	0	0	0	0	0	0	0	0	1	0	0	14	0	0	0	24	1	0	0	68	0
OTU 97	2	0	0	0	0	1	0	0	0	0	0	2	0	4	9	0	1	0	0	9	2	0	0	0	2	0	0	0	0	0	0	0	0	2	4	0	0	0	7	0	0	0	0	0	0	48	1	0	27	0
OTU 98	3	0	0	29	1	4	3	37	16	5	0	49	2	10	0	0	0	0	18	3	16	4	6	3	7	0	3	12	0	3	0	49	124	0	0	15	0	4	0	66	10	13	8	0	0	0	4	1	19	0
OTU 99	1	57	44	14	89	32	24	368	124	1	272	8	9	26	8	328	6	21	0	49	43	1689	69	1	108	36	20	10	35	106	21	8	3	0	16	25	16	28	56	18	68	101	43	2	9	4	2	0	15	1
OTU 100	0	35	15	0	30	28	0	64	5	5	11	9	35	39	7	1	15	13	17	5	1	37	2	10	5	57	4	6	22	14	2	0	19	58	67	9	2	16	7	0	25	0	1	1	16	22	22	53	1	2
OTU 101	0	0	0	1	0	0	0	0	0	0	8	19	1	0	4	19	0	4	11	0	0	0	0	0	15	20	0	0	3	1	2	0	0	0	0	0	0	5	0	1	0	0	4	0	0	0	0	8	4	0
OTU 102	0	2	0	0	13	13	1	22	59	3	2	0	0	1	0	0	148	1	3859	7	1	0	47	0	12	0	0	0	16	36	0	47	33	69	1	0	16	0	2	0	66	0	0	2	0	6	0	2	7	4
OTU 103	11	118	0	0	3	1	1	0	3	7	0	11	20	0	2	10	1	1	9	6	1	0	8	7	159	42	9	6	5	15	13	2	1	10	15	22	0	54	6	0	72	1620	221	2	1	1	66	0	0	2
OTU 104	135	28	9	14	55	96	4	82	29	22	1	68	9	31	15	151	176	70	24	126	47	25	29	179	178	1	74	57	147	210	43	10	17	40	129	242	52	25	84	38	93	6	79	62	20	182	3	32	57	105
OTU 105	1	15	15	0	0	0	3	0	29	2	0	0	0	0	0	7	0	0	1	3	7	0	11	0	2	2	0	1	0	0	7	2	0	21	1	0	0	0	0	1	2	0	0	0	3	0	0	0	6	0
OTU 106	0	29	28	0	1655	9	18	6	58	0	29	109	0	87	7	3	0	0	44	0	2	0	34	9	3	139	0	0	0	5	2	0	9	0	0	72	7	6	9	0	0	6	0	0	0	0	0	36	3	0
OTU 107	0	12	52	12	16	1	0	3	251	13	0	13	1	67	23	12	2	41	5	0	6	33	139	0	264	5	117	3	0	88	0	27	4	0	0	0	0	0	0	22	0	25	18	8	3	16	0	0	0	9
OTU 108	22	63	27	28	14	0	2	55	0	0	63	2	0	10	0	0	329	8	0	2	28	3	0	9	0	3	5	1	32	62	16	7	14	43	0	6	0	14	20	74	0	2	4	1	1	2	13	17	11	3
OTU 109	0	0	0	0	0	0	0	0	0	0	1	0	0	0	0	0	0	0	0	0	0	0	0	0	0	5	0	0	0	0	0	7	4	0	0	0	0	0	0	0	0	0	0	0	0	0	0	0	0	0
OTU 110	3	118	37	2	30	161	56	13	74	1	2	1	65	42	0	8	10	13	0	5	20	147	75	10	9	3	50	0	58	12	15	25	14	28	9	1	1	11	5	31	11	11	60	6	42	204	4	16	8	8
OTU 111	0	6	0	0	0	9	0	0	4	0	0	1	1	0	0	10	0	42	0	1	1	0	7	0	0	5	0	0	0	0	0	0	3	8	6	0	3	0	8	4	0	0	8	0	0	1	0	0	0	2
OTU 112	0	0	0	2	22	1	2	6	4	57	5	0	0	3	76	14	7	41	0	0	0	0	3	0	2	2	0	49	11	0	2	48	0	1	53	1	1	0	57	8	0	0	0	1	0	40	1	0	0	3
OTU 113	0	0	24	0	4	0	0	4	3	0	13	0	0	0	0	4	0	0	2	53	0	0	0	0	0	0	0	0	0	0	0	0	4	11	0	0	0	0	0	0	0	7	0	0	2	0	0	0	1	0
OTU 114	46	33	48	11	52	46	13	25	428	107	252	16	51	61	2	10	845	68	10	210	242	45	250	17	45	82	61	5	150	53	1604	13	20	23	24	9	50	9	12	8	146	135	36	525	62	12	3	20	28	1075
OTU 115	14	5	1757	17	56	59	71	233	4	641	34	95	32	22	1287	54	144	17	44	96	120	124	5	43	116	46	457	9	57	7	132	36	32	87	14	0	18	13	1	6	53	0	13	0	14	37	1	28	24	0
OTU 116	357	43	1	2	1	129	1	66	287	21	28	105	52	4	17	5	32	164	52	140	16	26	137	1	96	9	80	3	34	49	3	0	11	168	13	0	108	14	17	7	127	126	9	0	6	80	8	17	37	3
OTU 117	7	3	170	30	15	88	0	84	113	118	47	25	0	23	19	11	77	0	1	13	66	141	54	9	38	368	3	15	83	1	40	34	0	32	16	77	45	8	7	27	0	31	29	3	4	49	36	13	5	7
OTU 118	2	1	0	1	0	35	0	2	17	1	0	6	0	0	0	2	0	0	2	0	0	0	16	1	0	0	0	16	0	0	10	0	0	0	0	2	13	11	3	1	0	0	1	11	1	0	61	4	44	13
OTU 119	4	0	54	109	15	61	68	14	236	6	20	4	229	50	44	116	41	360	11	25	44	53	225	15	56	13	79	31	59	8	35	79	39	6	14	11	0	2	40	235	11	77	10	0	92	45	2	30	18	1
OTU 120	14	11	0	0	37	0	24	0	51	0	122	65	8	11	0	0	1	1	18	0	0	0	26	14	54	0	1	0	6	0	1	5	0	3	0	1	15	0	8	5	0	0	3	0	4	12	0	37	56	0
OTU 121	1	24	2	0	0	12	0	31	3	33	93	11	0	67	31	10	3	0	3	4	43	17	0	2	10	59	7	5	1	0	27	11	1	44	26	4	6	2	22	13	51	28	8	0	2	37	9	0	32	0
OTU 122	47	145	11	0	129	18	1333	149	15	4	23	26	3	1165	10	28	16	13	31	0	20	155	1	21	370	37	3	0	36	9	2	1	13	3	257	0	4	60	37	0	127	13	38	0	0	0	1	19	15	2
OTU 123	75	101	269	167	63	318	36	129	400	33	148	136	140	82	8	5	502	109	74	222	84	321	230	181	98	35	225	67	86	94	106	309	265	40	211	60	42	110	50	273	249	214	101	86	59	471	157	114	212	160
OTU 124	0	0	0	0	0	0	19	1	10	0	31	0	11	0	1	10	3	68	0	4	0	0	4	10	16	0	0	0	0	1	4	4	3	22	2	0	0	0	0	0	16	43	5	0	11	0	0	1	8	0
OTU 125	66	295	96	52	71	165	84	33	35	11	304	6	275	87	42	77	275	64	8	644	1435	324	26	87	121	33	11	379	144	68	57	377	46	52	62	22	164	12	101	120	248	372	188	1704	116	59	24	35	852	37
OTU 126	0	0	0	1	0	0	8	0	29	14	1	4	0	38	0	0	0	2	0	0	4	0	3	0	1	26	0	0	0	0	0	0	0	0	2	24	0	11	0	0	19	105	33	0	0	0	0	2	0	0
OTU 127	37	21	30	0	0	4	3	44	9	0	33	1	0	4	0	3	131	0	0	8	51	17	2	111	4	25	15	0	18	8	9	8	0	1	18	6	0	4	0	5	21	1	0	11	18	8	2	9	0	20
OTU 128	142	302	117	80	55	274	121	55	192	100	280	90	63	258	366	753	147	780	14	32	58	89	79	153	148	53	20	84	63	118	113	25	645	110	164	14	38	127	573	249	262	137	40	20	13	81	175	18	152	32
OTU 129	0	0	0	5	0	5	0	41	0	0	0	0	6	0	0	320	0	8	0	0	0	9	0	0	0	56	0	18	0	18	0	1	0	276	0	22	3	0	0	19	0	0	0	0	0	0	0	0	0	0
OTU 130	0	31	25	0	4	6	0	61	31	8	56	386	14	0	33	96	101	8	129	20	13	20	14	7	2	11	39	9	7	75	132	0	47	0	16	4	18	5	3	1	28	180	96	40	13	0	31	157	21	80
OTU 131	11	42	4	15	14	26	1	316	142	24	0	47	0	2	30	45	25	5	29	6	0	0	73	8	123	98	13	11	15	201	51	5	0	25	55	16	60	78	19	80	81	1	0	32	0	0	1	69	0	52
OTU 132	1	9	12	33	11	1	32	1	42	12	17	61	40	4	0	0	1	0	0	1	84	0	34	1	13	0	6	0	0	10	10	0	3	0	28	0	0	13	8	45	0	128	23	4	18	25	22	7	3	4
OTU 133	2	0	0	0	0	0	0	0	0	0	0	3	0	0	0	2	0	0	4	1	0	0	0	2	0	0	21	0	0	0	4	0	2	3	0	0	0	0	0	0	0	0	0	0	0	8	0	0	0	0
OTU 134	3	31	32	1	0	8	15	24	29	20	281	31	21	20	0	1	6	5	27	168	41	5	16	14	0	144	49	17	25	36	39	35	4	32	7	43	34	0	2	6	137	157	50	0	20	0	28	41	3	0
OTU 135	16	6	66	37	24	6	22	34	265	42	102	12	5	48	12	10	11	55	1	22	5	9	132	25	0	40	34	7	3	16	71	14	1	4	19	17	79	3	9	88	41	13	23	5	0	79	119	0	32	8
OTU 136	3	0	0	0	30	10	0	12	21	1	99	134	41	26	5	29	166	0	79	309	25	1	24	0	7	0	0	3	10	0	99	1	261	58	111	1	151	44	61	0	40	0	4	0	12	4	0	79	4	4
OTU 137	1	27	19	13	0	46	0	0	29	0	0	17	63	0	32	0	0	4	7	13	1	4	12	1	0	43	7	1	0	1	14	1	84	9	2	6	0	0	0	10	22	0	0	0	41	89	0	26	472	1
OTU 138	0	0	70	0	0	3	52	1	32	0	7	0	1	2	0	1	0	0	0	0	5	2	12	0	10	49	22	0	40	19	6	0	1	32	0	4	18	0	1	1	5	2	1	0	0	6	56	2	5	1
OTU 139	111	27	31	375	185	216	10	121	91	103	35	86	86	20	21	15	13	15	61	30	50	396	26	86	83	28	8	59	121	76	97	2457	1	14	213	1	11	82	38	640	59	22	37	10	44	31	1584	13	50	24
OTU 140	17	132	283	50	58	68	2211	174	273	437	167	29	13	32	45	306	270	98	9	183	11	112	3954	104	137	164	78	56	37	67	77	7	3100	74	272	23	89	43	1529	103	17	336	21	414	23	339	112	17	42	797
OTU 141	0	0	0	0	0	0	10	0	0	0	0	0	0	0	0	0	0	0	0	0	0	0	2	0	0	0	0	0	0	0	0	0	0	0	0	0	0	0	0	0	0	0	0	0	0	0	0	0	0	0
OTU 142	3	0	0	0	0	7	0	0	0	0	0	0	0	0	0	0	0	0	0	0	0	9	0	1	0	0	0	0	0	0	0	2	9	0	0	0	0	0	0	0	8	0	0	0	0	0	0	0	33	0
OTU 143	0	0	15	1	0	0	0	0	7	0	0	0	12	0	5	5	0	23	0	57	0	0	0	0	7	0	0	0	0	18	0	0	0	0	4	2	31	0	0	4	0	1	0	0	0	84	0	0	0	0
OTU 144	3	10	0	0	1	0	3	0	1	5	7	0	1	6	5	45	0	0	0	0	0	0	0	0	0	0	0	0	22	14	1	1	0	3	0	2	1	1	3	0	0	0	0	0	0	0	0	1	17	0
OTU 145	28	642	58	0	32	30	146	58	34	11	3	31	29	343	0	26	109	562	9	103	0	187	22	0	58	1	11	11	7	1	30	3	46	106	12	1	110	363	0	13	82	2	17	1	8	13	19	0	620	9
OTU 146	34	134	50	41	25	5	8	13	7	2699	0	42	5	0	132	18	17	35	33	47	37	0	0	55	42	55	52	3	0	25	65	14	31	7	10	27	18	8	2	113	84	20	96	15	5	7	145	2	92	44
OTU 147	14	4	51	7	23	26	28	70	51	8	0	6	7	52	20	1	195	0	12	2	287	5	53	2	1	8	2	0	31	107	188	0	23	2	0	1	0	5	0	0	0	13	30	61	0	2	0	1	1	101
OTU 148	6	136	60	51	3	4	12	0	2	0	17	7	28	56	33	4	53	1	11	0	17	2	0	1	7	700	13	37	1	35	0	11	1	1757	21	257	14	0	8	47	16	30	1	14	19	55	36	24	67	17
OTU 149	47	42	0	4	6	0	1	8	0	8	72	48	0	2	116	0	4	24	0	33	2	0	0	26	8	7	0	2	18	0	21	0	0	46	12	0	3	6	3	0	22	7	0	0	0	13	18	1	15	1
OTU 150	1	0	1	4379	5	0	0	1	0	29	37	0	0	18	109	0	14	0	7	0	0	392	0	0	0	0	3	4	0	0	0	1	12	5	0	1	0	4	0	74	44	44	0	0	7	10	107	0	0	0
OTU 151	0	4	0	21	18	24	7	0	25	1	1	0	6	2	86	0	64	42	5	98	26	25	2	1	32	19	0	1	4	1	6	2	1	17	122	49	0	23	29	30	8	1	725	2	0	32	4	6	30	2
OTU 152	26	44	2	12	2	43	10	179	68	1	9	5	1	50	54	92	14	57	0	11	5	1	26	3	166	27	4	24	3	20	1	1	13	51	0	1	9	1	10	59	110	110	20	14	0	11	51	6	13	31
OTU 153	0	0	0	0	0	18	0	0	0	0	0	0	0	0	0	0	0	0	0	0	0	0	0	0	0	0	0	0	0	0	0	0	0	0	6	0	1	0	0	0	15	0	0	13	0	11	0	5	0	14
OTU 154	0	0	0	0	0	0	0	0	9	0	1	0	0	0	19	0	0	0	0	0	0	30	3	2	0	12	1	0	0	0	0	0	7	1	3	7	0	0	0	0	11	0	0	0	0	0	1	0	0	0
OTU 155	4	1	0	52	0	75	0	122	9	0	5	0	0	4	2	15	1	12	0	6	5	0	11	3	4	1	1	8	68	1	43	0	4	4	2	0	17	11	0	70	1	45	3	0	0	26	24	0	10	0
OTU 156	9	65	6	8	5	2	12	58	28	13	57	3	50	28	1	140	126	34	21	1190	23	16	17	52	105	7	19	22	41	29	0	20	20	69	148	7	714	47	128	24	154	158	185	121	38	34	14	3	17	40
OTU 157	0	1	14	0	0	0	27	3	1	0	0	0	0	202	0	2	19	439	0	19	0	20	1	0	9	0	0	8	0	0	19	0	0	0	40	2	36	3	0	0	0	22	0	0	0	0	0	0	0	0
OTU 158	0	32	7	0	0	0	0	0	0	0	0	0	1	0	0	0	2	0	0	1	0	1	0	8	2	0	0	0	0	0	1	0	0	0	0	0	0	0	0	0	50	0	0	0	5	0	0	0	7	0
OTU 159	5	84	3	6	1	0	411	7	3	0	6	43	18	867	29	0	5	0	0	1	2	22	1	11	214	1	5	1	164	4	0	3	22	19	17	2	0	7	20	2	142	38	16	4	14	25	46	20	3	4
OTU 160	49	319	20	26	142	74	58	86	169	22	69	117	3	96	91	3	11	51	62	161	23	228	53	81	157	2	49	63	120	119	84	48	62	250	323	19	16	659	88	53	125	28	53	8	4	194	245	24	16	11
OTU 161	547	51	11	0	54	0	66	1	61	34	81	42	23	126	9	10	82	54	43	55	3	20	43	1023	0	30	2	0	1	20	29	7	23	3	70	0	5	90	0	5	55	0	0	1	1299	351	0	50	0	6
OTU 162	3178	281	17	6	26	6	6	71	27	17	53	2	0	7	1	52	15	30	1	14	11	20	20	56	35	26	3	17	47	0	5	3	92	56	7	30	0	0	37	39	19	22	54	1	12	58	33	36	64	3
OTU 163	1	0	0	0	0	0	0	0	0	0	0	0	0	0	0	0	0	9	0	0	0	0	0	0	16	85	0	0	0	0	0	0	0	0	0	3	0	0	0	0	0	0	0	0	0	0	0	0	1	0
OTU 164	0	0	6	0	71	1	0	166	0	0	21	0	0	0	0	0	0	0	0	0	0	0	0	0	0	0	0	9	0	8	1	0	0	0	0	0	0	0	2	0	0	0	0	0	0	0	0	0	7	0
OTU 165	9	1	1	4	7	26	3	20	23	0	4	0	12	0	0	8	34	6	1	1	0	0	21	15	0	8	9	0	2	13	11	13	4	6	6	0	0	3	0	0	0	0	22	5	1	0	36	6	12	11
OTU 166	0	8	0	0	0	0	0	0	0	0	0	4	0	0	5	0	9	0	0	0	0	2	0	3	0	6	0	0	0	0	0	0	0	0	0	0	0	0	0	0	1	0	0	10	0	0	0	16	0	11
OTU 167	2	34	196	148	3	0	5	132	136	0	1	52	0	2	59	96	17	1	41	82	31	21	37	3	102	4	175	2	155	11	6	1	95	87	10	0	60	7	3	0	14	93	2	0	0	57	11	8	5	0
OTU 168	16	4	1	7	43	15	32	55	4	44	5	57	30	39	6	0	2	67	16	0	7	82	1	39	24	30	8	0	73	1	6	0	27	12	1	11	3	0	27	29	27	49	8	13	2	29	30	17	3	26
OTU 169	5	0	0	0	0	0	0	2	0	0	0	0	0	0	0	2	0	0	0	0	0	0	1	36	0	6	0	0	2	0	0	0	0	0	0	0	6	0	6	0	0	0	0	0	0	0	0	0	0	0
OTU 170	0	0	0	3	0	0	0	0	0	11	0	0	0	0	0	0	0	0	0	0	0	0	0	0	0	0	0	0	0	12	8	0	0	1	0	0	0	0	0	0	8	0	0	0	0	0	0	0	0	0
OTU 171	128	98	184	24	133	518	2	3	63	10	134	25	18	1	16	4	48	5	7	63	3	1	26	122	159	0	33	0	5	0	200	8	7	3	522	20	88	241	489	0	11	64	8	16	6	24	0	13	86	21
OTU 172	24	0	0	0	13	12	0	247	0	0	41	0	0	0	0	0	0	0	2	0	0	0	0	18	0	0	0	0	22	80	0	0	0	0	0	0	4	0	0	0	2	0	0	0	0	0	0	0	0	0
OTU 173	0	104	0	0	3	92	0	0	66	3	0	3	0	0	0	23	49	8	6	23	0	18	52	1	0	0	0	0	1	2	0	0	4	1	28	21	0	1	2	1	0	75	5	19	0	0	13	15	0	38
OTU 174	3	65	5	15	4	2	50	0	3	26	45	7	0	6	3	84	35	62	6	54	8	19	1	1	12	29	0	55	25	1	1514	1	4	11	26	4	33	4	23	19	17	0	20	462	2	30	13	4	109	913
OTU 175	26	25	20	1	1	2	5	1	4	46	9	6	8	30	36	6	94	3	35	0	2	14	1	67	2	9	3	7	0	30	2	8	8	1	0	40	13	16	17	16	0	8	40	8	0	2	17	0	1	12
OTU 176	25	1	93	10	2	1	2	25	31	31	159	12	21	0	193	128	25	40	0	25	1	9	32	4	26	40	31	0	18	29	28	14	3	18	0	1	38	50	2	8	18	92	46	20	31	63	0	19	12	55
OTU 177	988	229	27	5	238	102	60	17	67	36	9	47	0	20	56	42	94	84	77	5	71	39	60	99	4	5	11	5	83	0	30	64	5	55	205	0	4	142	240	13	58	24	0	11	1	37	56	9	106	20
OTU 178	67	0	1	28	2	19	1	5	0	0	0	14	0	23	1	60	36	22	19	3	23	0	4	58	4	17	0	1	32	1	2	7	0	0	2	2	2	0	0	8	11	147	0	13	1	1	15	3	0	23
OTU 179	3	8	46	2	2	1	17	470	219	22	0	5	3	2	12	130	69	13	1	2	17	30	115	1	0	1	1	1	0	303	6	10	73	16	6	0	0	9	42	3	13	27	0	20	8	3	0	31	104	43
OTU 180	34	198	73	6	690	42	41	145	331	45	24	790	111	21	62	193	264	22	514	690	45	565	126	46	226	94	55	88	46	68	843	88	310	79	98	316	206	13	7	1	66	122	67	138	58	255	15	335	87	281
OTU 181	3	17	31	28	0	42	40	25	6	0	15	27	12	46	53	1	31	132	16	0	0	0	0	0	53	81	1	9	2	2	1	1	0	64	37	22	1	65	15	38	49	42	108	0	1	2	0	0	4	0
OTU 182	0	0	12	0	0	0	1	0	0	0	0	0	0	0	0	0	3	0	0	0	3	0	0	0	0	11	0	0	0	0	0	1	0	0	3	0	0	0	0	0	0	0	2	0	0	0	16	0	0	0
OTU 183	9	20	0	1	0	2	5	0	9	3	29	0	0	66	2	205	32	0	0	0	26	10	1	6	77	181	4	48	56	0	6	1	1	80	0	19	1	0	2	12	2	0	11	0	0	2	8	19	4	1
OTU 184	0	2	2	1	7	0	0	18	0	29	53	0	0	46	31	35	0	0	0	0	2	8	1	5	2	3	20	2	0	66	4	0	0	1	17	2	3	17	0	1	12	5	39	4	0	0	17	0	10	8
OTU 185	21	17	28	2	20	71	0	11	125	33	0	14	28	25	39	10	19	46	3	25	108	30	74	59	171	29	3	11	15	18	30	68	79	67	101	27	16	9	75	7	82	10	10	0	21	5	32	24	28	0
OTU 186	0	1	0	9	0	155	0	1	0	5	26	1	239	0	1	0	5	0	2	0	0	3	5	1	212	19	22	63	197	0	1	17	1	95	3	2	0	6	37	4	367	0	61	0	139	0	0	31	0	0
OTU 187	18	726	0	53	45	4	22	81	54	10	65	2696	2413	37	8	25	130	0	1192	11	45	8	24	19	28	213	10	469	3	59	17	490	28	87	17	40	19	11	18	7	22	33	414	17	1068	39	12	1400	148	25
OTU 188	64	9	39	38	24	17	16	52	170	36	88	2	29	7	8	76	72	158	6	4	18	45	84	38	15	58	17	36	6	50	33	20	146	4	29	4	3	4	2	75	5	19	6	3	18	181	101	0	0	10
OTU 189	12	23	75	8	55	56	24	1	55	64	64	22	6	64	39	18	20	50	33	111	6	15	968	144	64	48	28	1074	161	82	7	2	2	17	75	36	21	27	85	9	41	172	1	10	4	52	35	4	36	19
OTU 190	0	5	0	0	1	0	30	0	0	0	0	87	1	44	0	0	0	152	35	0	18	33	0	0	0	9	0	0	0	0	14	0	0	23	0	1	0	0	1	0	0	23	0	42	0	0	0	7	0	60
OTU 191	37	12	6	2	8	28	20	74	34	0	47	24	103	61	14	17	8	19	10	133	2	55	19	48	38	58	1	13	14	0	10	23	31	55	14	24	75	18	0	32	9	280	198	24	59	35	211	1	10	73
OTU 192	3	136	49	189	129	50	122	489	5	11	12	6	33	254	26	31	101	53	5	12	6	22	3	8	357	110	659	16	65	135	34	5	3	23	88	10	9	10	30	41	452	354	10	2	33	77	11	17	26	8
OTU 193	11	74	36	1	12	96	128	16	26	1	41	252	26	44	5	0	585	53	141	9	125	37	8	32	0	29	17	0	23	2	335	0	50	5	7	602	3	47	31	5	4	56	14	116	27	24	95	309	8	243
OTU 194	2	33	0	2	146	121	3	52	70	942	0	0	0	6	0	98	0	0	0	8	4	61	30	9	0	57	53	0	0	5	856	1	745	12	13	3	0	133	5	2	67	20	79	121	3	0	2	1	7	258
OTU 195	3	16	2	0	0	61	69	6	0	15	27	2	5	35	9	1	2	56	0	73	133	141	0	1	1	4	82	26	53	68	25	1	0	27	12	0	9	4	7	7	47	1	41	14	1	35	65	20	9	22
OTU 196	2	9	55	1	45	3	1	9	3	27	249	17	73	5	38	4	15	0	5	2	7	0	1	45	72	2	2	4	10	68	0	16	2	28	99	6	3	92	57	1	0	36	2	0	35	2	14	27	5	0
OTU 197	138	248	247	10	261	72	81	22	55	8	82	212	60	51	96	195	103	119	109	127	198	131	29	236	60	135	83	1786	171	35	33	63	158	10	499	54	82	290	179	6	185	107	126	59	22	35	48	31	20	113
OTU 198	3	3	21	0	39	0	0	0	12	2	1	14	0	36	0	221	86	29	19	1	2	0	6	3	0	79	0	0	1	26	1	0	5	1	0	22	1	0	5	3	42	1	0	1	0	9	150	2	1	4
OTU 199	0	0	55	0	4	66	47	1	81	10	0	0	5	20	23	8	4	61	0	3	3	14	49	0	8	0	82	3	34	5	19	0	1	2	0	0	4	9	1	1	22	0	22	12	3	0	115	45	4	31
OTU 200	3	63	6	5	1	27	19	3	20	59	175	134	10	2	37	1	30	74	11	27	14	54	8	48	42	1	4	0	30	2	26	31	39	11	31	5	11	11	43	3	167	17	71	3	8	8	4	131	2	3
