	Host 1	Host 2	Host 3	Host 4	Host 5	Host 6	Host 7	Host 8	Host 9	Host 10	Host 11	Host 12	Host 13	Host 14	Host 15	Host 16	Host 17	Host 18	Host 19	Host 20	Host 21	Host 22	Host 23	Host 24	Host 25	Host 26	Host 27	Host 28	Host 29	Host 30	Host 31	Host 32	Host 33	Host 34	Host 35	Host 36	Host 37	Host 38	Host 39	Host 40	Host 41	Host 42	Host 43	Host 44	Host 45	Host 46	Host 47	Host 48	Host 49	Host 50	
OTU 1	64	251	0	13	216	149	25	60	64	112	10	451	6	25	0	4	57	34	118	7	0	84	49	369	1	29	96	69	69	15	0	24	27	189	19	89	169	128	58	27	108	19	4	0	341	63	708	66	27	988
OTU 2	0	51	21	18	0	5	25	11	37	40	40	0	0	1	0	0	9	22	11	21	0	65	2	6	4	3	11	162	1	37	30	2	0	2	6	0	0	0	1	1	0	1	64	21	2	5	0	0	1	0
OTU 3	5	1	0	0	22	0	12	0	0	97	8	0	32	1	0	0	50	0	1	0	0	3	0	101	0	5	8	13	9	6	4	5	0	58	5	12	0	0	0	17	0	1	5	0	0	4	3	1	0	0
OTU 4	0	0	0	0	0	0	0	0	0	0	0	0	0	0	0	0	0	0	0	0	0	0	0	0	0	0	0	0	0	0	0	0	0	0	0	0	0	0	0	0	0	0	0	0	0	0	0	0	0	0
OTU 5	618	3	1152	36	41	923	152	2	215	38	806	120	214	40	0	32	465	291	596	461	135	578	68	110	43	111	280	0	455	966	164	510	830	271	10	161	0	178	23	2406	96	40	1	998	880	218	222	131	62	291
OTU 6	6	59	0	27	17	22	1	0	9	1	0	2	111	11	1	2	6	0	93	93	5	65	4	18	27	25	0	1	3	1	47	36	0	6	121	14	16	3	29	1	0	4	0	5	0	0	4	1	18	0
OTU 7	57	41	155	48	59	66	61	250	134	355	97	46	181	20	45	6	69	41	288	902	194	25	257	48	48	50	48	42	87	31	512	125	217	386	46	197	116	86	29	30	31	18	52	32	22	69	16	333	30	93
OTU 8	145	271	8	22	70	1437	113	81	1743	69	52	58	73	160	65	68	57	76	63	88	4	151	90	11	111	1	48	180	751	43	54	57	108	4	80	9	1570	84	151	22	6	18	29	127	5	875	72	49	43	80
OTU 9	15	104	0	0	0	0	24	0	0	33	9	0	13	1	114	0	16	0	92	62	117	0	1	3	0	5	499	0	0	89	3	0	12	174	0	0	18	324	0	9	36	4	24	0	0	0	1	6	1	0
OTU 10	97	4	2	2	0	16	0	380	20	40	0	0	0	69	9	32	43	1	127	26	56	2	6	0	132	59	0	0	3	2	6	0	0	0	0	0	20	0	12	21	0	1221	0	1	0	18	9	42	925	1
OTU 11	56	53	40	0	3	52	5	7	0	0	0	10	26	102	12	75	29	30	20	6	8	10	7	34	119	2	26	1	12	11	38	10	27	19	36	3	6	46	18	7	7	11	76	30	9	4	20	56	15	14
OTU 12	26	1	51	12	6	24	4	7	9	37	69	1	118	92	45	303	76	6	42	0	87	16	13	16	30	6	112	9	29	47	59	4	197	13	8	10	2	3	38	44	5	126	3	49	15	9	17	87	292	4
OTU 13	0	13	0	0	6	0	2	0	0	6	0	0	0	0	0	0	16	0	0	0	0	0	6	0	0	6	0	1	0	0	1	45	20	0	0	0	2	11	1	11	0	4	0	0	0	0	0	3	1	0
OTU 14	40	49	0	20	7	3	0	0	6	1	0	0	0	0	14	0	0	0	70	6	91	0	2	15	0	581	13	38	0	3	0	4	21	5	18	15	19	1	0	0	0	73	103	12	0	15	0	17	130	0
OTU 15	0	0	0	0	1	0	0	21	24	0	18	0	93	0	2	0	0	0	0	0	0	0	12	0	0	0	0	1	0	0	2	2	0	0	0	0	0	0	0	0	0	57	0	0	0	17	0	0	63	0
OTU 16	0	0	0	0	0	0	12	0	0	0	0	0	0	0	0	0	0	0	0	0	0	0	0	0	0	0	0	0	0	41	0	15	0	0	11	0	0	0	0	0	0	0	0	0	0	0	0	23	0	0
OTU 17	17	83	104	0	16	0	108	12	21	0	36	2	10	47	5	83	7	4	0	8	20	58	25	34	1	8	14	97	4	2	0	1	1	16	15	0	2	3	1	3	11	68	23	0	0	9	4	3	234	0
OTU 18	14	118	16	77	34	303	43	41	290	21	45	60	9	2	59	5	19	3	78	178	3	90	19	168	81	0	39	79	135	217	4	4	91	67	4	17	271	0	102	15	2	27	70	98	12	116	30	11	7	86
OTU 19	0	0	0	0	0	4	0	0	0	0	0	0	0	0	0	0	0	0	0	0	0	0	0	0	0	0	0	0	0	5	0	0	0	0	0	0	0	0	0	0	0	0	0	0	0	0	0	3	0	0
OTU 20	144	6	0	33	2	24	7	233	91	52	32	1	5	24	3	2	0	6	3	0	1	19	8	0	8	36	11	96	12	0	25	1	9	0	0	21	243	2	20	0	8	5	870	8	8	100	7	38	0	9
OTU 21	34	48	223	3	18	28	2	11	24	5	277	5	23	3	82	5	4	2	7	0	15	57	15	184	73	13	20	8	12	21	27	1	339	85	8	32	5	3	30	3	24	4	26	73	14	26	7	18	54	1
OTU 22	88	15	9	26	18	1	30	54	0	75	12	13	165	8	4	34	15	1	1	50	15	0	0	156	60	6	54	36	3	1	18	71	0	78	91	2	27	38	75	12	8	9	142	11	5	0	3	3	12	33
OTU 23	38	2	4	5	128	74	0	7	3	1	0	17	16	17	7	28	4	22	16	11	0	23	24	22	0	0	5	42	92	10	30	2	21	11	74	2	1	0	0	2	45	10	12	1	4	7	6	22	51	17
OTU 24	6	1	0	37	27	11	2	0	0	82	18	8	0	22	82	16	5	22	19	0	0	2	0	3	60	18	48	1	14	21	5	21	0	0	61	0	10	36	43	2	0	52	42	12	15	10	1	32	64	13
OTU 25	0	10	1	0	0	0	0	0	0	0	0	0	79	4	0	0	0	0	113	0	0	20	11	0	3	0	0	0	0	5	30	0	0	0	0	0	1	33	0	0	0	1	0	0	0	0	0	4	0	0
OTU 26	0	0	8	0	0	0	3	1	0	0	7	0	0	0	0	1	10	2	1	0	4	45	0	4	0	0	0	0	0	1	0	0	1	1	0	6	0	0	0	3	0	2	50	59	0	0	0	0	0	0
OTU 27	0	0	0	0	0	0	0	0	0	0	0	0	0	0	0	0	0	0	0	0	0	0	0	0	0	0	0	0	0	0	0	0	0	0	0	0	0	0	15	0	0	13	0	1	0	0	0	0	0	0
OTU 28	56	53	60	9	126	16	28	15	1	8	22	5	38	450	30	302	57	34	16	46	135	106	10	46	2193	16	16	92	1	64	292	14	25	18	27	0	20	3	27	23	2	41	70	2	2	7	1	111	48	3
OTU 29	140	6	1	1	5	60	73	3	5	5	25	9	37	25	39	15	18	14	24	0	60	27	9	18	1	86	102	37	19	22	16	53	61	5	46	72	5	32	43	10	21	16	21	47	0	0	65	142	24	10
OTU 30	0	0	0	0	0	0	0	0	0	0	0	0	0	0	143	0	0	0	0	0	2	0	2	0	0	0	0	0	0	0	0	0	0	0	0	0	0	0	0	0	1	0	0	0	0	0	0	0	0	0
OTU 31	216	27	171	1	0	11	28	369	45	275	78	6	45	10	0	11	260	6	354	19	11	0	376	9	6	140	5	0	11	10	68	0	70	7	16	0	27	0	42	181	179	12	9	5	8	17	22	188	9	47
OTU 32	134	20	92	3013	1	5	71	18	1	24	32	37	44	120	50	17	89	10	117	50	223	11	20	13	87	3	5	80	14	15	24	35	68	12	37	6	4	42	191	80	88	0	745	25	14	0	67	7	16	72
OTU 33	0	0	1	0	3	4	4	0	0	0	1	0	0	0	7	0	46	0	0	2	0	0	0	0	0	0	0	0	2	9	0	0	0	0	19	0	0	0	0	7	1	0	0	2	0	0	0	0	1	0
OTU 34	1251	26	1	27	4	29	56	30	5	11	2	26	60	88	11	26	176	6	6	44	80	30	21	14	1	47	14	5	455	13	67	8	27	6	5	4	5	14	28	76	142	19	1	60	38	1	15	3	8	65
OTU 35	12	2	46	100	24	0	47	21	108	234	488	59	0	15	0	0	0	38	84	1	79	40	15	6	113	1	25	45	3	0	28	121	117	1	27	17	0	41	92	0	1	31	19	1	23	49	30	12	80	71
OTU 36	57	12	121	4	73	0	154	89	948	13	2	24	0	3	2	5	2	11	59	4	61	0	51	0	0	9	145	94	1	17	3	45	0	0	12	0	5	32	33	0	7	10	0	18	8	448	54	40	31	23
OTU 37	5	0	11	0	0	0	12	0	2	0	6	0	0	0	6	0	0	0	3	0	1	0	0	1	0	0	1	0	0	1	14	34	1	0	1	13	0	3	1	0	0	2	0	25	6	16	1	3	0	0
OTU 38	54	89	75	14	477	16	13	99	15	191	15	0	4	172	0	29	71	221	11	0	83	12	6	95	119	9	193	231	8	19	0	942	45	50	16	60	9	60	2	20	152	26	134	7	2	15	0	89	132	1
OTU 39	1	16	20	0	0	10	0	0	0	3	7	0	5	0	9	0	6	0	0	3	0	31	2	0	14	0	18	37	4	17	0	1	0	0	1	0	2	0	0	6	0	34	1	8	1	0	0	59	53	3
OTU 40	0	58	77	3	18	111	88	35	9	14	31	19	88	273	19	210	14	2	0	3	3	29	31	10	51	105	141	16	21	133	167	6	77	11	14	6	79	32	1	17	7	11	36	49	0	24	0	77	25	30
OTU 41	58	3	0	7	5	2	2	0	22	11	2	29	123	68	91	52	0	2	3	20	12	8	29	0	12	3	22	0	7	12	93	3	54	0	25	4	0	1	92	0	6	11	14	69	3	3	1	11	21	5
OTU 42	32	0	268	39	64	0	17	0	0	5	0	0	5	8	903	37	0	0	0	19	1	3	35	13	0	1	1	7	0	53	11	0	0	7	0	0	1	0	27	0	0	21	0	0	3	0	3	0	0	0
OTU 43	0	0	0	14	0	0	0	0	7	1	0	0	0	0	1	0	0	0	0	0	0	0	0	0	0	1	0	0	0	9	0	0	0	0	0	0	0	0	0	0	5	0	0	0	0	0	0	0	0	0
OTU 44	30	15	0	0	0	0	0	25	0	15	11	0	6	0	0	0	0	0	72	8	2	79	0	0	6	5	14	0	0	0	0	3	0	0	0	5	2	0	0	0	15	15	36	0	105	0	0	0	15	0
OTU 45	79	32	32	0	47	0	44	122	6	30	4	11	0	8	278	10	7	4	133	4	23	23	4	105	56	4	18	2	1	91	10	30	6	52	415	80	55	5	27	3	24	1	11	0	8	4	18	32	5	43
OTU 46	76	23	15	18	46	6	5	18	7	74	24	0	15	5	266	46	24	67	25	3	2	16	46	117	300	69	132	155	0	96	271	19	57	54	6	65	55	20	9	11	44	35	44	31	7	5	4	57	88	4
OTU 47	0	17	0	0	0	0	0	0	0	0	4	0	0	40	5	124	0	0	4	2	0	13	0	5	0	1	0	0	0	3	0	12	0	2	15	2	14	0	0	0	0	0	0	0	0	0	0	0	1	0
OTU 48	42	43	4	3	1	18	159	106	17	76	14	2	18	47	167	12	8	14	45	53	106	302	57	30	22	43	32	97	2	19	39	58	14	24	74	10	18	15	47	6	23	70	265	91	16	13	20	35	57	20
OTU 49	80	27	16	0	67	4	14	3	5	1	13	5	7	148	1	33	9	9	0	3	82	0	8	3	0	0	5	5	13	0	4	0	34	1	14	1	1	10	40	665	20	41	24	0	0	0	3	2	76	14
OTU 50	48	5	38	15	8	25	53	19	21	0	3	1	127	96	324	28	11	468	88	18	4	34	16	185	43	1	7	1798	34	17	98	462	41	343	15	2	84	8	24	0	15	48	48	9	0	7	17	45	117	4
OTU 51	25	2	0	5	0	7	27	19	10	0	0	2	0	0	23	0	0	9	99	0	0	100	0	16	32	3	13	1	17	15	0	2	1	7	122	10	3	0	9	0	0	0	12	34	2	1	239	0	56	1
OTU 52	41	236	3	24	24	5	46	93	26	10	76	28	44	47	23	80	76	76	140	40	66	45	55	63	89	8	5	180	0	220	62	5	121	37	177	16	11	2461	59	56	79	32	154	93	7	21	7	56	14	83
OTU 53	0	0	0	4	0	0	0	0	0	0	0	0	0	0	0	0	12	0	0	0	0	0	0	0	0	0	0	0	0	0	0	0	0	0	0	0	0	0	5	8	0	13	0	0	0	0	0	0	5	0
OTU 54	46	53	40	6	1156	1	95	51	147	85	11	30	32	484	35	340	160	6	146	5	138	391	15	49	185	80	36	32	4	17	60	136	90	25	8	21	85	61	13	85	135	5	141	200	5	22	8	113	92	30
OTU 55	0	0	0	0	0	0	0	0	0	0	0	0	0	0	0	0	0	0	0	0	0	0	0	0	0	0	1	0	0	0	0	0	0	0	0	0	0	0	0	0	1	0	0	0	0	0	0	0	0	0
OTU 56	34	0	15	3	4	2	0	12	2	0	10	0	16	3	27	6	20	18	16	46	55	3	13	1	62	11	3	0	3	0	0	1	1	1	52	6	0	7	1	9	37	28	1	3	0	1	0	0	6	0
OTU 57	619	33	15	35	40	133	67	26	38	174	43	22	211	839	12	197	69	40	58	127	119	907	139	74	139	64	25	46	27	5	946	15	32	34	235	47	148	51	45	28	85	54	132	244	2	19	37	47	20	67
OTU 58	1	28	5	0	8	58	2	16	1	0	101	0	2	3	7	0	60	13	1	10	26	13	0	42	60	11	91	107	19	35	44	0	3	26	40	10	38	11	18	1195	0	10	1	14	2	23	0	0	9	17
OTU 59	0	182	16	114	56	4	84	39	0	0	38	47	103	39	0	37	3	11	14	76	18	29	131	216	15	51	102	146	2	12	1	0	4	109	0	64	7	140	104	3	81	5	0	32	59	1	47	46	52	100
OTU 60	52	16	210	83	53	31	87	4	0	33	40	2	24	70	21	78	36	48	25	3	54	75	29	28	66	1378	101	124	22	166	21	6	26	13	24	36	28	51	56	41	4	32	23	21	7	6	1	1383	8	7
OTU 61	6	160	30	18	34	7	74	30	12	17	35	28	38	94	110	49	16	7	27	12	55	317	34	70	77	9	50	20	8	115	46	51	33	29	341	30	0	670	71	14	28	16	107	9	33	23	18	0	2	61
OTU 62	4	0	0	1	138	29	0	11	42	9	4	0	1	21	0	3	3	293	30	11	0	0	0	1	0	0	0	0	8	61	90	611	1	0	0	0	1	1	10	0	13	7	0	14	0	7	3	42	0	0
OTU 63	13	47	0	1	5	0	13	40	5	18	1	0	3	14	38	10	12	0	8	0	24	47	1	20	0	0	85	27	3	18	7	7	0	15	19	0	17	42	1	0	14	74	3	14	1	0	0	14	147	1
OTU 64	41	244	9	44	1	3	10	40	0	26	42	1	243	23	108	56	88	41	158	38	112	131	4	72	3	83	86	208	10	142	22	2	88	40	6	0	1	5	12	835	0	74	267	46	20	1	16	68	88	6
OTU 65	0	5	0	1	0	0	0	0	0	0	0	0	46	0	0	13	6	1	3	0	0	100	0	0	0	0	0	0	0	0	1	0	0	0	0	0	0	0	0	5	0	5	0	0	0	0	0	65	0	0
OTU 66	59	59	6	11	6	0	51	48	86	2	17	55	40	26	2	25	56	14	164	26	9	57	0	19	51	12	52	8	0	5	50	6	31	14	46	1	6	30	201	24	45	2	13	55	11	7	16	5	9	81
OTU 67	5	61	42	4	152	37	30	3	60	27	0	8	1	216	1	96	6	16	4	32	85	169	180	1	0	9	0	17	34	65	2	2	68	0	0	46	24	1	11	2	14	4017	10	70	4	35	17	8	48	25
OTU 68	3	2	0	0	49	41	6	1	18	15	27	0	18	0	14	21	0	0	0	17	13	32	183	5	5	3	0	22	3	0	43	0	4	5	6	10	2	0	19	0	0	0	7	36	0	0	2	3	0	4
OTU 69	49	69	30	13	11	57	0	25	35	6	808	2	6	9	96	24	512	36	136	51	26	22	8	66	108	5	13	29	8	2	216	183	37	34	1	132	13	1129	26	259	2	24	18	0	2	41	3	0	42	5
OTU 70	27	0	0	5	23	2	0	26	0	2	0	0	0	45	170	49	1	7	0	3	24	5	3	0	60	0	57	0	7	8	26	2	0	0	18	11	13	24	16	0	4	0	0	0	0	1	0	36	0	2
OTU 71	13	0	1	0	0	25	1	4	0	18	1	9	0	23	0	42	22	36	4	13	0	0	3	234	0	0	0	122	25	0	50	69	29	120	2	97	3	0	8	6	54	15	102	98	0	0	19	0	37	9
OTU 72	117	6	6	42	4	41	0	27	1	90	19	122	97	93	8	13	2	1	42	45	23	17	0	91	2	6	16	10	3	83	48	29	6	54	112	17	1	18	77	0	1283	13	59	0	90	5	55	3	8	173
OTU 73	0	86	2	11	14	35	45	32	37	7	53	10	7	22	2	20	20	6	14	73	20	21	4	37	0	1	34	18	28	57	28	0	0	28	101	29	24	0	56	7	14	10	25	3	2	3699	1	8	1	1
OTU 74	0	151	36	60	6	2	22	5	0	6	1	13	28	54	55	31	11	3	74	37	92	0	44	24	216	21	142	2	12	71	2	5	46	10	7	49	3989	12	8	4	31	1	29	37	1	7	0	49	2	8
OTU 75	60	20	84	0	60	4	15	17	6	53	11	3	39	9	5	3	64	12	36	164	15	160	5	0	23	27	9	29	2266	90	183	2	27	0	9	27	5	5	2	55	7	4	7	14	7	14	5	2	23	5
OTU 76	14	1	120	4	0	1	24	5	35	5	201	0	0	7	0	3	0	0	146	57	5	7	25	0	1	48	0	0	0	53	4	1	248	0	12	3	1	2	0	0	0	13	0	0	4	20	0	107	9	0
OTU 77	103	59	262	14	6	12	103	28	4	63	1	0	43	32	67	23	3	130	59	5	30	0	25	238	49	7	15	1	39	1	81	223	8	101	32	106	7	21	4	1	75	14	17	6	3	6	0	0	82	1
OTU 78	48	19	12	24	121	0	74	80	16	1	11	2	1483	61	1	103	54	1	29	4	52	42	29	1737	10	36	11	11	6	0	11	4	34	874	8	959	81	7	15	24	1	0	4	15	6	11	3134	249	25	1
OTU 79	147	122	212	124	2135	605	91	58	32	96	298	26	854	160	96	133	395	28	164	109	12	333	117	807	124	96	59	70	233	43	80	86	766	382	124	592	72	13	192	214	157	53	67	68	35	7	18	61	158	83
OTU 80	50	28	57	3	80	178	88	0	4	14	8	3832	91	45	74	134	11	28	16	11	12	12	0	51	165	48	0	11	66	91	2	92	72	24	6	14	15	23	17	3	104	24	19	68	7	7	183	7	53	28
OTU 81	55	43	10	20	135	14	58	78	14	39	0	8	29	1486	77	526	179	21	32	39	24	30	56	74	884	9	235	114	13	33	59	11	35	38	279	524	60	75	15	100	11	6	31	20	12	27	7	71	10	16
OTU 82	14	18	0	0	22	343	10	19	135	11	91	6	0	104	1	84	0	40	19	4	22	25	3	33	0	10	14	4	188	61	2	1	195	20	31	0	229	12	10	0	3	94	68	2	3	63	9	2	55	12
OTU 83	0	2	28	2	1	0	0	0	2	0	11	0	11	19	0	13	1	11	5	68	10	0	0	28	4	1	4	17	0	5	0	1	0	19	8	0	0	11	12	10	2	0	0	2	0	0	0	0	0	0
OTU 84	4	170	14	4	0	0	6	1	1	1	1	0	2	1	0	13	31	28	11	1	7	14	0	0	9	6	7	14	2	37	55	18	13	0	20	42	12	0	4	28	9	1	0	2	0	0	12	5	0	0
OTU 85	33	30	0	5	2	40	0	0	16	0	0	0	13	0	10	0	0	8	0	4	12	21	8	2	0	17	0	0	13	142	14	6	12	1	72	6	0	0	3	0	0	12	1	0	0	3	0	0	43	0
OTU 86	0	0	0	5	0	0	0	1	0	0	0	0	0	16	1	3	0	0	0	16	0	0	11	0	45	0	0	1	0	0	0	0	18	0	11	0	0	0	0	0	0	0	0	0	1	0	0	2	1	0
OTU 87	18	3	0	0	14	0	0	0	0	4	1	0	0	17	3	25	5	1	5	0	36	0	1	17	2	0	0	0	0	20	1	0	0	6	42	0	18	0	27	0	7	0	0	26	3	6	0	15	2	0
OTU 88	0	14	5	0	0	0	0	0	0	4	0	1	0	0	0	0	0	0	0	0	75	6	0	0	0	0	8	0	2	0	0	0	0	0	0	2	4	0	0	0	0	0	0	0	0	0	0	6	1	1
OTU 89	1	0	1	9	28	0	11	2	31	0	1121	2	44	2	0	0	39	31	12	5	13	0	0	10	0	1	24	0	3	229	3	18	4	5	34	6	7	3	84	17	1	6	4	2	0	0	59	0	0	18
OTU 90	1	1	2	0	0	5	0	13	25	5	0	0	68	0	0	17	0	0	0	10	1	0	0	0	0	0	0	0	5	0	0	1	0	0	0	5	0	0	1	0	0	0	0	0	0	10	0	0	0	0
OTU 91	2	0	0	1	0	0	1	0	2	0	0	0	9	0	0	0	0	1	1	9	0	43	0	0	0	0	0	0	0	0	0	0	1	0	0	0	1	1	0	0	0	10	0	0	1	6	2	0	0	0
OTU 92	11	3	1	0	0	2	0	0	13	10	7	1	16	50	0	0	0	0	0	3	282	0	0	37	0	2	0	0	10	0	22	2	0	16	0	63	2	0	0	0	7	8	1	8	0	7	0	26	197	0
OTU 93	6	0	0	0	0	0	16	1	0	0	0	0	0	0	0	0	1	152	13	1	2	0	5	2	5	4	0	0	0	9	0	0	2	1	0	0	13	0	3	0	0	1	1	0	0	2	2	35	0	0
OTU 94	285	9	131	0	4	6	5	195	44	574	49	3	8	15	24	55	17	113	226	209	8	55	26	2	193	251	145	5	4	30	362	8	7	0	34	2	1	82	3	4	84	24	5	31	0	13	0	321	56	3
OTU 95	3	0	36	12	8	0	11	0	0	0	3	2	0	0	0	9	23	10	25	82	0	2	3	0	63	0	6	0	1	0	0	20	26	0	2	6	5	0	0	10	21	4	4	13	0	1	0	2	7	0
OTU 96	0	7	0	0	0	2	43	0	5	0	0	0	0	0	1	0	0	0	0	0	2	0	0	0	0	0	3	0	4	0	0	0	0	0	0	0	50	0	1	0	0	0	0	1	0	1	1	58	10	0
OTU 97	0	0	0	8	366	25	363	3	1965	9	0	2	0	2	0	1	8	0	0	0	1	36	7	0	8	68	0	0	0	0	53	0	0	0	10	0	5	4	32	5	52	0	6	66	0	845	0	189	0	0
OTU 98	1	3	0	35	0	0	27	4	9	1	7	41	0	7	15	2	0	5	47	16	80	84	273	0	0	0	0	0	0	9	1	18	7	0	12	6	0	19	86	0	0	2	6	0	2	0	62	4	0	88
OTU 99	8	18	5	53	1	11	48	4	1	84	14	10	11	79	31	38	96	87	61	75	14	77	7	15	3	10	105	9	22	106	44	26	38	7	19	19	49	47	80	55	3	37	60	1	17	31	35	3	48	42
OTU 100	92	200	38	0	0	50	9	3	5	3	6	5	23	3	25	1	53	7	2	4	4	16	0	1	2	8	11	25	14	153	42	0	0	0	21	6	10	2	2	29	0	30	147	46	0	21	1	9	0	19
OTU 101	4	0	0	34	0	0	0	0	0	0	0	0	0	0	0	8	1	0	1	1	0	0	0	0	0	0	0	0	0	1	2	0	11	0	0	0	2	0	0	1	0	0	0	0	0	1	0	0	0	1
OTU 102	0	0	9	0	14	3	23	0	4	5	1	0	31	0	25	0	1	0	0	24	0	0	81	3	54	1	0	1	3	13	2	45	3	2	11	0	34	0	0	0	0	0	7	113	0	13	7	6	0	1
OTU 103	0	121	7	15	0	1	34	0	0	26	46	25	47	84	0	19	0	11	5	55	0	2	11	83	10	6	4	336	1	29	13	1121	0	45	0	19	0	0	25	0	0	10	57	34	8	0	14	1	5	42
OTU 104	50	17	101	48	3	14	48	0	11	122	66	13	131	36	72	3716	102	112	19	48	69	10	17	8	10	9	95	143	7	41	87	8	175	2	75	17	86	33	37	51	26	13	9	0	9	2	87	79	33	65
OTU 105	6	0	1	0	0	0	0	16	11	0	3	4	18	25	17	27	4	0	4	6	1	0	3	61	0	15	0	14	0	0	26	0	1	28	0	0	4	0	0	3	0	3	1	95	3	6	1	72	1	17
OTU 106	4	277	1	0	0	5	0	0	0	5	19	1	1	7	0	2	8	0	0	0	223	47	7	7	7	28	0	0	0	3	0	1330	0	0	3	0	0	0	1	2	0	0	16	138	0	0	1	30	0	0
OTU 107	0	0	1	1893	0	0	782	1	4	1274	49	126	1	0	12	0	9	7	0	15	21	0	17	34	1	1	0	162	1	5	30	38	1	22	0	1	0	3	207	9	1	1	0	6	67	6	37	6	3	194
OTU 108	7	11	96	5	0	4	2	79	2	22	14	0	0	39	0	69	0	1	0	29	1	162	56	0	1	65	1650	0	1	1	10	2	2	0	118	1	78	864	3	1	43	1	13	12	7	13	1226	6	20	0
OTU 109	0	0	0	0	0	0	0	0	0	2	0	0	0	0	0	0	0	0	0	0	0	0	0	0	0	0	0	0	0	0	0	0	0	0	0	0	0	0	0	0	0	0	0	0	0	0	0	0	0	0
OTU 110	2	12	28	4	114	6	1	16	76	23	10	15	85	27	2	39	28	109	0	7	8	7	0	30	17	16	15	13	8	1708	60	40	1	19	3	10	53	11	5	19	5	17	93	53	0	0	2	31	38	20
OTU 111	0	0	0	0	0	7	12	0	0	0	3	0	20	0	12	0	2	0	0	0	0	0	1	1	0	1	0	0	0	4	0	0	7	0	1	0	0	0	0	0	0	19	0	0	0	0	0	20	49	0
OTU 112	3	0	19	1	10	2	20	7	0	0	8	0	34	3	1	1	0	32	33	6	1	24	26	35	2	5	0	97	0	175	0	2	103	7	0	74	1	3	2	0	0	1	0	0	18	0	9	9	1	0
OTU 113	0	1	3	2	0	2	14	0	0	0	0	3	0	0	0	0	3	1	1	0	2	0	6	2	0	0	0	14	0	0	0	0	0	1	9	32	4	0	3	0	11	0	3	0	0	0	0	1	0	20
OTU 114	9	60	20	2	83	55	93	96	63	9	124	18	27	60	2	17	23	23	16	3	673	19	12	69	28	12	13	88	26	69	259	47	7	47	290	46	1	2	63	4	16	73	6	22	25	26	8	65	26	104
OTU 115	24	193	82	5	39	39	16	47	25	173	158	12	42	35	120	23	6	25	31	107	266	37	116	3	84	18	20	10	16	102	39	103	73	0	4	142	22	15	135	9	64	7	21	32	13	9	19	11	53	22
OTU 116	50	239	70	51	14	16	4	29	13	252	31	36	166	63	17	27	17	75	93	78	17	17	147	44	21	57	56	125	3	105	302	67	44	28	153	166	47	6	71	5	2231	2	130	4	32	9	23	230	21	96
OTU 117	23	57	29	12	10	1	0	48	18	18	32	4	12	151	103	184	1	2	36	0	32	13	5	15	13	3	12	15	5	48	87	0	0	4	37	28	22	11	6	0	0	1	14	21	0	18	4	11	28	14
OTU 118	0	0	0	0	0	2	0	1	0	0	27	0	4	0	93	0	48	0	0	2	0	40	0	0	0	0	176	0	0	0	0	0	8	0	1	0	3	30	0	22	0	1	0	0	0	3	0	0	201	0
OTU 119	73	28	100	10	4	60	46	8	9	476	45	8	20	54	48	21	3	1784	84	138	94	53	27	19	6	0	8	49	1	79	127	30	33	7	11	43	11	7	148	7	53	8	16	33	14	7	14	23	0	34
OTU 120	6	245	1	2	12	6	1	32	0	270	37	0	45	5	6	0	14	6	2	15	73	0	1	10	10	38	0	0	2	0	4	0	0	4	4	0	0	5	1	5	7	1	90	5	0	0	3	29	4	0
OTU 121	12	0	8	7	5	1	0	122	101	1	20	2	5	1	1	7	78	0	52	4	2	4	6	56	7	62	0	9	0	35	30	6	9	30	89	15	26	0	0	46	10	0	10	30	1	79	0	197	0	12
OTU 122	6	14	28	0	9	2	54	4	1	95	34	8	88	0	62	0	6	1	27	2	41	10	1	7	9	52	16	76	0	333	109	2	26	4	2	5	5	17	24	9	98	35	2	11	2	1	10	0	29	7
OTU 123	182	1576	125	28	1639	164	125	62	48	206	68	52	198	204	83	110	41	227	53	152	273	391	3680	145	88	144	174	364	59	200	157	155	378	73	179	10	106	133	100	25	316	56	882	74	16	34	42	101	264	58
OTU 124	0	0	0	13	0	0	0	11	0	0	0	3	11	0	0	0	1	1	20	0	48	0	0	7	2	28	0	0	5	1	3	41	1	2	0	0	0	0	17	0	7	0	23	5	10	0	10	9	0	5
OTU 125	165	144	197	798	154	84	57	124	4	128	140	388	153	175	46	147	20	8	221	94	200	159	974	160	450	4	149	145	29	366	195	27	317	74	175	46	69	100	1725	4	1327	69	66	112	186	14	416	112	135	819
OTU 126	0	0	2	0	0	0	0	0	4	0	16	838	65	14	2	8	0	0	9	8	0	1	0	0	0	0	52	0	0	32	0	0	0	0	6	4	0	0	5	0	1	0	29	0	2	2	0	0	0	0
OTU 127	139	24	7	55	27	31	7	18	93	16	1	1	81	1	1	29	1	0	16	9	27	1	38	3	1	0	1	0	6	8	23	40	171	2	1	18	16	5	58	0	3	5	1	0	1	16	3	2	26	0
OTU 128	203	340	365	56	95	186	75	204	103	212	138	1514	67	244	121	84	49	62	125	313	34	140	96	37	68	391	92	143	52	34	361	47	27	15	117	157	89	37	117	24	566	26	63	62	2365	67	1283	778	107	3084
OTU 129	0	0	7	0	2	3	10	28	49	0	2	0	0	0	0	2	0	0	1	31	0	0	0	0	0	0	0	0	17	2	2	0	56	0	0	0	7	0	17	0	0	1	0	1	0	49	0	0	20	0
OTU 130	43	0	95	21	8	24	101	17	62	62	77	5	0	15	4	1	934	301	3	0	3	0	8	47	0	3417	629	41	11	17	72	127	34	15	130	8	7	384	80	455	17	1	114	7	6	6	16	0	2	20
OTU 131	1	3	6	2	28	7	58	0	26	63	15	0	61	0	27	40	2	10	11	34	17	22	0	118	37	0	37	1	9	7	17	19	1	60	8	21	1	23	3	3	0	53	0	7	573	14	28	2	136	12
OTU 132	0	0	0	0	0	13	0	0	4	12	0	0	19	25	1	62	1	27	1	9	4	15	5	0	26	80	41	0	0	94	0	0	19	0	2078	17	0	67	11	2	5	14	50	0	0	0	7	34	10	3
OTU 133	4	0	1	0	5	7	4	0	0	2	6	5	9	94	29	28	3	9	13	2	0	0	6	3	1	0	3	8	18	0	0	0	0	1	0	56	0	20	0	1	0	1	0	1	0	0	1	1	48	3
OTU 134	52	4	26	2	34	6	2	25	33	18	3	27	117	33	53	12	14	0	175	111	47	194	8	3	1	5	36	0	6	17	0	18	28	0	102	6	55	7	57	7	7	0	2	11	31	2	32	30	13	47
OTU 135	0	65	17	0	24	1	22	19	2	59	1	0	14	58	23	27	31	3	7	18	26	70	5	29	6	8	65	143	0	12	195	29	6	11	3	7	43	32	3	15	0	22	2	17	4	9	2	61	5	0
OTU 136	15	16	0	39	0	9	0	0	3	0	54	0	34	31	12	7	4	0	25	8	79	12	0	17	8	9	3	9	10	4	4	1	4	6	75	20	0	36	6	0	0	9	4	17	4	0	0	56	53	0
OTU 137	0	5	10	4	0	0	44	1	0	0	0	21	213	0	0	29	11	0	0	30	0	4	2	0	25	26	8	0	0	225	9	0	7	0	0	9	1	2	73	2	0	5	0	5	0	0	1	56	0	29
OTU 138	32	25	16	7	0	72	0	0	19	21	39	0	57	5	12	0	19	0	3	46	0	32	0	60	203	22	3	9	29	4	26	0	0	37	0	72	3	9	0	2	0	0	57	1	0	7	2	0	1	1
OTU 139	134	120	35	32	28	19	6	10	9	109	32	56	50	17	14	74	48	28	121	100	72	54	30	37	26	5	24	22	6	7	35	30	60	15	6	5	69	2	180	10	46	658	59	8	2178	35	40	24	840	132
OTU 140	458	116	356	37	36	146	82	680	173	186	294	17	169	261	47	141	44	26	1872	519	30	46	31	61	51	170	156	94	83	87	777	21	411	34	12	34	257	46	41	13	26	8	1	217	2	59	41	153	97	47
OTU 141	0	0	0	0	0	0	0	0	0	0	0	0	13	0	0	6	0	0	8	1	13	0	3	0	164	0	0	0	0	1	3	0	8	0	0	0	0	0	0	0	0	0	0	0	0	0	0	0	0	0
OTU 142	0	0	0	0	0	0	5	0	0	1	0	0	0	0	0	0	0	0	0	14	0	0	424	0	0	0	0	0	0	1	0	0	0	0	0	0	16	0	0	0	0	0	0	12	5	0	0	0	0	0
OTU 143	0	4	1	0	0	9	0	24	0	4	0	3	0	0	68	0	4	0	15	0	0	21	2	16	1	0	4	1	3	4	0	6	200	2	0	0	3	0	0	1	1	0	1	0	0	0	8	0	0	0
OTU 144	0	203	59	0	0	11	0	1	0	11	1323	4	0	0	0	0	0	0	12	0	14	7	0	3	2	0	0	0	2	0	1	2	17	1	7	0	1	0	3	0	1	3	20	7	6	3	0	1	7	2
OTU 145	65	1	1	10	28	70	155	17	80	6	56	1	133	90	3692	29	405	18	23	15	48	101	6	27	241	2	26	18	35	2	32	30	0	18	8	14	4	5	13	217	28	3	3	64	3	15	0	39	0	0
OTU 146	25	36	0	2	57	0	53	40	47	5	28	0	78	72	8	22	14	3	3	32	9	43	8	18	1	27	2	55	1	61	17	0	27	13	35	7	12	92	31	10	1	192	0	55	1	12	18	50	2	4
OTU 147	4	177	6	61	1	0	93	1	31	9	0	0	1	5	3	0	24	0	3	4	0	11	7	3	11	37	25	0	2	0	54	6	13	2	0	1	0	4	10	5	2	5	8	0	0	8	0	41	2	0
OTU 148	109	16	7	62	20	2	9	1	0	8	0	4	75	26	37	30	1180	17	86	38	13	36	9	25	50	7	60	65	1	7	106	20	2	15	1	10	2	7	1	593	0	5	25	3	3	2	1	88	24	4
OTU 149	27	2	0	2	11	0	0	52	3	13	4	19	0	3	1	5	12	35	48	0	376	1	1	3	0	24	32	4	8	26	0	39	0	3	0	0	2	13	36	3	8	4	0	1	9	2	18	55	63	43
OTU 150	0	5	4	17	5	1	106	23	9	11	0	349	0	17	0	0	8	13	0	3	2	40	10	0	0	3	0	27	9	0	1	38	0	0	0	0	5	9	44	3	0	1	0	0	1	26	5	0	0	18
OTU 151	2	38	9	0	7	1	124	1	0	51	13	7	0	33	5	9	0	6	0	5	0	0	10	7	27	2	0	83	0	3	0	15	7	1	50	8	0	0	16	0	37	15	16	2	4	0	1	5	0	12
OTU 152	44	123	22	17	39	6	225	35	0	56	20	5	27	144	29	173	33	15	11	49	125	79	30	43	38	8	3	3	1	0	43	4	11	25	21	0	1	22	15	23	0	7	53	5	0	1	1	40	5	0
OTU 153	1	0	2	0	0	0	1	0	8	0	0	0	1	0	0	0	0	0	0	0	0	0	0	0	0	3	5	0	0	6	0	0	0	0	34	0	0	0	0	0	0	0	0	6	0	0	0	0	0	0
OTU 154	0	0	0	0	0	0	17	0	4	42	0	0	52	1	0	1	1	0	6	0	40	1	95	0	0	0	11	0	0	19	0	0	0	0	1	24	0	7	10	0	0	70	0	0	3	0	0	1	61	5
OTU 155	0	5	11	8	38	604	46	37	20	0	3	0	4	78	8	0	1	0	4	5	153	4	1	2	0	4	12	52	285	6	142	1	2	1	1	1	0	51	30	0	54	0	28	0	0	0	3	1	12	0
OTU 156	224	157	187	18	127	33	84	91	61	50	139	2	15	113	120	114	183	59	42	1725	31	98	120	181	10	60	95	46	12	48	48	55	110	82	32	80	44	17	21	90	60	8	26	31	1	71	4	235	34	9
OTU 157	0	0	0	0	0	0	0	23	0	2	0	0	1	0	61	0	0	198	0	53	65	2	0	184	0	1	0	345	2	0	8	97	0	95	10	151	0	3	2	0	47	225	0	3	1	0	5	6	483	0
OTU 158	3	0	0	0	0	0	0	1	0	0	0	0	0	0	0	0	1	0	0	3	0	0	0	0	0	0	0	0	0	0	6	1	1	0	0	0	0	0	0	0	0	0	0	0	0	1	1	0	78	0
OTU 159	5	371	2	11	13	1	3	34	31	17	50	12	38	7	10	0	0	19	82	67	0	128	58	26	34	17	36	4	2	16	0	3	61	20	152	0	12	25	0	0	7	0	223	0	0	3	0	49	0	3
OTU 160	240	86	83	442	49	55	2435	38	74	9	14	240	222	59	82	23	108	41	73	919	44	105	9	167	8	54	363	403	49	84	278	98	40	82	246	58	91	313	671	35	2	20	57	513	113	245	121	210	76	411
OTU 161	1	11	2344	12	62	59	205	75	48	0	0	0	0	1	30	1	2	45	38	2	69	72	47	13	161	50	51	0	2	74	10	1	0	4	30	0	0	4	1	1	49	0	17	0	1	6	31	3	3	5
OTU 162	11	5	32	4	0	19	20	33	45	77	31	7	18	29	7	0	4	20	37	29	122	3	8	986	62	9	15	203	1	1	2	113	79	485	0	443	42	53	98	0	22	11	39	883	6	29	53	0	14	12
OTU 163	0	0	0	0	0	0	0	0	0	0	0	0	0	0	0	0	0	4	0	0	3	0	2	0	0	0	0	0	0	83	0	1	0	0	0	0	0	49	0	0	0	0	0	0	0	0	0	0	0	0
OTU 164	0	59	1	0	0	0	1	0	0	5	0	0	0	0	1	0	22	0	0	1	0	0	0	0	0	0	0	6	0	0	0	0	0	0	0	0	0	0	0	15	0	4	0	0	0	0	0	0	0	0
OTU 165	51	0	475	52	1	26	0	2	0	5	809	9	59	0	0	10	8	4	0	1	39	3	0	4	33	0	40	78	18	0	10	1	1369	1	50	5	1	17	69	5	0	4	0	0	16	0	13	5	42	12
OTU 166	0	0	0	0	0	0	0	0	0	0	0	0	3	0	0	0	0	0	0	0	0	0	6	0	0	1	0	2	0	0	0	1	1	0	0	0	0	0	0	0	0	0	9	0	0	0	0	0	0	0
OTU 167	36	8	0	0	0	20	6	63	3	7	0	10	31	3	57	12	20	0	18	0	6	149	11	3	1	40	2	0	2	18	1	12	75	3	12	3	6	3	0	4	35	8	38	2	0	3	1	14	6	5
OTU 168	37	25	1	25	4	26	3	5	10	47	15	26	48	11	58	56	14	81	0	6	99	6	11	3	7	24	1	18	3	0	86	10	6	2	11	6	9	2	95	5	25	1	9	0	17	1	45	2	21	18
OTU 169	0	0	0	16	0	0	1	0	3	0	0	0	0	0	0	0	2	0	0	0	5	0	0	0	0	0	0	0	0	0	0	0	0	0	0	0	0	1	0	0	0	0	0	4	0	0	2	0	2	0
OTU 170	0	0	0	0	0	0	0	0	7	0	0	0	0	0	0	4	0	0	0	0	2	0	0	0	0	0	0	0	0	14	0	0	0	0	0	0	0	0	0	0	0	0	0	0	1	0	0	0	3	0
OTU 171	1	60	29	1	7	43	2	12	1	53	19	0	210	33	50	11	1	50	161	6	112	15	5	15	24	12	7	12	4	36	0	37	49	6	1	3692	6	4	38	0	3	0	37	10	5	2	19	0	0	11
OTU 172	0	0	0	0	0	0	0	0	3	15	0	1	0	7	0	0	0	0	0	0	0	1	0	4	6	0	0	0	185	0	0	8	0	2	0	0	0	4	0	0	3	4	0	0	0	0	0	1	0	2
OTU 173	17	0	2	3	5	1	5	97	25	42	6	0	83	105	19	54	7	31	0	0	42	1	42	0	80	25	0	27	5	17	3	52	0	0	0	11	0	2	1	0	89	0	9	0	3	1	0	102	0	0
OTU 174	5	0	8	11	2	26	50	0	38	14	11	0	32	14	22	7	2	4	1	0	8	56	3	0	0	1	13	86	32	12	13	16	3	0	7	14	14	2	0	0	60	1	24	2	6	11	7	14	1	0
OTU 175	18	0	1	7	78	13	23	20	10	21	4	0	36	154	0	19	40	48	6	6	0	323	22	7	0	6	21	0	5	63	15	11	7	1	30	9	17	0	0	12	0	12	22	20	5	0	1	0	2	1
OTU 176	62	20	44	35	47	8	74	1	8	9	0	5	53	22	14	52	0	45	53	146	5	65	56	4	40	3	7	19	8	2	83	44	199	0	5	14	56	5	42	0	5	249	120	35	6	20	19	43	273	5
OTU 177	10	3	28	3	14	5	39	12	52	21	26	3	1	0	33	22	1	24	3	15	16	32	2	24	2	4	181	102	17	56	83	0	16	17	1	1	4	5	9	0	15	2	3	449	1	3	9	87	94	0
OTU 178	2	36	11	24	31	8	6	4	16	50	8	0	6	7	0	0	6	42	1	0	22	11	10	0	51	29	4	24	1974	1	34	65	1	0	6	44	14	17	2	5	0	0	5	4	7	4	1	145	1	0
OTU 179	1	159	8	14	0	0	24	56	3	0	0	0	0	0	1	0	11	3006	9	410	3	3	1	6	0	318	22	2	0	44	2	1029	1	1	0	0	0	16	57	2	0	27	11	2	18	0	42	14	83	2
OTU 180	89	91	42	967	242	13	145	27	1141	36	24	609	238	87	60	22	58	121	31	53	1492	174	72	9	79	63	69	157	17	239	66	20	36	4024	403	57	58	114	2160	15	59	142	83	310	225	559	566	67	87	1208
OTU 181	4	0	4	45	1	28	0	12	8	1	0	0	4	7	9	1	16	10	1	89	0	1	27	76	88	12	70	240	2	40	15	42	8	40	64	20	2	50	18	64	11	144	6	376	6	4	4	11	389	0
OTU 182	0	0	0	8	0	0	0	0	0	0	0	0	0	1	0	0	0	0	0	0	37	0	0	0	0	0	0	9	0	0	0	0	0	0	0	0	0	0	0	0	0	0	0	0	0	0	0	0	0	0
OTU 183	3	10	70	5	13	4	0	2	0	11	8	5	0	51	1	1	27	0	8	0	3	2	28	62	4	80	139	53	15	19	10	5	97	31	0	3	16	1	7	13	1	5	722	41	0	56	1	135	4	13
OTU 184	0	65	0	3	46	0	44	0	3	0	3	2	16	0	0	0	1	0	0	21	0	28	20	21	81	2	3	17	5	40	5	1	1	20	5	1	6	0	0	0	12	12	53	9	0	1	0	20	28	4
OTU 185	52	6	16	29	80	404	167	28	281	60	2	22	23	104	21	1	1	68	22	6	37	54	3	34	18	24	13	51	136	19	0	1	41	19	90	3	265	2	94	0	6	1	1143	5	304	124	41	13	58	48
OTU 186	448	3	0	0	0	0	14	5	0	1	3	4	4	2	21	10	0	0	63	5	6	0	20	0	0	0	3	0	0	22	8	0	0	0	0	0	5	0	63	0	13	0	0	10	0	0	0	0	0	0
OTU 187	8	28	89	42	11	32	200	45	47	13	134	4	286	29	7	8	70	57	123	21	183	176	11	24	24	66	80	40	4	68	70	14	90	10	25	6	0	84	2	52	16	51	20	73	0	62	33	138	219	25
OTU 188	37	117	9	104	6	73	109	33	29	156	8	9	29	4	27	14	7	1	72	21	12	78	303	150	36	289	0	33	86	20	78	73	139	64	113	66	5	6	0	0	507	25	26	16	7	56	1	989	60	25
OTU 189	58	57	5	53	3	56	75	59	9	1393	10	0	19	51	1	19	291	33	50	13	606	47	29	70	121	11	6	10	28	33	65	3	168	32	22	88	0	12	1	122	72	26	72	5	1	17	1	19	14	4
OTU 190	0	0	3	0	2	0	0	6	1	8	6	1	0	3	1	0	0	0	0	0	0	0	0	2	0	0	3	0	0	0	34	12	0	1	0	0	1	0	0	0	0	0	0	1	1482	0	0	7	0	1
OTU 191	351	63	57	19	13	12	43	78	7	1	6	21	17	122	13	41	9	71	7	38	20	711	59	76	159	2	0	180	7	1	69	22	26	25	3	5	19	4	7	1	1	105	215	16	13	3	24	8	246	14
OTU 192	20	47	35	84	6	0	68	3966	6	14	36	5	204	14	133	25	1590	9	91	175	123	41	11	90	52	25	44	53	3	80	70	7	120	47	1072	2	52	41	19	869	55	287	3	0	199	915	8	5	602	32
OTU 193	1	7	4	12	2	1995	45	15	0	33	22	0	37	71	10	127	51	19	11	1	0	4	21	8	1	8	849	24	1118	49	25	1	2	6	2	29	0	606	7	32	47	46	8	5	6	7	0	5	47	2
OTU 194	3	1	10	2	1	0	92	6	3	18	15	5	1	6	0	4	43	3	2	6	31	0	3	32	9	9	7	9	3	6	33	9	4	12	2	0	32	0	24	38	0	65	2	8	0	0	0	1	70	1
OTU 195	104	52	2	8	0	4	70	0	3	3	6	0	0	78	12	32	0	1	31	168	51	1	61	16	0	0	11	0	15	93	5	12	21	5	4	0	27	4	38	1	5	0	107	3	3	6	15	20	21	6
OTU 196	60	22	11	0	39	2	48	0	4	30	11	0	20	12	5	15	1	6	72	2	0	8	56	3	29	1	24	6	7	2	139	9	73	2	3	8	0	0	4	0	48	8	70	1	1	1	3	13	0	2
OTU 197	5	220	63	34	18	29	3	0	49	89	17	28	90	88	41	8	210	9	697	6	107	23	14	108	248	22	292	20	42	200	55	17	46	60	65	17	57	71	123	128	38	53	175	231	2	14	2	48	38	29
OTU 198	0	0	0	46	0	18	2	0	0	16	2	6	22	0	5	0	0	0	0	0	3	39	0	11	11	0	0	7	3	0	1	0	0	5	0	0	0	0	0	0	28	0	0	60	7	2	3	0	0	22
OTU 199	1	7	4	19	30	7	23	0	0	10	5	6	26	4	13	22	3	3	0	0	3	85	5	1	126	0	2	2	4	63	38	4	4	0	38	47	20	1	63	0	11	0	3	1	0	1	3	17	0	11
OTU 200	96	13	2	23	17	1	132	0	0	1	2	14	129	0	52	0	5	5	21	14	13	4	11	64	2	5	13	266	2	29	22	80	43	47	134	6	6	4	40	3	22	16	22	2161	0	1	7	5	193	17
