	Host 1	Host 2	Host 3	Host 4	Host 5	Host 6	Host 7	Host 8	Host 9	Host 10	Host 11	Host 12	Host 13	Host 14	Host 15	Host 16	Host 17	Host 18	Host 19	Host 20	Host 21	Host 22	Host 23	Host 24	Host 25	Host 26	Host 27	Host 28	Host 29	Host 30	Host 31	Host 32	Host 33	Host 34	Host 35	Host 36	Host 37	Host 38	Host 39	Host 40	Host 41	Host 42	Host 43	Host 44	Host 45	Host 46	Host 47	Host 48	Host 49	Host 50	
OTU 1	4	116	23	28	8	74	57	330	93	14	6	53	0	156	176	1	31	3	65	65	2	74	0	48	52	74	260	0	81	6	5	1	0	153	98	155	75	69	36	0	95	37	180	32	13	41	79	14	7	3
OTU 2	50	48	3	0	30	33	13	0	29	43	3	7	25	0	1	25	15	77	4	8	1	0	2	11	3	4	11	0	0	1	7	7	0	0	16	0	5	4	0	0	0	10	0	0	0	28	1	24	0	7
OTU 3	1	0	13	0	1	20	0	27	27	0	2	64	1	0	0	0	0	37	49	0	5	0	0	2	8	0	2	31	0	0	26	0	16	1	0	174	11	58	0	35	37	19	12	7	56	0	13	0	4	0
OTU 4	1	0	0	0	0	0	0	0	0	0	0	0	0	0	1	0	0	0	0	0	0	0	0	0	0	0	0	0	0	0	0	0	0	0	0	0	0	0	0	0	0	0	0	0	0	0	0	0	0	0
OTU 5	72	68	751	162	93	509	63	374	2	380	135	937	350	358	26	151	635	131	513	113	84	111	0	351	219	100	622	114	262	42	111	269	0	225	4	124	75	0	459	217	264	57	210	25	376	743	360	4	896	286
OTU 6	0	17	18	1	18	11	86	31	30	19	0	84	0	25	32	0	3	1	35	1	136	86	39	0	3	0	54	6	11	22	10	0	13	0	9	20	30	0	0	17	3	27	13	44	1	3	0	8	101	0
OTU 7	11	79	43	70	53	14	39	125	76	77	174	56	75	43	39	74	208	89	152	121	59	120	64	352	37	398	47	72	22	69	117	49	160	292	28	395	4	72	319	102	44	72	65	2	112	64	71	958	21	32
OTU 8	82	90	9	67	82	87	415	70	75	50	66	24	31	74	154	11	38	5	91	49	103	43	64	47	36	9	45	24	74	7	366	122	35	32	66	51	98	89	31	59	68	9	40	50	206	69	5	114	83	41
OTU 9	3	52	7	0	19	7	19	7	0	21	0	43	0	0	3	1	7	9	0	0	0	6	13	35	3	12	31	35	0	55	5	97	1	23	13	0	0	48	17	22	0	23	2	9	0	64	8	33	9	13
OTU 10	4	0	0	52	3	1	0	17	7	25	2	3	8	8	38	7	0	11	2	0	6	1	57	0	4	1259	0	0	11	10	10	33	26	2780	4	56	5	0	1	24	0	0	6	2	0	0	0	45	4	0
OTU 11	135	14	5	0	2	12	67	0	28	10	44	113	5	2	58	31	16	185	12	8	0	96	13	0	1	1	7	11	6	232	605	37	88	1	77	1	37	126	11	1	9	33	0	6	12	1989	0	131	61	1108
OTU 12	303	14	78	13	127	24	109	39	17	144	0	41	146	23	50	26	140	78	42	89	8	112	52	14	27	0	35	43	11	142	39	94	20	1	54	34	85	88	26	14	64	2	13	80	35	2	70	1	7	4
OTU 13	1	0	0	0	0	1	0	0	0	1	15	0	10	0	3	0	0	0	0	7	0	0	1	0	0	0	0	0	1	0	0	7	0	0	37	0	0	1	0	0	2	0	0	0	0	2	0	19	0	0
OTU 14	6	0	12	0	8	0	0	18	17	3	16	16	0	20	57	10	0	1	45	1	12	11	42	2	0	0	25	3	18	0	0	5	103	3	1	0	5	0	46	1	0	0	11	0	1	20	4	21	17	19
OTU 15	0	0	3	0	0	61	0	0	0	3	0	0	0	0	5	0	0	0	0	0	22	0	0	0	0	6	0	0	0	8	0	0	1	3	0	1	0	0	0	0	2	0	0	173	0	0	0	0	2	0
OTU 16	0	0	0	5	0	9	0	0	7	0	44	0	0	0	0	0	0	0	0	0	0	0	0	0	0	0	0	2	0	0	0	0	0	0	0	0	0	0	0	0	2	0	0	0	7	0	0	0	0	0
OTU 17	3	6	54	111	13	428	1	20	0	1	59	14	60	9	70	9	89	18	20	38	23	14	1	67	14	31	426	48	3	0	6	9	15	49	250	28	33	8	6	80	38	1	10	7	211	0	46	9	41	0
OTU 18	19	29	39	6	206	1	23	65	32	4	18	60	42	88	100	50	11	22	2	1	16	2	44	1	30	7	0	4	57	20	6	18	2	28	33	27	26	278	15	18	25	65	34	146	54	17	53	115	29	8
OTU 19	0	0	0	0	0	0	0	0	0	0	0	0	0	0	0	0	0	0	0	0	0	0	0	0	0	0	0	3	0	0	0	0	0	0	0	0	0	0	0	0	0	0	0	0	11	0	0	0	0	0
OTU 20	3	60	55	0	18	36	23	45	52	7	11	47	54	1	1	128	7	111	40	30	27	65	33	99	25	22	0	37	0	76	47	29	11	37	47	9	2	3	45	10	60	10	18	143	3	16	48	854	4	2
OTU 21	6	9	5	20	7	14	97	51	3	18	3	152	75	7	5	71	25	11	19	5	9	14	82	0	13	6	30	114	2	2	11	61	57	6	110	44	33	3	2	12	27	32	24	6	0	3	6	10	15	1
OTU 22	58	18	60	3	0	5	48	40	123	130	11	21	80	56	129	47	18	62	39	2	0	108	0	11	7	3	124	18	7	25	49	23	31	8	39	7	26	30	5	1	41	79	24	13	19	15	110	3	4	24
OTU 23	25	2	18	2	79	7	61	1	22	39	1	79	1	64	28	11	13	1	1	0	5	9	10	4	0	3	5	78	17	25	22	27	77	9	3	0	35	3	5	1	0	14	0	36	4	2	0	1	30	9
OTU 24	28	2	3	58	5	0	9	1	0	1	1	312	25	11	60	5	0	28	1	20	0	30	54	0	0	2	1	0	2	196	3	4	2	0	0	2	50	190	84	56	4	17	1	207	12	0	4	7	27	5
OTU 25	0	675	0	1	0	1	0	0	0	0	0	0	0	0	5	0	0	12	0	0	0	0	0	8	0	0	0	0	0	0	0	0	0	2	0	2	0	0	0	0	0	0	0	0	0	359	0	0	0	157
OTU 26	0	0	0	24	7	23	2	0	1	0	0	0	0	2	3	69	4	0	0	0	1	0	7	0	0	0	0	0	1	5	0	0	63	0	0	0	0	0	4	111	2	0	0	1	2	11	2	0	5	2
OTU 27	0	0	0	0	0	0	0	0	0	0	0	0	0	0	0	0	0	1	0	0	32	0	0	0	0	0	0	0	0	0	0	0	17	0	0	0	2	0	0	0	0	0	0	0	0	0	0	0	0	3
OTU 28	112	8	39	5	259	94	22	7	220	4	53	110	42	116	175	60	33	23	8	21	93	162	121	40	0	41	30	29	43	130	22	61	133	59	24	2753	121	3	18	25	8	27	2	25	29	16	1	21	2	6
OTU 29	200	74	5	6	115	28	85	7	18	8	34	7	386	43	104	291	7	78	81	17	121	56	21	0	0	6	3	6	20	45	60	1	9	6	55	2	13	18	27	1	1	33	961	27	4	40	17	23	3	10
OTU 30	0	0	0	0	0	0	0	0	0	0	0	0	0	0	0	0	0	0	0	0	0	0	0	0	0	0	0	0	0	0	0	0	0	0	0	0	0	0	0	0	0	0	0	0	0	0	0	0	0	0
OTU 31	1	17	1	31	0	3	5	90	68	19	0	57	102	0	0	1	5	28	1	7	0	48	0	0	3841	2	8	1	0	8	3	102	1	0	0	0	17	2	0	60	39	4	57	4	0	0	71	2	48	0
OTU 32	98	37	4	2	876	41	81	27	24	12	49	25	174	7	9	148	86	26	70	0	2	115	149	8	21	2	97	133	1	17	274	57	0	11	61	38	0	42	0	63	14	58	14	23	1	8	23	143	131	12
OTU 33	0	4	0	8	0	0	2	0	0	1	1	0	0	0	0	0	0	0	0	0	0	0	0	4	0	0	0	0	0	1	0	0	0	0	0	0	0	3	25	0	0	0	0	0	0	0	0	5	29	0
OTU 34	229	59	17	35	81	43	327	1	8	2233	10	3	195	17	13	2	1	160	2	16	136	0	13	650	0	480	21	27	3	13	29	41	19	875	43	79	37	10	701	21	2	7	0	64	28	153	7	74	193	41
OTU 35	25	20	0	5	1	11	109	4	10	9	29	36	12	1	33	15	9	17	27	35	2	0	5	12	1	12	1	0	6	3	3	3	117	3	0	25	24	0	12	15	1	10	3	57	7	27	16	3	10	0
OTU 36	15	2	1	43	78	20	42	2	0	8	80	3	51	11	2	4	141	9	22	36	24	45	7	597	0	289	9	64	3	81	0	30	20	531	49	40	19	3	810	80	0	7	1	143	1	1	36	78	129	5
OTU 37	0	4	2	19	0	0	0	27	159	8	25	0	0	0	11	0	0	5	28	0	0	7	99	24	1	2	11	0	0	25	0	1	0	2	0	0	7	0	2	91	4	48	13	0	0	1	0	0	1	0
OTU 38	149	195	43	11	0	38	9	24	125	21	2	37	41	6	22	17	9	1	6	19	13	9	196	0	6	16	23	0	8	5	50	92	107	12	30	32	24	127	20	6	26	0	12	6	13	21	6	1	1	3
OTU 39	0	0	0	3	11	1	64	9	37	709	5	3	2	6	4	0	2	0	0	0	0	0	0	1	0	1	0	3	0	9	9	25	3	1	0	6	8	1	0	2	1	0	4	198	0	0	0	0	0	0
OTU 40	374	54	28	13	422	36	36	12	15	25	1	0	13	56	123	31	6	228	163	22	2	1	1	83	14	6	23	97	66	4	2	2	245	19	0	8	14	2	6	41	14	17	4	17	0	36	1	4	94	14
OTU 41	14	27	0	20	36	0	56	21	5	50	3	20	35	0	9	9	2	13	37	3	83	31	1	11	3	0	7	58	6	1	6	0	0	0	3	6	25	72	0	1	17	5	18	29	1	72	18	6	69	13
OTU 42	0	29	1	3	0	0	19	0	43	41	1	10	0	9	61	2	0	54	1	0	45	32	53	5	0	0	1	10	2	1	0	0	12	0	72	4	0	0	3	2	0	34	0	0	1	33	0	35	0	10
OTU 43	0	0	0	0	0	0	0	0	0	0	0	0	0	0	0	0	0	0	0	0	0	0	17	0	0	0	0	0	0	0	0	0	0	0	29	0	0	0	0	0	0	0	0	0	0	0	0	0	0	0
OTU 44	1	12	26	1	13	0	0	8	0	6	0	30	0	74	106	0	22	0	9	0	0	1	1	0	0	0	29	1	26	0	0	0	26	0	0	1	70	0	0	0	8	34	3	70	2	0	36	0	0	4
OTU 45	563	111	263	10	399	18	36	31	34	8	226	37	65	223	643	0	92	76	64	42	22	61	4	1	146	18	67	74	109	49	0	71	69	26	37	12	355	54	6	13	251	4	11	2	39	45	17	57	1782	18
OTU 46	15	12	11	9	9	7	18	120	11	132	7	6	33	12	43	62	22	84	14	19	4	147	15	15	43	29	1	1336	7	23	60	1	22	35	105	4	20	33	57	4	70	103	62	13	166	10	59	14	9	14
OTU 47	193	0	0	3	0	15	2	0	28	0	0	0	0	9	1	70	26	21	0	8	0	0	2	0	0	7	0	0	6	2	0	0	35	17	4	2	0	0	0	0	2	0	0	6	0	2	1	1	5	0
OTU 48	4	1	131	29	3	17	1194	27	96	9	4	0	83	105	171	32	9	27	17	71	5	12	8	70	0	19	57	6	34	30	9	81	1	29	24	15	54	146	9	25	9	24	11	596	24	15	23	91	105	10
OTU 49	2	50	7	6	8	5	0	13	16	0	18	6	3	1	0	19	26	7	102	42	9	0	4	3	0	7	1	37	0	5	7	29	0	2	2	3	37	0	0	5	0	1	8	0	0	1	18	3	2	10
OTU 50	8	88	1	58	189	0	62	73	64	26	18	8	70	2	56	16	50	106	47	96	52	38	86	38	1	7	21	9	2	1	15	35	7	3	76	54	112	119	7	145	37	44	29	5	18	20	13	11	10	26
OTU 51	10	36	5	4	13	2	9	2	40	53	0	7	6	16	9	260	2	2	67	18	56	71	149	49	0	0	1	5	20	103	6	4	0	0	12	1	3	12	5	44	1	86	0	1	13	26	28	0	0	7
OTU 52	31	16	11	67	181	14	59	19	64	32	1	421	96	85	137	212	64	80	229	58	95	76	2	103	5	14	42	103	25	264	52	27	88	42	81	23	44	221	91	30	11	3	6	32	23	93	45	85	67	33
OTU 53	0	0	0	0	0	6	0	0	3	0	0	6	0	0	0	0	1	0	0	0	0	0	0	0	0	0	0	0	0	0	0	0	0	0	0	0	0	0	1	0	0	0	0	0	0	0	0	0	0	0
OTU 54	203	52	27	55	107	58	13	57	0	11	108	292	66	65	176	94	143	44	6	46	25	47	49	166	6	23	56	112	25	70	10	31	22	41	14	18	63	112	15	10	23	3	34	39	28	38	48	177	2	12
OTU 55	0	0	0	0	0	0	0	0	0	0	1	0	0	0	6	0	0	0	0	0	1	0	6	0	410	0	1	0	0	0	0	0	0	0	23	0	0	0	0	0	0	0	0	0	0	0	0	0	0	0
OTU 56	21	1	48	0	2	4	12	36	59	5	7	148	30	3	5	7	35	2	20	4	67	9	29	8	11	37	5	0	5	0	6	89	131	39	0	10	0	53	14	1	18	0	17	0	7	5	0	2	5	2
OTU 57	67	104	29	67	147	55	37	266	123	257	239	134	194	12	17	154	128	74	18	184	130	231	69	70	107	35	190	100	8	41	36	186	22	62	482	394	91	122	88	217	197	182	153	91	76	29	225	137	139	3
OTU 58	0	0	40	0	3	12	3	10	38	0	3	13	37	121	54	50	2	17	72	0	67	2	37	101	2	16	55	10	66	60	4	30	0	26	5	177	109	0	56	10	6	1	5	80	5	9	4	1	3	0
OTU 59	2	21	6	6	18	35	0	43	33	35	0	14	54	10	5	81	90	5	76	119	86	2	296	42	24	13	7	0	1	73	0	6	3	30	73	0	3	207	54	49	20	8	26	0	47	16	2	4	1	0
OTU 60	40	12	0	15	34	32	118	201	53	223	16	293	38	33	42	98	15	4	33	17	97	176	4	68	1704	13	112	5	15	19	5	16	15	23	53	29	8	0	78	46	3231	152	98	53	36	11	139	33	14	33
OTU 61	208	195	102	25	2	131	43	36	61	9	1	28	5	78	227	65	62	100	13	32	144	92	2	51	7	37	46	113	42	156	19	24	251	52	13	22	136	522	1403	21	4	47	19	37	10	18	2363	170	40	33
OTU 62	1	0	0	3	11	20	0	0	83	3	0	13	0	5	0	133	0	9	0	0	4	120	0	3	0	7	0	0	0	1	17	1	9	27	23	2	11	1	3	0	0	0	0	0	28	5	0	2	51	2
OTU 63	20	53	19	0	81	8	40	0	11	0	61	18	14	23	12	0	0	10	4	0	38	44	2165	0	1	1	30	1	16	0	29	921	89	0	0	0	3	6	11	76	0	6	0	58	3	4	1	0	0	3
OTU 64	67	32	60	80	26	120	234	3	89	149	2980	7	8	33	164	146	53	34	11	57	40	111	63	2	4	1	2	20	34	153	79	175	220	5	151	290	145	278	22	24	1	98	1	40	39	45	26	84	30	43
OTU 65	0	0	0	0	37	1	0	0	176	0	0	0	0	0	18	1	0	0	0	0	1	0	12	14	0	0	0	0	0	0	4	0	4	0	0	0	0	0	0	0	0	0	0	12	15	0	7	0	3	0
OTU 66	53	7	16	13	6	46	78	28	1363	23	1	17	67	23	15	3	1198	96	54	5	146	7	379	39	9	23	130	28	23	42	1	357	126	78	15	8	94	83	25	2	17	3	11	58	65	29	13	10	0	1
OTU 67	8	25	11	49	10	1617	25	54	64	0	3	10	1	42	45	84	0	1	99	4	3	0	6	0	55	3	4	30	14	179	31	8	8	11	11	27	12	13	9	29	29	2	21	125	720	7	10	9	3	0
OTU 68	2	3	6	303	155	65	57	364	0	0	190	6	2	1	13	0	67	4	0	132	19	0	9	48	27	9	637	0	0	0	10	12	0	21	23	194	16	0	53	218	99	6	171	0	113	3	54	1	33	0
OTU 69	14	5	4	49	38	33	39	45	1	105	56	98	67	5	43	9	15	49	31	29	3371	93	51	39	20	5	47	79	5	177	60	0	75	17	172	4	52	274	38	0	17	35	24	218	1	351	7	52	1	281
OTU 70	6	6	0	2	22	0	12	138	33	7	121	4	121	0	57	63	68	107	7	5	27	107	6	1	34	13	13	7	2	8	3	14	3	39	42	4	0	250	5	11	52	31	65	1	0	0	28	0	0	13
OTU 71	13	6	55	39	636	0	7	22	60	0	0	0	6	0	0	0	0	3	3	0	0	0	0	0	0	0	0	0	1	9	30	10	8	0	0	1	9	34	0	17	0	0	10	15	4	0	2	4	162	11
OTU 72	34	9	57	26	68	9	22	38	1	60	4	47	11	27	61	10	38	145	4	47	32	33	90	8	0	1	113	12	5	9	83	39	163	6	127	38	44	308	0	96	6	22	19	57	3	64	5	104	0	15
OTU 73	15	10	33	3	30	27	4	68	123	9	0	9	143	35	100	2	51	15	3	7	2	37	0	22	23	12	2	7	12	91	13	0	0	3	41	66	63	1	2	98	18	29	41	64	0	8	52	1	26	8
OTU 74	9	1	0	38	33	11	13	10	12	30	0	15	74	1	0	13	41	14	13	12	2	106	43	4	9	22	33	7	0	1	12	10	78	98	45	0	1	9	27	15	1	24	4	4	37	12	7	31	60	4
OTU 75	1	11	24	146	33	62	44	129	31	273	72	70	130	1	29	57	231	11	6	1046	119	371	29	49	59	7	233	100	0	7	29	10	35	3	106	58	38	8	11	165	63	259	957	16	0	0	63	49	3	7
OTU 76	26	0	0	1	2	0	2	7	2	0	1	4	0	5	0	0	8	2	9	12	0	9	23	8	0	16	0	1	0	53	0	0	4	5	109	0	0	0	0	1	1	11	5	156	4	0	2	1	0	0
OTU 77	152	0	5	131	13	37	904	82	63	113	0	70	17	41	50	73	5	4	10	194	36	184	102	27	35	9	36	1262	11	0	99	87	25	29	9	12	6	1	5	39	53	589	42	115	4	11	78	107	57	5
OTU 78	38	63	0	45	178	31	128	61	4	31	20	30	31	2	0	371	40	28	66	926	45	59	20	4	4	1	1	4	0	14	27	69	124	1	72	10	1	92	31	130	15	0	30	20	10	19	19	65	2180	25
OTU 79	118	107	144	524	94	57	74	192	16	88	1419	90	133	183	374	143	79	113	153	536	30	170	113	49	59	26	302	106	73	17	79	112	45	69	1050	1574	199	49	97	1224	176	42	104	353	16	102	112	232	18	62
OTU 80	132	20	30	15	1	0	4	8	42	0	28	13	13	251	54	139	7	183	13	85	13	11	206	5	2	16	13	396	145	6	5	51	164	12	15	19	68	6	45	64	1	11	5	207	15	9	4	7	20	1
OTU 81	131	142	12	123	54	11	25	105	47	70	49	17	15	33	17	104	7	239	72	7	30	172	26	2	17	2	70	254	8	41	11	231	90	7	26	61	191	67	42	10	17	25	46	22	4	85	64	32	4	5
OTU 82	128	8	33	16	1	2	28	58	5	1	5	152	38	2403	158	38	38	115	36	0	4	4	11	6	15	19	1	7	1152	49	24	13	4	51	3	16	10	56	33	25	22	2	19	22	20	1	30	2	182	0
OTU 83	0	0	0	10	1	2	0	9	9	0	3	3	0	7	0	0	20	0	0	0	0	64	8	0	0	1	0	0	0	0	0	0	271	0	0	5	4	0	0	0	0	76	9	0	0	0	0	283	0	4
OTU 84	2	28	7	0	8	12	13	11	0	42	5	72	7	15	25	0	0	6	5	10	20	36	256	1	13	0	7	273	7	69	0	4	126	0	27	6	20	195	1	32	0	4	4	0	3	2	7	1	107	6
OTU 85	3	0	1	2078	0	0	2	0	2	0	0	6	1	29	39	2	0	0	11	1	4	12	14	16	0	118	82	64	27	14	26	17	0	9	0	3	2	0	17	38	1	0	0	0	2	9	11	5	0	0
OTU 86	0	0	0	2	0	1	0	0	0	39	0	0	0	0	3	0	0	0	0	0	0	4	0	0	0	0	0	0	0	183	0	0	0	0	26	1	1	0	1	0	0	0	0	0	1	37	3	0	0	15
OTU 87	252	98	0	47	36	0	34	0	0	4	0	0	49	3	0	0	0	153	3	5	0	0	0	0	0	0	14	7	13	1	9	0	41	0	7	0	0	8	0	2	0	1	0	8	0	23	12	8	0	6
OTU 88	25	14	0	0	23	2	0	32	67	1	5	0	1	1	31	0	0	0	0	0	81	1	0	2	7	0	1	0	0	33	14	0	18	0	0	8	6	0	0	0	8	23	16	0	0	48	0	0	0	0
OTU 89	733	57	11	0	60	21	22	1	5	0	71	13	0	23	60	46	3	187	1	127	52	0	1	0	0	5	0	0	6	3	57	0	12	3	2	24	51	2	9	28	0	6	0	4	1	44	1	83	31	31
OTU 90	0	0	1	0	0	3	0	1	0	0	0	0	0	0	0	0	0	0	0	0	420	0	0	0	0	0	1	0	0	0	0	0	2	0	0	1	0	0	31	0	0	0	1	0	16	0	0	0	0	0
OTU 91	0	3	0	0	0	0	0	0	0	0	0	0	0	0	0	0	0	2	0	1	0	2	0	0	0	0	51	0	0	0	72	0	0	0	0	0	0	0	9	0	0	0	0	0	8	0	0	0	0	5
OTU 92	0	3	0	1	1	53	0	0	33	25	0	15	1	0	7	1	64	15	22	6	0	53	1	17	1	1	51	1	0	0	26	9	10	0	39	36	1	0	3	51	0	0	0	41	3	0	0	0	10	0
OTU 93	0	1	32	0	1	0	0	4	0	0	0	6	0	1	0	0	1	0	2	0	8	0	3	0	0	0	0	0	0	0	0	0	4	0	1	0	0	0	0	46	6	1	3	35	28	23	0	0	0	31
OTU 94	53	26	0	21	4	51	70	97	15	9	10	44	73	9	2	168	104	39	38	13	15	46	106	2	25	0	44	11	9	67	3	13	52	8	25	47	53	14	1832	78	47	19	40	112	26	36	105	5	7	12
OTU 95	14	0	1	4	52	0	2	779	11	1	6	0	607	0	22	14	0	1	30	1	0	0	7	2	192	4	69	0	0	0	7	0	51	0	80	0	0	0	0	29	410	0	405	31	0	1	380	14	23	7
OTU 96	0	0	2	0	0	0	30	0	12	0	1	3	106	0	0	0	51	15	0	0	0	0	10	8	0	8	0	6	0	0	0	0	88	32	0	0	1	0	32	0	0	0	0	0	0	0	0	0	0	0
OTU 97	8	0	1	4	1	0	0	0	0	3	0	0	1	10	0	0	0	0	1	0	1	0	7	0	0	0	9	0	0	0	0	9	0	0	17	0	0	0	0	0	12	0	0	0	0	0	0	21	0	0
OTU 98	2	12	3	0	8	58	17	0	124	59	0	0	0	0	3	4	5	6	0	0	6	0	0	1	0	0	0	1	0	52	3	7	0	0	2	0	6	2	0	64	0	0	0	0	0	65	0	0	0	0
OTU 99	33	16	50	2	15	59	42	64	47	40	36	138	68	54	246	9	38	25	93	4	19	73	22	18	16	15	2013	90	20	201	53	38	50	38	6	40	48	118	3	30	30	104	29	2	14	1	2	17	45	1
OTU 100	12	12	34	8	2	67	35	136	55	1	26	8	18	17	34	0	1	1	29	0	29	104	6	16	18	3	1	63	0	17	44	154	18	4	24	0	13	24	19	0	65	42	69	1	52	5	29	23	3	21
OTU 101	13	0	0	23	0	0	1	0	0	0	1	0	0	1	0	22	0	3	0	0	26	1	0	1	0	0	0	4	1	0	3	0	0	0	38	0	0	0	0	0	0	3	0	0	0	0	0	0	0	0
OTU 102	2	5	0	4	0	0	17	1	25	0	1	0	2	56	91	0	15	0	1	0	1	2	3	8	0	0	0	57	14	0	35	58	0	2	0	9	34	77	0	0	0	0	0	0	1	14	0	22	0	1
OTU 103	40	0	30	5	0	12	18	10	2	1	1	8	10	3	14	14	20	20	48	15	53	1	79	5	0	5	20	34	1	109	9	2	2	6	0	0	4	52	0	40	0	3042	5	10	18	0	12	47	20	6
OTU 104	21	38	19	159	38	119	264	92	84	8	3	1514	57	12	57	64	3	70	176	35	84	36	27	16	15	14	14	182	0	25	9	26	6	29	127	56	40	3	26	19	34	12	45	323	0	9	71	55	20	10
OTU 105	19	37	49	0	34	0	21	0	0	0	0	7	0	0	2	22	1	9	3	0	19	20	9	0	0	0	11	6	0	8	16	0	28	0	0	0	18	0	0	0	0	0	0	14	0	40	0	25	0	28
OTU 106	0	5	0	19	16	5	0	1	0	7	1	4	5	1	16	1	0	0	7	0	0	42	0	11	0	13	3	0	0	3	0	1	136	44	1	0	1	104	0	0	0	35	0	0	0	0	9	10	0	0
OTU 107	1	14	0	0	0	0	5	0	183	5	0	41	4	9	9	19	4	15	29	3	0	111	117	66	0	4	1	3	1	0	3	13	3	5	22	54	16	0	23	0	5	38	0	110	6	0	0	31	0	2
OTU 108	0	69	0	5	0	0	60	26	25	6	169	13	0	0	0	58	342	10	0	1	131	0	5	378	7	139	2	21	4	0	2	1	156	225	1	130	12	11	381	6	22	1	10	108	21	1	27	1	4	42
OTU 109	0	0	0	0	1	0	0	0	11	0	0	0	0	0	0	0	0	0	0	0	0	0	0	0	0	0	0	0	0	0	2	0	0	0	0	1	0	0	0	0	0	0	0	0	0	0	0	0	0	0
OTU 110	121	73	1	15	4	148	16	26	2	49	17	47	168	97	121	6	35	3	1	5	7	190	2	1	17	0	4	34	50	3	2	32	89	8	10	22	17	1	0	1	11	18	10	43	39	19	8	200	21	3
OTU 111	0	0	0	0	0	0	3	0	0	0	38	29	0	7	0	0	1	0	0	0	0	0	4	9	0	0	0	1	0	0	0	1	1	0	0	1	1	6	0	0	0	14	0	0	0	0	0	49	0	0
OTU 112	29	4	0	17	53	0	14	0	4	38	9	61	48	66	13	1	0	51	1	1	88	1	8	7	0	0	18	191	27	93	0	4	1	0	21	0	9	45	0	36	0	0	0	5	25	6	0	3	28	13
OTU 113	0	13	0	29	0	7	2	1	0	0	0	12	0	0	0	3	0	0	4	34	0	2	0	0	2	0	2	1	0	0	0	0	2	0	0	1	8	3	5	15	0	1	2	0	2	7	0	0	0	0
OTU 114	23	9	25	17	15	207	0	29	638	87	11	0	39	5	39	16	1572	2	21	24	250	34	153	16	12	33	4	145	2	163	41	299	121	95	16	11	33	34	151	43	21	60	14	59	35	6	21	59	0	11
OTU 115	139	55	40	33	9	64	52	64	29	15	26	173	61	4	6	88	33	80	191	170	78	26	25	2	18	16	49	37	11	22	99	95	43	29	47	114	109	112	19	69	75	6	33	26	42	13	16	93	56	0
OTU 116	76	31	24	8	68	29	66	23	21	89	29	54	7	8	9	22	0	82	32	7	16	25	2	7	7	12	34	226	13	33	88	8	42	31	26	6	10	46	5	6	27	5	10	96	17	31	6	41	2	60
OTU 117	18	12	2	1	12	22	32	3	17	44	0	3	14	72	141	42	18	16	29	33	0	17	13	1	0	9	0	82	38	18	6	74	1	7	42	26	9	19	4	133	0	1	0	40	7	2	14	151	12	2
OTU 118	0	0	21	2	0	0	0	0	0	20	0	51	0	5	0	4	1	5	0	0	28	0	0	0	0	0	0	0	0	119	82	8	126	1	0	0	3	97	0	0	19	0	0	83	0	0	0	0	0	0
OTU 119	46	36	98	18	28	48	25	64	2	7	21	2	89	14	17	12	41	127	32	0	0	53	1	0	18	25	0	68	8	18	7	42	33	25	23	2	27	9	8	36	33	23	32	24	195	12	56	62	31	10
OTU 120	0	29	0	37	131	53	9	0	12	15	22	0	0	21	45	0	0	0	7	141	1	6	17	0	0	0	7	15	1	19	0	2	29	0	23	26	1	141	1	0	1	0	0	106	1	47	2	1	0	3
OTU 121	726	209	3	7	140	21	198	5	253	2	5	1	2	64	169	12	7	550	69	36	10	3	1	19	0	0	5	6	39	7	25	0	78	0	4	25	43	15	1	0	2	3	2	17	4	167	57	0	15	45
OTU 122	7	64	26	13	40	11	95	199	16	43	26	110	2	0	3	23	1	21	106	11	37	124	271	8	48	1	7	3	0	156	39	24	0	6	12	0	1	37	1	9	105	87	83	9	4	6	80	0	3	0
OTU 123	59	81	119	77	1002	38	180	58	286	103	66	195	86	85	167	167	123	57	278	80	616	105	386	121	43	42	57	167	65	526	64	274	1048	71	121	65	62	243	42	151	21	75	37	1038	104	98	23	783	339	49
OTU 124	0	3	21	1	21	0	6	2	18	14	1	0	0	15	30	4	0	0	62	0	58	0	0	26	3	8	0	3	8	5	19	0	10	25	2	3	10	1	41	25	0	12	1	6	0	0	0	5	17	3
OTU 125	391	125	165	1346	70	16	176	217	78	241	35	259	2566	2184	311	217	199	195	402	1276	62	70	104	12	67	4	78	52	1135	112	138	119	554	15	48	33	504	259	32	2331	135	194	108	32	27	88	109	97	74	24
OTU 126	0	0	0	18	57	0	0	67	21	113	0	0	0	21	30	18	0	0	2	39	0	142	0	0	27	3	37	1	11	0	0	2	0	19	73	0	0	0	0	39	49	131	36	4	0	0	68	0	0	0
OTU 127	0	20	78	7	2	4	66	0	16	13	0	208	7	2	0	1	27	6	3	2	9	40	11	24	0	0	0	51	1	34	124	11	6	0	0	2	66	1	0	5	0	0	0	9	6	0	42	88	2	3
OTU 128	64	414	71	114	288	183	240	209	215	502	383	36	87	51	56	126	35	906	173	213	37	1030	221	79	81	459	444	116	4251	265	127	251	373	804	188	93	42	93	26	69	136	448	202	96	85	314	259	102	63	225
OTU 129	1	56	0	0	1	0	6	481	0	0	0	14	147	0	0	6	0	3	0	0	0	0	3	0	76	0	0	48	0	0	0	29	22	0	0	0	0	0	1	0	166	1	241	0	1	58	273	29	0	30
OTU 130	25	7	128	11	27	22	12	1	2	257	9	5	3	47	73	155	6	5	7	28	4	783	16	1	0	1	4	1	35	1	6	38	22	0	5	7	104	9	6	28	0	561	0	4	0	4	0	111	29	0
OTU 131	0	12	3	22	11	0	28	125	80	42	3	412	11	2	2	7	16	12	113	0	1	81	108	6	32	3	27	105	3	30	0	37	0	9	91	0	12	36	29	2	93	27	52	83	21	17	2	330	0	10
OTU 132	6	0	0	9	0	7	0	0	0	3	119	49	5	13	2	22	2	42	4	27	0	44	32	18	0	3	44	13	11	30	27	22	11	11	0	1	6	61	8	53	5	29	0	44	3	7	0	28	0	0
OTU 133	83	3	38	0	0	49	0	0	0	0	13	2	0	0	4	2	0	6	2	1	0	0	0	0	0	2	1	3	1	0	0	0	0	0	0	0	0	1	1	1	2	2	0	0	122	3	18	0	1	2
OTU 134	2	1	1	23	35	91	37	142	22	5	441	73	11	1	0	66	39	19	1	1	2	22	1	135	40	40	0	6	2	14	3	0	60	111	1	20	0	233	187	1	103	242	66	36	0	0	6	56	22	0
OTU 135	13	2	10	23	12	14	3	4	13	2	2	13	0	0	15	6	38	18	103	48	108	7	13	9	2	0	1	26	0	38	29	7	12	0	0	68	3	26	9	0	2	19	0	9	1	49	2	8	0	30
OTU 136	17	17	2	0	5	1272	5	2	21	3	0	40	21	15	9	2	18	7	8	1	1	0	22	1	0	0	3	1	2	3	0	13	5	0	70	44	30	89	0	28	1	8	1	0	1300	1	1	9	0	5
OTU 137	1	1	0	0	35	0	135	0	0	1	9	15	14	0	4	51	0	0	0	10	3	0	22	4	1	0	200	0	0	4	66	9	33	3	0	28	2	0	5	0	3	5	3056	0	6	0	0	0	0	0
OTU 138	21	66	16	17	89	0	11	6	15	0	0	0	30	0	1	44	2	2	146	0	2	8	0	7	0	12	99	2	0	3	0	0	78	13	0	56	18	0	0	4	0	25	0	2	42	12	2	46	3	3
OTU 139	212	81	308	22	229	47	49	244	396	49	16	153	72	560	1181	63	9	129	348	33	14	1	33	1870	37	27	33	26	927	136	22	199	50	57	98	30	475	83	33	15	93	75	144	788	22	60	189	33	36	32
OTU 140	168	45	82	44	229	111	7	53	28	62	33	146	63	80	89	80	3	7	86	77	7	283	274	42	9	27	90	161	15	59	45	220	74	31	174	86	205	61	27	220	27	71	22	24	29	1309	29	5	20	650
OTU 141	0	0	1	0	0	0	0	0	2	9	0	0	0	0	0	0	0	0	0	0	0	0	0	0	0	0	0	0	0	0	0	0	0	0	0	0	0	0	0	0	0	0	0	0	0	0	0	0	0	0
OTU 142	0	3	0	0	0	0	0	0	0	0	0	0	0	0	0	0	0	0	0	0	0	0	0	0	0	0	0	0	0	2	22	0	0	0	0	0	0	0	0	0	1	0	0	0	0	0	0	0	4	0
OTU 143	0	0	0	0	0	0	0	9	0	1	29	27	82	0	0	53	127	0	13	0	0	0	2	1	0	2	6	0	0	2	39	0	23	5	5	36	0	46	0	0	3	2	4	6	4	2	0	27	0	16
OTU 144	123	8	0	0	0	0	1	3	5	2	6	0	2	2	1	0	17	3	6	3	1	4	5	0	4	1	1	1	2	1	3	0	38	6	3	5	0	31	1	2	0	0	0	0	8	8	25	0	0	4
OTU 145	60	1296	5	72	5	7	17	18	13	20	13	2	15	51	89	51	16	2304	37	9	112	54	34	15	66	7	11	24	17	76	28	0	40	15	3	2	47	12	4	1	46	51	11	63	98	559	14	165	42	337
OTU 146	43	0	2	7	2	1	0	24	91	102	3	6	52	98	226	8	2	2	65	3	1	0	0	33	6	4556	7	32	31	25	3	2	84	21	23	93	57	18	18	1	4	46	12	1	0	7	8	0	0	0
OTU 147	0	0	0	0	0	5	8	1	4	47	9	1	35	8	13	25	0	0	7	0	25	289	23	0	4	6	164	1	2	2	12	10	40	0	14	3	5	19	1	0	7	58	0	52	0	0	14	10	0	36
OTU 148	9	0	11	13	42	4	1	2	3	21	12	4	23	99	81	24	31	14	28	31	40	26	57	3	1	0	3	8	23	76	0	49	0	0	27	40	88	100	8	11	1	33	0	0	90	1	1782	313	1	1
OTU 149	5	1	0	0	46	22	25	34	0	18	7	0	0	0	1	2	0	23	0	1	320	0	0	0	1	0	1	1	5	0	2	0	3	1	4	0	14	15	0	74	10	0	11	20	38	0	0	85	0	0
OTU 150	0	0	6	3	0	2	73	0	3	7	2	0	64	7	1	9	0	3	48	13	0	0	1	0	0	2	0	25	3	159	0	21	0	1	0	1	1	65	0	13	1	7	0	8	0	0	0	0	10	2
OTU 151	0	1	3	5	57	104	5	10	0	60	37	82	11	5	17	16	0	0	28	4	2	27	86	10	3	0	0	4	5	5	4310	4	380	0	7	0	6	2	21	41	1	2	9	25	25	5	0	9	1	11
OTU 152	33	49	53	68	67	11	258	425	133	54	1	6	66	22	141	39	8	113	30	56	6	41	9	16	202	3	9	21	12	27	27	14	27	1	0	4	65	19	6	72	232	44	198	4	24	16	145	7	275	16
OTU 153	0	0	0	6	17	0	0	0	0	0	0	23	27	1	0	0	0	0	1	0	0	0	0	0	3	0	0	0	0	17	1	0	0	0	1	1	0	0	0	0	0	0	0	8	0	0	0	1	0	0
OTU 154	0	0	0	0	13	33	0	15	0	0	2	3	0	18	0	10	1	0	0	18	12	0	13	0	1	0	0	0	12	0	0	0	5	0	6	0	0	24	0	0	11	0	5	0	35	0	23	0	1	0
OTU 155	1	0	61	0	1	0	0	10	1	0	68	0	3	0	1	1	1	24	4	6	9	5	1	0	5	2	8	0	0	227	0	2167	20	10	25	5	66	158	1	35	9	0	3	0	1	6	0	1	0	0
OTU 156	32	60	22	5	13	11	14	79	82	5	12	129	37	18	5	101	36	3	14	168	16	78	41	1	16	18	6	17	1	23	49	31	256	38	19	23	39	107	51	181	10	8	37	62	14	37	95	63	50	38
OTU 157	0	1	0	1	0	89	0	64	0	2	0	0	8	2	0	0	1	3	1	6	0	0	2	0	1	0	0	4	0	0	17	0	3	0	0	0	0	0	2	0	39	7	29	2	0	0	11	120	5	0
OTU 158	0	0	5	0	0	1	0	0	0	0	0	19	0	0	0	0	0	26	0	0	0	0	0	0	0	0	0	0	0	0	0	16	3	0	5	0	0	1	0	0	0	0	0	0	0	0	0	0	8	0
OTU 159	79	142	0	18	26	85	17	13	9	13	0	9	83	1	0	705	7	1	5	1	5	11	123	45	517	0	0	47	0	1	11	38	63	7	6	2	8	0	1	6	20	20	10	12	33	12	54	0	2	0
OTU 160	230	84	21	17	31	74	163	44	123	63	121	92	33	13	114	157	32	75	29	33	36	72	148	36	1	102	41	142	3	23	102	141	240	33	103	193	24	15	97	23	21	142	27	51	16	50	39	32	39	18
OTU 161	6	29	0	1	54	14	68	88	71	5	0	78	0	22	34	71	2	4	0	25	1	102	14	30	9	0	16	7	4	66	12	0	1	0	71	41	15	23	18	8	19	0	49	27	21	20	33	7	17	14
OTU 162	22	271	7	108	10	14	27	74	23	15	2	4	93	10	0	83	0	6	49	21	34	82	158	0	19	0	147	107	4	0	11	15	3	3	17	12	8	166	0	205	36	1	31	16	54	93	27	1	10	67
OTU 163	0	0	0	0	0	0	0	0	0	0	0	0	0	0	0	0	37	0	0	2	11	1	0	0	0	1	0	0	0	0	0	0	0	0	0	0	0	0	0	0	0	4	0	0	0	1	0	0	0	0
OTU 164	1	0	0	0	0	0	0	0	0	0	0	0	0	0	0	11	0	0	0	0	0	0	0	0	0	0	0	0	0	0	0	0	0	1	0	0	0	0	0	0	0	0	0	0	0	0	0	0	0	1
OTU 165	0	0	0	10	18	33	21	1	1	2	0	1	0	0	2	13	0	3	1084	0	53	2	60	0	1	0	73	1	0	55	4	0	1	4	15	32	16	205	0	31	0	1	1	92	0	0	2	15	10	0
OTU 166	4	0	0	0	0	0	0	0	0	0	0	0	0	0	0	1	0	0	0	0	0	0	0	0	0	0	3	0	0	0	3	0	0	0	0	0	0	0	0	7	0	0	0	92	0	0	0	0	0	0
OTU 167	19	10	6	38	0	59	58	211	69	16	9	1	68	1	0	0	18	7	7	0	108	0	0	0	56	16	23	0	0	77	55	2	1	19	21	149	2	123	0	2	111	1	111	135	20	0	156	0	0	1
OTU 168	121	9	14	0	139	6	165	12	12	22	0	4	21	2	4	1219	16	70	10	6	1	22	9	90	0	20	16	73	8	1	43	110	26	25	0	16	12	190	18	0	0	1	7	26	8	20	3	93	54	6
OTU 169	0	0	0	39	0	0	2	0	6	3	0	0	0	1	0	0	0	0	0	0	0	8	14	0	0	0	0	22	1	3	0	0	0	0	0	5	0	0	4	120	0	0	0	0	2	0	0	0	0	0
OTU 170	0	0	0	0	0	0	0	0	0	0	0	13	0	0	6	1	0	0	0	0	0	0	0	0	0	0	0	0	0	0	0	0	0	0	0	0	0	0	0	0	0	0	0	0	14	0	0	0	0	0
OTU 171	6	11	4	27	4	5	30	36	124	3	6	61	2	0	36	11	13	0	4	1	5	43	0	12	1	2	75	0	1	24	0	0	3	8	2249	3	3	428	0	0	4	6	15	15	0	0	2	6	0	24
OTU 172	0	0	0	4	0	0	0	0	0	0	4	1	7	0	0	0	0	0	29	0	4	36	3	0	0	0	0	12	0	0	25	1	182	0	0	10	0	0	0	0	0	2	0	4	0	4	0	0	0	15
OTU 173	0	25	2	0	65	27	0	0	3	1	0	1	1	1	1	5	1	14	7	42	3	0	88	1	0	0	0	30	0	47	2	15	1	0	5	0	0	55	21	8	7	45	0	0	0	8	7	15	0	8
OTU 174	123	103	8	177	103	0	559	121	47	28	53	10	18	58	199	0	17	99	8	225	35	26	137	24	9	0	30	67	7	0	1	89	1	0	0	2	84	5	0	288	105	6	52	64	64	127	27	180	0	29
OTU 175	0	2	6	0	0	1	1	0	32	0	1	36	4	15	20	2	1	0	0	0	1	4	0	14	0	10	102	13	1	36	50	0	3	11	6	20	9	53	0	8	0	27	0	54	0	6	4	43	50	9
OTU 176	69	8	30	9	14	30	177	2	14	225	68	7	35	58	104	0	78	10	75	5	27	302	22	2356	4	3	9	17	16	83	154	29	52	33	74	2	50	200	25	1	8	100	0	118	0	1	7	169	48	3
OTU 177	58	14	40	20	56	60	6	7	82	780	105	0	51	28	46	71	15	3	25	153	0	19	16	1	2	8	162	19	24	92	33	0	158	12	101	53	86	1	0	41	0	5	2	22	20	35	3	45	5	1
OTU 178	16	1	0	52	56	1	0	18	5	0	30	7	0	1	7	0	5	0	29	66	0	5	46	8	4	0	19	2	0	16	51	0	43	0	77	0	0	7	5	23	0	2	4	2	0	0	0	1	1	0
OTU 179	1	5	5	0	12	39	12	97	69	1	10	0	105	14	55	43	123	2	44	6	8	0	26	16	4	27	37	34	6	0	20	19	25	66	34	21	7	2	38	38	44	2	51	0	19	1	49	44	25	0
OTU 180	63	13	1783	110	189	1388	3	138	219	30	228	149	3	16	46	732	325	20	131	193	33	142	17	178	14	57	52	101	121	37	114	144	109	152	25	189	3647	127	107	236	61	90	73	62	507	41	63	22	626	20
OTU 181	38	1	8	7	4	10	5	11	64	3	112	10	34	0	5	1	22	1	16	7	6	2	19	12	0	0	1	47	0	47	2	4	56	3	2	1	0	49	12	2	3	0	9	22	0	2	32	24	35	0
OTU 182	0	0	0	0	5	0	1	15	0	4	0	0	0	0	0	3	0	0	0	0	0	0	1	0	0	0	3	0	1	0	0	0	0	0	0	0	0	0	0	0	0	0	13	3	0	0	0	99	0	0
OTU 183	209	9	40	1	2	9	31	136	6	9	1	3	1	19	240	1	3	63	9	2	10	19	11	0	49	0	31	0	11	17	19	15	80	0	0	44	13	87	18	0	72	69	83	34	0	2	75	64	43	3
OTU 184	0	2	0	0	0	0	38	38	0	48	3	0	3	7	69	19	5	0	5	34	1	75	0	7	1	0	16	10	4	0	35	0	2	0	7	0	0	2	4	9	13	16	21	10	1	0	78	109	1	12
OTU 185	88	23	189	25	4	8	30	43	8	10	0	18	42	1	38	172	118	5	1889	100	3	6	9	0	51	6	32	113	1	31	9	25	98	21	33	7	29	153	10	103	37	0	18	62	20	17	1	333	5	1
OTU 186	11	2	2	1	120	1	0	35	0	1	1	0	2	0	15	75	0	2	2	1	0	14	10	0	626	0	1	2	0	46	0	0	0	3	12	6	0	14	0	20	1275	1	16	0	2	0	29	5	7	1
OTU 187	73	1959	10	11	51	140	126	133	140	15	312	22	38	124	79	181	41	5	16	1169	22	190	10	45	35	631	75	124	76	3	122	37	20	1267	75	112	10	37	3	3	96	37	58	28	47	787	15	100	19	488
OTU 188	118	69	1	54	13	2	41	3	564	4	90	103	97	34	11	120	1	36	98	39	16	5	393	71	12	8	11	48	14	30	32	255	109	6	77	102	83	256	32	21	2	1	2	811	18	12	2	39	5	4615
OTU 189	48	28	3190	94	2	42	222	13	433	48	26	50	139	25	3	7	54	12	67	64	73	244	180	23	4	23	86	1	9	71	94	73	56	43	8	2	49	14	17	23	21	192	6	78	17	15	24	48	21	18
OTU 190	0	277	0	0	0	0	37	27	0	0	5	23	0	1	0	0	0	500	3	0	3	0	4	0	8	1	0	0	0	34	68	0	0	0	7	0	0	1	0	0	14	0	10	4	0	322	0	0	0	87
OTU 191	83	9	77	22	63	25	3	16	43	6	34	108	39	2	6	2	9	0	92	81	92	7	23	58	1	24	23	114	0	19	22	190	61	43	45	33	9	199	49	9	30	553	9	73	6	4	14	4	312	5
OTU 192	105	244	31	1521	30	133	12	455	10	19	5	16	278	95	141	135	2	122	57	26	98	14	162	64	141	24	19	22	48	61	21	55	221	58	5	40	51	14	13	75	223	30	222	83	34	18	114	91	9	26
OTU 193	13	27	28	10	38	28	18	61	29	25	118	40	72	6	0	0	1337	0	21	81	7	29	54	0	21	6	34	2	4	4	9	45	17	8	0	12	5	29	14	5	74	51	27	6	71	22	70	1	18	28
OTU 194	0	9	8	36	6	2	31	34	60	8	12	2	1	35	19	18	14	17	26	35	4	3	2	2	7	0	81	909	7	2	1	0	0	0	17	42	15	16	0	0	25	27	12	46	3377	30	1	61	7	25
OTU 195	25	0	159	36	0	0	52	2	2	9	43	0	2	148	182	6	23	0	27	0	419	34	47	7	1	0	5	13	91	13	0	11	14	0	1	57	99	14	1	30	0	1	1	11	15	2	10	12	5	0
OTU 196	6	9	0	54	26	151	10	93	1	0	36	59	2	0	0	1	74	13	5	84	0	44	7	164	20	104	379	6	0	2480	7	119	7	189	13	15	0	2	182	35	28	5	51	3	84	0	55	1	54	0
OTU 197	152	179	51	73	191	31	144	55	85	203	64	39	13	37	52	45	61	10	81	28	23	64	26	50	4	1	94	18	20	180	86	16	53	9	878	86	91	25	63	115	13	41	21	26	16	52	232	57	26	22
OTU 198	0	15	12	0	24	0	0	89	37	4	14	38	1	4	0	19	106	57	10	0	4	1	0	0	22	0	26	0	2	6	2	7	0	0	0	1	0	6	18	0	53	0	44	0	0	6	1	74	4	0
OTU 199	0	9	3	59	12	1	22	13	20	42	43	38	2	0	161	0	0	0	2	5	2	103	67	3	1	0	0	22	2	10	4	0	1	0	1	3	18	4	982	5	0	68	5	0	5	0	0	5	0	21
OTU 200	58	28	17	75	140	101	5	37	15	11	7	27	10	18	13	105	6	31	67	33	6	29	18	9	0	10	103	0	6	8	33	2	3	21	34	11	14	0	27	233	50	1	23	5	17	6	21	14	7	1
