	Host 1	Host 2	Host 3	Host 4	Host 5	Host 6	Host 7	Host 8	Host 9	Host 10	Host 11	Host 12	Host 13	Host 14	Host 15	Host 16	Host 17	Host 18	Host 19	Host 20	Host 21	Host 22	Host 23	Host 24	Host 25	Host 26	Host 27	Host 28	Host 29	Host 30	Host 31	Host 32	Host 33	Host 34	Host 35	Host 36	Host 37	Host 38	Host 39	Host 40	Host 41	Host 42	Host 43	Host 44	Host 45	Host 46	Host 47	Host 48	Host 49	Host 50	
OTU 1	32	28	167	64	19	2	29	12	80	71	0	8	6	85	21	62	0	101	39	131	25	12	189	16	0	0	95	60	73	0	22	46	0	26	16	81	2	53	87	3	225	39	0	84	38	42	64	5	1	82
OTU 2	136	4	84	43	1	10	7	11	0	2	0	10	11	30	1	7	11	19	4	3	3	1	0	934	18	150	1	5	9	1	4	0	100	2771	4	44	37	0	7	93	1199	2	20	0	132	5	21	21	0	0
OTU 3	0	0	0	0	145	205	0	0	13	0	2	1	0	2	1	0	0	0	2	0	0	0	25	3	0	1	1	8	5	0	0	13	0	28	0	0	0	6	2	59	0	0	9	0	0	4	2	0	99	1
OTU 4	0	0	0	0	0	0	0	0	0	0	0	0	0	4	0	0	0	0	0	0	0	0	0	0	0	0	2	0	0	0	0	0	0	0	0	0	0	3	0	0	0	0	0	0	0	0	0	0	0	0
OTU 5	415	303	0	103	145	550	726	118	578	513	654	444	1960	519	310	779	702	178	225	1317	0	184	396	250	7	300	20	105	277	127	0	46	48	131	176	1	0	172	240	21	29	38	428	0	0	903	341	98	12	0
OTU 6	13	2	34	10	27	5	7	62	32	5	0	23	95	9	92	5	0	11	18	14	31	28	40	4	0	91	167	4	33	0	9	1	73	6	22	17	0	27	8	11	1025	3	723	43	62	30	3	2	0	18
OTU 7	80	35	125	24	78	17	229	97	20	33	30	10	119	42	2	9	516	49	17	12	27	25	95	3	29	98	7	53	49	34	214	31	166	43	763	101	2105	36	1631	163	30	665	102	80	136	5	36	35	13	138
OTU 8	19	84	31	6	151	23	2	66	9	72	35	3	96	62	14	5	89	15	2	32	24	92	59	15	89	58	33	36	4	105	93	61	172	112	2772	17	337	15	56	127	28	36	90	40	8	3	24	121	12	269
OTU 9	14	1	55	2	1	0	1	0	8	22	15	0	0	0	0	18	0	3	0	1	81	0	16	32	22	32	0	3	0	15	36	14	24	0	1	26	0	29	3	64	2	0	0	23	56	0	1	17	0	0
OTU 10	0	57	19	0	93	27	0	6	0	23	2	3	16	0	2	3	1	0	2	0	0	1	1	4	317	1	10	35	2	18	68	16	19	84	813	16	9	12	1146	15	0	399	4	3	0	1	0	4	10	0
OTU 11	23	45	14	11	112	2	32	85	9	2	7	13	12	0	0	19	21	23	8	2	27	10	15	12	77	7	3	42	21	82	29	0	9	1	2	4	81	28	2	806	25	17	5	143	170	0	5	14	52	29
OTU 12	1	63	13	31	107	41	18	73	3	2	9	8	12	1	1	17	60	72	17	10	71	8	3	10	13	6	20	39	40	98	64	20	82	91	24	9	157	6	13	5	2	3	79	21	1	99	12	1	5	92
OTU 13	0	0	1	0	0	0	0	0	1	0	0	8	0	2	0	0	0	0	4	0	5	0	0	0	54	0	0	0	9	0	16	0	0	1	95	1	2	0	140	126	0	0	0	0	0	0	0	4	73	67
OTU 14	0	29	0	0	0	32	5	0	0	11	2	3	3	0	0	1	34	3	8	7	96	141	1	0	20	33	9	67	26	4	6	4	12	1	9	0	0	0	5	51	5	18	28	24	4	0	0	6	21	19
OTU 15	0	18	1	0	0	0	0	0	3	0	30	0	18	0	0	0	1	84	0	49	0	0	3	0	0	0	0	36	0	0	6	0	1	1	4	0	2	0	0	24	0	372	0	4	0	0	0	0	0	0
OTU 16	0	0	0	0	0	0	0	0	0	0	0	0	0	0	0	0	0	0	0	0	0	0	0	0	0	2	0	4	0	0	1	0	0	0	0	0	0	0	0	0	0	0	0	0	0	0	0	0	0	7
OTU 17	0	3	6	1	120	8	23	10	40	6	8	8	4	5	2	9	14	6	2	11	145	0	46	3	243	19	1	0	7	8	61	8	13	13	13	0	14	0	30	24	37	22	7	0	10	10	0	16	1	43
OTU 18	19	148	45	97	60	161	44	12	4	21	51	158	16	280	23	19	23	126	27	11	10	5	17	37	18	112	35	6	45	77	139	8	7	63	0	27	59	3971	1	6	33	25	17	64	36	20	49	61	28	21
OTU 19	0	0	0	0	0	0	0	0	0	0	0	0	15	0	0	0	0	0	0	0	0	0	0	0	0	0	0	0	0	0	0	0	0	0	0	0	0	0	0	0	0	0	0	0	0	0	0	0	0	0
OTU 20	3	14	1	3	13	135	4	60	18	6	64	0	23	120	8	6	7	39	17	0	1	74	39	0	15	219	4	4	26	3	101	36	2	13	6	0	9	37	1	5	50	4	7	87	0	5	35	12	56	21
OTU 21	1	49	46	13	9	62	22	34	15	1	2	0	27	131	15	1	89	53	1156	6	84	90	4	7	77	23	25	3	2	177	23	86	103	41	6	26	13	31	16	94	44	16	66	16	0	46	55	6	4	58
OTU 22	25	15	4	10	11	0	0	34	12	21	29	19	139	53	16	44	22	73	21	20	10	162	54	1	11	48	17	194	32	218	46	359	20	4	2	3	100	141	4	10	59	17	100	2	29	85	2	0	0	2
OTU 23	1	4	0	3	1	7	0	39	0	51	33	19	37	0	10	26	0	1	7	0	23	15	1	3	1	8	12	13	19	42	1	6	2	1	0	2	72	47	0	4	11	0	0	136	0	10	12	4	12	6
OTU 24	2	14	0	0	64	0	0	6	0	3	0	0	6	0	5	0	11	1	0	30	457	7	17	0	3	1	13	25	0	22	0	2	0	0	21	1	0	0	124	86	0	42	0	7	9	0	2	3	0	0
OTU 25	0	0	0	0	0	0	0	0	0	0	0	0	0	0	0	9	0	1	0	0	0	0	0	0	23	0	0	7	0	0	0	0	0	0	0	0	0	0	0	0	0	0	0	0	0	0	0	0	0	0
OTU 26	1	14	1	10	0	0	2	0	0	19	8	0	44	0	0	0	0	0	0	0	0	12	0	1	1	15	0	0	0	0	6	0	1	0	459	0	7	0	0	0	0	0	1	4	9	3	15	19	2	1
OTU 27	0	0	0	0	47	0	4	0	0	0	0	0	0	0	9	1	0	2	0	0	0	0	0	0	0	0	4	0	0	0	0	0	0	0	0	0	0	0	0	0	0	0	0	7	0	1	5	0	0	0
OTU 28	36	107	28	91	21	44	5	0	1	40	11	0	74	2	19	1	36	5	27	38	33	10	7	25	132	209	25	9	34	4	27	12	83	12	55	9	38	6	16	4	7	13	4	46	37	1	8	78	96	34
OTU 29	28	22	119	0	57	0	112	1	4	5	23	23	18	29	83	56	16	88	28	59	118	62	26	21	3	26	143	19	59	23	118	156	88	21	8	43	167	17	1	121	5	28	3	23	52	23	52	1	110	212
OTU 30	0	0	0	1	0	0	0	0	0	0	0	0	0	0	0	0	0	0	0	0	0	0	0	0	0	0	0	0	0	0	0	0	0	4	0	0	2	0	0	0	0	0	0	0	0	0	0	0	0	0
OTU 31	0	5	0	0	38	0	0	11	2	36	9	2	0	28	30	0	5	6	0	1	91	0	6	35	3	17	49	28	1	58	0	1	0	26	8	0	25	2	0	3	30	4	6	36	3	4	0	0	0	14
OTU 32	207	56	20	65	81	28	34	65	32	51	48	9	5	17	1946	14	10	22	47	82	67	171	80	117	1	89	1420	230	62	141	25	422	69	13	39	8	172	191	28	17	12	23	45	132	454	853	2	64	25	30
OTU 33	0	2	0	0	0	1	0	1	0	1	0	0	0	0	0	0	0	0	0	10	0	0	20	0	32	0	0	0	0	0	0	0	0	0	1	0	0	0	0	7	0	0	3	0	0	12	0	0	2	0
OTU 34	2	54	139	114	74	30	20	110	2	97	60	5	25	43	2	3	41	90	1	18	58	2	0	8	94	17	3	0	1	34	14	53	16	76	0	68	10	24	0	133	15	9	2	28	4	10	13	1	2	5
OTU 35	2	21	0	37	5	68	13	12	0	0	6	6	5	224	5	50	10	25	21	2	684	5	0	103	0	3	19	0	41	10	15	4	1150	40	3	1	66	20	38	119	94	5	14	23	6	480	119	14	77	34
OTU 36	0	10	3	23	18	3	0	135	3	1	32	0	0	61	21	7	0	5	3	20	115	9	3	5	170	171	32	38	12	0	108	0	106	4	20	1	20	2	32	85	12	50	86	3	9	127	27	57	31	54
OTU 37	87	1	0	38	120	14	0	0	0	0	0	4	0	93	46	0	0	1	4	3	4	0	0	52	33	34	73	1	9	37	13	5	0	0	9	0	7	0	0	0	0	2	13	15	103	3	28	0	681	0
OTU 38	26	24	5	59	16	166	10	117	0	3	40	5	19	91	0	2	54	68	5	25	2	33	3	21	0	75	2	181	11	20	27	52	81	5	8	1	2	5	7	0	4	18	69	371	100	0	15	15	2	115
OTU 39	43	4	3	0	32	0	1	0	4	0	9	1	16	23	2	0	0	7	0	0	7	0	5	0	3	0	0	0	0	0	29	0	0	1	0	2	16	0	13	0	0	4	0	11	6	4	6	47	7	48
OTU 40	45	7	40	6	134	9	187	66	18	60	9	13	39	236	11	24	82	11	1	4	169	1	15	10	94	47	7	724	3	3	61	22	7	122	5	10	18	4	28	95	38	21	4	4	55	1708	219	4	9	49
OTU 41	4	23	29	1	40	65	1290	63	5	66	57	17	12	30	4	3	26	120	1	77	2	29	1	5	17	12	7	185	1	2	16	11	1	24	33	20	49	6	44	17	32	39	2	5	2	20	27	0	50	3
OTU 42	0	7	13	196	0	39	20	0	3	2	10	23	21	0	0	16	0	0	4	0	0	0	5	1	6	8	0	154	12	3	0	0	1	0	0	4	7	10	0	6	2	18	23	0	24	3	0	0	0	0
OTU 43	0	0	15	0	0	0	0	0	1	0	0	0	0	0	0	0	0	0	0	0	0	0	0	0	0	0	0	0	0	0	0	0	0	0	0	10	0	0	0	0	0	0	0	0	0	0	0	15	0	5
OTU 44	0	0	4	0	0	0	0	0	34	23	136	0	4	0	0	0	0	165	1	10	7	0	41	4	0	1	0	0	2	0	1	3	0	0	0	3	21	0	4	3	0	0	0	0	5	3	3731	0	0	0
OTU 45	1	74	288	65	83	35	95	29	12	40	9	14	54	1	15	0	3	12	2	10	14	48	22	13	27	19	37	12	4	35	172	39	94	1	8	121	36	42	3	105	0	40	56	96	34	16	0	87	0	95
OTU 46	577	42	60	537	10	24	36	121	19	86	36	43	227	61	1	79	34	81	86	122	20	105	12	93	142	101	11	55	155	100	180	270	43	62	76	39	8	39	150	101	2	68	77	68	1283	22	0	736	166	58
OTU 47	5	37	0	0	17	1	0	3	0	0	0	0	0	0	1	0	0	3	0	1	0	0	0	0	5	0	0	0	0	98	0	0	0	0	0	1	0	0	0	1	2	24	0	0	4	0	14	0	0	148
OTU 48	57	42	24	19	136	16	28	17	7	3	29	8	108	0	18	53	85	61	3	8	57	29	8	41	27	184	50	42	8	23	5	64	110	42	9	15	47	49	33	90	9	26	16	342	115	13	3	12	18	71
OTU 49	11	0	95	10	25	92	51	23	0	42	0	1	1	32	0	0	0	4	0	12	0	7	0	3577	0	0	14	60	1	2	9	1	37	0	0	45	28	0	15	88	0	1	2	6	25	73	9	0	1	53
OTU 50	49	51	26	115	45	109	14	14	38	15	3	3	55	107	3	25	1	15	4	23	423	62	60	238	56	121	8	7	8	5	33	69	9	167	28	10	7	30	17	66	238	6	69	260	17	9	112	15	14	3
OTU 51	19	5	31	5	104	15	22	23	88	10	41	1	0	120	45	10	62	111	19	23	3	0	160	19	1	142	67	35	42	156	5	22	6	1	383	23	173	10	698	36	5	301	0	60	68	28	49	49	0	71
OTU 52	34	2939	30	4	142	105	15	31	180	21	101	4	100	0	41	13	24	211	11	265	144	253	353	179	117	114	178	149	24	7	93	885	4	579	159	17	82	289	251	34	150	150	75	282	53	61	33	307	10	37
OTU 53	0	0	0	0	0	0	0	2	0	0	0	0	0	0	0	0	0	0	0	0	0	0	0	0	2	0	0	0	0	0	0	0	0	0	0	0	0	0	0	0	1	9	0	0	0	0	0	1	0	17
OTU 54	0	24	45	23	8	288	107	12	42	36	86	11	75	29	15	1	44	160	4	6	4	98	29	23	20	3	86	95	11	120	92	99	22	10	15	9	31	137	0	72	75	1	49	92	0	86	25	182	1	9
OTU 55	0	0	0	0	0	0	0	0	0	0	0	0	0	0	0	0	0	0	0	0	0	0	0	0	1	0	0	0	0	0	0	0	0	0	0	0	0	0	0	0	0	0	0	0	0	0	0	0	0	0
OTU 56	2	9	6	15	2	11	1	42	6	0	6	1	12	0	7	0	0	5	2	29	7	0	12	0	4	8	19	27	4	0	8	0	4	16	3	8	34	21	0	6	1	0	17	325	13	17	0	0	0	42
OTU 57	170	170	88	45	107	47	47	15	36	7	38	167	42	257	35	208	47	39	137	45	129	45	88	112	85	181	57	89	299	136	66	122	192	32	58	38	56	15	75	80	64	8	82	99	231	33	67	131	227	88
OTU 58	2	12	16	39	104	58	15	38	2	1	32	1	11	119	0	0	2	152	11	35	136	0	8	3	80	2	7	49	21	1	15	1	123	12	13	3	0	8	0	217	0	0	1	0	0	4	56	37	26	0
OTU 59	0	1	84	7	1	0	10	10	27	5	3	1	0	48	4	0	37	26	0	0	0	5	43	12	138	1	4	76	0	29	2	5	17	53	0	40	66	18	18	3	14	1	75	43	0	27	51	1	0	9
OTU 60	11	18	0	42	24	59	0	152	46	32	97	0	66	48	0	0	67	85	3	16	200	1	128	24	174	204	9	103	4	5	37	23	65	0	75	0	161	2	64	16	28	101	2	8	87	25	17	17	9	105
OTU 61	69	75	217	83	6	1082	160	116	1	89	16	6	51	222	2543	17	12	61	10	30	189	0	3	84	93	37	13	223	36	39	12	89	28	9	13	127	50	26	38	178	17	104	74	72	72	0	45	33	20	24
OTU 62	7	56	7	0	0	8	0	4	0	0	0	0	9	0	0	0	0	0	0	0	0	27	0	1	32	82	5	3	0	1	0	61	92	0	0	4	7	2	7	2	5	7	0	77	16	0	0	0	0	97
OTU 63	12	2	66	0	5	8	11	0	13	11	4	0	0	8	5	0	98	6	3	0	0	60	42	72	42	0	0	0	5	4	7	147	2	66	12	38	8	172	0	47	1	6	4	10	7	46	2	10	0	7
OTU 64	143	99	84	21	70	60	45	171	67	33	44	23	57	144	7	85	59	214	41	165	173	31	139	52	19	87	14	66	91	166	51	32	39	14	20	45	138	93	120	66	60	42	32	346	416	148	48	276	132	167
OTU 65	29	0	0	6	0	0	0	1	0	0	0	0	1	0	0	0	2	12	1	0	0	0	0	6	0	0	0	0	1	0	0	0	575	0	0	0	0	0	0	0	0	4	0	0	13	0	0	0	63	0
OTU 66	5	17	7	6	6	2	4	82	42	13	4	25	37	66	5	52	2	68	43	15	87	24	91	8	21	10	7	17	82	15	9	73	22	31	11	0	133	0	42	4	0	2	110	8	7	83	1	1	40	253
OTU 67	3	38	79	21	99	53	11	4	87	20	2216	0	55	24	12	11	21	39	7	34	13	0	148	11	18	46	13	50	16	2	16	0	16	4	20	37	80	4	7	9	0	35	0	2	1	31	8	12	3	109
OTU 68	23	0	58	0	25	0	83	2	20	1	13	5	13	11	11	40	2	59	49	10	110	0	19	22	133	0	16	2	87	13	0	8	6	1	3	38	0	0	3	0	5	5	17	2	77	3	1	19	8	24
OTU 69	2	0	16	2	12	92	24	84	24	68	13	1	14	649	12	0	29	0	14	13	4	8	6	12	0	70	12	29	18	180	13	96	2	64	36	4811	622	70	68	222	48	34	123	134	43	25	262	198	45	66
OTU 70	0	1	67	0	24	14	19	7	13	3	0	2	0	47	3	0	0	0	0	0	0	0	32	5	0	70	2	41	0	20	62	0	1	1	0	19	3	1	0	30	15	0	0	26	0	0	22	21	43	43
OTU 71	0	42	22	7	9	0	11	16	3	53	17	342	5	3	0	557	0	47	4	2	119	3	0	14	4	3	7	27	9	18	36	11	100	0	24	14	5	14	0	55	2	0	20	79	0	8	3	5	7	0
OTU 72	34	162	6	28	85	33	20	143	18	5	27	8	70	72	69	13	63	73	24	45	6	3	31	2	21	109	168	7	63	57	66	14	0	42	7	1	43	26	20	85	0	41	17	1	22	18	78	47	20	7
OTU 73	71	7	12	15	32	23	5	44	245	25	35	16	5	0	0	0	5	3	0	3	52	0	381	62	206	0	6	37	0	18	203	1	20	10	28	10	4	2	0	3	23	6	0	0	132	26	0	35	0	14
OTU 74	13	28	12	8	13	2	13	132	6	2	84	4559	24	11	1	3	8	37	0	4	2	51	6	27	176	93	2	26	0	194	116	305	115	327	1	8	445	74	2	160	163	72	0	73	4	6	3	79	55	0
OTU 75	0	21	2	17	47	25	1	76	4	37	20	4	49	134	39	1	4	81	1	7	139	3	2	35	442	41	104	98	1	66	107	3	39	9	32	4	119	15	15	20	4	0	65	40	0	121	75	3	13	0
OTU 76	6	0	0	3	13	4	8	9	4	0	4	0	0	0	1	0	3	0	0	4	0	0	0	89	24	34	0	1	0	9	2	5	0	0	0	0	0	9	11	0	7	2	1	355	0	14	3	3	0	0
OTU 77	12	33	14	7	9	101	1	3	47	18	2	0	15	11	18	15	4	5	1	42	52	128	47	27	9	61	23	2385	3	20	5	80	0	3	12	4	27	32	131	149	8	60	46	19	17	20	3	177	28	1
OTU 78	53	30	33	93	160	174	28	42	9	1366	23	1	14	16	1	1	30	26	605	4	7	13	21	4	143	0	10	54	5	308	5	49	16	10	1	15	44	7	6	6	1	30	1	14	68	0	1	18	3	158
OTU 79	85	647	86	78	244	109	1220	872	84	93	55	18	331	36	180	28	218	107	26	1508	100	95	125	42	252	69	226	86	45	402	885	133	33	254	8	39	95	73	40	79	82	66	218	92	74	60	21	85	105	197
OTU 80	52	179	132	5	54	13	49	15	1450	17	19	2	60	70	134	1	15	2	1	2	117	6	3040	93	26	16	288	2	2	45	56	27	39	3	5	64	31	49	1	34	46	6	37	94	92	338	41	17	4	28
OTU 81	34	362	117	13	254	151	80	6	4	136	69	7	6	16	144	20	1	91	13	29	258	40	31	29	49	39	248	159	28	26	215	17	16	21	38	55	35	36	75	34	8	13	38	22	100	132	8	24	1	8
OTU 82	61	12	11	64	102	7	24	75	27	1	1	9	13	0	3	15	0	23	103	8	88	3	96	0	16	190	6	20	179	58	6	2	20	51	25	9	13	28	29	2	66	88	12	147	78	1	6	9	70	4
OTU 83	16	0	28	0	5	0	0	0	0	5	9	1	14	0	32	0	0	0	0	0	0	17	0	0	4	0	78	0	0	2	133	95	103	0	20	17	23	44	25	0	1	0	0	0	46	9	0	0	0	0
OTU 84	11	10	1	3	4	0	3	110	2	3	1183	0	39	27	14	0	10	1773	28	2	0	1	5	2	21	39	28	4	59	11	7	0	5	0	97	0	6	5	149	42	8	19	0	8	95	0	62	2	0	0
OTU 85	21	0	27	3	3	0	10	7	1	0	0	0	190	4	9	0	3	4	0	0	0	0	3	38	0	0	38	2	1	30	4	0	0	17	0	1	0	0	3	257	3	0	0	179	65	0	0	3	83	57
OTU 86	0	0	0	3	53	0	0	0	0	0	0	0	0	0	0	27	0	0	0	0	3	1	0	0	0	0	0	0	0	16	0	0	0	0	2	0	6	0	0	0	0	1	0	2	4	0	0	0	0	0
OTU 87	0	0	3	0	0	0	0	7	0	0	3	0	7	0	2	1	17	0	0	1241	23	1	0	0	0	0	0	60	0	85	109	5	0	0	839	0	0	1	1667	23	0	582	50	3	0	5	4	5	12	0
OTU 88	0	0	0	0	0	3	0	0	5	0	0	0	0	32	7	0	2	9	0	0	11	2	0	0	0	44	3	0	0	0	0	47	5	0	0	0	0	66	0	0	0	0	0	0	0	0	19	0	1	0
OTU 89	92	0	53	3	0	32	11	47	6	4	0	0	0	117	1	0	12	0	0	0	21	0	20	24	67	15	0	0	0	0	11	33	5	3	0	14	4	71	17	10	4	0	28	0	115	9	40	46	21	2
OTU 90	0	2	1	1	0	0	0	5	0	17	21	8	0	6	0	36	0	0	26	0	0	0	0	0	0	0	0	0	44	0	0	0	0	0	3	1	64	0	3	1	1	0	0	0	0	0	0	0	0	0
OTU 91	0	0	0	0	0	2	2	0	0	35	0	0	0	0	0	0	0	1	0	2	0	1082	0	0	0	0	0	0	0	0	0	1715	0	3	14	0	0	633	0	0	0	11	2	0	0	0	0	16	0	7
OTU 92	20	0	18	17	0	2	79	0	3	0	8	4	4	1	0	1	0	1	0	0	15	0	10	0	43	0	0	1	0	4	2	20	27	13	1	4	12	1	0	0	4	0	0	0	0	1	0	0	0	0
OTU 93	0	7	0	0	0	0	0	5	8	0	0	0	16	0	0	0	0	0	0	0	0	1	2	0	0	18	0	1	1	0	92	0	0	0	4	0	0	0	28	0	0	0	0	5	1	0	0	0	0	0
OTU 94	109	13	407	45	2	98	148	60	418	179	54	0	8	48	47	27	69	27	16	21	201	88	675	12	182	163	42	25	36	122	78	124	23	72	1	181	97	29	47	64	23	37	36	63	122	25	77	29	64	122
OTU 95	0	33	2	1	1	0	1	0	0	1618	1058	0	0	5	0	0	20	17	28	0	11	17	0	0	218	53	0	1	50	4	0	0	0	0	0	0	0	24	37	7	0	0	0	0	0	0	1	3	26	21
OTU 96	0	0	0	0	0	4	0	0	2	35	3	0	0	0	0	0	0	0	0	0	1	4	1	0	0	2	0	1	0	0	0	0	502	0	0	0	1	0	0	4	0	0	0	0	0	0	0	0	0	0
OTU 97	0	10	0	7	0	0	0	0	0	0	9	24	9	0	174	37	1	0	48	0	17	0	0	2	3	0	0	0	82	0	0	3	2	16	0	0	0	0	1	1	28	0	0	0	0	0	0	0	0	3
OTU 98	40	4	1	46	5	4	0	7	0	2	1	0	0	0	77	0	0	10	5	2	4	5	0	1	0	0	97	2	15	0	6	1	144	1	3	0	7	0	0	31	0	17	0	4	84	16	7	2	17	7
OTU 99	74	12	22	70	142	120	8	2	16	3	30	7	76	40	67	35	0	113	25	56	27	116	31	22	39	64	95	115	50	7	31	125	149	69	141	12	15	110	145	51	15	48	24	119	36	5	31	7	234	37
OTU 100	0	95	36	2	3	11	44	1	56	0	85	3	5	1	11	6	0	139	0	0	7	0	91	4	4	15	7	22	0	0	17	1	16	14	4	10	32	4	0	6	5	1689	2	0	0	12	9	1	4	0
OTU 101	0	0	0	24	29	0	0	0	0	2	2	0	0	12	0	0	20	0	3	0	0	1	1	0	0	1	0	4	2	12	10	3	0	0	25	0	0	0	0	0	1	8	0	0	3	0	46	2	0	0
OTU 102	15	0	123	0	0	42	39	0	18	22	0	0	0	4	9	0	956	3	0	0	0	26	77	0	9	0	25	8	1	14	0	60	0	0	0	45	0	24	0	7	3	4	0	0	3	11	1	5	4	0
OTU 103	18	723	0	1	52	1	3	0	44	59	9	5	7	0	7	10	0	22	3	0	6	45	66	3	6	11	0	0	8	20	12	0	2	0	0	0	14	12	19	64	39	4	5	47	6	0	232	3	10	26
OTU 104	2635	0	1933	30	17	8	1125	242	31	5	87	2	178	12	28	18	17	282	2	13	105	28	65	35	21	306	51	10	20	32	7	58	245	209	1026	977	62	26	39	71	154	7	19	5	139	27	34	31	268	699
OTU 105	0	1	5	0	0	6	41	0	0	3	3	0	4	110	50	1	0	1	0	1	0	0	7	0	0	33	88	2	0	0	1766	0	1	0	1	9	0	0	0	0	0	3	17	0	0	1	52	0	0	2
OTU 106	40	2	93	3	0	72	51	0	69	1	12	5	31	5	14	0	0	0	5	0	18	2	143	0	94	1	43	71	11	0	0	0	0	18	0	40	0	0	6	0	5	7	5	160	117	6	8	0	64	85
OTU 107	14	3	0	0	21	20	11	2	7	0	0	0	0	14	0	0	0	4	2	17	1	0	21	0	76	26	1	0	4	0	0	12	762	42	6	2	0	0	7	0	16	2	58	7	0	0	0	661	3	19
OTU 108	3	16	1	0	2	37	2	1	1	2	0	0	0	24	48	0	241	1	5	2	2	2	2	0	11	57	77	6	9	15	59	11	2	0	33	0	17	3	13	3	19	57	2	7	11	0	10	2	4	54
OTU 109	0	0	46	0	0	0	11	0	0	0	0	0	0	0	0	0	0	0	0	0	0	0	0	0	0	0	0	4	0	0	0	1	1	0	0	31	0	0	0	0	0	0	0	2	0	0	0	0	0	15
OTU 110	145	52	5	9	78	25	3	5	0	135	0	46	201	121	30	6	23	5	10	142	1	0	2	275	129	1	99	19	22	155	313	3	94	567	14	3	81	15	148	11	175	41	0	12	28	81	19	7	6	7
OTU 111	14	0	0	0	1	393	0	0	0	0	0	1	0	11	0	0	0	0	0	0	0	121	0	0	4	0	1	0	0	0	0	83	0	0	0	0	0	11	0	0	0	0	0	0	15	0	16	1	6	1
OTU 112	3	4	8	37	4	0	1	11	20	49	37	0	0	1	2	1	1	15	0	18	6	29	21	6	0	15	2	218	0	0	0	43	95	0	0	3	5	21	0	53	3	10	3	2	2	2	4	2	63	2
OTU 113	0	32	0	0	0	1	0	24	0	24	0	0	5	0	0	0	0	0	0	0	4	0	5	0	0	0	1	0	0	0	0	0	1	14	1	0	5	0	0	0	0	0	49	0	0	2	0	4	159	0
OTU 114	83	417	290	17	33	12	42	78	27	233	86	8	72	167	136	9	4	194	7	58	166	40	38	60	75	43	311	95	16	67	29	26	271	94	10	188	204	42	18	133	44	30	44	69	114	101	49	1	53	41
OTU 115	57	41	37	35	33	32	28	89	14	169	53	22	67	5	80	77	71	131	36	21	6	9	26	59	55	159	199	17	80	176	11	18	80	106	21	24	239	68	24	12	38	52	121	246	181	76	7	159	82	54
OTU 116	21	6	34	1	23	36	21	2	29	8	14	2	35	36	12	0	24	10	6	126	99	68	64	8	15	75	14	0	11	96	16	29	44	1	55	13	7	115	80	1	2	6	78	52	21	19	50	8	16	60
OTU 117	24	36	3	0	142	91	0	547	35	23	22	39	114	0	4	28	61	78	14	22	12	4	29	33	32	58	0	0	41	162	272	9	36	22	56	1	34	64	45	22	2	68	124	0	72	18	0	24	26	148
OTU 118	1	0	0	16	0	0	7	0	0	0	0	1	0	0	1	11	11	44	0	0	3	21	8	0	6	64	4	0	1	0	0	32	1	0	0	0	0	0	0	47	1	0	0	2	1	8	0	1	0	0
OTU 119	18	36	46	42	36	24	22	31	14	30	56	4	4	26	5	17	0	119	5	1	15	29	6	13	47	4	4	60	8	3	2	113	32	52	1	42	5	80	5	28	27	6	3	17	0	14	54	10	171	28
OTU 120	20	25	0	12	34	19	5	49	49	1	281	10	0	0	2	19	12	707	17	33	16	27	95	1	21	2	1	4	35	59	38	49	64	0	0	1	17	41	4	0	0	1	69	7	31	0	1	0	16	49
OTU 121	6	24	19	68	19	18	3	6	4	1	8	1	0	37	41	0	41	15	2	18	5	1	0	2	106	47	51	34	1	25	11	16	0	47	1	4	4	0	11	58	0	1	21	20	6	16	36	25	7	207
OTU 122	10	37	107	32	22	11	33	75	63	9	101	10	0	17	2	39	6	49	21	1	0	22	121	0	37	15	0	33	37	14	108	11	105	39	10	50	20	3	46	0	26	4	37	148	3	20	3	8	0	31
OTU 123	357	37	290	161	213	91	242	174	1975	138	193	76	17	25	86	66	113	376	62	219	233	324	392	208	157	201	189	104	138	74	137	740	131	264	88	118	33	766	261	436	93	165	212	216	410	1323	442	437	156	182
OTU 124	0	0	0	6	14	0	0	113	29	29	9	1	0	41	0	0	0	3	0	0	13	0	71	25	3	32	0	10	0	0	16	0	0	0	2	0	12	12	0	11	0	13	2	0	5	19	24	0	0	10
OTU 125	91	84	157	37	64	173	17	115	72	763	89	36	458	178	16	12	790	52	67	28	112	45	105	54	118	82	24	186	132	884	113	71	118	48	46	271	102	79	25	69	65	122	336	134	259	65	115	90	15	160
OTU 126	0	0	0	0	8	0	0	9	0	0	3	0	0	0	36	0	0	0	0	0	0	20	0	0	0	108	49	0	0	0	0	7	0	1	1	0	0	54	0	0	0	0	0	0	0	0	0	0	1	0
OTU 127	1	105	5	22	35	3	1	3	21	5	0	18	35	5	5	2	12	0	2637	32	62	8	29	48	65	43	1	20	1	20	6	1	38	1	16	1	4	0	4	41	0	0	47	14	1	47	10	32	68	0
OTU 128	377	61	541	198	89	309	1336	176	16	553	69	54	113	131	1006	123	83	157	100	1596	447	62	43	153	360	111	617	299	220	114	378	288	102	384	16	263	173	53	93	232	345	2555	91	79	729	574	147	167	160	12
OTU 129	0	0	0	0	13	3	4	0	8	0	0	0	0	0	13	0	35	0	0	0	0	103	11	0	0	0	43	10	0	119	4	98	0	0	0	0	3	1	0	0	0	0	0	0	0	14	0	0	6	10
OTU 130	3	31	15	4	1	4	0	11	0	0	0	3	174	92	22	0	3	1	7	6	0	4	0	9	165	69	53	0	13	27	2	28	16	0	11	2	3	0	0	1	2	5	31	145	3	60	15	36	12	46
OTU 131	4	30	1	8	4	10	5	148	3	6	252	0	99	0	22	1	3	678	1	0	0	6	6	30	60	161	27	28	3	4	5	9	149	11	0	1	244	0	0	12	4	0	0	4	19	18	3	914	77	25
OTU 132	66	10	8	0	6	0	5	135	1	135	26	3	2	48	21	11	19	115	3	61	0	47	0	0	1	5	34	26	8	0	10	55	9	7	8	15	98	6	92	32	0	28	0	0	236	2	23	4	0	0
OTU 133	0	0	1	9	3	0	0	0	5	0	14	2	32	1	0	0	6	7	0	0	0	19	0	0	1	0	0	77	0	0	0	26	36	63	0	0	8	1	1	0	2	3	14	0	1	0	0	0	3245	0
OTU 134	44	29	12	55	68	16	1	10	12	59	47	0	5	0	53	2	36	77	3	4	9	83	45	26	85	2	69	10	3	181	33	194	3	0	0	7	0	46	1	35	0	55	10	8	68	95	5	15	17	30
OTU 135	8	8	6	37	91	148	0	5	69	0	7	582	18	32	125	1358	529	0	1265	56	18	21	140	3	1	28	253	0	2493	1264	55	58	105	49	30	1	19	24	16	0	16	0	808	0	59	123	18	97	4	10
OTU 136	2	38	41	8	49	179	32	38	4	0	32	1	16	9	1	1	4	21	0	0	11	19	4	0	18	9	20	22	1	8	11	0	21	4	18	25	0	0	20	84	2	0	0	2	13	0	0	12	13	28
OTU 137	12	63	1	34	93	31	0	63	3	0	0	0	21	2	0	1	1	0	2	126	1	2134	11	0	22	0	0	0	5	18	0	2	0	3	2	0	1	0	43	1	6	53	0	7	12	0	3	2	12	32
OTU 138	4	6	19	2	0	8	6	0	45	150	0	0	1	485	2	4	5	2	0	7	10	0	36	47	1	57	0	51	0	41	1	0	3	6	0	10	22	1	0	0	6	0	3	0	0	4	213	26	0	35
OTU 139	72	41	398	53	10	86	128	45	1	46	6	10	5	23	37	15	45	64	24	342	81	26	3	28	531	827	80	114	37	21	140	13	61	31	40	201	67	63	88	48	20	64	23	117	183	4	4	19	12	24
OTU 140	56	97	12	87	7	144	8	39	23	76	24	3	60	400	321	7	95	15	7	32	116	45	47	77	65	376	702	57	10	83	43	59	20	138	42	10	13	16	46	56	44	71	100	818	72	193	233	54	37	145
OTU 141	0	0	0	0	0	0	1	0	0	15	0	0	0	45	0	0	0	0	2	0	0	0	0	0	47	0	0	0	2	0	0	0	0	0	0	0	0	0	0	64	0	2	0	0	0	7	0	0	0	0
OTU 142	0	0	0	0	2	0	0	0	0	0	0	0	0	0	0	0	0	0	0	7	0	0	0	0	18	0	0	0	0	0	17	0	0	0	0	1	0	0	0	17	0	0	0	79	0	0	0	0	10	0
OTU 143	0	0	0	0	9	32	10	0	0	0	2	1	0	1	47	9	0	0	0	0	6	2	0	0	0	0	94	0	0	29	14	0	8	0	1	0	1	0	0	0	0	6	2	35	0	17	0	16	4	0
OTU 144	0	40	131	0	21	1	65	0	49	6	0	0	10	101	0	0	0	0	0	10	1	0	80	1	0	0	3	0	0	0	3	0	0	3	2	72	0	0	3	28	7	16	0	6	0	8	27	1	2	56
OTU 145	18	6	29	8	113	37	23	114	114	38	11	6	7	68	1	18	51	7	31	1	0	69	36	12	79	141	14	0	48	2	2	41	106	81	3	15	14	49	9	59	56	25	51	64	24	24	31	115	29	104
OTU 146	5	4	24	28	227	26	0	13	6	2	0	1	342	31	121	3	22	16	0	1	37	18	16	37	228	96	306	29	1	22	0	46	64	22	6	10	27	23	32	13	1	27	2	12	25	19	16	28	25	253
OTU 147	13	51	1	21	0	55	1	16	3	0	0	8	28	0	11	7	23	1	32	2	42	13	0	23	0	1	1	3	65	1	2	3	19	0	3	2	15	10	8	0	0	8	19	57	0	0	0	35	4	1
OTU 148	50	50	85	7	1	29	1	0	7	10	12	1	13	5	60	3	4	34	2	13	91	233	5	111	103	0	121	1	6	24	146	311	411	130	1	43	23	59	8	269	74	0	27	86	67	99	1	104	4	9
OTU 149	4	1	1	1	0	97	4	34	2	1	0	6	764	13	10	3	18	27	21	22	3	3	0	0	12	1	9	6	38	1	0	18	0	3	0	0	20	15	0	23	11	2	9	2	3	0	58	0	26	145
OTU 150	3	0	2	66	0	3	2	1	2	0	0	4	2	0	31	6	1	0	0	0	2	0	25	0	19	85	24	0	2	17	21	0	0	0	0	8	1	6	1	35	0	0	3	13	4	41	0	12	3	3
OTU 151	0	4	0	9	119	0	2	20	1	0	0	0	5	0	16	1	12	2	0	7	5	2	0	8	50	1	9	50	0	22	4	0	55	0	1	0	12	0	0	3	0	1	33	23	0	6	8	0	5	21
OTU 152	1	53	17	8	7	34	41	56	0	42	28	28	2	76	15	10	0	51	2	122	241	57	2	11	470	402	40	17	4	61	48	74	8	2	132	2	110	83	315	38	16	20	3	82	32	27	0	7	7	1
OTU 153	0	56	0	0	0	0	0	7	0	0	0	0	0	11	0	1	0	0	0	0	1	0	0	3	0	0	0	0	0	0	1	49	0	0	0	0	0	0	0	0	0	0	16	0	6	0	0	0	0	0
OTU 154	1	0	0	0	0	0	0	0	0	6	21	3	0	0	0	0	0	0	0	0	0	0	0	272	0	6	0	0	0	0	0	0	0	299	0	0	1	0	0	0	168	0	0	0	0	0	0	0	3	7
OTU 155	0	3	0	1	110	108	0	47	11	6	0	0	50	1	0	0	2172	22	0	0	0	4	18	24	2	0	0	0	0	55	59	24	0	3	1	0	0	0	0	4	33	13	13	79	0	0	0	0	5	1
OTU 156	0	73	113	4	26	42	65	355	7	84	36	3	57	73	9	0	133	55	14	8	47	67	28	13	60	101	11	2	49	91	18	89	59	27	10	66	57	20	7	297	6	8	33	56	16	12	15	27	12	6
OTU 157	0	0	0	245	2	1	0	3	0	5	2	0	1	0	7	0	0	0	0	2	0	12	3	0	0	233	35	16	2	0	2	0	46	0	23	0	25	4	34	0	3	0	0	0	1	0	0	0	23	10
OTU 158	0	0	22	12	0	11	47	0	0	1	3	0	31	0	0	0	59	0	0	0	0	0	0	1	0	0	0	0	0	56	6	0	0	0	1	6	0	0	10	0	0	0	95	4	0	12	0	0	0	0
OTU 159	0	0	6	2	138	53	1	24	6	0	34	11	139	7	0	5	24	45	1	1	2	0	16	18	3	72	0	0	6	66	7	10	81	14	9	2	531	31	14	62	0	31	41	14	17	10	8	1684	11	19
OTU 160	140	20	287	15	112	259	100	130	33	70	34	149	104	35	83	253	241	58	232	123	87	17	39	109	147	182	148	24	433	111	122	8	72	106	1	142	228	57	30	68	26	8	37	194	159	60	5	148	91	62
OTU 161	1	22	5	5	1	7	4	14	2	2	43	14	37	19	82	16	77	44	7	1	14	1	0	34	10	11	145	7	17	19	5	72	10	9	11	1	31	20	18	0	9	40	21	92	0	48	26	22	7	11
OTU 162	31	15	6	100	31	50	6	351	12	24	68	12	152	112	16	38	17	119	24	1	297	13	1	38	82	84	57	36	50	45	0	6	1	37	0	2	3	20	7	23	1	13	20	10	16	1	32	37	24	38
OTU 163	0	0	7	6	0	0	0	0	0	0	0	0	9	0	1	0	0	0	0	0	32	0	0	0	0	0	0	0	0	0	0	0	0	0	0	2	0	0	0	0	0	0	0	0	0	0	0	0	0	0
OTU 164	0	0	0	0	0	0	0	0	0	0	0	2	0	14	0	21	0	0	9	0	1	0	0	0	9	0	0	0	22	0	0	0	0	0	0	0	0	0	0	14	0	0	0	0	0	0	0	0	0	69
OTU 165	0	0	0	5	3	40	0	51	14	31	6	2	69	1	2	0	46	0	0	0	219	0	16	5	5	0	3	0	0	18	5	12	30	55	1	2	11	29	29	1	11	38	41	43	0	70	0	8	133	146
OTU 166	739	0	0	0	0	0	0	5	0	0	1	0	0	0	0	0	5	0	0	0	0	1	0	0	0	0	0	0	0	2	1	0	0	0	0	0	2	3	0	0	0	0	0	0	0	0	0	0	0	0
OTU 167	0	11	1	12	4	1	0	90	0	0	4	3	5	64	13	0	5	0	0	4	34	0	1	0	12	19	27	30	0	0	0	0	0	2	6	5	3	0	5	10	12	3	7	28	1	25	92	80	15	9
OTU 168	79	1	8	3	17	26	23	16	5	13	0	0	1	25	2	0	7	0	6	13	3	5	4	33	10	40	3	2	8	13	5	5	0	2	3	1	4	29	1	21	53	5	0	8	121	62	5	2	3	3
OTU 169	0	0	17	0	0	1	2	0	0	0	0	0	5	0	0	0	0	1	0	0	0	46	0	0	0	0	0	0	0	0	0	106	16	25	0	2	0	18	2	1	6	1	2	2	10	0	0	0	0	0
OTU 170	0	0	93	0	0	20	28	1	0	1	0	0	3	0	0	0	0	0	0	0	0	0	0	0	0	0	0	0	0	0	0	0	65	0	30	28	0	0	0	0	0	0	0	0	0	0	0	0	0	0
OTU 171	125	2	64	12	42	719	88	1	0	18	6	15	8	45	4	8	1	4	30	75	38	37	5	216	4	25	0	0	58	34	136	22	3	69	37	31	30	3	26	51	10	21	1	28	122	0	14	2	10	40
OTU 172	0	0	0	0	0	0	0	0	0	0	0	0	0	1	37	0	0	11	0	0	0	0	0	7	0	0	80	0	0	0	0	0	0	47	0	2	0	0	0	0	99	0	6	15	0	1	0	0	1	0
OTU 173	0	15	1	3	4	35	0	40	5	7	1	0	17	1	5	0	121	0	0	19	0	0	11	4	0	0	0	10	0	434	5	0	0	24	33	0	49	2	0	0	0	5	359	20	0	0	0	18	0	4
OTU 174	0	24	9	90	2258	37	0	2	2	24	0	1	0	6	11	3	2	0	0	10	248	7	26	51	102	1	35	14	0	24	16	0	4	0	0	1	48	4	1	65	2	3	7	32	43	2	3	445	10	21
OTU 175	34	17	119	4	18	0	26	31	0	14	8	0	75	1	11	0	30	0	10	0	0	13	0	1	0	14	11	0	14	6	5	12	43	65	31	54	4	16	4	12	0	3	0	35	18	11	1	4	38	17
OTU 176	0	7	4	38	49	40	28	8	13	23	41	11	3	28	35	5	130	63	27	26	94	35	57	6	50	66	124	3	46	84	29	164	0	10	38	3	30	100	77	12	0	4	8	66	4	24	20	11	25	22
OTU 177	7	38	70	2	47	20	63	43	2	29	14	2	74	25	20	0	8	17	2	10	110	0	1	44	93	1	15	5	3	46	1	5	11	126	10	35	17	125	14	130	53	1	15	83	76	5	1	1	2	23
OTU 178	0	10	12	5	140	175	7	105	0	0	21	3	0	54	0	36	26	26	5	0	0	0	0	0	75	26	4	39	20	189	1	6	0	2	2	8	8	11	15	0	38	0	48	41	3	0	31	25	0	5
OTU 179	0	0	1	10	0	142	0	76	37	7	32	3	0	7	0	19	5	19	6	8	19	60	77	0	1	8	0	46	15	24	12	20	28	0	2	0	20	30	3	29	1	2	0	1	0	0	3	23	8	3
OTU 180	5	88	32	62	62	100	39	116	204	37	95	17	35	172	38	13	54	180	37	143	158	23	86	171	62	208	54	630	59	126	28	22	111	64	12	16	57	45	32	177	28	157	117	71	69	76	450	85	796	75
OTU 181	4	0	66	4	180	51	17	339	5	21	0	0	5	70	52	1	99	22	0	6	83	8	8	4	65	12	108	3	0	105	0	5	0	14	3	34	52	1	7	4	27	55	0	137	32	1	11	0	7	2
OTU 182	1	0	0	0	0	0	0	0	0	0	0	0	0	0	0	0	0	0	0	0	0	0	0	0	0	3	0	0	0	3	0	0	0	107	0	0	0	0	0	0	32	0	0	0	0	0	0	0	0	84
OTU 183	0	39	11	65	53	13	6	28	2	397	60	16	46	27	79	35	11	10	50	7	144	647	20	20	47	2	125	109	96	10	41	10	41	2	16	12	5	39	18	18	0	55	20	2	27	2	18	98	46	437
OTU 184	3	26	64	0	2	36	49	14	0	1	15	0	17	45	0	0	0	6	0	30	0	3	0	49	0	0	0	0	0	36	17	8	41	0	23	27	10	0	50	8	27	34	1	3	73	1	7	81	56	2
OTU 185	67	28	11	37	193	22	0	3	2	51	41	220	0	3	5	273	0	32	751	305	194	1	7	23	42	44	1	67	476	28	0	14	34	64	51	63	40	17	13	342	51	32	41	123	89	0	9	73	139	18
OTU 186	0	0	73	0	0	7	42	108	6	1	0	1484	4	12	0	3200	0	0	0	0	4	3	1	14	1	34	0	9	0	36	2	0	8	0	0	28	10	0	1	34	0	3	23	0	5	0	0	0	0	82
OTU 187	17	10	127	18	20	78	159	86	42	111	4	1	44	124	6	0	9	18	0	6	96	70	50	15	56	6	3	9	1	3	95	68	24	82	50	52	109	15	32	104	12	13	2286	18	80	26	72	60	21	32
OTU 188	2	87	27	23	57	223	53	51	18	5	17	105	13	44	34	170	9	30	34	6	85	29	42	68	116	121	98	89	73	1	40	10	13	44	9	24	38	59	0	49	188	24	22	13	9	2	14	104	34	109
OTU 189	31	90	40	65	172	65	12	200	11	137	595	135	2	77	13	204	20	4	46	3	26	1259	37	14	44	28	9	97	95	35	53	2	92	18	6	38	51	13	30	149	21	33	95	41	67	36	22	10	81	1780
OTU 190	1	0	88	0	0	0	16	0	1	0	0	0	879	0	9	0	0	0	4	0	0	0	0	0	1	1	7	0	10	0	0	1	0	0	0	40	0	0	3	0	3226	0	492	117	0	0	0	0	2	0
OTU 191	87	14	74	52	29	63	98	309	26	2	24	37	7	1203	24	40	129	14	27	11	128	40	34	7	3	3	39	20	75	151	43	30	0	0	65	33	44	19	68	61	4	21	32	1	300	0	609	9	202	24
OTU 192	6	5	199	1380	74	8	67	248	51	52	23	508	7	77	146	1073	18	117	1041	70	238	8	47	18	91	96	311	23	2121	24	4	3	18	8	1	68	16	28	54	622	23	60	18	299	4	103	1	7	9	1
OTU 193	14	43	24	1	78	109	9	268	14	10	15	3	6	0	31	0	56	8	11	7	61	5	44	175	123	1	87	181	15	100	165	14	136	33	0	13	86	3	31	47	101	7	23	33	0	22	1	29	10	105
OTU 194	1	1	0	2	98	1	1	25	0	66	7	9	50	35	0	25	0	4	29	0	0	0	5	3	117	3	1	17	36	10	5	0	12	2	0	0	0	5	1	49	0	0	7	20	0	0	49	4	15	10
OTU 195	58	169	0	9	3	2	0	75	2380	19	13	27	16	10	19	13	11	10	29	14	0	3	42	36	13	29	67	31	59	0	150	2	71	15	0	0	22	0	4	25	18	1	3	2	177	34	45	88	1	0
OTU 196	20	3	34	7	6	0	31	3	26	15	29	1	35	0	1	0	6	23	12	37	2	15	33	0	75	98	0	70	19	1	166	5	30	11	18	22	13	21	10	16	40	2	12	4	6	7	4	94	4	11
OTU 197	879	35	58	2	17	95	10	62	18	344	43	19	171	47	103	8	65	97	22	15	21	17	76	218	21	100	180	9	53	24	218	12	221	211	105	29	30	30	25	341	44	33	48	264	148	32	29	21	64	40
OTU 198	0	0	157	0	2	0	51	54	0	0	1	0	2	0	0	0	8	2	0	6	0	0	0	0	64	70	0	6	0	0	163	0	8	24	1	85	0	0	4	1	0	0	0	1	1	0	11	0	41	9
OTU 199	20	46	5	3831	0	60	26	1	3	20	0	0	0	134	14	0	1	23	4	3	14	0	7	2	150	2	19	5	11	2	23	1	1	0	0	0	5	8	0	1	0	4	4	6	12	8	107	0	21	46
OTU 200	9	4	13	6	4	62	32	117	4	37	6	8	29	111	24	7	0	44	1	14	23	41	0	0	9	11	75	2	4	76	8	44	7	35	13	5	47	1	1	31	5	0	67	26	13	17	19	17	31	1
