	Host 1	Host 2	Host 3	Host 4	Host 5	Host 6	Host 7	Host 8	Host 9	Host 10	Host 11	Host 12	Host 13	Host 14	Host 15	Host 16	Host 17	Host 18	Host 19	Host 20	Host 21	Host 22	Host 23	Host 24	Host 25	Host 26	Host 27	Host 28	Host 29	Host 30	Host 31	Host 32	Host 33	Host 34	Host 35	Host 36	Host 37	Host 38	Host 39	Host 40	Host 41	Host 42	Host 43	Host 44	Host 45	Host 46	Host 47	Host 48	Host 49	Host 50	
OTU 1	99	296	77	1	212	98	99	98	100	670	1	64	0	127	689	123	149	14	205	1	457	104	35	401	1	10	37	26	51	19	0	34	65	59	100	97	88	97	82	48	224	36	222	8	344	80	430	1351	4	718
OTU 2	0	45	11	0	4	7	43	20	58	17	8	42	0	0	27	1	46	55	31	0	4	35	0	29	0	1	18	49	0	4	33	0	30	1	14	0	0	1	0	0	34	1	0	33	1	35	1	51	14	0
OTU 3	5	0	9	4	38	12	38	3	16	54	0	24	98	0	58	3	51	0	43	17	0	0	0	142	24	0	20	105	64	0	1	0	5	0	1	10	4	12	5	50	0	2	11	17	8	0	3	115	0	0
OTU 4	0	0	6	0	0	0	0	2	0	1	0	0	0	0	0	0	0	0	0	0	0	35	0	0	0	0	0	0	0	0	2	0	0	0	0	0	0	0	0	0	0	0	0	0	0	0	2	0	0	0
OTU 5	465	0	237	58	830	855	43	661	56	569	758	269	213	55	1000	244	312	164	563	204	175	283	681	205	40	177	537	0	613	918	172	380	292	406	1107	53	1	198	1	1979	12	41	355	1058	599	198	311	156	49	102
OTU 6	50	90	43	15	27	6	4	107	29	16	14	0	205	26	5	0	16	11	65	108	28	90	2	7	34	33	1	27	0	84	8	30	66	4	31	1	25	0	46	1	0	12	809	18	2	17	11	12	31	1
OTU 7	12	38	61	105	56	187	19	39	72	26	42	201	182	12	9	25	45	61	306	15	173	31	74	76	13	21	85	102	82	3	554	71	43	53	6	7	44	99	28	94	43	38	2	37	5	7	17	18	64	165
OTU 8	187	214	70	32	34	910	32	17	1225	10	17	198	119	75	13	54	51	43	60	29	77	52	12	38	128	0	840	73	851	31	49	83	105	439	118	3971	1192	53	239	17	37	8	26	117	84	781	91	24	92	204
OTU 9	52	156	6	22	5	5	1	0	0	0	2	14	8	23	1	0	28	7	75	6	1	5	253	23	4	0	0	1	8	58	0	34	54	1	140	0	1	204	4	0	0	1	14	31	7	0	0	3	7	7
OTU 10	84	1	1	1	0	54	3	0	0	167	0	51	7	7	0	27	1	2	46	1	4	1	10	1	44	69	5	1	14	1	4	4	0	39	0	0	40	14	48	5	0	987	5	0	22	5	2	1	696	2
OTU 11	22	78	7	17	27	117	19	1	5	6	8	8	5	33	1	6	27	85	10	25	22	17	11	33	37	0	12	5	43	12	29	9	42	56	46	1	3	105	39	4	27	3	0	54	0	57	34	3	42	1
OTU 12	19	5	57	29	21	90	0	12	19	4	61	44	105	75	4	12	108	12	24	21	16	34	1	26	8	20	13	50	71	26	143	20	4	47	11	3	6	24	9	32	37	170	15	31	17	7	6	2	233	18
OTU 13	6	9	0	6	0	0	0	0	0	0	18	0	9	0	0	0	0	0	0	0	0	2	6	0	1	2	4	0	0	0	0	48	0	0	4	0	14	11	0	23	0	3	0	0	4	0	10	0	0	0
OTU 14	1	10	0	3	22	1	8	0	63	2	1	8	1	0	0	0	0	33	18	54	17	6	0	2	0	396	16	54	19	4	0	13	33	0	4	8	23	4	7	0	0	215	9	8	11	21	45	0	60	54
OTU 15	0	0	2	2	0	0	1	0	76	0	6	0	15	10	0	0	0	2	0	0	0	0	18	0	0	7	11	0	0	0	0	11	0	0	1	0	0	15	0	0	0	105	0	0	0	0	0	0	0	0
OTU 16	0	0	0	0	0	0	0	3	0	0	0	0	0	0	0	3	0	0	0	0	0	0	0	0	0	0	0	0	0	113	1	14	0	0	0	0	0	0	0	0	0	0	0	0	0	0	1	0	0	0
OTU 17	15	60	91	0	3	7	31	50	26	13	15	11	24	51	16	1	9	4	3	13	16	110	17	31	14	2	63	38	4	7	5	0	12	0	36	0	3	2	3	0	0	24	0	1	10	3	19	42	263	7
OTU 18	2	38	30	44	86	389	4026	48	269	120	23	43	20	8	68	64	90	13	73	52	3	75	9	220	54	3	64	86	18	173	33	16	37	166	23	1994	252	6	233	35	9	32	12	119	3	208	24	134	10	86
OTU 19	0	0	0	0	0	0	0	0	0	0	0	0	0	0	0	0	0	0	0	0	0	0	0	0	0	0	0	0	0	7	0	0	0	0	0	0	0	0	0	0	0	0	0	0	0	0	0	0	0	0
OTU 20	212	0	2	73	96	24	9	8	81	15	9	11	6	89	6	16	20	3	0	8	0	1	16	66	54	47	73	121	97	7	47	7	0	35	0	21	251	28	44	18	13	6	13	46	28	115	5	18	37	1
OTU 21	34	91	73	53	293	22	174	25	46	52	284	20	24	20	52	0	1	0	38	29	1	127	18	122	84	35	64	0	25	7	6	10	34	29	49	41	1	26	124	53	4	11	2	50	15	23	64	95	90	10
OTU 22	239	124	5	9	93	4	92	3	42	18	41	25	150	5	48	14	12	6	4	75	76	3	4	211	19	31	6	9	0	8	0	45	36	7	54	17	0	79	20	12	74	28	1	7	13	9	0	78	8	28
OTU 23	19	3	10	6	5	67	0	20	3	6	12	0	0	0	4	8	5	26	9	23	0	30	5	52	1	8	0	13	75	3	0	0	0	64	0	92	5	23	2	4	47	1	3	0	1	0	0	10	72	4
OTU 24	12	26	1	47	0	8	1	1	4	0	56	22	3	0	0	3	11	0	29	1	20	1	17	2	13	89	0	17	21	15	7	19	8	1	1	0	6	99	87	1	8	34	0	2	0	46	0	0	111	10
OTU 25	0	0	0	0	0	0	0	0	0	0	0	0	100	0	0	0	1	6	112	0	0	0	7	0	0	0	0	0	0	0	0	0	0	0	0	0	0	10	0	0	0	0	0	0	0	0	0	0	0	0
OTU 26	1	1	16	0	0	1	1	1	0	4	21	0	0	5	3	1	101	18	0	0	1	7	9	7	0	0	0	0	0	0	0	0	0	0	0	1	0	34	0	0	1	17	0	196	0	0	0	5	3	0
OTU 27	0	0	0	0	1	0	0	3	0	0	0	0	0	0	0	0	0	0	0	0	0	1	1	0	1	0	0	0	4	0	0	0	0	0	0	0	0	0	10	5	0	27	0	1	0	0	0	1	0	0
OTU 28	33	10	5	36	20	21	12	10	34	2	47	12	55	397	644	19	21	96	46	63	0	20	24	23	1809	37	2	101	5	16	215	17	26	14	2	17	12	3	17	31	3	58	3	11	18	1	52	31	11	0
OTU 29	227	58	4	4	9	94	17	9	16	3	62	12	6	21	4	6	47	30	20	29	0	16	19	6	7	86	5	16	18	34	2	31	8	20	20	27	21	36	73	40	37	0	10	50	14	0	36	5	36	2
OTU 30	0	0	0	0	0	0	0	0	0	0	0	0	0	0	0	0	0	0	0	0	0	0	0	0	0	0	0	0	0	0	0	0	0	0	0	0	0	0	0	0	0	0	0	0	0	0	0	0	0	0
OTU 31	168	3	0	1	5	0	0	0	18	0	118	115	13	0	1	1	75	2	323	4	1	3	0	2	1	130	0	0	10	20	28	3	0	10	0	1	29	0	68	25	244	0	0	29	0	67	39	2	33	35
OTU 32	24	33	51	2284	4	7	0	25	44	2	54	20	23	132	0	45	149	15	80	8	22	25	118	18	51	59	8	47	112	34	38	87	33	2	8	10	26	70	209	37	223	12	1	28	1	25	31	1	9	77
OTU 33	0	0	0	0	0	0	0	0	0	0	1	2	0	0	0	0	60	0	0	0	0	0	1	0	0	0	0	0	0	0	0	0	0	5	0	0	0	0	0	15	6	8	0	0	0	0	0	0	0	0
OTU 34	903	34	80	0	4	8	9	55	5	0	3	14	50	88	0	22	83	59	0	11	11	130	1669	25	4	45	8	24	297	1	108	5	27	10	96	38	11	33	21	57	261	0	6	4	12	4	0	0	0	106
OTU 35	20	11	11	78	0	0	2	20	57	22	483	110	15	33	10	27	19	38	4	44	98	32	0	15	147	10	19	26	9	9	48	222	10	5	1	0	1	4	128	1	0	34	0	4	2	48	82	38	143	42
OTU 36	55	27	0	1	2	39	3	1	773	2	9	1	4	43	1	42	5	21	26	1	49	11	22	7	1	10	445	158	0	35	5	53	3	22	39	1	45	3	72	19	2	28	6	110	26	370	67	3	58	0
OTU 37	7	0	5	1	0	0	8	2	0	5	5	0	0	0	0	2	6	0	43	1	15	0	2	0	0	0	0	16	0	0	0	11	0	0	0	0	0	14	0	9	1	10	0	0	0	0	0	3	0	0
OTU 38	53	149	18	2	36	14	14	14	29	11	21	62	37	110	12	0	89	34	23	1	0	6	17	33	41	36	18	73	24	40	18	952	126	1	53	5	5	101	33	73	237	7	18	12	23	16	0	22	146	7
OTU 39	17	1	8	0	0	26	1	10	1	0	1	0	0	0	0	5	5	58	0	0	0	19	0	3	18	4	3	30	1	25	0	3	0	7	8	86	0	0	0	4	0	23	1	0	0	17	8	0	77	0
OTU 40	18	120	20	18	0	166	1	17	8	8	103	7	162	199	9	18	28	1	3	10	2	37	62	10	2	150	12	17	68	240	83	23	67	60	78	5	44	52	1	49	26	8	39	19	49	50	31	12	13	44
OTU 41	32	6	0	38	18	23	15	0	10	1	0	3	106	105	0	0	1	72	31	52	8	11	14	5	23	46	13	74	8	16	54	11	0	0	15	5	4	4	68	1	1	19	28	96	16	1	0	1	57	0
OTU 42	25	0	7	13	9	0	25	0	0	1	3	0	13	3	1	3	1	0	0	0	18	11	0	7	0	5	24	0	0	28	43	0	1	1	0	0	1	0	13	3	6	9	0	0	4	2	22	5	1	10
OTU 43	0	1	7	36	0	0	0	20	0	0	0	0	0	0	0	0	0	0	0	0	0	22	0	0	0	0	0	19	0	0	0	0	0	0	0	0	0	0	0	0	0	0	0	0	0	0	0	0	0	0
OTU 44	15	38	42	0	0	1	0	33	0	0	0	12	0	0	0	6	5	0	55	17	0	141	0	0	0	0	10	0	9	11	1	2	2	0	17	0	9	0	0	0	0	0	34	24	117	5	0	0	0	0
OTU 45	67	11	9	1	53	25	106	16	13	23	24	2	6	0	2980	5	23	14	253	424	59	43	6	63	31	11	0	3	5	119	6	41	5	14	6	99	24	25	0	1	12	19	1	13	0	0	22	45	58	159
OTU 46	30	59	2	26	137	0	58	5	2	18	1	52	1	28	32	23	77	91	107	38	0	1	48	38	270	79	5	280	13	63	349	3	5	5	38	5	48	31	16	57	90	23	15	12	39	32	13	49	98	17
OTU 47	0	1	0	1	0	11	7	0	0	4	0	0	0	0	3	4	0	31	10	9	0	0	0	90	0	0	14	0	0	0	0	0	0	1	0	57	0	2	1	0	2	0	0	0	0	4	7	6	0	0
OTU 48	31	87	138	3	71	6	32	123	14	3	24	40	18	32	7	47	67	0	97	94	6	331	24	17	3	70	2	96	21	5	25	16	7	7	61	36	0	12	25	51	140	15	2	101	1	58	15	12	15	4
OTU 49	219	150	1	3	7	2	0	3	35	0	0	0	0	224	0	13	19	24	22	0	14	24	0	0	2	7	0	13	6	14	28	0	43	6	22	14	1	25	197	508	15	4	3	1	8	1	0	0	1	8
OTU 50	3	4	8	11	116	45	82	10	64	62	19	6	38	48	70	2	74	506	177	1	13	48	1	164	96	7	80	1712	27	93	235	326	13	0	3	29	112	0	23	8	40	44	13	8	32	83	0	136	180	18
OTU 51	117	6	25	39	37	0	102	131	8	13	0	4	18	2	24	9	1	8	62	39	0	171	1	66	15	27	0	1	70	2	0	16	2	1	2992	64	12	0	6	15	0	2	10	24	17	4	366	48	31	25
OTU 52	83	271	45	79	59	6	20	40	20	20	91	70	77	25	15	941	120	51	57	142	2172	48	1169	128	71	9	11	165	7	236	165	45	181	5	154	62	71	1580	25	76	153	128	4	81	13	178	44	49	45	233
OTU 53	0	0	2	0	0	0	0	0	0	0	0	1	0	0	0	0	125	0	0	0	0	0	0	0	0	0	4	0	0	0	0	0	0	0	0	0	0	0	0	14	0	0	0	0	1	0	0	0	33	0
OTU 54	56	32	83	40	0	36	9	2291	118	3	36	40	139	502	3	18	144	91	122	9	7	187	44	22	103	84	81	15	11	25	57	125	47	8	4	26	222	55	24	156	104	110	3	157	5	3	29	4	123	34
OTU 55	0	0	0	0	0	0	0	0	0	0	0	0	0	0	0	0	0	0	0	0	0	0	0	0	0	0	0	0	0	0	0	0	0	0	0	0	0	0	0	0	0	0	14	0	8	0	0	0	0	0
OTU 56	28	3	0	2	10	6	4	14	3	2	0	1	35	1	0	5	10	33	0	10	0	6	4	0	9	27	4	26	0	1	0	0	0	0	0	11	4	5	0	4	16	6	0	2	1	11	12	0	0	0
OTU 57	607	68	300	48	323	156	62	231	115	1609	106	144	145	898	44	12	205	168	74	175	20	491	29	246	156	52	19	83	19	42	653	53	31	36	14	17	186	24	43	25	124	23	52	249	96	19	63	88	78	61
OTU 58	0	23	0	7	11	104	59	0	2	0	98	3	13	1	2	4	72	3	23	7	3	0	0	38	57	63	0	106	31	9	28	5	0	25	4	3	110	32	6	893	7	12	3164	1	13	33	3	10	1	11
OTU 59	0	241	10	109	110	9	71	4	8	52	13	10	5	1	44	20	0	8	12	3634	37	43	75	186	17	79	50	236	3	17	26	6	94	8	109	10	13	72	43	4	16	7	22	0	42	0	66	69	20	50
OTU 60	2	26	24	26	0	2	8	20	5	2	24	14	16	221	0	1	49	67	23	2	24	31	230	4	179	1290	1	41	11	203	10	45	6	14	14	18	29	60	43	49	24	48	6	6	18	39	34	1	45	12
OTU 61	13	175	254	20	63	48	40	289	7	37	12	1048	1	42	30	29	31	16	155	111	12	440	307	56	110	8	8	23	9	94	78	15	154	15	69	41	8	566	41	11	22	21	54	13	99	15	43	63	6	37
OTU 62	20	5	1	0	4	3	8	0	16	2	21	8	12	68	2	0	0	107	11	0	4	0	0	0	5	54	35	1	4	47	17	561	3	17	0	0	15	0	4	7	0	3	1	15	0	71	4	6	3	0
OTU 63	0	45	23	1	16	0	17	2	0	8	0	0	5	0	2	22	4	0	32	72	8	5	40	39	7	0	0	5	3	0	32	0	13	0	3	20	58	33	30	1	47	59	1	8	9	1	0	2	128	6
OTU 64	58	174	107	105	22	31	13	86	26	11	4	29	175	26	15	30	107	94	142	23	56	227	15	20	2	112	15	242	87	117	53	10	92	19	123	37	40	29	7	563	4	52	7	45	9	11	29	39	63	10
OTU 65	0	0	3	0	0	0	0	8	0	0	0	0	11	0	0	0	0	0	10	0	0	70	1	0	0	0	5	0	0	0	1	0	0	0	0	0	0	0	0	0	0	5	0	0	0	0	0	0	0	0
OTU 66	60	57	39	23	15	10	8	13	67	2	14	13	28	39	0	28	14	104	100	24	91	33	2	1	95	66	16	13	4	0	15	26	50	5	26	2	9	13	199	43	22	29	0	20	10	0	13	0	1	103
OTU 67	65	57	63	0	2	71	11	103	22	0	5	8	0	90	0	0	41	44	19	13	0	244	3	2	0	0	17	2	39	82	15	0	17	9	25	2	36	20	0	0	0	3281	5	26	14	14	8	0	2	79
OTU 68	0	0	33	9	0	89	28	25	28	0	1	58	0	0	0	0	2	0	0	4	0	44	2	0	0	0	17	16	0	5	5	1	0	41	0	0	0	0	22	0	2	8	5	60	1	1	3	0	0	2
OTU 69	60	63	51	6	48	26	50	90	62	18	819	13	4	1	14	0	477	84	328	0	2	109	340	36	154	13	129	3	44	4	70	168	16	3	19	54	37	945	35	309	0	64	5	25	0	71	6	41	11	0
OTU 70	18	0	0	0	28	17	21	0	7	666	0	0	1	59	12	0	0	38	7	0	0	2	12	39	63	9	2	3	0	38	49	0	5	5	0	0	9	81	31	31	25	12	0	0	0	5	6	22	3	3
OTU 71	0	1	0	3	101	148	82	1	0	25	4	1	8	45	15	20	15	36	0	1	12	8	0	162	0	7	0	55	0	1	25	0	1	72	0	9	0	0	1	0	25	1	5	153	19	3	53	29	17	0
OTU 72	205	1	5	132	5	47	10	12	8	21	17	37	147	53	21	60	3	3	87	12	166	71	2	32	1	61	5	46	0	19	19	62	1	53	8	38	21	54	124	6	1008	35	26	1	47	23	147	45	3	174
OTU 73	1	36	12	1	10	24	46	36	142	5	36	4	26	77	4	4	51	23	16	12	4	63	3	25	4	11	59	14	4	39	39	9	63	0	18	38	66	24	62	6	22	6	1	0	0	3286	5	7	0	7
OTU 74	6	224	0	12	7	2	33	0	0	0	8	18	89	47	11	23	9	12	158	17	0	4	3	16	125	10	2	43	35	259	7	8	42	9	180	31	3133	2	22	7	0	8	3	22	9	17	4	15	30	1
OTU 75	15	45	67	3	0	18	49	74	23	2095	0	6	26	19	1	24	36	9	8	10	63	78	20	1	196	93	0	14	1574	60	209	1	92	4	16	20	35	31	13	64	11	0	0	23	0	3	24	4	30	34
OTU 76	0	0	0	5	0	0	14	16	5	0	138	12	1	0	0	1	0	5	122	5	4	25	0	0	1	23	0	11	0	3	0	1	0	1	0	0	24	0	0	0	8	52	0	5	1	7	0	2	30	10
OTU 77	62	36	55	39	96	3	76	0	44	62	14	122	62	10	78	7	4	146	156	9	6	11	19	198	58	11	0	6	10	15	61	128	4	0	7	10	21	21	50	8	50	23	20	34	23	36	16	166	12	1
OTU 78	38	3	54	12	781	1	901	32	88	210	23	5	1234	108	214	2	2	6	9	2	16	75	1300	1091	43	88	38	4	30	4	20	41	0	2	0	569	16	2	1	25	24	6	10	48	31	40	2054	460	2	10
OTU 79	125	186	379	217	390	623	383	169	83	210	199	56	691	44	181	53	444	54	220	67	6	309	22	771	213	70	3268	78	209	128	78	22	54	389	82	133	38	51	208	169	138	45	16	81	33	31	85	378	249	166
OTU 80	139	86	20	19	8	107	143	10	5	26	2	10	46	103	13	0	31	35	57	2	6	35	1	56	254	3	19	52	76	76	41	107	73	104	48	36	53	101	10	0	90	43	0	88	12	24	297	28	46	5
OTU 81	96	41	12	41	21	9	25	19	143	1	14	3	50	1044	7	12	166	118	9	142	2	60	70	6	579	0	15	139	45	101	103	19	6	11	30	18	45	74	21	62	17	15	21	43	52	4	75	14	45	51
OTU 82	1	6	5	8	0	192	12	6	10	7	103	0	4	45	10	11	5	58	3	15	0	11	9	29	0	8	1	7	74	137	2	0	0	126	4	0	130	55	14	0	1	167	0	17	9	7	3	18	21	1
OTU 83	0	3	0	0	2	0	11	0	0	0	30	0	61	0	0	1	0	0	0	0	0	0	5	2	29	0	33	6	0	2	21	5	0	0	0	0	0	2	5	10	12	24	0	4	3	0	0	0	0	13
OTU 84	4	183	41	8	0	5	0	43	1	11	16	7	66	2	17	0	20	33	0	2	0	73	1	32	22	0	0	23	16	0	31	2	80	0	91	11	58	47	8	0	0	7	2	6	1	1	23	26	7	18
OTU 85	9	34	13	16	0	1	0	16	56	0	4	0	4	0	0	0	0	4	8	61	1	10	1	1	0	2	2	0	60	129	3	0	27	4	12	0	0	7	7	0	1	2	1	2	5	0	5	0	10	0
OTU 86	12	0	0	5	0	0	0	0	0	0	8	3	0	15	2	0	0	8	0	0	0	0	1	0	21	0	0	0	9	0	0	0	0	0	0	0	0	0	0	0	0	0	0	0	0	0	3	2	0	0
OTU 87	0	1	1	0	16	0	29	0	2	1	4	0	6	70	0	0	0	7	0	37	0	0	0	0	1	12	0	0	1	23	1	3	1	0	0	12	76	5	12	2	0	7	0	68	0	0	6	1	7	36
OTU 88	15	23	0	0	2	0	0	8	0	0	0	0	2	0	0	0	0	0	0	1	0	0	0	0	0	1	0	1	0	0	6	0	10	0	5	0	22	3	0	0	0	0	0	0	1	0	0	0	28	0
OTU 89	0	0	0	4	5	0	42	0	85	0	848	6	19	25	1	0	0	23	0	8	3	6	0	36	1	4	24	0	20	253	0	9	7	13	0	0	55	2	42	0	0	26	0	0	0	0	62	3	0	0
OTU 90	0	0	2	0	0	0	0	0	92	0	0	0	34	0	0	0	0	0	2	0	0	0	0	0	1	0	12	6	14	0	0	15	12	0	11	0	0	5	5	0	0	4	0	0	3	0	0	0	2	0
OTU 91	2	0	4	0	1	0	0	0	4	0	1	0	0	2	0	0	1	0	0	0	0	0	0	0	0	40	0	0	0	0	0	0	0	1	8	0	0	0	1	10	2	12	0	0	0	1	5	0	0	0
OTU 92	0	0	0	1	3	0	480	1	0	16	9	0	7	63	4	4	0	0	0	0	0	1	1	0	3	3	0	1	0	0	10	9	0	0	4	145	1	0	1	0	0	11	0	0	0	3	0	10	111	15
OTU 93	4	3	0	0	0	0	0	0	0	0	0	0	2	0	0	1	0	182	0	0	0	0	0	0	2	0	0	0	3	1	0	8	0	0	0	0	19	0	29	25	8	0	0	1	0	0	0	0	0	0
OTU 94	331	88	6	9	0	5	2	15	66	15	47	233	12	34	10	16	3	111	193	25	31	40	97	59	88	64	0	18	12	9	406	17	51	28	19	8	12	41	113	96	65	46	567	72	3	50	46	23	122	17
OTU 95	8	0	0	48	0	15	7	0	0	10	28	3	0	4	8	3	24	4	13	0	6	5	0	10	111	0	25	19	14	0	1	25	0	4	0	2	1	0	0	2	29	0	0	36	1	0	1	18	0	0
OTU 96	2	0	13	0	0	29	0	47	0	0	0	0	0	0	0	22	0	0	0	0	0	25	0	0	0	0	0	1	0	0	0	6	0	8	0	0	36	0	0	0	0	22	0	0	0	0	2	0	0	0
OTU 97	1	12	15	2	0	7	0	20	1312	0	0	3	0	23	0	5	0	0	23	29	6	22	4	1	1	76	764	1	16	0	1	0	0	0	0	0	0	0	0	0	39	0	1	41	0	583	0	0	0	0
OTU 98	0	0	16	46	1	14	0	24	0	0	31	0	0	30	0	326	15	0	0	52	551	68	18	1	1	15	25	0	3	13	6	5	0	40	2	0	9	0	118	0	0	0	4	1	16	0	113	0	12	85
OTU 99	8	16	32	85	62	2	2	14	25	15	52	31	6	46	37	15	29	101	135	9	70	23	107	55	45	5	1	30	59	104	71	37	26	6	5	0	13	51	56	34	36	39	356	43	38	77	36	65	35	35
OTU 100	155	59	29	2	10	29	3	37	0	7	19	0	0	14	2	0	57	0	31	49	2	13	9	5	12	7	2	9	0	83	18	6	41	13	24	7	3	15	24	54	2	2	4	20	22	20	3	4	78	106
OTU 101	0	0	30	0	1	0	0	0	0	0	0	5	0	2	0	3	0	0	16	3	0	0	6	1	0	0	9	0	0	0	25	7	0	0	0	0	9	0	1	3	0	0	0	2	0	0	0	0	0	0
OTU 102	12	6	0	0	2579	0	1	10	0	0	5	0	11	3	1	0	1	5	0	5	0	10	0	1	12	0	0	0	0	4	10	22	0	1	0	0	13	17	1	1	0	0	1	114	0	0	2	3	5	0
OTU 103	0	101	2	20	57	0	8	2	0	14	38	38	77	145	34	2	7	13	2	18	59	3	4	25	14	8	2	351	0	1	17	740	42	3	64	44	19	11	0	0	9	58	7	30	3	0	15	63	0	2
OTU 104	46	12	0	31	5	51	67	3	24	2	63	152	41	31	2	42	33	39	21	109	9	21	75	50	7	61	84	175	4	3	81	7	7	22	6	10	71	13	7	82	43	42	8	0	42	43	41	3	38	149
OTU 105	7	0	1	0	18	0	66	0	48	9	0	6	15	29	14	19	85	1	0	0	4	2	11	126	0	0	29	0	0	0	13	0	0	1	0	14	0	0	0	7	5	0	0	41	0	8	1	27	19	40
OTU 106	3	109	24	2	0	4	0	57	1	7	45	2	28	0	4	0	0	0	0	1	1	47	2	12	9	0	0	0	6	0	0	1318	78	0	49	0	0	0	0	0	0	2	4	130	1	0	0	10	0	0
OTU 107	0	8	4	1826	0	2	16	0	0	15	55	384	6	0	9	37	17	4	0	0	140	1	5	0	0	4	3	83	0	3	4	29	0	0	0	41	4	10	126	18	31	15	17	20	16	0	93	15	0	172
OTU 108	14	3	47	5	3	9	3	64	0	1	93	24	1	19	0	4	59	0	33	42	3	107	420	0	0	9	7	3	18	7	11	1	10	5	0	0	0	603	1	25	21	23	1	9	4	1	1357	1	37	6
OTU 109	0	0	0	0	0	0	0	0	0	0	0	0	0	0	0	0	0	0	0	0	0	0	10	0	0	10	0	0	0	0	0	0	0	0	0	0	0	2	0	0	0	0	9	1	29	0	0	0	0	0
OTU 110	27	10	1	0	4	1	15	0	5	12	13	6	65	0	10	10	89	94	66	2	20	2	2	59	111	27	37	16	18	1307	129	63	16	1	9	2	61	67	15	9	33	0	0	86	0	0	26	19	51	39
OTU 111	7	5	0	0	0	0	0	2	0	0	0	3	0	0	1	0	0	0	12	0	0	0	1	3	6	4	0	0	0	5	0	0	0	0	0	21	0	6	0	0	0	149	26	2	3	0	2	2	33	0
OTU 112	2	6	5	13	16	12	85	5	13	17	23	3	31	0	30	2	0	25	14	0	5	29	0	62	3	0	10	60	1	161	0	1	4	2182	0	9	0	2	14	6	49	0	15	0	40	7	9	41	3	0
OTU 113	0	0	42	0	0	0	0	23	0	1	12	1	14	0	0	10	64	0	0	31	18	25	0	0	6	0	0	33	15	0	17	1	0	0	0	16	0	0	12	0	0	0	0	0	0	1	2	0	0	0
OTU 114	27	48	28	33	8	108	6	49	46	20	88	34	48	24	22	17	10	52	43	199	60	51	24	52	32	16	192	50	15	57	134	61	49	30	12	50	29	2	94	1	41	65	11	27	10	24	23	49	32	112
OTU 115	99	178	69	33	11	94	56	130	11	6	252	76	60	51	7	62	65	97	20	22	18	95	33	21	115	58	19	107	1	34	44	130	262	88	103	24	38	43	99	12	3	14	21	38	30	18	61	20	91	54
OTU 116	6	153	5	59	19	10	29	13	46	12	82	37	150	11	6	3	8	44	190	69	22	37	8	49	28	53	9	132	29	90	333	104	214	24	168	30	192	24	133	68	1490	53	5	0	41	0	0	21	1	44
OTU 117	11	33	6	6	46	9	18	1	3	12	25	6	99	46	10	3	0	12	3	4	51	2	40	14	28	1	33	57	2	102	128	1	36	13	5	33	3	60	0	1	13	11	1	82	12	9	29	14	12	1
OTU 118	0	0	0	0	0	10	0	4	3	2	21	0	2	19	11	0	3	8	0	14	2	0	15	0	0	11	0	10	0	1	0	1	0	0	0	2	0	62	0	0	12	0	0	0	0	0	0	15	62	0
OTU 119	45	20	10	15	8	82	35	4	22	5	7	108	26	28	1	24	6	1243	55	28	7	27	7	63	28	8	3	104	0	138	102	60	20	169	48	15	5	3	290	34	102	25	12	24	10	10	48	9	31	130
OTU 120	0	76	0	47	3	0	14	0	0	0	28	222	109	0	0	0	0	0	0	0	2	3	0	0	0	1	4	0	11	11	1	3	50	2	89	83	1	3	1	2	0	85	0	0	0	0	8	1	0	0
OTU 121	3	32	2	5	76	2	54	8	36	30	68	204	3	7	17	2	106	0	95	71	2	8	0	57	0	15	43	31	2	44	27	25	0	6	0	69	49	4	0	54	55	32	1	7	9	20	2	45	11	0
OTU 122	7	2	24	9	32	11	6	11	0	22	16	21	63	0	25	1	0	5	9	2	5	15	49	64	11	46	0	146	0	256	76	2	1	1	2	1	6	50	14	74	55	10	3	21	26	0	2	45	0	1
OTU 123	220	1138	119	32	113	165	133	106	37	39	82	25	319	352	39	88	79	173	128	93	10	278	51	140	28	168	35	288	62	272	234	223	2015	50	574	67	154	190	143	45	297	45	23	72	46	120	44	80	368	103
OTU 124	0	3	2	0	2	0	12	0	29	0	0	5	6	0	1	4	3	2	36	2	0	0	3	11	6	7	72	3	0	12	23	16	0	0	0	0	0	1	43	16	26	0	0	4	1	0	13	2	3	16
OTU 125	149	166	224	904	65	146	25	141	37	34	202	136	110	170	465	198	69	54	174	22	392	242	22	144	375	20	35	159	15	262	138	56	141	759	124	80	103	161	1009	58	1293	46	157	197	332	7	290	63	262	752
OTU 126	0	0	0	0	0	0	0	0	24	339	12	0	22	13	336	9	0	0	0	0	23	0	0	0	0	0	0	0	0	4	0	12	0	1	0	0	0	0	0	6	4	0	1	0	0	3	0	666	8	2
OTU 127	69	0	0	53	1	2	3	2	115	0	12	68	42	0	0	1	8	20	12	4	1	1	35	13	20	18	83	0	13	0	6	108	0	2	0	2	32	26	159	4	7	9	0	1	6	27	10	4	62	0
OTU 128	366	305	58	167	18	148	30	72	100	41	64	137	56	192	19	816	34	133	159	43	1182	228	569	86	83	346	54	242	169	65	415	111	2234	61	125	70	165	142	137	10	384	46	1190	121	2277	118	1232	47	111	2657
OTU 129	0	0	0	0	0	1	14	0	34	0	0	0	0	4	1	7	0	0	0	0	0	0	8	0	0	3	0	1	0	0	0	1	1	0	0	1	0	0	4	0	0	25	0	40	0	73	0	3	0	0
OTU 130	102	17	13	49	12	83	11	20	24	3	180	120	0	6	6	4	518	414	0	165	10	32	172	33	0	3086	41	21	26	0	21	135	2	54	0	1	11	554	67	575	18	6	14	3	28	22	73	15	1	13
OTU 131	1	27	22	0	420	3	7	7	37	23	1	31	43	34	16	4125	17	24	6	0	42	15	7	41	27	4	31	5	73	3	64	7	26	0	2	60	13	21	3	31	8	73	185	15	353	62	2	37	66	67
OTU 132	0	5	3	0	20	32	4	13	0	1	25	21	17	19	3	2	9	31	1	862	7	1	94	0	5	125	0	0	15	138	0	1	0	4	0	2	0	170	32	0	13	19	0	0	0	6	0	1	0	11
OTU 133	0	0	0	31	0	0	9	0	0	0	0	27	0	142	0	6	0	9	1	0	0	0	0	0	18	0	1	0	0	5	0	1	0	0	0	0	0	0	0	5	0	0	18	0	29	3	12	0	30	0
OTU 134	126	31	193	6	36	15	0	151	33	25	6	0	67	9	16	1	0	0	105	24	38	291	10	26	0	0	15	7	3	73	2	2	10	1	23	9	118	0	23	0	0	3	6	9	38	2	30	35	8	19
OTU 135	22	9	5	5	41	5	20	19	21	21	18	14	15	99	19	7	38	14	2	0	2	20	1	14	0	9	10	162	6	11	284	23	0	0	1	16	18	69	25	0	1	66	3	8	17	38	10	31	10	16
OTU 136	48	45	5	59	2	8	0	0	0	7	35	0	24	16	3	0	26	6	4	49	0	0	32	7	6	4	5	15	15	119	13	16	11	19	16	0	0	39	7	22	14	20	3	25	4	1	3	7	43	11
OTU 137	0	70	0	16	2	0	19	10	1	0	0	0	177	7	1	810	0	15	0	0	1410	0	0	1	1	40	6	0	0	126	27	0	5	6	25	4	0	10	30	0	37	0	7	5	0	0	0	3	0	9
OTU 138	7	17	34	5	44	45	19	29	0	44	104	7	52	0	54	20	5	0	22	0	11	19	0	123	91	39	0	0	12	0	35	23	0	30	0	1	4	12	2	21	1	28	0	1	19	2	0	106	4	2
OTU 139	98	185	43	44	11	40	45	3	36	763	60	193	33	75	723	9	174	84	74	5	58	15	15	47	38	16	19	35	36	19	74	0	108	3	82	7	108	28	220	32	67	545	893	25	1932	31	53	1406	1031	36
OTU 140	459	123	3321	61	24	243	65	58	535	16	287	188	176	368	22	28	17	30	1402	36	26	68	35	46	127	114	167	104	57	73	712	11	24	36	60	91	298	3	31	28	8	30	6	211	11	136	12	34	92	27
OTU 141	0	0	0	0	0	0	0	0	0	0	0	0	15	0	5	0	0	0	7	0	0	0	0	0	408	0	0	0	0	3	0	0	0	0	0	0	0	0	0	0	0	1	0	0	0	2	0	7	0	0
OTU 142	0	0	10	0	0	0	0	8	0	0	0	0	0	3	0	0	0	0	1	0	0	22	0	12	0	0	0	0	0	1	0	25	0	7	0	0	72	0	0	0	0	0	1	0	0	0	0	0	1	0
OTU 143	1	0	0	0	20	10	0	1	1	13	0	1	0	3	4	0	0	0	12	0	1	15	0	55	4	0	0	2	38	0	0	0	0	22	1	0	4	6	0	4	0	3	0	0	0	1	21	10	0	8
OTU 144	0	189	1	0	0	3	0	0	0	0	905	1	0	1	1	0	0	0	4	72	3	2	1	5	6	10	20	0	0	0	0	0	58	1	65	0	0	1	0	0	23	41	1	1	9	2	0	1	3	0
OTU 145	70	38	59	2	13	29	0	78	155	1	117	24	176	152	0	0	403	15	21	1	10	145	1	11	286	49	95	33	104	19	31	91	16	42	12	5	81	13	3	36	51	3	13	145	15	11	1	2	4	7
OTU 146	21	18	55	17	0	17	1	145	7	11	2	8	26	78	3	11	3	8	8	14	14	20	15	18	3	0	50	4	5	4	1	0	8	1	758	10	5	72	73	37	17	167	3	42	6	12	4	18	9	7
OTU 147	43	306	4	37	0	5	1	13	20	0	9	13	5	12	1	8	30	33	1	2	0	1	0	0	11	72	34	7	10	0	64	10	91	4	166	0	5	0	1	13	9	10	1	13	0	1	25	3	1	2
OTU 148	42	34	63	41	78	0	16	76	18	5	3	2067	32	90	0	0	1291	32	78	9	47	114	30	62	31	1	2	37	16	66	84	20	5	1	8	12	0	32	12	480	0	23	0	2	0	12	0	3	17	21
OTU 149	15	0	0	61	0	0	0	0	1	3	24	27	6	3	2	8	15	5	69	2	6	1	0	0	6	41	5	0	0	80	3	117	2	1	1	0	9	6	71	10	17	0	0	1	1	2	1	10	55	1
OTU 150	0	6	21	5	0	0	0	28	11	1	14	0	3	28	1	21	0	4	0	3	92	73	0	0	0	12	11	8	0	0	44	1	0	0	0	0	14	34	15	0	0	0	2	7	1	25	0	4	0	0
OTU 151	5	46	1	7	0	0	8	38	1	0	28	56	3	90	0	74	6	2	13	84	10	3	0	0	0	17	0	24	17	0	0	60	953	2	60	0	0	5	20	1	23	34	3	52	2	0	0	4	0	0
OTU 152	153	161	119	38	9	69	46	111	9	8	42	8	33	176	5	16	77	12	30	29	44	153	40	29	53	24	0	4	0	37	95	44	25	18	57	7	13	8	59	13	13	28	2	2	2	5	6	6	0	2
OTU 153	0	0	1	0	0	0	0	3	8	0	0	0	0	0	0	2	7	0	11	0	3	0	2	0	0	0	21	0	0	0	0	0	11	0	0	0	0	9	0	0	0	0	8	0	1	0	0	0	0	0
OTU 154	4	0	0	1	0	0	5	1	0	0	0	1	18	0	0	0	5	0	0	0	0	0	0	0	2	0	3	4	26	26	0	0	0	0	0	0	0	0	0	1	0	23	22	4	15	0	0	0	84	35
OTU 155	30	65	0	59	0	556	2	0	15	2	1	0	0	56	2	0	11	0	1	1	4	26	7	1	3	4	17	66	84	24	89	0	8	216	19	2	0	33	53	1	59	0	0	5	0	1	2	2	17	3
OTU 156	148	161	70	47	93	46	78	43	31	54	95	9	50	84	53	2	239	23	54	19	7	100	28	132	10	13	40	6	28	58	29	78	67	29	114	55	172	2	9	180	149	17	6	20	1	83	15	103	27	10
OTU 157	1	1	2	3	219	2	30	5	0	38	0	1	40	13	39	0	0	147	0	0	0	0	0	229	0	0	26	297	0	6	16	10	0	2	0	14	0	1	0	0	4	102	1	0	0	5	0	103	504	0
OTU 158	0	0	0	0	0	0	0	0	1	0	0	8	0	0	0	0	0	0	0	0	0	0	0	0	0	5	0	6	0	0	0	0	0	0	0	0	0	1	0	0	0	0	0	0	5	1	0	0	47	1
OTU 159	15	328	10	1	6	3	12	34	131	0	0	0	61	0	4	5	3	0	14	142	3	89	4	8	21	0	0	2	4	5	26	0	166	16	155	32	1	39	10	1	0	0	1	0	4	3	16	4	0	8
OTU 160	244	48	45	200	79	31	115	23	58	61	10	11	212	88	61	140	118	20	112	158	190	78	216	315	18	63	64	289	66	138	249	156	18	118	20	114	14	492	739	127	49	22	39	628	71	213	177	92	167	329
OTU 161	29	6	19	21	51	119	16	20	10	6	42	7	0	0	3	0	12	4	46	60	11	32	5	2	158	128	4	1	11	96	24	0	21	88	0	0	5	17	1	3	48	3	0	11	5	0	8	8	8	47
OTU 162	21	22	1	4	405	10	362	3	113	173	93	56	0	40	166	58	3	5	45	0	7	32	0	764	48	23	8	98	11	19	7	116	27	0	14	152	2	18	84	1	15	1	3	526	13	12	6	327	13	2
OTU 163	0	0	0	3	0	0	0	0	0	0	0	0	19	0	0	0	0	0	3	0	0	0	0	0	0	0	0	0	0	63	0	0	0	0	0	0	0	0	0	0	0	0	0	0	0	0	0	0	0	8
OTU 164	0	64	0	0	0	0	1	0	0	0	1	0	0	0	0	1	16	0	0	0	0	0	0	0	0	0	0	11	0	0	0	0	13	0	21	0	0	0	0	5	0	2	0	0	0	0	0	0	0	0
OTU 165	46	33	12	42	11	33	1	0	1	11	713	7	47	1	12	3	2	4	4	46	9	9	0	5	2	11	22	55	25	0	6	0	0	24	0	0	14	4	32	10	0	33	2	39	3	0	3	10	55	0
OTU 166	0	0	4	0	0	0	0	0	0	0	0	0	0	0	0	0	0	0	0	0	0	0	0	0	0	0	0	0	0	0	0	0	0	0	0	0	0	0	0	0	0	0	0	0	0	0	0	0	1	2
OTU 167	0	30	52	16	0	48	14	240	3	1	1	7	0	0	6	0	0	1	15	37	0	144	0	0	0	14	1	0	0	23	0	16	8	10	11	65	55	0	0	0	16	26	0	0	1	1	0	8	14	2
OTU 168	24	42	8	27	6	11	12	12	9	16	9	28	124	7	5	13	6	42	8	4	18	11	22	22	63	18	13	13	0	11	58	32	41	24	71	3	1	23	21	19	0	3	1	0	10	2	35	25	58	18
OTU 169	1	0	0	0	0	0	0	0	0	0	5	0	0	0	0	0	0	0	0	4	13	0	0	8	0	0	0	9	0	0	2	15	3	0	0	0	0	0	3	0	1	0	0	0	0	0	11	0	0	0
OTU 170	0	0	0	0	2	0	0	1	0	0	10	0	0	0	0	0	0	0	0	0	0	0	0	0	0	0	0	0	0	13	0	0	0	0	0	0	1	0	0	0	3	0	0	0	0	0	0	0	0	0
OTU 171	0	87	11	9	1	131	0	6	3	6	24	14	272	33	3	16	1	91	146	0	0	14	26	28	0	0	6	7	2	33	2	26	13	51	47	14	6	12	43	24	0	0	26	1	30	5	3	11	1	30
OTU 172	0	0	0	0	17	0	11	0	0	0	0	0	0	0	0	0	3	0	0	0	1	0	5	10	0	0	2	3	171	0	0	6	0	0	0	0	0	0	0	0	0	26	0	0	0	0	0	0	0	0
OTU 173	1	11	1	0	0	0	0	0	0	0	4	36	259	69	0	1	18	78	3	1	39	0	1	0	8	15	142	67	10	80	0	15	19	0	4	5	0	0	0	1	83	0	1	1	0	4	0	0	0	0
OTU 174	1	0	1	27	13	17	1	5	3	593	0	625	13	5	711	9	0	1	1	0	1	45	0	7	11	15	5	230	29	13	0	10	0	1	6	1	29	25	0	0	24	8	9	3	0	5	1	1375	0	0
OTU 175	1	1	45	38	10	4	0	63	0	3	2	2	100	61	5	0	8	24	9	0	2	101	38	29	3	0	49	1	10	0	57	26	7	0	0	0	7	0	12	26	13	6	9	0	8	0	1	17	0	4
OTU 176	65	38	1	45	35	7	19	17	37	26	28	31	16	39	32	18	28	14	18	1	11	41	10	27	46	24	8	32	6	22	100	22	3	21	15	13	56	16	9	108	16	323	9	73	14	11	63	67	182	19
OTU 177	58	1	7	4	11	13	6	44	83	8	29	40	33	7	11	0	43	70	7	52	28	47	19	55	4	13	18	72	12	94	29	9	10	2	1	2	10	3	3	11	5	27	21	408	13	16	11	26	84	20
OTU 178	1	26	45	28	1	0	0	8	7	0	19	25	0	4	0	9	10	15	1	2	0	38	1	0	77	2	2	47	1589	80	9	15	25	8	19	1	20	0	5	8	15	0	32	14	66	0	88	0	0	21
OTU 179	0	203	15	19	4	0	0	10	3	1	3	1	0	0	0	0	58	2469	14	5	5	31	1	2	0	235	10	6	7	29	1	888	98	12	55	1	4	2	3	15	5	1	2	0	0	0	11	0	118	33
OTU 180	184	68	162	891	27	18	9	1837	1284	2	65	102	233	186	0	446	153	324	37	250	717	268	15	9	189	91	593	151	181	226	26	14	89	38	51	91	42	141	2038	93	111	47	156	689	222	506	486	2	132	1053
OTU 181	6	1	1278	19	11	38	5	13	0	15	1	12	0	14	10	13	36	52	8	23	9	1	9	95	86	101	14	263	39	8	27	79	0	11	0	73	2	55	50	48	0	47	0	310	0	3	0	17	281	9
OTU 182	0	1	0	0	0	0	0	0	0	0	0	0	0	0	0	4	0	0	0	0	0	0	9	0	0	0	1	2	6	1	0	0	0	0	0	0	0	0	0	0	0	2	0	0	0	0	0	0	0	0
OTU 183	0	47	0	51	19	2	107	1	25	38	4	88	0	0	31	0	11	4	1	0	54	1	6	10	1	54	28	14	8	35	0	4	15	10	48	77	8	3	2	13	6	6	3	16	14	76	4	52	51	14
OTU 184	8	15	14	41	8	12	8	42	18	0	11	23	111	3	0	1	1	11	13	5	0	74	1	26	161	0	0	1	9	88	0	50	14	2	18	2	18	5	0	0	6	0	38	11	46	8	1	1	6	19
OTU 185	55	5	18	51	1	397	12	11	281	11	5	27	35	236	26	9	10	5	24	166	28	15	0	81	46	27	148	60	166	29	7	11	7	186	1	1	335	18	101	14	39	0	153	9	323	87	11	48	39	122
OTU 186	287	0	15	1	0	0	1	5	0	0	0	14	15	0	0	6	28	7	5	7	1	3	0	5	0	5	3	7	12	0	2	20	2	0	0	0	44	0	33	2	47	0	0	0	0	4	0	0	0	12
OTU 187	53	44	32	69	19	20	36	90	102	28	98	14	266	12	24	3	54	146	95	0	2	165	63	18	9	43	107	48	15	36	136	13	24	3	43	2	1	82	16	79	32	51	21	94	7	27	85	54	177	47
OTU 188	9	125	73	26	36	36	67	62	24	36	17	55	44	24	35	24	51	6	63	167	40	152	16	90	114	131	41	1	167	34	118	93	7	87	32	9	15	38	39	5	566	18	9	0	12	70	3	59	67	7
OTU 189	39	62	8	10	11	33	14	37	74	7	25	476	29	49	20	12	191	39	20	18	29	21	27	62	158	16	32	68	75	5	106	23	17	23	48	26	38	50	11	21	101	55	9	7	26	41	1	31	40	11
OTU 190	0	0	0	0	0	0	4	0	0	0	85	0	0	0	0	0	0	1	0	0	0	0	15	21	0	0	19	0	0	26	21	6	0	0	0	0	0	32	0	0	1	1	603	0	1374	1	4	0	0	0
OTU 191	228	24	218	11	121	11	49	312	34	36	5	3	1	199	33	21	0	36	1	7	28	720	8	109	269	24	0	133	11	64	18	2	34	1611	14	0	7	11	3	2	0	139	2	28	19	21	2	55	176	4
OTU 192	67	29	8	36	49	0	30	28	5	30	26	67	266	33	31	4	925	16	36	260	12	7	104	126	154	36	17	24	26	81	167	15	54	4	24	38	81	111	13	931	53	406	17	0	15	720	34	47	334	68
OTU 193	0	11	0	8	33	1543	0	4	0	1	12	20	16	47	0	7	95	16	3	21	29	1	190	1	17	36	0	153	940	27	24	7	0	992	0	0	16	385	28	0	25	0	25	4	4	54	18	0	43	2
OTU 194	5	1	4	12	21	4	9	27	1	7	2	5	1	0	1	4	20	1	2	2	18	80	0	22	16	0	0	3	1	0	1	3	9	0	1	1	18	0	0	118	13	58	3	0	13	0	4	7	14	11
OTU 195	48	91	7	19	38	0	26	4	2	1	40	1	0	73	2	20	0	1	0	0	4	62	4	14	10	8	0	7	0	67	44	48	16	1	6	12	27	38	7	1	11	6	1	6	4	16	2	3	12	11
OTU 196	12	30	1	2	0	21	6	0	21	0	25	0	1	1	6	3	5	2	42	2	1	4	1	2	18	8	0	3	20	8	60	2	6	5	20	42	17	16	0	11	0	2	0	58	2	12	11	18	10	10
OTU 197	41	115	18	42	54	53	27	3	11	30	37	98	192	57	28	1	189	10	726	16	10	18	78	150	165	19	12	63	31	127	112	34	61	9	51	20	25	56	89	112	35	31	12	183	12	36	3	49	86	24
OTU 198	0	1	10	32	1	60	0	0	31	32	0	14	2	0	14	0	0	0	0	2	0	3	15	29	8	9	0	3	57	0	0	7	0	21	0	0	0	0	8	5	66	8	3	20	15	0	5	34	13	29
OTU 199	0	0	28	7	2	0	1	25	2	0	8	12	4	3	3	3	8	1	1	34	0	155	0	0	121	2	2	7	1	0	45	31	16	4	10	3	38	0	8	8	0	12	0	2	3	2	9	4	55	14
OTU 200	26	1	6	18	155	0	20	4	4	23	5	2	84	16	52	4	2	1	1	26	1	0	1	211	6	0	1	101	11	5	27	133	3	2	3	14	46	10	28	1	20	37	10	1297	3	1	5	80	157	4
