	Host 1	Host 2	Host 3	Host 4	Host 5	Host 6	Host 7	Host 8	Host 9	Host 10	Host 11	Host 12	Host 13	Host 14	Host 15	Host 16	Host 17	Host 18	Host 19	Host 20	Host 21	Host 22	Host 23	Host 24	Host 25	Host 26	Host 27	Host 28	Host 29	Host 30	Host 31	Host 32	Host 33	Host 34	Host 35	Host 36	Host 37	Host 38	Host 39	Host 40	Host 41	Host 42	Host 43	Host 44	Host 45	Host 46	Host 47	Host 48	Host 49	Host 50	
OTU 1	0	10	0	2	14	7	1	0	4	9	0	22	0	0	1	0	5	0	6	0	0	3	2	25	0	1	5	4	5	0	0	4	1	2	0	1	7	2	3	8	3	1	0	0	12	0	30	4	2	25
OTU 2	0	3	1	0	0	0	0	0	1	0	1	0	0	0	0	0	0	0	1	0	0	3	0	0	0	0	0	9	0	2	0	0	0	0	0	0	0	0	0	4	0	0	1	0	0	0	0	0	0	0
OTU 3	0	0	0	0	0	0	0	0	0	1	0	0	1	0	0	0	2	0	1	0	0	0	0	2	0	0	1	0	0	0	0	0	0	0	0	1	0	0	0	0	0	0	0	0	0	0	0	0	0	0
OTU 4	0	0	0	0	0	0	0	0	0	0	0	0	0	0	0	0	0	0	0	0	0	0	0	0	0	0	0	0	0	0	0	0	0	0	0	0	0	0	0	1	0	0	0	0	0	0	0	0	0	0
OTU 5	27	0	43	1	1	35	9	0	12	3	38	47	7	0	0	2	23	15	26	14	4	25	4	5	0	4	12	0	12	38	7	18	26	12	0	6	0	10	1	0	3	2	0	43	34	10	6	4	0	16
OTU 6	0	2	0	0	1	3	0	0	1	0	0	0	8	0	0	1	0	0	2	4	0	4	0	0	1	0	0	0	0	0	0	0	0	0	3	0	0	0	1	0	0	0	0	0	0	0	0	0	0	0
OTU 7	4	0	5	1	2	1	1	16	5	14	2	0	9	0	1	0	4	2	9	43	6	2	8	5	0	3	3	5	2	1	18	6	15	8	4	5	5	6	3	22	1	1	3	4	1	3	0	10	0	4
OTU 8	7	8	0	0	0	65	7	4	80	0	5	2	7	11	0	1	1	1	3	3	0	6	0	1	3	0	2	7	37	1	5	0	6	0	5	2	64	1	10	4	1	1	4	7	3	42	0	5	1	5
OTU 9	0	8	0	0	0	0	1	0	0	1	0	0	0	0	4	0	0	0	1	3	10	0	0	0	0	0	17	0	0	4	0	0	0	1	0	0	1	15	0	1	2	0	0	0	0	0	0	0	0	0
OTU 10	4	0	0	0	0	0	0	12	0	3	0	0	0	7	0	0	2	0	1	0	2	0	0	0	2	2	0	0	0	1	0	0	0	0	0	0	0	0	0	15	0	53	0	0	0	1	0	1	49	1
OTU 11	1	1	1	1	0	1	0	0	0	0	0	0	1	5	1	1	0	5	0	0	0	0	0	0	1	1	1	0	0	3	2	0	0	1	0	0	0	1	2	0	1	3	5	2	0	0	0	0	0	0
OTU 12	0	0	1	0	1	4	0	1	0	3	7	0	3	8	0	11	2	1	0	0	4	1	1	1	1	0	3	0	0	3	2	0	4	2	1	0	0	0	2	0	0	8	0	3	0	0	0	5	14	0
OTU 13	0	0	0	0	0	0	0	0	0	0	0	0	0	0	0	0	0	0	0	0	0	0	0	0	0	0	0	0	0	0	0	1	2	0	0	0	0	4	0	0	0	0	0	0	0	0	0	0	0	0
OTU 14	0	1	0	0	0	0	0	0	0	0	0	0	0	0	0	0	0	0	2	1	7	0	0	0	0	27	0	4	0	0	0	0	0	0	0	0	1	0	0	0	0	2	5	0	0	2	0	3	7	0
OTU 15	0	0	0	0	0	0	0	0	2	0	0	0	4	0	0	0	0	0	0	0	0	0	0	0	0	0	0	0	0	0	0	0	0	0	0	0	0	0	0	0	0	4	0	0	0	0	0	0	1	0
OTU 16	0	0	0	0	0	0	0	0	0	0	0	0	0	0	0	0	0	0	0	0	0	0	0	0	0	0	0	0	0	2	0	2	0	0	0	0	0	0	0	0	0	0	0	0	0	0	0	1	0	0
OTU 17	1	3	3	0	1	0	3	0	0	0	0	0	0	1	1	5	0	0	1	1	0	4	0	1	0	1	1	1	0	0	0	0	0	0	1	0	0	0	0	0	0	2	1	0	0	0	0	0	9	0
OTU 18	2	7	1	7	6	4	2	1	11	1	4	3	0	0	2	0	1	0	3	6	0	1	0	7	2	0	0	6	13	3	2	0	6	2	0	0	11	0	3	5	0	2	3	1	3	1	0	4	0	4
OTU 19	0	0	0	0	0	0	0	0	0	0	0	0	0	0	0	0	0	0	0	0	0	0	0	0	0	0	0	0	0	2	0	0	0	0	0	0	0	0	0	0	0	0	0	0	0	0	0	0	0	0
OTU 20	4	0	0	3	1	0	0	7	5	2	1	0	0	1	0	0	0	0	0	0	0	2	0	0	0	1	2	5	2	0	0	1	0	2	0	0	15	0	1	3	0	0	23	0	1	2	0	1	0	0
OTU 21	0	1	3	0	0	0	0	0	0	0	9	0	0	1	1	0	0	0	0	0	3	2	0	9	8	0	1	0	0	1	1	0	20	2	2	0	0	1	1	0	1	2	0	1	0	0	0	0	2	0
OTU 22	5	1	0	0	0	0	0	4	0	3	0	0	11	2	0	3	1	0	0	1	1	0	1	2	0	0	3	1	0	0	1	0	0	83	5	1	0	3	5	2	0	0	5	0	0	0	0	0	1	0
OTU 23	2	0	0	0	6	3	0	1	0	0	0	0	0	2	0	0	0	3	0	0	0	3	4	0	0	0	0	0	1	1	0	0	0	0	2	0	1	0	0	1	3	1	0	0	0	0	1	1	7	1
OTU 24	4	0	0	3	0	0	0	0	0	7	0	1	0	2	2	0	0	0	1	0	0	0	0	0	1	1	0	0	1	1	2	1	0	1	3	0	0	0	4	0	0	0	4	0	0	0	0	1	2	0
OTU 25	0	0	0	0	0	0	0	0	0	0	0	0	7	0	0	0	0	0	5	0	0	1	1	0	0	0	0	0	0	0	1	0	0	0	0	0	0	0	0	0	0	0	0	0	0	0	0	1	0	0
OTU 26	0	0	0	0	0	0	0	0	0	0	3	0	0	0	0	0	0	0	0	0	0	4	0	1	0	0	0	0	0	0	0	0	0	6	0	1	0	0	0	0	0	0	1	2	0	0	0	0	0	0
OTU 27	0	0	0	0	0	0	0	0	0	0	0	0	0	0	0	0	0	0	0	0	0	0	0	0	0	0	0	0	0	0	0	0	0	2	0	0	0	0	0	0	0	1	0	0	0	0	0	0	0	0
OTU 28	2	2	1	0	3	1	0	0	0	0	0	0	1	21	2	12	1	1	1	1	3	3	2	4	102	2	1	1	0	4	14	0	1	1	0	0	0	0	2	1	0	0	1	0	0	1	0	2	1	0
OTU 29	4	1	0	0	0	3	2	0	0	0	0	0	1	1	3	0	0	1	0	0	4	1	0	0	0	9	2	1	4	0	1	0	4	1	1	3	0	1	4	0	2	0	1	0	0	0	1	5	0	0
OTU 30	0	0	0	0	0	0	0	0	0	0	0	0	0	0	3	0	0	0	0	0	0	0	0	0	0	0	0	0	0	0	0	0	0	0	0	0	0	0	0	0	0	0	0	0	0	0	0	0	0	0
OTU 31	8	2	7	0	0	0	1	18	1	13	4	1	2	0	2	1	21	0	15	0	0	0	15	0	0	7	1	0	0	0	4	0	1	0	0	0	0	0	0	23	10	1	1	0	0	0	0	9	0	1
OTU 32	9	2	4	120	0	0	10	0	0	5	2	2	2	5	1	2	3	0	6	1	8	1	1	0	0	0	0	2	0	0	0	2	1	1	0	0	0	0	6	3	1	0	40	0	0	0	0	0	1	2
OTU 33	0	0	0	0	0	0	0	0	0	0	0	0	0	0	0	0	2	0	0	0	0	0	0	0	0	0	0	0	0	0	0	0	0	0	0	0	0	0	0	0	0	0	0	0	0	0	0	0	0	0
OTU 34	54	1	0	0	0	1	1	1	0	1	0	1	2	8	0	0	6	0	1	2	7	2	2	0	0	1	1	0	22	0	4	4	0	6	1	0	0	1	0	7	4	0	0	2	0	0	0	1	0	3
OTU 35	1	0	4	1	2	0	1	1	4	11	23	0	0	2	1	0	0	1	2	0	4	1	0	0	1	0	3	5	0	0	0	2	4	0	1	1	0	1	6	1	0	1	1	0	0	2	0	1	4	3
OTU 36	2	0	5	0	6	0	9	3	47	0	0	2	0	2	0	0	0	0	0	0	4	0	0	0	1	0	3	4	1	6	0	2	0	2	1	0	0	1	2	6	0	0	0	0	1	20	4	4	0	1
OTU 37	0	0	0	0	0	0	0	0	0	0	1	0	0	0	0	0	0	0	3	0	0	0	0	0	0	0	0	0	0	0	1	3	0	0	0	0	0	0	0	0	0	0	0	1	0	0	0	0	0	0
OTU 38	3	2	2	1	16	0	0	7	0	8	1	0	0	7	0	2	4	13	1	0	3	1	1	2	6	1	7	13	0	1	0	44	2	4	0	4	0	1	0	11	4	1	2	1	0	1	0	1	7	0
OTU 39	0	1	1	0	0	1	0	0	0	0	1	0	0	0	0	0	0	0	0	0	0	0	0	0	1	0	1	5	0	1	0	0	0	1	0	0	0	0	0	0	0	1	0	0	0	0	0	1	3	0
OTU 40	0	0	2	0	0	8	3	1	2	0	0	0	3	15	0	4	0	0	0	0	0	0	2	0	1	0	5	1	3	3	11	1	1	0	0	0	1	1	0	8	1	0	1	5	0	0	0	2	4	0
OTU 41	1	0	0	0	1	1	2	0	0	0	0	0	4	1	5	2	0	0	1	0	1	0	2	0	2	0	1	0	1	0	5	0	0	1	0	0	0	0	1	0	0	1	2	2	0	0	0	0	1	1
OTU 42	2	0	11	1	5	0	1	0	0	0	0	0	0	2	36	5	0	0	0	2	0	0	1	1	0	0	0	0	0	1	0	0	0	7	0	0	0	0	0	0	0	0	0	0	0	0	2	0	0	0
OTU 43	0	0	0	0	0	0	0	0	0	0	0	0	0	0	0	0	0	0	0	0	0	0	0	0	0	0	0	0	0	2	0	0	0	0	0	0	0	0	0	0	0	0	0	0	0	0	0	0	0	0
OTU 44	3	0	0	0	0	0	0	2	0	2	2	11	0	0	0	0	0	0	2	0	0	0	0	1	0	1	1	0	0	0	0	0	0	0	0	0	0	0	0	4	1	0	2	0	2	1	0	0	1	0
OTU 45	0	4	2	0	3	1	2	8	1	3	0	0	0	0	5	0	0	1	3	0	0	2	0	4	6	0	2	0	0	2	0	4	0	5	16	2	0	0	0	9	3	0	2	1	0	0	0	0	0	4
OTU 46	5	0	0	1	2	0	0	0	0	5	1	1	0	0	14	2	1	3	0	0	1	2	0	2	18	1	4	9	0	5	10	2	2	1	0	2	2	0	0	6	1	0	2	0	0	0	0	6	5	0
OTU 47	0	3	0	0	0	0	0	0	0	0	0	0	0	5	1	5	0	0	0	0	0	0	0	0	0	0	0	0	0	0	0	0	0	0	0	0	0	0	0	0	0	0	0	0	0	0	0	0	0	0
OTU 48	0	1	0	1	0	1	4	2	0	1	1	1	0	1	13	0	0	1	2	1	4	10	0	3	2	1	2	1	0	1	0	2	1	2	1	1	1	1	1	0	1	2	8	3	0	0	0	0	1	1
OTU 49	1	2	0	0	3	0	0	0	0	0	0	0	0	5	0	4	0	0	0	0	6	0	0	0	0	0	0	0	0	0	0	0	1	0	1	0	0	0	2	1	1	3	1	0	0	0	0	0	1	1
OTU 50	2	0	4	0	0	0	5	1	2	0	0	0	5	4	12	1	0	16	4	1	0	4	0	12	3	0	1	82	1	0	3	17	1	6	0	0	2	0	1	1	1	5	4	1	0	0	0	2	3	0
OTU 51	2	0	0	0	0	0	1	3	0	0	0	0	1	0	0	0	0	0	3	0	0	2	0	0	0	0	0	0	0	1	1	0	0	0	3	0	0	0	1	1	0	0	4	3	0	0	18	0	3	0
OTU 52	3	15	0	0	1	0	1	4	1	0	1	0	2	2	0	3	3	3	8	2	6	0	1	3	2	2	0	4	0	7	1	0	4	4	9	2	0	100	1	1	3	2	5	3	0	2	0	4	1	2
OTU 53	0	0	0	0	0	0	0	0	0	0	0	0	0	0	0	0	1	0	0	0	0	0	0	0	0	0	0	0	0	0	0	0	0	0	0	0	0	0	0	0	0	1	0	0	0	0	0	0	1	0
OTU 54	0	1	1	1	36	0	2	1	1	3	0	0	2	21	0	12	5	0	7	0	3	16	0	2	8	4	2	0	0	0	4	3	3	2	0	0	5	2	0	0	5	2	5	10	0	1	1	2	4	0
OTU 55	0	0	0	0	0	0	0	0	0	0	0	0	0	0	0	0	0	0	0	0	0	0	0	0	0	0	0	0	0	0	0	0	0	0	0	0	0	0	0	0	0	0	0	0	0	0	0	0	0	0
OTU 56	4	0	0	0	0	0	0	0	0	0	0	0	0	0	1	0	1	2	0	2	1	0	0	0	0	0	0	0	0	0	0	0	0	0	1	0	0	1	0	1	5	0	0	0	0	0	0	0	0	0
OTU 57	30	4	3	1	4	9	5	3	3	7	3	1	4	25	0	4	6	0	2	7	5	34	8	2	3	1	1	1	3	1	40	0	1	3	6	2	6	1	2	4	4	6	2	5	0	3	1	1	4	1
OTU 58	0	0	0	0	0	1	1	0	0	0	0	0	1	0	0	0	4	0	0	1	3	3	0	0	3	0	2	6	2	1	2	0	0	0	1	0	1	3	0	0	0	0	0	2	0	0	0	0	0	0
OTU 59	0	8	1	6	2	0	2	5	0	0	1	3	4	3	0	0	0	0	0	1	1	0	6	6	0	6	5	8	0	0	0	0	0	0	0	5	0	8	6	0	3	0	0	1	1	0	0	1	1	5
OTU 60	2	0	10	3	2	1	5	1	0	4	1	0	0	2	1	5	0	2	2	0	3	0	1	1	2	49	5	8	0	9	1	0	1	0	0	3	0	3	1	5	0	2	0	1	0	0	0	71	0	0
OTU 61	0	3	0	0	1	0	1	2	1	1	1	1	1	2	1	2	0	1	2	1	1	13	0	3	1	0	1	2	0	5	2	2	0	10	18	0	0	21	6	0	2	0	5	2	1	0	2	0	0	1
OTU 62	0	0	0	0	8	1	0	0	1	0	0	0	0	0	0	0	2	10	1	1	0	0	0	0	0	0	0	0	0	0	3	28	1	0	0	0	0	0	0	3	0	0	0	2	0	1	0	0	0	0
OTU 63	0	0	0	0	0	0	0	3	0	0	0	0	0	2	1	0	0	0	0	0	2	1	0	0	0	0	4	1	0	3	0	1	0	2	5	0	0	4	0	1	0	7	0	0	0	1	0	0	2	0
OTU 64	2	9	0	0	0	0	0	2	0	1	1	0	8	0	5	0	2	2	2	3	6	2	1	3	0	1	2	9	0	7	1	0	6	1	0	0	0	1	0	2	0	2	8	2	0	0	1	6	4	0
OTU 65	0	1	0	0	0	0	0	0	0	0	0	0	3	0	0	0	0	0	0	0	0	0	0	0	0	0	0	0	0	0	0	0	0	0	0	0	0	0	0	0	0	0	0	0	0	0	0	3	0	0
OTU 66	1	3	0	1	0	0	4	2	4	1	0	1	3	0	1	4	2	1	11	0	1	0	0	3	1	0	0	0	0	0	1	0	1	1	2	0	0	0	10	0	1	0	0	3	0	1	1	0	0	2
OTU 67	1	3	1	0	2	1	1	0	4	0	0	0	1	12	0	6	0	1	0	2	0	14	5	0	0	0	0	0	1	2	0	0	1	0	0	5	0	0	0	0	2	144	1	4	0	0	0	1	1	0
OTU 68	0	0	1	0	1	0	0	0	0	1	0	0	0	0	1	1	0	0	0	0	1	0	4	0	0	0	0	0	0	0	1	0	0	0	0	0	0	0	0	0	0	0	1	1	0	0	1	0	0	0
OTU 69	1	4	2	0	0	2	0	0	1	1	27	0	0	0	1	1	15	0	4	2	1	1	0	3	13	2	0	0	0	0	5	9	2	0	0	3	1	41	5	4	0	1	2	0	0	0	0	0	0	0
OTU 70	1	0	0	0	2	0	0	1	0	0	0	0	0	1	9	2	0	0	0	3	2	1	0	0	2	0	4	0	0	0	4	0	0	2	1	3	0	1	0	3	1	1	0	0	0	0	0	1	0	0
OTU 71	0	0	0	0	0	1	0	0	0	2	0	0	0	0	1	0	0	2	0	1	0	0	0	7	0	0	0	5	2	0	1	9	1	0	0	2	0	0	0	0	2	0	2	4	0	0	0	0	0	1
OTU 72	4	0	0	3	0	1	0	0	0	3	2	7	7	1	1	0	0	0	0	2	1	0	0	5	0	0	0	0	0	0	5	2	1	0	1	1	0	0	1	4	41	0	4	0	1	0	4	0	0	10
OTU 73	0	6	0	0	0	2	2	1	1	0	2	0	0	1	0	0	0	0	0	3	2	3	0	1	0	0	1	2	2	1	0	0	0	0	3	0	3	0	2	0	0	1	0	0	0	167	0	1	0	0
OTU 74	1	6	1	0	0	1	5	0	0	0	0	0	2	4	7	2	1	0	3	0	1	0	2	0	7	0	4	0	0	3	0	0	2	0	0	4	160	1	1	0	1	0	1	2	0	1	0	3	0	1
OTU 75	4	1	1	0	1	0	0	0	0	0	0	0	4	0	0	0	2	0	0	9	1	5	0	0	2	1	0	0	83	4	8	0	1	0	0	0	0	0	1	2	0	0	0	0	0	0	0	0	1	0
OTU 76	0	1	6	0	0	0	1	1	2	0	6	0	0	0	0	0	0	0	8	2	0	1	0	0	1	0	0	0	0	5	0	0	9	1	0	0	0	0	0	0	0	0	0	0	0	0	0	3	0	0
OTU 77	5	3	6	0	0	1	3	2	1	2	0	1	2	2	0	1	0	10	5	1	1	0	0	8	2	0	0	0	2	0	0	13	0	3	2	6	0	0	0	0	4	2	0	2	0	0	0	0	3	0
OTU 78	1	0	0	0	2	0	2	1	1	0	0	0	56	2	0	0	2	0	1	0	0	0	1	85	1	0	1	0	0	0	0	0	0	0	0	38	2	0	0	1	0	0	2	1	0	0	134	14	0	0
OTU 79	9	1	11	4	84	20	3	0	0	3	13	3	31	3	4	2	20	0	8	5	0	14	5	37	5	3	3	6	8	2	2	1	32	14	7	31	5	0	6	0	4	4	1	1	1	0	0	5	6	1
OTU 80	1	0	3	0	2	3	3	0	1	3	0	1	3	0	1	6	0	0	0	0	0	0	1	7	8	0	0	0	2	5	1	8	4	2	0	0	0	0	0	0	3	0	0	2	0	0	9	0	3	0
OTU 81	2	4	0	2	7	0	4	2	1	2	0	0	0	68	1	24	5	0	1	2	0	1	0	3	31	2	4	2	0	0	1	1	1	0	10	25	3	0	0	10	1	0	0	0	1	0	1	4	1	1
OTU 82	3	0	0	0	1	13	0	1	8	1	6	0	0	5	0	2	0	2	1	0	1	1	0	2	0	0	3	0	8	1	0	0	6	0	1	0	17	1	0	4	0	4	0	0	0	6	0	0	2	0
OTU 83	0	0	0	0	0	0	0	0	0	0	0	0	2	0	0	0	0	1	0	1	0	0	0	1	0	0	0	0	0	0	0	0	0	0	0	0	0	0	0	0	0	0	0	0	0	0	0	0	0	0
OTU 84	0	7	0	0	0	0	1	0	0	0	0	0	0	0	0	0	3	1	0	0	0	0	0	0	0	0	0	0	0	2	0	0	1	1	1	1	0	0	1	0	0	0	0	0	0	0	0	0	0	0
OTU 85	3	0	0	0	0	0	0	1	0	1	0	0	0	0	1	0	0	1	0	0	0	0	1	0	0	0	0	0	2	5	0	1	3	0	3	0	0	0	0	0	0	1	0	0	0	0	0	0	1	1
OTU 86	0	0	0	0	0	0	0	0	0	0	0	0	0	1	1	0	0	0	0	2	0	0	0	0	1	0	0	0	0	0	0	0	1	0	0	0	0	0	0	3	0	0	0	0	0	0	0	0	0	0
OTU 87	1	1	1	0	0	0	0	0	0	0	0	0	0	0	0	0	0	0	0	0	1	0	0	2	1	0	0	0	0	0	0	0	0	0	1	0	0	0	0	1	0	0	0	0	0	0	0	0	0	0
OTU 88	0	1	0	0	0	0	0	0	0	0	0	0	1	0	0	0	0	0	0	0	3	0	0	0	0	0	0	0	0	0	0	0	0	0	0	1	0	0	0	0	0	0	0	0	0	0	0	0	0	0
OTU 89	0	0	0	0	4	0	0	0	1	0	45	0	2	0	0	0	2	2	0	0	0	0	0	1	0	0	0	0	0	9	0	0	0	5	2	0	1	0	4	0	0	0	0	1	0	0	1	0	0	1
OTU 90	0	0	0	0	0	0	0	0	1	0	0	0	3	0	0	1	0	0	0	0	0	0	0	0	0	0	0	0	0	0	0	0	0	0	0	0	0	0	0	1	0	0	0	0	0	0	0	0	0	0
OTU 91	0	0	0	0	0	0	0	0	0	0	0	0	0	0	0	0	0	0	0	0	0	2	0	0	0	0	0	0	0	0	0	0	1	0	0	0	0	0	0	0	0	0	0	0	0	0	0	0	0	0
OTU 92	0	0	0	0	0	1	0	0	0	0	0	0	0	2	0	0	0	0	0	0	12	0	0	0	0	0	0	0	0	0	3	0	0	0	0	3	0	0	0	0	1	0	0	1	0	0	0	5	7	0
OTU 93	0	0	0	0	0	0	0	0	0	0	0	0	0	0	0	0	0	6	1	0	0	0	0	0	0	0	0	0	0	2	0	0	0	0	0	0	0	0	0	0	0	0	0	0	0	0	0	2	0	0
OTU 94	12	0	3	0	1	0	0	12	2	19	3	0	0	0	1	2	0	4	6	9	1	3	1	0	12	9	6	0	0	1	12	1	0	2	0	0	0	3	0	7	1	2	0	4	0	2	0	13	5	0
OTU 95	0	0	2	0	0	0	0	0	0	0	0	0	0	0	0	0	2	1	0	2	0	0	0	0	1	0	0	0	0	0	0	0	1	0	0	0	0	0	0	1	1	0	0	1	0	0	0	0	0	0
OTU 96	0	0	0	0	0	1	0	0	1	0	0	0	0	0	0	0	0	0	0	0	1	0	0	0	0	0	0	0	0	0	1	0	0	0	0	0	1	0	0	0	0	0	0	0	0	0	0	1	1	0
OTU 97	0	0	0	1	9	1	16	0	64	3	0	0	0	0	0	0	1	0	0	0	0	3	0	0	0	5	0	0	0	0	0	0	0	0	0	0	0	0	0	4	2	0	0	2	0	33	0	9	0	0
OTU 98	0	0	0	3	0	0	1	0	0	0	0	2	0	0	0	0	0	0	3	0	6	3	14	0	0	0	0	0	0	0	0	1	0	0	0	0	0	1	1	0	0	0	1	0	0	0	0	0	0	1
OTU 99	0	0	0	0	0	3	4	0	0	2	0	0	0	2	1	1	1	2	2	3	0	1	0	1	0	0	3	0	1	3	2	0	1	1	0	1	1	1	2	0	1	0	2	0	0	3	1	0	1	2
OTU 100	0	4	3	1	0	4	0	0	1	1	0	0	0	0	3	0	5	0	0	0	0	0	0	0	0	0	2	1	0	5	3	0	1	5	1	0	0	0	0	0	0	1	5	2	0	1	0	0	0	0
OTU 101	0	0	0	1	0	0	0	0	0	0	0	0	0	0	0	0	0	0	0	0	0	0	0	0	0	0	0	0	0	0	0	0	2	0	0	0	0	0	0	0	0	0	0	0	0	0	0	0	0	0
OTU 102	0	0	0	0	1	0	1	0	0	0	0	0	1	0	1	0	0	0	0	1	0	0	3	4	2	0	0	0	0	0	0	1	0	0	1	0	4	0	0	0	0	0	0	2	0	0	1	0	0	0
OTU 103	0	5	0	0	0	0	2	0	0	1	2	2	0	1	0	0	0	0	0	4	0	1	0	5	1	0	0	13	0	0	1	45	0	2	0	1	0	0	0	1	0	0	2	1	0	0	1	0	0	3
OTU 104	2	0	3	1	0	0	0	0	0	12	1	0	3	2	4	164	7	3	3	2	3	0	3	4	0	0	2	10	0	0	6	0	8	3	3	0	6	1	4	3	0	0	0	0	1	0	1	4	1	3
OTU 105	0	0	0	0	0	0	0	0	0	0	0	0	3	3	0	0	0	0	0	0	0	0	0	1	0	0	0	2	0	0	1	0	0	4	0	0	0	0	0	0	0	1	0	1	0	0	0	2	0	0
OTU 106	0	7	0	0	0	1	0	0	0	0	2	0	0	0	0	0	1	0	0	0	10	2	0	0	2	4	0	0	0	0	0	47	0	0	0	0	0	0	0	0	0	0	1	7	0	0	0	1	0	0
OTU 107	0	0	0	81	0	0	30	0	0	48	2	8	0	0	1	0	1	0	0	0	1	0	1	4	0	1	1	5	0	0	4	4	0	1	0	0	0	1	17	1	1	0	0	0	4	0	1	0	0	7
OTU 108	0	2	4	2	0	0	0	1	0	0	0	0	0	4	0	3	0	0	0	1	1	6	3	0	0	5	78	0	0	0	0	0	0	0	4	0	2	44	2	1	0	0	1	2	0	2	49	0	4	0
OTU 109	0	0	0	0	0	0	0	0	0	0	0	0	0	0	0	0	0	0	0	0	0	0	0	0	0	0	0	0	0	0	0	0	0	0	0	0	0	0	0	0	0	0	0	0	1	0	0	0	0	0
OTU 110	0	1	2	0	2	0	0	0	3	0	0	0	2	3	0	1	1	2	0	0	0	1	0	1	0	0	1	0	0	74	2	2	0	0	0	2	2	0	1	3	0	0	1	3	0	0	0	4	3	0
OTU 111	0	0	0	0	0	0	1	0	0	0	0	0	1	0	0	0	0	0	0	0	0	0	0	0	0	0	0	0	0	1	0	0	0	0	0	0	0	0	0	1	0	1	0	0	0	0	0	1	1	0
OTU 112	0	0	0	0	0	0	1	1	0	0	0	0	0	0	0	0	0	0	3	1	0	0	0	1	0	1	0	3	0	9	0	0	4	0	0	2	1	0	0	2	0	0	0	0	0	0	0	0	0	0
OTU 113	0	0	0	0	0	0	1	0	0	0	0	0	0	0	0	0	1	0	0	0	0	0	0	0	0	0	0	1	0	0	0	1	0	0	0	2	0	0	0	0	0	0	0	0	0	0	0	0	0	0
OTU 114	0	1	2	0	2	3	2	5	6	1	3	1	1	0	0	0	1	1	0	1	28	1	0	5	0	0	0	6	2	3	11	0	0	3	15	4	1	0	5	4	2	2	0	1	0	2	0	1	0	6
OTU 115	1	5	2	0	1	1	0	1	0	7	8	0	4	1	4	0	0	0	0	3	11	0	2	0	3	0	2	0	1	3	2	5	3	4	0	5	1	0	6	0	0	0	2	0	0	0	1	0	2	0
OTU 116	1	18	6	3	1	0	0	0	0	3	2	0	16	5	2	0	0	2	3	2	0	0	7	1	1	2	2	4	0	4	9	4	1	1	7	4	1	0	3	8	105	0	2	1	0	0	1	14	0	0
OTU 117	1	2	0	2	0	0	0	2	0	3	1	0	1	3	3	3	0	0	0	0	0	0	1	0	0	0	1	0	0	0	5	0	0	3	2	1	2	2	0	4	1	0	0	0	0	0	0	0	1	0
OTU 118	0	0	0	0	0	0	0	0	0	0	2	0	0	0	3	0	3	0	0	0	0	4	0	0	0	0	5	0	0	0	0	0	0	0	0	0	0	0	0	0	0	0	0	0	0	0	0	0	8	0
OTU 119	7	1	7	0	0	1	2	0	0	22	2	0	1	3	0	1	0	72	4	7	3	1	0	0	0	0	0	3	0	1	5	0	2	9	0	2	1	0	3	0	4	0	0	1	0	0	0	2	0	5
OTU 120	0	8	0	0	2	0	0	1	0	4	3	0	1	0	0	0	1	1	0	0	0	0	0	2	0	2	0	0	0	0	0	0	0	2	0	0	0	0	0	0	0	0	2	0	0	0	0	0	0	0
OTU 121	0	0	1	0	3	0	0	2	4	0	1	0	0	0	0	0	4	0	8	0	1	0	0	2	0	3	0	0	0	0	1	0	0	3	4	1	0	0	0	4	0	0	1	6	0	1	0	6	0	0
OTU 122	0	0	3	0	0	0	4	0	0	10	1	0	2	1	1	0	0	0	2	1	1	1	0	0	0	3	1	3	0	11	2	0	2	0	0	0	0	1	1	1	9	3	0	0	0	0	0	0	2	0
OTU 123	4	62	2	1	64	2	10	2	0	6	5	0	7	4	1	5	1	10	4	6	13	10	153	4	1	5	6	13	1	8	4	8	15	7	5	0	5	7	2	4	18	2	38	4	1	1	0	4	9	2
OTU 124	0	0	0	3	0	0	0	0	0	0	0	0	1	0	0	0	0	0	0	0	4	0	0	0	0	1	0	0	0	0	0	0	0	0	0	0	0	0	2	0	1	0	1	0	1	0	0	1	0	0
OTU 125	3	1	9	39	5	0	3	5	1	5	11	23	5	9	2	8	1	2	11	3	11	3	43	3	20	0	5	5	2	25	7	0	14	7	9	3	0	4	59	4	57	5	3	2	7	1	17	3	3	40
OTU 126	0	0	0	0	0	0	0	0	0	0	0	0	2	0	0	0	0	0	0	0	0	0	0	0	0	0	1	0	0	2	0	0	0	0	0	0	0	0	0	0	0	0	1	0	0	0	0	0	0	0
OTU 127	5	1	0	4	1	0	2	0	4	0	0	0	4	0	0	2	0	0	0	0	0	0	0	0	0	0	0	0	0	0	3	1	8	2	0	1	2	0	0	1	1	0	0	0	0	0	0	0	2	0
OTU 128	4	15	14	0	4	7	1	13	3	6	2	85	2	14	6	4	1	5	4	19	0	7	2	0	0	13	1	2	1	1	18	1	1	7	3	9	3	2	6	11	24	2	4	2	100	2	51	28	2	132
OTU 129	0	0	0	0	1	0	0	0	2	0	0	0	0	0	0	0	0	0	0	0	0	0	0	0	0	0	0	0	1	0	1	0	3	0	0	0	0	0	0	3	0	0	0	0	0	1	0	0	0	0
OTU 130	2	0	7	1	0	1	2	0	4	4	2	1	0	0	0	0	35	10	0	0	0	0	0	0	0	140	30	0	1	0	3	7	0	0	4	0	0	12	1	3	2	0	5	0	1	0	2	0	0	1
OTU 131	0	0	0	0	4	1	0	0	0	2	0	0	5	0	1	3	0	1	1	1	0	0	0	6	0	0	1	0	0	0	1	1	0	0	0	1	0	1	1	0	0	1	0	0	20	0	1	0	1	1
OTU 132	0	0	0	0	0	1	0	0	0	0	0	0	0	0	0	4	0	0	0	0	0	0	1	0	1	3	8	0	3	2	0	0	0	0	82	0	0	0	0	0	0	0	4	0	0	0	1	3	0	0
OTU 133	0	0	0	0	0	0	0	0	0	0	0	0	0	3	1	1	0	0	1	0	0	0	0	0	0	0	1	0	1	0	0	0	0	0	0	4	0	0	0	0	0	0	0	0	0	0	0	0	1	1
OTU 134	3	0	0	1	0	0	0	1	0	1	0	0	4	1	1	0	1	0	5	3	4	12	0	0	0	1	4	0	0	1	0	0	1	0	6	1	3	2	2	2	0	0	3	0	0	0	1	3	3	2
OTU 135	0	0	0	1	1	0	0	1	0	1	0	0	0	0	0	1	1	0	0	0	1	3	0	3	0	0	3	3	0	0	14	0	0	0	0	0	3	0	1	0	0	4	0	1	0	0	0	4	0	0
OTU 136	0	0	0	1	0	3	0	0	1	0	2	0	0	0	0	0	0	0	1	2	2	0	0	2	0	1	0	2	0	0	0	0	0	4	4	1	0	2	0	1	0	0	1	1	0	0	0	5	3	0
OTU 137	0	0	0	1	0	0	1	0	0	0	0	0	10	0	0	0	2	0	0	1	0	0	0	0	5	1	2	0	0	6	0	0	0	0	0	0	0	0	3	1	0	0	0	0	0	0	0	2	0	2
OTU 138	1	3	0	0	0	2	0	0	1	0	3	1	4	0	2	0	1	0	0	3	0	1	0	0	4	1	0	0	1	0	0	0	0	3	0	2	1	1	0	0	0	0	3	0	0	2	0	0	0	0
OTU 139	5	5	1	0	2	1	0	0	0	7	2	3	6	1	0	4	4	1	3	1	1	1	0	1	0	1	1	1	0	0	2	2	1	30	0	0	1	0	6	3	1	27	1	2	106	1	0	1	44	5
OTU 140	20	4	16	4	3	8	4	28	7	7	10	0	7	4	1	6	0	2	94	22	1	2	2	0	1	4	1	2	1	6	23	0	24	8	3	0	11	3	3	50	3	0	1	8	0	3	1	5	7	0
OTU 141	0	0	0	0	0	0	0	0	0	0	0	0	1	0	0	0	0	0	0	0	0	0	0	0	14	0	0	0	0	0	0	0	1	0	0	0	0	0	0	0	0	0	0	0	0	0	0	0	0	0
OTU 142	0	0	0	0	0	0	0	0	0	0	0	0	0	0	0	0	0	0	0	0	0	0	21	0	0	0	0	0	0	0	0	0	0	0	0	0	0	0	0	0	0	0	0	0	0	0	0	0	0	0
OTU 143	0	0	0	0	0	1	0	1	0	0	0	0	0	0	2	0	0	0	1	1	0	0	0	0	0	0	0	0	0	0	0	1	5	0	0	0	0	0	0	1	0	0	0	0	0	0	1	0	0	0
OTU 144	0	7	5	0	0	0	0	0	0	1	49	0	1	0	0	0	0	0	0	0	1	0	0	0	0	0	1	0	1	0	0	1	1	0	0	0	0	0	0	0	0	0	1	0	0	0	0	0	0	0
OTU 145	1	0	0	0	0	2	5	0	5	1	1	0	5	1	157	1	10	0	1	0	1	2	0	3	12	0	2	0	1	0	3	0	0	2	1	0	0	1	0	1	1	0	0	1	0	1	0	3	0	1
OTU 146	0	4	1	0	1	0	2	0	1	0	0	0	3	4	0	0	0	0	0	1	0	1	0	0	0	2	0	1	0	5	0	0	0	3	1	0	1	12	0	3	0	10	0	1	0	2	0	1	0	2
OTU 147	1	4	0	3	0	0	5	0	1	1	0	0	0	0	0	0	0	0	0	0	0	2	1	0	0	0	2	0	0	0	1	0	0	0	0	0	0	0	0	0	0	1	0	0	0	0	0	0	0	0
OTU 148	5	1	0	1	2	0	0	0	0	0	0	0	1	1	2	2	57	0	2	0	2	4	0	0	3	0	1	4	0	2	2	1	0	3	0	0	0	0	0	7	0	1	0	0	0	0	0	1	0	1
OTU 149	0	0	0	0	1	0	0	5	0	0	0	0	1	0	0	0	0	1	0	0	10	0	0	0	0	3	0	0	1	0	0	0	0	0	0	0	0	0	1	0	0	0	0	0	1	0	0	3	0	5
OTU 150	0	0	0	0	0	0	3	1	0	0	0	0	0	0	0	0	0	1	0	0	0	0	0	0	0	0	0	3	1	0	0	1	0	1	0	0	0	1	2	2	0	0	0	2	1	0	0	0	0	0
OTU 151	0	2	0	0	0	1	3	0	0	1	0	0	0	1	1	2	0	0	0	0	0	0	1	0	0	0	0	3	0	0	0	0	0	0	1	0	0	0	0	1	0	0	2	0	0	0	0	0	0	1
OTU 152	0	6	2	1	2	0	12	1	0	1	1	0	0	4	4	8	1	0	0	2	6	3	2	0	4	0	0	0	0	0	0	0	0	1	0	0	0	0	0	1	0	0	3	0	0	0	0	0	0	0
OTU 153	0	0	0	0	0	0	0	0	0	0	0	0	0	0	0	0	0	0	0	0	0	0	0	0	0	0	0	0	0	1	0	0	0	1	1	0	0	0	0	0	0	0	0	1	0	0	0	0	0	0
OTU 154	0	0	0	0	0	0	0	0	0	3	0	0	0	0	1	0	0	0	1	0	1	0	2	0	0	0	0	0	0	0	0	0	0	0	0	0	0	0	0	3	0	5	0	0	0	0	0	0	0	0
OTU 155	0	1	0	1	1	21	1	1	0	0	0	0	0	2	0	0	0	0	0	0	2	1	0	0	0	0	2	2	15	2	4	0	0	0	0	1	0	3	0	0	1	0	1	0	0	0	0	0	0	0
OTU 156	5	11	9	2	5	1	5	3	4	3	6	0	0	1	3	4	8	3	0	67	1	5	4	2	0	0	4	1	0	3	3	2	1	0	1	5	0	1	1	22	1	0	0	1	0	1	2	4	1	1
OTU 157	0	0	0	0	0	0	0	0	0	0	0	0	0	0	3	0	0	11	0	6	8	0	0	3	0	0	0	10	0	0	0	3	0	0	0	5	0	1	0	0	2	7	0	0	0	0	1	0	18	0
OTU 158	0	0	0	0	0	0	0	0	0	0	0	0	0	0	0	0	0	0	0	0	0	0	0	0	0	0	0	0	0	0	3	0	0	0	0	0	0	0	0	0	0	0	0	0	0	0	1	0	2	0
OTU 159	0	16	0	0	0	0	0	0	0	1	1	0	0	0	2	0	0	0	1	1	0	10	2	2	1	3	2	0	0	1	0	0	2	2	13	0	2	1	0	2	0	0	9	0	0	0	0	2	0	1
OTU 160	8	8	3	12	1	4	95	1	0	0	0	2	11	1	4	1	0	5	1	41	0	4	0	6	0	2	10	10	2	5	17	2	0	8	10	3	2	7	27	0	0	7	0	27	5	3	3	2	2	18
OTU 161	0	2	96	0	1	0	5	1	2	0	0	0	0	0	1	0	0	2	3	0	4	5	0	0	5	2	2	0	0	3	0	1	0	3	4	0	0	0	0	0	0	0	0	0	0	0	0	0	0	0
OTU 162	1	0	3	0	2	1	0	4	4	2	2	0	2	1	0	0	0	1	1	0	7	2	0	34	1	0	3	5	0	0	0	12	5	0	0	17	1	7	6	2	0	0	1	20	0	3	2	0	1	0
OTU 163	0	0	0	0	0	0	0	0	0	0	0	0	0	0	0	0	0	0	0	0	0	0	0	0	0	0	0	0	0	7	0	0	0	0	0	0	0	1	0	0	0	0	0	0	0	0	0	0	0	0
OTU 164	0	1	0	0	0	0	0	0	0	0	0	0	0	0	0	0	0	0	0	1	0	0	0	0	0	0	0	1	0	0	0	0	0	0	0	0	0	0	0	0	0	0	0	0	0	0	0	0	0	0
OTU 165	1	0	20	0	0	2	0	0	0	0	26	0	1	0	0	0	3	0	0	0	2	1	0	0	3	0	0	4	1	0	0	0	63	1	3	0	0	0	1	0	0	1	0	0	0	0	0	0	3	1
OTU 166	0	0	0	0	0	0	0	0	0	0	0	0	0	0	0	0	0	0	0	0	0	0	0	0	0	0	0	0	0	0	0	0	0	0	0	0	0	0	0	0	0	0	0	0	0	0	0	0	0	0
OTU 167	1	0	0	0	0	2	0	2	0	0	0	0	0	1	6	1	0	0	3	0	0	10	0	0	0	3	0	0	0	0	0	0	3	4	1	0	0	1	0	2	1	1	0	0	0	0	0	1	1	0
OTU 168	2	0	1	2	0	5	0	0	0	2	0	0	1	0	2	1	0	2	0	0	2	0	0	0	0	4	0	1	0	1	4	0	0	5	0	0	1	0	3	0	1	1	2	0	0	0	6	0	0	1
OTU 169	0	0	0	0	0	0	0	0	0	0	0	0	0	0	0	0	0	0	0	0	0	0	0	0	0	0	0	0	0	0	0	0	0	0	0	0	0	0	0	0	0	0	0	0	0	0	0	0	0	0
OTU 170	0	0	0	0	0	0	0	0	0	0	0	0	0	0	0	0	1	0	0	0	0	0	0	0	0	0	0	0	0	0	0	0	0	0	0	0	0	0	0	0	0	0	0	0	0	0	0	0	0	0
OTU 171	0	1	0	0	0	1	0	0	0	6	1	0	7	1	5	0	0	3	3	0	4	0	0	0	0	0	1	1	1	2	1	1	4	4	0	139	0	0	0	1	0	0	0	0	0	0	1	0	0	0
OTU 172	0	0	0	0	0	0	0	0	0	0	0	0	0	0	0	0	0	0	0	0	0	0	0	0	0	0	0	0	6	0	0	0	0	0	0	0	0	0	0	0	0	0	0	0	0	0	0	0	0	0
OTU 173	1	1	0	0	0	0	0	5	0	3	0	0	2	5	0	2	0	2	0	0	1	0	1	0	1	2	0	1	0	0	0	2	0	0	0	0	0	0	1	2	0	0	0	0	0	0	0	4	0	0
OTU 174	0	0	1	3	0	0	2	0	1	1	1	0	0	2	1	0	0	0	0	0	0	0	2	0	0	0	0	5	0	0	3	0	0	0	0	0	0	0	0	1	0	0	3	0	0	0	0	1	1	0
OTU 175	1	0	0	0	2	1	1	1	0	0	0	0	0	9	0	4	4	2	0	0	0	16	0	0	0	0	2	0	0	1	0	0	0	0	1	0	0	0	0	0	0	0	1	0	0	0	0	0	1	0
OTU 176	1	0	0	0	0	0	3	0	0	0	0	1	2	0	2	1	0	2	2	1	0	2	4	1	0	0	1	1	0	0	7	2	1	2	0	0	0	0	1	3	1	8	3	8	0	0	2	0	6	0
OTU 177	3	1	0	0	1	0	1	0	0	2	1	0	0	0	1	1	0	0	0	0	1	0	0	1	0	0	5	7	1	0	2	0	1	1	0	0	0	0	0	6	1	1	0	19	0	0	0	4	2	0
OTU 178	0	2	1	0	4	1	0	0	1	2	0	0	1	0	0	0	0	4	0	0	0	1	2	0	2	1	0	2	80	0	1	2	0	0	0	0	1	0	0	0	0	0	0	0	0	0	1	4	0	0
OTU 179	0	7	0	0	1	0	0	1	0	1	0	2	0	0	0	0	0	116	0	20	0	0	0	1	0	5	0	0	0	2	0	32	0	2	0	0	0	0	2	0	0	0	0	0	1	0	2	0	2	1
OTU 180	3	3	4	48	20	1	9	0	48	2	0	13	10	4	2	2	2	8	1	4	48	10	9	0	1	5	2	0	1	11	3	0	1	2	15	1	3	6	96	2	1	1	3	3	8	20	24	2	3	48
OTU 181	0	0	1	0	0	1	0	1	0	0	0	0	0	0	2	0	1	0	0	3	0	0	0	1	1	0	2	8	0	2	1	1	3	2	0	3	0	2	0	0	0	3	0	13	0	0	0	0	17	0
OTU 182	0	0	0	0	0	0	0	0	0	0	0	0	0	0	0	0	0	0	0	0	1	0	0	0	0	0	0	1	0	0	0	0	0	0	0	0	0	0	0	0	0	0	0	0	0	0	0	0	0	0
OTU 183	1	0	2	0	0	0	0	0	0	1	0	0	0	1	0	0	0	0	0	0	0	1	0	1	0	6	11	3	0	1	0	0	2	1	0	0	0	0	0	0	0	0	36	1	0	7	0	5	0	0
OTU 184	0	0	1	0	1	0	1	0	0	0	0	0	0	0	0	0	0	0	0	0	0	0	0	1	3	0	0	2	0	0	0	0	0	3	0	0	0	0	0	0	0	0	2	0	0	0	0	1	0	0
OTU 185	1	0	3	2	3	22	12	0	12	0	0	2	0	0	0	1	0	0	3	0	1	1	0	2	0	0	0	1	3	0	0	0	2	0	2	0	8	0	2	1	0	0	56	0	13	8	2	1	3	2
OTU 186	19	0	0	0	0	1	1	0	0	0	0	0	0	0	0	0	0	0	2	0	1	0	1	0	0	0	0	0	0	2	0	0	0	0	0	0	0	0	1	0	1	0	0	1	0	0	0	0	0	0
OTU 187	0	1	3	0	1	2	7	5	0	0	12	0	9	1	1	0	7	0	6	1	4	6	0	1	0	3	1	1	0	0	2	1	3	1	0	0	0	2	0	4	0	2	1	6	0	0	0	6	14	1
OTU 188	0	5	0	1	0	2	4	0	2	2	3	0	4	0	3	0	0	0	2	0	2	3	19	2	5	12	1	0	1	1	4	3	2	2	9	9	0	0	1	1	17	0	0	1	0	2	0	29	2	3
OTU 189	1	3	0	1	0	1	1	0	0	44	0	0	0	1	0	1	8	0	4	0	37	5	3	3	7	2	1	1	1	3	3	0	6	2	3	4	0	2	0	0	3	1	1	0	0	0	0	0	2	0
OTU 190	0	0	0	0	0	0	0	1	0	1	0	114	0	0	0	0	0	0	0	0	0	0	0	1	0	0	0	0	0	0	0	2	0	0	0	0	0	0	0	0	0	0	0	0	52	0	0	0	0	0
OTU 191	21	3	3	0	0	2	1	3	0	0	1	2	1	5	0	0	0	6	2	0	0	37	0	2	9	0	0	6	0	0	2	0	0	1	0	1	3	0	2	0	0	4	5	1	2	0	2	0	6	0
OTU 192	4	4	0	3	2	0	3	162	1	1	0	24	9	0	6	3	53	0	0	11	4	0	0	1	2	4	2	2	0	2	1	0	8	0	46	0	4	2	3	2	3	9	0	0	13	29	0	0	24	0
OTU 193	0	0	0	0	0	86	0	0	0	0	3	0	4	3	0	4	3	0	0	0	0	0	1	1	0	0	38	1	48	1	0	0	0	1	0	0	0	18	0	1	2	3	0	2	0	0	0	0	0	0
OTU 194	0	0	0	0	0	0	2	0	0	0	5	0	0	0	0	1	2	0	0	1	0	0	0	1	0	0	1	0	0	0	0	2	2	0	0	0	1	0	1	0	0	3	0	0	0	0	0	0	1	0
OTU 195	1	1	0	0	0	0	4	0	0	1	1	0	0	5	0	2	0	0	1	3	0	0	3	0	0	0	0	1	0	6	0	0	2	0	0	0	1	0	1	0	0	0	6	0	0	0	0	0	1	0
OTU 196	2	2	0	0	5	0	4	0	0	2	1	0	0	0	1	1	0	1	4	0	0	0	3	0	1	0	0	0	0	0	6	0	3	9	0	0	0	0	0	0	0	0	0	0	0	0	0	0	0	0
OTU 197	0	10	4	2	0	0	0	0	3	6	0	1	4	4	0	1	9	0	25	1	3	0	0	5	8	0	5	3	0	5	2	0	2	3	4	0	4	5	4	3	0	0	11	11	0	0	0	5	0	0
OTU 198	0	0	0	2	0	0	0	0	0	1	0	1	0	0	0	0	0	0	0	0	1	0	0	2	1	0	0	0	0	0	0	0	0	0	0	0	0	0	0	0	0	0	0	0	0	0	0	0	0	0
OTU 199	0	0	0	0	2	0	1	0	0	0	0	0	1	0	0	1	0	0	0	0	0	0	0	0	6	0	0	0	0	1	1	0	0	1	0	0	1	0	2	0	0	0	0	1	0	0	0	2	0	0
OTU 200	6	0	1	1	1	0	7	0	0	1	0	0	5	0	0	0	0	0	0	0	0	0	0	0	0	0	2	9	0	0	0	3	3	5	6	0	0	1	2	0	2	2	2	94	0	0	2	0	11	0
