	Host 1	Host 2	Host 3	Host 4	Host 5	Host 6	Host 7	Host 8	Host 9	Host 10	Host 11	Host 12	Host 13	Host 14	Host 15	Host 16	Host 17	Host 18	Host 19	Host 20	Host 21	Host 22	Host 23	Host 24	Host 25	Host 26	Host 27	Host 28	Host 29	Host 30	Host 31	Host 32	Host 33	Host 34	Host 35	Host 36	Host 37	Host 38	Host 39	Host 40	Host 41	Host 42	Host 43	Host 44	Host 45	Host 46	Host 47	Host 48	Host 49	Host 50	
OTU 1	11	76	0	5	30	19	4	24	164	27	77	10	6	69	0	4	86	40	300	26	94	22	136	19	125	1	7	35	58	48	203	33	189	6	30	140	134	42	28	15	36	123	148	48	1	8	55	40	1	31
OTU 2	0	12	3	7	0	0	0	0	28	0	0	21	8	14	0	0	14	7	6	7	5	10	19	8	0	92	2	20	1	16	36	41	0	0	2	0	17	0	49	0	18	0	6	0	61	0	0	28	8	0
OTU 3	73	0	166	2000	1	9	148	36	5	4	0	54	0	1	10	0	0	175	79	0	0	6	0	6	0	108	0	0	28	5	0	7	0	3	0	30	39	0	16	27	0	0	0	0	0	0	0	5	7	53
OTU 4	0	0	0	0	0	0	0	0	0	0	25	0	0	0	0	0	0	0	0	0	0	0	0	0	0	0	0	0	0	0	0	0	0	0	0	0	0	32	0	0	0	0	0	0	0	0	0	0	0	0
OTU 5	122	56	276	469	1114	148	1386	236	87	1739	103	148	348	254	588	997	1235	286	154	807	1	598	214	572	85	829	160	258	548	474	73	348	450	67	575	812	592	230	125	326	93	181	168	351	929	298	238	702	49	34
OTU 6	93	3	0	30	34	31	108	59	3	34	22	0	2	5	9	71	23	3	25	13	6	34	17	53	5	17	0	0	5	0	17	75	19	6	21	15	48	0	14	53	113	68	0	2	61	7	590	36	6	64
OTU 7	25	89	108	37	114	44	43	11	60	56	89	83	338	30	127	65	15	5	80	59	104	103	36	9	132	66	42	79	112	93	66	32	18	36	81	8	44	14	41	21	224	339	35	83	18	51	94	350	124	161
OTU 8	8	73	186	212	46	85	76	90	28	12	91	11	151	13	223	20	128	43	315	34	15	100	44	40	19	298	44	105	32	64	76	101	21	92	189	179	126	17	17	88	13	30	25	83	179	22	38	37	30	30
OTU 9	4	22	38	7	10	2	56	0	4	0	0	1	25	0	0	0	4	23	2	5	16	0	1	0	0	27	0	1	2	0	4	2	5	68	0	6	1	2	63	27	8	27	0	0	45	7	37	2	0	1
OTU 10	0	6	0	0	11	0	1	7	0	0	7	9	0	0	9	0	1	38	3	3	128	10	7	4	5	6	53	13	0	65	2	0	75	1	29	9	2	3	168	0	1	7	3	0	15	3	18	2	0	0
OTU 11	11	39	4	28	0	3	48	4	70	11	11	97	0	33	147	77	99	55	68	1	32	164	42	2	23	12	0	32	15	8	91	0	14	8	13	7	34	21	5	820	127	2	12	19	55	91	54	30	129	3
OTU 12	121	12	6	0	1	17	126	32	1	9	26	39	5	0	124	33	52	5	1	3	151	25	1	19	3	9	14	59	21	10	6	124	135	5	82	1	41	30	8	15	39	109	39	45	70	5	30	44	67	108
OTU 13	0	0	0	0	0	0	0	0	0	0	0	0	0	0	0	0	0	5	15	3	0	0	0	17	0	46	0	0	0	0	0	0	43	0	0	25	0	0	0	0	2	0	0	3	0	0	0	0	11	0
OTU 14	0	0	18	0	1	49	19	43	4	17	9	150	0	0	4	100	0	144	12	0	3	49	2	0	0	22	0	0	0	0	20	2	1	0	0	3	0	2	4	3	2	27	0	2	0	54	70	34	9	2
OTU 15	0	8	0	14	0	25	1	0	0	1	0	0	0	0	0	0	0	0	0	0	0	0	0	0	3	0	3	0	6	0	0	21	0	0	0	0	7	0	0	0	0	0	0	12	0	0	40	0	0	0
OTU 16	0	0	0	0	0	0	0	0	0	0	0	0	0	0	0	0	0	0	0	0	1	0	0	3	0	0	0	0	0	0	0	43	0	0	0	0	0	0	0	0	0	2	0	1	0	0	0	0	0	0
OTU 17	10	14	1	25	0	22	110	10	15	30	7	0	1	5	17	23	6	49	8	20	0	41	27	18	0	29	7	1	3	0	67	52	233	2	1	3	47	9	95	8	16	2	24	1	4	26	17	0	3	0
OTU 18	0	15	47	36	56	11	88	8	65	338	4	2	46	34	135	21	8	8	127	39	42	1	155	8	44	25	25	3	60	1	294	14	3	129	1	48	27	1	28	11	4	35	87	18	19	8	122	54	95	3
OTU 19	0	0	0	0	0	0	0	0	0	0	0	0	0	0	0	0	0	0	0	0	0	0	0	0	0	0	0	0	0	0	0	0	0	0	0	0	0	0	0	0	0	0	0	0	0	0	0	0	0	0
OTU 20	39	10	64	45	63	4	76	10	20	36	30	41	40	9	40	18	1	53	1	63	19	65	35	33	122	57	12	21	34	59	63	5	94	28	25	5	20	5	39	31	69	397	32	12	5	30	13	38	3	3
OTU 21	25	7	40	24	27	22	15	249	16	4	38	7	93	4	1	2	1	102	30	15	33	3	4	73	47	152	3	36	1	9	19	0	0	17	34	31	35	12	11	4	84	29	27	0	59	2	60	98	11	15
OTU 22	49	110	6	36	2	79	20	43	12	0	472	33	30	3	36	11	4	88	0	0	23	7	18	12	4	1	14	5	1429	65	25	94	32	29	14	2	29	168	19	0	749	0	15	0	0	7	28	1	1	8
OTU 23	16	1	0	0	30	0	207	1	0	17	43	5	36	0	46	2	69	9	13	0	11	0	0	0	152	6	49	11	0	11	0	141	20	26	13	0	2	11	0	0	18	46	73	10	9	6	133	169	3	18
OTU 24	32	0	31	0	0	8	0	1	0	12	7	146	32	0	5	2	7	1	26	0	801	1	0	1	0	0	2	15	2	54	0	8	0	5	0	0	16	9	42	45	1	124	25	0	1	2	6	4	0	1
OTU 25	0	0	0	0	0	0	0	0	0	0	0	0	0	0	0	0	0	0	0	1	0	0	0	0	0	4	0	0	0	0	2	0	20	0	0	0	0	0	0	0	0	0	0	0	0	0	0	0	0	0
OTU 26	2	0	1	0	0	0	0	0	0	1	0	0	28	0	3	4	0	0	0	3	0	17	0	0	0	0	0	37	34	0	0	3	0	0	0	0	4	6	0	13	1	5	0	4	0	22	6	70	0	0
OTU 27	0	0	0	0	0	0	0	0	0	0	0	0	11	0	0	3	0	0	13	0	0	0	0	1	0	0	1	0	39	0	0	0	0	0	0	28	7	0	0	0	20	0	5	0	0	2	0	0	0	0
OTU 28	11	21	38	54	3	22	0	46	63	3	7	11	1	39	6	29	26	10	79	92	57	76	54	68	94	86	38	65	160	6	142	101	42	49	51	72	75	15	269	27	127	10	43	35	47	30	102	9	335	35
OTU 29	58	24	41	28	6	201	29	103	88	34	59	23	8	44	26	37	2	174	2	105	108	31	52	142	47	2	49	11	18	304	114	3	33	45	151	9	31	2	9	22	70	188	155	70	19	24	110	45	3	68
OTU 30	0	0	0	0	0	0	0	0	0	0	0	0	0	0	0	0	0	0	0	0	1	0	0	0	0	0	0	0	0	0	0	0	0	0	0	0	0	0	0	0	0	0	0	0	0	0	0	0	0	0
OTU 31	109	23	6	10	0	0	14	7	33	0	22	9	0	9	21	0	0	0	0	0	177	3	51	3	84	1	7	36	8	25	122	178	10	0	0	0	6	8	0	1	64	174	8	0	5	4	0	2	42	22
OTU 32	16	35	14	67	18	175	149	50	27	105	10	22	2	16	61	8	1440	21	92	58	85	51	36	109	108	33	56	54	442	71	39	157	91	26	50	32	106	1	1705	26	56	253	52	47	44	19	92	13	240	143
OTU 33	214	3	0	25	0	0	5	0	0	16	3	0	0	0	4	0	0	0	0	0	0	0	0	0	0	0	4	0	0	0	0	4	0	0	0	0	0	4	0	0	0	0	3	0	0	0	0	45	7	101
OTU 34	10	2	0	349	601	30	74	143	15	23	19	8	1	13	26	3	7	10	138	2	43	53	16	19	8	243	1	15	35	11	37	2	35	35	7	59	2709	17	191	77	26	3	127	3	70	4	4	99	32	0
OTU 35	48	365	32	0	22	51	4	42	8	112	14	840	7	3	0	21	28	4	16	27	3203	46	4	12	0	29	37	167	12	312	1	37	7	923	89	14	1	1	66	56	25	0	1577	16	2	22	44	17	1	14
OTU 36	0	30	23	773	0	46	10	192	19	0	0	4	0	15	28	22	8	0	39	2	191	0	23	5	1	19	21	5	9	2	50	32	73	2	17	18	89	7	7	12	3	16	90	26	65	2	82	16	1	17
OTU 37	7	6	0	5	3	0	0	0	0	1	8	0	3	0	0	0	2	0	0	0	5	0	0	0	0	58	0	0	22	1	0	1	0	0	0	0	0	10	0	0	54	0	4	12	6	0	16	1	23	0
OTU 38	68	7	63	13	6	22	141	14	13	6	18	50	1	10	12	1206	7	11	11	1	4	81	6	34	62	1	9	5	548	27	9	135	43	4	2	5	1	0	449	29	50	27	2	852	38	6	0	17	62	33
OTU 39	0	0	0	2	0	2	0	0	56	9	11	0	5	26	0	8	0	1	0	9	0	40	37	21	30	2	0	59	0	51	83	1	5	0	0	2	1	7	0	7	11	64	2	37	0	15	0	1	0	0
OTU 40	7	36	0	1	24	50	12	19	9	2	1284	140	4	4	25	132	129	11	9	30	27	482	13	156	74	51	46	172	8	15	19	15	43	3	16	2	13	720	6	54	254	21	10	56	2	184	1	69	30	9
OTU 41	2	53	136	1	1	33	46	0	2	7	0	57	27	1	167	17	4	5	47	4	15	38	0	40	20	169	0	33	22	24	1	2	29	6	2	11	4	1	32	28	1	5	1	9	17	10	50	27	66	0
OTU 42	1	0	1	5	0	0	0	2	53	11	0	0	0	25	51	25	1	0	0	0	18	17	95	0	1	1	0	0	1	0	195	4	2	0	0	0	31	0	5	2	1	0	2	8	0	41	0	0	0	3
OTU 43	0	0	0	0	0	0	0	0	0	0	0	0	2779	0	0	0	0	0	0	0	0	0	0	0	0	0	1	0	0	0	0	3	0	0	0	0	0	0	0	0	0	0	0	0	0	0	0	0	0	0
OTU 44	0	2	1	0	0	26	25	0	0	0	0	0	0	0	47	0	0	3	2	4	0	0	0	0	3	0	2	0	0	0	0	0	52	0	2	1	0	0	0	0	1	6	0	0	4	0	0	1	0	0
OTU 45	123	51	33	80	68	6	0	56	42	0	22	112	8	18	14	0	3	7	32	8	0	35	33	30	35	9	148	0	45	5	100	224	28	5	30	15	10	8	29	24	41	140	4	1	90	492	95	7	129	294
OTU 46	68	159	28	13	12	99	0	1	23	14	74	32	71	9	34	22	13	146	39	164	83	49	6	14	61	68	55	6	47	7	10	56	187	12	29	10	54	7	1	41	5	1	7	0	48	66	175	104	30	10
OTU 47	22	6	4	1	0	13	0	0	3	0	0	8	0	1	77	0	0	0	0	0	0	0	1	10	0	4	7	3	45	0	2	0	0	0	0	11	0	1	0	0	39	0	0	0	0	0	13	18	1	0
OTU 48	10	15	139	16	44	0	107	49	29	0	86	38	13	17	16	59	3	133	71	24	23	13	18	23	94	19	58	30	15	23	34	16	3	4	1477	1179	5	30	17	16	39	28	3	969	1	23	68	3	124	55
OTU 49	6	2	3	1	5	0	5	29	0	20	14	22	21	0	0	2	0	46	12	65	0	2	0	8	27	7	16	38	1	0	0	2	0	0	0	1	29	4	26	68	47	0	0	2	13	5	0	11	0	60
OTU 50	69	14	65	12	24	10	1211	4	120	69	27	6	18	61	132	145	100	5	21	198	69	285	174	396	26	86	74	29	87	63	268	86	223	158	150	8	33	10	72	200	119	79	31	94	168	135	99	158	63	33
OTU 51	1	133	20	47	11	15	182	58	11	7	35	248	1	7	0	2	0	1	49	36	7	0	13	1	68	6	126	22	2	59	13	40	188	308	15	4	284	9	73	18	38	2	985	2	2	7	1	4	22	5
OTU 52	49	12	50	59	0	32	167	187	50	54	55	169	28	21	42	23	55	97	55	177	37	72	96	35	472	149	197	74	254	10	104	23	44	17	10	35	42	18	345	21	9	397	67	8	165	65	289	36	32	58
OTU 53	0	0	0	0	7	0	0	0	0	0	0	0	0	0	0	0	1	0	0	5	0	0	0	0	0	12	0	0	0	0	0	0	0	0	0	0	0	0	0	0	0	0	0	0	0	0	0	0	0	0
OTU 54	18	178	45	19	53	512	102	57	75	6	33	403	70	35	51	21	237	57	158	48	65	73	58	113	173	7	177	122	171	100	150	194	37	121	94	82	46	12	67	14	195	32	353	7	724	33	34	203	111	60
OTU 55	0	0	0	0	0	0	0	0	0	0	0	0	0	0	0	0	0	0	0	0	0	0	0	0	0	0	0	0	0	0	0	0	0	0	0	0	0	0	0	0	0	0	16	0	0	0	0	2	0	0
OTU 56	44	142	0	13	114	13	154	1	1	0	88	1	1	1	12	2034	5	6	122	0	2	20	0	0	10	18	2	96	4	38	2	0	16	11	0	1560	18	30	0	0	205	12	25	846	2	0	2	1	40	48
OTU 57	8	47	218	77	24	3509	72	71	23	110	86	42	60	16	40	82	451	61	142	130	120	134	8	55	63	240	100	107	94	96	38	63	66	7	68	110	34	41	204	783	84	69	31	93	77	96	66	47	10	28
OTU 58	17	0	40	0	0	2	0	6	860	74	30	3	486	464	68	9	2	4	6	941	9	57	793	1	0	0	2	2	1	97	1755	33	75	36	17	3	9	23	33	319	213	26	28	2	34	16	75	990	0	1
OTU 59	0	0	0	0	14	60	370	0	6	150	7	0	3	1	13	2	30	7	3	32	0	32	7	49	103	43	2	4	22	34	22	0	15	0	7	7	4	0	11	23	46	3	22	0	0	15	63	0	1	4
OTU 60	236	32	35	69	17	71	132	132	43	60	27	4	110	26	94	7	11	2	44	15	124	1	26	51	5	4	969	13	43	193	41	420	48	58	87	39	36	24	2	15	87	73	30	12	28	11	259	252	83	88
OTU 61	58	9	24	11	6	7	35	515	39	60	41	116	55	18	99	6	7	15	217	110	11	22	41	4	82	12	4	43	91	12	53	13	94	2	46	123	167	5	14	17	26	134	16	6	12	15	35	142	34	18
OTU 62	0	66	330	0	1	26	92	0	0	0	0	20	5	0	0	1	0	431	0	3	7	0	8	8	0	118	10	3	0	7	4	18	33	0	23	0	5	2	56	6	22	5	11	0	6	0	73	1	26	0
OTU 63	1	0	1273	10	0	1	45	0	8	3	0	1	0	4	3	10	42	0	0	2	0	8	25	8	2	131	162	0	41	0	44	26	0	21	1	5	0	0	2	0	7	0	25	0	1	10	0	7	0	0
OTU 64	768	64	179	318	198	48	63	167	78	93	32	74	185	33	95	103	13	65	1055	37	112	17	46	31	76	33	105	28	79	127	129	467	337	6	161	661	886	24	112	5	62	154	41	643	24	20	49	743	219	454
OTU 65	0	0	0	0	0	0	1	0	1	0	0	0	0	1	0	0	0	0	0	0	0	0	0	0	0	0	0	0	0	0	0	0	0	0	0	0	12	0	0	0	0	0	0	0	0	1	0	0	0	0
OTU 66	2	92	5	15	15	8	66	4	57	70	88	47	19	26	86	20	14	15	17	43	2	25	70	97	1	13	125	3	83	924	103	261	342	0	21	8	42	43	19	3	193	7	20	3	6	8	22	37	35	8
OTU 67	12	1	2	5	1	1	66	21	4	24	17	53	24	4	89	4	5	22	21	0	96	2	5	35	5	5	26	0	0	80	23	68	8	1	25	14	12	16	0	46	14	40	0	21	2	17	41	34	1	636
OTU 68	36	1	4	11	5	10	0	42	0	21	0	6	0	0	32	54	0	20	191	0	0	332	3	0	0	0	19	0	1	3	0	66	0	7	1	90	7	4	12	0	0	0	0	105	91	170	15	11	85	43
OTU 69	0	37	239	6	13	4	98	54	29	0	0	73	4	14	5	10	48	35	152	14	9	35	14	38	250	9	12	0	5	5	30	21	24	32	6	83	51	0	14	42	29	333	49	4	37	28	33	26	16	22
OTU 70	2	22	0	3	9	4	2	29	137	0	0	0	6	58	52	0	33	0	31	0	0	0	138	4	8	0	0	19	23	7	283	33	8	0	8	15	5	3	276	125	25	0	36	0	1	0	0	6	5	5
OTU 71	0	4	42	0	3	4	75	2	2	0	563	6	2	1	6	1	2	10	0	3	28	4	2	3	8	0	2	18	7	0	17	2	11	34	29	0	1	203	0	1	0	0	72	1	31	1	14	4	2	3
OTU 72	39	10	51	41	3	90	25	499	2	10	109	15	30	2	24	1	4	1	58	7	1	47	4	34	47	31	7	3	8	42	6	22	38	918	3	34	26	35	129	16	113	79	22	14	25	25	2	17	27	111
OTU 73	92	23	204	0	21	3	34	158	16	0	3	9	0	6	0	1	7	9	83	48	0	13	9	2	15	9	123	5	20	14	40	1	3	5	0	78	109	0	0	12	8	70	10	2	18	5	49	16	22	16
OTU 74	5	22	34	0	9	12	2	167	3	9	1430	50	13	1	47	56	38	20	149	11	54	142	15	13	23	2	41	39	63	5	28	44	187	16	3	60	18	691	20	48	105	46	27	12	0	62	1	12	39	16
OTU 75	13	36	16	7	0	18	24	62	69	24	20	28	103	498	24	0	23	21	68	30	1	71	111	13	21	21	23	55	64	6	162	29	15	66	19	14	88	17	169	2	37	263	88	21	5	101	6	95	1	6
OTU 76	0	0	37	0	0	4	6	2	0	0	4	4	3	0	0	252	5	38	0	26	0	694	0	13	2	1	3	0	4	0	0	4	1	12	0	0	47	0	37	0	0	0	0	249	12	390	0	0	18	6
OTU 77	46	36	128	7	12	4	11	22	8	0	8	12	69	3	34	2	41	236	8	24	68	7	17	20	83	28	149	69	25	9	35	1	53	4	1	1	24	16	18	51	7	20	8	15	9	1	55	76	159	11
OTU 78	30	6	1	0	62	8	0	90	0	11	3	0	10	0	99	8	0	1	42	85	4	9	5	133	26	7	1	6	12	0	0	6	9	2	7	22	50	3	48	0	31	93	2	0	44	3	3	64	63	2
OTU 79	78	95	15	50	92	53	95	1166	18	1467	98	145	1394	8	346	37	34	62	76	504	86	127	12	102	2157	214	124	85	34	506	30	112	285	226	31	59	83	1919	91	60	160	95	138	75	131	149	107	108	262	49
OTU 80	17	60	5	7	0	13	112	0	15	6	149	35	47	292	68	58	54	76	105	14	15	41	2	71	30	26	32	1117	41	26	3	11	15	26	44	64	56	78	208	28	221	24	8	20	25	11	22	13	15	38
OTU 81	39	31	224	9	1	74	35	269	46	36	64	7	99	25	7	7	11	183	246	32	19	23	22	47	28	77	83	371	2	11	58	20	20	66	32	159	91	2	16	6	87	56	44	2	2	2	99	90	7	12
OTU 82	13	38	2	17	2	0	14	86	7	1	0	0	24	2	61	0	9	6	1	15	1	74	16	4	136	0	12	4	2	5	18	4	34	24	2	0	15	4	1	15	5	38	8	40	25	91	69	42	36	8
OTU 83	0	0	0	0	1	0	0	3	10	10	2	0	1	8	0	0	0	0	2	0	0	1	10	3	1	0	180	14	28	18	22	0	7	3	0	0	0	0	5	3	0	0	0	0	10	3	16	0	0	0
OTU 84	0	4	17	7	0	10	23	24	76	25	2	14	7	30	0	9	2	33	26	0	5	3	57	37	2	3	12	11	12	0	167	14	41	42	18	9	5	1	0	1	2	0	3	1	92	8	102	25	0	29
OTU 85	19	0	2	0	0	2	9	2	0	5	0	1	9	0	4	0	0	0	0	1	1	37	0	54	78	21	0	33	2	0	0	3	1	4	38	2	2	0	0	0	49	1	6	0	17	7	0	9	1	0
OTU 86	0	2	147	0	0	0	0	0	0	0	1	13	0	0	33	0	0	73	5	1	0	0	0	2	0	3	0	3	0	0	0	0	0	0	0	0	0	1	0	0	0	0	0	0	0	0	0	10	0	39
OTU 87	25	0	1	0	0	29	0	0	14	11	2	86	0	4	6	0	50	739	1	58	39	0	34	0	12	9	14	0	0	1	61	0	2	0	7	0	3	2	1	7	24	46	0	1	3	1	0	0	0	0
OTU 88	38	48	4	0	3	9	0	0	0	0	72	0	0	0	0	0	0	0	0	0	0	0	0	0	0	296	0	0	0	9	0	0	0	8	0	0	11	9	16	0	122	0	0	0	0	0	0	1	0	15
OTU 89	2	0	2	11	1	0	1	35	1	0	9	0	3	2	0	14	0	0	11	0	72	2	1	1	0	0	0	0	2	21	0	0	6	1	3	0	14	21	2	22	10	7	28	9	5	1	1	3	0	0
OTU 90	0	6	2	0	0	8	0	0	0	0	36	0	0	0	1	0	1	17	4	4	0	0	0	0	0	0	0	0	0	11	0	68	1	0	0	3	0	3	3	0	79	16	0	0	0	0	0	0	2	0
OTU 91	0	0	0	0	0	0	0	1	10	0	3	0	6	4	3	4	0	0	0	0	0	0	18	0	0	0	0	0	0	0	24	0	0	0	0	0	0	0	0	3	0	0	0	0	0	0	0	0	0	0
OTU 92	3	0	0	0	0	0	0	0	4	2	0	7	0	1	0	1	2	0	0	3	1	0	38	0	2	4	2	11	0	0	57	17	0	2	33	0	0	0	0	1	0	0	0	3	0	0	77	8	5	1
OTU 93	20	36	0	0	0	0	0	0	0	4	1	30	0	0	2	0	0	0	26	7	0	4	0	3	7	0	1	0	2	0	0	0	0	26	0	10	0	0	0	0	0	0	0	0	0	0	1	10	8	24
OTU 94	154	143	36	12	73	49	5	2	34	13	43	177	1	17	99	20	32	12	114	0	3	31	40	2	0	59	16	311	112	0	74	350	33	56	23	78	23	35	1	0	241	8	20	17	68	26	858	5	90	42
OTU 95	8	2	28	0	62	0	9	21	0	0	0	1	281	0	0	1	6	6	35	0	0	6	0	4	0	5	20	0	0	0	0	70	5	42	0	11	22	0	0	1	0	13	80	11	0	8	24	611	0	13
OTU 96	0	0	22	0	0	0	7	0	0	0	0	0	0	0	0	2	0	2	0	1	0	48	0	57	3	7	0	0	0	0	1	0	7	0	0	0	0	2	0	0	0	3	0	0	0	6	0	0	0	0
OTU 97	0	0	0	1	9	0	1	2	11	0	0	1	20	6	5	81	8	5	0	0	0	107	3	67	1	71	0	0	0	2	5	0	0	4	2	0	0	0	0	0	0	0	0	6	0	60	1	0	0	0
OTU 98	28	0	114	1	34	12	5	0	19	9	0	0	0	11	0	5	20	1	0	0	1	0	7	18	1	0	22	0	4	21	15	3	1	0	0	1	4	3	23	86	2	1	0	0	0	1	6	0	6	3
OTU 99	57	7	13	18	51	94	9	211	24	9	22	108	2	12	68	23	17	18	266	94	1	26	18	38	86	88	40	10	98	11	69	277	47	2518	7	101	97	52	30	2	100	243	835	22	86	2	2	19	50	17
OTU 100	4	3	67	42	3	2	5	6	103	16	0	49	10	57	31	0	174	3	2	20	4	22	123	78	10	17	5	1245	5	43	246	5	2	1	13	3	0	0	106	62	5	0	40	3	173	27	18	25	72	39
OTU 101	0	0	0	0	0	0	0	0	0	56	0	0	6	0	0	0	0	0	6	0	0	0	0	0	0	0	0	1	17	0	0	8	0	28	0	4	49	11	0	0	0	1	1	0	0	0	0	0	0	7
OTU 102	2	0	13	13	0	3	4	1	1	0	1	1	3	0	3	0	55	0	8	0	7	2	0	8	5	0	0	52	0	0	0	13	15	0	20	18	0	0	0	7	0	0	0	0	39	5	4	0	8	4
OTU 103	1	5	2	30	1	11	38	0	134	27	21	1	11	66	123	1	88	20	105	10	3	26	155	85	1	34	86	302	7	2	272	50	296	0	0	25	17	0	6	80	31	106	0	22	87	3827	11	17	37	1
OTU 104	169	43	35	58	122	33	34	57	41	34	92	43	117	16	93	10	106	45	82	25	36	67	50	373	202	64	201	13	27	66	104	604	160	79	8	58	44	59	20	16	149	318	56	2	59	29	43	87	246	138
OTU 105	1	3	3	3	0	6	0	11	1	10	81	0	0	1	0	24	8	11	0	0	0	14	1	0	0	0	1	0	0	0	0	0	6	1	44	0	16	67	17	0	189	2	70	1	10	9	11	33	8	10
OTU 106	8	6	139	5	0	18	0	10	7	0	0	161	1	10	3	576	0	7	1	3	3	0	12	0	0	0	0	5	0	0	12	12	4	1	2	0	5	0	0	0	13	26	0	399	0	1	0	2	0	0
OTU 107	3	2	29	3	17	2	0	0	0	2	0	0	0	0	16	34	0	0	18	0	1	72	0	0	0	0	23	12	0	9	0	0	0	5	0	17	6	2	0	10	1	0	3	9	5	21	27	2	14	0
OTU 108	16	6	5	0	0	0	0	2	13	2	17	1	21	4	3	4	15	35	87	0	13	2	14	25	7	25	11	68	14	0	27	16	1	1	0	51	0	0	13	14	74	0	0	2	5	0	0	47	1	20
OTU 109	3	0	0	0	0	0	0	0	0	0	0	0	0	0	0	0	0	0	0	0	0	0	0	0	0	0	0	0	0	0	0	0	0	0	0	0	0	0	0	0	0	0	0	0	0	0	0	0	0	0
OTU 110	380	13	19	50	5	22	24	73	31	13	1369	40	328	14	8	23	20	104	31	97	11	146	60	34	92	25	51	11	30	11	96	8	50	23	2	27	2	695	3	5	9	22	20	26	1	63	278	789	44	77
OTU 111	2	2	0	0	1	0	0	0	0	4	0	6	0	0	0	0	0	0	0	1	1	0	0	100	13	0	1	4	16	11	0	0	2	0	5	0	0	0	21	1	1	0	0	0	0	0	0	0	0	0
OTU 112	37	8	41	0	9	44	282	6	4	8	20	10	0	3	3	20	1	62	0	4	1	36	1	3	0	1	0	0	0	5	0	1	0	4	2	3	0	6	11	7	88	102	0	3	30	6	17	3	5	8
OTU 113	0	375	0	1	4	0	10	0	0	35	4	154	3	0	1	0	29	1	0	0	0	1	0	1	0	8	0	3	2	0	0	10	1	0	0	0	1	0	0	3	14	0	11	0	9	0	0	17	3	0
OTU 114	45	24	6	29	5	8	37	146	96	1475	52	121	64	51	174	31	101	13	99	58	20	75	114	288	532	17	355	2	6	1087	256	5	1167	27	1252	27	265	36	117	39	170	1079	35	9	6	54	8	17	117	18
OTU 115	20	2	61	134	3240	33	30	95	9	15	6	15	64	7	112	19	100	7	24	30	91	56	9	52	64	101	43	74	10	112	29	62	28	134	17	14	39	174	107	65	10	107	130	26	62	12	92	63	30	26
OTU 116	11	6	19	12	9	18	58	126	10	51	92	10	0	5	272	62	20	11	3	2	303	63	9	1	70	139	2	95	118	45	28	22	54	30	83	7	1	31	3	1	109	34	8	15	17	15	1	0	55	25
OTU 117	16	104	68	4	12	13	11	640	3	34	92	30	10	2	5	4	7	11	98	0	0	7	11	95	90	148	141	1	31	53	17	138	37	29	47	60	0	44	4	18	159	53	25	4	0	8	10	3	1	19
OTU 118	0	0	22	43	0	14	0	0	4	0	0	0	3	3	59	17	6	0	0	0	0	0	1	0	0	37	33	0	66	0	7	2	161	2	0	0	6	0	15	5	6	0	0	4	14	7	0	4	0	0
OTU 119	2	15	41	158	0	3	2	14	3	54	72	4	28	0	48	167	46	0	11	0	0	221	1	1208	3	100	24	161	24	3	6	39	53	5	15	2	23	2135	10	8	88	0	35	131	55	138	14	72	17	56
OTU 120	0	12	28	1	0	3	8	3	6	0	25	0	10	3	1	0	50	0	11	0	0	9	8	0	1	27	0	72	9	0	1	0	0	0	15	6	0	0	32	1	10	34	72	0	24	0	1	6	0	86
OTU 121	56	10	24	8	1	3	1	4	1	34	19	14	6	1	19	18	532	84	11	4	0	0	8	0	26	80	0	9	46	14	4	26	37	26	12	0	10	0	23	60	0	92	68	2	1	0	13	3	3	0
OTU 122	49	22	49	46	24	23	2	120	0	15	1	45	11	0	190	48	16	4	126	22	8	153	0	2	0	114	16	21	0	0	2	4	31	57	31	40	58	0	98	2	8	91	59	2	9	60	66	0	2	12
OTU 123	220	111	283	56	56	150	91	224	4733	552	86	22	316	2357	384	66	61	84	267	766	17	110	138	91	522	260	58	92	572	521	241	45	207	158	61	249	75	103	442	108	109	123	162	50	1372	57	289	98	172	279
OTU 124	0	0	3	0	1	0	0	39	6	0	14	0	0	1	5	4	3	9	35	1	0	0	4	20	10	1	3	27	9	0	9	33	2	3	0	26	0	0	0	0	0	5	1	3	1	0	0	0	19	2
OTU 125	183	22	143	188	100	236	75	65	289	153	38	166	106	130	161	515	37	141	121	47	231	1073	43	129	106	54	11	339	12	56	120	181	78	140	1458	53	41	40	274	308	74	215	201	259	61	500	443	68	86	120
OTU 126	0	0	0	3	0	0	0	0	1	0	10	0	2	0	0	0	0	0	1	4	0	0	0	0	3	0	0	0	3	3	0	0	0	0	1	3	1	16	0	19	50	0	4	9	27	0	0	1	47	0
OTU 127	64	33	12	0	16	36	1	2	0	32	11	1	16	0	4	1	3	89	5	1	40	21	2	43	14	5	1	46	173	47	3	12	21	2	1	8	2	0	97	3	7	61	8	7	7	13	389	18	28	13
OTU 128	747	76	164	87	149	79	148	252	41	123	16	31	75	17	113	80	48	110	442	151	207	101	32	209	167	47	35	63	235	7	75	133	179	96	53	230	63	12	93	41	106	255	50	34	22	59	63	134	42	275
OTU 129	0	27	0	0	0	48	15	0	0	3	0	9	2	0	1	0	0	0	3	19	2	1	2	0	3	15	5	0	0	0	0	60	0	2	15	11	0	0	0	26	0	1	0	0	0	7	7	0	66	0
OTU 130	0	0	14	1	1	67	28	0	37	1	38	2	36	20	43	68	15	1	30	2	15	58	24	0	28	3	2	2	2	0	48	45	36	0	0	18	35	15	5	1	10	15	0	58	11	0	0	47	0	3476
OTU 131	37	10	44	55	23	39	4	244	21	26	30	12	0	9	134	5	9	89	2	12	56	1	15	276	17	37	829	32	68	35	17	64	1334	6	1	1	0	2	35	59	1	7	4	2	35	0	12	0	17	15
OTU 132	28	2	27	0	1	0	3	0	19	0	4	109	1	8	11	2	18	7	0	2	7	4	35	88	0	4	2	45	93	0	82	15	4	0	0	0	0	1	29	2	9	0	9	0	0	0	1	19	46	13
OTU 133	0	4	11	0	0	0	0	0	0	0	1	0	3	0	6	1	0	2	0	0	0	0	5	7	0	1	19	0	6	0	8	2	3	0	0	0	1	0	0	10	5	0	0	0	1	0	0	8	0	0
OTU 134	28	1	7	1	16	1	102	7	13	20	121	18	18	8	137	3	73	18	84	0	40	77	20	3	15	53	0	58	3	1	16	14	13	87	150	32	24	42	13	13	183	4	94	77	5	21	6	5	11	4
OTU 135	108	15	11	2	39	103	15	8	22	11	71	1	68	12	325	0	3	0	99	3117	6	37	18	33	22	24	0	4	11	0	46	5	63	9	11	97	2	31	30	1	114	7	72	4	19	8	0	126	91	19
OTU 136	0	56	6	0	18	0	0	0	46	25	0	1	1	12	8	71	37	44	0	7	0	17	24	5	2	34	63	189	10	10	57	5	43	3	4	0	13	1	15	7	0	15	39	0	12	1	64	4	2	0
OTU 137	27	2	0	10	48	0	0	84	0	0	6	0	35	0	0	0	16	21	0	3	38	4	3576	0	5	0	0	0	1	0	1	917	0	5	0	0	0	0	0	0	0	37	15	0	29	0	1	7	334	18
OTU 138	0	0	0	4	3	0	7	2	0	0	3	0	1	0	4	1	8	14	17	1	20	3	0	16	1	0	94	0	77	0	0	4	7	9	9	9	0	1	15	0	10	2	64	0	0	0	8	27	2	21
OTU 139	1	754	76	60	7	99	100	16	94	17	11	1931	64	40	47	147	88	59	18	53	15	28	81	32	15	865	226	92	12	72	161	1	37	14	35	5	35	13	173	22	100	21	1	123	53	12	85	41	112	8
OTU 140	89	71	25	45	110	274	276	19	36	337	141	194	26	3606	31	48	194	144	133	23	203	139	458	1051	44	65	48	64	395	244	90	59	34	95	459	56	41	91	20	120	250	11	195	2752	476	16	63	114	2611	113
OTU 141	0	0	0	0	0	0	0	0	0	0	0	0	0	0	0	0	0	0	0	0	0	0	0	0	0	0	0	40	0	0	0	0	0	0	0	0	0	0	0	0	0	0	0	0	61	0	0	0	0	0
OTU 142	0	0	0	0	0	4	0	0	0	0	0	0	0	0	0	0	0	0	0	0	2	2	0	0	1	0	0	0	0	0	0	5	0	0	0	0	0	0	0	0	0	0	2	0	0	0	0	0	0	5
OTU 143	8	62	8	0	2	330	0	3	0	1	0	0	0	0	24	0	0	1	4	0	0	0	0	0	0	0	0	1	0	0	0	58	0	0	0	5	1	0	8	0	7	0	28	0	8	0	2	1	0	1
OTU 144	0	0	0	1	3	102	76	0	0	0	10	0	32	0	0	0	0	0	46	0	5	7	0	0	12	0	28	76	53	3	2	0	0	1	0	33	2	0	5	30	7	13	0	1	14	5	0	84	0	2
OTU 145	8	15	30	2074	35	32	50	72	16	19	58	10	5	4	210	76	33	10	21	36	7	24	15	2	239	153	80	480	19	0	27	48	82	38	13	20	12	48	2	21	52	267	41	1	4	7	3	8	58	19
OTU 146	17	2	58	0	1	3	162	11	159	1	82	20	348	76	14	3	4	11	5	40	39	72	19	0	5	112	2233	3	0	18	37	4	45	38	3	0	13	20	4	21	91	21	142	0	2	38	34	3	118	28
OTU 147	18	56	0	0	0	9	0	0	0	42	0	97	15	0	6	11	1	0	51	1	6	44	0	0	6	13	11	37	0	1	0	38	2	5	2	19	25	0	24	16	1	29	6	0	7	19	19	0	2	47
OTU 148	30	9	56	13	1	51	138	5	53	0	18	28	4	20	820	2	130	61	20	3	124	23	37	38	18	13	298	178	3	23	64	42	209	102	7	13	71	15	3	230	14	5	85	3	98	7	97	69	2	0
OTU 149	77	0	38	1	3	0	32	2	14	2	13	2	11	7	0	13	1801	1	29	2	18	0	610	120	6	3	72	2	4	8	17	3	6	80	20	2	26	0	8	7	23	43	208	4	97	1	0	120	75	2
OTU 150	29	1	0	0	0	2	18	25	0	163	2	0	0	0	8	0	10	37	9	87	0	11	0	0	737	40	1	1	0	0	0	3	4	0	0	0	0	0	9	53	33	13	37	0	0	20	0	4	5	0
OTU 151	4	0	3	15	0	10	42	1	19	65	1	1	4	7	57	63	0	7	37	9	27	148	4	7	6	20	0	6	29	12	6	10	0	0	15	5	40	0	9	22	22	28	1	1	75	76	0	0	2	1
OTU 152	0	13	0	39	0	1	3	0	0	17	12	29	56	0	15	23	4	32	31	2	9	31	8	1	4	29	37	31	55	3	5	14	29	5	4	17	14	2	12	75	13	49	28	0	52	13	32	16	2	14
OTU 153	0	0	1	0	4	1	0	0	0	0	0	0	0	0	1	0	0	0	0	0	0	0	0	0	0	0	0	2	5	5	0	26	50	0	0	0	0	0	0	0	0	0	16	2	2	0	24	0	0	9
OTU 154	0	4	15	0	0	0	7	2	0	0	35	0	0	0	16	25	0	0	0	0	0	1	0	0	0	0	0	0	0	0	0	0	0	3	3	0	5	0	0	0	51	0	0	0	0	12	0	0	0	0
OTU 155	5	129	62	0	15	5	78	75	1	0	0	192	4	1	2	2	0	2	1	2	0	2	6	0	18	31	0	57	0	4	4	14	20	2	0	0	30	3	0	16	16	6	1	13	30	0	1	24	6	1
OTU 156	86	3667	70	6	31	66	17	64	8	45	43	2	16	3	47	90	24	196	18	5	104	42	194	65	41	77	7	119	84	3	28	66	24	2	16	32	55	7	71	30	123	3	11	5	1	12	74	191	36	64
OTU 157	0	19	0	0	0	24	0	1	2	2	0	1	1	0	4	2	13	21	0	0	0	2	0	6	0	107	2	1	1	0	1	3	20	1	0	2	5	0	0	21	20	4	28	0	0	3	0	0	3	0
OTU 158	0	0	0	0	0	0	0	0	4	0	0	0	0	2	0	0	0	0	0	3	0	0	0	0	0	0	0	0	19	0	0	7	0	0	0	1	0	0	0	0	1	0	0	0	0	0	37	0	0	0
OTU 159	8	8	2	12	1	0	10	1	71	1	0	0	109	29	43	37	20	4	22	13	14	39	97	0	4	13	4	0	26	3	138	96	22	24	2	2	7	0	31	21	16	10	8	38	25	27	15	268	1	13
OTU 160	112	116	74	691	111	63	33	29	8	171	14	3	6	0	258	60	44	48	266	69	82	199	8	62	92	510	72	3	105	80	19	26	71	38	81	184	59	2	15	26	41	21	130	35	45	519	150	69	56	49
OTU 161	33	40	1550	67	2	22	25	25	71	23	1	35	33	44	245	0	18	2	92	1	6	0	42	189	8	67	0	40	105	0	47	63	2	0	12	73	18	0	90	28	50	4	111	3	59	0	36	17	118	0
OTU 162	36	18	8	17	2	80	100	34	42	0	9	72	1	21	27	0	9	4	40	33	27	4	36	39	5	70	18	2	712	2	101	112	1	46	28	12	4	0	19	2	0	146	105	7	1	1	65	20	41	23
OTU 163	0	0	0	0	0	0	0	0	0	0	33	0	1	0	0	0	0	0	0	0	0	0	4	0	0	0	0	0	0	0	7	0	0	0	0	0	4	12	0	0	31	0	44	0	0	0	0	0	0	4
OTU 164	1	0	0	0	0	3	1	0	0	0	0	0	2	0	0	0	0	0	0	0	0	0	0	0	0	0	0	0	0	0	0	0	0	0	0	0	0	8	0	6	0	0	0	0	9	0	9	0	0	0
OTU 165	0	6	4	0	0	41	8	5	1	0	29	26	0	0	11	22	0	6	28	13	6	32	3	26	3	0	7	49	31	1	1	87	12	2	11	5	10	17	48	1	40	163	5	1	0	12	7	2	39	0
OTU 166	0	0	0	0	0	0	0	3	0	1	0	0	0	0	0	0	0	0	0	0	0	0	0	0	0	0	0	0	0	0	0	0	0	0	0	0	0	0	0	0	0	0	0	0	56	0	0	0	0	0
OTU 167	31	50	24	3	22	33	0	223	9	1	8	10	0	9	44	0	0	0	0	37	17	0	6	5	0	66	3	9	9	0	19	3	19	0	1	0	7	0	85	5	11	9	0	12	10	4	4	0	96	10
OTU 168	15	32	16	15	22	12	65	13	0	0	0	102	14	0	0	16	82	104	12	6	12	17	2	130	3	75	21	4	14	49	6	1	17	1	24	2	1	0	24	11	11	19	23	1	55	0	50	0	146	35
OTU 169	0	0	0	3	6	4	0	0	0	0	0	0	0	0	0	17	0	0	101	0	0	14	0	0	0	0	0	0	10	0	0	0	0	0	0	121	0	1	0	0	10	0	0	4	9	1	0	0	25	0
OTU 170	0	0	0	0	0	0	0	0	0	0	0	0	1	0	0	0	0	2	0	0	1	0	0	0	0	0	0	0	0	2	0	2	0	0	0	7	0	0	0	0	2	0	0	0	0	0	0	0	0	0
OTU 171	0	0	0	20	2	23	1	1	1	74	1	38	11	2	1	3	0	23	158	109	35	3	6	119	73	58	28	34	2	0	21	18	16	20	12	79	23	0	79	37	1	51	30	0	840	10	74	14	37	7
OTU 172	0	4	9	0	0	38	0	0	7	2	3	11	0	4	57	0	15	6	0	0	0	65	8	0	1	0	0	0	0	63	19	0	14	9	0	0	0	1	0	0	0	0	0	0	0	36	0	1	0	0
OTU 173	14	0	5	0	3	0	8	3	2	38	15	17	0	0	3	0	11	43	72	1	0	0	0	0	3	12	0	9	0	0	0	16	10	16	8	14	4	5	1	4	0	3	13	2	0	0	1	16	0	0
OTU 174	78	9	18	1	29	13	15	0	4	351	2	0	1	3	5	51	0	5	2	2	586	91	3	1	17	31	32	123	2	246	18	163	1	4	303	4	0	11	0	0	1	5	0	20	2	30	4	0	390	33
OTU 175	18	1	12	7	0	0	56	33	0	0	0	39	6	0	4	0	121	4	0	0	65	0	0	29	5	0	2	5	48	0	0	4	0	0	5	0	9	4	22	0	0	0	0	24	0	0	30	29	4	1
OTU 176	150	28	16	34	12	66	21	126	18	8	6	49	47	14	71	101	20	14	163	71	64	51	22	119	132	24	56	14	1	2	18	1	59	1	5	42	4	2	158	0	18	134	143	4	21	30	42	2	2	79
OTU 177	68	73	1	10	4	47	103	17	29	86	66	71	18	16	56	1	24	42	120	6	195	3	59	10	97	71	34	71	107	116	93	66	23	0	52	37	119	36	4	0	132	60	42	0	33	0	55	8	14	1
OTU 178	1	0	0	12	2	1	126	206	29	57	0	0	5	12	26	7	9	18	6	3	21	33	18	12	15	15	41	11	95	35	32	1	0	0	68	8	41	1	22	0	0	18	19	83	0	26	22	3	0	1
OTU 179	2101	1	62	7	457	5	21	0	2	10	0	2	6	1	22	38	0	0	88	19	50	61	0	66	5	0	19	0	3	34	0	46	3	52	11	10	0	0	3	15	3	85	51	28	38	31	8	25	1	768
OTU 180	55	173	6	37	31	111	67	39	16	150	147	167	28	531	52	89	117	23	31	43	89	120	37	97	140	83	134	247	143	197	84	45	37	7	188	29	191	63	14	40	201	78	133	81	251	53	397	11	65	53
OTU 181	16	2	1	62	3	80	15	36	108	0	544	0	11	48	72	14	7	2	6	28	80	7	69	16	6	0	5	0	20	61	150	58	2	4	90	4	6	289	4	1	957	0	7	10	3	3	17	111	12	0
OTU 182	0	0	0	0	0	0	0	0	0	46	0	0	0	0	0	0	0	0	0	0	0	0	0	0	0	9	0	0	4	0	0	0	0	0	0	0	0	0	0	0	5	0	0	0	0	0	0	13	0	0
OTU 183	0	48	67	0	3	7	22	15	0	3	32	70	2	0	0	0	14	49	20	0	66	7	0	77	9	5	6	15	1	1928	1	56	5	0	34	17	9	32	4	11	59	8	14	10	3	0	2	6	0	0
OTU 184	39	1	3	1	11	7	138	32	0	62	0	0	53	0	0	8	0	20	50	28	50	11	0	719	1	65	0	32	12	24	0	8	19	1	28	0	11	6	13	8	2	0	1	11	76	3	5	17	47	0
OTU 185	2	5	14	18	6	22	41	106	3	10	69	10	21	2	60	6	1	8	28	75	15	17	3	21	90	30	42	31	17	49	10	185	95	5	36	8	41	50	8	23	30	207	25	0	59	0	143	44	27	3
OTU 186	1	2	126	0	20	0	69	0	26	32	27	0	0	16	13	38	2	12	1	0	25	25	16	0	3	2	0	0	0	0	21	57	0	0	1	0	30	58	13	0	21	0	0	29	0	0	22	0	0	3
OTU 187	33	47	39	26	29	13	66	335	131	7	32	111	24	66	271	90	64	24	55	6	8	87	122	170	40	46	15	229	80	6	198	219	137	1273	19	24	169	10	117	3	65	22	22	13	231	38	71	93	48	12
OTU 188	58	80	8	14	15	473	47	22	23	8	0	120	13	10	109	29	29	24	34	3	5	32	3	0	9	89	11	44	6	13	40	21	19	17	3	17	100	6	33	39	6	51	44	33	74	15	45	26	5	72
OTU 189	47	11	52	60	17	94	24	46	0	9	69	0	37	0	68	32	9	51	141	197	43	12	4	9	27	98	31	31	31	5	7	13	63	11	6	42	708	31	41	64	81	85	65	13	30	1	246	115	52	8
OTU 190	0	1	60	0	44	0	9	0	0	0	0	4	0	0	0	0	6	0	0	0	0	0	0	1	15	0	0	0	0	9	0	0	0	0	4	0	0	5	0	7	12	0	0	0	0	0	0	0	0	0
OTU 191	44	75	4	76	2	12	109	4	65	41	17	157	43	32	395	76	3	3221	16	33	10	112	82	57	76	120	6	33	38	10	145	17	6	20	23	19	34	29	105	7	36	32	121	22	110	53	159	13	219	3
OTU 192	78	13	461	37	0	20	7	27	21	7	8	17	24	14	9	35	52	341	347	17	56	100	18	1	103	740	63	221	200	35	34	56	56	254	32	119	49	3	228	3117	4	31	314	13	39	52	9	61	5	65
OTU 193	27	5	127	28	22	111	47	72	0	10	0	152	109	0	17	13	20	1	220	5	11	12	0	1	30	13	0	10	195	24	0	60	8	0	19	128	22	0	615	1	0	237	77	0	9	8	167	154	12	33
OTU 194	544	1	1	4	21	1	7	21	33	25	69	21	1	16	0	12	6	0	1	1	0	10	16	6	4	0	0	51	14	3	50	236	1	25	6	0	0	760	39	2	66	63	0	2	3	7	0	0	326	145
OTU 195	48	16	19	2	25	2	4	2	0	1	27	3	33	0	70	42	23	95	18	3	10	75	0	70	28	56	118	2	19	0	0	0	34	20	11	16	19	4	232	9	17	26	8	27	31	67	2	23	61	25
OTU 196	24	10	48	70	14	4	0	1	169	6	2	27	0	74	20	42	331	13	0	1	0	20	184	8	0	16	17	48	92	10	436	38	3	152	853	2	51	4	137	121	15	3	92	0	627	1	16	15	5	1
OTU 197	50	437	17	29	1609	291	132	144	12	15	2	832	19	5	63	11	78	10	116	41	16	50	6	51	137	127	7	201	22	11	10	209	90	31	26	47	72	8	43	704	64	76	95	36	31	13	436	165	94	10
OTU 198	69	6	10	0	8	0	0	49	0	2	6	2	0	0	97	562	0	0	14	0	0	729	0	0	0	0	37	5	5	0	0	0	45	0	4	0	1	0	2	1	0	0	0	166	7	560	15	0	5	51
OTU 199	76	0	3	2	0	83	47	0	2	18	1	0	0	1	0	2	3	3	1	4	0	0	0	21	2	2	1	3	35	0	0	0	18	54	10	1270	73	0	34	0	27	18	48	0	0	0	101	5	24	0
OTU 200	16	7	62	52	5	4	9	4	0	19	0	0	9	0	20	6	9	16	2	1	0	2	10	14	3	7	0	25	3	6	27	47	0	22	0	3	11	1	1	1	0	31	25	0	35	1	35	40	86	6
