	Host 1	Host 2	Host 3	Host 4	Host 5	Host 6	Host 7	Host 8	Host 9	Host 10	Host 11	Host 12	Host 13	Host 14	Host 15	Host 16	Host 17	Host 18	Host 19	Host 20	Host 21	Host 22	Host 23	Host 24	Host 25	Host 26	Host 27	Host 28	Host 29	Host 30	Host 31	Host 32	Host 33	Host 34	Host 35	Host 36	Host 37	Host 38	Host 39	Host 40	Host 41	Host 42	Host 43	Host 44	Host 45	Host 46	Host 47	Host 48	Host 49	Host 50	
OTU 1	8	65	0	0	19	2	0	36	12	112	60	4	14	52	8	6	41	37	314	18	48	153	133	50	150	2	45	37	40	29	206	42	177	20	24	166	85	46	15	9	31	90	88	28	11	2	26	16	0	48
OTU 2	2	8	0	3	0	0	0	0	16	0	0	22	8	14	0	7	27	11	6	15	20	0	30	2	0	87	13	18	0	59	47	18	0	0	2	0	17	1	51	0	23	3	20	0	51	0	3	3	33	0
OTU 3	82	0	136	2132	0	24	145	54	0	0	2	58	12	0	5	0	0	176	70	6	1	19	0	28	3	90	19	0	9	0	0	14	0	1	0	24	52	0	15	32	0	0	0	1	3	0	0	5	0	30
OTU 4	0	0	0	0	0	0	1	0	0	0	40	6	0	0	0	0	0	0	0	2	0	0	0	0	0	0	0	0	0	0	0	0	0	0	0	0	0	20	0	0	0	0	0	0	0	0	0	0	0	0
OTU 5	90	63	269	465	1061	98	1250	200	348	453	112	138	275	265	534	892	1170	198	142	594	1	98	262	355	67	746	121	257	384	486	80	335	389	87	586	703	579	254	138	280	63	133	371	306	977	204	195	697	30	53
OTU 6	83	0	0	43	25	13	103	46	3	32	16	4	13	12	16	32	36	1	5	23	7	8	23	28	2	12	0	2	2	4	23	56	65	37	14	19	36	0	27	67	132	36	6	2	79	25	524	37	0	55
OTU 7	51	88	93	57	87	50	56	8	76	9	132	73	363	39	111	66	26	18	56	95	61	38	11	30	86	49	93	79	101	111	41	48	22	12	85	8	42	20	29	6	211	397	21	47	40	34	102	395	116	168
OTU 8	14	82	228	256	51	125	93	105	69	33	34	11	108	13	255	21	98	119	219	28	40	124	49	57	32	265	42	86	9	83	111	63	57	62	177	194	109	5	24	65	12	30	48	62	189	36	16	48	20	52
OTU 9	2	32	46	18	3	6	38	13	2	4	1	11	10	1	2	0	4	46	0	0	18	0	3	18	0	83	0	3	0	0	2	1	7	69	0	15	1	8	116	50	25	17	7	0	27	1	20	2	6	1
OTU 10	17	3	0	1	10	0	1	0	16	51	2	13	0	0	7	0	0	25	0	0	132	3	7	0	6	14	44	15	6	32	0	2	101	0	5	12	15	4	165	0	0	7	0	0	32	14	20	17	3	0
OTU 11	25	72	3	15	11	9	17	6	2	16	10	90	0	41	137	47	107	35	73	0	27	33	32	3	23	14	1	13	23	10	90	1	31	8	9	1	11	52	6	769	86	9	48	15	37	90	42	39	109	0
OTU 12	156	8	6	0	1	10	133	6	19	94	10	69	0	2	136	17	51	0	2	8	196	2	1	31	12	15	21	51	18	6	52	117	180	4	42	7	26	33	12	25	31	115	13	52	72	4	27	36	72	66
OTU 13	0	0	0	0	0	0	0	0	0	29	0	0	0	0	0	0	0	0	2	0	0	8	0	0	0	90	0	0	0	0	0	2	39	0	0	10	0	0	0	0	7	0	0	2	0	0	0	0	17	1
OTU 14	1	1	7	3	1	26	16	52	0	2	20	133	0	0	7	89	0	144	18	1	0	0	0	0	0	6	0	4	0	0	18	0	6	0	0	5	0	6	0	5	10	12	7	0	0	23	105	10	7	1
OTU 15	0	51	0	4	0	7	0	0	0	0	0	0	0	4	0	0	0	1	0	2	0	0	0	3	0	0	5	0	4	0	0	6	0	0	0	0	6	0	0	0	0	0	1	0	0	0	17	0	0	0
OTU 16	0	0	0	0	0	0	0	0	0	0	0	0	0	0	0	4	0	0	0	0	1	0	0	0	0	0	0	0	0	0	0	61	0	0	0	0	0	0	0	0	0	0	0	0	0	0	0	0	0	0
OTU 17	10	0	15	18	1	10	181	7	0	91	17	0	0	0	4	41	13	34	9	44	0	0	18	14	1	64	3	5	5	0	66	55	195	0	0	6	17	4	86	2	14	4	38	8	2	10	25	6	47	1
OTU 18	7	25	42	42	8	15	60	2	0	0	8	1	36	67	186	16	29	35	160	42	43	93	173	18	55	32	43	9	69	6	319	25	0	101	36	65	73	1	26	19	23	29	158	13	53	11	124	37	83	56
OTU 19	0	0	0	0	0	0	0	0	0	0	0	0	0	0	0	0	0	0	0	0	0	0	0	0	0	0	0	0	0	0	0	0	0	0	0	0	0	0	0	0	0	0	0	0	0	0	0	0	0	0
OTU 20	33	24	49	61	46	11	78	14	20	67	42	48	55	5	50	40	0	32	1	51	59	0	29	13	239	60	3	5	59	54	51	0	112	38	35	27	30	9	34	11	24	342	36	10	11	22	22	77	3	12
OTU 21	31	17	36	24	51	31	17	213	4	1	37	6	126	0	5	8	5	110	37	20	23	11	20	31	31	117	1	21	0	19	15	1	1	12	30	38	27	12	17	6	87	33	5	44	46	6	43	78	6	27
OTU 22	22	107	23	36	5	52	28	55	49	27	498	22	66	2	34	5	4	74	0	7	30	8	3	19	2	2	11	7	1579	58	19	39	47	20	1	1	31	140	2	0	649	0	16	0	3	1	54	21	13	5
OTU 23	47	0	3	1	9	0	213	0	11	23	59	6	39	0	89	1	77	29	27	0	7	12	0	12	116	6	38	11	0	0	3	168	34	22	36	0	25	19	1	3	1	64	1	37	3	12	152	178	0	4
OTU 24	35	0	21	0	0	24	0	0	37	0	16	94	31	0	0	3	1	3	33	8	861	19	0	0	7	4	11	7	0	20	6	7	0	1	0	7	16	6	24	64	0	167	1	1	1	4	0	10	0	9
OTU 25	0	0	0	0	0	0	0	0	0	13	0	0	0	0	0	0	0	1	0	0	0	0	0	0	0	11	0	0	0	0	0	0	27	0	0	0	0	0	0	0	0	0	0	0	0	0	0	0	0	0
OTU 26	2	0	1	11	0	0	0	0	0	0	0	0	19	0	0	0	0	0	0	0	0	0	0	0	0	1	0	28	30	0	4	9	0	0	0	0	0	5	1	38	0	6	0	0	1	10	35	30	0	0
OTU 27	0	0	0	0	0	0	0	0	217	3	1	0	0	0	0	13	0	0	16	0	0	3	0	0	0	0	0	4	35	0	0	0	2	0	0	28	0	0	2	0	18	0	0	0	0	7	1	0	0	0
OTU 28	28	10	39	10	17	28	0	41	0	16	9	13	0	52	1	15	30	11	85	74	87	29	59	38	43	114	82	49	182	15	122	78	26	29	54	103	90	13	269	29	158	8	85	24	37	16	95	20	278	33
OTU 29	40	37	42	25	5	219	18	59	120	12	73	40	3	68	44	69	10	174	4	124	116	4	13	8	40	0	51	45	11	299	56	21	16	90	203	5	49	2	34	7	34	156	48	32	9	50	116	4	3	69
OTU 30	0	0	0	0	0	0	0	0	0	0	0	0	0	0	0	0	0	0	0	0	0	0	0	0	0	0	0	0	0	0	0	0	0	0	0	0	0	0	0	0	0	0	0	0	0	0	0	0	0	1
OTU 31	67	25	18	21	0	5	1	27	33	0	31	0	0	0	10	0	0	10	2	1	135	2	23	0	98	1	0	69	6	37	83	156	1	0	1	0	1	1	0	0	21	185	42	1	0	11	2	4	51	42
OTU 32	8	4	9	58	5	152	135	66	20	56	17	40	0	36	40	0	1503	18	85	74	130	29	15	66	88	50	54	50	339	49	32	145	103	28	71	29	155	1	1515	35	30	232	18	31	18	30	48	9	226	173
OTU 33	174	4	0	24	6	0	1	0	0	0	1	0	0	0	1	0	0	0	0	0	0	0	4	0	3	0	5	0	0	0	5	3	0	0	2	0	0	0	10	0	0	0	0	5	0	0	0	73	10	135
OTU 34	4	15	1	418	606	38	47	156	11	10	18	31	7	30	28	4	12	3	108	0	73	35	33	1510	3	233	2	8	25	15	59	12	30	24	5	81	2513	11	142	102	22	7	42	4	58	1	23	42	53	1
OTU 35	51	341	11	0	9	89	19	80	91	3	13	1038	10	16	6	22	19	5	43	25	2960	29	3	0	5	11	27	160	24	309	2	64	9	838	86	6	2	0	57	74	8	3	6	13	2	14	48	9	2	13
OTU 36	0	44	34	630	2	80	12	197	0	3668	0	4	0	6	17	16	24	0	61	3	177	20	18	45	3	104	12	27	16	6	59	24	88	1	18	32	87	1	17	0	7	13	25	38	62	10	83	11	1	4
OTU 37	17	0	0	0	15	0	0	1	1	0	0	6	0	0	0	0	0	1	0	0	23	0	0	0	0	35	6	1	19	1	0	0	0	0	0	1	0	16	0	1	72	1	0	15	1	0	0	1	24	0
OTU 38	73	0	53	18	6	34	127	20	14	19	13	49	1	22	10	1037	15	12	0	2	2	3	13	5	42	9	5	5	505	20	10	122	36	0	1	3	0	0	423	16	112	34	1	925	24	6	1	4	65	32
OTU 39	1	0	0	5	3	1	0	0	13	7	20	1	5	6	0	3	0	0	0	4	0	1	19	0	47	0	0	109	0	29	79	0	11	0	0	1	1	4	2	13	10	41	23	25	1	28	1	0	1	0
OTU 40	1	16	3	0	36	56	22	7	2	9	1043	120	4	6	25	122	120	11	3	39	40	8	37	16	112	78	73	128	3	3	38	31	17	13	6	5	14	567	16	92	215	25	9	26	0	228	0	21	27	15
OTU 41	2	78	137	1	15	18	71	1	3	14	3	28	42	2	138	48	0	12	70	4	19	34	0	0	2	98	0	13	37	4	0	4	20	4	1	0	9	1	32	22	0	11	1	1	7	5	27	18	82	2
OTU 42	0	0	4	4	3	11	0	0	2	0	0	0	1	18	53	32	0	0	0	0	18	0	88	28	0	0	0	15	0	0	192	6	0	0	0	1	55	0	12	0	1	0	92	2	0	53	2	0	7	5
OTU 43	0	0	0	0	0	0	0	0	0	0	0	0	2858	0	0	0	0	0	0	0	0	0	0	0	0	0	0	5	0	0	0	2	0	0	0	0	0	0	0	0	0	0	0	0	0	0	0	0	0	0
OTU 44	0	0	1	1	0	8	46	0	0	8	0	0	0	0	52	0	0	4	0	4	0	0	0	8	0	0	0	0	0	1	3	0	34	0	1	0	5	0	1	0	0	8	0	1	4	0	0	0	0	3
OTU 45	142	51	59	59	51	2	8	53	1	6	12	56	26	35	0	0	0	7	24	11	4	11	34	18	7	8	184	1	26	1	95	126	15	1	46	2	16	11	30	13	50	125	53	13	50	535	75	3	214	233
OTU 46	59	117	13	25	13	159	0	3	6	73	43	39	66	7	39	12	6	143	47	196	31	35	17	29	18	54	86	6	38	15	2	44	160	15	21	6	59	0	2	7	3	6	0	14	62	8	170	168	25	3
OTU 47	18	17	0	5	4	10	0	0	0	0	0	5	0	4	83	0	1	2	0	0	0	0	0	0	1	1	2	0	40	0	2	0	0	0	0	1	0	0	0	0	9	0	8	0	3	0	21	22	1	1
OTU 48	8	35	101	23	63	2	61	35	25	11	111	15	14	31	20	61	2	110	95	11	45	53	22	8	83	16	48	31	9	25	46	20	24	9	1536	1309	5	15	13	1	65	61	16	1011	7	34	45	21	131	34
OTU 49	1	0	1	0	0	0	7	26	1	2	0	15	25	0	0	4	1	78	16	48	0	8	9	22	33	1	49	54	0	0	0	7	8	0	1	1	23	3	16	99	67	0	0	0	3	7	1	22	3	50
OTU 50	73	9	35	2	22	19	1165	26	22	86	42	12	18	92	116	142	54	1	11	235	31	5	182	39	42	73	81	35	117	45	239	84	182	151	155	4	51	5	98	193	118	46	107	138	156	139	65	195	39	69
OTU 51	6	205	60	73	12	9	197	51	47	101	42	217	5	1	0	4	2	11	49	90	6	42	14	96	49	0	95	16	2	68	31	30	181	292	25	0	248	6	77	1	11	0	18	2	3	10	3	0	24	0
OTU 52	19	7	74	35	3	24	123	240	2	52	99	240	17	31	95	60	95	102	68	209	19	27	80	4	390	170	175	64	245	9	80	21	100	15	1	32	56	14	356	24	2	476	53	8	180	142	365	28	59	39
OTU 53	0	0	0	0	0	0	0	0	0	0	0	0	0	0	0	0	0	0	0	7	0	0	0	0	0	8	0	0	0	4	0	0	0	4	0	0	0	0	0	0	0	0	0	0	0	0	0	0	0	0
OTU 54	6	247	32	49	67	377	60	36	49	12	27	312	48	44	25	9	278	47	169	65	52	36	59	18	141	8	227	152	177	71	152	258	32	72	84	92	98	6	101	17	184	15	85	12	607	21	20	229	99	51
OTU 55	0	0	0	0	0	0	0	0	0	0	6	0	0	0	1	0	0	0	0	0	0	0	0	0	0	0	0	0	0	0	0	0	0	0	0	0	0	0	0	0	0	0	0	0	0	0	0	0	0	0
OTU 56	92	151	3	19	139	18	133	5	47	2	103	9	4	1	0	2006	8	28	125	0	0	33	0	8	3	19	2	89	0	61	0	3	18	26	0	1517	17	86	2	4	127	7	0	783	2	12	0	0	42	45
OTU 57	41	40	213	87	60	3344	53	40	47	14	61	59	40	68	24	76	412	37	266	160	95	90	17	25	81	296	111	95	66	160	24	104	32	11	112	62	31	37	182	700	77	65	18	114	64	76	73	14	6	59
OTU 58	13	0	18	10	0	0	0	30	53	32	52	1	297	302	63	3	0	4	0	780	5	2	845	10	0	2	0	20	0	100	1816	29	62	54	10	7	12	18	21	294	223	24	894	13	32	2	86	883	0	2
OTU 59	0	12	0	0	1	50	427	3	23	4	12	4	1	12	14	0	14	0	14	59	3	1	17	14	102	30	3	0	38	37	22	1	15	1	0	3	12	0	8	14	71	1	10	2	6	23	59	3	0	0
OTU 60	217	16	27	83	5	81	188	141	118	8	53	0	172	66	101	4	13	3	18	30	123	12	45	5	7	13	774	35	58	199	23	382	17	46	81	57	32	5	2	15	80	85	10	14	41	15	264	258	99	122
OTU 61	60	4	32	6	12	7	46	490	9	74	39	73	22	3	60	7	23	43	227	105	5	108	58	99	30	20	6	49	102	51	104	32	122	12	56	126	161	9	2	5	32	84	63	25	8	10	24	155	67	49
OTU 62	0	30	343	0	3	20	68	10	0	22	0	13	6	0	5	0	2	374	1	1	1	0	18	13	8	70	6	4	0	3	10	5	50	3	45	0	20	0	25	0	38	4	7	0	12	5	60	10	24	2
OTU 63	7	0	1099	0	0	5	35	0	0	0	0	7	16	0	5	6	35	0	18	0	6	13	35	0	11	134	173	0	28	0	36	11	0	0	0	5	6	1	0	0	6	2	35	3	4	8	1	14	0	1
OTU 64	782	45	190	334	152	65	50	136	41	143	29	85	162	14	57	110	42	82	931	23	129	558	43	455	63	91	100	44	98	103	148	429	269	3	149	531	836	52	124	9	91	150	100	634	17	28	86	778	234	427
OTU 65	0	0	0	0	0	0	1	0	0	0	0	0	0	0	0	0	16	0	0	0	0	0	0	10	0	0	0	0	0	0	2	0	0	0	0	0	5	0	0	0	0	0	0	0	0	0	6	0	0	0
OTU 66	5	118	14	27	18	8	33	1	441	141	47	50	18	46	99	13	10	49	30	29	6	20	54	2	0	4	107	13	72	940	105	298	311	0	18	11	84	34	14	2	205	11	65	2	1	28	4	74	40	9
OTU 67	9	0	7	0	7	1	120	15	58	2	24	50	38	9	128	5	0	70	39	0	39	5	19	10	0	1	27	0	0	60	31	57	5	1	21	14	13	5	0	35	37	31	25	19	2	28	23	24	8	579
OTU 68	31	0	3	7	6	4	0	49	0	0	1	27	11	2	34	56	0	5	200	5	2	79	1	0	0	4	42	0	0	3	3	50	0	0	0	69	11	4	1	0	0	0	4	122	53	156	12	0	70	14
OTU 69	2	83	152	8	5	12	75	107	1	17	1	84	1	20	11	4	70	43	161	32	15	78	15	40	203	1	32	0	5	7	12	55	30	24	5	34	58	3	32	43	106	291	5	3	32	42	28	29	8	27
OTU 70	4	26	0	0	7	0	0	14	5	0	0	0	1	62	40	0	24	0	36	1	9	24	250	1	1	1	4	22	6	0	302	40	3	5	18	24	5	9	291	118	23	0	181	2	15	2	3	12	0	11
OTU 71	0	10	46	0	1	1	51	4	5	19	432	1	1	4	0	0	1	16	1	27	32	1	2	264	10	0	0	35	9	0	23	0	44	39	61	0	2	237	2	7	0	1	12	1	5	1	3	13	0	2
OTU 72	42	14	33	29	14	110	17	352	42	26	88	8	16	4	3	7	17	2	20	4	15	16	12	17	50	41	12	6	3	33	8	21	56	894	10	51	0	24	160	6	100	105	2	24	24	53	7	11	45	129
OTU 73	107	19	203	0	6	6	76	109	9	0	13	7	10	0	1	9	8	1	66	55	2	76	14	68	0	2	118	5	38	6	44	2	1	0	7	104	175	6	1	8	1	90	29	2	21	2	33	33	60	20
OTU 74	20	65	55	0	6	24	0	166	10	101	1519	35	27	4	12	77	30	26	171	6	95	73	15	15	66	13	53	43	98	14	8	32	175	52	1	57	27	607	5	88	130	55	9	2	0	29	0	10	24	30
OTU 75	6	17	12	27	0	7	12	52	16	19	37	26	131	534	40	1	37	25	31	45	2	25	147	54	42	22	3	13	86	16	163	62	58	105	17	14	72	22	131	4	62	342	92	36	1	98	12	51	19	5
OTU 76	4	1	38	0	0	3	5	2	0	0	2	1	0	1	1	354	9	56	0	10	4	1	7	24	1	1	3	0	0	0	0	0	1	10	0	0	79	2	21	1	0	0	0	220	7	420	0	0	49	41
OTU 77	55	13	135	5	20	1	22	15	20	18	28	16	43	1	44	0	25	272	11	19	64	103	48	11	119	48	185	58	14	38	40	1	46	2	0	8	42	34	17	64	0	18	5	13	22	3	110	60	127	12
OTU 78	68	17	0	11	62	5	2	97	0	12	1	2	1	0	150	11	3	0	28	84	3	24	14	39	33	12	5	0	1	0	4	1	27	12	10	1	69	3	36	7	14	78	10	0	30	0	2	81	45	4
OTU 79	94	154	21	59	146	57	86	1141	307	136	110	180	1415	21	402	29	21	53	109	441	64	36	32	22	2141	247	99	68	70	584	34	77	295	241	19	54	81	1802	133	68	160	77	18	99	146	138	112	142	206	61
OTU 80	39	42	16	22	2	7	161	4	6	2	143	31	48	263	41	50	21	86	108	10	58	95	1	46	34	73	39	1032	21	5	5	45	3	3	43	60	36	143	166	7	227	29	7	21	16	22	20	2	14	53
OTU 81	48	75	194	10	1	64	45	217	2	13	56	11	72	17	7	4	25	289	245	55	47	131	18	65	33	64	62	309	1	8	51	23	20	65	33	193	93	9	16	2	94	52	27	3	3	1	89	92	6	14
OTU 82	0	23	4	4	4	8	15	78	3	6	0	0	33	2	73	16	9	8	0	10	4	87	8	5	141	0	2	21	4	9	19	5	25	7	10	2	11	0	3	9	1	56	6	36	47	76	64	55	33	43
OTU 83	0	0	0	0	2	0	0	1	10	5	1	0	0	7	0	0	0	0	0	0	2	0	10	0	4	0	176	3	15	28	44	0	11	0	0	0	1	0	0	7	0	9	17	0	3	6	17	0	0	1
OTU 84	12	0	35	3	7	11	28	21	0	23	4	27	1	37	0	10	13	39	18	2	2	9	31	0	0	2	17	27	11	0	172	2	29	71	9	14	8	0	1	0	3	8	71	0	81	9	135	43	0	71
OTU 85	33	0	3	0	0	6	16	0	0	0	0	0	0	1	1	1	0	0	0	0	0	0	3	3	95	28	1	13	0	2	0	17	0	11	66	8	0	0	1	3	38	0	0	0	25	33	0	2	0	1
OTU 86	0	0	129	0	0	0	0	0	0	0	0	1	1	0	24	1	0	89	0	0	0	0	0	0	0	2	0	9	0	0	0	0	0	0	1	0	0	0	0	0	0	0	0	0	0	1	0	13	0	15
OTU 87	30	1	0	1	0	47	0	0	3	0	7	83	0	5	17	0	46	778	4	42	38	1	31	2	9	36	22	3	0	0	99	0	1	0	24	1	0	0	2	0	7	53	51	0	16	8	1	2	0	2
OTU 88	6	37	10	1	0	6	0	0	0	0	39	0	0	1	0	1	0	0	0	0	0	0	0	1	10	272	0	0	0	6	0	0	0	5	2	0	1	0	0	0	123	0	0	0	0	0	0	0	0	7
OTU 89	6	0	8	18	7	0	0	14	0	0	18	9	4	3	8	8	0	0	43	0	21	32	1	5	2	3	2	1	0	43	0	0	12	0	8	1	10	25	1	20	19	8	0	10	0	0	0	6	0	0
OTU 90	0	13	0	0	0	30	0	2	31	0	18	0	0	0	0	0	0	39	10	4	0	0	0	0	0	0	0	5	2	13	0	82	0	0	0	1	0	0	0	0	42	8	1	0	0	0	1	0	0	2
OTU 91	0	0	0	0	0	0	0	4	0	0	1	0	16	0	0	0	0	0	0	0	1	0	28	0	0	0	0	1	0	0	40	0	0	1	0	0	0	0	0	0	1	0	10	0	0	0	0	0	2	0
OTU 92	0	0	9	8	0	0	4	0	0	7	0	1	1	5	2	0	0	1	1	1	0	0	6	1	1	5	0	5	0	0	20	11	15	0	15	0	3	0	1	5	0	0	19	1	0	1	86	8	0	2
OTU 93	10	40	0	0	0	0	0	0	5	0	13	16	0	0	1	0	0	0	15	0	0	36	0	0	0	0	0	0	12	0	0	3	0	38	0	21	0	0	0	0	0	0	0	0	0	0	4	2	8	0
OTU 94	197	119	11	9	66	15	0	5	1	9	32	159	3	14	102	9	62	33	169	0	13	88	64	34	5	38	6	338	157	1	80	400	21	103	34	70	26	64	1	9	262	18	45	16	83	37	878	1	88	30
OTU 95	34	1	48	0	25	0	0	13	0	0	0	0	259	0	2	0	1	5	52	0	0	6	0	4	1	11	10	0	0	0	0	75	1	22	1	14	32	0	6	0	0	12	0	37	0	14	51	588	0	0
OTU 96	1	0	16	0	0	0	21	1	0	0	0	2	1	0	0	0	1	6	0	0	1	0	0	0	0	0	0	0	0	0	0	0	0	1	0	0	0	2	0	0	1	3	0	0	0	4	0	0	0	0
OTU 97	0	0	0	0	15	0	0	0	0	0	0	0	16	19	0	68	11	0	0	0	0	4	7	2	0	64	0	0	2	0	0	0	0	2	0	0	1	3	9	9	0	0	0	11	0	82	1	0	0	0
OTU 98	15	0	120	0	34	9	6	0	18	3	0	0	0	6	0	7	9	0	0	2	0	105	0	2	12	0	19	0	0	21	18	0	7	3	0	3	5	0	11	102	0	11	2	0	0	11	8	0	12	0
OTU 99	42	14	13	36	45	137	17	187	2	17	4	87	0	13	34	46	7	12	273	101	0	99	11	64	100	133	53	24	87	13	69	264	32	2274	10	56	84	61	44	3	94	229	31	24	70	0	0	41	91	28
OTU 100	0	23	123	28	0	7	9	33	10	0	0	84	28	38	7	0	267	4	0	14	0	0	177	13	19	34	13	1103	0	47	210	6	1	2	0	5	0	1	131	74	2	5	125	25	212	26	6	58	72	24
OTU 101	0	0	0	0	0	0	0	0	6	0	0	0	42	0	0	0	2	0	7	0	0	3	0	11	0	1	0	42	22	0	1	6	0	27	0	5	53	0	0	5	4	26	1	2	0	0	0	0	0	0
OTU 102	0	0	33	31	0	4	3	0	0	10	0	0	7	0	0	3	64	3	16	0	4	3	0	0	0	1	1	51	0	7	0	9	20	0	20	8	0	0	0	3	1	3	0	0	26	1	0	1	4	1
OTU 103	0	10	4	30	9	1	54	4	1	160	29	9	14	58	103	3	81	9	72	12	2	54	206	23	0	16	99	191	1	1	265	55	318	0	2	54	23	1	10	115	31	83	107	17	81	3367	13	7	46	0
OTU 104	121	40	101	76	173	36	45	87	21	85	122	31	137	13	95	4	89	18	85	13	21	55	48	3	264	75	140	16	36	73	89	586	143	82	4	37	48	86	17	9	143	245	33	4	134	6	28	107	214	95
OTU 105	3	0	0	4	5	4	1	14	0	4	81	0	0	0	0	29	3	17	0	1	1	1	1	2	0	0	0	0	1	0	0	0	7	1	36	2	13	22	25	0	126	1	0	2	2	0	7	29	5	25
OTU 106	0	2	85	0	0	6	0	12	0	0	7	141	5	0	0	584	0	14	0	0	0	0	1	0	1	1	4	0	0	0	23	17	0	2	0	0	5	0	0	4	38	11	16	338	0	10	0	0	0	1
OTU 107	10	1	10	3	35	8	0	15	0	0	0	5	0	0	24	6	0	0	7	7	1	15	3	6	1	0	8	7	0	1	3	1	0	10	0	22	8	6	0	6	0	3	0	1	8	2	31	0	27	0
OTU 108	1	15	5	2	2	0	2	1	4	0	24	0	13	0	15	8	31	43	101	0	12	49	32	0	7	14	32	62	31	1	17	6	0	6	0	43	2	1	19	9	118	3	5	0	9	0	5	23	5	16
OTU 109	0	0	0	0	0	0	1	0	0	0	0	0	0	0	0	0	0	0	0	0	0	0	0	0	0	0	0	0	0	0	0	0	0	0	0	0	0	0	0	0	0	0	0	0	0	0	0	0	0	0
OTU 110	454	26	12	43	15	25	25	67	1	33	1261	6	232	5	9	16	16	128	20	85	7	7	52	3	127	41	60	5	53	0	68	8	60	40	0	4	0	623	5	3	4	26	1099	35	2	69	210	737	96	47
OTU 111	0	0	6	0	0	0	0	0	15	1	0	0	0	1	0	0	0	0	0	0	0	0	0	0	0	0	0	1	11	7	0	0	4	0	20	0	2	0	25	0	0	0	0	0	0	0	0	0	2	0
OTU 112	53	12	73	0	7	44	338	1	0	1	16	0	1	5	8	8	0	27	2	2	11	2	0	1	0	0	0	8	2	1	0	3	5	12	0	4	0	11	0	8	138	99	0	6	28	32	42	1	14	0
OTU 113	0	327	0	3	7	1	16	0	0	0	1	153	1	0	3	0	10	0	0	3	1	0	0	0	1	0	0	0	0	1	0	9	0	2	0	2	0	0	0	11	24	0	0	1	2	0	0	7	1	2
OTU 114	53	18	2	56	0	2	71	145	377	666	95	149	50	80	190	62	158	4	127	90	34	40	60	154	511	24	378	1	12	883	230	0	1240	24	1159	28	257	39	132	27	230	1087	234	13	14	61	5	21	109	40
OTU 115	13	8	53	110	3040	55	33	86	54	2	11	16	64	8	104	11	95	10	34	46	41	11	3	11	64	68	49	88	32	91	37	107	7	84	9	13	36	191	158	76	13	113	15	92	49	17	83	89	59	39
OTU 116	6	5	42	12	15	25	86	174	770	35	115	36	21	5	290	54	55	19	6	0	348	0	3	0	50	120	3	109	150	56	18	50	69	46	62	1	1	36	0	9	82	27	7	10	46	10	0	3	65	4
OTU 117	16	141	75	0	20	16	6	687	63	22	129	62	2	0	12	2	9	29	136	10	2	39	14	3	80	136	126	1	40	41	3	199	65	21	9	52	6	37	0	21	156	65	2	6	0	1	39	1	5	4
OTU 118	0	0	5	37	1	10	0	0	0	56	0	0	0	0	103	10	2	0	0	2	13	0	15	0	6	33	42	0	59	0	1	3	139	11	0	0	7	0	16	8	28	0	0	10	8	1	0	11	2	0
OTU 119	16	3	14	120	1	6	1	22	6	23	71	17	11	4	66	104	10	0	5	5	3	2	0	9	7	104	16	175	34	6	6	53	38	7	8	1	19	2286	5	1	74	4	7	134	18	140	44	109	21	39
OTU 120	0	18	23	1	2	17	4	14	0	0	25	0	24	5	0	1	41	2	16	7	3	0	0	0	1	13	1	94	11	3	4	0	2	0	19	3	1	0	37	0	15	24	2	0	36	0	4	22	4	101
OTU 121	40	16	9	3	1	9	1	5	20	21	46	12	2	2	50	16	460	62	17	0	0	13	5	4	25	74	0	43	42	12	14	9	51	30	55	6	30	0	20	98	0	113	5	4	1	2	9	2	6	7
OTU 122	39	21	38	41	54	55	2	157	0	148	4	57	10	1	103	72	26	9	80	47	5	16	5	9	9	86	15	7	8	0	0	16	47	118	49	41	65	27	148	1	14	67	0	15	0	55	48	0	0	3
OTU 123	232	123	313	74	37	99	151	265	285	155	101	18	408	2338	310	67	73	131	259	781	30	145	89	44	419	293	32	84	591	563	219	32	307	175	85	210	87	154	389	110	83	173	117	71	1481	116	335	73	94	358
OTU 124	4	0	8	0	2	0	1	25	0	0	1	3	0	0	0	14	6	11	29	1	0	9	7	0	7	0	12	25	0	0	0	19	2	0	0	10	0	11	0	0	0	13	6	0	0	0	0	4	26	0
OTU 125	164	47	166	173	157	270	50	100	1011	148	81	221	77	130	287	567	64	97	127	65	235	59	53	1564	158	92	27	294	11	77	116	134	141	131	1465	59	25	46	263	283	102	248	44	307	66	559	407	123	114	129
OTU 126	0	0	0	0	3	0	0	1	0	0	0	0	11	0	1	0	1	0	0	0	1	0	0	0	0	0	0	0	0	8	0	0	1	2	2	0	5	22	1	1	41	0	0	1	31	0	0	0	16	0
OTU 127	37	40	13	1	23	28	1	0	79	19	10	6	27	0	11	1	0	43	1	0	27	5	8	0	4	0	4	92	139	83	2	11	34	0	0	4	3	0	93	4	19	46	2	12	32	20	393	16	17	17
OTU 128	734	116	101	67	143	126	106	288	13	73	35	63	130	9	133	133	91	80	430	224	185	4824	28	35	180	38	14	57	260	16	109	96	144	96	51	208	65	33	57	62	122	259	56	43	8	59	52	149	18	361
OTU 129	0	7	0	0	0	39	23	0	0	0	0	43	1	0	1	0	0	0	5	47	12	4	12	0	29	3	6	1	0	0	0	74	0	1	27	2	0	0	0	19	0	3	0	0	0	6	25	0	86	0
OTU 130	3	0	24	10	1	35	34	0	0	16	29	24	22	15	17	75	28	15	17	0	12	5	15	7	1	0	3	5	5	0	18	49	24	7	1	24	27	12	7	2	18	27	7	25	5	3	0	50	2	3426
OTU 131	29	5	86	51	23	30	5	283	27	568	52	3	7	8	95	10	8	94	0	10	58	0	9	16	8	21	852	14	66	50	11	40	1133	12	0	20	2	1	22	68	10	6	5	1	54	6	2	0	45	14
OTU 132	29	0	59	1	6	0	0	2	0	1	0	109	8	2	5	1	23	26	0	1	6	0	31	4	0	6	5	19	85	0	61	0	3	4	7	1	2	0	15	5	2	1	23	0	0	0	0	43	49	1
OTU 133	0	4	11	0	0	0	0	20	0	0	1	0	5	0	8	0	0	6	0	0	0	2	3	10	0	5	4	0	7	1	0	0	0	4	0	0	0	0	0	23	8	0	0	0	2	0	0	17	0	0
OTU 134	16	2	5	3	11	8	84	17	3	1	114	1	43	7	139	1	93	18	46	3	15	46	31	26	11	41	1	45	0	10	11	5	1	66	117	10	13	69	17	18	117	0	6	64	4	73	5	25	21	1
OTU 135	88	3	1	1	17	65	12	11	2	54	101	11	66	32	284	1	13	0	75	2970	0	62	28	5	28	36	8	4	15	5	55	6	114	3	7	55	2	73	50	3	99	8	42	8	0	0	0	122	140	8
OTU 136	5	48	16	1	16	2	12	10	2	25	17	7	0	29	7	100	28	57	1	12	2	3	23	10	0	27	30	175	0	0	52	2	34	4	6	0	10	0	13	19	1	21	21	0	2	0	148	0	0	0
OTU 137	68	0	0	2	51	0	5	109	0	0	5	0	34	0	0	0	8	0	0	7	39	0	3389	0	0	6	0	1	0	0	0	804	0	1	1	0	3	0	4	0	2	2	0	1	16	0	2	2	218	4
OTU 138	1	0	0	6	2	0	0	0	2	17	3	0	0	0	4	5	0	24	19	0	17	3	0	1	3	0	64	1	69	0	0	11	29	10	4	4	1	0	12	0	10	5	3328	0	1	0	3	18	0	11
OTU 139	5	710	93	75	4	144	139	4	59	16	8	1601	75	16	27	152	18	116	14	64	6	2	53	10	36	749	187	137	16	75	287	14	38	35	87	6	49	8	149	26	69	21	263	110	57	6	111	24	111	5
OTU 140	113	109	32	13	146	302	287	28	172	14	108	235	64	3472	73	52	158	102	167	46	151	89	344	25	66	114	69	120	346	303	82	50	19	107	391	73	96	60	20	100	203	10	50	2568	375	18	40	126	2557	121
OTU 141	0	0	0	0	0	0	0	0	0	0	0	0	0	0	0	0	0	0	0	0	0	1	0	0	0	0	0	20	0	0	0	0	0	0	0	0	0	0	0	0	0	0	0	0	54	0	0	0	0	0
OTU 142	0	0	0	0	0	0	0	0	0	0	0	0	0	0	0	0	0	0	9	0	0	0	0	0	0	0	0	0	0	0	0	5	0	0	0	0	0	0	0	0	0	0	0	0	0	0	0	0	0	1
OTU 143	10	45	5	0	9	300	7	0	0	0	0	0	0	1	2	0	2	0	0	0	0	0	0	0	0	0	0	36	0	1	6	134	0	0	2	8	31	0	28	0	4	0	4	0	6	0	0	4	0	2
OTU 144	6	0	0	2	9	108	79	0	0	0	7	7	41	0	0	0	2	15	93	0	4	30	1	7	9	0	26	66	38	14	5	0	0	1	9	15	0	2	1	27	6	11	2	0	0	15	5	94	0	5
OTU 145	4	23	49	1840	26	71	29	42	1	50	42	18	19	23	207	78	40	14	8	87	4	8	31	2	230	155	112	507	9	7	7	34	90	65	8	19	48	38	5	20	95	359	19	0	6	8	22	3	59	27
OTU 146	10	6	65	12	2	5	152	19	18	28	66	39	321	59	14	4	7	8	8	42	30	0	9	1	0	129	2039	30	2	28	29	10	54	55	0	5	6	8	7	24	53	19	12	0	6	19	17	5	97	22
OTU 147	26	39	0	0	0	8	0	1	1	0	6	85	33	0	0	7	1	4	35	6	16	23	0	34	11	20	27	26	2	0	0	16	0	0	2	27	12	0	29	29	0	46	0	0	6	13	15	4	0	40
OTU 148	14	1	44	8	23	34	143	8	6	129	31	29	20	13	824	6	120	47	60	0	150	14	65	41	23	4	321	194	2	33	30	69	223	101	9	25	88	18	3	329	13	17	20	9	66	1	157	72	6	3
OTU 149	81	1	24	0	12	1	45	7	0	3	7	4	21	17	0	1	1709	1	38	0	29	31	637	22	2	0	66	13	5	12	25	1	12	82	32	1	15	0	39	2	10	26	13	0	54	0	0	88	30	4
OTU 150	19	7	1	0	0	0	11	49	0	0	0	0	3	0	0	0	13	19	24	53	0	8	4	0	700	17	1	0	0	0	0	2	0	2	2	0	0	0	3	39	31	19	0	0	1	21	0	1	3	0
OTU 151	0	0	9	17	0	10	44	0	0	0	6	0	4	2	50	86	2	2	15	13	20	12	33	25	25	17	6	1	19	43	7	27	0	7	13	4	32	3	42	21	14	36	0	0	52	119	1	6	2	0
OTU 152	0	17	0	58	0	1	0	9	2	10	4	26	19	2	7	19	19	41	17	2	8	25	6	0	9	11	35	50	42	9	5	7	27	4	2	6	9	1	5	55	43	75	9	0	86	4	14	15	7	9
OTU 153	0	0	13	0	0	7	0	0	0	28	0	10	2	0	0	0	0	0	5	0	0	0	0	0	0	0	0	0	12	4	0	31	51	0	0	0	0	0	0	1	0	0	0	4	0	0	36	4	0	0
OTU 154	0	0	0	0	1	0	0	5	0	0	33	0	0	0	11	36	0	1	0	0	0	0	0	0	0	0	1	1	3	0	1	0	0	1	2	0	0	0	0	1	83	3	0	1	0	10	0	0	0	0
OTU 155	0	85	36	0	29	9	53	41	2	4	1	181	4	2	3	0	0	0	0	0	3	0	0	17	4	35	0	28	1	10	4	31	9	2	1	0	46	0	0	21	42	20	8	2	51	0	6	15	5	6
OTU 156	46	3581	78	1	29	22	2	79	0	14	41	3	21	8	77	77	15	157	27	0	107	0	167	15	52	47	22	144	80	7	40	48	21	10	4	3	76	17	114	79	129	15	14	13	0	3	85	158	15	18
OTU 157	1	36	0	0	0	28	0	2	0	3	5	0	6	0	1	5	10	2	0	3	0	2	0	0	0	103	6	0	0	0	2	23	11	0	0	7	1	1	1	11	18	0	1	2	0	2	0	1	1	0
OTU 158	0	0	0	0	0	0	0	0	0	0	0	0	0	0	2	0	0	0	0	4	0	0	0	0	0	1	0	0	23	0	3	0	0	4	0	11	0	0	1	0	2	0	0	0	0	0	47	0	0	0
OTU 159	15	4	8	3	0	1	5	0	14	7	0	9	61	12	50	37	17	9	20	4	21	1	76	0	0	19	2	1	28	8	94	80	10	42	10	1	9	0	11	19	40	17	54	44	24	20	14	281	12	24
OTU 160	99	111	82	587	81	67	25	17	42	23	39	6	4	9	204	65	79	46	223	75	147	114	23	27	139	499	64	4	134	71	34	25	48	43	66	250	82	5	10	5	25	11	13	75	64	516	165	38	98	66
OTU 161	36	10	1658	108	19	34	19	0	0	3	0	38	5	26	288	0	14	2	156	0	7	59	35	13	15	37	1	45	81	3	56	76	6	0	18	46	21	2	78	46	28	11	19	3	29	2	23	8	95	0
OTU 162	49	5	16	10	2	56	50	31	4	0	0	31	3	16	57	5	5	3	48	26	38	20	22	3	0	54	40	1	737	3	95	101	2	48	48	26	4	0	28	2	2	197	44	4	14	4	46	10	43	20
OTU 163	0	1	0	0	0	0	0	0	0	0	36	0	0	0	0	0	0	0	1	0	0	5	0	0	0	1	0	0	0	0	2	0	0	0	0	0	0	17	2	0	16	0	1	0	0	0	0	0	0	2
OTU 164	11	0	0	1	0	0	0	0	0	0	0	0	0	0	2	0	0	0	0	0	0	0	0	0	0	0	0	0	2	0	0	0	0	0	0	0	0	0	0	4	0	0	0	0	0	0	37	0	0	8
OTU 165	3	0	31	0	5	149	0	1	2793	0	48	20	0	0	1	5	7	24	45	5	8	12	2	1	0	5	19	30	24	1	1	169	0	1	17	18	2	10	115	1	36	147	4	20	4	4	4	0	9	0
OTU 166	0	0	1	0	0	0	0	4	4	0	1	0	0	0	0	0	0	0	0	0	5	0	0	0	0	0	0	0	0	0	0	0	0	0	0	0	0	0	0	0	0	0	0	0	98	0	0	3	0	0
OTU 167	5	36	32	7	19	33	0	199	2	2	10	4	6	6	30	2	9	0	0	16	6	0	0	2	0	100	3	6	2	0	22	2	2	7	5	4	12	2	81	0	13	5	12	12	0	3	20	0	58	10
OTU 168	21	21	16	44	30	16	66	5	20	14	0	123	18	0	2	1	78	97	1	7	25	14	0	2728	8	71	30	5	45	51	12	7	33	3	23	0	0	0	7	28	19	6	2	0	61	1	58	0	192	31
OTU 169	0	0	0	0	6	10	0	0	4	0	0	0	0	0	0	9	0	0	78	1	0	40	0	0	0	0	0	0	1	0	0	0	0	0	0	160	0	0	0	0	11	0	0	0	3	0	2	0	53	4
OTU 170	0	0	0	0	0	0	0	0	0	0	0	0	1	0	0	0	1	0	1	0	3	0	0	0	0	0	0	0	0	0	0	12	0	0	0	5	0	0	0	1	0	0	0	0	0	0	0	0	0	0
OTU 171	0	8	2	34	5	22	0	0	2	5	12	49	6	3	1	10	1	7	192	134	27	83	5	7	29	28	32	29	0	6	65	37	14	28	16	67	64	1	107	30	1	33	20	1	1006	15	95	9	13	24
OTU 172	0	0	0	0	0	5	1	0	5	5	0	1	0	1	80	0	13	8	0	3	0	0	22	0	0	0	1	0	0	4	16	0	9	24	0	0	0	0	0	0	0	3	12	0	1	47	0	8	0	0
OTU 173	5	0	1	2	0	0	40	8	3	1	41	6	0	3	0	2	3	16	57	6	0	34	0	1	0	4	11	10	0	0	0	20	6	17	0	19	11	3	0	1	0	1	0	1	0	1	0	7	0	0
OTU 174	31	5	12	2	37	16	2	0	110	0	1	1	2	7	0	42	0	8	1	12	677	4	3	1	18	29	21	164	0	212	11	192	1	11	240	3	1	23	0	4	1	11	4	9	21	21	0	3	323	24
OTU 175	15	2	34	7	2	0	38	23	0	0	3	46	14	0	24	0	85	10	1	0	47	2	1	0	1	0	14	11	74	0	1	4	1	13	0	0	11	24	58	1	0	3	0	7	0	4	57	11	34	0
OTU 176	102	5	0	32	55	79	17	119	6	18	34	42	44	5	113	125	9	9	147	89	95	94	6	9	145	15	53	24	1	3	30	6	32	4	0	26	2	13	172	3	28	133	3	26	31	42	45	10	1	65
OTU 177	69	46	5	10	6	45	135	20	88	15	93	72	3	4	66	3	58	26	99	2	176	67	53	47	100	36	32	54	97	86	91	47	38	2	55	19	111	11	1	1	180	42	28	0	12	0	73	5	15	26
OTU 178	0	8	4	0	0	1	136	186	2	1	0	0	1	11	9	5	0	20	2	9	8	1	17	13	3	0	37	11	65	62	28	0	6	5	39	10	12	0	19	6	0	25	13	81	0	33	33	0	0	15
OTU 179	2005	23	52	8	349	0	18	1	4	0	0	0	20	4	29	21	6	1	66	4	78	32	6	2	0	5	48	5	23	26	0	39	1	44	23	3	3	3	10	9	2	70	3	63	32	15	0	9	1	615
OTU 180	84	160	9	26	49	89	80	122	118	32	163	178	48	533	80	111	72	43	41	40	52	10	60	90	137	102	168	238	153	127	136	60	66	6	205	28	134	24	66	35	273	45	82	77	197	36	436	9	55	47
OTU 181	17	5	3	27	4	82	10	23	13	0	464	0	17	53	82	1	0	1	2	40	95	6	88	7	8	0	3	0	23	27	79	59	0	31	72	2	3	307	1	1	959	5	38	12	0	21	37	99	9	3
OTU 182	0	0	0	0	0	0	0	0	0	0	0	0	0	0	0	0	0	0	0	0	0	0	0	0	0	1	0	0	0	0	0	0	0	0	0	0	0	0	0	0	9	1	0	0	0	0	0	1	0	0
OTU 183	3	39	55	0	10	4	15	9	865	7	32	66	5	1	5	6	8	36	28	12	59	13	2	0	20	8	2	22	10	1813	6	77	16	2	74	7	11	19	0	13	66	22	5	22	0	4	2	17	2	13
OTU 184	26	8	1	0	20	1	108	13	19	14	0	0	37	0	10	30	0	18	62	22	49	14	0	11	1	70	0	22	6	18	0	13	28	12	15	0	24	8	46	9	0	0	0	17	84	16	12	45	62	3
OTU 185	5	27	6	60	29	38	97	147	35	41	73	6	29	30	88	19	2	6	33	67	10	18	9	0	82	35	62	24	31	66	11	199	85	9	59	6	11	20	0	57	64	120	4	0	55	0	138	42	25	7
OTU 186	0	0	120	0	14	0	53	0	9	0	15	1	1	14	14	44	9	19	0	0	23	0	4	0	0	0	4	2	2	4	10	50	0	0	0	0	10	65	33	0	49	0	4	8	4	4	68	0	1	0
OTU 187	46	50	43	41	79	14	47	272	8	53	65	114	11	75	198	97	93	27	57	20	16	11	102	53	49	18	59	255	64	2	202	124	121	1313	28	20	101	21	198	2	97	8	113	16	254	28	30	84	32	0
OTU 188	85	61	35	11	14	448	38	29	10	13	2	96	12	15	91	58	38	22	8	0	2	6	14	48	31	75	11	10	28	19	39	7	22	25	1	49	146	19	7	48	8	48	2	38	72	38	35	15	14	82
OTU 189	92	16	86	77	17	53	6	49	4	881	37	0	38	4	42	59	4	84	150	145	51	69	4	503	10	48	26	71	13	11	13	41	65	11	24	28	675	48	42	53	69	65	3	5	29	8	136	159	20	33
OTU 190	0	0	79	0	46	0	8	0	30	6	0	10	0	0	0	1	2	2	0	0	0	0	0	0	25	0	0	0	0	13	0	0	7	0	1	0	0	4	0	0	3	0	0	0	0	1	3	0	0	0
OTU 191	36	82	5	112	1	6	165	8	1	5	7	217	62	17	406	83	13	2931	31	14	11	4	64	15	27	140	18	17	59	23	102	13	11	5	45	22	22	45	141	11	34	77	55	26	148	70	75	17	257	2
OTU 192	57	31	352	44	4	27	1	43	11	7	20	54	36	7	3	67	70	360	290	4	41	281	23	17	159	833	74	288	207	64	26	72	27	284	24	114	73	2	215	3010	12	30	7	5	27	70	24	40	14	78
OTU 193	17	21	103	31	22	137	31	79	20	4	3	126	86	3	3	16	25	1	210	7	25	63	0	12	41	45	2	20	210	53	0	102	8	2	16	96	32	0	556	0	0	153	0	0	1	15	212	176	0	31
OTU 194	615	5	2	0	16	0	1	12	2	0	72	23	0	24	0	1	9	20	0	10	0	0	25	1	8	0	1	36	39	18	47	180	0	16	9	0	1	708	45	0	36	32	26	0	0	9	4	0	373	106
OTU 195	26	1	19	13	36	1	0	0	4	28	23	9	22	4	59	37	24	100	25	0	26	6	15	2	51	87	94	6	11	2	4	0	48	26	12	5	23	8	179	19	12	8	0	46	28	45	8	11	74	24
OTU 196	59	2	50	87	19	5	3	3	1	0	13	23	3	87	10	47	285	18	0	1	18	1	145	20	4	3	12	88	85	1	417	49	2	104	690	2	28	3	85	121	7	3	185	4	609	1	30	3	45	3
OTU 197	36	340	52	57	1584	311	189	105	13	58	5	846	30	21	74	2	68	8	79	94	25	68	6	31	182	171	2	184	3	39	9	199	110	55	54	41	69	11	43	702	46	105	1	36	26	58	305	183	46	8
OTU 198	26	9	6	2	1	4	0	53	0	12	0	0	1	0	96	497	0	0	2	0	0	7	0	0	0	0	31	8	0	0	0	0	33	0	0	0	0	1	0	0	0	0	0	123	12	601	12	4	6	61
OTU 199	81	0	27	11	0	121	47	2	0	2	6	0	1	2	1	15	5	8	10	3	0	5	3	50	1	0	0	12	46	0	1	0	5	50	26	1531	55	0	20	2	19	44	2	1	0	0	110	2	30	0
OTU 200	5	9	63	30	20	19	13	0	4	0	2	3	4	2	4	19	31	16	3	10	4	0	1	3	18	5	4	8	5	7	45	63	0	13	0	1	11	0	0	1	4	61	13	0	35	18	22	45	75	7
