	Host 1	Host 2	Host 3	Host 4	Host 5	Host 6	Host 7	Host 8	Host 9	Host 10	Host 11	Host 12	Host 13	Host 14	Host 15	Host 16	Host 17	Host 18	Host 19	Host 20	Host 21	Host 22	Host 23	Host 24	Host 25	Host 26	Host 27	Host 28	Host 29	Host 30	Host 31	Host 32	Host 33	Host 34	Host 35	Host 36	Host 37	Host 38	Host 39	Host 40	Host 41	Host 42	Host 43	Host 44	Host 45	Host 46	Host 47	Host 48	Host 49	Host 50	
OTU 1	0	0	0	4	17	16	0	13	6	7	4	0	0	5	3	10	1	0	1	0	0	2	3	2	4	6	19	8	0	8	4	5	1	6	0	2	4	8	3	2	6	11	5	10	3	5	0	4	1	16
OTU 2	0	0	0	0	2	2	0	0	0	0	0	0	0	0	0	0	0	0	1	0	24	2	0	0	0	0	0	1	0	0	2	0	2	0	0	0	0	2	2	1	1	1	0	0	0	0	4	3	0	0
OTU 3	1	0	4	0	1	0	0	0	0	0	0	0	0	0	0	0	0	1	0	0	3	2	0	0	0	0	0	0	0	0	2	0	0	0	4	0	0	0	0	1	1	0	0	1	0	0	2	0	2	0
OTU 4	0	0	0	0	0	0	0	0	0	0	0	0	0	0	0	0	0	0	0	0	0	0	0	0	0	0	0	0	0	0	0	0	0	0	0	0	0	0	0	0	0	0	0	0	0	0	0	0	0	0
OTU 5	17	12	12	9	0	5	22	25	36	0	1	1	4	34	0	10	0	5	24	4	12	15	12	12	23	17	69	10	4	48	37	13	1	26	0	12	26	0	0	12	0	2	9	34	16	1	0	11	14	1
OTU 6	4	4	0	0	0	54	3	0	4	0	0	2	2	1	2	0	0	2	0	0	0	4	1	0	0	0	2	0	0	0	25	0	2	2	0	0	2	0	1	0	0	0	0	0	43	0	0	0	0	3
OTU 7	4	0	0	1	10	4	0	3	0	9	21	2	1	8	6	3	6	0	0	6	2	1	10	0	2	2	2	2	5	2	2	1	9	5	11	4	6	1	3	6	3	7	1	1	2	10	3	5	2	2
OTU 8	0	6	28	82	3	0	13	5	0	4	1	2	3	1	1	0	0	8	0	8	2	4	3	4	2	3	0	2	15	0	5	3	8	1	1	2	11	3	3	1	0	0	6	1	1	8	1	2	0	1
OTU 9	1	4	0	0	0	0	0	0	0	0	0	0	1	1	0	0	0	1	0	0	3	0	1	0	0	0	0	0	0	0	0	2	0	0	0	0	0	0	0	130	0	0	1	0	0	1	0	0	0	0
OTU 10	0	0	0	0	0	0	0	0	0	0	1	1	0	1	0	0	0	0	0	0	1	0	0	0	0	0	0	0	1	2	1	0	0	2	0	0	2	1	0	0	2	0	1	0	0	0	0	1	0	2
OTU 11	3	0	0	3	0	0	0	1	0	6	4	3	4	1	6	0	2	2	0	3	1	0	1	3	0	2	1	1	1	3	1	0	4	0	6	2	6	0	0	0	0	0	0	5	0	0	3	2	0	9
OTU 12	2	0	4	0	3	1	5	1	0	4	1	3	1	3	0	0	0	2	0	0	5	0	1	0	1	2	2	1	0	0	0	2	2	3	8	0	0	3	2	0	2	2	0	0	0	3	1	0	1	0
OTU 13	0	0	0	1	0	0	0	0	0	0	0	0	0	0	0	0	0	0	0	0	0	0	0	0	0	0	0	0	0	0	0	0	2	0	0	0	0	0	0	0	1	0	0	0	0	0	0	0	0	0
OTU 14	0	0	0	0	0	2	3	0	0	0	3	0	0	0	0	0	0	2	1	0	1	1	0	0	0	0	0	0	0	0	0	0	0	7	1	0	0	2	1	2	0	0	1	0	2	0	0	0	0	0
OTU 15	0	0	0	0	0	0	0	0	0	0	0	0	0	0	0	0	0	0	0	0	0	0	0	0	0	0	0	0	0	0	0	0	0	0	0	0	0	0	0	0	0	0	0	0	0	0	0	0	0	0
OTU 16	0	0	0	0	0	0	0	0	0	0	0	0	0	0	0	0	0	0	0	0	0	0	0	0	0	0	0	0	0	0	0	0	0	0	0	0	0	0	0	0	0	0	0	0	0	0	0	0	0	0
OTU 17	0	1	0	0	0	0	1	0	2	0	0	0	2	1	0	0	0	1	0	1	2	0	0	0	0	1	0	0	4	0	1	0	1	0	15	0	0	0	0	0	1	2	0	0	0	0	0	0	0	0
OTU 18	0	0	0	0	0	0	4	0	0	0	1	3	0	0	0	1	2	2	0	5	10	0	2	1	1	0	0	6	3	0	0	2	0	9	4	0	0	1	0	2	0	1	0	0	0	0	2	0	0	0
OTU 19	0	0	0	0	0	0	0	0	0	0	0	0	0	0	2	0	0	0	0	0	0	0	0	0	0	0	0	0	0	0	0	0	0	0	0	0	0	0	0	0	0	0	0	0	0	0	0	0	0	0
OTU 20	3	2	1	0	4	2	2	1	1	0	4	2	2	0	1	0	0	1	1	0	0	0	0	2	2	0	2	2	4	0	1	0	1	0	2	0	1	1	3	0	0	0	0	1	0	2	2	0	0	0
OTU 21	1	1	2	2	1	21	1	12	1	0	14	11	2	2	3	2	6	0	3	1	0	3	13	0	3	10	2	1	0	3	1	4	4	1	0	3	2	2	2	3	7	1	0	0	10	13	3	6	4	5
OTU 22	1	6	0	0	1	0	2	2	0	0	5	0	5	0	4	4	5	0	0	75	0	2	1	8	1	1	1	2	3	2	2	0	2	1	5	0	7	0	1	0	3	5	0	2	0	0	0	0	1	1
OTU 23	0	1	0	0	0	1	0	0	115	4	0	0	0	0	1	0	0	0	0	0	0	0	0	0	1	0	0	2	8	0	0	0	2	6	0	0	0	0	0	0	0	0	1	0	0	1	0	0	0	1
OTU 24	0	1	0	0	0	0	1	0	0	1	10	8	0	1	0	0	0	1	0	0	0	0	0	0	1	0	0	0	0	0	2	0	1	0	0	0	2	0	0	0	0	0	0	0	0	1	0	0	0	1
OTU 25	0	0	0	0	0	0	0	0	0	0	0	0	0	0	0	0	0	0	0	0	0	0	0	0	0	0	0	0	0	0	0	0	0	0	0	0	0	1	0	0	0	0	0	0	0	0	0	0	0	0
OTU 26	0	0	0	0	0	0	0	0	0	0	0	0	1	0	0	0	0	0	0	0	0	0	0	0	0	0	0	0	0	0	4	0	0	0	0	0	0	0	1	0	0	0	0	2	0	0	0	0	0	1
OTU 27	0	0	0	0	0	0	1	0	0	0	0	1	0	0	0	0	0	0	0	0	0	0	0	0	0	0	0	0	0	0	0	0	0	0	0	0	0	0	0	0	0	0	0	0	0	0	0	0	0	0
OTU 28	0	1	1	1	2	0	4	6	33	0	4	3	4	1	0	3	1	8	0	0	1	0	2	0	0	1	1	0	9	0	6	4	0	0	0	3	0	0	2	1	1	0	1	4	0	0	0	2	0	0
OTU 29	7	2	2	54	4	15	3	12	2	4	0	0	3	6	14	8	0	0	1	0	0	4	4	0	7	7	6	14	11	0	9	0	3	8	5	3	0	0	5	2	6	4	1	3	15	3	0	1	5	2
OTU 30	0	0	0	0	0	0	0	0	0	0	0	0	0	0	0	0	0	0	0	0	0	0	0	0	0	0	0	0	0	0	0	0	0	0	0	0	0	0	0	0	0	0	0	0	0	0	0	0	0	1
OTU 31	0	0	0	0	0	0	4	1	0	0	0	0	0	5	0	0	51	0	0	2	0	0	0	0	2	0	3	0	4	41	1	0	2	0	1	0	0	0	0	0	0	0	0	0	1	0	0	0	0	0
OTU 32	0	4	5	0	1	0	3	4	26	0	1	1	2	0	2	1	1	2	37	1	5	52	0	1	0	5	2	2	3	0	61	1	0	2	5	48	0	0	1	0	0	0	5	3	0	140	2	112	0	2
OTU 33	0	0	0	0	0	0	0	0	0	0	0	0	0	0	0	1	0	0	0	0	0	0	0	0	0	0	0	2	0	0	0	0	0	0	0	0	0	0	0	0	0	0	0	0	0	0	0	0	0	0
OTU 34	1	5	3	1	0	1	1	0	0	1	2	4	14	0	1	9	9	0	0	4	7	0	1	12	0	0	0	0	0	2	1	1	4	0	3	0	24	0	0	0	1	0	0	2	0	0	1	0	1	3
OTU 35	4	1	0	2	0	0	17	6	0	1	6	6	0	1	2	1	0	0	0	0	0	0	0	1	1	0	0	3	2	1	2	2	5	0	0	0	5	0	7	0	1	0	1	1	1	1	1	1	1	3
OTU 36	0	1	1	0	1	2	0	6	0	1	9	1	3	0	1	0	1	0	1	2	1	1	3	0	0	0	0	0	5	0	4	0	0	0	0	0	0	2	5	1	8	0	0	5	0	0	5	0	4	0
OTU 37	1	0	0	0	0	0	0	1	0	0	0	0	0	0	0	0	0	0	0	17	0	0	0	0	0	0	0	0	0	0	0	0	0	0	0	0	0	0	1	0	0	1	0	0	0	0	0	0	1	0
OTU 38	0	2	0	0	3	2	0	0	0	3	1	1	0	0	1	1	1	1	24	8	0	0	6	0	0	0	2	0	1	1	1	1	3	0	1	62	1	0	6	0	1	0	1	5	0	1	1	0	1	0
OTU 39	0	1	0	0	0	0	1	0	1	1	1	1	0	0	0	0	1	0	0	1	0	1	2	0	0	0	5	5	0	0	0	0	0	0	0	0	1	0	0	0	0	0	3	1	0	1	0	1	0	0
OTU 40	6	5	0	0	0	0	1	0	0	0	1	0	4	0	0	2	0	0	0	1	3	0	0	1	2	0	0	0	1	1	1	2	6	0	0	0	0	4	1	0	1	0	0	0	0	1	3	0	0	0
OTU 41	0	5	0	0	0	0	0	0	0	0	1	0	1	0	0	2	0	0	0	4	0	0	0	0	0	1	0	0	2	1	0	0	0	0	4	0	0	0	4	0	4	0	0	1	0	0	0	0	1	0
OTU 42	0	0	0	3	4	0	0	0	0	0	0	1	4	0	2	0	0	0	0	0	0	0	0	0	0	0	0	0	0	0	0	2	0	0	0	0	0	0	0	0	0	1	0	1	0	1	0	0	0	0
OTU 43	0	0	0	0	0	0	0	0	0	0	0	0	0	0	0	0	0	0	0	0	2	0	0	0	0	0	0	0	0	0	0	0	0	0	0	0	0	0	0	0	0	0	0	0	0	0	0	0	0	0
OTU 44	1	0	0	0	0	0	0	0	0	0	1	0	0	0	1	0	0	2	0	4	0	0	0	0	0	0	0	0	0	1	0	0	0	0	0	0	0	0	0	0	0	0	0	2	0	0	0	0	0	0
OTU 45	0	9	1	0	0	1	2	0	0	1	0	4	1	1	0	0	1	3	0	0	0	4	0	1	11	0	1	0	0	0	9	16	1	1	4	0	2	1	1	17	0	0	0	0	0	0	1	0	1	0
OTU 46	2	0	0	0	2	1	2	0	5	3	2	3	0	0	0	0	0	1	0	0	8	11	9	0	0	0	3	2	15	3	27	2	1	3	0	0	2	2	10	1	0	0	0	1	0	0	1	1	0	5
OTU 47	0	1	0	0	0	0	2	0	0	0	4	0	0	0	0	0	1	0	0	0	3	0	0	0	0	0	0	0	0	0	0	0	0	0	0	0	1	0	0	0	0	0	0	0	0	0	0	0	0	2
OTU 48	0	2	0	1	2	2	0	0	0	0	2	0	0	0	0	5	2	0	1	1	5	0	0	2	0	0	0	2	5	2	0	0	2	0	0	0	1	1	6	3	1	5	0	0	2	0	1	1	0	3
OTU 49	0	0	1	0	0	2	1	0	0	0	0	0	1	0	0	0	0	0	0	1	0	3	0	0	2	2	1	0	1	0	0	0	2	0	0	0	0	0	0	0	0	0	0	0	0	2	0	1	0	0
OTU 50	2	1	0	0	0	0	0	1	0	1	1	1	1	0	0	0	0	0	1	0	8	0	0	92	0	0	0	6	1	0	0	1	0	1	14	0	0	1	0	0	1	1	2	1	0	1	1	0	1	0
OTU 51	2	2	0	0	3	0	1	4	0	0	0	3	0	0	3	1	0	0	0	0	0	1	0	0	0	2	3	0	2	1	0	0	0	0	0	0	0	1	0	0	4	0	0	1	0	1	0	2	0	0
OTU 52	13	0	0	3	0	1	0	3	0	2	4	0	1	1	1	3	1	8	0	20	0	2	0	0	0	1	1	0	0	1	4	2	2	1	0	0	4	1	6	1	3	2	1	0	1	0	2	0	0	0
OTU 53	0	0	0	0	0	0	0	0	0	0	0	0	1	1	0	0	0	0	0	0	0	0	0	0	0	0	0	0	0	0	0	0	0	0	0	0	0	0	0	0	0	0	0	0	0	0	0	0	0	1
OTU 54	0	0	1	0	0	4	1	0	1	0	1	9	2	0	1	1	3	7	0	5	30	1	0	5	8	0	6	20	2	0	1	1	4	0	0	1	5	76	0	5	1	0	10	0	6	2	0	0	2	7
OTU 55	0	0	0	0	0	0	0	0	0	0	0	0	0	0	0	0	1	0	0	0	0	0	0	0	0	0	0	0	0	0	0	0	0	0	0	0	0	0	0	0	0	0	0	0	0	0	0	0	0	0
OTU 56	0	0	0	0	0	0	0	0	0	0	0	0	1	1	2	2	0	0	0	0	0	0	0	0	0	0	0	0	0	0	1	0	0	0	0	0	0	0	3	0	0	0	0	0	1	0	1	0	0	0
OTU 57	3	13	0	0	1	2	3	1	0	0	0	0	1	3	11	4	6	10	1	4	0	1	11	2	5	2	2	1	5	0	0	4	4	7	2	1	1	2	5	0	0	6	3	4	1	5	5	1	0	1
OTU 58	1	0	2	0	0	3	2	0	1	3	1	4	0	0	0	0	0	4	0	0	0	0	1	0	0	1	0	0	0	0	0	0	0	0	0	0	3	0	3	0	2	0	0	0	0	0	1	0	0	3
OTU 59	0	0	4	0	1	0	0	0	0	0	0	0	0	1	0	1	0	3	0	1	0	0	1	5	0	0	0	0	0	19	0	0	0	1	0	1	2	1	3	0	0	0	0	0	0	0	0	0	0	0
OTU 60	3	4	0	0	0	0	16	0	3	0	1	2	4	31	1	9	0	1	0	0	4	4	4	1	1	1	2	2	1	1	0	0	2	3	0	0	3	0	0	0	4	0	2	2	0	0	1	0	2	3
OTU 61	10	2	1	5	0	3	0	5	8	5	6	0	5	25	5	21	5	5	24	0	9	5	2	1	0	1	68	0	3	9	8	1	2	126	0	30	1	0	2	1	0	2	5	3	0	27	0	70	0	9
OTU 62	0	3	0	1	1	2	0	0	0	1	1	1	0	0	0	0	3	1	0	0	0	0	0	0	0	0	0	0	0	0	0	2	0	0	0	0	1	0	0	0	0	0	0	0	0	0	0	0	0	0
OTU 63	0	0	0	0	5	0	0	2	0	0	1	1	1	0	0	0	0	0	0	2	1	0	0	0	0	0	1	0	0	0	2	1	0	0	1	0	0	0	3	0	0	7	0	0	0	0	0	0	0	0
OTU 64	2	0	0	4	0	1	0	1	0	1	3	0	1	0	2	0	0	0	3	7	2	0	1	1	4	3	0	3	0	1	2	2	8	0	1	0	2	0	2	1	0	1	1	1	1	0	1	0	0	2
OTU 65	0	0	0	2	0	0	0	0	0	0	0	0	0	0	0	0	0	0	0	0	0	0	0	0	0	0	0	0	0	0	0	0	0	0	0	0	0	0	0	0	0	0	2	0	0	0	0	0	0	0
OTU 66	0	10	2	1	0	0	3	0	1	2	1	0	0	0	2	0	0	0	0	0	0	4	1	0	1	0	0	0	2	0	3	0	0	1	13	0	0	0	1	0	1	0	0	49	3	0	1	0	0	0
OTU 67	0	0	19	0	32	0	1	0	0	0	0	3	2	0	1	0	0	0	0	0	0	1	1	2	2	4	4	0	15	1	0	1	1	0	0	1	1	17	0	0	1	1	0	53	0	0	2	0	0	0
OTU 68	0	0	0	1	0	2	3	0	0	1	0	0	3	0	0	0	1	0	0	0	0	0	0	0	0	0	1	0	0	0	0	0	0	4	1	0	4	0	2	0	0	0	0	0	0	1	4	0	0	0
OTU 69	1	1	0	0	2	0	3	2	0	4	2	0	0	1	4	5	2	3	1	0	0	2	0	0	0	0	0	0	1	1	0	1	0	1	0	2	2	0	0	1	0	2	0	3	0	1	1	1	0	1
OTU 70	0	1	0	0	0	8	1	3	1	0	6	0	7	0	2	0	0	0	0	0	0	1	0	0	0	2	1	0	2	2	1	0	0	1	3	0	0	0	0	0	0	0	0	0	6	1	5	0	0	1
OTU 71	6	0	50	0	92	0	2	0	0	1	2	0	1	0	0	0	0	22	0	1	0	0	6	0	0	0	0	0	2	0	0	0	0	0	4	0	0	37	0	0	1	0	0	1	0	0	0	0	0	0
OTU 72	1	0	0	0	0	1	0	0	1	0	5	0	3	0	3	0	1	11	0	2	1	2	2	0	0	0	0	0	0	0	2	0	0	1	1	0	0	0	0	0	3	0	0	3	2	0	2	2	0	2
OTU 73	0	0	0	0	2	0	0	5	0	4	0	2	0	0	1	0	0	3	0	6	4	0	1	0	0	0	0	0	1	0	1	0	2	1	2	1	0	3	4	43	0	0	0	0	1	0	0	2	2	0
OTU 74	1	0	0	1	6	0	6	1	3	0	1	5	0	0	0	2	5	3	0	7	1	3	1	3	0	0	0	0	1	0	1	2	6	0	1	1	8	1	2	0	2	1	5	3	0	0	2	0	2	2
OTU 75	13	17	0	1	0	4	0	1	0	2	1	1	9	0	1	1	0	3	0	0	24	0	2	2	0	1	1	2	1	0	0	0	1	2	17	0	7	3	2	0	5	10	0	4	0	0	0	0	4	0
OTU 76	0	0	0	0	0	0	1	0	0	0	3	0	1	0	0	0	0	8	0	0	1	0	0	0	0	0	0	113	2	0	3	0	0	0	7	0	0	0	0	0	0	1	0	0	0	0	1	0	0	0
OTU 77	0	0	1	0	0	9	0	1	1	0	1	0	0	0	0	1	1	0	1	4	1	0	0	1	0	0	0	0	3	1	0	0	0	3	8	1	8	0	1	3	2	2	1	0	2	0	2	1	2	0
OTU 78	1	0	1	0	0	4	0	0	1	1	1	0	2	6	8	1	0	1	6	0	0	0	0	0	0	0	20	4	1	1	0	1	8	40	2	11	0	1	0	1	6	3	0	1	0	5	8	26	1	0
OTU 79	1	1	2	8	3	1	2	4	0	2	8	8	6	0	3	0	1	0	1	3	11	0	90	3	1	4	1	5	4	29	0	15	9	2	10	0	7	1	1	24	5	2	4	0	5	2	2	2	0	39
OTU 80	0	0	0	14	2	5	5	0	0	38	1	0	2	3	68	3	1	2	0	5	1	0	2	0	0	0	0	36	2	0	4	0	0	11	0	0	0	1	0	1	1	2	0	32	0	1	1	0	1	2
OTU 81	13	2	0	1	2	3	17	0	0	1	3	6	1	0	5	20	0	2	0	1	2	0	0	1	9	0	1	0	3	0	0	1	2	2	1	0	0	0	10	0	2	0	16	3	1	3	1	0	0	0
OTU 82	0	1	0	0	0	0	2	0	0	2	0	12	0	0	3	0	3	0	0	0	2	0	1	0	1	0	0	1	0	1	0	6	4	0	0	0	0	0	0	1	0	2	0	2	0	0	3	0	0	0
OTU 83	0	0	0	1	0	0	0	0	0	4	0	0	0	0	0	0	0	0	0	3	1	0	0	0	0	0	0	0	0	0	0	0	1	0	0	0	0	0	0	0	0	0	0	0	0	0	2	2	0	0
OTU 84	1	0	0	0	0	1	5	4	0	3	1	0	2	0	0	5	1	0	0	0	0	0	0	0	1	1	1	0	2	0	0	0	2	3	4	1	0	0	0	2	8	0	1	3	0	0	0	0	4	0
OTU 85	2	0	0	0	0	0	2	1	0	0	0	2	0	0	3	0	0	2	0	0	0	4	0	0	0	0	0	6	1	0	0	1	0	0	0	0	0	1	0	0	0	0	2	0	0	0	0	0	0	4
OTU 86	0	0	0	0	0	0	0	0	0	0	0	0	0	0	0	0	0	0	0	0	0	0	0	0	0	0	0	0	0	0	0	0	0	0	0	0	0	0	1	0	0	1	0	0	0	0	0	0	0	0
OTU 87	0	0	0	0	0	0	1	0	0	0	0	0	2	0	0	0	0	0	76	0	0	0	0	0	0	0	0	0	0	0	1	0	0	0	0	0	0	0	0	0	0	0	0	0	1	2	0	0	0	0
OTU 88	0	5	0	0	0	0	1	0	0	0	0	1	1	0	0	4	1	0	0	0	1	0	1	0	0	0	0	0	1	0	0	1	0	0	0	0	0	0	0	0	0	0	3	0	0	0	0	0	0	0
OTU 89	0	0	2	0	0	0	6	0	0	0	0	0	0	0	1	0	1	0	0	3	3	1	0	0	0	0	1	0	1	2	0	2	0	1	0	0	0	0	0	0	0	0	0	0	0	0	2	0	0	1
OTU 90	1	0	0	0	0	0	3	0	0	0	0	0	0	0	0	0	0	0	0	0	0	5	0	1	0	0	0	0	2	0	2	0	0	0	5	0	0	1	0	0	0	0	0	0	0	0	0	0	0	0
OTU 91	0	5	0	0	0	2	0	0	0	0	0	0	0	0	0	0	0	0	0	0	0	0	0	0	0	0	0	0	0	0	0	0	1	0	0	0	0	0	0	0	0	0	0	0	2	2	0	0	0	0
OTU 92	0	0	0	0	0	0	2	0	0	0	0	0	0	0	0	0	0	0	0	0	0	0	0	0	0	0	0	0	0	0	0	45	0	0	0	0	0	0	0	0	0	2	0	0	0	0	4	0	0	4
OTU 93	1	0	0	0	0	0	1	0	0	0	0	0	0	0	0	9	0	0	0	0	0	0	0	0	0	0	0	0	0	0	2	0	0	0	0	0	0	0	0	0	0	0	0	0	0	0	0	0	0	0
OTU 94	4	0	5	2	13	13	4	1	0	1	1	0	5	0	12	0	2	2	0	0	0	3	0	1	0	1	2	4	0	1	1	5	18	11	4	0	3	1	19	4	6	7	0	1	4	0	1	1	3	0
OTU 95	0	3	0	0	0	0	3	2	0	3	0	0	0	0	2	0	0	0	0	3	0	0	0	1	0	0	1	0	0	0	0	0	3	0	0	0	0	0	0	0	0	0	0	0	0	0	0	0	0	0
OTU 96	2	0	0	0	0	0	0	0	0	0	0	0	0	0	0	0	0	0	0	0	0	0	0	0	0	0	1	0	0	0	0	0	0	0	0	0	0	0	0	0	0	0	0	0	0	0	0	0	0	0
OTU 97	0	0	1	0	0	0	0	0	0	0	0	0	0	0	0	0	0	0	0	0	0	1	0	1	0	0	0	0	0	0	1	0	0	0	0	0	3	0	0	0	0	0	0	0	0	0	0	0	0	0
OTU 98	0	0	0	2	1	0	0	2	0	0	0	0	9	0	0	1	3	0	0	0	0	0	0	9	0	2	0	0	8	0	4	0	0	1	0	0	18	0	3	0	0	0	0	0	1	0	0	0	0	0
OTU 99	46	1	0	0	1	2	3	0	0	1	2	0	11	110	2	2	0	0	0	0	12	6	0	2	3	0	2	0	1	1	0	1	11	1	10	0	2	1	13	1	1	2	0	1	0	0	2	3	0	3
OTU 100	4	1	87	2	1	2	0	0	0	0	0	1	3	3	0	6	2	4	1	0	6	0	0	0	0	0	0	0	3	0	1	0	6	2	0	4	1	0	0	0	0	1	0	0	0	4	2	5	0	0
OTU 101	0	0	0	0	0	0	0	0	2	0	0	0	0	0	0	0	0	0	0	0	0	0	0	0	0	0	0	0	0	0	1	0	0	0	2	0	0	0	0	0	0	0	0	0	0	0	0	0	0	1
OTU 102	1	0	0	0	0	0	1	0	0	0	0	1	0	0	0	1	0	0	0	3	0	0	0	3	0	0	0	0	0	0	0	2	1	0	0	0	6	0	0	0	0	2	0	0	0	1	0	1	0	0
OTU 103	0	1	4	1	0	0	6	1	0	1	0	0	2	1	0	0	0	0	0	1	5	0	0	0	0	0	2	0	0	0	2	0	0	0	0	0	3	0	2	0	5	0	0	0	0	1	0	2	2	0
OTU 104	2	0	0	2	1	2	1	2	0	0	3	1	0	1	0	0	0	2	1	9	5	0	1	3	1	1	7	0	1	0	0	4	2	4	0	0	0	0	3	3	0	0	0	0	2	0	3	0	0	0
OTU 105	1	0	0	0	0	0	3	0	0	0	0	1	0	0	0	2	0	0	0	0	1	0	0	0	0	0	0	0	0	0	0	0	0	0	0	0	0	0	0	0	0	0	0	0	0	0	0	0	0	0
OTU 106	2	0	0	1	0	0	5	0	0	0	0	2	1	0	0	0	0	3	0	1	2	0	84	0	0	0	0	0	0	0	0	0	0	0	0	0	0	0	17	0	8	0	0	1	0	0	3	0	0	0
OTU 107	0	100	0	0	0	4	0	1	0	0	0	0	0	0	0	0	0	0	0	0	0	0	0	0	1	0	0	0	0	1	0	0	0	0	1	0	1	0	1	0	1	0	0	1	1	0	0	0	0	0
OTU 108	1	3	2	0	0	8	1	0	0	0	0	0	2	0	0	0	0	0	0	1	0	1	1	0	0	0	0	0	4	0	0	2	0	2	1	0	0	0	0	1	0	0	0	0	3	0	3	0	0	0
OTU 109	0	0	0	0	0	0	0	0	0	0	0	0	0	0	0	0	0	0	0	0	1	0	0	0	0	0	0	0	0	0	0	0	0	0	0	0	0	0	0	0	0	0	0	0	0	0	0	0	0	0
OTU 110	0	5	5	0	5	4	6	3	3	0	1	1	1	0	1	0	0	3	1	1	0	3	0	4	2	3	1	0	0	0	4	2	0	0	0	0	0	0	4	1	0	0	0	0	2	0	0	0	0	1
OTU 111	0	0	0	0	1	0	0	0	0	0	0	1	1	0	0	0	0	1	11	0	0	0	0	0	0	0	3	0	0	0	0	0	0	0	0	32	0	0	0	0	0	0	0	0	0	0	0	1	0	0
OTU 112	0	0	0	0	2	0	0	1	1	0	1	0	5	1	4	1	0	0	0	0	1	18	0	0	2	0	0	2	0	0	2	0	2	0	0	0	0	0	0	0	0	0	0	2	2	0	1	0	0	0
OTU 113	0	0	0	0	0	0	0	0	0	0	0	0	0	0	0	0	0	0	0	0	0	0	2	0	1	0	0	0	0	1	0	0	0	0	0	0	0	0	1	0	0	0	0	0	0	0	0	0	0	0
OTU 114	3	0	1	4	0	2	0	6	0	3	5	1	7	3	5	0	1	4	0	3	1	4	0	0	0	1	18	0	0	3	8	0	3	0	7	0	3	1	0	2	3	1	0	3	3	0	0	0	5	3
OTU 115	4	2	2	1	3	1	0	0	2	6	4	7	0	0	4	1	2	23	1	36	0	1	6	1	2	1	1	17	1	4	3	1	8	0	0	6	3	0	58	1	2	0	0	1	1	4	47	11	142	6
OTU 116	1	14	7	0	0	1	8	1	1	0	2	1	2	0	1	1	0	3	0	0	1	0	0	4	1	2	0	0	0	0	1	0	1	0	2	0	14	0	0	12	0	0	0	0	1	0	0	2	0	0
OTU 117	0	1	1	0	11	0	0	14	2	0	0	1	1	0	0	0	78	7	0	1	3	10	0	0	0	1	2	0	0	0	18	1	1	0	0	0	1	0	0	1	4	3	0	1	0	1	1	0	1	0
OTU 118	0	2	1	1	0	0	0	1	0	0	0	2	0	0	0	0	0	1	0	0	0	0	0	0	0	0	0	0	0	0	0	0	0	0	0	0	0	0	0	0	0	0	0	0	0	0	0	1	0	0
OTU 119	1	0	1	1	1	7	1	18	0	0	9	0	0	0	0	0	0	0	84	3	0	0	1	1	0	13	0	0	1	1	0	1	13	0	3	0	4	1	1	2	0	1	2	0	2	4	4	8	0	0
OTU 120	0	0	0	0	0	0	4	0	0	0	0	0	0	0	0	0	0	0	0	0	1	0	0	0	0	0	0	0	0	0	0	0	0	0	0	0	0	0	0	0	3	0	0	1	0	0	0	0	0	0
OTU 121	0	0	0	1	0	4	0	1	0	5	0	1	0	0	2	2	0	0	0	0	0	0	2	0	4	0	0	0	0	0	0	3	1	1	0	0	3	0	1	0	2	1	125	0	2	2	1	0	1	2
OTU 122	0	0	39	0	34	8	3	0	0	3	0	1	7	3	0	0	104	3	0	6	0	1	0	2	0	189	1	0	1	0	0	0	3	0	0	0	2	18	0	0	0	65	0	1	2	0	1	1	0	1
OTU 123	5	10	5	3	4	2	2	1	5	2	3	1	4	5	6	10	5	9	1	4	5	0	1	20	1	2	6	4	6	2	6	5	8	5	9	1	14	2	6	2	5	0	5	0	1	6	5	8	3	2
OTU 124	12	0	0	0	2	2	0	1	0	0	1	0	0	0	0	26	0	0	0	0	0	0	0	0	0	0	0	0	1	1	0	1	0	0	0	0	0	0	0	0	0	0	10	0	0	0	0	0	5	0
OTU 125	26	8	0	2	3	8	11	6	1	9	2	2	3	35	1	8	5	8	0	7	17	0	3	2	22	2	39	2	4	3	2	23	11	4	4	7	2	3	5	14	0	1	3	4	5	5	10	8	0	10
OTU 126	0	0	0	0	1	5	0	2	0	0	0	1	0	2	0	0	0	0	0	0	0	0	0	0	0	0	0	0	0	0	0	0	0	0	3	0	0	2	0	0	1	0	0	0	4	0	0	0	0	1
OTU 127	1	0	0	0	0	1	0	0	0	1	0	0	2	0	0	0	0	1	0	0	2	4	1	0	0	0	1	0	84	0	3	0	1	0	0	0	1	0	0	0	3	2	0	0	2	1	0	1	1	0
OTU 128	1	1	3	10	14	7	7	7	1	2	2	3	2	3	2	5	26	16	0	3	3	1	4	5	4	2	3	0	7	23	6	2	22	7	27	0	3	7	5	2	7	5	4	0	1	52	6	1	2	42
OTU 129	0	0	0	0	0	0	0	0	0	1	0	0	0	0	0	0	0	0	0	0	0	0	0	0	0	0	0	0	0	0	0	2	0	0	0	0	0	0	0	3	0	0	0	0	0	0	0	0	0	0
OTU 130	0	0	0	0	0	11	2	0	0	0	4	0	0	0	0	0	1	2	0	4	1	0	26	0	0	0	0	0	0	0	0	0	5	0	5	1	0	1	1	0	0	0	2	0	4	0	0	0	0	0
OTU 131	0	0	0	17	1	0	0	1	0	0	0	0	0	0	1	1	0	10	0	1	4	0	1	8	0	0	0	0	0	0	0	0	4	0	1	0	4	0	4	0	3	4	9	0	0	0	4	0	2	1
OTU 132	23	0	0	0	0	0	0	0	0	0	0	1	0	0	0	0	1	0	0	0	0	0	1	0	0	0	0	0	4	0	0	4	0	1	0	0	0	0	0	1	0	0	0	0	0	0	0	1	0	0
OTU 133	0	0	0	0	0	0	0	0	0	0	0	0	0	0	0	0	0	2	0	3	0	0	0	0	0	0	0	0	3	0	0	0	0	0	0	0	0	0	0	0	0	0	0	0	0	0	0	0	0	0
OTU 134	0	0	0	1	0	0	1	1	0	2	1	2	3	12	2	0	0	1	1	0	3	5	1	1	0	1	0	0	3	0	12	0	3	0	0	0	4	0	0	0	2	0	1	1	1	0	3	1	2	0
OTU 135	0	0	15	1	0	1	0	7	1	18	3	0	93	1	3	1	5	3	0	0	3	3	0	1	0	4	6	1	3	4	4	7	0	4	5	4	0	0	0	5	2	2	1	0	0	2	1	3	2	3
OTU 136	7	2	0	0	0	0	0	0	0	10	0	1	0	0	9	4	0	3	3	0	0	0	1	0	0	0	0	3	0	1	2	0	1	2	0	3	2	0	0	0	5	0	0	3	0	1	1	6	0	1
OTU 137	0	0	0	0	0	0	2	0	0	2	0	0	0	0	0	0	0	0	0	0	0	1	0	3	0	0	0	0	0	0	0	0	1	0	0	0	7	131	0	0	0	0	0	0	0	0	0	0	0	0
OTU 138	2	0	0	0	0	0	1	4	0	0	0	0	1	1	0	2	0	2	0	2	0	3	0	0	0	1	1	0	1	1	5	0	0	0	0	0	0	0	9	1	0	0	0	2	0	0	4	0	0	2
OTU 139	1	0	8	0	16	1	1	0	4	1	0	5	21	0	0	0	1	3	0	7	10	3	0	3	3	1	0	0	3	1	5	0	0	4	2	1	4	13	10	4	1	25	1	0	0	1	9	1	21	0
OTU 140	2	5	5	4	4	0	26	3	29	10	2	9	13	0	0	2	1	6	0	1	8	2	0	9	3	0	2	2	0	1	0	0	34	4	9	0	12	2	6	1	6	4	4	0	2	0	1	1	2	3
OTU 141	0	0	0	0	0	0	0	0	0	0	0	0	0	0	0	0	0	0	0	0	6	0	0	0	0	0	0	0	0	0	0	0	0	0	1	0	0	0	0	0	0	0	0	1	0	0	0	0	0	0
OTU 142	0	0	0	0	0	0	0	0	0	0	0	0	0	0	0	0	0	0	0	0	0	0	0	0	0	0	0	0	0	0	0	0	0	0	0	0	0	0	0	0	0	0	0	0	0	0	0	0	0	0
OTU 143	0	0	5	0	14	0	0	1	0	0	8	2	0	0	0	0	0	4	0	0	1	0	0	0	1	0	0	0	1	0	0	0	1	2	1	3	0	5	0	0	0	21	0	0	1	0	0	2	0	5
OTU 144	0	0	0	3	0	0	2	1	0	0	1	1	0	0	0	0	0	0	19	0	0	0	0	0	0	0	0	0	0	0	2	0	0	0	0	0	2	0	0	0	0	0	0	0	0	0	2	0	0	0
OTU 145	1	4	0	0	1	0	3	1	0	1	4	0	0	8	0	0	0	1	1	6	4	0	0	1	3	0	22	0	0	4	0	0	0	2	0	9	0	0	5	0	1	11	0	0	4	3	1	0	0	3
OTU 146	0	3	0	0	0	0	2	0	0	0	0	11	0	1	3	0	4	0	0	8	1	0	4	4	2	0	4	0	1	59	0	2	0	0	3	0	8	0	0	0	0	102	1	0	1	0	2	0	1	0
OTU 147	0	0	0	0	0	2	1	0	0	0	0	0	0	0	0	0	0	0	0	0	1	0	1	0	4	0	0	0	0	0	0	0	2	5	0	4	2	0	0	0	0	1	2	0	0	0	1	2	0	0
OTU 148	1	0	0	1	0	1	4	0	0	0	3	0	5	0	0	1	0	0	0	3	0	0	0	0	0	0	0	2	0	0	0	0	8	0	1	2	3	0	1	1	0	1	2	0	1	0	0	0	0	1
OTU 149	0	0	0	0	0	0	4	35	0	0	2	1	0	0	0	0	0	0	0	2	0	0	0	0	0	11	0	0	0	0	0	1	0	0	0	1	0	0	0	0	0	1	0	0	0	0	5	0	1	4
OTU 150	0	0	0	0	0	0	0	1	0	0	0	0	0	0	0	2	0	0	0	1	1	0	0	0	0	1	0	0	0	0	0	0	0	0	0	0	0	0	0	1	2	0	0	0	0	0	0	0	4	0
OTU 151	2	5	0	2	1	9	2	0	0	0	2	0	0	0	0	2	0	0	0	1	2	0	0	3	1	0	0	0	1	0	9	0	0	0	0	2	0	0	1	0	1	1	4	0	1	2	1	0	0	0
OTU 152	8	1	2	0	0	3	0	7	1	0	0	0	2	2	1	0	2	61	0	1	1	1	1	0	0	0	0	0	11	0	5	0	0	0	4	2	0	0	0	1	0	8	5	1	0	0	2	9	0	0
OTU 153	1	0	0	0	0	0	0	0	0	0	0	0	0	0	0	0	0	0	0	0	0	0	0	0	0	0	0	0	3	0	0	0	0	0	0	0	0	0	0	0	0	0	0	0	0	0	0	0	0	0
OTU 154	1	0	0	0	0	0	0	0	0	0	0	0	0	2	2	0	0	0	0	0	0	0	0	0	0	0	0	0	0	0	0	0	0	0	0	0	0	0	0	1	0	0	0	1	0	0	0	0	0	0
OTU 155	1	5	1	0	0	1	0	2	0	1	0	0	0	0	0	0	0	3	0	0	11	0	3	0	0	0	0	0	0	0	2	0	0	0	2	1	0	0	0	0	0	1	0	0	0	2	1	0	1	0
OTU 156	51	1	4	3	1	2	1	73	0	2	2	0	1	0	0	113	1	0	0	0	2	0	0	73	0	45	0	0	2	0	1	0	0	3	5	0	1	2	0	1	0	6	83	0	40	0	1	0	1	0
OTU 157	0	0	0	0	0	17	0	0	0	0	0	1	0	0	0	0	0	0	0	0	0	0	0	1	0	0	0	0	0	26	2	0	0	0	3	2	0	0	3	0	6	1	0	0	12	1	1	4	0	71
OTU 158	0	0	0	0	0	0	0	0	0	0	0	0	0	0	0	0	0	0	0	0	0	0	0	0	0	0	0	0	0	0	0	0	3	0	0	0	0	0	0	0	2	0	0	0	0	0	0	0	0	0
OTU 159	0	0	0	0	1	1	1	1	0	1	1	3	1	0	0	0	0	2	0	4	2	0	0	0	0	3	1	0	0	18	0	1	0	1	1	0	2	0	8	1	5	2	0	2	0	0	5	0	0	0
OTU 160	0	10	4	1	8	4	10	1	1	6	2	1	8	1	2	1	0	21	1	0	1	4	0	19	0	1	3	2	6	0	0	0	1	1	0	1	29	0	37	2	2	0	0	1	1	1	12	3	0	0
OTU 161	0	1	0	20	0	0	0	1	0	23	9	2	5	0	50	0	0	0	0	0	12	0	16	0	0	0	0	31	8	27	0	6	1	1	1	1	1	0	0	6	68	0	12	20	36	0	77	0	32	51
OTU 162	8	0	0	0	0	4	15	1	3	0	0	2	0	0	1	1	0	1	0	0	0	0	0	2	0	1	1	0	0	2	3	1	0	10	1	1	5	0	2	1	2	0	0	0	2	0	5	0	1	2
OTU 163	0	0	0	0	0	0	0	0	0	0	0	0	2	0	0	0	0	0	0	0	0	0	0	0	0	0	0	0	0	0	0	0	0	0	0	0	0	0	0	0	0	0	0	0	0	0	0	0	0	0
OTU 164	0	0	0	0	0	0	0	0	0	0	0	2	0	0	0	0	0	0	0	0	0	0	0	0	0	0	0	0	3	0	0	0	3	0	0	0	0	0	0	0	0	1	0	0	0	0	1	0	0	0
OTU 165	0	0	1	0	0	6	7	0	43	0	6	0	0	0	0	0	0	0	0	5	1	77	0	0	0	0	1	0	0	0	0	0	4	0	5	0	0	0	0	0	0	0	0	0	4	0	2	0	2	0
OTU 166	0	0	0	0	0	0	0	0	0	0	0	0	0	0	0	0	0	0	0	0	0	0	0	0	0	0	0	0	0	0	0	0	0	0	0	0	0	0	0	0	0	0	0	1	0	0	0	0	0	0
OTU 167	0	0	1	2	1	0	0	2	1	0	2	46	0	1	0	0	0	1	0	1	0	2	1	1	0	0	0	0	0	0	2	24	1	0	0	0	0	2	0	19	2	0	0	0	0	4	1	0	27	0
OTU 168	0	5	0	0	2	10	0	2	0	1	3	0	3	0	0	0	0	0	1	0	0	0	0	0	0	0	0	0	0	1	1	0	0	0	0	0	0	0	8	0	0	1	0	2	3	1	1	0	0	1
OTU 169	0	0	0	0	0	0	0	0	0	0	89	0	0	0	0	0	0	0	0	2	0	0	0	0	0	0	0	0	1	0	5	0	0	0	0	0	0	0	5	0	0	0	0	0	0	0	0	0	0	0
OTU 170	0	0	0	0	0	0	0	0	0	1	0	0	0	0	0	0	0	0	0	0	0	0	0	1	0	0	0	0	0	0	0	0	0	1	0	0	2	0	0	0	0	0	0	0	0	0	0	0	0	0
OTU 171	0	0	0	0	1	0	2	0	0	0	2	6	1	0	4	0	0	3	0	0	0	1	2	0	0	0	0	1	1	2	1	0	0	5	2	1	4	0	0	0	60	0	0	49	0	1	0	3	38	1
OTU 172	3	0	0	0	0	0	0	0	0	0	0	0	0	0	0	0	0	0	1	0	0	0	0	0	0	0	0	0	0	0	0	0	1	0	0	0	0	0	0	0	0	0	0	0	0	0	0	2	0	0
OTU 173	0	0	0	0	0	0	1	0	0	0	6	0	0	0	0	0	0	0	0	1	1	1	2	0	0	1	0	0	1	0	0	0	2	0	0	0	0	0	0	0	0	0	0	0	0	0	0	1	0	1
OTU 174	0	0	0	0	0	1	0	3	1	0	1	0	4	0	0	5	0	0	0	0	0	0	0	0	0	1	0	0	3	0	0	0	1	0	1	0	0	0	1	0	0	0	0	1	1	0	0	1	0	1
OTU 175	0	0	0	0	0	0	0	1	1	0	1	1	0	0	0	4	0	0	0	0	0	2	1	0	0	0	0	0	5	1	1	1	1	2	0	0	0	0	0	0	0	0	0	0	0	0	0	0	0	0
OTU 176	1	0	1	1	0	0	13	1	0	0	2	0	1	0	3	0	0	1	0	6	7	1	1	0	128	0	0	6	1	1	2	0	0	3	4	0	1	0	0	0	1	1	2	2	1	31	5	0	0	1
OTU 177	1	0	0	1	6	2	0	1	1	0	7	1	1	0	0	1	0	0	0	3	0	0	1	6	0	0	1	1	0	0	0	0	0	0	1	0	3	1	1	0	0	5	0	0	2	1	4	0	0	1
OTU 178	0	7	0	2	2	0	3	0	0	0	0	0	0	0	1	0	0	0	0	1	2	0	0	1	2	0	0	2	0	0	0	0	2	0	2	0	5	0	0	0	0	3	0	0	1	0	2	1	0	0
OTU 179	0	1	0	0	1	0	0	0	0	0	2	0	0	0	0	0	0	0	2	0	0	0	1	0	1	0	0	4	0	0	2	1	6	0	1	0	0	2	0	1	0	0	1	2	0	0	1	2	0	0
OTU 180	5	5	1	67	5	8	5	1	2	133	4	3	6	2	1	5	5	2	1	3	18	2	1	3	88	1	4	3	4	0	2	99	1	1	10	0	3	4	6	2	0	7	0	1	2	3	0	1	0	0
OTU 181	1	0	0	0	0	2	1	1	0	0	0	1	0	0	0	3	0	1	0	1	1	1	0	3	0	1	0	2	1	0	1	0	0	0	0	0	6	0	1	1	2	2	0	0	0	2	0	0	1	0
OTU 182	0	0	0	0	1	0	7	0	0	2	0	0	0	0	0	0	0	0	0	0	0	0	0	0	0	0	0	0	0	0	0	0	1	0	0	0	0	0	0	0	0	1	0	0	0	0	0	0	0	0
OTU 183	0	0	1	0	2	0	1	4	0	0	0	16	0	0	0	0	0	8	1	1	0	0	0	0	0	1	0	0	0	0	0	0	0	0	2	0	2	0	6	1	0	0	0	2	0	4	36	1	0	0
OTU 184	6	4	0	0	0	0	5	7	2	0	0	2	0	0	0	0	2	0	0	0	0	2	0	1	0	6	0	0	0	0	0	0	0	0	0	1	0	0	0	0	0	0	1	1	86	0	0	3	0	1
OTU 185	0	1	0	0	1	2	3	1	1	0	3	4	1	0	0	2	9	6	0	0	2	3	0	1	1	1	4	0	13	1	1	0	4	5	1	0	2	0	0	1	1	1	2	0	1	0	0	0	0	0
OTU 186	0	2	0	0	0	0	0	0	0	0	0	86	1	0	2	0	0	0	0	0	0	0	0	2	0	0	0	0	9	0	0	0	0	0	6	0	3	0	0	0	0	1	0	0	1	0	9	0	0	0
OTU 187	3	11	2	1	5	4	1	6	24	2	6	6	0	1	0	0	8	2	45	1	7	72	0	3	1	0	0	0	0	0	0	0	8	1	0	84	7	4	1	1	0	0	0	0	4	1	1	2	0	3
OTU 188	5	0	21	8	8	13	5	7	1	7	0	1	4	1	9	5	3	2	4	5	2	5	12	2	5	5	5	4	12	9	4	16	3	3	1	5	2	7	4	20	12	0	2	4	9	2	3	7	5	10
OTU 189	0	2	0	0	0	0	0	0	4	0	0	10	14	48	5	2	0	0	2	3	1	0	6	1	1	0	2	0	4	1	3	0	0	0	24	0	4	1	1	0	3	1	2	0	0	1	1	4	1	3
OTU 190	0	0	0	1	0	0	0	0	0	0	7	0	0	1	0	0	0	0	0	2	0	0	0	0	7	0	0	0	0	0	0	0	0	0	0	0	0	0	0	0	0	0	0	0	0	0	0	0	0	1
OTU 191	0	5	4	1	1	1	0	0	2	0	2	0	1	0	0	4	0	1	1	2	0	2	3	1	0	0	1	0	0	0	0	0	14	1	5	0	0	2	0	0	0	1	6	1	2	1	1	8	0	0
OTU 192	5	2	0	2	2	1	6	1	0	1	6	0	6	0	4	1	0	0	0	3	0	0	2	5	3	2	3	1	1	0	2	24	6	2	6	0	7	0	5	3	0	0	0	0	0	0	0	0	0	0
OTU 193	0	4	9	0	1	1	1	3	1	0	0	0	0	4	1	0	0	0	7	4	4	0	0	3	0	1	5	0	0	0	1	1	9	0	2	26	2	2	0	0	3	1	2	0	1	0	0	6	1	1
OTU 194	2	1	0	0	0	8	1	0	0	0	0	0	3	0	0	1	0	3	0	0	0	2	0	4	0	0	0	0	0	0	0	0	8	1	3	1	5	2	1	0	0	0	0	1	4	0	0	0	0	0
OTU 195	2	1	0	17	0	1	0	3	2	9	1	0	0	0	70	0	0	0	0	0	3	0	0	0	0	1	0	31	1	0	3	0	1	0	0	0	0	0	0	0	0	1	7	27	0	0	4	0	0	0
OTU 196	3	1	0	0	2	0	0	0	0	0	1	0	3	0	0	6	0	0	0	1	1	0	0	1	0	0	0	0	0	4	0	2	3	0	4	0	0	0	8	0	2	0	2	0	0	0	1	1	0	3
OTU 197	0	2	1	1	0	9	0	1	3	0	4	13	3	0	0	9	1	9	1	6	1	3	3	2	2	2	4	5	0	2	1	1	8	2	25	1	0	0	4	3	51	0	0	1	2	5	5	3	29	6
OTU 198	0	0	0	0	0	0	0	0	0	0	5	0	0	0	0	0	0	2	0	0	0	0	0	0	0	0	1	2	0	1	0	0	0	0	0	1	0	0	0	0	1	0	0	0	1	0	0	2	0	0
OTU 199	0	10	0	3	0	0	1	5	1	0	0	5	0	1	0	0	0	0	0	0	0	0	0	1	0	4	1	1	0	0	1	0	0	0	0	0	1	0	0	0	0	0	0	0	0	0	0	2	0	0
OTU 200	0	2	0	0	1	1	1	0	0	1	0	1	0	0	0	0	0	0	0	0	1	0	0	1	1	1	0	0	0	1	2	1	4	0	0	0	3	0	0	3	0	0	2	1	1	0	1	0	0	1
