	Host 1	Host 2	Host 3	Host 4	Host 5	Host 6	Host 7	Host 8	Host 9	Host 10	Host 11	Host 12	Host 13	Host 14	Host 15	Host 16	Host 17	Host 18	Host 19	Host 20	Host 21	Host 22	Host 23	Host 24	Host 25	Host 26	Host 27	Host 28	Host 29	Host 30	Host 31	Host 32	Host 33	Host 34	Host 35	Host 36	Host 37	Host 38	Host 39	Host 40	Host 41	Host 42	Host 43	Host 44	Host 45	Host 46	Host 47	Host 48	Host 49	Host 50	
OTU 1	3	0	0	8	12	2	0	8	1	0	5	0	0	7	4	11	3	0	0	0	0	2	0	0	2	4	16	9	4	3	1	14	0	5	0	3	4	6	4	7	15	7	7	16	1	4	1	9	1	13
OTU 2	0	1	0	1	1	0	2	0	1	1	0	0	0	0	0	0	0	0	0	0	8	1	0	84	1	0	0	1	0	0	3	0	0	1	1	0	0	1	0	0	0	0	0	0	0	0	1	1	0	0
OTU 3	0	0	0	0	1	0	0	0	0	0	0	0	0	0	1	0	0	0	0	0	0	1	0	0	0	0	0	0	0	0	1	0	0	1	0	0	0	0	0	2	5	0	1	0	0	0	1	0	3	1
OTU 4	0	0	0	0	0	0	0	0	0	0	0	0	0	0	0	0	0	0	0	0	0	0	0	0	0	0	0	0	0	0	0	0	0	0	0	0	0	0	0	0	0	0	0	0	0	0	0	0	0	0
OTU 5	68	19	7	1	0	34	36	36	30	3	0	21	11	16	0	1	0	18	15	5	2	20	10	9	21	6	60	8	1	39	32	15	0	23	0	21	28	56	13	9	0	0	5	26	16	8	13	11	14	2
OTU 6	0	1	0	0	0	0	0	0	4	0	4	0	2	0	0	0	0	3	1	0	0	10	0	0	0	0	2	0	0	1	30	2	0	0	0	0	6	0	1	0	1	0	0	0	36	0	3	0	3	3
OTU 7	1	2	0	2	18	0	0	4	2	0	15	4	0	98	13	1	8	0	0	11	0	0	14	37	1	0	3	9	5	0	2	2	2	9	22	0	9	0	1	9	1	4	0	6	5	9	0	5	1	3
OTU 8	0	8	37	64	0	0	17	3	2	10	2	40	1	2	1	3	0	2	0	11	0	5	3	1	0	3	1	1	1	1	7	3	13	0	0	0	6	1	0	1	0	4	0	1	1	10	1	5	1	0
OTU 9	0	0	0	0	1	0	0	0	0	1	2	0	1	2	1	0	0	0	0	0	3	0	0	0	0	0	0	1	0	0	1	0	0	0	0	0	0	0	0	94	0	1	0	0	0	0	0	0	0	0
OTU 10	0	2	0	0	3	0	0	0	0	1	4	0	0	0	2	0	0	0	0	0	3	0	2	0	0	0	3	0	1	1	0	0	0	0	0	0	0	2	1	1	0	0	0	0	0	0	0	0	0	2
OTU 11	0	0	1	2	0	3	1	2	1	3	2	0	1	0	0	1	2	2	0	5	2	1	0	3	1	0	4	1	1	2	1	2	1	2	11	1	6	0	1	0	0	0	2	1	0	1	0	1	0	4
OTU 12	1	1	4	4	2	1	1	3	0	3	0	2	1	0	0	1	2	3	0	3	9	4	2	2	2	2	3	3	0	0	0	0	2	3	4	0	3	0	0	1	0	0	0	1	1	3	3	2	0	2
OTU 13	0	0	0	0	0	0	0	0	0	0	0	0	0	0	0	0	0	0	0	0	0	0	0	0	0	0	0	0	0	0	0	0	0	0	0	0	0	0	0	0	1	0	0	0	0	0	0	1	0	0
OTU 14	0	0	0	1	1	0	5	0	0	1	5	0	1	0	1	0	0	3	0	0	0	1	0	0	0	0	0	0	2	0	2	5	2	1	1	0	1	0	3	0	0	0	0	0	2	0	4	0	0	0
OTU 15	0	0	0	0	0	0	2	0	0	0	0	0	0	0	0	0	0	0	0	0	0	0	0	0	0	0	0	0	0	0	0	0	0	0	0	0	0	0	0	0	0	0	0	0	0	0	1	0	0	0
OTU 16	0	0	0	0	0	0	0	0	0	0	0	0	0	0	0	0	0	0	0	0	0	0	0	0	0	0	0	0	0	0	0	0	0	0	0	0	0	0	0	0	0	0	0	0	0	0	0	0	0	0
OTU 17	0	2	0	0	1	0	1	0	3	0	2	0	2	1	0	1	0	0	0	4	0	0	0	0	0	0	0	0	0	1	0	1	2	0	19	0	0	0	0	0	0	1	0	0	1	0	1	0	2	0
OTU 18	0	1	0	0	0	0	1	4	0	0	3	1	0	0	1	0	0	4	0	2	12	0	0	0	0	0	1	3	0	0	0	2	4	3	0	1	1	3	1	2	1	3	2	0	0	0	0	0	0	1
OTU 19	0	0	2	0	0	0	0	0	0	0	0	0	0	0	2	0	0	0	0	0	0	0	0	0	0	0	0	0	1	0	0	0	0	0	0	0	0	0	0	0	0	0	0	0	0	0	0	0	0	0
OTU 20	0	3	0	3	3	2	2	1	0	0	8	0	2	1	2	2	2	3	2	1	0	0	0	0	0	1	0	1	0	3	1	0	0	0	1	0	1	1	0	0	0	1	0	1	1	0	0	4	0	0
OTU 21	1	0	8	4	1	3	2	3	0	0	6	3	9	1	9	1	3	0	2	2	0	3	8	3	5	1	5	2	3	0	1	1	0	5	0	5	3	0	1	5	6	1	4	0	9	23	5	8	6	10
OTU 22	0	6	0	0	0	0	4	3	0	0	0	0	6	3	4	2	2	0	0	52	1	1	0	1	1	1	0	1	7	2	3	0	0	0	1	0	10	1	0	0	2	2	1	3	0	1	0	0	0	5
OTU 23	0	1	1	1	2	0	1	0	94	4	0	1	2	0	1	0	0	1	0	1	0	0	2	1	5	0	0	0	0	0	0	1	0	4	0	0	0	0	6	0	1	0	0	0	0	0	1	0	0	0
OTU 24	1	0	0	0	0	0	6	0	0	0	12	0	0	0	0	0	0	1	0	0	0	0	0	0	0	1	0	0	0	0	0	2	0	0	2	6	0	0	0	0	1	0	0	0	0	0	0	0	0	0
OTU 25	0	0	0	1	0	0	0	0	0	0	0	0	0	0	0	0	0	0	0	0	0	0	1	0	0	0	0	0	0	0	0	0	0	0	0	0	0	0	0	0	0	0	0	0	0	0	0	0	0	0
OTU 26	0	0	0	0	0	0	2	0	0	0	0	0	1	0	0	0	0	0	0	0	0	0	0	0	0	0	0	0	0	0	1	0	1	0	0	0	0	0	0	0	0	0	0	0	1	0	0	0	0	0
OTU 27	0	0	0	0	0	0	0	0	0	0	1	0	0	0	0	0	2	0	0	0	0	0	0	0	0	0	0	0	0	0	0	0	0	0	0	0	0	0	0	0	0	0	0	0	0	0	0	0	0	0
OTU 28	0	0	2	0	1	1	2	3	32	0	0	0	3	0	5	3	0	7	0	0	0	0	2	2	0	1	1	1	0	3	8	0	1	2	3	1	0	2	1	0	2	2	2	5	1	0	0	0	0	0
OTU 29	5	2	7	53	1	1	1	0	4	6	3	26	3	0	24	1	3	4	3	0	0	8	7	4	10	9	2	12	8	2	8	4	2	3	5	4	0	1	0	3	13	1	5	0	4	7	5	4	11	1
OTU 30	0	0	0	0	0	0	0	0	0	0	0	0	0	0	0	0	0	0	0	0	0	0	0	0	0	0	0	0	0	0	0	0	0	0	0	0	0	0	0	0	0	0	1	0	0	0	0	0	0	0
OTU 31	0	0	0	0	0	1	4	0	0	0	0	0	0	0	1	0	46	0	0	0	0	0	0	33	2	0	1	0	2	38	1	1	3	0	0	0	1	0	0	0	0	0	0	0	0	0	0	0	0	0
OTU 32	0	2	3	1	1	1	1	0	17	1	6	1	0	0	2	1	1	3	29	2	5	40	1	0	1	9	0	1	1	1	50	4	0	0	8	46	2	0	0	0	1	0	0	5	0	107	17	100	0	2
OTU 33	0	0	2	0	0	0	0	0	0	0	0	0	0	0	0	4	0	0	0	0	0	0	0	1	0	0	0	0	0	0	0	0	0	0	0	0	0	0	0	0	0	0	0	0	0	0	0	0	0	0
OTU 34	1	3	2	1	4	0	2	0	2	0	3	0	12	2	2	11	2	1	0	9	1	0	0	3	1	0	0	1	1	0	0	0	9	0	7	0	16	0	0	1	8	5	0	0	0	1	0	0	1	4
OTU 35	59	0	0	2	0	0	6	1	0	2	4	0	4	0	2	0	1	1	0	2	0	0	0	1	2	4	0	0	0	0	2	1	6	1	0	0	3	0	0	0	3	0	0	1	0	0	1	0	0	0
OTU 36	1	0	0	0	0	1	0	0	0	0	7	0	1	0	0	0	1	0	0	0	1	0	2	1	0	4	1	0	0	0	5	1	6	0	2	0	0	0	0	0	11	0	0	0	0	0	0	0	3	0
OTU 37	0	0	0	0	0	0	0	0	0	0	0	0	0	0	0	2	0	0	0	4	0	0	0	0	0	0	0	0	0	1	0	0	0	0	0	0	0	0	0	1	0	0	0	0	0	0	0	0	0	0
OTU 38	2	3	1	0	5	0	3	0	1	0	0	1	0	0	3	1	0	0	22	6	0	3	19	0	0	0	3	0	0	1	1	2	2	1	6	56	4	0	0	0	2	0	0	5	0	0	0	0	0	0
OTU 39	0	0	0	0	1	3	1	0	0	1	2	0	0	1	1	0	0	0	0	3	0	0	0	0	0	0	4	5	1	0	3	0	1	0	0	0	0	0	0	0	0	0	0	0	2	0	1	3	0	0
OTU 40	0	5	0	0	0	2	0	0	1	1	2	2	4	2	0	1	0	1	0	0	5	2	0	0	1	1	1	0	0	0	1	4	4	2	0	1	1	4	0	1	1	1	1	0	1	2	0	1	2	3
OTU 41	1	1	0	0	2	0	1	0	0	0	3	0	0	1	0	1	0	0	0	1	0	0	0	0	0	0	0	0	0	0	0	1	1	0	8	0	0	0	0	0	1	0	0	0	0	0	0	0	0	0
OTU 42	0	0	3	2	6	0	0	0	0	0	0	1	5	0	2	0	0	1	0	0	0	0	1	0	0	0	0	0	1	0	1	1	0	0	0	0	0	1	0	0	0	1	0	1	0	0	0	0	0	0
OTU 43	0	0	0	0	0	0	0	0	0	0	0	0	0	0	0	0	0	0	0	0	1	0	0	0	0	0	0	0	0	0	0	0	0	0	0	0	0	0	0	0	0	0	0	0	0	0	0	0	0	0
OTU 44	0	0	0	0	0	0	0	0	0	0	0	0	1	0	0	0	0	1	0	0	0	0	0	0	0	0	0	2	0	0	0	0	0	0	0	0	0	0	0	0	0	0	0	0	0	0	0	0	0	3
OTU 45	0	3	2	0	3	0	4	0	1	0	0	1	2	0	0	1	1	2	0	0	1	5	0	8	3	0	0	1	0	0	5	11	1	2	0	0	2	0	1	17	0	0	3	0	0	0	3	0	7	0
OTU 46	0	1	1	1	3	1	5	113	16	1	4	0	1	0	0	1	1	1	0	1	2	6	5	0	0	2	1	3	0	0	32	5	1	4	1	2	2	1	3	0	0	2	3	1	0	2	5	1	0	4
OTU 47	0	1	0	0	0	0	2	0	0	1	6	0	0	0	0	0	2	1	1	1	0	0	0	1	0	0	0	2	0	0	0	0	0	0	0	0	1	0	0	0	0	0	0	0	0	0	0	0	0	0
OTU 48	1	2	5	0	7	2	1	2	1	3	2	0	0	0	0	1	0	0	0	5	3	0	4	3	0	2	2	1	1	1	0	1	1	1	1	0	3	2	0	1	3	6	2	1	2	0	1	0	2	1
OTU 49	20	1	0	0	1	0	1	0	0	0	2	0	5	0	0	1	1	0	1	3	0	4	0	0	0	0	0	1	184	0	1	0	3	0	0	1	0	0	0	0	0	0	0	0	0	4	1	0	1	0
OTU 50	4	0	2	2	1	0	1	0	2	9	1	0	0	0	3	0	0	1	0	0	3	0	0	2	2	0	0	4	1	0	1	1	0	3	10	1	0	0	0	1	2	2	0	1	0	2	0	0	1	2
OTU 51	2	1	1	0	0	4	0	0	0	0	0	0	0	0	6	0	0	0	0	0	0	0	0	0	0	2	2	0	5	0	1	0	0	0	0	0	0	0	10	0	0	0	0	0	0	2	0	0	2	2
OTU 52	1	0	0	2	2	2	0	0	0	0	3	2	0	1	0	6	1	6	1	13	2	3	4	3	0	2	1	0	0	0	6	2	7	3	1	0	8	1	2	2	0	0	1	3	2	0	1	4	3	2
OTU 53	0	0	0	0	0	0	0	0	0	0	0	0	0	0	0	0	0	0	0	0	0	0	0	0	0	0	0	0	0	0	0	0	0	0	0	0	0	0	0	1	0	0	0	0	0	0	0	0	0	0
OTU 54	0	0	3	1	0	0	0	0	0	0	0	0	2	0	2	2	0	8	1	5	31	0	4	2	1	2	2	18	0	0	1	1	11	0	0	3	12	0	93	3	4	0	0	0	4	0	0	1	0	8
OTU 55	0	0	0	0	0	0	0	0	0	0	0	0	0	0	0	0	0	0	0	0	0	0	0	0	0	0	0	0	0	0	0	0	0	0	0	0	0	0	0	0	0	0	0	0	0	0	0	0	0	0
OTU 56	0	0	0	0	0	1	0	0	1	1	1	0	2	0	0	0	0	0	2	0	1	0	0	0	0	0	0	1	0	0	0	0	0	0	0	0	0	0	0	0	0	1	0	0	1	0	0	0	0	0
OTU 57	2	16	1	0	3	0	0	0	0	2	0	2	0	1	15	3	7	14	1	2	2	1	14	5	1	4	10	3	3	3	1	2	2	3	3	2	4	2	34	1	0	3	0	2	0	5	3	12	1	0
OTU 58	0	0	1	2	0	0	3	0	0	0	0	2	0	0	1	0	1	0	0	0	0	0	0	1	0	0	0	0	1	0	0	0	0	0	0	2	0	0	0	0	0	0	0	0	0	0	0	1	1	0
OTU 59	0	3	2	0	0	0	0	0	1	1	2	0	0	0	1	0	0	1	0	2	1	1	0	1	0	0	0	2	0	24	0	0	0	0	0	0	3	1	2	0	0	0	0	0	0	1	0	0	1	0
OTU 60	0	1	1	0	0	3	14	0	0	0	0	1	1	5	1	11	0	0	1	0	1	0	3	0	3	0	1	0	0	1	0	0	0	0	1	1	7	1	0	1	6	0	0	1	3	2	0	0	0	0
OTU 61	0	8	2	5	3	19	1	0	1	8	0	40	6	18	2	17	5	1	22	1	16	7	1	0	7	1	66	1	3	6	9	2	5	120	0	44	1	1	65	0	2	5	7	5	0	23	4	56	0	8
OTU 62	0	1	0	2	1	0	0	0	0	2	0	0	2	0	0	0	3	0	0	0	0	0	0	0	1	0	0	0	0	0	0	0	0	0	1	0	0	0	0	0	0	0	0	0	0	0	0	0	0	0
OTU 63	0	1	3	0	2	2	2	3	0	1	1	0	3	0	0	0	0	0	2	0	0	0	0	0	0	0	1	0	0	2	0	0	0	0	1	2	0	2	1	0	0	4	0	0	0	0	0	0	0	5
OTU 64	1	3	0	3	1	3	0	1	0	3	0	3	1	1	4	2	0	2	2	3	5	1	0	0	1	3	0	3	0	0	0	0	7	0	0	0	2	0	0	1	0	1	1	2	3	1	1	5	2	0
OTU 65	0	0	0	1	0	0	0	0	0	0	0	0	1	0	0	0	0	0	0	0	2	0	0	0	0	1	0	0	0	0	0	0	0	0	0	0	0	0	0	0	0	0	0	0	0	0	0	0	0	0
OTU 66	0	11	3	0	1	171	14	0	2	0	0	0	2	1	2	2	0	2	0	0	1	5	0	0	0	1	0	2	1	0	0	3	2	1	15	0	0	0	3	0	1	0	0	59	6	1	4	1	2	0
OTU 67	22	0	13	0	21	2	1	0	3	0	0	0	3	0	4	0	0	0	1	0	0	3	1	3	1	0	1	0	0	0	0	0	1	0	0	0	0	0	0	0	0	0	0	34	0	0	0	0	0	0
OTU 68	0	0	0	0	0	2	2	0	0	0	0	0	0	0	0	0	3	0	0	3	1	0	0	0	0	0	1	1	2	0	0	0	0	5	0	0	2	1	2	0	0	2	0	0	0	0	0	0	1	0
OTU 69	0	0	0	0	0	2	0	1	0	1	0	0	0	7	0	2	0	0	0	0	0	2	1	0	0	2	1	0	0	0	1	0	0	8	6	0	1	2	2	0	0	6	11	2	0	0	1	1	0	1
OTU 70	2	3	0	0	0	2	4	0	3	0	8	0	7	0	1	0	1	0	0	1	0	4	0	28	2	0	0	0	3	3	1	1	0	0	0	0	0	0	2	0	0	1	0	0	6	0	0	0	0	0
OTU 71	3	0	33	0	55	0	3	0	0	1	2	0	0	0	0	0	0	24	0	1	2	0	3	0	0	0	3	0	0	1	0	0	0	0	1	0	0	0	0	0	0	0	0	1	0	1	0	1	1	1
OTU 72	0	1	0	4	0	1	1	0	0	0	2	0	2	0	1	1	0	5	0	1	0	0	1	0	4	0	2	0	0	2	3	0	1	0	5	1	0	0	1	0	0	1	25	6	2	0	1	0	2	4
OTU 73	1	0	0	0	5	0	0	0	2	0	0	0	1	0	0	0	0	1	0	2	13	0	0	0	0	2	0	5	1	0	1	1	0	2	0	4	0	0	0	33	1	0	0	0	1	0	0	0	0	0
OTU 74	1	0	0	0	4	1	6	1	2	0	3	0	1	1	0	0	4	0	0	13	0	4	7	2	1	0	0	0	0	0	1	1	1	0	2	0	10	0	0	0	0	0	2	2	1	0	1	0	2	1
OTU 75	2	13	1	0	0	0	1	4	0	1	1	0	9	2	0	1	0	6	0	0	15	0	0	0	3	1	2	0	3	0	0	0	1	5	15	0	0	7	1	5	6	13	0	7	3	0	0	0	1	0
OTU 76	0	0	1	2	0	0	0	0	0	0	2	0	0	0	0	0	0	5	0	1	0	0	0	0	0	0	0	106	0	0	3	0	0	0	2	0	0	0	1	0	2	0	0	0	0	0	0	0	0	0
OTU 77	1	0	1	0	0	4	1	1	0	2	2	1	1	1	0	2	0	3	1	9	1	1	0	1	3	0	0	0	0	0	0	1	1	4	9	0	0	3	3	9	0	4	0	1	4	1	0	4	4	0
OTU 78	4	0	0	1	0	5	0	0	1	1	5	0	2	1	1	2	0	0	3	1	0	0	3	0	0	0	15	0	0	0	1	2	7	33	0	8	1	1	16	0	1	0	1	2	2	5	0	20	4	1
OTU 79	1	1	9	4	4	2	2	0	2	3	7	1	3	3	4	2	4	0	0	1	19	6	85	1	8	2	1	11	4	25	0	13	9	2	9	1	9	1	3	17	5	2	29	2	5	5	0	2	4	44
OTU 80	1	1	3	8	3	4	1	0	1	17	0	4	0	21	59	1	1	2	0	6	0	0	0	0	0	0	1	36	33	0	1	0	0	4	0	1	0	0	1	0	5	0	4	34	0	0	1	0	2	3
OTU 81	0	3	0	2	0	1	11	0	0	3	2	3	3	7	3	17	0	5	0	1	0	1	2	3	8	3	0	0	3	0	2	0	3	1	2	0	2	0	0	1	0	0	0	1	6	3	0	1	0	0
OTU 82	0	1	0	3	0	0	1	1	0	5	0	0	3	3	6	6	1	0	0	0	6	0	0	0	1	0	0	2	1	1	0	0	1	0	0	0	0	0	0	0	0	0	0	0	0	1	0	0	2	0
OTU 83	0	0	0	1	0	0	0	0	0	7	0	0	0	0	3	0	0	0	0	7	1	0	1	0	0	0	0	0	1	0	0	0	0	0	0	0	1	0	0	0	0	0	0	0	0	0	0	2	2	0
OTU 84	8	0	0	2	1	1	3	0	0	3	2	0	1	0	0	1	2	0	2	0	0	0	0	5	0	4	1	0	0	0	0	0	0	5	3	0	0	0	1	0	3	0	1	1	0	2	0	0	3	1
OTU 85	0	0	0	0	0	0	2	0	0	4	0	0	0	0	1	0	0	1	0	0	0	4	0	2	0	0	0	2	0	0	1	1	0	0	0	1	1	0	0	0	0	0	3	0	0	0	2	0	0	5
OTU 86	0	0	0	0	0	0	0	2	0	0	0	0	0	0	0	0	0	0	0	0	0	0	0	0	0	0	0	0	0	0	0	0	0	0	0	0	0	1	0	0	0	3	0	0	0	0	0	1	0	0
OTU 87	0	0	0	0	0	0	0	0	0	2	0	0	4	0	0	2	0	0	69	0	0	1	0	1	0	0	0	0	1	1	7	0	2	0	0	0	0	6	0	0	0	0	0	0	0	1	0	1	0	0
OTU 88	0	5	0	0	0	0	0	0	1	0	0	0	2	0	0	1	0	0	0	0	0	0	0	0	0	0	0	0	0	1	0	1	0	0	0	0	0	0	0	0	0	0	1	0	0	0	0	0	0	0
OTU 89	0	0	7	0	0	1	5	0	0	0	0	0	0	1	0	0	2	0	0	7	2	0	0	0	0	0	0	0	1	5	0	0	3	0	0	0	0	0	0	0	1	0	0	0	0	0	0	0	0	0
OTU 90	0	0	0	0	0	0	3	0	0	1	0	0	0	0	0	0	0	0	0	0	0	3	0	0	0	0	0	0	0	0	0	1	0	0	2	0	6	0	0	0	0	0	0	2	0	0	1	0	0	0
OTU 91	0	1	0	0	0	0	0	0	0	0	0	0	0	0	0	0	0	1	0	0	0	0	0	0	0	0	0	0	0	0	0	0	6	0	0	0	0	0	0	0	0	0	0	0	1	1	0	6	0	0
OTU 92	0	0	0	0	0	0	3	0	0	0	0	0	0	1	0	0	0	0	0	0	0	0	0	0	0	0	0	0	0	0	0	37	0	0	0	0	0	0	0	0	0	0	0	1	1	0	0	0	0	0
OTU 93	0	0	0	0	1	0	1	0	0	0	0	0	0	2	0	4	0	0	0	0	0	0	0	0	0	0	0	0	0	0	0	0	0	0	1	0	0	0	0	1	0	1	0	0	0	0	2	0	0	0
OTU 94	0	3	5	5	17	0	5	5	0	0	0	1	0	0	14	0	1	2	3	1	2	5	0	0	1	1	0	6	1	2	6	5	19	9	3	0	2	5	11	5	1	7	0	0	2	2	0	3	5	4
OTU 95	0	2	0	0	0	3	1	0	0	1	2	0	1	0	0	0	0	1	0	0	0	2	0	0	0	0	0	0	1	0	0	0	4	0	0	0	0	0	0	0	0	0	0	0	0	0	0	0	0	1
OTU 96	0	0	0	0	0	1	0	0	0	0	0	0	0	0	0	0	0	0	0	0	0	0	0	0	0	0	0	0	0	0	0	0	0	0	0	0	0	0	0	0	0	0	0	0	0	0	0	0	0	0
OTU 97	0	0	0	0	0	0	0	0	0	0	1	0	0	0	0	0	1	0	0	0	0	1	0	0	0	1	0	0	0	0	2	0	0	0	0	0	1	0	0	0	0	0	0	0	0	0	0	3	0	0
OTU 98	0	0	0	2	1	1	0	0	0	0	0	2	21	1	0	2	0	0	0	0	0	0	0	0	0	3	0	0	0	0	5	0	0	1	0	0	13	0	0	0	0	0	0	0	0	0	0	0	0	0
OTU 99	0	4	0	2	1	1	0	2	0	0	4	0	17	3	2	0	0	0	3	3	19	5	0	1	6	2	4	0	1	1	0	0	14	0	14	1	5	3	41	0	3	1	2	2	0	0	3	3	2	3
OTU 100	0	1	64	1	0	0	1	1	0	1	0	0	2	4	0	5	3	2	6	0	0	0	0	2	0	0	0	1	1	2	0	0	0	1	1	1	3	8	0	0	2	2	1	3	1	4	1	2	2	2
OTU 101	0	0	0	0	0	0	1	0	0	0	0	0	0	0	0	0	0	0	0	0	0	0	0	0	1	0	0	0	0	0	1	0	0	0	2	0	0	0	0	0	0	0	0	0	0	0	0	0	0	1
OTU 102	0	0	1	1	0	0	2	0	1	0	0	0	0	0	0	1	1	0	0	0	0	0	0	0	0	0	0	0	0	0	0	1	2	0	0	3	2	0	0	0	0	0	0	0	0	0	0	0	0	0
OTU 103	4	0	1	1	1	1	7	0	1	2	3	3	1	0	0	0	1	2	0	0	5	0	0	0	3	0	1	0	0	0	2	0	0	0	0	2	4	0	0	0	1	0	0	0	0	0	0	9	0	1
OTU 104	0	2	5	0	1	6	1	1	0	0	1	2	3	0	0	1	1	1	1	6	8	0	0	0	0	1	6	0	2	0	0	2	11	2	0	0	0	0	1	1	0	2	0	1	1	0	0	1	0	0
OTU 105	0	0	0	0	0	0	3	0	0	0	0	0	0	0	0	1	0	0	0	0	2	0	0	0	0	0	0	0	0	0	0	0	0	0	3	0	0	0	0	0	0	0	0	0	0	0	0	0	0	0
OTU 106	3	0	1	2	3	0	1	1	1	1	0	0	0	0	0	0	0	0	0	0	0	0	73	0	0	0	0	0	0	0	0	0	0	0	0	0	2	0	0	0	2	0	1	1	0	1	0	0	0	0
OTU 107	0	103	0	0	0	0	1	0	0	0	0	0	0	0	0	0	0	1	0	0	0	0	1	0	0	1	0	0	0	1	0	0	0	0	0	0	0	0	0	2	2	0	0	0	1	0	0	1	0	2
OTU 108	0	10	1	0	0	0	0	0	0	0	0	0	0	1	1	0	0	0	0	1	1	3	2	0	0	3	2	0	1	0	1	0	1	1	2	0	1	0	1	0	0	1	0	4	0	0	1	0	0	0
OTU 109	0	0	0	0	0	0	0	0	0	0	0	0	0	0	0	0	0	0	0	0	2	0	0	0	0	0	0	0	0	0	0	0	0	0	0	0	0	0	0	2	0	0	0	0	0	0	0	0	0	0
OTU 110	0	4	5	1	0	0	3	0	2	1	0	2	1	0	4	0	0	0	0	2	0	3	1	0	2	0	0	0	2	0	2	3	0	0	0	0	0	0	0	2	1	0	0	2	0	0	0	0	0	1
OTU 111	0	0	0	0	0	0	0	0	0	0	0	0	0	0	0	0	0	2	7	0	0	0	0	0	0	0	0	0	0	0	0	0	1	0	0	17	0	0	0	0	0	0	0	0	0	0	0	0	0	0
OTU 112	0	0	1	1	6	0	1	0	8	0	0	0	5	0	2	0	0	0	0	1	3	11	0	1	0	1	0	3	3	0	0	0	0	0	0	0	0	0	0	0	0	0	0	3	4	1	2	0	0	0
OTU 113	0	0	0	2	0	0	0	0	0	0	0	0	0	0	0	0	0	0	0	0	0	0	2	0	0	0	0	0	0	0	0	0	0	0	0	0	0	0	0	0	0	0	0	0	0	3	0	0	0	0
OTU 114	1	0	0	7	0	6	1	1	0	7	7	2	5	0	5	0	5	3	0	8	0	1	0	2	1	4	15	6	4	0	1	0	0	0	2	1	0	3	1	0	4	2	6	5	0	0	2	0	0	6
OTU 115	0	0	1	0	3	0	0	0	0	1	0	1	2	3	0	0	1	21	6	43	4	2	1	2	0	1	0	20	0	6	0	4	5	6	1	5	0	0	1	4	4	0	4	0	6	3	0	14	117	5
OTU 116	2	24	6	0	0	0	11	0	0	0	0	1	0	1	3	2	1	0	0	0	3	0	0	0	0	5	2	0	0	0	2	0	2	0	2	1	10	3	1	13	1	3	0	1	1	1	0	6	0	0
OTU 117	5	3	0	2	3	0	0	0	7	0	0	1	0	0	0	0	67	5	0	3	2	8	0	29	0	5	1	0	2	0	13	0	3	0	0	0	0	0	0	3	2	0	1	0	0	0	7	0	1	0
OTU 118	0	0	5	1	1	0	0	0	0	0	0	1	0	0	0	0	0	1	1	0	0	0	0	0	0	0	0	0	17	0	1	1	0	0	0	0	0	0	0	0	0	0	0	0	0	0	0	0	0	1
OTU 119	1	0	0	0	0	2	0	0	0	0	2	1	0	0	2	3	0	0	75	5	0	0	0	0	1	13	0	0	0	0	0	0	4	5	0	0	5	1	3	5	1	0	0	0	0	3	0	0	1	1
OTU 120	0	1	0	0	0	1	0	0	0	0	0	0	1	0	0	0	0	3	0	0	0	1	0	0	0	0	2	0	0	0	0	0	0	0	0	0	4	0	0	0	0	0	0	0	0	0	0	0	0	0
OTU 121	3	0	0	1	1	3	1	0	1	4	0	2	0	0	1	1	0	1	0	0	2	0	5	0	1	2	0	0	2	0	5	2	0	0	0	0	0	0	1	0	4	0	1	0	1	1	0	0	5	6
OTU 122	0	0	24	2	39	2	0	17	0	4	0	0	5	1	1	1	90	2	0	4	0	0	0	45	1	155	5	0	1	0	1	0	5	1	0	0	0	29	0	0	1	49	1	1	1	0	0	1	0	1
OTU 123	2	5	6	2	1	2	1	3	0	3	2	2	1	2	3	10	3	11	1	4	4	0	4	3	3	5	4	8	3	4	15	3	5	0	12	1	6	4	0	4	10	15	1	1	0	9	3	5	2	1
OTU 124	0	0	0	0	2	0	0	0	1	0	3	0	0	10	0	22	0	0	0	0	0	0	0	0	0	1	0	0	0	1	0	2	0	1	0	0	0	0	3	0	0	0	0	0	0	0	0	0	3	0
OTU 125	0	2	2	1	1	15	13	0	3	2	0	4	0	1	4	8	3	6	1	7	13	0	9	9	16	2	54	0	1	3	0	20	4	17	4	16	2	4	13	22	1	1	2	1	3	0	1	5	1	4
OTU 126	0	0	0	0	1	0	0	0	1	0	0	0	0	1	0	1	1	0	0	0	1	0	0	0	0	0	1	0	0	0	0	0	0	0	2	0	0	0	0	0	0	0	0	0	0	0	0	0	1	0
OTU 127	6	2	0	0	0	2	0	0	0	0	0	0	1	0	2	0	1	0	0	1	3	6	1	0	0	0	2	0	0	0	11	1	3	1	1	0	2	0	0	1	8	0	0	0	1	0	1	0	1	1
OTU 128	3	1	3	5	14	9	16	4	1	1	7	128	1	49	2	3	20	11	4	4	10	0	4	12	2	2	11	5	2	20	2	5	21	6	17	0	9	2	0	3	2	14	30	0	8	53	0	0	5	30
OTU 129	0	0	0	0	0	0	0	0	0	0	0	0	0	0	0	0	0	0	0	0	1	0	0	0	0	0	0	0	0	0	0	0	0	0	0	0	0	0	0	0	0	0	0	1	0	0	0	0	0	0
OTU 130	0	0	0	0	0	1	0	0	0	0	4	0	0	0	1	0	2	0	0	5	1	0	27	0	0	0	1	0	0	0	0	2	1	0	5	0	1	0	0	0	0	0	0	0	5	1	0	0	3	1
OTU 131	3	1	1	16	0	0	3	0	0	2	0	6	1	0	0	4	0	8	0	1	0	0	2	0	0	1	0	0	0	1	0	0	0	0	0	0	4	3	0	0	5	2	0	0	0	0	0	0	3	0
OTU 132	0	0	0	0	1	0	0	0	0	1	0	0	0	1	0	3	1	0	0	0	0	0	3	0	2	0	0	0	0	0	0	3	0	0	0	0	1	0	0	1	0	0	0	0	0	0	0	1	0	0
OTU 133	0	0	2	0	0	0	0	0	0	0	0	0	4	0	0	3	0	7	0	0	0	0	0	0	0	0	0	0	0	0	0	0	0	0	0	0	0	0	0	0	0	0	0	0	0	0	138	0	0	0
OTU 134	2	3	1	2	0	0	2	0	3	0	3	0	5	0	3	0	0	4	0	1	3	3	0	0	0	0	0	0	0	3	10	0	1	0	1	0	2	0	0	3	2	0	2	0	1	3	3	0	4	0
OTU 135	1	1	16	0	2	0	2	2	1	10	2	1	79	0	0	0	3	4	3	0	0	2	2	1	0	3	3	2	0	3	0	4	0	10	0	1	0	3	6	0	2	4	2	1	0	3	1	10	0	4
OTU 136	3	0	0	1	0	0	2	0	0	7	0	0	0	2	2	0	2	2	2	0	1	0	1	0	0	0	0	0	2	3	0	0	0	8	0	3	8	0	6	0	5	0	0	1	1	1	0	2	1	1
OTU 137	0	0	0	0	2	0	0	0	0	1	0	0	0	0	1	0	0	1	0	0	0	1	0	1	0	1	0	0	0	0	0	0	0	0	0	0	3	0	0	0	0	0	0	0	0	0	1	0	0	0
OTU 138	0	0	0	0	0	0	3	0	9	0	0	0	0	2	0	2	2	1	0	2	0	7	0	0	0	2	2	0	0	0	2	0	0	0	3	0	0	0	0	1	0	0	0	0	0	0	1	1	0	0
OTU 139	3	0	12	0	26	0	4	14	0	1	3	0	8	0	0	1	0	2	0	3	8	3	0	1	2	0	2	0	1	0	0	0	0	2	1	0	0	8	1	1	4	16	0	2	2	0	2	2	18	0
OTU 140	2	1	0	6	6	16	26	2	32	26	10	3	11	1	1	3	0	2	2	0	15	1	1	0	8	0	2	3	1	0	1	1	33	1	21	1	6	46	0	1	10	1	1	0	0	1	2	0	0	4
OTU 141	0	0	0	0	0	0	0	0	0	0	0	0	0	0	0	0	0	0	0	0	1	0	0	0	0	0	0	0	0	0	0	0	0	0	0	0	0	0	0	0	0	0	0	0	0	0	0	0	0	0
OTU 142	0	0	0	0	0	0	0	0	0	0	0	0	0	0	0	0	0	0	0	0	1	0	0	0	0	0	0	0	0	0	0	0	0	0	0	0	0	0	0	0	0	0	0	0	0	0	0	0	0	0
OTU 143	0	0	3	0	7	0	0	6	1	0	7	0	0	0	0	0	0	0	3	0	4	0	0	0	0	0	0	0	0	0	0	0	0	0	0	0	0	4	2	0	0	14	2	0	0	1	0	0	1	2
OTU 144	0	0	1	3	1	0	0	0	0	0	0	0	0	0	0	0	1	0	25	1	0	0	0	0	0	2	0	0	0	0	0	0	0	0	0	1	1	0	0	2	0	0	0	0	0	4	0	0	0	0
OTU 145	0	6	0	2	0	9	0	6	0	4	3	0	0	0	0	2	0	1	0	2	6	1	2	0	1	0	20	0	1	4	0	0	0	0	1	4	0	2	0	0	0	6	0	2	2	3	3	0	1	6
OTU 146	0	2	0	1	0	2	8	82	0	1	0	0	0	0	2	0	3	0	0	3	1	0	0	3	0	0	2	0	0	55	0	1	0	0	0	0	12	47	0	0	1	89	0	0	1	0	1	0	2	1
OTU 147	0	0	0	0	2	0	1	1	0	0	0	0	0	0	0	0	1	0	1	1	0	0	5	0	5	0	0	0	0	0	0	2	1	13	0	2	0	0	4	0	0	0	0	0	0	0	0	8	1	0
OTU 148	0	2	0	0	0	0	0	0	1	3	0	0	7	0	0	2	1	0	2	3	0	0	0	0	0	0	0	0	0	0	0	0	1	0	3	0	0	2	0	0	0	0	0	0	0	0	0	7	0	1
OTU 149	0	0	0	0	0	0	2	0	0	0	1	0	0	0	0	1	0	0	0	3	0	0	0	0	0	12	0	0	0	0	0	2	0	0	1	0	0	0	0	0	1	0	2	0	2	0	0	0	1	0
OTU 150	0	1	0	0	0	0	0	0	0	0	0	0	0	0	0	0	0	0	0	0	0	0	0	0	0	1	0	0	0	0	0	0	0	0	0	0	0	0	0	0	0	0	0	0	1	0	0	0	2	0
OTU 151	0	1	0	2	1	0	0	0	0	0	3	5	0	1	1	1	0	0	0	0	1	0	0	0	0	0	0	0	0	0	3	3	0	0	0	0	1	1	0	5	0	3	0	0	0	4	1	0	0	0
OTU 152	0	1	0	0	1	0	1	4	0	0	1	1	7	0	0	2	4	62	1	2	1	2	0	2	3	1	0	0	2	0	3	1	1	2	7	4	3	4	1	0	0	15	0	2	0	0	0	2	0	0
OTU 153	0	0	0	0	0	0	0	0	0	0	0	0	1	0	0	0	0	0	0	0	1	0	0	0	0	0	0	0	0	0	0	0	0	0	0	0	1	0	0	0	0	0	0	0	0	0	0	0	0	0
OTU 154	0	0	0	0	0	0	0	0	0	0	0	1	0	0	2	0	0	0	0	0	0	0	0	0	0	0	0	0	0	0	0	0	0	0	0	0	0	0	0	0	0	0	0	1	0	0	0	0	0	0
OTU 155	0	4	1	0	0	0	0	0	1	0	0	0	0	0	2	0	0	4	0	1	3	0	3	1	0	5	0	0	0	0	1	1	0	0	2	2	0	0	0	0	0	0	0	0	0	2	0	1	0	0
OTU 156	0	3	3	5	0	0	2	1	0	0	0	2	1	56	0	124	1	0	2	3	2	1	0	1	2	42	0	0	0	1	3	1	0	1	10	0	2	3	0	0	2	4	0	0	44	2	1	0	0	1
OTU 157	3	0	0	0	2	0	0	1	0	0	0	0	0	1	1	0	0	0	0	0	0	0	0	0	0	0	0	1	0	36	0	0	0	0	5	1	0	1	0	0	3	1	35	0	11	1	0	1	0	67
OTU 158	0	0	0	0	0	0	0	0	0	0	0	0	0	0	0	0	0	0	0	0	0	0	0	0	0	0	0	0	0	0	0	0	1	0	0	0	3	0	0	0	1	0	0	0	0	0	0	0	0	0
OTU 159	4	0	0	0	1	0	0	0	0	0	2	0	4	0	0	0	1	0	0	2	3	1	1	0	0	1	0	0	0	18	0	3	0	0	7	1	0	2	0	2	4	4	0	2	0	0	0	0	0	0
OTU 160	3	9	0	0	4	2	4	2	2	2	4	1	4	2	2	0	1	37	1	5	2	0	0	1	2	3	0	0	0	1	0	1	3	3	2	4	41	2	2	3	0	4	0	2	3	2	3	1	1	1
OTU 161	37	0	0	11	0	0	0	0	0	26	2	7	2	0	60	1	0	0	1	2	11	1	7	1	0	0	0	27	16	29	4	6	2	0	2	2	1	0	0	7	71	0	21	22	38	2	0	0	38	51
OTU 162	1	0	0	0	0	0	7	3	1	1	1	0	0	1	1	2	0	0	0	0	5	0	0	0	0	2	1	0	0	1	1	1	0	4	2	4	0	1	2	1	0	3	3	0	2	0	0	0	1	2
OTU 163	0	0	0	0	0	0	0	0	0	0	0	0	0	0	0	0	0	0	0	0	0	0	0	0	0	0	0	0	0	0	0	0	0	0	0	0	0	0	0	0	0	0	0	0	0	0	0	0	0	0
OTU 164	0	0	0	0	0	0	0	0	0	0	0	0	0	0	0	0	0	0	0	0	0	0	0	0	0	0	0	0	1	0	0	0	2	0	0	0	0	0	0	0	0	0	0	0	0	0	0	2	0	0
OTU 165	2	0	0	0	2	0	7	0	36	0	1	0	0	0	0	0	1	2	1	1	1	64	1	0	1	0	0	0	0	0	0	0	0	1	3	0	3	0	0	0	0	0	0	0	0	0	52	0	0	0
OTU 166	0	0	0	0	0	0	0	0	0	0	0	0	0	0	0	0	0	0	0	0	0	0	0	0	0	0	0	0	0	0	0	0	1	0	0	0	0	0	0	0	0	0	0	0	0	0	0	0	0	0
OTU 167	2	0	4	2	2	0	0	0	2	0	1	2	0	0	0	0	0	0	0	0	0	1	2	1	0	0	3	0	2	0	2	17	0	0	0	0	0	0	0	24	0	0	0	0	1	1	1	0	20	0
OTU 168	0	7	0	0	0	1	0	0	0	2	0	1	8	2	0	1	0	0	1	3	0	0	0	0	2	0	0	0	0	0	0	0	0	0	0	0	0	0	0	1	0	0	0	0	3	0	0	0	0	1
OTU 169	0	0	0	0	0	0	1	0	2	0	87	0	0	0	0	0	0	0	0	4	0	2	0	0	0	0	0	0	0	0	8	0	0	0	0	0	0	0	0	0	0	0	0	0	0	0	0	0	0	0
OTU 170	0	0	0	0	0	0	0	0	0	0	0	0	0	0	0	0	0	0	0	0	0	0	0	0	0	0	0	1	0	0	0	0	0	0	1	0	7	0	0	0	0	0	0	0	0	0	0	0	0	0
OTU 171	25	0	1	0	3	0	0	1	0	2	1	0	2	0	1	2	7	0	0	2	0	0	0	0	0	1	1	2	2	3	2	0	0	2	0	1	1	0	1	0	47	1	0	43	0	0	0	3	23	1
OTU 172	0	0	0	0	0	1	0	0	0	0	0	0	0	0	0	0	0	0	0	0	0	0	0	1	0	0	1	0	0	0	0	0	0	0	0	0	0	0	0	0	0	0	0	0	1	0	0	2	0	0
OTU 173	1	0	0	0	0	0	0	1	0	0	2	0	2	0	0	0	0	0	0	4	0	1	4	3	0	3	0	0	0	0	0	0	1	1	0	0	0	0	0	0	0	0	0	0	0	0	0	0	0	0
OTU 174	0	1	0	0	0	0	0	1	0	7	0	1	0	1	0	5	0	1	0	0	1	0	0	0	0	2	0	0	0	4	1	0	3	3	1	0	0	1	1	0	0	1	0	2	0	0	0	0	2	1
OTU 175	0	2	1	0	3	0	0	1	0	0	0	1	0	2	0	2	2	0	0	1	0	4	0	0	0	0	0	0	0	0	4	2	1	1	0	0	0	0	1	0	2	0	0	0	3	1	0	1	1	1
OTU 176	1	0	4	0	0	1	8	0	0	1	2	1	1	0	0	0	3	0	0	3	2	1	2	2	137	0	0	2	0	0	2	0	0	2	2	0	0	2	1	0	4	0	1	0	0	31	1	0	0	0
OTU 177	0	0	0	7	9	2	0	1	1	2	7	1	2	0	1	0	0	0	0	4	0	0	0	0	0	1	0	0	0	2	0	0	0	0	3	1	4	2	0	0	1	2	2	0	2	0	0	0	1	3
OTU 178	0	6	0	1	0	0	2	1	0	0	0	0	0	0	4	0	0	0	0	0	0	0	0	0	0	0	0	1	0	0	0	0	9	0	1	0	1	0	0	1	0	3	0	6	0	0	0	1	0	0
OTU 179	0	0	0	0	5	0	0	0	0	0	0	0	1	0	0	0	1	0	0	0	0	0	0	0	1	0	0	2	0	0	0	0	11	0	4	0	0	0	0	0	0	0	0	3	0	0	0	3	0	0
OTU 180	0	4	5	62	2	4	5	1	2	104	2	25	3	2	1	4	12	6	1	2	26	2	2	8	61	2	1	1	0	1	3	90	2	2	5	1	2	76	0	7	3	3	117	1	5	0	0	1	0	2
OTU 181	0	2	0	0	3	1	0	24	0	0	0	0	0	2	0	0	0	1	0	2	0	1	0	0	0	0	1	2	0	0	0	0	0	0	1	1	2	1	0	0	1	3	0	0	0	1	0	1	0	0
OTU 182	0	0	2	0	0	0	4	0	0	1	0	0	0	0	0	0	0	0	0	0	0	0	0	0	0	0	0	0	0	0	0	1	0	0	0	0	0	0	0	0	0	0	0	0	0	0	0	0	0	0
OTU 183	1	1	7	0	0	0	2	1	1	3	0	0	0	0	0	0	0	5	3	2	0	0	2	0	0	2	0	1	0	1	0	1	0	0	4	1	0	0	0	0	0	0	0	0	0	3	0	0	0	0
OTU 184	0	0	0	0	0	0	7	0	2	0	0	0	0	0	0	0	0	0	0	0	3	2	0	0	3	5	0	0	0	0	0	0	1	0	0	0	1	0	0	0	0	0	0	0	74	1	0	2	0	0
OTU 185	4	0	0	1	1	2	0	3	2	0	4	0	0	0	1	3	7	1	0	1	2	7	0	2	2	2	5	1	1	4	0	1	5	1	2	1	2	1	4	1	1	6	0	0	3	1	0	0	1	0
OTU 186	0	2	0	0	0	0	0	1	0	0	0	0	0	0	0	0	0	1	0	0	0	0	0	0	0	0	0	2	3	0	0	2	0	0	0	0	0	3	0	0	0	3	1	0	4	0	0	3	0	0
OTU 187	0	4	4	1	9	0	1	0	31	1	10	2	1	0	2	0	6	0	40	0	10	65	1	0	5	1	0	1	0	0	2	0	14	1	1	71	4	1	0	2	1	0	1	0	0	0	37	1	0	5
OTU 188	22	2	17	10	5	2	4	2	1	11	0	2	8	6	8	14	14	0	5	5	4	2	4	5	8	2	13	3	5	9	5	9	12	2	0	2	4	4	0	24	6	7	1	7	7	2	0	5	5	8
OTU 189	3	0	0	1	0	4	0	0	2	4	0	0	10	3	1	3	1	0	2	3	3	2	3	1	3	0	1	2	3	0	6	0	0	2	14	2	3	0	1	1	2	0	1	2	1	0	32	3	1	1
OTU 190	0	0	0	0	0	0	0	0	0	0	6	0	0	0	0	0	1	0	0	6	0	0	0	0	1	0	3	0	0	0	0	0	0	0	0	0	0	0	0	0	0	0	0	0	0	0	0	0	0	0
OTU 191	0	2	1	0	4	0	0	0	0	0	1	0	1	5	1	4	0	2	0	0	0	2	1	0	1	0	0	0	1	0	0	5	27	3	8	2	4	0	2	0	0	1	0	0	2	0	0	0	0	0
OTU 192	0	4	4	1	2	0	5	0	0	1	14	0	2	0	1	1	2	2	0	0	2	0	1	1	2	5	0	0	0	2	3	27	3	7	0	1	3	0	4	2	1	3	18	2	1	2	0	0	0	1
OTU 193	1	8	1	3	0	2	7	2	1	1	2	0	0	0	0	0	0	4	11	1	6	5	0	0	1	0	1	0	4	0	1	0	5	0	1	15	6	2	0	0	2	5	1	2	1	1	3	3	0	0
OTU 194	0	0	0	1	3	0	3	0	0	0	1	1	1	0	1	1	0	1	0	2	0	3	0	0	0	0	0	0	0	0	0	0	7	0	0	0	4	0	0	0	0	0	3	0	4	0	0	0	1	1
OTU 195	0	0	0	20	1	1	0	0	1	17	0	20	0	0	47	0	0	3	0	0	0	0	1	0	1	5	0	27	14	0	5	0	1	0	1	0	0	0	0	0	0	3	0	27	0	0	0	0	0	0
OTU 196	0	1	0	0	0	0	1	0	0	0	0	0	7	3	0	1	1	0	0	0	0	0	1	0	1	1	0	1	1	1	0	4	2	2	0	0	0	0	0	0	0	1	4	0	0	2	0	2	0	6
OTU 197	24	1	1	4	0	3	2	0	2	6	10	0	7	16	0	9	0	8	0	6	1	0	5	0	0	0	1	0	3	2	7	3	4	0	17	4	0	4	4	8	50	1	5	0	7	4	3	0	23	4
OTU 198	0	0	0	1	0	0	0	0	0	0	12	0	0	0	0	0	0	2	0	0	0	0	0	0	0	0	0	0	0	0	1	0	0	3	0	0	0	0	0	0	0	0	2	0	0	0	0	3	0	0
OTU 199	0	5	1	0	0	0	0	1	0	0	0	0	0	0	0	0	1	0	1	0	0	1	0	0	1	3	1	0	0	1	0	0	0	0	0	0	2	0	0	2	0	3	0	0	0	0	2	0	0	0
OTU 200	1	1	1	0	5	0	1	0	1	3	0	0	0	0	2	0	0	0	0	1	0	0	0	0	0	0	0	2	1	0	5	1	3	0	0	0	3	0	0	2	0	0	0	1	3	0	0	0	0	0
