	Host 1	Host 2	Host 3	Host 4	Host 5	Host 6	Host 7	Host 8	Host 9	Host 10	Host 11	Host 12	Host 13	Host 14	Host 15	Host 16	Host 17	Host 18	Host 19	Host 20	Host 21	Host 22	Host 23	Host 24	Host 25	Host 26	Host 27	Host 28	Host 29	Host 30	Host 31	Host 32	Host 33	Host 34	Host 35	Host 36	Host 37	Host 38	Host 39	Host 40	Host 41	Host 42	Host 43	Host 44	Host 45	Host 46	Host 47	Host 48	Host 49	Host 50	
OTU 1	0	1	1	1	0	1	1	0	4	0	0	1	0	0	5	2	2	3	0	1	1	0	0	0	2	0	1	0	0	0	1	1	0	0	2	2	0	1	0	5	0	0	0	0	3	1	0	0	0	0
OTU 2	0	0	1	0	0	0	0	0	0	1	0	1	1	0	0	0	3	1	0	0	37	1	0	1	3	0	0	0	0	0	0	0	0	0	0	0	0	2	2	0	0	0	1	0	0	0	1	0	0	2
OTU 3	0	0	1	0	0	0	0	0	5	5	2	3	0	0	0	0	7	1	0	0	0	0	1	0	2	8	0	5	1	1	0	4	4	0	0	0	0	0	0	1	0	4	1	0	0	0	0	1	0	0
OTU 4	0	0	0	0	0	0	0	0	0	0	0	0	0	0	0	0	0	0	0	0	0	0	0	0	0	0	0	0	0	0	0	0	0	0	0	0	0	0	0	0	0	0	0	0	0	0	0	0	0	0
OTU 5	6	29	2	8	0	15	41	66	0	3	44	121	13	26	50	27	5	18	0	0	20	0	5	1	14	8	0	37	16	9	110	1	0	0	0	9	52	1	3	9	1	1	36	6	3	7	29	45	3	7
OTU 6	0	1	0	9	0	0	2	0	1	3	0	1	0	0	0	0	1	2	0	0	0	2	0	0	0	0	1	1	0	0	0	0	0	0	2	0	0	1	2	0	0	1	0	0	0	0	0	0	4	2
OTU 7	3	1	1	3	8	0	5	3	7	0	2	1	0	4	2	0	2	1	1	10	1	5	0	1	1	2	4	4	1	4	111	0	2	4	12	34	3	0	0	1	4	5	1	0	1	42	92	2	1	2
OTU 8	2	0	2	2	3	6	4	0	1	1	3	2	0	11	1	3	7	0	1	2	0	7	3	4	2	3	1	118	29	4	17	1	0	2	0	20	8	1	3	18	2	1	1	0	62	29	34	9	0	4
OTU 9	11	1	2	0	0	0	0	0	0	0	0	4	0	0	1	0	0	1	0	0	0	3	0	14	2	0	0	23	1	1	0	0	0	0	1	0	1	1	0	53	3	0	0	0	1	0	0	2	0	2
OTU 10	4	0	0	1	0	0	0	0	0	0	0	1	0	0	2	0	0	0	0	0	0	1	0	2	0	2	0	0	0	1	0	0	0	0	0	0	1	0	1	0	0	0	2	0	0	2	2	0	0	0
OTU 11	5	0	2	0	6	6	5	0	2	0	4	0	0	0	1	0	2	0	1	0	2	1	1	6	2	0	0	0	0	0	0	0	0	0	0	0	0	0	1	1	1	0	1	1	3	3	0	0	2	9
OTU 12	2	0	0	5	12	91	11	0	1	0	0	1	3	5	0	0	2	0	1	3	0	4	1	0	1	8	0	0	0	0	2	30	0	3	3	1	2	1	5	4	1	0	0	0	3	0	4	6	0	4
OTU 13	0	0	0	0	0	0	1	0	0	0	0	0	0	0	0	5	0	0	0	0	0	0	0	2	0	0	0	0	0	0	0	0	0	0	1	0	0	0	0	0	0	0	0	0	0	2	0	0	0	0
OTU 14	0	0	0	0	0	0	4	0	0	4	0	0	1	0	0	0	0	0	0	0	0	0	0	0	0	5	0	0	0	0	1	2	0	7	0	0	0	0	0	0	0	0	0	0	0	0	0	0	0	0
OTU 15	0	0	0	0	0	0	0	0	0	0	0	0	0	0	0	0	0	0	0	0	0	0	0	0	0	0	0	0	0	0	0	0	0	0	0	0	0	0	0	0	0	0	0	0	0	0	0	0	0	0
OTU 16	0	0	0	0	0	0	0	0	0	0	0	0	0	0	0	0	0	0	0	0	0	0	0	0	0	0	0	0	0	0	0	0	0	0	0	0	0	0	0	0	0	0	0	0	0	0	0	0	0	7
OTU 17	4	0	0	0	5	1	0	0	0	0	0	1	4	0	2	4	4	0	0	9	0	3	0	10	0	0	6	0	0	0	0	0	6	1	41	0	0	0	0	0	13	1	1	0	0	0	0	0	1	2
OTU 18	0	3	1	0	8	0	0	0	0	0	9	0	27	0	4	0	1	1	0	1	41	0	0	0	0	5	0	0	2	0	0	3	9	1	5	0	0	2	82	0	0	3	3	0	0	0	2	0	8	4
OTU 19	0	0	0	0	0	0	0	0	0	0	0	0	0	0	0	0	0	0	0	0	0	0	0	0	0	0	0	0	0	0	0	0	0	0	0	0	0	0	0	0	0	0	0	2	0	0	0	0	0	0
OTU 20	0	1	1	0	1	0	7	1	4	1	1	2	4	4	2	5	5	1	0	4	0	7	0	2	4	0	1	1	0	3	12	0	1	6	3	3	4	1	3	2	10	1	1	0	21	8	14	0	1	18
OTU 21	3	2	13	0	1	4	0	2	0	2	2	0	5	3	0	2	1	5	0	0	14	4	7	3	0	81	0	0	1	3	3	65	1	0	1	5	3	0	23	1	2	6	1	1	26	6	8	0	0	0
OTU 22	0	0	1	1	1	4	0	0	29	3	2	0	1	2	3	1	2	0	4	11	0	1	0	0	0	10	2	14	0	3	10	3	10	5	15	8	4	0	0	0	1	3	0	0	0	8	19	11	3	0
OTU 23	0	0	0	0	0	25	5	0	0	0	0	0	0	0	0	0	0	0	3	0	0	0	0	1	72	0	0	0	1	0	0	4	0	15	0	0	2	0	0	2	0	0	0	1	8	1	0	0	0	0
OTU 24	0	0	1	0	0	0	0	2	0	0	0	1	0	1	0	0	1	1	1	0	1	0	0	0	0	2	0	0	0	5	8	4	1	0	0	0	0	0	0	0	0	1	0	0	0	0	0	1	1	0
OTU 25	0	0	0	2	0	0	0	3	0	0	0	4	0	0	2	0	0	0	0	0	0	0	0	0	0	0	0	0	6	0	0	0	0	0	1	0	0	5	0	0	0	0	0	0	0	0	0	0	0	0
OTU 26	0	0	0	0	0	0	0	0	0	0	0	0	0	0	0	0	0	0	0	0	0	0	0	0	0	0	0	0	1	0	0	0	0	3	0	0	0	0	0	0	0	0	0	0	0	0	0	0	2	0
OTU 27	0	0	0	0	0	0	0	0	0	0	0	0	0	0	0	0	0	0	0	0	0	0	0	0	0	0	0	0	0	0	0	0	0	2	0	0	0	0	0	0	0	0	0	0	0	0	0	0	0	0
OTU 28	0	12	17	4	2	4	0	0	4	8	0	1	2	1	8	1	10	5	2	7	6	0	12	4	3	2	4	0	0	1	13	2	2	0	7	16	2	7	15	19	0	1	7	0	19	19	41	0	0	0
OTU 29	1	0	3	1	0	2	0	0	1	0	6	0	0	1	1	1	0	2	0	0	1	11	1	4	0	1	0	1	3	26	0	2	0	0	0	0	0	1	2	0	4	2	1	0	1	0	0	0	0	0
OTU 30	0	0	0	0	0	0	0	0	0	0	0	0	0	0	0	0	0	0	0	0	0	0	0	0	0	0	0	0	0	0	0	0	0	0	0	1	0	0	0	0	0	0	0	0	0	0	0	0	0	0
OTU 31	0	0	1	0	0	19	1	0	0	0	0	0	1	0	3	0	0	0	0	0	0	0	1	0	1	0	0	0	26	14	0	0	0	0	0	0	0	0	0	0	0	1	0	1	2	0	0	0	0	2
OTU 32	0	5	0	4	1	42	1	0	2	1	0	0	9	2	1	1	0	4	0	0	0	0	4	5	1	2	1	0	1	2	0	0	0	2	1	5	0	0	0	2	3	0	1	0	2	0	0	2	0	0
OTU 33	0	0	0	0	0	0	0	0	0	0	0	0	1	0	0	0	1	0	0	0	0	0	1	2	0	0	0	0	0	0	0	0	0	0	0	0	0	0	0	0	0	0	4	0	0	0	0	3	0	0
OTU 34	1	0	1	2	0	0	0	0	2	0	1	5	2	6	4	0	2	1	1	0	1	2	0	5	0	0	0	1	0	5	0	0	6	0	0	2	36	0	3	0	1	1	0	0	1	0	1	59	3	22
OTU 35	0	1	0	0	0	0	15	0	1	1	0	0	0	5	1	3	8	1	6	3	0	5	2	2	0	1	9	1	0	6	0	0	0	0	0	0	2	1	0	52	0	3	0	0	0	0	0	0	6	15
OTU 36	0	0	2	0	0	2	1	0	0	0	0	0	1	0	0	11	0	0	0	0	1	1	0	0	0	1	0	0	0	0	0	1	0	0	0	0	1	1	1	0	0	0	1	0	0	1	0	0	6	0
OTU 37	0	0	0	1	2	0	0	1	1	0	0	0	0	6	0	0	4	0	0	0	0	0	0	0	0	6	0	0	0	0	0	0	0	0	0	0	0	0	0	2	0	1	0	0	0	0	0	0	0	0
OTU 38	8	0	1	6	0	5	1	3	0	0	1	4	1	6	26	8	0	0	1	0	0	1	0	0	0	1	0	0	3	0	3	0	2	0	0	2	0	2	0	9	2	1	1	19	3	2	0	4	0	1
OTU 39	0	0	0	5	0	0	0	1	1	0	0	1	0	0	1	0	0	0	0	0	0	0	0	1	0	0	0	1	0	0	0	0	0	0	0	0	0	8	0	0	0	0	0	0	0	0	0	0	1	0
OTU 40	1	0	1	0	0	0	2	0	2	0	0	1	0	17	0	0	2	2	0	0	2	0	0	2	0	4	0	2	2	1	0	9	1	2	0	0	1	0	2	3	1	1	0	0	2	1	0	1	6	0
OTU 41	0	3	0	9	0	0	0	2	1	2	14	7	0	2	7	0	2	0	0	2	0	0	1	0	0	1	4	0	1	0	1	0	0	0	13	0	0	5	0	0	2	0	0	7	0	0	0	3	0	9
OTU 42	0	0	0	2	0	0	0	0	1	0	0	0	0	0	0	0	1	0	2	0	0	0	0	1	0	0	0	0	0	0	0	0	0	0	0	0	0	0	0	0	0	0	0	0	0	0	0	0	1	0
OTU 43	0	0	0	0	0	0	0	0	0	0	0	0	0	0	0	0	0	3	0	0	0	0	0	0	0	0	0	0	0	0	0	2	0	3	0	0	0	0	0	0	0	0	0	0	0	0	0	0	0	0
OTU 44	0	0	0	0	0	0	1	0	3	0	0	0	0	1	0	2	0	0	0	0	0	0	0	0	0	0	0	0	0	0	0	0	0	1	0	0	0	0	0	0	0	1	0	1	0	1	0	0	0	0
OTU 45	0	0	2	0	2	1	1	0	1	2	0	0	5	8	0	1	3	0	0	1	3	8	1	8	0	2	0	0	3	0	0	1	4	8	1	0	2	0	0	0	1	4	0	1	1	0	1	0	0	0
OTU 46	0	0	1	2	1	1	1	0	2	2	40	1	0	1	2	0	0	0	12	1	0	0	2	0	0	0	0	0	3	0	0	0	0	1	4	0	1	0	1	9	0	9	0	1	0	147	1	0	2	1
OTU 47	4	0	0	0	0	0	0	0	0	0	0	0	0	0	0	0	0	0	1	0	0	0	0	0	0	0	0	0	0	1	0	0	0	0	0	0	0	0	0	0	1	0	0	0	0	0	0	0	0	0
OTU 48	1	11	1	0	7	4	3	0	7	9	1	0	10	5	0	0	1	5	14	0	2	2	0	1	0	9	0	4	8	7	1	2	0	6	0	1	0	2	1	1	6	5	1	0	0	0	3	5	1	5
OTU 49	1	0	0	1	0	0	5	0	0	0	1	1	0	0	0	3	0	0	0	0	1	8	0	1	0	4	0	0	0	0	0	0	4	0	0	2	3	0	1	2	2	0	4	0	1	6	0	0	2	1
OTU 50	3	0	1	0	5	1	0	0	1	0	0	1	1	0	0	4	2	1	0	3	0	1	0	1	16	2	3	0	0	5	0	1	1	1	7	2	0	20	0	0	9	3	32	90	1	1	2	1	0	0
OTU 51	2	0	0	0	0	1	0	0	0	0	0	0	1	0	0	0	0	1	0	0	0	0	0	0	0	0	0	0	1	0	0	1	2	0	2	0	3	1	2	5	2	0	0	1	0	0	2	1	23	0
OTU 52	5	2	1	2	7	0	1	6	3	1	2	3	3	1	1	3	0	6	8	3	1	5	0	2	0	3	3	1	28	2	0	1	1	10	1	1	1	2	3	6	4	4	2	1	2	1	0	3	4	1
OTU 53	0	0	0	0	0	0	0	0	0	0	0	0	0	0	0	0	0	0	0	0	0	0	0	0	0	0	0	0	0	0	0	0	0	0	0	0	0	0	0	0	0	0	0	0	0	0	0	0	0	0
OTU 54	2	0	1	0	2	2	3	0	2	1	1	0	0	1	1	0	2	0	0	0	81	2	0	3	0	2	0	1	2	0	1	2	0	0	2	1	0	0	0	3	3	2	7	0	4	5	3	3	6	1
OTU 55	0	0	0	0	0	0	0	0	0	0	0	0	0	0	0	0	0	0	0	0	0	0	0	0	0	0	0	0	0	0	0	0	0	0	0	0	0	0	0	0	0	0	0	0	0	0	0	0	0	0
OTU 56	0	3	1	0	2	0	0	0	0	2	0	0	0	0	2	0	4	1	0	1	0	0	0	0	4	0	0	0	0	0	0	1	0	0	0	0	0	0	0	0	0	0	0	2	2	1	0	0	8	0
OTU 57	4	2	3	2	10	0	1	1	7	4	2	0	2	8	1	6	4	40	1	10	1	4	1	6	3	1	4	2	2	4	0	0	5	4	20	1	2	3	7	4	19	0	2	4	6	2	2	0	0	12
OTU 58	3	5	1	0	0	0	8	0	0	7	0	0	0	0	0	0	1	3	0	0	0	0	0	2	0	1	1	0	2	0	0	0	0	0	2	0	0	1	0	0	1	0	0	0	0	0	0	0	5	1
OTU 59	0	2	1	0	5	0	0	3	1	0	1	3	0	4	2	3	13	0	3	4	0	0	1	3	0	0	0	0	0	1	0	1	1	0	3	0	0	0	0	0	1	1	0	0	0	0	0	5	5	0
OTU 60	1	21	0	0	0	4	2	2	8	9	0	1	11	0	5	1	3	19	0	6	1	20	1	3	2	1	1	4	11	3	0	0	0	0	1	2	3	3	8	5	30	1	4	0	0	0	0	5	3	3
OTU 61	2	0	1	6	15	0	0	3	13	24	0	6	0	0	5	9	0	0	4	0	43	4	2	5	4	0	0	0	18	1	1	0	4	3	2	0	4	26	81	5	13	5	0	3	0	1	2	2	1	0
OTU 62	0	0	0	0	0	1	0	0	0	1	0	0	0	0	0	0	0	0	0	0	0	0	16	0	0	0	0	1	0	2	0	0	0	0	0	0	0	0	0	0	0	0	0	0	0	0	0	0	1	0
OTU 63	1	19	1	0	1	0	0	1	0	1	2	2	0	1	2	0	0	0	0	1	0	0	0	0	0	6	2	0	0	0	1	1	1	7	9	0	0	0	0	2	0	0	3	0	0	0	0	1	6	0
OTU 64	0	3	0	0	3	2	1	1	6	3	8	2	1	6	1	2	5	1	3	0	0	3	1	7	0	1	0	1	0	0	2	1	5	8	1	4	0	0	0	6	5	1	1	2	0	1	1	1	4	0
OTU 65	0	0	0	0	0	0	0	0	0	0	0	0	0	0	0	0	0	0	0	0	1	0	0	0	0	0	0	0	2	0	0	0	0	0	0	0	0	0	1	0	0	5	0	0	0	0	0	0	0	0
OTU 66	2	0	2	5	5	1	0	2	6	0	0	5	1	2	2	3	14	0	0	1	2	3	0	0	0	0	0	0	0	4	1	0	1	6	1	0	4	1	0	3	0	5	0	2	1	0	0	1	0	1
OTU 67	0	0	2	1	4	1	0	0	2	0	0	2	1	0	2	1	1	0	0	0	1	0	0	0	0	2	0	0	4	2	0	0	8	0	0	0	1	4	0	0	3	1	1	1	0	33	1	3	6	0
OTU 68	0	0	0	0	20	5	3	0	0	0	0	1	0	0	0	0	0	2	0	0	1	0	0	3	0	2	0	1	0	3	0	3	0	1	0	0	0	0	1	1	0	0	0	0	1	0	4	2	0	0
OTU 69	1	0	0	0	3	0	2	0	0	0	0	0	0	16	1	0	0	0	0	0	0	1	0	2	0	0	0	0	0	4	1	0	5	0	0	13	0	0	1	1	0	2	0	0	0	0	0	0	1	1
OTU 70	1	0	0	0	0	0	1	0	2	1	1	0	0	2	2	0	0	0	0	0	0	8	0	1	0	0	1	1	0	4	0	0	0	0	0	0	0	1	0	0	0	0	0	0	0	0	0	0	2	1
OTU 71	0	0	0	0	0	0	0	0	3	0	0	0	0	0	0	0	1	0	0	0	3	0	0	4	0	3	0	0	0	2	0	1	0	0	0	0	2	2	1	0	0	0	0	2	0	0	0	2	0	0
OTU 72	2	0	0	0	2	0	1	0	3	0	3	0	1	1	1	0	2	0	2	0	1	0	142	4	0	0	0	0	2	0	0	1	3	0	2	1	0	1	0	0	0	1	0	2	1	1	0	4	0	0
OTU 73	1	2	1	4	0	1	0	1	1	5	0	2	0	0	5	0	2	3	27	1	3	1	3	4	0	1	0	2	1	2	0	1	0	3	1	1	0	9	2	1	1	1	2	4	0	11	1	1	2	0
OTU 74	4	0	0	0	0	0	10	0	9	1	0	3	1	9	1	0	0	0	2	1	1	0	1	1	2	0	1	2	3	3	0	3	13	4	7	0	17	5	0	0	0	2	0	0	8	0	0	2	2	6
OTU 75	2	0	1	3	2	3	0	1	1	7	5	0	2	1	0	5	5	0	2	1	56	1	4	10	0	12	1	1	1	0	1	1	1	32	10	0	3	1	0	0	5	6	0	1	2	1	2	0	0	4
OTU 76	8	1	0	3	1	0	0	0	0	2	0	0	0	2	10	0	0	1	1	1	0	0	0	3	0	0	0	0	0	0	0	0	2	1	2	0	0	0	1	0	0	0	1	11	0	0	0	0	0	2
OTU 77	1	0	0	2	1	0	4	3	0	0	0	3	0	4	0	1	0	1	1	0	1	0	0	7	0	0	0	0	0	0	1	0	1	0	5	0	0	1	1	1	0	4	2	1	0	0	2	0	0	0
OTU 78	8	0	0	0	0	1	0	1	0	0	0	0	2	1	0	0	0	0	1	1	0	0	0	6	4	6	0	0	0	5	0	6	2	4	0	1	0	0	0	0	0	0	0	0	0	0	0	1	0	1
OTU 79	4	25	10	10	11	8	3	2	0	29	7	1	8	0	5	6	14	25	3	43	2	3	1	14	0	3	12	0	3	17	2	4	1	18	8	5	3	6	6	5	7	25	0	2	3	1	2	5	3	6
OTU 80	3	2	4	0	3	0	3	1	1	1	0	1	0	3	0	0	0	4	8	1	0	9	2	0	1	0	0	1	2	6	0	1	6	1	3	2	0	6	0	0	4	4	1	1	0	2	0	0	1	0
OTU 81	1	0	18	1	0	0	7	1	7	1	0	0	2	2	2	0	4	1	0	0	5	2	6	7	4	2	0	1	0	55	1	0	1	0	1	1	5	6	20	2	3	0	0	0	8	1	6	7	41	2
OTU 82	27	3	0	0	0	7	4	0	1	3	2	0	1	11	0	0	1	1	3	0	0	0	0	55	0	1	0	1	0	0	0	0	3	1	2	0	0	0	1	6	5	1	0	0	0	0	4	2	7	0
OTU 83	0	0	0	0	0	6	0	0	0	0	0	0	0	0	0	0	0	0	0	0	1	1	0	0	0	1	0	0	0	0	0	0	1	0	0	0	0	0	0	0	1	1	0	0	1	0	0	0	3	0
OTU 84	2	4	0	2	1	0	0	0	0	1	0	0	0	0	9	0	3	69	0	4	0	0	0	0	1	1	4	0	0	0	0	0	0	0	8	0	0	0	4	1	1	0	0	0	0	1	1	0	3	3
OTU 85	0	0	0	0	0	0	0	0	0	0	0	0	0	0	0	0	0	0	0	0	0	0	1	0	0	0	0	0	0	0	0	0	0	0	0	0	0	3	0	0	0	1	0	0	0	0	0	1	0	0
OTU 86	0	0	0	0	0	0	0	0	0	0	2	0	0	0	0	0	0	0	0	0	0	0	0	0	0	0	0	0	0	0	0	0	0	3	0	0	0	0	0	0	0	0	0	0	0	0	0	1	1	0
OTU 87	1	0	0	0	9	1	0	1	1	0	1	7	0	6	5	0	0	0	5	0	0	6	0	0	2	0	0	0	48	0	1	0	0	0	0	1	0	3	0	1	0	4	0	3	0	0	0	0	1	2
OTU 88	0	0	0	0	0	0	0	0	0	0	0	0	1	1	0	0	1	0	0	0	0	0	0	0	0	0	0	0	0	0	0	0	0	0	0	0	0	0	0	0	0	0	0	0	0	0	0	0	15	0
OTU 89	0	0	0	1	4	0	12	0	0	0	0	0	1	3	0	1	5	0	0	0	0	2	0	0	2	0	0	0	0	0	0	0	0	0	0	0	0	0	0	0	0	0	4	1	0	0	0	0	2	1
OTU 90	0	0	0	0	0	0	0	0	0	0	0	0	0	0	0	0	2	0	0	0	0	0	2	0	0	0	0	0	0	0	0	0	4	0	0	0	0	0	0	0	0	0	0	0	0	0	0	6	0	7
OTU 91	0	0	0	0	0	0	0	0	0	0	0	0	0	0	0	0	0	0	0	4	0	0	0	0	0	1	0	0	0	0	0	0	0	0	1	0	0	0	0	0	7	0	0	0	0	0	0	0	0	0
OTU 92	0	0	0	0	0	0	0	0	2	0	0	0	1	1	0	2	0	0	0	0	0	0	0	0	0	0	0	0	0	0	0	0	0	2	0	0	0	0	0	0	0	0	0	0	1	0	0	0	0	2
OTU 93	0	0	0	0	0	0	2	0	0	0	0	0	0	0	0	4	0	0	0	0	0	0	0	0	0	0	0	0	0	0	0	0	0	0	0	0	0	0	0	0	0	0	0	0	0	0	0	0	0	0
OTU 94	0	0	0	2	0	5	0	0	11	1	0	3	0	0	1	0	4	0	0	1	1	2	0	1	3	2	0	11	3	0	0	3	1	4	0	0	0	0	1	0	0	4	4	1	4	0	3	9	0	0
OTU 95	1	0	0	0	0	0	1	1	0	3	0	0	0	0	1	0	0	0	0	10	0	2	0	0	0	4	2	1	0	7	0	0	6	8	6	0	0	1	1	0	3	2	0	2	0	0	0	1	0	0
OTU 96	0	0	4	0	0	0	0	0	0	0	0	1	0	0	0	0	0	0	0	0	0	0	0	0	0	0	0	0	0	0	5	0	0	0	0	4	0	0	0	0	0	0	1	0	0	0	3	0	1	0
OTU 97	0	0	1	0	0	0	0	0	0	0	0	1	0	0	0	0	2	0	0	0	0	0	0	1	0	0	0	0	0	0	0	0	0	0	0	0	0	0	0	0	1	0	0	0	0	0	0	3	3	0
OTU 98	0	0	0	0	0	0	0	0	0	0	0	0	0	0	0	0	0	0	0	0	1	0	0	1	0	1	0	0	0	0	0	0	0	0	0	0	43	0	0	2	0	0	0	0	0	0	0	0	0	0
OTU 99	1	2	0	3	4	0	1	0	6	1	0	1	0	0	0	2	0	3	8	1	0	58	0	0	0	2	2	1	0	3	0	0	0	0	2	0	2	2	0	0	1	2	0	0	2	2	1	4	0	0
OTU 100	0	0	0	0	0	0	0	2	0	0	0	0	0	1	1	0	0	0	0	0	0	3	1	0	0	0	0	0	2	0	0	0	2	2	2	0	0	1	0	0	2	0	0	0	1	0	0	0	0	0
OTU 101	0	0	0	0	0	0	0	0	0	0	4	0	0	0	0	0	0	0	0	0	0	0	0	0	0	0	0	0	0	0	0	1	0	0	0	0	0	0	0	0	0	0	0	0	0	0	0	0	0	0
OTU 102	4	0	2	0	0	1	0	0	1	0	0	1	0	2	2	0	0	0	122	0	0	0	0	0	0	0	0	4	1	1	0	0	0	1	0	0	1	0	0	0	1	0	0	0	0	0	0	0	0	2
OTU 103	0	139	0	6	3	0	0	8	1	0	1	2	0	0	3	0	1	0	0	2	0	0	0	0	0	5	1	0	1	0	2	3	1	0	0	1	0	1	0	1	6	55	0	1	1	0	0	0	2	2
OTU 104	2	4	0	0	2	1	2	0	0	2	0	0	1	0	0	1	2	1	0	0	0	2	0	6	2	1	0	1	3	6	0	1	0	1	1	3	0	1	3	1	0	0	4	1	0	1	1	1	2	2
OTU 105	0	0	0	0	0	0	1	2	0	0	0	0	0	0	0	0	0	0	0	0	0	0	2	0	0	0	0	0	0	0	0	0	0	0	1	0	0	0	0	1	0	0	0	1	0	0	1	2	1	1
OTU 106	1	0	0	0	36	0	2	2	3	0	0	0	0	1	1	16	0	0	1	0	0	0	0	1	0	7	0	1	0	0	0	3	0	0	1	0	0	2	1	0	0	1	2	0	0	0	0	1	0	0
OTU 107	0	3	0	0	0	0	0	0	7	0	0	3	0	4	0	0	0	2	0	0	0	4	0	0	1	0	1	0	0	9	0	0	0	1	0	0	1	0	1	3	1	3	0	0	0	0	0	5	4	0
OTU 108	1	0	3	0	0	3	0	1	1	0	2	3	0	2	0	1	21	0	0	0	1	3	0	2	0	0	0	11	0	1	0	0	0	1	0	0	0	0	0	7	1	0	2	0	3	0	0	0	0	0
OTU 109	0	0	0	0	0	0	0	0	0	0	0	0	0	0	0	0	0	0	0	0	0	0	0	0	0	0	0	0	0	0	0	0	0	0	0	0	0	0	0	0	0	0	0	0	0	0	0	0	0	0
OTU 110	0	0	0	4	1	1	0	0	3	0	0	1	0	0	5	0	3	1	0	0	0	7	0	3	11	0	1	3	1	4	0	0	2	0	0	0	3	4	0	1	5	0	13	1	2	0	0	4	1	2
OTU 111	0	0	1	0	0	0	0	0	0	0	0	0	0	0	0	0	0	0	0	1	0	0	0	0	1	0	0	0	0	0	0	0	0	0	0	0	0	0	1	1	0	0	0	0	0	0	0	1	1	4
OTU 112	0	1	0	1	0	0	0	0	1	143	0	0	0	0	0	0	0	0	0	1	0	0	0	0	0	0	2	0	0	0	0	0	0	0	0	0	0	0	0	0	0	0	1	2	0	0	0	0	0	0
OTU 113	0	0	0	0	3	0	0	0	0	0	1	0	0	0	0	0	0	1	0	0	0	1	0	0	0	0	0	0	0	0	0	0	7	0	0	0	0	0	0	0	0	0	0	0	0	1	0	3	0	0
OTU 114	1	4	1	2	3	2	0	1	22	1	108	1	0	0	1	1	17	1	1	1	0	0	1	4	1	0	1	21	3	4	1	1	1	4	0	1	0	75	2	0	5	0	0	1	0	1	2	19	11	3
OTU 115	3	1	1	1	12	1	5	1	2	4	0	0	0	5	0	0	9	5	4	2	0	2	3	4	14	3	2	0	0	1	1	2	0	2	1	2	8	1	1	1	0	2	16	1	0	0	0	1	0	3
OTU 116	5	0	4	4	1	0	0	95	4	1	0	0	1	0	0	0	0	2	0	1	0	0	1	4	0	3	0	2	6	0	0	0	0	5	3	1	2	0	0	1	5	2	1	1	2	1	1	0	4	0
OTU 117	1	1	0	0	0	2	1	0	5	0	0	0	0	0	0	0	8	0	0	1	0	6	0	0	0	4	2	5	4	0	0	12	1	1	2	2	0	0	0	0	1	0	1	2	2	0	1	2	2	0
OTU 118	0	0	0	0	0	0	0	0	3	1	0	1	0	0	0	1	0	0	0	0	0	0	0	1	0	0	0	1	0	0	0	0	0	0	0	0	0	0	1	0	0	0	1	0	1	0	0	0	1	0
OTU 119	1	9	14	1	3	0	0	0	7	3	0	0	1	1	4	0	5	5	0	0	2	7	3	5	3	2	1	4	9	0	1	0	2	0	1	4	6	0	6	3	0	13	0	4	2	9	6	5	1	6
OTU 120	0	0	0	0	0	0	0	2	6	0	0	4	0	0	0	0	0	0	3	1	0	0	0	0	0	0	0	4	0	0	0	0	0	0	0	0	0	0	0	0	2	0	1	0	0	0	0	0	4	0
OTU 121	1	0	0	3	0	1	0	1	0	0	0	0	0	1	1	5	0	0	4	0	1	0	0	0	0	2	0	0	3	1	0	0	4	0	0	0	0	1	0	0	3	0	4	2	0	0	0	0	0	0
OTU 122	4	0	0	5	3	0	42	2	3	0	2	3	0	30	2	1	1	0	3	56	0	5	1	0	1	0	25	1	1	0	0	2	0	0	6	0	0	13	0	0	11	0	0	2	0	1	4	1	1	0
OTU 123	2	5	0	0	4	2	2	4	38	4	3	1	2	10	0	2	14	77	7	4	6	13	1	11	5	10	1	22	5	6	0	1	11	13	12	1	3	4	2	7	20	13	0	1	7	1	2	15	9	5
OTU 124	0	0	0	0	1	1	0	2	0	0	0	1	0	0	0	0	1	0	0	0	0	0	0	0	0	0	0	0	0	0	0	0	2	2	0	0	0	0	0	0	0	1	0	0	0	0	0	0	0	95
OTU 125	8	7	2	3	2	30	5	1	4	1	3	3	14	10	2	1	4	2	3	0	4	20	1	2	4	1	1	0	6	5	2	3	0	4	0	0	0	3	8	4	5	23	0	2	9	3	6	2	33	2
OTU 126	0	0	0	0	0	0	0	0	1	0	0	0	0	2	0	0	0	0	0	0	0	0	1	0	0	0	0	0	0	0	0	0	0	0	0	0	0	1	1	0	0	3	0	0	0	0	0	0	0	0
OTU 127	0	0	69	0	0	1	0	1	1	0	4	0	0	1	0	1	8	0	1	0	0	0	43	0	0	0	0	1	0	0	0	0	0	0	1	0	0	0	0	4	1	1	0	0	0	0	0	0	0	0
OTU 128	4	1	12	11	6	3	5	8	20	1	2	3	7	6	8	8	7	2	1	2	1	6	1	3	3	9	3	10	3	10	1	0	26	5	4	2	9	5	2	13	20	4	2	6	1	2	3	7	4	18
OTU 129	0	0	0	0	1	0	0	18	0	0	0	29	0	0	0	0	0	0	0	0	0	0	1	0	0	0	0	0	0	0	0	0	0	1	0	0	0	0	0	4	0	0	0	0	4	0	0	0	0	0
OTU 130	2	1	0	1	0	1	0	0	0	2	1	0	0	2	0	0	11	4	3	0	1	2	1	1	1	0	0	0	0	5	0	2	2	0	1	0	0	1	1	0	0	0	1	0	0	0	0	3	0	0
OTU 131	1	0	3	4	2	0	0	0	2	0	0	1	0	0	0	0	1	0	0	0	0	1	0	0	1	2	0	4	0	10	0	0	0	1	0	0	0	0	1	9	1	0	3	0	0	0	0	5	0	0
OTU 132	0	0	0	0	0	2	3	1	2	0	7	0	0	0	2	0	1	0	0	1	0	0	0	0	0	0	0	1	0	0	0	0	0	0	1	0	0	0	1	3	0	2	0	0	3	0	0	0	1	0
OTU 133	1	0	0	0	0	1	2	0	1	0	0	0	0	0	0	0	0	0	0	0	0	0	0	0	0	0	0	0	0	0	0	0	0	1	2	0	0	0	0	1	0	0	0	0	0	0	0	0	0	0
OTU 134	1	1	0	1	0	0	0	0	0	2	0	1	3	0	0	2	0	2	2	0	0	3	0	2	2	2	0	0	3	1	45	0	0	2	2	0	3	1	2	0	1	12	5	0	8	0	0	0	5	0
OTU 135	3	1	0	0	0	1	9	0	3	2	0	0	1	0	1	0	0	0	0	1	0	0	0	0	0	1	1	1	1	0	1	0	0	1	0	0	1	2	0	0	1	2	3	0	2	0	0	7	0	2
OTU 136	4	3	0	2	5	0	0	2	0	1	1	12	0	2	0	0	3	0	1	1	0	1	0	1	0	1	0	0	1	0	1	0	3	0	6	0	0	0	3	2	0	0	2	2	3	0	2	8	0	0
OTU 137	1	0	0	0	0	0	0	0	4	0	1	0	0	1	0	0	1	0	0	0	0	0	1	0	1	0	0	2	0	0	0	0	6	0	0	0	1	0	0	0	3	0	0	0	1	0	0	2	21	0
OTU 138	0	0	0	2	0	0	0	2	1	0	0	0	0	0	0	0	0	0	3	0	0	0	0	0	1	5	0	0	3	6	1	1	0	1	2	0	0	0	0	0	0	1	0	0	3	0	0	0	0	0
OTU 139	6	2	2	3	3	1	0	0	4	2	2	0	0	0	0	1	0	1	1	1	4	8	2	2	2	3	0	1	0	0	0	1	2	3	8	0	17	0	5	20	4	0	0	0	3	0	0	24	4	2
OTU 140	1	1	0	4	4	6	57	0	7	0	10	0	3	0	2	14	12	4	3	6	0	6	2	13	72	8	4	1	3	0	0	14	77	10	13	0	34	2	3	0	3	13	2	1	0	0	0	3	8	2
OTU 141	0	0	0	0	0	0	0	0	0	0	0	0	0	0	0	0	0	0	0	0	0	0	0	0	0	0	0	0	0	0	0	0	0	0	0	0	0	0	0	0	0	0	0	0	0	0	0	0	0	0
OTU 142	0	0	0	1	0	0	0	0	0	0	0	0	0	0	0	0	0	0	0	0	0	0	0	0	0	0	0	0	0	0	0	0	0	0	0	0	0	0	0	0	0	0	0	0	0	0	0	0	0	0
OTU 143	0	1	0	0	0	0	0	0	3	0	0	0	0	0	2	0	1	0	0	0	1	0	0	0	2	0	0	3	0	0	0	0	0	1	6	0	0	0	0	2	0	2	0	0	0	0	0	1	0	0
OTU 144	0	0	1	0	0	0	0	0	0	0	1	0	0	0	0	0	1	0	0	0	0	0	1	0	0	0	0	0	0	0	0	3	0	0	0	0	0	0	0	0	0	0	0	1	0	0	0	2	0	0
OTU 145	6	1	1	4	2	0	4	3	0	1	0	12	1	24	17	0	3	0	0	0	1	3	1	1	0	1	0	1	1	0	0	2	0	3	0	0	0	8	0	0	3	0	1	4	5	0	4	0	9	10
OTU 146	0	2	1	0	3	1	1	0	0	5	2	1	0	2	0	0	0	4	5	0	0	0	1	3	22	4	0	0	0	0	0	2	1	0	0	9	0	1	0	3	3	0	36	2	3	0	2	0	0	1
OTU 147	0	1	1	0	1	1	1	0	0	0	0	0	2	1	0	0	8	0	1	0	0	0	0	1	0	5	0	0	1	12	0	0	11	0	0	0	1	0	0	0	0	0	0	0	1	1	0	0	0	0
OTU 148	1	0	0	6	4	1	4	0	1	0	0	1	4	1	2	1	0	0	1	0	0	1	1	0	1	23	0	0	0	3	0	13	0	48	4	185	1	6	3	0	0	0	0	0	1	0	0	0	2	0
OTU 149	1	0	0	0	0	0	1	0	0	1	0	1	1	0	0	0	1	0	0	0	0	0	0	2	2	0	0	0	3	0	0	0	0	0	0	1	0	0	0	0	0	0	6	0	0	0	0	0	0	4
OTU 150	0	1	0	93	0	0	0	0	0	0	0	0	0	0	0	0	1	3	0	0	0	4	0	3	0	3	0	0	1	0	0	0	0	0	0	0	0	0	0	1	1	0	0	0	6	0	1	1	0	1
OTU 151	0	1	0	60	0	2	0	1	0	1	0	0	0	0	0	0	0	0	0	0	0	5	0	0	0	0	0	1	0	0	0	0	0	4	7	0	1	0	1	2	1	1	0	0	0	0	0	4	0	0
OTU 152	2	0	1	4	3	0	1	1	5	0	5	2	1	1	4	1	0	0	0	0	0	6	0	0	0	2	1	0	1	1	1	0	0	1	0	0	0	63	0	6	2	2	2	0	0	0	0	2	0	2
OTU 153	1	0	0	0	0	0	0	0	0	0	0	0	0	0	0	0	0	0	0	0	0	0	0	0	0	0	0	0	0	0	0	0	0	0	0	0	0	0	0	0	0	0	0	0	0	0	0	1	0	1
OTU 154	0	0	0	0	0	0	0	0	0	0	0	0	1	0	1	2	0	0	0	0	0	0	0	0	9	0	0	0	0	0	0	0	1	6	0	0	0	0	0	0	0	0	18	0	0	0	0	0	0	0
OTU 155	0	0	0	0	0	0	0	0	0	0	1	0	0	0	0	0	2	0	0	0	0	0	0	0	1	0	0	0	2	0	0	0	0	1	1	0	1	0	0	0	0	0	0	0	0	0	1	0	2	3
OTU 156	0	0	0	3	0	3	3	8	0	0	1	0	0	0	2	3	6	3	1	2	0	0	0	1	0	0	0	1	1	1	2	0	3	9	1	4	0	0	0	0	4	11	2	4	5	0	5	0	4	0
OTU 157	0	0	0	0	1	0	1	0	0	0	0	0	0	0	0	0	1	0	0	0	0	0	0	1	0	2	0	0	0	0	0	0	1	0	1	0	0	0	0	0	0	0	0	0	0	0	0	0	0	6
OTU 158	0	0	0	0	0	0	0	0	0	0	0	0	0	2	0	0	1	0	0	0	0	0	0	0	0	0	0	0	0	0	0	0	0	0	0	0	0	0	0	0	0	0	2	0	0	0	0	0	0	0
OTU 159	1	4	1	2	0	0	14	0	0	0	4	0	2	12	1	2	0	0	0	1	0	0	2	2	0	0	1	0	11	0	1	0	1	0	3	0	2	0	1	0	1	2	0	0	0	1	0	0	0	0
OTU 160	1	2	7	8	18	4	1	1	2	22	0	8	4	5	93	143	0	3	0	12	0	6	0	4	0	0	3	0	1	8	2	1	3	4	5	1	63	7	0	2	5	2	2	63	1	0	1	0	1	3
OTU 161	17	0	0	0	14	0	0	0	1	0	0	0	141	2	2	0	0	1	1	4	0	0	1	25	0	4	2	0	0	2	7	0	0	0	2	11	0	0	1	0	1	0	1	0	50	3	14	1	0	2
OTU 162	79	5	0	8	5	1	2	2	0	0	4	13	1	0	4	6	0	0	0	1	0	1	0	0	0	1	0	0	1	3	0	2	1	8	0	0	1	4	1	1	4	4	0	2	1	0	0	0	2	0
OTU 163	0	0	0	0	0	0	0	0	0	0	5	0	0	0	0	0	0	0	0	0	0	0	0	0	0	5	0	0	0	0	0	3	0	0	0	0	0	0	0	0	0	0	0	4	0	0	0	0	0	0
OTU 164	0	0	0	0	3	0	0	0	0	0	0	0	0	0	0	0	1	0	0	0	0	0	0	0	0	0	0	0	0	0	0	0	0	0	1	1	0	0	0	0	0	1	0	0	0	0	0	0	0	0
OTU 165	2	0	0	1	0	0	0	0	1	0	0	1	2	0	0	0	2	0	0	0	0	0	0	1	0	0	0	0	0	3	0	112	0	0	0	3	0	0	0	0	0	0	0	0	0	0	4	0	0	0
OTU 166	0	0	0	0	0	0	0	0	1	0	0	0	0	0	0	0	0	0	0	0	0	0	0	0	0	0	0	0	2	1	0	1	0	0	0	0	0	0	0	0	0	0	0	0	0	0	0	0	0	0
OTU 167	0	4	0	0	0	1	1	0	3	2	0	0	0	2	1	0	1	9	3	0	0	0	0	0	0	0	210	2	0	0	1	0	0	0	2	0	0	1	0	0	0	0	0	2	0	0	1	7	0	1
OTU 168	0	0	0	0	0	1	1	0	0	1	1	0	0	3	1	1	0	1	7	0	0	2	1	5	1	2	0	2	1	2	0	2	5	0	1	0	0	1	0	0	0	1	2	0	0	0	0	0	0	0
OTU 169	0	0	0	0	0	0	0	1	0	0	0	1	0	0	4	1	0	0	0	0	0	0	0	1	0	0	0	0	0	0	0	0	0	0	0	0	0	0	0	0	0	0	0	0	0	0	0	0	0	0
OTU 170	0	0	0	0	0	1	0	0	0	0	0	0	0	0	0	0	0	0	0	0	0	1	0	0	0	0	0	0	0	0	0	0	0	0	0	0	0	0	0	0	0	0	0	0	0	0	0	0	0	0
OTU 171	2	0	0	3	2	0	1	0	3	0	0	1	0	0	2	7	0	0	0	111	1	2	0	2	1	2	48	5	2	1	0	0	2	0	9	0	1	5	0	0	1	2	1	1	0	1	0	1	6	0
OTU 172	0	0	0	0	0	0	0	0	0	0	0	0	0	0	0	2	0	0	0	0	0	0	0	0	0	0	0	0	0	7	0	0	0	1	0	0	0	0	0	0	4	0	0	0	0	0	0	0	0	0
OTU 173	0	0	0	1	0	0	0	1	0	0	0	5	0	0	1	0	0	0	0	0	0	2	0	0	0	0	0	1	2	0	0	0	0	0	0	0	1	0	0	0	0	0	0	0	0	0	0	1	0	0
OTU 174	0	0	0	0	3	0	3	0	0	0	22	2	1	1	0	1	2	0	1	5	0	0	0	0	0	0	2	0	1	0	0	0	3	0	1	0	0	1	0	0	0	0	0	1	1	0	0	0	1	2
OTU 175	0	0	0	1	0	1	2	0	2	0	4	0	1	6	0	1	1	0	2	0	0	1	0	0	1	0	0	1	0	0	0	0	0	3	0	0	0	1	0	4	0	0	4	0	0	0	0	1	0	0
OTU 176	0	1	2	0	1	1	0	0	1	5	2	0	4	0	0	0	3	1	3	0	0	1	0	0	17	1	1	1	3	3	0	1	0	1	0	0	1	1	1	0	0	4	1	0	1	2	0	1	1	1
OTU 177	44	4	0	1	7	3	2	3	2	3	1	5	1	2	1	5	0	2	2	1	0	0	0	6	0	1	2	0	4	1	0	1	2	0	2	0	0	6	0	1	9	0	0	5	0	0	0	1	2	0
OTU 178	6	0	0	0	0	1	1	0	0	0	0	0	0	1	0	0	1	0	2	1	0	3	0	2	1	0	1	22	0	0	0	0	3	2	1	0	0	0	0	0	0	9	0	3	0	0	0	0	0	1
OTU 179	0	0	1	1	0	2	0	0	4	0	5	0	0	0	0	0	2	0	4	1	0	1	0	0	1	0	2	2	0	8	0	0	9	1	1	2	1	0	0	1	0	0	3	0	2	0	0	1	3	0
OTU 180	1	1	93	4	25	2	5	0	10	6	0	4	4	2	5	4	16	0	20	3	3	13	59	7	3	1	2	5	8	7	1	0	5	7	0	1	2	5	8	1	1	12	21	6	2	1	0	5	1	1
OTU 181	1	0	0	0	0	2	1	0	0	0	1	0	0	2	0	0	3	0	0	0	0	0	0	3	0	0	0	0	1	0	0	7	0	0	6	0	0	0	2	9	6	5	0	0	0	0	0	4	2	0
OTU 182	0	0	0	0	0	0	0	0	0	0	0	0	0	0	0	0	0	0	0	0	0	0	0	0	0	0	0	0	0	0	0	0	0	0	0	0	0	0	0	0	0	0	0	0	0	0	0	0	1	0
OTU 183	1	0	0	0	0	2	0	0	0	0	0	0	2	9	0	4	3	0	2	1	0	1	0	1	0	3	0	0	0	2	0	4	2	5	0	0	0	1	0	0	0	0	0	0	0	0	0	0	0	1
OTU 184	0	2	0	0	0	0	2	0	0	2	0	0	0	1	0	2	0	2	0	3	0	1	0	0	0	1	1	0	0	0	0	0	0	0	0	0	0	0	0	0	0	0	1	0	0	0	0	0	0	1
OTU 185	0	0	2	2	2	0	0	91	4	0	0	0	0	3	1	0	0	0	0	0	0	0	0	2	1	6	0	0	0	0	0	3	3	9	0	0	1	0	0	0	4	1	1	1	1	4	0	0	1	5
OTU 186	0	0	4	0	0	0	0	0	2	0	0	0	1	0	0	2	0	0	0	0	2	0	0	0	0	1	0	0	4	0	0	0	0	3	2	1	0	0	6	0	7	0	0	74	3	0	0	0	0	1
OTU 187	0	1	48	8	1	0	2	1	3	0	0	6	10	1	9	2	5	0	23	0	28	1	23	0	0	7	0	1	0	5	11	2	8	12	6	3	1	5	31	10	2	2	2	7	40	7	15	4	20	0
OTU 188	3	5	0	2	4	0	0	3	7	1	0	1	4	0	1	0	1	4	0	0	1	5	0	6	0	1	0	1	1	7	0	3	6	2	0	0	2	1	0	1	0	1	0	1	0	0	2	0	0	2
OTU 189	3	0	2	0	0	0	4	0	0	0	0	0	16	0	1	3	1	0	0	5	1	3	0	8	3	0	1	3	13	9	0	0	2	2	6	1	0	2	0	1	1	7	7	2	3	0	2	1	1	7
OTU 190	0	0	0	0	0	0	2	0	0	0	2	0	0	2	0	0	0	0	1	0	0	0	0	0	42	1	0	0	0	0	0	3	1	3	0	0	0	0	0	0	0	0	59	0	0	0	0	0	0	0
OTU 191	1	0	3	0	0	0	2	11	1	0	4	39	0	1	0	0	0	0	4	1	1	9	7	0	0	0	0	0	0	0	1	4	4	1	1	2	3	1	1	1	0	16	2	0	1	3	1	0	1	0
OTU 192	0	9	2	4	3	0	1	0	0	14	1	1	5	11	3	2	4	10	0	0	0	1	5	1	0	7	0	0	8	2	5	3	1	0	1	3	1	1	0	3	15	9	1	7	0	3	14	1	0	1
OTU 193	4	0	0	2	2	2	5	0	2	0	1	0	1	2	0	2	19	0	7	2	0	1	1	0	0	0	0	0	1	0	0	1	4	0	4	1	0	6	0	2	1	2	0	0	0	1	3	0	0	5
OTU 194	0	3	2	0	3	8	0	0	2	5	3	3	0	0	1	0	0	2	0	0	0	0	0	0	4	0	0	0	0	1	0	0	21	0	1	0	1	0	1	0	1	4	20	0	0	0	1	0	0	0
OTU 195	0	1	0	1	0	5	0	0	0	0	0	2	0	1	1	0	0	2	0	0	0	1	1	0	3	2	1	0	5	2	0	0	0	2	0	1	2	0	0	4	3	0	5	1	0	1	0	0	1	0
OTU 196	0	0	0	0	4	2	1	0	0	0	0	0	0	0	2	0	0	0	2	2	0	0	1	0	0	3	1	0	0	0	0	0	0	0	4	0	0	1	3	1	2	2	0	0	2	0	6	3	0	0
OTU 197	14	0	1	2	14	7	6	0	0	2	7	6	25	12	3	10	4	1	7	9	0	4	1	3	1	10	4	0	7	0	1	7	13	4	26	1	2	0	1	0	15	2	0	0	0	1	0	1	0	7
OTU 198	0	0	0	0	0	0	0	0	0	0	0	0	0	3	0	0	0	0	3	0	0	0	1	0	0	0	0	0	1	0	0	2	0	0	0	0	0	0	0	0	6	0	0	0	0	0	0	0	2	2
OTU 199	0	0	0	0	0	2	1	0	3	1	1	0	0	0	1	0	0	2	2	0	0	3	0	0	0	3	0	1	0	4	0	0	0	2	0	0	1	1	0	1	1	0	0	0	2	0	0	4	0	0
OTU 200	1	0	0	4	0	0	0	2	0	1	0	1	0	1	3	5	2	0	0	0	0	3	0	5	0	0	0	0	12	3	0	1	3	0	3	1	0	2	1	0	4	0	0	0	1	0	0	0	3	2
