	Host 1	Host 2	Host 3	Host 4	Host 5	Host 6	Host 7	Host 8	Host 9	Host 10	Host 11	Host 12	Host 13	Host 14	Host 15	Host 16	Host 17	Host 18	Host 19	Host 20	Host 21	Host 22	Host 23	Host 24	Host 25	Host 26	Host 27	Host 28	Host 29	Host 30	Host 31	Host 32	Host 33	Host 34	Host 35	Host 36	Host 37	Host 38	Host 39	Host 40	Host 41	Host 42	Host 43	Host 44	Host 45	Host 46	Host 47	Host 48	Host 49	Host 50	
OTU 1	1	14	0	0	3	7	0	1	1	2	1	0	1	0	15	1	5	3	0	2	4	4	0	0	1	1	13	0	1	4	3	0	0	5	11	4	4	5	4	3	16	1	12	0	1	12	3	0	0	0
OTU 2	1	0	0	0	1	0	0	0	0	0	0	0	0	0	0	0	0	0	0	0	0	0	0	0	0	0	0	0	0	0	0	0	0	0	0	0	0	0	0	0	0	0	0	0	0	0	0	0	0	0
OTU 3	0	2	0	0	0	1	0	0	3	0	0	0	0	0	0	0	0	0	1	0	2	0	0	2	0	0	0	0	2	0	0	0	0	0	0	4	0	0	0	1	0	0	0	1	0	0	0	0	0	1
OTU 4	0	0	0	0	0	0	0	0	0	0	0	0	0	0	0	0	0	0	0	0	0	0	0	0	0	0	0	0	0	0	0	0	0	0	0	0	0	0	0	0	0	0	0	0	0	0	0	0	0	0
OTU 5	5	0	0	0	7	25	6	28	0	0	16	27	21	46	9	4	26	93	0	10	17	7	0	18	63	17	23	12	14	2	6	16	1	19	2	8	23	0	21	13	37	1	20	0	15	40	22	2	0	0
OTU 6	1	12	0	0	0	0	3	0	3	0	2	0	1	0	6	2	56	1	7	0	0	4	4	0	2	3	1	0	7	1	0	1	0	1	0	0	0	0	0	0	1	0	1	1	0	0	0	2	2	1
OTU 7	0	3	7	20	1	0	0	6	3	0	8	0	1	3	2	0	30	6	4	0	1	0	3	0	6	1	1	0	0	0	2	0	8	3	0	18	12	4	2	0	7	1	40	0	0	48	28	23	1	4
OTU 8	3	3	2	8	4	7	9	0	1	6	0	0	1	1	3	1	0	3	0	0	2	1	4	0	1	4	0	2	5	1	3	2	5	21	0	1	1	9	4	0	0	3	4	2	2	1	2	6	3	31
OTU 9	0	1	0	4	0	0	1	0	1	5	0	3	1	2	0	0	4	0	1	0	0	0	0	0	0	0	0	0	0	1	0	0	0	0	0	0	0	4	0	0	5	0	1	0	0	6	2	0	0	0
OTU 10	0	0	1	0	1	0	0	0	0	0	0	0	0	1	0	0	0	0	0	0	0	1	0	0	0	0	1	0	1	0	0	0	5	0	0	0	0	1	0	0	1	0	1	0	0	0	0	0	5	0
OTU 11	0	3	6	15	0	0	1	3	0	2	2	4	0	0	0	0	0	32	2	0	10	1	0	0	9	0	2	0	0	3	0	0	0	0	2	0	0	8	3	0	3	5	1	0	1	0	1	5	2	74
OTU 12	7	3	9	2	1	0	3	6	2	1	3	0	3	0	1	2	0	1	2	0	5	3	5	0	0	0	0	0	1	1	1	2	1	8	0	0	0	0	2	0	3	1	2	2	0	0	0	2	4	1
OTU 13	0	0	0	0	0	0	0	1	0	0	0	0	0	0	0	0	0	0	0	0	0	0	0	0	0	0	0	0	0	0	0	0	0	0	0	0	0	0	0	0	0	0	0	0	0	1	0	0	6	0
OTU 14	0	0	1	0	0	0	0	3	1	0	0	0	0	0	0	1	0	3	1	0	4	0	1	0	2	0	0	1	0	0	1	0	5	0	0	0	0	0	0	0	0	0	0	0	0	0	3	2	0	1
OTU 15	0	0	0	0	0	0	0	0	0	0	0	0	0	0	0	0	0	7	0	0	0	0	0	0	6	1	0	0	1	0	0	0	0	0	0	0	0	0	0	0	0	0	0	6	0	0	0	1	0	0
OTU 16	0	0	0	0	0	0	0	0	0	0	0	0	0	0	0	0	0	0	3	0	0	0	0	0	0	0	0	0	0	0	0	0	0	0	0	0	0	0	0	0	0	0	0	0	0	0	0	1	0	0
OTU 17	0	0	0	2	0	17	0	1	0	0	0	1	2	1	0	0	3	1	0	6	0	1	2	2	0	0	16	0	1	0	0	1	0	0	8	3	10	0	0	8	29	1	9	0	10	15	0	0	0	0
OTU 18	1	0	4	1	10	1	0	5	2	4	3	3	0	0	0	0	1	19	12	1	0	0	0	3	16	1	0	0	4	2	1	0	3	1	0	0	0	10	8	0	1	1	0	1	0	1	2	2	2	1
OTU 19	0	0	0	0	0	0	0	0	0	0	0	0	0	0	0	0	0	0	0	0	0	0	0	0	0	0	0	0	0	0	0	0	0	0	0	0	0	0	0	0	0	0	0	0	0	0	0	0	0	0
OTU 20	5	24	14	1	0	0	0	1	1	0	0	0	0	0	0	6	1	0	0	0	3	3	7	2	0	16	0	0	1	0	1	0	4	0	0	0	2	0	0	0	1	0	2	12	0	1	3	37	7	2
OTU 21	0	3	0	1	0	0	5	1	1	6	3	2	0	0	1	0	0	0	1	0	0	1	1	0	0	5	1	0	0	0	4	5	1	0	0	0	3	1	1	0	1	0	1	0	0	0	1	1	1	2
OTU 22	8	4	2	0	0	0	1	3	3	0	4	0	1	0	2	2	0	0	1	0	0	6	0	1	0	1	0	0	0	3	0	0	1	0	1	2	3	1	0	1	1	0	1	1	0	2	2	1	3	6
OTU 23	0	0	0	0	3	0	0	0	1	0	0	0	0	11	0	0	3	0	0	0	11	1	0	2	0	0	0	0	0	0	1	0	0	0	0	0	0	0	0	0	0	4	0	0	2	0	0	0	8	1
OTU 24	1	0	0	0	1	0	0	0	4	3	0	12	0	0	3	0	0	0	0	3	0	0	0	1	1	0	0	0	0	3	0	0	2	0	0	0	0	8	0	7	0	0	0	0	0	0	0	0	4	0
OTU 25	0	0	0	0	0	0	0	0	0	1	0	0	0	0	0	0	0	0	0	0	0	0	0	0	0	0	0	0	0	0	0	0	0	0	0	0	0	0	0	0	0	0	0	0	0	0	1	0	0	0
OTU 26	0	0	4	0	0	0	0	0	0	0	0	0	0	1	0	2	0	0	0	0	0	0	0	0	0	0	0	0	0	0	0	0	0	0	0	0	0	0	0	0	0	0	0	0	0	0	0	0	0	0
OTU 27	0	0	0	0	0	0	0	0	0	0	0	0	0	0	0	0	1	0	0	0	0	0	0	0	0	1	0	0	0	0	0	0	0	0	0	0	0	0	0	0	0	3	0	0	0	1	0	0	0	0
OTU 28	2	0	0	0	0	1	1	0	7	1	0	1	0	8	4	2	0	6	3	0	71	0	5	9	3	0	3	0	4	0	2	0	7	39	2	136	0	0	9	1	3	1	1	0	0	0	1	0	4	4
OTU 29	8	0	0	1	2	0	3	0	4	6	0	0	32	0	0	5	1	0	0	0	0	2	0	0	0	2	2	1	5	6	0	0	1	1	0	0	0	4	3	0	1	1	0	2	0	1	0	5	0	3
OTU 30	0	0	0	0	0	0	0	0	0	0	0	0	0	0	0	0	0	0	0	0	0	0	0	0	0	0	0	0	0	0	0	0	0	0	0	0	0	0	0	0	0	0	0	0	0	0	0	0	0	0
OTU 31	0	0	7	0	1	0	1	4	1	1	0	0	0	1	0	0	0	0	0	0	0	5	0	0	0	0	1	0	0	0	0	14	1	0	0	0	0	0	1	1	4	0	0	0	1	0	1	0	1	1
OTU 32	0	5	1	0	34	0	0	2	1	3	6	3	2	0	1	4	0	0	3	0	3	1	2	128	1	1	2	5	1	3	7	2	0	0	1	2	2	6	1	0	2	44	0	4	2	2	6	2	0	15
OTU 33	0	0	0	0	0	0	0	0	0	0	0	0	0	0	0	0	0	0	0	0	0	0	0	0	0	0	0	0	0	0	0	0	1	0	0	0	0	0	2	0	0	0	0	0	0	0	0	0	1	0
OTU 34	14	5	2	0	2	1	4	3	1	0	9	2	0	0	6	0	0	0	5	2	1	0	1	0	0	2	3	1	1	0	1	6	0	0	0	0	0	0	0	2	2	3	84	2	0	0	0	4	0	1
OTU 35	0	0	2	0	0	2	0	0	8	1	4	0	0	1	0	0	0	0	1	0	1	2	2	0	0	118	0	7	1	0	5	1	6	0	0	0	1	0	1	0	0	0	0	2	0	0	0	0	1	0
OTU 36	0	3	1	0	3	0	0	2	0	0	0	0	2	0	0	0	1	1	5	1	4	2	0	0	0	0	0	0	5	3	1	0	3	0	0	1	2	2	0	0	3	0	64	5	0	3	0	0	2	0
OTU 37	0	0	0	0	0	0	0	0	2	0	1	0	0	2	0	1	0	0	0	0	0	0	0	0	0	0	0	0	0	1	0	0	0	0	0	0	0	0	0	2	1	0	0	0	0	1	10	0	0	0
OTU 38	0	0	2	3	0	1	0	1	5	0	0	2	0	1	0	0	0	2	0	0	0	0	4	0	0	0	0	1	0	2	0	1	8	0	1	0	0	3	0	0	0	3	0	1	0	2	0	0	12	0
OTU 39	0	0	0	3	0	0	0	0	0	0	0	1	0	3	2	0	0	0	0	0	0	0	0	0	0	0	0	1	0	0	0	0	0	1	0	0	0	0	0	0	0	0	0	3	0	0	0	0	0	0
OTU 40	26	0	2	7	42	0	7	0	0	1	1	0	1	45	1	1	0	0	0	0	0	0	1	1	0	0	7	1	0	0	0	0	3	0	0	1	1	0	1	0	3	1	4	0	0	0	2	1	3	0
OTU 41	0	0	0	0	0	1	0	0	0	0	0	0	1	2	1	0	0	0	0	0	0	0	0	3	0	1	0	0	1	0	0	0	1	0	0	0	0	1	4	0	1	0	1	2	1	0	0	0	0	0
OTU 42	0	0	2	0	1	0	0	0	1	0	0	0	0	0	3	0	0	2	0	0	0	1	0	0	1	0	0	0	1	0	0	0	1	0	0	0	0	0	0	0	0	0	0	0	0	0	0	3	1	0
OTU 43	0	0	0	1	0	0	0	0	0	0	0	0	0	0	0	0	0	0	0	0	0	0	0	0	0	0	0	0	0	1	0	0	0	0	2	0	0	0	0	0	0	0	0	0	0	0	0	0	0	0
OTU 44	0	2	0	0	0	0	0	0	0	0	13	0	0	0	1	1	0	4	0	0	0	0	0	0	0	0	1	0	0	0	3	0	3	0	3	2	1	0	0	0	0	1	0	0	1	0	0	0	0	0
OTU 45	20	1	0	4	22	0	7	4	2	4	1	2	2	2	30	5	2	24	0	0	2	2	2	8	3	0	0	4	1	2	9	7	10	14	1	1	6	5	1	0	0	11	0	0	0	5	2	2	2	0
OTU 46	0	6	1	28	2	0	0	2	0	0	0	3	0	1	3	8	1	0	0	0	0	5	0	1	0	1	1	40	1	1	97	0	0	0	0	0	0	0	7	1	1	15	1	0	0	1	9	0	1	0
OTU 47	4	1	0	0	0	0	0	0	0	0	0	1	0	0	0	3	0	0	0	0	0	0	0	0	0	0	0	0	0	0	2	0	3	0	0	0	0	0	0	0	0	0	1	2	0	0	0	0	0	0
OTU 48	0	2	0	62	0	0	70	3	0	4	8	3	1	1	5	0	0	3	5	0	4	0	1	3	0	2	1	0	0	4	0	1	0	0	2	1	0	9	2	3	1	8	0	15	0	0	1	2	0	1
OTU 49	0	0	0	0	0	1	0	0	0	1	0	0	2	42	1	0	0	2	2	0	0	1	0	0	1	0	0	0	0	0	1	0	0	2	1	0	2	2	3	0	1	0	1	0	0	0	5	0	0	3
OTU 50	0	0	2	1	3	0	3	2	0	3	2	3	2	5	0	0	1	0	0	3	4	0	0	4	0	0	5	1	0	1	4	0	0	0	1	2	1	1	0	3	1	2	0	1	1	0	2	3	2	0
OTU 51	1	3	1	6	1	0	0	0	2	0	4	0	0	3	0	13	0	0	0	0	0	2	0	0	0	0	2	0	0	0	1	0	0	3	0	0	0	1	0	0	2	0	0	0	0	0	6	0	1	5
OTU 52	0	6	2	10	0	1	2	0	3	11	26	15	0	1	5	2	3	1	7	1	1	2	1	1	6	5	3	1	6	15	0	1	2	1	2	1	2	29	1	1	3	2	1	4	0	2	8	13	3	0
OTU 53	0	0	0	0	0	0	0	0	0	0	0	0	0	0	0	0	0	0	0	0	0	0	0	0	0	0	0	0	0	0	0	0	0	0	0	0	0	0	0	0	0	0	0	0	0	0	0	0	0	0
OTU 54	13	5	1	0	1	0	1	2	0	3	3	1	0	4	0	9	0	0	5	0	2	2	1	6	1	0	0	17	3	4	24	0	1	14	0	0	3	7	10	0	1	1	1	2	1	0	6	4	3	1
OTU 55	0	0	0	0	0	0	0	0	0	0	0	0	0	0	0	0	0	0	0	0	0	0	0	0	0	0	0	0	0	0	0	0	0	0	0	0	0	0	0	0	0	0	0	0	0	0	0	0	0	0
OTU 56	1	0	0	0	1	0	0	3	0	0	0	3	0	0	0	0	0	1	0	0	0	0	3	1	0	0	0	0	0	0	0	0	4	0	0	0	0	2	0	0	3	0	0	0	0	0	0	0	0	0
OTU 57	2	8	5	2	5	14	1	13	1	4	1	4	13	0	3	10	128	2	9	3	6	17	1	6	0	6	6	2	19	4	1	3	0	15	10	13	34	3	4	12	1	6	6	4	1	8	1	10	5	4
OTU 58	2	0	5	0	0	0	0	0	1	0	1	0	1	1	9	4	2	1	2	0	0	0	0	1	0	1	3	0	0	1	0	0	0	0	0	16	2	0	0	0	0	1	2	1	0	1	5	1	0	1
OTU 59	0	0	0	2	2	1	0	1	0	0	0	0	1	0	6	0	6	1	1	3	0	0	5	0	0	3	0	0	0	2	0	1	0	0	4	0	0	0	1	3	12	1	5	0	2	5	0	1	1	0
OTU 60	1	2	0	1	0	0	5	8	1	2	1	22	4	1	3	1	0	2	1	0	1	4	0	2	114	0	2	2	0	0	0	0	4	3	1	0	1	2	0	0	2	0	4	3	0	2	1	1	0	0
OTU 61	6	1	2	17	0	0	0	1	0	3	0	8	1	2	3	0	0	5	56	0	0	1	1	2	1	1	0	2	12	9	2	0	3	0	0	3	0	10	0	3	4	0	1	0	0	4	4	10	3	0
OTU 62	0	0	0	0	1	0	0	0	7	0	0	0	0	0	0	6	1	0	1	0	0	5	0	2	0	0	0	0	0	0	0	2	2	1	0	0	0	0	0	0	0	0	0	0	0	0	0	0	0	2
OTU 63	0	4	0	0	0	0	1	3	0	0	1	0	3	0	5	0	0	0	0	0	0	0	148	0	0	0	0	0	0	0	0	66	5	0	0	0	0	0	1	0	0	1	0	0	0	0	0	0	11	0
OTU 64	10	0	1	0	0	0	14	1	0	1	0	0	3	7	3	8	0	4	0	0	0	3	3	7	3	1	0	1	4	9	1	14	8	1	2	17	1	6	2	0	0	0	3	1	0	0	6	1	1	10
OTU 65	0	0	0	0	0	0	0	0	2	0	0	0	0	0	0	0	0	0	0	0	0	0	0	0	0	0	0	0	0	0	0	1	0	0	0	0	0	0	0	0	0	0	0	0	0	0	0	0	0	0
OTU 66	7	5	1	0	0	1	1	0	57	0	0	1	0	0	0	1	0	0	1	0	1	0	20	0	49	2	6	0	4	1	0	11	0	1	0	1	0	2	2	0	1	1	0	5	0	0	1	1	1	0
OTU 67	0	1	5	0	1	85	1	4	1	0	1	0	0	0	0	1	0	0	0	6	3	0	0	1	0	0	0	4	0	1	6	0	0	0	0	0	1	0	0	3	1	0	0	3	49	1	4	0	5	1
OTU 68	0	1	4	0	3	8	2	1	0	1	0	0	0	1	0	0	9	4	0	7	0	0	1	0	2	0	14	0	0	1	0	0	1	0	14	6	17	0	0	19	22	0	5	0	4	17	0	0	2	3
OTU 69	1	2	0	13	0	0	2	0	0	12	0	6	2	1	1	1	2	0	2	0	1	0	0	3	2	1	0	0	0	24	0	0	1	1	4	0	0	23	0	3	2	2	0	4	0	2	2	1	7	3
OTU 70	0	0	0	0	2	1	0	7	4	4	1	3	7	0	4	0	0	2	0	3	0	11	0	3	1	1	0	0	3	10	0	0	0	0	2	2	0	8	1	1	0	0	0	0	3	0	1	0	0	1
OTU 71	0	3	1	3	37	0	0	0	2	4	1	0	0	4	0	0	0	0	7	0	0	0	0	0	0	0	0	0	0	0	0	0	0	2	1	1	0	5	0	0	1	2	0	0	0	0	0	2	0	1
OTU 72	7	1	0	4	1	1	0	0	1	0	0	0	0	4	2	0	0	0	0	0	0	1	2	1	23	0	3	0	0	0	0	1	8	1	8	2	0	3	0	0	0	0	0	1	0	0	0	1	0	4
OTU 73	6	2	0	0	0	0	0	10	3	3	1	1	5	0	2	0	0	0	0	0	0	0	0	0	0	2	0	0	0	3	2	2	1	0	0	1	0	0	4	3	0	3	0	2	0	0	0	0	4	0
OTU 74	0	0	2	0	0	0	0	1	0	3	0	0	0	0	0	1	0	0	1	1	2	6	0	1	0	17	0	0	1	0	0	1	0	6	0	0	0	0	5	5	1	0	1	0	0	2	1	1	0	0
OTU 75	0	0	0	0	1	0	2	11	2	0	1	3	2	1	0	3	5	0	2	88	14	25	1	0	0	3	13	1	6	0	2	0	0	0	10	5	3	1	0	5	24	1	5	0	4	11	0	0	3	1
OTU 76	0	1	0	0	3	0	0	0	0	0	0	0	0	0	0	0	0	0	0	0	0	3	0	0	0	0	0	0	0	0	0	0	0	1	0	0	0	0	0	0	0	0	0	9	0	0	2	5	0	0
OTU 77	7	1	2	1	0	0	38	3	0	0	5	0	1	1	2	2	1	0	0	5	3	4	2	1	0	0	0	85	3	1	0	2	0	0	1	0	0	1	1	2	7	90	0	0	0	0	2	6	17	2
OTU 78	0	10	3	0	12	0	10	1	0	3	5	0	0	1	2	15	1	2	2	52	10	0	2	8	0	1	0	1	9	1	4	0	4	0	0	0	0	2	0	3	0	2	0	0	1	3	2	5	0	0
OTU 79	9	0	4	6	4	1	1	9	2	1	3	3	1	1	12	8	9	4	4	33	4	9	1	10	0	2	2	5	5	0	10	4	0	4	79	82	152	1	23	61	9	4	3	14	2	6	8	5	13	8
OTU 80	2	1	2	0	0	0	0	0	1	1	5	0	0	0	0	3	0	0	3	0	1	0	1	2	0	0	0	18	0	1	37	0	6	51	3	0	0	0	0	0	0	0	0	13	0	0	3	0	0	1
OTU 81	1	0	2	1	0	1	4	0	2	1	11	2	0	2	0	3	0	0	4	0	2	4	2	0	1	1	0	9	0	0	37	9	5	100	1	0	3	1	20	1	2	0	1	0	1	0	1	5	2	4
OTU 82	2	0	4	2	0	0	0	1	0	89	4	6	0	2	4	4	0	1	0	0	1	0	4	0	3	1	0	1	0	1	4	1	0	0	0	0	0	10	1	0	0	0	0	4	0	0	0	0	1	13
OTU 83	0	1	4	0	0	0	1	0	0	0	0	0	0	2	0	2	0	0	0	0	0	3	0	0	0	0	0	0	0	0	0	0	9	0	0	0	0	0	0	0	0	0	0	0	0	0	0	1	1	0
OTU 84	0	0	2	10	4	1	0	2	1	4	1	4	0	0	4	0	0	1	1	0	0	2	1	4	1	0	2	3	3	7	11	0	0	1	0	0	0	12	0	0	1	1	0	0	0	0	1	0	4	0
OTU 85	0	6	0	2	0	0	1	0	0	1	0	0	0	0	0	5	0	0	0	0	0	1	0	0	0	0	4	0	1	0	3	0	0	0	0	0	0	0	1	1	0	0	0	0	0	0	0	0	0	9
OTU 86	0	0	0	0	0	0	0	0	0	0	0	0	0	0	0	0	0	0	0	0	0	0	0	1	0	8	0	0	0	0	0	0	0	0	0	0	0	0	0	0	0	2	0	0	0	0	0	0	0	0
OTU 87	6	0	0	4	0	0	0	1	0	0	0	0	0	1	0	1	0	0	0	0	0	0	1	0	2	2	0	1	0	0	0	0	2	0	1	1	0	0	0	1	0	0	2	0	0	0	0	0	0	2
OTU 88	0	0	1	2	0	0	0	0	0	0	0	0	0	0	0	0	0	0	0	0	0	0	0	0	0	0	1	0	2	0	0	0	0	0	0	0	0	0	0	0	1	0	0	0	0	0	0	0	1	0
OTU 89	26	1	0	0	5	1	0	0	1	0	0	0	0	0	1	0	0	1	21	0	0	0	2	0	0	0	0	0	0	0	0	0	1	0	2	0	8	0	21	1	0	0	0	0	0	0	0	2	8	1
OTU 90	0	0	0	0	0	0	0	0	0	1	0	0	0	0	0	0	0	0	0	0	0	0	0	0	0	0	0	0	0	0	0	0	0	0	0	0	0	0	0	0	0	0	0	0	0	0	0	0	0	0
OTU 91	0	0	0	0	0	0	0	0	0	0	0	0	0	0	0	0	0	0	0	0	0	0	0	0	0	0	0	0	0	0	0	0	0	0	0	0	0	0	0	0	0	0	0	0	0	0	0	0	0	1
OTU 92	0	1	0	0	0	2	0	0	0	0	0	0	0	0	0	1	1	0	0	0	0	0	0	0	0	0	0	0	0	0	0	0	0	2	0	0	0	0	0	0	6	1	0	2	0	5	1	0	0	0
OTU 93	0	0	0	0	0	0	0	0	1	0	0	0	0	0	1	0	0	0	0	1	0	0	0	0	0	0	0	0	5	0	0	0	1	0	0	0	0	0	0	1	1	0	1	0	0	0	0	0	0	0
OTU 94	0	1	3	4	0	2	0	3	1	1	1	2	1	5	0	8	0	1	2	0	6	2	1	0	0	3	4	0	1	0	0	1	4	1	1	1	3	1	0	0	8	2	0	1	0	5	0	0	4	0
OTU 95	0	0	0	0	2	0	1	40	2	0	0	0	24	0	0	0	0	0	1	0	0	0	0	0	1	0	0	0	0	0	0	0	1	0	0	0	0	0	0	0	0	0	1	2	1	0	3	0	0	0
OTU 96	0	0	0	0	0	0	0	0	0	0	0	0	0	2	0	0	0	0	0	0	0	0	0	0	0	0	0	0	0	0	0	0	3	0	0	0	0	0	0	0	0	0	0	0	0	0	0	0	0	0
OTU 97	0	0	1	0	2	0	0	0	0	0	0	0	1	0	0	0	0	0	0	0	0	0	0	0	0	0	0	0	0	0	0	0	0	0	0	0	0	0	0	0	0	0	0	0	0	1	0	2	0	0
OTU 98	0	0	1	0	0	0	2	1	2	0	0	0	0	0	0	0	0	0	0	0	0	0	0	0	0	0	0	0	0	0	0	0	0	0	0	0	0	0	0	0	1	0	0	0	0	0	0	0	0	1
OTU 99	0	4	1	4	0	2	1	0	0	1	1	4	0	0	2	0	1	3	1	0	2	2	1	1	0	0	112	0	1	3	1	1	5	8	0	0	1	3	64	1	3	0	0	0	1	2	2	0	3	3
OTU 100	0	3	0	0	0	2	3	3	1	0	0	0	1	0	0	0	0	0	0	0	1	1	0	0	0	0	1	0	4	0	0	0	2	1	2	0	0	0	1	0	8	1	0	3	0	0	1	0	1	2
OTU 101	0	0	0	0	0	0	1	0	0	0	0	0	0	0	0	0	0	0	0	0	0	0	0	0	0	0	0	0	2	0	0	0	0	0	1	0	0	1	2	0	1	0	0	0	0	0	0	0	0	3
OTU 102	0	0	2	0	0	1	0	2	0	0	1	0	2	0	1	0	0	0	0	0	0	0	0	0	0	0	0	2	0	0	3	0	1	0	1	0	0	0	0	0	0	1	1	0	0	1	0	0	0	0
OTU 103	0	0	4	2	0	1	1	1	0	5	2	2	0	0	0	0	0	0	2	0	2	0	1	0	0	0	0	0	0	0	0	0	0	1	0	0	0	7	0	0	0	3	1	2	1	0	4	0	0	6
OTU 104	1	11	5	0	1	1	7	10	0	0	3	60	2	3	1	3	0	2	2	2	1	0	0	5	0	9	0	0	2	1	0	0	0	0	0	0	1	3	4	4	2	2	0	8	2	0	27	0	0	2
OTU 105	0	0	1	0	0	0	0	0	1	0	8	0	0	0	0	5	0	0	7	1	0	0	0	0	0	4	6	0	0	0	0	0	1	0	0	0	2	0	0	0	2	0	0	0	0	0	0	0	0	1
OTU 106	1	0	0	0	0	0	0	0	0	0	0	0	0	0	0	0	0	0	0	0	0	0	0	0	0	2	0	0	0	0	0	0	6	0	0	0	0	1	0	0	0	0	1	0	0	1	0	0	0	0
OTU 107	0	0	16	0	0	0	1	0	12	1	0	1	0	1	0	0	0	1	0	0	2	3	2	2	0	0	2	0	0	0	0	0	1	1	1	0	2	0	1	0	1	0	0	13	7	3	0	2	0	0
OTU 108	4	6	0	9	0	0	3	0	0	6	0	1	2	6	0	1	18	1	0	0	1	0	0	0	0	1	0	0	2	1	0	0	8	0	2	6	13	0	6	0	0	0	27	1	0	67	1	0	0	0
OTU 109	0	7	0	0	0	0	0	0	0	0	0	0	0	0	0	0	0	0	0	0	0	0	0	0	2	0	0	0	0	0	0	0	0	0	0	0	0	0	3	0	0	0	0	0	0	0	0	0	0	0
OTU 110	0	4	3	0	1	3	0	2	0	0	1	3	1	0	1	0	1	3	0	0	6	9	2	0	1	1	2	0	0	0	0	0	0	0	0	0	1	0	4	0	3	2	0	0	0	0	0	16	1	2
OTU 111	0	2	0	0	0	0	0	0	0	1	1	0	0	0	0	0	0	1	0	0	0	1	1	0	0	0	0	0	2	0	0	1	0	1	0	0	0	2	0	0	0	0	0	0	0	0	0	2	0	0
OTU 112	3	0	0	0	4	0	0	2	0	71	0	1	2	0	0	0	0	0	0	0	2	0	0	0	1	0	0	1	6	1	0	0	0	0	1	0	0	1	6	0	0	0	0	0	0	0	0	1	5	0
OTU 113	0	0	0	1	0	0	0	0	0	0	0	0	0	0	0	0	0	0	0	0	5	0	0	0	0	0	0	0	0	0	0	0	2	0	0	0	2	0	0	0	0	0	0	1	0	0	0	0	0	0
OTU 114	1	2	1	3	2	2	1	4	36	2	2	3	6	0	2	4	0	0	0	0	2	4	13	1	0	2	0	3	7	4	2	10	2	1	2	0	0	2	0	0	2	0	2	1	1	4	1	12	2	0
OTU 115	7	3	1	1	1	2	0	2	2	3	2	4	5	2	4	4	0	2	0	2	5	1	1	0	3	4	2	1	1	3	0	2	1	1	0	1	2	8	0	7	3	1	1	2	2	1	16	8	8	3
OTU 116	6	2	0	2	3	0	3	3	1	4	0	3	0	0	0	1	1	6	68	0	0	0	0	0	1	0	2	20	0	2	0	0	3	1	1	0	0	2	0	0	5	1	0	5	0	0	6	1	7	7
OTU 117	0	1	2	5	0	1	2	2	1	0	0	0	1	0	9	4	0	7	0	0	0	2	0	0	1	0	0	2	1	2	3	1	0	1	0	2	0	1	4	0	0	4	1	3	0	0	0	6	3	0
OTU 118	0	0	0	0	1	0	0	0	0	0	0	4	0	1	3	0	0	0	0	0	0	0	0	0	0	1	0	0	0	1	0	0	8	0	0	0	0	7	0	0	0	0	1	1	0	0	0	0	0	0
OTU 119	1	1	0	3	1	0	0	6	0	2	3	2	4	0	2	1	2	0	2	0	0	0	0	0	0	0	0	0	0	0	0	0	0	0	0	0	1	0	0	0	0	0	0	0	3	0	0	4	4	1
OTU 120	0	4	0	0	0	2	0	0	0	0	0	0	0	0	0	0	0	0	1	0	0	0	0	0	0	0	0	0	0	0	2	4	4	2	3	0	0	0	0	3	0	0	0	1	0	0	0	2	0	0
OTU 121	29	0	8	5	1	0	5	0	3	0	8	0	0	2	7	4	0	5	0	0	0	0	0	4	6	0	0	0	3	0	0	1	1	0	2	1	0	1	29	0	1	2	0	1	0	0	0	1	1	2
OTU 122	1	0	2	2	0	0	6	0	1	1	3	12	0	1	1	0	0	7	0	0	1	7	4	1	0	0	0	1	1	3	4	2	1	0	0	0	0	7	2	0	0	2	0	1	0	0	8	0	1	0
OTU 123	1	38	17	11	65	2	9	3	12	7	9	15	4	0	3	9	3	2	1	1	1	1	10	15	3	28	1	3	44	18	6	10	41	3	1	2	4	9	11	2	7	12	4	58	69	6	9	28	7	8
OTU 124	0	0	2	3	0	0	0	0	0	2	0	0	0	0	11	0	0	1	1	1	0	0	0	2	0	0	0	0	0	0	0	0	4	0	3	0	2	0	0	0	0	0	1	0	0	0	3	1	2	1
OTU 125	14	13	10	4	2	1	6	6	2	9	5	8	152	21	16	7	1	5	5	63	6	7	4	5	4	2	0	0	3	4	2	3	12	3	6	2	1	5	4	141	3	1	2	2	1	3	4	10	9	9
OTU 126	0	11	0	0	2	0	1	2	0	0	1	0	1	0	2	2	0	4	0	5	0	17	0	5	0	0	1	0	0	0	0	0	0	0	1	0	0	0	0	3	1	0	0	0	0	0	0	0	0	0
OTU 127	0	1	2	0	0	0	2	0	0	0	7	15	0	0	0	0	0	0	0	0	0	1	0	1	0	0	0	1	1	0	1	0	0	1	0	0	0	0	2	0	0	0	0	0	0	0	0	0	1	11
OTU 128	0	29	6	1	2	2	4	7	3	0	14	2	4	5	1	9	4	5	7	2	13	47	4	1	0	10	32	1	1	1	10	3	27	8	2	5	8	3	5	6	9	11	1	7	2	8	5	3	3	3
OTU 129	0	0	0	0	0	0	0	20	0	0	0	0	9	57	0	0	0	0	2	0	0	0	0	0	0	0	0	0	0	0	0	1	0	0	0	0	0	0	0	0	0	0	0	0	0	0	0	0	0	0
OTU 130	2	1	5	4	0	0	0	3	0	0	0	0	0	3	9	9	0	1	1	0	22	37	0	1	3	1	0	0	0	0	0	0	0	0	0	0	0	2	1	0	0	0	0	1	1	0	5	3	0	0
OTU 131	0	1	2	0	0	0	0	0	2	0	0	34	0	1	0	0	2	1	3	0	0	3	1	3	1	0	2	0	0	0	0	0	0	1	1	0	0	0	1	0	1	2	0	1	0	5	14	9	3	0
OTU 132	0	4	1	0	0	0	1	1	0	0	1	0	0	0	0	1	1	0	0	2	0	4	0	4	1	4	1	0	0	0	0	0	0	0	1	0	1	1	1	0	0	0	1	0	1	0	0	1	0	0
OTU 133	9	0	0	0	0	0	0	0	0	0	0	0	0	0	1	0	0	0	0	0	0	0	0	5	0	0	0	0	0	0	0	0	0	0	0	0	0	0	0	0	0	0	0	0	0	0	0	0	0	0
OTU 134	1	1	3	0	0	6	0	6	3	9	0	0	0	4	0	0	0	0	3	0	0	0	0	0	0	0	0	0	2	0	0	1	0	0	2	0	1	3	0	0	0	1	1	0	6	0	0	0	0	0
OTU 135	1	1	0	0	1	0	0	0	0	4	0	0	2	0	0	2	1	1	0	1	0	0	1	3	0	0	0	0	1	0	0	0	0	0	1	0	0	1	0	3	1	0	0	0	0	4	1	1	2	3
OTU 136	0	2	0	2	0	76	0	0	0	0	1	0	0	0	1	0	0	0	2	0	1	0	0	0	0	2	0	1	0	1	0	0	1	1	2	0	0	3	0	2	0	0	0	1	53	0	0	0	0	0
OTU 137	0	1	0	0	0	0	2	0	0	0	0	0	1	1	0	4	0	2	0	0	0	0	3	0	0	0	1	0	0	0	0	1	1	7	0	1	1	1	5	1	2	0	0	0	0	0	0	1	0	10
OTU 138	4	5	2	0	1	0	0	0	0	0	0	0	0	1	0	0	0	0	0	0	0	0	0	0	0	0	0	0	0	0	0	0	1	0	0	0	0	0	0	0	6	0	1	0	0	0	3	2	0	0
OTU 139	7	3	20	2	7	2	0	3	18	10	1	4	2	5	64	4	1	8	50	1	1	1	10	15	5	1	0	5	11	0	6	4	4	0	1	0	4	9	6	1	1	54	2	56	0	0	1	1	17	1
OTU 140	0	18	1	1	6	1	1	0	0	2	5	1	0	1	5	0	0	3	3	5	6	4	3	2	4	6	6	0	0	0	1	1	6	0	4	3	1	5	3	7	4	10	2	2	1	0	0	3	8	1
OTU 141	0	1	0	0	0	0	0	0	0	0	0	0	0	0	0	0	0	0	0	0	0	0	3	0	0	0	1	0	0	0	0	0	0	0	0	0	0	0	0	0	4	0	2	0	0	0	0	0	1	0
OTU 142	0	0	6	0	0	0	0	0	0	0	0	0	0	1	0	0	0	0	0	0	0	0	0	0	0	0	0	0	0	0	0	0	0	0	1	0	0	0	0	0	0	0	0	0	0	0	0	0	0	2
OTU 143	0	0	0	2	0	0	0	0	0	2	0	0	4	0	0	0	6	0	0	0	0	0	0	0	0	0	0	1	0	0	0	0	0	0	1	1	3	1	0	1	4	0	1	0	0	6	0	1	1	3
OTU 144	4	0	0	2	1	0	0	0	0	0	0	0	0	0	0	0	0	0	5	1	0	2	0	0	0	0	0	0	0	0	1	0	2	0	0	0	0	0	0	0	0	0	0	0	0	2	0	0	1	0
OTU 145	3	0	2	0	1	0	0	0	0	0	0	3	0	1	4	3	0	0	0	1	2	4	1	0	0	2	1	1	7	1	1	0	0	2	0	0	0	0	1	1	1	0	1	0	1	0	3	3	5	5
OTU 146	0	1	2	2	0	2	1	1	0	0	1	4	1	13	6	0	0	5	1	0	0	0	0	0	0	0	3	0	4	0	5	0	0	0	1	0	0	0	1	0	1	0	0	0	0	0	14	0	2	1
OTU 147	0	1	1	1	3	0	0	1	0	1	0	1	0	0	0	0	0	0	0	0	0	2	2	0	0	0	1	0	0	0	0	1	2	0	0	0	0	0	1	0	2	0	0	6	0	0	0	0	0	0
OTU 148	1	0	3	2	0	0	0	0	0	0	0	2	0	0	8	0	1	13	1	2	0	2	1	5	6	3	4	0	2	1	0	1	1	0	0	1	0	4	0	4	2	1	0	0	2	1	5	15	4	0
OTU 149	0	0	0	0	0	0	0	0	0	0	0	0	0	0	0	0	0	0	0	0	0	0	0	0	0	0	0	0	50	0	0	0	0	0	4	0	0	0	0	0	1	0	0	0	0	0	0	0	1	1
OTU 150	1	0	0	0	0	0	6	0	0	1	0	0	0	0	0	2	0	8	0	0	6	0	0	0	2	0	0	0	0	0	0	1	0	0	0	0	0	4	0	0	0	0	0	0	0	0	0	0	0	1
OTU 151	0	0	2	0	0	3	0	0	0	0	0	2	0	0	0	0	0	1	0	0	1	1	0	5	0	0	0	0	0	0	0	0	15	0	0	0	0	0	0	0	0	2	0	1	0	1	0	0	0	2
OTU 152	2	0	7	0	6	0	3	16	3	1	1	0	7	1	2	2	0	0	0	0	0	3	1	4	0	2	0	2	0	0	0	1	0	1	1	0	0	0	2	1	2	0	1	0	1	0	0	0	2	0
OTU 153	0	0	0	0	0	0	0	0	0	0	0	0	0	0	1	0	0	0	0	1	0	0	0	1	0	0	0	0	0	0	0	0	1	0	0	0	0	0	0	0	0	0	0	0	0	0	1	0	0	0
OTU 154	0	0	0	23	4	4	0	0	0	0	0	0	0	0	0	0	0	0	0	0	0	0	0	0	0	0	1	0	0	0	0	0	0	0	0	0	0	0	0	0	2	0	0	0	0	0	0	0	9	0
OTU 155	0	5	19	1	0	0	2	0	0	7	7	1	0	0	0	0	0	0	0	0	0	1	1	0	0	2	0	0	1	2	1	121	0	0	0	1	0	6	0	0	0	1	0	0	0	0	0	0	0	0
OTU 156	0	1	0	2	0	0	0	7	2	0	9	0	2	0	1	3	3	1	0	4	0	0	3	0	0	1	0	2	0	4	1	0	11	0	3	0	2	10	2	6	0	6	0	1	0	2	3	2	8	2
OTU 157	0	0	0	0	0	0	0	0	0	0	2	0	0	0	4	0	0	1	0	1	0	0	0	1	0	0	2	0	0	0	0	0	0	4	0	0	0	0	0	2	0	0	0	0	0	0	0	2	6	1
OTU 158	0	0	0	0	0	0	0	0	0	0	1	0	0	0	0	0	0	0	0	0	0	0	0	0	0	0	0	0	0	0	0	0	0	0	0	0	0	0	0	0	0	0	0	0	0	0	0	0	0	0
OTU 159	4	0	0	1	0	2	0	0	1	1	5	0	2	0	1	32	0	3	0	0	0	6	6	1	1	0	0	2	0	0	7	1	2	0	1	0	0	1	0	0	0	0	0	0	0	0	0	1	0	5
OTU 160	1	8	0	3	6	1	10	0	7	3	6	11	0	0	1	5	2	9	4	0	1	5	5	12	1	4	4	1	2	1	3	1	11	10	0	7	6	4	6	1	1	0	0	5	0	3	4	9	0	9
OTU 161	0	0	0	0	0	0	3	1	0	1	0	1	0	2	0	1	1	0	0	0	70	4	0	1	0	0	0	1	1	0	0	1	1	0	0	1	1	1	1	0	2	0	0	1	0	0	0	0	0	2
OTU 162	0	4	3	1	1	0	1	5	1	2	1	2	2	0	1	3	0	1	0	2	2	3	3	1	1	1	7	1	11	0	1	1	1	1	4	3	0	5	1	1	7	8	0	1	0	1	0	0	0	1
OTU 163	0	0	1	0	0	0	0	0	1	0	0	0	0	0	0	0	0	0	0	0	0	3	0	0	0	0	0	0	0	0	0	0	0	0	0	0	0	0	0	0	0	0	0	0	0	0	0	0	0	0
OTU 164	0	0	0	0	0	0	0	0	0	0	0	0	0	0	0	0	0	0	0	0	0	0	0	0	0	0	0	0	0	0	0	0	0	0	0	0	0	0	0	0	0	0	0	0	0	0	0	0	0	0
OTU 165	0	1	0	0	1	0	2	0	0	0	1	0	0	0	0	0	0	0	0	0	0	2	1	0	0	1	0	0	2	0	0	0	1	5	0	0	0	2	0	0	0	0	0	5	92	0	3	1	3	0
OTU 166	0	0	0	0	0	0	0	0	0	0	0	0	0	0	0	0	0	0	0	0	0	0	0	0	0	0	0	0	0	0	0	0	0	0	0	0	0	0	0	0	0	0	0	1	0	0	0	0	0	0
OTU 167	0	0	1	0	2	1	0	13	1	1	0	0	4	0	0	0	0	0	0	0	0	0	0	0	0	0	1	0	17	4	0	1	0	0	0	3	3	4	2	0	6	0	0	4	1	0	0	0	0	0
OTU 168	3	0	0	0	0	3	11	0	2	0	5	1	0	0	0	49	0	1	0	0	0	0	0	0	1	0	1	3	1	0	1	0	0	0	0	1	0	5	0	0	2	0	0	3	1	0	0	6	1	2
OTU 169	0	0	0	0	0	0	0	0	0	0	0	0	0	0	0	0	0	0	0	0	0	0	3	0	0	0	0	0	7	0	0	0	0	0	2	0	1	0	0	1	0	0	0	0	0	0	0	0	0	0
OTU 170	0	0	0	0	0	0	0	0	0	0	0	0	0	0	0	0	0	0	0	0	0	0	0	0	0	0	0	0	0	0	0	0	0	0	0	0	0	0	0	0	0	0	0	0	0	0	0	0	0	0
OTU 171	4	0	7	2	0	0	1	0	10	5	0	2	0	4	0	1	0	0	0	0	0	0	0	3	0	0	0	0	0	2	0	0	3	0	108	1	0	7	0	0	0	0	2	0	0	0	3	0	4	0
OTU 172	1	0	0	0	0	0	0	0	0	0	0	0	0	0	0	0	0	0	0	0	0	0	0	0	0	0	0	0	0	0	0	0	0	0	0	0	0	0	0	0	0	0	0	0	0	0	0	0	0	1
OTU 173	1	0	0	0	0	0	0	3	0	0	2	2	2	0	0	0	0	0	0	0	1	0	8	0	0	2	0	0	1	0	0	0	0	3	2	0	0	1	0	0	0	0	0	0	0	0	0	2	0	0
OTU 174	19	3	1	2	4	0	63	0	0	0	0	2	0	0	5	0	1	7	0	2	0	2	3	7	6	0	0	5	0	0	4	0	0	4	0	0	2	0	6	7	1	0	0	0	0	2	7	0	0	0
OTU 175	1	0	4	0	1	0	1	0	0	0	1	3	0	0	0	3	0	0	0	0	0	1	0	1	0	0	11	7	0	1	6	0	2	0	0	0	0	1	0	0	0	3	0	0	0	0	0	0	0	0
OTU 176	1	0	1	3	1	3	2	0	0	0	2	4	1	0	2	2	3	0	1	0	7	4	2	3	0	0	0	1	2	6	2	1	0	1	0	0	0	8	1	2	0	0	2	9	0	2	1	0	11	6
OTU 177	1	1	0	10	1	1	0	0	8	0	0	0	0	0	6	0	0	0	0	3	1	0	0	2	0	0	5	0	3	2	1	2	1	1	1	2	2	0	2	1	5	1	1	0	1	0	2	1	8	0
OTU 178	0	0	0	0	2	0	0	0	0	1	0	0	0	0	0	0	0	0	3	1	0	1	1	0	0	0	0	0	0	0	0	0	2	0	3	0	0	1	0	0	0	0	0	0	0	0	0	0	1	0
OTU 179	0	1	0	0	0	1	0	6	4	0	0	0	7	0	2	1	0	0	2	0	0	0	1	2	0	0	0	0	0	0	0	0	11	0	0	0	0	0	0	0	0	0	1	0	1	0	1	0	0	0
OTU 180	4	10	3	3	7	74	4	5	4	4	55	5	1	0	4	29	22	2	5	3	0	4	4	0	3	28	3	17	4	1	4	11	6	1	3	7	15	3	2	8	4	3	13	5	36	29	9	2	12	17
OTU 181	1	0	0	3	1	0	1	0	0	0	2	0	0	2	0	0	1	2	1	0	0	0	0	1	2	1	0	2	0	0	2	1	2	0	0	0	0	1	0	2	1	3	1	0	0	2	0	0	2	1
OTU 182	0	0	1	0	0	0	0	0	0	0	0	0	1	0	0	0	0	0	0	0	0	0	0	0	0	0	0	0	0	0	0	0	0	0	0	0	0	0	0	0	0	0	0	0	0	0	0	2	0	0
OTU 183	7	0	0	0	4	0	0	2	1	0	1	0	1	0	0	1	6	3	6	0	0	1	0	0	0	5	5	2	0	1	1	0	0	0	0	0	0	1	1	1	0	1	0	1	0	0	1	1	6	1
OTU 184	0	3	0	0	0	0	0	2	1	0	0	0	0	0	0	0	0	0	0	0	0	3	0	0	0	0	0	2	0	0	2	0	0	0	0	0	0	0	0	0	2	2	0	0	0	0	7	7	0	0
OTU 185	2	0	1	0	0	0	3	0	1	1	1	0	1	2	1	6	2	0	9	1	8	0	1	0	0	1	1	3	3	0	2	0	1	0	3	1	6	1	0	0	0	6	1	1	0	1	6	14	4	0
OTU 186	2	0	0	1	3	0	0	3	0	0	1	0	0	0	1	3	0	2	0	0	0	6	0	0	1	0	0	0	0	1	0	0	0	0	4	0	0	3	0	0	0	0	0	0	0	0	0	0	0	0
OTU 187	6	0	0	10	1	1	3	1	13	0	1	1	2	0	1	1	0	2	0	58	2	4	0	2	1	0	0	3	0	0	5	0	6	0	3	2	0	1	0	0	1	2	0	0	1	2	8	1	12	2
OTU 188	1	2	59	2	0	3	0	1	44	1	1	0	3	2	3	2	0	0	3	0	0	0	23	1	1	0	4	0	12	1	2	10	4	1	0	2	3	2	2	1	4	3	3	31	2	2	10	2	2	6
OTU 189	1	2	6	0	1	0	2	2	22	2	12	0	2	0	3	1	1	0	1	0	0	17	2	1	0	2	0	0	1	0	2	3	2	0	1	0	0	0	0	0	1	3	5	7	0	0	2	12	1	4
OTU 190	0	0	1	0	0	0	0	0	0	0	0	0	0	0	0	0	0	0	0	0	0	0	0	0	0	0	0	0	0	0	0	0	0	0	0	0	0	0	0	0	0	0	0	1	0	0	0	0	0	2
OTU 191	0	0	0	4	0	0	0	0	0	11	0	2	0	0	1	0	3	2	0	0	0	0	1	10	3	2	0	0	1	2	1	4	1	0	1	0	0	11	3	0	1	4	0	1	2	5	4	0	1	1
OTU 192	4	4	7	1	5	1	0	28	1	0	2	1	9	14	5	5	0	6	0	1	2	0	4	0	6	8	1	1	6	1	0	1	5	0	1	0	1	1	7	2	1	0	2	2	0	3	5	4	2	1
OTU 193	0	0	0	0	1	0	0	3	4	1	1	0	0	1	1	0	0	3	0	0	0	1	3	0	0	0	2	0	5	4	1	0	0	0	0	1	1	1	6	1	2	0	0	0	0	0	3	0	6	2
OTU 194	2	5	3	0	1	0	0	2	0	0	0	1	0	10	2	3	1	0	0	0	0	0	0	4	0	7	1	72	0	0	0	0	1	0	1	0	0	0	0	0	3	0	0	2	0	0	3	3	0	0
OTU 195	0	1	0	0	1	0	3	0	2	0	1	1	0	0	6	0	0	1	1	0	0	0	0	1	1	0	0	0	13	0	0	2	0	0	0	1	0	0	1	0	0	1	1	0	1	0	0	0	2	0
OTU 196	0	0	0	0	0	6	0	0	0	0	0	0	0	0	0	0	5	3	0	2	0	0	0	0	0	3	13	0	0	178	1	5	0	0	0	1	1	0	0	1	23	1	15	0	0	8	3	0	0	6
OTU 197	8	3	5	0	5	1	1	0	5	3	32	3	0	0	6	0	2	3	2	0	3	3	5	4	1	6	1	0	1	1	1	3	2	0	26	2	0	2	8	0	0	1	2	1	0	4	2	2	12	1
OTU 198	0	0	2	0	0	0	0	0	3	0	0	0	0	0	0	1	0	0	0	0	6	0	2	0	0	0	0	0	0	0	0	1	0	0	0	0	0	0	0	0	0	0	1	0	0	0	0	2	0	0
OTU 199	0	0	1	0	0	1	2	1	1	0	0	0	0	0	0	0	0	0	0	0	0	1	0	0	0	1	0	0	0	0	0	1	0	0	0	0	0	0	1	0	0	1	0	0	0	0	0	1	0	1
OTU 200	5	0	3	0	3	0	0	0	1	3	3	9	0	5	4	4	0	4	2	0	1	1	0	0	1	1	7	0	2	1	1	0	0	0	0	1	1	6	0	0	2	3	1	0	1	1	1	1	3	0
