	Host 1	Host 2	Host 3	Host 4	Host 5	Host 6	Host 7	Host 8	Host 9	Host 10	Host 11	Host 12	Host 13	Host 14	Host 15	Host 16	Host 17	Host 18	Host 19	Host 20	Host 21	Host 22	Host 23	Host 24	Host 25	Host 26	Host 27	Host 28	Host 29	Host 30	Host 31	Host 32	Host 33	Host 34	Host 35	Host 36	Host 37	Host 38	Host 39	Host 40	Host 41	Host 42	Host 43	Host 44	Host 45	Host 46	Host 47	Host 48	Host 49	Host 50	
OTU 1	0	6	8	3	0	5	0	3	0	1	0	3	0	0	5	1	0	2	0	0	0	0	0	6	2	3	2	1	0	0	5	0	4	0	4	2	1	4	1	4	1	1	1	0	2	0	2	0	0	1
OTU 2	2	0	0	1	0	0	0	0	0	0	0	0	2	1	0	0	0	0	1	1	0	0	0	0	0	0	0	0	0	0	0	0	0	1	0	1	0	0	1	0	0	0	0	0	0	0	0	0	0	0
OTU 3	2	6	1	0	0	0	0	0	5	0	0	0	0	0	0	1	3	0	0	2	0	0	0	0	0	0	0	0	3	0	0	0	4	0	0	0	0	1	0	0	0	2	1	1	0	1	0	0	0	0
OTU 4	0	0	0	0	0	0	0	0	0	0	0	0	0	0	0	0	0	0	0	0	0	0	0	0	0	0	0	0	0	0	0	0	0	0	0	0	0	0	0	0	0	0	0	0	1	0	0	0	0	0
OTU 5	1	0	0	2	0	58	5	10	0	8	1	8	5	44	15	16	20	0	16	14	29	2	41	3	3	3	30	10	42	18	12	1	0	5	0	12	0	9	0	39	0	0	39	11	6	0	7	0	16	17
OTU 6	0	1	5	0	0	2	0	2	0	0	0	0	2	0	1	3	0	0	0	0	0	0	2	2	0	2	2	0	0	0	0	2	0	0	1	0	0	0	0	5	0	5	3	2	7	1	3	0	1	1
OTU 7	3	1	16	0	5	4	1	4	10	5	7	0	2	3	5	7	10	3	0	0	0	3	3	0	2	0	9	4	2	2	0	0	3	3	2	3	3	3	4	1	1	5	0	3	0	23	9	3	0	5
OTU 8	1	2	0	5	5	2	28	0	10	0	4	1	3	3	1	4	3	3	4	0	3	2	2	0	6	0	2	27	19	2	0	6	1	2	2	2	1	0	1	14	1	2	13	5	11	3	40	3	1	1
OTU 9	0	1	3	0	0	0	103	4	1	3	0	0	2	1	2	1	0	0	0	0	0	3	0	33	0	0	0	2	0	0	0	0	0	0	0	1	1	0	4	0	2	0	0	1	0	7	3	2	0	2
OTU 10	1	0	0	0	0	2	1	0	0	1	0	1	0	0	4	0	0	0	1	0	0	0	0	2	0	2	0	0	0	0	2	0	2	0	0	0	0	1	0	0	1	0	0	0	0	0	1	0	0	0
OTU 11	7	1	8	0	7	0	5	0	0	3	0	1	4	4	10	0	2	15	0	0	0	1	8	6	2	1	5	3	1	0	3	0	4	7	12	4	0	4	0	2	4	9	1	0	5	1	1	8	3	0
OTU 12	1	3	2	4	1	0	0	0	3	0	1	0	0	3	0	1	3	4	9	1	0	0	0	0	1	0	2	3	0	3	0	0	1	1	1	0	4	0	0	2	7	0	0	4	0	2	1	1	0	4
OTU 13	0	0	0	0	0	1	0	0	0	0	0	0	0	0	0	0	0	0	0	0	0	0	0	0	0	0	0	0	3	0	0	0	0	0	0	0	0	0	0	0	0	0	0	0	0	0	0	0	0	0
OTU 14	0	0	0	0	0	0	0	0	0	0	0	0	1	1	0	0	1	0	0	3	0	0	0	0	0	0	0	1	0	0	0	0	0	1	0	0	0	0	0	0	0	0	0	0	0	0	0	0	0	1
OTU 15	0	0	0	0	0	0	0	0	0	0	0	0	0	0	0	0	0	0	0	14	0	0	0	0	0	1	0	0	0	0	0	0	0	0	0	0	0	0	0	0	0	0	0	0	0	2	0	0	0	0
OTU 16	0	0	0	0	0	0	0	0	0	0	0	0	0	0	0	0	0	0	0	0	0	0	0	0	0	0	0	0	0	0	0	0	0	0	0	0	0	0	0	0	0	0	0	0	0	0	0	0	0	0
OTU 17	0	0	0	0	10	4	0	1	0	0	3	2	0	0	0	0	0	4	4	7	0	0	3	5	0	1	0	0	0	0	0	0	8	2	25	1	0	4	0	0	11	0	0	2	18	0	0	0	0	1
OTU 18	0	2	2	9	2	1	0	5	0	0	0	4	2	2	0	4	3	4	0	0	0	2	1	2	1	2	1	2	0	0	4	1	2	0	3	2	0	8	2	0	3	0	0	5	6	6	2	0	0	0
OTU 19	0	0	0	0	0	3	0	0	0	0	0	0	0	0	0	0	0	0	0	0	0	0	0	0	0	0	0	0	0	0	0	0	0	0	0	0	0	0	0	0	0	0	0	0	0	0	0	0	0	0
OTU 20	0	1	1	0	5	0	0	5	2	0	0	0	0	14	1	1	0	12	1	12	0	5	0	1	0	0	2	1	0	2	0	2	2	4	2	2	0	1	0	0	6	3	0	1	0	2	0	0	0	0
OTU 21	3	0	3	6	2	2	1	1	4	0	0	3	81	0	1	18	2	2	0	1	0	0	0	0	1	157	5	0	0	0	0	8	5	18	5	2	0	3	0	1	1	9	0	4	0	2	1	0	0	14
OTU 22	3	2	3	3	3	0	0	0	15	2	0	0	1	0	3	0	0	0	0	3	0	5	0	4	3	0	2	0	2	0	2	2	0	0	6	0	3	1	0	1	0	5	0	0	9	3	1	2	2	4
OTU 23	3	2	0	0	0	0	0	1	0	0	0	0	0	0	0	16	0	0	0	0	76	0	0	0	0	15	0	1	0	123	0	1	0	23	1	0	2	0	0	4	0	1	3	3	0	0	0	1	0	0
OTU 24	0	0	0	0	0	0	0	0	0	0	0	0	0	0	0	0	0	1	1	0	0	4	1	0	0	1	0	0	1	0	0	0	2	0	0	0	0	0	0	0	1	0	0	0	0	0	0	0	0	0
OTU 25	0	9	0	0	0	0	4	0	0	0	0	0	0	0	0	0	0	0	0	0	0	0	0	0	0	0	0	0	0	0	0	0	0	0	0	0	3	0	0	0	0	0	0	0	0	0	0	0	0	0
OTU 26	0	0	0	0	0	0	0	0	0	0	0	0	0	1	1	0	0	2	0	0	0	0	0	0	0	0	0	0	2	0	0	0	0	0	0	0	0	0	4	0	0	0	0	0	0	0	2	1	0	1
OTU 27	0	0	0	0	0	0	0	0	0	0	0	0	0	0	0	0	0	0	0	0	0	0	0	0	0	0	0	0	0	0	0	0	0	0	0	0	0	0	0	0	1	0	0	0	0	0	0	0	0	0
OTU 28	12	3	39	0	2	0	0	3	14	12	1	2	53	0	21	3	2	0	1	7	0	0	0	1	0	1	32	2	0	1	4	0	1	1	9	1	0	3	1	1	0	0	2	7	2	88	53	0	0	0
OTU 29	2	6	0	0	1	1	0	1	0	0	0	0	1	0	0	3	0	1	1	5	0	6	1	0	0	1	1	1	0	0	0	2	5	0	0	3	4	0	0	1	2	5	0	0	0	0	1	0	3	1
OTU 30	0	0	0	0	0	0	0	0	0	0	0	0	0	0	0	0	0	0	0	0	0	0	0	0	0	0	0	0	0	0	0	0	0	0	0	0	0	0	0	0	0	0	0	0	0	0	0	0	0	0
OTU 31	0	0	0	0	0	0	0	1	0	0	1	0	2	1	1	0	0	4	0	4	83	0	0	0	85	0	0	0	31	0	0	0	0	1	0	3	0	0	0	0	3	1	0	0	0	4	0	0	0	0
OTU 32	3	0	1	0	0	0	1	0	7	2	6	0	1	1	1	5	4	3	2	0	0	0	7	1	1	4	0	0	1	4	0	1	3	0	3	1	1	2	7	0	1	7	3	2	5	1	1	0	0	1
OTU 33	0	0	0	0	0	0	0	0	0	0	0	0	0	0	0	0	0	0	0	0	0	0	0	0	0	0	0	0	0	0	0	0	0	0	0	0	0	0	0	0	0	0	0	0	0	0	0	0	1	0
OTU 34	18	3	1	4	0	0	5	2	3	0	3	0	0	1	0	1	3	6	0	0	0	1	0	0	1	0	0	9	0	0	0	1	1	1	0	0	6	0	0	0	0	4	1	0	5	2	1	0	1	0
OTU 35	2	0	3	1	1	0	0	2	1	0	0	8	0	1	3	0	0	0	0	5	0	1	0	0	0	0	0	0	2	0	0	2	0	2	1	0	1	0	1	0	0	1	0	0	1	0	5	0	4	0
OTU 36	1	6	0	1	0	3	2	1	0	0	2	1	0	0	1	4	3	0	1	0	3	0	1	0	0	0	0	0	1	1	1	4	0	0	1	0	3	0	0	1	0	3	0	1	0	0	3	3	0	0
OTU 37	0	0	0	0	0	0	0	0	0	0	0	0	1	0	0	0	0	0	0	1	0	0	0	0	0	2	0	2	0	0	0	0	0	0	2	3	0	0	0	1	0	2	0	0	2	0	1	0	0	0
OTU 38	7	3	2	0	2	2	1	0	0	0	0	1	0	1	3	1	0	2	0	2	1	0	0	8	2	0	3	0	0	0	1	1	5	1	9	0	0	6	0	61	0	2	32	3	10	1	2	4	0	0
OTU 39	0	2	0	0	1	0	0	0	0	0	0	0	0	0	0	0	0	0	0	0	0	0	0	0	0	0	0	0	0	0	0	8	0	0	0	0	5	0	0	1	0	0	0	0	0	0	0	1	0	0
OTU 40	13	1	2	16	0	3	0	1	1	0	0	1	0	7	0	6	1	0	0	0	0	2	1	1	0	0	0	0	0	0	0	0	0	7	1	0	1	0	0	1	2	0	0	1	0	0	0	1	5	1
OTU 41	0	2	0	2	1	1	30	1	0	0	1	0	0	0	0	1	0	0	0	0	0	3	0	7	0	0	1	0	0	0	0	3	0	0	0	2	7	2	2	0	0	1	0	4	8	1	1	0	0	0
OTU 42	1	0	0	0	1	0	0	0	1	0	0	0	0	0	0	1	0	0	0	5	0	0	0	2	0	0	0	0	0	0	0	0	2	0	0	0	0	0	0	0	0	2	0	0	0	0	0	0	6	0
OTU 43	0	0	1	0	0	0	0	0	0	0	1	0	0	0	3	0	0	0	0	0	0	0	0	0	0	0	0	0	0	0	0	0	0	0	0	0	0	0	0	0	0	0	0	0	0	0	0	0	0	0
OTU 44	0	0	0	0	0	0	0	0	0	0	0	0	0	3	0	0	0	2	0	0	1	1	0	0	0	0	0	0	0	0	0	0	1	0	0	0	0	0	0	0	1	0	0	0	0	0	0	0	0	0
OTU 45	13	6	2	0	8	0	4	0	5	0	13	0	0	3	4	0	4	4	3	2	0	4	3	9	8	0	1	5	2	2	0	7	1	2	8	4	3	2	0	0	6	6	0	0	1	1	1	0	7	4
OTU 46	3	0	2	4	0	22	0	4	0	0	1	0	0	2	0	4	2	7	6	2	1	6	0	2	3	0	0	0	0	0	0	5	37	0	4	0	1	1	1	1	3	0	1	0	2	2	0	0	0	1
OTU 47	11	0	0	0	5	0	0	0	0	0	0	0	0	0	0	0	0	0	0	0	0	0	1	3	0	0	0	1	0	0	0	0	0	0	0	0	0	0	1	0	0	2	0	0	0	0	2	0	0	0
OTU 48	0	4	1	0	2	1	4	3	3	0	1	54	5	1	1	0	7	0	5	3	0	1	1	1	2	0	41	0	1	1	0	12	2	0	1	5	3	2	8	7	0	1	2	2	3	3	0	153	0	3
OTU 49	0	5	1	2	0	0	0	1	0	0	0	0	0	0	1	0	0	0	0	4	0	1	0	0	0	0	0	3	0	0	0	3	0	0	0	0	1	0	2	0	0	0	0	0	2	0	0	0	0	0
OTU 50	2	3	5	6	4	1	1	8	1	70	1	0	1	1	127	0	1	2	0	2	1	3	1	0	0	2	0	0	0	2	0	4	0	1	0	6	0	0	0	1	9	7	1	3	5	0	6	0	4	0
OTU 51	0	0	1	2	2	7	0	8	0	0	3	0	0	0	0	0	2	0	0	1	0	0	0	1	2	0	0	0	0	2	1	9	0	0	0	0	0	0	0	2	0	3	0	0	0	0	0	0	5	0
OTU 52	3	1	5	1	3	3	1	6	4	2	5	0	0	8	1	0	0	7	2	0	2	9	1	3	3	0	0	0	36	5	1	3	9	1	4	1	2	1	11	5	1	0	1	0	2	1	1	11	10	1
OTU 53	0	0	0	0	0	0	0	0	0	0	0	0	0	0	0	0	0	0	0	0	0	0	0	0	0	0	0	0	0	0	0	0	0	0	0	0	0	0	0	0	0	0	0	0	0	0	0	0	0	0
OTU 54	13	2	2	1	3	1	1	0	2	2	8	0	0	0	0	10	10	1	1	1	4	10	1	1	3	4	0	0	2	1	2	0	0	0	3	0	1	1	0	0	1	1	0	0	0	0	3	0	2	0
OTU 55	0	0	0	0	0	0	0	0	0	0	0	0	0	0	0	0	0	0	0	0	0	0	0	0	1	0	0	0	0	0	0	0	0	0	0	0	0	0	0	0	0	0	1	0	0	0	0	0	0	0
OTU 56	0	2	0	0	0	0	0	0	0	1	0	0	0	0	0	0	1	0	0	0	0	0	0	0	0	1	0	0	0	2	0	2	0	0	0	0	0	1	0	2	0	0	0	0	0	0	1	0	4	0
OTU 57	12	7	4	2	7	56	1	4	7	2	3	7	2	0	2	2	0	7	2	2	1	3	13	13	9	0	5	6	8	0	12	2	21	7	17	9	2	19	2	0	19	4	107	4	7	11	12	0	1	3
OTU 58	2	0	3	0	0	0	4	0	1	0	0	0	0	0	3	0	2	0	3	1	0	0	0	0	0	0	4	2	0	0	1	3	0	0	1	2	0	0	1	0	5	0	0	0	0	2	3	0	1	0
OTU 59	0	2	0	1	0	0	0	0	0	0	11	3	1	0	0	0	6	2	0	7	0	0	3	1	0	0	0	0	0	1	1	2	0	0	6	0	3	7	1	1	0	1	1	3	3	0	4	1	0	1
OTU 60	1	0	58	5	3	0	2	14	4	15	0	0	0	1	49	1	3	5	3	5	2	32	1	1	35	0	15	3	17	2	2	4	1	0	5	0	0	0	2	4	61	3	2	8	1	0	8	1	3	2
OTU 61	9	18	0	0	25	0	2	0	1	0	0	0	0	1	0	1	2	7	2	7	0	4	0	0	3	0	1	0	3	0	0	0	3	1	0	0	2	0	0	0	6	0	0	11	1	0	0	0	0	3
OTU 62	0	0	0	1	0	0	1	0	2	0	0	0	0	0	2	0	0	0	1	0	0	0	1	0	0	0	0	0	0	2	0	0	0	0	0	0	1	0	0	0	2	0	0	0	0	0	1	0	0	0
OTU 63	9	2	0	22	2	0	0	0	0	0	3	4	6	3	0	50	0	0	0	0	0	0	0	1	2	13	1	0	0	1	2	49	1	21	9	4	1	3	0	0	0	0	2	2	1	2	0	0	0	0
OTU 64	1	0	2	1	0	1	1	2	1	1	34	0	0	2	0	1	1	4	0	5	0	0	5	9	5	1	0	0	4	3	0	9	0	1	1	4	1	0	0	4	1	0	0	1	0	9	0	2	3	1
OTU 65	0	0	0	0	0	0	0	0	0	0	0	0	0	0	0	0	0	0	0	0	0	0	0	0	0	0	0	0	0	0	0	0	0	0	2	0	0	0	0	0	0	0	0	0	0	0	0	0	0	0
OTU 66	1	0	0	3	0	0	2	4	28	0	1	2	0	2	0	1	13	6	0	5	4	2	0	1	3	1	0	0	3	15	0	4	0	1	1	0	1	1	3	5	2	2	0	2	3	0	2	0	0	1
OTU 67	1	2	0	1	0	0	0	5	2	0	0	0	2	0	0	1	3	0	2	19	0	4	0	0	0	0	0	0	0	0	0	3	1	0	0	0	5	0	2	0	3	1	0	5	11	1	1	3	0	0
OTU 68	0	0	0	0	41	0	0	14	3	0	1	0	2	0	0	4	2	0	0	0	0	0	0	1	4	1	0	2	0	1	0	0	0	6	0	2	2	0	0	0	1	1	0	0	5	5	9	0	0	4
OTU 69	1	3	2	1	0	4	1	3	0	2	2	0	2	0	0	2	1	4	7	0	2	0	2	3	3	0	0	3	1	0	3	1	1	0	0	2	0	2	4	3	4	4	1	2	2	0	1	1	4	3
OTU 70	3	1	0	0	0	0	0	6	2	0	5	0	0	3	0	0	0	6	1	0	0	1	0	4	3	0	0	0	0	1	0	0	2	1	0	0	2	0	0	3	2	0	0	0	0	0	0	0	0	1
OTU 71	1	0	1	0	0	1	0	1	4	0	0	0	0	0	0	0	0	0	7	0	0	0	0	4	1	0	0	0	0	0	0	0	0	0	0	0	0	0	0	1	1	0	0	0	0	0	0	0	0	0
OTU 72	3	0	1	3	0	46	0	4	0	2	2	0	2	3	0	8	7	2	3	5	1	1	2	5	1	0	0	1	0	6	2	2	2	0	3	4	1	0	0	2	1	0	0	1	0	0	0	4	0	2
OTU 73	0	5	5	0	1	2	0	2	5	0	0	0	0	1	1	6	4	0	93	0	0	0	2	1	6	3	3	2	0	3	0	1	2	6	6	0	1	4	1	0	2	0	0	1	3	0	2	2	2	1
OTU 74	0	2	1	1	0	0	3	3	0	2	0	0	1	21	1	2	0	12	0	0	0	0	0	0	1	5	0	1	1	2	0	1	0	0	3	6	0	0	1	0	0	1	0	0	0	0	1	1	3	2
OTU 75	0	3	2	135	2	0	5	4	3	0	8	2	1	0	0	4	3	4	0	3	2	2	3	3	5	20	1	4	1	2	1	1	1	47	11	8	0	1	1	0	3	11	0	0	2	17	4	1	0	1
OTU 76	0	0	0	0	6	6	0	0	1	1	0	2	0	0	0	2	0	0	0	0	0	0	9	12	0	0	0	0	0	0	0	2	3	0	10	0	1	7	0	0	0	0	0	0	0	0	2	2	0	0
OTU 77	1	1	0	0	0	0	0	2	2	1	0	0	0	1	0	0	0	0	0	0	2	0	7	1	0	0	0	1	1	0	1	2	1	2	2	2	14	1	2	0	3	13	2	1	1	0	0	2	1	0
OTU 78	0	2	2	6	1	6	1	4	0	0	5	0	0	3	0	6	0	1	3	1	1	0	0	2	1	0	1	0	0	0	0	1	0	0	0	1	2	0	0	0	0	2	0	0	2	2	0	0	0	0
OTU 79	7	6	4	5	13	9	2	5	9	0	42	11	4	1	1	4	7	2	0	0	6	1	5	12	8	7	101	7	6	3	9	14	16	6	22	15	13	14	1	5	11	17	32	5	5	23	6	1	3	8
OTU 80	4	3	0	0	0	0	5	4	0	0	0	0	0	6	1	2	0	4	4	10	0	5	0	0	1	0	0	0	4	5	0	3	1	2	0	0	1	0	1	0	0	4	0	1	16	14	2	0	0	2
OTU 81	5	4	0	2	0	0	3	6	2	0	2	0	29	4	0	2	1	8	0	3	5	0	1	2	2	2	0	4	0	2	0	8	0	0	0	65	0	0	0	1	4	2	3	0	2	0	0	0	96	4
OTU 82	10	0	0	1	0	0	0	2	0	1	0	0	0	8	1	2	0	6	0	0	4	5	0	78	0	1	0	0	0	1	0	1	0	4	0	0	61	0	5	0	3	1	0	1	1	1	2	4	12	1
OTU 83	0	0	0	0	0	0	0	0	0	1	0	0	1	0	1	0	8	0	0	2	2	1	0	0	0	0	0	0	0	0	0	0	0	4	0	2	0	0	1	1	0	0	0	0	0	0	0	0	0	0
OTU 84	0	2	1	3	1	0	0	4	0	0	2	0	0	1	1	5	0	0	0	0	0	0	1	1	0	0	3	1	0	0	0	1	3	0	3	3	2	0	0	0	3	1	0	4	0	0	0	1	0	0
OTU 85	0	3	0	0	0	0	2	0	8	0	2	0	0	0	0	1	2	0	3	0	0	0	0	0	0	1	0	0	0	0	0	3	1	0	0	1	2	0	0	0	0	0	0	0	0	5	2	0	3	137
OTU 86	0	0	0	0	0	0	0	1	0	0	1	0	0	0	0	0	0	0	0	3	0	0	0	0	0	0	0	0	0	0	0	0	0	0	0	0	0	0	0	0	0	0	0	0	0	0	0	0	0	0
OTU 87	9	4	0	0	1	0	1	0	0	0	0	0	0	2	0	1	1	4	0	1	0	0	0	0	0	0	0	0	84	0	0	0	0	0	0	0	4	1	0	2	0	0	0	0	0	0	0	0	1	0
OTU 88	0	0	0	0	0	0	0	0	2	0	0	0	0	0	0	0	0	0	0	2	0	0	1	0	0	0	0	0	0	0	0	0	0	0	0	0	0	0	0	0	0	0	0	0	0	0	0	0	12	0
OTU 89	20	0	0	0	0	3	0	0	1	0	6	0	0	15	1	0	3	11	0	0	1	4	0	0	0	0	0	0	1	0	0	0	0	1	0	0	0	0	0	0	0	4	0	0	0	0	0	0	4	0
OTU 90	0	0	0	0	0	0	0	3	0	0	0	0	0	0	0	0	0	0	0	0	0	0	0	0	1	1	0	1	0	0	0	0	0	1	0	0	0	0	0	0	3	0	0	0	0	0	0	0	0	2
OTU 91	0	0	0	0	0	1	0	0	0	0	0	1	0	0	0	0	0	0	0	0	0	0	0	0	0	0	0	0	0	0	0	0	0	0	0	0	0	1	0	0	1	0	0	4	4	0	0	0	0	0
OTU 92	0	0	0	0	4	0	0	0	0	0	0	0	0	1	0	2	0	0	0	0	0	2	2	0	0	0	0	0	0	0	0	0	3	0	1	1	0	4	0	0	0	0	0	1	0	0	0	0	0	0
OTU 93	0	0	0	0	0	1	0	0	0	0	0	0	0	0	0	0	0	0	0	0	0	0	0	0	0	0	0	0	0	0	0	0	0	0	0	5	0	0	1	0	0	0	0	0	0	0	0	0	0	0
OTU 94	3	1	1	0	0	0	0	2	5	0	4	0	1	1	0	1	4	0	0	5	0	0	2	0	4	0	0	3	0	3	0	1	0	1	0	5	0	0	0	0	4	4	1	1	1	1	4	1	0	0
OTU 95	0	0	0	0	2	4	3	23	0	0	0	0	0	0	0	1	1	0	0	0	0	4	0	2	1	1	0	6	5	0	1	0	4	1	3	0	0	1	1	0	11	1	0	0	2	0	2	1	0	15
OTU 96	0	0	0	0	0	0	0	0	0	0	0	0	2	0	0	0	0	15	0	2	0	0	3	0	0	0	0	1	0	0	0	0	0	0	2	0	0	0	0	0	0	0	0	0	0	0	0	0	1	0
OTU 97	0	0	0	0	0	0	0	0	0	0	0	0	0	1	0	0	0	0	0	1	2	0	0	0	3	0	0	0	0	0	0	0	0	1	0	0	0	0	0	0	0	0	0	0	0	0	0	0	1	0
OTU 98	1	1	0	0	0	0	2	2	9	0	3	0	0	0	0	0	0	0	0	2	0	0	0	0	0	2	0	1	0	0	0	1	0	0	0	8	1	0	1	0	0	0	0	0	1	0	0	0	0	4
OTU 99	0	0	1	0	2	1	0	13	2	0	10	0	0	0	0	9	0	2	3	1	1	72	0	1	2	0	0	6	0	1	0	3	6	2	2	0	0	1	3	3	1	3	0	8	0	2	2	0	0	7
OTU 100	3	6	0	1	0	4	2	2	5	0	1	0	2	0	0	0	0	0	2	3	0	0	0	0	0	1	0	0	1	0	0	0	0	0	0	2	0	0	1	0	2	1	0	0	4	0	0	0	2	1
OTU 101	0	0	0	0	0	0	0	0	0	0	0	0	0	0	0	0	0	1	0	0	0	0	0	0	0	0	0	0	0	0	0	0	1	0	0	0	0	0	1	0	0	0	0	0	0	0	0	0	0	0
OTU 102	0	0	0	0	0	0	0	3	0	0	0	0	0	0	0	3	12	0	0	0	0	0	0	0	2	0	0	0	2	1	0	0	0	0	0	0	0	0	0	1	1	0	0	0	0	0	0	0	0	0
OTU 103	3	6	1	0	1	0	2	5	0	0	0	0	0	0	0	0	0	0	4	2	0	3	0	0	2	1	0	4	0	0	2	0	2	0	1	2	1	0	11	27	6	64	15	3	0	0	0	0	0	0
OTU 104	1	0	1	3	3	5	0	4	1	0	0	1	5	0	0	3	5	3	1	0	1	1	3	2	3	0	2	3	4	2	1	2	1	0	9	2	1	4	0	2	0	0	0	1	1	1	0	3	4	0
OTU 105	0	0	0	0	0	0	0	1	0	0	0	0	0	0	0	0	0	0	3	1	0	0	0	0	0	0	0	0	0	0	0	0	0	0	0	0	0	0	0	0	0	0	0	3	0	0	1	0	0	0
OTU 106	0	0	0	0	82	0	0	0	0	0	0	1	0	1	1	1	0	0	0	0	0	0	0	4	0	5	0	0	0	0	0	0	74	0	0	0	0	2	0	2	0	0	0	0	0	0	0	0	0	0
OTU 107	0	0	8	1	0	0	0	0	8	0	1	0	0	2	0	0	0	1	0	0	0	0	0	1	2	0	6	0	0	0	0	3	0	0	0	0	0	0	1	2	0	0	0	0	0	0	0	0	0	0
OTU 108	0	4	2	0	0	0	1	3	0	0	2	1	0	0	0	0	6	0	0	3	1	0	0	1	0	0	0	0	0	2	4	0	1	2	2	1	0	0	0	0	0	0	0	0	0	4	4	2	1	2
OTU 109	0	0	0	0	0	0	0	0	0	0	0	0	0	0	0	0	0	0	0	0	0	0	0	0	0	1	0	0	0	0	0	0	0	0	0	0	0	0	0	0	0	0	0	0	0	0	0	0	0	0
OTU 110	7	2	3	1	0	5	1	0	0	0	5	0	2	3	0	0	0	0	1	0	3	1	0	1	0	0	0	0	4	0	0	2	2	1	0	0	0	0	1	1	1	0	1	0	1	1	1	0	0	0
OTU 111	0	2	0	0	1	0	0	0	0	0	0	0	0	0	0	0	0	0	0	0	0	0	0	0	0	0	0	0	0	0	0	0	0	0	0	0	0	0	1	0	0	0	0	0	0	0	0	0	0	0
OTU 112	3	0	0	0	4	0	0	0	0	0	0	0	0	0	0	0	0	3	0	0	1	0	3	0	0	0	0	0	0	0	0	0	1	0	0	0	1	2	0	4	0	1	1	0	0	0	0	0	0	0
OTU 113	0	0	0	0	0	0	4	0	0	0	1	0	0	0	0	0	0	0	0	0	0	0	0	0	0	0	0	0	0	0	0	0	0	0	0	2	0	0	4	0	0	0	0	0	0	0	0	0	0	1
OTU 114	1	2	1	1	3	5	0	4	15	1	9	0	1	1	1	0	37	0	0	4	10	7	3	0	10	4	0	1	7	20	72	16	1	1	1	2	2	0	7	5	4	4	2	1	0	2	0	0	1	2
OTU 115	0	1	86	2	0	4	0	0	0	25	1	2	2	0	48	3	7	5	7	6	4	2	0	0	2	0	40	1	3	1	2	1	7	1	2	3	0	4	1	0	9	0	2	2	0	4	0	0	1	0
OTU 116	4	4	1	0	1	1	0	2	10	0	0	0	2	3	1	1	3	7	1	12	0	1	0	0	5	0	0	2	0	1	3	5	2	1	2	1	0	3	1	0	3	2	5	0	0	1	0	0	3	16
OTU 117	1	0	4	5	0	1	1	5	2	0	3	0	0	1	6	0	3	1	2	0	3	4	0	0	1	12	1	49	0	0	0	1	0	0	0	3	2	0	0	4	0	1	0	1	4	5	3	1	3	0
OTU 118	0	0	0	0	0	0	0	0	0	0	0	0	1	0	0	0	1	0	0	0	1	0	0	1	0	0	0	0	0	0	0	0	0	0	0	0	0	0	37	0	0	0	0	0	0	0	0	21	0	0
OTU 119	4	0	1	0	0	0	0	0	7	0	1	0	11	9	2	2	1	15	0	0	0	4	0	0	1	1	1	3	1	0	2	0	0	1	0	12	3	2	0	0	0	2	0	0	2	1	0	0	0	0
OTU 120	2	0	0	5	0	2	1	0	0	0	8	0	0	0	0	0	0	0	0	1	0	0	0	0	0	0	0	0	1	2	0	2	0	0	0	0	0	0	0	0	3	0	0	9	0	0	0	0	3	0
OTU 121	2	1	0	0	0	0	41	0	0	0	5	0	0	1	0	0	0	0	4	1	0	1	0	0	0	0	0	0	0	0	0	1	0	0	2	0	4	0	0	0	2	2	0	2	0	0	0	2	0	0
OTU 122	2	4	0	0	5	0	1	4	1	0	0	0	1	47	0	0	0	0	0	0	0	7	1	1	4	0	1	0	0	0	0	0	4	0	3	0	0	2	6	2	6	1	0	6	1	0	0	0	0	30
OTU 123	8	7	3	1	6	3	19	4	1	0	12	8	8	1	2	1	20	3	5	3	3	18	2	4	3	1	3	7	3	6	8	6	8	1	9	7	4	13	10	2	4	12	0	66	10	10	9	8	1	1
OTU 124	0	0	0	0	0	0	12	0	1	0	1	0	0	1	0	0	0	1	0	0	0	0	0	0	0	0	0	0	0	0	0	3	0	0	0	0	0	0	0	1	0	0	0	0	0	0	0	1	0	0
OTU 125	14	12	1	2	3	3	2	2	1	0	13	1	13	8	0	11	8	4	0	14	73	7	0	0	2	0	0	2	4	7	0	7	3	2	3	17	4	2	134	14	4	4	6	80	5	5	1	64	39	1
OTU 126	0	0	0	0	2	0	0	0	0	0	0	0	0	1	0	0	0	0	0	0	0	3	0	0	0	0	0	0	0	0	0	0	0	0	0	1	0	0	0	3	5	5	1	0	0	0	0	0	0	0
OTU 127	0	0	0	0	0	0	0	6	0	0	0	0	0	0	0	0	0	0	0	0	1	0	0	1	0	0	1	0	0	0	0	0	0	1	0	1	0	0	0	0	2	0	0	4	0	0	1	0	0	0
OTU 128	0	16	0	3	1	8	10	6	20	11	12	5	1	11	15	20	0	33	18	0	3	10	6	5	9	1	0	8	2	0	1	12	5	5	4	2	2	4	5	7	9	3	7	17	4	10	6	5	7	6
OTU 129	0	0	0	0	0	0	0	2	0	0	0	0	0	0	1	10	0	0	0	0	0	1	0	0	0	2	0	1	0	0	0	0	0	13	0	0	0	0	0	0	0	0	0	0	3	0	0	0	0	2
OTU 130	3	1	0	0	0	0	0	2	0	0	2	13	0	0	0	1	3	0	8	0	1	0	20	0	0	1	0	1	3	2	11	1	3	1	0	1	0	34	1	1	0	7	4	0	5	1	0	0	2	0
OTU 131	0	0	1	0	1	2	0	13	2	0	0	4	0	0	0	6	0	0	0	0	0	0	0	1	4	7	1	4	2	1	3	0	2	3	2	0	0	3	0	0	4	0	0	0	0	0	0	0	2	6
OTU 132	0	0	0	0	0	0	0	0	3	1	1	0	1	0	0	0	0	0	5	0	0	0	0	0	0	0	0	0	1	0	0	0	0	0	0	0	1	0	0	0	2	5	0	0	3	0	0	0	0	1
OTU 133	0	0	0	0	0	0	1	0	1	0	1	0	0	0	0	0	0	0	0	1	0	0	0	0	0	1	0	0	0	0	0	0	0	0	0	0	0	0	0	0	0	0	0	0	3	0	0	0	0	0
OTU 134	0	0	2	0	0	1	0	4	2	0	14	0	0	2	0	4	0	0	1	3	0	1	0	2	1	2	3	0	3	0	1	2	1	0	0	0	0	3	0	6	4	12	5	1	6	0	0	3	0	2
OTU 135	10	0	0	2	0	3	0	4	8	0	6	1	0	1	1	0	0	0	3	2	0	0	4	0	0	2	0	0	0	0	3	0	1	1	0	1	0	1	0	0	1	0	1	0	0	2	7	0	1	1
OTU 136	0	1	0	3	3	2	1	0	0	0	3	5	0	0	0	2	4	0	0	7	0	0	100	1	0	0	1	0	0	0	2	0	0	0	4	0	0	4	0	0	0	0	0	5	25	1	0	0	0	0
OTU 137	0	0	2	0	0	1	0	0	1	2	0	0	0	0	0	0	0	0	0	0	0	1	0	0	0	0	0	0	0	0	1	0	0	6	0	0	0	0	0	0	3	0	0	0	1	12	0	1	18	0
OTU 138	1	1	0	0	1	0	0	1	5	0	0	0	0	0	0	0	0	0	0	2	0	1	1	1	0	0	3	0	0	1	0	3	0	1	0	0	0	1	0	0	0	0	0	0	0	0	3	0	0	0
OTU 139	11	5	0	4	2	5	2	2	8	1	0	0	0	2	1	0	0	1	5	1	0	29	3	5	2	0	0	104	3	1	4	7	4	0	11	0	4	4	0	0	1	0	0	1	3	1	70	2	4	1
OTU 140	5	0	23	2	1	4	5	9	10	16	2	3	3	0	6	6	14	1	2	5	2	1	10	3	5	8	9	2	0	0	0	3	11	3	7	1	4	2	2	3	2	11	6	33	3	8	3	0	1	0
OTU 141	0	0	0	0	0	0	0	0	0	0	0	0	0	0	0	0	0	0	0	0	0	0	0	0	0	0	0	0	0	0	0	0	0	1	0	0	0	0	0	0	0	0	0	0	0	0	0	0	0	0
OTU 142	0	0	0	0	1	0	0	0	0	0	0	0	0	0	0	0	0	0	0	0	0	0	0	0	0	0	0	0	0	0	0	0	0	0	0	0	0	0	0	0	0	0	0	0	0	0	0	0	0	0
OTU 143	0	0	0	0	0	0	1	0	0	0	6	0	0	0	0	1	0	1	0	1	0	0	0	0	1	0	0	1	0	0	0	0	0	0	0	1	0	0	0	0	0	0	0	0	0	4	0	0	0	0
OTU 144	3	0	0	0	0	0	0	0	0	0	0	0	0	0	0	0	1	0	0	0	0	0	0	0	0	0	0	0	0	0	0	0	0	0	0	0	0	0	0	0	0	0	0	0	0	1	0	1	0	0
OTU 145	8	45	0	0	0	0	8	0	3	0	1	1	1	12	0	0	2	22	4	0	0	3	0	0	1	0	0	0	2	0	0	1	2	1	1	1	25	2	1	2	6	0	0	5	0	0	1	0	39	1
OTU 146	4	7	1	1	3	0	2	4	0	125	0	0	9	0	3	4	2	0	8	0	0	0	0	0	4	0	1	1	0	1	1	0	1	0	0	2	1	0	1	0	3	1	0	0	1	0	4	0	2	6
OTU 147	0	0	1	1	0	2	0	2	1	0	0	0	0	3	0	1	3	0	0	0	23	0	0	2	0	0	1	0	0	40	4	2	0	0	0	0	0	0	0	0	0	4	0	1	0	0	0	0	0	0
OTU 148	2	2	3	0	0	0	1	0	0	0	0	0	0	0	0	0	0	0	1	0	0	0	0	0	0	53	0	1	1	3	0	1	0	97	0	1	2	0	1	1	0	6	2	3	1	5	2	2	0	0
OTU 149	5	0	0	0	0	0	0	1	0	0	1	0	0	0	0	0	0	2	0	2	0	0	0	0	2	0	0	0	1	0	0	0	2	8	1	0	0	0	0	3	3	0	0	0	0	0	0	1	0	0
OTU 150	0	0	4	0	0	0	0	0	0	0	1	0	0	0	0	0	0	1	0	0	0	16	0	0	0	0	1	1	0	0	0	0	0	0	0	2	0	0	3	0	3	2	0	0	0	0	6	2	0	0
OTU 151	1	1	0	0	1	4	0	1	0	1	0	0	0	2	1	0	8	2	1	0	0	3	0	0	0	3	0	0	1	0	0	0	0	0	2	1	1	0	0	2	3	1	28	0	0	1	0	2	1	1
OTU 152	2	2	2	0	0	5	0	4	2	1	3	0	1	0	3	4	0	8	0	1	1	0	0	0	6	0	1	8	0	0	0	0	0	2	0	3	2	0	0	0	1	4	3	0	0	0	1	0	0	0
OTU 153	0	0	0	0	0	0	0	0	0	0	0	0	0	0	0	0	0	0	0	0	0	0	0	0	0	0	0	0	0	0	0	0	1	0	0	0	0	0	0	0	0	0	0	0	0	0	0	0	0	0
OTU 154	0	0	0	0	1	0	0	0	0	0	0	0	0	0	0	0	0	0	0	0	0	0	0	0	0	0	0	0	0	0	0	0	0	0	0	0	0	0	0	0	0	0	0	0	2	0	0	0	0	0
OTU 155	0	0	0	32	0	0	0	4	0	0	0	0	0	1	0	0	0	0	0	0	0	0	0	0	1	0	0	2	1	0	0	32	2	0	0	4	0	0	2	1	0	1	0	0	1	0	3	14	0	2
OTU 156	2	1	0	6	1	0	1	1	1	0	4	0	3	0	0	2	7	2	1	68	2	2	1	0	2	1	0	5	0	2	0	1	0	1	2	1	1	1	0	0	1	0	3	0	0	2	1	1	1	1
OTU 157	0	0	0	0	0	1	0	0	0	0	0	0	0	4	0	0	0	18	0	4	0	0	0	0	0	0	0	0	0	0	0	0	3	0	0	0	1	0	1	0	0	0	0	0	0	0	0	0	3	0
OTU 158	0	0	0	0	0	0	0	0	0	0	0	0	0	0	0	0	0	0	0	0	0	0	0	0	0	0	0	0	0	0	0	0	0	0	0	0	0	0	0	0	0	0	0	0	0	0	0	0	0	0
OTU 159	10	3	0	1	0	0	0	0	0	0	1	1	0	52	0	0	0	0	0	0	0	0	1	2	11	0	0	0	2	7	0	0	0	2	0	1	0	0	0	2	9	0	0	0	0	1	1	0	0	0
OTU 160	6	13	2	7	1	3	1	7	7	0	7	4	2	1	1	0	0	1	5	3	1	12	15	2	4	0	2	1	5	1	0	16	4	3	6	1	2	15	2	0	7	0	0	3	6	12	3	3	0	2
OTU 161	0	1	2	1	0	0	0	0	2	1	0	1	0	3	0	0	4	1	0	2	0	1	0	51	0	2	2	0	0	1	2	0	0	0	1	0	0	2	0	0	2	0	0	0	0	15	1	0	0	0
OTU 162	2	11	1	2	0	0	5	1	2	0	3	0	2	0	0	6	2	1	0	0	0	1	0	0	2	1	0	1	1	1	0	0	0	0	0	3	2	0	10	3	0	0	0	5	4	0	0	1	3	1
OTU 163	0	0	0	0	0	0	0	0	0	0	0	0	0	1	0	0	0	0	0	0	0	0	0	0	0	0	0	0	0	0	0	0	0	0	0	1	0	0	0	0	0	0	0	0	0	3	0	0	0	0
OTU 164	0	0	0	0	0	0	0	4	0	0	0	0	0	0	0	0	0	0	0	0	0	0	0	0	0	0	0	1	0	0	0	0	0	0	0	0	0	0	0	0	0	0	0	0	0	0	0	0	0	3
OTU 165	0	1	0	0	0	2	0	0	0	0	1	0	0	0	0	0	2	1	9	0	0	0	0	0	0	1	0	0	1	1	0	0	1	0	3	0	1	0	4	3	2	2	1	0	4	0	0	4	0	0
OTU 166	0	0	0	0	0	0	0	0	0	0	0	1	0	0	0	0	2	0	0	0	0	0	0	0	0	0	0	0	0	0	0	4	0	0	0	0	0	0	0	0	0	0	0	0	0	0	0	0	0	0
OTU 167	1	0	7	0	0	0	0	2	8	2	1	0	0	0	2	3	0	1	1	4	1	0	0	1	9	0	5	4	4	1	0	1	0	3	0	0	2	0	1	0	0	2	1	0	0	1	1	0	0	5
OTU 168	0	0	0	2	0	0	1	0	0	0	1	1	0	0	0	1	0	1	0	0	3	0	0	1	3	0	0	5	0	3	0	2	0	0	0	0	0	0	0	0	1	5	0	2	1	0	0	2	0	2
OTU 169	0	0	0	0	0	0	0	1	0	0	0	0	0	0	0	0	0	0	0	0	0	0	0	0	0	0	0	0	0	0	0	0	0	0	0	1	0	0	0	0	0	0	0	0	0	0	1	0	0	0
OTU 170	0	0	0	0	0	0	0	0	0	1	0	0	0	0	0	0	0	0	0	0	0	0	0	0	0	0	1	0	0	0	0	0	0	0	0	0	0	0	0	0	0	0	0	0	0	0	3	0	0	0
OTU 171	0	0	0	1	14	31	0	0	3	1	4	3	0	0	1	0	0	0	0	5	0	2	18	14	1	0	2	0	1	0	2	0	22	0	38	0	1	11	0	0	0	0	0	0	0	0	0	0	5	0
OTU 172	0	1	0	0	0	0	0	1	0	0	0	0	0	0	0	0	2	0	0	1	0	0	0	0	0	0	0	4	0	0	0	1	0	0	0	1	0	0	0	1	0	0	0	0	0	0	0	0	0	0
OTU 173	0	0	0	0	0	0	0	0	8	0	1	1	0	0	0	0	1	0	0	0	0	0	1	0	0	0	0	0	0	1	0	0	0	0	2	0	0	1	0	3	0	8	2	1	0	0	0	0	0	0
OTU 174	0	1	0	3	0	0	0	0	0	0	3	0	2	2	0	4	0	0	2	0	0	1	0	0	0	0	0	0	0	0	71	3	0	2	0	0	0	0	0	0	1	0	0	1	0	0	0	2	5	0
OTU 175	0	3	3	0	0	0	2	1	0	1	0	1	0	1	5	0	3	0	0	0	1	2	2	1	1	0	0	0	0	0	0	0	2	0	0	2	4	0	3	0	0	0	1	0	0	1	0	1	0	0
OTU 176	0	0	0	0	1	0	0	1	1	2	2	0	2	0	2	5	4	2	0	0	2	0	1	0	9	0	0	0	1	2	0	2	0	0	0	4	3	0	1	3	2	4	2	1	0	4	1	3	0	0
OTU 177	0	9	2	1	8	4	0	0	1	0	0	2	0	1	3	0	4	3	0	0	0	0	1	1	0	1	3	0	12	1	0	0	3	6	11	0	3	6	5	0	0	2	1	0	0	3	4	0	7	0
OTU 178	1	0	0	2	0	4	1	0	0	0	0	0	0	0	0	5	0	0	0	0	0	0	2	2	0	0	0	0	4	0	0	1	0	0	1	0	0	3	2	0	0	4	0	1	0	0	2	0	0	0
OTU 179	4	1	0	0	0	1	0	18	4	0	1	1	0	0	1	9	2	1	0	0	1	0	1	0	0	0	0	1	2	0	0	5	0	1	2	0	0	5	1	1	0	0	0	0	0	1	4	1	0	14
OTU 180	2	2	3	5	36	2	19	6	17	3	4	32	5	3	2	4	10	2	23	27	1	15	0	2	1	0	2	2	1	19	41	4	1	3	8	4	96	63	7	11	1	11	2	1	12	11	2	3	0	1
OTU 181	0	0	3	1	0	0	1	1	0	0	0	0	1	1	0	1	3	2	0	2	0	0	0	0	1	3	0	0	1	0	0	0	1	2	0	0	1	0	2	15	4	3	9	0	0	0	1	1	4	2
OTU 182	0	0	0	0	0	0	0	0	0	0	0	0	0	0	0	0	0	0	0	0	0	1	0	0	0	0	0	0	0	0	0	0	0	0	0	0	0	0	0	0	0	0	0	0	1	0	0	0	0	0
OTU 183	0	0	0	0	0	0	0	0	0	0	0	0	0	0	0	15	0	0	0	0	1	2	1	1	7	3	0	0	3	0	0	0	22	5	0	0	0	0	0	1	0	0	0	2	0	0	0	0	2	0
OTU 184	0	0	0	0	0	0	0	0	0	0	0	0	0	0	0	0	0	0	1	0	0	0	1	0	0	0	0	0	0	0	0	0	0	0	0	2	0	0	0	0	0	0	1	0	0	0	1	0	0	0
OTU 185	1	0	0	0	0	0	0	2	2	1	0	1	2	0	2	1	6	4	2	2	0	2	0	0	2	1	0	0	4	4	0	1	2	0	1	6	0	2	0	0	6	0	0	1	2	0	1	0	0	1
OTU 186	0	0	1	0	0	0	0	1	0	0	0	0	9	0	0	1	0	0	2	0	0	0	0	0	4	1	0	5	5	0	0	1	2	0	0	0	0	0	0	0	10	0	1	0	0	0	0	0	0	0
OTU 187	0	43	0	9	0	0	8	7	1	0	3	150	78	0	2	0	7	2	3	0	3	0	11	1	0	0	0	3	0	7	0	0	0	5	0	74	24	2	1	38	2	1	13	0	7	1	0	0	1	3
OTU 188	1	0	0	4	0	0	2	2	17	0	4	0	0	0	1	0	0	7	0	0	4	5	2	3	1	1	1	0	1	6	0	5	1	0	0	2	0	0	1	0	2	0	0	0	8	5	1	0	3	0
OTU 189	2	0	3	0	3	0	0	2	5	1	0	1	0	2	1	0	0	3	40	0	0	0	16	2	1	2	0	6	1	1	6	1	4	1	4	5	0	7	1	0	5	0	0	1	3	3	2	0	3	0
OTU 190	0	0	0	2	0	0	0	0	0	0	3	1	0	1	0	0	0	19	0	0	0	1	0	0	0	1	0	1	0	1	0	0	0	0	0	0	0	3	0	0	0	2	0	0	0	0	0	0	0	0
OTU 191	1	0	0	3	0	1	0	0	1	0	9	0	1	2	0	2	0	1	11	8	0	1	2	2	0	2	0	0	1	0	0	10	0	0	0	1	1	0	0	15	1	20	8	0	6	0	7	1	0	0
OTU 192	4	0	0	1	0	1	0	13	0	0	0	0	0	13	0	0	8	2	0	3	0	2	2	1	15	5	24	5	2	1	0	8	4	2	1	0	0	1	1	2	12	2	3	3	2	2	2	1	1	8
OTU 193	9	2	0	0	1	0	2	1	0	0	1	28	0	4	0	0	20	7	0	0	4	0	0	0	0	2	0	13	4	13	32	0	0	0	0	0	2	47	2	1	0	2	1	0	2	0	3	0	0	0
OTU 194	3	4	1	0	1	0	0	0	2	57	1	0	0	0	0	0	0	0	2	0	0	0	2	0	0	0	0	2	1	1	42	0	0	0	2	0	0	0	0	2	2	1	3	0	55	0	1	0	0	1
OTU 195	0	0	1	0	0	0	0	2	0	0	1	1	0	1	0	0	0	0	6	2	1	2	0	0	2	0	0	0	0	0	0	4	0	1	0	0	0	0	2	1	0	0	0	0	1	1	2	3	0	0
OTU 196	0	1	1	2	2	1	0	5	0	2	9	0	0	0	0	3	1	0	4	0	0	1	0	0	3	0	1	0	0	1	0	4	1	2	2	0	0	0	28	0	0	0	0	2	2	0	0	15	0	4
OTU 197	4	13	6	11	18	5	0	2	0	4	5	2	4	4	5	18	11	0	5	0	4	1	15	14	5	3	1	2	1	7	4	1	5	1	25	4	12	7	4	3	1	3	1	1	4	0	3	0	1	0
OTU 198	0	0	0	0	0	0	0	0	1	0	0	0	0	0	0	2	0	1	0	0	0	0	1	0	0	1	0	0	0	0	0	0	0	0	0	0	0	0	0	0	1	1	0	0	0	0	0	0	0	0
OTU 199	0	0	4	0	0	4	0	0	3	0	0	0	0	3	0	1	0	0	0	0	0	3	0	0	5	0	4	0	2	1	0	0	0	1	0	1	0	0	2	1	2	1	0	0	0	0	1	0	0	0
OTU 200	2	0	1	0	1	0	0	0	0	0	5	0	0	0	0	0	0	0	1	0	0	0	6	1	2	1	0	0	0	1	2	0	2	6	5	0	0	5	2	5	3	0	2	0	4	2	0	1	0	0
