	Host 1	Host 2	Host 3	Host 4	Host 5	Host 6	Host 7	Host 8	Host 9	Host 10	Host 11	Host 12	Host 13	Host 14	Host 15	Host 16	Host 17	Host 18	Host 19	Host 20	Host 21	Host 22	Host 23	Host 24	Host 25	Host 26	Host 27	Host 28	Host 29	Host 30	Host 31	Host 32	Host 33	Host 34	Host 35	Host 36	Host 37	Host 38	Host 39	Host 40	Host 41	Host 42	Host 43	Host 44	Host 45	Host 46	Host 47	Host 48	Host 49	Host 50	
OTU 1	15	18	0	29	3	674	3	33	322	3	46	23	24	14	39	15	2	29	829	14	65	0	26	654	2	0	54	429	32	36	2	37	0	0	12	18	42	816	195	46	52	30	0	15	0	9	40	31	1688	0
OTU 2	0	14	0	2	3	0	0	15	1	0	0	0	1	2	3	196	97	24	0	0	369	0	1	0	1	0	4	0	1	9	1	0	29	9	1	3	6	0	20	2	5	0	50	2	48	19	7	1	0	32
OTU 3	0	0	0	0	0	2	0	0	11	81	1	0	0	1	0	32	85	1	6	2	22	0	4	1	0	74	2	2	14	113	17	0	27	3	7	10	0	3	6	0	1	69	37	9	10	3	0	0	4	2
OTU 4	0	0	0	0	0	0	0	0	0	0	0	4	0	0	0	0	0	0	0	0	0	0	0	0	0	0	5	0	0	0	0	0	0	0	0	0	0	0	0	0	0	0	0	0	0	0	0	0	0	0
OTU 5	19	257	99	127	31	212	927	1269	125	281	301	199	504	649	595	147	109	168	1710	10	386	0	831	74	589	120	11	551	183	72	2154	93	7	0	0	139	1084	94	116	801	116	11	582	217	56	334	343	108	142	122
OTU 6	11	8	0	429	0	2779	11	16	3	47	12	30	4	10	0	27	135	9	0	0	27	5	5	5	24	0	49	3	4	74	3	5	8	17	39	14	5	0	0	7	0	139	2	100	28	0	56	1	0	6
OTU 7	30	69	26	38	179	47	68	67	25	113	974	15	29	226	67	12	155	35	16	277	10	71	9	22	20	67	49	11	91	154	1529	10	3	64	163	729	62	42	26	46	478	75	31	13	77	867	2020	55	10	112
OTU 8	33	66	74	20	194	7	280	190	5	71	137	28	74	133	80	42	94	5	1	69	9	168	29	18	156	38	34	0	507	34	525	3	17	46	6	644	153	3	14	92	216	30	156	29	98	272	1042	24	9	51
OTU 9	84	0	121	0	44	0	2	47	3851	11	27	0	0	41	26	0	18	75	3	5	16	16	0	4	3	0	1	0	19	28	29	88	52	0	0	0	0	0	0	2	0	9	10	33	78	2	6	98	5	3
OTU 10	31	24	5	0	0	5	2	12	0	0	42	5	0	45	44	16	16	28	0	21	116	3	2	1	11	3	20	0	1	13	19	17	1	59	18	54	0	0	0	2	2	3	44	11	1	10	8	19	0	8
OTU 11	172	24	12	40	32	2	67	7	27	14	35	12	56	13	8	22	55	6	8	27	0	22	0	0	30	10	8	0	47	28	25	84	36	22	20	16	114	7	8	5	5	1	50	69	3	264	4	18	16	6
OTU 12	72	16	8	253	113	0	101	34	226	12	29	42	1	1	82	33	182	11	25	45	53	66	3	12	103	68	89	4	35	6	5	53	158	42	116	18	3	24	2	37	4	142	41	48	32	15	7	34	41	118
OTU 13	0	0	0	4	0	0	0	2	0	0	4	0	0	27	0	0	0	0	0	0	0	0	10	0	0	7	0	0	1	0	0	0	0	0	12	0	0	0	1	0	0	0	0	0	0	8	0	0	0	0
OTU 14	0	0	52	31	6	9	16	4	0	0	100	4	0	74	9	4	12	19	1	0	24	0	1	0	23	250	18	13	44	3	0	0	64	29	0	9	0	10	8	8	15	12	1	0	20	3	147	0	13	2
OTU 15	0	0	1	0	0	0	0	0	0	0	0	0	2	0	0	3	0	0	0	0	0	0	0	0	0	4	0	0	0	0	0	0	0	2	0	2	2	0	0	0	0	0	0	0	0	0	33	0	0	0
OTU 16	0	0	0	0	0	0	0	0	0	2	0	0	0	0	0	0	0	0	0	0	0	0	0	0	0	0	0	0	0	1	0	0	0	4	0	0	0	0	0	0	0	0	15	0	6	0	0	10	0	7
OTU 17	65	19	1	16	20	0	8	19	69	6	1	31	0	5	34	0	89	25	3	270	10	1	70	3	35	27	130	16	74	0	0	32	12	87	568	6	0	4	85	1	0	6	0	24	0	1	0	13	14	11
OTU 18	117	108	163	3	192	15	4	24	4	0	39	14	15	8	75	531	44	5	3	7	719	35	39	10	16	100	2	4	90	11	5	50	137	52	75	11	17	4	19	63	26	15	50	10	24	18	12	12	3	219
OTU 19	0	0	3	0	0	0	0	0	0	0	2	0	0	0	0	0	0	0	0	0	0	0	0	0	0	0	0	0	0	0	0	0	0	0	0	0	0	0	0	0	0	0	0	0	0	0	0	0	0	0
OTU 20	2	30	24	2	91	7	130	17	2	1	140	19	40	8	4	4	113	24	3	18	16	111	22	1	33	1	56	0	15	50	148	9	113	92	33	65	80	2	27	10	135	26	23	23	0	327	173	71	12	323
OTU 21	27	1	362	33	27	813	11	3	252	118	331	11	33	151	69	144	22	8	521	50	269	56	2	443	5	1643	12	305	2	42	67	28	9	272	0	1	55	616	9	9	63	124	42	2	3	118	187	3395	1149	0
OTU 22	10	11	35	2	83	113	10	6	5	11	218	34	101	32	11	1	165	5	40	128	0	0	0	54	6	67	40	23	9	17	100	15	84	15	509	113	176	70	12	38	60	219	0	166	1	151	363	8	137	18
OTU 23	147	0	4	18	125	4	7	1	4	0	0	0	3	23	8	6	0	0	0	25	31	0	0	23	1	48	6	0	23	21	42	67	0	8	56	0	14	0	4	7	0	43	7	1	12	36	2	34	1	10
OTU 24	85	1	77	0	7	0	20	119	3	2	409	0	2	23	2	3	74	2	0	0	16	1	3	0	7	82	1	0	10	29	64	48	85	3	1	5	5	1	5	9	26	0	0	4	4	1	0	1	0	4
OTU 25	0	0	0	122	0	0	0	118	0	0	0	0	0	1	1	0	1	0	0	0	0	0	0	0	0	0	0	0	31	0	0	0	0	0	0	0	1	0	3	2	4	0	6	0	6	0	0	0	0	0
OTU 26	0	0	24	0	0	0	81	4	3	0	0	0	20	0	45	2	0	0	0	24	0	0	0	6	1	0	0	0	63	0	11	0	9	0	0	8	32	0	0	0	0	3	4	0	0	3	6	1	0	0
OTU 27	160	0	0	7	0	0	0	0	5	0	0	0	0	0	0	0	0	0	0	2	0	5	0	0	0	0	0	0	0	0	0	58	0	31	0	0	0	0	0	0	0	0	0	0	0	0	0	4	0	0
OTU 28	40	30	184	71	67	0	32	223	1	210	165	5	7	35	109	35	63	37	14	127	49	35	8	7	2	47	19	7	99	3	542	8	15	40	72	329	9	16	34	43	263	23	137	38	35	259	514	2	25	10
OTU 29	13	14	62	4	5	737	33	40	530	77	8	1	8	11	111	69	85	3	754	116	38	401	6	1109	44	10	17	392	76	910	17	22	7	15	64	3	16	796	16	55	2	6	57	3	35	0	3	26	1540	33
OTU 30	0	0	0	0	0	0	1	0	0	0	0	13	0	0	0	0	0	0	0	0	0	0	0	0	0	0	12	0	0	0	0	0	0	0	0	0	0	0	0	0	0	0	0	0	0	0	0	0	3	0
OTU 31	6	1	38	22	0	10	29	16	0	1	0	20	0	45	44	0	16	0	4	21	3	2	25	1	0	51	10	2	390	77	0	0	19	0	1	2	0	3	0	35	0	46	12	20	2	5	0	4	3	155
OTU 32	7	5	43	46	120	0	23	59	0	0	38	55	4	10	30	6	113	166	16	4	42	38	136	17	1	0	84	27	29	49	72	13	4	7	39	21	8	21	5	14	25	177	15	46	55	27	83	15	43	69
OTU 33	0	2	0	0	0	0	0	0	0	1	0	0	0	0	0	0	27	0	0	14	0	0	0	0	0	1	0	0	0	0	0	0	0	0	0	0	0	2	0	0	0	0	24	0	0	0	0	0	0	0
OTU 34	5	67	16	19	0	43	4	63	30	3	9	4	360	179	75	43	172	3	56	29	80	70	21	28	72	12	16	1	19	14	24	9	207	63	26	10	661	43	4	87	19	3	3	19	6	68	0	0	127	403
OTU 35	16	0	4	0	43	2	303	7	2	2	1	207	38	24	25	10	58	1	8	23	2	198	29	0	604	7	229	19	113	9	50	109	0	130	1	43	54	19	84	3	18	16	12	6	1579	34	1	7	32	243
OTU 36	23	0	6	68	21	30	54	2	11	7	0	0	29	0	1	0	5	3	10	75	56	15	118	2	18	47	0	6	55	0	10	5	32	15	0	12	52	20	86	2	2	56	63	666	36	54	26	0	16	15
OTU 37	1	22	0	12	4	0	2	0	0	0	1	0	0	222	3	0	0	0	2	0	7	0	0	0	24	236	3	0	0	18	0	0	11	0	6	4	0	0	6	0	1	80	13	2	0	1	16	8	0	63
OTU 38	40	129	142	110	1	5	38	7	23	1	16	1	4	3	645	32	30	12	11	21	25	52	16	20	44	6	0	9	23	1	26	41	7	26	24	0	7	10	14	304	7	17	6	0	52	25	36	90	15	8
OTU 39	0	8	1	165	17	0	1	12	6	0	17	0	11	0	0	8	0	0	0	96	3	3	6	0	0	33	0	0	2	0	15	5	0	53	1	20	20	0	0	0	0	2	8	1	93	0	0	1	0	0
OTU 40	32	8	12	34	90	4	20	25	0	10	15	17	29	23	0	28	69	26	9	16	158	24	14	12	31	206	46	0	40	6	40	14	19	43	7	126	54	5	26	36	80	121	5	2	25	2	42	13	4	18
OTU 41	17	26	17	66	5	11	37	117	0	0	5	25	2	63	223	25	19	37	0	63	46	3	0	0	5	22	33	0	289	22	100	0	74	18	271	6	2	1	31	50	14	14	30	47	0	2	0	1	0	138
OTU 42	73	5	0	46	17	1	2	0	1	0	0	0	29	0	21	0	6	11	3	1	0	19	0	8	0	0	0	2	1	0	7	22	1	0	0	0	47	4	0	26	2	3	0	0	52	12	0	28	8	0
OTU 43	0	0	0	0	0	0	0	0	5	0	2	0	4	0	0	0	0	0	0	0	0	0	0	0	0	0	0	0	24	7	0	0	1	0	0	0	8	0	0	0	4	0	0	0	0	0	0	0	0	0
OTU 44	0	2	0	0	3	0	0	3	0	30	48	0	0	0	0	4	4	0	0	0	0	68	0	0	159	59	0	0	28	0	0	5	8	5	12	5	0	0	22	4	0	2	0	0	0	0	0	0	0	7
OTU 45	98	22	1	2	142	2	32	3	5	12	6	2	23	104	12	0	113	15	11	126	5	47	15	12	21	90	4	2	8	7	0	12	13	86	66	5	68	8	6	11	63	79	26	5	13	2	0	10	12	53
OTU 46	63	30	12	113	63	7	117	18	3	38	28	22	7	104	48	62	22	39	5	34	18	5	50	11	45	34	48	0	19	110	25	6	7	26	27	36	17	14	42	73	42	66	38	113	16	2633	5	18	5	0
OTU 47	21	0	0	0	0	0	0	0	0	10	0	22	10	0	1	0	115	0	0	0	3	0	5	0	0	3	8	0	0	0	0	22	0	0	0	0	18	0	0	0	0	0	4	0	1	0	0	21	0	0
OTU 48	8	17	141	10	36	25	52	25	3	216	40	15	0	24	73	4620	51	602	5	42	123	54	0	2	384	173	11	6	215	386	100	9	11	201	19	90	1	1	42	6	7	151	32	43	12	43	2	6	7	7
OTU 49	74	1	42	17	32	0	23	0	0	9	15	5	4	7	33	11	1	0	4	16	2	79	28	0	101	27	7	0	28	4	12	11	51	0	0	0	14	0	4	7	5	96	12	16	0	23	0	35	6	1
OTU 50	97	2	43	52	411	27	1	52	3	46	32	20	26	5	17	6	51	19	16	78	0	11	13	5	36	84	18	3	7	210	38	35	114	30	52	128	64	18	1	97	123	40	460	113	48	5	102	29	25	129
OTU 51	39	5	5	17	24	5	5	15	0	7	4	16	7	3	22	13	6	0	0	0	0	14	0	1	24	1	8	3	4	54	12	39	9	0	11	21	11	2	0	30	29	33	0	17	34	3	3	2	0	49
OTU 52	131	3	30	41	129	48	41	5	20	129	13	21	29	225	31	103	186	5	8	70	62	134	11	16	3	45	65	12	591	67	54	58	26	6	74	22	66	21	75	30	34	5	35	32	77	48	7	127	21	56
OTU 53	0	0	0	0	0	0	6	0	0	0	0	0	0	0	10	0	0	0	0	0	0	0	0	0	0	0	0	0	0	0	0	0	0	0	0	0	0	0	0	0	0	1	0	1	0	0	0	0	0	0
OTU 54	71	28	15	4	22	26	123	84	14	23	109	17	34	25	44	777	14	138	0	35	1900	41	26	53	138	48	12	0	52	92	69	41	53	30	71	17	42	1	6	11	50	143	144	40	9	30	62	98	5	276
OTU 55	0	4	0	0	0	0	0	0	0	0	12	0	0	0	1	0	0	8	0	0	0	0	0	1	0	0	0	0	0	0	0	0	0	0	0	0	0	0	0	0	0	0	0	0	0	0	0	0	0	0
OTU 56	1	28	8	3	70	10	2	3	13	236	0	0	6	9	45	12	35	29	4	6	19	24	11	16	19	0	0	0	38	8	0	1	0	1	0	0	17	2	0	1	2	3	96	0	3	154	1	28	9	29
OTU 57	211	566	82	16	325	18	32	45	23	90	1	125	4	198	32	8	145	214	25	233	19	225	58	25	98	118	250	21	71	264	194	135	125	49	177	17	9	30	97	1104	15	53	133	223	40	106	78	89	43	224
OTU 58	0	22	0	0	0	0	109	23	0	100	6	2	0	4	12	2	2	27	2	19	25	12	0	0	0	35	2	0	0	0	1	6	4	5	104	0	0	0	12	50	12	0	2	0	0	3	0	0	9	1
OTU 59	10	14	0	55	2	1	0	117	0	1	2	47	31	3	55	4	184	13	0	46	0	12	27	6	1	2	66	2	52	19	0	1	1	6	41	4	61	1	20	77	22	50	4	6	1	4	3	13	6	1
OTU 60	39	0	8	17	110	12	10	44	8	250	1	0	55	42	2	61	82	47	16	17	119	163	90	25	9	49	11	9	165	71	6	17	17	79	36	4	104	36	87	35	25	7	54	74	4	15	57	74	25	27
OTU 61	38	67	10	77	232	42	2	95	2034	525	7	1	28	19	76	326	4	10	1127	16	616	88	27	4085	27	4	0	12	469	188	5	5	11	89	20	106	64	79	120	121	14	33	64	78	115	8	5	50	44	58
OTU 62	0	0	2	0	3	0	2	35	0	3	0	6	4	0	0	3	1	26	0	2	0	1	0	0	1	32	0	0	0	36	46	7	10	46	2	11	7	0	0	0	3	0	0	6	0	3	43	14	0	0
OTU 63	32	9	0	2	4	1	1	12	0	36	0	39	5	7	46	11	25	3	1	279	0	3	11	1	0	88	81	7	0	30	9	8	91	75	98	14	14	3	4	0	0	12	43	72	0	0	4	42	10	0
OTU 64	37	31	15	24	98	34	20	41	47	62	78	18	17	168	148	10	160	16	17	63	71	165	158	92	98	15	13	6	13	27	93	8	63	252	13	13	39	19	62	22	8	25	11	53	41	26	46	4	29	50
OTU 65	0	0	0	0	0	0	0	0	0	0	0	0	0	0	3	1	0	0	6	0	2	0	0	0	0	0	0	0	28	0	0	3	0	0	0	2	0	0	0	0	0	137	0	0	3	8	0	0	0	0
OTU 66	52	16	45	51	183	24	4	2	11	4	1	15	18	58	6	33	175	9	24	0	16	0	0	1	15	0	60	2748	61	153	102	14	2	116	46	1	51	24	35	22	20	42	211	20	8	20	0	122	21	7
OTU 67	0	17	10	60	8	3	23	43	0	23	0	0	0	1	51	1	61	12	0	0	3	15	8	9	0	70	11	0	116	23	3	7	133	0	36	62	0	1	4	21	12	7	15	48	42	936	30	0	2	6
OTU 68	35	11	5	51	273	3	12	2	0	0	5	9	0	0	7	16	0	4	10	0	50	0	0	0	5	4	4	12	0	31	46	24	0	31	10	14	0	17	3	46	6	5	0	3	2	2	149	19	6	39
OTU 69	34	0	56	39	208	11	20	64	0	10	92	2	6	123	59	59	52	13	2	9	26	105	1	4	38	18	15	1	26	155	23	21	56	16	27	434	13	0	1	28	204	16	5	2	10	47	83	2	2	0
OTU 70	101	71	0	8	24	0	114	4	0	3	42	55	5	7	165	0	32	10	8	17	0	43	55	0	20	5	63	1	9	52	0	19	14	14	14	12	6	0	1	57	0	9	0	12	1	6	122	0	1	54
OTU 71	92	22	5	1	21	5	43	86	0	0	48	2	2	4	28	0	30	266	22	0	3	3	1	0	5	15	22	11	0	3	7	38	0	0	4	8	9	27	0	1	1	75	0	77	4	2	78	47	48	0
OTU 72	291	7	115	43	1	28	36	13	16	36	29	15	195	18	45	0	31	29	4	20	0	3	16	12	1	71	14	1	108	20	28	158	30	21	63	2	30	2	19	19	2	81	7	9	100	23	8	57	2	92
OTU 73	55	16	10	116	21	13	1	71	1	206	1	13	3	44	75	18	75	605	1	42	58	0	18	5	21	16	40	4	14	33	16	28	1	113	38	5	13	13	3	12	0	131	8	1	4	146	3	1	9	7
OTU 74	0	3	18	0	1	31	101	14	25	58	44	66	141	258	5	4	28	50	19	114	43	16	46	32	8	3	155	26	109	9	0	0	177	271	96	41	260	36	17	5	97	78	36	113	27	14	2	26	60	8
OTU 75	7	46	100	1	137	17	4	51	1	195	10	54	78	22	18	529	50	25	7	79	891	41	9	5	3	252	87	4	10	5	5	10	22	551	394	68	147	4	189	0	36	122	17	24	10	38	84	47	23	113
OTU 76	118	107	24	14	0	0	2	2	0	112	45	0	2	3	205	0	2	0	8	5	0	0	0	0	0	0	3	2	0	0	0	40	42	15	99	0	2	3	8	205	0	0	47	2	15	11	1	124	1	0
OTU 77	58	0	2	21	24	4	82	152	3	10	136	40	3	24	48	14	9	15	16	5	14	3	20	2	13	3	54	275	12	53	40	32	103	16	42	4	6	14	6	4	7	169	19	2	77	3	39	6	44	1
OTU 78	127	1	15	8	0	4	2	40	7	14	2	0	1	81	57	20	2	32	0	20	10	2	17	0	2	212	1	56	62	237	8	43	24	263	42	8	2	119	0	5	2	0	0	28	18	1	39	62	0	75
OTU 79	41	33	266	164	185	16	45	126	11	694	54	120	40	70	265	91	284	173	7	1042	165	64	102	16	76	83	265	14	59	250	35	11	149	483	323	232	75	5	70	54	198	470	107	68	124	47	89	174	17	215
OTU 80	40	11	88	10	122	1	211	64	22	132	2	4	22	107	78	2	3	11	11	29	24	80	6	15	105	143	14	14	22	43	36	10	79	23	144	10	33	14	93	8	34	87	131	35	9	87	5	17	23	26
OTU 81	233	24	265	37	32	29	197	183	12	4	82	61	59	8	224	152	119	8	10	45	205	92	72	45	8	44	64	24	52	958	72	97	52	31	10	44	120	28	8	94	53	36	17	200	60	37	187	49	12	59
OTU 82	248	179	0	3	4	5	108	2	2	73	6	13	0	2	63	39	56	60	0	49	52	2	1	3	99	129	9	0	42	0	0	115	29	204	55	11	0	0	2	195	9	12	24	0	10	3	9	76	0	2
OTU 83	11	1	0	20	0	0	0	0	0	0	1	5	0	0	0	0	0	2	0	2	0	4	15	0	0	1	11	0	0	0	0	4	69	12	16	0	0	2	0	0	1	2	0	17	13	0	0	1	0	4
OTU 84	2	50	9	1	28	4	26	0	0	10	5	38	0	2	76	0	0	368	0	187	24	74	8	0	0	22	58	0	4	10	19	0	0	1	286	22	0	3	0	52	0	49	67	25	2	10	4	12	5	29
OTU 85	0	1	1	9	14	1	1	4	0	0	23	2	0	0	0	4	13	31	5	2	16	25	19	1	13	0	53	0	1	3	4	1	12	0	6	2	0	0	28	0	2	0	0	11	0	0	0	3	7	8
OTU 86	0	0	14	1	0	0	0	0	0	0	0	19	0	0	0	0	0	0	1	4	0	6	0	12	0	0	54	7	0	0	0	6	0	77	0	0	0	5	0	0	0	0	0	0	0	128	1	0	4	0
OTU 87	57	5	3	40	117	0	0	5	0	0	12	2	0	161	129	0	0	1	0	2	0	278	0	5	0	0	0	9	804	6	10	24	1	5	0	2	0	27	0	114	26	106	0	0	0	7	0	109	1	44
OTU 88	0	0	21	36	0	0	108	1	19	0	4	0	182	9	3	0	28	0	0	41	0	0	0	5	0	0	0	0	1	1	4	0	0	0	7	13	0	0	1	0	0	0	0	3	0	37	0	0	0	0
OTU 89	31	0	4	29	83	0	87	0	669	0	0	1	6	171	0	0	231	2	0	19	26	13	6	0	98	0	0	1	1	0	1	18	19	0	0	0	6	0	1	8	10	24	176	14	7	0	29	10	0	4
OTU 90	0	8	0	1	0	62	0	0	0	0	0	0	0	1	21	0	34	0	1	0	0	13	10	0	13	0	0	0	0	0	2	0	22	0	0	0	0	0	2	1	0	3	1	0	29	0	0	0	0	84
OTU 91	1	0	0	9	0	0	0	0	4	0	0	0	0	0	0	0	14	0	0	17	0	1	0	2	5	1	0	0	0	2	0	0	147	10	29	0	0	0	0	0	22	0	0	0	0	0	0	0	0	0
OTU 92	0	0	16	0	0	3	0	0	0	5	0	0	45	58	16	0	0	0	0	0	0	1	10	5	5	53	0	0	19	0	0	0	0	4	9	7	120	0	30	1	0	0	0	0	9	2	0	0	0	6
OTU 93	0	0	0	5	1	0	171	8	0	15	0	0	0	0	22	21	0	0	0	0	5	6	0	2	30	2	0	0	0	0	16	0	0	0	0	1	5	0	1	0	2	0	0	0	0	0	5	0	0	0
OTU 94	37	65	96	38	5	297	43	14	108	101	27	1	17	3	12	6	105	13	303	0	7	2	36	286	179	97	4	162	3	47	49	19	73	18	3	7	42	255	142	1	6	98	72	155	2	37	56	5	434	1
OTU 95	0	0	0	74	60	4	0	0	0	36	0	0	0	6	3	6	5	12	1	59	0	0	0	35	19	6	2	0	1	107	9	1	94	70	96	0	0	0	0	1	0	3	0	0	24	0	21	1	0	0
OTU 96	0	9	0	0	0	0	36	0	0	0	24	0	0	2	0	0	0	6	0	1	0	3	25	0	37	0	0	0	0	0	0	0	0	0	0	46	1	0	0	0	86	0	48	29	0	0	114	7	0	94
OTU 97	9	0	8	0	26	0	3	1	7	0	1	0	0	0	0	7	0	1	0	0	68	0	0	1	0	0	0	817	4	0	0	13	13	3	0	8	0	0	0	0	0	0	6	0	61	26	0	1	0	26
OTU 98	1	0	0	8	4	0	18	13	2	0	2	0	557	0	32	1	4	0	0	2	0	3	2	0	7	0	0	1	3	0	1	6	0	0	0	23	1127	0	0	5	2	10	36	4	13	3	0	2	0	1
OTU 99	166	12	10	190	114	45	36	14	77	215	54	4	57	14	140	39	22	24	10	37	65	1047	78	74	9	242	37	16	18	77	12	24	65	28	77	33	127	26	10	25	19	150	1	110	63	37	21	79	22	4
OTU 100	45	5	0	77	70	0	5	0	165	6	3	0	69	154	34	3	0	17	9	3	14	2	17	538	15	17	0	3	53	4	0	22	107	15	52	1	132	1	0	3	8	0	1	5	120	2	1	0	25	4
OTU 101	0	0	5	0	0	0	11	0	1	0	0	1	0	0	16	0	42	0	0	0	5	0	0	0	5	0	2	0	0	0	1	0	13	5	72	0	0	0	0	3	32	0	0	4	0	0	0	0	0	0
OTU 102	159	0	26	0	0	0	1	16	0	0	0	14	11	3	0	9	0	0	0	10	3	0	25	2	24	2	15	0	100	0	0	8	0	86	0	0	26	0	2	0	1	0	0	4	0	0	0	63	0	10
OTU 103	102	0	4	60	11	1	45	35	1	2	12	5	0	2	102	13	0	6	2	43	19	20	1	6	12	14	2	0	0	15	7	42	26	1	31	123	0	4	14	31	4	820	83	1	156	8	7	4	0	19
OTU 104	102	21	2	20	116	6	114	45	7	16	21	29	18	39	23	29	98	98	8	10	4	16	4	6	14	118	25	3	67	77	93	37	44	50	67	6	22	6	76	4	3	2	6	31	14	65	221	64	4	95
OTU 105	0	8	1	0	11	0	17	14	0	0	0	0	0	0	22	0	0	2	0	2	0	0	0	0	21	1	0	0	0	9	1	0	0	19	0	1	1	3	0	52	7	0	2	2	40	0	0	0	0	93
OTU 106	8	0	0	0	553	18	46	59	0	2	8	0	2	32	1	0	4	0	1	5	7	0	49	1	0	45	1	6	0	0	1	1	0	3	0	29	1	8	179	0	1	28	0	9	0	13	3	0	8	57
OTU 107	0	4255	14	23	27	0	0	9	0	5	3	0	0	96	48	2	1	5	0	143	3	198	1	28	0	7	6	0	0	68	0	0	11	20	0	1	1	2	6	4	1	19	22	96	4	3	14	0	0	0
OTU 108	28	37	18	52	0	17	10	52	2	26	3	10	7	36	1	0	528	3	0	2	6	91	8	0	8	10	19	0	2	68	0	31	19	32	6	0	9	2	0	6	1	6	31	2	1	124	13	1	0	2
OTU 109	1	0	0	0	0	0	2	2	0	0	0	0	0	0	0	0	0	0	1	0	2	0	0	0	0	0	0	0	0	0	0	0	0	0	0	50	0	0	0	0	0	1	0	1	0	0	0	0	0	0
OTU 110	26	41	21	212	27	42	0	0	8	2	0	10	12	19	247	28	16	0	32	49	8	252	7	31	9	2	28	32	56	64	0	7	31	3	3	27	34	23	56	74	28	140	431	79	34	52	0	5	52	113
OTU 111	2	3	0	6	0	0	0	2	1	0	0	0	0	3	31	0	0	7	0	1	0	0	0	0	1	0	12	0	16	5	1	0	1	0	0	23	0	0	0	2	0	0	1	3	0	6	2	0	0	0
OTU 112	6	0	19	1	0	7	5	0	0	2352	0	4	0	0	21	2	18	0	1	19	29	0	1	13	0	1	6	11	2	33	23	1	0	31	1	49	0	0	0	0	4	0	3	0	0	15	15	1	1	1
OTU 113	0	9	0	0	0	7	0	0	3	0	2	1	0	0	25	39	0	0	0	0	80	0	0	0	6	0	12	0	1	0	0	0	39	0	0	0	0	0	20	0	0	0	35	2	1	0	0	14	2	2
OTU 114	83	28	21	81	6	76	36	88	19	56	27	6	2	28	13	14	384	21	90	9	47	0	7	76	40	53	27	73	35	258	2	40	26	95	112	43	3	137	8	26	32	24	56	395	0	27	52	26	186	34
OTU 115	88	80	92	26	181	3	22	41	14	14	14	29	2	197	7	4	303	42	4	26	4	69	44	6	5	55	51	1	28	110	41	44	7	161	55	29	6	1	3527	44	45	15	332	40	25	19	14	272	5	34
OTU 116	152	1213	198	112	21	61	47	1758	7	103	46	4	5	2	2	20	19	0	17	221	29	8	14	9	29	103	18	21	86	7	76	115	4	47	28	29	18	58	0	2464	25	29	113	190	15	35	4	169	55	30
OTU 117	13	30	9	1	82	82	30	1	28	3	49	19	4	5	20	29	77	19	1361	56	50	198	0	52	4	148	12	32	170	25	22	7	49	29	87	150	4	23	0	61	52	61	38	131	28	0	23	2	41	93
OTU 118	1	0	0	1	16	0	0	13	1	0	0	2	0	1	0	0	0	1	1	0	1	3	0	2	15	3	5	2	0	16	1	0	4	0	28	7	0	10	10	0	2	4	22	53	1	0	7	1	0	12
OTU 119	39	25	251	9	67	29	67	20	17	141	22	1	48	67	60	0	107	14	3	114	18	96	3	46	85	50	0	0	72	113	104	16	148	6	14	14	94	9	65	76	15	377	0	102	5	2	189	8	4	100
OTU 120	14	60	5	0	3	0	7	24	0	8	0	0	7	2	43	0	64	0	1	0	1	21	12	1	2	6	25	3	61	0	14	2	0	0	0	1	16	5	1	31	12	3	1	78	23	0	2	13	2	1
OTU 121	25	0	1	3	24	14	2	27	0	5	0	9	0	1	15	30	0	6	26	4	45	12	2	1	11	35	1	14	12	25	0	0	132	88	24	1	3	34	30	6	2	1	22	4	0	18	8	39	71	18
OTU 122	48	2	11	234	100	22	606	11	14	63	2	234	10	488	2	1	209	7	3	843	11	46	7	12	418	9	482	14	150	24	45	18	14	0	46	30	17	4	4	22	14	5	58	41	13	24	33	4	6	3
OTU 123	33	39	82	226	66	59	79	246	19	132	68	43	91	148	82	83	195	358	31	353	101	455	52	57	171	155	102	6	62	276	43	50	26	336	293	21	141	43	101	103	24	341	85	352	33	103	145	79	67	110
OTU 124	0	17	0	0	36	2	0	0	0	59	1	3	6	2	1	1	33	0	0	1	12	2	0	2	0	0	0	2	0	5	35	0	75	44	0	33	17	0	16	0	20	51	0	1	0	1	2	0	0	2073
OTU 125	176	90	261	257	73	49	262	71	23	191	35	26	24	232	64	124	72	54	41	80	164	444	267	71	124	122	36	30	69	199	62	576	47	72	20	83	45	31	101	33	6	387	57	104	17	78	113	131	97	180
OTU 126	0	97	0	0	0	28	0	0	5	2	0	0	14	72	2	0	0	23	3	0	0	63	0	6	0	0	0	5	0	2	0	0	0	0	1	4	26	9	0	48	3	0	0	1	0	0	1	0	15	0
OTU 127	1	1	1349	23	40	1	0	0	0	2	0	0	0	15	10	28	10	13	0	36	5	21	5	1	7	0	0	1	0	3	93	4	63	6	0	2	0	0	16	0	38	13	32	3	1	0	1	4	0	0
OTU 128	195	28	321	238	182	52	85	93	99	59	94	249	75	425	53	65	256	69	62	31	143	131	82	181	93	347	91	685	44	103	95	129	425	134	326	34	145	53	235	93	60	136	34	320	165	30	106	214	112	411
OTU 129	0	0	1	0	0	0	0	185	0	0	0	1	0	0	0	1	0	0	9	0	0	30	0	0	0	0	0	0	0	1	0	0	0	53	0	67	1	1	0	0	9	3	0	0	0	0	5	0	15	45
OTU 130	1	0	31	190	16	251	3	2	2	16	22	7	37	33	5	9	33	1	0	9	8	18	14	20	1	0	2	6	21	68	21	0	7	7	90	0	17	3	2	1	44	31	77	1	92	6	8	64	5	5
OTU 131	11	0	88	24	138	0	1	11	2	1	11	0	10	7	14	11	0	0	22	25	72	29	0	28	40	90	5	19	13	143	2	1	27	28	26	0	24	45	43	6	44	21	36	10	36	17	4	21	49	22
OTU 132	9	25	0	4	30	21	6	2	0	0	0	1	0	9	45	0	17	1320	0	0	0	1	0	0	2586	8	22	1	0	0	48	3	0	5	1	32	0	0	0	31	0	28	2	1	0	10	2	0	13	1
OTU 133	2	3	0	33	0	0	27	3	0	0	0	0	0	6	0	0	2	0	3	70	15	2	0	1	0	0	0	0	8	1	0	0	0	25	30	4	0	0	0	3	0	15	0	0	1	0	1	0	5	0
OTU 134	4	9	0	111	51	5	47	2	3	95	47	5	15	46	20	2	20	2	0	9	0	9	21	2	0	0	12	7	69	29	654	8	16	1	87	2	35	1	51	10	38	77	109	10	92	28	5	9	0	18
OTU 135	48	0	0	12	10	153	117	2	83	39	8	21	4628	14	15	0	48	5	195	9	1	9	6	243	18	0	36	120	46	16	1	49	6	54	12	13	2	194	9	0	5	23	8	0	22	17	5	35	401	137
OTU 136	122	43	0	9	15	0	46	33	0	21	12	3	12	103	11	0	73	29	4	33	0	56	1	5	77	19	5	16	6	4	0	74	47	8	139	28	26	11	7	70	5	66	27	1	34	17	33	10	23	0
OTU 137	0	1	6	12	0	0	0	36	0	0	0	2	27	29	0	0	15	49	3	10	0	27	0	0	0	0	0	0	0	0	0	2	73	0	24	1	37	11	2	0	15	0	3	0	3	8	4	10	12	1
OTU 138	0	3	7	9	0	3	0	1	3	0	36	16	6	0	14	1	40	0	8	0	0	3	4	2	0	108	55	7	114	163	0	0	35	0	8	17	12	0	34	0	0	4	0	0	0	16	0	0	18	7
OTU 139	149	12	123	10	69	37	11	70	60	8	28	91	176	9	61	5	49	26	47	75	47	86	5	53	147	7	98	22	81	6	5	69	109	18	92	13	326	26	66	10	4321	58	162	38	41	70	132	80	146	81
OTU 140	41	98	23	144	52	31	991	46	34	4	23	88	145	71	124	31	384	50	39	182	100	160	103	22	447	106	201	7	190	61	53	31	1848	151	393	61	287	11	195	93	24	138	157	67	16	9	89	40	96	50
OTU 141	0	0	0	0	0	0	0	0	0	11	0	0	0	0	0	0	0	0	0	2	105	0	0	0	0	1	0	0	0	0	0	0	0	0	0	0	0	0	0	1	0	0	0	0	0	1	0	0	0	0
OTU 142	0	0	0	17	0	0	2	0	0	0	0	0	3	0	0	0	0	0	0	0	1	0	0	0	0	0	0	0	0	0	1	0	0	0	0	0	5	0	0	0	0	5	0	0	0	21	0	0	0	0
OTU 143	45	0	26	9	20	1	0	0	0	0	0	3	0	0	79	15	63	2	11	6	7	97	2762	4	1	7	29	3	81	57	0	13	1	0	110	0	0	23	0	61	0	0	0	34	2600	1	4	31	18	0
OTU 144	0	0	0	0	0	1	40	17	0	0	11	1	0	0	0	0	9	0	0	0	0	0	10	0	2	0	1	2	0	0	0	4	77	0	1	5	0	0	4	33	3	0	0	0	0	4	0	0	1	0
OTU 145	49	2	2	175	26	0	72	57	7	13	3	11	29	437	73	8	39	1	24	5	23	163	12	11	111	20	43	8	7	49	15	15	20	154	65	37	65	3	18	55	1	38	79	3	109	70	112	54	41	134
OTU 146	12	0	90	24	56	0	70	68	10	102	50	7	15	59	9	7	13	45	7	26	3	34	0	17	0	75	0	3	0	7	21	23	1	18	9	80	37	25	11	2	64	24	316	10	40	60	49	1	10	73
OTU 147	0	0	0	0	22	2	29	2	0	6	56	0	4	71	0	0	170	4	2	0	34	0	4	1	52	3	0	2	0	55	21	2	356	1	25	0	13	0	19	0	11	20	4	5	11	8	0	1	12	0
OTU 148	91	6	73	7	108	10	17	46	4	5	2	0	13	25	6	30	23	32	25	2	20	8	7	0	18	261	4	0	3	111	6	113	29	658	267	3422	31	8	21	66	1032	5	8	71	34	37	5	17	42	7
OTU 149	7	0	0	2	32	6	56	0	1	8	39	0	6	0	0	16	1	6	2	0	24	11	5	0	0	0	1	2	1	2	25	25	0	6	0	32	26	0	3	0	48	1	183	13	18	6	35	10	2	49
OTU 150	0	0	1	1837	46	0	0	0	0	0	5	15	1	1	1	9	32	0	0	36	10	124	0	0	3	0	80	0	37	5	0	0	0	0	0	5	6	0	28	0	27	0	0	2	727	2	14	3	5	0
OTU 151	1	0	2	641	0	17	50	14	6	8	7	3	0	23	4	1	1	7	25	12	5	47	5	32	6	2	22	23	0	4	2	1	14	101	13	19	0	48	8	10	0	212	10	8	600	9	7	0	27	0
OTU 152	65	21	101	24	104	4	12	16	13	44	65	23	51	43	2	0	56	18	55	64	3	159	0	41	3	5	41	4	3	0	1	83	0	3	53	1	94	23	3	10	2	112	13	17	64	1	95	124	166	6
OTU 153	0	0	0	0	2	2	10	4	0	0	1	0	0	3	4	0	0	0	0	8	6	0	0	0	0	0	0	0	0	1	0	0	0	0	0	0	0	1	0	131	0	1	0	0	8	0	0	0	0	7
OTU 154	0	45	13	4	0	0	0	56	0	0	0	0	0	0	19	0	0	0	0	1	0	60	54	0	0	15	0	1	0	0	0	0	0	30	0	0	0	1	0	10	1	0	645	66	0	0	0	0	0	0
OTU 155	1	0	0	1	18	7	0	0	1	0	16	0	4	1	0	19	44	0	1	0	39	6	0	0	0	22	0	0	8	0	0	0	14	42	4	1	5	1	1	13	4	18	3	11	0	3	0	0	1	9
OTU 156	45	75	69	132	16	19	11	69	11	43	16	7	1	116	40	0	23	19	12	44	23	22	82	28	42	8	1	3	30	22	112	47	122	94	130	70	4	1	16	31	82	51	34	56	13	69	143	24	20	27
OTU 157	0	2	8	30	0	1274	29	18	1	14	0	2	0	66	0	3	17	0	0	5	2	1	0	6	39	0	2	3	1	1	0	0	46	1	61	0	1	0	0	1	0	13	4	1	0	9	1	6	0	376
OTU 158	0	0	0	0	1	0	0	0	0	87	0	0	0	19	0	0	5	2	1	12	4	0	5	0	0	0	0	0	20	0	0	0	0	2	0	0	0	0	5	0	0	0	34	0	0	0	0	0	0	0
OTU 159	3	0	53	36	1	13	606	10	0	71	0	2	14	175	45	25	4	21	0	97	74	1	31	1	129	7	1	0	160	0	10	3	67	7	18	52	37	1	94	57	41	7	13	7	1	7	43	1	3	28
OTU 160	95	408	25	96	418	41	87	34	10	119	19	159	775	90	2065	12	27	66	2	187	43	115	1880	11	39	119	204	5	63	56	26	27	58	90	0	33	1584	1	1635	788	35	216	67	13	109	33	75	18	8	74
OTU 161	184	5	12	0	253	0	34	36	2	4	151	0	21	217	28	4	143	28	27	75	12	33	1	0	25	18	1	2079	14	9	320	101	87	0	132	218	27	4447	0	40	121	45	0	43	329	152	535	162	39	12
OTU 162	1346	6	9	7	45	90	124	22	32	9	20	3	8	13	15	1	0	22	107	4	7	15	23	26	41	39	32	76	25	51	6	819	34	198	10	0	22	128	103	42	0	245	48	9	53	55	46	1410	155	1
OTU 163	0	0	0	0	0	0	9	3	0	0	0	0	0	0	0	1	0	0	1	0	0	0	0	0	0	139	2	0	0	0	0	0	0	0	0	0	0	0	0	0	17	0	0	0	18	0	2	0	0	0
OTU 164	0	0	0	0	93	0	0	0	0	0	0	0	0	0	0	12	0	0	2	3	0	7	0	0	0	0	0	0	0	0	0	1	0	0	0	1	0	0	0	0	0	0	0	0	73	0	0	0	19	27
OTU 165	100	16	4	0	1	0	0	16	7	46	52	5	1	1	3	11	5	20	2	12	4	0	604	0	25	1	2	1	0	71	34	33	5	0	34	8	4	10	4	2	12	13	0	0	10	0	6	29	2	105
OTU 166	0	0	0	0	0	3	0	14	1	0	1	0	0	0	0	0	0	50	0	1	0	0	1	0	0	0	0	0	1	0	0	0	0	0	0	0	0	0	0	0	3	0	6	0	0	0	0	0	0	0
OTU 167	37	20	12	0	40	30	104	0	5	109	31	1521	0	223	14	1	18	61	17	1	3	0	1	0	13	0	3350	4	48	10	45	14	0	37	4	10	0	0	6	4	2	0	42	0	7	83	7	55	16	8
OTU 168	0	87	34	0	11	72	7	4	1	238	10	0	30	124	71	3	8	10	13	0	31	14	15	0	1	11	1	0	88	66	20	1	32	29	19	32	55	2	31	49	37	11	58	76	10	14	1	36	15	4
OTU 169	0	0	0	0	0	0	0	7	0	2	3758	0	2	0	0	0	0	0	0	0	0	0	1	0	0	0	12	0	0	1	0	0	0	4	3	0	3	0	80	0	0	1	0	0	0	2	1	0	0	0
OTU 170	0	0	0	1	1	0	1	0	0	0	0	38	19	8	0	0	0	0	0	0	0	0	0	0	0	0	0	0	1	0	2	0	0	7	0	7	37	0	0	0	0	0	5	0	0	0	0	0	0	0
OTU 171	28	2	31	255	119	27	42	1	0	2	11	601	84	21	146	0	22	3076	41	1571	1	0	20	5	6	3	1298	37	34	39	2	6	0	4	116	29	167	31	2	13	20	10	14	12	3	5	30	37	86	17
OTU 172	0	0	3	2	1	0	0	0	0	0	0	0	0	0	0	0	0	0	1	0	0	0	153	6	0	2	0	0	0	110	35	0	0	0	0	0	0	0	10	0	0	0	30	28	0	0	0	0	0	13
OTU 173	0	3	3	2	9	0	0	2	2	0	5	17	0	0	0	7	44	21	0	0	4	229	0	17	2	0	71	0	19	0	18	4	23	4	0	0	1	1	1	5	5	6	5	19	10	1	28	0	0	0
OTU 174	2	3	7	6	36	28	85	3	4	0	1	6	0	26	64	2	0	0	0	71	3	0	11	0	54	10	29	1	41	29	6	1	6	14	79	19	0	0	33	12	6	13	9	42	10	0	1	27	0	23
OTU 175	17	31	5	5	34	0	113	0	20	0	4	1	1	2	78	6	16	5	43	0	0	70	87	3	0	17	0	1	0	31	2	22	28	18	0	0	5	24	0	43	56	13	13	16	15	4	0	3	38	6
OTU 176	24	6	26	2	44	0	42	33	10	22	4	39	1	60	0	1	193	35	4	0	7	7	40	0	15	46	67	6	12	43	6	5	5	19	2	1	6	3	13	3	1	71	73	40	34	49	15	12	6	24
OTU 177	1002	6	115	199	307	2	77	84	2	2	70	0	13	38	80	17	48	18	14	81	39	10	19	31	22	4	3	8	18	81	34	467	16	122	58	39	40	31	98	1	5	0	5	13	35	50	12	260	43	5
OTU 178	120	3	0	0	0	4	89	0	1	45	0	3	0	0	3	1	1	10	0	41	5	1	0	0	2	9	7	0	18	9	0	47	82	4	60	0	1	1	94	0	10	77	0	6	18	0	1	8	2	48
OTU 179	33	0	45	0	101	27	0	4	6	0	16	95	6	29	2	47	32	4	25	41	21	1	3	27	1	23	61	14	1	40	27	78	193	12	55	122	11	5	10	4	0	11	0	122	2	0	4	45	44	3
OTU 180	33	190	2022	86	261	58	69	56	31	241	38	15	31	42	86	128	121	80	53	70	174	773	188	39	67	107	27	14	139	64	78	24	4	320	76	34	62	34	75	98	24	332	637	161	66	89	31	7	113	16
OTU 181	12	6	14	12	26	2	6	5	1	4	2	13	3	15	5	9	54	10	6	43	33	34	32	0	1	3	50	0	77	10	31	0	4	0	45	2	3	0	8	4	0	89	0	4	91	16	4	4	6	2
OTU 182	0	0	0	0	0	7	0	44	0	0	0	8	0	0	0	0	0	1	0	2	0	0	0	0	0	0	12	0	0	0	0	0	3	0	0	0	0	0	7	0	0	0	7	0	0	0	0	0	0	0
OTU 183	85	4	1	1	20	3	34	3	4	17	3	1091	3	32	4	7	61	43	0	32	2	0	7	8	8	239	9	2	3	10	12	32	46	412	9	18	14	2	171	56	13	1	3	1	0	6	2	117	0	34
OTU 184	0	9	3	3	7	0	39	1	0	13	0	7	17	34	0	0	0	3	370	10	2	1	2	1	0	59	11	0	15	28	8	0	1	60	0	0	32	1	12	0	6	2	11	5	9	13	0	0	2	20
OTU 185	15	14	35	41	4	11	4	1444	1	0	32	1	4	21	12	10	47	1	7	7	44	72	5	34	25	218	13	1	93	5	4	3	102	417	55	7	4	5	6	11	3	2	5	13	9	52	16	3	20	75
OTU 186	2	55	10	0	1	0	0	6	0	30	6	3450	1	0	9	53	0	0	0	0	31	13	1	1	14	2	12	0	47	2	15	0	0	32	87	3	1	1	32	13	0	14	9	0	0	5	23	1	3	1
OTU 187	101	18	454	221	109	26	42	44	0	42	259	10	33	42	108	233	73	8	20	0	462	42	8	22	8	224	32	31	23	122	292	27	184	219	107	141	75	20	81	72	69	2	40	44	39	118	159	41	58	29
OTU 188	92	2	21	147	54	572	70	17	375	43	3	10	27	35	23	0	30	3	663	23	2	195	26	532	47	84	0	323	29	36	13	4099	291	24	66	11	46	745	25	26	19	94	25	3	13	23	2	1	1212	37
OTU 189	96	9	35	40	20	58	62	116	8	32	88	43	15	105	84	30	31	16	567	5	16	63	85	44	23	13	112	2	410	124	9	16	74	55	245	11	43	7	4	5	5	112	4	45	43	13	23	6	59	104
OTU 190	0	0	0	0	0	0	34	2	0	0	1	0	0	116	1	0	0	0	0	0	0	6	0	0	0	91	0	0	0	0	0	0	0	42	2	6	0	0	0	2	0	0	1130	0	0	1	0	0	2	166
OTU 191	24	25	26	0	44	0	8	186	17	51	47	9	9	80	178	52	9	64	4	21	31	46	40	0	518	48	8	8	25	10	46	24	133	25	92	30	26	3	49	75	7	277	115	7	4	57	60	16	10	30
OTU 192	56	42	73	72	102	25	38	8	7	57	101	8	69	490	41	1	75	16	7	39	9	55	71	9	13	309	18	1	175	386	115	37	66	34	32	37	152	7	34	100	48	282	174	3130	39	184	257	41	5	29
OTU 193	4	0	32	3	72	11	233	65	10	6	0	9	9	1	40	23	429	0	5	19	35	48	1	19	25	3	10	17	35	0	11	2	141	17	16	156	16	11	22	44	83	24	11	22	2	19	0	27	15	98
OTU 194	43	18	49	1	17	44	10	47	1	44	24	0	6	0	93	5	0	87	7	0	41	0	25	0	97	5	4	1	0	179	0	33	555	6	59	2	11	0	2	17	6	116	140	31	0	4	20	3	4	5
OTU 195	0	6	6	23	4	9	26	0	1	37	31	12	12	49	53	4	6	39	2	21	10	4	53	1	9	0	0	2	303	12	75	6	38	54	1	0	28	10	13	16	8	5	117	23	2	1	83	0	11	2
OTU 196	0	1	4	12	46	0	56	25	0	21	15	6	2	18	0	2	12	1	0	22	1	12	20	20	12	98	8	1	28	17	12	6	54	17	100	7	4	0	4	5	6	0	11	13	8	0	1	33	4	13
OTU 197	218	6	104	75	207	16	254	14	12	40	40	69	4	244	81	0	49	7	18	230	0	229	105	8	54	258	104	30	225	83	69	189	161	269	480	197	10	56	76	14	121	116	49	19	6	40	3	88	37	107
OTU 198	2	0	98	5	5	0	0	2	0	2	0	0	2	11	0	1	9	1	0	34	19	0	5	1	30	36	0	0	73	0	0	1	16	0	10	0	3	1	0	0	1	2	0	2	6	0	0	0	0	19
OTU 199	5	12	2	20	1	0	10	18	31	4	2	0	9	12	6	5	0	18	6	0	42	18	1	5	0	5	14	17	39	112	2	1	1	19	0	1	23	11	0	28	3	46	0	22	8	0	0	1	22	10
OTU 200	1	4	16	127	0	1	0	60	1	9	8	5	16	60	18	2	23	1	1	0	7	65	180	2	53	4	13	0	88	131	6	1	41	17	79	9	32	2	12	12	31	76	0	0	23	6	6	2	0	69
