	Host 1	Host 2	Host 3	Host 4	Host 5	Host 6	Host 7	Host 8	Host 9	Host 10	Host 11	Host 12	Host 13	Host 14	Host 15	Host 16	Host 17	Host 18	Host 19	Host 20	Host 21	Host 22	Host 23	Host 24	Host 25	Host 26	Host 27	Host 28	Host 29	Host 30	Host 31	Host 32	Host 33	Host 34	Host 35	Host 36	Host 37	Host 38	Host 39	Host 40	Host 41	Host 42	Host 43	Host 44	Host 45	Host 46	Host 47	Host 48	Host 49	Host 50	
OTU 1	2	5	1	0	1	3	0	0	1	0	0	2	3	1	2	0	0	0	0	0	2	0	3	4	1	3	4	0	0	3	2	2	0	0	7	6	2	2	3	0	0	1	0	0	1	3	3	2	1	2
OTU 2	0	0	0	0	0	0	0	1	0	0	0	0	0	2	1	1	0	0	0	0	0	0	0	0	0	0	0	0	1	0	0	0	0	3	0	0	0	0	0	1	0	0	0	0	0	0	0	0	0	0
OTU 3	0	2	2	0	0	0	0	0	0	1	0	0	0	0	4	2	5	0	1	1	0	0	3	1	0	1	0	0	1	0	2	0	0	0	1	0	0	0	0	0	0	2	1	0	2	3	0	0	0	2
OTU 4	0	0	0	0	0	0	0	0	0	0	0	0	0	0	0	0	0	0	0	0	0	0	0	0	0	0	0	0	0	0	0	0	2	0	0	0	0	0	0	0	0	0	0	0	0	0	0	0	0	0
OTU 5	0	1	0	9	1	39	14	4	0	2	1	8	5	39	12	9	18	0	12	12	31	0	65	0	1	1	29	22	48	15	8	25	1	17	0	8	28	3	0	11	1	0	58	1	7	0	7	4	5	20
OTU 6	0	0	0	0	1	6	0	0	0	0	0	0	1	0	0	2	0	0	0	0	0	0	1	0	1	0	5	0	0	0	0	0	1	0	0	1	3	0	0	0	1	0	2	1	8	0	3	0	3	0
OTU 7	4	1	11	0	6	1	8	5	9	4	3	0	1	2	9	2	10	3	1	0	2	5	0	0	3	1	7	0	1	0	1	2	1	4	5	10	0	0	9	3	5	6	0	3	0	18	8	0	3	0
OTU 8	0	1	2	8	4	6	25	2	3	1	6	3	5	6	1	3	5	3	1	4	2	7	0	4	2	0	0	0	8	5	2	2	3	1	0	3	3	3	0	13	1	4	17	5	3	2	46	0	0	0
OTU 9	0	2	3	0	0	1	84	6	0	4	0	0	2	0	2	3	0	0	0	0	0	2	3	30	0	0	2	0	4	3	0	3	0	0	0	0	0	2	2	96	2	0	1	0	0	10	1	0	0	0
OTU 10	1	0	5	0	0	3	2	0	1	0	0	0	0	0	2	0	0	1	3	0	4	1	0	5	0	0	1	0	0	0	0	0	0	0	0	0	0	0	2	3	0	0	0	0	0	0	0	0	2	0
OTU 11	4	1	16	1	5	1	1	1	3	4	1	3	8	2	4	1	0	16	0	5	1	0	0	7	0	0	0	1	0	0	5	0	0	2	11	4	3	3	1	0	2	5	6	0	0	5	1	8	1	2
OTU 12	9	1	2	3	1	2	0	8	7	0	0	0	2	5	0	4	5	9	2	0	0	0	2	1	2	0	2	1	0	0	1	0	0	0	3	0	0	1	3	0	5	4	3	2	0	2	0	1	1	0
OTU 13	0	0	0	0	0	0	0	0	0	0	0	0	0	0	0	0	0	0	0	0	0	0	0	0	3	0	0	0	0	0	0	0	0	0	3	0	0	0	0	0	0	0	0	3	0	0	0	0	0	0
OTU 14	0	0	0	1	0	0	0	1	0	0	0	0	0	0	0	0	0	0	0	3	0	1	0	3	0	0	0	0	0	0	0	0	0	4	0	0	0	0	0	0	3	0	0	0	0	1	0	0	1	0
OTU 15	0	0	0	0	0	0	0	0	0	0	0	0	0	0	0	0	0	0	0	5	0	0	0	0	0	0	0	0	0	0	0	0	0	0	0	0	0	0	1	0	0	0	0	0	0	1	0	0	0	0
OTU 16	0	0	0	0	0	0	0	0	0	0	0	0	0	0	0	0	0	0	0	0	0	0	0	0	0	0	0	0	0	0	1	0	0	0	0	0	0	0	0	0	0	0	0	0	0	0	0	0	0	0
OTU 17	0	0	1	3	19	10	0	0	2	2	2	2	0	0	1	0	0	3	14	4	0	0	0	6	0	0	0	0	0	1	0	1	11	0	32	0	0	0	0	0	15	0	1	0	23	0	1	2	0	0
OTU 18	0	2	0	9	3	4	2	5	1	2	0	0	0	0	0	0	2	0	0	0	0	4	3	5	0	1	0	56	0	0	5	57	6	0	6	0	128	0	2	0	2	2	1	3	8	4	3	0	0	3
OTU 19	0	0	0	0	0	0	0	0	0	0	0	0	0	0	0	0	0	0	0	0	0	0	0	0	0	0	0	0	0	0	0	0	0	0	0	0	0	0	0	0	0	0	0	0	0	0	0	0	0	0
OTU 20	0	0	3	0	0	3	0	4	0	5	0	0	0	13	1	1	1	3	3	10	0	3	1	0	0	0	3	0	0	2	0	0	0	2	7	3	0	0	0	0	9	1	0	3	0	0	0	0	0	0
OTU 21	5	0	2	3	5	0	0	0	1	0	0	3	83	1	2	19	0	3	0	0	0	0	0	1	1	135	7	21	0	1	5	20	0	6	4	3	41	35	0	0	0	6	0	2	0	6	1	0	0	1
OTU 22	3	1	2	1	2	0	0	3	12	3	0	4	1	0	0	4	2	1	0	2	1	6	1	2	1	0	2	0	0	0	9	1	5	0	9	0	1	0	2	0	1	5	0	0	10	5	0	1	2	1
OTU 23	1	0	0	0	0	0	0	1	2	0	0	0	0	0	0	19	0	0	2	0	49	1	0	0	0	5	0	0	0	0	1	0	0	26	0	0	0	0	0	0	0	2	2	0	0	1	0	3	0	0
OTU 24	0	0	0	1	0	0	3	0	0	0	0	0	0	0	2	0	0	0	0	0	1	1	0	0	0	0	0	0	0	1	0	0	0	0	1	0	1	0	0	0	0	0	0	0	0	0	0	0	1	0
OTU 25	0	18	0	0	0	0	2	0	0	0	0	0	0	0	0	0	0	0	0	0	0	0	10	0	0	0	0	0	0	0	0	1	0	0	0	0	0	0	0	0	0	0	0	0	0	0	0	0	0	0
OTU 26	0	0	0	0	0	0	0	0	0	0	1	0	0	2	0	0	0	0	1	0	0	0	0	0	0	0	0	0	5	0	0	0	0	1	0	0	0	0	6	0	0	0	0	0	0	0	3	1	0	0
OTU 27	0	0	0	0	0	0	0	0	0	0	0	0	0	0	0	0	0	0	0	0	0	0	0	0	0	0	0	0	0	0	0	0	0	0	0	0	0	0	0	0	1	0	0	0	0	0	0	0	0	0
OTU 28	6	8	40	0	1	0	0	0	9	13	3	5	45	0	23	0	5	1	2	3	1	1	2	1	2	0	40	20	0	0	0	21	2	1	7	4	20	30	3	31	2	2	2	7	3	99	60	1	2	3
OTU 29	3	2	0	0	0	0	4	1	0	1	2	1	2	0	0	5	0	1	0	5	0	7	98	1	1	3	0	1	5	85	1	2	0	0	0	3	0	1	0	0	1	2	0	0	0	1	0	1	0	39
OTU 30	0	0	0	0	0	0	0	0	0	0	0	0	0	0	0	0	0	0	0	0	0	0	0	0	0	0	0	0	0	0	0	0	0	0	0	0	0	0	0	0	0	0	0	0	0	0	0	0	0	0
OTU 31	1	2	0	0	0	0	0	0	0	0	1	0	2	1	0	2	1	1	0	10	78	0	1	0	71	0	0	0	32	1	1	0	0	0	0	0	2	0	1	0	0	0	0	0	2	4	0	0	4	0
OTU 32	5	2	4	0	0	0	4	0	8	3	1	0	1	2	0	7	3	2	2	1	4	0	4	5	4	2	1	16	3	0	0	0	1	1	0	0	0	1	11	1	0	10	1	5	0	1	0	1	0	0
OTU 33	0	0	0	0	0	0	0	0	0	1	0	0	0	0	0	0	0	0	3	0	0	0	0	1	0	0	0	0	0	0	0	0	0	0	0	0	0	0	0	0	0	0	0	0	0	0	0	0	0	0
OTU 34	23	4	3	0	0	1	4	0	4	0	0	0	0	5	0	1	3	8	1	0	2	1	2	0	2	1	0	0	0	5	0	0	5	0	0	2	2	0	0	0	0	0	0	0	2	5	1	13	0	0
OTU 35	0	1	3	3	0	1	0	1	3	0	1	6	0	0	1	0	0	1	0	5	5	1	1	0	0	0	0	1	2	1	0	0	0	2	0	0	0	0	0	95	0	0	0	4	0	0	4	3	7	0
OTU 36	10	3	0	1	0	1	2	0	0	1	0	0	0	1	0	3	5	0	1	0	3	0	4	0	0	0	0	0	0	0	0	0	0	0	0	0	0	0	0	1	1	2	0	2	0	0	3	0	0	1
OTU 37	0	0	0	0	0	0	1	0	1	0	0	0	1	0	0	0	0	0	0	0	0	0	0	0	0	4	0	0	0	0	0	0	0	0	0	3	0	1	0	2	0	2	0	0	0	0	0	0	0	0
OTU 38	6	7	3	1	1	8	2	0	0	1	0	3	2	2	0	2	0	0	0	0	0	2	2	4	0	0	3	0	0	0	1	0	10	0	9	0	2	0	0	0	1	5	20	1	10	0	0	6	0	1
OTU 39	0	4	0	3	0	2	0	0	0	0	0	0	0	0	0	0	0	0	0	0	4	0	3	0	0	0	0	0	0	0	0	0	0	1	0	0	0	0	0	0	0	0	3	0	0	0	0	0	0	0
OTU 40	10	0	2	15	0	4	3	0	2	0	1	0	1	2	1	7	0	1	0	0	1	1	2	0	3	6	0	0	1	1	0	0	0	7	2	1	1	0	0	0	2	3	0	3	0	0	0	1	4	0
OTU 41	0	8	0	0	0	0	24	2	0	0	0	5	0	0	0	0	0	0	0	0	1	1	4	8	0	0	0	0	0	0	2	0	4	0	2	0	0	10	3	0	0	0	0	5	5	0	0	0	1	0
OTU 42	1	0	0	0	1	0	0	0	4	0	0	0	0	0	0	2	0	0	0	2	0	0	0	0	0	0	0	0	0	0	0	0	0	0	0	0	0	0	0	0	0	1	2	0	0	0	0	0	1	0
OTU 43	0	0	1	0	0	0	0	0	0	0	0	0	0	0	0	0	0	0	0	0	0	0	0	0	0	0	1	0	0	0	0	0	0	0	0	0	0	0	0	0	0	0	0	0	0	0	0	0	0	0
OTU 44	0	0	0	0	0	0	0	0	1	0	0	0	0	0	0	0	0	3	0	0	0	0	0	0	0	0	0	0	0	0	1	0	1	0	0	0	0	0	0	0	0	0	0	0	1	0	0	0	0	0
OTU 45	21	5	3	0	3	1	4	0	1	2	9	1	2	3	4	0	9	7	9	0	1	10	1	3	5	3	0	0	1	0	1	2	1	0	3	0	0	1	3	1	4	2	0	2	2	1	2	1	4	0
OTU 46	3	0	0	2	1	31	0	0	5	0	3	1	3	4	0	5	5	10	8	5	1	4	0	1	1	0	0	0	0	3	1	0	0	0	5	1	0	0	2	0	3	0	1	0	2	3	0	0	2	119
OTU 47	7	0	0	0	1	0	0	1	1	0	0	0	0	0	0	0	0	0	0	0	0	0	0	4	0	0	0	0	0	0	0	0	0	0	0	0	0	0	0	0	0	0	1	0	0	0	3	0	0	0
OTU 48	2	6	0	2	1	0	4	6	1	0	1	44	3	0	0	2	2	1	5	1	0	11	3	0	2	0	23	23	4	2	0	1	3	1	1	0	0	2	7	0	3	1	0	1	11	1	0	13	0	1
OTU 49	0	0	1	0	0	1	0	0	1	0	1	0	1	0	3	0	0	0	0	2	0	0	0	1	0	0	2	0	0	0	1	0	3	0	0	0	0	1	2	0	0	2	0	0	2	0	0	0	0	0
OTU 50	2	3	0	3	1	6	0	5	0	42	0	0	6	3	102	1	1	0	0	0	0	0	1	0	0	2	0	1	1	3	0	0	0	0	2	0	0	2	0	1	6	6	3	4	4	0	2	0	2	0
OTU 51	0	0	3	6	0	6	1	1	0	0	0	3	0	0	1	0	0	0	0	3	0	0	0	0	3	1	0	0	0	1	1	0	0	0	1	0	0	0	0	1	0	4	0	0	0	0	0	1	7	0
OTU 52	3	2	7	1	5	3	0	11	4	0	10	2	0	5	4	0	1	10	4	0	2	6	0	4	5	0	2	0	26	0	1	36	1	2	1	1	0	1	18	0	1	1	1	1	2	1	0	1	11	1
OTU 53	0	0	0	0	0	0	0	0	0	0	0	0	0	0	0	0	0	0	0	0	0	0	0	0	0	0	0	0	0	0	0	0	0	0	0	0	0	0	0	0	0	0	0	0	0	0	0	0	0	0
OTU 54	4	2	1	1	3	3	2	0	0	0	12	1	1	0	1	13	2	1	7	3	0	9	1	1	3	10	5	0	0	3	1	0	0	0	2	2	1	0	3	1	2	2	0	0	0	1	3	1	1	0
OTU 55	0	0	0	0	0	0	0	0	0	0	0	0	0	0	0	0	0	0	0	0	0	0	0	0	1	0	0	0	0	0	0	0	0	0	0	0	0	0	0	0	0	0	0	0	0	0	0	0	0	0
OTU 56	0	1	0	0	0	0	0	3	0	0	0	0	0	0	0	0	2	0	0	0	0	0	0	0	0	4	0	0	0	0	0	0	0	1	0	0	0	0	0	1	0	1	0	0	2	1	0	0	5	0
OTU 57	6	3	3	3	13	37	1	6	4	1	3	7	2	3	1	10	0	10	5	0	0	8	1	7	5	1	5	10	2	6	8	4	0	6	14	11	18	4	1	3	11	1	73	0	3	10	11	7	0	1
OTU 58	2	1	1	1	0	0	2	0	1	0	1	1	0	0	2	0	1	0	5	0	0	0	0	0	2	0	4	0	0	0	0	0	0	0	0	0	0	0	0	0	5	0	1	0	1	4	4	1	1	0
OTU 59	0	4	0	1	0	0	0	1	0	1	14	4	1	1	0	2	9	1	1	5	0	1	1	1	0	0	0	0	0	0	0	0	1	0	3	0	1	0	1	0	1	3	1	0	5	1	2	0	0	0
OTU 60	0	0	57	3	3	0	0	13	1	17	2	0	0	0	40	2	6	6	0	11	2	17	0	2	45	0	26	0	24	2	3	0	2	2	4	1	0	0	0	6	74	3	3	4	4	1	8	0	1	0
OTU 61	15	16	0	0	25	0	7	0	9	0	9	1	0	0	1	0	3	3	0	10	0	5	3	1	4	0	2	0	3	0	0	0	0	2	1	0	1	0	0	0	9	6	0	13	0	1	0	1	0	5
OTU 62	0	0	0	3	0	0	0	0	0	0	1	0	0	0	0	0	0	0	0	0	0	0	0	0	0	0	0	0	0	0	0	0	0	0	0	0	0	0	0	0	0	1	0	2	0	2	0	0	0	0
OTU 63	7	3	0	26	1	2	0	0	2	0	9	7	2	4	0	42	5	1	0	0	0	0	2	3	5	6	1	0	0	0	2	0	0	13	13	0	5	1	0	1	0	0	1	0	3	2	0	4	2	1
OTU 64	3	0	2	3	1	1	5	1	1	0	28	1	0	2	0	0	1	3	1	1	2	3	0	5	3	0	0	0	2	1	0	0	3	7	2	1	1	0	0	1	3	1	1	0	1	7	2	1	1	0
OTU 65	0	0	0	0	0	0	0	0	0	0	0	0	0	0	0	0	0	0	0	0	0	0	0	0	0	0	0	0	0	0	0	0	0	0	1	0	0	0	0	0	0	3	0	0	0	0	0	0	0	0
OTU 66	1	3	0	1	0	2	2	2	27	0	0	0	1	1	0	1	13	7	0	1	7	0	3	2	5	1	0	0	1	0	0	0	0	0	3	0	0	0	3	0	0	5	1	0	1	0	1	0	0	0
OTU 67	1	4	0	2	0	0	0	1	1	0	4	0	4	0	0	3	1	0	4	7	0	7	1	3	1	0	0	0	3	2	1	0	9	0	0	0	1	1	3	0	0	2	0	10	23	0	1	0	5	0
OTU 68	0	2	0	0	48	0	0	8	4	0	9	0	2	0	1	2	1	0	0	0	4	0	2	0	1	4	0	0	0	2	0	1	4	1	2	3	0	2	0	2	4	1	1	0	4	7	4	0	0	0
OTU 69	3	2	0	1	0	0	1	1	0	0	1	3	1	1	1	2	2	4	2	0	0	0	2	4	1	0	0	2	0	0	0	1	1	1	0	0	1	0	4	0	0	1	0	0	0	0	1	0	1	1
OTU 70	0	2	0	0	0	0	0	5	4	0	2	0	0	0	0	0	0	7	3	0	0	0	0	1	0	0	0	1	0	2	0	0	0	0	0	0	0	0	0	0	0	0	0	1	1	0	0	0	0	0
OTU 71	2	0	1	0	0	4	0	0	5	0	0	0	0	0	0	0	0	0	5	1	0	0	0	0	0	0	0	0	0	0	0	0	0	0	0	0	0	0	0	0	0	0	0	0	0	0	0	0	0	0
OTU 72	2	2	1	2	0	34	5	7	1	0	5	1	0	1	0	5	0	2	1	4	0	1	0	5	2	0	1	2	4	1	1	2	0	0	1	5	2	0	0	0	0	2	2	5	3	0	0	0	0	0
OTU 73	1	13	1	0	0	6	2	2	0	0	1	0	1	0	3	6	2	1	78	1	1	0	4	2	1	7	5	0	1	0	0	0	0	8	2	1	0	3	0	1	6	1	1	0	1	0	1	0	6	0
OTU 74	0	2	2	3	0	0	4	3	5	1	0	0	1	23	0	5	0	16	0	1	0	0	1	0	1	2	0	0	0	0	1	2	2	0	1	4	1	0	1	0	1	0	0	3	6	0	4	0	2	0
OTU 75	0	1	2	103	2	2	6	1	3	1	14	2	3	0	0	0	3	5	0	1	1	2	29	4	7	26	1	0	0	0	0	2	0	51	16	5	0	1	0	1	1	12	0	0	3	4	3	0	0	0
OTU 76	1	0	2	0	3	3	0	1	0	0	0	0	0	0	2	1	0	0	0	0	1	3	0	7	0	0	0	0	1	0	0	0	1	0	8	0	1	0	0	0	1	0	0	0	0	3	0	0	0	0
OTU 77	4	2	0	0	2	0	0	3	4	0	0	2	0	0	0	3	3	0	0	0	3	0	1	0	0	0	0	1	0	0	2	0	0	0	2	3	0	0	0	0	0	8	0	5	2	0	1	1	5	0
OTU 78	0	3	3	6	1	2	1	2	1	1	2	0	0	2	0	0	0	5	0	3	0	0	4	0	0	2	0	0	0	0	0	0	3	2	0	0	0	0	0	0	0	0	1	0	0	1	2	0	0	0
OTU 79	0	6	2	8	14	8	4	6	4	1	37	8	1	0	3	3	9	1	2	2	16	5	4	14	13	7	79	8	15	26	4	10	2	13	21	15	15	6	5	1	9	19	12	8	7	20	8	11	3	6
OTU 80	2	3	1	0	3	1	3	4	2	0	0	2	0	7	2	7	1	12	5	3	1	3	1	0	5	2	0	1	0	7	1	1	6	9	1	3	1	0	1	0	2	3	0	0	9	9	5	0	1	1
OTU 81	11	5	1	2	2	1	4	7	2	1	1	1	23	1	1	0	4	11	0	3	1	0	2	1	0	0	0	10	0	94	0	4	0	1	0	84	5	13	0	0	2	0	1	0	0	0	2	1	74	0
OTU 82	9	0	1	2	0	0	0	1	0	0	7	0	0	2	2	1	0	3	1	0	3	4	0	67	2	6	0	0	0	0	0	0	0	3	0	0	0	0	12	1	3	3	0	0	1	2	4	179	9	0
OTU 83	0	0	0	0	0	0	0	0	0	0	0	0	0	0	0	0	2	0	0	3	2	0	0	0	0	0	1	0	0	0	0	0	0	1	0	0	0	0	0	0	1	0	1	0	0	0	0	0	0	0
OTU 84	0	4	1	0	0	0	0	1	0	0	1	0	1	0	0	1	0	0	0	0	0	1	1	0	0	1	1	0	0	2	0	0	0	1	4	10	0	0	0	0	1	2	2	5	1	0	0	0	0	0
OTU 85	0	2	0	1	0	0	0	0	4	0	4	0	0	0	2	1	0	0	3	0	0	0	1	0	0	1	0	0	0	1	0	0	0	0	0	0	0	0	0	2	0	0	1	0	0	3	0	0	0	0
OTU 86	0	0	0	0	0	0	0	1	0	0	2	0	0	0	0	0	0	0	0	1	0	0	0	0	0	0	0	0	0	0	0	0	0	2	0	0	0	0	2	0	0	0	0	0	0	0	0	0	0	0
OTU 87	17	5	0	0	3	0	0	0	0	0	0	0	0	2	0	1	0	3	0	0	0	0	1	0	1	0	0	0	69	0	0	0	0	0	0	0	0	0	0	0	0	0	4	0	0	3	0	0	3	0
OTU 88	0	0	0	4	0	0	0	0	0	0	0	0	0	0	0	0	0	3	3	2	0	0	0	0	0	0	0	0	1	0	0	0	0	0	0	0	0	0	0	0	0	0	0	0	0	0	0	0	22	0
OTU 89	9	0	2	1	0	0	0	2	1	1	2	0	0	15	0	0	1	7	0	0	1	5	0	0	0	0	0	0	0	0	0	0	0	0	0	0	0	0	0	0	0	1	1	1	0	0	0	0	5	1
OTU 90	0	0	0	0	0	0	0	1	0	0	0	0	0	0	0	0	0	2	0	0	0	0	0	0	0	0	0	0	0	0	0	0	0	0	0	0	0	0	0	0	3	0	1	0	0	0	0	0	0	0
OTU 91	0	0	0	0	0	1	0	0	0	0	0	0	0	0	0	0	0	0	0	0	0	0	0	0	0	0	0	0	0	0	0	0	1	0	1	0	0	0	0	0	3	0	0	0	1	0	0	0	0	0
OTU 92	1	0	0	0	2	0	0	0	0	0	0	0	0	1	0	1	0	0	0	0	0	0	0	1	0	0	0	0	0	0	0	0	0	0	0	0	0	0	0	0	0	0	0	0	0	0	0	0	0	0
OTU 93	0	0	0	0	1	0	1	0	0	0	0	0	0	0	0	0	0	0	0	0	0	0	0	0	0	0	0	0	0	0	0	0	1	0	0	1	0	0	1	0	0	0	0	0	0	0	0	0	0	0
OTU 94	1	1	1	0	0	0	0	0	13	0	6	1	3	1	0	8	2	1	4	7	0	0	4	4	3	1	1	1	0	1	0	2	2	10	0	1	3	2	0	0	2	8	0	0	0	1	3	0	1	0
OTU 95	0	0	0	0	0	4	0	36	0	0	0	1	1	0	0	2	0	0	0	0	0	3	0	4	2	1	0	0	1	14	2	0	0	7	1	0	0	0	0	1	12	0	0	0	2	2	3	2	0	0
OTU 96	0	0	0	0	0	1	0	0	0	0	0	0	1	4	0	0	0	4	0	0	0	0	0	0	0	0	0	0	0	0	0	0	0	0	0	0	0	0	0	0	0	0	0	0	0	0	0	0	2	0
OTU 97	1	0	0	0	0	0	0	1	0	0	0	0	0	0	0	0	0	0	0	3	0	0	0	0	0	0	0	0	0	0	0	0	0	0	0	0	0	0	0	0	0	0	0	1	0	0	0	0	5	0
OTU 98	0	1	1	0	0	0	3	2	2	0	0	1	0	0	0	0	0	0	0	0	0	0	0	0	0	0	0	0	0	0	0	3	0	0	0	5	3	2	0	0	0	1	0	0	2	0	0	0	0	0
OTU 99	2	1	0	1	4	0	0	18	6	0	10	0	0	0	1	7	0	1	6	1	0	67	0	1	3	0	1	0	1	8	1	1	0	1	1	0	0	0	1	0	0	2	4	5	3	1	0	1	0	0
OTU 100	3	4	3	1	1	2	1	0	0	0	3	1	0	0	0	0	1	1	2	0	0	0	5	0	0	2	0	0	0	0	0	0	0	0	0	5	0	0	1	0	2	1	0	0	1	2	0	3	0	0
OTU 101	0	0	0	0	0	0	0	0	0	0	0	1	0	0	0	0	0	0	0	0	0	0	0	0	0	1	0	0	0	0	0	0	0	0	0	0	0	0	0	0	0	0	0	0	0	0	0	0	0	0
OTU 102	0	0	0	0	0	5	0	1	3	0	0	0	0	0	0	1	5	1	0	0	0	1	0	0	1	0	0	0	2	0	0	0	0	1	0	0	0	0	0	0	0	1	0	0	0	0	0	0	0	0
OTU 103	1	5	0	0	0	0	3	0	0	0	0	0	0	0	0	0	0	1	2	0	0	0	1	0	3	1	0	0	1	0	0	0	0	0	2	0	0	0	6	1	6	72	12	0	0	0	0	0	0	0
OTU 104	0	2	2	1	8	2	0	5	2	0	0	0	0	0	0	7	3	5	3	4	0	1	0	6	6	0	3	1	11	2	3	0	0	1	5	5	1	1	1	5	5	1	1	1	2	10	1	0	4	0
OTU 105	0	1	0	1	0	0	0	0	0	0	0	0	0	0	0	0	0	0	5	1	0	0	0	0	0	0	2	0	1	0	0	0	0	1	0	0	0	0	0	0	0	0	0	2	0	1	0	0	0	0
OTU 106	0	0	1	0	69	0	0	0	1	0	0	5	0	4	0	1	0	0	0	0	0	0	0	0	0	6	0	0	0	0	0	0	0	0	3	0	0	0	3	0	0	0	0	0	0	0	0	1	0	0
OTU 107	0	0	0	0	0	0	0	0	10	3	0	0	1	2	0	0	0	1	0	0	0	0	0	0	6	0	1	0	0	2	1	0	0	0	0	0	0	0	0	0	0	0	1	0	0	2	0	0	0	1
OTU 108	0	0	0	0	1	0	0	1	1	0	4	0	0	0	0	0	15	0	0	0	0	0	0	3	0	0	0	0	0	2	0	0	2	1	0	0	0	0	0	1	0	0	0	0	0	0	4	0	0	0
OTU 109	0	0	0	0	0	0	0	0	0	0	0	0	0	0	0	0	0	0	0	0	0	0	0	0	0	0	0	0	0	0	0	0	0	0	0	0	0	0	0	0	0	0	1	0	0	0	0	0	0	0
OTU 110	12	3	1	1	1	5	0	0	3	0	0	0	3	3	0	1	2	0	0	0	3	6	0	0	0	0	2	0	5	0	0	1	0	1	1	1	0	0	0	0	0	0	0	0	2	2	0	0	0	0
OTU 111	0	0	0	0	0	0	0	0	0	0	0	0	0	0	0	1	0	1	0	0	0	0	1	0	0	0	0	0	0	0	0	0	0	0	1	0	0	0	0	0	0	0	0	0	0	0	0	0	0	0
OTU 112	4	0	0	0	0	0	0	0	0	2	0	0	0	1	1	0	0	1	0	0	0	0	0	1	0	0	0	0	0	0	1	1	0	0	0	1	0	1	1	0	0	0	0	0	0	0	4	0	0	0
OTU 113	0	0	0	0	1	0	2	0	0	0	1	0	0	0	0	0	0	0	0	1	0	0	0	0	0	2	0	0	1	0	0	0	0	0	0	4	0	0	1	0	0	0	0	0	0	0	0	0	0	0
OTU 114	3	0	2	0	3	6	0	0	18	6	11	0	4	1	0	0	32	3	2	5	16	3	0	3	3	2	0	0	10	2	73	2	0	0	0	3	0	0	4	0	9	10	2	0	1	0	0	0	6	37
OTU 115	1	2	81	0	0	5	2	4	1	27	0	2	1	0	70	4	8	2	4	5	3	6	0	1	7	0	29	0	3	1	2	1	1	4	1	7	0	0	0	0	6	0	2	1	5	0	0	0	1	2
OTU 116	0	1	1	0	1	6	0	0	3	1	1	2	0	0	2	0	1	7	2	6	0	1	0	0	6	1	1	0	2	1	0	0	0	7	0	0	2	0	2	0	1	3	2	0	0	2	0	0	0	0
OTU 117	0	0	7	3	1	2	0	1	1	1	0	0	2	0	2	1	7	0	0	0	3	4	0	0	3	14	0	1	0	1	0	0	0	0	0	6	0	0	0	0	0	4	4	2	0	4	2	0	3	0
OTU 118	0	0	0	0	0	0	0	0	0	0	3	0	0	0	0	0	0	0	4	0	1	0	0	0	0	1	0	0	0	0	0	2	0	0	1	0	0	0	42	0	0	0	0	0	0	0	1	2	1	0
OTU 119	5	1	3	0	0	1	0	0	6	0	0	2	6	4	2	0	2	19	1	0	2	1	0	1	5	0	4	7	0	0	1	2	0	0	0	8	1	3	2	15	0	3	1	2	0	2	0	1	0	0
OTU 120	3	0	0	3	0	0	3	0	0	0	1	1	0	0	0	0	0	0	0	0	0	1	0	0	0	0	0	0	0	0	0	0	0	0	0	1	0	0	0	0	1	0	0	10	0	0	0	1	4	0
OTU 121	1	1	0	1	0	0	23	0	0	0	1	0	1	2	0	1	0	0	1	0	0	1	0	0	0	0	2	0	0	0	0	0	0	0	0	0	0	0	0	0	0	4	1	1	0	0	0	0	0	1
OTU 122	1	4	0	0	2	0	2	9	4	0	0	2	0	58	0	0	0	2	0	0	0	4	5	1	7	0	0	0	1	0	0	0	0	0	3	0	0	0	2	0	5	0	2	3	1	0	0	0	0	0
OTU 123	5	5	12	6	3	7	22	5	16	4	8	9	9	0	0	0	18	5	11	2	0	15	3	9	4	1	2	2	2	1	3	16	9	1	14	5	2	2	19	13	7	8	4	62	10	9	9	6	4	4
OTU 124	0	0	0	0	0	0	3	0	1	0	4	0	0	1	0	0	0	1	0	1	0	0	0	0	0	0	0	0	0	0	1	0	0	0	0	0	0	0	0	0	0	0	0	0	0	0	0	0	0	0
OTU 125	10	11	5	16	7	7	4	1	2	1	20	1	18	6	1	4	4	7	3	17	66	10	7	1	3	1	2	15	4	2	1	12	2	2	1	27	19	13	90	5	9	4	7	80	3	5	1	0	38	2
OTU 126	0	0	0	0	0	0	0	0	0	0	0	0	0	1	0	0	0	0	0	0	0	0	0	0	0	1	0	0	0	0	0	0	0	0	0	0	0	0	0	0	1	4	1	0	0	0	0	0	0	0
OTU 127	0	2	0	0	0	0	5	3	0	1	0	0	0	0	1	0	3	0	0	0	0	0	1	2	0	2	0	0	4	0	1	0	0	0	0	0	0	0	2	0	0	0	0	0	2	0	0	0	0	0
OTU 128	5	14	1	4	4	8	5	7	14	2	16	1	0	8	14	29	2	38	7	0	5	7	7	6	11	1	2	2	8	1	3	3	36	6	4	3	1	3	2	6	2	2	2	26	4	4	9	1	9	2
OTU 129	0	0	0	0	0	0	0	2	0	0	1	0	0	0	0	14	0	0	0	0	0	0	0	0	0	0	0	0	0	3	0	0	0	16	0	0	0	0	0	1	0	0	0	0	1	0	0	0	0	0
OTU 130	2	0	1	0	0	0	2	4	4	0	3	16	2	0	2	1	1	1	5	1	2	0	3	0	0	0	1	0	0	0	7	0	0	0	0	0	0	0	0	0	2	3	3	0	0	0	0	5	0	6
OTU 131	1	0	0	0	2	1	0	11	6	0	0	4	0	1	0	1	2	0	0	2	0	0	0	0	2	7	1	1	1	6	1	0	0	1	1	0	1	0	0	0	2	1	0	0	0	0	0	3	0	0
OTU 132	1	0	2	0	0	0	0	0	5	0	0	0	0	0	0	0	0	0	1	0	2	0	0	0	0	0	0	0	0	0	0	0	0	0	1	0	0	0	0	0	0	6	1	0	0	0	0	0	0	0
OTU 133	0	0	0	0	0	0	0	0	0	0	0	0	0	0	0	0	0	0	0	0	0	0	7	0	0	0	0	0	0	0	0	0	1	0	0	0	0	1	0	0	0	0	0	0	5	0	0	0	0	0
OTU 134	0	1	5	6	0	0	0	2	2	0	7	1	1	1	1	0	0	0	0	8	0	1	0	0	1	2	0	0	2	2	1	1	0	0	0	0	0	0	0	0	1	3	1	1	2	0	0	1	1	0
OTU 135	14	0	0	0	0	0	0	1	11	0	6	1	0	1	1	2	0	2	5	6	0	0	0	2	0	1	1	0	0	0	1	0	0	0	1	0	0	0	0	2	0	0	1	1	0	3	3	0	0	0
OTU 136	0	0	0	0	2	0	0	0	2	0	3	13	0	0	0	3	5	0	0	19	0	0	1	1	0	0	0	0	1	0	2	0	5	1	4	0	0	0	0	2	0	0	0	5	17	0	0	1	0	0
OTU 137	0	0	0	0	0	5	0	0	0	0	0	1	0	0	2	0	0	0	0	0	0	3	0	0	0	0	1	0	0	0	0	0	1	0	0	0	0	0	0	5	1	0	0	0	6	4	1	0	24	0
OTU 138	0	1	3	1	0	0	0	3	2	2	1	0	0	0	0	1	0	0	0	1	0	0	0	0	0	1	0	0	2	0	2	0	0	0	0	0	0	0	0	0	0	0	1	0	0	0	1	0	0	0
OTU 139	7	5	3	5	3	2	1	4	3	3	0	1	1	1	0	0	0	0	4	3	0	22	0	8	4	0	0	0	2	5	3	113	0	0	3	1	0	0	0	27	0	1	0	0	2	0	86	0	4	1
OTU 140	3	2	16	4	4	2	0	11	13	36	4	0	3	2	9	10	18	4	6	3	4	6	2	3	7	7	7	1	0	3	2	2	168	2	12	1	4	170	2	0	0	11	3	21	0	6	3	0	4	27
OTU 141	1	0	0	0	0	0	0	0	0	0	0	0	0	0	0	0	0	0	0	0	0	0	0	0	0	0	0	0	0	0	0	0	0	0	0	0	0	0	0	0	0	0	0	0	0	0	0	0	0	0
OTU 142	0	0	0	0	0	0	0	0	0	0	0	0	0	0	0	1	0	0	0	0	0	0	0	0	0	0	0	0	0	0	0	0	0	0	0	0	0	0	0	0	0	0	0	0	0	0	1	0	0	0
OTU 143	0	0	0	0	0	0	0	2	0	0	2	0	0	0	0	0	0	3	0	5	0	0	0	0	0	0	0	0	0	1	0	0	0	0	0	0	0	0	0	0	0	0	0	0	1	1	0	0	0	0
OTU 144	0	0	0	0	0	0	0	0	0	0	1	0	0	0	0	1	0	0	0	0	0	0	0	0	0	0	0	0	0	0	0	0	0	0	0	0	0	0	0	0	0	2	0	1	1	0	0	0	0	0
OTU 145	2	46	0	0	1	1	9	0	2	0	0	3	0	19	1	0	5	20	1	0	0	6	24	0	0	0	0	0	0	1	1	0	0	2	0	0	0	0	6	0	4	1	3	4	0	0	0	0	35	2
OTU 146	2	5	1	2	2	0	0	0	1	142	1	1	1	0	6	0	2	2	7	2	2	0	5	0	5	1	2	0	0	1	2	1	1	0	0	0	1	1	0	5	4	1	2	1	6	2	4	0	0	0
OTU 147	0	0	0	0	0	2	0	0	0	0	0	0	0	1	0	0	3	0	0	0	9	0	0	0	0	0	0	0	0	3	8	0	0	0	0	1	0	0	0	0	1	0	0	1	0	0	0	0	1	11
OTU 148	4	2	1	0	0	0	0	0	0	0	0	0	0	3	0	2	2	2	0	0	1	0	2	0	0	40	0	0	0	0	0	0	0	90	0	2	0	0	1	3	1	1	0	3	0	2	3	0	1	0
OTU 149	8	1	0	0	0	0	0	1	0	0	1	0	0	0	2	0	0	0	0	3	0	0	0	0	1	1	0	0	0	0	3	0	0	3	1	0	0	0	0	0	2	0	0	0	0	0	1	0	0	0
OTU 150	4	0	1	0	0	0	0	0	0	0	1	0	0	0	1	0	0	0	0	2	0	20	0	0	1	0	1	0	0	0	0	0	0	3	0	1	0	0	5	8	1	8	0	0	0	0	6	0	2	0
OTU 151	1	0	0	1	2	2	1	0	0	0	0	1	0	1	0	0	1	2	1	0	0	0	0	0	0	3	0	0	2	1	0	0	0	1	0	0	0	1	0	1	0	0	31	0	0	0	0	1	1	0
OTU 152	0	0	1	5	1	3	0	9	3	0	0	0	2	1	5	6	0	3	0	0	0	0	0	0	4	0	1	1	1	2	0	0	0	3	0	2	2	1	0	0	5	2	0	0	2	1	2	0	0	0
OTU 153	0	0	0	0	0	1	0	0	1	0	0	0	0	0	0	0	0	0	0	0	0	0	0	0	0	0	0	0	0	0	0	0	0	0	0	0	0	0	0	0	1	0	0	0	0	1	0	0	0	0
OTU 154	1	0	0	0	0	0	0	0	0	0	0	0	0	0	0	0	0	0	1	0	0	1	0	0	0	0	0	0	0	0	0	0	0	0	0	0	0	0	0	0	0	1	0	0	0	0	1	0	0	0
OTU 155	0	0	1	31	0	7	1	7	0	0	0	0	0	0	0	0	0	0	0	1	0	0	1	0	1	0	0	0	1	1	1	0	0	0	0	1	2	0	2	2	4	0	0	0	2	0	2	0	0	0
OTU 156	1	2	1	3	0	0	0	1	4	3	3	0	2	4	0	2	7	0	0	70	0	1	1	4	4	0	1	0	0	0	0	0	1	0	2	9	0	7	1	0	1	2	3	4	0	1	0	0	3	0
OTU 157	0	0	1	1	0	0	0	0	0	0	0	0	0	5	0	0	1	6	0	6	0	0	0	0	0	0	0	0	0	0	0	0	0	0	2	0	0	0	0	0	0	1	0	1	0	0	0	0	1	0
OTU 158	0	0	0	0	0	0	0	0	0	0	0	0	0	0	0	0	0	0	0	0	0	0	0	0	0	0	0	0	0	0	0	0	0	0	0	0	0	0	0	0	0	0	0	0	0	0	0	0	0	0
OTU 159	8	6	0	0	0	0	1	0	1	0	1	1	0	45	0	0	1	0	0	1	1	0	2	3	11	0	1	0	3	0	0	0	0	1	0	1	1	0	0	0	6	0	0	1	0	0	2	1	0	0
OTU 160	5	9	0	2	3	3	7	7	4	0	10	2	1	0	1	2	0	2	1	3	3	12	4	5	3	0	4	0	6	15	1	2	4	5	11	2	1	0	3	3	5	1	4	6	14	10	1	2	2	1
OTU 161	0	2	0	0	1	1	0	0	1	0	2	2	0	10	0	1	3	1	0	3	2	1	0	56	0	1	0	0	0	0	5	0	0	0	0	0	0	0	0	0	1	2	0	0	2	15	0	3	0	0
OTU 162	1	2	0	2	0	1	5	1	0	0	1	0	3	0	0	0	5	1	4	0	0	1	4	0	1	1	0	1	2	0	0	2	1	0	0	3	1	0	9	0	0	0	0	3	2	4	1	0	2	0
OTU 163	0	0	0	0	0	0	0	0	0	0	0	0	0	0	0	0	0	0	0	0	0	0	0	0	0	3	0	0	0	0	0	0	0	0	0	0	0	0	0	0	0	0	0	0	0	1	0	0	1	0
OTU 164	0	0	0	0	2	0	0	2	0	0	2	0	0	0	0	0	0	0	0	0	0	0	0	0	0	0	0	0	0	0	0	0	0	0	0	0	0	0	0	0	0	0	0	0	0	0	0	0	0	0
OTU 165	0	0	0	2	0	2	0	2	4	0	0	0	2	0	0	0	5	2	9	0	0	0	0	0	0	0	1	0	0	0	0	0	0	0	1	0	0	0	8	0	0	1	0	0	0	0	0	0	0	0
OTU 166	0	0	0	0	0	0	0	0	0	0	0	4	0	0	0	0	1	0	0	0	0	0	0	0	0	0	0	0	0	0	0	0	0	0	0	0	0	0	0	0	0	0	0	0	0	0	0	0	1	0
OTU 167	0	1	6	1	0	0	1	11	2	0	0	1	0	1	2	2	0	0	1	6	3	0	0	0	4	0	4	0	8	1	0	0	1	6	1	0	1	0	2	0	0	0	2	0	0	2	0	0	2	0
OTU 168	1	0	0	4	2	1	1	5	1	3	0	0	2	1	0	0	0	1	0	0	1	0	0	2	0	1	0	0	0	0	0	0	1	0	2	1	1	0	1	0	0	4	0	2	2	0	1	0	2	0
OTU 169	0	0	0	0	0	0	0	0	0	0	0	0	0	0	0	0	0	0	0	0	0	0	0	1	0	0	0	0	0	0	0	0	0	0	0	0	0	0	1	0	0	0	0	0	0	0	0	1	0	0
OTU 170	0	0	0	0	0	0	0	0	0	0	0	0	0	0	0	0	0	0	0	0	0	0	0	0	0	0	0	0	0	0	0	0	0	0	0	0	0	0	0	0	0	0	0	0	0	0	0	0	0	0
OTU 171	0	2	6	2	2	25	0	1	2	0	9	1	2	0	0	0	0	0	0	5	0	0	0	8	7	0	0	0	0	0	11	0	1	0	24	0	0	0	0	0	1	0	0	1	2	0	0	1	1	3
OTU 172	0	1	0	0	0	0	0	4	0	0	0	0	0	0	0	0	1	0	0	0	0	0	1	0	0	0	0	0	0	6	0	0	0	0	0	0	0	0	0	0	0	0	0	0	0	0	1	0	0	0
OTU 173	0	1	0	0	0	5	0	0	3	0	0	0	0	0	0	0	2	0	0	0	0	0	1	0	0	0	0	0	0	0	0	0	0	0	0	0	0	0	0	0	0	1	1	0	0	0	0	0	0	1
OTU 174	0	0	0	2	0	0	1	0	0	0	0	0	0	3	1	1	0	4	0	0	0	1	0	2	0	2	0	0	1	0	76	0	0	0	2	0	0	0	0	0	0	0	0	2	0	0	5	0	7	30
OTU 175	1	2	0	0	0	0	0	1	0	1	0	0	0	1	1	1	3	0	2	0	2	0	1	2	0	0	0	0	0	2	0	0	0	0	0	0	1	0	4	0	0	2	0	0	0	0	0	0	0	0
OTU 176	4	0	3	3	1	0	0	1	1	1	4	0	1	0	6	7	2	4	2	0	0	0	0	0	2	0	5	0	1	2	0	1	0	0	1	5	1	1	0	0	4	3	2	2	0	0	0	0	1	1
OTU 177	4	6	1	0	8	3	2	1	1	1	1	0	1	1	2	0	3	3	0	0	0	2	4	2	0	0	0	0	4	0	1	1	0	2	15	1	0	0	3	0	0	0	0	1	0	2	2	1	3	2
OTU 178	4	0	1	4	0	0	0	0	0	0	0	1	0	1	0	0	1	1	0	0	1	0	0	0	1	0	0	0	1	0	0	0	0	0	0	1	0	0	0	0	0	2	0	2	0	1	0	0	0	0
OTU 179	4	0	1	0	0	0	0	18	9	1	0	2	0	0	0	9	3	3	0	0	0	0	0	0	1	0	0	0	0	8	0	1	0	1	4	0	0	0	0	0	0	0	0	0	1	0	0	1	5	0
OTU 180	2	5	4	6	45	1	23	8	12	0	4	43	2	2	4	4	12	1	30	28	2	7	2	1	5	0	4	1	3	5	37	1	11	1	2	5	1	3	2	0	1	6	2	5	9	11	3	11	2	15
OTU 181	0	0	1	0	0	1	0	1	0	0	0	0	1	2	5	0	1	1	0	0	0	0	0	0	0	1	1	0	0	0	0	0	0	2	4	0	0	1	0	0	6	0	7	0	0	0	0	0	0	0
OTU 182	0	0	0	0	0	0	0	0	0	0	0	0	0	0	0	0	0	1	0	0	0	0	0	0	0	0	0	0	0	0	0	0	0	0	0	0	0	0	0	0	0	0	0	0	1	0	0	0	0	0
OTU 183	0	0	0	0	0	0	0	0	0	0	0	0	1	1	0	6	0	0	0	0	0	0	0	1	3	6	0	0	8	0	0	0	0	2	0	0	0	0	0	2	0	0	0	0	0	1	0	0	0	0
OTU 184	0	1	0	0	0	0	0	0	0	0	2	0	0	0	0	5	0	0	0	0	0	0	0	0	0	1	1	0	0	0	0	0	0	0	1	1	0	0	0	0	0	3	1	0	0	0	2	0	0	0
OTU 185	3	1	2	1	0	1	0	1	0	2	0	0	0	0	0	0	5	1	0	1	3	3	0	1	6	1	0	1	2	1	0	2	0	0	4	9	0	1	3	1	11	0	1	2	5	0	3	0	0	0
OTU 186	0	0	0	1	0	3	3	0	0	0	1	0	7	0	0	0	0	0	0	0	0	0	0	0	6	0	0	2	7	0	0	1	0	1	2	0	6	4	0	0	13	0	0	0	0	0	0	0	0	0
OTU 187	2	34	0	3	0	0	13	2	1	2	3	111	79	1	3	0	8	2	1	1	2	0	10	1	0	7	0	32	0	1	1	18	3	3	0	55	45	46	3	0	0	1	27	0	1	0	1	61	0	1
OTU 188	4	0	3	6	0	1	2	1	9	0	4	0	0	0	0	0	1	3	1	0	0	5	0	4	0	2	1	0	0	2	2	1	7	0	0	0	2	0	0	2	1	0	0	1	3	4	1	1	0	2
OTU 189	0	2	4	0	2	1	1	1	1	4	0	4	0	0	2	0	1	0	44	1	1	3	0	3	0	5	2	40	4	0	0	0	1	0	0	2	1	0	0	0	8	8	2	1	1	2	0	0	2	0
OTU 190	0	0	0	0	0	0	0	0	0	0	0	1	0	2	1	0	0	6	0	0	0	3	0	1	0	1	1	0	0	0	1	0	0	1	0	0	0	0	0	0	0	4	0	0	0	0	0	0	0	3
OTU 191	0	0	0	0	1	0	0	0	0	1	2	0	1	2	0	2	2	0	4	8	1	3	0	1	0	1	0	0	0	0	0	1	2	0	0	2	0	1	0	1	0	13	9	0	8	4	2	0	0	1
OTU 192	5	3	0	0	3	2	0	16	0	0	1	1	1	6	0	3	11	2	1	2	0	3	1	0	12	3	32	0	3	5	1	0	0	0	1	0	0	0	1	1	12	8	1	12	1	2	1	0	0	3
OTU 193	2	3	0	1	0	1	1	4	0	0	0	9	0	8	0	1	16	1	2	0	14	0	2	0	0	0	0	0	0	0	20	0	0	0	0	0	1	0	2	0	1	1	0	1	0	0	0	13	0	11
OTU 194	0	2	0	0	3	0	1	1	4	32	0	0	0	0	0	5	0	0	3	0	0	4	0	0	0	0	0	0	0	2	35	0	38	0	1	1	0	0	0	0	5	0	3	0	55	0	0	0	0	13
OTU 195	0	0	0	1	0	1	0	0	0	0	0	0	0	4	0	1	1	2	1	4	0	2	0	0	0	0	3	0	3	1	0	1	1	0	0	0	1	0	1	0	3	0	0	0	1	3	2	0	1	0
OTU 196	0	0	0	1	4	1	0	1	0	0	6	0	1	0	1	0	0	0	0	5	0	1	0	2	2	2	0	1	0	0	0	1	0	3	6	1	1	1	32	0	0	0	0	0	0	2	1	0	0	0
OTU 197	6	10	3	8	10	5	2	6	1	0	3	4	7	5	3	9	4	5	4	1	4	6	3	5	4	7	6	92	4	0	3	1	1	1	28	7	2	4	6	2	1	5	3	4	11	1	1	1	1	4
OTU 198	0	0	0	0	0	0	0	0	1	0	0	0	1	0	0	11	2	2	1	0	0	0	0	1	0	2	0	0	0	0	0	0	0	0	0	0	0	0	0	2	2	0	1	0	0	0	0	0	0	0
OTU 199	0	0	3	0	0	3	0	0	3	0	0	0	1	1	0	0	0	2	0	0	0	0	0	0	4	0	1	0	1	0	0	0	0	0	0	1	0	0	1	2	0	0	1	0	0	0	0	1	0	0
OTU 200	1	0	0	0	0	0	0	0	0	1	3	4	0	0	0	0	0	1	0	0	0	2	0	4	3	3	0	0	1	0	2	0	2	1	1	0	0	0	4	0	7	1	2	0	8	8	0	2	0	1
