	Host 1	Host 2	Host 3	Host 4	Host 5	Host 6	Host 7	Host 8	Host 9	Host 10	Host 11	Host 12	Host 13	Host 14	Host 15	Host 16	Host 17	Host 18	Host 19	Host 20	Host 21	Host 22	Host 23	Host 24	Host 25	Host 26	Host 27	Host 28	Host 29	Host 30	Host 31	Host 32	Host 33	Host 34	Host 35	Host 36	Host 37	Host 38	Host 39	Host 40	Host 41	Host 42	Host 43	Host 44	Host 45	Host 46	Host 47	Host 48	Host 49	Host 50	
OTU 1	82	177	197	69	48	20	9	169	60	155	1	60	176	12	233	2	369	279	27	15	78	88	81	36	1	123	0	0	14	97	31	56	30	42	3	4	1	85	48	135	649	22	17	89	60	0	146	4	77	1
OTU 2	20	0	30	0	3	23	9	1	1	0	10	12	0	2	5	0	0	2	4	25	9	6	0	4	4	0	0	0	13	0	2	14	0	1	25	11	0	0	26	1	0	0	0	56	25	0	4	0	1	14
OTU 3	0	16	10	1	4	3	1	1	31	4	29	1	3	1	20	2	0	5	1	61	22	0	11	31	0	0	18	3	5	0	0	3	0	0	1	0	17	0	1	3	0	11	2	1	2	46	39	0	0	32
OTU 4	17	0	0	0	0	0	0	0	0	0	0	0	0	0	0	0	2	0	0	4	0	0	0	0	0	0	0	0	1	0	0	0	0	0	0	0	0	0	0	0	0	0	0	0	0	0	0	0	0	0
OTU 5	68	72	41	72	318	141	160	579	5	315	368	665	169	1203	305	338	236	167	1	26	422	410	144	392	14	735	0	199	443	270	323	53	77	587	825	231	9	0	1337	211	657	145	628	3	284	137	879	45	0	49
OTU 6	3	125	17	2	18	138	9	9	42	0	97	11	48	2	17	9	12	3	39	9	45	73	47	46	1	16	89	24	160	0	39	84	12	15	0	2	4	5	6	1	38	1	6	0	43	50	8	197	56	40
OTU 7	56	26	96	173	27	181	3	42	64	0	104	65	94	44	29	43	4	36	43	10	15	39	104	10	95	16	188	52	3	0	24	299	67	102	44	4	7	42	109	13	45	12	11	10	12	723	707	1539	174	122
OTU 8	23	31	78	93	36	39	51	9	9	53	18	23	10	1	63	91	24	52	102	46	13	13	17	0	89	2	70	25	55	11	38	352	66	106	53	107	285	47	21	20	23	17	2	16	17	56	21	27	94	536
OTU 9	0	2	0	122	7	10	29	0	7	6	0	9	1	1	15	68	49	1	21	3	4	4	2	0	17	0	122	5	8	5	3	4	0	6	0	1	0	117	4	0	51	3	0	3	12	11	0	77	0	3
OTU 10	1	4	89	1	0	0	11	0	0	5	0	5	5	2	0	7	0	0	2	24	1	2	20	9	20	6	5	1	54	1	1	5	39	34	20	0	0	1	14	0	0	0	0	15	1	0	3	0	140	2
OTU 11	24	136	41	251	73	4	61	35	6	2	141	11	1	2	7	12	16	12	0	71	26	14	26	20	2	61	34	0	0	4	14	10	130	51	1	3	52	296	6	3	19	23	209	69	2	71	8	164	82	3212
OTU 12	72	21	119	11	8	11	62	35	14	10	27	4	67	0	34	7	17	0	14	47	27	45	11	16	72	84	94	3	9	4	10	86	46	81	35	15	303	5	38	0	0	5	0	30	14	1	82	36	167	6
OTU 13	2	23	0	0	0	0	0	0	1	0	0	0	0	0	1	0	0	0	0	0	0	0	0	0	0	0	1	0	0	0	0	0	0	3	0	2	0	0	0	0	5	0	0	0	0	0	0	0	6	12
OTU 14	0	4	18	0	0	1	0	20	2	1	3	109	24	21	26	24	0	0	3	0	7	1	14	5	1	0	58	1	4	0	0	0	213	18	31	1	35	0	0	0	8	3	22	0	10	152	35	207	43	3
OTU 15	0	0	5	0	0	0	0	0	0	0	0	0	2	0	0	0	0	2	0	0	0	0	0	0	0	0	0	3	1	0	0	0	0	0	1	2	21	0	0	0	0	0	0	45	0	0	0	0	0	0
OTU 16	0	0	0	0	0	0	0	0	0	0	0	0	0	2	0	0	0	0	4	0	0	0	0	0	0	0	0	0	0	0	0	0	0	0	0	4	0	0	0	0	0	3	0	0	0	0	0	0	0	0
OTU 17	0	1	3	14	2	81	0	145	3	211	5	39	13	16	93	0	458	522	2	6	9	13	35	4	20	1	21	10	47	79	0	8	7	35	2	16	0	0	1	265	769	44	7	6	1	19	4	27	67	2
OTU 18	26	42	1	13	81	42	64	96	45	7	68	32	17	15	38	47	62	1	13	31	2	10	3	52	66	9	121	105	161	2	1	30	52	25	8	65	131	110	7	0	41	42	15	42	6	16	58	21	73	57
OTU 19	0	0	0	0	0	0	11	0	0	0	0	0	0	0	0	0	0	0	0	0	0	0	0	0	0	0	0	0	0	0	0	0	0	0	0	0	0	0	0	0	0	0	0	0	0	0	0	0	0	0
OTU 20	34	1227	407	29	10	14	5	6	91	0	16	6	21	1	13	31	29	2	0	218	106	84	132	23	123	598	4	1	2	6	13	16	41	55	29	17	43	21	2	0	24	3	3	246	43	591	19	793	75	13
OTU 21	11	62	3	101	2	0	145	0	2	2	119	30	5	13	0	24	15	4	15	33	1	4	41	2	7	6	1	14	52	2	46	30	76	29	39	81	116	128	10	3	15	14	11	12	4	31	51	2	42	101
OTU 22	55	90	62	5	4	2	1	58	57	75	59	45	0	18	60	40	1	53	0	8	18	53	0	10	363	44	57	1	26	36	8	26	9	34	17	0	2	108	7	29	11	0	17	0	1	9	46	7	13	99
OTU 23	0	91	0	0	0	42	12	1	10	1	9	21	52	5	18	11	4	17	8	1	86	77	1	26	1	0	0	0	1	3	7	3	38	52	63	20	6	3	2	4	14	10	1	5	72	0	0	0	167	61
OTU 24	0	7	6	1	0	0	0	0	41	30	0	6	15	0	0	23	0	26	0	4	0	6	1	0	0	20	15	1	0	12	0	1	1	63	42	140	9	170	1	7	4	0	1	14	0	14	8	32	145	0
OTU 25	0	0	0	0	0	0	0	4	0	0	0	0	0	0	0	0	0	0	0	0	1	2	0	14	0	0	0	0	0	0	0	0	0	0	1	0	0	0	0	0	0	0	0	0	0	0	0	7	0	0
OTU 26	5	0	77	0	2	26	5	1	1	0	0	0	15	0	3	26	0	0	1	0	0	0	7	33	4	3	1	0	1	0	0	0	0	0	1	24	38	54	16	0	0	9	0	48	0	1	0	0	1	1
OTU 27	0	2	0	0	0	0	0	0	0	0	0	0	43	0	50	0	0	0	0	0	0	0	0	44	0	0	0	6	0	0	4	0	0	0	0	0	0	0	0	0	0	57	0	0	0	0	0	0	0	0
OTU 28	170	30	63	1	49	13	29	3	127	16	12	32	5	20	418	63	5	2	1	70	1404	69	56	228	21	3	71	13	77	8	19	7	177	34	62	2	46	8	72	2	13	47	17	108	23	23	19	12	73	134
OTU 29	239	18	0	57	10	3	2	5	73	20	11	15	5	53	7	76	12	13	31	9	58	3	8	3	50	23	40	8	70	30	16	27	79	1	95	66	1968	33	82	2	2	19	17	3	17	31	60	39	13	41
OTU 30	0	0	0	0	0	0	0	0	0	0	0	0	0	0	0	0	0	0	0	2	0	0	0	0	0	0	0	0	1	0	0	0	0	0	0	0	0	0	0	0	7	0	0	0	0	0	0	0	0	0
OTU 31	0	0	50	16	16	0	0	36	148	0	15	4	0	27	0	0	4	0	1	21	0	9	24	36	56	0	17	7	0	0	0	8	2	18	20	14	0	0	17	0	10	32	2	2	11	23	24	0	76	0
OTU 32	15	22	10	35	1839	68	1	39	15	21	129	150	87	26	71	47	35	8	60	758	48	23	35	3769	38	6	47	108	10	5	42	8	14	16	45	37	31	165	32	8	54	1531	17	147	59	104	63	5	19	237
OTU 33	0	0	5	0	0	0	0	0	0	0	4	0	0	0	0	0	0	9	0	0	0	0	0	0	0	0	0	0	1	0	0	0	0	0	0	0	0	6	0	2	0	0	0	0	0	0	0	0	0	2
OTU 34	104	7	37	0	14	4	37	23	2	14	269	1	22	4	38	14	16	103	15	29	47	2	45	3	42	5	2	1	105	6	4	9	6	5	100	924	37	13	36	63	2	4	2	12	48	0	4	75	2	15
OTU 35	63	1	21	0	2	2	26	13	97	0	55	5	14	6	53	4	6	12	9	0	26	17	59	2	94	3195	20	159	55	0	101	109	16	10	87	42	104	3	0	8	13	2	1	14	11	4	4	78	38	1
OTU 36	25	149	1	3	43	5	1	26	2	3	2	70	9	20	5	2	2	8	34	3	61	4	12	8	118	8	14	41	5	1	2	0	94	14	11	77	113	4	12	6	7	0	10	102	21	3	7	4	44	0
OTU 37	0	18	4	4	2	0	0	1	1	0	22	0	19	4	13	0	9	0	17	0	7	40	2	5	0	17	0	3	0	0	0	53	14	0	5	9	0	2	0	0	19	0	0	0	5	16	240	8	0	0
OTU 38	14	66	111	58	0	110	0	36	48	41	7	6	3	1	13	0	1	71	3	0	11	8	24	7	27	0	4	0	10	6	17	23	179	87	55	360	45	78	0	32	0	4	0	44	4	8	18	7	102	1
OTU 39	0	18	8	9	0	1	2	0	1	0	8	0	25	4	0	0	3	0	0	0	0	0	0	0	4	5	17	5	2	0	3	9	0	4	0	0	6	1	0	0	0	22	2	26	0	6	19	1	2	0
OTU 40	260	30	20	18	1488	126	35	8	5	18	2	41	1	1867	7	44	2	1	24	49	5	28	1	48	27	1	8	246	0	11	32	8	54	4	6	21	4	41	44	0	4	20	1029	28	43	7	5	81	38	19
OTU 41	9	0	2	27	2	16	0	5	8	0	67	19	0	32	26	0	14	0	2	23	15	12	0	2	1	13	22	0	17	1	7	2	15	5	14	20	4	89	14	0	8	7	6	42	4	2	6	25	6	34
OTU 42	31	0	162	1	0	0	1	0	2	0	1	0	0	0	1	40	0	0	7	43	2	1	0	19	5	1	71	9	0	0	1	5	0	0	0	0	1	0	7	0	0	30	0	2	1	0	0	30	6	0
OTU 43	0	0	0	0	0	0	0	0	0	0	0	2	0	0	0	0	0	0	0	0	0	0	0	7	2	0	98	0	0	0	17	0	0	0	0	0	0	0	4	0	0	6	0	2	0	0	0	0	2	0
OTU 44	4	35	0	0	0	120	14	0	0	2	107	0	21	0	17	0	14	0	1	4	0	9	26	0	0	3	1	1	0	0	39	0	0	0	0	7	0	0	0	0	29	0	0	1	43	32	19	33	0	4
OTU 45	540	30	75	3	558	37	15	12	96	15	21	1	666	21	1239	4	13	6	101	10	23	0	130	514	6	12	47	1	4	4	244	62	128	17	44	102	27	38	297	4	16	295	27	35	50	26	45	52	8	24
OTU 46	35	58	21	703	15	2	5	119	17	4	142	6	2	21	6	125	2	21	2	15	37	361	0	21	30	67	74	68	77	5	3042	1	3	46	0	1521	3	10	142	13	6	297	7	0	157	1	50	9	94	0
OTU 47	77	26	0	2	3	0	17	0	0	0	76	7	28	0	0	133	0	0	0	0	0	0	2	0	0	0	207	0	0	0	19	0	124	0	0	0	0	0	2	0	0	0	0	0	0	65	5	38	0	0
OTU 48	2	213	58	2407	24	134	2317	13	17	10	30	9	9	16	43	70	1	11	13	13	72	9	4	108	75	82	79	94	47	16	11	60	7	3	44	29	3	100	42	4	11	44	10	195	65	52	14	25	17	19
OTU 49	75	0	1	7	12	5	2	0	0	0	4	337	40	1850	2	0	1	23	17	17	32	5	1	53	136	22	10	43	18	0	8	4	1	0	44	37	29	15	89	16	1	44	897	9	7	127	281	5	3	93
OTU 50	33	5	4	34	9	30	8	2	8	2	15	66	17	56	31	24	9	6	4	14	15	16	9	57	41	7	10	20	9	7	33	27	21	182	84	2	25	28	79	97	11	33	24	47	19	46	90	57	201	18
OTU 51	0	9	5	46	8	5	1	7	51	14	71	27	3	0	3	199	13	6	5	154	23	25	3	6	48	4	152	2	59	12	0	131	5	13	1	1210	129	81	1	5	42	0	0	9	27	6	63	7	42	21
OTU 52	27	69	105	323	44	11	145	35	29	242	526	55	18	1	85	155	19	25	11	13	9	93	21	105	62	162	109	87	124	163	21	269	55	2914	675	288	155	811	4	10	58	42	1	49	88	115	40	211	73	1
OTU 53	0	0	0	0	0	0	0	0	3	0	0	4	0	0	0	20	0	0	0	0	0	0	0	0	0	28	32	0	0	0	0	0	0	0	0	0	0	0	0	0	0	0	0	0	0	0	0	0	0	0
OTU 54	190	82	235	27	13	3245	47	29	68	540	33	20	1076	5	25	36	39	15	128	6	25	56	1	46	124	54	21	51	32	2159	792	24	37	16	9	12	17	95	202	4	16	33	3	79	34	2	38	58	59	50
OTU 55	29	0	0	0	0	0	0	0	0	0	2	0	4	0	0	0	0	3	0	0	0	0	0	0	0	0	0	0	0	0	0	0	0	0	0	0	0	0	38	1	0	0	0	0	0	0	0	0	4	0
OTU 56	9	0	3	0	2	13	0	0	11	12	3	0	0	0	24	0	0	3	0	66	0	0	63	1	3	0	8	0	0	4	10	37	34	0	19	5	1	146	17	1	1	0	0	0	25	20	0	0	0	17
OTU 57	41	98	81	29	57	23	1	437	23	92	25	57	68	16	68	222	280	80	81	130	98	280	51	137	10	14	252	1080	615	83	77	127	137	164	25	22	205	122	29	43	424	48	856	213	137	146	22	302	250	6
OTU 58	1	3	67	0	3	436	3	4	0	0	82	13	8	3	144	3	52	0	38	11	2	10	4	7	0	0	0	2	29	0	0	41	2	1	65	4	2	6	14	0	118	38	1	35	26	4	193	23	6	0
OTU 59	7	31	10	39	62	7	0	106	0	101	1	0	5	2	21	3	124	276	0	34	40	43	0	59	13	41	0	12	0	28	7	1	4	0	32	13	32	8	16	154	394	64	0	0	25	29	3	16	0	16
OTU 60	21	22	14	63	23	10	18	45	23	15	12	63	32	10	52	0	20	52	11	222	12	230	4	50	44	19	34	0	14	30	10	17	125	71	0	4	0	61	16	15	86	30	6	5	21	66	70	30	109	27
OTU 61	45	80	11	159	17	61	12	11	43	34	69	70	79	8	187	26	88	72	2074	108	31	4	45	66	9	67	71	76	129	4	46	7	91	13	45	48	71	270	6	33	136	0	5	101	7	4	80	81	26	44
OTU 62	2	5	10	0	0	1	0	0	20	0	0	0	68	0	0	129	6	1	0	9	0	176	6	0	15	20	33	848	19	0	0	3	0	0	0	0	1	3	0	0	0	0	0	0	44	33	0	11	0	14
OTU 63	33	118	2	0	3	2	7	128	29	1	10	0	8	0	17	2	0	1	59	4	0	0	3588	0	4	23	3	2	2	0	0	1	182	59	16	0	3	13	0	0	4	21	0	36	0	18	1	15	125	16
OTU 64	83	7	41	51	20	7	485	57	68	1	18	106	60	43	157	187	9	33	31	16	11	97	60	79	37	35	362	12	27	0	14	43	340	7	114	30	108	137	34	15	16	43	10	18	2	6	347	3	28	376
OTU 65	0	0	0	0	0	0	0	1	0	3	2	0	13	0	0	83	0	0	0	4	0	0	0	0	3	0	59	0	0	0	0	0	26	0	0	0	0	0	0	0	0	0	0	0	0	0	0	15	0	11
OTU 66	11	10	28	21	32	2	13	36	2059	0	7	100	21	10	87	0	4	11	0	10	6	10	1223	20	21	6	8	36	58	2	5	12	11	2	16	16	5	29	52	3	12	56	3	40	0	0	0	32	15	11
OTU 67	2	90	120	120	3	38	12	0	26	6	0	49	2	16	2	70	0	1	5	18	39	4	0	3	2	3	219	0	14	0	70	93	9	60	0	4	63	0	2	0	7	26	7	55	0	0	64	15	142	6
OTU 68	7	15	43	1	0	36	13	29	5	378	0	0	0	0	17	0	428	973	10	8	0	9	7	28	1	0	0	31	0	193	0	21	2	30	0	15	0	1	2	481	1013	0	0	13	0	16	0	0	48	5
OTU 69	15	20	78	508	11	26	0	15	29	7	111	100	1	64	4	19	1	2	0	105	3	18	0	26	25	8	33	18	13	2	16	221	1	58	381	199	41	600	5	1	12	0	31	26	51	34	99	39	91	17
OTU 70	10	0	2	30	10	1	1	251	16	86	2	21	8	29	60	1	19	34	4	6	4	184	1	56	3	1	142	115	216	40	0	14	11	0	66	25	19	171	17	10	16	13	20	4	83	0	0	12	0	11
OTU 71	17	14	2	0	926	124	53	0	33	4	0	131	1	93	2	0	39	2	75	45	19	21	0	14	0	0	7	1785	4	8	1	9	0	16	1	8	0	52	1	1	26	11	42	1	0	0	17	36	25	14
OTU 72	157	15	9	33	20	4	6	11	15	10	3	10	28	6	27	5	0	40	3	26	0	12	28	8	168	12	57	86	9	32	16	6	93	0	113	0	40	50	79	18	15	36	1	0	4	49	36	129	3	11
OTU 73	6	88	6	31	0	20	1	240	26	19	10	13	57	5	26	2	7	18	24	104	2	19	1	0	58	30	28	9	1	9	10	117	50	39	53	59	659	0	13	13	33	21	2	9	1	2	5	56	64	21
OTU 74	122	140	22	43	3	65	8	0	7	23	15	95	37	56	2	27	51	112	1	81	28	7	10	2	229	103	1	37	6	4	37	15	78	5	32	20	1	7	15	58	71	19	21	40	32	71	51	222	22	1
OTU 75	47	3	1	5	21	24	67	460	10	151	40	141	8	60	2	33	238	207	4	6	493	651	5	53	1	4	18	191	497	100	6	69	17	31	34	31	22	27	13	117	555	1	35	6	256	5	16	8	31	1
OTU 76	32	25	0	2	0	0	0	39	1	0	32	1	0	0	0	0	0	18	2	181	1	28	0	2	0	0	0	0	12	0	0	14	0	0	0	0	0	0	0	13	0	0	0	109	0	0	8	5	1	8
OTU 77	66	8	139	4	2	0	1047	68	3	61	82	5	11	11	16	10	6	107	2	1	41	45	64	3	61	3	5	0	63	90	2	39	3	30	113	57	72	0	29	54	28	2664	6	2	2	31	66	33	117	58
OTU 78	68	354	157	32	113	11	130	60	1	2	232	7	86	0	69	190	8	34	28	78	93	31	111	43	0	145	223	85	291	3	47	51	107	33	8	26	26	70	83	17	9	4	4	61	73	129	126	151	5	17
OTU 79	158	85	23	83	70	110	14	97	58	2004	169	80	173	64	204	58	87	4133	165	55	99	179	10	325	108	95	89	64	28	1029	57	104	26	222	63	36	178	31	1017	2071	141	83	32	130	110	1530	44	132	397	62
OTU 80	38	55	3	0	10	2	2	4	16	96	34	58	3238	41	4	22	12	53	15	5	50	143	98	1	268	40	4	100	2	46	1475	4	32	2	34	2	76	13	32	23	22	9	14	168	125	11	30	3	16	32
OTU 81	28	1	40	68	5	30	156	12	11	1462	50	64	8	23	1	42	0	3	116	22	44	42	64	14	81	1	6	6	10	752	565	258	17	33	142	34	54	38	696	1	14	24	10	13	2	46	53	52	147	129
OTU 82	40	2	63	53	48	10	6	87	3	3	87	7	0	1	37	183	3	14	10	56	0	14	0	19	11	7	243	0	6	0	33	3	14	393	31	1	0	231	69	8	31	29	2	0	0	12	7	20	38	117
OTU 83	29	0	18	0	0	4	38	0	0	0	0	0	18	1	0	0	0	21	7	0	5	63	0	0	7	5	1	2	8	0	9	0	80	24	0	4	20	0	0	14	0	0	0	0	88	20	0	99	62	0
OTU 84	0	7	100	102	35	39	31	69	68	5	126	17	125	9	52	0	0	0	70	12	1	2	0	195	16	5	13	0	4	0	145	14	10	37	0	15	9	148	8	0	1	54	3	1	0	10	41	26	130	10
OTU 85	4	8	1	0	10	0	17	2	6	1	0	15	0	20	4	12	13	0	0	38	0	0	0	0	0	0	18	45	0	0	0	0	0	0	0	27	2	0	9	0	62	0	3	0	0	0	27	0	7	86
OTU 86	0	0	0	0	0	43	0	0	0	0	5	0	3	0	10	0	0	1	0	0	0	0	0	0	0	2	0	0	0	0	0	0	0	0	0	0	0	0	0	1	0	0	0	0	0	4	0	0	0	0
OTU 87	47	9	0	32	0	0	0	92	0	9	25	1	0	0	3	1	1	0	1	3	0	0	3	1	0	4	1	0	0	5	0	7	7	0	5	2	0	14	0	0	0	0	0	10	13	1983	1	3	1	117
OTU 88	0	0	0	0	0	6	2	0	0	18	46	0	2	4	17	0	0	0	2	0	12	2	0	0	0	0	1	0	91	3	0	0	0	5	0	30	9	2	0	0	0	0	0	6	0	0	17	30	20	3
OTU 89	920	7	11	0	16	0	0	0	17	1	15	0	19	1	0	4	38	19	372	0	0	2	0	3	27	39	108	0	0	1	11	139	0	11	9	1	2	0	715	12	63	2	0	26	20	0	30	0	11	32
OTU 90	0	0	0	2	13	27	8	2	0	0	0	0	0	1	0	0	0	0	0	28	0	0	0	0	0	0	0	0	11	0	4	14	1	2	0	0	7	0	0	0	0	0	3	0	4	12	0	0	0	1
OTU 91	0	0	0	1	0	0	0	0	2	0	0	0	0	0	0	13	3	0	16	0	0	0	1	0	0	0	0	0	1	0	0	0	0	0	0	5	0	0	5	0	17	1	0	0	0	0	0	0	0	1
OTU 92	0	54	3	4	6	0	20	0	0	0	6	4	117	4	0	0	36	1	0	0	0	34	2	0	0	42	0	6	0	0	2	0	0	1	0	16	0	0	0	2	70	2	0	16	0	0	22	1	0	0
OTU 93	0	0	0	0	0	0	11	68	4	1	0	2	1	0	0	0	0	0	0	140	0	1	0	0	4	0	0	0	19	0	0	0	57	6	0	0	0	0	0	0	0	0	0	2	0	0	0	0	1	0
OTU 94	63	31	76	74	36	182	12	39	31	0	52	194	22	153	8	122	9	6	25	127	99	69	3	4	57	39	26	37	24	6	1	84	27	64	2	21	5	113	9	5	81	10	75	60	23	56	72	78	230	2
OTU 95	0	20	5	0	52	0	47	1789	0	12	0	6	4	0	27	16	0	17	11	0	1	23	0	8	0	12	0	0	2	0	0	6	10	11	0	0	14	12	3	6	2	4	0	0	0	1	2	0	0	5
OTU 96	0	24	0	0	0	0	1	0	0	0	0	0	0	0	0	0	7	0	0	6	0	0	0	0	0	0	0	0	1	0	0	0	58	0	30	0	0	0	0	0	59	0	0	2	0	1	1	1	7	0
OTU 97	13	0	12	0	0	0	0	0	0	0	0	2	0	0	0	0	0	6	6	0	12	3	0	0	0	0	0	0	0	0	0	10	1	0	8	3	260	0	1	4	0	0	0	0	0	0	0	0	0	10
OTU 98	38	0	19	0	1	7	98	0	8	2	2	6	0	2	1	1	0	3	2	0	0	0	0	0	13	2	9	48	2	8	0	305	6	12	62	0	0	2	10	1	12	0	4	13	0	29	0	6	3	0
OTU 99	0	41	4	10	21	36	35	10	34	10	1	8	49	4	137	2	19	12	5	58	33	22	19	6	72	27	5	44	35	13	4	266	96	48	24	19	63	91	1316	4	55	1	1	34	35	6	17	30	117	23
OTU 100	17	21	44	7	0	71	7	93	0	18	16	4	40	1	0	35	56	28	5	42	5	5	1	4	0	22	11	22	101	0	1	11	28	38	4	82	53	10	2	5	84	0	1	6	26	0	31	13	63	11
OTU 101	18	4	0	0	0	0	1	4	0	0	5	38	4	0	0	0	9	0	0	0	0	0	0	0	1	0	0	0	0	0	0	0	0	0	0	0	0	0	10	0	0	2	0	1	5	0	0	3	13	10
OTU 102	1	18	13	7	27	18	24	3	0	0	5	3	17	11	0	0	8	1	0	22	3	0	5	0	1	0	0	12	87	0	67	5	7	0	0	0	2	0	0	1	35	16	2	1	0	0	21	49	5	0
OTU 103	0	4	3	33	1	0	3	18	2	0	0	1	32	2	46	2	0	1	47	2	1	22	14	3	10	8	24	50	40	0	30	162	5	6	2	26	8	96	0	0	1	7	0	87	4	0	19	0	32	39
OTU 104	21	130	54	16	56	42	285	57	4	21	45	42	36	50	132	12	12	38	14	5	11	7	9	80	145	167	15	103	62	34	27	81	7	11	49	939	10	71	4	22	0	128	30	72	8	28	636	27	60	9
OTU 105	0	0	43	0	1	0	0	0	0	6	89	91	9	19	0	0	5	24	73	0	16	1	0	3	12	153	1	7	0	12	0	91	1	0	8	0	0	0	0	15	37	0	5	5	24	1	0	0	0	7
OTU 106	1	1	5	0	0	10	4	0	0	0	0	0	8	0	0	5	7	2	0	0	2	0	1	0	1	9	9	0	0	1	0	41	220	18	0	0	0	12	0	0	0	0	0	3	0	0	0	3	20	2
OTU 107	1	7	403	10	9	7	16	36	255	6	0	0	11	1	3	0	20	1	0	211	30	55	116	51	50	9	15	24	1	8	4	53	5	0	0	0	0	13	26	0	63	0	1	327	50	7	0	42	4	16
OTU 108	1	302	9	215	0	19	24	16	0	0	0	42	0	22	25	135	5	9	0	11	0	0	5	30	72	172	37	51	42	1	0	5	74	42	100	50	1	93	78	6	1	4	16	157	7	24	53	19	48	4
OTU 109	0	3	0	0	0	0	0	0	0	0	0	0	0	0	6	0	0	0	0	0	0	15	0	0	0	0	0	3	0	0	0	0	2	0	0	94	0	6	4	0	0	0	0	0	0	0	0	0	0	0
OTU 110	14	121	55	10	3	22	5	79	4	11	13	5	44	5	66	40	41	47	0	0	147	120	0	24	5	33	2	81	12	14	8	14	11	11	17	23	3	1	7	20	79	74	8	57	93	38	12	220	25	31
OTU 111	0	29	70	2	0	0	0	0	7	0	0	0	0	0	0	0	0	0	4	0	2	0	12	0	0	21	0	0	4	1	0	18	0	0	0	0	0	16	0	0	0	2	0	6	8	0	0	0	0	0
OTU 112	15	41	17	7	0	77	11	104	3	8	4	0	1	0	0	1	14	34	0	1	24	20	0	1	0	23	52	0	66	3	13	4	0	163	65	5	14	34	99	14	5	5	1	51	23	0	20	0	173	5
OTU 113	0	0	0	15	6	5	16	3	0	0	0	0	0	0	4	0	0	0	2	0	76	8	0	0	19	0	5	1	1	0	0	1	19	6	0	0	0	0	0	0	1	0	0	1	6	4	4	3	1	0
OTU 114	39	12	30	67	6	47	3	59	1252	28	25	1	49	1	27	67	160	38	53	24	53	58	664	13	106	52	216	15	121	13	24	8	7	22	50	17	1	105	1	20	60	8	5	11	10	94	13	164	56	58
OTU 115	114	345	162	69	6	95	18	101	33	20	45	20	23	41	139	27	23	53	3	35	66	11	21	27	23	104	13	10	56	2056	55	132	217	101	4	254	67	76	56	31	75	3	3761	45	16	51	271	65	146	49
OTU 116	151	13	26	88	6	4	241	0	0	2164	41	0	46	0	44	15	32	8	2465	8	9	24	38	48	164	0	67	1	40	995	8	48	292	25	24	2	149	106	27	3	26	15	0	201	15	2	23	29	71	16
OTU 117	0	18	115	26	4	53	7	55	7	2	0	7	47	8	102	22	13	10	6	37	20	1	9	0	66	0	99	36	19	1	6	2	2	32	0	11	0	21	8	11	5	49	3	29	4	46	9	41	41	0
OTU 118	0	0	0	1	3	0	5	0	2	4	0	0	0	0	0	8	1	1	5	0	30	0	18	1	0	0	13	7	0	0	0	0	21	2	13	0	1	181	0	1	0	11	0	35	0	1	0	14	0	0
OTU 119	35	11	24	16	65	4	0	12	12	6	5	16	25	12	50	0	14	1	28	10	18	4	14	26	283	21	26	111	0	1	25	144	41	16	47	67	59	36	6	1	15	24	0	51	63	2	23	28	14	52
OTU 120	28	28	0	0	0	18	21	2	4	221	2	0	54	2	2	3	2	234	2	3	3	0	55	0	63	3	2	31	1	78	46	4	70	1	0	1	170	0	1	122	15	0	0	2	0	0	3	10	2	16
OTU 121	1764	12	47	57	25	10	18	1	60	3	227	32	5	2	161	12	1	11	6	1	0	0	0	132	0	3	92	51	14	4	0	4	35	1	1062	16	3	16	862	2	0	79	0	0	3	16	1	8	8	31
OTU 122	16	2	61	68	1	25	30	4	15	5	72	44	53	35	67	3	4	8	0	132	55	78	92	11	14	14	4	28	11	3	36	13	18	2	69	73	16	273	38	2	0	1	21	15	0	23	101	4	29	68
OTU 123	135	1287	690	220	1667	116	84	86	609	8	67	41	147	5	65	422	32	22	90	2164	20	45	215	134	77	700	304	179	962	13	54	138	1490	192	77	178	120	282	64	8	47	83	5	2090	31	349	148	767	269	155
OTU 124	1	1	0	9	13	22	3	1	1	0	3	0	0	0	123	0	2	0	3	0	45	8	0	28	12	0	3	35	0	0	0	0	209	18	0	0	8	0	6	0	2	20	0	1	6	0	88	14	111	34
OTU 125	492	324	85	79	62	48	314	126	86	2	199	109	121	334	544	155	40	28	156	146	91	119	87	55	417	107	129	161	53	8	118	901	198	92	170	85	115	165	190	4656	114	21	189	33	54	95	77	191	130	98
OTU 126	22	126	0	0	8	0	0	144	0	35	0	0	0	0	156	75	52	121	7	3	63	276	0	92	10	51	25	0	24	21	4	0	0	0	0	0	0	0	0	50	51	86	0	4	72	0	0	0	0	6
OTU 127	23	81	146	36	1	2	46	41	44	3	10	20	34	9	41	5	0	1	3	0	1	26	0	39	141	56	101	6	31	9	76	692	1	12	8	10	0	4	3	0	1	1	7	14	0	0	12	1	43	355
OTU 128	58	585	257	118	66	146	17	173	41	66	196	89	82	63	75	246	106	77	36	81	369	974	96	55	197	324	517	154	67	52	132	102	787	16	1499	61	308	172	52	43	310	27	37	74	716	49	95	44	35	124
OTU 129	0	0	46	2	0	3	0	550	0	0	6	3481	0	1618	0	2	0	2	0	1	0	12	25	2	24	5	17	0	0	0	7	7	5	0	9	28	103	0	2	1	0	0	815	0	0	0	29	3	1	5
OTU 130	12	6	28	58	0	8	13	15	4	3	0	188	22	70	78	19	0	1	12	30	1029	1621	0	13	12	2	3	4	20	3	1	48	42	6	6	106	30	105	11	2	0	1	22	78	4657	1	245	23	36	46
OTU 131	37	6	77	4	9	212	26	0	53	5	11	28	73	43	12	19	17	8	3	12	0	19	35	45	2010	15	1	0	0	1	13	31	22	12	2	95	9	16	37	2	31	1	17	13	24	13	465	205	73	10
OTU 132	0	95	1	10	48	0	4	0	0	0	3	6	4	2	19	2	1	20	15	2	12	2	1	57	21	98	17	14	12	6	6	7	2	12	54	0	0	27	9	10	15	2	2	0	0	1	1	45	10	0
OTU 133	127	0	0	0	3	18	0	0	0	0	0	6	0	0	18	0	0	0	0	2	0	2	0	1	0	0	24	0	0	9	0	4	10	0	0	2	1	0	36	0	0	3	0	16	0	0	0	0	0	3
OTU 134	1	29	2	1	5	103	18	17	5	0	24	137	3	137	11	28	52	1	4	2	1	19	9	2	86	11	70	96	44	0	6	29	23	3	36	0	0	19	0	0	55	18	60	8	5	6	1	7	9	38
OTU 135	11	10	0	15	1	7	0	6	16	18	2	39	0	10	0	21	15	32	8	22	13	7	3	18	13	51	0	81	5	6	3	46	7	2	127	5	61	20	29	17	0	9	0	30	0	27	107	28	1	102
OTU 136	2	32	7	11	47	1	18	10	2	0	10	8	43	2	1	6	4810	2	5	27	20	14	1	9	109	66	31	1	21	0	16	162	15	22	75	0	33	39	12	1	0	0	3	7	2	2	5	4	12	4
OTU 137	0	0	8	0	9	71	23	8	0	3	30	0	386	0	53	16	1	16	3	0	3	0	0	0	53	0	31	0	85	13	64	447	11	0	1	4	0	21	8	8	19	0	0	2	0	70	0	28	0	116
OTU 138	56	11	6	3	0	4	0	0	0	0	20	1	12	2	0	0	28	0	0	0	11	0	2	4	5	0	0	9	0	1	0	1	20	11	127	0	3	0	0	0	55	0	0	1	0	0	75	18	0	15
OTU 139	407	59	851	61	174	527	4	227	404	65	24	44	99	2	1236	154	57	92	1503	597	0	43	393	492	99	11	544	333	167	37	117	51	36	288	41	32	75	53	127	41	193	1838	1	981	19	2	176	83	452	13
OTU 140	63	129	141	50	145	15	23	73	71	2	145	18	24	5	163	22	29	14	91	45	35	79	96	193	195	72	75	71	43	2	28	41	141	16	50	36	428	25	15	5	49	184	2	93	30	28	68	65	41	29
OTU 141	0	0	0	0	0	0	0	0	0	0	0	0	0	0	0	0	2	0	0	0	0	0	0	0	0	0	0	0	0	0	0	0	0	0	0	0	0	0	0	0	37	0	0	0	0	8	0	0	7	0
OTU 142	0	0	19	0	0	0	0	0	0	0	0	0	0	0	1	0	0	0	0	0	0	0	0	0	80	0	0	1	0	0	0	0	0	13	0	0	0	0	0	0	5	0	0	0	0	0	0	0	0	0
OTU 143	4	4	0	0	0	0	3	0	3	15	0	1	0	0	4	0	39	39	5	0	7	2	0	0	0	0	0	0	0	5	3	24	12	8	0	0	23	8	4	23	95	5	0	32	0	28	63	15	13	76
OTU 144	14	11	0	0	0	2	3	0	4	1	0	0	0	0	0	0	1	2	21	4	0	0	4	1	0	0	5	45	28	676	0	89	23	4	0	0	0	0	0	0	0	0	0	0	0	3	2	0	31	1
OTU 145	44	43	1	26	0	281	6	20	50	16	10	1	22	2	12	1	21	6	130	82	23	93	12	12	41	13	14	16	67	1	24	16	4	31	76	39	53	40	27	1	12	12	5	0	41	1	62	47	67	60
OTU 146	1	1	19	34	18	17	53	2	50	53	6	30	26	42	59	2	26	0	27	2	0	71	0	1	83	20	22	91	86	48	11	6	13	26	3	13	19	15	14	0	35	18	19	1	38	20	322	2	93	17
OTU 147	0	49	7	1	11	27	23	12	0	28	151	28	4	6	2	0	19	15	3	0	0	0	30	0	1	0	21	27	2	8	2	4	133	2	1	0	2	22	0	8	31	0	0	9	11	9	0	0	1	4
OTU 148	2	43	8	73	29	17	6	6	26	8	0	214	1	89	153	9	10	35	29	62	84	42	4	60	29	38	7	22	17	7	5	38	64	42	22	0	10	179	0	13	37	34	46	0	11	58	208	173	61	0
OTU 149	1	44	9	0	3	0	0	26	5	8	0	3	5	9	6	1	9	4	25	0	13	0	0	15	59	22	0	3	1796	1	33	0	0	0	78	10	17	16	0	3	21	28	0	20	0	0	0	0	0	0
OTU 150	4	3	0	16	0	2	69	62	2	2	10	0	8	6	4	52	0	14	0	2	0	0	8	14	0	7	9	20	0	1	20	0	16	0	43	1	6	49	18	2	1	0	4	1	3	27	0	7	0	9
OTU 151	0	6	4	11	42	32	1	18	9	0	8	0	0	0	26	0	1	8	0	3	23	2	1	5	2	1	2	11	28	1	3	0	282	0	1	32	2	30	6	5	0	11	1	90	2	3	28	0	7	50
OTU 152	109	22	141	0	140	1	13	164	18	44	39	2	22	0	59	122	49	61	96	51	8	4	4	108	0	24	350	8	4	10	46	0	4	26	136	0	12	19	29	30	104	27	0	2	6	14	20	21	29	1
OTU 153	0	0	0	0	0	0	1	0	0	2	27	0	0	0	0	0	0	0	0	0	0	0	0	0	0	0	12	2	4	0	3	0	0	0	0	0	0	0	0	0	0	0	0	0	0	2	0	3	4	0
OTU 154	0	3	1	868	82	0	0	1	0	5	0	0	0	0	0	0	35	0	27	0	5	0	8	4	0	0	0	0	0	0	0	1	12	107	0	0	0	0	0	0	5	8	0	0	0	0	0	7	217	0
OTU 155	0	13	138	45	1	3	120	14	2	1	69	24	2	6	0	9	7	2	6	3	3	0	0	2	29	10	0	4	0	1	40	0	0	0	51	0	1	376	13	2	19	0	0	20	0	0	1	0	1	0
OTU 156	39	24	7	11	1	16	0	53	32	23	127	12	14	12	2	65	15	33	58	180	5	19	60	2	25	25	14	4	21	21	11	35	150	72	27	129	25	117	51	19	27	6	1	32	70	2	13	31	85	14
OTU 157	44	14	3	0	12	39	0	0	0	8	27	1	87	0	75	0	0	51	2	0	3	0	53	68	55	0	5	0	0	3	28	0	0	217	100	0	5	0	23	27	26	14	0	0	61	37	2	67	399	96
OTU 158	0	0	0	0	0	0	0	0	0	0	35	0	0	0	0	1	0	0	0	0	0	4	0	0	0	0	0	0	0	0	0	0	0	0	0	0	0	1	0	0	0	0	0	0	0	0	0	0	0	0
OTU 159	13	8	44	0	0	15	54	22	17	0	0	2	11	13	0	810	9	0	6	23	2	79	14	38	92	1	20	10	11	0	44	12	131	0	80	8	31	6	1	0	15	34	9	3	70	1	7	5	6	31
OTU 160	128	331	11	221	46	11	114	14	90	23	288	10	190	11	81	91	39	66	14	109	71	102	69	117	397	195	56	1	26	7	33	560	184	29	134	156	76	146	83	37	73	92	0	85	32	29	107	159	52	142
OTU 161	29	16	0	7	6	24	5	81	1	19	59	58	41	16	7	41	120	26	0	44	2381	57	3	0	60	7	27	48	12	19	10	3	24	1	274	0	10	73	25	17	76	0	22	67	21	4	1	0	15	2
OTU 162	7	4	22	4	4	41	7	83	42	45	19	0	50	16	54	18	108	100	24	40	0	17	9	31	45	5	33	81	226	13	9	0	64	2	30	16	30	37	38	54	221	115	8	32	44	7	0	2	23	49
OTU 163	9	0	1	0	0	0	0	0	0	0	0	0	0	0	0	0	0	0	0	0	0	0	0	0	0	0	0	0	0	0	3	0	0	0	0	0	0	0	0	0	0	0	0	0	3	0	0	0	0	0
OTU 164	0	0	0	0	0	0	0	0	0	0	0	0	0	0	0	0	9	0	0	0	0	1	0	0	0	0	0	0	2	0	15	0	0	0	0	0	0	0	0	0	36	0	0	0	0	0	4	0	0	4
OTU 165	6	3	1	8	9	10	46	0	0	3	3	1	33	1	0	2	14	0	0	1	0	6	6	2	5	9	1	3	8	1	19	0	4	33	9	46	25	3	3	0	16	0	0	70	16	5	36	86	101	55
OTU 166	0	0	0	0	1	0	0	0	0	1	0	0	0	0	0	0	0	0	0	0	0	0	1	0	0	0	0	0	0	1	0	0	0	0	3	5	0	0	0	0	0	0	0	0	0	0	0	0	0	0
OTU 167	6	0	19	6	17	1	0	246	4	1	3	0	2	1	7	15	34	8	22	3	0	8	12	0	4	10	0	0	175	0	14	4	23	13	18	4	14	54	4	2	15	6	1	65	5	6	12	3	15	2
OTU 168	81	1	1	1	24	155	197	18	2	13	1	117	17	27	127	2211	22	49	5	3	38	18	0	37	49	2	72	35	0	19	20	2	12	24	28	21	2	45	19	19	17	0	10	139	0	38	18	84	92	9
OTU 169	15	20	0	0	0	0	0	0	7	25	0	0	0	0	1	0	0	52	0	1	0	0	26	0	0	0	0	0	30	24	0	0	33	1	0	0	0	0	0	22	0	0	0	1	0	0	0	0	0	10
OTU 170	0	0	0	0	0	0	0	0	0	0	5	2	0	0	0	0	3	0	0	0	0	0	0	0	0	0	0	0	0	0	2	0	0	2	0	0	0	0	3	0	0	0	1	0	0	0	40	1	2	0
OTU 171	28	7	113	34	4	21	4	6	229	2	0	95	21	14	48	4	0	0	0	348	5	25	13	0	9	5	51	46	1	3	3	306	4	0	11	30	21	80	24	0	3	10	14	27	0	10	41	3	7	7
OTU 172	0	0	0	0	2	0	0	3	0	4	0	0	0	0	0	0	0	0	0	7	0	0	0	5	0	1	0	0	0	0	0	0	29	13	40	13	0	3	0	0	1	7	0	26	0	0	2	0	40	43
OTU 173	0	51	25	24	0	1	0	31	0	1	7	1	31	0	0	12	0	11	0	0	26	47	5	0	0	14	24	62	0	8	0	171	34	10	12	0	29	33	0	5	0	38	0	11	34	4	0	7	6	29
OTU 174	237	0	7	43	75	1	1690	62	6	7	9	4	250	0	478	4	10	56	0	4	0	0	27	199	54	1	6	108	13	2	106	1	6	26	71	0	3	5	40	132	13	52	0	15	1	5	41	45	73	0
OTU 175	2	0	77	12	12	0	6	7	0	4	24	3	3	1	10	2	5	0	3	0	11	14	2	0	1	1	20	25	4	0	530	4	8	3	31	0	16	2	0	0	0	0	1	24	41	9	7	7	0	0
OTU 176	26	17	25	21	4	50	13	37	10	0	15	118	3	63	6	9	12	17	10	27	388	478	31	24	6	25	28	98	47	1	15	29	6	132	20	5	51	135	27	10	25	22	36	71	382	8	89	28	297	278
OTU 177	2	12	33	125	17	12	33	21	121	26	115	0	81	0	5	32	75	95	0	74	11	29	5	21	27	33	52	0	6	18	7	122	32	21	1	37	51	19	20	58	145	0	0	31	16	43	92	22	43	22
OTU 178	0	0	0	2	5	25	0	2	3	0	0	13	0	5	0	1	0	69	42	70	0	3	86	0	44	2	20	0	0	1	0	76	8	27	0	20	111	0	6	36	0	1	0	1	2	19	7	0	51	1
OTU 179	4	1	11	0	8	11	10	55	0	3	2	6	0	2	12	64	20	6	93	2	5	36	0	11	6	3	2	3	23	0	34	10	97	27	0	2	5	5	5	4	57	7	1	8	7	1	2	11	59	0
OTU 180	100	103	85	143	70	84	43	77	50	32	1731	151	60	8	52	981	27	19	105	72	23	5	36	68	388	432	1644	30	32	9	19	113	171	204	81	419	199	196	56	16	69	68	24	12	16	59	163	124	247	420
OTU 181	3	5	1	9	2	135	4	2	22	0	39	4	0	9	0	0	5	1	9	16	25	0	23	12	6	18	6	3	6	0	14	0	0	78	0	0	49	7	6	0	13	21	20	0	1	0	1	1	186	2
OTU 182	0	0	29	0	0	0	0	9	0	13	0	0	0	0	0	0	0	0	0	0	0	0	0	0	0	0	1	0	0	9	0	0	0	0	0	6	537	1	0	0	0	0	0	0	0	6	0	66	0	0
OTU 183	17	7	9	7	9	0	24	23	15	9	9	4	8	0	2	2	9	0	0	72	6	172	0	9	4	11	11	0	55	5	16	20	30	34	0	7	4	1	12	0	38	20	1	9	49	3	202	23	15	47
OTU 184	2	51	3	11	13	163	28	27	0	1	8	8	0	0	0	2	0	0	66	2	3	113	6	2	0	0	2	21	4	0	1	50	10	0	3	6	8	1	4	0	0	7	0	0	0	40	35	102	0	10
OTU 185	29	24	15	51	10	10	13	52	4	35	53	39	15	31	1	59	20	17	156	1	155	57	36	49	87	28	48	677	16	23	15	2	17	9	22	77	34	15	13	10	47	25	19	48	26	115	55	387	47	1
OTU 186	7	0	0	10	42	0	0	11	20	5	27	0	0	0	0	10	0	4	0	1	4	15	1	0	0	7	7	8	1	1	11	0	1	1	34	0	3	57	0	1	0	0	0	1	8	1	9	5	0	1
OTU 187	217	15	23	31	74	142	70	12	208	17	69	66	7	21	16	14	15	1	61	71	18	72	14	26	60	25	28	98	40	4	6	90	213	76	358	44	25	35	27	2	43	1	16	19	2	3	64	63	144	29
OTU 188	19	50	1617	94	7	3	45	35	1114	3	18	29	23	35	55	14	34	9	49	576	13	42	419	99	0	2	9	26	146	1	24	2	47	64	19	0	26	96	5	39	37	51	9	1136	20	2	158	2	147	165
OTU 189	161	57	70	44	11	351	7	60	617	28	127	8	4	1	72	22	9	9	28	16	48	193	95	34	17	45	123	63	28	11	23	83	17	21	8	6	18	65	34	2	31	58	3	163	125	104	16	120	62	45
OTU 190	0	12	24	10	5	108	0	0	0	0	0	0	0	0	0	0	0	3	3	23	0	24	6	0	138	4	0	1	0	1	0	0	0	3	2	22	0	84	0	2	0	0	0	0	2	3	0	0	24	0
OTU 191	4	46	5	13	7	7	2	24	6	23	21	52	16	21	129	56	9	2	2	5	3	35	4	19	1	5	238	39	13	14	14	129	16	8	25	6	90	105	56	1	19	62	13	2	24	0	91	57	17	80
OTU 192	92	20	68	6	50	81	20	385	24	5	134	691	115	436	106	18	28	10	23	130	16	45	35	14	29	54	40	27	3	11	27	3	55	64	23	33	280	41	91	0	33	36	254	29	62	1149	157	10	142	10
OTU 193	29	7	0	35	2	33	52	2	16	51	79	82	13	48	24	8	46	34	3	3	1	44	23	2	115	21	8	64	20	28	7	23	5	62	59	2	18	49	57	11	101	28	30	1	1	1	108	2	93	9
OTU 194	23	176	2	81	45	0	0	97	0	73	0	0	1	347	2	167	40	38	1	60	73	0	13	51	15	76	95	0	0	38	0	1	2	0	0	4	0	3	0	17	132	0	175	4	60	54	0	38	8	0
OTU 195	3	1	9	59	32	65	132	33	4	6	62	1	0	5	51	10	0	0	6	37	21	10	2	2	4	6	28	19	684	4	5	86	52	18	20	51	109	23	31	0	0	0	5	0	8	1	4	0	15	3
OTU 196	3	40	1	17	30	32	7	0	7	48	4	0	7	0	1	11	217	112	36	365	0	0	20	0	29	15	2	9	1	41	4	60	0	903	1	22	123	20	19	60	428	29	1	7	21	5	0	29	7	125
OTU 197	99	120	79	55	83	2	15	20	44	14	1112	51	6	10	88	44	2	26	71	2	22	23	26	31	71	72	53	9	34	5	1	135	131	92	12	27	59	163	69	10	20	13	14	24	82	23	65	18	222	36
OTU 198	2	14	65	0	0	0	1	0	39	12	11	0	2	0	6	0	0	6	4	1	75	0	36	3	1	5	0	42	0	1	0	0	0	3	6	22	2	9	0	6	0	0	0	0	4	12	5	86	0	0
OTU 199	2	7	54	1	12	0	0	9	23	20	11	5	3	0	0	50	9	0	0	1	5	59	11	0	0	1	9	100	0	8	6	0	17	3	1	12	1	5	1	0	1	0	0	57	32	1	0	2	1	0
OTU 200	29	56	46	0	1	17	0	40	42	12	3	25	7	17	65	26	21	5	16	5	2	27	33	52	38	20	21	4	22	19	5	44	3	28	45	13	18	111	1	3	68	62	2	76	4	26	8	1	52	10
