	Host 1	Host 2	Host 3	Host 4	Host 5	Host 6	Host 7	Host 8	Host 9	Host 10	Host 11	Host 12	Host 13	Host 14	Host 15	Host 16	Host 17	Host 18	Host 19	Host 20	Host 21	Host 22	Host 23	Host 24	Host 25	Host 26	Host 27	Host 28	Host 29	Host 30	Host 31	Host 32	Host 33	Host 34	Host 35	Host 36	Host 37	Host 38	Host 39	Host 40	Host 41	Host 42	Host 43	Host 44	Host 45	Host 46	Host 47	Host 48	Host 49	Host 50	
OTU 1	0	0	2	1	1	7	0	2	0	3	6	2	6	0	7	0	13	2	3	0	0	1	1	2	2	1	1	0	0	0	4	11	2	5	17	7	3	6	5	4	0	3	0	3	3	0	2	12	4	2
OTU 2	0	0	0	0	0	0	0	0	1	0	0	0	0	3	4	0	0	2	0	0	12	0	0	0	0	0	6	0	2	0	1	1	0	0	0	0	1	0	4	3	1	2	0	3	0	0	2	0	0	1
OTU 3	1	2	0	0	0	0	0	0	0	2	0	0	0	10	0	0	1	3	0	1	0	0	0	0	0	0	0	2	0	0	0	4	0	2	2	0	0	0	1	0	0	0	0	0	0	0	2	1	0	1
OTU 4	0	0	0	0	0	0	0	0	0	0	0	0	0	0	0	0	0	0	0	0	0	0	0	0	0	0	0	0	0	0	0	0	0	0	0	0	0	0	0	0	0	0	0	0	0	0	0	0	0	0
OTU 5	10	13	24	4	1	37	5	37	1	7	68	57	17	0	74	0	18	28	12	0	5	45	14	8	1	15	1	41	0	14	5	8	10	8	5	3	7	15	21	3	25	36	15	2	0	19	16	4	1	1
OTU 6	0	1	1	1	0	7	4	0	2	5	0	0	0	7	0	0	0	1	0	1	0	0	2	0	0	0	0	0	0	1	0	1	0	1	3	0	2	1	0	0	0	0	0	1	0	1	69	0	4	0
OTU 7	67	2	15	10	4	0	3	21	80	1	17	0	14	15	17	4	18	2	1	1	3	5	24	80	0	4	3	2	0	3	0	49	6	22	17	172	2	1	52	3	0	13	6	7	3	5	0	3	34	0
OTU 8	3	0	5	0	0	0	6	2	0	7	2	0	1	1	1	12	2	1	4	9	0	0	0	2	1	2	5	4	8	1	11	16	4	6	1	3	1	1	3	0	0	1	1	5	5	1	11	8	1	6
OTU 9	0	0	6	1	0	0	1	0	2	0	0	0	1	1	0	0	1	1	2	0	0	1	0	0	0	0	3	0	0	0	0	0	0	0	7	0	1	1	1	2	14	0	1	2	0	0	0	0	0	1
OTU 10	2	2	0	0	0	0	0	0	0	0	0	0	2	0	0	0	2	11	0	0	0	0	1	1	0	0	0	1	0	0	1	0	0	0	0	0	2	5	2	0	1	1	0	2	5	0	2	1	0	0
OTU 11	0	20	0	1	1	1	2	5	1	5	3	2	0	4	7	10	0	2	0	3	0	0	0	1	1	0	7	3	7	27	4	7	0	0	4	0	2	0	13	8	0	11	0	1	1	4	0	7	1	5
OTU 12	6	1	1	2	1	0	3	0	1	0	2	4	1	1	0	10	0	2	7	4	1	1	1	1	7	0	0	0	0	0	0	0	1	1	4	2	3	2	0	19	2	0	3	0	0	2	2	2	1	1
OTU 13	0	0	0	0	0	0	0	0	0	0	0	0	0	0	0	0	0	0	0	0	0	0	0	0	0	0	0	0	0	4	0	0	0	0	0	0	1	0	0	0	0	0	0	0	1	0	0	0	0	0
OTU 14	0	0	0	0	0	0	0	0	0	0	0	0	12	0	0	0	0	0	0	3	0	0	0	1	1	0	0	5	0	0	3	0	0	1	0	0	0	0	0	0	0	0	1	0	0	4	0	0	1	1
OTU 15	0	0	0	0	0	0	0	0	0	0	0	0	0	0	0	0	0	0	0	0	0	0	0	0	0	0	0	0	0	0	0	1	0	0	0	0	0	0	0	0	0	0	0	0	0	0	0	0	0	0
OTU 16	0	0	0	0	0	0	0	0	0	0	0	0	0	0	0	0	0	0	0	0	0	0	0	0	0	0	0	0	0	0	0	0	0	0	0	0	0	0	0	0	0	0	0	0	0	0	0	0	0	0
OTU 17	2	0	0	0	3	2	0	0	0	2	1	1	0	1	0	0	0	0	1	0	3	0	1	0	0	0	2	1	1	37	3	0	0	0	0	0	0	0	0	0	0	0	0	1	1	0	0	8	0	0
OTU 18	0	0	0	0	7	0	5	3	46	2	1	86	2	0	1	1	0	1	2	2	7	0	3	1	0	9	0	0	5	0	1	2	2	0	0	3	2	0	2	0	2	0	2	0	1	4	0	8	2	0
OTU 19	0	0	0	0	0	0	0	0	0	0	0	0	0	0	0	0	0	0	0	0	0	0	0	0	0	0	0	0	5	0	0	0	0	0	0	0	0	0	0	0	0	0	0	0	0	0	0	0	0	0
OTU 20	1	0	3	1	1	0	0	0	0	5	1	0	2	1	0	2	3	0	0	1	0	0	0	5	1	0	1	0	0	3	0	6	0	1	0	7	6	0	1	5	1	2	2	0	2	0	0	3	0	1
OTU 21	1	1	0	0	0	0	2	1	1	0	0	3	0	2	2	0	1	8	2	0	3	0	0	0	1	4	1	0	7	0	0	0	0	0	0	0	4	2	1	2	0	0	1	3	0	2	0	0	1	2
OTU 22	4	1	2	2	4	1	0	0	4	0	1	40	0	1	0	1	6	2	0	1	1	0	1	1	0	0	2	0	3	9	3	8	1	1	5	4	6	0	0	4	1	0	1	4	0	0	0	5	2	0
OTU 23	0	0	0	0	0	1	0	0	2	0	0	0	0	0	1	2	0	0	5	0	0	0	0	0	1	0	0	0	0	0	3	0	0	0	0	0	0	0	1	1	0	0	0	4	0	0	4	4	0	3
OTU 24	1	1	0	0	2	0	0	0	0	0	0	0	0	4	0	4	0	0	4	0	0	1	0	0	1	0	0	0	0	2	1	0	0	6	0	1	0	0	0	1	2	0	42	0	0	1	2	0	3	0
OTU 25	0	0	0	0	0	0	0	0	0	0	0	0	0	0	0	0	0	0	0	0	0	0	0	2	0	0	0	0	0	0	0	0	0	0	0	1	0	0	0	0	0	0	0	0	0	0	0	0	0	0
OTU 26	0	0	0	0	0	0	1	0	0	0	0	0	0	0	0	0	0	0	0	1	0	0	0	0	0	2	0	0	0	4	0	0	0	0	0	0	2	0	0	0	0	0	0	0	0	0	0	0	0	2
OTU 27	0	0	0	0	1	0	0	0	0	0	0	0	0	0	0	0	0	2	0	0	0	0	0	0	1	0	0	0	0	0	0	0	0	0	0	0	0	0	0	0	0	0	0	0	0	1	0	0	0	0
OTU 28	0	1	6	1	1	2	14	0	0	0	2	0	0	2	0	6	0	1	1	0	0	0	2	0	7	2	0	4	1	10	4	0	0	0	2	0	2	2	0	3	1	0	0	1	0	0	0	1	3	5
OTU 29	0	1	5	0	2	0	3	3	20	0	1	7	6	3	2	2	0	0	7	3	2	1	0	6	0	0	3	1	8	0	5	1	1	2	1	12	2	5	1	2	0	2	1	7	10	11	1	5	4	0
OTU 30	0	0	0	0	0	0	0	0	0	0	0	0	0	0	0	0	0	0	0	0	0	0	0	0	0	0	0	0	0	0	0	0	0	0	0	0	0	0	0	0	0	0	0	0	0	0	0	0	0	0
OTU 31	0	0	0	0	1	0	0	0	0	7	0	0	0	0	0	0	0	0	0	0	0	0	1	0	0	0	0	3	0	0	1	1	0	4	0	0	0	1	0	4	0	0	0	0	0	0	2	0	0	0
OTU 32	1	0	0	0	0	2	2	2	1	2	23	0	1	1	3	1	13	5	22	2	5	1	1	9	1	1	0	9	2	3	0	1	1	1	1	16	4	3	7	3	3	8	0	2	5	0	3	32	6	5
OTU 33	0	0	0	0	0	0	0	0	0	0	0	0	0	0	0	0	0	0	1	0	0	0	0	0	0	0	0	0	0	0	0	0	0	0	0	0	0	0	0	0	0	0	1	0	0	0	0	0	0	0
OTU 34	0	1	0	0	2	1	3	0	0	0	1	1	0	10	0	8	0	2	0	4	1	1	0	0	0	2	3	2	0	0	0	0	0	174	0	1	0	0	1	0	2	0	0	1	2	0	1	1	4	4
OTU 35	8	2	8	0	1	1	1	0	0	1	0	1	1	0	0	0	0	0	2	1	1	2	0	0	0	0	0	3	0	1	3	7	3	4	1	0	0	1	0	0	0	0	1	0	0	2	7	0	0	0
OTU 36	5	6	1	1	0	2	2	1	2	5	4	3	2	0	8	1	0	0	0	0	4	2	0	1	2	0	0	1	2	3	0	2	1	1	0	2	9	0	7	1	0	0	2	0	0	3	0	3	0	0
OTU 37	0	0	0	0	1	0	4	0	0	0	0	0	0	0	0	0	1	1	0	1	0	0	0	0	0	0	0	0	0	0	0	0	1	0	1	0	0	0	0	0	0	0	0	0	0	0	0	0	1	0
OTU 38	3	0	3	0	1	2	2	0	0	0	1	0	0	3	0	0	0	2	23	0	1	0	3	1	0	2	1	0	0	1	0	0	1	0	1	0	2	0	0	2	0	0	1	0	0	0	2	0	8	9
OTU 39	0	0	1	0	2	0	0	0	0	0	0	0	0	0	0	0	0	0	0	0	0	0	0	0	1	0	0	1	0	0	1	3	0	0	1	0	1	0	0	0	0	0	0	0	0	0	0	0	0	0
OTU 40	0	13	1	8	0	0	1	8	0	0	0	2	1	4	2	8	8	0	1	0	3	1	1	0	1	0	0	1	0	6	0	0	6	1	4	0	2	0	18	2	1	11	0	1	0	1	0	0	1	2
OTU 41	0	0	0	4	49	0	0	1	0	0	0	0	0	0	4	3	1	0	0	1	4	0	2	0	17	0	1	0	0	3	32	0	0	0	1	0	3	0	2	1	4	0	17	2	0	0	3	0	1	2
OTU 42	2	0	0	0	0	0	0	0	0	0	0	0	0	0	0	0	0	1	0	0	0	0	0	1	0	0	0	0	3	0	0	0	0	0	0	0	0	0	0	0	0	0	0	0	2	0	0	1	0	0
OTU 43	0	0	0	0	0	0	0	0	0	0	0	0	0	0	0	0	0	0	0	0	0	0	0	0	0	0	0	0	0	0	0	0	0	0	0	0	0	0	0	0	0	0	2	4	0	0	0	0	0	0
OTU 44	2	0	0	0	0	0	0	1	0	0	0	2	0	10	0	3	0	0	0	0	1	0	1	0	0	0	0	0	0	0	2	0	0	0	0	0	1	0	0	0	0	0	0	0	0	3	0	0	0	0
OTU 45	7	0	0	0	2	0	3	0	0	0	1	0	2	3	0	8	1	5	0	110	12	0	1	56	0	1	0	0	0	1	1	0	0	0	1	2	1	0	3	0	0	0	4	2	0	0	0	5	0	0
OTU 46	1	0	0	2	0	0	14	0	0	0	0	1	3	0	1	1	4	2	2	0	0	1	0	118	9	0	19	0	0	1	1	2	0	0	3	0	0	5	0	5	0	0	0	1	3	0	0	1	1	2
OTU 47	0	0	0	1	0	0	5	2	0	0	1	0	4	0	1	0	2	0	0	0	0	0	2	0	0	0	0	1	0	0	0	0	2	0	0	0	0	0	2	2	0	0	1	0	0	0	0	0	3	0
OTU 48	1	0	1	1	1	0	1	0	0	6	0	0	0	5	0	1	2	0	1	1	4	0	2	0	2	1	4	4	3	3	0	1	0	1	76	0	2	3	1	1	0	1	3	2	1	0	0	2	3	0
OTU 49	2	0	3	0	0	0	5	0	0	0	0	0	0	0	0	2	0	0	0	0	1	0	0	0	0	0	0	0	73	4	1	1	0	0	0	1	0	0	0	0	1	0	0	1	0	0	0	0	0	0
OTU 50	3	0	1	1	2	1	1	4	0	4	0	6	6	1	4	5	3	0	2	3	17	1	7	0	0	0	4	6	0	2	1	0	4	0	5	0	1	0	2	1	0	5	0	4	4	1	0	0	5	2
OTU 51	0	4	0	0	3	0	3	1	3	0	0	4	0	1	0	0	0	0	0	0	1	0	8	0	0	1	0	0	2	0	0	0	0	0	0	0	2	3	2	0	4	5	2	0	4	15	0	3	4	1
OTU 52	2	2	3	1	2	0	6	0	6	4	1	1	2	6	1	3	6	0	0	8	2	1	1	0	2	3	1	4	6	4	1	5	2	5	3	2	0	3	0	4	2	1	18	2	0	2	39	0	1	1
OTU 53	0	0	0	0	0	0	0	0	0	0	0	0	0	0	0	1	0	0	0	0	0	0	0	0	0	0	0	0	0	0	0	0	0	0	0	0	0	0	0	0	0	0	0	0	0	0	0	0	0	0
OTU 54	2	25	1	1	1	3	1	1	2	0	99	1	3	13	1	9	9	4	5	5	26	0	4	0	9	1	1	0	2	4	7	3	8	1	0	3	0	1	4	2	4	1	2	4	7	6	2	1	0	0
OTU 55	0	0	0	0	0	0	0	0	0	0	0	0	0	0	0	0	0	0	0	0	0	0	0	0	0	0	0	0	0	0	0	0	0	0	0	0	0	0	0	0	2	0	0	0	0	0	0	0	0	0
OTU 56	0	2	0	1	1	0	0	0	0	0	0	0	0	1	0	0	0	0	0	0	5	0	0	0	0	1	0	0	0	0	0	0	0	0	4	0	0	3	0	0	0	0	0	3	0	0	2	0	0	0
OTU 57	1	1	6	0	0	1	2	26	0	0	0	4	11	3	1	2	0	9	9	3	8	0	0	0	8	8	6	6	5	10	8	3	1	0	4	2	7	1	2	2	3	12	6	1	10	2	0	5	1	2
OTU 58	0	0	4	0	0	0	0	0	2	0	0	1	0	5	0	0	0	0	0	0	0	0	0	0	46	0	0	0	0	1	0	0	0	0	4	0	1	0	0	1	0	0	0	3	1	4	0	1	0	0
OTU 59	2	0	0	0	0	1	0	0	0	0	2	0	1	1	0	3	1	0	0	0	1	0	0	0	3	0	0	0	0	0	5	1	0	0	0	0	0	2	0	0	1	0	4	2	0	0	0	2	3	1
OTU 60	5	1	2	1	5	1	0	0	1	0	1	0	0	0	1	2	0	5	0	4	7	3	2	2	1	2	2	7	2	1	2	5	0	2	2	3	0	3	1	0	0	0	5	3	0	4	0	2	1	1
OTU 61	1	8	16	3	14	71	22	7	0	12	4	7	12	7	12	1	2	15	8	0	9	4	10	4	1	18	3	7	8	1	1	8	2	7	7	5	0	21	19	7	2	9	1	6	2	11	2	20	10	1
OTU 62	0	0	0	0	0	0	0	0	0	0	0	0	0	0	0	0	0	0	2	0	0	0	0	1	1	0	0	0	1	2	0	0	0	0	0	0	0	0	0	0	0	0	0	0	0	0	0	0	0	0
OTU 63	0	0	0	0	8	4	0	0	1	0	0	0	2	0	0	0	1	0	0	0	0	0	0	0	0	0	0	3	0	1	6	0	0	0	0	1	0	0	0	0	0	1	0	9	1	0	1	1	0	0
OTU 64	3	0	2	1	9	5	1	0	0	8	1	0	0	7	1	0	2	2	0	3	11	8	2	1	1	1	0	1	1	2	0	9	113	6	0	1	4	3	2	0	3	0	37	10	2	0	0	2	3	2
OTU 65	0	0	0	0	0	0	0	0	0	0	0	0	0	0	0	0	0	0	0	2	0	0	0	0	0	0	0	0	0	1	0	0	0	0	0	0	0	0	0	0	0	0	0	0	0	0	0	0	0	0
OTU 66	0	1	0	1	23	8	1	1	1	11	2	0	0	0	1	1	6	3	1	1	0	0	0	0	2	0	0	1	4	2	1	11	3	3	1	0	0	1	4	5	1	2	1	16	0	1	3	0	2	1
OTU 67	0	0	0	0	20	10	0	0	0	2	0	0	29	2	1	1	1	1	1	4	0	0	3	0	6	1	0	0	2	0	1	1	0	1	2	0	0	3	2	2	0	1	0	22	7	0	7	0	0	39
OTU 68	0	0	1	0	1	0	3	0	0	0	1	0	0	0	0	0	1	0	0	0	0	0	0	0	0	0	0	10	0	0	1	0	2	2	0	0	0	1	0	2	0	0	0	0	0	0	0	1	0	0
OTU 69	11	1	0	0	0	3	0	1	0	0	2	2	0	8	0	16	0	1	2	2	6	1	50	0	2	0	0	1	8	1	1	1	0	1	0	0	6	0	2	6	0	39	1	1	0	0	0	5	1	1
OTU 70	3	1	0	0	1	0	0	3	0	3	0	0	0	4	3	0	1	6	3	0	0	1	7	0	0	2	1	1	0	0	4	3	0	0	2	2	0	0	1	0	0	0	1	1	1	1	1	0	0	0
OTU 71	0	0	1	0	0	0	5	2	0	0	0	0	1	0	1	0	0	0	0	2	1	0	0	0	0	0	0	4	13	3	0	2	0	3	0	0	1	0	1	4	0	1	2	0	0	0	0	0	0	1
OTU 72	3	0	0	23	6	4	1	0	0	0	0	0	0	1	0	1	24	2	5	1	1	14	0	2	3	0	2	1	2	1	0	0	12	0	50	0	0	2	0	8	0	1	0	9	0	1	0	0	1	0
OTU 73	36	1	0	3	0	5	0	1	1	0	0	0	0	0	0	0	2	0	0	0	1	0	4	0	0	1	2	1	0	0	0	0	2	0	0	0	4	1	0	0	1	0	1	5	0	0	1	0	1	0
OTU 74	2	0	9	0	1	2	12	0	0	0	7	0	3	0	0	1	1	1	1	9	3	0	4	2	11	5	4	10	0	6	11	1	1	0	0	6	2	1	1	0	1	2	4	0	1	0	0	9	4	0
OTU 75	20	0	6	0	0	2	0	1	2	3	2	1	4	7	2	1	1	1	2	0	0	0	0	6	0	2	3	0	0	2	0	4	0	0	0	6	2	0	3	2	2	0	3	3	1	0	0	1	0	3
OTU 76	0	0	1	0	1	2	2	1	0	12	0	0	1	0	0	0	1	0	0	0	10	0	0	0	0	0	1	0	0	0	0	0	1	1	0	0	10	0	1	15	2	1	2	0	1	0	0	0	0	0
OTU 77	2	0	0	1	2	1	5	0	2	1	0	1	0	0	0	0	0	6	0	1	2	0	0	1	1	0	1	9	6	6	0	3	1	0	0	0	0	0	0	3	0	0	0	2	1	0	1	3	2	0
OTU 78	5	0	5	1	12	8	3	0	5	1	3	0	2	2	14	4	4	7	1	0	7	1	2	1	2	5	0	1	0	0	1	1	0	0	7	0	0	0	3	4	0	4	1	14	1	0	5	9	5	3
OTU 79	3	1	19	1	7	2	8	8	4	7	5	2	12	21	7	2	6	61	12	9	6	2	11	6	4	56	4	7	2	58	2	2	3	4	2	4	1	3	10	8	6	4	5	17	4	3	4	5	3	5
OTU 80	1	0	3	2	1	5	3	0	1	0	1	0	0	28	1	0	0	3	0	4	2	0	1	4	2	3	5	2	6	0	0	0	0	1	3	2	17	0	0	0	4	0	0	5	9	1	2	2	0	7
OTU 81	2	3	1	0	0	3	0	1	1	3	2	0	2	4	0	7	0	2	12	1	1	2	0	0	4	0	14	0	12	3	0	6	32	8	1	0	1	1	0	2	1	0	0	3	2	3	0	3	2	1
OTU 82	0	0	0	0	3	0	0	1	0	6	0	0	2	16	0	3	0	0	4	0	4	4	2	0	2	0	0	0	1	0	0	0	1	0	2	0	10	4	0	4	8	0	0	1	0	0	0	1	0	39
OTU 83	0	0	2	0	0	0	0	0	0	0	0	0	0	0	0	1	0	0	0	0	4	3	0	0	0	0	4	0	0	0	0	0	0	0	0	0	0	0	0	0	0	0	0	0	0	0	0	0	0	0
OTU 84	2	0	0	0	0	1	2	0	3	0	0	0	0	1	0	2	0	0	0	5	0	0	0	0	0	0	0	0	0	2	0	8	0	6	1	0	0	0	0	1	0	0	0	1	3	0	2	0	1	2
OTU 85	0	0	0	0	0	0	0	1	0	0	0	1	0	0	1	0	0	0	3	0	0	0	0	0	0	0	5	0	0	1	1	0	0	0	0	0	0	1	1	0	0	1	2	0	0	2	0	0	3	0
OTU 86	0	0	0	0	0	0	0	0	0	0	0	0	0	0	0	0	0	0	0	1	0	0	0	0	0	0	0	0	0	0	6	0	0	0	0	0	0	0	0	0	0	0	1	0	0	0	0	0	0	0
OTU 87	0	0	0	0	1	3	0	0	0	4	0	0	0	0	0	1	0	0	42	0	0	0	0	0	0	0	0	0	2	0	0	0	0	1	2	0	0	0	0	2	0	0	4	13	0	0	2	0	0	0
OTU 88	0	0	0	2	0	0	0	0	0	0	0	0	0	0	0	0	0	0	0	0	0	0	0	0	0	0	0	0	0	0	4	0	0	0	0	0	0	0	0	0	0	0	1	0	0	0	0	0	1	0
OTU 89	1	0	0	0	0	0	0	1	0	15	0	0	0	2	1	0	0	3	0	0	0	0	0	0	0	0	0	0	0	0	0	4	0	0	0	1	0	0	2	0	1	1	0	3	0	1	0	0	1	6
OTU 90	0	0	0	1	0	0	1	0	0	0	0	0	0	0	0	0	0	0	0	1	0	0	0	1	0	0	0	0	0	0	0	0	0	0	0	0	0	10	0	1	0	0	0	0	0	0	0	0	0	0
OTU 91	0	0	4	0	0	0	0	0	0	0	0	0	0	0	0	0	0	0	0	0	0	0	0	0	0	0	0	0	0	0	2	0	0	0	0	0	0	0	0	0	0	0	0	0	0	0	0	0	0	0
OTU 92	0	0	0	0	2	0	0	0	0	0	1	1	0	0	0	0	0	0	0	0	0	0	0	0	0	0	1	0	0	1	0	0	0	0	0	1	1	0	0	0	0	0	0	0	0	3	0	4	0	0
OTU 93	0	0	0	0	0	0	0	0	0	0	0	0	0	2	0	0	0	0	0	0	0	0	0	0	0	0	0	0	1	0	1	0	0	0	0	0	0	0	0	0	0	0	0	0	2	0	0	0	0	1
OTU 94	1	1	2	33	7	1	19	0	0	5	0	2	0	0	0	12	70	1	0	0	0	37	1	7	6	1	4	2	9	31	5	6	33	0	1	0	4	2	1	3	4	2	10	9	3	4	26	4	1	2
OTU 95	0	1	0	0	0	0	0	0	0	1	0	1	0	0	0	0	0	0	0	0	0	0	0	0	0	0	2	0	0	0	3	0	0	0	5	0	3	4	0	0	1	0	0	2	0	1	0	0	0	0
OTU 96	0	0	0	0	0	0	0	0	0	0	0	0	0	0	0	0	0	0	0	0	0	0	0	0	0	0	0	0	0	0	0	0	0	0	0	0	0	3	0	0	0	0	0	0	0	0	0	0	0	0
OTU 97	0	0	0	0	0	0	0	0	0	0	0	0	0	1	0	0	0	0	0	0	0	1	0	0	0	0	0	0	0	0	0	0	0	0	0	0	0	0	0	0	0	0	0	0	0	0	1	0	1	0
OTU 98	3	0	0	0	1	0	0	0	0	0	0	0	0	0	0	0	0	0	0	0	5	1	3	0	2	0	0	1	2	1	1	0	0	0	1	0	0	0	0	0	0	0	0	0	0	0	0	0	0	0
OTU 99	8	2	0	0	0	3	2	1	1	13	3	5	0	4	1	2	3	1	1	1	12	0	1	1	0	0	7	0	3	0	2	0	3	1	1	0	28	5	5	35	9	2	0	0	6	2	0	5	0	1
OTU 100	0	0	2	0	0	1	2	2	2	0	0	0	0	1	1	7	0	2	0	0	0	0	0	0	1	0	0	0	3	0	3	4	0	0	0	1	52	1	1	3	15	1	0	3	1	0	4	0	0	0
OTU 101	1	0	1	0	0	0	0	0	0	0	0	0	0	0	0	0	2	1	0	7	0	0	0	0	0	0	0	0	0	1	0	0	0	0	0	0	0	0	0	0	0	0	0	0	0	0	0	0	0	0
OTU 102	1	0	0	0	0	0	0	0	0	0	1	0	0	0	0	0	0	0	6	0	1	0	0	0	0	0	0	2	2	0	0	1	0	0	0	0	0	0	0	0	1	0	0	0	0	0	0	1	0	0
OTU 103	2	0	0	0	0	5	0	1	1	0	0	0	0	1	0	0	1	4	1	1	3	0	0	0	3	5	1	3	0	1	0	0	0	0	0	0	1	0	0	2	22	0	6	0	1	2	1	0	0	0
OTU 104	8	0	3	0	3	0	1	3	2	2	0	0	1	2	4	1	0	4	3	8	5	2	0	0	0	1	0	1	4	2	1	2	1	0	4	0	0	1	9	0	0	1	4	0	0	0	1	0	2	1
OTU 105	3	2	1	0	0	1	0	1	6	1	0	0	0	0	0	1	0	0	0	0	0	0	0	0	0	0	0	0	0	0	0	0	0	0	0	0	0	0	0	0	0	0	0	2	0	0	0	0	0	0
OTU 106	0	0	0	0	0	0	0	0	0	2	0	0	0	0	0	0	0	0	0	0	0	0	1	0	0	0	0	0	0	0	0	0	0	0	0	0	0	0	0	0	0	0	0	0	0	1	0	0	0	0
OTU 107	1	0	0	0	1	0	1	0	0	0	12	0	2	3	1	0	0	1	0	0	4	0	0	8	2	0	0	0	0	0	0	2	0	1	0	5	3	0	0	0	0	0	0	0	0	0	0	17	0	0
OTU 108	0	2	1	0	0	0	8	0	0	2	0	0	1	0	0	2	0	1	0	0	10	0	2	0	3	0	1	0	0	0	2	0	0	0	1	0	0	0	0	0	1	1	0	4	0	0	1	0	0	0
OTU 109	0	0	0	0	0	0	0	0	0	0	0	0	0	0	0	0	0	0	0	0	0	0	3	0	0	0	0	0	0	0	0	0	0	0	0	1	0	0	3	0	0	0	0	0	0	0	0	0	0	0
OTU 110	0	0	1	1	0	0	1	0	0	0	1	0	0	0	0	2	1	1	2	0	2	0	1	0	1	0	7	1	0	1	2	0	0	0	2	3	1	1	0	0	1	0	0	5	1	1	23	1	0	1
OTU 111	0	0	0	1	0	0	0	0	0	0	0	0	0	0	0	0	0	0	2	0	0	5	0	0	4	0	0	0	0	0	0	0	0	0	0	0	0	0	0	0	0	0	6	0	0	0	0	0	8	0
OTU 112	0	1	2	0	1	0	0	1	0	0	0	0	1	9	1	7	0	1	3	0	0	0	1	1	0	4	1	0	0	3	1	0	0	0	0	0	0	2	1	0	0	0	1	1	1	0	1	0	2	2
OTU 113	0	0	0	0	0	0	0	0	0	0	0	0	0	0	0	4	0	0	4	0	0	0	0	0	0	0	1	0	0	0	0	0	0	0	0	0	0	0	0	0	0	0	2	0	0	0	0	0	0	0
OTU 114	0	2	0	4	1	4	0	4	1	1	1	7	1	1	2	5	0	0	5	5	6	0	0	0	1	1	6	3	1	0	3	4	0	1	0	2	0	13	4	5	0	132	1	4	0	11	17	3	3	8
OTU 115	2	1	5	3	1	0	3	5	6	8	6	2	10	1	4	16	0	2	8	6	1	2	0	1	5	1	0	3	1	9	6	0	3	5	0	2	6	1	3	5	25	2	1	6	4	3	2	11	0	0
OTU 116	1	18	1	12	4	2	0	17	8	4	0	36	39	2	18	0	14	0	13	0	6	21	17	4	0	3	0	1	3	0	1	0	8	5	28	2	3	13	38	0	0	17	0	3	1	27	1	3	0	0
OTU 117	10	1	1	1	1	0	0	0	0	0	0	3	1	0	0	0	1	6	0	1	1	0	0	0	5	2	1	0	0	4	0	0	1	1	1	0	0	3	3	0	0	0	2	11	0	2	0	1	1	12
OTU 118	0	0	0	0	0	0	0	0	0	0	0	0	1	1	0	0	0	0	0	0	0	0	0	0	0	1	0	0	17	0	5	0	0	0	0	0	0	0	0	1	0	0	0	0	0	0	0	0	0	0
OTU 119	0	2	3	0	2	5	3	1	1	0	0	0	2	1	2	0	0	9	17	3	0	0	1	1	6	6	1	2	1	1	2	2	0	0	0	0	1	2	0	6	0	2	4	3	2	1	7	1	2	5
OTU 120	1	0	4	0	0	0	2	0	0	0	0	0	0	0	0	0	0	4	0	2	0	0	0	0	0	0	0	0	0	0	0	0	0	0	0	1	1	0	0	0	1	0	1	0	0	0	0	0	1	3
OTU 121	0	1	0	0	1	77	1	0	1	0	1	0	0	0	0	1	2	0	1	4	1	0	0	0	4	0	2	1	13	0	1	0	0	0	0	0	0	0	0	0	0	0	3	3	6	2	0	0	0	4
OTU 122	8	0	0	78	0	0	2	0	39	0	1	0	4	0	0	7	2	1	0	8	3	2	0	0	0	4	10	0	1	2	8	0	2	0	0	0	2	0	0	4	0	1	0	0	2	0	1	0	0	0
OTU 123	4	7	1	0	0	3	11	8	11	2	1	1	5	5	2	8	2	1	1	2	8	2	3	1	13	1	6	8	2	12	8	4	0	1	9	3	0	3	6	3	2	7	1	0	3	3	9	0	94	5
OTU 124	0	0	0	0	1	0	0	0	3	0	0	0	0	2	0	5	0	0	0	0	0	0	0	0	0	0	0	0	1	0	0	1	0	0	0	0	0	0	0	0	0	0	0	0	0	0	0	0	0	2
OTU 125	1	3	10	3	2	3	18	4	7	1	4	1	8	6	7	6	3	19	7	0	8	6	8	2	19	5	8	2	7	8	1	7	6	2	4	2	2	6	9	1	83	5	10	9	1	0	7	3	3	1
OTU 126	0	0	0	0	0	0	0	0	0	0	0	0	0	0	0	0	2	1	0	0	0	0	2	0	0	0	0	0	0	0	1	1	0	0	0	0	0	0	0	4	0	0	0	0	0	0	0	0	1	1
OTU 127	2	0	0	0	2	0	7	0	1	1	6	0	0	1	0	0	1	0	2	1	0	0	0	1	0	0	4	4	3	3	1	3	0	0	0	6	2	0	0	0	0	0	1	2	3	0	1	12	7	0
OTU 128	1	12	3	2	42	7	6	4	12	46	3	7	4	21	1	11	1	7	5	8	14	68	4	3	20	3	5	14	5	9	33	5	0	8	1	5	6	8	4	8	0	0	32	13	5	16	0	9	4	7
OTU 129	0	0	0	0	0	0	0	0	0	0	0	0	3	0	0	0	6	1	0	0	0	0	0	0	3	0	0	0	0	0	2	0	0	0	10	0	1	0	0	5	0	0	0	0	0	0	0	0	2	0
OTU 130	0	0	35	1	0	2	1	0	0	0	6	0	1	0	2	0	2	0	0	0	8	0	3	1	0	0	1	0	0	2	0	0	1	0	1	0	1	5	0	1	0	1	1	2	4	0	1	8	2	0
OTU 131	0	0	4	0	0	1	0	1	0	1	0	1	0	2	11	0	0	0	0	5	0	0	0	0	0	0	1	6	0	0	53	0	0	0	0	0	0	1	2	6	0	1	33	0	0	2	1	0	5	1
OTU 132	0	1	8	0	0	0	0	0	1	0	0	1	0	5	1	0	0	1	1	0	0	0	2	0	0	0	0	57	1	0	0	0	0	0	0	0	0	0	1	1	0	0	0	1	0	1	1	0	0	0
OTU 133	4	0	0	0	0	0	0	0	0	0	0	1	0	2	0	0	0	0	0	0	0	0	0	0	0	1	0	0	0	0	0	1	0	3	0	0	1	0	0	0	4	0	0	0	0	0	0	0	0	0
OTU 134	0	0	1	4	5	0	2	1	0	0	0	0	3	12	0	1	6	1	0	0	1	2	1	0	0	0	0	0	1	0	0	0	0	0	1	0	0	2	3	1	2	1	1	0	1	1	0	0	2	1
OTU 135	0	0	0	3	5	1	2	147	0	4	8	0	1	0	4	1	4	0	0	4	0	3	3	1	2	1	3	0	0	0	0	0	1	0	0	2	1	0	7	5	1	1	1	3	0	0	1	7	1	19
OTU 136	0	0	1	0	1	0	0	0	1	1	1	0	5	0	0	0	0	2	1	11	1	0	1	0	0	1	0	8	1	0	0	5	0	0	0	2	0	0	0	0	0	0	0	1	0	0	0	3	2	8
OTU 137	1	0	0	0	0	0	0	0	0	0	0	0	0	2	0	0	0	0	0	0	0	0	0	0	0	0	0	0	0	0	0	1	0	2	3	0	0	0	0	0	0	0	0	0	0	0	0	0	1	0
OTU 138	0	0	0	0	3	1	0	0	0	0	1	0	0	0	0	1	0	0	2	0	12	0	0	0	2	1	1	0	0	0	0	0	0	0	0	0	0	0	0	0	0	0	0	0	0	0	1	1	0	0
OTU 139	0	12	7	1	5	0	4	3	1	0	0	9	0	1	5	1	1	0	1	1	6	1	0	0	0	3	69	1	11	0	2	2	0	2	2	0	0	1	4	73	0	0	5	2	0	20	5	7	0	0
OTU 140	4	0	1	0	1	14	0	1	5	6	28	0	3	3	1	2	0	5	5	2	5	3	1	6	3	6	10	5	3	3	7	24	1	9	8	9	5	2	3	1	1	0	0	4	1	0	3	28	3	0
OTU 141	0	0	0	0	0	0	0	0	0	0	0	0	0	0	0	0	0	0	0	0	0	0	0	0	0	0	0	0	0	0	0	0	0	0	0	0	0	0	0	0	0	0	0	0	0	0	0	0	0	0
OTU 142	0	0	0	0	0	0	0	0	0	0	0	0	0	0	0	0	0	0	0	0	0	0	0	0	0	0	0	0	0	0	0	0	0	0	0	0	1	0	0	0	0	0	0	0	0	0	0	0	0	0
OTU 143	0	0	0	1	0	0	0	0	0	0	0	0	0	1	0	0	0	0	0	0	0	0	0	0	0	0	0	0	0	0	0	1	0	0	0	0	0	0	0	0	0	0	0	0	0	0	0	0	0	0
OTU 144	0	0	0	0	0	0	1	0	1	0	0	0	0	1	0	0	0	0	2	0	0	0	0	0	0	0	2	0	0	0	1	0	0	0	1	1	3	0	0	0	0	0	0	0	0	0	0	4	0	0
OTU 145	4	2	1	5	0	0	3	7	3	1	0	3	9	6	13	0	10	27	5	0	0	9	10	0	3	5	2	0	16	1	0	3	6	0	6	0	1	2	16	0	78	12	1	1	0	4	0	0	2	6
OTU 146	0	1	2	0	0	0	1	1	0	10	1	0	1	1	0	1	2	1	0	0	1	1	2	0	12	1	5	10	5	0	2	0	1	1	1	0	0	0	2	0	0	2	2	0	1	1	0	0	0	0
OTU 147	2	0	0	0	0	0	0	0	0	0	4	0	2	0	0	1	0	2	1	0	0	0	0	2	2	1	0	5	0	2	0	0	0	1	0	2	2	0	1	0	0	0	0	2	0	0	0	10	0	0
OTU 148	0	42	3	0	0	0	0	0	0	0	4	22	0	1	98	2	2	0	0	0	0	0	0	1	5	0	1	1	0	1	2	3	0	2	4	4	13	42	0	3	0	1	0	0	3	47	0	5	7	0
OTU 149	0	0	0	0	1	0	4	0	4	0	0	0	1	6	0	0	0	0	1	0	0	0	0	1	1	1	0	0	0	0	0	0	0	0	0	1	0	0	0	0	0	0	0	0	0	0	0	1	7	0
OTU 150	0	0	0	0	1	0	1	0	0	5	0	0	0	0	0	0	0	0	0	1	0	0	0	0	0	1	1	0	0	0	0	0	0	0	0	1	1	0	0	1	0	0	0	0	0	0	0	0	0	1
OTU 151	0	2	0	103	1	0	2	2	1	1	0	2	0	0	0	4	0	1	0	0	7	0	0	0	0	0	0	8	2	2	0	0	0	0	0	0	1	0	0	1	0	0	1	1	0	6	2	0	1	0
OTU 152	0	0	1	2	15	0	2	1	1	1	0	6	2	0	4	0	7	1	2	1	0	5	0	0	5	2	2	0	3	5	4	1	1	6	0	0	0	36	3	0	0	3	0	0	0	24	0	0	0	0
OTU 153	0	0	1	0	0	0	0	2	0	0	0	0	0	0	0	0	0	0	1	0	1	0	0	0	0	0	0	0	0	0	0	0	0	0	0	0	0	0	0	2	0	0	0	0	0	0	0	0	0	0
OTU 154	0	0	0	0	0	0	4	1	0	0	0	1	0	0	0	0	1	1	0	0	0	0	0	0	0	4	0	0	0	0	0	0	0	0	0	0	0	0	0	1	0	0	0	0	0	3	0	0	0	0
OTU 155	0	0	0	1	0	0	0	1	3	0	0	0	0	0	1	1	0	0	2	0	0	0	0	0	7	0	3	1	0	3	2	1	1	1	1	3	0	0	1	0	0	0	0	0	0	4	0	0	0	0
OTU 156	2	0	1	2	8	5	3	0	18	7	0	1	3	28	4	50	0	3	0	0	6	0	1	0	1	0	3	0	0	3	7	3	0	1	0	1	0	4	2	1	0	2	6	1	1	6	6	0	1	0
OTU 157	1	0	0	0	0	0	0	0	0	11	0	0	0	7	0	0	0	0	1	5	0	1	0	0	0	0	0	0	0	0	0	0	0	0	0	0	0	0	0	2	4	0	0	4	1	0	0	0	2	0
OTU 158	0	0	0	0	0	0	0	0	0	0	0	0	0	0	0	0	0	2	0	0	0	0	0	0	0	0	1	0	0	0	0	0	0	0	0	0	0	0	0	0	0	0	0	0	0	0	0	0	0	0
OTU 159	2	1	0	1	0	0	1	0	0	1	1	0	1	2	0	3	0	9	0	0	0	0	0	0	0	2	2	20	3	6	3	0	0	0	0	0	1	0	1	1	1	1	1	1	0	0	0	0	0	0
OTU 160	4	2	0	0	3	3	60	1	0	18	0	8	1	1	0	8	1	4	4	6	0	0	1	0	1	5	1	1	0	0	2	2	0	9	4	0	0	8	1	1	2	2	7	5	0	3	2	2	4	0
OTU 161	0	0	0	0	4	4	0	1	2	11	0	1	0	1	0	1	1	0	0	31	2	0	3	0	0	0	16	2	0	0	0	43	1	10	0	0	4	4	2	11	4	1	4	2	1	1	0	0	3	13
OTU 162	0	1	2	0	0	2	1	0	3	0	0	1	0	0	0	0	1	13	8	1	0	0	2	0	9	10	13	1	0	0	1	5	0	1	6	0	1	0	1	0	0	0	1	0	1	0	0	1	1	4
OTU 163	0	0	0	0	0	2	0	0	0	0	0	0	0	0	0	0	0	0	5	0	0	0	1	0	0	0	0	0	0	0	0	0	0	0	0	0	0	0	0	0	0	0	0	0	0	0	0	0	0	0
OTU 164	0	0	0	0	0	0	0	0	0	0	0	0	0	0	0	0	0	0	0	0	0	0	0	0	0	0	0	0	4	0	0	0	0	0	0	0	0	0	0	0	0	0	0	0	0	0	0	0	0	0
OTU 165	0	0	0	0	7	1	0	0	0	0	0	0	0	0	0	0	0	0	0	1	3	0	0	0	2	1	0	0	1	0	0	4	0	2	0	0	0	0	0	0	0	0	0	9	0	0	0	0	0	5
OTU 166	0	0	0	0	0	0	0	0	0	0	0	0	0	0	0	0	0	0	0	0	0	2	0	0	1	0	0	1	0	0	0	1	0	1	0	0	0	0	0	0	0	0	0	0	0	0	0	0	0	0
OTU 167	2	2	0	0	3	0	0	1	0	0	0	5	2	2	0	1	0	1	0	2	3	0	2	0	0	31	0	1	0	0	0	0	1	0	0	1	1	1	0	5	0	1	0	0	2	2	0	1	0	0
OTU 168	0	116	1	0	2	0	7	1	2	0	2	0	2	0	0	2	0	0	0	0	0	0	0	2	1	0	0	5	0	0	0	0	0	1	2	9	0	1	5	0	0	1	0	1	0	2	1	8	3	0
OTU 169	2	0	0	0	0	0	0	0	0	0	0	0	0	0	0	0	0	0	0	0	0	0	0	0	0	0	0	0	0	0	0	0	0	0	0	0	0	0	0	0	0	0	0	0	0	0	0	0	0	0
OTU 170	0	0	0	0	0	0	0	0	0	0	0	0	0	0	0	0	0	0	0	0	0	0	0	0	0	0	0	0	0	0	0	0	0	0	0	0	0	0	0	0	0	0	0	0	0	0	0	0	0	0
OTU 171	0	1	2	0	16	23	0	0	2	0	0	0	0	0	0	1	0	1	6	11	0	0	0	0	1	0	2	2	6	0	0	0	0	0	1	0	0	0	0	0	0	0	1	26	0	0	8	0	1	6
OTU 172	1	0	0	0	0	0	0	0	1	0	0	0	0	0	0	1	0	0	0	0	0	0	0	0	0	1	0	0	1	0	1	3	0	1	0	0	0	0	0	0	0	0	0	0	0	0	0	0	0	0
OTU 173	0	0	0	2	0	0	0	2	1	0	0	0	0	1	0	0	4	0	0	0	4	2	0	0	0	2	0	0	3	0	0	1	4	0	0	0	0	1	0	0	0	0	0	0	0	0	0	0	1	0
OTU 174	0	0	2	0	0	1	8	0	0	11	0	0	2	1	0	2	0	5	1	0	3	1	1	2	2	0	0	0	0	3	0	0	1	0	0	0	1	0	0	0	0	0	0	0	0	0	0	2	0	0
OTU 175	3	0	2	0	0	0	0	0	0	1	6	0	1	0	1	0	0	2	0	0	3	0	0	3	1	0	0	1	1	2	0	0	1	1	0	6	1	0	1	0	0	0	0	0	0	1	0	6	0	2
OTU 176	4	12	32	7	5	0	6	1	5	3	3	6	6	0	3	2	1	1	2	2	6	2	110	3	3	1	5	0	1	1	1	3	2	2	4	7	0	0	8	0	0	3	1	0	2	12	1	0	0	4
OTU 177	0	0	2	1	0	1	0	0	1	0	0	0	0	0	1	0	0	0	11	1	5	1	0	2	0	0	0	0	0	1	7	0	0	0	2	3	0	6	7	2	2	0	0	1	1	0	27	1	0	1
OTU 178	3	0	0	0	0	0	0	0	0	1	0	1	2	0	0	9	0	0	0	2	0	0	5	0	0	0	1	0	0	0	0	0	0	1	0	0	3	0	0	0	6	0	1	0	0	0	0	0	0	0
OTU 179	1	0	0	0	1	0	0	0	0	1	2	0	0	0	0	2	0	1	0	0	0	0	0	5	2	1	0	2	7	0	0	1	0	2	3	27	3	0	0	0	0	0	1	0	0	0	0	4	7	0
OTU 180	3	5	4	1	1	3	3	7	1	1	4	0	1	4	5	12	3	0	6	3	5	52	3	1	12	104	5	1	1	1	7	0	2	1	1	0	4	11	7	2	0	6	8	3	2	5	2	2	2	7
OTU 181	2	0	0	0	3	0	0	0	5	0	0	0	88	6	1	3	1	1	0	1	1	0	0	0	1	0	11	0	0	0	1	4	0	2	0	1	0	0	0	0	0	0	1	2	0	1	0	1	0	1
OTU 182	1	0	0	0	0	0	0	0	0	0	0	0	0	0	0	0	0	0	0	1	0	0	0	0	0	0	0	2	0	0	0	0	0	0	3	0	0	0	0	0	0	0	0	0	0	0	0	1	0	0
OTU 183	0	0	0	1	0	0	0	0	0	1	1	0	1	2	0	1	1	0	0	2	2	1	1	0	5	0	2	1	0	1	22	0	0	0	7	0	1	1	0	0	0	0	6	1	0	0	0	2	0	1
OTU 184	0	2	3	0	0	0	0	1	0	1	0	0	1	0	0	0	0	0	0	0	1	0	0	0	0	0	0	0	0	0	0	7	0	8	0	0	0	1	1	0	0	0	0	3	2	0	4	0	0	3
OTU 185	3	0	5	0	6	0	2	1	2	0	0	0	1	0	1	1	1	6	3	0	1	1	5	1	3	0	10	2	1	0	2	4	0	2	2	1	0	0	0	3	0	0	2	3	4	0	1	0	0	0
OTU 186	1	0	0	0	0	0	0	0	0	0	0	0	0	0	1	0	0	1	1	0	2	0	0	0	0	0	0	0	0	1	3	0	0	0	0	0	0	0	0	0	0	0	1	0	0	0	0	0	0	1
OTU 187	17	4	2	22	6	0	0	0	0	4	4	2	1	0	0	1	46	0	9	1	4	24	0	3	3	2	5	0	0	0	0	5	25	2	0	4	8	0	2	1	2	0	2	0	5	3	3	7	30	0
OTU 188	1	2	1	2	7	1	4	4	6	0	10	1	0	0	3	0	4	4	3	9	0	2	3	6	0	5	7	13	1	0	2	1	3	0	2	1	0	3	4	4	0	1	1	3	8	5	0	6	1	11
OTU 189	13	0	0	2	0	0	1	4	17	2	1	0	0	1	0	5	1	1	1	5	0	6	0	0	6	0	1	2	3	0	2	6	0	0	0	0	4	0	2	0	1	0	4	2	4	0	9	3	0	2
OTU 190	0	0	0	0	0	0	0	0	0	1	0	0	0	0	0	0	0	0	2	0	0	0	0	0	0	3	0	1	0	0	0	0	0	0	0	0	0	0	0	0	0	0	0	0	0	0	0	0	0	0
OTU 191	5	1	2	13	0	2	3	0	1	41	0	1	1	2	1	8	12	7	1	0	0	25	0	0	1	0	3	2	10	7	4	0	24	3	4	1	64	0	3	0	12	0	2	0	0	5	0	0	12	2
OTU 192	3	11	23	1	0	5	7	0	0	4	0	15	0	0	0	10	0	3	1	3	0	1	3	0	0	7	8	7	1	1	0	4	1	0	1	3	0	26	0	2	1	0	1	7	1	38	1	6	1	5
OTU 193	0	0	2	0	0	0	0	0	1	0	1	0	0	0	0	1	1	0	7	1	3	0	0	0	3	0	0	0	5	0	0	0	0	1	0	0	0	0	1	0	0	1	0	0	191	1	10	0	0	1
OTU 194	6	0	26	0	2	1	0	2	0	0	1	0	1	0	0	0	0	1	0	0	0	0	0	0	1	1	3	6	0	2	0	0	0	0	0	0	0	3	2	8	0	0	0	0	0	0	0	0	0	4
OTU 195	2	0	0	0	0	0	0	0	0	0	0	1	0	1	1	0	2	0	0	1	2	0	0	0	0	0	2	0	8	1	2	0	1	0	0	0	0	1	1	0	1	2	1	0	12	0	0	1	1	1
OTU 196	2	1	3	0	0	0	3	0	7	1	1	0	0	0	0	0	1	5	0	0	2	0	0	1	1	0	1	0	0	3	2	0	33	0	0	0	0	0	0	0	0	1	5	0	3	0	0	1	1	0
OTU 197	1	0	2	0	3	3	1	0	3	2	0	0	0	1	0	4	3	0	3	10	1	0	2	1	28	1	0	1	3	3	6	3	0	2	1	1	12	0	1	4	1	1	0	3	0	1	1	2	3	57
OTU 198	0	0	0	0	0	0	0	0	0	0	0	0	0	0	0	0	0	0	0	0	0	0	0	0	0	1	0	2	2	1	1	0	0	0	0	0	0	0	0	0	0	0	0	0	0	0	0	0	1	0
OTU 199	0	1	2	0	0	0	0	4	0	0	0	0	3	0	6	0	0	0	0	0	0	0	4	0	0	0	0	3	0	0	0	1	2	0	0	0	0	47	5	0	0	0	0	0	0	0	1	1	4	0
OTU 200	2	3	0	1	0	0	2	0	0	2	0	2	0	0	0	3	1	0	2	0	0	0	0	0	3	0	3	0	1	0	1	1	0	1	1	0	2	1	1	5	3	0	1	1	0	0	0	0	11	2
