	Host 1	Host 2	Host 3	Host 4	Host 5	Host 6	Host 7	Host 8	Host 9	Host 10	Host 11	Host 12	Host 13	Host 14	Host 15	Host 16	Host 17	Host 18	Host 19	Host 20	Host 21	Host 22	Host 23	Host 24	Host 25	Host 26	Host 27	Host 28	Host 29	Host 30	Host 31	Host 32	Host 33	Host 34	Host 35	Host 36	Host 37	Host 38	Host 39	Host 40	Host 41	Host 42	Host 43	Host 44	Host 45	Host 46	Host 47	Host 48	Host 49	Host 50	
OTU 1	0	91	1	226	0	17	208	370	88	159	49	495	3	50	184	65	184	77	209	284	0	157	303	157	25	195	0	224	281	0	153	328	214	14	4	1	107	415	382	214	256	197	38	12	79	0	47	124	54	73
OTU 2	2	14	25	19	6	33	1	5	29	27	3	9	0	14	1	0	2	0	0	0	8	5	1	0	8	0	7	1	25	0	3	0	44	0	1	10	5	1	0	61	2	16	0	4	0	0	0	1	3	0
OTU 3	5	0	5	6	25	0	0	1	11	2	0	1	0	0	0	0	0	0	0	0	3	9	17	0	3	0	0	2	61	0	0	0	0	5	0	0	0	5	1	0	0	3	0	10	19	75	0	0	3	1
OTU 4	0	0	0	0	0	0	0	0	0	0	0	0	0	2	0	0	0	0	0	0	0	0	0	0	4	0	0	0	0	0	0	0	0	0	0	0	0	0	0	0	0	0	0	0	0	0	0	0	0	0
OTU 5	541	114	483	80	386	5	263	174	997	100	37	111	483	203	1057	147	1312	79	1065	492	124	545	85	37	156	1090	148	23	205	1925	120	142	30	206	23	577	228	21	175	82	310	60	195	530	678	30	1234	365	353	1116
OTU 6	21	11	5	59	1	13	0	10	8	0	7	0	14	0	116	1	0	5	3	17	0	13	11	5	0	8	27	2	29	40	53	4	5	53	18	20	18	5	18	6	1	12	54	27	21	36	95	1	0	0
OTU 7	98	19	12	41	187	80	19	36	199	319	289	45	23	42	18	9	28	45	280	20	249	127	63	87	12	52	77	72	553	37	340	8	9	23	16	86	448	335	2	649	53	25	81	453	62	34	4	253	14	7
OTU 8	11	59	30	6	8	68	12	17	27	29	17	84	15	36	133	48	57	17	14	35	107	80	55	25	27	13	27	42	3	15	21	123	23	50	8	117	5	45	11	8	32	126	146	24	59	22	14	55	18	16
OTU 9	39	54	0	0	0	0	0	23	17	0	0	29	12	1	1	17	3	0	8	0	60	0	1	0	1	26	1	17	1	51	31	43	2	9	4	23	7	74	10	0	0	28	5	0	0	42	0	1	0	0
OTU 10	60	0	11	1	4665	6	0	5	121	205	274	6	5	0	0	0	0	0	153	1	0	0	19	0	1	11	6	7	2	138	134	0	12	1	7	0	3	0	16	575	0	6	2	149	0	0	2	430	1725	15
OTU 11	11	20	10	38	4	3	2	17	0	0	2	1	88	1	14	0	43	0	3	11	4	2	16	0	2	47	0	24	27	7	45	0	34	20	59	3	0	78	10	18	207	29	3	12	2	20	5	22	0	1
OTU 12	21	20	0	48	175	33	0	37	24	2	0	18	30	69	0	29	16	1	18	10	25	12	7	4	39	17	11	4	4	1	11	20	29	18	3	58	49	52	16	20	4	21	54	51	12	5	1	2	276	3
OTU 13	0	0	0	0	3	0	0	0	0	0	0	17	0	0	0	2	0	0	0	0	0	0	0	0	0	0	0	0	3	28	0	3	0	0	0	0	0	0	0	0	0	0	0	1	0	0	0	1	0	0
OTU 14	0	8	16	0	13	1	0	0	0	7	23	0	10	3	0	0	1	11	1	0	0	5	1	15	0	3	1	17	36	0	11	0	2	15	18	26	6	43	19	6	0	1	12	98	1	0	8	15	19	4
OTU 15	0	0	0	8	0	0	0	0	0	0	23	0	0	0	1	0	1	0	0	0	1	0	0	0	0	0	0	1	89	0	1	0	0	0	0	2	2	4	0	8	0	0	0	8	0	0	0	10	8	18
OTU 16	0	0	0	0	0	0	0	0	0	0	0	0	0	0	0	0	0	0	5	0	0	0	0	0	0	0	10	0	0	0	0	0	1	0	55	0	0	0	2	0	0	0	0	0	0	0	0	0	0	0
OTU 17	9	1	0	3	5	9	0	2	9	1	23	9	311	8	0	2	1	68	1	4	24	67	13	106	0	0	23	10	2	3	2	2	19	23	0	2	0	35	2	2	10	3	44	0	28	1	0	23	102	3
OTU 18	16	84	6	11	52	40	0	16	12	1	23	11	51	5	3	58	46	3	9	3	0	35	55	7	0	1	3	28	9	196	23	66	24	31	19	21	9	145	114	11	9	53	34	1	15	109	1	24	25	10
OTU 19	0	0	0	0	5	0	0	0	0	0	0	0	0	0	0	0	0	0	0	0	0	0	0	0	0	0	0	0	0	0	0	0	0	0	0	0	2	0	0	0	0	0	0	0	0	0	6	0	0	0
OTU 20	6	81	13	11	35	14	3	28	8	62	15	4	0	0	1	4	10	10	18	28	5	0	2	21	0	35	76	56	35	43	22	113	8	37	5	21	19	45	10	43	3	26	3	20	0	8	2	35	10	33
OTU 21	6	4	48	56	3	71	12	3	54	2	20	20	37	4	6	28	63	3	16	27	1	5	12	3	0	21	35	35	6	9	0	12	16	16	14	24	37	4	29	29	21	4	20	5	1	16	11	0	1	0
OTU 22	42	8	0	18	18	5	35	10	179	1	9	51	236	8	7	5	36	2	22	37	22	115	5	6	13	9	1	3	35	1	23	39	12	4055	13	3	9	60	2	14	0	9	84	155	108	69	24	79	5	0
OTU 23	0	5	17	27	30	1	0	0	0	3	7	4	33	11	2	15	5	1	7	0	5	3	3	3	0	41	8	0	23	1	23	22	0	0	41	58	0	0	16	0	2	13	4	0	0	43	10	83	3	0
OTU 24	1	1	1	11	0	167	12	108	5	0	0	0	7	75	5	17	6	5	0	82	48	13	1	6	49	0	24	11	49	1	9	6	0	73	0	1	0	0	18	15	7	10	0	8	0	5	0	0	4	1
OTU 25	3	0	0	0	0	17	0	0	0	0	0	0	0	0	2	3	0	0	20	0	0	0	0	0	0	0	0	0	0	0	0	0	0	2	0	0	0	0	0	0	0	0	0	0	0	0	0	3	0	0
OTU 26	3	0	0	0	0	68	0	4	7	0	0	19	1	0	0	6	12	0	0	0	57	33	7	0	0	2	0	0	0	5	24	74	0	0	18	17	2	87	0	0	0	0	16	0	7	0	3	0	6	0
OTU 27	0	0	0	0	62	0	4	2	0	0	0	0	0	0	3	0	0	0	0	23	0	0	0	0	0	0	0	0	0	1	0	6	0	0	0	0	0	6	2	0	3	0	0	0	0	0	0	0	0	0
OTU 28	14	26	4	48	58	8	7	1	19	2	14	174	31	73	30	7	88	21	21	0	37	5	207	49	3990	7	94	38	34	1	64	65	52	20	88	4	6	11	12	109	1	9	15	5	18	0	7	6	32	90
OTU 29	30	21	67	62	7	33	1	19	16	3	1	22	2	36	6	5	54	1	0	26	107	0	25	6	21	42	1	20	7	34	4	9	32	0	56	35	43	10	14	15	5	11	57	429	0	161	11	45	3	16
OTU 30	0	0	0	0	0	0	0	13	0	18	0	0	0	0	0	0	0	0	0	0	0	0	0	0	0	0	0	0	0	0	0	0	0	0	0	28	0	0	0	0	0	0	0	0	9	0	0	0	0	0
OTU 31	167	1	0	22	0	0	3	15	405	458	548	3	2	28	1	0	37	5	424	2	7	14	2	9	7	16	9	0	2112	7	276	1685	0	28	0	0	814	949	0	842	3	14	0	65	0	0	4	447	2	0
OTU 32	4	33	6	29	12	109	130	18	4	12	19	11	13	1	67	0	22	14	45	331	99	25	0	39	0	12	42	25	88	52	22	63	66	7	84	26	67	14	1049	89	35	21	68	31	12	92	12	17	9	29
OTU 33	0	0	0	0	0	0	0	0	0	0	0	0	0	0	0	0	1	0	4	0	17	7	0	1	0	15	0	0	0	0	0	1	0	2	0	0	1	0	0	0	0	0	3	0	0	0	0	0	0	0
OTU 34	1712	20	8	4	4	7	0	20	7	41	30	21	65	3	0	21	0	2	20	2	17	12	1	6	9	71	161	61	24	0	37	141	24	3	10	19	88	2	17	27	2	15	31	19	2	36	0	75	5	15
OTU 35	6	41	3	27	19	15	20	0	0	283	33	0	8	0	67	5	4	21	18	0	46	56	4	49	0	0	76	18	21	0	1	9	8	69	27	3	9	29	21	6	7	16	4	26	29	120	28	11	31	5
OTU 36	6	4	6	3557	2	20	37	23	0	0	74	11	14	0	19	4	3	7	12	0	14	43	20	11	0	7	0	3	55	18	7	3	2	52	0	8	3	1	27	86	14	29	0	48	32	2	0	11	37	5
OTU 37	0	0	0	6	1	0	0	72	3	0	0	1	0	0	1	1	2	0	0	7	0	5	2	0	0	0	0	77	0	0	10	0	0	16	0	6	14	2	2	4	0	0	0	0	0	4	0	16	0	0
OTU 38	46	627	8	416	20	52	203	1024	108	170	68	1267	18	274	284	3581	301	304	82	464	0	442	471	608	113	461	22	238	292	0	69	821	316	42	7	14	49	320	273	126	390	219	26	0	248	122	121	95	251	82
OTU 39	0	0	2	0	4	1	42	0	4	0	16	2	4	40	0	0	27	0	3	0	59	5	0	0	8	1	0	0	6	0	0	0	0	0	0	39	12	33	11	1	0	4	0	3	0	17	2	0	0	1
OTU 40	5	5	10	33	1	18	22	69	4	19	36	1	16	152	6	2	28	7	83	26	45	0	17	15	72	5	125	4	4	0	21	23	4	0	0	51	25	19	2	74	19	8	29	867	2	46	6	2159	14	2
OTU 41	25	3	0	1	5	68	31	12	24	4	0	0	17	5	0	4	6	1354	3	58	0	10	11	19	0	6	13	11	0	13	4	7	0	16	8	1	23	1	1	3	0	18	24	0	2	40	3	45	24	30
OTU 42	0	3	19	0	7	0	10	1	0	0	8	98	23	0	5	0	87	0	0	0	4	25	0	1	0	0	1	27	1	0	0	8	1	1	7	7	33	3	0	0	7	3545	0	56	26	0	0	0	4	2
OTU 43	0	0	0	0	0	2	0	0	0	0	0	0	0	0	0	0	0	0	0	0	0	0	1	0	0	0	0	0	0	0	0	0	0	0	0	0	0	0	0	0	0	0	0	0	0	0	0	2	0	0
OTU 44	100	2	0	0	54	17	0	0	34	127	33	0	1	1	2	7	3	0	0	1	0	2	0	2	0	11	4	1	0	7	0	0	1981	0	0	5	0	2	29	33	3	0	13	0	2	10	1	0	3	5
OTU 45	37	18	40	7	335	5200	2	36	3	3	24	37	108	6	21	6	15	8	29	10	47	18	43	27	7	13	12	48	2	76	12	30	41	1	109	1	6	39	109	39	19	5	11	134	5	10	3	14	0	5
OTU 46	111	173	14	4	73	2	4	72	3	81	3	37	1	348	4	153	0	14	10	40	18	3	20	23	209	40	26	55	17	78	41	24	18	16	8	18	43	88	11	37	50	138	47	33	7	23	10	2	23	42
OTU 47	2	0	0	7	0	0	1	2	12	0	0	0	0	0	0	0	0	0	1	36	0	0	2	0	0	0	0	0	0	0	0	10	22	6	5	4	0	0	9	33	1862	1	0	2	0	4	0	0	1	0
OTU 48	17	13	8	1	21	9	141	6	5	3	5	6	73	11	267	14	14	8	4	34	74	99	10	8	8	3	40	31	71	3	6	9	1	104	24	0	30	4	9	21	2	40	56	590	512	248	103	633	14	47
OTU 49	0	117	6	4	0	7	1	27	0	0	0	36	0	1	2	86	1	32	0	0	0	7	7	76	1	6	8	3	1	27	1	0	0	1	16	16	4	0	0	6	39	0	0	7	0	9	5	0	6	32
OTU 50	3	15	65	55	69	6	20	17	33	5	28	7	86	11	7	1	1	14	51	1	50	14	61	51	28	5	56	3394	122	2	63	21	23	84	0	128	16	76	59	42	0	1964	24	0	3	50	2	14	24	6
OTU 51	0	23	1	0	0	5	1	7	479	8	13	25	8	1	54	2	29	11	4	13	26	111	1	18	0	3	0	0	54	0	3	17	5	12	39	36	2	1	44	24	0	1	22	1	81	15	586	4	7	0
OTU 52	19	98	67	22	98	54	45	47	59	22	11	16	39	34	25	86	51	2	87	22	135	8	85	14	75	32	142	28	85	169	27	14	35	27	67	55	100	24	74	116	33	39	9	25	7	7	18	49	24	34
OTU 53	0	0	0	0	0	3	0	0	0	0	0	0	0	0	0	0	0	0	0	0	0	0	0	0	0	0	0	0	0	0	0	0	0	0	0	0	0	0	0	0	27	0	0	0	1	0	1	0	0	0
OTU 54	22	143	58	517	50	18	10	11	60	11	421	1735	21	605	476	37	1029	12	15	14	32	830	51	23	355	66	27	10	11	44	44	1048	18	14	28	60	6	65	13	55	6	46	141	17	322	88	211	10	38	94
OTU 55	0	0	0	0	0	0	0	0	0	0	0	0	0	0	0	0	0	0	0	0	0	0	0	0	0	0	0	0	0	0	0	0	0	22	0	0	0	0	0	1	0	0	0	0	1	0	0	0	0	0
OTU 56	56	8	132	0	15	1	0	0	0	4	0	2	52	2	0	0	0	9	2	0	7	27	13	20	0	24	2	3	0	1	8	3	0	58	0	21	19	10	0	2	8	0	19	7	1	1	3	5	10	2
OTU 57	2051	33	18	49	103	91	3	94	37	14	47	118	30	750	22	14	0	5	12	15	115	1669	23	12	325	9	249	66	72	2	3517	16	45	221	81	59	275	10	53	39	31	29	64	24	866	955	17	58	1	18
OTU 58	1	0	11	0	5	10	3	157	3	0	2	1	4	15	14	0	0	18	4	3	2	0	5	23	6	50	43	49	3	10	2	174	7	0	4	3	14	10	4	0	2	13	1	1	3	26	6	0	7	0
OTU 59	0	1	17	5	66	0	391	1977	9	2	35	3	11	7	1	1	0	406	0	983	18	4	301	725	1	1066	5	193	137	11	32	31	479	41	0	6	19	77	1273	36	1173	303	0	20	11	13	0	21	258	193
OTU 60	35	4	0	27	5	55	3	68	4	9	18	32	16	74	70	8	2	16	15	11	11	30	15	26	42	41	14	78	16	107	91	24	26	8	34	38	19	56	10	53	16	20	1	5	17	12	62	4	18	3
OTU 61	3	49	133	39	150	131	21	26	9	16	23	54	0	33	16	9	29	40	91	102	19	15	24	67	20	34	30	88	3	15	12	43	16	50	60	56	4	36	62	32	38	33	50	17	23	23	11	5	54	22
OTU 62	0	1	0	3	14	1	1	3	0	0	0	26	0	4	2	2	3	17	44	0	0	0	0	31	2	0	0	0	9	0	25	0	8	6	2	7	0	18	2	63	2	3	31	1	1	0	0	0	21	8
OTU 63	22	4	26	15	12	3	10	18	0	0	1	5	1	0	0	7	20	99	0	0	0	23	16	197	0	0	0	12	2	7	0	0	69	38	36	4	0	64	0	1	14	0	3	5	15	44	2	3	107	33
OTU 64	18	235	42	100	32	80	19	5	21	57	35	25	27	37	224	103	16	10	10	41	65	31	29	24	14	64	52	30	7	8	59	67	4	10	33	45	4	42	12	54	33	26	9	52	20	26	92	45	30	10
OTU 65	0	0	0	0	0	0	0	0	0	0	0	0	0	0	0	0	0	0	0	0	0	0	0	0	0	20	0	0	0	0	1	0	0	0	0	0	0	0	1	0	0	1	0	0	0	7	4	0	0	0
OTU 66	40	11	23	80	9	12	46	35	3	9	14	86	8	55	0	11	13	1	97	34	33	0	32	4	33	15	4	21	1	31	7	3	55	53	23	67	10	50	32	58	35	0	30	12	0	14	6	28	2	2
OTU 67	0	0	19	3	10	71	0	18	7	19	31	22	53	390	62	21	3	52	3	5	49	0	71	71	177	4	0	39	0	47	0	13	1	12	11	75	8	32	5	0	0	1	345	2	4	0	53	2	52	16
OTU 68	3	0	0	0	1	0	0	39	1	12	13	12	0	0	3	9	0	199	1	0	4	0	28	5	0	9	0	15	84	0	24	0	0	0	0	3	43	3	6	37	0	23	2	2	0	60	0	0	0	60
OTU 69	87	14	40	335	37	5	11	21	5	32	13	23	0	8	2	0	8	50	78	39	3	28	12	94	4	3	3	9	8	0	55	7	28	13	0	1	30	15	10	14	3	15	1	28	1	5	0	27	8	8
OTU 70	26	0	1	1	0	2	7	3	8	1	2	13	3	39	9	0	0	1	8	4	3	0	0	6	22	13	0	2	1	0	24	0	0	6	3	2	2	1	683	12	13	65	0	10	1	3	2	0	0	1
OTU 71	0	1	1	0	3	8	0	18	0	2	0	19	109	0	2	1	0	175	0	16	39	5	181	374	1	1	15	118	1	1	23	19	145	0	5	10	0	0	10	9	0	60	2	2	0	1	5	0	115	62
OTU 72	14	20	10	7	31	3	3	11	0	6	36	3	26	66	15	26	3	29	17	4	9	3	15	39	16	34	52	9	6	6	12	1	5	6	84	15	5	8	18	4	121	25	0	65	4	0	5	21	2	10
OTU 73	2	53	24	28	50	23	11	27	2	5	5	62	16	1	1	31	4	12	9	1	108	2	41	28	0	28	4	0	23	103	2	8	9	70	35	34	4	21	29	17	11	2	20	0	1	3	7	0	1	0
OTU 74	6	117	10	35	92	4	37	2	9	5	6	20	43	0	2	1404	6	24	12	26	12	3	3	51	0	21	28	0	96	5	6	34	22	45	21	2	82	76	28	4	14	4	36	15	0	1	3	5	15	3
OTU 75	99	1	57	15	5	24	2	15	27	11	13	0	6	8	2	2	4	9	27	18	2	0	7	15	9	5	115	13	37	36	52	744	10	10	85	30	84	49	5	46	4	16	132	61	6	41	0	17	20	0
OTU 76	6	9	0	1	0	1	4	0	0	2	1	1	0	9	8	0	10	0	601	3	4	2	0	0	9	25	0	0	0	0	4	14	20	0	38	2	13	0	7	7	0	11	0	4	1	5	0	20	0	0
OTU 77	6	14	14	5	11	5	12	20	13	12	10	38	5	4	3	5	15	45	7	8	104	21	53	78	15	0	77	22	2	47	0	0	15	19	4	3	0	1	7	8	19	2	11	117	27	28	8	58	17	14
OTU 78	29	4	46	49	85	179	8	33	49	22	1	10	3299	2	1	4	14	14	2	26	5	11	0	29	5	0	54	4	2	3	50	16	12	55	90	23	56	16	22	76	55	3	91	8	4	14	7	16	2	3
OTU 79	110	117	6	14	247	130	35	225	19	37	8	36	1329	43	48	87	12	43	41	33	62	80	47	107	182	105	124	113	112	20	25	49	19	73	300	76	102	34	78	41	83	82	136	81	40	40	25	3	24	2
OTU 80	70	41	16	31	32	13	13	22	11	14	9	28	41	18	7	17	17	61	3	117	40	7	23	140	12	162	24	26	17	18	43	15	30	103	7	6	54	22	18	15	29	4	36	85	4	0	1	8	72	16
OTU 81	9	37	0	187	39	36	1	27	1	64	3	458	64	2549	21	43	89	4	9	1	15	119	6	5	1281	43	90	35	21	25	10	36	60	17	33	24	33	31	169	49	4	0	85	71	77	7	4	145	12	23
OTU 82	9	20	2	45	8	9	23	2	18	21	32	0	0	41	1343	8	9	2	1	38	27	33	6	2	18	1	0	4	4	44	40	53	4	11	2	46	0	15	12	19	9	0	67	38	38	2956	731	36	18	32
OTU 83	22	4	0	30	0	0	4	1	0	0	0	0	0	0	1	34	4	0	1	2	3	0	0	0	0	3	0	36	0	0	32	0	0	17	4	0	0	0	0	1	10	0	8	41	0	0	0	1	0	7
OTU 84	1	0	11	14	2	11	0	2	12	1	0	1	2	7	2927	0	2	3	26	0	74	26	0	11	9	7	0	4	113	0	1	2	0	25	0	6	10	9	0	3	20	31	3	10	1	0	1546	23	0	0
OTU 85	0	20	0	2	127	7	2	0	0	0	7	3	5	0	2	0	0	0	0	0	0	3	0	0	1	1	0	0	0	50	4	0	1	25	0	2	42	4	12	10	0	25	0	19	6	9	0	0	1	25
OTU 86	0	0	0	0	3	0	0	1	0	0	2	0	0	0	0	0	2	6	0	0	0	5	0	10	0	0	18	0	0	0	0	0	0	0	0	0	5	0	2	29	0	0	2	0	0	1	1	0	0	0
OTU 87	0	2	539	2	17	2	0	12	7	0	1	1	0	0	2	0	0	0	18	0	10	11	0	0	0	0	0	19	3	3	0	0	0	20	1	6	1	3	0	11	0	0	1	18	10	0	2	9	5	0
OTU 88	24	0	0	5	0	0	0	29	0	0	0	1	15	0	0	0	0	21	0	0	0	0	1	40	0	0	0	26	0	9	0	0	0	0	1	0	30	3	0	0	0	0	28	0	0	2	0	13	10	0
OTU 89	0	0	34	3	32	0	0	0	3	1	3	15	1	8	0	5	0	3	0	0	3	0	0	2	4	0	6	0	0	0	6	0	0	5	14	2914	0	0	30	1	3	16	1	21	0	4	0	42	0	18
OTU 90	1	0	0	0	0	0	1	13	7	0	1	9	21	0	8	0	17	0	0	0	12	0	0	0	0	0	0	0	3	8	0	0	0	0	0	0	0	0	0	6	0	0	1	35	0	0	5	4	0	0
OTU 91	0	0	0	4	0	3	16	0	0	0	0	0	3	0	0	0	0	0	0	0	1	17	0	0	0	0	0	0	1	0	0	0	0	0	22	44	0	2	5	0	0	10	0	0	0	0	0	0	0	0
OTU 92	1	17	0	0	1	3	14	6	4	6	2	0	37	4	29	0	5	4	0	0	84	0	23	3	0	0	0	7	6	2	15	60	0	0	33	0	36	3	0	0	0	2	1	18	0	33	19	0	8	2
OTU 93	0	7	0	0	0	0	21	0	8	0	0	0	6	20	0	0	0	0	0	39	0	0	15	0	8	1	0	0	0	0	0	10	0	2	0	3	0	0	0	9	0	14	0	0	0	0	25	19	0	7
OTU 94	90	30	1	13	18	44	21	78	319	319	241	109	36	15	30	23	25	6	371	20	26	12	11	10	2	2	59	4	26	43	335	34	3	24	40	3	7	28	32	564	1	25	33	175	2	49	2	89	0	25
OTU 95	0	0	0	48	0	0	0	0	3	0	0	55	15	21	32	0	0	0	14	0	2	10	2	0	7	5	33	7	0	0	1	1	2	3	1	2	10	96	8	2	0	0	0	0	13	1	0	0	0	1
OTU 96	3	0	0	0	0	6	7	74	0	0	0	0	0	0	0	0	0	0	14	0	0	0	0	4	0	0	0	12	0	0	0	0	0	22	0	0	1	6	0	0	0	0	0	3	0	0	0	6	7	0
OTU 97	29	20	1	129	0	3	95	156	128	120	266	279	31	1	32	7	163	6	95	168	0	64	1	18	0	58	3	31	54	2	17	169	1	4	1	0	92	33	123	356	103	0	1	119	25	0	24	0	0	24
OTU 98	4	0	38	0	0	9	0	0	0	8	2	0	18	13	0	0	0	0	0	0	0	12	0	0	3	0	9	0	0	1	0	4	8	3	67	33	0	0	0	0	1	6	2	31	1	3	3	0	0	0
OTU 99	3	151	22	121	21	12	55	118	23	44	47	6	60	12	23	21	23	36	41	86	2	21	140	104	3	71	1161	72	2	17	19	12	36	27	185	21	16	164	33	31	15	12	75	7	5	26	8	3	25	52
OTU 100	0	20	3	19	0	59	6	34	5	3	2	0	8	0	2	1	1	11	2	14	20	44	10	14	0	30	0	0	0	108	0	39	2	29	0	95	18	0	15	7	4	32	5	12	18	10	9	28	4	1
OTU 101	0	0	0	2	17	0	0	0	0	2	0	0	10	0	3	1	0	0	0	0	0	0	0	0	0	6	0	0	5	0	0	1	0	0	0	0	0	0	7	0	0	1	0	4	8	0	2	0	0	0
OTU 102	0	1	0	2	0	6	24	0	0	7	26	14	11	39	0	5	0	0	0	0	1	0	0	0	24	1	2	0	20	1	1	2	0	0	0	0	0	8	0	8	4	0	0	14	0	16	1	2	0	0
OTU 103	3	25	0	3	0	4	18	51	1	11	15	21	19	6	4	2	0	0	7	5	3	0	65	0	1	3	14	20	2	14	0	2	0	3	22	12	140	3	112	20	6	1	0	118	4	7	3	5	0	13
OTU 104	43	1	14	19	12	0	2	38	69	67	23	6	0	15	35	4	8	59	0	15	5	9	119	104	15	26	18	108	4	11	75	3	17	27	73	20	14	37	730	9	0	188	5	22	8	33	7	170	33	2
OTU 105	0	1	18	32	3	0	0	0	4	1	0	7	2	47	0	6	65	1	11	4	0	22	0	6	15	0	1	26	4	29	0	0	16	0	6	0	15	1	0	17	0	0	17	0	13	42	1	0	0	0
OTU 106	0	42	1	0	31	0	1	0	70	6	1	16	0	37	0	1	0	0	0	0	55	7	0	0	18	0	7	0	27	18	11	4	22	3	4	0	0	1	0	7	0	1	39	0	9	0	0	0	1	0
OTU 107	2	10	1	11	0	11	1469	0	0	1474	0	4	6	0	45	28	2	21	44	2679	47	0	1	42	0	0	108	99	3	11	12	2	0	0	3	0	1	23	14	13	4	42	2	43	18	2	7	0	7	5
OTU 108	8	164	81	3	0	28	0	0	80	108	42	6	4	0	11	42	2	14	125	4	25	46	19	28	1	10	6	4	256	9	80	2	2	4	0	3	331	30	13	103	1	2	3	0	37	58	2	8	14	38
OTU 109	0	0	0	0	0	0	0	0	0	0	0	0	0	0	0	0	0	0	0	0	0	0	0	0	0	0	0	0	0	6	0	0	1	0	0	0	0	0	0	0	0	0	0	0	0	0	0	0	0	0
OTU 110	4	51	127	25	55	108	0	7	15	0	2	60	15	24	2	43	10	25	13	0	8	0	25	55	4	24	47	64	76	2299	3	101	55	5	2	91	17	12	9	2	15	71	1	1	4	1	1	3	32	15
OTU 111	0	17	50	1	0	0	0	0	0	0	0	0	0	0	0	0	0	0	3	2	19	0	0	0	0	1	0	22	0	15	0	0	0	17	0	0	0	2	0	0	0	0	0	0	0	8	0	65	0	0
OTU 112	0	0	1	5	19	3	17	0	8	0	0	0	34	2	0	3	0	11	31	40	1	10	11	19	0	14	11	2	74	19	10	0	8	174	0	8	8	4	0	36	2	0	4	25	7	0	3	0	6	1
OTU 113	8	0	0	11	0	0	1	0	0	0	0	13	0	0	0	0	0	0	2	16	0	0	0	1	0	1	23	0	23	0	17	0	1	0	0	0	0	0	18	6	0	0	0	0	0	0	0	0	0	0
OTU 114	69	66	68	6	13	39	12	115	2726	69	119	9	80	29	47	60	52	10	28	17	1549	75	65	25	15	45	0	131	50	18	99	68	37	2	90	34	13	5	5	132	16	11	62	32	53	1	4	0	25	30
OTU 115	9	35	17	26	69	58	3	29	59	59	3	30	71	52	24	0	42	15	52	32	379	0	8	40	34	16	12	39	20	69	78	91	358	24	25	64	55	7	56	18	62	12	78	2446	2	12	2482	59	24	44
OTU 116	188	843	12	38	20	258	3	95	230	257	243	14	132	46	24	451	19	5	311	15	0	35	7	8	21	19	15	4	1315	34	427	4	8	0	23	23	826	504	78	435	47	0	5	217	11	7	5	373	0	8
OTU 117	6	32	3	3	1	186	0	54	7	0	14	0	72	76	10	2	0	2	12	0	21	12	0	7	19	2	30	6	0	19	4	0	1	7	57	5	13	42	25	43	16	84	15	10	0	62	8	102	2	1
OTU 118	0	0	1	0	0	0	39	4	0	0	18	5	70	4	8	0	1	46	0	4	0	7	6	104	3	0	0	11	0	0	0	0	21	0	10	0	5	0	0	0	24	108	9	0	0	27	4	5	76	34
OTU 119	5	97	15	127	44	10	3	41	36	740	9	12	16	10	12	3	5	4	63	3	28	24	18	10	0	0	2	0	70	2	2	14	13	279	0	12	15	4	20	3	42	12	20	92	8	27	1	26	0	31
OTU 120	20	265	2	26	0	25	0	19	4	6	8	0	9	36	0	120	0	0	2	0	25	7	3	0	17	5	0	14	28	57	7	4	2	20	40	36	11	0	22	2	0	0	0	0	0	0	0	0	0	3
OTU 121	11	21	12	14	2	25	0	13	7	51	56	3	0	1	12	23	1	6	6	0	7	13	5	11	1	35	3	13	0	6	15	8	2	18	51	3	6	43	6	225	0	6	66	2	9	4	1	4	7	2
OTU 122	4	0	13	19	29	0	14	0	18	4	12	3	24	1	85	2	14	0	35	30	3	15	3	0	0	2	4	3	16	763	41	125	35	1	1	1	1	76	34	4	5	26	8	1	0	32	27	7	1	1
OTU 123	14	2516	15	177	120	144	55	107	56	52	1608	442	95	225	273	1338	194	79	85	99	94	438	19	145	108	42	64	100	106	202	85	272	39	220	215	64	62	34	959	158	91	100	424	26	2966	62	562	18	113	49
OTU 124	15	4	9	5	0	69	13	4	2	0	1	0	0	9	0	0	0	0	3	0	29	0	23	1	9	0	0	0	0	2	0	5	0	0	0	0	1	0	14	1	0	0	0	0	0	9	0	0	7	0
OTU 125	66	48	84	550	193	39	37	207	76	36	63	41	85	374	62	112	59	751	177	35	63	13	26	46	179	105	87	140	123	326	83	107	13	32	187	2694	67	303	121	99	59	48	34	6	6	254	27	33	41	9
OTU 126	1	20	2	0	2	0	0	0	0	6	0	7	0	0	5	0	9	0	0	1	0	12	25	0	0	0	0	1	0	11	2	3	0	1	3	26	2	0	0	0	0	0	0	0	0	37	2	0	0	0
OTU 127	18	0	1	0	0	18	11	96	0	4	0	43	64	0	0	56	6	11	0	2	107	8	9	19	0	4	225	11	0	1	0	4	27	69	0	0	15	4	28	0	6	2	0	0	5	0	0	67	9	2
OTU 128	49	154	52	11	97	49	48	68	312	144	164	53	79	54	13	34	64	7	138	93	11	69	174	12	18	124	284	91	549	40	268	40	30	47	51	225	998	2905	31	265	58	13	140	153	24	81	15	39	13	38
OTU 129	0	0	0	0	7	7	0	0	0	0	0	0	0	0	3	29	1	0	0	0	15	0	0	4	1	0	0	0	60	2	0	10	0	0	9	0	0	28	52	4	0	0	0	0	0	19	0	0	0	0
OTU 130	3	20	10	1	0	80	1	1	14	5	2	15	80	3	11	21	36	0	6	15	103	16	10	2	8	1277	0	3	38	0	36	0	8	36	15	21	6	1	89	9	8	16	15	0	0	0	1	6	2	1
OTU 131	0	6	7	59	21	6	18	16	13	4	0	3	27	1	0	0	0	0	13	16	1	21	25	0	4	11	1	0	6	0	2	53	1	20	68	0	5	131	1	4	7	5	6	2	2	593	0	5	0	4
OTU 132	0	3	6	9	5	8	13	0	1	3	4	0	0	1	10	0	9	0	2	1	24	3	0	0	0	11	0	0	12	25	14	0	0	4	4465	20	1	11	11	0	0	41	44	0	9	67	0	10	0	2
OTU 133	0	3	0	1	0	40	0	0	0	0	0	15	0	43	0	0	0	15	0	0	29	0	0	39	26	0	2	69	14	34	0	2	0	7	0	0	0	0	4	2	0	10	0	0	0	0	1	26	25	0
OTU 134	76	13	0	1	8	29	36	17	13	9	0	107	65	4	7	32	17	0	20	26	21	141	2	0	3	107	6	24	2	5	9	42	37	0	16	0	13	57	9	17	7	7	1	5	61	4	3	5	2	0
OTU 135	4	2	3	0	64	7	30	1	29	12	0	0	7	7	21	2	1	22	22	14	82	0	0	51	2	0	0	28	0	1	26	0	2	41	21	7	12	5	5	3	46	44	0	54	1	28	11	82	33	17
OTU 136	22	0	35	7	9	51	3	17	0	1	20	6	16	2	12	0	1	20	0	1	4	7	1	49	1	0	25	20	80	3	0	3	8	5	4	1	8	4	0	7	30	11	0	0	0	1	0	84	67	14
OTU 137	0	13	0	8	2	3	0	0	18	19	0	0	3	0	1	6	0	0	0	0	0	2	0	0	0	10	0	1	0	530	13	15	23	0	12	2	12	3	24	0	3	1	14	1	387	0	0	84	0	0
OTU 138	0	0	9	0	2	3	0	3	2	0	0	3	1	0	0	0	0	7	0	14	0	76	1	15	3	0	2	13	0	0	0	1	1	27	3	41	4	0	19	0	0	11	4	1	16	1	1	1	8	1
OTU 139	36	125	37	21	194	4	110	25	56	3	10	19	14	18	8	8	33	50	13	121	26	30	103	103	9	14	0	6	31	39	77	25	283	1327	31	55	34	15	22	27	70	10	15	19	36	77	4	15	1350	64
OTU 140	622	40	25	152	2	88	23	164	859	650	780	50	143	184	38	16	1	38	2728	34	24	93	32	81	62	1	54	6	107	61	839	43	112	29	10	21	74	95	103	1678	27	30	4562	392	66	39	72	1021	37	91
OTU 141	0	0	0	10	0	0	0	0	0	0	0	0	14	1	0	0	2	0	0	2	0	0	0	0	808	0	0	0	0	20	0	13	0	0	7	0	0	0	0	0	0	0	0	0	0	0	0	0	0	0
OTU 142	0	6	0	0	35	0	0	0	0	0	0	15	2	1	0	0	0	0	0	0	0	0	0	0	0	0	0	0	0	0	0	0	2	0	0	0	0	0	0	0	0	0	0	0	0	0	1	0	0	0
OTU 143	0	0	10	0	0	0	0	13	15	0	3	0	2	2	0	0	1	3	344	1	19	0	3	5	0	7	0	8	0	32	5	0	0	1	0	9	2	0	0	0	0	2	0	4	10	29	0	1	8	0
OTU 144	0	16	0	42	25	0	0	0	0	0	0	1	0	8	0	0	10	0	0	0	2	11	0	0	0	5	12	0	0	0	1	0	0	8	1	13	0	0	0	0	0	10	0	13	0	0	0	0	2	6
OTU 145	9	64	21	12	3	140	14	9	51	21	44	20	43	6	37	56	72	4	2	32	17	23	3	6	1	0	7	6	14	6	87	4	1	34	2	57	17	18	19	48	32	48	73	32	20	1168	7	79	4	22
OTU 146	7	17	0	4	0	10	36	44	0	0	2570	12	57	33	2	15	8	29	10	4	0	44	38	47	13	1	10	4	0	28	7	26	49	11	8	64	53	39	108	0	11	4	2	3	18	37	0	17	1	28
OTU 147	0	0	17	19	32	2	3	98	0	9	1	61	0	0	1	0	6	0	0	0	0	8	5	0	1	2	7	0	4	6	1	1	14	65	0	0	430	0	0	3	51	1	14	0	0	0	1	1	0	32
OTU 148	49	1	20	19	112	49	1	27	6	0	0	0	5	21	21	6	10	1	22	7	10	2	17	5	7	23	0	0	26	31	58	22	14	131	71	8	21	0	192	30	0	21	33	55	9	8	2	9	0	0
OTU 149	1	0	32	10	0	44	0	0	0	1	1	0	58	0	0	0	0	2	1	4	0	0	12	2	0	2	104	5	0	89	5	13	28	37	0	1	1	0	0	0	0	6	3	10	0	21	10	0	1	3
OTU 150	0	0	0	6	0	29	5	1	0	1	5	0	11	0	4	1	5	1	0	0	0	0	0	2	2	0	0	11	0	0	16	0	5	0	0	2	3	0	0	2	0	1	0	0	0	0	0	89	9	0
OTU 151	27	47	0	63	2	8	0	9	0	1	2	15	2	0	2	4	0	15	1	19	2	9	5	22	0	12	10	1	37	7	14	0	127	0	44	12	2008	6	10	5	1	2	11	14	18	0	10	6	8	3
OTU 152	0	11	1	31	86	0	32	0	17	0	18	2	41	21	1	23	6	9	8	44	15	2	44	22	13	12	0	19	6	12	0	11	52	8	1	4	65	24	102	21	4	0	59	56	19	37	1	0	14	7
OTU 153	3	0	0	1	0	0	1	0	0	0	0	0	10	0	33	0	0	0	1	0	0	2	9	0	0	0	0	0	1	0	0	0	0	0	0	0	0	10	0	9	0	0	0	0	0	0	19	0	0	0
OTU 154	0	0	0	0	0	0	0	60	0	0	0	0	1	0	0	0	0	0	0	0	0	0	5	0	0	0	0	3	0	0	0	0	0	0	0	0	0	0	0	0	7	0	0	0	0	0	0	8	0	0
OTU 155	1	12	0	5	67	0	2	21	42	64	39	18	0	1	14	0	2	25	10	0	6	39	19	43	0	0	0	0	41	1	18	4	25	60	5	0	12	13	0	79	4	0	2	16	10	2	16	8	41	0
OTU 156	102	215	215	344	36	29	256	501	272	379	406	868	13	220	197	164	510	191	301	527	82	220	224	384	92	514	37	127	327	72	133	322	219	12	10	61	408	380	249	471	395	78	44	153	133	4	67	372	284	62
OTU 157	16	0	0	13	0	2	7	0	0	0	11	0	0	0	0	4	0	812	1	19	3	6	739	1757	0	0	0	971	0	32	75	0	662	4	0	22	2	0	0	0	0	326	62	0	1	13	2	0	972	148
OTU 158	0	0	0	0	0	0	0	0	0	0	0	0	0	7	0	0	11	0	0	0	0	0	0	0	5	0	0	3	13	0	0	0	0	44	0	0	0	0	0	0	0	0	0	0	0	3	0	1	0	0
OTU 159	14	714	2	13	54	21	6	1	12	30	44	39	7	0	39	276	36	0	26	38	56	16	3	0	0	17	3	0	42	176	20	38	3	0	57	2	17	54	6	140	26	15	16	33	16	7	8	0	11	3
OTU 160	179	74	25	5	33	41	4490	265	82	6	12	59	5	14	93	71	25	89	32	24	26	21	614	192	16	1463	3	280	122	102	301	19	44	64	18	21	6	23	250	9	127	70	41	61	1	69	27	9	116	2076
OTU 161	0	10	133	73	12	22	0	0	8	3	14	4	7	145	0	4	0	1	0	6	26	22	7	1	64	10	86	14	72	10	13	39	33	5	2	89	17	42	0	0	11	16	499	7	13	34	0	40	2	50
OTU 162	1	1	0	30	14	11	128	442	1	23	10	20	12	42	35	0	533	77	15	120	4	45	3444	159	23	27	10	42	56	5	1	8	71	30	22	3	38	10	25	16	66	0	44	35	12	55	23	3	77	1998
OTU 163	0	0	0	0	0	6	0	2	0	1	0	0	0	0	18	0	2	0	0	0	0	0	0	0	0	0	0	0	0	0	0	0	0	0	0	0	0	0	0	2	0	0	0	0	0	0	0	0	0	0
OTU 164	0	0	0	0	0	0	0	2	0	0	0	0	3	0	0	0	0	0	6	0	0	0	1	0	0	0	0	1	1	0	0	0	0	0	0	0	0	0	0	0	0	0	29	0	0	0	2	0	0	0
OTU 165	7	3	15	3	13	8	7	3	5	3	0	0	0	2	0	1	0	4	3	16	17	8	3	13	0	1	11	26	0	32	1	4	15	2	35	0	30	9	0	9	7	2	57	14	5	46	1	62	1	4
OTU 166	0	0	1	0	0	0	0	0	0	0	0	0	0	0	0	0	0	0	0	0	0	0	0	0	0	0	0	0	0	0	0	0	0	3	0	0	1	0	0	0	0	0	0	0	0	0	0	0	0	0
OTU 167	15	6	57	0	5	16	49	33	71	1	5	4	119	10	2	17	74	7	0	210	0	27	28	26	6	49	0	19	0	3	1	6	2	0	0	2	0	15	1	11	47	40	19	0	36	3	0	6	5	0
OTU 168	1	36	66	56	13	26	4	0	11	32	9	2	91	24	67	27	40	18	19	4	27	2	0	32	6	0	1	45	1	14	0	21	41	29	16	48	0	23	7	10	0	3	0	0	4	7	39	0	1	0
OTU 169	0	0	3	1	0	0	0	0	0	0	0	0	0	1	0	3	0	0	0	1	0	0	0	0	0	2	0	0	1	0	0	0	0	0	1	0	0	0	0	0	0	0	0	3	0	0	1	0	0	0
OTU 170	0	0	0	8	0	0	0	0	0	0	1	0	0	0	0	0	5	0	0	0	0	0	0	0	1	0	0	8	0	0	0	0	0	3	0	0	0	0	0	0	0	0	0	0	3	0	0	4	0	0
OTU 171	8	26	16	45	15	1	8	1	9	33	0	6	97	17	9	6	0	0	28	27	54	7	17	0	12	0	3	40	110	3	0	1	5	26	8	9	12	23	4	64	7	9	0	1	11	4	13	36	12	8
OTU 172	0	0	0	0	0	0	0	11	0	0	0	0	0	0	6	0	0	0	0	1	0	0	0	0	0	0	0	0	0	24	0	2	0	7	2	0	0	0	0	0	0	0	0	0	0	0	4	0	0	13
OTU 173	1	0	2	2	4	61	3	9	2	0	1	20	4	3	0	0	27	1	0	0	33	0	1	2	0	0	2	5	37	49	2	1	17	2	0	0	1	0	0	35	0	12	0	0	0	0	31	35	0	0
OTU 174	1	5	7	29	0	1	7	21	22	2	0	9	0	1	0	6	15	4	0	1	11	29	2	5	1	3	3	0	8	4	18	0	4	63	0	70	5	2	62	6	45	31	11	5	5	63	1	5	11	0
OTU 175	6	2	95	5	53	51	6	0	0	39	2	25	14	373	23	6	0	4	0	0	16	860	0	7	233	0	7	34	14	7	12	5	13	0	66	5	0	0	53	0	3	3	3	35	507	33	36	33	17	18
OTU 176	22	16	47	38	26	17	2	39	12	9	42	12	37	29	17	26	25	42	8	9	61	0	4	98	8	7	3982	20	2	0	1	12	11	0	22	15	33	2	10	12	545	83	20	1	5	21	0	67	57	16
OTU 177	6	36	25	50	6	17	10	12	28	39	34	33	9	0	6	12	30	3	20	25	14	6	2	6	2	618	66	40	13	3	56	23	17	30	49	1	28	86	12	8	76	7	167	3	7	0	13	1	14	1258
OTU 178	0	1	4	0	133	5	8	9	0	27	7	13	12	18	0	0	2751	0	3	3	0	17	36	0	19	7	1	30	29	29	0	28	0	0	7	2	0	1	0	27	17	3	15	0	24	51	0	9	2	0
OTU 179	9	99	1	10	0	22	1	3	42	10	0	1	17	1	2	18	2	20	3	0	10	72	68	52	0	9	3	20	2	40	0	7	53	25	2	12	7	21	30	19	1	0	15	130	21	37	2	139	30	7
OTU 180	70	77	11	352	44	118	63	44	41	10	70	1102	50	307	264	70	721	23	13	170	2061	676	25	48	146	36	14	33	124	174	18	586	88	21	217	31	9	97	108	62	3	59	46	115	333	221	172	95	23	249
OTU 181	10	2	21	27	0	2	20	4	14	17	1	33	1	47	0	1	0	273	16	26	0	10	202	594	38	177	76	513	0	13	0	0	500	13	5	2	0	36	6	6	45	163	17	1	1	12	14	3	374	97
OTU 182	0	0	0	0	0	0	25	92	0	0	0	0	3	21	0	0	0	0	0	74	0	0	0	0	3	0	0	0	0	9	0	0	12	0	0	0	0	0	0	0	13	0	0	0	0	0	0	64	0	0
OTU 183	30	55	8	0	3	3	0	11	35	2	2	14	0	3	32	66	7	0	6	6	58	33	11	0	0	20	33	0	13	0	2	28	0	17	1	8	5	0	11	3	29	12	38	5	13	1	42	23	2	0
OTU 184	0	17	0	4	0	0	0	0	0	8	4	49	2	9	29	0	1	0	10	2	32	1	0	0	2	12	30	0	0	26	11	1	9	2	11	0	16	86	0	32	2	0	14	3	0	2	15	26	0	0
OTU 185	7	11	5	21	30	4	372	28	10	9	8	27	22	20	13	13	30	7	19	587	0	33	57	8	6	58	21	5	25	13	26	7	1	4	58	13	93	3	20	26	0	65	4	0	16	58	4	4	1	55
OTU 186	1013	0	0	2	2	0	0	75	315	0	0	0	97	0	0	4	5	0	57	0	33	0	2	0	0	0	71	0	17	0	7	15	0	32	3	9	0	4	0	0	41	0	0	0	0	7	0	72	0	4
OTU 187	22	103	3	16	3	71	11	26	27	39	64	101	38	6	55	25	48	14	103	39	98	77	1	23	3	107	50	8	172	37	59	138	7	114	81	4	34	56	0	81	88	73	1	50	32	17	20	27	33	22
OTU 188	11	33	4330	37	78	36	0	144	2	26	3	1	1	11	207	19	17	11	29	0	18	109	101	30	2	15	28	37	9	1	3	6	15	14	63	47	12	10	23	10	70	2	30	79	70	31	216	37	36	12
OTU 189	51	151	39	9	31	29	8	16	12	2197	29	109	6	78	79	104	4	14	50	14	1242	48	13	25	50	2	42	47	20	1	29	50	1817	21	9	22	4	53	24	31	25	6	25	14	36	16	3	71	14	7
OTU 190	0	36	6	0	1	4	0	0	2	23	2	19	14	0	0	5	0	0	22	0	0	0	0	0	1	0	0	0	1	16	2	2	4	34	0	0	0	0	0	1	0	3	0	1	0	0	0	0	4	0
OTU 191	807	15	32	7	63	28	5	8	8	12	6	0	0	449	2	4	25	320	5	14	45	912	280	735	193	5	27	289	5	3	2	19	192	7	28	64	38	13	179	11	1755	61	109	22	439	72	2	7	393	143
OTU 192	23	17	51	11	1	7	21	18	21	0	11	27	183	6	23	1	9	61	22	52	249	6	39	114	1	17	135	71	7	6	44	15	44	5	960	0	145	67	7	2	2	37	97	64	3	14	17	51	1008	59
OTU 193	11	2	43	188	4	64	6	23	6	5	0	31	11	62	0	9	61	1	36	2	9	17	38	3	24	3	7	6	11	70	83	6	36	29	0	70	1	3	5	0	8	0	11	0	21	0	583	0	3	6
OTU 194	13	2	8	1	1	3	2	12	52	13	15	75	0	16	0	6	3	11	15	1	0	12	11	18	5	7	11	4	29	18	13	40	0	0	5	41	3	4	8	14	0	0	15	21	2	7	0	92	3	0
OTU 195	0	2	3	22	0	103	5	40	11	0	4	0	31	2	6	0	38	36	42	2	81	0	23	82	1	17	30	5	0	114	0	2	24	19	225	13	40	7	2	10	8	4	0	3	1	0	2	5	59	22
OTU 196	3	106	8	16	0	5	0	6	1	3	1	25	14	20	0	16	8	1	7	13	115	2	17	6	11	24	142	2	12	12	1	14	41	5	15	45	10	0	33	8	50	5	2	23	4	6	0	23	0	12
OTU 197	21	233	1479	9	97	85	19	31	43	22	13	75	71	138	9	62	10	75	264	10	37	23	6	150	62	49	145	64	66	110	128	652	16	87	32	63	28	95	21	24	41	23	20	42	55	96	5	75	51	453
OTU 198	1	0	0	1	0	5	1	0	0	0	1	0	0	0	0	0	3	0	4	3	0	3	0	1	0	0	2	2	3	29	15	0	25	0	5	54	5	13	4	1	0	0	24	5	0	15	3	0	15	10
OTU 199	8	23	0	0	0	26	7	1	1	0	0	0	165	30	1	6	1	2800	3	2	9	21	1	1	24	2	0	2	10	0	42	8	54	0	2	8	3	0	0	1	26	0	7	13	19	8	3	2	8	0
OTU 200	7	14	35	0	16	1	137	823	54	2	104	6	34	6	1	11	1	171	17	483	23	3	143	321	0	394	97	213	19	6	18	5	130	98	38	64	54	53	311	8	337	81	0	1	618	12	5	12	231	21
