	Host 1	Host 2	Host 3	Host 4	Host 5	Host 6	Host 7	Host 8	Host 9	Host 10	Host 11	Host 12	Host 13	Host 14	Host 15	Host 16	Host 17	Host 18	Host 19	Host 20	Host 21	Host 22	Host 23	Host 24	Host 25	Host 26	Host 27	Host 28	Host 29	Host 30	Host 31	Host 32	Host 33	Host 34	Host 35	Host 36	Host 37	Host 38	Host 39	Host 40	Host 41	Host 42	Host 43	Host 44	Host 45	Host 46	Host 47	Host 48	Host 49	Host 50	
OTU 1	30	9	3	27	0	15	38	21	43	3	38	0	78	47	92	57	7	45	0	45	12	0	1	0	23	5	22	42	5	0	12	2	0	0	64	10	15	46	37	64	0	15	0	42	10	33	83	0	0	2
OTU 2	0	1	1	24	5	6	0	10	0	5	0	1	0	5	3	16	64	10	0	0	686	0	0	3	0	1	0	41	25	5	2	2	0	0	0	0	7	50	2	4	10	5	11	0	10	6	2	0	17	52
OTU 3	0	0	14	0	0	0	0	32	156	80	0	28	1	6	0	0	91	22	0	0	31	3	14	0	0	176	0	25	78	22	1	50	87	0	1	1	11	14	0	38	0	81	51	4	0	9	2	28	0	0
OTU 4	0	0	0	0	0	6	0	0	0	0	0	0	0	0	0	0	0	0	0	0	0	0	0	0	0	0	0	0	0	0	0	0	0	0	0	0	0	0	0	0	0	0	0	0	0	0	0	0	2	0
OTU 5	75	593	70	292	0	385	924	1423	0	101	1095	2603	942	792	915	597	199	422	101	9	401	0	215	14	555	146	12	460	439	30	2688	58	0	23	0	227	1363	43	250	281	8	19	850	143	147	242	440	1035	69	103
OTU 6	24	10	0	257	10	6	18	4	32	65	5	34	2	0	15	1	72	109	9	5	19	40	2	21	9	8	24	18	27	29	4	0	0	9	40	11	0	1	0	7	12	24	3	2	128	0	11	0	162	13
OTU 7	21	35	7	48	136	41	126	74	113	26	153	58	10	76	11	12	146	22	47	159	54	73	31	65	53	45	57	5	17	155	2296	37	30	54	197	1074	67	64	9	23	132	56	26	57	26	992	2419	56	47	52
OTU 8	38	74	103	45	59	150	216	88	7	22	39	3	789	298	17	25	111	46	81	79	15	163	37	64	82	53	34	43	697	126	467	48	13	72	10	520	142	10	17	352	18	34	16	1	18	476	924	149	36	73
OTU 9	158	1	73	1	1	31	20	13	1	9	7	5	3	0	47	9	7	22	40	0	25	47	41	426	6	0	4	39	26	38	8	0	12	2	12	2	33	23	11	1189	78	0	17	12	2	0	0	35	27	9
OTU 10	122	18	7	25	0	0	5	9	0	3	28	16	0	12	65	2	9	15	0	2	15	2	29	49	3	10	0	0	0	1	7	0	0	50	15	0	63	6	0	18	1	1	42	4	10	25	19	0	5	0
OTU 11	172	45	23	1	141	86	54	8	47	29	43	9	70	19	5	4	36	3	14	0	36	14	14	63	36	3	4	19	12	20	2	5	72	8	9	11	29	33	0	39	5	14	28	34	0	102	0	2	103	105
OTU 12	65	82	26	144	241	1910	185	9	56	2	22	7	29	102	33	4	113	3	3	34	56	106	12	19	77	121	4	0	15	32	13	666	16	54	58	9	14	40	8	104	39	26	90	22	66	3	19	126	79	102
OTU 13	0	5	0	0	0	2	12	1	0	0	0	0	0	27	0	21	0	0	0	0	0	0	0	25	3	0	11	0	1	1	0	0	0	4	21	0	0	0	4	1	0	0	0	0	0	0	0	0	0	1
OTU 14	0	89	31	5	13	0	134	0	5	0	1	13	0	49	0	33	1	0	62	2	1	0	11	5	66	238	2	0	50	0	0	83	47	171	0	0	1	0	40	0	1	35	0	2	2	5	43	0	0	3
OTU 15	2	0	0	1	0	0	0	0	0	0	9	0	0	15	0	0	0	0	0	0	0	0	0	0	0	1	0	0	0	0	0	3	0	0	2	0	0	0	0	0	0	0	0	15	0	4	10	0	0	0
OTU 16	0	0	6	0	0	0	0	0	0	0	0	0	0	0	0	0	0	0	0	0	0	0	0	0	0	0	0	0	0	5	0	0	0	0	0	0	0	0	0	0	0	0	0	0	0	0	0	0	0	73
OTU 17	25	31	3	10	153	10	73	18	10	5	14	19	4	3	25	83	47	3	5	176	9	30	0	197	47	14	130	0	9	0	0	0	94	59	564	2	5	22	70	10	315	35	3	15	8	5	0	0	15	53
OTU 18	18	0	43	6	170	60	3	9	1	0	241	7	0	4	96	43	53	26	5	43	1129	8	2	29	3	92	14	16	28	0	8	83	141	59	71	0	16	11	20	17	14	3	103	11	1	11	0	21	331	103
OTU 19	0	0	0	0	0	0	0	0	0	0	0	0	0	0	0	0	0	0	0	0	0	0	0	0	0	4	0	0	0	0	0	0	0	0	0	0	0	0	0	0	0	0	0	42	0	0	0	0	0	0
OTU 20	1	62	0	4	110	54	71	38	26	17	25	72	296	21	16	50	77	17	36	31	20	113	12	70	27	0	57	5	15	75	236	17	96	241	99	152	69	26	28	58	247	10	49	0	2	243	353	1	12	423
OTU 21	77	8	449	9	87	54	5	2	7	46	31	10	347	58	4	47	33	88	14	9	321	75	107	54	6	2168	0	32	12	38	128	1302	15	68	18	130	35	8	14	13	25	79	80	43	6	154	344	11	10	28
OTU 22	10	10	16	1	71	56	32	6	685	20	41	7	5	30	14	19	60	0	69	290	3	17	18	1	14	216	84	1	18	17	179	69	85	62	501	221	112	3	0	7	30	162	0	11	1	288	609	275	34	7
OTU 23	61	14	0	2	26	529	31	0	2	2	4	4	38	24	7	5	11	1	75	0	0	0	4	23	10	22	0	3	31	3	0	82	6	154	19	6	12	0	0	45	8	0	0	19	1	0	5	5	17	14
OTU 24	0	12	6	14	6	16	28	75	19	6	0	68	67	10	0	5	50	14	4	1	24	0	36	7	23	36	0	18	2	170	91	47	8	0	0	4	0	6	3	1	3	14	12	5	7	0	0	0	9	0
OTU 25	0	0	0	76	0	0	0	104	0	0	0	136	0	0	69	1	0	0	0	0	0	0	0	0	0	0	0	0	54	0	0	2	0	1	0	0	0	100	0	24	0	0	0	0	39	0	0	0	0	0
OTU 26	0	2	0	1	1	0	13	0	0	0	0	0	0	0	0	0	1	0	1	0	0	0	0	0	3	0	0	0	23	0	0	0	1	37	0	0	2	0	1	2	2	0	1	17	0	0	0	0	86	1
OTU 27	59	0	0	0	0	0	0	0	0	0	0	0	0	0	0	0	3	0	0	0	0	0	0	0	0	0	0	0	0	0	0	0	0	57	0	0	0	0	0	0	0	0	0	0	0	0	0	0	0	0
OTU 28	15	6	423	62	96	13	0	104	48	319	10	31	114	9	92	34	100	155	11	40	72	37	306	39	0	117	25	49	14	18	371	29	27	6	155	346	4	273	6	482	2	2	277	27	26	297	803	22	47	6
OTU 29	3	5	10	27	12	22	47	20	9	16	59	52	26	15	9	47	62	1	8	13	18	267	54	74	21	9	6	0	115	971	1	32	2	12	86	9	19	62	24	23	23	44	11	19	7	32	1	47	17	21
OTU 30	0	0	0	0	0	0	0	0	0	0	6	0	0	0	2	0	0	0	0	0	4	0	0	0	0	0	0	0	0	0	0	0	0	0	0	5	0	0	0	0	0	0	0	0	0	0	0	0	0	0
OTU 31	17	8	7	25	0	567	3	2	1	7	0	12	0	41	88	11	9	3	19	0	2	0	5	30	0	17	0	6	472	155	2	7	20	34	3	0	0	13	4	8	8	31	0	76	10	0	1	0	0	70
OTU 32	4	1	53	86	12	1007	1	29	31	12	17	6	32	29	34	69	68	98	2	19	3	94	68	218	1	56	38	114	29	31	8	11	5	23	47	100	10	18	34	39	125	82	6	42	38	2	9	54	24	6
OTU 33	0	0	52	0	0	0	0	0	0	0	0	0	1	0	0	0	18	3	0	0	1	0	81	8	0	0	0	0	2	0	0	0	0	0	0	0	0	7	0	0	0	0	102	0	0	0	0	0	0	0
OTU 34	7	14	16	23	0	14	39	7	72	8	27	25	31	95	119	1	44	3	68	3	55	60	9	146	20	17	3	7	0	102	1	5	75	23	4	18	814	32	7	2	7	6	5	44	11	17	14	1883	33	293
OTU 35	4	180	0	22	35	5	462	13	51	26	1	1	3	59	7	70	117	51	139	18	5	176	4	38	292	8	304	34	74	102	5	10	1	22	8	1	49	21	23	982	16	15	10	17	1683	1	1	3	140	451
OTU 36	4	41	18	12	1	91	49	0	11	2	0	0	0	6	0	186	9	0	1	7	37	6	11	1	26	37	26	0	18	1	2	8	59	39	2	1	13	22	86	10	15	20	23	34	8	8	3	12	51	13
OTU 37	6	3	0	5	2	0	0	15	16	0	0	0	0	155	0	0	20	0	18	0	0	0	0	15	0	75	13	0	0	9	0	34	8	0	0	0	3	8	0	75	4	25	13	8	1	0	0	0	0	3
OTU 38	131	28	35	160	55	118	76	4	5	4	12	86	131	22	930	81	12	16	38	0	5	13	81	71	28	31	2	12	45	0	26	12	108	38	18	50	12	58	37	296	68	14	15	584	83	12	23	26	0	20
OTU 39	0	0	0	123	0	0	0	21	29	1	0	50	0	0	20	4	0	0	0	8	0	38	1	2	3	27	12	0	0	7	4	0	0	5	4	0	19	54	0	0	2	1	16	40	67	0	0	0	43	13
OTU 40	13	13	32	19	49	15	34	10	53	12	21	10	0	209	1	4	26	20	40	7	45	9	14	61	17	46	0	6	59	7	46	126	15	94	15	48	7	21	0	42	92	74	3	13	10	9	0	17	155	13
OTU 41	7	16	46	102	23	6	39	158	26	36	260	218	7	12	222	2	24	8	12	130	16	7	10	1	22	64	60	2	70	15	20	16	40	0	274	3	6	119	6	54	3	17	1	126	47	2	12	107	37	214
OTU 42	49	5	3	125	0	0	0	6	11	1	6	0	1	8	17	0	0	1	46	3	5	0	5	92	0	0	0	0	1	1	0	0	1	1	0	0	74	0	0	0	0	3	2	1	61	0	0	1	78	0
OTU 43	0	0	0	0	0	0	0	0	0	0	2	0	0	0	0	0	0	11	0	0	0	0	0	0	0	0	0	0	34	0	0	32	0	27	0	0	0	0	0	0	2	0	0	0	0	0	0	0	0	0
OTU 44	0	25	0	0	0	1	43	0	25	22	0	1	0	0	0	4	0	0	2	0	2	2	14	0	25	5	1	0	0	0	24	0	10	0	19	0	0	0	5	3	0	2	0	4	0	1	0	0	1	20
OTU 45	49	20	67	9	107	21	8	0	15	16	2	4	25	113	0	14	154	37	40	72	54	90	54	183	8	52	25	38	79	2	4	9	53	178	9	12	36	1	33	33	0	104	24	3	6	3	21	1	2	38
OTU 46	30	9	40	81	23	13	24	0	17	34	908	32	11	87	27	33	38	16	173	51	12	31	60	46	19	25	33	12	52	12	5	7	22	4	6	7	8	10	24	189	6	76	4	15	42	3600	2	25	27	17
OTU 47	81	0	0	2	0	0	3	0	1	0	0	2	0	0	0	0	0	0	0	1	2	6	0	7	0	0	1	0	0	13	0	4	0	0	0	0	0	0	0	0	2	0	0	3	3	3	13	0	0	1
OTU 48	47	23	77	7	88	89	46	3	177	302	24	30	553	42	38	2	15	221	254	9	38	61	1	13	259	155	15	101	79	185	62	88	17	144	0	19	19	77	3	7	119	228	17	17	2	19	48	147	19	31
OTU 49	35	65	0	17	24	0	131	1	0	9	19	12	11	26	8	18	0	46	3	23	25	177	2	29	80	70	1	8	28	0	7	16	77	0	9	12	29	1	13	42	32	2	24	1	7	20	0	0	106	1
OTU 50	28	8	22	41	161	41	10	20	55	8	28	112	31	25	11	4	31	35	24	56	0	14	20	5	2	44	31	24	0	88	18	5	118	44	85	21	19	393	13	16	81	49	589	2078	28	44	7	55	7	51
OTU 51	9	1	0	18	5	9	11	15	0	3	46	0	0	9	0	1	3	17	4	4	0	1	0	1	7	2	0	15	3	32	4	1	23	0	17	20	55	1	0	131	23	59	0	16	11	5	2	0	445	11
OTU 52	231	13	27	87	162	5	61	27	75	47	14	21	10	76	22	72	86	60	147	132	33	222	62	57	19	38	41	35	642	40	21	15	39	136	53	15	32	46	58	290	61	24	34	55	43	25	12	40	100	54
OTU 53	0	0	0	0	0	0	0	0	0	0	0	0	0	0	0	0	0	0	0	0	3	0	0	0	0	0	0	0	0	0	0	0	0	0	0	1	0	9	0	0	0	0	0	0	0	0	0	0	0	0
OTU 54	69	39	22	44	69	76	56	21	119	27	16	8	70	17	12	10	22	8	43	20	1870	50	26	37	30	46	15	15	44	91	67	52	40	44	61	26	14	5	3	23	101	91	153	101	20	32	98	70	118	152
OTU 55	0	0	0	7	0	0	0	0	0	0	0	0	0	0	0	0	0	0	0	0	0	0	0	0	0	12	0	0	0	0	0	0	0	0	0	0	0	13	0	0	0	0	0	0	2	0	0	0	0	0
OTU 56	0	1	31	4	67	4	2	40	22	36	0	7	25	10	40	0	43	70	0	6	14	18	5	5	5	1	4	65	0	0	3	93	0	0	35	0	0	17	0	0	83	0	1	73	0	74	1	27	174	0
OTU 57	147	46	40	19	398	16	51	20	117	99	78	12	1908	196	84	166	136	1146	45	284	14	299	79	96	26	18	93	570	140	187	92	17	124	69	608	4	2	138	72	82	266	69	78	61	11	63	67	32	40	179
OTU 58	2	105	1	0	13	3	234	0	2	121	18	17	0	0	14	6	7	138	5	3	0	1	0	4	139	43	57	36	0	4	14	1	22	0	110	0	0	31	0	2	25	9	2	0	0	0	0	1	80	5
OTU 59	1	2	8	51	99	0	1	118	5	0	7	127	1	75	116	9	283	1	69	50	1	2	27	110	0	0	142	0	25	0	4	4	13	0	130	0	23	16	2	0	12	8	6	36	20	0	1	5	48	0
OTU 60	54	9	13	10	125	71	8	13	204	174	36	30	2	1	30	68	42	458	24	73	55	402	18	10	7	2	22	252	227	21	3	33	22	12	90	19	69	47	22	114	810	22	162	0	6	6	9	76	84	50
OTU 61	101	3	14	187	261	29	8	118	229	506	0	145	21	21	177	243	21	8	78	12	804	88	27	169	2	10	9	10	606	55	17	12	64	104	7	39	171	527	71	190	362	97	20	37	93	30	33	17	119	46
OTU 62	3	1	2	5	0	31	0	0	24	0	37	0	1	11	2	1	1	2	1	0	0	0	228	0	0	5	0	16	0	19	0	2	2	37	0	0	0	0	0	3	2	0	0	60	2	1	2	3	4	3
OTU 63	17	0	0	4	32	4	0	17	58	49	10	5	0	9	21	11	0	7	0	166	15	0	0	33	0	189	70	2	0	14	21	15	41	137	125	0	0	1	10	17	0	0	13	29	3	26	0	18	68	2
OTU 64	14	24	14	26	45	61	17	34	113	52	108	55	14	88	43	67	103	36	77	11	3	76	77	169	22	1	8	66	33	7	18	2	30	214	21	22	7	63	35	110	197	85	2	6	13	28	95	3	179	44
OTU 65	1	0	0	0	0	0	0	0	0	0	0	0	0	0	0	0	0	0	0	0	0	0	0	0	0	0	0	5	23	0	0	5	0	0	0	0	0	1	0	1	0	57	1	0	0	0	0	0	0	0
OTU 66	35	5	24	49	195	26	18	4	114	0	6	53	1401	34	20	93	240	11	2	27	24	17	5	3	16	2	17	31	26	78	24	50	14	133	57	11	30	57	22	70	30	92	16	57	33	22	6	44	9	63
OTU 67	6	2	16	55	32	98	1	3	30	5	37	44	23	1	15	26	59	4	7	12	16	7	0	22	1	56	14	1	90	90	1	0	111	1	14	14	9	170	15	40	37	10	11	38	33	932	18	73	105	1
OTU 68	20	6	16	21	435	75	17	5	8	0	0	10	0	7	38	0	0	0	0	2	80	0	0	24	25	32	0	6	7	143	75	36	0	55	1	8	0	0	0	28	5	0	3	18	16	0	98	38	0	0
OTU 69	24	18	99	4	223	24	27	21	17	5	1	0	0	296	25	1	4	2	3	0	17	14	0	26	12	43	13	7	0	129	13	3	152	34	6	396	5	1	4	89	36	16	2	1	0	25	33	12	18	15
OTU 70	111	10	7	0	0	0	17	11	31	25	19	6	2	3	65	5	8	0	0	6	1	130	0	76	6	28	15	0	9	106	0	0	42	26	0	0	14	15	3	0	8	1	0	1	0	17	0	0	17	45
OTU 71	6	1	1	3	14	4	4	18	37	0	1	1	0	15	11	0	11	3	0	1	6	0	4	139	2	13	0	0	12	21	1	18	3	0	0	0	71	11	0	0	16	0	0	74	0	8	31	44	0	0
OTU 72	105	1	9	8	4	12	3	13	11	20	97	34	18	31	38	0	11	7	14	27	1	0	3592	46	5	23	3	2	29	1	3	6	9	9	45	7	4	43	9	5	5	94	13	29	7	6	7	22	14	37
OTU 73	4	2	41	91	0	14	27	55	63	158	0	124	26	47	137	8	109	114	423	48	2	13	3	71	18	25	11	872	5	52	9	10	7	155	58	6	13	113	8	52	92	80	8	34	36	219	12	87	21	10
OTU 74	6	120	0	5	7	37	211	1	174	40	5	75	84	275	6	2	18	7	11	45	20	11	26	30	114	3	36	6	38	35	5	41	188	141	52	13	396	24	3	4	36	83	14	12	1	5	7	70	27	51
OTU 75	3	6	72	13	81	25	1	10	96	203	116	2	46	19	3	46	134	2	26	86	1197	14	64	162	4	281	51	1	17	18	6	14	32	785	319	33	40	64	212	12	61	146	1	30	7	25	37	2	9	27
OTU 76	132	0	23	31	0	0	0	11	5	14	0	0	2	33	398	0	14	72	11	28	0	0	0	93	1	0	14	21	3	0	0	35	40	48	60	1	0	9	1	0	0	0	41	361	15	10	1	1	3	38
OTU 77	22	25	15	11	3	2	53	51	4	38	43	35	29	101	1	49	6	10	23	9	13	2	3	65	26	4	8	24	14	50	2	37	36	1	90	1	2	3	32	89	17	110	30	20	7	3	13	18	20	0
OTU 78	59	0	23	6	4	33	1	15	14	2	45	3	85	62	0	10	18	8	12	3	2	53	5	187	3	143	11	12	11	151	17	114	51	222	13	53	8	7	8	4	69	14	0	0	4	0	8	3	0	7
OTU 79	103	21	152	155	242	226	79	65	21	731	174	213	35	70	129	95	343	572	107	969	197	72	53	299	35	55	358	468	119	457	72	175	70	540	291	114	52	91	78	112	122	554	35	76	82	18	58	99	93	267
OTU 80	123	94	90	31	98	10	157	17	34	54	9	23	24	134	7	62	29	100	282	14	0	169	24	19	79	26	5	6	19	133	3	9	45	25	107	2	17	57	40	27	30	108	43	14	14	51	13	7	43	20
OTU 81	77	34	327	28	22	58	54	27	219	12	25	5	24	4	76	68	176	67	11	21	220	90	76	184	45	109	21	54	29	1293	18	26	10	10	25	6	159	65	4	25	64	23	1	58	18	46	76	137	1017	81
OTU 82	626	32	31	18	3	164	105	0	5	100	15	6	5	114	10	6	52	2	34	5	21	1	2	1218	52	71	8	1	6	1	17	0	25	42	40	6	3	23	1	45	70	29	9	12	18	8	42	34	82	0
OTU 83	0	0	12	0	0	176	0	0	0	0	0	4	16	0	0	0	9	1	0	1	0	3	0	2	0	26	1	1	44	0	0	16	62	40	21	3	0	0	0	0	0	11	0	0	0	0	0	1	17	4
OTU 84	4	3	2	22	17	14	17	1	31	47	10	4	2	3	129	7	3	1600	8	113	37	21	1	46	14	21	67	787	0	6	20	1	0	0	242	34	6	31	2	24	5	34	12	15	13	26	9	0	25	30
OTU 85	5	0	2	4	29	7	0	3	3	0	0	0	2	0	0	0	0	0	0	2	0	0	20	22	0	0	0	0	1	0	0	1	0	0	0	11	0	23	2	13	0	27	1	1	3	7	6	1	6	3
OTU 86	0	0	18	0	38	0	0	0	0	0	51	0	0	0	0	0	0	0	0	0	10	9	0	0	0	0	1	1	3	0	0	0	0	66	0	0	1	9	0	0	0	0	0	0	0	13	1	2	4	0
OTU 87	36	6	15	10	232	4	29	10	20	1	35	221	0	211	129	0	0	0	78	0	1	100	2	11	14	2	0	0	1032	4	11	0	0	0	0	0	1	11	0	19	26	89	0	18	4	32	7	0	58	47
OTU 88	0	8	19	4	0	0	4	3	0	7	0	0	0	32	0	2	18	0	0	0	0	0	0	44	0	0	0	0	0	0	1	0	0	0	0	2	5	0	12	0	0	5	0	2	5	13	1	0	615	0
OTU 89	0	80	18	4	103	0	246	1	3	7	14	8	1	237	0	1	112	7	0	27	1	12	1	1	87	1	4	16	2	1	0	8	1	0	0	0	0	0	7	3	0	0	74	4	2	0	0	2	5	30
OTU 90	1	19	0	0	20	0	16	0	20	0	0	0	0	5	22	0	108	0	0	0	3	27	65	0	14	0	0	0	0	0	0	1	47	0	0	1	22	1	0	0	2	24	0	0	0	1	0	69	0	101
OTU 91	0	0	1	0	0	0	0	1	5	0	0	5	0	0	7	0	61	0	0	10	0	0	0	0	0	0	0	0	0	0	0	0	6	25	44	0	0	0	0	0	112	12	0	1	0	1	0	0	0	0
OTU 92	9	0	6	5	0	7	0	0	19	0	0	0	0	103	0	31	1	5	38	0	1	6	11	1	0	17	0	0	9	0	0	1	0	35	0	1	37	0	6	22	2	4	0	0	2	0	0	0	4	34
OTU 93	0	15	0	0	0	0	47	0	4	0	5	0	0	1	0	25	0	3	0	8	7	0	0	0	26	7	0	0	0	0	1	1	0	0	0	0	18	5	1	0	0	2	1	0	0	0	0	0	0	0
OTU 94	10	5	6	76	1	97	1	0	298	59	2	70	52	14	45	22	107	22	6	13	30	39	0	82	1	18	10	12	33	13	7	58	0	50	17	25	9	1	13	18	28	156	99	25	47	28	18	161	45	1
OTU 95	0	0	0	0	9	0	0	0	9	16	0	0	0	2	11	0	15	2	2	86	0	101	2	6	2	47	61	1	1	179	0	2	97	82	242	2	1	27	0	6	109	112	3	22	0	1	0	10	0	0
OTU 96	0	14	46	21	0	0	25	0	9	0	0	30	0	4	0	24	2	0	0	4	18	0	0	0	18	0	1	0	0	0	11	0	0	0	0	58	0	0	16	0	20	0	55	0	10	17	93	0	27	20
OTU 97	0	0	0	22	0	0	0	3	0	0	1	6	0	1	0	0	34	0	2	0	31	0	1	75	1	0	0	0	0	0	0	0	26	0	0	2	0	0	0	2	11	0	0	0	13	0	0	9	15	0
OTU 98	18	0	9	0	0	0	5	9	0	0	21	5	1	1	0	1	0	21	65	0	1	4	2	27	1	0	0	6	0	5	0	7	43	0	12	20	964	4	1	61	0	12	0	9	0	0	1	3	26	5
OTU 99	36	11	0	53	80	14	7	10	228	93	13	35	14	12	84	97	41	177	92	25	1	1274	4	28	5	41	9	56	0	108	5	5	14	13	41	1	56	12	34	19	50	115	1	9	29	9	8	135	2	4
OTU 100	25	2	2	52	17	16	5	21	3	0	44	1	14	52	33	7	19	1	27	18	0	29	6	26	11	27	0	4	32	0	11	17	54	76	59	8	2	2	0	13	32	5	0	26	21	0	6	3	4	0
OTU 101	5	0	0	0	0	0	0	0	4	0	79	0	0	0	0	0	68	20	0	0	0	0	0	0	0	0	0	0	0	0	0	0	0	11	0	0	0	11	0	0	0	0	0	0	0	0	0	0	0	0
OTU 102	139	10	96	0	0	45	4	4	35	0	3	0	0	35	15	0	15	0	2536	7	2	1	8	0	6	0	10	3	33	70	0	1	0	33	1	0	3	2	0	3	0	0	0	0	0	0	0	29	0	20
OTU 103	2	0	0	101	25	2	1	53	7	8	0	19	1	11	70	6	1	0	12	26	17	21	0	0	0	46	10	2	7	3	30	126	23	8	46	66	3	44	23	3	97	1159	51	41	47	5	33	3	5	47
OTU 104	83	44	0	18	87	122	71	67	22	51	15	24	18	6	0	60	88	58	10	14	1	25	13	191	36	28	23	56	54	144	42	8	1	39	68	17	8	39	59	3	12	0	36	18	6	92	40	36	25	53
OTU 105	1	22	5	0	0	0	40	33	0	0	0	1	3	1	21	8	0	0	11	0	0	0	31	0	23	0	0	4	3	0	0	0	1	0	9	0	2	2	0	18	0	0	4	25	0	0	7	109	0	11
OTU 106	0	21	0	7	875	0	58	32	64	0	0	7	0	74	21	285	5	0	55	0	6	0	0	7	20	125	5	10	0	0	0	42	0	0	20	1	17	33	205	4	6	2	2	7	4	9	0	13	2	29
OTU 107	0	12	12	7	0	0	4	53	58	5	35	46	6	207	3	1	0	64	0	30	42	132	1	0	2	0	18	41	1	139	0	0	0	45	0	0	14	1	0	103	0	11	19	20	5	1	0	98	77	26
OTU 108	50	9	64	33	2	62	3	60	14	3	43	114	47	38	0	32	383	18	25	5	27	38	45	26	5	2	1	1	1	94	0	2	35	83	1	0	1	50	12	173	12	1	20	0	21	17	0	6	0	1
OTU 109	0	0	0	0	0	0	0	0	0	0	0	0	0	0	0	0	0	0	0	0	0	0	0	0	0	26	0	0	0	0	0	0	1	0	6	0	0	0	0	0	0	0	0	0	0	0	0	0	0	0
OTU 110	0	15	1	94	36	9	28	1	93	4	6	26	15	25	234	28	19	27	1	7	5	238	3	64	18	5	18	0	114	41	14	18	32	8	2	0	26	64	11	8	70	87	308	7	47	34	0	56	2	93
OTU 111	0	0	21	0	0	0	0	0	0	0	0	0	0	1	0	0	0	0	0	0	0	2	4	0	0	0	3	0	0	7	0	0	0	0	0	13	1	0	0	31	0	1	0	0	0	0	0	0	10	61
OTU 112	7	0	10	6	11	0	1	0	36	3545	2	0	7	2	1	0	50	0	0	31	0	6	7	0	1	2	38	0	0	43	0	31	22	37	4	11	0	0	0	21	20	0	16	47	0	7	0	0	0	1
OTU 113	10	0	0	0	34	1	0	2	0	9	0	0	0	0	0	7	2	14	0	0	0	2	0	0	0	0	0	0	0	5	0	0	96	0	0	0	14	0	0	0	3	45	5	0	0	20	7	13	12	0
OTU 114	31	34	11	39	20	70	10	54	701	75	2537	23	14	8	9	23	488	75	43	10	14	14	32	15	8	30	2	27	55	129	21	6	25	105	13	40	44	2196	4	54	140	8	1	3	16	66	32	388	118	65
OTU 115	55	48	70	6	202	32	137	21	24	45	29	19	12	91	21	78	199	38	142	35	27	10	49	128	27	125	17	2	6	39	29	51	25	37	30	56	33	38	4987	45	5	16	363	19	2	6	41	14	31	50
OTU 116	215	4	41	59	140	4	23	2277	166	29	8	11	23	11	12	29	0	79	28	139	46	0	30	14	18	75	25	30	73	39	15	6	13	109	60	20	30	18	0	70	83	88	107	2	35	35	30	26	93	51
OTU 117	20	3	7	1	61	47	0	6	250	2	0	0	9	0	0	0	109	41	6	48	17	124	1	0	0	158	8	8	124	3	6	238	14	57	80	50	4	14	0	16	12	2	5	13	1	1	19	54	25	43
OTU 118	1	3	3	0	0	0	0	12	63	2	0	39	1	0	0	8	0	3	0	0	0	1	24	21	0	18	0	3	0	0	0	0	15	0	0	0	0	5	4	0	1	10	13	3	0	3	0	10	54	2
OTU 119	37	16	268	5	46	17	45	24	93	117	4	0	24	57	248	5	176	96	0	4	45	88	97	78	28	90	3	57	252	11	69	1	83	0	14	62	73	30	3	83	15	363	7	185	5	62	66	66	51	136
OTU 120	8	0	0	4	2	15	3	12	90	0	14	14	3	1	9	0	45	0	52	16	0	1	3	0	1	0	3	1	14	0	0	0	0	0	0	34	2	0	1	0	21	0	3	2	1	0	4	0	46	3
OTU 121	48	0	10	2	27	14	0	35	0	0	6	28	13	15	22	156	1	8	102	5	22	2	9	27	1	3	2	5	26	5	2	38	17	1	4	5	0	17	47	0	48	3	64	45	0	0	0	0	0	42
OTU 122	38	578	3	174	43	10	1005	2	48	10	2	36	3	558	32	2	69	2	75	1391	4	100	0	0	525	4	583	0	38	11	20	47	22	15	212	12	3	192	3	20	222	4	82	30	81	39	36	1	3	3
OTU 123	46	661	16	38	86	58	86	116	652	114	64	90	45	141	52	37	388	1498	253	192	133	363	102	151	34	147	108	785	119	189	22	66	76	297	254	15	128	62	21	221	419	297	39	27	23	79	28	342	261	144
OTU 124	6	0	1	2	14	37	0	18	0	2	0	16	4	0	0	1	27	1	0	1	1	8	0	0	0	1	0	2	0	0	21	4	35	54	1	36	2	0	7	1	2	78	0	9	3	0	0	4	0	2360
OTU 125	136	70	149	65	61	665	175	46	49	45	46	95	69	126	44	72	174	132	201	15	148	537	79	108	76	106	53	124	189	124	30	77	12	41	35	3	9	152	18	103	170	476	13	93	43	18	151	166	817	102
OTU 126	0	0	0	3	0	0	0	1	42	0	1	2	0	70	23	16	0	3	0	0	0	1	0	3	0	2	0	0	1	18	0	5	0	0	0	5	0	27	5	0	0	4	1	0	0	0	0	21	0	1
OTU 127	0	10	1523	0	7	2	0	29	23	1	136	39	8	15	2	3	114	1	2	9	2	7	950	70	0	2	3	18	0	1	5	2	10	6	0	0	21	0	21	13	90	0	0	7	0	0	2	19	5	8
OTU 128	153	84	269	208	90	121	107	92	448	84	71	80	44	189	95	212	222	32	29	53	100	164	78	73	93	200	61	52	44	113	43	48	730	82	189	20	285	158	84	178	247	139	71	107	122	34	60	203	313	343
OTU 129	5	0	0	6	1	0	0	279	0	0	4	754	40	1	1	0	2	0	0	0	1	1	0	0	0	0	15	0	0	9	0	9	0	38	0	15	17	2	1	67	4	18	1	0	1	0	0	0	1	4
OTU 130	8	9	0	57	0	24	6	2	20	70	56	0	0	11	1	2	97	94	127	0	22	26	59	38	7	7	1	74	0	103	8	31	4	6	6	13	43	24	2	4	25	9	27	15	26	8	12	92	43	0
OTU 131	22	1	67	29	56	1	6	0	39	13	44	56	22	9	4	19	3	0	76	7	11	26	5	10	3	12	3	0	4	213	4	72	9	33	7	0	22	26	15	66	17	0	61	50	13	1	0	176	7	23
OTU 132	0	44	0	0	13	33	61	2	33	0	96	13	28	8	22	0	14	0	53	4	0	5	0	3	4092	0	14	2738	1	1	3	0	1	13	0	0	8	4	0	61	0	88	9	1	0	0	9	66	1	0
OTU 133	42	10	12	21	1	15	25	0	14	0	3	0	3	6	8	0	0	1	1	68	2	5	0	0	4	0	11	1	0	0	0	1	1	6	36	0	0	0	6	2	0	0	0	1	8	1	0	0	2	5
OTU 134	40	0	0	48	0	0	4	0	3	52	57	25	68	15	5	30	14	13	68	1	4	6	9	95	0	24	26	11	91	85	971	2	17	8	14	3	26	9	7	1	57	212	108	1	21	29	1	31	66	0
OTU 135	69	81	35	22	2	13	123	18	72	7	0	0	3	17	15	0	3	0	10	1	1	3	132	7	58	17	13	0	10	2	15	0	0	48	3	0	22	63	0	0	11	61	9	3	11	4	13	203	37	73
OTU 136	62	2	0	43	56	2	1	63	0	30	15	174	15	67	13	1	60	22	13	54	3	92	24	5	3	27	4	46	1	0	31	0	134	11	172	32	0	0	0	16	0	7	70	65	27	0	64	309	12	16
OTU 137	5	0	33	0	0	0	0	4	80	11	9	0	11	8	1	0	26	0	0	0	4	0	0	4	0	0	0	0	0	2	1	0	110	0	0	0	52	0	0	6	55	0	0	22	0	34	1	67	379	0
OTU 138	0	0	1	18	2	2	1	11	1	27	6	7	30	0	0	0	59	1	54	6	0	2	1	2	3	113	14	0	137	126	0	6	24	37	2	8	0	0	0	15	17	20	4	0	11	0	24	0	0	1
OTU 139	199	12	42	13	14	9	6	2	97	24	36	16	64	4	2	57	14	5	32	38	46	187	41	87	5	25	86	12	69	42	61	15	112	46	91	29	399	14	38	481	144	24	95	7	5	33	45	613	82	46
OTU 140	111	693	3	134	57	29	1317	6	150	10	192	43	34	13	143	488	251	45	77	109	48	196	21	185	692	62	149	25	73	57	26	404	2122	119	311	14	502	30	209	68	120	288	148	21	71	9	40	90	189	82
OTU 141	0	0	0	0	0	0	0	0	0	0	0	0	0	0	0	0	0	0	0	0	2	0	0	0	0	0	0	0	1	0	0	0	0	0	0	0	0	0	0	0	0	0	0	0	0	0	0	0	0	0
OTU 142	3	0	0	49	3	0	0	3	0	1	0	5	0	0	0	2	0	0	0	0	0	5	0	0	0	0	2	0	0	0	0	0	0	0	0	0	0	0	0	0	0	0	0	0	21	0	0	0	15	0
OTU 143	6	0	0	0	1	0	0	0	78	4	0	0	0	5	52	0	19	0	0	1	0	22	8	25	2	22	6	3	7	1	0	3	0	2	153	0	0	0	0	50	0	9	0	0	3159	0	0	19	0	0
OTU 144	0	0	0	0	3	0	0	15	0	1	18	0	0	0	2	2	19	0	5	0	0	0	29	0	0	2	0	8	2	13	17	51	28	0	0	0	0	0	0	0	1	1	9	6	0	0	0	31	0	0
OTU 145	39	44	9	94	41	0	53	117	10	17	77	232	17	508	340	17	35	4	4	1	8	60	4	81	40	23	0	3	47	11	17	35	6	86	14	21	33	184	14	2	109	44	44	71	41	22	69	45	307	204
OTU 146	39	9	59	12	87	31	26	39	6	65	63	60	23	82	1	14	0	105	55	24	9	17	44	22	19	46	3	110	1	5	12	47	0	25	33	192	10	64	7	175	141	0	644	118	5	2	54	58	10	12
OTU 147	0	9	26	0	71	49	35	14	2	2	35	2	12	35	0	11	271	0	9	11	1	0	0	0	23	18	11	3	20	157	3	0	289	3	12	0	34	0	14	2	0	3	1	2	0	34	11	10	4	10
OTU 148	80	22	21	43	111	0	48	27	24	12	41	30	4	8	32	0	2	7	6	8	8	1	14	7	9	385	2	2	0	66	0	138	23	916	23	4028	17	56	3	24	3	13	0	3	18	1	0	27	13	14
OTU 149	22	4	2	4	7	19	38	18	0	26	0	0	0	7	0	0	22	0	0	8	2	1	31	48	22	1	0	8	26	0	48	0	0	0	4	27	0	1	0	9	12	7	65	0	3	0	85	1	1	14
OTU 150	2	3	0	2498	2	2	0	1	2	0	0	0	87	42	0	0	37	56	3	3	12	185	3	103	0	56	0	18	12	14	1	10	2	1	9	0	5	0	0	28	56	13	0	8	1216	0	25	0	0	8
OTU 151	0	0	23	1354	0	76	1	8	62	9	9	14	12	0	0	37	0	29	4	7	0	62	4	1	0	9	20	9	0	3	15	0	2	42	55	15	18	6	19	63	23	29	3	0	671	0	0	36	5	5
OTU 152	45	3756	110	33	34	10	28	48	104	20	51	5	3	76	39	10	26	3	1	2	4	149	10	10	5	57	9	2	37	16	22	18	0	8	1	13	78	1557	3	336	16	31	66	10	22	0	19	30	8	1
OTU 153	0	0	0	0	0	0	1	0	0	0	0	2	1	0	0	0	0	0	0	0	0	0	1	1	0	18	0	0	0	0	0	0	0	13	0	0	0	0	6	0	0	0	0	0	0	5	1	3	0	16
OTU 154	1	0	0	15	0	1	0	13	0	5	0	0	0	0	59	50	0	0	0	0	0	6	0	0	0	0	0	0	0	0	0	0	0	62	0	1	1	1	11	0	0	0	517	0	8	0	0	0	0	0
OTU 155	11	1	2	0	0	0	0	0	0	6	51	15	2	4	2	0	10	0	0	6	15	1	0	32	0	0	1	5	9	2	0	0	6	59	20	0	36	0	0	0	12	8	3	17	0	0	2	15	22	31
OTU 156	4	8	17	66	40	108	35	67	61	2	42	18	147	44	37	36	119	29	41	34	0	1	21	20	8	4	6	19	48	21	71	13	152	153	100	26	10	0	31	16	70	120	15	96	28	33	70	60	118	1
OTU 157	0	31	8	0	36	0	60	0	0	2	24	6	0	22	0	3	3	0	0	0	0	1	4	9	34	30	1	0	4	0	0	28	8	0	46	8	0	0	0	4	0	1	7	1	0	0	3	11	0	357
OTU 158	0	0	0	0	1	0	0	0	0	7	0	0	0	59	0	0	10	0	1	0	0	1	0	0	0	0	0	0	7	0	0	0	0	1	0	0	0	0	1	0	4	1	37	0	0	0	0	0	0	0
OTU 159	6	199	26	63	3	28	312	6	0	18	100	18	3	374	16	72	3	10	29	40	70	23	83	54	201	20	4	3	249	10	2	0	73	4	62	6	15	62	64	1	14	86	31	8	25	2	18	0	26	34
OTU 160	4	5	16	101	378	78	23	56	18	425	20	118	31	113	2175	3876	0	82	35	335	45	68	23	38	20	36	187	46	67	121	11	32	75	63	63	28	1814	165	1769	25	202	154	62	1253	51	17	35	43	16	75
OTU 161	295	15	1	65	319	9	40	13	105	0	0	1	555	70	60	0	157	14	12	60	1	2	0	605	28	64	13	3	2	7	253	44	1	12	150	284	3	6	0	6	7	0	4	0	185	51	479	39	4	156
OTU 162	1830	77	27	105	45	2	150	34	0	41	24	220	4	4	102	136	0	0	15	8	1	1	11	22	65	54	1	1	16	73	37	20	30	156	28	4	1	83	56	1	159	84	25	26	48	0	28	33	56	1
OTU 163	0	0	0	0	0	0	0	0	0	0	96	0	0	0	0	0	0	0	0	0	0	0	0	5	0	182	0	0	0	0	0	46	0	0	0	26	0	0	0	0	0	0	0	45	0	0	2	2	0	1
OTU 164	0	0	0	0	59	0	0	0	0	0	0	1	0	0	0	0	20	0	0	0	0	0	0	0	0	0	21	0	0	0	0	0	0	0	7	0	1	0	0	0	1	3	0	0	31	0	0	1	10	18
OTU 165	103	5	0	5	5	0	13	0	0	40	67	0	1	31	0	6	32	0	0	0	1	2	32	81	2	0	0	7	0	33	39	3024	1	3	0	52	16	6	1	18	19	1	3	0	3	0	55	1	5	37
OTU 166	0	0	0	0	0	0	0	0	0	0	0	0	0	0	0	3	22	0	0	0	0	0	0	0	0	0	0	435	14	0	0	19	0	0	0	2	0	0	0	0	0	0	0	0	0	0	0	0	0	0
OTU 167	25	31	2	0	0	0	48	7	43	91	17	1	0	144	5	2	15	174	62	2	0	13	6	2	15	5	4462	94	5	8	18	3	0	9	10	1	29	9	0	0	34	2	18	27	0	25	22	30	101	20
OTU 168	15	16	19	0	0	45	79	0	41	14	13	0	7	83	63	24	5	7	120	3	31	44	7	97	18	14	6	1	44	2	0	19	42	16	60	24	1	1	18	2	13	0	48	0	0	0	7	0	4	0
OTU 169	10	0	1	26	0	0	0	22	3	0	1	14	0	0	18	28	0	0	0	0	0	0	0	0	0	0	3	0	1	0	0	1	0	0	0	0	0	0	32	0	1	0	0	0	11	0	0	0	0	0
OTU 170	0	0	2	0	0	11	0	0	0	0	0	0	0	0	0	0	0	1	6	0	0	8	0	0	0	0	0	0	0	0	5	0	0	0	0	0	2	0	0	0	1	0	10	0	0	0	0	0	0	0
OTU 171	37	1	23	102	53	5	9	1	169	4	18	44	12	16	35	124	36	0	0	2524	6	30	0	52	7	12	1243	0	21	71	13	25	30	11	229	0	67	107	40	0	15	42	20	38	53	8	15	90	111	4
OTU 172	0	0	0	2	0	13	0	0	7	0	0	0	0	0	1	112	0	0	0	1	0	0	1	0	0	2	0	0	0	127	0	0	1	3	0	0	0	2	36	0	46	0	0	8	3	28	0	0	0	2
OTU 173	0	3	0	32	8	0	10	4	1	0	9	62	0	0	36	2	32	0	1	0	0	101	0	1	16	12	0	5	17	2	2	0	0	8	2	1	1	27	0	3	0	10	2	0	17	3	0	27	0	0
OTU 174	0	21	0	4	48	27	63	0	1	0	442	41	1	39	5	2	13	1	1	66	14	11	6	0	29	7	11	1	24	36	0	0	46	11	88	17	7	22	12	4	0	1	3	0	1	16	0	2	26	34
OTU 175	4	2	0	18	0	0	27	12	23	0	49	1	4	84	8	16	17	0	79	0	0	41	4	0	14	5	4	0	0	9	7	17	1	12	0	3	3	22	3	90	3	70	92	2	9	3	4	21	6	13
OTU 176	0	3	27	1	7	29	4	17	13	50	16	16	28	37	0	10	161	24	50	3	1	29	1	41	2	25	11	26	26	40	1	21	0	45	28	1	14	21	8	2	75	56	21	2	1	0	18	2	9	47
OTU 177	1016	47	26	111	132	106	115	102	16	1	31	168	30	11	2	65	40	49	87	70	10	17	1	298	47	21	36	31	22	2	1	25	45	59	53	8	11	47	49	28	194	41	12	12	56	5	22	5	47	8
OTU 178	116	1	0	0	4	24	12	4	5	0	24	0	4	37	0	24	33	17	22	42	5	36	35	7	3	99	0	0	22	41	0	3	105	17	51	0	18	1	6	10	6	129	4	2	0	3	1	0	2	66
OTU 179	17	2	1	0	40	112	3	0	203	5	40	7	0	6	0	0	75	2	134	63	0	24	0	1	3	20	68	5	0	100	0	20	152	18	6	4	26	0	2	43	8	14	42	21	0	5	5	35	73	1
OTU 180	40	51	2427	63	411	59	59	35	293	130	51	79	28	12	109	58	220	86	462	64	120	360	1136	169	25	26	23	80	182	132	42	9	94	208	79	43	102	101	23	6	16	253	517	56	34	58	72	152	62	19
OTU 181	14	13	1	1	7	18	28	4	3	4	15	3	3	64	0	11	18	1	0	34	6	11	7	26	13	10	30	2	16	2	10	145	0	0	96	0	23	31	6	149	132	255	1	0	0	0	3	36	9	0
OTU 182	0	0	0	0	0	0	0	0	0	0	1	0	1	0	0	0	3	0	9	0	0	0	0	0	0	0	0	0	0	0	0	0	0	0	0	0	0	0	0	0	0	5	0	0	0	1	0	0	0	0
OTU 183	146	0	0	0	2	19	3	5	25	0	4	5	0	75	20	73	78	5	32	10	8	12	0	17	0	175	0	0	15	13	0	155	106	77	28	0	1	9	76	7	5	12	0	4	0	1	0	2	5	27
OTU 184	0	2	0	0	31	16	22	7	1	20	3	0	0	62	4	5	0	40	2	29	5	28	1	0	15	18	22	3	12	35	0	4	2	13	12	0	14	30	9	0	0	0	17	1	0	0	0	0	2	16
OTU 185	7	3	9	14	35	65	12	1953	146	0	9	13	50	47	15	32	32	29	0	6	4	9	2	73	3	280	7	9	13	6	7	61	79	312	4	17	16	56	13	1	262	0	6	41	11	18	19	11	6	63
OTU 186	3	0	166	0	0	0	0	0	21	0	0	4	36	17	4	17	0	0	0	0	89	42	5	0	2	1	3	0	112	1	0	2	0	83	42	0	0	0	13	0	286	4	0	1687	0	0	2	2	0	2
OTU 187	47	8	856	208	94	22	19	17	100	33	19	263	338	24	208	27	100	18	710	18	501	52	440	12	8	171	25	0	24	119	257	95	203	331	87	154	38	134	3	128	65	36	31	135	96	278	286	30	368	44
OTU 188	51	17	1	25	54	24	53	67	239	46	0	10	26	17	25	24	15	24	19	31	40	168	20	56	10	75	8	14	30	60	23	104	228	14	22	8	8	0	6	49	23	38	8	1	13	14	26	66	3	56
OTU 189	111	32	50	14	2	18	74	46	100	3	25	4	70	38	10	40	3	31	2	17	27	94	3	238	58	17	48	25	360	159	7	10	49	11	215	5	45	67	35	26	23	139	91	41	10	7	46	18	3	156
OTU 190	0	23	0	2	0	0	33	0	0	0	44	3	8	50	0	0	0	0	24	23	0	3	0	0	9	34	0	3	0	0	0	31	0	19	0	0	0	0	0	0	0	3	1639	0	1	15	0	0	0	40
OTU 191	26	9	53	37	0	5	30	371	43	4	137	1122	28	93	21	16	2	0	99	21	24	205	112	8	421	117	3	1	56	24	21	77	96	24	73	65	42	28	8	88	3	342	55	23	24	27	45	25	28	0
OTU 192	17	21	74	129	72	38	12	12	8	250	22	68	2	281	96	51	101	228	10	25	30	87	58	12	13	291	15	150	163	238	143	92	33	22	32	63	17	34	17	63	189	305	80	99	65	77	330	8	30	33
OTU 193	48	551	8	35	117	60	222	9	46	0	48	8	4	24	5	35	452	7	287	33	34	31	0	5	109	2	0	4	6	1	17	9	91	57	103	89	2	111	46	8	22	29	2	47	18	26	39	1	31	88
OTU 194	41	15	2	0	58	272	5	3	28	54	5	36	0	0	54	17	2	15	1	0	16	1	0	0	4	41	1	22	0	58	0	10	482	45	58	1	28	12	0	1	192	88	265	0	0	6	19	0	0	10
OTU 195	3	20	15	55	0	27	24	0	1	34	16	22	14	53	3	0	0	49	0	8	4	43	18	2	15	13	0	4	130	23	9	6	8	129	15	11	67	8	0	63	31	6	150	5	22	20	50	11	0	4
OTU 196	5	1	10	6	81	3	9	7	0	49	3	2	1	15	36	8	8	0	34	19	8	0	0	23	8	26	1	2	19	9	20	11	44	11	142	0	1	11	0	85	51	2	0	0	0	10	60	44	8	41
OTU 197	270	58	35	53	268	205	171	67	44	71	220	181	15	300	39	160	60	66	157	293	4	114	27	70	81	178	96	8	280	47	15	161	508	106	395	113	16	2	43	30	428	52	86	92	30	25	12	2	4	131
OTU 198	14	0	14	0	49	0	0	26	0	0	0	3	0	45	8	5	8	6	25	0	0	0	0	0	0	78	0	0	36	0	0	14	1	0	0	2	1	0	0	0	38	0	6	0	0	3	0	1	9	2
OTU 199	5	0	2	13	0	10	0	16	40	0	24	0	64	13	5	0	0	18	8	0	3	34	0	0	12	14	0	24	9	96	0	5	1	38	5	14	36	2	0	31	52	5	0	2	7	0	2	67	2	3
OTU 200	25	10	0	74	7	1	11	101	8	12	0	22	21	0	40	111	31	8	2	5	2	154	23	274	9	0	2	0	157	88	0	29	49	3	36	26	3	97	65	0	200	35	7	0	39	3	3	0	24	144
