	Host 1	Host 2	Host 3	Host 4	Host 5	Host 6	Host 7	Host 8	Host 9	Host 10	Host 11	Host 12	Host 13	Host 14	Host 15	Host 16	Host 17	Host 18	Host 19	Host 20	Host 21	Host 22	Host 23	Host 24	Host 25	Host 26	Host 27	Host 28	Host 29	Host 30	Host 31	Host 32	Host 33	Host 34	Host 35	Host 36	Host 37	Host 38	Host 39	Host 40	Host 41	Host 42	Host 43	Host 44	Host 45	Host 46	Host 47	Host 48	Host 49	Host 50	
OTU 1	0	2	2	1	0	3	5	16	5	0	1	0	0	7	8	0	5	0	3	5	1	3	0	4	1	8	9	0	4	1	0	0	0	8	4	8	4	1	2	0	5	1	11	0	0	4	2	0	0	1
OTU 2	1	0	0	0	3	1	0	0	1	3	0	0	0	0	0	3	0	0	0	0	0	0	0	0	0	0	0	0	0	0	0	0	0	0	0	0	0	0	0	0	0	0	0	0	0	0	0	2	0	0
OTU 3	0	0	0	0	0	2	0	0	0	1	1	0	0	0	0	0	0	1	1	0	0	0	0	0	0	0	0	1	0	0	2	0	1	0	0	6	1	1	0	1	0	1	0	0	2	2	2	0	0	0
OTU 4	0	0	0	0	0	0	0	0	0	0	0	0	0	0	0	0	0	0	0	0	0	0	0	0	0	0	0	0	0	0	0	0	0	0	0	0	0	0	0	0	0	0	0	0	0	0	0	0	0	0
OTU 5	1	1	23	5	2	21	0	16	1	12	11	37	11	11	0	9	31	3	19	2	1	5	0	17	8	2	20	3	8	1	6	15	0	12	0	4	1	0	23	5	11	1	3	1	14	2	7	0	26	18
OTU 6	0	0	2	0	0	2	4	0	0	1	0	1	0	2	1	0	0	0	2	0	5	4	2	0	0	0	2	2	1	0	0	0	0	0	0	0	1	0	0	0	0	0	3	1	1	0	0	0	2	0
OTU 7	0	3	5	3	3	3	0	2	2	3	6	1	4	3	1	7	7	1	10	3	4	5	3	21	0	11	2	3	5	1	2	3	11	16	1	22	1	0	12	6	3	5	4	0	5	39	1	37	2	0
OTU 8	3	4	0	5	2	7	22	6	3	3	1	2	1	1	10	2	2	0	3	4	4	2	2	2	3	0	2	2	2	1	22	4	5	5	8	2	2	2	5	4	1	0	2	2	9	1	0	6	2	0
OTU 9	0	0	0	0	1	1	0	0	0	0	1	0	0	0	0	0	1	0	0	1	0	1	1	1	1	1	1	1	0	6	0	4	0	0	1	0	0	1	0	0	0	0	0	0	0	27	0	2	1	0
OTU 10	0	0	0	2	0	0	0	1	0	1	0	0	0	0	2	0	0	1	0	0	0	0	2	0	0	42	0	0	0	1	1	1	1	100	1	1	0	0	0	3	0	0	1	1	0	1	1	0	0	0
OTU 11	3	1	0	0	0	2	0	0	2	0	2	3	0	0	4	3	0	12	0	0	0	3	2	0	0	0	0	0	1	7	18	1	7	0	2	0	3	3	1	1	0	4	0	0	0	0	0	14	0	0
OTU 12	16	1	3	0	3	2	3	1	0	5	0	2	9	0	2	0	6	3	2	3	0	4	1	0	0	0	2	6	2	4	0	5	0	0	0	0	1	4	3	1	4	1	1	1	1	0	0	0	0	0
OTU 13	0	0	0	0	0	0	0	0	0	0	0	0	0	0	0	0	0	0	0	1	0	0	0	0	0	0	0	0	0	0	0	2	0	0	0	0	0	0	0	0	0	0	0	0	0	0	0	1	0	0
OTU 14	0	0	0	0	1	1	0	2	0	0	1	0	0	0	0	2	0	0	2	0	1	0	1	0	0	0	1	0	1	0	0	0	4	0	0	0	0	0	3	0	0	0	1	0	0	0	1	2	1	0
OTU 15	0	0	0	0	0	1	0	0	0	0	0	0	0	0	0	0	0	0	0	0	0	0	0	0	0	0	0	0	0	1	0	0	0	0	0	0	0	0	0	0	0	0	0	4	0	0	0	0	0	0
OTU 16	0	0	0	0	0	0	0	0	0	0	0	0	0	0	0	0	0	0	0	0	0	0	0	0	0	0	0	0	0	0	0	0	0	0	0	0	0	0	0	0	1	0	0	0	0	0	0	0	0	0
OTU 17	1	0	2	9	1	18	0	1	0	0	1	0	0	1	6	1	3	1	1	2	0	0	0	1	0	1	22	1	0	0	1	1	0	1	9	1	2	0	0	1	2	0	0	2	11	0	0	0	0	0
OTU 18	0	3	3	0	7	0	0	6	1	0	1	1	1	4	2	0	1	0	0	2	2	0	4	0	0	0	0	0	3	0	0	2	0	3	1	0	1	10	0	0	6	2	0	7	2	0	3	7	3	22
OTU 19	0	0	0	0	0	0	0	0	0	0	0	0	0	0	0	0	0	0	0	0	0	0	0	0	0	0	0	0	0	0	0	0	0	0	0	0	0	0	0	0	0	0	0	0	0	0	0	0	0	0
OTU 20	0	3	0	0	0	3	2	1	5	0	0	2	2	0	0	3	1	6	1	1	3	3	6	2	1	0	0	1	0	5	1	0	0	1	5	0	0	0	0	2	2	0	0	8	0	0	0	32	0	1
OTU 21	3	0	0	0	2	1	3	0	0	1	0	3	2	0	0	1	3	0	0	1	1	0	6	0	2	0	3	10	0	0	0	2	3	0	5	2	1	1	0	0	2	2	2	0	0	4	0	0	1	1
OTU 22	3	1	0	0	0	1	1	0	8	8	0	1	1	1	4	0	0	0	2	0	0	3	0	1	0	0	7	0	0	1	2	0	0	1	1	1	1	0	1	0	1	1	1	0	1	0	5	0	0	0
OTU 23	2	0	0	0	3	1	0	0	0	3	0	4	0	3	1	0	0	0	0	0	1	1	0	0	0	0	0	5	1	1	2	2	2	0	0	0	1	0	0	0	0	1	0	3	0	0	0	0	1	0
OTU 24	1	0	0	4	0	0	0	0	0	0	0	11	2	0	4	0	0	1	0	1	0	3	4	0	0	0	0	0	2	7	0	0	1	0	0	0	2	5	2	3	0	0	0	9	0	0	0	0	0	0
OTU 25	0	33	0	0	0	0	0	0	0	0	0	0	0	0	1	0	0	0	0	0	0	0	0	0	0	0	0	0	0	0	0	0	0	0	0	0	0	0	0	0	0	0	0	0	0	0	0	0	0	0
OTU 26	0	0	0	0	0	0	0	0	0	0	0	0	0	0	0	6	0	0	0	0	0	1	1	0	0	0	0	0	0	0	0	0	3	0	0	0	0	0	0	6	0	0	0	0	1	0	0	0	0	0
OTU 27	0	0	0	0	0	0	0	0	0	0	0	0	0	0	0	0	0	0	0	0	1	0	0	0	0	0	0	0	0	0	0	0	1	0	0	0	0	0	0	0	0	0	0	0	0	0	0	0	0	0
OTU 28	4	0	3	0	13	6	0	1	6	0	1	3	1	3	12	4	1	1	0	0	6	8	2	0	0	1	3	1	1	2	0	1	2	0	1	104	9	0	3	2	0	1	0	1	0	194	0	1	0	0
OTU 29	3	3	0	0	7	1	3	1	0	0	0	0	8	0	8	14	0	1	5	1	2	1	0	0	0	1	0	0	0	1	2	0	0	0	2	1	1	0	1	0	0	2	38	1	1	0	0	1	0	0
OTU 30	0	0	0	0	0	0	0	0	0	0	0	0	0	0	0	0	0	0	0	0	0	0	0	0	0	0	0	0	0	0	0	0	0	0	0	0	0	0	0	0	0	0	0	0	0	0	0	0	0	0
OTU 31	0	1	0	2	0	0	0	2	3	0	0	3	1	0	0	0	0	1	0	1	0	5	0	0	145	0	0	0	0	1	0	2	0	0	0	0	0	0	0	3	1	0	1	0	0	0	8	0	2	65
OTU 32	5	1	0	0	28	1	7	0	0	2	1	0	6	1	0	5	3	1	0	0	0	6	5	1	1	1	4	4	0	2	10	1	0	0	4	2	0	1	0	2	0	3	2	0	0	0	0	5	4	0
OTU 33	0	0	0	0	0	0	0	0	0	0	0	0	0	0	0	0	0	0	0	0	0	0	0	0	0	0	0	0	0	0	1	0	0	0	0	0	0	0	0	0	0	0	0	0	0	0	0	1	1	0
OTU 34	11	2	0	1	5	0	17	0	0	85	0	0	9	0	0	0	0	5	0	0	11	0	1	34	0	17	3	1	0	0	2	2	0	32	1	3	1	0	36	1	0	0	0	3	3	2	0	2	10	0
OTU 35	3	1	0	0	0	0	2	0	1	0	2	5	0	0	2	0	0	0	1	2	0	0	1	1	0	1	0	0	3	0	0	1	1	0	0	1	2	0	0	0	0	1	1	2	1	1	0	0	0	0
OTU 36	0	1	0	2	5	2	0	0	0	0	2	0	2	0	0	0	4	0	1	0	0	4	1	24	0	9	0	3	0	7	0	3	0	26	2	1	1	0	23	3	1	0	0	5	0	0	2	4	7	0
OTU 37	0	1	0	1	0	0	0	3	9	0	0	0	0	0	2	0	0	0	2	0	0	0	5	2	0	0	0	0	0	2	0	0	0	1	0	0	0	0	0	10	0	3	0	0	0	0	0	0	0	0
OTU 38	7	9	0	0	0	0	0	2	3	3	0	1	1	0	0	0	0	0	2	1	0	0	16	0	0	1	0	0	0	0	4	4	1	1	1	2	0	11	1	0	1	0	0	0	0	4	0	0	1	0
OTU 39	0	0	0	0	0	0	2	0	0	21	0	0	1	0	0	0	0	0	0	1	0	0	0	0	0	0	0	0	0	1	0	0	0	0	0	0	2	0	0	0	0	0	0	7	0	0	0	0	0	0
OTU 40	10	0	1	0	13	2	1	1	1	0	0	0	2	1	1	2	0	2	2	1	0	0	0	3	1	0	2	4	3	0	0	0	14	1	1	0	0	1	0	1	0	0	1	2	0	0	0	0	2	2
OTU 41	0	1	0	5	4	0	1	1	0	3	1	2	2	0	0	0	0	1	1	0	4	2	0	1	1	0	0	1	0	0	0	0	0	0	0	1	1	2	0	0	1	0	1	0	0	0	0	0	4	0
OTU 42	0	0	1	0	0	0	0	0	4	2	0	0	0	0	2	0	0	3	0	0	0	1	3	0	0	0	0	0	0	0	0	0	2	0	4	0	0	0	1	0	0	1	0	0	0	0	0	1	0	0
OTU 43	0	0	0	0	0	0	0	0	0	0	0	0	0	0	0	0	0	0	0	0	0	0	1	0	0	0	0	0	0	0	0	0	0	0	2	0	0	0	0	0	0	0	0	0	0	0	0	0	0	0
OTU 44	0	0	2	0	0	0	0	0	0	1	0	4	0	3	4	0	1	0	2	0	0	0	0	0	0	0	2	0	0	0	0	0	2	0	0	0	1	0	0	1	1	1	0	2	0	0	0	0	0	0
OTU 45	27	2	11	1	11	0	3	1	1	0	12	2	4	2	20	0	1	2	1	3	1	2	0	0	6	3	2	2	4	0	0	3	4	0	2	1	8	2	0	0	8	0	2	0	0	0	0	3	86	7
OTU 46	0	0	0	1	0	0	2	3	0	4	1	1	1	0	0	2	0	3	1	0	0	6	0	0	2	4	0	48	0	0	0	1	0	1	4	0	1	2	1	0	1	1	1	1	8	0	0	1	0	0
OTU 47	7	0	0	0	0	2	1	0	1	0	0	0	0	0	0	9	1	0	0	0	0	0	0	0	0	2	1	0	0	0	0	0	2	0	0	1	0	0	0	0	0	0	0	0	0	1	0	0	0	0
OTU 48	1	0	4	2	0	3	52	1	2	0	1	0	2	5	10	1	1	1	0	5	0	0	0	3	2	2	3	1	0	2	0	10	0	4	3	0	0	7	0	2	1	0	1	22	2	0	2	8	4	0
OTU 49	0	5	0	0	0	0	0	0	1	0	2	0	0	0	0	1	1	0	3	0	1	0	0	1	0	0	0	3	0	0	0	1	0	0	0	0	0	0	0	0	0	0	0	0	0	0	0	0	0	0
OTU 50	0	1	0	5	14	0	2	1	6	0	1	0	2	0	1	0	0	6	4	1	1	0	1	0	0	0	0	1	0	1	2	2	0	0	2	2	7	6	0	9	1	3	2	0	1	0	0	1	0	0
OTU 51	0	3	1	0	0	0	0	1	0	1	2	0	0	2	0	9	1	0	4	1	2	6	2	0	0	0	0	0	1	2	0	1	0	0	0	0	0	1	0	1	0	6	0	0	0	0	0	0	0	0
OTU 52	2	1	0	0	7	1	2	0	1	2	2	13	2	1	4	4	2	2	7	2	2	1	0	3	1	2	3	4	0	9	1	1	3	1	3	1	0	9	4	0	0	0	0	1	1	0	0	3	4	0
OTU 53	0	0	0	0	0	0	0	0	1	0	0	0	0	0	0	0	0	0	0	0	0	0	0	0	0	0	0	0	0	0	0	0	0	0	0	0	0	0	3	0	0	1	0	0	0	0	0	0	0	0
OTU 54	8	1	1	5	6	3	2	4	0	3	6	13	1	3	12	2	2	1	0	1	1	1	4	3	1	0	1	3	0	4	1	1	1	0	0	0	2	8	1	1	3	0	2	2	2	1	1	7	0	0
OTU 55	0	0	0	0	0	0	0	0	0	0	0	0	0	0	0	0	0	0	0	0	0	0	0	0	22	0	0	0	0	0	0	0	0	0	0	0	0	0	0	0	0	0	0	0	0	0	0	0	0	15
OTU 56	1	0	4	0	0	0	0	1	5	0	0	5	1	0	0	0	0	0	0	0	2	0	1	1	1	1	1	0	0	0	0	4	4	0	0	0	0	1	0	0	0	0	1	0	1	0	0	0	0	0
OTU 57	3	7	2	1	8	3	0	9	7	15	14	2	9	0	0	6	5	2	1	5	2	8	5	1	7	2	9	6	0	3	2	3	1	1	19	16	6	4	7	6	4	10	8	6	3	8	10	2	8	3
OTU 58	0	0	1	0	0	1	0	0	1	0	0	1	0	6	4	0	0	2	3	0	0	0	0	5	0	0	3	0	3	2	0	0	0	2	1	7	12	0	3	1	0	0	0	2	1	5	0	0	0	0
OTU 59	0	3	0	0	1	0	0	2	2	2	0	1	2	0	0	5	1	0	1	3	2	0	12	1	0	0	2	0	0	4	0	0	0	1	2	1	0	9	2	4	0	1	0	0	1	0	0	0	0	0
OTU 60	1	1	0	0	2	0	4	10	1	8	0	13	2	2	0	5	3	1	3	2	2	6	0	0	66	0	6	0	1	0	0	0	0	0	6	1	1	0	0	4	131	6	5	3	1	0	7	2	1	36
OTU 61	5	8	7	1	0	3	5	0	0	1	0	1	0	2	10	4	1	2	0	0	1	7	2	1	0	2	1	7	4	7	3	0	11	0	0	1	7	20	50	2	0	4	1	2	0	0	95	10	1	0
OTU 62	0	0	0	0	0	0	0	0	9	1	0	0	1	0	0	10	0	1	0	0	0	6	0	0	0	0	0	0	0	0	3	0	0	1	1	0	0	0	0	0	0	0	0	0	3	0	0	0	7	0
OTU 63	0	4	0	0	3	2	1	0	0	0	2	0	0	2	0	1	0	1	0	0	0	3	90	0	0	0	1	0	0	0	0	40	4	0	0	0	0	0	0	8	0	0	0	2	0	0	0	0	0	0
OTU 64	0	0	1	4	2	2	10	0	4	5	115	1	0	1	10	2	3	3	1	2	2	6	4	1	0	0	0	1	2	6	4	9	10	3	9	6	4	8	0	1	0	1	0	2	1	2	2	5	0	1
OTU 65	0	0	0	0	0	0	0	0	2	0	0	0	0	0	0	0	0	0	0	0	0	0	0	0	0	0	0	0	0	0	0	0	0	0	0	0	0	0	0	1	0	0	0	1	0	0	0	0	0	0
OTU 66	4	1	0	0	0	5	2	3	43	1	0	0	4	1	0	0	44	8	2	0	2	1	13	4	0	3	3	0	3	2	0	16	6	3	1	1	5	3	1	0	1	0	1	4	1	0	0	0	0	0
OTU 67	1	1	1	1	0	48	2	0	3	0	2	0	0	2	1	4	0	0	4	0	1	0	1	0	3	0	0	1	0	6	1	1	1	0	0	4	1	0	0	2	2	0	0	4	38	0	1	1	0	1
OTU 68	0	0	0	11	4	2	1	16	0	0	4	0	3	0	0	0	0	1	0	7	0	0	1	0	1	0	32	0	0	0	0	0	0	0	1	5	2	0	3	13	4	0	6	0	6	5	1	0	1	0
OTU 69	1	0	0	1	0	0	3	1	0	3	2	5	2	1	3	0	0	2	1	0	154	1	1	2	2	0	1	0	0	5	2	0	2	0	9	0	1	10	0	0	1	4	0	6	0	0	2	0	0	0
OTU 70	0	0	0	0	1	0	0	2	1	1	5	0	7	0	3	2	5	5	1	0	0	2	0	0	0	0	0	0	0	1	0	0	0	1	2	0	0	17	0	4	1	1	5	0	0	0	2	0	0	0
OTU 71	0	0	4	1	21	0	1	0	1	0	0	0	0	0	0	0	0	0	0	0	0	0	0	0	0	0	0	0	0	0	2	0	0	0	0	0	1	3	0	1	0	0	0	2	0	0	0	1	4	0
OTU 72	2	0	2	3	1	0	0	2	0	0	0	6	3	2	0	0	1	10	0	0	0	3	3	0	0	0	5	0	0	1	3	0	6	1	6	1	0	17	0	2	1	3	0	4	0	0	0	1	0	0
OTU 73	0	1	1	0	1	1	0	2	5	1	0	0	9	1	3	0	1	0	0	0	0	1	0	1	0	3	0	0	0	3	1	0	0	0	2	4	3	0	0	2	1	0	1	1	0	0	1	0	1	0
OTU 74	0	0	0	3	2	0	1	1	1	2	0	2	3	0	0	0	0	1	1	2	0	1	1	0	0	3	6	0	0	0	0	0	2	4	2	0	0	2	0	1	0	2	0	0	2	0	0	0	0	0
OTU 75	0	1	1	7	4	6	2	5	1	11	3	4	8	0	0	4	9	0	0	35	6	18	1	3	3	0	7	1	0	0	2	1	2	1	7	3	2	0	0	3	4	9	33	0	0	2	3	2	0	1
OTU 76	0	0	0	0	0	0	0	1	0	0	0	0	0	0	0	0	0	0	0	0	0	0	0	1	0	0	0	0	0	2	0	0	0	0	9	0	0	0	0	0	0	0	0	2	0	0	0	0	0	0
OTU 77	12	0	0	6	1	0	31	2	5	7	0	4	0	2	3	2	0	0	2	10	1	5	9	2	1	0	2	52	0	1	3	0	1	1	0	0	0	0	2	3	2	28	2	7	0	0	1	3	2	0
OTU 78	2	2	0	0	4	0	3	2	0	2	1	2	2	0	0	13	1	2	4	39	1	6	1	0	0	0	0	1	0	0	3	4	5	0	0	0	0	8	1	3	1	0	0	0	3	0	1	1	79	0
OTU 79	7	5	13	28	4	2	11	8	0	6	65	5	4	4	14	4	5	7	4	17	1	9	2	1	5	1	17	0	4	0	4	9	2	5	30	55	12	0	5	36	4	1	5	18	0	27	4	11	1	2
OTU 80	4	0	1	1	0	0	2	0	3	0	1	0	0	3	5	9	0	5	0	1	0	0	5	0	2	0	0	28	7	0	0	5	7	2	1	1	3	0	2	2	0	0	0	11	0	0	0	1	3	1
OTU 81	7	7	0	3	1	0	0	6	3	0	4	0	2	2	0	2	0	6	4	0	4	2	3	0	0	0	3	10	0	0	1	3	2	0	0	2	10	2	0	0	2	0	5	1	0	0	4	3	3	1
OTU 82	5	0	0	2	0	0	3	3	0	0	0	7	3	106	9	1	0	3	0	0	0	0	0	0	0	2	0	1	48	1	0	1	0	1	0	2	0	2	1	0	1	0	0	1	0	0	2	0	6	0
OTU 83	0	0	0	0	0	1	0	1	0	0	0	0	0	0	0	0	1	0	0	0	0	0	0	0	0	0	0	0	0	0	0	0	9	0	0	1	0	0	0	0	0	3	1	0	0	0	0	14	0	0
OTU 84	0	1	0	0	0	0	0	0	0	4	1	4	1	1	2	0	0	0	0	1	0	3	6	0	0	0	0	11	0	6	0	0	8	0	1	0	0	15	0	1	0	0	0	0	0	0	0	0	3	0
OTU 85	0	0	0	98	0	0	1	0	0	0	0	0	0	1	2	0	0	0	0	0	1	2	1	0	0	3	0	2	0	2	2	0	0	0	0	0	0	0	0	1	0	0	0	0	0	4	0	0	0	0
OTU 86	0	0	0	0	0	0	0	0	0	1	0	0	0	0	0	0	0	0	0	0	0	0	0	0	0	0	0	0	0	10	0	0	0	0	2	1	0	0	0	0	0	0	0	0	0	0	1	0	0	0
OTU 87	12	7	0	1	0	0	0	0	0	0	0	0	2	0	0	0	0	4	0	0	0	0	0	0	0	0	0	0	1	0	1	0	0	0	0	0	0	0	0	2	0	0	0	1	0	0	1	0	0	0
OTU 88	1	0	0	0	0	0	0	2	0	0	0	0	0	0	1	0	0	0	0	0	3	1	0	0	0	0	0	0	0	0	2	0	1	0	0	0	0	0	0	0	0	1	1	0	0	0	0	0	0	0
OTU 89	22	0	0	0	0	0	1	1	0	1	6	0	0	0	1	3	0	14	0	5	2	0	0	0	0	0	0	0	0	0	1	0	0	0	0	0	2	1	2	0	0	1	0	0	0	1	0	0	2	0
OTU 90	0	0	0	0	0	0	0	0	0	0	0	0	0	0	0	0	0	0	0	0	20	0	0	0	0	0	0	0	0	0	0	0	0	0	0	0	0	0	0	0	0	0	0	0	0	0	0	0	0	0
OTU 91	0	0	0	0	0	0	0	0	0	0	0	0	0	0	0	0	0	0	0	0	0	0	0	0	0	0	0	0	0	0	5	0	0	0	0	0	0	0	1	0	0	0	0	0	1	0	0	0	0	0
OTU 92	0	0	0	0	0	5	0	0	0	3	0	2	0	0	0	0	1	1	1	0	0	2	0	1	0	0	4	0	0	0	2	0	0	0	4	2	0	0	0	3	0	0	0	2	0	0	0	0	0	0
OTU 93	0	0	0	0	0	0	0	0	0	0	0	0	0	0	0	0	0	0	0	0	1	0	0	0	0	0	0	0	0	0	0	0	0	0	0	0	0	0	0	3	0	0	0	0	1	0	0	0	0	0
OTU 94	0	0	0	1	0	0	2	1	1	1	1	2	2	0	0	4	2	4	0	0	1	2	4	0	1	0	3	1	0	3	0	0	2	0	0	2	3	0	76	1	1	2	0	1	1	0	4	0	0	8
OTU 95	0	0	0	0	4	0	0	26	1	0	1	0	26	0	0	2	0	0	0	0	0	0	1	0	6	0	3	0	0	0	0	0	0	0	4	0	0	0	0	0	15	0	19	0	0	0	17	1	0	3
OTU 96	0	0	0	0	0	0	0	0	0	0	0	0	2	0	0	0	4	0	0	0	0	0	1	1	0	0	0	0	0	0	0	0	3	0	0	0	0	0	0	0	0	0	0	0	0	0	0	0	0	0
OTU 97	1	0	0	0	0	0	0	0	0	0	0	0	0	0	0	0	0	0	0	0	0	0	1	0	0	0	1	0	0	0	0	1	0	0	0	0	0	0	0	0	0	0	0	0	0	0	0	0	0	0
OTU 98	0	0	0	0	0	3	0	0	4	0	0	0	0	0	0	0	0	0	0	0	1	0	0	0	0	0	0	0	0	1	1	1	0	0	1	0	0	0	0	1	0	0	0	0	0	0	0	0	0	0
OTU 99	1	3	0	0	1	0	2	5	3	1	4	6	5	2	7	0	1	2	5	0	2	6	2	2	1	0	78	3	3	7	4	3	1	0	0	1	0	5	0	0	0	4	1	0	0	2	0	0	0	1
OTU 100	0	1	1	0	0	2	2	3	1	0	1	0	1	0	2	0	0	0	0	0	0	2	0	2	0	0	0	1	0	0	2	4	0	0	2	0	0	1	0	0	3	0	3	0	3	1	0	2	0	0
OTU 101	0	0	0	0	0	0	0	0	0	0	0	0	0	0	0	2	0	0	0	0	1	0	0	0	0	0	0	0	0	0	0	0	0	0	2	0	0	0	0	0	0	0	0	0	0	0	0	0	0	0
OTU 102	0	0	0	0	0	0	2	0	0	0	0	0	0	3	3	0	0	0	0	0	0	0	0	1	0	0	0	2	0	0	3	1	0	0	0	0	4	4	0	0	0	0	0	0	0	2	0	1	0	0
OTU 103	2	0	0	0	0	0	0	0	0	0	0	0	0	0	0	0	1	1	1	0	0	0	0	0	0	0	0	0	0	9	0	0	0	0	0	0	0	0	0	0	0	118	0	1	0	0	0	2	2	0
OTU 104	1	1	1	4	0	5	6	2	4	1	0	52	2	0	7	2	0	2	9	1	4	0	1	0	1	0	1	7	0	1	1	1	0	0	3	1	1	0	1	0	2	0	1	6	0	2	2	2	0	0
OTU 105	1	2	3	0	2	0	2	0	0	0	0	0	0	0	0	2	1	0	0	1	4	0	0	0	0	0	2	0	0	0	1	0	3	0	0	0	0	0	0	0	0	0	0	0	0	0	0	0	0	0
OTU 106	1	0	0	0	0	0	0	0	0	1	0	0	0	0	0	0	0	0	0	0	0	0	0	1	0	0	0	0	0	1	0	0	5	3	0	0	0	3	0	0	0	0	0	0	0	0	4	1	0	0
OTU 107	0	2	0	0	0	0	0	0	12	0	0	1	0	0	0	0	0	0	1	1	0	4	13	2	0	0	0	0	0	0	0	0	0	0	0	0	0	0	1	0	1	1	0	3	1	1	0	1	0	0
OTU 108	0	4	0	0	0	0	2	1	0	0	3	0	0	0	0	1	14	0	0	0	4	0	2	18	0	5	0	0	0	0	0	0	7	5	0	4	0	0	19	0	0	0	0	7	0	0	2	0	0	0
OTU 109	0	0	0	0	0	0	0	0	0	0	0	0	0	0	0	0	0	0	0	0	0	0	0	0	0	0	0	0	0	0	0	0	0	0	0	0	0	0	0	0	0	0	0	0	0	0	0	0	0	0
OTU 110	2	4	0	0	0	3	1	1	0	2	0	2	6	6	5	0	3	0	0	0	0	7	0	0	0	0	0	1	1	0	0	6	2	1	0	0	3	0	0	0	0	1	1	0	0	0	0	9	1	0
OTU 111	0	0	0	0	0	0	0	0	0	0	0	1	0	0	0	0	0	0	0	0	0	0	0	0	0	0	0	0	0	0	0	0	0	0	0	0	0	0	0	0	0	0	0	0	0	0	0	1	0	0
OTU 112	3	0	0	3	3	0	0	0	0	1	0	1	2	1	1	0	0	4	0	0	4	0	0	0	0	0	0	7	0	4	0	0	0	0	1	0	0	1	0	0	0	0	0	0	0	0	0	0	2	0
OTU 113	0	1	1	1	0	0	0	1	0	0	0	1	0	0	0	0	0	0	0	1	0	0	0	0	0	0	0	0	0	0	2	0	0	0	0	0	0	0	0	0	0	0	0	0	0	0	0	0	0	0
OTU 114	0	0	1	1	3	9	0	0	26	4	1	1	3	0	2	1	72	0	1	3	9	1	4	1	1	0	1	7	0	8	0	20	7	6	1	0	0	2	4	1	0	3	1	6	2	0	2	3	0	1
OTU 115	7	2	3	1	0	3	1	2	0	1	1	9	1	2	0	2	4	2	13	2	2	0	0	0	0	0	1	0	0	0	4	4	3	2	0	8	5	3	0	4	2	0	1	0	1	2	1	3	1	1
OTU 116	0	3	2	1	2	1	2	1	0	2	1	8	0	0	1	0	0	1	1	0	0	0	0	1	0	0	1	6	1	2	4	1	5	1	2	1	0	4	0	0	0	0	1	4	0	1	0	3	0	0
OTU 117	3	0	0	0	2	0	1	0	2	0	0	1	0	3	6	2	0	0	0	0	0	1	0	0	0	0	2	6	1	1	0	6	1	0	0	0	0	1	0	5	0	0	0	3	0	1	0	4	0	0
OTU 118	0	0	2	0	0	0	0	0	0	2	0	2	0	1	0	0	0	0	0	0	0	0	0	0	0	0	0	0	0	1	4	1	1	0	0	0	0	7	0	0	2	0	0	3	0	0	0	0	0	0
OTU 119	0	0	5	3	1	5	2	1	0	0	0	0	6	0	0	1	1	7	1	0	0	2	0	0	0	0	0	3	0	0	1	0	1	0	1	1	1	1	0	2	0	1	1	0	6	1	0	6	2	0
OTU 120	0	0	0	0	7	0	0	0	0	0	0	0	0	0	1	0	0	0	0	8	0	0	2	0	0	0	0	1	0	2	0	0	1	0	1	1	0	5	0	0	0	0	0	6	0	2	0	0	0	0
OTU 121	27	6	1	0	3	0	7	1	14	0	0	0	0	2	7	2	0	17	4	3	0	0	0	1	0	0	0	0	1	1	1	0	5	0	0	2	2	2	0	0	0	0	0	0	0	1	3	0	2	0
OTU 122	0	1	2	1	1	1	6	11	0	3	0	4	0	0	0	1	0	0	5	0	3	4	5	2	1	0	1	0	0	4	1	0	0	0	0	0	0	0	0	0	3	4	6	1	0	0	3	0	0	1
OTU 123	4	5	3	6	53	5	7	4	10	4	3	4	5	2	13	7	2	3	16	2	27	4	11	6	3	4	2	5	1	27	6	14	35	4	2	2	4	14	4	9	0	6	4	42	2	2	0	32	14	0
OTU 124	0	0	2	0	1	0	0	0	0	0	0	0	0	0	3	0	0	0	2	0	1	0	0	1	0	1	0	0	0	0	0	0	0	1	0	0	1	0	2	2	0	0	0	0	0	0	0	0	1	0
OTU 125	19	8	11	52	4	3	7	1	4	9	3	13	101	96	8	10	10	4	20	55	1	1	4	0	2	1	2	2	46	4	7	2	22	0	2	1	22	8	0	99	3	5	6	0	1	1	8	6	7	1
OTU 126	0	0	0	2	4	0	0	5	0	5	0	0	0	0	2	2	0	0	1	0	0	4	0	0	1	0	2	0	2	0	0	0	0	2	1	0	0	0	0	1	5	3	1	0	0	0	6	0	0	0
OTU 127	0	0	2	1	0	0	3	0	2	1	0	7	4	0	0	0	1	2	1	0	0	3	0	0	0	0	0	5	0	3	6	1	1	0	0	0	3	0	0	0	0	0	0	0	1	0	1	4	0	0
OTU 128	1	16	1	4	11	4	13	5	6	22	15	0	3	3	1	3	2	42	6	11	0	38	10	3	5	17	17	6	151	16	6	11	14	32	8	2	1	3	1	2	3	18	10	1	2	2	10	6	0	2
OTU 129	0	4	0	0	0	0	1	24	0	0	0	0	9	0	0	0	0	1	0	0	0	0	0	0	1	0	0	1	0	0	0	2	2	0	0	0	0	0	0	0	4	0	11	0	0	0	10	2	0	2
OTU 130	1	0	2	0	0	0	1	0	0	11	0	0	0	7	4	5	0	0	0	2	0	36	1	0	0	0	0	0	5	0	0	0	0	0	0	0	10	4	0	2	0	15	0	0	0	0	0	4	0	0
OTU 131	0	0	0	1	0	0	2	5	3	2	0	14	1	0	0	1	3	1	3	0	0	3	6	1	2	0	1	2	0	1	0	1	0	0	2	0	1	2	2	0	1	3	5	7	0	0	0	9	0	0
OTU 132	0	0	0	0	0	1	0	0	0	0	3	1	0	2	0	1	0	3	2	0	0	2	0	1	0	0	1	3	0	3	1	0	2	0	0	0	0	2	1	4	0	0	0	3	0	0	0	0	0	0
OTU 133	0	0	2	0	0	3	0	0	0	0	0	2	0	0	1	0	0	0	0	0	0	0	0	0	0	0	0	0	0	0	0	0	0	0	0	0	0	0	0	0	0	0	0	0	4	0	1	0	0	0
OTU 134	0	0	0	1	1	2	0	10	2	0	13	4	0	0	0	2	4	0	0	0	0	1	0	7	1	3	0	0	1	0	0	0	0	3	0	2	0	4	5	0	9	11	2	5	0	0	0	1	0	0
OTU 135	2	0	1	0	0	4	0	1	0	0	1	0	0	0	0	0	1	0	5	0	4	0	1	0	0	0	0	2	0	1	1	1	0	0	0	8	0	1	0	0	0	1	1	0	0	2	0	0	0	0
OTU 136	0	1	0	0	0	44	0	0	3	0	0	4	0	0	0	0	2	1	1	1	0	0	0	0	0	0	0	0	0	0	0	0	2	0	9	2	1	5	0	2	0	0	0	0	49	0	0	2	0	0
OTU 137	0	0	0	0	1	0	1	0	0	1	0	4	0	0	0	1	0	0	0	1	0	0	5	0	0	0	5	0	0	0	3	0	1	0	0	5	0	0	0	0	0	0	108	0	0	1	0	0	0	0
OTU 138	1	1	0	1	4	0	0	0	1	0	0	0	0	0	0	1	0	0	6	0	0	2	0	0	0	1	6	0	0	0	0	0	2	0	0	1	1	0	0	0	0	2	0	0	0	0	1	1	0	0
OTU 139	7	5	9	0	6	1	1	15	22	2	0	6	2	24	44	1	0	6	11	2	1	0	3	71	2	2	2	1	38	2	5	7	2	1	0	2	24	4	2	0	5	3	12	35	3	1	12	4	2	1
OTU 140	8	3	4	0	10	2	0	3	3	0	1	3	2	3	2	1	2	2	3	2	1	15	13	2	0	0	0	3	1	1	1	7	7	2	8	8	8	2	0	13	0	3	1	0	0	1	2	0	0	0
OTU 141	0	0	0	0	0	0	0	0	0	0	0	0	0	0	0	0	0	0	0	0	0	0	0	0	0	0	0	0	0	0	0	0	0	0	0	0	0	0	0	0	0	0	0	0	0	0	0	0	0	0
OTU 142	0	0	0	0	0	0	0	0	0	0	0	1	0	0	0	0	0	0	0	0	0	0	0	0	0	0	0	0	0	0	1	0	0	0	0	0	0	0	0	0	0	0	0	0	0	0	0	0	1	0
OTU 143	0	0	0	0	0	0	0	2	0	0	1	2	2	0	0	3	6	0	0	0	0	0	0	0	0	1	0	0	0	0	1	0	0	0	0	1	0	3	0	0	0	0	0	1	0	1	0	0	0	0
OTU 144	5	0	0	0	0	0	0	0	0	0	0	0	0	0	0	0	0	0	0	0	0	0	0	0	0	0	0	0	1	0	0	0	3	0	0	0	0	1	0	0	0	0	0	0	1	0	1	0	0	0
OTU 145	2	48	1	1	0	0	3	0	0	0	0	0	0	3	4	2	1	90	1	0	4	3	2	0	2	0	0	1	0	1	2	0	1	0	0	0	4	1	1	0	2	2	0	1	5	0	0	8	2	1
OTU 146	0	0	0	0	0	0	0	0	7	2	0	0	3	2	6	0	0	0	2	1	0	0	0	0	0	180	0	1	0	1	0	0	4	0	0	2	1	0	1	0	0	2	0	0	0	3	0	0	0	0
OTU 147	0	0	0	0	0	0	0	0	0	3	0	0	0	0	0	1	0	0	0	0	1	12	0	0	0	0	6	0	1	0	0	0	2	0	1	0	0	0	0	0	1	0	0	2	0	0	4	0	0	0
OTU 148	2	0	0	0	1	1	0	0	0	0	0	0	1	1	4	0	1	1	0	2	4	1	0	0	0	0	0	0	1	2	0	1	0	0	1	4	3	3	0	2	0	5	0	0	5	0	65	11	0	0
OTU 149	1	0	0	0	3	0	1	3	0	1	2	0	0	1	1	0	0	2	0	1	9	0	0	0	0	0	0	0	0	0	0	0	0	0	1	0	0	0	0	1	0	0	0	0	1	0	0	4	0	0
OTU 150	0	0	0	0	0	1	2	0	0	1	0	0	2	0	0	1	0	0	1	1	0	0	0	0	0	0	0	2	0	6	0	1	0	0	0	0	0	3	1	0	0	0	0	0	0	0	0	0	0	0
OTU 151	0	0	0	0	1	7	0	0	0	2	0	4	0	1	0	1	0	0	0	0	0	0	4	0	0	0	0	0	1	2	162	0	18	0	1	0	0	0	0	3	0	0	0	1	2	0	0	0	0	1
OTU 152	4	0	4	5	1	1	14	20	7	4	0	0	2	2	5	2	1	7	1	0	0	1	0	2	8	0	0	1	0	2	0	2	1	0	0	0	1	2	2	4	11	1	10	1	0	0	4	0	6	3
OTU 153	0	0	0	0	0	0	0	0	0	0	0	2	2	0	0	0	0	0	0	0	0	0	0	0	0	0	0	0	0	0	0	0	0	0	0	1	0	0	0	0	0	0	0	0	0	0	0	0	0	0
OTU 154	0	0	0	0	0	1	0	0	0	0	0	0	0	2	0	1	0	0	0	2	0	0	2	0	0	0	0	0	2	0	0	0	0	0	0	0	0	1	0	0	0	0	0	0	1	0	0	0	0	0
OTU 155	0	0	3	0	0	0	0	1	0	0	4	1	1	0	1	0	0	2	0	0	0	0	0	0	1	0	1	0	0	10	0	68	1	0	0	0	2	4	0	2	0	0	1	0	0	1	0	1	0	0
OTU 156	2	2	1	0	0	1	1	6	3	0	0	11	0	0	0	2	1	0	0	4	1	4	2	0	3	0	0	0	0	0	1	1	15	0	0	0	1	5	0	5	0	1	2	4	2	1	1	5	4	0
OTU 157	0	0	0	0	0	3	0	5	0	0	0	0	0	0	0	0	0	1	0	1	0	0	0	0	0	0	0	1	0	0	1	0	0	0	0	0	0	0	1	0	2	1	1	0	0	0	2	4	0	0
OTU 158	0	0	0	0	0	0	0	0	0	0	0	0	0	0	0	0	0	0	0	0	0	0	0	0	0	0	0	0	0	0	0	1	0	0	0	0	0	0	0	0	0	0	0	0	0	0	0	0	0	0
OTU 159	2	5	0	2	2	4	1	2	0	0	0	0	5	0	0	33	2	0	0	0	0	0	4	0	16	0	0	3	0	0	0	1	4	0	0	0	1	0	1	2	3	2	1	0	2	0	2	0	0	7
OTU 160	20	3	1	0	3	3	7	2	5	0	3	4	5	0	5	2	2	5	1	1	0	2	8	1	1	9	0	4	0	3	5	10	8	1	4	11	2	1	3	2	2	2	2	5	0	6	3	5	1	0
OTU 161	0	1	0	0	5	0	1	6	0	0	0	4	0	0	0	4	0	0	0	0	0	5	3	0	1	0	0	0	0	0	0	0	0	0	2	1	0	4	2	0	0	0	2	1	3	1	1	0	1	1
OTU 162	1	12	0	2	0	2	4	2	3	0	0	1	2	0	0	2	0	1	2	1	0	5	4	0	0	0	7	4	1	0	0	1	0	0	0	0	0	4	0	3	0	0	1	3	4	0	0	0	0	1
OTU 163	0	0	0	0	0	0	0	0	0	0	0	0	0	0	0	0	0	0	0	0	0	0	0	0	0	0	0	0	0	0	0	0	0	0	0	0	0	0	0	0	0	0	0	0	0	0	0	0	1	0
OTU 164	0	0	0	0	0	0	0	0	0	0	0	0	0	0	0	1	0	0	0	0	0	0	0	0	0	0	0	0	0	0	0	0	0	0	0	0	0	0	0	0	0	0	0	0	0	0	0	0	0	0
OTU 165	0	0	0	2	0	1	0	0	0	0	0	1	0	0	0	0	0	0	33	0	0	0	0	0	0	0	5	0	0	3	0	0	0	0	0	2	0	4	0	1	0	0	0	1	0	1	0	1	0	0
OTU 166	0	0	0	0	0	0	0	0	0	0	0	0	0	0	0	0	0	0	0	0	0	0	0	0	0	0	1	0	0	0	0	0	0	0	0	0	0	0	0	0	0	0	0	3	0	0	0	0	0	0
OTU 167	1	0	0	3	0	2	2	10	2	0	0	0	3	1	0	0	0	0	0	0	6	0	0	0	2	1	0	0	0	2	1	1	0	0	2	10	0	4	0	0	3	0	1	4	0	4	9	0	0	1
OTU 168	1	0	0	0	8	1	8	0	1	0	0	0	0	1	0	71	2	6	0	1	0	1	1	4	0	4	0	3	0	0	1	5	0	1	0	1	1	7	1	0	0	0	0	3	0	1	0	3	3	0
OTU 169	0	0	0	2	0	0	0	0	1	0	0	0	0	0	0	0	0	0	0	0	0	2	0	0	0	0	0	3	0	0	0	0	0	0	0	0	0	0	0	1	0	0	0	0	0	0	0	0	0	0
OTU 170	0	0	0	0	0	0	0	0	0	0	0	0	0	0	0	0	0	0	0	0	0	0	0	0	0	0	0	0	0	0	0	0	0	0	0	0	0	0	0	0	0	0	0	0	0	0	0	0	0	0
OTU 171	0	2	0	1	0	0	1	0	2	0	0	5	0	0	2	0	0	0	0	0	3	2	0	0	0	0	2	0	0	0	0	0	0	0	83	0	1	20	0	0	0	0	2	0	0	0	0	0	0	0
OTU 172	0	0	0	0	0	0	0	0	0	0	1	0	0	0	0	0	0	0	3	0	1	2	0	0	0	0	0	0	0	0	1	0	7	0	0	0	0	0	0	0	0	0	0	0	0	1	0	0	0	0
OTU 173	0	0	0	0	4	3	0	0	0	0	0	0	0	0	0	0	0	0	2	2	0	0	4	0	0	0	0	0	0	3	0	0	0	0	0	0	0	4	1	2	1	0	0	0	0	0	0	0	0	1
OTU 174	6	7	0	6	1	0	21	4	0	1	2	0	1	4	9	0	2	3	0	12	2	1	1	1	3	0	1	0	0	0	0	1	0	0	1	0	5	0	0	14	2	2	1	2	2	1	1	8	0	0
OTU 175	0	0	0	0	0	0	0	0	0	0	0	5	1	1	0	0	0	0	0	0	0	0	0	0	0	0	3	2	1	0	1	0	0	0	0	0	0	0	0	0	0	2	0	2	0	0	0	0	7	0
OTU 176	3	0	0	0	1	2	3	0	0	13	1	0	0	1	2	0	0	1	2	0	2	15	0	85	0	0	0	0	1	2	8	0	2	2	1	0	0	6	1	0	1	4	0	3	0	0	0	4	3	0
OTU 177	4	1	3	0	3	2	0	0	5	25	8	0	1	2	4	3	1	1	2	9	0	0	0	0	0	1	2	1	1	5	0	0	3	1	4	2	2	0	0	2	0	0	0	1	0	0	0	1	0	0
OTU 178	0	0	0	2	4	0	0	1	0	0	0	0	0	0	0	0	0	0	0	5	0	0	0	1	0	0	1	1	0	0	3	0	2	0	1	0	0	0	0	1	0	0	0	1	0	0	0	0	0	0
OTU 179	0	0	0	0	0	4	0	4	2	1	2	0	6	1	2	0	5	0	1	1	1	0	0	1	0	1	1	1	0	0	1	0	3	1	1	2	0	0	3	2	1	0	1	0	0	1	1	0	2	0
OTU 180	0	1	69	3	6	55	0	5	11	2	7	4	1	0	1	27	17	1	3	8	4	5	1	11	2	3	3	2	7	0	2	6	2	2	0	8	139	2	8	9	3	3	2	3	22	5	4	0	27	1
OTU 181	2	0	0	1	0	0	0	0	3	0	5	0	1	0	0	0	0	0	1	0	0	0	0	0	0	0	0	4	0	3	0	0	2	0	0	0	0	0	0	0	1	1	0	1	0	0	0	1	0	9
OTU 182	0	0	0	0	0	0	0	0	1	0	0	0	0	0	0	0	0	0	0	0	0	0	0	0	0	0	0	0	1	0	0	0	0	0	0	0	0	0	0	0	0	0	2	0	0	0	0	1	0	0
OTU 183	9	1	2	0	0	0	1	7	3	1	0	0	0	0	11	0	0	5	1	0	0	0	1	0	0	0	1	0	0	0	0	1	4	0	0	1	2	5	0	0	0	2	1	3	0	2	5	1	1	0
OTU 184	0	0	0	0	0	0	2	1	0	2	0	0	0	1	3	1	0	0	0	2	0	3	0	0	0	0	1	0	0	1	0	0	0	0	0	0	0	0	0	1	1	2	1	2	0	0	5	5	0	0
OTU 185	3	0	9	0	0	0	1	1	0	0	0	1	4	0	1	5	7	1	86	4	0	0	0	0	0	0	1	1	0	3	0	3	5	0	1	0	0	2	0	2	0	0	2	3	1	0	0	7	0	155
OTU 186	0	1	0	0	5	0	0	0	0	0	0	0	0	0	0	0	0	0	0	0	0	0	0	0	30	0	0	0	0	1	0	0	0	0	1	0	0	0	0	1	60	0	0	0	0	0	3	1	0	18
OTU 187	6	67	0	0	5	6	9	5	4	0	6	0	0	6	3	3	2	0	1	50	0	11	0	4	3	24	3	4	0	1	6	2	1	73	2	6	0	0	1	0	1	0	1	1	3	3	1	3	1	0
OTU 188	6	2	0	0	0	0	2	0	24	0	2	2	5	3	1	1	0	4	3	1	2	0	12	2	0	2	0	2	2	2	2	11	4	0	4	5	3	11	2	0	0	0	0	30	0	2	0	2	0	0
OTU 189	4	0	128	2	0	4	5	1	15	4	1	3	7	2	0	1	4	2	5	4	7	6	7	3	0	0	7	0	0	4	4	4	1	1	1	0	3	0	0	0	1	8	0	2	0	0	0	2	0	0
OTU 190	0	13	0	0	0	0	1	0	0	0	0	0	0	0	0	0	0	15	0	0	0	0	0	0	0	0	0	0	0	0	1	0	0	0	0	0	0	0	0	0	0	0	1	1	0	0	0	0	0	0
OTU 191	1	0	6	2	2	1	0	0	1	0	2	5	1	0	0	0	0	0	1	3	3	0	0	3	0	1	3	6	0	2	1	6	1	0	2	1	0	9	3	0	3	30	1	3	0	1	1	0	11	0
OTU 192	1	12	2	45	1	7	0	12	0	1	0	1	12	2	4	2	0	4	2	1	2	0	4	1	6	2	2	0	3	1	0	2	10	2	0	1	0	0	0	2	16	1	10	2	3	1	7	4	1	2
OTU 193	1	2	3	0	0	1	1	1	1	0	6	1	3	0	0	0	49	0	0	3	0	0	4	0	0	0	1	0	3	0	0	0	1	1	0	1	0	4	0	0	4	2	0	0	4	0	3	0	2	0
OTU 194	0	0	1	2	1	0	2	3	1	0	1	0	0	2	3	0	0	0	1	3	0	0	0	0	2	0	2	44	1	0	0	0	0	0	0	0	0	0	0	0	1	1	0	2	132	1	0	8	1	0
OTU 195	0	0	5	0	0	0	3	0	0	1	3	0	0	9	7	0	1	0	1	0	12	1	3	0	0	0	0	1	6	1	0	0	0	0	0	1	4	0	0	0	0	0	0	1	1	0	0	0	0	0
OTU 196	1	0	0	1	2	7	3	4	0	0	2	2	0	0	0	0	2	0	1	2	0	2	0	4	1	7	7	0	0	98	0	5	0	8	0	0	0	0	12	1	3	0	1	0	0	0	1	0	3	0
OTU 197	7	8	1	3	8	0	6	4	5	15	2	1	0	1	1	3	2	1	3	3	1	2	1	1	2	0	4	0	0	5	2	0	3	0	49	3	0	2	1	9	0	1	0	3	1	0	13	0	2	0
OTU 198	0	3	0	0	0	0	0	3	1	0	0	2	0	0	0	1	3	2	2	0	0	0	0	0	0	0	1	0	0	0	0	0	0	0	0	0	0	0	0	0	0	0	0	0	0	0	0	2	0	0
OTU 199	0	0	0	2	0	0	0	2	2	1	2	1	0	0	4	1	0	0	0	1	0	2	1	1	0	0	0	1	0	0	0	0	0	0	0	0	0	0	29	0	0	4	0	0	0	0	0	0	0	0
OTU 200	1	2	0	3	8	7	0	0	1	1	0	3	0	1	1	2	0	0	5	0	2	0	2	1	0	1	4	0	0	0	1	0	0	3	2	1	0	0	2	2	1	0	1	0	0	0	1	0	0	0
