	Host 1	Host 2	Host 3	Host 4	Host 5	Host 6	Host 7	Host 8	Host 9	Host 10	Host 11	Host 12	Host 13	Host 14	Host 15	Host 16	Host 17	Host 18	Host 19	Host 20	Host 21	Host 22	Host 23	Host 24	Host 25	Host 26	Host 27	Host 28	Host 29	Host 30	Host 31	Host 32	Host 33	Host 34	Host 35	Host 36	Host 37	Host 38	Host 39	Host 40	Host 41	Host 42	Host 43	Host 44	Host 45	Host 46	Host 47	Host 48	Host 49	Host 50	
OTU 1	81	163	0	285	0	15	9	441	99	100	0	523	4	67	158	0	206	1	152	388	4	232	225	345	18	280	1	201	281	1	182	460	233	10	0	0	154	340	439	225	301	202	8	29	322	1	162	162	5	110
OTU 2	0	10	14	33	0	114	2	3	14	17	0	5	0	8	16	62	6	4	1	0	1	0	3	10	0	2	11	0	19	0	0	0	7	0	0	19	2	0	0	16	0	3	3	0	31	0	27	19	1	0
OTU 3	2	0	8	2	7	0	0	1	0	0	0	15	2	4	0	0	1	0	0	0	0	0	2	10	0	0	0	0	36	0	0	0	0	22	0	1	0	12	0	0	1	0	2	0	0	80	2	0	0	0
OTU 4	0	0	0	0	0	0	0	0	0	0	0	0	0	0	0	0	0	0	0	0	0	0	0	0	0	0	0	0	0	0	0	0	0	10	0	0	0	0	0	0	0	0	0	0	0	0	0	0	0	0
OTU 5	594	116	500	135	506	4	43	269	893	158	158	133	524	217	1006	1100	1467	1	1108	424	163	519	99	60	0	1143	177	30	206	1881	114	126	54	200	58	648	195	64	173	347	340	63	220	682	241	69	158	354	51	946
OTU 6	24	0	6	8	0	55	38	2	0	0	0	3	13	4	148	36	4	0	1	3	5	3	5	3	33	6	97	11	11	10	30	21	4	91	6	21	7	0	24	4	17	5	57	6	299	57	0	2	3	2
OTU 7	138	13	31	14	141	60	58	15	291	363	131	12	44	61	7	16	23	53	309	16	202	55	18	19	14	37	174	41	475	64	284	25	9	6	41	82	502	279	11	617	57	16	51	316	8	63	385	216	11	2
OTU 8	27	47	16	120	26	35	31	10	18	14	17	97	27	44	39	126	28	2049	3	35	51	133	6	17	84	46	25	19	12	36	45	117	2	62	3	104	2	32	6	25	50	51	127	20	59	10	1	50	23	11
OTU 9	4	24	0	9	0	0	207	8	0	0	26	51	10	1	0	14	12	6	4	7	32	5	0	0	10	12	0	0	2	89	20	5	1	0	8	7	1	26	10	0	4	0	3	3	0	4	5	3	0	3
OTU 10	68	0	2	0	5530	0	9	4	227	237	0	1	2	0	0	8	0	7	256	1	0	15	28	7	0	0	0	8	0	61	154	17	0	0	0	20	1	0	8	488	3	0	0	99	0	1	0	425	0	11
OTU 11	35	5	4	1	12	2	21	48	0	0	4	14	170	7	0	66	26	26	9	25	28	4	13	13	19	15	0	22	11	0	58	6	14	52	24	10	0	68	1	1	60	11	0	10	1	11	1	7	24	10
OTU 12	0	34	5	22	145	13	0	0	1	0	15	12	24	28	0	24	4	58	0	10	46	3	1	6	31	16	25	0	10	4	9	19	1	2	1	52	27	24	3	3	2	10	54	29	2	0	38	1	236	2
OTU 13	1	0	0	7	0	0	0	0	0	0	0	3	7	3	0	2	0	0	2	0	0	4	4	0	1	2	0	0	0	39	0	4	0	0	0	0	0	0	0	0	0	0	0	8	0	1	0	0	9	0
OTU 14	1	7	30	0	5	0	10	0	2	0	4	1	0	7	0	0	0	0	2	0	1	5	1	5	52	0	1	0	13	0	0	0	0	11	2	24	0	58	7	1	2	0	48	41	0	1	27	23	3	0
OTU 15	0	0	0	0	0	5	2	0	2	5	0	2	0	0	5	0	0	3	0	0	0	0	2	4	0	0	45	3	29	0	0	0	0	0	0	38	1	0	0	7	6	0	0	0	5	0	9	3	0	5
OTU 16	0	0	0	0	0	0	1	0	0	0	0	0	0	0	0	0	0	0	0	0	0	0	0	0	41	1	0	0	0	0	0	0	0	0	22	27	0	0	0	0	0	0	3	0	0	0	0	0	0	0
OTU 17	8	0	5	27	0	4	3	7	2	0	8	20	358	2	12	53	0	0	0	6	19	60	30	64	9	36	25	1	2	19	0	8	3	4	4	1	10	1	2	0	0	13	52	0	18	0	14	11	0	10
OTU 18	5	103	7	6	47	38	4	22	1	1	61	4	27	12	12	25	10	26	36	7	13	9	70	55	25	1	19	27	0	87	16	39	26	74	15	25	13	76	122	4	25	16	23	11	26	101	4	11	3	36
OTU 19	0	0	0	0	0	0	0	0	0	0	0	0	0	0	0	0	0	0	0	0	0	0	0	0	0	0	0	0	0	0	0	0	0	11	0	0	0	0	0	0	0	0	0	0	0	0	0	0	0	0
OTU 20	25	31	7	23	35	18	25	6	22	38	6	4	7	3	2	8	27	0	4	8	22	0	2	2	34	37	28	14	22	18	43	69	1	55	5	25	19	13	6	47	1	38	15	23	11	1	21	28	7	11
OTU 21	1	42	11	28	6	41	80	2	39	21	3	26	39	9	1	9	51	17	5	9	9	8	6	13	432	10	40	40	0	1	1	31	17	8	3	9	27	11	49	68	2	1	15	1	3	4	42	0	0	0
OTU 22	7	7	10	2	3	1	1	21	98	5	13	21	143	8	6	0	24	11	1	54	1	74	0	7	22	6	3	16	37	0	32	56	6	4661	10	1	7	49	2	3	2	6	113	307	13	51	4	71	1	4
OTU 23	3	8	18	11	25	0	7	7	0	0	36	6	8	0	0	100	0	0	1	5	2	3	22	3	3	25	4	10	35	0	4	6	0	5	72	77	13	0	17	2	0	12	4	5	1	14	27	52	1	4
OTU 24	0	8	1	7	0	110	4	30	4	0	10	0	5	53	0	1	7	68	0	38	123	7	14	0	24	1	30	19	18	27	0	4	4	21	0	0	0	0	73	1	58	0	0	6	1	8	12	3	5	0
OTU 25	0	0	0	0	0	0	0	0	0	0	0	0	0	0	0	0	0	0	0	0	0	0	0	0	0	0	0	0	0	0	0	0	0	3	0	0	0	0	0	0	6	0	0	0	0	4	0	1	0	0
OTU 26	8	0	0	5	0	28	0	0	0	0	0	77	0	0	0	0	20	0	0	0	13	2	0	0	9	7	0	0	5	0	28	68	0	0	2	17	8	42	0	0	0	0	1	0	0	1	9	0	0	0
OTU 27	0	0	0	0	53	0	0	0	0	0	0	0	0	0	0	0	0	0	0	4	0	6	0	0	0	0	0	0	0	0	0	0	0	0	3	0	0	0	0	0	0	0	0	0	0	0	19	0	0	0
OTU 28	43	3	4	56	29	4	23	0	27	34	43	101	8	30	9	320	67	50	32	12	48	7	140	35	45	16	45	31	16	0	54	82	14	18	66	5	5	18	43	73	2	18	30	12	30	16	24	2	225	59
OTU 29	3	25	24	46	1	22	17	18	15	3	11	3	2	30	2	66	9	44	1	13	168	3	23	23	49	27	18	5	22	80	0	19	2	3	44	52	52	3	15	7	2	4	52	324	9	77	13	25	43	16
OTU 30	0	0	0	3	0	0	0	1	1	20	0	0	0	0	0	0	0	0	0	0	0	3	0	0	0	0	0	0	1	0	0	0	0	0	0	37	0	0	0	2	0	0	0	0	0	0	0	1	0	0
OTU 31	185	4	0	8	0	0	0	15	419	461	0	34	0	7	1	11	19	0	442	0	0	1	0	9	0	17	10	0	2380	0	320	2076	1	16	0	0	936	1121	0	934	31	1	0	190	1	3	1129	499	71	0
OTU 32	2	28	15	16	16	59	34	11	6	5	33	8	9	13	12	84	1	44	47	357	93	13	2	32	102	38	36	20	100	61	11	29	5	35	58	3	18	4	1329	37	8	1	25	5	22	33	68	8	99	16
OTU 33	0	0	0	0	0	0	0	0	0	0	0	0	0	0	0	0	0	34	0	0	21	0	6	3	97	11	1	0	0	1	0	0	1	0	5	0	0	0	0	2	10	0	0	0	0	0	0	0	0	1
OTU 34	1982	27	5	0	1	11	4	4	15	1	15	6	53	0	5	18	10	12	0	0	16	3	6	2	2	29	84	24	20	13	44	84	8	27	3	13	5	10	3	43	1	48	31	0	12	79	40	80	27	5
OTU 35	1	17	0	21	0	7	24	13	1	367	3	0	2	9	25	2	0	0	17	0	40	3	3	33	27	2	17	6	0	11	0	3	2	45	7	0	28	56	23	0	3	1	32	5	34	65	1	2	18	3
OTU 36	5	0	0	3474	3	0	59	14	11	18	119	2	2	25	0	3	22	45	10	1	9	35	10	22	5	0	2	0	42	49	9	1	1	10	0	4	1	0	12	38	7	1	11	29	0	31	18	14	36	3
OTU 37	0	0	0	0	0	0	3	26	0	1	6	0	0	0	0	0	0	6	0	0	5	1	0	0	7	3	0	49	9	0	0	1	6	13	0	29	0	0	21	0	1	0	3	3	0	0	0	0	7	1
OTU 38	41	600	28	534	28	23	32	1320	130	131	136	1511	13	423	421	9	581	0	137	536	0	565	528	617	7	475	16	373	284	0	113	827	372	47	28	4	62	247	336	183	571	194	9	27	894	60	124	85	2	131
OTU 39	1	1	0	0	7	0	1	0	0	7	3157	22	10	1	0	8	10	6	4	1	55	0	0	0	1	0	44	14	5	1	0	0	0	0	2	12	5	19	12	15	1	0	7	16	0	1	5	0	10	4
OTU 40	1	11	8	31	8	19	56	61	17	13	6	5	21	30	0	32	20	5	49	18	39	19	14	17	51	1	183	12	2	5	3	12	6	0	6	28	27	10	1	56	13	4	31	993	0	44	7	2220	99	11
OTU 41	4	1	0	9	39	27	753	7	7	2	5	1	14	12	16	44	1	1	1	39	4	46	7	17	0	0	0	15	12	46	0	4	5	4	0	2	41	3	0	17	0	8	49	3	25	11	0	16	3	8
OTU 42	0	0	0	0	15	0	2	1	0	0	0	96	48	0	17	2	71	12	0	0	0	0	0	0	1	0	4	35	8	0	0	9	0	2	1	0	44	14	0	3	0	4112	3	47	28	4	19	0	3	0
OTU 43	4	0	0	0	0	0	0	0	0	0	0	0	0	0	0	0	0	0	0	0	0	0	0	0	0	0	0	0	1	0	0	0	0	0	0	0	0	0	0	0	0	0	7	0	0	0	0	0	0	0
OTU 44	6	4	0	0	7	33	9	0	39	47	0	1	0	4	0	0	1	5	3	0	0	0	0	0	0	15	0	2	0	0	0	0	2287	0	0	53	0	22	43	62	0	0	1	0	0	0	3	29	17	0
OTU 45	7	56	24	19	354	5836	42	23	15	23	1	9	41	13	2	7	0	41	4	9	41	5	0	5	1	1	6	32	21	29	1	6	14	10	117	1	10	32	59	41	13	5	13	68	1	16	29	5	13	0
OTU 46	36	211	14	1	51	2	152	25	2	8	3	58	1	408	0	4	8	13	0	28	18	6	57	48	75	47	27	83	35	59	14	7	13	22	23	25	39	162	12	6	7	114	37	58	1	37	0	2	10	34
OTU 47	9	0	3	1	0	0	2	7	5	12	0	0	0	2	0	0	1	0	0	7	0	0	0	13	0	0	0	0	0	2	0	0	26	0	0	13	0	0	0	29	2015	0	0	0	0	0	0	0	0	0
OTU 48	18	36	0	3	0	0	13	7	0	0	13	6	39	26	305	34	8	72	1	17	35	12	2	14	115	14	27	26	67	3	10	0	2	77	21	3	3	12	1	5	1	37	55	573	20	111	4	713	16	20
OTU 49	1	148	6	6	0	0	1	63	0	5	4	2	0	0	2	4	3	0	4	0	7	0	4	46	0	2	0	1	0	25	0	0	1	4	0	15	3	3	4	0	45	0	1	24	8	10	1	0	0	24
OTU 50	17	2	55	37	35	2	55	6	16	21	314	22	52	22	0	62	16	0	47	21	42	1	16	11	8	7	31	3937	76	21	27	30	3	54	4	64	38	22	19	22	2	2108	40	9	1	19	20	29	11	0
OTU 51	1	34	5	10	4	16	0	25	626	0	5	0	0	11	14	9	4	0	0	5	43	91	2	0	0	16	1	0	40	15	0	13	0	0	37	75	3	3	20	28	3	0	26	0	24	1	2	0	0	0
OTU 52	13	114	86	9	63	70	5092	6	47	24	3	16	17	17	1	173	21	79	77	15	60	13	69	11	52	34	108	11	89	98	30	5	16	39	52	42	72	37	23	80	28	35	0	11	4	17	14	6	45	51
OTU 53	0	0	0	0	0	0	0	0	0	0	0	0	0	2	0	0	0	23	0	0	0	0	0	0	0	3	0	0	0	1	0	0	0	0	0	0	0	0	0	0	2	0	0	0	0	0	0	0	0	0
OTU 54	5	122	46	695	23	2	35	26	8	3	9	1743	48	624	498	23	967	34	6	8	49	1006	24	26	110	67	6	5	39	11	12	942	35	8	28	19	2	56	41	12	1	14	109	10	904	59	54	1	12	29
OTU 55	0	0	0	0	0	0	1	0	0	1	0	0	0	0	0	0	0	0	0	1	0	0	0	0	0	0	0	0	0	0	0	0	0	25	0	0	0	0	0	1	0	0	0	0	0	0	0	0	0	0
OTU 56	8	11	83	0	26	0	5	3	2	0	0	6	19	0	0	12	0	9	0	0	3	0	1	7	4	10	3	1	5	0	14	0	0	19	3	18	17	27	0	3	3	0	10	0	0	1	1	0	7	6
OTU 57	2239	19	46	57	82	29	57	18	31	23	33	43	33	853	9	116	2	72	28	22	44	2103	38	43	5	2	94	67	66	10	4045	5	12	191	84	106	163	22	28	50	11	38	65	21	16	1098	46	73	5	31
OTU 58	0	0	19	0	0	17	20	39	2	0	26	5	18	15	6	18	2	1	1	19	1	5	0	12	0	16	17	33	0	13	0	147	45	0	13	0	23	25	18	2	4	53	0	0	11	41	0	1	0	0
OTU 59	0	0	1	9	16	4	2	2251	4	2	0	2	1	0	14	5	1	49	2	999	34	0	427	837	0	1183	1	225	76	14	2	6	587	11	0	0	17	44	1385	24	1298	214	2	20	22	1	7	12	46	185
OTU 60	26	23	0	41	2	112	1	59	1	5	63	37	45	9	50	26	6	0	7	2	3	17	11	26	3	46	25	25	19	34	37	36	27	9	13	34	68	41	21	10	14	11	0	13	104	1	26	4	16	6
OTU 61	6	11	53	6	92	32	48	55	24	25	2	59	2	19	0	29	8	17	68	47	30	18	46	84	22	2	66	31	8	28	3	46	31	38	51	47	36	36	34	67	24	14	13	33	0	38	5	10	20	35
OTU 62	0	0	0	5	6	0	0	1	11	7	1	48	5	7	7	0	4	21	33	0	0	0	16	42	0	5	13	4	4	0	4	0	8	0	0	0	0	11	7	27	3	0	10	0	23	7	1	25	4	2
OTU 63	0	15	8	1	0	0	0	9	0	0	28	5	8	0	0	18	23	12	4	4	0	10	39	127	0	0	7	14	2	10	0	0	40	23	6	17	0	24	5	0	0	0	0	10	3	11	0	3	0	16
OTU 64	15	201	71	39	22	33	5	12	4	11	3	44	50	15	249	76	29	164	26	36	127	13	4	13	5	59	39	12	18	0	28	31	30	1	22	9	8	27	9	24	13	45	5	18	91	41	0	40	38	13
OTU 65	0	0	0	0	0	0	0	12	0	0	0	0	0	0	0	0	0	3	0	0	1	0	0	0	0	3	0	5	0	0	0	0	0	3	1	1	0	2	0	0	0	0	3	0	0	1	0	0	0	0
OTU 66	28	4	14	32	18	3	14	30	3	6	1	26	1	29	0	41	19	17	60	21	35	23	1	1	23	8	10	13	19	1	21	3	10	70	28	22	0	94	13	28	15	0	7	14	0	8	3	16	12	1
OTU 67	0	1	21	18	25	119	22	24	1	9	15	16	63	454	25	19	1	21	2	0	58	2	10	92	0	6	32	23	1	43	1	42	5	10	1	54	9	22	4	7	2	23	356	1	44	0	16	2	6	2
OTU 68	2	0	8	0	1	1	0	44	1	3	1	7	0	0	0	3	0	0	0	0	0	0	10	2	2	5	0	15	26	0	15	0	15	0	0	0	79	1	0	9	0	9	0	9	0	57	0	5	0	27
OTU 69	37	1	11	528	30	27	1	18	16	10	7	12	3	0	5	8	3	0	48	37	13	6	11	28	0	3	5	10	25	0	72	11	2	10	0	1	13	9	7	28	7	16	14	39	6	8	34	46	0	1
OTU 70	32	0	0	0	0	2	3	20	1	1	0	20	0	22	0	30	3	12	5	11	0	14	8	2	0	0	0	0	0	33	42	0	0	0	7	14	2	12	642	6	0	60	1	7	0	1	3	0	7	14
OTU 71	2	0	0	8	19	3	0	0	0	0	0	33	91	8	2	5	9	41	0	14	3	0	203	283	9	0	7	214	3	24	0	0	136	1	7	31	0	0	1	0	0	109	0	6	1	2	30	6	0	86
OTU 72	7	34	0	14	3	2	105	11	0	3	0	7	21	20	1	11	0	38	1	30	30	12	12	21	37	5	18	1	7	7	6	6	7	7	85	2	8	28	5	3	37	1	0	52	6	3	1	9	69	1
OTU 73	1	138	0	23	34	27	0	11	9	1	6	48	0	3	3	5	13	1	3	4	9	0	13	0	4	16	6	8	10	83	10	0	0	0	22	4	2	23	25	10	1	2	15	0	6	13	8	2	15	14
OTU 74	14	151	74	19	41	18	2	7	2	3	4	21	53	0	34	10	16	0	1	25	24	10	2	11	31	22	12	18	19	0	7	3	11	92	6	2	37	56	11	2	8	1	17	4	77	0	10	5	140	1
OTU 75	60	10	6	9	13	4	18	6	16	24	13	15	5	15	1	10	19	23	32	5	0	0	3	20	33	16	29	10	16	16	123	764	6	17	41	10	47	20	4	46	0	13	115	88	6	39	54	41	5	2
OTU 76	12	0	3	3	0	1	1	8	0	0	36	0	0	5	14	0	0	3	682	0	0	0	5	0	0	1	1	5	9	0	3	0	7	5	55	0	6	23	4	1	2	0	0	2	37	0	11	0	0	0
OTU 77	0	9	10	5	10	16	33	42	0	1	6	7	2	1	7	0	21	40	0	2	85	10	20	31	5	0	49	44	5	63	0	1	20	25	10	9	8	4	1	4	29	25	10	58	9	59	0	22	2	15
OTU 78	44	27	4	20	41	141	5	35	30	17	11	1	3625	22	7	125	0	18	44	0	23	36	1	31	8	0	71	1	0	3	73	6	14	9	25	35	41	2	30	40	77	6	95	15	11	29	7	4	3989	1
OTU 79	167	74	10	7	135	70	75	183	23	31	155	14	1482	38	26	60	5	71	6	69	47	42	49	54	32	147	67	56	98	22	27	46	24	61	251	61	65	42	27	38	66	25	108	96	54	27	69	21	43	14
OTU 80	43	26	7	1	48	3	6	26	8	6	5	11	72	10	15	22	6	6	6	50	26	7	25	39	13	53	29	20	16	3	40	30	18	32	4	17	14	17	7	12	38	0	65	59	50	27	39	21	38	7
OTU 81	22	29	2	132	42	57	36	2	0	4	22	363	63	2563	56	37	141	81	6	18	11	97	10	9	10	42	41	31	7	5	36	47	5	15	45	2	55	43	149	9	13	0	121	134	133	13	43	119	386	3
OTU 82	3	10	4	12	84	12	54	1	8	1	16	0	0	21	1512	2	2	34	1	12	27	35	28	39	7	9	0	2	26	11	19	10	16	47	0	16	0	20	3	18	1	2	49	4	3158	3476	5	31	20	10
OTU 83	20	29	0	12	0	0	0	0	0	0	10	0	0	0	0	12	0	0	0	0	0	7	0	6	4	0	0	33	0	0	28	0	0	2	37	0	0	0	11	0	7	0	1	0	1	0	0	21	0	0
OTU 84	0	18	16	0	0	0	0	0	3	1	11	0	7	3	3319	7	0	81	2	3	65	10	4	1	4	4	15	2	33	1	1	10	1	17	0	3	0	5	3	4	14	3	0	7	1	0	13	72	4	0
OTU 85	0	15	2	1	68	53	0	0	1	0	5	0	6	3	0	0	0	0	1	0	4	0	6	0	0	0	0	2	0	4	0	0	8	5	9	18	50	1	2	1	0	10	0	1	0	6	0	3	71	6
OTU 86	0	0	0	0	0	0	0	0	2	5	0	0	6	0	1	0	1	0	0	0	0	0	0	9	0	4	1	0	0	0	0	0	0	0	0	1	4	0	0	9	0	0	0	1	2	0	0	3	0	0
OTU 87	10	0	561	9	2	2	22	1	5	0	0	2	1	1	0	0	0	1	3	1	0	2	0	5	5	0	0	0	0	14	1	7	0	24	2	0	0	0	0	1	0	0	0	7	0	0	4	0	0	0
OTU 88	0	1	1	0	3	0	0	19	0	0	2	0	6	0	0	0	1	0	0	0	0	0	0	3	0	0	0	13	0	0	1	0	0	0	0	4	31	1	0	0	0	0	5	1	0	2	0	10	0	0
OTU 89	0	0	0	0	0	2	28	1	0	0	2	0	5	0	0	0	0	7	0	8	5	0	0	3	4	0	20	11	7	0	0	9	0	28	35	3210	9	1	0	1	0	26	0	0	0	27	0	38	14	0
OTU 90	0	0	0	0	0	0	0	25	5	0	0	2	47	0	20	44	30	0	0	0	5	0	0	0	7	0	0	0	0	2	0	0	0	0	0	0	0	0	0	1	8	0	0	32	46	1	0	1	0	0
OTU 91	0	0	0	4	2	0	0	11	0	0	16	0	0	0	0	2	0	12	6	0	0	1	0	1	0	0	0	0	0	0	0	0	0	0	6	32	0	2	0	0	0	4	0	0	0	0	0	0	0	0
OTU 92	0	5	0	4	0	0	27	10	0	2	0	0	51	2	18	0	0	156	9	1	30	0	18	0	0	0	0	2	0	0	18	32	0	2	1	0	18	3	5	0	0	5	1	0	51	11	0	0	1	8
OTU 93	0	0	0	0	0	0	1	0	0	0	0	0	0	34	0	0	0	0	0	2	0	0	10	0	0	0	0	0	2	0	0	0	0	9	0	9	1	0	0	0	0	15	0	0	0	0	0	7	14	17
OTU 94	177	56	0	0	3	40	1	38	398	389	158	121	16	0	3	26	28	2	498	43	16	3	13	2	11	5	62	0	15	65	456	46	4	18	5	1	6	29	19	807	13	14	0	164	6	79	10	268	7	0
OTU 95	0	0	2	44	0	0	0	0	0	0	2	59	11	11	13	3	5	28	0	4	1	10	2	0	22	0	9	21	0	17	0	9	8	2	21	3	11	68	0	0	0	2	0	0	46	0	0	0	1	3
OTU 96	9	0	0	0	0	3	1	60	0	0	28	0	0	0	0	0	0	0	0	20	0	0	0	3	0	0	0	27	0	13	3	0	0	3	0	0	0	13	0	0	1	1	0	1	0	0	0	39	0	3
OTU 97	17	1	18	148	0	2	25	122	192	157	0	288	2	2	31	0	192	0	166	163	1	85	32	20	0	65	0	61	72	0	32	145	18	8	0	1	106	9	190	393	97	1	10	67	62	0	59	1	0	25
OTU 98	0	0	12	0	0	0	15	1	0	0	0	2	0	24	3	0	0	25	0	2	0	10	0	0	0	0	0	1	1	0	2	13	0	0	133	3	0	1	2	0	0	7	7	14	4	46	0	0	12	0
OTU 99	23	85	54	69	64	1	5	126	6	26	15	3	30	0	8	66	5	0	37	73	13	9	101	78	4	35	1529	23	5	22	13	2	55	4	160	4	11	69	25	35	32	6	61	5	16	1	5	7	48	43
OTU 100	0	7	5	17	2	50	2	20	10	9	17	6	35	0	0	4	1	2	3	1	69	21	5	16	4	42	6	14	3	75	0	13	5	38	2	95	10	13	30	15	0	0	13	0	0	2	39	6	37	0
OTU 101	0	0	12	0	34	0	0	0	0	0	1	7	0	2	1	0	0	0	0	0	0	0	0	0	0	1	0	0	0	0	0	0	0	0	0	0	0	0	0	0	0	0	0	0	1	0	2	0	1	0
OTU 102	0	0	0	4	0	0	8	0	0	0	0	0	3	20	0	0	0	0	0	0	0	1	1	1	2	15	0	0	0	8	0	0	1	3	0	0	0	0	0	1	0	0	0	3	0	8	0	10	37	0
OTU 103	2	0	1	1	1	7	24	67	1	1	12	22	0	0	0	68	1	1	3	4	0	1	38	2	6	25	11	12	9	18	9	14	1	0	10	21	61	0	21	10	25	0	0	86	3	1	0	8	106	26
OTU 104	43	9	0	42	11	9	86	36	16	10	136	35	15	23	30	8	1	45	1	0	2	17	53	119	230	18	8	100	8	3	21	10	6	23	66	37	43	41	651	16	4	196	0	3	42	9	3	118	9	10
OTU 105	0	0	8	11	2	0	0	2	6	3	0	44	0	26	0	0	16	4	28	4	0	32	0	1	7	0	1	0	4	5	0	1	10	0	1	0	0	1	0	20	0	0	93	5	0	39	1	0	24	0
OTU 106	2	7	0	0	6	0	2	0	14	6	1	0	0	15	0	0	0	0	0	1	14	3	0	5	4	0	0	0	35	0	5	2	0	5	16	0	1	0	0	12	0	0	58	13	0	0	3	0	1	0
OTU 107	0	14	9	3	1	3	406	2	5	1681	14	1	38	0	1	1	2	0	0	3285	27	1	0	8	26	5	42	57	8	5	11	2	0	1	0	0	7	63	6	15	1	32	0	0	2	3	0	2	13	4
OTU 108	11	139	69	3	1	7	45	0	34	54	0	0	2	3	5	0	7	0	65	0	20	6	37	49	51	4	8	2	351	0	58	1	9	14	0	3	293	46	20	57	4	0	21	9	10	45	122	0	37	18
OTU 109	0	0	0	0	0	0	0	0	0	0	0	0	0	0	2	0	0	0	0	0	0	0	0	0	0	0	0	0	0	0	0	0	0	0	0	0	0	0	0	0	0	0	0	0	3	0	0	0	0	0
OTU 110	2	63	40	31	73	32	28	3	7	4	108	14	35	82	0	15	14	12	9	22	1	5	75	91	22	14	54	66	61	2844	13	60	72	4	47	94	0	12	3	6	17	51	0	8	0	6	11	3	13	41
OTU 111	0	4	99	8	0	1	9	0	0	0	0	0	0	0	0	0	0	6	0	8	55	0	0	0	4	8	0	17	0	1	0	0	0	7	0	0	0	10	2	0	0	0	0	0	0	0	0	46	0	0
OTU 112	0	0	0	1	0	0	0	0	4	0	19	0	26	6	1	13	0	10	4	28	2	15	0	0	2	7	0	0	45	0	3	9	1	122	0	7	2	1	0	12	0	0	13	0	3	9	0	12	27	2
OTU 113	2	1	0	9	14	1	1	22	0	0	0	5	0	0	0	0	0	0	0	9	0	0	0	0	1	0	11	0	4	0	1	0	0	0	0	0	0	8	29	0	0	1	2	0	0	5	0	0	11	0
OTU 114	40	81	38	2	9	48	87	52	3066	85	6	37	57	7	5	3	17	32	48	0	1937	21	60	16	67	3	13	33	44	26	59	26	24	0	55	24	9	7	19	126	3	21	28	48	18	22	19	14	2	23
OTU 115	18	1	12	37	29	57	27	56	24	11	78	58	56	43	0	71	37	47	29	18	503	9	10	35	0	27	23	21	8	68	39	78	386	55	45	31	30	12	48	23	40	3	10	2729	2	23	25	55	76	37
OTU 116	185	1063	1	19	34	128	53	24	260	343	6	8	236	80	32	26	27	19	387	44	4	4	0	10	71	1	9	12	1515	45	398	1	0	9	43	12	745	724	30	569	1	14	37	362	54	15	679	458	8	6
OTU 117	0	19	3	5	1	153	32	40	7	6	134	3	45	104	32	25	4	0	2	1	37	0	1	3	1	0	69	20	1	25	1	0	2	2	19	6	10	82	17	28	10	24	20	4	37	78	166	34	0	4
OTU 118	0	2	0	0	2	0	0	0	4	0	0	1	45	9	0	0	0	0	0	29	1	7	16	116	5	0	3	2	0	0	6	0	20	0	0	1	2	0	0	0	3	66	4	0	0	50	0	0	0	18
OTU 119	6	51	36	116	6	11	33	47	6	928	12	3	1	1	2	9	17	7	28	0	35	8	8	1	15	4	3	19	70	0	19	18	0	226	10	47	6	2	14	19	48	0	13	9	7	4	26	55	57	4
OTU 120	11	255	0	1	3	41	11	15	1	0	2	0	0	9	1	8	0	22	0	0	0	3	10	0	12	0	0	2	89	46	2	0	3	45	6	36	0	0	49	6	4	0	1	0	3	0	28	5	3	2
OTU 121	3	11	4	0	2	14	21	5	30	55	31	2	0	0	0	8	0	3	30	2	6	26	5	6	5	21	8	21	0	7	17	2	0	4	12	1	0	16	7	137	27	9	36	10	3	19	9	12	10	0
OTU 122	2	3	9	17	20	16	104	5	2	0	0	23	30	1	33	3	29	12	0	9	0	5	0	6	1	0	2	0	0	804	5	126	1	3	1	9	13	35	28	5	1	0	1	2	57	7	0	5	3	0
OTU 123	23	2863	22	205	39	174	17	76	52	63	50	489	66	232	149	36	212	161	44	47	92	553	64	128	121	68	63	112	144	97	32	337	19	124	145	81	113	22	875	117	64	73	564	25	333	51	57	25	94	73
OTU 124	2	1	12	15	0	25	1	2	3	0	0	5	1	0	0	76	0	0	0	2	22	14	3	13	30	6	0	0	0	0	0	10	0	0	6	2	0	0	3	0	0	0	0	0	0	0	2	1	0	0
OTU 125	62	13	62	389	218	17	41	165	39	31	34	28	27	376	27	14	39	124	50	2	87	6	29	24	197	66	63	130	110	289	106	49	9	26	193	2713	50	253	64	93	49	32	19	22	48	74	55	69	83	6
OTU 126	1	0	1	0	0	0	0	0	0	0	1	15	1	4	12	0	0	3	6	0	0	0	13	0	0	0	0	1	0	27	0	0	0	0	1	5	0	0	8	0	0	1	0	7	23	19	1	6	2	13
OTU 127	0	6	0	0	0	4	0	36	0	2	58	28	136	1	0	20	9	143	0	11	45	12	2	0	13	13	52	0	8	1	3	4	1	27	3	0	7	13	0	0	1	3	0	2	0	1	0	27	3	0
OTU 128	87	137	64	9	85	82	99	112	164	147	114	34	44	120	18	92	3	70	89	49	21	55	39	59	35	65	330	60	522	27	169	31	25	49	79	111	1027	3173	74	323	43	31	59	128	45	87	863	85	39	42
OTU 129	17	18	1	0	0	0	0	0	0	0	0	0	0	0	0	27	0	0	0	0	32	1	6	0	0	0	0	0	39	40	0	0	0	0	2	0	0	37	122	0	0	0	0	0	0	4	76	0	1	5
OTU 130	0	12	17	6	0	62	3	1	6	7	2	6	25	3	3	17	5	1	2	7	104	5	10	1	15	1429	0	0	36	7	11	1	0	38	1	11	2	3	45	12	4	24	9	1	5	0	0	0	8	0
OTU 131	1	0	4	27	34	1	1	10	3	0	0	14	7	24	1	40	13	2	10	1	0	21	11	16	0	8	0	1	2	11	16	28	1	17	67	0	10	70	7	0	9	1	9	2	3	476	15	0	2	15
OTU 132	0	8	2	9	18	9	0	2	0	0	9	8	4	4	0	0	19	23	0	3	25	0	12	0	3	1	0	1	0	39	0	0	1	27	4831	15	13	3	3	0	0	1	14	5	0	43	23	1	9	3
OTU 133	0	2	1	0	0	0	0	0	0	1	0	21	0	74	0	0	14	0	0	0	7	0	1	54	0	9	1	16	0	44	0	0	4	0	0	0	0	0	7	2	1	20	0	0	0	1	0	8	0	0
OTU 134	41	9	0	2	5	16	0	0	4	15	1	47	73	11	18	10	16	7	1	16	11	91	2	5	16	17	18	47	7	6	26	49	39	0	30	21	4	28	0	1	21	19	7	1	41	7	5	0	22	4
OTU 135	10	0	7	0	32	15	19	24	10	2	0	0	21	4	15	10	1	0	5	29	32	0	6	35	46	8	1	43	0	5	20	4	4	4	2	3	22	0	5	5	39	26	0	32	28	14	2	91	19	1
OTU 136	0	1	2	16	1	14	15	0	1	3	51	9	6	0	1	2	0	81	0	0	27	4	0	40	5	4	19	2	42	4	0	0	16	0	0	0	0	0	2	3	25	1	1	12	1	0	15	70	0	1
OTU 137	0	0	0	3	0	0	9	5	5	1	0	1	0	0	0	13	0	0	0	1	0	0	0	25	0	0	0	0	0	591	30	0	19	0	24	1	13	0	3	4	18	0	0	0	0	0	1	43	4	1
OTU 138	0	0	0	6	1	0	4	0	0	0	1	6	0	0	0	0	0	4	0	0	0	20	0	2	16	1	5	12	0	0	0	0	1	3	3	7	1	0	20	0	0	44	0	5	0	0	1	0	0	1
OTU 139	6	63	31	3	124	12	7	42	24	20	82	15	7	23	1	95	12	3	23	151	29	31	112	61	10	22	0	41	31	45	16	26	180	1479	46	57	9	46	13	35	52	5	23	22	1	41	28	14	72	71
OTU 140	587	62	30	93	18	62	81	174	911	828	58	69	107	97	79	94	7	23	3263	44	25	67	16	21	71	17	31	9	134	19	864	29	90	14	20	41	21	79	79	1592	55	10	4836	435	134	41	68	1260	19	24
OTU 141	0	0	0	0	0	0	0	0	3	0	0	0	20	0	0	0	0	0	0	0	0	0	0	0	0	0	0	0	0	45	0	0	0	1	0	0	0	0	0	3	0	0	0	0	0	0	0	0	0	0
OTU 142	0	14	0	0	20	0	1	0	0	0	6	7	3	0	0	1	0	0	0	0	0	0	0	0	0	0	0	0	0	0	0	0	5	0	0	0	0	0	0	0	0	0	1	9	0	0	0	0	2	0
OTU 143	0	0	6	0	0	0	0	5	0	0	0	0	0	0	0	2	0	0	362	0	23	0	1	5	0	1	0	8	0	15	1	0	6	0	0	17	28	0	4	0	0	0	2	0	0	30	0	0	0	0
OTU 144	0	0	0	48	8	0	0	0	0	0	34	0	2	1	0	3	0	0	0	0	9	1	0	0	1	0	10	0	1	0	3	2	4	1	2	20	0	0	2	0	0	0	1	15	0	0	0	0	4	0
OTU 145	3	87	2	31	6	91	59	0	17	16	17	9	5	1	7	33	17	31	3	1	5	13	2	1	0	32	0	0	50	13	36	3	0	62	0	68	24	10	23	28	26	21	99	5	12	1387	38	74	4	11
OTU 146	5	0	19	6	8	3	33	19	0	0	776	10	9	3	0	3	4	1	6	6	7	21	44	71	11	1	3	4	5	20	16	0	24	39	9	65	63	6	84	6	0	4	4	3	0	38	11	0	26	9
OTU 147	0	0	4	15	42	0	69	113	0	1	12	45	5	7	0	48	4	3	0	1	6	17	1	0	7	2	10	0	2	1	0	0	2	90	2	0	533	0	0	0	21	0	41	11	0	5	0	1	7	22
OTU 148	25	3	18	5	142	60	39	22	3	3	52	6	0	13	3	17	12	12	28	2	16	6	1	15	22	25	0	0	5	29	67	8	46	59	57	4	28	1	67	1	1	6	32	17	9	5	2	0	17	1
OTU 149	1	6	61	0	4	48	19	0	0	1	3	1	21	0	11	30	0	3	0	12	1	4	9	1	0	0	102	0	0	60	0	1	34	19	12	0	0	0	6	0	0	0	0	18	23	18	18	0	6	1
OTU 150	0	0	3	0	0	26	6	3	0	0	0	0	1	16	0	0	0	0	0	0	2	0	0	3	0	0	0	0	4	0	9	0	4	16	8	0	2	12	0	0	0	0	10	3	0	0	36	7	1	0
OTU 151	11	24	0	59	0	6	28	9	0	1	2	16	0	2	1	2	3	31	2	2	9	9	7	17	2	0	0	7	27	1	14	1	59	0	26	31	2320	11	5	0	8	3	0	34	7	0	10	29	8	4
OTU 152	0	17	9	31	31	8	1	2	13	6	41	13	18	6	0	16	1	1	15	40	4	2	8	16	9	16	0	13	1	2	2	0	11	12	16	18	69	1	75	21	3	6	27	9	0	22	24	0	23	10
OTU 153	0	0	0	0	0	0	0	0	0	5	0	0	13	0	17	21	0	0	0	0	5	0	0	8	2	1	0	0	0	0	0	2	0	0	0	0	0	14	0	0	0	0	0	4	36	0	0	0	0	0
OTU 154	0	0	0	0	0	0	0	44	0	0	0	0	6	0	0	2	0	0	0	0	0	0	1	0	0	32	3	5	0	0	0	0	0	0	0	0	0	4	0	0	12	0	0	0	0	2	0	6	32	0
OTU 155	0	0	8	0	9	1	1	41	32	48	119	23	1	12	1	2	1	57	5	1	5	23	33	28	58	0	0	0	12	3	5	4	10	15	0	2	15	2	0	77	0	1	0	6	8	1	26	7	13	10
OTU 156	55	288	369	494	46	68	23	579	307	336	10	844	55	200	294	2916	464	0	231	458	22	292	203	416	18	467	44	271	629	87	91	390	297	7	7	74	482	538	342	593	635	171	31	99	600	5	210	366	24	149
OTU 157	16	4	0	4	0	0	0	3	2	0	1	4	0	14	0	0	0	19	4	12	5	5	841	1726	0	0	5	863	0	10	53	2	869	3	0	3	0	0	0	0	3	315	27	1	0	0	13	1	0	329
OTU 158	0	0	0	1	0	0	0	0	0	0	0	0	0	12	0	0	0	0	1	0	0	0	2	0	0	2	0	1	43	2	4	0	0	35	0	1	0	0	0	0	3	0	0	0	0	0	0	0	0	0
OTU 159	42	720	0	33	26	15	5	1	32	26	0	34	5	3	18	1	44	0	34	5	80	46	0	0	50	0	0	5	6	151	10	4	2	3	37	3	81	56	7	82	4	2	5	21	31	23	4	0	6	0
OTU 160	183	74	35	5	21	25	14	255	20	4	6	55	24	1	72	37	17	168	17	30	10	8	661	211	5	1479	5	169	95	95	417	22	75	32	38	26	7	36	316	23	155	46	48	33	147	147	73	9	75	2165
OTU 161	3	9	105	37	44	7	21	21	2	1	396	0	0	158	0	9	2	0	0	0	3	117	23	0	8	49	68	0	4	33	18	14	16	2	8	89	9	0	0	5	2	6	602	3	6	10	0	29	0	35
OTU 162	0	2	0	4	0	50	35	447	6	15	5	12	28	24	36	5	678	25	1	192	15	42	3673	193	2	62	0	37	33	0	18	4	91	28	10	3	2	7	90	22	84	5	1	13	48	74	2	6	31	2004
OTU 163	0	0	0	0	3	41	9	3	5	11	0	0	0	0	2	0	0	0	0	0	0	0	0	0	0	0	1	0	0	0	0	0	0	0	0	0	8	0	1	14	5	0	0	0	7	0	0	0	0	0
OTU 164	0	0	0	0	0	0	0	4	0	0	0	0	0	0	0	0	0	0	2	0	1	0	0	0	3	0	0	0	0	0	0	0	0	0	0	0	0	0	0	0	0	0	19	0	0	1	0	0	0	0
OTU 165	0	0	18	10	14	14	1	16	1	8	18	5	8	8	6	24	3	19	2	4	0	12	18	5	48	0	15	9	0	5	24	0	19	1	80	0	9	0	0	3	0	8	49	16	6	16	2	37	0	0
OTU 166	0	0	0	0	0	0	49	0	0	0	0	0	0	0	0	0	0	0	0	0	0	0	0	0	0	0	0	0	0	0	0	0	3	0	0	0	0	0	0	0	0	0	0	0	0	0	0	0	0	0
OTU 167	12	0	73	14	3	16	22	32	3	16	1	12	141	8	26	1	20	67	3	133	0	6	13	45	19	98	2	8	2	4	13	27	2	1	1	2	0	59	1	7	32	18	6	2	46	9	1	5	5	24
OTU 168	3	63	59	66	16	34	33	0	2	7	83	32	77	23	40	23	6	20	8	1	6	2	0	85	43	0	2	6	5	3	0	9	44	63	5	8	0	25	8	11	0	0	5	2	69	10	1	20	21	10
OTU 169	4	0	0	24	8	0	22	0	0	1	0	1	0	0	0	14	0	1	3	2	0	0	0	0	0	1	0	1	0	0	0	0	2	0	0	0	0	0	0	0	0	0	0	0	0	0	0	0	0	0
OTU 170	1	0	0	8	0	2	0	0	0	0	0	0	0	0	0	0	0	0	0	0	0	0	0	0	0	0	0	15	0	0	0	0	0	0	0	0	0	0	0	0	0	0	0	0	0	0	1	0	0	0
OTU 171	4	33	6	45	34	1	5	3	32	27	0	6	62	5	2	2	10	1277	17	28	23	6	0	0	0	0	3	38	43	10	17	4	18	10	1	1	35	6	0	52	1	48	6	4	8	0	5	5	10	0
OTU 172	0	0	0	0	0	8	0	14	0	0	1	0	0	0	0	25	1	0	3	0	0	0	0	3	8	0	0	0	0	0	0	0	1	1	0	0	0	0	0	4	9	0	0	0	0	5	0	0	0	1
OTU 173	0	0	0	0	0	27	0	2	15	8	7	12	13	0	1	0	20	18	0	0	17	0	0	17	38	0	0	3	0	47	0	14	15	0	0	0	0	0	0	58	0	0	0	6	1	0	11	5	0	3
OTU 174	1	0	50	18	1	1	7	7	0	0	4	8	6	4	9	16	4	0	1	0	1	45	13	0	12	1	1	3	7	3	14	0	5	13	1	34	0	5	28	0	11	50	0	6	17	58	5	31	16	0
OTU 175	0	0	24	18	8	85	1	0	0	10	203	15	9	485	0	0	16	6	2	0	5	1014	2	19	1	0	23	3	13	16	9	0	11	3	22	0	0	0	17	0	0	20	0	38	1	14	0	5	29	3
OTU 176	20	42	32	29	33	88	20	104	3	0	63	21	9	0	1	0	22	2	15	60	60	1	0	86	16	3	4633	32	12	2	3	1	24	1	22	14	17	10	11	11	413	122	8	8	1	11	15	14	56	12
OTU 177	2	45	14	32	2	7	4	2	4	2	6	39	26	5	0	8	9	23	15	19	1	0	6	0	32	575	39	67	0	3	24	33	1	73	19	10	2	44	0	7	37	5	128	8	3	6	24	1	31	1439
OTU 178	0	0	0	0	122	8	16	0	3	3	7	7	4	10	0	0	2763	3	0	7	0	27	20	0	0	10	0	20	36	14	0	19	0	0	0	12	0	0	2	8	6	4	0	0	0	9	1	0	9	6
OTU 179	1	16	0	3	0	12	19	1	5	10	1	1	7	0	0	20	0	44	4	2	2	15	30	86	43	0	2	14	0	0	0	11	42	48	6	8	12	12	18	8	3	1	0	99	0	56	1	200	8	8
OTU 180	13	47	4	588	50	48	95	44	27	28	65	1242	43	319	302	133	750	44	27	100	2452	571	6	55	172	28	11	64	101	142	40	578	110	56	78	58	37	64	70	82	5	74	58	79	532	136	25	52	31	269
OTU 181	2	0	2	4	8	1	82	18	2	5	24	4	15	39	0	7	15	10	4	17	3	11	238	855	0	105	33	510	1	0	1	3	543	0	25	0	3	68	0	2	28	149	1	7	1	15	4	2	1	108
OTU 182	0	0	0	0	0	0	0	51	0	0	0	1	0	2	0	0	0	0	0	69	0	5	0	0	0	2	0	0	0	3	0	0	13	0	1	0	0	0	0	0	24	0	0	1	0	1	6	42	0	0
OTU 183	7	62	0	1	9	2	14	3	2	3	0	8	0	1	46	1	1	59	4	0	51	4	4	0	1	49	32	0	20	6	1	0	14	26	0	0	0	4	13	12	0	0	98	2	94	0	0	24	9	0
OTU 184	0	18	0	24	0	0	7	3	3	18	28	16	12	0	16	43	0	99	0	1	6	0	0	16	6016	0	0	3	0	33	7	0	1	1	2	31	0	26	0	18	0	1	0	10	36	0	8	23	0	0
OTU 185	12	33	27	17	75	11	3	47	16	18	62	6	36	15	1	16	17	16	0	649	3	6	26	3	10	3	19	1	2	7	15	11	3	3	74	1	16	17	62	22	2	17	0	33	7	54	6	2	31	31
OTU 186	984	3	0	0	11	5	0	23	581	0	1497	26	75	0	0	0	24	16	6	0	0	2	18	0	0	0	20	0	3	0	0	5	0	28	0	73	0	1	0	4	10	3	0	18	0	6	0	47	3	2
OTU 187	35	59	4	22	12	42	36	48	73	31	7	96	28	5	10	12	70	2936	72	4	25	24	0	9	47	30	54	9	279	38	49	73	2	78	67	0	17	84	4	96	49	25	6	34	16	14	86	66	2113	3
OTU 188	10	13	4609	32	13	59	0	62	0	10	20	5	2	10	359	132	2	13	2	6	11	110	34	6	0	60	22	15	1	17	3	21	8	0	41	22	17	6	42	2	52	0	7	84	61	10	2	56	63	2
OTU 189	7	132	27	22	31	116	6	34	15	1958	15	61	3	41	12	73	22	15	48	1	1128	27	8	12	15	19	25	65	20	0	12	52	1695	32	55	45	4	98	24	19	0	0	18	10	14	8	30	21	88	5
OTU 190	0	46	0	0	3	16	2	0	9	22	0	14	5	0	0	8	0	0	11	0	0	0	0	0	0	0	0	0	0	17	8	0	0	0	0	0	0	1	4	12	3	7	0	9	0	9	0	0	0	0
OTU 191	887	8	17	23	104	41	4	17	8	0	67	2	3	461	0	1877	0	48	13	5	2	777	377	692	15	26	0	210	0	0	0	34	242	4	6	17	65	29	114	7	1842	79	39	1	0	51	19	2	30	209
OTU 192	3	2	54	3	2	0	44	43	8	7	30	8	174	2	7	23	25	11	27	38	145	34	48	143	24	12	76	82	4	5	28	5	71	20	1204	27	105	41	23	5	2	8	64	15	17	2	2	12	25	29
OTU 193	5	0	29	37	9	107	54	3	1	0	8	40	4	75	22	16	33	53	0	1	0	21	7	0	13	7	2	9	6	67	31	7	8	22	0	70	4	3	27	0	1	1	93	4	38	1	3842	1	42	7
OTU 194	2	0	8	0	3	11	17	3	52	23	15	34	3	6	2	1	4	0	26	0	0	0	7	20	17	0	10	0	33	44	10	16	1	0	0	29	17	0	14	41	1	1	3	96	6	0	0	35	4	0
OTU 195	0	0	0	29	7	66	21	73	4	1	35	4	38	5	0	44	10	8	2	5	85	1	28	87	4	6	4	50	5	122	1	13	18	16	168	20	24	0	5	10	47	5	0	0	0	13	7	1	5	16
OTU 196	1	21	10	11	0	0	57	10	0	1	18	27	7	2	2	33	9	24	12	5	116	2	16	0	73	10	27	1	0	18	0	0	11	13	69	0	8	0	6	0	4	12	11	11	7	46	8	0	8	0
OTU 197	31	110	1551	27	23	46	107	69	17	22	36	84	84	99	0	67	21	3	258	9	44	4	52	53	79	19	73	59	34	70	66	911	37	40	19	21	19	42	63	42	66	19	9	54	1	100	19	32	5	378
OTU 198	0	1	0	1	0	10	0	0	0	0	5	4	0	0	0	11	0	0	0	1	0	0	1	0	0	0	3	4	0	19	0	0	1	0	14	38	12	4	2	0	0	0	11	8	0	17	0	0	0	0
OTU 199	0	3	1	1	0	77	7	9	5	4	1	13	94	36	0	1	0	4	0	9	3	17	12	12	4	8	0	3	6	1	48	20	35	3	0	0	3	0	0	3	15	0	1	23	0	0	2	0	2	0
OTU 200	4	4	21	4	6	7	3	727	19	28	74	0	3	1	4	0	2	21	10	359	9	8	218	399	8	550	115	213	7	56	1	1	123	66	32	35	31	27	449	40	264	116	1	12	15	0	3	14	34	49
