	Host 1	Host 2	Host 3	Host 4	Host 5	Host 6	Host 7	Host 8	Host 9	Host 10	Host 11	Host 12	Host 13	Host 14	Host 15	Host 16	Host 17	Host 18	Host 19	Host 20	Host 21	Host 22	Host 23	Host 24	Host 25	Host 26	Host 27	Host 28	Host 29	Host 30	Host 31	Host 32	Host 33	Host 34	Host 35	Host 36	Host 37	Host 38	Host 39	Host 40	Host 41	Host 42	Host 43	Host 44	Host 45	Host 46	Host 47	Host 48	Host 49	Host 50	
OTU 1	100	39	6	39	36	65	0	125	127	43	35	56	15	33	185	4	24	31	50	71	15	92	0	19	18	88	312	0	34	0	46	3	0	31	81	97	140	108	71	29	313	45	238	26	26	181	39	2	17	22
OTU 2	18	15	0	0	8	0	8	2	13	14	29	14	6	0	0	0	15	25	0	2	4	25	0	0	0	10	2	1	11	4	14	0	0	1	10	0	0	3	3	0	1	15	5	5	19	0	0	1	0	0
OTU 3	3	3	0	1	4	8	0	4	50	0	0	26	1	3	0	0	0	20	35	2	13	14	0	88	14	0	0	1	4	4	1	2	40	4	0	218	0	18	14	15	0	3	0	13	0	0	32	0	1	66
OTU 4	0	0	0	0	0	0	0	0	0	0	0	0	0	0	0	0	0	0	0	0	3	0	0	0	0	0	0	0	0	1	0	0	0	0	0	0	0	0	0	0	0	0	0	0	0	0	0	0	0	0
OTU 5	69	90	0	195	137	527	45	661	9	362	191	720	431	957	29	202	604	74	542	79	226	307	1	319	1593	530	690	108	257	109	106	295	11	189	25	264	90	0	581	242	741	205	510	0	311	442	944	8	786	12
OTU 6	1	0	12	0	2	0	72	16	7	41	0	21	0	11	32	79	9	7	1	0	63	102	100	1	47	134	12	1	61	0	4	28	1	1	4	9	15	4	15	3	35	40	0	13	34	61	14	51	2	20
OTU 7	53	57	45	86	38	8	12	147	67	70	236	45	16	138	35	108	352	79	260	98	12	90	86	29	111	32	54	38	25	34	27	13	225	10	8	309	13	35	98	61	134	54	855	12	27	35	382	870	6	216
OTU 8	52	25	84	37	72	127	324	17	38	11	76	8	22	20	89	46	49	6	50	24	81	12	178	67	5	98	44	8	138	25	104	52	160	52	7	50	49	145	104	84	31	10	39	48	11	7	52	162	22	477
OTU 9	0	9	4	1	19	1	51	1	5	0	3	84	0	10	16	0	22	0	0	3	2	0	1	2	8	0	0	22	0	72	41	30	1	18	0	2	3	50	4	14	61	0	21	0	6	8	3	49	11	2
OTU 10	0	0	20	7	2	1	9	1	0	0	0	6	0	0	5	28	8	0	4	1	7	0	11	0	0	2	2	2	27	0	14	4	73	0	0	0	4	39	11	4	8	0	6	0	4	0	13	0	0	22
OTU 11	21	23	115	5	12	5	28	28	50	4	2	109	34	0	101	39	51	72	7	2	0	35	1	4	215	81	35	13	0	115	27	29	16	14	59	12	39	103	39	2	14	25	2	10	28	25	5	200	7	1983
OTU 12	131	9	101	9	56	11	130	99	14	71	0	66	33	23	46	95	28	40	29	31	36	106	59	28	16	10	12	2	36	46	3	56	16	20	14	19	58	63	173	12	35	12	6	45	8	10	53	10	10	48
OTU 13	0	3	4	0	0	0	0	0	0	1	18	0	0	0	0	14	0	0	0	0	22	13	0	0	0	0	0	0	0	0	0	0	0	0	31	0	0	0	0	0	0	3	0	0	0	3	0	0	0	0
OTU 14	35	2	32	0	10	3	2	35	0	0	18	0	1	9	68	41	0	0	28	7	1	0	9	10	29	16	0	11	9	1	45	0	85	2	0	9	18	2	26	34	4	4	55	9	18	0	20	67	1	0
OTU 15	0	0	0	0	0	4	0	0	0	0	0	0	7	0	4	0	0	0	0	0	33	0	3	0	115	1	0	0	0	0	0	0	0	4	0	0	4	9	0	0	0	0	0	136	0	0	0	0	4	0
OTU 16	0	0	0	0	0	18	0	0	14	0	0	0	0	0	0	0	0	0	0	0	0	0	0	0	0	0	0	0	0	0	0	0	0	0	0	0	7	0	0	0	0	0	0	0	0	0	0	0	0	0
OTU 17	1	3	11	83	0	425	0	28	8	9	37	24	9	0	65	9	110	3	14	38	16	22	12	136	1	1	505	31	84	0	2	3	0	0	451	105	24	0	15	209	561	1	74	9	202	377	0	0	0	7
OTU 18	41	2	35	10	253	77	40	90	77	11	11	88	32	11	13	123	4	62	11	19	67	3	23	52	228	67	4	12	269	33	9	1	40	153	14	19	3	294	97	8	1	1	3	67	35	7	31	38	87	10
OTU 19	0	0	0	0	0	0	30	0	0	0	0	0	0	0	0	0	0	0	0	0	0	0	0	0	0	0	0	0	0	0	0	0	0	0	0	0	0	0	0	0	0	0	0	3	0	0	0	0	0	0
OTU 20	4	13	393	19	2	25	33	28	50	12	0	5	86	2	4	156	3	26	38	10	4	52	112	28	0	328	16	0	0	3	4	27	55	3	19	54	3	4	18	40	32	10	87	275	5	586	54	1095	0	7
OTU 21	0	14	21	12	7	7	116	18	2	5	9	121	22	0	13	17	2	0	12	2	35	9	146	17	9	80	1	40	14	14	119	65	13	17	38	13	22	21	29	9	0	8	4	4	23	8	47	25	8	18
OTU 22	168	5	26	3	30	18	37	118	91	81	29	6	40	2	96	39	0	67	50	4	0	124	1	48	34	32	106	3	9	53	22	19	73	1	39	6	61	10	26	0	12	117	3	12	11	37	58	9	1	93
OTU 23	20	0	7	6	71	2	1	23	15	25	0	15	0	203	19	3	6	2	0	2	0	45	17	5	0	0	0	16	2	11	36	25	30	54	9	0	15	15	7	0	1	8	4	43	0	10	2	1	26	29
OTU 24	4	5	5	57	7	1	2	14	15	0	0	176	0	0	31	0	0	46	7	42	0	0	41	2	2	0	2	5	14	333	1	79	4	0	6	7	37	151	1	49	0	4	13	101	1	2	3	0	0	0
OTU 25	0	1026	0	0	0	0	0	0	0	0	0	0	0	8	0	0	7	0	1	0	0	0	0	20	0	0	0	0	0	0	0	0	0	0	0	0	0	0	0	0	0	0	0	0	0	0	4	0	0	0
OTU 26	0	0	118	57	0	29	0	4	0	1	0	0	0	2	2	30	0	0	0	0	0	0	1	10	0	0	3	0	0	0	0	0	18	1	0	0	0	0	2	65	0	0	0	3	0	0	0	0	0	10
OTU 27	0	0	0	1	0	0	0	0	0	0	0	3	0	0	0	0	0	0	0	0	7	0	0	0	0	0	0	0	0	0	0	30	0	1	0	0	0	0	0	0	0	0	0	0	0	0	0	0	1	0
OTU 28	62	1	2	1	126	16	13	15	142	40	13	24	64	88	207	34	6	4	32	13	80	102	96	284	2	14	37	1	44	62	0	34	151	11	9	2961	128	3	187	3	5	47	53	7	47	14	57	7	6	66
OTU 29	280	42	57	1	54	1	16	9	32	6	7	1	692	25	43	158	10	164	61	16	79	48	4	4	24	4	69	8	217	135	0	14	1	27	33	8	3	23	64	0	10	23	5	20	19	20	37	86	12	136
OTU 30	0	0	0	0	0	0	0	0	0	0	0	0	0	0	0	0	0	0	0	0	1	0	1	0	0	0	0	0	0	0	0	0	0	0	0	0	0	0	0	0	0	0	0	0	0	0	0	0	0	0
OTU 31	7	11	66	23	8	0	10	147	154	27	1	19	35	7	0	4	16	1	10	0	1	39	0	0	0	1	68	2	0	3	0	305	7	0	21	1	11	0	7	64	46	22	0	0	1	7	5	0	0	47
OTU 32	93	17	18	0	701	65	47	79	63	23	20	53	64	17	14	121	17	38	14	3	26	39	154	2747	49	19	33	81	78	29	131	58	1	550	7	18	1	178	86	31	102	17	13	87	4	26	21	64	255	497
OTU 33	0	0	0	0	0	3	0	0	0	0	0	0	0	0	1	0	0	0	0	0	0	0	2	0	0	0	0	0	9	0	0	0	0	0	0	0	0	17	0	4	0	0	0	4	0	0	0	1	0	0
OTU 34	348	139	47	33	78	2	151	2	2	2806	0	17	102	11	59	2	10	187	2	10	44	1	6	3	46	14	42	0	160	8	7	89	8	16	67	20	24	1	33	62	83	8	1804	48	30	27	0	175	237	12
OTU 35	29	2	59	1	1	17	9	2	16	6	12	16	68	4	22	56	3	2	11	7	2	18	71	16	1	2257	0	54	99	0	120	1	56	0	4	2	17	2	3	14	37	8	1	64	6	0	3	4	0	0
OTU 36	2	3	27	19	84	1	30	0	6	6	49	10	42	2	0	2	69	5	12	1	27	7	3	41	0	88	7	48	126	21	22	6	12	40	8	46	2	27	26	25	100	10	1240	155	0	13	86	7	24	6
OTU 37	0	0	0	45	0	3	0	0	40	14	0	2	0	20	5	10	0	0	83	36	0	39	14	1	4	8	6	0	0	3	0	10	0	0	0	0	3	7	0	54	2	11	0	0	0	0	143	0	0	1
OTU 38	101	26	229	1	0	27	3	11	125	2	20	47	23	9	2	5	11	63	4	1	8	5	180	13	7	11	46	2	24	10	51	93	240	0	5	22	11	111	36	0	1	0	4	16	4	0	7	3	0	20
OTU 39	0	0	0	0	0	0	42	33	17	850	0	3	2	65	13	0	0	0	7	0	0	0	1	6	5	0	11	2	0	0	0	3	0	10	3	0	5	1	2	0	0	0	0	107	3	0	1	16	4	4
OTU 40	368	115	60	0	734	6	145	15	15	6	3	5	1	892	61	8	0	141	63	17	0	9	17	40	31	13	26	62	23	40	27	23	130	344	4	33	13	28	8	1	67	3	41	35	5	1159	72	21	206	15
OTU 41	2	13	5	17	37	19	12	0	0	5	25	5	23	1	45	5	1	6	2	0	87	7	5	38	6	24	15	0	88	3	0	2	25	8	1	35	18	22	97	0	8	1	9	56	42	0	7	7	5	14
OTU 42	19	36	28	0	5	0	22	0	0	33	0	1	0	84	57	0	0	51	1	0	0	54	9	0	14	0	0	3	66	0	0	0	41	1	41	2	9	0	0	0	31	36	1	0	1	18	1	85	1	18
OTU 43	0	0	0	3	0	0	0	0	0	0	0	0	0	0	0	0	0	0	0	0	0	0	0	0	0	0	0	0	3	0	0	0	0	0	16	0	0	0	0	0	0	0	0	0	0	0	0	0	0	0
OTU 44	0	0	1	0	9	5	0	24	7	0	0	0	0	1	54	4	0	0	0	0	0	0	0	0	99	0	11	0	0	3	114	0	32	0	0	1	35	0	19	0	86	0	21	13	89	55	0	0	0	19
OTU 45	591	119	15	1	487	59	69	16	35	12	39	148	66	59	608	5	32	142	35	19	2	42	2	380	168	71	4	34	14	52	207	39	147	3678	32	33	374	85	63	0	1	11	9	58	48	17	36	85	1828	0
OTU 46	13	11	12	0	19	36	17	102	15	228	10	40	46	31	42	62	9	48	75	3	1	151	31	29	1	10	6	1227	2	60	1672	20	0	8	64	13	12	3	24	46	11	90	52	5	13	7	56	4	5	19
OTU 47	73	1	15	0	0	1	0	0	0	1	0	0	5	0	0	126	5	60	0	0	0	2	0	5	0	0	0	0	17	0	71	2	66	7	0	1	0	2	3	7	0	0	0	51	0	0	0	3	0	13
OTU 48	1	4	58	48	26	0	1406	31	48	10	21	30	22	27	152	1	0	55	5	75	5	15	6	55	13	57	25	1	2	39	9	8	0	70	22	14	88	186	8	43	47	19	88	289	13	6	36	36	39	23
OTU 49	0	0	6	2	0	0	0	25	23	5	1	0	17	808	8	0	3	0	85	13	7	3	8	0	4	0	0	15	30	6	48	1	6	0	22	6	5	71	13	5	0	8	3	0	51	0	177	0	0	1
OTU 50	29	23	146	102	121	23	79	127	43	4	1	20	68	118	67	8	5	64	57	75	22	29	71	46	1	5	25	20	23	13	103	1	9	16	18	7	59	100	45	124	80	25	11	8	109	114	131	50	6	9
OTU 51	21	45	18	1	2	28	8	32	77	21	0	29	2	158	14	291	2	19	21	3	14	70	65	7	0	19	24	3	13	64	5	1	15	4	1	4	1	3	7	24	98	22	12	20	5	40	68	0	2	44
OTU 52	51	27	30	57	57	22	12	29	32	11	28	511	3	33	161	201	28	109	81	27	84	14	15	127	105	115	70	67	68	375	27	7	144	33	55	18	71	460	19	37	287	3	56	94	8	40	224	121	10	43
OTU 53	0	0	0	0	2	0	0	0	0	0	0	0	0	0	0	0	0	0	0	0	0	0	0	0	0	5	0	0	0	0	0	0	0	0	0	0	0	0	0	0	0	0	0	0	0	0	0	0	0	0
OTU 54	188	70	79	32	115	70	43	70	7	6	55	212	8	51	65	143	34	82	1	13	45	33	85	101	14	7	27	318	39	75	642	3	15	22	1	32	28	93	285	44	8	8	12	28	28	82	33	73	12	20
OTU 55	0	0	0	0	0	0	0	0	0	0	0	0	0	0	7	0	0	0	0	0	0	0	0	0	0	0	0	0	0	0	0	0	0	0	0	0	0	0	0	0	0	0	0	0	0	0	0	0	0	0
OTU 56	17	1	0	3	0	6	0	39	75	2	0	165	0	27	5	2	0	8	1	13	19	0	65	0	0	0	0	18	28	9	8	39	51	6	5	0	1	52	1	0	65	2	12	7	1	0	0	0	8	7
OTU 57	71	22	38	96	142	104	32	484	25	208	357	56	139	36	64	149	107	67	13	102	154	368	23	126	42	24	131	108	309	43	208	63	37	145	258	333	32	123	30	314	123	139	214	294	60	101	33	176	74	50
OTU 58	2	3	230	3	0	24	0	12	21	0	6	0	2	4	218	17	0	9	92	4	26	1	12	46	0	4	52	1	66	6	0	16	1	0	8	501	89	3	8	1	101	1	97	30	0	17	99	0	0	0
OTU 59	4	0	65	9	4	155	1	34	1	0	3	1	19	43	8	12	134	16	41	123	34	3	167	2	8	0	15	0	1	27	1	10	6	0	123	0	11	119	21	65	357	2	119	0	51	115	19	12	0	2
OTU 60	95	5	22	2	39	31	55	148	62	185	19	428	38	8	41	102	1	24	8	14	50	308	1	43	1946	46	91	1	60	23	23	31	171	40	37	14	13	22	3	16	164	145	138	40	33	48	5	18	22	15
OTU 61	131	51	89	12	7	90	9	59	23	13	7	77	42	44	221	7	120	35	14	24	57	73	15	30	31	39	89	59	242	278	15	26	128	20	15	5	134	444	61	26	83	12	76	30	21	48	43	176	12	25
OTU 62	1	0	0	2	17	31	5	0	48	76	18	13	0	19	0	53	0	7	0	0	1	139	12	7	0	0	5	11	1	0	3	31	14	67	0	30	0	3	0	2	0	51	3	0	0	0	0	0	34	32
OTU 63	6	2	83	2	47	0	108	17	0	13	2	0	45	2	33	2	0	0	0	1	0	19	2123	2	0	0	2	0	2	0	20	1150	147	0	7	1	17	0	12	12	0	9	4	58	1	4	17	1	0	24
OTU 64	154	30	16	19	56	17	285	28	93	50	3380	11	17	102	92	247	10	59	71	1	6	101	98	84	93	85	3	11	53	208	13	198	307	22	84	253	70	186	36	20	0	45	75	48	50	9	238	27	11	133
OTU 65	0	1	0	0	4	0	0	0	107	0	0	0	0	0	0	21	0	0	6	0	4	0	12	0	0	0	0	0	11	0	0	7	0	0	0	0	0	0	0	0	0	0	0	2	57	0	11	0	0	0
OTU 66	99	23	54	5	2	22	45	26	1440	0	8	8	3	6	43	24	1213	96	30	50	23	0	611	6	1290	150	63	22	168	30	1	402	73	0	0	33	59	37	151	6	12	0	88	91	0	70	35	11	0	0
OTU 67	17	3	114	85	35	1481	26	50	19	0	12	1	2	1	34	119	7	13	48	25	6	1	0	15	2	35	0	49	1	60	214	9	4	5	7	5	17	0	19	106	6	0	19	84	1031	2	102	32	5	2
OTU 68	7	2	50	259	103	118	32	107	0	7	276	51	12	1	0	0	191	20	0	206	0	4	0	1	51	5	338	1	9	0	19	0	0	33	138	244	1	0	132	358	468	3	151	20	87	240	0	0	14	42
OTU 69	24	1	19	4	61	18	31	42	0	48	96	192	66	106	67	12	12	8	39	31	4263	117	6	24	48	2	17	27	26	248	20	0	77	15	270	4	41	574	4	20	23	46	58	141	0	30	69	31	11	62
OTU 70	11	8	0	18	57	0	0	183	95	73	161	17	180	21	45	0	10	9	0	10	21	161	0	5	16	42	17	3	83	64	0	7	0	4	55	21	5	216	62	14	23	69	1	1	5	31	0	3	0	47
OTU 71	10	0	1	8	740	1	0	2	64	0	0	0	0	58	5	1	1	2	0	0	3	2	0	204	0	0	1	2	10	60	0	0	8	414	0	2	17	77	2	4	60	4	0	0	9	34	6	33	213	98
OTU 72	42	33	8	40	80	1	8	3	11	37	7	7	2	65	128	25	7	86	2	14	0	95	60	27	349	15	76	19	1	16	8	26	141	26	53	21	51	126	26	40	32	30	13	18	0	31	9	78	9	104
OTU 73	11	38	7	17	2	0	1	108	82	8	0	0	145	2	116	24	0	7	0	7	14	35	1	2	4	81	3	2	65	77	21	29	22	8	12	12	59	3	40	21	4	1	0	68	1	12	0	38	3	7
OTU 74	61	16	81	17	22	34	20	21	7	25	11	0	53	26	1	63	38	15	14	5	8	52	79	1	6	347	2	0	121	8	11	14	26	11	26	1	3	6	85	80	7	18	49	16	0	1	98	70	5	89
OTU 75	18	9	5	141	27	61	52	157	13	230	87	81	121	96	36	10	182	15	4	1367	97	453	0	2	1	77	289	104	220	6	34	33	38	6	144	82	2	32	46	100	469	167	84	6	148	226	20	16	3	45
OTU 76	2	2	6	0	10	7	0	7	0	17	0	0	0	8	3	0	6	0	3	3	1	33	0	0	7	2	0	1	4	47	0	13	4	7	34	0	0	19	0	3	0	8	12	145	17	0	33	38	3	1
OTU 77	100	1	64	34	10	23	922	67	47	75	13	11	19	26	27	59	17	7	0	85	45	162	52	15	12	6	26	2020	45	15	10	96	4	16	25	4	41	5	2	60	135	663	68	70	1	40	6	33	11	175
OTU 78	121	27	179	31	205	46	132	61	8	4	1	3	12	22	16	165	48	39	64	1148	56	11	3	169	17	102	0	2	372	54	38	51	118	81	26	2	22	11	31	70	7	7	13	5	19	4	68	61	2963	19
OTU 79	168	28	15	717	41	29	77	233	61	75	1485	127	58	69	355	178	86	85	57	865	77	173	33	281	60	8	205	130	100	33	205	62	101	44	1486	1815	152	18	570	1556	167	82	112	266	78	47	173	222	26	163
OTU 80	103	20	0	23	5	7	1	18	2	0	1	6	2	53	65	32	24	56	16	79	0	0	117	42	18	11	16	524	0	2	1217	62	49	7	17	15	7	9	19	24	14	0	18	199	47	4	36	1	5	60
OTU 81	43	39	103	54	17	0	50	45	3	78	102	23	11	53	9	46	3	129	18	9	34	133	7	3	28	40	12	483	62	11	979	133	117	2	5	44	76	32	480	26	42	103	8	30	14	10	46	44	2	50
OTU 82	123	3	89	1	14	4	9	16	6	1	11	156	10	72	133	94	37	20	20	1	0	8	18	9	28	18	0	6	10	37	16	10	0	0	0	27	67	110	13	15	0	0	20	87	20	0	15	14	229	146
OTU 83	0	0	92	5	0	0	0	0	5	38	1	0	0	24	0	1	28	11	10	2	0	62	0	0	0	1	4	0	44	1	4	53	182	0	0	0	0	0	1	0	0	14	0	0	0	1	1	128	0	0
OTU 84	0	5	39	9	30	10	2	7	14	27	0	113	2	13	66	18	13	6	27	0	30	37	145	257	32	28	4	238	15	93	411	0	44	28	5	0	7	415	73	9	0	23	1	6	0	1	66	4	10	1
OTU 85	0	0	0	2388	0	0	0	0	0	2	12	5	0	17	6	50	1	0	0	0	37	27	0	1	1	1	89	63	6	9	3	1	2	0	2	0	0	10	0	4	1	24	1	6	18	1	0	1	0	59
OTU 86	0	15	1	0	0	0	0	0	0	1	4	0	0	3	0	0	0	0	0	0	0	0	0	0	0	105	0	6	0	13	0	0	0	0	0	0	0	0	1	0	0	0	0	0	6	0	2	0	0	0
OTU 87	186	87	0	31	2	0	17	0	1	0	0	0	22	42	0	4	3	118	0	8	0	0	2	12	57	39	7	31	0	1	0	0	82	3	18	0	0	1	0	28	5	2	3	0	5	0	0	3	2	76
OTU 88	10	39	22	0	0	0	7	3	11	0	0	0	16	14	4	8	0	7	0	4	51	0	0	0	0	0	0	11	160	2	0	0	0	1	0	0	2	0	3	0	0	0	1	4	0	0	9	0	0	12
OTU 89	658	157	0	1	72	16	27	0	21	0	112	4	0	0	55	8	14	195	0	117	11	0	15	3	9	0	34	1	12	0	1	2	21	15	2	21	47	2	436	63	3	0	0	74	15	12	0	55	6	31
OTU 90	0	0	0	0	0	0	0	0	0	0	0	3	26	5	0	0	4	6	1	0	493	0	34	3	5	1	9	2	0	0	0	8	0	0	0	0	0	13	2	0	0	0	6	0	0	1	0	0	0	4
OTU 91	0	3	0	0	0	0	0	0	0	0	0	0	0	0	0	6	1	0	0	0	5	0	3	2	4	0	25	0	0	0	0	0	0	13	0	0	0	0	0	0	0	0	8	0	0	0	0	2	12	14
OTU 92	1	1	3	0	0	29	4	2	0	17	7	0	0	32	3	2	25	31	0	1	1	22	1	13	0	0	42	0	51	35	1	16	0	0	7	1	0	0	15	3	67	13	24	43	1	53	10	0	0	0
OTU 93	0	0	0	0	0	0	0	0	0	0	0	0	0	0	1	0	0	1	0	0	10	0	0	18	0	1	0	11	140	3	1	0	0	3	1	1	0	0	0	18	1	0	0	5	2	1	0	0	1	0
OTU 94	10	2	28	12	1	33	43	121	29	7	41	44	74	327	8	127	59	26	0	2	7	5	74	4	18	29	30	1	10	25	23	7	48	42	16	48	5	22	27	20	151	8	5	124	20	142	27	14	22	17
OTU 95	11	0	11	6	56	5	7	976	2	0	0	0	586	8	13	5	0	0	70	0	0	0	3	1	9	1	5	0	0	1	20	0	4	92	11	0	0	0	1	3	0	0	0	27	10	9	114	8	56	1
OTU 96	2	0	0	0	0	0	52	0	0	1	0	1	48	0	0	0	16	0	0	0	0	2	0	0	0	5	0	0	0	0	0	0	141	0	0	24	0	0	58	0	1	2	57	0	0	0	0	0	0	0
OTU 97	0	0	0	0	14	6	1	3	0	0	0	2	0	0	0	0	0	1	0	3	1	1	0	0	0	0	0	0	2	0	0	33	0	14	15	21	0	0	0	0	2	0	2	0	0	0	0	47	8	7
OTU 98	1	0	49	1	9	6	36	0	52	0	0	0	7	4	0	0	2	0	0	0	0	0	0	0	0	0	15	0	0	23	0	0	0	0	12	2	0	0	0	15	0	0	6	29	0	0	0	3	0	0
OTU 99	8	2	23	8	43	85	6	71	63	71	24	53	50	11	144	19	2	72	35	5	2	164	0	26	41	2	2679	82	34	70	1	13	84	28	5	26	52	102	1262	13	105	50	30	33	1	36	30	68	16	38
OTU 100	18	1	11	6	5	17	55	182	13	1	4	1	2	6	17	2	0	0	23	0	49	19	31	0	0	41	1	13	115	37	17	107	44	6	61	1	13	0	16	0	86	14	55	25	6	15	110	1	5	51
OTU 101	24	0	0	0	0	0	0	0	0	0	2	0	0	0	0	16	0	10	0	0	26	0	2	0	7	0	6	0	5	0	0	1	0	5	67	0	0	0	103	0	16	0	0	2	0	11	0	0	0	31
OTU 102	0	2	38	2	5	14	1	13	46	0	0	0	42	1	72	0	15	1	0	21	1	4	0	0	15	0	16	63	10	2	50	0	19	0	0	2	14	33	10	3	0	0	15	25	3	0	0	70	0	1
OTU 103	16	3	65	0	6	0	8	3	22	0	0	42	62	8	0	13	2	33	30	3	5	3	33	9	2	63	0	49	1	147	3	1	0	13	3	5	0	86	1	2	21	3383	36	44	12	1	44	1	7	65
OTU 104	35	13	20	137	39	30	262	99	29	6	0	1473	48	54	102	82	0	19	227	64	40	14	81	66	32	160	2	84	77	29	40	0	17	19	76	3	22	13	40	52	227	7	72	147	65	48	452	46	7	57
OTU 105	0	3	126	1	0	0	0	2	3	3	2	12	6	0	2	27	13	0	0	4	2	12	0	0	3	92	29	4	1	3	11	1	30	2	0	0	3	3	0	2	133	2	1	43	0	71	0	0	0	35
OTU 106	0	0	0	4	92	0	0	0	0	10	0	3	15	0	4	0	0	0	0	3	0	8	0	0	0	35	0	1	0	1	7	11	219	1	0	5	0	79	16	2	2	9	35	3	0	0	0	5	0	1
OTU 107	5	1	239	1	1	2	42	4	240	35	3	56	1	3	0	5	1	1	1	0	0	89	36	34	0	4	18	3	1	2	0	0	4	5	47	62	0	21	0	0	146	37	18	202	142	23	3	31	1	1
OTU 108	8	56	6	2	0	4	76	5	36	0	205	2	0	101	3	52	566	17	0	4	27	3	5	35	0	56	0	2	29	9	0	7	124	7	0	172	2	9	193	1	8	4	462	233	2	0	0	0	2	0
OTU 109	0	0	0	0	0	0	0	0	0	0	0	0	0	0	0	0	0	0	0	0	0	0	0	0	14	0	0	1	1	0	0	0	0	0	0	0	0	0	62	0	0	0	0	0	13	0	0	0	0	0
OTU 110	41	13	64	4	31	68	7	14	1	90	16	45	79	8	79	0	68	28	0	0	3	201	10	30	101	30	4	23	8	0	18	35	43	15	36	11	26	0	52	0	72	96	12	13	1	15	22	231	5	4
OTU 111	0	0	1	0	0	0	0	0	1	3	14	0	0	4	2	4	0	15	1	0	7	5	0	2	0	0	1	0	20	3	0	10	0	0	9	20	1	10	0	0	1	0	1	0	0	0	0	35	0	0
OTU 112	62	57	35	1	44	3	0	1	0	26	3	5	81	25	1	5	0	90	3	0	130	47	17	1	3	0	0	35	44	100	7	27	0	8	50	0	0	64	111	24	1	10	3	0	0	0	8	13	4	2
OTU 113	0	0	4	23	0	2	0	0	0	0	2	0	0	0	0	0	0	0	0	0	1	0	12	0	0	0	1	4	0	0	0	5	41	0	0	0	0	9	2	26	0	0	8	0	0	0	1	0	0	0
OTU 114	26	14	30	21	26	145	10	77	741	77	9	48	33	10	10	27	1822	2	19	40	95	109	295	36	0	18	15	26	149	66	136	194	78	11	15	4	44	89	11	31	57	39	45	46	11	47	48	71	8	6
OTU 115	188	72	61	21	24	43	37	58	32	38	20	78	78	38	68	102	34	106	172	77	66	50	14	40	92	200	25	40	41	56	14	77	58	39	73	49	30	112	41	50	226	23	73	14	141	26	311	147	19	142
OTU 116	128	39	0	0	92	6	65	72	78	56	23	46	25	5	21	41	9	63	36	8	32	39	1	23	3	4	30	218	10	15	67	0	81	4	46	7	10	6	12	5	35	19	32	75	27	6	53	37	2	180
OTU 117	8	3	16	8	21	8	16	6	18	10	11	13	0	1	65	65	11	10	8	3	0	21	6	16	64	2	28	75	19	9	0	12	2	2	28	29	44	26	83	40	0	21	4	129	11	2	8	136	0	10
OTU 118	1	0	0	0	21	0	4	0	0	1	0	143	0	48	9	8	0	6	0	0	4	2	4	0	0	20	1	7	21	104	1	2	67	0	0	1	14	136	1	0	0	0	6	54	1	1	0	0	0	35
OTU 119	32	26	14	0	37	35	0	80	7	5	4	13	57	19	26	4	59	92	1	4	1	0	1	87	8	2	2	13	16	22	41	16	33	35	24	3	20	5	18	18	2	4	0	12	29	12	3	89	16	31
OTU 120	1	11	4	30	75	28	0	1	43	0	3	0	5	1	34	10	0	20	6	87	0	2	13	0	0	1	1	1	0	26	81	26	10	2	72	0	5	1	0	26	0	0	0	40	0	1	0	0	0	82
OTU 121	980	198	186	0	37	3	138	48	219	3	0	3	3	4	150	62	0	555	5	8	9	0	0	113	152	0	1	4	98	14	0	3	88	58	34	29	68	0	621	10	72	0	3	13	0	13	17	0	24	69
OTU 122	0	26	46	7	8	6	151	86	38	38	1	111	19	2	27	4	17	19	109	3	2	111	242	6	14	16	1	2	7	186	49	59	22	0	0	32	7	108	54	5	14	117	2	19	5	0	255	33	0	1
OTU 123	123	70	601	34	1217	43	118	47	262	16	39	367	28	33	92	244	109	58	166	35	536	24	291	225	289	539	55	107	626	462	74	192	1272	515	102	49	55	431	242	77	162	14	49	1414	2195	164	402	748	264	127
OTU 124	0	1	0	4	17	4	6	6	0	0	11	35	0	15	75	1	0	14	31	0	8	0	0	0	8	0	1	0	2	0	4	4	40	0	0	0	43	4	11	3	1	0	19	24	3	0	43	3	0	44
OTU 125	406	94	110	1580	105	31	160	110	104	76	72	165	3344	334	407	304	119	116	223	1290	114	145	81	222	99	133	61	59	289	92	48	133	338	30	24	13	487	214	221	2791	32	154	77	37	39	30	155	177	15	223
OTU 126	0	0	6	0	89	0	0	157	21	98	1	0	12	0	64	17	0	0	0	19	0	206	2	53	80	0	17	1	0	0	20	0	0	1	34	0	29	0	1	56	1	77	8	0	0	2	0	4	0	0
OTU 127	5	2	43	9	8	1	50	0	5	5	3	293	0	1	5	0	12	3	1	3	23	13	0	13	2	36	2	45	44	30	55	17	0	0	2	0	39	29	14	0	45	18	6	10	1	6	12	14	0	156
OTU 128	32	505	252	62	194	131	175	249	151	511	167	104	47	162	33	140	149	976	146	132	71	1032	222	86	40	282	559	31	73	101	116	298	512	39	192	37	14	73	139	91	263	541	33	67	34	195	110	77	20	87
OTU 129	0	122	0	0	11	0	2	369	0	0	0	0	149	1391	3	2	0	0	0	0	0	0	17	0	3	0	0	26	0	0	0	0	15	1	0	0	0	0	0	0	1	0	1	0	0	0	1	30	0	0
OTU 130	31	0	119	4	0	3	12	36	0	479	0	0	2	80	142	159	0	11	17	0	0	989	1	2	69	0	0	4	12	21	3	28	12	4	0	0	112	4	92	4	6	488	4	0	23	1	45	122	1	11
OTU 131	1	6	78	3	19	3	6	12	60	5	4	587	1	0	0	0	17	1	101	23	0	19	84	18	8	56	28	43	8	4	0	60	13	0	61	2	7	2	38	0	43	21	21	21	0	49	178	177	0	13
OTU 132	1	3	4	55	1	6	29	10	1	28	57	51	0	3	0	23	33	23	0	5	17	50	14	192	1	193	84	0	0	0	5	1	18	0	3	1	1	42	45	11	4	25	57	0	25	0	4	33	0	61
OTU 133	157	1	0	0	0	74	0	0	0	0	0	0	6	1	34	0	0	0	0	0	0	0	0	37	4	0	0	0	13	0	0	1	1	6	0	1	21	0	0	0	0	0	1	0	0	3	0	0	4	0
OTU 134	17	1	24	6	5	71	10	136	14	13	583	10	1	91	9	32	0	1	3	7	47	13	0	0	5	23	0	6	67	16	4	1	5	4	0	0	2	88	46	0	32	261	142	0	94	5	4	24	2	7
OTU 135	0	0	20	10	52	1	14	9	3	4	0	20	0	0	0	27	47	3	37	8	7	10	5	71	4	7	0	6	43	7	0	9	14	0	4	31	2	0	34	13	5	10	12	3	8	1	27	9	0	153
OTU 136	2	0	0	0	9	1857	6	5	57	3	3	12	0	50	10	0	29	31	0	3	1	3	29	36	10	168	2	0	0	15	10	2	0	20	103	58	1	48	2	5	4	3	3	16	832	0	0	33	10	9
OTU 137	0	0	1	1	1	4	197	0	1	0	26	1	28	12	6	111	0	0	0	0	0	0	29	0	3	1	104	1	0	1	1	18	2	0	13	11	3	9	74	0	3	0	11	2	18	3	0	17	0	221
OTU 138	54	18	79	16	30	0	7	3	31	4	2	3	7	98	0	49	0	13	58	0	0	9	30	1	7	0	66	0	10	2	0	0	9	0	0	6	0	2	36	6	98	4	18	13	2	97	188	0	0	1
OTU 139	133	55	520	60	384	45	46	181	507	0	28	133	34	88	1356	106	6	83	265	32	9	2	214	430	80	2	54	47	70	114	125	172	86	111	77	13	572	146	44	53	37	2	28	1033	4	8	144	25	62	22
OTU 140	137	18	24	110	185	61	35	5	46	98	20	109	66	65	116	46	19	8	35	82	23	190	288	27	157	166	47	99	22	47	46	116	76	76	180	69	97	42	33	273	77	74	48	55	22	76	62	31	20	42
OTU 141	0	0	1	0	0	0	0	1	0	0	0	0	0	5	0	0	0	0	0	0	0	0	62	0	0	0	11	0	0	0	0	0	0	2	0	5	0	0	0	0	8	0	0	0	0	5	0	0	1	0
OTU 142	0	0	0	0	0	0	0	0	0	0	0	0	0	0	0	0	4	1	0	1	0	0	0	0	3	0	0	0	0	0	0	0	0	1	0	0	0	0	0	0	0	0	0	0	0	0	0	0	1	25
OTU 143	0	0	1	0	11	0	1	2	0	0	48	1	113	0	0	37	87	0	3	8	0	0	1	0	0	0	25	36	11	0	0	0	29	0	29	36	1	30	0	2	105	0	16	40	0	129	0	58	0	39
OTU 144	110	0	0	0	1	0	28	13	0	12	0	0	1	57	1	0	5	3	14	7	1	11	16	0	0	0	0	0	0	0	3	1	102	1	2	0	2	0	7	1	22	3	1	0	9	7	13	25	1	2
OTU 145	23	1315	33	12	10	29	9	6	35	31	19	14	3	19	103	27	2	2399	32	10	61	75	63	40	59	40	33	17	36	42	2	0	27	2	0	1	32	0	53	12	16	56	5	13	0	5	50	71	2	48
OTU 146	35	0	13	10	1	6	23	18	25	17	2	42	67	173	225	23	2	4	124	5	13	24	11	90	16	10	9	0	95	0	45	7	45	8	24	71	50	20	2	3	6	3	51	1	0	8	335	22	8	70
OTU 147	3	6	0	2	2	2	0	2	14	94	2	11	18	22	4	7	34	3	2	0	17	196	28	30	7	0	168	1	16	0	1	44	24	2	0	2	0	0	5	7	26	60	8	48	4	6	7	0	1	9
OTU 148	25	3	87	25	7	33	3	3	11	15	32	3	3	39	197	0	40	13	93	31	9	32	21	44	146	46	0	6	3	123	3	11	8	7	53	32	117	72	7	49	27	14	1	3	62	6	379	323	6	0
OTU 149	1	4	4	5	26	13	23	2	5	0	0	3	4	0	4	0	9	29	34	0	497	0	14	0	12	46	0	1	1128	12	15	6	0	1	7	0	2	2	11	7	1	1	0	0	0	16	5	31	1	15
OTU 150	6	1	0	1	0	0	325	2	1	0	0	4	29	16	0	24	2	0	5	2	0	0	2	0	119	4	0	26	0	101	0	13	0	0	1	3	0	56	4	0	2	1	0	0	0	13	2	0	0	0
OTU 151	0	0	72	1	9	77	17	8	9	6	4	53	1	1	3	15	2	1	5	6	17	6	68	47	54	2	32	0	0	1	4	0	403	2	2	0	5	0	9	8	37	0	7	91	0	16	12	8	0	0
OTU 152	64	16	34	14	120	20	54	389	145	22	7	15	137	16	82	56	1	51	9	6	1	61	42	137	30	0	17	46	17	5	91	16	8	544	28	0	52	2	2	49	87	29	1	3	46	93	10	7	247	3
OTU 153	0	3	0	0	11	0	0	0	0	1	1	0	30	0	18	0	2	0	0	7	0	0	0	0	0	4	0	0	0	0	0	0	0	1	0	1	34	0	0	0	11	0	0	0	0	4	0	0	0	7
OTU 154	0	0	0	0	63	55	0	1	0	0	0	10	0	0	0	5	0	0	0	0	0	0	1	0	24	0	0	0	4	0	0	0	8	5	6	0	0	10	0	0	29	0	0	1	0	17	0	0	3	0
OTU 155	5	4	354	0	1	8	42	0	0	3	52	6	0	22	2	1	14	42	13	22	1	0	5	0	1	37	23	0	12	147	16	2679	0	2	14	3	9	149	3	35	0	4	1	0	1	1	11	15	1	3
OTU 156	33	20	20	28	21	25	28	117	83	0	2	61	10	19	36	42	15	3	35	161	14	9	65	4	44	65	3	22	22	26	15	82	220	35	59	55	30	180	60	130	21	0	14	82	8	3	82	131	14	98
OTU 157	3	0	6	0	0	39	0	39	2	0	0	0	10	4	2	6	1	0	1	14	0	0	0	83	2	0	9	0	10	12	14	12	0	3	4	1	0	1	9	0	24	5	0	0	0	0	11	92	2	43
OTU 158	0	0	0	0	0	0	0	0	0	0	0	0	0	3	0	0	3	0	0	0	0	0	2	0	1	0	0	0	0	0	0	0	0	0	0	22	0	0	0	0	0	0	0	0	2	0	0	0	0	0
OTU 159	57	90	5	18	10	25	20	18	3	16	2	1	29	1	16	731	5	22	26	3	14	28	136	61	63	37	6	19	12	6	10	1	182	0	7	4	5	0	2	4	0	14	19	6	1	6	1	9	0	128
OTU 160	213	81	54	14	21	40	251	17	113	43	131	107	18	39	20	107	11	81	76	28	25	56	93	266	39	107	50	83	19	32	251	77	215	51	61	255	6	37	156	41	39	51	60	48	2	18	178	51	33	147
OTU 161	13	21	6	10	27	113	27	66	93	32	31	29	1	11	23	49	5	19	9	41	8	62	3	18	23	20	8	11	46	50	26	2	17	13	76	0	23	50	7	0	61	52	20	20	13	36	43	2	8	25
OTU 162	30	403	92	45	33	56	25	87	74	11	17	18	58	1	30	48	16	19	16	46	26	24	89	5	11	27	156	80	115	3	84	22	50	0	58	32	4	160	28	139	124	14	0	6	6	86	5	4	0	9
OTU 163	0	0	0	3	0	0	0	0	0	2	0	0	3	0	0	0	8	0	0	0	1	4	1	0	0	4	0	0	0	0	0	0	0	0	0	0	0	0	0	0	0	5	0	0	0	0	0	0	0	0
OTU 164	0	0	0	0	3	1	0	0	0	0	0	0	1	5	0	0	0	0	0	0	0	0	0	0	0	0	6	0	2	0	0	0	0	0	0	0	0	0	0	0	1	0	0	0	0	1	0	1	0	0
OTU 165	0	0	0	3	31	7	39	6	1	0	0	0	16	0	3	10	2	2	1725	2	29	1	5	2	3	35	0	3	52	18	4	5	16	19	1	7	0	102	0	10	0	0	3	67	1610	9	31	33	11	0
OTU 166	0	0	0	0	0	0	0	0	0	0	0	0	0	0	0	0	0	11	0	0	0	0	10	0	0	0	0	0	0	0	0	8	0	0	0	0	0	0	0	4	0	0	0	120	0	0	1	0	0	0
OTU 167	25	2	38	6	5	31	8	277	12	4	25	1	211	0	5	0	3	0	1	0	195	0	0	18	14	43	52	3	283	45	0	0	1	5	16	41	3	88	17	15	43	1	0	86	23	12	20	0	3	37
OTU 168	59	33	2	1	21	53	166	0	1	5	7	42	20	14	17	1527	10	3	2	0	21	23	42	0	62	4	17	42	4	19	52	24	15	20	2	3	0	94	5	5	6	20	0	37	1	13	0	65	11	15
OTU 169	0	0	0	19	0	0	0	1	0	0	23	1	0	0	0	5	0	0	0	1	3	0	8	0	0	3	0	0	37	0	0	0	0	0	26	64	0	0	0	66	39	0	0	0	0	17	0	0	0	0
OTU 170	4	0	0	0	0	4	0	0	0	1	0	0	1	0	0	1	0	0	0	0	0	5	0	0	0	0	0	0	0	0	0	0	0	0	0	0	0	0	0	0	37	0	0	0	0	0	24	0	0	0
OTU 171	2	14	218	15	1	12	45	105	242	4	0	56	13	163	3	39	7	8	4	1	0	6	2	20	33	12	61	1	5	16	13	0	1	11	2403	17	0	295	35	2	16	9	7	10	30	5	45	14	1	6
OTU 172	4	14	2	0	3	0	4	0	0	0	0	1	0	0	0	0	0	4	0	0	0	0	0	11	0	1	0	10	17	0	4	0	79	2	0	48	0	0	15	0	11	0	0	0	0	0	0	0	1	72
OTU 173	3	4	16	0	108	0	0	11	2	1	0	47	8	4	2	0	0	0	0	37	10	0	98	0	0	0	0	1	13	29	0	42	5	21	37	0	0	59	0	13	0	2	6	8	1	21	0	57	11	0
OTU 174	284	51	75	71	119	7	1184	28	16	22	45	44	0	72	286	0	22	206	30	215	12	30	116	140	74	0	0	61	22	5	150	89	6	15	3	0	118	0	25	226	0	36	4	67	3	0	39	78	5	13
OTU 175	0	0	90	0	0	0	15	1	9	2	2	3	0	9	6	20	6	7	0	0	3	2	1	21	0	0	203	84	49	45	110	0	4	2	1	0	15	39	0	5	0	0	19	19	0	0	0	67	2	47
OTU 176	17	4	34	0	78	2	55	17	59	156	6	62	9	18	70	50	11	22	27	2	79	289	12	57	3	25	1	7	113	101	26	36	0	23	13	16	52	200	37	8	59	128	51	247	21	22	36	124	8	209
OTU 177	31	2	29	39	7	80	2	11	88	934	63	0	28	78	184	1	0	21	58	96	15	20	26	60	40	20	170	0	10	78	39	2	67	2	58	49	100	0	175	56	168	3	0	1	25	77	177	31	0	1
OTU 178	8	1	7	44	80	0	16	0	32	12	0	2	2	121	2	3	0	8	23	10	5	4	28	0	3	0	5	5	3	0	0	1	60	18	34	1	1	0	1	41	17	0	59	0	15	0	23	0	10	28
OTU 179	15	5	90	0	6	59	12	117	24	0	3	6	170	54	49	21	30	8	22	54	0	0	20	14	12	29	8	29	0	0	17	18	71	5	53	5	5	0	3	7	0	0	71	0	0	3	32	6	3	1
OTU 180	138	17	81	95	118	1486	14	77	130	53	164	203	68	35	43	546	432	107	63	109	47	95	44	34	18	566	63	304	189	12	43	217	116	80	37	100	4360	162	62	174	161	37	399	35	824	60	119	24	941	385
OTU 181	22	1	1	8	9	2	0	8	9	1	40	0	26	152	0	1	25	2	0	1	3	0	4	7	26	39	3	43	3	39	26	0	32	3	3	2	0	43	3	6	42	1	30	0	2	1	0	83	1	0
OTU 182	0	12	0	0	0	0	0	0	0	1	0	0	4	10	0	0	0	0	0	0	0	0	11	0	0	0	0	0	6	0	0	0	0	0	0	0	0	0	0	0	0	0	0	0	0	0	0	105	0	0
OTU 183	78	55	3	4	46	0	68	71	30	7	5	0	10	0	92	2	31	68	26	0	10	31	10	1	2	93	10	0	10	10	2	14	49	121	35	2	35	33	87	13	59	31	8	0	26	60	72	35	67	25
OTU 184	6	3	0	15	10	0	4	33	5	50	0	6	31	0	12	23	0	1	19	5	0	90	7	5	0	19	10	2	11	0	54	0	9	8	0	1	1	16	1	24	0	28	14	0	19	16	77	118	2	16
OTU 185	22	4	44	44	19	21	42	23	23	0	28	24	49	60	1	151	30	14	2729	130	5	1	38	3	18	0	6	73	20	20	73	25	25	2	45	35	42	137	54	104	0	2	1	5	11	20	74	346	0	39
OTU 186	2	8	15	2	69	1	6	29	23	28	21	12	0	7	0	14	0	1	7	3	0	70	16	0	19	0	1	3	0	34	14	0	0	0	76	22	0	100	1	2	0	44	3	0	23	12	2	0	0	37
OTU 187	77	2781	5	5	61	68	21	73	150	6	398	5	35	9	59	91	51	40	37	1650	22	70	8	42	6	22	23	111	20	1	109	8	38	3	19	11	37	27	3	9	19	40	2	47	65	2893	66	56	0	107
OTU 188	31	98	1476	21	44	53	22	0	731	4	35	104	34	22	9	63	2	22	178	0	32	16	719	40	47	13	34	3	162	25	50	248	33	14	51	102	17	210	9	24	27	4	41	678	5	2	299	39	3	109
OTU 189	31	1	81	39	16	28	102	69	582	192	0	93	77	31	29	19	26	4	42	0	33	333	98	32	8	81	36	44	47	46	17	52	10	18	24	7	7	24	0	57	17	176	26	46	0	40	37	220	8	108
OTU 190	0	527	73	0	0	0	1	0	1	4	4	9	0	2	0	2	0	919	0	0	0	18	7	0	0	2	7	0	0	5	4	0	0	0	3	0	2	0	0	0	0	4	0	0	0	0	3	0	0	27
OTU 191	47	1	25	37	11	33	38	11	16	0	3	101	26	10	32	6	78	12	110	31	98	1	22	180	53	80	27	27	88	78	3	136	87	998	12	4	17	218	38	50	54	814	54	73	34	25	266	4	510	54
OTU 192	167	96	56	1913	97	116	48	448	25	52	5	49	281	224	176	137	4	117	43	26	59	45	49	86	62	141	27	10	30	49	1	53	182	32	12	11	100	17	180	49	34	26	79	18	18	13	104	73	12	14
OTU 193	19	4	38	6	6	65	35	81	105	5	66	13	24	93	12	0	1544	0	17	30	3	35	95	0	4	42	43	30	136	0	27	15	0	8	1	8	9	56	35	0	169	24	1	7	6	42	9	21	2	58
OTU 194	23	33	66	0	15	2	2	73	27	1	2	1	0	90	1	113	13	17	3	0	26	0	1	122	15	152	36	1197	1	2	10	13	36	4	27	4	0	1	0	1	110	1	0	44	0	66	37	57	4	0
OTU 195	8	7	11	32	30	24	104	8	0	3	17	33	7	0	189	13	8	31	8	1	315	0	3	29	4	15	16	2	387	32	38	5	19	25	1	55	125	6	26	25	22	0	0	11	26	15	9	3	12	1
OTU 196	17	12	1	38	19	232	7	124	20	5	14	19	6	11	0	1	60	1	1	85	0	4	0	4	9	14	359	42	0	3348	1	92	0	91	38	11	1	5	11	64	447	1	472	4	37	226	9	11	53	52
OTU 197	201	49	76	19	155	2	71	10	82	40	62	113	27	0	166	39	109	28	84	23	17	59	149	9	86	57	43	9	5	74	27	87	35	41	876	26	83	31	162	47	54	34	42	61	57	56	125	53	25	137
OTU 198	9	7	10	0	0	0	0	0	15	0	5	28	1	0	0	45	93	7	2	2	12	6	2	0	0	29	54	9	53	27	0	43	0	4	0	0	0	2	9	11	1	2	5	0	0	0	0	50	5	0
OTU 199	7	0	25	7	34	10	61	19	8	81	0	24	0	0	45	1	0	0	4	6	0	142	10	9	15	28	3	39	0	35	12	2	39	22	0	0	13	0	0	13	0	62	0	0	30	0	0	2	12	15
OTU 200	23	26	60	29	108	45	10	14	27	7	6	91	62	83	72	97	1	84	9	16	56	22	66	4	59	32	116	3	41	7	11	14	15	25	48	16	54	33	20	99	16	1	22	7	41	41	13	1	12	8
