	Host 1	Host 2	Host 3	Host 4	Host 5	Host 6	Host 7	Host 8	Host 9	Host 10	Host 11	Host 12	Host 13	Host 14	Host 15	Host 16	Host 17	Host 18	Host 19	Host 20	Host 21	Host 22	Host 23	Host 24	Host 25	Host 26	Host 27	Host 28	Host 29	Host 30	Host 31	Host 32	Host 33	Host 34	Host 35	Host 36	Host 37	Host 38	Host 39	Host 40	Host 41	Host 42	Host 43	Host 44	Host 45	Host 46	Host 47	Host 48	Host 49	Host 50	
OTU 1	8	23	2	4	5	77	41	147	7	16	100	4	20	0	42	42	310	199	39	162	50	0	88	213	27	1286	20	3	67	2	148	124	0	99	72	48	282	68	27	44	110	38	11	79	147	0	53	242	22	0
OTU 2	0	17	1	0	18	1	10	2	6	2	16	2	15	15	4	11	0	0	11	3	44	3	1	40	30	13	0	3	2	0	0	19	22	3	0	9	10	6	9	24	7	21	0	37	4	0	26	9	77	12
OTU 3	0	72	0	1	2	0	43	0	1	0	11	8	4	135	0	14	1	0	7	0	3	0	10	189	2	3	5	34	5	51	34	60	1	3	0	24	0	10	0	0	1	0	0	3	14	5	0	0	1	53
OTU 4	0	0	0	0	0	0	0	0	0	0	0	0	0	0	0	0	0	0	0	0	0	0	0	0	0	0	0	0	0	0	0	0	0	0	0	0	0	0	0	0	0	0	0	0	0	0	0	0	0	0
OTU 5	260	149	558	125	37	1215	1880	429	5	548	1277	950	979	0	1665	3	505	227	1451	339	127	842	332	727	644	743	1306	7	0	216	87	106	841	147	658	122	67	98	156	2039	284	652	324	40	3	471	316	69	115	22
OTU 6	6	13	6	2	1	33	4	23	1	26	4	2	2	72	4	2	19	8	2	3	46	50	41	1	483	777	1	53	7	2	5	32	43	12	16	23	3	2	5	15	2	16	12	50	1	86	1095	11	155	0
OTU 7	1250	47	343	184	47	39	515	154	1213	222	437	88	148	308	360	54	439	103	18	35	33	243	554	549	35	56	17	35	85	69	17	1150	51	427	77	39	79	113	63	153	194	228	216	46	269	86	160	19	553	50
OTU 8	313	19	163	1	67	170	122	50	51	187	123	10	17	86	33	207	8	64	69	9	92	61	10	0	145	175	79	34	290	9	152	281	29	378	17	171	32	66	12	3	19	7	56	153	118	1	204	217	45	214
OTU 9	1	0	108	14	5	0	51	23	71	12	0	0	1	67	6	8	104	3	3	0	2	25	57	0	0	0	1	31	6	0	1	82	15	8	11	54	2	0	0	6	48	5	18	5	0	3	0	33	11	25
OTU 10	1	169	23	5	3	1	15	2	0	1	4	1	4	59	15	21	0	0	202	5	57	4	0	0	26	36	127	23	0	0	0	21	3	0	0	5	10	23	39	4	0	34	12	73	81	1	114	0	0	2
OTU 11	4	374	19	20	5	59	105	3	26	31	221	87	10	323	157	115	6	9	5	13	43	5	54	175	24	21	22	3	23	478	22	239	22	23	2458	43	19	66	34	40	7	45	12	60	61	110	13	103	107	17
OTU 12	88	7	71	94	84	3	0	3	12	0	20	114	2	24	47	50	30	30	20	7	13	7	44	44	5	18	3	146	14	14	24	4	35	6	9	6	12	26	4	47	7	29	1	1	45	35	33	10	29	20
OTU 13	0	0	0	0	0	0	0	0	0	9	2	0	10	1	3	0	0	0	0	0	1	0	0	1	0	0	0	1	0	182	0	0	0	0	7	32	0	1	0	0	0	0	0	0	0	0	0	0	0	2
OTU 14	0	8	59	0	3	0	0	9	61	10	2	0	0	23	1	43	26	48	0	23	8	0	0	4	1	31	0	0	13	4	0	5	0	14	8	2	72	0	1	4	4	0	31	2	0	11	12	0	126	38
OTU 15	0	0	0	0	0	0	0	15	0	0	0	0	0	0	0	0	0	8	0	0	0	0	0	0	0	3	0	0	0	0	0	0	0	0	5	0	0	0	0	0	23	0	0	0	0	0	0	0	16	1
OTU 16	0	0	0	0	1	0	0	0	0	0	0	0	0	0	0	0	0	0	0	0	0	0	0	0	0	0	0	0	0	0	0	0	0	0	0	0	0	0	0	0	0	0	0	0	0	1	0	0	0	0
OTU 17	38	7	7	3	19	3	4	29	7	5	59	25	0	20	38	36	47	79	8	10	24	116	35	3	26	12	0	0	6	710	22	13	3	7	19	54	25	7	0	32	14	5	10	19	2	0	28	22	0	4
OTU 18	9	10	17	12	191	9	43	8	1036	53	12	1756	43	7	21	2	18	55	7	18	26	3	63	7	49	28	6	6	234	31	4	107	66	19	6	43	43	21	16	22	7	92	42	51	17	23	83	443	1	2
OTU 19	0	0	0	0	0	0	0	0	0	0	0	0	0	0	0	0	0	0	0	0	0	0	0	0	0	0	0	0	78	0	0	0	0	0	0	0	0	0	0	0	0	0	0	0	0	0	0	0	0	0
OTU 20	1	1	39	111	47	61	20	30	10	63	5	10	118	20	11	39	82	45	1	31	13	30	3837	8	4	6	0	0	8	26	3	33	0	105	12	49	83	67	23	4	47	70	34	51	43	5	20	137	14	183
OTU 21	72	107	4	24	5	0	8	3	76	0	3	0	6	159	11	72	46	110	44	3	133	3	3	2	3	14	1	74	33	25	38	21	6	0	9	5	8	9	13	1	28	1	2	95	13	31	16	17	57	35
OTU 22	221	32	10	58	42	7	43	24	126	32	27	795	17	44	2	4	24	6	21	3	23	2	39	12	2	6	16	20	53	144	9	119	16	64	12	2	13	28	14	95	2734	0	69	3	49	6	15	67	14	6
OTU 23	10	0	2	3	0	11	14	4	31	12	7	0	3	12	102	79	13	0	4	2	17	0	75	16	110	47	1	4	14	3	52	20	0	0	4	2	6	2	2	60	11	0	2	46	0	0	134	0	6	3
OTU 24	0	52	2	0	23	7	0	3	1	10	5	0	2	14	3	100	17	65	41	0	0	3	47	3	32	2	2	5	0	51	0	0	0	3	6	11	2	6	7	0	8	9	759	0	2	24	0	0	95	30
OTU 25	0	0	6	0	0	0	0	0	0	0	0	0	0	0	0	0	0	0	0	0	0	0	0	8	0	3	0	0	0	0	0	1	0	0	0	0	0	0	0	0	0	0	0	0	0	0	0	26	0	0
OTU 26	33	0	0	0	0	0	10	0	0	0	48	0	7	1	1	0	3	7	0	0	10	0	0	0	3	0	41	7	10	14	0	31	0	0	0	11	0	0	0	85	1	6	0	53	0	3	1	0	0	61
OTU 27	0	0	0	0	0	0	0	0	0	0	0	0	0	0	0	0	0	0	0	0	0	4	0	0	1	0	0	0	0	1	0	0	0	0	0	0	0	0	0	0	0	11	10	0	0	0	0	0	0	0
OTU 28	6	49	46	2	59	28	16	7	25	30	44	43	9	1	72	142	2	34	102	0	3	21	3	0	4	41	13	52	1	250	132	17	25	36	5	6	0	18	6	38	19	7	2	35	17	2	16	2	77	6
OTU 29	18	124	3	5	10	17	8	4	267	51	205	179	6	26	80	23	16	29	55	75	107	28	77	138	21	8	57	0	12	6	148	42	15	72	6	0	155	144	70	15	11	80	35	128	336	253	33	119	119	69
OTU 30	0	0	0	0	0	0	0	0	0	0	0	0	0	0	0	0	0	0	5	0	0	0	0	0	0	0	0	0	0	0	0	0	0	0	0	0	0	0	0	0	0	0	0	0	0	0	0	2	0	0
OTU 31	10	8	4	7	48	0	0	0	0	25	0	0	1	0	5	43	2	0	11	1	0	3	10	4	47	20	2	24	0	0	8	0	3	45	0	35	1	0	0	0	1	3	0	1	12	0	61	53	0	16
OTU 32	190	14	6	13	10	31	8	69	46	12	545	4	287	64	176	72	121	88	1	16	56	24	7	43	15	6	20	24	107	5	4	37	31	20	36	3	31	46	32	220	45	38	68	6	58	59	20	965	53	126
OTU 33	0	3	0	0	7	0	0	0	0	0	0	0	0	53	0	9	0	0	1	0	0	0	0	0	0	0	0	1	0	0	0	5	0	0	0	0	0	0	0	0	0	8	0	0	0	0	4	0	0	0
OTU 34	55	17	11	42	149	133	0	11	17	1522	36	5	3	140	10	338	12	43	3	47	1	4	17	0	11	9	10	4	40	6	38	1	10	3354	7	4	88	0	7	14	2	1	29	16	21	4	31	69	147	4
OTU 35	52	5	173	94	172	75	76	4	106	17	11	50	19	22	6	8	0	630	16	240	22	122	4	80	42	85	11	16	4	86	62	128	630	80	2	8	419	0	0	38	0	0	4	41	0	12	166	71	79	24
OTU 36	50	12	71	92	11	32	39	9	12	24	16	6	6	8	50	42	41	2	4	3	22	1	2	136	12	2	0	25	15	33	0	84	26	31	1	82	3	3	0	29	8	46	17	0	37	196	15	128	6	1
OTU 37	5	0	3	25	0	0	20	34	0	0	1	0	0	32	26	3	57	0	2	626	0	0	0	0	1	0	6	48	31	4	0	33	4	1	37	5	1	0	0	0	35	0	1	0	0	3	0	4	49	0
OTU 38	156	22	47	47	46	16	1	0	0	4	173	2	5	276	11	7	2	1	20	4	2	39	11	12	16	66	14	58	0	41	7	2	5	6	1	6	18	2529	1533	193	2	0	91	46	14	4	32	3	98	375
OTU 39	1	0	0	0	6	32	12	1	27	0	1	0	0	24	14	1	0	0	0	0	1	0	0	12	0	0	3	0	2	0	1	2	13	0	5	0	0	2	0	1	1	17	0	0	21	3	1	1	3	0
OTU 40	13	375	29	178	4	35	4	29	23	76	69	55	1	47	79	287	117	18	29	7	59	40	96	393	20	8	21	48	19	56	55	25	19	98	10	2	15	24	3	51	80	68	1	72	45	17	0	211	49	13
OTU 41	7	0	8	216	929	7	26	7	2	12	23	13	5	0	5	114	36	15	518	6	5	15	5	12	16	17	193	324	80	39	544	21	2	0	0	1	16	18	8	10	11	60	261	5	1	28	39	0	8	167
OTU 42	0	0	6	11	17	18	0	0	0	0	3	9	0	7	50	0	0	0	1717	0	0	2	0	1	2	1	941	0	20	0	48	0	0	1	0	0	0	6	10	0	3	1	9	6	42	0	0	86	2	0
OTU 43	0	0	0	0	0	0	0	0	0	0	0	0	5	0	0	0	0	0	0	0	0	1	0	11	0	0	0	0	0	0	0	0	0	0	0	10	0	13	5	3	0	0	80	22	0	0	0	0	0	0
OTU 44	113	0	0	5	0	5	1	0	12	0	0	53	3	54	0	80	44	0	1	0	0	1	22	0	0	0	0	86	0	0	68	0	0	0	0	0	0	3	0	5	25	1	13	0	0	11	0	0	0	6
OTU 45	54	19	92	6	9	16	9	21	4	73	10	14	64	4	6	119	8	66	3	1	54	18	13	5	0	2	0	2	5	21	18	9	19	119	3	15	1	14	7	7	0	40	41	73	65	31	6	1	4	4
OTU 46	0	107	25	0	8	31	215	73	16	10	26	108	12	33	1	66	30	21	21	3	4	30	9	4	0	4	36	17	10	11	7	357	37	11	36	4	14	100	32	4	24	47	0	27	53	75	24	13	11	29
OTU 47	0	0	0	8	0	0	1	0	0	0	1	0	0	0	20	0	1	6	0	0	8	0	0	56	0	13	0	5	0	0	5	1	5	0	0	0	0	0	2	0	0	2	0	1	1	0	0	0	1	9
OTU 48	2	12	4	25	36	4	102	33	21	13	0	17	11	126	18	3	4	19	36	37	7	8	489	37	10	0	2	5	158	57	14	174	82	31	1016	23	73	15	9	13	15	7	78	28	36	36	35	17	10	68
OTU 49	102	70	45	8	4	7	6	0	0	2	0	0	0	1	0	16	0	1	0	0	34	1	5	0	11	16	3	0	982	42	9	1	1	2	0	7	0	19	7	1	1	0	2	50	14	3	5	43	0	68
OTU 50	36	0	80	60	15	14	2454	37	6	60	1	188	36	99	32	0	42	190	404	47	18	4	88	17	20	1256	235	0	7	48	90	101	35	32	33	20	104	45	23	21	41	128	6	118	10	124	38	3	374	28
OTU 51	0	35	0	43	0	74	18	1	24	6	0	266	0	31	1	0	0	0	35	0	2	12	3	6	0	0	15	28	183	29	46	17	0	3	1	0	0	56	28	9	1	78	12	1	50	256	3	123	347	13
OTU 52	28	39	96	26	98	40	74	38	364	54	33	20	34	180	67	33	38	141	16	80	14	40	20	78	478	311	41	38	276	39	133	171	10	50	8	47	154	47	21	92	58	12	414	77	151	50	775	23	8	26
OTU 53	0	0	0	0	0	3	0	0	0	0	0	0	0	0	0	19	0	0	0	0	0	0	0	0	0	0	0	0	0	0	0	0	0	0	0	0	0	0	0	0	0	0	0	0	0	0	0	0	0	1
OTU 54	27	417	62	73	79	86	42	203	9	70	2161	169	733	153	80	136	388	47	52	2	149	89	111	141	12	77	10	87	21	91	130	115	46	140	86	37	8	99	61	1026	248	11	15	123	241	69	84	175	23	20
OTU 55	0	0	0	0	0	0	0	0	0	0	0	0	0	0	0	0	0	1	0	0	2	0	0	0	0	3	0	0	0	0	0	0	0	0	0	0	0	0	0	0	0	0	0	0	0	0	0	0	0	0
OTU 56	10	5	31	0	201	4	0	35	0	0	16	4	1	7	4	0	2	1	0	0	24	23	27	0	7	0	0	37	0	34	5	1	0	1	24	1	0	8	8	6	13	5	0	46	56	1	5	0	0	0
OTU 57	160	20	197	90	45	12	60	19	25	24	9	21	45	176	87	3	25	191	36	12	48	127	17	28	16	4	94	43	148	228	187	103	506	54	6	30	23	74	75	15	13	162	180	44	65	130	51	129	195	19
OTU 58	1	33	17	3	10	4	0	1	149	13	0	51	59	3	10	1	12	11	28	6	51	28	39	14	0	0	4	340	0	54	23	0	1	14	2	0	13	29	15	13	4	4	0	92	2	103	0	0	0	4
OTU 59	5	0	0	0	29	0	25	0	1	0	0	0	3	17	13	169	43	20	96	0	51	0	0	0	7	58	6	177	137	23	3	40	12	0	0	17	0	0	1	1	10	0	17	103	0	0	52	72	48	50
OTU 60	273	32	98	185	215	33	1	36	116	4	14	75	12	13	96	7	33	76	4	3	17	47	70	27	59	21	32	29	36	64	65	1	57	16	17	22	5	23	3	57	18	7	210	200	37	6	116	22	41	14
OTU 61	67	51	351	192	208	1047	102	40	16	33	167	38	90	21	97	105	59	114	9	5	21	116	56	117	36	6	9	27	249	53	63	237	756	72	845	82	12	12	23	75	40	271	103	21	13	310	43	346	266	24
OTU 62	0	0	0	0	0	0	0	0	1	1	17	7	0	41	10	0	1	0	0	3	23	0	0	4	2	0	0	26	131	0	0	0	0	0	8	0	11	0	0	38	0	18	1	3	0	12	0	114	1	3
OTU 63	0	0	1	10	49	11	0	0	0	15	40	0	0	0	0	0	0	10	182	35	166	48	41	0	54	11	31	0	26	2	53	1	28	48	0	14	67	21	4	0	3	1	30	171	27	13	8	0	3	2
OTU 64	98	4	108	126	101	56	59	40	35	4	31	99	25	24	15	11	102	37	5	4	115	276	8	14	28	38	15	40	242	160	32	160	48	4	20	228	5	4	1	6	20	21	494	205	13	113	3	65	166	62
OTU 65	0	0	0	0	0	0	0	0	0	0	0	0	0	2	0	0	0	0	0	0	0	0	0	0	0	0	0	0	0	0	0	0	0	8	0	0	0	0	0	3	0	0	0	0	0	0	0	0	0	0
OTU 66	2	0	27	32	484	90	148	54	5	66	4	0	15	8	13	55	48	7	6	7	60	1	0	25	88	34	21	14	55	46	37	329	83	124	21	118	19	93	10	0	68	5	0	178	36	92	81	123	146	25
OTU 67	5	81	6	28	388	365	3	28	6	26	16	32	0	4	55	2	20	180	35	3	275	41	89	2	46	28	20	68	8	55	15	13	147	5	8	7	4	127	43	0	22	128	6	614	291	15	105	2	4	870
OTU 68	23	31	41	3	0	7	10	4	5	8	1	2	2	14	35	8	3	38	37	16	0	4	6	50	1	8	12	1	0	7	34	5	3	0	0	1	29	0	0	35	3	0	35	0	20	0	1	0	4	3
OTU 69	214	48	10	15	153	29	0	0	36	44	6	23	0	244	155	295	4	9	4	19	0	40	5	87	0	9	8	69	246	1	1	14	62	113	1	1	31	5	12	4	0	615	17	33	9	86	8	88	34	38
OTU 70	3	94	102	0	30	2	4	0	3	0	0	0	13	213	61	0	0	0	377	3	24	4	2	5	0	33	83	2	0	2	63	14	0	6	1	30	3	30	12	30	0	52	0	1	0	4	1	24	49	12
OTU 71	1	0	9	0	1	0	9	13	17	34	3	0	4	4	11	19	14	0	3	0	1	0	0	0	0	0	0	10	143	66	1	7	2	68	3	1	0	5	1	0	13	36	11	49	1	0	49	4	3	4
OTU 72	107	1	6	294	45	60	26	745	0	9	26	16	3791	4	20	11	743	27	21	5	143	215	530	6	3	4	29	117	2	8	96	63	42	12	321	6	7	26	1	66	413	66	4	231	47	13	4	31	54	9
OTU 73	606	87	97	5	11	105	5	54	10	3	0	21	0	16	103	30	35	95	5	3	12	3	35	30	2	2	12	68	80	0	88	3	92	35	28	22	12	10	0	0	26	8	34	168	12	5	2	60	5	17
OTU 74	67	9	89	12	16	3	2	26	33	35	121	15	74	24	25	1	75	28	116	5	18	8	12	35	61	5	1	298	24	40	166	0	3	126	13	1	7	2	13	29	20	117	93	7	25	7	31	462	118	79
OTU 75	275	18	66	7	28	80	93	9	80	20	3	9	14	142	27	26	22	26	18	41	17	48	77	15	33	105	1	5	0	16	48	109	26	13	1	37	83	8	0	8	9	1	5	106	24	38	64	71	12	280
OTU 76	0	0	21	28	7	0	20	0	0	1	7	3	0	14	8	12	0	0	2	0	0	0	2	0	0	0	0	2454	8	2	11	6	34	0	1	18	0	22	2	0	1	141	24	0	32	0	0	2	15	2
OTU 77	88	10	33	68	1	19	10	4	60	13	19	107	9	12	26	54	3	6	10	242	30	70	0	5	25	44	1	62	76	26	4	35	40	2	0	14	1	0	1	1	8	0	114	7	16	5	60	32	21	67
OTU 78	138	19	64	57	345	61	8	4	152	0	61	28	7	1	274	62	59	1	6	1	187	46	36	29	102	22	10	12	43	0	19	25	27	0	1	11	3	50	35	19	172	78	108	427	65	0	190	152	104	33
OTU 79	62	130	117	60	163	97	89	48	276	22	76	58	84	358	133	68	98	245	68	37	328	181	73	9	127	136	40	34	50	788	39	147	92	52	37	148	73	98	75	181	47	139	169	404	201	238	212	138	110	112
OTU 80	50	43	62	90	23	93	1	0	26	2	8	5	137	396	22	46	23	1	82	12	43	9	45	19	29	13	0	27	104	22	123	21	11	3	0	13	13	249	105	153	10	7	30	161	405	85	73	35	8	119
OTU 81	169	7	19	13	21	113	14	1072	60	73	17	26	32	194	8	263	56	12	33	10	34	147	29	8	33	1	16	31	129	242	2	19	56	103	530	52	10	29	46	16	26	16	26	34	5	30	18	41	30	13
OTU 82	3	1	66	40	3	6	0	2	48	27	2	1	3	285	0	52	17	5	13	8	5	3	8	7	92	31	3	47	37	36	4	5	0	13	7	21	23	5	5	46	11	48	20	3	3	2	19	50	11	949
OTU 83	4	1	5	0	18	0	0	0	1	28	13	0	16	0	9	204	0	1	0	7	0	76	25	0	0	0	1	4	9	0	1	9	15	24	0	0	11	0	0	1	0	2	1	0	8	0	0	0	0	0
OTU 84	4	26	2	0	32	1	190	7	20	94	7	5	1	28	4	39	11	28	18	0	172	0	1	4	13	1	42	0	0	5	0	100	74	264	18	0	1	84	57	5	29	7	0	108	102	13	4	4	42	95
OTU 85	5	1	10	0	3	0	0	6	0	0	25	0	9	0	10	5	0	0	49	0	0	1	1	0	1	2	3	0	0	3	1	4	15	1	2	0	0	0	0	0	7	62	1	4	0	63	0	19	1	0
OTU 86	0	0	1	0	0	0	21	0	0	0	4	14	0	0	13	0	0	0	223	0	0	0	0	0	0	0	108	0	0	0	350	25	0	0	0	0	0	0	0	0	0	0	4	0	0	0	0	0	0	0
OTU 87	13	0	0	0	34	183	0	0	3	0	0	46	0	16	0	3	6	2	15	0	124	1	24	0	0	0	1	0	3	37	27	0	4	0	4	71	0	42	9	5	0	0	40	138	0	8	0	0	0	0
OTU 88	0	1	0	0	0	0	0	0	0	21	0	0	4	4	3	0	0	0	29	1	3	49	0	14	0	0	25	0	57	0	121	0	0	2	0	0	2	0	0	0	0	6	0	0	0	20	3	4	18	5
OTU 89	1	0	0	1	7	6	14	6	6	7	1	2	0	53	0	7	15	10	1	0	96	1	0	0	9	0	0	19	1	0	0	71	2	3	0	35	0	1	1	1	9	4	0	153	0	0	7	0	21	0
OTU 90	0	28	0	0	0	0	0	0	0	0	0	0	3	0	0	23	0	0	0	0	0	39	0	0	0	5	0	0	119	16	0	0	0	21	0	0	0	8	0	0	0	0	0	0	0	2	0	0	0	1
OTU 91	1	0	145	0	0	0	0	0	2	0	0	0	0	0	2	0	0	0	0	0	0	0	0	0	0	0	0	0	0	0	0	0	0	0	0	0	0	0	0	0	0	0	0	0	0	0	0	0	0	0
OTU 92	0	0	0	1	1	0	0	0	10	0	0	37	5	0	0	2	8	0	0	0	0	8	0	0	0	1	0	0	0	0	0	2	16	0	0	24	1	3	0	5	8	20	14	0	0	42	0	19	0	11
OTU 93	0	0	0	13	0	0	0	2	2	0	5	0	0	27	0	0	1	17	0	0	5	0	2	0	11	0	0	32	0	0	0	0	0	0	8	0	1	0	0	0	0	8	1	0	0	0	0	0	0	0
OTU 94	10	147	42	375	97	8	129	553	111	4	5	14	3	13	20	225	1158	9	43	20	8	425	45	9	1058	287	11	21	129	251	80	182	16	0	302	48	28	92	67	33	438	19	81	70	87	201	512	77	35	13
OTU 95	7	13	0	15	2	1	25	2	25	14	14	0	0	2	27	15	1	0	88	0	19	7	0	4	6	0	16	0	32	3	85	29	3	0	0	0	2	1	0	5	2	0	7	11	1	46	18	0	0	3
OTU 96	0	0	7	0	34	0	0	0	0	0	0	0	0	0	0	45	0	0	12	3	0	0	0	0	0	0	12	0	0	0	59	0	0	0	0	0	5	1	0	1	0	4	4	0	0	1	0	0	0	0
OTU 97	0	53	0	0	0	0	0	2	9	0	0	0	0	5	8	3	0	2	11	0	2	0	0	7	0	0	0	0	24	81	7	0	2	14	6	6	0	5	12	1	0	1	0	0	0	4	9	1	1	0
OTU 98	33	33	1	52	7	0	6	4	0	1	34	24	13	5	1	0	15	9	73	0	1	23	12	9	0	0	353	2	104	28	63	15	0	0	9	0	2	0	0	43	9	0	14	3	0	3	4	0	1	4
OTU 99	205	37	21	8	14	12	7	38	39	823	65	49	86	105	47	118	79	33	42	41	20	46	41	122	9	6	85	160	111	7	14	9	18	47	11	192	66	6	3	59	19	25	30	29	87	64	21	96	39	24
OTU 100	129	2	19	9	29	29	4	0	75	71	19	49	1	0	8	85	14	245	23	1095	2	8	5	51	1	4	0	100	53	22	2	5	1	21	0	7	173	3	3	29	6	17	0	67	1	19	0	2	3	1
OTU 101	5	0	92	3	0	0	0	13	64	0	17	0	1	0	0	0	49	12	0	0	0	3	0	28	0	0	0	0	0	0	0	1	0	0	9	0	0	0	0	0	14	0	0	0	1	0	0	0	0	0
OTU 102	20	0	0	0	5	0	0	0	0	6	34	5	1	37	0	5	0	1	0	1	3	3	0	0	0	0	0	0	0	0	0	3	15	12	5	2	6	2	1	0	0	0	0	14	0	3	3	25	24	4
OTU 103	128	8	4	70	0	80	0	14	82	1	0	8	0	94	36	20	25	2	8	3	1	0	21	10	7	22	10	77	2	16	18	0	8	1	9	5	3	0	0	3	1	7	4	20	4	10	12	1	11	41
OTU 104	88	10	162	21	117	12	17	8	52	38	13	82	5	133	15	22	15	38	61	39	6	36	36	111	30	31	36	19	44	209	83	28	42	4	7	1355	63	8	2	7	29	122	58	48	0	9	104	11	14	5
OTU 105	0	67	2	0	0	83	0	0	86	0	27	0	0	3	1	2	0	0	9	0	2	5	0	12	0	0	0	0	0	0	58	0	21	0	0	0	0	0	0	0	5	0	0	0	1	37	18	26	3	8
OTU 106	0	8	0	16	0	16	18	0	0	1	14	13	17	0	0	0	4	0	0	4	5	0	0	9	26	0	15	0	0	4	3	37	0	0	4	21	8	1	4	0	0	0	2	0	4	20	0	0	0	0
OTU 107	20	5	0	0	1	21	1	0	16	6	34	10	42	69	36	6	0	26	0	0	20	1	3	1	0	1	0	21	0	0	4	0	0	7	0	21	0	0	3	23	11	46	1	0	72	6	0	185	1	42
OTU 108	4	105	152	0	0	1	16	9	0	5	0	0	0	6	0	75	41	30	52	0	95	31	7	6	2	13	11	2	2	0	2	13	65	0	0	30	0	0	2	1	22	0	0	54	0	14	1	2	21	46
OTU 109	0	0	0	0	0	0	0	0	1	0	0	0	0	0	0	0	0	0	0	10	0	0	0	0	0	0	0	0	0	0	0	0	0	0	0	0	22	0	0	1	0	0	0	0	0	0	0	7	0	0
OTU 110	1	1	12	25	1	166	7	12	1	5	101	24	63	0	33	89	51	0	58	5	79	16	9	4	140	230	36	8	34	176	4	11	85	2	14	12	7	39	19	29	17	6	47	59	3	2	558	18	0	15
OTU 111	0	0	0	0	18	2	0	1	17	8	5	5	0	0	1	0	0	13	0	0	0	25	34	0	24	0	0	0	0	3	0	5	0	0	0	3	0	0	0	0	1	0	5	0	2	0	20	0	169	10
OTU 112	0	6	11	2	9	14	8	36	7	4	2	1	0	123	42	137	39	22	12	0	1	13	9	1	15	18	0	9	0	32	1	47	0	20	8	2	0	0	0	2	4	8	17	28	0	0	76	11	0	13
OTU 113	5	4	1	2	0	15	0	0	0	0	0	1	0	0	1	43	0	0	0	0	3	0	0	0	0	0	3	16	0	0	0	0	11	0	0	2300	0	0	0	0	0	0	0	1	0	0	0	0	0	0
OTU 114	27	131	33	79	24	262	1	29	1	14	29	137	1	72	52	77	67	45	133	11	123	23	34	50	133	95	29	61	28	7	25	0	115	11	9	36	30	6	13	67	23	2634	93	164	76	156	242	50	246	272
OTU 115	30	15	80	86	62	42	305	9	135	3	150	94	66	121	19	106	6	27	57	12	309	1	186	30	65	17	26	20	41	351	67	58	96	37	1	76	20	1	2	107	15	129	76	69	53	41	75	211	32	27
OTU 116	10	324	2	185	77	64	135	337	99	21	5	813	5	143	533	1	731	268	4	60	5	254	220	451	6	10	0	12	67	16	24	268	9	68	182	106	132	2	6	34	295	301	22	3	2	678	41	49	20	7
OTU 117	101	17	0	12	37	23	1	35	4	31	24	6	58	17	108	8	56	0	7	11	33	18	2	4	20	8	39	95	4	306	12	10	13	61	13	0	16	0	0	0	69	31	1	89	0	108	3	94	3	92
OTU 118	6	0	0	0	0	0	0	9	19	0	0	14	0	13	25	0	7	0	95	5	0	0	0	0	0	0	74	0	252	2	176	3	0	4	3	15	25	11	2	2	0	0	0	11	10	0	0	0	1	0
OTU 119	2	43	123	12	42	30	1	6	19	6	13	40	3	13	6	34	10	6	1	5	34	0	1	44	32	38	0	28	17	65	43	2	73	0	6	8	7	59	775	1	1	9	131	63	33	58	79	31	42	40
OTU 120	0	21	203	2	4	12	17	0	12	1	4	5	13	0	2	0	5	1	0	0	5	3	19	1	1	1	0	147	47	1	0	23	0	1	0	4	0	0	0	0	0	17	0	1	0	15	33	2	100	2
OTU 121	0	29	13	1	1	1523	1	0	53	2	6	1	22	7	4	86	0	2	8	4	29	114	7	3	47	31	18	74	200	43	2	0	395	3	0	1	8	28	16	0	4	0	49	207	4	47	12	2	1	33
OTU 122	147	9	0	1322	4	0	35	0	517	6	217	15	40	20	8	83	0	28	31	74	52	34	0	11	108	41	49	57	15	54	85	36	27	0	0	2	165	67	15	62	2	3	9	84	124	7	73	1	11	35
OTU 123	137	113	253	187	109	75	52	48	143	45	185	44	68	53	136	335	174	87	123	44	63	168	156	48	106	105	53	162	102	290	116	106	118	70	35	326	93	49	48	51	53	111	95	97	172	100	116	41	1344	63
OTU 124	0	6	14	0	3	1	20	5	122	1	1	2	28	68	0	86	1	25	12	0	0	97	15	0	0	0	4	0	13	1	43	31	0	0	6	15	0	0	0	0	0	104	57	0	0	0	0	0	2	38
OTU 125	282	44	221	132	157	92	44	54	333	23	192	24	36	162	283	189	116	135	98	29	93	168	114	143	26	41	41	223	190	128	184	144	69	29	36	64	48	49	10	49	43	132	399	178	82	135	71	98	120	14
OTU 126	0	0	0	0	0	0	0	0	0	0	0	0	0	0	0	0	0	0	5	1	0	0	1	0	0	0	3	3	0	0	0	1	0	3	5	0	7	0	0	4	0	0	0	0	0	0	16	3	0	39
OTU 127	13	41	28	1	35	52	17	90	34	5	20	1	210	70	8	19	129	211	20	84	1	7	1	1	6	1	9	1	52	114	10	22	18	0	60	75	158	74	47	18	35	0	1	25	107	47	27	217	19	5
OTU 128	128	310	246	189	1151	172	65	18	179	57	238	208	396	405	30	301	70	110	318	28	181	1101	47	63	114	33	154	303	62	222	685	160	58	196	21	614	60	50	2236	185	259	98	648	163	113	296	142	259	173	178
OTU 129	0	1	0	3	3	1	0	80	6	0	2	0	0	6	20	2	103	32	3	0	0	0	166	0	0	0	9	0	0	24	1	3	19	0	43	0	0	0	0	0	71	0	0	0	0	0	0	1	131	2
OTU 130	0	1	854	0	8	50	1	21	1	14	26	19	14	10	0	0	35	0	22	2	49	23	3	3	54	42	8	26	33	86	12	7	1	29	8	18	3	31	20	83	12	98	25	9	68	73	10	54	49	9
OTU 131	41	37	190	41	23	36	15	1	2	21	34	0	22	1	199	3	3	18	342	2	25	2	0	53	12	15	199	0	8	0	1061	45	7	17	0	30	1	0	1	0	3	0	988	25	16	84	18	11	154	46
OTU 132	3	105	92	23	1	0	1	5	0	32	3	0	0	34	11	0	0	0	2	1	23	0	27	1369	3	55	0	1	5	0	14	9	20	52	3	0	2	0	2	5	0	12	0	0	3	4	10	0	15	0
OTU 133	43	0	2	1	0	3	1	0	0	18	1	23	5	56	0	5	6	1	0	0	0	21	0	0	0	0	0	0	3	7	2	7	0	45	0	4	1	20	0	1	5	1	2	11	0	24	0	18	0	0
OTU 134	18	0	1	130	176	22	6	105	51	17	4	6	38	238	8	65	278	133	24	0	8	90	14	47	12	11	41	30	84	12	63	0	16	34	54	5	1	0	0	0	87	33	4	30	18	14	26	0	63	20
OTU 135	4	122	5	28	16	14	7	21	2	11	188	0	31	21	111	27	116	0	1	0	29	14	0	16	6	8	2	7	0	2	20	3	2	0	25	201	1	15	2	49	39	3	6	58	46	35	2	15	34	296
OTU 136	0	3	3	2	9	12	0	0	3	2	137	2	20	16	30	0	2	12	0	5	15	33	29	0	24	1	8	12	0	3	10	6	3	1	1	5	8	16	3	15	2	1	1	31	0	0	21	66	59	97
OTU 137	4	3	54	1	0	17	0	0	2	34	3	4	1	13	0	18	0	0	7	0	4	33	13	4	1	14	0	35	6	3	14	0	13	39	0	2	0	0	0	0	0	0	0	33	0	0	0	0	0	0
OTU 138	2	1	4	1	78	91	1	1	3	9	34	11	1	0	0	344	0	2	0	0	16	3	6	18	0	0	0	8	3	8	2	3	0	3	1	16	0	0	0	1	0	7	10	33	0	17	2	20	1	36
OTU 139	9	238	243	39	293	9	74	59	99	30	47	307	3	221	78	16	55	12	1	15	5	54	72	79	18	1	27	9	166	37	53	158	17	45	44	25	20	24	1	4	27	60	45	51	9	482	110	30	31	55
OTU 140	155	103	20	4	128	394	439	9	90	238	570	24	357	17	7	148	6	41	71	30	60	43	84	5	43	59	119	24	167	188	155	204	399	192	6	91	69	66	42	208	11	10	12	156	69	11	79	339	229	59
OTU 141	0	0	2	0	0	0	0	2	0	0	0	0	0	0	0	0	0	0	0	0	0	0	0	0	14	0	0	1	0	0	0	0	0	0	3	0	0	0	0	0	0	0	0	0	0	0	0	0	0	0
OTU 142	25	0	0	0	0	0	0	0	5	0	1	0	2	0	0	0	0	0	0	0	0	0	0	3	0	6	0	0	0	0	0	0	0	0	0	0	0	0	0	0	0	0	0	0	0	0	7	4	0	0
OTU 143	1	2	0	0	7	15	3	0	0	0	0	0	0	61	0	0	0	2	2	1	2	1	0	0	9	6	0	0	0	0	3	12	0	0	6	15	4	0	1	11	0	3	0	0	1	5	19	1	0	0
OTU 144	4	2	1	0	0	7	20	20	0	0	0	0	1	7	0	0	22	0	5	8	0	0	1	1	0	13	0	0	0	0	0	18	0	0	16	2	17	7	4	1	2	13	0	0	15	1	11	166	8	0
OTU 145	96	34	13	355	0	40	41	60	70	13	16	17	23	142	275	53	56	111	124	28	14	226	119	267	0	9	6	54	378	72	7	45	32	19	37	27	55	17	6	818	27	290	92	6	17	46	21	16	35	77
OTU 146	21	55	41	16	1	0	39	27	19	20	7	17	5	71	23	0	28	0	21	28	53	3	23	42	0	0	21	70	155	8	123	61	9	51	17	610	58	7	3	0	43	1	359	15	3	79	2	10	2	19
OTU 147	5	0	47	1	54	0	8	0	10	0	16	14	47	0	1	95	0	0	4	24	0	4	0	1	3	58	30	3	2	107	0	15	10	8	1	0	46	5	0	58	0	2	0	0	3	0	8	89	6	27
OTU 148	44	606	18	97	0	39	74	12	0	1	18	534	44	29	1962	187	39	7	10	0	2	0	0	10	25	6	12	0	30	45	15	225	3	8	2	14	0	4	27	1	5	6	32	4	57	1047	6	93	201	5
OTU 149	38	37	18	2	85	11	24	1	356	3	4	0	0	20	0	0	10	10	9	2	2	10	0	2	14	0	0	22	4	7	3	16	0	0	3	4	5	0	0	23	0	2	15	2	4	0	10	0	4	0
OTU 150	1	11	38	0	4	0	4	6	0	0	6	6	9	24	0	6	0	0	0	0	0	6	5	0	0	1	3	35	0	0	0	5	0	1	0	84	0	0	0	0	0	0	110	0	2	5	0	0	14	0
OTU 151	2	153	4	1899	0	2	1	7	20	36	12	45	11	6	41	69	9	2	6	5	26	3	26	15	13	28	3	5	0	0	0	0	28	20	188	1	5	3	0	4	0	5	59	1	5	55	196	1	33	0
OTU 152	49	4	0	26	429	12	24	33	1	60	9	307	18	18	49	71	64	12	41	2	7	39	0	26	5	11	22	8	23	118	192	76	5	68	12	0	4	2	0	3	51	60	1	131	4	578	48	14	119	91
OTU 153	0	22	114	1	2	0	0	0	0	1	0	0	0	0	0	8	0	0	16	17	0	0	0	0	0	5	0	1	0	0	0	3	0	0	0	0	24	3	2	0	0	0	0	0	31	0	5	0	0	0
OTU 154	0	0	19	0	7	0	0	0	1	0	2	0	0	0	0	0	5	1	0	9	0	0	13	2	0	10	6	44	2	1	0	1	4	0	0	0	18	0	0	3	13	17	21	1	3	2	14	1	0	5
OTU 155	0	10	0	4	33	3	25	0	11	7	18	27	1	0	2	0	0	0	1	27	34	47	5	0	2	0	19	0	0	37	0	19	1	15	2	1	29	2	6	12	1	118	1	51	0	16	5	15	8	11
OTU 156	6	88	4	15	64	3	67	21	133	36	27	152	31	587	75	734	21	23	58	35	0	101	14	46	2	66	29	1408	4	27	244	87	54	68	5	71	71	15	21	1	8	86	134	5	19	61	29	33	1	1
OTU 157	104	15	6	0	3	0	3	1	1	5	0	0	0	134	1	0	1	0	0	0	1	0	20	0	0	0	1	0	0	40	8	11	0	30	1	82	0	3	3	7	6	1	0	48	164	7	0	2	40	28
OTU 158	0	0	0	4	0	0	0	0	0	0	0	16	0	0	0	0	0	0	0	0	0	0	0	0	0	0	0	0	0	0	0	0	0	0	0	0	0	0	0	0	0	1	0	0	0	0	0	0	0	0
OTU 159	6	13	1	114	0	9	0	3	13	16	32	1	8	112	1	60	2	98	81	4	14	12	27	3	0	0	53	6	30	52	77	2	23	1	3	0	3	0	1	0	13	18	93	25	0	0	9	3	17	17
OTU 160	113	190	36	18	92	49	13	7	57	181	54	35	24	29	11	80	26	53	36	29	172	36	97	42	98	66	22	22	157	111	131	43	5	342	3	126	42	24	19	1736	44	22	193	250	19	132	103	151	152	44
OTU 161	11	1	1	12	16	93	313	5	2	85	28	1	2	15	0	29	20	39	7	26	9	27	2	19	0	20	1	13	0	78	4	701	42	161	2	73	31	7	2	8	1	10	95	80	28	60	30	28	45	378
OTU 162	3	1	76	5	85	0	6	3	40	32	2	27	13	13	47	42	3	19	4	0	2	3	21	3	11	44	0	20	3	32	15	8	18	41	3	6	0	6	3	2	12	3	7	104	13	2	4	3	27	14
OTU 163	0	0	0	0	0	19	0	0	0	0	0	2	0	0	0	0	0	0	0	0	0	0	0	0	0	0	0	0	0	0	0	8	0	0	0	0	0	0	0	0	0	2	0	0	0	0	0	0	0	0
OTU 164	0	0	24	0	0	0	0	0	0	4	0	0	13	0	2	0	0	0	0	0	0	0	0	0	0	1	0	0	81	0	0	1	0	0	0	0	0	0	0	0	0	3	0	0	0	0	0	0	0	7
OTU 165	21	6	57	2	149	5	53	9	4	0	33	2	11	96	4	8	1	6	3	0	136	1	14	26	6	0	8	1	0	0	4	97	0	14	8	3	3	38	6	6	13	26	6	207	10	0	5	45	23	155
OTU 166	0	0	0	0	0	0	10	0	10	6	0	0	0	10	0	0	1	0	0	0	0	7	0	0	0	0	0	0	31	0	0	39	0	25	0	0	0	0	1	0	0	0	0	0	0	6	17	0	0	0
OTU 167	36	7	0	0	11	1	1	13	33	0	4	9	16	104	5	50	6	10	0	0	0	0	0	8	0	2	1	3	21	0	38	0	3	0	20	1	0	36	26	0	45	29	0	5	28	47	7	2	2	30
OTU 168	3	2269	29	20	22	3	24	0	26	0	64	103	43	5	1	88	0	18	47	9	3	11	0	27	27	36	3783	25	11	10	0	53	4	14	1	48	17	0	1	3	2	76	5	22	1	41	42	84	72	41
OTU 169	0	15	0	0	0	3	0	0	2	0	0	0	0	12	0	2	0	0	11	0	0	0	0	0	0	2	1	0	0	0	0	0	6	0	0	5	0	0	0	0	0	0	0	0	0	0	0	0	0	0
OTU 170	0	0	0	0	0	0	0	2	0	0	0	0	0	0	0	0	28	1	0	0	0	0	0	0	0	0	0	0	0	0	0	0	0	11	7	8	0	0	0	0	35	0	0	0	0	0	0	0	0	28
OTU 171	24	45	8	20	184	511	7	26	36	2	17	0	3	4	3	19	7	0	2	0	247	1	55	2	139	129	1	57	125	9	8	27	119	0	14	9	0	5	3	5	0	0	27	419	27	1	338	2	5	272
OTU 172	4	2	0	0	28	0	11	0	0	0	32	8	0	0	0	5	8	0	86	0	0	0	0	19	0	0	27	0	0	0	109	14	8	3	0	0	1	19	5	0	0	0	1	0	0	0	0	0	0	21
OTU 173	27	0	2	45	0	0	25	9	59	44	5	0	1	2	3	0	71	5	0	0	1	0	0	1230	15	0	0	2	17	0	100	82	0	53	11	0	0	6	1	0	11	0	0	59	1	1	10	0	91	0
OTU 174	21	20	18	31	7	11	35	1	18	35	8	58	0	57	22	15	62	2575	11	727	0	5	8	0	10	0	0	38	1	44	6	77	27	107	0	72	1457	50	13	70	0	144	0	0	41	91	1	7	6	7
OTU 175	29	0	26	0	9	0	10	3	62	0	55	62	5	0	46	55	1	5	2	0	4	46	3	0	7	2	13	2	40	38	2	4	2	12	0	34	0	2	0	3	1	12	0	1	0	37	1	103	28	132
OTU 176	20	128	606	123	47	7	20	23	134	5	40	127	55	19	84	51	41	50	33	3	27	130	21	83	14	0	31	9	2	78	86	18	17	3	6	16	7	3	0	295	25	104	1	84	13	164	2	61	20	126
OTU 177	0	39	30	16	1	42	0	20	128	21	31	4	11	44	2	50	62	58	154	14	1176	32	89	12	189	183	49	1	88	26	212	0	7	102	11	64	28	25	19	23	26	10	120	1	60	4	331	41	103	5
OTU 178	24	0	50	28	12	82	1	0	1	21	16	23	0	13	1	66	16	98	5	0	2	4	14	1000	1	1	18	0	27	0	6	0	2	31	0	35	0	0	0	6	5	2	14	0	22	7	0	1	35	3
OTU 179	35	0	51	1	43	60	32	0	0	0	51	0	0	0	44	1	0	92	22	0	0	8	52	0	0	18	1	70	79	1	33	52	0	0	0	8	0	0	867	42	0	4	37	56	2	0	1	2	158	20
OTU 180	99	138	39	192	42	95	9	62	70	17	22	41	180	33	40	319	78	249	82	18	48	1168	33	142	202	183	71	130	262	43	191	31	37	49	26	118	29	22	12	7	23	164	117	93	53	113	286	192	44	57
OTU 181	7	0	2	3	32	7	66	23	79	23	0	21	15	71	2	179	5	796	60	280	3	25	18	2	4	29	5	16	2	12	68	68	0	12	22	1	533	0	0	51	1954	56	0	32	23	10	1	0	43	8
OTU 182	0	0	0	2	0	0	0	0	0	0	0	0	0	6	0	0	2	38	0	4	4	0	0	0	0	0	0	0	0	0	3	0	2	0	0	0	11	0	0	0	0	0	33	0	0	2	0	5	0	0
OTU 183	0	6	0	158	86	9	11	9	2	0	0	17	0	63	66	11	26	64	135	0	28	71	15	9	13	3	94	66	0	25	277	13	3	0	12	7	3	5	0	11	16	7	110	3	6	12	62	30	1	7
OTU 184	0	7	37	14	5	6	130	9	1	108	2	19	26	1	5	0	18	5	1	0	48	4	0	11	11	0	1	4	36	5	0	211	0	153	0	10	0	0	1	12	8	0	11	127	13	0	8	0	0	64
OTU 185	11	10	88	4	76	3	100	5	33	169	13	21	45	22	38	17	36	9	3	0	61	7	4	8	5	34	35	121	33	25	29	94	12	253	4	10	5	181	74	3	7	77	21	145	196	6	69	5	27	7
OTU 186	64	30	0	1	0	6	0	0	6	1	0	0	1	0	11	0	1	0	91	2	20	13	0	21	27	15	22	9	0	57	4	0	23	14	0	10	5	36	894	0	1	0	8	0	34	0	24	0	22	0
OTU 187	223	54	85	157	119	10	37	403	43	3327	30	12	0	89	33	84	782	53	21	0	123	406	76	2	122	1652	28	31	6	43	36	59	28	114	239	68	0	38	36	86	401	80	160	36	170	35	176	206	375	44
OTU 188	126	37	17	195	100	107	71	56	174	25	211	59	156	43	164	61	120	25	5	21	77	18	85	64	10	60	2	0	52	17	93	176	10	16	27	5	37	7	8	19	55	180	48	90	184	14	25	274	44	127
OTU 189	409	2	36	21	9	39	49	49	513	29	7	3	96	149	57	284	50	13	43	4636	9	18	25	12	145	71	43	5	54	32	112	96	18	100	32	144	3759	71	18	19	25	46	45	59	262	109	193	39	39	44
OTU 190	0	0	0	0	0	10	1	0	5	0	0	0	13	0	0	0	8	0	21	0	6	3	0	0	0	2	0	42	0	0	33	0	0	0	0	29	0	0	0	0	0	0	28	0	8	0	2	0	0	0
OTU 191	94	40	54	155	0	0	11	212	9	9	32	7	85	130	29	30	413	14	23	5	2613	872	68	31	19	5	28	0	94	234	138	21	6	70	97	226	7	9	6	20	171	10	167	73	25	67	34	53	115	4
OTU 192	205	330	375	25	12	144	14	0	2	39	21	229	25	4	27	87	10	72	25	3	66	4	22	76	1	26	26	33	100	114	97	17	46	56	1	3	8	1023	596	23	15	2	110	119	96	603	0	290	37	140
OTU 193	9	2	25	15	3	0	34	1	70	2	13	8	134	2	10	59	0	0	10	11	10	0	2	21	84	83	1	0	220	146	47	61	0	35	0	3	27	1869	745	11	3	13	9	0	3221	4	217	0	7	70
OTU 194	225	0	598	12	4	5	1	6	9	0	2	0	2	5	15	40	0	25	1	11	18	0	6	25	1	1	1	3	23	169	0	0	0	16	13	12	29	7	1	24	1	4	5	70	0	0	15	10	2	7
OTU 195	43	0	5	0	25	1	7	4	10	1	1	21	18	113	4	10	29	28	4	1	2	26	0	4	3	0	2	19	470	104	7	16	1	0	0	6	1	103	7	0	19	71	13	21	150	0	5	47	65	28
OTU 196	24	0	0	0	26	1	0	9	219	13	11	1	0	19	14	2	0	36	57	0	41	6	1	4	1	2	18	4	28	44	86	0	3075	16	10	14	0	652	348	5	0	76	90	7	3	0	0	55	6	0
OTU 197	41	63	34	39	251	132	101	3367	57	12	43	20	8	79	15	65	10	1	161	0	25	23	5	12	34	16	47	327	94	218	104	185	106	53	1550	31	2	19	5	31	10	53	15	40	74	32	102	8	26	1298
OTU 198	16	48	1	0	0	3	9	0	0	1	0	7	0	0	0	0	1	0	36	0	0	0	0	2	3283	6	0	7	0	30	14	33	0	0	0	0	0	27	3	0	1	2	5	0	11	22	1	5	50	4
OTU 199	2	0	0	1	37	31	1	27	0	24	1	0	23	0	65	15	62	18	4	13	0	63	19	95	0	0	1	2	31	1	5	0	1	64	5	0	15	26	0	30	25	19	0	0	0	4	12	78	127	4
OTU 200	117	26	2	52	9	20	3	13	6	11	5	34	0	9	62	4	75	5	3	4	7	0	11	1	1	3	5	14	0	6	1	25	3	46	8	46	5	2	2	37	32	42	46	59	1	7	1	5	71	54
