	Host 1	Host 2	Host 3	Host 4	Host 5	Host 6	Host 7	Host 8	Host 9	Host 10	Host 11	Host 12	Host 13	Host 14	Host 15	Host 16	Host 17	Host 18	Host 19	Host 20	Host 21	Host 22	Host 23	Host 24	Host 25	Host 26	Host 27	Host 28	Host 29	Host 30	Host 31	Host 32	Host 33	Host 34	Host 35	Host 36	Host 37	Host 38	Host 39	Host 40	Host 41	Host 42	Host 43	Host 44	Host 45	Host 46	Host 47	Host 48	Host 49	Host 50	
OTU 1	4	61	0	0	25	10	5	24	29	16	67	10	12	55	6	9	86	29	330	18	81	29	167	62	101	2	18	43	46	59	191	39	194	7	31	145	120	46	31	11	38	103	125	47	2	4	48	37	0	30
OTU 2	0	8	1	1	0	0	0	0	18	7	0	16	5	15	5	5	17	3	7	4	7	11	16	14	0	104	5	14	0	45	44	49	0	0	6	0	36	1	45	0	27	0	3	0	74	0	0	8	15	0
OTU 3	66	1	168	1947	4	18	151	32	0	0	3	50	7	0	8	0	1	171	68	3	1	11	0	21	0	93	0	0	16	0	0	8	2	3	0	28	47	2	14	32	0	0	1	1	0	0	0	5	4	40
OTU 4	0	0	0	0	0	0	0	0	0	0	40	0	0	0	0	0	0	0	0	0	0	0	0	1	0	0	0	0	0	0	0	0	0	0	0	0	0	30	0	0	0	0	0	0	0	0	0	0	0	0
OTU 5	99	54	278	491	1160	127	1281	211	275	1730	124	149	291	299	581	911	1167	263	142	727	0	586	224	296	77	761	144	297	493	479	74	337	462	75	547	736	578	200	146	322	71	175	156	353	924	284	231	738	30	56
OTU 6	104	0	0	49	31	36	112	73	0	31	6	0	8	13	8	51	33	0	22	27	6	44	23	32	4	13	1	2	1	0	25	76	34	15	18	18	55	0	30	48	119	56	0	6	52	22	620	31	0	59
OTU 7	29	79	100	36	100	57	44	8	73	63	110	71	364	16	158	57	20	6	72	92	91	83	22	29	142	52	89	90	95	123	42	52	20	15	102	5	45	19	38	19	219	408	57	76	22	53	83	359	115	149
OTU 8	5	65	197	228	57	105	75	74	38	14	49	9	114	16	259	41	119	66	305	34	23	99	33	59	20	273	43	85	19	71	95	99	29	86	160	229	102	9	16	110	17	33	29	79	214	27	34	46	25	32
OTU 9	3	30	35	3	13	2	53	1	0	1	0	7	23	0	0	0	6	50	3	3	21	9	3	6	0	32	0	7	1	0	1	0	4	84	4	6	1	3	86	46	14	17	0	0	38	0	30	1	1	4
OTU 10	1	3	0	1	5	0	0	1	20	0	1	13	0	0	10	0	1	17	0	0	120	22	9	2	16	6	47	22	0	43	1	0	89	2	13	7	8	7	193	3	0	11	1	0	32	9	16	8	1	0
OTU 11	15	62	5	21	8	5	46	11	2	22	6	110	0	45	119	74	90	28	59	2	27	166	22	7	22	9	0	33	24	4	107	2	32	9	8	1	21	30	8	794	114	3	16	16	43	96	54	36	127	0
OTU 12	134	10	16	0	1	20	141	30	9	18	37	55	2	1	98	17	51	5	2	2	187	16	4	27	5	14	24	44	14	16	15	157	145	11	82	3	33	20	3	25	52	99	49	55	95	12	26	27	71	83
OTU 13	1	0	0	0	0	0	0	0	0	0	0	0	0	0	0	1	0	2	6	7	0	0	3	0	0	55	0	0	0	0	0	0	37	0	0	16	0	0	0	0	9	0	1	2	1	1	0	0	10	0
OTU 14	1	0	15	2	3	48	28	30	0	15	27	153	0	1	9	101	0	129	11	0	4	42	0	0	1	7	0	2	0	2	16	1	5	0	0	0	1	4	3	2	5	13	1	5	1	21	102	22	5	0
OTU 15	0	18	0	6	0	25	1	0	0	0	0	0	0	0	0	0	0	0	0	1	0	0	0	6	3	0	1	0	8	0	0	16	0	0	0	0	14	0	0	0	0	0	0	2	0	0	26	0	0	0
OTU 16	0	0	1	0	0	0	0	0	0	0	0	0	0	0	0	2	0	0	0	0	1	0	0	0	0	0	0	0	0	0	0	63	0	0	0	0	0	0	0	0	0	0	0	0	0	0	0	0	1	0
OTU 17	15	11	1	18	1	16	136	18	0	30	16	0	2	5	21	30	12	41	6	34	1	34	22	23	2	52	3	1	1	0	55	48	234	0	1	2	33	8	100	4	15	5	33	4	2	10	18	1	8	0
OTU 18	1	27	33	49	26	15	74	0	0	281	7	1	38	53	174	29	25	11	139	44	27	12	147	9	39	33	40	4	63	0	353	22	1	101	5	72	35	1	26	9	9	42	95	16	28	12	136	40	89	27
OTU 19	0	0	0	0	0	0	0	0	0	0	0	0	0	0	0	0	0	0	0	0	0	0	0	0	0	0	0	0	0	0	0	0	0	0	0	0	0	0	0	0	0	0	0	0	0	0	0	0	0	1
OTU 20	37	12	72	60	63	4	54	11	24	33	35	34	45	12	37	29	1	51	0	66	26	96	32	20	140	71	4	11	39	40	66	3	106	43	35	9	32	3	36	25	59	366	29	11	11	48	20	45	2	8
OTU 21	35	0	41	23	37	32	38	229	9	12	33	7	106	2	6	0	0	110	26	11	32	1	10	21	39	141	5	16	3	13	5	1	2	14	22	42	28	11	10	13	89	35	35	8	72	2	36	60	18	14
OTU 22	46	97	5	50	5	53	19	59	38	0	474	33	46	0	49	3	4	92	0	0	22	13	14	26	2	2	12	2	1524	66	27	59	29	13	14	0	27	156	8	0	647	0	26	0	0	5	28	1	3	3
OTU 23	26	0	0	0	26	0	212	0	4	10	48	2	50	2	33	3	75	9	20	0	9	0	0	6	147	7	65	14	0	5	1	178	26	21	14	1	11	13	0	5	7	68	40	11	1	8	151	202	0	13
OTU 24	27	1	18	0	0	16	0	0	33	3	5	133	32	0	2	0	2	2	30	1	821	0	0	5	2	1	4	14	10	59	0	5	0	3	0	2	23	5	25	45	0	157	35	0	0	2	4	5	1	13
OTU 25	0	0	0	0	0	0	0	0	0	0	0	0	0	0	0	0	0	0	0	0	0	0	0	1	0	7	0	0	0	0	0	0	26	0	0	0	0	0	1	0	0	1	0	0	0	0	0	0	0	0
OTU 26	1	0	0	0	0	0	2	0	0	1	0	0	29	0	0	0	1	1	2	0	0	14	0	0	0	0	0	30	29	0	0	8	0	0	0	0	0	10	2	19	0	10	1	4	0	9	14	52	0	0
OTU 27	0	0	0	0	0	0	0	0	194	0	0	0	3	0	0	8	0	0	12	0	0	0	0	3	0	0	0	0	43	0	0	1	4	0	0	21	5	0	0	0	19	0	3	1	0	3	0	0	0	0
OTU 28	19	13	76	41	9	13	2	55	0	5	14	13	0	37	5	28	23	13	72	74	68	82	46	40	59	109	54	47	144	0	151	78	40	29	77	66	79	11	249	27	135	7	43	37	34	18	78	16	313	42
OTU 29	49	21	34	38	1	215	14	71	130	27	52	41	6	53	34	48	6	197	2	86	123	30	29	20	59	0	46	34	20	265	117	3	35	70	180	6	51	2	18	15	36	174	148	31	20	62	125	19	1	56
OTU 30	0	0	0	0	0	0	0	0	0	0	0	0	0	0	0	0	0	0	0	0	1	0	0	0	0	0	0	0	0	0	0	0	0	0	0	0	0	0	0	0	0	0	0	0	0	0	0	0	0	0
OTU 31	87	21	11	8	0	1	16	16	31	1	28	2	0	7	14	0	0	3	0	0	127	0	33	0	57	2	4	54	5	40	117	146	10	0	0	0	3	6	1	3	55	203	7	0	7	9	1	7	34	18
OTU 32	8	15	3	67	10	166	159	49	18	101	13	30	2	22	41	2	1498	20	70	58	105	46	25	47	94	54	63	75	424	38	34	144	93	35	66	30	136	2	1568	27	45	278	51	38	36	30	85	9	275	142
OTU 33	203	3	0	33	0	0	3	0	0	17	2	0	0	0	4	0	0	0	0	0	0	0	0	0	0	0	9	0	0	0	2	4	0	0	0	0	0	0	0	0	0	0	0	1	0	0	0	55	10	123
OTU 34	7	4	0	367	569	35	71	139	9	7	32	12	1	20	31	1	11	12	96	1	70	50	14	1361	8	236	1	14	30	14	52	17	26	38	4	72	2598	19	171	79	18	3	148	2	58	1	18	70	54	1
OTU 35	48	360	18	2	19	71	3	86	154	115	9	910	9	19	0	28	44	2	26	22	3109	28	3	0	0	31	30	147	20	310	0	35	8	879	88	12	2	2	61	60	23	3	1508	17	4	19	53	27	3	10
OTU 36	0	32	34	713	0	59	12	176	2	1	0	2	1	4	28	26	17	0	44	4	191	1	33	27	6	56	16	8	12	4	63	20	102	1	19	24	85	1	9	2	7	10	95	32	79	3	73	9	3	20
OTU 37	9	6	0	1	9	0	4	0	0	0	2	1	1	0	0	1	0	0	0	0	24	0	0	0	0	45	4	0	30	0	0	0	1	1	0	0	0	13	0	0	90	2	5	11	13	0	5	1	24	0
OTU 38	54	5	76	15	4	22	137	15	10	1	15	65	4	16	14	1156	18	7	5	0	2	65	14	0	62	1	12	3	474	23	6	135	41	4	2	2	0	0	486	29	71	30	2	880	41	13	0	17	54	40
OTU 39	0	2	0	4	0	1	0	0	27	14	9	0	6	13	0	2	1	4	2	7	0	51	42	0	38	0	0	73	1	54	86	0	4	1	1	0	0	3	0	9	9	62	1	48	0	36	0	0	0	0
OTU 40	4	59	8	0	32	43	22	8	3	2	1128	102	9	5	29	129	116	12	5	52	39	485	21	12	105	41	42	168	5	10	34	11	21	7	14	0	9	676	12	62	221	30	7	34	2	234	0	43	28	17
OTU 41	3	77	127	1	15	20	55	0	4	7	1	79	42	1	128	24	1	10	39	1	12	36	0	3	13	116	1	22	16	13	0	7	17	3	4	14	1	0	28	22	0	6	5	1	22	6	45	18	90	0
OTU 42	0	0	0	3	0	3	0	0	0	19	1	0	0	24	55	46	0	0	0	0	12	25	114	14	0	2	0	1	0	0	193	11	2	0	0	0	48	0	10	0	0	0	1	7	0	52	0	0	0	0
OTU 43	0	0	0	0	0	1	0	0	0	0	0	0	2833	0	0	0	0	0	1	0	0	0	0	0	0	0	0	1	0	0	0	6	0	0	0	0	0	0	0	0	0	0	0	0	0	0	0	0	0	0
OTU 44	0	0	1	1	0	18	46	0	0	0	0	0	0	0	53	0	0	1	0	2	0	0	0	3	1	0	0	0	0	0	1	0	45	0	3	0	0	0	0	0	0	5	0	0	10	0	0	0	0	2
OTU 45	132	52	41	89	53	3	0	48	0	5	24	94	12	17	8	2	0	6	31	12	0	37	35	13	21	5	130	1	41	1	96	178	31	5	38	10	13	9	24	27	67	130	13	0	54	532	81	6	194	261
OTU 46	100	180	20	6	11	111	0	6	12	25	81	17	58	14	35	16	1	157	48	154	75	43	10	34	29	78	74	5	47	17	3	52	174	16	12	4	61	2	0	36	2	1	3	3	73	38	180	129	15	15
OTU 47	26	9	2	6	0	11	0	0	0	0	0	8	0	1	86	0	3	2	0	0	1	0	0	0	5	2	3	3	31	0	8	0	0	0	0	1	0	0	0	0	26	0	0	0	0	0	17	38	2	0
OTU 48	19	23	107	27	54	2	91	39	17	1	85	35	10	25	20	59	2	120	59	14	32	5	25	2	99	26	67	37	8	35	49	22	11	8	1467	1171	6	14	19	12	44	46	4	990	4	19	54	5	127	51
OTU 49	6	0	4	1	7	0	9	38	0	25	9	20	18	0	0	4	1	51	14	75	1	3	1	23	26	8	28	39	0	0	0	9	2	0	0	5	39	2	25	81	40	0	3	0	10	7	0	21	0	72
OTU 50	70	10	51	4	25	11	1202	7	19	76	28	15	19	42	123	179	90	0	20	203	59	317	187	24	27	72	79	23	90	41	222	108	198	177	156	4	39	10	98	207	102	74	43	120	230	108	79	136	68	35
OTU 51	3	181	34	57	14	16	152	60	31	19	35	219	4	2	0	11	1	13	44	49	4	2	15	129	51	2	90	23	7	55	16	28	166	296	17	4	275	4	57	14	29	2	896	3	1	15	0	2	30	0
OTU 52	32	14	66	58	1	43	128	207	2	60	68	172	17	38	51	30	82	116	63	163	17	87	69	7	523	162	185	75	265	3	77	35	88	26	8	25	27	23	355	21	0	397	64	4	173	75	322	27	41	45
OTU 53	0	0	0	0	5	0	0	0	1	0	0	0	0	0	0	0	0	0	0	5	0	0	1	0	0	12	0	0	0	2	0	0	0	0	0	0	0	0	0	0	0	0	0	0	0	0	0	0	0	0
OTU 54	12	154	44	16	63	513	101	44	46	8	20	435	60	64	70	9	245	64	130	65	74	91	55	31	159	9	173	122	165	89	148	238	13	105	56	77	62	14	75	27	174	15	356	17	661	31	23	194	92	59
OTU 55	0	0	0	0	1	0	0	0	0	0	2	0	0	0	0	0	0	0	0	0	0	0	0	0	0	0	0	0	0	0	0	0	0	0	0	0	0	0	0	0	0	0	16	0	0	0	0	0	0	0
OTU 56	76	135	0	13	135	12	156	0	25	0	110	2	2	0	4	2072	7	13	127	3	3	4	0	9	8	21	0	88	1	41	0	1	13	24	0	1557	28	67	0	0	175	9	25	736	6	2	0	6	46	61
OTU 57	21	57	235	75	27	3407	58	63	55	106	67	60	48	22	30	76	440	50	201	107	93	147	6	15	80	205	98	94	95	120	22	67	69	7	69	76	39	40	185	697	56	73	38	112	86	87	66	37	10	30
OTU 58	6	1	35	6	2	3	0	19	41	81	37	1	450	404	74	5	0	5	7	909	15	88	748	2	1	0	0	13	1	71	1719	31	62	31	11	3	11	17	39	358	201	17	37	8	19	8	100	972	0	1
OTU 59	0	2	0	2	8	72	391	0	19	125	9	2	0	3	18	1	11	2	9	35	0	18	14	6	106	36	3	0	21	35	30	0	15	0	11	7	9	0	11	29	59	3	22	0	1	17	65	0	1	3
OTU 60	246	16	23	93	6	86	155	115	109	89	38	0	133	33	106	5	6	7	38	20	143	1	22	16	2	10	841	16	37	200	23	443	32	32	73	39	34	12	3	25	70	66	20	26	38	15	250	237	89	95
OTU 61	58	13	47	14	10	5	35	493	12	74	29	94	54	6	89	8	10	30	209	105	10	18	29	88	62	14	2	53	102	38	78	22	91	4	58	131	186	2	9	4	27	103	7	16	15	15	25	156	52	32
OTU 62	0	61	331	1	7	34	84	2	2	1	0	14	5	0	0	2	1	420	0	3	6	1	4	8	2	106	4	3	1	4	6	6	51	1	46	1	16	0	31	1	26	10	13	0	15	0	83	6	12	0
OTU 63	2	0	1148	0	0	6	28	0	0	4	0	8	4	2	4	16	37	0	9	2	1	14	22	0	5	153	178	0	28	0	51	12	0	6	2	2	0	2	2	2	7	0	16	0	0	9	0	9	0	0
OTU 64	748	92	187	325	185	35	66	128	41	88	29	82	156	37	108	84	24	60	1034	23	133	28	39	464	70	62	101	28	93	76	132	438	291	5	153	552	869	29	126	3	89	178	35	609	23	29	65	744	235	442
OTU 65	0	0	0	0	0	0	3	0	0	0	0	0	0	0	0	0	1	0	0	0	0	0	0	8	0	0	0	0	0	0	2	0	0	0	0	0	14	0	0	0	0	0	1	0	0	1	0	0	0	0
OTU 66	0	92	6	22	33	6	56	6	453	95	56	47	17	44	90	17	9	16	30	28	2	21	62	17	1	7	102	18	56	950	106	263	343	0	28	3	46	26	15	0	216	7	18	0	6	9	14	49	47	12
OTU 67	15	0	2	4	2	5	75	19	44	26	27	56	24	8	116	2	2	40	25	0	96	1	10	5	4	1	30	0	1	85	26	63	4	3	31	15	4	6	1	36	30	27	0	35	3	23	27	27	3	598
OTU 68	38	1	3	2	7	10	0	44	0	17	4	18	4	0	28	50	0	11	184	2	0	307	7	0	0	0	28	0	6	0	3	46	0	0	0	77	11	3	8	0	0	0	0	139	64	180	15	2	76	24
OTU 69	0	46	166	10	6	4	120	95	0	1	0	67	4	13	3	14	77	48	165	16	20	45	23	26	241	1	24	1	6	0	27	47	13	25	10	68	52	2	29	32	41	303	41	6	47	40	29	23	14	20
OTU 70	8	22	0	0	13	1	0	30	4	0	0	0	2	52	42	0	52	0	37	0	2	2	152	0	7	0	2	15	16	3	313	31	2	2	15	33	7	7	262	105	12	0	55	0	7	0	0	7	3	5
OTU 71	0	13	41	0	0	1	64	0	0	0	465	0	0	0	6	0	0	12	0	9	37	5	1	264	8	0	0	17	4	1	31	0	14	53	38	0	0	193	0	0	0	0	70	0	12	0	9	21	1	1
OTU 72	39	9	34	40	7	109	19	428	20	19	130	9	18	4	13	3	13	2	43	6	4	44	7	13	52	28	6	3	5	35	3	20	48	959	7	42	13	20	152	5	101	85	16	27	19	34	0	13	53	103
OTU 73	104	27	200	0	9	8	53	166	5	0	4	10	1	0	1	6	4	9	73	57	1	8	13	75	3	9	140	3	18	12	38	6	0	1	3	93	160	1	0	15	4	75	9	1	17	10	67	13	43	23
OTU 74	18	37	40	0	5	20	6	169	6	9	1574	53	18	0	36	67	21	11	176	8	94	136	14	20	44	2	43	33	53	15	11	28	195	31	8	65	37	673	16	60	71	49	29	10	0	68	1	8	24	30
OTU 75	10	39	12	15	0	8	8	50	7	32	25	35	126	536	39	1	33	31	65	49	0	45	107	59	35	12	12	19	76	17	162	53	47	84	13	10	79	16	134	3	50	316	114	35	6	77	18	89	4	3
OTU 76	0	0	41	0	0	2	3	0	0	0	5	6	1	0	0	265	4	42	0	16	1	677	6	37	2	0	4	0	1	0	0	0	0	14	0	0	67	0	44	0	1	0	6	270	14	383	0	0	32	13
OTU 77	40	22	132	9	10	4	21	15	4	1	26	21	80	1	33	2	41	205	2	26	74	0	26	13	115	52	156	71	25	13	30	1	59	2	2	3	32	18	26	58	5	25	0	20	6	0	68	84	133	10
OTU 78	40	12	0	1	62	5	0	86	0	22	0	0	2	0	114	12	2	0	44	80	4	17	15	24	28	14	3	3	8	0	1	13	24	0	8	3	65	8	39	10	36	92	9	0	36	9	3	67	57	6
OTU 79	104	108	13	41	108	48	74	1202	255	1435	90	142	1330	17	385	46	27	59	80	463	65	115	13	25	2099	224	94	91	50	578	61	98	266	216	37	39	79	1978	114	42	155	90	156	71	130	136	126	138	217	62
OTU 80	23	46	12	12	4	17	141	2	7	2	130	41	41	252	34	59	53	82	104	4	20	53	0	32	27	28	41	1134	22	23	7	17	5	17	41	54	60	77	197	27	231	29	11	30	24	18	26	9	8	24
OTU 81	45	33	262	12	1	66	31	229	7	61	58	11	77	11	6	5	8	234	244	30	40	45	25	67	23	51	70	341	3	11	45	20	29	60	33	219	79	1	20	6	81	70	75	5	1	8	90	94	18	10
OTU 82	2	36	3	5	2	7	8	94	2	0	0	0	41	0	60	7	12	4	0	11	5	63	21	7	146	0	8	16	2	4	6	8	50	11	5	1	15	8	1	25	2	56	11	45	44	77	96	57	40	16
OTU 83	0	0	0	1	1	0	5	2	12	18	1	0	1	5	0	0	0	0	0	0	0	0	10	0	3	0	125	16	18	14	34	0	13	5	0	0	0	0	1	1	0	3	0	0	14	5	40	0	0	0
OTU 84	7	1	34	8	3	14	29	30	0	23	2	24	3	34	0	12	7	50	20	0	6	0	52	1	15	2	15	14	14	1	175	10	29	44	13	29	7	0	1	1	0	1	0	1	79	13	120	28	0	33
OTU 85	20	0	4	0	0	13	6	0	0	5	0	1	3	0	1	1	0	0	0	0	0	19	0	2	73	27	0	27	0	0	0	19	1	4	44	11	0	1	0	0	59	0	15	0	29	16	0	3	0	0
OTU 86	0	0	173	0	0	0	0	0	0	0	0	4	0	0	18	0	0	83	2	0	0	0	0	0	0	0	0	6	0	0	0	0	0	0	0	0	0	0	0	0	0	0	0	0	0	0	0	16	0	21
OTU 87	16	0	0	0	0	35	0	2	1	5	3	98	0	0	9	0	42	681	1	30	38	0	34	4	5	18	11	2	0	1	57	0	0	1	30	0	5	0	0	4	15	44	0	0	10	2	0	0	0	0
OTU 88	21	52	3	0	0	14	0	0	2	0	63	0	0	0	0	0	0	3	0	0	0	0	1	4	0	287	2	0	0	6	0	0	0	10	0	0	3	9	5	0	133	1	0	0	0	0	0	0	0	10
OTU 89	5	0	8	10	3	0	1	35	14	1	7	1	7	5	1	9	0	0	45	0	41	4	0	15	0	1	0	1	0	25	0	0	7	0	8	0	23	25	0	12	29	10	28	5	3	0	0	2	0	0
OTU 90	0	10	0	0	0	13	0	0	11	0	14	0	0	0	0	0	0	18	3	3	0	0	0	0	0	0	0	4	1	23	0	82	0	0	0	1	0	0	0	0	63	15	0	0	1	0	0	0	1	2
OTU 91	0	0	0	0	0	0	0	1	0	0	8	0	7	0	0	1	0	0	0	0	0	0	21	0	0	0	0	0	0	0	34	0	0	0	0	0	0	0	2	6	0	0	0	0	0	0	0	0	0	0
OTU 92	6	0	0	0	0	0	0	1	0	4	3	5	0	0	0	0	0	1	0	4	0	0	24	0	1	2	0	7	0	0	32	18	2	0	24	0	1	1	0	1	0	0	0	0	0	0	66	5	4	4
OTU 93	6	54	0	0	2	0	0	0	2	1	6	48	0	0	4	0	0	1	24	0	0	18	0	0	0	0	1	0	15	2	0	0	0	27	0	14	0	0	0	1	0	0	0	3	0	0	8	3	7	9
OTU 94	150	118	13	7	48	36	4	0	0	10	18	180	0	20	101	20	44	10	146	1	14	35	54	13	5	59	28	366	133	0	83	333	24	88	28	76	34	36	2	0	238	10	24	17	81	38	855	2	81	31
OTU 95	15	4	41	0	40	0	9	19	0	0	0	0	329	1	0	0	3	9	33	0	0	0	0	12	0	10	11	0	0	0	0	63	4	26	0	29	19	0	4	4	0	10	106	18	0	8	24	634	0	7
OTU 96	0	0	14	0	0	0	12	0	0	0	0	0	0	0	0	2	0	3	0	0	1	49	0	0	1	1	0	0	0	0	0	0	0	0	0	0	0	3	0	0	1	7	0	0	0	9	0	0	0	0
OTU 97	0	0	0	2	16	0	0	0	0	0	0	0	29	18	0	60	17	2	0	0	0	99	13	0	0	65	0	0	2	0	3	0	0	6	4	0	0	0	0	0	0	0	0	6	0	63	0	0	0	0
OTU 98	25	0	101	0	23	10	12	0	15	19	0	0	2	13	0	2	7	0	0	0	0	0	7	0	10	0	20	1	0	24	11	0	1	0	1	2	8	0	17	94	0	11	0	0	0	3	4	0	12	0
OTU 99	43	14	12	27	59	86	18	205	5	14	16	70	1	17	55	44	15	13	278	117	0	16	25	41	89	140	55	4	104	18	80	256	44	2446	4	93	71	56	31	4	119	201	824	20	72	1	0	19	67	24
OTU 100	3	5	72	17	2	9	14	11	21	13	0	55	12	58	20	0	208	7	0	19	0	15	140	0	8	25	8	1098	0	36	246	4	1	0	6	5	0	0	111	62	9	0	27	12	179	35	9	38	65	35
OTU 101	0	0	1	0	0	0	0	0	0	42	0	0	15	0	0	0	2	0	3	0	0	0	0	19	0	0	0	10	13	0	0	11	0	15	0	4	40	11	0	0	0	5	0	1	0	0	0	0	2	0
OTU 102	4	0	35	14	0	2	2	1	0	0	0	0	7	0	2	0	46	1	5	2	4	0	0	0	1	4	0	41	2	1	0	13	6	0	25	18	0	0	0	9	0	0	1	0	20	6	0	0	18	6
OTU 103	1	10	1	32	2	8	39	1	1	27	31	2	3	48	133	2	90	19	106	10	0	35	159	11	2	43	91	225	0	1	291	68	248	0	0	29	16	0	6	124	34	71	0	16	60	3589	7	9	37	0
OTU 104	142	35	64	58	127	36	38	52	31	43	83	50	153	6	96	11	118	25	89	19	19	50	44	15	273	113	162	12	20	71	92	607	110	89	6	43	54	59	30	9	141	253	92	1	109	11	45	69	256	117
OTU 105	1	0	1	8	0	11	0	10	0	5	83	0	0	2	0	25	7	18	0	0	0	21	0	9	0	0	1	1	0	0	0	0	11	3	37	1	19	54	10	0	195	0	82	9	6	1	13	41	14	18
OTU 106	10	1	118	4	0	10	0	7	0	0	0	176	2	9	0	537	0	13	0	1	1	0	4	0	2	0	6	4	0	0	17	19	3	0	1	0	4	0	1	0	20	21	0	398	0	7	0	0	0	0
OTU 107	10	2	26	3	29	5	0	0	3	0	0	0	0	0	17	12	1	0	11	6	2	83	0	2	0	0	11	10	0	3	1	0	0	5	0	27	5	4	0	20	0	0	5	11	5	12	32	0	23	0
OTU 108	5	4	2	1	0	0	0	0	0	4	26	0	13	2	2	4	26	36	93	0	11	1	29	0	14	16	26	71	22	0	22	8	1	3	4	78	0	4	6	23	109	0	0	0	5	1	5	43	2	6
OTU 109	8	0	0	0	0	0	0	0	0	0	0	0	0	0	0	0	0	0	0	0	0	0	0	0	0	0	0	0	0	0	0	0	0	0	0	0	0	0	0	0	0	0	0	0	0	0	0	0	0	0
OTU 110	369	14	29	43	2	27	34	73	1	17	1356	22	307	7	6	16	36	107	21	109	5	115	55	1	85	23	52	5	42	5	87	8	85	19	0	22	2	677	1	2	1	19	12	20	1	58	226	812	88	56
OTU 111	0	4	4	0	1	0	0	0	14	0	1	1	0	0	0	0	0	0	0	0	0	0	0	1	5	0	0	0	8	20	0	0	3	0	17	0	0	0	22	4	0	0	1	0	0	0	0	0	0	0
OTU 112	53	21	66	0	8	39	310	1	0	9	8	3	0	4	1	16	1	43	0	1	0	58	2	0	0	0	0	2	2	0	0	3	4	5	1	0	0	12	1	5	121	85	0	3	28	10	37	4	12	1
OTU 113	0	343	0	0	5	0	19	0	0	15	1	163	0	0	1	0	11	0	0	4	0	0	0	0	1	4	2	1	1	0	0	8	0	0	0	0	0	0	0	6	15	0	3	0	0	0	0	11	0	0
OTU 114	35	20	8	43	9	2	51	141	476	1528	51	152	66	46	151	36	148	8	129	64	30	82	86	102	481	20	363	0	5	991	223	1	1260	30	1156	29	235	34	111	34	206	1108	30	7	6	71	5	12	144	34
OTU 115	17	6	36	132	3160	33	37	103	43	15	2	18	47	8	125	12	89	18	29	41	78	56	2	12	52	102	41	79	30	98	29	74	33	97	12	6	33	159	182	101	25	105	141	57	51	12	95	79	43	44
OTU 116	6	11	33	14	10	33	74	156	785	59	98	20	10	8	298	59	32	21	2	2	333	67	8	0	63	100	6	85	151	55	17	46	71	33	67	5	0	18	0	7	117	45	24	12	17	13	1	1	60	21
OTU 117	18	122	62	1	11	14	11	627	35	31	113	35	2	1	8	4	12	9	87	0	2	6	8	0	96	156	151	3	45	58	8	171	49	28	47	51	2	51	0	16	174	50	26	7	0	18	9	0	2	18
OTU 118	0	0	11	48	0	16	0	0	0	0	0	0	0	1	88	24	6	0	0	0	0	2	3	0	0	44	37	1	60	0	1	3	124	3	0	0	8	0	7	12	16	0	0	6	14	7	0	2	0	0
OTU 119	6	17	19	136	1	4	0	16	1	63	82	8	23	0	51	108	32	0	3	0	2	254	1	10	1	113	22	170	34	4	8	47	61	12	17	5	19	2273	5	0	70	1	27	143	40	135	17	81	21	42
OTU 120	0	13	21	1	1	12	7	1	0	0	26	0	15	2	2	3	37	1	6	2	0	4	8	0	0	20	0	68	10	0	3	0	0	0	20	7	0	0	30	3	7	37	60	0	30	0	0	6	4	88
OTU 121	33	14	28	4	2	5	0	2	5	24	33	10	11	2	22	10	527	59	12	1	0	1	5	8	28	70	0	18	43	9	2	13	33	22	25	0	30	0	16	65	0	112	102	2	2	0	5	0	3	1
OTU 122	35	24	35	64	40	30	0	127	0	14	3	45	16	0	181	56	20	9	96	32	2	163	1	15	2	97	8	16	5	0	3	7	20	91	28	41	69	14	124	2	18	78	27	4	8	41	73	2	7	10
OTU 123	228	133	287	48	62	119	77	257	272	513	100	31	388	2290	365	66	63	132	270	777	17	116	112	39	491	219	42	89	586	535	236	54	248	164	70	223	62	119	373	105	111	138	159	58	1417	81	316	76	151	347
OTU 124	0	0	2	0	2	0	0	37	0	0	3	3	0	0	1	7	4	20	38	0	0	1	2	0	10	0	2	26	0	0	9	25	1	3	1	26	0	3	0	0	0	6	0	0	3	0	0	1	18	0
OTU 125	178	30	151	173	115	270	68	78	1149	118	47	146	123	134	200	517	32	103	96	59	239	1017	65	1807	124	65	26	308	16	42	91	154	105	139	1447	56	41	47	252	321	76	209	249	279	61	579	356	88	122	97
OTU 126	0	0	0	0	0	0	0	0	2	0	6	0	1	0	0	0	0	0	0	0	0	0	0	2	1	0	0	0	0	1	0	0	0	0	1	0	2	12	0	8	46	0	6	9	18	0	5	5	37	0
OTU 127	91	38	8	1	26	25	0	4	30	44	12	2	14	0	12	0	1	72	6	0	28	30	0	0	3	0	4	56	144	49	4	12	33	1	5	11	6	2	102	2	15	70	11	7	16	10	371	18	23	11
OTU 128	763	110	121	69	149	123	127	283	5	101	33	37	62	11	116	62	82	121	474	187	169	129	39	32	140	47	31	68	252	11	83	101	139	93	56	206	62	17	59	40	86	275	55	47	23	48	58	209	40	346
OTU 129	0	24	0	0	0	57	15	0	0	6	0	5	4	0	6	0	0	0	6	26	1	0	2	0	12	7	10	0	0	0	0	54	0	2	12	5	0	0	1	37	0	0	0	0	0	13	6	0	125	0
OTU 130	4	0	16	0	2	82	34	0	3	0	40	4	34	9	28	62	12	4	29	1	11	56	35	21	12	0	0	0	7	1	28	30	25	0	0	16	38	16	7	2	17	20	1	36	3	0	1	52	0	3374
OTU 131	50	14	63	50	12	28	3	284	16	19	57	13	3	10	106	2	5	101	1	18	55	1	21	1	20	26	863	46	54	41	16	53	1231	8	0	13	0	1	34	56	3	6	5	0	40	4	5	0	27	14
OTU 132	32	0	41	0	4	0	3	0	0	2	0	81	0	7	7	3	6	15	0	0	8	13	40	0	0	5	1	33	103	0	56	10	7	0	1	0	0	1	16	2	2	0	5	0	0	0	1	23	38	7
OTU 133	0	4	5	0	0	0	0	5	0	0	1	0	1	0	9	0	1	4	0	0	0	0	6	5	0	6	9	0	7	0	2	0	0	0	0	1	0	0	0	14	8	0	0	0	0	1	0	10	0	0
OTU 134	26	0	9	1	8	6	92	10	1	11	122	4	23	4	149	6	83	13	88	0	38	59	22	16	11	26	0	78	2	3	10	11	1	98	121	28	21	73	2	11	190	7	100	52	1	36	4	9	14	5
OTU 135	95	12	1	3	32	72	13	10	0	11	99	2	69	18	321	0	10	0	89	3058	0	32	20	4	26	33	0	3	10	2	44	3	106	10	10	88	5	54	34	0	138	1	67	5	10	3	0	143	113	21
OTU 136	1	46	21	0	26	4	6	1	5	13	3	2	2	24	7	75	35	49	2	13	0	17	25	9	2	32	65	213	1	9	35	4	44	4	5	4	6	0	19	12	2	7	43	0	7	0	72	0	1	0
OTU 137	45	0	0	2	47	0	0	79	0	0	7	0	25	0	0	0	8	15	2	9	42	1	3597	3	1	1	0	0	1	0	0	917	0	8	0	0	1	2	0	0	0	11	3	2	18	0	0	8	240	17
OTU 138	0	0	0	7	5	0	11	0	0	0	9	1	0	0	2	1	1	20	14	0	22	7	0	0	2	0	105	0	90	0	2	7	22	19	13	15	0	0	6	0	14	1	66	2	1	0	5	31	0	9
OTU 139	6	767	94	57	1	98	135	4	47	21	19	1689	56	28	32	227	50	95	18	59	8	41	61	6	25	770	249	107	13	82	234	6	57	13	50	7	31	14	180	17	98	38	1	118	51	6	120	26	136	6
OTU 140	103	95	24	28	131	273	253	16	130	351	138	202	28	3652	45	43	158	121	171	44	174	110	401	31	32	84	56	72	389	236	103	51	25	96	471	51	77	100	11	132	199	6	194	2642	412	15	54	126	2480	128
OTU 141	0	0	0	0	0	0	0	0	0	0	0	0	0	0	0	0	0	0	0	0	0	0	0	0	0	0	0	30	0	0	0	0	0	0	0	0	0	0	0	0	0	0	0	0	47	0	0	0	0	0
OTU 142	0	0	0	0	0	2	0	0	0	0	0	0	0	0	0	0	0	0	0	0	3	0	0	0	0	0	0	0	0	0	0	6	0	0	0	0	0	0	0	0	0	0	0	0	0	0	0	0	0	2
OTU 143	8	56	4	1	5	336	0	4	0	9	0	0	0	0	23	0	0	0	0	0	0	0	0	0	0	0	1	13	1	0	1	94	0	0	0	6	11	0	20	0	10	0	24	0	6	0	0	0	0	1
OTU 144	1	1	0	3	8	79	44	0	2	0	4	0	26	0	0	0	3	2	77	0	4	1	0	3	12	0	29	56	36	3	6	0	0	2	1	17	0	0	1	31	8	5	0	0	3	10	1	90	0	1
OTU 145	8	14	27	2071	27	51	35	53	2	23	51	13	13	8	166	72	33	2	23	63	11	20	27	7	276	152	67	551	17	3	22	35	72	52	13	21	21	36	1	26	66	331	31	1	6	10	5	4	47	22
OTU 146	17	2	37	2	1	5	183	32	9	0	84	31	330	64	5	5	5	6	6	47	33	69	8	1	2	120	2196	12	0	26	34	5	85	64	0	6	16	16	3	20	60	20	143	2	1	33	43	4	121	29
OTU 147	33	55	0	1	0	9	0	0	0	43	7	95	14	0	1	10	2	0	53	9	5	30	0	13	15	25	20	38	0	0	0	18	0	0	1	19	11	1	29	22	1	38	5	0	7	6	19	0	0	37
OTU 148	27	5	49	19	8	45	138	5	12	2	28	30	8	15	820	3	116	33	29	1	109	27	68	23	17	9	318	201	6	24	48	70	201	128	4	20	84	21	9	291	15	10	86	4	81	3	117	57	1	1
OTU 149	81	2	41	0	7	0	48	3	1	0	6	4	24	17	1	9	1796	1	53	0	21	0	620	25	13	0	90	1	3	2	17	1	23	78	28	2	22	0	12	6	12	24	157	0	60	0	0	127	50	5
OTU 150	25	6	0	0	0	0	26	39	0	174	1	0	0	0	2	0	8	20	12	62	0	5	0	2	778	28	0	5	0	0	0	0	3	0	0	2	0	0	10	47	35	14	41	0	0	31	1	3	5	0
OTU 151	0	0	6	18	0	12	41	0	8	78	4	0	1	3	41	68	3	4	27	18	31	177	10	21	10	23	4	9	20	22	3	23	0	0	7	8	40	1	30	24	9	33	0	0	64	84	0	1	0	0
OTU 152	0	20	0	34	2	0	1	0	2	7	5	31	46	0	16	19	17	30	22	1	6	30	18	5	3	21	30	33	66	3	8	24	32	16	1	13	21	1	9	71	22	60	27	1	76	14	21	14	7	24
OTU 153	0	0	5	0	1	6	0	0	0	0	0	7	0	0	0	0	0	0	0	0	0	0	0	1	0	0	1	0	4	3	0	23	41	0	0	0	0	0	0	0	0	0	27	0	0	0	28	2	0	13
OTU 154	0	0	4	0	0	0	6	2	0	0	31	0	0	0	11	32	0	0	0	0	0	0	0	4	0	0	1	0	2	0	0	0	0	5	3	0	3	0	0	0	47	0	0	0	1	20	0	0	0	0
OTU 155	8	106	55	0	27	1	57	52	2	0	0	194	2	1	14	7	0	0	0	3	3	2	4	11	11	45	0	47	6	5	5	26	5	0	2	0	33	0	0	12	26	8	0	8	57	0	5	27	4	7
OTU 156	61	3611	57	5	57	43	12	91	2	57	44	4	33	13	68	107	15	166	9	2	108	52	227	15	59	75	21	129	112	12	47	55	13	1	7	20	59	12	76	54	134	8	16	2	1	11	102	184	26	33
OTU 157	0	16	0	0	0	22	0	0	0	0	0	1	0	0	0	2	14	21	0	2	0	2	0	2	0	104	2	0	0	0	1	15	16	1	1	5	5	0	3	10	7	1	27	0	0	7	0	0	2	0
OTU 158	0	0	1	0	0	0	0	0	0	0	0	0	0	2	0	0	0	0	0	8	0	0	0	0	0	2	0	0	29	0	0	2	0	0	0	6	0	0	0	0	0	0	0	1	0	0	35	0	0	0
OTU 159	13	5	2	1	2	3	13	2	2	0	0	0	86	29	57	29	12	9	12	15	22	47	82	0	1	8	6	0	23	5	125	93	18	38	8	2	9	0	20	20	40	20	10	31	26	15	15	259	0	24
OTU 160	96	98	85	634	95	71	24	37	38	166	33	7	3	3	244	63	48	56	273	58	101	182	10	35	100	592	83	8	82	66	32	24	64	44	57	185	68	2	24	25	41	17	96	56	62	493	156	62	93	51
OTU 161	36	23	1663	102	10	14	24	11	0	27	0	31	16	41	238	0	16	1	85	1	10	0	27	10	20	45	0	40	102	0	39	62	7	0	9	62	17	4	87	26	30	6	128	5	37	0	21	22	116	0
OTU 162	56	5	16	16	1	80	88	18	5	1	11	60	5	25	31	13	6	0	30	31	31	9	30	1	2	91	25	0	744	4	111	76	2	41	44	9	1	0	21	0	0	177	133	5	3	4	72	22	53	25
OTU 163	0	0	0	0	0	0	0	0	0	0	41	0	0	0	0	0	0	0	2	0	0	0	1	1	0	0	0	0	0	0	4	0	0	0	0	0	0	22	0	0	22	1	38	0	0	0	0	0	0	2
OTU 164	6	0	2	0	0	0	0	0	0	0	0	0	2	0	0	0	0	0	0	0	0	0	0	0	0	0	0	0	0	0	0	0	0	0	0	0	0	4	0	1	0	0	0	0	5	0	28	0	0	0
OTU 165	2	8	16	2	0	76	3	6	2915	0	32	23	0	0	6	6	0	14	37	13	8	33	11	2	1	0	16	40	32	1	1	133	5	5	16	2	0	17	70	6	45	157	11	4	0	19	4	0	34	0
OTU 166	0	0	0	0	0	0	0	8	0	0	0	0	0	0	0	0	0	0	0	0	0	0	0	0	0	0	0	0	0	0	0	0	0	0	0	0	0	0	0	0	0	0	0	0	63	0	0	0	4	0
OTU 167	15	27	20	3	15	19	2	250	0	6	14	9	0	6	30	6	0	0	0	19	11	1	3	0	1	88	3	12	12	0	17	5	9	3	8	0	7	2	62	0	14	7	2	7	4	5	13	0	67	14
OTU 168	18	30	13	44	46	17	77	3	21	1	0	134	21	0	0	4	85	75	12	10	19	18	4	2854	9	73	25	4	30	47	6	1	28	0	29	2	3	0	22	16	21	11	17	3	54	0	64	2	106	38
OTU 169	0	0	0	6	4	22	0	0	10	0	0	0	0	1	0	18	0	0	58	0	3	6	0	0	0	0	0	0	5	8	0	0	0	0	0	164	0	0	0	0	5	0	0	3	14	3	1	0	52	0
OTU 170	0	0	0	0	0	0	0	0	0	0	0	0	2	0	0	0	0	0	0	0	0	0	0	0	1	0	0	0	0	0	0	4	0	0	0	10	0	0	0	1	2	0	0	0	0	0	0	0	0	0
OTU 171	1	4	0	26	4	18	1	0	0	80	5	48	17	6	0	3	0	19	180	149	30	9	5	13	36	33	32	29	3	4	35	21	15	20	14	116	38	6	94	15	1	50	43	1	900	9	68	14	19	15
OTU 172	0	1	1	0	0	19	2	0	12	2	0	3	0	0	58	0	13	6	0	0	0	74	8	0	0	0	0	2	0	20	17	0	9	21	0	0	0	4	0	0	0	0	0	0	0	26	0	14	0	0
OTU 173	6	0	7	3	6	0	20	1	0	31	24	17	0	1	1	0	12	27	53	0	2	0	1	3	4	10	0	2	0	1	1	19	14	13	0	17	8	1	0	0	0	1	18	3	0	3	0	22	0	0
OTU 174	50	1	10	0	27	14	15	0	138	313	0	0	2	2	7	37	0	14	0	15	663	91	3	0	33	22	8	144	1	223	14	160	0	3	290	2	0	9	0	1	3	11	0	20	4	23	5	0	376	24
OTU 175	21	1	32	17	0	0	43	41	0	1	0	51	8	1	3	0	111	4	7	3	34	0	0	1	4	0	3	18	53	0	0	8	0	3	0	0	9	10	37	0	0	0	0	18	1	0	33	19	16	0
OTU 176	151	12	8	30	27	93	30	150	0	11	25	49	43	10	89	109	7	17	164	74	71	70	11	7	145	17	73	20	1	4	40	0	55	1	3	45	4	3	203	0	14	117	116	4	14	30	34	10	1	74
OTU 177	65	52	4	11	7	42	128	25	71	55	106	78	5	8	50	4	35	42	108	0	184	4	62	22	83	45	40	63	137	120	85	50	30	0	48	26	105	36	0	0	147	49	55	0	26	0	74	9	20	10
OTU 178	0	2	1	4	1	0	132	199	14	55	1	0	5	18	30	13	2	26	1	8	9	37	12	19	16	7	32	8	73	29	36	0	0	0	47	10	31	2	25	2	0	14	13	98	0	21	28	0	0	6
OTU 179	2031	4	65	11	418	1	21	1	12	4	0	3	7	5	36	40	0	1	78	20	73	46	3	3	0	1	22	1	7	39	0	34	1	50	6	4	0	2	10	9	3	72	64	41	28	22	7	26	0	777
OTU 180	73	196	2	32	32	82	80	77	80	146	131	211	27	458	67	112	100	29	28	55	55	118	49	72	125	84	119	248	111	151	152	42	49	6	199	38	149	38	36	43	242	69	143	91	272	51	390	5	56	50
OTU 181	19	1	1	65	1	70	8	30	11	0	496	2	15	60	59	3	2	5	0	36	78	11	77	6	2	0	4	0	31	42	143	52	0	14	119	3	8	254	7	0	998	0	4	12	0	16	18	96	11	0
OTU 182	0	0	0	0	0	0	0	0	0	53	0	0	0	0	3	0	0	0	0	0	0	0	0	0	0	6	0	0	0	0	0	0	0	0	0	0	0	0	0	0	13	0	0	0	0	0	0	7	0	0
OTU 183	0	37	83	0	3	1	12	22	956	1	29	64	4	0	0	11	19	49	32	5	77	10	0	0	17	11	4	21	5	2007	6	89	6	1	70	18	5	26	3	16	61	13	11	10	0	0	1	6	0	5
OTU 184	37	0	11	0	17	8	120	10	14	75	0	0	71	0	6	18	0	16	41	44	57	5	0	17	2	70	0	30	14	16	0	5	22	0	13	0	6	8	32	31	0	0	3	8	98	6	7	35	48	2
OTU 185	0	13	8	28	14	17	67	85	26	25	71	5	26	7	92	3	1	7	34	87	11	24	3	12	110	23	55	32	16	46	3	194	98	12	52	8	27	31	5	26	42	169	21	1	37	0	132	30	32	4
OTU 186	1	0	138	0	11	0	66	0	0	40	23	0	2	8	13	29	5	13	0	0	30	42	14	6	0	0	0	2	0	0	14	71	0	0	0	0	9	81	19	0	32	0	0	32	2	0	30	0	0	2
OTU 187	50	64	36	47	48	15	55	327	1	6	51	91	24	99	261	98	85	15	42	9	7	61	120	79	42	32	40	234	62	1	222	162	112	1267	27	26	147	14	141	5	68	18	35	8	213	25	54	65	36	3
OTU 188	65	82	32	11	10	426	38	21	11	7	2	123	13	8	100	43	27	30	26	0	3	48	5	53	11	98	7	21	16	26	41	25	20	20	4	42	92	9	25	43	12	42	33	39	81	35	39	12	6	114
OTU 189	85	14	54	58	14	70	17	38	6	4	34	1	38	10	38	65	8	80	133	165	51	24	1	393	28	102	49	45	16	13	11	3	65	8	18	20	713	37	43	46	80	80	27	5	34	4	204	115	36	13
OTU 190	0	0	69	1	42	0	7	0	13	0	0	6	0	0	3	1	6	0	1	0	0	0	0	0	14	0	0	0	0	16	0	0	0	0	4	1	0	7	0	2	6	0	0	0	0	0	1	0	0	0
OTU 191	48	99	4	111	2	4	128	1	1	50	7	200	37	17	379	82	3	3244	26	23	7	85	85	18	52	155	10	27	55	11	88	9	6	8	36	19	31	29	126	9	27	24	106	25	145	49	123	12	187	2
OTU 192	85	12	398	35	3	34	6	42	18	8	15	30	23	12	4	55	47	333	393	6	47	95	17	43	109	837	68	270	186	39	29	62	40	230	24	101	71	11	260	3069	12	39	306	7	34	68	17	59	28	70
OTU 193	24	11	121	25	17	110	38	75	26	11	1	117	105	5	7	11	20	0	223	2	28	9	0	7	35	13	0	17	228	63	0	79	12	0	25	85	28	0	589	0	0	180	104	0	2	6	222	152	3	37
OTU 194	530	1	0	0	23	0	4	24	2	33	49	31	3	18	0	6	11	5	0	6	0	18	18	1	7	0	2	36	34	10	44	195	2	25	11	0	3	666	44	0	51	55	0	4	0	9	0	0	341	153
OTU 195	35	9	16	3	31	8	0	0	0	6	19	1	15	1	65	44	25	79	17	0	10	62	2	10	42	56	113	7	10	0	5	2	38	24	5	27	19	3	236	14	22	18	5	34	18	55	5	24	54	37
OTU 196	45	9	41	81	18	6	1	7	0	13	11	32	0	95	18	46	323	16	0	1	1	20	192	33	2	11	21	67	86	6	404	36	3	125	819	0	52	5	113	101	8	3	81	0	615	5	28	7	8	0
OTU 197	33	382	40	32	1557	327	156	129	16	5	3	844	27	13	68	15	36	22	84	69	9	39	0	29	134	132	9	178	18	22	10	219	94	44	33	43	68	9	53	633	57	101	117	27	27	18	357	148	78	10
OTU 198	58	9	12	0	4	2	0	52	0	0	4	2	0	0	106	513	0	0	6	0	0	718	0	2	0	0	26	2	0	0	0	0	46	0	1	0	0	0	0	0	0	0	3	169	4	568	11	4	5	70
OTU 199	87	0	7	7	0	89	52	2	0	20	4	0	1	0	1	5	2	2	14	2	0	0	4	64	0	0	0	4	55	0	1	1	14	43	29	1426	78	0	17	0	12	18	45	0	1	0	111	7	24	2
OTU 200	13	2	62	38	4	9	8	2	3	21	0	0	6	2	12	7	20	17	2	4	1	11	5	12	13	11	1	10	0	8	34	38	1	23	0	3	8	1	0	0	7	48	17	0	32	11	21	34	87	6
