	Host 1	Host 2	Host 3	Host 4	Host 5	Host 6	Host 7	Host 8	Host 9	Host 10	Host 11	Host 12	Host 13	Host 14	Host 15	Host 16	Host 17	Host 18	Host 19	Host 20	Host 21	Host 22	Host 23	Host 24	Host 25	Host 26	Host 27	Host 28	Host 29	Host 30	Host 31	Host 32	Host 33	Host 34	Host 35	Host 36	Host 37	Host 38	Host 39	Host 40	Host 41	Host 42	Host 43	Host 44	Host 45	Host 46	Host 47	Host 48	Host 49	Host 50	
OTU 1	27	19	104	160	247	411	9	474	423	80	225	3	3	22	288	226	92	1	571	6	13	210	316	2	188	269	175	131	2	260	208	609	46	305	0	260	303	515	33	4	189	377	102	0	119	56	9	207	181	366
OTU 2	0	36	1	0	7	1	4	0	19	4	0	0	1	2	18	34	1	0	14	0	338	6	8	6	1	36	1	10	0	0	27	1	49	3	13	13	3	5	51	0	29	29	7	1	0	0	42	1	6	0
OTU 3	16	8	18	0	48	1	2	0	0	0	9	13	0	0	0	4	0	2	7	7	29	6	15	0	0	1	0	0	0	3	20	0	23	0	47	0	0	42	1	0	10	1	0	2	0	0	36	0	1	58
OTU 4	0	6	0	0	0	0	0	0	0	0	0	0	0	0	0	0	0	0	3	0	0	0	0	0	0	0	0	0	0	0	0	0	0	0	0	0	0	0	0	0	0	0	0	0	0	0	0	0	3	0
OTU 5	680	437	546	217	54	175	797	824	599	74	20	69	218	124	0	75	18	299	966	155	356	413	337	56	390	65	1981	459	140	791	945	58	17	796	34	848	538	43	3	443	0	11	416	36	66	124	20	292	7	76
OTU 6	147	19	8	7	0	1692	32	1	0	19	43	8	40	17	0	16	11	24	40	0	36	4	1	1	1	3	7	16	14	0	677	3	82	18	14	35	41	32	0	6	4	2	14	69	0	0	0	0	10	16
OTU 7	58	32	45	28	79	50	22	56	333	28	656	47	66	138	104	17	80	19	42	117	44	43	47	19	8	9	99	253	264	22	26	63	124	102	226	554	103	19	31	143	12	48	17	15	36	17	63	144	48	13
OTU 8	14	181	1140	2012	29	22	490	38	42	3	83	2	124	137	28	46	5	106	37	83	6	12	14	151	11	33	0	27	336	7	125	11	30	5	48	54	212	44	15	117	44	84	20	66	12	27	34	63	8	42
OTU 9	11	4	11	1	13	5	48	0	2	0	0	3	25	93	1	1	0	11	5	4	21	4	0	0	0	49	1	0	24	1	11	12	72	49	0	0	0	22	1	48	4	11	9	0	920	0	7	0	0	23
OTU 10	2	5	0	5	1	7	0	9	11	0	107	12	0	0	2	0	0	5	11	0	29	28	64	0	19	0	4	0	15	0	8	10	0	15	3	0	46	22	5	0	1	0	4	71	0	0	97	0	0	9
OTU 11	1	8	0	8	5	18	17	18	22	48	10	77	16	1	111	20	15	22	12	121	20	1	17	11	1	107	8	11	102	4	8	87	80	4	133	22	175	67	19	18	6	6	21	109	12	3	68	2	28	80
OTU 12	69	34	27	22	67	115	184	19	103	66	8	152	7	45	59	5	16	47	63	1	196	82	82	3	18	21	71	4	53	97	40	72	91	68	231	14	5	0	116	28	22	5	0	90	49	4	24	12	38	3
OTU 13	0	0	0	0	0	0	1	0	7	1	1	0	0	83	0	0	0	0	7	0	0	0	0	3	2	0	0	0	0	0	0	0	5	0	0	0	0	0	0	1	11	0	0	0	0	0	1	0	0	0
OTU 14	0	7	0	7	1	74	124	0	50	6	44	3	0	0	23	0	0	56	0	0	32	6	35	3	9	18	8	0	0	122	0	18	4	49	0	0	8	1	46	6	1	0	5	5	14	0	2	0	0	0
OTU 15	0	3	0	0	0	0	61	2	0	0	0	0	0	0	14	0	0	0	0	0	42	0	0	0	0	33	0	0	0	0	0	0	1	0	0	0	0	0	0	0	0	0	0	0	0	0	0	0	0	0
OTU 16	0	0	0	0	0	0	0	0	0	0	0	0	0	0	18	0	0	32	0	0	0	0	0	0	0	0	0	0	0	0	0	0	0	0	0	0	0	46	0	0	0	0	0	5	0	0	0	0	0	1
OTU 17	0	18	8	6	16	5	9	2	1	2	2	44	90	10	15	14	10	10	18	17	8	23	1	9	0	2	0	0	18	1	23	9	29	0	417	0	0	9	4	4	17	115	2	6	4	1	55	1	0	2
OTU 18	0	5	3	20	11	8	58	1	2	6	49	85	18	4	18	4	31	181	44	46	350	30	12	2430	3	42	25	5	71	102	11	41	67	55	30	16	31	2	10	150	49	38	1	13	30	0	21	0	46	5
OTU 19	6	0	0	0	0	0	0	0	8	0	1	0	0	0	23	0	0	0	0	0	0	0	0	0	0	0	1	0	0	0	0	0	0	0	0	0	0	0	0	0	0	0	0	0	0	0	0	0	0	0
OTU 20	15	63	15	10	22	2	166	63	52	0	184	31	96	8	22	16	0	13	5	0	2	14	3	7	46	7	2	0	288	20	32	2132	114	6	55	0	142	99	107	0	2	36	1	8	5	3	3	6	5	22
OTU 21	4	2	62	19	115	599	10	241	318	26	204	109	212	197	127	72	94	5	406	50	9	1519	393	162	47	64	89	72	31	165	9	319	78	190	31	155	8	244	12	43	109	124	2	58	22	81	2	155	159	92
OTU 22	2	67	0	18	1	44	56	47	16	27	77	3	81	7	44	30	9	8	3	2534	1	0	4	0	27	24	0	17	32	31	11	15	50	1	168	53	296	0	29	94	36	49	17	353	38	3	62	0	3	8
OTU 23	25	4	18	0	32	9	7	25	36	14	19	1	2	102	25	2	10	11	6	7	2	7	19	4	8	0	9	0	160	2	5	1	31	33	31	0	9	3	14	116	0	2	21	1	0	10	5	1	2	3
OTU 24	0	5	0	3	0	0	22	2	44	1	261	26	15	5	1	0	9	46	12	0	25	1	0	59	8	39	4	0	5	4	0	1	55	5	50	0	19	0	0	49	0	0	0	7	1	0	0	0	0	0
OTU 25	0	0	0	0	0	0	0	0	0	0	0	0	0	0	0	0	0	0	0	0	0	0	0	1	0	0	0	0	0	3	0	60	0	2	0	0	0	0	3	0	0	0	3	0	0	0	0	0	0	0
OTU 26	1	0	0	0	0	0	13	0	0	0	0	0	77	19	0	0	0	0	26	0	0	6	1	75	0	0	0	0	1	1	0	0	1	0	0	2	3	0	3	0	11	0	0	1	21	0	0	6	0	0
OTU 27	4	0	0	0	0	0	0	5	0	0	0	0	0	0	0	10	0	0	2	1	1	0	0	0	0	0	4	0	0	0	0	0	0	0	0	0	2	0	0	0	0	0	0	0	0	0	0	0	0	0
OTU 28	9	96	21	1	62	58	47	35	5	22	189	30	166	19	41	15	1	47	1	1	3	12	2	36	1	16	60	0	20	28	15	39	7	17	7	1	6	2	5	12	22	21	10	6	30	3	105	39	2	27
OTU 29	147	38	61	1635	186	530	50	535	537	211	22	2	33	3	314	220	139	92	983	26	16	156	254	4	144	50	126	165	79	123	222	544	124	186	93	286	3	427	75	81	289	106	121	1	87	36	10	52	299	186
OTU 30	0	0	0	0	0	0	20	0	0	0	0	0	0	0	0	0	0	0	0	0	0	0	0	0	0	0	0	6	0	0	0	0	0	0	0	6	0	0	0	0	0	0	0	12	0	0	0	0	0	13
OTU 31	1	0	1	6	0	1	72	12	7	5	0	0	0	22	0	0	2027	0	6	30	2	0	0	3	1	12	182	0	49	0	36	0	1	0	0	1	1	1	5	6	0	0	0	117	157	0	9	0	0	12
OTU 32	26	48	8	6	22	67	11	32	15	0	30	18	3	24	21	15	4	10	2	9	118	0	72	22	9	6	1	6	101	20	1825	9	9	33	43	11	13	4	43	53	31	21	0	39	20	4388	60	3879	51	25
OTU 33	0	0	0	0	0	0	1	0	0	0	6	0	0	1	0	7	0	0	0	0	0	0	5	0	0	0	0	0	1	0	0	0	0	0	0	0	0	3	6	0	0	0	0	0	0	0	0	0	0	0
OTU 34	43	152	37	1	35	5	12	2	32	1	13	34	220	145	8	257	14	3	58	176	108	3	4	0	32	2	0	40	0	45	10	66	173	8	72	89	715	12	18	56	44	14	30	24	0	12	14	0	30	4
OTU 35	1	18	5	1	0	2	200	13	66	14	120	86	0	70	74	18	16	9	7	12	0	0	40	1	0	4	2	5	84	0	6	0	98	1	88	9	2	53	189	18	46	2	0	0	13	6	23	0	15	3
OTU 36	5	3	6	6	11	33	0	61	0	29	22	7	48	0	18	0	0	0	72	4	3	41	0	15	0	37	9	52	35	2	54	0	30	7	7	128	29	0	157	65	59	3	12	534	1	4	115	8	1	1
OTU 37	2	0	0	2	0	0	4	1	0	0	2	0	1	190	0	0	0	27	0	202	21	0	1	1	0	28	0	8	0	4	3	0	0	0	4	4	4	0	13	26	0	0	2	0	0	0	0	0	0	0
OTU 38	23	97	31	5	44	0	55	5	4	18	21	29	18	17	24	1	15	6	16	103	3	13	0	2	0	35	3	293	0	6	66	18	16	13	52	603	49	13	91	85	14	14	0	2	15	1	6	3	29	2
OTU 39	3	14	0	12	3	7	0	0	0	20	2	0	41	0	51	7	0	0	6	32	3	0	2	6	0	0	22	14	21	3	0	0	1	10	18	21	3	6	19	0	7	3	6	15	0	0	6	2	0	0
OTU 40	38	17	12	4	28	8	0	0	25	3	47	48	22	3	1	58	17	20	6	32	169	3	29	84	14	0	0	1	9	25	1	67	154	8	0	6	2	85	18	54	70	1	54	142	0	14	85	38	33	18
OTU 41	1	89	1	5	0	2	0	51	108	15	5	34	3	72	2	15	1	15	128	65	55	0	0	0	0	51	2	8	69	17	18	31	0	3	206	23	33	40	87	32	0	2	7	11	0	0	42	2	25	57
OTU 42	0	1	33	29	38	0	1	0	14	39	4	45	60	32	41	0	1	1	0	20	0	0	0	2	4	4	0	0	1	76	0	1	5	21	0	0	0	1	5	0	0	39	0	11	110	0	18	0	78	0
OTU 43	0	0	0	0	0	0	0	0	0	0	0	0	1	0	0	0	0	0	0	0	39	0	0	0	0	0	0	0	0	0	0	0	0	0	0	0	0	0	0	0	0	0	0	0	0	0	0	0	0	0
OTU 44	2	0	0	0	0	0	1	0	25	0	68	1	14	0	13	1	0	22	0	64	0	0	0	4	1	25	3	0	20	17	0	0	0	12	0	0	0	0	0	19	0	1	2	11	0	0	0	18	0	3
OTU 45	7	143	3	18	4	5	1	14	81	15	93	32	19	91	9	146	41	0	180	21	4	332	1633	24	288	2	0	0	0	736	62	0	1	7	94	0	49	7	4	18	40	20	31	0	12	5	11	2	107	0
OTU 46	33	5	4	6	4	8	111	14	16	13	77	17	2	39	5	19	9	12	89	5	167	4	6	31	7	38	4	17	662	7	569	11	9	26	2	28	24	63	51	27	3	3	1	177	56	13	3	4	12	16
OTU 47	0	0	2	1	9	0	34	0	0	0	30	0	0	0	0	0	17	2	0	1	13	0	0	4	0	6	2	4	0	8	0	2	0	0	0	5	7	0	0	0	7	5	0	1	8	0	1	7	22	3
OTU 48	6	30	11	14	46	31	90	4	16	1	1	11	2	47	7	11	40	30	4	4	234	14	47	220	15	25	22	36	30	5	0	6	15	22	75	67	5	33	17	15	15	60	0	22	40	2	44	18	93	37
OTU 49	0	9	30	2	55	35	18	2	1	2	5	11	23	9	0	1	13	0	99	0	31	2	7	1	3	5	4	3713	38	10	71	3	61	9	7	26	27	27	33	0	10	31	1	2	2	4	43	0	41	0
OTU 50	20	50	0	10	2	3	20	14	90	20	23	86	10	78	24	36	2	55	53	1	59	17	23	152	8	55	0	15	5	3	16	880	20	0	266	38	14	46	2	114	46	4	7	3	2	15	11	1	1	21
OTU 51	34	0	8	0	20	82	5	78	1	0	0	106	36	0	10	26	22	1	39	7	0	0	1	11	2	23	0	1	18	0	17	21	0	1	0	3	29	2	0	4	5	12	3	21	0	19	9	15	0	5
OTU 52	67	57	50	80	27	8	67	10	66	7	102	2	48	208	22	50	28	75	34	393	5	27	110	21	21	140	66	42	24	16	9	266	66	29	37	77	87	62	198	5	31	13	4	107	91	0	14	2	36	20
OTU 53	0	0	0	0	0	0	0	0	0	0	0	0	4	2	0	11	0	0	0	0	0	0	0	0	0	0	0	0	0	0	0	0	0	0	0	0	0	0	0	1	0	1	11	0	7	0	0	0	0	10
OTU 54	19	4	7	15	31	77	16	23	5	0	16	126	8	118	8	57	88	58	51	66	1017	270	344	13	129	2	19	19	71	265	37	3	146	1	0	33	69	12	90	23	77	2	54	31	11	7	15	18	93	15
OTU 55	0	0	0	0	0	0	0	0	0	0	0	0	0	0	0	0	0	0	0	0	0	0	0	0	0	0	0	0	0	0	0	0	0	0	0	0	0	0	0	0	0	0	0	0	0	0	1	0	0	0
OTU 56	9	0	0	0	1	7	1	0	17	1	0	75	22	0	0	4	9	0	0	10	9	4	38	0	0	38	26	0	7	0	1	0	14	26	8	0	16	0	0	4	26	3	8	0	25	0	9	0	19	3
OTU 57	49	436	28	9	81	5	51	171	47	20	22	40	11	375	105	86	23	258	194	169	6	32	129	17	28	29	54	219	102	41	43	41	58	80	74	144	35	29	96	962	2	99	13	94	1316	32	77	9	65	2
OTU 58	1	1	5	27	0	10	27	2	1	51	12	74	1	31	28	0	0	10	43	1	48	5	11	9	0	0	0	1	2	2	3	3	6	22	11	4	27	25	47	87	3	5	4	0	0	6	19	4	0	47
OTU 59	0	19	11	2	21	0	0	6	51	6	0	0	2	26	7	0	4	30	8	32	0	0	15	9	1	0	0	20	1	0	0	8	21	3	49	33	75	0	55	78	11	0	0	4	0	2	0	1	2	0
OTU 60	48	77	17	7	11	6	209	2	102	31	58	12	27	26	34	16	4	9	43	14	133	2112	60	14	62	32	5	3	50	9	28	13	4	36	9	3	118	8	1	62	83	8	41	61	83	10	56	9	20	23
OTU 61	271	107	33	49	26	62	10	171	88	39	50	40	101	21	37	346	12	99	713	10	182	8	16	71	36	151	2055	14	12	61	224	41	40	4088	20	23	40	86	44	373	10	9	257	137	578	1003	68	1692	19	232
OTU 62	18	1	0	0	0	2	0	0	2	21	11	15	0	48	0	0	10	0	0	0	7	6	1	38	0	0	12	0	0	0	0	27	4	0	18	0	0	6	4	4	0	8	0	14	0	15	33	0	0	0
OTU 63	16	0	10	0	38	48	1	30	0	7	56	1	2	37	9	3	7	17	10	3	8	11	1	3	34	11	0	1	4	0	0	0	45	0	43	1	5	0	4	31	0	31	0	12	4	4	31	24	18	1
OTU 64	58	59	6	24	14	57	0	17	104	68	66	45	37	75	2	37	61	28	42	114	79	46	39	105	109	6	4	602	21	8	13	8	175	21	69	113	23	44	79	20	2	47	29	150	5	1	4	1	90	7
OTU 65	1	0	0	11	5	0	0	0	0	0	0	0	0	13	0	8	0	0	0	0	0	0	0	6	0	0	0	0	0	5	0	0	0	0	0	0	0	0	0	0	0	0	12	0	0	0	0	0	0	0
OTU 66	1	88	1	3	6	4	87	6	100	5	23	99	38	41	0	66	4	11	161	5	0	2	18	7	24	19	11	24	49	27	101	1082	6	0	230	78	23	14	4	8	3	8	20	15	5	10	19	9	3	1
OTU 67	0	35	456	6	835	38	33	18	21	3	6	42	0	3	0	0	3	50	0	5	1	0	21	0	4	8	28	11	218	33	26	3	97	35	20	14	5	22	0	0	0	0	7	16	52	5	31	3	8	7
OTU 68	1	3	2	5	0	4	4	5	0	2	0	12	21	13	0	8	9	0	1	7	5	0	1	0	0	59	0	0	0	0	0	18	0	13	6	0	42	8	7	34	13	0	0	0	0	14	30	8	3	6
OTU 69	0	0	55	7	89	19	18	61	5	16	26	75	13	22	27	76	9	10	29	22	4	15	4	258	6	5	5	19	25	1	9	5	35	0	20	33	3	23	7	30	6	3	5	62	64	2	1	7	2	7
OTU 70	10	12	7	7	4	18	24	8	0	5	75	29	84	7	61	0	9	2	0	0	3	0	13	1	1	2	20	0	2	0	55	1	1	36	43	0	0	0	1	73	3	8	0	46	9	0	29	20	3	13
OTU 71	81	0	1143	4	2418	0	19	3	9	4	66	2	16	34	0	0	0	693	5	3	18	4	22	27	10	5	0	39	63	1	0	7	0	5	65	72	1	28	0	94	11	19	1	40	66	0	0	0	0	9
OTU 72	9	4	0	5	2	12	21	5	0	18	18	34	189	1	69	12	1	200	13	16	8	11	27	11	30	17	6	1	37	0	88	0	31	41	31	5	0	4	1	7	42	0	9	108	59	21	13	34	7	0
OTU 73	5	15	6	5	43	10	3	26	120	30	2	3	9	70	1	6	1	37	10	48	181	6	24	10	3	37	22	524	80	12	24	20	2	39	61	3	41	8	53	4	2	6	9	1	2	0	44	12	0	16
OTU 74	4	0	14	1	25	24	171	1	4	1	1	139	0	384	0	28	81	26	30	151	9	53	46	10	2	83	0	8	55	0	17	38	135	12	108	16	365	10	58	83	53	32	38	168	24	1	3	0	117	27
OTU 75	458	168	0	10	6	98	20	35	45	95	4	75	223	131	65	83	4	132	1	2	541	1	9	8	8	602	27	5	14	1	15	8	116	32	262	10	97	73	19	16	143	518	7	49	58	17	76	11	36	15
OTU 76	0	3	7	17	12	1	52	6	0	1	76	0	6	0	8	0	0	64	3	2	0	3	0	16	9	3	1	8	74	18	5	4	3	0	268	18	7	0	0	294	0	3	0	0	6	0	1	8	0	0
OTU 77	1	4	4	4	16	67	10	2	95	0	39	28	42	4	2	2	6	9	15	41	28	13	80	0	0	31	7	13	97	59	11	0	5	9	38	27	72	76	13	30	0	62	16	16	49	17	22	4	23	32
OTU 78	38	21	1	20	8	95	1	0	2200	64	0	2	43	86	173	0	25	15	11	3	4	35	16	18	0	145	515	77	58	0	24	0	74	1025	8	151	22	30	7	10	125	16	6	51	11	287	116	504	31	7
OTU 79	18	83	32	49	75	68	50	20	16	91	122	106	57	215	44	19	7	55	32	57	260	92	136	200	37	199	9	58	6	1289	75	110	236	18	217	111	195	74	61	158	16	11	18	140	11	25	156	31	11	1628
OTU 80	3	8	15	420	37	15	121	29	37	842	6	8	8	24	2015	6	5	89	87	151	29	18	1	61	19	9	85	74	13	43	48	14	16	88	7	135	31	6	19	31	17	12	8	83	0	8	58	8	13	4
OTU 81	399	145	7	7	34	32	457	7	96	75	66	41	16	6	52	432	12	8	32	24	58	4	25	105	78	9	13	55	27	20	21	19	32	5	18	108	69	51	130	31	24	4	301	108	14	19	31	41	34	41
OTU 82	0	117	0	9	4	2	82	0	2	84	1	249	11	30	51	22	12	0	3	4	33	0	3	73	13	34	2	3	34	63	0	1	34	4	49	12	0	12	0	128	5	6	17	1	14	0	13	6	5	2
OTU 83	0	4	0	9	0	0	0	1	15	19	0	23	0	0	48	0	0	0	1	123	29	0	10	7	0	41	0	0	0	0	0	3	16	0	0	1	9	68	0	0	46	4	0	98	1	1	0	6	0	62
OTU 84	26	0	32	0	25	13	192	22	7	56	35	6	6	1	21	41	21	17	9	6	0	6	19	26	9	8	74	7	98	1	4	10	19	36	185	10	7	1	23	7	94	44	15	59	0	39	2	88	19	5
OTU 85	10	5	0	31	0	21	6	18	0	34	14	22	20	2	29	0	0	39	56	54	35	34	51	1	0	19	2	0	0	1	16	3	0	1	0	0	0	49	29	47	0	0	14	0	1	1	14	31	0	79
OTU 86	0	0	0	10	0	0	1	2	61	3	0	0	0	0	0	0	0	0	0	0	0	0	0	0	0	0	0	0	1	0	0	3	0	9	0	0	0	55	0	0	0	0	0	47	0	0	17	0	0	13
OTU 87	2	0	0	0	0	4	1	0	0	1	47	0	83	119	0	1	14	0	0	29	1	0	0	0	0	0	0	4	0	0	24	0	25	0	4	4	0	0	0	72	4	0	1	0	0	12	0	35	10	0
OTU 88	4	86	1	0	3	0	0	0	1	0	0	34	20	8	0	65	0	17	1	0	0	0	0	0	12	0	0	6	41	0	0	0	0	0	1	11	26	9	0	0	0	4	53	0	0	1	0	0	0	0
OTU 89	16	0	84	0	0	0	73	1	1	0	6	1	6	41	21	0	0	3	14	78	8	0	0	0	26	0	9	0	77	0	16	0	0	0	0	0	0	35	0	72	2	1	25	0	488	3	0	3	0	31
OTU 90	0	0	0	9	2	56	34	0	0	0	0	0	11	42	0	1	0	7	0	20	12	0	0	1	0	4	0	0	23	4	15	0	0	3	38	0	39	1	1	5	0	7	0	14	1	4	0	7	0	1
OTU 91	0	9	0	0	0	44	0	26	0	0	0	0	0	0	0	0	0	16	0	0	0	0	0	0	7	0	0	0	1	0	0	0	129	0	29	0	0	0	2	0	0	0	0	0	19	18	0	22	0	0
OTU 92	10	0	0	0	0	0	4	1	0	30	0	0	23	4	37	4	1	0	0	12	0	3	30	0	1	6	5	0	37	20	18	0	0	7	42	0	115	38	5	1	13	10	0	0	23	0	48	0	0	40
OTU 93	0	3	0	0	0	17	70	0	6	10	0	0	5	7	0	17	0	0	0	0	0	4	0	0	0	0	0	19	4	7	15	0	0	0	0	38	0	2	0	1	0	0	0	9	0	0	0	0	0	0
OTU 94	20	47	83	54	165	307	79	79	161	85	35	3	150	6	262	8	48	27	103	27	10	86	154	85	19	211	65	55	6	76	57	143	440	168	78	119	176	187	279	155	158	110	1	93	49	53	19	50	115	60
OTU 95	0	17	1	0	2	0	10	14	0	0	2	8	3	1	10	0	0	3	1	21	2	10	5	29	2	19	1	0	2	6	21	45	56	0	0	0	0	1	0	0	0	8	0	0	0	0	0	11	0	10
OTU 96	45	0	0	0	0	0	0	0	0	0	0	0	0	0	0	1	0	0	0	0	0	0	0	0	0	0	0	0	0	0	0	0	1	0	0	0	0	2	0	0	0	22	0	53	0	0	0	0	0	0
OTU 97	0	0	0	0	0	0	0	2	0	0	2	0	0	0	0	1	0	0	0	0	0	0	0	3	2	4	0	0	0	0	0	0	15	1	1	0	1	0	0	0	0	0	0	17	0	0	0	9	0	0
OTU 98	0	1	1	36	20	1	0	6	0	3	0	0	349	16	1	18	69	6	0	0	0	7	0	13	0	11	0	21	14	6	21	23	0	2	0	37	507	3	32	0	4	0	11	66	14	1	0	15	110	7
OTU 99	1879	9	1	9	16	38	9	9	13	0	94	15	165	16	8	18	7	11	2	17	277	53	17	64	34	12	13	18	8	23	5	16	106	20	395	35	84	79	176	0	3	11	8	96	6	1	55	15	29	54
OTU 100	57	19	2995	14	1	19	10	2	144	7	9	17	122	38	22	37	7	5	31	0	50	0	31	44	2	0	24	8	51	13	0	61	44	87	6	7	56	3	3	54	1	1	9	20	205	28	8	43	15	11
OTU 101	0	0	0	0	0	2	31	0	0	0	0	24	0	0	0	0	0	0	2	0	0	4	0	0	9	1	0	0	0	0	0	30	0	0	127	0	7	0	3	0	0	0	0	8	3	0	0	2	0	0
OTU 102	13	0	0	4	0	2	30	1	4	0	6	35	14	21	4	0	9	0	0	4	4	1	5	2	13	6	1	0	1	1	0	0	1	4	2	0	62	21	0	5	0	0	2	1	0	19	8	23	0	0
OTU 103	0	0	3	7	0	6	65	3	32	7	107	9	11	0	0	0	7	43	8	0	53	5	7	0	0	1	7	0	0	20	1	8	19	5	6	0	14	6	85	15	99	0	1	29	0	6	32	10	0	7
OTU 104	98	25	0	12	6	41	117	1	2	3	5	14	22	63	0	34	5	105	14	159	44	13	2	25	18	59	42	0	30	32	26	25	153	33	28	1	82	3	56	27	26	40	28	31	0	1	33	4	1	10
OTU 105	29	0	0	0	1	3	13	0	0	4	10	1	11	0	0	13	2	0	0	1	0	0	0	0	0	14	1	0	4	8	25	0	7	0	0	0	0	0	0	119	5	5	0	48	2	0	4	0	0	0
OTU 106	21	2	2	8	12	0	47	0	0	11	2	11	0	47	0	0	0	135	0	31	0	9	21	3	1	0	1	7	0	0	0	4	4	0	0	19	0	0	236	0	32	0	0	8	3	0	98	0	12	2
OTU 107	6	3348	0	0	0	27	1	0	1	2	4	3	21	42	4	28	0	17	0	1	0	0	1	2	0	0	0	0	0	1	6	0	3	3	0	1	12	35	2	150	5	14	22	0	0	0	3	0	4	7
OTU 108	0	75	5	13	19	135	2	12	0	31	0	13	3	49	71	0	0	2	0	30	12	17	8	42	0	23	10	0	78	12	1	0	42	10	1	0	5	20	0	22	0	0	5	9	3	1	6	3	4	5
OTU 109	0	0	0	0	0	1	0	0	0	0	0	0	0	5	0	0	0	0	0	0	3	0	0	0	0	0	0	0	0	0	0	0	0	0	4	0	0	0	0	0	0	0	0	0	0	0	0	0	0	0
OTU 110	21	98	61	5	117	12	49	5	34	0	7	17	1	13	3	2	24	41	7	12	11	9	0	3	8	3	0	10	13	14	178	16	8	0	0	29	32	20	114	127	20	47	1	17	29	2	27	6	52	30
OTU 111	1	4	0	0	0	0	0	0	0	9	0	0	7	0	0	1	0	9	0	0	0	1	0	0	0	0	10	0	0	1	0	0	1	0	2	0	0	10	0	0	0	0	6	0	0	0	4	0	0	0
OTU 112	0	1	4	4	0	79	5	0	6	0	0	4	78	17	47	6	1	5	1	0	169	1	0	4	19	13	3	13	4	2	7	2	7	2	5	21	0	183	2	5	8	0	0	5	97	1	4	4	0	8
OTU 113	0	0	0	7	0	7	2	0	0	0	0	6	0	0	3	0	0	1	0	0	34	1	0	0	0	0	0	39	0	28	0	18	0	0	0	58	4	1	16	0	0	5	0	0	0	0	0	0	0	0
OTU 114	6	4	42	54	68	29	42	25	141	33	69	63	69	79	76	1	12	44	61	69	25	0	221	181	13	79	750	41	0	30	165	47	7	0	108	78	20	62	29	83	71	60	2	403	180	3	37	1	20	67
OTU 115	45	21	19	8	39	85	32	5	10	88	70	131	5	346	67	29	6	895	20	816	28	36	57	11	40	15	0	29	4	31	18	38	116	37	46	40	14	90	2172	13	41	28	7	38	32	187	1217	415	0	56
OTU 116	5	720	15	8	31	29	225	0	8	2	89	4	10	108	4	64	1	0	144	18	184	15	31	23	1	19	0	3	55	13	5	9	25	10	20	6	92	29	9	1253	3	1	8	35	12	0	10	1	1	0
OTU 117	3	76	21	6	46	34	6	231	169	20	6	15	27	6	13	0	2266	68	700	71	43	27	140	15	19	0	7	33	3	69	576	93	38	1	1	72	4	6	4	95	77	16	27	49	31	0	20	2	4841	1
OTU 118	0	18	5	26	16	0	3	6	0	8	0	0	29	1	5	4	0	1	0	13	3	0	6	0	0	3	5	0	0	0	8	8	0	0	0	0	1	24	7	0	0	0	0	0	0	0	47	5	6	1
OTU 119	18	13	12	27	3	74	26	930	86	29	214	5	46	109	3	1	10	15	6	47	46	3	32	158	1	87	13	5	35	85	13	96	132	6	28	5	76	0	44	51	19	0	5	72	26	11	31	9	6	14
OTU 120	7	5	1	0	0	5	54	0	1	0	8	25	8	6	3	0	5	2	1	2	18	0	6	0	20	20	0	7	1	0	0	3	12	0	3	6	0	102	1	0	48	0	0	136	39	1	0	0	29	18
OTU 121	14	4	0	5	3	30	0	55	21	30	33	0	4	6	34	26	4	1	21	0	29	9	15	7	4	112	2	8	0	43	6	51	107	0	35	21	26	11	22	114	96	73	4292	19	47	29	35	35	9	11
OTU 122	4	2	490	33	1057	72	105	23	1	141	14	147	197	324	0	11	3285	28	15	199	2	14	26	0	8	3	50	67	6	0	0	10	151	24	13	113	19	6	8	6	4	1487	4	30	46	1	9	0	1298	3
OTU 123	20	101	24	21	43	49	30	31	70	42	73	77	123	395	59	106	58	209	146	64	56	45	205	84	6	136	11	15	192	39	95	62	132	54	181	27	198	200	186	129	80	119	45	457	139	27	154	56	97	49
OTU 124	542	34	2	1	5	11	1	4	0	0	8	0	5	3	0	834	4	1	0	5	0	3	9	0	0	6	0	0	0	0	1	1	25	4	0	0	1	0	0	29	1	0	416	0	4	2	0	0	0	1
OTU 125	383	98	13	57	41	81	390	39	137	84	8	12	30	134	59	125	32	260	73	115	217	300	1562	117	407	165	1723	22	241	1102	64	48	166	153	74	54	37	195	159	73	27	61	43	100	90	79	176	174	69	131
OTU 126	0	0	0	25	3	105	0	0	0	0	0	0	0	0	0	14	6	0	2	2	1	3	1	0	0	0	3	2	0	0	0	0	0	0	30	3	0	15	0	0	0	0	0	0	0	0	0	0	30	4
OTU 127	56	0	0	16	0	64	0	13	41	0	8	1	35	70	1	0	13	32	0	0	38	3	109	414	0	1	3	7	2472	51	77	14	53	45	0	8	0	0	0	60	52	15	0	1	27	0	18	6	27	2
OTU 128	11	68	95	28	251	177	263	82	77	25	120	109	81	215	69	84	79	303	199	56	75	372	105	107	20	27	42	75	120	98	95	65	501	95	407	161	129	353	240	57	123	71	41	347	103	1832	131	93	22	1093
OTU 129	1	0	0	0	3	0	0	0	0	0	1	7	0	0	0	22	0	0	0	0	7	0	59	3	0	0	0	0	4	55	1	22	1	1	0	0	0	0	0	0	0	0	4	25	5	0	0	0	8	0
OTU 130	74	9	0	2	2	272	6	14	35	2	111	24	13	79	4	34	8	0	1	160	48	29	32	6	16	10	5	786	8	2	14	9	39	2	240	1526	13	11	32	1	0	7	26	0	8	2	8	3	18	20
OTU 131	1	0	6	461	4	20	42	20	7	2	17	8	0	1	2	3	0	134	87	2	45	36	0	8	0	7	1	8	6	17	0	0	79	10	23	12	113	64	36	30	65	1	43	0	69	2	116	5	2	27
OTU 132	916	0	4	12	4	11	7	3	0	4	8	5	2	72	0	103	64	12	2	1	1	10	43	4	12	12	2	1	21	33	0	31	1	9	2	4	11	67	9	0	5	0	3	0	1	2	4	0	56	10
OTU 133	3	0	1	2	18	0	0	0	0	3	0	0	0	85	0	0	1	2	0	46	20	2	2	6	0	0	1	0	39	0	0	1	7	0	0	0	0	0	0	1	0	0	0	20	45	0	0	3	3	0
OTU 134	49	5	0	4	4	22	133	11	0	12	201	19	89	56	27	0	1	58	4	0	122	33	5	5	0	11	13	12	17	0	336	18	2	0	65	23	133	1	13	0	19	4	4	42	59	17	87	2	19	3
OTU 135	12	19	436	21	15	56	62	192	82	86	97	5	3100	7	69	46	70	24	90	6	74	73	166	6	40	60	23	45	0	78	104	146	5	60	0	92	3	290	3	5	98	25	37	1	138	62	0	119	117	198
OTU 136	52	57	0	19	3	9	34	2	10	181	52	0	5	3	73	20	6	17	2	3	0	4	18	6	37	45	10	11	4	1	3	2	0	27	13	20	35	44	2	8	178	2	2	18	20	15	8	65	0	21
OTU 137	22	1	0	0	8	0	2	1	0	9	0	0	6	0	9	7	0	2	23	27	7	0	35	2	0	2	0	0	0	0	3	7	59	0	21	0	132	22	0	19	0	0	0	0	0	1	12	0	0	10
OTU 138	0	0	0	5	0	0	7	77	0	11	42	0	0	2	0	57	2	35	1	49	2	7	0	13	7	0	0	2	15	8	47	2	2	0	8	1	0	0	269	0	7	0	4	0	0	0	73	0	0	3
OTU 139	86	43	422	5	990	14	25	9	74	17	86	106	251	52	23	16	22	88	12	47	135	2	27	1621	29	1	49	7	29	10	74	88	49	89	71	13	77	10	154	43	130	511	9	281	37	18	60	38	40	10
OTU 140	17	51	39	77	101	67	708	20	52	182	64	158	381	52	4	113	27	125	47	135	501	17	101	34	10	25	6	25	44	52	71	26	1314	38	335	44	196	1	207	39	34	11	60	130	113	37	44	7	73	19
OTU 141	0	0	0	0	0	0	0	0	0	0	0	0	0	47	0	0	0	0	0	0	102	0	0	1	0	0	0	0	0	0	0	0	0	0	26	0	0	0	0	0	7	0	0	14	0	0	0	0	0	0
OTU 142	0	0	0	0	0	15	0	0	0	0	0	0	0	15	0	0	0	0	0	0	5	0	0	0	0	0	0	0	0	0	1	1	0	17	0	0	0	3	5	0	5	3	0	0	0	3	0	0	0	3
OTU 143	0	3	232	0	428	0	0	0	1	0	62	29	1	0	0	0	0	19	3	0	5	3	0	0	0	50	0	5	68	8	5	0	0	8	62	17	0	94	0	87	28	355	0	0	2	20	5	10	4	18
OTU 144	4	0	0	0	0	4	84	0	4	2	5	16	26	1	0	2	0	7	0	28	0	0	1	0	0	1	0	17	3	1	9	0	8	0	0	40	95	0	0	0	0	7	0	0	0	5	0	0	0	0
OTU 145	36	90	12	5	49	76	90	2	74	3	40	1	1	342	8	11	0	37	12	229	42	13	7	25	52	46	420	19	6	5	3	70	38	18	34	41	5	52	135	71	41	364	1	70	73	17	35	15	15	34
OTU 146	0	15	5	2	7	68	63	3	27	0	2	143	1	167	6	67	0	3	0	123	62	6	9	30	0	1	8	0	0	55	30	5	2	17	3	0	177	1	7	1	32	3112	43	2	2	17	25	31	0	5
OTU 147	0	0	0	11	1	0	1	0	3	0	9	1	0	0	0	3	1	2	18	0	0	0	53	1	23	15	4	90	26	34	0	55	269	46	1	162	34	30	0	30	0	0	5	0	0	7	5	28	0	1
OTU 148	84	19	0	31	4	5	128	6	0	2	43	12	20	199	1	57	0	70	76	93	51	12	30	0	6	4	1	10	1	7	20	4	123	0	73	17	11	0	1	10	5	0	21	58	46	15	0	0	1	8
OTU 149	0	5	8	0	33	0	0	899	53	0	64	17	0	13	0	18	0	0	0	33	38	18	3	0	8	18	0	2	52	20	7	0	14	2	1	3	1	7	0	30	0	42	1	11	0	0	31	0	0	11
OTU 150	3	30	2	0	0	0	0	10	0	0	1	55	1	3	0	14	0	2	2	2	1	1	4	14	0	0	0	0	1	0	0	2	0	0	0	0	0	1	1	8	50	1	7	6	0	0	6	0	0	0
OTU 151	74	28	0	24	0	64	49	0	3	0	72	16	0	23	6	175	0	0	74	6	5	18	58	0	48	6	8	5	0	0	173	0	63	2	4	20	23	15	9	33	1	12	61	2	66	2	61	12	1	0
OTU 152	17	16	0	0	4	22	1	5	264	13	0	47	126	36	66	45	1	1945	54	32	9	7	159	71	74	17	35	18	343	23	76	139	3	42	32	30	21	4	4	2	5	54	51	152	23	7	81	21	5	11
OTU 153	0	9	0	6	0	2	0	0	1	1	25	6	0	0	0	0	0	0	2	0	0	0	0	1	0	0	3	0	2	0	0	0	0	1	3	0	0	0	0	13	0	0	1	0	0	0	0	0	0	0
OTU 154	0	0	3	6	4	0	0	0	0	0	1	0	0	0	21	42	0	1	2	0	0	0	26	1	0	0	1	13	2	0	1	4	0	0	1	24	2	1	0	0	0	0	2	77	0	0	0	0	0	0
OTU 155	32	65	0	1	7	22	0	5	74	1	0	6	0	13	1	4	8	56	4	22	121	0	56	0	1	3	0	0	25	21	3	37	0	3	34	0	0	1	2	9	0	20	2	3	0	3	0	10	0	5
OTU 156	1340	72	29	34	14	52	2	2095	65	57	86	22	37	138	37	3643	1	13	14	78	79	60	79	76	40	91	32	8	44	3	10	18	60	65	248	15	50	56	30	108	12	197	1722	25	75	22	27	42	5	9
OTU 157	0	0	0	0	0	694	0	12	0	0	5	13	0	3	1	59	1	2	5	0	12	0	2	0	2	6	0	0	0	7	3	3	0	0	144	0	0	0	40	16	188	1	1	19	92	10	7	14	0	1912
OTU 158	2	0	0	0	0	0	14	0	0	0	0	0	0	265	0	1	0	0	0	0	0	0	0	0	0	0	2	0	0	0	5	0	37	3	0	0	2	0	1	0	11	0	0	0	5	0	0	0	0	0
OTU 159	0	35	0	3	0	1	50	29	18	18	11	11	24	57	46	0	0	99	5	88	51	0	14	13	7	7	7	20	19	0	2	11	5	8	26	45	50	45	157	58	47	33	11	40	4	0	142	0	1	11
OTU 160	45	286	40	10	51	140	198	53	5	91	52	52	186	105	14	41	34	657	84	49	19	10	14	59	18	15	38	11	229	44	57	19	83	36	2	28	993	5	1323	609	49	21	14	37	1	9	475	6	14	15
OTU 161	1	13	6	316	1	58	21	4	73	762	61	58	120	249	1610	0	0	36	6	43	70	0	26	125	4	1283	0	481	143	439	9	27	4	17	22	952	13	3059	1	45	1848	2	321	2	14	2	2340	7	0	1610
OTU 162	25	2	0	3	12	112	302	67	28	47	24	31	0	9	12	10	1	33	54	2	14	16	14	74	13	47	47	6	33	9	134	40	18	117	35	16	79	182	176	49	96	10	21	11	1679	7	132	12	0	77
OTU 163	0	0	0	0	0	0	62	0	0	8	0	0	5	0	0	0	0	1	0	0	0	0	0	0	0	58	0	0	0	10	0	0	0	0	0	0	10	2	0	0	0	7	0	0	0	0	0	0	0	0
OTU 164	0	0	0	0	0	1	0	0	0	0	0	6	0	0	0	1	0	0	0	0	0	0	4	0	0	0	0	0	45	1	0	0	23	0	0	0	0	0	0	1	1	0	0	0	0	0	44	1	0	0
OTU 165	2	0	7	0	16	46	65	5	1	7	58	0	3	26	0	5	3	3	11	33	42	0	2	7	6	5	0	0	4	0	8	0	37	0	33	4	0	3	0	34	0	23	10	0	44	0	16	0	12	3
OTU 166	0	0	0	0	0	0	0	0	0	2	0	20	0	0	0	0	0	0	0	3	0	0	0	0	3	0	0	4	0	2	0	0	0	0	0	3	0	5	0	0	0	0	0	15	0	0	0	0	0	0
OTU 167	1	21	3	9	14	119	12	9	3	0	34	1052	0	61	6	1	4	28	1	35	0	10	0	0	0	1	0	0	0	1248	32	0	0	7	25	0	25	5	8	2	0	14	11	2	0	9	15	22	1	0
OTU 168	1	99	0	1	0	101	0	0	9	18	40	1	227	120	3	35	11	1	3	111	19	37	20	43	6	33	17	13	26	17	44	59	0	20	1	24	12	3	86	0	14	19	12	135	17	11	9	39	9	8
OTU 169	0	0	0	0	0	0	28	0	0	0	2507	0	0	0	0	8	0	0	10	44	36	0	0	0	0	0	0	0	29	0	43	0	0	0	1	0	0	0	190	0	0	0	3	0	0	29	12	17	0	0
OTU 170	0	0	0	0	0	1	0	0	0	0	0	0	0	14	6	0	0	0	0	0	15	0	0	0	0	0	0	0	0	0	0	0	0	23	1	0	26	0	0	0	0	0	0	0	0	6	0	7	0	4
OTU 171	0	18	45	3	73	0	0	21	59	57	12	241	21	59	71	8	33	13	26	74	9	6	204	0	36	69	7	0	45	24	36	40	7	28	80	0	106	26	12	127	1655	23	7	7	51	26	0	126	50	4
OTU 172	8	0	0	0	0	0	0	1	0	0	7	0	1	1	0	0	0	0	0	0	2	2	8	0	0	0	10	0	0	1	6	7	0	1	0	0	0	16	0	0	4	16	0	0	0	12	0	0	0	0
OTU 173	0	56	0	8	1	4	0	17	0	0	155	0	3	0	0	0	4	0	4	23	25	0	0	0	0	0	3	0	0	5	28	6	40	1	0	0	3	0	6	0	4	2	0	43	1	0	5	7	1	3
OTU 174	24	0	1	43	2	26	13	79	0	26	0	6	40	1	3	34	0	0	82	1	4	17	0	11	0	6	6	7	0	1	15	3	0	11	23	12	0	50	0	21	13	1	10	31	1	0	41	13	2	28
OTU 175	0	11	5	8	4	4	10	0	34	6	1	0	0	0	0	31	16	0	0	0	1	42	84	1	17	14	20	7	4	17	78	45	18	0	11	15	1	0	12	160	0	0	0	9	2	0	0	5	22	3
OTU 176	12	5	22	12	17	2	68	7	16	1	19	0	18	104	18	2	41	75	8	43	109	6	2	73	4242	17	1	26	41	7	41	35	19	43	55	63	5	13	1	34	8	57	1	6	3	573	34	6	38	13
OTU 177	74	14	16	4	44	58	85	56	142	16	185	1	36	13	1	49	9	14	4	107	1	3	0	45	8	15	0	2	12	5	5	5	0	25	27	4	56	150	7	0	45	64	40	11	60	3	60	3	14	34
OTU 178	0	112	2	47	0	0	107	3	9	5	5	10	0	0	59	1	3	7	122	0	20	2	0	1	0	4	0	0	51	9	2	1	87	0	1	2	46	28	12	0	15	1	2	73	0	17	6	55	2	9
OTU 179	9	0	2	3	16	5	0	3	1	0	0	32	8	27	77	5	27	7	5	5	0	2	3	3	0	0	7	3	2	0	48	0	197	3	4	13	21	3	17	0	29	9	0	17	1	8	5	52	37	37
OTU 180	129	192	15	2157	66	131	128	38	86	4087	117	48	68	45	14	38	74	27	85	13	368	2244	117	789	2157	31	16	57	19	84	30	43	32	13	65	143	30	49	94	25	28	116	6	68	58	2	40	7	80	12
OTU 181	6	0	2	2	1	12	13	9	1	0	4	10	16	0	2	30	2	47	14	37	31	8	41	1	2	6	0	0	27	8	75	0	0	1	85	0	7	15	2	110	19	6	26	31	5	12	0	6	12	0
OTU 182	1	0	10	0	12	34	69	0	1	2	0	0	0	0	0	0	0	0	0	0	0	0	2	0	0	0	0	0	0	0	0	0	0	0	0	0	0	0	0	0	0	0	0	0	10	0	4	0	0	0
OTU 183	0	0	67	2	82	2	50	16	5	21	8	564	8	63	5	0	1	139	34	20	16	60	0	20	7	21	0	19	1	13	36	0	43	17	32	29	0	10	88	20	2	4	0	14	15	16	891	34	3	3
OTU 184	80	19	7	0	8	2	223	222	0	2	3	1	0	25	0	0	6	1	233	1	35	1	1	22	1	4	4	0	23	0	61	0	0	0	0	0	1	9	0	4	5	0	8	0	38	3	0	20	24	1
OTU 185	1	12	17	1	16	42	32	18	36	4	39	33	44	6	20	59	116	107	12	6	95	17	12	21	4	13	102	3	464	3	3	5	55	76	75	7	28	11	6	16	7	71	50	26	1	2	74	1	35	12
OTU 186	0	43	1	0	17	5	27	0	108	0	38	2812	5	8	72	0	0	1	0	22	6	4	0	1	3	15	1	1	17	1	8	40	13	10	190	1	38	0	49	27	0	5	0	130	0	0	89	4	0	0
OTU 187	41	35	29	16	72	22	8	33	15	31	194	76	38	41	21	41	21	5	70	63	371	13	17	205	123	18	0	13	20	61	51	40	222	1	30	26	195	33	10	53	9	22	5	8	47	6	16	6	31	32
OTU 188	38	8	174	189	326	485	210	390	344	72	4	45	37	192	288	178	98	137	850	113	113	135	524	15	107	350	80	274	210	770	141	608	73	236	27	534	176	569	147	42	391	114	77	47	359	90	80	199	191	252
OTU 189	3	19	12	6	35	13	10	127	40	1	4	177	38	18	61	67	27	9	236	66	3	18	91	65	25	19	21	14	107	14	115	103	18	66	285	20	52	45	10	39	38	14	70	38	12	45	104	56	66	4
OTU 190	0	0	2	0	0	0	0	1	0	0	135	0	0	92	3	4	1	0	0	28	1	0	0	5	47	0	21	0	0	0	0	16	3	0	53	0	0	5	0	25	0	11	0	0	36	0	12	13	0	0
OTU 191	111	83	25	64	32	85	14	53	70	21	75	26	61	29	14	152	2	16	39	27	8	9	40	4	10	3361	0	51	34	6	29	52	438	0	204	93	24	19	45	63	2	1	93	5	10	31	28	20	3	6
OTU 192	32	5	0	12	16	44	74	8	17	14	75	64	29	310	31	6	5	15	34	45	56	27	1	8	14	5	17	28	5	72	3	57	92	45	71	37	169	31	17	147	2	4	12	1983	279	11	38	14	33	3
OTU 193	0	54	52	0	87	38	47	58	102	5	21	20	25	64	26	11	0	94	26	3	72	19	1	34	0	19	67	5	2	3	77	0	122	33	58	6	105	0	7	93	43	18	2	54	1	2	0	88	2	2
OTU 194	2	109	6	0	38	197	23	0	12	2	52	3	47	4	0	2	0	3	4	8	13	1	9	6	2	0	4	7	2	3	2	0	224	1	79	18	90	12	29	68	0	0	0	42	69	5	16	20	0	0
OTU 195	46	2	2	548	9	26	5	125	8	730	20	20	17	11	1651	10	0	17	14	25	0	3	15	73	0	43	5	51	26	0	20	0	33	0	26	83	48	11	2	53	2	34	44	8	5	14	77	9	0	0
OTU 196	26	0	0	1	0	8	20	5	9	4	23	9	82	0	0	14	6	4	0	26	2	3	1	13	2	12	0	0	1	1	9	1	36	23	137	0	0	45	62	5	27	3	4	61	1	6	2	0	29	80
OTU 197	15	18	19	112	33	94	45	41	275	53	54	273	80	227	79	139	31	57	120	161	55	30	57	94	27	13	52	45	20	32	60	46	119	87	536	95	15	79	177	19	1507	0	52	77	51	34	60	55	53	63
OTU 198	0	0	0	0	3	1	9	0	8	4	46	5	0	25	13	4	0	89	0	3	1	0	0	4	0	0	23	0	0	0	13	30	2	11	0	0	0	0	0	0	23	19	0	0	0	4	34	8	0	3
OTU 199	0	33	0	29	0	2	0	74	17	19	0	18	0	4	5	34	0	0	3	12	13	2	0	3	0	14	0	0	4	7	47	8	10	0	0	0	67	10	3	0	0	0	16	17	13	0	1	3	0	0
OTU 200	2	2	3	6	12	0	46	29	5	39	11	45	1	29	3	0	1	1	8	119	7	18	110	21	3	1	0	18	9	61	0	48	16	2	2	33	93	1	0	4	11	29	26	0	47	0	0	6	0	10
