	Host 1	Host 2	Host 3	Host 4	Host 5	Host 6	Host 7	Host 8	Host 9	Host 10	Host 11	Host 12	Host 13	Host 14	Host 15	Host 16	Host 17	Host 18	Host 19	Host 20	Host 21	Host 22	Host 23	Host 24	Host 25	Host 26	Host 27	Host 28	Host 29	Host 30	Host 31	Host 32	Host 33	Host 34	Host 35	Host 36	Host 37	Host 38	Host 39	Host 40	Host 41	Host 42	Host 43	Host 44	Host 45	Host 46	Host 47	Host 48	Host 49	Host 50	
OTU 1	0	27	0	2	0	0	0	26	9	0	0	0	0	65	0	0	0	0	0	1	2	0	0	26	0	0	0	0	28	0	0	0	1	0	0	0	10	12	23	11	30	0	0	8	0	0	0	18	0	8
OTU 2	0	0	0	0	0	0	0	1	0	0	0	0	0	0	0	0	1	0	1	1	0	0	1	0	0	0	0	0	0	0	1	0	0	0	0	0	0	0	0	0	0	0	0	0	0	0	0	1	0	1
OTU 3	0	0	0	0	0	1	1	0	0	0	0	0	0	0	0	1	0	0	0	0	0	1	1	0	0	0	0	0	0	0	75	0	0	0	0	0	0	0	0	0	0	0	0	0	0	0	0	0	0	0
OTU 4	0	0	0	0	0	0	0	0	0	0	0	0	0	0	0	0	0	0	0	0	0	0	0	0	0	0	0	0	0	0	0	0	0	0	0	0	0	0	0	0	0	0	0	0	0	0	0	0	0	0
OTU 5	5	2	25	1	27	0	3	18	5	4	17	5	24	10	70	53	16	3	0	20	3	17	46	8	0	6	4	54	4	113	23	2	135	7	0	38	18	5	7	15	27	6	19	14	52	14	1	5	6	4
OTU 6	0	0	0	1	0	0	1	0	0	0	0	0	1	0	0	0	0	1	1	0	0	1	0	0	0	5	0	0	0	0	6	0	0	7	0	0	0	1	0	0	0	0	0	0	0	0	0	0	0	0
OTU 7	4	3	0	0	1	0	0	0	0	0	0	1	1	0	0	0	0	0	0	0	3	192	0	0	3	0	0	124	24	0	1	3	1	0	5	6	13	8	1	35	2	1	0	2	2	2	0	13	0	2
OTU 8	0	0	0	1	0	0	0	1	0	1	0	0	0	6	1	0	2	133	1	2	0	1	182	1	5	1	0	0	3	0	0	4	0	2	0	5	0	3	0	0	5	3	1	0	1	0	0	0	0	2
OTU 9	0	0	0	0	0	0	3	0	0	0	0	1	0	0	1	0	0	0	0	0	0	2	0	0	0	0	0	2	0	0	0	0	0	0	0	0	0	0	0	0	0	0	0	0	1	0	0	0	0	0
OTU 10	0	0	0	0	295	0	0	0	0	4	0	1	0	0	1	0	0	0	0	0	0	2	0	1	0	0	0	0	1	0	0	2	0	0	0	0	1	0	1	42	0	0	0	0	0	0	1	0	1	0
OTU 11	0	0	0	0	0	0	0	0	0	0	0	0	0	0	0	3	0	0	0	0	0	0	2	0	1	0	0	0	0	0	1	3	0	1	0	0	0	1	0	0	0	1	1	0	0	0	2	1	0	0
OTU 12	0	0	0	0	8	0	0	0	1	1	1	1	0	0	1	0	0	1	1	0	0	0	0	0	0	0	0	0	0	0	0	1	2	0	2	1	0	0	0	0	0	0	1	0	2	0	0	0	13	0
OTU 13	0	0	0	0	0	0	0	0	0	0	0	0	0	0	0	0	0	0	0	0	0	0	0	0	0	0	0	0	0	1	0	1	0	0	0	0	0	0	0	0	0	0	0	0	0	0	0	0	0	0
OTU 14	0	0	2	0	0	2	0	0	0	0	1	0	0	0	0	0	0	0	0	1	0	0	0	0	0	0	0	0	0	0	1	0	0	0	0	0	0	0	0	0	0	0	1	0	1	0	0	0	0	0
OTU 15	0	0	0	0	0	0	0	0	0	0	0	0	0	0	0	0	0	0	0	0	1	0	0	0	0	0	0	1	0	1	0	0	0	0	0	0	0	0	0	0	0	0	0	0	0	0	0	0	0	0
OTU 16	0	0	0	0	0	0	2	0	0	0	0	0	0	0	0	0	0	0	0	0	0	0	0	0	0	0	0	0	0	0	0	0	0	0	0	0	0	0	0	0	0	0	0	0	0	0	0	0	0	0
OTU 17	0	0	0	1	0	0	0	0	1	0	0	0	18	1	0	0	0	0	1	0	0	0	2	0	0	1	3	0	0	1	3	0	0	0	0	0	0	0	0	0	0	0	0	0	1	0	1	0	0	0
OTU 18	1	1	0	0	0	5	0	0	0	0	0	0	0	1	1	0	0	0	1	0	2	0	0	0	0	0	0	0	0	0	2	1	1	1	0	0	0	1	0	0	0	2	3	0	1	0	0	0	0	1
OTU 19	0	0	0	0	0	0	0	0	0	0	0	0	0	0	0	0	0	0	0	0	0	0	0	0	0	0	0	0	0	0	0	0	0	0	0	0	0	0	0	0	0	0	0	0	0	0	0	0	0	0
OTU 20	0	0	0	1	2	1	1	0	0	0	3	1	0	0	0	0	0	0	0	0	0	0	0	0	1	0	0	0	1	0	0	1	2	2	0	0	0	0	0	0	0	0	0	0	0	0	0	0	1	0
OTU 21	0	0	1	1	1	0	1	0	0	1	1	0	0	0	1	0	0	0	0	0	0	1	0	0	20	0	0	0	0	1	0	0	0	0	0	0	0	0	0	0	0	1	1	0	0	0	0	0	0	0
OTU 22	0	1	0	1	0	0	0	0	0	0	0	0	0	0	0	0	24	1	0	1	0	0	1	0	1	1	0	0	0	0	0	0	0	242	0	2	0	2	0	0	1	0	5	0	1	0	0	0	1	0
OTU 23	0	0	0	0	0	3	0	0	1	0	0	0	0	0	0	0	0	1	0	0	0	0	0	0	0	1	0	0	0	0	0	0	0	0	1	0	1	0	0	0	0	1	0	0	0	0	0	2	0	0
OTU 24	0	0	0	0	1	1	0	0	0	2	0	0	0	0	0	0	1	0	0	2	2	2	0	1	1	0	1	1	0	0	0	2	1	0	0	0	0	0	0	0	0	0	0	1	0	0	0	0	1	0
OTU 25	0	0	0	0	0	0	0	0	0	0	0	0	0	0	0	0	0	0	0	0	0	0	0	0	0	1	0	0	0	0	0	0	0	0	0	0	0	0	0	0	0	0	0	0	0	0	0	0	0	0
OTU 26	0	0	0	0	0	0	0	0	0	0	0	0	0	0	0	0	0	0	0	0	2	0	1	0	0	0	0	0	0	0	0	1	1	1	0	0	0	1	0	0	0	0	0	0	0	0	0	0	0	0
OTU 27	0	0	0	0	0	0	0	0	0	0	0	0	0	0	0	0	0	0	0	0	0	0	0	0	0	0	0	0	0	0	0	0	0	0	0	0	0	0	0	0	0	0	0	0	0	0	0	0	0	0
OTU 28	0	0	0	0	0	1	0	1	0	2	3	0	0	5	0	15	4	2	0	0	1	3	0	0	1	0	1	1	0	0	0	0	0	1	2	3	0	0	0	0	1	0	0	0	0	0	0	0	0	0
OTU 29	1	0	0	0	0	0	0	1	0	0	0	1	1	0	1	1	1	0	0	0	0	1	0	0	0	0	3	1	0	2	0	0	0	2	0	0	0	1	0	0	0	0	0	0	9	3	108	0	0	0
OTU 30	0	0	0	0	0	0	0	0	0	0	0	0	0	0	0	0	0	0	0	0	0	0	0	0	0	0	0	0	0	0	0	0	0	0	0	0	0	0	0	0	0	0	0	0	0	0	0	0	0	0
OTU 31	0	0	0	0	0	0	0	2	0	0	0	0	1	1	0	0	0	0	0	2	0	2	0	0	0	0	0	0	114	0	0	0	0	0	0	0	48	53	0	47	0	0	0	0	0	0	0	60	0	18
OTU 32	0	1	1	0	1	2	0	0	18	0	0	4	0	0	1	1	0	2	0	2	1	2	0	0	0	1	0	0	0	1	0	0	1	1	0	0	0	1	37	0	12	49	1	2	1	1	4	0	0	0
OTU 33	0	0	0	0	0	0	0	0	0	0	0	2	0	0	0	0	0	0	0	0	0	0	0	0	0	0	0	0	0	0	0	0	1	0	0	0	0	0	2	0	0	0	0	0	0	0	0	0	0	0
OTU 34	0	0	1	1	0	0	1	0	0	0	0	2	0	1	0	0	0	0	1	0	0	0	1	0	1	1	0	0	0	0	126	0	0	0	1	0	0	2	0	0	0	0	0	0	0	1	1	0	0	0
OTU 35	1	0	0	0	1	0	0	0	0	0	0	0	0	0	0	0	1	0	0	0	0	0	0	0	0	0	2	0	0	0	0	0	0	0	0	0	0	0	0	0	0	0	0	0	0	0	0	0	0	0
OTU 36	0	2	0	0	1	0	1	0	0	0	2	0	0	0	0	0	0	0	1	0	0	0	0	2	0	0	0	0	0	0	1	0	0	0	1	0	0	3	0	0	0	0	0	0	0	0	0	0	0	0
OTU 37	0	0	0	0	0	0	0	0	1	0	0	0	0	0	0	0	0	0	0	0	2	0	0	0	0	0	0	0	0	0	0	0	0	0	0	0	0	0	1	0	0	0	0	0	0	0	0	0	0	0
OTU 38	0	28	0	3	0	0	0	55	13	0	1	1	0	135	0	0	0	0	0	6	0	0	0	31	0	1	0	0	23	0	0	0	0	0	1	0	11	5	18	14	12	0	0	9	0	3	0	11	0	5
OTU 39	0	0	0	0	0	0	0	0	0	0	152	0	0	0	0	0	0	0	0	0	2	0	0	0	0	0	1	0	0	0	0	0	0	0	0	0	0	3	0	0	0	0	1	0	0	0	0	0	0	0
OTU 40	0	0	0	0	1	0	1	0	0	0	0	0	0	0	0	0	1	0	1	0	0	0	2	0	0	271	1	0	0	1	0	0	1	0	0	1	0	0	1	0	2	0	0	0	0	0	0	0	3	0
OTU 41	2	0	1	0	0	5	28	0	0	0	1	0	0	0	0	1	0	3	0	0	0	0	2	0	0	0	0	0	0	2	1	1	0	0	0	0	0	0	0	0	1	0	0	0	0	0	1	0	2	0
OTU 42	13	0	0	0	0	0	0	0	0	0	0	0	0	0	0	0	0	0	0	0	0	0	2	4	0	0	0	0	0	0	0	0	0	1	0	0	0	0	0	0	0	0	0	0	0	0	0	0	0	0
OTU 43	0	0	0	0	0	0	0	0	0	0	0	0	0	0	0	0	0	0	0	0	0	0	0	0	0	0	0	0	0	0	0	0	0	0	0	0	0	0	0	0	0	0	0	0	0	0	0	0	0	0
OTU 44	0	0	0	0	0	0	0	0	0	0	0	0	0	0	0	0	0	0	0	0	0	0	0	0	0	0	0	0	0	0	0	0	0	0	0	1	0	0	0	0	0	0	0	0	0	0	0	0	0	1
OTU 45	2	0	0	1	22	301	0	0	136	0	0	0	0	0	0	1	0	0	0	1	1	3	4	0	0	0	0	1	3	1	0	0	0	2	1	1	0	6	0	1	0	1	0	0	0	0	155	2	0	2
OTU 46	0	1	0	1	3	1	1	1	2	0	0	0	0	0	8	0	0	1	2	138	0	2	0	1	0	0	1	4	0	1	1	0	1	1	0	0	0	0	0	0	0	0	1	0	0	0	0	1	0	0
OTU 47	0	0	0	0	0	0	0	0	0	0	0	0	0	0	0	0	0	0	0	1	0	0	0	0	0	0	0	0	0	0	0	0	0	1	0	0	0	0	0	0	0	0	0	0	0	0	0	0	0	0
OTU 48	12	0	0	2	1	0	0	0	0	3	3	3	0	0	0	1	0	1	0	0	0	0	0	0	1	0	3	1	1	0	2	0	1	0	1	0	0	0	0	1	9	1	0	4	0	0	0	1	0	0
OTU 49	0	0	0	0	0	0	0	0	0	0	0	0	1	0	0	0	1	0	1	0	0	0	0	0	0	0	0	0	0	0	0	0	0	2	0	0	1	2	0	0	0	0	0	0	0	0	2	0	1	0
OTU 50	0	0	18	0	0	1	3	0	0	1	2	0	0	1	0	0	0	0	0	1	0	0	0	0	0	0	0	0	1	1	0	0	53	5	1	0	0	0	1	0	0	0	0	3	0	0	1	0	1	0
OTU 51	0	0	0	0	0	2	0	0	0	0	0	0	4	0	0	0	1	0	0	0	0	0	0	0	0	0	0	0	0	0	0	0	0	1	0	0	0	0	0	0	26	0	0	12	0	0	0	0	0	0
OTU 52	0	2	0	0	0	3	277	0	0	292	0	3	0	1	0	0	0	0	2	0	0	0	0	0	1	1	1	3	1	0	3	0	0	1	0	1	0	1	0	0	1	0	0	0	1	0	1	0	2	0
OTU 53	0	0	0	0	0	0	0	0	0	0	0	0	0	0	0	0	0	0	0	0	0	0	0	0	0	0	0	0	0	0	0	0	0	0	0	0	0	0	0	0	0	0	0	0	0	0	0	0	0	0
OTU 54	1	0	15	0	0	1	1	1	1	3	1	1	0	0	2	0	1	1	3	1	1	0	7	0	0	0	0	1	1	1	0	0	0	0	0	2	0	0	0	0	100	2	1	62	2	0	2	0	0	4
OTU 55	0	0	0	0	0	0	0	0	0	0	0	0	0	0	0	0	0	0	0	0	0	0	0	0	0	0	0	0	0	0	0	0	0	0	0	0	0	0	0	0	0	0	0	0	1	0	0	0	0	0
OTU 56	0	0	0	0	0	0	0	0	0	0	0	0	0	0	0	0	0	3	0	0	0	1	1	0	0	0	0	0	0	0	0	0	0	0	0	0	0	0	0	0	0	0	0	0	0	0	0	0	0	0
OTU 57	0	0	80	4	0	3	0	0	0	1	0	2	1	2	0	0	3	1	0	3	0	1	1	2	0	3	1	0	0	1	0	1	1	0	0	0	0	0	0	1	2	1	0	0	1	61	2	0	1	0
OTU 58	0	0	0	0	0	0	0	0	1	0	0	0	0	3	0	0	1	0	0	0	0	1	1	0	0	0	0	0	0	0	0	2	0	2	0	0	0	0	0	0	0	0	1	0	0	0	0	0	0	0
OTU 59	0	0	0	0	0	0	0	148	32	0	0	0	0	0	0	0	0	1	0	0	2	0	0	56	0	0	0	0	1	0	0	0	2	1	2	0	1	0	68	1	0	0	2	0	0	0	0	0	1	0
OTU 60	0	0	2	0	0	23	3	2	0	0	0	0	3	0	1	0	0	1	4	1	0	0	0	0	0	42	5	0	0	0	0	1	0	0	0	1	1	0	0	0	0	0	1	0	0	2	0	0	0	0
OTU 61	0	0	0	0	2	4	1	1	0	0	0	1	0	2	6	0	0	0	0	0	0	0	0	0	0	1	0	1	0	0	0	1	0	1	1	4	1	1	0	0	0	2	2	2	0	0	0	0	0	0
OTU 62	0	0	0	0	0	0	0	1	0	0	0	0	0	2	0	0	0	0	0	0	1	0	0	0	0	0	0	0	0	2	0	1	0	0	0	0	0	0	0	0	0	0	1	0	0	0	0	0	1	0
OTU 63	0	0	1	1	0	0	0	1	1	0	0	1	0	0	0	2	0	0	0	0	0	1	0	1	2	0	0	0	0	0	0	0	0	0	1	1	0	0	1	0	0	0	0	0	0	0	0	0	1	0
OTU 64	0	0	0	1	0	0	0	1	0	20	0	0	3	3	2	2	0	2	0	33	1	1	0	2	0	1	1	1	0	0	0	2	0	0	1	0	0	0	0	0	1	0	0	1	1	0	1	0	0	0
OTU 65	0	0	0	0	0	1	1	0	0	0	0	1	0	0	0	2	0	0	0	0	1	0	0	0	0	0	0	0	0	0	0	0	0	0	0	0	0	0	0	0	0	0	0	0	0	0	0	0	0	0
OTU 66	2	0	0	1	0	0	3	0	0	0	1	1	0	0	0	1	0	0	0	0	0	0	1	0	0	0	0	0	0	0	0	0	0	1	0	0	0	2	0	0	2	0	0	1	0	0	0	0	0	0
OTU 67	0	0	0	0	2	1	0	0	0	0	0	0	0	0	1	1	2	0	0	0	0	0	0	0	0	0	0	0	1	0	2	0	0	0	0	0	0	0	0	0	0	0	28	0	2	1	1	0	2	0
OTU 68	0	0	1	2	0	0	0	0	0	0	0	211	0	0	0	0	0	1	0	0	0	0	0	0	0	0	0	0	0	0	0	0	0	0	0	0	0	1	0	0	0	1	0	0	0	0	1	0	0	0
OTU 69	0	0	1	0	0	0	0	0	0	0	2	0	0	0	0	0	1	0	0	0	0	4	3	0	1	1	1	2	0	0	0	3	0	0	0	0	1	0	0	3	0	0	0	0	1	0	0	0	0	0
OTU 70	0	0	0	0	0	0	0	1	21	0	0	0	0	0	0	0	0	0	1	0	0	0	0	0	0	0	1	0	0	1	0	1	0	0	0	1	0	0	54	0	1	0	0	1	3	0	0	0	1	0
OTU 71	0	0	0	0	1	0	0	0	0	0	0	0	0	0	0	0	0	0	0	0	0	0	0	17	1	0	0	9	0	0	0	0	0	0	0	0	0	0	0	0	0	0	1	1	2	0	0	0	0	0
OTU 72	0	0	0	0	1	0	1	1	1	0	1	2	1	2	0	0	0	0	1	0	0	0	0	0	0	0	0	0	0	1	7	1	0	0	0	0	0	0	1	0	0	0	1	0	37	0	0	0	1	0
OTU 73	0	2	0	0	0	0	0	0	0	1	1	0	0	0	0	0	0	0	1	0	0	0	0	0	0	0	0	0	0	0	0	0	0	0	0	0	0	0	0	0	0	0	0	0	0	0	0	0	2	0
OTU 74	0	0	0	0	0	0	0	0	0	0	0	1	0	0	2	0	0	0	1	0	0	0	0	1	1	1	0	0	1	0	0	0	0	0	1	0	0	0	1	0	0	0	1	15	1	0	0	0	2	0
OTU 75	1	0	0	2	0	0	1	0	0	0	0	0	1	0	0	0	1	0	0	0	0	2	0	0	3	0	0	154	0	0	0	1	0	0	3	1	0	0	0	0	0	1	4	0	0	0	0	0	2	0
OTU 76	0	0	0	0	0	0	0	0	0	2	0	0	0	0	0	0	0	0	0	0	0	0	0	0	0	0	0	0	0	0	0	0	0	0	0	0	0	0	1	0	0	57	1	0	0	0	0	0	0	0
OTU 77	0	0	1	0	0	0	0	0	0	2	0	1	0	0	2	0	2	1	0	0	0	0	0	0	0	0	0	1	0	0	0	0	2	1	0	0	0	0	0	0	0	0	1	0	0	0	3	0	1	1
OTU 78	0	0	1	0	0	2	0	0	0	0	0	0	197	0	0	0	0	0	0	2	0	1	1	0	1	0	0	1	0	0	92	0	0	0	1	1	1	0	0	1	0	0	0	0	0	0	0	0	177	0
OTU 79	0	0	0	0	2	2	0	1	3	0	0	3	94	1	0	1	0	4	4	2	1	2	2	0	1	1	1	2	2	1	1	1	2	2	2	2	2	0	0	1	0	0	5	0	5	0	0	0	1	1
OTU 80	2	0	0	37	3	0	2	0	0	1	0	0	1	0	0	0	0	0	0	1	0	2	1	1	0	3	0	0	0	1	0	0	0	1	0	0	0	1	2	0	0	0	1	0	2	2	0	0	1	1
OTU 81	0	0	0	0	1	0	1	0	0	0	3	1	0	0	0	1	0	0	3	0	1	0	1	0	1	2	2	0	0	0	1	1	3	0	0	2	0	0	0	0	1	1	0	0	1	0	0	0	8	0
OTU 82	0	0	0	0	0	0	0	0	0	2	0	0	0	0	0	0	4	0	0	0	0	0	0	0	0	0	0	1	0	0	3	282	0	0	0	0	0	0	0	0	0	2	1	0	0	180	4	0	0	0
OTU 83	0	0	0	0	0	1	1	0	0	0	0	0	0	0	0	0	0	0	0	0	0	0	0	0	0	0	0	0	0	0	0	0	0	0	0	0	1	0	0	0	0	0	0	0	0	0	0	0	0	0
OTU 84	0	0	0	0	0	0	0	0	1	0	1	0	0	0	0	0	1	1	0	0	2	0	0	2	0	0	0	0	0	0	0	0	0	0	0	1	0	0	0	0	0	0	0	0	0	2	0	0	0	0
OTU 85	0	0	0	0	0	0	0	0	0	0	0	0	1	0	0	0	1	0	0	0	0	0	0	0	0	0	0	0	0	0	0	2	0	0	0	0	0	0	0	0	0	0	0	0	0	0	0	0	1	2
OTU 86	0	0	0	0	0	0	0	0	1	0	0	0	0	0	0	0	0	0	0	0	0	0	0	0	0	0	0	0	0	0	0	0	0	0	0	0	0	0	0	0	0	0	0	0	0	0	0	0	0	0
OTU 87	0	0	0	0	0	0	0	0	0	0	0	0	0	0	39	0	0	0	0	0	0	0	0	0	0	0	0	0	0	0	1	0	0	0	2	0	0	0	0	0	0	0	0	0	0	0	1	0	0	0
OTU 88	2	0	0	0	0	0	0	0	0	0	0	0	0	1	0	0	0	0	0	0	0	0	0	0	0	0	0	0	0	0	0	0	0	0	0	0	0	0	1	0	0	1	0	0	0	0	1	1	0	0
OTU 89	0	0	0	0	0	0	0	0	0	4	0	1	0	0	0	0	0	0	0	0	1	0	1	0	0	1	1	0	0	0	0	0	0	3	1	156	0	0	0	0	0	1	0	2	0	1	0	0	0	0
OTU 90	0	0	0	0	0	0	0	0	0	0	0	0	1	3	0	0	0	0	0	0	0	0	0	0	1	0	0	0	0	1	0	0	0	0	0	1	0	0	0	0	1	0	0	1	0	0	0	0	0	0
OTU 91	0	0	0	0	0	0	0	0	0	0	0	0	0	0	0	0	0	0	0	0	0	0	0	0	0	0	0	0	0	0	0	0	0	0	0	3	0	0	0	0	0	0	0	0	0	0	0	0	0	0
OTU 92	0	0	0	0	1	0	0	0	0	0	0	0	0	1	0	0	0	6	1	0	2	0	0	0	0	0	0	0	0	0	0	0	0	0	0	0	0	1	0	0	0	0	2	0	0	0	0	0	0	0
OTU 93	0	0	0	0	0	0	0	0	0	0	0	0	0	0	0	0	0	0	0	0	0	0	0	0	0	0	0	0	0	0	0	0	0	0	0	0	0	0	0	0	0	0	0	0	0	0	0	0	0	0
OTU 94	0	0	0	0	0	0	1	1	1	0	6	0	0	1	0	2	0	1	0	0	4	0	0	0	2	8	0	2	1	0	6	0	0	0	0	0	0	0	0	32	1	0	0	0	0	0	5	0	1	0
OTU 95	0	0	0	0	0	0	0	0	0	0	0	0	0	0	0	0	0	0	0	0	0	0	0	0	0	0	0	0	0	0	0	0	1	0	0	0	0	1	0	0	0	0	0	0	0	0	0	0	0	0
OTU 96	0	0	0	0	0	0	0	0	0	0	0	0	0	0	0	0	0	0	1	0	0	0	0	0	0	0	0	0	1	0	0	0	0	0	0	0	0	0	0	0	0	0	0	0	0	0	0	0	0	0
OTU 97	0	9	0	0	0	0	0	17	2	0	0	0	0	15	0	0	0	0	0	0	0	0	0	3	0	0	0	0	7	0	0	0	1	0	0	0	1	2	9	2	2	0	0	3	0	0	1	3	0	0
OTU 98	0	2	1	106	0	0	0	1	0	0	0	0	0	3	0	0	0	0	0	0	0	0	0	0	0	0	0	0	0	0	0	0	0	1	2	0	0	0	0	0	0	0	0	0	0	0	4	0	0	0
OTU 99	1	0	0	3	0	0	0	1	0	1	0	0	1	0	0	4	0	0	0	3	1	0	0	0	0	0	86	0	0	0	0	0	0	0	2	0	1	0	0	0	0	0	1	2	0	0	1	0	2	1
OTU 100	0	1	1	0	0	0	0	0	0	0	2	0	1	0	0	0	0	0	0	1	0	0	0	0	0	0	0	0	0	3	1	0	0	0	0	5	0	0	1	0	0	3	0	0	0	1	0	0	0	0
OTU 101	0	0	0	0	0	0	0	0	0	0	0	0	0	0	0	0	0	0	0	0	0	0	0	1	0	0	1	0	0	0	0	0	1	0	0	0	0	0	0	0	0	0	0	0	0	0	0	0	0	0
OTU 102	0	0	1	0	0	0	0	0	0	0	1	0	0	0	0	0	0	0	0	0	0	0	0	0	0	2	0	2	0	0	1	0	0	0	0	0	0	0	0	0	0	0	0	0	0	0	0	0	0	0
OTU 103	1	0	0	2	0	0	0	1	0	0	2	0	0	0	0	0	0	0	0	0	0	0	0	3	0	1	0	0	0	0	0	4	1	0	0	0	0	0	2	0	0	0	0	0	0	0	0	0	0	0
OTU 104	0	0	2	0	0	0	1	0	14	0	3	0	1	0	1	2	0	4	1	0	0	0	0	2	30	0	0	0	0	0	0	1	0	0	2	0	0	0	45	0	1	1	0	2	0	1	0	0	0	0
OTU 105	1	0	0	0	0	1	0	0	0	0	0	0	0	0	0	0	0	0	5	0	0	0	0	0	0	0	0	0	0	0	0	0	0	0	0	0	0	0	0	0	0	0	0	0	0	0	0	0	0	0
OTU 106	1	0	0	0	0	0	0	0	0	0	0	0	0	0	0	0	0	0	0	1	0	0	0	0	0	1	0	0	0	0	0	0	0	0	0	0	0	0	0	0	0	0	0	0	0	0	14	0	0	0
OTU 107	0	0	0	0	0	0	17	0	0	0	1	0	0	1	0	0	0	0	0	0	0	13	0	0	0	0	0	0	0	0	0	0	0	0	0	0	0	0	0	0	0	0	0	0	0	1	0	0	1	0
OTU 108	0	1	0	0	0	1	0	0	0	0	0	0	1	0	0	0	0	0	0	1	0	0	0	0	1	0	1	0	4	0	0	0	0	0	0	0	6	0	0	6	0	0	0	0	3	0	0	6	1	2
OTU 109	0	0	0	0	0	0	0	0	0	0	0	0	0	0	0	0	0	0	0	0	0	0	0	0	0	0	0	0	0	0	0	0	0	0	0	0	0	0	0	0	0	0	0	0	0	0	0	0	0	0
OTU 110	0	0	0	0	0	0	1	0	0	0	0	0	1	2	0	0	0	1	2	0	0	0	0	0	1	1	0	0	2	162	0	0	87	0	0	0	0	0	0	1	0	0	0	0	0	0	0	0	1	0
OTU 111	0	0	0	0	1	0	0	0	0	0	0	0	0	0	9	0	0	0	1	0	0	0	1	0	0	0	0	0	0	0	0	0	0	0	0	0	0	0	0	0	0	0	0	0	0	0	0	0	0	0
OTU 112	0	0	0	0	0	0	0	0	0	0	0	0	2	0	0	0	1	0	0	0	0	0	0	0	0	1	1	0	0	0	0	0	1	3	1	0	0	0	0	0	0	0	0	0	0	0	0	0	0	0
OTU 113	0	0	0	0	0	0	0	0	0	0	0	0	0	0	0	0	0	0	0	1	0	0	0	0	0	0	0	0	0	0	0	0	0	0	0	1	0	0	0	0	0	0	0	0	0	0	0	0	0	0
OTU 114	0	1	0	0	0	2	2	0	0	0	0	1	0	0	1	1	0	1	0	0	93	0	0	0	0	0	0	0	0	0	1	0	2	0	1	0	0	2	0	1	2	93	0	0	0	0	0	0	0	0
OTU 115	0	0	0	1	3	0	0	1	1	1	0	0	0	2	4	2	2	0	1	0	32	24	2	0	2	0	0	0	0	0	3	0	1	0	0	1	0	1	0	0	0	1	0	0	1	0	62	194	1	0
OTU 116	1	70	0	1	0	2	2	0	6	0	0	0	12	0	0	0	1	0	1	0	0	0	0	0	1	0	0	0	97	0	0	0	0	0	2	3	55	46	0	42	1	3	0	0	1	0	0	29	0	22
OTU 117	0	0	0	0	2	2	1	0	0	0	1	0	1	0	1	0	0	0	0	0	0	0	0	0	0	2	2	1	0	0	1	0	0	0	0	1	0	2	0	0	0	0	0	0	0	3	0	0	0	0
OTU 118	0	0	0	0	0	0	0	0	0	0	0	0	0	0	0	0	2	0	2	0	0	0	0	0	0	0	1	0	0	0	0	0	0	0	0	0	0	0	0	0	0	1	0	0	0	0	0	0	0	0
OTU 119	1	0	0	188	0	0	0	0	0	1	1	0	0	3	0	1	1	1	0	0	0	2	0	0	0	0	0	2	0	0	0	0	1	0	0	0	0	0	0	1	1	0	2	0	0	0	0	2	0	1
OTU 120	0	16	1	0	0	0	0	0	0	0	1	0	0	1	0	0	0	1	0	0	0	0	0	2	0	0	0	0	0	0	0	0	0	0	0	0	0	0	0	0	0	0	1	0	0	0	3	0	0	0
OTU 121	0	0	0	1	0	0	0	0	1	0	0	0	0	0	2	1	0	0	0	0	3	0	0	0	1	0	1	0	0	0	0	0	0	0	1	0	0	0	0	0	0	0	0	38	0	0	0	0	0	0
OTU 122	0	0	0	0	0	0	0	0	0	0	0	0	0	0	0	0	0	1	1	3	1	0	1	0	0	1	0	0	1	29	1	0	0	0	0	0	0	0	1	0	1	0	0	3	0	2	0	0	0	0
OTU 123	2	161	219	2	0	1	1	1	21	4	5	2	2	1	3	3	4	0	5	1	7	2	30	2	0	2	0	4	0	1	5	50	2	1	2	2	1	0	44	0	2	3	59	0	0	1	1	0	0	0
OTU 124	0	0	0	0	0	0	1	0	0	0	0	0	0	0	0	0	0	0	0	0	0	0	0	1	2	1	0	0	0	0	0	2	0	0	0	0	0	0	0	0	0	0	0	0	0	0	0	0	0	0
OTU 125	5	2	1	1	3	0	4	0	1	1	0	0	0	1	2	0	1	0	1	3	2	87	1	0	0	0	1	0	0	12	2	3	1	1	0	132	0	16	2	0	1	3	1	0	1	1	1	0	0	5
OTU 126	0	0	0	0	0	0	0	0	1	0	0	0	0	1	0	0	0	0	0	0	0	0	0	0	0	1	0	0	0	0	0	0	0	0	0	0	0	0	0	0	0	0	0	0	0	1	0	0	0	0
OTU 127	0	3	0	0	0	0	0	2	0	0	0	0	1	0	1	3	1	0	1	0	2	0	0	0	0	0	0	0	0	0	0	0	55	0	0	0	0	0	0	0	0	1	0	0	0	0	0	0	0	0
OTU 128	1	0	0	2	0	2	4	3	0	2	1	1	0	2	3	2	0	0	0	0	2	1	0	0	3	3	13	5	22	1	0	3	2	2	1	0	54	178	0	10	0	0	1	130	1	0	2	15	0	112
OTU 129	0	0	0	0	0	0	0	0	0	0	0	0	0	0	0	0	0	0	0	0	0	2	0	0	0	0	0	0	0	0	0	0	1	0	0	0	0	0	3	0	0	0	0	0	0	0	0	0	0	0
OTU 130	0	0	0	0	0	0	0	1	0	2	0	0	0	0	0	0	0	0	0	0	0	0	1	0	2	0	0	1	0	0	1	1	0	1	0	0	0	0	0	0	1	0	0	0	1	0	0	0	0	0
OTU 131	0	0	2	0	0	0	0	0	0	0	0	0	0	0	0	1	0	0	0	1	0	0	2	0	0	0	0	0	0	0	0	0	0	0	0	1	0	0	0	0	0	0	0	0	0	26	0	0	1	0
OTU 132	0	0	0	0	1	0	0	0	0	0	0	0	0	0	0	0	0	0	0	0	0	0	0	0	0	0	1	0	1	0	0	0	0	0	289	0	0	0	1	0	0	0	0	0	192	2	0	0	0	0
OTU 133	0	0	0	0	0	0	0	1	0	0	0	0	0	0	0	0	0	0	0	0	0	0	0	0	0	0	0	0	0	0	0	0	0	0	1	0	0	0	0	0	0	0	0	2	0	0	0	0	0	0
OTU 134	0	0	0	0	0	0	0	2	0	0	0	0	0	1	0	0	0	0	0	0	0	0	0	0	0	4	0	1	2	1	1	0	1	1	0	0	0	3	0	1	0	0	0	0	1	0	0	0	0	2
OTU 135	0	0	1	0	0	1	0	0	0	2	0	0	0	0	0	0	3	0	0	0	0	0	0	2	0	0	0	0	0	0	2	0	0	0	0	0	0	0	0	0	0	1	0	0	0	0	2	0	0	0
OTU 136	0	0	0	0	0	0	0	0	0	0	0	1	0	0	0	0	0	0	0	0	1	0	0	0	0	0	1	0	1	0	0	0	1	0	0	0	0	0	0	0	0	0	0	0	1	0	0	0	0	0
OTU 137	0	0	0	0	0	0	0	0	0	0	0	0	0	1	0	0	0	0	0	0	0	0	0	0	0	0	0	0	0	35	0	0	0	0	0	0	1	0	1	0	0	0	0	0	0	0	0	0	0	0
OTU 138	1	0	1	0	0	0	0	0	0	0	0	0	0	0	0	0	0	1	0	0	0	0	0	1	0	0	0	0	0	0	0	0	0	0	1	0	0	0	0	0	0	1	0	0	0	0	0	0	0	0
OTU 139	1	1	0	0	0	0	1	0	0	0	1	0	4	3	2	3	0	0	0	0	0	0	1	1	0	0	0	0	1	0	0	0	3	81	0	3	0	0	0	0	1	1	1	0	1	0	0	0	0	1
OTU 140	2	0	0	2	0	0	0	1	0	0	1	0	2	1	2	7	0	1	2	0	1	0	0	2	1	1	0	2	1	0	0	0	0	1	1	0	0	0	0	108	1	0	203	0	47	2	2	0	1	1
OTU 141	0	0	0	0	0	1	0	0	0	0	0	0	0	0	0	0	0	0	0	0	0	0	0	0	0	0	0	0	0	0	0	0	0	0	0	0	0	0	0	0	0	0	0	0	0	0	1	0	0	0
OTU 142	0	0	0	0	0	0	0	0	0	0	0	0	0	0	0	0	0	0	0	0	0	0	0	0	0	0	0	0	0	0	1	0	0	0	0	0	1	0	0	0	0	0	0	0	0	0	0	0	0	0
OTU 143	0	0	0	0	0	0	0	0	0	0	0	0	0	0	0	0	0	0	0	0	0	0	0	0	0	0	0	1	0	3	0	1	0	0	0	0	0	0	1	0	0	140	0	0	0	0	0	0	0	0
OTU 144	1	0	0	0	0	0	0	0	0	2	0	0	0	0	0	0	0	0	0	0	0	0	0	0	0	0	0	0	0	0	1	0	0	0	0	0	0	0	0	0	0	0	0	0	0	0	0	0	0	0
OTU 145	0	0	0	0	0	1	0	0	1	2	0	0	0	0	0	2	1	1	3	0	0	2	0	0	0	2	0	2	0	2	4	0	0	0	0	0	0	0	0	0	0	0	2	0	1	72	1	0	0	0
OTU 146	0	0	0	2	0	0	0	1	1	0	50	0	0	0	0	0	1	0	0	146	0	0	0	0	0	2	0	1	0	0	1	0	1	1	0	0	0	0	1	0	9	1	0	8	2	0	0	1	1	0
OTU 147	0	0	1	0	1	0	1	1	0	0	0	0	1	0	0	1	0	1	0	1	0	0	0	0	0	0	2	0	0	0	0	1	0	0	0	0	39	2	1	0	0	0	0	0	0	0	0	5	0	1
OTU 148	0	0	0	0	3	0	0	0	0	1	0	2	1	0	0	0	0	0	0	0	0	1	1	0	1	0	0	0	0	1	0	0	0	2	2	0	0	0	0	1	0	0	1	0	0	0	0	0	1	0
OTU 149	0	0	0	0	0	0	0	0	0	6	0	0	0	0	0	0	1	0	0	0	0	0	0	0	0	0	1	1	1	0	0	1	0	1	1	0	0	0	0	0	1	0	0	1	0	0	0	0	0	0
OTU 150	0	0	2	0	0	0	0	0	0	1	0	0	0	0	0	0	0	0	0	0	0	1	0	0	0	0	0	0	0	0	0	0	0	0	0	0	0	0	0	0	0	0	0	0	0	0	0	0	0	0
OTU 151	0	0	0	2	0	0	0	0	0	0	0	0	0	0	0	0	0	0	0	0	0	0	0	0	0	0	0	0	0	0	0	1	0	1	0	2	118	1	0	0	0	2	0	0	1	0	0	0	0	0
OTU 152	0	0	0	0	0	0	0	0	1	0	2	102	1	0	2	2	0	0	0	3	1	0	4	0	0	1	0	0	0	0	0	1	0	0	0	0	0	1	0	0	1	0	2	0	2	0	0	0	0	0
OTU 153	0	0	0	0	0	0	0	0	0	0	0	0	0	0	0	0	0	0	0	0	0	0	0	0	0	0	0	0	0	0	0	0	0	0	0	1	0	0	0	0	0	0	0	0	0	0	0	0	0	0
OTU 154	0	0	0	0	0	0	0	0	0	0	0	0	0	1	0	0	0	0	0	0	0	0	0	0	0	0	0	0	0	0	0	0	0	0	0	0	0	0	0	0	0	0	0	0	0	0	0	0	0	1
OTU 155	0	0	0	0	1	0	0	0	1	0	3	0	0	0	0	0	0	0	0	0	0	0	0	0	4	0	0	0	0	0	0	0	0	1	0	0	0	1	3	0	1	0	0	1	0	0	0	0	0	0
OTU 156	3	11	1	3	2	0	0	42	16	0	0	1	0	103	36	145	0	2	0	0	0	0	0	27	0	1	0	1	37	2	0	0	0	0	0	2	9	18	30	13	23	0	0	16	0	1	0	20	2	8
OTU 157	0	0	0	0	0	0	0	0	0	0	0	0	0	0	0	0	0	0	0	0	0	0	0	75	0	0	0	0	0	0	0	0	0	0	0	0	0	0	0	0	0	1	1	0	0	0	0	0	0	0
OTU 158	0	0	0	0	0	0	1	0	0	0	0	0	0	0	0	0	0	0	0	0	0	0	0	0	0	0	0	0	0	0	0	0	0	0	0	0	0	0	0	0	0	0	0	0	0	0	0	0	0	0
OTU 159	1	32	0	2	0	0	0	0	0	0	0	0	0	0	0	5	0	0	0	0	0	0	0	0	0	0	0	0	0	2	0	0	2	0	1	0	0	0	0	0	0	0	1	0	0	0	0	0	0	0
OTU 160	1	0	0	1	0	0	0	11	2	0	0	0	0	0	0	2	3	2	1	0	0	4	3	6	0	1	0	2	2	2	3	0	1	1	0	1	0	0	2	0	0	0	1	0	0	0	0	0	0	1
OTU 161	0	0	1	2	0	0	0	0	1	0	23	0	0	1	1	0	0	0	1	1	1	0	0	0	0	1	0	0	0	0	0	0	1	0	0	0	0	0	0	0	0	0	21	0	1	1	0	0	0	0
OTU 162	31	0	0	1	0	0	5	8	0	0	0	1	0	0	2	0	0	0	2	0	0	0	1	7	0	1	0	1	1	0	1	0	0	1	0	1	0	0	4	0	3	0	1	0	1	1	0	2	0	3
OTU 163	0	0	0	0	0	0	0	0	0	0	0	0	0	0	0	0	0	0	0	0	0	0	0	0	0	0	0	0	0	0	0	0	0	0	0	0	0	0	0	0	0	0	0	0	0	0	0	0	0	0
OTU 164	0	0	0	0	0	0	0	0	0	0	0	0	0	0	0	0	0	0	0	0	0	0	0	0	0	0	0	0	0	0	0	0	2	0	0	0	0	0	0	0	0	0	0	0	0	0	0	0	0	0
OTU 165	0	0	0	0	1	0	1	1	0	0	3	0	0	0	0	0	0	0	0	0	0	0	0	0	0	0	0	0	0	0	1	0	0	1	2	0	0	0	0	0	0	0	0	0	0	0	0	0	0	0
OTU 166	0	0	0	0	0	0	2	0	0	0	0	0	0	0	0	0	0	0	0	0	0	0	0	0	0	0	0	0	0	0	0	0	0	0	0	0	0	0	0	0	0	0	0	0	0	0	0	0	0	0
OTU 167	1	0	0	1	0	0	0	0	0	0	0	0	2	0	1	0	1	0	0	0	0	0	2	0	0	1	0	0	0	0	0	0	0	0	0	0	0	0	0	0	0	1	0	1	0	0	1	0	0	0
OTU 168	1	0	0	0	0	1	0	0	0	2	1	13	0	0	0	0	281	2	0	0	0	0	0	0	0	0	0	1	0	0	0	0	0	0	0	0	0	0	0	0	0	0	0	0	0	0	1	0	1	0
OTU 169	0	0	0	3	0	0	1	0	0	0	0	0	0	3	0	0	0	0	0	0	0	0	0	0	0	0	0	0	0	0	0	0	0	0	0	0	0	0	0	0	0	0	0	0	0	0	0	0	0	0
OTU 170	0	0	0	0	0	0	0	0	0	0	0	0	0	0	0	0	0	0	0	0	0	0	0	0	0	0	0	0	0	0	0	0	0	0	0	0	0	0	0	0	0	0	0	0	0	0	0	0	0	0
OTU 171	3	0	0	0	0	1	0	0	1	1	1	0	1	0	0	3	0	46	242	0	0	0	0	0	0	0	0	0	0	1	0	0	0	0	0	1	0	0	0	0	0	0	1	0	0	0	0	0	0	0
OTU 172	0	0	0	0	0	0	0	1	0	0	0	0	0	0	0	0	0	0	0	0	0	0	0	0	0	0	0	0	0	0	0	0	0	0	0	0	0	0	0	0	0	0	0	0	0	0	0	0	0	0
OTU 173	0	0	0	0	0	0	0	0	0	0	0	0	1	0	0	0	0	0	0	0	0	0	0	0	1	1	1	1	0	0	0	0	0	0	0	0	0	0	0	0	0	0	0	0	0	0	0	0	0	0
OTU 174	0	0	0	1	0	0	0	1	0	0	2	0	0	0	0	0	0	0	0	0	0	0	0	0	0	0	0	0	0	2	1	2	0	0	0	0	0	0	2	1	0	0	0	0	0	4	0	0	2	0
OTU 175	0	0	1	0	0	0	0	0	1	0	2	0	0	0	1	0	0	0	0	2	0	0	0	0	0	0	4	0	0	0	0	1	1	0	0	0	0	0	0	0	0	2	0	0	0	0	0	0	0	0
OTU 176	0	2	2	4	0	0	1	0	55	0	0	1	0	0	0	1	0	2	1	0	0	0	1	0	1	0	246	0	0	0	1	1	0	0	0	0	0	1	0	0	1	0	0	0	1	1	0	0	3	0
OTU 177	0	0	0	0	0	0	4	0	0	0	0	1	0	0	0	0	0	0	0	1	0	0	0	0	3	1	0	0	0	0	0	0	0	2	0	0	0	0	1	0	1	0	1	0	0	1	0	0	0	0
OTU 178	0	0	0	0	0	2	1	0	0	0	0	0	0	1	0	0	0	0	0	0	0	0	0	1	0	0	0	0	0	0	2	0	0	0	0	0	0	0	0	0	0	0	1	0	2	0	0	0	0	0
OTU 179	0	0	0	0	0	0	0	1	0	0	0	0	0	0	0	0	0	0	2	0	0	0	0	0	0	0	0	0	0	0	0	0	0	0	0	0	0	0	0	1	0	0	0	0	2	0	1	0	0	0
OTU 180	1	3	2	1	1	2	1	0	0	0	0	1	3	0	0	1	0	0	1	2	127	1	1	0	0	0	0	0	0	0	3	1	0	0	2	0	0	0	0	0	0	1	1	1	0	1	0	2	1	1
OTU 181	0	1	0	0	0	0	1	0	0	0	0	1	0	0	0	0	0	0	0	2	0	0	66	38	0	2	0	0	0	0	0	0	0	0	0	0	0	0	0	0	0	0	0	1	0	1	0	0	0	0
OTU 182	0	0	1	0	0	0	0	0	0	0	0	0	0	0	0	0	0	0	0	0	0	0	0	0	0	0	0	0	0	0	0	0	0	0	0	0	0	0	0	0	0	0	0	0	0	0	0	0	0	0
OTU 183	0	0	0	0	0	0	0	2	0	2	0	0	0	0	0	0	0	0	0	0	0	1	1	0	0	0	0	0	0	0	0	0	11	0	0	0	0	0	0	1	1	0	7	0	0	1	0	0	0	0
OTU 184	0	0	0	1	0	0	0	0	0	0	1	0	0	0	0	0	3	0	0	0	0	0	0	1	285	0	0	0	0	0	0	1	0	0	0	0	0	0	0	0	0	0	0	0	0	0	0	0	0	0
OTU 185	0	0	2	0	0	0	0	0	1	14	0	1	0	0	0	1	0	0	0	0	0	0	0	0	0	0	0	0	0	1	0	0	2	0	2	0	0	2	2	0	2	0	0	0	0	1	0	0	0	4
OTU 186	0	0	0	0	0	7	0	1	0	2	79	0	0	0	0	0	2	0	0	0	0	0	0	0	0	0	0	0	0	0	0	0	0	0	0	4	0	0	0	0	0	0	0	0	2	0	0	0	0	0
OTU 187	0	8	3	0	0	1	1	1	1	1	2	1	1	0	0	0	0	160	3	1	1	2	0	0	1	0	0	0	8	0	0	0	1	0	0	1	2	3	0	4	0	0	0	1	0	0	0	3	141	3
OTU 188	282	0	0	0	0	1	1	0	0	1	1	13	0	1	0	0	1	0	0	0	2	0	0	0	3	2	1	0	0	0	0	2	0	0	0	1	0	0	0	2	6	1	0	0	0	1	0	1	0	1
OTU 189	2	0	1	0	0	0	0	0	1	0	2	2	0	0	0	10	14	0	0	1	79	1	2	0	3	0	0	0	0	0	0	0	2	0	1	1	0	2	0	0	0	0	0	0	0	0	3	0	0	0
OTU 190	0	0	0	0	0	0	0	0	0	0	0	0	0	0	0	0	0	0	0	1	0	0	0	0	0	1	0	0	0	1	0	0	0	0	0	0	0	0	0	0	0	0	0	0	0	0	0	0	2	0
OTU 191	1	0	0	0	1	0	0	0	0	0	2	0	0	0	0	105	0	0	2	0	0	1	1	49	0	1	0	1	0	0	0	0	0	0	1	0	1	1	1	0	0	0	1	0	0	0	0	1	0	0
OTU 192	1	1	0	0	0	0	0	0	0	1	3	0	0	0	3	0	4	0	1	0	0	3	0	2	0	0	0	0	0	1	1	0	0	0	36	0	0	0	0	0	0	1	0	1	0	0	0	0	1	0
OTU 193	0	0	0	0	0	1	1	0	1	1	0	0	1	2	0	1	0	1	0	0	0	1	1	0	1	0	0	0	0	1	0	0	1	0	0	0	0	0	1	0	0	0	0	1	0	0	0	0	0	177
OTU 194	0	0	0	0	0	0	0	0	0	0	0	0	0	0	0	0	0	0	0	0	1	0	0	0	0	0	0	0	0	0	0	0	0	2	0	0	0	0	0	0	0	0	0	0	0	0	0	0	0	0
OTU 195	0	0	0	1	0	3	0	0	0	0	0	1	1	2	0	0	0	0	0	0	0	0	1	0	0	0	0	0	0	1	0	0	0	0	9	0	0	0	0	0	0	0	0	0	0	0	0	0	0	0
OTU 196	2	0	2	0	0	0	0	0	0	0	0	0	0	0	0	0	0	0	0	1	2	1	7	0	1	0	0	1	0	0	0	0	0	0	0	0	0	0	0	0	1	1	0	0	0	0	0	0	1	0
OTU 197	1	4	0	0	2	0	1	0	1	1	0	0	2	0	182	1	1	0	83	0	0	1	1	2	2	6	1	1	0	1	1	0	0	0	2	0	0	0	0	0	98	0	0	47	3	0	0	0	0	0
OTU 198	1	0	0	0	0	0	0	0	0	0	0	0	1	0	0	0	0	0	0	0	0	1	0	0	0	0	0	0	0	0	0	0	0	1	1	0	0	0	0	0	0	2	0	0	0	0	0	0	0	0
OTU 199	0	0	0	0	0	0	0	0	0	0	0	0	1	0	0	0	0	0	1	1	0	0	1	3	0	0	0	0	0	0	0	0	0	0	0	1	0	0	0	0	0	0	0	0	0	0	0	0	0	0
OTU 200	0	1	0	1	0	0	2	32	18	1	0	1	0	0	0	1	1	0	0	0	2	0	0	12	0	0	1	0	0	0	0	1	1	1	3	0	0	0	21	0	0	0	0	0	0	0	0	0	0	0
