	Host 1	Host 2	Host 3	Host 4	Host 5	Host 6	Host 7	Host 8	Host 9	Host 10	Host 11	Host 12	Host 13	Host 14	Host 15	Host 16	Host 17	Host 18	Host 19	Host 20	Host 21	Host 22	Host 23	Host 24	Host 25	Host 26	Host 27	Host 28	Host 29	Host 30	Host 31	Host 32	Host 33	Host 34	Host 35	Host 36	Host 37	Host 38	Host 39	Host 40	Host 41	Host 42	Host 43	Host 44	Host 45	Host 46	Host 47	Host 48	Host 49	Host 50	
OTU 1	1	109	36	13	9	16	9	239	65	108	6	50	7	62	128	12	21	6	56	69	4	42	0	65	54	141	15	43	43	60	58	14	33	46	98	25	128	9	83	23	64	44	131	33	10	97	63	9	12	28
OTU 2	0	106	27	4	26	6	7	4	0	7	0	22	0	2	11	7	9	38	0	38	0	0	1	0	7	80	1	42	0	1	22	0	2	0	0	33	23	1	0	0	5	0	5	5	1	1	4	33	0	11
OTU 3	0	1	7	0	1	100	5	0	14	15	4	235	91	9	10	4	1	12	100	56	12	6	1	0	0	1	0	0	16	18	11	0	0	0	0	5	8	112	0	23	22	13	0	0	81	23	0	8	0	0
OTU 4	0	0	0	0	0	0	0	0	0	0	0	0	0	0	0	0	7	0	0	0	0	0	0	0	0	0	0	0	0	0	0	0	0	0	0	0	0	0	0	0	0	0	0	0	0	0	0	0	0	0
OTU 5	51	22	635	123	40	676	120	481	4	1013	209	1020	489	575	6	204	773	30	576	283	27	96	1	322	215	54	763	7	112	6	249	237	758	214	0	36	389	0	622	275	150	2	268	192	323	45	257	0	772	321
OTU 6	5	6	0	2	5	100	21	54	36	19	3	178	23	13	8	2	3	9	40	1	59	7	78	0	7	4	0	28	8	59	10	0	10	13	6	11	6	0	17	22	0	7	26	2	2	3	0	1	2	0
OTU 7	37	47	56	181	71	28	6	153	79	32	276	52	72	14	147	39	169	90	230	25	202	16	147	284	74	462	19	225	21	141	203	25	45	265	29	139	46	45	39	125	82	22	87	126	49	512	14	569	18	9
OTU 8	14	71	12	76	55	1	445	15	66	30	122	11	53	21	208	40	126	8	100	48	47	127	34	41	22	7	168	17	130	6	1942	209	15	93	75	14	34	72	22	136	127	5	16	72	180	14	16	106	163	129
OTU 9	1	29	4	0	2	15	35	2	2	2	0	45	1	1	0	0	0	13	6	5	12	2	39	25	2	26	0	9	1	46	12	81	0	20	8	30	32	47	0	66	0	1	1	6	1	580	14	80	17	0
OTU 10	0	21	0	57	9	4	0	7	0	3	0	1	1	4	88	0	0	2	3	0	8	1	50	23	0	1159	13	590	14	39	2	22	0	2228	7	507	0	2	2	39	0	0	5	1	0	28	4	1	1	9
OTU 11	162	24	1	24	0	64	3	17	18	9	26	126	9	5	124	9	6	396	4	20	24	67	15	5	45	3	0	4	4	97	7	10	14	6	98	0	22	133	9	18	50	63	6	34	34	7	40	109	76	0
OTU 12	303	10	29	109	71	13	69	35	58	14	9	4	190	12	47	75	123	135	52	16	38	47	26	65	8	8	27	16	66	124	70	57	27	1	70	0	3	39	16	47	105	6	27	21	56	18	87	26	26	2
OTU 13	1	2	0	0	0	1	0	0	0	0	23	0	0	0	0	0	2	1	0	0	0	0	0	0	0	1	1	0	0	0	3	12	0	0	0	0	3	0	0	2	0	0	0	0	0	0	2	0	0	0
OTU 14	0	0	1	10	1	8	8	11	35	0	37	7	1	0	79	2	1	19	68	2	29	39	16	2	1	5	4	4	8	0	8	1	0	0	8	23	0	0	3	9	0	2	8	8	0	0	5	31	24	1
OTU 15	0	0	0	0	0	0	0	5	0	0	0	0	0	0	0	2	3	0	0	101	7	0	0	0	8	2	0	3	0	0	2	0	0	26	0	0	29	0	0	0	0	0	0	0	0	30	0	0	0	0
OTU 16	0	0	0	0	0	0	0	0	0	0	0	0	0	0	11	0	0	0	0	0	0	0	0	0	0	0	6	0	0	0	1	0	0	0	0	0	0	0	0	0	0	0	0	0	0	0	0	0	0	0
OTU 17	36	10	82	51	1	0	0	6	0	18	25	0	114	10	59	0	44	32	27	195	1	69	18	111	0	21	8	61	0	2	50	9	3	38	160	7	273	0	15	76	64	13	0	10	402	25	32	29	25	1
OTU 18	4	59	27	36	290	15	20	99	59	10	45	37	4	7	92	47	103	7	6	0	4	115	3	4	25	11	12	15	68	53	6	26	13	11	16	11	0	191	12	10	34	78	41	10	163	41	37	145	21	654
OTU 19	0	0	0	0	0	0	0	0	0	0	0	0	0	0	0	0	0	0	0	0	0	0	0	0	0	0	0	0	0	0	0	0	0	0	0	0	0	1	0	0	0	0	0	0	0	0	0	0	0	0
OTU 20	7	34	23	45	7	1	48	31	38	9	18	15	40	8	16	134	3	66	3	63	71	14	71	111	73	79	31	12	0	103	123	44	0	31	72	6	41	10	2	37	11	5	16	24	2	18	48	614	5	0
OTU 21	20	23	20	6	17	81	68	40	6	42	3	213	90	30	81	42	1	43	115	11	6	23	95	1	12	1	27	0	53	30	14	131	8	6	35	24	22	15	16	49	34	2	27	55	63	112	26	9	63	4
OTU 22	111	98	53	32	3	13	28	13	127	1863	3	37	154	899	62	7	15	111	23	2	24	107	3	22	0	25	0	16	3	55	54	1	27	56	13	0	7	83	6	1	3	18	19	18	28	3	53	13	5	0
OTU 23	31	7	31	8	91	70	13	0	0	5	2	85	3	2	69	0	11	15	0	3	13	9	24	4	4	61	0	22	38	21	0	19	0	0	0	10	14	0	33	7	0	26	1	0	2	1	12	0	36	22
OTU 24	42	0	0	61	10	169	1	3	9	318	0	272	2	154	128	1	12	44	0	0	5	5	175	0	0	2	4	3	0	92	3	1	2	13	0	0	17	188	0	12	1	4	7	3	5	3	5	20	0	0
OTU 25	0	421	0	0	0	0	0	0	5	0	1	4	0	0	0	0	0	0	0	0	0	0	0	31	0	0	0	0	18	0	0	2	0	0	0	0	0	0	0	0	0	0	0	0	0	0	0	1	0	0
OTU 26	0	1	0	0	4	0	22	0	1	0	0	0	0	0	14	131	0	0	0	0	0	0	0	10	1	18	51	2	2	11	0	0	0	0	0	0	0	0	0	98	0	0	0	0	0	1	0	1	0	0
OTU 27	0	0	0	1	0	0	2	0	0	0	0	0	0	0	0	0	0	0	0	0	78	0	0	0	0	0	0	0	0	0	0	0	0	0	0	0	0	0	0	0	0	0	0	0	0	0	2	0	0	0
OTU 28	105	47	70	4	280	36	62	6	268	7	71	49	34	601	287	89	99	12	5	58	102	20	116	48	16	68	26	5	67	107	7	94	33	12	39	14	26	64	25	69	3	49	5	10	14	4310	10	8	5	8
OTU 29	260	63	0	32	176	4	132	8	21	297	14	9	175	162	70	159	13	52	93	25	66	79	22	64	1	33	166	9	18	6	9	8	16	3	14	8	38	5	18	18	8	38	4	4	21	18	9	17	9	23
OTU 30	0	0	0	0	0	0	0	0	0	0	0	2	29	0	0	0	0	0	0	0	0	0	0	0	0	0	0	0	0	0	0	0	0	0	0	0	1	0	0	0	0	0	0	0	0	0	0	0	0	0
OTU 31	0	39	8	33	0	36	3	83	39	22	32	113	84	7	5	0	1	63	7	9	2	7	0	10	2973	0	7	0	18	39	0	56	3	0	1	15	2	0	0	48	4	6	65	42	3	5	44	0	114	1962
OTU 32	108	47	22	5	512	19	77	48	32	15	166	13	192	6	22	169	74	42	72	20	0	56	188	13	26	8	97	1	8	21	17	18	11	26	24	8	4	69	20	60	4	52	13	6	31	2	3	144	162	21
OTU 33	0	0	0	0	0	0	0	0	0	0	0	0	0	0	0	0	0	0	0	0	0	0	0	0	0	0	0	0	3	0	0	0	0	2	0	0	0	5	0	0	0	0	0	0	0	37	0	0	60	0
OTU 34	246	99	24	32	172	1	372	34	12	40	2	0	255	14	37	2	17	128	0	9	85	1	7	687	2	350	14	2601	2	6	253	27	25	1048	10	177	18	41	76	4	1	0	13	1	51	0	0	14	171	6
OTU 35	4	0	2	5	0	31	91	2	3	0	29	41	28	0	16	10	11	10	38	26	2	5	57	2	33	16	1	11	20	0	8	57	1	2	12	413	2	2	17	10	4	8	7	2	56	29	3	0	19	32
OTU 36	42	0	2	28	11	426	10	6	6	5	62	5	17	5	1	17	97	11	64	19	41	3	14	230	0	165	4	57	10	88	318	70	1	467	88	69	57	4	12	49	17	0	3	0	4	47	9	82	67	0
OTU 37	0	6	3	13	0	1	0	15	102	3	20	4	1	2	0	0	0	3	13	4	0	2	61	0	9	1	0	10	2	0	21	0	0	11	0	20	0	0	1	104	0	68	10	12	2	29	0	2	1	31
OTU 38	41	176	68	5	19	3	18	25	62	9	13	20	42	11	14	9	6	18	2	19	46	11	131	0	1	2	38	1	26	0	34	50	23	19	39	46	25	175	2	0	15	0	9	18	42	14	72	38	21	3
OTU 39	0	15	0	1	0	0	78	0	6	5	0	0	39	5	5	5	1	2	0	0	0	2	0	1	0	0	0	0	0	0	0	68	1	7	5	2	0	0	0	8	0	3	0	0	0	2	4	0	1	1
OTU 40	423	9	29	11	285	1	13	27	18	29	0	21	23	9	52	82	5	157	71	2	14	5	12	8	3	88	40	77	84	8	4	0	27	11	21	22	15	15	2	83	71	10	2	6	2	47	14	34	92	28
OTU 41	57	52	0	20	29	1624	46	0	12	17	18	16	62	8	32	31	0	24	9	0	36	1	1	0	2	12	8	5	9	0	6	7	5	0	6	5	4	39	5	16	6	20	1	37	7	10	3	2	74	2
OTU 42	4	22	3	0	1	1	0	5	56	1	0	7	2	0	22	4	0	17	0	14	20	12	71	2	0	0	0	0	21	24	0	0	1	0	79	0	0	0	5	0	34	7	0	0	0	3	0	22	3	0
OTU 43	0	0	0	0	0	0	0	0	0	0	0	0	0	0	0	0	0	0	0	0	0	0	12	0	0	13	0	0	0	0	0	0	0	0	0	0	0	0	1	0	0	0	0	0	0	0	0	0	0	22
OTU 44	0	5	28	0	7	15	0	1	0	0	0	36	2	0	72	0	74	6	0	0	0	8	1	0	0	0	1	3	21	0	25	4	12	7	0	1	0	2	28	0	39	16	0	3	0	0	0	0	0	3
OTU 45	403	54	243	1	475	14	15	124	8	17	264	9	21	11	725	5	49	39	68	9	53	294	41	2	86	2	4	2	54	21	48	289	66	52	50	1	19	8	46	41	262	51	47	1538	7	0	27	21	1420	61
OTU 46	39	5	5	27	17	5	18	143	49	1	0	23	16	1	38	45	90	138	2	21	6	13	36	122	89	88	39	39	3	2	22	2	0	28	46	2	7	89	6	3	52	33	2909	67	271	0	70	1	3	0
OTU 47	180	0	0	0	0	0	7	2	0	4	0	0	13	1	0	75	26	22	13	1	0	0	0	1	1	0	55	0	0	0	0	0	0	1	6	4	0	0	23	2	2	0	0	3	0	0	0	0	0	0
OTU 48	18	23	181	25	3	1	1075	64	44	25	24	0	71	9	182	23	9	20	1	22	1	109	4	57	5	47	8	14	38	31	74	55	36	28	17	4	10	107	13	14	1	32	26	17	43	32	24	68	169	4
OTU 49	38	38	1	0	4	0	3	0	0	0	19	3	4	0	1	12	9	13	111	12	12	2	2	0	0	0	18	0	10	4	0	50	0	0	17	12	1	2	9	11	0	0	1	4	10	1	14	4	0	2
OTU 50	15	39	4	101	71	1	43	71	72	18	11	11	103	6	61	39	9	90	34	13	82	19	114	24	0	14	15	6	41	1	2	78	4	6	82	1	6	156	3	80	54	92	54	25	32	24	6	19	24	0
OTU 51	10	0	5	0	0	2	2	3	72	17	1	1	3	8	14	133	10	14	141	6	29	1	120	3	11	18	39	1	38	130	8	24	21	13	118	22	32	6	46	9	5	115	2	3	11	9	1	5	0	10
OTU 52	100	23	9	32	90	180	81	11	89	7	27	348	74	4	130	257	14	76	233	17	246	10	2	116	40	45	167	28	7	206	35	103	77	43	52	11	9	175	2627	33	9	17	17	2	107	58	33	71	86	23
OTU 53	0	0	0	0	0	0	0	0	0	0	0	1	0	0	0	0	0	0	0	0	0	0	0	0	0	0	0	0	0	0	0	0	0	0	0	0	17	0	0	0	0	27	2	0	0	0	0	0	0	0
OTU 54	182	38	36	24	48	120	12	4	2	11	143	353	59	7	187	140	63	5	50	39	44	156	84	34	15	5	49	18	39	93	36	144	86	15	73	1852	33	51	49	1	8	14	6	38	19	27	67	231	6	19
OTU 55	0	0	0	0	0	0	0	0	0	0	0	0	0	0	0	0	0	0	0	0	0	0	0	0	323	0	0	0	0	0	0	0	0	0	1	0	0	0	0	0	0	1	0	0	0	0	0	0	0	150
OTU 56	0	2	45	13	0	52	68	8	12	17	6	92	17	4	0	15	6	23	16	2	46	5	11	1	82	62	0	20	6	0	1	25	1	58	1	6	2	5	3	38	3	0	0	6	23	0	22	0	16	36
OTU 57	41	144	10	39	231	148	122	269	72	99	297	217	171	50	3	199	77	53	12	20	161	10	63	76	53	161	38	23	13	49	1773	165	9	22	449	56	82	70	23	211	96	102	127	39	74	196	289	221	116	74
OTU 58	4	1	19	0	5	17	0	3	47	5	0	20	37	5	21	40	0	3	85	0	68	5	0	99	1	14	18	10	76	85	27	69	137	73	0	10	23	1	93	8	2	6	13	0	34	126	9	0	15	0
OTU 59	35	57	2	14	2	0	1	0	16	3	25	3	43	1	16	74	211	0	28	43	33	3	346	53	1	27	2	6	12	73	6	13	2	3	104	9	14	295	0	27	13	36	0	5	32	20	2	0	2	5
OTU 60	10	5	50	14	56	91	92	246	99	6	21	106	32	4	72	138	85	16	2	187	114	322	2	42	1460	1	61	0	11	19	29	114	2	7	37	9	44	8	51	44	3025	148	128	1331	39	33	24	31	37	663
OTU 61	272	137	110	117	3	10	26	10	124	49	15	45	11	29	335	61	20	91	55	94	22	137	24	45	12	63	9	21	20	216	0	2	30	24	44	16	47	557	24	94	65	29	7	14	3	3	2072	133	40	16
OTU 62	0	0	0	3	0	0	0	7	47	15	0	0	0	8	0	284	2	3	17	0	12	26	0	19	0	6	79	0	0	6	1	0	28	0	4	0	0	17	15	0	0	0	9	0	49	0	1	1	61	9
OTU 63	129	114	36	1	62	9	8	1	0	7	105	11	12	6	8	28	22	16	1	3	2	22	2122	1	8	0	4	0	0	0	0	1011	24	3	59	0	13	13	48	182	0	0	0	32	12	0	0	13	4	25
OTU 64	107	21	75	95	69	30	223	28	48	28	2001	41	2	20	53	87	34	23	20	36	50	143	38	87	15	2	66	4	87	93	4	136	18	4	74	3	16	313	2	24	31	46	20	22	10	79	54	53	68	4
OTU 65	0	0	0	0	129	0	0	2	110	0	0	0	10	0	11	16	8	0	0	0	0	7	0	0	3	0	7	0	0	0	0	0	0	0	0	0	0	0	0	0	0	30	0	0	0	0	0	1	0	0
OTU 66	49	2	0	3	39	19	48	5	1339	2	3	116	142	1	13	7	945	163	90	92	108	3	332	59	9	83	14	57	8	30	14	206	3	87	6	45	35	43	5	0	27	7	4	2	30	9	0	6	1	22
OTU 67	41	24	0	44	3	27	10	46	86	3	28	34	3	0	22	159	21	13	222	567	4	48	11	36	135	0	42	3	4	145	17	55	23	2	38	7	494	0	14	49	27	16	23	5	590	44	3	17	1	7
OTU 68	4	0	7	170	91	0	114	326	13	123	239	0	28	73	5	21	26	16	0	8	12	16	12	41	1	0	8	4	0	4	20	31	0	41	9	10	17	1	0	148	9	0	138	81	197	142	19	0	67	22
OTU 69	6	1	24	19	64	38	4	50	3	16	58	128	97	8	85	0	4	58	133	22	2689	42	63	24	27	13	0	16	81	301	4	8	6	28	178	62	10	205	7	27	68	72	31	17	3	0	0	93	16	63
OTU 70	16	8	15	0	10	1	34	83	21	60	76	7	77	33	18	0	41	213	4	0	0	6	0	0	51	10	4	2	0	1	0	9	0	3	6	34	10	74	1	0	100	12	35	59	1	0	22	3	1	9
OTU 71	19	5	142	62	473	2	0	22	38	15	5	12	2	15	0	0	0	5	6	35	1	0	2	1	6	0	2	0	3	10	0	13	2	0	10	0	0	27	0	66	2	3	9	1	3	6	0	1	153	9
OTU 72	46	14	20	43	42	18	39	111	9	20	8	39	0	11	36	8	29	149	0	10	5	39	53	11	5	14	2	16	5	13	3	80	34	4	164	5	4	339	18	66	17	32	72	19	1	32	18	68	3	18
OTU 73	17	41	40	9	9	4	67	51	74	15	0	22	257	9	96	45	20	11	0	75	9	12	21	3	23	2	458	8	19	160	3	0	27	6	145	2	30	18	23	40	187	25	17	46	4	0	88	7	8	39
OTU 74	1	13	15	53	65	18	97	12	25	2	0	31	78	0	4	2	30	87	24	19	7	7	18	15	18	62	20	32	4	2	18	0	8	120	18	22	1	87	31	11	1	17	3	4	5	8	0	10	64	2
OTU 75	9	15	17	227	80	45	28	36	74	326	123	83	148	166	12	74	228	15	2	16	172	81	4	13	84	0	13	7	43	0	31	48	11	10	88	15	31	1	17	111	89	288	25	90	29	92	44	4	17	38
OTU 76	45	10	1	2	0	0	18	2	33	4	0	1	0	2	0	3	4	0	0	0	0	0	27	12	1	15	0	9	2	17	11	0	0	6	155	29	0	12	7	48	0	5	3	22	0	17	3	0	0	2
OTU 77	170	21	32	180	1	22	772	43	29	71	5	45	30	30	2	5	12	0	14	4	35	38	79	70	0	74	7	30	3	11	44	53	18	25	4	23	7	0	35	14	65	394	17	11	48	1	55	57	67	31
OTU 78	17	56	2	65	148	5	31	29	44	11	53	40	37	5	28	302	22	46	156	42	41	2	21	0	0	2	252	16	4	0	0	97	17	0	220	0	28	96	6	139	3	11	22	45	46	0	14	114	1734	9
OTU 79	212	63	138	474	89	2663	39	138	67	138	1184	145	155	79	289	95	91	158	77	34	125	172	84	4	151	122	551	197	150	59	39	95	745	121	668	44	49	114	96	815	166	111	100	127	33	738	51	351	43	39
OTU 80	82	73	46	16	5	19	8	37	35	17	45	0	1	9	119	91	8	191	47	9	24	58	245	49	51	1	63	5	171	11	58	120	123	5	17	5	2	27	129	135	0	31	8	1	139	15	17	7	2	8
OTU 81	240	60	22	178	46	1	41	117	95	24	53	11	12	11	33	63	30	249	56	9	18	2	66	21	6	4	45	12	19	2	25	169	3	31	16	0	16	74	50	53	77	41	77	1796	20	18	245	136	16	40
OTU 82	101	43	55	0	7	47	16	64	28	34	0	111	6	19	122	30	15	169	52	17	5	13	8	29	41	2	16	10	1108	145	2	0	842	103	6	14	2	68	957	60	43	5	27	20	53	33	96	7	134	2
OTU 83	1	0	0	8	0	0	0	0	24	7	0	0	0	7	0	0	56	0	0	0	0	0	0	4	3	29	0	2	0	0	0	2	0	4	0	2	0	0	1	0	2	99	0	0	0	1	0	241	3	0
OTU 84	3	15	0	7	10	4	4	9	6	3	1	35	0	1	1	15	7	25	2	3	1	76	292	48	4	16	8	3	0	14	0	7	5	3	74	2097	27	299	6	13	49	11	4	532	11	4	1	2	78	1
OTU 85	0	25	10	1764	0	11	1	0	3	0	0	14	1	0	50	3	1	0	0	1	21	3	4	6	2	51	0	29	13	0	26	4	27	0	0	98	0	0	31	3	1	3	1	0	3	110	0	0	0	20
OTU 86	0	0	15	0	0	1	0	0	0	0	0	0	0	0	39	0	0	0	0	0	0	9	0	0	0	0	0	0	0	65	0	0	0	2	20	4	0	0	0	0	0	0	0	0	0	0	0	0	0	0
OTU 87	246	142	0	46	13	5	73	0	0	4	1	32	41	2	22	19	0	155	1	0	0	0	4	0	1	0	4	0	0	0	6	4	0	0	0	0	0	0	1	25	0	0	1	0	3	1	23	7	3	0
OTU 88	2	3	0	0	22	12	0	18	112	0	0	14	1	0	3	0	0	0	0	0	34	14	1	0	1	0	0	0	0	0	0	0	2247	0	0	0	0	0	3	0	0	6	9	3	0	3	0	0	0	1
OTU 89	616	59	1	0	10	0	65	1	0	0	112	0	0	0	153	28	2	319	15	3	153	54	1	5	5	0	11	0	42	6	2	0	2	26	3	0	25	14	0	5	0	0	0	1	0	0	0	48	12	0
OTU 90	0	3	0	1	7	0	1	18	2	3	0	0	0	2	0	0	0	27	0	0	313	0	0	0	0	0	1	0	0	0	0	0	0	9	0	0	0	0	294	1	40	0	1	0	3	3	1	0	0	0
OTU 91	1	0	1	21	0	0	0	0	0	0	19	0	0	0	0	1	0	0	0	0	0	0	0	0	0	0	0	0	0	0	1	3	0	0	0	2	0	0	2	0	7	3	0	0	28	0	0	0	0	0
OTU 92	0	2	0	0	16	0	0	0	15	2	31	0	0	1	10	1	8	13	0	0	18	38	2	3	1	1	0	0	0	0	0	3	0	0	15	0	32	5	1	137	0	21	1	6	0	31	0	24	8	0
OTU 93	0	11	0	0	2	0	0	8	0	0	0	0	0	0	0	0	0	15	0	4	0	10	0	6	2	0	0	0	0	0	1	0	0	0	0	0	0	0	0	73	2	1	2	11	15	0	0	2	0	11
OTU 94	45	6	13	8	5	18	104	84	7	44	45	32	11	19	66	165	104	30	11	167	11	1	120	1	48	13	51	6	16	79	13	11	4	30	9	12	27	63	1	145	9	79	34	50	72	33	64	5	81	110
OTU 95	1	0	11	1	13	0	4	722	0	127	10	0	457	72	38	24	3	0	3	0	0	49	30	0	113	39	4	6	0	0	0	0	0	3	31	2	0	46	0	0	326	0	370	178	0	3	381	6	35	64
OTU 96	0	0	3	0	0	0	0	0	0	5	0	0	20	1	0	0	28	36	21	0	0	1	38	0	0	0	0	0	0	0	16	0	5	4	0	0	0	0	8	0	0	0	0	0	0	0	0	0	0	39
OTU 97	29	4	0	7	0	1	1	8	0	0	2	0	0	0	0	0	4	0	0	1	6	0	34	0	7	6	0	0	1	0	22	0	0	0	11	0	20	4	0	0	4	6	3	0	4	0	8	45	0	1
OTU 98	6	38	0	2	57	0	1	17	97	0	4	0	0	0	0	5	4	0	1	43	19	5	0	5	1	22	3	1	10	28	0	17	0	15	0	0	54	4	0	68	39	5	5	8	32	0	7	3	0	2
OTU 99	23	62	35	14	69	56	95	174	80	6	15	119	82	567	157	21	23	14	152	28	120	3871	48	55	9	76	43	7	31	141	5	84	32	57	26	5	78	76	71	35	52	120	99	51	4	7	12	33	50	16
OTU 100	30	16	47	57	55	7	15	72	34	37	54	16	140	14	23	39	0	13	58	94	34	27	1	52	43	1	7	0	7	2	71	68	13	7	80	9	35	5	22	10	142	9	40	34	56	0	24	26	0	29
OTU 101	11	0	0	11	2	0	0	0	0	0	11	0	0	0	0	27	4	3	8	0	36	0	0	0	0	0	7	12	4	0	0	0	2	20	30	18	0	0	5	0	6	0	0	25	0	0	0	11	0	0
OTU 102	0	1	0	3	8	0	0	2	4	3	0	0	0	0	63	9	79	0	0	0	2	12	7	0	0	0	10	0	21	0	2	17	57	2	6	0	0	70	20	2	0	0	0	0	0	25	3	39	0	6
OTU 103	53	27	26	12	0	0	31	3	0	0	0	8	5	0	11	7	59	36	17	20	35	1	46	17	2	2	0	2	6	101	0	3	3	0	12	3	1	67	2	21	0	3057	0	0	0	11	54	79	16	28
OTU 104	43	36	19	156	86	619	89	119	113	24	8	981	9	10	23	66	51	8	288	12	77	61	76	68	14	32	33	21	41	0	22	34	2	11	149	13	173	4	6	3	15	38	88	0	9	24	159	71	30	32
OTU 105	15	6	27	3	33	9	1	7	0	1	3	49	0	0	0	82	0	2	5	9	31	0	11	0	0	0	71	0	3	16	0	1	0	0	3	0	0	0	0	0	0	7	0	0	0	0	3	0	0	0
OTU 106	0	0	25	2	1	0	1	2	1	0	0	1	1	0	15	1	0	2	0	10	0	18	0	0	0	24	0	0	0	0	0	0	0	92	0	4	1	92	0	0	2	16	0	0	1	0	1	1	0	0
OTU 107	16	1	3	2	1	51	75	6	115	1	3	109	17	0	27	4	0	38	19	1	1	0	47	83	0	16	0	0	0	0	20	1	10	30	1	3	0	0	3	1	18	19	0	7	7	7	3	98	0	0
OTU 108	0	129	1	16	11	1	70	30	17	19	149	3	3	18	5	5	521	0	1	20	119	0	11	344	18	172	0	107	2	0	110	3	2	174	0	115	1	10	7	7	4	6	9	37	20	82	32	43	16	40
OTU 109	0	0	0	0	53	0	0	0	54	0	0	0	0	0	0	0	0	0	0	0	0	0	0	0	0	0	0	0	0	0	0	0	0	0	0	0	0	0	0	0	0	0	0	0	0	0	0	1	0	0
OTU 110	277	94	33	50	30	47	29	42	19	15	45	67	119	12	102	2	47	55	2	6	30	73	5	0	59	1	0	1	46	21	4	38	76	0	35	2	123	14	18	0	4	1	40	41	12	7	3	178	7	12
OTU 111	4	0	0	0	4	19	0	0	10	0	14	3	0	0	0	0	2	0	6	0	51	0	8	37	1	7	3	0	0	0	0	1	0	0	4	0	2	0	1	0	7	22	0	20	0	0	0	78	0	0
OTU 112	75	0	3	1	113	2	62	0	6	16	0	9	87	16	13	7	1	72	20	1	177	3	23	0	12	6	4	7	32	132	0	0	0	0	3	0	10	6	20	0	1	11	1	0	5	0	5	2	24	12
OTU 113	3	11	2	7	8	0	0	32	0	1	0	0	0	1	0	2	0	15	0	0	0	3	0	8	0	0	10	1	0	0	0	7	0	0	0	0	0	0	10	23	0	0	9	0	1	0	0	3	0	0
OTU 114	1	12	4	6	14	0	48	25	585	5	33	6	72	4	154	4	1486	30	104	95	182	128	132	22	31	24	0	6	8	208	1	227	0	109	5	2	63	16	6	9	88	77	15	52	7	1	25	47	52	60
OTU 115	42	76	44	53	125	125	116	15	87	11	130	138	101	3	20	143	68	100	135	38	73	13	22	43	59	14	113	5	41	20	8	38	11	22	48	39	68	266	17	60	33	0	7	140	0	97	11	182	114	22
OTU 116	40	1	25	14	36	46	47	8	24	29	58	113	51	14	9	14	2	78	39	53	12	1	3	12	88	38	33	2033	57	3	5	18	2	78	22	3	21	33	29	5	35	6	2	37	9	16	30	111	3	3
OTU 117	5	12	2	2	13	8	9	0	102	4	14	16	2	4	205	73	6	2	29	12	11	114	50	17	4	9	39	3	15	5	6	270	41	0	16	4	48	6	16	102	11	69	0	15	5	38	38	211	2	3
OTU 118	8	0	24	2	0	15	0	0	1	0	0	46	0	0	0	0	0	0	0	10	6	0	6	5	0	2	5	3	0	139	4	0	9	0	0	11	0	42	9	0	0	0	0	0	0	0	0	1	8	1
OTU 119	110	22	95	12	20	18	43	70	34	2	0	8	95	1	24	40	29	293	1	9	31	0	8	15	37	17	26	0	8	9	2	26	33	45	4	2	27	2	12	30	2	7	21	0	182	4	10	42	36	9
OTU 120	4	1	6	145	174	2	0	1	7	0	16	0	0	0	33	1	1	0	0	7	0	22	1	0	0	0	2	0	8	1	0	8	108	1	11	1	48	119	3	6	0	2	0	14	0	35	34	7	1	0
OTU 121	531	176	3	3	101	0	133	15	127	13	22	4	1	6	188	21	1	279	72	15	26	43	5	56	2	1	13	5	0	3	1	3	41	0	4	0	9	14	7	3	1	4	12	0	0	25	28	7	11	13
OTU 122	19	70	26	44	121	33	71	167	43	24	0	88	17	9	8	55	2	3	64	16	83	32	202	2	97	7	12	0	0	70	9	8	9	23	18	1	16	109	0	8	109	53	92	65	27	0	91	4	0	84
OTU 123	58	200	167	22	1022	60	62	86	227	26	111	127	83	11	217	189	117	52	224	30	545	116	411	93	32	25	131	30	90	619	188	173	121	166	170	29	1	393	107	394	21	81	30	25	71	93	16	792	416	90
OTU 124	0	8	0	17	0	1	8	0	1	1	3	0	0	2	38	0	8	0	23	0	21	34	2	1	0	2	0	2	2	11	8	1	0	29	0	6	14	1	5	0	0	17	0	0	0	8	0	0	51	0
OTU 125	300	67	247	1038	101	153	157	134	106	51	126	254	2121	22	184	216	277	240	260	73	129	113	77	39	176	22	180	27	1041	212	67	125	2327	42	78	77	1	167	1097	1772	156	205	50	135	48	123	155	121	158	36
OTU 126	0	0	8	7	76	0	0	70	37	23	3	0	0	8	37	18	0	0	8	0	0	68	3	0	0	0	0	0	23	0	0	0	0	9	33	0	1	0	0	56	58	122	23	28	0	2	15	0	0	22
OTU 127	7	38	90	9	5	86	115	12	18	0	9	136	3	0	8	0	4	1	19	5	2	1	5	15	4	16	0	0	1	9	35	28	2	11	50	6	2	9	0	0	0	7	8	0	15	6	4	33	1	3
OTU 128	57	585	111	150	295	19	229	192	189	114	361	29	152	50	68	68	54	943	170	99	117	66	92	178	29	557	19	209	3449	248	309	249	5	632	187	200	222	75	115	107	176	358	90	112	30	38	418	237	75	70
OTU 129	0	80	2	2	1	19	0	475	0	119	0	41	158	58	0	0	5	0	0	0	0	0	1	17	108	0	0	0	3	1	0	41	0	0	0	6	0	10	0	0	92	0	238	45	1	0	204	10	2	54
OTU 130	18	2	127	6	48	1	13	16	0	2	35	0	0	1	151	96	13	4	10	4	7	12	0	17	9	2	30	14	91	0	3	76	65	2	0	0	0	30	47	46	0	446	7	0	9	0	19	101	1	20
OTU 131	0	13	12	49	4	238	22	153	85	17	9	537	23	12	29	29	4	4	301	0	14	2	47	4	25	0	14	2	3	6	1	25	33	53	180	2	28	57	46	5	87	40	105	55	13	24	27	433	1	34
OTU 132	0	3	0	83	9	0	0	0	2	1	50	13	0	0	8	63	1	1	0	4	12	0	51	36	6	9	39	1	1	4	46	18	2	22	5	6	4	49	1	181	12	39	2	1	0	9	17	85	0	1
OTU 133	88	0	47	0	18	0	0	1	0	0	2	0	1	0	0	32	0	10	0	23	0	0	0	0	0	19	7	6	0	1	2	2	1	0	1	3	38	0	0	1	0	0	0	3	142	1	0	0	0	2
OTU 134	3	6	4	19	61	19	39	140	71	7	399	66	74	5	12	42	20	28	0	90	39	1	0	249	83	30	17	32	1	1	40	28	1	70	5	34	69	132	4	24	187	363	75	120	0	2	27	41	4	1
OTU 135	47	58	16	25	38	7	17	0	74	15	33	6	4	6	32	5	73	25	8	11	115	17	12	6	12	43	3	6	3	27	8	9	11	2	23	4	0	103	3	1	36	62	5	16	25	39	38	52	4	6
OTU 136	51	0	2	0	60	14	8	5	0	12	32	35	14	3	5	1	1	9	18	562	0	0	5	0	4	0	3	3	44	0	0	3	12	8	201	0	558	135	6	49	1	9	7	11	931	16	4	44	4	1
OTU 137	0	1	2	0	29	31	44	0	10	1302	1	48	46	612	9	50	13	3	0	0	11	0	5	4	1	1	10	1	2	2	0	0	0	0	0	0	0	0	0	3	3	1	0	0	2	118	1	7	4	3
OTU 138	4	22	1	40	73	1	16	0	116	6	4	0	7	7	31	49	2	8	236	11	0	1	0	0	0	0	9	2	18	4	2	0	0	26	13	13	6	0	5	14	2	53	0	0	8	10	2	11	0	0
OTU 139	289	112	150	77	208	55	124	182	263	151	29	109	73	64	948	63	12	147	271	14	36	547	19	1548	38	70	17	69	790	68	623	216	211	57	71	46	11	3	208	24	48	69	87	62	20	8	191	95	66	42
OTU 140	154	3	96	106	158	103	14	64	136	33	32	214	125	15	60	37	15	12	43	73	44	36	131	139	19	35	66	31	35	80	41	172	44	93	322	19	4482	72	59	236	2	209	20	26	74	105	36	39	15	1
OTU 141	0	0	0	0	0	7	0	0	0	0	0	13	0	0	0	0	0	0	0	0	0	0	0	0	0	0	0	0	0	0	0	0	0	0	0	0	0	0	0	0	3	0	0	0	0	0	0	0	0	0
OTU 142	1	0	0	0	0	0	0	0	0	0	13	0	0	0	13	0	0	0	3	0	0	0	0	0	0	0	0	0	0	0	0	0	0	0	0	0	0	2	2	0	28	3	0	0	0	0	0	0	0	0
OTU 143	1	0	0	8	1	13	4	0	0	0	43	26	25	0	0	45	46	3	0	2	1	4	15	1	2	14	9	0	0	3	0	0	0	1	1	0	0	65	14	5	23	0	0	0	0	14	0	15	0	0
OTU 144	102	5	1	1	0	3	2	17	6	0	2	0	18	0	0	3	23	1	4	0	0	0	0	29	17	4	3	0	2	0	0	0	0	0	0	0	0	33	2	5	0	7	13	4	7	1	0	0	10	0
OTU 145	81	1415	27	35	9	29	46	2	0	45	35	25	42	28	46	109	30	1832	33	6	71	30	40	1	100	9	59	4	37	28	7	28	44	0	5	1	3	1	13	5	21	11	4	3	117	24	22	279	12	44
OTU 146	74	9	47	14	0	0	4	92	121	2	8	0	55	1	74	11	12	9	45	14	3	79	49	10	41	3367	15	1973	18	0	16	21	37	17	3	1906	0	2	46	17	4	49	46	10	33	68	6	8	14	1
OTU 147	1	0	0	13	29	1	0	0	2	0	8	0	43	0	4	1	9	0	0	0	8	0	9	0	1	3	0	10	9	1	1	25	11	3	2	1	7	0	5	3	0	42	0	0	0	0	54	2	9	1
OTU 148	13	8	7	48	72	0	4	57	13	13	1	0	3	12	57	4	3	20	11	11	31	9	68	2	1	0	0	0	17	155	18	73	56	1	23	0	7	150	18	15	0	28	37	32	144	22	1622	233	0	0
OTU 149	0	7	0	0	23	1	7	30	0	7	9	1	18	0	0	4	8	4	10	0	229	0	2	0	10	0	0	25	3	4	0	0	6	3	0	12	30	0	1	49	4	0	5	91	5	18	3	32	0	0
OTU 150	0	0	0	3	6	0	21	1	0	0	0	6	14	0	0	26	0	0	44	22	0	248	0	23	0	1	20	0	1	222	2	10	23	3	0	0	0	36	28	3	0	0	1	12	0	0	0	1	0	0
OTU 151	1	6	8	2	55	73	12	7	15	5	38	186	15	3	7	41	1	0	15	90	4	5	98	0	0	17	9	3	16	70	173	23	17	28	18	1	55	4	0	26	0	15	11	1	5	3	1	11	0	30
OTU 152	48	16	38	97	21	3	348	280	165	83	2	1	32	3067	107	44	6	96	42	13	42	13	0	8	213	51	24	48	32	0	0	1	0	10	0	10	0	0	5	92	163	56	161	75	6	24	97	11	173	58
OTU 153	0	0	0	1	1	0	2	1	0	0	0	2	17	0	0	0	0	0	0	0	0	0	1	0	9	0	0	0	0	17	0	0	0	0	0	0	0	0	0	0	0	0	1	0	3	0	0	0	0	15
OTU 154	0	0	0	0	16	1	0	7	0	0	10	9	3	0	0	10	3	0	0	26	0	1	3	0	0	1	1	0	40	0	6	0	2	0	0	0	5	41	0	0	30	0	4	8	29	0	30	0	0	0
OTU 155	2	0	42	0	5	0	2	44	0	0	73	0	12	0	0	17	19	34	13	0	0	0	3	0	0	11	4	0	0	260	12	1649	1	59	59	4	1	253	1	30	35	0	28	2	0	11	1	0	0	0
OTU 156	16	27	36	28	41	36	11	75	25	0	27	74	65	0	15	65	56	13	3	3760	23	3	12	1	61	2	47	4	42	0	54	3	4	11	20	3	10	71	5	223	19	8	23	0	13	5	146	113	71	4
OTU 157	5	0	0	10	1	2	0	8	6	0	24	1	23	0	7	0	13	22	4	99	3	0	0	2	16	21	0	1	2	39	0	3	0	1	1	1	39	0	0	0	85	0	5	40	7	1	19	153	29	2
OTU 158	0	0	0	0	0	7	0	0	0	0	0	12	0	0	0	0	15	49	0	0	1	1	0	0	0	0	0	0	0	0	0	0	0	0	0	2	0	15	0	4	0	7	0	0	1	1	1	0	9	1
OTU 159	126	91	0	24	26	0	73	13	0	2	7	4	59	0	0	733	8	0	4	0	25	4	161	123	426	16	387	0	0	5	24	42	0	9	5	23	25	3	1	4	40	24	8	37	19	18	59	3	55	133
OTU 160	194	147	101	34	42	21	204	135	219	75	210	53	63	31	30	192	34	111	39	74	20	33	131	7	24	63	136	17	34	187	11	139	2	69	162	16	27	18	0	32	109	86	70	76	26	116	47	42	137	23
OTU 161	0	56	2	12	70	112	118	27	17	53	12	132	7	29	4	31	53	0	20	1	78	6	32	9	15	2	0	0	38	46	78	0	0	0	97	2	0	0	1	32	3	1	19	11	39	69	30	0	56	7
OTU 162	50	401	1	75	5	4	14	144	19	15	10	9	109	5	36	29	11	14	79	11	50	0	154	3	76	23	21	25	26	15	7	10	2	62	34	2	10	201	5	150	38	27	61	4	11	34	21	49	26	1
OTU 163	1	0	26	0	0	0	0	0	0	0	0	1	0	0	0	0	0	0	0	2	0	0	0	31	0	6	0	0	0	0	0	0	0	0	0	0	0	0	0	0	0	1	0	0	0	0	0	0	0	0
OTU 164	0	0	0	0	0	0	0	0	0	0	0	0	0	0	0	0	7	0	0	4	0	5	0	21	0	0	0	0	0	0	0	0	3	5	6	0	0	0	0	0	0	0	0	0	0	2	0	0	0	0
OTU 165	0	0	9	9	13	1	25	1	7	0	8	0	1	0	0	7	0	2	720	34	6	0	28	0	0	0	7	0	0	65	0	0	9	16	0	3	6	241	2	0	47	0	0	8	1	10	0	28	1	0
OTU 166	0	0	0	0	0	0	0	0	0	11	0	0	0	8	2	0	3	0	0	0	0	0	0	0	0	0	0	0	0	0	0	0	0	0	0	0	0	0	0	0	0	0	0	0	0	0	3	0	0	17
OTU 167	70	2	0	0	0	2	4	144	127	69	8	4	42	39	1	4	36	1	3	33	99	0	2	0	92	20	0	36	3	78	1	12	17	19	2	1	29	197	0	3	98	1	82	56	0	81	252	0	12	0
OTU 168	43	0	2	6	120	3	189	28	19	1	23	0	1	1	26	856	26	47	3	4	40	11	36	122	9	61	528	16	4	2	20	56	0	22	30	31	13	106	3	3	4	67	5	0	3	47	4	40	75	1
OTU 169	11	0	0	51	0	0	0	0	0	2	0	1	0	0	0	1	0	0	0	0	1	0	2	3	5	0	0	0	1	0	18	0	0	0	2	0	0	0	0	95	0	0	0	0	0	0	0	0	0	10
OTU 170	2	0	0	0	0	5	0	2	0	0	0	25	0	0	0	0	0	0	0	0	0	0	0	0	0	0	0	0	0	0	0	0	0	0	0	0	0	0	0	0	0	0	2	0	0	0	0	0	0	0
OTU 171	3	2	1	34	6	55	31	62	69	0	15	56	13	0	8	0	20	13	2	4	9	0	18	23	3	1	12	8	0	36	1	13	0	3	1938	8	2	311	6	0	4	0	36	0	0	24	0	2	1	14
OTU 172	3	0	0	0	32	0	12	13	0	0	0	2	0	0	0	0	0	0	90	0	0	0	11	0	0	0	0	2	0	44	0	1	1	0	0	0	0	0	0	0	2	0	0	0	0	0	9	0	0	0
OTU 173	0	1	4	8	43	0	0	1	32	0	1	0	0	0	16	2	15	1	15	1	0	0	56	6	3	12	4	0	9	93	4	24	1	4	0	451	1	45	0	3	0	30	1	0	9	0	0	1	0	0
OTU 174	116	87	0	96	262	14	643	123	0	67	87	57	1	24	242	3	5	29	0	0	32	139	176	45	8	21	1	0	1	13	53	107	63	0	2	2	0	0	25	197	23	1	64	72	38	0	20	39	8	54
OTU 175	0	1	34	0	0	39	10	0	57	0	2	58	10	0	6	1	28	2	5	9	7	2	1	23	0	5	0	11	29	14	0	4	3	1	59	4	0	12	18	35	0	16	0	0	0	14	4	5	41	0
OTU 176	8	8	8	0	83	4	85	8	29	6	125	11	56	2	115	10	61	6	115	3	29	43	39	2134	2	11	11	36	12	101	1442	56	22	86	9	20	11	297	8	15	11	116	2	4	4	1	23	69	69	44
OTU 177	48	3	34	20	42	0	13	38	64	1	56	3	52	1	115	125	23	7	0	0	9	19	6	22	2	36	48	9	73	135	3	0	11	0	150	0	43	4	14	34	0	15	1998	5	4	71	4	21	4	2
OTU 178	0	0	2	48	12	0	0	82	0	0	4	0	3	0	1	2	31	0	17	0	19	7	26	22	3	10	0	0	6	32	16	8	50	0	153	0	0	2	18	80	28	5	28	0	0	2	17	6	0	25
OTU 179	8	7	0	0	2	0	10	288	95	42	43	1	50	28	27	69	62	7	10	1	3	2	28	1	40	37	17	33	7	0	2	68	15	128	10	3	10	0	8	0	21	13	107	0	32	22	2	37	5	0
OTU 180	89	28	1640	31	295	147	42	147	244	1755	142	158	48	873	10	859	310	41	61	1125	128	62	26	155	8	110	408	52	176	26	116	240	10	147	17	156	519	55	41	465	161	105	50	128	376	38	82	74	591	73
OTU 181	11	0	0	32	10	6	15	14	64	12	35	0	55	13	4	0	30	1	15	0	4	0	6	37	4	8	0	15	3	14	6	13	0	3	1	15	0	15	0	5	14	1	8	0	1	4	21	30	11	108
OTU 182	0	0	0	0	0	0	0	0	0	14	0	0	1	7	16	1	0	0	1	0	0	0	0	0	0	1	0	0	0	7	0	0	0	0	0	0	0	0	0	0	0	3	0	0	0	0	0	47	0	0
OTU 183	88	0	113	5	16	5	33	99	8	12	0	10	5	5	156	0	33	51	36	25	3	187	0	0	92	3	3	2	25	85	11	0	20	5	1	2	11	19	39	3	51	73	38	17	5	16	61	2	0	19
OTU 184	0	0	0	15	1	6	36	29	1	3	0	22	0	3	68	47	0	0	6	0	3	33	0	5	9	0	2955	0	0	11	6	0	0	8	0	6	1	0	5	3	3	0	30	1	22	0	0	121	14	0
OTU 185	106	1	121	2	2	1	110	57	8	15	13	3	156	8	53	127	121	19	1826	7	7	33	17	2	80	3	83	3	7	41	14	13	4	62	50	4	7	187	2	51	59	28	31	11	22	33	0	324	2	3013
OTU 186	0	6	0	1	124	1	0	53	0	0	5	0	16	0	1	64	0	9	0	1	10	0	0	0	481	0	49	4	28	36	4	2	3	1	33	6	0	20	1	4	744	0	32	598	3	0	147	34	23	296
OTU 187	30	1629	18	26	44	15	182	142	205	40	241	31	11	18	54	196	51	20	4	32	48	46	9	37	18	475	97	310	23	19	4	10	99	994	42	166	17	71	1449	9	92	4	72	30	94	7	1	60	22	18
OTU 188	29	77	16	23	11	36	32	4	493	47	147	83	34	18	0	197	15	70	91	35	10	35	235	67	68	24	99	3	4	38	26	165	33	12	84	39	0	213	24	75	8	0	4	5	66	57	13	25	60	23
OTU 189	39	24	2865	197	52	84	179	34	351	21	44	143	146	11	6	26	26	0	40	0	157	7	239	32	2	42	10	28	21	56	24	45	17	61	23	58	27	29	14	9	51	161	26	45	5	3	24	9	88	11
OTU 190	2	209	0	5	1	0	6	84	0	10	5	0	0	2	1	0	0	214	0	7	0	0	0	1	13	4	0	0	10	2	7	4	0	10	27	0	0	0	0	0	0	0	46	0	0	0	0	0	0	0
OTU 191	126	26	93	11	31	84	19	2	17	11	74	114	56	12	24	23	24	7	83	100	119	14	0	105	3	39	23	3	18	10	43	206	45	76	56	8	26	133	44	9	13	408	1	0	8	13	44	0	412	6
OTU 192	127	272	26	1386	75	13	12	357	11	24	19	49	206	12	143	92	19	140	58	37	80	30	87	58	249	19	43	13	19	84	15	68	80	113	21	25	64	3	84	61	364	30	245	206	29	7	148	76	8	89
OTU 193	34	13	90	10	16	5	50	32	12	4	82	23	0	1	0	0	1005	0	29	25	57	1	171	11	31	41	0	32	22	33	0	35	3	0	71	23	23	46	9	16	4	34	7	77	98	10	89	3	28	23
OTU 194	1	12	25	4	5	0	20	29	19	17	0	1	24	9	20	33	26	44	27	1	6	9	2	3	5	0	3	0	4	0	16	17	18	0	51	3	6	0	26	0	82	37	9	11	3025	2	20	37	0	4
OTU 195	10	18	154	46	7	0	133	0	0	0	69	0	0	746	188	2	23	0	4	7	310	218	101	5	3	0	3	6	127	33	0	26	67	1	13	17	0	4	68	25	10	1	0	12	29	22	26	38	5	0
OTU 196	6	14	1	103	16	28	24	84	21	14	25	52	5	6	8	15	17	6	10	20	18	4	25	153	25	58	0	13	1	2140	47	59	1	197	12	28	72	0	0	54	12	18	36	6	97	1	30	1	33	1
OTU 197	84	131	69	60	102	6	111	47	95	8	28	30	62	2	129	36	186	18	94	18	66	76	56	29	57	3	41	39	22	105	33	25	76	53	634	10	9	41	16	92	25	116	16	11	24	16	247	95	35	15
OTU 198	4	61	0	0	12	5	0	79	35	9	24	27	0	4	1	0	116	63	3	0	0	3	0	4	23	1	2	0	0	16	10	0	1	32	12	0	1	0	0	2	67	0	35	0	0	3	0	124	0	13
OTU 199	0	45	24	85	0	16	25	89	61	5	20	76	4	2	75	1	1	2	0	5	0	55	129	3	2	0	1	0	4	18	2	0	3	0	18	0	0	4	0	0	0	61	66	8	19	16	0	7	0	0
OTU 200	76	45	19	72	61	1	26	40	1	17	6	20	1	6	21	83	11	12	43	27	5	0	46	0	0	1	32	6	22	2	10	0	25	21	49	8	137	0	8	101	40	15	11	64	3	1	43	12	0	2
