	Host 1	Host 2	Host 3	Host 4	Host 5	Host 6	Host 7	Host 8	Host 9	Host 10	Host 11	Host 12	Host 13	Host 14	Host 15	Host 16	Host 17	Host 18	Host 19	Host 20	Host 21	Host 22	Host 23	Host 24	Host 25	Host 26	Host 27	Host 28	Host 29	Host 30	Host 31	Host 32	Host 33	Host 34	Host 35	Host 36	Host 37	Host 38	Host 39	Host 40	Host 41	Host 42	Host 43	Host 44	Host 45	Host 46	Host 47	Host 48	Host 49	Host 50	
OTU 1	16	135	119	0	50	43	0	88	5	37	92	0	0	84	3	20	73	62	67	39	1	309	2	73	0	8	3	24	18	136	94	158	61	74	0	75	25	5	31	2	0	40	131	39	109	36	27	29	32	46
OTU 2	0	0	1	0	69	10	0	0	2	0	1	41	27	1	1	38	17	39	3	9	0	0	0	0	3	17	21	15	0	100	3	6	23	0	5	2	0	19	9	14	26	1	4	48	0	26	2	0	9	8
OTU 3	1	0	0	1192	7	0	27	2	0	0	3	14	0	2	0	3	0	0	20	22	3	0	6	0	7	22	1	0	1	0	17	4	0	0	0	1	0	0	0	13	13	5	0	2	1	0	0	1	6	29
OTU 4	0	0	0	0	0	0	0	0	0	0	0	0	0	0	0	0	0	0	0	0	0	0	0	0	0	0	0	0	0	0	0	0	0	0	0	0	0	0	0	0	0	0	0	0	0	0	0	0	0	0
OTU 5	62	45	7	107	512	442	442	79	76	398	851	233	506	250	0	805	415	91	6	597	0	12	166	149	169	539	95	124	98	107	221	3	2835	406	147	510	32	377	120	84	88	28	208	80	21	143	287	1580	385	318
OTU 6	8	4	45	5	11	20	3	26	68	0	23	4	33	17	14	82	37	53	29	32	4	75	18	13	109	4	18	0	3	26	39	8	19	0	0	24	32	21	5	4	108	33	20	0	45	6	254	1	0	1
OTU 7	70	138	567	19	119	2	34	108	192	32	70	41	270	18	67	118	2	55	163	54	37	94	26	24	58	252	100	17	36	80	131	69	1	107	6	38	4450	97	82	34	183	169	89	90	23	103	98	40	50	33
OTU 8	3	193	39	146	49	14	17	65	110	2	17	98	64	18	34	7	38	51	267	65	51	86	135	178	81	132	27	131	17	53	225	37	764	10	265	10	26	20	4	52	11	58	91	31	2	77	138	0	23	1
OTU 9	0	32	3	22	38	2	23	0	0	2	31	41	23	48	20	1	2	30	0	4	13	8	63	10	92	12	14	30	3	7	61	0	4	8	17	0	0	22	31	10	10	1	1	46	7	25	3	0	36	33
OTU 10	1	2	11	4	5	0	2	26	8	9	22	169	2	4	27	25	1	24	3	2	20	10	1	0	87	0	19	1	1	0	0	0	13	16	1	16	0	64	0	13	10	0	25	9	42	110	144	0	4	20
OTU 11	6	87	8	15	3	22	8	72	277	14	27	10	6	12	0	29	52	29	24	36	67	23	99	14	49	11	211	1	52	32	2	4	26	29	15	0	90	44	0	888	93	142	4	14	90	55	36	34	13	6
OTU 12	140	60	51	19	4	12	444	29	17	20	3	20	5	24	23	19	37	50	4	0	0	88	31	6	11	50	13	39	65	32	11	4	32	31	32	10	67	142	22	38	25	135	67	54	40	6	135	0	2	2
OTU 13	0	0	0	0	14	0	0	0	0	63	23	1	0	0	0	0	0	43	0	0	6	0	1	7	17	24	0	0	0	0	48	0	0	129	4	0	22	13	0	24	7	99	0	0	0	12	19	0	0	0
OTU 14	11	37	0	0	7	0	1	22	0	0	0	18	15	0	16	77	0	67	0	2	31	3	4	1	69	1	1	3	37	4	23	0	5	0	0	13	4	54	0	3	27	5	33	24	0	2	54	1	2	0
OTU 15	0	0	0	0	0	0	0	0	0	0	0	0	1	0	3	0	0	4	0	0	0	4	0	1	13	4	0	0	81	0	0	2	1	0	0	0	0	0	0	0	0	0	0	0	0	0	0	0	0	9
OTU 16	0	0	0	0	0	0	0	0	0	0	0	0	0	0	13	0	0	0	0	0	14	0	0	0	0	0	0	0	0	0	0	0	0	0	0	0	0	0	0	0	1	0	0	0	0	0	0	0	0	0
OTU 17	66	0	0	10	107	0	58	18	13	22	7	13	9	9	1	40	0	78	82	13	0	3	2	9	72	12	13	0	43	1	57	0	9	35	0	2	112	4	2	12	142	244	7	11	1	6	116	0	0	16
OTU 18	93	3	36	5	61	34	1	0	6	3	7	40	107	50	33	82	67	46	51	57	41	62	31	82	6	31	26	15	20	81	52	45	12	9	50	18	72	118	51	8	95	139	31	0	5	51	6	10	46	87
OTU 19	0	0	0	0	0	0	0	0	0	0	0	0	0	0	0	0	0	0	0	0	0	3	0	0	0	0	0	0	0	0	0	0	0	0	0	0	0	0	0	0	0	0	0	0	0	0	0	0	0	0
OTU 20	99	6	1	205	17	163	8	34	0	77	18	0	24	10	3	141	4	13	43	4	2	9	6	24	6	121	2	6	151	32	45	39	3	148	21	352	71	10	5	22	20	89	39	54	18	7	16	7	5	23
OTU 21	68	34	9	13	188	6	19	149	0	17	15	7	72	5	41	5	13	10	173	31	18	12	35	69	107	52	6	19	15	4	27	21	26	76	55	42	6	41	16	93	8	21	23	60	12	16	26	0	7	97
OTU 22	17	133	2	169	7	8	90	1	92	32	136	1	5	25	7	93	19	84	34	0	148	0	16	38	30	3	50	66	1033	10	10	225	7	62	22	40	46	97	36	6	280	62	60	0	11	23	21	77	17	31
OTU 23	23	6	18	16	17	20	2	25	0	0	40	16	42	54	0	46	35	30	14	32	5	30	0	11	17	12	20	40	0	58	35	37	3	1	76	0	23	22	22	31	0	35	0	261	76	1	102	28	47	75
OTU 24	15	64	0	4	3	3	21	0	15	1	0	1	37	1	0	18	8	20	0	16	783	0	0	19	34	5	0	67	37	2	139	3	7	4	255	7	2	21	4	37	19	4	0	15	0	4	19	0	31	6
OTU 25	0	0	0	0	0	0	0	0	0	3	0	0	0	0	0	0	0	0	0	0	0	0	0	0	0	1	0	0	0	0	0	0	28	0	0	0	0	0	0	0	1	0	0	0	0	35	0	0	0	0
OTU 26	0	3	0	0	5	0	0	1	0	0	0	0	13	0	0	14	0	0	8	1	0	0	0	2	0	8	16	0	1	8	0	0	0	4	3	2	0	1	0	0	0	0	5	5	0	1	110	0	0	2
OTU 27	0	0	0	0	0	0	4	0	329	0	0	0	3	0	0	6	0	0	0	4	0	0	0	0	0	1	0	0	17	0	0	0	1	0	0	0	0	0	1	0	0	0	12	5	0	0	1	0	0	0
OTU 28	10	9	25	40	18	42	18	0	79	5	204	2292	9	45	364	37	71	7	21	32	127	47	77	11	113	110	37	101	15	201	0	129	96	0	3	1387	3	8	36	39	28	6	109	30	81	21	132	109	30	95
OTU 29	27	100	20	22	49	10	69	34	21	21	58	11	55	130	6	6	33	19	10	71	103	83	13	23	2	0	111	93	77	197	50	17	8	89	6	60	19	155	42	12	44	20	84	31	25	65	98	59	180	39
OTU 30	0	0	0	2	0	0	0	0	0	0	0	0	0	0	0	0	0	0	0	0	0	0	0	0	0	0	0	0	0	0	0	0	0	4	0	0	0	0	0	0	0	0	0	0	0	0	0	0	0	0
OTU 31	119	50	2	22	7	0	1	0	0	6	0	0	0	28	0	11	2	0	12	1	164	17	15	3	69	0	0	0	11	6	0	7	0	0	13	0	1	0	5	0	12	3	2	0	2	3	2	0	1	6
OTU 32	78	35	29	51	22	68	36	54	57	57	34	42	10	33	87	51	126	32	81	41	84	61	9	40	35	5	26	59	395	117	135	0	72	87	14	29	35	11	63	44	62	69	102	217	81	19	3	12	90	36
OTU 33	147	40	0	2	0	0	0	0	0	0	0	0	0	0	0	0	0	0	0	0	5	0	0	0	0	1	0	0	0	4	0	0	0	4	0	0	0	0	0	0	0	0	0	0	0	15	0	1	15	0
OTU 34	4	10	10	76	170	5	58	117	28	2	11	54	20	0	2	12	3	101	37	87	0	28	140	35	28	12	0	0	13	25	2	0	9	2	64	70	3	4	8	405	3	1	135	27	4	71	26	0	15	21
OTU 35	0	591	9	24	54	2	1	58	8	35	6	9	60	1	34	10	11	2	35	21	1696	18	34	87	7	0	13	65	12	34	0	4	19	63	19	21	14	26	36	81	0	12	6	7	5	0	39	20	3433	2
OTU 36	7	36	17	951	23	10	54	103	16	4	2	0	0	5	1	9	27	5	6	42	229	15	9	77	111	184	42	23	11	63	11	60	33	7	0	19	1	5	33	136	80	21	9	23	4	29	73	1	18	7
OTU 37	20	3	0	0	0	0	90	1	0	0	0	1	0	34	7	0	0	0	0	0	0	0	0	5	11	57	2	9	37	0	0	0	0	1	0	0	0	10	0	36	1	13	1	12	2	33	0	0	0	3
OTU 38	192	4	15	16	5	1	0	28	7	28	11	18	16	1	1	694	3	78	98	19	41	15	6	12	21	51	67	11	220	134	43	2	12	51	12	14	17	4	13	13	102	29	3	706	2	44	45	11	50	30
OTU 39	0	0	8	2	0	0	0	0	39	8	2	0	1	1	1	0	0	0	34	0	2	8	76	8	1	4	0	114	6	0	14	9	1	1	17	31	11	0	6	11	0	21	56	0	4	2	8	0	0	0
OTU 40	50	56	11	22	85	8	183	9	15	0	25	28	0	20	1	97	14	16	16	0	154	17	3	1	32	66	8	62	25	1	30	9	14	4	2966	35	15	492	8	127	87	18	75	70	70	54	10	37	4	125
OTU 41	16	68	0	3	0	5	9	45	0	21	37	64	35	22	10	76	5	19	22	29	5	2	6	27	3	46	10	74	60	13	2	7	2	46	1	0	9	88	5	45	1	16	3	5	80	5	45	0	51	81
OTU 42	2	0	5	1	40	0	0	0	0	8	4	0	14	13	0	4	0	178	0	0	136	6	57	4	8	32	2	0	65	20	3	0	0	33	1	0	29	19	0	0	0	1	1	0	19	0	3	3	3	0
OTU 43	0	0	0	0	0	0	0	0	0	0	0	0	1337	0	0	0	0	0	0	0	0	0	0	0	0	0	0	0	0	10	0	0	0	0	3	0	0	0	1	0	0	1	0	0	0	0	16	0	0	0
OTU 44	4	9	5	0	11	0	0	0	19	4	6	5	0	0	2	13	0	63	1	0	9	3	0	27	0	0	0	1	31	0	0	26	0	7	0	0	0	25	0	0	0	0	0	32	0	1	0	0	1	30
OTU 45	190	80	373	24	0	7	0	70	55	325	147	5	6	2729	115	34	14	1	9	12	52	13	150	0	31	90	1	37	0	39	12	32	1	28	10	76	9	0	3	5	5	3	178	48	36	88	16	43	10	198
OTU 46	90	134	3	94	2	6	39	17	67	12	77	37	75	24	62	52	14	141	74	1	15	15	1	163	178	60	19	24	28	23	103	27	35	32	5	13	16	39	4	14	51	47	34	17	1983	24	420	61	25	17
OTU 47	0	0	0	0	2	0	1	0	0	0	54	0	0	19	0	0	0	1	0	0	7	1	0	0	0	0	86	0	14	142	0	3	0	0	0	3	1	0	85	0	0	8	0	0	0	3	15	28	74	13
OTU 48	0	58	42	38	67	24	18	72	4	375	7	105	8	53	88	73	32	44	2	9	12	24	19	36	32	3	0	17	65	12	77	13	7	731	0	1	3	13	5	12	50	7	11	621	13	44	76	3	22	8
OTU 49	1	0	35	42	1	32	7	4	13	0	8	0	0	83	62	13	61	2	1	16	0	92	24	0	6	31	0	4	16	4	34	55	3	1	4	16	0	33	4002	101	44	0	9	0	3	1	0	12	0	154
OTU 50	241	11	4	76	46	0	1	86	54	29	2	23	103	0	39	81	2	23	13	19	66	17	64	17	24	46	11	52	43	14	8	17	5	36	2	67	76	46	21	63	93	181	157	162	13	23	23	0	2	72
OTU 51	29	95	0	48	53	11	0	41	20	123	38	6	0	1	53	4	19	102	8	9	4	7	2	34	68	1	4	36	36	19	171	24	4	251	0	0	45	18	0	0	163	50	0	3	6	4	0	2	7	105
OTU 52	62	136	44	95	76	52	12	158	57	42	73	3	43	24	157	54	68	28	48	148	25	109	69	3064	190	16	6	290	363	8	3	61	28	77	45	33	18	4	40	131	54	12	26	97	9	8	235	2358	28	18
OTU 53	0	0	0	11	0	0	0	0	0	0	0	0	0	10	0	0	0	0	0	0	0	0	73	0	0	0	15	10	0	40	0	0	0	0	0	0	0	0	0	0	0	0	0	0	0	0	0	3	13	0
OTU 54	37	83	91	37	0	688	75	82	57	9	185	7	120	92	204	114	1382	49	164	112	63	123	50	56	74	37	21	87	117	36	10	142	637	12	20	20	59	46	50	20	231	95	21	22	22	15	29	47	25	36
OTU 55	0	0	0	0	0	0	0	1	0	0	0	0	0	0	0	0	0	0	0	0	0	0	0	0	0	0	0	0	0	0	0	0	0	0	0	0	0	0	0	0	0	0	0	0	0	0	0	0	0	0
OTU 56	30	45	1	15	144	2	2305	8	2	0	3	1	35	0	20	1315	11	8	1	0	0	27	0	17	3	56	30	92	0	46	0	2	21	0	4	0	0	155	53	1	14	0	0	658	14	0	5	0	2	13
OTU 57	289	51	31	25	106	16	64	30	37	2	45	114	31	88	15	36	28	7	376	39	150	37	76	75	50	240	40	124	118	126	135	30	24	20	141	47	78	44	62	342	255	116	58	114	245	1285	50	73	36	114
OTU 58	11	1	1	0	0	1	5	56	0	20	11	0	90	0	0	0	2	2	12	12	96	10	679	11	0	6	7	22	7	38	42	7	22	66	44	119	5	0	21	176	64	20	207	30	0	10	3	0	0	0
OTU 59	4	0	0	58	72	0	0	2	88	0	0	1	3	14	2	0	0	25	2	8	5	6	16	0	279	3	0	5	19	8	1	6	3	0	11	5	0	74	1	4	0	0	19	89	12	4	1	0	0	0
OTU 60	59	29	15	105	35	19	10	127	147	58	277	44	62	17	189	9	39	22	71	46	43	37	27	8	126	46	11	91	92	51	1	434	29	110	3	0	0	74	42	138	82	19	30	24	33	66	32	149	54	95
OTU 61	46	64	84	106	26	2896	150	445	63	43	46	28	59	51	81	10	21	136	82	168	100	157	37	68	129	118	9	10	193	23	88	25	1	35	3	39	3	43	39	250	142	2	57	82	90	32	30	4	7	10
OTU 62	0	38	0	0	0	6	59	5	0	10	3	136	0	1	0	0	15	16	0	0	0	5	29	2	0	78	20	2	0	30	9	21	33	26	0	0	93	8	0	0	5	162	0	0	1	107	92	0	9	0
OTU 63	10	0	4	0	1	0	1	3	17	0	37	600	2	0	0	0	0	13	17	1	5	0	6	125	55	128	0	44	11	59	2	83	0	0	2	50	11	1	0	7	41	2	88	0	1	1	14	30	0	0
OTU 64	518	88	126	187	174	133	69	120	53	106	10	690	22	318	43	39	246	198	691	23	201	281	69	501	6	184	24	248	211	110	33	5	106	167	73	98	21	107	108	6	127	68	231	425	669	66	90	2	20	31
OTU 65	0	4	0	7	0	11	0	16	0	0	0	0	0	0	7	0	11	7	0	0	0	0	13	0	0	0	0	0	0	2	0	7	0	0	0	0	0	0	5	0	0	0	0	0	0	0	2	0	0	0
OTU 66	29	106	10	44	153	2	30	63	263	36	19	0	39	6	2	7	4	21	27	6	143	22	9	2	9	1	330	15	47	504	18	126	0	86	10	25	39	2	343	4	176	82	22	13	7	9	73	56	301	2534
OTU 67	1	0	5	144	25	0	2	0	77	13	2	2	92	17	9	5	0	3	14	0	103	32	34	39	54	19	57	18	10	104	22	7	0	27	79	43	1	20	65	2	25	7	44	107	22	6	16	0	33	5
OTU 68	0	0	10	0	12	0	0	26	2	1	14	0	54	5	0	12	0	0	99	10	0	16	6	38	667	0	0	2	0	3	4	0	0	0	5	0	10	0	0	16	3	25	0	87	86	0	5	13	0	18
OTU 69	31	46	34	38	6	25	0	15	9	3	48	125	151	70	49	6	55	22	181	49	0	78	2	64	1	40	55	0	16	111	30	92	17	11	841	48	864	133	65	399	84	1722	51	37	4	9	17	30	9	83
OTU 70	20	202	31	12	17	0	51	33	2	1	2	0	8	35	10	52	0	0	32	562	28	89	140	1	2	0	3	54	0	3	32	0	0	3	6	85	0	4	3	0	40	0	93	0	71	0	0	11	1	4
OTU 71	13	21	10	49	0	5	52	0	1	3	0	1	1	2	1	0	16	12	3	1	4	30	11	19	0	0	4	306	200	11	10	0	66	22	101	25	37	32	5	3	0	36	54	17	0	0	0	1	0	21
OTU 72	20	5	56	2	7	31	73	334	123	0	87	28	8	40	75	18	61	27	6	111	0	99	45	32	14	1	1	72	26	1	0	34	19	1	74	22	22	7	14	2	40	51	20	10	20	11	71	60	10	4
OTU 73	69	17	1	1	7	1	22	36	1	17	92	84	43	41	36	126	5	0	172	38	11	13	12	72	4	2	4	42	4	58	29	101	11	27	11	10	35	102	4	6	0	79	21	3	34	5	32	88	12	29
OTU 74	5	1	2	8	11	5	105	355	24	11	46	53	0	5	4	24	6	87	456	128	48	18	3	137	0	28	23	47	18	12	17	18	1	36	24	34	17	212	25	74	278	113	28	35	31	23	16	265	12	12
OTU 75	0	82	42	5	33	9	15	101	7	12	1	66	41	49	5	2	8	71	115	5	129	91	115	2	28	36	8	2	185	11	212	0	8	39	74	34	30	84	25	15	17	53	95	96	1	32	22	2	40	55
OTU 76	8	1	14	0	41	9	2	1	0	0	0	42	0	0	6	269	22	78	0	22	2	11	0	0	6	14	0	35	0	22	0	2	11	2	17	0	0	11	10	0	0	0	0	101	13	31	0	0	20	0
OTU 77	23	13	4	13	0	15	39	1	9	0	88	2	8	37	111	15	24	0	4	6	220	23	156	49	40	56	22	85	22	21	91	23	21	9	13	28	23	49	30	216	3	29	29	9	15	10	148	14	10	0
OTU 78	75	26	6	3	2	39	55	172	5	0	25	14	12	21	10	1	65	50	29	79	0	17	172	0	47	5	4	84	3	36	11	16	13	1	12	0	3	29	0	2	9	22	9	29	36	33	44	785	32	1
OTU 79	60	202	54	102	171	31	734	1009	142	62	638	1139	1226	40	20	71	63	55	73	581	258	61	138	95	54	99	306	65	240	404	51	41	33	122	30	25	163	1193	757	60	91	397	102	32	25	89	383	339	159	101
OTU 80	19	69	24	16	67	9	20	124	7	12	99	15	81	67	27	27	31	6	373	39	2	52	26	30	72	8	14	775	27	5	2	23	24	17	26	65	9	225	19	0	116	23	61	39	20	14	18	61	11	23
OTU 81	54	68	47	85	50	17	16	59	65	713	25	50	32	24	211	56	43	13	293	12	162	110	28	8	10	135	5	259	282	73	53	18	25	4	39	30	1	64	48	73	82	7	29	47	35	3	26	10	10	61
OTU 82	17	17	0	2	0	15	75	27	2	1	10	0	35	41	78	0	19	1	83	20	2	3	4	2	37	141	44	22	100	28	3	12	2	7	2	79	0	23	58	3	60	0	179	9	99	16	26	7	6	13
OTU 83	0	0	9	0	26	0	2	0	180	0	60	0	0	1	9	6	0	6	0	0	1	40	4	0	5	0	11	0	0	3	0	87	0	0	0	17	1	0	0	3	0	9	9	0	10	0	0	69	7	31
OTU 84	30	77	24	1	0	11	0	1	14	20	60	6	19	0	2	196	23	3350	6	2	42	50	71	4	9	0	16	9	0	1	20	18	1	24	25	62	0	13	33	0	0	1	164	3	2	31	31	12	10	38
OTU 85	12	18	1	0	0	4	1	0	0	2	1009	2	10	0	7	0	4	4	109	11	2	0	6	0	0	28	6	18	2	0	0	11	821	1	0	2	0	4	0	120	0	0	0	86	1	0	7	384	7	0
OTU 86	0	0	0	0	0	0	0	0	0	0	5	35	0	0	0	4	0	0	0	0	0	0	2	2	0	0	0	0	0	0	0	0	0	0	5	0	0	0	1	0	4	0	0	0	0	0	0	0	0	0
OTU 87	0	0	1	0	0	0	0	0	24	0	0	1	12	0	0	0	0	4	49	0	3	1	0	0	4	0	0	5	0	2	18	0	0	0	0	0	1	0	0	0	0	0	0	0	0	0	0	1	4	1
OTU 88	0	0	1	0	19	0	0	0	0	0	4	3	0	4	0	0	0	0	1	2	0	0	3	37	0	94	8	0	14	0	0	0	0	0	0	0	2	58	14	0	0	0	0	0	2	2	0	1	8	0
OTU 89	38	0	0	37	0	1	1	18	8	1	2	8	34	29	4	2	3	1	7	0	3	0	14	50	32	0	3	3	2	1	12	0	23	14	4	2	0	2	2	0	5	7	0	1	10	11	30	0	2	7
OTU 90	0	0	0	7	0	0	0	0	38	0	39	0	0	0	1	18	0	0	26	0	0	0	0	13	0	0	0	0	0	0	0	0	3	0	0	0	0	2	0	0	0	0	2	0	0	45	17	24	32	0
OTU 91	1	15	0	0	0	0	1	0	0	0	0	0	8	0	0	0	0	0	0	0	0	0	5	0	32	2	6	139	39	1	0	0	0	0	0	0	0	6	0	0	10	0	0	0	23	0	0	1	0	0
OTU 92	2	124	0	5	20	9	1	0	9	0	46	0	0	0	1	0	8	23	1	1	0	0	2	0	163	18	0	4	0	0	5	0	0	2	1	0	0	4	0	12	0	19	0	7	1	33	100	7	0	0
OTU 93	0	0	22	1	0	0	1	0	0	0	0	2	64	45	0	0	0	0	0	0	12	53	0	0	0	0	0	0	0	5	14	19	0	0	1	0	0	2	0	0	0	0	0	10	18	0	9	0	348	0
OTU 94	17	118	44	0	111	1	87	13	1	3	13	71	19	117	36	8	6	31	419	7	73	60	15	130	128	42	212	60	72	182	55	0	5	5	16	28	42	5	15	114	196	55	67	18	691	26	214	6	55	97
OTU 95	2	0	0	0	2	7	0	3	9	2	116	19	321	37	0	2	13	6	0	0	7	0	0	9	108	3	0	45	6	0	5	24	0	4	2	1	0	20	6	90	0	0	0	16	0	3	0	59	16	10
OTU 96	0	0	0	0	0	10	0	0	40	0	0	0	0	0	11	0	15	0	0	0	0	1	0	12	0	7	0	0	0	0	0	11	0	1	0	0	0	0	0	0	0	0	0	0	0	0	0	0	0	0
OTU 97	0	3	0	0	1	0	1	5	0	1	13	0	0	0	2	8	0	5	0	0	0	0	9	0	0	45	0	0	2	15	0	0	0	0	0	0	0	44	8	18	0	0	0	0	3	4	0	3	0	0
OTU 98	1	0	56	1	60	5	0	2	0	0	8	4	5	52	0	11	4	8	14	0	16	115	64	2	11	1	0	1	7	15	10	5	0	0	76	6	0	0	0	73	15	1	27	9	53	0	10	0	0	61
OTU 99	85	12	35	22	26	35	63	17	22	5	30	14	10	2	39	1	77	7	58	41	66	76	19	161	1	23	230	32	175	39	89	32	24	12	20	34	6	217	22	40	168	1	23	81	9	43	9	4	14	99
OTU 100	48	43	0	0	15	10	0	0	29	29	1	5	0	0	28	0	18	33	5	0	28	9	91	0	15	55	19	242	55	30	2	0	28	51	25	66	20	17	2	55	17	0	79	13	19	0	7	0	12	0
OTU 101	0	0	0	1	18	1	0	7	0	24	0	3	12	2	11	0	3	8	3	0	6	0	0	0	10	0	0	11	0	0	7	0	0	50	3	11	0	0	0	3	4	0	8	0	0	0	2	0	1	0
OTU 102	20	55	0	28	0	0	0	0	0	6	0	38	0	0	0	0	0	0	6	0	0	0	19	3	0	0	4048	0	0	1	0	3	1	2	0	0	18	1	8	1	4	29	0	4	1	18	9	1	0	14
OTU 103	25	51	20	6	6	4	0	67	2	877	27	38	27	25	136	5	21	98	14	0	22	62	114	16	28	10	40	12	10	8	55	26	5	1665	7	29	58	0	2	142	6	106	25	1	2	54	7	0	9	0
OTU 104	54	75	4104	7	155	0	2	82	30	9	79	10	188	19	192	11	3	207	142	36	74	71	1	165	37	140	30	112	22	168	91	68	1	47	20	6	0	11	63	0	57	5	55	2	72	126	94	53	98	48
OTU 105	0	50	20	1	0	10	7	18	13	1	0	0	21	0	0	43	28	0	1	4	0	8	3	3	0	6	3	1	7	6	0	2	0	9	0	27	6	129	0	37	49	9	70	0	1	0	11	0	0	2
OTU 106	49	2	11	1	66	3	0	0	0	0	2	0	0	0	0	218	7	0	1	0	37	15	2	8	1	0	0	3	0	5	0	9	0	6	2	0	0	0	0	0	4	0	0	324	20	0	4	16	0	14
OTU 107	0	0	4	4	1	2	56	16	8	0	19	6	2	14	16	0	5	10	53	18	1	24	4	1	89	8	1	2	0	4	13	1	2	3	1	0	1	9	6	0	24	17	2	0	25	3522	0	0	1	43
OTU 108	0	9	5	0	38	0	9	27	0	2	0	1	31	1	36	131	7	1	31	5	24	32	0	43	21	0	1	83	16	3	17	77	0	17	5	0	24	14	1	40	0	75	2	35	183	52	30	11	0	16
OTU 109	0	0	0	0	0	0	0	0	3	0	0	0	0	0	0	0	0	0	0	0	0	0	0	0	0	0	0	0	0	0	0	1	0	0	0	0	0	0	0	0	0	0	0	0	0	0	0	0	0	0
OTU 110	318	0	26	28	24	6	323	45	0	11	1914	3	212	1071	1	2	13	2	23	51	0	46	9	39	92	21	7	35	17	14	2	59	0	27	43	404	9	338	2	4	15	14	964	2	4	11	186	1036	7	162
OTU 111	0	0	0	1	30	423	14	0	60	0	0	0	0	0	0	0	911	0	3	0	0	0	0	0	0	0	22	21	0	28	0	0	596	0	8	7	0	0	26	18	7	0	2	0	0	0	0	1	18	0
OTU 112	72	89	0	3	1	7	45	4	24	10	5	19	13	6	7	0	22	0	30	0	142	0	36	0	13	34	1	37	0	3	0	1	0	7	0	0	2	42	0	39	65	0	2	7	0	7	39	8	17	9
OTU 113	0	344	0	24	1	6	0	3	1	1	0	7	0	12	6	53	9	11	0	0	0	0	34	7	33	0	0	0	1	0	0	0	0	2	0	7	0	0	0	0	147	0	10	0	0	6	0	0	0	4
OTU 114	78	67	147	96	0	35	24	128	304	3248	97	66	268	29	228	34	69	217	17	238	2	222	188	51	18	48	416	7	127	873	240	43	25	308	23	118	97	69	431	54	185	191	228	110	69	135	5	69	476	374
OTU 115	36	43	43	145	1792	41	58	70	62	10	39	55	51	45	18	17	57	33	81	3	6	87	47	99	84	9	20	81	19	82	17	64	40	34	25	521	6	21	59	0	22	34	4	160	39	4	137	11	8	22
OTU 116	59	6	15	17	17	2	135	23	882	42	17	1	15	3	9	42	6	38	16	39	385	16	41	11	22	95	14	7	72	8	13	0	5	66	87	48	5	32	12	36	53	8	58	43	11	17	17	2	4	11
OTU 117	12	226	36	11	0	22	0	519	50	18	69	82	25	58	8	78	35	6	22	219	0	46	34	30	52	102	86	1	114	164	94	15	34	58	84	51	3	2	83	16	50	13	98	1	43	71	198	11	75	36
OTU 118	0	8	0	0	0	0	0	0	3	8	57	2	0	2	105	33	0	19	0	0	1	0	2	0	0	82	0	0	15	0	3	107	0	10	0	0	29	1	0	9	80	24	5	0	6	32	5	21	0	75
OTU 119	85	7	16	186	87	33	743	17	4	0	0	9	26	18	22	45	56	175	0	10	12	79	28	15	28	92	3	325	30	18	100	3	73	4	5	124	4	900	0	17	69	25	156	38	40	36	8	19	23	16
OTU 120	0	0	0	2	1	0	21	159	9	19	2	7	0	0	10	19	1	78	0	67	2	0	115	0	34	0	0	13	3	2	20	33	0	65	41	0	0	17	0	0	17	13	0	23	27	104	62	0	3	2
OTU 121	14	10	0	21	0	0	37	16	15	16	2	23	33	2	6	1	0	12	0	35	2	6	7	5	1	74	1	34	73	49	1	24	9	38	9	21	15	12	58	269	4	28	60	19	24	4	8	0	65	8
OTU 122	203	8	0	205	7	15	9	56	18	7	33	62	3	6	66	131	27	21	32	9	10	8	3	7	23	19	0	27	30	3	168	57	54	19	2	23	15	123	5	0	3	5	1	54	15	6	21	1	0	2
OTU 123	272	41	154	205	91	50	266	181	331	66	106	163	389	232	57	144	122	130	342	1945	244	278	425	871	119	325	412	48	331	586	259	111	78	107	49	73	67	146	374	232	240	149	91	137	185	211	109	40	359	12
OTU 124	2	1	0	5	40	0	1	120	4	0	0	23	0	5	0	11	0	0	12	38	7	0	0	10	8	0	5	0	1	16	0	3	2	0	65	0	8	0	60	0	2	29	0	4	50	134	27	0	6	14
OTU 125	128	37	97	177	445	234	308	64	540	55	88	251	221	86	121	843	518	231	141	1722	83	143	184	121	385	216	109	454	152	129	52	55	596	54	103	67	89	306	99	232	305	133	170	197	20	168	313	90	93	4
OTU 126	0	0	30	0	0	0	0	0	0	0	0	5	29	0	3	7	1	0	2	0	0	0	0	0	0	27	2	7	0	0	2	0	1	0	0	0	0	38	4	29	20	0	0	0	0	26	0	0	0	0
OTU 127	37	1	0	2	32	3	49	8	14	0	0	1	34	0	41	7	7	73	0	0	143	0	7	1	103	26	151	43	111	99	46	0	14	0	20	2	30	6	67	12	12	70	0	47	1	0	153	3	84	0
OTU 128	989	95	1567	411	85	746	217	128	50	44	26	75	264	1125	133	30	1498	182	595	132	117	2986	70	282	123	138	13	55	332	15	103	95	904	139	859	71	201	67	4	220	266	403	124	113	1467	66	208	52	33	321
OTU 129	4	0	0	0	6	14	1	7	0	0	6	0	0	0	1	0	42	2	8	1	0	0	21	36	38	1	6	0	14	24	0	0	21	0	0	0	0	9	0	0	20	0	6	0	0	0	0	0	2	0
OTU 130	118	34	17	4	20	30	18	14	56	873	26	5	0	48	11	90	48	0	5	0	0	20	9	0	0	27	0	0	10	1	25	6	4	1866	53	14	6	27	6	2	0	6	31	43	33	12	51	0	1	31
OTU 131	32	30	9	95	2	5	9	146	24	112	136	0	2	0	240	12	9	689	0	68	6	24	32	5	2	93	0	16	63	0	571	308	5	253	19	18	309	0	12	11	5	539	52	5	29	264	0	114	1	258
OTU 132	17	15	0	11	2	1	0	5	8	0	0	3	0	0	0	0	1	51	0	0	38	1	65	0	0	11	1	22	177	2	83	12	6	0	55	24	0	6	0	5	14	1	27	0	0	0	16	0	3	0
OTU 133	0	25	0	2	0	0	0	0	3	0	104	3	0	0	0	1	0	0	0	0	0	0	0	0	51	0	0	38	0	1	24	0	0	0	12	38	0	87	2	0	38	0	11	0	3	11	3	95	6	2
OTU 134	28	6	15	10	92	10	6	89	2	4	17	0	97	39	45	0	20	38	16	12	21	44	9	0	0	48	0	10	1	64	0	19	0	9	0	16	3	0	27	27	46	0	46	4	261	59	2	3	4	22
OTU 135	43	0	12	2	6	39	7	14	5	51	0	21	3	23	0	4	80	3	7	5	16	10	52	61	4	29	4	65	58	5	75	32	53	86	39	11	16	11	23	25	5	42	14	54	1	37	14	0	9	16
OTU 136	36	15	3	0	8	0	0	8	56	8	9	15	79	3	54	28	0	55	3	0	28	4	11	38	35	99	51	460	7	38	1	12	1	25	17	0	46	0	0	42	0	31	3	62	0	10	0	0	8	1
OTU 137	3	12	0	13	13	0	2	132	2	1	0	0	9	19	0	16	1	14	0	4	7	0	1679	144	77	0	5	0	0	0	25	0	0	12	0	9	22	0	0	0	1	34	0	0	20	0	0	0	0	3
OTU 138	12	13	3	5	0	0	0	13	9	29	0	643	0	0	9	12	5	11	1	7	32	10	0	2	6	0	11	6	138	60	135	17	4	96	8	914	9	2	0	3	11	20	1794	15	0	15	0	2	42	13
OTU 139	48	320	16	126	87	2	25	10	4	0	66	126	233	23	44	1	8	96	37	12	11	26	50	47	1315	874	39	206	47	194	2250	23	13	2	47	10	25	12	50	61	68	25	48	29	104	46	184	21	85	110
OTU 140	116	43	40	56	211	29	110	103	157	809	38	90	82	39	81	127	57	106	129	41	166	90	472	78	69	279	169	177	212	124	13	3522	17	131	118	27	18	62	160	16	175	45	87	1354	42	10	70	12	183	16
OTU 141	0	61	0	2	0	0	0	1	0	0	0	0	0	0	3	0	0	0	0	0	0	0	0	0	37	0	0	0	0	0	0	0	0	0	0	32	0	0	0	0	0	0	77	9	0	0	0	0	0	0
OTU 142	0	0	0	0	0	2	0	0	0	0	0	0	0	8	0	0	6	0	1	0	0	0	0	64	0	0	0	0	0	1	0	597	0	0	0	0	0	0	0	0	28	0	8	0	0	0	0	0	0	5
OTU 143	11	15	0	0	0	1	0	0	64	9	0	0	0	41	17	17	3	1	45	0	3	3	0	0	0	15	70	35	7	8	0	0	0	13	2	0	0	0	12	3	4	0	0	0	0	6	0	9	31	0
OTU 144	8	0	37	11	0	0	0	0	0	0	7	0	52	2	0	0	1	4	275	0	0	116	0	13	31	4	24	120	1	15	24	25	0	0	0	0	3	2	67	12	0	1	4	0	10	4	0	10	21	0
OTU 145	67	119	6	1070	59	6	20	128	8	31	6	23	40	8	3	152	8	53	1	19	73	55	87	44	10	231	2	581	19	39	40	1	14	88	13	11	39	39	0	8	34	84	0	9	21	110	17	8	7	571
OTU 146	6	47	2	18	17	0	10	0	12	10	561	0	234	17	980	18	2	0	40	16	25	9	41	43	116	161	10	41	14	10	13	614	2	15	4	8	26	7	0	51	37	3	0	1	0	8	12	356	8	521
OTU 147	36	26	6	0	7	32	21	5	4	0	141	16	12	24	2	0	48	13	9	0	11	2	0	8	1	0	2	23	5	0	20	34	8	1	0	31	6	24	0	33	0	1	39	35	2	16	23	27	1	0
OTU 148	58	45	7	6	87	3	2	10	55	7	112	12	10	27	161	1	14	1	208	0	17	32	80	100	20	3	0	166	43	11	52	193	0	2	1	9	19	31	15	402	39	8	20	128	74	173	232	57	5	65
OTU 149	114	0	4	0	0	19	0	10	1	1	19	51	6	2	3	0	31	33	55	37	57	0	472	23	70	3	46	3	6	55	0	1	35	5	0	1	1	0	1	1	3	4	49	0	0	0	1	5	0	26
OTU 150	33	0	0	0	12	0	0	18	5	10	9	3	33	1	0	10	0	11	0	10	6	6	3	0	0	32	0	3	20	28	0	0	2	16	35	0	15	0	0	47	74	11	0	0	62	2	45	2	4	0
OTU 151	22	3	7	91	1	2	19	1	13	0	6	1	4	2	20	24	3	1	61	3	4	4	31	13	7	33	0	0	17	21	45	23	0	1	0	0	32	15	11	66	1	39	0	47	3	11	22	2	8	8
OTU 152	47	85	0	42	65	1	15	11	153	5	24	0	83	2	75	19	1	20	36	22	79	0	39	40	952	129	1	50	35	51	30	16	0	32	46	81	8	7	0	14	134	68	176	214	16	72	145	44	21	33
OTU 153	0	66	0	0	0	0	0	0	31	26	11	6	0	0	0	2	0	35	1	0	0	0	0	2	1	0	0	4	12	0	8	0	0	42	0	0	2	60	0	0	0	18	0	0	0	31	12	3	4	0
OTU 154	0	0	0	0	8	0	0	9	2	0	0	0	8	0	0	0	0	0	0	0	0	0	0	0	0	61	6	0	14	6	1	6	0	0	0	0	0	0	0	0	40	0	0	0	0	1	51	0	0	0
OTU 155	1	0	1	34	32	0	2	199	37	4	2	19	0	2	0	0	3	2	17	137	3	5	0	0	24	0	30	53	0	47	37	0	0	1	4	0	0	0	4	0	56	3	41	3	15	0	4	2	11	0
OTU 156	93	2123	25	79	10	41	7	144	22	0	32	35	38	1	17	52	82	8	16	80	92	38	67	5	42	72	95	55	24	53	117	9	31	5	258	7	107	55	14	90	143	155	44	5	25	90	41	16	18	37
OTU 157	27	23	0	27	0	0	0	0	13	1	16	0	0	2	0	18	0	0	5	0	7	2	1	8	0	133	0	0	2	11	15	3	0	3	1	0	1	2	32	5	0	1	0	6	1	0	8	0	0	8
OTU 158	1	0	0	0	0	0	0	0	3	0	3	0	0	0	0	0	0	0	0	0	0	0	0	0	0	0	0	0	53	0	0	3	0	1	0	0	0	0	0	0	0	2	0	0	2	0	61	0	0	0
OTU 159	27	0	5	7	15	0	11	5	1	0	22	14	40	7	3	32	0	3	28	0	0	5	125	1	2	9	1	0	2	0	7	40	0	0	2	19	612	0	2	1	4	1322	32	1	34	0	6	4	1	11
OTU 160	52	202	84	546	90	42	9	30	38	76	68	80	86	193	58	30	84	7	112	62	115	146	63	35	84	328	49	40	29	67	49	61	90	104	31	13	409	168	39	18	113	131	2	75	55	20	314	8	30	84
OTU 161	12	4	35	45	292	4	35	1	68	0	2	173	0	197	9	4	21	65	172	4	1	74	168	25	84	0	10	0	170	1	14	6	1	0	61	9	1	54	3	2	86	1	10	22	0	0	40	1	5	58
OTU 162	103	8	2	53	16	0	113	124	5	2	27	1	32	63	32	9	1	5	5	38	76	5	0	7	12	29	0	13	257	20	26	1	2	10	1	55	11	32	4	40	31	7	154	10	40	13	205	4	0	20
OTU 163	0	0	0	0	0	0	0	0	0	0	0	0	166	0	0	0	0	0	0	0	5	0	0	0	2	0	0	0	0	0	0	0	0	0	0	0	0	0	0	0	0	0	0	0	1	0	0	0	0	0
OTU 164	1	0	0	0	0	2	0	0	0	0	0	0	0	0	0	15	5	0	12	0	0	0	0	16	0	0	23	0	0	0	1	0	0	0	0	0	0	0	0	0	0	3	0	0	6	0	1	0	0	0
OTU 165	22	75	9	0	3	20	0	49	2026	0	47	8	137	48	28	11	32	0	62	18	78	63	15	6	0	0	0	44	10	19	24	6	7	0	3	0	7	0	0	5	4	11	3	10	45	14	2	76	0	36
OTU 166	22	0	0	0	0	0	0	43	0	0	0	0	0	0	0	0	0	0	0	52	25	0	0	0	0	0	56	0	1	49	0	0	0	0	0	0	0	0	59	0	6	1	0	0	0	3	0	0	9	0
OTU 167	4	1	1	25	24	32	64	19	46	13	0	2	54	31	3061	77	73	16	29	14	0	5	81	0	2	9	1	16	8	0	3	19	17	38	0	2067	0	4	0	10	0	1	1	21	0	6	0	0	6	0
OTU 168	0	0	6	41	18	77	0	114	36	0	16	26	16	11	4	61	148	6	68	100	23	13	12	0	32	105	0	4	2	3	35	35	39	0	24	0	5	6	17	29	41	0	2	20	34	14	73	10	2	11
OTU 169	0	6	3	14	2	11	0	0	0	0	0	0	0	0	0	33	21	0	51	0	0	16	8	39	0	0	0	0	0	0	0	0	9	0	0	0	0	0	0	0	0	0	0	0	0	1	12	2	0	0
OTU 170	0	0	0	0	1	10	0	0	0	9	0	0	0	0	0	18	13	4	0	0	0	0	0	0	0	1	1	2	0	0	96	0	0	26	0	0	0	0	0	0	1	0	0	0	0	0	3	0	0	0
OTU 171	4	0	44	4	1	1723	3	22	0	0	28	1	30	4	0	3	1	0	162	37	20	43	108	81	25	29	40	0	10	110	9	1	12	1	4	2	66	105	13	4	191	86	24	0	0	16	89	8	35	146
OTU 172	6	0	0	0	0	0	0	9	0	0	0	0	0	0	5	0	0	0	31	0	0	0	57	34	18	0	0	3	26	0	0	0	0	0	7	2	0	0	0	0	42	0	0	4	0	0	54	0	2	0
OTU 173	48	0	0	5	4	17	0	158	0	0	11	0	0	6	131	66	39	0	1	60	3	0	0	4	0	2	12	0	3	66	17	0	0	0	7	14	19	0	6	2	0	21	15	0	5	0	25	26	32	2
OTU 174	12	5	23	20	54	8	0	0	45	4	15	0	1	0	3	36	22	9	17	2	198	60	2	6	0	15	19	69	0	61	61	0	3	0	1	6	6	0	14	70	12	12	9	9	1	4	51	7	549	46
OTU 175	127	38	39	21	0	7	15	3	6	3	76	0	43	6	53	0	17	0	1	2	26	76	0	0	0	0	105	0	19	83	1	284	20	2	9	0	16	10	57	2	32	11	0	0	0	3	6	18	16	0
OTU 176	61	57	194	8	138	35	38	53	37	15	24	2	18	208	68	29	87	73	58	26	96	405	22	56	6	0	29	28	26	146	243	21	49	47	23	3	49	2	209	23	53	82	3	11	87	51	72	20	43	10
OTU 177	9	95	15	0	1	13	35	46	64	2	0	10	5	24	35	29	17	10	28	1	87	15	0	56	106	6	32	65	16	22	741	31	4	3	4	10	5	14	1	61	77	16	0	47	13	14	35	0	17	175
OTU 178	90	9	2	7	0	0	218	578	16	1	5	7	19	2	0	0	0	0	0	159	0	4	23	0	0	21	51	24	27	94	0	29	4	7	5	25	0	2	2	86	7	0	20	8	14	0	28	8	86	15
OTU 179	1223	1	0	28	574	21	5	2	47	2	2	86	4	47	46	43	52	91	0	5	56	10	4	35	136	12	14	2	78	15	3	6	30	0	12	0	8	107	0	0	0	2	1	0	37	1	1	2	6	30
OTU 180	137	62	17	162	105	7	163	108	127	27	57	57	44	16	193	172	8	55	63	60	237	74	103	50	80	266	7	68	326	25	238	84	0	60	64	107	14	51	23	113	377	56	111	190	5	9	455	42	17	9
OTU 181	77	52	7	67	27	0	128	36	76	2	0	18	15	2	68	28	0	25	1	4	87	0	0	5	47	0	17	1	0	10	1	3	0	5	60	77	0	498	25	16	1005	6	99	39	0	48	65	0	1	94
OTU 182	8	0	0	0	0	0	0	0	0	0	0	13	0	0	0	0	0	0	0	2	0	0	0	34	0	0	0	0	6	0	0	0	0	0	0	0	0	0	0	3	0	0	10	0	0	0	0	0	0	0
OTU 183	29	131	32	1	38	3	12	45	166	13	0	28	41	35	15	20	7	199	81	0	124	27	5	51	32	0	384	8	19	996	22	1	0	23	4	7	44	3	430	28	30	68	3	2	6	4	66	1	453	5
OTU 184	104	35	1	7	20	15	20	2	6	34	0	0	115	4	2	176	33	84	44	1	54	16	6	32	0	0	1	50	8	24	0	1	1	38	32	23	0	8	12	17	16	5	20	65	19	9	68	202	35	69
OTU 185	54	0	12	156	79	0	39	105	21	1	39	30	13	3	160	76	1	37	33	104	102	26	11	0	27	176	81	48	64	52	13	16	17	4	2	10	88	50	21	165	105	92	32	1	63	32	193	4	36	21
OTU 186	0	0	5	1	43	3	26	14	0	6	10	0	0	8	5	0	2	0	30	23	10	22	0	11	4	0	8	62	2	23	0	2	0	19	0	1	4	53	6	0	0	1	0	10	33	0	13	1	19	37
OTU 187	9	123	55	37	121	44	35	46	43	36	73	138	13	48	0	124	67	20	126	52	86	79	69	29	7	163	7	320	58	3	13	166	23	46	54	194	15	14	8	20	100	27	319	92	26	47	41	34	5	127
OTU 188	11	26	45	54	18	552	19	38	232	39	2	4	19	38	69	22	1058	89	27	15	12	95	159	35	127	66	70	126	13	141	71	7	588	72	21	43	41	9	40	70	4	104	189	15	56	10	8	17	65	11
OTU 189	70	57	31	100	27	115	100	101	87	16	7	25	89	78	13	17	252	20	39	177	97	74	108	12	178	16	62	62	8	77	26	53	34	33	2	24	16	112	6	102	205	11	53	10	120	36	178	7	29	50
OTU 190	0	2	0	83	49	0	0	0	0	0	1	0	0	2	0	0	0	0	2	3	0	0	1	0	1	3	2	0	1	10	0	0	0	0	13	0	1	0	50	0	9	0	14	7	0	34	1	0	17	0
OTU 191	37	72	4	17	5	7	22	50	2	18	28	0	14	13	45	0	18	10	17	4	5	4	95	46	20	144	19	104	10	112	5	40	0	27	1066	92	6	32	5	87	167	15	151	10	587	45	145	2	32	36
OTU 192	73	54	195	8	0	113	56	94	2	21	38	166	36	80	11	61	210	25	53	8	62	412	41	82	112	478	7	46	233	19	251	9	74	8	36	9	26	51	19	1113	30	83	21	70	70	40	71	25	11	95
OTU 193	11	2	52	2	4	6	0	107	7	22	6	42	29	108	0	161	20	6	217	16	13	101	0	264	17	117	225	68	402	409	18	1	10	33	2	0	0	70	277	50	16	12	15	177	66	72	80	15	320	114
OTU 194	253	0	0	0	61	0	169	7	91	3	1	8	21	33	83	4	1	0	0	0	2	1	10	0	0	0	10	0	22	12	0	24	2	3	3	57	14	394	2	0	24	27	119	0	0	29	4	0	0	1
OTU 195	5	6	64	90	44	1	15	8	4	23	30	0	17	171	21	89	1	56	28	22	13	133	1	2	59	6	0	11	12	0	9	25	7	74	53	3	0	18	1	84	11	1	17	10	1	139	25	11	0	137
OTU 196	65	9	5	58	16	5	3	12	19	0	4	5	15	28	2	48	8	14	31	15	15	8	264	66	21	23	14	113	33	32	0	1	0	11	0	63	19	3	23	0	23	116	64	11	1	3	54	0	12	15
OTU 197	111	210	10	273	931	41	55	104	159	56	13	143	80	102	1	48	73	49	188	44	15	30	68	29	38	188	2	153	21	7	19	41	23	66	86	6	40	28	12	409	18	67	4	262	66	98	219	9	101	50
OTU 198	0	0	0	0	2	2	1	59	0	55	0	0	0	1	0	450	9	15	35	8	24	0	0	0	20	26	2	0	0	0	0	0	6	120	0	1	1	0	0	0	1	2	1	102	1	0	26	9	0	8
OTU 199	14	19	2	1	0	0	0	0	0	3	0	1	39	8	4	0	0	0	6	12	1	0	79	10	143	0	8	10	1	7	0	4	3	0	100	1	14	23	2	26	7	0	0	30	5	8	25	1	22	8
OTU 200	3	92	26	17	31	22	5	21	1	0	4	7	47	5	21	29	27	60	9	86	2	46	1	2	44	16	5	41	1	3	3	0	8	10	16	0	42	9	0	3	19	7	0	0	81	2	1	4	2	4
