	Host 1	Host 2	Host 3	Host 4	Host 5	Host 6	Host 7	Host 8	Host 9	Host 10	Host 11	Host 12	Host 13	Host 14	Host 15	Host 16	Host 17	Host 18	Host 19	Host 20	Host 21	Host 22	Host 23	Host 24	Host 25	Host 26	Host 27	Host 28	Host 29	Host 30	Host 31	Host 32	Host 33	Host 34	Host 35	Host 36	Host 37	Host 38	Host 39	Host 40	Host 41	Host 42	Host 43	Host 44	Host 45	Host 46	Host 47	Host 48	Host 49	Host 50	
OTU 1	1	0	0	3	3	0	3	9	7	5	0	0	0	7	6	4	0	3	2	2	0	3	1	3	1	6	20	1	0	0	2	2	4	11	2	1	3	0	7	0	2	11	0	9	0	1	0	2	3	6
OTU 2	0	5	0	4	0	0	1	4	0	0	0	2	0	3	2	8	1	0	0	0	8	1	0	31	0	0	0	1	0	0	0	0	0	0	0	8	0	0	0	1	2	0	1	0	0	0	0	0	0	0
OTU 3	0	0	3	0	0	0	1	1	0	0	2	0	0	0	0	0	0	0	0	0	1	0	2	0	0	0	0	0	0	0	0	1	0	0	0	0	0	0	0	0	1	0	1	0	0	0	0	0	0	0
OTU 4	0	0	0	0	0	0	0	0	0	0	0	0	0	0	0	0	0	0	0	0	0	0	0	0	0	0	0	0	0	0	0	0	0	0	0	0	0	0	0	0	0	0	0	0	0	0	0	0	0	0
OTU 5	10	21	11	15	16	20	11	11	0	16	0	9	55	0	0	0	1	43	19	8	8	5	9	5	17	5	64	25	0	33	12	14	0	13	13	3	8	2	34	10	0	0	5	18	14	9	20	9	8	10
OTU 6	0	0	0	2	1	1	4	0	0	2	0	0	0	1	1	0	0	0	0	0	1	3	1	0	0	0	2	1	0	3	0	2	0	1	0	1	1	0	2	1	0	0	2	0	21	0	0	2	0	1
OTU 7	94	0	10	1	8	4	1	3	0	0	16	3	0	49	7	0	11	1	2	0	0	6	4	21	0	1	0	8	9	0	4	90	1	5	0	0	0	78	67	2	0	2	3	4	0	0	3	1	0	0
OTU 8	1	3	34	1	0	4	3	2	1	8	0	24	0	3	3	3	4	1	0	2	0	0	3	1	2	2	1	9	4	0	4	16	2	6	0	3	4	15	1	1	13	2	1	2	2	1	4	15	0	1
OTU 9	0	0	1	0	2	0	1	1	0	0	3	1	0	1	0	0	0	0	0	0	0	1	3	0	0	0	1	0	0	0	2	0	0	3	0	0	0	1	0	1	0	0	0	0	0	0	0	1	0	0
OTU 10	0	1	0	0	2	2	0	0	0	0	1	2	0	0	0	0	3	0	0	0	2	0	0	0	0	0	0	0	0	0	0	1	0	1	0	0	0	2	0	0	0	0	4	1	0	0	1	0	0	0
OTU 11	0	0	0	0	0	3	0	0	2	3	7	0	0	2	1	4	0	0	0	2	0	3	0	1	2	1	2	3	0	49	0	2	3	2	2	0	1	0	0	3	2	1	0	4	1	0	8	5	1	0
OTU 12	2	0	0	1	1	1	4	3	1	2	0	2	0	0	3	1	6	0	0	1	1	5	1	3	6	3	2	2	0	0	0	1	1	7	6	2	3	1	0	0	2	1	3	2	3	0	1	0	0	0
OTU 13	0	0	0	0	0	0	0	0	0	0	0	0	0	0	0	0	0	0	1	0	0	0	1	0	0	0	0	0	0	0	0	0	0	0	0	0	0	0	0	0	0	0	0	0	0	0	0	0	0	0
OTU 14	0	0	0	1	0	0	5	0	0	0	1	2	0	0	1	0	4	0	0	1	1	6	0	0	4	0	0	1	0	0	0	0	0	0	1	0	3	0	0	0	1	0	0	0	1	0	0	0	0	0
OTU 15	0	0	0	0	0	0	0	0	0	0	0	0	0	0	0	0	0	0	0	0	0	0	0	0	0	0	0	0	0	0	0	0	0	0	0	0	0	0	0	0	0	0	0	0	0	0	0	3	0	0
OTU 16	0	0	0	0	0	0	0	0	0	0	0	0	76	0	0	0	0	0	0	0	0	0	0	0	0	0	0	0	0	0	0	0	0	0	0	0	0	0	0	0	0	0	0	0	0	0	0	0	0	0
OTU 17	0	3	0	0	0	0	2	1	0	2	0	0	0	7	0	0	0	0	1	0	0	1	0	0	4	0	1	0	0	53	1	1	0	2	0	0	0	0	0	0	0	4	0	4	0	1	0	0	0	3
OTU 18	0	0	0	0	1	0	7	0	0	2	2	1	0	3	0	0	0	1	1	3	11	3	1	1	0	2	0	0	0	0	0	0	0	3	0	0	3	3	0	2	0	7	1	2	1	0	3	3	0	8
OTU 19	0	0	2	0	0	0	0	0	0	0	0	0	0	0	0	0	0	0	0	0	0	0	0	0	0	0	0	0	6	0	0	0	0	0	0	0	0	0	0	0	0	0	0	0	0	0	0	0	0	0
OTU 20	0	14	0	0	0	0	0	1	0	5	3	0	0	0	1	2	0	0	1	1	0	1	2	0	0	0	3	0	1	0	1	0	0	3	85	0	1	0	1	8	0	0	50	0	1	0	2	2	0	0
OTU 21	3	0	12	0	0	3	1	0	5	0	3	0	1	0	2	0	2	2	3	0	2	6	8	4	4	0	1	1	1	2	0	0	0	1	0	0	2	1	0	0	8	8	0	0	15	1	1	4	2	1
OTU 22	1	5	0	0	3	2	0	0	1	1	11	0	0	6	7	1	0	0	0	0	0	0	1	0	0	3	1	2	6	0	0	0	0	0	0	0	0	1	1	1	0	10	0	17	0	5	0	1	0	3
OTU 23	0	0	0	0	0	0	1	0	0	0	1	0	0	0	0	0	0	7	1	0	7	0	0	0	4	0	0	0	2	1	1	0	0	8	1	0	0	0	0	0	0	0	2	0	0	0	0	1	0	0
OTU 24	0	0	0	0	0	0	1	0	0	0	15	0	0	2	0	3	1	0	1	0	0	1	0	0	0	3	0	0	1	0	0	1	1	0	0	2	0	2	0	0	1	0	0	0	0	4	0	0	0	0
OTU 25	0	0	0	0	0	0	0	0	0	0	0	0	0	0	0	0	0	0	0	0	0	0	0	0	0	1	0	0	0	0	0	0	0	1	0	0	0	0	0	0	0	0	0	0	0	0	0	0	0	0
OTU 26	1	0	0	0	0	0	0	0	0	0	0	0	0	0	0	0	0	0	1	0	0	0	0	0	0	0	0	1	0	0	0	0	2	0	0	0	0	0	0	0	0	0	0	0	2	0	0	0	0	0
OTU 27	0	0	0	0	0	0	2	0	0	0	0	0	0	0	0	0	0	0	1	0	0	0	0	0	0	0	0	0	0	0	0	0	0	0	0	0	0	0	0	0	0	0	0	0	0	0	0	0	0	0
OTU 28	0	0	3	7	0	0	4	1	0	4	2	5	0	1	0	0	0	0	2	1	0	4	7	2	2	1	3	1	0	8	0	0	0	6	0	0	1	0	1	0	0	2	0	4	0	0	1	0	2	4
OTU 29	4	0	0	1	4	0	0	3	3	2	0	17	0	1	28	0	5	1	0	45	1	2	14	3	3	23	6	4	13	0	2	0	0	8	1	0	2	17	0	7	7	6	1	4	0	12	1	6	2	3
OTU 30	0	0	0	0	0	2	0	0	0	0	0	0	0	0	0	0	0	0	0	0	0	0	0	0	0	0	0	0	0	0	0	1	0	0	0	0	0	0	0	0	0	0	0	0	0	0	0	0	0	0
OTU 31	3	0	0	0	0	1	0	0	1	18	0	0	1	1	0	0	26	0	1	1	0	0	0	35	0	0	0	0	0	0	0	0	0	0	0	2	0	0	0	21	0	0	0	0	0	2	2	0	0	1
OTU 32	2	4	14	14	0	0	1	1	0	3	5	5	0	10	0	5	3	0	37	3	0	25	0	4	8	1	5	29	1	0	0	0	0	0	4	46	2	1	2	0	1	1	3	1	0	2	1	60	1	3
OTU 33	0	0	0	1	0	0	0	0	0	0	0	0	0	2	0	0	2	0	1	1	0	0	0	0	0	0	0	0	0	0	3	0	0	0	0	0	0	0	0	0	0	0	0	0	0	0	0	0	0	0
OTU 34	0	2	9	0	0	0	3	1	2	0	0	3	1	8	0	3	5	1	0	2	5	3	3	1	0	0	0	0	0	0	0	3	0	1	1	1	0	1	0	0	5	2	0	3	1	0	1	2	0	3
OTU 35	2	1	0	1	0	2	3	0	0	0	1	0	0	0	0	0	0	0	0	2	3	0	8	0	1	3	0	0	7	0	0	0	0	0	0	0	0	0	0	3	0	2	1	0	0	0	0	1	0	8
OTU 36	0	2	0	0	3	0	3	0	2	0	12	0	1	0	4	2	0	0	0	0	8	1	4	0	1	5	0	0	0	0	0	0	0	1	1	3	0	1	0	0	4	1	0	3	0	0	0	0	0	4
OTU 37	0	0	0	0	0	0	0	0	0	0	0	0	0	0	0	1	0	0	0	0	0	0	1	0	0	0	0	0	0	0	0	1	0	0	0	0	0	2	0	0	0	0	2	0	1	0	0	0	0	0
OTU 38	0	7	1	0	1	0	5	0	0	0	0	0	1	1	5	3	4	0	17	0	2	0	13	4	0	0	1	0	0	0	0	0	0	0	2	33	0	3	0	0	1	0	0	0	0	3	1	0	0	1
OTU 39	0	0	0	0	0	10	0	3	0	0	7	0	0	0	0	0	3	2	0	0	0	0	2	1	0	0	3	4	0	0	1	2	0	1	0	0	0	0	0	1	0	0	0	0	0	0	7	1	0	2
OTU 40	1	4	4	0	0	0	6	0	0	0	0	3	0	1	0	4	0	3	2	0	6	0	0	1	0	3	0	0	1	1	2	1	0	0	20	0	0	1	26	0	1	1	0	0	7	1	0	2	1	2
OTU 41	0	5	0	3	1	0	0	0	70	0	3	0	18	4	0	3	0	1	0	0	4	1	0	1	0	0	1	1	0	13	52	1	25	0	1	4	0	1	2	0	0	1	0	0	0	0	0	0	32	0
OTU 42	0	0	0	0	0	2	0	0	0	0	0	0	0	0	2	0	0	0	0	0	0	0	0	0	0	0	0	0	6	0	0	0	0	1	0	0	0	0	0	0	0	0	0	0	0	0	0	0	0	0
OTU 43	0	0	0	0	0	0	0	0	0	0	0	0	0	0	0	0	0	0	0	0	0	0	0	0	0	0	0	0	0	0	0	0	0	1	0	0	0	0	0	0	0	0	0	0	0	0	0	0	0	0
OTU 44	0	0	0	0	0	0	0	0	0	0	0	0	0	0	0	0	0	0	0	0	1	0	0	0	0	0	0	0	0	0	0	0	0	0	1	0	0	0	0	0	0	0	0	0	0	0	0	0	0	0
OTU 45	6	2	0	2	2	0	2	0	0	0	7	1	0	0	0	5	3	0	4	0	0	4	1	8	0	0	1	1	2	0	3	0	0	2	2	0	0	0	0	0	1	4	2	5	1	1	1	0	0	1
OTU 46	9	1	1	4	0	1	4	72	7	1	6	4	3	1	2	0	0	2	2	1	4	13	0	2	1	1	1	0	0	1	0	1	0	1	0	1	1	38	3	0	0	1	0	0	5	1	0	0	3	2
OTU 47	0	0	0	0	0	0	0	0	0	0	1	0	0	0	2	1	0	2	0	1	0	1	0	0	1	0	1	0	0	0	0	0	0	0	0	0	0	1	1	0	0	0	0	0	0	0	1	0	0	0
OTU 48	1	16	0	1	0	2	1	0	2	0	1	4	0	0	0	1	5	1	4	53	0	6	0	1	0	0	1	0	0	0	0	0	0	2	1	1	0	0	1	0	0	10	0	0	1	2	0	0	0	0
OTU 49	0	1	1	2	0	1	1	0	0	0	0	0	1	0	0	2	0	0	1	0	4	2	0	2	0	0	0	3	129	0	1	0	1	0	0	0	1	0	0	0	0	0	4	0	5	2	2	0	0	0
OTU 50	2	1	0	0	2	0	1	0	0	4	4	0	59	0	2	8	0	0	2	78	0	2	3	6	0	3	3	0	0	1	0	0	0	0	5	1	0	0	1	0	0	1	0	1	3	33	0	1	0	0
OTU 51	2	0	0	0	0	0	0	1	1	0	0	0	0	0	9	0	0	1	0	0	0	1	1	0	0	0	5	7	0	0	0	1	0	0	0	0	0	0	3	0	0	1	0	0	0	0	1	3	0	0
OTU 52	1	1	0	2	3	3	1	5	2	1	0	2	0	1	6	5	0	0	0	1	4	2	2	4	0	0	0	7	0	0	1	2	0	4	1	0	0	2	0	0	1	1	0	2	0	20	3	4	1	1
OTU 53	0	0	0	0	0	0	0	0	0	0	0	0	0	0	0	0	0	0	0	0	0	0	0	0	0	0	0	0	0	0	0	0	0	0	0	0	0	0	0	0	0	0	0	0	0	0	0	0	0	0
OTU 54	0	1	0	1	2	5	0	4	0	0	7	0	0	7	5	6	1	1	1	0	31	1	6	5	3	2	2	2	0	0	0	0	0	4	3	0	0	0	1	1	4	0	7	3	1	1	1	1	0	2
OTU 55	0	0	0	0	0	0	0	0	0	0	0	0	0	0	0	0	0	0	0	0	0	0	0	0	0	0	0	0	0	0	0	0	0	0	0	0	0	0	0	0	0	0	0	0	0	0	0	0	0	0
OTU 56	0	0	0	1	1	0	0	0	0	0	0	0	0	0	0	2	3	0	3	0	1	0	0	1	2	0	0	0	2	0	0	0	0	3	0	0	0	0	0	1	0	0	0	4	7	0	0	0	0	0
OTU 57	1	2	1	1	5	0	0	0	5	0	2	2	3	4	8	2	4	7	4	0	3	1	9	2	0	0	5	1	3	0	3	3	4	5	1	1	10	0	4	1	2	13	4	1	0	2	1	10	0	8
OTU 58	0	3	0	1	0	0	0	2	0	1	3	0	0	0	1	0	0	0	1	0	0	1	0	6	0	1	0	0	0	0	0	0	0	0	0	0	0	0	0	3	0	0	2	0	0	3	2	2	0	0
OTU 59	0	2	4	2	12	0	0	0	1	1	1	0	1	0	0	5	0	0	0	0	1	1	1	0	0	0	0	0	0	0	1	0	1	0	3	1	2	0	0	0	0	1	1	0	0	1	0	0	0	0
OTU 60	0	0	0	3	0	0	0	2	0	0	3	1	0	3	0	8	0	1	2	1	3	4	6	4	1	0	0	6	7	0	0	5	0	0	2	0	0	0	3	2	4	1	0	2	0	0	0	1	1	0
OTU 61	4	9	1	0	7	21	33	5	5	1	2	32	2	29	0	10	2	21	12	0	7	0	4	0	1	3	46	21	3	0	0	15	2	74	5	35	2	11	33	0	5	1	51	2	0	1	8	24	0	0
OTU 62	2	2	0	1	1	0	0	0	0	0	0	0	0	0	0	0	0	0	0	0	0	3	0	0	0	1	0	0	0	0	0	0	0	1	0	0	0	0	0	0	7	0	0	0	0	0	3	0	0	0
OTU 63	1	0	1	0	0	1	0	0	3	1	0	0	0	0	0	2	2	0	1	0	0	3	0	0	0	1	1	54	0	1	1	0	1	0	0	0	0	0	0	0	0	3	0	0	0	0	0	0	2	0
OTU 64	1	6	2	2	5	0	1	0	4	0	4	5	4	2	1	0	0	2	5	2	9	3	0	1	3	3	1	6	4	0	0	0	1	0	0	4	0	1	1	3	1	2	0	2	0	4	0	6	0	0
OTU 65	0	0	0	0	0	0	0	0	0	0	0	0	0	0	0	0	0	0	0	0	0	0	0	0	0	0	1	0	0	0	0	0	0	0	0	0	0	0	0	0	0	0	0	0	0	0	0	0	0	0
OTU 66	3	14	0	1	0	120	0	0	0	0	0	2	0	2	2	1	3	0	0	0	0	3	4	0	0	0	0	0	2	0	0	67	0	0	2	2	1	2	1	1	6	4	2	31	7	0	71	0	0	4
OTU 67	0	0	7	1	4	4	0	2	0	0	4	0	0	0	5	0	0	5	2	0	3	1	0	0	0	0	9	0	0	0	0	5	0	0	0	0	0	3	2	0	3	0	0	33	1	0	0	6	0	0
OTU 68	0	0	0	0	0	1	2	5	0	0	0	0	0	0	0	0	4	0	0	0	0	2	0	1	0	0	0	1	1	0	0	0	0	2	0	0	0	0	0	0	0	4	6	1	0	0	0	6	0	0
OTU 69	0	2	0	2	3	0	3	1	1	0	5	3	0	6	1	16	2	1	4	0	0	4	2	1	0	1	1	0	1	0	1	0	0	0	6	2	1	0	1	0	0	6	8	0	0	1	1	1	0	0
OTU 70	0	0	0	2	1	0	0	1	0	5	6	0	0	0	5	0	0	1	0	0	0	3	0	48	1	0	0	0	0	0	0	0	0	4	0	0	0	0	1	0	1	0	0	0	4	0	0	0	0	0
OTU 71	4	0	9	2	0	0	0	0	0	0	0	0	0	0	1	0	1	2	1	0	2	1	2	0	0	6	2	3	1	2	0	0	0	2	1	0	1	0	2	0	8	2	0	1	0	0	0	3	14	0
OTU 72	0	3	1	1	1	0	0	0	3	0	0	0	0	0	0	0	0	0	0	0	1	0	1	0	0	1	0	1	3	0	0	2	0	0	0	2	0	0	0	0	0	2	1	5	0	0	2	0	0	0
OTU 73	94	0	0	1	0	2	3	3	0	4	0	1	0	5	0	8	3	0	0	0	10	0	2	0	0	3	0	1	1	0	0	1	2	17	1	6	1	1	0	3	0	1	6	1	0	2	0	0	0	3
OTU 74	0	0	2	6	0	1	0	1	30	2	0	5	1	0	7	1	4	0	1	1	0	3	8	1	0	1	1	3	0	17	22	1	19	0	1	0	0	3	0	0	2	0	1	10	2	1	0	4	20	1
OTU 75	0	12	3	0	2	0	1	4	0	0	2	1	1	0	2	0	1	1	1	0	5	0	4	1	0	0	0	1	1	0	4	0	0	2	0	0	1	1	0	0	0	5	4	3	0	0	0	0	0	0
OTU 76	0	0	0	0	0	0	0	0	0	0	0	1	0	0	2	0	1	1	0	27	2	0	0	0	1	0	0	0	0	0	0	0	0	1	2	0	18	0	0	17	1	0	0	0	0	0	0	0	0	47
OTU 77	0	1	0	1	8	0	3	6	0	1	2	0	1	0	1	0	2	0	0	0	1	0	0	2	5	0	0	1	4	20	0	0	1	5	0	1	0	0	0	0	5	1	3	2	4	0	3	0	31	1
OTU 78	0	2	4	0	0	2	9	0	0	2	0	3	0	3	1	0	0	1	0	0	2	0	2	2	0	0	15	3	2	0	1	1	0	10	2	7	0	4	13	0	1	3	11	5	0	2	2	8	0	4
OTU 79	1	2	5	9	2	2	8	0	1	10	15	1	0	4	8	3	7	162	0	5	25	9	49	6	8	3	16	1	3	47	0	1	2	5	2	1	7	1	7	2	3	3	91	12	3	7	39	6	0	4
OTU 80	0	0	0	1	2	4	0	1	0	0	0	6	0	24	32	1	0	1	0	6	4	0	4	3	4	2	4	1	25	1	0	0	1	6	0	0	22	2	1	10	8	3	12	13	2	0	0	1	2	11
OTU 81	1	2	2	0	0	0	4	1	3	5	1	2	2	4	2	9	0	2	1	0	3	0	4	0	3	2	3	1	14	0	0	1	1	2	2	0	0	0	1	13	4	0	0	4	1	0	0	0	1	1
OTU 82	0	0	0	1	1	0	0	0	0	0	1	0	0	4	1	1	2	0	0	0	4	1	0	2	5	4	4	2	0	0	0	0	0	0	2	0	4	0	1	1	2	3	1	2	0	0	0	0	0	0
OTU 83	0	0	4	0	0	0	0	0	0	0	0	0	0	0	1	0	2	0	0	0	0	1	0	0	0	0	0	0	0	0	0	0	0	0	0	0	0	0	0	0	0	0	0	0	0	0	0	0	0	0
OTU 84	0	4	1	0	0	3	0	0	0	0	0	0	0	0	4	0	3	0	0	0	2	0	1	0	1	6	4	0	0	0	0	2	0	8	0	0	1	0	3	1	7	0	1	1	0	0	1	2	0	0
OTU 85	0	1	0	0	0	0	0	0	0	0	0	0	0	0	1	1	0	0	2	0	0	6	0	2	0	0	0	0	0	0	0	0	0	0	0	0	0	0	0	0	0	5	0	0	0	0	0	0	0	1
OTU 86	0	0	0	0	0	0	0	0	0	0	0	0	0	0	0	0	0	0	0	0	0	0	0	0	0	0	0	0	0	0	5	0	0	0	0	0	0	0	0	0	0	0	0	0	0	0	0	0	0	0
OTU 87	0	0	0	0	0	0	0	0	0	0	0	0	0	0	0	2	0	0	43	0	0	0	0	0	0	3	3	0	0	0	0	0	0	0	0	1	0	0	0	0	0	0	0	1	1	0	0	0	0	0
OTU 88	0	0	0	0	0	0	1	0	2	0	0	0	0	1	0	0	0	0	0	0	0	0	1	0	3	0	0	0	0	0	0	0	0	0	0	0	0	0	0	0	0	0	0	0	0	0	0	0	1	0
OTU 89	0	0	0	2	0	1	0	2	0	2	1	0	0	2	0	0	5	0	0	0	0	0	0	0	0	0	0	0	0	1	0	0	0	0	0	0	2	0	0	0	0	0	0	0	0	2	0	1	0	0
OTU 90	0	0	1	0	0	0	0	0	0	1	0	0	0	0	0	0	0	0	0	0	0	10	0	0	0	0	0	0	0	0	0	0	0	0	0	0	0	0	0	0	0	0	0	0	2	2	0	0	0	0
OTU 91	0	0	3	0	0	0	0	0	2	0	0	0	0	0	0	0	0	0	0	0	0	0	0	0	0	0	0	0	1	0	0	0	0	0	0	0	0	0	0	0	0	0	0	0	0	0	0	1	0	0
OTU 92	0	0	0	0	0	0	0	0	0	0	0	0	0	1	0	0	0	0	0	0	0	0	0	0	0	0	0	0	0	1	1	0	0	0	0	0	0	0	0	0	2	2	0	1	0	0	0	0	0	0
OTU 93	0	0	0	0	0	0	0	0	0	0	0	0	0	0	0	2	0	0	0	0	0	2	0	0	1	0	0	0	0	0	0	0	0	0	1	0	0	0	0	0	0	0	2	1	0	0	0	0	0	0
OTU 94	3	8	2	4	2	1	8	6	14	0	0	1	3	3	9	1	3	0	3	0	1	9	0	0	0	12	1	1	6	71	7	0	6	12	5	1	2	0	1	2	2	17	2	4	8	0	1	11	139	1
OTU 95	1	0	0	0	0	0	0	2	0	0	0	0	0	0	0	0	0	0	0	0	0	0	0	0	0	1	5	0	0	0	0	1	0	0	1	0	0	1	1	0	0	0	1	0	2	0	1	0	2	0
OTU 96	0	0	0	0	0	0	0	0	0	0	0	1	0	0	2	4	0	0	0	0	0	0	0	0	0	0	0	0	0	0	0	0	0	0	1	0	0	0	0	0	0	0	2	0	0	0	0	0	0	0
OTU 97	0	0	0	0	0	0	0	1	0	0	0	0	0	0	0	0	0	0	0	0	0	0	0	1	1	0	0	1	0	1	0	1	0	0	0	0	0	0	0	0	0	0	0	0	0	2	0	1	0	0
OTU 98	0	0	1	0	0	3	0	0	0	0	0	0	0	0	0	2	1	0	0	0	0	0	1	0	0	2	0	0	2	0	1	0	0	0	1	0	0	0	0	0	0	0	0	0	0	1	1	0	0	0
OTU 99	1	7	0	1	56	1	1	2	3	0	5	1	0	0	7	0	1	1	5	70	20	0	2	1	7	3	0	0	1	2	0	0	2	1	0	3	73	0	1	50	7	10	2	6	1	3	0	1	11	135
OTU 100	0	2	69	0	2	1	7	1	1	0	0	0	0	0	2	5	3	9	2	0	1	0	1	1	0	0	0	67	1	1	0	0	5	0	1	0	71	0	0	0	4	0	0	0	0	0	3	4	0	0
OTU 101	0	0	0	0	0	0	0	0	0	0	0	0	0	0	0	0	0	0	0	0	0	0	0	0	0	0	0	0	0	0	0	0	0	0	0	0	0	0	0	0	0	0	0	0	0	0	0	0	0	0
OTU 102	0	1	1	1	0	0	0	0	0	0	0	1	0	0	1	0	0	1	0	0	0	0	0	0	0	0	0	0	0	0	0	0	0	0	0	0	0	0	0	0	0	0	0	0	0	0	0	0	0	0
OTU 103	4	0	3	0	1	0	1	3	0	0	0	0	0	0	0	0	1	3	0	3	8	0	2	0	1	3	3	0	0	1	0	1	2	1	1	0	1	2	1	0	2	0	2	2	0	0	1	9	0	1
OTU 104	0	2	0	122	1	1	4	4	2	0	1	4	81	0	1	2	2	3	0	0	1	0	0	0	4	2	0	0	0	0	0	1	142	0	1	3	0	0	0	0	1	0	2	4	0	4	0	1	1	2
OTU 105	0	0	0	0	0	2	1	0	0	0	0	0	0	0	0	1	0	0	0	0	0	1	2	0	0	0	1	0	0	0	0	0	0	0	0	0	0	0	0	0	0	1	0	0	1	0	0	0	0	0
OTU 106	0	0	3	0	0	0	0	0	0	0	0	0	0	0	0	0	0	0	0	0	0	0	72	1	0	0	0	0	0	0	0	0	0	0	0	0	0	0	0	0	0	0	3	0	0	0	0	0	0	0
OTU 107	2	68	0	0	5	0	0	0	0	0	0	0	0	3	0	1	0	2	0	2	0	0	0	1	0	2	0	1	0	0	0	0	0	0	0	0	0	0	0	0	0	0	0	0	0	4	0	7	0	0
OTU 108	0	0	9	1	1	1	7	0	0	1	0	0	0	0	3	0	1	0	1	1	0	6	4	0	0	0	0	0	2	0	0	0	1	7	0	2	0	1	0	0	1	1	0	4	0	0	0	1	1	0
OTU 109	0	0	0	0	0	0	0	0	0	0	0	0	0	0	0	0	0	0	0	0	0	0	0	0	0	0	0	0	0	0	0	0	0	0	0	0	0	0	0	0	0	0	0	0	0	0	2	0	0	0
OTU 110	3	1	1	2	2	0	0	2	3	1	2	3	0	0	7	0	3	1	0	0	0	2	2	0	8	0	0	1	1	0	5	0	0	1	0	0	2	3	0	1	0	1	2	4	3	1	0	0	0	0
OTU 111	0	1	0	0	1	0	0	0	0	1	0	0	0	2	0	0	0	0	6	0	0	0	0	0	0	0	0	0	0	0	0	0	0	0	1	29	0	0	0	0	0	0	0	0	0	0	1	0	0	1
OTU 112	0	0	3	5	0	0	0	0	0	0	0	0	0	4	6	2	2	0	0	1	0	1	2	0	3	1	0	0	0	0	1	0	0	0	1	0	0	0	0	0	2	0	0	4	0	0	0	0	1	0
OTU 113	1	0	0	0	0	0	0	0	0	0	0	3	0	0	0	0	0	0	0	0	0	0	0	0	3	0	0	0	0	0	0	0	0	0	0	0	0	1	0	0	0	0	0	0	0	0	0	0	0	0
OTU 114	3	0	5	0	10	12	0	4	1	0	4	1	23	1	0	1	0	0	0	1	4	11	0	0	4	0	7	1	4	0	0	1	65	1	4	3	0	3	3	3	5	0	0	7	2	8	2	5	0	1
OTU 115	1	4	5	0	1	3	3	0	7	3	1	0	2	0	1	2	8	5	15	5	6	0	1	4	0	1	1	2	1	5	0	0	0	7	4	2	0	0	0	2	1	9	3	0	8	1	3	8	4	4
OTU 116	0	27	1	0	0	2	3	0	1	0	3	4	0	2	14	2	0	0	3	6	0	0	0	0	4	11	2	2	0	0	0	0	0	1	0	4	3	6	90	3	0	1	0	2	0	3	0	2	1	3
OTU 117	0	0	2	4	0	0	0	1	0	1	0	0	0	0	0	0	48	2	0	0	3	7	0	33	0	1	0	2	1	0	0	0	0	0	0	2	0	2	0	0	6	0	1	0	4	0	0	0	0	1
OTU 118	0	0	0	0	0	0	0	0	0	0	0	7	0	0	1	0	0	0	4	0	0	1	0	2	0	1	0	0	9	0	0	0	0	0	0	0	0	0	0	0	2	0	0	0	0	0	0	0	0	0
OTU 119	1	0	1	0	3	3	0	1	13	0	1	1	2	0	0	2	2	1	38	2	1	5	0	0	11	12	5	0	1	0	16	0	3	2	0	3	0	3	3	0	3	0	0	1	11	4	2	2	3	1
OTU 120	0	0	0	0	0	1	1	1	1	0	0	0	0	0	0	0	0	2	0	0	0	0	0	0	2	0	1	0	4	0	0	4	0	0	0	1	0	0	2	2	2	0	0	0	0	0	47	0	0	0
OTU 121	1	0	0	0	2	0	8	0	0	1	0	0	0	2	4	0	0	0	0	1	2	0	1	2	0	0	0	0	9	0	0	0	0	0	0	0	0	0	1	0	1	1	0	3	1	0	0	0	0	0
OTU 122	0	1	15	1	1	0	1	13	20	0	0	1	2	1	3	4	84	6	0	1	1	9	2	31	0	91	6	0	0	3	6	0	6	0	0	0	1	0	2	0	1	17	1	6	5	64	1	3	4	1
OTU 123	7	11	7	0	2	0	1	10	12	3	5	10	1	7	12	3	0	1	13	3	2	7	2	6	4	6	6	10	0	5	3	1	3	2	1	2	2	0	4	4	5	5	4	2	6	6	0	8	3	1
OTU 124	0	0	0	0	0	0	1	0	0	4	0	0	0	11	0	15	0	0	1	1	0	0	1	0	0	0	0	0	0	0	0	0	0	0	15	0	0	0	0	0	0	0	0	0	0	0	0	0	0	1
OTU 125	3	8	2	1	5	16	20	4	5	3	7	13	0	1	3	10	1	7	4	0	7	2	3	3	10	12	29	1	2	1	1	8	0	23	3	13	0	7	15	2	6	3	7	1	2	6	9	1	1	2
OTU 126	0	0	0	0	0	0	0	0	0	0	0	0	0	0	0	0	0	1	0	0	0	0	0	0	0	0	1	1	3	0	0	0	0	1	0	0	0	0	0	0	1	0	0	0	0	0	0	0	0	0
OTU 127	1	1	2	0	0	3	0	0	1	0	0	0	0	2	2	0	1	0	1	0	0	3	1	1	0	0	0	0	1	1	1	0	2	0	0	1	0	0	0	0	12	0	3	0	3	1	0	1	1	3
OTU 128	3	5	13	1	3	3	2	9	55	10	16	102	17	37	3	5	16	4	2	0	3	3	2	3	1	1	0	5	0	22	30	4	33	7	1	7	1	59	3	4	5	5	2	6	8	9	6	10	46	5
OTU 129	0	0	0	0	0	0	0	0	0	1	4	0	0	0	0	0	0	0	0	1	0	0	0	0	0	0	2	0	0	0	0	0	0	0	0	1	0	0	0	2	0	0	0	0	0	0	0	0	1	0
OTU 130	0	0	0	0	24	0	1	5	1	0	1	0	0	3	1	0	1	0	5	0	2	0	20	0	0	1	0	0	0	0	4	0	0	0	0	0	2	0	0	5	1	1	0	2	1	2	1	2	0	2
OTU 131	2	0	1	0	1	2	0	2	3	2	0	4	0	1	0	5	0	0	0	0	0	1	1	0	1	0	1	2	0	2	112	4	0	0	1	0	0	0	3	1	3	3	0	0	0	0	0	0	2	0
OTU 132	0	0	0	0	0	0	0	0	0	0	1	0	1	4	0	0	0	0	1	1	0	0	0	0	0	0	1	0	0	0	0	0	1	1	1	0	0	0	0	0	0	0	0	1	0	4	0	0	2	0
OTU 133	37	1	0	0	0	0	3	0	0	0	0	0	0	0	0	0	0	1	0	2	0	1	0	0	0	0	0	0	0	0	0	0	0	0	0	0	0	0	0	0	0	0	0	0	0	0	0	0	0	0
OTU 134	1	4	0	2	0	1	0	0	1	1	8	2	0	4	3	0	1	1	1	0	2	4	0	1	2	1	2	1	4	0	4	0	0	0	0	2	0	0	0	0	3	0	0	0	6	1	0	0	0	0
OTU 135	0	0	12	5	0	6	0	3	1	0	4	2	0	3	1	1	5	3	7	4	0	3	0	2	0	0	3	2	2	0	1	0	1	6	2	1	3	0	3	0	6	3	0	0	3	0	0	10	0	1
OTU 136	0	0	1	2	0	2	0	0	0	1	0	0	0	1	1	0	2	0	3	0	0	0	0	0	1	2	0	4	1	0	0	0	0	7	0	5	0	0	0	0	13	0	0	0	0	2	1	11	0	0
OTU 137	0	0	0	0	0	0	0	0	0	0	0	0	0	0	0	0	0	0	0	0	0	1	0	6	0	0	0	0	0	0	0	0	0	0	0	0	0	0	0	0	0	0	0	0	0	0	0	0	0	0
OTU 138	0	0	1	0	0	0	0	2	1	1	0	1	0	0	0	1	1	0	0	0	0	0	0	2	0	0	0	0	0	1	1	0	0	0	2	0	0	0	0	0	0	0	0	6	0	0	0	1	0	0
OTU 139	0	0	19	0	4	2	2	5	0	0	5	1	0	3	0	4	1	1	0	0	7	0	1	0	4	4	1	1	0	0	1	0	0	8	82	0	0	1	1	154	1	7	6	0	1	1	2	9	0	0
OTU 140	5	3	5	3	6	20	2	0	5	7	2	3	1	2	5	0	0	3	2	1	13	0	1	0	12	4	0	9	2	1	3	13	4	1	0	2	3	49	0	0	7	3	1	2	6	101	5	9	5	1
OTU 141	0	0	0	0	0	0	0	0	0	0	0	0	0	0	0	0	0	0	0	0	3	0	0	0	0	0	0	0	0	0	0	0	0	0	0	0	0	0	0	0	0	0	0	0	0	0	2	0	0	0
OTU 142	0	0	0	0	0	0	0	0	0	0	0	0	0	0	0	0	0	0	0	0	2	0	0	0	0	1	0	0	0	0	0	0	0	0	0	0	0	0	0	0	0	0	0	0	0	0	0	0	0	0
OTU 143	0	0	4	0	3	0	0	6	0	0	1	0	1	0	1	0	0	0	0	0	0	0	1	1	0	0	0	0	1	0	2	0	0	0	0	0	0	0	0	0	0	10	0	0	0	0	0	0	1	0
OTU 144	0	0	0	0	0	1	0	0	0	0	0	0	0	0	0	0	0	0	12	0	0	0	0	0	0	2	0	0	0	0	0	0	0	0	0	1	0	0	0	0	0	0	0	0	0	1	0	2	0	0
OTU 145	2	1	0	1	12	10	0	0	3	0	3	0	0	0	0	1	3	10	5	3	0	3	6	1	2	4	15	2	0	0	1	6	1	1	0	1	2	0	8	1	0	7	1	0	4	1	6	1	1	4
OTU 146	1	1	0	1	0	1	0	45	24	27	0	0	9	3	0	1	4	0	0	1	5	1	3	9	2	0	6	8	0	4	8	0	14	2	0	3	0	0	3	0	0	57	0	4	0	0	0	4	8	0
OTU 147	1	0	0	1	0	0	2	2	0	0	0	0	2	2	0	0	0	0	0	0	0	0	3	0	4	0	0	3	0	2	0	0	2	2	0	1	0	0	0	0	1	0	1	0	1	0	1	7	1	0
OTU 148	0	6	0	1	0	2	0	5	1	1	10	0	0	2	2	6	0	0	5	0	0	3	0	0	1	0	1	2	0	1	0	1	0	0	1	2	0	0	0	0	4	4	0	0	0	1	1	3	0	0
OTU 149	0	0	0	1	0	0	1	0	0	0	17	1	0	0	0	0	0	0	0	0	0	1	0	3	0	11	0	0	0	0	0	0	0	0	0	4	0	0	0	0	0	0	0	0	3	3	0	0	0	0
OTU 150	0	3	0	28	0	0	0	0	0	1	0	1	0	0	0	0	1	2	1	0	1	0	0	0	0	0	3	0	0	0	0	0	0	0	0	0	0	0	0	1	0	0	0	0	8	0	0	1	0	0
OTU 151	0	2	0	0	0	1	0	7	0	5	12	2	1	0	0	5	1	0	0	0	5	2	2	0	0	1	1	0	0	0	0	0	1	0	2	6	0	1	0	0	4	0	1	0	0	0	1	0	0	2
OTU 152	0	1	0	6	0	1	0	5	7	0	0	2	6	1	0	2	0	1	1	0	4	2	0	0	2	2	2	1	0	3	8	1	5	2	0	2	1	2	1	0	3	17	5	0	7	0	3	3	4	0
OTU 153	0	0	0	0	0	0	0	0	0	0	0	0	0	0	0	0	0	0	0	0	0	0	0	0	0	0	0	0	0	0	1	0	0	0	0	0	0	1	0	0	0	0	0	0	0	0	0	1	0	0
OTU 154	0	0	0	0	0	0	2	0	0	0	1	0	0	0	3	0	0	1	0	0	0	0	0	0	1	0	0	0	0	0	0	0	0	0	0	0	0	4	0	0	0	0	0	0	0	0	0	0	0	0
OTU 155	1	0	2	0	1	0	0	0	0	0	0	0	0	0	2	2	0	0	0	0	3	1	0	0	0	2	0	0	0	0	0	0	0	0	2	3	0	1	0	0	0	0	0	2	0	0	0	1	2	0
OTU 156	1	6	2	1	0	0	0	6	10	1	3	10	3	32	0	65	1	14	1	0	1	7	0	0	1	37	4	0	0	0	4	0	3	3	36	8	0	2	1	1	0	4	12	1	25	12	0	1	0	2
OTU 157	6	0	0	0	0	2	0	0	3	16	0	0	0	0	1	0	1	0	0	0	0	0	0	4	0	0	0	0	0	0	0	0	0	2	0	2	0	0	0	0	0	0	2	0	0	0	0	0	0	0
OTU 158	0	0	0	0	2	0	0	0	0	0	0	0	0	1	0	0	0	0	0	0	0	0	0	0	0	0	0	0	0	0	0	0	0	0	0	0	0	0	0	0	0	0	0	0	0	0	0	0	0	0
OTU 159	0	0	1	0	1	0	2	2	2	8	0	0	0	0	1	0	0	0	0	2	1	0	1	0	1	0	2	0	0	3	1	1	2	0	0	1	1	0	1	0	1	1	1	1	7	1	0	0	0	1
OTU 160	2	3	2	0	1	10	117	2	3	24	3	5	0	2	5	2	0	0	7	0	0	7	0	5	2	7	1	2	1	2	3	2	0	0	2	4	0	0	1	1	2	8	3	3	3	2	0	0	4	0
OTU 161	4	2	0	0	1	0	2	2	1	15	2	3	2	0	29	0	0	0	0	8	4	2	11	3	2	0	0	0	5	1	0	81	0	3	1	1	1	0	0	5	44	0	0	13	24	0	0	1	0	11
OTU 162	0	1	1	5	0	1	3	1	1	1	0	0	0	0	0	0	1	6	0	0	1	0	2	3	0	3	0	25	0	1	1	0	1	6	1	0	0	0	0	3	0	0	7	0	4	0	0	0	1	0
OTU 163	0	0	0	0	0	0	0	0	0	0	0	0	0	0	0	0	0	0	3	0	7	0	0	0	0	0	0	0	0	0	0	0	0	0	0	0	0	0	0	0	0	0	0	0	0	0	0	0	0	0
OTU 164	0	0	0	0	0	0	0	0	0	0	0	0	0	0	0	0	0	0	0	0	0	1	0	0	0	0	0	0	4	0	0	0	0	1	0	0	0	0	0	0	0	0	0	0	0	0	0	0	0	0
OTU 165	3	0	3	27	0	0	0	0	0	0	0	0	0	0	1	0	0	1	0	0	0	48	7	0	1	1	4	0	0	0	0	1	0	0	0	0	0	1	1	0	4	0	1	4	0	0	0	0	0	0
OTU 166	0	1	0	0	0	0	0	0	0	0	0	0	0	0	1	0	0	0	0	0	0	0	0	0	0	0	0	0	0	0	0	0	0	0	0	0	0	0	0	0	0	0	0	0	0	0	0	0	0	0
OTU 167	1	2	3	1	1	0	0	3	0	0	2	1	0	1	0	0	0	0	1	0	0	0	2	1	0	0	1	1	0	0	0	1	0	2	0	1	0	1	0	0	0	0	0	0	0	1	0	0	0	0
OTU 168	0	13	0	0	113	0	0	3	1	0	1	0	0	0	4	3	8	0	0	0	0	0	0	2	0	7	0	0	1	0	0	0	0	0	1	1	0	0	0	0	0	4	1	4	0	1	1	0	2	3
OTU 169	0	0	0	0	0	0	0	0	0	0	50	0	0	0	2	0	0	0	0	0	3	0	0	0	0	0	0	0	0	0	0	0	0	0	0	0	0	0	0	0	0	0	0	0	0	0	0	0	0	0
OTU 170	0	0	0	0	0	0	0	0	0	0	0	0	0	0	0	0	0	0	0	0	0	0	0	0	0	0	0	0	0	0	0	0	0	0	0	0	0	0	1	0	0	0	0	0	0	0	0	0	0	0
OTU 171	0	0	4	0	0	0	0	0	0	3	0	0	0	0	0	2	1	0	0	1	0	0	2	0	0	1	1	0	6	0	0	0	0	0	3	1	0	1	0	0	40	3	0	42	0	0	8	0	0	0
OTU 172	0	0	0	0	0	0	0	0	0	0	1	1	0	1	0	0	1	0	0	0	0	0	0	4	2	0	0	0	0	0	0	0	0	0	0	0	0	0	0	0	0	0	0	0	0	0	0	0	0	0
OTU 173	1	0	0	0	0	1	0	0	0	0	7	0	0	0	0	0	1	0	0	1	0	1	2	1	0	8	0	0	0	0	0	0	0	0	0	0	0	0	0	0	1	0	1	0	0	0	0	0	0	0
OTU 174	0	5	1	0	0	0	4	5	0	24	0	1	0	0	0	9	0	0	0	0	0	1	0	0	2	0	2	1	2	0	0	0	0	0	5	0	0	0	0	0	0	4	4	0	1	0	0	0	0	1
OTU 175	0	0	0	1	0	0	3	0	0	0	0	0	0	1	1	5	0	0	0	0	0	0	0	0	0	0	0	3	0	0	1	0	0	0	2	0	0	0	0	0	5	0	0	2	0	0	0	1	0	4
OTU 176	0	1	0	5	0	3	4	1	2	0	0	2	0	3	5	0	6	5	0	2	2	3	2	2	86	1	1	0	1	1	1	0	0	4	0	0	2	0	1	3	2	0	2	0	3	0	2	6	0	4
OTU 177	0	0	0	1	0	1	0	0	0	1	6	0	0	1	1	0	1	1	0	0	3	0	0	2	0	0	0	0	2	0	1	1	0	0	0	5	0	1	0	1	1	3	1	2	4	2	2	1	0	3
OTU 178	0	0	0	0	1	0	0	1	0	1	0	0	2	0	2	4	0	0	0	1	6	0	0	0	0	1	0	0	0	0	1	0	2	0	3	0	0	3	0	1	0	2	0	0	0	0	0	0	0	1
OTU 179	1	0	4	1	0	0	0	0	0	0	0	0	0	1	2	2	1	0	2	3	0	1	0	0	2	0	0	2	0	0	0	0	0	0	0	0	0	0	0	2	0	0	1	1	0	1	0	3	0	5
OTU 180	1	4	4	10	2	1	6	5	5	2	5	20	2	6	1	10	10	1	4	9	13	2	3	10	71	1	1	2	1	3	2	0	3	1	3	4	8	10	0	3	1	6	0	1	7	0	67	1	3	8
OTU 181	1	0	0	0	2	5	0	33	0	0	0	0	0	0	0	2	0	1	0	0	4	0	0	0	2	0	1	0	1	0	1	0	2	0	0	0	0	2	1	0	1	7	0	1	0	0	0	1	0	1
OTU 182	0	0	0	0	0	0	1	0	0	0	0	1	0	0	0	0	0	0	0	0	0	0	0	0	0	0	0	0	1	0	0	0	0	0	0	0	0	0	0	0	2	0	0	0	0	0	0	0	0	0
OTU 183	0	1	1	1	0	1	2	6	0	1	1	6	0	2	3	2	0	1	1	0	0	0	0	0	0	0	4	1	2	0	29	3	0	3	0	1	0	1	3	0	0	1	0	1	0	0	0	2	0	0
OTU 184	0	0	3	1	0	0	0	2	0	0	0	0	0	0	0	4	1	0	1	0	3	2	0	0	0	1	0	0	2	0	0	0	0	0	2	0	0	0	1	0	0	0	0	0	65	6	0	1	0	3
OTU 185	0	0	3	5	5	5	0	0	5	3	4	0	1	0	4	6	2	7	0	0	4	4	0	2	0	0	2	0	0	1	0	4	6	5	1	2	1	0	3	3	4	2	0	1	8	2	5	0	5	2
OTU 186	1	0	1	1	1	1	0	1	4	1	0	0	0	0	0	0	0	0	0	0	0	0	0	0	0	0	0	0	3	2	1	0	3	3	0	0	1	0	0	1	0	7	0	0	0	0	1	0	1	0
OTU 187	12	0	5	24	0	10	2	2	0	0	4	5	0	0	1	0	0	0	24	1	3	46	3	2	7	5	2	3	0	0	0	1	0	2	2	57	0	2	1	0	0	3	0	0	5	0	1	11	1	5
OTU 188	4	1	3	0	2	0	1	4	1	7	1	1	0	9	17	12	9	7	3	0	6	0	2	3	5	5	18	2	2	0	0	0	0	1	5	6	1	2	4	5	12	1	2	2	2	0	0	5	0	1
OTU 189	13	1	0	7	0	4	1	2	1	2	3	0	1	2	2	0	6	0	7	1	6	0	2	0	7	2	1	1	4	2	1	2	2	0	0	0	4	1	0	2	6	0	2	0	0	0	5	4	4	1
OTU 190	0	0	0	0	0	0	0	0	0	0	0	0	0	0	1	0	0	0	4	0	0	0	0	0	0	0	0	0	0	0	0	0	0	1	0	0	0	0	1	0	0	0	0	2	0	0	0	0	0	0
OTU 191	0	2	0	0	4	1	8	1	3	96	0	1	3	4	0	11	2	0	0	1	2	0	0	0	0	1	0	2	5	0	0	0	1	3	4	2	92	0	1	0	1	3	2	0	0	3	0	5	4	0
OTU 192	1	1	10	2	0	4	5	0	2	0	6	1	2	0	1	1	2	1	0	0	0	5	0	2	0	1	0	0	2	0	0	2	0	8	1	0	0	0	0	0	0	2	4	4	1	0	0	2	1	0
OTU 193	0	12	1	1	0	5	0	2	3	0	1	1	0	1	0	1	0	0	10	0	16	0	0	0	2	0	2	1	3	1	0	1	1	0	2	18	2	0	2	0	3	2	0	1	0	1	0	0	1	0
OTU 194	0	1	0	0	0	1	0	0	0	0	1	0	0	0	0	2	0	0	0	1	1	2	0	0	0	1	0	0	0	0	0	0	0	0	0	0	0	0	0	0	0	0	1	0	3	2	0	1	0	0
OTU 195	0	0	0	1	2	2	0	0	0	1	0	11	0	0	23	1	0	0	0	7	0	0	1	3	8	1	0	0	15	0	0	0	0	0	1	0	7	21	0	7	0	0	0	12	0	0	0	0	0	5
OTU 196	0	0	0	0	0	0	0	0	0	1	0	0	0	0	0	1	3	0	0	1	1	0	0	0	0	9	0	0	1	0	0	0	0	4	0	0	0	0	0	2	0	0	1	0	1	0	0	0	0	5
OTU 197	4	0	0	3	3	3	1	2	0	0	5	3	0	12	7	16	0	1	0	0	2	3	11	0	0	0	0	1	11	1	4	1	0	5	5	1	0	2	3	0	26	6	0	2	8	1	3	1	0	5
OTU 198	0	0	0	0	0	0	0	0	0	0	7	0	0	0	0	0	1	0	0	0	0	0	0	3	0	0	0	0	0	0	1	0	0	0	0	0	0	0	0	1	0	0	0	0	0	0	0	1	0	1
OTU 199	0	6	1	0	0	1	3	0	0	2	0	0	0	0	0	0	4	1	0	0	0	0	0	0	0	0	0	2	0	0	0	0	0	1	0	0	0	0	0	0	0	1	0	0	4	0	0	0	0	0
OTU 200	1	1	0	0	0	5	2	0	0	0	0	0	0	0	0	0	0	0	0	0	1	0	4	0	1	0	0	0	0	0	0	4	0	0	0	0	4	0	0	1	0	2	0	0	0	1	3	0	0	0
