	Host 1	Host 2	Host 3	Host 4	Host 5	Host 6	Host 7	Host 8	Host 9	Host 10	Host 11	Host 12	Host 13	Host 14	Host 15	Host 16	Host 17	Host 18	Host 19	Host 20	Host 21	Host 22	Host 23	Host 24	Host 25	Host 26	Host 27	Host 28	Host 29	Host 30	Host 31	Host 32	Host 33	Host 34	Host 35	Host 36	Host 37	Host 38	Host 39	Host 40	Host 41	Host 42	Host 43	Host 44	Host 45	Host 46	Host 47	Host 48	Host 49	Host 50	
OTU 1	7	20	6	8	4	67	33	152	9	16	105	5	22	0	33	32	316	191	33	165	43	0	87	229	585	1187	5	4	61	1	143	130	0	120	62	51	285	67	17	36	97	41	19	77	154	0	52	228	17	1
OTU 2	1	25	0	0	25	3	20	3	5	2	16	1	16	27	2	12	0	0	7	3	31	2	3	46	2	6	0	1	0	0	0	19	14	1	0	10	6	8	9	25	4	21	0	49	2	0	16	19	72	18
OTU 3	0	66	0	4	0	0	43	0	5	0	10	4	3	110	0	8	0	4	8	0	1	0	11	173	2	2	2	35	10	49	33	47	1	1	0	16	0	21	0	0	6	0	0	4	15	7	0	0	0	44
OTU 4	0	0	0	0	0	0	0	0	0	0	0	0	0	0	0	0	0	0	0	0	0	0	0	0	0	0	0	0	0	0	0	0	0	0	0	0	0	0	0	0	0	0	0	0	0	0	0	0	0	0
OTU 5	232	171	496	107	42	1249	1859	440	3	581	1260	858	1013	0	1571	1	490	217	1468	384	162	865	312	774	1038	800	1301	1	0	165	78	112	817	147	627	134	57	107	166	1979	340	684	307	42	11	465	348	66	129	29
OTU 6	6	7	3	0	2	31	3	25	3	21	1	0	3	69	7	2	17	6	4	3	51	60	34	1	375	801	2	50	6	1	2	24	48	17	16	30	0	5	5	22	2	24	11	56	1	82	1131	7	142	0
OTU 7	1226	50	336	188	57	49	469	126	1328	219	454	75	108	337	374	79	475	102	28	30	31	242	534	552	13	39	11	40	80	82	18	1230	43	421	101	36	79	95	65	157	203	276	199	62	304	93	162	13	530	61
OTU 8	310	32	154	5	80	154	125	58	53	183	123	24	22	110	26	185	9	58	59	7	90	73	9	3	95	165	67	53	298	3	150	256	25	367	17	189	17	71	13	5	13	3	43	126	97	4	186	210	40	234
OTU 9	0	0	90	11	2	1	58	24	82	21	0	0	2	53	6	8	86	7	5	0	1	23	75	0	0	0	0	16	4	0	0	102	8	4	14	63	1	0	0	14	33	4	15	6	0	3	0	23	15	35
OTU 10	0	155	20	6	2	1	13	0	1	4	6	4	6	39	9	18	0	0	181	11	53	7	0	1	19	39	111	16	0	1	0	12	6	0	1	5	8	27	28	5	0	32	16	69	71	1	113	0	0	1
OTU 11	2	418	24	19	6	44	101	7	36	18	239	75	15	295	153	135	17	14	10	5	29	10	64	159	13	26	34	4	20	527	16	266	15	18	2459	40	19	77	29	44	13	76	13	58	65	97	16	99	89	22
OTU 12	94	13	82	105	73	6	0	1	14	1	16	120	1	27	63	42	19	29	29	9	9	14	47	46	7	18	4	180	16	24	24	7	31	14	10	6	9	27	5	32	11	34	0	1	52	19	42	23	34	21
OTU 13	0	0	0	0	0	0	0	0	0	15	0	0	12	2	7	0	0	0	0	1	0	0	0	1	0	0	0	1	0	167	0	0	0	0	10	38	0	2	0	0	0	0	0	0	0	0	0	0	0	2
OTU 14	1	14	43	0	4	0	0	28	67	7	0	1	0	26	0	46	26	52	0	21	9	0	0	18	20	38	1	1	16	8	0	6	1	14	5	4	62	0	0	2	3	0	37	2	0	12	19	0	138	48
OTU 15	0	0	0	0	0	0	0	10	2	0	1	0	0	0	0	0	0	3	0	0	0	0	0	0	3	5	0	0	0	0	0	0	0	0	2	0	0	0	0	0	16	0	0	0	0	0	0	0	13	4
OTU 16	0	0	0	0	0	0	0	0	0	0	0	0	0	0	0	0	0	0	0	0	0	0	0	0	0	0	0	0	0	0	0	0	0	0	0	0	0	0	0	0	0	0	0	0	0	2	0	0	0	0
OTU 17	24	14	9	2	19	1	2	25	11	4	65	16	2	14	41	37	51	70	18	11	25	121	29	10	5	15	3	0	4	684	23	6	5	8	17	55	20	12	0	41	17	6	4	29	5	0	38	26	1	0
OTU 18	7	14	16	16	153	8	45	12	961	54	14	1776	60	4	24	8	28	69	5	10	25	0	74	1	11	20	3	11	225	35	4	103	65	21	1	51	29	33	22	33	11	95	42	49	25	35	102	453	1	3
OTU 19	0	0	0	0	0	0	0	0	0	0	0	0	0	0	0	0	0	0	0	0	0	0	0	0	0	0	0	0	82	0	0	0	0	0	0	0	0	0	0	0	0	0	0	0	0	0	0	0	0	0
OTU 20	0	3	33	125	34	73	16	30	12	77	5	9	152	18	6	43	74	43	5	24	26	39	3844	5	1	3	0	5	3	34	6	48	0	112	13	58	88	67	27	7	37	80	39	62	49	6	16	121	13	174
OTU 21	93	106	5	27	11	0	17	2	108	0	2	0	1	172	15	75	45	111	51	4	135	1	4	3	3	10	0	76	29	17	31	20	11	0	17	5	7	1	20	1	36	2	7	103	13	45	26	19	56	23
OTU 22	229	28	13	58	45	5	54	28	128	44	38	777	7	32	0	3	20	28	20	13	11	0	49	8	0	4	18	14	55	111	12	113	19	49	14	5	15	26	18	106	2694	1	82	3	50	0	14	53	20	6
OTU 23	16	0	1	5	0	18	10	4	45	12	7	0	6	21	88	98	17	2	2	4	15	0	80	17	42	59	6	6	11	1	48	17	0	0	7	1	6	3	2	68	19	0	1	48	0	2	140	0	4	2
OTU 24	0	63	5	0	21	3	0	2	2	9	2	2	4	19	0	107	21	64	41	0	0	3	57	5	0	0	0	1	0	32	0	0	0	9	4	9	2	2	12	1	7	8	746	0	4	28	0	1	93	28
OTU 25	0	0	11	0	0	0	0	1	0	0	0	0	0	0	0	0	0	0	0	0	0	0	0	14	0	1	0	0	0	0	0	0	0	0	0	0	0	0	0	0	0	0	0	0	0	0	0	28	0	0
OTU 26	27	0	0	0	0	0	11	0	0	0	56	0	9	1	0	0	6	8	0	0	7	0	0	0	0	0	45	6	11	12	0	28	0	0	0	8	0	0	0	85	0	6	0	51	0	2	1	0	0	52
OTU 27	0	0	0	0	0	0	0	0	0	0	0	0	0	0	0	0	0	0	0	0	0	3	0	0	0	0	0	0	0	3	0	0	0	0	0	0	0	0	0	0	0	11	11	0	0	0	0	0	0	0
OTU 28	10	31	36	3	72	26	16	12	21	32	42	49	14	5	99	124	5	28	104	0	2	19	6	1	25	52	6	49	3	285	103	10	29	29	7	4	6	17	10	48	20	8	4	33	21	0	22	7	106	6
OTU 29	20	141	3	9	11	25	4	4	247	43	213	170	11	28	74	23	14	35	47	80	110	34	93	130	2	8	77	1	6	6	164	36	6	74	6	0	123	109	70	14	4	100	43	129	294	256	26	128	116	78
OTU 30	0	0	0	0	0	0	0	0	0	0	0	0	0	0	0	0	0	0	2	0	0	0	0	0	0	0	0	0	0	0	0	0	0	0	0	0	0	0	0	0	0	0	0	0	0	0	0	10	0	0
OTU 31	11	9	4	7	46	0	0	0	0	21	0	0	0	0	5	36	2	0	10	0	0	1	6	3	12	21	3	17	0	0	8	0	9	43	0	27	0	0	0	0	0	7	0	1	11	0	52	60	0	21
OTU 32	158	20	8	8	9	33	7	57	46	22	514	2	309	56	198	85	105	63	3	7	47	15	7	34	1	6	20	32	98	4	2	37	40	25	31	4	31	38	27	238	51	49	76	12	50	73	11	964	70	118
OTU 33	0	2	0	0	7	0	0	0	0	0	0	0	0	66	0	13	0	0	1	0	0	0	0	0	0	0	0	0	0	0	0	4	1	0	0	0	0	0	0	0	0	9	0	0	0	0	5	0	0	0
OTU 34	58	12	16	45	150	141	1	22	25	1516	31	5	5	108	10	371	6	50	5	44	0	2	14	0	8	17	4	2	37	1	30	1	7	3433	2	1	133	0	11	17	3	2	27	8	20	4	44	78	153	5
OTU 35	49	6	175	83	179	94	67	11	118	18	17	59	16	20	5	3	0	656	23	276	28	117	3	64	53	102	14	20	10	79	54	128	675	69	0	8	387	0	1	41	3	0	7	29	0	9	175	64	56	17
OTU 36	38	13	57	89	9	32	47	16	9	33	16	7	1	6	47	37	41	5	6	2	36	2	0	161	2	3	0	24	18	44	1	101	21	21	0	88	7	5	0	41	2	41	21	0	35	166	13	145	3	3
OTU 37	6	0	1	21	0	0	21	39	0	0	0	0	3	35	25	2	42	0	4	630	0	0	0	0	0	0	1	44	38	13	0	26	3	0	36	4	1	0	0	0	33	0	1	0	0	4	0	4	54	0
OTU 38	122	14	38	48	46	15	1	0	0	3	155	1	4	248	17	5	5	0	21	15	1	43	10	8	24	56	16	44	0	48	13	0	5	2	3	4	35	2495	1490	209	4	0	85	55	11	7	24	3	92	335
OTU 39	0	0	1	0	3	33	7	1	35	0	3	1	0	34	9	10	0	0	0	0	0	0	0	12	1	1	2	5	1	0	0	2	15	0	8	0	0	1	0	2	1	6	0	4	20	6	1	0	8	0
OTU 40	12	324	30	138	10	50	3	21	19	85	70	57	1	54	84	274	116	20	29	19	49	49	111	414	2	6	12	43	25	39	52	38	17	102	7	2	9	25	9	73	82	64	1	67	44	16	1	184	44	12
OTU 41	4	3	7	238	900	11	33	9	0	16	18	6	4	0	3	99	45	12	473	3	6	18	17	14	9	21	187	309	83	43	482	24	0	0	2	0	17	20	7	15	12	70	260	4	1	22	45	2	10	175
OTU 42	0	3	4	9	19	12	0	0	3	0	1	7	0	10	56	0	0	0	1696	0	2	3	0	0	0	1	938	0	27	0	38	0	0	1	1	0	0	10	12	0	4	0	13	7	58	0	0	48	4	0
OTU 43	0	0	0	0	0	0	0	0	0	0	0	0	3	0	0	0	0	0	0	0	0	2	0	11	0	0	0	0	0	0	0	0	0	0	0	25	0	9	10	2	0	0	89	19	0	0	0	0	0	0
OTU 44	116	0	0	1	0	1	1	0	12	0	0	56	2	56	0	71	65	0	0	0	0	5	13	0	0	1	0	86	0	0	64	0	0	0	0	0	0	3	0	2	33	2	18	0	0	7	1	0	3	4
OTU 45	63	11	87	8	4	18	13	19	2	76	14	13	65	3	5	154	4	85	11	0	46	24	10	5	1	2	1	8	6	19	25	10	11	112	2	8	0	12	5	7	0	36	46	77	71	35	7	0	2	6
OTU 46	5	123	31	0	5	40	218	83	10	11	34	82	13	29	3	52	25	17	32	0	9	38	19	10	1	2	16	35	12	10	5	375	53	6	29	8	24	104	35	1	24	38	1	14	47	61	30	12	17	30
OTU 47	0	0	0	2	0	0	0	0	0	0	0	0	0	0	29	0	1	12	0	0	7	0	0	63	3	10	2	6	0	0	2	2	5	0	0	0	0	0	1	0	0	3	0	4	0	0	0	0	3	9
OTU 48	0	10	15	22	35	1	95	37	16	19	0	11	11	125	15	3	3	20	43	31	3	9	467	28	0	0	1	3	149	44	22	165	84	18	1005	23	51	18	4	28	16	9	84	31	23	25	31	22	11	50
OTU 49	88	66	40	11	10	2	6	0	0	0	0	2	0	0	0	16	0	1	0	0	29	0	4	0	3	10	3	0	920	51	6	1	0	2	0	17	0	12	11	3	0	1	3	51	8	7	7	52	2	94
OTU 50	42	1	63	52	14	14	2392	34	2	62	0	177	34	91	29	1	37	200	409	44	19	1	104	33	634	1230	222	0	13	58	94	99	31	25	34	27	106	38	34	19	20	138	9	139	17	144	32	1	355	37
OTU 51	0	38	3	68	0	88	18	4	21	5	0	252	1	27	2	2	0	0	26	0	0	9	2	7	0	0	8	26	190	23	43	12	0	5	1	0	0	72	21	5	1	84	11	1	39	257	3	109	404	27
OTU 52	22	23	110	19	84	42	73	51	379	44	47	16	24	229	64	55	42	137	14	93	18	32	16	67	173	327	36	48	281	42	118	165	7	45	9	43	128	55	21	102	56	13	457	74	120	51	748	20	10	35
OTU 53	0	0	0	0	2	5	0	0	0	0	0	0	0	0	0	18	0	0	0	0	0	0	0	0	0	0	0	1	0	0	0	0	0	0	0	0	0	0	0	0	0	0	0	0	0	0	0	0	0	1
OTU 54	37	414	77	70	78	91	47	196	10	51	2111	146	656	149	53	113	371	52	42	14	156	96	106	162	40	66	5	98	19	100	132	106	38	130	86	32	6	117	61	933	240	12	5	122	237	56	76	180	22	15
OTU 55	0	0	0	0	0	0	0	0	0	0	0	0	0	0	0	0	0	2	0	0	4	0	0	0	0	2	0	0	0	0	0	0	0	0	0	0	0	0	0	0	0	0	0	0	0	0	0	0	0	0
OTU 56	9	5	22	1	202	1	0	31	0	1	14	4	3	3	5	2	1	0	0	0	32	18	38	0	0	0	1	27	0	29	4	7	0	4	27	1	0	5	13	4	15	6	0	36	64	0	3	1	0	2
OTU 57	157	20	194	70	49	18	54	26	17	27	6	20	42	141	73	8	24	166	42	11	52	132	26	25	2	7	111	62	139	218	187	84	518	46	2	24	21	54	55	10	23	176	181	32	73	126	51	128	190	22
OTU 58	1	33	20	1	17	2	0	1	147	13	0	57	64	0	11	0	10	8	34	5	45	19	41	30	0	0	1	335	3	54	20	0	0	7	2	0	11	36	10	10	6	2	0	88	5	101	0	0	0	4
OTU 59	12	0	0	1	39	0	23	1	1	0	0	0	1	17	8	209	46	31	109	0	46	0	1	0	42	77	4	179	137	25	4	47	7	0	0	26	0	0	0	0	17	0	18	81	0	0	63	80	28	64
OTU 60	327	32	112	191	224	37	2	48	122	2	17	64	19	17	113	12	43	69	4	8	28	40	70	38	16	30	21	28	39	70	63	0	60	9	13	27	5	23	11	58	15	7	223	157	36	8	121	16	41	11
OTU 61	57	50	344	195	175	980	90	53	20	35	121	36	93	10	117	102	70	129	9	10	9	104	59	90	2	5	8	31	261	53	81	238	720	53	894	87	12	2	26	70	42	270	98	25	18	282	25	382	282	20
OTU 62	0	0	0	1	0	1	0	0	1	0	18	6	0	55	8	0	0	0	0	6	25	1	0	10	0	0	0	19	142	0	0	0	0	1	5	0	11	0	0	31	0	15	0	3	0	16	0	112	5	0
OTU 63	0	0	2	16	49	11	0	0	0	9	32	1	0	1	0	0	0	6	168	30	142	42	46	0	3	7	28	0	33	1	69	0	20	30	0	21	63	26	1	0	4	1	25	139	27	10	7	0	3	0
OTU 64	98	1	92	126	108	56	54	50	34	5	35	137	23	17	13	10	105	52	12	1	106	277	6	15	470	16	22	26	294	162	22	165	49	6	41	235	8	7	2	3	14	22	479	178	11	90	10	66	161	64
OTU 65	0	0	0	0	0	0	0	0	2	0	0	1	0	6	0	0	0	0	0	0	2	0	0	0	0	0	0	0	0	0	0	0	0	13	0	0	0	0	0	0	0	0	0	0	0	0	0	0	0	0
OTU 66	2	1	17	35	455	76	166	57	1	54	13	0	11	5	12	61	41	11	6	7	48	1	0	26	16	33	20	12	63	40	41	313	78	159	23	111	25	113	9	0	58	3	0	172	44	118	60	121	151	20
OTU 67	4	88	7	23	379	345	4	24	7	19	19	14	0	2	75	3	13	168	41	0	297	45	93	4	24	44	28	75	12	63	16	9	154	1	11	7	4	148	29	0	15	131	7	636	288	18	111	0	6	865
OTU 68	37	19	38	3	0	5	8	11	9	7	0	2	4	15	33	4	1	39	41	20	1	4	8	37	2	5	13	1	0	11	51	4	1	0	0	0	31	0	1	34	5	0	27	2	24	1	0	0	8	4
OTU 69	222	37	6	15	173	42	2	0	27	54	12	27	0	247	164	280	5	8	4	12	0	38	0	91	3	5	1	72	242	0	0	7	56	123	0	3	58	6	15	1	1	592	18	35	11	108	10	84	32	37
OTU 70	1	121	111	0	36	5	0	0	1	0	0	1	15	221	75	0	0	0	376	1	13	4	4	5	9	21	111	3	0	6	53	17	0	9	0	48	7	39	13	40	0	32	1	0	0	4	1	32	60	13
OTU 71	4	0	11	0	2	0	6	6	22	30	3	0	7	3	10	7	8	0	2	1	0	0	0	0	0	0	0	9	133	49	1	9	0	68	11	1	0	2	1	0	11	32	8	46	1	0	55	0	4	4
OTU 72	114	0	6	291	41	68	38	705	0	13	24	12	3780	2	17	8	765	44	20	8	165	208	520	5	1	2	27	117	2	5	85	75	35	10	328	7	4	23	4	81	417	50	6	255	64	15	3	23	46	15
OTU 73	614	59	104	1	24	107	8	73	8	2	0	18	0	14	109	25	42	95	4	3	6	6	39	27	0	0	22	63	53	0	79	2	106	41	21	25	14	10	0	0	31	4	22	191	10	2	3	62	8	23
OTU 74	73	11	86	12	18	0	3	27	30	42	109	12	69	38	29	1	94	35	118	5	24	2	6	39	1	5	2	341	25	46	170	0	1	148	19	1	11	5	11	16	23	140	89	9	31	7	36	434	101	79
OTU 75	287	24	67	6	31	87	78	16	91	16	2	14	18	156	56	26	24	34	20	39	21	58	70	9	50	98	3	5	0	21	62	112	29	17	0	55	71	8	0	7	8	1	1	87	18	40	64	56	13	319
OTU 76	0	0	19	21	4	4	24	0	0	1	5	4	0	15	10	5	0	0	3	0	0	0	1	1	0	0	0	2498	9	1	10	8	25	0	0	14	0	22	4	1	1	180	26	0	22	0	0	13	13	2
OTU 77	84	6	43	76	2	21	15	6	55	12	18	89	2	16	30	47	4	7	8	224	23	68	0	3	12	42	4	54	98	33	8	32	37	1	0	16	3	0	3	0	8	0	107	5	12	5	59	38	22	71
OTU 78	134	17	69	64	359	71	12	1	142	1	68	32	8	2	325	60	68	3	0	0	208	41	47	28	10	24	11	15	30	0	30	22	31	0	0	11	1	57	34	28	185	99	104	417	91	3	171	184	92	31
OTU 79	84	116	139	74	187	105	80	54	277	24	69	66	103	378	117	84	96	264	63	43	319	171	71	8	54	138	44	42	62	782	44	125	98	70	41	117	73	81	70	203	72	136	164	463	204	204	173	125	111	140
OTU 80	49	37	59	79	21	113	1	0	21	7	5	4	115	410	12	50	34	5	66	12	50	7	40	13	4	12	2	28	84	22	116	19	14	3	1	20	16	241	104	191	9	7	48	175	412	99	72	36	22	119
OTU 81	158	2	11	11	25	103	11	1000	52	81	16	23	28	195	8	269	59	25	27	13	33	141	17	6	2	2	15	38	150	252	0	20	67	106	495	56	15	36	43	6	33	16	23	37	3	33	20	52	33	22
OTU 82	9	2	68	39	7	6	0	9	25	26	2	0	3	284	0	53	27	3	17	8	0	3	4	7	35	45	1	41	36	48	12	8	2	10	19	19	25	6	6	62	12	36	22	1	8	4	26	57	10	923
OTU 83	1	3	7	0	15	0	0	0	1	29	16	1	18	1	5	219	0	1	0	6	0	78	9	0	0	0	0	1	10	0	1	6	19	31	0	0	7	0	0	0	0	1	0	0	9	0	0	0	2	0
OTU 84	3	28	3	0	34	0	203	8	19	79	18	9	1	42	3	38	10	26	14	0	192	0	4	5	0	0	19	0	1	3	0	115	85	220	18	0	1	70	58	1	14	10	0	98	112	14	8	4	46	103
OTU 85	1	0	24	0	4	0	0	6	0	0	22	0	3	1	20	5	0	0	58	0	0	1	1	0	0	2	7	0	0	4	0	2	19	0	3	0	0	0	0	0	13	63	0	3	0	63	0	23	1	0
OTU 86	0	0	2	0	0	0	25	0	0	0	1	17	0	0	17	0	0	0	218	0	0	0	0	0	1	1	121	0	0	0	341	31	0	0	0	0	0	0	0	0	0	0	3	0	0	0	0	0	0	0
OTU 87	12	0	0	0	24	207	0	0	5	0	0	60	0	14	0	7	3	1	17	0	138	0	18	0	0	0	1	0	0	26	33	2	4	0	5	71	0	41	9	7	1	0	32	138	0	7	0	0	0	0
OTU 88	0	1	0	0	0	0	0	0	0	20	1	0	2	5	1	0	0	0	15	7	7	47	0	8	0	0	35	0	46	0	112	0	0	3	0	0	3	0	0	1	0	9	0	0	0	20	0	9	15	2
OTU 89	3	0	0	1	16	2	14	7	8	9	2	0	0	46	2	10	16	12	0	0	84	0	0	0	0	0	0	18	0	0	1	68	1	5	8	39	0	2	2	0	7	2	0	144	1	0	3	0	12	0
OTU 90	0	18	0	0	0	0	0	0	0	0	0	0	2	0	0	29	0	0	3	0	0	29	0	0	0	0	0	0	105	23	0	0	0	12	0	0	0	3	0	0	0	7	0	0	0	3	0	0	0	2
OTU 91	1	0	190	0	0	0	0	0	1	0	0	0	0	0	2	0	0	0	0	0	0	0	0	0	0	0	0	0	0	0	0	0	0	0	0	0	0	0	0	0	0	0	0	0	0	0	0	1	0	0
OTU 92	1	0	2	1	0	0	0	1	7	0	0	38	4	0	0	3	13	0	0	0	0	12	0	0	0	0	0	0	0	0	0	3	20	0	0	27	1	0	0	5	0	15	12	0	0	48	0	19	0	7
OTU 93	0	0	0	9	0	0	0	5	4	0	5	0	0	39	0	0	0	15	1	0	11	0	1	0	0	0	0	35	1	0	0	1	0	0	2	0	0	0	0	0	0	4	2	0	0	0	0	0	0	0
OTU 94	6	149	45	389	75	13	134	578	97	7	9	15	0	11	15	255	1125	8	53	38	10	420	34	4	156	319	15	12	119	286	93	167	11	0	281	42	14	97	72	29	458	20	101	76	84	191	535	74	43	13
OTU 95	10	10	0	7	0	3	25	4	41	5	7	0	0	10	14	18	4	0	101	0	20	3	0	1	0	0	12	0	49	0	70	24	1	0	0	0	1	0	0	2	1	0	6	12	4	43	11	0	0	2
OTU 96	0	0	5	0	33	0	0	0	0	0	0	1	0	0	0	41	0	0	17	1	0	0	0	0	0	0	8	0	1	0	62	0	0	0	0	0	1	1	0	1	0	4	5	0	0	3	0	0	0	0
OTU 97	0	48	0	0	0	0	0	3	12	0	0	0	1	10	12	1	0	1	12	0	2	0	0	7	0	0	0	1	17	63	4	0	0	10	4	8	0	3	8	0	0	0	0	0	0	2	12	0	0	0
OTU 98	31	28	1	77	5	0	7	3	0	6	40	29	13	6	1	0	13	9	71	0	0	21	19	13	0	1	405	0	85	22	61	17	0	0	5	0	3	0	0	47	12	0	22	0	0	2	4	0	2	4
OTU 99	201	35	13	8	15	11	17	34	42	834	66	51	76	111	46	107	69	33	34	40	25	46	44	133	959	11	97	148	135	6	21	13	22	71	8	211	51	5	4	49	25	27	38	31	102	45	29	107	51	23
OTU 100	128	0	17	6	32	23	6	0	68	58	13	53	0	2	6	88	21	252	36	1047	7	16	4	66	5	7	2	71	42	28	0	5	4	25	1	4	201	5	0	38	9	11	0	65	0	18	6	2	2	0
OTU 101	3	0	82	2	0	0	0	12	70	0	12	0	4	0	0	0	32	10	0	0	0	3	0	8	0	0	0	0	0	0	0	1	0	2	4	0	0	0	0	0	19	0	0	0	1	0	0	0	0	0
OTU 102	17	0	0	0	9	0	0	0	0	9	51	6	0	64	1	6	1	1	0	0	3	4	0	0	0	0	1	0	0	0	0	1	10	6	7	0	5	1	1	1	0	0	0	14	0	7	2	26	22	5
OTU 103	135	11	7	76	0	64	0	9	87	0	0	8	0	89	26	19	24	4	4	9	0	0	17	9	13	22	9	63	1	25	14	0	11	2	9	7	6	1	0	9	2	2	5	14	3	15	11	4	8	38
OTU 104	118	4	151	24	109	15	10	8	54	34	29	70	6	129	23	24	14	40	54	40	7	25	42	117	1238	22	41	12	58	209	97	35	30	8	7	1351	76	8	2	5	40	136	33	36	2	8	86	17	16	2
OTU 105	0	62	1	0	2	72	0	0	89	0	31	4	0	3	2	2	1	1	6	0	4	2	0	10	0	0	0	0	0	0	58	0	23	0	0	0	3	0	0	0	2	0	1	0	0	31	22	33	3	12
OTU 106	0	0	0	37	0	18	20	1	0	0	21	13	11	0	0	0	1	0	1	3	5	0	0	13	0	0	30	0	0	8	0	43	0	0	4	27	11	1	8	2	0	0	9	0	7	26	2	0	0	0
OTU 107	29	2	0	0	1	19	1	1	19	6	45	11	44	88	43	4	0	41	0	5	27	0	4	1	3	4	0	22	0	0	0	0	0	2	0	22	0	0	5	20	15	42	3	0	71	3	0	159	0	35
OTU 108	3	112	165	3	0	0	8	6	0	4	1	0	0	6	0	85	35	34	52	0	116	35	10	6	3	6	6	0	6	0	2	4	94	0	0	22	3	0	1	0	28	0	4	82	1	10	1	8	21	20
OTU 109	0	0	0	0	0	0	0	1	1	0	0	0	0	0	0	0	0	0	0	5	0	0	0	0	0	0	0	0	0	0	0	0	0	0	0	0	9	0	0	0	0	0	0	0	0	0	0	5	0	0
OTU 110	0	3	12	28	0	162	10	17	0	6	76	22	75	0	40	73	56	0	64	5	78	17	10	0	125	242	33	11	34	143	10	8	96	5	26	27	0	46	15	31	18	5	65	60	3	3	553	14	2	8
OTU 111	0	1	1	0	14	2	0	3	12	6	6	4	0	0	2	0	0	12	0	0	0	27	37	0	0	0	0	0	1	1	0	0	0	0	0	3	0	0	0	0	1	0	10	0	0	0	19	0	156	20
OTU 112	0	8	7	6	7	23	13	30	9	7	4	0	0	113	28	126	41	26	12	0	0	29	14	0	5	13	1	8	0	33	1	43	0	15	15	3	0	0	1	2	6	11	6	29	0	0	71	13	5	14
OTU 113	5	0	0	3	0	13	0	0	0	0	0	0	0	0	0	58	0	0	0	0	2	0	0	0	1	1	5	16	0	0	0	0	6	1	0	2168	0	0	0	0	0	0	0	3	1	0	0	0	0	0
OTU 114	22	118	50	82	19	259	1	43	2	23	41	138	2	60	59	76	67	43	130	16	110	18	27	42	53	88	41	63	28	9	27	0	99	14	9	45	38	9	20	72	34	2473	67	184	96	160	220	52	228	256
OTU 115	37	13	58	96	68	56	326	6	120	1	156	79	94	114	12	87	9	24	60	9	301	2	193	23	12	25	19	14	25	350	68	42	110	25	4	73	29	4	3	151	15	112	97	78	48	28	76	173	21	17
OTU 116	8	308	2	188	58	68	167	356	101	16	3	899	2	118	506	1	668	287	3	48	6	256	198	423	5	9	0	13	52	16	17	252	7	55	173	120	149	2	5	48	332	308	10	10	0	684	52	51	14	10
OTU 117	94	13	0	17	32	17	1	39	0	45	20	5	72	12	106	9	69	0	7	14	41	17	4	6	4	10	33	85	0	290	10	18	12	53	13	0	20	1	0	0	65	25	2	106	0	95	5	72	2	61
OTU 118	7	0	0	0	0	0	0	3	19	0	0	13	0	10	37	1	12	0	84	5	0	0	2	0	0	0	66	0	243	2	147	1	0	8	1	15	32	10	0	4	0	0	0	16	8	0	0	0	1	0
OTU 119	4	36	119	9	37	36	0	1	10	2	13	50	7	17	2	21	14	3	0	10	30	0	3	47	14	25	1	26	18	72	31	1	60	1	5	4	6	39	770	0	5	10	131	76	27	66	60	27	36	34
OTU 120	0	25	193	3	6	7	6	0	14	0	4	1	16	0	1	1	6	0	0	1	3	2	22	0	2	4	0	119	40	0	0	24	1	1	0	4	0	0	0	1	1	23	0	6	0	13	36	5	104	1
OTU 121	2	22	12	0	2	1451	1	1	57	0	7	3	21	7	8	77	0	2	5	7	33	123	6	4	16	44	16	80	194	37	3	1	375	4	0	1	10	35	18	5	4	3	50	181	1	38	2	2	2	29
OTU 122	131	2	1	1254	6	0	35	2	504	7	226	7	24	15	5	78	1	23	31	87	46	30	0	6	28	38	34	53	10	51	84	39	18	0	0	8	184	68	17	60	2	0	4	77	138	3	86	1	11	38
OTU 123	146	111	259	215	109	58	54	28	152	54	164	35	71	42	131	325	224	76	118	41	56	201	157	48	68	114	55	154	108	271	121	88	112	42	35	339	94	61	50	37	61	120	92	104	141	85	103	37	1264	68
OTU 124	0	4	10	0	2	4	14	6	121	0	2	2	28	59	0	84	0	36	19	0	1	87	14	0	0	0	6	3	9	4	48	36	0	0	4	16	0	0	0	0	0	107	45	0	0	0	0	0	1	37
OTU 125	276	37	234	132	140	99	39	63	307	15	219	28	33	133	329	165	101	127	96	47	99	170	117	143	15	29	31	223	171	111	180	127	63	32	43	75	44	52	12	46	29	98	357	174	88	151	78	78	120	16
OTU 126	0	0	0	0	0	0	0	0	0	0	0	0	1	0	0	0	0	0	13	0	0	0	0	0	0	0	4	1	0	0	0	4	0	4	6	0	11	0	0	1	0	0	0	0	0	0	23	1	0	27
OTU 127	16	39	32	4	36	51	18	109	31	3	22	1	198	63	4	25	149	186	17	56	0	4	0	1	0	0	18	2	61	129	6	21	10	1	56	72	158	73	42	11	23	1	0	22	100	56	18	199	15	3
OTU 128	102	347	282	182	1167	161	62	21	152	56	275	245	386	417	37	355	63	108	311	33	155	1053	40	74	26	48	163	323	47	267	760	155	43	196	29	632	81	47	2289	170	254	93	680	157	85	283	142	263	173	172
OTU 129	0	0	0	3	1	0	0	91	6	1	0	0	0	10	19	1	93	29	3	0	0	0	167	0	0	0	7	0	0	19	1	1	11	0	36	0	0	0	0	0	68	0	0	0	0	0	0	0	139	8
OTU 130	0	0	769	1	6	41	1	15	2	13	21	23	16	12	0	2	40	0	32	1	43	15	6	2	25	30	15	30	36	83	14	7	0	35	15	12	2	34	31	89	9	126	33	8	65	83	2	53	48	7
OTU 131	61	37	179	43	23	45	16	0	2	21	47	0	9	3	180	5	9	18	357	1	21	2	0	63	5	26	229	0	5	0	1108	44	9	10	0	38	2	0	0	0	2	1	1015	35	13	100	12	11	129	55
OTU 132	2	113	95	28	0	0	0	6	0	37	5	0	0	38	13	0	4	4	0	1	33	2	23	1354	21	62	1	3	5	0	20	14	17	73	1	1	2	1	4	3	0	17	0	0	6	1	6	0	13	0
OTU 133	57	0	3	3	0	4	0	0	0	29	1	30	6	46	0	1	1	1	0	0	0	41	0	2	2	2	0	0	2	5	3	5	0	38	0	3	3	21	0	1	5	0	1	15	4	21	0	22	0	0
OTU 134	12	0	0	141	180	26	6	103	46	31	1	4	44	217	5	77	302	133	20	0	10	84	14	52	1	8	51	12	73	14	50	1	15	38	57	4	2	0	0	0	113	22	13	31	16	16	23	1	62	28
OTU 135	3	100	5	29	19	16	9	24	1	13	189	0	29	41	107	38	118	0	1	0	27	9	1	17	2	6	4	5	1	1	18	4	7	1	29	217	2	24	2	51	38	6	14	68	43	35	2	19	31	336
OTU 136	0	10	7	1	7	11	0	0	3	5	150	1	14	20	25	0	3	11	0	8	13	50	33	0	0	0	6	9	0	1	9	2	0	1	1	10	8	22	2	8	1	0	0	27	0	0	21	69	64	104
OTU 137	2	2	52	1	0	18	0	0	3	33	2	4	3	15	0	14	0	0	4	0	4	21	18	3	9	21	0	42	7	0	20	0	9	30	0	3	0	1	0	0	0	0	0	37	0	0	0	0	2	0
OTU 138	5	1	3	5	112	74	1	0	0	10	33	16	4	0	0	306	0	3	0	0	9	2	1	16	0	0	1	10	5	6	1	10	0	6	0	15	0	3	0	1	1	12	12	34	0	20	2	24	0	37
OTU 139	18	243	246	40	304	5	74	56	94	33	73	279	8	221	46	16	50	18	1	11	6	47	63	84	2	1	32	11	147	49	47	175	13	48	45	21	15	26	2	15	22	50	50	51	10	511	113	34	39	73
OTU 140	177	136	28	2	100	353	439	12	80	225	545	22	320	13	5	142	5	54	75	34	70	40	85	6	31	64	95	27	181	200	194	232	373	213	2	99	56	84	30	188	14	10	4	151	64	13	88	342	230	50
OTU 141	0	0	2	0	0	0	0	6	0	0	0	0	0	0	0	0	0	0	0	0	0	0	0	0	0	0	0	0	0	0	0	0	0	0	2	0	0	0	0	0	0	0	0	0	0	0	0	0	0	0
OTU 142	23	0	0	0	0	0	0	0	2	0	0	0	0	0	0	2	1	0	0	0	0	0	0	3	2	4	0	0	0	0	0	0	0	0	0	0	0	0	0	0	0	0	0	0	0	0	6	1	0	0
OTU 143	1	2	0	3	1	15	4	0	0	2	0	0	0	52	1	0	0	3	4	3	4	1	0	0	0	4	0	0	0	0	2	8	0	1	7	7	3	0	2	5	0	1	0	0	2	11	17	0	0	0
OTU 144	2	4	1	0	1	13	18	27	1	0	0	0	0	11	0	0	12	0	7	7	0	0	1	1	2	7	0	0	0	0	0	22	0	0	20	0	15	9	1	1	1	15	0	0	12	1	12	169	4	0
OTU 145	76	22	13	333	0	38	57	36	62	20	20	9	26	146	298	36	45	78	121	28	25	213	122	267	7	18	4	57	352	63	5	37	33	27	23	24	66	25	5	802	22	310	91	14	12	48	23	26	35	77
OTU 146	16	52	32	21	3	0	31	18	5	13	1	24	6	57	17	0	46	0	20	34	58	2	12	39	0	0	16	74	148	12	96	81	9	58	18	558	56	8	9	2	49	1	331	13	9	101	1	4	0	17
OTU 147	3	0	34	2	49	0	4	0	10	0	19	20	39	0	2	85	0	0	8	29	0	0	0	0	24	49	31	0	1	78	0	27	10	4	0	0	63	3	0	48	1	1	0	0	14	0	4	94	7	25
OTU 148	37	610	25	87	2	60	66	13	0	2	15	549	48	30	1964	204	34	9	7	0	4	0	0	8	9	13	14	0	42	55	12	231	3	7	4	19	0	2	29	0	3	13	33	8	78	996	8	88	204	6
OTU 149	45	45	20	4	75	11	18	2	381	5	0	0	2	21	0	0	7	15	5	2	1	9	0	2	0	0	0	18	3	9	1	15	0	2	3	4	4	0	2	20	0	4	15	5	10	1	7	0	4	1
OTU 150	4	10	45	1	7	0	6	3	0	1	5	4	5	16	0	11	0	0	0	0	0	6	1	0	0	0	5	23	2	2	0	5	1	0	0	72	3	0	0	0	0	0	110	0	0	10	0	0	17	1
OTU 151	0	166	3	1864	0	2	1	6	16	47	12	38	21	10	46	81	11	6	2	5	17	4	30	11	15	37	6	6	0	0	0	0	20	6	194	0	1	2	0	5	0	9	61	0	5	60	194	0	36	0
OTU 152	52	6	0	20	444	12	37	32	0	49	6	285	18	12	37	95	59	16	45	2	4	45	0	19	4	14	22	12	25	90	212	72	2	73	12	4	12	0	0	1	46	51	3	162	6	606	33	11	132	108
OTU 153	0	12	160	0	1	0	0	0	0	1	0	0	0	0	0	4	0	0	33	18	0	0	0	0	3	5	0	0	0	0	0	3	0	0	2	0	29	5	5	0	0	0	0	0	18	0	9	0	1	0
OTU 154	0	0	21	0	13	0	0	0	1	0	0	0	0	0	0	0	6	4	0	11	0	0	24	2	9	12	13	41	2	0	0	3	6	1	0	0	15	0	0	0	9	17	27	1	8	6	6	0	0	3
OTU 155	0	9	0	4	39	5	30	0	15	6	26	42	0	0	2	0	0	0	4	34	57	44	0	0	0	0	23	0	0	30	0	20	0	15	1	4	22	2	4	10	1	130	1	44	0	13	5	18	11	7
OTU 156	4	92	4	12	90	2	79	23	125	46	26	167	18	630	61	713	19	30	56	34	0	100	17	54	28	59	26	1389	7	22	237	79	63	77	3	65	81	11	25	1	6	84	139	4	15	58	33	40	0	0
OTU 157	84	26	0	0	2	0	5	0	4	5	0	0	0	132	3	0	1	1	0	0	0	0	28	0	0	0	3	0	0	48	6	12	0	25	0	72	0	5	2	9	8	2	0	50	172	11	0	3	43	23
OTU 158	0	0	0	4	0	0	0	0	0	0	0	22	0	0	0	0	0	0	0	0	0	0	0	0	0	0	0	0	0	0	0	0	0	0	0	0	0	0	0	0	0	3	0	0	0	0	0	0	0	0
OTU 159	6	22	4	89	0	20	1	2	17	11	36	2	16	118	1	59	4	92	71	1	22	19	35	4	0	1	62	6	28	60	77	2	23	5	3	0	3	0	0	0	10	6	84	26	0	0	16	2	18	29
OTU 160	139	145	41	18	91	33	14	2	80	168	38	37	26	28	12	55	27	57	41	25	142	29	86	35	31	69	22	23	148	108	139	40	2	357	5	140	39	31	14	1712	53	19	190	244	16	115	101	155	122	35
OTU 161	5	3	0	11	19	71	331	5	0	99	31	1	3	24	1	38	16	47	16	31	6	21	0	7	7	14	1	8	0	81	10	628	47	123	4	85	32	4	5	9	0	18	119	62	21	57	29	38	33	367
OTU 162	0	2	67	12	101	3	7	1	40	37	1	29	15	11	60	52	2	23	2	0	0	2	22	4	24	49	0	20	2	39	18	6	27	26	2	5	0	6	6	11	18	3	11	71	14	0	1	3	26	11
OTU 163	0	2	0	1	0	12	0	0	0	0	0	0	0	0	0	0	0	0	0	0	0	0	0	0	0	0	1	0	0	0	2	11	0	0	0	0	0	0	0	0	0	1	0	0	0	0	0	0	0	0
OTU 164	0	0	36	0	0	0	0	0	0	3	0	0	15	0	5	0	1	0	0	0	0	0	0	0	0	0	3	0	98	0	0	0	0	0	0	0	1	0	0	0	0	4	0	0	0	0	0	0	0	10
OTU 165	29	5	58	6	138	2	46	10	4	1	28	10	8	109	4	9	0	4	2	0	122	1	13	13	0	0	10	1	0	0	9	94	0	10	3	1	3	57	3	5	10	28	6	206	13	0	4	35	26	160
OTU 166	0	0	0	1	0	0	11	0	16	7	0	0	0	9	0	0	2	0	0	0	0	4	0	0	0	0	0	0	25	0	0	42	0	19	0	0	0	0	0	0	0	0	1	0	0	11	20	0	0	0
OTU 167	48	4	1	0	9	1	0	17	37	0	10	9	13	95	6	50	11	4	0	0	0	0	0	8	0	1	3	2	25	0	27	1	2	0	18	3	0	49	27	0	49	20	2	1	29	58	10	10	4	25
OTU 168	2	2313	23	17	26	4	19	1	28	0	66	101	33	7	1	75	1	12	45	8	1	17	0	14	19	37	3698	19	3	8	0	46	3	15	2	50	14	0	1	1	1	68	11	33	4	30	28	62	98	32
OTU 169	0	18	0	0	1	2	0	0	0	0	0	0	0	14	0	4	0	0	16	0	0	0	0	2	0	0	1	0	0	0	0	0	7	0	0	4	0	0	0	0	0	0	0	0	0	0	0	0	0	0
OTU 170	0	0	0	0	0	0	0	2	0	0	0	1	0	0	0	0	27	1	0	0	0	0	0	0	0	0	0	0	0	0	0	0	0	11	9	5	0	0	0	0	40	0	0	0	0	0	0	0	0	14
OTU 171	29	41	10	23	161	553	7	14	37	4	13	1	2	8	6	27	10	0	8	0	258	2	55	0	65	142	1	60	147	7	7	24	107	4	14	6	0	4	1	3	0	0	29	403	27	2	325	1	4	264
OTU 172	5	5	0	0	20	0	8	0	0	0	32	10	0	0	0	12	5	1	76	0	0	0	2	20	0	0	28	0	0	0	136	11	7	0	0	0	2	9	5	0	0	0	2	5	0	0	0	1	0	11
OTU 173	16	0	2	42	0	0	24	8	45	45	4	0	2	0	4	0	80	7	1	0	0	0	0	1283	0	0	0	1	21	0	95	76	0	46	8	0	3	3	1	2	8	1	0	53	5	0	9	0	89	0
OTU 174	22	22	22	38	6	6	39	3	19	32	2	54	1	66	20	12	47	2486	13	698	0	9	7	0	0	0	0	34	2	54	10	66	20	116	0	55	1373	55	7	61	0	136	0	0	37	101	5	7	5	6
OTU 175	35	0	31	0	14	0	11	0	51	3	53	50	7	0	38	53	1	9	4	0	2	45	2	0	0	3	11	2	22	40	1	3	2	15	2	40	0	3	0	8	1	10	0	0	0	60	2	129	25	137
OTU 176	18	136	574	140	59	4	23	25	166	7	37	114	60	12	119	46	49	57	35	0	23	151	18	86	0	0	41	6	1	71	87	38	17	0	5	16	6	3	1	291	24	90	2	71	15	144	0	63	14	128
OTU 177	1	32	16	10	0	44	0	19	129	23	42	2	16	32	2	61	63	60	133	26	1197	25	74	6	63	139	47	1	67	34	217	0	9	97	5	69	26	26	17	24	25	10	120	1	60	7	343	50	87	1
OTU 178	17	0	74	24	16	88	2	1	3	28	16	33	0	13	0	52	14	95	9	0	0	4	11	951	0	1	18	0	50	0	3	0	1	21	0	41	0	0	0	4	6	3	16	1	18	5	0	2	31	3
OTU 179	25	0	46	0	55	76	21	1	0	0	49	0	0	0	38	0	0	77	21	0	0	9	45	0	5	7	2	87	90	2	30	75	0	0	0	8	0	0	868	50	0	1	37	72	1	0	1	0	159	16
OTU 180	101	137	38	214	51	107	4	72	54	25	15	44	201	27	27	289	80	224	81	16	61	1208	29	120	97	181	71	156	240	46	172	32	47	40	34	116	29	23	7	15	34	197	103	92	57	87	268	201	41	55
OTU 181	4	0	2	2	37	11	74	22	92	21	1	21	12	68	7	157	5	807	52	254	3	20	11	1	11	20	4	16	1	9	80	86	0	11	24	0	535	0	0	77	1837	48	1	35	34	9	0	0	62	11
OTU 182	0	0	0	2	0	0	0	0	0	0	0	0	0	6	0	0	1	42	0	1	4	0	0	0	0	0	0	0	0	0	6	0	0	0	0	0	5	0	0	0	0	0	25	0	0	4	0	9	0	0
OTU 183	0	4	1	156	96	13	10	27	6	0	0	27	1	62	58	13	28	59	135	0	36	55	20	8	3	6	61	80	0	30	268	15	4	0	10	4	1	0	0	10	9	6	92	5	6	19	56	41	0	5
OTU 184	0	6	30	10	5	8	125	6	5	109	6	18	23	0	5	0	31	4	1	0	45	2	0	2	0	0	1	8	42	11	2	202	0	183	0	11	0	3	1	14	9	0	11	137	10	0	14	1	0	62
OTU 185	11	8	97	13	93	4	94	4	34	131	15	24	54	26	41	24	45	7	6	1	51	3	4	10	17	31	39	136	30	18	32	115	14	271	5	8	0	162	87	0	6	84	24	142	185	6	85	5	27	8
OTU 186	81	27	0	0	0	1	0	3	3	1	1	0	2	0	10	0	3	0	109	0	14	12	0	16	6	15	29	7	0	55	3	1	13	7	0	6	6	34	842	0	0	0	6	0	51	0	31	0	29	0
OTU 187	177	58	67	126	111	8	35	405	43	3247	23	19	0	94	33	67	702	50	18	0	124	430	78	6	823	1700	38	26	4	41	42	66	27	98	230	46	0	55	48	83	379	68	134	30	186	30	165	216	371	60
OTU 188	109	54	9	186	89	130	93	53	189	30	201	88	144	28	165	60	125	31	12	20	82	25	109	68	20	42	2	4	59	14	90	161	10	12	15	4	45	1	15	14	54	171	59	80	228	15	43	292	54	130
OTU 189	416	1	27	26	11	28	55	48	483	36	13	0	119	141	40	286	42	14	65	4597	18	17	22	11	31	65	32	3	86	23	92	103	14	100	27	166	3796	62	9	11	39	66	36	56	247	101	206	40	37	34
OTU 190	0	0	0	1	0	9	4	0	3	0	0	1	17	0	0	0	5	0	15	0	8	2	0	0	0	1	0	37	0	0	34	0	0	0	0	27	0	0	0	0	0	0	37	0	9	0	1	0	0	0
OTU 191	92	37	47	156	0	1	14	199	5	9	28	18	100	146	24	55	409	9	14	8	2582	851	43	36	3	4	41	1	105	265	134	34	3	48	100	234	6	14	12	11	162	6	166	88	28	77	28	60	141	1
OTU 192	212	302	406	39	9	127	31	1	1	32	21	231	25	5	25	58	7	71	23	5	66	3	25	93	3	25	22	19	93	88	100	18	54	72	1	2	8	1003	664	13	15	3	123	110	83	651	0	281	31	143
OTU 193	4	0	31	27	1	1	37	6	61	2	19	10	137	2	5	60	0	1	10	6	8	2	2	25	1815	85	0	0	232	173	38	54	0	39	0	4	32	1850	717	11	3	9	12	0	3139	1	220	1	6	85
OTU 194	238	1	663	11	1	4	0	9	8	0	2	0	0	1	15	44	0	11	1	8	17	0	7	21	0	0	0	1	23	173	0	0	1	22	10	1	44	5	0	23	6	2	6	53	0	0	16	8	0	7
OTU 195	52	1	4	0	22	4	7	7	13	2	1	16	11	96	6	2	41	31	3	2	0	22	0	14	0	0	3	12	504	113	3	6	0	1	0	8	2	109	6	0	19	61	7	19	145	1	5	46	75	29
OTU 196	30	0	0	0	20	3	0	7	204	10	7	0	0	29	12	0	1	38	56	1	32	6	0	3	0	0	17	6	25	46	89	0	3159	14	19	10	2	623	314	3	3	68	82	8	1	4	0	61	12	2
OTU 197	40	96	36	40	226	152	93	3295	56	13	46	16	12	80	14	70	16	1	146	4	27	18	22	7	12	16	54	305	108	232	119	172	129	42	1554	36	0	12	2	26	10	68	10	42	83	26	122	10	24	1248
OTU 198	9	47	2	0	0	6	11	0	0	1	1	3	1	0	0	2	2	0	31	0	0	0	0	4	4	8	0	9	0	21	11	24	0	0	1	0	0	26	6	0	0	2	2	0	7	21	4	4	68	4
OTU 199	3	1	0	2	34	36	0	24	0	36	0	0	24	3	77	18	63	15	13	13	0	59	18	85	0	3	6	0	43	1	3	0	0	75	3	0	9	31	0	32	20	13	0	2	0	5	14	70	146	9
OTU 200	114	30	1	57	22	12	2	20	11	12	3	43	0	5	55	2	80	3	5	2	3	0	15	4	2	8	5	15	1	4	1	29	10	57	8	30	1	3	4	41	39	29	39	50	4	4	5	4	91	53
