	Host 1	Host 2	Host 3	Host 4	Host 5	Host 6	Host 7	Host 8	Host 9	Host 10	Host 11	Host 12	Host 13	Host 14	Host 15	Host 16	Host 17	Host 18	Host 19	Host 20	Host 21	Host 22	Host 23	Host 24	Host 25	Host 26	Host 27	Host 28	Host 29	Host 30	Host 31	Host 32	Host 33	Host 34	Host 35	Host 36	Host 37	Host 38	Host 39	Host 40	Host 41	Host 42	Host 43	Host 44	Host 45	Host 46	Host 47	Host 48	Host 49	Host 50	
OTU 1	1	6	0	0	3	0	0	0	1	1	1	0	0	4	1	0	2	0	10	1	2	4	4	1	10	0	1	2	0	1	13	2	8	1	2	5	4	1	0	0	1	3	2	1	0	0	0	0	0	1
OTU 2	0	0	0	0	0	0	0	0	1	0	0	1	0	1	0	0	2	0	1	0	2	0	2	0	0	2	0	0	0	4	1	5	0	0	0	0	1	0	2	0	0	0	1	0	3	0	0	0	2	0
OTU 3	3	0	6	90	0	0	1	2	0	0	0	4	1	0	0	0	0	9	0	0	0	2	0	3	0	3	0	0	0	0	0	0	0	0	0	0	1	0	0	1	0	0	0	0	0	0	0	1	0	1
OTU 4	0	0	0	0	0	0	0	0	0	0	1	0	0	0	0	0	0	0	0	0	0	0	0	0	0	0	0	0	0	0	0	0	0	0	0	0	0	0	0	0	0	0	0	0	0	0	0	0	0	0
OTU 5	7	4	12	15	65	5	43	7	11	76	2	4	6	10	21	38	46	11	5	21	0	4	8	17	3	27	3	9	19	19	4	10	11	3	18	26	20	9	6	11	4	3	14	7	39	15	5	26	3	1
OTU 6	2	0	0	1	0	0	3	0	0	0	0	0	2	0	1	0	0	0	0	0	0	1	1	1	0	1	0	0	0	1	1	2	4	1	1	0	3	0	1	0	4	0	0	0	3	0	22	2	0	0
OTU 7	1	4	4	5	3	5	2	0	2	3	6	5	20	2	7	6	2	0	0	4	1	0	1	2	7	1	2	1	1	8	2	2	0	1	5	0	0	0	1	1	8	7	1	4	7	3	4	14	7	2
OTU 8	1	1	10	13	4	6	1	3	1	2	1	0	6	1	14	1	9	1	11	2	3	9	0	2	0	10	3	2	0	4	2	4	0	2	5	3	4	0	0	3	0	2	0	1	11	3	0	1	0	2
OTU 9	0	1	3	0	0	0	3	0	0	0	0	0	1	0	0	0	0	4	0	0	0	0	0	0	0	0	0	0	0	0	0	0	0	6	0	0	0	0	3	1	0	0	1	0	0	0	0	0	0	0
OTU 10	0	0	0	1	0	0	0	0	1	0	0	1	0	0	0	0	0	2	0	0	1	0	0	0	0	0	0	0	0	4	0	1	4	0	0	1	0	0	7	0	0	0	0	0	2	1	1	0	0	0
OTU 11	2	2	0	0	0	0	0	0	1	1	1	9	0	6	4	4	3	0	1	0	1	2	0	0	2	2	0	1	0	0	3	0	0	0	0	0	0	4	0	38	6	0	1	2	2	4	1	0	5	0
OTU 12	8	0	0	0	0	1	3	0	1	0	1	5	0	0	2	1	1	0	0	0	10	0	0	2	0	0	2	3	3	0	1	5	8	0	3	0	0	0	0	2	2	4	1	3	2	1	2	3	2	2
OTU 13	0	0	0	0	0	0	0	0	0	0	0	0	0	0	0	0	0	0	0	0	0	0	0	0	0	2	0	0	0	0	0	0	1	0	0	1	0	0	0	0	0	0	0	0	0	0	0	0	1	1
OTU 14	0	0	1	1	1	3	2	0	0	2	0	4	0	0	0	4	0	3	3	0	0	0	0	0	0	0	0	0	0	0	0	0	2	0	0	0	0	2	0	0	1	1	0	0	0	0	3	1	0	0
OTU 15	0	0	0	0	0	0	0	0	0	0	0	0	0	0	0	0	0	0	0	0	0	0	0	0	0	0	0	0	0	0	0	0	0	0	0	0	0	0	0	0	0	0	0	0	0	0	0	0	0	0
OTU 16	0	0	0	0	0	0	0	0	0	0	0	0	0	0	0	0	0	0	0	0	0	0	0	0	0	0	0	0	0	0	0	3	0	0	0	0	0	0	0	0	0	0	0	0	0	0	0	0	0	0
OTU 17	2	0	0	0	0	0	8	0	0	3	0	0	0	0	0	1	1	0	0	4	0	0	0	0	0	2	0	0	0	0	0	1	4	0	0	0	0	0	3	0	1	2	2	1	0	0	0	0	2	0
OTU 18	0	0	1	1	1	0	4	0	0	19	0	0	1	0	12	0	1	0	8	1	0	3	6	1	3	1	3	2	3	0	6	0	0	5	3	1	6	0	1	0	1	2	4	1	1	0	6	1	2	2
OTU 19	0	0	0	0	0	0	0	0	0	0	0	0	0	0	0	0	0	0	0	0	0	0	0	0	0	0	0	0	0	0	0	0	0	0	0	0	0	0	0	0	0	0	0	0	0	0	0	0	0	0
OTU 20	2	1	1	4	2	2	1	3	2	3	0	0	3	0	1	0	0	1	0	0	0	0	2	0	8	3	1	0	3	3	4	0	10	3	0	2	1	0	3	2	4	12	0	2	0	2	1	3	0	0
OTU 21	0	0	3	0	3	3	0	13	0	1	2	0	6	0	0	0	0	5	2	0	0	0	0	1	0	4	1	0	0	0	0	0	0	0	1	3	0	0	0	2	0	1	0	1	1	0	1	1	1	0
OTU 22	0	5	0	1	0	1	3	2	1	0	15	2	5	0	2	1	0	2	0	0	0	0	0	0	0	0	0	0	55	0	1	3	1	1	0	0	0	4	0	0	26	0	0	0	0	0	0	1	0	0
OTU 23	2	0	0	0	0	0	6	0	2	1	3	0	2	0	10	0	6	3	0	0	0	1	0	0	4	0	1	1	0	0	0	5	2	0	1	0	1	1	0	0	0	2	0	2	0	1	6	4	0	2
OTU 24	0	0	0	0	0	0	0	0	0	0	2	5	0	0	0	2	0	0	6	0	39	2	0	0	0	0	0	0	0	1	0	0	0	0	0	0	2	1	1	2	0	8	0	0	0	0	0	1	0	2
OTU 25	0	0	0	0	0	0	0	0	0	0	0	0	0	0	0	0	0	0	0	0	0	0	0	0	0	1	0	0	0	0	0	0	1	0	0	0	0	0	0	0	0	0	0	0	0	0	0	0	0	0
OTU 26	0	0	0	0	0	0	0	0	0	0	0	0	2	0	0	0	0	0	0	0	0	0	0	0	0	0	0	1	0	0	0	0	0	0	0	0	0	0	0	0	0	0	0	0	0	0	1	3	0	0
OTU 27	0	0	0	0	0	0	0	0	3	0	0	0	0	0	0	1	0	0	1	0	0	0	0	0	0	0	0	0	3	0	0	0	0	0	0	3	0	0	0	0	0	0	0	0	0	0	0	0	0	0
OTU 28	1	0	2	0	0	4	0	2	0	0	0	0	0	3	0	0	1	0	3	4	2	2	4	0	3	4	3	2	4	1	4	2	1	2	2	4	3	1	6	1	4	1	3	2	0	2	3	0	14	0
OTU 29	3	1	0	0	0	6	1	2	5	1	3	0	0	4	0	1	0	9	0	6	5	0	1	0	2	1	6	5	0	10	4	0	2	2	5	0	1	0	0	1	1	7	2	1	0	3	4	1	0	3
OTU 30	0	0	0	0	0	0	0	0	0	0	0	0	0	0	0	0	0	0	0	0	0	0	0	0	0	0	0	0	0	0	0	0	0	0	0	0	0	0	0	0	0	0	0	0	0	0	0	0	0	0
OTU 31	3	1	4	1	0	0	0	1	1	0	2	0	0	0	0	0	0	0	0	0	6	0	0	0	2	0	0	3	1	1	6	8	0	0	0	0	0	0	0	0	1	13	1	0	1	0	0	0	0	2
OTU 32	0	1	3	3	0	7	7	5	0	5	1	2	0	0	2	0	59	2	3	6	6	3	1	1	8	2	3	1	17	6	1	4	2	2	5	2	9	0	63	1	4	10	0	3	1	1	3	0	9	5
OTU 33	6	0	0	2	1	0	0	0	0	1	1	0	0	0	0	0	0	0	0	0	0	0	0	0	0	0	0	0	0	0	0	0	0	0	0	0	0	0	0	0	0	0	0	0	0	0	0	2	1	3
OTU 34	0	0	0	14	12	2	2	7	0	1	2	0	0	1	0	0	0	0	8	0	8	1	1	69	0	12	0	1	1	0	4	0	7	1	0	0	100	0	9	6	2	0	2	0	1	0	1	2	2	0
OTU 35	2	13	0	0	2	5	0	5	8	1	0	42	1	1	0	1	1	0	1	1	118	1	0	0	0	0	0	6	1	8	0	1	0	30	2	0	0	0	3	0	0	0	0	0	1	1	2	0	0	0
OTU 36	0	1	0	29	0	2	0	8	0	0	0	0	0	0	0	0	0	0	7	0	6	1	2	2	0	1	0	0	1	0	2	1	6	0	1	0	2	0	0	0	0	1	0	0	1	0	3	1	0	1
OTU 37	0	0	0	0	0	0	0	0	0	0	0	0	0	0	0	0	0	0	0	0	1	0	0	0	0	2	0	0	2	0	0	0	0	0	0	0	0	1	0	0	6	0	0	1	0	0	0	0	2	0
OTU 38	3	0	4	1	0	1	10	0	0	0	0	7	0	0	2	50	0	0	0	0	0	0	0	0	0	0	0	0	25	1	0	5	5	0	0	0	0	0	14	1	3	1	0	41	2	0	0	1	3	1
OTU 39	1	0	0	0	0	0	0	0	0	0	2	0	0	0	0	0	0	0	0	0	0	0	2	0	2	0	0	4	0	0	3	0	0	0	0	0	0	0	0	1	0	2	1	0	1	0	0	0	0	0
OTU 40	0	0	0	0	2	2	1	0	0	0	55	8	1	1	0	3	3	0	1	4	4	0	1	0	5	5	3	4	0	0	0	0	1	0	1	0	0	29	1	3	18	2	0	1	0	7	0	1	2	1
OTU 41	1	1	7	0	0	1	2	0	0	1	0	3	1	0	10	3	0	0	4	0	1	1	0	0	2	4	0	1	1	1	0	1	1	0	0	0	0	1	4	2	0	0	0	0	0	0	1	4	3	0
OTU 42	0	0	0	0	0	0	0	0	0	1	0	0	0	1	1	4	0	0	0	0	1	0	1	1	0	0	0	0	0	0	12	0	0	0	0	0	2	0	0	0	0	0	8	0	0	2	0	0	1	0
OTU 43	0	0	0	0	0	0	0	0	0	0	0	0	126	0	0	0	0	0	0	0	0	0	0	0	0	0	0	0	0	0	0	0	0	0	0	0	0	0	0	0	0	0	0	0	0	0	0	0	0	0
OTU 44	0	0	0	0	0	1	3	0	0	0	0	0	0	0	2	0	0	0	0	0	0	0	0	0	0	0	0	0	0	1	0	0	1	0	0	0	0	0	0	0	0	0	0	0	0	0	0	0	0	0
OTU 45	5	2	1	0	2	0	0	4	0	0	1	0	0	0	0	0	0	0	0	0	0	0	0	0	1	1	9	0	0	0	4	5	0	0	0	0	0	2	4	0	1	1	5	0	2	22	2	0	9	9
OTU 46	0	4	2	1	0	5	0	0	1	2	4	4	4	0	4	0	0	4	2	11	0	1	0	1	1	2	1	0	3	0	0	0	14	1	0	1	5	0	0	0	0	0	0	1	1	0	7	8	0	0
OTU 47	0	1	0	0	0	1	0	0	0	0	0	0	0	0	2	0	0	0	0	0	0	0	0	0	0	0	0	0	1	0	0	0	0	0	0	0	0	0	0	0	1	0	0	0	0	0	0	0	0	0
OTU 48	0	2	4	1	1	0	3	3	1	0	4	1	1	1	0	1	0	4	4	0	0	1	1	0	2	1	4	1	1	1	2	1	0	0	70	49	0	3	1	0	0	3	0	33	0	3	4	1	4	2
OTU 49	0	0	0	0	0	0	0	0	0	2	0	2	1	0	0	0	0	3	0	4	0	0	0	1	1	0	3	0	0	0	0	0	1	0	0	0	2	0	1	6	7	0	0	0	0	0	0	0	0	1
OTU 50	2	0	4	0	0	0	65	1	0	1	0	0	3	3	9	8	3	0	1	10	0	1	7	1	2	3	1	1	1	5	11	2	9	8	3	1	3	1	5	9	5	1	5	4	5	3	2	6	2	3
OTU 51	0	9	1	8	0	1	9	1	1	0	1	4	0	0	0	0	0	1	0	9	0	0	4	1	3	0	4	0	0	6	2	0	2	14	2	0	10	0	3	0	0	0	1	0	1	0	1	0	2	0
OTU 52	1	0	5	1	0	1	2	6	0	1	3	8	1	3	4	1	2	5	1	6	2	1	4	1	14	8	11	3	8	2	1	0	3	0	1	3	5	0	11	0	0	24	1	2	2	4	18	0	5	0
OTU 53	0	0	0	0	0	0	0	0	0	0	0	0	0	0	0	0	0	0	0	0	0	0	0	0	0	2	0	0	0	0	0	0	0	0	0	0	0	0	0	0	0	0	0	0	0	0	0	0	0	0
OTU 54	0	8	2	0	5	18	8	3	1	0	2	15	1	3	1	0	6	0	6	1	4	2	2	0	8	1	10	6	9	3	3	10	0	4	1	3	5	0	1	0	8	2	3	0	25	1	1	8	5	1
OTU 55	0	0	0	0	0	0	0	0	0	0	1	0	0	0	0	0	0	0	0	0	0	0	0	0	0	0	0	0	0	0	0	0	0	0	0	0	0	0	0	0	0	0	0	0	0	0	0	0	0	0
OTU 56	2	5	0	1	5	0	4	0	0	0	7	1	0	0	0	91	0	0	0	0	0	5	0	0	0	1	0	5	0	0	0	0	0	2	0	67	0	3	0	1	4	1	0	34	0	0	0	0	0	2
OTU 57	1	3	8	2	1	130	1	1	2	5	1	2	1	1	1	5	25	4	10	3	3	3	1	1	1	16	3	6	0	7	0	3	0	0	3	1	2	2	7	24	4	5	0	5	2	4	5	2	1	5
OTU 58	0	0	0	0	0	0	0	2	2	0	2	0	12	13	2	0	0	0	0	33	0	0	32	1	0	0	0	0	0	2	77	0	1	3	0	0	0	0	4	17	3	0	30	1	2	0	3	33	0	0
OTU 59	0	0	0	0	0	5	12	0	2	6	0	0	0	0	0	0	0	0	0	1	0	0	0	0	5	5	1	0	0	1	3	0	0	0	0	0	0	0	1	4	2	0	0	0	0	0	1	0	0	0
OTU 60	7	0	2	3	0	6	11	5	4	5	2	0	6	0	5	0	2	1	0	2	1	0	0	0	0	0	32	1	1	8	1	14	0	1	5	2	0	1	0	3	3	3	0	0	2	2	13	9	3	5
OTU 61	5	0	5	0	0	1	1	16	0	1	1	3	3	0	3	0	1	1	12	4	0	7	2	6	2	1	0	2	8	1	2	3	4	0	4	1	6	0	0	0	2	3	1	1	0	0	0	11	1	2
OTU 62	0	2	7	0	0	3	4	1	0	1	0	0	0	0	0	0	0	16	0	0	0	0	0	0	0	2	0	0	0	0	0	0	0	1	4	0	2	0	2	0	2	0	0	0	0	0	1	2	1	0
OTU 63	0	0	38	0	0	2	0	0	0	1	0	2	0	0	0	0	1	0	3	0	0	0	3	0	1	7	11	0	2	0	3	1	0	0	0	1	0	0	0	0	0	0	1	0	0	0	0	1	0	0
OTU 64	22	5	9	14	7	2	3	2	2	4	2	6	7	2	3	2	0	1	45	0	10	22	1	22	1	3	5	0	3	2	5	13	5	0	6	29	26	1	3	1	4	5	3	30	2	2	1	16	5	27
OTU 65	0	0	0	0	0	0	0	0	0	0	0	0	0	0	0	0	0	0	0	0	0	0	0	0	0	0	0	0	0	0	0	0	0	0	0	0	0	0	0	0	0	0	0	0	0	0	0	0	0	0
OTU 66	0	2	0	2	0	0	0	0	11	2	2	0	1	0	2	1	0	1	2	1	0	0	2	0	0	0	6	1	3	39	4	12	13	0	0	1	3	0	0	0	8	0	0	0	0	1	0	5	2	1
OTU 67	0	0	0	0	0	0	6	1	5	1	1	2	0	0	1	0	0	2	2	0	2	0	2	1	0	0	1	0	0	5	3	2	0	0	1	2	0	1	0	0	2	0	0	3	0	2	1	1	0	16
OTU 68	0	0	1	0	1	1	0	1	0	4	0	0	1	0	0	2	0	0	2	1	0	4	0	0	0	0	1	0	0	0	1	0	0	0	0	6	1	0	0	0	0	0	0	4	1	8	0	0	3	0
OTU 69	1	1	4	0	0	0	9	5	0	0	0	0	0	2	0	1	0	4	3	0	1	3	0	2	7	0	3	0	0	0	0	1	0	0	0	1	4	0	1	2	3	14	2	0	2	1	1	1	0	1
OTU 70	2	2	0	0	0	0	0	1	0	0	0	0	1	2	2	0	3	0	3	0	0	2	8	0	0	0	1	3	0	0	15	2	0	0	1	0	0	0	15	2	1	0	9	0	1	0	1	0	0	0
OTU 71	0	1	4	0	0	0	5	0	0	0	14	0	0	0	0	0	0	2	0	1	0	0	0	9	0	0	0	3	2	0	1	0	1	0	1	0	0	9	0	0	0	0	0	0	1	0	0	0	0	0
OTU 72	2	0	2	0	0	2	1	15	5	0	4	0	0	0	1	0	0	0	1	0	0	0	0	0	2	1	0	0	0	1	0	0	6	47	0	1	1	0	3	0	4	2	0	3	2	1	0	1	1	6
OTU 73	6	0	11	0	0	1	2	4	0	0	0	0	0	0	0	0	0	2	0	2	0	3	0	3	0	0	5	0	0	0	2	0	0	0	0	3	9	0	0	0	0	4	2	0	0	0	2	1	2	0
OTU 74	1	0	1	0	0	2	0	7	0	1	53	2	1	0	0	4	1	1	9	0	6	0	0	0	1	1	1	0	2	1	0	0	6	3	0	4	2	21	0	2	5	1	0	0	0	4	0	1	1	0
OTU 75	1	0	0	1	0	0	0	2	0	2	2	1	6	24	1	0	2	0	1	0	0	1	7	1	1	0	0	0	1	0	9	6	1	3	1	0	6	0	7	0	2	15	8	1	0	4	1	3	0	0
OTU 76	1	0	3	0	0	0	0	0	0	0	0	0	0	0	0	12	0	5	0	0	0	0	1	2	0	0	0	0	0	0	0	0	0	1	0	0	2	0	0	0	0	0	0	7	0	18	0	0	0	1
OTU 77	0	2	7	1	3	0	1	0	0	0	0	1	2	0	1	0	1	14	0	0	4	4	0	1	6	4	5	2	2	1	2	0	2	0	0	1	2	1	2	3	0	1	0	0	0	0	4	6	8	1
OTU 78	4	0	0	0	1	0	0	1	0	0	0	0	0	0	5	0	0	0	1	3	0	1	0	0	0	1	0	0	0	0	0	1	0	1	0	0	4	0	0	0	0	2	0	0	0	0	0	3	4	0
OTU 79	5	5	1	4	4	1	2	42	12	70	2	8	50	0	16	1	0	1	0	19	1	1	2	2	96	16	4	2	3	29	1	4	13	4	0	2	3	73	9	5	5	5	3	4	10	2	8	7	9	0
OTU 80	2	0	0	1	0	0	7	0	1	0	6	2	2	6	4	4	2	2	5	0	1	1	0	2	0	2	1	49	2	0	0	0	0	0	2	3	1	8	13	0	13	0	0	2	0	0	0	0	0	3
OTU 81	2	2	7	0	0	3	1	8	0	1	2	1	1	1	0	0	1	9	9	1	1	2	2	1	1	3	1	12	0	0	0	1	0	0	0	4	2	0	0	0	4	2	0	0	0	2	2	2	3	0
OTU 82	0	1	0	0	0	0	1	7	0	0	0	0	0	0	2	0	0	0	0	0	0	1	0	0	3	0	0	2	0	1	1	0	0	0	1	0	0	0	0	0	0	1	0	2	0	0	1	2	1	2
OTU 83	0	0	0	0	0	0	0	0	0	2	0	0	0	0	0	0	0	0	0	0	0	0	1	0	1	0	4	1	2	1	2	0	0	0	0	0	0	0	0	0	0	0	1	0	2	0	0	0	0	0
OTU 84	0	0	4	0	0	1	2	1	0	1	0	0	0	1	0	0	0	1	3	0	0	0	1	0	0	0	1	0	0	0	3	0	0	3	0	0	1	0	0	0	0	1	4	0	1	0	3	0	0	2
OTU 85	2	0	0	0	0	0	1	0	0	0	0	0	0	0	0	0	0	0	0	0	0	0	0	0	4	0	0	0	0	0	0	3	0	0	1	0	0	0	0	0	0	0	0	0	0	2	0	0	0	0
OTU 86	0	0	3	0	0	0	0	0	0	0	0	0	0	0	0	0	0	3	0	0	0	0	0	0	0	0	0	0	0	0	0	0	0	0	0	0	0	0	0	0	0	0	0	0	0	0	0	1	0	2
OTU 87	0	0	0	0	0	0	0	0	0	0	0	2	0	0	2	0	2	24	0	4	1	0	0	0	0	1	0	0	0	0	2	0	0	0	2	0	0	0	0	0	1	4	6	0	0	1	0	0	0	0
OTU 88	1	0	0	0	0	0	0	0	0	0	2	0	0	0	0	0	0	0	0	0	0	0	0	0	1	6	0	0	0	0	0	0	0	0	0	0	0	0	0	0	5	0	0	0	0	0	0	0	0	0
OTU 89	0	0	0	0	1	0	0	1	1	0	1	0	0	0	0	0	0	0	1	0	0	0	0	0	0	0	0	0	0	2	0	0	1	0	0	0	0	1	0	2	2	1	0	0	0	0	0	0	0	0
OTU 90	0	1	0	0	0	1	0	0	2	0	2	0	0	0	0	0	0	1	1	0	0	0	0	0	0	0	0	0	0	0	0	3	0	0	0	0	0	0	0	0	2	1	0	0	0	0	0	0	0	0
OTU 91	0	0	0	0	0	0	0	1	0	0	0	0	1	0	0	0	0	0	0	0	0	0	1	0	0	0	0	0	0	0	0	0	0	0	0	0	0	0	0	1	0	0	2	0	0	0	0	0	0	0
OTU 92	0	0	0	0	0	0	1	0	0	0	0	0	0	0	0	0	0	0	0	0	0	0	3	0	0	0	0	0	0	0	1	1	1	0	2	0	0	0	0	0	0	0	2	0	0	0	4	0	0	0
OTU 93	0	1	0	0	0	0	0	0	0	0	0	0	0	0	0	0	0	0	2	0	0	0	0	0	0	0	0	0	0	0	0	0	0	3	0	1	0	0	0	0	0	0	0	0	0	0	0	0	1	0
OTU 94	7	1	0	0	4	0	0	0	0	2	3	8	0	1	2	0	2	1	5	0	0	1	1	1	0	1	0	16	9	0	5	15	0	5	1	4	0	2	0	0	9	3	1	0	6	0	33	0	7	1
OTU 95	2	0	3	0	1	0	0	0	0	0	0	0	15	0	0	0	0	1	1	0	0	0	0	0	0	0	0	0	0	0	0	3	0	1	0	0	3	0	0	0	0	0	0	0	0	0	2	25	0	0
OTU 96	0	0	0	0	0	0	1	0	0	0	0	0	0	0	0	0	0	0	0	0	0	0	0	0	0	0	0	0	0	0	0	0	0	0	0	0	0	0	0	0	0	0	0	0	0	1	0	0	0	0
OTU 97	0	0	0	0	2	0	0	0	0	0	0	0	2	5	0	1	0	0	0	0	0	0	0	0	0	3	0	0	0	0	0	0	0	0	0	0	0	0	0	0	0	0	0	0	0	0	0	0	0	0
OTU 98	1	0	3	0	1	0	3	0	0	4	0	0	0	1	0	1	0	0	0	0	0	3	0	0	0	0	0	0	0	0	2	0	2	0	0	0	0	0	0	1	0	1	0	0	0	1	0	0	2	0
OTU 99	3	1	0	2	0	6	0	6	0	1	0	2	0	0	5	1	1	1	12	3	0	7	1	1	5	4	5	2	2	1	1	10	0	84	0	3	1	0	2	0	5	7	0	2	2	0	0	1	2	0
OTU 100	0	1	10	2	0	0	0	1	1	1	0	4	3	2	0	0	5	0	0	0	0	0	4	0	1	1	0	45	0	2	3	0	1	0	0	0	0	1	4	2	0	1	4	1	12	0	0	3	6	1
OTU 101	0	0	0	0	0	0	0	0	0	1	0	0	0	0	0	0	0	0	2	0	0	0	0	0	0	0	0	1	1	0	0	0	0	0	0	0	0	0	0	0	0	1	1	0	0	0	0	0	0	0
OTU 102	0	0	0	1	0	0	1	0	0	0	0	0	0	0	0	0	0	0	0	0	0	0	0	0	0	0	0	1	0	0	0	3	1	0	0	0	0	0	0	0	0	1	0	0	2	0	0	0	0	0
OTU 103	0	0	0	0	0	0	0	0	0	0	1	0	0	3	3	0	2	0	0	0	0	3	6	0	0	3	2	10	0	0	15	3	13	0	0	2	0	0	0	4	0	0	4	2	2	138	0	1	1	0
OTU 104	1	2	1	3	5	2	1	3	1	1	5	0	4	3	4	0	2	1	4	0	1	6	1	1	10	1	8	0	0	3	3	20	5	2	0	1	2	3	2	1	7	6	2	0	2	0	4	5	7	4
OTU 105	0	0	0	0	1	0	0	0	0	1	2	0	0	0	0	0	0	1	0	0	0	0	0	0	0	0	0	0	0	0	0	0	0	0	3	0	1	1	1	0	14	0	0	1	0	0	0	1	0	1
OTU 106	0	0	2	0	0	0	0	1	0	0	1	7	1	0	0	19	0	0	0	0	0	0	0	0	0	0	0	0	0	0	2	0	0	0	0	0	0	0	0	0	2	2	1	17	0	0	0	0	0	0
OTU 107	1	0	0	0	2	1	0	0	0	1	0	0	0	0	1	0	0	0	1	2	0	0	0	0	0	0	0	0	0	0	0	0	0	0	0	0	0	0	0	0	0	0	0	1	0	0	1	0	2	0
OTU 108	0	0	0	0	0	0	0	0	0	0	3	0	0	0	0	0	1	0	2	0	1	2	1	0	0	1	0	0	2	0	0	0	0	1	0	1	0	0	0	1	3	0	0	0	0	0	0	0	0	0
OTU 109	0	0	0	0	0	0	0	0	0	0	0	0	0	0	0	0	0	0	0	0	0	0	0	0	0	0	0	0	0	0	0	0	0	0	0	0	0	0	0	0	0	0	0	0	0	0	0	0	0	0
OTU 110	16	0	1	0	1	2	1	4	0	1	46	0	6	1	0	0	1	9	0	5	0	0	3	0	3	1	1	0	3	0	5	1	2	3	0	0	0	30	1	0	0	0	31	0	0	3	8	30	3	1
OTU 111	0	0	0	0	0	0	0	0	0	0	0	0	0	0	0	0	0	0	0	0	0	0	0	0	0	0	0	0	0	0	0	0	0	0	0	0	0	0	0	0	0	0	0	0	0	0	0	0	0	0
OTU 112	2	0	1	0	1	3	14	0	0	0	0	0	0	0	0	1	0	1	0	0	0	0	0	0	0	0	0	0	0	0	0	0	0	0	0	0	0	0	0	0	3	5	0	0	1	0	2	0	1	0
OTU 113	0	19	0	0	0	0	2	0	0	0	0	9	0	0	0	0	1	0	0	0	0	0	0	0	0	0	0	0	0	0	0	0	0	0	0	0	0	0	0	1	1	0	0	0	0	0	0	1	0	0
OTU 114	4	1	0	0	0	0	2	5	15	43	3	4	0	3	4	1	8	1	4	3	1	1	3	7	17	1	22	0	0	32	9	0	59	1	46	1	11	1	4	0	4	51	5	1	0	1	0	0	4	2
OTU 115	0	1	1	4	119	1	2	5	2	1	0	0	5	0	4	0	2	1	0	3	3	0	0	0	2	2	2	2	2	6	0	6	0	5	0	0	1	7	6	3	1	2	0	0	3	1	1	1	3	0
OTU 116	0	0	1	2	1	2	1	9	33	2	6	0	0	0	13	0	3	1	0	0	14	0	0	0	2	4	0	5	5	6	2	3	2	2	5	0	0	1	0	1	5	0	1	0	0	0	0	0	3	0
OTU 117	0	1	4	0	0	2	0	25	1	5	5	2	1	0	1	0	0	1	5	0	0	3	0	1	1	2	9	0	1	1	0	4	2	0	1	1	0	1	0	0	1	3	0	0	0	0	3	0	0	0
OTU 118	0	0	0	0	0	0	0	0	0	0	0	0	0	0	6	0	0	0	0	0	0	0	1	0	0	2	1	0	1	0	0	1	5	2	0	0	1	0	1	0	1	0	0	0	0	0	0	0	0	0
OTU 119	0	0	0	6	0	0	0	0	0	3	6	1	1	0	2	3	0	0	1	0	0	0	0	2	0	2	0	5	2	0	0	1	4	0	1	0	1	102	0	0	1	0	1	4	1	4	0	3	1	2
OTU 120	0	1	0	0	0	0	0	0	0	0	2	0	2	0	0	0	1	0	1	0	0	1	0	0	0	0	0	5	1	0	1	0	0	0	0	0	0	0	3	0	1	1	1	0	1	0	0	1	0	6
OTU 121	1	2	0	0	0	0	0	0	0	0	0	1	0	0	1	1	18	1	0	0	0	0	0	0	1	4	0	0	2	1	0	1	1	0	2	0	0	0	1	4	0	6	0	0	0	0	0	0	0	0
OTU 122	3	1	3	2	1	1	0	5	0	0	0	1	1	0	5	1	2	0	2	1	0	1	0	0	1	7	1	0	0	0	1	0	2	7	2	3	5	3	5	0	1	2	0	0	0	1	2	0	0	0
OTU 123	9	3	15	0	1	2	5	10	16	23	4	1	14	72	23	4	2	4	7	30	2	4	5	2	19	11	1	5	32	21	6	1	9	7	2	14	1	5	14	2	2	4	4	5	65	2	10	0	3	18
OTU 124	0	0	0	0	0	0	0	4	0	0	0	0	0	0	0	0	1	0	3	0	0	1	1	0	0	0	0	1	0	0	0	4	0	0	0	0	0	0	0	0	0	0	0	0	0	0	0	0	2	0
OTU 125	10	2	6	10	6	11	1	5	42	5	4	5	3	3	11	25	1	4	4	0	11	5	1	60	10	1	1	9	1	2	2	10	6	5	67	2	3	0	12	17	1	6	1	10	1	28	16	8	5	7
OTU 126	0	0	0	0	0	0	0	0	0	0	0	0	0	0	0	0	0	0	0	0	0	0	0	0	0	0	0	0	0	1	0	0	0	1	0	0	1	1	0	1	5	0	0	0	1	0	0	0	1	0
OTU 127	2	3	0	0	3	3	0	0	2	2	0	0	1	0	1	0	0	3	0	0	2	0	0	0	0	0	0	4	5	3	0	0	0	0	0	0	0	0	1	0	0	3	0	0	0	1	18	1	0	1
OTU 128	30	5	5	2	5	6	5	17	0	2	1	3	5	0	4	3	4	2	24	10	5	198	0	2	5	1	0	1	12	0	1	6	4	2	1	8	1	1	3	1	5	9	3	1	0	2	5	9	1	17
OTU 129	0	0	0	0	0	1	0	0	0	0	0	0	0	0	0	0	0	0	0	3	0	0	1	0	1	0	0	0	0	0	0	5	0	0	2	0	0	0	0	1	0	0	0	0	0	0	3	0	5	0
OTU 130	0	0	3	1	0	2	0	0	0	0	2	4	0	0	0	4	1	1	2	0	0	1	1	0	0	0	0	0	1	0	1	5	0	0	0	0	0	2	0	0	1	1	0	1	0	0	0	1	0	141
OTU 131	3	0	3	3	1	2	2	11	0	1	2	1	0	0	6	0	0	4	0	1	3	0	0	0	2	1	36	0	2	1	1	3	43	0	0	1	0	0	1	6	0	0	0	0	2	0	0	0	3	0
OTU 132	1	0	0	0	0	0	0	0	0	0	0	6	1	1	0	0	1	0	0	0	1	0	0	0	0	0	0	0	3	0	0	0	0	0	1	0	1	0	1	0	0	0	0	0	0	0	0	0	5	0
OTU 133	0	0	1	0	0	0	0	0	0	0	0	0	0	0	2	0	0	0	0	0	0	0	0	1	0	0	0	0	2	0	0	0	0	0	0	0	0	0	0	1	0	0	0	0	0	0	0	2	0	0
OTU 134	2	0	0	0	0	0	2	2	0	3	7	0	0	0	7	0	7	0	2	0	1	0	0	2	0	1	0	2	0	1	1	0	0	2	2	1	1	3	0	2	2	0	0	1	2	1	0	1	1	0
OTU 135	8	0	0	0	1	5	0	0	0	0	5	0	3	1	11	0	2	0	3	115	0	1	1	0	0	1	0	0	0	0	3	0	8	0	1	2	0	0	3	0	4	1	2	0	0	0	0	5	4	1
OTU 136	0	0	1	0	0	0	0	0	0	0	0	0	0	1	0	6	0	1	0	0	0	1	1	0	0	0	0	6	0	0	3	0	0	0	0	0	0	0	1	1	0	0	0	0	0	0	7	0	0	0
OTU 137	1	0	0	0	0	0	0	2	0	0	2	0	0	0	0	0	1	0	0	1	3	0	142	0	0	0	0	0	0	0	0	34	0	0	0	0	0	0	0	0	0	0	0	0	2	0	0	0	13	0
OTU 138	0	0	0	0	0	0	0	0	0	0	0	0	0	0	0	0	0	1	1	0	1	0	0	0	1	0	1	0	2	0	0	0	1	2	0	0	0	0	1	0	0	0	140	0	0	0	2	1	0	1
OTU 139	0	21	4	1	1	5	4	0	2	0	1	53	0	0	3	3	2	7	0	4	0	2	1	0	0	33	6	8	1	4	10	1	1	2	4	1	2	0	7	0	6	1	17	4	1	0	2	0	2	1
OTU 140	3	2	0	0	2	8	9	4	5	6	7	9	2	159	1	0	9	4	11	1	5	3	22	4	1	9	2	4	19	11	2	2	1	5	17	6	4	3	0	5	11	0	3	115	14	1	1	6	100	6
OTU 141	0	0	0	0	0	0	0	0	0	0	0	0	0	0	0	0	0	0	0	0	0	0	0	0	0	0	0	0	0	0	0	0	0	0	0	0	0	0	0	0	0	0	0	0	2	0	0	0	0	0
OTU 142	0	0	0	0	0	0	0	0	0	0	0	0	0	0	0	0	0	0	0	0	0	0	0	0	0	0	0	0	0	0	0	0	0	0	0	0	0	0	0	0	0	0	0	0	0	0	0	0	0	1
OTU 143	0	2	0	0	0	12	0	0	0	0	0	0	0	0	0	0	0	0	0	0	0	0	0	0	0	0	0	0	0	0	0	6	0	0	0	0	0	0	1	0	0	0	0	0	0	0	0	0	0	0
OTU 144	0	0	0	0	1	4	5	0	0	0	0	0	1	0	0	0	0	0	4	0	0	2	0	0	2	0	2	2	1	0	1	0	0	0	1	0	0	0	0	0	0	0	0	0	1	1	1	5	0	0
OTU 145	0	2	1	74	1	0	0	1	0	0	3	0	0	1	5	2	2	0	0	4	0	1	2	0	6	7	6	26	1	0	0	2	2	3	1	0	3	3	0	1	4	13	0	0	0	0	0	0	2	0
OTU 146	1	0	2	0	0	0	2	0	1	0	0	1	13	3	1	1	1	0	0	0	0	0	0	0	0	1	78	1	0	1	2	0	1	2	0	0	0	0	0	1	1	0	1	1	2	0	2	1	2	1
OTU 147	1	1	0	0	0	0	0	0	0	0	1	5	1	0	0	0	0	0	3	0	1	0	0	0	0	0	0	0	0	0	0	0	0	0	0	0	0	0	3	0	0	2	0	0	0	1	0	0	0	1
OTU 148	0	0	0	0	0	2	6	0	0	0	4	0	0	0	39	0	6	1	4	0	5	1	6	1	0	0	11	6	0	2	1	4	12	0	0	1	5	0	1	10	0	1	1	0	6	0	5	5	0	0
OTU 149	0	0	2	0	0	0	2	0	0	0	0	0	0	0	0	0	79	0	2	0	2	2	32	0	0	0	4	1	0	0	2	0	1	5	0	0	0	0	4	0	0	1	0	0	1	0	0	2	1	1
OTU 150	1	2	0	0	0	0	0	1	0	7	0	0	0	0	0	0	1	2	1	4	0	0	0	0	28	1	1	0	0	0	0	0	0	0	0	0	0	0	0	2	0	2	0	0	1	0	0	0	0	0
OTU 151	0	0	0	2	0	0	1	0	0	1	0	0	0	0	0	3	0	0	0	3	0	1	1	0	1	2	1	0	3	4	0	3	0	0	0	1	0	1	1	0	0	3	0	0	5	4	0	0	0	0
OTU 152	0	4	0	1	0	0	0	2	0	0	0	4	2	0	0	1	0	2	0	1	0	3	0	0	1	0	5	2	1	1	0	1	0	0	0	0	1	0	0	2	1	3	0	0	3	0	0	0	0	0
OTU 153	0	0	0	0	0	0	0	0	0	0	0	1	0	0	0	0	0	0	0	0	0	0	0	0	0	0	0	0	0	0	0	0	4	0	0	0	0	0	0	0	0	0	0	0	0	0	1	0	0	0
OTU 154	0	0	0	0	0	0	0	0	0	0	3	0	0	0	0	1	0	0	0	0	0	0	0	0	0	0	0	0	0	0	0	0	0	0	0	0	0	0	0	0	5	0	0	0	0	1	0	0	0	0
OTU 155	0	4	1	0	0	0	3	0	0	0	0	6	0	0	0	0	0	0	0	0	0	0	0	0	0	2	0	0	0	1	0	2	0	0	0	0	2	0	0	0	1	1	0	0	6	0	0	1	0	0
OTU 156	3	163	4	1	2	1	0	0	0	0	4	0	1	0	1	4	0	8	0	0	7	0	11	0	3	1	1	8	1	0	1	2	2	0	1	0	2	0	8	1	9	0	1	0	0	0	4	6	0	3
OTU 157	0	2	0	0	0	1	0	0	0	0	0	0	0	0	0	0	0	1	0	0	0	0	0	0	0	5	0	0	0	0	0	1	1	0	0	0	0	0	0	0	1	0	0	0	0	0	0	0	0	0
OTU 158	0	0	0	0	0	0	0	0	0	0	0	0	0	0	0	0	0	0	0	0	0	0	0	0	0	0	0	0	1	0	0	0	0	0	0	0	0	0	0	0	0	0	0	0	0	0	1	0	0	0
OTU 159	1	0	0	0	0	0	2	0	1	0	0	0	5	1	5	0	0	0	1	0	0	0	0	0	0	0	1	0	1	0	2	4	0	1	0	0	0	0	0	0	1	1	2	3	2	0	1	12	0	1
OTU 160	7	4	2	28	5	2	0	0	1	3	1	0	0	3	4	2	7	0	11	2	2	1	2	1	6	22	0	0	3	0	1	1	4	2	3	14	4	0	0	1	0	0	1	0	0	19	9	0	3	5
OTU 161	0	2	75	8	0	2	1	0	0	1	0	2	0	2	6	0	0	1	4	0	1	1	0	0	0	2	0	1	5	0	3	1	0	0	2	1	1	0	2	3	3	2	1	1	0	0	1	1	3	0
OTU 162	1	0	0	2	0	3	7	1	0	0	0	2	0	0	3	0	0	0	1	1	5	1	0	0	0	5	3	0	35	0	3	9	0	6	2	0	1	0	0	0	0	10	1	0	0	0	7	0	3	0
OTU 163	0	0	0	0	0	0	0	0	0	0	0	0	0	0	0	0	0	0	0	0	0	0	0	0	0	0	0	0	0	0	0	0	0	0	0	0	0	0	0	0	4	0	1	0	0	0	0	0	0	0
OTU 164	0	0	0	0	0	0	0	0	0	0	0	0	0	0	0	0	0	0	0	0	0	0	0	0	0	0	0	0	0	0	0	0	0	0	0	0	0	0	0	0	0	0	0	0	0	0	1	0	0	0
OTU 165	0	0	0	0	0	3	0	0	119	0	1	1	0	0	0	0	1	0	0	1	0	0	0	0	0	0	1	0	1	0	0	6	0	0	0	0	0	2	3	0	1	5	0	0	0	0	0	0	1	0
OTU 166	0	0	1	0	0	0	0	1	0	0	0	0	0	0	0	0	0	0	0	0	0	0	0	0	0	0	0	0	0	0	0	0	0	0	0	0	0	0	0	0	0	0	0	0	1	0	0	0	0	0
OTU 167	0	0	2	1	0	0	0	8	0	0	0	0	1	0	1	0	0	0	0	4	0	0	0	0	0	2	0	0	1	0	1	0	1	0	0	0	2	0	0	0	0	1	1	0	0	1	1	0	3	0
OTU 168	0	2	1	1	1	0	2	1	0	0	0	9	0	0	0	0	3	5	0	0	0	1	0	105	0	2	2	0	2	2	0	0	2	0	0	0	0	0	0	2	0	0	1	0	7	0	3	0	5	0
OTU 169	0	0	0	0	0	0	0	0	2	0	0	0	0	0	0	1	0	0	3	0	0	1	0	0	0	0	0	0	0	0	0	0	0	0	0	4	0	0	0	0	0	0	0	0	0	0	0	0	0	0
OTU 170	0	0	0	0	0	0	0	0	0	0	0	0	0	0	0	0	0	0	0	0	0	0	0	0	0	0	0	0	0	0	0	1	0	0	0	1	0	0	0	0	0	0	0	0	0	0	0	0	0	0
OTU 171	0	0	0	1	1	2	0	0	0	6	1	1	0	0	0	0	0	1	8	5	2	2	0	0	3	3	0	0	0	0	2	0	1	2	0	1	4	0	5	1	0	2	1	0	41	0	4	0	0	1
OTU 172	0	0	0	0	0	0	0	0	0	0	0	0	0	0	0	0	0	0	0	0	0	0	0	0	0	0	0	0	0	0	1	0	0	1	0	0	0	0	0	0	0	0	0	0	0	1	0	0	0	0
OTU 173	0	0	0	0	0	0	2	0	0	0	0	1	0	0	0	0	0	1	2	0	0	2	0	0	0	0	0	0	0	0	0	1	0	0	0	0	0	0	0	0	0	0	0	0	0	1	0	0	0	0
OTU 174	2	1	0	0	2	1	1	0	3	8	0	0	0	1	0	2	0	1	0	0	28	0	0	0	1	0	1	5	0	10	0	7	0	0	12	0	0	0	0	0	0	0	0	0	2	4	0	0	6	0
OTU 175	0	0	1	0	0	0	0	1	0	0	0	3	1	0	0	0	4	0	0	0	1	0	0	0	2	0	0	0	1	0	0	0	0	1	0	0	0	0	1	0	0	0	0	0	0	0	2	0	0	0
OTU 176	5	0	0	0	3	5	0	8	1	0	1	2	1	0	6	1	1	0	7	3	6	4	0	0	6	1	0	1	0	0	2	0	0	0	0	1	0	0	3	1	1	9	0	2	1	1	1	1	0	3
OTU 177	5	5	0	1	0	3	3	3	3	1	6	3	0	0	0	0	3	2	3	0	9	0	2	2	4	0	1	3	4	6	2	3	3	0	1	2	4	0	0	0	5	4	0	0	1	0	3	0	0	1
OTU 178	0	0	0	0	0	0	10	13	0	4	1	0	0	2	0	0	0	1	0	1	0	0	0	1	0	0	0	2	2	1	2	0	0	0	3	0	0	0	1	0	0	0	1	0	0	3	1	0	0	0
OTU 179	87	0	1	0	17	0	2	0	0	1	0	0	0	1	1	0	0	0	2	0	3	0	0	0	0	0	1	1	0	0	0	1	0	3	0	0	0	0	0	1	0	4	0	2	1	0	0	1	0	23
OTU 180	4	4	0	1	2	2	1	3	5	8	7	3	1	18	5	4	3	0	4	1	4	2	2	1	4	4	5	13	3	6	8	1	5	0	9	1	7	0	4	0	9	1	5	2	8	0	18	0	1	2
OTU 181	1	0	0	3	0	0	0	2	3	0	11	0	0	5	3	0	0	0	0	3	1	0	6	1	0	0	0	0	0	2	3	2	0	0	3	0	0	10	0	0	32	0	4	0	0	0	2	6	0	0
OTU 182	0	0	0	0	0	0	0	0	0	3	0	0	0	0	0	0	0	0	0	0	0	0	0	0	0	1	0	0	0	0	0	0	0	0	0	0	0	0	0	0	2	0	0	0	0	0	0	0	0	0
OTU 183	0	1	0	0	0	0	0	0	40	0	0	5	0	0	0	1	0	0	1	1	3	2	0	0	1	1	1	1	0	63	0	2	0	0	2	0	0	3	0	1	4	1	0	0	0	0	0	2	0	2
OTU 184	1	0	1	0	2	0	5	0	1	1	0	0	1	0	1	2	0	1	3	1	3	2	0	1	0	2	0	2	1	0	0	0	2	0	1	0	0	0	2	1	0	0	0	0	2	0	1	0	1	0
OTU 185	0	0	0	1	1	0	4	3	2	2	3	0	0	0	1	1	0	0	4	2	0	1	0	0	8	2	3	1	2	1	1	1	3	0	8	1	0	1	0	3	2	5	0	0	3	0	7	2	4	0
OTU 186	0	0	8	0	2	0	1	0	0	1	0	0	1	0	0	0	3	1	0	0	0	0	0	0	0	0	0	0	0	0	2	4	0	0	0	0	0	1	0	0	0	0	0	0	0	1	4	0	0	0
OTU 187	2	1	1	0	0	1	1	12	1	0	3	3	1	4	9	4	5	1	2	0	1	0	4	3	0	0	2	9	2	0	12	2	7	56	1	1	4	2	11	0	1	0	12	0	8	1	1	4	3	0
OTU 188	5	4	1	0	0	14	2	1	0	0	0	8	0	2	1	2	0	1	0	0	0	0	0	2	1	2	1	0	0	0	0	0	1	0	0	0	9	1	0	1	1	1	0	3	5	2	3	3	1	7
OTU 189	5	2	0	1	0	1	1	6	0	0	2	0	1	0	2	0	0	4	3	7	3	2	0	23	2	1	2	2	0	2	5	2	4	1	1	0	25	0	2	3	6	2	0	1	0	0	8	9	0	2
OTU 190	0	0	4	0	1	0	0	0	2	0	0	0	0	0	0	0	0	0	0	0	0	0	0	0	0	0	0	0	0	1	0	0	0	0	0	0	0	0	0	0	0	0	0	0	0	0	0	0	0	0
OTU 191	2	4	0	3	0	0	5	1	0	2	0	14	3	1	13	6	0	132	1	0	0	0	2	1	1	7	0	1	1	0	6	1	0	0	2	5	1	3	7	0	0	0	4	0	5	3	3	0	15	0
OTU 192	3	3	14	0	0	3	0	3	0	0	2	0	1	0	0	3	1	15	14	0	1	10	2	2	6	37	4	15	5	4	1	3	0	9	2	3	4	0	8	124	1	1	0	0	4	3	0	2	0	1
OTU 193	1	3	1	1	0	8	1	3	1	0	0	5	3	0	0	0	0	0	6	0	0	5	0	0	1	1	0	0	8	2	0	5	0	1	1	3	1	0	22	0	0	14	0	0	0	0	12	9	0	2
OTU 194	15	1	0	0	0	0	0	0	0	1	2	1	0	2	0	1	0	0	0	0	0	0	0	0	0	0	0	3	2	1	2	7	0	2	0	0	1	24	0	0	4	4	1	0	0	0	0	0	15	3
OTU 195	1	0	0	1	1	0	0	0	0	0	1	0	1	0	1	3	0	4	1	0	2	0	1	0	1	6	2	0	1	0	0	0	1	1	0	1	4	1	7	1	0	0	0	2	4	3	0	1	4	0
OTU 196	2	0	1	4	2	1	1	0	0	1	1	1	0	1	0	2	7	0	0	0	0	0	5	0	0	0	0	6	5	0	16	1	0	4	19	0	1	0	6	4	0	0	6	0	14	0	0	0	0	0
OTU 197	1	15	3	3	66	14	4	4	0	1	0	29	1	0	2	0	2	0	4	3	2	3	0	2	4	5	0	6	0	2	0	17	4	1	1	3	3	0	2	20	3	1	0	1	0	2	11	15	3	0
OTU 198	1	0	0	0	0	0	0	1	0	0	0	0	0	0	6	24	0	0	0	0	0	1	0	0	0	0	2	1	0	0	0	0	2	0	0	0	0	0	0	0	0	0	0	5	0	30	0	0	0	5
OTU 199	3	0	0	0	0	5	1	0	0	0	1	0	0	0	0	1	0	0	0	1	0	2	0	7	0	0	0	0	2	0	0	0	0	1	0	67	2	0	1	0	2	1	0	0	0	0	4	0	1	0
OTU 200	3	0	8	1	1	1	0	0	0	3	0	0	0	0	1	0	2	0	0	0	0	0	1	1	0	0	0	0	0	0	4	2	0	0	0	0	2	0	0	0	0	2	0	0	1	0	1	1	1	0
