	Host 1	Host 2	Host 3	Host 4	Host 5	Host 6	Host 7	Host 8	Host 9	Host 10	Host 11	Host 12	Host 13	Host 14	Host 15	Host 16	Host 17	Host 18	Host 19	Host 20	Host 21	Host 22	Host 23	Host 24	Host 25	Host 26	Host 27	Host 28	Host 29	Host 30	Host 31	Host 32	Host 33	Host 34	Host 35	Host 36	Host 37	Host 38	Host 39	Host 40	Host 41	Host 42	Host 43	Host 44	Host 45	Host 46	Host 47	Host 48	Host 49	Host 50	
OTU 1	29	40	0	11	9	18	0	17	32	54	78	16	21	157	0	43	64	58	372	3	112	58	22	9	95	5	28	49	62	58	155	42	228	17	49	93	156	13	70	84	157	199	133	25	15	77	87	64	27	26
OTU 2	0	5	2	0	0	15	0	1	0	0	28	6	4	4	0	1	30	8	1	0	3	4	0	0	0	11	7	38	0	18	76	35	29	0	2	20	46	0	28	0	2	5	0	0	92	49	0	16	3	0
OTU 3	67	0	274	2323	3	0	148	25	253	1	4	2	0	0	4	0	0	292	86	10	0	1	8	1	0	100	0	18	22	0	0	0	0	0	5	145	12	85	16	556	0	0	1	1	0	38	0	1	12	23
OTU 4	0	0	0	0	0	1	0	5	0	0	0	0	0	0	0	0	0	0	0	0	0	0	0	0	0	0	0	0	0	0	0	0	0	0	0	1	0	0	0	0	0	0	0	0	0	0	0	0	0	0
OTU 5	142	70	352	360	1263	275	1343	365	151	1533	659	210	694	828	464	994	999	232	169	832	9	729	983	809	74	905	219	210	553	650	60	416	479	113	625	106	624	195	333	431	73	149	256	431	1289	108	215	947	60	106
OTU 6	129	0	1	1	45	0	121	45	2	29	4	2	65	54	32	17	22	16	68	1	19	30	88	18	0	4	4	4	0	5	23	137	5	4	20	0	27	42	10	19	65	67	0	13	41	877	481	65	0	69
OTU 7	41	40	33	33	91	159	49	7	55	77	234	66	431	170	164	47	32	19	17	51	82	98	189	23	246	65	56	46	114	87	20	25	31	58	79	83	45	103	71	8	185	262	70	39	22	23	79	454	75	127
OTU 8	15	47	134	187	2	91	25	117	25	41	246	10	62	92	237	57	76	17	387	48	35	118	7	56	26	227	20	54	45	71	44	59	12	27	89	38	195	323	13	44	26	25	64	22	71	101	61	112	40	8
OTU 9	0	0	26	1	0	0	72	0	10	0	0	0	2	0	14	1	17	17	5	0	42	0	0	18	7	11	0	5	0	1	2	0	1	50	1	23	1	55	49	7	0	9	6	0	11	0	46	2	6	0
OTU 10	2	14	6	4	2	23	0	0	76	0	49	0	0	19	39	0	0	123	1	0	128	0	6	0	4	12	46	18	0	47	0	1	43	0	27	6	0	0	125	185	3	0	4	0	30	0	1	4	0	0
OTU 11	0	23	16	61	1	40	40	11	7	1	148	40	87	1	76	96	79	58	74	1	9	144	2	43	8	22	17	54	13	25	46	0	2	8	1	5	35	52	12	94	89	2	31	38	92	13	53	14	141	0
OTU 12	68	26	30	1	7	1	114	34	114	3	2	60	33	82	143	11	44	9	4	9	36	23	24	4	0	9	1	33	18	2	7	157	71	66	13	68	53	14	4	28	63	121	45	18	26	168	70	12	104	45
OTU 13	0	0	0	0	0	0	0	0	0	0	15	0	0	4	0	0	0	0	17	4	0	0	0	0	0	74	1	2	0	0	0	1	7	0	0	0	0	0	2	0	0	0	0	0	0	1	0	0	0	0
OTU 14	0	1	26	0	2	15	48	18	18	3	46	57	11	0	1	43	1	142	5	2	0	56	7	0	0	34	0	2	1	0	5	0	2	0	0	52	1	0	0	252	8	30	0	30	3	2	45	24	0	0
OTU 15	0	0	0	9	0	23	0	2	18	0	40	2	11	0	15	0	0	2	0	0	0	0	0	0	0	0	0	0	10	0	0	23	0	0	0	0	1	0	0	108	0	1	0	2	0	0	48	1	0	0
OTU 16	2	0	0	0	4	0	0	1	0	0	0	0	0	0	0	0	0	0	0	0	0	0	11	0	0	7	0	0	0	0	0	55	0	0	0	0	0	0	0	0	0	0	2	3	0	0	0	0	0	0
OTU 17	1	0	7	7	0	16	62	30	37	21	26	0	16	0	32	35	0	29	6	4	3	70	0	0	4	23	27	13	3	4	25	49	270	4	0	78	43	0	40	9	2	2	31	7	5	4	13	1	8	1
OTU 18	2	12	25	13	16	43	58	14	40	279	80	2	54	19	142	0	24	27	114	28	32	3	25	1	67	6	13	52	32	9	167	4	39	67	14	0	29	22	1	98	3	24	137	7	13	91	202	48	10	7
OTU 19	0	0	0	0	0	0	0	0	0	0	0	0	0	0	0	0	0	0	0	0	0	0	0	0	0	0	0	0	0	0	0	0	0	0	0	0	0	0	0	0	0	0	0	0	0	0	0	0	0	0
OTU 20	9	13	54	6	20	1	97	6	1	19	7	19	147	41	29	17	22	54	14	63	38	33	48	0	137	28	44	18	43	12	78	12	96	27	19	5	52	10	28	87	39	374	39	2	32	1	8	153	35	0
OTU 21	4	10	83	0	10	12	12	245	3	8	3	5	4	115	7	2	0	6	21	1	38	4	27	39	44	128	14	13	1	42	97	4	41	1	46	38	17	3	49	6	84	36	41	0	114	49	41	119	5	8
OTU 22	28	111	33	29	8	77	23	57	1553	3	141	55	11	5	41	9	0	32	3	11	14	13	18	9	0	4	1	6	2064	17	24	62	46	7	19	1	20	18	8	43	801	0	6	2	7	6	18	33	1	1
OTU 23	9	9	0	0	6	0	181	0	26	0	0	1	80	17	58	10	44	16	26	0	7	7	10	2	163	0	29	33	5	17	8	134	86	36	15	2	0	2	2	22	31	52	37	8	35	53	92	146	3	14
OTU 24	12	5	37	0	0	1	24	5	8	7	1	19	5	9	10	0	2	0	0	2	923	0	0	3	0	0	0	18	0	2	3	17	1	30	3	4	0	37	32	2	3	121	14	0	7	26	4	8	14	1
OTU 25	2	0	0	0	0	0	0	0	0	0	0	0	0	0	0	0	0	0	0	0	0	0	5	0	0	0	11	0	0	0	0	0	21	0	0	0	0	0	0	0	0	0	0	0	0	0	0	0	0	0
OTU 26	2	1	19	2	9	0	0	0	0	0	9	1	0	0	0	10	0	1	0	6	0	17	15	5	4	0	0	25	13	5	3	0	0	0	0	16	1	18	0	5	0	0	0	14	0	0	0	45	0	0
OTU 27	0	0	0	0	0	0	0	0	0	0	0	0	0	0	0	0	0	0	6	0	0	0	0	0	0	0	0	0	3	0	0	0	0	0	0	0	0	0	0	0	3	0	16	0	0	0	0	8	0	0
OTU 28	19	13	48	42	10	41	16	136	39	39	52	13	95	24	42	21	26	1	89	73	51	32	29	83	46	30	23	41	83	21	139	79	32	10	20	0	114	17	236	33	78	69	49	19	28	35	94	60	294	62
OTU 29	135	37	23	18	5	123	27	73	28	91	182	65	0	300	31	86	0	134	17	105	80	83	19	69	32	16	54	9	14	122	95	1	9	46	164	55	15	24	1	350	102	173	75	41	5	32	112	26	2	54
OTU 30	0	0	0	0	0	0	0	1	0	0	0	0	0	0	0	0	0	0	0	0	3	0	0	0	0	0	0	2	0	0	0	0	0	0	0	0	0	0	0	0	0	0	0	0	0	0	0	0	0	0
OTU 31	70	1	0	35	2	0	6	2	58	1	0	12	18	1	10	0	7	0	1	0	67	7	12	15	106	0	22	28	0	1	69	237	0	5	0	3	31	1	3	0	19	179	25	0	22	6	6	0	4	22
OTU 32	41	24	4	50	0	173	196	125	66	50	444	11	261	68	33	20	1570	21	132	54	44	39	3	58	129	6	50	44	438	27	3	175	53	16	50	16	68	152	1752	9	8	183	47	15	4	2	115	2	228	95
OTU 33	284	0	0	13	47	0	0	0	13	14	0	0	2	5	1	0	0	0	0	0	0	0	85	0	0	0	0	0	0	1	0	0	0	0	0	0	0	0	0	0	0	0	0	0	0	0	0	31	0	175
OTU 34	4	6	0	457	780	18	101	58	34	4	25	0	0	5	62	12	1	8	71	1	53	12	6	14	44	208	26	11	56	4	7	14	26	38	16	288	2822	58	306	114	28	11	97	4	48	243	4	34	84	0
OTU 35	47	409	17	0	13	92	24	23	16	93	146	797	10	127	3	45	21	14	17	7	3724	136	43	9	12	57	10	84	0	187	0	16	22	1148	43	52	1	26	63	4	7	24	1933	27	1	103	102	7	9	22
OTU 36	0	16	15	835	0	4	5	173	14	4	9	2	39	26	23	8	0	1	1	4	45	0	2	18	0	0	22	1	1	18	4	8	106	5	23	27	64	4	3	2	8	6	53	0	77	10	46	1	2	9
OTU 37	0	0	0	0	0	2	0	0	49	0	0	16	0	3	0	1	0	0	0	0	0	7	0	0	0	30	0	0	0	0	3	0	0	0	1	0	0	16	0	8	65	0	6	0	0	0	12	0	16	0
OTU 38	67	0	6	0	12	13	137	3	1	1	45	59	4	7	0	1408	28	0	24	4	0	49	17	16	32	1	21	0	468	25	55	168	42	1	5	0	3	60	522	10	34	50	3	742	69	3	12	7	41	27
OTU 39	0	0	0	0	0	0	0	0	0	22	0	0	0	7	0	1	0	0	3	26	0	6	0	27	65	0	0	24	3	9	129	3	2	0	0	79	0	6	7	0	9	83	6	9	2	10	1	0	0	0
OTU 40	26	26	8	3	11	65	0	5	38	8	198	94	0	21	2	195	105	0	9	20	34	403	25	155	118	88	37	181	23	2	12	31	34	3	8	18	26	99	6	4	270	53	12	110	2	5	10	24	11	2
OTU 41	1	12	73	4	1	53	31	0	90	11	81	86	66	15	51	15	8	8	1	3	26	50	1	43	24	112	14	1	98	6	19	6	3	10	6	3	1	0	27	1	2	4	3	19	5	67	57	26	97	1
OTU 42	2	1	4	0	0	0	0	0	5	0	1	0	2	0	45	16	0	1	0	0	0	40	0	0	0	0	2	2	1	0	183	26	0	3	0	0	1	0	8	0	0	0	5	10	0	54	3	1	2	4
OTU 43	0	0	0	0	0	0	0	0	0	0	0	1	3	0	0	0	0	0	0	0	0	0	0	0	0	0	0	0	0	0	0	0	0	0	0	0	0	0	0	2	0	0	0	0	0	0	0	0	0	0
OTU 44	6	0	6	1	0	12	37	0	3	6	17	0	0	0	93	0	0	1	0	0	0	0	0	0	0	9	0	1	0	0	1	1	35	0	0	4	0	2	0	2	0	5	0	0	1	0	0	0	5	2
OTU 45	195	22	3	33	161	14	24	34	37	2	20	102	196	3	15	1	1	3	5	10	19	29	308	6	23	10	86	41	13	15	80	260	41	5	10	48	2	35	33	3	26	218	0	1	37	30	129	8	109	235
OTU 46	88	179	12	6	31	77	15	4	2	8	114	52	49	40	44	27	8	81	23	97	82	56	53	2	34	54	48	22	20	21	14	28	103	59	17	44	14	92	0	75	29	48	5	6	16	80	121	110	19	60
OTU 47	10	0	0	0	0	0	3	0	3	0	0	1	18	0	88	0	0	0	0	0	6	0	0	21	0	2	0	0	3	0	0	0	0	0	0	3	0	0	0	15	0	0	0	0	0	25	5	5	4	1
OTU 48	8	19	126	5	29	7	119	57	80	1	13	23	134	6	17	9	3	155	34	31	6	3	60	137	15	58	54	19	8	16	2	20	1	12	1835	86	25	35	9	266	71	35	2	1193	2	6	78	3	129	84
OTU 49	0	0	4	0	0	1	6	5	1	35	4	15	22	6	9	13	7	32	3	34	14	1	1	10	10	7	2	22	1	11	17	7	0	2	2	62	44	82	24	11	62	1	0	1	6	109	0	6	2	19
OTU 50	68	22	80	15	0	9	1429	0	2	68	41	19	32	156	224	146	38	2	1	205	75	236	1	306	1	25	79	43	65	79	224	21	374	76	96	27	33	655	19	33	107	110	39	79	143	168	193	67	85	51
OTU 51	1	72	45	4	1	14	76	35	38	25	35	185	25	47	3	0	0	16	33	26	6	3	2	16	41	0	175	6	3	30	18	74	165	353	31	138	203	10	42	39	48	43	910	0	0	4	0	6	25	2
OTU 52	88	12	54	45	6	93	94	118	96	25	227	127	244	30	39	14	29	53	75	177	29	32	11	24	570	147	191	201	289	2	145	79	134	4	9	21	41	13	359	56	17	256	40	6	105	172	329	59	52	24
OTU 53	19	0	0	0	0	0	4	0	0	0	0	0	0	0	0	0	0	0	0	0	0	0	0	0	0	15	0	0	0	0	0	0	0	0	0	0	0	0	0	0	0	0	0	0	0	0	0	0	1	0
OTU 54	24	123	33	4	3	429	205	87	59	5	828	370	153	150	41	5	90	43	145	14	75	26	5	104	52	21	87	91	121	89	139	141	23	153	83	99	12	30	61	140	166	23	238	5	678	7	18	195	137	47
OTU 55	0	0	0	0	0	0	0	0	0	0	0	0	0	0	0	0	0	0	0	0	0	0	0	0	0	1	0	0	0	0	0	0	0	0	0	0	0	0	0	3	0	0	2	0	0	0	0	0	0	0
OTU 56	39	255	3	3	83	12	69	0	9	0	0	0	0	0	32	2083	7	42	121	1	0	2	169	4	28	22	0	56	7	4	1	0	6	17	0	20	14	42	2	96	209	27	45	1016	0	50	6	0	11	40
OTU 57	32	52	205	34	11	4095	45	63	82	155	211	73	16	68	39	65	583	63	125	68	116	201	26	80	23	273	75	108	67	79	23	97	76	18	54	364	86	1811	151	114	115	37	27	58	12	39	98	18	12	27
OTU 58	1	7	30	1	12	6	0	20	0	50	29	26	56	56	38	8	0	0	5	1013	21	32	16	0	0	2	1	6	0	90	2217	7	50	57	41	0	7	950	28	0	124	1	63	10	13	18	136	1111	2	0
OTU 59	9	0	0	4	0	46	323	3	1	197	61	3	2	11	1	11	21	20	5	27	21	23	0	29	65	17	0	8	13	7	10	0	15	0	17	5	5	33	7	21	69	0	8	1	0	4	79	5	5	6
OTU 60	183	28	14	52	47	34	113	82	66	25	64	2	50	83	81	6	6	24	21	38	64	24	89	48	18	6	856	10	32	54	90	286	8	13	89	65	16	38	8	92	28	26	28	6	19	23	338	199	61	147
OTU 61	29	12	19	38	11	11	55	496	101	0	28	59	175	16	142	6	10	15	380	50	27	3	20	0	40	3	1	8	93	18	48	1	63	1	13	183	217	3	13	103	15	152	1	0	32	143	21	128	86	18
OTU 62	3	33	432	0	1	1	35	1	371	0	8	4	7	35	0	1	0	633	0	10	14	0	3	12	0	297	0	6	0	10	23	9	0	0	26	173	0	26	62	1074	29	0	1	0	0	0	68	0	5	1
OTU 63	1	0	1561	14	0	0	62	1	0	0	13	0	5	1	0	8	0	1	0	1	0	3	2	1	0	158	91	0	25	0	15	20	0	26	0	126	0	1	0	0	9	0	47	4	0	45	19	8	0	1
OTU 64	754	95	120	244	128	9	80	295	36	20	37	103	0	208	114	62	33	77	1438	44	73	77	253	28	33	20	72	49	151	74	65	473	242	19	81	164	946	9	189	74	88	89	28	927	0	33	119	427	166	382
OTU 65	2	0	0	0	0	0	0	0	0	2	0	0	0	0	0	0	0	0	0	0	0	0	0	0	0	0	2	0	0	0	0	0	0	0	0	0	0	0	0	0	0	0	0	0	1	0	0	0	0	0
OTU 66	1	72	1	0	4	15	39	9	228	47	15	77	12	72	51	17	15	63	12	41	1	19	13	80	1	12	200	9	99	1144	65	171	253	3	42	1286	27	15	37	63	198	9	18	17	14	4	51	19	20	2
OTU 67	22	7	0	4	1	3	61	12	57	85	1	26	73	105	22	1	3	3	0	0	60	11	1	1	25	7	4	2	0	56	37	7	37	0	59	77	0	44	18	4	34	60	2	0	4	21	38	32	2	645
OTU 68	64	1	13	0	12	23	0	21	3	0	15	0	0	0	17	99	0	19	162	0	14	246	23	0	0	7	8	0	4	1	1	94	0	17	0	12	61	1	16	0	0	0	13	44	196	0	15	3	49	117
OTU 69	16	27	77	35	1	3	46	31	43	18	24	4	12	12	15	12	1	23	102	13	15	40	3	44	316	51	24	4	1	4	55	1	14	19	15	11	64	41	2	76	7	434	13	12	38	21	46	11	24	7
OTU 70	51	16	8	7	0	2	1	8	35	0	6	2	0	4	17	2	29	0	18	0	0	0	0	0	1	0	0	22	53	4	225	36	6	18	1	1	11	7	111	2	6	0	33	0	1	2	1	0	0	1
OTU 71	1	3	45	1	0	29	14	7	35	0	45	8	11	0	0	9	0	0	1	7	13	11	0	22	0	0	1	26	9	0	17	0	11	58	0	4	0	4	0	6	1	0	101	8	15	54	10	0	22	2
OTU 72	58	1	59	6	6	36	23	345	57	26	41	33	1218	1	89	32	8	2	69	2	1	68	6	31	49	25	2	12	8	1	1	18	15	979	8	11	13	14	117	84	111	105	3	21	17	15	1	74	82	61
OTU 73	82	5	151	0	15	0	10	122	0	0	7	0	25	43	1	3	8	19	167	115	1	1	30	28	30	3	206	8	0	30	38	0	4	0	17	3	82	49	6	73	19	9	1	2	2	13	203	7	16	42
OTU 74	13	17	127	10	26	7	0	131	56	4	13	30	31	2	5	26	67	3	75	0	64	46	37	13	6	3	8	0	29	2	23	35	156	18	0	26	1	36	12	51	107	58	29	14	16	82	8	1	55	0
OTU 75	54	13	53	3	9	32	57	22	40	37	40	25	38	16	13	16	30	31	57	18	2	32	13	1	22	20	11	63	67	4	81	52	46	41	10	51	74	5	177	95	41	175	67	47	3	12	5	31	0	34
OTU 76	0	0	20	0	4	1	10	18	0	6	31	0	11	2	0	497	1	21	0	11	0	1064	10	0	0	36	4	0	0	2	0	0	0	1	2	0	4	2	11	15	1	4	8	258	28	3	0	0	25	0
OTU 77	42	19	43	4	24	5	15	67	43	11	5	8	84	1	41	7	29	124	19	0	55	5	47	17	60	38	175	86	13	7	13	0	89	11	6	8	36	15	0	177	15	11	21	1	13	16	69	75	67	32
OTU 78	58	10	16	0	46	11	4	25	13	3	14	26	7	0	183	1	0	7	22	46	4	1	94	123	17	0	14	7	42	0	3	0	0	2	3	5	41	6	35	26	55	152	6	1	3	12	24	41	45	13
OTU 79	120	57	33	12	60	59	73	1214	166	1589	68	197	79	50	479	83	76	54	45	637	30	182	114	67	2462	241	48	98	50	462	8	91	261	112	23	75	32	170	128	139	119	133	199	44	139	41	90	54	251	59
OTU 80	63	27	18	5	0	9	78	0	124	9	8	15	149	38	73	12	15	55	219	9	7	16	4	34	32	25	14	1361	42	14	2	36	18	2	39	65	22	36	252	58	250	11	10	6	14	7	30	14	35	74
OTU 81	13	7	369	35	15	48	16	236	345	9	54	29	292	9	2	13	1	259	276	10	5	11	30	47	18	106	24	500	3	9	21	38	4	29	22	75	57	20	4	299	42	17	38	7	26	15	168	167	30	5
OTU 82	9	2	1	7	1	7	30	121	0	12	2	0	8	14	130	35	73	9	6	19	1	90	1	11	105	0	37	4	2	5	94	17	15	8	0	10	16	39	22	2	15	74	0	19	12	104	24	25	0	17
OTU 83	0	2	0	0	0	0	0	0	0	19	3	0	29	0	4	2	1	1	0	5	0	3	0	1	5	2	127	6	36	2	15	2	13	0	3	0	0	0	0	0	7	0	2	1	0	0	48	1	0	0
OTU 84	0	0	1	12	4	5	19	6	0	2	11	4	1	8	0	7	4	14	0	8	0	2	12	8	0	0	0	18	6	0	114	43	52	10	0	19	0	1	0	14	39	0	1	4	65	206	52	5	5	4
OTU 85	19	0	0	5	0	20	0	0	3	0	30	5	0	17	34	1	0	0	1	0	0	20	1	16	30	34	0	3	0	0	1	3	5	0	5	1	0	15	0	0	12	10	0	2	10	6	1	24	0	3
OTU 86	0	20	112	0	2	0	0	0	5	0	0	42	0	0	69	0	0	55	0	0	0	0	6	0	0	0	0	3	0	0	0	0	0	0	3	0	0	5	0	199	0	2	0	0	0	0	0	11	2	5
OTU 87	12	0	4	0	0	0	6	1	1	0	0	21	36	6	35	2	6	839	5	32	18	3	0	0	51	1	12	1	0	0	26	0	1	0	10	77	0	0	0	10	4	22	7	1	0	1	0	0	0	2
OTU 88	61	6	0	0	0	0	0	0	0	0	0	0	2	2	0	6	2	2	0	0	0	4	0	0	0	254	0	0	0	6	0	0	0	0	1	4	0	0	8	4	90	0	0	4	0	1	1	0	0	5
OTU 89	7	0	0	0	0	0	3	12	0	0	4	1	0	30	14	0	0	1	3	0	46	5	1	2	0	1	4	4	0	6	1	9	2	4	13	11	9	14	7	0	49	0	27	0	0	0	0	8	2	0
OTU 90	0	0	0	0	0	2	0	0	1	1	12	0	7	1	0	0	0	1	0	0	10	0	0	0	0	0	0	0	0	0	0	43	6	18	0	23	0	0	2	0	106	0	0	0	2	0	0	0	0	0
OTU 91	0	0	0	0	1	3	0	2	0	0	0	0	0	0	12	0	0	0	0	0	0	0	1	0	2	2	0	0	7	0	34	0	0	3	1	0	0	0	1	0	0	2	1	0	0	0	0	0	0	0
OTU 92	22	0	0	7	0	0	3	0	6	0	0	0	3	35	1	2	0	0	0	1	0	1	0	0	0	7	9	27	1	1	52	22	0	3	15	0	0	0	0	0	3	2	2	2	3	0	66	0	2	1
OTU 93	50	31	0	0	3	0	0	0	0	1	1	17	3	0	0	0	1	0	15	0	0	0	4	3	22	0	0	0	0	0	0	0	0	0	1	1	0	0	0	0	0	0	0	1	0	0	9	1	0	26
OTU 94	117	109	47	19	44	24	24	13	2	14	33	127	194	3	60	14	12	3	95	2	1	6	80	5	0	54	18	223	111	9	52	311	41	33	1	4	3	2	23	26	98	2	6	7	7	13	669	4	127	55
OTU 95	6	0	49	0	8	23	0	10	71	0	40	0	5	2	0	0	13	2	6	0	0	0	5	0	0	26	11	1	3	3	0	35	0	68	0	3	0	7	0	37	1	5	144	0	0	0	30	755	0	3
OTU 96	0	0	41	0	0	0	12	0	0	0	0	1	0	0	0	0	0	0	0	0	0	2	0	81	0	0	0	0	0	0	0	0	63	0	0	8	0	0	0	0	0	3	0	0	0	28	1	4	0	0
OTU 97	0	0	0	0	0	0	0	0	0	0	0	0	1	0	0	59	4	1	5	3	0	131	0	35	0	44	0	2	13	0	0	0	2	0	2	0	2	0	0	0	11	0	0	12	0	0	0	0	0	0
OTU 98	77	1	104	0	0	2	2	1	1	9	1	5	5	2	0	0	46	3	0	0	0	0	7	49	2	11	8	0	14	17	3	1	0	0	5	0	3	10	31	7	5	16	0	0	0	4	0	0	3	6
OTU 99	73	44	11	8	52	9	29	255	1	53	61	131	47	26	35	37	12	17	199	42	25	23	93	13	99	80	101	10	97	19	73	169	61	2569	8	507	85	60	34	15	94	262	739	21	39	588	19	33	75	33
OTU 100	11	10	63	1	2	0	0	3	83	13	8	27	4	12	4	2	327	1	0	1	14	2	5	66	20	3	0	1418	3	0	387	5	3	2	9	1	6	167	42	6	2	12	15	0	193	13	25	8	11	8
OTU 101	0	0	0	0	10	0	0	0	22	26	0	0	0	3	0	0	0	0	0	0	0	0	8	0	0	0	0	0	2	9	0	0	0	0	0	0	49	0	0	0	0	9	0	0	0	19	0	0	0	0
OTU 102	3	2	2	22	0	0	3	1	0	10	0	0	0	8	0	0	77	2	17	0	0	1	0	20	0	0	0	65	3	0	0	0	39	0	1	14	2	1	0	0	6	0	2	0	27	3	20	2	0	1
OTU 103	1	4	0	16	1	9	38	7	0	14	6	0	0	2	106	1	128	4	40	30	0	9	3	71	3	14	151	143	23	5	190	27	378	8	0	0	21	149	8	10	49	32	3	1	165	515	0	25	40	0
OTU 104	164	44	72	55	48	27	17	51	21	7	0	43	42	14	71	6	135	103	97	21	61	16	78	407	173	117	98	8	60	3	107	678	131	4	5	16	60	17	45	64	146	272	60	14	54	4	73	197	393	27
OTU 105	0	0	0	0	0	0	18	6	4	0	13	0	0	0	7	28	0	12	24	0	0	43	0	0	0	0	7	0	0	3	0	0	7	0	1	0	14	0	18	0	251	12	0	10	0	18	10	26	1	0
OTU 106	0	7	48	43	0	13	0	0	17	1	0	36	28	2	1	638	0	0	0	0	0	0	0	0	3	3	1	6	0	3	16	29	0	0	5	32	0	1	6	5	0	3	0	322	0	0	0	0	19	1
OTU 107	4	0	31	3	0	0	2	11	0	0	9	0	4	46	13	19	0	2	0	14	15	46	3	0	0	15	6	18	2	20	2	4	0	0	17	13	11	17	1	0	2	0	0	9	31	0	31	6	11	11
OTU 108	3	4	0	1	2	0	0	30	25	0	0	6	3	0	1	0	0	0	120	7	4	1	4	4	2	0	0	43	11	1	14	20	11	0	2	12	2	85	6	0	64	11	4	0	2	0	0	36	0	7
OTU 109	0	0	0	0	0	0	0	0	0	0	0	0	0	0	0	0	0	0	0	0	0	0	0	0	0	0	0	0	0	0	0	0	0	2	0	0	0	0	0	3	0	0	0	0	0	0	0	0	0	0
OTU 110	176	8	5	33	56	11	0	28	9	2	24	51	0	3	5	88	2	20	14	31	5	105	110	38	46	26	31	18	4	8	45	51	121	54	1	42	0	0	6	93	18	23	36	39	8	25	373	917	60	61
OTU 111	0	0	0	0	0	0	0	0	0	27	0	0	0	0	2	0	0	1	2	0	0	0	0	72	4	2	0	0	0	0	0	0	0	0	0	0	0	0	9	0	0	1	0	0	10	1	6	0	0	17
OTU 112	0	13	2	4	2	56	301	0	0	23	20	5	11	5	0	43	6	15	0	0	1	90	4	0	0	2	1	0	0	5	21	0	0	0	0	57	4	1	1	10	40	79	0	31	15	2	10	0	0	0
OTU 113	0	522	0	1	0	0	1	1	1	0	4	115	0	0	0	0	9	0	1	0	0	0	1	0	0	0	4	0	0	1	1	23	0	4	0	0	0	0	0	1	4	2	1	0	1	0	4	27	17	0
OTU 114	25	0	16	1	0	3	31	183	46	1604	5	95	2	2612	131	30	22	5	131	35	42	74	0	287	563	56	435	16	0	1348	286	24	954	17	1221	11	229	48	103	3	156	856	45	11	3	129	14	65	29	16
OTU 115	66	3	81	109	3540	16	31	52	95	16	26	42	87	21	72	10	75	20	49	38	120	26	65	47	30	60	19	118	5	46	46	65	53	113	12	5	62	216	78	43	20	55	169	5	39	34	73	22	48	25
OTU 116	33	3	15	18	6	13	95	130	45	55	11	13	23	186	174	21	0	1	3	36	353	62	10	10	71	95	13	95	25	84	13	16	73	26	79	669	0	4	1	6	134	85	14	18	5	34	1	0	51	38
OTU 117	69	55	35	5	6	27	6	764	4	27	14	89	9	52	0	0	5	2	28	4	9	1	11	169	49	65	89	8	58	24	22	98	20	6	22	15	0	33	8	61	87	41	18	1	4	74	65	3	0	5
OTU 118	0	5	9	36	0	7	0	1	0	0	0	7	0	0	92	1	0	1	2	0	5	0	0	0	1	13	0	4	11	0	0	0	152	0	0	30	0	0	4	0	10	24	1	0	0	93	0	10	3	1
OTU 119	2	10	26	171	2	4	0	6	3	12	2	9	55	4	36	193	56	30	4	0	0	163	3	1536	3	54	10	86	24	3	17	9	16	21	9	18	35	40	49	5	34	26	14	114	129	77	4	79	16	117
OTU 120	24	0	25	0	11	8	4	0	16	4	42	5	0	15	0	2	32	0	17	14	0	1	29	13	0	61	0	18	1	9	0	0	6	0	15	11	0	0	31	3	15	9	14	0	2	0	0	0	0	40
OTU 121	36	24	1	4	1	9	7	5	15	50	23	5	1	0	1	3	742	37	15	1	13	0	1	0	85	102	11	0	40	18	7	30	25	12	0	22	4	56	46	29	0	53	74	3	6	139	4	1	5	5
OTU 122	2	40	44	26	8	9	0	99	103	0	22	71	10	3	103	36	0	4	66	12	14	113	12	13	1	126	21	8	5	6	10	5	32	89	7	14	10	1	70	31	12	47	120	8	16	38	129	17	9	1
OTU 123	187	115	171	32	59	77	181	197	20	940	138	32	62	28	534	24	28	60	285	741	43	81	123	103	442	371	88	194	696	789	156	40	226	82	22	156	34	101	468	94	145	67	205	25	1294	198	195	89	203	186
OTU 124	0	2	4	3	8	0	8	118	1	3	2	1	29	1	11	0	0	5	24	0	0	0	14	4	6	6	14	0	6	0	0	10	0	0	0	1	2	7	7	43	1	0	0	1	2	8	0	0	66	5
OTU 125	100	30	96	142	120	203	94	38	173	42	280	153	142	67	168	599	16	93	133	31	224	1132	241	45	81	80	16	245	30	42	99	106	62	188	2024	179	31	588	160	166	71	163	304	303	66	57	308	25	86	88
OTU 126	0	0	3	2	8	0	0	1	0	0	0	0	0	1	0	0	0	0	0	0	0	0	17	0	0	0	0	0	7	0	0	0	0	0	0	0	12	18	2	0	51	0	0	0	6	0	0	0	0	0
OTU 127	66	2	10	0	35	27	0	24	33	58	14	3	220	46	21	0	24	60	0	0	59	0	49	33	17	0	43	43	129	12	0	0	7	14	16	14	6	0	40	96	19	0	27	0	5	2	459	0	23	23
OTU 128	730	49	180	75	150	61	121	273	137	129	184	99	537	166	28	48	43	148	384	74	101	136	277	215	176	19	22	38	88	21	78	181	181	28	56	241	69	57	56	400	33	342	63	7	36	106	70	77	58	313
OTU 129	0	67	0	0	13	20	39	0	21	1	62	49	0	0	0	0	2	0	2	0	0	0	35	0	0	0	2	0	0	0	0	44	0	0	10	0	0	12	0	0	0	0	0	0	0	0	0	0	23	0
OTU 130	10	4	14	16	0	24	104	1	2	0	14	1	14	8	35	17	20	3	28	24	22	43	0	4	19	1	0	4	1	8	23	15	34	5	0	52	74	0	11	1	0	25	16	8	0	46	2	22	3	3669
OTU 131	53	34	15	61	21	52	6	258	39	40	57	23	43	0	177	7	17	101	0	9	32	27	50	308	1	18	826	0	17	0	11	77	1552	11	0	22	0	89	24	204	29	2	34	1	4	219	1	10	6	18
OTU 132	6	0	3	0	11	1	1	0	0	0	0	30	0	11	0	6	27	19	0	0	5	11	23	52	8	5	12	19	50	0	10	3	3	4	6	0	0	0	5	20	0	0	2	3	1	11	0	1	21	3
OTU 133	4	2	3	0	0	0	0	1	0	1	0	0	17	0	0	0	0	0	0	0	4	0	0	13	0	6	25	0	0	0	14	1	2	0	0	5	0	1	8	0	0	0	10	1	1	0	0	0	0	0
OTU 134	9	0	43	4	15	1	120	26	34	28	0	4	14	111	40	27	47	7	100	0	46	36	27	0	78	15	3	100	0	33	75	28	32	38	73	135	40	58	17	0	278	22	66	9	5	12	0	3	10	0
OTU 135	39	5	35	4	9	33	30	5	16	32	39	3	8	7	343	0	8	3	157	3705	65	15	24	13	46	11	15	0	12	4	57	19	40	58	7	19	24	1	56	16	88	10	28	0	14	45	3	172	69	16
OTU 136	0	25	9	7	6	2	0	2	0	26	2	16	11	53	18	24	12	25	2	0	0	10	8	8	13	12	73	166	7	32	45	27	1	0	12	73	32	2	1	75	2	5	38	7	6	1	74	4	0	0
OTU 137	87	1	0	0	67	0	8	102	0	1	1	5	0	2	1	1	5	36	23	30	0	1	121	3	0	1	0	0	0	1	0	971	0	5	1	0	19	0	0	92	0	19	17	1	51	5	3	17	277	19
OTU 138	0	1	0	8	5	1	0	17	1	0	54	7	0	0	1	0	28	15	6	0	40	0	6	27	11	4	31	0	59	0	3	0	0	9	4	97	1	0	11	0	13	2	25	0	5	7	25	7	0	14
OTU 139	11	975	71	77	3	50	55	13	5	21	124	2292	43	113	28	30	80	9	6	28	37	52	6	25	14	1052	122	40	24	64	152	21	36	6	31	44	78	94	148	27	92	5	17	15	73	80	109	90	124	3
OTU 140	104	56	82	37	25	247	329	26	112	395	533	97	114	802	47	29	201	171	47	27	96	76	50	1053	34	57	106	62	524	292	99	110	84	78	448	254	56	298	54	239	352	2	227	2771	333	78	71	52	3037	53
OTU 141	0	0	0	0	0	0	0	0	0	0	0	0	0	0	0	0	0	0	0	0	0	0	0	0	0	0	1	16	0	0	0	0	0	0	0	0	0	1	0	0	0	0	0	0	58	2	0	0	0	0
OTU 142	0	0	0	0	0	0	0	1	7	0	0	0	0	0	0	0	0	9	0	0	0	3	0	0	0	0	0	0	0	0	0	17	0	0	0	0	0	9	0	0	0	0	0	0	0	0	0	0	0	0
OTU 143	30	21	0	0	2	250	0	5	9	7	0	1	0	0	21	1	2	0	16	0	0	0	3	2	4	1	0	0	0	0	0	1	0	0	1	15	7	0	0	0	0	1	14	0	24	0	1	0	0	12
OTU 144	0	7	10	0	0	31	155	7	4	3	108	2	0	6	0	0	11	0	31	1	3	0	7	0	0	0	43	17	60	4	0	0	5	1	0	4	1	7	11	10	71	3	0	0	41	0	6	45	0	0
OTU 145	9	13	12	2228	17	9	35	28	106	5	67	1	6	8	181	31	72	4	95	21	4	58	31	2	157	91	124	674	29	4	28	58	120	34	16	26	62	14	16	10	86	270	132	24	0	14	11	17	24	16
OTU 146	13	1	5	0	0	0	74	0	3	0	5	2	31	4	44	20	0	15	10	13	12	17	0	0	33	102	2573	0	2	0	7	0	26	43	2	64	19	163	4	22	80	18	116	11	14	23	143	1	117	13
OTU 147	22	8	0	5	8	14	0	1	14	18	11	115	16	3	25	13	0	0	10	4	2	12	19	1	3	10	1	25	0	0	2	18	13	0	1	2	18	1	0	0	2	0	0	1	8	93	0	0	1	56
OTU 148	4	2	13	5	1	56	108	0	11	14	105	50	44	27	942	3	113	6	21	1	46	13	5	45	22	3	430	100	7	65	112	30	366	89	32	0	95	364	0	17	0	0	69	0	132	967	53	30	0	4
OTU 149	114	0	13	0	9	4	16	1	0	2	9	0	0	21	19	0	1973	0	53	6	0	2	27	65	20	9	136	0	0	8	36	9	0	62	14	2	9	0	18	0	44	40	99	0	143	14	2	49	30	33
OTU 150	60	2	0	1	0	0	0	26	1	133	0	0	43	3	42	0	21	33	0	144	1	0	1	1	678	3	0	15	0	2	0	10	4	1	0	2	0	42	7	34	8	15	14	0	0	28	10	3	1	2
OTU 151	15	2	2	7	0	48	36	0	6	56	204	0	38	42	1	10	13	7	48	7	38	30	3	0	0	34	0	13	0	17	9	0	18	10	7	0	23	23	1	40	0	23	26	6	82	46	0	2	0	16
OTU 152	1	9	0	12	0	6	13	6	5	13	15	31	94	3	39	11	15	6	42	4	6	20	0	10	48	41	34	2	39	1	13	26	13	35	1	34	8	195	2	13	89	58	66	12	34	4	10	37	1	0
OTU 153	0	0	0	0	0	6	0	0	0	0	1	0	0	2	0	0	0	1	0	0	0	0	0	6	0	0	0	0	0	0	12	23	22	0	0	1	0	0	0	0	1	0	0	0	1	0	8	0	0	0
OTU 154	0	0	18	4	0	0	0	0	0	5	0	1	0	0	3	7	8	0	0	0	0	0	0	0	0	0	0	0	34	2	0	6	1	0	0	0	0	0	0	0	10	0	0	2	0	0	0	0	0	0
OTU 155	0	168	15	0	3	8	102	44	8	0	1	224	55	10	3	0	4	5	0	1	0	0	6	5	0	42	0	8	2	1	28	1	34	2	4	0	3	12	0	0	2	4	0	0	51	3	0	6	3	2
OTU 156	54	3614	55	25	15	34	7	95	47	9	81	3	86	166	20	73	18	83	21	19	111	72	27	35	29	70	2	136	49	10	15	57	12	0	69	115	78	59	55	248	73	3	17	35	9	41	33	80	55	31
OTU 157	6	20	1	2	0	3	0	1	0	6	5	0	0	0	27	0	0	0	0	2	2	2	0	3	0	70	5	13	0	0	4	12	6	0	0	83	0	12	0	0	1	20	0	0	0	1	0	0	1	2
OTU 158	1	0	9	0	0	0	0	0	0	0	0	0	0	0	0	1	0	4	0	0	0	0	0	0	0	2	0	0	0	10	0	6	0	0	0	0	0	0	0	0	0	0	0	1	0	0	15	0	0	0
OTU 159	1	0	3	15	4	1	0	7	172	4	37	2	85	1	76	10	26	0	32	14	15	22	5	2	24	34	5	18	45	14	223	128	16	13	0	53	17	0	9	0	0	17	28	13	18	21	20	302	9	13
OTU 160	198	104	101	977	47	158	89	18	62	187	305	28	368	32	135	33	36	20	222	35	170	95	90	61	27	640	36	8	69	20	31	11	33	42	13	661	98	94	52	30	78	15	102	21	26	21	115	85	18	22
OTU 161	16	36	1356	48	3	21	40	23	61	6	54	28	266	21	245	0	1	39	76	0	11	0	8	297	4	106	4	52	56	11	100	17	5	15	1	0	29	40	56	35	51	13	34	0	21	79	8	17	82	6
OTU 162	77	15	5	3	1	112	97	1	1	13	284	18	2	16	10	1	7	0	29	23	0	5	4	3	91	90	12	0	744	3	114	39	9	31	8	3	3	6	9	18	21	283	97	0	0	42	92	15	52	20
OTU 163	0	2	0	0	0	0	0	0	0	0	0	0	0	1	0	0	0	0	0	1	0	0	0	0	0	0	0	9	0	0	13	0	0	11	0	0	0	2	2	0	11	0	8	0	0	0	0	0	0	1
OTU 164	0	0	0	0	0	0	0	0	0	0	0	0	0	1	0	1	0	0	0	0	0	0	0	0	0	0	3	0	0	0	0	0	0	0	1	0	0	0	0	0	0	4	0	0	21	0	0	0	0	0
OTU 165	0	7	0	3	0	62	2	8	0	0	216	2	69	2	19	11	11	0	0	8	7	11	0	31	86	0	1	53	96	5	0	133	17	10	0	0	0	39	19	3	32	246	60	0	0	0	0	5	47	3
OTU 166	0	0	0	0	0	0	0	1	0	0	0	0	0	0	0	0	3	0	0	0	0	0	0	0	0	0	0	0	0	0	0	0	0	0	0	0	0	0	0	0	0	0	0	0	86	0	0	1	0	0
OTU 167	26	66	40	9	5	13	7	251	0	0	11	0	27	0	69	0	18	2	0	52	0	1	5	0	1	98	3	21	15	1	5	1	23	0	0	30	4	27	71	25	26	3	3	0	5	0	6	0	56	2
OTU 168	17	40	24	0	9	16	68	7	8	10	25	73	36	92	42	1	28	139	2	0	12	0	9	131	14	53	16	1	9	42	0	0	22	0	35	9	1	41	50	137	1	3	14	0	73	0	28	2	73	13
OTU 169	0	0	13	0	0	0	0	0	23	0	0	1	0	0	0	20	0	0	141	0	2	23	0	0	9	15	0	0	6	0	0	0	0	0	0	0	1	0	2	0	0	0	0	4	0	0	0	15	29	0
OTU 170	0	0	0	0	0	0	0	0	0	0	0	0	0	0	0	0	0	0	0	0	0	0	0	0	0	0	0	0	0	0	2	29	0	0	0	2	0	0	5	8	0	0	0	0	0	0	0	12	8	0
OTU 171	7	17	1	2	0	6	20	0	11	30	2	1	3	34	3	0	0	1	73	79	46	0	0	52	49	51	19	90	8	9	4	25	1	39	8	15	67	22	77	6	22	24	48	0	712	54	22	27	29	1
OTU 172	0	0	0	0	0	51	0	0	1	0	71	0	0	3	15	6	36	0	2	1	0	15	0	0	0	0	0	0	0	49	0	1	5	3	1	2	0	5	0	0	1	0	0	2	0	0	8	0	0	0
OTU 173	0	2	6	0	5	5	25	0	0	9	0	10	66	0	0	0	0	67	29	0	9	0	7	0	46	0	0	0	0	2	0	0	0	3	3	1	5	3	1	1	16	3	2	0	0	14	0	0	7	4
OTU 174	67	58	14	5	13	18	92	28	0	322	30	19	0	529	0	86	3	0	8	0	491	158	30	4	40	74	20	77	0	213	31	206	17	12	276	23	0	2	26	3	17	17	3	49	0	7	0	0	228	50
OTU 175	0	0	18	1	4	0	38	25	14	0	2	3	21	2	1	4	47	1	0	0	20	15	11	39	0	0	0	3	24	0	0	0	5	0	3	0	13	1	0	10	1	0	0	2	3	0	40	6	15	0
OTU 176	81	7	12	26	2	95	40	111	66	5	80	16	8	25	93	14	3	12	123	87	63	42	14	53	78	11	60	37	8	10	23	9	14	31	11	23	6	3	211	13	11	203	79	9	5	224	58	13	6	32
OTU 177	14	96	2	4	7	27	66	20	6	27	54	77	9	84	86	0	16	20	57	12	247	0	5	20	115	7	5	166	59	144	95	90	2	2	25	53	117	12	16	23	169	69	21	2	82	109	78	5	9	12
OTU 178	4	0	4	38	13	6	63	162	15	33	4	4	0	101	16	35	0	12	18	1	32	47	21	2	1	20	43	2	38	34	58	6	4	7	32	44	19	0	21	49	0	26	8	23	5	4	21	3	0	0
OTU 179	2190	23	82	0	511	0	10	0	0	19	4	0	21	81	5	39	7	39	58	8	44	60	998	21	3	3	0	0	9	18	19	6	0	71	23	26	0	15	8	102	2	48	124	26	22	17	0	6	0	932
OTU 180	62	127	10	36	14	128	84	62	14	204	141	175	177	235	82	96	88	16	9	77	52	114	25	137	88	39	59	331	34	134	78	35	14	54	98	107	117	41	75	62	169	75	48	63	414	102	305	28	52	33
OTU 181	28	13	2	13	5	28	0	18	39	44	42	17	3	155	74	4	6	5	1	11	155	28	8	4	0	7	0	0	14	87	147	118	10	1	88	14	5	17	53	0	1009	5	1	1	3	37	10	50	38	14
OTU 182	0	0	0	0	0	11	0	0	2	15	0	0	0	0	0	0	0	0	0	0	0	0	0	0	0	0	0	0	0	1	0	0	0	0	1	0	0	0	0	0	0	6	0	1	1	3	11	49	0	0
OTU 183	0	27	53	1	0	0	12	0	8	19	16	34	81	1	28	8	11	2	92	14	23	2	2	69	5	0	3	0	7	2152	3	52	6	5	8	52	1	4	8	62	49	69	23	8	3	10	3	1	0	0
OTU 184	56	15	3	2	2	13	158	42	1	37	23	3	41	104	0	9	10	10	115	0	33	17	11	810	0	49	3	16	12	27	11	1	48	0	34	2	29	28	1	15	0	3	0	9	59	11	0	24	52	11
OTU 185	0	5	14	24	6	51	23	136	35	20	51	1	55	1	24	4	14	22	10	43	27	6	14	1	79	8	77	27	0	19	6	174	84	25	6	1	8	60	0	9	1	246	58	1	92	102	53	40	62	12
OTU 186	1	0	121	0	6	1	40	1	0	11	0	0	0	0	0	12	12	1	1	0	8	32	12	0	0	0	16	0	2	0	21	28	1	3	0	21	40	2	45	19	52	4	1	14	7	127	13	0	11	0
OTU 187	3	47	112	1	13	16	81	197	28	27	88	78	220	14	279	37	63	6	27	10	17	39	42	113	83	25	34	168	39	4	247	350	119	1422	18	42	116	69	126	41	100	33	12	11	245	174	101	55	106	5
OTU 188	11	103	25	0	1	605	31	89	307	5	10	139	37	1	170	21	6	32	11	6	7	52	2	1	20	46	0	70	2	1	80	5	22	10	5	14	33	0	5	78	0	21	20	16	51	32	96	1	0	59
OTU 189	52	10	64	90	18	76	12	27	88	1	96	1	14	9	30	5	9	27	126	86	24	11	37	4	37	125	21	77	60	6	8	5	99	18	3	66	788	139	31	1	187	112	27	5	39	83	119	158	20	19
OTU 190	0	19	117	1	0	0	1	0	0	0	3	24	152	0	5	0	4	0	0	0	0	0	0	0	2	2	1	21	3	0	0	0	0	0	0	0	0	0	0	0	0	0	0	0	15	27	0	0	0	1
OTU 191	35	61	1	54	1	21	113	12	11	9	57	197	83	12	367	83	16	3607	13	5	14	168	1	30	21	65	17	6	30	2	91	7	12	22	2	20	12	3	63	6	86	98	56	43	31	5	120	18	229	14
OTU 192	50	15	628	71	9	23	8	94	487	9	26	2	67	36	5	101	42	377	354	3	55	170	19	4	102	859	7	101	237	56	27	155	46	143	22	563	75	69	215	484	28	64	340	13	36	17	30	136	1	29
OTU 193	23	23	119	19	0	82	14	161	9	13	70	157	23	10	2	6	8	1	263	14	7	12	1	27	33	3	6	13	161	0	3	21	9	8	0	86	93	2	600	21	0	303	53	13	1	2	141	167	53	21
OTU 194	395	2	0	1	37	9	0	34	1	0	4	3	0	17	21	2	0	1	1	6	0	5	71	58	0	0	0	81	85	0	61	334	0	0	1	0	7	1	78	14	27	60	4	0	0	3	0	12	391	203
OTU 195	78	16	46	16	22	0	40	3	3	7	2	3	8	8	41	55	20	61	25	1	45	114	35	9	15	31	64	0	51	0	11	3	16	10	10	17	13	11	242	89	16	14	34	17	22	245	3	18	18	45
OTU 196	6	7	77	16	5	13	1	2	24	0	41	21	1	5	3	21	439	1	17	2	0	49	18	4	0	67	4	38	68	13	427	38	0	93	893	24	49	189	138	9	32	5	70	9	738	5	87	18	20	7
OTU 197	36	639	5	14	1687	155	115	155	1952	8	328	1263	66	13	77	18	41	1	135	24	28	21	3542	57	126	56	24	158	28	1	31	150	50	49	4	66	59	26	70	26	47	121	123	11	14	484	244	124	52	8
OTU 198	132	6	11	0	4	0	0	15	20	0	0	0	160	6	79	466	0	10	0	0	1	985	11	0	0	0	83	0	0	0	0	0	14	0	15	0	0	2	0	4	0	0	0	256	0	23	43	1	9	107
OTU 199	42	0	1	8	0	54	61	0	4	24	136	9	1	0	0	1	1	17	1	1	2	8	0	3	4	1	0	0	19	1	0	0	6	40	0	1	35	0	13	2	27	27	55	0	8	36	71	0	10	2
OTU 200	7	3	37	8	0	0	24	1	0	7	4	0	79	6	27	6	29	25	1	0	0	5	3	12	8	5	1	18	5	1	10	57	0	5	7	2	18	21	0	31	1	26	0	1	33	69	26	55	67	11
