	Host 1	Host 2	Host 3	Host 4	Host 5	Host 6	Host 7	Host 8	Host 9	Host 10	Host 11	Host 12	Host 13	Host 14	Host 15	Host 16	Host 17	Host 18	Host 19	Host 20	Host 21	Host 22	Host 23	Host 24	Host 25	Host 26	Host 27	Host 28	Host 29	Host 30	Host 31	Host 32	Host 33	Host 34	Host 35	Host 36	Host 37	Host 38	Host 39	Host 40	Host 41	Host 42	Host 43	Host 44	Host 45	Host 46	Host 47	Host 48	Host 49	Host 50	
OTU 1	2	2	0	1	2	3	2	3	1	3	7	0	2	0	1	0	8	3	2	0	0	0	1	4	0	1	1	0	2	0	3	8	2	6	6	4	1	1	12	2	5	8	2	6	4	0	1	5	7	0
OTU 2	1	0	0	0	0	0	0	1	0	0	0	0	0	1	0	2	0	0	0	0	3	0	0	0	0	0	4	0	0	0	0	0	0	0	0	0	0	0	3	1	0	1	0	1	0	0	1	0	0	0
OTU 3	0	4	0	0	0	0	0	0	0	2	0	1	0	7	0	0	0	0	0	0	0	0	0	0	0	1	0	0	1	0	0	3	0	0	1	0	0	0	1	0	0	0	0	0	0	0	2	0	1	3
OTU 4	0	0	0	0	0	0	0	0	0	0	0	0	0	0	0	0	0	0	0	0	0	0	0	0	0	0	0	0	0	0	0	0	0	0	0	0	0	0	0	0	0	0	0	0	0	0	0	0	0	0
OTU 5	13	7	22	12	1	45	6	35	0	3	45	48	31	1	62	0	12	13	11	0	3	35	14	4	1	7	1	4	0	18	1	4	25	6	3	1	7	14	23	2	34	46	30	3	0	27	24	3	8	4
OTU 6	1	0	0	0	0	2	4	0	7	7	0	0	0	3	0	0	2	1	0	0	0	0	0	0	3	0	1	0	1	0	1	0	1	1	0	0	1	1	0	0	0	0	0	5	0	3	61	0	0	0
OTU 7	78	3	13	8	1	0	3	12	64	3	16	2	8	21	24	5	22	8	5	3	0	11	26	78	0	4	6	0	1	2	2	45	0	19	42	158	4	3	35	4	21	9	0	4	4	2	2	0	38	0
OTU 8	3	0	8	1	0	4	10	3	2	5	0	0	5	0	1	20	1	1	92	6	4	1	0	5	0	1	3	0	9	1	14	16	0	11	0	0	0	1	6	1	1	2	2	4	4	2	5	7	0	9
OTU 9	0	0	5	0	0	0	4	0	4	0	2	0	0	1	0	0	1	0	0	5	0	0	0	0	0	0	1	0	0	0	0	2	0	0	7	0	0	0	0	5	0	0	0	0	0	0	0	0	0	1
OTU 10	0	1	0	0	0	0	0	0	0	0	0	0	0	1	1	1	0	0	0	0	0	0	1	0	0	1	1	0	1	0	3	1	0	0	0	0	0	4	0	0	0	1	0	2	3	2	1	0	0	2
OTU 11	1	10	0	0	0	3	1	1	2	4	10	7	2	13	5	7	1	0	1	1	0	2	0	0	1	0	6	0	3	27	3	8	1	0	2	2	1	0	8	8	2	9	1	2	2	2	1	6	1	1
OTU 12	1	0	2	1	2	0	2	1	1	1	2	3	0	0	0	7	1	1	0	2	0	0	1	0	4	0	1	5	0	0	1	1	0	0	1	0	0	2	4	13	1	3	1	0	1	1	2	0	2	5
OTU 13	0	0	0	0	0	0	0	0	0	1	0	0	0	0	0	1	0	0	0	0	0	0	0	0	0	0	0	0	1	3	0	0	0	0	0	1	0	0	0	0	0	0	0	0	0	0	0	0	0	1
OTU 14	0	0	0	4	0	0	0	0	0	0	0	0	0	0	0	1	1	3	2	5	0	0	3	0	0	0	0	0	0	0	0	0	0	0	0	0	6	5	0	0	0	0	0	2	0	2	1	0	0	1
OTU 15	0	0	0	0	0	0	0	0	1	0	0	0	0	0	0	0	0	0	0	0	0	0	0	0	0	0	0	0	0	0	0	0	0	0	0	0	0	0	0	0	0	0	0	0	0	0	0	0	0	0
OTU 16	0	0	0	0	0	0	0	0	0	0	0	0	0	0	0	0	0	0	0	0	0	0	0	0	0	0	0	0	0	0	0	0	0	0	0	0	0	0	0	0	0	0	0	0	0	0	0	0	0	0
OTU 17	3	2	0	0	2	0	0	0	0	0	0	0	1	1	0	3	0	0	0	0	3	0	0	1	0	1	0	0	2	42	2	0	0	1	1	0	2	0	0	0	1	0	0	1	0	0	0	1	0	0
OTU 18	2	0	0	1	8	1	0	2	44	5	1	77	0	1	1	0	1	1	49	1	4	0	0	0	5	8	0	0	8	0	0	0	1	1	1	4	3	0	0	0	0	0	1	0	0	1	0	5	4	0
OTU 19	0	0	0	0	0	0	0	0	0	0	0	0	0	0	0	0	0	0	0	0	0	0	0	0	0	0	0	0	2	0	0	0	0	0	0	0	0	0	0	0	0	0	0	0	1	0	0	0	0	0
OTU 20	0	0	0	3	0	1	2	0	1	1	6	0	3	0	0	1	3	0	2	2	0	0	3	1	0	0	2	0	0	1	0	1	0	2	2	6	2	1	0	8	1	1	1	1	2	0	3	6	0	3
OTU 21	2	0	0	0	2	1	0	1	1	1	0	1	0	4	4	1	4	4	0	0	0	3	0	0	1	1	1	3	4	2	0	0	0	0	0	0	0	4	0	2	0	0	0	5	0	2	0	0	1	2
OTU 22	9	1	0	1	2	0	1	0	8	0	3	43	2	1	1	0	2	2	0	0	0	1	0	0	0	0	1	0	3	5	1	4	0	2	5	4	0	0	0	10	1	0	6	1	1	0	0	10	0	0
OTU 23	0	1	0	0	0	0	1	0	3	0	0	0	0	1	3	4	0	0	0	0	0	0	1	0	1	0	0	0	0	0	1	0	2	0	1	0	0	2	3	0	0	0	0	0	0	0	8	0	0	1
OTU 24	0	1	2	0	1	0	0	0	0	0	0	0	0	0	0	2	0	0	0	0	1	0	0	0	0	0	0	0	0	0	0	3	0	3	1	0	0	1	0	4	0	0	44	0	0	1	0	0	4	0
OTU 25	0	0	1	0	0	0	0	0	0	0	0	0	0	0	0	0	0	0	0	0	0	0	0	0	0	0	0	0	0	0	0	0	0	0	0	0	0	0	0	0	0	0	0	0	0	0	0	0	0	0
OTU 26	0	0	0	0	0	0	0	0	0	0	1	0	0	0	0	0	0	0	0	0	0	0	0	0	0	1	0	0	0	1	0	0	0	0	0	0	0	0	0	0	0	0	0	0	0	0	0	0	0	1
OTU 27	0	0	0	0	0	0	0	0	0	0	0	0	0	0	0	0	0	0	0	0	0	0	0	0	0	0	0	0	0	0	0	0	0	0	0	0	0	0	0	0	0	1	0	0	0	0	0	0	0	0
OTU 28	0	3	2	0	4	0	13	0	0	0	3	1	0	0	0	9	0	0	3	2	2	0	2	0	3	0	1	0	1	11	7	2	0	5	0	1	1	2	0	5	0	1	0	0	0	0	0	1	2	0
OTU 29	1	1	6	0	2	0	3	0	17	1	5	3	0	0	2	4	1	3	2	5	8	0	0	8	0	2	2	0	1	0	8	1	1	3	0	10	2	7	4	0	0	4	0	3	12	6	0	4	1	1
OTU 30	0	0	0	0	0	0	0	0	0	0	0	0	0	0	0	0	0	0	0	0	0	0	0	0	0	0	0	0	0	0	0	0	0	0	0	0	0	0	0	0	0	0	0	0	0	0	0	2	0	0
OTU 31	0	0	0	0	0	0	0	0	0	3	0	0	0	0	0	0	0	0	0	0	0	0	0	1	0	0	1	0	0	0	0	2	0	1	0	0	0	0	0	8	0	0	0	0	0	0	0	1	0	0
OTU 32	7	2	0	0	0	4	3	3	0	0	22	0	13	2	3	3	7	0	0	4	1	1	0	8	0	1	0	1	0	0	0	2	0	1	3	18	0	0	5	1	7	6	0	2	2	1	2	39	5	3
OTU 33	0	0	0	0	0	0	0	0	0	0	0	0	0	0	0	0	0	0	0	0	0	0	0	0	0	0	0	0	0	0	0	0	0	0	0	0	0	0	0	0	0	0	4	0	0	0	0	0	0	0
OTU 34	0	4	0	0	3	0	1	0	2	0	0	0	0	7	0	6	1	2	0	2	2	0	0	0	0	3	8	1	0	2	2	1	4	160	0	1	0	0	0	4	0	0	0	1	1	0	1	3	4	2
OTU 35	1	0	4	0	0	2	0	0	2	0	0	3	0	0	0	0	1	26	14	0	5	4	0	0	0	1	0	0	0	0	0	9	15	3	1	0	18	2	0	0	0	0	0	0	0	4	8	0	0	2
OTU 36	1	0	0	2	0	1	1	0	2	4	3	2	3	0	3	3	1	0	1	0	9	0	0	0	1	1	0	0	2	0	0	2	0	0	0	7	0	0	4	0	1	5	0	0	5	1	0	2	0	0
OTU 37	0	0	1	0	0	0	1	0	0	0	0	0	0	0	0	0	2	0	0	0	0	1	0	0	0	0	0	0	0	0	1	0	0	0	0	0	0	0	0	0	0	0	0	0	0	0	0	0	0	0
OTU 38	4	0	6	1	0	0	2	0	0	5	2	0	2	5	0	0	0	0	0	0	0	1	1	0	0	2	0	0	0	0	1	1	0	0	2	1	0	0	0	0	1	0	2	0	1	0	0	0	7	12
OTU 39	0	0	0	0	2	0	0	0	0	0	0	0	0	1	0	0	1	0	0	0	0	0	0	0	0	0	1	0	0	0	0	0	0	0	0	0	0	0	0	0	0	0	0	0	0	0	0	0	0	0
OTU 40	0	15	0	4	0	2	3	17	2	0	1	0	0	0	5	11	8	3	34	0	3	1	5	0	1	0	0	1	1	0	2	0	1	0	1	0	0	0	17	0	1	10	1	0	0	2	0	3	2	1
OTU 41	0	0	0	2	60	2	0	3	0	0	0	0	0	0	0	3	3	4	0	6	4	0	1	0	21	0	0	12	1	4	19	0	0	0	1	0	0	2	0	4	0	1	17	0	3	0	1	0	0	6
OTU 42	0	0	2	1	0	0	0	0	0	0	1	0	0	0	1	0	0	0	0	0	1	0	0	1	0	0	0	0	1	0	0	0	0	0	0	0	0	2	0	1	0	0	0	0	0	0	0	1	0	1
OTU 43	0	0	0	0	0	0	0	0	0	0	0	0	0	0	0	0	0	0	0	0	0	0	0	0	0	0	0	0	0	0	0	0	0	0	0	0	0	0	1	0	0	0	2	0	0	0	0	0	0	0
OTU 44	2	2	0	0	0	0	0	0	0	0	0	2	0	1	0	4	0	0	0	0	1	0	0	0	0	0	0	0	0	0	4	0	0	0	0	0	0	0	0	0	0	0	0	0	0	2	0	0	0	0
OTU 45	4	0	5	0	0	0	2	0	0	1	0	0	0	0	0	6	0	0	0	107	4	1	0	57	0	0	0	0	0	2	0	0	0	2	2	1	0	0	1	0	0	0	3	2	0	0	0	1	0	2
OTU 46	1	1	2	0	2	0	5	0	2	0	1	0	1	4	0	5	2	1	0	1	1	2	1	113	7	0	26	0	0	0	0	8	0	3	0	0	1	10	0	3	1	0	0	0	5	0	1	5	0	3
OTU 47	0	0	0	1	0	0	11	0	0	0	0	0	0	0	2	0	1	1	0	0	0	1	1	0	0	0	0	0	0	0	0	2	0	0	0	0	0	0	7	2	0	0	3	0	0	0	0	0	0	0
OTU 48	0	0	0	0	4	0	0	0	0	7	1	0	0	3	0	0	0	0	0	1	1	0	0	0	1	2	5	0	2	6	0	1	1	0	62	0	0	0	1	0	0	0	5	4	0	0	0	1	4	0
OTU 49	1	3	3	0	0	0	5	0	0	0	0	0	0	0	0	2	0	0	0	0	0	0	0	0	2	0	2	0	61	1	2	2	0	1	0	0	0	0	0	0	0	0	1	0	0	0	0	3	0	0
OTU 50	0	0	2	3	1	2	0	0	1	3	2	6	0	3	3	1	4	4	8	5	19	1	15	0	0	0	2	1	0	0	0	0	1	0	1	0	1	1	4	1	1	3	1	3	0	4	0	1	10	0
OTU 51	0	5	0	0	2	2	2	0	0	0	0	19	1	0	2	0	0	0	0	0	1	0	12	0	0	1	0	0	2	0	0	1	0	0	0	0	0	2	0	1	0	0	1	0	8	14	0	3	12	0
OTU 52	0	1	1	0	5	0	6	0	16	7	5	1	1	6	1	3	3	6	3	10	5	1	1	1	3	3	0	9	8	8	2	11	0	2	0	1	7	0	3	6	0	1	11	2	0	2	29	0	3	0
OTU 53	0	0	0	0	0	0	0	0	0	0	0	0	0	0	0	3	0	0	0	0	0	0	0	0	0	0	0	0	0	0	0	0	0	0	0	0	0	0	0	0	0	0	0	0	0	0	0	0	0	0
OTU 54	1	24	1	3	1	3	0	0	1	2	113	0	45	13	3	6	8	1	0	3	13	1	1	0	12	1	5	7	2	7	6	4	0	1	2	3	0	0	1	1	49	3	0	4	3	1	1	4	1	1
OTU 55	0	0	0	0	0	0	0	0	0	0	0	0	0	0	0	0	0	0	0	0	0	0	0	0	0	0	0	0	0	0	0	0	0	0	0	0	0	0	0	0	0	0	0	0	0	0	0	0	0	0
OTU 56	0	0	0	0	3	0	0	0	1	2	0	0	0	0	0	1	0	0	0	0	7	0	0	0	0	6	0	0	0	0	0	0	0	0	1	1	0	7	0	0	0	0	0	2	0	0	1	0	0	1
OTU 57	3	1	4	1	2	0	8	14	0	0	0	2	3	8	2	2	5	6	2	6	9	3	1	1	5	4	10	5	7	7	6	1	17	1	1	2	4	2	7	3	3	10	4	1	7	8	0	6	7	2
OTU 58	0	2	7	0	0	0	0	0	1	0	0	3	1	0	0	0	0	1	0	1	0	0	0	0	47	0	0	11	0	8	0	0	0	0	9	0	0	1	0	2	0	0	0	4	0	1	0	0	0	0
OTU 59	1	2	0	0	0	0	0	0	0	0	0	0	0	0	0	7	0	0	0	0	4	0	0	0	0	0	0	5	0	0	0	2	1	0	0	2	0	2	1	0	0	0	3	1	0	0	1	4	1	0
OTU 60	7	1	0	3	6	3	0	0	4	4	3	1	0	0	2	0	2	2	2	0	2	1	1	1	1	2	2	2	0	2	0	2	1	0	1	4	0	3	0	0	2	1	7	3	1	0	3	3	2	3
OTU 61	3	3	20	9	13	44	24	6	2	7	4	3	3	7	8	3	1	4	0	0	3	0	16	4	5	12	5	0	21	3	1	5	36	3	3	11	1	18	18	3	4	5	5	1	2	12	1	22	7	1
OTU 62	0	0	0	0	0	1	0	1	0	0	1	1	0	0	1	0	0	0	0	0	0	0	0	1	4	0	0	2	5	1	0	1	0	0	1	0	0	0	0	0	0	1	0	1	0	1	0	3	0	2
OTU 63	0	0	0	0	3	3	0	0	0	0	0	0	0	0	0	0	0	0	0	0	0	0	1	0	0	0	0	0	0	0	6	1	0	1	0	0	0	0	1	0	0	0	1	12	1	0	2	1	0	1
OTU 64	6	0	1	6	8	6	0	1	1	16	0	0	0	3	1	0	1	0	0	4	10	12	1	2	3	0	0	1	6	1	2	6	1	1	4	4	0	2	4	0	1	2	29	4	2	4	2	4	10	2
OTU 65	0	0	0	0	0	0	0	0	0	0	0	0	0	0	0	0	0	0	0	0	0	0	0	0	0	2	0	0	0	0	0	0	0	0	0	0	0	0	0	0	0	0	0	0	0	0	0	0	0	0
OTU 66	0	2	0	3	22	7	2	1	0	5	1	1	4	0	1	2	3	0	0	4	0	0	1	1	1	1	0	0	2	2	0	14	1	10	1	1	0	1	4	6	0	0	0	23	2	1	7	1	12	0
OTU 67	0	0	0	2	11	18	0	0	1	0	0	2	0	0	0	1	1	12	5	2	0	2	1	0	1	0	0	4	0	2	2	0	9	0	2	0	3	3	3	4	0	3	0	21	10	1	10	0	1	50
OTU 68	0	4	0	0	0	0	1	0	0	1	0	0	0	0	1	0	0	0	0	0	0	0	0	0	1	0	0	0	0	0	2	0	0	0	0	3	0	0	0	2	0	3	0	0	0	0	0	1	0	0
OTU 69	14	1	1	0	4	0	1	0	2	1	1	0	2	6	1	13	1	0	1	3	2	0	40	1	2	1	1	1	5	0	1	0	0	4	0	0	1	0	1	7	1	27	0	0	0	2	0	2	4	2
OTU 70	3	3	0	0	1	1	0	4	0	1	1	0	1	6	1	1	0	0	0	0	0	0	9	0	0	1	3	0	0	0	1	0	0	0	0	0	0	0	1	0	156	2	0	1	2	1	2	1	0	1
OTU 71	0	0	1	0	0	0	3	0	1	0	0	0	0	1	0	0	1	0	0	3	0	1	0	0	0	1	0	0	10	0	0	2	0	2	0	0	0	0	2	3	0	1	0	0	0	0	0	0	1	1
OTU 72	3	1	0	18	1	8	1	0	0	0	4	0	171	1	0	2	24	0	0	6	3	8	0	0	2	0	1	3	0	0	1	2	4	1	39	0	0	4	1	4	2	0	0	11	0	0	0	0	4	1
OTU 73	31	1	0	0	0	2	1	0	0	1	0	0	0	2	1	0	1	2	0	0	0	0	0	0	0	0	0	3	1	0	2	1	1	1	0	0	0	0	0	7	0	0	4	3	1	0	0	0	0	0
OTU 74	4	1	3	0	1	0	20	0	0	1	4	2	2	0	2	0	1	4	2	10	3	0	0	0	14	5	2	7	0	2	5	2	0	0	0	5	0	0	0	0	3	1	3	0	6	0	2	17	2	3
OTU 75	19	0	4	2	1	1	0	0	4	0	1	0	0	6	0	1	0	3	1	2	3	0	0	6	0	1	6	0	0	3	0	5	1	4	1	8	0	0	5	0	1	2	5	6	0	0	2	4	0	4
OTU 76	0	0	4	0	0	4	0	2	0	5	1	0	0	0	0	1	0	0	0	0	9	0	0	0	0	0	1	112	0	1	2	0	0	0	0	0	0	0	0	18	0	2	0	0	1	0	0	0	0	0
OTU 77	1	4	0	5	1	0	5	0	0	1	1	3	0	1	0	1	0	0	0	3	7	0	0	0	0	0	0	0	0	4	0	1	0	0	0	2	1	0	3	5	1	1	1	1	2	0	2	1	2	0
OTU 78	1	0	2	2	20	8	0	3	1	3	2	0	0	3	18	0	5	0	0	0	11	0	2	0	1	5	0	0	1	5	0	2	3	0	13	1	1	0	2	4	0	1	3	22	0	0	3	4	3	0
OTU 79	0	2	14	0	8	9	7	7	4	3	1	3	3	20	2	5	3	6	5	3	11	10	8	1	4	64	7	3	3	32	4	6	4	2	0	2	3	3	4	13	1	3	9	28	5	3	5	7	4	2
OTU 80	0	0	1	3	3	4	5	0	0	0	3	0	2	21	0	0	1	1	0	8	1	1	1	0	0	0	9	1	2	0	1	1	2	3	5	4	0	0	0	3	1	1	0	2	13	0	3	3	0	5
OTU 81	7	1	1	2	2	5	0	0	2	8	1	0	0	9	0	10	5	0	1	0	0	1	0	5	1	2	15	1	9	4	0	1	2	6	0	2	0	0	0	4	0	0	1	2	2	1	0	4	3	0
OTU 82	1	0	1	4	3	3	0	4	0	0	0	0	0	9	0	1	1	0	0	0	8	0	0	1	12	1	0	3	2	0	0	0	0	0	1	0	0	0	1	2	0	0	0	3	0	0	0	0	0	39
OTU 83	0	0	0	0	0	0	0	0	0	0	1	0	0	0	0	2	0	0	0	0	2	0	0	0	0	0	4	0	0	0	0	0	0	0	0	0	0	0	0	0	0	1	0	0	0	0	0	0	0	0
OTU 84	0	0	0	0	0	0	0	1	6	2	0	0	1	1	0	4	0	1	2	1	0	0	0	0	2	0	1	0	0	0	1	3	0	8	0	0	0	0	0	0	0	0	0	8	3	0	0	0	0	2
OTU 85	0	0	0	0	1	0	3	2	0	0	0	0	0	0	2	0	0	0	0	0	0	0	0	0	0	1	5	0	0	0	2	0	0	0	0	0	0	0	0	0	0	1	2	0	0	2	0	0	2	0
OTU 86	0	0	0	0	0	0	0	0	0	0	0	0	0	0	0	0	0	0	0	0	1	0	0	0	0	0	0	0	0	0	16	1	0	0	0	0	0	0	0	0	0	0	2	0	0	0	0	0	0	0
OTU 87	1	1	0	0	3	7	0	0	0	1	0	1	0	1	0	0	0	0	0	0	1	0	0	0	0	0	0	0	0	0	1	0	3	0	1	0	0	0	0	1	0	1	2	7	0	0	0	0	0	0
OTU 88	0	0	0	2	0	0	0	1	0	0	0	0	0	1	0	0	0	0	0	0	0	2	0	0	0	0	0	0	1	2	8	0	0	2	0	0	0	0	0	0	0	0	0	0	0	0	0	0	4	0
OTU 89	0	0	0	1	0	0	0	1	0	8	0	2	0	4	0	0	0	0	0	0	0	0	0	1	2	1	0	0	0	0	0	6	0	0	0	0	0	1	0	0	0	0	0	0	0	0	0	0	0	0
OTU 90	0	0	0	0	0	0	0	0	0	0	0	0	0	0	0	0	0	0	0	0	1	0	0	2	0	1	0	3	0	0	0	0	0	0	0	0	0	8	0	2	0	0	0	0	0	0	0	0	0	0
OTU 91	0	0	11	0	0	0	0	0	0	0	0	0	0	0	0	0	0	0	0	1	0	0	0	0	0	0	0	0	0	0	1	0	0	0	0	0	0	0	0	0	0	0	0	0	0	0	0	0	0	0
OTU 92	0	0	0	0	0	0	1	0	0	0	0	2	0	0	0	0	0	0	0	0	0	0	0	0	0	0	0	0	1	1	0	0	0	0	0	0	0	0	0	1	0	0	0	0	0	1	0	3	0	0
OTU 93	0	0	0	0	0	0	0	0	0	1	0	0	0	3	0	0	0	1	0	0	0	0	0	0	0	1	3	0	2	0	0	0	0	0	0	0	0	0	0	0	0	1	0	0	0	0	0	0	0	0
OTU 94	0	2	1	11	4	1	28	3	1	4	0	0	0	0	0	10	59	1	0	0	5	28	5	2	0	1	2	0	10	21	4	5	0	1	0	0	0	3	0	7	0	2	3	5	5	3	25	1	0	2
OTU 95	0	0	0	0	0	0	0	0	0	0	0	0	0	0	0	3	0	0	0	0	0	1	1	0	1	0	0	0	0	0	0	0	0	0	1	0	0	5	0	0	0	0	0	0	0	1	0	0	0	0
OTU 96	0	0	0	0	0	0	0	0	0	0	0	0	0	0	0	0	0	0	0	0	0	0	0	0	0	0	0	0	0	0	0	0	0	0	0	0	0	0	0	0	0	0	0	0	0	0	0	0	0	0
OTU 97	0	0	0	0	0	0	0	0	1	0	0	0	0	0	0	0	0	0	0	0	0	1	0	0	0	0	0	0	0	1	0	0	0	0	0	0	0	0	0	0	0	0	0	0	0	0	0	0	0	0
OTU 98	1	0	0	1	1	0	0	0	0	0	1	0	0	0	0	0	0	0	0	0	5	0	5	0	1	0	0	0	4	2	12	0	0	0	0	0	0	0	0	0	0	0	0	0	0	0	0	0	0	2
OTU 99	6	0	3	0	0	0	4	0	0	15	2	1	0	3	3	0	7	0	0	4	22	0	0	0	2	0	8	1	3	1	1	1	0	0	3	1	1	5	3	20	1	0	0	0	1	2	0	5	1	2
OTU 100	1	0	0	0	0	1	0	2	1	1	0	0	0	0	0	1	1	16	13	1	0	0	1	1	0	0	0	0	3	0	2	1	4	1	0	2	3	1	1	2	0	1	0	4	0	0	0	1	0	0
OTU 101	0	0	2	0	0	0	0	0	2	0	0	0	0	0	0	0	1	0	0	0	0	0	0	0	0	0	0	0	0	0	0	0	0	0	0	0	0	0	0	0	0	0	0	0	0	0	0	0	0	0
OTU 102	0	0	0	0	0	0	0	0	0	0	1	0	0	2	0	1	0	0	0	0	0	1	0	0	0	0	1	0	0	0	0	1	0	0	0	0	0	0	0	1	1	0	0	3	0	0	0	0	0	0
OTU 103	4	2	0	0	0	1	0	0	5	0	0	0	0	7	0	2	0	0	0	2	5	0	1	0	2	4	13	0	1	0	2	0	1	1	2	0	0	2	1	7	0	2	3	0	1	1	2	0	0	0
OTU 104	4	1	10	0	2	0	2	2	2	3	1	3	0	1	2	1	0	2	0	1	4	1	1	0	1	0	0	0	0	6	0	1	0	2	3	1	3	0	5	3	0	1	2	0	1	1	5	0	1	0
OTU 105	1	0	0	0	0	0	0	0	0	0	0	0	0	1	0	1	0	0	0	0	0	0	0	0	4	0	0	0	0	0	1	0	1	0	0	0	1	0	0	0	0	0	0	1	0	1	1	0	0	0
OTU 106	0	0	0	0	0	0	0	0	1	3	0	0	0	0	0	0	0	0	0	0	0	0	0	1	0	0	0	0	0	0	0	0	0	0	0	0	0	0	0	0	0	0	0	0	0	0	0	0	0	0
OTU 107	0	0	0	0	0	0	0	0	3	0	6	0	0	3	1	0	1	2	0	0	3	0	0	7	1	0	0	0	0	0	0	0	0	2	0	3	2	0	0	0	1	2	0	0	2	0	0	14	0	0
OTU 108	2	2	1	0	0	2	0	0	0	4	0	0	0	0	1	3	0	2	0	0	6	2	2	0	2	1	1	0	0	0	0	1	1	0	1	0	0	0	0	0	0	1	0	7	0	0	0	0	0	0
OTU 109	0	0	0	0	0	0	0	0	0	0	0	0	0	0	0	0	0	0	0	0	0	0	4	0	0	0	0	0	0	0	0	0	0	0	0	0	0	0	1	0	0	0	0	0	0	0	0	0	0	0
OTU 110	0	0	8	9	0	2	1	0	0	0	0	1	0	0	0	1	2	0	0	0	1	0	0	0	4	0	8	0	0	0	2	0	0	2	3	0	0	0	1	1	1	0	1	5	2	1	29	1	0	0
OTU 111	0	0	0	0	0	0	0	0	0	0	0	0	0	1	0	0	0	0	0	0	0	1	1	0	2	0	0	0	2	0	0	0	0	0	0	0	0	0	0	1	0	0	2	0	0	0	0	0	7	0
OTU 112	0	0	3	1	1	0	2	0	0	0	1	0	0	8	1	1	2	1	1	0	0	1	0	3	0	3	7	0	0	3	1	0	0	0	6	0	0	2	0	0	0	0	0	0	0	1	2	0	0	0
OTU 113	0	0	2	0	0	0	0	0	0	0	0	0	0	1	0	2	0	0	0	0	0	0	1	0	0	0	0	0	0	1	0	0	0	0	0	0	0	0	0	0	0	0	0	0	0	0	0	0	0	0
OTU 114	0	9	2	7	2	7	0	6	0	4	0	4	0	2	1	5	3	2	0	2	2	0	1	0	10	7	6	3	2	0	1	3	4	0	2	3	0	11	5	1	1	132	3	9	1	6	13	3	4	8
OTU 115	3	1	1	3	2	3	4	1	4	0	4	1	5	2	2	11	0	2	0	5	1	1	0	0	2	0	4	4	0	16	5	0	1	5	0	1	0	2	6	3	3	2	2	1	9	2	8	11	0	2
OTU 116	2	26	0	8	6	0	0	18	2	10	1	35	1	4	18	0	19	8	7	0	0	13	14	5	0	0	0	0	1	1	0	6	0	3	26	1	5	11	38	4	0	18	0	0	0	29	0	5	2	0
OTU 117	6	2	0	1	2	1	0	1	0	0	0	0	0	0	3	0	3	0	1	7	1	0	2	0	5	2	2	4	0	3	0	0	1	4	1	1	0	11	0	1	0	1	0	2	0	4	0	4	4	4
OTU 118	0	0	0	0	0	0	0	0	0	0	0	0	0	2	0	0	0	0	0	0	1	0	0	0	0	0	0	0	15	0	7	2	0	0	1	0	0	0	0	6	0	0	0	0	0	0	0	0	0	0
OTU 119	0	4	3	0	0	5	0	6	2	0	0	0	0	0	3	1	0	0	0	1	0	0	4	1	2	6	1	1	1	0	7	0	1	1	0	2	0	3	4	1	0	0	6	2	2	1	2	4	0	2
OTU 120	0	0	3	0	0	0	3	0	0	2	0	0	0	0	0	0	0	0	0	5	0	0	0	0	0	0	0	13	2	0	0	0	0	0	0	1	0	0	0	0	0	0	0	0	0	2	0	2	4	1
OTU 121	0	0	0	0	0	80	0	0	2	0	0	0	0	0	0	6	0	0	0	6	0	0	0	1	0	0	5	3	17	0	0	0	37	0	0	2	1	4	0	0	0	0	2	5	2	5	2	1	1	2
OTU 122	4	0	0	67	0	0	1	0	36	1	4	0	2	0	0	5	1	2	1	11	5	0	0	0	3	4	11	5	1	3	6	2	0	0	0	0	0	0	0	1	0	0	0	7	1	0	2	0	0	0
OTU 123	7	4	1	1	2	4	6	6	10	3	2	3	0	5	4	3	2	1	1	2	4	5	4	2	12	2	4	12	6	14	6	4	4	0	16	2	2	6	4	2	2	2	4	4	2	5	3	5	84	5
OTU 124	0	0	1	0	2	0	0	0	3	0	0	0	0	6	1	5	0	0	0	0	0	0	1	0	1	0	0	0	0	0	1	1	0	1	0	0	0	0	0	0	0	0	0	0	0	0	0	1	0	2
OTU 125	10	7	7	0	1	1	15	3	6	2	5	2	1	3	6	9	9	3	2	2	17	5	8	0	11	7	3	6	8	8	4	1	2	1	9	6	1	5	5	9	2	4	7	6	3	2	1	8	3	0
OTU 126	0	0	0	0	0	0	0	0	0	0	0	0	0	0	0	0	1	0	0	0	0	0	4	0	0	0	0	0	0	0	1	0	0	0	0	0	0	0	0	6	0	0	0	0	0	0	0	0	1	0
OTU 127	1	0	0	2	3	0	4	0	2	2	3	0	11	4	0	0	3	2	0	1	0	0	0	0	0	0	5	0	4	4	0	2	0	0	0	6	6	0	0	1	0	1	0	1	6	0	1	12	4	0
OTU 128	2	20	3	2	52	6	8	6	5	38	3	9	9	17	3	10	1	1	1	6	15	58	4	1	21	2	1	8	4	6	21	6	4	4	2	3	0	8	3	11	4	2	23	6	8	18	6	6	4	3
OTU 129	0	0	0	1	0	0	0	0	0	0	0	0	0	0	0	0	2	0	1	0	0	2	0	0	0	0	0	0	0	0	0	0	0	0	5	0	1	0	0	3	0	0	0	0	0	0	0	0	3	0
OTU 130	0	0	36	0	0	3	0	1	1	1	0	1	2	0	0	0	0	0	0	0	5	2	0	0	0	0	0	0	0	3	0	0	1	2	2	0	0	1	3	0	0	2	3	0	2	0	2	9	0	0
OTU 131	3	1	2	0	0	1	4	0	0	1	0	1	0	0	8	0	0	0	2	3	0	0	0	0	0	0	0	0	0	0	43	0	1	0	0	0	0	0	3	8	0	0	25	0	0	2	0	0	8	2
OTU 132	0	3	4	0	2	0	0	0	0	0	0	0	1	2	0	1	0	0	0	0	0	0	2	0	0	0	0	0	2	0	0	0	0	0	0	0	0	0	1	0	0	0	0	0	0	0	0	0	0	0
OTU 133	2	0	0	0	0	0	0	0	0	0	0	0	0	5	0	0	0	0	0	0	1	0	0	0	0	1	0	0	0	0	0	0	0	0	0	0	0	0	0	0	0	0	0	0	0	2	0	0	0	0
OTU 134	0	1	0	1	4	0	1	1	0	0	1	0	0	13	0	2	5	5	1	0	1	4	0	0	0	0	0	0	4	0	1	0	1	0	1	0	1	1	0	1	0	4	2	0	0	0	0	0	7	0
OTU 135	1	4	1	1	2	2	1	153	0	4	8	0	0	0	5	0	7	0	0	5	1	3	2	1	0	0	6	0	2	0	1	1	0	0	0	5	1	0	7	4	3	0	0	1	1	1	0	3	1	10
OTU 136	2	0	1	0	0	0	0	2	1	0	1	0	1	0	0	0	0	3	1	14	0	0	1	0	0	2	0	0	0	0	1	1	0	0	0	0	0	0	0	0	1	1	0	1	0	0	0	2	1	7
OTU 137	0	0	1	0	0	0	0	0	0	0	0	1	0	1	1	0	0	0	0	0	1	0	0	0	0	1	0	0	0	2	0	0	0	2	1	0	0	0	0	0	0	0	0	0	0	0	0	0	0	0
OTU 138	0	0	0	0	2	1	0	0	0	1	1	1	0	0	0	4	0	0	0	0	8	0	0	0	0	1	2	1	0	0	0	1	0	0	0	0	0	0	0	0	0	0	1	0	0	1	0	1	0	0
OTU 139	1	6	5	1	11	1	6	7	4	5	0	16	0	3	4	1	0	0	0	2	2	4	2	1	0	0	60	1	6	2	1	5	1	0	1	1	0	3	6	52	0	0	1	0	0	23	7	3	0	0
OTU 140	1	0	1	0	3	17	0	2	2	8	22	0	19	5	1	7	2	2	0	6	5	6	2	12	8	6	6	0	5	4	14	20	12	11	9	13	3	0	0	1	14	1	0	4	0	0	6	10	1	1
OTU 141	0	0	0	0	0	0	0	0	0	0	0	0	0	0	0	0	0	0	0	0	0	0	0	0	0	0	0	0	0	0	0	0	0	0	0	0	0	0	0	0	0	0	0	0	0	0	0	0	0	0
OTU 142	0	0	0	0	0	0	0	0	0	0	0	0	0	0	0	0	0	0	0	0	0	0	0	0	0	0	0	0	0	0	0	0	0	0	0	0	0	0	0	0	0	0	0	0	0	0	0	0	0	0
OTU 143	1	0	0	0	2	0	2	0	0	0	0	0	0	0	0	0	0	0	0	0	0	0	0	1	1	0	0	0	0	0	0	1	1	0	0	0	0	0	0	0	0	0	0	0	0	0	0	0	0	0
OTU 144	0	0	0	0	0	0	0	1	0	0	0	0	0	0	0	0	1	0	0	0	0	0	0	1	4	0	0	0	1	0	0	1	0	0	0	0	0	0	0	0	0	0	0	0	1	0	0	4	0	0
OTU 145	8	4	1	22	2	0	9	13	1	2	1	1	1	0	18	0	7	3	3	0	0	17	9	1	2	3	3	0	12	7	0	2	2	0	13	0	0	0	28	0	0	6	1	3	0	4	0	0	1	2
OTU 146	0	3	1	0	0	0	1	1	0	8	1	0	1	2	0	0	3	0	0	0	1	0	2	0	12	0	4	1	5	0	2	0	0	1	3	0	2	1	1	1	0	0	10	0	1	1	0	1	0	0
OTU 147	0	2	0	0	0	0	0	0	2	0	3	0	2	1	0	5	0	0	0	0	0	0	0	2	2	1	0	0	0	9	2	0	0	0	0	4	1	0	0	0	2	0	0	0	1	1	0	4	0	0
OTU 148	0	26	1	0	0	0	0	0	0	2	3	19	3	0	120	2	0	0	0	0	0	0	1	0	4	0	0	0	0	0	5	6	0	0	5	3	0	31	0	1	4	1	1	0	1	57	0	5	7	0
OTU 149	0	0	0	0	1	0	5	0	12	1	0	0	0	1	0	0	1	4	0	0	0	0	1	0	5	0	0	5	0	0	0	0	0	1	0	1	0	0	0	0	0	0	0	0	0	0	0	0	5	0
OTU 150	0	0	6	0	0	0	3	0	0	2	0	0	0	0	0	0	0	0	0	1	0	0	0	0	0	1	1	0	0	1	0	0	0	0	0	0	0	0	0	2	0	1	5	0	0	0	0	0	0	0
OTU 151	0	4	0	97	0	1	4	0	0	0	0	1	0	0	0	1	0	0	27	1	3	0	0	1	1	0	2	0	0	0	0	0	0	0	0	0	0	0	0	0	0	0	1	1	1	3	2	1	1	0
OTU 152	3	1	0	0	21	0	0	0	0	0	2	12	1	1	0	1	2	0	0	0	1	6	3	1	3	1	0	0	0	7	9	0	0	5	0	0	3	40	3	0	0	1	0	2	0	17	4	0	0	1
OTU 153	0	0	2	0	0	0	0	1	0	0	0	0	0	0	0	0	0	0	0	0	0	0	0	0	0	0	0	0	0	0	0	0	0	0	0	0	0	0	0	0	0	0	0	0	0	0	0	0	0	0
OTU 154	0	0	0	0	0	0	4	0	0	0	0	0	0	0	0	0	1	0	0	0	0	0	0	0	0	2	1	1	0	0	0	0	0	0	0	0	0	0	0	0	0	0	0	0	0	0	0	0	0	0
OTU 155	0	0	0	0	0	0	0	2	0	0	1	0	0	3	0	0	0	0	0	0	0	1	0	0	3	0	0	0	0	6	0	4	0	1	0	1	1	1	1	0	0	0	1	2	0	0	0	0	0	0
OTU 156	1	0	1	1	1	1	3	2	10	10	2	2	0	32	2	33	0	0	1	0	3	1	0	0	0	1	2	59	1	2	4	4	3	2	1	0	0	6	2	6	1	1	5	0	1	6	3	0	1	1
OTU 157	3	0	0	0	0	0	0	0	0	12	0	0	0	7	0	0	0	0	0	0	0	1	0	0	1	1	0	0	0	0	3	0	1	4	0	2	0	0	0	0	0	0	0	3	0	0	0	3	4	1
OTU 158	0	0	0	0	0	0	0	0	0	0	0	0	0	0	0	0	0	0	0	0	0	0	0	0	0	0	1	0	0	0	0	0	0	0	0	0	0	0	0	0	0	0	2	2	2	0	0	2	0	0
OTU 159	0	0	0	1	0	0	0	0	0	0	0	0	1	2	0	2	0	0	0	1	1	1	0	0	2	2	0	1	3	2	1	0	0	0	0	0	0	0	0	5	38	0	4	1	0	0	0	0	0	0
OTU 160	7	4	0	4	3	3	58	0	0	14	2	3	3	0	1	4	1	1	0	7	1	1	6	1	3	7	0	0	4	0	1	2	3	9	2	0	0	10	1	0	1	0	4	9	2	9	4	3	5	0
OTU 161	0	0	0	2	3	4	0	4	0	6	0	0	0	0	0	0	0	0	0	25	3	0	0	1	0	0	13	0	0	0	2	45	1	10	1	2	0	3	4	5	0	0	4	2	2	1	2	0	1	14
OTU 162	0	1	1	1	0	0	0	0	1	0	0	1	0	0	0	0	0	1	0	1	0	1	1	0	2	9	6	0	1	3	2	5	0	0	1	0	0	0	0	0	0	1	0	4	0	1	0	0	2	1
OTU 163	0	0	0	0	0	1	0	0	0	0	0	0	0	0	0	0	0	0	0	0	0	0	1	0	0	0	1	2	0	0	0	0	1	0	0	0	0	0	0	0	0	0	0	0	0	0	0	0	0	0
OTU 164	0	0	0	0	0	0	0	0	0	0	0	0	0	0	0	0	0	0	0	0	0	0	0	0	1	0	0	0	4	0	0	0	0	0	0	0	0	0	0	0	0	0	0	0	0	0	0	0	0	0
OTU 165	0	0	0	0	4	0	0	0	0	0	2	0	0	1	0	1	0	0	0	3	1	1	0	0	0	3	0	0	3	0	0	4	1	3	0	0	0	0	0	1	0	0	0	5	0	0	0	0	0	5
OTU 166	0	0	0	0	0	0	0	0	0	0	0	0	0	0	0	0	3	0	0	0	0	0	0	0	0	0	0	0	3	0	0	0	0	1	0	0	0	0	0	0	0	0	0	0	0	0	0	0	0	0
OTU 167	2	0	0	0	1	0	0	0	0	2	0	2	0	0	0	2	1	0	0	0	5	1	3	1	0	27	0	0	1	0	0	1	0	0	0	1	1	0	1	1	0	0	0	0	3	4	0	0	0	2
OTU 168	1	113	2	0	2	0	6	1	1	0	5	2	0	0	0	7	0	0	0	1	0	0	0	3	4	0	0	2	0	0	8	0	2	1	0	7	0	1	6	1	2	1	2	0	1	2	1	2	5	0
OTU 169	0	0	0	0	0	0	0	0	0	0	0	0	0	0	0	0	0	0	0	0	0	0	0	0	0	0	0	0	0	0	0	0	0	0	1	0	0	2	0	0	0	0	0	0	0	0	0	0	0	0
OTU 170	0	0	0	0	0	0	2	0	0	0	0	0	0	0	0	0	1	0	0	0	0	1	0	0	0	0	0	0	0	0	0	0	0	0	0	0	0	0	0	0	0	0	0	0	0	0	0	0	0	1
OTU 171	0	1	2	1	10	12	0	0	1	0	2	0	0	0	0	1	0	0	0	10	0	0	0	0	0	0	4	1	5	0	0	0	11	0	0	0	0	0	1	0	0	0	5	24	2	0	7	0	0	9
OTU 172	0	1	0	0	0	0	0	0	0	0	1	0	0	0	0	2	0	0	0	0	0	3	0	2	0	1	0	0	0	1	4	1	0	0	0	0	0	0	0	0	0	0	0	0	0	0	0	0	0	1
OTU 173	0	0	0	4	0	0	0	1	5	1	0	0	0	2	0	0	5	0	0	0	5	0	0	0	1	7	0	0	4	0	0	0	0	0	0	0	0	0	1	0	0	0	1	0	0	0	0	0	2	0
OTU 174	0	2	1	1	0	0	10	1	1	7	0	0	0	3	3	0	0	148	61	1	8	2	4	1	2	0	1	0	2	4	0	4	0	0	0	0	70	2	2	0	0	0	0	0	0	2	0	2	0	0
OTU 175	7	0	2	0	0	1	0	0	3	3	6	0	2	0	0	3	0	0	1	0	1	0	1	4	1	1	0	1	3	1	0	0	2	0	3	4	0	0	2	0	2	0	0	2	0	2	0	8	0	0
OTU 176	6	4	34	0	1	1	4	2	3	0	3	6	1	3	2	4	8	2	2	3	9	1	94	3	0	0	6	0	0	3	1	3	2	0	3	4	2	3	3	0	1	4	0	1	0	10	0	5	0	6
OTU 177	1	1	1	0	0	1	0	2	6	0	0	0	0	0	0	0	1	1	2	1	8	0	0	1	0	0	0	0	2	0	11	0	0	2	4	7	1	3	2	0	0	0	1	0	1	0	33	2	2	0
OTU 178	3	0	3	0	0	3	1	0	0	1	0	0	1	1	0	7	0	1	1	0	1	1	5	0	0	0	0	0	0	0	0	0	0	0	0	0	1	0	0	2	0	0	0	0	1	4	0	0	0	0
OTU 179	2	0	1	0	0	2	0	0	0	1	1	0	0	0	0	0	0	1	0	0	0	0	0	9	5	0	1	0	9	0	0	2	0	0	3	18	0	1	0	0	0	0	1	0	0	0	0	2	3	1
OTU 180	2	1	5	2	2	3	1	5	0	8	3	0	1	3	2	7	2	6	1	10	7	40	5	3	6	103	3	9	8	0	6	0	0	4	5	0	0	6	3	2	3	3	6	0	0	3	2	2	1	13
OTU 181	0	0	0	0	0	0	0	0	4	1	0	0	1	2	1	5	0	40	19	3	0	3	1	0	0	0	7	0	0	1	2	2	0	3	0	0	26	0	0	0	0	0	0	0	0	0	0	1	0	0
OTU 182	0	0	0	0	0	0	0	0	0	0	0	0	0	0	0	0	0	0	0	0	0	0	0	0	0	0	0	0	0	0	0	0	0	0	2	0	0	0	0	0	0	0	0	0	0	0	0	0	0	0
OTU 183	0	0	2	1	4	1	0	1	0	0	0	0	0	4	0	0	3	1	0	1	5	2	1	0	1	2	2	2	2	0	12	0	0	0	6	0	0	0	0	0	0	1	7	0	0	2	0	3	0	0
OTU 184	0	1	1	0	0	0	0	1	0	2	0	0	0	0	0	0	2	0	0	0	1	0	1	0	0	0	0	0	3	0	0	7	0	4	0	0	0	0	1	0	0	0	1	6	0	0	0	0	0	0
OTU 185	1	0	5	0	4	0	3	0	1	0	0	1	0	0	2	0	0	1	0	0	0	0	0	1	5	1	6	2	0	0	0	5	0	9	2	0	0	0	2	2	0	2	1	3	5	1	1	0	1	0
OTU 186	7	0	0	0	0	0	1	1	0	0	0	0	0	0	0	0	0	1	0	0	0	0	0	0	0	0	0	0	0	0	0	0	0	0	0	0	0	0	1	0	0	0	2	0	0	0	0	1	0	1
OTU 187	10	2	0	18	3	0	0	1	2	7	2	2	0	1	0	2	40	2	0	0	1	16	0	4	3	3	2	1	0	0	1	4	0	2	0	2	0	0	0	0	3	0	3	1	6	4	4	5	11	0
OTU 188	0	0	0	2	4	0	5	2	4	2	10	1	10	0	0	3	5	0	0	1	3	3	6	2	1	8	2	0	0	0	3	1	2	0	3	2	1	1	14	3	4	5	0	10	11	1	2	13	4	12
OTU 189	9	0	0	1	0	0	0	0	23	6	0	0	2	3	3	12	1	1	0	6	0	4	0	2	8	0	0	5	6	1	0	6	1	0	0	5	186	0	3	3	0	0	3	0	2	0	6	5	0	3
OTU 190	0	0	0	0	0	0	0	1	0	6	0	0	0	0	0	0	0	0	0	0	0	0	0	0	0	0	0	0	0	0	0	0	0	0	1	0	0	1	1	0	0	0	0	0	0	0	0	0	0	0
OTU 191	2	0	6	10	1	0	5	0	0	44	1	0	0	5	0	2	16	0	0	0	0	37	1	0	1	0	7	1	1	7	2	0	0	2	8	2	0	2	0	0	0	0	5	2	0	2	1	0	3	0
OTU 192	5	8	24	0	0	12	5	0	0	0	0	19	1	3	0	5	1	0	0	0	0	0	4	1	0	3	7	0	1	3	7	3	4	1	3	1	0	29	1	1	1	0	2	11	5	23	0	4	3	8
OTU 193	0	0	0	0	0	0	0	2	1	0	0	0	1	0	0	4	0	0	0	2	3	0	0	1	5	0	0	3	3	4	1	1	0	1	1	0	0	1	1	0	0	0	1	1	162	2	7	0	1	2
OTU 194	9	0	26	0	0	2	0	1	0	0	0	0	0	0	1	1	0	0	0	1	1	0	0	0	2	0	0	0	0	3	0	0	0	0	1	0	1	2	3	2	0	0	0	0	0	0	0	0	0	3
OTU 195	0	0	0	0	0	0	0	0	0	0	0	2	2	1	0	1	2	0	0	0	2	8	1	0	1	0	1	3	9	2	1	0	0	0	0	0	0	0	0	0	0	2	1	0	12	1	0	0	1	0
OTU 196	0	0	0	0	0	0	0	0	8	0	0	0	1	2	2	0	0	0	0	0	2	0	0	3	0	3	0	0	0	3	5	0	144	0	1	0	0	0	0	0	0	3	4	1	0	1	0	1	0	1
OTU 197	1	0	4	3	2	1	0	0	0	0	0	1	0	2	2	5	0	0	0	6	6	0	2	2	31	5	0	24	1	5	8	8	1	6	0	4	1	0	2	6	0	1	2	5	2	0	2	0	0	66
OTU 198	0	1	0	0	0	0	0	0	0	0	0	0	0	0	0	0	0	0	0	0	0	0	0	0	1	0	1	1	2	1	1	0	0	0	0	1	0	0	0	0	0	0	1	0	3	0	0	0	4	0
OTU 199	0	0	3	0	0	0	0	3	0	0	0	0	0	0	2	0	0	0	0	1	0	0	2	1	5	0	0	0	0	0	0	1	0	0	1	0	1	48	12	0	0	3	0	0	0	1	1	1	0	0
OTU 200	1	2	0	0	1	0	2	1	1	0	0	1	0	0	0	1	4	0	0	0	1	0	0	0	1	0	3	3	0	0	0	2	0	2	0	0	0	0	0	8	0	0	3	0	1	1	0	0	5	1
