	Host 1	Host 2	Host 3	Host 4	Host 5	Host 6	Host 7	Host 8	Host 9	Host 10	Host 11	Host 12	Host 13	Host 14	Host 15	Host 16	Host 17	Host 18	Host 19	Host 20	Host 21	Host 22	Host 23	Host 24	Host 25	Host 26	Host 27	Host 28	Host 29	Host 30	Host 31	Host 32	Host 33	Host 34	Host 35	Host 36	Host 37	Host 38	Host 39	Host 40	Host 41	Host 42	Host 43	Host 44	Host 45	Host 46	Host 47	Host 48	Host 49	Host 50	
OTU 1	0	8	1	1	1	4	1	16	7	2	0	0	0	7	4	0	0	0	3	2	0	5	0	1	0	1	6	0	4	0	0	0	0	5	4	4	4	2	1	0	8	3	7	2	0	4	1	0	2	0
OTU 2	2	1	0	0	0	4	1	0	2	1	0	0	0	0	0	1	0	5	0	0	0	0	0	0	0	0	0	0	0	0	1	0	0	0	0	0	0	0	0	0	0	0	0	0	0	2	0	1	0	0
OTU 3	0	0	0	0	1	2	0	0	2	0	0	2	0	0	0	0	0	0	2	0	0	0	0	0	0	0	0	3	1	0	2	0	2	0	0	2	0	3	0	0	0	0	0	0	0	0	1	0	0	0
OTU 4	0	0	0	0	0	0	0	0	0	0	0	0	0	0	0	0	0	0	1	0	0	0	0	0	0	0	0	0	0	0	0	0	0	0	0	0	0	0	0	0	0	0	0	0	0	0	0	0	0	0
OTU 5	3	1	32	6	2	19	0	25	0	18	6	45	15	14	3	2	22	3	21	6	3	5	0	10	7	3	17	5	7	0	13	9	0	7	0	6	1	0	23	11	7	5	15	1	16	25	10	0	33	24
OTU 6	0	0	0	0	1	1	4	1	0	0	0	7	0	5	5	0	1	0	1	0	4	6	0	0	3	0	3	0	2	0	0	0	0	0	0	1	1	0	0	2	0	1	0	1	0	0	0	0	9	0
OTU 7	1	4	1	1	1	0	0	5	1	1	10	3	5	2	5	7	7	6	9	2	3	2	4	9	0	0	3	4	6	2	7	1	8	10	0	21	0	3	12	6	1	2	34	0	3	2	3	37	0	1
OTU 8	3	5	0	1	2	3	17	4	2	2	0	0	2	7	7	0	0	2	3	1	5	2	2	1	5	1	2	0	2	1	16	2	1	4	0	3	2	2	2	2	0	0	4	3	6	3	1	2	5	1
OTU 9	0	4	0	0	0	0	1	1	0	1	0	2	0	0	0	1	0	0	0	0	0	0	0	1	0	0	1	1	0	0	0	3	1	0	0	0	0	3	1	2	0	0	2	0	0	1	0	2	0	1
OTU 10	0	0	0	1	1	0	0	1	1	1	0	0	0	1	2	0	0	0	0	0	1	0	3	0	1	0	0	0	3	0	0	1	0	129	0	2	0	0	0	0	0	0	0	0	0	0	0	2	0	0
OTU 11	5	0	0	0	0	0	4	0	0	0	0	11	0	1	3	0	1	8	0	0	0	2	0	0	0	3	0	0	1	10	21	1	3	0	3	0	2	13	0	0	0	1	0	1	6	74	0	10	2	33
OTU 12	10	0	3	0	6	2	0	2	0	4	0	3	6	2	0	1	8	1	2	3	0	4	2	0	3	4	1	2	1	5	0	4	0	0	2	3	2	3	1	0	0	0	0	1	2	0	2	0	0	0
OTU 13	0	0	0	0	0	0	0	0	0	0	1	0	1	0	0	0	0	0	0	0	0	0	0	0	0	0	0	0	0	0	0	0	0	0	2	0	0	0	0	0	0	0	0	0	0	1	0	0	0	0
OTU 14	0	0	2	0	1	0	0	0	0	0	0	1	0	3	6	1	0	0	4	0	1	0	0	1	0	1	1	0	1	0	0	0	5	1	0	0	1	0	1	0	0	0	4	0	0	2	0	2	0	0
OTU 15	0	0	0	0	0	4	0	0	0	0	0	0	0	0	0	0	0	0	0	0	3	0	0	0	0	0	0	0	0	0	0	0	0	0	0	1	0	0	0	0	0	0	0	5	0	0	0	0	0	0
OTU 16	0	0	0	0	0	1	0	0	3	0	2	0	0	0	0	0	1	0	0	0	0	0	0	0	0	0	0	0	0	0	0	0	0	0	0	0	0	0	0	0	0	0	0	0	0	0	0	0	0	0
OTU 17	1	1	3	4	0	20	0	2	0	0	3	0	4	1	4	0	3	1	1	1	1	1	0	0	8	0	17	2	0	0	0	0	0	2	13	0	3	0	1	1	1	0	3	0	16	0	3	0	4	0
OTU 18	0	0	1	0	9	1	2	2	1	1	0	2	1	2	4	2	1	4	0	1	1	0	1	1	1	67	0	0	7	2	0	0	0	1	1	1	2	13	0	0	3	0	1	10	1	0	1	3	0	0
OTU 19	0	0	0	0	0	0	0	0	0	0	0	0	0	0	0	0	0	0	0	0	0	0	0	0	1	0	0	0	0	0	0	0	0	0	0	0	0	0	0	0	0	0	0	0	0	0	0	0	0	0
OTU 20	0	2	0	1	0	1	1	1	2	2	0	1	2	0	0	1	1	1	2	5	1	3	0	6	0	0	0	2	0	2	1	0	0	2	1	0	0	0	0	3	3	0	7	5	0	1	0	41	0	0
OTU 21	0	0	0	0	0	0	8	2	0	0	0	6	3	0	0	1	3	0	0	0	0	1	5	2	0	4	2	4	2	0	0	2	2	1	5	5	2	0	0	0	1	2	1	0	0	0	1	0	1	2
OTU 22	0	1	0	0	0	0	5	0	5	4	1	2	4	0	7	2	1	2	0	0	0	3	0	1	0	0	3	0	0	0	2	0	0	0	4	0	0	1	0	0	2	2	0	1	1	0	6	0	0	0
OTU 23	0	0	3	0	2	0	2	0	0	1	0	1	0	0	0	0	0	0	0	0	0	3	0	1	0	2	0	2	0	1	3	0	2	0	0	0	2	1	0	0	0	0	0	1	0	0	0	3	0	0
OTU 24	0	0	0	0	0	0	1	1	0	0	0	21	0	4	1	0	0	0	0	2	0	0	2	0	0	0	1	0	1	6	0	0	0	0	0	0	4	15	2	1	0	0	0	7	1	0	0	0	0	0
OTU 25	0	27	0	0	0	0	0	0	0	0	0	0	0	0	1	0	0	0	0	0	0	0	0	0	0	0	0	0	0	0	0	0	0	0	0	0	0	0	0	0	0	0	0	0	0	19	0	0	0	8
OTU 26	1	0	0	1	1	1	0	0	0	0	0	0	0	0	0	5	0	0	0	0	0	0	0	0	0	1	0	0	0	0	0	0	3	0	0	0	0	0	0	4	0	0	0	0	0	0	0	0	0	0
OTU 27	0	0	0	0	0	0	0	0	0	0	0	0	0	0	0	0	0	0	0	0	0	0	0	0	0	0	0	0	0	0	0	0	0	0	0	0	0	0	0	0	0	0	0	0	0	0	0	0	0	0
OTU 28	2	0	0	0	11	0	0	0	6	1	2	4	4	7	5	1	0	3	1	0	2	7	4	3	0	4	0	0	2	5	0	1	7	0	1	117	8	0	1	1	1	2	4	0	4	0	0	0	0	0
OTU 29	5	1	0	0	4	0	2	0	3	0	0	0	24	1	2	12	0	1	2	0	2	2	0	0	0	1	2	0	3	0	3	0	0	0	4	0	0	0	0	0	0	1	0	1	0	1	0	1	0	2
OTU 30	0	0	0	0	0	0	0	0	0	0	0	0	0	0	0	0	0	0	0	0	0	0	0	0	0	0	0	0	0	0	0	0	0	0	0	0	0	0	0	0	0	0	0	0	0	0	0	0	0	0
OTU 31	0	0	0	2	0	0	1	2	3	1	1	1	3	0	0	0	0	3	0	0	0	3	0	0	0	0	0	0	0	0	0	5	0	0	0	0	2	0	0	0	1	0	0	0	0	0	3	0	0	0
OTU 32	8	1	0	0	37	4	2	1	1	0	1	4	2	0	0	7	2	0	4	0	0	3	7	0	0	0	2	7	2	1	6	2	1	0	0	3	0	2	1	1	0	3	0	1	0	1	0	3	6	0
OTU 33	0	0	0	3	0	0	0	0	0	0	0	0	0	0	0	0	0	0	0	0	0	0	0	1	0	0	0	0	1	0	0	0	0	0	0	0	0	0	0	0	0	0	0	0	0	0	0	0	2	0
OTU 34	14	3	1	1	2	0	9	0	1	84	0	0	7	0	0	0	0	7	0	0	7	0	1	27	0	0	0	0	8	0	0	0	1	39	2	2	0	0	21	0	0	0	73	0	2	2	0	6	4	4
OTU 35	1	1	0	2	0	0	4	0	1	0	0	2	2	0	1	1	0	0	1	3	0	0	2	0	1	0	0	2	4	0	0	2	7	0	0	1	0	0	0	0	0	1	0	0	0	2	0	0	1	0
OTU 36	0	0	0	1	4	2	1	0	0	0	6	0	3	0	1	0	7	0	0	1	0	0	0	19	0	0	0	2	4	1	0	0	0	26	4	3	0	0	32	3	0	0	55	1	0	0	0	1	3	0
OTU 37	0	0	0	0	0	0	0	0	2	0	0	0	0	0	2	0	0	0	2	0	0	1	6	0	0	0	1	0	0	0	0	0	0	0	0	0	0	0	0	0	0	6	0	0	0	0	0	0	0	0
OTU 38	6	4	1	0	0	1	0	2	3	2	0	0	0	0	0	0	2	0	0	0	0	0	12	2	2	1	0	0	4	0	2	7	3	0	1	1	1	4	0	0	2	0	0	0	0	1	0	0	0	1
OTU 39	0	0	0	0	1	0	1	0	3	20	0	0	0	0	1	0	0	0	0	0	0	0	0	0	0	0	0	1	0	0	2	1	0	0	0	1	0	0	0	0	0	0	0	4	0	0	0	1	0	0
OTU 40	15	0	0	1	18	1	0	0	0	0	0	0	0	2	3	0	0	3	10	1	2	0	0	2	1	0	3	6	0	0	0	0	9	0	1	0	0	0	2	2	0	1	0	2	1	1	0	0	6	0
OTU 41	0	2	0	3	3	0	2	1	1	2	0	2	1	0	1	0	1	0	2	0	1	2	0	0	0	0	0	0	7	0	2	0	0	0	0	0	0	1	0	0	1	0	0	4	0	3	0	0	2	1
OTU 42	0	2	0	0	0	0	0	0	1	0	0	0	0	0	2	0	0	5	0	0	0	2	0	0	0	0	0	0	2	0	0	1	0	0	4	0	1	0	0	0	0	0	0	0	1	0	0	3	0	0
OTU 43	0	0	0	0	0	0	0	0	0	0	0	0	0	0	0	0	0	0	0	0	0	0	0	0	0	0	0	0	0	0	0	0	0	0	0	0	0	0	0	0	0	0	0	0	0	0	0	0	0	0
OTU 44	1	0	0	0	0	0	0	1	0	0	0	1	0	2	5	0	1	0	2	0	0	0	1	0	0	0	4	0	0	0	0	0	1	0	0	0	4	0	0	0	0	1	0	5	0	0	0	0	0	1
OTU 45	19	6	11	0	13	1	1	1	2	0	8	2	5	8	22	0	6	9	0	1	1	4	1	0	0	11	0	6	0	1	0	5	2	0	1	0	17	2	2	0	10	0	2	0	3	5	1	3	69	3
OTU 46	1	0	1	0	0	0	2	3	0	13	0	0	1	1	2	1	1	2	0	0	0	4	0	1	0	1	0	57	1	2	2	0	0	3	3	1	1	1	4	0	4	2	1	0	2	0	5	1	1	0
OTU 47	13	0	0	0	0	0	0	0	0	0	0	0	0	0	0	4	2	1	0	0	0	0	0	0	0	0	0	0	2	0	0	0	2	0	0	0	0	0	0	0	0	0	0	0	0	0	0	0	0	0
OTU 48	0	0	4	2	0	0	50	0	3	3	0	0	0	5	9	1	1	0	0	2	1	0	0	2	0	0	1	0	0	0	0	1	0	0	0	0	1	5	0	0	1	0	3	22	2	1	1	0	6	0
OTU 49	0	1	0	0	1	0	0	0	0	0	0	0	0	0	0	0	2	0	9	1	0	0	0	0	0	0	0	1	1	0	0	3	0	0	0	0	1	1	0	1	1	0	0	0	0	0	1	0	1	0
OTU 50	2	4	0	5	5	0	4	2	1	1	0	0	5	0	1	3	1	4	1	2	2	1	2	0	0	0	5	0	2	0	1	1	0	0	6	1	3	4	0	9	2	2	1	1	1	2	2	0	4	1
OTU 51	0	2	0	0	0	1	2	0	2	1	0	0	1	1	0	12	0	0	4	0	1	2	5	3	1	0	0	0	1	6	0	0	0	0	1	1	0	0	0	4	0	6	0	0	0	2	0	0	0	1
OTU 52	4	5	0	3	5	0	2	1	2	0	1	14	0	4	3	9	1	2	14	2	3	3	0	7	2	0	0	4	4	8	2	3	4	0	3	1	1	5	2	0	0	0	4	0	1	3	1	5	2	1
OTU 53	0	0	0	0	0	0	0	0	1	0	0	0	0	0	0	0	0	0	0	0	0	0	0	0	0	0	0	0	0	0	0	0	0	0	0	0	0	0	0	0	0	0	0	0	0	0	0	0	0	0
OTU 54	6	1	0	1	1	1	0	2	0	0	3	10	3	3	6	5	3	1	0	2	0	2	3	6	5	1	3	3	3	5	1	0	1	2	0	0	2	2	0	1	1	0	1	0	3	1	0	4	0	0
OTU 55	0	0	0	0	0	0	0	0	0	0	0	0	0	0	0	0	0	0	0	0	0	0	0	0	0	0	1	0	0	0	0	0	0	0	0	0	0	0	0	0	0	0	0	0	0	0	0	0	0	0
OTU 56	1	0	0	0	0	0	3	0	2	0	0	5	0	1	0	0	2	0	0	0	2	0	1	1	1	0	0	0	5	1	0	1	2	2	0	0	0	5	1	0	1	0	3	0	0	0	0	0	0	0
OTU 57	1	3	0	4	3	2	2	12	10	11	9	5	15	0	0	3	5	1	1	6	6	10	3	1	2	3	9	7	12	1	0	6	1	2	23	12	4	2	2	11	6	9	1	5	0	1	11	4	4	0
OTU 58	0	0	1	0	0	1	0	1	1	0	0	1	0	1	3	1	0	0	3	0	2	0	2	6	1	3	3	0	2	6	0	2	0	3	0	10	3	0	4	1	0	0	2	8	1	0	0	0	0	0
OTU 59	0	2	0	0	0	0	0	0	0	0	0	0	2	0	0	0	2	0	3	2	3	1	11	4	2	0	0	1	0	0	0	1	0	0	3	0	0	16	2	2	0	0	2	0	5	0	0	0	0	0
OTU 60	2	1	0	1	2	0	3	2	0	12	0	10	0	0	0	6	0	0	2	0	2	6	0	3	2	0	4	0	1	0	0	0	1	0	0	2	0	0	1	1	131	2	1	3	2	1	2	0	0	1
OTU 61	10	10	9	0	0	3	3	1	3	0	0	0	0	1	10	7	3	3	0	1	9	4	1	2	2	3	4	3	6	9	0	3	3	1	0	2	3	21	46	2	0	0	0	3	1	1	106	7	3	1
OTU 62	0	0	0	0	1	0	0	1	3	3	0	1	0	0	0	7	0	0	0	0	0	6	0	0	0	0	0	2	1	0	2	0	0	1	1	1	1	0	0	0	0	0	0	0	0	0	0	0	0	0
OTU 63	1	1	2	0	2	2	1	0	0	0	3	0	0	0	2	0	0	0	0	0	0	2	102	0	0	0	0	0	0	0	1	48	6	0	0	0	0	0	0	8	0	0	0	0	0	0	0	0	0	0
OTU 64	3	1	2	1	1	4	6	0	6	5	128	0	0	0	4	9	0	1	0	1	4	1	6	0	0	4	0	1	0	5	5	12	10	0	8	12	6	3	1	0	0	0	1	5	3	0	1	4	1	4
OTU 65	0	0	0	0	0	0	0	0	2	0	0	0	0	0	1	0	0	0	0	0	0	0	0	0	0	0	0	0	0	0	0	0	0	0	0	0	0	0	0	0	0	0	0	1	1	0	0	0	0	0
OTU 66	0	0	0	0	0	5	0	4	64	0	0	2	3	1	0	0	51	7	1	0	9	0	16	1	0	1	5	2	5	1	0	13	2	0	1	1	3	0	4	0	2	0	3	2	3	1	0	1	0	1
OTU 67	0	0	0	3	1	75	1	5	2	0	0	2	0	2	3	6	0	0	6	0	0	0	0	1	29	0	0	1	0	8	2	0	0	1	0	0	0	0	1	1	0	0	2	7	34	0	0	0	0	0
OTU 68	0	0	0	8	7	0	5	13	0	0	12	0	0	0	0	0	3	0	0	6	0	0	0	1	3	0	19	0	0	0	1	0	0	1	1	10	0	0	1	6	7	0	5	0	2	1	3	0	2	0
OTU 69	0	1	1	1	0	1	2	3	0	3	4	2	6	1	1	0	3	4	0	0	150	4	2	1	3	0	4	0	0	8	2	1	1	0	11	0	1	15	4	1	0	1	2	8	0	24	0	3	0	6
OTU 70	1	1	0	0	0	0	1	2	3	0	11	0	2	0	0	1	2	2	0	1	1	6	0	0	2	0	1	0	0	4	2	1	0	0	0	0	0	10	1	1	3	0	0	0	0	0	3	0	0	1
OTU 71	0	0	1	0	26	0	0	0	6	0	0	0	0	0	0	0	0	0	0	0	0	0	1	0	0	0	0	0	0	1	2	0	0	0	0	0	2	2	0	0	0	0	0	0	0	0	0	0	6	0
OTU 72	0	1	1	0	4	0	2	1	0	2	0	0	1	0	3	0	0	3	1	0	1	1	5	0	45	0	2	0	1	4	6	1	2	0	1	0	3	17	0	1	1	0	1	3	0	3	1	1	0	1
OTU 73	0	0	2	0	0	0	2	3	7	0	0	1	5	0	3	0	0	0	0	0	0	0	0	0	0	0	0	0	5	5	0	1	0	0	1	1	2	0	0	1	2	0	0	3	0	0	3	0	0	0
OTU 74	0	0	0	1	1	0	0	2	0	0	0	0	5	0	0	2	0	1	0	0	0	3	2	0	0	1	2	0	4	1	1	0	1	2	4	0	0	0	0	0	0	1	4	0	2	0	0	1	4	1
OTU 75	0	0	3	4	0	2	3	7	3	11	3	2	2	0	0	2	8	1	2	48	4	22	1	5	2	0	11	4	4	0	1	1	3	0	5	5	0	0	1	6	3	16	2	0	0	0	1	1	0	0
OTU 76	2	0	0	0	0	0	0	1	1	0	0	0	0	0	0	0	0	0	0	0	0	0	1	0	0	0	0	0	0	4	0	1	0	0	1	0	0	0	0	0	0	0	0	11	1	0	0	0	0	0
OTU 77	9	0	0	3	2	4	40	2	5	5	0	0	2	0	2	8	0	0	0	5	3	12	3	1	1	1	3	51	3	1	2	1	0	1	1	1	0	0	0	0	4	24	0	7	0	1	3	6	1	0
OTU 78	0	1	0	4	10	1	2	6	0	2	0	0	2	0	0	15	0	1	2	40	3	2	1	0	1	0	0	0	20	1	0	0	8	0	3	0	1	2	0	6	0	0	0	0	0	0	0	3	96	1
OTU 79	8	2	4	25	2	2	4	11	0	1	65	0	5	10	13	4	3	3	3	27	1	9	3	1	65	3	12	1	1	0	7	11	2	1	44	52	5	5	2	53	4	5	4	12	0	0	4	6	0	2
OTU 80	3	0	1	0	0	1	0	0	0	0	1	0	1	13	4	3	0	6	0	3	1	0	13	0	0	0	0	21	0	2	0	3	6	0	0	2	1	1	1	1	0	0	3	13	1	1	0	0	1	0
OTU 81	2	4	0	5	3	0	1	1	2	1	2	0	1	1	0	1	0	13	4	0	0	4	0	0	0	0	2	13	2	0	0	6	4	0	0	1	8	2	0	0	0	1	0	3	0	3	4	2	0	0
OTU 82	2	0	0	0	0	0	2	2	0	0	0	8	2	94	6	1	2	4	2	0	0	0	0	1	0	0	0	0	1	4	1	0	0	3	1	0	0	2	1	0	0	0	10	0	0	0	2	0	9	0
OTU 83	0	0	0	0	0	0	0	0	2	0	0	0	0	0	0	1	0	0	0	0	0	4	1	0	0	0	0	0	0	0	0	0	9	0	0	0	0	0	0	0	0	1	0	0	0	0	0	8	0	0
OTU 84	0	3	1	0	0	0	0	0	0	2	0	1	0	1	3	0	0	0	2	0	0	1	8	0	0	1	0	8	0	6	0	0	2	0	0	0	4	10	0	2	0	0	0	0	0	0	0	0	2	0
OTU 85	0	0	0	86	0	0	0	0	0	0	0	0	0	2	2	0	0	0	1	0	0	0	2	1	0	0	1	4	0	1	1	1	0	1	0	0	0	0	2	0	0	0	0	0	0	0	0	0	0	0
OTU 86	0	0	0	0	0	0	0	0	0	1	0	0	0	0	0	0	0	0	0	0	0	0	0	0	0	0	0	0	0	4	0	0	0	0	2	0	0	0	0	0	0	0	0	0	0	0	1	0	0	1
OTU 87	12	6	0	0	0	0	2	0	0	1	0	0	4	1	0	0	0	7	0	0	0	0	0	0	0	0	0	1	0	0	1	0	1	0	0	0	0	0	0	0	0	0	0	0	0	1	0	1	0	0
OTU 88	2	2	0	0	0	0	0	1	1	0	0	0	0	0	0	0	0	0	0	0	4	0	0	0	0	2	0	0	9	1	0	0	0	0	0	0	0	0	0	0	0	0	0	0	0	1	0	0	0	0
OTU 89	32	5	2	0	4	1	1	0	0	0	0	0	0	0	2	2	0	10	0	7	2	0	0	0	0	0	0	0	0	2	0	0	4	0	0	2	3	0	0	1	0	1	0	0	0	2	0	5	1	1
OTU 90	0	0	0	0	0	0	0	0	0	0	0	0	0	0	0	0	0	0	0	0	26	0	0	0	0	0	0	0	1	0	0	0	0	0	0	0	0	0	0	0	0	0	0	0	0	0	0	0	0	0
OTU 91	0	0	1	0	0	0	0	0	0	0	0	0	0	0	0	0	0	0	0	0	0	0	0	0	0	0	2	0	0	0	2	0	0	0	0	0	0	0	0	0	0	0	0	0	1	0	0	0	0	0
OTU 92	0	0	0	0	0	2	0	0	0	1	0	0	0	0	0	0	0	0	0	0	0	1	0	0	0	0	0	0	2	1	0	2	2	0	0	2	0	0	0	1	0	0	0	2	0	0	0	0	0	0
OTU 93	0	0	0	0	0	0	0	0	0	0	0	1	0	0	0	0	0	0	1	0	0	0	0	0	0	0	0	0	7	0	0	0	0	0	0	1	0	0	0	9	0	0	0	1	0	1	0	0	0	2
OTU 94	0	1	0	1	1	2	2	3	0	0	0	3	7	0	1	5	4	1	1	2	0	1	2	0	3	0	3	0	0	5	0	0	1	0	1	1	1	0	94	2	3	1	0	6	0	0	4	0	0	2
OTU 95	2	0	0	0	2	0	0	40	0	0	1	0	26	0	2	0	0	0	1	0	0	0	0	0	0	0	5	0	0	0	0	0	1	0	3	0	0	0	0	0	15	0	0	0	0	0	19	3	1	0
OTU 96	0	0	0	0	0	0	2	0	0	0	0	0	4	0	0	0	1	0	0	0	0	0	1	0	2	0	0	0	0	0	0	0	6	1	0	0	1	0	0	0	0	0	1	0	0	0	0	0	0	0
OTU 97	0	0	0	0	0	0	0	0	0	2	0	0	0	0	0	0	0	0	0	0	0	0	0	0	0	0	2	0	0	0	0	1	0	0	0	1	0	0	0	0	0	0	0	0	0	0	1	0	0	0
OTU 98	1	1	0	0	1	2	0	0	3	2	0	0	0	0	2	1	0	0	0	0	0	0	0	0	0	0	0	0	0	4	0	1	0	0	0	0	1	0	0	2	0	0	0	0	0	3	0	0	0	0
OTU 99	2	1	5	1	0	3	4	3	3	5	0	4	3	1	4	0	0	4	4	0	1	5	0	1	10	0	88	5	2	9	1	0	2	1	0	2	1	5	0	0	0	4	1	0	1	0	0	0	0	0
OTU 100	3	0	2	0	0	4	1	4	1	0	2	0	0	2	0	0	0	0	3	0	1	6	0	2	0	2	0	4	3	0	3	5	0	0	2	0	2	0	1	0	4	0	0	0	0	0	3	1	0	0
OTU 101	0	0	0	0	0	0	0	0	0	0	0	0	0	0	0	2	0	0	0	0	2	0	0	0	0	0	0	0	1	0	0	0	0	0	3	0	0	0	0	0	0	0	0	0	0	0	0	0	0	0
OTU 102	0	2	0	0	0	0	1	0	1	0	0	0	0	0	2	0	2	0	0	0	0	0	0	1	0	2	0	1	0	1	0	2	0	0	0	0	2	7	0	0	0	0	0	0	0	0	0	1	0	0
OTU 103	1	0	0	0	0	1	0	0	0	0	0	0	2	0	0	0	1	0	1	0	1	0	1	0	0	0	1	1	0	3	1	0	0	1	0	0	0	1	0	3	0	137	0	1	0	0	0	0	1	0
OTU 104	0	0	1	5	2	3	8	2	2	2	0	61	0	1	4	2	0	2	2	2	5	1	1	0	66	0	0	7	7	2	0	0	1	1	2	3	1	0	0	3	1	1	0	16	0	0	4	1	0	0
OTU 105	0	1	0	0	0	0	0	0	1	0	0	0	0	0	0	2	0	1	1	0	0	1	0	0	0	0	2	0	0	0	0	0	0	0	0	0	0	0	0	0	0	0	0	0	0	1	0	0	0	4
OTU 106	0	0	0	0	1	0	0	0	0	0	0	0	0	0	0	0	0	0	1	0	0	5	0	2	0	0	1	0	1	0	0	0	6	0	0	0	0	3	0	0	0	1	2	0	0	0	0	0	0	0
OTU 107	0	3	1	0	0	0	0	0	7	1	0	1	0	0	0	3	0	0	3	0	0	5	3	1	0	0	1	0	0	0	0	1	0	0	0	0	0	0	0	0	0	0	0	6	0	0	0	0	0	0
OTU 108	0	4	0	1	0	0	3	0	2	0	4	1	0	0	0	2	18	0	0	0	5	0	0	14	0	0	0	1	0	0	0	0	10	18	0	5	0	0	14	0	0	0	14	8	0	0	1	0	0	0
OTU 109	0	0	0	0	0	0	0	0	0	0	0	0	0	0	0	0	0	0	0	0	0	0	0	0	0	0	0	0	0	0	0	0	0	0	0	0	0	0	0	0	0	0	0	0	0	0	0	0	0	0
OTU 110	2	2	0	1	0	7	2	1	0	3	0	3	1	4	3	0	3	0	0	0	0	10	0	0	2	0	0	0	0	0	0	0	7	0	3	0	0	0	0	0	1	3	0	3	2	1	1	10	0	0
OTU 111	0	0	0	0	0	0	0	0	0	0	0	0	0	0	0	0	0	0	0	0	0	0	0	0	0	0	0	0	1	0	0	0	1	0	0	0	0	0	0	0	0	0	0	0	0	1	0	3	0	0
OTU 112	1	1	0	0	0	0	1	0	0	0	0	2	4	0	0	0	0	2	0	0	4	1	0	0	0	0	2	3	4	4	0	0	0	0	1	0	0	2	0	1	0	0	1	0	0	0	0	0	1	0
OTU 113	0	1	0	0	0	0	0	0	0	0	0	0	0	0	0	0	0	0	0	0	0	0	0	0	0	0	0	0	0	0	0	0	0	0	0	0	0	1	0	0	0	0	0	0	1	0	0	0	0	0
OTU 114	1	0	0	0	2	8	0	0	29	7	1	0	2	0	3	1	66	0	1	0	11	2	6	0	1	3	0	6	4	8	1	12	4	2	2	0	1	0	6	2	2	2	6	3	3	2	0	0	0	0
OTU 115	2	2	1	4	0	4	3	2	2	0	0	4	2	0	1	3	1	5	4	9	6	0	0	1	1	4	5	0	0	4	1	5	1	3	1	4	3	8	2	6	2	0	9	1	3	0	0	5	3	0
OTU 116	3	1	1	2	2	0	2	1	2	0	3	3	0	0	0	0	0	1	3	0	0	4	0	0	0	0	0	12	0	0	1	1	3	1	2	0	0	1	0	0	1	0	0	3	1	2	1	3	0	0
OTU 117	0	0	0	0	0	1	1	0	0	0	0	1	0	1	4	1	2	0	1	2	0	2	1	0	1	0	0	3	0	3	3	0	0	0	3	1	0	0	0	1	0	0	1	2	2	0	0	6	1	0
OTU 118	0	0	2	0	0	0	0	0	1	1	0	1	0	0	0	0	0	0	0	0	0	0	0	0	0	0	0	0	1	3	2	1	3	0	0	0	1	5	0	0	0	0	0	0	0	0	0	0	0	0
OTU 119	1	2	3	2	2	5	0	6	0	0	1	0	2	0	0	0	4	4	0	0	0	0	0	0	0	57	0	2	0	1	0	4	3	5	1	0	0	0	0	0	0	0	2	0	11	0	4	2	0	0
OTU 120	0	2	0	0	4	3	0	0	1	1	1	0	0	1	5	0	0	0	0	9	0	1	0	0	1	0	1	1	0	4	0	0	2	0	1	0	0	1	0	0	0	0	0	4	0	0	0	1	0	0
OTU 121	40	10	2	0	2	1	4	0	10	0	0	0	1	3	4	1	0	23	1	0	0	0	0	0	0	0	1	0	1	0	3	0	7	0	0	1	2	0	1	0	0	0	0	0	0	5	1	0	0	1
OTU 122	0	3	1	1	4	0	3	9	0	1	0	4	0	0	0	0	0	1	4	0	0	4	9	0	2	0	0	0	0	7	1	0	0	1	3	0	0	4	0	0	5	1	1	0	0	0	5	0	0	0
OTU 123	7	1	8	5	48	4	3	2	7	3	1	11	0	6	7	7	3	4	10	3	14	3	11	4	1	2	1	7	20	16	4	6	45	10	6	2	4	13	1	5	2	4	4	41	3	6	0	31	10	3
OTU 124	0	0	1	0	3	0	0	0	0	0	0	0	0	1	2	1	0	0	1	0	2	0	0	0	0	1	0	0	0	0	0	0	0	0	0	0	2	0	0	1	0	0	1	0	0	0	0	0	0	1
OTU 125	22	5	12	36	4	1	8	4	3	4	4	6	94	93	13	9	3	8	8	61	3	0	6	0	1	4	1	3	11	4	3	6	18	0	0	3	20	9	0	113	3	3	2	0	0	0	4	4	0	2
OTU 126	0	0	0	1	1	0	0	4	0	9	0	0	0	2	1	0	0	0	0	2	0	8	0	0	3	0	2	0	0	0	0	0	0	1	1	0	0	0	0	1	3	5	0	0	0	0	3	0	0	0
OTU 127	0	0	1	0	1	0	2	0	2	1	0	10	0	0	0	0	0	0	1	0	0	1	1	1	0	0	0	4	10	2	5	0	0	0	0	0	1	0	0	0	0	0	0	0	0	0	0	7	0	1
OTU 128	1	27	1	5	15	7	5	15	7	23	13	3	4	2	0	3	1	40	7	8	5	31	8	2	1	0	21	9	1	10	2	9	18	33	15	5	0	5	0	2	8	24	2	2	1	12	9	5	1	3
OTU 129	0	4	0	0	0	0	0	18	0	0	0	0	6	0	0	1	0	0	0	0	0	0	1	0	0	0	0	0	0	0	0	0	0	0	0	0	0	0	0	0	6	0	0	0	0	5	5	2	0	0
OTU 130	1	2	3	0	1	1	1	0	0	9	1	0	0	4	4	3	1	1	1	2	0	24	0	0	0	5	0	0	1	0	0	1	2	0	0	0	6	0	0	0	0	26	1	0	0	0	0	4	1	0
OTU 131	0	0	0	0	2	0	1	5	3	3	1	15	0	0	0	0	0	0	3	0	0	1	3	0	0	0	0	3	1	0	0	1	0	0	5	0	1	3	0	0	3	0	1	0	1	1	1	16	0	0
OTU 132	0	0	0	1	0	0	0	0	0	0	3	1	0	2	0	2	0	1	0	0	1	1	0	2	0	0	2	0	0	1	3	1	1	0	1	0	0	2	0	1	0	1	0	0	0	0	0	0	0	0
OTU 133	6	0	2	0	0	2	0	0	0	0	0	0	0	0	0	0	0	0	0	0	0	0	0	0	0	0	0	0	0	0	0	0	0	0	0	0	0	0	0	0	0	0	0	0	3	0	0	0	0	0
OTU 134	0	0	0	0	0	5	2	7	1	0	16	3	1	0	0	0	1	0	0	0	0	3	0	7	1	1	0	0	6	0	0	0	2	4	0	0	0	7	8	0	2	4	13	2	0	0	0	2	0	0
OTU 135	2	1	2	4	0	0	0	0	0	0	0	2	0	0	0	0	2	1	1	2	4	1	0	0	0	0	0	2	2	3	4	0	1	0	0	0	0	0	0	0	0	0	0	0	1	5	0	0	0	0
OTU 136	0	0	1	0	2	47	0	0	1	0	0	1	0	0	0	0	3	0	0	0	0	0	0	0	23	0	0	0	0	0	0	0	0	0	0	3	2	1	0	0	0	0	0	0	53	1	0	1	0	0
OTU 137	0	0	0	0	2	0	11	0	0	0	0	0	1	0	1	2	0	0	0	0	0	0	0	0	0	0	3	0	0	0	2	2	3	0	0	0	1	0	0	0	0	0	1	0	0	0	0	0	0	0
OTU 138	1	3	1	0	4	0	0	0	1	0	0	0	0	0	0	3	0	0	5	0	0	0	0	0	0	1	4	0	0	0	0	0	2	0	0	3	0	3	0	0	0	0	1	0	1	1	0	2	1	0
OTU 139	7	1	10	1	15	3	1	5	11	0	0	3	2	30	58	3	2	5	19	2	2	0	4	81	6	14	0	0	0	3	1	12	7	3	3	1	21	4	1	0	6	2	5	25	2	0	4	1	2	0
OTU 140	3	0	4	3	10	5	1	3	0	4	1	5	3	3	5	1	0	0	4	2	0	15	11	0	6	7	4	4	1	5	1	10	3	1	6	1	6	3	0	11	0	0	2	3	2	59	0	1	1	32
OTU 141	0	0	0	0	0	0	0	0	0	0	0	0	0	0	0	0	0	0	0	0	0	0	0	0	0	0	0	0	0	0	0	0	0	0	0	0	0	0	0	0	0	0	0	0	0	0	0	0	0	0
OTU 142	0	0	0	0	0	0	0	0	0	0	0	0	0	0	0	0	0	0	0	0	0	0	0	0	1	0	0	0	0	0	0	0	0	0	0	0	0	0	0	0	0	0	0	0	0	0	0	0	0	0
OTU 143	0	0	0	0	0	0	2	1	0	0	3	0	7	0	0	0	1	0	2	0	0	0	0	0	0	0	1	0	0	0	1	0	2	0	0	1	0	1	0	0	0	0	1	1	0	1	0	4	0	0
OTU 144	6	0	0	0	0	0	0	0	0	0	0	0	0	0	0	0	0	1	0	0	0	0	0	0	0	0	0	1	0	0	0	0	1	0	0	0	0	0	0	0	0	0	0	0	4	0	1	0	0	2
OTU 145	2	47	0	2	0	1	1	0	1	3	0	0	0	1	7	3	1	94	1	0	4	0	3	2	3	4	1	0	0	2	0	0	1	0	0	1	4	0	3	1	0	1	0	3	4	24	0	5	1	10
OTU 146	0	0	0	1	0	0	0	1	3	4	0	1	2	1	14	1	1	0	1	0	0	0	0	1	0	0	0	1	2	0	1	0	2	0	0	2	0	0	2	0	1	2	2	0	0	0	1	0	1	0
OTU 147	0	0	0	0	0	0	1	0	0	3	0	0	0	1	0	0	0	0	0	0	1	15	0	0	0	0	8	0	2	0	1	0	2	0	0	0	0	0	0	0	0	7	0	3	0	0	0	1	0	1
OTU 148	0	0	1	0	0	0	0	0	1	0	1	0	0	1	3	0	1	1	1	0	1	1	3	0	0	1	0	0	0	1	0	1	0	0	1	1	5	7	0	0	0	3	0	0	3	0	78	11	0	0
OTU 149	0	0	0	0	1	0	5	0	0	0	0	0	0	0	0	0	0	1	0	0	12	0	0	0	1	0	0	0	38	0	0	0	0	0	0	0	0	0	0	2	1	0	0	0	0	0	0	1	0	0
OTU 150	0	0	0	0	0	0	8	0	0	0	0	0	1	0	0	0	0	0	2	0	0	0	0	0	0	49	0	0	0	7	0	0	0	0	0	0	0	3	0	1	0	2	0	1	0	0	0	0	0	0
OTU 151	0	0	0	0	2	0	1	0	0	1	0	2	1	0	0	1	0	0	1	0	0	1	4	0	1	0	0	0	2	0	167	0	18	0	0	0	0	0	0	0	0	0	0	3	3	0	1	0	0	0
OTU 152	3	7	0	4	3	0	6	12	11	2	0	1	5	2	5	2	0	3	3	0	0	4	0	0	0	3	1	3	0	3	1	0	0	0	0	1	3	0	0	0	10	0	3	0	1	0	8	0	16	2
OTU 153	0	0	0	0	2	0	0	0	0	0	0	1	1	0	0	0	0	0	0	0	0	0	0	0	0	0	0	0	0	0	0	0	0	0	0	0	0	0	0	0	0	0	0	0	0	0	0	0	0	0
OTU 154	0	0	0	0	1	2	0	0	0	0	0	0	0	0	0	3	1	0	0	2	0	0	1	0	2	0	0	0	0	0	0	0	0	0	0	0	0	0	0	0	0	0	0	0	1	0	0	0	0	0
OTU 155	0	0	2	0	0	0	0	0	0	0	2	0	0	1	0	0	0	4	1	0	0	0	0	0	2	3	1	0	1	4	0	88	0	0	1	1	1	4	0	0	1	0	0	0	0	0	0	0	0	0
OTU 156	0	4	4	0	0	0	1	7	4	0	0	5	2	0	1	6	0	0	1	8	0	3	4	0	8	1	0	0	3	0	4	2	12	0	0	3	2	8	2	7	3	1	1	0	1	2	2	0	1	0
OTU 157	0	0	0	0	0	6	0	2	0	0	0	0	0	1	0	0	0	0	0	0	0	0	0	0	1	0	0	0	0	0	3	0	0	0	0	0	0	0	0	1	2	1	0	0	0	0	1	7	0	0
OTU 158	0	0	0	0	0	0	0	0	0	0	0	0	0	0	0	0	0	0	0	0	0	0	0	0	0	0	0	0	0	0	0	1	0	0	0	0	0	0	0	0	0	0	0	0	0	0	0	0	0	0
OTU 159	7	3	0	0	0	3	0	0	0	0	0	0	3	0	0	25	0	0	0	0	0	0	5	0	0	0	0	2	0	0	1	0	4	0	0	0	0	0	0	0	0	1	0	1	0	2	1	0	0	0
OTU 160	7	2	1	2	1	2	5	0	4	2	3	11	1	0	8	9	1	3	1	2	0	1	3	2	0	0	2	5	0	1	1	8	9	0	6	8	1	0	1	0	1	3	1	3	2	0	1	1	2	1
OTU 161	0	2	0	0	3	1	4	1	2	0	0	2	0	1	0	4	0	0	1	0	0	10	1	3	1	0	1	0	2	3	0	0	0	0	3	1	0	1	1	0	2	0	1	1	0	0	1	2	0	0
OTU 162	2	16	0	2	0	2	0	3	0	0	0	0	3	0	0	2	1	0	2	1	3	2	10	0	0	1	6	5	4	0	1	0	0	0	2	3	0	7	0	5	3	0	0	1	1	1	2	1	0	4
OTU 163	0	0	0	0	0	0	0	0	0	0	0	0	0	0	0	0	1	0	0	0	0	0	0	0	0	0	0	0	0	0	0	0	0	0	0	0	0	0	0	0	0	0	0	0	0	0	0	0	0	0
OTU 164	0	0	0	0	0	0	0	0	0	0	0	0	0	0	0	1	0	0	0	1	0	0	0	0	0	0	0	0	0	0	0	0	0	0	0	0	0	0	0	0	0	0	0	0	0	0	0	0	0	0
OTU 165	0	0	0	0	1	1	1	0	0	0	1	0	0	0	0	0	0	0	46	0	3	0	2	0	1	0	3	0	0	4	0	0	0	0	1	1	0	2	0	0	1	0	0	3	0	0	0	1	0	0
OTU 166	1	0	0	0	0	0	0	0	0	0	0	0	0	0	0	0	0	0	0	0	0	0	0	0	0	0	0	0	0	0	0	0	0	0	0	0	0	0	0	0	0	0	0	7	0	0	0	0	0	0
OTU 167	3	0	1	2	0	2	2	9	5	0	0	0	1	0	0	0	1	0	0	0	4	0	0	0	0	0	0	0	22	5	2	1	0	0	0	8	0	6	0	0	9	1	0	8	0	0	4	0	0	0
OTU 168	6	1	0	0	5	0	3	0	0	0	0	0	0	0	1	56	0	2	0	0	1	2	1	3	0	1	0	3	2	0	1	0	2	1	0	0	0	7	1	0	0	0	4	1	2	0	0	4	1	0
OTU 169	0	0	0	1	0	0	0	0	0	0	0	0	0	0	0	0	0	0	0	0	0	0	0	0	0	0	0	4	2	0	0	0	0	0	0	0	0	0	0	6	0	0	0	0	0	0	0	0	0	0
OTU 170	0	0	0	0	0	0	0	0	0	0	0	0	0	0	0	0	0	0	1	0	0	0	0	0	0	0	0	0	0	0	0	0	0	0	0	0	0	0	0	0	0	0	0	0	0	0	0	0	0	0
OTU 171	0	0	0	3	0	1	0	1	6	1	0	1	1	0	1	0	2	0	0	0	0	3	0	1	0	2	2	0	0	1	1	0	2	0	85	0	0	17	0	0	3	1	1	2	0	0	0	1	0	0
OTU 172	0	0	0	0	0	0	0	0	0	0	0	0	0	0	0	0	0	0	0	0	0	1	0	0	0	0	0	0	0	0	0	0	7	0	0	0	0	0	0	0	0	0	0	1	0	1	0	0	0	0
OTU 173	0	0	0	0	4	0	0	1	0	0	0	1	0	0	1	0	0	1	0	4	0	1	2	0	0	0	0	1	0	1	0	1	0	1	0	0	0	0	0	0	0	3	1	0	0	0	0	2	1	0
OTU 174	7	2	1	10	5	0	30	5	1	1	3	0	1	0	4	0	1	8	0	9	1	2	3	0	0	2	0	4	2	0	0	4	0	0	0	1	8	0	0	10	3	2	0	8	2	9	0	3	0	2
OTU 175	0	0	0	0	0	0	0	0	1	0	0	1	0	0	0	0	0	0	0	0	0	0	0	0	0	0	4	0	2	1	3	0	0	0	0	2	0	4	0	0	0	0	0	2	0	0	0	1	2	1
OTU 176	3	2	2	2	0	3	5	0	1	15	0	1	1	1	6	0	4	1	3	0	0	12	0	102	0	1	0	0	8	4	8	1	1	1	4	0	2	6	0	1	0	3	1	5	2	0	1	8	1	0
OTU 177	5	0	1	5	0	2	0	0	2	36	3	1	0	3	8	6	0	1	2	5	0	0	0	0	1	1	12	1	0	3	1	0	7	4	1	2	7	0	0	1	0	0	3	0	2	2	0	1	0	0
OTU 178	0	0	0	0	3	0	0	1	0	1	1	2	0	0	0	0	0	0	2	2	0	0	4	0	0	1	0	0	0	1	6	0	1	0	6	0	0	0	0	2	1	0	0	0	0	1	0	0	0	0
OTU 179	0	0	0	0	0	2	0	1	0	0	0	0	4	1	1	2	6	0	2	0	0	0	2	1	0	0	1	2	0	0	1	2	1	1	4	0	0	0	2	4	2	0	6	0	0	0	3	3	1	0
OTU 180	2	2	76	7	8	48	0	6	7	3	2	3	0	0	0	25	19	1	2	7	1	6	1	4	29	79	2	3	6	1	8	2	4	3	1	8	147	4	5	16	0	5	9	1	24	1	4	0	33	2
OTU 181	0	0	0	0	1	0	1	1	0	1	4	1	1	0	0	0	0	0	0	0	0	0	1	2	0	0	0	1	1	2	0	0	2	0	0	0	0	4	0	0	1	0	0	0	0	0	0	1	2	0
OTU 182	0	0	0	0	0	0	0	0	0	0	0	0	0	0	0	0	0	0	0	0	0	0	0	0	0	0	0	0	0	0	0	0	0	0	0	0	0	0	0	0	0	0	0	0	0	0	0	7	0	0
OTU 183	3	1	2	0	0	0	0	4	1	1	0	0	1	1	5	0	0	1	3	0	1	0	1	0	0	1	0	0	3	0	1	0	2	0	1	0	3	5	1	0	3	1	0	0	0	1	2	1	0	0
OTU 184	0	0	0	1	0	0	1	1	0	1	0	0	0	0	3	2	0	0	2	2	0	2	0	0	0	1	0	0	0	0	1	0	1	0	0	0	0	0	0	0	1	0	1	0	0	0	3	3	0	0
OTU 185	2	2	9	1	0	1	2	5	0	1	0	1	2	0	1	8	5	1	71	5	0	0	1	0	2	1	1	4	0	1	0	1	2	0	0	1	1	3	1	3	1	0	0	3	2	0	0	14	0	0
OTU 186	0	0	0	0	5	1	0	2	0	0	0	0	0	0	0	4	1	0	0	0	0	4	0	0	0	0	0	0	0	4	0	0	0	0	0	0	0	1	0	0	43	0	0	0	0	0	1	0	0	0
OTU 187	0	64	1	2	2	5	5	4	5	0	16	0	4	3	3	7	2	1	0	46	0	8	0	1	3	0	0	3	0	0	3	0	0	46	0	2	2	1	0	0	2	3	1	1	0	26	2	5	0	15
OTU 188	4	6	0	1	0	0	2	0	30	0	1	9	4	0	0	6	0	0	3	0	0	0	14	0	1	0	1	4	13	1	0	8	6	0	7	4	3	7	1	1	0	0	1	25	2	2	0	0	0	194
OTU 189	0	1	123	5	0	2	17	2	18	1	4	2	7	1	0	1	0	0	2	3	6	8	3	0	1	0	2	0	0	2	7	1	2	1	0	0	1	0	2	0	0	2	3	2	0	0	1	7	0	1
OTU 190	0	10	0	0	0	0	1	2	0	0	0	4	0	1	0	0	0	22	0	0	0	0	0	0	0	0	0	0	0	0	5	0	0	0	0	0	0	0	0	0	1	0	0	0	0	13	0	0	0	7
OTU 191	2	0	3	1	3	0	0	2	0	0	2	4	2	0	1	0	0	0	4	2	2	0	1	5	0	0	0	3	1	0	1	12	3	1	1	3	0	5	2	0	0	28	4	6	0	1	0	1	14	0
OTU 192	2	9	1	71	1	5	4	21	0	0	1	1	17	2	5	1	0	4	4	0	1	3	4	8	1	4	2	2	0	2	0	0	9	1	0	0	4	2	0	2	15	2	2	3	1	1	4	2	1	0
OTU 193	1	1	0	0	0	0	0	5	1	1	11	2	1	0	0	0	61	0	1	4	0	1	3	0	2	0	0	0	4	0	0	8	1	0	0	1	0	0	1	0	4	3	0	0	3	0	3	0	0	0
OTU 194	0	1	0	1	0	0	0	1	2	0	1	0	0	1	1	1	0	0	1	2	0	0	0	0	0	0	4	32	0	0	0	0	0	0	1	2	0	1	0	0	0	2	0	1	109	1	0	3	0	0
OTU 195	0	0	8	2	0	0	1	0	0	1	0	0	0	6	7	0	0	1	1	0	12	2	2	0	0	2	3	0	16	0	0	1	0	0	0	4	2	2	0	1	0	0	0	0	0	0	0	0	0	0
OTU 196	0	0	1	4	1	6	0	2	0	0	2	1	0	0	0	0	3	0	1	1	0	0	0	5	5	0	19	0	0	96	0	6	0	1	0	0	0	0	8	4	1	0	11	0	9	0	4	0	5	0
OTU 197	7	3	0	3	5	1	2	0	5	10	2	0	0	2	1	1	2	0	5	2	1	0	1	3	1	5	3	1	1	8	2	0	0	0	31	5	5	5	0	1	2	0	2	2	1	3	12	0	1	1
OTU 198	0	1	2	0	3	0	0	2	2	0	0	0	0	0	0	2	4	3	0	0	0	0	0	1	0	0	1	0	3	1	0	0	0	1	0	0	0	0	0	0	2	0	0	0	0	0	0	2	0	0
OTU 199	0	0	0	4	0	0	1	1	0	3	1	3	0	0	7	0	0	1	0	0	0	0	2	0	0	6	1	3	1	0	0	0	0	0	0	0	0	0	54	0	0	2	0	0	1	0	0	1	1	0
OTU 200	2	1	1	3	7	4	0	0	1	0	0	3	0	1	0	4	0	0	1	1	1	0	1	0	0	0	5	0	0	0	0	0	1	1	2	0	1	0	1	8	0	0	2	0	0	2	1	0	0	0
