	Host 1	Host 2	Host 3	Host 4	Host 5	Host 6	Host 7	Host 8	Host 9	Host 10	Host 11	Host 12	Host 13	Host 14	Host 15	Host 16	Host 17	Host 18	Host 19	Host 20	Host 21	Host 22	Host 23	Host 24	Host 25	Host 26	Host 27	Host 28	Host 29	Host 30	Host 31	Host 32	Host 33	Host 34	Host 35	Host 36	Host 37	Host 38	Host 39	Host 40	Host 41	Host 42	Host 43	Host 44	Host 45	Host 46	Host 47	Host 48	Host 49	Host 50	
OTU 1	44	198	78	219	108	0	60	165	0	430	94	38	247	140	580	58	27	0	17	1	77	259	48	78	0	15	80	103	4	0	0	165	85	18	26	162	15	116	201	100	172	0	92	133	5	120	34	54	0	70
OTU 2	0	0	2	0	0	0	32	9	177	0	2	50	10	0	4	0	13	130	5	12	0	1	0	100	64	10	10	0	29	8	24	40	6	2	0	5	31	0	5	0	24	0	2	7	0	11	2	0	0	1
OTU 3	0	0	1	8	12	47	0	16	2	3	39	18	0	0	13	42	0	1	7	0	2	5	0	160	0	29	0	0	0	1	2	7	10	19	0	5	0	3	0	13	0	52	2	0	0	2	8	6	0	1
OTU 4	0	0	0	0	0	0	0	0	0	0	0	0	0	0	0	0	0	0	0	0	0	0	0	0	0	0	0	0	0	0	0	0	0	0	0	0	0	0	0	0	0	0	0	0	0	0	0	0	0	0
OTU 5	694	590	147	544	402	545	456	1195	78	717	359	38	190	78	387	160	897	108	261	33	34	666	551	122	19	174	172	271	540	483	77	292	209	681	1177	340	51	22	32	1462	0	11	387	170	333	297	1608	160	1	82
OTU 6	13	18	3	0	26	44	0	29	0	27	21	63	68	27	5	39	0	62	105	0	45	22	2	2	30	183	16	29	1	97	14	7	0	11	0	4	0	0	16	0	0	14	282	3	104	4	11	17	20	15
OTU 7	13	37	24	5	145	243	152	33	87	39	61	81	21	60	17	11	71	37	12	19	61	12	79	17	121	6	214	78	116	21	472	93	10	130	52	20	34	141	105	35	6	0	4	37	26	88	1563	2542	71	28
OTU 8	362	37	0	6	41	859	101	114	1160	42	29	172	18	42	25	33	51	22	4	16	42	24	19	140	156	16	40	25	459	14	47	281	166	251	15	74	404	49	576	22	48	28	60	11	12	602	16	95	202	298
OTU 9	29	6	2	2	13	0	45	0	43	1	49	38	1	12	0	14	20	0	10	2	2	0	83	98	1	12	67	1	0	30	4	0	6	6	65	0	0	169	3	25	0	0	15	5	6	0	12	8	43	16
OTU 10	42	3	2	5	4	1	24	17	2	3	7	0	39	17	8	167	11	3	0	2	46	20	4	5	13	59	0	5	41	2	1	7	48	86	0	0	0	0	2	0	7	742	6	7	49	1	3	2	258	0
OTU 11	99	79	20	0	31	120	34	9	0	30	74	41	0	4	4	9	21	197	11	32	1	10	30	37	0	6	4	32	13	1	6	6	80	61	35	1	44	138	18	5	51	11	15	26	118	7	23	120	12	4296
OTU 12	7	39	3	155	0	111	33	12	11	26	49	25	28	124	30	2	12	44	65	8	19	3	13	4	3	27	72	9	10	128	82	77	1	103	44	51	21	35	36	0	59	5	30	14	36	24	4	2	161	11
OTU 13	15	9	0	0	0	37	0	0	0	0	0	0	0	0	2	0	0	0	0	0	0	0	0	0	0	2	0	2	0	2	0	0	0	0	0	0	0	0	4	0	1	3	0	0	0	0	0	0	0	1
OTU 14	21	6	25	12	6	34	0	0	44	0	15	5	0	24	11	1	0	18	14	9	0	2	4	0	28	355	13	2	0	0	0	4	176	8	7	2	73	0	17	51	13	114	0	0	18	2	32	135	44	12
OTU 15	2	0	0	0	0	0	0	0	0	0	0	0	0	0	0	0	0	30	0	0	2	0	16	0	0	0	0	0	0	0	0	0	1	0	1	0	13	0	0	0	44	183	0	4	0	1	0	4	0	8
OTU 16	0	0	0	0	0	0	0	0	0	0	0	0	0	0	0	0	0	0	0	4	0	0	0	0	0	0	0	0	0	12	0	0	0	0	0	2	0	0	4	0	0	0	0	0	0	0	0	0	0	0
OTU 17	12	9	4	24	15	17	0	0	11	95	3	27	31	90	88	5	0	0	22	2	97	46	0	6	5	29	1	11	61	55	24	2	93	4	5	0	5	1	3	39	2	27	84	8	172	0	17	47	14	2
OTU 18	21	77	16	50	61	310	1	0	389	45	32	133	1	77	133	34	0	108	0	6	31	25	15	161	170	13	105	16	1	140	97	0	94	249	99	71	86	132	29	27	17	50	23	11	27	155	54	37	18	35
OTU 19	0	0	0	0	0	0	0	0	0	0	0	0	8	0	0	0	0	0	0	0	0	0	0	0	1	0	0	0	33	0	0	0	0	0	0	0	0	0	0	0	0	0	0	0	0	0	0	0	0	0
OTU 20	237	1714	513	30	92	29	27	5	134	45	33	4	57	142	29	0	15	20	16	325	78	34	28	193	153	55	18	28	21	2	1	0	11	53	0	1	27	7	55	95	54	15	22	140	38	53	27	1029	72	24
OTU 21	18	52	25	36	309	8	12	40	106	15	28	21	35	24	53	9	10	47	3	5	24	11	29	114	24	4	3	3	8	67	16	53	14	46	92	14	10	104	256	1	53	51	16	21	50	130	4	39	12	125
OTU 22	211	4	19	6	14	42	13	6	22	28	49	48	26	35	8	5	8	27	20	3	13	13	7	245	848	55	29	1	0	11	2	0	1	1	0	4	0	28	11	41	105	53	13	7	8	0	7	38	12	12
OTU 23	30	6	1	1	2	0	3	3	20	0	14	2	13	28	1	0	0	53	0	19	2	0	4	0	20	9	4	7	12	1	14	12	0	10	0	15	0	22	2	22	19	0	26	15	12	22	4	0	82	1
OTU 24	0	46	0	0	0	2	4	0	27	0	3	45	12	11	0	0	0	0	0	0	10	0	141	0	89	81	4	4	16	2	0	2	0	72	26	1	40	150	80	0	23	15	0	0	0	25	22	38	116	40
OTU 25	0	0	0	0	0	0	8	0	0	0	0	0	0	0	0	1	3	0	1	0	0	0	0	0	0	0	0	0	0	0	0	0	4	0	0	0	0	0	0	0	0	0	6	0	0	0	0	0	0	0
OTU 26	23	0	7	0	51	4	0	0	8	3	0	0	5	6	0	0	0	2	0	0	0	0	26	3	0	4	0	0	0	0	0	5	3	25	4	0	0	52	63	0	0	0	0	3	0	0	0	1	0	59
OTU 27	0	0	1	0	0	0	0	0	0	0	0	0	1	0	0	0	0	1	0	0	10	0	1	0	0	0	0	19	17	0	0	0	0	0	0	0	0	0	0	0	0	58	0	11	2	0	0	1	0	0
OTU 28	77	47	78	114	72	52	74	14	16	4	9	0	373	92	273	53	39	41	5	54	81	1	1	122	5	35	27	20	31	22	385	10	188	34	22	5	13	40	69	101	0	54	2	87	14	6	38	0	2	35
OTU 29	125	11	25	39	39	39	9	3	23	31	54	15	7	64	82	44	5	66	26	0	41	3	31	27	55	138	1	0	47	13	35	32	74	66	16	20	2589	33	8	7	121	36	68	6	32	116	7	13	2	4
OTU 30	0	0	0	0	0	0	0	0	0	0	0	0	0	5	0	0	0	0	0	0	0	0	0	0	0	0	0	0	0	0	0	0	0	0	0	0	0	0	0	0	0	0	0	0	0	0	0	0	0	0
OTU 31	47	29	58	4	14	0	29	7	7	11	0	73	0	1	19	0	17	1	5	2	0	0	0	0	111	207	0	0	0	0	3	11	0	0	0	0	19	1	21	35	94	1	0	15	1	107	0	38	101	0
OTU 32	28	15	23	1	41	15	61	81	53	9	2	28	75	51	8	138	32	45	18	868	69	2	74	18	144	179	14	100	14	34	260	141	6	34	99	42	6	88	138	92	260	18	13	13	20	12	13	17	81	69
OTU 33	0	0	1	0	0	3	0	1	0	0	0	0	0	0	0	0	0	21	12	0	0	0	0	0	0	4	0	0	0	0	0	0	0	0	2	0	0	0	0	6	2	0	0	0	2	0	2	0	0	0
OTU 34	887	16	3	12	18	15	0	37	10	29	22	0	50	61	10	2	0	114	0	9	33	8	994	0	30	46	70	20	307	46	91	55	1	18	2	13	15	1	6	7	252	3	0	6	62	1	32	90	27	9
OTU 35	31	2	2	23	4	47	31	47	15	43	0	221	47	1	25	19	11	13	2181	1	3	21	0	27	62	0	0	7	84	8	198	136	18	16	1	5	97	0	95	7	2	25	8	14	14	36	1	42	68	27
OTU 36	4	25	25	3	8	1	0	5	330	19	0	15	34	50	8	5	0	3	9	8	91	9	18	50	41	8	0	43	4	108	32	2	39	40	1	6	147	8	40	23	8	1	2	1	0	135	1	85	50	24
OTU 37	95	5	0	0	7	18	14	17	0	0	2	3	0	63	0	17	7	33	0	1	4	0	31	0	11	1	0	2	0	1	0	16	14	37	5	0	23	8	0	87	0	2	2	1	9	4	28	30	0	0
OTU 38	68	6	0	2	1	1	19	3	13	54	5	83	22	19	7	43	7	48	4	5	11	50	72	8	67	61	35	1	27	7	98	5	242	29	125	2	14	146	3	20	353	0	104	20	12	0	7	0	182	1
OTU 39	0	0	0	1	0	6	1	2	4	7	11	31	31	0	10	1	0	87	13	4	0	4	0	0	24	9	0	1	6	1	3	8	0	0	0	12	21	0	0	0	0	0	0	14	16	16	13	0	1	2
OTU 40	64	22	0	2	8	57	11	4	39	24	5	50	28	284	5	42	552	1	92	4	130	9	105	42	24	189	84	82	15	288	49	4	63	3	78	2	10	76	28	54	32	6	142	16	57	38	3	55	36	2
OTU 41	24	2	1	0	17	130	42	2	94	17	1	8	61	104	0	2	16	7	0	12	71	10	4	2	15	69	38	2	4	15	54	15	2	41	31	3	1	67	55	18	11	34	2	4	8	0	11	4	1	68
OTU 42	0	0	55	5	0	1	0	0	0	0	1	0	0	0	17	0	0	2	0	0	0	5	2	0	0	0	20	0	12	79	2	4	0	0	0	0	0	0	3	0	20	23	6	0	3	0	0	4	23	0
OTU 43	0	0	0	0	0	0	0	0	0	0	0	2	0	0	0	0	0	0	24	0	0	0	0	1	0	0	34	2	0	0	0	3	0	0	0	0	0	0	0	0	0	0	0	0	0	0	0	0	1	0
OTU 44	79	0	0	0	0	0	20	3	13	0	310	0	0	28	0	0	12	22	4	1	20	0	1	0	0	0	6	15	0	1	1	16	7	8	0	25	0	0	0	0	0	0	0	0	1	0	1	0	0	0
OTU 45	80	0	14	1009	98	6	168	9	29	25	47	27	10	33	2023	13	72	89	8	4	9	15	24	63	20	2	65	21	86	72	4	16	101	9	4	15	5	54	20	3	47	58	116	5	14	10	7	11	79	3
OTU 46	213	116	0	2	60	8	26	2	21	56	95	309	25	27	11	72	10	122	30	3	68	36	42	2	29	111	35	61	14	88	241	9	55	10	0	17	30	3	0	117	46	10	1	6	0	28	64	1	40	1
OTU 47	0	0	0	15	9	0	0	0	8	0	97	1	0	0	32	0	0	0	0	0	0	0	0	27	1	34	58	0	0	0	0	4	105	0	0	0	0	0	0	0	0	0	2	0	0	0	0	4	0	0
OTU 48	316	77	44	51	14	82	38	17	58	4	7	81	3	3	151	80	23	13	37	9	11	0	140	44	28	54	182	50	10	2	67	15	1	8	61	1	38	105	0	113	164	2	32	13	70	3	18	35	50	0
OTU 49	73	0	0	23	7	1	13	1	0	0	10	1	40	33	48	15	2	57	12	1	5	2	0	3	107	0	8	5	75	6	44	0	14	0	5	0	1	16	113	683	51	9	20	0	13	7	430	13	12	24
OTU 50	14	56	0	27	16	72	96	19	134	1	14	21	3	1	51	12	52	169	3	4	7	8	23	143	14	10	32	5	5	95	84	23	24	3	78	20	4	75	29	45	70	34	0	42	5	45	64	36	190	23
OTU 51	91	87	33	2	73	36	25	8	0	58	33	3	1	43	0	1	9	28	44	289	9	38	34	119	15	0	217	11	15	32	2	23	0	41	0	29	49	3	22	8	0	0	34	18	99	94	16	25	21	0
OTU 52	127	145	66	8	4	26	46	307	27	13	99	79	23	31	7	773	24	22	2	26	26	13	464	35	26	73	19	78	18	247	78	691	75	82	775	424	32	1408	1	223	49	51	90	19	98	96	92	158	1	12
OTU 53	0	0	0	0	0	0	0	0	0	0	0	0	0	0	0	0	0	0	0	0	0	0	0	0	0	0	0	1	1	0	0	3	0	0	0	0	0	0	0	20	0	0	0	0	11	0	0	0	82	0
OTU 54	26	59	84	3932	139	166	73	16	180	99	64	86	14	799	138	40	45	27	5	42	308	73	31	86	64	41	6	21	0	112	66	15	36	222	17	1134	46	65	24	71	100	118	73	19	598	40	35	21	106	14
OTU 55	0	0	0	1	0	0	0	0	0	2	27	0	0	0	12	9	0	0	0	0	0	0	0	0	0	0	0	0	0	0	0	0	0	0	1	0	84	0	0	0	0	0	9	0	0	63	0	0	0	0
OTU 56	5	7	5	0	4	0	17	0	0	3	5	0	10	4	0	103	11	31	12	19	0	0	121	0	0	25	0	31	15	6	6	0	11	5	4	1	0	3	0	9	0	7	0	0	0	3	0	1	1	0
OTU 57	630	30	16	11	214	82	27	8	124	1019	65	115	451	465	18	11	3	68	75	40	209	557	16	445	4	85	131	813	53	78	467	21	10	22	5	6	59	31	51	15	134	23	44	11	75	134	2	50	335	17
OTU 58	4	40	20	10	10	117	16	4	12	1	1	9	16	126	25	6	11	30	1170	1	104	0	9	83	3	162	0	5	58	34	21	0	2	225	8	4	5	37	27	394	64	0	1685	28	0	74	274	15	18	1
OTU 59	0	2	0	66	71	0	3	2	3	94	3	0	46	12	142	57	0	3	57	11	9	54	75	82	4	155	0	0	4	55	23	3	90	23	22	2	4	51	15	0	0	1	0	6	18	9	0	61	14	13
OTU 60	15	4	26	4	29	99	49	8	19	73	7	61	88	245	16	82	30	189	1	17	39	32	20	69	62	1042	11	11	24	394	32	35	13	35	4	13	18	68	55	24	0	191	17	33	5	8	6	15	87	17
OTU 61	30	198	1	3	44	52	13	12	10	59	106	774	65	29	26	76	7	29	53	55	19	28	580	98	0	2	203	141	53	306	11	7	96	6	182	2	17	278	8	25	96	42	42	22	145	87	1	42	12	24
OTU 62	44	1	28	0	7	59	0	0	21	5	21	0	73	28	3	1	0	86	0	0	25	9	18	7	0	12	0	1504	0	24	1	0	0	8	0	6	3	0	0	0	30	10	3	1	1	5	21	0	0	0
OTU 63	17	38	0	1	0	0	46	6	0	7	0	1	0	20	0	39	30	2	17	0	41	3	38	101	62	0	53	0	10	68	1	7	15	4	2	1	16	7	2	26	82	111	0	27	0	0	1	3	283	7
OTU 64	28	25	23	107	48	23	134	5	95	2	3	77	91	49	197	96	61	198	1	52	20	9	125	6	28	108	292	3	222	21	53	25	58	72	63	3	22	125	75	427	37	87	5	22	2484	33	209	38	20	333
OTU 65	1	11	0	0	0	1	4	0	0	14	0	0	0	0	0	0	2	0	0	0	0	0	0	0	3	11	90	0	0	3	1	0	0	0	0	0	0	2	0	0	0	26	0	0	0	0	0	0	0	0
OTU 66	82	8	124	24	5	40	174	8	52	26	28	11	15	85	70	89	84	183	11	6	43	38	77	1	14	12	0	0	16	30	44	11	5	29	2	1	36	64	58	100	33	177	19	2	19	20	28	17	3	46
OTU 67	18	2	7	2	0	154	21	10	25	2	0	15	14	98	10	17	16	65	5	5	22	0	12	7	0	39	142	2	126	144	37	46	1	9	4	7	1	64	10	1	60	2146	14	13	19	6	28	8	96	1
OTU 68	0	4	0	16	13	0	2	31	2	2	2	75	0	15	16	15	1	2	15	1	0	0	0	0	0	0	3	0	1	0	0	49	1	8	0	0	15	2	14	2	7	0	4	0	38	7	0	0	0	13
OTU 69	72	2	36	7	11	0	84	221	41	8	69	11	52	0	15	28	40	212	17	0	2	21	308	5	56	9	10	16	38	30	177	284	3	2	511	185	168	1190	110	320	163	69	1	11	67	50	135	25	1	38
OTU 70	11	0	13	13	3	0	49	13	3	491	0	1	309	0	22	4	25	0	58	0	18	191	1	17	1	30	18	367	0	129	73	24	41	3	54	57	0	106	52	68	45	38	0	8	6	33	26	6	0	36
OTU 71	3	26	1	0	184	41	1	30	14	0	23	6	3	151	0	12	1	136	8	6	57	1	0	5	3	22	0	1971	0	0	3	53	0	27	7	23	4	53	3	8	7	0	13	37	5	7	0	7	21	0
OTU 72	98	67	1	4	82	27	1	26	1	6	0	11	11	112	3	0	0	0	179	3	66	9	10	14	16	57	3	26	21	115	65	46	12	9	3	28	3	22	0	9	582	71	52	6	0	30	0	86	8	1
OTU 73	0	49	9	4	4	193	27	3	56	72	0	10	0	215	29	1	11	39	3	11	223	46	48	152	99	0	25	10	25	22	0	4	30	8	18	1	1512	53	67	13	60	17	27	9	31	2320	2	0	16	31
OTU 74	41	14	9	2	9	2	59	40	26	37	22	114	49	100	10	11	26	40	3	7	77	35	11	25	8	2	24	27	54	244	2	60	43	13	2	31	20	36	59	32	20	3	49	2	4	19	25	78	154	48
OTU 75	14	2	20	1	0	20	16	25	55	1842	1	0	616	4	5	78	8	116	5	3	3	964	123	7	5	77	62	444	1091	26	96	27	56	47	8	9	15	3	87	80	83	9	9	8	83	4	67	0	7	68
OTU 76	20	5	1	0	1	14	96	0	2	1	0	1	0	1	0	0	37	0	10	34	0	0	0	17	0	18	2	1	1	3	26	0	0	29	0	0	10	4	23	0	7	251	0	3	1	3	4	28	19	14
OTU 77	108	0	55	10	120	5	6	0	92	176	57	75	58	6	7	16	2	53	1	2	5	90	80	149	6	73	0	15	53	59	108	23	7	2	47	5	9	24	140	12	24	12	16	1	2	145	5	37	64	41
OTU 78	37	328	122	32	655	0	6	17	172	143	179	66	94	51	61	10	3	1	4	11	37	36	917	1031	36	150	106	79	55	5	66	51	67	15	5	16	212	8	53	16	71	0	22	80	3	14	7	210	12	19
OTU 79	167	93	20	99	330	597	646	82	287	178	130	39	172	196	180	19	348	70	128	19	73	79	23	479	89	74	244	113	143	108	65	17	43	182	16	22	83	40	261	132	86	122	282	426	167	113	88	33	282	172
OTU 80	88	41	22	21	26	173	36	3	123	6	56	3	0	39	14	0	18	23	1	2	55	3	54	75	21	16	18	3	69	26	41	15	25	126	40	9	11	31	17	21	104	14	0	35	10	18	24	14	6	6
OTU 81	147	17	12	4	1	2	44	15	151	14	3	24	17	643	13	31	16	211	74	13	272	3	41	0	85	28	104	32	174	16	33	83	30	65	37	20	16	61	25	133	26	41	7	49	41	12	161	18	183	15
OTU 82	10	15	9	12	0	94	14	0	3	43	4	10	1	6	72	22	7	113	24	8	9	30	16	62	4	65	563	106	31	151	5	4	7	108	27	9	37	85	292	7	53	78	0	0	8	0	0	0	16	155
OTU 83	0	0	0	2	33	2	0	0	0	6	0	0	10	0	0	0	0	4	31	0	0	8	0	0	0	0	0	4	0	0	0	0	82	4	0	0	1	1	0	1	75	0	0	4	0	0	2	55	3	8
OTU 84	0	28	21	22	22	1	10	13	31	0	143	1	3	13	45	7	1	38	0	0	1	2	8	7	0	0	0	0	0	11	25	3	59	1	57	0	1	130	20	89	2	17	6	0	5	141	1	6	206	5
OTU 85	39	29	0	0	0	34	6	1	3	8	1	13	13	1	0	0	4	24	0	9	1	0	23	0	20	14	14	13	142	149	4	1	41	0	1	0	0	1	46	0	20	6	29	0	0	8	2	10	0	52
OTU 86	0	0	0	16	0	0	0	0	0	0	0	0	0	14	34	0	0	0	0	0	7	1	1	0	0	0	0	2	0	0	0	0	1	0	0	0	0	0	1	0	0	0	0	0	0	0	0	0	0	0
OTU 87	0	0	0	0	130	2	7	1	0	70	12	7	5	16	0	8	1	2	0	5	8	21	0	0	2	3	4	0	0	10	0	0	0	6	1	9	0	1	13	0	12	0	0	0	2	1	1	0	2	13
OTU 88	0	0	0	2	5	0	0	9	1	0	0	0	5	19	4	3	0	2	1	5	0	0	0	0	0	5	0	0	1	0	0	9	0	0	0	0	0	0	0	0	7	0	0	0	3	0	0	3	48	0
OTU 89	9	21	42	5	4	0	0	4	29	12	35	33	0	1	1	15	0	63	0	20	3	7	4	3	57	0	5	0	4	124	12	15	6	3	3	11	0	1	6	1	13	43	1	1	15	0	11	4	29	6
OTU 90	8	0	0	10	0	0	0	0	101	0	0	0	8	0	5	0	0	60	0	0	2	0	1	3	0	0	0	0	9	0	16	0	38	0	0	26	0	2	3	0	0	0	0	0	1	0	0	0	0	3
OTU 91	0	0	0	0	0	0	0	10	0	0	4	0	0	0	0	0	0	0	0	0	0	0	0	7	0	0	0	0	0	0	6	0	0	0	5	0	22	0	0	0	0	0	0	0	0	0	1	0	0	0
OTU 92	0	7	1	3	9	20	0	1	0	0	0	1	0	25	0	0	0	2	7	1	10	0	0	33	10	8	0	11	14	5	1	0	0	12	0	5	0	0	0	1	1	1	0	4	18	4	0	0	4	0
OTU 93	2	0	0	0	0	2	0	0	0	58	0	0	0	0	0	49	0	26	0	1	2	14	25	0	1	1	0	13	105	0	30	0	89	0	0	2	0	0	37	5	0	19	1	0	0	0	0	5	11	9
OTU 94	282	72	73	5	6	5	102	19	4	14	74	467	45	66	27	130	40	95	307	52	18	14	48	209	73	31	10	16	30	54	147	36	132	8	47	9	43	111	120	130	131	100	447	28	9	161	83	70	196	37
OTU 95	5	0	1	0	0	10	49	0	11	8	1	0	0	3	4	3	25	2	0	3	0	0	9	135	0	14	1	0	4	2	0	4	0	1	0	2	0	1	11	0	16	1	11	15	0	33	0	2	0	0
OTU 96	0	0	4	0	0	0	0	0	0	0	0	5	0	0	1	29	0	1	0	0	3	0	0	0	0	0	0	6	0	0	0	0	6	2	0	0	0	0	1	0	0	62	0	0	10	13	4	0	0	0
OTU 97	0	2	2	1	0	4	53	0	826	0	0	0	49	184	0	38	34	42	1	0	58	1	0	5	0	31	2	0	10	0	0	29	0	0	0	1	123	0	10	0	110	0	0	10	4	559	0	0	0	0
OTU 98	12	8	32	0	6	2	9	144	21	22	0	0	40	0	1	369	7	15	1	10	6	2	1	24	1	20	14	0	0	0	132	260	0	32	2	157	3	0	56	0	0	0	0	0	15	1	2	36	3	25
OTU 99	73	40	30	14	122	5	29	42	23	2	55	66	11	125	26	60	15	234	225	2	117	1	31	80	48	2	6	29	235	40	55	43	71	18	22	54	20	12	37	29	73	149	382	29	27	90	24	14	97	20
OTU 100	50	12	1	0	1	0	24	0	0	77	2	14	90	0	0	0	16	35	8	1	5	45	1	64	1	0	0	0	7	329	0	0	64	3	0	31	20	0	16	1	21	58	3	6	5	41	14	42	95	1
OTU 101	0	0	0	20	3	0	46	0	0	0	0	0	25	0	35	0	28	0	1	0	14	0	1	0	0	57	26	0	0	2	16	0	0	0	0	0	0	0	2	14	0	0	0	0	0	1	0	0	0	0
OTU 102	0	0	0	1	1525	0	0	0	22	1	0	5	0	0	0	0	0	10	1	1	0	0	10	3	0	10	0	1	0	0	0	4	31	0	8	0	18	16	15	4	3	9	0	1	2	3	0	1	8	0
OTU 103	7	10	48	0	23	5	32	20	15	8	12	5	3	153	1	45	18	2	18	0	72	6	0	20	14	1	1	8	2	1	2	64	8	31	7	32	2	98	11	0	3	36	0	17	2	1	6	1	10	15
OTU 104	62	49	10	64	26	143	21	1397	27	56	69	51	18	35	115	89	11	190	1	5	3519	42	4	93	33	124	82	71	38	2	144	4	66	4	27	47	7	25	27	47	98	15	44	11	237	106	1458	24	33	19
OTU 105	0	0	1	0	76	4	0	11	0	0	59	0	3	59	1	0	0	5	17	6	8	1	27	144	8	24	10	0	37	0	0	30	0	0	0	1	9	3	27	41	0	0	0	0	2	35	18	1	0	6
OTU 106	15	1	0	0	1	3	0	0	1	1	1	40	3	0	0	1	0	20	2	0	1	1	0	33	0	2	0	0	0	11	0	0	58	0	4	0	0	1	0	1	0	0	0	0	21	0	5	0	0	0
OTU 107	19	27	733	0	24	5	6	74	2	54	19	163	7	2	3	33	3	16	3	231	9	28	40	1	58	31	0	8	0	0	2	204	1	1	0	61	19	7	80	0	110	0	1	331	0	0	1	0	0	97
OTU 108	8	346	87	1	3	7	14	22	2	3	7	37	0	8	0	1	7	2	41	33	2	2	234	0	29	29	184	0	20	21	11	3	19	9	102	0	0	262	0	14	15	14	1	157	28	0	51	139	30	3
OTU 109	0	0	0	0	0	0	0	0	0	1	0	0	0	0	0	0	0	0	0	0	0	0	0	0	0	0	0	0	0	0	0	0	2	0	8	0	0	25	0	0	0	0	0	0	0	0	0	0	0	0
OTU 110	0	75	15	24	0	12	34	12	6	161	7	18	6	3	49	83	14	61	0	7	2	78	0	46	25	128	28	2	0	647	105	40	48	8	17	51	22	3	19	6	26	81	42	1	1	26	9	94	0	3
OTU 111	3	12	0	0	1	0	0	0	0	0	0	0	0	3	0	0	0	0	0	0	0	0	10	51	3	0	1	0	19	2	20	1	9	0	3	0	0	0	0	21	40	203	9	0	2	0	0	0	3	0
OTU 112	11	0	3	0	1	0	18	0	1	13	0	1	0	5	1	85	12	8	71	0	1	2	0	15	0	6	16	4	25	105	0	0	1	1267	1	2	4	0	0	0	19	0	34	32	0	4	13	3	20	0
OTU 113	3	0	0	0	0	0	0	26	0	0	0	0	2	0	1	0	0	0	3	2	0	0	0	0	9	1	1	0	28	0	9	35	27	0	0	13	5	0	26	0	50	0	0	0	0	0	0	0	0	1
OTU 114	0	96	76	52	43	275	32	4	57	67	16	41	16	30	65	44	20	24	17	1	2	12	7	56	245	10	70	1	83	43	83	11	1	70	61	3	24	43	193	64	45	59	43	18	42	23	14	159	19	69
OTU 115	35	77	61	30	46	136	129	73	63	43	45	81	5	49	49	227	62	82	4	38	23	24	74	49	26	119	88	1	69	31	18	118	87	79	78	11	21	120	28	3	53	30	16	4	1094	36	465	22	85	14
OTU 116	26	22	1	6	22	13	104	62	116	4	5	55	7	54	33	98	54	11	8	17	11	2	0	3	182	51	60	16	144	78	393	138	163	36	13	71	9	38	69	41	1050	19	46	218	24	21	20	99	38	22
OTU 117	57	1	45	2	70	4	77	13	24	0	21	22	20	3	15	5	35	15	1242	48	35	3	81	26	0	30	4	7	7	182	226	37	23	10	0	2749	0	0	0	2	94	10	17	57	24	11	27	9	53	9
OTU 118	7	0	0	21	1	74	21	0	0	0	0	7	0	0	23	0	8	1	0	8	0	0	5	0	0	0	1	15	0	2	0	0	0	0	3	0	0	20	1	0	0	0	0	0	25	0	0	1	0	0
OTU 119	40	20	9	24	41	57	12	19	102	1	3	105	2	16	38	92	10	1087	72	1	21	0	14	49	160	16	1	5	16	37	61	6	80	53	54	4	0	79	144	49	13	25	20	24	8	3	6	4	51	38
OTU 120	12	33	0	0	4	0	0	0	0	7	3	114	2	6	0	10	0	0	3	1	0	2	11	0	0	0	1	167	0	51	1	11	29	16	13	0	17	2	0	1	0	114	5	0	0	2	0	6	0	0
OTU 121	2	1	29	67	64	39	20	5	47	19	102	166	18	6	95	19	6	6	34	0	7	22	3	36	0	23	0	19	38	25	8	2	65	81	1641	0	6	3	2	46	97	40	142	1	15	124	1	4	11	0
OTU 122	46	21	45	2	17	54	11	9	32	17	7	35	16	157	8	38	9	0	5	8	21	16	107	22	0	25	9	23	17	98	174	21	2	5	127	19	13	254	37	43	27	148	11	5	8	19	14	1	0	46
OTU 123	215	1995	770	22	126	47	70	25	261	31	86	151	33	228	71	56	26	250	20	3398	57	10	125	443	102	236	200	69	38	361	164	50	1320	124	31	19	145	122	363	28	354	64	102	3640	27	93	26	1253	484	193
OTU 124	4	1	12	2	19	0	12	1	0	86	43	5	106	8	23	18	6	0	0	0	1	26	35	0	9	0	0	11	0	0	52	0	37	6	0	2	5	0	82	9	14	0	1	0	1	1	14	12	58	89
OTU 125	45	67	32	355	174	294	173	764	6	91	112	217	100	299	659	106	85	44	77	18	62	44	228	100	511	29	255	92	54	115	166	1069	185	626	53	529	37	76	488	31	570	59	151	26	74	73	50	128	155	189
OTU 126	7	10	0	60	0	0	0	0	0	285	0	0	218	6	176	0	0	0	0	1	0	157	0	0	0	2	81	11	1	5	0	0	6	0	0	5	0	0	0	0	9	2	0	0	0	0	0	0	0	0
OTU 127	208	1	39	14	0	1	0	705	163	0	36	117	28	2	31	3	0	26	50	0	25	0	24	10	22	85	21	0	3	0	5	1278	12	33	0	594	13	0	84	1	40	2	14	8	19	5	0	3	80	235
OTU 128	228	796	131	31	100	140	175	219	198	87	131	379	81	229	49	693	85	181	331	60	87	1413	417	87	295	344	414	72	272	27	125	315	1687	55	1584	234	93	9	246	94	173	114	654	91	75	47	57	143	104	88
OTU 129	0	0	0	0	0	118	3	0	0	0	0	0	15	0	0	0	3	4	0	2	0	0	0	0	0	0	0	0	0	0	0	8	12	5	0	0	71	0	0	0	3	12	41	1	0	12	7	0	0	0
OTU 130	32	10	15	0	188	168	5	0	5	0	12	140	6	1	0	0	5	201	85	18	7	2231	189	140	1	1597	3	8	34	11	16	0	0	121	98	0	29	89	52	797	0	10	5	21	19	1	229	22	0	57
OTU 131	30	161	87	38	376	1	2	5	43	5	11	25	76	36	42	2614	1	29	128	17	13	0	69	0	2210	26	9	1	297	14	135	27	6	20	23	23	23	33	26	155	5	92	147	34	8	73	438	353	116	6
OTU 132	42	6	0	0	212	17	3	3	3	1	1	5	1	8	4	7	999	0	1	0	13	0	88	6	0	89	1	1	15	110	19	24	1	18	56	8	0	62	31	0	0	113	0	16	2	0	0	4	9	4
OTU 133	4	46	0	0	46	1	0	0	0	13	1	10	0	34	2	9	0	0	0	0	34	1	0	7	9	0	2	1	1	46	11	0	15	5	8	0	0	9	0	0	2	0	21	0	15	5	0	0	0	1
OTU 134	50	44	1	0	10	3	162	7	5	90	7	0	69	0	11	21	108	0	35	0	5	33	7	1	121	10	195	7	71	12	50	3	59	52	24	6	0	18	5	1	32	0	34	1	57	16	2	7	4	25
OTU 135	18	3	1	46	226	11	4	23	128	73	20	2	38	22	84	25	2307	5	2	4	32	29	1	39	17	0	5	4	82	82	297	5	31	35	98	6	0	58	4	39	0	172	9	46	42	13	4	10	1	5
OTU 136	66	26	1	1	3	43	2	275	0	2	7	45	0	13	4	0	0	11	2	0	0	2	96	14	37	2	73	18	34	116	28	437	26	1	80	275	22	53	10	2	74	19	7	3	8	0	0	0	21	9
OTU 137	1	0	1	601	0	1	0	352	0	45	0	1	0	18	8	569	0	2	14	0	0	17	26	0	70	0	2	0	0	51	101	701	0	14	0	416	8	0	54	2	60	2	4	0	0	0	49	0	0	22
OTU 138	21	0	3	40	0	3	4	0	0	7	48	0	5	3	73	85	1	0	0	0	0	4	37	0	0	55	0	11	0	17	129	11	2	10	32	0	1	41	18	13	0	16	0	5	16	0	42	8	27	0
OTU 139	32	60	1176	404	5	27	80	23	98	380	95	229	177	67	768	57	42	27	291	701	53	192	13	131	46	55	168	177	240	78	136	71	167	42	24	16	2	32	140	47	114	563	752	965	3	58	65	16	615	63
OTU 140	478	19	16	38	194	176	427	19	404	21	47	133	5	385	62	49	223	25	53	28	113	30	45	26	63	62	150	54	115	81	675	32	142	32	22	9	489	82	23	18	235	114	31	22	20	324	11	37	48	22
OTU 141	0	3	0	0	0	24	0	0	0	0	0	0	0	7	2	0	0	0	0	0	10	0	57	0	49	0	0	0	0	21	0	0	0	0	0	0	0	0	0	0	0	0	0	0	0	0	0	0	0	0
OTU 142	0	0	0	0	0	0	0	0	14	0	0	0	0	0	0	0	0	0	0	0	0	0	0	0	13	7	1	0	0	0	0	0	0	0	0	1	7	0	0	0	0	0	0	0	0	2	3	0	0	0
OTU 143	0	13	0	1	1	1	31	0	1	24	0	0	4	23	0	0	15	5	2	0	2	4	3	3	0	11	9	0	24	13	19	1	0	63	48	0	0	1	0	0	0	9	0	0	0	0	12	8	1	6
OTU 144	4	0	3	0	21	2	0	0	5	0	0	1	0	4	0	0	0	0	0	2	0	1	0	3	1	1	0	40	0	3	26	18	25	0	0	12	0	1	0	0	26	60	0	0	1	6	16	0	0	2
OTU 145	98	0	10	2	2	0	10	15	151	35	38	9	54	219	1	11	2	2	3	6	102	22	57	7	1	44	65	0	110	13	108	6	1	122	17	0	32	35	11	71	15	74	215	8	1	30	14	11	0	6
OTU 146	6	15	5	3	9	52	0	38	27	47	30	0	0	69	0	0	0	41	120	13	55	37	2	21	80	33	3	66	2	11	1	76	48	4	12	32	5	41	121	91	22	100	4	24	208	0	68	48	1	21
OTU 147	6	0	0	12	4	0	8	4	56	0	1	55	11	23	8	84	3	0	5	2	13	0	52	0	2	51	31	1	8	0	16	3	116	2	13	5	0	0	13	8	0	14	0	1	2	0	0	2	0	2
OTU 148	0	1	12	30	0	5	57	25	14	1	39	1007	0	124	59	10	26	88	1	16	32	2	84	80	41	6	26	1	53	152	11	34	59	59	69	51	112	87	25	294	3	0	1	7	31	173	146	4	53	4
OTU 149	6	3	3	1	0	0	0	10	0	19	0	24	0	8	1	9	0	1	2	1	0	3	0	3	3	12	0	0	20	56	1	14	1	0	9	25	0	20	90	0	1	0	19	8	0	9	0	0	56	39
OTU 150	1	0	0	0	13	6	3	32	2	0	0	14	0	1	1	0	1	0	0	1	11	13	3	0	47	30	20	8	2	11	23	35	1	2	6	40	1	22	0	0	0	0	0	0	16	1	0	0	17	0
OTU 151	26	0	1	6	0	7	7	2	0	3	5	3	14	10	18	3	5	0	659	1	0	0	0	5	15	10	1	11	0	26	8	2	476	0	2	18	0	15	66	12	108	0	4	15	10	9	1	2	15	56
OTU 152	182	0	0	12	17	42	0	10	37	42	11	58	36	93	18	10	0	0	1	6	72	17	5	96	27	9	178	47	11	17	49	0	0	15	16	2	0	4	61	28	48	4	19	1	18	40	0	6	22	21
OTU 153	0	0	1	0	2	0	0	0	12	0	0	7	0	25	0	0	0	3	0	0	5	0	0	6	0	1	0	0	31	0	0	0	0	6	0	0	0	0	0	1	0	0	0	0	0	1	0	3	0	0
OTU 154	0	0	0	0	0	0	0	1	6	0	1	0	0	0	0	0	0	0	0	0	0	1	0	0	0	0	3	0	0	0	0	0	0	26	0	0	1	0	0	0	0	9	0	0	0	0	0	0	264	0
OTU 155	0	0	0	4	31	555	33	308	3	53	56	0	13	61	9	86	20	0	15	0	8	19	5	1	19	23	23	6	41	0	85	0	8	142	46	1	6	137	67	3	11	0	2	0	4	0	11	45	0	3
OTU 156	25	8	6	4	256	8	103	4	235	52	41	68	22	65	11	10	46	21	2	17	28	14	110	119	24	39	6	52	135	60	74	35	132	17	13	0	15	150	9	108	282	9	48	8	14	123	51	17	28	5
OTU 157	48	0	0	96	347	67	3	0	7	6	4	2	42	1	174	0	2	71	0	1	0	9	0	168	33	59	8	2	0	1	1	0	5	4	1	1	0	19	4	0	0	1	5	2	0	6	4	4	316	5
OTU 158	2	0	0	0	2	3	0	0	0	0	14	66	2	0	0	0	0	0	0	0	0	1	11	0	0	0	0	0	0	0	0	0	0	0	0	0	0	0	0	0	0	0	0	17	0	0	0	7	0	0
OTU 159	15	7	22	0	22	1	7	6	201	10	3	19	6	2	0	42	5	31	1	21	9	1	16	25	0	5	13	2	36	0	37	11	125	12	24	13	11	10	4	13	9	31	8	13	23	1	1	9	0	2
OTU 160	68	159	10	90	44	29	34	202	71	75	256	14	32	134	132	211	13	45	5	32	1336	48	374	423	361	81	42	42	164	324	227	398	94	244	127	201	63	341	695	58	101	128	7	13	50	153	61	45	65	363
OTU 161	75	2	14	29	34	199	0	1	7	23	8	65	36	2	52	50	0	6	0	35	0	12	7	3	16	34	5	47	0	52	6	0	48	48	7	0	0	61	9	0	75	1	10	28	6	9	6	3	16	2
OTU 162	0	41	0	23	207	29	248	10	5	148	22	280	62	17	35	0	112	10	43	0	3	65	3	453	41	26	61	43	6	13	16	16	14	4	4	206	0	4	132	8	1	4	23	23	5	19	2	42	3	41
OTU 163	0	0	0	0	0	3	0	0	0	0	0	0	0	0	0	0	0	0	0	0	1	0	0	0	3	0	0	0	0	79	0	0	0	0	0	0	0	0	0	0	0	0	3	0	0	0	0	0	0	0
OTU 164	0	0	0	0	0	0	0	0	0	0	0	0	0	0	0	0	0	0	0	0	0	0	0	0	0	0	0	0	0	0	0	0	1	0	0	0	0	0	0	0	0	0	0	0	0	0	0	0	0	0
OTU 165	5	13	0	0	18	6	5	0	54	0	4	0	19	27	1	18	3	16	6	15	6	0	0	0	33	38	8	0	180	16	1	3	10	71	0	0	2	5	78	1	0	8	15	0	3	2	34	14	30	28
OTU 166	0	0	0	0	0	0	0	0	0	0	5	0	0	0	0	0	0	0	0	0	0	0	0	0	0	16	0	0	0	0	0	1	0	0	0	0	0	0	0	0	0	0	0	0	0	0	0	0	0	0
OTU 167	0	5	1	0	0	36	0	5	3	43	22	0	0	2	0	2	0	15	6	1	13	9	8	8	0	64	48	15	2	3	0	7	19	67	14	10	1	15	0	1	30	0	4	1	62	50	4	0	0	0
OTU 168	4	0	1	31	24	78	54	1729	0	0	15	118	42	8	43	1	26	96	44	0	19	3	0	27	77	69	25	16	6	19	376	25	107	3	10	4	0	6	52	169	33	2	111	0	28	1	18	18	33	11
OTU 169	1	32	0	3	0	2	0	0	0	14	0	0	1	5	8	0	0	0	0	0	37	0	0	0	0	12	0	0	0	0	1	0	137	5	12	0	0	0	55	0	29	0	32	0	1	0	0	0	8	53
OTU 170	0	0	0	0	0	0	0	0	0	0	0	0	0	0	0	0	0	0	0	0	0	0	0	0	0	0	0	0	1	23	0	0	0	0	0	16	0	0	0	0	0	0	1	0	0	0	0	0	13	0
OTU 171	0	5	353	1	36	184	87	41	0	4	2	29	6	61	2	21	41	36	0	345	46	1	0	18	1	6	6	0	16	21	29	102	5	9	2	94	21	9	37	23	40	2	31	123	12	257	13	1	21	20
OTU 172	0	47	0	2	7	56	0	0	0	2	0	0	1	0	0	0	0	2	0	0	2	0	0	0	0	0	0	0	89	0	18	0	1	0	0	2	5	0	0	2	1	13	0	0	0	0	0	1	0	2
OTU 173	1	1	4	32	1	0	1	21	1	0	0	106	10	12	78	0	0	0	7	0	11	0	1	9	32	0	2	0	81	18	2	137	4	22	3	23	0	36	0	9	0	0	7	0	11	2	15	0	4	11
OTU 174	9	5	4	400	62	0	20	3	21	105	1	267	200	6	753	12	11	4	5	10	0	38	1	6	0	12	0	131	0	24	1	26	2	33	16	12	2	13	6	7	32	15	0	0	1	0	0	3	53	3
OTU 175	0	1	0	0	22	1	2	0	0	14	27	0	0	64	0	1	0	30	5	7	13	2	35	0	0	0	10	105	41	1	15	2	0	3	0	0	10	4	21	3	7	46	7	2	17	1	4	3	9	0
OTU 176	43	96	20	12	10	9	41	3	74	90	0	38	3	2	18	17	22	22	78	47	10	877	6	9	8	12	14	5	49	78	156	28	30	11	13	2	9	28	18	290	4	250	47	3	10	93	152	68	165	13
OTU 177	5	35	72	10	47	133	12	9	17	38	92	0	82	2	3	19	4	15	15	0	1	35	26	8	13	7	94	12	1	37	34	9	22	2	18	35	30	91	5	42	29	24	8	3	6	3	39	5	53	1
OTU 178	0	10	0	0	0	22	2	26	6	11	2	7	3391	79	0	0	0	5	35	10	18	10	8	3	0	2	5	1	790	140	13	38	88	15	1	31	16	8	0	1	7	149	15	4	1	0	2	25	38	0
OTU 179	4	16	10	7	1	18	8	23	6	0	5	57	0	2	3	33	3	1540	12	23	1	0	36	1	16	98	21	2	0	134	0	6	25	14	17	0	4	9	8	7	10	4	0	8	25	2	24	0	34	3
OTU 180	259	125	45	82	64	95	70	74	581	7	3064	91	32	119	84	238	40	392	132	15	88	17	42	18	697	228	2600	11	92	58	30	232	124	175	178	163	210	186	1397	134	141	115	287	10	673	227	77	74	136	855
OTU 181	23	77	11	0	18	33	2	7	2	33	116	4	5	0	0	27	4	1	5	0	18	11	8	179	1	67	7	21	41	34	13	0	39	13	17	7	6	47	27	13	6	19	74	9	1	37	1	3	295	6
OTU 182	0	0	0	0	0	0	0	0	0	14	0	0	0	0	0	0	0	0	0	0	0	6	1	0	0	14	0	0	1	0	0	0	0	12	0	0	1144	0	0	0	0	0	0	0	0	10	0	0	0	0
OTU 183	5	4	3	5	2	2	6	0	27	253	8	281	20	0	10	0	6	75	0	11	3	113	53	10	10	270	2	50	1	20	0	0	39	13	0	1	5	0	27	0	3	1	1	16	1	0	28	18	19	8
OTU 184	12	4	0	0	15	25	2	2	12	0	1	0	4	17	2	3	0	23	3	15	0	0	0	3	0	6	19	16	21	14	3	1	0	17	9	1	4	0	20	0	1	3	123	0	13	4	5	36	6	0
OTU 185	74	4	47	0	0	193	46	1	282	2	4	9	153	361	1	45	24	88	102	4	172	3	5	9	114	5	0	1130	165	12	12	10	1	194	10	6	5	7	18	17	36	6	212	14	4	77	39	541	0	3
OTU 186	97	1	45	0	1	3	25	0	1	0	8	53	22	45	0	5	11	0	32	1	3	0	0	1	19	68	24	16	0	14	14	0	2	1	13	2	0	28	0	0	29	0	1	2	0	0	7	0	0	0
OTU 187	101	14	28	38	26	24	41	5	77	8	87	21	59	109	62	46	489	192	14	6	54	1	203	13	29	112	45	63	18	21	90	14	79	19	324	2	20	93	54	158	22	3	32	58	142	17	142	13	198	56
OTU 188	61	25	3498	79	23	133	87	17	4	65	23	24	23	40	132	41	37	38	36	1739	29	19	24	164	131	176	7	36	106	31	98	13	38	199	33	20	28	59	45	73	226	70	169	1712	1	8	9	27	362	48
OTU 189	0	2	17	6	3	38	41	13	166	7	47	380	42	44	54	61	26	30	21	3	39	172	75	46	0	6	0	7	0	63	83	26	29	37	20	2	32	26	21	20	92	3	149	31	21	67	8	105	88	16
OTU 190	0	8	2	0	46	4	5	0	0	0	33	0	0	0	0	0	2	0	153	0	0	0	19	0	68	0	0	0	1	9	0	0	0	5	35	0	0	114	2	0	25	21	746	0	0	28	1	34	0	0
OTU 191	29	4	14	19	56	25	5	60	12	2	39	89	15	94	11	11	1	46	30	3	106	0	1	147	42	19	270	4	18	301	0	122	63	1089	103	33	4	12	27	55	1	121	9	3	215	58	34	0	28	26
OTU 192	155	68	15	6	135	82	78	9	39	31	96	18	23	23	27	10	33	12	33	43	33	11	255	68	49	4	4	7	40	53	6	53	37	13	3	3	347	14	46	726	28	127	63	3	83	537	192	3	277	33
OTU 193	73	31	0	15	3	646	9	14	0	90	20	52	5	12	17	5	5	16	51	5	0	14	225	101	22	35	1	8	560	8	84	34	7	422	146	352	0	195	2	15	3	2	15	16	2	4	7	1	148	0
OTU 194	3	74	3	0	46	21	1	0	0	119	0	3	87	6	2	12	1	18	0	0	13	50	5	60	9	0	26	4	0	1	31	0	18	13	0	14	4	0	6	10	4	3	27	0	0	5	0	25	0	15
OTU 195	28	5	1	0	107	21	14	7	30	40	14	0	11	16	0	0	7	39	29	9	2	17	0	2	2	28	47	21	1	166	86	25	52	0	0	0	43	18	35	8	0	5	16	0	0	24	3	1	2	10
OTU 196	1	20	20	0	38	7	2985	0	1	23	109	10	3	3	0	42	1500	15	0	574	1	32	0	69	2	0	9	0	110	19	26	0	13	25	11	0	44	62	78	0	0	11	0	0	0	120	9	14	24	58
OTU 197	61	29	45	9	43	41	422	21	6	45	1551	66	46	79	20	98	229	35	8	15	34	12	71	120	34	0	1	29	28	146	58	67	80	35	37	17	3	117	222	75	109	425	15	7	715	15	21	8	170	42
OTU 198	0	45	13	6	0	1	0	0	35	35	41	15	48	0	7	0	0	6	0	10	0	23	8	0	0	0	0	24	21	7	0	5	1	62	13	9	0	0	5	0	127	0	0	3	19	0	1	14	0	0
OTU 199	5	2	1	0	3	6	2	2	15	27	3	13	1	7	0	7	1	38	3	0	1	9	0	0	31	42	68	0	0	0	26	0	2	29	0	0	0	0	0	0	12	1	1	8	68	0	10	22	12	0
OTU 200	13	6	0	46	271	23	3	1	9	11	11	50	13	18	105	11	1	0	24	1	28	2	1	23	19	5	17	5	22	18	39	0	6	24	48	10	7	93	0	3	48	31	8	151	34	26	10	7	188	1
