	Host 1	Host 2	Host 3	Host 4	Host 5	Host 6	Host 7	Host 8	Host 9	Host 10	Host 11	Host 12	Host 13	Host 14	Host 15	Host 16	Host 17	Host 18	Host 19	Host 20	Host 21	Host 22	Host 23	Host 24	Host 25	Host 26	Host 27	Host 28	Host 29	Host 30	Host 31	Host 32	Host 33	Host 34	Host 35	Host 36	Host 37	Host 38	Host 39	Host 40	Host 41	Host 42	Host 43	Host 44	Host 45	Host 46	Host 47	Host 48	Host 49	Host 50	
OTU 1	0	17	0	0	0	0	0	22	11	0	0	24	0	13	0	0	0	0	3	0	0	7	1	15	0	0	0	12	22	1	7	0	5	0	0	0	9	12	13	13	31	0	0	7	25	0	0	4	0	6
OTU 2	1	0	0	0	0	0	0	1	0	0	0	0	0	0	1	2	0	0	0	0	0	0	0	0	0	0	0	0	0	0	0	0	1	0	0	0	0	0	0	0	0	2	0	0	0	0	0	0	1	0
OTU 3	0	0	0	0	1	0	0	0	0	0	0	0	0	0	0	0	0	0	0	0	0	0	1	0	0	0	0	0	0	1	0	1	1	0	0	0	0	0	0	0	0	0	0	1	0	1	0	0	0	0
OTU 4	0	0	0	0	0	0	0	0	0	0	0	0	0	0	0	0	0	0	0	0	0	0	0	0	0	0	0	0	0	0	0	0	0	0	0	0	0	0	0	0	0	0	0	0	0	0	0	0	0	0
OTU 5	6	4	21	0	17	0	0	24	3	0	11	9	24	15	64	46	8	3	34	7	2	22	35	3	0	12	14	2	8	83	8	2	10	4	1	14	4	0	11	17	17	13	20	16	9	6	0	14	5	69
OTU 6	0	0	0	2	0	0	0	0	0	1	0	0	1	1	0	0	2	0	0	3	0	0	0	0	0	1	0	0	0	0	0	0	0	10	0	0	0	1	0	0	0	0	0	0	18	1	1	0	0	0
OTU 7	4	1	2	0	1	0	0	0	0	0	3	0	1	0	0	1	0	3	0	0	0	1	1	0	2	1	2	0	21	5	17	4	7	0	1	9	17	9	0	20	1	0	3	2	0	0	0	9	0	1
OTU 8	1	4	1	1	0	1	1	0	1	1	2	7	1	5	4	5	1	111	0	3	0	2	159	0	6	1	1	0	2	0	0	1	0	0	0	7	0	1	3	2	1	0	7	3	3	1	1	1	1	0
OTU 9	1	1	0	1	0	0	7	0	0	0	0	0	0	0	0	0	0	0	3	0	0	0	0	0	0	0	0	0	0	0	0	1	0	0	0	0	0	2	0	0	0	0	0	0	0	0	0	0	0	0
OTU 10	0	0	1	0	282	0	1	0	0	3	0	0	0	0	3	1	3	1	1	0	1	0	0	0	0	0	0	0	0	0	18	0	3	0	0	3	0	0	1	31	0	0	0	0	0	0	0	11	0	0
OTU 11	0	2	0	1	0	0	0	2	0	0	0	0	0	0	0	0	0	2	0	6	1	2	1	0	1	0	0	0	0	0	1	5	0	1	0	0	0	0	0	0	2	0	4	0	0	0	3	0	3	0
OTU 12	0	0	2	0	6	0	2	0	3	0	1	0	0	0	0	5	0	0	0	0	2	0	1	1	0	0	0	0	1	1	1	2	0	0	0	0	0	1	0	0	0	0	0	1	0	1	1	1	18	0
OTU 13	0	2	0	3	0	0	0	0	0	0	0	0	0	0	0	0	0	0	0	0	0	0	0	0	0	1	0	0	0	2	0	0	0	0	0	0	0	0	0	0	0	0	0	2	0	0	0	0	1	0
OTU 14	0	0	0	0	0	0	0	1	0	0	0	0	0	0	1	0	0	0	0	0	0	0	1	0	2	0	0	1	0	0	0	0	0	0	1	0	0	0	0	0	2	0	0	1	0	0	0	0	0	0
OTU 15	0	0	0	0	0	0	0	0	0	0	0	0	0	0	0	0	0	1	1	0	0	0	0	0	0	0	3	3	0	0	0	0	0	0	0	0	0	0	0	0	0	0	0	0	0	0	0	0	1	0
OTU 16	0	0	0	0	0	0	1	0	0	0	0	0	0	0	0	0	0	0	0	0	0	0	0	0	0	0	0	0	0	0	0	0	0	0	0	0	0	0	0	0	0	0	0	0	0	0	0	0	0	0
OTU 17	0	0	0	0	0	0	0	0	1	0	0	0	12	0	0	2	0	0	0	1	0	0	1	0	0	0	2	0	0	0	0	0	0	0	0	0	0	0	0	0	0	0	0	1	0	0	0	0	0	0
OTU 18	5	1	0	0	1	1	0	0	0	1	0	0	1	0	0	0	0	0	0	1	1	0	0	0	3	1	0	0	1	1	0	1	0	0	0	2	1	3	4	0	1	4	1	0	0	3	1	0	0	2
OTU 19	0	0	0	0	0	0	0	0	0	0	0	0	0	0	0	0	0	0	0	0	0	0	0	0	0	0	0	0	0	0	0	0	0	0	0	0	0	0	0	0	0	0	0	0	0	0	0	0	0	0
OTU 20	0	0	0	2	2	4	0	0	0	0	0	0	0	0	0	2	0	0	0	0	0	0	0	0	1	3	2	0	2	0	0	0	0	1	0	0	1	0	0	0	0	0	3	1	0	0	0	2	0	0
OTU 21	0	2	0	2	3	0	1	0	1	1	2	1	0	0	1	0	0	0	0	0	0	0	0	0	19	0	0	0	0	0	0	0	1	0	0	0	0	0	1	0	0	0	0	0	0	3	0	0	0	0
OTU 22	0	0	1	0	2	0	0	1	1	0	0	0	4	2	0	1	19	0	0	0	0	4	0	1	0	0	0	0	0	0	0	1	0	207	0	3	0	1	0	0	0	6	9	0	1	0	1	1	0	0
OTU 23	0	0	0	0	0	0	1	0	1	0	1	0	0	0	2	2	0	0	0	0	0	0	0	0	0	0	0	0	0	0	1	0	0	0	2	0	0	0	0	0	0	0	0	0	0	0	0	0	0	0
OTU 24	0	0	0	0	0	8	0	0	3	0	0	0	0	0	0	0	0	0	0	0	2	0	0	0	0	0	0	0	0	0	0	1	1	1	0	0	0	0	1	0	0	0	1	0	0	0	1	0	0	0
OTU 25	0	0	0	0	0	0	0	0	0	0	0	0	0	0	0	0	0	0	0	0	0	0	0	0	0	5	0	0	0	0	0	0	0	0	0	0	0	0	0	0	0	0	0	0	0	0	0	0	0	0
OTU 26	0	0	0	2	1	4	0	0	0	0	0	1	0	1	0	0	0	0	0	0	0	0	0	0	0	0	0	0	0	0	0	0	0	0	0	1	0	3	0	0	0	0	0	0	2	0	0	0	0	0
OTU 27	0	0	1	0	0	0	0	0	0	0	0	0	0	0	0	0	0	0	0	0	0	0	0	0	0	0	0	0	0	0	0	0	0	0	0	0	0	0	0	0	0	0	0	0	0	0	0	0	0	0
OTU 28	4	0	0	0	2	1	0	2	0	0	1	1	0	2	0	13	15	0	0	0	0	4	1	1	2	0	8	0	2	1	0	0	0	1	0	2	1	0	0	0	2	0	0	0	0	0	1	0	4	0
OTU 29	0	1	1	0	0	0	0	0	0	0	0	1	0	0	0	2	9	1	0	2	3	0	0	1	0	0	1	2	0	5	0	3	0	3	0	1	2	0	2	0	0	4	3	0	0	5	84	0	2	0
OTU 30	0	0	0	0	0	0	0	0	0	0	0	0	0	0	0	0	0	0	0	0	0	0	0	0	0	0	0	0	0	0	0	0	0	0	0	0	0	0	0	0	0	0	0	0	0	0	0	0	0	0
OTU 31	0	0	0	0	0	0	0	1	0	1	0	1	0	0	0	0	0	1	0	0	0	0	0	0	0	1	0	0	104	0	28	0	6	0	0	0	57	49	0	59	0	0	0	1	0	0	3	17	0	0
OTU 32	0	1	1	1	1	2	0	0	18	2	3	1	0	1	1	0	4	1	0	0	2	0	5	1	1	0	0	0	1	1	0	0	1	3	0	0	1	0	38	0	16	21	3	3	0	0	3	0	1	24
OTU 33	0	0	0	0	0	0	0	0	0	0	0	0	0	0	0	0	4	1	0	0	0	0	0	0	0	0	0	0	0	0	0	0	0	0	0	0	0	0	0	0	0	0	0	0	0	0	0	0	0	1
OTU 34	0	0	1	1	0	0	0	0	0	0	2	0	0	0	0	0	0	0	0	0	3	0	1	1	0	1	0	0	2	0	2	0	0	1	0	0	0	0	0	0	0	0	0	0	0	0	1	0	0	0
OTU 35	0	0	0	0	0	0	0	0	0	0	0	0	0	0	0	0	0	0	0	0	0	0	1	0	0	1	0	0	0	1	0	2	0	0	0	0	0	0	0	0	1	0	0	0	0	0	0	0	0	0
OTU 36	1	0	1	0	0	0	0	2	0	0	3	0	0	0	0	1	0	1	0	0	1	0	2	0	0	0	1	0	0	2	1	0	0	0	0	0	0	1	0	0	0	0	1	0	0	0	0	0	0	0
OTU 37	0	0	0	0	0	0	0	0	0	1	0	0	0	0	0	0	1	0	0	0	1	0	1	0	0	0	0	0	0	0	0	0	0	0	0	0	0	0	0	0	0	0	0	0	0	0	0	0	1	1
OTU 38	0	25	0	0	0	0	1	59	8	1	2	61	0	16	0	0	2	1	24	17	0	31	0	31	0	2	1	16	10	0	7	0	2	2	0	0	4	10	30	9	12	3	0	12	42	6	1	7	0	16
OTU 39	2	0	0	0	1	0	0	0	0	0	144	0	0	0	0	0	0	1	0	0	3	0	0	0	0	0	1	0	0	0	0	0	0	0	0	0	0	0	0	0	0	0	0	1	0	1	0	0	0	0
OTU 40	0	0	0	0	0	3	1	2	2	0	0	0	2	0	0	0	1	0	1	1	0	1	0	0	1	216	6	1	2	3	0	0	63	0	0	2	2	0	0	2	0	0	1	0	0	0	1	116	2	0
OTU 41	1	0	0	0	2	1	23	0	0	0	1	0	0	0	0	3	1	0	0	1	0	0	2	0	0	0	0	0	0	6	0	1	0	0	1	1	3	1	1	0	0	0	1	0	1	5	0	0	0	1
OTU 42	3	0	0	0	0	0	0	0	0	0	1	0	1	0	0	0	0	0	0	0	0	0	3	0	0	0	0	3	0	0	0	0	0	0	0	0	1	1	0	0	0	0	0	0	1	2	0	0	0	0
OTU 43	0	0	0	0	0	0	0	0	0	0	0	0	0	0	0	0	0	0	0	0	0	0	0	0	0	0	0	0	0	0	0	0	0	0	0	0	0	0	0	0	0	0	0	0	0	0	0	0	0	0
OTU 44	0	0	0	0	0	0	2	0	0	0	0	0	0	0	1	0	0	0	0	0	0	0	0	0	0	0	0	0	0	1	0	0	0	0	0	1	0	0	0	2	0	0	0	0	1	0	1	0	0	3
OTU 45	8	1	2	0	16	272	0	0	123	0	0	0	0	0	1	1	0	1	0	2	0	0	0	0	0	0	3	0	0	0	0	0	0	0	0	0	0	8	1	0	0	0	0	0	0	3	146	2	0	0
OTU 46	0	4	1	3	2	3	2	0	0	0	0	0	0	15	6	1	0	2	0	136	0	0	0	2	2	0	0	3	1	5	1	1	1	1	2	0	0	5	2	0	0	0	1	0	0	1	0	0	1	0
OTU 47	0	0	0	0	0	0	0	0	0	0	0	0	0	0	0	0	3	0	0	0	0	0	0	0	0	0	0	0	0	0	0	0	0	0	0	1	0	0	0	0	0	1	0	0	0	0	0	0	0	0
OTU 48	12	1	2	0	1	0	1	0	0	4	4	0	0	0	1	0	1	1	0	0	1	1	0	0	0	0	0	0	1	0	0	3	15	1	0	0	1	1	1	0	1	1	4	0	0	1	3	37	0	1
OTU 49	0	2	0	0	0	1	2	2	1	1	3	0	1	0	0	0	2	0	0	0	0	0	0	0	0	1	0	0	0	1	0	2	0	2	0	1	0	1	0	0	0	2	0	0	0	1	0	0	0	0
OTU 50	1	0	14	0	0	0	0	0	1	1	2	0	4	0	0	2	0	0	0	2	0	0	0	0	0	2	0	189	2	1	0	2	1	2	1	0	0	0	0	0	0	4	3	0	1	0	0	0	0	0
OTU 51	0	0	3	0	0	3	0	0	0	2	0	0	0	0	0	0	1	0	1	0	1	0	0	0	0	1	0	0	0	0	0	0	1	0	2	1	1	0	0	0	11	0	1	20	0	0	0	0	0	0
OTU 52	0	1	0	0	1	0	253	0	2	257	0	0	0	0	2	2	0	0	1	2	1	1	2	0	7	0	4	1	2	6	0	3	1	0	2	0	0	1	1	2	1	0	0	1	0	0	2	0	4	1
OTU 53	0	0	0	0	0	0	0	0	0	0	0	0	0	0	0	0	0	0	0	0	0	0	0	0	0	0	0	0	0	0	0	0	0	0	0	0	0	0	0	0	0	0	0	0	0	0	0	0	0	0
OTU 54	3	0	17	3	0	0	1	2	1	5	0	82	0	27	0	4	0	1	0	4	4	45	6	1	0	2	0	0	4	0	0	3	0	0	1	1	0	0	0	0	83	0	3	39	49	2	4	2	0	0
OTU 55	0	0	0	0	0	0	0	0	0	0	0	0	0	0	0	0	0	1	0	0	0	0	0	0	0	0	0	0	0	0	0	0	0	1	0	0	0	0	0	0	0	0	0	0	0	0	0	0	0	0
OTU 56	0	0	0	1	0	0	1	0	0	1	0	0	0	0	2	1	2	1	0	0	1	1	1	0	0	0	0	0	0	0	0	0	0	1	0	0	0	0	0	0	0	1	0	0	0	0	0	0	0	0
OTU 57	1	2	47	0	0	0	3	2	0	2	3	0	6	29	6	1	4	3	1	1	2	89	5	1	1	1	4	1	1	0	171	0	1	2	0	1	2	2	1	0	1	5	0	0	0	55	1	1	0	1
OTU 58	0	0	0	0	0	0	0	0	2	0	0	5	0	1	1	0	1	0	1	0	0	0	2	4	0	2	0	2	1	0	1	4	0	0	0	2	0	1	1	0	0	0	0	0	0	1	1	0	0	0
OTU 59	0	0	3	0	0	0	0	131	11	0	0	1	0	0	0	0	0	1	22	0	0	0	0	62	1	0	0	20	0	0	0	0	2	0	1	0	0	1	47	0	0	0	0	0	0	1	2	0	1	33
OTU 60	1	0	4	0	3	5	0	2	0	0	2	3	4	0	1	0	0	1	3	0	0	2	2	0	0	53	1	0	1	2	1	2	0	0	0	1	5	0	0	1	0	0	1	0	0	0	1	1	1	0
OTU 61	0	0	4	1	4	0	0	1	1	0	0	0	0	1	5	3	3	0	0	0	1	2	0	0	0	2	2	0	3	1	0	0	0	5	1	0	1	0	1	0	0	0	0	2	0	0	0	0	2	3
OTU 62	0	0	0	0	0	0	0	0	0	0	0	1	0	0	2	0	0	0	0	1	0	0	0	1	0	0	1	0	2	0	1	1	0	0	0	0	0	0	0	0	1	0	0	0	1	1	0	0	2	0
OTU 63	0	0	2	0	0	0	0	0	4	0	0	0	0	0	2	0	0	0	0	0	0	0	1	5	1	0	0	0	0	0	0	4	0	0	0	0	0	0	0	0	0	0	1	0	0	0	0	0	1	0
OTU 64	0	3	1	5	1	1	1	4	1	17	0	1	5	0	0	4	2	3	1	29	1	1	0	0	0	0	1	0	0	0	0	1	2	0	0	0	0	1	0	0	0	2	1	0	0	0	0	0	0	0
OTU 65	0	0	0	0	0	0	0	0	0	0	0	0	0	0	0	0	0	0	0	0	0	0	0	0	0	0	0	0	0	0	0	0	0	0	0	0	0	0	0	0	0	0	0	0	0	0	0	0	0	0
OTU 66	2	0	0	0	0	0	0	1	0	1	0	1	1	1	0	0	0	0	0	3	1	0	1	0	0	0	0	0	6	0	0	6	4	4	0	0	0	1	0	0	2	0	0	0	1	0	0	0	2	1
OTU 67	0	0	1	1	1	0	2	0	0	0	0	0	0	48	3	0	2	0	0	1	2	0	0	0	0	0	0	0	0	0	0	0	0	0	0	0	0	0	0	0	1	0	17	1	0	0	1	0	3	0
OTU 68	0	0	3	0	0	0	0	1	0	0	0	0	0	0	0	0	0	0	0	0	0	0	0	0	0	0	0	0	0	0	0	0	0	0	0	0	1	0	0	0	0	0	0	1	0	0	1	0	0	0
OTU 69	0	0	0	1	0	3	1	1	0	2	0	0	0	0	0	0	0	0	3	0	1	0	2	1	0	1	0	0	0	1	1	0	2	1	0	0	0	1	0	6	0	0	0	0	0	3	0	2	0	0
OTU 70	0	0	0	0	0	0	0	1	23	1	0	0	2	0	0	0	0	0	0	0	0	0	0	0	0	0	1	0	1	1	0	0	0	4	0	0	0	0	28	0	0	1	0	0	0	0	0	1	0	18
OTU 71	0	0	0	0	0	0	0	0	0	0	0	0	2	0	1	0	1	0	11	0	0	0	0	11	1	0	0	7	0	0	0	0	0	0	0	0	0	0	0	0	0	0	2	0	0	0	0	2	1	0
OTU 72	0	1	1	0	0	0	0	0	0	0	0	0	0	0	6	0	0	0	0	0	0	0	1	1	0	0	0	0	1	0	0	0	1	2	0	0	0	0	1	1	0	0	2	1	0	0	0	0	2	0
OTU 73	0	6	0	0	3	1	0	0	2	0	0	0	0	0	0	1	0	0	0	0	1	0	1	0	1	1	0	0	0	0	0	0	0	0	0	0	0	0	0	0	0	0	0	0	0	1	0	0	1	0
OTU 74	0	0	1	0	0	1	1	2	1	0	0	0	0	0	0	0	0	0	0	0	2	0	1	0	2	1	1	0	2	0	0	0	0	1	1	0	1	4	0	0	0	0	0	12	1	0	0	0	4	1
OTU 75	1	0	0	0	0	5	1	1	0	0	1	0	0	0	0	0	2	0	1	0	1	0	0	0	0	0	0	1	1	1	2	0	0	0	0	2	0	0	3	0	0	0	2	0	0	0	0	1	0	0
OTU 76	0	0	0	0	0	0	0	0	1	0	1	1	0	0	0	0	0	0	0	1	0	0	0	0	0	0	0	0	0	0	0	1	0	1	0	0	0	0	0	0	0	46	0	0	0	0	0	0	0	0
OTU 77	0	1	1	0	0	2	0	1	0	0	0	1	0	0	3	0	1	1	0	1	0	3	0	1	0	0	0	0	0	0	0	1	0	6	0	0	0	0	0	0	0	1	0	0	1	1	5	1	0	0
OTU 78	2	1	4	4	0	4	0	2	0	0	0	0	163	0	1	1	0	0	0	0	1	0	0	0	2	0	0	1	1	0	1	0	0	0	3	0	0	0	1	1	0	0	1	0	0	0	1	0	183	1
OTU 79	0	2	2	3	5	8	0	4	1	2	1	1	85	0	1	1	0	1	1	1	0	0	4	0	1	0	2	1	3	3	0	2	0	2	11	1	0	1	3	0	4	1	0	3	0	1	1	0	1	82
OTU 80	1	0	0	22	1	0	0	0	4	4	0	0	2	0	1	0	0	2	1	1	1	2	0	0	0	0	0	0	0	0	0	0	1	0	0	0	1	0	0	0	0	2	0	1	0	0	1	0	1	0
OTU 81	3	2	3	0	1	1	0	0	1	1	2	13	0	128	0	1	0	1	0	2	0	2	1	0	0	1	0	0	1	1	0	6	6	0	0	1	1	2	10	0	0	0	4	0	7	0	1	13	14	0
OTU 82	0	0	0	0	0	1	1	0	0	2	0	0	0	1	1	0	3	0	0	1	0	0	0	0	0	0	0	0	1	0	0	228	0	2	0	0	0	2	0	0	0	4	0	0	140	180	1	0	0	0
OTU 83	0	0	0	0	0	1	0	0	0	0	1	0	0	0	1	0	0	0	0	0	0	0	0	1	0	0	0	0	0	0	0	0	0	0	0	0	0	0	0	2	0	0	0	0	0	0	0	0	0	1
OTU 84	1	0	0	0	1	0	0	0	0	0	0	0	0	0	0	1	1	2	0	0	5	0	0	0	0	0	0	0	0	0	0	0	0	0	2	3	0	0	1	0	3	0	0	0	0	0	0	0	0	0
OTU 85	0	0	0	0	1	0	1	0	0	0	0	0	0	0	0	0	0	0	0	0	0	0	0	0	0	0	1	0	0	0	1	2	0	0	0	0	0	0	0	0	0	0	0	4	0	0	0	0	1	0
OTU 86	0	0	0	0	0	0	0	0	0	0	0	0	0	0	0	0	0	0	0	0	0	0	0	3	0	0	0	0	0	0	0	0	0	0	0	0	0	0	0	0	0	0	0	0	0	0	0	0	0	0
OTU 87	0	0	0	0	0	0	0	0	1	0	0	0	0	0	42	0	0	0	0	0	0	0	0	0	0	0	0	0	0	0	0	0	0	0	0	0	0	1	0	0	0	0	0	0	0	0	0	0	0	0
OTU 88	3	0	0	0	0	0	0	0	0	0	0	0	0	0	0	0	0	0	0	0	0	0	0	0	0	0	0	0	0	0	1	0	1	0	0	0	1	2	0	0	0	0	0	0	0	0	3	0	0	0
OTU 89	0	0	0	1	0	0	0	0	0	1	0	1	0	0	0	3	0	0	0	1	3	0	0	2	0	0	0	2	1	0	0	0	0	1	0	132	0	1	0	0	4	1	0	0	0	2	1	0	0	0
OTU 90	0	0	0	0	0	0	0	0	0	0	2	1	1	1	0	0	0	0	1	0	0	1	0	1	5	0	0	0	0	5	0	0	0	0	0	0	0	0	0	0	0	0	0	0	0	0	0	0	0	0
OTU 91	0	0	0	0	0	0	0	0	0	0	0	0	0	0	0	0	0	0	0	0	0	0	0	0	0	0	0	0	0	0	0	0	0	0	0	0	0	0	0	0	0	0	0	0	0	0	0	0	0	0
OTU 92	0	0	3	0	0	0	0	0	1	0	0	0	0	0	0	0	0	3	0	0	0	1	0	0	0	0	0	0	0	0	0	0	0	0	0	0	0	0	0	0	0	0	0	0	0	0	0	0	0	0
OTU 93	0	0	0	0	0	0	1	0	0	0	0	0	0	0	0	0	0	0	0	0	0	0	0	0	0	0	0	0	0	0	0	0	0	0	0	0	0	0	0	0	0	0	0	0	0	0	0	0	0	0
OTU 94	0	0	3	2	0	1	0	4	0	2	1	1	0	0	1	1	0	0	1	0	1	0	0	0	0	5	2	1	0	0	18	0	8	0	0	1	0	0	1	39	0	0	0	0	0	0	2	25	1	1
OTU 95	0	0	0	0	0	1	1	0	0	0	0	2	1	1	0	0	0	0	0	0	1	0	0	0	0	0	0	0	0	0	0	0	0	0	0	0	0	2	0	0	0	0	0	0	1	0	0	0	0	0
OTU 96	0	0	0	0	0	0	0	0	0	0	0	0	0	0	0	0	0	0	0	0	0	0	0	0	0	0	0	0	0	0	0	0	0	0	0	0	0	0	0	0	0	0	0	0	0	0	0	2	0	0
OTU 97	0	4	0	0	0	0	0	8	5	1	0	20	0	0	0	0	0	0	4	0	0	8	0	6	0	0	0	1	5	0	4	0	0	0	0	0	2	2	7	7	6	0	0	3	7	0	0	6	0	4
OTU 98	0	1	3	91	0	0	0	0	0	0	0	0	0	0	0	0	0	0	0	0	0	0	0	0	0	1	0	1	0	0	0	0	0	0	0	0	0	0	0	1	0	0	0	0	0	1	2	0	0	0
OTU 99	0	0	5	1	1	0	0	4	0	1	0	0	3	0	0	3	0	0	0	3	0	0	0	0	0	1	70	0	0	0	0	0	1	0	2	0	0	0	4	1	0	0	0	2	0	1	0	0	0	0
OTU 100	3	2	2	2	0	0	0	0	0	0	0	0	1	0	0	0	1	0	0	0	3	0	1	1	3	0	0	1	0	0	0	0	0	0	0	8	0	0	1	1	0	1	0	0	0	0	0	0	0	0
OTU 101	0	0	0	0	1	0	0	0	0	0	0	0	0	0	0	0	0	0	0	0	0	0	0	0	0	0	0	0	0	0	0	0	0	0	0	0	0	0	0	0	0	0	1	0	0	0	0	0	0	0
OTU 102	0	0	0	0	0	0	0	0	0	2	0	0	0	0	0	0	0	0	0	1	0	0	3	0	0	0	0	0	0	0	0	0	0	0	0	0	0	1	0	0	2	0	0	3	0	0	0	0	0	0
OTU 103	0	0	0	0	0	0	1	0	1	0	0	0	1	0	0	0	1	0	0	0	0	0	0	1	0	0	0	3	0	0	0	1	2	0	0	2	1	0	0	0	1	0	0	0	0	0	0	1	0	0
OTU 104	4	0	2	3	0	0	3	1	3	2	2	0	0	0	0	1	1	0	1	0	0	0	0	1	21	3	0	5	0	0	0	2	0	3	5	1	0	1	35	1	0	1	1	2	0	0	0	2	2	22
OTU 105	0	0	0	0	0	2	0	0	0	0	0	0	0	1	0	0	0	0	0	0	0	2	0	0	1	0	1	0	0	0	0	0	0	0	0	0	0	0	0	0	0	0	0	0	0	0	0	0	0	0
OTU 106	6	0	0	0	0	2	0	0	0	0	0	0	0	0	0	0	0	0	0	2	0	0	0	0	0	1	0	0	0	0	0	0	0	0	0	0	1	0	0	0	0	0	0	0	0	1	11	0	0	0
OTU 107	0	0	0	1	0	0	28	1	0	0	0	0	3	0	0	0	1	1	0	0	0	0	0	0	0	0	1	0	0	0	0	0	0	0	0	0	0	1	0	0	2	0	0	1	0	0	0	0	0	0
OTU 108	0	0	0	0	0	0	0	0	0	0	0	0	0	0	2	1	1	0	0	2	0	0	0	0	2	0	1	0	11	0	3	0	0	0	0	0	8	0	1	2	0	0	0	0	0	0	0	0	0	0
OTU 109	0	0	0	0	0	0	0	0	0	0	0	0	0	0	0	0	0	0	0	0	0	0	0	0	0	0	0	0	0	0	0	0	0	0	0	0	0	0	0	0	0	0	0	1	0	0	0	0	0	0
OTU 110	1	1	0	0	0	0	0	0	0	0	3	1	1	0	1	0	0	0	0	0	0	0	2	3	0	0	4	2	1	122	0	1	0	0	1	2	0	0	1	0	1	1	0	0	0	0	0	0	1	0
OTU 111	0	1	0	0	0	0	0	0	0	0	0	0	0	0	16	0	0	0	0	0	1	0	0	0	0	0	0	0	0	0	0	0	0	0	0	1	0	0	0	0	0	0	0	0	0	0	0	0	0	0
OTU 112	0	0	2	0	0	0	0	1	0	0	0	1	2	0	0	1	0	1	0	0	0	0	0	0	0	3	2	0	0	0	0	1	1	2	0	0	0	2	0	0	0	0	0	0	0	0	0	0	0	0
OTU 113	0	0	2	0	0	0	0	0	0	0	0	1	0	0	0	0	0	1	1	0	0	0	0	0	0	0	1	0	0	0	0	0	1	0	1	0	0	0	2	0	0	3	0	0	0	0	0	0	0	0
OTU 114	0	0	0	0	0	1	1	0	0	3	0	0	1	1	2	0	4	3	0	2	86	0	0	0	0	1	0	2	0	1	1	5	0	0	1	1	0	0	1	4	0	80	1	4	0	0	1	3	1	0
OTU 115	0	0	3	0	1	0	0	4	1	0	0	1	1	0	2	1	0	1	1	0	22	0	2	1	0	0	0	0	0	1	1	1	0	1	2	1	0	3	5	1	0	3	3	3	0	0	65	0	1	0
OTU 116	3	76	0	0	0	0	3	0	2	0	1	1	13	0	0	0	2	0	0	1	0	0	0	0	1	0	1	0	70	0	14	1	8	0	1	4	45	32	0	32	3	0	1	1	0	0	1	10	0	0
OTU 117	2	1	0	1	0	2	5	0	0	0	0	0	0	2	3	0	0	0	1	3	0	1	1	0	3	2	6	0	0	2	0	0	0	0	0	0	0	4	0	0	0	0	0	1	1	1	1	0	0	0
OTU 118	0	0	0	0	0	0	0	0	0	0	0	0	0	0	0	0	0	0	0	0	0	0	1	0	1	2	1	0	0	0	0	0	0	0	0	0	0	1	0	0	0	0	0	0	0	0	0	0	0	0
OTU 119	0	0	0	181	0	0	3	1	1	3	2	0	0	0	2	0	0	1	1	0	1	0	0	0	7	0	0	0	1	1	1	0	0	6	0	0	1	0	2	2	2	0	0	1	0	1	0	0	0	1
OTU 120	0	5	0	0	0	0	1	0	0	0	0	0	0	0	0	1	0	2	0	2	0	0	2	0	0	0	0	0	0	2	0	0	0	0	0	0	0	0	1	1	0	0	1	0	0	0	3	0	0	0
OTU 121	4	0	0	0	0	2	1	0	1	0	0	0	0	0	0	0	0	0	2	1	0	0	3	0	1	0	0	1	0	1	0	0	0	0	2	0	0	0	0	0	0	0	0	26	0	1	0	0	1	0
OTU 122	3	0	0	0	0	0	6	0	0	2	0	0	2	0	0	0	0	0	0	1	0	0	1	1	0	1	0	0	0	25	0	1	0	2	0	1	0	0	0	3	2	0	0	0	1	3	0	0	0	0
OTU 123	3	155	195	3	0	6	0	0	24	3	4	33	3	5	3	0	4	3	2	3	2	14	27	6	0	5	1	4	2	6	0	52	1	0	3	0	3	1	39	1	4	12	40	2	18	4	6	1	2	13
OTU 124	0	1	0	0	0	0	0	0	2	1	0	1	0	0	0	0	1	0	0	0	1	0	2	1	2	0	0	0	0	0	0	3	0	0	0	0	2	0	0	0	0	0	0	0	0	0	0	0	0	0
OTU 125	9	0	0	4	3	1	3	1	4	1	0	5	1	5	3	1	1	0	12	3	2	1	1	0	10	1	2	0	6	16	0	2	0	2	2	141	2	8	1	2	5	6	2	4	0	0	1	0	0	19
OTU 126	0	0	0	0	0	0	0	0	0	0	0	0	0	0	0	0	2	0	0	0	0	0	0	0	0	4	0	0	0	0	0	0	0	0	0	0	0	1	0	0	0	0	0	0	0	0	0	0	0	0
OTU 127	0	3	0	0	0	0	0	0	1	6	0	0	3	0	0	0	0	2	2	0	0	0	0	0	1	1	1	0	0	0	0	0	1	1	0	0	0	2	0	0	0	1	0	0	0	0	0	1	0	0
OTU 128	8	3	2	0	0	0	6	0	1	8	2	0	1	0	0	2	1	3	0	0	1	1	1	3	2	1	20	0	29	0	7	1	188	2	1	2	56	127	2	12	0	3	1	101	0	0	2	8	2	1
OTU 129	0	0	1	0	0	0	0	1	0	0	0	0	0	0	0	0	0	0	0	0	0	0	0	0	0	0	0	0	0	1	0	0	0	0	0	0	0	1	4	0	0	0	0	0	0	0	0	0	0	4
OTU 130	0	0	0	4	0	0	0	0	0	2	0	0	2	0	0	0	0	0	0	0	2	0	0	0	0	0	0	1	1	0	1	0	0	0	1	0	0	2	2	0	1	0	0	2	0	0	0	2	0	0
OTU 131	0	0	0	0	3	0	1	0	0	0	0	0	0	0	0	2	1	0	0	0	0	0	0	0	0	0	0	0	0	0	0	2	0	1	0	2	0	4	0	0	2	0	0	0	0	20	0	0	0	0
OTU 132	0	0	0	0	0	0	0	0	0	0	0	0	0	0	0	0	0	0	0	0	4	0	1	0	0	0	0	0	2	0	0	0	0	0	247	1	0	1	0	0	0	0	0	0	0	1	1	0	0	0
OTU 133	0	0	0	0	0	0	0	0	0	0	0	0	0	0	0	0	0	0	0	0	0	0	0	0	0	0	0	0	0	0	0	0	0	0	0	0	0	0	0	0	6	0	0	1	0	0	0	0	0	0
OTU 134	1	0	0	1	0	0	0	0	1	0	0	0	2	0	0	1	1	1	0	0	2	1	2	0	0	6	0	0	0	0	2	0	0	2	0	0	0	5	0	0	0	0	0	3	2	0	2	0	0	0
OTU 135	2	0	1	0	0	0	1	4	0	0	0	0	0	0	0	0	2	0	0	1	0	0	1	0	6	7	0	0	0	0	0	2	1	1	1	0	0	0	0	0	2	6	0	0	0	0	5	1	1	0
OTU 136	0	0	0	0	0	0	0	0	0	0	0	0	2	0	0	0	0	2	0	0	2	0	0	0	0	0	0	0	0	0	0	1	0	0	0	0	0	0	0	1	0	3	1	0	0	0	0	2	0	0
OTU 137	0	0	0	0	0	0	0	0	1	0	0	0	0	0	0	0	1	0	1	0	0	0	0	0	0	0	0	0	0	30	0	0	0	0	0	0	1	0	0	0	0	0	0	0	0	0	0	0	0	0
OTU 138	0	0	0	0	0	1	1	0	0	0	1	0	0	0	0	0	0	0	0	0	0	0	1	0	0	0	0	0	0	0	0	0	0	0	1	0	0	0	0	0	1	0	0	0	0	0	0	0	0	0
OTU 139	2	1	0	0	0	0	0	1	0	0	1	0	0	0	2	4	0	0	0	0	1	0	4	0	1	1	2	0	0	3	0	0	0	60	0	5	1	0	0	1	0	0	0	0	0	2	0	1	0	0
OTU 140	1	2	2	3	1	4	1	3	3	1	0	0	0	0	1	3	2	1	0	1	4	2	5	2	1	1	1	0	2	1	46	0	31	0	2	3	0	0	2	84	2	3	195	1	2	0	0	47	0	25
OTU 141	0	0	0	0	0	0	0	0	0	0	0	0	0	0	0	0	0	0	0	0	0	0	0	0	0	0	0	0	0	1	0	0	0	0	0	0	0	0	0	0	0	0	0	0	0	0	0	0	0	0
OTU 142	0	0	0	0	0	0	0	0	1	0	0	0	0	0	0	0	0	0	0	0	0	0	0	0	0	0	0	0	0	0	0	0	0	0	0	0	0	0	0	0	0	0	0	0	0	0	0	0	2	0
OTU 143	2	0	1	0	0	0	0	0	0	0	0	0	0	0	0	1	0	0	0	0	0	0	0	0	0	3	0	0	0	0	0	0	0	3	0	0	1	0	0	0	1	114	0	0	0	0	0	0	0	0
OTU 144	0	0	0	1	0	0	0	0	0	0	0	0	0	1	0	0	0	0	0	0	0	0	0	0	0	0	0	0	0	0	0	0	0	0	0	0	0	0	0	0	0	0	0	0	0	0	0	0	0	0
OTU 145	1	1	0	0	1	6	2	0	7	0	0	0	0	0	0	1	0	0	0	0	0	0	1	1	0	0	0	0	0	0	0	0	0	0	0	1	0	0	0	0	0	2	9	0	0	40	2	0	0	0
OTU 146	0	2	0	2	0	0	0	1	0	1	44	0	1	0	0	0	1	0	0	118	0	0	0	1	1	2	3	0	0	4	0	2	0	1	0	4	0	1	2	0	12	1	0	10	0	0	1	0	0	0
OTU 147	0	0	0	0	3	0	1	0	0	0	0	0	0	0	0	2	0	2	2	1	0	0	0	0	0	0	2	0	0	0	0	0	0	1	0	0	24	0	2	0	0	1	1	0	1	0	0	0	0	0
OTU 148	1	0	0	0	3	0	0	1	0	0	1	0	0	0	2	0	1	0	0	0	0	0	0	0	0	0	0	0	0	5	0	0	0	1	0	0	0	1	0	1	1	1	0	0	0	0	0	0	0	0
OTU 149	0	0	3	0	0	1	0	0	0	9	0	0	0	0	0	0	0	0	0	0	0	0	0	0	0	0	0	0	0	2	0	0	0	1	1	0	0	0	0	0	0	0	0	0	0	0	0	0	0	0
OTU 150	0	0	0	0	0	0	0	0	0	0	0	0	0	0	0	0	0	0	2	0	0	0	0	0	0	0	0	0	0	0	0	1	0	0	0	0	0	0	0	0	0	1	0	0	0	0	0	0	0	0
OTU 151	1	0	0	0	0	0	3	0	0	0	1	1	1	0	0	0	1	0	0	0	0	2	0	4	0	0	0	0	0	0	0	1	0	1	0	0	106	0	0	0	0	3	0	0	1	0	0	1	0	0
OTU 152	0	0	2	1	1	0	0	0	0	1	0	0	1	0	0	2	0	0	0	0	0	0	2	0	0	3	0	2	1	0	1	2	0	0	0	0	0	1	4	0	0	1	1	0	0	1	0	1	1	3
OTU 153	0	0	0	0	0	0	0	0	0	0	0	0	0	0	0	0	0	0	0	1	0	0	0	0	0	0	0	0	0	0	0	0	0	0	0	0	0	0	0	0	0	0	0	0	0	0	0	0	0	0
OTU 154	0	0	0	0	0	0	0	3	0	0	0	0	0	0	0	0	0	0	0	0	0	0	0	0	0	0	0	0	0	0	0	0	0	0	0	0	0	0	0	0	0	0	0	0	0	3	0	0	0	0
OTU 155	0	0	1	0	0	0	0	1	1	0	2	0	0	0	0	0	0	0	42	0	0	1	0	0	5	0	1	0	1	0	0	0	0	1	0	0	0	0	0	0	0	0	0	0	0	0	0	0	0	0
OTU 156	0	9	0	3	0	0	0	37	9	0	1	43	1	15	32	148	0	0	13	0	0	23	0	23	0	1	1	6	30	9	4	1	3	2	0	0	14	32	25	9	15	3	1	28	17	0	2	13	0	4
OTU 157	0	0	0	0	0	0	0	0	0	0	0	1	0	0	0	0	0	0	39	0	0	0	0	80	0	0	0	42	1	0	0	0	0	1	0	0	0	0	0	0	0	1	0	0	1	0	0	0	0	0
OTU 158	0	0	0	0	0	0	0	0	0	0	0	0	0	0	0	0	0	0	0	0	0	0	0	0	0	0	0	0	1	0	0	0	0	0	0	0	0	0	0	0	0	0	0	0	0	0	0	0	2	0
OTU 159	0	18	3	0	0	2	0	0	0	2	0	1	1	0	0	0	0	0	0	0	2	0	0	0	5	1	0	1	0	4	1	0	0	0	2	0	0	2	0	1	0	0	0	0	2	0	0	0	0	0
OTU 160	4	2	1	2	1	1	0	7	2	1	1	2	2	1	0	0	1	7	4	0	1	3	0	8	0	0	0	7	0	5	17	0	0	1	1	1	0	0	15	3	1	1	2	0	7	5	0	0	2	9
OTU 161	0	1	0	0	2	0	0	0	1	0	22	1	0	12	8	0	0	0	0	0	0	9	0	0	0	1	1	1	0	0	0	0	0	0	0	2	1	0	0	0	1	3	15	0	0	0	0	1	0	0
OTU 162	24	0	0	3	0	1	0	8	0	0	0	0	0	0	0	0	0	0	2	6	0	0	0	11	0	0	0	0	1	0	0	2	1	3	3	0	0	4	3	0	1	0	0	0	0	3	2	0	2	0
OTU 163	0	0	0	0	0	0	0	0	0	0	0	0	0	0	0	0	0	0	0	0	0	0	0	0	0	0	0	0	0	0	0	0	0	0	0	0	0	0	0	0	0	1	0	0	0	0	0	0	0	0
OTU 164	0	0	0	0	0	0	0	0	0	0	0	0	0	0	0	0	1	0	0	0	0	0	0	0	0	0	0	0	0	0	0	0	0	0	0	0	0	0	0	0	0	0	0	0	0	0	0	0	0	0
OTU 165	0	0	0	0	4	2	0	0	0	0	0	0	1	0	1	1	1	0	1	0	2	0	0	0	0	0	0	0	0	0	0	0	0	0	6	0	0	0	0	0	1	2	0	0	0	0	1	0	0	0
OTU 166	0	0	0	0	0	0	1	0	0	0	0	0	0	0	0	0	0	0	0	0	0	0	0	0	0	0	0	0	0	0	0	0	0	0	0	0	0	0	0	0	0	0	0	0	0	0	0	0	0	0
OTU 167	0	0	0	0	0	1	0	1	2	0	0	0	0	0	2	0	0	2	1	0	0	0	1	1	1	0	0	1	0	0	0	0	0	1	0	1	0	1	0	3	0	0	0	1	0	1	0	0	0	0
OTU 168	1	0	0	0	0	0	0	0	0	3	0	1	0	0	0	0	242	1	0	1	0	0	0	0	2	1	0	0	0	0	0	3	0	2	0	0	0	6	0	0	1	2	1	1	0	0	2	0	0	8
OTU 169	0	0	0	3	0	0	4	0	0	0	0	0	0	0	0	0	0	0	0	0	0	0	0	0	0	0	0	0	0	1	0	0	0	0	0	0	0	0	0	0	0	0	0	0	0	0	0	0	0	0
OTU 170	0	0	0	0	0	0	0	0	0	0	0	0	0	0	0	0	0	0	0	0	0	0	0	0	0	0	0	0	0	0	0	0	0	0	0	0	0	0	0	0	0	0	0	0	0	0	0	0	0	0
OTU 171	0	1	0	0	0	0	0	1	0	0	0	0	2	0	0	0	0	63	0	0	1	0	0	1	1	0	0	0	0	0	0	0	2	0	0	0	0	0	0	4	0	2	0	0	0	0	0	0	2	0
OTU 172	0	0	0	0	0	1	1	1	0	0	0	0	1	0	0	0	0	0	0	0	0	0	0	0	1	0	0	0	0	0	0	0	0	1	0	0	0	1	0	0	2	0	0	0	0	0	0	0	0	0
OTU 173	0	0	0	0	0	0	0	0	0	2	0	0	0	0	1	0	0	0	0	0	0	0	0	0	1	0	0	0	0	0	0	0	0	0	0	0	0	0	0	0	1	0	0	0	0	1	0	0	0	0
OTU 174	3	0	0	1	0	0	0	0	0	1	2	0	0	0	0	0	0	0	0	0	0	2	0	0	1	0	0	1	0	0	1	0	0	0	0	2	0	0	0	0	0	0	1	1	1	2	0	0	0	1
OTU 175	0	0	0	0	1	1	0	0	0	0	5	2	0	26	3	0	1	0	0	0	0	45	0	0	0	0	0	0	0	0	0	3	0	0	0	0	0	0	1	0	0	2	0	1	0	0	0	0	0	0
OTU 176	0	6	0	8	2	1	1	0	61	0	0	0	0	0	0	0	3	1	2	0	0	1	1	0	0	1	197	1	2	1	0	1	0	0	0	2	0	0	0	0	1	0	1	0	0	2	0	1	1	0
OTU 177	0	2	0	1	0	0	1	0	0	1	0	0	4	0	1	0	1	0	0	6	0	0	0	1	6	0	0	2	0	1	0	0	0	7	0	0	2	0	1	0	2	0	0	0	0	0	0	0	0	0
OTU 178	0	1	0	0	0	1	0	0	0	0	0	0	0	0	0	0	0	0	0	0	0	0	0	0	0	2	1	0	0	0	0	0	0	0	0	1	1	0	0	0	0	0	0	1	0	0	0	0	0	0
OTU 179	0	0	0	0	0	0	0	0	1	0	0	0	0	0	0	0	0	0	0	0	4	0	0	2	1	1	0	1	0	0	0	0	3	0	0	0	0	1	3	0	0	0	0	1	0	3	3	7	0	1
OTU 180	0	2	4	0	0	0	3	3	0	6	3	57	7	7	1	0	0	1	0	0	123	29	7	5	1	3	0	0	2	1	0	1	1	2	4	3	0	2	0	1	3	0	0	0	28	1	0	1	1	0
OTU 181	0	0	3	0	0	0	0	0	0	2	0	0	0	0	1	0	0	0	23	0	0	0	69	24	0	0	0	19	0	0	0	0	0	0	0	1	0	2	0	0	0	0	0	0	0	0	0	0	0	0
OTU 182	0	0	0	2	0	0	0	1	0	0	0	0	0	0	0	0	0	0	0	0	0	0	0	0	0	0	0	0	0	0	0	0	0	0	0	0	0	0	0	0	0	0	0	0	0	0	0	2	0	0
OTU 183	0	1	0	0	0	1	0	0	0	0	0	0	0	0	0	1	1	3	0	0	0	0	3	0	0	1	2	0	0	2	0	1	0	0	0	1	0	1	0	0	0	0	4	1	0	2	1	0	4	0
OTU 184	0	2	1	1	0	2	0	0	0	0	1	0	0	0	0	1	1	0	0	0	0	0	1	0	239	0	0	0	0	1	0	0	0	0	0	0	0	0	0	0	1	0	0	0	0	0	0	1	0	0
OTU 185	0	1	0	0	0	1	1	0	0	7	0	0	3	0	0	0	1	0	0	3	0	2	1	0	1	2	1	0	0	2	0	0	0	0	0	0	0	0	3	3	0	0	1	0	0	1	0	1	0	1
OTU 186	0	0	1	0	0	3	0	0	0	1	88	0	0	0	0	0	0	0	0	0	0	0	0	0	0	0	1	0	0	0	0	0	0	3	0	2	0	0	0	2	1	1	0	0	0	0	0	3	0	0
OTU 187	1	6	1	1	0	0	1	0	3	0	3	2	0	0	0	3	0	142	0	1	1	1	0	2	4	0	0	0	8	0	2	2	2	2	1	0	1	6	0	5	0	1	2	0	1	0	2	5	95	0
OTU 188	236	0	0	2	1	0	1	0	0	1	0	0	0	0	0	3	1	0	0	0	1	0	0	1	0	0	0	1	1	0	0	1	1	0	0	1	3	1	1	0	4	5	1	1	0	0	0	2	1	0
OTU 189	0	0	1	2	0	0	0	2	1	0	2	1	1	0	0	11	13	0	2	1	67	1	0	0	1	0	0	0	0	0	0	1	1	1	1	1	2	6	0	2	0	0	1	0	2	2	1	1	2	1
OTU 190	0	0	0	0	0	4	0	0	0	0	0	0	0	0	0	0	0	0	0	1	0	0	0	0	0	3	0	0	0	0	0	0	0	0	0	0	1	0	0	0	0	0	0	0	0	0	0	0	0	0
OTU 191	2	0	1	2	3	2	0	1	0	0	5	1	0	12	1	80	0	0	11	0	1	26	0	36	0	1	0	18	3	0	0	0	1	1	2	0	2	0	3	0	0	0	3	0	0	0	0	1	1	0
OTU 192	0	0	0	0	0	0	0	1	0	2	2	0	2	0	1	2	3	1	2	0	2	0	0	1	0	0	3	0	1	0	0	0	0	0	47	2	0	0	1	0	0	2	3	2	0	0	0	1	1	1
OTU 193	1	0	0	2	0	3	0	0	3	2	0	0	0	0	1	2	1	0	0	0	0	0	2	0	0	0	0	0	0	3	2	2	1	0	1	0	1	0	0	0	0	0	1	3	3	0	0	0	4	0
OTU 194	0	0	0	0	0	0	0	0	1	1	0	0	0	0	1	0	0	0	0	0	0	0	0	0	0	0	0	0	1	0	0	1	0	1	0	0	0	0	0	0	0	0	0	0	0	0	0	0	0	0
OTU 195	0	0	0	0	0	4	0	0	0	0	0	0	5	0	0	3	0	1	0	0	1	0	0	2	0	0	0	0	0	2	0	0	0	2	20	2	0	0	0	0	0	1	0	0	0	2	0	0	0	0
OTU 196	1	0	1	0	0	0	0	0	0	0	0	0	0	0	0	1	0	0	0	0	4	0	2	0	3	0	0	0	2	0	0	0	0	1	3	0	0	0	1	0	1	0	2	1	0	1	0	0	0	0
OTU 197	2	0	0	1	5	0	1	2	5	2	1	0	0	1	139	2	0	0	95	1	0	0	0	5	1	11	1	2	1	2	0	1	1	0	0	1	0	0	2	0	110	1	3	48	0	5	0	0	0	1
OTU 198	0	0	0	0	0	0	0	0	0	0	0	0	0	0	0	0	0	0	0	0	0	0	2	0	0	0	0	0	0	0	0	1	0	1	2	0	0	0	0	0	0	0	0	1	0	0	0	0	1	0
OTU 199	0	0	0	0	0	1	0	0	0	0	0	1	1	2	0	0	0	1	0	3	0	0	0	0	0	2	0	0	0	0	1	0	0	0	0	0	0	0	1	0	0	0	0	0	0	0	0	0	0	0
OTU 200	0	1	1	4	0	1	0	20	16	1	0	0	0	0	0	1	0	0	15	0	2	0	0	13	0	0	6	5	0	0	1	0	0	3	0	3	0	0	14	2	0	0	0	0	0	0	0	0	1	13
