	Host 1	Host 2	Host 3	Host 4	Host 5	Host 6	Host 7	Host 8	Host 9	Host 10	Host 11	Host 12	Host 13	Host 14	Host 15	Host 16	Host 17	Host 18	Host 19	Host 20	Host 21	Host 22	Host 23	Host 24	Host 25	Host 26	Host 27	Host 28	Host 29	Host 30	Host 31	Host 32	Host 33	Host 34	Host 35	Host 36	Host 37	Host 38	Host 39	Host 40	Host 41	Host 42	Host 43	Host 44	Host 45	Host 46	Host 47	Host 48	Host 49	Host 50	
OTU 1	1	13	32	24	17	2	5	74	10	6	12	6	0	71	3	21	7	20	1	15	36	21	22	33	3	2	36	89	6	188	0	44	34	117	32	87	0	0	20	9	99	34	17	54	1	45	16	24	32	0
OTU 2	152	0	0	1043	82	2	13	1	44	1	0	1	1	3	0	11	109	3	1	6	0	13	2	2	47	1	73	1183	8	18	0	3	3	10	12	140	9	0	0	21	4	43	181	154	215	4	0	12	0	7
OTU 3	12	0	0	37	4	5	0	78	18	0	0	1	2	0	25	0	0	14	0	4	0	0	0	1	0	0	0	0	0	0	0	0	0	0	7	0	2	2	0	105	0	19	2	0	47	4	85	28	6	1
OTU 4	0	0	0	0	0	0	0	0	1	0	0	0	0	0	0	0	0	3	0	0	0	0	0	0	0	0	0	0	0	0	0	0	0	0	0	0	0	0	0	0	0	0	0	0	0	0	0	0	0	0
OTU 5	111	3	138	1230	107	5	49	294	930	90	480	0	860	215	3	152	515	167	390	23	619	480	96	866	2	258	2	369	194	29	247	95	131	102	494	109	58	73	680	344	51	743	68	10	0	98	243	0	144	63
OTU 6	34	128	0	1	11	5	0	40	22	2	1247	93	14	98	23	6	32	26	75	18	41	5	117	104	4	50	1	75	0	46	14	20	14	0	2	71	7	0	2485	11	39	1	2	19	15	33	5	1	73	1
OTU 7	270	172	138	42	176	41	89	94	32	61	64	1	206	109	29	6	301	21	29	66	66	1	27	50	20	73	135	37	41	40	33	622	14	117	19	48	72	90	160	159	442	7	164	103	165	12	77	21	69	232
OTU 8	50	62	41	36	9	46	46	7	43	77	7	24	121	79	51	4	32	13	75	73	59	24	12	74	89	43	121	53	6	124	10	36	93	45	7	55	18	120	60	107	77	6	101	30	73	60	3	74	6	85
OTU 9	16	7	0	11	2	27	1	9	29	79	4	34	2	0	16	1	28	1	3	0	0	13	48	22	1	7	2	22	0	143	6	17	13	0	8	42	7	5	4	0	32	36	0	1	23	24	1	0	0	8
OTU 10	2	5	0	1	1	10	243	7	0	14	1	4	1	13	13	0	186	7	1	2	0	13	46	2	340	1	8	1	1	0	0	0	1815	0	1	19	1	0	3	1	0	0	3	0	30	1	52	21	0	39
OTU 11	5	5	24	6	12	732	4	21	105	5	29	5	25	1	2	71	83	57	0	2	6	18	3	19	44	0	9	14	2406	0	0	1	0	104	0	5	3	14	24	1	1	4	89	39	104	5	36	50	125	88
OTU 12	12	34	3	50	3	7	109	39	54	18	3	5	2	69	6	59	88	8	4	918	1499	4	7	33	14	6	32	22	1	66	1	16	3	10	10	4	39	15	25	3	20	11	54	83	77	22	62	142	1984	29
OTU 13	0	0	0	0	0	0	0	0	0	8	1	0	0	0	26	0	0	5	0	0	0	1	5	0	117	0	0	0	0	0	0	0	0	0	0	0	0	0	0	0	0	0	151	0	0	0	4	0	0	10
OTU 14	0	21	0	16	0	96	85	3	59	5	2	15	54	5	1	32	4	15	0	0	15	0	6	0	49	19	14	0	1	33	4	0	4	2	0	36	1	2	1	4	4	8	0	4	1	8	12	7	12	8
OTU 15	0	1	0	0	11	0	29	13	1	0	0	0	0	0	4	0	0	0	0	0	0	0	0	12	0	0	0	0	9	0	0	0	69	0	0	9	0	3	0	0	0	0	0	0	0	0	19	2	0	73
OTU 16	0	9	13	1	0	0	0	0	0	0	1	0	0	0	37	0	0	15	0	0	1	0	0	0	0	0	0	0	0	0	0	0	0	6	1	0	0	0	6	0	0	0	0	0	0	0	0	0	0	14
OTU 17	3	0	3	9	6	11	0	36	0	17	22	0	59	30	46	9	0	0	0	10	4	12	13	15	105	3	116	2	20	9	5	6	50	2	0	0	17	10	0	100	13	0	0	0	29	0	68	64	14	56
OTU 18	47	21	14	39	91	5	1	11	7	71	339	0	49	13	6	1	134	52	25	2	3	31	9	2	31	8	39	33	93	6	79	3	45	100	1	107	16	2380	673	63	7	36	9	87	46	49	57	18	54	16
OTU 19	0	1	0	0	0	0	0	0	35	0	0	0	0	0	0	0	0	0	0	0	0	0	0	0	0	0	0	0	0	0	0	0	0	0	0	0	0	0	0	0	0	0	1	0	0	0	0	0	0	0
OTU 20	0	38	2	9	28	49	30	278	69	21	0	41	48	27	34	24	39	9	8	9	6	44	4	10	15	18	83	4	43	3	153	0	11	13	1	2	34	18	16	5	0	4	30	0	53	0	149	1	0	83
OTU 21	16	1	8	10	13	14	7	11	0	13	0	8	109	13	12	7	61	2	3	1	9	9	1	129	31	0	77	12	2	10	2	2	38	12	6	131	12	7	0	0	3	3	49	10	8	8	43	54	5	6
OTU 22	29	0	5	3	9	5	37	3502	1	2	1	56	3	10	44	153	56	11	47	19	10	31	151	1	0	0	5	26	63	14	57	5	53	26	6	25	84	130	20	79	10	0	44	15	9	2	78	1	2	1
OTU 23	58	8	887	3	1	1738	6	15	1	1	330	0	105	13	1097	79	0	51	11	5	3	7	6	1	29	9	1	0	2	1	46	7	2	1874	5	45	21	0	608	64	11	0	0	1198	1	6	245	0	6	0
OTU 24	21	231	4613	8	4	0	8	2	1	0	0	446	2	0	2	23	0	0	3	0	0	41	0	0	16	100	14	6	0	5	18	0	9	14	0	2	0	1	4	30	0	0	82	33	65	1	11	3	0	0
OTU 25	0	0	0	0	0	0	5	0	13	0	0	0	0	0	0	0	0	0	0	3	0	0	0	0	0	0	0	0	0	1	8	0	0	0	0	0	0	3	0	0	0	0	0	0	0	0	0	0	1	0
OTU 26	11	0	0	4	0	0	0	0	8	1	0	1	3	0	0	16	0	9	14	6	0	2	0	0	2	0	0	0	0	0	0	0	0	0	0	0	5	0	8	0	0	1	0	0	0	0	0	92	77	1
OTU 27	0	0	0	2	0	0	0	6	0	0	0	1	0	0	0	0	0	0	0	0	0	0	1	0	0	0	2	0	0	0	0	0	0	0	0	0	0	0	0	6	0	0	0	0	0	0	0	0	0	1
OTU 28	238	22	13	36	144	7	11	11	9	80	21	13	79	19	9	7	7	21	95	13	10	27	27	6	144	5	77	9	100	137	26	36	35	41	15	59	113	3	0	4	62	7	12	32	78	16	51	21	62	75
OTU 29	45	17	3	2	19	6	13	1	30	26	10	96	24	21	4	59	62	86	87	132	2	11	188	8	24	7	76	28	0	52	11	2017	76	31	32	1	1	249	2	75	3999	40	21	41	32	2	19	125	67	62
OTU 30	0	0	0	0	0	0	0	0	0	0	0	0	0	0	0	0	0	0	0	0	0	0	0	0	0	0	5	0	1	0	0	0	0	0	0	0	0	0	0	0	0	0	0	0	0	0	0	0	0	1
OTU 31	5	0	3	5	17	2	3	12	99	0	0	130	0	20	22	0	12	0	16	0	22	13	138	23	0	3	101	15	3	105	0	46	47	10	2510	0	0	2	1	0	84	0	1	1	4	41	2	0	0	30
OTU 32	86	90	9	72	114	40	16	88	530	23	40	49	68	283	136	82	9	104	121	28	119	146	322	253	50	24	858	213	44	767	16	201	442	22	53	35	65	208	2	119	413	156	17	12	157	79	19	60	77	12
OTU 33	0	0	0	0	0	0	0	0	0	4	1	26	0	0	0	1	0	1	3	2	1	0	0	12	3	0	0	0	0	0	0	0	0	1	0	0	0	3	0	0	0	1	0	0	3	6	0	0	75	0
OTU 34	70	14	7	26	14	0	9	11	15	7	9	22	43	13	47	9	131	12	15	6	3	36	18	43	18	0	23	17	34	38	2	15	43	16	13	110	1	170	25	149	31	13	0	7	4	5	9	9	41	40
OTU 35	127	58	12	32	5	58	14	2	58	150	202	474	6	1	39	0	19	15	0	2	0	134	0	2	9	32	3	64	17	17	6	0	38	49	31	2	25	2	328	12	1	22	5	20	2	10	17	68	31	15
OTU 36	0	79	3	37	22	10	6	0	32	18	0	52	0	0	25	44	40	26	11	0	1	56	31	6	66	34	12	0	43	7	12	0	4	0	9	12	138	1	10	0	0	34	0	19	16	9	7	31	0	123
OTU 37	120	0	24	8	0	19	1	3	1	3	0	2	1	6	39	0	0	0	0	0	4	9	1	2	54	0	6	0	1	2	0	1	11	1	0	0	33	1	7	0	2	15	930	0	0	0	90	14	12	0
OTU 38	46	44	33	45	93	13	15	29	126	0	6	9	3	5	9	23	2	13	0	3	0	3	5	6	42	12	25	3	60	0	24	0	21	42	0	6	7	0	22	6	0	0	31	22	47	18	8	0	0	9
OTU 39	0	0	0	21	0	30	0	0	0	0	0	0	2	0	2	18	0	1	4	3	0	1	0	13	0	0	58	7	0	0	43	0	18	0	0	1	0	0	1	0	0	16	0	34	0	0	1	26	0	0
OTU 40	9	77	2	8	30	105	0	6	13	17	59	149	109	49	1	48	71	2	900	1	8	7	19	22	265	26	91	9	9	9	3	13	67	12	4	2	56	67	19	21	15	11	120	17	137	5	264	13	13	98
OTU 41	13	11	48	19	38	11	37	33	76	164	2	0	62	26	68	6	1	7	1	2	0	10	1	0	23	10	13	8	6	1	27	0	8	73	1	2	8	11	46	19	0	4	0	65	11	4	33	1	28	41
OTU 42	0	0	0	5	0	0	7	66	0	0	0	0	0	11	1	64	5	2	10	0	4	0	49	0	3	0	6	2	2	0	0	0	14	12	5	0	0	1	0	6	0	0	24	0	111	16	5	5	22	0
OTU 43	0	0	0	0	0	0	2352	0	0	0	0	0	2	0	0	0	0	9	0	0	0	0	0	0	0	0	0	0	0	0	0	0	0	0	0	0	0	0	0	5	0	0	45	0	0	0	6	58	0	0
OTU 44	0	0	1	0	12	0	0	0	0	0	0	4	0	4	57	0	1	0	0	2	4	0	7	5	0	0	0	0	6	0	25	0	1	0	0	0	0	0	0	0	0	0	5	0	1	0	2092	0	0	0
OTU 45	32	25	34	7	35	49	0	48	8	63	0	66	25	20	30	75	18	1	64	3	4	0	132	60	45	3	54	47	15	2	5	0	10	101	0	1	35	7	10	1	0	9	39	3	7	30	1	65	8	22
OTU 46	650	176	87	6	29	75	10	15	36	102	0	59	54	8	40	130	8	115	33	3	4	35	62	23	58	83	44	43	15	0	48	0	10	78	1	5	141	57	58	1	3	1	98	42	846	68	0	467	22	177
OTU 47	0	0	0	0	1	0	0	1	0	0	2	0	12	0	0	43	19	0	14	0	0	0	8	1	2	0	0	0	0	0	0	5	0	1	0	3	0	0	0	0	5	0	0	4	4	0	33	83	0	0
OTU 48	33	17	1	0	53	7	3	17	32	54	14	54	33	57	7	68	48	14	23	3	43	46	41	26	80	17	29	22	18	0	56	0	21	9	11	32	174	118	46	18	0	54	25	8	94	3332	75	9	11	3
OTU 49	12	0	3	1	171	0	11	1	43	32	0	9	5	5	0	2	3	3	0	9	0	6	9	0	2	0	39	0	41	0	6	0	94	0	5	107	0	0	2	88	0	2	63	7	7	23	0	3	23	10
OTU 50	55	1	20	9	55	5	16	63	1	58	22	11	8	71	16	9	1	18	10	62	15	2	17	17	128	3	74	50	47	76	47	6	1	0	3	60	47	23	19	45	13	31	1	10	32	52	15	139	10	22
OTU 51	4	16	29	28	4	4	167	5	276	37	0	16	15	6	5	13	41	5	12	5	22	14	0	3	72	5	25	15	0	8	25	6	1	98	21	42	0	1	0	54	11	45	36	37	0	0	24	58	6	200
OTU 52	58	77	53	4	1048	144	51	10	157	125	41	138	46	60	10	6	2	16	684	11	71	20	1342	49	224	37	158	8	1648	19	39	4	59	157	32	20	44	195	35	57	7	35	18	96	34	10	37	70	83	208
OTU 53	0	0	0	0	0	0	0	1	0	0	0	0	1	0	2	0	0	0	0	0	0	0	0	10	0	0	0	0	0	0	0	0	0	9	0	0	0	0	0	0	0	0	0	0	0	0	0	8	0	13
OTU 54	44	7	38	10	181	4	5	41	72	8	6	30	331	17	67	166	73	11	78	1005	116	15	92	21	48	8	78	0	39	16	131	6	39	38	19	40	12	3	21	115	18	26	46	27	49	81	8	98	2133	133
OTU 55	0	0	0	0	0	0	0	0	0	0	0	0	0	0	0	0	0	0	0	0	0	0	0	0	0	0	3	0	0	0	0	0	0	0	0	0	0	0	0	0	0	0	0	0	0	0	0	0	0	0
OTU 56	0	0	3	62	58	0	1	2	0	3	13	0	25	33	26	1	0	22	0	10	0	39	1	9	26	0	14	0	69	0	8	0	2	2	15	0	44	0	38	0	0	18	3	8	15	0	75	0	0	0
OTU 57	188	35	35	5	7	46	115	915	9	5	26	172	311	49	25	102	5	68	416	11	18	49	887	104	229	13	121	1111	65	100	50	16	77	57	0	97	62	69	15	2142	42	2	222	44	118	70	179	31	28	60
OTU 58	0	14	9	4	35	0	10	57	4	81	59	0	10	44	23	7	12	4	8	21	23	8	0	15	108	8	31	0	32	6	3	1	27	13	5	3	203	0	6	30	2	22	0	22	31	0	19	63	5	0
OTU 59	29	0	1	16	1	19	4	68	8	55	1	6	0	1	15	2	0	48	0	12	3	7	5	1603	17	0	4	32	7	66	0	17	3	56	12	1	27	4	2	30	33	6	80	2	12	36	125	3	0	10
OTU 60	15	51	17	3	44	26	91	57	19	3	2	69	165	0	35	10	195	2	3	69	0	20	104	714	34	16	10	2	10	73	19	25	18	8	10	38	193	60	3	172	53	18	36	8	260	50	63	1	50	25
OTU 61	99	55	20	258	121	287	21	157	119	42	46	107	26	475	25	126	56	248	3	196	285	565	28	14	51	36	108	165	42	450	302	124	75	40	165	46	59	131	104	62	231	390	43	1481	74	11	9	30	109	89
OTU 62	0	58	0	1	0	0	7	1	3	8	114	20	0	3	1	9	0	0	3	0	0	0	6	0	9	28	27	0	0	1	0	21	0	0	8	24	45	5	464	3	37	0	3	0	1	0	0	0	0	8
OTU 63	14	13	1	0	2	38	65	4	8	13	9	7	16	0	3329	5	20	3	14	0	2	0	0	71	25	4	0	0	0	14	3	4	2	0	3	0	1	186	1	1	10	0	0	26	0	882	13	0	0	15
OTU 64	53	1736	54	30	0	27	35	174	37	86	32	3238	5	76	39	87	28	19	49	43	53	20	79	16	41	796	60	1663	20	21	52	15	4	68	0	129	103	79	50	246	15	6	86	41	278	1	107	370	145	20
OTU 65	13	10	0	0	0	0	0	0	0	1	0	0	0	0	0	0	0	1	0	0	0	0	0	2	0	0	0	0	0	0	0	0	0	0	5	0	0	0	0	0	2	0	0	0	0	0	0	23	2	0
OTU 66	62	147	56	2	26	2	19	41	13	22	20	34	3	84	181	108	27	28	3	4067	32	18	1	7	9	113	57	16	11	51	9	34	20	94	334	7	8	114	21	97	62	68	158	19	120	53	33	64	7	0
OTU 67	0	9	26	0	31	28	11	44	2	46	0	13	225	0	14	0	3	49	11	5	10	19	22	1	48	4	32	8	26	59	13	24	1	86	0	0	6	29	3	28	51	0	133	59	39	6	20	3	7	6
OTU 68	11	0	0	22	1	0	0	0	0	1	0	7	0	1	2	24	0	14	1	2	0	34	3	0	11	0	2	3	4	0	4	0	7	12	1	741	1	14	23	17	0	0	32	0	54	2	0	3	2	0
OTU 69	7	33	539	18	9	787	22	15	19	78	352	6	127	15	650	23	26	16	18	20	0	17	11	3	21	9	38	53	18	35	1	10	54	1295	1	1	2	226	421	6	22	12	47	635	148	91	129	159	0	48
OTU 70	0	57	1	2	13	18	4	2	0	21	0	6	12	57	63	0	4	7	4	0	9	0	21	2	15	31	24	1	6	5	21	315	0	6	2	0	9	3	0	12	624	3	0	4	30	2	0	0	2	0
OTU 71	0	0	0	4	1	6	22	0	0	1	0	13	24	2	4	444	0	0	73	30	8	2	85	0	20	0	38	4	0	11	0	0	17	5	3	8	0	0	0	1	0	2	96	6	6	0	5	13	7	0
OTU 72	342	35	46	294	7	7	0	7	209	42	89	20	6	713	64	83	161	521	12	84	354	606	75	22	3	30	156	33	5	20	53	2	74	82	387	33	47	103	184	41	3	593	14	3	48	16	113	92	30	63
OTU 73	45	22	0	1	7	18	8	3	14	93	149	58	10	31	1	6	55	26	83	0	12	2	75	0	52	13	5	14	0	13	98	4	0	16	28	1	45	19	389	0	7	73	2	5	192	2	25	4	66	177
OTU 74	22	12	30	1	1	22	151	1	22	10	4	16	196	866	3	1	32	51	10	61	284	14	3	32	198	7	86	30	40	91	98	32	24	28	1	119	152	44	8	0	76	2	1	17	1	37	6	30	5	19
OTU 75	77	30	28	7	9	27	47	6	12	3	23	21	158	20	12	16	15	136	307	476	19	6	502	177	531	29	167	6	6	8	45	4	146	141	0	0	55	203	0	100	11	0	11	53	0	316	76	32	574	71
OTU 76	0	31	0	0	6	8	0	3	27	7	11	0	0	8	20	0	12	14	0	0	0	2	0	10	4	13	22	1	3	0	0	0	0	2	0	8	17	12	30	10	0	6	156	3	0	4	0	7	0	0
OTU 77	15	12	77	34	112	8	50	1	7	9	2	186	2	30	6	73	31	45	49	2	10	86	148	8	14	14	14	19	48	15	15	9	22	122	2	19	8	1	5	31	21	17	10	73	7	53	41	89	13	10
OTU 78	14	20	51	0	0	8	70	214	7	608	0	10	73	24	1	14	8	19	40	0	4	1	10	2	16	18	1	2	12	20	418	4	1	72	18	0	8	57	2	324	8	4	1	27	9	17	32	42	5	0
OTU 79	219	68	199	240	61	27	99	216	389	233	29	26	227	590	31	97	140	684	90	65	338	575	447	124	327	23	195	68	58	171	46	40	109	15	210	140	42	227	18	644	98	329	53	67	307	25	228	112	41	140
OTU 80	26	32	12	6	26	22	37	13	86	90	8	238	94	0	48	11	30	54	146	322	7	9	229	51	58	17	272	1986	5	3161	82	751	175	18	4	19	4	27	24	18	1461	2	64	5	103	40	4	60	721	5
OTU 81	150	3432	59	9	0	74	45	11	50	114	13	47	15	23	15	59	26	355	29	14	11	16	100	30	27	1702	60	0	1	86	294	6	134	56	2	2981	69	106	55	4	30	5	68	59	317	33	91	11	23	39
OTU 82	72	9	14	14	1	37	224	3	1	14	6	58	11	18	7	2	11	5	28	45	9	0	5	7	0	3	0	9	2	18	0	8	8	0	1	1	29	0	0	40	25	11	90	14	4	7	90	20	5	179
OTU 83	0	0	0	1	101	0	0	2	0	3	10	0	3	0	53	15	2	1	2371	7	2	0	0	10	0	0	136	1	69	7	1	0	58	1	0	2	2	0	0	0	0	15	9	0	0	45	13	19	1	0
OTU 84	26	0	330	0	28	263	71	18	7	30	52	51	9	43	328	1	51	13	0	0	10	0	0	125	0	0	25	1	52	17	6	0	28	879	1	64	14	0	181	0	3	12	13	116	8	23	6	0	0	0
OTU 85	6	46	48	0	0	0	2	8	13	0	3	0	17	6	0	1	14	0	2	8	1	0	17	10	13	30	28	0	3	11	0	0	11	69	0	2	1	14	3	13	0	0	3	3	9	0	0	7	0	0
OTU 86	0	0	0	1	0	1	0	0	0	0	0	1	7	0	6	43	0	0	0	0	0	0	0	0	0	0	0	0	0	0	0	0	0	9	0	7	0	0	0	1	0	0	0	1	0	0	0	0	0	0
OTU 87	2	0	13	0	55	3	124	135	5	0	3	1	55	0	0	32	0	0	1	6	16	11	0	0	13	0	0	68	17	57	45	18	1	8	4	0	0	43	0	478	41	17	1	10	8	0	9	39	0	239
OTU 88	7	0	0	25	2	4	0	0	0	0	0	8	0	0	0	16	1	0	0	0	8	5	5	1	25	0	2	0	0	2	0	0	0	21	6	0	0	8	1	0	0	0	0	0	0	0	0	37	0	0
OTU 89	1	36	21	0	70	1	25	1	0	67	3	30	20	0	4	0	25	16	1	1	0	0	1	9	17	33	1	2	36	9	13	0	18	55	0	8	1	10	0	9	0	0	3	7	35	0	25	0	0	38
OTU 90	2	4	3	0	0	0	0	0	0	0	0	5	0	0	1	5	0	7	3	1	0	0	0	0	0	0	0	2	0	0	6	0	8	2	0	12	5	0	0	24	0	0	0	0	11	2	0	0	0	0
OTU 91	0	0	0	0	0	0	0	0	0	96	0	0	0	2	12	0	0	0	0	4	0	8	0	0	0	0	42	0	2	0	49	1	0	13	0	0	0	295	0	2	3	1	0	0	0	1	0	1	0	0
OTU 92	97	0	0	8	5	0	0	61	0	2	0	0	0	41	0	0	41	0	2	1	1	6	0	23	95	0	9	0	0	0	18	0	3	14	1	0	1	0	0	0	0	0	1	37	19	1	0	0	0	1
OTU 93	0	5	0	0	26	0	18	0	5	0	3	0	0	0	0	1	0	0	0	0	0	0	0	1	0	4	11	0	66	0	8	0	0	2	0	70	22	12	17	0	0	0	0	0	7	1	0	0	0	64
OTU 94	102	18	3	1	45	22	4	13	101	17	4	229	32	3	0	0	8	34	21	10	4	9	60	6	141	9	316	0	23	27	48	3	120	15	10	11	112	13	16	10	2	7	190	2	6	23	3	11	51	30
OTU 95	1	1	2	0	3	0	0	24	1	1258	11	0	1	0	0	6	4	5	0	0	0	13	9	0	38	1	3	0	0	5	699	0	1	6	1	8	17	10	77	34	0	0	4	2784	24	2	0	8	1	4
OTU 96	0	0	1	0	0	0	0	0	0	25	0	0	0	0	0	0	0	0	2	0	0	0	6	9	0	0	1	0	0	0	0	0	0	0	0	0	0	17	4	0	0	0	0	0	0	0	0	0	0	0
OTU 97	0	0	0	19	0	66	0	0	0	0	0	0	0	0	4	26	0	0	0	132	0	20	0	0	1	0	0	64	13	122	50	40	0	0	0	0	0	0	0	0	88	4	1	0	4	3	6	0	64	0
OTU 98	26	56	1	30	24	1	4	22	56	17	6	0	11	1	4	0	0	36	2	28	0	60	20	47	45	40	29	36	0	27	0	3	41	0	15	0	0	1	0	23	5	5	16	0	316	20	90	0	4	0
OTU 99	56	21	20	44	3	46	48	32	224	17	9	8	163	34	21	80	30	111	12	5	11	20	27	14	47	7	90	5	26	24	23	5	51	10	17	21	61	15	22	18	18	56	69	59	58	37	9	56	7	79
OTU 100	11	103	47	6	1	2	132	5	0	27	40	21	153	3	1	19	17	17	0	2	1	8	0	58	122	23	43	68	12	2	95	6	0	78	0	6	31	109	17	16	5	19	3	10	3	43	4	4	0	670
OTU 101	51	0	0	0	3	0	6	2	0	0	2	0	0	3	1	4	53	0	0	0	0	0	0	1	22	0	0	0	0	0	0	0	120	0	4	40	1	0	0	1	0	7	4	7	0	13	5	0	0	0
OTU 102	0	3	1	3	30	0	3	0	1	0	6	1	110	12	0	6	791	4	4	0	0	21	81	0	0	1	5	0	25	21	13	0	0	0	22	0	0	1	0	11	4	59	28	0	26	5	38	0	11	0
OTU 103	74	116	7	6	1	0	6	0	3	118	13	13	4	6	33	60	7	3368	3	0	0	2	0	22	0	44	7	22	0	17	26	2	3	4	3	34	5	56	17	1	7	2	61	4	4	3	180	28	15	73
OTU 104	1598	29	26	2	299	131	4	13	75	1	51	14	62	83	242	3	14	1	0	4	55	8	95	6	55	8	44	121	201	74	0	23	80	54	51	3	103	153	69	9	41	61	687	6	227	54	46	147	35	7
OTU 105	15	14	1	0	0	0	0	0	13	0	0	0	1	2	9	10	2	34	45	8	0	0	95	90	25	12	115	14	1	44	0	1	2	0	6	0	95	0	0	0	5	0	1	0	1	87	0	0	2	1
OTU 106	2	0	0	92	0	1	1	69	107	0	0	0	0	0	1	0	0	1	114	0	2	32	34	0	0	8	58	0	7	2	0	3	16	0	0	6	1	1	15	21	4	8	7	3	138	0	1	11	0	1
OTU 107	14	3	0	3	1	39	1	1	12	4	0	13	0	0	10	0	0	0	0	12	7	37	0	30	44	0	24	3	5	1	2	3	5	34	1	1	2	33	6	0	4	0	0	0	0	0	0	766	2	0
OTU 108	0	17	3	3	17	13	45	5	41	6	0	1	4	0	17	0	276	44	50	58	2	1	92	7	0	11	17	7	4	1	0	0	2	24	2	17	19	41	1	1	1	30	11	0	139	7	6	33	0	0
OTU 109	0	0	0	0	0	0	0	0	0	0	0	0	0	0	0	0	0	0	0	0	0	0	0	0	0	0	0	0	0	0	0	0	0	0	0	95	0	0	0	0	0	0	25	0	0	0	0	0	0	0
OTU 110	52	9	18	4	23	1	97	0	169	24	2	83	111	0	24	3	0	38	8	5	2	46	18	108	4	14	219	0	12	34	0	2	146	0	191	4	15	35	6	27	6	404	26	45	5	23	4	69	1	67
OTU 111	0	0	5	0	0	45	2	0	0	0	0	4	134	0	0	0	0	0	0	0	0	0	0	19	12	0	23	11	0	0	0	0	5	25	0	1	0	0	0	3	0	0	0	12	0	0	4	2	0	0
OTU 112	12	0	2	16	0	22	2	0	0	0	0	25	61	76	0	0	9	6	0	4	37	14	3	1441	0	0	0	0	93	0	6	3	0	8	0	0	41	60	2	18	3	4	7	1	0	1412	8	28	11	0
OTU 113	0	0	1	3	3	0	0	0	0	21	0	0	0	3	7	1	0	0	0	0	0	3	0	4	0	0	0	0	3	0	0	0	16	0	0	0	4	30	0	0	0	0	5	1	0	0	2	10	0	0
OTU 114	75	50	12	52	100	18	84	32	84	116	26	171	56	37	64	163	105	64	12	17	14	74	89	137	81	20	99	32	48	55	133	13	2330	28	42	145	14	126	46	14	26	121	206	7	110	53	13	15	4	27
OTU 115	28	13	69	32	68	37	205	44	3	132	14	34	27	68	28	320	106	45	109	13	77	42	223	73	229	3	147	26	36	19	73	6	13	178	9	7	94	0	33	132	12	9	32	44	207	82	36	246	20	59
OTU 116	0	9	56	4	136	3	36	31	13	14	3	49	53	14	17	49	137	2	18	12	29	3	21	68	16	0	8	51	111	5	105	3	0	213	9	25	1831	167	18	47	4	11	48	63	22	113	66	14	59	19
OTU 117	0	5	14	19	33	23	29	28	44	38	1	0	64	5	31	51	9	4	16	46	0	37	14	11	26	2	36	3	1	7	18	0	0	24	15	58	37	10	28	2	2	51	4	4	2	34	25	5	3	16
OTU 118	1	0	14	5	35	0	0	3	0	3	5	5	0	1	0	0	7	3	18	0	1	41	0	49	0	0	4	3	60	0	16	0	3	52	0	47	105	57	0	0	0	0	1	3	4	3	0	2	0	3
OTU 119	89	5	16	4	81	67	77	4	9	25	2	36	91	8	13	0	70	92	1	20	0	3	34	16	61	5	5	3	72	10	2	0	3	28	3	8	40	129	17	10	1	2	10	6	38	25	1	19	8	4
OTU 120	0	29	254	2	0	17	0	0	0	82	1	15	39	16	201	19	0	4	0	21	18	0	0	1	38	14	25	47	0	58	0	6	0	279	4	1	0	16	194	4	22	24	0	310	0	0	0	0	6	0
OTU 121	3	2	0	42	10	0	63	1	18	12	1	13	37	2	0	59	30	0	4	52	1	10	62	29	17	6	2	17	4	64	37	23	13	7	0	11	34	22	6	9	36	2	30	2	3	32	17	10	48	0
OTU 122	72	12	9	9	5	21	16	21	7	31	9	0	15	19	8	45	63	24	16	0	17	69	73	0	93	0	66	0	21	0	33	5	61	12	5	6	3	60	13	24	3	15	31	12	58	0	2	31	1	65
OTU 123	284	250	205	1611	321	134	214	316	191	278	49	70	166	35	349	342	81	50	135	111	32	44	236	164	175	175	357	107	151	109	89	23	39	398	29	54	2640	346	154	60	51	75	95	70	309	37	156	204	98	50
OTU 124	0	1	0	0	9	0	1	0	0	13	0	8	0	0	0	0	3	0	12	0	0	0	0	1	0	0	0	0	0	0	1	0	3	0	9	2	0	12	3	7	0	8	0	25	6	0	53	0	0	0
OTU 125	17	43	21	617	54	38	42	51	97	846	18	39	705	172	74	31	553	48	85	83	65	20	110	56	374	35	261	65	552	45	351	4	118	125	54	55	59	126	50	83	13	88	103	141	215	113	452	86	133	164
OTU 126	2	0	12	0	132	0	0	4	0	0	19	0	0	0	0	0	2	0	17	0	0	0	25	34	1	0	4	0	82	0	16	0	15	0	0	0	41	90	0	0	0	0	0	0	0	9	0	0	5	1
OTU 127	8	33	102	4	0	0	12	8	5	31	0	104	26	1	2	9	27	4	17	4	14	0	2	37	7	22	44	0	0	25	0	11	1	110	1	95	6	69	19	0	22	1	40	0	0	199	1	4	22	5
OTU 128	121	109	11	180	151	59	632	551	1300	272	45	171	101	168	105	322	188	352	19	96	138	288	92	166	250	64	419	237	159	465	663	124	364	6	137	73	86	238	37	900	255	346	1975	84	203	233	37	166	41	930
OTU 129	0	0	10	0	0	1	0	7	0	3	0	3	2	22	1	0	9	0	2	0	0	1	0	7	0	0	6	0	0	0	0	0	0	4	0	0	2	0	0	0	0	6	0	0	1	10	5	0	14	0
OTU 130	4	11	6	67	1	0	0	7	32	1	4	0	39	48	35	87	0	33	7	12	9	98	5	65	0	2	34	0	13	1	44	0	13	5	90	31	16	25	14	1	0	110	62	3	55	3	0	15	12	72
OTU 131	30	12	112	4	1	212	40	22	1	80	18	13	45	60	124	1	100	55	53	0	39	46	157	3	1	23	30	44	8	35	41	2	15	291	34	28	89	25	54	6	6	129	7	18	26	38	11	371	0	25
OTU 132	49	5	7	0	31	2518	5	5	24	24	0	1	5	0	8	7	0	35	33	8	0	1	23	3	4	0	2	1	16	0	1	0	0	0	2	0	9	26	0	28	0	14	23	7	20	1	72	0	0	0
OTU 133	2	0	0	0	0	0	0	0	1	2	0	30	23	0	2	0	10	61	0	5	2	0	0	0	0	0	8	0	0	0	0	0	0	0	0	21	0	0	0	0	0	0	0	0	13	0	0	0	0	1
OTU 134	187	6	6	15	23	52	4	0	20	19	1	11	3	2	76	2	21	0	14	9	1	11	78	52	9	6	44	17	23	40	1841	18	1	12	2	58	21	0	34	4	37	5	9	5	36	37	66	6	20	1
OTU 135	6	2	89	96	45	59	0	1	47	32	9	15	3	9	25	858	537	20	5	9	0	21	52	61	5	4	98	55	19	150	26	45	47	114	53	26	7	49	42	3	79	70	6	56	59	94	223	41	25	6
OTU 136	6	15	2	3	8	0	23	9	6	1	10	19	0	28	41	23	5	21	23	10	10	0	8	2	14	2	28	0	12	22	9	1	17	0	403	35	16	0	33	1	5	876	23	23	13	9	18	107	2	19
OTU 137	53	18	3	0	6	1	0	57	5	0	1	14	1	0	7	0	0	1	0	1	0	0	0	0	15	10	0	2	0	0	0	1	26	0	0	4	0	13	0	0	1	0	0	0	0	1	11	0	48	32
OTU 138	1	1	5	0	3	0	9	0	1	394	63	0	6	57	61	28	0	0	0	0	17	1	2	4	7	5	3	5	0	1	60	3	0	18	1	0	8	43	27	40	8	9	3	0	6	4	221	67	30	0
OTU 139	56	43	3	33	113	3	35	130	54	67	4	3	31	54	119	153	9	44	73	10	9	17	78	290	388	31	54	61	86	79	33	10	13	2	23	106	184	32	14	38	14	51	329	32	49	120	86	5	39	0
OTU 140	91	18	42	26	52	60	148	3	85	103	38	53	29	85	2	16	94	18	64	55	96	124	331	421	70	23	276	79	6	147	1114	41	248	81	58	23	266	142	34	66	70	112	90	40	374	123	113	130	159	109
OTU 141	0	0	0	1	0	1	0	0	0	39	0	0	0	0	0	0	0	0	0	0	0	0	0	15	3	0	0	0	0	0	0	0	0	0	0	0	0	0	0	0	0	0	0	0	0	0	0	0	0	0
OTU 142	1	0	0	1	10	0	15	0	0	0	0	0	0	20	0	4	0	0	0	0	4	0	0	1	27	0	12	0	18	2	8	0	3	0	0	0	4	3	2	68	0	0	7	0	0	0	0	0	25	0
OTU 143	0	2	0	0	0	35	3	0	2	4	0	2	1	0	0	3	130	2	0	0	0	0	0	0	0	3	0	0	0	5	6	0	8	0	0	0	0	11	0	0	0	0	0	0	1	12	4	1	0	0
OTU 144	14	0	14	0	39	1	0	75	0	72	0	0	44	3	0	8	0	1	0	0	1	0	18	3	13	0	0	1	33	0	5	0	0	9	0	1	0	0	0	16	0	0	42	3	0	0	1	0	0	30
OTU 145	28	22	29	17	53	2	56	30	47	23	4	0	7	85	12	42	54	2	31	33	46	11	23	68	20	12	91	20	12	5	16	4	27	49	24	770	54	46	21	40	14	49	7	58	115	1	51	27	21	11
OTU 146	12	15	14	33	12	0	24	3	10	1	41	0	246	4	22	1	9	37	183	1	0	0	214	51	179	112	119	17	3	71	23	9	52	19	1606	25	43	180	31	2	15	11	0	0	13	40	1	0	2	4
OTU 147	8	4	1	3	0	0	6	1	0	0	0	58	99	9	39	3	3	61	0	6	0	15	0	33	14	5	0	0	0	10	71	1	0	9	3	6	3	16	0	8	1	3	8	0	38	1	1	9	0	0
OTU 148	103	40	15	1004	3	46	18	0	10	5	7	190	53	0	134	13	61	2	17	23	620	2349	12	22	127	12	90	17	4	27	11	11	45	8	1	143	10	122	2	5	22	0	49	5	24	15	93	276	42	93
OTU 149	4	1	6	1	3	2	7	1	0	119	0	27	279	5	0	5	12	0	0	0	5	0	0	18	15	1	0	23	0	12	0	17	7	0	2	0	0	8	0	2	21	0	7	0	0	23	0	0	2	0
OTU 150	0	1	24	1	14	0	11	5	0	9	0	0	0	1	2	4	6	1	16	0	0	1	106	0	0	0	0	0	0	2	1	0	7	52	6	81	148	0	43	0	0	38	0	13	63	1	0	6	0	1
OTU 151	1	1	17	0	1022	0	36	9	1223	4	0	26	31	30	7	16	0	0	4	0	10	2	1	29	84	0	23	4	455	6	0	1	16	5	6	18	10	5	1	55	3	17	73	1	0	60	0	10	0	1
OTU 152	2	33	10	15	18	18	49	5	33	207	14	128	26	2513	7	50	7	35	42	18	1424	8	120	86	271	10	74	1	0	2	108	0	56	34	484	89	70	108	44	56	0	783	16	29	75	1	33	26	1	19
OTU 153	0	0	0	0	0	1	2	0	0	0	1	195	0	0	0	0	0	0	2	0	4	0	4	0	0	0	0	0	0	0	0	0	0	0	6	0	0	2	0	0	0	0	0	0	0	3	0	0	0	0
OTU 154	0	0	0	4	0	0	0	0	0	107	0	0	1	0	35	0	0	0	3	13	5	0	0	0	0	0	0	0	2	2	0	0	0	0	0	0	0	0	0	0	0	0	3	0	0	0	0	0	9	5
OTU 155	8	14	5	6	12	0	5	7	0	17	11	9	0	0	22	14	1171	6	1	0	0	12	4	9	12	6	1	12	0	4	16	0	1	1	943	0	0	45	9	0	0	1974	0	1	0	6	0	8	12	0
OTU 156	68	0	3	7	2	4	43	14	11	133	6	12	172	61	29	49	36	3	44	6	13	36	15	29	58	63	86	6	23	20	161	4	9	10	1	45	52	51	15	20	6	8	52	7	72	9	17	9	25	19
OTU 157	2	5	2	0	0	14	4	0	5	1	13	0	3	2	0	0	12	0	101	35	0	0	106	0	0	0	0	1	0	53	0	38	0	8	0	0	67	27	0	1	50	0	0	3	8	0	0	4	77	0
OTU 158	0	0	0	0	0	1	0	0	0	0	0	0	10	0	0	0	14	0	0	0	0	0	0	0	0	0	0	0	9	0	0	0	0	4	0	0	0	0	0	0	0	0	0	0	17	0	2	13	0	0
OTU 159	24	92	98	6	12	35	6	60	1	11	0	1	36	0	39	22	51	8	8	4	10	10	5	1	5	67	3	1	11	0	46	0	32	96	1	4	135	77	34	5	0	1	50	56	29	0	0	902	0	0
OTU 160	193	70	1	6	91	9	51	38	111	63	57	46	86	10	39	287	158	97	25	21	16	19	29	73	297	38	99	107	72	81	36	13	68	34	4	55	166	53	71	8	21	23	82	38	51	14	6	325	76	48
OTU 161	66	61	0	33	85	29	27	0	30	1	18	4	3	88	1	5	60	13	8	195	2141	16	108	24	4	31	3	83	70	194	63	45	12	5	0	1	3	0	10	0	89	2	0	25	54	1	3	147	39	199
OTU 162	85	9	10	778	8	26	0	54	193	26	488	7	44	30	14	3	8	19	10	7	8	1337	42	20	137	1	53	1	4	72	15	6	199	19	7	20	39	27	85	53	7	2	18	24	5	0	32	45	70	28
OTU 163	0	0	0	0	1756	4	0	0	0	0	0	0	31	4	0	0	0	0	0	0	7	0	0	0	0	0	0	0	782	0	0	0	0	0	0	0	0	0	0	56	0	0	0	0	0	0	1	0	0	0
OTU 164	0	0	0	0	0	0	0	0	0	0	0	0	0	1	1	103	0	0	0	0	0	0	0	0	28	0	0	4	0	18	0	0	0	0	0	0	0	0	2	0	0	0	0	6	0	0	0	1	0	0
OTU 165	0	9	0	0	0	70	0	0	77	306	12	66	1	0	25	29	200	17	2	10	0	3	0	0	9	5	43	6	0	0	0	0	71	0	0	21	0	47	0	52	0	5	0	3	0	13	3	11	4	0
OTU 166	331	0	0	0	0	0	0	0	0	0	0	0	0	0	0	0	0	0	0	0	0	0	0	0	0	0	0	0	0	0	0	0	0	0	0	9	0	0	0	0	0	0	0	0	0	0	0	0	0	0
OTU 167	3	18	17	7	6	37	1	0	30	16	9	14	63	23	0	14	20	1	0	16	24	0	24	2	2	3	120	9	50	3	3	0	19	17	2	19	12	4	10	1	0	0	63	4	8	31	6	3	0	2
OTU 168	168	0	19	5	0	15	127	0	72	25	19	2	15	0	13	73	5	24	2	31	1	0	1	11	3	0	1	0	5	7	4	1	0	1	0	5	0	28	0	3	3	1	8	1	135	0	41	0	2	17
OTU 169	3	0	0	0	0	0	0	0	0	0	0	0	0	0	0	7	0	0	12	0	0	0	0	0	0	0	0	0	0	0	0	0	4	1	0	0	0	0	4	1	0	0	0	0	0	6	19	0	5	0
OTU 170	0	0	0	1	81	0	1	0	0	2	0	0	0	0	0	1	0	0	0	0	0	0	0	0	0	0	0	0	37	0	0	0	0	4	0	0	0	0	0	0	0	3	21	0	0	0	0	0	0	0
OTU 171	5	7	0	0	0	42	5	4	0	68	3	3	3	7	0	39	25	0	0	0	4	7	6	9	1	3	41	21	0	15	11	7	4	36	6	96	2	10	1	2	18	7	86	2	10	10	51	42	46	5
OTU 172	0	0	13	0	0	51	0	1	68	1	1	0	0	0	0	11	0	42	68	4	0	0	93	29	0	0	201	0	0	11	0	5	182	19	9	0	9	0	88	27	8	0	1	67	1	67	0	0	0	0
OTU 173	1	0	29	0	23	0	2	0	0	19	5	13	0	0	2	15	61	25	9	2	3	3	1	20	0	0	0	0	27	0	0	0	0	52	0	15	0	1	2	0	0	0	0	0	0	0	14	39	17	3
OTU 174	0	0	0	2	13	14	0	39	18	4	9	17	6	22	6	0	1	22	45	1	0	0	27	1	210	0	2	2	0	0	6	1	3	1	0	178	1	4	4	91	1	10	1	0	36	52	65	473	20	4
OTU 175	26	2	0	0	0	1	0	2	50	1	5	1	72	0	0	1	2	20	1245	10	22	2	3	73	2	1	0	63	1	16	43	1	0	0	9	1	10	0	6	0	5	0	1	1	32	0	0	1	0	16
OTU 176	12	88	32	17	21	5	8	57	48	14	11	28	60	9	53	163	147	22	14	22	3	9	11	21	187	41	264	23	60	56	19	1884	22	71	18	33	0	83	12	42	43	29	4	141	36	34	3	160	33	0
OTU 177	136	13	60	22	214	25	2	3	68	34	3811	49	53	33	156	147	1	50	1	351	2	14	25	31	45	2	15	6	110	113	1	8	86	66	31	58	33	52	22	41	20	22	54	2	5	1	39	11	741	53
OTU 178	28	2	5	0	0	26	40	375	0	1	6	2	5	25	1	9	17	45	2	4	24	0	9	3	85	0	0	0	5	30	15	3	1	1	7	11	0	37	10	526	6	15	10	1	156	23	3	0	46	1
OTU 179	0	1	11	1	13	2	5	33	0	9	0	0	25	0	2	42	80	25	17	1	1	0	34	20	35	1	8	0	10	4	0	2	0	7	1	3	0	38	0	0	3	0	13	31	9	12	6	98	0	3
OTU 180	119	91	44	199	249	21	53	95	57	242	50	11	43	30	39	205	139	87	40	5	3	444	78	52	38	3394	107	143	158	191	55	24	32	80	36	51	107	43	28	169	58	55	32	62	108	6	304	206	13	61
OTU 181	4	63	4	12	8	12	1768	56	1	153	1	242	10	12	0	47	55	15	14	10	0	16	0	17	26	54	2	11	0	50	16	9	5	21	27	1	3	10	7	5	18	18	1	0	58	2	36	28	1	2
OTU 182	0	0	0	0	0	5	0	0	0	0	0	0	0	0	0	0	0	0	0	13	0	0	0	0	16	0	0	0	0	0	0	0	0	0	0	0	0	0	0	12	0	0	0	0	8	0	3	0	9	0
OTU 183	6	71	0	16	32	21	2	5	6	255	1	107	33	0	1	1	5	0	2	2	2	8	0	0	91	40	340	36	16	0	214	0	48	6	16	15	10	35	0	0	0	73	17	1	1	17	4	160	3	38
OTU 184	0	23	20	0	27	33	6	1	11	0	33	4	1	12	30	6	250	24	3	5	6	13	34	4	28	8	66	16	18	0	53	487	69	20	8	2	3	1	0	2	0	1	68	0	3	1	37	25	0	6
OTU 185	0	126	7	515	9	5	35	29	405	1	7	118	71	822	0	62	10	729	1	22	361	780	19	11	175	76	22	14	5	18	18	3	1	13	335	1	5	11	43	6	10	715	42	12	44	8	22	49	3	17
OTU 186	4	0	0	0	11	0	0	0	18	1	0	78	0	0	4	1468	0	0	0	4	0	2	0	14	0	0	14	0	0	0	3	0	0	0	0	3	0	1	6	1	0	2	7	1	0	5	0	5	3	12
OTU 187	11	70	6	10	105	91	183	21	33	138	6	19	158	17	2	4	35	10	1	32	7	9	0	28	73	39	30	108	47	92	10	27	20	13	2	53	14	34	4	176	46	4	127	1	198	44	235	25	77	99
OTU 188	53	118	8	4	45	35	1	4	20	26	272	19	215	18	5	218	106	41	0	38	7	2	17	35	117	79	98	43	3	35	19	14	56	10	0	111	2	32	8	131	23	10	46	4	89	124	7	62	2	2901
OTU 189	15	18	13	48	22	13	75	70	23	2	14	121	87	35	36	69	19	64	6	23	41	13	2	53	46	3	23	28	10	23	36	1	0	4	2	48	11	34	51	0	1	6	14	27	9	24	59	78	166	31
OTU 190	0	0	0	0	0	1	0	1	1	0	0	0	539	0	11	12	0	2	0	1	0	5	0	18	0	0	1	39	5	23	0	12	16	0	0	204	0	0	0	0	22	0	23	0	0	0	0	167	9	2
OTU 191	134	85	13	19	9	26	7	43	11	53	305	69	14	21	59	21	27	87	47	2	19	15	72	72	8	40	17	0	10	41	41	4	49	34	17	57	23	11	489	73	7	10	102	32	169	13	638	19	6	55
OTU 192	45	54	18	9	73	52	113	24	8	53	102	168	20	1	44	666	22	10	78	38	3	37	126	38	70	26	67	33	50	57	22	2126	46	19	49	26	173	45	89	0	16	48	265	5	58	37	82	81	42	69
OTU 193	43	3	11	30	1	125	52	6	81	105	2	14	1	7	1	54	107	61	2	0	8	9	2	27	125	1	8	0	2	5	14	0	3	20	1	82	8	1	2	32	2	10	28	44	2	5	27	9	3	23
OTU 194	76	9	11	0	45	4	3	0	41	3	1	0	0	33	31	52	25	0	5	7	10	0	6	4	0	1	136	1	18	0	16	0	38	6	19	12	4	1	0	6	0	23	0	1	0	23	0	0	28	36
OTU 195	52	3	12	11	127	1	18	3	0	0	8	14	32	28	14	0	2	17	1	1	29	25	57	12	44	0	53	1	27	22	0	6	2	10	50	0	9	19	26	3	7	86	0	4	187	10	96	39	55	37
OTU 196	78	0	52	0	37	0	15	5	60	13	0	102	314	18	0	26	29	29	136	2	8	2	234	17	21	0	3	18	0	0	0	5	5	72	1	56	5	76	17	2	12	8	32	87	137	35	17	231	0	0
OTU 197	678	22	64	5	106	88	67	32	26	83	5	77	119	37	104	49	124	44	36	43	11	11	18	52	93	1233	182	44	28	196	67	45	133	48	9	124	46	27	28	34	78	8	9	89	143	74	112	16	76	1
OTU 198	40	0	4	1	79	3	42	3	30	0	44	7	0	0	0	2	0	2	13	4	1	0	59	5	120	0	1	7	69	0	1	2	0	0	0	0	0	1	26	0	3	0	179	17	32	0	0	0	0	8
OTU 199	0	1	3	22	37	5	9	1	13	12	0	16	1	0	30	64	1	33	9	9	0	4	3	5	113	0	0	11	38	32	2	0	0	0	2	117	0	3	1	2	1	7	0	0	12	0	105	0	2	0
OTU 200	0	148	20	37	58	28	55	19	6	14	53	0	6	61	1	16	37	19	29	3	17	0	22	32	110	58	1	5	8	46	42	23	4	19	337	106	0	36	5	0	32	0	37	3	60	15	12	25	4	58
