	Host 1	Host 2	Host 3	Host 4	Host 5	Host 6	Host 7	Host 8	Host 9	Host 10	Host 11	Host 12	Host 13	Host 14	Host 15	Host 16	Host 17	Host 18	Host 19	Host 20	Host 21	Host 22	Host 23	Host 24	Host 25	Host 26	Host 27	Host 28	Host 29	Host 30	Host 31	Host 32	Host 33	Host 34	Host 35	Host 36	Host 37	Host 38	Host 39	Host 40	Host 41	Host 42	Host 43	Host 44	Host 45	Host 46	Host 47	Host 48	Host 49	Host 50	
OTU 1	137	47	8	18	27	39	6	89	52	86	114	48	5	134	19	2	19	180	434	132	10	202	33	29	40	98	62	30	88	12	137	234	157	71	360	63	64	100	101	79	62	49	186	119	167	81	80	126	93	20
OTU 2	0	6	2	6	70	4	22	0	1	0	30	19	2	9	24	1	3	1	6	2	6	38	10	0	0	8	3	0	5	1	14	13	0	6	7	0	0	0	26	2	19	1	0	3	6	0	1	0	0	0
OTU 3	39	14	369	0	0	18	64	22	294	19	0	0	1	1	0	1	3	0	24	0	15	8	0	5	0	50	62	18	3	0	46	0	2	0	0	94	0	70	0	775	0	0	0	0	2	2	0	3	0	12
OTU 4	0	0	0	0	0	0	0	0	0	0	0	0	0	0	0	0	0	0	0	0	0	0	0	0	0	0	0	0	0	0	0	0	0	0	0	0	0	0	0	0	0	0	0	0	0	0	0	0	0	0
OTU 5	353	706	405	125	0	17	1079	507	310	465	678	349	537	352	1170	0	658	78	368	304	457	392	151	1041	192	1308	30	216	0	143	282	460	506	16	939	459	452	191	708	565	79	290	385	270	407	315	196	0	284	381
OTU 6	50	67	13	0	63	0	51	49	5	0	0	0	4	73	32	1	0	35	158	40	0	154	10	5	754	1	247	41	0	7	4	207	2	10	3	0	8	12	3	1	8	10	0	3	30	1544	480	1	20	10
OTU 7	44	21	21	134	57	121	256	21	0	126	387	46	218	32	199	58	90	169	47	63	87	60	0	19	51	23	25	13	35	32	10	51	75	1	69	11	44	133	9	23	19	491	127	82	194	103	214	85	10	116
OTU 8	11	4	37	61	160	54	38	88	11	24	95	12	153	18	27	174	20	128	620	61	21	77	62	4	29	51	69	57	107	59	16	30	142	95	107	58	238	231	16	21	68	16	89	208	46	61	197	176	3	126
OTU 9	23	18	26	94	2	17	67	8	0	0	28	1	0	13	10	4	11	2	1	3	4	53	17	4	0	3	1	0	1	52	1	20	14	1	1	2	22	9	5	10	0	0	4	48	10	0	0	116	1	8
OTU 10	2	37	27	1	0	38	0	1	29	0	0	0	0	2	43	6	36	40	0	0	8	0	26	15	1	0	40	21	0	2	31	0	80	0	43	6	9	0	36	29	7	0	1	1	1	9	52	89	0	3
OTU 11	4	28	2	0	32	6	157	19	10	8	18	34	93	21	26	94	60	1	1	47	6	26	15	2	12	0	27	15	90	25	23	83	27	51	28	0	5	15	45	18	34	37	89	1	42	18	125	65	10	18
OTU 12	11	33	7	0	177	19	47	26	60	4	4	28	78	21	10	43	264	29	71	14	21	53	53	14	49	2	3	5	6	22	1	37	28	23	6	51	31	0	10	71	67	66	48	52	30	89	15	89	131	10
OTU 13	2	11	0	0	19	0	0	0	0	0	0	0	7	0	0	0	0	12	0	0	0	0	0	0	0	12	0	0	0	0	0	0	0	0	0	0	0	0	0	0	0	0	0	0	0	0	0	0	4	0
OTU 14	0	1	114	7	5	48	3	0	80	28	32	2	0	2	0	1	13	57	6	0	58	0	3	0	1	55	12	0	120	1	20	3	5	13	0	90	0	26	1	135	15	0	4	10	187	1	67	0	13	0
OTU 15	0	0	0	0	0	11	0	0	0	1	0	0	0	0	0	4	0	0	0	1	0	0	26	0	0	4	2	0	0	0	0	6	0	0	0	0	0	2	0	0	30	0	3	3	0	0	44	0	1	0
OTU 16	0	0	0	0	2	0	0	0	0	0	0	0	0	0	0	0	0	0	0	0	26	0	1	0	0	0	0	0	0	0	0	0	0	0	0	0	0	0	0	0	0	12	0	0	0	0	0	0	0	0
OTU 17	3	16	16	0	3	162	92	59	11	21	88	15	1	6	0	0	33	30	0	1	3	72	2	8	0	4	32	14	19	6	12	39	36	40	15	8	0	0	0	0	9	11	21	38	127	0	11	13	1	0
OTU 18	11	8	133	5	95	2	32	81	33	27	92	55	3	1	149	0	26	71	22	27	6	84	10	1	25	6	39	22	97	15	15	6	7	130	6	12	45	7	0	76	1	64	24	24	2	39	115	126	26	11
OTU 19	0	0	0	0	0	0	0	0	0	2	0	0	0	0	0	0	0	0	0	0	0	0	0	0	1	0	0	0	69	0	0	0	0	0	0	0	0	0	0	0	0	0	0	0	0	4	0	0	0	0
OTU 20	13	31	23	880	18	53	35	9	4	19	57	0	180	34	105	57	6	26	35	1	1	9	3	8	0	1	123	32	3	0	7	33	70	153	11	7	9	41	35	5	7	129	3	37	33	5	41	72	6	26
OTU 21	11	28	84	14	409	55	26	13	14	4	3	17	6	0	49	81	1	19	26	84	12	1	14	15	14	32	13	3	24	6	118	0	19	31	36	0	1358	56	10	95	44	9	71	33	22	29	42	194	1	43
OTU 22	33	6	7	6	108	7	0	9	1570	22	6	79	8	14	28	10	41	49	28	40	24	14	730	4	6	7	12	1	4	3	3	8	3	81	24	12	8	5	8	8	1527	5	32	8	59	8	30	86	9	0
OTU 23	2	79	14	23	21	1	217	0	14	4	16	37	16	12	73	261	26	9	21	4	0	24	16	47	95	10	15	8	0	264	14	32	226	32	25	2	12	8	50	20	22	122	6	0	22	147	179	40	18	6
OTU 24	4	12	14	2	49	24	43	7	0	3	32	1	1	3	24	7	1	0	0	0	0	16	0	1	17	14	36	18	0	7	21	8	0	9	8	15	8	0	0	0	3	48	0	19	20	21	2	0	7	0
OTU 25	0	16	0	0	0	4	0	0	0	1	0	0	0	0	0	0	0	7	0	0	0	0	0	0	21	0	0	0	0	0	0	0	15	0	0	0	0	1	0	0	0	0	0	0	0	53	2	161	0	13
OTU 26	0	12	0	4	0	0	1	0	5	0	0	5	3	0	1	57	3	0	0	13	0	3	6	29	17	0	0	1	2	60	3	0	3	0	2	1	24	0	0	1	16	12	1	172	0	37	0	0	0	0
OTU 27	0	3	2	0	0	1	0	2	0	0	0	0	0	0	0	0	0	0	9	1	0	0	0	1	0	4	0	0	0	0	0	2	0	0	0	0	0	0	0	1	0	1	0	0	0	0	0	46	0	8
OTU 28	80	0	0	25	81	0	71	39	4	11	18	5	18	15	21	58	46	28	25	6	50	23	2	1	9	3	34	31	6	27	5	29	36	2	5	4	55	4	62	47	24	75	9	26	32	19	100	6	189	0
OTU 29	9	4	12	67	6	63	23	2	10	121	191	40	24	5	43	51	104	34	13	22	43	26	12	0	14	43	2	3	49	60	104	17	4	0	13	12	5	8	12	102	72	71	95	185	2	24	119	129	0	15
OTU 30	0	0	0	0	0	0	22	0	0	0	0	0	0	0	0	0	0	0	0	0	0	0	0	0	0	0	1	5	0	0	0	0	0	0	0	0	2	0	0	0	0	0	0	0	0	0	0	0	0	0
OTU 31	1	0	0	2	0	0	5	7	0	0	0	1	2	19	1	7	33	1	1	0	1	0	0	0	0	6	19	29	25	16	25	54	0	0	15	48	0	0	6	6	4	123	9	0	0	0	11	146	2	4
OTU 32	12	2	5	21	15	48	84	19	1	296	488	63	152	10	48	7	491	52	32	53	6	105	21	6	0	5	3	11	10	342	20	41	38	273	38	29	30	49	2111	1	50	247	138	567	32	4	67	489	79	18
OTU 33	568	0	0	0	64	0	0	11	0	0	0	0	0	3	0	1	13	0	0	0	0	0	0	0	0	0	6	0	1	0	0	2	0	0	0	0	0	1	0	0	0	40	2	0	0	0	0	0	0	0
OTU 34	2	20	15	21	67	13	26	5	1	1	6	17	1	27	114	132	11	28	59	2	113	11	8	9	55	252	89	36	33	29	3	53	77	1148	22	455	3	35	544	10	2	9	32	55	31	107	33	71	92	50
OTU 35	0	44	25	17	70	211	0	14	37	38	109	1203	1	0	45	17	20	391	23	65	97	61	8	24	0	10	54	40	10	5	0	3	29	89	1	26	12	8	18	89	2	11	2473	11	170	0	179	40	0	8
OTU 36	2	13	0	11	14	4	45	72	0	1	0	5	39	11	36	1	3	71	41	0	5	58	87	3	21	13	15	1	0	5	0	9	9	1834	0	2	2	4	0	6	6	22	10	3	52	37	44	216	4	0
OTU 37	1	1	0	1	7	62	0	0	1	0	0	4	4	0	0	29	0	0	0	3	0	0	708	2	0	0	0	3	28	0	8	0	0	0	0	1	4	0	0	0	79	0	1	0	1	2	3	10	0	0
OTU 38	0	0	10	8	12	17	20	2	4	141	149	38	53	4	23	149	92	37	4	8	0	28	9	0	2	5	30	11	18	5	2	34	0	176	148	1	10	0	793	0	13	84	63	15	0	4	0	37	26	6
OTU 39	0	0	0	0	1	0	0	0	13	0	1	5	8	0	0	53	0	0	0	0	12	0	13	0	0	2	34	38	52	0	69	3	0	0	0	80	0	3	9	44	9	84	7	8	4	0	28	0	2	0
OTU 40	9	854	46	93	95	46	79	42	23	56	112	30	8	3	9	223	86	1	5	5	136	21	95	433	10	38	99	51	77	19	46	5	18	142	0	4	7	29	11	19	158	245	83	15	13	24	2	75	1	14
OTU 41	3	20	15	77	540	23	57	14	44	3	1	41	21	23	29	3	1	10	0	27	31	2	24	5	38	41	11	2	78	47	1	50	0	1	10	35	0	1	37	34	12	13	11	0	7	53	116	87	11	2
OTU 42	0	8	0	32	0	0	0	2	1	1	0	0	15	0	84	0	0	6	5	0	26	17	14	0	5	5	43	31	5	0	45	0	3	81	1	29	27	4	0	0	11	1	0	6	3	5	5	50	0	0
OTU 43	0	0	0	0	0	0	0	0	0	0	0	0	11	0	0	0	0	0	0	0	0	0	0	0	2	0	0	0	0	0	0	0	0	0	0	0	1	0	2	0	0	0	0	0	0	2	0	0	0	0
OTU 44	0	0	13	0	126	2	1	0	6	0	1	0	0	0	2	175	0	0	0	0	5	0	1	0	24	5	0	0	0	0	0	0	30	0	0	1	14	0	0	0	1	2	9	9	0	41	0	3	2	0
OTU 45	581	21	0	8	0	17	2	27	2	3	9	4	140	264	34	59	50	4	1	11	9	1459	5	18	3	0	62	49	108	65	53	554	25	16	6	1	44	7	6	3	12	182	1	11	1	3	160	56	422	0
OTU 46	41	64	4	58	8	10	49	18	12	51	76	28	1	0	70	12	15	4	42	25	6	34	51	6	21	14	8	20	9	13	9	1	14	27	12	6	4	0	7	54	56	239	19	12	70	34	219	89	5	1
OTU 47	0	0	2	61	0	0	0	0	14	11	0	2	0	0	22	2	0	7	0	0	4	0	1	2	0	0	0	0	39	0	1	0	0	10	0	0	0	3	0	1	0	0	10	0	7	2	2	4	10	0
OTU 48	34	50	62	43	104	7	41	5	110	10	2	42	3	35	27	14	105	20	15	25	14	3	18	30	0	89	81	14	85	26	3	41	55	3	4	33	50	54	9	311	9	19	5	20	6	1	22	0	103	282
OTU 49	25	1	80	0	0	94	8	31	15	0	0	0	0	1	0	5	1	46	22	0	36	162	9	0	1	0	44	5	759	23	0	0	0	2	2	0	1	17	30	2	51	0	0	44	54	7	2	18	0	0
OTU 50	53	182	101	14	31	98	1456	116	4	5	24	14	19	12	56	0	72	111	120	194	3	310	12	109	210	7	120	25	11	6	263	40	228	36	389	26	62	384	57	13	66	103	11	0	32	444	11	5	29	163
OTU 51	7	0	0	1	10	1	53	16	0	1	2	365	47	0	8	5	38	3	0	29	4	2	26	0	0	6	25	6	170	3	5	0	32	119	7	156	3	0	137	2	101	129	710	4	1	0	8	75	18	4
OTU 52	13	40	28	30	286	182	86	117	8	80	152	52	117	11	2	24	151	146	139	119	10	243	30	21	24	78	186	86	182	59	156	22	91	36	71	1	94	37	559	8	68	77	109	20	41	32	385	38	13	51
OTU 53	1	7	0	0	0	0	0	0	0	0	0	0	0	0	0	0	0	0	0	0	0	0	0	6	0	9	0	0	0	0	0	0	11	0	1	0	0	0	0	0	0	0	0	0	16	0	0	14	0	0
OTU 54	37	4	14	53	74	30	211	53	5	586	1210	364	276	369	73	167	349	186	48	35	42	40	107	0	7	16	15	3	75	936	31	36	15	74	58	35	20	23	198	122	216	53	713	66	29	16	51	102	16	27
OTU 55	1	0	0	0	0	0	0	0	0	0	0	0	0	0	0	0	2	0	0	0	0	0	0	0	0	0	0	0	0	0	0	0	0	0	0	0	0	0	0	0	0	0	0	0	0	0	0	0	0	0
OTU 56	0	0	0	121	62	31	74	8	1	1	0	4	0	0	19	2	2230	5	17	2	0	9	45	0	5	0	0	5	5	863	41	0	3	3	39	0	2	2	0	87	112	0	0	1450	0	6	3	4	0	3
OTU 57	35	12	415	155	77	142	46	41	130	23	56	8	46	0	52	300	12	321	43	29	150	6	4	6	16	539	92	68	153	40	34	1	32	53	38	619	75	2771	20	87	11	51	26	6	242	39	76	130	41	1401
OTU 58	28	9	58	24	16	6	0	9	4	1070	74	1	97	3	13	39	13	23	22	29	5	1	8	21	4	1	1	4	11	1	3470	13	38	1	3	0	8	1936	1	28	52	4	34	15	6	9	147	36	17	1129
OTU 59	1	0	18	1	23	0	415	65	20	2	37	15	4	0	0	0	10	18	48	1	0	0	49	1	0	4	0	0	6	23	13	0	0	14	12	1	85	8	53	40	53	2	38	49	1	0	33	30	0	0
OTU 60	175	3	32	13	60	170	9	38	31	15	29	12	100	98	145	63	12	74	19	23	31	66	0	10	0	6	7	4	72	18	15	142	7	42	8	25	91	27	10	44	4	22	60	31	11	4	308	53	56	21
OTU 61	17	9	8	0	78	88	118	551	30	15	29	12	426	23	150	5	84	33	904	42	21	0	55	5	64	17	9	6	287	12	5	73	28	340	4	136	347	32	1	7	168	45	13	9	13	111	46	340	41	1
OTU 62	0	0	651	0	20	2	17	0	718	0	0	0	3	0	9	13	72	0	0	0	0	1	39	0	5	299	0	0	90	0	0	0	12	0	0	150	3	0	4	1470	76	0	0	26	0	13	122	4	1	4
OTU 63	0	21	1383	25	95	7	7	5	3	3	0	3	10	0	3	127	2	10	3	1	30	9	0	5	8	41	0	12	31	0	57	0	24	0	10	25	1	6	0	1	0	1	0	0	0	27	7	3	6	19
OTU 64	470	31	29	57	134	107	79	607	6	31	60	28	57	266	96	8	140	87	1879	71	46	13	29	15	2	22	36	24	59	5	70	672	147	168	4	96	90	36	103	39	21	101	28	22	134	1	17	151	333	25
OTU 65	0	1	0	0	0	0	1	0	1	0	0	0	0	0	41	0	0	4	0	0	21	0	16	6	0	0	0	0	0	1	0	0	0	0	1	0	0	0	2	1	22	0	0	1	0	0	0	0	0	0
OTU 66	8	77	5	14	107	60	21	19	127	1	9	13	12	57	17	104	5	21	32	33	9	30	41	50	5	3	1	0	45	20	35	132	173	100	12	1934	6	0	52	190	91	104	6	37	3	7	10	90	21	0
OTU 67	5	15	0	61	81	34	41	0	12	0	2	2	9	2	16	1	0	214	0	14	146	3	78	0	11	2	10	6	2	0	6	0	10	25	0	11	0	29	59	0	67	190	3	24	144	36	16	65	0	1
OTU 68	60	1	29	0	1	60	0	7	0	2	3	0	4	81	3	0	0	38	71	85	33	0	8	0	0	56	1	0	72	26	1	77	0	40	6	1	15	2	6	10	14	1	2	0	83	0	39	0	18	0
OTU 69	3	14	20	11	62	2	51	4	28	3	1	1	27	26	6	27	86	6	22	30	68	7	0	30	8	4	2	8	56	23	16	23	33	4	7	14	1	47	7	107	1	431	6	52	104	16	38	23	11	0
OTU 70	0	15	3	20	5	32	4	0	0	0	0	6	14	0	9	3	2	1	7	0	2	9	0	16	0	0	3	12	3	4	1	0	0	3	1	1	31	0	142	2	6	13	6	0	0	0	1	5	6	5
OTU 71	2	3	1	0	7	8	0	0	11	36	177	0	7	1	8	0	8	1	1	0	22	2	1	9	30	0	0	2	122	33	4	1	11	21	1	0	15	0	10	0	3	8	59	30	30	68	0	2	18	3
OTU 72	4	77	25	243	34	0	8	457	7	24	47	5	2387	19	161	20	63	21	33	1	1	0	54	35	1	105	5	0	28	123	20	31	24	12	5	6	156	3	83	14	167	15	3	81	51	1	82	18	8	4
OTU 73	72	13	46	23	0	23	8	52	2	17	9	0	5	8	2	52	35	11	143	0	0	0	2	13	26	2	3	0	5	15	1	15	5	102	4	0	12	5	3	36	0	1	1	79	1	45	65	228	30	18
OTU 74	31	30	107	0	79	154	26	22	21	43	101	43	56	43	3	9	63	10	34	2	32	122	37	11	40	17	9	5	14	13	49	49	48	4	3	3	19	40	17	5	103	35	31	31	36	85	27	212	12	6
OTU 75	94	6	20	25	59	69	6	46	30	24	17	15	53	2	63	220	22	25	11	20	9	33	2827	1	25	11	11	3	68	42	91	3	0	27	0	4	65	18	5	31	0	73	46	3	55	54	13	136	10	17
OTU 76	0	0	15	1	0	2	0	0	5	6	5	0	6	0	0	0	1	20	0	0	1764	11	6	0	5	0	4	2	6	25	0	4	0	0	9	6	10	0	67	1	0	84	12	0	3171	9	32	3	0	0
OTU 77	3	1	59	17	87	34	41	0	18	184	7	28	22	8	37	6	13	23	44	11	9	16	20	0	50	108	10	9	163	3	14	3	17	144	22	9	0	0	9	44	27	3	65	19	2	117	92	8	1	1
OTU 78	36	3	0	13	160	87	7	10	33	26	46	27	75	0	73	40	37	23	64	12	1	8	44	9	2	10	53	14	39	1	10	11	1	28	7	4	21	19	9	18	103	77	41	115	1	11	45	227	0	5
OTU 79	143	89	54	53	77	204	102	1603	57	105	194	213	62	51	412	225	97	160	36	16	60	46	70	42	16	25	48	19	188	32	38	93	248	148	106	108	926	60	106	138	60	147	541	84	78	36	146	205	82	54
OTU 80	33	0	12	5	16	1	92	17	89	19	53	71	111	34	4	18	119	32	134	25	2	125	22	6	2	13	4	2246	162	57	20	67	11	35	9	28	28	61	76	63	26	80	38	61	9	9	43	32	36	5
OTU 81	7	0	509	85	75	42	27	312	456	32	119	5	180	6	35	0	37	70	163	12	914	58	64	1	7	237	1522	744	156	15	59	7	5	59	14	227	35	13	12	780	91	8	10	24	72	12	189	15	1	15
OTU 82	4	2	0	7	2	0	6	34	23	4	7	0	4	4	51	16	18	0	17	11	12	0	62	1	31	16	6	4	14	4	26	6	75	24	27	10	11	4	0	23	83	6	5	3	77	51	31	53	11	4
OTU 83	45	0	0	1	0	1	0	0	0	1	19	3	37	2	0	99	0	0	2	0	1	0	0	0	1	0	23	6	0	6	0	0	1	1	6	5	0	11	0	0	1	0	0	0	3	1	79	0	0	0
OTU 84	17	32	13	21	8	2	11	0	6	54	5	19	0	12	0	40	5	0	4	39	2	24	0	39	62	10	25	12	28	4	217	33	46	93	121	14	1	5	0	16	5	0	17	3	3	123	1	0	0	0
OTU 85	0	20	2	1	5	9	0	0	0	64	117	37	2	2	0	2	0	0	9	0	2	0	0	16	4	12	0	1	0	18	8	2	9	10	7	0	1	0	0	19	0	19	5	65	0	9	26	5	10	0
OTU 86	0	0	65	0	0	0	0	0	7	8	0	0	0	0	24	0	1	0	0	0	1	0	0	0	0	0	0	0	0	0	0	0	0	3	31	0	0	0	7	91	0	1	0	0	0	0	0	0	0	0
OTU 87	0	0	0	0	70	0	6	0	0	12	21	0	24	0	47	0	10	0	32	1	5	1	10	0	5	0	9	11	0	0	32	3	0	0	0	15	1	0	0	0	9	69	5	4	0	13	0	21	5	0
OTU 88	0	6	12	0	8	0	5	0	3	0	0	0	0	0	11	1	2	0	0	0	0	0	7	0	3	723	2	0	1	1	0	0	0	64	0	0	2	1	10	9	24	2	0	6	0	3	0	0	0	0
OTU 89	0	0	0	10	5	6	18	57	27	0	0	0	0	11	0	36	0	0	1	321	7	41	24	5	0	0	0	1	7	0	1	7	39	1	5	0	6	8	3	34	80	0	0	1	35	0	33	18	12	0
OTU 90	0	0	1	0	0	0	28	20	9	0	0	0	60	2	0	0	19	27	0	0	0	0	0	0	0	0	0	0	18	0	11	4	0	0	0	0	1	0	0	7	6	0	8	1	0	0	0	2	0	0
OTU 91	1	0	0	0	0	0	0	0	0	0	0	0	0	0	0	0	0	0	0	0	0	0	0	0	0	0	0	0	5	0	0	0	0	0	0	0	0	0	0	0	0	0	0	1	1	0	0	0	0	0
OTU 92	2	4	6	1	2	0	0	0	2	0	4	1	6	14	0	0	0	9	0	0	0	0	0	12	2	0	4	11	0	18	20	24	8	0	1	0	0	0	2	13	2	9	23	4	0	3	25	79	1	0
OTU 93	16	2	1	0	2	0	0	12	0	0	0	0	0	0	0	0	1	38	0	0	16	4	0	2	0	0	0	0	0	0	0	0	1	0	0	0	0	0	0	1	0	0	3	0	0	0	0	0	0	0
OTU 94	168	5	13	22	113	180	76	20	3	17	95	44	33	223	33	43	80	9	7	3	25	62	111	1	4	67	225	44	67	6	62	422	17	109	1	36	0	3	51	10	181	37	10	9	0	7	602	17	225	7
OTU 95	0	3	22	0	41	0	131	2	33	5	18	0	4	1	0	20	12	50	0	0	2	27	0	4	3	0	0	4	4	1	0	0	0	4	4	4	2233	0	4	47	1	0	18	0	0	10	25	14	9	0
OTU 96	6	77	0	0	0	0	0	2	0	1	0	0	0	0	0	0	0	0	0	4	0	1	0	31	32	0	0	0	0	0	0	0	91	0	0	0	0	0	0	3	1	0	24	0	0	44	0	0	0	2573
OTU 97	0	4	0	0	0	1	0	0	0	7	18	0	0	6	1	1	0	0	12	0	164	0	5	0	1	11	4	1	0	6	2	9	59	0	0	0	0	0	0	2	5	0	0	26	317	5	0	47	0	5
OTU 98	20	0	44	0	0	0	11	0	1	34	32	6	0	0	5	0	1	0	0	0	0	0	5	1	0	76	8	3	29	2	0	0	0	8	31	3	55	1	5	54	21	0	0	4	23	0	0	18	0	1
OTU 99	125	13	33	413	4	47	7	392	14	11	65	297	1	94	14	45	62	2	277	46	4	433	83	10	473	26	0	1	6	10	5	167	10	193	17	551	112	44	1	6	152	160	613	12	3	938	16	138	54	38
OTU 100	0	25	5	1	1	15	1	2	17	0	11	0	13	1	0	190	1	35	10	21	28	17	0	10	9	28	13	2464	4	5	621	13	56	19	1300	11	0	398	22	6	15	29	0	0	27	20	40	28	0	182
OTU 101	0	0	0	0	0	0	0	3	0	73	45	0	0	0	0	0	1	0	3	1	0	0	0	0	0	0	0	2	0	10	0	0	0	20	0	1	0	1	0	1	0	0	2	0	0	0	0	0	1	4
OTU 102	0	0	3	0	94	0	3	0	29	8	0	3	8	4	5	0	1	26	0	4	10	1	0	0	0	18	0	0	0	4	0	17	4	0	148	14	1	6	0	2	18	17	0	0	0	0	1	5	12	0
OTU 103	11	279	7	70	8	8	60	19	1	2	0	1	31	0	95	263	1	12	0	360	7	2	6	111	353	2	971	502	4	23	430	3	536	0	686	6	1	151	1	5	17	41	1	8	26	771	1	0	8	132
OTU 104	330	1016	43	59	41	32	26	239	19	29	46	0	2	361	63	12	126	12	346	2	0	348	111	411	13	39	8	10	89	19	125	641	82	51	188	2	71	43	8	68	311	92	11	17	9	27	41	36	350	46
OTU 105	0	0	0	0	0	5	3	0	1	0	15	25	1	0	0	0	8	14	48	2	3	0	0	3	3	0	85	56	3	0	0	0	2	48	1	0	0	0	0	0	48	0	0	0	4	7	22	103	0	0
OTU 106	0	1	8	2	0	13	3	0	0	0	3	41	0	0	0	0	0	0	5	0	0	0	10	0	0	54	9	4	25	1	2	0	0	0	0	93	0	0	7	0	0	4	31	0	0	0	4	0	1	7
OTU 107	2	0	3	1	1	2	2	0	1	38	48	3	17	0	0	31	0	12	0	1	0	8	1	1	0	0	30	3	8	19	0	0	0	10	2	0	1	0	1	0	0	3	35	215	0	0	1	231	0	8
OTU 108	16	0	7	0	3	2	24	20	19	0	0	1	4	15	40	48	8	5	3	0	17	11	8	0	4	1	1	5	1	0	0	47	0	14	14	2	17	0	29	19	23	4	3	2	7	14	0	71	31	1
OTU 109	0	0	0	0	0	0	0	0	0	0	0	0	0	0	2	0	1	0	0	0	0	0	0	0	0	0	0	0	0	4	0	0	0	0	0	0	0	0	0	0	0	0	0	0	0	0	0	0	0	0
OTU 110	60	2	9	10	9	1	6	6	0	0	1	25	73	45	24	25	19	35	34	4	41	1	17	8	24	41	48	204	44	46	0	78	43	3	69	27	14	24	4	34	12	47	35	77	102	38	192	22	37	1
OTU 111	0	0	0	29	73	7	0	11	0	0	0	0	0	0	0	0	27	84	0	4	2	9	0	0	2	0	1	0	0	0	23	0	0	0	0	0	6	4	4	0	0	0	1	0	0	8	0	0	0	0
OTU 112	0	0	0	11	20	27	90	0	0	0	1	10	0	3	1	0	1	0	0	0	29	2	0	0	0	17	7	0	14	0	0	2	10	0	112	7	25	14	27	0	3	0	2	4	2	2	39	0	18	14
OTU 113	1	0	0	0	4	0	0	0	0	0	0	0	0	0	0	11	1	0	0	0	0	207	5	1	0	0	7	6	5	1	0	0	2	0	0	0	0	1	2	0	20	6	0	0	0	0	0	0	0	0
OTU 114	43	844	10	98	60	62	55	64	3	92	161	2	4	12	134	49	41	0	98	1	7	41	23	472	9	10	16	2	53	1	81	20	1622	26	29	11	19	37	2	37	36	1479	9	6	13	21	90	135	28	41
OTU 115	66	15	123	103	337	20	9	46	46	4	11	44	111	10	74	14	28	1	15	23	28	114	31	14	4	19	13	1	63	86	47	32	47	125	53	6	79	34	11	19	88	37	31	62	27	6	79	59	17	18
OTU 116	7	11	15	10	184	342	216	27	16	9	1	1	58	31	119	11	27	441	19	17	90	21	165	5	50	97	83	49	97	4	27	35	17	59	15	1070	1	29	28	27	347	294	18	9	201	74	46	67	1	40
OTU 117	9	70	17	3	204	7	3	1180	0	32	11	44	5	13	1	0	1	174	0	0	1	37	45	48	12	4	107	21	20	3	77	41	64	57	16	12	431	49	68	0	75	20	6	3	13	15	111	81	6	29
OTU 118	0	0	6	6	0	3	0	0	12	0	0	0	0	4	97	0	0	2	0	1	6	0	12	2	46	3	17	6	301	3	0	4	41	0	11	34	0	0	0	15	3	0	0	0	2	87	5	7	0	0
OTU 119	14	33	7	6	12	6	28	46	41	14	17	14	106	23	19	25	116	121	4	78	26	8	4	1693	9	68	48	15	44	6	3	55	61	28	116	16	12	1	12	52	63	8	1	14	97	16	2	1	7	1
OTU 120	15	0	189	1	0	0	25	1	4	12	67	1	4	0	0	14	4	1	96	1026	3	1	0	0	0	6	1	0	140	25	0	0	0	3	0	0	0	0	23	0	0	16	6	0	0	0	18	0	7	1
OTU 121	45	1	13	29	5	22	24	25	1	30	54	5	0	0	6	49	11	15	4	0	48	0	0	0	97	8	61	25	42	6	0	1	12	13	71	9	3	16	1	22	0	6	14	3	0	23	0	22	4	8
OTU 122	0	0	13	21	78	0	1	34	18	171	112	41	44	35	71	8	148	19	13	3	2	34	7	6	4	50	72	22	1	13	2	57	50	1	9	0	42	3	45	2	2	11	141	40	67	11	101	9	47	7
OTU 123	186	68	128	107	253	112	217	49	21	136	136	69	43	22	322	346	88	104	147	37	101	164	26	30	58	143	160	95	451	48	64	53	85	124	24	88	35	57	434	85	70	48	120	78	37	119	303	64	72	65
OTU 124	1	3	1	0	4	0	39	5	2	8	5	7	0	0	0	156	0	2	0	0	9	3	0	0	0	1	0	2	3	0	3	1	6	72	30	0	4	0	0	1	0	27	0	0	0	0	0	0	5	0
OTU 125	38	54	38	1040	12	118	204	39	75	105	196	72	141	49	277	163	550	168	55	20	66	26	56	20	2997	17	24	11	103	76	62	39	50	201	46	43	283	721	72	122	145	255	159	148	47	39	142	179	4	315
OTU 126	0	0	0	0	0	0	0	44	0	0	0	0	0	12	0	14	0	0	0	0	0	0	0	0	0	34	0	0	0	0	0	7	0	0	2	0	0	2	0	0	0	0	0	0	0	0	0	0	0	0
OTU 127	4	0	5	8	30	83	33	53	28	68	92	87	263	1	1	61	3	157	1	0	633	43	0	1	2	0	2	4	1	0	1	2	4	35	0	0	0	10	76	16	13	0	63	8	13	5	117	31	8	0
OTU 128	575	79	109	3517	754	245	198	98	53	56	116	16	352	85	100	415	45	140	164	48	72	59	86	492	20	35	146	35	243	63	9	158	119	237	36	211	17	29	196	209	59	319	34	73	175	41	66	346	57	42
OTU 129	4	0	0	168	0	0	13	0	0	15	26	13	7	0	2	9	0	0	0	0	9	8	0	0	0	0	0	0	0	0	7	0	0	0	8	3	0	16	0	0	0	1	1	21	35	0	0	5	1	7
OTU 130	0	0	10	1	22	0	7	11	0	12	28	14	12	0	11	11	96	0	18	20	0	3	0	0	26	0	3	4	166	0	8	0	25	61	34	65	1	14	2	9	4	72	21	0	15	33	19	119	0	10
OTU 131	1	909	39	6	1	28	1	102	130	44	66	1	33	0	198	4	196	15	5	0	20	1	1	427	13	0	9	0	74	0	1	0	2114	0	3	46	10	0	34	260	11	21	26	64	2	28	10	23	0	3
OTU 132	0	0	0	8	59	3	0	32	9	4	0	0	0	0	26	13	32	0	3	0	26	1	3	0	0	12	0	0	1	4	16	8	0	79	5	2	4	1	0	0	0	2	1	35	14	1	1	15	29	4
OTU 133	1	0	0	0	5	0	1	0	1	0	0	0	7	13	0	63	2	0	1	0	0	40	1	0	0	0	1	0	0	0	1	19	0	6	0	1	0	0	15	0	0	0	2	21	0	0	0	10	1	0
OTU 134	21	2	1	4	156	7	98	0	24	1	5	0	2	0	51	34	80	67	66	1135	31	10	199	0	20	1	0	0	14	2	93	9	2	2	1	70	12	64	7	14	299	0	8	9	137	37	39	7	10	0
OTU 135	42	10	73	0	7	36	8	31	24	41	75	1	6	89	273	78	3	28	46	6	63	56	23	7	5	0	15	11	9	52	0	197	6	0	82	17	2	0	0	8	80	0	32	125	11	8	0	23	136	6
OTU 136	12	0	5	6	5	1	2	50	22	15	31	2	3	5	22	0	0	0	12	0	4	7	8	0	2	9	17	27	3	0	13	5	0	15	6	35	26	3	6	47	15	1	101	0	0	2	28	8	0	17
OTU 137	456	1	1	1	13	4	4	19	0	0	0	0	0	704	37	20	8	0	24	1	16	0	11	0	0	0	5	1	1	4	0	1713	3	0	5	0	42	3	1	6	25	0	2	10	20	0	15	11	689	0
OTU 138	0	0	3	0	177	0	9	1	1	1	10	0	50	0	0	79	0	26	21	0	11	3	16	5	6	17	2	2	13	0	6	0	18	2	2	84	9	0	0	5	4	10	0	0	7	7	8	0	0	0
OTU 139	58	41	37	5	119	833	100	1	14	21	78	2665	3	6	73	52	286	169	92	32	32	53	121	29	135	1632	72	71	93	3	31	31	146	42	86	29	31	46	47	86	82	18	11	24	97	66	60	17	28	9
OTU 140	52	2411	88	111	302	1012	277	25	40	3579	386	167	142	28	24	149	91	66	21	30	2068	57	71	1210	5	60	2	4	242	3027	173	56	43	167	567	22	52	151	18	217	212	38	171	55	75	23	91	83	4089	83
OTU 141	0	0	0	0	0	0	0	2	0	15	0	0	0	0	0	0	0	0	0	0	12	0	0	0	0	0	0	0	0	0	0	0	0	0	0	0	0	0	0	1	0	8	0	0	0	0	0	0	0	0
OTU 142	0	4	5	0	0	1	0	1	0	0	4	0	0	0	3	0	0	2	0	0	0	0	0	0	0	0	3	16	0	0	0	0	1	0	0	0	0	16	0	0	0	0	0	0	6	0	0	0	1	2
OTU 143	0	3	0	0	8	0	0	0	0	3	30	0	0	4	3	0	0	0	0	0	5	0	0	1	0	0	3	2	28	0	0	2	3	0	15	2	2	0	8	1	0	3	50	0	3	0	25	0	0	0
OTU 144	0	9	0	17	1	5	3	0	0	29	51	46	2	7	14	0	0	0	0	1	0	33	4	5	0	0	0	0	8	0	0	3	12	149	0	0	0	0	0	0	27	38	64	0	0	2	1	253	0	0
OTU 145	2	12	0	141	8	73	114	0	25	5	21	3	0	4	131	13	2	12	143	45	4	3	46	12	3	9	1697	883	226	25	12	3	11	28	83	21	42	41	26	2	162	242	41	12	4	9	18	76	17	20
OTU 146	2	3	2	5	39	6	4	0	5	0	11	8	4	1	108	1	14	3	13	129	8	6	126	7	21	13	15	12	165	6	45	8	0	3	44	0	4	5	0	0	130	8	1	2	4	49	117	1	48	8
OTU 147	1	7	0	36	45	0	15	0	0	9	3	5	57	1	6	40	1	0	30	19	2	14	18	13	40	5	3	12	0	1	0	0	23	1	3	1	4	4	1	0	19	2	35	5	12	75	0	11	0	0
OTU 148	1	235	2	1	4	0	82	17	0	17	23	8	100	3227	1610	284	41	50	17	364	0	15	1083	72	319	12	472	190	21	4	320	4	633	53	536	21	2	376	18	7	9	1	102	0	0	634	28	76	0	180
OTU 149	0	0	0	0	8	84	26	0	2	0	0	0	0	0	0	49	0	8	16	8	2	1	2	0	16	0	1	1	14	1	0	2	0	1	38	0	20	10	6	1	1	18	15	23	5	21	5	1	16	2
OTU 150	0	1	3	29	0	1	60	1	0	5	24	0	0	15	60	117	1	13	0	0	2	0	1	3	0	0	3	0	205	5	40	24	0	2	6	2	0	16	21	0	0	1	0	1	0	0	0	0	6	0
OTU 151	4	6	0	2	0	45	7	1	28	12	30	1	3	3	0	32	64	89	32	19	1	0	1	0	1	5	16	3	4	1	66	3	2	0	5	0	14	12	3	25	16	41	0	3	9	6	7	17	1	4
OTU 152	48	6	0	50	358	35	2	28	5	1	7	2	8	28	114	62	7	7	16	12	3	5	27	1	3	20	16	2	78	40	1	71	4	5	5	4	17	9	9	2	47	38	30	0	6	4	30	5	21	11
OTU 153	1	0	0	3	1	6	0	0	0	0	0	0	0	5	1	0	0	0	0	7	2	0	1	0	1	0	5	9	0	0	5	0	0	0	0	0	0	0	0	0	9	0	0	0	0	1	0	0	0	0
OTU 154	0	0	0	0	5	0	0	0	0	3	7	0	0	0	0	0	21	25	0	0	0	0	17	0	0	0	0	0	4	3	9	0	0	0	0	0	0	1	0	0	67	0	3	0	71	0	0	0	0	0
OTU 155	6	0	2	1	66	87	79	1	0	7	69	562	0	23	39	0	57	0	4	8	0	0	6	0	0	32	0	3	6	0	33	18	0	0	15	0	0	0	0	0	44	9	2	0	14	0	10	33	0	5
OTU 156	36	221	2	72	37	19	14	25	14	8	46	11	165	11	40	573	20	128	113	45	85	27	0	84	19	37	218	134	34	89	55	50	33	1	27	108	9	28	25	29	31	52	21	2	81	28	47	67	8	5
OTU 157	3	0	1	10	1	18	2	0	1	0	7	0	3	9	0	0	0	1	2	16	0	6	32	0	7	35	0	2	0	61	1	16	27	3	0	20	0	0	0	0	38	0	40	0	0	9	0	31	21	1
OTU 158	0	0	0	0	0	0	4	0	0	0	0	0	0	0	10	0	0	0	0	0	0	17	0	0	0	0	2	0	0	0	0	0	0	13	0	0	0	0	0	0	0	0	0	0	0	0	0	0	1	0
OTU 159	1	1	14	17	88	11	0	0	27	18	21	2	31	79	5	6	83	3	52	8	2	5	4	0	6	32	0	0	61	20	108	105	11	39	0	7	8	20	21	23	0	17	1	54	17	24	33	2	9	11
OTU 160	60	12	11	67	116	170	79	38	5	80	248	48	284	1	4	243	13	234	41	26	180	40	42	19	27	1029	38	5	64	1	1	9	71	59	88	877	40	15	34	53	64	28	116	4	125	54	71	168	36	21
OTU 161	11	13	2097	13	92	33	75	28	8	2	1	102	64	2	30	16	56	0	53	0	21	2	26	517	14	0	41	27	28	2	31	6	14	22	31	0	4	3	6	4	36	18	18	31	20	24	6	29	13	3
OTU 162	71	6	36	19	49	16	105	13	15	76	145	25	7	26	93	43	23	19	40	8	2	4	4	1	4	30	41	7	1	2	53	66	1	0	1	0	14	37	6	12	19	157	103	0	0	9	12	1	66	23
OTU 163	0	0	0	0	5	0	8	0	2	0	0	0	0	0	1	0	0	0	0	0	0	0	0	0	0	0	0	0	0	0	1	0	0	0	0	0	0	1	0	0	0	9	0	0	0	0	0	1	0	0
OTU 164	2	0	0	0	0	0	2	0	8	0	0	0	0	0	0	0	3	0	0	0	0	0	0	0	0	12	5	3	0	0	0	0	0	16	2	0	0	0	0	0	0	0	0	0	0	0	0	0	0	0
OTU 165	10	0	0	0	0	0	4	0	2	58	241	62	88	14	6	0	29	5	0	3	0	76	6	0	6	2	2	5	0	744	3	15	16	0	30	0	0	0	46	0	29	25	95	1462	2	18	1	0	10	15
OTU 166	0	2	0	0	0	0	0	0	0	0	0	0	1	0	0	0	0	0	1	0	0	0	1	0	0	0	0	0	31	0	0	0	0	0	55	0	0	2	1	0	0	0	0	0	0	0	0	0	21	0
OTU 167	91	0	0	0	5	35	2	1	0	20	61	9	0	13	18	5	46	13	1	0	3	33	26	0	0	27	4	3	5	12	2	31	2	5	0	1	16	0	0	1	49	13	9	3	10	0	30	14	0	0
OTU 168	1	18	9	4	3	32	28	0	3	10	15	10	116	18	10	3	31	10	3	8	20	122	0	9	30	27	11	6	3	758	1	23	22	20	17	22	27	21	1	51	0	24	62	1719	14	51	0	19	7	7
OTU 169	0	3	0	0	3	0	0	0	0	0	6	0	0	0	0	0	0	1	27	1	0	0	0	0	0	1	0	2	0	0	0	0	5	0	1	0	0	3	0	0	0	0	1	0	0	0	0	0	0	2
OTU 170	0	0	0	0	0	0	0	0	0	0	0	0	0	0	0	15	0	0	0	0	0	0	0	0	7	0	0	0	0	0	0	0	5	0	0	0	0	0	0	2	0	0	0	0	0	11	1	7	0	0
OTU 171	2	1	7	23	247	136	1	28	11	9	16	0	2	11	0	44	0	6	71	8	0	0	10	1	3	37	95	46	63	0	3	4	0	6	17	18	340	5	2	6	5	52	16	0	7	3	236	56	3	0
OTU 172	0	13	1	2	0	0	0	0	10	12	62	34	0	0	1	0	0	0	0	0	0	0	0	1	24	0	0	0	6	0	0	0	0	1	0	0	0	0	4	0	8	0	0	0	0	30	36	0	0	0
OTU 173	0	1	0	1	15	12	45	71	57	6	13	0	25	0	28	5	0	3	2	0	2	0	19	0	1	2	20	12	12	3	0	2	0	1	4	0	51	0	0	113	6	0	4	1	0	2	0	10	1	0
OTU 174	126	2	15	15	2	865	80	0	11	6	8	9	22	85	0	0	0	1803	12	3	266	1	1	2	1	63	118	16	21	4	8	146	0	0	1	53	23	0	42	41	10	11	1	3	529	1	5	1	132	0
OTU 175	0	0	13	3	0	1	68	5	0	13	5	2	0	3	3	38	13	11	8	0	3	0	1	0	0	0	31	2	1	4	0	0	0	31	0	0	3	0	19	0	2	3	4	17	2	0	0	120	20	0
OTU 176	38	24	60	44	49	1	26	116	0	19	69	14	13	0	106	102	8	10	54	730	33	158	3	13	42	11	4	13	51	7	17	1	85	29	9	111	32	3	11	17	21	70	6	11	48	83	7	59	5	453
OTU 177	12	3	11	36	73	14	71	7	41	13	26	13	0	32	14	20	71	95	34	1	64	53	116	0	64	2	11	40	40	62	30	40	14	82	65	6	62	11	21	12	138	68	0	5	121	131	125	160	18	5
OTU 178	46	40	1	5	80	99	0	54	7	1	17	4	0	0	3	83	0	176	3	0	20	1	0	15	0	8	3	4	0	0	7	0	33	3	1	19	0	9	60	3	3	5	16	1	17	0	24	0	13	6
OTU 179	2710	0	69	26	63	48	50	0	0	36	69	18	14	29	4	1	4	248	4	3081	19	6	0	1	0	1	1	0	286	5	5	17	9	0	0	22	0	11	3	1	0	10	45	3	88	8	0	18	7	15
OTU 180	111	16	3	21	152	71	280	7	23	118	122	37	252	108	211	782	68	228	37	10	61	67	102	3	5	18	189	129	165	49	21	229	29	69	135	109	49	34	56	45	206	175	56	24	60	18	203	29	110	22
OTU 181	14	0	1	23	8	172	12	34	1	6	8	8	21	49	39	229	1	493	15	11	42	1	571	1	6	2	29	21	47	10	66	57	0	5	0	65	0	1	23	35	951	20	2	0	241	19	54	8	41	21
OTU 182	0	0	3	1	0	82	22	0	0	0	0	0	0	6	38	0	0	53	0	0	0	0	0	0	0	0	0	0	0	0	7	1	0	7	0	0	12	0	0	0	0	0	0	0	0	0	0	31	0	0
OTU 183	12	4	9	41	27	2	0	0	8	7	0	6	15	19	0	178	28	194	30	4	54	1	13	0	3	57	9	3	0	42	2	51	1	148	81	37	10	19	0	71	58	9	3	0	42	5	0	79	60	18
OTU 184	11	3	0	3	1	2	183	8	0	0	1	0	12	3	0	0	26	14	73	2	0	0	0	1761	5	1	2	0	37	1	14	14	9	55	18	6	0	2	5	8	0	15	24	18	1	12	24	0	2	1
OTU 185	11	13	23	49	86	50	11	74	11	27	33	8	85	27	22	16	695	37	22	9	0	15	19	4	1813	0	3	7	57	413	45	107	24	50	80	1	42	100	15	26	43	95	4	433	4	34	59	46	21	16
OTU 186	45	17	0	0	17	5	0	2	1	8	0	0	2	1	0	0	0	1	0	2	25	86	0	1	2	0	5	0	0	0	0	6	0	0	3	8	5	0	8	0	7	0	24	1	0	6	0	2	0	0
OTU 187	18	134	14	10	116	4	57	239	22	43	30	5	106	130	168	120	5	9	113	26	21	281	86	50	118	2	457	214	3	12	139	268	112	135	183	7	178	53	30	23	250	41	84	2	14	264	179	125	175	93
OTU 188	21	2	19	15	149	69	43	79	355	107	128	38	15	825	245	50	45	51	13	19	22	28	18	0	1	21	7	21	161	68	13	6	4	116	2	1	36	10	6	39	43	10	68	170	29	1	41	351	1	8
OTU 189	56	58	46	51	103	15	15	29	16	40	23	5	56	15	50	393	6	18	79	21	51	27	78	24	49	20	61	24	126	1	30	18	77	99	34	3	0	24	83	9	188	167	15	1	11	92	216	72	10	904
OTU 190	0	0	25	0	5	1	42	0	0	36	38	0	82	0	0	4	0	0	1	0	1	0	16	0	5	5	0	0	0	0	0	0	1	3	0	0	0	0	44	0	22	0	0	3	0	7	0	31	5	0
OTU 191	1	15	0	18	12	781	85	27	1	16	46	71	183	10	86	103	10	14	44	3	5	17	31	1	9	4	22	7	111	25	9	5	16	77	38	1	14	15	2	6	92	22	58	24	30	23	88	107	63	10
OTU 192	37	1	928	22	20	80	13	156	745	10	4	6	163	56	15	47	31	191	154	73	344	32	29	2	0	1017	34	65	0	20	48	87	9	148	42	401	131	27	279	1357	39	17	12	73	212	9	75	169	26	29
OTU 193	10	25	33	31	20	76	70	458	11	56	88	46	7	13	18	50	0	2	468	2	3	547	0	7	0	58	36	7	288	0	4	9	14	0	0	6	165	1	744	52	4	180	34	25	1	2	432	35	43	3
OTU 194	315	7	31	0	3	8	0	1	23	0	1	0	0	328	63	63	0	7	2	0	15	1593	0	0	0	0	29	6	61	9	1	526	3	3	2	0	1	0	56	2	7	3	6	0	7	0	0	53	323	5
OTU 195	3	1	9	28	4	27	18	0	6	16	9	7	15	1	39	6	21	183	5	1	9	3	25	3	189	4	58	3	461	1	30	3	0	84	45	19	22	1	167	29	53	29	13	0	43	336	0	52	21	1
OTU 196	8	20	0	0	6	13	2	4	37	72	208	7	17	47	10	7	0	4	51	16	10	61	3	14	2	38	36	1	15	10	603	66	9	24	1322	4	8	297	207	57	2	80	60	1	4	3	57	13	19	134
OTU 197	27	21	1	18	68	155	185	102	2992	68	163	1367	30	76	41	11	31	49	118	11	8	9	35	3	446	21	63	37	72	18	39	132	6	57	24	6	78	33	26	51	37	153	73	85	34	930	29	26	86	4
OTU 198	62	1	3	10	9	0	0	0	0	3	0	0	75	11	2	12	0	0	0	0	0	8	0	0	2	0	7	0	8	0	0	19	14	0	0	0	1	0	2	0	0	0	0	17	13	3	0	2	2	0
OTU 199	2	0	0	69	33	191	6	0	3	73	160	25	33	4	21	72	0	1	4	1	3	2	5	0	21	19	21	7	0	9	4	12	0	60	46	33	0	0	36	0	0	61	44	0	28	33	68	23	25	1
OTU 200	17	4	8	40	34	47	36	26	0	1	21	1	57	390	0	4	3	10	42	11	21	139	4	2	13	32	26	17	22	20	61	11	0	52	0	19	11	26	3	2	0	25	6	34	9	17	13	12	24	9
