	Host 1	Host 2	Host 3	Host 4	Host 5	Host 6	Host 7	Host 8	Host 9	Host 10	Host 11	Host 12	Host 13	Host 14	Host 15	Host 16	Host 17	Host 18	Host 19	Host 20	Host 21	Host 22	Host 23	Host 24	Host 25	Host 26	Host 27	Host 28	Host 29	Host 30	Host 31	Host 32	Host 33	Host 34	Host 35	Host 36	Host 37	Host 38	Host 39	Host 40	Host 41	Host 42	Host 43	Host 44	Host 45	Host 46	Host 47	Host 48	Host 49	Host 50	
OTU 1	75	186	49	0	222	104	122	64	65	104	1	77	0	44	0	200	78	18	155	0	389	103	64	508	0	8	30	24	58	5	0	32	107	52	3	80	135	142	93	28	175	30	18	0	308	84	604	1401	3	805
OTU 2	0	44	20	10	12	14	4	19	71	52	13	15	1	1	1	0	42	90	5	0	9	50	1	31	1	2	8	57	3	0	44	1	28	1	1	15	0	2	0	20	26	1	5	17	0	18	2	20	8	4
OTU 3	0	1	0	2	26	0	34	0	19	105	2	26	118	0	1	3	77	0	23	18	0	0	0	192	39	1	31	104	61	0	2	0	0	1	66	14	1	0	1	31	3	0	45	26	2	0	0	95	22	0
OTU 4	0	0	20	0	0	0	0	0	0	0	0	0	0	0	0	0	0	0	0	0	0	22	0	0	0	0	0	0	0	0	0	0	0	0	0	0	0	0	0	0	0	0	0	0	0	0	0	0	0	0
OTU 5	491	1	275	42	931	773	65	495	106	31	728	293	185	10	0	223	333	265	601	263	212	312	738	135	39	121	660	5	550	860	148	379	380	412	8	54	0	153	2	2058	16	8	3148	1059	638	158	297	203	33	193
OTU 6	22	73	39	46	29	3	3	1	4	41	12	2	189	25	0	2	1	5	81	67	8	94	0	27	71	36	0	11	0	25	7	20	25	6	128	0	43	9	30	0	7	5	12	16	3	10	13	20	18	0
OTU 7	16	20	18	85	22	142	54	27	142	293	35	167	211	0	9	28	47	53	359	17	117	24	79	47	33	13	62	85	82	3	533	49	17	62	46	6	40	82	18	49	71	16	17	36	1	2	16	19	48	141
OTU 8	235	208	43	30	14	976	15	509	1216	110	24	134	127	109	141	53	72	44	59	52	80	91	9	41	99	0	814	120	876	13	47	51	134	431	95	4113	1218	86	195	16	17	2	28	88	32	782	118	23	78	233
OTU 9	44	120	6	0	1	4	0	0	0	12	0	7	12	16	70	0	35	5	75	3	1	6	197	0	2	9	1	0	5	63	3	18	66	1	1	0	22	218	3	4	9	0	0	17	15	0	2	0	4	3
OTU 10	74	0	1	1	0	67	9	26	0	17	1	71	1	11	3	6	7	0	43	0	0	1	2	1	58	114	3	0	7	0	1	0	1	26	0	0	13	2	29	2	5	1133	0	10	5	24	0	0	724	0
OTU 11	39	103	8	30	19	89	15	1	0	2	6	6	1	37	1	1	15	64	10	29	3	13	22	36	48	0	8	2	32	12	44	8	42	91	84	3	6	79	62	20	8	0	6	42	9	11	56	11	48	0
OTU 12	14	11	25	43	13	87	3	10	4	11	75	50	134	78	7	8	109	0	26	14	20	37	0	7	5	2	17	23	96	12	131	5	1	25	40	2	21	19	25	65	19	154	59	41	11	0	6	5	226	25
OTU 13	7	7	0	7	0	0	0	0	0	21	7	0	2	0	0	0	0	0	0	0	0	0	4	0	0	3	0	0	0	0	0	75	0	0	0	0	6	4	0	22	0	5	12	1	6	0	1	0	0	0
OTU 14	7	11	4	4	3	11	10	0	17	2	0	4	0	2	5	0	0	14	19	29	2	10	0	0	0	418	8	42	11	1	0	18	7	4	37	7	22	0	1	0	0	287	0	20	1	30	20	0	79	34
OTU 15	0	0	0	0	0	0	0	0	34	0	16	0	22	9	0	0	0	7	0	0	0	0	22	0	0	11	11	0	0	0	0	9	0	0	0	0	0	4	3	0	0	135	0	1	0	2	0	0	3	0
OTU 16	0	0	0	0	0	0	0	10	0	0	0	0	0	0	0	0	0	0	0	12	0	0	0	0	0	0	0	1	0	99	3	11	0	0	15	0	0	0	0	0	0	0	0	0	0	0	0	0	0	0
OTU 17	17	34	52	2	3	2	34	10	23	0	13	22	15	74	13	0	0	2	1	28	12	109	4	27	11	0	42	46	12	5	0	1	45	0	35	0	8	1	5	0	0	33	0	0	0	2	9	28	216	15
OTU 18	4	75	41	47	75	354	4088	76	267	22	9	20	25	19	117	58	93	6	60	19	10	95	22	162	31	6	117	17	30	198	17	0	29	160	4	2164	245	12	253	22	41	11	4	131	10	195	26	121	21	75
OTU 19	0	0	0	0	0	0	0	0	0	0	0	0	0	0	0	0	0	0	0	0	0	0	0	0	0	0	0	0	0	0	0	0	0	0	0	0	0	0	0	1	0	0	4	0	0	0	0	0	0	0
OTU 20	234	0	0	120	35	15	2	6	73	93	6	10	24	63	5	1	8	24	0	6	2	3	0	40	19	48	86	148	118	1	51	8	3	31	0	5	294	27	31	19	22	12	1	34	51	134	5	14	60	0
OTU 21	18	96	34	48	445	59	146	47	44	17	241	26	22	12	38	1	0	1	53	41	1	76	13	121	63	28	48	12	38	10	17	12	40	39	40	29	1	26	54	46	17	6	7	108	11	11	15	76	59	3
OTU 22	251	79	3	18	85	0	88	2	28	45	14	16	179	4	5	0	2	0	0	48	78	6	8	243	8	40	4	22	1	0	0	70	32	0	61	6	0	50	64	7	31	51	2	19	11	3	1	111	31	35
OTU 23	29	0	20	3	26	131	2	14	14	1	6	6	1	1	2	0	3	40	12	21	2	42	0	33	0	1	4	16	89	3	4	1	0	89	45	63	5	24	1	3	37	0	0	5	0	0	7	17	78	4
OTU 24	9	16	3	20	3	0	0	2	17	86	82	28	0	3	86	5	6	0	15	8	39	3	27	1	15	48	0	8	15	7	4	27	8	1	34	7	1	58	61	4	12	31	1	1	0	43	0	1	85	4
OTU 25	0	2	0	0	0	0	0	0	0	0	0	0	110	0	0	0	1	3	122	0	0	0	3	0	0	1	0	0	0	0	7	1	1	0	0	0	0	16	0	0	0	0	0	0	0	0	0	0	0	0
OTU 26	0	0	13	0	0	0	0	3	0	0	12	0	0	9	1	6	76	13	0	3	0	10	11	7	0	0	0	0	0	0	0	0	0	0	29	0	0	13	0	0	0	9	1	150	0	1	0	3	1	0
OTU 27	0	0	0	0	0	0	0	0	0	0	0	0	7	0	0	0	0	0	0	0	0	1	3	0	0	0	0	0	14	2	0	0	0	0	0	0	0	0	7	15	0	5	0	0	0	0	0	0	0	0
OTU 28	50	16	16	53	14	21	16	34	36	11	48	0	39	442	27	8	33	91	19	50	0	23	6	24	2108	30	8	147	4	17	206	4	25	2	61	8	21	1	12	58	3	90	19	18	17	0	55	24	7	3
OTU 29	211	25	4	16	4	88	5	33	13	69	48	12	18	52	70	5	19	16	34	15	9	11	17	1	3	94	0	5	26	20	4	22	1	31	71	3	12	45	102	52	64	2	6	80	0	1	42	1	25	7
OTU 30	0	0	0	0	0	0	0	0	0	0	0	0	0	0	322	0	0	0	0	0	2	0	0	0	0	0	0	0	0	0	0	0	0	0	0	0	0	0	0	0	0	0	0	0	0	0	0	0	0	0
OTU 31	121	8	0	0	1	2	0	0	11	259	36	130	16	3	1	0	90	0	355	0	0	0	0	0	0	94	0	1	2	24	44	0	5	2	1	0	18	0	93	64	192	1	26	27	0	73	52	0	26	27
OTU 32	26	51	16	2311	13	10	1	14	28	33	63	14	45	141	66	24	131	10	107	10	16	23	112	1	56	51	14	63	96	23	43	56	17	0	24	5	10	85	213	64	241	9	84	19	5	27	25	0	17	68
OTU 33	0	0	0	0	0	0	0	0	1	8	0	9	0	1	0	1	52	0	0	0	0	0	0	0	0	0	0	0	0	0	0	0	0	0	0	0	0	0	0	8	2	4	20	0	3	5	1	0	0	0
OTU 34	1090	66	77	0	4	3	0	5	1	1	8	15	23	101	7	11	57	29	0	18	7	146	1753	12	1	21	11	23	315	6	101	8	24	1	24	35	5	19	65	41	241	0	5	17	26	2	3	6	0	95
OTU 35	27	4	28	53	2	0	6	22	73	197	454	128	19	23	17	40	7	13	21	40	93	55	2	70	153	7	27	26	1	21	6	119	1	0	104	0	0	6	146	1	1	23	4	5	0	36	49	23	155	26
OTU 36	41	21	5	0	1	33	3	2	865	30	3	0	1	8	9	41	6	32	21	0	36	7	19	8	1	7	438	189	0	26	1	52	4	9	2	1	45	7	62	18	8	17	0	93	40	372	44	9	41	0
OTU 37	3	0	0	0	1	0	3	2	0	2	8	0	0	0	0	7	0	2	24	0	21	0	14	0	0	0	0	7	7	13	0	20	0	0	0	0	0	20	0	4	0	6	0	3	0	0	2	0	2	2
OTU 38	37	106	8	1	29	32	33	2	49	124	17	59	22	110	4	2	83	52	62	1	0	15	52	44	75	19	10	126	8	19	12	999	72	0	2	8	5	116	29	41	173	13	28	3	21	12	0	16	122	2
OTU 39	6	0	6	1	0	32	3	45	1	1	1	0	0	0	4	0	19	27	0	1	0	10	0	0	25	0	2	18	2	22	0	0	1	1	21	43	1	0	3	0	0	18	1	0	2	8	4	0	156	0
OTU 40	19	106	26	6	0	161	1	58	4	2	61	8	89	195	32	11	25	6	13	6	1	41	25	7	14	160	0	13	42	259	135	47	57	75	7	1	56	69	1	64	47	4	28	24	44	64	18	3	7	63
OTU 41	55	1	6	23	5	5	15	2	52	68	3	3	97	128	29	2	1	50	9	50	2	8	2	8	29	14	6	56	0	21	90	16	0	1	82	15	8	1	74	0	0	2	0	81	14	2	1	6	64	1
OTU 42	41	0	7	12	8	0	10	0	0	2	4	0	22	3	991	8	0	0	0	0	18	16	0	8	0	0	16	1	2	43	25	0	0	0	9	0	3	0	15	3	0	33	0	1	0	2	56	10	0	0
OTU 43	0	0	5	43	0	0	1	0	0	0	0	0	0	0	1	0	0	0	0	0	0	8	0	0	0	0	3	4	0	0	0	0	0	0	0	0	0	0	0	0	0	0	0	0	0	0	0	0	0	0
OTU 44	16	40	64	0	9	0	3	0	0	65	1	18	0	0	1	2	11	0	99	12	0	114	0	0	0	3	16	0	0	0	0	0	9	0	15	0	1	0	0	0	10	0	0	6	95	0	0	0	3	0
OTU 45	65	4	7	5	36	24	123	6	13	51	4	3	0	2	283	3	40	8	184	324	45	16	8	85	58	4	0	5	1	87	9	22	3	6	511	76	43	6	3	0	44	11	11	6	2	4	16	41	33	147
OTU 46	64	62	0	29	111	1	75	0	1	11	1	48	8	29	102	11	35	97	50	4	13	0	31	76	231	132	5	233	17	59	311	0	30	3	1	1	78	27	12	41	88	14	55	12	34	25	31	46	70	18
OTU 47	0	0	1	0	0	1	36	0	0	0	3	0	0	0	0	1	0	27	1	10	0	5	0	30	0	1	0	0	2	0	1	3	0	0	45	35	0	0	0	2	0	1	3	0	0	7	2	19	0	4
OTU 48	20	77	152	1	40	5	27	29	19	77	12	51	5	14	66	24	59	0	105	49	0	290	45	37	0	32	21	112	15	0	32	23	20	0	78	37	15	25	38	33	96	45	7	105	6	19	2	19	5	0
OTU 49	232	113	5	4	10	0	0	0	22	0	2	0	0	172	0	1	16	13	5	9	12	10	0	6	4	2	0	17	18	4	27	0	37	0	5	4	1	15	205	465	26	14	278	1	0	3	0	1	33	8
OTU 50	0	6	11	19	85	29	79	29	34	0	7	4	62	45	301	4	68	525	159	4	23	19	0	203	60	10	64	1628	16	67	223	355	7	8	36	54	124	0	36	4	11	15	30	4	21	24	2	122	132	9
OTU 51	73	9	76	40	33	15	89	3	12	1	0	11	11	5	14	6	0	19	64	43	0	160	4	49	4	34	6	0	98	16	0	11	9	1	81	44	20	0	4	22	0	1	6	35	14	13	332	35	61	32
OTU 52	90	281	21	85	24	6	17	11	20	33	93	67	62	19	50	949	75	52	97	131	2302	51	965	84	115	39	6	177	1	269	138	29	128	4	299	91	52	1935	34	35	138	93	20	87	9	120	56	38	32	138
OTU 53	0	0	0	0	1	0	0	0	0	6	0	0	0	0	0	0	103	0	0	0	0	0	0	0	0	0	0	0	0	0	0	0	0	0	0	0	0	0	0	25	0	7	0	0	0	0	0	0	34	0
OTU 54	38	42	102	46	1	18	4	1	125	38	26	21	106	375	27	2	198	76	181	4	15	216	32	22	95	137	80	17	12	27	48	89	33	2	7	26	210	62	11	141	163	56	125	155	3	2	23	7	118	47
OTU 55	0	0	0	0	0	0	0	0	0	0	0	0	0	0	0	0	0	0	0	0	0	0	0	0	0	0	0	0	0	0	0	0	0	0	0	0	0	0	0	0	0	0	0	0	0	0	0	0	0	0
OTU 56	34	3	5	0	3	1	3	6	2	6	0	0	18	1	22	8	14	29	3	4	0	11	10	0	1	11	10	7	0	0	0	0	6	1	71	10	0	1	0	11	10	4	25	3	1	7	3	0	0	0
OTU 57	481	72	315	71	300	115	21	30	75	304	82	93	158	919	41	8	221	109	63	125	30	620	4	180	113	52	14	108	37	33	736	60	32	38	260	11	161	20	41	16	77	19	14	268	36	19	32	77	68	22
OTU 58	0	32	0	2	11	67	31	41	1	0	90	0	0	0	0	3	93	2	9	3	1	0	6	28	54	13	2	112	33	17	19	5	0	29	31	14	137	25	8	957	5	27	435	2	1	17	0	18	1	20
OTU 59	0	213	14	85	158	6	38	0	20	14	16	5	31	10	0	12	3	10	9	4268	47	27	63	239	15	62	50	186	0	9	1	8	89	6	2	31	20	73	12	6	19	2	4	0	44	1	86	103	41	44
OTU 60	7	3	22	31	3	3	11	5	0	25	7	3	16	175	57	0	22	57	19	7	20	49	254	12	211	1380	0	62	7	249	6	27	0	12	6	4	9	65	36	81	16	41	60	26	3	30	37	2	21	11
OTU 61	0	180	220	20	62	57	20	2392	7	17	16	1078	10	39	172	20	30	11	79	89	45	497	366	57	79	13	3	12	2	102	63	19	100	10	228	54	3	630	54	1	7	12	13	7	98	25	20	21	2	48
OTU 62	6	14	0	0	0	21	0	42	10	12	21	3	9	30	0	0	1	174	8	1	0	0	1	0	0	46	65	0	1	54	23	485	6	23	5	1	33	0	1	4	0	10	0	12	0	44	0	0	0	0
OTU 63	0	32	8	1	7	2	24	2	0	0	0	0	4	3	38	28	27	0	36	53	14	8	36	55	6	4	0	22	3	1	32	0	6	0	10	21	60	73	25	2	34	84	0	0	11	0	0	40	179	3
OTU 64	53	264	113	87	17	26	11	0	7	17	6	18	195	20	95	36	129	114	201	16	61	194	23	34	13	121	10	249	22	121	42	4	130	11	49	38	41	48	2	507	2	87	307	44	12	4	47	17	73	34
OTU 65	0	0	13	0	0	0	0	0	0	0	0	0	10	0	0	0	0	0	14	0	0	45	0	0	0	0	0	1	0	0	0	0	0	0	0	0	0	0	0	0	0	0	0	0	0	0	0	2	0	0
OTU 66	72	41	27	9	5	3	5	12	77	0	24	14	31	62	4	35	9	41	105	40	104	49	1	0	55	67	31	39	3	0	20	1	21	2	35	3	2	15	234	45	46	5	13	6	11	11	15	0	0	74
OTU 67	60	38	108	7	0	63	13	76	73	11	8	11	3	104	2	5	28	48	8	2	1	234	4	14	1	1	30	6	46	77	13	3	18	9	0	1	57	5	0	2	9	3367	0	44	4	15	24	2	11	57
OTU 68	0	1	20	7	0	47	33	31	13	21	8	51	2	5	16	0	0	0	0	8	3	47	6	0	1	0	8	17	0	7	2	1	0	33	29	5	0	0	33	0	6	0	0	44	7	0	1	0	1	2
OTU 69	40	56	32	32	27	6	98	25	45	20	873	12	0	8	17	0	516	76	260	3	1	81	404	60	144	16	175	4	33	4	107	122	14	8	4	41	21	1030	39	344	3	74	211	26	0	94	3	55	10	8
OTU 70	75	0	0	2	6	22	10	0	0	0	0	2	0	61	84	2	1	38	0	0	0	0	22	37	61	14	11	1	2	44	43	1	1	0	2	4	0	123	26	42	42	18	0	8	1	1	3	11	0	0
OTU 71	4	0	0	12	90	99	74	17	0	24	1	10	11	27	3	7	11	29	0	0	2	0	0	155	0	6	0	96	0	1	22	16	0	47	0	8	0	0	2	0	48	0	2	91	1	2	38	43	32	3
OTU 72	148	0	19	106	29	107	22	20	4	164	5	44	158	47	0	47	3	14	70	41	228	39	21	62	0	29	13	12	4	13	7	32	1	49	19	31	8	20	110	21	935	54	11	2	66	20	85	32	8	182
OTU 73	1	39	17	1	12	3	57	56	108	14	54	6	29	30	1	0	35	18	13	11	0	37	9	10	0	5	46	36	8	3	47	3	35	4	121	26	26	13	79	0	67	0	9	0	2	3373	1	2	0	0
OTU 74	6	225	2	24	5	2	5	16	1	10	9	21	77	52	75	17	7	3	172	3	2	2	3	36	140	6	0	16	15	207	20	33	77	9	5	66	3289	2	33	0	5	7	0	53	5	22	1	21	32	0
OTU 75	12	29	49	7	0	11	27	53	8	28	3	8	25	9	7	28	69	24	10	4	52	108	9	1	133	48	3	2	1677	48	203	0	48	2	18	15	29	15	5	80	7	1	9	32	1	13	6	1	27	24
OTU 76	6	0	3	2	0	0	1	0	9	0	204	4	2	1	0	7	0	3	75	18	2	13	0	1	0	64	0	0	0	26	2	5	0	3	37	1	1	0	3	0	3	49	2	2	0	11	3	0	51	5
OTU 77	78	10	76	26	112	2	67	4	25	46	15	77	59	8	138	2	16	160	76	6	17	20	17	210	41	5	0	3	34	14	50	138	1	0	29	25	21	24	21	1	74	37	7	16	55	41	0	98	17	0
OTU 78	31	0	40	25	850	0	945	3	37	0	18	5	1251	63	1	1	0	7	28	1	7	61	1552	1224	36	96	23	3	21	5	11	22	2	1	7	562	26	11	3	20	13	15	8	37	22	19	2348	567	18	5
OTU 79	136	234	298	167	358	663	459	243	52	49	157	74	634	60	118	29	360	82	136	67	8	325	23	736	140	53	3210	58	219	87	108	60	77	398	123	171	93	43	254	169	105	60	73	130	20	19	100	330	210	173
OTU 80	100	70	21	5	8	204	90	153	5	21	0	18	61	92	92	12	16	31	59	9	11	37	9	27	244	11	0	31	30	79	25	122	54	128	3	27	34	50	11	2	89	56	4	72	2	39	249	20	49	0
OTU 81	82	67	30	39	14	8	15	33	68	38	5	19	68	1456	116	26	134	79	1	130	7	56	61	1	677	1	15	114	20	78	67	16	43	8	284	6	70	51	26	63	22	4	81	45	33	0	58	1	28	55
OTU 82	0	11	7	4	1	211	7	186	30	2	87	1	1	46	6	25	0	47	1	10	6	13	19	23	0	21	0	11	95	164	2	0	7	113	38	0	119	32	0	1	1	145	33	6	0	13	4	9	28	0
OTU 83	0	4	0	0	0	0	1	14	10	0	37	3	12	0	0	0	0	0	0	1	0	0	3	4	10	1	24	2	0	4	30	0	3	0	4	0	1	3	8	25	31	1	0	0	1	3	0	0	0	1
OTU 84	1	180	23	6	0	1	4	0	1	8	18	18	38	8	0	1	23	28	2	1	2	42	2	33	28	0	0	11	12	6	27	0	62	0	15	7	32	22	12	1	8	6	1	0	0	4	27	14	0	17
OTU 85	28	43	10	14	0	12	13	32	100	12	1	1	6	0	24	1	0	0	0	71	3	9	1	0	0	19	10	1	56	162	1	2	13	4	163	0	0	4	14	0	7	21	0	0	0	1	0	0	31	0
OTU 86	6	0	0	8	0	0	0	0	0	0	1	0	0	13	0	0	0	0	0	1	0	0	0	0	24	0	0	0	15	0	0	0	0	0	1	0	0	0	0	0	0	0	0	0	0	0	0	0	0	0
OTU 87	0	0	3	6	5	0	28	0	1	0	6	1	3	30	0	0	4	2	0	5	0	7	0	0	0	22	0	0	1	29	0	21	0	5	13	10	85	5	6	8	2	3	9	55	0	0	0	0	18	40
OTU 88	6	19	0	0	0	0	0	0	0	6	0	2	0	0	0	0	0	0	0	0	2	0	0	0	0	0	0	0	9	0	0	0	31	0	0	0	14	14	0	0	0	0	0	0	0	0	0	0	9	0
OTU 89	4	13	0	0	2	0	32	3	77	0	888	0	65	20	26	0	0	26	0	6	1	0	0	19	1	28	39	0	3	254	0	6	7	0	20	1	83	0	84	0	0	19	31	2	1	0	47	7	0	0
OTU 90	0	9	0	3	0	0	0	0	70	0	0	3	90	0	1	0	0	0	0	0	0	0	0	0	1	1	14	0	13	0	0	5	6	0	0	0	1	0	3	0	0	3	2	0	0	4	0	0	0	1
OTU 91	0	0	0	1	0	0	0	0	2	3	0	1	6	0	0	0	0	0	0	0	0	0	0	0	0	12	0	0	0	0	0	0	0	0	0	0	1	0	0	12	6	16	0	0	2	3	3	0	0	0
OTU 92	1	0	0	7	13	4	447	0	0	3	0	1	5	56	0	3	0	0	1	0	0	0	15	11	7	0	1	0	0	0	1	3	0	1	0	208	0	1	0	0	8	14	3	0	2	0	2	13	142	6
OTU 93	4	0	0	0	0	0	0	0	1	0	1	1	1	0	2	0	0	150	0	0	0	1	2	0	3	0	0	0	6	4	0	0	0	2	0	0	14	0	6	47	4	0	0	0	0	0	0	0	0	0
OTU 94	347	75	18	1	0	11	14	41	66	482	94	282	8	42	5	11	0	146	238	56	17	34	44	31	166	69	12	13	15	11	421	20	49	18	70	8	5	80	62	67	69	55	1	57	3	30	16	16	93	9
OTU 95	7	0	0	50	0	1	0	3	0	1	51	6	0	3	1	0	21	0	23	0	5	0	0	6	80	0	8	5	8	0	0	17	2	1	0	0	0	2	0	12	81	0	0	35	1	0	0	11	0	0
OTU 96	0	0	8	0	0	17	0	0	0	0	0	0	0	0	0	10	0	0	0	0	0	22	0	0	0	0	0	3	0	0	0	2	0	6	0	0	47	0	0	0	0	6	0	0	0	0	3	0	0	0
OTU 97	0	1	17	0	0	6	0	2	1745	0	0	0	5	10	1	5	1	0	0	16	1	37	0	0	3	72	800	0	14	0	0	0	0	1	14	0	0	1	0	0	37	0	0	65	0	658	0	0	0	0
OTU 98	11	3	24	57	0	11	1	6	0	0	36	0	2	21	0	320	0	4	1	36	667	51	21	0	0	1	5	3	3	16	6	0	0	20	46	1	25	0	79	0	0	0	0	0	9	2	105	0	14	120
OTU 99	3	10	21	42	53	0	6	15	16	91	41	38	24	32	5	18	80	113	140	18	41	31	56	55	37	10	0	32	61	125	77	26	6	1	34	0	33	52	86	50	19	4	45	36	43	81	58	31	35	37
OTU 100	95	70	19	4	22	36	6	1993	1	3	19	2	2	2	3	9	38	1	17	27	6	25	4	3	14	3	0	8	4	76	23	0	47	23	12	11	1	12	13	51	0	2	0	27	1	44	6	1	43	76
OTU 101	0	0	4	0	0	0	0	0	0	0	0	1	0	0	1	0	0	0	11	0	0	6	0	0	0	2	0	0	0	0	14	6	0	0	3	0	7	0	0	0	0	6	0	0	0	5	0	1	0	0
OTU 102	0	6	2	2	2467	0	0	6	1	1	18	2	11	2	35	0	2	0	1	0	0	4	0	0	12	2	11	0	0	11	6	55	0	0	0	0	16	26	0	0	0	1	2	97	0	0	13	0	0	0
OTU 103	1	95	2	19	68	7	18	2	0	4	44	28	88	119	5	7	21	8	2	21	66	2	0	77	0	1	0	413	1	3	18	902	40	9	43	51	1	3	0	2	2	40	5	32	1	0	15	49	0	18
OTU 104	42	4	0	21	1	56	104	25	44	187	19	118	37	25	150	13	68	71	30	86	16	1	61	17	15	118	72	193	6	0	68	14	4	34	135	11	84	16	13	87	64	45	7	0	31	21	40	3	30	134
OTU 105	5	0	0	0	55	0	49	0	19	0	11	2	36	30	21	2	26	0	0	1	0	0	9	83	0	1	29	1	0	0	5	0	0	0	14	32	0	0	0	11	0	0	0	27	0	5	0	31	0	14
OTU 106	8	134	30	1	4	16	0	0	2	0	34	0	36	0	0	0	5	0	0	0	0	66	0	23	6	2	0	0	1	0	0	1347	78	0	18	8	0	0	0	0	0	0	0	94	0	0	0	7	0	0
OTU 107	0	1	0	1795	11	0	31	7	0	1086	45	453	20	0	29	51	14	1	0	0	153	0	11	3	0	1	5	151	0	0	4	29	0	2	3	17	0	6	112	26	10	10	3	6	13	0	122	2	2	185
OTU 108	0	23	74	0	10	15	0	16	0	0	54	11	1	42	12	0	25	0	0	48	2	124	373	0	0	41	0	0	13	0	10	4	18	6	120	1	1	607	1	5	11	5	2	3	0	2	1278	0	16	0
OTU 109	0	0	0	0	0	0	0	0	0	0	0	0	0	0	0	0	0	0	0	0	0	0	11	0	0	0	0	0	0	0	0	0	0	5	0	0	0	9	0	0	0	0	0	0	11	0	0	0	0	0
OTU 110	8	17	1	0	3	0	4	10	24	3	6	19	59	7	0	9	67	92	42	12	13	3	9	30	114	29	30	21	42	1419	129	69	22	0	26	0	45	55	29	7	18	3	0	85	1	2	17	20	67	49
OTU 111	0	0	0	0	1	0	0	0	0	0	0	0	0	0	0	0	0	0	0	0	2	1	0	1	5	3	0	0	0	10	0	0	1	0	0	21	0	0	1	0	0	153	0	9	5	8	0	0	49	0
OTU 112	1	0	5	2	27	5	107	1	7	7	12	0	31	0	1	2	0	21	16	2	13	13	3	38	12	1	21	29	8	167	0	0	0	2139	0	15	0	0	13	4	43	0	0	0	49	0	8	24	5	1
OTU 113	0	0	21	2	0	0	0	0	3	0	12	0	9	0	0	0	33	0	0	5	41	40	0	1	1	0	1	27	0	0	12	6	0	1	0	8	0	1	7	0	1	0	1	0	0	5	3	0	6	1
OTU 114	21	47	32	48	17	145	9	2	36	16	99	35	95	37	2	33	12	46	39	164	71	71	9	74	27	12	218	49	16	76	163	45	40	54	364	43	29	1	44	0	50	80	21	23	30	27	8	39	45	126
OTU 115	64	315	52	13	4	105	42	30	23	91	354	56	40	71	52	26	79	57	25	24	21	104	26	29	70	60	12	57	7	150	39	184	230	49	14	14	59	34	92	11	12	7	11	46	39	12	55	15	68	34
OTU 116	39	274	20	72	32	2	24	14	33	269	50	54	131	13	3	6	11	55	201	64	4	28	3	46	12	55	2	129	65	69	294	121	205	13	72	22	138	15	73	49	1524	42	3	6	16	5	0	26	3	64
OTU 117	27	38	0	1	72	7	11	3	6	73	36	6	45	38	45	11	13	12	10	10	26	0	30	37	9	0	16	25	14	34	101	4	38	13	18	25	10	54	0	0	12	5	5	42	5	15	16	25	3	0
OTU 118	0	0	0	2	3	9	0	0	3	0	32	0	9	14	80	1	0	6	2	20	10	3	29	5	11	7	0	0	1	3	0	0	1	0	0	0	0	38	0	0	9	0	0	0	0	2	0	8	68	2
OTU 119	84	22	8	0	27	74	43	8	13	341	31	166	21	11	69	32	4	1373	95	19	6	19	8	43	59	2	2	123	2	191	90	24	12	170	52	1	2	0	314	30	115	6	21	15	12	8	57	10	32	131
OTU 120	0	125	0	30	22	0	13	13	0	248	45	205	98	1	0	1	9	0	0	1	4	0	4	0	0	2	0	0	13	17	10	0	69	0	11	54	4	3	1	8	1	81	0	0	1	5	2	0	4	2
OTU 121	1	12	5	15	42	2	24	7	40	0	71	198	8	5	5	7	109	0	56	40	1	12	1	69	1	33	63	0	1	19	32	22	0	2	75	44	45	3	3	39	39	69	17	0	2	18	5	22	8	0
OTU 122	8	0	12	0	20	7	5	3	0	81	16	41	59	5	22	1	5	0	14	2	13	18	32	54	27	38	7	112	1	307	73	2	4	0	2	8	1	61	12	32	51	23	8	0	5	1	5	37	2	7
OTU 123	169	1272	121	35	82	131	80	113	52	152	86	23	306	311	163	72	98	142	138	83	19	256	97	125	27	143	35	364	100	261	278	214	2351	79	184	30	115	186	140	36	382	40	29	67	101	115	54	51	469	94
OTU 124	0	0	0	0	6	0	2	1	12	0	0	0	0	1	0	4	0	1	56	6	0	0	2	9	3	12	34	0	0	7	8	60	0	0	0	5	1	0	47	8	4	3	0	3	6	0	7	0	0	3
OTU 125	172	195	145	832	74	129	38	45	28	186	162	129	146	161	61	180	48	27	205	39	436	308	82	96	404	30	36	143	14	286	156	91	103	825	75	55	81	154	1178	67	1305	72	9	148	329	7	299	46	210	721
OTU 126	0	1	0	0	0	0	0	0	10	0	22	0	14	12	0	17	0	0	0	0	42	0	1	0	0	0	0	0	4	16	0	12	0	0	0	0	0	0	0	10	10	0	0	0	1	6	0	672	4	13
OTU 127	77	4	0	65	0	24	2	12	106	85	5	50	69	4	12	0	0	6	7	0	4	0	17	11	9	4	60	0	21	0	1	132	3	1	9	2	28	37	134	3	0	12	7	2	0	9	6	3	24	0
OTU 128	335	267	91	152	34	202	38	106	54	321	85	226	93	193	184	731	38	137	150	45	1145	211	398	33	84	277	51	180	110	57	348	66	2156	70	51	39	191	138	145	23	505	45	27	130	2624	129	1195	26	111	2768
OTU 129	0	0	0	0	0	0	3	3	19	0	0	0	0	4	0	1	0	0	0	1	0	0	1	0	0	13	7	0	0	0	0	2	0	0	0	0	0	0	18	0	1	9	0	8	0	53	0	0	6	0
OTU 130	153	0	21	56	16	57	3	8	9	116	146	93	7	18	8	5	554	350	7	148	7	38	250	39	3	3149	44	20	26	0	43	133	1	53	219	0	3	483	72	549	12	7	264	7	20	18	65	17	1	12
OTU 131	6	14	23	2	467	5	9	10	41	49	2	34	19	9	2	4386	25	17	14	0	25	37	7	82	24	4	38	7	25	7	56	3	12	0	15	55	20	27	5	33	1	43	750	12	339	22	9	46	43	64
OTU 132	1	0	9	0	1	29	0	61	3	9	19	42	21	32	1	12	28	45	5	841	26	10	57	0	0	149	1	0	3	131	0	3	0	28	1533	5	0	160	25	0	17	1	12	2	0	6	2	0	1	5
OTU 133	1	0	0	51	0	2	7	7	0	0	0	15	0	128	17	13	2	6	23	0	1	0	0	0	9	0	0	0	0	9	0	0	0	0	0	3	0	0	0	2	1	0	4	0	19	0	2	0	55	0
OTU 134	97	18	195	12	50	5	2	1	32	29	0	14	107	27	129	23	3	0	124	26	39	347	10	82	0	25	6	3	15	85	0	0	17	0	65	1	101	1	33	0	0	1	10	1	27	4	66	30	5	7
OTU 135	44	14	12	1	29	0	19	7	17	44	23	13	21	99	1	0	28	24	2	3	2	50	1	10	1	29	7	99	6	24	238	9	4	1	54	19	26	47	22	0	9	36	0	8	7	23	15	8	5	18
OTU 136	4	28	2	80	4	2	0	0	3	5	48	5	38	22	4	2	28	7	8	43	0	4	59	9	3	10	0	21	12	44	16	24	2	3	34	0	0	29	0	13	2	6	2	17	3	0	0	4	40	3
OTU 137	0	40	0	16	0	5	39	2	0	5	0	0	138	13	3	868	1	8	0	0	1317	3	0	0	2	29	0	0	0	125	13	0	13	3	0	11	0	1	41	0	43	1	6	9	6	0	0	2	0	24
OTU 138	1	18	34	9	49	55	25	59	0	3	177	17	35	3	23	6	16	0	18	4	13	55	0	130	114	25	1	3	12	14	59	6	12	37	3	7	4	2	0	18	0	10	3	2	13	0	7	64	7	0
OTU 139	98	207	5	81	10	46	30	54	67	128	34	146	57	65	6	7	117	95	91	12	38	10	3	63	12	40	37	36	22	20	69	1	92	12	23	10	54	8	191	15	73	370	501	29	1907	58	17	1608	899	82
OTU 140	447	104	3240	40	4	213	76	58	473	160	319	178	181	383	36	52	45	30	1524	28	19	106	11	52	83	74	118	108	62	63	717	9	40	56	10	56	350	5	44	39	5	59	16	201	19	80	20	13	95	38
OTU 141	0	0	0	0	0	0	0	0	0	0	0	0	6	0	0	0	0	0	14	0	0	0	0	0	293	0	0	0	0	0	0	0	0	0	0	0	0	0	1	0	0	0	0	0	0	0	0	1	0	0
OTU 142	0	0	7	0	0	0	0	0	0	0	2	0	0	0	1	0	0	2	0	0	0	20	1	0	0	1	0	0	0	0	0	7	0	2	0	0	39	1	0	0	0	0	0	0	1	0	3	0	0	0
OTU 143	6	0	7	0	21	18	0	0	12	0	0	1	11	9	51	0	0	1	18	0	0	13	0	47	5	2	0	0	43	2	1	1	0	34	0	0	3	0	9	5	0	0	0	6	1	0	41	26	0	5
OTU 144	0	199	1	0	0	3	1	0	0	4	1086	1	0	0	28	0	0	0	14	32	4	1	0	0	23	3	28	0	0	0	1	0	77	7	5	3	0	1	1	0	25	20	0	0	16	0	0	0	6	1
OTU 145	99	9	80	7	29	23	0	22	187	5	108	19	181	101	3278	3	476	24	12	1	11	139	0	16	204	17	105	10	67	10	56	89	2	22	3	4	36	9	3	72	36	3	112	102	4	3	0	2	5	1
OTU 146	21	29	21	3	0	10	7	12	0	7	36	0	30	91	2	0	0	3	0	3	33	35	33	16	1	5	66	15	0	1	1	0	8	7	21	3	10	83	81	41	1	195	3	44	19	15	10	9	0	0
OTU 147	50	295	3	42	4	10	0	2	36	12	10	15	3	19	4	1	25	31	9	0	0	6	0	0	10	55	56	12	5	0	56	9	118	11	0	0	3	0	1	10	0	8	0	25	1	0	20	0	7	0
OTU 148	34	29	53	25	41	2	16	16	19	13	2	2187	46	77	7	6	1366	61	73	12	29	81	29	39	54	0	1	21	8	69	65	5	3	1	19	0	2	33	7	463	0	14	232	0	2	13	3	3	9	6
OTU 149	32	0	0	34	0	2	0	3	0	2	44	25	6	9	63	33	41	16	84	0	2	0	0	0	2	39	7	2	0	57	6	89	0	2	0	0	1	6	62	12	9	2	2	0	1	2	5	0	58	0
OTU 150	3	9	41	6	3	0	0	2	0	0	11	0	16	34	0	8	0	16	0	0	62	63	0	0	2	1	4	19	0	0	62	9	2	0	0	7	16	23	12	1	2	0	2	8	0	77	0	0	3	2
OTU 151	11	76	0	5	0	7	11	1	0	4	29	31	1	95	11	79	2	2	10	72	19	6	0	1	2	28	0	56	6	0	2	54	855	0	112	0	1	4	20	1	33	29	2	31	14	2	0	2	0	0
OTU 152	135	132	78	21	17	54	57	10	6	75	56	28	59	169	24	16	102	19	40	18	37	151	15	31	41	29	0	0	0	7	131	54	43	15	12	1	2	20	38	23	4	30	24	1	19	2	2	9	1	0
OTU 153	0	0	0	1	0	0	0	0	8	0	0	0	0	1	0	0	0	0	6	0	0	0	0	0	0	0	16	0	0	12	0	0	6	0	0	0	0	1	0	0	0	0	0	0	19	0	0	0	4	0
OTU 154	2	0	0	0	0	0	0	0	0	20	0	22	13	0	0	0	7	0	0	2	0	0	0	0	2	0	1	5	0	31	0	0	0	0	0	0	0	1	0	0	0	72	0	0	19	0	0	0	95	19
OTU 155	20	69	0	72	0	402	0	285	7	0	0	0	9	74	18	0	0	0	3	3	3	0	7	0	0	10	7	76	117	26	81	0	10	225	5	0	1	39	49	1	45	0	0	0	1	1	0	0	22	10
OTU 156	173	196	68	33	86	43	69	12	23	71	63	24	29	63	78	2	264	34	85	11	4	122	15	115	3	31	31	26	22	92	26	65	89	34	64	69	153	12	25	152	91	15	20	20	1	58	25	64	26	1
OTU 157	1	0	0	9	261	6	68	0	3	2	0	9	21	17	76	1	2	94	0	0	2	0	0	208	1	0	12	284	0	0	13	35	0	2	0	11	0	5	0	2	21	151	0	2	0	2	0	101	534	1
OTU 158	0	0	0	1	0	0	0	0	0	0	0	2	0	0	0	0	0	0	0	0	0	0	0	0	0	2	0	26	0	0	0	2	0	0	0	0	0	0	0	0	0	0	0	0	2	3	0	0	67	0
OTU 159	12	323	34	1	6	0	16	3	62	78	16	3	92	1	0	8	6	8	29	82	2	78	3	37	26	0	1	0	6	4	18	26	194	6	111	33	0	22	4	3	0	0	31	6	4	2	3	4	4	13
OTU 160	291	32	33	309	87	73	108	6	95	58	27	11	236	84	171	156	117	49	140	86	230	62	218	226	33	55	45	335	24	110	359	152	12	57	125	95	75	414	726	96	43	13	34	591	80	216	107	132	126	368
OTU 161	19	5	14	25	52	110	7	76	12	8	43	5	1	0	0	0	4	2	30	23	13	29	3	11	139	104	12	12	8	85	24	4	10	81	44	0	0	9	1	1	73	0	0	23	0	3	14	15	6	28
OTU 162	22	1	2	2	465	9	303	10	72	74	68	34	11	29	141	10	5	6	33	7	4	8	0	781	47	12	2	149	2	40	19	115	11	16	0	249	12	13	89	18	21	10	10	569	18	18	17	388	19	11
OTU 163	0	0	0	0	0	0	0	0	0	0	0	0	20	0	0	1	0	5	0	0	0	0	1	0	0	0	0	0	0	138	0	0	0	0	1	0	0	5	0	0	0	0	0	0	0	0	0	0	0	15
OTU 164	0	54	0	0	0	0	1	0	0	0	0	0	0	0	4	3	10	0	0	0	0	0	0	0	0	0	0	34	0	0	0	0	8	0	1	0	0	0	0	7	0	13	30	0	0	5	0	0	0	0
OTU 165	40	18	0	21	4	28	0	15	0	25	634	9	79	0	9	0	0	4	8	44	19	1	4	10	1	1	21	42	42	0	9	3	12	31	64	0	12	3	15	3	11	24	0	15	8	0	10	19	37	0
OTU 166	0	0	0	0	0	0	0	0	0	0	0	0	0	0	0	0	0	0	0	0	0	0	0	0	0	1	0	0	0	0	0	0	0	0	0	0	0	0	0	2	0	0	7	0	0	0	0	0	13	0
OTU 167	2	31	82	10	1	48	24	13	1	19	0	2	0	0	23	2	9	0	10	31	0	195	0	3	3	33	2	0	9	23	0	31	16	8	54	78	55	0	0	3	49	21	0	3	0	0	0	5	21	2
OTU 168	41	69	11	6	8	15	29	20	4	21	7	24	82	28	103	1	4	31	1	8	36	15	15	12	80	26	5	21	1	13	73	16	44	11	11	0	5	15	23	24	13	1	5	0	8	4	52	8	35	23
OTU 169	2	0	0	2	0	1	0	0	0	1	7	0	0	0	0	0	0	0	0	0	15	0	0	4	0	0	0	12	0	0	0	13	0	0	0	0	0	0	1	1	4	0	0	0	0	0	5	1	0	1
OTU 170	0	0	0	0	1	0	0	0	0	0	6	0	0	0	0	0	0	0	0	0	0	0	0	0	0	0	0	0	0	23	0	0	0	0	0	0	0	0	0	0	2	0	0	0	0	0	0	0	0	0
OTU 171	0	53	11	2	10	138	0	139	7	34	43	60	289	37	49	2	0	74	146	1	0	17	29	19	0	3	1	10	4	17	3	28	27	90	5	16	2	1	44	33	1	1	2	0	37	9	0	15	4	42
OTU 172	6	0	0	0	19	7	5	0	0	0	0	0	0	0	0	0	0	0	2	2	0	0	17	9	0	2	14	0	165	0	0	5	0	2	0	0	0	3	0	0	1	26	0	0	0	0	0	4	0	0
OTU 173	8	27	0	0	0	1	0	0	2	66	4	11	196	68	0	0	23	76	0	0	24	0	11	1	21	12	217	72	6	66	4	11	18	1	0	9	0	11	1	0	93	0	0	1	3	0	0	0	0	0
OTU 174	0	3	10	27	3	15	0	8	20	11	1	583	11	6	2	1	3	4	5	0	0	31	0	13	8	7	7	160	26	8	1	20	0	2	1	0	21	40	0	1	9	0	6	2	8	23	2	1498	0	0
OTU 175	1	2	63	16	23	1	0	0	9	9	0	22	74	71	2	0	4	11	6	1	5	115	30	26	3	1	34	2	7	17	53	22	3	1	30	0	34	9	9	21	12	1	1	1	11	0	0	22	1	0
OTU 176	91	32	6	35	38	0	1	4	37	0	11	3	33	91	32	11	20	10	21	5	16	26	0	38	52	27	21	17	14	10	123	28	9	2	27	6	71	4	23	49	12	350	11	29	11	11	37	32	164	22
OTU 177	45	0	26	0	4	28	15	10	60	15	20	35	26	5	8	2	27	30	2	32	10	45	13	81	1	10	26	89	21	85	44	5	3	2	17	3	4	1	2	6	5	35	19	539	11	2	7	36	50	2
OTU 178	1	69	17	62	0	0	0	9	5	24	39	16	6	19	3	2	23	15	0	1	0	29	0	0	45	0	0	47	1803	21	26	36	29	0	7	4	17	1	17	11	2	3	25	0	30	4	77	0	0	16
OTU 179	1	133	19	34	3	2	0	0	1	0	6	5	0	2	0	7	21	2648	12	0	8	25	10	0	0	317	5	4	30	64	0	921	92	14	0	1	0	12	0	26	2	11	6	0	19	0	23	0	86	12
OTU 180	119	60	94	815	19	22	19	18	1340	124	31	81	259	150	90	430	105	250	31	298	606	215	35	3	170	71	542	164	114	261	13	26	35	24	513	62	32	148	2020	50	54	112	1024	693	226	501	502	1	112	1071
OTU 181	5	0	1525	27	34	51	1	24	6	0	0	12	10	13	2	0	25	15	8	36	9	12	19	83	94	53	24	336	27	3	18	103	0	16	31	40	0	37	20	61	1	58	62	332	2	2	2	34	371	18
OTU 182	0	1	0	0	0	0	0	0	0	0	0	0	0	0	3	0	0	0	0	0	0	0	5	0	0	0	1	2	0	0	0	0	0	1	0	0	0	0	0	0	0	0	0	0	0	1	0	0	0	0
OTU 183	1	38	0	42	12	5	79	4	39	6	14	39	0	1	2	0	19	6	2	0	44	2	11	37	0	79	22	19	8	21	0	8	27	10	1	68	3	0	0	10	4	4	5	29	0	97	0	39	56	9
OTU 184	9	27	11	42	5	1	69	6	6	9	3	0	49	1	3	0	0	21	2	8	0	17	1	17	147	0	0	4	20	52	4	14	13	4	17	0	6	27	3	0	17	1	0	0	30	7	0	2	7	23
OTU 185	51	0	26	90	5	500	7	260	231	42	12	30	25	251	28	23	0	10	4	102	24	43	1	48	59	18	219	60	172	32	5	10	1	230	183	11	255	1	56	16	29	5	6	4	266	112	0	30	42	109
OTU 186	275	1	7	0	2	0	0	0	0	0	0	11	15	0	7	5	4	4	4	4	0	12	0	0	0	11	1	12	8	0	10	4	7	0	0	0	26	0	20	3	64	2	1	0	0	9	0	0	0	3
OTU 187	34	67	61	81	13	15	58	27	54	25	88	29	264	18	20	8	74	128	132	3	10	134	76	40	25	37	64	53	18	38	140	20	11	21	12	1	9	73	3	96	23	57	80	92	4	53	61	37	184	20
OTU 188	12	81	52	53	37	59	29	87	24	245	13	30	48	46	10	18	7	10	114	126	31	113	5	89	124	161	22	18	105	21	114	128	31	76	145	18	2	36	27	9	510	18	1	2	9	76	1	39	91	5
OTU 189	53	61	14	35	15	60	22	47	38	1352	26	495	16	56	7	5	237	29	12	26	14	29	29	70	172	7	13	22	51	3	79	14	17	18	24	11	50	56	4	35	92	42	11	17	24	34	8	34	48	11
OTU 190	0	0	1	0	0	0	0	1	0	16	67	0	0	1	32	10	0	2	0	0	0	3	11	16	0	0	10	0	0	31	68	6	0	0	0	0	0	18	0	0	8	0	0	0	1366	0	4	0	0	0
OTU 191	235	12	320	6	101	3	71	6	38	4	4	11	12	207	56	18	1	36	7	1	15	717	1	152	300	25	6	157	3	23	34	5	21	1670	0	4	5	7	3	15	3	159	87	20	0	5	16	71	145	4
OTU 192	73	43	7	45	46	1	48	9	9	41	44	31	198	17	69	1	1060	36	40	362	2	17	83	130	138	33	20	35	19	82	152	18	39	2	719	16	91	71	7	877	56	354	391	0	35	866	34	69	472	62
OTU 193	1	0	1	26	8	1595	4	921	1	5	9	13	13	20	20	1	78	16	19	23	11	1	213	6	3	9	6	134	982	46	20	21	3	913	53	2	7	433	10	9	42	4	17	0	10	44	20	2	62	1
OTU 194	1	0	13	13	12	8	7	0	0	21	10	11	1	0	0	13	42	0	0	0	25	47	0	29	29	1	0	8	5	0	1	1	3	1	1	0	11	0	0	119	1	52	103	1	11	2	0	14	10	5
OTU 195	87	65	17	10	27	0	41	2	8	5	16	2	5	77	5	26	0	19	8	2	0	26	6	17	6	1	0	8	0	71	20	25	13	7	5	8	20	7	20	5	1	0	270	9	1	7	0	15	28	16
OTU 196	11	32	1	3	6	39	0	1	22	62	15	0	6	4	2	0	4	12	37	5	0	6	4	4	24	5	3	2	12	12	74	0	5	19	26	1	19	1	7	5	1	1	1	12	2	7	11	3	13	1
OTU 197	44	134	25	64	51	25	45	32	2	16	39	89	202	44	56	7	191	4	630	43	12	48	37	132	208	36	15	70	49	130	93	24	58	13	31	8	36	37	134	188	52	20	49	255	2	23	1	49	83	24
OTU 198	0	2	7	33	2	40	0	0	20	33	0	24	0	0	0	1	0	0	2	0	0	9	3	33	28	5	1	0	31	0	1	2	0	12	0	0	0	1	0	0	100	4	0	38	23	0	8	25	5	13
OTU 199	8	0	39	26	0	0	0	0	1	30	1	7	2	12	4	1	10	9	0	28	0	92	4	0	90	0	1	9	0	7	29	29	2	8	36	2	20	1	15	21	3	4	14	0	0	1	6	0	19	27
OTU 200	42	0	7	46	138	0	22	8	2	1	4	1	41	17	112	3	3	5	13	42	0	10	0	181	9	7	0	118	2	19	22	132	2	0	153	6	6	4	50	0	6	23	9	1490	10	6	10	72	186	9
