	Host 1	Host 2	Host 3	Host 4	Host 5	Host 6	Host 7	Host 8	Host 9	Host 10	Host 11	Host 12	Host 13	Host 14	Host 15	Host 16	Host 17	Host 18	Host 19	Host 20	Host 21	Host 22	Host 23	Host 24	Host 25	Host 26	Host 27	Host 28	Host 29	Host 30	Host 31	Host 32	Host 33	Host 34	Host 35	Host 36	Host 37	Host 38	Host 39	Host 40	Host 41	Host 42	Host 43	Host 44	Host 45	Host 46	Host 47	Host 48	Host 49	Host 50	
OTU 1	1	5	5	0	0	2	1	1	6	5	0	5	3	0	0	2	3	0	0	3	2	0	2	2	0	2	4	1	0	0	1	0	1	4	10	6	5	3	3	3	0	4	0	1	0	1	4	4	0	1
OTU 2	1	0	0	0	2	2	0	0	0	0	2	0	0	1	0	0	0	1	3	0	1	0	0	0	0	0	0	0	0	0	2	0	0	1	0	1	1	0	0	0	0	0	0	0	0	0	0	0	0	0
OTU 3	3	4	1	0	0	0	0	0	4	0	0	12	0	0	0	0	0	0	1	10	1	0	0	0	0	0	9	0	0	1	0	0	0	0	0	0	0	0	0	0	0	2	0	0	0	3	1	0	0	0
OTU 4	0	0	0	0	0	0	0	0	0	0	0	0	0	0	0	0	0	0	0	0	0	0	0	0	0	0	0	0	0	0	0	0	0	0	0	0	0	0	0	0	0	0	0	0	0	0	0	0	0	0
OTU 5	0	0	0	2	0	62	4	7	0	38	1	27	2	53	21	18	26	0	16	7	30	0	29	0	8	10	16	16	59	12	10	1	0	6	0	21	1	9	0	43	0	0	3	7	12	0	10	0	18	1
OTU 6	0	1	0	0	0	2	1	0	0	3	0	4	0	0	0	2	0	0	0	0	0	0	1	3	0	0	1	0	0	0	7	1	0	0	0	3	1	0	0	2	0	0	22	1	5	2	2	0	0	0
OTU 7	3	2	10	1	9	2	3	2	23	1	5	1	3	5	0	5	9	7	2	0	3	4	2	0	3	0	0	1	4	0	6	0	2	1	1	5	2	1	0	1	0	1	0	5	0	24	10	0	5	3
OTU 8	4	0	3	6	0	4	18	2	3	7	3	6	0	0	6	2	4	0	4	0	0	4	1	1	2	0	0	29	18	1	32	8	1	4	2	1	0	1	3	24	2	1	0	2	2	1	46	1	0	14
OTU 9	1	1	5	0	0	0	112	1	0	0	0	8	1	0	1	0	0	1	0	0	0	3	0	31	0	0	1	2	0	0	0	3	0	0	0	3	0	0	1	0	2	0	1	0	0	16	2	0	0	0
OTU 10	3	0	7	0	4	0	3	0	0	0	0	0	0	0	0	0	0	0	1	0	0	0	1	1	0	3	0	0	0	0	0	0	0	0	1	0	2	0	2	1	1	1	0	0	0	2	0	2	0	0
OTU 11	6	0	3	1	0	0	2	2	0	0	0	2	2	1	0	0	1	8	5	0	0	0	3	7	1	0	2	2	0	0	0	1	4	2	6	7	2	6	1	4	0	8	0	0	10	2	1	7	3	0
OTU 12	8	2	0	0	0	1	0	1	7	0	2	2	0	4	3	3	5	2	4	1	1	3	0	0	1	0	2	1	0	1	1	2	0	4	0	0	15	0	0	0	2	0	1	1	2	1	2	0	0	2
OTU 13	0	0	0	0	0	0	0	0	0	0	0	0	0	1	0	0	0	0	0	0	0	0	0	0	0	1	0	0	6	0	0	0	0	0	0	0	0	0	0	0	0	0	0	0	0	0	0	1	0	0
OTU 14	0	0	0	0	0	0	0	2	1	0	0	2	0	0	0	0	0	0	0	3	0	3	1	1	0	0	1	0	0	0	5	0	0	0	0	0	0	0	0	0	0	0	0	0	0	0	0	0	0	0
OTU 15	0	0	0	0	0	0	0	1	0	0	0	0	0	0	0	0	0	0	0	8	0	0	0	0	0	0	0	0	0	0	0	0	0	0	0	0	0	0	0	0	0	0	0	0	0	0	0	0	0	0
OTU 16	0	0	0	0	0	0	0	0	0	0	0	0	0	0	0	0	0	0	0	0	0	0	0	0	0	0	0	0	0	0	0	0	0	0	0	0	0	0	0	0	0	0	0	0	0	0	0	0	0	0
OTU 17	1	1	0	4	0	3	0	0	0	0	2	1	0	0	1	0	1	5	6	5	0	0	7	13	0	1	0	0	1	0	1	2	2	4	30	0	1	8	0	0	15	1	0	2	16	1	0	0	0	0
OTU 18	0	2	1	6	7	4	0	1	2	0	0	0	0	0	0	0	1	0	0	1	1	8	5	0	1	1	1	3	0	1	0	0	1	0	6	1	2	7	2	2	2	0	0	1	14	11	1	3	0	15
OTU 19	0	0	0	0	0	7	0	0	0	0	0	0	0	0	0	0	0	0	0	0	0	0	0	0	0	0	0	0	0	0	0	0	0	0	0	0	0	0	0	0	0	0	0	0	0	0	0	0	0	0
OTU 20	0	5	3	0	3	1	0	3	2	0	0	3	0	18	0	3	4	10	1	11	0	4	0	3	1	0	2	0	1	0	3	2	3	0	0	0	1	0	0	0	6	1	2	1	0	1	1	1	0	1
OTU 21	0	0	6	7	1	1	0	1	7	0	0	11	73	0	1	16	1	6	0	1	0	0	0	0	1	148	0	0	0	0	1	14	1	15	2	1	0	3	1	0	0	4	3	4	1	0	1	0	0	3
OTU 22	1	1	2	1	5	0	1	8	9	0	0	2	0	0	0	0	1	1	0	0	0	4	0	4	0	0	4	0	1	1	1	2	0	2	8	1	1	2	1	0	0	1	4	0	6	1	0	1	3	1
OTU 23	1	0	0	0	0	0	0	0	1	0	1	0	0	0	2	27	0	0	0	0	79	0	1	0	3	8	0	0	0	152	0	1	2	20	0	0	2	0	0	9	0	5	0	1	0	0	0	0	0	3
OTU 24	8	0	1	0	1	0	0	1	0	0	0	5	1	0	3	0	0	2	0	0	0	2	1	1	0	0	5	0	0	0	0	1	1	0	0	1	0	0	0	0	0	0	3	0	0	1	0	0	0	0
OTU 25	0	16	0	0	0	0	3	0	0	0	0	0	0	0	0	0	0	0	0	0	0	0	0	0	0	0	0	0	0	0	0	0	0	0	0	0	3	0	0	0	0	0	0	0	0	0	0	0	0	0
OTU 26	0	0	0	0	0	1	0	1	2	0	0	0	0	1	0	0	0	0	0	0	0	0	0	0	0	0	0	0	0	0	0	0	0	0	0	0	0	0	3	0	0	0	0	0	0	0	0	0	0	0
OTU 27	0	0	0	0	0	0	0	0	0	0	0	0	0	0	0	0	0	0	0	0	0	0	0	0	0	0	0	0	0	0	0	0	0	0	0	0	0	0	0	0	5	0	0	0	0	0	0	0	0	1
OTU 28	16	1	54	2	2	2	1	1	10	85	3	0	83	1	0	5	10	3	1	3	2	4	2	2	0	0	0	1	0	3	0	1	0	0	8	0	1	1	2	0	3	1	5	7	2	104	64	1	1	0
OTU 29	1	3	0	0	5	1	0	1	1	0	0	2	0	0	2	1	0	0	1	10	0	5	0	0	0	0	2	0	0	0	0	1	0	2	1	2	0	1	1	2	8	2	0	0	0	0	0	0	0	3
OTU 30	0	0	0	0	0	0	0	0	0	0	0	0	0	0	0	0	0	0	0	0	0	0	0	0	0	0	0	0	0	0	0	0	0	1	0	0	0	0	0	0	0	1	0	0	0	0	0	0	0	0
OTU 31	2	1	0	0	0	0	0	2	0	2	3	8	1	4	0	0	0	1	0	5	81	0	0	0	89	0	11	0	43	0	0	0	2	3	0	1	0	1	0	0	0	1	38	0	0	2	0	0	0	78
OTU 32	0	0	1	2	10	0	1	2	1	1	9	0	0	4	2	3	5	2	0	0	0	0	0	0	0	3	0	0	3	0	1	1	7	0	3	1	0	1	2	2	1	5	0	0	2	0	0	2	2	1
OTU 33	0	0	0	0	2	0	0	0	0	0	0	0	0	0	0	0	0	0	0	0	0	0	0	0	0	0	0	0	0	0	0	0	0	0	0	0	0	0	0	0	0	0	0	1	0	0	0	0	0	0
OTU 34	23	4	0	1	7	0	3	2	2	0	4	0	0	6	0	2	0	8	1	0	0	1	0	0	0	0	0	2	0	0	4	5	3	1	0	0	3	0	0	2	1	0	1	1	3	4	0	0	0	2
OTU 35	1	1	0	0	0	1	0	0	0	0	0	3	0	0	4	0	0	0	0	6	0	4	2	0	1	0	2	0	2	0	2	3	0	0	2	0	1	1	0	0	0	1	0	0	0	0	3	0	2	1
OTU 36	2	2	0	1	2	2	4	0	0	0	0	0	0	0	2	3	8	1	1	0	1	0	0	0	0	0	1	0	0	1	19	2	2	0	0	0	0	0	2	0	0	1	0	0	0	0	2	8	0	0
OTU 37	0	0	0	0	0	0	5	0	3	0	0	0	2	0	0	0	0	0	0	0	0	0	0	0	0	0	0	0	0	0	0	1	0	0	2	3	0	0	0	2	0	4	4	1	3	0	0	0	0	0
OTU 38	1	0	1	2	4	2	1	0	0	30	0	1	0	1	0	1	1	2	1	0	0	0	2	2	0	0	2	0	0	0	1	1	6	2	12	0	2	5	0	53	0	1	3	0	10	0	2	2	2	0
OTU 39	0	3	0	0	3	0	0	0	0	0	0	0	0	0	0	0	0	0	0	1	0	0	0	0	0	0	0	0	0	0	0	11	0	0	0	0	0	0	0	1	0	0	0	0	0	0	0	0	0	0
OTU 40	17	0	0	6	6	2	1	4	0	0	0	2	0	3	0	2	0	7	2	0	1	2	0	0	0	0	1	2	1	0	0	0	1	13	0	1	0	0	1	0	1	0	3	1	0	0	0	0	2	0
OTU 41	1	9	0	0	6	0	36	1	0	0	0	1	0	0	0	0	0	0	0	0	0	0	0	1	0	1	2	0	0	1	0	1	1	0	2	0	0	0	1	0	0	0	3	5	3	0	1	0	0	0
OTU 42	1	0	0	0	0	0	0	0	1	0	2	0	0	0	0	1	0	0	0	4	0	0	0	2	0	0	0	0	0	0	1	0	0	0	0	0	0	0	0	0	0	0	0	2	0	0	0	0	0	1
OTU 43	0	0	3	0	0	0	0	0	0	0	0	0	0	0	0	0	0	0	0	0	0	0	0	0	0	0	0	0	0	0	0	0	0	0	0	0	0	0	0	0	0	0	0	0	0	0	0	0	0	0
OTU 44	0	0	0	0	3	0	0	0	0	0	0	0	0	2	2	0	1	0	1	4	0	0	0	0	0	0	0	0	0	1	6	0	0	0	0	0	0	0	0	0	1	0	0	0	2	0	0	0	0	0
OTU 45	21	3	3	2	11	1	5	5	0	0	14	4	0	4	9	0	2	3	6	1	0	7	3	2	2	2	0	2	2	1	5	15	1	1	4	7	1	2	0	0	11	6	3	3	1	1	0	1	2	0
OTU 46	1	2	0	2	3	22	1	3	0	0	0	1	0	1	8	4	2	9	0	2	2	5	1	2	1	1	39	0	0	2	0	3	39	1	1	0	0	1	0	0	0	1	1	0	0	1	1	2	0	0
OTU 47	8	0	0	5	0	0	0	1	0	0	0	0	0	0	1	0	0	0	0	0	0	0	0	0	0	0	0	0	0	0	0	2	0	0	2	0	0	3	0	1	0	0	0	0	0	7	2	0	2	4
OTU 48	1	2	1	0	3	0	0	6	3	0	3	3	2	0	0	0	3	0	4	0	0	2	0	0	1	0	1	0	1	1	2	5	6	2	0	3	2	0	9	0	0	0	1	2	7	2	0	168	2	2
OTU 49	0	2	4	1	0	1	0	0	0	0	0	0	0	2	0	0	0	0	0	1	0	0	0	2	0	0	0	0	0	0	0	5	1	0	1	0	0	1	2	0	0	0	0	0	0	0	0	0	0	0
OTU 50	3	2	0	5	0	7	0	9	0	19	0	0	0	0	0	3	3	1	0	0	0	2	4	2	0	0	1	6	0	0	2	0	0	0	0	3	0	0	3	2	15	5	3	4	1	1	1	8	1	2
OTU 51	0	1	0	4	1	8	0	0	0	0	3	1	0	0	5	0	2	0	0	3	0	0	1	1	1	0	1	0	0	1	0	5	0	0	5	0	0	0	0	2	0	5	0	3	0	1	0	0	7	0
OTU 52	5	1	2	2	8	5	0	0	7	3	6	8	1	6	0	0	1	11	0	0	3	4	1	4	2	1	4	0	22	15	5	4	6	0	5	0	2	4	11	2	1	0	1	1	2	0	1	8	5	0
OTU 53	0	0	0	0	0	0	0	0	0	0	2	0	0	0	0	0	0	0	0	0	0	0	0	0	0	0	0	0	0	0	0	0	0	0	0	0	0	0	0	0	0	0	0	0	0	0	0	0	0	0
OTU 54	0	3	1	2	11	1	2	2	5	0	3	11	2	0	0	8	5	0	1	2	3	9	3	2	2	12	5	0	0	1	3	0	3	2	4	1	0	3	0	0	1	0	0	2	1	1	0	0	3	1
OTU 55	0	0	0	0	0	0	0	0	0	0	0	0	0	0	0	0	0	0	0	0	0	0	0	0	3	0	0	0	1	0	0	0	0	0	0	0	0	0	0	0	0	0	0	0	0	0	0	0	0	8
OTU 56	0	3	0	0	0	0	1	1	0	0	0	2	0	0	0	1	1	0	1	0	0	0	0	0	0	0	0	0	0	0	0	0	0	0	0	0	0	0	0	0	0	0	0	0	1	0	1	0	1	1
OTU 57	5	0	7	5	5	67	2	8	3	2	2	15	6	3	5	2	2	7	3	2	0	7	15	19	8	1	6	9	6	1	40	0	22	4	23	9	1	9	0	0	9	3	2	1	3	3	1	2	0	5
OTU 58	1	1	5	2	0	0	1	1	0	0	0	3	0	1	0	1	2	0	4	0	0	0	0	0	0	1	0	0	0	0	1	1	0	0	0	0	0	1	0	0	7	0	0	1	3	3	2	1	2	3
OTU 59	0	3	1	1	0	0	1	0	0	2	1	0	2	0	0	0	7	2	0	12	3	0	2	2	0	0	0	0	0	7	0	1	3	0	4	3	0	2	3	3	0	2	0	0	4	0	2	0	0	0
OTU 60	3	0	58	3	4	0	0	6	5	1	1	0	0	0	42	1	0	4	0	6	1	21	0	0	50	0	1	4	27	1	0	2	1	1	4	0	0	0	3	1	68	2	13	4	5	2	21	0	2	18
OTU 61	10	7	1	0	2	0	5	2	1	0	3	2	0	0	7	3	2	0	1	1	0	6	0	0	5	0	0	0	5	0	0	0	4	0	0	2	1	0	0	2	3	1	1	11	0	1	3	0	0	1
OTU 62	0	0	0	1	3	0	0	0	3	0	0	0	0	0	0	0	0	0	0	1	1	0	1	0	0	0	0	0	0	1	0	0	0	0	0	0	3	0	0	0	0	0	0	2	0	0	0	0	0	2
OTU 63	7	2	0	32	1	0	0	0	3	0	7	0	0	1	2	58	0	0	1	0	2	0	0	3	0	17	0	0	0	0	2	40	2	27	2	5	3	1	0	3	0	0	0	2	0	4	0	0	0	1
OTU 64	3	0	1	2	3	0	0	2	6	0	55	2	1	0	0	0	4	4	1	2	1	1	0	16	3	2	0	1	4	2	1	9	0	0	0	3	1	0	0	6	1	2	1	2	4	5	7	1	2	1
OTU 65	0	0	0	0	3	0	0	0	0	0	0	0	0	0	0	0	0	0	0	0	0	0	0	0	0	0	0	0	0	0	0	0	0	0	0	0	0	0	0	1	0	2	0	0	0	0	0	0	0	0
OTU 66	0	2	0	2	0	1	0	0	17	3	0	2	0	1	1	2	22	7	1	6	12	1	0	0	2	0	3	1	0	11	0	0	1	0	0	0	2	1	0	1	1	3	0	1	2	0	2	0	0	1
OTU 67	3	4	0	2	0	0	0	2	1	0	0	0	0	0	0	0	2	0	1	11	0	3	1	0	0	2	0	2	0	0	1	2	0	0	0	0	2	0	7	0	1	0	1	10	20	1	3	0	0	0
OTU 68	0	0	0	0	6	0	0	6	5	0	3	0	1	0	8	2	5	0	0	0	1	0	0	0	2	2	0	3	0	4	1	0	0	0	0	2	0	0	1	0	2	0	0	0	4	3	3	0	0	0
OTU 69	2	0	0	4	3	0	5	4	0	0	1	2	1	0	2	1	2	1	7	2	0	0	6	2	1	1	0	6	1	3	1	3	2	0	6	0	0	2	5	1	4	4	2	0	1	2	3	1	0	0
OTU 70	0	0	0	0	0	0	0	7	0	0	4	3	1	3	1	0	2	7	0	0	1	0	0	1	1	0	1	3	0	2	0	0	3	1	0	0	1	0	0	1	1	1	1	0	0	0	0	0	0	0
OTU 71	1	0	0	0	1	1	0	0	5	0	0	0	0	0	2	0	2	0	2	3	0	0	0	0	4	0	0	0	0	0	0	0	0	0	0	0	0	0	0	0	0	0	0	0	0	1	0	0	0	0
OTU 72	4	0	0	1	0	27	3	6	0	0	0	3	1	2	2	3	9	4	4	5	0	1	2	3	0	1	3	0	2	4	1	3	3	3	1	0	0	3	0	0	6	0	0	1	2	0	0	0	0	0
OTU 73	0	0	2	0	0	3	0	4	3	0	0	1	0	0	0	9	4	0	100	5	0	1	4	2	4	2	1	2	1	2	2	1	0	6	0	3	0	1	2	1	8	0	1	0	7	0	0	1	1	0
OTU 74	0	0	0	1	6	3	0	3	0	0	0	0	5	32	3	1	0	12	2	3	1	0	0	0	1	2	0	3	0	1	7	0	1	0	1	8	0	0	0	0	0	2	1	0	1	2	5	0	0	0
OTU 75	1	1	2	129	0	1	5	2	1	3	11	0	4	3	3	3	2	5	0	0	1	7	2	4	0	25	0	1	1	6	1	3	4	57	5	2	5	0	1	4	4	9	0	0	8	16	6	5	0	1
OTU 76	0	0	0	1	0	10	0	0	0	0	0	0	0	0	0	0	0	3	0	0	0	1	7	5	0	0	0	0	0	0	0	4	1	0	12	0	0	6	0	0	0	0	0	0	0	0	0	0	0	0
OTU 77	5	2	0	2	0	1	0	1	3	0	1	0	0	1	0	0	0	0	1	0	0	1	2	0	0	0	27	4	1	0	0	2	0	0	3	0	1	1	1	1	1	12	2	4	1	1	0	0	2	0
OTU 78	0	6	0	2	9	4	4	1	1	0	5	1	0	1	0	3	0	6	1	4	0	0	0	0	1	0	0	0	0	0	0	3	0	3	2	0	1	0	1	0	0	3	0	0	2	1	0	2	0	0
OTU 79	9	12	4	7	4	17	1	13	10	2	49	5	6	0	2	6	3	1	2	2	13	5	8	8	13	2	6	7	5	2	4	11	17	4	22	5	14	17	2	1	10	11	11	3	5	12	8	4	3	8
OTU 80	2	13	2	0	1	1	7	5	1	0	0	0	0	3	0	4	1	3	2	5	0	9	1	0	3	0	0	0	0	0	0	4	0	3	1	1	4	1	3	0	0	1	3	4	10	5	0	1	0	4
OTU 81	6	0	0	5	2	0	5	5	6	0	1	1	30	1	3	2	1	7	3	0	2	0	3	0	2	1	0	5	1	6	2	6	0	0	2	68	0	0	0	0	0	0	0	0	0	0	0	0	113	0
OTU 82	10	0	1	0	0	0	0	5	0	0	0	4	0	9	2	1	0	13	0	0	0	5	1	100	0	1	4	2	0	0	0	0	0	6	0	2	0	0	6	0	4	0	2	1	3	3	4	0	11	0
OTU 83	0	0	0	0	0	0	0	0	0	0	0	0	0	0	1	0	5	0	0	0	1	1	0	0	0	0	0	1	0	0	0	0	0	1	0	0	0	0	0	2	0	0	0	0	0	0	0	0	0	0
OTU 84	0	3	1	0	0	0	0	1	0	0	0	2	5	2	1	1	0	0	0	0	0	0	1	0	0	0	0	1	0	0	0	0	2	0	2	2	2	0	0	0	0	0	0	4	0	0	0	0	0	0
OTU 85	0	4	0	0	0	0	0	0	1	0	0	0	0	0	0	1	0	0	0	0	0	0	0	0	0	0	0	0	0	0	1	1	1	0	0	0	2	0	0	0	0	0	1	0	0	4	3	0	0	5
OTU 86	0	0	0	0	0	0	0	0	0	0	1	0	0	0	0	0	0	0	0	5	0	0	0	0	0	0	0	0	0	0	0	0	2	0	0	0	2	0	1	0	0	0	0	0	0	0	0	0	0	0
OTU 87	6	11	0	0	0	0	5	0	0	0	0	1	0	2	0	0	0	4	1	0	0	0	0	0	0	0	1	0	82	0	1	0	0	0	0	0	3	0	0	0	1	0	0	0	0	0	0	0	0	0
OTU 88	0	0	0	0	0	0	0	0	1	0	0	0	0	0	0	0	0	0	0	4	0	0	1	2	0	0	2	0	0	0	0	0	0	0	0	0	1	0	0	0	0	0	0	0	0	0	0	0	21	0
OTU 89	15	0	1	0	0	1	0	0	0	0	4	3	0	13	1	0	1	6	0	0	0	4	0	0	0	0	0	0	0	1	0	0	0	0	0	0	0	0	0	0	0	1	0	0	0	0	0	0	0	0
OTU 90	0	0	0	0	0	0	0	3	0	0	0	0	0	0	2	0	0	3	0	0	0	0	0	0	0	0	0	0	0	0	0	0	0	0	0	0	0	0	0	0	4	0	0	0	0	0	0	0	0	0
OTU 91	0	0	0	0	0	1	0	0	0	0	0	0	0	0	0	0	0	0	0	0	0	0	0	0	0	0	0	0	0	0	0	2	0	0	0	0	0	1	0	1	1	0	0	0	0	0	0	0	0	0
OTU 92	0	0	1	0	0	1	0	0	0	0	0	0	0	3	0	1	0	0	0	0	0	4	0	0	0	1	0	0	0	1	0	0	6	0	4	0	0	2	0	0	0	0	0	0	0	0	2	0	0	0
OTU 93	1	0	0	0	0	0	0	0	0	0	0	0	1	0	0	0	0	1	0	0	0	0	0	0	0	0	0	0	0	0	1	0	0	1	0	1	0	0	0	0	0	0	0	0	0	0	0	0	0	0
OTU 94	5	0	1	0	2	0	0	1	2	0	4	0	1	1	1	7	5	1	3	5	1	0	2	0	6	0	0	0	0	3	0	1	0	4	0	1	3	0	0	2	1	4	0	1	2	3	0	2	1	7
OTU 95	0	0	1	0	3	3	0	26	0	0	0	3	0	0	6	1	0	0	0	0	0	3	5	2	9	3	0	16	2	0	0	0	0	1	1	0	0	1	0	0	13	0	2	0	6	0	7	0	0	0
OTU 96	0	0	0	0	0	0	0	0	0	0	0	0	1	1	0	0	0	13	0	1	0	0	1	0	0	0	0	0	0	0	4	0	0	0	2	1	0	0	0	0	2	0	0	0	0	0	0	0	2	0
OTU 97	0	0	0	0	0	0	0	1	0	0	0	0	0	0	0	0	0	0	0	0	0	0	0	0	0	0	0	1	0	0	0	0	1	1	0	0	0	0	0	0	0	0	0	0	0	0	0	0	2	0
OTU 98	0	0	0	0	6	0	1	3	8	0	1	0	1	0	0	0	0	0	0	5	0	1	0	0	0	1	0	3	0	0	0	2	0	0	0	2	0	0	0	0	0	0	0	0	4	0	0	0	0	0
OTU 99	4	3	2	2	12	0	0	20	8	1	9	4	0	0	2	8	3	1	0	1	0	97	1	1	0	5	5	11	2	1	0	4	8	3	3	2	3	7	1	2	4	4	3	10	0	0	1	0	1	2
OTU 100	2	6	0	2	1	4	2	6	4	0	4	3	0	0	1	0	1	0	1	3	0	0	0	0	0	1	34	0	1	0	4	0	0	0	0	3	4	0	1	0	4	1	0	0	1	0	0	0	0	1
OTU 101	0	0	0	0	1	0	0	0	0	0	0	1	0	0	0	0	0	0	0	0	0	0	0	0	0	2	0	0	0	0	2	1	0	0	0	0	0	0	0	1	0	0	0	0	0	0	0	0	0	0
OTU 102	0	0	0	0	0	1	1	0	0	0	0	1	0	0	0	3	4	2	2	0	3	0	0	0	0	0	0	0	1	3	0	0	0	2	0	0	0	0	1	1	0	0	1	0	0	0	0	0	0	1
OTU 103	0	1	0	0	0	0	1	0	0	14	0	0	0	0	1	0	0	0	0	1	0	1	0	1	1	1	0	0	0	0	0	0	0	0	0	1	3	0	5	42	3	59	0	0	0	0	1	0	0	0
OTU 104	1	2	1	0	1	8	2	3	0	0	0	19	1	0	0	4	9	0	5	1	0	1	3	2	2	0	7	3	4	3	4	1	0	0	5	0	159	6	0	0	0	0	2	3	0	3	3	0	1	1
OTU 105	0	0	0	0	0	0	0	1	0	0	0	5	0	0	0	0	0	0	1	0	0	0	0	0	0	0	0	0	0	0	2	0	0	2	0	0	0	0	0	0	0	0	0	3	0	1	0	0	0	0
OTU 106	0	1	1	0	0	0	0	0	0	0	0	0	0	3	1	0	0	0	0	0	0	1	0	1	0	4	0	0	0	0	0	0	68	0	0	0	0	0	1	2	0	0	0	0	0	0	0	0	0	0
OTU 107	0	0	1	0	0	1	0	0	16	1	0	1	0	1	0	0	0	0	0	1	0	0	1	0	3	0	0	0	0	0	1	1	1	0	0	1	0	0	0	0	0	0	0	0	0	1	0	0	0	0
OTU 108	2	0	0	0	0	0	1	1	0	0	0	0	0	0	0	1	6	0	0	4	4	0	0	0	0	1	0	2	0	8	2	0	1	4	2	0	4	0	0	0	0	0	0	0	0	1	2	2	4	2
OTU 109	0	0	0	0	0	0	0	0	1	0	0	0	0	0	0	0	0	0	0	0	0	0	0	0	0	1	0	0	0	0	0	0	0	0	0	0	0	0	0	0	0	0	0	0	0	0	0	0	0	0
OTU 110	12	2	0	0	2	1	1	0	0	0	5	0	1	2	0	0	1	2	0	0	0	2	0	0	0	0	0	0	1	2	0	1	0	2	1	0	0	0	1	0	0	1	3	0	2	0	0	0	0	1
OTU 111	0	6	0	0	1	0	0	0	0	0	0	0	0	0	0	2	0	0	0	0	0	0	0	0	0	0	0	0	0	0	0	0	0	0	0	0	1	0	2	0	0	1	0	0	0	0	0	0	0	0
OTU 112	1	0	2	0	4	0	0	0	0	0	0	0	0	0	0	0	0	1	0	0	0	0	0	0	0	0	0	0	0	0	0	0	1	0	1	1	0	1	0	3	3	3	0	0	0	0	0	1	1	0
OTU 113	0	0	0	0	0	0	3	0	0	0	0	1	1	0	0	0	0	0	0	0	0	0	0	0	3	0	2	1	0	0	0	0	1	0	0	0	0	1	0	0	0	0	1	0	0	0	0	0	0	0
OTU 114	1	6	0	3	2	3	0	1	24	0	6	0	0	1	1	0	38	0	2	9	7	5	1	1	11	3	1	2	10	19	3	12	1	0	3	0	1	0	3	2	6	5	3	0	1	3	1	0	1	1
OTU 115	1	2	102	2	2	3	0	0	0	0	1	0	3	1	1	2	4	5	5	2	4	1	0	0	0	0	0	0	0	4	0	0	1	2	2	2	0	0	0	0	2	1	2	1	0	1	0	0	0	4
OTU 116	4	2	0	1	3	2	0	3	2	0	1	8	0	1	1	0	0	1	0	7	1	1	0	3	1	0	8	1	0	0	1	3	1	0	3	0	0	1	0	3	1	2	0	0	2	1	0	0	2	0
OTU 117	1	2	2	2	4	0	1	1	5	1	3	0	1	0	0	0	1	0	0	3	0	1	0	0	2	11	0	47	1	0	0	2	0	0	0	2	0	0	0	2	0	2	1	0	2	3	2	0	2	0
OTU 118	0	0	0	0	0	0	0	0	0	0	0	0	0	0	0	0	0	0	1	0	0	0	0	0	0	0	0	0	0	0	0	0	0	0	0	0	0	0	57	0	0	0	0	0	0	0	0	17	0	0
OTU 119	9	0	1	0	1	0	0	0	5	0	1	0	4	8	0	1	1	21	3	0	0	0	0	0	4	2	0	1	0	0	1	1	0	2	0	20	0	0	4	0	1	0	0	1	2	0	0	4	0	0
OTU 120	0	0	1	0	3	0	4	0	0	0	3	0	0	0	0	0	0	0	0	1	0	0	0	0	3	0	1	0	3	0	0	1	0	0	2	0	0	1	0	0	0	0	0	3	0	0	0	0	4	0
OTU 121	8	2	0	2	1	0	32	0	2	0	6	0	0	3	1	0	0	1	3	2	0	0	0	0	0	0	0	0	0	0	0	0	0	1	0	0	2	1	0	0	3	1	1	3	0	0	0	0	0	0
OTU 122	1	2	0	1	7	2	1	3	4	0	0	1	0	53	65	3	0	0	0	1	0	4	8	4	9	3	1	4	0	0	0	2	7	0	2	2	5	3	3	1	3	2	0	0	0	0	1	1	0	1
OTU 123	6	10	2	4	28	3	27	8	9	95	14	2	4	0	6	0	5	3	5	0	2	3	8	5	2	0	3	1	2	4	10	6	2	0	11	6	4	5	10	3	8	17	2	66	4	11	5	10	2	11
OTU 124	0	1	0	0	0	0	0	0	0	0	0	0	0	0	0	0	0	0	0	1	0	2	0	0	0	0	0	0	0	0	0	0	1	0	0	0	0	0	0	0	0	0	0	0	0	0	0	1	0	0
OTU 125	15	15	1	5	8	1	1	6	0	3	12	8	16	9	16	9	11	9	1	8	85	11	0	3	2	0	2	0	5	3	9	4	1	0	3	29	2	3	129	12	6	6	6	89	7	7	6	66	37	8
OTU 126	0	0	0	0	0	0	0	0	0	5	0	0	1	1	0	0	0	0	0	0	0	1	0	0	1	0	0	0	0	0	0	0	0	0	1	1	0	0	0	5	4	6	0	0	0	0	0	1	0	0
OTU 127	0	2	0	0	0	1	2	3	1	1	2	6	0	0	0	0	0	0	1	0	0	0	1	0	0	0	1	0	1	0	0	0	0	1	1	0	0	0	0	0	0	0	0	0	0	0	3	0	1	0
OTU 128	3	11	0	5	25	6	7	2	25	4	11	0	0	9	6	15	0	34	14	3	0	6	5	4	3	2	0	2	0	1	21	8	4	11	4	0	7	2	6	4	5	10	3	18	0	5	4	8	2	2
OTU 129	0	0	0	0	0	0	0	5	0	0	0	0	0	0	0	11	0	0	0	0	0	1	0	0	0	1	0	6	1	0	0	0	0	19	0	0	0	0	0	0	0	0	2	0	3	0	0	0	0	6
OTU 130	3	2	1	0	0	0	0	3	1	4	8	0	0	0	0	0	3	0	7	0	1	1	29	0	0	0	0	2	3	3	1	1	0	1	0	1	0	23	0	7	1	17	0	0	1	0	0	0	2	1
OTU 131	1	1	0	0	0	2	0	7	0	1	0	29	0	0	0	8	0	0	0	3	0	1	0	1	2	5	10	9	3	0	0	0	2	3	2	0	0	13	0	0	3	1	0	0	1	0	0	0	0	0
OTU 132	0	0	2	1	0	0	0	0	1	0	3	2	0	0	0	0	0	0	0	0	0	1	0	0	0	1	1	0	1	0	7	0	0	0	0	3	0	0	0	3	0	2	1	3	1	3	3	1	0	0
OTU 133	1	0	0	0	0	0	2	0	0	0	0	0	0	0	0	0	0	0	0	0	0	0	0	0	0	2	0	0	0	0	0	1	0	0	0	0	0	0	0	0	0	0	0	0	6	0	0	0	0	1
OTU 134	0	3	2	0	0	2	0	4	1	5	10	2	0	0	2	1	0	0	4	10	0	0	0	0	2	2	1	1	2	0	0	2	1	0	0	0	0	0	1	13	3	9	0	0	5	0	0	0	0	0
OTU 135	10	0	0	2	0	1	0	0	6	0	5	0	0	0	0	1	1	0	0	3	0	0	1	0	3	1	0	0	1	0	6	0	5	1	0	0	0	1	0	0	0	1	0	0	0	3	2	1	0	1
OTU 136	0	0	0	1	0	5	0	0	3	0	3	1	0	0	0	0	2	0	0	9	0	0	106	1	0	0	0	0	0	0	0	0	0	0	5	0	0	8	0	0	0	0	0	2	8	0	0	0	0	0
OTU 137	1	0	2	0	5	0	0	0	0	0	0	1	0	0	0	0	0	0	0	0	0	2	0	0	0	0	1	0	0	0	0	0	0	1	0	0	2	0	0	0	2	0	0	0	0	4	1	0	21	0
OTU 138	1	0	2	0	0	0	0	1	4	0	0	0	0	0	0	0	0	0	0	2	0	1	0	1	0	0	0	0	0	1	0	4	0	0	0	0	0	1	0	0	0	1	1	3	0	3	0	0	0	2
OTU 139	13	6	0	6	26	3	0	3	7	0	2	8	0	2	3	0	2	2	5	0	0	18	1	8	2	0	2	66	2	0	20	7	0	2	12	1	2	1	0	0	0	0	6	2	0	2	83	0	5	2
OTU 140	2	2	13	4	0	2	0	10	3	2	0	21	1	0	1	10	15	1	0	2	3	1	0	3	6	4	5	5	1	0	0	5	11	0	5	1	0	2	2	2	2	15	2	29	0	4	2	1	4	9
OTU 141	0	0	0	0	0	0	0	0	0	0	0	0	0	0	0	0	0	0	0	0	0	0	0	0	0	0	0	0	0	0	0	0	0	0	0	0	0	0	0	0	0	0	0	0	0	0	0	0	0	0
OTU 142	0	0	0	0	0	0	0	0	0	0	0	0	0	0	0	0	0	0	0	0	0	0	0	0	0	0	0	0	0	0	0	0	0	0	0	0	0	0	0	0	1	0	0	0	0	0	0	0	0	0
OTU 143	0	0	0	0	0	0	0	0	0	0	1	2	0	0	1	0	1	5	0	0	0	0	0	0	1	0	0	0	0	0	0	0	0	0	0	0	1	0	0	0	0	0	0	0	0	1	0	0	0	1
OTU 144	2	0	0	0	0	0	0	0	0	0	0	1	1	0	0	0	0	0	1	0	1	0	0	0	0	0	0	0	0	1	0	0	0	0	0	0	0	0	0	0	0	0	1	0	2	0	0	0	0	1
OTU 145	7	38	2	0	0	1	7	2	2	0	1	14	0	13	0	0	2	32	2	2	0	4	0	0	3	0	7	2	1	0	0	0	3	3	0	0	15	0	1	0	12	0	2	6	1	0	0	0	41	2
OTU 146	2	4	1	5	1	1	0	4	0	0	0	1	1	0	0	1	1	0	11	0	1	0	0	0	1	0	0	1	0	0	1	0	0	1	0	1	8	0	1	0	2	2	1	0	3	1	3	0	1	0
OTU 147	0	0	0	0	1	3	0	1	0	0	0	0	0	0	0	0	0	0	0	1	12	0	0	0	0	0	0	1	0	29	1	3	0	0	0	2	0	0	0	0	0	0	0	2	0	0	0	0	0	1
OTU 148	2	3	1	0	2	0	0	0	0	1	0	2	0	1	1	0	0	0	0	1	1	1	0	0	1	50	2	3	0	0	0	2	0	78	0	0	0	0	2	2	0	5	1	1	0	7	0	1	1	0
OTU 149	7	0	0	0	0	0	0	0	0	0	3	1	0	0	0	1	0	2	0	0	0	2	0	1	0	0	1	0	1	0	2	0	2	5	0	0	0	0	0	0	2	0	0	0	0	0	0	0	0	0
OTU 150	0	0	2	0	1	0	0	0	0	0	0	0	1	0	0	0	1	1	0	0	0	11	0	0	0	1	2	0	0	0	0	0	0	0	0	2	0	0	5	0	3	3	0	0	0	0	10	1	0	0
OTU 151	1	0	0	2	0	2	0	0	0	0	0	4	0	0	5	0	2	0	0	2	0	0	1	0	0	0	90	0	1	0	7	0	0	0	1	0	0	1	0	0	1	0	1	0	0	0	0	0	0	0
OTU 152	3	0	2	0	0	1	0	11	2	1	1	2	0	2	4	5	0	4	2	0	0	0	0	0	4	0	1	4	2	0	0	0	0	1	0	3	1	0	0	1	3	3	0	0	0	0	2	0	0	1
OTU 153	0	1	0	0	0	0	0	0	0	0	0	0	0	0	0	0	0	0	0	0	0	0	0	0	0	0	0	0	0	0	0	0	0	0	0	0	0	0	0	0	0	0	0	0	0	0	0	0	0	0
OTU 154	0	0	0	0	0	1	0	0	0	0	0	0	0	0	9	0	0	0	0	0	0	0	0	0	0	0	0	0	0	0	9	0	1	0	0	0	0	0	0	0	0	0	0	0	2	0	0	0	0	0
OTU 155	1	0	0	38	1	2	0	3	0	0	0	1	1	0	1	0	0	0	0	0	0	0	2	0	1	0	0	4	0	0	0	44	4	0	0	2	0	0	3	3	1	0	0	0	0	2	2	4	0	1
OTU 156	1	3	1	0	6	0	0	1	1	0	6	1	2	0	0	0	8	1	1	81	1	0	1	0	0	1	3	4	0	3	7	0	0	0	2	7	2	2	0	1	0	2	0	0	1	0	0	1	1	0
OTU 157	1	0	0	0	1	0	0	0	0	0	0	0	0	6	2	0	0	10	1	4	0	0	0	0	0	0	0	0	0	0	0	1	0	0	0	0	2	0	2	0	2	0	78	2	0	0	0	1	4	0
OTU 158	0	0	0	0	0	0	0	0	0	0	0	0	0	0	0	0	0	0	0	0	0	0	0	0	0	0	0	0	0	1	0	0	0	0	0	0	0	0	0	0	0	0	0	0	0	0	0	0	0	0
OTU 159	5	0	0	0	0	1	1	0	0	0	1	2	0	57	0	0	2	0	0	0	2	0	0	0	11	0	0	0	7	1	0	0	0	0	0	0	2	1	0	0	4	0	3	0	0	0	0	0	0	3
OTU 160	2	8	4	5	3	4	2	2	5	0	4	2	0	0	6	1	0	1	14	1	1	6	8	1	7	0	3	2	0	0	5	9	4	1	5	1	1	4	4	0	5	2	1	1	12	7	0	1	2	3
OTU 161	0	1	3	0	5	1	0	1	6	0	0	8	0	1	0	0	5	4	2	0	2	0	0	43	0	3	7	0	0	0	0	0	1	0	4	1	1	1	0	0	0	0	0	1	0	21	0	0	0	4
OTU 162	0	9	0	0	1	0	1	2	0	8	3	1	1	0	38	0	1	1	2	0	0	1	1	2	4	0	1	0	1	1	1	0	0	0	0	5	6	0	5	1	0	5	0	2	3	0	0	6	5	4
OTU 163	0	0	0	0	0	0	0	0	0	0	0	0	0	0	0	0	0	0	0	0	0	0	0	0	0	0	0	0	0	0	0	1	0	0	0	0	0	0	0	0	0	0	0	0	0	2	0	0	0	0
OTU 164	0	0	0	0	0	0	0	3	0	0	0	0	0	0	4	0	0	0	0	0	0	0	0	0	0	0	0	1	0	0	0	0	0	0	0	0	0	0	0	0	0	0	0	0	0	0	0	0	0	0
OTU 165	0	1	0	0	0	2	1	0	4	0	1	0	0	0	0	0	1	0	2	0	0	0	0	0	0	1	0	1	0	0	0	1	1	0	1	0	2	0	4	1	1	4	0	0	4	0	0	3	0	0
OTU 166	0	0	0	0	0	0	0	0	0	0	0	0	0	0	0	0	2	0	0	0	0	0	0	0	0	0	0	0	0	0	0	3	0	0	0	0	2	1	0	0	0	0	0	0	0	0	0	0	0	0
OTU 167	0	0	4	2	0	0	0	8	9	0	0	6	0	0	0	3	1	0	1	2	0	0	0	0	4	1	3	9	1	2	0	0	0	5	0	0	0	0	2	0	0	0	4	1	1	3	0	4	0	1
OTU 168	0	1	0	1	12	1	0	5	1	0	1	2	1	2	1	0	1	3	0	0	0	0	0	0	0	0	0	5	0	2	0	0	0	0	0	1	4	0	0	0	0	0	0	6	2	1	0	1	0	0
OTU 169	0	0	0	0	0	0	0	0	0	0	0	0	0	0	0	0	0	0	0	0	0	0	2	2	0	0	0	0	0	0	1	0	0	0	0	0	7	0	0	0	0	0	0	0	0	0	0	0	0	2
OTU 170	0	0	0	0	0	0	0	0	0	0	0	2	0	0	0	2	0	0	0	0	0	0	0	0	0	0	1	0	0	0	0	0	0	0	0	0	0	1	0	0	0	0	0	0	0	0	0	0	0	0
OTU 171	0	1	1	2	0	20	0	1	2	0	10	2	0	0	0	2	0	0	0	4	0	0	16	19	2	0	1	1	0	1	0	0	26	2	31	0	0	9	0	0	0	0	2	2	3	1	0	0	4	7
OTU 172	0	0	0	0	2	0	0	6	0	0	0	0	0	0	0	0	1	0	0	0	0	0	0	1	0	0	0	7	0	0	0	0	0	1	0	0	0	0	0	0	0	0	0	0	0	0	0	0	0	0
OTU 173	0	0	0	0	0	0	0	0	7	1	0	2	0	0	0	2	1	0	1	1	0	0	1	0	0	0	0	0	0	1	0	0	1	0	1	0	0	0	0	1	0	8	0	1	0	0	0	0	5	0
OTU 174	0	1	0	0	8	0	0	0	0	0	0	0	1	0	0	1	0	1	0	0	0	3	2	0	1	0	1	0	0	0	1	6	0	1	1	2	6	0	0	0	0	0	0	1	0	0	0	0	6	2
OTU 175	0	1	5	0	0	0	0	0	0	0	0	0	1	0	0	0	2	0	1	0	1	0	0	0	0	0	0	0	1	3	0	0	3	0	0	0	0	0	1	0	0	1	0	1	1	1	0	1	0	0
OTU 176	0	0	0	5	9	1	1	0	0	5	5	1	2	0	1	5	8	0	5	3	1	1	0	0	7	0	0	1	0	2	45	4	0	0	0	4	0	0	4	4	3	8	1	0	0	2	0	0	0	3
OTU 177	2	5	2	0	0	1	0	0	2	0	0	2	0	2	1	0	2	6	0	0	0	0	2	3	0	0	0	0	10	1	0	0	10	2	14	0	0	6	2	2	3	2	1	1	1	4	1	0	5	3
OTU 178	0	0	0	2	0	0	0	0	0	0	1	0	0	1	5	9	1	0	0	0	2	0	1	3	0	1	0	0	1	1	0	6	0	0	1	1	0	3	0	0	0	0	0	2	0	0	0	3	0	0
OTU 179	0	0	0	0	1	0	0	20	2	0	0	0	0	0	2	5	4	1	0	0	0	0	0	0	0	4	1	4	0	2	0	3	0	2	0	0	1	0	0	1	0	0	3	0	1	2	3	0	5	0
OTU 180	1	1	9	7	8	2	19	8	13	10	4	3	2	0	10	8	10	1	23	19	0	10	0	0	2	1	6	0	3	3	2	2	1	3	2	2	0	84	1	10	2	7	7	4	13	4	1	0	0	1
OTU 181	0	0	0	0	0	0	1	1	0	6	1	2	0	3	0	0	0	1	0	0	1	0	0	0	0	8	0	1	0	0	0	0	0	0	0	0	0	0	0	14	2	4	0	0	0	0	0	0	1	3
OTU 182	0	1	0	0	0	0	0	0	0	0	0	0	0	0	0	0	0	0	0	0	0	2	0	0	0	0	0	0	0	0	0	0	0	0	0	0	0	0	0	0	0	0	0	0	0	0	0	0	0	0
OTU 183	0	0	0	0	0	0	0	3	0	0	0	1	0	1	0	12	1	0	0	0	1	4	0	1	5	10	1	1	3	0	0	0	30	9	0	2	0	0	0	0	0	1	7	1	0	0	0	0	0	0
OTU 184	0	0	0	0	0	0	0	0	0	0	2	4	0	0	0	3	0	0	0	0	0	0	0	0	0	0	0	0	0	0	4	0	0	0	1	0	0	1	0	0	0	1	3	0	0	0	1	0	0	0
OTU 185	0	1	1	2	0	0	0	7	1	0	0	0	2	0	1	0	4	2	0	3	1	3	1	1	3	0	0	2	1	5	0	6	3	0	3	10	2	3	0	0	3	0	0	2	0	7	2	0	0	67
OTU 186	0	0	1	0	2	1	0	0	0	0	0	0	17	0	6	0	1	0	1	0	0	0	0	0	9	3	0	4	6	0	2	0	5	1	0	0	0	0	0	0	22	0	1	0	0	0	0	1	0	9
OTU 187	0	58	0	3	0	1	15	1	2	9	2	2	84	0	2	2	2	1	0	6	3	0	15	0	1	1	0	0	1	5	11	0	2	2	0	71	30	0	2	32	1	0	3	0	1	3	0	0	0	1
OTU 188	0	0	1	3	0	1	2	0	15	0	4	1	0	1	0	0	1	2	0	2	0	6	0	0	1	0	0	0	1	4	1	7	0	0	1	0	0	0	3	0	1	0	0	0	4	7	2	1	1	1
OTU 189	0	0	3	0	3	2	3	4	0	1	0	5	1	1	6	0	0	0	46	1	0	0	27	6	6	1	2	5	1	1	0	2	5	1	7	4	1	2	1	0	3	4	0	3	1	0	2	0	0	2
OTU 190	0	0	0	0	0	0	1	0	0	0	0	0	0	4	0	1	0	10	0	0	0	2	0	0	0	0	0	0	0	0	0	0	0	1	0	0	0	0	0	0	0	3	0	0	0	0	0	0	0	0
OTU 191	1	0	0	2	0	1	1	0	0	8	1	0	3	2	4	0	1	2	4	3	0	7	2	3	0	2	3	0	0	0	2	7	0	0	0	0	0	0	0	13	1	26	7	0	2	0	7	1	1	0
OTU 192	6	2	1	0	2	2	0	15	0	3	0	4	0	4	3	4	0	0	1	3	0	0	0	0	14	1	2	10	6	0	1	4	1	4	1	1	1	0	3	6	14	4	2	10	0	2	0	0	1	3
OTU 193	2	1	0	0	2	0	1	5	0	0	1	1	0	0	0	0	25	6	3	0	4	4	0	0	0	0	0	16	1	9	1	0	0	1	0	0	0	73	0	1	0	3	1	1	2	0	0	0	1	1
OTU 194	4	1	2	0	2	1	1	1	0	1	0	0	0	0	1	7	0	0	3	0	1	0	0	0	0	0	0	3	0	0	1	0	0	0	3	0	0	0	0	1	5	0	77	0	73	0	0	0	0	1
OTU 195	0	0	0	0	0	0	0	0	0	1	0	0	0	1	0	0	0	3	1	1	0	1	0	0	0	0	1	0	0	0	3	7	1	0	0	0	0	0	2	2	0	0	0	0	1	2	1	0	1	0
OTU 196	0	1	1	0	0	0	0	1	1	0	10	0	0	0	0	2	1	0	2	0	0	0	0	0	0	0	0	1	0	1	3	6	1	3	1	0	0	0	21	0	2	0	0	1	2	0	0	12	0	2
OTU 197	3	13	7	11	2	2	1	1	0	0	1	2	3	1	0	9	17	5	6	1	1	3	13	14	4	0	0	0	1	13	3	2	4	0	32	9	3	11	11	3	0	5	3	1	6	0	2	2	1	3
OTU 198	0	0	0	0	5	0	0	0	5	0	0	0	0	1	3	3	0	4	0	0	1	0	0	1	0	0	0	0	0	2	0	1	0	2	0	0	0	0	0	0	1	0	0	0	0	0	0	0	0	2
OTU 199	0	0	2	0	0	5	0	0	1	0	0	1	0	0	2	7	0	2	0	0	0	3	0	0	5	0	0	0	2	0	0	1	0	0	0	0	0	0	3	1	0	1	1	0	0	0	0	0	0	0
OTU 200	0	0	0	0	0	0	0	0	1	1	5	0	0	1	3	1	0	1	1	0	0	1	2	2	3	0	1	0	0	0	0	0	2	0	5	0	0	4	3	3	6	3	0	0	9	1	0	2	0	2
