	Host 1	Host 2	Host 3	Host 4	Host 5	Host 6	Host 7	Host 8	Host 9	Host 10	Host 11	Host 12	Host 13	Host 14	Host 15	Host 16	Host 17	Host 18	Host 19	Host 20	Host 21	Host 22	Host 23	Host 24	Host 25	Host 26	Host 27	Host 28	Host 29	Host 30	Host 31	Host 32	Host 33	Host 34	Host 35	Host 36	Host 37	Host 38	Host 39	Host 40	Host 41	Host 42	Host 43	Host 44	Host 45	Host 46	Host 47	Host 48	Host 49	Host 50	
OTU 1	2	1	6	2	11	12	0	24	10	2	6	0	0	0	18	8	10	0	25	0	1	6	18	0	0	11	9	7	0	9	11	21	2	10	0	13	14	27	0	2	6	17	6	0	1	13	0	6	40	13
OTU 2	0	1	0	0	0	0	0	0	0	0	0	0	0	0	0	0	4	0	4	0	17	0	1	0	0	1	0	0	0	0	2	0	3	0	0	0	0	0	2	0	0	0	0	0	2	1	2	0	0	0
OTU 3	0	0	0	0	3	0	0	0	0	0	0	0	0	0	0	0	0	0	0	0	2	0	0	0	0	0	0	0	0	0	1	0	1	0	3	0	0	3	0	0	0	0	1	0	0	0	1	0	2	0
OTU 4	0	2	0	0	0	0	0	0	0	0	0	0	0	0	0	0	0	0	0	0	0	0	0	0	0	0	0	0	0	0	0	0	0	0	0	0	0	0	0	0	0	0	0	0	0	1	0	0	0	0
OTU 5	24	12	0	5	0	9	37	54	31	1	2	4	9	5	0	3	0	12	59	2	15	14	7	4	20	5	83	10	7	39	30	5	0	22	0	30	21	2	0	13	1	0	18	0	3	1	1	9	3	4
OTU 6	3	0	0	0	0	67	1	0	0	0	0	1	1	1	0	0	5	0	1	0	2	0	0	0	0	1	0	0	0	0	32	0	0	0	0	2	1	3	1	0	1	2	0	2	0	0	0	0	0	0
OTU 7	5	2	2	1	1	1	5	1	12	1	25	0	9	5	7	0	9	1	1	2	1	2	3	2	2	0	3	0	10	0	0	2	7	5	5	25	2	3	4	11	1	1	0	0	0	10	3	1	11	3
OTU 8	0	10	7	83	3	0	24	1	3	1	7	0	6	9	0	2	7	7	1	1	0	0	0	10	7	0	0	0	10	0	5	0	1	1	1	1	7	3	0	6	3	5	1	3	0	1	1	0	0	1
OTU 9	1	1	1	0	0	0	3	0	0	0	0	0	1	4	0	1	1	4	0	1	2	0	0	0	0	0	0	0	1	0	0	0	0	0	0	0	0	2	0	0	0	0	0	0	39	0	0	0	5	1
OTU 10	0	0	0	0	0	0	0	1	0	0	1	1	0	0	0	0	0	1	0	0	2	0	3	0	0	0	0	1	0	0	0	0	0	0	0	0	2	2	0	0	0	0	1	0	0	1	0	0	0	0
OTU 11	0	0	0	0	1	0	0	2	0	5	0	3	0	0	0	2	0	1	0	1	0	0	0	0	0	6	0	0	8	2	0	4	1	2	5	1	3	2	0	0	0	0	0	5	0	3	3	0	1	1
OTU 12	1	1	0	1	2	2	7	0	2	2	0	5	1	3	1	0	8	3	0	0	4	3	4	0	7	2	2	2	4	6	1	2	5	3	10	1	0	0	5	2	0	0	0	0	1	8	0	0	3	1
OTU 13	0	1	0	0	0	0	0	0	0	0	0	0	0	2	0	0	0	0	0	0	0	0	0	0	0	0	0	0	0	0	0	0	0	0	0	0	0	0	0	0	1	0	0	0	0	0	0	0	0	0
OTU 14	0	1	2	2	0	5	5	0	1	0	0	0	0	0	0	0	0	1	0	0	1	0	1	0	0	0	0	2	0	5	0	0	0	3	0	0	0	0	1	0	0	2	0	0	0	0	0	0	0	0
OTU 15	0	0	0	0	0	0	2	0	1	0	0	0	0	0	1	0	0	0	0	0	2	0	0	0	0	0	0	0	0	0	0	0	0	0	0	0	0	0	0	0	0	0	0	0	0	0	0	0	0	0
OTU 16	0	0	0	0	0	0	0	0	0	0	0	0	0	0	0	0	0	0	0	0	0	0	0	0	0	0	0	0	0	0	0	0	0	0	0	0	0	0	0	0	0	0	0	0	0	0	0	0	0	0
OTU 17	0	0	0	0	0	0	0	0	0	0	2	2	6	0	1	0	0	1	2	2	0	0	0	0	1	0	1	0	0	0	0	0	1	0	24	0	0	0	0	0	0	4	0	2	0	0	2	0	0	0
OTU 18	0	0	12	0	0	0	1	1	1	0	4	2	0	0	0	0	4	4	0	0	25	2	0	85	2	0	1	0	1	2	1	1	4	0	3	2	2	0	2	5	2	2	0	0	2	1	0	0	0	0
OTU 19	0	0	0	0	0	0	0	0	1	0	0	0	0	0	0	0	0	0	0	0	0	0	0	0	0	0	0	0	0	0	0	0	0	0	0	0	0	0	0	0	0	0	0	0	0	0	0	0	0	0
OTU 20	2	3	0	0	0	0	5	1	1	1	6	1	2	0	0	1	2	0	0	0	0	0	0	2	4	0	0	0	7	1	0	78	5	0	0	2	2	1	5	0	0	0	1	0	0	0	0	1	0	2
OTU 21	1	0	9	1	7	25	0	6	17	0	6	7	0	9	5	5	1	0	21	5	2	73	19	13	1	5	5	5	0	13	0	8	5	10	1	12	1	12	1	0	4	4	0	0	0	18	0	8	31	2
OTU 22	0	6	0	0	0	3	2	3	2	2	4	1	0	0	0	3	6	0	0	110	0	0	2	0	0	0	0	1	2	0	1	0	3	0	4	2	14	0	0	3	0	1	1	8	3	0	1	0	0	0
OTU 23	2	0	0	1	1	0	1	0	1	0	0	0	0	4	1	0	0	0	0	0	0	0	0	0	0	0	1	0	9	0	0	0	0	0	2	0	0	0	0	7	0	0	0	1	1	0	0	0	0	0
OTU 24	0	0	1	0	0	1	0	0	0	0	11	0	1	0	0	0	0	1	0	0	1	0	0	1	1	3	0	3	0	0	0	0	1	0	0	0	1	0	0	4	0	0	0	0	0	0	2	0	0	0
OTU 25	0	0	0	0	0	0	0	0	0	0	0	0	0	0	0	0	0	0	0	0	0	0	0	0	1	0	0	0	0	0	0	0	0	0	0	0	0	0	0	0	0	0	0	0	0	0	0	0	0	0
OTU 26	0	0	11	0	1	0	3	0	0	0	1	0	3	1	0	0	0	0	1	0	0	0	0	4	0	0	0	0	0	1	0	0	0	0	0	0	0	0	0	0	0	0	0	0	3	0	0	0	0	0
OTU 27	0	0	0	0	0	0	0	0	0	0	1	0	0	0	0	1	0	0	0	0	0	0	0	0	0	0	0	0	0	0	0	0	0	0	0	0	0	0	0	0	0	0	0	0	0	0	0	0	0	0
OTU 28	0	3	1	0	1	1	2	2	0	1	10	1	4	1	0	0	1	1	0	0	0	0	0	3	1	0	0	0	0	1	0	1	0	2	1	0	2	0	0	0	0	0	0	0	1	0	3	0	0	1
OTU 29	5	0	0	71	6	25	2	23	29	6	0	0	2	0	11	6	1	5	23	0	0	2	15	0	1	3	4	13	3	8	16	29	8	8	7	7	0	14	2	4	14	10	6	0	8	30	1	2	48	8
OTU 30	0	0	0	0	0	0	0	0	0	0	0	0	0	0	0	0	0	0	0	0	0	0	0	0	0	0	0	0	0	0	0	0	0	0	0	0	0	0	0	0	0	0	0	0	0	0	0	0	0	0
OTU 31	0	0	3	0	0	0	3	0	0	0	0	1	0	2	0	0	1	0	0	0	1	0	0	0	0	0	4	0	2	0	4	0	1	0	0	0	0	0	0	0	0	0	0	2	8	0	1	0	1	0
OTU 32	0	0	3	0	0	2	0	0	0	0	0	2	0	5	0	1	1	0	0	0	1	0	1	0	0	1	1	0	2	0	91	0	0	1	2	0	2	1	2	2	2	0	0	0	2	1	0	165	2	0
OTU 33	0	0	0	0	0	0	0	0	0	0	0	0	0	0	0	0	0	0	0	0	0	0	0	0	0	0	0	0	0	0	0	0	0	0	0	0	0	0	3	0	0	0	0	0	0	0	0	0	0	0
OTU 34	4	4	1	0	6	0	1	0	0	0	0	1	9	6	3	6	8	0	1	11	3	1	0	0	11	2	0	2	0	0	0	2	2	0	0	1	26	1	2	10	2	1	2	2	0	3	0	0	10	0
OTU 35	0	0	0	0	0	1	1	0	1	0	9	5	0	2	0	3	4	0	1	0	0	0	0	0	29	0	0	0	2	0	0	0	0	0	4	0	0	1	11	0	0	0	1	0	0	0	0	0	0	0
OTU 36	0	1	0	0	0	1	0	3	0	0	1	2	1	0	0	0	0	2	2	0	0	0	0	0	0	2	0	0	5	0	3	0	0	1	1	6	2	0	4	1	2	0	0	12	1	0	3	0	0	0
OTU 37	0	0	3	0	0	0	0	0	0	0	0	0	0	16	0	0	0	1	0	4	0	0	0	1	2	4	0	0	0	1	0	0	0	0	0	0	1	0	0	1	0	0	0	0	0	0	0	0	0	0
OTU 38	0	8	1	0	2	0	1	1	1	0	0	1	1	1	0	0	1	0	3	5	1	0	0	0	0	1	0	0	0	0	0	0	0	0	1	22	3	2	1	7	0	1	0	0	0	3	0	0	0	0
OTU 39	0	2	1	0	0	0	0	0	0	0	0	0	0	0	2	0	0	0	0	1	0	0	0	0	0	0	0	0	1	1	0	0	0	0	0	0	0	0	3	0	1	0	0	2	0	0	1	0	0	0
OTU 40	0	0	2	0	1	0	0	0	0	0	0	4	2	0	0	2	0	0	0	2	6	0	1	0	1	0	0	0	1	3	1	1	5	0	0	0	0	1	0	3	2	0	5	7	0	0	0	1	4	0
OTU 41	0	1	0	1	0	0	0	3	6	0	0	1	0	3	1	0	0	1	1	5	1	0	1	0	2	0	0	0	3	0	0	1	0	0	6	0	0	0	2	2	0	0	0	0	0	0	1	0	0	0
OTU 42	0	0	0	1	2	0	0	0	0	2	0	1	2	0	3	0	0	0	0	1	0	0	0	0	0	0	0	0	0	4	0	0	0	0	0	0	0	0	0	0	0	4	0	0	2	3	1	0	0	0
OTU 43	0	0	0	0	0	0	0	0	0	0	0	0	0	0	0	0	0	0	0	0	1	0	0	0	0	0	0	0	0	0	2	0	0	0	0	0	0	0	0	0	0	0	0	0	0	0	0	0	0	0
OTU 44	0	0	0	0	0	1	0	0	0	0	6	0	0	0	0	0	1	1	0	2	0	0	0	0	3	3	0	0	0	0	0	0	0	0	0	0	0	0	0	2	0	0	0	1	0	0	0	0	0	0
OTU 45	0	2	2	0	0	0	0	2	3	0	5	1	1	5	1	4	1	1	12	1	0	16	66	1	0	0	0	32	0	42	0	0	0	0	1	1	2	1	0	1	0	1	0	1	1	3	0	0	0	0
OTU 46	1	0	0	0	0	0	3	0	0	1	4	1	0	2	0	0	7	0	2	1	7	1	0	0	6	4	0	0	18	0	24	1	1	0	0	1	1	1	0	0	0	1	1	9	0	0	0	0	1	1
OTU 47	0	0	0	0	0	0	3	0	0	0	1	0	0	0	0	0	2	0	0	0	0	0	0	0	0	0	0	0	0	0	0	0	0	0	0	0	0	0	0	0	0	0	0	0	0	0	0	0	0	0
OTU 48	0	1	4	0	2	3	5	0	0	0	0	0	0	1	0	0	1	0	1	0	9	0	3	6	7	0	0	2	4	0	0	0	1	1	0	1	0	2	0	1	0	1	1	3	1	7	0	0	0	1
OTU 49	0	0	1	0	0	2	1	2	0	0	1	1	0	0	0	0	0	0	8	0	3	0	2	0	6	0	0	0	0	0	1	0	6	0	0	1	2	0	1	0	0	0	0	0	0	2	4	0	0	0
OTU 50	0	2	2	1	0	0	0	0	7	0	0	2	0	2	1	1	13	4	3	0	2	1	2	1	0	4	0	1	0	0	2	59	0	1	15	2	0	0	1	7	1	1	0	5	0	1	0	1	0	1
OTU 51	0	0	0	1	0	1	0	4	0	0	0	6	0	0	0	0	2	0	2	0	0	0	0	0	1	3	0	0	2	0	0	0	0	0	0	0	0	0	1	1	0	0	0	0	0	2	0	1	0	0
OTU 52	1	7	0	3	1	0	2	0	2	0	2	0	2	13	0	1	35	3	2	19	1	0	3	0	1	2	2	0	2	3	0	10	4	1	1	4	2	3	5	2	2	1	0	4	2	2	0	0	3	1
OTU 53	0	0	0	0	0	0	0	0	0	0	0	0	0	0	0	0	0	0	0	0	0	0	0	0	0	0	0	0	0	0	0	0	0	0	0	0	0	0	0	0	0	0	0	0	0	0	0	0	0	0
OTU 54	1	0	0	0	1	1	2	1	1	0	1	3	0	4	0	1	0	1	1	3	50	9	18	0	3	1	0	20	3	9	0	0	12	0	0	0	0	0	9	0	5	0	3	1	0	0	0	3	0	0
OTU 55	0	0	0	0	0	0	0	0	0	0	0	0	0	0	0	0	0	0	0	0	0	0	0	0	0	0	0	0	0	0	0	0	0	0	0	0	0	0	0	0	0	0	0	0	0	0	0	0	0	0
OTU 56	0	0	1	0	0	0	0	1	0	0	0	2	0	0	0	0	1	0	0	0	0	0	1	0	5	1	0	0	0	0	0	0	0	1	0	0	2	0	0	0	0	0	0	0	0	0	0	0	0	0
OTU 57	5	13	0	1	7	0	1	4	1	0	0	2	0	7	4	1	10	8	9	4	0	1	0	0	2	0	0	2	2	0	1	0	5	5	3	3	5	1	0	40	0	4	0	3	50	3	7	2	7	0
OTU 58	0	0	1	0	1	0	3	0	0	1	2	2	0	1	0	0	0	1	0	0	3	0	1	0	0	0	0	0	0	0	0	1	0	0	0	0	1	0	0	1	0	0	2	1	0	0	1	0	3	0
OTU 59	0	1	7	0	1	0	1	0	4	0	0	0	1	1	0	0	8	0	0	1	0	0	0	0	0	0	0	0	0	0	0	0	1	0	1	0	2	0	1	2	1	0	0	0	1	0	0	0	2	0
OTU 60	1	2	3	3	0	0	7	0	2	0	0	1	0	0	3	0	2	0	1	0	7	88	2	1	2	0	0	4	3	0	0	0	0	0	0	0	2	1	1	1	3	2	0	2	1	2	4	0	0	0
OTU 61	21	1	2	3	0	4	0	2	3	2	4	0	6	0	2	22	0	3	23	0	9	0	1	1	1	4	91	3	0	4	12	2	0	180	2	0	2	4	1	8	2	1	8	7	29	0	3	75	2	7
OTU 62	0	0	3	0	2	0	0	1	0	0	2	1	0	4	0	0	0	1	0	0	0	0	0	0	5	0	0	0	0	0	0	0	1	0	0	0	0	0	0	0	0	0	0	0	0	1	0	1	2	0
OTU 63	3	0	0	0	1	3	0	0	0	3	4	0	0	4	1	0	4	0	0	0	1	0	0	0	0	1	0	3	0	0	0	0	3	1	10	0	1	0	0	0	0	1	0	0	0	0	1	0	0	0
OTU 64	0	2	5	0	1	2	0	0	2	3	5	0	3	3	1	1	1	0	1	6	4	1	5	6	0	1	0	2	0	1	0	0	5	0	1	2	2	1	1	3	0	1	1	3	0	4	0	0	3	0
OTU 65	0	0	0	0	0	0	0	0	0	0	0	0	0	0	0	3	0	0	0	0	0	0	0	0	2	1	0	0	0	0	0	0	0	0	0	0	0	0	0	0	0	0	0	0	0	0	0	0	0	0
OTU 66	0	4	0	0	0	0	3	0	0	0	3	2	7	3	0	4	3	0	3	0	0	1	0	0	1	0	0	0	1	0	1	55	0	0	7	1	1	0	0	1	0	0	1	0	2	1	2	0	0	0
OTU 67	0	1	0	0	41	1	0	0	0	2	0	0	0	0	0	0	1	0	0	0	0	0	0	0	0	0	1	0	6	0	2	0	6	2	0	0	0	1	0	0	0	0	0	0	3	1	0	0	0	0
OTU 68	0	0	0	0	1	0	0	0	0	0	0	0	0	0	0	0	0	0	0	1	0	1	1	0	4	0	0	0	0	0	0	0	0	0	0	0	4	0	2	1	1	0	0	0	0	1	2	0	5	0
OTU 69	1	0	1	0	2	0	0	3	0	0	2	5	0	0	0	0	1	0	2	2	0	0	0	8	2	0	0	1	0	0	0	1	0	0	2	0	0	1	0	2	0	0	0	2	0	0	0	0	1	1
OTU 70	0	0	0	0	0	1	1	2	0	3	3	4	1	0	0	0	0	1	0	1	0	0	0	0	0	1	1	0	0	0	2	0	0	3	1	0	0	0	0	4	0	0	0	1	0	0	0	1	0	0
OTU 71	1	1	0	0	100	0	1	0	0	0	0	0	0	4	0	0	0	19	0	0	0	0	1	0	1	0	0	1	2	0	0	0	1	0	3	0	0	1	0	2	0	0	1	1	2	0	0	0	4	0
OTU 72	0	0	2	0	0	0	0	0	0	3	1	0	8	0	3	0	1	4	0	0	1	1	1	0	0	0	0	2	0	1	5	0	2	0	1	1	0	0	0	1	1	0	0	7	2	0	0	0	0	0
OTU 73	1	1	0	0	3	4	1	1	7	0	0	0	0	0	0	0	1	1	1	1	4	0	0	0	0	0	0	0	3	2	1	2	0	0	2	0	2	1	1	0	0	0	0	1	0	0	1	0	1	2
OTU 74	0	0	1	0	0	1	12	1	1	0	0	7	0	18	0	0	0	0	0	8	0	1	0	0	0	4	0	0	0	1	3	2	7	0	2	0	21	3	1	8	2	0	2	10	5	6	0	0	1	0
OTU 75	23	6	0	0	0	2	2	0	0	3	0	0	10	4	2	1	1	4	0	0	30	0	0	0	4	21	1	0	1	0	0	0	3	1	10	0	5	3	0	1	7	21	0	4	2	1	7	0	0	0
OTU 76	1	0	0	0	0	0	1	0	0	0	2	0	2	1	0	0	2	1	0	0	0	0	0	2	0	0	0	0	3	0	0	0	0	0	6	1	0	0	0	16	0	0	0	0	1	0	0	0	0	0
OTU 77	0	1	0	0	0	4	0	0	0	0	3	1	1	0	0	1	2	0	0	1	2	1	1	0	3	0	0	0	2	0	0	0	0	0	2	0	3	5	0	0	0	3	0	2	3	1	1	0	0	3
OTU 78	1	2	0	3	2	7	0	0	102	1	0	0	1	10	3	0	0	0	0	1	0	1	1	1	0	6	27	0	4	0	1	0	4	44	0	3	1	1	0	1	4	0	0	2	0	6	2	12	0	2
OTU 79	2	5	16	3	3	6	2	1	1	3	6	6	0	10	0	0	14	4	0	2	12	2	6	4	2	10	0	2	0	67	2	5	6	1	5	9	9	5	5	7	0	1	0	4	0	0	2	1	6	76
OTU 80	0	0	7	31	1	1	2	0	0	34	0	3	2	5	88	1	2	5	1	4	2	0	0	2	0	0	1	0	0	0	0	0	0	4	2	3	0	0	0	1	0	2	2	0	0	0	1	0	2	0
OTU 81	9	6	10	1	1	1	21	0	5	4	2	2	1	0	0	37	1	3	3	0	1	0	0	9	2	0	0	0	0	0	1	2	1	0	0	4	2	1	11	1	4	0	19	3	0	0	1	0	0	2
OTU 82	0	3	0	1	0	0	4	0	1	4	0	10	1	0	2	0	3	0	0	0	2	1	0	4	6	1	0	0	3	0	0	0	4	0	3	0	0	0	0	5	0	0	1	0	0	0	0	0	0	0
OTU 83	0	0	1	0	0	1	0	0	0	3	0	2	0	0	3	1	0	0	0	2	2	0	0	0	0	1	0	0	0	0	0	0	0	0	0	0	0	2	0	0	0	0	0	2	0	0	0	0	2	2
OTU 84	0	0	4	1	1	0	4	1	0	1	1	0	0	0	1	0	1	0	0	0	0	0	0	0	1	1	1	0	2	0	0	0	1	3	16	1	1	0	4	3	0	0	0	0	0	2	0	1	2	0
OTU 85	1	0	0	1	0	2	0	1	0	1	0	0	2	0	2	1	0	1	2	0	1	2	3	0	0	0	0	0	0	0	0	2	0	0	0	0	0	4	1	3	0	0	0	0	0	0	0	1	3	1
OTU 86	0	0	0	0	0	0	0	0	4	0	0	0	0	0	1	0	0	0	0	0	0	0	0	0	0	0	0	0	0	0	0	0	0	0	0	0	0	6	0	0	0	0	0	3	0	0	3	0	0	1
OTU 87	1	0	0	0	0	0	0	0	0	0	4	0	1	8	0	0	0	0	0	0	0	0	0	0	1	0	0	0	0	0	1	0	2	0	1	0	0	0	0	6	0	0	0	0	0	0	0	0	0	0
OTU 88	0	3	0	0	0	0	0	0	0	0	0	0	1	0	0	7	0	1	0	0	0	0	0	0	0	0	0	0	4	0	0	0	0	0	0	1	0	0	0	0	0	0	6	0	2	0	0	0	0	0
OTU 89	1	0	0	0	0	0	3	0	0	1	0	0	0	4	0	0	0	0	1	4	0	0	0	0	0	0	0	0	1	0	1	0	0	0	0	0	0	1	0	0	0	0	0	0	16	0	0	0	0	0
OTU 90	0	0	0	0	0	1	0	0	0	0	0	0	0	0	0	0	0	1	0	0	0	0	0	0	0	0	0	0	0	0	0	0	0	0	1	0	0	0	0	0	0	0	0	2	0	0	0	1	1	0
OTU 91	0	0	0	0	0	2	0	0	0	0	0	0	0	0	0	0	0	0	0	0	0	0	0	0	0	0	0	0	0	0	0	0	4	0	1	0	0	0	0	0	0	0	0	0	0	0	0	0	0	0
OTU 92	0	0	0	0	0	0	0	0	0	0	0	0	0	0	0	0	0	0	0	3	0	0	0	0	0	0	0	0	1	0	0	1	0	0	0	0	4	0	0	0	0	0	0	0	0	0	5	0	0	1
OTU 93	0	0	0	0	0	0	1	0	2	0	0	0	0	2	0	1	0	0	0	0	0	0	0	0	0	0	0	1	0	0	0	0	0	0	2	3	0	0	0	0	0	0	0	0	0	0	0	0	0	0
OTU 94	0	1	5	0	9	13	2	4	10	7	0	0	5	0	5	0	2	1	4	1	1	6	4	4	2	5	1	3	0	2	5	4	8	6	5	8	6	12	9	2	4	10	0	6	3	12	1	1	16	4
OTU 95	0	0	0	0	1	0	0	0	0	0	1	1	0	0	0	0	3	3	0	1	0	0	0	0	0	0	0	0	0	0	0	4	1	0	0	0	0	0	0	0	0	1	0	0	0	0	0	0	4	0
OTU 96	2	0	0	0	0	0	0	0	0	0	0	0	0	0	0	0	3	0	0	0	0	0	0	0	2	0	0	0	0	0	0	0	0	0	0	0	0	0	0	0	0	0	0	3	0	0	0	0	0	0
OTU 97	0	0	0	0	0	0	0	0	0	0	0	0	0	0	0	0	0	0	0	0	2	0	0	0	0	0	0	1	2	0	0	0	0	0	0	0	0	0	0	0	0	0	0	1	0	1	0	0	0	0
OTU 98	0	0	0	0	1	0	0	0	0	0	0	0	16	1	0	2	0	3	0	0	0	1	0	0	1	0	0	0	0	0	3	0	1	0	0	3	16	1	0	0	0	0	0	1	0	5	0	0	0	3
OTU 99	92	1	7	0	0	0	3	0	0	0	5	0	8	0	0	0	4	0	0	1	5	1	2	4	7	1	0	2	1	0	0	0	5	0	13	3	3	5	5	0	1	1	0	8	0	0	2	0	0	2
OTU 100	1	0	0	0	0	0	0	0	10	0	0	3	4	1	0	0	2	1	2	0	2	0	3	1	0	0	2	3	0	0	0	2	0	5	2	0	2	1	0	5	0	2	1	0	3	0	0	1	0	0
OTU 101	0	0	0	0	0	0	1	0	0	0	0	3	0	0	0	0	4	0	0	0	0	0	0	0	0	0	0	3	0	0	0	0	0	0	6	0	0	0	0	0	0	0	0	0	0	0	0	1	0	0
OTU 102	0	0	0	0	0	0	0	0	0	0	0	3	0	1	0	0	0	0	0	0	0	0	0	0	0	0	0	2	0	0	0	0	0	1	0	0	3	0	0	0	0	0	0	0	0	0	0	0	0	0
OTU 103	0	0	1	0	0	2	2	0	1	0	2	0	0	0	0	0	0	1	0	0	6	0	0	0	0	0	0	0	0	0	0	0	2	0	0	0	0	0	0	0	2	0	0	2	0	0	1	0	0	0
OTU 104	4	0	1	0	0	0	7	0	0	0	0	0	0	2	0	3	11	5	0	10	1	1	1	0	2	0	1	0	1	1	0	2	3	1	2	2	2	0	3	3	3	1	0	1	0	0	2	1	5	0
OTU 105	0	0	0	0	0	0	0	0	0	0	1	0	0	0	0	0	0	0	0	0	0	0	0	0	0	0	0	0	0	0	2	0	1	0	0	0	0	0	0	2	0	0	0	0	0	0	0	0	0	0
OTU 106	1	0	0	0	0	0	4	0	0	2	1	0	0	1	0	1	0	9	0	2	0	0	2	0	0	0	0	0	0	0	0	0	0	0	0	0	0	0	9	0	2	0	0	0	0	0	1	0	0	0
OTU 107	0	154	1	0	0	2	0	0	0	0	0	0	0	3	0	0	0	2	0	0	0	0	0	0	0	0	0	0	0	0	3	0	0	0	0	0	2	0	0	3	0	0	0	0	0	0	0	0	0	0
OTU 108	0	3	5	0	0	2	0	1	0	1	0	1	0	0	2	0	8	0	0	1	0	1	0	0	0	1	0	0	4	2	0	0	0	0	0	0	1	1	0	1	0	0	0	1	0	0	0	0	0	0
OTU 109	0	0	0	0	0	0	0	0	0	0	0	0	0	0	0	0	0	0	0	0	1	0	0	0	0	0	0	1	0	0	0	0	0	0	0	0	0	0	0	0	0	0	0	0	0	0	0	0	0	0
OTU 110	0	3	1	0	5	0	3	0	1	0	0	1	0	0	0	0	0	0	0	0	3	0	0	0	0	0	0	0	0	0	1	0	0	0	0	1	0	1	3	5	0	3	0	0	0	2	0	1	1	0
OTU 111	0	0	0	0	0	0	0	0	0	0	0	0	0	0	0	0	1	0	0	0	0	0	0	0	0	0	0	0	0	0	0	0	1	0	2	0	0	1	0	0	0	0	0	0	0	1	0	0	0	0
OTU 112	0	0	7	0	0	3	0	0	1	0	0	1	5	1	1	0	0	0	0	0	1	1	0	2	0	0	0	0	1	0	1	0	0	0	0	0	0	4	0	1	1	0	0	0	1	0	0	0	0	1
OTU 113	0	0	0	0	0	0	0	0	0	0	0	1	0	0	0	0	0	0	0	0	2	0	0	0	1	0	0	0	0	0	0	0	0	0	0	1	0	0	0	0	0	0	0	1	0	0	0	0	0	0
OTU 114	0	0	6	4	1	2	8	0	5	1	6	4	4	3	4	0	7	1	1	0	1	1	6	6	5	6	37	0	0	3	2	2	0	0	4	3	2	5	1	4	3	0	0	11	14	3	2	0	5	0
OTU 115	0	5	3	1	2	0	3	0	0	1	5	7	0	10	2	0	13	45	0	34	2	1	3	1	2	0	0	3	0	1	0	0	7	0	3	6	0	3	101	0	1	0	0	2	1	0	62	23	0	0
OTU 116	0	22	1	0	1	2	9	3	0	0	2	2	0	4	0	0	0	0	5	1	3	0	2	2	8	0	1	1	1	0	0	0	0	1	0	0	3	0	1	57	2	0	0	5	1	0	0	1	1	2
OTU 117	0	3	7	0	1	0	0	14	7	0	0	1	1	1	0	0	0	1	26	3	1	0	4	3	3	1	0	0	0	4	24	1	1	0	0	2	0	1	0	4	2	1	0	6	2	3	2	0	4	0
OTU 118	0	2	0	1	0	0	0	0	0	0	0	0	1	0	0	0	0	0	0	0	0	1	0	0	0	0	0	0	0	0	0	0	0	0	0	0	0	0	0	0	0	0	0	0	1	0	1	0	0	0
OTU 119	0	0	8	1	0	5	0	33	3	0	4	0	2	3	0	0	7	0	1	1	0	0	4	4	1	2	0	0	3	1	0	2	8	0	1	0	2	0	5	1	0	0	0	4	0	0	0	0	8	0
OTU 120	0	0	0	0	0	0	0	0	0	0	4	0	0	0	0	0	0	0	0	0	0	0	0	0	0	0	0	0	0	0	0	0	0	0	0	0	0	3	0	0	1	0	0	1	1	1	0	0	0	0
OTU 121	1	2	3	0	0	2	0	1	0	2	5	0	0	0	0	1	0	0	0	0	0	0	1	0	1	3	1	1	0	2	1	2	2	0	0	0	0	0	1	1	5	0	185	0	2	1	0	1	9	2
OTU 122	1	1	0	1	44	5	4	1	0	0	0	8	5	4	0	0	1	1	1	9	2	0	1	0	7	0	0	0	0	0	0	0	9	4	1	4	1	1	1	0	2	56	0	0	3	119	1	0	0	1
OTU 123	0	4	9	0	2	3	3	0	4	2	2	6	9	16	3	1	6	4	5	2	0	0	8	1	10	4	0	1	11	0	2	3	1	0	7	1	13	2	4	2	2	5	0	20	1	9	7	2	1	2
OTU 124	19	3	0	0	0	0	0	0	0	0	0	0	0	0	0	42	1	0	0	0	0	0	4	0	0	0	0	0	0	0	0	0	3	0	0	0	0	0	0	1	0	0	17	0	0	0	0	0	0	0
OTU 125	20	5	4	3	0	2	8	0	4	1	0	2	1	12	2	2	4	6	1	5	5	12	66	4	3	5	77	30	9	41	6	0	7	10	1	0	1	12	4	1	2	5	0	3	7	3	4	2	0	4
OTU 126	0	0	0	0	0	5	0	0	0	0	0	0	0	0	0	0	0	0	0	1	0	0	0	0	0	0	0	0	0	0	0	0	0	0	1	0	0	0	0	0	0	0	0	0	0	3	0	0	0	0
OTU 127	2	0	30	0	0	3	0	0	2	0	0	0	5	5	0	0	3	0	0	1	0	0	0	12	0	0	0	0	127	2	1	0	2	0	0	0	0	0	0	0	2	0	0	0	1	1	0	0	0	0
OTU 128	1	1	11	3	4	3	12	6	6	0	7	3	2	4	1	0	17	10	7	1	6	17	8	10	12	1	1	1	1	0	2	1	26	8	12	7	2	16	14	1	3	1	3	14	8	3	3	2	2	55
OTU 129	0	0	0	0	0	0	0	0	0	0	0	0	0	0	0	0	1	0	0	0	0	0	4	0	0	0	0	1	0	1	0	1	0	0	0	0	0	0	0	0	0	0	0	0	0	1	0	0	7	0
OTU 130	3	1	0	0	0	5	0	0	0	0	0	2	2	5	0	2	1	0	0	7	4	0	1	0	1	0	0	1	0	0	1	1	0	0	16	62	0	0	0	0	0	0	4	0	0	0	0	1	0	0
OTU 131	0	0	3	16	0	1	2	0	2	1	2	4	0	1	3	0	0	4	2	0	2	3	0	1	2	4	0	0	0	1	0	1	1	0	0	0	3	1	0	2	2	0	0	3	1	0	7	1	1	2
OTU 132	40	0	1	0	0	0	0	0	0	0	0	0	0	4	0	1	0	0	0	0	0	0	4	0	60	0	1	0	0	1	0	1	0	0	0	0	0	0	0	0	0	1	0	0	0	1	0	0	2	1
OTU 133	0	0	0	0	1	0	0	0	0	0	0	0	0	1	0	0	1	0	0	1	0	1	0	0	0	0	0	0	2	0	0	0	0	0	0	0	0	0	0	0	0	0	0	1	0	0	0	0	1	0
OTU 134	0	1	0	0	0	0	2	1	0	0	7	1	4	0	0	0	4	0	1	0	5	0	0	0	0	0	1	0	0	0	11	2	0	0	1	0	8	0	1	0	0	0	1	1	1	3	1	0	0	0
OTU 135	1	0	0	0	1	3	6	4	5	2	3	0	117	0	5	1	1	0	4	0	1	3	6	1	1	1	4	4	0	1	1	4	0	4	0	5	0	9	0	0	4	2	3	0	3	9	3	11	15	5
OTU 136	0	3	0	1	0	2	0	0	2	4	3	0	0	0	3	0	1	0	0	1	0	1	1	1	6	1	1	3	1	0	0	1	0	1	0	0	0	1	0	0	6	0	1	1	1	0	1	2	5	2
OTU 137	0	0	0	0	1	0	0	0	0	0	0	0	0	0	0	0	0	0	0	1	0	0	1	0	1	0	0	0	0	0	0	0	5	0	2	0	8	3	0	0	0	0	0	0	0	0	1	0	1	0
OTU 138	0	0	0	0	0	0	0	3	0	1	2	0	0	0	0	2	0	0	0	0	1	0	0	0	1	0	0	0	0	0	0	0	0	0	0	0	0	0	8	0	0	0	0	0	0	0	1	0	0	0
OTU 139	2	2	0	0	38	0	0	0	8	0	1	5	13	0	0	2	0	5	1	0	7	0	1	84	3	0	1	0	1	1	0	3	2	10	2	0	2	0	6	2	1	19	2	4	3	7	2	5	3	0
OTU 140	2	2	3	1	3	1	31	1	1	8	0	4	11	3	0	5	12	4	0	3	10	1	4	0	15	2	0	3	3	1	5	3	54	0	12	5	11	1	6	2	1	0	1	2	5	4	1	0	3	0
OTU 141	0	0	0	0	0	0	0	0	0	0	0	0	0	0	0	1	0	0	0	0	6	0	0	0	0	0	0	0	0	0	0	0	0	0	3	0	0	0	0	0	0	0	0	0	0	0	0	0	0	0
OTU 142	0	0	0	0	0	3	0	0	0	0	0	0	0	0	0	0	1	0	0	0	1	0	0	0	0	0	0	0	0	0	0	0	0	0	0	0	0	0	0	0	0	0	0	0	0	0	0	0	0	0
OTU 143	0	1	0	0	15	0	0	0	0	0	3	0	0	0	0	0	0	0	0	0	0	0	0	0	0	0	0	0	1	0	0	0	0	0	2	0	0	4	0	0	0	14	0	0	0	0	1	0	0	1
OTU 144	0	0	0	0	1	0	3	0	0	1	0	2	2	0	0	0	0	0	0	1	0	0	0	0	0	0	0	0	0	0	0	0	2	0	0	4	1	0	0	0	0	0	0	0	0	0	0	0	0	0
OTU 145	2	5	1	0	2	7	5	0	2	0	2	0	0	19	0	0	4	0	0	12	2	4	0	1	4	0	13	4	0	1	0	5	1	0	0	1	0	1	6	4	3	20	0	3	4	1	2	1	8	1
OTU 146	0	0	3	0	0	1	4	0	2	0	0	4	0	2	0	1	2	0	0	3	2	0	0	2	1	0	0	0	0	0	2	0	1	0	1	0	7	1	0	0	2	134	1	0	0	0	4	1	0	0
OTU 147	0	0	0	0	0	0	0	0	0	0	1	0	0	0	0	0	9	0	0	0	0	0	0	0	2	0	1	0	1	1	0	1	7	1	0	7	0	0	0	0	0	0	0	0	0	0	0	2	0	0
OTU 148	0	1	13	0	0	0	5	0	0	0	0	2	2	5	0	1	1	6	6	3	0	0	0	2	1	1	0	0	0	0	4	1	8	0	8	0	1	0	1	0	1	0	0	4	7	0	0	0	1	0
OTU 149	0	0	0	0	0	0	0	38	1	0	1	0	0	0	0	0	0	0	0	2	0	0	1	0	0	0	0	0	3	0	0	0	1	0	0	0	0	0	0	0	0	0	0	0	0	0	0	0	0	0
OTU 150	0	1	0	0	0	0	0	0	0	0	0	1	0	0	0	2	2	0	0	0	0	0	0	1	0	0	0	0	2	0	0	0	0	0	0	0	0	0	0	0	0	0	0	0	0	0	2	0	1	0
OTU 151	3	0	0	0	0	0	1	0	0	0	2	1	0	0	0	3	0	0	5	0	0	1	0	0	0	0	0	1	0	0	7	0	6	0	1	0	0	0	0	6	0	0	0	0	4	0	0	0	0	0
OTU 152	1	2	5	0	0	1	2	1	3	1	0	0	10	1	2	3	0	96	2	4	0	0	6	4	1	0	0	4	24	1	2	3	0	1	1	1	4	0	0	0	1	0	0	5	0	0	3	4	13	0
OTU 153	1	0	0	0	0	0	0	0	0	0	1	0	0	0	0	0	0	0	1	0	0	0	0	0	0	0	0	0	0	0	0	0	0	0	0	0	0	0	0	0	0	0	0	0	0	0	0	0	0	0
OTU 154	0	0	0	0	0	0	0	0	0	0	0	0	0	0	0	1	0	0	0	0	0	0	0	0	0	0	0	0	0	0	0	0	0	0	1	0	0	0	0	0	0	0	0	3	0	0	0	0	0	0
OTU 155	2	1	1	0	1	1	0	0	3	0	0	0	0	0	0	1	0	2	0	1	2	0	1	0	1	1	0	0	0	1	0	0	1	0	0	0	0	0	0	0	0	0	0	0	0	0	0	0	0	0
OTU 156	50	3	4	1	2	2	1	77	4	0	11	0	2	8	3	151	1	3	1	5	2	0	2	3	0	1	0	2	2	0	0	2	0	0	8	0	2	1	1	5	0	3	70	5	0	0	2	2	1	0
OTU 157	0	0	0	0	0	34	0	0	1	0	0	0	0	0	0	3	0	0	0	0	1	0	0	0	0	0	0	0	0	0	0	0	0	0	9	0	1	0	3	2	3	0	1	1	2	0	1	0	0	85
OTU 158	1	0	0	0	0	0	0	0	0	0	0	0	0	8	0	0	0	0	0	0	2	0	0	0	0	0	0	0	0	0	1	0	1	0	0	0	0	0	0	0	0	0	0	0	0	0	0	0	0	0
OTU 159	0	0	1	0	0	1	1	0	0	1	0	0	2	1	1	3	0	4	0	0	1	0	0	2	8	1	1	1	1	0	0	0	0	1	2	0	2	1	3	1	3	0	1	1	3	0	6	0	2	1
OTU 160	0	8	4	0	3	7	5	3	0	0	3	0	7	4	0	1	0	16	5	2	2	0	0	3	0	1	0	0	4	1	4	2	3	1	0	1	42	5	56	34	2	2	1	6	0	1	25	0	4	1
OTU 161	0	0	3	16	0	4	6	0	0	48	3	1	2	13	79	0	2	1	0	4	1	0	2	1	2	57	0	0	7	12	0	0	1	0	1	55	2	116	0	2	71	0	9	0	1	0	94	0	0	59
OTU 162	2	0	7	1	2	9	6	0	1	1	1	0	0	0	1	1	0	2	0	0	0	0	2	2	0	1	3	1	0	1	7	1	0	0	0	0	2	9	3	1	8	3	0	0	82	0	6	1	0	6
OTU 163	0	0	0	0	0	0	3	0	0	0	0	0	0	0	0	0	0	0	0	0	0	0	0	0	0	0	0	0	0	1	0	0	0	0	0	0	0	0	0	0	0	0	0	0	0	0	0	0	0	0
OTU 164	0	0	0	0	0	0	0	0	0	0	0	0	0	0	0	0	0	0	0	0	0	0	0	0	0	0	0	0	1	0	0	0	0	0	0	0	0	0	0	0	0	0	0	0	0	0	0	0	0	0
OTU 165	0	0	0	0	0	0	2	0	0	0	1	0	0	1	0	0	0	0	0	0	3	0	1	0	3	0	0	0	0	0	0	0	2	0	4	0	0	1	0	0	0	3	0	0	1	0	0	0	0	0
OTU 166	0	0	0	0	0	0	0	0	0	0	0	0	0	0	0	0	0	0	0	0	0	0	0	0	0	0	0	0	0	0	0	0	0	0	0	0	0	0	0	0	0	0	0	0	0	0	0	0	0	0
OTU 167	0	1	0	0	0	3	0	0	0	0	7	32	0	4	0	0	1	2	0	2	0	0	0	0	1	0	0	0	0	40	1	2	1	0	0	0	1	0	0	0	0	0	0	0	0	0	0	1	0	0
OTU 168	0	4	0	0	0	1	0	0	1	0	1	0	8	4	0	0	0	0	1	8	3	0	0	3	1	1	0	0	1	0	0	2	0	1	0	0	1	0	2	0	0	1	1	4	1	1	0	1	0	1
OTU 169	0	0	0	0	0	0	1	0	0	0	104	0	0	0	0	0	0	0	0	2	4	0	0	0	0	0	0	0	0	0	1	0	0	0	0	0	0	0	4	0	0	0	0	0	0	0	1	0	0	0
OTU 170	0	0	0	0	0	0	0	0	0	0	0	0	0	0	0	0	0	0	0	0	0	0	0	0	0	0	0	0	0	0	0	0	0	0	0	0	2	0	0	0	0	0	0	0	2	0	0	0	0	0
OTU 171	0	0	0	0	7	0	0	0	3	4	1	13	0	1	5	0	0	0	4	6	0	1	10	2	0	2	0	1	0	1	2	6	0	1	2	0	4	5	0	1	85	2	0	1	0	2	1	5	3	0
OTU 172	0	0	0	0	0	0	0	0	0	0	0	0	1	0	0	0	0	0	0	0	1	0	1	0	0	0	0	0	0	0	0	0	0	1	0	0	0	0	0	0	0	1	0	0	0	0	0	0	0	0
OTU 173	0	1	1	0	0	1	0	0	0	0	3	0	0	0	0	0	2	0	0	0	0	1	0	0	0	0	0	0	0	0	1	0	2	0	1	0	0	0	0	0	0	0	0	0	0	0	0	0	0	0
OTU 174	0	0	0	1	0	0	1	2	0	0	0	0	0	0	0	3	3	1	0	0	1	0	0	1	0	1	1	0	0	1	2	0	0	0	1	0	0	2	0	1	2	0	0	0	0	0	1	0	0	1
OTU 175	0	0	0	0	0	0	0	0	0	0	0	0	0	0	0	0	3	1	0	1	0	2	2	0	1	0	0	1	0	0	1	6	0	0	2	1	0	0	1	4	0	0	0	0	0	2	0	0	3	0
OTU 176	0	1	0	0	1	0	5	0	0	0	0	0	0	4	3	0	12	3	0	5	2	0	0	4	8	0	0	0	3	0	2	0	1	0	2	2	0	0	0	5	0	3	0	0	0	4	2	0	0	0
OTU 177	2	1	1	0	0	1	4	1	4	0	3	0	2	2	0	1	0	1	0	1	1	0	0	3	0	0	0	0	1	0	0	0	0	1	1	0	0	12	1	0	1	0	1	0	7	2	3	1	1	1
OTU 178	1	3	0	1	0	0	3	0	0	1	0	0	0	0	3	0	0	0	3	0	0	0	0	0	0	0	0	0	5	0	0	0	3	0	0	1	0	1	1	0	1	0	0	0	0	0	0	1	0	0
OTU 179	0	0	0	0	0	0	0	0	0	0	0	3	1	1	2	0	0	0	1	0	0	0	0	0	1	1	0	0	0	0	1	0	11	0	1	0	1	0	1	0	1	0	0	1	0	0	0	0	0	0
OTU 180	3	7	70	94	5	0	6	1	3	166	6	1	5	3	0	0	12	4	2	2	15	88	6	29	2	3	0	173	2	3	2	0	0	0	11	6	2	3	5	2	1	1	0	3	1	3	3	0	6	1
OTU 181	0	0	0	0	0	3	1	0	0	0	0	0	0	0	0	0	0	3	0	1	0	0	1	0	0	0	0	0	3	0	1	1	0	0	3	0	0	0	0	7	1	0	0	0	0	0	0	0	0	0
OTU 182	0	0	0	0	0	0	2	0	0	0	0	0	0	0	0	0	1	0	0	0	0	0	0	0	0	0	0	0	0	0	0	0	0	0	0	0	0	0	0	0	0	0	0	0	0	0	0	0	0	0
OTU 183	0	0	0	0	2	0	2	2	0	0	0	30	1	1	0	0	0	7	0	0	0	4	0	3	0	0	0	1	0	0	1	0	2	0	0	1	0	0	1	0	2	0	0	0	0	1	37	2	0	1
OTU 184	5	0	0	0	0	0	7	11	0	1	0	0	0	1	1	0	0	0	19	1	0	0	0	1	0	0	0	0	1	0	0	0	0	0	0	0	0	0	0	0	0	0	0	0	1	1	0	1	0	0
OTU 185	0	1	0	1	0	1	0	5	1	1	1	0	0	0	1	2	0	7	0	0	2	0	1	1	1	0	4	3	12	0	0	0	7	1	2	0	0	3	2	0	0	0	0	2	0	0	3	0	0	1
OTU 186	0	5	0	0	0	0	1	0	4	1	0	113	1	0	0	0	0	0	0	0	0	0	0	0	0	1	0	0	0	0	0	0	3	0	3	0	3	1	1	0	0	0	0	3	0	0	5	0	1	0
OTU 187	4	1	4	0	6	1	0	0	0	0	5	1	1	1	0	1	0	0	2	2	14	1	1	4	3	2	0	0	2	2	1	4	6	0	2	1	8	1	0	0	2	1	1	0	0	3	0	0	5	0
OTU 188	0	0	0	5	14	20	7	18	8	2	1	0	6	4	8	5	4	8	40	8	3	10	13	0	2	18	5	15	3	37	9	14	1	10	0	17	5	12	2	1	16	6	2	1	6	19	5	13	31	12
OTU 189	1	1	8	0	1	0	1	5	4	0	1	2	1	3	1	3	2	0	17	1	0	1	2	0	0	1	0	3	2	1	7	5	1	3	12	2	3	1	4	3	0	0	0	4	6	10	4	4	7	0
OTU 190	0	0	0	0	0	0	0	0	0	0	2	0	0	2	0	0	0	0	0	2	0	0	0	0	1	0	0	3	0	0	0	0	0	0	1	0	0	0	0	1	0	0	0	0	0	0	0	0	1	0
OTU 191	4	1	2	1	2	6	1	1	1	0	2	1	3	0	0	10	1	0	1	0	0	0	3	0	16	147	0	1	1	2	2	1	10	0	15	5	0	0	4	0	0	1	2	0	1	0	2	3	2	0
OTU 192	0	0	0	0	0	1	4	0	1	1	7	2	2	9	1	0	9	0	1	0	5	1	0	2	3	0	0	0	1	0	0	0	8	0	0	2	7	1	0	1	2	0	0	111	5	8	1	0	1	0
OTU 193	0	0	8	0	0	2	1	5	5	1	0	2	3	1	0	0	7	4	0	0	2	2	0	0	0	0	1	0	0	0	4	0	4	7	1	3	7	0	1	3	2	0	0	4	0	1	0	3	0	0
OTU 194	0	4	0	0	0	14	0	0	1	0	0	0	5	0	0	0	0	0	0	0	0	0	0	1	5	0	0	0	2	1	0	0	11	0	3	1	0	0	3	0	0	0	0	0	2	0	1	0	0	0
OTU 195	1	1	1	18	1	0	0	3	0	38	0	4	0	3	80	1	0	1	1	0	0	0	0	4	0	0	1	0	2	0	0	0	3	0	0	2	3	0	1	1	0	0	0	1	0	1	2	0	0	0
OTU 196	0	0	2	0	0	0	2	0	0	0	0	2	7	0	0	0	0	0	0	0	0	0	0	0	2	0	0	0	0	0	0	0	1	0	5	0	0	5	1	0	0	0	0	0	0	1	0	0	0	1
OTU 197	0	1	3	6	0	2	4	0	5	1	3	4	0	12	6	5	5	1	3	8	3	1	2	8	6	3	2	0	0	2	2	4	5	2	17	3	3	1	11	0	61	0	1	5	0	2	2	3	0	2
OTU 198	0	0	0	0	0	0	0	0	1	0	1	0	0	0	0	0	0	7	0	0	0	0	0	0	0	0	0	0	0	0	0	0	0	2	0	0	0	0	0	0	2	0	0	0	0	0	1	2	0	0
OTU 199	0	1	0	1	0	1	0	2	0	0	0	0	0	1	0	0	0	0	0	1	1	0	0	0	0	2	0	0	0	0	1	0	0	0	0	0	4	0	2	0	0	0	0	0	1	0	0	0	0	0
OTU 200	0	1	2	0	0	1	1	0	1	1	0	6	0	0	0	0	3	0	0	5	0	0	8	1	3	1	0	0	0	0	0	2	1	0	0	2	8	0	0	0	0	2	0	0	0	1	0	0	3	0
