	Host 1	Host 2	Host 3	Host 4	Host 5	Host 6	Host 7	Host 8	Host 9	Host 10	Host 11	Host 12	Host 13	Host 14	Host 15	Host 16	Host 17	Host 18	Host 19	Host 20	Host 21	Host 22	Host 23	Host 24	Host 25	Host 26	Host 27	Host 28	Host 29	Host 30	Host 31	Host 32	Host 33	Host 34	Host 35	Host 36	Host 37	Host 38	Host 39	Host 40	Host 41	Host 42	Host 43	Host 44	Host 45	Host 46	Host 47	Host 48	Host 49	Host 50	
OTU 1	0	1	1	0	1	0	0	0	0	3	7	9	4	2	0	0	4	2	0	1	0	5	5	1	0	0	8	0	3	1	2	7	1	2	0	1	0	4	3	0	0	0	0	2	5	0	0	0	0	4
OTU 2	0	0	2	0	0	1	0	0	0	0	1	1	0	2	74	3	0	0	2	6	0	0	0	65	0	1	0	0	5	0	0	0	0	155	0	0	1	0	0	0	0	0	0	0	8	6	0	0	0	0
OTU 3	1	0	0	1	4	2	2	0	0	0	1	0	0	0	0	0	0	0	6	0	0	0	0	0	0	0	0	0	0	0	0	0	0	1	0	0	0	0	0	1	2	0	0	0	0	0	1	0	1	0
OTU 4	0	0	0	0	0	0	0	0	0	0	0	0	0	0	0	0	0	0	0	0	0	0	0	0	0	0	0	0	0	0	0	0	0	0	0	0	0	0	0	0	0	0	0	0	0	0	0	0	0	0
OTU 5	1	8	0	19	5	26	9	5	3	19	25	13	0	35	5	68	63	1	3	1	0	6	18	16	4	18	2	14	8	3	0	7	4	7	3	5	0	39	9	2	6	2	10	0	1	0	10	4	0	0
OTU 6	0	0	0	0	0	0	0	2	2	0	1	0	1	0	4	0	0	0	1	1	1	1	1	0	2	0	3	0	1	0	0	0	1	3	0	0	3	0	1	0	1	0	61	0	0	1	3	0	0	2
OTU 7	3	3	15	0	3	2	1	5	1	0	9	0	0	1	0	1	0	1	15	1	4	0	6	0	5	14	4	1	0	6	3	1	3	2	0	1	135	2	88	2	2	2	2	4	0	4	0	0	0	7
OTU 8	2	3	1	1	4	0	3	1	2	3	0	1	3	0	2	1	1	1	10	2	0	4	1	1	4	3	0	0	0	3	1	0	11	0	1	2	6	0	0	2	0	1	0	1	3	0	8	5	0	5
OTU 9	0	0	0	0	0	0	0	0	3	0	1	0	0	0	0	1	0	2	0	0	0	0	0	0	0	0	0	1	0	0	1	0	0	0	0	0	0	0	2	0	0	0	0	0	0	0	2	0	0	0
OTU 10	0	1	1	0	0	0	0	2	4	0	0	0	0	0	0	1	0	0	0	0	0	0	0	0	15	1	0	0	0	0	0	0	0	0	1	0	0	0	56	1	1	0	0	0	0	6	0	0	1	0
OTU 11	3	0	1	0	5	0	1	4	2	0	0	0	0	0	1	1	0	0	3	1	0	0	0	1	5	0	1	0	2	0	2	0	5	2	0	5	4	0	0	40	0	0	0	4	4	1	1	0	0	1
OTU 12	13	0	5	0	1	0	19	3	1	0	1	0	0	0	3	4	0	0	2	2	2	0	1	2	7	0	0	2	2	6	2	0	3	4	4	2	10	0	0	0	0	1	0	3	0	2	3	1	1	1
OTU 13	0	1	0	0	0	0	0	0	0	0	0	1	0	0	0	0	0	0	0	0	0	0	0	0	1	0	0	0	0	0	0	0	0	0	0	0	0	0	3	4	0	1	0	0	0	0	0	0	1	5
OTU 14	0	0	0	0	0	0	0	0	0	0	0	0	0	0	0	0	0	1	0	0	1	0	2	0	1	0	0	2	0	0	0	0	0	2	0	0	0	2	0	0	0	0	0	0	0	0	0	0	1	0
OTU 15	0	0	0	0	0	0	0	0	0	0	0	0	0	0	0	0	0	4	0	0	0	0	0	0	0	0	0	1	0	0	0	0	0	0	0	0	0	0	0	0	0	0	0	0	0	0	0	0	0	0
OTU 16	0	0	0	0	0	0	0	0	0	0	0	0	0	0	0	0	0	0	0	0	0	0	0	0	0	0	0	0	0	0	0	0	0	0	0	0	0	0	0	0	0	0	0	0	0	0	0	0	0	3
OTU 17	7	0	0	0	0	0	2	0	3	2	8	0	0	1	0	0	1	4	2	0	3	0	1	0	12	1	1	0	1	0	2	0	0	0	0	4	4	3	0	0	0	9	0	0	0	0	3	3	2	0
OTU 18	0	2	1	0	0	5	0	0	1	0	0	6	1	5	1	3	1	0	1	1	2	2	2	1	0	6	1	0	1	4	11	0	2	1	0	0	0	2	2	1	0	0	2	1	2	1	0	0	1	1
OTU 19	0	0	0	0	0	0	0	0	0	0	0	0	0	0	0	0	0	0	0	0	0	0	0	0	0	0	0	0	0	0	0	0	0	0	0	0	0	0	0	0	0	0	0	0	0	0	0	0	0	0
OTU 20	5	1	0	1	2	10	1	5	0	0	0	2	0	6	0	1	0	0	3	0	0	1	3	0	0	4	0	0	2	0	4	0	0	0	3	15	7	0	0	0	2	0	0	1	3	2	4	0	1	0
OTU 21	3	1	0	0	5	3	4	4	1	2	1	0	2	8	0	1	0	2	1	0	5	2	0	1	3	4	2	4	0	3	0	6	2	0	1	0	0	0	0	6	0	0	2	0	0	5	1	0	0	2
OTU 22	0	3	2	0	0	0	5	0	1	0	1	6	0	1	1	2	2	2	2	2	0	2	0	0	1	0	2	15	0	3	1	10	0	0	2	1	2	0	1	0	6	2	1	0	0	2	0	2	0	0
OTU 23	1	0	0	2	0	0	0	0	1	0	0	0	0	0	0	0	0	0	0	1	0	4	0	0	0	0	2	0	0	0	0	0	0	0	0	4	3	0	0	0	0	0	0	2	1	0	3	0	0	0
OTU 24	1	0	1	0	0	0	0	0	2	0	0	4	0	0	0	0	1	0	0	0	22	1	2	0	0	0	1	0	0	0	0	0	0	0	0	0	0	0	0	5	0	0	0	0	1	0	0	4	0	0
OTU 25	0	0	0	0	0	0	0	0	0	0	0	0	0	0	0	0	0	0	0	0	0	0	0	0	0	0	0	0	0	0	0	0	0	0	0	0	0	0	0	0	0	0	0	0	0	0	0	0	0	0
OTU 26	0	0	0	0	0	0	0	0	0	0	0	0	0	0	0	0	0	0	0	0	0	0	1	0	0	1	0	0	0	0	0	2	0	0	0	0	0	0	0	0	0	0	0	0	0	1	3	1	0	0
OTU 27	0	0	0	0	0	0	0	1	14	0	0	0	0	0	0	0	0	0	0	0	0	0	0	0	0	0	0	0	0	0	0	0	0	0	0	0	0	0	0	0	0	0	0	0	2	0	0	0	0	0
OTU 28	1	0	1	98	0	1	3	0	6	4	0	4	6	2	0	14	2	2	5	2	0	3	0	1	15	7	0	1	7	1	1	0	4	1	1	4	0	1	5	3	0	1	1	3	5	1	13	1	2	2
OTU 29	0	1	7	0	1	0	4	0	0	2	0	1	2	0	1	34	0	2	8	2	2	6	1	1	2	1	1	0	1	0	5	5	1	0	0	0	4	3	0	3	12	0	2	4	1	6	9	0	1	12
OTU 30	0	0	0	0	0	0	0	0	0	0	0	0	0	0	0	0	0	0	0	0	0	0	0	0	0	0	0	0	0	0	0	0	0	0	0	0	0	0	0	0	0	0	0	0	0	0	0	0	0	0
OTU 31	0	1	0	0	0	0	0	2	0	0	0	0	0	0	0	0	0	1	0	0	4	0	0	4	5	0	0	0	0	1	0	1	0	4	0	0	1	0	0	0	0	0	1	0	1	0	0	1	0	0
OTU 32	0	3	0	1	1	0	5	3	3	0	0	6	0	1	1	1	1	0	2	3	2	1	0	0	2	5	81	5	3	0	2	17	1	1	19	0	4	1	0	0	0	2	0	8	9	2	0	0	3	0
OTU 33	15	0	0	0	0	0	0	0	0	0	0	0	0	0	0	0	0	0	0	0	0	0	0	0	0	0	0	0	0	0	0	1	0	0	0	0	0	0	0	0	5	0	0	0	0	0	0	0	0	0
OTU 34	2	0	1	0	2	0	5	11	0	0	1	0	0	0	0	0	3	2	1	1	3	1	1	0	0	0	0	0	0	0	2	0	0	1	0	2	0	3	0	13	1	0	0	0	0	11	4	0	0	0
OTU 35	0	0	1	0	1	1	0	3	2	0	0	0	1	1	0	1	0	0	1	1	32	2	1	2	0	1	2	0	0	0	0	0	50	0	0	0	1	0	0	5	0	1	0	2	0	0	1	3	1	9
OTU 36	3	1	0	1	6	0	2	6	0	1	0	3	0	8	0	2	0	3	0	0	13	1	0	0	2	10	2	0	0	2	0	0	1	0	1	1	0	0	2	5	1	2	1	0	2	3	5	0	1	4
OTU 37	0	0	0	23	2	0	4	0	2	0	0	0	82	2	0	0	0	0	1	4	0	0	0	0	0	1	0	0	1	0	2	0	0	0	1	0	0	0	0	0	0	4	0	0	3	0	0	0	46	0
OTU 38	7	0	0	0	0	7	0	4	1	0	1	0	0	2	0	0	0	4	2	0	0	2	0	1	0	2	0	2	1	1	3	0	7	0	1	0	1	0	0	3	0	1	2	13	3	0	0	2	0	5
OTU 39	0	0	0	0	0	0	0	0	3	0	0	0	0	0	0	0	0	0	0	0	0	0	3	0	0	0	0	0	0	0	0	0	0	0	0	0	0	0	0	0	0	2	0	0	0	0	0	0	0	1
OTU 40	1	0	0	0	12	2	4	3	3	3	2	1	1	12	0	2	0	1	1	1	11	3	0	1	4	6	0	33	0	0	3	1	0	5	0	5	0	0	0	9	7	0	0	0	0	12	0	1	0	2
OTU 41	2	1	2	0	1	0	0	1	0	0	0	2	0	0	101	0	2	7	4	0	0	4	0	0	0	0	0	0	4	0	0	0	0	0	0	0	7	0	1	4	6	0	1	0	0	1	2	0	0	0
OTU 42	0	0	3	0	1	1	3	1	0	0	0	0	0	0	0	0	0	1	1	4	0	0	0	0	6	5	0	0	1	0	0	0	0	0	1	0	0	0	0	0	0	0	2	0	7	0	2	0	0	0
OTU 43	0	0	0	0	0	0	0	0	0	0	0	0	0	0	0	0	0	0	0	0	0	0	0	0	0	0	0	0	0	0	0	0	0	0	0	0	0	0	0	0	0	0	0	0	0	0	0	0	0	0
OTU 44	0	0	0	0	0	0	0	0	3	0	0	0	0	0	0	0	0	7	0	0	0	0	2	2	0	2	0	0	0	0	0	0	1	0	0	1	0	0	0	0	0	0	0	0	0	0	0	0	0	0
OTU 45	6	4	14	0	3	3	3	0	0	0	16	4	1	0	12	5	0	0	3	1	0	3	1	0	0	2	0	0	0	1	6	0	2	0	1	0	0	1	0	3	5	1	1	2	0	0	0	0	0	2
OTU 46	6	0	0	3	1	1	2	1	3	3	7	28	31	0	3	1	1	7	0	34	3	2	0	1	4	3	1	0	34	1	0	9	0	2	6	1	1	6	7	7	1	7	3	3	69	4	14	37	7	1
OTU 47	0	0	0	0	0	0	0	0	0	0	1	0	0	0	0	0	0	1	0	0	0	0	0	0	0	0	0	0	0	0	0	0	0	0	0	0	0	0	0	0	0	0	0	0	0	0	1	0	0	0
OTU 48	0	11	1	0	0	2	0	2	0	0	2	1	4	1	0	4	0	0	0	1	3	3	0	0	4	0	1	1	0	0	1	5	0	0	0	1	0	0	1	2	0	3	0	19	0	3	5	0	0	3
OTU 49	0	0	5	0	0	1	0	0	0	2	0	0	0	5	0	0	1	0	0	0	0	5	0	171	0	4	2	1	0	0	0	0	0	0	2	0	0	1	0	2	0	1	1	0	0	0	0	3	0	3
OTU 50	13	0	0	0	3	4	0	1	2	0	5	0	0	3	11	4	1	0	0	3	15	1	1	10	1	5	1	1	0	0	1	3	1	25	1	0	7	3	0	4	2	3	0	11	0	1	2	2	1	0
OTU 51	0	1	3	0	1	0	0	2	0	0	0	2	1	4	0	0	0	2	0	1	0	1	4	1	2	2	0	0	0	2	0	0	0	3	0	0	2	0	35	0	0	0	0	3	2	0	0	0	3	7
OTU 52	0	141	1	0	5	0	1	2	3	0	1	34	3	1	12	1	1	2	6	1	1	1	20	12	9	2	6	4	0	1	0	41	2	16	15	7	0	1	25	2	0	1	0	11	0	1	0	11	0	0
OTU 53	0	0	0	0	0	0	0	0	0	0	0	0	0	0	0	0	0	0	0	0	0	0	0	0	0	0	0	0	0	0	0	4	0	0	0	0	0	0	0	0	0	1	0	0	0	0	0	0	0	5
OTU 54	5	0	1	0	4	27	1	0	1	0	7	0	5	0	0	0	1	6	27	0	4	1	2	0	0	0	4	3	0	2	11	0	1	0	0	0	0	1	0	0	0	10	2	7	1	0	0	0	0	3
OTU 55	0	0	0	0	0	0	0	2	0	0	0	0	0	0	0	0	0	0	0	0	0	0	0	1	0	0	0	0	0	0	0	0	0	0	0	0	0	0	0	0	0	0	0	0	0	0	0	0	0	0
OTU 56	0	0	0	0	0	0	46	1	2	2	1	0	1	0	0	0	0	0	0	1	0	5	0	0	1	0	0	0	0	2	0	3	0	0	0	0	2	0	0	0	3	1	0	18	2	0	1	0	0	0
OTU 57	6	3	5	2	2	0	0	1	5	2	4	1	4	6	1	2	1	2	4	1	8	6	1	0	0	4	2	4	8	0	4	6	14	1	3	0	2	2	0	3	5	7	3	0	15	42	3	2	1	4
OTU 58	0	0	3	0	3	0	0	1	3	1	0	0	0	5	0	0	0	3	0	0	11	3	0	0	4	0	0	8	0	1	0	0	1	0	0	0	0	0	0	6	3	6	0	0	0	0	5	0	0	0
OTU 59	2	0	0	0	1	0	0	0	0	0	2	0	0	1	0	0	0	1	0	0	1	0	0	0	1	1	0	1	0	0	2	0	0	1	0	0	0	0	0	0	0	5	0	2	0	0	0	2	0	0
OTU 60	2	0	2	0	2	5	2	1	4	0	7	0	0	0	1	4	0	1	0	1	3	0	3	0	1	7	1	2	0	1	1	3	0	0	1	2	2	1	1	7	92	0	0	8	1	11	5	1	0	4
OTU 61	6	2	2	0	7	47	9	7	1	0	3	0	0	2	1	2	0	7	0	3	8	1	1	0	4	9	1	2	11	7	0	3	3	1	0	5	3	0	0	7	2	0	3	3	2	1	3	6	0	0
OTU 62	1	0	0	0	0	0	0	0	0	0	0	0	0	0	0	1	0	1	0	3	0	0	1	0	0	1	0	0	0	0	0	0	6	0	0	0	0	0	0	0	0	3	0	1	0	1	6	0	0	3
OTU 63	0	1	1	0	0	0	0	1	3	0	1	2	0	0	0	5	0	0	5	0	0	6	2	0	3	0	1	0	0	1	0	10	2	1	3	0	1	0	1	3	3	2	0	0	1	0	1	1	0	0
OTU 64	8	1	5	0	2	2	5	8	3	0	2	14	15	4	2	6	0	1	23	6	5	0	6	0	0	4	6	3	10	7	5	7	0	6	7	1	3	1	5	0	1	1	3	13	18	1	5	11	5	7
OTU 65	0	0	0	0	0	0	0	0	0	0	0	0	0	0	0	0	0	0	0	0	0	0	0	0	0	0	0	0	0	0	0	0	32	0	0	0	0	0	0	0	0	0	0	0	0	0	0	0	0	0
OTU 66	2	1	4	0	0	1	0	5	7	0	0	1	1	0	0	6	0	0	1	1	13	0	0	0	1	1	1	1	0	3	4	0	0	0	1	0	1	0	0	0	0	3	2	1	1	0	3	0	0	10
OTU 67	2	0	0	0	1	1	0	0	0	0	1	6	1	4	0	0	1	0	5	0	3	0	2	0	0	0	1	4	1	2	0	0	1	0	0	1	0	1	1	4	1	0	1	0	0	7	2	0	0	2
OTU 68	0	0	4	1	0	0	0	0	1	0	0	0	5	0	0	1	0	0	3	7	1	0	2	2	21	0	3	0	0	0	0	0	0	0	1	2	0	0	0	0	0	0	0	1	2	0	1	1	0	0
OTU 69	2	0	1	0	0	0	0	1	0	0	2	1	2	25	0	2	2	2	2	0	0	0	0	0	2	1	0	0	2	1	4	0	4	0	1	1	16	0	1	15	1	41	4	3	0	3	3	7	0	7
OTU 70	0	0	2	0	1	0	0	0	0	0	0	0	1	3	0	0	1	0	1	1	0	1	0	0	0	0	2	0	1	0	5	0	1	0	0	2	0	0	0	0	0	0	0	0	0	0	0	0	0	0
OTU 71	0	4	0	0	1	0	0	0	5	0	2	0	0	0	0	1	0	0	1	0	1	0	0	0	0	0	1	0	0	0	0	1	2	0	0	0	0	6	0	0	1	5	0	1	0	0	1	0	0	0
OTU 72	4	2	0	1	1	2	5	1	1	0	11	2	0	2	0	0	1	3	1	1	1	1	0	0	0	1	5	3	2	13	0	0	0	0	0	2	3	1	1	0	0	6	6	0	2	6	2	5	0	2
OTU 73	0	2	0	0	1	0	0	0	0	2	1	0	1	0	0	0	1	0	4	0	3	2	25	0	3	0	0	0	2	0	10	3	0	0	2	0	1	7	1	0	2	1	0	3	1	1	1	0	0	2
OTU 74	2	0	1	1	1	0	5	15	0	0	0	0	3	0	3	0	1	3	14	1	1	1	0	5	4	0	0	1	0	3	8	4	0	6	0	1	9	5	0	5	0	6	1	1	0	0	3	2	4	0
OTU 75	2	0	0	1	2	1	0	4	0	0	5	0	0	3	0	0	1	7	7	0	6	1	0	0	10	1	4	1	0	7	3	0	4	1	0	0	1	5	0	1	1	0	1	0	0	3	0	0	1	1
OTU 76	0	3	0	0	0	0	5	1	0	0	0	1	0	0	0	0	0	0	0	1	0	2	0	2	0	0	1	0	0	0	0	0	0	0	0	0	0	0	0	0	0	0	0	12	0	0	0	0	0	0
OTU 77	1	0	1	0	0	2	2	0	3	0	0	0	1	0	0	0	0	0	3	0	2	0	0	0	1	4	3	133	0	0	0	6	0	0	1	0	10	0	1	11	2	5	4	1	0	0	0	2	1	1
OTU 78	0	0	3	0	12	0	1	3	0	86	2	0	4	1	0	0	0	2	0	0	0	0	1	0	7	0	0	2	1	4	0	0	0	1	1	0	3	0	0	0	0	5	1	0	5	0	0	0	0	2
OTU 79	5	42	2	0	6	1	14	31	3	1	15	2	1	3	4	4	4	1	6	1	2	2	8	1	9	0	5	1	1	15	38	6	7	4	6	9	3	1	2	7	0	2	12	8	3	8	7	4	0	7
OTU 80	2	1	2	0	4	0	1	7	1	0	7	0	2	0	10	4	0	0	18	1	0	0	148	0	1	0	18	1	1	4	5	1	0	1	0	3	5	7	0	0	2	1	3	3	4	2	0	1	0	1
OTU 81	4	16	2	0	8	4	0	0	12	2	1	0	0	0	20	1	0	7	8	0	4	0	1	0	0	7	6	9	0	1	10	3	1	5	1	6	2	0	1	1	2	3	0	0	1	1	5	1	0	1
OTU 82	2	0	2	3	0	1	2	3	1	0	1	1	0	2	0	5	0	0	0	5	3	3	0	0	0	5	0	2	1	1	3	0	0	2	1	1	2	2	0	0	0	1	0	2	0	2	2	2	2	0
OTU 83	0	0	1	0	0	0	0	0	8	1	9	0	0	0	0	0	0	0	0	0	0	0	0	0	0	0	2	0	0	0	1	0	0	0	0	0	1	0	0	0	0	0	0	0	0	0	0	0	0	0
OTU 84	1	0	1	0	0	0	2	0	0	1	5	7	0	6	0	0	0	78	0	0	0	8	0	1	0	0	0	1	0	0	1	0	0	1	0	0	0	2	1	0	0	0	1	2	1	0	0	0	0	2
OTU 85	0	0	0	0	0	0	1	3	0	0	20	0	1	0	0	1	0	6	1	0	1	0	0	0	0	0	0	1	0	0	0	0	0	0	0	0	0	0	0	9	1	0	0	16	1	0	0	0	2	0
OTU 86	2	0	0	0	0	1	0	0	0	0	0	0	0	0	0	1	0	0	0	0	0	0	0	0	0	0	0	0	0	0	0	0	0	0	0	0	0	0	0	0	0	0	0	0	0	0	0	0	0	0
OTU 87	1	2	1	0	1	0	0	0	0	0	0	111	0	0	0	0	0	0	3	0	0	0	0	0	0	0	0	0	0	0	10	0	0	0	0	0	0	0	58	0	24	1	1	0	0	0	0	0	0	1
OTU 88	0	0	0	0	0	0	0	0	0	0	0	0	0	0	0	0	0	0	0	0	0	0	0	0	0	0	0	0	0	0	0	1	0	0	0	0	0	0	0	0	0	5	0	0	0	0	0	0	0	0
OTU 89	0	0	0	1	5	0	0	0	0	0	0	0	0	1	0	2	0	0	1	1	0	0	0	0	0	0	0	1	0	2	0	1	0	0	0	6	0	0	0	0	0	0	0	0	4	0	1	0	1	0
OTU 90	0	0	0	0	0	0	0	1	0	0	1	1	0	0	0	0	0	0	0	1	0	0	0	0	0	0	0	0	0	0	0	0	1	0	0	0	0	2	0	0	0	0	0	0	0	0	0	0	0	0
OTU 91	0	0	0	0	0	0	0	0	0	0	0	0	0	0	0	1	0	0	0	0	0	0	0	0	0	0	0	0	0	0	0	107	0	0	57	0	0	0	0	0	0	0	0	0	0	0	0	0	0	0
OTU 92	0	0	0	0	0	0	2	0	0	0	1	0	0	0	0	0	0	0	0	0	0	0	2	0	4	0	2	0	1	0	0	0	2	0	0	0	0	0	1	3	0	0	0	0	0	0	2	0	0	0
OTU 93	0	0	0	0	0	0	0	0	0	0	0	0	0	0	0	0	0	2	0	0	0	0	0	0	0	0	0	0	0	0	2	0	0	0	0	0	0	0	0	0	0	0	0	2	0	0	0	0	0	0
OTU 94	2	0	12	0	1	5	3	0	0	1	0	0	5	0	1	1	2	0	4	3	12	0	35	0	5	6	3	2	1	0	6	1	2	2	0	0	6	3	1	2	5	9	0	4	4	1	7	0	3	2
OTU 95	0	1	0	0	0	0	0	0	0	85	1	0	0	0	1	0	0	0	0	0	0	0	0	0	4	1	0	0	0	0	0	0	0	0	0	0	0	0	0	2	0	0	0	0	0	0	0	0	0	0
OTU 96	0	0	0	0	0	0	1	0	0	2	0	0	0	0	0	0	1	0	0	0	0	0	0	0	0	0	0	0	0	0	0	0	31	0	0	2	0	0	0	0	0	0	0	0	0	0	0	0	0	0
OTU 97	0	0	0	1	0	0	0	0	0	0	4	0	0	0	0	0	0	7	0	1	0	0	1	0	0	0	0	0	3	0	0	0	1	0	0	0	0	0	0	0	0	0	0	0	1	0	0	0	1	0
OTU 98	0	0	0	0	0	0	0	2	4	0	0	0	3	0	1	0	1	0	0	0	0	0	0	0	0	0	1	0	5	0	0	0	2	0	0	0	0	0	0	1	1	0	0	0	10	5	2	0	0	0
OTU 99	10	5	0	2	6	2	7	0	1	1	1	5	1	2	4	3	1	2	1	6	2	0	0	1	0	2	0	6	6	0	3	3	1	1	2	3	1	1	2	0	1	3	0	4	4	3	0	1	4	0
OTU 100	0	5	0	0	1	0	0	0	2	0	2	1	0	1	0	0	0	3	0	0	0	1	0	0	0	0	2	3	0	0	0	0	0	0	1	0	0	1	0	2	0	0	0	0	0	0	0	0	1	0
OTU 101	0	0	0	0	1	0	0	1	0	0	0	0	0	4	0	0	0	0	0	1	0	0	0	0	0	0	0	0	0	0	0	0	0	0	0	0	0	0	0	0	0	0	0	0	0	0	0	0	0	1
OTU 102	1	0	8	0	0	0	0	0	0	1	0	0	0	0	0	1	0	0	0	0	0	2	3	1	0	0	1	0	0	0	0	7	0	0	0	0	0	0	0	0	4	4	0	0	0	3	0	1	1	0
OTU 103	0	15	0	0	0	0	0	3	0	1	0	0	4	1	0	1	2	0	4	0	0	0	0	0	0	0	0	0	0	0	1	1	0	0	1	1	0	1	0	1	0	4	0	0	6	0	0	0	0	0
OTU 104	2	0	96	8	0	0	0	2	3	0	4	2	1	1	3	7	0	12	1	5	1	1	8	4	0	9	3	0	11	1	0	1	0	4	0	2	1	1	1	0	3	3	0	1	9	2	3	0	10	38
OTU 105	0	0	2	0	0	0	0	1	0	0	3	0	0	4	0	0	0	1	1	0	0	1	0	0	0	0	1	0	0	0	92	0	0	0	0	0	0	1	0	0	1	1	0	0	0	0	0	0	0	0
OTU 106	0	0	4	0	0	0	0	0	0	0	4	0	0	2	0	0	0	0	3	1	0	0	3	0	1	0	0	1	2	0	0	0	0	1	0	0	0	0	0	0	0	0	0	10	2	0	0	0	3	3
OTU 107	0	0	0	2	1	0	4	0	0	0	1	0	3	0	0	1	0	0	4	0	0	0	1	0	4	0	0	0	0	1	0	0	52	0	0	1	0	0	0	0	0	0	5	2	0	88	0	21	1	0
OTU 108	0	1	0	0	0	3	3	0	0	0	0	0	4	0	0	4	1	0	0	1	0	0	1	0	0	2	1	1	0	0	0	0	0	1	0	1	0	0	0	2	1	0	0	0	2	0	0	0	0	0
OTU 109	0	0	1	0	0	0	0	0	0	0	0	0	0	0	0	0	0	0	0	0	0	0	2	0	0	0	0	0	0	0	0	0	0	0	0	0	0	0	0	0	0	0	0	0	0	0	0	0	0	0
OTU 110	8	3	0	0	4	2	7	1	0	2	36	2	0	15	19	1	5	0	0	0	1	4	0	10	4	0	3	5	0	4	13	0	13	26	0	0	3	8	5	0	13	1	2	0	0	0	6	0	1	0
OTU 111	0	0	0	0	0	22	0	0	15	0	0	0	0	0	0	0	0	0	0	0	0	0	0	0	0	0	0	0	0	0	0	7	2	0	0	0	0	0	0	0	1	0	0	0	0	0	0	0	0	0
OTU 112	1	0	2	1	0	0	3	0	0	0	0	1	2	1	0	1	0	0	2	0	0	0	1	0	0	0	0	11	0	0	1	1	1	0	0	0	0	0	0	1	0	0	0	0	0	1	0	0	3	0
OTU 113	0	4	0	1	0	0	0	0	0	0	1	0	0	0	0	0	0	0	0	0	0	0	0	0	0	0	0	0	0	0	0	0	0	0	0	0	1	0	0	0	0	0	0	1	0	0	0	0	7	0
OTU 114	6	27	6	0	0	4	3	7	5	2	0	2	0	2	0	23	12	7	0	0	8	4	1	0	2	3	4	6	0	0	0	1	4	0	3	2	1	8	3	3	2	15	0	4	3	4	1	0	0	4
OTU 115	1	2	1	4	2	0	0	1	1	0	3	1	3	5	2	2	3	2	4	0	2	3	2	0	0	1	1	0	3	10	0	1	8	3	2	3	6	4	1	0	1	7	1	7	0	0	1	7	1	6
OTU 116	0	1	3	0	1	0	1	0	19	0	0	2	0	2	0	1	2	0	3	1	14	3	0	1	0	1	0	0	0	3	0	1	0	0	1	0	0	5	1	0	4	0	4	1	0	0	0	0	0	1
OTU 117	0	3	1	0	7	1	0	23	2	0	6	4	0	0	0	0	0	0	2	1	0	0	0	1	0	1	0	0	60	8	2	0	3	1	2	5	1	0	3	1	1	0	0	0	0	5	3	0	2	3
OTU 118	0	0	0	0	0	0	0	0	6	0	0	0	0	0	0	0	0	0	0	0	0	0	0	0	0	0	0	1	0	0	0	0	0	0	0	133	0	0	0	1	0	0	0	1	0	3	0	0	0	0
OTU 119	5	0	3	0	2	1	38	0	0	3	0	0	1	3	2	0	0	7	0	0	1	2	0	0	3	0	0	0	0	1	0	2	1	2	3	0	0	1	0	1	3	3	0	0	0	5	0	0	0	2
OTU 120	0	1	0	0	2	0	2	2	0	0	0	0	1	0	0	0	0	31	2	1	0	0	2	0	0	0	0	0	2	2	0	0	0	0	2	1	0	0	0	0	0	1	0	2	3	2	9	0	3	8
OTU 121	0	0	0	0	0	1	0	0	1	0	0	0	0	1	0	0	1	0	1	0	0	5	0	0	5	0	0	0	0	2	0	0	0	1	1	0	0	4	0	2	7	12	2	0	0	0	1	2	0	12
OTU 122	7	0	7	0	0	1	0	2	2	1	0	0	0	0	0	0	0	2	1	3	0	0	0	0	0	1	1	4	3	1	0	0	2	0	0	1	1	0	0	0	0	0	1	2	0	0	2	1	1	2
OTU 123	3	2	7	2	10	6	31	5	21	3	2	17	9	2	7	4	2	21	9	10	6	167	11	3	2	15	5	7	21	9	9	27	5	5	11	8	3	8	7	22	5	9	1	2	12	12	5	21	8	6
OTU 124	0	0	0	0	0	0	0	3	1	1	0	0	0	0	0	1	0	0	0	0	0	1	0	0	0	0	0	0	0	0	0	0	0	0	0	0	1	2	0	0	0	0	0	0	0	1	0	0	0	0
OTU 125	6	2	11	1	1	10	8	2	22	29	10	0	3	5	0	0	2	2	1	5	0	10	4	2	9	3	2	3	3	45	0	1	10	1	3	21	0	7	1	4	4	9	19	7	11	2	17	1	0	6
OTU 126	0	0	0	0	0	0	0	0	0	0	0	0	0	0	0	0	0	0	0	0	0	0	0	0	0	8	0	0	0	0	0	0	0	0	0	0	1	0	0	0	0	0	0	0	0	0	0	0	0	0
OTU 127	0	1	0	0	0	1	1	0	1	0	1	0	1	1	0	2	0	0	0	0	0	0	0	0	1	2	0	1	0	0	0	0	1	0	0	0	0	1	1	1	0	6	1	3	0	0	1	0	0	0
OTU 128	35	3	37	4	2	30	12	8	5	49	8	6	22	9	7	2	45	4	27	22	16	3	1	3	19	10	39	6	11	5	17	8	2	9	8	9	3	104	2	16	7	13	1	3	51	6	7	12	6	2
OTU 129	0	0	0	0	0	0	0	1	0	0	0	0	0	0	0	0	0	0	0	0	0	0	0	0	0	0	0	0	0	2	0	1	0	0	1	0	0	1	0	0	0	0	0	0	0	0	1	0	0	3
OTU 130	6	5	0	0	0	0	0	0	1	0	2	0	0	0	0	0	1	0	1	0	0	1	0	0	2	11	1	0	0	1	0	0	0	0	1	1	0	0	0	0	0	0	0	2	0	1	0	1	0	0
OTU 131	1	0	0	0	0	0	3	2	0	1	4	0	0	1	0	6	1	28	1	0	0	0	0	0	1	13	2	0	0	1	0	0	7	0	3	0	5	0	0	1	0	7	0	0	0	17	1	41	0	1
OTU 132	0	0	2	0	1	0	2	4	0	0	0	13	0	6	1	0	0	5	2	1	2	5	0	0	0	2	0	3	0	0	1	1	0	2	0	0	3	1	3	0	0	0	0	0	0	0	0	0	1	0
OTU 133	0	0	1	80	0	0	0	0	0	0	0	0	0	0	0	0	0	0	0	0	0	0	0	1	1	0	0	0	0	0	0	0	0	0	0	0	0	0	0	0	0	1	0	0	0	0	0	0	162	0
OTU 134	0	0	1	3	2	0	0	1	0	0	0	0	1	0	1	0	2	1	1	5	2	1	0	0	2	0	7	0	3	6	0	6	0	0	0	0	0	1	1	1	1	1	1	0	2	0	0	0	1	0
OTU 135	4	0	1	2	4	2	6	0	0	0	1	2	1	0	0	2	0	0	1	0	0	3	10	0	0	1	18	0	0	83	0	0	10	1	0	0	1	0	3	0	1	2	51	1	2	1	0	1	1	0
OTU 136	0	0	0	0	4	3	0	0	0	0	2	2	0	0	1	1	0	6	1	0	0	0	1	1	0	3	0	1	0	0	1	0	2	0	0	1	2	0	1	4	2	0	0	0	0	3	0	0	0	4
OTU 137	0	1	0	1	3	0	0	14	0	0	1	6	0	0	2	1	0	1	0	2	0	1	1	0	0	0	0	0	0	0	0	5	0	0	0	1	0	0	4	0	0	0	0	0	2	0	0	1	3	0
OTU 138	0	0	1	0	0	0	0	0	4	1	0	0	0	28	0	1	5	0	0	0	4	13	0	1	3	1	0	0	0	0	0	0	0	0	2	0	1	8	0	0	14	7	0	1	0	0	0	0	0	3
OTU 139	2	0	4	0	0	4	2	0	7	1	0	1	10	6	1	2	2	3	2	5	0	1	1	3	27	21	0	2	2	0	4	0	0	2	21	0	0	1	1	4	4	6	0	0	7	1	1	0	0	4
OTU 140	2	6	0	1	0	3	5	11	9	4	3	1	0	16	0	17	7	6	4	1	1	6	0	0	3	21	27	3	1	8	3	0	2	2	3	3	1	5	1	0	8	0	3	38	5	1	3	3	2	3
OTU 141	0	0	0	0	0	0	0	0	0	1	0	0	0	0	0	0	1	0	0	0	0	0	0	0	3	0	0	0	0	0	0	0	0	0	0	0	0	4	0	0	0	0	0	0	0	0	0	0	0	0
OTU 142	0	0	0	0	0	0	0	0	0	0	0	0	0	0	0	0	0	0	0	0	0	0	0	0	0	0	0	0	0	0	0	0	0	0	0	0	0	0	0	0	0	0	0	1	0	0	0	0	0	0
OTU 143	0	0	0	0	0	0	0	0	1	0	0	0	0	0	0	0	0	0	0	0	0	0	0	0	0	0	1	0	0	0	0	0	0	0	0	0	0	0	0	1	0	0	0	0	0	0	0	0	0	0
OTU 144	0	1	8	0	2	1	0	0	0	0	0	0	0	0	0	0	0	0	8	0	0	0	4	0	2	1	3	0	0	0	1	0	0	0	1	0	0	1	0	4	0	0	0	0	0	0	0	0	0	1
OTU 145	1	1	0	0	5	0	5	4	0	0	0	0	0	3	0	5	0	1	3	1	0	2	3	4	1	6	7	0	1	0	1	1	1	6	0	2	3	1	0	4	1	3	1	5	2	7	0	0	0	2
OTU 146	0	0	0	0	3	0	2	0	3	0	17	0	0	1	0	0	0	2	0	0	0	0	1	0	13	0	5	0	0	1	0	1	1	0	3	3	0	0	1	0	1	0	0	0	1	0	2	1	0	1
OTU 147	0	2	2	0	0	1	2	3	0	1	3	1	1	0	0	0	0	1	0	0	5	0	0	0	0	0	0	0	0	0	0	1	0	0	0	0	0	0	3	0	0	0	0	1	0	0	0	0	0	1
OTU 148	5	2	2	0	0	0	3	0	1	0	3	1	0	0	1	0	0	3	1	0	1	0	2	2	1	0	0	0	3	0	5	4	23	4	5	0	1	0	0	16	0	0	0	2	0	5	7	1	0	0
OTU 149	2	0	0	1	0	1	0	0	1	0	1	0	0	1	0	0	2	0	4	0	0	0	0	2	0	0	0	0	0	4	1	0	0	0	0	0	0	0	0	1	0	2	0	7	0	0	0	0	2	2
OTU 150	1	1	0	0	0	0	0	0	0	0	0	0	0	0	0	0	0	0	0	0	0	0	0	0	0	5	5	3	0	0	0	0	0	0	0	0	0	0	0	1	0	0	0	0	0	0	2	0	0	2
OTU 151	0	0	0	0	2	0	0	0	1	1	1	0	0	1	0	0	0	0	0	0	0	1	0	0	0	2	0	1	1	0	0	0	2	0	1	0	0	1	0	1	1	0	0	0	0	2	0	0	0	0
OTU 152	1	1	0	0	1	0	2	1	1	2	1	14	0	1	0	0	3	4	4	0	5	1	0	2	15	10	1	4	1	1	0	3	2	0	0	0	2	6	8	4	3	0	0	8	3	5	11	0	1	1
OTU 153	0	0	0	0	0	0	0	0	0	0	0	0	0	0	0	0	0	0	0	0	1	0	0	0	0	0	0	0	0	0	0	0	0	0	0	0	0	0	0	1	0	1	0	0	0	1	0	0	0	0
OTU 154	0	0	0	0	0	0	0	0	0	1	0	0	0	0	8	0	0	0	0	1	0	0	0	14	0	0	0	0	0	0	0	0	0	15	0	0	0	1	0	0	0	0	0	0	0	0	1	0	0	2
OTU 155	0	0	0	0	4	0	4	7	2	0	8	0	0	0	1	0	0	1	0	0	0	0	0	0	0	1	0	0	0	0	0	1	0	0	0	5	0	0	0	0	0	0	1	3	0	0	1	1	0	0
OTU 156	8	4	3	0	2	1	0	17	6	0	3	2	2	3	0	0	136	0	0	2	2	1	0	0	3	5	0	0	0	2	1	1	3	0	3	3	1	3	1	15	33	5	2	3	0	4	7	2	0	0
OTU 157	0	0	0	0	0	0	0	0	0	0	0	0	0	0	0	0	0	0	0	0	0	0	0	0	0	5	0	0	0	0	0	0	1	0	0	0	0	0	0	0	0	0	0	0	0	0	0	0	2	0
OTU 158	0	0	0	0	0	0	0	0	0	0	3	0	0	0	0	0	0	0	0	0	0	0	0	0	0	0	0	1	0	3	0	0	0	0	0	0	0	0	0	0	0	0	4	0	0	0	5	0	0	0
OTU 159	0	0	0	0	14	1	0	0	0	0	2	0	1	1	35	0	0	0	0	0	1	2	0	1	0	1	1	0	1	2	0	0	0	1	0	0	31	1	0	1	0	38	1	0	1	0	2	84	0	0
OTU 160	0	4	5	0	2	12	0	1	10	1	5	2	3	0	0	5	0	4	2	8	0	0	1	4	4	13	10	0	3	4	2	0	0	3	0	0	19	2	5	0	1	4	0	4	13	0	17	0	1	2
OTU 161	0	0	0	0	1	0	5	1	8	0	2	0	0	2	1	1	0	3	7	0	0	1	0	0	5	0	2	4	0	0	0	0	0	1	1	0	6	0	1	0	0	4	0	0	0	0	2	0	1	1
OTU 162	10	0	0	3	1	1	3	7	0	1	12	0	1	3	0	1	2	1	2	2	11	1	0	0	3	1	0	5	1	1	0	0	0	0	2	0	0	3	0	0	4	1	1	0	0	1	2	4	1	1
OTU 163	0	0	0	0	0	0	0	0	0	0	0	0	0	0	0	0	0	0	0	0	0	0	0	0	0	0	0	0	0	0	0	0	0	0	0	0	1	0	0	0	0	0	0	0	0	4	0	0	0	0
OTU 164	0	0	0	0	0	3	0	0	0	0	0	0	0	0	0	0	0	0	0	2	0	0	0	0	0	0	0	0	1	0	0	0	0	0	0	0	0	0	0	0	0	0	0	0	0	0	0	0	0	0
OTU 165	3	0	0	4	0	12	0	0	55	0	4	1	3	1	0	0	1	0	0	1	8	0	1	0	0	0	1	0	1	6	0	0	1	1	0	0	0	0	0	0	3	4	2	3	1	0	0	1	4	3
OTU 166	1	0	0	0	1	0	0	2	0	0	0	0	0	0	0	1	0	0	0	0	0	0	0	0	0	0	0	0	0	2	0	0	0	0	0	1	0	0	0	0	0	1	0	2	0	0	0	0	0	0
OTU 167	1	0	0	0	1	0	2	1	0	0	0	0	0	1	0	0	0	1	7	0	0	10	2	0	0	0	0	0	0	0	0	0	0	2	1	2	0	1	0	0	1	0	0	0	0	0	0	1	0	0
OTU 168	0	0	0	0	0	5	0	1	0	0	1	0	1	1	0	2	0	0	0	0	4	0	0	1	0	3	0	0	0	0	1	6	0	0	1	0	1	0	0	0	3	1	0	0	0	0	1	1	0	0
OTU 169	0	0	3	0	0	0	0	0	0	0	0	0	0	0	0	0	0	0	1	0	0	0	0	0	0	0	1	0	0	0	0	0	3	0	0	0	0	0	0	0	0	0	0	2	0	14	0	0	0	0
OTU 170	0	1	4	0	0	0	0	0	0	0	0	0	0	0	0	0	0	0	0	0	0	0	0	0	0	0	0	0	0	0	0	0	0	0	1	0	0	0	0	0	0	0	0	0	0	1	0	0	1	0
OTU 171	6	0	2	1	0	32	1	0	0	1	6	8	4	3	0	11	0	2	2	2	3	0	1	16	0	4	1	0	3	2	7	0	2	4	1	1	0	1	3	3	1	0	0	1	5	4	0	0	2	2
OTU 172	0	0	0	0	0	0	0	0	0	0	0	0	0	0	2	0	0	0	0	0	0	0	0	0	0	0	1	0	0	0	0	0	0	3	0	0	0	0	0	0	0	1	0	0	0	0	0	1	0	0
OTU 173	1	0	0	0	4	1	0	7	0	0	6	0	0	0	0	0	0	0	0	0	0	0	0	0	1	0	0	0	0	20	0	0	0	1	0	3	0	0	0	0	0	0	13	0	0	0	0	2	0	0
OTU 174	0	0	0	0	118	0	1	1	1	2	0	0	1	0	0	0	3	0	3	2	18	0	0	1	1	0	0	0	0	0	2	0	0	0	0	55	1	2	0	1	1	0	0	0	2	0	0	36	0	0
OTU 175	3	0	7	0	0	0	0	0	1	0	3	0	0	0	0	2	0	0	0	0	1	0	1	0	2	2	1	0	0	0	0	0	0	0	0	0	0	0	0	0	0	0	0	3	0	0	0	0	0	0
OTU 176	0	0	0	0	0	3	7	0	3	0	0	3	2	0	2	1	0	4	1	0	4	0	0	0	3	0	6	0	97	0	0	3	0	0	0	0	1	0	1	1	0	3	1	2	0	0	3	0	0	0
OTU 177	0	4	4	0	5	0	1	1	1	0	0	4	0	1	2	2	0	2	0	1	4	0	0	2	6	0	0	0	0	3	2	0	0	1	0	0	0	0	3	1	2	0	0	2	0	2	0	0	0	1
OTU 178	0	0	1	0	5	3	4	10	0	0	0	0	0	0	0	1	0	2	0	0	0	0	0	0	0	0	2	0	0	7	0	0	0	0	0	3	0	0	0	1	1	1	4	0	0	0	5	1	0	0
OTU 179	58	1	0	0	0	0	0	2	0	0	0	0	0	0	0	2	0	0	0	1	0	0	0	0	1	0	0	2	2	0	1	0	0	1	0	0	0	0	0	1	6	0	2	0	1	1	0	0	0	0
OTU 180	2	1	2	104	8	4	0	4	4	2	0	5	82	5	1	3	8	1	1	3	6	7	1	3	3	8	5	27	0	4	0	1	1	2	7	0	4	3	5	10	2	0	3	6	1	6	31	0	37	6
OTU 181	4	0	2	0	5	2	0	6	10	2	0	1	2	2	0	0	2	0	0	0	1	6	0	0	4	1	0	1	0	10	0	1	0	0	0	2	0	3	0	0	3	0	0	0	0	0	3	1	0	1
OTU 182	6	0	0	0	0	0	0	0	0	0	0	0	0	0	0	0	0	0	0	0	0	0	0	0	0	0	1	0	0	0	0	0	0	1	0	0	0	0	0	0	0	0	0	0	0	0	0	0	0	2
OTU 183	4	0	0	1	0	0	0	4	3	23	2	0	0	0	0	24	23	2	2	7	9	0	0	1	0	0	2	1	0	1	1	5	0	1	0	1	0	49	0	0	1	2	0	0	1	0	3	8	1	20
OTU 184	0	0	1	1	0	1	0	0	2	0	1	1	0	0	1	0	0	1	0	0	0	2	1	0	0	0	1	0	0	0	1	1	0	1	0	0	0	0	2	1	0	0	0	0	0	0	6	0	0	0
OTU 185	2	2	0	5	3	1	1	4	0	0	0	0	4	0	0	0	0	2	0	0	7	0	0	2	0	2	0	0	1	0	0	0	3	0	1	2	0	4	1	12	4	2	0	6	4	0	5	0	1	0
OTU 186	1	0	0	0	4	0	0	2	0	0	0	0	0	0	0	5	0	0	0	0	0	0	0	0	0	0	0	0	0	0	0	0	0	0	0	0	0	0	0	0	1	0	0	0	0	0	0	0	0	2
OTU 187	0	0	0	0	1	6	9	6	3	2	6	0	0	2	0	2	4	0	6	0	5	4	1	1	2	1	0	1	0	0	2	0	1	1	0	1	2	9	0	2	5	7	107	1	0	1	2	0	2	0
OTU 188	0	5	2	2	1	22	2	0	1	0	0	1	4	0	5	1	1	0	1	3	0	3	2	2	13	6	0	0	2	0	0	2	0	2	4	1	1	2	0	1	4	9	0	1	1	0	4	4	5	3
OTU 189	1	2	0	1	4	0	1	12	1	8	0	0	7	0	0	0	0	0	0	1	2	1	2	0	4	0	3	3	4	2	1	0	0	1	138	7	2	2	1	3	2	0	2	1	5	2	2	1	0	68
OTU 190	0	0	0	0	0	0	0	0	0	0	0	0	0	0	0	6	0	0	0	0	0	0	0	0	0	0	0	1	0	0	0	0	0	0	0	0	0	0	0	0	0	0	18	0	0	0	0	0	0	0
OTU 191	2	1	0	4	4	5	0	8	3	1	1	0	8	69	0	15	2	1	1	9	4	4	0	0	0	9	1	0	10	2	2	5	0	2	2	0	0	0	2	0	1	0	1	0	15	3	6	1	9	0
OTU 192	0	1	5	0	3	1	0	3	1	1	0	3	0	0	8	6	0	6	0	158	9	0	1	0	1	8	12	0	3	4	1	0	1	3	0	2	6	2	3	19	1	4	1	11	0	0	4	4	1	1
OTU 193	0	2	2	0	2	0	0	8	0	3	0	1	0	0	4	7	5	0	9	0	0	1	0	2	1	2	3	1	0	3	10	0	5	5	0	3	1	2	0	0	0	0	1	0	2	0	2	0	0	10
OTU 194	12	0	0	0	0	0	11	3	0	1	0	0	1	1	0	0	0	0	5	0	2	0	0	0	4	0	0	2	1	0	2	2	0	0	0	0	0	2	0	2	2	0	0	0	0	0	0	0	5	2
OTU 195	1	7	0	0	0	0	0	1	3	0	1	0	0	0	2	1	0	0	6	5	0	0	0	0	3	0	0	0	7	1	5	0	1	0	0	0	0	0	0	1	0	0	0	0	6	1	4	0	1	0
OTU 196	1	1	8	0	2	2	0	0	1	1	0	2	0	0	0	3	0	0	4	0	1	0	4	0	1	0	2	1	0	1	2	1	0	0	0	0	1	1	0	2	6	3	0	0	0	1	2	2	0	0
OTU 197	3	0	6	0	2	5	6	2	3	14	4	1	4	3	0	3	10	9	12	0	4	1	1	1	3	7	6	2	0	1	8	0	3	6	1	0	0	1	1	7	4	10	0	20	3	3	20	0	5	2
OTU 198	0	0	1	0	0	0	0	3	0	0	0	0	0	0	0	0	0	0	0	0	0	1	0	0	5	2	0	2	1	1	4	0	0	0	0	0	0	0	0	0	0	0	1	3	0	0	0	0	0	0
OTU 199	0	0	0	0	0	0	0	0	2	0	0	0	0	1	0	0	0	0	1	0	0	1	0	0	1	0	1	0	0	0	2	0	0	0	2	0	0	0	0	0	2	0	0	1	0	0	5	0	0	0
OTU 200	0	0	4	0	0	6	0	1	0	1	1	2	3	5	0	0	0	1	0	2	0	2	0	0	0	0	0	0	0	3	0	1	0	0	4	0	1	0	1	0	0	2	1	0	0	0	0	0	1	0
