	Host 1	Host 2	Host 3	Host 4	Host 5	Host 6	Host 7	Host 8	Host 9	Host 10	Host 11	Host 12	Host 13	Host 14	Host 15	Host 16	Host 17	Host 18	Host 19	Host 20	Host 21	Host 22	Host 23	Host 24	Host 25	Host 26	Host 27	Host 28	Host 29	Host 30	Host 31	Host 32	Host 33	Host 34	Host 35	Host 36	Host 37	Host 38	Host 39	Host 40	Host 41	Host 42	Host 43	Host 44	Host 45	Host 46	Host 47	Host 48	Host 49	Host 50	
OTU 1	1	5	10	0	3	5	0	3	0	0	2	0	0	6	1	0	1	5	3	3	0	11	1	5	0	0	0	1	1	3	8	4	2	3	0	4	1	0	4	0	0	0	8	2	7	2	1	1	2	4
OTU 2	0	0	0	0	2	0	0	0	0	0	0	1	0	0	0	0	1	2	0	0	0	0	0	0	0	1	2	0	1	4	0	1	1	0	0	0	0	1	0	0	0	0	0	3	0	1	0	0	2	0
OTU 3	0	0	0	39	0	0	0	1	0	0	0	1	0	2	0	0	0	0	0	1	0	0	0	0	0	2	0	0	0	1	1	0	0	0	0	0	0	0	0	1	1	0	0	0	0	0	0	0	0	0
OTU 4	0	0	0	0	0	0	0	0	0	0	0	0	0	0	0	0	0	0	0	0	0	0	0	0	0	0	0	0	0	0	0	0	0	0	0	0	0	0	0	0	0	0	0	0	0	0	0	0	0	0
OTU 5	2	1	10	4	24	5	29	1	1	20	38	12	24	6	0	29	20	3	1	26	0	0	7	7	7	31	3	6	2	3	10	0	118	13	8	15	3	17	3	1	4	5	8	4	0	8	12	71	15	11
OTU 6	0	1	105	0	0	2	0	0	4	0	0	1	0	1	2	2	2	4	1	4	0	0	0	0	11	1	0	0	0	0	1	0	2	0	0	3	1	1	0	0	3	3	0	0	3	0	12	0	0	0
OTU 7	3	2	0	2	2	0	0	6	10	0	2	2	4	1	5	3	0	0	4	1	2	4	2	2	3	8	3	0	1	3	5	4	1	4	0	0	191	4	7	0	10	6	3	6	2	2	1	0	0	0
OTU 8	0	7	0	11	2	0	1	3	6	5	2	2	7	0	3	1	0	1	15	2	0	2	5	6	3	7	0	8	0	0	4	4	31	1	10	0	2	0	0	3	1	1	3	0	1	0	3	0	0	1
OTU 9	0	1	1	2	0	0	0	0	0	0	1	0	0	3	1	0	0	3	0	0	0	0	4	0	3	0	0	2	0	0	1	0	0	1	0	0	0	0	0	0	1	0	0	2	0	1	0	0	1	0
OTU 10	0	1	0	0	0	1	0	1	0	0	3	8	0	0	4	2	0	0	0	0	1	3	0	0	5	0	0	0	0	0	0	0	1	0	0	0	0	1	0	0	0	0	1	0	0	9	4	0	0	1
OTU 11	0	7	0	1	0	1	0	2	14	4	1	2	0	0	0	1	2	2	3	1	3	2	3	0	4	0	5	0	3	2	0	0	0	1	1	0	4	3	0	37	3	3	0	0	3	5	0	0	0	0
OTU 12	9	4	0	2	0	3	19	1	1	0	0	1	0	0	0	2	4	2	0	0	1	4	1	0	0	3	0	2	2	2	1	0	1	6	2	0	5	1	0	1	2	2	1	1	0	0	4	0	0	0
OTU 13	0	0	0	0	0	6	0	0	0	0	2	0	0	0	0	0	0	0	0	0	1	0	0	0	0	2	0	0	0	0	0	0	0	1	0	0	0	1	0	2	1	2	0	0	0	0	0	0	0	0
OTU 14	1	1	0	0	0	1	0	0	0	1	0	2	0	0	0	3	0	1	0	1	1	0	1	0	3	0	0	0	0	0	0	0	0	0	0	1	0	1	0	1	3	0	2	2	0	0	3	0	0	1
OTU 15	0	0	0	0	0	0	0	0	0	0	0	0	0	0	0	0	0	0	0	0	0	0	0	0	0	0	0	0	3	0	0	0	0	0	0	0	0	0	0	0	0	0	0	0	0	0	0	0	0	0
OTU 16	0	0	0	0	0	0	0	0	0	0	0	0	0	0	0	0	0	0	0	0	1	0	0	0	0	0	0	0	0	0	0	0	0	0	1	0	0	0	0	0	0	0	0	0	0	0	0	0	0	0
OTU 17	3	0	0	0	4	1	2	1	1	0	0	0	0	1	0	2	0	5	1	0	0	0	0	0	0	1	0	0	0	0	4	0	0	0	0	0	4	0	0	1	4	6	0	0	0	2	5	0	0	0
OTU 18	3	0	1	0	3	1	0	0	1	0	0	1	4	1	1	3	4	0	3	1	1	2	0	2	1	0	1	0	1	7	1	2	1	1	5	0	2	3	3	1	3	10	2	0	0	1	0	0	1	5
OTU 19	0	0	0	0	0	0	0	1	0	0	0	0	0	0	0	0	0	0	0	0	0	0	0	0	0	0	0	0	0	0	0	0	0	0	0	0	0	0	0	0	0	0	0	0	0	0	0	0	0	0
OTU 20	4	0	0	8	2	0	0	5	0	0	0	0	0	0	1	4	0	1	0	0	0	1	0	3	0	7	0	0	9	0	3	1	0	5	0	13	3	0	1	0	1	6	2	3	0	0	2	2	0	0
OTU 21	1	0	0	2	4	0	3	3	1	0	0	0	2	0	1	0	0	0	5	1	2	0	1	0	1	1	0	0	1	0	0	1	0	0	3	0	0	3	0	1	0	1	3	2	0	0	0	0	0	2
OTU 22	2	5	2	5	1	0	4	0	2	3	4	0	0	0	0	3	0	3	5	0	12	0	0	2	1	0	1	1	34	0	1	4	0	4	2	1	1	5	2	0	9	2	1	0	3	3	1	3	1	0
OTU 23	3	0	1	0	0	0	1	1	0	2	3	0	0	1	0	1	1	1	0	0	0	0	0	1	0	0	2	2	0	2	2	0	1	0	4	0	0	1	0	1	0	2	0	10	0	0	7	2	1	1
OTU 24	0	3	0	1	0	0	1	0	0	0	0	0	4	0	0	0	1	0	0	0	34	0	0	2	1	0	0	0	1	0	7	0	1	0	9	0	0	0	0	1	1	0	0	0	0	0	0	1	0	1
OTU 25	0	0	0	0	0	0	0	0	0	1	0	0	0	0	0	0	0	0	0	0	0	0	0	0	0	0	0	0	0	0	0	0	0	0	0	0	0	0	0	0	0	0	0	0	0	0	0	0	0	0
OTU 26	0	0	0	0	0	0	0	0	0	0	0	0	2	0	0	0	0	0	0	0	0	0	0	0	0	0	0	0	0	0	0	0	0	0	0	0	0	0	0	0	0	0	0	0	0	0	3	0	0	0
OTU 27	0	0	0	0	0	0	0	0	12	0	0	0	0	0	0	0	0	0	0	0	0	0	0	0	0	0	0	0	0	0	0	0	0	0	0	1	0	0	0	0	0	0	0	0	0	0	0	0	0	0
OTU 28	0	0	0	2	2	3	3	0	2	1	6	82	1	2	9	0	3	0	1	2	3	1	3	0	1	7	1	4	1	9	1	5	4	0	0	63	0	2	1	1	4	0	8	1	2	0	2	6	1	3
OTU 29	1	3	4	0	2	0	0	0	2	1	4	0	2	6	0	0	0	0	0	4	5	3	2	2	0	0	4	2	2	13	2	1	1	2	0	4	1	9	1	0	3	1	6	0	1	1	3	2	5	0
OTU 30	0	0	0	0	0	0	0	0	0	0	0	0	0	0	0	0	0	0	0	0	0	0	0	0	0	0	0	0	0	0	0	0	0	0	0	0	0	0	0	0	0	0	0	0	0	0	0	0	0	0
OTU 31	3	2	0	1	2	1	2	0	0	0	0	0	1	0	0	1	0	1	0	0	7	0	1	0	3	0	2	0	2	0	0	0	0	0	1	0	0	0	1	0	1	0	0	0	0	1	0	0	0	1
OTU 32	3	1	0	4	1	2	1	2	3	12	0	1	2	2	4	1	8	2	4	0	2	1	0	3	0	0	3	1	14	6	10	0	1	3	1	2	2	0	1	2	2	2	1	4	1	3	0	1	4	1
OTU 33	4	0	0	0	0	0	0	0	0	0	0	0	0	0	0	0	0	0	0	0	0	0	0	0	0	0	0	0	0	0	0	0	0	0	0	0	0	0	0	0	0	0	0	0	0	0	0	0	0	0
OTU 34	0	0	0	4	7	1	6	2	1	0	0	1	0	0	1	0	1	3	0	3	0	1	3	2	2	0	0	0	2	1	0	0	0	0	4	2	0	0	0	9	0	0	4	0	0	1	0	0	0	2
OTU 35	0	25	95	1	0	0	0	0	0	0	0	0	0	0	1	1	0	0	2	0	72	1	2	1	0	0	1	3	0	1	0	0	0	8	0	0	0	0	3	4	0	0	0	1	0	0	4	0	146	0
OTU 36	1	1	0	49	2	0	1	4	0	114	0	0	0	1	0	0	1	0	0	3	5	2	0	4	6	4	1	2	0	2	0	2	0	0	0	1	0	0	0	3	4	0	0	3	0	0	1	0	1	0
OTU 37	0	0	2	0	0	0	4	0	0	0	0	0	0	1	0	0	0	0	0	0	0	0	0	0	0	2	0	0	1	0	0	0	0	0	0	0	0	4	0	2	0	0	0	0	0	2	0	0	0	0
OTU 38	11	0	0	0	2	0	0	3	1	1	0	0	0	0	0	31	0	3	3	1	1	0	0	0	1	1	6	0	10	2	3	0	0	4	1	0	0	0	2	1	4	0	1	27	0	3	1	0	3	3
OTU 39	0	0	0	0	0	0	0	0	0	0	0	0	0	0	0	0	0	0	2	0	0	2	6	0	0	0	0	1	0	0	3	0	0	0	0	0	0	0	0	0	0	3	4	0	0	0	0	0	0	0
OTU 40	4	1	0	4	3	5	7	1	1	1	0	0	0	0	0	2	0	1	1	0	1	0	0	0	0	1	0	3	2	0	1	0	0	0	107	0	0	15	0	7	4	0	3	0	2	1	0	0	0	4
OTU 41	0	4	0	1	0	1	0	1	0	0	0	3	0	2	0	3	0	0	0	0	0	0	0	0	0	0	0	5	4	1	0	0	0	1	0	0	1	11	1	0	0	0	0	0	1	0	2	0	2	0
OTU 42	0	0	0	0	4	0	0	0	0	0	1	0	2	0	0	0	0	8	0	0	4	1	1	0	1	0	1	0	4	0	0	0	0	0	0	0	1	0	0	0	0	0	0	0	0	0	0	0	0	0
OTU 43	0	0	0	0	0	0	0	0	0	0	0	0	66	0	0	0	0	0	0	0	0	0	0	0	0	0	0	0	0	0	0	0	0	0	0	0	0	0	0	0	0	0	0	0	0	0	1	0	0	0
OTU 44	0	0	0	0	0	1	0	0	0	0	0	0	0	0	1	0	0	0	0	0	1	0	0	0	0	0	0	0	1	0	0	2	0	0	0	0	0	1	0	0	0	0	0	1	0	0	0	0	0	0
OTU 45	4	2	42	1	0	1	0	2	3	0	8	0	0	97	5	0	0	0	0	0	4	1	7	1	0	1	1	0	0	0	0	1	0	2	2	5	0	0	0	2	0	0	5	3	0	4	0	1	0	3
OTU 46	4	4	2	6	0	3	2	1	4	6	3	2	3	0	1	0	1	7	1	0	0	1	0	7	9	0	1	5	0	0	4	1	0	1	1	1	1	1	0	1	5	3	1	0	97	4	17	2	3	0
OTU 47	0	0	0	0	0	0	0	0	0	2	2	0	0	2	0	0	0	0	0	0	0	0	0	0	0	0	4	0	2	8	0	0	0	0	0	0	1	0	3	0	0	1	0	0	0	0	0	2	4	0
OTU 48	0	4	0	3	1	34	2	5	0	0	1	6	0	3	3	3	1	3	0	0	1	4	2	0	0	0	1	0	3	1	0	1	0	31	1	0	0	0	0	0	2	1	0	29	0	4	5	0	0	1
OTU 49	0	1	2	3	0	1	0	0	0	3	0	0	0	2	6	0	2	0	0	0	0	2	2	0	0	0	0	0	0	0	3	5	1	0	1	0	0	1	139	4	4	0	0	0	0	0	0	2	0	2
OTU 50	11	1	0	2	1	4	0	2	2	3	1	0	5	1	0	3	1	2	0	1	4	0	8	1	0	3	1	0	0	2	0	1	0	0	0	3	1	2	0	0	1	6	4	5	0	1	0	0	0	7
OTU 51	0	6	0	1	3	3	0	1	1	0	1	0	0	0	3	1	0	4	0	0	2	0	0	3	1	1	0	0	1	1	6	0	0	14	0	0	2	1	0	0	4	3	0	0	2	0	0	0	1	1
OTU 52	1	4	0	6	7	2	0	11	2	1	5	0	0	0	5	3	3	0	2	7	0	8	4	126	8	2	0	8	12	0	0	6	0	1	1	0	1	0	0	5	0	1	0	4	0	1	5	85	1	1
OTU 53	0	0	0	0	0	0	0	0	0	0	0	0	0	1	0	0	0	0	0	0	0	0	3	0	0	0	0	0	0	1	0	0	0	0	0	0	0	0	0	0	0	0	0	0	0	0	0	0	0	0
OTU 54	1	1	1	3	0	120	1	3	2	1	6	0	2	5	12	2	45	0	2	6	2	7	2	2	2	3	0	2	1	1	0	6	29	0	0	1	4	3	0	1	6	2	2	1	1	0	4	2	1	1
OTU 55	0	0	0	0	0	0	0	0	0	0	0	0	0	0	0	0	0	0	0	0	0	0	0	0	0	0	0	0	0	0	0	0	0	0	0	0	0	0	0	0	0	0	0	0	0	0	0	0	0	0
OTU 56	0	1	0	2	9	1	106	0	0	0	0	0	2	0	1	53	0	0	0	0	0	1	0	0	0	4	2	2	0	0	0	0	1	0	0	0	0	3	1	0	0	0	0	33	0	0	0	0	1	3
OTU 57	12	2	0	1	1	2	1	2	0	2	2	3	0	2	0	1	1	1	20	2	8	1	5	1	1	14	3	2	6	3	8	1	2	0	11	4	0	2	0	15	7	7	7	2	7	46	3	1	1	4
OTU 58	1	0	0	0	0	0	1	2	0	1	0	0	1	0	0	0	2	0	0	0	3	0	28	0	0	0	0	0	0	2	3	0	0	0	2	5	1	0	2	5	2	0	5	0	0	1	0	0	1	0
OTU 59	0	1	0	0	4	0	0	0	0	0	0	0	0	0	0	1	0	1	1	1	0	0	1	0	10	0	0	0	0	0	0	0	0	0	0	0	0	1	1	0	0	0	2	2	0	0	0	0	0	0
OTU 60	2	1	0	5	5	0	0	9	7	0	14	5	3	1	5	0	0	0	2	0	3	1	3	0	10	2	0	1	6	1	0	18	2	4	0	0	0	2	1	7	3	2	0	1	3	1	2	7	0	4
OTU 61	1	2	3	1	0	4	1	16	1	3	2	1	2	2	1	1	0	6	2	10	4	4	1	2	6	2	0	0	11	1	3	1	0	2	0	2	1	4	1	9	3	0	3	5	4	3	0	0	1	0
OTU 62	0	3	0	0	0	6	2	0	0	1	0	8	0	0	0	0	1	1	0	1	0	0	0	0	0	4	1	0	0	2	0	2	2	0	0	0	1	1	0	0	0	6	0	0	1	2	3	0	1	0
OTU 63	1	0	0	0	0	0	0	0	2	2	1	22	0	0	1	0	0	2	1	0	0	0	1	6	1	4	0	1	0	3	0	2	0	0	0	1	0	0	0	0	0	0	2	0	0	0	0	3	0	0
OTU 64	18	3	5	6	8	4	4	2	4	3	0	28	2	14	4	2	8	10	32	0	12	14	0	22	0	3	0	12	7	6	4	0	6	14	3	11	0	5	5	0	3	1	10	10	29	4	3	0	1	1
OTU 65	0	0	0	0	0	0	0	0	0	0	0	0	0	0	0	0	2	0	0	0	0	0	0	0	0	0	0	0	0	0	0	0	0	0	0	0	0	0	0	0	0	0	0	0	0	0	0	0	0	0
OTU 66	1	6	0	7	5	0	0	2	7	2	0	0	1	0	0	0	0	0	1	0	4	0	1	0	1	0	12	0	4	21	4	4	0	8	0	0	0	0	20	0	5	2	0	0	1	0	5	1	14	94
OTU 67	1	1	0	7	1	1	0	0	2	0	0	1	3	0	0	0	0	0	3	0	3	1	5	0	0	0	0	2	1	8	0	0	0	0	4	2	0	1	2	0	2	0	2	6	0	0	1	0	0	0
OTU 68	0	0	0	0	0	0	0	1	0	0	0	0	4	0	0	0	0	0	3	0	0	0	0	4	33	0	0	1	0	0	1	0	0	0	0	0	2	0	0	0	0	0	0	1	4	0	0	2	0	1
OTU 69	0	4	1	0	0	49	0	2	1	2	2	9	5	4	4	0	6	1	11	1	0	5	0	5	0	1	1	1	0	6	0	5	0	0	33	0	30	2	0	15	2	59	6	1	0	0	1	0	0	7
OTU 70	0	7	0	0	0	0	3	0	0	0	0	0	1	1	2	0	0	0	3	30	2	6	5	0	0	0	2	4	0	0	0	0	0	0	0	3	0	0	0	0	3	0	2	0	4	0	0	0	0	0
OTU 71	2	1	0	0	0	0	1	0	0	0	0	0	0	1	0	0	2	1	0	0	0	0	2	1	0	0	0	10	9	0	1	0	4	0	3	0	0	0	0	0	0	3	2	1	0	0	0	0	0	1
OTU 72	2	0	2	0	3	0	7	9	2	5	5	1	0	3	5	0	1	1	1	4	0	4	0	0	0	0	0	2	4	0	0	0	2	0	1	0	1	0	0	0	1	1	1	0	2	0	1	1	1	0
OTU 73	2	0	1	0	2	0	0	2	0	1	5	2	0	3	1	7	0	0	6	0	0	0	0	3	0	0	1	0	0	1	1	5	0	3	0	2	2	2	1	0	0	1	1	0	1	0	0	2	0	2
OTU 74	2	0	0	0	0	5	2	13	1	1	2	0	0	0	0	2	0	3	14	4	4	0	0	3	0	2	1	3	0	0	0	0	0	1	2	0	1	7	0	8	12	5	1	0	0	3	2	8	0	0
OTU 75	0	2	0	1	2	0	0	1	0	0	0	2	1	1	0	0	0	1	2	0	8	3	9	1	2	4	0	0	8	0	5	0	1	0	5	0	1	1	1	0	5	2	2	5	0	1	0	0	1	1
OTU 76	0	0	0	0	2	0	0	0	0	0	0	3	0	0	1	9	1	4	0	2	0	1	0	0	0	1	1	1	0	1	0	0	2	1	0	0	0	0	2	0	0	0	0	4	0	1	0	0	1	2
OTU 77	1	1	0	0	0	5	0	0	0	2	2	0	0	1	8	0	2	1	0	1	3	0	6	0	0	1	2	2	0	0	4	4	0	0	3	0	0	4	3	6	0	4	2	1	0	2	4	0	0	0
OTU 78	1	1	0	0	0	0	3	6	1	7	1	0	0	4	0	0	2	1	0	2	0	0	6	0	2	0	0	3	0	0	0	1	0	2	0	0	0	3	0	0	0	0	0	0	1	0	2	36	1	0
OTU 79	0	6	1	5	11	10	25	43	7	6	20	57	53	0	1	4	3	7	0	27	11	3	6	2	2	3	13	1	9	18	0	4	4	6	0	1	10	48	28	1	3	11	2	0	4	7	21	18	11	4
OTU 80	0	5	0	0	4	1	0	8	0	0	2	2	2	3	2	1	0	0	12	2	0	2	0	1	2	1	0	40	0	1	0	0	0	0	1	1	0	16	1	1	6	0	0	2	0	1	0	2	0	0
OTU 81	3	4	1	0	4	1	0	2	1	0	1	2	2	2	12	2	1	0	15	0	4	3	1	0	0	7	0	15	13	0	4	0	3	1	2	2	0	4	3	3	4	0	0	4	1	1	0	0	0	2
OTU 82	0	2	1	0	0	0	2	2	0	0	0	0	0	1	1	0	0	0	3	1	0	0	0	0	0	7	3	0	4	1	0	1	1	0	0	1	0	1	4	0	3	0	9	0	3	0	1	0	0	3
OTU 83	0	0	0	0	2	0	0	0	6	0	4	1	0	1	0	1	0	0	0	0	0	3	0	0	0	0	1	0	0	0	0	3	0	0	0	0	1	0	0	0	0	1	0	0	1	0	0	3	0	1
OTU 84	1	0	0	0	0	0	0	0	0	0	2	3	0	0	0	2	3	139	0	0	1	0	3	1	0	0	0	0	0	0	0	1	0	1	3	1	0	0	1	0	0	0	8	0	0	0	2	0	0	3
OTU 85	1	0	0	0	0	0	1	0	0	0	43	0	0	0	0	0	0	0	3	0	0	0	0	0	0	2	2	0	1	0	0	0	44	0	0	0	0	0	1	8	0	0	0	5	0	0	0	23	2	0
OTU 86	0	0	0	0	0	0	0	0	0	1	0	1	0	0	0	0	0	0	0	0	0	0	0	0	0	0	0	0	0	0	0	0	0	0	1	0	0	0	0	0	0	0	0	0	0	0	0	0	0	0
OTU 87	0	0	0	0	0	0	0	0	2	0	0	0	1	0	0	0	0	0	4	0	0	0	0	0	0	0	0	0	0	0	0	0	0	0	0	0	0	0	0	0	0	0	0	0	0	0	0	0	0	0
OTU 88	0	0	0	0	0	0	0	0	0	0	0	0	0	0	0	0	0	0	0	0	0	0	0	3	0	2	0	0	2	0	0	0	0	0	0	0	0	3	0	0	0	0	0	0	0	0	0	0	0	0
OTU 89	0	0	0	1	0	0	0	0	0	0	0	0	0	0	0	0	0	0	3	0	0	0	1	0	2	0	0	0	0	0	2	0	1	0	0	0	0	0	0	0	0	0	0	0	0	0	0	0	0	1
OTU 90	0	0	0	2	0	0	0	0	0	2	3	0	0	0	0	1	0	0	1	0	0	0	0	1	0	0	0	0	0	0	0	0	0	0	0	1	0	0	0	0	0	0	0	0	0	3	0	0	1	0
OTU 91	0	0	0	0	0	0	0	0	0	0	0	0	0	0	0	0	0	0	0	0	0	0	0	0	3	1	0	10	1	0	0	0	0	0	0	0	0	0	0	0	1	0	0	0	0	0	0	0	0	0
OTU 92	0	3	0	0	0	1	0	1	0	0	0	0	0	0	0	0	0	3	0	0	0	0	0	0	4	0	0	0	0	0	0	0	0	1	0	0	0	0	0	0	0	1	0	0	0	1	4	0	0	0
OTU 93	0	0	0	0	0	0	0	0	0	0	0	0	2	1	0	0	0	0	0	0	0	2	0	0	0	0	0	0	0	0	1	1	0	0	0	0	0	0	0	0	0	0	0	0	2	0	1	0	18	0
OTU 94	0	6	3	0	7	0	4	0	0	0	0	0	1	5	5	1	0	3	16	0	1	5	1	7	10	0	10	4	2	9	2	0	0	2	0	1	3	0	0	9	3	3	3	2	22	1	13	0	2	7
OTU 95	0	0	0	1	0	0	0	0	0	0	5	1	8	0	0	0	1	2	0	0	0	0	0	0	5	0	0	2	0	0	0	0	0	0	0	0	0	1	0	1	0	0	0	0	0	0	0	3	1	0
OTU 96	0	0	0	0	0	0	0	0	0	1	0	0	0	0	1	0	1	0	0	0	0	0	0	1	0	0	0	0	0	0	0	1	0	0	0	0	0	0	0	0	0	0	0	0	0	0	0	0	0	0
OTU 97	0	2	0	0	0	0	0	0	0	0	0	0	0	0	0	0	0	0	0	0	0	0	0	0	0	2	0	0	0	1	0	1	0	0	0	0	0	2	1	0	0	0	0	0	0	0	0	0	0	1
OTU 98	0	0	2	0	1	0	0	0	0	1	1	0	0	2	0	0	0	1	0	0	0	2	7	0	0	0	0	0	1	0	0	0	0	0	5	0	0	0	0	3	0	0	0	1	0	0	0	0	0	1
OTU 99	3	1	0	0	0	1	2	2	1	1	0	0	1	0	1	0	2	0	3	3	1	2	1	7	0	2	4	1	4	4	2	2	1	0	1	3	0	11	2	1	8	0	2	3	0	3	1	1	0	4
OTU 100	2	1	0	0	1	2	0	0	4	0	0	0	0	0	0	0	0	0	0	0	3	1	7	0	0	3	0	6	3	3	1	0	1	3	2	4	3	0	0	2	3	0	4	1	0	0	0	0	0	0
OTU 101	0	0	0	0	0	0	0	0	0	1	0	0	0	0	0	0	0	3	0	0	0	0	0	0	0	0	0	0	0	0	0	0	0	1	0	0	0	0	0	0	0	0	0	0	0	0	0	0	0	0
OTU 102	0	3	0	1	0	0	0	0	0	0	0	3	0	0	0	0	0	0	0	0	0	0	0	0	0	0	176	0	0	1	0	1	0	2	0	0	2	0	0	0	0	3	0	1	1	2	0	0	0	1
OTU 103	2	3	0	0	0	0	0	3	0	1	0	1	2	2	4	1	2	4	4	0	2	4	3	1	0	0	1	1	0	0	0	1	0	58	0	1	2	0	0	6	0	4	1	1	0	3	0	0	0	0
OTU 104	3	5	0	0	3	0	0	0	2	2	1	1	7	0	5	0	1	12	4	0	3	5	0	5	1	2	1	6	1	7	4	3	2	1	0	0	0	0	4	1	0	0	3	0	3	4	2	4	0	9
OTU 105	0	2	0	0	0	0	1	0	1	0	0	0	0	0	0	0	0	0	0	0	0	0	0	1	0	0	0	0	0	0	0	0	0	1	0	1	1	3	0	1	2	1	2	0	0	0	0	0	0	0
OTU 106	2	0	0	0	0	0	0	0	0	0	2	0	0	0	0	9	0	0	0	0	0	1	0	1	0	0	0	0	0	0	0	0	0	0	0	0	0	0	0	0	0	0	0	8	0	0	0	1	0	0
OTU 107	0	0	0	0	0	0	0	0	0	0	0	0	0	0	0	0	0	2	4	0	0	0	0	0	4	0	0	0	0	0	2	0	0	0	0	0	0	0	1	0	0	1	0	0	1	154	0	0	0	3
OTU 108	0	0	0	0	1	0	0	2	0	1	0	0	1	0	0	5	0	0	0	0	0	0	0	4	2	1	0	4	1	0	0	4	0	2	2	0	1	0	0	1	0	2	0	1	9	1	0	0	0	1
OTU 109	0	0	0	0	0	0	0	0	0	0	0	0	0	0	0	0	0	0	0	0	0	0	0	0	0	0	0	0	0	0	0	0	0	0	0	0	0	0	0	0	0	0	0	0	0	0	0	0	0	0
OTU 110	10	0	26	1	0	1	9	2	0	0	69	0	20	47	0	0	1	0	3	2	0	2	0	0	2	1	0	2	2	1	1	3	0	1	4	17	1	18	0	0	0	1	43	0	0	0	10	42	0	5
OTU 111	0	0	0	0	1	0	0	0	2	0	0	0	0	0	0	0	42	0	0	0	0	0	0	0	0	0	1	2	0	1	0	0	20	0	0	0	0	0	1	1	0	0	0	0	0	0	0	0	0	0
OTU 112	3	5	0	0	0	1	3	0	4	0	0	2	1	0	0	0	0	0	3	0	7	0	0	0	0	1	0	0	0	0	0	2	0	0	0	0	0	0	0	5	4	0	0	0	0	0	2	0	0	2
OTU 113	0	16	0	0	0	0	0	0	0	0	0	0	0	0	0	4	0	0	0	0	0	0	0	0	0	0	0	0	0	0	0	0	0	0	0	0	0	0	0	0	5	0	0	0	0	0	0	0	0	0
OTU 114	3	4	2	4	0	2	4	12	7	15	4	3	10	3	14	1	5	6	0	12	0	11	6	3	0	1	15	0	8	32	13	3	0	12	2	3	10	0	24	3	5	16	8	1	1	6	0	2	20	15
OTU 115	1	2	1	7	78	3	1	6	4	1	1	7	3	1	2	0	0	0	4	0	0	1	2	2	4	0	1	0	0	1	1	1	2	3	0	29	0	1	5	0	1	2	0	9	2	0	5	2	1	0
OTU 116	4	0	0	0	0	0	4	1	41	5	1	0	0	0	0	0	1	0	1	1	23	0	0	1	0	5	0	0	3	0	1	0	0	4	2	1	0	1	0	5	2	0	1	1	0	1	0	0	0	0
OTU 117	2	8	3	0	0	0	0	21	3	2	9	4	0	8	0	4	1	0	1	6	0	3	0	0	2	3	1	1	5	7	2	1	0	4	1	1	0	1	5	2	1	0	3	0	0	1	6	0	1	2
OTU 118	0	1	0	0	0	0	0	0	0	0	0	0	0	0	1	1	0	2	0	0	0	0	0	0	0	3	0	0	1	0	0	8	0	2	0	0	0	1	0	1	1	0	0	0	0	0	0	1	0	6
OTU 119	7	0	0	6	4	1	27	0	0	0	0	1	2	1	0	4	1	5	0	0	0	0	0	0	2	12	1	17	1	0	3	0	0	0	1	6	2	54	0	0	3	2	8	3	1	0	1	0	0	1
OTU 120	0	0	0	0	0	0	0	5	0	0	0	0	0	0	0	0	0	5	0	4	0	0	1	0	2	0	0	0	0	0	0	1	0	3	1	0	1	1	0	0	1	0	0	4	0	4	3	0	0	0
OTU 121	0	3	0	0	0	0	2	0	2	4	0	0	1	0	0	0	0	1	0	1	0	0	0	1	0	1	2	0	4	6	0	1	0	0	1	0	0	1	2	14	1	3	2	1	1	0	0	0	3	0
OTU 122	5	0	0	6	1	0	0	2	0	7	2	2	0	1	1	7	0	0	2	2	0	0	1	0	0	2	0	2	2	0	6	5	1	1	0	0	0	2	0	0	0	1	0	2	0	0	1	0	0	0
OTU 123	12	1	1	6	3	1	12	5	14	15	3	12	13	14	4	4	6	10	13	87	5	15	26	29	8	19	13	2	13	24	8	3	4	5	3	1	5	5	12	5	8	6	3	4	7	5	4	0	14	0
OTU 124	0	0	0	0	2	0	0	6	0	1	0	0	0	1	0	4	0	0	0	2	0	0	0	0	0	0	3	0	0	0	0	0	1	0	1	0	3	0	3	0	0	0	0	0	1	7	0	0	0	1
OTU 125	4	1	1	9	16	6	8	0	22	5	5	13	7	0	6	38	19	7	5	57	1	12	6	11	16	12	3	15	3	5	3	3	15	4	2	7	0	12	3	9	11	0	9	11	0	6	18	6	2	0
OTU 126	0	0	0	0	0	0	0	0	0	0	0	0	0	0	0	0	0	0	0	0	0	0	0	0	0	0	0	0	0	0	0	0	0	0	1	0	0	0	0	1	1	0	0	0	0	1	0	0	0	0
OTU 127	1	0	0	1	0	1	2	1	1	4	0	0	2	0	2	0	0	4	0	0	7	0	0	0	4	1	5	4	2	1	1	0	2	1	1	0	2	0	9	0	0	2	0	0	0	0	5	0	1	0
OTU 128	33	8	33	17	4	9	8	4	1	3	1	2	7	50	2	2	70	5	19	2	4	110	2	16	6	8	1	3	13	0	3	1	32	5	34	2	9	3	2	4	14	16	8	6	58	3	5	0	1	9
OTU 129	0	0	0	1	1	0	0	0	0	0	0	0	0	0	0	0	3	0	1	0	0	0	0	1	0	1	1	0	1	2	0	0	0	0	0	0	0	0	0	0	1	0	0	0	0	0	0	0	0	0
OTU 130	4	3	2	0	0	1	0	2	4	0	0	0	0	1	1	4	6	0	0	0	0	1	0	0	0	2	0	0	0	0	2	0	0	65	1	0	0	0	0	0	0	0	0	1	0	0	2	0	0	1
OTU 131	1	1	0	2	1	3	0	11	1	14	11	0	0	0	6	0	0	29	0	4	0	0	1	1	0	1	0	1	2	0	27	17	0	17	3	0	13	0	2	2	0	20	0	0	0	10	0	3	0	11
OTU 132	3	1	0	0	0	0	0	0	1	1	0	0	0	0	0	0	0	0	0	0	1	0	4	0	1	0	0	2	3	0	2	0	0	0	0	1	0	1	0	0	0	0	0	0	0	0	2	0	0	0
OTU 133	0	2	0	0	0	1	0	0	0	0	6	0	0	0	0	0	0	0	0	0	0	0	0	0	2	0	0	3	0	0	2	0	0	0	0	0	0	2	0	0	1	0	1	0	0	0	0	3	0	0
OTU 134	1	3	1	0	6	0	1	4	0	1	0	0	1	2	1	0	0	3	0	0	5	3	0	0	0	1	0	0	0	1	0	1	0	0	1	1	0	0	1	3	2	0	1	1	9	1	0	0	0	0
OTU 135	3	0	0	1	0	0	0	2	0	1	0	1	0	0	0	0	1	1	1	1	0	1	3	2	0	5	0	0	2	0	4	0	1	3	4	0	0	0	0	1	0	3	0	3	0	0	2	0	0	0
OTU 136	1	0	0	0	1	0	0	0	1	0	0	0	2	0	1	2	1	1	0	0	1	0	0	2	1	3	1	23	0	1	0	1	0	0	0	0	0	0	0	3	0	1	0	2	0	2	0	0	1	0
OTU 137	0	0	0	1	0	0	0	6	0	0	0	0	0	1	0	2	0	0	0	0	0	0	66	3	5	0	0	0	0	0	1	0	0	0	0	0	1	0	0	0	0	0	0	0	0	0	0	0	0	0
OTU 138	0	0	0	0	0	4	0	0	0	0	0	20	0	0	0	0	0	0	0	0	0	0	0	0	2	0	0	1	6	1	1	1	0	1	0	37	1	0	1	0	1	2	67	0	0	0	0	0	2	0
OTU 139	2	19	0	4	2	2	1	2	1	3	2	3	7	1	3	0	0	4	4	3	0	1	1	3	55	34	3	6	2	9	97	0	0	0	2	1	1	0	4	3	3	0	0	1	0	2	13	0	2	7
OTU 140	5	4	0	0	7	1	6	5	5	13	0	2	14	1	1	8	0	2	8	2	12	7	16	2	3	6	9	4	9	4	2	131	1	5	6	0	0	4	4	0	6	1	1	61	4	0	4	0	4	3
OTU 141	0	4	0	0	0	0	0	0	0	0	0	0	0	0	0	0	0	0	0	0	0	0	0	0	3	0	0	0	0	0	0	0	0	0	0	0	0	0	0	0	0	0	2	0	0	0	0	0	0	0
OTU 142	0	0	0	0	0	0	0	0	0	0	0	0	0	0	0	0	0	0	0	0	0	0	0	2	0	0	0	0	0	0	0	20	0	0	0	0	0	0	0	0	0	0	0	0	0	0	0	0	0	3
OTU 143	1	0	1	0	0	0	0	0	2	0	0	0	0	0	2	0	0	0	1	0	0	0	0	0	0	0	0	2	0	0	0	0	0	0	0	0	0	0	3	0	0	0	0	0	0	0	0	0	2	0
OTU 144	0	0	0	0	0	0	0	0	0	0	0	0	1	0	0	0	0	0	9	0	0	2	0	0	5	2	1	3	0	0	1	0	0	0	0	0	0	0	3	1	0	0	0	0	0	1	0	2	1	0
OTU 145	1	8	0	51	0	0	1	5	1	8	0	1	2	1	0	6	2	0	0	1	2	3	3	3	1	7	0	29	1	2	1	0	0	1	1	0	2	0	0	0	3	3	0	0	1	3	0	1	0	21
OTU 146	0	1	0	0	1	0	0	0	0	4	22	0	18	1	32	0	0	0	1	0	0	0	1	2	2	3	0	1	0	1	1	28	0	2	2	0	0	1	0	5	3	1	0	0	0	0	0	11	0	30
OTU 147	1	3	0	0	0	0	1	0	0	0	12	0	1	1	0	2	1	2	1	0	0	0	0	1	0	0	0	3	0	0	1	1	0	0	0	2	0	0	0	3	0	1	1	2	0	1	1	0	0	0
OTU 148	1	1	0	0	5	0	0	0	2	4	3	1	1	0	8	0	0	0	6	0	0	3	3	2	0	0	0	4	3	0	1	10	0	0	0	0	0	0	0	22	6	2	0	5	4	5	7	3	1	3
OTU 149	8	0	1	0	0	0	0	0	0	0	3	3	1	0	0	0	0	0	2	1	6	0	18	1	1	0	1	0	1	3	0	0	2	0	0	0	0	0	0	0	0	0	2	0	0	0	1	0	0	1
OTU 150	0	0	0	0	1	1	0	0	0	0	0	0	1	0	0	0	0	0	0	0	0	0	2	0	0	2	0	0	1	0	0	0	0	2	2	0	0	0	0	1	3	2	0	0	0	0	2	0	0	0
OTU 151	1	0	0	3	0	0	1	0	0	0	0	0	1	0	0	1	0	0	2	0	0	0	1	0	0	0	0	0	0	1	3	0	0	1	0	0	0	0	1	1	0	2	0	0	0	1	1	0	0	2
OTU 152	3	3	0	2	3	0	1	1	9	1	2	0	3	0	2	0	0	3	6	1	1	0	1	0	37	5	0	4	1	2	1	0	0	2	2	3	2	1	0	1	4	4	15	12	1	1	7	1	1	2
OTU 153	0	2	0	0	0	0	0	0	0	0	0	0	0	0	0	0	0	0	0	0	0	0	0	0	0	0	0	0	0	0	0	0	0	3	0	0	1	4	0	0	0	0	0	0	0	1	1	0	0	0
OTU 154	0	0	0	0	0	0	0	0	0	0	0	0	0	0	0	0	0	0	0	0	0	0	0	0	0	1	0	0	0	0	0	0	0	0	0	0	0	0	0	0	3	0	0	0	0	0	1	0	0	0
OTU 155	0	0	0	1	0	0	0	12	2	0	0	0	0	0	0	0	0	0	1	1	0	0	0	0	0	0	0	2	0	4	3	0	0	0	1	0	0	0	0	0	3	0	3	0	3	0	0	0	0	0
OTU 156	3	76	0	2	0	3	0	4	0	2	2	2	3	0	0	2	1	1	0	2	2	1	5	0	3	2	1	2	2	1	2	1	1	0	6	0	3	4	0	4	6	7	0	0	2	5	1	0	0	1
OTU 157	1	0	0	0	0	1	0	0	0	0	1	0	0	0	0	0	0	0	0	0	0	0	0	2	0	2	0	0	0	0	0	0	0	0	0	0	0	1	1	0	0	0	0	0	0	0	1	0	0	0
OTU 158	0	0	0	0	0	0	0	0	1	0	0	0	0	0	0	0	0	0	0	0	0	0	0	0	0	0	0	0	2	0	0	0	0	0	0	0	0	0	0	0	0	0	0	0	0	0	3	0	0	0
OTU 159	2	0	0	2	1	23	0	0	0	0	2	0	4	0	0	2	2	1	1	0	0	0	0	0	1	0	0	0	2	0	0	1	0	0	0	1	22	0	0	0	0	67	4	0	2	0	1	0	0	0
OTU 160	2	4	2	17	0	4	1	1	2	2	2	2	3	10	1	6	6	0	1	1	6	11	0	0	0	13	3	2	2	1	0	5	6	1	0	0	13	0	1	3	3	6	0	3	3	3	14	1	0	2
OTU 161	2	0	2	1	10	4	0	0	1	0	0	5	0	14	1	0	2	3	5	1	0	1	4	3	3	0	1	0	11	0	0	0	0	0	0	0	0	4	0	0	3	0	1	0	0	0	1	1	0	2
OTU 162	2	0	0	1	0	0	4	4	0	1	1	0	0	3	1	0	0	1	0	3	2	0	0	0	1	1	0	0	7	0	0	0	0	0	0	0	0	0	2	1	1	0	8	2	6	1	9	1	0	2
OTU 163	0	0	0	0	0	0	0	0	0	0	0	0	2	0	0	0	0	0	0	0	0	0	0	0	0	0	0	0	0	0	0	0	0	0	0	0	0	0	0	0	0	0	0	0	0	0	0	0	0	0
OTU 164	0	0	0	0	0	0	0	0	0	1	0	0	0	0	0	0	0	0	0	0	0	0	0	1	0	0	0	0	0	0	0	0	0	0	0	0	0	0	0	0	0	0	0	0	0	0	0	0	0	0
OTU 165	0	3	0	0	2	0	0	2	77	0	3	0	3	4	1	1	0	0	1	0	2	4	0	0	0	0	0	1	0	0	1	0	0	0	0	0	0	0	0	1	0	0	0	0	0	1	0	2	0	3
OTU 166	3	0	0	0	0	0	0	3	0	0	0	0	0	0	0	0	0	0	0	2	0	0	0	0	0	0	2	0	0	2	0	0	0	0	0	0	0	0	1	0	0	0	0	0	0	0	0	0	0	0
OTU 167	0	0	0	3	0	0	1	1	0	0	0	0	1	0	140	1	1	0	0	0	0	0	1	0	0	0	0	0	0	0	0	1	3	0	0	85	0	0	0	1	0	0	0	1	0	0	0	0	0	0
OTU 168	0	0	2	2	0	1	0	6	1	0	1	0	0	0	0	1	5	0	4	4	1	1	0	0	3	7	0	0	0	0	2	2	2	0	1	0	0	0	0	0	2	0	0	1	2	1	3	0	1	2
OTU 169	0	1	0	1	0	0	0	0	0	0	0	0	0	0	0	1	0	0	5	0	0	0	0	1	0	0	0	0	0	0	0	0	0	0	0	0	0	0	0	0	0	0	0	0	0	0	0	0	0	0
OTU 170	0	0	0	0	0	0	0	0	0	0	0	0	0	0	0	0	0	0	0	0	0	0	0	0	0	0	0	1	0	0	1	0	0	1	0	0	0	0	0	0	0	0	0	0	0	0	1	0	0	0
OTU 171	0	0	0	0	0	1	0	2	0	0	4	0	0	0	0	0	0	0	4	2	0	1	5	7	2	3	3	0	1	6	0	0	0	0	1	1	1	2	0	0	3	4	1	0	0	2	7	0	2	5
OTU 172	2	0	0	0	0	0	0	0	0	0	0	0	0	0	0	0	0	0	0	0	0	0	1	2	1	0	0	0	2	0	0	0	0	0	0	0	0	0	0	0	0	0	0	0	0	0	4	0	0	0
OTU 173	0	0	0	0	1	0	0	10	0	0	0	0	0	1	1	3	1	0	0	3	0	0	0	0	0	0	1	0	0	4	1	0	0	0	0	0	0	0	1	0	1	0	0	0	0	0	0	1	4	0
OTU 174	2	0	0	0	2	0	1	0	1	0	0	1	0	0	0	1	1	1	0	0	16	1	1	0	0	0	1	5	0	3	4	0	0	0	1	0	0	0	0	4	0	0	1	0	1	1	2	0	28	1
OTU 175	4	2	0	1	0	0	0	1	0	0	1	0	1	0	0	0	0	0	0	1	2	2	0	0	0	0	7	0	1	4	0	11	0	0	0	0	0	0	4	0	0	1	0	0	0	0	0	1	2	0
OTU 176	5	0	5	0	9	4	1	0	2	9	0	0	1	2	2	0	4	0	11	1	3	11	0	6	2	0	0	2	0	5	12	0	2	0	2	0	1	1	9	0	3	2	0	0	7	1	2	1	0	0
OTU 177	0	2	0	0	0	1	0	2	1	2	0	0	0	1	1	1	1	0	1	0	6	0	0	0	5	0	0	5	1	0	29	1	0	0	0	0	0	0	0	1	1	1	0	0	1	0	3	0	1	5
OTU 178	6	0	1	1	0	0	10	18	0	0	1	0	0	0	0	0	0	0	0	4	0	0	2	0	0	2	2	0	0	4	0	2	1	0	0	2	0	0	0	5	2	0	1	0	0	0	0	0	2	0
OTU 179	58	0	0	1	21	0	0	0	2	0	1	1	1	1	3	4	0	1	0	0	6	0	0	1	3	0	0	0	2	0	0	0	0	0	1	0	0	9	1	0	0	0	0	0	2	0	0	0	0	0
OTU 180	6	1	4	7	3	2	6	2	3	1	2	1	3	2	6	10	0	2	2	3	9	2	4	0	2	7	0	2	13	2	9	4	0	0	1	1	0	1	0	8	20	3	3	8	2	0	15	1	2	0
OTU 181	3	2	0	1	2	0	4	2	1	0	0	5	0	0	2	2	0	2	0	0	1	0	1	0	2	0	1	0	0	0	0	0	0	2	3	5	0	16	0	1	46	0	3	0	0	1	0	0	0	2
OTU 182	0	0	0	0	0	0	0	0	1	0	0	0	0	0	0	0	0	0	0	0	0	0	0	1	0	0	0	0	0	0	0	0	0	0	0	0	0	0	0	0	0	0	0	0	0	0	0	0	0	0
OTU 183	0	4	0	0	2	0	0	0	8	0	0	2	3	0	0	1	1	7	0	0	5	4	0	0	0	0	15	0	3	42	1	0	0	1	0	0	1	0	16	0	4	1	0	1	0	1	2	0	16	0
OTU 184	6	4	1	0	0	3	0	0	0	0	0	0	5	1	0	5	1	3	1	0	1	0	0	3	0	0	0	0	0	2	0	0	0	1	0	3	0	0	0	0	0	0	0	3	0	0	4	9	0	6
OTU 185	3	0	0	4	0	0	1	4	2	0	1	0	2	0	1	2	0	1	3	6	3	0	0	0	0	2	2	2	4	0	0	0	0	0	0	1	3	5	2	5	4	3	1	0	0	1	6	0	1	1
OTU 186	0	0	0	0	0	0	1	2	0	2	1	0	0	0	1	0	0	0	3	2	0	1	0	2	0	0	0	0	1	4	0	0	0	2	0	0	0	4	0	0	0	0	0	1	0	0	4	0	0	2
OTU 187	0	6	2	0	4	2	1	3	4	3	2	4	0	2	1	7	4	0	9	3	3	5	0	2	1	6	0	21	1	0	0	7	1	2	1	6	1	0	0	1	1	0	15	4	0	1	1	3	0	8
OTU 188	0	2	2	3	1	5	0	0	16	3	0	1	2	0	4	0	46	1	3	0	0	1	10	1	3	2	2	4	1	7	2	0	25	2	0	6	2	0	2	1	0	8	6	0	0	0	0	0	2	0
OTU 189	4	1	0	7	2	1	5	5	3	15	0	1	3	4	0	0	7	0	4	10	3	7	3	0	4	0	1	3	0	0	1	1	2	1	0	2	1	5	2	0	9	2	2	0	6	0	10	0	4	2
OTU 190	0	0	0	1	0	0	0	0	0	0	0	0	0	0	0	0	0	0	0	0	0	0	1	0	0	0	0	0	0	0	0	0	0	0	0	1	0	0	1	0	3	0	0	0	0	0	0	0	1	0
OTU 191	3	1	0	0	0	0	1	1	0	0	2	0	0	1	2	0	1	0	0	0	0	0	4	2	0	4	1	6	0	6	1	1	0	0	47	3	0	1	1	7	9	0	7	0	27	0	5	0	2	1
OTU 192	3	3	1	0	0	1	3	4	0	1	1	9	1	4	0	2	9	2	1	0	1	18	1	2	5	27	0	2	10	3	6	0	0	0	0	1	0	2	2	36	2	2	3	2	3	1	3	1	1	3
OTU 193	3	0	3	0	0	0	0	4	0	0	0	0	2	2	0	7	2	0	5	1	0	2	0	9	0	2	12	1	22	16	1	0	0	3	0	0	0	1	8	2	0	0	0	12	3	2	1	1	11	2
OTU 194	8	0	0	0	1	0	12	0	5	3	0	0	1	1	4	0	0	0	0	0	0	0	1	0	0	0	1	0	1	1	0	0	0	0	0	1	0	8	0	0	0	2	5	0	0	0	1	0	0	0
OTU 195	0	0	5	2	1	0	0	0	0	3	0	0	0	5	0	3	0	4	0	0	0	8	0	0	4	0	0	1	1	0	0	2	0	5	1	0	0	1	0	8	0	0	0	0	0	2	1	1	0	5
OTU 196	1	0	0	4	1	0	0	0	2	0	0	0	1	1	0	1	0	0	0	1	0	1	16	0	0	0	1	4	2	0	0	0	0	0	0	2	0	0	2	1	0	5	6	1	0	0	2	0	3	0
OTU 197	3	3	0	8	39	1	1	3	8	3	0	4	1	4	0	2	1	3	6	1	0	1	1	1	1	11	0	4	0	0	1	0	1	3	2	0	2	1	1	17	1	3	0	11	4	7	12	0	6	2
OTU 198	0	0	0	0	0	0	0	3	0	6	0	0	0	1	0	31	0	0	3	0	0	0	0	0	0	1	0	0	0	1	0	0	0	8	0	0	0	0	0	0	5	0	0	5	0	0	2	0	0	0
OTU 199	0	1	0	0	0	0	0	0	0	0	0	0	2	0	1	0	0	0	0	0	0	0	1	1	9	0	0	0	0	0	0	1	0	0	5	0	1	0	0	1	0	0	0	0	0	1	0	0	0	0
OTU 200	0	3	0	0	1	4	0	1	0	0	0	0	0	0	3	0	0	0	0	0	0	4	0	0	3	2	0	1	0	1	0	0	0	0	0	0	0	2	0	0	2	0	0	0	6	1	0	0	0	0
