	Host 1	Host 2	Host 3	Host 4	Host 5	Host 6	Host 7	Host 8	Host 9	Host 10	Host 11	Host 12	Host 13	Host 14	Host 15	Host 16	Host 17	Host 18	Host 19	Host 20	Host 21	Host 22	Host 23	Host 24	Host 25	Host 26	Host 27	Host 28	Host 29	Host 30	Host 31	Host 32	Host 33	Host 34	Host 35	Host 36	Host 37	Host 38	Host 39	Host 40	Host 41	Host 42	Host 43	Host 44	Host 45	Host 46	Host 47	Host 48	Host 49	Host 50	
OTU 1	0	4	1	7	10	1	9	2	2	5	3	20	0	0	4	1	8	4	14	12	0	8	18	4	2	6	4	5	9	0	8	10	9	0	0	1	0	16	5	8	11	8	1	0	3	0	1	5	2	1
OTU 2	0	3	0	1	2	0	0	0	3	1	0	0	0	2	1	0	0	0	0	0	0	0	0	0	0	0	0	0	3	0	1	0	3	0	0	0	0	0	0	2	0	1	0	0	0	0	0	0	0	0
OTU 3	1	0	0	0	1	0	0	0	1	0	0	0	0	0	0	0	0	0	0	0	0	1	0	0	0	0	0	0	1	0	0	0	0	0	0	1	0	0	0	0	0	0	0	0	1	4	0	0	0	0
OTU 4	0	0	0	0	0	0	0	0	0	0	0	0	0	0	0	0	0	0	0	0	0	0	0	0	1	0	0	0	0	0	0	0	0	0	0	0	0	0	0	0	0	0	0	0	0	0	0	0	0	0
OTU 5	16	6	23	2	10	0	12	3	38	6	5	7	19	10	42	2	47	2	28	13	1	21	9	0	3	30	38	4	7	78	7	6	1	13	0	23	14	0	6	1	5	6	11	18	11	1	45	25	9	42
OTU 6	0	0	1	3	2	1	0	1	0	0	0	0	1	0	3	0	0	0	0	1	0	0	1	1	0	0	0	0	1	0	5	4	0	0	1	3	2	0	0	1	0	0	0	1	2	1	3	0	0	0
OTU 7	1	3	1	2	3	4	1	0	9	11	8	0	2	1	0	1	0	1	13	0	7	2	2	1	2	5	3	1	17	2	6	1	1	1	1	1	13	6	1	27	4	2	7	20	5	2	0	12	0	0
OTU 8	0	5	0	0	0	0	3	3	5	2	3	3	0	4	6	3	1	1	1	2	4	2	4	1	2	2	0	0	0	0	1	5	0	3	0	0	0	3	2	0	2	1	0	2	6	3	2	1	2	0
OTU 9	3	1	0	0	0	0	0	1	0	0	0	1	0	0	0	3	0	0	0	0	0	0	0	0	0	1	0	0	0	0	1	2	0	0	1	0	1	5	0	0	0	5	1	0	0	3	0	0	0	0
OTU 10	0	0	0	0	0	0	0	0	5	6	15	0	0	0	0	0	0	0	11	0	0	0	0	0	0	1	0	0	0	4	6	0	0	0	0	0	1	0	0	22	0	0	1	5	0	0	0	7	72	0
OTU 11	0	0	4	3	0	2	0	1	0	0	0	0	3	0	4	0	2	0	1	3	0	0	1	0	0	0	0	0	0	0	2	0	1	0	1	0	0	6	0	2	3	1	0	0	1	1	1	3	1	1
OTU 12	0	1	2	3	0	1	1	0	4	0	0	1	0	7	0	1	1	0	2	1	0	1	0	0	1	2	0	0	0	1	0	0	1	0	0	0	0	4	1	2	2	1	0	5	0	1	0	1	8	0
OTU 13	0	0	0	0	0	0	0	0	0	1	1	0	0	0	0	1	0	0	0	0	0	0	0	0	0	0	0	0	0	1	0	0	0	0	0	0	0	0	1	0	0	0	0	0	0	0	0	0	0	0
OTU 14	0	2	2	0	0	0	0	0	0	1	1	0	1	0	1	0	0	0	0	0	1	0	0	1	0	0	0	0	0	1	2	0	0	0	2	0	1	2	0	0	0	0	0	4	0	0	0	0	1	1
OTU 15	0	0	0	1	1	0	0	0	0	0	0	0	0	0	0	0	0	0	0	0	1	0	0	0	0	0	0	0	2	0	0	0	0	0	0	0	0	0	0	0	0	0	0	1	0	0	0	0	0	0
OTU 16	0	0	0	0	0	0	0	0	0	0	0	0	0	0	0	0	0	0	0	0	0	0	0	0	0	0	0	0	0	0	0	0	0	0	6	0	0	0	0	0	0	0	0	0	0	0	0	0	0	0
OTU 17	0	0	0	0	0	0	0	0	0	0	2	0	13	0	0	0	1	1	4	0	0	4	0	12	0	0	0	0	0	0	0	1	0	1	0	0	0	0	0	0	3	0	0	0	1	0	0	0	1	0
OTU 18	0	1	0	0	0	4	0	0	0	0	0	0	4	0	0	3	1	1	1	1	0	4	3	0	0	0	0	3	1	13	3	5	0	0	0	0	0	5	8	2	1	3	0	1	0	6	0	0	1	0
OTU 19	0	0	0	0	0	0	0	0	0	0	0	0	0	0	0	0	0	0	0	0	0	0	0	0	0	0	0	0	0	0	0	0	0	0	0	0	0	0	0	0	0	0	0	0	0	0	0	0	0	0
OTU 20	0	1	0	0	2	0	0	0	1	1	1	0	1	0	0	0	0	2	0	2	0	0	0	0	0	2	2	2	0	0	1	6	0	3	1	0	1	0	0	0	0	1	3	0	0	0	0	3	0	1
OTU 21	0	1	1	3	0	5	0	0	5	0	2	0	3	0	1	1	3	1	1	0	0	0	0	0	0	2	1	3	0	0	0	0	3	2	1	0	6	0	0	1	3	0	1	0	0	0	0	1	0	0
OTU 22	2	0	0	0	3	0	0	0	3	0	0	1	7	0	0	0	1	0	0	2	0	2	0	0	1	1	0	1	2	0	0	0	0	140	0	0	1	5	1	1	0	0	0	5	1	5	2	0	1	0
OTU 23	0	0	4	4	0	1	0	1	0	3	0	2	0	0	0	1	0	1	2	0	1	1	0	2	2	0	0	0	1	0	0	0	0	0	2	0	0	0	0	0	0	2	0	0	0	4	1	0	0	1
OTU 24	0	2	0	1	1	4	0	0	0	0	0	0	1	1	0	2	0	0	2	1	0	3	0	2	2	0	0	1	0	1	1	1	0	7	0	1	0	0	0	0	1	1	0	0	0	0	0	0	1	0
OTU 25	0	0	0	0	0	1	0	0	0	0	0	0	0	0	0	0	1	0	0	0	0	0	0	0	0	0	0	0	0	0	0	0	0	0	0	0	0	0	0	0	0	0	0	0	0	0	0	0	0	0
OTU 26	0	0	0	0	0	1	0	0	0	0	0	0	0	0	0	0	2	0	0	0	2	1	0	0	0	0	0	0	0	0	2	4	0	0	1	0	0	6	0	0	0	0	0	0	1	0	0	0	0	0
OTU 27	0	0	0	0	0	0	0	0	0	0	0	0	0	0	0	0	0	0	0	0	0	0	0	0	0	0	0	0	0	0	0	0	0	0	0	0	0	0	0	0	0	0	0	0	0	0	0	0	0	0
OTU 28	0	0	0	2	0	0	3	0	1	0	1	5	0	6	1	0	5	0	2	0	4	0	5	6	141	1	0	4	3	0	2	4	2	1	3	0	0	1	1	0	0	0	0	0	1	0	0	1	2	0
OTU 29	2	2	1	4	0	3	0	0	0	1	0	0	0	1	1	0	3	1	0	0	8	0	0	0	0	3	1	0	1	1	1	0	3	1	4	0	1	1	0	0	0	0	3	13	0	9	1	0	0	3
OTU 30	0	0	0	0	0	0	0	0	0	0	0	0	0	0	0	0	0	0	0	0	0	0	0	0	0	0	0	0	0	0	0	0	0	0	0	0	0	0	0	0	0	0	0	0	0	0	0	0	0	0
OTU 31	10	0	0	0	33	0	0	0	10	20	21	0	0	1	0	0	1	1	20	1	0	0	0	0	0	0	0	0	103	0	16	57	0	2	0	25	30	40	0	24	1	0	13	1	0	0	1	21	0	0
OTU 32	0	1	1	0	1	10	3	2	0	1	1	2	0	0	1	0	1	2	1	9	1	2	0	1	0	0	128	0	1	4	0	2	2	0	6	0	7	1	4	4	4	0	4	3	4	6	5	1	1	1
OTU 33	0	0	0	0	0	0	0	0	0	0	0	0	0	0	0	0	0	0	0	0	0	0	0	0	0	0	0	0	0	0	0	0	1	0	0	0	0	0	0	0	0	0	0	0	0	0	0	0	0	0
OTU 34	71	0	3	1	0	0	0	0	0	0	0	0	2	0	0	1	0	0	0	1	3	0	1	2	0	5	3	4	0	0	0	8	0	0	0	0	4	2	0	1	0	1	1	1	0	4	0	1	0	1
OTU 35	0	0	0	0	0	2	1	1	0	7	3	0	0	0	6	1	0	0	0	0	0	5	0	5	1	1	0	1	0	0	1	0	1	8	0	0	0	7	1	0	0	0	0	2	0	4	0	2	0	2
OTU 36	0	1	0	155	0	0	1	0	1	0	1	2	0	0	2	1	0	1	1	1	0	0	1	1	0	0	0	0	2	4	0	0	0	1	0	1	0	0	0	4	2	3	0	0	1	0	0	1	2	0
OTU 37	0	0	0	0	0	0	0	3	0	0	0	0	0	0	0	0	0	0	0	0	0	0	0	0	0	0	0	2	0	0	0	0	0	0	0	0	0	0	0	0	0	0	0	0	0	0	0	0	0	0
OTU 38	3	29	0	15	2	2	8	5	4	9	1	40	2	3	3	131	16	9	4	20	0	11	24	44	9	19	3	18	15	1	1	23	21	3	2	1	0	11	10	3	16	8	0	0	12	2	9	7	10	3
OTU 39	0	0	0	0	0	0	1	0	1	0	1	0	0	5	0	0	1	0	0	0	1	0	0	0	0	0	0	0	0	0	0	0	0	0	0	0	0	1	0	0	0	1	0	0	1	0	0	0	0	0
OTU 40	1	0	0	0	61	3	3	0	0	0	3	0	0	4	0	0	0	1	1	1	2	0	2	0	4	0	0	1	0	0	4	0	1	0	1	21	0	0	1	7	0	0	0	33	0	4	0	0	2	0
OTU 41	1	0	0	0	0	1	0	1	3	0	0	0	0	0	0	2	0	57	0	2	0	0	0	0	0	0	0	0	1	0	0	0	0	1	0	0	0	0	1	0	1	2	0	0	0	0	0	1	2	3
OTU 42	0	0	1	0	0	0	1	1	0	0	1	7	0	0	0	0	5	0	0	0	0	0	0	0	0	0	0	1	0	0	0	0	0	0	0	0	5	0	0	0	0	132	2	0	2	0	0	0	1	0
OTU 43	0	0	1	0	0	0	0	0	0	0	0	0	0	0	0	0	0	0	0	0	0	0	0	0	0	0	0	0	0	0	0	0	0	0	0	0	0	0	0	0	0	0	0	0	0	0	0	0	0	0
OTU 44	9	0	0	0	0	0	0	0	0	8	0	0	0	0	0	0	0	0	0	0	0	0	0	0	0	0	0	0	0	0	0	0	60	0	0	0	0	0	0	1	0	0	0	0	0	3	0	3	1	0
OTU 45	1	1	3	0	0	196	0	0	0	0	1	1	1	2	2	0	1	0	2	0	2	1	2	1	3	0	0	1	0	6	0	1	1	0	9	0	0	3	0	1	0	0	0	2	0	1	0	0	1	0
OTU 46	3	8	0	0	0	0	0	0	0	1	1	0	1	10	0	15	0	1	0	0	1	0	0	0	10	1	0	0	2	6	0	1	0	0	0	14	0	5	0	0	5	9	1	0	0	0	0	0	0	1
OTU 47	0	0	0	0	0	0	0	0	0	0	0	0	0	0	0	0	0	0	0	1	0	0	0	0	0	0	0	0	0	0	0	0	2	0	1	0	0	0	0	2	90	0	0	0	0	0	0	1	0	0
OTU 48	0	0	0	0	2	1	2	0	0	0	0	1	2	0	14	2	3	0	0	0	7	5	0	0	1	0	0	0	6	0	2	1	0	6	2	3	2	0	2	2	0	1	0	20	18	2	1	0	0	1
OTU 49	0	4	0	0	0	0	0	0	0	0	0	0	0	0	0	5	0	1	0	0	0	0	0	3	0	3	0	0	0	2	0	0	0	0	1	0	0	3	0	3	1	0	0	1	0	0	0	0	2	2
OTU 50	1	1	0	1	4	1	1	67	0	1	1	1	9	2	0	0	1	1	2	3	1	1	3	0	3	1	0	108	2	3	1	0	1	5	0	3	0	3	0	3	0	89	0	0	0	7	0	0	2	0
OTU 51	0	0	0	0	0	0	0	0	15	1	2	0	0	0	0	0	2	1	0	0	1	2	0	2	0	0	0	0	1	0	1	1	0	0	0	0	0	0	0	2	0	0	0	0	2	0	15	1	0	0
OTU 52	0	3	4	0	3	5	1	1	2	0	0	0	0	5	0	2	4	0	6	5	6	2	7	0	2	0	1	0	7	5	1	2	1	5	4	2	2	0	1	2	0	4	3	0	0	1	0	1	1	0
OTU 53	0	0	0	0	0	0	0	0	0	0	0	0	0	0	0	0	0	0	0	0	0	0	0	0	0	0	0	0	0	0	0	0	0	0	0	0	0	0	0	0	0	0	0	0	0	0	0	0	0	0
OTU 54	2	4	3	22	0	0	0	2	4	0	14	72	0	18	10	0	37	2	0	1	2	29	1	0	16	9	3	0	1	1	3	51	0	1	2	0	3	2	0	1	2	0	11	0	14	1	11	3	0	3
OTU 55	0	0	0	0	0	0	0	0	0	0	0	0	0	0	0	0	0	0	0	0	0	0	0	0	0	0	0	0	0	0	0	0	0	1	0	0	0	0	0	0	0	0	0	0	0	0	0	0	0	0
OTU 56	5	0	12	0	0	0	0	0	0	0	0	0	1	1	1	0	0	0	0	0	0	2	1	0	0	0	0	0	0	0	0	0	0	1	2	0	3	2	0	0	0	0	0	0	0	0	2	0	1	0
OTU 57	89	2	0	5	0	6	0	1	8	2	2	4	1	26	1	0	0	0	0	1	1	58	1	1	11	0	2	0	1	0	136	6	2	15	8	0	10	0	0	1	6	1	53	4	39	36	0	0	0	0
OTU 58	0	0	0	0	0	0	0	1	0	0	2	0	0	0	0	0	0	0	0	0	0	0	0	0	0	3	4	2	1	0	0	5	1	0	1	0	0	1	0	0	0	2	0	0	0	2	2	0	1	0
OTU 59	0	2	0	0	0	0	21	5	0	1	0	0	0	2	0	0	0	18	0	27	0	0	8	16	0	40	13	12	9	0	0	1	14	0	0	2	1	5	7	4	34	2	0	4	0	1	0	1	8	9
OTU 60	3	0	0	1	0	4	0	3	0	0	0	0	5	1	1	0	0	3	1	0	0	2	1	2	4	8	4	2	1	8	3	1	0	0	0	0	2	1	0	1	3	2	0	0	0	0	2	97	3	0
OTU 61	0	1	7	0	0	8	1	2	0	2	4	1	1	1	2	1	2	4	5	5	0	0	1	4	0	2	1	2	2	0	1	2	0	2	4	0	0	4	0	2	1	2	0	1	1	1	1	0	1	1
OTU 62	0	0	0	0	0	0	0	1	0	0	0	3	0	0	0	0	0	0	1	0	0	0	0	1	0	0	0	0	1	0	1	1	0	0	0	0	0	0	0	3	0	0	0	0	0	0	0	1	0	1
OTU 63	0	1	2	0	0	0	1	0	0	0	1	0	0	0	0	0	1	3	0	0	0	5	1	4	0	0	0	2	0	0	0	0	5	7	2	0	0	1	0	0	0	0	0	1	0	0	0	0	2	5
OTU 64	0	6	2	7	0	1	0	1	0	6	7	2	3	1	8	2	0	1	0	1	1	5	0	1	0	3	0	0	0	1	4	2	0	0	1	2	0	0	1	0	2	1	0	2	1	0	2	1	0	1
OTU 65	0	0	0	0	0	0	0	0	0	0	0	0	0	0	0	0	0	1	0	0	0	0	0	0	0	0	0	0	0	0	0	0	0	0	0	0	0	0	0	0	0	0	0	0	0	0	0	0	0	0
OTU 66	4	1	1	2	0	0	0	2	0	0	1	4	0	4	0	0	0	0	2	3	1	0	0	1	0	1	1	0	0	0	1	0	0	2	2	0	0	4	0	1	0	0	0	0	0	0	0	0	0	0
OTU 67	0	0	0	1	2	7	0	3	1	1	1	0	1	16	6	0	1	4	0	0	2	0	0	9	5	0	0	1	0	3	0	1	0	0	0	0	0	1	0	2	0	0	0	1	0	0	0	0	3	0
OTU 68	0	0	0	0	2	0	0	0	0	0	2	0	0	0	0	2	0	9	0	0	0	0	0	0	0	0	0	0	3	0	2	0	0	0	0	1	2	0	0	2	0	0	7	0	0	0	0	0	0	2
OTU 69	3	1	0	8	0	1	0	0	0	0	1	1	0	0	0	0	0	0	3	1	0	1	0	0	0	1	0	0	0	0	0	3	1	0	1	0	2	2	1	0	0	0	0	3	0	0	0	0	4	0
OTU 70	0	0	0	0	0	0	2	0	2	0	0	1	0	3	0	0	0	0	1	0	0	0	0	1	0	2	0	0	0	0	0	0	0	1	0	0	0	0	1	1	1	2	0	0	0	0	0	1	0	0
OTU 71	0	0	0	0	0	0	0	1	0	0	0	2	4	0	0	0	0	3	0	5	2	0	4	12	0	0	0	5	0	0	2	2	5	0	0	0	0	0	1	0	0	2	0	0	0	0	1	0	4	4
OTU 72	2	0	0	1	2	0	0	0	1	0	0	1	0	0	0	0	1	1	0	1	0	0	0	2	2	3	1	0	0	0	3	0	1	1	1	0	0	0	0	0	0	0	1	4	0	0	0	1	1	0
OTU 73	0	3	4	0	0	0	0	0	0	0	1	1	0	0	0	0	0	2	0	0	2	0	2	1	0	1	2	0	0	4	0	0	0	2	6	0	1	0	0	0	0	0	0	4	0	0	0	5	0	0
OTU 74	1	4	0	0	5	0	1	0	0	1	1	0	1	0	0	50	0	3	0	0	0	0	0	2	1	1	1	0	0	0	1	0	2	1	1	1	4	1	1	0	3	0	3	0	0	0	0	0	0	0
OTU 75	3	0	0	2	0	3	0	0	2	2	0	0	0	1	0	0	0	0	0	0	0	0	2	3	0	0	0	0	0	1	2	23	0	0	3	0	3	0	0	3	0	0	5	0	3	1	0	1	4	0
OTU 76	1	0	0	0	0	0	0	0	0	0	0	0	0	0	0	0	0	0	18	0	0	0	0	0	0	1	3	0	0	0	0	1	2	0	4	0	0	0	0	0	0	0	0	0	0	0	0	3	0	0
OTU 77	0	1	0	0	0	0	3	1	0	0	0	2	0	1	1	0	2	6	0	0	1	3	5	5	3	0	0	1	0	0	0	0	0	2	0	0	1	0	0	0	0	0	0	6	0	1	1	0	0	2
OTU 78	2	0	3	1	0	4	1	3	2	0	0	1	124	0	0	0	1	2	0	0	0	0	0	0	0	0	0	0	1	0	4	2	0	1	7	0	0	0	1	4	0	2	0	1	0	3	0	0	0	1
OTU 79	2	5	1	1	3	7	0	1	4	0	1	2	44	2	0	1	0	1	1	3	2	5	1	6	4	1	2	5	8	0	2	1	0	3	14	3	1	0	0	2	1	1	1	3	4	3	3	2	3	0
OTU 80	0	4	0	2	3	0	0	1	0	0	0	1	4	1	0	0	1	4	0	20	3	0	0	4	0	2	9	0	2	1	1	0	1	6	1	1	5	0	1	3	0	0	2	8	0	0	0	0	2	1
OTU 81	0	2	0	3	1	0	0	1	0	4	0	13	3	97	0	4	5	0	1	0	4	6	1	2	48	5	0	4	4	2	3	3	3	2	2	0	3	2	0	0	0	0	3	2	4	0	0	1	0	3
OTU 82	0	2	0	1	0	0	2	0	0	1	0	0	0	1	54	1	0	1	0	0	0	1	0	1	0	0	0	1	0	3	0	3	0	0	0	0	0	0	0	1	0	0	112	2	9	108	37	0	1	0
OTU 83	0	0	0	1	0	0	0	2	0	0	0	0	0	0	0	0	0	0	0	0	1	0	0	0	0	0	0	0	0	0	3	0	0	2	1	0	0	0	0	0	0	0	0	0	0	0	0	0	0	0
OTU 84	1	0	0	0	4	2	0	0	1	0	0	0	0	0	104	0	0	0	1	0	3	1	1	0	0	0	0	0	7	0	0	0	0	0	0	1	0	1	0	0	2	1	0	0	1	0	59	0	0	1
OTU 85	0	2	0	0	0	0	0	0	0	0	0	1	0	0	0	0	0	0	0	0	0	0	1	0	0	0	0	0	0	5	4	0	0	1	0	1	2	1	0	0	0	0	1	0	0	0	0	0	0	2
OTU 86	0	0	0	0	0	0	0	0	0	0	0	0	0	0	0	0	0	1	0	1	0	0	0	0	0	0	0	0	0	0	0	0	0	0	0	0	2	0	0	1	0	0	0	0	0	0	0	0	0	0
OTU 87	0	0	17	0	0	0	0	0	0	0	0	0	0	0	0	0	1	0	0	0	1	0	0	0	0	0	0	1	0	0	0	0	0	1	0	0	0	0	0	0	0	0	0	1	4	0	1	0	0	0
OTU 88	0	0	0	0	0	1	0	0	0	0	0	0	1	0	0	0	0	2	0	0	0	0	0	1	0	0	0	2	0	0	0	0	0	0	0	0	2	0	0	0	0	0	1	0	0	0	0	0	0	0
OTU 89	0	0	1	0	0	0	0	0	0	0	0	0	0	2	0	0	0	0	0	0	0	0	0	0	0	0	0	0	0	0	0	0	0	0	0	0	0	0	0	0	0	0	0	0	0	0	1	0	0	2
OTU 90	0	0	0	0	0	0	0	0	1	0	0	1	1	0	0	0	0	0	1	0	0	0	0	0	0	0	0	0	1	0	0	0	0	0	0	2	0	0	0	0	0	0	0	2	0	0	0	0	0	0
OTU 91	0	0	0	0	0	0	0	0	0	0	0	0	0	0	0	0	0	0	0	0	0	1	0	0	0	0	0	0	0	0	0	0	0	0	1	0	0	0	0	0	0	0	0	0	0	0	0	0	0	0
OTU 92	0	0	0	0	0	0	0	0	0	0	0	0	1	0	1	0	1	0	0	0	3	0	2	0	0	0	0	0	1	0	0	4	0	0	0	0	1	0	0	0	0	0	1	1	0	1	0	0	0	0
OTU 93	0	0	0	0	0	0	3	0	0	0	0	0	2	0	0	0	0	0	0	2	0	0	1	0	0	0	0	0	0	0	0	0	0	0	0	0	0	0	0	0	0	0	0	0	0	0	0	0	0	0
OTU 94	5	2	0	0	0	2	0	0	12	9	9	5	0	1	2	0	3	0	14	0	0	0	0	0	2	0	0	0	0	0	8	0	0	1	1	0	0	3	0	13	0	1	1	7	1	5	0	7	0	1
OTU 95	0	0	1	3	0	0	0	0	0	3	0	5	1	0	1	0	0	0	0	0	0	0	0	0	1	0	0	0	0	0	0	0	0	0	0	0	0	3	0	0	0	0	1	0	1	1	0	0	0	0
OTU 96	0	0	0	0	0	0	1	0	0	0	0	0	0	0	0	0	0	0	0	0	0	0	0	0	0	0	0	0	0	0	0	0	0	1	0	0	0	0	2	0	0	0	0	0	0	0	0	0	1	0
OTU 97	0	3	0	3	1	0	8	1	6	1	10	13	4	0	0	0	6	0	3	4	0	0	0	3	0	4	8	0	1	0	1	4	0	0	0	0	2	2	3	11	4	0	1	2	2	0	1	6	0	0
OTU 98	0	0	1	0	0	0	3	0	0	1	1	0	0	0	0	1	0	0	0	0	0	0	0	0	0	0	0	0	0	0	0	0	0	0	2	0	0	0	1	0	0	0	0	2	0	0	0	0	0	0
OTU 99	1	3	1	2	0	0	2	1	2	0	1	0	2	1	3	0	0	1	3	1	0	0	3	4	0	2	0	7	0	0	0	3	1	0	13	1	0	10	1	1	0	0	0	0	3	1	0	1	2	2
OTU 100	0	4	0	1	0	6	0	9	0	0	0	0	1	1	0	0	0	0	0	0	0	1	0	1	1	2	0	0	0	5	0	1	0	0	0	0	2	0	0	1	0	1	0	0	0	1	2	0	0	0
OTU 101	0	0	0	1	0	0	0	0	0	0	0	0	0	0	0	0	0	0	0	0	0	0	0	0	0	0	0	0	0	0	0	0	0	0	0	0	0	0	0	0	0	0	0	0	1	0	0	0	1	0
OTU 102	0	0	0	0	0	0	3	0	0	0	1	2	0	2	0	0	0	0	0	0	0	0	0	0	0	0	0	0	2	0	1	0	0	0	0	0	0	0	1	0	0	2	0	0	0	0	2	0	0	0
OTU 103	0	2	0	0	0	0	1	0	0	1	0	3	3	0	2	0	0	0	0	0	0	0	0	0	0	0	0	1	0	0	0	0	0	0	0	0	1	0	0	0	0	0	0	7	0	1	0	0	0	3
OTU 104	2	0	0	1	0	0	0	3	3	3	0	0	0	0	0	1	0	1	0	2	0	4	4	2	1	1	0	3	0	0	2	0	1	2	3	0	1	4	0	2	0	7	0	2	0	1	0	5	1	4
OTU 105	0	0	2	0	0	0	0	0	0	0	0	0	0	2	0	0	0	0	0	0	0	0	0	0	0	0	0	0	0	2	0	1	3	0	0	0	1	0	0	3	0	0	1	0	0	3	0	0	0	0
OTU 106	0	2	0	0	0	0	0	0	2	0	0	0	0	2	0	1	1	0	0	0	1	0	0	0	0	0	0	0	4	1	2	0	0	0	0	0	0	0	0	0	0	0	0	0	0	0	0	0	0	0
OTU 107	0	0	0	0	0	1	53	2	0	45	0	2	0	0	0	2	0	1	4	96	2	1	0	2	0	0	1	2	0	1	0	0	0	0	0	0	0	0	25	0	0	2	1	1	1	0	0	0	0	0
OTU 108	0	5	2	0	6	1	0	0	3	8	4	0	0	0	2	0	0	0	4	0	0	0	0	0	0	0	0	0	6	1	1	0	0	0	0	3	12	8	0	7	0	3	13	0	1	1	0	3	0	2
OTU 109	0	0	0	0	0	0	0	0	0	0	0	0	0	0	0	0	0	0	0	0	0	0	0	0	0	0	0	0	0	0	0	0	0	0	0	0	0	0	0	0	0	0	0	0	0	0	0	0	0	0
OTU 110	0	2	2	0	0	3	0	1	0	0	0	2	0	1	0	2	0	0	1	0	0	0	0	3	1	0	29	1	4	85	0	6	3	0	0	1	0	0	0	1	1	2	0	0	0	0	1	0	0	0
OTU 111	0	0	0	0	0	0	0	0	0	0	0	0	0	0	0	0	1	0	0	0	0	0	0	0	0	0	0	5	0	2	0	0	0	0	0	0	0	0	0	0	0	0	0	0	0	0	0	0	0	1
OTU 112	0	0	1	0	2	0	0	0	0	0	0	0	0	0	0	0	0	0	1	1	0	0	1	0	0	0	0	0	3	2	2	0	0	7	0	0	0	0	0	2	0	0	0	1	0	0	0	2	0	0
OTU 113	1	0	0	1	0	0	0	0	0	0	0	0	0	1	0	0	1	0	0	0	0	0	0	0	0	0	0	1	0	0	0	0	0	0	0	0	0	0	0	0	0	0	0	0	0	0	0	0	0	0
OTU 114	7	3	2	0	2	0	2	2	96	1	7	0	0	2	0	5	2	0	0	1	50	4	4	2	5	0	1	7	2	0	1	1	4	0	5	0	0	0	0	8	1	0	1	0	4	0	0	1	0	0
OTU 115	2	0	0	3	1	4	1	0	0	8	0	4	4	1	2	1	2	0	4	3	18	1	1	0	1	1	0	2	4	3	3	1	12	0	0	0	2	0	0	3	3	1	1	102	0	0	91	0	0	0
OTU 116	7	18	0	3	29	7	1	0	8	11	10	3	2	0	0	15	2	0	15	0	0	0	1	0	1	0	0	0	45	1	10	0	0	0	0	16	26	11	0	12	4	0	13	5	0	3	0	6	0	0
OTU 117	0	2	0	0	0	10	0	0	0	0	0	0	1	2	0	1	0	0	0	0	0	0	0	2	1	2	0	0	0	2	0	0	1	1	5	0	0	5	0	0	2	1	0	1	1	9	0	1	1	0
OTU 118	0	0	0	0	0	1	4	0	0	0	0	0	3	0	0	0	0	0	0	0	0	1	0	3	0	0	0	1	0	0	0	0	2	0	3	0	0	0	2	0	1	1	0	0	0	1	0	1	2	5
OTU 119	0	1	1	5	0	0	1	0	1	25	0	0	3	0	1	0	0	0	4	0	2	0	1	1	0	0	0	0	0	1	0	0	1	11	0	0	0	1	1	0	0	0	0	4	0	2	2	0	0	0
OTU 120	0	14	0	1	0	0	0	0	0	0	0	0	1	1	0	1	0	0	0	0	3	0	0	0	2	2	1	0	0	6	0	0	0	2	4	0	0	0	0	1	0	0	0	0	0	0	0	0	0	3
OTU 121	2	1	0	1	0	1	0	0	2	4	2	0	0	0	2	3	0	1	0	0	1	0	0	0	0	1	0	1	0	1	0	0	0	0	2	0	1	2	0	11	1	1	1	0	1	0	0	1	0	1
OTU 122	3	0	0	1	1	0	1	0	0	0	0	0	4	0	5	0	0	0	1	2	0	1	0	0	0	0	0	0	0	28	7	2	0	0	0	0	0	5	0	0	0	2	0	0	0	0	3	1	2	0
OTU 123	0	112	0	6	4	7	2	2	1	1	57	11	4	11	12	71	12	3	1	4	5	18	1	8	5	6	10	7	3	8	2	7	1	7	2	0	0	1	2	10	5	2	1	3	86	2	17	3	9	2
OTU 124	0	0	0	0	0	0	0	1	0	0	0	0	0	0	0	0	0	0	0	0	3	0	0	1	1	0	1	0	1	0	0	0	0	0	0	0	0	0	0	0	0	0	0	1	0	0	0	0	0	0
OTU 125	4	3	4	10	3	4	2	3	0	2	5	4	6	22	2	5	1	34	4	2	5	0	1	0	6	3	4	4	9	4	5	4	1	3	3	2	5	8	97	3	7	1	0	2	0	15	3	1	2	1
OTU 126	0	0	0	0	0	1	0	0	1	0	0	0	0	0	0	0	1	0	0	0	0	2	1	0	0	0	0	1	0	0	0	0	0	0	0	0	0	0	0	0	0	1	0	0	0	2	1	0	0	0
OTU 127	0	0	0	0	0	0	0	0	0	0	0	1	4	0	0	3	1	0	0	2	4	1	0	1	0	0	1	0	0	0	0	0	2	0	1	1	0	1	0	0	0	0	0	0	1	0	0	0	0	0
OTU 128	4	8	3	1	8	1	3	3	19	6	4	2	5	0	4	3	4	0	0	8	2	3	3	3	0	5	1	11	12	0	13	2	3	3	7	5	38	96	1	26	1	1	20	4	2	6	3	47	1	4
OTU 129	0	0	0	0	1	0	0	0	0	0	0	0	0	0	0	2	0	0	0	0	1	0	0	0	2	0	0	0	0	0	0	0	0	0	1	0	0	1	0	0	0	0	0	0	0	0	0	0	0	0
OTU 130	0	0	1	0	4	1	0	2	1	1	0	0	5	0	0	0	2	0	1	0	4	3	1	1	0	44	21	1	0	0	2	0	1	0	1	0	2	0	1	0	1	0	0	0	0	0	0	0	0	0
OTU 131	0	0	0	3	16	0	0	1	0	0	0	0	3	0	0	0	0	0	3	0	0	3	0	0	0	2	0	0	0	0	0	1	0	2	0	7	0	4	0	0	0	0	0	1	1	22	0	0	0	0
OTU 132	1	0	0	0	94	1	0	176	0	0	2	0	0	1	1	0	0	0	0	0	1	0	0	0	0	0	0	0	0	1	0	0	0	0	142	36	0	1	0	0	0	3	0	0	0	7	0	0	0	0
OTU 133	0	0	0	1	0	0	0	0	0	0	0	1	0	4	0	0	0	0	0	0	3	0	0	1	0	0	0	2	1	2	0	0	0	0	0	0	0	0	0	0	0	0	0	0	0	0	0	0	0	0
OTU 134	6	1	0	0	0	4	2	0	0	0	0	10	0	0	0	3	0	0	3	1	0	4	0	0	2	2	1	0	0	0	0	5	5	0	2	20	0	4	2	0	0	0	0	0	1	0	0	0	1	0
OTU 135	1	0	0	0	0	0	0	0	0	0	0	0	0	0	0	0	0	1	3	0	5	0	0	2	0	0	0	3	0	0	1	0	3	0	0	0	2	0	0	1	2	2	3	3	0	0	0	0	2	0
OTU 136	3	0	4	4	1	0	0	0	0	0	2	0	0	0	0	1	0	0	1	0	1	1	1	0	0	0	0	2	3	0	0	0	1	1	0	0	0	0	1	0	1	0	0	0	2	0	0	0	1	4
OTU 137	0	2	0	0	1	0	0	0	1	0	0	0	0	0	0	0	0	0	0	0	0	0	0	2	1	4	0	0	0	29	0	1	0	0	0	0	0	0	0	0	0	0	1	0	10	0	0	0	0	0
OTU 138	0	0	0	0	0	0	0	0	0	0	0	0	0	0	0	0	0	2	0	1	0	0	0	0	1	1	0	0	0	0	0	0	0	2	0	0	0	0	0	0	0	0	0	1	0	0	0	0	0	0
OTU 139	0	6	2	2	2	0	3	0	5	0	0	0	0	0	2	0	0	1	1	5	0	0	0	3	0	1	0	0	2	1	2	1	10	57	0	0	2	0	1	1	4	2	2	2	0	6	1	1	50	1
OTU 140	20	1	0	7	4	3	2	0	35	30	28	0	7	10	1	0	2	0	93	1	1	4	4	1	3	1	0	1	4	1	34	1	6	0	1	1	3	2	1	65	0	2	2	16	2	0	4	31	0	9
OTU 141	0	0	0	0	0	0	0	0	0	0	0	0	0	0	0	0	0	0	0	0	0	0	0	0	31	0	0	0	0	0	0	0	0	0	0	0	0	0	0	0	0	0	0	0	0	0	0	0	0	0
OTU 142	0	0	0	0	0	0	0	0	0	0	0	0	0	0	0	0	0	0	0	0	0	0	0	0	0	0	0	0	0	0	0	0	0	0	0	0	0	0	0	0	0	0	0	0	0	0	0	0	0	0
OTU 143	1	0	0	0	0	0	0	0	0	0	0	0	0	0	0	1	0	0	13	0	0	0	0	0	0	0	0	0	0	1	0	0	0	0	0	2	0	0	0	0	0	1	0	0	2	0	0	0	0	0
OTU 144	0	3	0	5	1	0	0	0	0	0	0	0	0	0	0	0	0	0	0	0	0	0	0	0	0	0	0	0	0	0	0	0	0	0	0	0	0	0	0	0	0	2	0	0	0	0	0	0	0	2
OTU 145	0	5	0	2	0	3	1	0	4	0	4	0	1	0	4	5	4	1	0	0	4	0	0	1	0	0	0	0	1	0	1	0	0	4	0	0	0	1	0	1	0	2	1	1	0	43	0	0	0	1
OTU 146	0	0	0	0	0	1	3	0	0	0	95	0	2	1	0	0	0	1	0	5	0	2	1	0	0	0	0	0	1	3	0	0	0	1	0	0	1	2	0	0	2	0	2	0	3	1	0	0	1	2
OTU 147	0	0	0	2	0	1	0	0	0	0	0	0	0	0	0	0	0	0	0	0	0	0	0	0	0	0	0	0	0	0	0	0	1	5	0	0	11	0	0	1	1	0	7	0	0	0	0	1	0	0
OTU 148	2	0	0	0	0	0	0	0	0	0	0	1	0	1	1	0	3	0	5	0	0	0	0	0	0	2	1	0	1	1	4	0	3	7	2	1	1	0	0	2	0	0	0	5	1	0	0	2	0	0
OTU 149	0	0	1	0	0	2	0	0	0	0	0	0	1	0	0	0	0	0	0	0	1	0	0	0	1	0	0	1	0	3	0	1	0	0	0	0	0	0	0	0	1	0	0	1	0	0	0	0	0	1
OTU 150	0	0	0	0	0	0	4	0	0	0	0	0	0	0	1	0	0	0	0	0	0	0	0	0	0	0	0	0	0	0	0	0	1	0	0	0	1	0	1	0	0	0	0	0	0	0	0	0	0	0
OTU 151	2	2	0	1	0	0	0	0	0	0	0	0	0	0	0	0	0	1	0	1	1	0	0	1	0	0	0	1	3	0	1	0	4	0	2	0	96	1	0	0	1	0	48	1	2	0	0	0	0	0
OTU 152	0	2	0	0	0	0	1	0	1	0	0	0	0	1	0	0	2	3	0	1	4	0	3	1	0	1	0	0	2	0	1	1	0	0	0	0	5	0	0	2	0	0	1	6	2	1	1	1	2	1
OTU 153	0	0	0	0	0	0	1	0	0	0	0	0	0	0	2	0	0	0	0	0	0	0	0	0	0	1	0	0	0	0	0	0	0	0	0	0	0	0	0	0	0	0	0	0	0	0	0	0	0	0
OTU 154	0	0	0	0	0	0	0	0	0	0	0	0	0	0	0	0	0	0	0	0	0	0	0	0	0	0	0	0	0	0	0	0	0	0	0	0	0	0	0	0	0	0	0	0	0	0	0	0	0	0
OTU 155	0	0	0	0	1	0	0	0	1	2	2	1	0	1	0	0	1	1	0	0	0	2	5	1	0	0	0	0	2	1	1	0	0	0	1	0	0	1	0	2	0	0	0	1	0	1	1	1	1	0
OTU 156	8	10	4	16	6	0	13	0	17	11	10	29	0	9	14	7	15	5	13	22	6	9	13	17	2	28	14	4	15	1	7	14	9	0	0	5	11	15	2	17	13	5	8	6	8	0	2	11	10	2
OTU 157	0	0	0	0	0	1	0	18	0	0	0	0	0	0	0	1	0	26	0	1	0	0	28	59	0	0	0	44	0	0	3	0	33	0	1	0	0	0	0	0	0	20	0	0	0	2	0	0	31	2
OTU 158	0	0	0	0	0	0	0	0	0	0	0	0	0	0	0	0	1	0	0	0	0	0	0	0	0	0	0	0	0	0	0	0	0	3	0	0	0	0	0	0	0	0	0	0	0	0	0	0	0	0
OTU 159	0	23	1	0	3	0	1	0	0	0	0	3	1	0	0	8	0	0	2	0	1	3	1	0	0	0	0	0	2	9	1	2	0	0	3	0	0	1	1	4	0	0	0	1	2	0	1	4	0	1
OTU 160	4	3	1	3	20	3	157	8	4	0	1	2	4	0	5	3	2	1	0	2	0	2	19	4	0	55	25	12	3	6	8	1	5	2	1	12	0	0	96	0	7	1	0	3	1	2	1	0	5	70
OTU 161	0	0	8	2	1	1	0	1	1	0	0	0	0	8	0	2	0	0	0	0	3	2	0	0	2	0	0	0	3	2	3	1	1	0	0	0	1	2	0	0	0	0	0	0	0	1	0	0	0	2
OTU 162	0	0	0	0	1	0	3	1	0	0	0	4	3	2	1	0	19	0	1	7	0	1	124	3	2	1	3	1	0	0	0	0	2	0	1	0	0	0	0	2	0	0	1	0	1	1	0	0	5	84
OTU 163	0	1	0	0	0	0	0	0	0	0	0	0	2	0	2	0	0	0	0	0	0	0	0	0	0	0	0	0	0	0	0	0	0	0	0	0	0	0	0	0	0	0	0	0	0	0	0	0	0	0
OTU 164	0	2	0	0	0	0	0	0	0	0	0	0	0	0	0	1	0	0	0	0	0	0	0	0	0	0	0	0	0	0	0	0	0	0	0	0	0	0	0	0	0	0	0	0	0	0	0	0	0	0
OTU 165	0	0	0	0	0	3	0	0	0	0	0	1	0	0	0	0	0	0	0	0	1	2	1	0	0	0	0	0	0	1	0	1	0	0	5	0	2	1	0	0	0	0	3	0	0	0	0	1	0	0
OTU 166	0	0	0	0	0	0	0	0	0	0	0	0	0	0	0	0	0	0	0	0	0	0	0	0	0	0	0	0	0	0	0	0	0	0	0	0	0	0	0	0	0	0	0	0	0	0	0	0	0	0
OTU 167	0	0	3	0	3	1	4	0	2	2	2	0	6	0	0	1	0	0	0	8	0	2	3	1	0	0	0	2	0	0	0	0	0	0	0	0	0	0	0	0	4	1	0	0	0	0	0	0	0	0
OTU 168	0	0	2	0	0	2	2	1	0	3	0	0	5	3	2	0	3	2	0	0	2	0	1	1	0	0	0	3	0	3	0	3	2	1	0	2	0	5	0	0	0	1	0	1	0	0	1	0	0	3
OTU 169	0	0	0	0	0	0	0	0	0	0	0	0	0	0	1	0	0	0	0	0	0	0	0	0	0	0	0	0	0	0	0	0	0	0	0	0	0	0	0	0	0	0	0	0	0	0	0	0	0	0
OTU 170	0	0	0	0	0	0	0	0	0	0	0	0	0	0	0	0	0	0	0	0	0	0	0	0	0	0	0	0	0	0	0	0	0	1	0	0	0	0	0	0	0	0	0	0	0	0	0	0	1	0
OTU 171	1	1	0	0	2	0	0	0	0	0	0	0	2	1	0	0	1	0	1	4	1	0	0	0	0	0	0	0	9	1	0	0	0	0	0	1	1	0	1	6	2	0	0	0	4	0	0	0	1	0
OTU 172	0	0	0	0	0	0	0	0	0	0	0	0	1	0	1	0	0	0	0	0	0	0	0	0	0	0	0	0	0	0	0	0	0	0	0	0	0	0	0	0	0	0	0	0	0	0	0	0	0	0
OTU 173	0	0	0	0	3	5	0	0	0	0	3	0	0	0	1	0	0	0	0	1	0	0	0	0	1	0	0	2	1	0	0	0	3	0	0	2	0	0	0	2	0	0	0	0	0	0	2	0	0	0
OTU 174	1	0	0	0	0	0	0	0	4	0	0	0	0	0	0	0	1	0	0	0	0	1	0	2	0	0	0	0	1	1	0	0	0	0	0	0	1	0	0	0	2	0	0	0	1	0	1	0	1	0
OTU 175	0	0	4	0	1	2	0	0	2	1	0	2	0	18	2	0	0	0	0	0	2	40	0	0	8	1	2	1	3	0	0	0	1	0	0	0	0	0	2	1	0	0	0	0	27	0	1	0	0	0
OTU 176	0	1	3	3	2	0	1	0	1	0	0	0	4	1	2	2	1	3	1	2	2	0	0	9	2	1	1	1	0	0	1	0	0	1	0	1	0	0	0	2	23	2	1	0	0	2	0	1	7	1
OTU 177	1	0	0	0	1	2	0	0	0	0	1	1	0	0	0	0	1	0	1	0	0	0	0	0	0	21	26	5	0	0	1	1	0	0	4	0	2	2	0	0	5	0	0	0	3	0	1	0	0	33
OTU 178	0	0	0	0	0	0	0	3	0	1	0	0	0	0	0	0	98	0	0	0	0	1	3	0	0	0	0	4	0	0	0	4	1	1	1	0	0	0	0	0	0	0	0	1	0	2	0	1	0	0
OTU 179	0	2	0	3	0	0	0	1	3	0	0	0	0	0	0	0	2	1	0	0	0	1	2	4	0	0	1	0	0	1	0	0	6	2	0	0	2	1	0	1	0	0	0	4	0	2	0	0	0	0
OTU 180	4	4	0	19	3	1	0	2	2	2	7	51	6	12	11	1	28	1	0	8	86	35	3	1	10	2	1	1	0	7	2	14	7	0	12	1	0	2	86	2	2	3	0	4	10	11	12	3	1	6
OTU 181	0	0	0	0	0	1	0	16	0	2	0	1	1	1	0	0	0	13	0	0	0	0	11	18	4	8	4	21	0	0	0	0	19	0	0	0	0	2	0	0	3	6	0	0	0	0	0	0	9	3
OTU 182	0	0	0	0	0	0	2	0	0	0	0	0	0	0	0	0	0	0	0	6	0	0	0	0	1	0	0	0	0	0	0	0	0	0	0	0	0	0	1	0	2	0	0	0	0	0	0	0	1	0
OTU 183	1	2	1	0	0	1	0	0	1	1	0	2	0	0	3	2	0	0	2	0	4	1	0	0	0	0	1	0	1	0	0	0	0	0	0	0	0	0	0	0	0	0	0	0	0	0	0	0	2	0
OTU 184	0	3	0	0	0	0	0	1	0	1	0	0	0	1	1	0	0	0	2	0	0	0	0	2	0	1	0	0	0	0	1	0	0	0	0	0	1	9	0	0	1	0	1	0	0	0	0	0	0	0
OTU 185	0	1	0	1	0	2	15	0	0	0	5	1	1	1	0	1	0	1	0	25	0	0	2	0	0	0	0	1	2	1	3	1	0	0	3	0	8	2	5	0	0	3	1	0	0	2	0	3	0	1
OTU 186	36	0	0	0	1	0	0	0	12	0	0	0	4	0	0	0	0	0	5	0	2	0	1	0	0	0	0	0	1	0	0	0	2	0	0	2	0	0	0	0	6	0	0	0	0	0	0	0	0	0
OTU 187	0	0	0	0	1	1	0	0	1	1	0	1	5	0	2	1	7	2	2	0	1	1	0	0	0	5	1	0	7	0	0	4	0	3	1	0	1	3	0	6	0	5	2	2	2	1	0	0	1	2
OTU 188	2	0	174	1	0	1	1	0	0	2	0	0	0	0	12	0	1	0	2	1	2	7	1	0	1	2	1	2	0	0	0	1	0	0	3	159	2	0	0	0	0	0	1	3	3	1	4	31	0	2
OTU 189	2	7	2	0	1	4	0	2	0	100	4	10	3	4	4	1	0	3	3	1	62	3	3	2	3	0	0	1	0	0	2	1	74	0	2	1	1	3	0	1	0	0	0	1	5	0	1	2	0	0
OTU 190	0	1	1	0	0	0	0	0	0	3	0	0	2	0	0	0	0	0	0	0	0	0	0	0	0	0	0	0	0	0	1	0	0	0	0	0	0	0	0	0	0	0	0	0	0	2	1	0	0	0
OTU 191	19	0	0	0	0	3	0	7	0	0	0	0	0	17	0	0	0	8	0	0	0	32	14	36	8	0	0	11	0	0	0	1	2	0	0	0	0	1	0	0	60	4	0	1	18	2	0	0	18	9
OTU 192	0	0	5	0	0	0	3	0	1	0	1	3	3	0	2	0	0	5	0	1	4	2	2	7	0	0	0	5	0	0	2	1	0	1	35	0	8	5	0	1	1	0	5	1	0	0	0	0	39	2
OTU 193	0	0	4	13	0	3	0	0	0	0	0	4	0	1	0	0	3	0	2	2	0	0	1	1	1	0	0	0	0	2	1	1	1	3	0	0	0	0	0	0	0	0	0	0	1	0	28	0	0	1
OTU 194	0	0	1	0	2	0	0	0	2	2	0	1	0	0	0	0	1	0	0	0	0	0	0	1	0	0	0	0	0	0	1	4	0	0	0	1	0	0	0	0	0	0	0	0	0	0	0	1	1	1
OTU 195	0	0	0	2	0	2	0	0	0	0	0	0	1	0	0	0	0	2	4	0	5	0	5	4	1	1	0	0	0	5	1	0	1	1	8	0	2	0	0	1	1	0	1	0	0	0	0	1	2	0
OTU 196	2	4	0	0	0	0	0	0	1	0	0	7	0	2	1	0	0	0	4	0	4	0	2	0	0	0	0	0	2	1	0	0	2	1	0	2	0	0	0	1	1	1	0	1	2	0	0	0	0	0
OTU 197	2	6	50	0	3	2	1	3	0	0	2	0	2	4	2	2	0	3	16	1	3	1	1	2	0	2	1	3	0	1	2	43	2	3	2	1	1	4	0	2	2	3	0	1	3	1	0	1	4	22
OTU 198	0	0	0	0	0	1	0	0	0	0	0	0	0	0	0	0	0	0	1	0	0	0	0	0	0	0	0	0	0	0	1	0	0	0	0	0	0	0	0	0	0	0	0	0	0	1	0	1	0	1
OTU 199	0	1	0	1	0	0	0	0	0	0	0	0	5	2	0	0	1	108	0	0	1	0	0	0	1	0	0	1	3	0	2	2	4	0	0	0	0	0	0	0	1	1	0	0	2	0	1	0	0	0
OTU 200	0	0	2	0	1	0	6	5	3	0	3	0	3	2	0	0	0	3	2	14	3	0	6	8	0	15	9	10	0	0	0	0	1	5	1	0	2	1	3	1	11	1	1	0	23	0	0	0	17	0
