	Host 1	Host 2	Host 3	Host 4	Host 5	Host 6	Host 7	Host 8	Host 9	Host 10	Host 11	Host 12	Host 13	Host 14	Host 15	Host 16	Host 17	Host 18	Host 19	Host 20	Host 21	Host 22	Host 23	Host 24	Host 25	Host 26	Host 27	Host 28	Host 29	Host 30	Host 31	Host 32	Host 33	Host 34	Host 35	Host 36	Host 37	Host 38	Host 39	Host 40	Host 41	Host 42	Host 43	Host 44	Host 45	Host 46	Host 47	Host 48	Host 49	Host 50	
OTU 1	7	12	3	5	0	2	0	1	1	9	0	11	6	3	19	0	3	18	0	0	2	5	5	8	0	7	3	0	4	2	0	8	7	0	0	0	1	5	5	4	25	0	1	4	0	6	3	0	3	0
OTU 2	1	0	0	0	2	1	1	1	0	0	0	0	0	2	1	0	0	0	0	1	0	0	1	1	0	0	0	0	1	0	0	0	0	0	0	1	1	0	0	1	0	2	0	0	0	1	0	0	0	0
OTU 3	0	0	0	0	0	0	0	0	0	0	0	0	0	0	0	0	0	0	0	1	0	0	0	0	0	0	1	0	0	0	0	0	1	0	0	0	0	1	0	0	0	0	0	0	0	3	6	1	0	1
OTU 4	0	0	0	0	0	0	0	0	0	0	0	0	0	0	0	0	0	0	0	0	0	0	0	0	0	0	0	0	0	0	0	0	0	0	0	0	0	0	0	0	0	0	0	0	0	0	0	0	0	0
OTU 5	3	13	1	2	21	13	13	40	5	15	18	18	1	1	12	12	0	6	14	3	8	22	2	18	1	7	0	6	24	47	1	4	1	24	39	10	1	1	10	42	28	19	9	3	5	6	49	2	0	6
OTU 6	3	10	0	0	0	7	1	0	0	2	4	0	0	2	2	2	0	0	5	0	1	2	0	2	1	1	4	1	0	3	2	2	0	0	0	0	0	0	2	3	0	0	8	0	5	1	0	10	3	1
OTU 7	5	0	3	2	1	11	0	5	0	1	12	4	0	3	2	2	1	0	6	1	0	0	3	0	4	1	17	0	0	2	19	4	2	3	1	0	1	3	0	1	1	1	0	1	2	6	41	93	7	3
OTU 8	2	0	0	0	0	0	3	3	0	5	1	1	4	0	1	1	6	5	0	2	0	1	2	0	5	1	6	3	0	0	0	24	3	9	0	0	7	0	0	0	0	1	2	5	0	26	2	0	3	24
OTU 9	0	0	0	10	0	1	1	0	0	1	0	7	0	0	0	3	1	0	2	0	0	0	0	0	1	0	2	0	1	0	0	0	0	0	0	0	0	0	0	4	0	0	0	0	0	0	0	4	2	0
OTU 10	0	0	4	0	0	2	0	0	1	1	0	0	0	0	0	0	0	0	0	0	0	0	0	0	0	0	0	0	1	1	0	0	2	2	0	0	0	0	0	0	0	0	0	0	0	0	0	0	11	0
OTU 11	0	3	4	7	0	0	0	2	0	0	3	2	0	0	0	1	0	0	1	1	0	0	0	0	0	0	1	0	0	1	0	2	3	2	0	2	4	6	0	3	0	0	0	0	14	1	4	3	0	140
OTU 12	0	0	1	0	0	1	2	1	0	0	3	0	1	3	0	0	1	0	7	2	1	1	0	0	1	1	0	0	0	0	16	3	0	5	5	0	3	0	1	0	1	3	3	1	3	3	1	1	2	1
OTU 13	0	0	0	0	0	0	0	0	0	0	0	0	0	0	0	0	0	0	0	0	0	0	0	0	0	0	0	0	0	0	1	0	0	0	0	0	0	0	1	0	0	0	0	0	0	0	0	0	0	0
OTU 14	0	0	1	0	0	1	0	0	0	0	0	3	0	1	3	1	0	0	0	0	0	0	0	0	0	1	5	0	0	0	0	0	7	0	0	0	1	0	0	5	0	0	0	0	0	0	1	5	1	1
OTU 15	0	0	0	0	0	0	0	0	0	0	0	0	0	0	0	0	0	0	0	0	0	0	0	0	1	0	0	0	0	0	0	0	0	0	0	0	0	0	0	0	0	0	0	3	0	0	0	0	0	0
OTU 16	0	0	0	0	0	0	0	0	0	0	0	0	0	0	0	0	0	0	0	0	0	0	0	0	0	0	0	0	0	0	0	0	0	0	0	0	0	0	0	0	0	0	0	0	0	0	0	0	0	0
OTU 17	3	0	0	0	0	7	0	4	0	3	0	32	0	3	6	0	2	1	0	0	0	0	1	0	0	0	3	2	3	33	3	0	3	1	0	0	0	0	0	1	45	0	1	0	8	0	1	3	2	0
OTU 18	0	2	2	2	3	3	0	2	0	5	5	0	2	1	4	2	0	0	0	0	0	0	1	2	3	0	2	5	24	3	1	0	1	7	2	0	1	1	1	3	1	0	2	2	1	3	2	1	2	3
OTU 19	0	0	0	0	0	0	0	0	0	0	0	0	0	0	0	0	0	0	0	0	0	0	0	0	0	0	0	0	0	0	0	0	0	0	0	0	0	0	0	0	0	0	0	0	0	0	0	0	0	0
OTU 20	0	35	14	1	0	1	1	1	2	4	2	1	2	6	1	0	2	0	1	12	0	1	3	0	4	0	1	0	2	1	2	0	0	10	0	0	2	1	25	1	1	1	3	6	4	0	0	46	1	0
OTU 21	0	1	1	1	0	0	3	4	4	1	3	0	0	0	0	0	0	0	0	0	0	0	0	0	1	1	0	0	2	2	0	3	0	10	2	6	2	5	0	1	1	0	0	2	3	4	0	0	1	4
OTU 22	0	1	0	1	0	0	0	7	0	5	4	0	0	0	2	0	0	1	4	0	0	0	1	0	21	0	5	1	1	1	1	0	0	2	0	0	0	4	1	5	3	0	0	1	0	1	2	0	3	1
OTU 23	0	0	0	0	0	0	0	1	0	1	0	1	2	0	0	0	0	143	0	0	1	4	0	1	0	1	0	1	0	0	3	0	0	3	0	1	0	0	0	1	0	1	0	1	0	2	0	0	7	1
OTU 24	0	4	0	5	0	0	0	0	0	3	0	0	0	5	0	0	4	0	3	0	1	0	0	0	0	0	0	0	1	0	0	1	0	0	3	0	3	8	3	0	1	3	0	0	0	1	0	1	10	1
OTU 25	0	0	0	0	0	0	0	0	0	0	0	0	0	0	0	0	0	0	0	0	0	0	0	0	0	0	0	0	0	0	0	0	0	0	0	0	0	0	0	0	0	0	1	0	0	0	0	0	0	0
OTU 26	0	0	3	1	0	0	0	0	0	0	0	0	0	0	1	1	0	2	0	0	0	0	1	1	0	0	1	0	0	0	0	0	0	0	0	0	0	3	0	0	0	0	0	0	0	0	0	0	0	0
OTU 27	0	0	0	0	0	0	0	0	0	0	0	0	0	0	1	0	0	0	0	0	0	0	0	1	0	1	0	0	0	2	0	0	0	0	0	0	0	0	0	0	0	0	0	0	1	0	0	0	0	0
OTU 28	11	0	1	0	4	1	1	0	1	1	0	21	0	4	10	2	1	8	0	2	75	0	0	14	2	1	0	1	2	0	23	0	6	4	5	0	1	0	1	2	0	0	4	2	0	0	3	0	1	2
OTU 29	4	1	3	0	0	1	0	0	2	0	4	0	1	0	0	2	0	1	6	0	2	1	0	0	3	0	3	2	1	0	0	1	2	5	2	2	82	3	0	0	0	1	1	0	6	4	1	1	0	0
OTU 30	0	0	0	0	0	0	0	0	0	0	0	0	0	0	0	0	0	0	0	0	0	0	0	0	0	0	0	0	0	0	0	0	0	0	0	0	0	0	0	0	0	0	0	0	0	0	0	0	0	0
OTU 31	0	0	5	2	0	0	0	1	2	0	0	1	0	0	0	0	0	0	1	0	0	0	4	1	7	0	0	1	0	0	0	0	1	0	0	0	0	0	0	0	2	0	0	0	0	6	0	1	4	0
OTU 32	0	0	0	1	85	1	0	0	0	0	0	4	1	17	1	2	1	0	0	37	0	1	1	158	4	2	6	7	0	1	11	0	1	0	2	0	1	2	0	4	0	2	1	1	0	0	0	1	1	5
OTU 33	0	0	0	0	0	0	0	0	0	0	0	0	0	0	0	0	0	0	0	0	0	0	0	0	0	0	0	0	0	0	0	0	0	0	0	0	0	0	0	0	0	0	0	0	0	0	0	0	0	0
OTU 34	3	0	0	0	0	0	0	3	0	1	4	3	1	2	1	0	0	0	1	0	0	0	8	0	2	1	5	0	1	0	0	6	0	2	1	38	1	3	0	3	0	0	0	0	0	1	0	2	0	1
OTU 35	0	1	0	1	0	0	1	0	2	3	0	0	0	0	0	0	2	1	81	0	0	1	0	0	8	10	1	5	1	2	18	8	0	1	1	0	5	0	1	3	1	0	2	1	3	0	0	3	3	1
OTU 36	1	5	2	0	0	0	2	3	1	2	3	1	0	1	0	0	1	0	0	0	0	0	0	0	3	1	1	0	0	0	2	0	4	4	0	0	3	0	4	3	0	26	0	0	0	2	0	1	1	0
OTU 37	0	0	0	0	0	0	0	0	1	0	0	0	0	1	0	0	1	0	0	0	0	0	1	0	2	3	0	0	0	0	0	3	0	1	0	0	0	1	0	1	0	0	0	0	2	2	2	0	0	0
OTU 38	0	0	4	4	1	2	0	1	1	3	0	1	1	0	0	0	1	0	2	0	4	2	0	0	2	0	1	0	1	0	5	1	10	0	1	13	0	2	0	1	4	17	5	0	1	0	0	0	10	0
OTU 39	0	2	0	0	0	0	0	0	0	0	0	0	0	3	0	0	0	1	0	1	0	0	0	0	0	1	0	0	0	0	0	0	0	0	0	0	0	0	0	0	1	0	0	1	1	1	1	0	0	0
OTU 40	7	0	0	0	54	2	6	3	1	6	0	0	0	15	2	2	7	3	3	0	4	0	0	1	3	0	1	3	0	0	0	0	7	1	0	1	2	3	0	4	2	0	16	1	5	7	0	4	1	0
OTU 41	0	1	0	1	0	1	0	2	0	2	0	0	1	0	0	0	0	0	0	3	0	0	0	0	0	0	0	0	1	0	0	1	0	2	1	1	0	0	0	0	1	0	0	1	0	1	0	2	0	2
OTU 42	0	0	8	0	0	0	0	0	0	0	0	0	0	0	0	3	0	2	1	2	0	0	0	0	0	0	0	0	0	0	0	0	0	0	0	0	0	1	0	0	0	0	1	0	0	0	0	2	1	0
OTU 43	0	0	0	0	0	0	0	0	0	0	0	0	0	0	0	0	0	0	5	0	0	0	0	0	0	0	4	0	0	1	0	0	0	0	0	0	0	0	0	0	0	0	0	0	0	0	0	0	0	0
OTU 44	0	0	0	0	0	0	0	0	0	0	4	0	0	0	0	0	0	0	0	0	0	0	0	0	0	0	0	0	0	0	0	0	0	2	0	0	0	0	0	0	0	0	0	1	0	0	0	1	0	0
OTU 45	42	0	4	0	21	0	0	2	1	3	0	0	23	1	74	0	1	29	0	2	1	0	0	23	1	1	4	1	1	0	0	0	0	0	2	1	1	3	0	1	0	1	3	3	0	0	0	0	0	1
OTU 46	0	3	1	20	1	0	0	5	0	4	7	0	0	0	0	2	0	0	1	0	4	10	0	2	2	0	7	2	1	0	11	2	1	2	0	89	0	0	2	3	1	81	0	0	2	1	5	0	4	0
OTU 47	3	1	0	0	0	0	0	0	0	0	0	1	3	1	0	0	1	0	0	0	0	0	0	0	0	0	5	0	0	0	0	0	2	0	0	0	0	0	1	0	0	0	0	0	0	0	2	0	0	0
OTU 48	0	6	1	96	2	2	83	0	0	0	0	0	1	2	4	0	0	1	3	1	0	0	0	2	2	1	7	6	2	0	0	4	1	5	4	0	0	7	1	5	0	0	1	0	1	0	0	1	1	0
OTU 49	2	0	0	0	2	0	0	0	0	0	0	0	2	1	2	0	0	0	0	0	1	1	0	1	7	0	1	1	0	0	5	0	1	0	3	0	1	0	0	29	1	0	0	0	7	0	11	0	0	2
OTU 50	2	0	3	0	2	0	2	0	0	2	2	1	1	0	2	0	0	0	0	2	0	1	0	3	1	1	2	1	0	0	3	2	0	3	7	1	0	2	137	3	0	0	0	5	0	0	3	1	8	0
OTU 51	0	1	2	0	0	0	0	0	0	1	2	0	0	5	0	6	0	1	2	10	1	3	0	0	3	3	3	0	0	2	0	2	0	0	0	61	4	1	1	4	0	0	0	0	4	1	2	0	1	0
OTU 52	1	7	4	18	2	0	2	1	0	4	4	1	0	3	0	4	0	1	3	1	0	0	3	3	4	11	5	4	3	2	8	10	1	3	28	8	4	38	2	1	2	11	0	0	8	6	2	12	3	0
OTU 53	0	0	0	0	0	0	0	0	0	0	0	0	0	0	0	0	0	0	0	0	0	0	0	0	0	0	0	0	0	0	0	0	0	0	0	0	0	0	0	0	0	1	0	0	0	0	0	0	0	0
OTU 54	19	4	3	1	1	140	0	0	4	4	3	4	69	31	0	0	7	3	3	0	0	1	0	0	0	2	0	3	0	0	2	0	0	10	0	1	3	4	0	0	0	3	1	0	32	1	2	1	2	3
OTU 55	2	0	0	0	0	0	0	0	0	0	3	0	0	0	0	0	0	0	0	0	0	0	0	0	0	0	0	0	0	0	0	0	0	0	0	0	2	0	0	0	0	0	0	0	0	2	0	0	0	0
OTU 56	0	0	0	0	0	0	0	1	0	0	0	0	0	0	5	0	1	0	0	0	0	0	2	2	0	0	0	1	0	2	0	0	0	1	2	1	1	3	0	0	1	0	0	0	0	0	0	0	0	0
OTU 57	0	2	4	2	0	1	0	9	2	48	2	17	0	13	2	8	2	0	3	2	5	14	2	2	0	2	11	38	22	12	4	4	5	0	1	0	4	6	1	0	20	0	2	2	3	6	3	7	12	0
OTU 58	1	1	2	0	0	19	0	0	1	0	2	0	0	2	1	0	3	5	36	0	0	0	1	0	0	0	0	0	0	0	0	0	0	12	0	0	0	3	0	4	2	1	67	0	0	0	14	1	0	0
OTU 59	2	3	0	4	1	0	0	0	0	0	0	0	0	0	11	0	0	3	0	2	1	2	1	1	0	0	0	2	0	0	1	0	1	0	4	0	0	0	0	0	5	0	0	0	0	1	0	1	0	0
OTU 60	0	0	1	5	2	0	0	0	1	2	0	3	0	9	1	0	6	24	0	4	2	3	2	0	1	0	0	0	3	0	1	0	3	3	0	0	0	7	0	0	2	2	2	1	2	0	4	1	11	1
OTU 61	0	4	0	6	0	2	0	0	0	0	4	1	3	9	5	2	7	1	3	7	0	1	0	3	3	0	0	4	2	1	0	0	2	0	3	3	2	10	4	3	2	2	2	6	9	4	1	1	0	1
OTU 62	0	1	2	0	0	0	0	0	0	1	0	0	0	0	0	0	0	0	0	0	2	6	1	0	0	1	3	57	0	0	0	0	0	0	0	0	0	0	1	0	0	0	0	1	0	0	0	0	0	2
OTU 63	1	2	0	0	0	0	0	0	1	0	1	0	0	2	0	0	4	0	0	0	0	0	161	0	1	0	0	0	0	0	0	1	7	0	0	0	1	0	3	0	0	0	0	3	0	0	0	0	3	0
OTU 64	4	1	0	6	1	2	26	0	0	0	2	0	4	2	5	5	0	1	1	0	2	1	1	2	1	4	22	1	2	0	3	3	13	2	3	2	1	7	0	12	0	3	0	2	75	0	7	0	3	8
OTU 65	0	0	0	0	0	0	0	0	0	0	0	0	0	0	0	5	0	0	0	0	0	0	0	0	0	0	1	0	0	0	0	0	0	0	0	0	0	0	0	0	0	0	0	0	0	0	0	0	0	0
OTU 66	1	0	0	0	0	1	0	0	113	1	0	0	2	7	3	1	2	1	0	0	0	0	54	3	0	0	1	0	0	2	2	1	2	6	0	0	0	0	1	5	2	0	0	4	4	5	0	0	1	0
OTU 67	2	0	6	1	0	0	0	0	1	0	0	0	1	11	0	3	3	0	0	0	0	0	0	0	0	1	6	0	0	1	0	2	0	0	0	0	2	1	1	3	0	4	0	1	1	0	0	1	1	0
OTU 68	0	2	1	0	0	0	1	1	0	0	0	26	0	0	0	0	1	0	1	0	0	0	0	0	0	0	0	2	2	34	0	3	0	0	0	0	1	0	0	1	64	1	0	0	2	0	0	0	1	0
OTU 69	0	0	3	21	0	1	2	0	0	0	9	0	0	1	1	0	0	0	0	0	0	1	0	1	1	3	1	1	0	3	3	9	0	3	21	10	1	48	0	9	0	7	0	0	0	1	3	4	1	0
OTU 70	2	0	0	5	1	0	0	9	1	27	0	1	0	1	1	0	1	0	0	0	1	3	1	1	0	9	2	15	9	3	1	2	2	0	1	3	0	8	25	1	2	1	0	1	0	1	2	4	0	0
OTU 71	0	1	0	2	37	2	1	0	0	0	2	0	0	3	0	0	4	0	0	0	0	0	0	0	0	3	0	74	0	0	1	1	1	1	0	1	0	1	0	7	0	3	0	0	0	1	0	0	4	0
OTU 72	0	0	0	1	0	0	0	0	0	0	0	1	0	6	0	0	1	1	3	1	0	1	2	0	3	13	0	1	1	1	1	0	5	0	4	1	1	0	0	3	0	0	1	1	0	1	0	0	0	0
OTU 73	0	3	0	3	0	1	1	8	0	3	0	0	0	7	2	0	2	1	2	1	0	0	0	0	6	0	1	0	1	2	0	0	0	0	0	0	46	0	2	0	1	1	1	2	1	97	1	5	1	2
OTU 74	5	0	5	1	0	2	1	0	0	4	0	0	0	3	1	0	0	3	0	0	3	2	1	0	2	0	0	0	0	36	1	4	5	0	0	0	3	0	0	6	5	1	7	2	2	0	0	11	3	0
OTU 75	1	0	0	0	0	1	4	34	0	38	2	10	0	0	0	0	0	0	1	0	19	43	0	0	0	0	1	8	34	18	0	4	2	3	0	0	0	0	0	4	26	0	0	1	4	0	4	0	0	0
OTU 76	0	1	0	0	0	0	0	1	0	0	0	0	1	0	0	0	0	0	0	2	0	0	0	0	0	0	0	0	0	0	2	0	0	1	0	0	3	0	0	0	0	0	0	4	0	1	0	0	0	0
OTU 77	1	0	1	0	0	0	47	4	0	8	3	4	0	1	0	0	1	0	1	0	1	0	0	0	1	0	0	0	1	0	0	0	0	0	1	0	1	0	0	4	8	1	0	0	0	11	2	0	0	3
OTU 78	3	5	3	0	1	0	2	1	0	3	11	5	5	4	1	2	3	2	0	2	0	1	3	2	2	0	1	1	3	0	3	4	2	4	0	0	2	5	6	1	1	1	0	2	2	0	1	5	1	2
OTU 79	6	8	0	3	5	3	4	6	1	4	2	4	6	19	3	7	10	2	1	5	3	3	1	7	4	1	12	1	3	1	3	3	3	7	0	1	9	1	1	12	7	0	8	13	3	2	0	1	22	8
OTU 80	2	0	0	0	0	0	0	0	1	1	1	0	168	10	0	1	1	2	0	3	2	3	3	0	7	1	0	2	0	1	2	1	1	0	0	0	1	1	0	6	2	0	1	4	0	4	3	0	0	0
OTU 81	1	0	2	2	0	0	2	1	0	0	3	0	2	17	0	0	13	0	1	1	0	0	2	1	3	3	0	2	0	0	6	7	1	4	5	0	4	7	0	3	1	1	2	0	0	0	5	1	9	4
OTU 82	2	2	1	6	1	0	0	1	0	0	2	1	0	0	4	5	0	4	2	0	0	0	0	3	0	0	17	2	0	0	0	0	0	1	2	0	1	14	1	0	1	0	2	0	1	0	0	0	2	5
OTU 83	0	0	0	0	0	0	2	0	0	0	0	0	0	3	0	0	0	0	1	0	1	2	0	0	0	0	0	0	0	0	0	0	6	0	0	0	0	0	0	0	2	0	0	0	0	0	0	3	2	0
OTU 84	0	0	6	3	6	3	0	1	0	0	6	0	7	4	1	0	2	3	0	0	0	0	0	11	0	5	0	0	0	0	5	0	0	0	1	1	0	0	0	3	0	0	0	0	0	7	0	3	6	0
OTU 85	0	0	0	0	0	0	0	0	0	0	0	0	0	0	0	2	0	0	0	0	0	0	0	0	0	0	2	5	0	0	0	0	0	1	0	0	0	0	0	0	0	0	0	0	0	0	0	0	0	2
OTU 86	0	0	0	0	0	0	0	0	0	0	0	0	0	0	1	0	0	1	0	0	0	0	0	0	0	0	0	0	0	0	2	0	0	0	0	0	0	0	0	0	0	0	0	0	0	0	0	0	0	0
OTU 87	0	0	0	0	0	0	0	10	0	0	0	0	0	0	0	0	0	0	1	0	0	0	0	0	0	0	0	0	0	0	0	0	0	0	0	0	0	2	0	0	0	0	0	0	0	0	0	1	0	2
OTU 88	0	0	1	0	0	1	0	0	0	0	1	0	0	0	0	0	0	3	0	0	0	0	0	0	0	2	0	0	0	0	0	0	0	1	0	1	0	0	0	0	0	0	0	0	0	0	0	1	6	0
OTU 89	63	0	0	1	0	0	0	0	0	0	2	0	0	0	0	1	44	0	0	4	0	0	0	1	0	1	4	1	0	0	0	0	0	1	0	1	2	0	0	0	9	0	1	1	0	0	1	0	2	0
OTU 90	0	0	0	0	0	1	0	0	0	1	0	0	1	0	0	0	0	0	0	0	0	0	0	0	0	0	0	0	3	0	0	0	0	0	0	0	0	0	0	0	0	0	0	0	0	0	0	0	0	0
OTU 91	0	0	0	0	0	0	0	0	0	0	0	0	0	0	0	0	0	0	0	0	0	0	0	0	0	0	0	0	0	0	0	0	0	0	0	0	0	0	0	0	3	0	0	0	0	0	0	0	0	0
OTU 92	0	3	0	0	0	0	0	0	0	1	0	0	0	0	0	0	1	0	0	0	1	0	1	0	0	0	0	0	0	1	0	0	0	0	0	0	0	0	1	0	1	0	0	1	0	0	0	0	0	0
OTU 93	0	0	0	0	0	0	1	4	0	3	0	0	0	0	0	0	0	1	0	1	0	0	0	0	0	2	0	0	0	1	0	2	0	0	0	0	0	0	0	0	0	0	0	0	0	0	0	0	0	0
OTU 94	2	4	3	0	0	13	1	0	0	0	4	0	0	0	0	3	0	0	10	4	0	5	0	0	0	0	0	0	0	1	2	1	0	0	0	2	7	5	3	7	0	0	21	3	0	4	2	2	8	0
OTU 95	0	0	1	1	0	0	0	78	0	0	3	0	0	0	0	0	0	0	0	0	0	0	0	0	0	0	0	0	0	0	0	0	0	0	0	0	0	0	0	0	3	0	0	0	0	0	0	0	0	0
OTU 96	0	0	0	0	0	0	0	0	0	0	0	0	0	0	0	0	0	0	0	0	0	0	0	0	1	0	0	0	0	0	0	0	2	0	0	0	0	0	0	1	0	0	0	0	0	1	0	0	0	0
OTU 97	0	0	0	0	0	0	0	0	0	0	0	9	0	0	0	0	2	0	0	0	0	0	0	0	0	0	0	0	0	0	0	0	0	0	0	0	13	0	0	0	0	0	0	0	0	14	0	0	0	0
OTU 98	0	0	0	0	0	0	0	0	0	0	0	0	0	0	0	0	0	0	0	0	0	0	0	0	0	7	0	0	0	1	1	9	0	4	1	0	0	1	0	0	1	0	0	0	0	0	0	3	0	0
OTU 99	0	3	0	0	0	3	2	0	1	0	0	0	1	4	6	1	6	1	3	5	0	0	0	0	1	1	1	1	0	0	1	7	4	4	5	0	0	2	1	3	0	0	4	3	0	4	2	1	0	0
OTU 100	1	2	0	0	0	0	1	9	0	9	0	1	0	0	0	0	0	0	0	0	1	2	3	0	0	1	0	1	5	4	0	0	1	0	0	3	4	0	0	0	2	0	0	1	1	1	1	0	4	0
OTU 101	0	0	0	0	0	0	0	0	0	1	0	0	0	0	0	0	0	0	0	0	0	0	0	0	1	0	0	0	0	0	1	0	0	0	0	0	0	0	0	0	0	0	0	0	0	0	0	0	0	0
OTU 102	1	0	0	1	0	0	0	0	0	0	0	1	0	0	1	0	0	0	0	0	0	0	0	0	0	0	0	0	0	0	0	0	0	0	0	0	0	0	0	0	4	1	1	1	0	0	0	0	0	0
OTU 103	0	0	0	2	0	1	0	0	0	2	0	1	3	4	0	0	2	1	2	0	0	0	0	0	0	2	0	1	0	0	0	2	0	1	0	1	0	9	0	0	0	0	0	0	0	0	0	0	2	0
OTU 104	2	0	0	0	2	3	6	2	0	5	10	1	2	0	7	1	0	3	0	0	0	3	0	5	1	2	3	5	2	2	9	2	4	0	2	40	1	1	2	1	0	75	0	1	13	3	56	1	0	1
OTU 105	0	0	0	0	0	0	0	0	0	0	3	0	0	10	0	0	7	0	0	1	0	0	0	0	2	3	0	0	0	0	0	5	0	2	0	0	0	0	0	4	0	0	2	0	0	0	0	0	0	0
OTU 106	0	0	0	0	0	0	0	0	0	0	0	1	0	0	0	0	0	0	0	0	0	0	0	0	0	0	0	0	0	0	0	0	9	0	0	0	0	0	0	0	0	0	0	0	0	0	0	0	1	0
OTU 107	1	2	21	0	1	1	1	3	20	1	0	1	1	0	0	0	0	0	0	4	2	3	7	1	1	5	0	0	0	0	0	1	0	0	0	0	0	0	0	0	1	0	0	13	0	0	0	0	0	3
OTU 108	1	12	0	10	1	0	0	2	0	1	0	0	0	0	0	10	2	1	2	0	0	0	1	1	4	0	3	0	0	0	0	1	10	0	3	2	0	9	12	5	0	6	0	5	0	0	2	4	2	0
OTU 109	0	0	0	0	0	0	0	0	0	0	0	0	0	0	0	0	0	0	0	0	0	0	0	0	0	0	0	0	0	0	0	0	0	0	0	0	0	0	0	0	0	0	0	0	0	0	0	0	0	0
OTU 110	4	4	0	0	0	0	0	3	0	4	0	2	0	1	5	0	1	3	0	3	4	7	0	0	2	1	0	0	0	0	0	0	0	0	1	0	3	1	1	1	1	0	0	0	1	1	0	3	2	0
OTU 111	0	7	2	0	0	0	0	0	0	0	0	0	0	0	0	0	0	0	1	0	0	0	0	0	0	0	0	0	0	0	0	1	0	0	0	0	0	0	3	1	0	0	0	0	0	0	0	0	0	0
OTU 112	0	6	3	1	0	4	0	0	1	1	0	0	1	0	0	0	0	0	8	0	0	0	0	0	1	0	1	0	0	0	0	0	0	42	2	1	0	1	0	0	0	0	2	0	0	2	0	0	0	0
OTU 113	0	0	0	0	0	0	0	0	0	0	0	0	0	0	0	0	0	0	4	0	1	1	0	0	1	0	0	0	0	0	0	0	1	0	0	0	0	0	0	0	0	1	0	0	0	0	0	0	0	0
OTU 114	1	1	0	4	0	5	4	1	57	4	2	0	1	2	1	1	1	1	2	0	0	0	30	2	8	0	5	1	8	0	0	3	0	1	0	2	1	1	1	1	4	0	6	2	1	1	0	7	0	4
OTU 115	3	7	5	1	1	1	1	4	2	3	0	1	0	2	1	2	0	0	0	7	0	2	1	3	1	0	3	1	1	7	1	2	3	1	3	6	4	1	6	0	1	4	0	1	33	2	13	4	4	1
OTU 116	2	1	0	0	0	0	7	1	0	0	1	1	0	0	1	1	0	0	0	0	0	0	0	2	3	3	0	0	1	1	19	4	8	1	0	1	6	0	2	0	0	1	1	7	0	0	2	0	6	0
OTU 117	1	0	4	0	1	1	0	2	1	3	0	0	0	0	2	0	0	0	35	1	0	0	0	2	0	0	1	0	0	0	6	0	0	0	0	0	1	0	0	0	1	0	0	1	1	0	1	0	0	0
OTU 118	1	0	0	0	0	0	0	0	0	0	0	0	0	1	0	0	0	0	0	0	0	0	1	0	0	0	0	0	0	0	0	0	0	0	1	0	0	1	0	0	0	0	0	0	0	0	0	0	0	0
OTU 119	0	0	1	1	0	2	0	0	7	0	0	0	1	0	2	0	1	1	3	0	0	0	1	6	12	0	1	4	0	0	3	2	8	2	3	8	2	0	0	2	0	0	0	0	1	1	0	0	3	4
OTU 120	0	1	0	0	0	4	0	0	0	0	0	0	2	0	0	0	0	1	0	0	0	0	0	0	1	0	1	4	0	0	0	0	2	1	0	0	2	0	1	2	0	0	1	0	1	1	1	0	0	0
OTU 121	58	2	2	1	1	1	0	0	3	0	3	0	0	0	1	0	0	0	0	0	3	1	0	2	1	0	2	3	0	1	0	0	2	8	66	0	0	0	2	6	0	0	2	0	0	1	1	1	0	1
OTU 122	3	1	0	3	0	6	1	0	0	0	3	4	0	2	0	0	0	0	1	2	3	2	2	0	1	0	0	3	0	0	3	2	0	0	5	4	2	10	22	0	0	4	6	2	0	0	1	0	0	0
OTU 123	1	77	27	10	91	10	1	2	16	2	9	0	2	5	1	21	5	1	6	110	1	1	6	0	2	7	14	1	53	8	3	3	52	2	3	4	5	6	37	2	4	0	5	102	2	4	2	42	9	8
OTU 124	0	0	0	0	1	0	0	0	0	1	0	2	2	0	2	2	0	0	0	0	1	0	0	0	0	0	0	0	1	0	2	0	1	0	0	0	0	0	0	1	0	0	1	0	1	0	4	0	0	0
OTU 125	22	11	0	7	4	5	14	3	7	6	1	3	4	3	13	3	1	13	6	7	3	3	0	9	17	10	6	5	6	1	9	48	6	22	0	6	2	8	7	6	1	3	9	3	0	7	3	2	10	4
OTU 126	2	2	0	0	0	0	0	0	0	10	0	3	0	0	2	4	0	0	0	0	3	3	0	6	0	0	1	0	1	2	0	0	1	0	0	0	0	0	5	0	6	0	0	0	1	0	1	0	0	0
OTU 127	1	0	8	1	2	0	3	1	1	1	0	0	0	0	2	0	0	2	1	0	0	0	0	2	8	24	4	0	0	0	0	36	0	0	0	1	0	0	0	0	0	0	0	0	0	0	0	0	3	20
OTU 128	1	29	4	6	1	10	2	2	4	11	1	36	4	6	4	16	4	0	10	4	22	52	2	1	5	4	20	4	4	1	4	2	50	3	57	3	6	2	16	0	5	0	27	2	6	5	2	8	4	11
OTU 129	0	0	2	0	0	1	0	32	0	0	0	0	0	0	0	0	0	0	0	0	0	0	1	0	2	0	0	0	0	0	0	0	0	0	0	0	5	1	0	0	0	0	1	0	0	0	0	0	0	0
OTU 130	0	1	0	7	0	0	2	0	0	4	0	1	0	8	2	0	1	0	3	0	29	94	0	1	0	1	0	0	1	2	0	4	0	9	0	3	2	2	0	18	0	1	0	0	1	0	8	0	1	6
OTU 131	1	2	4	0	0	2	1	0	1	1	0	0	2	0	0	0	3	3	1	0	0	0	0	0	84	0	0	1	1	0	3	4	0	3	0	5	1	1	3	6	1	0	4	0	0	1	13	4	1	1
OTU 132	0	0	0	0	0	0	0	0	0	0	1	0	0	0	1	0	0	3	6	0	0	0	0	0	0	0	0	0	0	0	0	0	0	4	3	0	0	1	0	0	0	0	0	0	0	0	0	1	0	1
OTU 133	0	0	0	1	0	1	0	0	0	0	0	1	0	2	0	0	0	0	0	0	0	0	0	0	0	0	0	0	0	0	1	0	1	0	0	0	0	0	0	6	0	0	0	0	0	0	0	0	0	0
OTU 134	0	1	1	0	0	3	0	0	1	1	0	3	1	0	1	0	0	0	0	0	2	0	0	1	7	0	1	3	0	1	0	0	0	0	0	0	0	0	1	0	1	2	1	0	2	1	0	0	0	0
OTU 135	5	2	0	0	0	0	1	0	0	1	0	0	1	0	0	0	0	1	1	2	0	0	0	0	2	1	0	2	0	0	10	0	0	1	7	0	2	0	1	1	0	1	0	1	0	0	0	1	0	1
OTU 136	0	4	0	1	0	0	0	0	0	0	2	0	0	0	0	1	0	0	0	0	1	1	0	0	1	10	3	0	0	101	0	15	0	0	5	0	2	5	2	0	0	1	0	0	0	0	0	0	2	0
OTU 137	0	0	0	0	0	0	0	2	0	10	0	0	6	1	1	0	0	2	1	1	0	0	0	0	0	8	2	0	4	0	1	13	0	4	0	0	0	2	0	0	0	0	0	1	0	0	0	0	2	1
OTU 138	1	0	0	0	1	0	0	0	0	0	2	0	0	0	0	0	0	5	1	0	0	0	0	0	0	0	0	4	0	0	2	0	0	0	2	0	0	0	0	0	0	1	0	0	0	0	2	0	1	0
OTU 139	9	6	53	3	14	19	0	11	17	11	4	1	7	1	57	4	142	29	13	24	0	1	15	24	3	1	10	6	7	1	4	2	7	0	3	1	0	6	2	0	7	0	20	46	1	1	7	1	23	1
OTU 140	3	3	1	1	3	1	2	3	1	2	7	3	1	34	5	1	8	2	4	2	0	1	4	11	6	2	1	7	0	0	19	0	2	0	0	0	17	3	2	0	1	0	1	1	1	21	1	0	0	1
OTU 141	0	0	0	0	0	0	0	0	0	0	0	0	0	0	0	0	0	0	0	0	0	0	0	0	2	0	0	0	0	0	0	0	0	0	0	0	0	0	0	0	1	0	0	0	0	0	0	0	0	0
OTU 142	0	0	0	0	0	0	0	0	0	0	0	0	0	0	0	0	0	0	0	0	0	0	0	0	2	0	0	0	0	0	0	0	0	0	0	0	1	0	0	0	0	0	0	0	0	3	0	0	0	0
OTU 143	0	0	0	0	0	0	0	0	0	0	0	0	0	1	0	0	0	1	0	0	0	0	1	0	0	0	0	0	0	1	0	0	0	5	1	0	0	0	0	0	2	0	0	0	0	0	0	0	0	5
OTU 144	0	0	0	0	0	0	0	0	0	0	0	0	0	0	0	0	0	0	0	0	0	0	0	0	0	0	0	2	0	0	0	2	0	0	1	0	0	0	0	0	0	0	0	0	0	0	0	0	2	0
OTU 145	2	0	1	2	0	8	1	0	0	4	1	0	1	12	0	0	3	0	0	4	4	2	1	0	1	0	1	1	4	0	9	1	0	2	0	2	2	4	0	0	0	0	2	0	0	1	0	0	0	1
OTU 146	3	0	0	0	1	2	0	0	1	0	0	0	0	0	0	0	2	0	1	0	0	0	0	1	2	0	4	5	4	1	0	0	0	0	1	1	1	1	0	3	1	0	0	1	11	0	7	1	9	1
OTU 147	0	1	0	0	0	0	0	0	0	0	0	0	0	4	0	2	2	0	2	0	0	0	1	0	1	0	0	0	0	0	0	0	6	1	2	0	0	0	0	0	0	0	0	0	0	0	1	0	2	0
OTU 148	0	0	1	5	0	0	0	0	1	0	0	96	0	2	8	1	1	5	0	3	0	0	0	3	3	3	1	0	0	1	1	0	6	1	3	0	1	11	0	26	0	3	0	0	3	0	10	4	1	0
OTU 149	1	1	0	0	0	0	0	1	2	0	0	1	1	0	0	0	1	1	0	0	0	0	0	1	2	2	0	0	74	0	0	0	0	0	1	1	0	0	0	0	3	0	0	0	0	0	0	0	0	1
OTU 150	1	0	0	0	0	0	3	0	0	0	0	0	0	0	0	1	0	0	1	0	0	0	0	0	0	2	1	1	0	2	2	1	0	0	4	1	0	2	0	0	0	0	0	0	1	2	0	1	0	0
OTU 151	0	1	2	0	1	0	0	0	0	0	0	1	0	0	2	0	0	0	12	0	0	0	0	4	0	0	0	3	0	0	2	0	11	0	0	0	0	3	0	0	0	58	0	0	1	0	0	0	0	2
OTU 152	0	4	3	1	1	0	0	3	0	2	1	0	3	3	5	4	0	1	0	0	0	0	0	5	0	0	15	0	1	0	3	2	0	1	3	1	0	1	0	1	6	0	0	0	3	1	0	2	0	0
OTU 153	0	0	0	0	0	0	0	0	0	0	0	0	0	0	0	0	0	0	0	0	0	0	0	0	0	0	0	0	0	0	0	0	0	0	0	0	0	0	0	0	0	0	0	0	0	0	0	0	0	0
OTU 154	0	0	1	32	0	0	0	1	0	0	1	0	0	0	0	0	0	0	0	0	0	0	0	0	0	0	0	0	0	0	0	0	0	1	0	0	0	0	0	0	0	0	0	0	0	0	0	0	6	1
OTU 155	0	0	2	3	0	0	7	0	0	4	6	1	0	1	0	0	0	0	1	1	0	0	0	0	0	0	0	0	0	1	6	0	1	3	4	1	0	5	0	5	0	0	0	2	0	0	0	0	0	2
OTU 156	2	0	0	1	0	0	0	3	2	0	0	0	0	2	1	0	0	0	2	1	1	2	0	0	4	3	1	0	0	1	8	2	5	1	1	3	3	1	0	2	1	2	0	0	2	4	0	0	4	0
OTU 157	0	0	0	0	2	2	0	1	0	0	0	0	1	0	7	0	0	1	0	0	0	0	1	4	2	0	0	0	0	0	0	1	1	0	3	1	0	0	0	0	0	0	0	0	0	0	0	1	17	2
OTU 158	0	0	0	0	0	0	0	0	0	0	0	0	0	0	0	0	0	0	0	0	0	0	0	0	0	0	0	0	0	0	0	0	0	0	0	0	0	0	0	0	0	0	0	0	0	0	0	1	0	0
OTU 159	0	0	2	0	0	0	0	0	0	0	0	0	1	0	0	49	1	2	0	0	0	0	0	1	1	0	0	5	0	2	4	1	5	0	1	0	0	0	0	6	0	0	0	0	2	0	1	0	1	0
OTU 160	9	10	4	8	1	1	2	0	3	5	10	4	10	2	3	2	3	1	0	0	0	2	2	1	12	6	1	0	1	0	11	28	6	15	5	0	0	3	3	4	4	2	0	8	1	4	7	3	6	9
OTU 161	0	0	0	1	2	0	0	1	0	5	0	0	0	0	4	0	0	0	1	4	123	1	0	1	0	1	0	2	1	1	0	0	3	1	8	0	0	4	0	0	0	0	2	2	0	1	1	0	0	0
OTU 162	3	1	1	0	0	0	0	6	1	7	0	0	0	0	2	0	1	0	1	0	5	6	0	2	3	1	1	3	4	2	0	1	0	0	1	0	0	1	0	0	6	0	0	5	0	2	0	0	0	4
OTU 163	0	0	0	0	0	0	0	0	0	0	0	0	0	0	0	0	0	0	0	0	0	0	0	0	0	0	0	0	0	0	0	0	0	0	0	0	0	0	0	0	0	0	0	0	0	0	0	0	0	0
OTU 164	0	0	0	0	0	0	0	0	0	0	0	0	0	0	0	0	0	0	0	0	0	0	0	0	0	0	0	0	0	0	0	0	0	0	0	0	0	0	0	0	1	0	0	0	0	0	0	0	0	0
OTU 165	0	1	0	0	0	0	1	0	0	0	0	0	1	2	0	1	0	0	3	0	0	0	0	0	0	0	0	0	0	0	0	2	0	1	0	0	2	0	0	0	1	0	0	3	0	2	1	0	1	2
OTU 166	0	0	0	0	0	0	0	0	0	0	0	0	0	0	0	0	0	0	0	0	0	0	0	0	0	0	0	0	0	0	0	0	0	0	0	0	0	0	0	0	0	1	0	0	0	0	0	0	0	0
OTU 167	0	1	0	0	0	0	0	5	0	4	0	0	0	0	0	0	0	1	0	0	0	0	0	0	2	0	2	1	2	0	0	0	0	3	2	0	0	0	1	0	1	0	0	1	2	0	0	0	0	0
OTU 168	3	1	0	0	3	1	13	0	0	3	0	0	2	0	9	126	0	1	2	1	0	0	0	1	0	2	1	1	0	2	19	0	3	0	3	0	0	0	0	3	3	0	1	3	1	1	4	8	1	0
OTU 169	0	1	0	0	0	1	0	0	0	0	0	0	0	0	0	0	0	0	1	0	0	0	0	0	0	0	0	0	0	0	0	0	0	0	0	0	0	0	0	0	1	0	6	0	0	0	0	0	0	3
OTU 170	0	0	0	0	0	0	0	0	0	0	2	0	0	0	0	0	0	0	0	0	0	0	0	0	0	0	0	0	0	0	0	1	0	0	0	0	0	0	0	0	0	0	0	0	0	0	0	0	0	0
OTU 171	1	0	13	0	0	0	0	0	10	0	0	0	0	1	0	0	0	0	0	9	0	0	1	0	1	9	3	1	0	2	1	12	1	0	0	0	2	0	0	3	0	0	4	2	0	8	0	2	1	0
OTU 172	0	0	0	0	0	0	0	0	0	0	0	0	0	0	0	0	0	0	0	0	0	0	0	0	0	0	0	0	0	0	0	0	2	0	0	0	0	0	0	0	0	0	0	0	0	0	0	0	0	0
OTU 173	0	0	0	2	0	0	0	0	0	0	0	0	0	0	0	0	0	0	0	0	2	1	0	2	0	7	0	0	1	0	0	8	0	0	0	1	0	0	0	0	0	0	1	0	1	0	1	0	0	1
OTU 174	8	0	0	2	6	0	92	3	0	2	0	2	5	0	16	0	0	9	0	0	0	0	1	5	0	0	0	7	1	2	0	0	3	1	2	0	0	0	0	0	1	0	0	0	0	0	0	0	1	0
OTU 175	0	0	0	0	0	0	0	0	0	1	4	0	0	0	0	0	1	0	0	0	2	1	0	0	0	0	1	6	0	1	3	0	0	1	0	0	1	0	0	0	0	0	0	1	0	0	0	0	0	0
OTU 176	0	2	0	0	0	0	0	2	0	5	0	0	0	0	1	0	0	0	5	1	23	40	0	0	1	2	1	0	4	0	6	0	2	1	0	0	2	3	2	6	1	0	1	4	3	5	6	3	17	4
OTU 177	2	0	3	0	0	2	1	2	4	0	7	4	1	0	1	1	0	0	2	4	0	0	1	0	2	0	1	0	0	1	0	5	0	0	0	0	4	2	0	2	2	1	0	0	0	1	3	1	0	2
OTU 178	0	0	0	1	0	0	0	0	0	0	0	0	0	5	0	0	6	4	0	0	0	0	0	0	2	0	0	0	0	0	0	0	4	1	0	2	0	0	0	1	0	0	4	2	0	3	0	0	2	0
OTU 179	0	0	0	1	0	1	0	0	0	0	0	0	0	0	0	0	8	0	0	0	0	0	0	0	0	0	0	0	0	0	0	0	10	5	0	0	0	0	0	0	0	0	2	0	3	0	0	0	2	0
OTU 180	0	7	2	5	1	4	4	1	1	1	82	5	2	6	5	38	3	4	2	3	0	0	1	4	25	1	65	0	1	2	4	4	6	12	2	20	10	11	1	7	0	2	10	0	27	4	9	3	11	22
OTU 181	0	2	0	1	0	2	0	1	0	0	7	1	0	0	0	0	0	2	2	2	0	0	0	0	0	0	0	2	0	0	0	0	0	1	0	0	0	0	4	0	0	0	6	0	0	0	0	0	7	0
OTU 182	0	0	1	0	0	0	0	1	0	5	0	0	0	0	0	0	2	0	0	0	0	0	1	0	0	0	2	0	1	0	0	0	0	0	0	0	40	0	0	0	0	0	0	0	0	0	0	1	0	0
OTU 183	2	0	0	0	0	0	1	2	1	4	0	1	0	0	0	0	0	0	2	1	0	1	0	0	1	145	0	0	4	2	0	0	3	1	0	0	2	0	0	0	1	0	0	1	0	0	6	3	1	0
OTU 184	0	0	0	0	0	5	0	0	0	0	0	0	0	0	0	0	0	0	0	0	0	0	0	2	0	0	0	0	0	0	0	1	0	0	0	0	1	0	0	0	0	0	0	0	1	0	0	2	0	0
OTU 185	0	0	0	2	0	2	0	2	0	0	4	2	0	5	1	1	11	0	0	0	3	6	1	0	1	0	1	17	0	0	0	0	0	3	2	2	2	0	0	1	0	0	16	0	0	8	3	10	0	2
OTU 186	0	0	0	2	0	0	0	0	0	0	0	0	0	0	0	0	0	0	0	1	0	0	0	0	0	0	0	2	0	0	5	0	0	0	0	0	0	2	0	0	0	0	0	2	0	2	0	0	0	0
OTU 187	5	0	1	2	0	7	0	0	4	0	2	0	1	2	1	1	3	0	2	5	1	1	0	0	1	1	3	3	1	0	6	1	5	1	11	2	0	3	2	8	2	1	3	1	0	3	0	1	4	1
OTU 188	0	2	93	0	0	1	1	0	45	0	0	4	3	2	6	1	1	0	1	31	1	0	26	0	3	0	0	2	0	0	8	1	0	0	0	0	1	3	0	2	2	2	4	53	0	1	5	1	4	3
OTU 189	2	1	0	1	0	6	1	0	26	0	4	0	0	1	3	0	0	2	0	0	2	8	11	2	0	0	0	1	0	0	7	3	2	2	2	0	1	2	0	0	1	1	7	5	0	0	1	4	0	2
OTU 190	0	1	0	1	0	10	0	0	0	0	1	0	0	0	0	0	0	0	5	1	3	0	0	0	0	2	0	0	0	0	0	0	0	0	1	1	0	4	2	0	0	0	41	0	0	4	0	0	0	0
OTU 191	5	0	1	0	0	0	0	1	0	2	0	0	0	4	1	7	1	0	8	1	0	0	0	0	2	1	13	0	0	0	1	4	0	29	1	1	1	0	0	0	1	0	2	0	10	0	2	0	0	0
OTU 192	1	5	3	0	0	2	2	15	3	2	8	2	0	0	3	1	0	2	0	3	0	0	0	0	2	4	0	1	0	0	0	1	3	0	0	0	6	0	2	13	2	1	0	0	1	18	1	2	11	5
OTU 193	0	1	0	3	1	2	2	1	0	1	0	6	0	1	0	0	0	0	1	0	1	0	0	0	1	2	0	0	2	2	7	3	0	11	4	2	1	4	0	0	1	8	1	4	0	0	1	0	3	1
OTU 194	0	1	0	3	0	1	0	0	0	0	0	0	0	0	0	1	1	0	0	0	2	2	0	0	0	1	1	0	1	0	0	1	0	0	0	1	0	2	1	0	2	1	1	0	2	1	0	1	0	0
OTU 195	1	0	0	2	0	1	1	1	0	0	1	0	0	1	0	1	0	0	5	1	0	0	0	0	1	1	4	0	34	0	0	0	1	1	0	0	3	0	0	1	0	0	0	0	0	0	0	0	0	1
OTU 196	0	0	0	0	0	0	1	0	0	0	5	3	2	2	0	0	4	0	0	19	0	0	0	0	0	0	0	0	0	14	1	1	2	0	2	0	0	1	1	0	16	8	1	0	0	4	0	3	0	4
OTU 197	4	8	4	2	0	0	0	0	2	0	52	0	0	3	1	0	2	4	2	1	1	0	0	0	3	0	0	1	0	1	2	2	4	5	0	3	0	8	2	3	3	4	6	0	30	0	7	0	4	5
OTU 198	0	0	3	0	0	0	0	0	2	0	0	0	0	0	0	0	2	0	0	5	0	1	1	0	0	0	0	2	0	0	0	0	2	0	0	0	0	1	0	0	0	0	0	0	0	0	0	2	0	0
OTU 199	0	0	1	0	0	0	1	0	1	0	0	0	0	0	1	0	0	0	0	1	1	1	0	0	0	0	0	0	0	0	2	0	0	0	0	0	2	1	0	0	1	0	3	0	1	0	0	0	0	0
OTU 200	0	5	0	2	0	2	0	2	0	11	0	0	2	1	2	1	0	1	0	1	0	0	0	0	4	0	2	0	0	0	0	0	1	1	0	0	0	6	1	0	0	1	0	7	0	0	1	1	4	1
