	Host 1	Host 2	Host 3	Host 4	Host 5	Host 6	Host 7	Host 8	Host 9	Host 10	Host 11	Host 12	Host 13	Host 14	Host 15	Host 16	Host 17	Host 18	Host 19	Host 20	Host 21	Host 22	Host 23	Host 24	Host 25	Host 26	Host 27	Host 28	Host 29	Host 30	Host 31	Host 32	Host 33	Host 34	Host 35	Host 36	Host 37	Host 38	Host 39	Host 40	Host 41	Host 42	Host 43	Host 44	Host 45	Host 46	Host 47	Host 48	Host 49	Host 50	
OTU 1	7	50	219	70	104	0	0	9	69	92	0	5	17	54	98	99	2	54	58	84	16	2	39	7	5	0	80	137	109	94	50	18	15	67	4	50	6	54	5	57	144	23	0	2	13	0	38	0	88	12
OTU 2	144	10	86	75	35	3	6	17	1	7	4	52	3	0	1	0	43	12	14	0	3	4	5	928	43	168	68	0	45	0	0	4	122	11	20	49	8	0	2	0	849	19	11	12	178	9	0	21	355	14
OTU 3	0	31	0	0	1	113	0	3	22	3	9	16	0	0	0	4	1	0	0	0	0	0	0	39	1	7	4	17	6	0	3	0	0	23	27	0	1	23	1	0	0	0	0	4	0	0	0	6	0	0
OTU 4	0	0	0	0	0	3	0	0	7	0	0	0	0	0	0	0	0	0	0	0	0	0	0	0	0	0	0	0	0	0	0	0	0	0	0	0	0	0	0	0	0	3	0	0	0	0	0	0	0	1
OTU 5	496	848	10	72	1	721	406	117	361	376	481	316	1740	1737	342	534	826	135	349	892	1	222	377	191	5	108	84	47	795	139	475	90	116	143	219	0	0	86	377	563	20	68	551	0	3	876	534	66	331	43
OTU 6	55	110	2	40	0	9	10	115	50	5	1	0	36	4	65	0	2	11	0	39	43	26	99	14	7	117	125	0	102	59	4	72	36	28	31	3	11	18	14	18	985	20	795	7	9	117	17	13	513	5
OTU 7	167	19	139	62	29	9	167	108	19	44	72	19	99	24	5	8	523	84	66	2	53	28	28	34	74	86	30	36	52	2	6	49	122	83	900	162	1632	101	22	43	21	563	97	61	94	14	110	28	5	294
OTU 8	15	48	2	2	2	48	9	25	15	52	77	11	76	2	16	7	31	9	32	30	20	67	1	110	117	32	21	35	18	8	6	30	236	65	2338	67	372	7	2444	18	25	74	50	95	19	8	36	161	12	50
OTU 9	8	1	32	5	5	3	6	5	21	38	0	22	0	6	8	0	32	1	8	4	134	9	0	36	24	22	0	1	58	4	0	0	2	2	2	0	16	5	5	3	14	0	14	2	32	42	6	27	3	0
OTU 10	0	2	1	5	0	25	0	13	5	61	0	13	5	0	0	0	44	2	57	9	0	4	13	16	349	6	4	21	0	0	0	1	15	7	656	34	8	0	0	0	11	355	1	2	0	4	0	0	7	187
OTU 11	30	1	10	13	5	5	30	74	70	12	30	14	61	13	16	51	29	66	82	18	31	69	12	48	47	0	21	77	13	5	19	2	34	0	0	28	69	63	13	5	0	19	35	60	265	72	8	9	1	10
OTU 12	9	12	0	12	3	62	10	94	14	16	18	2	10	50	33	9	68	78	12	40	83	5	3	28	3	5	45	43	39	20	5	11	51	4	31	0	84	43	37	2	8	12	100	6	15	74	12	29	6	5
OTU 13	0	1	1	1	0	42	0	0	0	0	0	6	0	0	0	0	1	0	0	0	0	0	0	0	65	4	0	0	0	0	0	4	0	0	26	0	0	0	0	0	0	0	0	0	1	12	0	0	0	0
OTU 14	1	0	0	3	4	36	6	0	1	2	0	2	0	1	0	1	33	14	0	0	104	145	14	6	0	47	7	77	6	2	2	3	0	20	19	0	2	6	0	0	1	24	12	72	0	3	1	0	0	9
OTU 15	0	0	0	0	0	0	0	0	1	0	4	2	1	10	0	20	0	90	0	52	0	0	0	0	0	0	0	4	0	0	3	0	1	6	2	2	0	0	0	56	0	225	0	4	0	0	0	0	0	115
OTU 16	0	0	0	0	0	0	0	0	0	0	0	0	0	0	0	0	0	0	0	0	0	0	0	0	0	0	0	0	0	0	0	0	0	0	0	0	0	0	0	0	0	0	0	0	0	0	0	0	0	0
OTU 17	0	6	34	4	37	23	27	0	25	0	37	6	0	4	0	0	7	10	33	2	103	0	23	4	206	25	72	1	2	6	0	0	6	2	0	3	54	6	4	2	75	30	5	3	33	0	17	39	49	17
OTU 18	0	27	12	168	20	180	67	13	7	30	28	190	34	8	44	33	6	45	24	9	4	18	12	56	3	155	31	1	41	41	21	20	18	0	1	60	67	3509	30	2	3	48	56	112	61	38	14	68	4	14
OTU 19	0	0	0	0	0	0	0	0	0	0	0	0	0	0	0	0	0	0	0	0	0	0	0	0	0	0	0	0	0	0	0	0	0	0	0	0	0	0	0	0	0	0	0	0	0	0	0	0	0	0
OTU 20	6	2	58	6	3	327	0	11	19	9	87	19	0	6	10	5	3	54	9	6	6	15	11	6	14	175	0	4	1	3	4	32	30	47	10	14	22	22	13	14	77	1	2	55	0	21	70	0	40	0
OTU 21	6	3	24	58	37	172	35	41	18	13	13	1	88	4	21	25	56	51	967	3	116	89	1	1	73	5	40	2	6	25	3201	13	131	0	10	4	21	1	40	6	73	7	61	4	22	35	50	14	37	4
OTU 22	25	0	2	23	9	6	8	39	10	2	83	50	113	16	10	66	54	185	28	10	7	153	49	3	0	56	26	134	4	15	10	0	0	2532	0	15	75	210	62	4	69	11	55	33	22	80	27	0	22	2
OTU 23	1	0	8	2	4	1	25	39	4	25	67	43	36	5	32	87	0	9	36	1	7	5	0	5	0	14	6	24	3	11	15	6	4	3	17	0	188	20	2	14	87	0	6	257	0	0	19	0	49	0
OTU 24	3	0	0	11	2	24	3	1	0	0	0	1	24	0	14	0	35	0	47	0	632	0	15	0	4	17	19	8	5	5	0	36	1	0	0	2	0	3	6	2	0	49	6	9	0	0	1	2	0	26
OTU 25	0	0	0	0	0	0	0	0	0	22	0	0	0	0	0	15	1	0	0	0	0	0	0	0	4	0	0	20	0	0	0	0	0	0	7	0	0	1	0	0	0	0	0	0	0	0	0	0	0	0
OTU 26	4	0	0	12	0	1	0	0	0	14	0	0	44	0	0	0	0	0	3	0	0	35	2	0	0	69	0	1	0	0	0	8	0	0	420	0	14	0	3	0	20	7	0	10	8	7	0	35	7	4
OTU 27	0	0	0	0	0	0	0	0	2	0	0	0	0	1	0	0	0	1	0	0	1	0	9	0	0	0	1	0	0	0	0	6	0	0	0	0	0	0	0	0	19	0	0	0	0	0	0	0	11	0
OTU 28	62	3	38	54	29	26	5	7	1	34	6	12	77	14	18	6	10	41	33	34	69	0	17	8	249	223	88	20	25	10	3	22	52	1	59	0	96	2	14	14	34	72	77	33	54	3	96	106	20	42
OTU 29	23	22	169	5	46	6	104	29	48	2	53	7	23	16	79	45	24	102	20	56	100	101	85	14	4	2	193	9	32	53	48	17	119	7	4	51	239	29	2	29	8	29	0	28	84	0	49	2	7	15
OTU 30	0	0	0	22	1	0	0	0	0	0	0	0	0	0	0	0	0	0	0	0	0	0	0	0	0	0	0	0	0	0	0	0	0	0	0	0	5	0	0	0	0	0	0	0	0	0	0	0	0	0
OTU 31	0	4	3	0	0	0	3	0	3	15	1	0	0	0	43	10	3	0	4	0	113	0	39	21	0	5	66	27	0	27	0	21	0	4	20	0	2	10	11	11	11	5	16	3	0	0	0	21	14	3
OTU 32	151	10	10	40	8	39	84	34	29	57	47	21	8	955	1339	13	6	11	52	89	27	129	535	95	8	52	1120	284	5	616	5	617	35	59	37	5	122	137	360	28	6	22	38	46	383	578	25	112	7	12
OTU 33	0	0	0	0	1	0	0	0	0	0	0	1	0	25	20	0	0	0	20	7	0	8	19	0	37	13	0	1	0	11	0	0	0	0	2	0	0	0	5	0	0	0	0	0	0	0	0	0	0	0
OTU 34	22	34	43	115	58	14	23	115	2	137	67	0	18	2	0	8	6	22	1	2	38	6	2	19	37	13	8	17	102	0	17	8	6	2	24	80	17	17	12	10	22	20	4	88	8	2	1	4	91	14
OTU 35	13	11	12	74	11	112	1	0	1	0	10	8	20	5	3	38	36	39	62	1	428	12	18	129	0	18	10	7	16	0	60	8	1090	3	0	0	65	7	176	0	137	1	11	106	30	458	109	24	92	0
OTU 36	2	19	39	15	12	38	0	138	3	11	34	10	2	62	40	38	0	42	6	8	55	7	6	8	129	72	24	92	26	14	4	6	21	1	23	1	40	3	153	22	10	78	177	0	0	89	33	55	11	40
OTU 37	62	0	0	43	0	2	0	0	0	1	0	6	0	0	63	1	0	0	0	0	13	0	11	32	78	62	31	2	0	25	3	16	0	0	4	0	0	0	0	1	0	0	9	7	90	0	112	13	0	0
OTU 38	5	0	2	33	7	122	1	98	17	7	35	0	21	0	0	20	43	84	1	2	1	47	1	14	5	50	0	214	4	0	3	6	81	0	11	15	2	8	0	2	8	40	43	447	112	3	30	8	16	23
OTU 39	10	0	0	0	0	0	27	4	1	0	0	0	12	0	0	3	0	1	0	0	13	14	3	0	0	0	1	0	8	0	0	2	6	0	0	32	0	0	14	0	8	0	2	2	0	0	16	145	0	0
OTU 40	42	1	59	6	10	40	132	87	20	108	6	7	79	3	34	60	91	10	6	0	244	24	1	46	149	79	9	566	8	13	44	0	15	17	2	31	109	8	823	9	15	78	0	34	72	1587	248	7	7	31
OTU 41	5	13	9	1	3	24	1030	67	0	94	81	90	52	51	78	3	12	98	22	35	44	3	12	0	0	19	10	89	5	44	14	20	0	4	16	13	71	10	3	73	36	37	3	24	24	20	85	0	7	20
OTU 42	0	20	0	242	0	17	17	0	14	1	0	0	10	0	2	46	1	0	0	0	0	2	2	1	15	0	14	66	54	4	3	0	0	8	0	0	0	0	5	0	0	26	1	0	57	0	5	0	0	12
OTU 43	0	0	11	0	0	0	0	0	3	0	4	0	0	0	0	0	0	0	0	0	0	0	0	0	0	0	0	0	0	0	0	0	0	0	0	0	0	0	0	0	0	0	0	0	0	0	0	25	0	0
OTU 44	0	0	0	1	7	0	0	0	36	14	174	0	4	1	0	6	1	239	0	3	23	3	3	1	0	0	0	4	25	0	0	14	0	0	19	2	12	0	0	2	0	0	0	0	1	0	3192	0	0	0
OTU 45	18	2178	136	68	108	87	46	40	1	37	7	7	28	0	10	1	7	9	10	13	30	53	5	14	47	19	30	10	141	23	3	5	105	22	2	118	56	2	26	2	25	9	76	85	94	41	17	111	7	5
OTU 46	597	27	42	429	25	28	12	112	20	28	22	75	135	27	27	107	1	135	62	43	8	102	11	46	121	183	12	48	32	17	74	12	46	3	23	95	0	38	6	36	0	59	8	17	1060	23	2	554	0	73
OTU 47	1	0	0	0	1	0	0	0	0	0	0	2	0	0	2	2	0	4	0	19	0	0	0	8	0	0	0	0	0	0	0	0	0	0	0	1	0	0	6	0	6	26	2	0	19	0	80	0	0	15
OTU 48	76	0	8	12	17	82	48	23	22	44	33	50	101	14	19	17	26	30	0	2	15	31	78	12	40	145	108	131	4	3	43	36	58	10	21	5	12	84	53	18	26	18	16	203	70	49	2	15	21	14
OTU 49	38	47	235	49	38	66	17	28	3	9	7	0	0	0	6	4	0	0	1	11	0	6	16	3053	14	0	31	74	116	0	0	2	47	0	3	50	11	3	85	6	0	0	0	0	32	115	4	0	0	0
OTU 50	60	1	43	182	10	154	0	10	28	111	2	7	55	2	6	25	1	36	1	44	326	46	7	154	63	99	32	47	3	6	42	30	7	37	48	12	6	10	6	1	319	40	129	278	6	6	23	28	157	23
OTU 51	27	13	3	0	0	0	49	67	84	1	41	1	13	48	40	21	12	158	33	65	3	0	12	7	34	116	21	72	19	32	9	19	6	57	485	17	100	0	20	16	6	334	0	102	43	11	77	38	4	178
OTU 52	15	23	64	31	28	71	2	46	285	55	32	2	111	101	53	7	18	172	8	177	171	203	1812	112	101	143	172	105	12	12	18	66	5	83	132	3	70	195	19	126	166	167	199	404	47	162	26	281	89	79
OTU 53	0	0	0	0	1	0	0	0	0	0	0	0	0	0	0	0	0	0	0	0	0	0	0	0	0	0	0	22	0	0	0	0	0	0	0	0	0	0	0	0	0	3	0	0	0	0	0	0	0	3
OTU 54	4	38	76	15	62	170	168	33	58	36	31	8	110	28	30	12	163	168	8	108	1	43	54	77	11	13	42	18	29	7	26	44	22	52	1	12	49	190	72	6	70	3	3	92	6	104	20	250	27	13
OTU 55	0	0	0	0	0	0	0	0	0	0	0	1	0	0	0	0	0	0	13	0	0	0	0	0	0	0	0	0	0	0	0	0	0	0	0	0	0	2	0	0	0	0	0	0	0	0	0	0	0	0
OTU 56	0	0	33	25	7	7	4	76	0	16	5	0	9	14	8	1	3	67	4	3	29	0	2	2	16	38	18	22	1	0	0	0	15	10	3	10	14	23	1	1	2	3	23	277	26	26	19	6	2	2
OTU 57	175	15	105	33	21	47	70	1	50	17	45	102	105	40	36	193	52	34	172	59	11	30	1396	154	165	85	73	229	16	25	134	29	199	39	59	27	106	8	30	3012	185	18	52	94	236	11	56	80	80	7
OTU 58	0	0	2	18	2	64	71	19	11	0	8	7	14	41	4	19	0	120	0	78	71	23	1	2	146	2	4	21	1	1	1	3	124	14	6	1	1	11	5	5	0	85	2	0	9	5	27	39	0	46
OTU 59	15	9	50	18	66	0	31	0	5	12	6	0	2	2	11	0	17	32	2	17	13	0	0	0	116	0	0	128	11	16	2	3	47	99	1	47	120	13	9	0	0	0	116	131	3	12	50	0	5	0
OTU 60	3	8	5	32	3	24	16	220	86	20	18	9	126	20	17	38	50	59	14	94	129	0	1	22	114	196	17	89	24	4	9	3	53	60	27	5	82	30	60	113	8	114	3	12	190	45	9	25	0	63
OTU 61	139	74	152	79	105	1020	146	82	20	153	30	41	7	14	2351	17	16	49	30	64	214	12	9	57	34	11	30	186	105	1050	1	1	19	2	54	177	119	21	6	1	14	75	22	137	143	25	38	12	28	45
OTU 62	0	8	27	1	2	5	8	7	0	13	1	7	0	0	0	14	1	0	0	0	0	61	0	0	19	80	0	0	0	0	1	6	47	0	0	0	4	0	1	0	52	0	0	97	1	1	4	24	42	0
OTU 63	0	40	30	2	25	2	24	0	16	14	0	0	10	2	27	0	69	2	0	1	0	26	0	127	58	2	3	0	28	11	1	353	0	3	3	58	0	384	0	2	0	0	4	1	0	33	15	1	0	0
OTU 64	120	19	53	21	55	91	5	124	87	31	37	36	29	124	13	75	133	277	112	150	206	54	23	46	13	80	26	12	9	12	20	39	76	26	8	48	132	182	1059	176	22	94	107	310	246	116	26	254	29	56
OTU 65	125	0	0	44	0	0	0	0	0	0	0	0	0	9	0	0	0	1	17	5	0	3	0	0	0	0	2	0	0	0	0	0	531	0	0	0	0	0	0	0	0	0	0	0	0	0	1	0	0	0
OTU 66	30	0	46	6	32	28	5	58	51	31	13	46	48	26	13	133	0	188	33	16	69	69	0	9	47	0	11	16	3	3	44	0	24	41	6	3	116	26	51	80	18	0	99	21	14	73	25	13	10	0
OTU 67	30	32	83	18	44	53	0	0	53	51	1758	1	92	14	12	19	17	46	30	30	5	22	0	21	12	36	1	27	72	1	11	0	20	42	12	21	61	6	3	10	1	67	10	12	4	0	4	7	1	28
OTU 68	54	6	45	2	30	0	32	9	8	0	34	0	6	13	32	49	0	31	45	46	47	0	1	11	87	0	0	0	35	5	10	6	0	17	12	22	3	0	11	0	4	4	5	1	46	2	0	4	2243	2
OTU 69	1	0	3	2	10	16	43	6	64	79	1	0	102	24	24	17	20	8	10	9	10	3	17	22	2	38	15	73	10	20	6	4	0	1777	32	4407	538	147	2	17	58	2	150	194	72	41	150	178	21	2
OTU 70	0	6	50	4	28	11	24	7	1	0	0	14	2	1	3	0	6	1	5	0	0	0	6	30	2	49	4	78	45	1	0	7	0	0	0	15	11	21	7	7	16	1	1	30	0	1	26	29	5	3
OTU 71	4	5	21	26	4	1	33	6	5	72	22	176	0	0	0	392	0	66	36	0	70	12	34	13	47	1	4	42	5	0	189	3	84	3	22	34	1	22	0	20	11	0	38	78	5	4	0	28	7	0
OTU 72	31	5	7	9	1	65	13	74	6	5	0	18	65	35	24	10	53	27	40	59	1	0	71	14	8	117	169	1	7	18	15	85	7	52	48	18	24	35	3	34	7	27	2	0	31	20	107	59	9	7
OTU 73	62	13	10	45	9	13	1	41	180	40	2	2	27	5	1	3	50	10	9	18	18	0	1	19	206	3	0	3	33	2	9	1	30	180	66	0	1	19	17	0	53	11	3	1	146	7	6	15	28	6
OTU 74	2	4	7	3	1	3	34	128	0	10	57	4428	70	1214	39	7	1	66	2	15	10	41	3	5	166	168	11	17	19	25	4	1	133	9	2	22	312	44	2	12	170	36	22	38	3	33	9	100	90	22
OTU 75	3	0	5	34	5	18	6	101	3	28	27	0	7	4	21	4	45	51	8	1	186	0	1084	83	548	22	79	90	11	9	3	135	46	15	23	8	125	42	119	7	25	0	30	58	20	136	75	11	8	0
OTU 76	11	4	4	14	0	0	33	2	3	4	0	1	0	1272	0	2	1	0	13	0	2	0	14	34	0	40	13	0	1	0	0	0	40	4	1	23	13	20	0	1	0	0	8	316	3	0	7	0	0	0
OTU 77	0	4	3	41	6	81	5	1	49	49	0	4	14	21	40	0	0	16	35	20	111	79	10	19	1	19	26	2107	25	27	13	11	14	3	36	0	68	8	23	24	59	33	50	57	6	29	0	102	33	14
OTU 78	26	36	17	162	6	117	42	77	97	1421	30	0	104	17	4	0	69	61	495	122	10	16	1	8	102	1	2	16	36	4	0	3	22	5	10	14	45	0	5	371	4	33	42	28	48	0	0	5	1	14
OTU 79	168	55	38	106	98	257	1109	945	124	45	74	17	266	636	86	46	350	92	98	1476	159	107	263	17	262	110	355	42	70	53	29	209	93	212	59	57	72	99	56	878	54	54	136	59	104	78	47	84	40	27
OTU 80	35	49	177	1	73	22	29	16	1429	64	5	4	61	10	103	12	13	32	8	5	279	30	157	80	34	15	325	14	62	4840	1	141	37	1655	5	26	15	53	145	10	72	17	82	80	144	164	43	36	33	5
OTU 81	27	53	167	32	37	141	89	44	25	202	80	26	32	20	56	4	6	98	26	58	224	49	116	45	71	17	250	182	79	48	4	117	1	28	17	115	81	29	102	25	14	46	7	2	158	123	58	18	22	25
OTU 82	73	2	8	51	4	7	0	40	0	9	0	0	1	1	1	0	8	5	80	1	44	8	7	3	28	70	13	20	3	0	0	3	3	50	23	2	25	27	1	16	43	130	16	136	36	0	72	16	29	75
OTU 83	7	12	88	1	38	0	0	0	0	26	8	31	5	0	31	0	13	6	0	0	4	15	58	15	41	0	34	0	25	6	1	26	70	0	0	8	5	40	0	31	4	0	3	0	15	1	0	0	0	0
OTU 84	40	2	0	19	0	2	2	104	0	13	1186	0	27	1	15	4	29	1564	6	1	5	0	27	2	6	84	24	26	3	24	0	40	0	9	36	6	10	4	0	0	26	31	3	1	13	0	68	0	3	15
OTU 85	31	0	11	2	23	0	26	3	2	0	5	0	141	7	2	12	0	2	23	0	0	1	4	30	0	0	29	3	0	0	0	1	18	0	0	0	8	0	15	1	7	3	4	183	52	37	7	0	0	4
OTU 86	0	0	0	0	0	0	0	0	2	0	0	0	0	0	0	63	0	0	0	0	1	2	0	0	0	0	0	0	0	0	13	0	0	0	0	0	2	0	0	0	0	0	2	0	0	0	0	0	0	0
OTU 87	0	0	0	5	2	0	0	1	0	10	14	7	0	552	1	3	3	0	0	1140	18	0	0	1	0	0	0	31	11	0	0	0	0	0	815	0	0	5	0	468	0	659	107	0	1	0	12	0	6	340
OTU 88	0	0	0	0	0	2	0	0	0	0	0	0	0	0	12	2	0	31	0	0	0	1	0	0	1	45	0	1	6	3	0	11	0	0	0	0	0	33	1	0	2	0	0	0	0	0	23	0	2	0
OTU 89	24	22	57	0	1	16	6	16	23	9	1	0	0	6	0	30	1	0	0	2	12	2	0	33	82	9	9	1	25	0	13	15	6	2	0	2	24	53	19	0	12	4	68	0	76	32	30	72	3	3
OTU 90	3	1	0	0	0	0	7	16	1	20	7	0	1	1	0	30	0	0	15	0	0	2	1	0	0	9	4	0	0	0	2	0	0	1	0	1	25	0	0	2	0	0	0	1	0	0	1	0	0	0
OTU 91	0	0	23	0	0	0	0	0	0	50	0	0	0	0	0	0	0	0	0	3	0	1113	0	9	1	0	0	0	0	0	0	2	0	0	0	0	0	590	0	2	0	0	7	0	0	0	0	1	0	0
OTU 92	21	4	28	3	24	3	36	0	10	0	0	3	0	1	1	8	9	1	2	0	0	3	0	0	61	5	0	0	5	0	8	0	16	0	4	30	0	0	2	1	1	2	0	5	0	0	10	0	0	1
OTU 93	16	0	0	0	0	0	0	0	5	0	0	6	5	0	0	0	0	7	17	27	1	5	0	0	1	19	4	3	0	6	0	0	0	1	0	0	2	0	0	0	0	0	0	0	0	0	0	0	0	0
OTU 94	225	62	319	78	182	80	128	87	387	73	128	1	37	20	35	14	51	35	19	52	225	104	16	5	87	272	71	12	176	5	11	24	27	261	5	160	92	17	9	11	10	22	3	23	77	17	81	35	5	10
OTU 95	0	0	16	0	3	0	4	0	0	1404	1058	0	0	0	0	6	18	3	25	0	41	0	0	0	203	33	0	3	0	0	2	0	0	0	0	10	0	30	3	12	0	23	4	0	0	4	26	1	0	10
OTU 96	0	0	0	0	0	0	0	3	1	1	3	0	0	13	0	0	0	0	1	0	0	0	0	0	0	0	0	0	3	0	4	0	404	13	0	0	0	0	0	0	0	0	2	0	0	0	0	0	0	0
OTU 97	0	3	0	0	0	0	0	3	0	20	0	23	1	0	165	36	0	0	39	0	3	0	1	0	4	0	0	0	0	122	27	4	0	0	0	0	0	0	0	0	32	0	0	0	1	0	0	0	8	0
OTU 98	14	11	3	27	6	0	1	1	2	1	6	0	0	6	107	4	0	3	0	7	0	0	15	19	7	0	48	1	0	31	0	101	265	0	1	15	18	12	0	1	1	10	0	1	34	16	0	1	2	2
OTU 99	32	5	47	87	18	103	9	6	49	2	24	12	82	57	40	25	9	36	6	69	69	159	45	13	8	69	98	108	19	28	12	56	243	23	190	46	43	6	27	5	55	37	17	120	11	1	54	5	21	23
OTU 100	20	16	91	5	46	9	96	0	77	1	50	11	17	1	47	10	0	131	9	2	19	0	0	9	2	4	12	5	62	24	4	24	0	80	33	4	44	1	15	32	0	1189	4	0	0	22	3	1	0	523
OTU 101	0	0	1	3	8	0	1	1	0	0	0	0	0	1	1	0	18	0	22	0	0	0	0	0	0	16	1	0	0	0	9	0	0	1	15	0	0	0	0	0	0	24	0	0	0	0	13	0	0	14
OTU 102	1	4	108	0	26	26	9	27	9	15	2	0	7	1	50	0	810	4	0	5	0	1	13	0	0	12	22	0	24	21	0	12	0	52	0	37	18	32	0	1	9	0	0	0	25	9	0	0	0	0
OTU 103	42	3	3	8	0	18	1	0	44	43	0	5	0	5	3	11	7	9	0	2	9	44	1	0	0	0	9	2	0	0	1	3	22	35	12	2	5	14	10	0	36	15	5	40	13	6	86	10	28	4
OTU 104	2215	414	1762	11	903	1	828	172	6	11	138	9	166	17	45	26	13	365	51	30	97	7	36	105	17	275	101	18	835	16	7	1	245	44	905	701	87	54	20	7	169	10	81	8	207	25	55	20	92	1
OTU 105	6	0	24	12	0	2	30	0	0	0	4	0	3	0	6	21	0	0	3	0	0	0	60	0	9	79	91	22	2	0	3	95	0	0	0	29	0	0	0	0	0	0	9	0	0	1	45	4	0	0
OTU 106	44	3	189	0	85	28	114	9	126	0	0	0	11	0	34	1	3	0	0	0	1	9	51	0	18	0	27	76	28	29	2	10	0	31	0	76	0	2	2	0	19	32	23	307	109	0	3	0	12	16
OTU 107	16	0	4	0	0	28	0	1	0	1	13	0	1	23	0	3	3	0	1	54	33	1	1	0	142	3	10	0	0	0	2	1	709	4	16	4	0	0	0	35	10	0	27	0	1	0	1	641	17	0
OTU 108	0	6	1	4	3	24	0	9	0	0	8	5	0	0	28	0	221	3	0	13	0	7	47	21	2	59	39	3	0	52	5	21	5	0	0	10	26	0	1	7	4	37	0	21	56	15	13	10	2	18
OTU 109	0	4	10	0	5	0	0	0	0	0	0	0	0	0	0	0	0	0	0	1	3	0	0	0	0	0	0	0	32	0	0	0	0	0	0	12	0	0	0	0	0	0	0	0	0	0	0	0	1	0
OTU 110	81	2	12	27	5	28	22	20	8	69	1	45	140	36	45	2	42	7	13	42	2	5	43	227	65	28	99	25	16	12	9	48	23	0	4	1	83	49	28	52	131	45	5	15	41	96	10	12	77	27
OTU 111	9	0	0	0	0	190	0	0	0	0	0	0	5	5	1	0	0	0	0	3	15	100	2	0	0	0	0	0	0	0	0	0	0	0	0	0	0	16	0	0	1	0	3	0	0	0	0	3	0	0
OTU 112	0	0	5	16	1	8	12	9	0	50	30	29	29	4	0	0	2	72	0	1	11	36	0	2	0	29	1	270	11	0	10	3915	62	36	1	3	40	37	25	16	1	15	3	5	1	3	1	0	0	10
OTU 113	0	0	0	0	0	0	0	34	1	11	0	0	3	2	1	0	0	4	0	0	0	0	0	0	0	0	0	4	6	0	0	1	0	0	0	1	0	0	0	4	0	0	16	0	0	1	1	0	0	0
OTU 114	92	71	317	15	163	7	14	49	32	172	79	20	98	14	168	80	30	137	20	76	157	93	122	80	98	63	211	107	120	92	2	58	287	41	26	112	237	51	58	101	58	47	60	91	61	122	45	18	22	22
OTU 115	70	46	6	83	4	59	93	91	23	153	186	31	51	4	119	163	74	138	10	29	0	3	114	99	72	148	213	4	17	48	31	167	14	4	2	41	202	5	52	24	53	104	137	158	143	59	10	48	7	52
OTU 116	2	15	103	7	66	18	61	5	49	20	80	9	36	97	33	14	39	13	7	156	73	133	8	6	22	67	59	0	54	23	2	263	70	8	59	19	4	211	0	103	20	6	152	10	8	18	81	0	20	4
OTU 117	5	1	29	1	11	40	0	469	43	8	36	35	81	18	3	55	13	31	0	44	14	0	0	139	47	87	15	1	2	0	22	0	0	66	32	0	35	52	4	17	8	83	245	17	82	10	1	42	9	48
OTU 118	8	0	0	34	17	0	0	3	0	0	0	3	0	2	10	8	0	121	0	0	14	29	0	6	7	104	7	2	0	10	1	10	0	0	11	0	0	0	4	0	27	0	0	2	0	24	1	0	13	0
OTU 119	2	1	45	6	21	81	1	54	18	49	23	7	7	10	32	0	11	107	0	33	0	49	0	23	64	27	15	117	10	12	2	11	5	7	3	40	8	133	43	1	17	11	10	51	0	8	47	3	2	12
OTU 120	14	0	4	7	2	39	0	78	17	1	353	0	4	20	5	74	1	562	32	15	28	14	0	23	30	0	10	0	0	13	17	2	128	38	0	0	26	0	3	0	3	1	78	14	19	1	0	0	0	0
OTU 121	13	22	56	69	21	0	5	1	41	2	1	27	0	5	129	3	120	12	8	17	0	4	4	7	66	124	6	32	42	105	4	49	1	7	24	3	9	0	5	7	4	11	1	70	4	56	14	23	8	3
OTU 122	0	5	91	10	55	34	99	29	5	43	45	10	0	5	0	33	21	90	4	0	2	8	32	1	17	6	2	2	19	0	28	10	174	72	14	18	19	0	18	18	36	6	5	196	3	8	14	0	19	1
OTU 123	309	102	374	181	4979	20	371	198	1442	207	130	155	22	289	121	115	82	377	47	229	323	306	157	210	91	75	288	172	214	52	901	49	161	146	141	131	36	611	517	167	190	115	161	191	311	1101	338	361	78	36
OTU 124	0	2	6	5	0	0	0	84	0	20	29	0	0	0	1	0	5	37	13	0	23	0	0	49	0	15	0	8	1	0	7	0	0	56	0	8	41	10	6	0	0	2	0	0	2	21	3	0	0	0
OTU 125	88	23	213	40	89	142	22	198	67	747	97	69	555	20	33	44	603	25	98	44	137	26	39	61	84	91	70	250	68	19	11	27	84	80	72	337	131	36	123	23	79	146	317	88	205	39	76	61	36	62
OTU 126	0	339	0	0	0	0	0	17	1	0	15	0	0	0	25	0	0	0	0	0	0	25	26	0	0	108	72	0	783	5	3	26	0	0	0	0	0	164	0	0	0	20	0	1	0	0	0	0	0	14
OTU 127	18	2	22	28	1	0	8	15	15	1	0	0	74	5	9	7	10	0	2467	41	147	0	21	43	8	58	35	52	1	29	13	24	62	27	23	1	0	5	0	5	0	0	38	0	0	61	0	18	0	0
OTU 128	326	204	481	207	199	301	1549	197	95	520	67	78	191	733	917	115	83	143	50	1425	354	69	332	175	357	198	650	275	334	432	95	276	160	14	31	350	216	33	258	705	314	2294	89	73	732	607	134	101	154	1130
OTU 129	1	0	0	5	0	0	4	0	16	3	0	1	0	1	12	0	51	9	0	0	0	87	5	0	1	0	65	0	0	11	1	25	0	0	0	4	5	0	14	0	0	0	0	4	5	12	0	0	0	0
OTU 130	4	17	0	13	0	30	0	2	1	0	15	1	152	0	51	3	4	18	8	3	1	1	29	28	118	141	44	0	11	21	1	10	19	3	11	0	1	1	8	22	6	4	15	62	104	58	0	5	1	1
OTU 131	5	4	0	2	0	0	7	168	1	20	164	3	98	13	61	5	25	565	9	18	3	21	37	27	51	138	15	3	10	34	8	28	89	10	20	1	103	10	28	3	0	0	2	43	0	25	24	1062	2	0
OTU 132	35	5	26	0	1	0	0	184	50	108	0	0	4	30	8	28	32	115	0	27	0	1	8	6	1	26	0	13	3	8	38	11	2	1	0	12	156	0	17	39	1	14	3	0	179	1	20	0	0	5
OTU 133	4	0	0	0	0	2	0	0	0	0	0	0	24	0	0	0	2	0	0	0	0	52	0	0	1	0	0	35	0	77	0	0	18	0	1	2	0	0	0	0	0	0	11	3	0	0	0	0	0	0
OTU 134	72	5	13	52	9	0	0	5	0	40	16	0	0	0	0	18	32	98	14	8	2	76	48	22	45	10	23	42	20	1	0	100	15	17	0	2	7	45	57	6	9	40	6	48	32	81	5	8	4	29
OTU 135	45	199	5	17	0	52	0	8	25	1	0	653	31	34	132	1202	494	3	989	69	1	41	106	4	4	57	262	2	8	60	432	125	80	73	41	0	7	43	958	22	12	10	708	15	25	114	0	61	5	4
OTU 136	14	9	14	12	3	180	0	95	15	1	56	0	18	0	11	3	0	27	0	0	22	2	1	9	17	25	1	0	22	1	2	53	4	5	27	6	2	0	0	0	0	11	0	0	16	1	10	69	1	7
OTU 137	42	0	1	3	0	7	8	25	0	0	10	1	19	92	2	0	1	4	14	172	16	1792	4	2	15	0	5	0	5	1	3	0	0	1	1	3	0	0	10	80	0	28	0	0	14	0	3	3	0	20
OTU 138	3	9	57	23	16	19	43	1	3	175	3	10	0	0	7	34	6	0	0	0	19	0	38	20	12	35	46	34	0	6	5	0	8	15	0	12	5	15	25	7	0	9	0	5	0	0	344	68	0	1
OTU 139	87	94	478	123	195	78	112	103	26	78	21	16	22	112	51	102	26	106	20	159	129	13	52	14	503	665	119	137	198	31	201	52	86	0	111	106	84	36	16	177	6	153	2	124	135	9	49	66	12	84
OTU 140	91	17	27	42	28	126	11	31	27	107	42	21	93	8	444	24	79	21	17	38	68	165	299	100	36	314	722	20	9	266	19	379	23	54	51	5	7	18	42	32	32	165	184	710	140	287	200	86	20	55
OTU 141	0	0	0	0	0	0	0	0	0	29	0	0	0	0	0	0	0	0	0	0	0	0	0	0	20	0	0	1	0	0	0	0	0	0	0	0	0	0	0	0	0	0	0	0	0	0	0	0	0	0
OTU 142	0	0	1	0	0	0	0	0	0	0	0	0	6	8	0	0	0	0	0	3	1	0	2	26	11	3	0	0	0	0	0	0	0	0	0	2	0	0	0	33	2	0	0	59	0	0	1	0	0	0
OTU 143	0	0	0	7	0	40	6	7	0	1	0	1	6	0	4	0	0	0	1	0	0	0	38	0	4	0	56	0	7	0	17	7	8	0	0	0	0	1	32	12	4	24	0	32	4	15	0	7	1	10
OTU 144	2	48	74	3	23	17	80	3	134	0	1	1	6	17	0	9	0	4	0	64	0	18	0	0	0	0	0	6	47	0	4	0	0	12	0	59	0	0	20	1	2	3	11	0	0	12	4	0	3	1
OTU 145	31	42	36	5	12	46	71	135	146	25	7	34	0	4	0	4	59	33	82	3	2	142	4	54	94	125	16	21	42	0	9	1	158	42	30	12	27	10	61	15	82	48	39	72	106	36	24	157	2061	22
OTU 146	8	20	33	62	22	24	2	4	0	1	12	18	240	4	107	4	63	6	33	7	73	18	189	27	262	161	264	10	46	41	69	84	85	0	14	4	31	53	1	7	0	12	4	28	9	9	1	8	0	11
OTU 147	6	1	1	28	0	21	0	12	18	10	0	0	28	2	2	5	48	0	37	0	147	0	2	22	3	3	0	6	18	0	1	21	2	2	2	20	1	6	0	9	33	2	18	41	0	2	7	50	16	2
OTU 148	34	24	76	3	49	67	7	5	28	30	4	0	8	6	49	0	0	27	16	18	178	234	0	110	62	0	65	1	57	19	7	22	336	0	11	8	19	69	70	1	65	4	8	31	54	92	1	157	18	1
OTU 149	7	0	3	22	23	158	4	3	2	0	2	2	652	8	6	16	15	0	0	120	21	0	1	2	23	24	36	0	0	4	0	11	0	0	16	3	0	10	1	5	20	0	6	4	5	7	13	16	0	0
OTU 150	11	9	1	27	1	1	0	0	6	2	0	1	0	0	23	7	0	0	0	6	0	7	2	0	14	247	4	1	0	8	0	0	5	0	0	1	0	1	57	1	1	1	4	4	19	70	0	64	3	1
OTU 151	0	1096	56	53	3	4	9	8	0	0	1	1	17	0	13	11	0	3	0	9	5	5	0	0	76	0	0	47	2380	12	4	59	22	10	1	4	3	2	9	12	4	10	106	71	0	3	7	3	14	6
OTU 152	19	0	3	0	3	28	45	18	10	39	29	25	2	51	36	24	35	16	4	139	120	34	60	18	383	389	38	71	4	14	13	27	4	0	124	32	75	203	3	18	53	19	1	62	75	49	11	21	35	10
OTU 153	0	0	0	3	0	4	0	0	0	0	24	0	0	0	0	3	0	0	0	3	0	0	0	0	0	0	0	0	0	0	7	0	0	0	0	2	0	0	0	0	0	2	0	0	0	0	0	0	0	2
OTU 154	1	0	0	0	0	0	0	0	2	8	6	0	0	2	0	0	0	0	0	0	0	0	0	222	0	0	0	0	0	4	5	0	2	4	0	0	1	0	0	0	43	0	0	1	0	1	0	1	20	0
OTU 155	23	0	0	6	0	111	0	47	2	16	3	0	51	4	12	10	2230	4	2	8	0	14	2	14	4	1	0	21	0	16	10	1	2	0	0	4	0	3	0	1	27	19	20	49	9	0	6	2	7	13
OTU 156	3	40	109	11	131	74	69	498	60	101	77	6	121	22	7	16	98	24	18	90	91	27	5	67	77	156	6	31	26	6	17	3	10	4	3	53	44	23	30	0	11	14	21	34	77	35	23	20	7	10
OTU 157	0	0	1	138	6	28	0	31	0	8	39	0	1	5	4	0	1	7	34	18	0	31	32	0	0	135	40	0	0	14	6	71	56	6	21	2	37	0	7	0	13	4	1	0	0	0	18	0	7	1
OTU 158	0	4	35	0	7	6	21	0	0	0	0	0	37	0	0	0	38	0	0	0	0	0	0	0	0	0	0	0	30	0	0	0	0	2	0	1	0	0	0	0	0	0	68	0	0	57	0	0	0	0
OTU 159	0	3	0	2	3	17	13	33	8	0	92	3	101	3	0	10	10	54	1	5	7	3	0	2	30	96	1	20	13	0	10	0	70	4	21	37	583	34	40	0	2	34	58	0	13	10	30	1157	5	17
OTU 160	86	48	235	7	65	211	39	87	3	109	31	155	156	79	51	315	156	72	144	87	114	7	143	193	123	190	201	24	138	18	580	131	77	318	4	166	274	73	5	23	152	2	50	133	158	94	21	125	64	1
OTU 161	1	5	10	1	8	28	0	1	8	0	16	0	31	12	87	14	33	82	0	1	28	61	83	48	1	28	104	22	9	71	8	70	9	6	5	2	5	34	63	2	11	94	7	57	0	58	18	150	5	52
OTU 162	20	2102	34	60	8	105	50	319	5	48	66	1	111	0	13	64	2	121	35	0	68	26	18	17	50	157	67	68	16	4	4	10	8	2	0	1	2	1	8	20	20	28	69	22	11	4	29	27	4	18
OTU 163	0	0	19	0	0	0	0	2	0	0	0	0	33	0	0	0	0	0	0	0	3	0	2	0	4	0	0	0	0	0	0	0	0	0	1	0	2	2	0	3	0	1	0	0	0	0	0	1	0	0
OTU 164	1	0	0	0	0	0	0	0	0	0	0	20	0	0	0	89	0	0	0	0	0	0	11	2	24	0	0	0	0	0	4	0	1	0	0	0	0	5	0	0	0	0	3	0	0	0	0	4	0	0
OTU 165	2	1	1	0	12	13	10	45	6	71	16	10	6	4	2	0	51	5	2	2	268	15	0	4	8	11	4	2	1	0	6	2	10	7	0	3	8	22	77	5	30	17	105	21	7	109	0	1	5	8
OTU 166	576	0	0	0	0	5	0	19	0	0	0	0	0	0	0	0	0	0	0	0	0	0	0	3	0	0	0	0	0	0	2	0	1	0	0	0	0	2	1	1	0	0	4	0	0	0	0	0	0	0
OTU 167	1	0	0	0	0	0	0	56	7	0	4	29	18	7	2	8	4	1	5	8	18	2	36	4	7	0	140	41	3	0	17	6	0	25	18	37	1	0	7	17	16	20	14	47	0	11	101	37	7	8
OTU 168	178	19	8	0	1	24	57	23	25	2	10	4	23	49	1	1	1	13	13	21	4	2	4	65	7	116	2	2	4	0	10	0	15	1	13	37	15	2	2	0	63	22	7	16	129	21	17	0	36	17
OTU 169	0	0	28	0	38	0	1	2	0	0	0	0	0	0	0	0	0	1	0	0	35	2	0	0	0	0	0	0	0	0	3	0	0	0	8	0	0	12	0	0	0	0	0	0	0	0	0	0	0	0
OTU 170	0	30	95	7	31	72	11	13	0	0	0	0	0	0	0	1	0	0	0	0	0	0	0	0	0	0	0	0	49	0	0	0	58	0	14	32	0	1	0	0	0	0	0	0	0	2	0	0	0	0
OTU 171	100	27	25	11	13	646	2	2	15	5	1	0	3	11	22	55	3	2	65	39	22	10	7	253	0	44	0	0	55	18	30	2	3	2	39	7	61	4	0	11	39	62	2	41	70	19	20	21	3	26
OTU 172	1	0	1	4	0	0	3	0	0	1	8	0	0	0	22	1	4	1	0	0	0	0	45	7	0	0	83	3	0	3	6	72	1	0	0	0	16	0	0	0	82	0	3	2	0	0	0	0	55	0
OTU 173	0	0	0	0	10	52	0	31	2	0	0	0	26	1	7	0	33	3	0	11	0	0	5	1	0	0	0	20	0	2	0	1	0	1	0	0	123	0	1	0	1	0	209	7	0	4	0	27	0	0
OTU 174	0	0	0	102	2	19	2	3	5	14	3	0	10	1	0	0	0	1	2	20	166	1	22	35	128	0	16	11	17	0	11	21	9	11	12	0	71	32	0	5	0	1	0	34	72	3	18	487	332	0
OTU 175	30	26	87	40	59	2	22	26	0	1	12	4	35	5	17	4	15	0	7	0	0	13	0	0	0	17	5	14	6	3	5	18	51	7	49	103	6	0	4	1	0	10	0	52	27	1	0	39	2	2
OTU 176	0	29	48	28	24	52	41	3	36	40	12	40	1	43	70	5	80	63	0	95	148	33	59	12	89	9	60	29	8	29	0	42	46	101	2	41	21	234	25	20	19	3	19	43	32	32	3	75	9	1
OTU 177	27	43	26	1	50	40	104	103	2	63	40	10	87	0	66	8	0	31	2	8	206	1	23	25	69	10	45	13	64	27	9	10	7	0	4	45	31	67	9	29	75	0	26	89	43	0	3	14	53	0
OTU 178	0	16	1	42	4	131	5	101	0	6	27	36	8	0	15	38	37	15	9	1	0	1	0	1	36	20	2	18	20	8	8	0	0	0	18	48	0	47	0	1012	42	8	24	64	0	0	43	11	4	4
OTU 179	11	5	1	0	22	161	0	60	3	2	4	2	13	12	0	37	4	5	18	1	10	76	5	0	1	22	5	11	0	1	27	0	65	12	3	12	10	22	7	19	0	9	0	24	2	13	3	96	2	5
OTU 180	31	257	42	92	15	110	75	94	184	32	42	21	88	101	71	35	111	158	14	152	73	34	5	110	81	151	36	470	473	36	34	34	108	98	65	21	88	46	82	74	72	250	93	68	105	68	375	104	39	119
OTU 181	0	0	30	0	62	88	3	402	39	86	11	1	2	5	112	9	125	11	2	0	126	43	14	11	37	38	29	0	8	53	4	106	2	26	14	16	40	0	0	4	30	35	7	74	75	24	1	0	2	14
OTU 182	0	0	10	0	0	0	0	0	0	0	0	0	0	0	0	0	0	0	0	0	0	0	0	0	0	0	0	0	0	2	0	0	0	2	0	0	0	0	0	0	3	3	0	0	1	0	0	0	0	1
OTU 183	0	7	9	111	8	30	3	32	0	293	35	1	51	0	104	40	1	0	62	0	179	460	38	30	24	1	145	77	11	61	34	62	49	15	19	25	0	44	1	0	0	21	42	0	34	37	3	148	0	13
OTU 184	0	22	74	14	75	51	109	0	2	8	4	0	0	11	0	17	13	5	10	18	0	4	0	91	2	4	0	8	33	0	3	0	72	2	42	54	58	2	1	29	11	39	0	0	70	18	17	61	9	19
OTU 185	61	1	9	27	2	1	13	24	2	54	94	103	0	218	18	197	4	25	694	361	79	23	4	11	158	56	1	41	7	1	120	4	89	0	65	58	74	39	1	137	22	18	40	177	89	23	23	91	19	10
OTU 186	1	4	102	22	53	20	74	65	9	0	0	1266	0	0	0	2507	1	0	1	2	25	2	12	22	9	17	0	100	5	0	1444	0	1	0	0	14	13	1	3	0	7	1	26	0	0	1	1	0	2	0
OTU 187	45	31	52	6	27	70	296	94	27	87	19	5	43	4	3	32	11	0	15	10	75	48	19	29	127	25	32	56	28	5	7	12	44	17	25	23	148	20	56	30	29	12	1768	103	167	121	191	37	20	165
OTU 188	52	7	36	54	30	198	64	27	1	9	65	103	3	27	66	268	25	14	4	17	32	41	19	104	67	115	101	81	16	41	118	21	22	19	28	28	31	55	2	2	229	22	19	17	3	2	27	50	105	4837
OTU 189	9	11	13	107	39	51	11	189	13	98	908	112	39	0	43	155	2	26	26	13	63	1240	41	39	69	10	43	132	15	10	91	8	77	16	13	42	54	35	4	6	4	31	54	4	42	33	4	16	0	9
OTU 190	0	8	70	0	44	0	0	0	0	0	0	0	832	19	34	3	0	0	93	0	5	0	0	0	0	0	0	0	58	23	0	0	5	0	0	23	0	1	0	1	2779	0	535	61	0	0	0	34	1343	0
OTU 191	79	22	34	140	11	49	140	201	0	4	1	25	3	0	22	37	57	8	6	15	135	129	31	4	8	2	19	53	21	14	14	7	0	10	94	32	48	0	6	14	2	30	29	1	382	12	586	6	0	13
OTU 192	12	19	157	1377	115	13	188	204	46	2	32	356	35	13	74	920	23	165	811	114	128	24	156	9	86	38	167	32	101	78	451	120	16	13	48	55	12	26	55	49	7	70	6	348	32	91	4	18	4	19
OTU 193	10	4	17	0	3	138	15	248	50	34	66	5	4	8	5	2	149	39	21	4	15	0	69	148	106	1	73	267	26	11	3	33	137	24	5	32	163	7	24	25	64	17	9	20	10	46	3	1	36	14
OTU 194	1	2	12	0	17	3	5	11	0	13	14	8	38	5	13	36	2	9	34	17	0	11	1	3	123	0	2	76	0	0	2	2	23	0	0	0	4	8	0	1	4	0	9	29	0	10	19	1	5	0
OTU 195	16	25	0	1	0	1	2	30	2450	0	1	98	29	0	10	13	37	13	1	0	18	0	13	34	10	5	53	21	16	15	4	83	99	17	3	1	8	0	33	1	0	1	8	0	178	23	32	104	2	0
OTU 196	39	0	27	59	23	0	58	1	15	0	16	1	30	15	2	2	21	4	5	59	3	61	116	0	86	66	18	94	11	1	0	21	26	18	17	25	14	0	3	0	38	18	18	21	31	8	8	138	23	6
OTU 197	822	62	47	0	27	46	0	141	23	292	22	81	218	33	113	3	22	70	16	60	56	54	38	230	67	102	157	2	90	46	9	54	163	41	148	19	44	28	53	11	31	38	55	218	124	49	13	15	21	18
OTU 198	6	20	219	0	99	0	15	17	11	0	4	0	0	4	0	1	6	9	0	0	0	0	4	0	89	129	0	4	43	0	6	3	14	0	2	174	0	0	1	0	1	2	0	0	1	0	33	0	0	3
OTU 199	54	0	0	3110	1	59	10	8	2	23	0	5	5	3	39	4	0	24	12	23	111	1	16	0	132	0	2	8	8	9	3	3	0	0	0	10	26	12	1	3	32	5	2	1	9	0	181	15	17	4
OTU 200	42	12	32	4	2	58	48	134	35	16	8	25	17	25	26	7	36	33	52	24	36	34	22	0	95	0	17	12	48	5	0	30	1	6	30	3	12	24	22	40	12	1	52	33	11	8	9	1	0	0
