	Host 1	Host 2	Host 3	Host 4	Host 5	Host 6	Host 7	Host 8	Host 9	Host 10	Host 11	Host 12	Host 13	Host 14	Host 15	Host 16	Host 17	Host 18	Host 19	Host 20	Host 21	Host 22	Host 23	Host 24	Host 25	Host 26	Host 27	Host 28	Host 29	Host 30	Host 31	Host 32	Host 33	Host 34	Host 35	Host 36	Host 37	Host 38	Host 39	Host 40	Host 41	Host 42	Host 43	Host 44	Host 45	Host 46	Host 47	Host 48	Host 49	Host 50	
OTU 1	2	6	4	2	3	2	7	0	8	24	3	0	2	3	24	3	12	0	5	0	9	4	4	4	2	1	5	4	0	1	0	4	0	4	9	7	0	1	12	3	12	0	8	0	2	2	11	0	0	13
OTU 2	0	0	2	0	0	0	2	0	3	1	0	4	0	0	0	0	0	6	3	0	1	0	0	1	0	0	1	0	0	0	5	0	0	0	0	0	0	0	0	0	2	0	0	0	0	0	2	0	0	0
OTU 3	0	0	0	0	1	0	3	0	0	2	0	0	2	0	2	0	11	2	3	0	0	0	0	10	0	0	2	0	1	0	0	0	0	0	0	2	0	0	1	1	0	0	0	2	0	0	0	0	0	0
OTU 4	0	0	0	0	0	0	0	0	0	0	0	0	0	0	0	0	0	0	0	0	0	0	0	0	0	0	0	0	0	0	0	0	0	0	0	0	0	0	0	0	0	0	0	0	0	0	0	0	0	0
OTU 5	24	21	3	9	23	26	24	19	1	21	16	8	6	2	21	8	10	5	22	5	8	11	36	5	0	15	9	9	22	26	5	11	3	23	47	0	0	2	0	69	0	3	8	36	9	8	35	9	0	18
OTU 6	1	0	2	1	0	0	0	4	0	0	0	3	4	1	1	0	4	1	0	5	0	0	0	0	1	5	2	0	0	8	0	0	0	0	1	0	1	0	0	1	0	0	17	1	2	0	0	0	4	0
OTU 7	1	2	0	0	6	6	2	6	5	0	1	8	7	1	0	1	1	1	17	2	3	1	2	3	3	0	2	1	1	0	22	2	0	2	1	2	5	6	1	3	1	0	1	2	1	0	4	129	1	2
OTU 8	7	0	4	0	4	31	2	0	40	1	0	8	4	2	0	0	4	0	7	1	8	1	2	2	5	0	3	0	29	2	1	5	3	9	3	140	53	4	10	0	0	3	3	4	0	34	1	0	2	1
OTU 9	0	0	0	1	0	0	0	0	2	0	0	0	0	0	0	0	5	0	3	0	0	1	8	1	0	0	0	0	1	2	0	0	0	0	3	0	0	13	0	0	0	0	0	4	1	0	0	0	0	0
OTU 10	7	0	0	0	0	2	0	0	0	4	2	2	0	1	0	7	0	0	0	0	0	0	1	0	0	5	0	0	4	0	0	0	0	1	0	0	3	2	0	0	0	55	0	0	0	0	0	0	19	4
OTU 11	1	3	0	1	1	6	2	0	0	2	2	0	0	0	0	0	2	7	0	2	0	1	1	3	0	1	1	1	1	1	0	0	0	5	3	1	3	5	0	0	3	0	3	1	1	1	0	1	1	0
OTU 12	0	0	2	0	0	4	2	2	1	0	0	0	5	1	2	0	2	0	3	3	5	1	0	0	0	0	0	0	1	0	2	3	0	3	0	0	1	0	0	2	0	3	1	0	1	2	12	0	6	0
OTU 13	0	0	0	0	0	0	0	0	0	0	1	0	1	0	0	0	0	0	0	0	0	0	2	0	0	0	0	2	0	0	0	0	0	0	1	1	0	0	0	0	0	0	0	0	0	0	0	0	0	0
OTU 14	0	0	0	0	3	0	0	0	2	0	0	0	0	0	0	0	0	0	0	2	0	0	0	0	1	17	0	0	0	0	0	0	2	0	0	0	0	0	0	1	0	5	0	0	0	1	0	1	3	0
OTU 15	0	0	0	0	0	0	0	0	0	0	0	0	2	0	0	0	0	1	0	0	0	0	3	0	0	0	0	0	0	0	0	0	0	0	0	0	0	0	0	0	0	5	0	0	0	0	0	0	0	0
OTU 16	0	0	0	0	0	0	0	0	0	0	0	0	0	0	0	0	0	0	0	0	1	0	0	0	0	0	0	0	0	3	0	0	0	0	0	0	0	0	0	0	0	0	0	0	0	0	0	0	0	0
OTU 17	0	0	2	0	1	0	0	6	0	2	0	0	4	3	1	0	0	0	0	0	5	0	0	3	0	1	1	0	0	0	0	0	1	1	2	0	0	0	0	0	0	0	1	0	0	1	1	0	11	0
OTU 18	1	0	0	3	2	17	8	3	7	1	0	3	0	1	2	0	2	1	3	3	1	0	2	15	5	0	2	0	0	7	3	1	4	9	4	81	13	2	6	1	0	2	0	14	4	14	0	2	2	0
OTU 19	0	0	0	0	0	0	0	0	0	0	0	0	0	0	0	0	0	0	0	0	0	0	0	0	0	0	0	0	0	0	0	0	0	0	0	0	0	0	0	0	0	0	0	0	0	0	0	0	0	0
OTU 20	5	75	0	3	6	0	1	0	3	4	0	0	0	5	0	0	1	0	1	0	0	0	0	2	0	1	0	1	5	3	3	1	0	1	0	1	8	0	3	0	0	1	0	0	0	7	2	40	3	0
OTU 21	0	2	7	4	7	0	0	3	3	0	0	0	0	0	0	1	0	0	1	6	0	7	1	2	0	2	1	0	2	0	0	0	0	0	1	1	0	2	9	0	1	2	0	5	6	1	0	1	1	0
OTU 22	7	0	0	0	0	0	1	0	1	0	2	1	10	0	2	1	0	2	0	7	4	1	2	14	52	2	0	0	0	1	0	4	0	0	4	0	0	1	0	3	1	5	0	4	150	2	0	0	0	0
OTU 23	1	0	0	0	0	1	3	1	0	0	0	0	0	0	0	1	0	0	2	1	0	0	0	0	0	0	0	0	2	0	0	1	1	2	0	8	0	0	0	0	3	0	1	0	1	0	0	0	2	0
OTU 24	1	1	0	1	0	0	0	0	0	0	0	0	1	1	0	0	3	0	0	0	1	0	3	0	0	8	0	0	0	0	0	0	2	2	0	0	0	3	0	0	0	0	0	0	0	6	1	0	6	0
OTU 25	0	0	0	0	0	0	0	0	0	0	0	0	1	0	0	0	0	0	6	0	0	0	0	0	0	0	0	0	0	0	0	0	0	0	0	0	0	0	0	0	0	0	0	0	0	0	0	0	0	0
OTU 26	1	0	1	0	0	0	0	0	0	0	0	0	0	0	0	0	3	0	1	0	0	0	0	0	0	0	0	0	0	0	0	0	0	0	1	0	0	1	0	0	2	0	0	1	0	0	0	0	0	0
OTU 27	0	0	0	0	0	0	0	0	0	0	0	0	0	0	0	0	0	0	0	0	0	0	0	0	0	0	0	0	2	0	0	0	0	0	0	0	0	0	0	0	0	0	0	0	0	0	0	0	0	0
OTU 28	3	0	0	2	1	1	0	2	0	1	0	0	4	5	20	1	1	2	0	2	3	0	1	4	0	1	0	0	2	1	16	0	1	1	0	3	1	3	2	5	0	4	0	1	0	1	1	1	0	0
OTU 29	5	0	0	0	1	3	0	2	3	0	0	0	3	0	5	1	1	1	1	0	1	1	0	0	2	3	0	0	2	0	0	0	2	3	0	0	2	2	1	1	2	2	1	4	0	2	2	1	0	0
OTU 30	0	0	0	0	0	0	0	0	0	0	0	0	0	0	0	0	0	0	0	0	0	0	0	0	0	0	0	0	0	0	0	0	0	0	0	0	0	0	0	0	0	0	0	0	0	0	0	0	0	0
OTU 31	9	2	0	1	0	0	0	0	0	0	0	5	0	0	0	0	8	0	10	1	0	2	0	0	1	10	0	0	0	6	2	0	0	0	0	0	0	0	2	0	3	0	0	2	1	2	0	1	2	0
OTU 32	0	0	1	55	0	1	0	0	3	0	2	3	1	1	0	1	8	0	1	0	2	10	3	1	2	2	0	2	3	0	3	1	0	1	2	0	1	2	6	0	10	2	2	1	0	1	2	0	1	0
OTU 33	0	0	0	1	0	0	0	0	2	0	0	0	0	0	0	0	0	0	0	0	0	0	1	0	0	0	0	0	0	0	1	0	2	0	0	0	0	0	0	1	0	0	0	0	0	0	0	0	0	0
OTU 34	40	0	0	0	2	0	1	3	0	1	0	2	0	7	2	0	2	3	0	2	4	11	54	1	1	0	5	0	17	0	13	0	0	0	0	0	0	0	0	0	16	2	1	1	3	1	1	0	0	0
OTU 35	1	3	1	6	0	0	0	0	3	0	1	11	1	0	1	0	4	1	1	1	2	0	0	3	6	2	0	1	0	0	3	3	0	0	1	0	0	0	6	1	0	0	0	0	1	1	4	0	2	0
OTU 36	2	3	0	0	0	0	0	0	17	1	0	0	1	3	0	0	0	0	2	0	2	0	1	1	0	0	0	0	1	3	2	1	1	0	1	3	3	0	0	3	0	1	0	3	0	14	2	0	0	0
OTU 37	2	0	0	0	0	0	0	0	0	0	0	0	0	0	0	0	0	2	1	0	1	0	0	0	1	0	0	0	0	0	0	0	0	0	1	0	0	2	0	1	0	1	0	0	0	1	58	0	0	0
OTU 38	0	1	0	0	1	1	0	0	0	3	0	2	3	3	0	0	1	0	1	0	0	9	0	2	0	1	0	0	1	0	0	0	10	0	2	0	4	3	1	0	18	0	0	3	0	1	0	0	4	0
OTU 39	0	0	2	0	0	1	0	2	0	1	0	0	0	0	0	0	0	2	0	0	0	0	0	0	0	0	0	0	0	0	0	0	0	0	0	3	0	0	0	0	0	0	0	0	0	0	0	0	0	0
OTU 40	3	0	1	1	0	8	0	2	0	0	0	0	11	11	0	0	4	0	0	0	2	1	2	3	0	8	3	0	5	11	5	1	1	1	4	1	0	2	1	0	1	0	4	0	2	1	0	0	3	0
OTU 41	0	1	0	0	0	0	1	0	0	0	0	0	4	6	0	0	1	0	2	0	0	0	1	2	3	1	0	0	0	0	4	0	0	0	0	0	0	1	4	0	0	0	1	8	0	0	0	2	2	0
OTU 42	0	1	0	0	0	0	0	0	0	0	0	1	0	0	2	1	0	0	0	0	1	1	1	0	0	0	2	0	0	4	0	0	0	0	0	0	0	0	0	0	1	0	0	0	0	0	0	0	1	0
OTU 43	0	0	0	2	0	0	0	1	0	0	0	0	0	0	0	0	0	0	0	0	0	0	0	0	0	0	0	0	0	0	0	0	0	0	0	0	0	0	0	0	0	0	0	0	0	0	0	0	0	0
OTU 44	2	0	0	0	0	0	30	1	0	0	0	0	0	0	0	0	0	0	0	0	0	0	0	0	0	0	3	0	0	0	0	0	0	0	0	0	0	0	0	1	0	0	0	1	2	0	0	0	0	0
OTU 45	4	0	0	4	7	3	3	0	1	0	0	0	2	2	120	1	0	3	13	23	2	1	0	5	0	2	0	2	0	4	0	1	0	0	2	3	2	2	2	0	0	1	2	0	3	0	0	0	8	5
OTU 46	7	2	0	1	4	0	2	3	0	1	1	8	2	1	0	1	2	6	3	0	0	7	2	0	0	0	0	0	1	5	15	1	2	0	2	0	1	9	0	8	3	0	1	0	0	0	0	0	4	1
OTU 47	0	0	0	0	0	0	4	0	0	0	0	0	0	0	1	0	1	0	0	0	0	0	0	3	0	0	0	0	0	0	0	0	0	0	0	7	0	0	0	0	2	0	0	0	0	0	0	0	0	0
OTU 48	4	0	7	2	4	0	0	4	0	0	6	3	3	1	3	9	6	0	11	2	0	0	4	1	2	3	9	0	0	1	0	0	0	0	2	1	0	0	0	3	3	1	0	2	0	1	0	0	2	0
OTU 49	7	0	0	0	0	0	0	0	0	0	2	2	0	2	0	1	0	2	0	0	0	2	0	1	9	2	0	0	0	0	6	0	0	1	0	0	1	0	1	38	2	0	0	1	0	0	0	0	0	1
OTU 50	1	0	0	3	4	1	1	0	4	1	0	0	0	2	7	2	2	22	12	0	0	91	0	7	2	0	2	0	0	7	5	0	0	0	2	1	5	1	0	0	2	3	0	0	1	7	0	0	11	0
OTU 51	2	10	0	1	7	0	0	7	0	0	0	0	1	0	0	0	0	0	0	0	1	0	0	8	0	1	5	0	3	0	0	0	0	0	90	3	0	0	1	0	0	0	8	2	3	0	0	4	2	0
OTU 52	5	1	2	3	1	0	1	1	0	1	20	2	4	1	0	40	3	1	0	3	73	4	32	4	0	0	0	0	1	6	5	31	6	5	8	4	3	51	0	2	9	6	1	3	4	6	39	0	1	0
OTU 53	0	0	0	0	0	0	0	0	0	0	0	0	0	0	0	0	12	0	0	0	0	0	0	0	0	0	0	0	0	0	0	0	0	0	0	0	0	0	0	1	0	0	0	0	0	0	0	0	1	0
OTU 54	0	1	4	0	1	6	7	69	12	0	0	3	2	34	2	2	3	3	5	2	0	5	0	5	0	3	0	1	1	1	0	1	2	5	1	2	3	0	0	7	5	12	1	4	6	0	0	1	2	1
OTU 55	0	0	0	0	0	0	0	0	0	0	0	0	0	0	0	0	0	0	0	0	0	0	0	0	0	0	0	0	0	0	0	0	0	0	0	0	0	0	0	0	0	0	0	0	0	1	0	0	0	0
OTU 56	1	0	0	0	0	0	1	0	0	0	2	0	2	0	0	0	0	0	0	0	0	0	0	0	0	0	0	0	0	0	0	0	0	0	1	0	0	0	0	0	0	2	0	0	0	0	0	0	0	0
OTU 57	29	1	13	5	7	5	11	3	6	61	1	5	5	22	1	0	5	4	3	11	0	1	0	12	0	5	5	46	0	1	18	1	5	3	0	2	7	2	1	1	5	0	9	4	13	4	0	0	12	19
OTU 58	0	0	0	1	0	2	0	0	0	0	1	0	1	3	0	0	2	6	0	0	0	0	0	7	0	4	0	0	1	1	2	0	0	4	0	1	8	1	0	30	0	1	101	0	0	1	0	0	0	0
OTU 59	0	1	0	5	1	0	4	1	3	13	2	0	0	0	3	1	0	2	1	151	1	0	0	6	0	3	1	3	0	0	2	1	2	0	0	0	0	1	6	0	0	0	3	0	0	2	0	1	0	3
OTU 60	1	0	7	2	1	0	0	0	0	0	0	1	0	23	0	0	1	2	1	0	1	1	4	2	1	45	2	0	0	9	1	2	0	1	5	1	0	5	2	0	1	2	0	4	1	3	3	0	1	2
OTU 61	5	2	7	2	1	0	8	9	1	2	0	29	0	2	0	1	1	3	11	12	1	2	8	1	0	0	5	4	4	7	1	0	8	0	7	1	2	32	1	2	1	0	3	0	5	2	2	0	0	2
OTU 62	3	0	0	0	0	0	0	0	0	0	0	0	0	3	2	0	0	2	3	0	0	0	0	0	0	2	0	77	0	2	0	0	0	1	0	0	1	0	0	2	0	0	0	0	0	3	0	0	0	176
OTU 63	0	0	1	0	0	0	1	1	0	1	1	1	0	1	0	1	0	0	2	2	0	0	1	2	0	0	0	0	0	0	2	0	0	0	0	0	0	2	0	1	4	2	0	1	0	0	0	0	4	0
OTU 64	2	0	6	0	4	1	1	2	3	0	0	0	5	2	4	2	5	5	2	2	1	0	0	1	0	4	9	0	1	3	1	0	3	0	1	2	3	0	0	19	4	1	0	0	7	0	102	2	2	0
OTU 65	0	0	0	0	0	0	0	0	0	0	0	0	0	0	0	0	0	0	0	0	0	0	0	0	0	0	5	0	0	0	0	0	0	0	0	0	0	0	0	0	0	1	0	0	1	0	0	0	0	0
OTU 66	3	1	0	1	1	0	0	1	2	0	1	0	0	4	1	4	4	7	0	0	2	0	0	0	3	2	0	1	1	1	0	2	0	1	1	0	1	2	3	7	2	3	0	3	4	0	1	2	1	0
OTU 67	1	0	1	0	0	5	0	1	1	0	0	0	0	2	0	0	5	0	2	0	1	0	0	0	0	0	7	0	1	2	0	0	1	0	0	1	0	0	0	1	0	100	0	0	8	0	0	0	1	0
OTU 68	0	0	0	0	0	2	1	5	1	0	0	0	0	0	0	0	1	0	0	1	1	0	0	0	0	0	0	0	0	0	1	0	0	2	0	0	3	0	1	2	0	0	1	4	1	0	0	0	0	0
OTU 69	2	1	5	0	0	1	4	7	1	0	0	0	1	0	1	0	12	9	7	0	0	3	11	0	0	0	3	4	0	1	3	31	1	0	1	2	0	38	2	10	0	1	0	0	3	2	0	0	1	0
OTU 70	0	1	0	0	3	0	0	0	0	30	0	0	1	0	0	0	0	0	1	0	1	1	0	3	0	0	0	4	1	4	3	0	0	0	1	0	1	4	2	3	5	0	0	0	0	0	0	0	0	13
OTU 71	0	0	0	0	2	4	0	0	0	1	0	0	2	2	0	0	0	3	0	0	1	0	0	4	0	0	0	100	0	0	0	0	0	3	0	2	0	0	0	0	1	0	0	3	1	0	0	1	0	0
OTU 72	7	2	0	5	0	0	2	0	1	0	0	5	6	0	0	2	0	0	1	1	9	10	1	6	3	1	2	0	0	1	2	0	1	0	0	0	1	0	2	1	20	3	4	1	2	1	5	0	0	0
OTU 73	0	0	2	0	0	3	0	4	9	0	0	0	1	9	0	0	6	0	1	0	0	1	0	2	1	0	2	1	0	0	2	0	2	0	0	0	4	2	2	0	0	0	0	0	1	125	2	0	0	0
OTU 74	0	1	0	0	0	1	0	0	0	0	1	4	3	0	1	4	0	0	2	1	2	0	0	1	0	2	1	0	0	10	0	0	0	0	6	0	97	0	5	1	0	0	0	7	0	0	0	0	4	0
OTU 75	0	0	3	0	0	1	0	2	1	75	1	0	5	0	0	3	1	1	0	0	1	0	4	0	0	5	4	24	48	2	6	0	6	2	0	2	3	0	0	1	0	1	0	1	2	0	1	0	2	32
OTU 76	0	0	0	0	0	0	0	0	0	0	0	0	0	0	0	0	0	1	7	0	0	0	0	0	0	0	0	0	0	0	0	0	1	1	0	0	0	0	0	0	0	3	0	0	0	1	0	1	1	0
OTU 77	8	1	1	3	9	1	1	0	1	3	0	3	2	0	2	0	0	2	2	0	0	1	0	7	0	0	0	0	0	1	1	0	1	0	0	0	1	0	4	0	1	1	2	1	2	0	0	1	2	2
OTU 78	2	30	3	3	34	0	18	0	8	4	0	0	52	7	12	1	0	0	1	1	0	0	56	33	1	3	3	0	0	4	1	1	0	0	0	16	1	1	0	1	2	1	0	0	2	2	0	15	0	4
OTU 79	6	1	17	7	12	38	7	21	6	2	3	2	23	1	7	5	11	4	9	2	2	2	1	22	12	0	5	5	9	4	2	0	1	4	6	3	0	1	5	6	7	2	4	4	9	3	1	1	7	7
OTU 80	5	1	0	0	0	4	2	0	0	0	0	2	2	1	0	0	6	0	0	0	1	7	0	4	1	1	0	0	4	1	3	0	3	7	0	1	1	2	0	0	5	1	0	8	1	2	1	1	2	0
OTU 81	0	2	0	1	0	0	1	3	7	0	99	0	4	36	0	0	3	5	0	6	0	1	4	1	3	0	2	0	2	4	6	2	0	2	0	1	3	1	0	7	1	0	0	1	4	0	0	2	5	0
OTU 82	1	1	0	0	0	4	0	0	1	0	1	0	2	1	2	2	0	9	5	1	2	0	0	1	0	1	39	0	6	2	0	0	2	5	0	0	5	5	1	1	1	5	1	0	2	1	1	0	1	0
OTU 83	0	0	0	0	0	0	0	0	0	0	0	0	0	0	0	0	0	0	0	0	0	0	0	0	0	0	0	0	0	0	0	0	0	0	0	1	0	0	0	2	1	1	0	0	0	0	0	0	0	0
OTU 84	0	1	2	0	0	0	11	0	0	1	0	0	4	0	1	0	0	1	0	0	0	0	0	3	0	0	0	0	0	0	0	0	1	0	1	0	4	4	0	0	0	0	0	2	1	1	0	1	0	0
OTU 85	0	1	0	1	0	0	0	1	2	0	0	0	0	0	0	0	0	0	0	2	0	0	0	0	2	0	0	1	5	10	0	0	0	0	0	0	0	0	0	0	1	0	0	0	1	0	0	0	0	0
OTU 86	0	0	0	0	0	0	0	0	0	0	0	0	0	2	0	1	0	0	0	0	0	0	0	0	0	0	0	3	0	0	0	0	0	0	0	0	0	0	0	0	0	0	0	0	0	0	0	0	0	0
OTU 87	0	0	0	0	3	0	2	2	0	1	0	0	1	5	0	1	0	0	0	2	1	0	0	0	0	0	1	0	0	0	0	0	0	0	0	0	3	0	1	0	0	1	2	0	0	0	0	0	0	1
OTU 88	0	0	0	0	0	0	0	0	0	0	0	0	0	0	0	0	0	0	0	0	0	0	0	0	0	0	0	0	0	0	0	0	0	0	0	0	1	0	0	0	0	0	0	0	0	0	0	0	0	0
OTU 89	0	1	0	0	0	0	0	0	7	0	0	1	0	0	0	1	0	0	0	3	0	0	0	0	0	0	0	0	1	10	0	0	0	0	0	2	2	0	4	0	0	0	1	0	0	0	0	5	0	0
OTU 90	0	0	0	3	0	0	0	0	9	1	0	0	2	0	0	0	0	0	0	1	0	0	0	0	0	0	0	0	2	0	0	0	0	0	0	0	0	1	0	0	0	0	0	0	0	0	0	0	0	0
OTU 91	0	0	0	0	0	0	0	0	0	0	0	0	0	0	0	0	0	0	0	0	0	0	0	0	0	0	0	0	0	0	0	0	0	0	0	0	0	0	0	0	0	0	0	1	0	0	0	0	0	0
OTU 92	0	0	0	0	0	0	0	0	0	0	0	0	0	1	1	0	0	0	0	0	0	0	0	1	0	1	0	0	0	0	0	0	0	0	0	2	0	0	0	0	0	1	0	0	0	0	0	0	5	0
OTU 93	0	0	0	0	0	0	0	0	0	0	1	0	0	0	0	0	0	7	0	0	0	0	0	0	0	0	0	0	2	1	0	0	0	0	0	0	0	0	2	0	0	1	0	0	0	0	1	0	0	0
OTU 94	5	2	1	0	0	0	2	0	1	0	0	10	1	1	0	1	0	7	8	0	2	3	1	3	3	5	0	2	2	0	4	1	6	0	2	1	1	3	3	5	1	0	32	5	0	2	0	3	3	0
OTU 95	0	0	0	2	0	0	0	0	0	0	0	0	0	0	0	0	0	0	2	0	0	0	0	0	0	0	0	0	0	0	0	0	0	1	0	0	0	0	0	0	0	0	0	0	0	0	0	0	1	0
OTU 96	0	0	0	0	0	0	0	2	0	0	0	1	0	0	0	0	0	0	0	0	0	0	0	0	0	0	0	0	0	0	0	0	0	1	0	0	1	0	0	0	0	1	0	0	2	0	0	0	0	0
OTU 97	0	0	0	0	0	0	0	0	42	0	0	2	0	7	0	0	0	0	4	0	0	0	0	0	0	0	0	0	2	0	0	0	0	0	1	0	0	0	0	0	0	0	0	4	0	15	0	0	0	0
OTU 98	0	1	0	0	0	0	0	0	0	0	7	0	0	0	0	18	0	0	0	0	18	0	1	0	2	0	0	0	0	1	2	5	0	5	0	0	0	0	2	0	0	0	1	0	0	0	6	2	0	0
OTU 99	3	5	0	7	3	2	1	1	4	0	0	1	5	3	0	4	0	5	6	0	3	0	1	2	2	1	0	0	4	5	2	1	0	0	0	3	1	4	0	0	1	0	21	2	0	6	1	3	3	0
OTU 100	2	0	0	3	0	1	0	1	0	0	0	0	1	0	0	0	3	0	4	0	1	1	0	0	0	0	0	0	0	6	0	0	3	0	3	1	0	0	0	0	0	1	0	1	1	0	0	0	5	0
OTU 101	0	0	2	0	0	0	2	0	0	0	0	0	0	0	0	0	0	0	0	0	0	0	0	0	0	1	0	0	0	0	0	0	0	1	0	0	0	1	0	0	0	0	0	0	0	0	0	0	0	0
OTU 102	0	0	0	0	82	0	0	0	1	0	0	0	1	0	0	0	0	1	0	0	0	0	0	0	0	0	0	0	0	0	0	0	1	0	0	0	0	1	0	2	0	0	0	0	0	0	0	0	0	0
OTU 103	0	0	0	0	2	0	0	0	0	0	0	0	5	0	1	0	0	0	0	0	0	0	0	2	0	0	0	0	0	0	0	1	0	0	4	0	1	7	0	0	0	5	0	0	0	0	0	0	0	1
OTU 104	2	0	0	3	0	3	2	1	2	0	1	2	1	1	0	4	4	1	1	5	1	3	0	2	0	5	1	0	1	0	5	2	2	3	0	0	8	2	0	4	3	0	0	2	0	1	0	0	2	0
OTU 105	0	0	0	0	0	0	0	0	1	0	0	0	0	1	1	0	1	0	0	0	4	0	2	0	0	1	0	0	1	0	0	0	0	0	1	0	0	0	1	2	1	0	0	1	0	0	1	0	3	0
OTU 106	0	0	0	0	0	0	0	4	0	1	0	1	3	0	0	1	0	0	0	2	0	0	0	0	0	0	0	0	1	0	0	0	2	0	0	0	0	0	0	0	0	0	0	5	1	0	0	0	0	0
OTU 107	0	4	0	76	0	1	0	0	0	0	0	15	0	0	0	1	0	0	0	0	2	0	3	0	0	0	1	0	0	0	0	3	0	0	0	5	1	0	8	0	2	1	0	1	1	0	0	1	1	0
OTU 108	0	22	0	0	0	1	0	2	0	0	0	1	0	0	0	2	3	1	2	3	0	1	14	0	0	0	9	0	2	0	0	0	0	0	1	0	0	13	0	0	1	1	0	1	4	1	0	9	1	1
OTU 109	0	0	0	0	0	0	0	0	0	0	0	0	0	0	0	0	0	0	0	0	0	0	0	0	0	0	0	0	0	0	0	0	0	0	0	0	0	0	0	0	0	0	0	0	0	0	0	0	0	0
OTU 110	0	0	0	0	0	0	2	0	0	0	0	0	0	0	0	1	4	7	4	2	2	0	0	5	1	3	0	0	2	18	10	2	1	0	0	1	0	0	0	0	1	3	0	6	0	0	0	1	0	1
OTU 111	0	0	0	0	0	0	0	0	1	0	0	0	0	0	0	0	0	0	1	0	0	0	1	0	0	0	0	0	2	0	0	0	0	0	0	3	0	0	0	0	0	8	2	0	0	0	0	0	1	0
OTU 112	3	0	1	1	0	1	0	0	0	2	0	0	1	0	2	0	0	4	0	0	0	0	0	2	0	0	0	1	0	5	0	0	0	69	0	0	0	0	4	0	0	0	1	1	1	0	0	0	0	0
OTU 113	0	0	2	0	1	0	0	0	0	0	0	0	0	0	0	0	5	0	0	1	0	0	0	0	0	0	0	0	0	0	0	0	0	0	0	0	0	0	0	0	0	0	0	0	1	0	0	0	0	0
OTU 114	0	15	4	1	3	5	0	2	1	0	1	1	0	0	5	0	2	0	0	2	3	0	0	0	4	0	6	0	0	2	6	0	0	1	2	1	0	1	7	2	3	0	1	2	1	1	2	4	0	1
OTU 115	1	0	1	2	1	5	1	2	5	0	5	2	5	3	1	8	6	1	1	0	0	1	6	0	4	2	0	0	1	5	1	1	9	8	3	0	4	2	7	0	3	0	0	2	2	0	3	0	4	0
OTU 116	0	0	0	1	0	0	0	0	3	0	5	6	0	0	2	1	0	0	6	4	0	31	0	0	5	3	2	0	4	4	23	0	6	0	4	3	4	0	4	2	57	0	0	0	5	0	1	12	1	0
OTU 117	2	0	0	2	7	0	1	0	0	3	1	1	3	4	0	0	0	0	1	1	1	0	0	0	0	0	0	0	0	5	6	0	2	0	1	3	0	2	0	0	0	0	0	0	0	0	1	0	0	2
OTU 118	0	0	0	2	0	1	0	0	0	0	0	0	0	0	0	0	0	0	0	0	0	75	0	0	0	0	0	0	1	0	0	1	0	0	1	0	0	1	0	0	0	0	0	0	0	0	1	0	2	0
OTU 119	3	0	1	2	1	0	0	0	2	0	2	3	0	0	0	1	0	50	3	0	0	0	1	2	5	0	0	0	0	3	5	0	0	1	1	1	0	3	8	1	0	1	0	3	1	0	0	0	1	0
OTU 120	0	0	0	0	1	0	3	0	0	0	0	6	3	0	0	1	0	0	0	0	0	0	0	0	0	0	0	5	0	0	0	0	2	0	2	6	0	0	0	0	0	3	0	0	0	0	1	0	0	8
OTU 121	0	0	0	0	8	1	2	0	1	1	0	4	0	0	1	0	2	0	11	5	0	2	0	0	0	4	0	1	0	3	0	0	1	2	0	3	2	0	0	1	4	3	2	0	0	1	0	0	0	0
OTU 122	3	0	2	1	0	0	0	0	0	0	0	1	0	1	0	0	0	0	1	0	0	0	2	1	0	1	1	0	0	12	0	1	0	0	0	0	1	10	0	2	0	1	0	0	0	0	0	0	0	2
OTU 123	6	90	4	0	3	1	3	6	3	0	4	1	6	18	3	6	4	6	2	4	1	2	7	4	4	3	7	7	3	11	8	11	83	2	22	3	8	4	4	0	10	3	4	0	1	12	0	45	26	2
OTU 124	0	0	0	0	0	0	0	0	0	1	0	0	0	0	0	2	0	0	2	0	0	0	0	0	0	0	0	0	0	0	0	0	0	0	0	0	0	0	7	0	0	0	0	3	0	0	0	0	0	0
OTU 125	12	8	3	32	2	11	4	3	1	3	3	7	12	6	24	4	1	4	11	0	21	16	1	3	23	0	3	1	1	9	4	57	4	34	2	4	1	1	35	1	35	4	2	14	3	0	6	4	10	2
OTU 126	0	2	0	0	0	0	0	0	0	13	0	0	1	0	9	0	0	0	0	0	0	0	0	0	0	0	0	3	0	1	0	1	0	0	0	0	0	0	0	0	0	0	0	0	0	0	0	0	0	2
OTU 127	7	1	0	5	0	0	1	0	3	0	0	7	5	0	0	0	0	0	1	1	0	0	0	2	1	1	0	0	0	0	0	79	0	0	0	0	3	0	7	0	0	0	0	0	0	1	0	0	0	1
OTU 128	14	20	0	5	0	8	3	12	1	1	15	6	0	8	1	27	3	7	6	0	39	2	22	7	4	4	28	0	2	2	21	16	94	3	1	4	10	6	2	1	14	2	34	7	1	3	19	14	3	0
OTU 129	0	0	0	0	0	2	0	0	0	1	0	0	0	0	2	0	0	0	0	0	0	0	0	0	0	0	0	0	0	0	0	0	0	0	0	0	0	0	0	0	0	1	0	0	0	1	0	0	0	0
OTU 130	4	2	0	1	2	7	1	1	0	2	0	4	0	0	1	1	19	6	0	6	0	0	11	4	1	98	0	0	1	1	1	0	2	1	0	0	0	14	4	31	0	0	0	0	3	1	0	1	0	0
OTU 131	0	11	1	1	18	0	1	0	3	0	70	0	2	0	1	125	2	2	0	0	0	0	0	2	128	0	0	0	0	1	1	1	0	1	0	0	0	4	2	5	1	0	6	1	0	3	0	30	6	0
OTU 132	0	0	0	0	0	4	0	3	1	0	0	0	4	1	0	0	2	0	0	27	1	0	5	0	1	4	0	0	0	7	0	1	0	0	0	0	0	3	1	0	0	2	0	0	0	0	2	0	0	0
OTU 133	0	0	0	0	0	0	0	0	0	0	0	0	0	2	0	0	0	0	0	0	0	0	1	0	0	0	0	0	0	1	0	0	0	0	0	0	0	0	0	0	0	0	0	0	0	1	0	0	0	0
OTU 134	3	1	1	0	0	0	0	6	1	4	0	4	3	0	0	0	0	0	5	0	2	0	1	1	1	0	3	1	4	0	0	1	0	0	4	2	1	0	0	0	0	0	0	0	6	0	2	1	0	0
OTU 135	2	4	0	0	8	1	0	2	1	1	0	1	5	1	5	1	2	1	0	2	2	1	0	1	0	0	0	0	0	2	6	0	1	0	0	0	1	2	0	0	0	3	0	0	0	0	0	1	0	0
OTU 136	2	0	0	8	0	2	0	0	0	1	0	0	0	1	0	0	6	1	0	0	0	0	3	1	0	0	1	0	1	3	0	32	1	0	1	0	0	2	1	0	2	0	0	0	0	0	0	0	4	0
OTU 137	0	1	0	0	0	0	1	0	0	0	17	0	3	0	0	41	0	1	0	0	59	0	1	0	1	0	0	0	0	1	0	33	0	0	1	0	0	0	6	0	1	0	0	0	1	0	29	0	0	0
OTU 138	1	0	1	0	1	0	0	1	0	1	0	0	1	0	1	0	0	0	0	0	0	0	0	0	0	4	0	0	0	0	1	0	0	3	0	0	1	3	1	0	0	0	0	0	3	0	0	0	0	1
OTU 139	0	2	3	4	0	3	0	1	3	33	1	8	0	3	30	2	9	1	5	0	6	2	1	0	4	0	1	12	4	0	5	1	6	0	4	0	12	0	7	0	5	18	24	0	3	1	0	3	25	17
OTU 140	22	0	130	5	8	11	1	0	13	6	0	13	8	10	0	3	1	0	42	1	2	3	1	0	1	4	2	1	11	2	36	0	2	1	2	0	17	4	1	1	4	1	0	12	0	7	1	0	2	1
OTU 141	0	0	0	0	0	0	0	0	0	0	0	0	0	0	0	0	0	0	0	0	0	0	2	0	0	0	0	0	0	1	0	0	0	0	0	0	0	0	0	0	0	0	0	0	0	0	0	0	0	0
OTU 142	0	0	0	0	0	0	0	2	0	0	0	0	0	0	0	0	0	1	0	0	0	0	0	0	0	0	0	0	0	0	0	0	0	0	0	1	2	0	0	0	0	0	0	0	0	0	0	0	0	0
OTU 143	0	1	0	0	0	0	0	0	0	1	0	0	0	0	0	0	0	0	2	0	0	0	0	0	0	0	0	0	0	0	0	0	0	6	0	0	0	0	0	0	0	2	0	0	0	2	0	1	0	0
OTU 144	0	0	0	0	1	0	0	0	0	0	0	0	0	0	0	0	0	0	0	0	0	0	0	0	0	0	0	0	0	0	0	1	4	0	4	0	0	0	0	0	1	1	0	0	0	0	0	0	0	0
OTU 145	2	0	7	0	2	0	0	3	5	1	1	0	5	12	0	0	13	0	1	1	0	0	0	6	1	4	2	0	6	1	1	0	1	4	3	0	0	0	0	1	3	1	1	5	3	0	0	0	1	0
OTU 146	2	0	0	3	1	1	0	14	0	1	0	0	1	3	0	0	0	0	1	0	0	1	0	0	2	0	0	0	3	0	1	1	0	0	43	1	0	2	1	1	2	4	1	1	0	0	1	0	0	1
OTU 147	1	0	0	2	1	0	0	3	0	1	0	2	4	3	0	1	0	0	0	1	0	1	0	0	0	3	0	0	1	0	2	0	5	0	6	0	0	0	0	0	0	2	0	0	0	0	0	0	0	1
OTU 148	4	0	0	1	3	0	2	7	0	0	0	53	1	1	2	2	45	5	4	1	1	0	3	5	1	0	1	0	0	0	1	0	0	0	1	0	0	1	3	17	0	0	1	0	2	1	1	0	1	0
OTU 149	1	0	0	1	0	0	0	0	0	0	0	1	0	0	0	0	0	0	1	0	0	0	0	0	0	4	0	0	1	5	0	0	0	0	3	0	0	0	6	0	1	0	0	0	0	0	0	0	5	0
OTU 150	0	0	0	1	1	0	0	1	0	0	0	1	0	0	0	0	0	0	0	0	4	0	0	0	1	1	0	0	0	0	1	0	0	0	0	0	3	3	0	0	0	0	0	0	1	1	0	0	0	0
OTU 151	0	0	0	1	0	0	0	0	1	0	0	0	0	0	0	0	0	0	0	4	0	2	0	0	0	2	0	0	0	0	0	0	36	0	0	0	0	0	0	0	1	0	0	6	2	0	1	0	0	0
OTU 152	5	0	7	0	0	1	1	4	0	1	1	2	0	4	0	0	0	0	0	2	2	1	1	2	0	3	2	1	1	0	4	1	2	0	1	0	0	0	5	1	1	0	0	1	4	1	0	0	0	2
OTU 153	0	0	0	0	0	0	0	0	0	0	0	0	0	0	0	0	0	0	1	0	0	0	0	0	0	1	0	0	0	0	0	0	0	0	0	0	0	0	0	0	0	0	0	0	0	0	0	0	0	0
OTU 154	0	0	0	0	0	0	0	0	0	0	0	0	0	0	0	0	1	0	0	0	0	0	0	0	0	0	0	0	1	1	0	0	0	0	0	0	0	0	0	0	0	2	0	0	0	0	0	0	12	0
OTU 155	0	0	0	4	2	35	0	0	0	0	0	0	0	0	0	0	2	0	0	0	1	2	0	0	0	0	0	0	4	0	8	0	0	2	1	0	0	2	3	0	0	0	0	1	0	0	0	0	1	0
OTU 156	2	1	6	0	3	0	1	1	8	2	0	1	4	8	1	1	12	0	1	0	0	11	2	3	1	1	1	1	1	3	0	0	7	1	5	2	4	1	0	4	7	0	0	3	1	6	0	0	1	1
OTU 157	0	0	0	0	10	2	2	0	0	3	0	0	0	0	0	0	0	0	0	0	0	0	0	9	0	0	0	0	0	0	0	0	0	1	1	0	0	0	0	0	0	3	0	0	0	0	0	0	16	1
OTU 158	0	0	0	0	0	0	0	0	0	0	0	2	0	0	0	0	0	0	0	1	0	0	0	0	0	0	0	0	0	0	0	0	0	0	0	0	0	0	0	0	0	0	0	0	0	0	0	0	0	0
OTU 159	0	0	3	2	0	0	0	2	6	0	0	1	7	0	0	0	0	0	0	1	1	0	1	0	0	0	3	0	0	2	1	0	4	0	7	0	0	1	3	0	0	0	0	0	0	0	0	0	1	0
OTU 160	2	4	1	8	3	1	13	0	1	1	4	3	10	3	4	1	4	0	2	14	7	6	9	20	9	3	3	2	2	12	5	9	0	11	2	4	0	23	24	0	2	4	0	27	3	15	0	6	8	0
OTU 161	0	1	0	1	3	4	0	0	0	0	0	0	1	0	1	0	0	0	1	4	1	0	0	0	0	5	0	1	0	2	1	0	1	4	1	0	1	0	0	0	3	1	0	1	0	0	2	0	0	5
OTU 162	0	0	0	1	15	1	5	0	6	10	2	2	2	3	4	3	0	0	0	0	3	0	0	28	1	0	4	0	0	1	0	3	0	0	0	4	0	1	5	3	0	0	0	20	1	0	0	0	0	5
OTU 163	0	0	0	0	0	0	0	0	0	0	0	0	2	0	0	0	0	0	0	0	0	0	0	0	0	0	0	0	0	1	0	0	0	0	1	0	0	0	0	0	0	0	0	0	0	0	0	0	0	0
OTU 164	0	0	0	0	0	0	0	0	0	0	0	0	0	0	0	0	0	0	0	0	0	0	0	0	0	0	0	0	0	0	0	0	0	0	0	0	0	0	0	0	0	1	0	0	0	0	0	0	0	0
OTU 165	0	0	0	2	3	0	0	0	0	0	0	0	3	0	0	0	0	0	0	0	0	0	0	1	1	2	0	0	1	0	0	0	0	1	0	0	0	0	0	0	0	0	2	1	0	0	0	0	6	1
OTU 166	0	0	0	0	0	0	0	0	0	0	0	0	0	0	0	0	0	0	0	0	0	0	0	0	0	0	0	0	0	0	0	0	0	0	0	0	0	0	0	0	0	0	0	0	0	0	0	0	0	0
OTU 167	3	0	0	0	0	0	0	7	3	0	0	0	1	0	0	0	0	0	0	0	0	0	0	0	0	0	0	0	0	3	0	0	0	2	0	3	2	0	0	0	4	1	0	0	3	0	0	0	0	0
OTU 168	6	0	0	0	0	0	0	2	3	0	0	6	4	0	1	0	0	0	0	2	0	0	1	0	0	1	0	1	0	0	8	0	2	6	0	0	0	0	0	4	1	0	0	2	0	1	0	0	1	1
OTU 169	0	0	0	0	0	0	0	0	0	0	0	0	0	0	0	0	0	0	0	0	0	1	0	0	0	0	0	0	0	0	0	0	0	0	0	0	0	0	1	0	1	0	0	0	0	0	0	0	1	0
OTU 170	0	0	0	0	0	0	0	0	0	0	0	0	0	0	0	0	0	0	0	0	0	0	0	0	0	0	0	0	0	1	0	0	0	0	0	0	0	0	0	0	0	0	0	0	0	0	0	0	0	0
OTU 171	0	0	0	0	0	2	0	0	1	1	1	1	11	0	0	1	0	2	6	1	0	0	0	1	1	0	0	0	0	2	0	1	2	0	4	2	0	3	0	1	0	0	0	1	0	2	1	0	0	0
OTU 172	0	0	0	0	0	0	0	0	0	0	0	0	0	0	0	0	0	0	1	0	0	0	0	0	1	0	0	1	7	0	0	0	0	0	0	0	0	0	0	0	0	0	0	0	0	0	0	0	0	0
OTU 173	0	0	0	0	0	1	0	0	0	0	0	4	8	7	2	0	0	0	0	1	0	2	0	0	0	0	0	0	3	0	0	0	0	0	0	0	0	0	0	0	2	0	0	0	0	0	0	0	0	0
OTU 174	0	0	1	0	3	0	0	0	0	18	0	29	2	0	23	0	0	2	2	0	0	0	0	0	0	0	0	7	0	0	0	0	0	1	1	0	0	0	0	0	0	0	0	0	1	0	0	0	0	12
OTU 175	0	0	4	1	0	0	1	1	0	0	0	0	0	7	0	0	1	2	0	0	0	0	3	1	0	0	2	2	1	0	1	0	0	0	0	0	0	0	2	0	0	1	1	0	0	1	0	0	1	1
OTU 176	1	1	1	1	1	0	1	0	0	0	1	0	0	3	0	0	1	0	3	0	3	0	0	0	0	1	0	0	0	2	4	0	0	0	1	1	5	1	0	8	1	19	5	0	11	3	0	3	10	0
OTU 177	0	2	1	0	0	0	4	1	2	4	0	0	2	3	0	4	0	4	0	0	1	0	0	0	0	2	0	1	0	5	2	0	0	1	0	0	1	0	0	0	2	0	0	11	1	2	0	1	1	0
OTU 178	0	1	0	1	0	0	1	0	0	0	0	1	0	0	0	0	0	2	0	0	0	0	0	0	0	1	1	0	56	5	2	0	5	0	0	0	2	0	0	0	2	2	3	1	0	0	0	1	0	3
OTU 179	0	1	0	0	0	0	0	4	0	0	0	0	0	0	0	0	3	84	0	0	0	0	0	0	0	10	0	0	0	5	0	0	1	3	4	0	0	2	0	0	0	0	0	0	1	0	0	0	3	0
OTU 180	14	2	10	39	1	2	1	62	49	0	3	3	12	19	1	13	5	16	1	5	27	1	4	0	48	5	127	1	4	8	2	10	1	5	2	8	1	13	89	2	14	2	12	17	4	10	15	4	8	1
OTU 181	0	1	64	0	1	1	3	0	0	0	0	0	0	0	0	0	0	3	0	1	0	0	1	11	0	5	0	0	1	0	0	2	0	0	0	0	0	0	4	0	0	1	0	14	0	0	0	0	13	0
OTU 182	0	0	0	0	0	0	0	0	0	1	0	0	0	0	0	0	0	0	0	0	0	0	0	0	0	0	0	0	0	0	0	0	0	0	0	0	0	0	0	0	0	0	0	0	0	0	0	0	0	0
OTU 183	0	0	0	1	0	0	2	0	0	1	0	11	0	0	0	0	3	2	1	0	1	0	0	0	0	6	0	1	1	2	0	0	0	0	3	6	0	0	1	0	0	0	0	0	0	1	0	0	3	0
OTU 184	2	0	0	6	0	0	0	2	0	0	0	0	5	0	3	0	0	0	0	0	0	0	0	0	1	0	1	0	3	1	0	0	0	0	0	0	0	0	0	0	0	0	2	2	3	1	0	0	0	0
OTU 185	4	0	3	2	0	20	1	0	9	0	0	4	2	7	1	2	2	1	1	10	0	1	0	2	3	0	0	45	0	0	2	1	0	3	1	0	15	1	3	0	0	0	9	0	0	0	0	19	0	7
OTU 186	7	0	4	0	0	0	0	0	1	0	0	1	0	1	0	0	0	0	0	0	0	1	1	0	0	0	1	0	1	0	0	2	0	0	0	0	0	0	0	0	2	0	0	0	0	0	1	0	1	0
OTU 187	0	1	1	0	1	1	4	9	4	0	0	1	4	2	2	0	3	10	2	0	0	0	2	0	0	1	2	1	1	1	0	1	1	1	1	0	0	0	2	2	0	2	2	4	2	1	0	2	5	2
OTU 188	0	0	2	3	4	2	2	0	0	2	80	2	0	1	0	2	4	0	3	6	3	7	1	4	2	11	0	0	3	1	4	0	0	8	3	0	1	3	0	0	17	3	2	0	2	0	0	1	4	2
OTU 189	0	0	0	0	0	1	2	1	4	3	0	20	0	2	2	0	3	1	0	0	1	12	2	4	0	0	0	0	1	0	2	3	0	0	2	4	2	3	0	0	2	0	1	0	11	2	2	0	2	1
OTU 190	0	0	0	0	0	0	0	0	0	0	0	0	0	0	0	0	0	0	0	0	0	0	3	5	2	0	0	0	0	0	0	0	0	0	0	0	0	4	0	0	0	0	26	0	0	0	0	0	0	0
OTU 191	3	0	4	0	9	1	1	14	6	0	1	0	0	6	0	1	0	9	1	0	0	0	0	5	0	0	17	1	1	10	0	1	7	59	0	0	0	1	2	0	0	11	0	2	15	1	0	0	3	0
OTU 192	6	4	2	3	2	0	2	0	1	0	0	4	3	4	1	0	25	0	3	2	0	0	5	3	0	2	0	2	6	2	4	0	5	0	1	1	1	3	2	33	0	6	2	0	2	16	1	0	13	2
OTU 193	0	2	0	0	1	48	0	0	0	1	0	0	0	0	0	0	3	0	2	0	0	0	8	1	2	2	1	0	33	4	3	0	1	25	0	0	2	12	0	1	1	0	3	0	3	0	0	1	6	0
OTU 194	0	0	0	1	3	0	0	0	0	1	0	0	2	0	0	0	3	0	0	0	1	1	0	1	0	1	3	0	2	0	0	1	2	0	0	0	3	0	0	2	6	2	0	0	1	0	0	0	1	0
OTU 195	2	0	4	1	0	2	0	0	0	0	0	1	0	1	0	0	0	1	1	0	0	0	0	0	0	1	5	0	0	11	6	0	1	0	0	2	1	0	0	0	0	0	0	0	3	1	0	0	0	0
OTU 196	0	0	0	1	0	1	0	0	0	1	0	0	1	1	0	2	0	0	3	1	0	1	0	1	0	1	0	0	4	1	2	0	3	1	4	2	0	1	1	0	0	1	0	2	0	3	0	1	1	0
OTU 197	1	0	2	1	0	5	136	1	1	3	1	3	3	0	0	1	6	2	26	0	1	2	5	4	1	0	0	1	4	11	5	0	0	2	1	0	5	1	6	6	5	5	0	1	0	0	1	0	5	0
OTU 198	0	3	1	0	0	2	2	0	3	2	0	1	0	0	2	0	0	0	0	0	0	1	1	1	0	0	0	0	1	0	0	0	0	0	0	0	0	0	0	0	4	0	0	3	0	0	0	0	1	0
OTU 199	0	0	2	0	2	0	0	4	0	0	0	0	0	1	0	0	0	0	0	2	1	0	0	0	2	0	4	0	0	1	3	0	0	0	2	0	0	0	1	0	0	4	0	2	4	0	0	0	0	0
OTU 200	3	0	0	2	5	3	0	1	1	0	0	0	6	0	4	0	0	0	0	2	3	0	0	3	0	1	1	0	0	1	0	0	0	1	0	0	6	1	1	0	2	4	1	44	0	0	0	0	3	2
