	Host 1	Host 2	Host 3	Host 4	Host 5	Host 6	Host 7	Host 8	Host 9	Host 10	Host 11	Host 12	Host 13	Host 14	Host 15	Host 16	Host 17	Host 18	Host 19	Host 20	Host 21	Host 22	Host 23	Host 24	Host 25	Host 26	Host 27	Host 28	Host 29	Host 30	Host 31	Host 32	Host 33	Host 34	Host 35	Host 36	Host 37	Host 38	Host 39	Host 40	Host 41	Host 42	Host 43	Host 44	Host 45	Host 46	Host 47	Host 48	Host 49	Host 50	
OTU 1	2	2	0	1	5	12	0	2	0	1	3	2	0	0	7	0	8	7	0	1	1	4	0	0	0	0	9	0	0	3	5	0	0	4	10	4	9	6	4	3	9	3	12	1	2	9	3	0	0	0
OTU 2	3	0	1	0	0	0	0	0	0	0	0	0	0	0	0	0	0	0	0	0	0	0	0	0	0	0	0	0	1	0	0	0	0	0	0	0	0	0	0	0	0	0	0	0	0	1	0	0	0	0
OTU 3	0	1	0	0	0	0	0	0	1	0	0	3	0	1	0	0	0	0	1	3	1	0	0	1	0	0	0	0	0	0	0	0	0	0	0	7	0	0	0	0	0	0	0	5	0	0	0	0	0	8
OTU 4	0	0	0	0	0	0	0	0	0	0	0	0	0	0	0	0	0	0	0	0	0	0	0	0	0	0	0	0	1	0	0	0	0	0	0	0	0	0	0	0	0	0	0	0	0	0	0	0	0	0
OTU 5	2	0	0	1	4	27	10	25	0	0	14	31	11	36	9	8	19	108	0	0	17	6	1	8	59	24	27	11	17	4	3	12	2	19	2	19	24	0	30	8	36	4	30	0	19	31	32	1	0	0
OTU 6	1	9	0	0	0	0	1	0	0	0	1	0	0	0	3	2	57	1	2	0	0	3	3	0	0	5	0	0	4	0	0	3	1	1	1	0	0	1	0	0	0	1	1	0	2	0	0	8	4	2
OTU 7	2	0	5	11	2	0	0	5	5	0	8	1	3	1	3	3	26	7	13	1	0	1	1	1	0	0	1	0	0	0	0	1	6	0	0	12	28	2	2	2	3	0	34	1	0	46	16	29	4	4
OTU 8	3	0	2	6	2	2	12	1	2	5	0	1	1	0	3	1	1	4	2	1	1	2	3	1	0	1	2	0	10	2	1	0	8	41	0	0	3	5	1	1	0	2	2	3	0	2	0	5	9	31
OTU 9	0	0	1	2	1	0	1	0	1	4	0	5	0	2	1	2	2	0	0	0	0	0	0	0	0	0	0	0	0	3	0	2	0	0	0	0	0	5	0	1	5	0	2	0	0	3	1	2	0	0
OTU 10	0	0	2	0	0	0	0	0	0	3	0	1	0	0	1	0	0	0	0	0	0	0	0	0	0	0	0	1	0	0	0	0	4	0	0	0	0	0	0	0	1	1	0	0	0	0	0	0	2	0
OTU 11	0	1	6	15	0	0	2	1	1	3	6	5	0	0	0	0	1	20	1	7	4	1	0	1	9	0	2	0	0	2	1	0	2	1	1	0	0	4	6	0	4	8	0	0	0	0	0	7	1	74
OTU 12	7	4	9	0	2	0	5	3	0	1	6	0	1	0	4	0	0	2	3	1	6	2	4	1	1	0	1	0	2	1	1	1	0	6	0	0	0	0	4	0	7	1	3	1	1	0	1	4	7	2
OTU 13	0	0	0	0	0	0	0	0	1	0	0	0	0	0	0	0	0	0	1	0	0	0	0	0	0	0	0	0	0	0	0	0	0	0	1	1	0	0	0	0	0	0	0	0	0	0	0	0	3	0
OTU 14	1	1	0	0	0	0	0	2	0	0	0	0	0	0	1	0	0	1	1	0	6	0	2	0	0	1	0	2	0	0	0	0	9	1	0	0	1	0	0	0	0	0	0	0	1	0	1	3	1	0
OTU 15	0	0	0	0	0	0	0	0	0	0	0	0	0	0	0	0	0	17	0	0	0	0	0	0	8	0	0	0	1	0	0	0	0	0	0	0	0	0	0	0	0	0	0	1	0	0	1	1	0	0
OTU 16	0	0	0	0	0	0	0	0	0	0	0	0	0	0	0	0	0	0	0	0	0	0	0	0	0	0	0	0	0	0	0	0	0	0	0	0	0	0	0	0	0	0	0	0	0	0	0	0	0	0
OTU 17	0	1	0	0	0	21	0	3	0	0	3	1	2	0	4	1	8	0	1	0	1	0	1	1	1	0	23	0	0	0	0	1	0	0	5	8	8	0	0	9	30	2	5	0	12	12	0	1	0	0
OTU 18	1	0	0	4	16	0	0	5	3	7	3	7	3	0	0	5	0	21	3	4	0	1	0	3	22	0	0	0	3	4	1	0	3	2	0	0	0	6	9	2	4	1	0	3	3	0	1	0	2	0
OTU 19	0	0	0	0	0	0	0	0	0	0	0	0	0	0	0	0	0	0	0	0	0	0	0	0	0	0	0	0	0	0	0	0	0	0	0	0	0	0	0	0	0	0	0	0	0	0	0	0	0	0
OTU 20	3	17	9	1	0	0	0	0	0	0	0	0	0	0	3	4	3	0	0	5	2	2	5	0	0	13	0	0	1	0	0	0	2	0	0	0	0	1	3	1	3	0	1	13	0	2	5	37	7	0
OTU 21	1	1	0	4	2	0	1	1	0	3	8	0	0	0	0	0	0	2	0	0	0	0	3	0	0	1	0	0	0	1	4	2	0	0	0	0	1	2	0	0	0	0	0	0	0	0	1	0	1	2
OTU 22	3	1	5	0	1	0	1	4	4	1	4	1	2	0	5	4	1	0	1	1	0	5	0	1	1	3	3	0	2	1	0	0	1	0	0	0	1	0	0	0	4	0	0	0	0	2	4	1	3	3
OTU 23	0	0	0	0	1	0	0	0	1	0	0	0	0	11	0	3	3	0	1	0	11	0	0	1	0	0	0	0	0	0	0	0	0	1	0	0	0	0	1	0	0	3	0	1	0	1	0	0	11	1
OTU 24	1	0	0	0	0	0	0	0	2	0	0	5	0	0	3	0	0	0	0	0	1	0	0	1	1	0	0	0	0	10	0	0	0	0	0	0	0	8	0	2	0	0	0	0	0	0	0	0	6	0
OTU 25	0	0	0	0	0	0	0	0	0	1	0	0	0	0	0	0	0	0	0	0	0	0	0	0	0	0	0	0	0	0	0	0	0	0	0	0	0	0	0	0	0	0	0	0	0	0	0	0	0	0
OTU 26	0	0	5	0	0	0	0	0	0	0	0	0	0	0	0	2	0	0	0	0	0	0	0	0	0	0	0	0	1	0	0	0	0	0	0	0	0	0	1	0	0	0	0	1	0	0	0	0	0	0
OTU 27	0	1	0	0	0	0	0	0	0	0	0	0	0	0	0	0	0	0	0	0	0	0	0	0	0	2	0	0	0	0	0	2	0	0	0	0	0	0	0	1	0	2	0	0	0	0	0	0	0	0
OTU 28	3	0	0	0	1	1	0	0	6	0	0	0	0	7	12	4	1	10	4	3	71	6	2	1	1	1	1	0	1	0	1	0	8	36	1	138	0	0	5	2	1	4	1	0	1	1	2	0	8	3
OTU 29	11	0	0	0	1	0	0	0	2	4	0	1	26	3	1	3	1	0	0	0	2	0	0	0	0	1	0	0	6	3	0	0	1	2	0	0	2	0	0	0	1	2	0	0	0	0	2	2	0	5
OTU 30	0	0	0	0	0	0	0	0	0	0	0	0	0	0	0	0	0	0	0	0	0	0	0	0	0	0	0	0	0	0	0	0	0	0	0	0	0	0	0	0	0	0	0	0	0	0	0	0	0	0
OTU 31	0	0	9	1	0	1	1	2	10	0	0	0	4	0	0	0	0	0	0	1	0	5	1	0	0	0	5	0	2	0	0	11	1	0	0	0	0	0	1	3	2	0	0	0	0	0	3	0	1	0
OTU 32	2	6	0	0	51	2	0	5	0	3	3	0	2	4	1	6	1	0	5	22	1	0	10	126	1	0	2	5	2	2	3	7	0	0	1	0	2	9	1	0	2	54	0	5	5	2	4	3	0	18
OTU 33	0	0	0	0	0	0	0	0	0	0	0	0	0	0	0	0	0	0	0	0	0	0	0	0	0	0	0	0	0	0	0	0	0	0	0	0	0	0	0	0	0	0	0	0	0	0	0	0	0	0
OTU 34	13	3	3	0	3	2	5	0	0	2	15	0	1	1	5	1	0	2	4	0	0	0	1	1	0	2	4	0	4	0	1	6	0	0	3	0	0	0	1	1	4	2	107	2	0	0	0	6	0	0
OTU 35	1	0	2	0	0	0	0	0	3	0	6	1	0	0	0	0	0	0	0	1	3	0	5	0	0	109	0	5	1	0	4	0	3	0	0	0	1	0	0	0	1	0	0	4	1	1	0	0	4	0
OTU 36	0	3	2	2	2	0	0	0	0	0	0	0	2	0	0	0	0	0	3	0	3	2	0	0	0	1	1	0	3	0	1	0	3	1	0	0	2	0	2	1	1	0	53	3	0	3	1	0	1	0
OTU 37	0	0	0	0	0	0	0	0	4	0	1	0	0	1	0	0	0	0	0	0	0	5	1	0	0	3	0	0	0	0	0	0	0	1	0	0	0	0	0	1	0	0	0	0	0	0	6	0	0	0
OTU 38	0	2	4	5	0	0	0	0	12	0	1	5	0	0	0	0	0	2	0	1	0	0	6	0	1	0	0	2	0	7	2	2	1	0	1	1	0	1	0	0	0	0	1	2	0	0	1	0	11	0
OTU 39	0	3	0	2	1	0	0	0	1	0	0	0	0	2	0	1	0	0	0	0	0	0	0	1	0	0	0	0	0	0	0	0	0	1	0	0	0	0	0	0	0	0	0	1	0	0	0	1	0	0
OTU 40	26	2	0	2	48	1	9	0	0	0	0	1	0	41	0	2	0	0	1	3	1	0	0	3	0	0	7	4	0	1	3	0	6	0	0	0	1	0	0	0	4	1	2	4	0	0	1	1	2	0
OTU 41	0	0	0	0	4	0	0	0	0	2	1	0	1	4	1	0	0	2	0	1	1	1	0	2	1	0	0	0	1	1	0	0	0	0	0	1	0	0	4	1	0	0	1	0	1	0	2	0	0	0
OTU 42	0	1	5	0	0	0	0	0	0	0	0	0	0	0	3	0	0	0	1	0	0	1	0	0	1	0	1	0	1	0	0	0	1	0	2	0	0	0	1	0	0	0	0	0	0	0	0	0	0	0
OTU 43	0	0	0	2	0	0	0	0	0	0	1	0	0	0	0	0	0	0	0	0	0	0	0	0	0	0	0	0	0	0	0	0	0	0	0	0	0	0	0	0	0	0	0	0	0	0	0	0	0	0
OTU 44	0	5	0	0	0	0	0	0	0	0	13	0	0	0	0	0	0	2	1	0	0	0	0	0	0	0	1	0	0	0	1	0	1	0	0	3	0	0	0	0	0	0	1	0	1	0	0	0	0	0
OTU 45	21	0	0	2	17	3	3	4	2	1	3	7	2	1	39	4	1	23	0	3	0	3	5	9	10	0	0	1	2	2	10	7	5	19	1	0	3	3	6	0	0	8	0	3	1	3	1	3	1	0
OTU 46	0	5	0	23	2	0	2	2	0	1	3	4	4	1	2	11	0	0	0	0	1	14	1	0	0	0	0	35	1	1	101	0	0	0	0	0	0	0	5	1	0	8	1	0	0	0	7	4	3	0
OTU 47	5	0	0	0	0	0	0	0	0	0	0	1	0	0	0	4	0	0	0	0	0	0	0	0	0	0	0	2	0	0	3	0	6	0	0	0	0	0	0	0	0	0	0	1	0	0	0	0	0	0
OTU 48	0	0	0	68	2	0	68	2	0	3	5	1	1	0	3	1	1	1	5	1	4	0	1	1	0	1	0	0	1	3	0	0	0	0	1	0	0	6	2	1	0	1	2	8	0	1	3	1	0	0
OTU 49	0	0	0	0	0	0	0	0	0	0	0	0	1	37	0	1	0	1	3	0	0	1	1	0	0	0	0	0	0	0	0	0	0	2	2	0	1	1	1	0	0	1	0	0	2	0	6	0	0	3
OTU 50	0	0	4	1	3	3	0	3	1	2	4	0	1	4	3	0	1	1	1	0	1	1	5	1	0	0	3	3	0	2	1	0	0	0	0	0	1	4	1	4	6	2	0	1	5	0	1	4	6	0
OTU 51	0	7	0	1	0	0	0	0	2	0	3	0	0	7	0	6	0	0	0	3	0	6	0	0	0	0	2	0	1	1	0	0	0	0	0	0	0	0	1	0	8	1	0	0	0	0	8	1	1	6
OTU 52	3	10	2	19	0	1	3	0	7	14	23	14	0	0	6	3	0	0	4	5	1	0	1	2	3	7	7	0	6	8	2	0	1	0	3	0	3	38	2	2	5	1	1	4	0	0	3	14	1	0
OTU 53	0	0	0	0	0	0	0	0	0	0	0	0	0	0	0	0	0	0	0	0	0	0	0	0	0	0	0	0	0	0	0	0	0	0	0	0	0	0	0	0	0	0	0	0	0	0	0	0	0	0
OTU 54	4	2	4	1	1	1	3	2	4	1	4	1	0	4	1	6	0	0	5	2	0	5	1	4	0	0	0	10	2	2	20	0	2	11	0	0	1	6	12	0	0	4	1	1	1	0	2	11	6	0
OTU 55	0	0	0	0	0	0	0	0	0	0	0	0	0	0	0	0	0	0	0	0	0	0	0	0	0	0	0	0	0	0	0	0	0	0	0	0	0	0	0	0	0	0	0	0	0	0	0	0	0	0
OTU 56	0	0	0	0	0	0	0	2	0	1	0	6	1	0	1	0	0	0	1	1	0	0	3	0	0	0	0	0	1	0	0	1	2	0	0	1	0	2	0	2	0	0	0	2	0	0	0	0	0	0
OTU 57	5	12	1	5	3	3	3	15	1	3	1	2	3	1	1	10	129	4	4	12	2	13	2	7	1	3	7	1	15	2	4	4	4	22	12	8	35	3	4	10	7	3	4	6	0	6	2	17	13	4
OTU 58	0	0	3	0	0	1	0	0	1	3	1	0	0	1	9	3	0	1	0	0	2	0	0	0	0	1	7	0	2	0	0	0	0	1	0	28	1	0	0	0	1	2	2	2	0	2	9	0	0	2
OTU 59	0	0	2	2	1	4	0	2	0	0	0	1	1	0	2	1	7	0	0	0	0	0	2	0	2	0	3	0	0	1	0	3	0	0	9	0	0	0	0	3	12	8	5	0	0	5	1	0	1	0
OTU 60	3	1	0	2	0	0	3	5	2	5	1	15	5	0	1	2	1	1	0	8	3	5	2	3	83	2	3	0	3	0	1	0	2	2	3	0	0	3	1	0	4	0	3	3	0	4	1	1	1	0
OTU 61	0	2	4	18	0	1	2	6	0	6	0	10	4	1	8	0	1	1	73	3	0	0	1	5	3	2	0	3	3	10	0	1	9	0	3	1	0	18	3	2	4	0	0	2	0	4	1	4	3	1
OTU 62	1	0	0	0	0	0	0	1	2	0	0	0	0	0	0	3	0	0	1	1	0	8	0	1	0	0	0	0	0	0	0	2	1	0	0	0	2	0	0	1	0	0	0	0	0	0	0	0	0	0
OTU 63	0	8	0	0	0	0	5	3	0	1	1	1	2	0	4	0	0	0	2	0	0	0	109	0	0	0	0	2	0	0	0	53	2	0	1	0	0	0	0	0	0	0	0	3	0	0	0	0	9	0
OTU 64	6	0	1	1	1	0	5	0	1	5	0	0	0	8	4	10	0	2	0	0	1	6	4	4	4	4	0	1	1	9	2	25	7	0	1	21	0	5	1	0	0	0	1	0	0	1	15	1	1	6
OTU 65	0	0	0	0	0	0	0	0	2	0	0	0	0	0	0	1	0	0	0	0	0	0	0	0	0	0	0	0	0	0	0	1	0	0	0	0	0	0	0	0	0	0	0	0	0	0	0	0	0	0
OTU 66	2	3	2	1	0	3	3	1	63	0	0	0	1	0	1	1	3	0	0	2	0	0	23	1	71	3	2	0	5	3	0	14	1	4	0	0	0	6	1	0	2	2	0	2	0	1	1	0	0	0
OTU 67	0	3	6	1	0	77	2	4	1	0	0	0	0	0	1	1	0	0	2	1	1	0	0	0	0	0	0	5	0	0	3	0	0	0	0	0	0	0	1	2	0	0	2	2	36	0	4	0	4	0
OTU 68	0	0	9	0	0	2	6	3	0	1	0	1	0	0	0	0	9	2	0	2	0	0	0	0	0	0	15	0	0	0	0	0	0	0	13	15	11	0	2	18	15	0	3	1	4	21	0	0	2	4
OTU 69	0	1	1	12	0	1	0	0	0	15	3	5	0	7	0	0	1	0	0	4	1	1	0	1	2	0	1	0	0	13	1	1	0	0	3	0	0	14	0	0	2	2	3	12	0	0	4	0	8	1
OTU 70	1	0	0	3	1	1	0	12	2	8	2	5	4	1	9	0	1	1	0	0	0	10	0	1	2	1	0	0	1	8	0	0	0	0	1	1	1	8	1	1	0	0	0	0	1	0	0	0	0	0
OTU 71	0	3	1	0	34	0	0	0	5	2	0	0	0	4	0	0	0	0	9	9	1	0	0	7	0	0	0	0	0	3	0	0	0	5	0	0	0	1	0	0	2	0	0	0	0	0	0	3	0	3
OTU 72	3	0	1	5	1	0	0	0	0	0	0	0	0	6	1	0	0	1	0	0	0	0	0	2	23	0	0	0	0	1	0	1	11	1	0	1	1	7	1	0	2	0	1	1	0	0	2	6	0	10
OTU 73	2	4	0	0	1	0	0	4	2	2	0	0	5	0	2	0	0	0	0	0	0	0	0	0	0	3	0	0	0	0	0	2	0	0	0	0	2	0	1	1	1	1	2	1	0	0	0	0	4	2
OTU 74	1	1	1	1	0	0	1	2	0	3	0	0	1	0	0	5	6	0	1	3	4	5	1	1	0	19	2	0	0	0	0	0	2	0	2	1	0	0	3	4	0	0	0	1	0	5	4	4	0	0
OTU 75	2	0	0	1	0	2	0	9	0	0	0	1	6	1	0	1	3	0	1	0	9	19	1	0	0	0	14	1	9	0	3	0	6	0	11	3	3	0	0	6	18	0	4	0	11	6	1	0	2	2
OTU 76	0	2	0	0	5	0	1	2	0	0	0	0	0	0	0	0	0	0	0	8	0	0	1	0	0	0	0	0	0	2	2	0	2	0	0	0	0	0	0	0	0	0	0	5	0	0	1	3	0	0
OTU 77	1	0	9	1	0	0	40	4	2	0	8	0	2	0	1	1	0	0	0	2	2	5	0	1	2	1	0	72	5	0	0	2	1	0	0	0	1	0	0	5	9	92	4	2	0	0	1	0	13	1
OTU 78	4	9	5	0	5	2	12	3	0	3	12	0	3	1	0	5	1	3	0	2	17	0	0	8	0	4	0	1	7	0	2	0	3	0	0	0	0	6	3	2	0	0	0	0	1	4	2	6	0	0
OTU 79	5	4	2	5	4	2	2	7	4	0	1	7	4	3	4	8	3	0	5	6	3	3	1	5	1	4	9	3	1	1	3	2	4	0	78	76	143	0	24	78	8	5	3	15	1	9	2	11	10	7
OTU 80	3	0	2	0	0	0	0	0	0	8	3	0	0	0	1	1	0	0	2	0	0	1	3	4	0	0	1	25	0	0	47	3	4	56	0	0	0	0	0	1	0	0	0	7	0	1	2	0	0	2
OTU 81	3	1	2	1	0	1	4	0	5	3	8	3	0	0	0	0	0	0	5	2	0	4	0	0	0	3	0	10	1	0	33	4	7	85	0	0	5	2	23	1	2	0	2	0	0	0	1	3	9	6
OTU 82	1	0	2	2	0	0	2	0	0	86	3	7	0	1	4	2	0	0	0	5	0	0	1	0	0	0	0	0	0	3	4	0	1	0	0	0	0	6	1	0	0	0	0	2	0	0	1	0	1	6
OTU 83	0	0	2	0	0	0	0	0	0	0	1	0	0	2	0	0	0	0	1	0	0	1	0	0	0	0	0	0	0	1	0	0	2	0	0	0	1	1	0	0	0	0	0	0	0	0	0	6	4	0
OTU 84	0	0	4	5	4	1	0	2	1	5	4	5	0	0	3	0	0	3	3	1	0	2	1	9	1	1	0	5	4	3	15	0	1	3	0	0	2	14	0	1	2	2	0	0	0	1	1	0	4	0
OTU 85	0	6	0	0	0	0	0	0	0	0	0	0	0	0	0	3	1	0	0	0	0	0	0	0	0	1	4	0	1	0	1	0	0	0	0	0	0	0	0	0	0	0	0	0	0	1	0	0	0	7
OTU 86	0	0	0	0	0	0	0	0	0	0	0	0	0	0	0	0	0	0	0	0	0	0	0	1	0	9	0	0	0	0	0	0	0	0	0	0	0	0	2	0	0	3	0	0	0	0	0	0	0	0
OTU 87	14	0	0	6	0	0	0	0	0	1	0	0	0	0	0	0	0	0	0	0	0	0	0	0	1	2	0	0	0	0	0	0	2	0	1	1	0	0	0	0	0	0	1	0	0	0	0	0	0	1
OTU 88	0	0	0	1	0	0	0	0	0	0	0	0	0	0	0	0	0	0	0	0	0	0	0	0	0	0	0	0	6	0	0	0	0	0	0	0	0	0	0	0	0	0	0	0	0	0	0	1	0	0
OTU 89	39	0	0	0	3	1	0	0	2	0	0	0	0	0	2	0	1	0	18	0	0	0	0	0	0	0	0	0	0	0	0	0	0	1	2	0	3	0	30	1	0	0	0	1	0	2	0	1	4	2
OTU 90	0	0	0	0	0	0	2	0	0	1	0	0	0	0	0	0	0	0	0	0	1	0	2	0	0	0	0	0	0	0	0	1	0	0	0	0	0	0	0	0	0	0	0	0	0	0	0	1	0	0
OTU 91	0	0	0	0	0	0	0	0	0	0	0	0	0	0	0	0	0	0	2	0	0	0	0	0	0	0	0	0	0	0	0	0	0	0	0	0	0	0	0	0	0	0	1	0	0	0	0	0	0	0
OTU 92	0	3	0	0	0	0	0	0	0	0	0	0	0	0	0	0	1	1	0	0	0	0	0	0	1	0	1	0	1	0	0	0	0	2	0	0	0	0	0	3	6	0	0	4	0	1	1	0	0	0
OTU 93	0	0	0	0	0	0	0	0	0	0	0	0	0	0	1	0	0	0	0	0	0	0	1	0	0	0	0	0	2	0	0	0	0	0	0	0	0	0	0	1	0	0	0	0	0	0	0	0	0	0
OTU 94	0	2	4	3	0	0	1	2	4	1	4	2	1	13	0	5	1	2	2	5	3	4	1	0	4	3	0	0	0	0	0	4	3	1	0	2	3	1	0	1	11	1	0	1	1	6	0	0	4	0
OTU 95	0	0	0	0	2	0	0	47	0	0	0	0	32	0	0	0	0	0	1	0	0	0	0	0	0	0	0	1	0	0	1	0	0	0	2	0	0	0	0	0	0	0	1	0	0	0	2	0	0	0
OTU 96	0	0	0	0	0	0	0	0	0	0	0	0	0	0	0	0	0	0	0	0	0	0	0	0	0	0	0	0	0	0	0	0	3	0	0	0	0	0	0	0	0	0	0	0	0	4	0	0	0	0
OTU 97	0	0	0	0	1	0	0	0	0	0	0	0	0	0	0	0	1	0	0	0	0	0	0	0	0	0	0	0	0	0	0	0	0	0	0	0	0	0	0	0	0	0	0	0	0	0	1	0	0	2
OTU 98	0	0	0	3	0	0	5	0	5	0	0	0	0	0	0	0	0	0	0	0	0	0	0	0	0	0	0	0	0	0	0	0	2	0	0	0	0	0	0	0	0	0	0	0	0	0	0	0	0	0
OTU 99	0	1	0	1	2	3	1	1	0	0	0	4	0	0	2	0	0	3	2	1	0	0	0	2	0	0	108	0	0	2	1	2	5	0	0	2	0	5	48	1	2	1	0	1	0	1	3	1	10	2
OTU 100	0	5	0	0	1	2	1	2	0	0	0	0	1	0	0	0	0	0	0	3	1	0	0	0	0	1	0	0	4	0	1	1	1	1	3	0	1	0	1	0	6	1	5	1	0	0	5	0	1	1
OTU 101	0	0	0	0	0	0	0	0	0	0	0	0	0	0	0	0	1	0	0	0	0	0	0	0	0	0	0	0	2	0	0	0	0	0	0	0	0	0	4	0	1	0	0	0	0	0	0	0	0	2
OTU 102	0	1	0	3	0	0	0	3	0	0	0	0	0	0	2	0	0	0	0	0	0	0	0	0	0	0	0	1	5	0	1	0	4	0	0	1	0	0	0	0	0	3	1	0	0	0	0	1	0	0
OTU 103	0	0	0	0	1	0	1	0	0	5	0	2	0	0	0	0	0	0	5	0	4	0	2	0	0	1	0	0	0	1	0	0	0	0	0	0	0	7	0	0	0	2	0	4	0	0	0	0	0	8
OTU 104	4	10	2	0	0	0	13	13	0	0	2	71	12	6	4	1	0	3	3	3	1	0	2	3	2	5	0	2	1	0	0	0	1	1	0	1	0	1	1	5	2	2	0	3	2	0	24	0	2	2
OTU 105	0	0	8	0	0	0	0	0	0	0	3	0	0	0	0	1	0	0	7	0	0	1	0	0	0	3	2	0	0	0	0	0	0	0	0	0	0	0	0	0	0	0	0	2	0	0	0	0	0	1
OTU 106	1	0	0	0	0	0	0	0	0	0	0	0	0	0	0	0	0	0	0	1	0	0	0	0	0	0	0	0	1	1	0	0	11	0	0	0	0	6	0	0	0	0	0	1	0	2	0	0	2	0
OTU 107	0	1	14	0	0	0	1	0	13	1	0	1	0	1	0	0	0	0	2	11	2	1	2	0	0	0	0	0	0	0	0	0	2	0	1	0	1	0	0	0	3	0	0	15	10	1	0	1	0	0
OTU 108	0	4	0	7	0	0	1	1	0	1	0	0	0	6	0	1	25	2	1	2	0	0	0	0	0	3	0	0	3	2	0	0	3	0	1	10	21	0	5	0	0	0	26	9	0	51	1	0	1	0
OTU 109	0	10	0	0	0	0	0	0	0	0	0	0	0	0	0	0	0	0	0	0	0	0	0	0	1	0	0	0	0	0	0	0	0	0	0	0	0	0	3	0	0	0	0	0	0	0	0	0	0	0
OTU 110	1	0	1	0	0	2	0	0	0	0	0	2	2	0	1	1	0	1	0	1	4	6	3	3	1	0	0	1	0	0	1	0	0	1	0	1	0	0	4	0	2	1	0	0	0	0	0	8	1	0
OTU 111	0	0	0	0	0	0	0	0	0	1	0	0	0	0	0	0	0	0	0	0	0	0	2	0	0	0	1	0	3	1	0	1	0	0	0	0	0	3	0	0	0	0	0	0	0	0	0	1	0	0
OTU 112	1	0	1	0	2	0	0	2	0	69	0	1	3	1	0	2	0	0	0	0	4	0	1	0	0	0	1	1	4	3	3	0	0	0	1	0	0	2	2	0	0	0	0	0	0	0	0	2	6	0
OTU 113	0	0	0	0	0	0	1	0	0	0	0	0	0	0	0	0	0	0	0	0	4	1	0	0	0	0	0	0	0	0	0	0	1	0	0	0	0	0	0	0	0	0	0	1	0	0	0	1	0	0
OTU 114	1	0	1	1	1	2	2	6	34	0	1	1	3	2	0	2	1	0	0	0	3	8	10	3	2	3	0	3	13	0	4	14	4	0	0	0	1	2	1	2	0	1	2	0	1	4	0	6	0	0
OTU 115	8	4	1	6	1	2	0	2	3	3	5	1	0	1	2	0	2	0	1	0	3	0	5	0	3	6	1	1	3	2	0	4	3	0	1	0	0	3	0	3	1	0	3	1	2	0	11	11	5	2
OTU 116	12	0	0	4	0	0	3	2	2	2	0	5	1	1	2	0	1	4	64	3	0	0	1	2	0	1	2	17	0	1	0	0	9	3	2	0	0	2	0	2	1	0	0	10	0	0	4	1	4	4
OTU 117	0	1	0	4	1	0	2	3	0	1	0	1	0	0	5	2	0	3	0	3	0	0	0	0	1	0	0	1	1	0	2	2	0	1	1	1	0	3	2	0	0	1	0	2	0	0	0	3	4	0
OTU 118	0	0	0	0	1	0	0	0	0	3	0	4	0	0	2	0	0	0	0	0	0	0	0	0	0	0	0	0	1	0	0	0	5	0	0	0	0	7	0	0	0	0	1	5	0	0	0	0	1	2
OTU 119	7	2	0	5	2	1	0	2	0	0	1	2	3	0	3	0	0	0	0	1	0	1	0	2	0	0	0	2	0	0	2	2	0	0	2	0	0	0	0	0	0	2	0	0	1	1	0	0	0	0
OTU 120	0	7	0	1	0	0	0	0	0	0	0	0	0	0	3	0	0	0	2	0	0	0	1	0	0	0	0	2	0	0	7	3	0	0	2	0	0	0	0	4	0	0	0	2	0	0	0	1	0	2
OTU 121	43	0	1	6	7	0	6	2	8	0	10	0	0	3	6	0	0	5	0	0	1	0	0	5	6	0	0	0	6	0	1	0	3	0	0	2	0	1	28	0	2	2	0	1	0	0	1	0	0	2
OTU 122	1	0	0	0	3	0	3	3	3	2	3	11	0	1	0	0	0	1	0	3	3	3	5	0	2	0	1	0	1	1	0	2	5	0	1	0	0	4	0	0	0	0	0	4	0	0	8	0	0	0
OTU 123	5	37	23	14	44	5	3	4	15	4	5	12	6	2	5	10	2	4	4	70	3	1	14	8	4	20	0	1	36	19	4	10	36	0	1	5	4	17	10	1	7	5	0	59	102	5	2	31	3	6
OTU 124	0	1	0	5	0	0	0	0	0	0	0	0	0	0	6	0	2	5	0	0	3	0	0	0	1	0	1	0	0	0	0	0	2	0	1	1	0	0	0	0	0	0	1	0	0	0	5	0	8	2
OTU 125	8	9	2	6	4	1	8	5	2	7	11	1	155	19	8	2	2	3	7	3	5	13	1	6	4	6	1	2	7	4	1	1	8	4	3	0	2	6	4	108	2	0	4	0	2	9	8	5	10	8
OTU 126	0	12	0	0	1	0	1	6	0	0	1	0	0	0	3	2	0	1	0	0	0	6	0	8	4	0	3	0	0	0	0	0	1	0	1	0	0	0	0	5	2	0	0	0	0	0	0	0	0	0
OTU 127	0	4	2	1	0	0	6	0	0	0	4	15	0	2	0	0	0	0	0	1	0	0	0	1	0	1	0	2	1	0	3	0	0	1	0	0	0	0	4	0	1	1	0	0	0	1	0	1	0	3
OTU 128	0	24	7	3	6	3	3	8	0	3	17	2	3	9	3	12	1	1	3	1	16	47	6	1	0	8	27	0	3	2	6	4	25	1	7	3	10	8	4	2	9	9	5	6	0	12	5	1	3	4
OTU 129	0	0	0	0	0	1	0	19	0	0	0	0	5	59	0	0	0	0	2	5	1	0	3	0	0	0	0	0	0	1	0	0	0	0	1	0	0	0	0	0	0	0	0	0	0	0	0	0	0	0
OTU 130	3	0	2	2	0	0	1	1	1	0	0	2	2	3	4	4	0	0	0	2	24	70	0	1	2	0	0	0	0	0	0	0	0	2	0	0	0	3	1	0	0	0	0	0	2	0	9	4	2	0
OTU 131	0	2	6	0	0	0	0	0	6	2	0	30	0	0	0	0	2	0	3	0	0	2	3	6	2	0	2	0	0	0	0	0	0	0	0	0	0	0	1	1	0	2	0	2	0	1	9	8	1	0
OTU 132	0	1	1	0	4	0	0	0	0	0	1	1	0	0	0	0	0	0	1	0	0	5	1	4	0	6	3	0	0	0	0	0	0	0	2	0	2	0	0	0	1	0	2	0	0	1	1	1	0	1
OTU 133	2	0	0	0	0	0	0	0	0	0	0	0	0	0	2	0	0	0	0	0	0	0	0	2	0	0	0	0	0	0	0	0	0	0	0	0	0	0	0	0	1	0	0	0	0	0	0	0	0	0
OTU 134	0	2	1	0	0	4	0	2	1	17	1	0	0	1	0	1	0	1	1	8	0	0	1	0	0	0	0	0	4	0	4	0	0	0	1	0	1	2	1	0	1	3	0	0	1	0	1	1	0	0
OTU 135	0	1	0	3	2	0	0	0	0	1	0	0	1	0	0	2	0	1	0	5	0	1	0	1	0	0	0	0	3	0	0	0	1	0	1	1	0	1	0	0	0	3	0	0	0	3	1	0	3	3
OTU 136	1	5	0	0	2	88	0	0	0	0	2	0	0	0	3	1	0	0	1	0	0	0	0	1	0	7	0	0	0	1	0	0	0	0	1	0	1	0	0	2	0	0	1	0	40	0	0	1	0	1
OTU 137	0	1	0	0	0	0	5	0	0	0	0	0	0	0	0	8	0	1	0	0	0	0	2	0	0	0	0	0	0	0	0	3	1	9	0	0	1	0	2	0	0	1	0	0	0	0	0	4	0	9
OTU 138	2	0	5	0	0	0	0	0	0	0	1	0	0	4	0	0	0	0	0	2	0	0	4	0	0	0	1	0	0	0	0	0	1	0	0	0	0	0	0	0	1	0	1	0	0	0	4	1	0	0
OTU 139	6	4	33	2	8	1	0	2	13	5	2	2	2	1	68	4	0	18	56	30	1	0	11	27	2	0	5	2	4	0	2	6	4	4	2	1	2	7	3	0	0	56	3	41	0	6	8	1	11	0
OTU 140	1	13	1	5	5	0	3	0	1	2	4	1	0	2	4	0	0	3	3	2	0	0	12	2	3	4	5	0	0	4	2	2	4	1	9	0	4	1	8	9	7	9	3	1	0	0	1	4	4	4
OTU 141	0	3	0	0	0	0	0	1	0	0	0	0	0	0	0	0	0	1	0	0	0	0	3	0	0	0	1	0	0	0	0	0	0	0	0	0	0	0	0	0	2	0	0	0	0	0	0	0	0	0
OTU 142	0	0	0	0	0	0	0	0	0	0	0	0	0	0	0	0	0	0	0	0	0	0	0	0	0	0	0	0	0	0	0	0	0	0	0	0	0	0	0	0	0	0	0	0	0	0	0	0	0	1
OTU 143	0	0	0	0	1	0	0	0	0	1	0	0	9	0	1	0	3	0	1	0	0	0	0	0	0	0	0	0	0	2	0	0	0	0	0	0	0	0	0	0	4	0	3	1	0	7	0	1	2	3
OTU 144	2	0	0	0	0	0	0	0	0	0	0	0	0	0	0	0	1	0	1	1	0	2	1	0	0	0	0	1	0	0	0	0	0	0	0	0	0	0	0	0	0	0	0	0	0	0	0	1	0	1
OTU 145	0	0	3	0	0	3	0	0	0	0	0	0	0	0	4	1	0	3	1	3	1	5	1	6	3	1	1	1	3	0	0	1	0	0	1	0	0	0	0	1	0	1	0	1	1	0	6	5	4	4
OTU 146	0	0	1	4	0	1	1	3	2	0	0	1	0	7	9	0	0	3	0	0	0	2	0	2	0	0	0	0	3	0	3	0	0	0	0	0	0	1	0	0	1	0	0	0	0	1	18	0	4	0
OTU 147	0	0	0	5	1	0	0	4	0	0	0	2	2	0	0	0	1	0	0	1	0	0	1	2	0	0	6	0	0	0	0	0	5	0	0	0	0	0	1	0	3	0	0	4	0	1	0	1	0	0
OTU 148	0	1	0	4	0	0	0	0	0	1	0	3	0	0	11	0	1	15	2	1	1	0	1	4	7	4	1	0	2	3	0	1	0	0	0	0	0	3	1	6	2	1	0	0	0	2	11	11	4	0
OTU 149	1	0	3	0	1	0	1	0	0	0	0	0	0	0	0	0	0	0	0	0	0	0	0	0	0	0	0	1	48	0	0	0	0	0	5	0	0	0	0	0	0	0	0	0	0	0	0	1	0	2
OTU 150	1	0	0	0	0	0	12	0	0	1	0	0	0	1	0	1	0	7	0	0	2	0	2	0	3	0	0	2	0	1	1	4	0	0	0	0	0	3	0	0	0	0	1	0	0	0	0	0	0	1
OTU 151	0	0	2	1	0	1	0	0	1	0	0	1	0	0	0	5	0	1	0	0	4	0	0	1	1	0	0	0	0	0	0	0	16	0	0	0	0	0	0	0	0	0	0	2	0	0	0	0	0	1
OTU 152	2	0	4	0	5	1	9	17	5	0	1	2	5	0	1	3	0	0	1	1	0	3	1	2	0	2	0	3	0	0	4	1	2	0	1	0	0	0	0	0	5	0	0	0	1	0	0	0	3	0
OTU 153	0	0	0	0	0	0	0	0	0	1	0	0	0	0	0	0	0	0	0	0	0	0	0	0	0	0	0	0	0	0	0	0	1	0	0	0	0	0	0	0	0	1	0	0	0	0	0	0	0	0
OTU 154	0	0	0	23	1	5	0	0	0	0	0	0	0	0	0	0	0	0	0	0	0	0	0	0	0	0	0	0	0	0	0	0	0	0	0	0	0	0	0	0	3	0	0	0	0	0	0	0	5	0
OTU 155	0	4	12	1	0	0	6	0	0	2	1	0	0	0	0	0	0	0	0	0	0	0	1	0	0	0	0	1	0	3	2	116	0	0	0	0	1	4	1	0	0	1	0	2	0	0	1	1	0	0
OTU 156	2	1	1	4	0	0	0	3	2	1	4	1	3	0	1	2	1	0	0	8	0	1	1	0	0	3	0	3	0	5	1	1	8	0	0	0	1	4	2	11	0	3	0	2	0	2	4	6	7	3
OTU 157	0	0	0	0	0	0	0	0	0	0	1	0	0	0	0	0	0	1	0	5	0	0	0	2	0	0	1	1	0	0	1	0	1	2	0	0	0	0	0	2	0	0	0	0	0	0	0	1	3	0
OTU 158	0	0	0	0	0	0	0	0	0	0	0	0	0	0	0	0	0	0	0	0	1	0	0	0	0	0	0	0	0	0	0	0	0	0	0	0	0	0	0	0	0	0	0	0	0	0	0	0	0	0
OTU 159	2	0	2	0	1	0	1	0	0	0	3	0	3	3	0	35	0	2	0	0	2	3	8	2	0	1	0	2	1	1	3	0	3	2	0	0	1	1	0	0	0	0	0	0	0	0	0	0	0	3
OTU 160	7	22	0	2	5	0	7	0	1	0	8	3	0	2	0	7	1	1	1	1	6	2	5	10	0	7	1	3	1	2	2	5	5	7	1	3	6	2	8	1	5	5	2	3	0	0	4	8	0	12
OTU 161	1	0	0	0	0	0	0	0	1	0	0	2	0	0	2	2	2	0	1	1	73	3	0	1	0	0	0	2	0	0	2	0	2	1	0	1	1	2	0	1	2	1	0	3	0	1	1	0	0	1
OTU 162	0	1	6	1	0	1	3	3	3	2	2	0	0	0	1	1	3	3	0	0	2	0	2	2	0	0	4	0	9	0	4	0	1	2	4	0	3	2	0	7	8	7	1	1	0	0	0	0	0	1
OTU 163	0	0	0	0	0	0	0	0	0	1	0	0	0	0	0	0	0	0	0	0	0	1	0	0	0	0	0	0	0	0	0	0	0	0	0	0	0	0	0	0	0	0	0	0	0	0	0	0	0	0
OTU 164	0	0	0	0	0	0	0	0	0	0	0	0	0	0	0	0	0	0	0	0	0	0	0	0	0	0	0	0	0	0	0	0	0	0	0	0	0	0	0	0	0	0	0	0	0	0	0	0	0	0
OTU 165	0	0	0	0	0	1	5	0	0	0	0	0	0	0	0	0	0	0	0	0	0	1	0	0	0	1	0	1	6	0	0	0	1	3	0	0	0	1	0	0	0	0	0	3	77	0	2	2	5	0
OTU 166	0	1	0	0	0	0	0	0	0	0	0	0	0	0	0	0	0	0	0	0	0	0	0	0	0	0	0	0	0	0	0	0	0	0	0	0	1	0	0	0	0	0	0	2	1	0	0	0	0	0
OTU 167	0	0	0	0	1	1	0	13	0	1	0	0	8	0	0	0	0	0	0	1	0	0	0	0	0	0	1	0	15	3	0	0	0	0	1	2	1	9	2	1	8	1	0	4	0	2	0	0	0	1
OTU 168	5	2	1	0	1	2	8	0	0	0	4	1	0	0	2	65	0	2	1	1	0	0	2	0	2	0	0	1	0	0	2	0	0	0	0	0	2	1	1	2	1	0	0	3	3	1	0	1	0	0
OTU 169	0	0	0	0	0	0	0	0	0	0	0	0	0	0	0	1	0	0	0	0	0	0	3	0	0	0	0	0	3	0	0	0	0	0	3	0	0	0	0	4	0	0	0	0	0	0	0	1	0	0
OTU 170	0	0	0	0	0	0	0	0	0	0	0	0	0	0	0	0	1	0	0	0	0	0	0	0	0	0	0	0	0	0	0	0	0	0	0	0	0	0	0	0	0	0	0	0	0	0	2	0	0	0
OTU 171	2	0	7	0	0	0	2	0	17	2	0	0	1	0	0	1	0	0	0	7	0	1	0	0	0	1	1	0	0	4	0	0	1	0	106	0	0	9	2	0	0	0	0	1	0	0	1	0	2	0
OTU 172	2	0	0	0	0	0	0	0	0	0	0	0	0	0	0	0	1	0	0	1	0	0	0	0	0	0	0	0	0	0	0	0	1	0	0	2	0	0	0	0	0	0	0	0	0	0	0	0	0	1
OTU 173	0	0	0	0	2	1	0	1	0	2	1	1	1	0	0	0	0	0	0	0	1	0	3	0	1	0	0	0	1	0	0	2	0	3	0	0	0	1	0	0	0	0	0	0	0	0	0	0	0	0
OTU 174	13	3	0	0	8	0	40	0	0	0	0	0	0	2	5	0	1	7	0	0	0	0	2	5	7	0	0	5	0	0	3	2	0	4	0	0	0	0	4	10	0	0	0	2	0	0	3	1	3	0
OTU 175	0	0	2	1	1	1	0	1	0	0	0	2	0	0	0	2	0	0	0	0	0	0	0	0	0	0	9	10	1	0	9	0	3	0	0	0	0	2	0	0	0	2	0	0	0	1	0	1	0	1
OTU 176	2	3	0	0	3	1	0	1	0	2	2	5	1	2	4	1	3	0	1	0	7	9	0	2	0	1	0	2	4	6	4	0	0	1	0	0	1	13	2	0	3	1	0	4	1	3	2	2	10	15
OTU 177	1	0	0	2	0	4	0	0	1	0	2	0	1	0	3	0	1	0	1	1	1	1	0	5	0	0	5	0	1	0	0	0	3	4	2	2	1	0	3	2	6	1	1	0	1	0	0	0	5	1
OTU 178	0	1	0	0	1	0	0	0	0	0	0	0	0	1	0	0	0	0	4	1	0	1	0	0	0	0	0	0	0	0	0	0	0	0	3	0	0	0	0	1	0	0	0	0	1	0	0	0	2	0
OTU 179	0	0	0	0	0	3	0	6	4	0	2	1	5	0	1	0	0	0	0	0	0	0	0	0	0	0	0	0	0	0	0	0	15	0	0	0	0	0	1	0	0	0	0	0	0	0	0	0	0	0
OTU 180	6	8	1	3	3	65	3	3	4	6	49	7	2	3	3	35	17	4	0	0	3	3	5	0	0	26	2	18	5	0	1	13	6	5	0	5	13	3	3	5	5	0	11	4	31	43	8	4	3	18
OTU 181	1	0	0	2	1	0	0	0	0	0	0	0	0	4	0	1	2	2	0	0	1	0	0	0	0	0	0	0	0	0	3	0	0	1	0	0	1	0	0	0	0	3	1	0	0	2	0	0	8	0
OTU 182	0	0	0	0	0	0	0	0	0	0	0	0	0	0	0	0	0	0	0	0	0	0	0	0	0	0	0	0	0	0	0	0	0	0	0	0	0	0	0	0	0	0	0	0	0	0	0	0	0	0
OTU 183	2	0	0	1	1	0	1	1	0	1	1	0	0	0	2	0	4	0	1	2	1	2	5	0	0	3	3	2	6	1	1	0	7	0	0	0	0	2	3	4	3	1	0	0	0	2	2	1	3	2
OTU 184	0	1	0	0	0	0	0	0	0	1	2	0	1	0	0	0	0	1	2	0	0	4	0	0	0	0	0	1	0	0	1	0	0	1	0	0	0	0	1	0	0	3	0	0	0	0	7	7	2	0
OTU 185	2	1	1	0	0	0	0	0	1	0	0	1	2	3	0	9	2	0	4	1	5	1	3	0	0	1	0	2	1	0	2	1	2	0	4	0	1	2	2	3	1	6	0	0	1	3	0	11	3	0
OTU 186	0	0	0	1	0	1	0	2	0	1	0	0	2	0	3	3	0	2	0	0	0	3	0	0	1	0	0	2	0	2	2	0	0	0	3	0	0	7	0	0	0	0	0	1	1	0	0	0	1	1
OTU 187	6	0	0	3	3	1	0	5	4	0	2	2	1	2	1	3	1	0	2	3	1	0	0	5	1	5	0	3	1	0	4	3	7	0	0	0	0	2	0	0	0	2	0	1	0	1	3	2	10	5
OTU 188	1	5	66	1	3	0	0	1	52	3	2	0	0	0	3	2	0	7	0	23	1	0	16	1	0	0	2	0	6	0	0	7	0	0	0	0	4	6	1	0	0	3	2	29	1	0	11	1	4	7
OTU 189	1	4	4	0	0	2	0	2	11	2	4	3	2	0	0	0	0	3	4	1	0	19	4	2	0	2	1	0	1	2	1	2	0	0	3	0	0	4	0	0	0	1	0	2	0	0	1	6	2	4
OTU 190	0	0	2	0	0	0	0	0	0	0	0	1	0	0	0	0	0	0	0	0	1	1	0	0	0	0	0	0	0	0	0	0	0	0	0	0	0	0	0	0	0	0	0	0	0	0	0	0	0	1
OTU 191	1	0	0	2	2	1	2	0	0	9	2	3	0	1	2	0	3	1	0	1	0	0	1	12	1	4	0	0	3	8	1	0	0	0	0	0	0	7	1	0	0	1	1	3	1	3	5	0	0	2
OTU 192	4	6	4	4	6	2	0	27	0	0	3	1	6	12	3	3	1	2	0	4	1	0	2	1	4	8	0	0	0	2	0	0	8	1	0	0	0	0	5	1	3	0	4	3	0	2	13	0	5	0
OTU 193	0	0	1	0	1	1	0	0	3	0	2	2	1	1	2	0	0	2	0	1	0	0	1	0	0	0	2	0	7	2	0	0	0	0	0	0	1	5	4	0	7	0	0	0	0	2	1	3	4	2
OTU 194	2	5	2	1	5	0	0	7	0	0	1	0	1	11	0	6	0	0	0	0	0	0	0	9	2	7	5	81	0	0	0	0	0	0	1	0	1	0	0	0	0	0	0	3	0	1	1	0	0	0
OTU 195	0	2	0	0	3	0	2	0	1	0	3	0	0	0	3	0	0	3	0	6	0	0	0	1	0	0	0	0	19	0	0	0	0	0	0	0	0	0	1	0	0	2	1	0	2	0	0	0	1	0
OTU 196	0	4	0	2	2	4	0	0	0	0	0	0	0	0	0	0	3	2	1	10	0	0	4	0	0	0	15	1	0	178	2	0	0	0	4	2	1	3	0	2	21	4	7	0	1	8	2	1	0	5
OTU 197	5	4	6	0	0	2	2	1	0	1	28	4	0	0	6	0	3	8	3	2	3	1	5	1	2	6	0	1	1	2	1	3	0	1	35	1	1	2	6	0	0	0	0	1	0	10	0	1	5	1
OTU 198	1	0	6	0	0	0	0	0	5	0	0	0	0	0	0	2	0	0	0	0	7	0	1	0	0	0	0	0	0	1	0	0	0	0	0	0	0	0	0	0	0	0	0	0	0	0	0	0	0	0
OTU 199	0	0	2	0	0	1	2	0	0	0	0	1	0	0	1	0	0	0	0	0	1	1	0	0	0	0	0	0	0	0	1	0	3	1	0	0	1	0	0	0	0	1	3	0	0	0	0	1	0	0
OTU 200	3	3	5	0	2	0	2	1	0	5	1	8	1	3	4	2	0	1	0	4	1	0	1	2	4	1	4	1	1	3	3	0	0	0	1	0	0	3	0	0	6	5	1	0	0	0	1	0	5	0
