	Host 1	Host 2	Host 3	Host 4	Host 5	Host 6	Host 7	Host 8	Host 9	Host 10	Host 11	Host 12	Host 13	Host 14	Host 15	Host 16	Host 17	Host 18	Host 19	Host 20	Host 21	Host 22	Host 23	Host 24	Host 25	Host 26	Host 27	Host 28	Host 29	Host 30	Host 31	Host 32	Host 33	Host 34	Host 35	Host 36	Host 37	Host 38	Host 39	Host 40	Host 41	Host 42	Host 43	Host 44	Host 45	Host 46	Host 47	Host 48	Host 49	Host 50	
OTU 1	18	34	149	59	23	2	22	10	88	66	0	6	11	76	29	34	0	90	6	131	48	7	171	13	0	0	85	52	94	0	16	33	0	30	27	80	1	46	96	4	210	42	0	97	47	43	50	6	0	62
OTU 2	142	4	86	56	2	8	4	21	0	3	0	7	10	27	0	14	23	13	28	4	5	0	0	885	19	127	3	0	14	2	4	0	90	2801	4	39	31	0	3	116	1234	3	10	0	157	0	32	24	0	0
OTU 3	0	1	0	0	134	192	2	0	9	3	5	2	0	0	1	0	0	0	6	0	0	0	30	3	0	1	0	4	0	0	0	4	1	25	0	0	0	2	1	68	0	0	5	0	0	3	2	0	101	2
OTU 4	0	0	0	0	0	0	0	0	0	0	0	0	0	7	0	0	0	0	0	0	0	0	0	0	0	0	4	0	0	0	0	0	0	0	0	0	0	5	0	0	0	0	0	0	0	0	0	0	0	0
OTU 5	420	275	1	90	129	584	812	119	592	523	638	460	2084	577	302	775	654	169	39	1332	0	177	382	227	9	329	25	126	236	135	0	57	39	136	161	3	0	169	243	18	18	36	397	0	0	895	344	109	13	0
OTU 6	18	0	41	15	22	3	15	63	24	8	0	28	71	10	104	15	1	13	4	12	26	25	36	1	1	98	194	4	18	1	9	0	92	10	20	18	3	25	7	15	990	1	780	45	53	35	5	4	1	20
OTU 7	71	27	158	23	77	17	217	116	23	39	39	11	135	37	3	15	513	57	72	3	33	32	91	5	30	85	4	52	55	52	207	41	150	43	738	75	2131	50	1587	184	39	730	109	94	145	6	27	44	13	105
OTU 8	15	97	22	9	138	21	2	60	23	90	43	2	88	55	6	3	84	13	33	43	28	91	68	9	83	68	39	47	4	97	90	69	164	128	2916	11	364	16	49	126	16	34	74	43	5	12	19	108	11	260
OTU 9	21	1	57	3	3	0	3	1	8	19	12	0	0	0	0	17	0	1	19	1	61	0	10	26	24	29	0	1	0	19	26	13	31	0	0	23	0	38	0	66	0	0	0	14	48	1	0	26	0	0
OTU 10	0	36	26	0	78	24	0	4	0	40	0	2	10	0	1	6	5	2	2	0	0	2	0	5	306	0	7	27	3	22	72	10	24	73	828	13	3	13	1168	7	0	389	11	7	0	1	0	9	16	0
OTU 11	23	51	21	16	97	2	45	105	14	2	4	17	9	0	0	24	12	24	0	2	33	11	11	8	72	7	2	47	22	87	24	1	16	2	2	9	74	29	0	792	19	21	5	115	162	0	2	28	54	30
OTU 12	1	64	11	38	77	41	10	76	4	5	4	10	13	4	4	22	71	66	2	9	64	9	2	11	10	11	22	31	33	110	67	19	75	78	41	6	146	13	15	14	0	2	62	17	2	91	6	3	3	94
OTU 13	0	0	1	0	0	0	0	0	0	0	0	9	0	1	0	1	0	0	0	0	6	0	0	0	68	0	0	0	8	0	12	0	0	2	85	1	0	0	123	120	0	0	0	0	0	0	0	4	78	66
OTU 14	0	40	0	0	1	36	8	0	0	10	4	2	3	0	0	4	26	4	0	8	101	124	1	0	16	38	0	55	23	2	4	4	9	2	4	0	0	0	7	39	3	15	23	25	3	0	1	1	16	49
OTU 15	0	12	2	0	0	0	0	0	2	1	38	0	20	0	0	0	1	76	4	41	0	0	1	0	0	0	0	32	0	1	7	0	3	0	3	1	1	0	0	21	0	419	1	4	0	0	2	0	0	0
OTU 16	0	0	0	0	0	0	0	0	0	0	0	0	0	0	0	0	0	0	0	0	0	0	0	0	0	1	0	3	0	0	1	0	0	0	0	0	0	0	0	0	0	0	0	0	0	0	0	0	0	9
OTU 17	1	3	2	1	123	9	17	20	31	5	4	5	9	0	2	11	11	5	4	8	147	0	50	4	248	20	4	0	5	11	51	5	10	10	13	2	17	0	36	12	27	14	10	1	7	9	1	12	0	37
OTU 18	43	132	44	98	62	137	46	17	3	20	46	148	13	248	32	19	12	118	29	8	9	3	17	19	15	116	43	7	37	79	139	13	12	59	0	21	80	4108	1	5	20	33	18	63	34	25	67	77	23	22
OTU 19	0	0	0	0	0	0	0	0	0	0	0	0	19	0	0	0	0	0	0	0	0	0	0	0	0	0	0	0	0	0	0	0	0	0	0	0	0	0	0	0	0	0	0	0	0	0	0	0	0	0
OTU 20	7	10	2	6	6	120	6	68	24	17	51	0	17	145	3	5	9	32	4	0	1	58	48	0	17	267	5	8	30	5	103	36	1	9	7	0	10	37	4	8	34	10	4	99	0	8	44	14	45	12
OTU 21	0	51	48	25	15	48	19	30	12	0	10	0	20	120	22	0	82	57	8	7	90	76	12	11	84	30	21	3	1	189	32	86	101	45	5	22	18	40	15	89	51	21	63	15	0	37	42	9	1	55
OTU 22	27	17	6	16	16	3	0	31	12	20	26	12	131	52	13	34	15	78	81	19	5	123	79	4	12	41	17	209	44	202	42	403	9	7	6	5	93	143	6	15	70	19	108	6	35	75	0	0	1	5
OTU 23	1	4	0	5	1	6	0	26	0	58	31	22	25	1	4	20	0	1	54	0	28	22	1	4	1	18	18	17	24	45	9	10	0	3	1	0	74	38	0	5	12	1	0	134	0	7	4	3	15	9
OTU 24	2	10	1	0	65	0	0	10	2	1	0	0	3	0	4	0	12	0	0	37	505	10	12	0	2	0	15	18	1	19	1	4	1	0	27	2	0	0	108	83	1	43	0	7	5	3	2	1	1	0
OTU 25	0	0	0	0	0	0	0	0	0	1	0	0	0	0	0	15	0	3	0	0	0	0	0	0	22	0	0	7	0	0	0	0	0	0	0	0	0	0	0	0	0	0	0	0	0	0	0	0	0	0
OTU 26	0	9	0	9	2	0	0	0	0	23	6	0	32	0	0	4	0	0	5	0	0	8	0	2	0	23	0	0	0	0	9	0	0	0	442	0	6	3	0	0	1	0	2	4	8	0	10	23	4	0
OTU 27	0	0	0	0	42	0	0	0	0	0	0	0	0	0	9	1	0	1	0	0	0	0	0	0	0	1	11	0	0	0	0	0	0	0	0	0	0	0	0	0	0	0	0	10	0	3	5	0	0	0
OTU 28	35	86	17	78	18	38	8	0	2	23	12	0	57	5	10	1	28	5	6	35	28	10	9	19	145	202	19	5	25	10	26	14	64	7	56	6	50	4	30	6	8	15	2	49	41	0	9	54	103	41
OTU 29	29	19	130	0	49	0	103	1	8	3	31	16	16	27	75	43	11	71	18	57	105	71	23	25	3	17	146	17	75	27	148	125	73	25	9	59	159	13	1	111	3	25	14	25	55	26	51	1	104	193
OTU 30	0	0	0	1	0	0	0	0	0	0	0	0	0	2	0	0	0	0	0	0	0	0	0	0	0	0	0	0	0	0	0	0	0	4	0	0	1	0	0	0	0	0	0	0	0	0	0	0	0	0
OTU 31	0	4	0	0	41	0	0	10	5	34	8	0	0	37	25	0	1	8	3	0	90	0	7	43	6	21	55	27	0	45	0	0	0	31	9	0	25	1	0	0	27	1	1	37	1	0	0	0	0	16
OTU 32	241	43	21	60	91	28	49	51	40	51	41	13	3	13	2003	15	3	14	243	72	70	187	90	120	0	98	1488	220	61	139	11	429	68	12	28	11	170	170	42	18	6	18	56	127	419	851	1	70	31	34
OTU 33	0	2	0	0	0	2	0	1	0	2	0	0	0	0	0	0	0	0	0	7	0	0	22	0	42	0	1	0	0	0	0	0	0	0	0	0	0	0	0	9	0	0	3	0	0	13	0	0	2	0
OTU 34	3	39	154	139	89	25	23	144	4	94	59	4	17	44	2	5	44	63	1	13	58	1	0	14	106	14	3	0	0	28	14	49	14	50	0	70	8	32	1	163	13	16	2	24	8	10	9	0	1	2
OTU 35	3	26	0	27	1	59	11	12	0	0	6	7	8	221	7	37	8	15	1	1	649	10	0	90	1	2	22	1	53	9	7	7	1181	45	7	0	62	25	30	135	110	0	13	18	9	498	127	6	58	37
OTU 36	0	6	1	18	19	4	0	117	2	2	32	0	1	40	13	2	0	10	8	23	138	2	2	3	189	183	19	52	7	0	125	0	115	2	18	0	16	4	38	68	12	60	77	2	8	147	25	32	33	49
OTU 37	95	2	0	42	138	13	0	0	0	0	0	3	0	93	58	0	0	0	0	6	4	0	0	38	31	56	80	2	5	37	23	1	0	0	6	0	13	1	0	0	0	1	14	14	126	4	27	0	702	0
OTU 38	23	21	3	41	21	162	7	94	4	2	43	1	15	84	0	2	49	69	216	30	4	36	7	35	1	99	3	170	10	25	27	50	77	3	5	1	0	14	8	0	7	13	74	381	100	4	18	11	2	122
OTU 39	38	2	0	0	24	0	0	0	1	0	4	2	12	33	1	0	0	6	0	2	11	0	2	0	4	0	0	0	0	0	41	0	2	0	0	0	14	0	18	0	0	5	0	15	8	1	24	41	5	54
OTU 40	36	3	22	7	129	6	185	62	10	67	11	6	47	258	7	24	72	21	121	5	162	1	11	8	107	46	4	706	7	10	68	24	8	118	4	7	18	3	34	88	35	19	9	2	38	1710	206	9	10	39
OTU 41	3	25	30	2	48	61	1310	65	10	68	44	13	6	24	6	2	15	134	27	75	0	21	4	3	28	18	4	151	1	8	12	14	2	19	19	14	51	6	50	22	39	37	1	2	1	11	29	1	54	12
OTU 42	0	7	16	237	0	43	32	0	4	2	9	13	15	0	0	15	0	0	34	0	0	0	3	4	15	13	0	168	11	2	0	0	0	0	0	4	9	12	0	8	4	21	36	0	33	4	0	0	1	0
OTU 43	0	0	6	0	0	0	0	0	0	0	0	0	0	0	0	0	0	0	0	0	0	0	0	0	0	0	0	0	0	0	0	0	0	0	0	6	0	0	0	0	0	0	0	0	0	0	0	20	0	6
OTU 44	0	0	2	0	0	0	0	0	34	20	166	0	0	0	0	0	0	164	0	5	6	2	50	4	0	1	1	0	0	0	3	4	0	0	0	2	28	0	4	6	0	0	0	0	0	2	3748	0	0	0
OTU 45	2	77	261	81	82	33	87	33	7	29	4	17	46	2	11	1	1	16	538	1	7	52	27	13	30	19	31	16	2	34	196	41	91	0	9	129	31	28	8	100	0	31	48	99	26	21	0	97	0	99
OTU 46	581	30	64	489	1	19	26	121	14	99	32	36	207	48	3	74	26	88	33	124	26	87	15	89	156	84	6	67	154	91	126	289	56	73	92	29	4	35	186	85	5	52	77	51	1301	33	0	780	144	42
OTU 47	8	50	0	0	26	0	0	0	0	0	0	1	0	0	0	0	0	5	1	0	1	0	0	0	2	0	0	0	0	111	0	0	1	0	1	0	0	0	0	1	0	23	0	0	2	0	8	0	0	133
OTU 48	58	59	21	18	130	16	36	17	6	6	18	5	94	2	12	36	76	65	0	13	74	31	15	46	31	205	45	36	7	22	3	71	118	34	8	7	47	53	31	79	15	29	12	351	110	17	2	22	8	59
OTU 49	14	0	123	16	23	104	60	25	0	45	0	0	0	29	7	0	0	3	2	9	0	6	0	3541	0	0	17	46	0	0	4	1	39	0	0	49	13	0	5	74	1	1	1	3	36	47	9	0	1	78
OTU 50	38	31	26	92	32	126	12	10	41	20	1	3	46	141	4	23	3	9	5	15	404	62	62	296	47	107	3	16	15	3	40	63	12	166	18	9	17	35	14	59	237	1	57	254	20	13	90	18	10	3
OTU 51	28	2	41	6	107	18	25	35	65	4	42	2	0	127	30	8	67	125	36	17	1	5	150	10	2	120	58	33	33	169	6	32	10	0	361	23	180	7	713	38	7	320	1	47	56	19	55	56	0	69
OTU 52	41	3032	30	5	150	96	18	30	206	23	113	3	92	0	43	12	23	225	32	291	130	259	376	185	101	111	165	145	33	6	70	859	5	542	172	20	82	324	244	30	131	135	100	269	44	58	21	316	3	44
OTU 53	0	0	0	0	0	0	0	1	0	1	0	0	0	0	0	0	0	0	2	0	0	0	0	0	0	0	0	0	0	0	0	0	0	0	1	0	0	0	0	0	0	12	0	0	0	0	0	1	0	19
OTU 54	4	25	34	26	14	301	71	8	37	42	75	5	86	43	23	1	42	174	86	11	2	96	38	23	17	0	66	108	5	127	107	85	20	19	10	16	44	133	3	80	90	3	45	97	0	83	16	165	0	10
OTU 55	0	0	0	0	0	0	0	0	0	0	0	0	0	0	0	0	0	0	0	0	0	0	0	0	1	0	0	0	0	0	0	0	0	0	0	0	0	0	0	0	0	0	0	0	1	0	0	0	0	0
OTU 56	0	7	5	21	3	13	0	45	3	0	7	4	11	0	12	0	0	8	1	40	6	0	11	2	8	4	21	22	4	0	10	1	15	16	4	4	31	9	0	10	0	0	8	340	9	19	1	0	1	44
OTU 57	175	154	79	33	107	51	25	15	46	9	29	150	38	234	39	177	35	43	36	41	146	39	89	110	108	178	65	73	318	130	70	96	219	24	44	40	66	17	67	90	46	8	83	96	237	40	82	106	242	79
OTU 58	1	12	14	26	129	64	7	34	2	0	24	0	10	106	2	1	6	141	71	35	138	0	10	2	67	1	2	66	22	3	23	0	115	14	12	6	0	3	0	218	2	0	2	0	0	5	66	43	31	0
OTU 59	0	0	102	8	2	0	5	8	30	7	5	3	0	52	3	0	40	27	1	0	0	8	51	16	126	0	6	71	0	32	0	7	15	45	2	51	61	18	15	3	17	0	68	35	0	31	38	6	0	4
OTU 60	13	26	1	53	29	82	0	144	35	34	86	1	58	53	6	1	61	104	0	22	161	2	122	18	172	175	13	96	4	5	40	15	76	0	58	1	166	3	73	11	29	80	2	14	55	17	24	12	3	112
OTU 61	66	74	230	69	16	1099	183	127	0	83	24	11	52	166	2563	22	11	50	50	35	197	2	2	69	86	52	15	222	38	35	16	96	26	13	10	122	46	23	31	210	19	111	68	78	63	0	42	36	29	29
OTU 62	7	36	9	0	0	3	0	14	0	1	0	0	7	0	0	0	0	0	6	0	0	17	0	1	38	68	3	1	1	0	1	60	91	4	0	6	8	4	9	0	11	4	0	76	13	0	0	0	0	131
OTU 63	11	2	86	0	3	8	8	0	18	4	3	0	0	16	1	0	98	2	1	0	0	68	46	81	58	0	0	0	4	4	17	148	3	55	13	43	6	129	1	36	1	5	5	14	13	50	4	6	0	6
OTU 64	140	108	84	19	62	44	38	124	71	36	57	29	57	131	6	86	40	199	104	191	155	32	137	57	17	90	15	74	94	157	41	44	37	8	14	44	110	80	125	73	52	58	33	335	420	180	61	291	112	124
OTU 65	21	0	0	5	0	0	0	0	0	0	0	0	1	0	0	0	0	10	0	0	0	0	0	7	0	0	0	0	3	0	0	0	584	0	0	0	0	0	0	0	0	4	0	0	13	0	0	0	57	0
OTU 66	5	10	5	10	12	0	1	82	46	5	6	29	25	79	3	48	6	56	6	12	80	23	57	10	25	7	6	16	73	20	9	78	22	31	2	1	149	0	52	4	0	4	112	8	17	92	7	1	51	229
OTU 67	4	52	50	22	115	71	14	3	103	14	2118	0	56	32	14	13	15	41	24	28	15	0	166	14	20	50	15	53	26	2	11	0	20	3	9	29	78	6	2	10	0	18	2	0	0	32	10	6	2	124
OTU 68	12	0	81	0	22	1	84	1	22	0	14	10	9	6	15	51	2	52	0	8	105	1	20	18	142	0	17	2	78	17	0	4	9	1	1	37	0	1	4	0	10	4	14	3	66	1	3	17	9	10
OTU 69	3	0	21	4	11	111	20	76	11	53	15	0	25	665	17	0	28	4	7	19	2	6	8	7	1	61	11	32	5	176	8	87	0	65	38	4862	628	57	55	171	58	39	120	155	30	20	251	205	27	55
OTU 70	0	3	64	0	18	5	17	7	12	5	0	1	0	32	4	0	0	0	1	0	0	3	31	6	0	67	2	47	2	10	58	0	0	1	0	25	0	4	0	32	10	0	0	35	0	0	20	17	39	39
OTU 71	0	50	17	4	13	0	15	12	3	52	23	343	6	2	0	550	2	60	16	1	111	0	0	17	4	1	3	21	11	18	31	13	92	2	22	9	6	10	0	52	2	0	16	76	0	11	2	5	13	1
OTU 72	44	172	4	11	77	45	20	143	14	8	31	8	74	82	88	17	55	82	19	35	5	2	21	4	17	91	165	16	59	62	43	18	0	31	2	2	63	16	16	99	0	22	22	0	31	16	80	47	17	2
OTU 73	51	7	16	9	25	13	2	42	234	25	38	9	3	0	0	3	7	3	1	0	59	0	412	48	190	0	1	27	1	10	211	2	12	12	31	7	6	5	2	8	28	7	0	0	102	32	1	45	0	18
OTU 74	7	12	11	8	18	1	13	137	4	0	77	4622	23	12	1	5	9	37	3	9	1	50	6	35	150	81	3	42	1	205	125	285	111	344	1	7	418	60	0	166	179	62	1	70	13	5	1	75	56	0
OTU 75	1	21	4	19	59	31	2	95	2	38	26	5	57	159	40	1	3	62	77	7	132	1	1	38	387	62	96	104	2	95	128	7	33	10	35	5	123	14	11	23	2	0	47	48	1	123	74	5	20	2
OTU 76	5	0	1	1	18	9	16	8	1	0	6	1	0	0	0	0	8	0	9	4	0	0	0	83	22	29	0	2	0	7	1	2	0	0	0	0	0	10	6	1	11	6	1	349	0	21	1	8	1	0
OTU 77	4	27	11	20	2	82	1	4	49	17	0	0	13	5	7	10	2	1	1701	38	40	91	50	29	5	49	13	2448	5	16	5	83	0	2	9	6	24	39	139	175	12	53	56	24	23	16	10	149	29	0
OTU 78	51	29	50	99	190	167	32	53	15	1225	21	0	10	10	1	0	49	25	17	3	3	10	21	8	166	0	6	50	2	319	14	26	12	25	0	26	43	2	6	2	1	18	0	12	74	0	4	11	1	166
OTU 79	71	742	90	69	243	129	1197	866	66	81	74	16	325	33	149	18	243	99	66	1488	86	105	132	60	287	69	227	81	42	370	944	122	27	286	13	33	98	72	39	63	73	56	232	74	79	59	33	109	127	184
OTU 80	61	179	129	3	58	10	35	18	1421	14	19	2	86	58	132	0	14	4	18	4	111	6	2975	106	17	19	310	0	0	42	74	40	42	10	6	54	30	41	0	37	45	3	49	78	101	338	30	15	9	39
OTU 81	46	371	111	8	284	157	71	6	8	142	58	12	4	8	156	19	0	69	448	33	228	49	25	23	38	48	280	159	26	23	208	15	14	18	46	53	22	32	84	48	9	12	45	15	114	108	4	19	6	13
OTU 82	52	12	12	75	119	7	16	74	43	1	1	9	22	0	1	19	1	24	28	7	73	2	87	0	3	160	0	20	158	85	5	1	19	39	25	10	21	21	36	4	64	92	9	147	77	0	3	15	82	5
OTU 83	12	1	46	1	3	1	0	0	0	8	8	2	18	0	40	0	1	0	0	0	0	20	0	0	2	1	92	0	0	0	97	80	116	0	17	19	21	43	27	0	1	0	0	0	41	8	0	0	1	0
OTU 84	18	16	0	1	4	0	3	103	2	5	1183	1	37	36	9	0	8	1815	6	1	1	0	6	0	11	50	31	4	33	6	4	0	2	0	87	0	3	7	144	41	10	13	0	14	77	0	59	5	0	0
OTU 85	17	2	8	4	12	0	6	11	1	0	0	0	221	6	9	0	3	6	1	0	0	0	0	33	0	0	35	1	1	26	6	0	0	16	0	1	0	1	1	282	3	0	0	203	43	0	0	3	72	48
OTU 86	0	0	0	3	44	0	0	0	0	0	0	0	0	0	0	14	0	0	2	0	1	0	0	0	0	0	0	0	0	22	0	0	0	0	2	0	6	0	0	0	1	0	0	1	8	0	0	0	0	0
OTU 87	0	0	3	0	1	0	0	1	2	1	1	0	12	1	1	0	14	0	3	1268	18	0	0	0	0	0	1	52	0	92	125	2	0	0	827	0	0	0	1687	19	0	539	48	1	0	1	4	5	11	0
OTU 88	0	0	0	0	0	4	0	0	5	2	0	0	0	29	1	0	2	13	0	0	14	3	1	0	1	50	2	0	0	0	0	42	12	0	0	0	0	46	0	0	0	0	0	0	0	0	26	0	2	0
OTU 89	78	0	47	2	0	44	12	51	8	2	0	0	0	115	0	1	8	0	0	0	31	0	12	27	49	14	0	0	0	0	13	32	6	2	0	17	5	44	22	6	0	0	31	0	113	4	36	45	11	2
OTU 90	0	3	2	0	0	0	0	7	0	17	22	11	0	7	0	43	0	0	0	0	0	0	0	0	0	0	0	0	44	0	0	0	0	0	8	3	51	0	8	0	0	0	0	0	1	0	0	0	0	0
OTU 91	0	0	0	1	0	2	0	0	0	23	0	0	0	0	0	0	0	0	0	1	0	1114	0	0	0	0	0	0	0	0	0	1784	0	2	9	0	0	654	0	0	0	21	0	0	0	0	0	18	0	3
OTU 92	9	0	17	18	0	0	68	0	2	0	9	5	7	3	0	0	1	1	1	0	15	0	11	2	51	0	0	2	0	3	1	11	18	7	0	8	12	0	0	0	1	0	0	0	0	1	0	2	1	0
OTU 93	1	12	0	4	0	0	0	4	5	0	0	0	25	0	0	0	0	1	2	0	0	1	2	0	0	14	0	0	1	0	89	0	0	0	5	0	0	0	17	0	0	0	0	8	2	0	0	0	0	0
OTU 94	104	13	385	56	3	101	145	68	352	178	51	0	5	48	26	34	57	39	18	18	191	78	681	11	185	140	30	31	45	110	93	107	23	61	0	187	97	43	34	65	26	28	44	55	119	20	62	32	54	145
OTU 95	0	35	7	0	0	0	3	0	0	1641	1129	1	0	1	0	0	15	21	15	3	6	21	0	0	228	57	0	0	46	3	0	2	0	0	0	2	0	27	22	10	0	0	0	0	0	0	4	1	17	32
OTU 96	1	0	0	0	0	3	0	0	0	30	2	0	0	0	0	0	0	0	0	0	1	3	2	0	0	2	0	1	0	0	0	0	523	0	0	0	1	0	0	0	0	0	0	0	0	0	0	1	0	0
OTU 97	0	4	0	0	0	0	0	0	0	0	14	22	3	0	201	36	0	0	0	0	12	0	0	0	1	0	0	0	79	0	0	2	2	28	0	0	1	0	0	1	26	0	0	0	0	0	1	0	0	1
OTU 98	48	2	0	56	2	5	0	3	0	1	1	0	1	0	89	0	0	11	2	2	6	3	0	1	1	1	98	1	6	0	7	2	154	3	8	0	6	0	0	43	0	12	0	4	86	24	3	0	17	9
OTU 99	47	4	19	73	123	90	8	5	10	2	36	6	88	51	69	35	0	124	26	53	40	88	38	18	36	61	94	122	48	5	35	156	138	65	135	14	21	105	139	40	19	41	15	110	28	8	19	5	219	43
OTU 100	0	77	30	1	1	8	35	2	50	0	60	0	7	0	11	5	0	138	39	0	7	0	92	9	7	12	3	20	0	0	9	0	12	15	11	11	33	2	0	14	5	1763	1	0	0	8	4	4	2	0
OTU 101	0	2	0	29	28	0	0	0	1	1	0	0	0	9	0	0	13	0	0	0	0	0	0	0	0	2	0	4	0	11	5	4	0	1	21	0	0	0	0	0	0	4	0	0	1	0	34	1	0	0
OTU 102	20	0	98	0	0	51	47	0	18	30	0	0	0	3	7	0	1013	2	0	0	0	27	83	0	11	0	35	9	0	12	0	67	0	1	0	41	0	22	0	3	1	4	0	0	6	8	0	9	2	0
OTU 103	25	691	2	1	46	0	0	0	45	65	1	3	3	0	3	5	2	26	1	0	3	26	52	0	3	14	0	1	6	22	11	0	4	1	0	0	10	7	14	69	45	4	10	58	10	0	254	4	6	24
OTU 104	2614	0	1942	38	11	3	1123	228	35	2	106	3	141	7	29	5	15	253	6	15	96	28	82	28	21	296	50	2	10	32	17	71	245	214	1019	962	59	18	44	63	152	2	8	5	151	23	30	40	290	752
OTU 105	0	2	9	0	0	5	39	0	0	0	3	1	10	111	61	0	0	0	26	3	0	0	5	0	0	43	84	2	0	0	1809	0	0	0	0	7	0	0	0	0	0	5	17	0	0	1	37	0	0	0
OTU 106	29	2	103	3	0	68	38	0	77	0	15	0	31	7	14	1	2	0	19	0	6	3	152	0	102	1	53	83	17	0	0	0	0	19	0	62	0	1	5	0	3	3	5	133	117	10	9	0	65	64
OTU 107	11	5	1	1	34	20	11	1	5	0	0	0	0	10	0	0	0	6	5	19	2	0	16	1	87	23	2	0	2	4	0	8	723	55	4	2	0	0	4	0	17	4	56	7	0	0	0	621	4	20
OTU 108	1	17	1	0	7	33	3	1	1	4	0	0	0	17	33	2	264	2	46	2	2	5	1	0	11	55	63	7	11	15	54	17	0	0	26	0	14	6	17	7	9	61	1	3	12	0	7	0	3	57
OTU 109	0	0	55	0	0	0	15	0	0	0	0	0	0	0	0	0	0	0	0	0	0	0	0	0	0	0	0	6	0	0	0	0	1	0	0	24	0	0	0	0	0	0	0	2	0	0	0	0	0	16
OTU 110	195	59	2	20	81	14	3	9	0	131	0	69	217	100	31	7	14	5	10	144	1	2	0	269	134	2	82	26	23	142	336	1	84	547	20	3	81	12	147	5	172	48	0	10	44	80	28	3	5	7
OTU 111	7	0	0	0	5	349	1	0	0	0	0	0	0	4	3	0	0	0	1	0	0	101	0	2	3	0	3	2	0	0	0	62	0	0	0	0	0	16	0	1	0	0	0	0	19	0	12	0	10	0
OTU 112	1	4	8	33	3	0	1	13	19	55	44	0	0	2	6	1	2	15	241	11	3	13	19	9	0	20	1	227	2	1	0	48	82	0	0	2	8	24	1	52	1	7	2	1	0	1	9	6	89	3
OTU 113	0	24	0	0	0	1	2	26	0	18	0	0	4	0	0	0	0	0	0	0	7	0	3	0	0	0	0	0	0	0	0	0	1	14	3	0	3	0	0	0	1	0	35	0	0	2	0	4	127	0
OTU 114	76	418	305	15	34	12	53	93	28	211	76	5	66	161	132	8	5	170	87	58	158	52	29	53	63	54	293	112	18	55	26	21	258	109	7	160	181	29	13	112	47	21	29	83	108	127	78	1	52	35
OTU 115	57	36	38	48	34	25	30	99	20	179	74	18	66	3	70	74	82	145	17	24	6	9	37	68	54	161	170	13	88	195	25	8	78	100	32	24	225	60	28	21	43	44	151	221	198	75	2	154	65	57
OTU 116	24	7	34	1	30	26	33	0	31	16	12	0	40	39	6	0	18	11	10	130	114	84	70	5	16	91	10	3	9	88	15	28	44	0	54	18	14	91	83	2	2	17	89	66	21	11	64	5	16	72
OTU 117	23	48	0	0	142	111	0	504	40	13	21	37	109	0	2	21	49	62	1	28	9	6	30	37	43	46	0	1	34	139	274	25	40	23	56	0	31	62	61	29	1	62	101	0	68	28	0	27	27	135
OTU 118	0	0	0	17	0	0	7	3	1	1	0	3	0	1	1	12	17	65	0	0	5	21	9	0	7	48	4	0	1	0	0	28	1	0	0	0	0	1	0	47	0	0	0	2	0	8	1	1	0	0
OTU 119	15	40	60	32	33	27	20	36	3	19	51	0	1	36	7	10	0	118	45	0	17	31	7	18	40	3	5	39	9	1	0	110	25	52	3	29	8	88	6	36	33	1	6	19	1	8	36	10	175	31
OTU 120	16	21	0	20	43	25	2	51	38	1	268	6	0	4	2	16	10	672	4	30	22	32	87	1	13	7	4	4	38	52	30	62	62	0	0	0	24	48	7	0	0	1	61	1	44	0	0	0	16	58
OTU 121	3	14	21	79	11	15	5	14	4	1	11	1	0	36	33	3	33	13	14	20	7	0	0	0	105	33	78	48	1	23	16	18	0	59	2	4	5	0	9	54	0	0	22	16	14	5	40	19	15	211
OTU 122	9	32	86	32	30	7	35	77	59	12	114	11	1	16	1	35	2	64	0	0	1	15	117	0	29	13	1	40	56	15	103	9	128	34	10	40	18	0	37	0	23	3	39	165	2	18	5	20	1	37
OTU 123	359	38	238	157	185	108	196	162	2010	119	220	78	9	25	80	83	132	386	78	194	225	316	364	210	150	196	185	107	145	50	123	684	105	256	85	109	25	728	273	427	115	162	222	234	390	1374	484	456	150	187
OTU 124	0	0	1	5	21	0	0	121	32	31	7	0	0	43	0	2	0	3	0	0	14	0	87	20	4	24	0	5	0	0	28	0	0	0	0	0	21	21	0	8	0	11	0	1	10	14	16	1	5	2
OTU 125	108	85	177	56	49	198	27	106	75	779	76	37	520	176	22	9	879	66	39	14	87	44	102	70	105	73	25	190	126	895	92	58	115	59	45	286	102	74	22	72	58	118	316	148	284	55	125	89	25	145
OTU 126	0	0	0	0	10	0	0	0	0	0	5	0	0	0	33	0	0	0	0	0	1	18	0	0	0	126	42	0	0	0	0	5	4	0	1	0	1	54	0	0	0	0	0	0	0	0	0	0	0	0
OTU 127	0	96	5	27	37	2	1	5	21	1	0	14	31	8	7	0	12	0	1	35	111	13	32	56	73	45	7	17	0	29	10	5	40	0	18	3	9	0	2	46	0	0	41	11	1	41	8	23	89	0
OTU 128	372	56	566	169	71	291	1409	192	17	588	70	46	89	111	966	108	83	177	191	1587	427	70	57	137	369	143	573	336	204	134	368	279	83	372	16	299	183	57	86	226	328	2570	88	70	789	571	152	161	174	9
OTU 129	0	0	0	0	8	0	3	0	8	0	0	0	0	0	12	0	31	0	1	2	0	123	13	0	0	0	39	10	1	129	12	115	0	0	0	0	0	9	0	0	0	1	1	0	3	21	0	0	13	11
OTU 130	3	36	9	4	1	11	0	17	0	0	1	7	172	83	16	0	6	3	10	6	1	5	0	13	168	74	66	0	13	32	4	31	13	0	16	3	3	0	0	3	4	9	30	128	3	40	10	33	14	40
OTU 131	6	28	1	10	1	22	6	110	1	6	259	0	89	1	22	0	9	671	27	0	0	5	3	20	57	160	21	33	6	5	4	11	180	14	0	1	232	0	0	6	4	0	0	1	18	16	1	894	87	20
OTU 132	62	5	4	0	5	0	3	121	0	125	24	10	0	57	33	5	14	101	71	76	1	56	0	0	2	10	27	23	13	0	6	65	8	11	15	3	104	12	96	28	3	33	1	0	200	2	26	3	1	0
OTU 133	0	1	1	2	1	0	0	0	2	0	16	0	36	3	0	0	6	3	0	0	0	28	1	0	0	0	0	63	0	0	0	20	45	61	0	0	8	0	1	0	6	0	11	0	1	0	0	0	3259	0
OTU 134	42	30	10	71	67	15	2	7	15	58	49	0	3	0	45	6	37	89	3	4	8	74	38	27	81	4	74	10	4	170	29	171	2	0	0	7	0	67	3	27	0	62	4	8	65	55	2	18	18	38
OTU 135	14	8	7	36	81	142	0	4	78	3	2	572	18	29	123	1388	552	0	23	50	27	21	170	0	0	19	253	0	2562	1231	87	63	122	64	38	3	15	30	16	0	18	0	790	0	63	110	18	90	2	11
OTU 136	6	24	48	11	52	149	23	45	4	0	26	1	16	10	6	1	6	24	0	0	8	33	2	0	27	7	24	36	2	6	6	0	19	4	15	25	0	0	13	90	1	2	0	2	12	0	0	15	8	34
OTU 137	14	62	1	20	91	21	0	52	9	1	0	0	18	1	0	3	0	0	0	117	0	2163	11	0	19	0	0	0	6	16	0	4	0	1	5	0	1	0	41	0	7	58	0	12	17	0	1	4	7	33
OTU 138	11	7	29	1	0	6	4	0	43	165	0	0	2	466	1	4	6	1	11	5	8	1	48	61	1	61	0	52	1	55	0	0	0	7	0	13	25	1	0	1	10	0	3	0	1	3	251	32	0	42
OTU 139	77	35	370	45	5	74	125	54	2	37	4	3	2	20	49	16	42	54	54	344	65	21	3	31	550	783	52	107	41	22	130	13	56	32	43	200	55	65	76	42	22	72	16	128	201	2	7	9	13	33
OTU 140	45	92	14	69	4	136	14	56	22	102	29	4	57	441	319	6	95	18	71	33	110	28	49	83	74	397	697	57	15	93	41	79	34	139	39	6	15	19	43	64	52	54	92	795	60	220	240	57	32	139
OTU 141	0	0	0	0	0	0	1	0	0	11	0	0	0	42	0	0	0	0	0	0	0	0	0	0	56	0	0	0	1	0	0	0	0	0	0	0	0	0	0	71	0	3	0	0	0	10	0	0	0	0
OTU 142	0	0	0	0	3	0	0	0	0	0	0	0	0	0	0	0	1	0	0	10	0	0	0	0	19	0	0	0	0	0	16	0	0	0	0	0	0	0	0	29	0	0	0	75	0	0	0	0	14	0
OTU 143	0	0	0	0	8	40	6	0	0	0	1	2	0	4	50	6	0	0	0	0	3	0	0	0	0	0	120	0	0	16	7	0	6	0	1	0	2	0	0	0	0	11	0	49	0	17	0	14	0	0
OTU 144	0	40	141	0	19	1	61	0	51	3	0	0	12	87	0	0	0	0	0	6	1	0	69	3	0	0	4	0	0	1	1	0	0	6	0	75	0	0	3	46	10	6	0	5	0	12	25	2	12	47
OTU 145	25	7	22	15	110	52	20	100	92	25	7	9	18	68	0	19	41	17	70	1	0	74	35	21	59	125	11	0	40	1	3	40	85	70	3	18	12	63	7	52	52	25	40	81	40	36	38	115	23	96
OTU 146	9	3	18	29	260	31	0	9	7	1	0	3	330	30	132	3	11	15	52	3	36	18	24	33	290	116	291	32	1	29	2	55	55	20	5	11	19	24	29	13	0	22	0	18	22	26	18	24	24	304
OTU 147	10	40	0	16	0	39	3	16	1	1	0	5	16	0	6	11	16	0	0	1	64	18	0	25	1	0	0	2	59	3	2	2	21	1	1	0	16	10	7	0	0	11	17	47	0	0	0	39	1	1
OTU 148	50	66	91	14	2	35	0	0	8	10	7	5	8	3	51	4	8	54	14	16	96	224	5	117	90	1	111	1	7	17	137	364	418	132	3	36	22	45	14	265	58	0	33	86	60	78	1	96	1	6
OTU 149	1	1	0	2	0	118	1	29	1	0	0	6	775	11	11	10	21	20	7	15	5	3	0	0	9	0	9	4	38	0	0	19	0	2	0	0	9	24	0	25	7	3	10	1	5	1	59	0	22	161
OTU 150	1	1	4	67	0	7	0	0	8	0	1	2	2	2	22	2	2	0	1	0	1	1	25	0	27	74	36	0	0	28	22	0	0	1	0	7	1	10	2	35	0	0	1	5	3	47	1	6	7	2
OTU 151	2	3	0	12	97	1	3	27	3	0	0	0	6	1	19	1	12	0	5	6	2	2	0	9	42	3	15	44	0	20	4	2	71	0	2	0	9	1	0	3	1	5	35	17	1	7	9	0	4	13
OTU 152	4	53	9	17	3	43	37	64	0	37	22	29	7	60	14	14	0	66	12	114	248	52	2	10	450	411	39	12	5	45	45	61	7	1	107	6	111	82	296	36	28	27	1	76	31	24	0	9	8	5
OTU 153	0	44	0	0	0	0	0	1	0	2	0	0	0	10	0	0	0	0	0	1	7	0	0	4	0	0	0	0	0	0	1	51	0	0	0	0	0	0	1	0	0	0	15	2	8	0	0	0	3	0
OTU 154	0	0	0	0	0	0	0	1	0	6	22	1	0	0	0	0	0	0	3	0	0	0	0	289	0	6	0	0	0	0	0	0	0	284	0	0	0	0	0	0	133	0	0	0	0	0	0	0	6	6
OTU 155	0	5	0	3	88	108	0	46	9	14	0	0	52	0	0	0	2229	18	5	0	0	2	20	23	3	1	0	0	0	53	54	20	0	3	2	0	1	0	1	5	51	11	10	75	0	0	1	3	23	0
OTU 156	0	83	107	7	32	35	67	357	0	97	35	1	52	67	3	0	125	54	36	8	33	63	17	13	75	85	10	7	28	88	27	126	67	22	8	65	38	23	7	276	12	8	38	43	10	6	25	24	7	13
OTU 157	0	0	0	255	0	4	0	2	1	6	0	0	0	0	12	0	0	0	0	0	1	8	0	0	0	231	37	20	1	0	1	2	37	0	19	0	18	1	34	1	1	0	0	0	2	0	0	0	18	10
OTU 158	0	0	20	11	0	8	39	0	0	0	2	0	41	0	0	0	67	0	0	0	0	0	0	0	0	0	0	1	0	58	11	1	0	0	5	9	0	0	8	0	1	0	123	3	0	12	0	0	0	0
OTU 159	0	1	4	4	136	59	2	15	2	0	33	10	123	7	0	9	20	52	5	2	4	1	11	26	3	81	0	0	3	64	6	6	87	14	9	1	548	24	22	69	0	33	42	10	16	14	7	1733	24	16
OTU 160	161	24	270	22	107	263	104	124	18	87	28	156	85	39	77	239	227	62	20	116	79	14	38	102	123	223	133	23	452	128	142	3	64	93	0	120	265	47	18	56	43	7	41	222	151	56	13	135	94	69
OTU 161	0	14	6	4	2	6	1	7	1	6	37	14	46	16	84	19	55	48	52	1	15	1	0	23	11	13	173	8	13	16	4	67	12	10	9	2	44	33	16	0	8	44	16	93	0	58	27	20	6	18
OTU 162	25	11	2	74	32	50	6	400	8	36	76	21	160	121	16	36	17	112	17	0	282	23	0	24	68	97	57	41	47	58	0	0	0	23	0	1	1	21	11	19	0	15	13	6	16	0	31	20	20	24
OTU 163	0	4	7	8	0	0	0	0	0	0	0	0	7	0	0	0	0	0	0	0	29	0	0	0	0	0	0	0	0	0	0	0	0	0	0	1	0	0	0	0	0	0	0	0	0	0	0	0	0	0
OTU 164	0	0	0	0	0	0	0	0	0	0	0	4	0	8	0	21	0	0	46	0	0	0	0	0	9	0	0	0	31	0	0	0	0	0	0	0	0	0	0	6	0	0	0	0	0	0	0	0	0	53
OTU 165	0	0	1	3	6	43	1	47	16	38	7	1	64	3	1	0	38	1	0	1	190	0	20	6	2	0	7	0	0	19	7	9	29	68	0	1	8	24	30	5	6	34	51	47	0	73	1	7	144	153
OTU 166	784	0	0	0	0	0	0	5	0	0	0	0	0	0	0	0	6	0	0	1	0	1	0	0	0	0	0	0	0	4	0	0	0	0	0	0	1	4	0	0	0	0	0	0	0	0	0	0	0	0
OTU 167	0	7	0	7	11	8	0	102	0	0	2	2	10	70	11	0	4	1	5	4	37	0	2	0	7	15	16	25	0	0	1	4	0	2	6	0	8	2	3	11	9	5	12	25	1	22	56	75	12	17
OTU 168	60	4	9	2	18	26	26	13	8	11	0	0	5	17	1	0	8	2	5	9	6	14	2	33	9	41	0	2	6	11	6	8	1	2	8	1	5	38	2	19	50	6	0	5	114	65	16	1	1	7
OTU 169	0	0	11	1	0	1	0	0	0	0	0	0	4	0	0	0	0	0	0	0	0	26	0	0	0	0	0	0	0	0	0	96	22	36	0	6	0	13	0	2	2	1	0	1	17	0	0	0	0	0
OTU 170	1	0	84	0	1	18	22	0	0	1	0	0	1	0	0	0	0	0	0	0	0	0	0	0	0	0	0	0	0	0	0	0	72	0	22	33	0	0	0	0	0	0	0	0	0	0	0	0	0	0
OTU 171	117	0	65	17	50	744	89	1	0	15	1	12	9	51	0	7	2	5	49	76	37	21	2	200	3	26	3	2	67	28	146	19	5	62	37	32	46	1	44	56	9	27	2	29	144	0	18	2	9	55
OTU 172	0	0	0	0	0	0	0	0	0	0	0	1	0	0	38	0	0	13	1	0	0	0	0	18	0	0	84	0	0	0	0	0	0	43	0	0	0	0	0	0	83	0	1	8	0	1	0	0	1	1
OTU 173	0	14	0	2	2	28	3	49	4	13	2	0	13	0	0	0	142	0	6	22	0	0	10	1	0	0	0	15	0	399	8	0	0	26	62	0	38	5	0	0	0	7	382	8	0	0	0	18	0	12
OTU 174	1	26	8	84	2247	40	1	0	4	35	0	1	0	13	11	0	5	1	0	10	250	7	21	37	90	1	30	22	0	26	18	0	8	0	0	4	34	4	2	48	1	1	5	31	38	0	2	460	13	26
OTU 175	39	23	126	3	19	2	32	21	0	15	8	0	64	1	10	0	35	0	2	0	0	6	0	2	0	17	13	0	18	4	8	9	33	52	21	68	0	15	1	6	0	4	0	44	17	6	0	7	55	16
OTU 176	1	1	5	31	62	72	28	14	12	28	37	9	3	30	41	9	108	66	1	22	95	38	44	1	63	67	122	4	40	65	18	138	0	3	54	2	33	85	68	11	2	6	7	63	7	17	10	24	21	24
OTU 177	10	62	77	4	41	12	57	52	0	30	5	1	69	14	12	3	16	15	3	14	133	1	4	54	80	5	15	0	0	34	6	3	3	139	9	44	7	118	13	99	63	1	24	103	57	7	2	2	5	17
OTU 178	0	7	20	5	189	137	12	126	0	0	19	6	0	58	0	26	50	33	17	0	2	1	0	1	92	29	1	30	20	179	0	2	1	2	1	9	11	6	12	3	33	5	56	43	3	0	35	31	0	9
OTU 179	0	2	0	14	2	131	0	74	44	3	56	0	0	2	0	13	5	27	42	3	49	61	60	0	2	12	0	49	9	20	9	29	26	0	3	0	24	19	5	30	0	2	1	1	0	0	2	10	5	5
OTU 180	2	82	36	69	72	102	41	102	226	29	113	13	36	212	38	35	52	193	238	155	163	20	95	189	69	196	52	585	40	146	31	14	89	72	19	21	62	40	25	175	29	162	139	67	69	71	418	74	774	66
OTU 181	7	0	64	4	178	45	31	358	4	36	0	0	4	62	58	0	87	14	18	3	89	7	7	1	66	5	90	4	0	76	0	3	2	22	0	21	64	0	9	4	21	32	0	128	33	1	11	0	5	0
OTU 182	2	0	0	0	0	0	0	0	0	1	0	0	0	0	0	0	0	0	0	0	0	0	0	0	0	1	0	0	0	2	0	0	0	112	0	0	0	0	0	0	28	0	0	0	0	0	0	0	0	90
OTU 183	0	48	11	58	45	16	9	30	1	395	57	13	54	21	71	32	8	9	21	9	140	661	19	29	51	2	117	82	123	7	43	5	36	3	16	6	1	23	15	12	0	35	24	2	25	1	19	82	37	400
OTU 184	4	21	55	3	2	22	56	12	0	0	5	0	9	37	2	1	1	5	4	27	0	1	0	40	0	0	0	1	0	44	20	7	59	0	19	23	10	0	71	7	28	30	0	3	78	1	10	74	69	1
OTU 185	84	23	7	36	178	25	0	7	1	45	28	189	2	9	4	223	3	30	55	310	215	0	8	26	44	44	1	57	497	24	0	14	31	68	28	68	39	21	15	366	58	29	31	111	81	2	11	69	146	19
OTU 186	0	0	62	0	0	14	53	114	4	0	0	1517	6	15	0	3259	0	0	0	0	2	3	1	15	1	31	0	5	0	40	4	0	10	0	1	31	9	0	0	43	0	6	14	0	0	0	0	0	0	78
OTU 187	19	13	119	16	46	78	126	86	52	99	8	2	41	131	13	1	7	10	69	5	110	75	47	6	58	12	3	14	1	3	78	71	21	86	45	51	101	16	38	89	22	11	2332	22	88	20	64	60	20	28
OTU 188	6	66	26	20	56	227	35	56	14	2	28	114	8	28	41	199	3	21	44	12	86	34	43	59	139	106	90	76	72	1	30	12	16	46	8	21	38	60	1	61	167	23	13	6	16	0	18	122	26	116
OTU 189	32	89	38	51	142	53	10	198	11	98	641	140	0	67	10	225	14	1	5	6	34	1343	25	32	38	38	10	83	75	47	49	2	91	22	7	19	45	38	39	177	10	25	95	45	59	44	15	6	86	1730
OTU 190	1	0	79	0	0	0	21	0	0	0	0	0	907	0	6	3	0	0	0	1	0	0	0	0	1	2	14	0	6	0	0	1	0	0	0	37	0	0	2	0	3301	0	514	97	0	0	0	0	1	0
OTU 191	82	12	64	48	20	51	104	326	33	8	26	26	5	1232	28	45	99	20	6	14	133	38	34	4	6	2	38	11	72	142	43	25	0	1	68	32	29	30	65	52	3	18	21	5	270	0	607	16	190	18
OTU 192	5	12	195	1467	87	18	59	232	42	38	23	506	7	62	135	1064	15	129	111	70	287	8	51	28	80	77	340	22	2155	18	9	1	19	10	10	91	18	18	52	596	21	59	13	334	5	96	0	4	6	2
OTU 193	11	47	29	4	72	104	11	262	12	6	12	4	7	2	26	2	49	4	182	4	68	3	29	193	119	0	106	183	12	121	125	19	162	30	0	13	72	1	23	53	80	11	22	32	0	14	0	23	6	107
OTU 194	2	0	0	4	90	1	0	26	0	52	13	8	49	34	0	34	1	5	80	1	0	0	6	6	105	1	0	24	29	21	3	0	12	4	0	0	1	2	3	47	0	0	3	19	0	0	40	8	16	12
OTU 195	62	195	0	12	7	0	0	43	2399	23	8	15	15	15	24	22	9	3	1	11	0	1	50	51	17	25	74	19	40	0	118	8	86	19	0	0	34	0	4	23	21	1	3	7	190	39	41	75	0	0
OTU 196	11	7	47	4	3	0	31	6	27	29	22	2	35	0	3	0	2	17	14	30	3	14	41	2	70	102	0	67	16	0	141	11	36	14	13	22	16	30	7	17	42	1	7	5	8	18	0	97	5	21
OTU 197	829	34	75	2	13	108	16	48	34	401	29	8	174	55	110	12	74	94	2907	17	22	20	81	204	25	94	178	14	56	33	199	5	194	211	95	23	34	22	18	359	53	26	32	292	135	22	20	11	48	49
OTU 198	0	0	192	0	2	0	50	58	0	0	3	0	2	0	1	0	9	2	6	6	0	0	1	0	59	47	0	9	0	0	149	0	11	19	0	87	0	0	6	0	0	0	0	1	0	0	4	0	25	3
OTU 199	14	29	2	3742	2	80	13	1	8	25	0	0	0	150	12	0	1	22	7	3	7	0	12	4	114	1	21	9	12	1	21	0	1	0	1	0	6	10	0	0	0	4	0	7	12	7	105	0	25	52
OTU 200	5	7	15	5	3	59	38	119	3	53	2	7	19	122	26	11	0	29	4	20	27	53	0	1	3	10	70	1	6	95	10	40	8	24	11	8	56	2	0	27	7	0	55	20	11	24	23	17	28	2
