	Host 1	Host 2	Host 3	Host 4	Host 5	Host 6	Host 7	Host 8	Host 9	Host 10	Host 11	Host 12	Host 13	Host 14	Host 15	Host 16	Host 17	Host 18	Host 19	Host 20	Host 21	Host 22	Host 23	Host 24	Host 25	Host 26	Host 27	Host 28	Host 29	Host 30	Host 31	Host 32	Host 33	Host 34	Host 35	Host 36	Host 37	Host 38	Host 39	Host 40	Host 41	Host 42	Host 43	Host 44	Host 45	Host 46	Host 47	Host 48	Host 49	Host 50	
OTU 1	98	13	93	86	238	418	5	473	350	98	230	1	0	2	327	219	189	2	730	2	12	156	339	5	0	251	172	214	0	238	277	465	68	310	0	195	345	646	32	10	128	321	67	0	73	348	38	196	1158	336
OTU 2	0	39	5	0	5	2	0	0	8	0	0	6	1	0	10	1	49	1	23	0	375	2	14	2	0	21	1	0	0	1	21	1	43	4	4	18	0	2	36	0	10	5	0	2	10	27	56	0	4	1
OTU 3	26	12	0	0	49	0	0	0	0	0	2	0	0	1	0	8	0	0	1	7	25	0	9	0	13	0	0	1	3	0	4	8	21	0	63	0	1	62	1	0	4	0	2	3	0	0	34	2	8	47
OTU 4	0	22	0	0	0	0	0	0	0	0	0	0	0	0	0	0	0	0	0	0	0	0	0	0	0	0	0	0	0	0	0	0	0	0	0	0	0	0	0	0	0	0	0	0	0	56	0	0	0	0
OTU 5	678	464	1	178	74	331	768	1197	644	56	28	46	195	174	0	82	10	365	1315	92	338	455	335	60	391	74	2153	245	180	935	910	79	0	606	20	825	513	60	5	353	10	19	318	37	66	39	46	257	66	79
OTU 6	108	22	12	3	0	1686	41	8	7	8	19	11	35	41	2	7	152	7	29	1	35	3	0	0	27	15	3	0	4	1	660	0	76	9	3	28	56	22	2	0	3	6	4	54	2	21	9	6	1	7
OTU 7	86	43	45	17	46	53	50	32	311	23	695	104	76	124	69	9	267	16	59	71	46	57	56	22	65	1	75	44	303	7	14	89	165	122	176	443	118	31	54	212	7	49	8	16	42	177	49	88	216	27
OTU 8	2	224	112	2246	55	33	607	23	88	6	96	9	155	146	6	44	161	138	25	65	12	3	3	111	247	19	6	7	266	16	108	10	32	8	54	40	132	83	23	97	90	73	27	48	21	23	11	30	25	51
OTU 9	3	8	22	0	31	25	42	1	4	2	0	1	34	82	17	14	14	26	5	6	31	0	2	0	11	37	12	0	15	0	10	21	17	38	0	7	3	49	5	41	7	7	8	0	1088	3	14	0	54	21
OTU 10	2	0	0	1	7	0	0	21	2	0	80	19	2	2	0	0	0	15	8	0	52	8	60	6	3	0	0	58	14	1	18	1	0	0	8	2	25	16	12	6	0	0	1	50	0	15	50	0	4	6
OTU 11	0	8	2	20	9	11	15	24	17	28	5	64	29	0	47	19	20	29	10	58	5	1	3	1	3	69	11	16	157	7	20	44	93	17	138	6	126	60	49	5	6	6	27	132	4	82	59	3	35	33
OTU 12	65	24	11	28	19	35	141	3	50	22	17	153	31	46	57	2	216	40	39	6	150	52	80	7	183	30	31	45	90	80	35	77	149	83	227	22	5	3	66	43	27	7	1	74	41	154	18	12	91	8
OTU 13	0	1	0	0	0	0	0	5	0	0	0	1	0	103	0	0	0	0	1	0	0	0	0	2	0	3	0	0	0	0	0	0	1	0	0	0	0	0	0	0	4	0	0	0	5	0	0	1	0	0
OTU 14	0	32	16	10	0	48	90	0	25	8	27	7	2	8	6	1	67	27	3	3	24	11	23	1	0	3	22	28	0	115	0	3	0	56	1	0	6	0	40	0	0	10	1	4	44	2	1	8	0	1
OTU 15	0	0	0	2	0	0	66	1	3	0	0	0	0	1	10	0	0	0	0	1	41	0	0	2	3	15	0	0	0	2	0	0	5	0	0	0	1	0	0	0	0	0	0	0	3	1	0	0	0	0
OTU 16	0	0	0	0	0	0	0	0	0	0	0	0	0	0	0	0	0	30	0	0	0	0	0	0	0	0	0	0	0	0	0	0	0	0	0	0	0	26	0	0	5	0	0	0	0	0	0	0	0	15
OTU 17	2	21	2	4	9	0	7	5	0	6	17	75	65	4	18	3	3	27	18	32	3	1	4	0	18	4	2	0	5	0	4	8	11	7	423	1	1	16	19	0	0	92	0	10	21	0	97	11	4	14
OTU 18	0	14	192	6	2	13	39	8	10	7	66	86	12	1	21	5	42	93	7	16	380	17	6	2431	36	7	12	1	44	71	31	4	80	23	31	25	12	1	7	115	37	46	0	19	12	30	3	1	7	0
OTU 19	0	0	0	0	0	0	0	0	8	0	6	0	0	0	0	0	0	0	0	0	0	1	0	0	0	0	0	0	0	0	0	0	1	0	0	0	0	0	0	0	0	0	0	0	0	0	0	0	0	0
OTU 20	20	32	1	1	2	0	171	42	28	4	200	54	48	8	15	14	35	4	6	1	7	5	0	15	98	1	0	18	196	13	12	2140	128	0	55	11	47	40	91	4	5	4	2	3	12	4	2	13	5	28
OTU 21	23	3	382	21	153	506	10	193	388	31	200	91	121	143	114	40	25	0	475	75	32	1586	405	248	25	67	142	88	51	259	0	384	70	284	25	269	42	206	6	35	145	165	17	36	26	462	4	192	712	109
OTU 22	3	75	33	18	1	51	33	79	24	46	142	8	64	1	20	40	83	6	1	2679	1	4	22	9	40	18	1	18	15	9	52	14	85	2	262	39	253	3	6	48	46	33	15	282	33	17	15	5	20	6
OTU 23	32	0	5	24	40	8	18	35	23	28	11	16	0	139	40	0	10	2	1	1	10	0	6	2	4	0	7	0	133	5	3	2	24	9	33	1	0	4	7	152	11	0	1	4	4	5	9	0	6	0
OTU 24	3	0	48	3	0	5	7	5	22	18	323	24	15	5	0	0	9	18	2	0	30	0	0	47	20	22	0	21	3	0	2	0	114	0	27	0	5	0	1	100	0	5	1	0	0	0	7	0	0	0
OTU 25	0	0	0	0	0	0	0	0	0	0	0	0	0	0	0	0	0	0	0	0	0	0	0	0	23	0	0	0	0	3	0	8	0	0	0	0	0	0	3	0	0	0	0	1	0	0	0	0	28	0
OTU 26	0	3	257	0	2	0	25	0	0	0	3	1	66	47	0	0	2	0	26	0	0	18	1	51	0	0	0	0	4	2	0	0	0	0	0	4	11	0	0	0	0	0	0	0	20	0	0	0	0	0
OTU 27	0	0	0	0	0	0	0	0	0	0	1	0	0	0	1	9	5	0	0	0	0	0	0	0	0	0	0	0	0	0	0	0	0	0	0	0	5	0	0	0	0	0	0	0	0	0	0	0	0	0
OTU 28	5	61	82	2	39	50	26	28	1	26	259	50	149	14	27	17	21	32	5	1	3	9	4	79	11	11	10	34	5	24	10	18	4	19	7	2	19	13	0	6	1	17	2	16	50	16	84	12	25	11
OTU 29	183	41	6	2101	190	664	53	438	561	185	14	14	15	2	307	238	38	71	827	12	33	118	377	11	102	65	92	244	22	153	260	566	131	174	98	222	7	499	102	104	297	161	169	6	151	714	7	86	1043	251
OTU 30	9	0	0	0	0	0	35	0	0	0	0	0	0	0	6	0	0	0	0	0	0	0	0	0	0	0	0	0	0	0	0	0	0	0	0	1	0	0	0	0	0	0	0	0	0	0	0	0	0	0
OTU 31	2	0	58	3	0	1	45	7	0	0	3	6	0	42	0	0	13	4	33	25	5	2	0	1	4	8	168	0	34	2	73	0	16	0	0	2	5	0	0	4	0	0	0	145	231	0	4	1	11	0
OTU 32	11	46	66	1	4	59	18	19	6	0	13	39	2	61	33	15	57	2	7	9	94	5	32	11	8	11	10	0	57	9	2012	1	23	35	57	21	29	4	22	41	26	35	0	23	50	49	50	3982	31	8
OTU 33	0	0	0	0	0	0	0	0	0	0	15	0	0	6	0	0	0	0	0	0	0	0	1	0	0	0	0	0	3	0	0	0	0	0	0	0	0	0	29	0	0	0	0	0	0	0	0	1	0	0
OTU 34	115	129	38	13	90	10	2	3	13	3	5	42	226	111	15	249	138	8	44	164	134	3	2	0	325	12	7	48	21	12	18	103	78	7	14	68	779	19	44	122	66	40	70	35	4	36	7	1	191	6
OTU 35	0	5	16	1	5	7	198	0	30	7	184	114	7	58	25	22	45	1	13	1	4	1	9	0	847	0	0	5	57	1	3	0	49	1	85	2	2	52	171	1	35	9	11	5	6	9	31	8	1	9
OTU 36	1	3	35	14	2	11	3	98	18	17	11	9	19	1	9	3	0	10	31	6	8	7	0	13	8	28	6	0	42	3	20	0	27	15	10	134	23	3	148	17	61	4	4	500	3	4	47	4	13	1
OTU 37	2	1	50	3	0	0	0	0	0	1	0	0	0	207	0	0	0	6	0	191	5	0	0	5	36	54	0	0	1	17	0	0	0	0	0	0	9	0	2	24	0	0	0	2	4	2	0	0	4	0
OTU 38	13	101	42	6	36	0	22	4	16	9	15	15	27	26	9	4	19	6	52	136	7	15	0	13	0	25	0	0	5	6	18	8	0	0	15	569	52	18	47	186	0	16	0	1	18	62	18	0	7	11
OTU 39	0	57	3	2	0	0	0	0	9	23	3	0	7	0	80	42	1	0	0	11	0	0	0	1	3	4	15	0	34	4	2	0	3	37	10	11	0	7	42	0	8	0	15	22	0	3	10	11	0	4
OTU 40	5	1	64	2	15	3	6	1	2	5	23	86	23	6	4	38	85	15	34	33	204	11	16	25	4	16	2	16	27	15	13	36	72	4	13	0	10	19	12	72	54	0	66	134	5	79	50	26	56	7
OTU 41	0	46	7	5	5	6	15	53	119	2	10	16	12	104	17	15	14	39	63	92	86	1	5	0	48	36	0	12	84	15	5	8	0	0	172	27	25	52	28	38	3	1	0	1	0	12	34	1	10	21
OTU 42	0	0	0	28	39	0	0	0	15	59	1	47	31	8	59	0	2	0	1	28	0	0	5	0	7	14	4	0	0	50	0	0	2	7	3	0	0	0	0	0	1	67	0	10	61	71	27	0	9	0
OTU 43	0	0	0	0	0	0	0	0	0	0	0	0	0	0	0	0	0	0	0	0	32	0	0	0	0	0	0	0	0	0	4	0	0	0	0	0	0	0	0	0	0	0	0	0	0	0	0	0	0	0
OTU 44	0	0	6	0	4	1	3	0	45	1	118	0	29	0	2	0	28	11	0	50	0	0	3	0	148	15	0	0	7	0	0	10	0	0	0	0	1	0	4	50	0	0	0	26	0	0	0	1	7	1
OTU 45	2	64	24	10	3	11	1	26	68	0	78	38	14	166	13	120	33	7	158	13	4	341	1798	17	2	4	0	781	0	840	81	4	0	5	56	2	49	16	7	32	11	23	55	27	17	123	1	5	16	4
OTU 46	35	5	4	7	5	5	63	7	7	13	80	14	6	34	1	31	63	11	60	15	175	12	1	2	68	72	8	20	650	5	554	12	37	13	0	41	28	48	43	22	17	16	8	166	46	12	11	13	51	17
OTU 47	2	0	0	0	2	4	30	0	0	0	45	18	0	0	0	0	53	3	0	0	2	0	0	0	0	0	0	16	2	1	0	1	0	0	0	5	6	0	1	0	0	0	0	0	0	0	0	0	0	0
OTU 48	8	50	102	3	29	50	108	0	1	3	0	8	21	59	3	20	26	11	11	0	215	3	50	124	102	37	11	29	39	23	6	2	19	20	73	30	1	38	4	27	1	43	5	60	19	154	57	15	1	19
OTU 49	1	1	20	0	23	47	20	21	1	0	14	19	28	9	0	0	11	0	133	0	25	1	17	9	121	5	1	11	23	3	52	0	65	1	6	48	54	1	13	0	3	35	3	5	0	51	54	0	14	1
OTU 50	19	65	77	4	10	2	7	15	82	11	14	34	9	53	7	9	296	88	64	7	27	24	21	116	6	81	1	28	24	5	30	1064	6	2	183	59	13	36	8	184	16	8	0	52	13	3	1	20	24	19
OTU 51	29	1	0	3	24	54	2	48	0	2	4	125	34	1	1	13	43	1	31	20	0	1	0	0	1	16	1	2	32	3	12	11	0	4	2	0	6	3	12	12	0	7	4	0	7	33	0	15	20	1
OTU 52	60	88	37	63	13	0	42	11	73	10	35	12	18	280	41	49	586	64	17	404	36	24	97	9	38	94	27	7	38	18	1	312	69	39	26	127	123	29	181	30	67	21	5	66	102	51	19	7	80	11
OTU 53	0	0	0	0	0	0	0	0	7	0	0	0	11	4	0	2	3	0	0	0	0	0	0	0	0	0	0	0	0	0	0	0	0	0	0	0	0	0	0	0	0	0	8	0	0	0	0	0	0	0
OTU 54	23	19	60	4	27	36	43	33	8	1	6	34	3	144	8	27	22	36	26	79	1194	194	464	4	66	13	0	331	67	366	16	1	116	3	1	7	80	5	117	5	39	2	66	37	5	138	6	23	28	11
OTU 55	0	0	0	0	0	0	0	0	0	0	0	0	0	0	0	0	0	0	0	0	0	0	0	0	0	0	0	0	0	0	2	0	1	0	0	0	0	0	0	0	0	0	0	0	0	0	0	0	0	0
OTU 56	9	0	3	0	3	0	1	2	5	0	0	71	10	0	1	2	44	1	0	0	11	0	10	0	164	15	17	0	5	0	4	0	0	39	6	0	12	3	0	12	14	3	5	0	18	9	0	1	4	4
OTU 57	55	434	3	6	95	13	79	103	31	22	30	28	5	286	53	53	361	223	240	152	12	17	40	7	49	10	26	84	95	35	71	23	121	55	73	99	66	9	27	878	1	143	5	83	1354	90	102	45	123	5
OTU 58	0	0	1	12	4	19	58	1	0	34	16	23	1	63	32	3	0	3	7	4	71	9	5	0	0	5	0	0	3	8	8	28	13	0	3	0	18	25	10	79	2	2	11	7	0	4	5	9	67	13
OTU 59	2	22	72	0	6	1	6	0	56	7	1	1	3	6	0	0	191	11	1	25	1	3	2	18	2	0	0	0	0	0	10	0	19	0	33	34	102	1	33	52	24	2	0	0	5	6	3	0	16	1
OTU 60	28	52	80	14	14	12	158	2	69	16	69	19	4	42	51	18	74	4	17	19	158	2360	25	4	47	26	7	90	47	0	17	18	32	14	2	2	70	23	16	53	64	16	13	47	32	13	45	14	9	18
OTU 61	392	110	54	40	32	73	5	245	135	25	86	46	105	23	51	497	1	71	643	5	280	1	2	29	26	179	2107	23	23	50	334	74	14	4283	4	14	80	99	30	428	24	38	258	122	686	27	110	1886	81	250
OTU 62	13	0	108	1	6	0	0	4	1	7	28	36	0	31	3	2	4	10	1	0	4	0	0	52	53	4	2	0	0	0	1	4	44	1	20	6	8	0	2	11	0	9	1	6	1	12	15	3	23	0
OTU 63	45	0	0	4	7	45	0	7	0	17	77	2	8	49	14	6	19	15	0	6	30	9	0	0	2	5	2	73	0	0	0	5	82	3	109	2	8	0	3	1	0	17	8	13	1	53	6	9	1	0
OTU 64	53	24	96	15	32	56	2	7	80	35	53	60	69	105	12	31	7	25	26	193	89	24	57	97	20	10	3	58	27	4	17	10	109	5	50	87	25	67	47	38	12	35	17	143	10	126	4	0	31	28
OTU 65	0	0	0	0	0	0	0	0	0	0	0	1	0	5	0	48	0	0	0	0	0	2	0	0	22	3	0	0	0	2	0	0	0	0	0	0	0	0	0	0	0	0	11	0	0	0	0	0	7	0
OTU 66	0	58	17	0	1	1	84	19	47	3	90	110	56	27	8	55	45	7	81	5	2	4	8	8	10	4	0	25	26	18	90	1327	13	0	162	56	28	2	0	22	11	0	20	22	30	16	23	3	11	1
OTU 67	0	44	0	3	1051	30	9	10	7	11	0	37	4	0	1	0	36	43	0	0	0	0	9	2	39	6	15	2	207	1	55	6	127	28	13	9	8	5	1	0	0	0	0	25	35	13	53	1	7	0
OTU 68	1	0	1	0	4	15	7	0	5	0	0	0	10	8	0	4	5	0	0	7	2	3	1	0	37	53	2	0	0	6	2	11	0	2	3	6	98	0	30	37	21	0	1	7	0	37	36	16	42	0
OTU 69	5	4	36	3	46	8	24	26	7	4	51	136	25	13	15	2	63	14	53	39	13	3	12	263	47	2	3	8	36	3	1	10	18	4	18	28	2	11	5	28	5	1	0	44	85	32	0	11	77	4
OTU 70	4	6	2	8	8	34	31	9	0	44	84	77	53	9	25	2	0	3	2	7	0	0	10	0	1	11	36	11	0	1	24	1	9	63	19	2	0	4	0	34	0	5	0	45	11	14	1	15	0	0
OTU 71	39	3	18	0	2532	1	26	0	10	0	27	0	32	42	5	7	0	717	26	0	14	1	25	35	6	1	0	15	29	0	2	13	4	0	122	42	0	34	10	43	9	64	6	31	21	5	1	0	84	14
OTU 72	3	0	44	0	3	6	17	7	1	52	18	17	234	4	50	3	67	101	9	23	15	10	29	5	26	4	4	55	9	2	137	0	20	20	84	17	9	5	8	21	12	9	10	147	88	1	0	20	9	3
OTU 73	7	41	12	5	66	57	5	20	133	16	0	0	10	68	5	9	19	5	11	42	179	12	21	10	18	7	18	0	134	11	33	14	1	39	122	3	90	31	12	3	0	1	8	10	0	0	35	17	36	26
OTU 74	5	3	29	1	18	17	194	6	2	1	5	161	0	414	1	26	5	18	7	211	1	34	48	12	7	109	0	2	51	6	23	39	202	1	109	5	351	32	49	126	57	26	24	176	63	185	3	8	31	13
OTU 75	581	115	0	13	2	22	16	15	35	69	1	34	172	110	30	45	23	167	0	1	649	1	8	0	29	557	20	2	2	0	2	16	69	37	298	2	98	37	0	7	134	575	11	24	47	24	139	0	23	8
OTU 76	8	8	1	16	6	0	25	0	0	1	45	0	16	19	20	0	20	29	0	1	0	0	7	12	19	0	0	1	59	20	0	1	2	1	254	26	0	0	1	401	0	0	0	2	23	0	0	5	0	0
OTU 77	3	14	1	0	12	81	35	1	39	1	45	27	19	3	3	14	56	1	12	5	12	15	32	3	66	15	11	2	32	55	18	3	6	17	48	23	39	81	9	33	1	69	3	35	103	40	25	0	17	35
OTU 78	15	72	5	38	26	141	21	3	3027	129	6	7	6	102	100	4	1	0	0	26	15	15	28	54	0	101	524	0	50	2	42	1	96	1141	6	190	20	61	8	14	113	2	0	52	10	80	80	508	0	51
OTU 79	26	90	352	51	54	120	59	25	7	60	115	140	70	133	33	0	352	75	22	25	229	81	145	153	164	167	3	75	8	1393	78	84	167	16	226	127	207	73	97	166	45	9	6	102	2	21	84	20	135	1769
OTU 80	19	3	111	456	9	24	111	33	13	1024	9	30	13	87	2093	5	29	98	71	163	27	9	0	26	92	5	38	9	4	22	13	23	2	58	34	146	36	10	15	37	5	24	10	16	6	22	55	0	36	8
OTU 81	345	92	204	3	22	34	341	2	98	41	50	33	14	1	16	572	27	33	14	4	36	12	23	168	21	5	0	26	19	6	25	20	14	0	6	46	74	38	181	35	37	8	409	58	0	8	48	44	7	30
OTU 82	11	100	6	17	1	0	67	10	6	61	2	123	14	6	49	28	53	0	2	1	16	3	0	46	89	11	2	1	48	24	5	1	62	7	73	10	0	3	4	141	12	0	16	0	1	16	9	0	1	0
OTU 83	0	2	17	15	0	5	0	0	0	41	0	49	0	0	67	4	1	0	30	42	55	0	3	0	0	17	0	5	0	0	0	19	10	0	0	0	7	74	2	1	36	14	0	38	2	0	0	0	64	47
OTU 84	5	0	122	9	24	4	181	36	0	16	19	8	2	0	24	31	3	6	1	0	5	5	3	13	9	3	42	1	36	0	1	8	43	53	354	9	16	4	46	43	20	22	17	51	0	36	0	33	8	1
OTU 85	12	4	10	30	0	35	20	9	2	26	5	10	13	5	53	6	1	34	53	18	36	26	83	0	15	9	0	5	10	3	0	18	0	0	0	0	1	66	19	45	14	1	4	0	1	2	1	26	73	48
OTU 86	0	0	0	0	0	0	0	0	62	0	0	0	0	0	5	0	0	0	0	0	0	0	0	0	0	0	0	0	25	0	0	0	0	0	0	0	0	68	0	0	2	0	0	29	1	11	25	0	0	17
OTU 87	1	0	0	3	0	4	0	0	2	0	45	0	101	161	14	1	0	0	0	34	0	1	0	0	6	0	0	2	0	0	21	0	32	2	1	0	2	0	0	98	5	1	0	2	6	11	0	9	0	0
OTU 88	0	50	4	0	8	0	0	0	0	0	0	2	15	1	0	106	1	11	0	0	0	3	0	1	0	0	0	13	58	2	3	0	0	0	0	3	1	12	3	4	0	0	61	0	4	2	0	0	0	2
OTU 89	15	0	0	0	0	0	114	2	7	2	3	0	0	83	11	5	23	1	20	134	9	4	0	1	11	5	0	1	34	0	19	0	2	0	0	1	2	12	1	42	1	4	17	0	387	3	2	3	0	5
OTU 90	0	0	17	0	2	19	28	0	0	0	0	0	1	24	0	0	0	23	0	20	27	0	0	0	0	2	1	0	0	0	35	2	0	4	36	3	17	1	0	1	0	0	0	17	0	0	0	27	47	1
OTU 91	0	0	0	0	0	25	0	0	0	0	0	0	0	0	0	0	0	6	0	0	0	0	0	0	0	0	0	0	0	0	0	0	111	0	35	0	0	0	0	0	1	0	0	0	9	0	0	1	0	0
OTU 92	6	1	0	11	0	0	3	0	2	9	0	0	20	4	11	0	0	0	18	33	0	9	16	1	0	7	0	3	28	6	20	7	5	0	56	0	134	60	13	0	16	0	0	0	43	0	56	1	2	22
OTU 93	0	0	0	4	0	14	76	0	12	3	0	0	0	13	0	9	0	0	0	1	0	0	0	0	2	0	0	21	0	2	0	0	0	0	4	91	0	0	4	0	0	0	0	9	0	1	1	0	0	0
OTU 94	23	19	180	44	121	325	37	78	115	101	13	4	117	1	169	14	126	26	86	30	43	78	250	113	55	227	60	100	10	51	84	155	291	133	91	126	115	142	185	112	162	187	4	115	57	212	6	56	308	102
OTU 95	0	21	0	0	21	0	9	25	0	0	29	30	0	0	2	0	67	13	0	9	10	6	21	0	0	21	0	0	6	2	7	38	33	0	0	0	0	3	1	0	5	4	4	0	0	1	1	0	99	4
OTU 96	29	0	0	0	0	0	0	0	3	0	7	0	0	0	0	0	24	0	0	0	0	0	0	0	44	0	0	0	0	0	0	0	0	0	0	0	0	1	0	0	0	6	0	100	0	0	0	0	0	0
OTU 97	1	0	2	2	0	3	0	0	5	0	0	2	0	0	0	1	3	0	0	0	14	0	0	0	0	11	0	32	5	0	1	0	5	0	0	2	0	0	0	0	2	0	0	34	0	7	0	3	0	0
OTU 98	2	0	0	31	7	1	0	0	2	12	0	0	428	32	5	16	1	46	0	0	0	7	0	0	43	9	0	0	9	5	18	8	5	0	3	13	451	24	0	0	10	0	9	40	0	157	1	1	1	15
OTU 99	1971	11	100	0	6	19	41	3	3	5	67	31	175	7	9	1	111	8	9	33	219	47	28	91	84	24	0	66	39	8	3	22	109	0	263	15	54	112	101	5	10	3	2	132	1	12	68	17	14	67
OTU 100	31	14	0	0	1	11	18	7	156	4	15	64	163	49	12	25	34	12	48	2	43	24	50	38	0	3	47	27	49	26	1	49	29	98	14	8	79	15	1	57	0	7	3	13	115	15	3	29	90	13
OTU 101	0	0	0	0	0	0	55	0	0	0	0	21	0	0	0	0	58	0	0	2	0	0	0	0	0	0	2	41	0	0	0	12	0	3	184	8	0	0	8	0	0	0	0	7	4	0	0	10	8	0
OTU 102	5	0	1	0	0	4	4	0	16	0	1	11	45	16	1	0	9	0	0	1	0	2	0	3	1	0	6	12	0	1	0	0	9	13	0	0	34	15	0	0	1	3	1	0	1	0	10	0	0	2
OTU 103	0	2	13	13	0	12	59	17	46	0	31	2	0	0	0	0	8	41	4	4	72	0	13	3	11	0	0	0	2	24	1	15	13	0	1	2	36	5	89	14	51	1	0	7	0	2	40	6	50	0
OTU 104	67	35	13	2	5	21	123	9	8	0	13	1	2	33	5	79	276	142	5	170	31	16	16	0	24	35	9	12	15	5	5	38	92	16	51	8	48	14	47	30	19	25	29	17	7	1	40	7	74	5
OTU 105	4	4	0	0	0	0	0	0	0	0	8	0	0	0	0	1	0	0	0	0	0	9	0	0	3	15	0	2	0	19	18	1	24	0	6	7	0	1	0	163	0	1	0	24	1	4	1	0	0	1
OTU 106	17	0	1	0	0	8	77	0	0	5	9	21	0	35	2	3	2	140	0	10	0	7	18	4	2	0	0	0	0	0	0	0	0	1	0	1	1	0	256	0	2	0	0	2	7	2	67	0	0	0
OTU 107	18	3535	24	1	1	28	0	0	0	0	3	0	0	120	0	6	9	12	2	0	0	0	0	7	3	0	1	0	0	1	34	0	0	2	3	0	28	11	5	102	1	5	11	0	0	0	3	0	0	1
OTU 108	0	65	114	20	9	71	13	8	7	34	7	25	32	29	111	3	187	0	1	41	2	18	8	17	1	21	1	8	67	22	0	2	32	4	0	1	5	29	4	19	5	0	5	26	11	0	3	0	2	6
OTU 109	0	0	0	1	0	5	0	0	0	0	0	0	0	0	0	0	0	0	0	0	11	0	0	0	0	0	0	1	0	0	0	0	0	0	0	0	0	0	0	0	0	0	0	0	0	1	0	0	0	0
OTU 110	1	73	34	1	87	15	55	2	46	0	5	27	14	9	14	3	4	1	3	5	9	0	0	5	6	5	1	8	17	0	146	5	8	4	0	17	16	16	76	147	17	58	1	3	12	63	19	6	3	7
OTU 111	0	0	0	0	0	0	0	0	0	0	0	0	2	0	0	12	131	0	0	1	0	1	0	0	0	2	0	0	0	9	1	0	16	0	38	0	0	40	0	0	0	0	4	0	1	2	0	0	2	19
OTU 112	1	0	129	1	0	55	9	0	11	1	0	21	110	6	48	3	1	0	4	5	72	8	0	14	3	8	2	1	8	0	10	0	3	3	0	3	0	57	2	3	13	0	0	0	49	0	6	1	4	17
OTU 113	0	1	17	0	0	0	0	0	5	0	4	20	0	0	1	0	1	4	0	5	32	0	14	0	31	0	0	0	0	12	0	3	0	0	0	32	10	0	20	0	0	0	0	2	3	9	0	0	0	0
OTU 114	6	9	152	63	57	39	87	14	54	97	85	120	75	55	78	1	313	21	67	48	56	10	151	199	146	77	814	16	2	29	78	56	27	7	124	88	24	83	15	113	106	51	4	366	192	128	32	13	72	35
OTU 115	12	40	119	26	23	47	44	6	23	50	81	146	6	223	59	6	251	1087	6	1033	45	27	30	25	64	32	1	71	5	16	6	2	193	1	53	89	39	96	2420	6	29	21	5	37	29	2	1344	414	6	39
OTU 116	6	736	58	1	60	26	207	18	4	2	49	27	15	129	0	36	0	3	102	11	111	3	45	63	142	27	24	2	69	3	2	2	22	45	25	0	36	17	24	1448	9	1	17	73	20	0	27	5	23	11
OTU 117	18	60	84	2	47	24	5	294	130	12	8	6	32	19	7	7	12	44	791	78	15	27	87	35	74	7	7	21	3	73	546	78	95	10	3	70	2	13	9	101	28	30	9	126	38	102	36	19	168	7
OTU 118	0	45	0	11	13	0	0	12	0	4	0	1	30	5	6	0	0	0	0	5	2	3	0	0	1	1	0	0	0	2	4	0	0	0	1	0	0	2	0	0	2	0	0	5	2	0	19	0	0	0
OTU 119	17	23	151	8	9	82	31	766	27	21	172	12	55	106	5	5	79	18	29	21	10	2	40	168	18	41	4	3	52	66	7	99	196	8	32	9	108	0	61	18	5	1	1	118	8	6	22	5	180	2
OTU 120	4	0	1	7	0	7	45	0	1	5	44	3	9	26	2	0	1	0	0	1	2	0	0	0	13	2	0	7	9	0	0	1	11	0	7	0	0	61	0	3	32	0	3	116	7	34	0	4	4	9
OTU 121	15	8	40	5	2	37	0	49	59	13	44	1	16	0	50	21	0	5	35	1	13	22	22	8	26	52	1	49	26	49	13	45	134	2	25	44	16	21	16	49	107	55	4306	19	17	23	10	43	155	11
OTU 122	10	4	2	16	994	76	171	25	1	19	4	203	158	344	4	2	59	9	16	235	7	3	32	7	178	2	34	11	4	3	0	1	143	57	15	121	6	38	12	4	10	1526	1	7	36	2711	44	0	4	8
OTU 123	15	98	189	16	78	42	35	78	63	44	50	81	121	321	70	68	113	133	142	49	30	15	159	33	228	126	19	40	228	20	60	42	79	38	173	48	190	137	169	135	54	69	19	443	42	195	138	51	105	58
OTU 124	519	61	1	1	0	11	0	0	0	0	11	1	3	2	4	1053	44	2	0	2	1	0	10	0	1	0	0	0	0	0	0	0	67	0	0	0	0	0	0	32	1	0	515	3	3	0	0	4	0	0
OTU 125	431	127	89	48	80	47	347	42	103	108	21	51	23	230	81	150	68	248	33	127	235	375	1583	121	109	134	1850	786	194	1225	47	24	114	200	61	17	9	237	120	68	43	95	79	159	78	83	140	58	60	110
OTU 126	0	0	0	1	0	97	0	0	2	0	0	0	0	3	0	5	1	4	0	7	4	6	0	1	3	0	1	14	0	0	0	0	0	1	31	0	0	7	0	0	0	0	1	0	3	30	0	0	0	4
OTU 127	21	2	848	3	3	71	4	0	27	2	2	1	70	104	0	0	57	24	0	11	15	11	86	351	32	3	4	0	2761	27	11	33	98	11	0	6	0	0	0	20	62	6	0	0	33	71	2	3	37	0
OTU 128	15	58	335	35	133	107	260	107	99	36	170	83	30	157	60	46	531	262	150	46	105	424	117	179	187	24	66	61	93	40	50	78	484	134	349	113	113	305	212	71	105	64	46	268	136	92	116	76	104	1197
OTU 129	4	6	0	0	4	0	0	0	0	0	0	0	0	0	0	12	10	2	0	0	26	0	63	0	0	0	0	8	0	51	1	30	0	0	0	0	0	0	0	0	0	0	5	9	2	19	0	0	118	0
OTU 130	37	17	4	0	0	259	0	3	16	4	92	32	12	89	1	74	47	15	1	85	76	23	50	5	64	13	2	14	7	4	14	6	18	11	326	1643	10	14	6	1	9	0	49	0	2	34	4	3	5	2
OTU 131	2	2	112	428	1	4	52	13	26	5	32	17	0	7	5	7	23	155	88	1	54	39	9	14	16	45	2	10	1	5	0	10	32	4	24	10	114	72	20	45	43	5	10	3	12	0	107	2	44	50
OTU 132	908	3	10	6	2	2	9	4	2	15	10	9	2	84	4	40	0	1	0	8	3	0	38	0	1444	1	3	14	21	19	3	21	0	9	0	0	14	23	12	18	9	8	13	0	0	47	0	8	87	13
OTU 133	1	0	0	0	4	3	0	0	0	0	0	0	0	41	6	0	2	6	11	71	17	1	6	0	7	0	3	0	44	1	0	0	3	2	0	0	1	0	0	0	5	1	0	26	21	0	1	3	11	0
OTU 134	18	16	7	4	7	32	146	20	1	0	191	20	142	37	29	0	73	35	20	1	80	7	6	0	9	3	1	2	7	0	290	18	4	3	83	14	133	13	69	0	4	0	1	48	25	28	80	20	23	3
OTU 135	8	8	0	18	44	82	89	164	118	53	97	16	3367	11	91	53	41	3	74	0	58	88	148	4	26	66	37	99	0	47	65	162	5	67	0	113	2	320	9	2	62	34	31	6	40	232	22	150	337	165
OTU 136	25	100	7	23	1	51	39	0	32	107	77	0	0	0	44	22	57	3	0	15	0	5	11	10	128	49	17	89	38	11	0	12	0	48	10	0	36	35	0	0	165	0	13	14	36	0	21	46	115	22
OTU 137	17	0	11	0	13	0	2	0	0	0	3	0	4	0	17	10	3	0	15	45	6	3	34	4	8	0	0	0	0	1	0	2	62	0	30	0	167	72	1	0	1	2	2	1	0	0	25	0	12	27
OTU 138	4	5	2	0	1	3	2	19	1	3	78	5	0	6	0	39	20	14	4	16	8	2	0	16	12	1	0	3	2	0	37	10	1	0	0	11	0	0	266	0	2	0	11	0	2	5	52	0	11	0
OTU 139	39	32	49	5	1036	2	45	4	119	2	116	152	184	33	5	36	55	119	21	11	167	0	22	1832	65	1	56	13	70	9	15	48	20	128	51	1	107	4	113	35	106	546	37	201	69	150	24	59	47	0
OTU 140	44	98	88	69	69	90	660	21	33	191	27	134	250	60	3	150	295	100	19	76	356	20	82	53	555	55	23	61	46	63	80	40	1386	47	288	40	224	12	195	50	21	29	65	118	151	66	46	15	75	1
OTU 141	0	0	0	0	0	0	0	0	0	0	0	0	0	13	0	6	0	0	0	0	140	0	0	1	0	0	0	0	0	0	0	0	0	0	26	0	0	0	0	0	6	0	0	0	0	0	0	0	0	0
OTU 142	0	1	0	0	0	62	0	0	0	0	0	0	0	1	0	0	20	0	0	0	6	0	0	0	0	0	0	1	0	0	0	0	0	0	0	0	0	0	0	0	0	0	0	1	0	0	2	0	1	3
OTU 143	0	1	0	0	453	0	0	0	0	0	87	9	1	0	0	0	14	0	0	0	0	0	0	0	0	10	0	11	18	11	5	3	0	2	84	11	0	60	0	48	22	347	0	0	0	0	5	3	0	31
OTU 144	1	0	0	0	2	0	63	0	1	13	2	17	31	0	0	0	0	6	0	22	0	0	0	1	0	0	0	0	0	0	0	2	24	0	8	80	60	0	4	1	3	0	0	0	3	0	2	0	4	0
OTU 145	50	140	41	0	21	110	125	0	41	5	33	2	3	379	2	11	68	18	4	216	43	32	11	21	134	21	470	106	5	17	15	73	22	8	9	38	18	55	65	59	36	438	4	93	105	31	41	10	192	17
OTU 146	0	2	66	1	3	45	100	3	23	0	1	76	0	183	1	32	91	9	0	144	27	1	7	42	15	3	3	0	2	24	18	4	3	9	9	0	225	5	10	0	43	3103	17	0	1	19	58	5	1	2
OTU 147	0	0	0	0	0	3	1	0	1	1	29	6	0	1	2	6	181	15	5	0	1	0	21	0	87	17	9	8	45	14	0	8	265	17	3	129	13	1	3	4	2	0	8	0	3	0	0	27	32	5
OTU 148	54	3	197	8	13	0	146	4	0	0	14	9	29	193	6	47	67	98	91	90	45	3	42	23	3	5	3	2	8	3	57	30	133	7	105	8	14	0	6	19	1	0	21	75	51	3	0	2	51	1
OTU 149	0	7	19	0	17	0	0	1087	19	0	31	12	0	13	1	11	6	0	0	33	34	8	2	0	0	0	0	5	37	1	2	1	21	0	3	17	31	13	1	8	1	15	12	3	0	5	8	0	0	16
OTU 150	0	48	0	4	1	0	2	0	0	0	0	69	1	2	0	19	26	0	12	1	6	0	0	8	3	0	0	0	7	1	0	0	0	1	1	10	1	1	0	4	62	0	9	8	0	4	7	0	7	0
OTU 151	45	41	0	1	5	66	11	3	1	2	45	11	0	20	1	167	0	0	72	5	0	21	20	1	0	8	1	67	1	2	106	0	71	1	7	7	11	5	27	111	0	4	53	7	48	1	41	0	0	0
OTU 152	18	27	98	0	4	20	19	19	184	25	1	31	125	23	113	45	23	2092	34	46	10	0	179	101	20	12	26	53	451	60	121	134	2	36	11	14	36	1	4	0	10	7	50	165	24	1	75	31	235	0
OTU 153	3	0	0	0	0	0	0	0	6	0	48	9	0	0	0	0	2	2	5	0	5	0	0	0	0	0	2	0	1	0	0	0	1	2	3	0	0	0	0	11	0	0	0	0	0	0	0	0	0	0
OTU 154	0	0	0	0	3	0	0	0	0	0	0	1	0	2	6	10	0	0	6	10	0	0	5	0	0	1	0	0	3	0	0	0	0	0	3	27	0	0	0	0	1	0	1	70	0	0	0	0	0	0
OTU 155	23	21	3	0	43	54	0	0	41	1	1	1	4	0	0	6	0	48	0	25	76	1	55	0	33	3	0	0	16	25	2	15	3	3	23	0	0	0	13	0	0	14	3	2	3	0	1	0	30	0
OTU 156	1405	69	73	19	34	93	9	2178	42	66	150	0	34	128	41	3749	90	29	20	116	108	37	51	53	45	73	24	45	25	2	7	25	49	36	244	1	20	16	7	38	3	123	1881	51	31	1	24	31	21	1
OTU 157	0	0	7	0	0	702	0	0	13	0	0	17	0	3	0	24	0	0	0	0	11	1	2	0	19	9	0	2	0	2	0	1	0	0	144	0	3	0	51	32	169	0	8	16	124	0	21	28	4	1915
OTU 158	20	0	0	0	2	0	10	0	0	0	0	0	0	207	0	1	0	1	0	0	6	0	0	0	0	0	0	0	0	0	7	0	64	0	0	0	0	0	0	0	0	0	0	0	1	0	0	0	0	0
OTU 159	6	11	55	1	4	2	63	28	24	11	0	14	21	42	55	16	0	58	2	32	60	0	2	19	102	8	13	8	27	1	20	10	14	22	34	30	49	47	130	23	17	9	6	20	9	2	167	1	24	29
OTU 160	23	220	54	4	22	99	163	39	11	8	62	16	239	78	63	35	7	631	143	25	39	8	18	47	3	52	17	1	263	60	91	15	95	30	1	28	978	44	1570	548	50	14	27	48	18	22	576	9	38	23
OTU 161	33	3	89	394	0	87	67	0	18	1020	42	61	34	278	1921	1	57	29	7	33	19	1	44	37	111	1561	0	1	130	300	6	2	12	0	42	1296	33	3222	2	27	1989	2	276	0	17	0	2392	0	3	1648
OTU 162	20	2	89	11	24	137	251	40	29	58	10	18	2	3	31	21	10	86	29	0	24	5	38	107	28	45	39	7	25	13	172	31	3	63	11	35	47	118	124	43	82	17	11	10	1905	3	116	15	24	71
OTU 163	0	0	0	0	0	0	80	0	0	0	1	0	0	0	0	0	0	0	0	0	0	0	0	0	0	24	0	0	0	7	0	0	0	0	0	0	0	0	0	0	0	6	0	0	0	0	0	0	0	0
OTU 164	0	0	0	0	0	4	0	0	1	0	0	0	0	0	0	0	0	0	0	0	0	0	1	0	0	0	0	0	31	7	0	0	9	0	0	0	0	0	0	7	0	0	0	0	0	0	9	7	0	0
OTU 165	0	0	29	0	19	16	53	1	0	1	59	1	0	21	1	1	0	1	11	39	39	0	4	6	32	28	0	18	0	0	0	2	20	0	60	11	0	3	0	30	1	49	0	0	46	7	8	0	0	6
OTU 166	0	0	0	0	0	0	0	0	0	0	0	0	0	0	0	0	0	0	0	0	0	0	0	0	0	0	0	0	0	0	0	0	0	0	0	17	0	0	1	0	0	0	0	10	0	0	1	0	0	0
OTU 167	8	28	0	0	9	124	3	0	0	0	72	1022	0	88	0	0	19	47	0	49	3	0	4	1	44	5	8	1	0	1220	35	8	2	23	1	14	15	0	1	5	1	3	5	0	23	31	7	27	4	1
OTU 168	0	118	22	6	9	83	0	0	24	5	53	0	250	115	1	6	0	1	1	125	40	33	30	46	46	11	7	27	31	22	19	47	0	3	4	21	34	8	60	0	11	29	9	132	7	36	11	23	62	13
OTU 169	0	0	0	0	0	0	21	0	0	0	2476	0	0	0	0	0	0	0	8	34	47	0	0	0	1	0	0	0	20	0	23	0	0	0	0	0	1	0	168	0	0	0	1	0	0	0	23	8	0	0
OTU 170	0	0	0	0	0	0	0	6	0	0	0	0	0	5	0	0	0	0	0	0	5	0	0	0	6	0	3	0	0	0	0	0	0	5	0	0	29	0	4	0	0	0	0	0	20	1	0	1	0	0
OTU 171	0	3	7	5	106	1	1	8	34	45	24	325	13	20	65	23	1	14	47	107	7	10	200	22	3	74	15	22	12	49	50	122	1	35	59	2	140	47	5	112	1975	70	8	17	8	59	13	155	167	16
OTU 172	20	0	0	1	0	0	1	0	0	0	0	0	11	0	0	0	0	0	1	0	12	0	19	0	1	1	7	0	4	0	0	0	0	9	3	0	1	13	0	0	1	10	0	0	0	0	0	6	3	10
OTU 173	0	55	20	0	0	16	0	4	1	1	79	0	2	5	3	0	38	0	8	3	11	7	0	17	2	0	5	1	0	0	18	0	79	3	1	0	3	6	0	2	7	0	0	46	2	2	6	9	0	5
OTU 174	16	1	0	17	0	15	18	44	0	26	9	8	15	3	9	22	45	15	36	6	1	15	1	1	2	6	7	0	0	2	10	0	0	13	26	0	1	47	0	20	15	0	4	50	0	21	62	0	2	39
OTU 175	1	4	1	2	10	36	16	1	16	1	2	0	0	0	1	0	49	8	0	3	0	40	57	1	5	1	0	22	0	25	43	71	9	0	20	18	0	0	26	123	0	0	0	1	0	43	0	0	103	0
OTU 176	31	15	16	6	23	15	107	13	5	1	10	1	10	104	12	4	258	54	1	102	83	9	0	68	133	12	8	4	52	1	56	11	23	25	41	44	17	10	0	64	1	61	4	3	2	103	38	11	12	3
OTU 177	47	14	60	4	23	31	171	26	121	2	117	2	39	26	7	32	2	27	4	83	23	10	17	53	25	12	4	3	31	1	16	17	0	18	28	0	52	202	54	0	46	42	18	21	64	25	20	10	31	54
OTU 178	15	55	0	22	0	4	136	8	10	15	0	1	0	2	55	10	0	0	92	1	12	1	1	0	1	3	0	0	62	3	3	0	45	0	8	7	21	16	25	4	11	0	0	48	0	1	7	52	0	9
OTU 179	0	1	3	6	4	1	0	0	0	0	5	60	8	16	34	2	0	5	19	0	1	0	0	3	27	3	3	12	2	10	36	0	274	2	5	5	22	14	3	0	9	14	0	41	0	31	0	45	1	7
OTU 180	86	180	1607	2147	91	86	135	11	51	4063	124	60	76	86	16	10	270	57	88	38	297	2223	114	866	30	44	0	4395	39	54	43	74	10	0	123	112	51	54	73	23	33	67	7	89	82	120	52	13	105	25
OTU 181	3	3	0	0	3	29	19	0	3	0	0	20	6	3	1	33	8	33	7	23	13	0	32	3	0	3	0	0	68	0	35	2	5	0	114	0	14	0	4	109	20	0	17	9	3	6	2	13	1	2
OTU 182	0	0	0	0	0	9	38	0	0	0	0	0	0	0	3	0	5	0	1	0	0	0	0	0	0	0	0	0	0	6	2	0	0	0	0	1	0	0	0	0	0	1	0	0	0	0	3	1	0	0
OTU 183	0	2	31	2	57	4	26	26	5	1	8	626	15	63	0	4	44	163	16	29	14	106	0	43	10	15	16	17	1	21	53	1	58	29	25	13	0	1	109	4	15	7	0	2	0	6	921	24	1	2
OTU 184	43	19	0	0	12	1	131	311	0	2	9	0	6	56	3	1	9	8	296	16	20	0	2	15	0	0	0	0	15	5	43	0	0	0	0	0	0	0	0	2	2	0	7	4	22	24	3	2	0	0
OTU 185	4	19	55	10	20	5	34	38	37	6	17	13	11	3	18	16	9	85	17	14	98	20	4	40	12	19	64	36	347	0	3	0	118	115	30	3	3	19	21	13	2	18	13	32	0	7	66	7	1	5
OTU 186	0	58	0	1	20	0	8	0	141	9	0	2705	28	0	27	0	3	0	0	18	0	0	0	0	41	8	0	0	1	0	11	26	21	1	81	0	32	2	35	16	0	2	2	116	0	3	130	2	19	0
OTU 187	70	16	164	3	54	32	6	62	7	18	154	67	97	41	25	26	8	15	52	40	377	44	23	157	32	23	3	0	22	47	67	58	190	7	71	25	193	45	15	87	24	39	16	16	2	64	22	2	128	15
OTU 188	33	1	20	122	346	525	161	314	259	115	8	34	33	138	279	179	21	186	807	78	40	108	479	10	39	367	118	290	165	911	174	448	30	242	7	466	159	455	96	14	320	103	78	38	208	386	88	235	687	266
OTU 189	13	16	205	0	18	13	13	68	61	0	14	81	26	25	72	49	129	1	299	33	2	13	88	51	21	24	21	60	120	13	195	100	15	41	374	46	59	42	33	11	23	9	17	93	47	201	84	91	158	10
OTU 190	0	0	1	0	0	0	8	0	0	0	113	0	0	60	0	0	0	0	0	25	0	1	0	8	33	0	2	29	0	0	0	10	0	3	37	0	3	0	0	56	0	0	0	0	50	0	0	4	12	0
OTU 191	98	47	28	10	43	78	16	26	68	1	45	20	62	26	11	188	7	21	35	7	4	5	37	1	395	3609	0	12	27	5	44	32	274	0	241	119	17	14	90	68	8	6	81	4	5	2	36	23	24	15
OTU 192	10	10	18	4	2	77	106	5	11	16	163	23	42	321	37	2	310	63	30	2	97	37	9	17	49	6	10	8	24	16	5	31	125	24	36	26	152	44	20	106	5	11	0	2238	262	79	53	16	42	19
OTU 193	0	18	150	0	28	24	44	52	86	5	13	58	60	42	4	12	252	70	26	0	89	5	13	30	22	4	43	1	4	7	70	5	141	94	35	25	154	12	27	53	45	6	1	32	2	16	1	62	1	0
OTU 194	1	117	9	0	11	176	14	0	25	0	33	11	78	0	1	0	7	9	1	0	8	3	0	8	53	5	3	1	9	15	8	4	255	5	61	17	65	0	68	32	0	0	0	19	50	0	9	3	3	0
OTU 195	17	24	23	496	46	25	10	93	0	875	0	40	20	39	1646	14	5	43	2	0	1	1	37	60	6	18	13	0	33	1	7	0	47	17	17	96	66	3	15	43	0	5	7	45	1	6	74	1	1	0
OTU 196	20	0	31	0	1	16	38	5	0	0	6	8	93	0	0	5	3	6	4	13	2	3	0	19	36	1	0	1	2	0	9	1	35	5	139	1	0	64	47	9	11	13	1	19	3	10	3	1	10	19
OTU 197	5	10	231	50	29	67	58	32	209	65	26	185	36	243	97	93	47	55	111	184	25	12	31	63	108	25	26	8	32	28	87	50	201	60	439	73	86	81	241	4	1592	3	43	86	43	43	77	40	80	38
OTU 198	0	1	7	0	2	0	0	1	8	0	21	1	0	7	12	0	0	87	0	3	0	1	0	0	9	1	12	0	0	4	32	12	0	13	0	0	0	0	1	0	58	12	0	0	5	0	41	14	17	0
OTU 199	8	22	0	10	4	18	0	46	0	0	0	12	0	3	1	16	0	10	2	24	9	1	5	15	0	37	0	0	6	1	25	0	1	0	0	0	94	0	9	3	0	0	6	55	4	12	0	1	0	0
OTU 200	0	13	22	0	19	8	38	19	4	16	9	31	0	20	3	6	95	9	1	122	0	7	124	10	42	4	1	10	5	12	7	45	17	4	14	24	92	0	0	1	0	24	9	0	19	9	7	0	42	0
