	Host 1	Host 2	Host 3	Host 4	Host 5	Host 6	Host 7	Host 8	Host 9	Host 10	Host 11	Host 12	Host 13	Host 14	Host 15	Host 16	Host 17	Host 18	Host 19	Host 20	Host 21	Host 22	Host 23	Host 24	Host 25	Host 26	Host 27	Host 28	Host 29	Host 30	Host 31	Host 32	Host 33	Host 34	Host 35	Host 36	Host 37	Host 38	Host 39	Host 40	Host 41	Host 42	Host 43	Host 44	Host 45	Host 46	Host 47	Host 48	Host 49	Host 50	
OTU 1	0	3	0	0	4	5	0	1	1	0	0	3	2	2	2	2	0	2	0	1	2	0	0	0	0	0	2	0	0	0	0	1	0	0	10	0	0	6	7	2	0	0	0	1	3	2	0	0	0	3
OTU 2	0	0	0	1	0	0	2	0	0	0	0	0	0	2	1	1	0	5	0	0	0	0	0	0	0	0	0	0	0	0	0	0	0	1	1	0	0	0	0	0	0	0	0	1	0	0	0	0	0	0
OTU 3	1	3	1	0	0	0	0	1	5	1	0	3	0	0	5	4	5	0	0	4	0	0	4	0	0	6	0	0	3	0	1	0	3	1	0	0	1	0	1	0	0	0	0	3	0	3	0	0	0	0
OTU 4	0	0	0	0	0	0	0	0	0	0	0	0	0	0	0	0	0	0	0	0	0	0	0	0	0	0	0	0	0	0	0	0	1	0	0	0	0	0	0	0	0	0	0	0	3	0	0	0	0	0
OTU 5	3	1	0	5	0	33	65	11	0	6	2	6	3	45	6	9	23	0	14	15	15	0	55	0	0	4	24	36	37	9	14	28	1	6	0	4	17	108	28	7	1	0	53	12	3	0	8	6	13	19
OTU 6	0	1	3	1	0	0	0	0	0	0	2	0	0	0	1	1	0	0	1	0	0	0	0	0	2	0	3	0	0	0	1	0	2	0	3	0	0	1	0	0	1	4	0	0	4	0	1	0	6	1
OTU 7	1	0	12	3	4	5	1	7	6	10	5	1	2	2	5	3	14	4	2	0	0	3	0	2	2	4	10	2	1	0	0	3	1	4	0	5	0	1	3	10	3	4	1	0	4	16	16	0	3	0
OTU 8	2	1	0	2	6	5	3	1	2	1	4	2	1	7	0	8	5	1	5	1	1	5	1	2	0	2	0	1	17	5	4	1	3	3	1	0	1	0	0	20	0	0	26	1	0	5	51	0	3	1
OTU 9	14	1	3	0	0	0	0	5	0	2	0	2	2	0	3	0	0	0	0	0	3	1	1	30	0	0	0	1	5	1	0	3	0	0	0	0	1	0	0	83	1	0	0	0	0	10	2	1	0	0
OTU 10	1	2	1	0	0	3	0	0	0	0	0	0	0	0	0	0	0	2	2	1	1	0	1	1	0	1	0	0	0	0	2	0	0	1	1	0	0	0	0	0	0	0	0	0	0	1	1	1	0	0
OTU 11	2	0	4	0	1	0	0	0	4	5	0	9	7	2	7	0	1	11	0	1	0	3	1	12	2	0	0	0	5	0	1	0	1	0	10	6	3	8	4	1	4	0	4	0	2	1	2	6	1	5
OTU 12	2	1	2	3	2	0	3	7	5	1	0	0	1	1	0	4	5	6	6	3	0	0	3	2	2	1	1	0	0	1	3	0	0	0	0	1	2	2	0	1	2	0	2	0	0	2	2	1	1	1
OTU 13	0	0	0	0	0	0	0	0	0	0	0	0	0	0	0	0	0	0	0	0	0	1	0	0	0	0	0	0	0	0	0	0	0	0	3	0	0	1	0	0	0	0	0	0	0	0	0	0	0	0
OTU 14	2	0	0	0	0	1	1	0	0	0	0	0	0	0	0	0	0	0	0	2	0	0	1	2	0	0	0	0	0	0	1	0	0	2	0	0	1	1	1	0	0	0	0	0	0	0	0	0	0	0
OTU 15	0	0	0	0	0	0	0	0	0	0	0	0	0	0	0	0	0	0	0	6	0	0	0	0	0	0	0	1	0	0	0	0	0	0	0	0	0	0	0	0	0	0	0	0	0	1	0	0	0	0
OTU 16	0	0	0	0	0	0	0	0	0	0	0	0	0	0	0	0	2	0	0	0	0	0	0	0	0	0	0	0	0	0	0	0	0	0	0	0	0	0	0	0	0	0	0	0	1	0	0	0	0	0
OTU 17	4	0	0	1	4	11	0	4	1	0	1	1	0	0	1	0	0	2	18	2	0	0	0	10	0	0	0	0	0	0	0	1	4	3	17	4	1	10	11	0	9	0	3	0	11	0	4	0	0	0
OTU 18	0	1	0	8	9	3	0	6	1	2	2	3	0	0	0	0	1	1	0	0	0	6	5	2	1	1	0	62	0	0	1	50	6	0	4	2	0	2	2	0	2	1	0	2	10	4	7	0	0	2
OTU 19	0	0	0	0	0	0	0	0	0	0	0	0	0	0	0	0	0	0	0	0	0	0	0	0	0	0	0	0	0	0	0	0	0	0	0	0	0	0	0	0	0	0	0	0	0	0	0	0	0	0
OTU 20	0	1	2	0	2	1	3	3	1	2	1	1	0	4	1	5	0	8	0	13	0	2	0	0	0	0	0	0	1	0	1	1	0	4	3	0	7	2	2	0	6	0	2	0	0	1	0	0	0	0
OTU 21	0	0	0	4	8	0	0	0	0	0	1	0	62	2	2	12	0	0	1	2	1	0	0	0	0	128	5	14	0	3	3	23	1	6	5	4	1	0	0	0	1	5	0	68	0	4	3	0	0	3
OTU 22	0	0	4	2	2	1	0	2	9	1	0	0	0	0	0	6	4	2	1	0	3	1	1	3	2	0	3	1	3	0	5	1	4	1	14	0	0	4	5	0	1	7	1	0	11	2	0	1	1	3
OTU 23	0	0	0	0	1	0	0	4	0	0	3	1	0	1	1	27	0	0	0	0	63	0	0	0	0	3	1	0	0	0	0	0	0	14	0	0	0	1	0	0	0	1	2	1	0	0	0	3	0	0
OTU 24	0	0	0	0	0	1	0	0	0	0	0	0	0	0	1	0	0	0	0	0	0	0	0	0	1	0	0	0	0	5	0	0	0	2	1	1	0	0	1	0	0	2	0	0	0	0	0	0	0	0
OTU 25	0	15	0	0	0	0	0	0	0	0	0	0	0	0	0	0	0	0	0	0	0	0	2	0	0	0	0	0	0	0	0	0	0	0	0	0	0	0	0	2	0	0	2	0	0	0	0	0	0	0
OTU 26	0	1	0	0	0	0	0	0	0	0	0	0	0	2	3	0	0	0	0	0	0	0	0	0	0	0	0	0	1	0	0	0	0	0	0	0	0	0	0	0	1	0	0	0	0	0	5	0	0	0
OTU 27	0	0	0	0	0	0	0	0	0	0	0	0	0	0	0	0	0	0	0	0	0	0	0	0	0	0	0	0	0	0	0	0	0	0	0	0	1	0	0	0	0	0	0	0	0	0	0	0	0	0
OTU 28	0	9	40	0	1	0	0	1	12	20	1	5	38	1	16	2	11	0	3	9	2	0	2	0	0	0	43	13	0	1	0	20	0	0	6	3	0	2	8	30	3	1	3	0	0	80	50	4	2	0
OTU 29	1	0	0	2	0	0	0	3	0	1	0	5	0	0	0	4	0	0	2	7	0	10	111	3	0	2	0	1	3	78	3	1	0	0	1	3	2	0	0	0	1	2	0	12	0	1	0	3	1	29
OTU 30	0	0	0	0	0	0	0	0	0	0	0	0	0	0	0	0	0	0	0	0	0	0	0	0	0	0	0	0	0	0	0	0	0	0	0	0	0	0	0	0	0	2	0	0	0	0	0	0	0	0
OTU 31	0	1	0	0	1	0	0	1	0	0	0	0	0	1	0	2	1	8	0	5	66	0	0	1	67	0	0	0	20	2	1	2	0	1	0	0	2	1	0	4	0	0	0	0	0	3	1	0	0	1
OTU 32	1	3	4	2	0	0	1	0	9	1	1	0	0	1	3	7	5	3	7	3	3	0	5	4	4	0	0	19	0	0	0	1	2	0	4	0	2	11	0	0	0	10	1	69	0	0	2	0	1	0
OTU 33	1	0	0	0	0	0	0	0	0	1	0	0	0	0	0	0	0	0	0	1	0	0	0	0	0	0	0	0	0	0	1	0	0	0	0	0	0	0	0	0	0	0	0	0	0	0	0	0	1	0
OTU 34	3	9	0	1	0	1	0	1	4	4	0	0	0	5	1	1	5	12	1	0	0	0	0	1	1	1	1	0	0	1	0	2	6	2	0	2	0	0	0	4	1	0	1	0	3	3	3	3	0	1
OTU 35	0	0	5	1	0	3	37	1	4	1	3	2	0	0	1	0	1	1	5	3	8	6	0	0	0	0	3	0	2	5	0	0	0	3	0	0	2	0	0	71	2	0	0	0	0	0	3	0	7	0
OTU 36	0	2	2	2	3	5	1	0	0	0	4	0	0	0	0	2	1	0	1	0	2	1	1	0	0	0	1	0	0	0	1	0	0	3	0	0	1	0	37	0	1	1	0	0	0	0	0	0	0	0
OTU 37	0	0	2	0	0	0	0	0	5	0	0	0	0	0	0	0	0	0	0	0	0	0	0	0	0	1	0	0	0	0	0	1	0	0	0	4	0	0	0	1	0	3	0	1	0	0	0	0	0	0
OTU 38	6	1	1	0	1	5	5	0	0	0	0	2	5	2	0	0	0	7	1	0	1	0	1	9	1	0	0	0	1	0	1	0	11	1	3	1	0	3	12	0	0	0	18	0	12	1	0	2	0	0
OTU 39	0	11	0	4	1	5	0	0	0	0	1	0	0	0	0	0	0	0	0	0	0	0	6	0	0	0	0	0	0	0	0	0	0	0	0	0	0	0	0	0	0	0	3	0	0	0	0	0	2	0
OTU 40	1	4	1	10	0	4	2	1	3	0	0	0	0	7	2	6	0	1	0	2	1	2	2	0	2	2	0	0	0	3	1	0	0	1	1	2	0	0	0	5	1	1	0	2	0	0	2	0	3	0
OTU 41	1	12	0	0	0	1	0	5	0	0	0	1	1	0	0	2	0	0	0	0	1	0	8	9	0	0	0	0	0	0	0	0	3	1	1	0	0	2	1	2	0	0	0	0	5	1	3	0	0	0
OTU 42	1	0	0	0	0	0	0	0	1	0	0	0	0	0	0	0	0	0	0	7	0	0	0	0	0	0	0	0	0	0	1	0	0	0	0	1	3	0	0	0	0	3	1	0	0	0	0	0	4	0
OTU 43	0	0	0	0	0	0	0	0	0	0	0	0	0	0	0	0	0	0	0	0	0	0	0	0	0	0	4	0	0	0	0	0	0	0	0	0	0	0	0	0	0	0	0	0	0	0	0	0	0	0
OTU 44	0	0	0	0	0	0	0	0	0	0	0	0	0	0	0	0	0	1	0	2	0	0	1	0	0	0	0	0	0	0	0	0	1	0	0	0	1	0	0	0	0	0	0	0	1	0	0	0	0	0
OTU 45	3	5	0	1	3	0	3	1	0	4	7	2	2	4	1	1	7	2	12	0	2	6	1	5	3	1	0	0	0	1	0	4	3	1	4	0	0	1	2	4	1	4	0	1	5	3	2	0	5	0
OTU 46	2	1	1	1	0	27	0	1	2	1	0	0	2	3	0	10	0	6	2	6	3	5	0	2	5	0	0	0	2	3	0	0	1	1	3	3	1	5	1	0	0	4	1	1	1	0	1	1	4	86
OTU 47	0	0	0	0	0	0	0	2	0	0	0	0	0	0	1	0	0	0	0	0	0	0	0	6	0	0	0	0	0	0	0	1	0	0	0	0	0	0	0	2	4	0	3	0	0	0	7	0	0	0
OTU 48	1	4	0	1	2	2	0	5	5	0	0	44	1	2	1	4	6	0	7	2	2	7	2	2	2	0	25	23	3	2	0	2	1	3	0	0	1	0	0	1	1	1	0	0	17	0	0	22	0	0
OTU 49	0	3	0	0	0	2	0	0	0	0	1	0	1	0	4	0	0	0	0	5	0	0	2	0	0	0	0	0	1	0	1	0	1	1	0	0	0	0	0	0	1	1	0	0	0	0	0	0	1	0
OTU 50	0	2	5	9	3	5	0	8	0	49	0	0	3	1	105	0	3	1	0	0	6	1	0	1	0	3	1	0	0	6	0	0	1	2	0	0	0	2	4	0	16	6	3	0	2	0	6	0	1	0
OTU 51	0	0	6	7	2	4	1	0	0	0	0	3	0	0	1	0	0	1	0	3	0	0	1	0	2	0	0	0	0	0	1	0	0	0	4	0	3	0	1	0	1	3	1	0	0	0	0	0	11	0
OTU 52	1	3	7	0	6	2	0	11	1	0	7	2	0	1	5	0	0	11	2	0	1	7	5	2	9	1	4	0	25	0	3	42	6	0	1	2	0	2	2	0	2	2	3	0	3	2	2	1	12	0
OTU 53	0	0	0	0	0	0	0	0	0	0	0	0	0	0	0	0	0	0	0	1	0	0	0	0	0	0	0	0	0	0	0	0	0	0	0	0	0	0	0	0	0	0	1	0	0	0	0	0	0	0
OTU 54	0	1	1	2	2	1	0	0	0	3	9	1	5	0	1	3	0	1	1	0	2	5	1	5	2	6	4	0	3	1	0	0	2	2	5	1	0	5	3	2	6	2	0	6	0	4	3	0	2	0
OTU 55	0	0	0	0	0	0	0	0	0	0	0	0	0	0	0	0	0	0	0	0	0	0	0	0	1	0	0	0	7	0	0	0	0	0	0	0	0	0	0	0	0	0	0	0	0	0	0	0	0	0
OTU 56	0	2	2	0	0	0	0	0	0	0	0	0	0	1	0	1	1	0	0	0	0	0	0	0	2	7	1	0	0	0	0	0	0	1	2	0	0	0	0	1	0	1	0	1	3	2	0	0	5	0
OTU 57	1	0	4	4	17	17	2	5	3	0	3	9	3	7	1	5	2	3	5	0	0	4	2	3	13	2	6	6	5	3	12	10	0	11	23	8	0	17	7	3	14	6	66	2	4	4	9	6	3	3
OTU 58	0	0	1	1	0	0	0	0	1	0	0	0	1	0	0	1	0	0	3	0	0	1	0	0	0	0	4	0	0	0	0	0	0	0	1	1	0	0	0	0	2	1	1	0	0	4	11	0	0	0
OTU 59	3	5	1	1	1	1	2	0	0	2	2	0	2	0	1	1	10	1	3	8	0	2	2	2	0	0	0	0	2	0	0	0	0	0	2	0	7	1	1	3	1	4	1	0	2	2	6	1	1	0
OTU 60	0	0	56	1	2	1	1	19	1	15	0	1	1	1	50	3	0	6	1	8	1	20	0	1	22	0	27	0	15	6	2	0	1	2	2	1	92	1	6	10	64	3	7	0	4	2	2	3	2	2
OTU 61	0	8	2	0	17	4	0	3	5	0	9	1	0	1	0	0	5	2	0	6	0	2	5	1	1	0	3	0	7	2	1	0	1	2	1	1	5	1	17	0	5	2	0	0	1	1	0	0	0	5
OTU 62	0	0	0	4	1	2	0	0	1	0	3	0	0	0	0	0	0	0	1	0	0	0	0	0	0	0	0	0	0	0	0	0	0	0	0	0	32	0	0	0	0	0	0	0	0	5	0	0	0	0
OTU 63	4	5	0	16	7	0	0	0	2	0	3	3	2	3	0	19	1	1	0	0	1	0	3	4	1	9	0	3	0	0	4	3	0	15	14	0	1	4	6	1	0	0	0	2	1	2	0	0	2	1
OTU 64	7	4	2	1	0	0	0	0	3	0	41	1	2	3	0	0	0	3	1	3	2	2	0	15	3	1	0	0	1	0	0	0	3	4	3	0	1	1	4	0	1	0	2	1	4	8	2	1	1	0
OTU 65	0	0	0	0	0	0	0	0	0	0	0	0	0	0	0	0	0	0	0	0	0	0	0	0	0	0	0	0	0	0	0	0	0	0	0	0	0	2	1	0	0	1	0	0	0	0	0	0	0	0
OTU 66	1	1	0	2	0	2	1	3	16	0	0	0	1	3	1	0	6	7	0	6	7	2	1	0	1	1	1	0	1	0	0	1	1	0	4	2	4	1	1	0	0	4	0	1	4	0	0	0	0	0
OTU 67	1	2	0	0	1	0	0	2	2	2	4	0	2	1	0	2	0	2	4	12	0	4	1	0	1	0	0	0	6	2	0	0	7	0	0	0	8	0	0	2	0	1	1	1	22	1	1	0	5	0
OTU 68	2	1	0	1	57	0	0	5	1	0	1	0	2	0	1	3	2	0	0	0	3	0	1	1	1	3	0	0	0	1	0	0	3	5	2	3	0	0	0	2	6	0	1	1	4	7	4	0	0	0
OTU 69	0	1	2	3	1	2	0	1	0	1	0	0	1	3	5	1	2	7	4	0	5	1	0	0	0	0	0	0	0	1	2	1	1	2	0	0	0	0	0	4	1	0	3	0	1	0	2	0	0	1
OTU 70	3	0	0	0	0	0	0	3	3	0	2	2	1	0	0	0	1	4	5	0	0	0	0	1	1	0	0	1	0	0	0	0	1	0	0	1	0	0	1	0	0	1	0	0	2	0	0	0	0	0
OTU 71	0	0	0	0	0	1	1	0	3	0	0	1	0	0	0	1	1	0	3	0	0	0	0	3	0	0	0	0	0	0	0	1	0	1	0	0	2	0	0	0	0	0	0	0	0	0	3	0	0	0
OTU 72	2	0	0	4	0	37	0	2	2	0	9	0	0	0	0	3	1	2	0	1	1	0	0	2	2	1	5	0	2	1	4	6	1	0	1	5	0	0	0	0	1	0	1	0	0	0	1	1	0	0
OTU 73	0	6	2	1	0	2	0	1	3	0	1	0	2	0	2	4	8	0	72	0	0	1	1	1	2	4	6	0	0	1	0	0	1	6	0	1	0	1	0	0	1	0	2	1	1	0	0	0	1	0
OTU 74	0	1	1	1	0	1	5	1	1	0	0	0	2	12	1	3	0	14	0	4	0	0	0	0	1	2	0	0	1	6	0	0	1	1	3	4	1	0	2	0	0	0	0	1	2	0	3	0	1	1
OTU 75	1	0	1	116	2	0	4	2	0	0	14	0	0	2	0	0	3	3	0	0	0	0	28	3	6	18	0	1	1	0	1	1	0	35	11	3	1	4	7	1	1	8	1	9	3	11	1	0	0	3
OTU 76	1	0	4	0	1	6	0	0	1	0	0	0	0	0	0	0	0	0	0	0	0	2	0	10	0	1	0	0	0	0	2	0	0	0	4	0	0	4	5	0	0	0	0	0	0	2	0	1	0	1
OTU 77	3	0	0	2	1	0	2	2	1	0	0	3	0	4	0	2	1	0	2	0	0	0	0	2	1	0	0	0	0	0	0	1	0	0	2	1	10	0	1	0	0	9	0	0	0	0	0	2	3	0
OTU 78	1	2	3	3	0	2	0	2	1	2	6	0	1	1	0	1	0	1	6	0	1	0	2	1	1	1	2	0	1	0	0	0	4	3	0	0	0	0	0	0	1	0	1	0	1	1	4	0	0	1
OTU 79	4	9	2	10	12	16	0	3	7	1	55	8	10	0	1	5	9	3	0	5	15	2	8	16	14	3	82	5	14	27	6	4	1	15	13	20	75	5	4	4	16	17	21	2	9	21	5	3	8	6
OTU 80	0	3	0	0	0	0	7	2	0	1	4	0	0	4	8	6	1	8	3	5	1	3	0	0	5	0	0	0	0	2	1	3	4	5	0	0	0	35	0	1	0	3	1	1	12	8	2	1	0	1
OTU 81	0	3	1	0	1	2	0	9	16	1	4	1	18	1	0	4	0	6	0	0	6	1	3	0	1	0	2	5	0	89	0	7	1	0	1	95	2	0	0	0	1	0	5	0	0	0	0	2	78	2
OTU 82	40	0	1	1	0	2	6	0	0	0	3	0	0	8	0	3	1	4	0	0	9	5	0	70	1	11	0	0	0	0	0	1	0	6	0	0	0	0	0	1	6	1	0	3	2	3	7	181	4	0
OTU 83	0	0	1	0	0	0	0	0	0	0	0	0	0	0	1	0	1	0	0	5	5	0	0	0	0	0	2	0	0	0	0	3	0	2	0	2	1	0	0	0	0	0	0	0	0	0	0	0	0	0
OTU 84	0	3	3	0	0	0	0	0	0	1	0	0	0	0	0	2	0	0	3	0	0	2	3	0	0	0	0	0	0	3	0	0	0	3	4	4	0	1	1	1	1	3	0	0	0	0	0	0	0	0
OTU 85	0	0	0	0	0	0	0	0	7	3	0	0	0	0	0	2	0	0	5	0	0	0	0	0	0	0	0	0	0	0	0	0	0	0	0	0	0	0	0	0	0	2	1	84	0	7	0	0	0	0
OTU 86	0	0	0	2	0	0	0	0	0	0	2	0	0	0	0	0	0	0	0	0	0	1	0	0	0	0	0	0	0	0	0	0	0	1	0	0	1	0	0	0	0	0	0	0	0	0	0	0	0	0
OTU 87	0	2	0	0	2	0	1	0	0	0	0	2	0	1	0	4	0	0	0	0	0	0	1	0	0	0	0	0	52	0	0	0	1	0	2	0	0	0	0	0	0	0	2	0	0	1	0	0	2	0
OTU 88	0	0	0	2	0	0	0	0	3	0	0	0	0	0	0	0	0	0	0	1	0	0	0	0	0	0	0	0	0	0	0	0	0	0	0	0	0	0	0	0	0	0	0	0	0	0	0	0	24	0
OTU 89	0	0	5	0	0	0	7	0	2	0	3	0	0	12	0	0	1	14	0	0	0	2	0	0	0	1	0	0	2	0	0	0	0	3	0	0	1	0	0	0	0	0	0	0	0	0	0	0	1	0
OTU 90	0	0	0	0	2	0	0	4	0	0	0	0	0	0	0	0	0	1	0	0	0	0	0	0	1	0	0	0	0	0	0	0	2	0	0	1	0	0	0	0	0	0	0	0	1	0	0	0	0	0
OTU 91	0	0	0	0	0	2	0	0	0	0	0	0	0	0	0	0	0	0	0	0	0	0	0	0	1	0	0	0	0	0	0	0	0	0	1	0	0	0	0	0	3	0	0	0	0	0	0	0	0	0
OTU 92	0	0	0	0	1	0	1	0	1	0	0	1	0	1	0	0	0	1	0	0	0	0	0	0	0	0	0	0	0	0	1	0	1	0	2	0	0	2	0	0	0	0	0	0	0	0	0	0	0	0
OTU 93	0	0	0	0	0	0	0	0	0	0	0	0	0	0	0	0	0	0	0	0	0	0	0	0	0	0	0	0	0	0	0	0	0	0	0	0	0	0	0	0	0	0	1	0	0	1	0	0	0	0
OTU 94	0	1	2	0	0	1	1	0	7	0	2	0	4	1	3	7	1	2	3	5	0	2	0	0	0	1	1	1	1	0	2	1	0	3	0	0	3	1	0	0	2	7	2	0	2	1	2	1	0	0
OTU 95	0	0	0	0	0	2	0	28	0	0	0	2	1	0	0	4	0	0	0	0	0	4	0	1	5	3	0	0	0	15	2	0	3	7	2	1	0	0	0	2	9	2	0	3	3	0	3	1	0	4
OTU 96	0	0	0	0	0	0	0	0	0	0	0	0	3	2	0	0	0	6	0	0	0	0	0	0	0	0	0	0	0	0	0	0	0	0	0	0	0	0	0	0	0	0	0	0	0	0	0	0	0	0
OTU 97	0	0	0	0	0	0	0	0	0	0	0	0	0	0	0	0	0	0	0	1	0	0	0	0	1	0	0	0	0	0	0	0	0	0	0	0	0	0	0	0	0	0	0	0	0	4	0	0	3	0
OTU 98	0	0	0	0	0	0	0	3	1	0	0	0	2	0	0	0	0	0	0	0	0	0	0	0	0	0	0	1	0	0	0	2	3	0	0	1	0	0	0	2	2	1	0	0	1	0	0	0	0	0
OTU 99	0	1	2	1	4	2	0	18	4	0	4	0	0	0	0	24	0	1	0	0	3	76	0	0	2	1	0	0	3	7	0	1	0	0	0	3	0	0	2	1	2	3	5	3	1	0	1	0	0	0
OTU 100	0	3	0	3	1	3	0	1	0	0	2	1	2	0	1	0	0	0	1	0	0	1	2	0	0	0	0	0	0	0	0	1	0	1	3	9	0	1	1	0	1	0	0	2	0	0	0	1	0	0
OTU 101	0	0	0	0	0	0	0	0	0	1	0	0	0	0	0	0	0	0	0	0	0	0	0	0	0	2	0	0	0	0	0	0	0	0	1	0	0	1	0	0	0	0	0	0	0	0	0	0	0	0
OTU 102	0	0	0	1	1	1	0	2	4	0	0	0	0	0	0	0	8	0	0	1	0	0	0	0	1	1	0	0	2	1	0	0	1	5	0	0	0	0	0	0	1	0	0	0	0	0	0	0	0	0
OTU 103	0	4	0	0	0	0	0	0	0	0	0	0	1	0	0	0	0	0	0	0	0	0	3	1	7	1	0	0	0	0	4	2	0	0	2	1	0	1	0	0	1	79	12	0	0	1	0	0	0	1
OTU 104	5	2	0	1	1	3	0	4	0	0	0	0	0	6	0	4	6	5	2	1	0	1	4	9	5	0	6	2	6	8	1	0	0	1	8	3	1	0	4	1	2	0	0	20	0	4	0	1	3	1
OTU 105	0	0	0	1	0	0	0	0	0	0	0	0	0	0	0	0	0	0	0	0	0	0	0	1	0	0	0	0	0	0	0	0	0	0	0	0	0	0	0	0	0	0	0	0	0	0	0	0	0	0
OTU 106	0	0	0	0	71	0	1	0	3	0	1	1	0	3	0	0	0	0	0	0	0	0	0	0	0	3	0	0	0	0	0	0	0	0	0	0	0	0	0	0	0	1	0	0	0	0	0	0	0	0
OTU 107	0	0	1	0	0	0	0	0	8	0	0	0	0	0	3	1	0	0	1	0	1	1	0	0	7	2	3	0	0	4	0	1	0	0	0	0	0	0	0	0	0	1	0	0	0	5	0	0	0	0
OTU 108	1	0	1	1	0	0	1	1	0	0	2	0	0	0	0	0	15	0	1	0	0	0	0	2	0	0	0	0	3	1	0	1	0	1	1	1	0	1	1	3	0	1	0	0	0	0	0	0	0	0
OTU 109	0	0	0	0	0	0	0	0	0	0	0	0	0	0	0	0	0	0	0	0	0	0	0	0	0	0	0	0	0	0	0	0	0	0	0	0	0	0	0	0	0	0	0	0	0	0	0	0	0	0
OTU 110	0	4	3	4	0	12	4	0	7	2	0	0	2	2	0	1	1	0	0	0	0	4	1	0	0	0	0	0	7	0	0	0	2	0	0	1	0	0	0	1	0	0	1	0	0	4	0	0	0	0
OTU 111	0	0	0	0	0	0	0	0	2	0	0	0	0	0	0	1	0	1	0	0	0	0	0	0	0	0	0	0	0	0	0	0	0	0	0	0	0	0	0	0	0	0	0	0	0	0	0	0	0	0
OTU 112	0	0	0	1	2	0	0	0	0	1	0	0	0	0	4	1	0	1	0	0	0	0	0	0	0	0	0	1	0	0	0	0	0	0	0	0	0	0	2	0	0	0	0	0	0	1	0	0	0	0
OTU 113	0	0	0	0	0	0	0	0	0	0	0	0	0	0	0	0	0	0	0	1	0	0	0	0	0	0	0	0	0	0	0	0	1	0	0	4	0	0	0	0	0	0	0	0	0	1	0	0	0	0
OTU 114	3	1	1	0	1	5	0	2	15	7	4	0	3	3	0	0	29	6	1	7	12	3	0	1	4	3	5	1	14	2	61	0	2	1	0	0	3	0	0	1	7	8	2	0	1	0	0	0	3	38
OTU 115	1	0	78	3	1	5	2	7	0	22	0	5	0	1	53	5	5	2	3	1	5	6	0	1	9	1	31	1	1	0	0	0	1	8	2	4	0	0	1	0	3	0	1	0	3	0	0	0	1	1
OTU 116	12	1	0	0	0	1	1	1	8	1	0	4	6	0	1	0	3	11	0	6	0	2	0	1	1	0	2	3	1	0	0	0	0	5	0	0	2	1	0	0	7	3	3	0	0	0	0	1	4	0
OTU 117	0	0	12	2	0	4	0	1	5	2	4	1	0	0	2	0	4	0	0	1	1	3	0	0	6	23	0	2	1	3	0	0	0	0	0	3	0	1	0	0	1	2	2	6	0	5	1	2	1	0
OTU 118	0	0	0	0	0	4	0	0	0	0	2	0	0	0	0	0	0	0	3	0	0	0	0	0	0	0	0	0	0	0	3	0	0	0	0	0	0	0	0	0	0	0	0	1	0	0	0	0	1	4
OTU 119	0	0	3	0	1	4	3	0	6	1	2	0	2	8	4	4	1	8	1	0	2	1	0	0	2	0	4	2	4	0	0	2	1	0	0	16	0	2	0	11	0	6	0	0	1	3	0	0	0	1
OTU 120	0	2	0	6	1	0	0	0	1	0	10	2	0	0	0	0	0	0	0	0	0	0	0	0	3	0	0	0	0	0	0	0	0	0	0	1	0	0	0	0	0	0	0	0	3	0	0	1	2	0
OTU 121	0	2	0	0	0	0	0	1	0	1	2	1	1	4	0	0	0	0	1	0	0	1	0	0	1	0	0	0	0	2	4	0	0	0	1	1	0	0	0	0	5	1	0	0	0	0	0	0	0	0
OTU 122	1	2	1	0	6	0	59	3	3	0	1	4	1	50	0	0	0	1	2	0	0	1	2	1	17	3	1	0	1	0	0	0	0	0	1	0	0	7	2	0	5	0	0	1	0	0	0	1	3	0
OTU 123	6	5	10	3	0	13	1	3	15	0	4	11	9	0	0	1	13	2	5	3	2	9	3	4	4	2	7	2	3	0	5	18	12	1	10	4	3	6	3	11	6	3	4	1	7	15	9	8	11	2
OTU 124	0	0	0	0	0	0	0	0	0	0	2	0	0	0	1	0	0	5	0	1	0	0	0	0	0	0	0	0	0	0	0	0	0	0	0	0	0	0	0	0	1	0	0	0	0	0	0	0	0	0
OTU 125	0	15	4	12	4	6	0	4	3	0	22	0	19	5	1	7	10	7	3	11	59	24	5	3	7	0	0	16	7	1	1	13	2	3	1	33	11	1	6	6	11	13	7	0	5	2	4	1	33	1
OTU 126	0	0	0	0	1	0	0	0	0	1	0	0	0	4	0	0	0	0	0	0	1	0	0	0	0	0	0	0	0	0	0	0	0	0	0	0	0	0	0	0	0	3	4	0	0	0	0	0	0	0
OTU 127	0	1	0	0	0	0	0	1	1	0	1	0	0	0	0	0	6	0	0	0	1	0	3	3	0	2	0	0	1	0	0	0	0	0	0	0	0	0	0	0	4	1	0	0	0	0	0	0	0	1
OTU 128	3	12	7	2	1	6	7	1	5	3	17	0	2	10	10	28	4	25	12	3	1	3	8	5	4	3	1	0	5	3	2	1	35	11	12	2	1	6	22	6	10	6	0	2	5	5	5	1	10	2
OTU 129	0	0	0	0	0	0	0	0	0	0	0	0	0	0	0	17	0	0	0	0	0	1	0	0	0	1	0	0	0	0	0	0	0	10	0	0	0	0	0	0	0	0	0	0	5	0	0	0	0	0
OTU 130	0	2	1	2	0	0	0	4	0	1	0	19	3	0	0	2	1	1	3	1	1	0	1	0	0	0	0	2	0	1	9	0	0	0	0	0	0	0	0	0	1	7	1	0	2	0	2	5	1	6
OTU 131	0	1	0	0	0	0	0	16	3	0	0	2	0	0	1	2	1	1	0	0	0	0	0	1	5	6	0	1	0	10	5	0	0	0	0	0	0	4	0	0	4	0	0	3	0	1	0	2	0	3
OTU 132	0	2	2	0	0	0	0	0	4	0	0	0	3	1	1	0	0	0	1	0	0	0	0	0	0	0	0	0	0	1	1	0	1	0	0	0	0	1	0	1	0	6	1	0	0	1	0	0	0	0
OTU 133	0	1	0	0	0	0	0	0	0	0	0	0	0	0	0	0	0	0	0	0	0	0	5	0	0	0	2	0	0	0	0	0	0	0	0	0	0	0	0	0	0	0	0	0	2	4	0	0	0	0
OTU 134	0	0	4	5	0	1	0	1	4	0	5	0	3	3	0	0	0	0	1	5	4	1	1	0	0	5	2	1	1	5	4	1	1	2	1	0	1	0	0	0	1	5	3	4	1	0	0	3	0	0
OTU 135	2	0	2	2	0	0	1	2	11	0	3	1	0	0	2	0	1	1	2	6	0	0	0	1	0	0	0	1	0	0	0	0	0	0	0	0	2	0	1	1	2	2	0	2	0	4	7	3	1	1
OTU 136	0	0	0	1	1	0	0	0	3	0	4	2	3	0	1	1	4	0	0	15	2	0	0	0	0	0	0	0	2	0	3	0	7	2	2	1	6	1	1	0	0	0	0	0	29	0	0	2	0	0
OTU 137	0	1	0	0	0	1	0	0	0	0	0	1	0	0	0	1	0	0	0	0	0	0	0	0	0	0	2	0	0	0	3	0	4	1	0	0	0	0	0	2	1	0	0	2	0	5	0	2	21	0
OTU 138	0	0	3	0	0	0	0	2	4	2	1	0	0	0	1	0	0	0	0	0	0	0	2	0	1	0	0	0	0	1	0	0	0	1	0	0	1	0	0	0	0	0	2	2	0	0	0	0	0	0
OTU 139	0	4	0	6	8	5	0	7	3	7	2	2	3	0	1	1	1	0	1	0	2	19	3	6	9	0	0	1	4	6	3	91	1	0	6	1	2	2	0	27	0	3	1	1	5	0	56	1	3	0
OTU 140	0	4	13	1	4	2	91	12	12	27	5	0	1	0	4	6	17	5	2	9	1	2	2	1	7	2	2	1	0	4	0	0	159	4	4	1	7	6	85	2	1	8	0	3	0	12	3	0	2	41
OTU 141	0	0	0	0	0	0	0	0	0	0	0	0	0	0	0	0	0	0	0	0	0	0	0	0	0	0	0	0	0	0	0	0	0	0	0	0	0	0	0	0	0	0	0	0	0	0	0	0	0	0
OTU 142	0	0	0	0	0	2	0	0	0	0	0	0	0	0	1	0	0	0	0	0	0	0	0	0	0	0	0	0	0	0	0	0	0	0	0	0	0	0	0	0	1	0	0	0	0	0	0	0	0	0
OTU 143	0	0	2	0	0	0	0	0	0	0	2	0	0	0	0	0	0	2	0	5	0	0	0	0	0	0	0	0	0	3	0	0	0	0	0	0	2	0	0	1	0	0	0	0	0	2	0	0	0	0
OTU 144	0	1	0	1	1	0	0	0	1	0	0	0	0	2	0	1	0	0	0	0	0	0	0	0	0	0	0	0	0	0	0	0	0	0	0	0	0	0	1	0	0	0	0	0	0	0	0	0	2	0
OTU 145	1	32	3	0	1	1	4	1	1	1	2	1	1	16	0	0	4	29	1	3	0	12	17	2	0	0	0	0	0	0	1	0	0	3	0	0	2	18	0	1	2	0	0	0	0	0	0	1	31	0
OTU 146	1	6	3	0	5	0	0	1	0	114	0	0	0	0	5	0	2	1	10	1	2	0	4	1	0	2	2	0	1	1	1	1	0	1	1	2	0	0	0	7	1	0	4	4	0	1	2	0	9	2
OTU 147	0	0	1	0	1	0	2	3	0	0	0	0	1	6	1	0	8	0	0	0	10	0	0	0	0	0	0	0	1	3	9	0	1	0	0	0	0	0	0	0	0	2	1	0	0	2	0	0	0	6
OTU 148	0	9	1	1	0	0	0	0	0	0	0	2	0	1	0	0	5	0	1	0	0	1	5	0	1	36	1	0	0	1	0	0	0	78	0	0	0	0	1	1	0	2	0	23	1	4	2	0	0	0
OTU 149	0	0	0	0	0	1	0	0	0	0	3	2	0	0	7	0	0	1	0	1	0	0	0	4	0	3	0	0	1	0	0	0	0	4	1	0	1	0	0	0	0	0	0	0	0	0	3	0	0	0
OTU 150	0	0	2	0	0	0	0	0	0	1	3	0	0	1	3	0	1	0	0	0	0	12	0	0	0	1	1	0	0	0	0	0	0	0	0	3	0	0	0	4	5	4	0	0	0	0	3	0	0	0
OTU 151	0	0	0	0	1	0	0	0	0	0	0	0	1	0	0	0	3	4	0	3	0	2	0	0	2	3	0	0	1	0	0	0	0	1	3	0	1	1	1	3	0	0	30	3	0	0	0	0	4	0
OTU 152	0	0	0	1	2	3	0	13	1	0	2	0	0	2	3	6	0	5	5	0	0	0	0	0	8	0	1	1	0	1	0	1	0	0	0	2	0	0	0	1	6	1	0	1	0	0	0	0	0	0
OTU 153	0	0	0	0	0	0	0	0	1	0	0	0	0	0	0	0	0	0	0	0	0	0	0	0	0	0	0	0	0	0	0	0	0	0	0	0	0	0	0	0	0	0	0	0	0	0	0	0	0	0
OTU 154	0	0	0	0	0	0	0	0	1	0	0	0	0	0	0	0	0	0	3	0	0	3	0	0	0	0	0	0	0	0	0	0	1	0	0	0	0	0	0	0	0	0	0	1	0	0	0	0	0	0
OTU 155	0	0	0	22	0	3	0	6	0	0	0	0	1	0	1	3	0	0	0	0	0	0	0	0	0	0	0	2	4	0	0	0	0	0	0	2	1	0	0	3	0	1	0	0	1	1	1	0	0	0
OTU 156	0	1	0	4	0	0	0	2	1	1	2	0	4	1	0	5	2	1	3	60	1	2	0	4	5	0	5	0	2	2	0	0	1	4	4	4	20	2	3	0	0	1	4	0	0	0	2	0	0	0
OTU 157	0	0	0	0	0	0	0	0	0	0	0	1	0	4	0	0	1	16	0	4	0	0	0	0	0	0	0	0	0	0	0	0	0	0	0	0	4	0	0	0	0	0	0	0	0	0	0	0	0	0
OTU 158	0	1	0	0	0	0	0	0	0	0	0	0	0	0	0	0	0	0	0	0	0	0	0	0	0	0	0	0	0	0	0	0	0	0	0	0	0	0	0	0	0	0	0	0	0	0	0	0	2	0
OTU 159	0	3	1	0	0	0	15	1	0	0	2	1	1	40	0	0	0	0	0	0	0	0	1	2	9	0	0	0	2	0	0	0	0	1	1	2	0	0	0	0	5	1	0	0	1	0	0	0	0	0
OTU 160	0	14	1	4	7	2	3	7	5	2	1	6	0	1	3	0	1	3	0	6	3	9	4	1	2	0	2	1	3	9	6	1	6	10	11	3	3	25	4	2	1	3	0	0	13	10	4	0	1	1
OTU 161	13	3	0	0	1	0	3	0	3	3	1	3	1	2	0	1	0	0	1	4	0	1	0	45	0	2	0	0	0	2	2	0	0	0	0	1	0	2	0	0	1	0	0	0	4	14	0	2	1	1
OTU 162	159	19	0	2	1	1	0	0	0	0	1	0	1	0	0	1	2	0	3	0	0	1	3	3	3	0	3	0	3	0	0	1	2	3	0	0	1	0	2	0	0	0	0	1	1	2	0	1	3	0
OTU 163	0	0	0	0	0	0	0	0	0	0	0	0	0	0	0	0	0	0	0	0	0	0	0	0	0	6	0	0	0	0	0	0	0	0	0	0	0	0	0	0	0	0	0	0	0	2	0	0	1	0
OTU 164	0	0	0	0	1	0	0	2	0	0	2	0	0	0	0	0	0	0	0	0	0	0	0	0	0	0	0	0	0	2	0	0	0	1	0	0	0	0	0	0	0	0	0	0	0	0	0	0	0	0
OTU 165	0	0	1	0	0	1	0	0	4	0	0	0	0	0	0	0	2	0	4	0	0	0	0	0	0	3	0	0	0	0	0	0	0	0	0	0	0	0	0	0	0	0	0	0	0	0	1	0	0	1
OTU 166	0	0	0	0	0	0	0	0	0	0	0	3	0	0	2	0	3	0	0	1	0	0	0	0	0	0	0	0	0	0	0	0	0	0	0	0	0	0	0	0	0	0	0	0	0	0	0	0	0	0
OTU 167	0	0	5	4	0	0	0	7	5	0	0	3	0	0	3	5	0	0	2	1	1	0	0	0	5	0	4	0	8	0	1	0	1	8	1	0	1	0	0	0	0	1	1	0	1	1	0	1	2	0
OTU 168	2	1	0	3	2	0	1	1	0	1	0	0	0	1	0	0	0	1	0	0	0	4	1	1	0	0	0	0	2	0	0	0	0	0	0	0	0	1	1	1	0	2	1	0	2	2	3	0	0	1
OTU 169	1	0	0	0	0	0	0	0	0	0	0	0	0	0	0	0	0	0	0	0	0	0	0	2	0	0	0	0	0	0	0	0	0	0	0	0	0	0	0	0	0	0	0	0	0	0	0	0	0	0
OTU 170	0	0	0	0	0	0	0	0	0	0	0	0	0	0	0	0	0	0	0	0	0	0	0	0	0	0	0	0	0	0	0	0	0	0	0	0	0	0	0	0	0	0	0	0	0	0	0	0	0	0
OTU 171	4	6	4	5	8	31	0	0	5	0	9	0	2	0	0	0	0	1	0	5	1	0	0	9	9	0	0	0	0	0	5	0	0	0	23	3	0	16	16	0	0	2	1	0	0	0	0	2	0	3
OTU 172	0	0	0	0	0	0	0	8	0	0	1	0	0	0	0	0	0	0	0	0	0	0	0	1	0	0	0	0	0	6	0	0	0	0	0	0	0	0	0	0	0	0	0	0	0	0	0	0	0	0
OTU 173	0	5	0	0	1	2	0	0	4	0	0	0	0	0	0	0	3	0	0	0	0	0	1	0	0	0	0	0	0	0	0	1	0	0	0	0	0	0	0	0	1	2	0	0	0	0	0	0	0	3
OTU 174	0	0	0	6	1	0	0	0	0	2	1	0	0	1	0	2	2	6	0	5	0	1	0	0	2	0	0	1	3	1	73	0	0	3	0	0	0	1	1	0	5	0	0	0	0	0	0	0	3	33
OTU 175	0	3	4	0	0	1	2	2	0	0	2	1	1	0	1	0	4	0	1	0	2	0	0	2	0	4	0	0	0	2	0	0	0	0	0	0	0	0	0	0	0	0	0	0	0	2	1	0	0	0
OTU 176	1	0	1	2	0	2	0	0	3	3	6	0	0	0	2	6	2	1	0	0	0	1	0	0	3	1	1	0	3	0	0	0	0	1	0	4	0	0	1	0	1	6	1	0	2	4	0	0	0	0
OTU 177	44	6	0	3	7	2	0	2	2	7	1	3	0	3	1	1	6	3	0	0	1	4	4	2	0	0	0	0	8	0	0	1	0	3	17	0	1	6	4	0	0	1	0	0	0	1	2	1	0	2
OTU 178	0	0	0	3	0	1	0	2	0	0	0	0	0	1	0	4	0	3	0	0	1	1	0	5	0	0	0	0	2	0	4	0	0	0	0	0	0	0	0	2	0	4	0	0	0	0	1	0	0	0
OTU 179	0	1	1	0	0	0	0	22	5	0	0	0	0	0	0	1	2	1	1	0	0	0	0	0	0	0	0	0	0	6	2	1	0	0	2	0	0	0	0	0	0	0	0	0	0	0	0	1	1	2
OTU 180	0	5	3	5	39	4	1	2	15	5	5	40	6	2	2	2	12	1	25	33	4	13	3	1	3	5	5	0	0	1	29	2	11	3	1	3	9	0	2	1	1	6	7	1	6	12	0	14	3	22
OTU 181	0	0	0	1	0	0	4	0	0	0	1	0	1	3	7	1	1	0	0	0	1	1	0	0	2	1	0	0	0	0	0	0	0	0	5	0	0	0	2	1	2	6	12	2	0	0	0	2	1	0
OTU 182	0	0	0	0	0	0	0	0	0	0	0	0	0	0	0	0	0	0	0	0	0	0	0	0	0	0	0	0	0	0	0	0	0	0	0	0	0	0	0	0	0	0	0	0	0	0	1	0	0	0
OTU 183	1	0	0	0	0	1	2	0	0	0	0	1	0	4	0	5	0	0	1	0	2	1	0	1	6	7	0	1	8	0	0	0	0	4	1	0	0	0	0	0	0	0	0	3	2	0	0	0	1	0
OTU 184	0	1	0	0	0	0	0	2	0	2	2	0	0	0	2	3	0	0	0	0	0	0	1	0	0	0	1	0	0	0	0	0	1	0	0	0	0	0	0	0	0	0	0	0	0	0	0	0	1	0
OTU 185	2	0	0	5	1	0	0	2	3	1	0	0	0	0	0	2	1	3	0	0	7	3	0	1	4	1	0	0	3	0	2	1	1	0	3	5	1	0	3	0	6	0	1	0	2	0	1	0	1	1
OTU 186	0	0	0	0	0	5	0	0	0	0	0	0	13	0	0	0	0	1	1	0	0	0	0	0	5	0	0	9	6	1	0	0	0	3	2	0	0	0	2	1	18	0	2	4	0	0	0	0	1	0
OTU 187	0	34	0	4	0	0	0	2	5	0	2	110	91	4	0	1	7	0	2	0	2	2	16	3	0	5	0	24	0	4	0	22	2	3	0	52	2	0	1	1	3	0	13	0	4	3	4	55	0	0
OTU 188	0	1	2	9	0	2	1	1	12	1	5	2	0	0	1	0	2	7	0	0	0	6	1	3	0	3	1	0	0	1	1	2	6	0	0	0	1	0	0	2	0	0	2	0	1	6	2	1	0	1
OTU 189	2	0	2	0	2	3	1	0	0	0	1	2	0	5	3	1	1	3	43	3	2	2	0	2	0	3	1	43	4	3	0	0	1	2	7	4	1	4	2	0	8	8	0	2	3	6	3	0	1	1
OTU 190	0	0	0	0	0	0	1	0	0	0	0	0	0	2	0	0	0	6	7	0	0	4	0	0	0	1	0	0	0	0	1	0	0	0	0	0	0	0	0	0	0	0	0	0	0	0	0	0	0	0
OTU 191	1	0	0	0	1	1	1	0	0	0	3	0	3	2	0	1	0	0	3	7	0	2	1	0	0	1	0	1	3	0	0	0	1	1	1	2	4	0	0	1	0	11	6	2	1	0	4	0	0	1
OTU 192	1	3	0	1	1	1	3	21	0	1	0	0	4	14	1	4	2	3	2	1	2	1	1	1	21	1	22	1	3	2	0	0	0	1	4	6	1	1	0	3	22	17	2	2	0	1	0	2	1	0
OTU 193	1	3	0	0	0	0	6	0	3	0	0	15	2	3	1	0	18	3	0	1	5	1	1	0	0	3	0	0	3	0	14	1	1	0	1	1	0	2	1	0	1	3	1	1	0	0	5	13	0	7
OTU 194	0	0	0	0	5	4	0	0	3	27	0	0	0	1	0	6	0	0	5	0	0	3	1	0	0	4	0	0	0	0	47	0	22	0	2	1	0	1	0	0	3	2	1	2	76	0	1	0	0	15
OTU 195	0	0	0	0	0	0	5	2	0	1	0	1	0	2	0	0	0	1	3	2	3	6	0	0	0	0	0	0	0	0	0	0	0	0	1	0	1	1	0	0	3	0	0	0	1	0	5	0	0	0
OTU 196	0	0	0	0	1	0	0	0	0	2	7	1	1	0	1	0	1	0	1	0	0	0	1	1	0	0	0	0	1	2	0	0	0	0	4	0	1	5	5	0	0	0	0	0	0	0	0	1	0	0
OTU 197	4	8	6	4	6	5	2	1	3	1	3	6	1	4	1	7	6	1	6	3	4	5	3	9	6	5	3	81	5	0	2	0	5	1	41	6	1	9	14	0	4	4	3	1	15	2	1	2	1	7
OTU 198	0	0	4	3	1	1	1	0	0	0	0	1	0	1	0	11	8	3	0	0	0	0	0	0	0	1	0	0	0	1	0	0	0	0	0	0	0	0	0	0	3	0	0	0	0	0	1	0	0	0
OTU 199	0	0	2	0	0	1	2	0	5	0	0	0	1	1	0	0	0	3	2	1	0	1	0	0	0	0	2	0	3	0	0	0	0	1	0	0	0	0	0	0	1	1	2	0	0	0	4	3	0	1
OTU 200	0	3	0	0	0	2	0	0	0	0	4	4	0	0	1	0	0	4	0	1	2	1	1	0	3	1	0	1	0	0	0	0	1	0	2	1	0	1	2	0	8	0	1	0	3	1	0	4	0	0
