	Host 1	Host 2	Host 3	Host 4	Host 5	Host 6	Host 7	Host 8	Host 9	Host 10	Host 11	Host 12	Host 13	Host 14	Host 15	Host 16	Host 17	Host 18	Host 19	Host 20	Host 21	Host 22	Host 23	Host 24	Host 25	Host 26	Host 27	Host 28	Host 29	Host 30	Host 31	Host 32	Host 33	Host 34	Host 35	Host 36	Host 37	Host 38	Host 39	Host 40	Host 41	Host 42	Host 43	Host 44	Host 45	Host 46	Host 47	Host 48	Host 49	Host 50	
OTU 1	1	8	1	0	2	4	2	1	1	1	0	1	6	3	3	3	0	0	0	1	2	0	2	0	0	4	2	2	0	0	8	4	0	0	7	0	0	6	5	1	1	0	1	0	3	1	0	1	0	2
OTU 2	0	0	0	0	0	0	3	2	0	1	0	0	0	1	0	1	1	0	0	1	0	0	1	0	0	0	0	0	0	0	0	0	0	0	0	4	0	1	1	0	2	0	0	0	0	0	0	0	0	0
OTU 3	0	1	1	0	0	2	0	1	9	0	0	0	0	0	0	3	9	0	0	2	0	0	4	0	0	8	0	0	0	0	3	0	5	0	0	0	4	0	0	0	0	3	2	0	2	2	0	0	0	0
OTU 4	0	0	0	0	0	0	0	0	0	0	0	0	0	0	0	0	0	0	0	0	0	0	0	0	0	0	0	0	0	0	0	1	0	0	0	0	0	0	0	0	0	0	0	0	0	0	0	0	0	0
OTU 5	3	1	0	7	0	50	56	10	0	7	3	2	3	46	10	10	14	2	7	6	16	0	6	0	0	0	29	32	30	2	10	34	1	7	0	34	8	111	23	10	0	0	39	13	1	0	10	6	12	12
OTU 6	0	2	0	0	0	0	0	0	0	0	4	0	0	0	1	3	0	0	0	0	0	1	0	0	0	1	5	0	0	1	0	0	0	0	0	1	0	1	0	0	1	0	0	0	0	0	0	0	7	0
OTU 7	0	1	16	1	3	1	2	4	10	10	4	2	0	4	11	10	7	8	0	1	3	3	9	0	0	2	2	0	1	1	1	8	2	1	1	0	1	0	2	0	0	5	1	1	0	22	12	1	0	2
OTU 8	1	1	3	11	1	2	11	0	5	1	7	8	0	8	3	4	6	2	2	0	3	9	0	4	0	1	0	0	13	3	4	4	2	0	1	1	0	4	0	20	2	0	27	0	108	1	39	0	0	1
OTU 9	11	3	2	42	0	0	0	4	0	0	0	2	2	0	11	0	0	0	0	0	0	0	0	34	0	0	0	0	5	0	0	2	0	0	0	0	1	0	0	84	0	2	0	0	0	17	2	1	0	0
OTU 10	0	0	3	0	0	1	0	0	0	1	0	0	1	3	2	0	0	0	0	0	3	0	1	2	0	0	0	0	1	0	6	3	0	2	0	0	0	0	0	0	0	1	0	0	0	0	0	0	0	0
OTU 11	4	0	3	0	3	2	2	0	0	3	1	12	3	4	4	1	1	14	4	2	0	3	0	8	0	0	0	0	1	1	1	3	1	0	10	0	0	1	2	0	0	4	7	0	1	2	0	4	0	1
OTU 12	2	6	0	2	5	4	7	9	3	1	1	0	0	7	0	2	0	9	1	3	0	3	1	5	2	0	2	0	1	1	1	0	0	0	1	0	1	2	0	3	0	0	0	0	1	3	0	1	2	0
OTU 13	0	0	0	0	0	0	0	0	0	0	0	0	0	0	0	1	0	0	0	0	0	0	0	0	0	0	0	0	0	0	0	0	0	0	5	0	0	0	1	0	0	0	0	1	0	0	0	0	1	0
OTU 14	1	0	0	0	0	2	1	0	0	0	1	0	0	0	0	0	0	0	0	3	0	1	0	1	0	1	0	0	0	3	0	0	0	5	0	0	2	1	0	0	0	3	0	0	0	0	0	0	0	0
OTU 15	0	0	0	0	0	0	0	0	0	0	0	0	0	0	1	0	0	0	0	0	0	0	0	0	0	0	0	3	0	0	0	6	0	0	0	0	1	0	0	0	0	0	0	0	0	0	0	0	0	0
OTU 16	0	0	0	0	0	0	0	0	0	0	0	0	0	0	0	0	0	0	0	0	0	0	0	0	0	0	0	0	0	0	0	1	0	0	0	0	0	0	0	0	0	0	0	0	0	0	0	0	0	0
OTU 17	1	2	0	1	7	7	0	2	0	1	0	0	0	0	1	0	0	4	0	4	0	0	0	8	1	1	0	0	1	0	0	0	9	0	20	139	1	10	15	0	13	1	4	0	0	0	3	1	0	0
OTU 18	0	3	1	1	8	2	1	11	0	5	2	0	0	1	0	0	0	3	1	0	0	2	0	2	0	1	0	57	0	0	2	38	7	0	5	0	1	6	7	0	4	0	0	2	0	7	2	0	5	4
OTU 19	0	0	0	0	0	0	0	0	0	0	0	0	0	0	0	0	0	0	0	0	0	0	0	0	0	0	0	0	0	0	0	0	0	0	0	0	0	0	0	0	0	0	0	0	0	0	0	0	0	0
OTU 20	0	2	0	0	6	7	5	6	0	3	1	1	0	6	2	0	0	6	0	7	1	1	0	0	0	0	1	1	2	3	2	2	0	3	6	0	5	0	0	0	7	0	1	1	38	1	0	0	0	0
OTU 21	0	1	1	1	5	0	1	0	3	0	3	0	66	0	3	22	0	0	0	3	0	1	1	1	1	110	3	21	0	1	2	19	0	6	1	39	1	0	1	0	1	2	1	62	31	4	3	1	1	2
OTU 22	0	1	4	2	2	0	0	0	14	1	0	1	0	0	1	4	3	3	7	1	3	0	7	1	8	1	2	0	1	0	6	0	4	1	12	1	2	7	2	0	0	12	2	0	0	2	2	0	2	0
OTU 23	0	0	0	0	1	0	1	1	0	0	2	5	0	0	2	29	0	0	3	0	53	0	1	0	1	7	0	0	0	0	0	1	0	24	1	4	1	1	0	0	0	3	4	4	0	0	0	4	0	0
OTU 24	0	0	0	0	0	0	0	0	0	0	0	1	0	0	1	0	0	0	0	1	0	1	0	0	0	2	1	3	0	3	0	0	0	5	1	0	2	6	0	0	0	3	0	0	1	0	0	0	1	0
OTU 25	0	14	0	1	0	0	0	0	0	0	0	0	0	0	0	0	0	0	0	0	0	0	0	0	0	0	0	0	0	0	0	0	0	0	0	0	0	0	0	0	0	0	0	0	0	0	0	0	0	0
OTU 26	0	1	2	0	0	0	1	0	0	0	1	0	0	0	1	0	1	0	0	0	0	0	0	0	1	0	0	0	2	0	0	0	0	0	0	0	0	0	0	0	0	0	0	0	0	0	4	0	1	0
OTU 27	0	0	0	0	0	0	0	0	0	0	0	0	0	0	0	0	0	0	0	0	0	0	0	0	0	0	0	0	0	0	0	0	0	0	0	0	0	0	0	0	0	0	0	0	0	0	0	0	0	0
OTU 28	0	6	26	21	2	0	0	1	7	15	2	5	48	0	20	2	10	0	2	12	2	0	3	0	2	0	40	9	0	0	6	12	0	0	3	0	8	0	8	22	1	0	3	0	13	79	51	2	3	1
OTU 29	0	0	0	1	0	0	0	0	0	0	2	1	1	0	1	2	0	0	0	3	0	9	0	4	1	3	0	0	1	79	1	1	0	0	0	3	4	1	0	0	4	2	0	13	0	2	0	0	2	38
OTU 30	0	0	0	0	0	0	0	0	0	0	0	0	0	0	0	0	0	0	0	0	0	0	0	0	0	0	0	0	0	0	0	0	0	0	0	0	0	0	0	0	0	2	0	0	0	0	0	0	0	0
OTU 31	0	1	4	1	0	0	0	1	0	0	1	1	1	1	0	2	0	6	0	5	77	0	0	0	66	0	0	0	29	4	0	1	0	0	0	1	4	0	0	4	0	1	1	0	1	0	0	0	0	0
OTU 32	0	1	3	0	0	0	0	1	4	1	2	1	2	0	3	1	2	2	0	3	0	1	2	1	8	3	0	13	4	1	4	0	1	3	3	26	7	18	5	1	0	5	2	56	0	0	1	0	0	1
OTU 33	0	0	1	0	0	0	0	0	0	0	0	0	0	0	0	0	0	0	0	0	0	0	0	2	0	0	0	0	0	0	0	0	0	0	0	0	0	0	0	0	0	0	0	0	0	0	0	0	0	1
OTU 34	0	0	0	1	0	0	2	1	9	2	0	0	0	7	1	2	6	21	0	0	3	3	4	3	0	1	2	1	0	1	0	0	9	0	0	0	1	0	1	2	0	0	0	1	0	4	0	13	2	1
OTU 35	1	0	5	32	1	4	25	0	3	0	0	2	0	0	0	0	1	0	2	1	0	8	2	0	1	0	3	2	1	6	0	0	0	9	1	0	1	0	0	75	4	0	0	0	1	0	3	1	7	1
OTU 36	0	6	0	1	2	4	0	0	0	1	1	0	0	1	0	4	0	0	0	0	3	1	0	0	3	0	0	0	0	0	0	0	0	2	0	0	0	0	19	0	3	0	1	0	0	2	1	1	0	0
OTU 37	0	0	0	0	0	0	0	0	1	0	0	0	0	0	0	0	0	0	0	1	0	0	1	0	0	4	0	0	0	0	0	1	0	0	0	0	1	0	0	0	0	2	0	1	0	0	0	0	0	0
OTU 38	3	4	0	0	1	4	4	0	0	0	1	4	2	0	0	2	0	6	3	0	0	0	0	7	0	0	0	0	1	0	2	0	6	2	2	0	0	1	9	0	3	2	20	0	4	3	0	2	0	4
OTU 39	0	13	0	0	0	1	0	0	0	0	2	0	0	0	0	0	0	0	0	0	1	0	0	0	0	0	0	0	0	0	0	0	0	0	0	0	1	0	0	0	0	0	4	0	0	1	0	0	1	0
OTU 40	0	1	2	0	0	4	4	2	5	0	0	1	0	13	2	4	0	1	0	0	3	1	1	0	2	5	1	1	2	1	0	0	0	5	0	1	0	0	3	3	1	0	0	1	2	0	5	0	6	0
OTU 41	3	6	0	1	0	1	0	5	0	0	0	1	0	0	0	4	0	0	1	0	0	2	0	4	0	0	0	0	2	1	0	0	4	0	7	0	4	1	3	4	0	0	0	1	0	3	0	0	1	3
OTU 42	1	0	1	0	1	1	0	0	1	0	0	0	0	0	0	0	0	1	0	5	0	0	1	0	0	0	0	0	0	0	0	0	1	0	0	0	0	0	0	0	0	0	0	0	0	0	0	0	5	0
OTU 43	0	0	0	0	0	0	0	0	0	0	0	0	0	0	0	0	0	0	0	2	0	0	0	0	0	0	3	0	0	0	0	0	0	0	0	0	0	0	0	0	0	0	0	0	0	0	0	0	0	0
OTU 44	0	0	0	0	0	0	0	0	0	0	0	0	0	0	0	0	0	1	0	2	0	0	0	0	0	0	0	2	0	0	0	0	0	1	0	0	0	0	0	0	0	0	0	0	0	0	0	0	0	0
OTU 45	6	3	0	1	2	1	2	2	0	4	9	0	6	3	3	0	12	4	2	0	0	7	0	10	2	1	2	0	0	0	0	6	2	6	2	0	3	1	2	1	2	3	2	3	5	2	8	0	2	0
OTU 46	0	1	0	0	0	17	1	2	3	2	2	1	1	2	0	7	0	8	2	9	3	4	2	1	4	0	0	1	4	1	0	2	3	0	6	1	2	4	0	1	3	2	1	2	0	0	0	0	2	91
OTU 47	0	0	0	1	0	0	0	0	0	0	0	0	0	0	1	0	0	0	0	0	0	0	0	4	0	0	0	0	0	0	0	0	0	0	0	0	0	0	0	1	1	0	3	0	0	1	6	0	0	0
OTU 48	1	3	3	1	2	1	0	4	5	0	3	43	1	0	4	1	6	0	29	0	1	4	1	5	1	1	23	20	10	1	0	1	5	2	0	1	1	1	0	1	1	1	0	0	0	0	2	20	0	1
OTU 49	0	2	1	1	0	0	0	1	0	1	1	0	2	0	1	0	0	0	0	4	0	0	0	0	0	0	0	0	3	0	2	0	2	0	0	0	0	0	0	1	0	3	2	0	0	0	0	1	1	0
OTU 50	0	3	6	0	0	5	1	5	2	57	0	1	6	0	91	1	0	2	0	0	0	2	2	2	1	1	0	0	0	4	0	0	2	1	6	0	0	3	0	1	11	5	1	1	0	0	5	0	1	0
OTU 51	1	0	2	0	1	7	1	1	0	0	1	2	0	1	1	0	0	0	2	4	0	0	0	1	1	0	0	0	0	0	1	0	0	0	3	0	0	2	0	0	0	2	1	0	0	0	0	0	7	0
OTU 52	5	2	6	0	9	0	1	6	1	0	9	4	0	1	3	0	1	4	0	2	3	13	1	4	7	1	6	0	36	0	5	36	5	4	4	0	0	1	3	0	1	0	1	0	0	1	2	1	5	0
OTU 53	0	0	0	0	0	0	0	0	0	0	0	0	0	0	0	0	0	0	0	0	0	0	0	0	0	0	0	0	0	0	0	0	0	0	0	0	0	0	0	0	0	0	0	0	0	0	0	0	0	0
OTU 54	2	0	1	2	7	0	1	1	0	4	7	2	5	2	2	4	1	5	2	1	1	9	0	4	2	13	4	0	3	6	0	0	2	0	2	0	0	0	9	2	4	2	1	3	5	3	2	0	7	1
OTU 55	0	0	0	0	0	0	0	0	0	0	0	0	0	0	0	0	0	0	0	0	0	0	0	0	0	0	0	0	4	0	0	0	0	0	0	0	0	0	0	0	0	0	0	0	0	0	0	0	0	0
OTU 56	0	3	1	0	0	0	1	0	1	1	0	0	0	1	0	2	5	0	0	0	0	0	2	0	2	0	2	1	0	0	0	0	0	0	1	0	1	0	1	0	0	3	0	0	0	1	0	0	3	0
OTU 57	7	1	3	5	17	17	1	4	1	2	2	6	8	9	0	5	1	4	3	0	1	12	1	8	4	1	12	7	7	3	7	8	0	7	16	0	0	4	16	9	10	2	84	1	1	6	9	9	2	2
OTU 58	0	0	0	0	0	3	0	0	1	0	0	0	1	0	0	0	0	0	0	0	0	1	1	0	0	0	7	0	1	0	0	0	0	0	0	0	0	2	0	0	2	0	0	0	0	3	2	0	2	0
OTU 59	0	2	6	0	4	0	0	0	1	2	4	1	2	2	2	0	7	0	1	13	0	0	1	4	0	0	0	0	3	0	1	0	0	0	3	0	2	2	2	0	0	1	2	0	2	0	2	0	0	0
OTU 60	0	0	58	4	5	0	3	12	0	14	2	0	0	1	40	0	3	3	0	4	1	19	1	3	24	0	27	1	13	1	0	0	6	0	9	0	76	2	10	9	48	5	3	0	0	1	4	2	10	1
OTU 61	0	10	3	0	26	2	3	0	9	4	8	1	0	2	2	2	3	0	0	10	0	4	7	7	0	0	3	0	2	0	6	0	2	3	0	0	5	1	21	0	15	1	1	0	0	3	0	0	0	4
OTU 62	0	0	0	0	0	1	0	0	0	0	0	0	0	0	0	0	0	1	0	0	0	0	0	0	0	0	0	0	0	0	0	0	0	0	0	1	22	0	0	0	0	0	0	3	0	1	0	1	0	0
OTU 63	1	5	0	1	2	2	0	0	2	0	2	2	3	5	0	31	1	0	0	0	1	0	0	4	0	8	0	0	0	0	2	0	0	13	8	2	0	1	4	1	0	0	0	10	1	0	0	2	5	0
OTU 64	3	2	0	0	0	0	0	1	7	2	31	1	1	3	0	2	3	4	4	0	0	1	2	9	3	0	1	0	4	2	0	0	3	2	1	0	5	1	2	1	4	0	0	1	0	3	1	3	1	0
OTU 65	0	0	0	0	0	0	0	0	0	0	0	0	0	0	0	0	0	0	0	0	0	0	0	0	0	0	0	0	0	0	0	0	0	0	1	0	0	1	0	0	0	1	0	0	0	0	0	0	0	0
OTU 66	0	3	0	0	1	1	1	2	7	0	0	0	0	4	1	0	19	2	0	11	2	0	5	2	0	1	0	0	0	0	0	0	1	1	2	0	1	0	1	0	2	0	2	1	0	0	3	0	0	0
OTU 67	0	1	0	2	0	0	0	1	1	0	3	0	5	0	0	2	1	4	0	6	1	5	1	0	2	0	0	0	5	0	0	1	12	1	0	0	4	0	0	0	1	3	0	0	1	1	0	0	3	1
OTU 68	0	0	0	0	44	0	2	11	0	0	0	0	3	0	2	0	2	0	0	1	6	0	2	0	1	6	0	0	0	1	0	1	0	2	1	1	0	1	0	2	2	0	2	1	1	1	2	0	0	0
OTU 69	1	1	3	1	0	1	2	5	0	0	0	0	0	5	0	1	4	3	0	0	2	1	0	0	2	0	1	2	0	0	3	0	0	1	0	0	0	0	0	4	2	0	3	1	0	1	0	0	0	2
OTU 70	2	1	0	0	0	2	0	0	2	0	0	0	0	0	0	0	0	5	0	0	0	0	0	0	3	0	1	0	0	4	0	1	0	0	0	0	0	0	5	0	0	0	0	0	0	0	0	0	2	0
OTU 71	0	0	1	0	1	3	0	0	10	0	0	0	0	1	0	0	1	1	0	0	0	0	0	0	0	0	0	0	0	6	0	1	0	0	0	0	1	0	0	1	0	0	0	0	0	0	4	0	0	1
OTU 72	5	1	0	0	0	31	0	3	3	0	3	0	0	1	0	3	0	5	0	5	0	0	2	2	2	0	1	4	8	1	2	1	0	0	0	0	2	0	0	0	2	1	2	0	0	0	1	7	0	1
OTU 73	0	9	2	0	0	4	1	1	3	0	0	0	1	1	4	1	5	2	15	2	0	0	1	2	1	4	3	2	0	1	0	1	0	10	1	0	1	1	1	0	1	0	1	2	0	0	1	0	1	1
OTU 74	0	0	2	0	0	0	5	1	9	2	0	0	0	20	1	8	0	11	0	6	0	0	3	0	0	2	0	0	0	2	0	0	2	0	1	1	3	4	0	0	0	1	0	1	4	0	0	0	1	0
OTU 75	0	0	4	1	4	1	2	5	1	1	5	1	2	2	0	0	7	5	0	0	3	1	0	2	8	15	0	3	0	0	1	1	1	45	12	5	2	4	11	1	1	12	0	3	1	12	2	1	0	2
OTU 76	6	2	4	0	0	9	0	0	1	0	0	0	0	0	2	0	0	0	0	0	1	0	0	4	0	1	0	3	0	0	1	0	3	0	8	0	0	4	4	0	1	0	0	0	0	0	0	0	0	0
OTU 77	2	1	0	0	1	0	0	3	2	1	0	2	1	4	6	4	3	0	1	0	2	0	0	3	0	0	0	0	0	0	0	0	2	0	2	0	8	1	2	1	0	3	0	0	1	1	0	1	2	0
OTU 78	0	2	3	0	0	4	0	3	0	0	1	0	0	0	0	4	0	3	0	0	0	0	0	4	0	0	1	0	1	1	0	0	2	5	0	0	2	1	1	1	7	0	0	1	0	2	1	0	1	4
OTU 79	7	4	7	2	13	13	0	8	10	1	34	8	7	1	1	5	7	9	7	7	13	2	5	21	14	17	83	6	4	28	4	7	1	22	20	2	80	7	4	5	8	19	7	5	7	13	6	7	6	3
OTU 80	0	5	0	0	0	0	8	2	0	0	4	0	0	10	4	2	1	6	15	3	0	4	0	0	1	1	2	0	0	3	7	2	5	3	0	1	1	37	2	1	0	3	0	0	0	6	6	2	1	0
OTU 81	0	1	0	1	4	0	2	13	11	1	9	5	19	1	1	1	3	5	1	2	9	0	6	0	2	0	0	10	0	87	1	2	1	1	0	0	0	0	1	1	0	0	4	0	11	1	1	2	72	0
OTU 82	33	0	1	2	0	1	13	2	0	0	7	0	0	4	0	1	1	5	0	0	5	3	0	73	6	6	0	0	0	0	0	0	1	5	1	1	0	0	0	1	9	2	0	8	0	2	6	162	9	1
OTU 83	0	0	0	0	0	0	0	0	0	0	0	0	0	0	1	0	2	0	1	6	1	1	0	0	0	0	0	0	0	0	0	0	0	2	0	0	2	0	0	0	0	1	0	0	0	1	0	0	0	0
OTU 84	0	2	4	1	0	0	1	1	0	2	0	0	0	0	0	4	0	0	0	0	0	5	0	0	0	0	0	0	0	0	0	0	0	2	9	0	1	0	1	1	2	2	0	0	0	0	0	0	2	0
OTU 85	0	0	0	0	0	0	2	0	1	0	5	0	0	0	0	2	0	0	0	0	0	0	1	0	0	0	0	2	0	0	0	0	0	0	0	34	0	0	0	1	1	0	0	75	0	2	0	0	3	0
OTU 86	0	0	0	0	0	0	0	0	0	0	0	0	0	0	0	0	0	0	0	0	0	1	0	0	0	0	2	0	0	0	0	0	0	1	0	0	2	0	0	0	0	0	0	0	0	0	0	0	0	0
OTU 87	0	7	0	0	1	0	0	0	0	0	0	1	0	4	0	0	0	4	0	2	0	0	0	0	0	0	0	0	57	0	0	0	0	0	1	0	0	0	0	0	0	0	1	0	0	0	0	0	1	0
OTU 88	0	0	0	0	0	0	0	1	1	0	0	0	0	0	0	0	0	0	0	1	0	0	2	0	0	0	0	0	1	0	0	0	1	0	0	0	0	0	1	0	0	0	0	1	0	0	0	0	15	0
OTU 89	0	0	3	0	0	0	5	0	1	2	1	0	0	11	0	2	1	9	0	0	0	4	0	0	0	3	0	0	0	0	0	0	0	0	0	0	0	0	0	1	0	1	1	0	0	0	0	0	1	1
OTU 90	0	0	1	0	2	0	0	0	0	0	0	0	0	1	0	0	0	0	0	0	0	1	0	0	0	0	0	0	0	0	0	0	2	0	0	0	0	0	0	0	3	0	0	0	0	0	0	0	0	0
OTU 91	0	0	0	0	0	2	0	0	0	2	0	0	0	0	0	0	1	0	0	0	0	0	0	0	0	0	0	0	0	0	1	0	1	0	0	0	0	0	0	0	5	0	1	0	0	0	0	0	0	0
OTU 92	0	0	0	0	2	0	1	0	0	0	1	0	0	2	0	0	0	3	0	0	0	0	0	0	0	0	0	0	1	0	0	2	0	0	4	0	0	1	2	0	0	0	0	1	0	0	0	2	1	1
OTU 93	0	0	1	0	0	0	0	0	0	0	0	0	0	0	0	0	0	0	0	0	0	0	0	0	0	0	0	0	0	0	0	0	0	0	0	0	0	0	0	0	0	0	0	0	0	1	0	0	0	0
OTU 94	0	2	3	0	0	0	2	0	4	0	7	0	1	3	0	6	5	0	0	7	1	1	5	0	1	0	4	2	0	0	0	1	0	5	1	0	7	0	2	0	2	8	0	0	0	0	3	1	1	0
OTU 95	1	0	0	0	0	4	0	24	0	0	0	3	2	1	0	2	0	0	0	0	0	11	0	2	2	1	0	0	0	13	1	0	4	0	7	0	0	0	2	0	5	0	0	0	1	1	5	1	0	0
OTU 96	0	0	0	0	0	0	0	0	0	0	0	0	2	4	0	0	0	7	0	0	0	0	0	0	0	0	0	0	0	0	0	0	0	0	0	0	0	0	0	0	0	0	0	0	0	0	0	0	1	0
OTU 97	0	0	0	0	0	0	0	0	0	0	0	0	0	0	1	0	1	0	0	0	0	0	0	0	0	0	0	0	0	0	0	0	0	0	0	0	0	0	1	0	0	0	0	0	0	3	0	0	0	0
OTU 98	0	0	0	2	0	0	0	0	0	0	0	6	0	1	0	0	0	0	0	1	0	1	0	0	1	0	0	0	0	1	0	4	3	0	0	0	0	0	0	3	0	0	2	0	0	0	0	0	0	0
OTU 99	0	2	3	1	0	2	1	22	6	0	9	0	1	0	0	14	0	1	0	1	2	59	2	0	6	2	2	1	5	3	0	1	0	0	1	0	1	0	8	1	3	3	2	1	0	0	0	0	0	0
OTU 100	0	2	0	0	3	0	0	1	0	0	1	0	6	1	0	0	1	0	1	0	0	1	0	0	1	0	0	0	1	0	0	0	0	3	4	0	0	0	2	0	3	0	0	2	2	1	1	1	0	0
OTU 101	0	0	0	0	0	0	0	0	0	0	1	0	0	0	0	2	0	0	0	0	0	0	0	0	0	0	0	0	0	0	0	0	0	0	0	0	0	0	0	1	0	0	0	0	0	0	0	1	0	0
OTU 102	0	0	0	0	1	0	0	1	2	0	0	0	0	0	0	0	7	0	143	0	0	0	1	0	1	0	0	0	2	1	0	0	3	5	0	0	0	0	1	0	3	0	0	0	0	0	0	0	0	0
OTU 103	0	2	0	0	0	0	0	0	0	3	1	1	1	0	0	0	0	0	0	1	1	0	0	0	8	1	0	0	0	0	1	0	0	0	0	0	0	0	1	0	2	71	12	0	0	0	5	0	0	1
OTU 104	8	0	0	0	3	5	0	4	2	1	0	4	0	4	0	8	6	1	2	7	1	1	0	11	7	0	3	2	14	6	1	1	1	3	4	5	2	3	1	0	8	0	3	21	1	4	0	3	4	8
OTU 105	0	1	0	0	0	0	0	0	1	0	0	0	0	0	0	1	0	0	0	0	0	0	1	0	1	0	0	0	0	0	0	0	0	1	0	0	0	0	0	0	0	0	0	0	0	0	0	0	0	0
OTU 106	0	1	1	0	60	0	0	0	1	0	0	4	0	4	0	0	0	0	2	0	0	0	2	0	0	5	0	0	0	0	0	0	0	0	0	5	2	1	0	0	0	0	0	0	0	0	0	0	0	0
OTU 107	0	0	1	0	0	0	0	0	11	1	0	0	0	2	0	1	0	1	0	0	1	3	4	0	13	0	5	0	0	5	0	0	0	0	0	0	0	0	0	0	0	1	1	0	0	1	0	0	0	0
OTU 108	0	1	3	0	3	0	0	1	0	0	2	0	0	0	0	0	7	0	0	0	2	0	0	0	0	1	0	0	0	1	0	1	1	2	0	0	0	0	0	3	0	0	0	0	0	0	1	0	0	0
OTU 109	0	0	0	0	0	0	0	0	0	0	0	0	0	0	0	0	0	0	0	0	0	0	0	0	0	0	0	0	0	0	0	1	0	0	0	0	0	0	0	0	0	0	0	0	0	0	0	0	0	0
OTU 110	0	8	3	0	0	9	4	0	5	0	0	0	1	1	0	0	0	1	0	0	0	5	8	0	0	2	4	0	2	1	0	0	0	0	0	0	0	0	0	1	0	0	1	0	1	3	0	1	2	0
OTU 111	0	0	0	0	0	1	0	0	0	0	0	0	1	0	0	0	0	3	1	0	0	0	0	0	0	0	0	0	0	0	0	0	0	0	0	0	0	0	0	0	0	0	1	0	0	0	0	0	0	0
OTU 112	0	0	0	0	0	0	0	0	0	3	0	0	0	0	4	1	1	2	0	0	0	0	0	0	0	0	0	4	1	0	0	0	0	0	1	0	0	0	0	1	0	0	0	1	0	1	0	0	0	1
OTU 113	0	0	0	0	0	0	0	0	0	0	1	0	0	0	0	2	0	0	0	2	0	0	0	0	0	0	0	0	0	0	0	0	0	0	0	0	0	0	0	0	0	1	0	0	0	0	0	0	0	0
OTU 114	3	0	1	0	2	4	0	1	22	5	12	0	2	2	0	0	39	2	0	9	2	1	7	1	1	1	0	0	1	2	57	0	0	0	3	0	2	0	0	0	5	2	4	0	5	5	0	2	1	42
OTU 115	1	0	69	2	2	2	4	13	0	28	1	4	1	0	67	3	6	0	0	5	6	2	0	0	7	1	20	0	1	0	7	0	0	5	0	0	0	0	0	0	5	0	0	0	1	2	0	2	0	0
OTU 116	15	1	0	0	0	13	0	6	9	2	1	5	0	0	1	0	0	6	3	7	2	3	7	0	8	0	7	0	2	0	0	0	0	4	0	0	4	0	1	2	3	5	0	0	0	3	0	1	1	1
OTU 117	0	0	9	1	1	4	0	5	1	5	1	1	0	0	1	0	2	0	1	0	0	5	2	0	0	17	0	1	3	0	1	1	0	2	0	4	2	1	0	0	0	2	1	8	0	2	1	0	0	0
OTU 118	0	0	0	0	0	1	0	0	0	0	0	0	0	0	0	0	0	0	0	0	0	0	0	0	0	0	0	0	0	0	2	0	0	0	0	0	0	1	0	0	0	0	0	0	0	0	1	0	2	0
OTU 119	0	0	2	4	0	3	2	2	14	0	2	0	7	2	1	3	1	13	0	2	2	3	10	0	5	0	0	1	3	3	2	5	1	1	0	0	0	0	0	11	1	4	0	1	7	3	0	1	0	0
OTU 120	0	1	0	0	2	0	0	0	3	0	5	2	0	1	0	0	0	0	0	0	0	0	1	1	4	0	0	0	1	0	0	1	0	0	0	0	1	0	0	0	0	0	0	0	0	0	0	0	3	0
OTU 121	0	1	0	0	0	0	0	2	0	0	7	0	0	0	1	0	0	0	0	0	1	3	0	0	0	2	0	0	0	0	1	2	1	0	1	0	0	0	2	1	1	1	0	0	0	5	0	0	0	0
OTU 122	2	5	0	0	4	1	43	5	0	1	0	0	0	39	0	3	0	1	1	0	1	6	0	0	14	1	0	0	2	1	0	0	1	0	4	0	0	2	0	0	7	0	0	0	0	0	0	0	0	0
OTU 123	6	2	19	7	4	14	0	8	11	0	9	5	3	6	0	0	14	2	6	4	6	13	8	4	1	3	4	1	3	1	4	13	15	3	8	1	0	4	2	10	12	5	3	2	4	25	6	6	6	12
OTU 124	0	0	0	0	0	0	1	0	1	0	0	0	1	0	0	0	0	2	0	0	0	0	0	0	0	0	0	0	0	0	0	0	0	1	0	0	0	0	0	0	1	5	0	0	1	0	0	0	0	0
OTU 125	4	13	2	3	4	9	1	1	4	2	19	0	15	2	1	1	14	1	0	30	68	22	2	5	4	0	0	10	4	2	2	15	1	2	2	2	10	0	2	5	7	23	6	1	2	1	1	4	40	2
OTU 126	0	0	0	0	0	0	0	0	1	0	0	0	0	3	0	0	0	0	0	0	0	0	0	0	0	3	0	0	0	0	0	0	0	0	0	0	0	1	0	0	1	5	2	0	0	0	0	0	0	0
OTU 127	3	1	0	0	0	0	0	1	0	0	3	0	0	0	0	0	4	0	0	0	3	4	0	3	0	2	0	0	1	2	0	0	0	0	1	0	0	0	0	1	0	0	0	1	0	0	0	1	0	1
OTU 128	8	11	3	4	4	7	3	2	5	6	12	4	3	12	14	22	2	29	0	1	5	1	2	7	6	3	1	2	5	6	2	0	25	4	8	2	1	8	22	11	10	7	1	1	0	6	9	1	8	0
OTU 129	0	0	0	0	0	1	0	1	0	0	0	0	2	0	0	13	0	0	0	0	0	0	0	0	0	4	0	0	0	0	0	0	0	15	0	0	0	0	0	2	0	0	0	0	0	0	0	0	0	0
OTU 130	0	3	0	0	0	0	0	1	3	0	1	18	0	0	0	5	4	0	5	0	1	1	0	0	0	0	3	1	1	6	8	0	2	0	0	1	1	1	0	0	5	11	5	0	0	0	0	4	2	1
OTU 131	0	1	0	0	0	1	0	10	8	0	0	4	0	0	0	3	1	1	0	0	0	0	3	0	7	6	0	0	0	8	4	1	0	3	3	2	3	2	0	6	0	0	0	2	0	0	0	4	0	4
OTU 132	0	1	0	1	0	0	0	0	4	0	1	1	1	0	0	0	0	0	0	0	3	0	4	0	1	0	0	0	0	0	0	0	0	0	4	0	0	0	0	1	0	4	1	0	0	3	1	0	0	0
OTU 133	0	0	0	0	0	0	0	0	0	0	0	0	0	0	0	0	0	0	0	0	0	0	0	0	0	0	1	0	0	0	0	0	0	1	0	0	0	0	0	0	0	0	0	0	0	0	0	0	0	0
OTU 134	0	3	0	0	0	0	1	1	4	0	12	4	0	3	0	0	0	0	1	3	0	0	1	2	0	1	0	0	1	1	0	1	0	0	0	0	0	0	0	0	4	4	1	0	0	0	0	4	0	0
OTU 135	0	1	0	1	0	0	2	0	9	2	6	0	0	0	0	0	1	2	0	4	0	0	13	1	0	0	1	0	0	0	3	0	0	0	0	2	3	0	2	5	3	0	1	1	0	7	7	0	0	0
OTU 136	0	0	0	0	2	1	0	1	4	0	3	9	3	1	0	2	4	0	6	12	0	0	0	0	0	0	0	0	2	0	9	0	8	1	4	0	6	1	1	0	1	0	0	2	2	0	0	6	0	2
OTU 137	0	3	2	1	0	1	0	0	0	0	0	0	0	0	1	0	0	2	0	0	0	0	0	0	0	1	0	0	0	0	0	1	0	0	0	0	0	0	0	1	0	0	0	1	1	4	0	1	25	0
OTU 138	0	0	0	0	0	0	1	0	3	0	0	0	0	0	0	0	0	0	0	0	0	0	0	0	1	4	0	0	0	1	0	0	0	1	0	0	1	0	0	0	0	0	0	0	0	0	0	0	0	0
OTU 139	3	1	0	17	14	10	0	3	2	4	1	3	0	0	1	0	1	1	3	1	1	16	4	3	5	1	0	6	1	2	1	97	0	1	5	0	0	3	4	17	2	0	2	0	2	1	70	0	4	0
OTU 140	2	7	14	1	2	4	92	8	11	12	8	2	0	1	1	19	11	3	0	8	1	4	148	2	4	13	2	2	3	4	1	0	117	3	8	2	3	3	68	2	2	14	1	3	0	13	2	3	3	31
OTU 141	0	0	0	0	0	0	0	0	0	0	0	0	0	0	0	0	0	0	0	0	0	0	0	0	0	0	0	0	0	0	0	0	0	0	0	0	0	0	0	0	0	0	0	0	0	0	0	0	0	0
OTU 142	0	0	0	0	0	0	0	0	0	0	0	0	0	0	0	0	0	0	0	0	0	0	0	0	0	0	0	0	0	0	0	0	0	0	0	0	0	0	0	0	0	0	0	0	0	0	0	0	2	0
OTU 143	0	0	2	0	0	0	0	0	0	0	0	0	1	0	1	0	0	1	0	5	0	0	0	0	1	0	0	0	0	0	0	0	0	0	0	0	1	0	0	0	0	0	0	0	0	2	0	0	0	0
OTU 144	1	0	0	0	1	0	0	0	0	0	0	0	0	0	0	1	0	0	0	0	0	0	0	0	0	0	0	0	1	1	0	0	0	1	0	0	0	0	0	0	0	0	0	0	0	0	0	0	0	0
OTU 145	2	30	0	0	0	0	5	2	2	0	1	3	0	9	0	0	7	22	2	6	0	7	1	0	0	0	1	1	2	0	0	1	4	3	1	0	5	13	0	0	4	0	0	0	0	1	0	0	20	0
OTU 146	1	5	2	5	0	0	0	0	0	104	0	2	0	0	7	0	0	1	1	4	1	0	0	1	1	1	3	0	1	2	2	0	2	2	0	3	1	0	0	1	3	0	5	2	0	1	3	0	6	0
OTU 147	0	0	3	0	4	0	1	2	0	0	0	1	0	2	2	0	9	0	0	0	13	0	2	0	0	0	0	0	0	7	14	0	1	0	0	0	0	0	0	0	1	0	3	0	0	0	0	0	0	3
OTU 148	0	4	3	1	0	0	1	0	1	0	0	0	1	1	1	0	4	0	2	0	0	0	0	0	0	28	1	0	0	0	0	0	0	64	1	6	0	0	0	2	0	0	0	24	0	1	1	2	1	0
OTU 149	0	0	0	0	0	0	0	0	0	0	1	1	0	0	1	0	1	1	0	0	0	0	0	2	0	0	0	0	0	0	0	0	0	3	1	0	0	1	0	0	1	0	0	0	0	0	0	0	1	0
OTU 150	0	1	0	165	0	0	0	0	0	2	1	0	0	0	4	0	0	0	0	0	0	14	0	0	0	0	0	0	0	0	0	0	1	0	0	0	0	0	0	4	2	3	0	0	0	1	3	0	0	0
OTU 151	0	0	0	2	1	1	0	0	0	0	0	0	0	1	2	0	2	0	1	2	0	1	0	0	2	1	0	0	0	0	0	0	0	1	4	0	0	2	0	1	0	0	27	2	0	0	0	0	1	1
OTU 152	1	4	0	0	0	1	0	4	4	0	0	0	1	2	2	3	1	0	0	2	0	1	1	0	7	2	0	1	0	1	0	0	1	1	0	0	0	0	0	3	5	3	2	0	0	1	3	0	1	2
OTU 153	0	0	0	0	0	0	0	0	0	0	0	0	0	0	0	0	0	0	0	0	0	0	0	0	0	0	0	0	0	0	1	0	0	0	0	0	0	0	0	0	0	0	0	0	0	0	0	0	0	1
OTU 154	0	0	0	0	0	0	0	0	0	0	0	0	0	0	0	0	0	0	0	0	0	3	0	0	0	0	0	0	0	0	0	0	0	0	0	0	0	0	0	0	0	0	0	2	0	0	0	0	0	0
OTU 155	1	0	0	0	0	4	0	4	2	0	0	0	0	0	0	0	0	2	0	1	0	0	0	0	0	0	0	0	3	0	1	0	1	0	0	0	1	0	0	3	1	1	0	0	0	0	1	0	0	0
OTU 156	0	1	0	0	0	0	0	0	0	0	3	0	0	1	0	8	6	1	1	48	0	0	1	2	5	0	0	1	2	0	0	0	1	5	5	0	20	1	2	1	3	3	6	0	2	0	0	0	1	2
OTU 157	0	0	1	0	0	0	2	0	0	0	0	0	0	8	0	0	0	21	0	1	0	0	0	0	0	0	0	0	0	0	0	0	0	0	2	0	5	0	0	0	0	0	0	0	0	0	0	0	0	0
OTU 158	0	0	1	0	0	0	0	0	0	0	0	0	0	0	0	0	0	0	0	0	0	0	0	1	1	0	0	0	0	0	0	0	0	0	0	0	0	0	0	0	3	0	0	0	0	0	0	0	0	0
OTU 159	0	3	0	0	0	0	16	0	0	0	0	1	0	35	0	0	0	0	0	0	0	2	0	0	4	0	0	0	6	0	0	1	2	0	1	0	0	0	0	0	3	0	2	0	1	1	2	0	1	0
OTU 160	1	17	2	0	9	5	2	2	5	0	6	1	0	0	1	0	0	3	1	5	2	5	3	0	6	0	0	2	12	9	2	2	7	11	12	0	2	27	4	4	3	1	0	1	1	10	15	1	0	1
OTU 161	12	3	2	0	1	0	2	0	1	2	1	2	0	3	0	2	5	1	0	2	0	1	0	46	1	0	0	0	0	0	1	0	1	0	7	0	0	2	0	0	6	0	0	0	51	12	0	3	0	1
OTU 162	130	14	1	1	0	0	0	2	0	0	4	0	0	0	0	0	2	1	0	0	0	1	0	1	1	2	1	0	0	0	0	0	3	2	0	0	0	0	1	5	1	1	3	1	0	2	7	0	2	0
OTU 163	0	0	0	0	0	0	0	0	0	0	0	0	0	0	0	0	0	0	0	0	0	0	0	0	0	3	0	0	0	0	0	0	0	0	0	0	0	0	0	0	0	0	0	4	0	0	0	0	0	0
OTU 164	0	0	0	0	3	0	0	9	0	0	2	0	0	0	0	0	0	0	0	0	0	0	0	0	0	0	0	0	0	1	0	0	0	0	0	0	0	0	0	0	0	0	0	0	0	0	0	0	1	0
OTU 165	0	0	0	1	0	1	1	1	1	0	1	0	0	0	0	0	2	0	0	0	0	0	1	0	0	2	3	0	0	0	0	0	0	1	0	0	0	0	0	0	0	0	1	0	0	0	4	0	0	0
OTU 166	0	0	0	0	0	0	0	0	0	0	0	0	0	0	0	0	2	0	0	0	0	0	0	1	0	1	0	0	0	0	0	0	0	0	0	0	0	0	0	0	0	0	0	0	0	0	0	0	0	0
OTU 167	0	1	11	4	0	0	0	3	4	0	0	1	0	0	1	2	1	0	1	6	0	3	1	0	2	0	3	0	1	0	1	0	5	1	1	1	2	0	0	0	2	1	0	0	0	4	0	0	0	0
OTU 168	0	0	0	1	1	0	3	4	0	1	0	1	1	3	0	0	0	1	0	0	0	2	0	2	1	0	1	0	2	0	0	0	2	0	0	0	0	0	1	2	0	5	0	0	1	0	0	1	1	0
OTU 169	0	0	0	0	0	0	0	0	0	0	0	0	0	0	0	0	0	0	0	0	0	0	0	0	0	2	0	0	0	0	0	0	0	0	0	0	0	0	0	0	0	0	0	0	0	0	0	0	0	0
OTU 170	0	0	0	0	0	0	0	0	0	1	0	0	0	0	0	0	0	0	0	0	0	0	0	0	0	0	0	0	0	0	0	0	0	0	0	0	0	0	0	0	0	0	0	0	0	0	0	0	0	0
OTU 171	6	0	4	1	3	20	0	1	3	0	9	3	0	0	1	0	6	0	0	1	0	0	1	2	5	0	3	0	0	0	10	0	1	0	27	1	8	13	14	0	0	5	1	0	0	1	0	1	5	0
OTU 172	1	0	0	0	0	0	0	8	0	0	3	0	0	0	0	0	0	0	0	0	0	0	0	1	0	0	0	0	0	5	0	0	0	0	0	0	0	0	0	0	0	0	0	0	0	0	0	0	0	0
OTU 173	0	6	0	0	0	1	0	0	3	0	0	0	0	0	0	0	3	2	0	0	0	2	2	0	0	0	0	0	0	0	0	0	0	0	1	0	0	0	0	0	0	6	1	0	0	0	0	0	0	1
OTU 174	0	2	0	1	0	1	1	0	0	1	2	1	0	0	0	3	0	5	0	3	0	2	0	0	2	0	0	0	1	0	46	0	0	0	0	1	0	0	2	0	2	0	0	0	0	2	1	1	5	41
OTU 175	0	1	0	0	0	0	0	0	0	2	1	0	0	2	0	0	3	0	4	0	0	0	0	3	0	1	0	0	0	0	0	3	1	0	0	2	0	2	1	0	0	1	2	1	0	1	1	0	0	0
OTU 176	1	0	3	0	0	0	0	1	1	1	2	0	1	0	8	5	1	2	0	0	0	0	1	0	1	3	1	0	3	0	2	0	0	0	0	0	0	0	0	0	0	7	1	2	0	2	0	2	1	2
OTU 177	53	11	1	1	3	6	2	2	4	1	0	3	0	2	3	1	1	3	4	0	2	1	1	5	0	0	0	1	5	0	1	4	1	0	8	0	0	6	10	0	2	0	0	0	0	1	3	2	1	2
OTU 178	4	0	0	1	0	0	0	0	0	0	0	1	0	1	0	2	0	1	5	0	1	0	0	0	0	1	0	0	2	0	0	0	0	0	1	0	0	0	0	0	0	3	0	0	0	0	0	0	0	1
OTU 179	0	1	0	2	0	0	0	29	11	2	0	0	0	0	2	5	1	0	0	0	0	1	6	0	0	0	0	0	0	13	0	1	2	1	1	0	0	0	1	0	0	0	0	1	0	1	0	0	6	3
OTU 180	3	6	1	0	35	0	1	2	10	6	2	35	5	1	0	7	9	1	27	24	2	18	8	4	10	5	2	5	4	2	40	2	6	0	4	19	8	0	0	0	2	5	0	2	3	10	1	10	4	6
OTU 181	0	3	2	2	0	1	0	1	0	0	0	4	2	1	4	0	0	9	0	0	0	0	1	0	5	4	0	0	0	0	0	0	0	1	1	0	0	5	1	2	2	4	3	1	1	1	0	1	0	0
OTU 182	0	0	0	0	0	0	0	0	0	0	0	0	0	0	0	0	0	0	0	0	0	0	0	0	0	0	0	0	0	0	0	0	0	0	0	0	0	0	0	0	0	0	0	0	0	0	0	0	0	0
OTU 183	0	0	0	0	0	0	0	0	0	0	0	0	0	2	0	11	0	0	0	0	1	2	0	0	5	3	0	0	4	0	0	0	0	4	0	0	0	0	0	1	0	0	2	3	0	0	0	1	1	0
OTU 184	0	0	0	0	0	0	0	0	0	2	1	0	0	1	3	0	0	0	0	0	0	0	0	0	0	0	0	1	0	1	0	0	0	0	0	0	0	2	0	0	0	0	2	1	0	0	1	0	0	0
OTU 185	3	0	2	0	0	4	0	0	3	2	0	0	1	0	0	1	0	2	0	0	6	1	2	4	7	0	0	1	0	0	2	1	2	1	3	0	0	0	4	0	2	0	0	1	0	0	1	0	1	0
OTU 186	0	0	0	0	0	7	0	0	0	1	1	0	4	0	0	0	0	0	0	0	0	0	0	0	5	0	2	2	2	0	0	0	0	2	0	0	0	0	0	0	18	0	3	0	7	0	0	0	0	0
OTU 187	1	31	0	1	1	0	1	1	0	1	3	102	108	1	0	1	9	0	47	1	5	0	1	0	1	9	0	22	0	2	0	22	0	6	1	0	1	1	0	0	0	0	18	3	44	4	0	44	3	3
OTU 188	4	1	1	1	2	0	2	0	8	1	5	0	1	0	0	3	1	5	0	1	0	0	4	1	1	2	1	1	0	2	1	0	9	1	0	0	1	0	0	4	0	3	0	2	1	10	6	0	0	0
OTU 189	0	2	3	0	1	3	2	0	4	3	3	1	0	3	3	1	1	2	0	3	0	1	28	2	2	1	0	42	6	2	0	0	1	1	1	1	1	0	4	0	4	5	0	7	0	3	0	0	1	1
OTU 190	0	0	0	0	0	0	0	0	0	0	0	1	0	3	0	0	0	9	4	0	2	0	0	0	0	0	0	0	0	0	1	0	0	1	0	0	0	0	0	0	0	0	0	0	0	0	0	0	0	1
OTU 191	1	0	0	0	1	1	0	2	0	0	4	0	5	1	0	2	1	1	0	3	0	1	0	0	0	1	0	0	2	0	0	0	0	3	3	0	2	0	1	0	0	8	8	2	4	1	5	0	0	3
OTU 192	0	4	2	11	5	2	4	25	0	1	0	0	1	8	0	2	1	3	0	0	0	0	0	0	14	4	24	1	0	10	3	0	1	1	5	0	0	0	3	4	14	14	1	2	1	3	0	0	3	0
OTU 193	0	2	4	0	1	2	5	1	1	0	2	9	0	2	0	0	20	3	3	0	6	1	1	3	1	1	2	0	2	0	10	0	0	0	0	34	1	2	0	0	1	4	0	0	1	1	3	11	0	13
OTU 194	0	0	0	0	9	4	0	0	3	30	0	0	0	0	0	3	0	1	0	0	0	1	1	0	0	1	3	0	0	0	48	0	35	0	2	0	0	6	0	0	1	3	1	2	0	0	0	0	0	10
OTU 195	0	0	0	0	0	2	1	0	0	0	0	0	0	0	0	0	0	0	0	3	9	7	0	0	0	0	6	0	2	2	1	0	0	1	1	0	0	0	0	0	2	0	2	0	0	2	4	0	0	0
OTU 196	0	0	2	0	1	0	1	4	0	0	13	1	4	0	1	0	0	0	0	0	0	0	0	1	3	0	0	0	0	2	0	0	1	0	4	0	0	2	2	0	0	1	0	0	3	0	0	2	0	0
OTU 197	4	10	3	1	8	2	1	3	1	0	1	10	2	1	1	7	1	4	3	5	9	1	0	10	5	8	3	77	9	3	2	1	4	0	21	1	3	15	12	0	9	5	5	2	2	1	2	0	0	4
OTU 198	0	0	2	0	1	0	0	0	1	0	0	0	0	3	0	8	5	0	1	0	0	0	0	0	0	2	0	0	0	1	0	0	1	0	0	1	0	0	0	0	2	0	0	2	0	1	1	0	0	0
OTU 199	0	0	2	0	0	3	0	0	5	1	0	0	0	0	1	0	0	3	0	0	1	0	2	0	1	0	5	0	1	0	0	0	0	0	0	0	0	3	0	0	1	0	2	0	0	0	5	2	0	0
OTU 200	0	1	0	0	0	1	1	0	0	1	7	4	0	1	0	0	1	2	0	1	1	1	0	0	1	0	1	0	3	0	1	2	2	1	1	0	0	1	2	0	8	0	3	1	0	0	0	6	0	0
