	Host 1	Host 2	Host 3	Host 4	Host 5	Host 6	Host 7	Host 8	Host 9	Host 10	Host 11	Host 12	Host 13	Host 14	Host 15	Host 16	Host 17	Host 18	Host 19	Host 20	Host 21	Host 22	Host 23	Host 24	Host 25	Host 26	Host 27	Host 28	Host 29	Host 30	Host 31	Host 32	Host 33	Host 34	Host 35	Host 36	Host 37	Host 38	Host 39	Host 40	Host 41	Host 42	Host 43	Host 44	Host 45	Host 46	Host 47	Host 48	Host 49	Host 50	
OTU 1	10	50	10	43	30	93	15	112	1	52	132	3	230	2	209	24	230	19	73	8	0	16	30	90	28	22	2	0	2	1	23	132	78	109	159	95	52	65	229	53	10	67	1	145	105	32	24	219	134	28
OTU 2	8	4	5	1	0	19	2	13	38	7	0	0	8	26	1	5	4	22	0	0	206	0	0	1	0	1	148	0	29	0	14	9	2	0	0	2	9	12	30	73	14	23	1	65	0	0	35	0	18	54
OTU 3	30	59	0	0	0	7	0	5	0	26	7	31	0	165	0	1	7	92	0	10	5	0	1	3	0	0	0	22	0	12	0	84	0	16	24	3	0	0	16	0	0	1	0	7	0	12	1	15	0	53
OTU 4	0	0	0	0	0	0	0	0	0	0	0	0	0	0	0	0	0	0	0	0	0	0	0	0	0	4	0	0	0	0	0	0	0	0	0	0	0	0	0	0	0	0	0	0	0	0	0	0	0	0
OTU 5	271	286	587	260	62	752	71	605	24	187	1599	27	332	0	0	1	464	783	272	3	139	1091	337	66	79	294	36	1113	0	317	95	220	252	136	83	155	94	419	564	81	617	48	510	100	5	523	476	155	114	7
OTU 6	0	4	3	8	21	61	147	1	45	182	0	34	22	86	1	5	2	21	0	24	0	11	21	0	15	1	4	17	0	11	8	11	2	45	28	1	12	41	0	0	9	48	9	59	1	19	1742	6	94	7
OTU 7	1776	25	361	220	62	24	57	350	1584	22	357	63	377	561	172	66	579	58	45	90	17	320	383	2273	10	61	98	33	6	104	6	1250	224	557	997	4235	74	41	787	29	9	391	53	110	83	57	62	68	849	29
OTU 8	142	10	48	10	14	37	186	62	20	222	119	340	3	28	168	411	51	11	59	194	6	8	6	54	44	22	98	94	158	15	150	425	37	227	0	103	45	34	64	50	41	109	42	91	74	5	183	321	25	160
OTU 9	0	26	265	9	0	4	28	2	26	0	0	15	5	34	18	1	37	31	64	42	33	14	0	0	1	23	42	0	12	1	0	11	13	2	136	2	61	8	11	49	193	6	5	12	7	3	6	0	5	3
OTU 10	38	37	4	2	0	0	11	3	1	0	6	17	65	9	142	0	19	93	1	0	24	2	6	7	1	51	2	16	1	0	19	45	2	2	0	0	49	61	15	32	1	16	13	9	65	14	10	20	4	8
OTU 11	7	429	10	8	8	27	31	80	50	139	56	14	35	201	27	186	6	11	5	113	5	6	30	43	21	4	69	13	98	684	61	168	6	2	135	41	41	0	253	177	5	1	5	13	18	94	2	122	13	82
OTU 12	65	30	24	24	40	9	57	11	41	20	33	115	9	16	12	124	3	34	231	80	18	1	39	16	133	3	3	21	1	46	20	3	10	5	55	70	83	75	9	282	14	29	31	4	12	86	31	39	40	61
OTU 13	0	0	0	0	0	0	4	0	0	6	6	1	0	13	0	0	8	0	0	0	0	1	0	0	2	0	0	0	32	51	0	0	3	0	0	0	81	0	0	0	0	0	0	0	0	0	0	7	0	11
OTU 14	1	4	0	5	1	0	9	1	1	58	1	5	191	15	44	21	13	7	30	92	0	0	11	6	13	0	21	98	1	11	43	1	10	60	4	9	1	41	0	2	21	6	42	3	28	54	0	19	5	87
OTU 15	0	1	0	0	0	0	0	0	0	0	0	0	2	0	0	0	0	0	2	0	0	0	0	0	0	1	4	0	0	0	1	5	0	2	0	0	0	0	0	0	1	0	0	0	0	0	0	0	0	0
OTU 16	0	0	0	0	0	0	0	0	0	0	0	0	0	0	0	0	0	0	0	0	1	0	0	0	0	0	0	0	0	0	0	3	0	0	0	0	0	0	0	0	0	0	8	0	0	0	0	0	0	0
OTU 17	74	0	8	1	46	27	6	1	1	25	20	10	17	16	99	8	0	0	25	6	49	0	2	16	25	0	10	46	38	1128	42	1	1	0	2	4	18	2	0	1	4	0	24	19	52	13	0	91	2	0
OTU 18	5	18	0	9	181	15	67	59	984	80	76	35	11	8	35	15	0	54	110	64	140	17	21	39	18	209	10	5	93	25	16	4	11	3	18	48	65	17	72	7	39	28	49	8	22	41	6	157	78	10
OTU 19	0	0	0	0	0	0	0	0	0	0	0	0	1	0	2	0	0	0	0	0	0	0	0	0	1	0	17	0	114	0	0	0	2	0	0	0	0	0	5	4	0	0	0	0	4	0	0	0	0	0
OTU 20	15	0	19	22	13	0	16	4	9	95	58	81	24	8	161	18	28	5	26	0	1	5	2	82	12	5	49	14	14	45	1	109	15	41	5	181	154	53	25	113	26	0	32	4	77	13	27	65	12	96
OTU 21	67	42	0	5	77	39	10	16	3	2	1	17	37	36	1	45	13	164	12	61	30	6	2	0	14	81	50	28	92	6	3	12	11	6	1	3	135	93	14	32	1	17	13	68	1	59	8	4	12	25
OTU 22	143	33	0	14	79	19	7	2	76	2	42	7	15	66	101	21	90	33	1	36	33	32	0	20	19	6	23	70	102	178	32	71	20	30	29	87	76	0	11	91	12	57	23	77	49	20	5	109	33	1
OTU 23	5	0	0	0	6	17	1	2	15	1	4	117	0	15	0	35	2	0	143	21	0	0	30	8	23	6	0	2	0	2	32	3	1	0	41	6	2	3	6	48	7	8	2	91	0	0	79	11	0	19
OTU 24	2	71	0	0	33	0	3	1	0	0	1	20	10	47	48	69	0	1	79	32	0	0	0	0	39	33	12	1	0	27	22	11	0	52	0	15	1	3	1	87	31	12	1028	5	20	23	35	1	33	0
OTU 25	0	3	0	0	0	0	0	0	0	0	21	0	0	0	0	2	0	0	0	0	0	0	0	9	0	0	0	0	8	0	0	0	0	0	0	11	0	0	0	1	5	0	0	0	0	14	0	30	0	0
OTU 26	0	9	0	0	4	3	5	0	0	0	1	0	0	1	3	0	0	0	0	13	0	0	0	1	0	39	4	7	8	75	2	3	0	0	0	4	76	0	0	0	0	1	0	4	0	0	0	0	0	80
OTU 27	0	0	0	0	2	0	0	0	0	0	1	0	0	0	0	0	0	73	0	0	0	0	8	0	22	0	0	0	0	12	0	0	0	0	5	0	0	1	0	0	0	0	1	0	0	21	2	4	0	0
OTU 28	5	67	64	2	55	45	257	0	11	14	14	94	31	88	3	174	10	35	91	1	9	12	10	12	53	28	22	15	0	214	150	11	5	24	20	21	68	47	6	76	22	0	13	60	1	65	8	18	52	34
OTU 29	7	75	38	13	66	31	66	46	587	20	113	87	120	20	556	49	76	15	91	99	94	34	42	141	13	2	41	11	126	10	68	23	34	32	50	157	46	98	91	45	7	9	15	80	257	257	5	159	32	20
OTU 30	0	0	0	0	0	0	0	0	0	0	0	0	0	0	0	0	0	0	0	0	0	0	0	0	0	1	0	0	0	0	0	1	0	0	0	0	0	0	0	0	0	0	0	0	0	0	0	6	0	0
OTU 31	1	1	9	1	10	0	0	0	0	135	0	0	0	1	0	3	6	7	2	0	0	0	9	0	0	5	23	62	0	3	15	19	10	53	0	2	58	15	0	125	0	19	0	1	0	1	4	0	16	3
OTU 32	37	11	7	29	0	73	116	133	22	50	657	15	44	57	71	114	147	153	594	14	87	24	35	242	45	23	8	351	43	24	19	23	48	33	66	368	80	132	215	23	50	416	52	69	44	7	55	1005	201	82
OTU 33	0	0	3	2	0	0	0	0	0	0	0	0	0	22	0	0	0	0	89	2	0	0	0	0	0	13	3	0	0	0	0	0	0	0	0	0	0	0	0	0	0	0	30	0	0	0	0	0	0	1
OTU 34	11	3	6	3	95	44	65	15	9	11	9	124	32	218	26	270	1	67	3	32	68	8	2	10	15	80	60	19	17	7	20	12	1	4479	3	24	0	4	13	33	20	4	0	37	11	6	39	49	94	116
OTU 35	59	39	49	1	25	10	2	1	2	14	3	58	4	5	0	0	5	4	8	10	17	8	22	0	1	7	2	51	4	33	74	238	12	46	18	9	1	31	1	1	7	22	28	0	0	70	115	8	12	17
OTU 36	170	31	15	66	0	19	114	23	45	74	47	1	29	0	22	71	21	63	16	0	99	14	6	3	82	15	9	5	39	4	10	72	13	15	1	42	165	0	93	7	2	13	23	35	7	110	7	67	19	10
OTU 37	1	1	16	0	17	0	123	0	0	0	4	20	10	16	2	12	48	15	1	5	0	9	0	1	2	0	15	0	0	5	0	0	18	0	18	2	9	14	0	2	10	14	1	0	0	1	0	0	22	0
OTU 38	101	0	62	5	11	23	52	0	0	6	77	20	1	96	21	9	13	135	462	0	59	3	46	4	1	104	9	8	0	16	0	40	2	20	34	21	57	0	2	27	7	113	11	46	13	0	28	0	126	227
OTU 39	2	0	28	2	28	1	0	0	12	8	0	1	0	0	0	0	0	0	23	0	0	0	2	0	2	0	4	69	3	0	21	11	1	0	6	0	10	23	0	1	0	5	0	0	0	0	0	0	1	18
OTU 40	19	288	1	53	6	0	45	265	56	9	4	353	64	30	12	271	207	3	36	20	97	82	215	0	12	6	6	25	17	98	10	2	146	36	110	0	88	7	448	5	24	13	53	2	2	41	0	9	15	50
OTU 41	0	14	9	48	1503	0	18	41	22	28	3	5	19	6	2	96	15	0	2	28	234	4	56	0	653	6	9	23	33	167	684	0	5	5	25	0	26	33	77	30	44	42	425	18	11	1	75	0	18	90
OTU 42	9	0	0	0	1	0	0	0	4	0	1	2	0	0	155	0	0	25	1	0	4	0	4	16	0	0	1	2	68	0	16	0	0	1	0	3	8	10	0	9	5	0	0	4	70	0	0	2	0	0
OTU 43	0	0	0	0	0	0	0	0	0	0	0	0	0	0	0	15	0	0	9	0	0	0	0	0	0	4	0	0	0	13	4	0	0	0	0	0	0	0	0	0	0	0	38	3	0	0	0	0	0	0
OTU 44	54	17	0	3	0	0	0	12	1	35	1	0	0	130	0	85	0	1	0	16	14	4	0	2	4	0	0	0	0	7	48	0	0	1	0	0	54	7	12	0	1	0	0	0	0	116	0	8	0	11
OTU 45	61	7	23	1	3	3	14	2	17	13	23	36	34	5	139	212	14	144	4	2529	200	6	5	1832	9	4	15	2	5	22	15	0	0	8	40	45	30	9	7	22	0	8	59	33	62	3	5	45	1	15
OTU 46	19	1	20	5	8	28	314	1	11	3	4	376	42	0	112	56	21	12	55	7	34	18	0	2854	231	4	540	6	13	10	6	81	9	45	27	2	5	97	26	74	1	23	4	5	59	26	19	3	12	50
OTU 47	0	0	0	42	0	0	115	27	0	7	2	0	58	0	85	0	39	0	0	28	0	6	29	0	1	0	0	21	0	0	0	24	36	0	0	0	0	0	49	21	0	0	57	0	33	0	0	0	29	0
OTU 48	1	3	13	27	33	9	4	11	7	142	10	91	0	33	58	9	21	43	53	36	77	0	27	5	65	21	177	55	119	48	0	39	19	24	2084	13	39	73	20	104	4	36	120	56	30	27	9	43	46	5
OTU 49	34	6	70	1	7	1	112	0	0	5	4	0	4	0	25	16	4	0	26	4	0	0	2	0	61	1	0	1	1785	32	30	40	3	25	7	5	1	2	0	3	7	13	0	15	12	4	0	25	47	0
OTU 50	35	4	37	136	42	75	16	61	4	121	8	11	170	34	34	86	133	7	73	50	358	31	161	4	5	14	39	88	1	9	20	39	61	0	43	0	35	2	109	24	14	101	41	87	14	33	21	9	112	21
OTU 51	0	37	5	8	10	5	3	32	7	10	22	12	37	25	215	6	4	18	0	4	13	19	129	13	17	37	5	32	83	16	17	30	0	0	11	23	140	91	61	10	76	46	30	1	129	266	6	29	75	37
OTU 52	7	36	34	10	96	13	121	21	233	64	4	28	92	158	8	52	20	43	8	177	90	9	26	4	83	84	37	60	154	85	28	166	15	96	44	31	51	41	26	178	51	58	558	64	7	23	1081	21	34	13
OTU 53	2	0	0	0	0	0	0	0	0	0	0	0	0	0	0	36	0	0	0	0	0	0	0	0	0	0	0	0	0	0	0	0	1	0	0	0	0	0	0	0	0	0	0	0	0	0	0	0	0	0
OTU 54	73	642	24	9	28	38	4	13	35	15	2549	19	29	199	71	135	212	136	97	146	410	8	124	4	142	32	3	41	61	101	143	80	114	48	21	33	30	32	47	44	53	72	6	161	72	58	11	54	24	11
OTU 55	0	0	0	0	0	0	0	0	0	0	0	0	0	0	0	0	0	0	0	0	0	0	0	0	0	0	0	0	0	0	0	0	0	0	0	0	0	0	0	0	8	0	14	0	0	0	0	0	0	0
OTU 56	0	6	32	0	109	17	4	1	0	5	5	0	24	12	7	12	0	39	4	51	61	6	3	2	1	19	0	0	0	0	0	10	0	0	74	18	0	112	4	1	1	6	7	63	5	0	62	1	5	12
OTU 57	75	40	75	40	22	17	68	372	25	21	13	44	152	159	324	57	37	207	89	128	233	2	74	14	173	132	107	108	139	84	143	94	16	16	45	44	284	89	79	31	105	80	184	6	170	105	19	93	63	36
OTU 58	3	24	73	0	13	12	6	5	56	10	5	51	20	44	37	10	3	7	0	0	0	0	9	2	1268	0	0	22	16	43	0	0	0	0	84	9	2	1	10	20	0	1	1	80	15	37	15	2	0	2
OTU 59	32	8	5	0	32	31	3	9	21	1	11	1	7	18	16	114	1	5	23	0	31	11	0	0	21	0	0	40	1	0	56	0	0	6	8	3	2	13	5	11	39	107	62	70	8	46	12	45	52	3
OTU 60	134	50	29	18	117	19	11	18	49	56	19	10	61	33	11	53	15	74	26	51	156	30	49	22	12	39	90	180	63	13	43	115	18	16	83	40	3	168	38	25	6	7	90	81	3	50	42	80	12	81
OTU 61	65	171	371	77	313	1748	653	258	15	132	209	484	275	125	84	35	84	287	152	53	202	95	240	152	41	315	80	75	180	59	38	198	90	174	158	177	7	426	464	172	22	133	84	88	50	264	15	438	308	63
OTU 62	0	0	0	0	0	1	0	0	1	1	35	102	2	4	5	5	0	2	4	8	15	0	2	38	40	0	0	3	19	34	0	0	9	5	6	34	0	0	0	0	2	0	0	9	1	0	0	64	0	9
OTU 63	0	2	4	2	153	47	1	0	36	6	13	8	28	29	29	0	1	1	9	0	2	5	9	8	0	0	0	62	4	16	99	0	0	0	5	44	0	3	7	0	2	0	72	228	15	0	27	47	1	7
OTU 64	147	2	73	98	182	103	29	17	7	173	33	8	5	142	63	7	49	74	5	50	310	274	22	12	75	25	22	42	63	96	35	139	3238	63	26	10	127	34	64	39	45	27	726	274	22	14	5	41	115	36
OTU 65	0	3	0	0	0	0	0	3	0	0	0	0	0	0	0	0	1	0	0	17	0	0	0	0	0	13	0	0	0	3	0	0	0	0	0	0	0	0	0	0	0	1	0	0	0	0	1	2	0	0
OTU 66	1	12	8	29	432	224	70	20	7	248	8	66	48	37	67	16	88	98	15	86	26	21	1	4	25	5	26	10	46	33	15	321	33	125	18	11	0	66	39	83	16	49	1	600	37	6	170	7	151	28
OTU 67	4	13	3	33	372	396	9	26	13	24	6	18	566	70	264	39	29	63	12	108	4	36	68	1	52	9	11	9	55	1	62	3	19	8	44	2	14	112	67	84	1	20	0	666	146	2	107	3	0	1228
OTU 68	14	12	13	0	32	0	63	6	0	8	4	3	0	0	1	0	3	0	0	2	0	8	0	7	10	0	20	241	17	8	16	1	26	48	2	9	0	39	8	36	1	1	1	0	1	7	1	24	0	0
OTU 69	158	40	30	25	2	12	19	5	0	4	32	189	1	155	10	392	14	115	1	42	73	2	1196	10	29	14	60	6	174	23	7	32	4	16	1	8	80	7	18	115	0	6	2	50	7	41	17	42	1	25
OTU 70	15	21	0	0	49	1	5	50	0	27	4	0	3	43	26	0	10	70	5	0	0	5	85	3	1	22	55	0	0	0	48	38	0	5	74	8	0	0	24	0	0	1	1	12	14	23	13	15	0	0
OTU 71	0	0	14	5	1	8	104	18	71	0	0	10	26	24	0	0	1	1	2	19	32	0	0	0	0	4	20	15	302	37	6	86	1	61	0	3	11	2	47	100	6	1	33	0	0	3	0	0	11	10
OTU 72	62	0	13	437	107	143	18	1	0	0	13	13	0	30	2	6	680	24	72	91	42	342	9	30	33	6	47	5	23	31	0	3	285	21	1305	20	0	33	8	90	8	7	2	226	0	35	17	31	27	15
OTU 73	968	20	1	5	0	78	12	1	40	16	8	88	7	18	2	19	53	1	18	0	34	0	81	0	12	23	16	18	1	17	56	15	28	3	0	3	71	28	13	25	17	0	21	103	1	15	4	9	50	1
OTU 74	15	5	141	1	45	14	322	8	5	1	168	30	136	0	83	22	45	51	2	139	32	8	17	34	353	125	144	199	4	185	224	12	26	8	2	194	19	11	16	7	17	59	193	0	41	2	20	315	127	61
OTU 75	338	7	88	4	14	53	4	19	19	35	36	6	70	173	6	21	15	14	45	17	46	14	4	144	1	30	37	2	0	50	1	96	21	11	9	203	36	2	24	62	32	18	67	90	3	1	49	49	7	47
OTU 76	0	2	108	8	5	6	30	18	0	152	0	293	16	0	58	24	66	9	0	0	194	2	4	0	1	3	63	0	1	9	3	0	23	1	14	0	228	2	20	366	23	0	24	0	32	0	0	0	14	0
OTU 77	31	11	0	17	14	25	148	2	45	42	13	8	4	0	28	1	1	116	2	34	44	4	2	17	11	5	11	346	57	142	4	62	1	1	3	49	0	0	5	62	10	28	11	40	20	36	69	61	61	49
OTU 78	95	9	128	24	434	175	63	58	50	25	75	54	28	17	15	7	43	153	10	8	156	0	171	23	17	177	16	19	14	11	4	36	23	3	125	32	2	8	96	67	2	27	8	452	9	5	57	148	133	44
OTU 79	80	46	391	34	138	89	191	139	182	202	185	302	373	424	369	37	96	1909	323	138	214	135	201	99	66	1481	216	182	144	1041	44	121	40	76	20	94	122	123	253	191	54	161	129	270	187	75	152	226	93	103
OTU 80	46	9	14	3	36	69	119	11	9	14	50	76	1	646	644	8	4	59	0	85	26	1	25	38	24	44	321	69	134	25	28	20	2	16	126	20	261	22	18	53	83	9	7	118	339	1	18	49	20	151
OTU 81	164	48	13	17	65	52	25	4	29	69	29	77	25	110	75	269	70	30	264	41	35	37	11	31	96	10	298	11	171	55	19	137	784	106	27	54	35	19	3	43	7	40	0	54	45	35	1	113	156	30
OTU 82	0	0	31	18	22	7	3	36	6	77	3	4	50	269	5	77	32	11	58	1	144	16	49	0	69	1	9	2	4	5	4	0	22	0	39	1	199	22	39	64	98	5	7	4	1	2	2	4	2	776
OTU 83	0	0	0	2	0	0	0	0	0	0	0	2	0	4	46	81	37	2	0	0	33	38	0	0	5	8	96	0	0	0	20	7	8	2	2	0	0	0	0	0	4	3	0	0	14	0	1	0	0	0
OTU 84	0	2	0	5	8	56	31	5	93	17	2	32	47	12	56	22	28	0	12	55	7	3	0	7	4	2	8	0	0	13	5	160	9	168	6	2	4	16	16	33	8	13	1	125	33	7	15	14	38	76
OTU 85	0	0	0	0	7	0	3	18	1	0	1	24	0	6	1	0	0	12	80	0	0	0	0	0	1	22	47	0	0	18	28	26	0	0	1	0	40	5	11	0	3	56	5	0	0	10	1	0	90	3
OTU 86	0	0	0	0	0	0	0	0	0	0	0	0	0	0	0	0	0	0	2	9	3	5	0	0	0	0	0	0	0	0	136	10	0	0	0	0	0	0	0	0	27	0	48	0	0	0	0	0	0	0
OTU 87	0	3	30	11	83	121	0	0	1	58	0	9	3	36	4	21	0	1	667	0	1	0	0	0	0	9	8	2	31	1	6	3	3	12	64	0	0	0	0	7	10	0	115	269	2	0	40	0	0	2
OTU 88	0	0	4	11	0	0	1	0	1	0	0	5	0	14	0	0	0	0	1	0	0	36	0	9	0	0	1	5	0	0	117	0	0	1	0	0	6	0	1	4	4	0	9	2	0	0	0	0	30	0
OTU 89	0	0	0	0	0	0	7	28	0	281	0	3	0	56	1	0	1	19	0	0	2	2	5	12	0	0	2	0	18	1	12	221	1	7	5	3	3	18	49	0	7	1	0	71	2	4	1	0	17	19
OTU 90	0	0	8	11	20	0	28	0	1	0	0	4	0	0	0	0	12	0	7	73	1	0	0	1	0	14	0	3	1	0	0	1	3	1	2	0	0	217	0	77	0	13	0	0	0	0	0	3	2	0
OTU 91	0	0	151	0	0	0	0	0	0	0	0	0	0	9	0	0	0	24	0	0	0	0	0	1	13	0	1	0	2	0	38	2	0	0	0	0	0	0	0	0	0	0	0	0	0	2	0	4	0	0
OTU 92	13	0	24	0	22	0	3	1	0	0	21	92	0	4	28	4	7	0	0	0	0	0	12	0	0	1	7	57	2	29	23	0	3	0	1	9	18	3	3	13	6	0	8	0	8	23	0	36	0	0
OTU 93	0	0	0	0	0	0	1	2	3	2	0	16	28	49	22	0	0	0	0	0	0	0	0	3	0	0	5	1	34	0	0	0	0	0	3	0	0	0	6	0	39	3687	0	0	5	0	0	0	0	8
OTU 94	7	21	75	705	140	52	456	0	62	53	21	7	24	0	130	242	1402	69	7	10	24	858	7	45	93	6	145	48	221	816	137	158	779	4	64	12	137	26	5	90	23	56	197	195	60	62	551	51	19	54
OTU 95	4	17	2	3	0	0	0	0	1	0	0	0	12	0	0	27	1	0	0	0	17	0	0	0	0	1	17	14	8	0	72	10	0	0	50	7	89	52	0	0	17	0	0	11	0	36	0	5	0	1
OTU 96	0	0	0	0	0	0	0	0	0	5	0	0	0	0	6	4	0	0	0	0	0	0	1	5	0	0	0	0	0	0	1	0	0	0	5	14	1	62	0	0	0	0	0	0	3	0	0	0	0	0
OTU 97	0	0	1	0	0	0	0	6	0	1	0	58	16	18	0	1	13	0	0	2	4	34	0	0	8	0	0	0	0	1	0	0	17	3	14	26	0	0	0	3	1	0	5	0	0	0	1	1	3	14
OTU 98	61	2	0	36	15	0	0	0	0	8	15	5	41	3	2	18	18	7	2	0	133	12	40	0	20	0	0	26	113	55	73	3	2	0	26	0	15	7	1	1	0	7	0	1	0	0	1	0	0	1
OTU 99	175	51	34	3	24	52	32	22	47	374	59	205	16	144	137	12	79	38	12	80	349	1	78	14	7	30	111	4	55	0	79	5	20	17	45	19	573	52	65	810	200	4	3	36	73	92	18	182	26	20
OTU 100	7	2	38	4	2	24	43	62	74	2	14	25	2	3	61	184	2	101	16	9	3	0	22	6	29	20	2	11	46	1	31	26	0	35	0	15	1252	10	108	45	395	2	16	33	32	1	15	22	2	23
OTU 101	29	0	2	1	0	0	0	0	50	0	0	0	0	0	0	0	3	20	0	85	39	0	14	0	0	0	0	0	0	15	0	3	0	0	0	0	0	3	0	0	0	0	0	0	0	0	0	0	0	0
OTU 102	46	0	1	0	0	0	0	1	0	1	23	0	23	10	65	15	4	1	49	22	7	15	5	4	0	1	0	65	62	3	2	3	10	1	2	8	1	0	0	0	3	0	3	19	30	0	1	48	0	0
OTU 103	83	0	5	0	9	122	23	17	36	0	0	14	5	50	49	26	13	34	27	25	104	1	0	0	21	63	173	41	8	14	21	1	6	2	2	0	7	30	19	74	735	0	89	0	18	29	18	0	0	1
OTU 104	150	9	124	3	23	5	138	58	101	114	22	71	57	75	30	82	18	129	18	139	139	20	1	0	12	3	10	36	49	74	11	93	27	10	58	18	7	14	150	33	12	28	76	5	21	42	43	9	87	11
OTU 105	4	64	3	2	3	0	0	0	53	0	6	1	0	2	0	7	2	0	1	1	0	0	3	0	35	1	0	5	4	0	11	0	1	1	0	0	0	0	0	0	12	8	0	1	0	23	4	0	12	0
OTU 106	0	4	0	0	0	0	1	1	0	56	4	18	1	11	2	0	0	2	0	1	1	0	11	0	2	1	7	0	0	0	0	13	0	9	0	2	1	0	0	6	0	2	0	0	1	0	2	10	4	0
OTU 107	47	0	6	2	12	0	18	39	7	0	203	19	53	34	30	5	8	13	1	1	57	1	13	86	51	1	0	39	13	0	0	5	1	5	0	210	80	1	31	3	23	14	0	1	18	0	0	443	0	9
OTU 108	19	27	113	0	4	11	75	0	4	50	0	2	16	11	0	21	0	51	1	8	126	9	8	3	139	59	5	9	10	13	45	1	0	2	12	3	9	6	0	0	19	0	0	131	0	10	15	0	12	3
OTU 109	0	0	0	0	0	0	0	2	0	0	0	0	0	0	0	0	0	0	5	0	0	0	79	0	0	0	0	0	0	2	0	0	0	0	0	2	0	0	18	0	0	0	0	0	0	0	0	0	0	0
OTU 110	15	19	79	17	4	42	32	0	0	3	26	355	5	3	179	34	18	18	55	3	4	3	36	0	46	3	202	6	2	117	67	7	7	15	32	35	26	28	1	87	11	9	12	86	85	14	882	61	9	11
OTU 111	9	0	2	4	9	2	0	0	0	8	0	0	0	0	0	0	0	4	56	0	0	53	0	3	27	0	0	17	0	0	1	0	2	2	9	0	0	0	0	4	0	99	4	0	0	0	0	1	174	0
OTU 112	3	4	39	6	51	23	61	47	16	0	0	20	100	175	69	147	14	14	27	5	5	7	35	7	0	16	97	0	0	32	14	2	0	0	49	0	0	38	70	2	0	0	7	38	34	18	23	1	17	30
OTU 113	0	0	0	0	0	0	0	0	0	0	0	2	0	0	0	64	0	0	15	0	0	0	3	0	5	0	0	0	0	0	0	0	0	3	0	0	3	0	1	0	2	0	31	0	0	0	16	0	0	0
OTU 114	46	94	79	68	92	98	21	77	16	54	24	19	63	20	0	120	16	3	78	40	155	1	28	17	51	129	71	103	17	7	13	44	29	31	49	46	19	292	111	69	14	7	63	90	0	208	359	59	95	138
OTU 115	56	28	132	48	20	30	131	61	95	166	130	34	147	60	139	267	28	55	209	217	113	34	2	22	101	24	27	97	30	281	82	128	47	46	4	61	175	41	110	158	942	29	73	60	77	77	52	295	63	31
OTU 116	6	486	7	295	80	13	27	534	155	85	49	92	828	84	11	29	592	14	325	14	93	395	336	29	1	28	20	6	16	0	20	97	302	133	632	27	104	196	1056	15	6	27	4	63	5	816	36	169	0	13
OTU 117	144	28	4	13	28	30	7	11	6	7	0	45	4	1	4	10	13	222	16	131	14	2	2	3	60	87	65	0	15	62	2	3	20	55	0	7	4	95	42	1	0	1	1	118	1	84	27	26	23	126
OTU 118	0	0	4	5	1	0	0	0	1	4	0	65	0	3	1	0	4	0	5	1	0	0	0	3	0	18	2	4	373	0	164	0	16	0	0	3	11	0	0	7	1	0	0	0	1	1	0	1	0	0
OTU 119	3	26	85	2	102	134	41	45	68	10	4	14	5	57	127	31	6	182	825	22	9	0	35	11	131	140	71	113	17	38	69	36	3	15	0	5	58	6	70	156	9	8	89	55	75	14	122	20	4	80
OTU 120	0	0	97	0	2	3	53	8	12	6	0	0	2	0	12	0	0	87	19	31	0	0	1	5	4	1	1	26	39	0	0	0	4	10	0	9	9	0	7	13	32	0	10	12	7	3	16	0	31	15
OTU 121	0	25	4	0	17	1744	2	0	25	5	2	3	6	0	128	38	4	0	17	31	32	0	11	4	62	3	27	53	238	11	0	1	1	13	8	8	9	50	0	5	1	24	29	79	69	66	48	2	1	40
OTU 122	139	5	3	1925	1	14	11	3	873	4	9	11	60	11	208	94	51	10	46	190	60	32	27	1	47	78	296	6	45	24	179	16	15	7	1	0	21	10	6	110	1	2	0	21	118	14	39	3	13	8
OTU 123	77	111	94	23	52	95	192	114	230	82	69	112	138	124	265	144	96	77	151	66	179	52	84	11	315	33	144	98	107	389	136	63	32	32	237	28	43	83	275	83	53	831	50	140	145	133	158	78	2068	57
OTU 124	2	0	7	0	19	0	0	3	18	9	0	75	0	77	16	125	2	0	0	0	4	0	27	0	0	0	0	2	10	22	0	21	4	11	0	0	0	7	15	9	0	2	0	0	10	0	1	1	1	61
OTU 125	145	69	349	80	56	109	421	97	132	17	80	244	112	77	162	156	143	411	241	96	280	102	145	16	306	128	106	84	165	245	46	139	99	51	120	111	38	104	220	138	2348	38	264	175	89	46	125	97	29	12
OTU 126	0	0	1	0	0	0	0	0	0	3	0	1	0	0	0	0	56	11	0	0	0	4	39	0	1	0	0	1	0	0	16	26	28	7	0	0	0	0	0	79	0	0	3	0	0	0	0	0	13	26
OTU 127	32	5	18	1	50	6	74	2	1	26	118	21	3	52	309	31	4	8	25	57	0	15	3	50	0	4	177	97	72	50	38	39	0	1	12	121	43	5	1	25	0	77	3	22	159	0	8	288	160	2
OTU 128	78	276	114	40	933	121	168	32	244	891	95	1392	100	546	70	108	62	129	71	177	351	1613	97	39	556	55	106	255	97	139	812	56	29	81	27	122	137	193	85	158	16	32	830	251	39	456	67	212	95	165
OTU 129	0	1	0	16	0	1	0	0	0	1	1	0	53	0	0	0	78	12	0	0	0	31	0	0	14	0	10	0	0	0	57	0	25	0	228	0	2	0	0	74	18	27	13	0	0	0	0	0	147	4
OTU 130	11	2	1170	4	28	3	57	17	0	2	44	17	17	14	83	2	63	9	8	4	150	2	13	5	1	16	6	9	0	8	3	9	16	19	30	23	11	91	66	0	22	0	30	40	37	16	23	124	19	60
OTU 131	26	2	43	21	1	10	13	35	3	12	3	15	0	27	0	0	3	1	32	158	3	0	6	1	0	6	33	84	0	7	1221	8	5	3	9	0	0	8	108	133	0	60	993	7	0	39	9	5	124	13
OTU 132	0	14	125	5	13	2	8	0	16	0	1	14	0	93	11	43	6	55	14	2	1	0	39	1	0	3	0	1601	17	0	1	3	0	6	18	0	5	0	13	7	0	9	0	5	0	7	10	0	0	6
OTU 133	97	9	4	0	0	0	3	0	0	0	1	0	7	25	0	0	0	31	0	0	0	0	0	0	0	49	0	0	0	0	0	17	0	54	1	0	38	1	0	0	68	2	0	0	0	42	0	2	0	0
OTU 134	4	3	5	61	62	14	29	14	7	3	6	48	107	396	55	11	147	55	9	0	15	77	23	2	0	19	7	7	94	0	47	2	44	6	24	1	0	15	40	27	20	13	0	35	28	18	14	7	99	12
OTU 135	17	5	20	66	108	26	37	4323	0	188	110	40	57	10	17	2	106	23	29	110	28	43	69	22	14	5	29	21	15	2	8	4	23	0	3	82	19	9	128	162	4	5	1	30	7	5	7	127	20	367
OTU 136	17	10	15	1	13	0	0	3	10	17	65	17	86	1	0	0	0	1	116	260	13	0	13	28	0	21	1	232	18	25	0	28	0	0	0	59	8	0	6	0	3	77	0	13	0	0	19	95	32	162
OTU 137	8	6	19	0	16	0	0	0	22	0	5	0	7	23	6	0	0	0	0	4	37	1	6	0	0	2	6	0	3	3	0	20	1	30	66	0	3	4	0	0	3	11	0	0	2	0	1	0	19	0
OTU 138	0	0	0	0	49	73	0	0	0	11	14	5	12	0	0	88	0	0	24	0	162	0	0	1	28	13	24	0	1	6	5	1	0	3	0	0	0	0	1	0	0	17	0	53	0	15	19	40	0	9
OTU 139	19	218	126	13	155	3	181	54	50	32	48	36	26	48	48	28	30	19	12	46	108	7	27	24	8	68	1837	79	171	49	30	26	10	18	84	25	4	85	116	2029	14	7	56	42	31	389	40	85	1	65
OTU 140	206	7	26	33	111	615	32	32	76	211	598	132	69	73	31	68	36	234	67	62	143	26	56	118	72	80	97	165	120	54	225	528	42	283	59	249	75	49	45	82	9	5	9	71	20	1	28	495	65	40
OTU 141	0	1	0	0	0	0	0	5	0	0	0	0	0	2	0	0	0	0	0	0	0	0	0	0	0	0	0	0	0	0	0	1	0	0	0	1	0	0	2	6	0	0	0	0	0	0	0	0	0	0
OTU 142	0	7	0	0	0	0	0	0	0	0	0	8	0	0	0	0	0	0	1	0	9	0	0	0	0	2	0	0	0	0	0	15	2	0	8	0	3	0	6	0	0	0	0	0	0	0	0	0	0	0
OTU 143	19	0	2	12	12	0	83	0	0	0	0	4	0	5	0	9	6	0	1	3	0	0	0	11	1	4	0	12	4	4	1	13	0	0	0	0	0	4	0	10	0	5	0	0	0	8	0	0	11	0
OTU 144	1	1	8	0	0	2	26	2	24	0	12	3	2	7	0	1	0	0	146	3	5	0	0	24	21	0	4	0	9	0	10	1	0	0	17	5	52	5	0	0	1	12	0	1	0	0	0	50	11	2
OTU 145	63	64	51	170	23	29	178	310	40	10	11	16	200	80	13	0	349	533	88	0	1	155	255	0	59	217	14	31	346	55	9	29	191	1	146	5	29	100	649	87	1660	4	10	73	8	104	15	8	57	71
OTU 146	24	18	106	16	3	7	11	36	4	276	10	62	22	20	12	29	38	21	6	7	18	27	25	1	179	0	104	151	140	1	122	2	8	2	38	8	1	15	60	22	1	48	117	18	6	6	14	2	1	6
OTU 147	20	16	0	22	25	16	0	0	1	1	107	39	2	38	4	36	2	27	3	0	0	5	0	41	23	39	23	110	0	110	15	0	0	16	0	111	1	1	0	0	0	9	1	2	3	2	4	256	2	4
OTU 148	10	872	16	0	3	0	1	3	8	10	31	23	4	13	60	49	20	16	27	1	28	0	7	19	56	13	21	34	21	23	51	76	9	30	49	60	129	841	5	43	13	55	18	0	24	1135	48	95	110	19
OTU 149	15	0	0	7	47	1	86	2	256	31	0	2	25	77	0	0	2	0	31	1	0	0	0	1	48	11	4	1	14	0	0	16	0	1	2	15	6	2	0	10	0	9	30	5	0	4	13	0	81	0
OTU 150	0	0	47	0	21	1	31	0	6	138	1	0	5	0	2	0	2	0	0	39	1	3	0	2	1	1	38	0	0	16	0	0	0	3	0	5	16	0	0	16	0	21	6	0	2	2	0	0	0	20
OTU 151	1	57	2	2710	8	0	70	5	4	3	2	29	12	4	2	58	2	6	26	0	104	0	1	1	0	4	8	156	3	22	0	7	0	10	18	5	23	2	3	8	0	20	27	3	1	81	45	7	78	0
OTU 152	4	21	0	25	519	0	0	24	52	24	1	9	33	0	3	11	56	57	77	14	36	57	17	1	126	35	36	0	20	61	153	32	25	102	6	2	11	808	105	12	1	39	11	14	2	389	15	8	38	31
OTU 153	0	0	6	0	0	0	0	5	0	0	0	0	10	0	0	0	0	0	0	7	35	0	0	0	0	1	0	2	0	0	0	1	0	0	0	0	0	0	2	3	0	0	1	0	0	0	0	0	0	0
OTU 154	0	0	0	1	0	0	55	0	4	0	1	0	0	0	2	16	27	26	1	0	0	0	0	0	0	100	0	0	14	0	0	0	0	0	0	2	0	0	0	17	0	0	6	0	1	46	0	0	0	1
OTU 155	3	3	2	16	4	10	2	6	59	2	3	0	0	31	15	3	3	0	62	6	7	0	0	30	99	6	26	35	0	42	10	9	0	13	20	26	9	47	4	0	0	44	6	14	9	37	1	6	65	0
OTU 156	48	13	31	9	56	47	50	43	384	101	4	160	32	853	22	1267	0	53	27	2	144	10	19	6	10	8	10	13	29	64	175	107	3	14	23	9	3	130	80	52	7	42	118	60	14	109	23	4	26	4
OTU 157	68	0	0	16	0	9	0	0	0	330	0	0	1	275	83	0	8	18	32	115	0	15	0	0	1	0	1	0	9	4	5	0	1	16	12	0	0	0	0	25	34	1	4	102	36	4	0	0	7	7
OTU 158	1	0	0	4	0	9	1	0	0	1	0	0	0	0	0	0	0	34	2	3	7	0	1	0	0	0	39	0	0	0	51	0	0	0	0	0	0	0	0	0	0	0	20	4	0	0	0	0	0	0
OTU 159	17	5	0	8	0	19	1	18	1	36	4	0	0	28	0	22	3	108	11	20	25	0	11	2	17	22	6	296	45	79	150	1	0	9	0	2	81	3	53	42	16	33	18	50	0	6	3	13	1	1
OTU 160	116	97	19	40	158	93	1438	17	38	631	29	17	30	31	72	179	35	161	72	124	19	31	20	2	107	81	6	16	75	30	181	18	21	231	53	1	6	202	32	20	54	124	115	176	25	125	65	31	94	30
OTU 161	6	3	5	0	56	122	26	45	20	141	2	22	10	3	101	4	14	12	4	833	169	0	27	1	9	7	388	1	6	21	3	1014	15	306	1	1	30	74	33	147	36	3	95	93	50	32	4	0	47	400
OTU 162	32	11	109	11	0	5	42	2	71	0	0	36	59	2	3	1	12	229	153	26	12	1	89	4	90	224	245	23	1	6	8	79	2	41	125	1	22	26	1	11	0	72	16	42	0	72	1	13	82	61
OTU 163	0	0	0	0	0	0	0	0	0	0	0	0	0	0	0	0	0	5	165	0	7	0	0	0	0	0	0	0	0	0	0	0	0	0	0	15	0	0	0	0	1	0	3	0	0	0	0	0	0	0
OTU 164	0	8	0	0	0	0	0	0	0	0	0	0	3	3	0	0	0	0	0	0	0	0	0	0	0	0	0	2	154	0	0	0	0	0	0	0	1	8	0	1	0	0	0	0	0	0	0	0	0	0
OTU 165	24	0	11	1	175	17	0	0	0	1	0	1	2	5	0	1	0	0	0	17	49	1	2	3	15	8	1	4	5	2	4	120	2	73	1	0	7	0	3	11	0	0	0	101	0	1	0	13	3	157
OTU 166	0	0	0	0	0	0	0	0	0	0	0	0	0	0	0	0	0	0	0	0	2	4	0	0	9	0	0	5	41	0	0	89	0	53	0	0	19	0	0	0	0	0	0	0	0	2	0	0	0	10
OTU 167	42	10	19	8	25	0	13	23	5	2	3	7	24	62	63	20	0	28	0	6	70	0	66	7	3	800	16	22	4	9	0	4	13	1	21	11	15	25	36	90	0	0	0	0	26	161	10	4	0	31
OTU 168	6	3318	9	17	12	16	117	39	7	1	50	7	16	0	4	163	0	0	1	0	1	7	2	34	103	0	0	147	45	2	62	63	0	22	9	96	2	23	67	3	0	35	2	16	3	12	21	128	92	1
OTU 169	9	0	0	0	0	0	0	0	0	0	0	26	0	0	0	0	0	0	0	0	0	0	0	0	0	0	0	0	0	0	0	0	0	0	0	0	2	0	0	0	0	1	0	0	0	0	0	0	0	1
OTU 170	0	1	0	0	0	0	7	0	0	8	0	0	0	0	18	0	0	0	0	0	0	6	0	0	0	0	0	0	0	0	0	0	0	17	0	0	0	0	0	0	0	0	1	0	3	0	0	0	0	39
OTU 171	0	2	3	0	324	546	36	2	12	0	24	13	1	13	31	46	3	20	136	280	2	0	0	20	1	0	26	19	212	4	25	1	4	8	9	5	1	3	4	0	1	45	44	682	19	0	306	43	14	279
OTU 172	10	20	0	0	0	0	0	0	15	2	3	1	0	2	20	49	0	1	0	0	0	0	0	5	0	5	0	0	12	14	22	96	0	18	0	11	0	0	0	0	0	2	0	2	9	1	0	0	0	2
OTU 173	12	4	0	50	1	0	0	8	85	10	0	0	4	53	5	0	68	19	0	1	52	23	5	1	4	64	0	26	56	0	19	39	62	0	0	3	1	14	22	0	0	9	0	6	3	1	0	0	19	13
OTU 174	1	33	21	29	7	4	235	2	0	215	26	44	7	16	49	39	32	48	60	4	71	2	39	28	14	3	7	14	8	56	1	101	7	33	6	25	19	3	22	4	22	228	0	2	29	14	3	38	3	22
OTU 175	117	2	91	2	0	44	0	25	11	22	132	53	25	0	0	29	0	17	9	1	34	10	0	48	4	3	0	31	13	14	0	0	1	0	16	140	9	0	35	14	0	15	0	46	0	27	47	230	0	37
OTU 176	123	228	786	98	34	15	229	41	66	77	73	73	174	5	131	18	149	6	122	87	150	26	3077	34	37	35	190	0	27	29	19	42	77	38	86	101	14	13	113	5	1	121	44	2	59	347	17	60	59	81
OTU 177	0	7	16	23	49	8	4	46	53	43	13	56	16	24	0	13	14	13	164	32	164	49	9	11	2	48	1	0	45	6	230	3	11	2	28	37	5	86	84	51	21	6	27	78	0	9	742	37	9	26
OTU 178	68	6	29	78	28	3	30	1	5	28	0	11	20	25	0	177	0	0	9	16	6	0	80	1	8	15	21	30	5	0	0	2	1	3	5	0	122	2	7	72	241	4	14	9	0	9	0	0	0	0
OTU 179	42	9	26	3	1	0	0	0	0	11	39	25	0	12	23	16	0	13	18	0	0	7	4	212	42	3	3	8	176	0	32	17	6	15	33	469	102	1	1	6	3	24	30	0	12	0	9	88	175	1
OTU 180	64	86	74	41	11	30	101	89	44	130	62	154	51	71	122	217	42	53	160	114	173	1424	65	36	183	2508	74	39	114	41	138	4	14	22	66	62	62	160	181	46	15	1	164	41	68	127	62	103	18	71
OTU 181	10	8	0	0	55	10	0	7	70	15	23	6	2445	138	5	84	4	10	3	42	17	14	5	1	0	1	117	19	5	2	42	41	17	46	6	33	49	2	10	4	6	2	5	46	3	10	15	24	11	17
OTU 182	19	0	4	0	1	0	4	0	1	0	1	0	17	0	0	0	0	0	0	10	2	0	0	3	0	0	0	3	0	0	0	0	0	0	29	2	0	0	0	0	0	0	0	0	0	0	0	22	0	0
OTU 183	0	0	0	118	46	10	0	18	0	17	6	74	36	39	1	24	33	2	3	6	74	32	64	0	140	4	38	16	21	12	674	0	7	0	83	0	16	3	26	8	1	3	313	1	0	0	1	24	3	15
OTU 184	0	26	39	19	0	4	0	15	0	7	0	167	28	0	61	4	20	0	0	2	37	18	47	0	24	0	3	0	37	2	4	125	3	139	11	1	0	0	62	0	9	5	4	105	26	6	35	1	1	26
OTU 185	36	0	65	5	101	27	16	20	42	28	0	1	37	10	182	44	0	45	68	7	51	19	75	5	53	9	226	37	18	7	50	84	3	128	79	34	9	3	20	37	9	19	9	145	90	6	11	1	13	4
OTU 186	70	25	8	12	0	0	0	11	0	7	0	18	0	0	0	0	0	1	13	0	22	0	0	0	9	1	0	13	0	61	37	0	3	0	0	1	6	0	13	2	0	0	65	8	0	9	15	6	3	18
OTU 187	291	47	26	425	50	15	4	25	34	72	28	107	16	35	134	31	1101	0	268	58	79	535	13	50	189	141	90	9	2	38	5	72	586	55	19	75	108	4	45	5	31	488	12	6	65	97	52	102	736	4
OTU 188	40	34	10	95	148	74	57	71	186	7	157	460	12	19	209	36	121	92	53	175	37	86	74	74	7	149	110	332	1	2	82	6	63	4	40	133	5	78	148	92	8	150	30	140	98	83	0	233	65	146
OTU 189	393	1	9	9	10	0	19	20	737	113	21	17	4	60	93	193	0	4	37	111	36	46	13	7	204	24	45	81	53	2	42	82	0	16	0	5	178	13	31	30	3	35	112	19	56	10	94	56	15	115
OTU 190	0	0	0	0	0	0	0	0	0	47	0	0	0	0	0	0	0	28	25	1	18	0	7	0	0	52	0	15	0	0	1	0	0	0	0	2	0	0	1	48	1	7	0	0	0	0	2	0	0	0
OTU 191	87	4	16	247	2	11	69	3	21	1129	7	83	5	109	19	111	440	104	26	1	22	845	4	3	53	0	77	30	262	263	62	39	221	83	103	12	1727	12	8	2	508	22	19	4	3	53	1	12	104	4
OTU 192	120	225	549	1	32	163	117	1	18	46	89	65	18	14	27	280	9	40	109	38	2	16	30	34	3	72	240	144	49	44	39	85	15	16	21	68	12	621	1	25	10	66	16	144	38	904	8	129	77	222
OTU 193	1	2	12	12	0	1	15	5	56	31	3	14	0	5	19	29	30	4	141	24	132	0	0	0	155	0	7	1	140	53	3	38	4	8	25	7	3	6	14	3	0	48	19	0	4866	14	207	1	18	61
OTU 194	190	3	898	0	32	1	2	7	0	3	4	0	30	11	1	5	2	3	40	5	12	1	11	2	25	11	39	80	2	153	1	0	0	0	25	0	4	37	9	98	0	3	0	0	1	3	5	3	0	72
OTU 195	26	2	1	20	0	22	9	7	8	7	0	225	0	50	453	2	33	4	6	12	52	45	3	1	26	16	79	1	271	120	40	22	26	0	0	0	0	6	12	0	5	27	8	0	234	6	6	7	0	18
OTU 196	29	9	11	0	0	21	9	2	206	18	19	0	0	15	88	1	5	39	0	20	103	12	0	6	1	22	28	0	26	43	135	3	897	0	0	2	1	2	5	0	5	0	67	8	46	0	8	18	5	0
OTU 197	44	3	22	20	43	12	35	7	32	27	16	142	17	85	54	142	6	20	61	198	62	6	70	14	977	55	35	60	47	102	136	140	0	76	18	14	294	7	12	21	31	1	16	71	31	21	78	42	25	1551
OTU 198	1	0	0	0	0	0	0	0	2	0	0	0	0	8	75	0	0	10	3	0	22	0	2	4	67	7	0	30	21	43	18	0	0	0	0	1	0	2	3	12	0	22	0	0	42	0	0	0	26	3
OTU 199	16	7	6	22	1	1	7	68	1	0	12	3	40	11	3	0	39	4	0	11	2	35	84	15	10	1	0	124	0	14	49	56	23	3	21	29	2	1580	106	0	5	11	1	0	0	0	1	24	81	0
OTU 200	42	41	8	29	0	3	29	1	10	3	1	26	5	2	3	63	30	0	67	4	25	9	2	4	47	38	48	32	21	1	17	59	1	36	10	9	42	15	4	124	25	57	3	0	1	59	0	4	182	29
