	Host 1	Host 2	Host 3	Host 4	Host 5	Host 6	Host 7	Host 8	Host 9	Host 10	Host 11	Host 12	Host 13	Host 14	Host 15	Host 16	Host 17	Host 18	Host 19	Host 20	Host 21	Host 22	Host 23	Host 24	Host 25	Host 26	Host 27	Host 28	Host 29	Host 30	Host 31	Host 32	Host 33	Host 34	Host 35	Host 36	Host 37	Host 38	Host 39	Host 40	Host 41	Host 42	Host 43	Host 44	Host 45	Host 46	Host 47	Host 48	Host 49	Host 50	
OTU 1	109	0	30	21	18	335	0	171	549	470	53	15	20	1	286	263	69	56	855	0	48	999	0	322	0	366	39	401	0	267	319	18	28	0	4	282	163	803	103	7	330	32	10	0	140	604	84	22	1168	2
OTU 2	7	24	0	0	32	45	4	28	1	0	0	7	2	23	7	2	85	0	0	0	423	0	0	10	0	1	0	61	0	0	0	3	49	0	3	0	1	0	28	0	0	0	21	18	0	6	80	2	5	12
OTU 3	1	21	4	0	1	2	0	6	0	7	3	35	3	0	3	0	74	0	1	2	4	1	11	0	2	3	15	0	1	0	2	8	19	0	11	2	0	4	16	0	5	46	30	4	0	0	4	1	1	2
OTU 4	0	11	0	0	0	0	0	0	0	0	0	0	11	0	0	0	0	0	0	0	0	0	0	0	0	0	0	2	0	0	0	0	0	0	3	0	0	0	0	0	0	0	0	0	0	0	0	0	0	0
OTU 5	770	377	41	140	1	260	931	920	805	622	125	90	509	232	23	80	21	319	1581	291	375	129	716	38	466	50	0	132	188	601	1090	61	0	0	5	609	1012	70	29	827	17	1	507	98	134	68	13	84	187	11
OTU 6	19	26	31	361	3	2093	11	816	4	0	3	30	18	4	1	32	94	24	24	5	71	0	39	0	114	3	15	3	24	4	805	45	10	83	13	4	17	8	2	5	2	163	1	70	0	9	3	0	31	9
OTU 7	22	61	23	110	112	42	76	8	340	14	870	44	83	168	9	17	234	5	57	74	13	23	5	4	69	5	75	23	423	168	13	29	93	114	172	569	102	15	55	35	15	3	59	4	25	80	27	42	102	157
OTU 8	19	125	101	39	69	8	502	11	30	808	156	18	220	85	40	3	116	36	8	60	26	3	34	4	255	19	59	53	186	17	23	7	69	0	25	52	74	59	74	8	72	3	144	73	4	2	53	14	35	48
OTU 9	0	49	26	6	68	14	0	8	19	3	38	14	38	41	29	0	7	12	19	27	27	15	0	0	2	15	7	0	12	8	6	111	0	0	9	1	9	21	6	21	11	49	3	4	1601	9	0	36	2	12
OTU 10	4	0	2	0	0	3	8	20	3	13	73	6	0	0	7	1	2	0	0	3	86	23	1	9	2	2	0	12	5	1	3	0	8	70	4	2	52	3	14	20	2	20	24	0	0	35	6	0	6	17
OTU 11	13	4	21	17	3	0	12	1	9	39	27	34	31	7	26	63	19	39	40	6	48	85	2	3	10	4	5	0	179	3	23	65	52	9	80	1	66	15	90	3	0	40	203	135	1	35	69	18	18	64
OTU 12	32	8	9	332	221	4	97	10	70	18	23	83	14	42	9	14	272	44	76	12	109	34	70	67	293	8	162	18	48	38	41	17	172	112	112	8	18	16	2	6	46	130	128	42	104	122	6	32	142	157
OTU 13	0	0	0	0	0	0	0	0	0	0	13	0	0	45	1	0	0	3	2	3	0	0	0	4	1	1	0	11	0	0	9	0	0	0	0	0	0	0	0	13	3	0	10	0	18	0	0	0	0	0
OTU 14	0	8	18	16	50	5	41	1	14	1	44	2	8	0	9	0	28	34	1	10	15	0	0	17	1	7	7	0	0	1	7	24	61	58	4	12	1	11	32	5	0	0	23	0	12	4	2	0	30	108
OTU 15	0	0	0	12	0	0	11	0	0	0	0	0	0	0	0	0	0	0	0	0	15	0	0	0	0	0	25	0	0	0	0	0	2	0	0	1	1	0	0	0	0	0	0	0	0	1	0	0	0	0
OTU 16	0	2	0	0	0	2	0	0	1	0	2	0	0	0	0	0	3	30	0	0	0	0	0	0	0	0	0	0	0	0	0	0	0	0	0	0	0	4	0	0	0	0	0	3	0	0	6	0	0	0
OTU 17	7	71	12	30	19	3	0	8	3	41	15	78	36	0	6	1	1	23	16	0	14	60	39	0	40	3	57	6	1	1	2	89	7	50	467	6	9	6	71	0	12	4	0	3	40	30	114	19	0	15
OTU 18	16	24	174	0	83	17	8	0	21	14	33	64	19	5	0	33	27	24	10	4	451	15	16	19	31	4	9	11	1	8	20	73	177	47	85	70	13	14	3	67	0	24	24	35	2	3	21	31	11	140
OTU 19	0	0	0	0	0	0	0	0	0	0	0	0	0	0	0	0	0	0	0	0	0	0	0	0	0	0	0	0	0	0	0	0	0	0	0	0	0	0	0	0	0	0	0	0	0	0	0	0	0	0
OTU 20	4	96	49	9	77	0	107	18	0	0	200	56	20	2	3	6	110	0	24	3	0	0	15	1	104	2	14	30	104	0	0	2	66	161	25	7	35	0	24	2	2	145	27	25	1	4	3	114	13	127
OTU 21	56	5	381	13	81	563	6	391	534	250	243	53	42	325	192	110	7	0	467	109	94	509	79	296	10	156	6	360	81	287	57	49	27	157	25	215	49	361	1	1	163	218	6	0	94	474	1	2922	1072	0
OTU 22	16	12	40	110	128	57	13	20	8	4	162	4	189	25	16	38	43	10	76	3593	10	26	14	64	55	10	19	24	17	6	53	28	115	30	339	115	225	42	3	50	6	316	0	225	8	38	0	3	14	6
OTU 23	10	0	0	3	220	4	33	0	4	1	0	3	5	84	4	7	39	14	4	5	67	4	6	62	4	0	0	11	19	2	1	74	0	24	9	0	19	0	0	48	3	61	10	3	25	0	10	96	0	5
OTU 24	0	0	24	0	1	0	83	0	0	0	213	1	10	68	5	1	7	0	4	25	5	0	39	0	33	0	1	4	0	0	0	0	66	51	6	9	0	9	0	60	0	1	5	2	1	0	3	0	0	46
OTU 25	0	1	0	47	0	0	0	0	0	0	0	0	0	1	0	0	0	0	0	0	0	0	0	3	0	0	0	6	0	0	0	0	0	0	0	0	0	0	8	0	0	0	42	0	0	0	10	1	0	0
OTU 26	0	2	171	30	0	0	67	0	0	0	0	0	35	4	0	0	0	0	12	0	6	0	10	0	2	0	0	0	0	0	0	0	0	0	0	0	12	0	0	0	0	0	8	0	0	0	0	9	0	0
OTU 27	1	0	0	0	0	3	0	0	0	0	0	0	0	0	0	2	0	0	0	0	5	6	0	0	3	0	0	0	0	0	0	13	0	0	0	0	0	0	0	1	0	2	0	0	0	0	0	0	0	0
OTU 28	20	22	172	88	47	49	40	27	14	13	235	39	70	4	28	9	45	56	0	0	15	20	3	11	1	14	27	4	32	8	0	51	10	41	11	1	1	29	8	7	16	0	111	75	53	44	25	0	9	7
OTU 29	107	50	32	11	72	476	92	280	541	277	20	1	32	12	232	194	41	80	658	27	33	501	11	850	94	222	20	245	1	270	482	16	44	95	74	125	22	418	113	129	261	79	25	1	164	877	22	0	1075	96
OTU 30	3	0	0	0	0	0	85	0	0	0	0	0	0	0	0	0	0	2	0	0	0	0	0	0	0	0	0	0	0	0	0	0	0	0	0	0	0	0	0	0	0	0	0	0	0	0	0	0	0	0
OTU 31	0	22	72	55	4	1	52	0	0	1	0	46	0	28	0	0	1	3	31	43	4	1	18	0	0	5	14	9	12	0	40	0	1	0	0	4	10	1	8	0	0	34	26	77	287	3	0	3	0	48
OTU 32	3	8	14	96	302	103	81	59	12	15	52	41	1	5	1	13	89	2	17	2	37	28	67	36	30	3	142	30	91	8	2187	28	43	7	19	1	28	14	52	22	38	85	28	72	42	7	11	40	11	185
OTU 33	0	0	0	0	0	0	0	0	0	0	6	0	0	0	0	0	40	0	0	1	0	0	0	4	0	0	0	0	1	0	0	0	1	0	0	0	0	0	0	0	0	1	1	0	0	0	0	0	0	0
OTU 34	196	107	1	61	2	64	28	200	54	44	7	2	156	158	12	418	130	40	9	100	87	115	1	114	294	2	34	14	2	23	4	1	130	7	5	22	640	9	4	74	13	8	8	0	39	39	0	32	105	537
OTU 35	0	11	4	38	120	1	245	7	0	29	115	204	5	44	3	3	12	20	0	24	12	70	8	52	487	2	109	16	19	0	23	143	0	96	99	1	16	0	116	10	2	1	11	16	0	26	45	13	2	163
OTU 36	0	0	12	72	51	2	19	35	9	6	2	43	13	0	4	0	26	22	41	0	7	6	67	72	10	9	0	16	84	6	1	13	76	4	7	131	11	3	190	19	26	78	39	509	11	6	161	8	5	3
OTU 37	0	1	50	4	1	1	0	0	0	0	2	1	0	281	0	0	3	0	0	117	0	0	0	0	33	8	0	21	8	0	0	0	0	0	7	28	0	2	0	16	0	85	5	0	5	0	0	56	0	19
OTU 38	9	224	38	144	19	2	57	13	1	4	5	4	6	81	2	1	7	21	26	51	28	1	20	28	25	10	2	7	0	0	22	46	5	2	7	755	1	22	10	161	5	5	22	4	9	15	9	140	4	0
OTU 39	1	72	0	128	0	0	0	3	0	0	51	0	20	3	194	15	0	0	0	6	1	0	0	13	3	3	0	4	1	0	0	3	2	12	0	0	1	0	0	0	0	15	47	0	7	4	0	0	0	4
OTU 40	1	1	31	5	47	14	26	2	6	6	7	8	33	21	1	28	136	3	47	96	157	17	22	15	28	1	8	0	27	3	19	36	35	26	9	24	55	10	1	56	6	13	27	75	2	24	32	85	19	7
OTU 41	0	43	7	25	5	1	5	10	3	1	17	11	55	31	2	0	2	1	15	86	86	1	22	2	64	8	23	12	2	0	0	45	58	31	201	1	30	7	48	7	2	7	33	5	2	11	78	0	7	488
OTU 42	0	2	0	109	16	0	1	0	9	31	0	3	8	0	91	0	1	4	10	6	0	66	3	0	4	2	0	0	2	5	8	1	0	6	1	2	5	1	0	0	0	0	0	0	4	11	8	24	16	0
OTU 43	2	0	0	0	0	0	3	0	0	0	0	0	0	0	0	0	0	0	0	0	4	0	0	0	0	0	17	0	0	0	0	0	0	4	0	0	0	1	0	0	0	0	0	0	0	0	0	0	0	0
OTU 44	0	0	0	0	2	0	0	1	0	0	59	0	6	0	0	0	0	6	0	0	0	1	1	0	144	0	0	17	0	0	1	0	0	0	0	1	0	1	37	69	0	5	0	19	0	0	0	5	0	7
OTU 45	2	39	2	3	80	4	19	0	3	8	62	62	7	233	10	16	18	12	85	62	11	10	54	10	6	8	21	1	12	4	58	25	5	88	74	3	68	1	16	38	52	84	22	24	2	3	19	2	18	129
OTU 46	9	17	2	190	252	50	64	7	0	0	23	15	1	59	7	12	32	28	54	41	66	3	38	2	92	14	80	28	966	0	762	16	2	24	1	19	20	32	28	83	0	45	118	126	15	3	14	8	31	7
OTU 47	0	0	0	0	0	0	34	0	0	0	119	59	1	0	0	0	77	0	0	0	0	3	28	0	0	0	44	0	1	0	2	10	0	1	6	6	0	0	0	0	2	0	0	3	0	0	5	3	0	0
OTU 48	4	5	119	32	48	68	86	2	20	462	46	15	10	7	0	1	8	25	11	0	257	138	56	15	182	12	1	5	44	15	18	21	33	250	20	1	8	11	5	36	4	218	74	24	32	45	30	14	32	43
OTU 49	2	0	59	6	22	14	21	5	27	9	40	15	8	0	6	0	14	0	114	0	10	17	88	12	153	8	4	2	45	20	62	1	91	12	8	1	18	0	2	1	0	108	24	0	0	33	5	8	9	0
OTU 50	5	30	62	131	394	6	1	13	56	18	50	34	11	7	18	13	204	32	10	0	6	34	7	5	36	14	67	1	29	32	5	48	48	95	143	47	3	38	4	152	14	103	606	92	6	4	6	121	71	141
OTU 51	1	6	6	4	0	7	2	1	1	5	0	74	33	11	0	0	49	0	25	0	0	4	45	8	0	0	4	46	4	1	9	0	9	37	19	0	3	0	1	49	0	28	48	15	0	0	4	3	13	111
OTU 52	7	79	14	20	28	25	11	3	57	3	22	30	17	565	13	5	468	189	4	205	41	0	38	11	52	13	27	35	77	32	16	166	43	40	26	47	71	13	91	9	19	19	131	66	33	32	50	169	66	34
OTU 53	4	0	0	2	0	2	0	0	0	0	0	0	0	0	0	23	0	0	0	0	0	0	0	2	0	0	0	0	0	0	0	0	0	0	0	0	0	0	0	0	0	0	0	0	0	0	0	0	0	0
OTU 54	17	47	35	20	27	20	107	1	5	1	1	24	22	114	4	22	33	17	10	22	1541	2	33	6	163	4	33	9	67	3	38	143	85	20	17	13	89	7	86	15	24	282	58	29	8	65	3	112	3	217
OTU 55	0	0	0	0	0	0	4	0	0	0	0	0	0	0	0	0	0	0	0	0	0	0	0	0	0	0	0	1	0	0	0	0	0	0	0	0	0	0	0	0	0	0	0	0	1	0	0	0	0	0
OTU 56	2	51	9	0	6	0	1	0	10	7	1	0	0	0	0	0	7	0	0	9	8	2	0	4	27	0	0	1	0	4	5	64	0	1	1	0	0	1	0	12	0	0	38	10	0	3	3	31	5	22
OTU 57	6	346	14	79	314	0	48	4	57	73	70	39	18	341	21	11	205	197	107	177	60	139	101	38	79	32	259	35	119	23	11	75	102	63	105	6	7	34	48	889	14	6	210	219	1805	12	59	150	82	137
OTU 58	0	0	0	0	53	9	165	7	1	0	40	1	4	79	1	0	34	1	1	32	45	0	6	0	2	0	6	0	1	0	1	1	0	1	22	1	44	5	15	86	0	102	0	4	0	0	23	3	32	0
OTU 59	0	23	19	36	0	8	6	1	16	0	5	16	1	12	6	5	200	19	1	8	54	0	89	0	2	3	61	1	14	10	19	0	0	9	34	0	49	5	14	65	54	6	0	1	9	4	10	0	4	1
OTU 60	4	24	9	24	67	0	88	55	7	1	64	78	7	70	11	5	99	6	15	9	133	2	75	33	21	0	82	33	6	4	3	95	80	122	7	4	42	1	31	37	7	37	98	82	6	22	25	53	25	55
OTU 61	368	120	47	109	176	87	14	67	68	5	5	24	139	4	82	723	1	14	762	7	269	24	152	3588	12	116	7	38	0	40	410	40	24	208	4	55	120	150	27	206	29	23	32	85	589	42	54	12	65	42
OTU 62	1	12	55	27	19	1	18	0	7	16	35	40	5	23	0	7	0	6	1	4	8	45	0	0	17	0	2	0	0	7	10	1	11	1	3	0	26	1	1	6	2	0	16	12	0	29	0	0	14	0
OTU 63	20	14	0	13	0	21	3	51	18	0	42	37	3	32	0	0	56	2	0	2	19	12	0	0	0	4	230	22	11	6	12	47	122	57	79	0	19	0	5	6	6	8	36	110	0	13	0	110	56	2
OTU 64	31	11	117	70	161	11	0	31	42	37	19	45	58	163	10	52	73	30	7	85	83	71	50	18	77	9	87	61	35	33	9	10	109	59	91	52	60	8	96	44	40	3	8	48	38	76	26	8	35	163
OTU 65	0	0	0	0	0	0	0	0	0	0	0	0	0	0	0	0	1	0	5	0	3	0	3	0	0	1	1	0	0	0	0	0	0	0	3	1	0	0	0	0	0	75	0	0	0	1	0	0	0	1
OTU 66	3	12	25	30	168	6	30	3	2	9	11	36	48	11	0	30	76	16	108	8	7	7	0	22	16	0	92	1973	0	3	82	4	28	154	142	8	17	6	26	0	8	14	139	9	8	6	12	252	3	15
OTU 67	6	28	0	166	4	50	8	16	0	34	14	23	14	4	13	0	45	50	1	18	0	62	40	8	10	7	0	21	338	0	21	24	180	23	0	2	4	25	38	3	0	0	7	10	4	31	21	4	35	25
OTU 68	0	0	0	111	107	22	3	51	3	0	1	2	14	1	3	1	12	0	9	1	2	1	15	0	23	19	0	0	0	0	14	0	5	4	34	1	23	12	15	81	0	0	6	0	0	7	28	0	26	2
OTU 69	1	22	15	35	148	13	10	493	8	15	44	38	10	59	7	0	41	2	67	102	27	26	18	0	52	0	89	4	37	5	3	14	51	14	7	17	30	0	3	45	25	67	3	3	9	1	4	16	9	0
OTU 70	6	19	4	7	3	10	40	2	1	12	51	32	50	18	4	0	6	3	7	4	2	11	26	21	7	1	141	0	0	0	10	28	30	92	31	0	8	2	0	60	9	15	5	28	1	0	0	2	4	18
OTU 71	1	0	28	1	0	0	80	28	5	55	0	5	36	33	11	1	2	724	0	6	105	80	0	1	16	12	0	11	20	2	28	61	5	0	24	61	0	31	0	30	1	71	0	20	27	26	1	46	29	3
OTU 72	3	21	48	135	12	9	93	0	2	8	32	15	244	31	15	1	41	35	9	17	12	12	6	29	5	1	10	0	9	0	59	40	20	23	154	0	31	10	19	12	0	33	5	103	105	16	8	179	0	11
OTU 73	0	31	0	137	23	35	3	34	178	4	1	23	7	69	3	35	48	32	0	35	146	4	29	9	16	10	0	2	75	69	4	37	16	91	14	5	83	11	11	38	4	25	1	0	6	2	19	30	4	14
OTU 74	0	1	4	1	5	32	146	6	56	10	14	156	43	171	3	13	10	2	1	197	8	33	39	40	27	28	126	12	20	22	12	4	40	187	207	8	279	41	50	75	67	63	39	126	68	123	29	22	43	0
OTU 75	596	132	15	24	185	62	10	7	13	2	0	26	56	35	14	64	7	142	0	3	865	9	20	7	31	482	63	55	0	6	5	6	100	584	228	1	283	30	34	0	28	78	8	130	3	12	33	36	29	102
OTU 76	6	16	17	3	8	0	28	1	1	0	49	0	22	5	0	3	19	6	0	0	3	0	0	3	1	0	2	11	38	1	4	106	20	12	167	9	5	0	0	423	1	0	68	3	21	2	0	195	0	0
OTU 77	8	9	17	53	28	68	38	39	7	27	164	23	4	33	20	1	14	8	33	4	7	50	133	10	7	9	37	518	13	4	17	26	21	0	46	11	8	34	12	6	37	96	1	50	61	26	5	3	53	24
OTU 78	8	10	11	22	18	19	37	5	3319	0	12	0	7	144	82	12	0	4	0	13	9	1	38	6	1	74	5	122	12	1692	0	1	37	204	1	130	0	107	1	1	149	0	11	3	14	60	28	2	0	42
OTU 79	10	46	237	24	192	74	22	26	18	17	67	91	49	140	32	8	331	14	25	37	180	26	126	70	171	54	121	46	42	12	28	181	142	350	355	83	130	62	77	109	12	358	146	131	5	32	51	115	64	244
OTU 80	19	16	73	10	49	16	164	9	8	9	18	8	1	226	2747	20	18	50	41	245	11	10	3	73	90	1	47	13	10	3	5	56	10	71	74	153	38	1	55	18	5	81	108	6	7	1	30	7	10	17
OTU 81	290	68	289	27	60	64	174	4	6	7	60	13	24	14	13	587	57	8	21	20	85	20	69	69	21	7	94	6	28	0	13	113	16	131	4	28	61	5	133	92	5	47	39	115	8	10	35	114	34	40
OTU 82	1	219	11	19	3	2	5	3	0	1	14	35	19	0	4	0	182	4	10	1	15	11	28	12	69	7	3	2	8	0	2	54	38	83	77	0	6	15	0	177	59	0	59	0	10	17	1	86	0	31
OTU 83	0	0	6	0	0	1	6	0	12	4	1	0	4	0	50	15	5	0	0	2	25	6	0	0	0	18	37	7	0	4	0	0	29	1	16	0	0	33	14	0	0	0	0	0	0	1	5	0	26	0
OTU 84	0	23	32	12	61	0	151	0	1	2	11	37	0	9	25	2	9	3	4	2	16	4	16	3	4	13	84	0	1	0	3	8	10	1	337	21	3	33	25	135	2	22	39	37	5	1	5	4	1	7
OTU 85	6	3	10	0	0	25	4	1	13	0	2	0	2	0	14	13	4	5	22	0	9	0	3	6	4	28	41	17	0	7	11	0	0	13	0	2	0	86	27	3	38	1	0	0	0	0	8	0	21	0
OTU 86	0	0	0	0	5	0	0	0	2	0	2	0	0	0	4	0	1	0	0	1	0	0	2	0	0	2	64	39	0	1	0	32	1	16	0	0	0	24	0	0	1	0	0	0	0	0	0	0	5	0
OTU 87	0	5	3	55	106	0	0	0	0	0	1	0	41	120	0	0	0	0	8	70	0	0	0	4	1	0	21	25	1	0	6	5	14	4	0	0	0	2	4	196	4	117	0	1	0	1	0	56	0	7
OTU 88	15	0	35	48	5	0	24	1	1	0	0	0	47	0	0	13	0	0	0	0	0	0	5	6	2	0	0	0	43	2	0	1	0	1	1	10	0	1	0	10	0	1	2	0	13	0	1	0	1	0
OTU 89	1	10	1	2	6	1	78	0	0	0	0	0	2	170	12	0	71	0	4	66	34	6	1	4	31	3	1	12	2	0	3	0	0	5	5	3	0	3	10	55	0	72	86	1	381	1	0	18	0	0
OTU 90	7	0	1	1	0	84	5	52	0	0	0	0	3	0	0	0	0	17	1	0	9	0	38	0	14	0	0	1	0	0	31	1	53	0	19	0	0	0	7	0	0	0	0	0	0	1	0	0	0	222
OTU 91	0	1	0	1	0	24	0	0	0	0	10	0	0	3	0	0	0	0	0	0	0	0	0	0	0	0	0	12	1	0	0	1	186	0	90	0	0	0	0	0	0	0	0	0	0	3	0	0	0	0
OTU 92	0	6	0	0	0	1	1	0	0	5	3	0	45	31	5	0	0	5	5	3	1	2	0	0	0	1	1	0	24	0	0	0	0	28	84	1	175	10	88	0	0	1	0	10	20	0	77	18	0	52
OTU 93	0	0	0	0	0	0	111	2	1	0	0	1	4	0	0	0	0	0	0	0	0	0	42	0	3	2	0	0	4	0	0	0	0	0	0	22	1	0	0	0	0	8	5	9	0	0	0	0	8	5
OTU 94	9	34	182	1	6	302	31	160	207	77	0	12	155	5	126	9	108	62	114	6	17	141	27	223	122	167	8	378	12	93	142	0	180	30	65	144	37	273	159	37	102	31	53	140	62	203	24	20	320	18
OTU 95	6	24	2	52	16	0	0	0	0	5	41	4	1	2	0	12	10	0	0	0	1	0	0	0	0	2	0	0	0	0	0	12	77	106	7	7	2	3	5	0	0	21	0	2	3	7	1	0	21	1
OTU 96	4	9	0	5	0	0	0	0	0	0	17	0	0	0	0	0	0	0	0	0	0	0	0	0	7	0	0	0	0	0	0	0	0	0	0	0	2	0	0	0	0	0	1	45	0	0	0	0	0	128
OTU 97	1	0	13	1	11	1	0	0	0	0	0	1	0	0	0	10	0	1	2	6	56	0	1	0	2	2	0	930	0	0	0	0	0	3	0	0	0	0	0	0	1	9	1	76	8	3	11	0	11	24
OTU 98	0	16	1	1	0	11	0	0	0	0	0	1	443	0	5	11	0	2	0	1	3	0	21	2	36	3	27	1	9	0	25	0	0	0	0	0	710	15	0	0	35	0	44	69	3	157	0	15	0	1
OTU 99	1915	14	79	275	182	21	6	14	4	4	70	96	120	19	35	1	96	2	1	10	126	34	104	47	131	51	19	23	102	0	31	5	55	9	240	13	71	124	15	38	20	220	35	114	23	19	30	182	21	7
OTU 100	44	20	4	53	40	0	0	3	134	4	7	7	80	88	10	106	6	5	46	11	12	19	75	421	5	15	5	4	29	62	7	16	98	46	26	1	81	27	1	35	13	35	7	5	114	0	3	0	96	3
OTU 101	0	0	0	0	0	0	101	5	0	1	0	1	0	0	0	0	45	0	9	23	0	1	36	0	0	0	0	0	0	0	9	1	33	2	57	0	0	0	5	0	0	0	0	8	0	0	0	0	0	0
OTU 102	0	0	0	2	2	0	0	0	0	0	2	36	37	1	0	0	12	5	0	8	5	0	29	7	2	0	23	15	0	0	38	3	1	101	0	6	44	0	0	4	0	26	21	0	26	4	11	86	0	3
OTU 103	4	3	0	54	25	0	1	11	12	2	25	12	1	1	1	8	31	20	7	4	73	5	0	76	24	0	0	17	5	7	0	7	15	1	2	0	8	1	7	1	0	819	63	0	0	3	32	71	23	5
OTU 104	20	57	3	29	52	3	146	17	8	7	14	3	6	12	17	22	281	27	0	18	5	17	18	96	31	8	45	1	29	6	2	28	91	46	64	10	58	6	24	19	25	38	20	47	11	37	31	41	22	120
OTU 105	0	0	0	1	12	0	6	1	10	0	15	4	0	1	0	2	1	0	0	2	0	0	5	0	0	0	0	0	0	3	3	0	32	44	9	0	0	0	22	81	0	1	0	0	1	0	0	17	15	175
OTU 106	0	0	0	4	619	48	63	22	3	1	20	34	0	12	5	1	0	124	0	0	12	6	28	9	33	0	0	0	0	0	7	5	1	1	49	0	6	0	79	10	0	3	0	25	7	0	24	0	0	26
OTU 107	4	3588	5	14	14	11	0	0	0	0	40	23	0	43	0	0	6	1	0	5	0	6	12	38	0	0	14	0	0	0	0	4	0	1	13	3	3	3	0	0	1	0	6	0	0	1	5	0	0	2
OTU 108	0	26	56	49	8	48	13	32	12	0	9	8	15	43	34	0	271	0	5	47	0	0	8	33	7	7	4	0	30	4	3	32	20	31	7	2	13	19	3	28	19	31	1	48	0	0	0	9	3	36
OTU 109	0	0	0	1	0	0	0	0	0	0	0	0	1	0	0	0	0	0	0	1	1	0	0	0	0	0	0	0	0	0	0	0	0	0	0	2	0	0	0	0	0	0	0	0	0	0	0	0	0	0
OTU 110	7	95	33	60	85	72	0	6	47	31	19	4	3	16	1	2	9	3	0	0	12	73	5	17	16	12	25	3	53	27	2	3	9	8	0	0	35	5	60	68	3	79	441	36	3	68	10	8	0	71
OTU 111	0	0	0	3	0	1	0	0	0	0	0	0	0	0	9	0	8	0	0	0	0	4	0	8	8	3	0	3	0	0	0	0	0	28	1	5	1	18	0	10	2	0	28	0	12	4	0	0	0	0
OTU 112	0	2	58	4	0	29	19	6	0	2	1	11	26	51	30	0	25	5	1	2	28	10	0	5	0	6	0	0	4	0	2	2	3	2	0	0	5	4	0	0	3	55	13	0	0	1	1	1	0	0
OTU 113	0	0	0	2	21	2	0	4	0	0	0	11	0	0	0	1	0	17	0	5	21	0	0	2	7	0	0	0	0	0	0	0	0	0	0	52	6	0	15	0	0	1	41	1	0	0	0	4	0	7
OTU 114	5	4	164	148	24	61	34	7	82	38	60	81	78	28	141	15	466	5	104	2	145	90	24	91	87	125	32	30	0	35	55	27	36	62	87	87	1	200	36	16	74	31	69	575	55	156	8	54	160	2
OTU 115	11	50	77	28	121	61	76	57	39	9	70	56	30	98	50	19	228	1329	37	920	40	18	18	14	11	37	109	28	4	11	32	161	156	154	80	57	30	68	2624	16	11	77	343	66	13	17	1493	113	10	14
OTU 116	7	1006	123	52	0	42	41	21	3	6	34	3	7	31	7	19	0	3	87	1	66	10	77	11	121	16	16	56	50	1	11	244	66	21	0	5	28	8	32	2025	5	56	63	87	47	2	1	233	15	87
OTU 117	14	79	97	0	160	106	16	20	101	63	30	10	0	3	10	14	58	44	1030	8	3	71	3	2	37	21	16	43	35	47	621	21	78	40	0	39	2	17	6	62	5	27	70	80	23	133	5	13	127	67
OTU 118	0	20	0	0	0	0	9	23	0	0	1	0	2	2	2	0	30	0	3	0	6	2	0	0	1	2	25	0	2	0	0	0	6	0	11	0	0	5	1	0	0	1	9	77	10	0	0	0	0	0
OTU 119	3	19	126	19	84	162	39	79	26	4	20	14	150	46	0	35	133	49	5	9	25	0	18	20	8	0	24	99	13	12	5	107	115	20	45	18	102	4	51	36	8	219	3	55	50	12	6	51	83	65
OTU 120	3	0	1	5	1	26	2	0	0	0	30	0	65	0	1	2	26	0	3	0	0	0	13	0	16	1	2	57	0	0	10	0	0	17	2	4	14	28	0	19	7	14	0	141	0	0	7	56	0	0
OTU 121	3	1	3	2	98	0	0	0	64	39	27	8	0	9	43	17	35	0	4	0	11	49	0	0	62	33	1	56	57	29	24	2	157	15	32	77	16	79	3	94	51	29	89	4	22	36	0	16	126	0
OTU 122	16	4	6	84	100	98	384	59	3	1519	8	200	58	466	4	15	54	17	27	234	0	3024	2	14	250	0	389	29	0	0	0	65	54	0	70	97	12	8	2	1	5	15	22	5	3	3809	60	12	7	32
OTU 123	8	119	174	207	26	69	64	120	33	21	66	58	233	311	73	35	134	101	161	85	60	64	69	59	109	76	98	47	117	112	36	90	38	200	270	65	185	86	117	245	28	342	85	287	49	91	53	135	54	151
OTU 124	646	44	0	21	34	1	10	0	0	0	17	2	0	10	0	1259	16	0	1	1	10	0	0	1	0	0	0	0	0	0	0	6	52	40	18	6	0	0	10	3	2	76	0	0	1	1	0	0	3	1502
OTU 125	510	48	392	164	75	44	419	14	39	29	6	49	12	174	96	88	141	62	44	79	157	91	337	211	182	170	109	51	155	27	25	404	113	37	83	9	8	234	100	77	73	135	54	177	36	44	109	132	88	155
OTU 126	6	6	0	0	29	92	0	13	10	0	0	0	0	16	0	4	0	17	0	2	0	1	0	19	0	0	14	0	0	4	1	0	0	0	21	0	0	0	2	0	0	0	0	0	0	23	0	1	6	0
OTU 127	0	0	901	44	2	21	19	16	8	0	9	2	0	71	0	0	39	11	0	25	10	0	30	2	10	0	17	0	3481	2	7	40	99	29	21	9	15	1	0	3	21	9	0	13	3	21	0	51	63	92
OTU 128	23	136	231	215	150	40	67	21	121	24	319	72	88	174	34	57	385	207	120	104	161	59	136	220	117	27	217	605	30	75	44	215	459	138	316	108	96	102	371	85	43	296	99	275	102	58	127	144	57	354
OTU 129	0	0	0	0	34	0	1	0	17	39	0	2	3	0	1	3	0	45	0	0	2	61	2	3	0	1	0	0	0	5	0	0	0	70	0	14	5	0	2	0	0	0	0	0	0	52	8	1	93	0
OTU 130	65	1	7	291	27	331	1	55	4	0	60	0	7	0	4	143	92	0	0	1	21	0	11	7	42	5	0	6	5	2	2	1	16	130	345	2134	0	9	11	9	7	48	115	14	26	14	0	50	9	6
OTU 131	0	0	61	26	127	1	14	1	2	0	7	7	0	24	42	1	3	155	48	1	67	2	3	80	17	43	18	25	12	2962	2	1	4	43	22	0	114	40	21	9	23	100	52	1	11	8	55	0	5	2
OTU 132	1041	18	0	0	2	33	1	2	13	1	0	1	0	48	0	0	1	18	0	15	0	0	1	1	1701	4	30	20	11	2	1	0	3	44	0	7	24	0	14	10	8	4	1	0	1	15	1	0	45	2
OTU 133	0	0	0	25	6	0	11	0	0	0	0	15	0	42	0	0	0	0	0	48	33	0	0	0	7	0	1	1	11	0	0	38	2	19	0	1	0	0	11	0	0	0	0	0	0	9	6	7	5	0
OTU 134	1	0	0	71	30	32	61	2	0	8	205	9	81	61	2	1	14	10	14	4	0	19	0	5	6	0	2	0	6	0	303	15	33	5	89	6	137	5	72	0	1	17	66	10	10	14	48	22	0	3
OTU 135	16	0	4	51	7	208	190	114	171	50	44	32	3960	11	85	86	74	4	154	8	15	114	21	360	0	105	15	45	7	228	122	2	4	56	7	145	3	180	0	19	81	7	2	5	21	191	27	33	407	165
OTU 136	40	81	1	91	25	3	67	8	8	0	85	0	13	45	22	59	84	6	3	40	1	0	45	40	145	21	5	0	3	4	3	42	3	31	57	15	58	35	0	0	8	93	76	24	5	33	4	3	53	1
OTU 137	2	1	31	2	0	1	0	0	3	1	0	4	0	45	3	4	13	1	11	44	0	7	0	12	0	10	0	0	1	3	2	2	86	3	0	2	101	63	0	0	10	0	1	10	14	0	0	3	17	0
OTU 138	4	2	0	29	0	0	19	0	0	0	33	65	0	0	0	0	5	21	48	3	0	0	4	20	0	0	62	0	4	0	42	0	0	0	10	1	9	0	119	0	0	23	0	0	12	1	67	0	0	9
OTU 139	30	11	45	31	84	39	40	21	110	46	58	128	112	14	10	12	101	92	1	8	77	105	0	10	126	0	39	1	17	70	3	20	55	3	65	15	165	26	124	8	35	25	263	103	36	119	16	118	125	99
OTU 140	51	133	36	158	114	44	800	34	36	46	73	108	219	24	10	71	349	161	29	11	181	85	43	15	369	7	252	47	21	22	59	43	1615	276	298	44	326	9	121	31	63	129	112	52	114	72	40	82	35	73
OTU 141	0	0	0	0	0	0	0	0	0	0	0	0	0	0	0	0	0	0	0	0	117	0	0	0	0	0	0	0	0	0	0	0	0	0	0	0	0	0	0	0	0	0	0	0	0	0	0	0	0	0
OTU 142	0	0	0	17	0	43	20	0	0	0	0	0	0	0	0	1	0	0	0	0	22	0	0	0	0	1	10	0	0	0	0	1	0	0	0	0	0	0	0	0	0	0	0	0	1	5	0	0	1	0
OTU 143	0	0	0	0	0	0	0	0	2	337	8	9	1	1	13	0	7	4	0	0	0	670	1911	4	0	28	0	10	6	3	3	11	1	0	23	13	0	81	0	59	8	13	1	0	0	0	0	45	0	0
OTU 144	0	0	0	1	0	0	60	2	0	0	1	0	4	1	0	2	9	16	0	0	2	2	0	5	0	0	4	0	1	0	0	0	26	8	0	93	18	0	0	0	0	1	0	0	0	0	0	16	3	0
OTU 145	8	52	5	83	58	43	131	20	52	41	29	15	1	315	0	13	5	20	6	214	68	60	43	68	83	7	64	11	65	20	30	79	12	166	5	125	38	14	36	29	7	12	90	28	19	36	0	140	38	89
OTU 146	15	15	143	0	130	1	70	2	2	0	8	16	1	199	9	11	35	11	45	133	26	0	34	15	18	2	24	9	0	1	21	28	6	0	10	2	155	32	9	2	4	0	215	8	0	13	49	2	1	24
OTU 147	0	3	2	4	25	3	0	16	19	1	25	21	2	12	0	3	79	49	0	25	5	0	0	1	68	0	31	12	1	11	1	0	319	37	0	23	43	4	3	1	1	1	4	1	8	0	0	3	0	0
OTU 148	13	6	160	3	152	3	43	0	25	2	5	11	6	187	0	5	102	35	22	101	4	0	0	4	8	2	1	1	4	12	19	256	136	354	99	13	8	0	25	42	2	7	11	81	5	17	6	29	95	33
OTU 149	0	1	0	0	39	0	48	0	12	6	92	27	0	13	0	0	2	0	0	2	18	8	17	0	0	0	32	1	2	6	0	25	0	1	9	15	1	1	2	0	16	4	57	8	3	13	10	63	15	0
OTU 150	2	24	0	1267	9	31	8	0	12	2	0	24	5	1	5	1	61	0	1	0	0	0	0	6	23	0	2	22	2	6	0	9	0	0	0	1	13	0	0	11	10	4	1	0	0	2	0	0	0	3
OTU 151	9	8	3	326	17	11	10	53	2	17	0	1	0	28	5	20	4	0	10	20	0	43	6	83	19	10	8	101	8	0	20	16	15	70	0	1	3	11	0	5	1	109	29	34	14	0	6	0	17	2
OTU 152	3	2	108	6	15	0	9	9	80	21	18	156	63	27	16	29	41	2628	53	3	21	33	11	27	40	10	61	30	408	33	84	56	4	6	2	9	82	14	0	13	18	33	0	51	6	19	21	71	335	9
OTU 153	0	0	0	0	0	0	0	0	0	2	13	36	0	2	0	2	0	0	0	0	0	0	13	0	0	0	2	0	1	0	0	0	0	0	0	0	0	0	0	87	0	0	0	0	0	0	0	2	0	0
OTU 154	0	2	0	0	0	10	6	1	10	0	1	1	0	4	0	0	0	8	0	0	0	0	13	0	0	0	0	0	37	5	0	3	0	0	0	28	0	0	1	0	2	0	449	18	0	0	0	1	2	0
OTU 155	0	2	23	0	48	22	0	0	11	0	0	37	0	14	5	1	10	2	3	11	68	0	4	1	42	6	22	2	41	4	6	9	28	3	0	0	0	4	44	1	4	12	11	4	4	0	3	0	27	4
OTU 156	2064	171	81	91	72	140	21	10	44	18	94	15	4	82	16	3780	79	2	5	166	87	30	23	96	37	24	1	5	25	19	6	3	109	20	143	26	6	54	0	14	33	188	20	37	7	33	1	15	43	48
OTU 157	1	0	4	52	0	836	1	271	0	0	0	0	0	0	0	3	18	3	0	0	45	1	0	34	19	0	0	0	0	0	4	0	24	1	59	0	0	3	31	17	22	23	93	0	9	0	4	0	0	437
OTU 158	0	0	0	0	0	0	4	12	0	0	0	4	0	69	0	6	0	0	0	17	0	0	0	0	0	0	8	0	0	0	0	0	33	0	0	0	0	0	0	1	0	0	10	0	0	0	0	0	0	0
OTU 159	4	14	24	2	1	0	316	37	20	3	0	5	6	163	9	15	5	91	10	89	75	13	13	8	64	9	34	8	10	10	13	23	26	1	40	19	14	26	63	81	30	6	23	34	10	0	42	68	0	52
OTU 160	20	298	67	139	352	202	52	66	19	3	38	72	339	87	9	89	5	935	51	19	40	8	1308	187	9	27	135	58	89	5	36	26	71	157	5	7	1326	23	1781	565	15	142	41	2	23	21	677	14	3	104
OTU 161	1	1	50	0	184	30	127	18	0	0	16	41	8	96	2010	1	21	1	0	61	43	0	10	5	34	1990	17	1607	93	0	8	11	46	20	12	1686	1	3962	0	69	2045	7	73	16	3	16	3075	173	4	0
OTU 162	0	2	70	13	3	169	231	122	25	26	0	3	1	23	66	34	2	56	167	11	34	28	55	113	27	57	2	119	54	14	104	544	1	176	10	30	62	133	49	28	101	449	47	7	2103	31	49	853	51	7
OTU 163	0	0	0	0	0	0	45	0	0	0	0	0	0	0	0	0	0	0	0	0	0	0	0	0	0	0	0	0	0	0	1	0	0	0	0	0	0	0	6	0	0	1	0	0	0	10	0	0	0	0
OTU 164	0	0	0	0	94	0	0	1	0	0	1	0	3	0	0	0	0	0	0	0	0	0	3	0	5	0	4	0	0	0	0	0	0	0	0	0	0	0	0	11	0	0	0	2	0	0	0	0	4	17
OTU 165	0	10	6	30	7	7	14	8	1	35	0	0	0	39	1	1	0	0	0	9	1	50	702	0	0	4	0	11	5	0	0	28	9	0	64	3	16	2	0	0	3	1	6	8	0	0	5	12	1	52
OTU 166	0	0	0	4	0	0	0	0	0	0	0	0	0	0	0	0	1	0	0	0	0	0	1	0	0	0	0	0	0	0	0	1	3	0	0	0	0	0	0	0	1	0	0	0	0	0	0	0	0	0
OTU 167	1	10	10	34	1	116	3	21	14	1	57	1106	5	107	3	5	8	59	36	51	11	5	0	15	39	10	2841	8	2	6	26	4	1	33	17	0	1	3	19	1	6	0	69	0	2	9	2	36	0	0
OTU 168	1	76	27	15	18	163	4	74	7	10	92	7	101	57	0	0	2	3	3	45	38	20	69	9	11	4	2	10	15	3	0	71	14	12	30	21	22	8	74	19	3	17	47	133	22	1	4	35	21	29
OTU 169	0	0	0	0	0	0	0	4	0	4	3114	0	0	10	0	0	0	0	8	4	17	14	3	3	0	0	22	3	7	0	26	0	1	0	0	0	1	0	136	1	0	0	2	0	2	0	21	4	0	0
OTU 170	0	0	0	0	0	0	0	0	0	6	0	1	0	0	1	0	0	0	0	0	0	10	5	0	0	0	0	0	0	0	0	0	0	0	0	0	77	0	0	0	0	0	0	0	31	21	0	0	0	0
OTU 171	12	5	22	207	192	21	5	2	19	52	0	404	52	99	38	6	10	30	67	39	4	124	44	15	0	17	669	10	0	8	14	47	0	18	272	5	144	24	13	7	2488	0	8	1	30	51	0	38	103	3
OTU 172	1	3	0	0	0	3	0	0	0	16	4	0	0	0	0	5	0	0	0	0	0	18	158	6	0	0	4	0	0	0	0	0	0	0	0	0	0	0	21	0	0	11	39	2	0	3	0	2	0	0
OTU 173	0	58	9	1	0	3	5	18	0	1	40	7	0	1	0	0	30	1	21	0	2	1	0	5	0	2	150	4	0	0	2	5	69	29	0	0	0	10	0	0	6	0	0	85	0	0	0	22	0	0
OTU 174	0	2	4	21	24	8	48	0	1	0	12	2	0	13	4	4	1	16	27	9	0	0	2	0	25	2	20	7	0	1	17	4	11	0	47	0	0	15	12	16	7	31	24	17	1	1	11	4	3	34
OTU 175	1	1	8	4	0	21	31	40	7	10	1	2	0	10	0	0	122	0	33	0	11	17	78	0	3	0	12	0	1	2	24	18	16	0	2	15	0	0	13	89	2	73	55	1	5	79	3	0	162	5
OTU 176	24	1	87	36	35	15	109	43	12	37	23	113	10	127	11	12	385	24	0	123	78	118	61	2	95	0	30	1	97	4	2	25	29	7	27	27	0	2	2	27	0	5	11	0	15	34	0	45	33	15
OTU 177	5	10	94	273	120	23	108	20	11	23	26	10	8	25	22	23	10	22	1	13	0	33	10	6	27	81	8	1	27	1	17	212	0	213	47	6	27	114	117	0	59	72	13	30	2	27	28	150	6	46
OTU 178	1	18	1	8	0	16	166	97	1	0	0	10	9	0	28	13	0	6	22	0	4	0	7	0	2	4	47	1	0	0	1	48	34	22	35	2	9	12	118	2	26	54	20	15	1	1	63	4	0	51
OTU 179	1	2	2	56	181	0	3	1	13	1	2	123	2	35	0	1	0	0	16	1	2	1	3	4	11	0	274	0	29	7	14	108	158	22	46	29	0	7	3	20	2	32	1	76	6	45	0	6	4	3
OTU 180	58	162	2041	208	259	73	131	22	51	29	74	66	38	33	19	13	153	106	39	13	329	56	160	64	57	57	54	47	21	20	11	82	24	363	223	20	49	61	80	83	32	277	466	100	65	41	7	28	168	100
OTU 181	4	4	6	78	135	6	2	0	1	7	5	2	2	0	5	8	21	33	1	27	41	5	94	2	7	0	72	6	41	0	1	1	0	35	140	0	4	5	35	57	2	67	6	8	18	1	10	0	3	2
OTU 182	0	0	0	0	0	7	18	4	0	0	0	8	1	0	3	0	0	2	0	2	0	0	0	0	0	1	0	0	0	0	0	0	5	0	0	0	0	0	19	0	1	0	0	0	0	0	0	0	0	0
OTU 183	16	18	5	22	5	14	47	14	14	4	29	691	0	38	2	23	48	168	6	13	3	36	0	34	32	0	0	0	8	5	6	21	108	290	34	15	0	6	144	7	8	68	13	0	3	0	1361	127	19	60
OTU 184	2	20	0	2	0	2	57	6	1	22	0	3	3	55	0	10	0	0	425	47	22	19	7	0	3	1	53	4	0	0	116	23	0	147	1	2	0	0	0	1	0	11	22	4	48	12	3	1	2	1
OTU 185	3	10	24	13	8	2	15	2	35	2	0	6	3	21	9	7	16	18	61	0	48	4	20	33	25	0	83	31	351	15	18	2	132	333	18	10	0	19	40	54	7	27	1	51	0	11	67	18	61	100
OTU 186	0	19	1	0	0	0	0	5	21	6	9	2957	0	0	7	0	2	0	3	1	5	19	0	0	29	21	9	0	14	12	6	0	5	185	140	0	0	14	101	5	12	0	0	28	3	9	41	0	0	1
OTU 187	19	6	323	132	34	5	6	23	27	107	125	10	119	126	5	29	25	36	68	22	303	38	16	69	32	2	82	33	17	13	77	67	207	109	87	1	203	12	64	105	32	9	1	41	4	30	70	56	90	92
OTU 188	104	19	8	144	66	448	96	2945	511	229	7	82	49	151	275	161	95	136	515	51	88	528	29	327	101	363	9	265	245	241	202	3342	147	85	3	381	85	591	3	13	291	101	49	41	147	412	17	10	1057	95
OTU 189	1	29	167	6	2	69	33	798	105	28	96	148	35	11	27	4	73	2	323	12	11	51	131	100	31	10	119	7	20	50	182	67	21	6	159	8	7	22	67	22	1	111	170	174	34	69	111	9	95	98
OTU 190	0	30	0	1	0	0	24	0	1	1	24	0	0	76	2	4	0	0	9	49	6	1	0	0	19	0	0	0	0	0	0	0	0	110	74	0	0	0	0	0	0	0	784	0	25	0	3	0	13	64
OTU 191	156	59	32	5	156	19	10	8	11	7	4	19	45	24	8	369	16	0	25	17	9	2	114	12	531	4251	29	2	48	6	10	65	249	37	183	105	3	26	81	76	2	186	62	10	22	1	36	46	43	27
OTU 192	4	4	25	5	29	44	41	55	4	7	150	23	104	301	12	9	318	26	2	133	201	26	122	30	17	4	40	16	57	1	2	76	35	50	69	4	142	11	8	67	5	217	231	2657	84	71	4	52	38	19
OTU 193	2	16	83	42	19	17	145	0	25	0	0	4	18	25	0	0	304	45	36	9	11	2	0	2	4	0	5	81	3	17	31	20	221	64	11	0	24	7	18	33	14	15	114	29	13	5	2	40	35	75
OTU 194	1	67	62	4	0	94	0	25	8	0	40	16	2	15	0	0	0	0	0	8	15	1	43	0	88	0	24	13	19	1637	0	0	331	0	57	9	32	0	65	2	1	120	161	10	65	0	7	20	0	0
OTU 195	0	8	44	25	13	29	2	5	0	19	13	0	0	62	1866	8	0	43	8	43	0	42	45	14	12	0	22	2	45	0	0	3	41	45	39	92	118	4	11	52	0	26	10	38	1	0	94	0	2	4
OTU 196	1	4	13	6	42	4	76	19	9	0	23	27	48	3	2	4	0	3	9	6	2	0	2	45	17	0	3	10	0	6	59	10	18	30	96	14	8	0	13	0	0	2	63	6	2	4	2	24	1	6
OTU 197	4	19	128	168	217	31	114	22	278	3182	26	213	8	185	58	46	83	48	16	178	8	17	159	47	124	38	66	2	30	127	13	141	84	340	484	25	22	80	158	15	2083	119	35	51	33	37	109	53	108	41
OTU 198	0	4	39	46	16	0	3	6	16	0	4	0	10	37	0	0	10	15	1	20	2	0	15	0	3	0	0	0	0	9	3	0	1	0	0	2	0	0	0	0	3	36	3	0	0	0	1	1	34	42
OTU 199	0	18	0	82	0	3	3	0	1	0	3	7	11	5	0	1	12	2	0	4	14	0	125	23	9	8	32	17	0	1	9	10	0	0	0	0	89	2	0	34	0	42	0	31	2	9	0	4	2	7
OTU 200	1	4	32	121	51	4	1	0	14	0	6	33	8	61	0	6	11	22	8	68	1	12	186	0	38	2	88	0	8	2	2	70	62	6	68	10	84	6	3	5	11	125	6	3	7	4	8	10	76	103
