	Host 1	Host 2	Host 3	Host 4	Host 5	Host 6	Host 7	Host 8	Host 9	Host 10	Host 11	Host 12	Host 13	Host 14	Host 15	Host 16	Host 17	Host 18	Host 19	Host 20	Host 21	Host 22	Host 23	Host 24	Host 25	Host 26	Host 27	Host 28	Host 29	Host 30	Host 31	Host 32	Host 33	Host 34	Host 35	Host 36	Host 37	Host 38	Host 39	Host 40	Host 41	Host 42	Host 43	Host 44	Host 45	Host 46	Host 47	Host 48	Host 49	Host 50	
OTU 1	3	43	14	41	3	453	2	45	232	8	39	23	1	14	322	86	12	112	838	20	48	777	19	464	12	1	136	288	3	52	442	28	4	0	0	308	83	667	179	40	73	30	2	8	93	665	108	6	1349	0
OTU 2	9	14	0	2	4	20	0	7	0	0	2	0	0	24	1	1	110	1	0	6	350	0	5	1	1	0	1	1	0	6	0	0	58	6	7	1	18	14	49	22	0	3	4	24	1	0	26	0	0	21
OTU 3	0	0	0	0	0	0	0	0	0	41	1	0	0	0	0	0	21	0	9	27	0	0	0	0	0	90	1	0	0	117	0	1	7	6	27	0	1	6	25	0	0	86	56	11	0	1	12	0	1	6
OTU 4	0	0	0	0	0	0	0	0	0	0	0	0	0	0	0	0	0	0	0	0	0	0	0	0	0	0	0	7	0	0	0	0	0	0	0	0	0	0	0	0	0	0	0	0	0	0	0	0	0	0
OTU 5	6	295	47	69	7	230	1092	1037	802	347	154	202	670	436	211	110	87	253	1769	0	295	98	790	23	510	176	1	294	188	95	709	84	9	0	0	1090	1187	86	36	1021	125	5	584	94	193	99	34	80	159	49
OTU 6	38	25	4	479	0	2354	13	27	9	103	4	52	15	3	0	1	171	26	2	24	11	2	6	2	61	0	28	1	1	33	19	11	8	59	0	1	34	9	4	1	0	179	2	87	1	7	2	1	3	2
OTU 7	77	43	40	62	147	18	68	27	16	83	922	20	13	188	18	18	213	16	46	312	6	40	11	6	60	59	37	19	390	134	10	13	33	99	155	601	45	31	19	94	449	30	15	1	9	28	12	52	39	289
OTU 8	21	111	109	0	175	13	364	109	2	55	204	15	139	118	9	30	132	29	12	50	25	1	36	11	175	91	10	31	162	70	0	5	32	1	11	9	71	35	41	32	153	5	89	60	3	2	18	32	5	45
OTU 9	61	1	68	2	86	8	2	22	6	1	1	21	44	13	17	13	5	29	11	3	16	1	0	44	0	0	0	0	0	27	22	37	10	0	17	1	20	9	0	0	0	0	2	11	1908	1	0	66	1	15
OTU 10	20	1	0	0	0	0	0	30	0	1	53	6	0	20	0	0	2	0	0	0	86	4	1	0	0	0	1	0	0	3	0	24	0	66	14	1	9	0	3	35	1	27	53	0	11	5	2	6	4	10
OTU 11	168	16	15	19	26	0	1	7	15	53	46	22	49	0	13	17	53	30	4	28	11	14	3	11	8	41	0	11	77	31	5	43	21	12	34	0	121	9	76	4	0	9	125	117	5	29	46	11	23	35
OTU 12	10	2	6	392	201	2	139	74	11	36	2	100	8	11	23	9	124	12	66	47	63	25	18	46	295	69	87	5	21	3	4	43	142	83	72	21	7	31	9	22	5	95	62	32	106	27	2	28	62	173
OTU 13	1	1	0	0	0	0	0	3	0	0	0	0	0	51	0	0	0	0	2	0	4	0	0	0	0	0	0	0	0	1	0	1	0	0	8	0	0	0	1	0	0	0	0	0	1	0	0	0	0	0
OTU 14	0	1	31	31	14	3	35	3	8	6	11	3	0	28	0	0	14	13	0	0	22	12	1	20	39	279	1	0	0	14	11	5	147	19	5	4	0	4	22	3	11	1	2	1	4	2	6	0	7	18
OTU 15	0	0	0	0	0	0	0	0	0	5	0	0	0	0	0	0	0	0	0	0	1	0	13	0	0	0	0	0	0	0	0	0	15	0	0	0	0	0	0	0	0	0	8	0	0	0	0	0	0	0
OTU 16	0	0	0	0	0	0	0	0	0	0	0	0	0	0	0	7	0	0	0	0	0	0	1	0	0	0	0	0	0	0	0	0	0	0	0	0	0	11	0	0	0	0	0	0	0	0	0	2	0	0
OTU 17	23	23	4	26	18	0	18	23	0	46	2	71	12	10	0	23	62	38	20	201	1	14	29	12	11	24	62	27	1	5	0	81	17	88	517	0	1	11	53	0	0	0	0	1	57	9	32	0	11	32
OTU 18	85	78	115	8	107	0	6	70	3	4	30	51	11	2	1	7	58	30	7	21	527	25	4	4	8	178	16	0	35	14	7	48	121	88	79	35	30	21	3	40	63	10	58	7	0	11	3	15	17	182
OTU 19	0	0	0	0	0	0	0	0	0	0	0	0	0	0	0	0	0	2	2	0	0	0	0	0	0	0	0	0	0	0	0	0	0	0	0	0	0	0	0	0	0	24	0	0	0	0	0	0	0	0
OTU 20	3	56	30	14	90	14	80	41	0	0	200	47	11	1	0	4	109	1	8	58	13	1	15	0	75	33	23	24	110	34	1	6	153	164	12	2	113	2	35	7	175	57	56	12	1	7	23	38	0	229
OTU 21	1	6	392	17	70	657	0	6	130	214	246	34	41	283	139	5	20	0	579	29	200	569	58	354	0	1211	0	252	42	28	213	20	35	220	31	237	70	467	6	1	60	132	5	4	63	620	3	3435	1012	19
OTU 22	1	7	52	58	139	63	34	17	28	4	133	25	108	25	61	13	135	7	61	170	14	27	2	106	19	75	40	12	57	7	55	17	141	12	444	69	273	49	0	56	5	200	14	238	1	43	0	13	103	7
OTU 23	70	0	0	4	152	8	8	26	5	2	0	1	0	31	19	45	28	20	3	22	54	3	9	34	16	49	1	0	35	48	15	86	17	3	3	0	10	0	0	17	2	73	3	3	4	0	0	73	0	1
OTU 24	101	6	54	0	1	0	35	143	0	0	303	3	4	48	9	6	13	0	4	1	16	0	40	3	13	82	0	0	1	44	0	35	86	33	0	9	0	0	1	20	8	3	13	0	7	0	0	0	0	36
OTU 25	0	0	0	72	0	0	0	100	0	0	0	0	0	0	0	0	0	0	0	0	0	0	0	0	3	0	0	0	0	0	0	0	0	0	0	0	0	0	13	0	17	0	45	0	1	0	3	0	0	0
OTU 26	0	0	56	1	0	0	100	19	0	0	0	2	19	0	1	0	0	0	0	20	0	0	0	2	8	2	0	1	2	0	1	0	10	0	0	2	10	0	0	0	2	0	17	0	16	0	0	0	0	7
OTU 27	237	0	0	0	0	6	0	0	0	0	0	0	0	0	0	0	0	0	0	0	0	1	0	0	0	0	0	0	1	0	0	49	0	0	0	0	0	0	0	0	0	0	0	0	0	0	0	0	0	0
OTU 28	14	15	217	140	72	28	41	127	24	143	201	13	23	4	1	8	94	25	9	89	13	24	2	6	0	22	16	2	60	2	53	29	2	9	68	13	9	22	34	3	209	35	71	30	13	14	28	19	43	7
OTU 29	0	47	27	8	21	662	70	24	133	51	24	2	4	43	382	10	21	27	749	41	32	751	4	822	31	18	6	271	0	969	272	34	27	35	53	276	14	710	68	106	14	21	40	0	195	656	43	9	1336	105
OTU 30	1	0	0	0	0	0	53	0	0	0	0	11	0	0	0	0	0	0	0	0	0	0	0	0	0	0	10	0	0	0	0	0	0	0	0	0	0	0	0	0	0	0	0	0	0	0	0	0	0	0
OTU 31	3	0	68	48	4	3	56	18	0	0	0	41	2	52	0	0	0	0	12	5	0	1	55	1	4	39	0	17	8	78	0	0	0	0	1	0	2	1	5	0	0	46	4	43	394	0	1	0	0	111
OTU 32	3	20	39	55	179	33	75	33	2	3	35	37	2	13	14	0	103	3	2	0	48	29	166	27	0	24	75	100	20	43	2	11	14	9	4	8	25	11	5	30	48	173	7	83	14	21	3	13	47	115
OTU 33	0	0	0	0	0	2	0	12	0	0	18	0	1	0	0	0	43	1	0	28	0	0	0	5	0	0	0	1	2	0	0	0	0	0	0	0	0	0	0	0	13	0	7	5	0	0	0	0	0	1
OTU 34	42	86	20	75	19	109	8	62	11	17	42	8	172	154	817	0	147	15	27	16	63	88	2	77	118	1	27	9	30	17	31	2	114	41	1	42	842	22	5	127	25	8	13	1	16	28	5	2	108	390
OTU 35	43	0	5	21	22	26	255	10	22	2	28	247	31	15	13	3	71	1	5	0	0	57	39	7	630	21	128	0	15	13	46	140	5	66	16	24	52	0	115	1	26	14	19	30	1	7	61	2	10	207
OTU 36	22	14	0	77	37	17	16	5	3	15	7	4	2	2	4	43	18	59	17	46	50	5	100	48	6	54	1	3	53	33	5	17	104	1	2	24	20	11	187	41	11	78	102	575	13	15	78	0	16	0
OTU 37	21	12	6	0	5	0	0	0	0	0	2	2	0	222	0	1	0	0	0	0	0	0	0	0	32	310	0	10	0	27	0	0	17	0	23	10	0	2	5	7	4	59	27	1	4	1	1	25	0	49
OTU 38	26	183	60	150	0	0	29	20	734	15	40	3	3	16	7	3	7	2	9	60	30	13	31	14	10	7	14	6	0	15	1585	47	8	13	8	830	8	12	20	315	4	17	13	0	5	11	8	177	28	3
OTU 39	8	0	2	171	13	0	1	10	0	15	42	0	11	8	8	0	0	0	0	126	0	0	1	8	0	35	2	1	1	0	0	14	1	16	1	3	6	0	0	13	0	0	22	0	0	0	0	0	3	0
OTU 40	69	13	8	2	30	17	29	34	3	1	1	9	35	4	9	0	109	1	32	6	219	11	10	10	4	244	11	0	1	11	13	6	44	124	0	9	42	14	11	33	109	43	29	35	2	14	7	16	33	10
OTU 41	4	41	0	82	5	0	40	179	0	19	7	15	13	59	5	34	3	10	3	54	63	2	34	18	37	7	36	4	6	0	0	6	53	45	177	0	36	3	59	28	11	14	61	41	3	3	32	0	6	387
OTU 42	41	3	0	92	55	0	0	17	1	0	0	4	12	0	4	8	19	0	24	0	0	9	0	2	1	0	0	0	10	1	0	1	3	2	0	4	16	0	0	25	0	0	0	0	5	24	0	18	27	0
OTU 43	0	0	0	0	0	0	9	0	6	0	0	0	0	1	0	0	0	0	5	0	0	0	0	0	0	0	0	0	2	0	5	0	0	0	0	1	0	0	0	0	0	0	0	0	0	0	0	0	0	0
OTU 44	0	0	0	0	0	1	0	28	0	49	41	0	0	0	4	1	0	7	3	17	3	1	3	0	185	64	0	0	2	0	0	2	0	0	7	16	0	0	14	52	0	2	0	0	3	0	6	0	0	7
OTU 45	59	14	3	21	102	4	29	6	14	4	11	19	10	119	12	26	76	4	47	77	10	4	3	6	0	85	12	0	3	7	33	11	15	72	75	29	35	4	0	28	22	79	71	27	8	5	0	28	2	47
OTU 46	20	7	10	109	167	21	127	70	6	1	21	32	4	120	6	21	14	63	17	54	33	6	34	3	105	14	90	17	982	46	22	1	7	6	32	22	43	12	38	61	106	42	96	108	10	1	21	13	5	12
OTU 47	3	3	0	0	0	1	0	0	0	4	44	11	0	0	0	0	87	0	0	0	0	0	1	0	0	0	40	0	5	0	0	16	0	0	0	5	11	0	0	0	0	0	0	0	0	0	0	50	0	0
OTU 48	1	18	73	3	31	67	17	19	855	199	42	22	14	9	15	8	23	27	10	31	230	21	46	13	221	237	55	0	36	560	1614	0	28	265	25	5	1	16	24	5	8	257	32	13	6	1	13	15	15	52
OTU 49	114	3	41	18	19	0	7	0	15	12	27	0	0	1	0	0	0	0	54	19	5	15	60	15	61	38	9	3	50	0	21	0	57	2	1	4	34	0	10	4	32	68	22	2	0	10	11	22	34	0
OTU 50	131	0	76	55	458	0	0	167	15	112	28	23	6	3	4	3	125	10	6	49	21	16	5	4	66	42	97	1	6	224	26	55	47	55	89	10	7	13	1	87	130	48	634	127	7	21	0	79	34	159
OTU 51	47	3	5	20	3	2	1	8	0	3	18	49	25	0	1	0	20	0	1	0	7	2	9	2	9	11	6	20	0	71	6	39	0	10	2	0	8	1	2	22	16	40	17	47	0	0	0	10	0	40
OTU 52	170	36	0	29	69	15	18	8	2	72	30	19	10	377	6	28	391	96	6	86	60	2	27	2	30	50	51	22	64	59	11	112	71	12	47	0	48	29	34	15	53	20	93	45	54	38	17	172	48	8
OTU 53	0	0	0	0	0	0	1	0	0	0	0	0	0	0	0	0	0	0	0	0	0	0	0	0	0	0	0	0	0	0	0	0	0	0	0	0	0	0	0	0	0	0	0	0	0	0	0	0	0	0
OTU 54	10	22	62	7	19	15	120	120	150	20	6	7	2	79	23	6	27	45	1	6	1863	9	39	53	98	147	25	4	18	55	33	122	83	19	16	23	8	5	14	18	63	222	150	58	5	6	3	108	3	301
OTU 55	0	0	0	0	0	0	0	0	0	0	0	0	0	0	0	0	0	0	0	6	0	0	0	0	0	0	1	0	0	0	0	0	0	0	0	0	0	0	0	0	0	0	0	0	0	0	0	0	0	0
OTU 56	2	21	0	0	31	2	2	9	0	184	0	0	18	7	4	1	26	0	0	28	12	6	27	9	12	2	0	1	4	12	0	17	10	1	0	3	16	0	0	7	13	0	48	2	1	0	0	7	1	8
OTU 57	146	423	30	28	363	26	93	46	14	136	20	152	31	394	17	793	212	103	41	207	46	25	36	72	62	156	296	33	153	279	27	65	129	74	94	20	20	11	83	809	10	25	154	283	1700	22	32	105	27	125
OTU 58	3	11	1	0	4	2	110	16	0	60	3	10	10	14	0	9	26	5	1	3	30	0	0	2	11	71	8	1	8	11	0	4	1	7	28	13	0	1	13	31	33	25	0	1	0	0	8	0	2	0
OTU 59	1	19	1	90	5	0	14	76	0	0	6	9	5	13	0	35	235	43	1	62	2	3	36	0	1	8	44	4	1	16	1	0	0	0	18	1	48	4	8	116	59	16	3	0	0	2	4	2	1	3
OTU 60	14	8	2	49	76	6	32	31	0	190	26	5	3	54	0	24	183	13	1	49	125	2	71	21	7	79	24	17	5	33	0	18	21	55	13	17	85	21	36	24	47	14	70	59	4	4	25	144	7	24
OTU 61	54	134	17	93	280	51	8	149	296	825	1	28	76	1	1722	27	32	49	753	12	311	39	92	3883	13	13	0	21	9	173	429	47	20	108	42	21	85	84	85	147	38	54	26	92	736	31	46	41	64	61
OTU 62	1	2	11	1	27	0	20	0	4	7	2	3	0	6	5	3	0	3	0	7	0	16	0	3	7	2	0	0	0	95	1	0	18	15	1	4	4	2	6	0	1	0	12	0	0	21	5	49	15	2
OTU 63	20	29	0	0	5	1	0	4	0	2	11	15	6	14	0	1	26	0	0	365	18	28	9	0	0	54	157	17	0	8	1	7	88	61	62	0	11	3	0	0	11	1	76	124	0	18	0	37	40	13
OTU 64	30	35	51	47	116	24	4	56	7	33	39	30	39	142	30	19	167	29	12	57	65	43	61	51	78	21	34	20	13	80	15	37	62	176	19	61	35	38	43	40	81	25	4	61	61	88	17	0	73	59
OTU 65	0	0	0	0	0	0	0	0	0	0	0	0	0	2	0	0	0	0	0	0	41	0	0	0	0	0	0	0	0	0	0	0	0	0	0	0	0	0	0	0	0	138	0	0	0	0	0	0	0	0
OTU 66	67	4	22	51	108	6	2	2	11	1	7	31	6	56	0	8	224	13	38	3	13	20	1	11	15	6	133	2393	11	187	11	7	7	119	95	17	27	14	21	16	41	50	221	5	2	5	14	170	36	12
OTU 67	0	34	0	160	2	8	15	60	1097	41	0	11	4	0	1	1	39	78	15	2	1	57	9	8	0	114	9	12	434	44	2	14	218	5	17	0	0	25	1	30	30	4	18	31	4	10	0	3	15	4
OTU 68	112	0	6	80	196	30	27	8	0	0	7	10	5	1	2	6	2	0	18	0	21	0	2	2	39	0	0	0	0	8	3	0	0	14	18	0	4	0	4	36	2	0	10	3	0	1	1	5	5	37
OTU 69	39	36	17	36	221	2	29	84	2	23	70	6	3	86	12	8	76	13	0	12	40	2	11	24	30	1	17	0	45	155	3	37	103	1	21	13	17	0	0	27	160	31	5	4	1	3	0	2	1	0
OTU 70	173	42	0	2	15	0	65	0	1	14	75	30	30	0	0	0	9	0	10	64	1	0	12	0	0	1	90	0	3	7	7	36	18	4	36	0	3	0	2	45	0	21	10	9	3	1	0	8	7	35
OTU 71	44	5	33	2	11	0	82	64	22	2	44	7	15	20	0	331	0	696	30	1	70	20	0	0	7	2	5	24	6	18	40	64	0	0	0	17	0	32	0	28	0	54	0	80	0	32	0	22	29	1
OTU 72	442	33	109	59	7	8	115	27	0	22	23	11	240	21	2	27	35	7	6	46	5	14	5	13	1	93	26	0	10	19	4	75	62	50	88	3	54	8	38	39	2	90	4	53	48	14	23	103	4	70
OTU 73	52	29	0	80	33	19	1	20	0	136	7	21	16	57	1	22	49	3	0	29	106	0	45	4	20	18	1	0	123	5	0	31	2	89	34	21	30	9	9	31	8	85	30	0	0	0	6	5	1	8
OTU 74	0	0	1	0	0	23	80	19	9	7	57	74	106	232	11	1	8	0	14	115	39	20	22	22	31	12	145	19	0	2	39	7	96	304	154	2	259	15	25	13	90	78	21	105	69	60	11	13	102	2
OTU 75	4	49	27	4	183	20	5	24	6	100	6	10	94	51	7	87	24	133	0	20	885	18	38	6	4	294	82	9	6	4	6	2	72	631	326	2	249	40	143	0	56	159	11	23	2	10	61	59	24	118
OTU 76	97	71	13	0	0	1	13	9	2	88	73	0	0	5	4	0	4	12	0	0	0	4	19	0	0	0	1	1	4	0	13	119	29	35	138	0	0	0	9	248	0	0	36	0	19	1	4	69	0	0
OTU 77	124	4	22	21	31	45	66	172	7	25	141	33	6	19	3	3	9	20	19	8	38	41	32	1	13	0	10	356	0	25	12	51	88	5	1	3	2	29	18	6	1	117	1	9	10	18	8	9	40	7
OTU 78	242	1	29	60	14	0	16	38	1	6	15	2	7	18	9	1	3	0	0	38	0	0	7	0	17	95	18	56	11	188	0	17	10	202	0	86	5	111	2	10	1	0	6	7	0	93	2	43	7	78
OTU 79	107	8	252	55	143	42	36	104	39	733	38	54	51	106	68	13	417	31	36	758	168	3	113	109	113	89	214	13	13	119	60	66	92	480	543	21	89	36	102	82	270	420	78	78	9	14	49	164	7	292
OTU 80	32	4	52	1	99	1	141	48	0	173	6	10	11	161	23	10	9	49	16	29	9	14	4	106	91	82	18	4	16	19	1	14	38	23	118	150	38	27	97	23	68	91	120	24	35	4	45	0	13	50
OTU 81	167	41	261	28	14	49	315	201	12	1	66	81	17	15	107	4	83	1	4	41	167	11	64	72	5	72	42	16	14	858	8	61	28	43	0	10	87	7	37	67	19	41	47	137	4	2	14	62	19	30
OTU 82	338	177	3	8	5	0	38	28	1	64	7	18	3	19	4	0	95	7	1	39	23	0	11	2	96	56	0	0	30	0	1	22	11	116	129	3	4	15	0	153	7	12	29	2	2	0	0	139	1	16
OTU 83	5	0	0	24	0	0	8	0	0	2	8	9	0	0	0	0	18	0	2	0	11	1	13	3	0	1	15	0	0	1	0	0	15	0	47	2	0	22	0	3	3	0	0	5	2	0	0	9	1	1
OTU 84	1	93	22	27	18	8	73	2	0	0	7	28	0	10	0	5	4	2	0	127	16	0	23	5	0	0	72	0	7	3	0	0	0	0	327	16	2	30	21	74	3	35	65	18	8	20	9	4	2	17
OTU 85	22	0	0	0	0	23	17	4	0	1	1	0	1	6	30	6	0	0	7	2	11	1	17	47	25	0	69	0	1	0	2	0	3	1	1	0	4	37	6	2	0	8	0	6	0	2	4	1	15	2
OTU 86	0	0	8	0	0	0	3	1	0	0	0	0	0	0	2	0	0	0	0	0	0	0	0	1	3	0	91	4	2	0	0	6	0	51	0	0	3	8	0	0	6	0	0	0	0	0	0	0	0	0
OTU 87	31	3	0	95	103	0	0	0	0	1	7	1	14	183	1	0	8	7	0	4	0	2	0	6	6	7	11	40	2	1	0	10	8	0	0	0	0	0	2	147	48	159	0	0	0	0	1	81	7	16
OTU 88	11	0	42	28	0	0	42	0	0	0	1	0	71	2	13	0	6	0	0	23	0	0	4	11	0	0	0	3	30	0	0	2	0	0	0	1	0	0	2	0	0	1	0	0	9	0	4	1	0	0
OTU 89	4	19	15	21	58	2	34	4	0	0	0	0	0	194	1	12	122	5	0	15	15	2	0	0	47	7	1	6	5	5	1	6	32	0	1	1	1	1	1	29	10	60	91	1	349	0	0	12	3	0
OTU 90	1	0	17	0	0	76	0	0	0	1	0	0	0	1	0	0	0	0	6	3	1	0	17	3	16	0	0	1	1	0	1	6	46	0	0	0	0	0	0	0	0	0	0	2	0	0	0	0	0	134
OTU 91	1	0	2	0	0	0	0	0	5	0	3	0	0	4	14	0	0	0	0	25	1	0	0	19	1	0	6	5	0	0	6	14	158	2	40	0	0	0	0	2	12	2	0	0	0	0	0	0	0	0
OTU 92	2	0	8	0	0	0	0	2	0	0	0	0	30	17	1	17	0	35	0	0	0	0	6	7	5	52	1	3	19	0	0	0	0	26	59	0	93	0	40	4	0	0	0	3	2	3	20	0	1	35
OTU 93	0	0	0	4	0	0	104	0	0	0	5	0	0	0	0	1	1	0	0	0	1	0	0	0	19	0	0	0	0	0	0	1	0	0	0	0	0	0	0	0	0	14	0	1	0	0	0	0	0	0
OTU 94	36	33	108	9	0	352	68	20	81	127	36	24	61	7	118	34	84	57	293	21	14	158	64	179	231	144	2	308	9	61	110	5	90	17	33	79	37	181	216	38	13	44	64	138	65	223	120	4	397	1
OTU 95	7	4	0	99	10	0	3	7	0	23	9	4	2	0	15	0	23	0	0	132	0	0	0	44	0	0	0	9	1	76	0	4	144	138	54	1	0	6	0	0	2	9	1	2	10	0	0	0	14	0
OTU 96	0	13	2	0	0	0	17	0	0	0	6	0	0	0	0	0	0	0	0	0	0	0	13	0	33	0	0	0	1	0	0	0	0	0	0	0	0	3	0	0	95	0	6	30	4	0	0	3	0	124
OTU 97	0	1	1	1	10	0	0	0	1	0	0	5	0	0	0	0	0	0	15	0	26	0	0	0	0	0	0	801	13	0	10	7	8	6	0	0	0	0	21	0	1	4	0	43	1	0	14	0	0	13
OTU 98	1	17	9	0	0	0	3	0	0	0	0	0	439	0	0	0	0	0	2	11	0	0	1	0	19	2	0	8	2	0	0	0	0	14	6	9	887	1	0	0	0	13	36	31	4	10	0	1	0	22
OTU 99	176	9	31	136	102	36	49	3	11	192	66	41	126	9	6	8	51	14	10	6	99	5	82	64	24	167	38	14	16	72	5	22	36	11	116	27	109	64	12	47	16	143	8	114	14	0	7	123	2	4
OTU 100	66	0	2	45	43	1	0	0	0	0	0	4	73	69	185	0	4	0	25	9	31	15	49	498	0	10	3	11	4	27	0	8	93	38	42	2	93	16	0	6	1	9	1	11	104	11	0	1	32	0
OTU 101	0	0	2	0	0	0	39	0	0	0	0	0	0	18	0	0	27	0	6	0	0	0	2	0	8	0	1	0	0	0	0	0	60	0	143	0	22	0	0	4	41	1	0	7	0	4	0	0	0	1
OTU 102	203	0	10	0	0	1	0	1	0	2	3	16	15	9	0	3	20	1	0	2	4	4	35	0	1	1	33	0	0	0	3	13	3	114	0	4	12	1	1	0	0	5	25	0	15	2	0	146	6	5
OTU 103	63	0	1	75	26	5	10	37	0	1	44	0	5	0	6	7	17	27	1	1	93	1	2	50	16	43	0	0	1	26	3	28	26	0	5	0	2	4	11	1	1	947	69	4	0	0	6	0	4	13
OTU 104	126	26	5	4	105	1	120	59	0	0	13	6	12	0	16	6	151	39	7	0	23	20	15	30	20	64	22	1	5	55	3	18	124	36	75	15	17	32	54	13	1	22	1	33	12	0	22	28	20	40
OTU 105	4	3	0	0	25	0	20	0	0	0	4	0	0	0	0	3	0	2	0	0	0	0	0	1	17	0	0	0	0	10	0	8	8	18	0	0	1	0	2	71	0	0	0	0	4	9	0	3	14	146
OTU 106	4	0	0	1	529	13	56	13	0	0	5	0	1	9	1	34	8	103	2	0	23	0	70	6	5	15	0	1	0	0	0	0	4	0	0	0	0	9	92	0	0	0	2	27	0	0	41	0	0	99
OTU 107	3	4150	7	0	13	0	0	0	0	9	1	0	0	25	6	16	6	10	0	193	0	2	0	21	0	0	0	0	0	17	0	0	0	26	14	11	0	0	11	14	16	0	22	20	6	1	4	4	0	11
OTU 108	15	21	9	73	4	42	0	27	0	0	33	6	9	27	4	16	287	0	0	0	1	0	67	3	16	14	8	5	39	44	0	71	15	3	9	3	7	15	6	14	19	0	27	31	1	2	1	0	1	7
OTU 109	0	0	0	0	0	0	0	0	0	0	1	0	0	0	0	0	1	0	0	0	0	0	0	0	4	0	0	0	0	0	0	0	0	0	0	0	0	0	0	0	0	0	0	0	0	0	0	0	0	0
OTU 110	37	80	75	172	73	46	1	0	30	13	1	21	15	6	18	4	13	6	20	90	8	45	0	16	17	46	11	50	26	59	48	0	17	1	5	0	45	23	57	42	41	120	417	42	3	65	19	13	20	65
OTU 111	0	0	0	7	2	0	0	0	0	0	4	0	0	0	0	0	0	5	0	0	0	0	0	7	20	0	0	0	0	0	0	0	0	2	0	0	1	0	5	1	0	14	26	0	0	0	1	0	0	2
OTU 112	1	0	58	2	0	22	0	0	5	2104	6	9	0	14	1	5	15	6	2	0	20	3	1	0	2	0	5	0	17	0	2	17	2	32	0	0	0	4	0	4	0	9	9	0	1	0	0	0	0	0
OTU 113	0	2	0	0	22	0	0	0	0	1	3	0	0	0	0	0	4	11	1	6	57	0	0	3	12	0	0	0	0	0	0	0	2	0	2	1	1	1	19	0	0	0	8	12	17	3	7	5	0	2
OTU 114	101	23	88	148	27	60	45	66	43	95	16	39	23	21	29	0	400	8	113	4	150	88	12	78	58	87	70	45	12	253	66	43	49	150	117	84	6	323	1	12	34	25	75	445	29	150	0	82	212	14
OTU 115	172	73	105	87	200	44	44	39	0	13	24	30	33	122	7	823	374	1578	37	18	26	10	45	10	38	62	45	25	8	61	2	134	88	170	81	9	32	14	3054	7	35	26	277	20	24	5	1486	110	7	19
OTU 116	58	977	162	85	26	81	56	1531	1	72	42	6	6	13	24	3856	0	3	25	167	73	24	18	8	75	70	21	40	37	3	0	100	8	62	9	20	38	32	5	2006	67	33	80	77	41	24	3	176	38	82
OTU 117	30	39	37	4	49	93	60	0	332	4	72	38	6	16	11	6	44	17	1218	59	26	51	1	23	28	153	0	25	15	5	520	49	40	48	46	42	9	26	5	79	37	44	82	94	4	218	3	0	128	86
OTU 118	5	6	0	0	0	4	19	54	0	3	0	1	3	0	0	0	6	0	0	0	0	0	0	0	11	1	22	0	0	2	0	0	12	0	14	3	0	39	3	0	8	3	22	56	0	0	0	0	0	0
OTU 119	27	28	205	29	92	71	20	0	762	166	37	14	139	49	16	12	118	30	16	122	29	11	9	16	69	50	12	24	5	84	1	57	97	18	54	1	111	2	85	58	8	498	2	86	2	13	27	42	18	83
OTU 120	8	28	1	0	0	28	7	29	1	1	2	1	9	0	1	0	33	1	0	1	8	6	29	0	22	0	0	11	0	6	2	0	0	12	0	3	15	9	2	13	16	6	7	109	0	0	3	10	0	0
OTU 121	34	3	12	1	10	16	0	36	4	0	4	9	0	0	0	14	1	1	19	5	52	64	1	3	31	50	20	37	5	13	11	1	215	35	51	48	1	48	26	71	0	17	53	0	5	43	17	56	73	29
OTU 122	53	0	3	198	159	145	567	9	4	57	3	231	30	473	1	0	82	1	7	732	9	3791	13	26	447	6	421	19	14	29	5	48	55	6	45	43	10	20	14	1	12	12	23	19	8	4468	4	19	23	0
OTU 123	13	44	70	169	78	42	57	201	22	134	59	47	130	216	14	36	227	95	48	140	74	18	24	42	153	130	133	88	42	345	45	63	19	224	337	28	87	43	72	108	35	321	120	265	29	52	30	84	87	199
OTU 124	5	10	0	0	10	0	0	2	0	65	0	1	0	7	3435	1	31	3	0	19	39	0	0	0	0	5	0	0	0	23	0	4	63	31	2	3	0	0	0	2	22	58	0	0	4	0	0	0	0	1677
OTU 125	166	39	321	239	39	26	308	137	28	125	9	50	23	180	133	83	69	12	26	81	150	65	379	105	167	71	43	48	112	324	54	467	123	67	88	17	27	125	132	77	31	239	70	156	24	50	72	100	107	187
OTU 126	0	45	0	0	5	110	0	0	0	0	0	3	10	46	18	0	0	4	0	3	0	5	0	25	0	0	0	6	0	0	0	0	10	0	0	0	0	1	0	4	0	1	1	0	6	11	0	0	8	0
OTU 127	21	0	1220	13	15	1	12	14	3	1	25	1	2	65	2	2	25	6	0	11	1	2	5	2	34	2	1	7	4033	7	2	26	35	17	0	7	5	2	0	0	11	22	29	1	0	0	0	22	28	15
OTU 128	243	52	251	195	173	28	123	123	10	87	232	136	64	292	138	53	248	99	67	34	156	21	111	182	141	415	151	714	18	109	16	255	523	100	275	61	166	72	244	192	62	223	64	372	98	48	123	59	74	385
OTU 129	0	0	0	0	14	0	0	162	0	38	3	0	0	0	0	6	0	4	0	0	0	45	0	1	0	0	4	0	1	0	0	0	0	45	0	0	6	0	0	0	7	0	0	0	0	34	0	0	60	0
OTU 130	9	0	9	270	25	271	6	32	2	21	71	5	40	10	313	97	48	6	2	10	28	1	0	7	20	3	3	18	5	99	0	0	10	36	195	2278	17	16	16	13	42	25	56	0	2	10	4	52	0	0
OTU 131	28	4	83	10	120	1	0	2	0	1	3	1	12	18	45	26	2	83	57	14	53	10	0	70	47	92	0	3	6	126	0	0	10	44	80	15	41	74	74	8	46	97	27	3	3	8	45	24	0	14
OTU 132	65	14	0	0	8	36	9	8	1	0	0	0	2	26	3	0	0	5	10	0	0	0	2	1	1944	4	26	8	24	3	3	5	9	13	0	4	1	1	0	19	4	3	0	2	2	0	0	3	12	0
OTU 133	0	0	0	25	6	0	26	1	0	0	2	0	0	6	4	0	0	3	0	49	23	7	0	2	0	0	0	0	6	1	0	6	0	51	5	0	6	0	0	0	0	0	0	0	3	6	0	0	18	0
OTU 134	0	6	0	158	19	12	55	1	0	87	134	9	24	84	5	9	27	22	18	6	0	4	24	7	1	4	34	0	9	28	0	2	30	6	110	0	109	0	42	16	121	21	47	30	8	6	20	4	1	17
OTU 135	8	1	8	5	27	198	90	0	79	77	53	27	4376	23	102	3	43	10	173	1	8	228	19	279	1	0	18	97	25	38	140	23	5	116	1	184	11	144	3	1	4	8	12	0	7	228	1	36	339	111
OTU 136	105	88	0	4	0	5	78	17	802	10	17	0	0	111	15	4	66	4	1	22	5	18	9	19	123	45	27	1	8	32	1576	65	39	26	151	7	49	32	11	10	0	61	17	1	0	15	4	9	39	0
OTU 137	0	0	32	30	0	0	2	7	0	0	4	0	0	43	6	10	28	0	3	101	0	0	0	5	0	0	0	7	0	0	1	3	105	0	60	0	89	22	0	0	0	2	0	0	4	0	0	1	2	1
OTU 138	1	0	0	61	0	0	4	0	0	1	22	41	0	2	33	30	29	34	28	0	0	0	3	22	0	76	22	0	0	93	0	0	41	6	22	0	4	1	56	1	4	2	1	0	2	2	32	3	0	4
OTU 139	222	16	64	27	128	70	25	72	4	12	52	118	164	1	9	63	83	31	2	81	35	94	10	10	150	28	59	1	48	23	13	51	85	22	76	40	194	55	48	7	3655	32	299	122	39	85	19	150	178	139
OTU 140	37	65	11	155	123	30	758	66	21	2	42	146	193	39	79	115	247	137	40	214	164	75	90	0	507	116	214	47	3	45	35	84	1523	222	388	14	362	7	158	6	27	97	150	41	36	32	70	44	134	48
OTU 141	0	0	0	0	0	0	1	0	0	8	0	0	0	0	0	0	0	0	0	0	133	0	0	0	0	0	0	0	0	0	0	0	0	0	0	1	0	0	0	3	0	0	0	0	0	0	0	0	0	0
OTU 142	0	0	0	6	0	1	27	0	0	0	0	0	0	0	0	0	8	0	5	0	9	2	0	0	0	0	1	0	1	0	0	8	0	0	0	0	0	0	0	0	0	0	0	0	0	0	0	12	0	0
OTU 143	32	0	15	3	17	0	0	5	0	1	0	18	0	1	7	0	27	0	0	0	1	745	2203	7	0	4	5	21	6	25	0	0	0	4	73	9	0	18	0	69	19	13	0	15	2	6	0	12	21	0
OTU 144	19	0	0	1	0	1	62	13	0	21	0	2	10	0	1	8	15	5	0	0	0	0	7	0	14	0	13	0	0	1	0	0	54	0	0	14	1	24	16	1	11	0	0	0	0	0	6	2	0	1
OTU 145	46	42	1	143	33	8	81	130	1	11	0	34	13	231	13	11	28	5	1	29	81	33	39	36	75	0	45	1	15	87	1	56	0	145	21	36	35	0	27	42	12	4	113	1	7	9	10	99	47	109
OTU 146	15	0	54	10	138	3	70	112	5	38	24	9	5	136	21	0	34	9	31	47	6	0	24	16	18	68	20	7	2	4	54	18	0	9	21	2	124	3	6	0	120	15	312	4	30	1	4	1	1	26
OTU 147	1	10	1	4	86	0	14	3	0	6	82	6	0	60	0	24	181	81	3	0	0	0	0	0	45	1	15	5	0	26	1	0	344	2	5	2	19	0	12	1	0	0	6	1	23	2	7	0	1	0
OTU 148	145	0	110	11	108	12	27	49	2	0	2	7	44	109	1	2	54	28	29	10	2	52	10	18	2	265	0	2	6	118	14	185	60	642	163	3	23	7	10	52	941	0	19	75	8	41	3	20	103	18
OTU 149	2	0	0	9	46	1	38	0	7	6	41	5	0	0	2	8	0	5	4	0	48	3	0	0	1	0	16	0	6	0	14	2	8	3	1	10	28	0	2	8	20	0	60	9	0	1	1	15	10	27
OTU 150	0	8	0	1409	37	3	0	6	0	0	9	0	0	1	0	0	69	0	0	27	0	0	0	0	4	0	79	5	0	0	2	1	0	0	0	0	6	12	5	8	1	3	0	6	0	0	3	0	0	0
OTU 151	19	3	0	461	1	27	62	7	6	0	24	10	1	36	15	0	0	0	55	1	0	5	16	48	9	5	26	80	7	0	20	8	28	49	43	8	0	4	12	9	13	201	7	46	14	2	6	1	21	1
OTU 152	79	15	147	17	8	2	3	32	8	11	8	89	98	46	10	1567	89	3042	49	45	4	76	1	31	28	9	88	14	297	2	42	79	0	6	63	0	49	78	5	8	29	57	11	26	7	42	3	100	208	0
OTU 153	0	0	1	1	0	4	0	0	0	27	6	0	0	2	0	0	0	0	0	0	8	0	3	0	0	2	0	0	0	1	0	3	0	0	3	0	0	0	1	92	0	0	0	0	0	0	1	0	0	2
OTU 154	0	10	2	0	0	2	0	0	0	0	0	0	0	0	3	4	0	6	0	0	0	0	104	0	0	41	1	0	31	0	0	0	0	12	0	18	0	3	0	11	0	0	471	15	7	0	0	1	3	0
OTU 155	92	0	0	1	23	2	0	0	0	0	0	9	0	4	1	0	50	0	1	0	47	0	1	0	3	31	7	0	29	0	0	5	27	14	7	1	9	4	0	0	24	5	4	2	3	1	0	0	3	6
OTU 156	29	131	22	135	47	49	3	81	5	64	8	19	3	167	53	21	17	0	10	43	17	28	40	74	25	9	10	2	21	12	10	10	129	15	96	3	1	23	1	26	74	100	17	50	1	10	1	28	41	6
OTU 157	1	0	1	43	21	1071	0	74	0	19	4	0	0	36	3	1	23	6	11	1	8	0	2	37	30	0	0	0	0	0	1	0	47	3	120	0	0	3	4	1	0	5	28	0	0	0	5	0	0	532
OTU 158	0	0	0	0	0	0	0	0	1	86	0	0	0	55	0	0	1	0	0	15	0	0	3	0	0	0	0	0	0	0	4	0	23	0	0	0	0	0	0	0	5	0	52	0	0	0	0	0	0	0
OTU 159	1	11	46	13	5	2	437	24	2319	60	3	4	23	167	1	36	16	153	0	154	101	13	0	1	118	0	26	1	0	9	1	7	62	3	31	1	20	40	82	116	44	0	20	44	14	0	38	6	4	28
OTU 160	151	416	22	69	303	104	55	30	17	102	13	125	707	121	62	450	4	1052	50	208	28	5	1564	72	22	62	162	67	15	67	21	42	77	85	15	10	1408	25	1830	686	28	160	46	6	7	12	914	9	14	55
OTU 161	130	5	67	0	331	5	63	33	13	24	99	42	4	291	2	4	78	3	17	185	31	7	13	20	16	15	0	1894	126	13	19	90	56	8	48	1897	16	4075	0	117	63	35	28	21	5	20	3966	171	8	12
OTU 162	1009	2	78	17	26	114	287	37	35	40	28	0	2	14	74	18	7	47	162	6	39	46	29	46	43	28	21	146	90	7	88	481	11	170	9	36	73	166	102	72	0	398	30	2	2332	19	49	1113	92	1
OTU 163	0	0	0	0	0	0	18	0	0	7	0	0	0	0	0	0	0	0	0	4	0	0	0	0	0	90	0	0	0	0	3	0	0	0	0	0	0	0	0	0	1	0	0	0	0	9	0	0	0	0
OTU 164	0	0	2	0	64	0	0	0	0	0	0	11	0	0	0	0	0	1	0	0	0	7	1	0	0	0	0	0	0	0	0	0	0	0	0	0	0	0	0	11	0	0	0	0	0	0	0	0	10	27
OTU 165	82	16	0	10	14	7	10	13	3	13	19	22	0	36	4	0	3	4	18	5	1	12	682	0	1	1	6	2	1	53	2	55	4	0	73	1	12	1	2	2	19	15	7	13	2	5	2	12	20	71
OTU 166	0	0	0	0	0	0	1	6	0	0	0	0	0	0	0	0	0	0	0	0	11	0	0	0	0	0	0	0	0	0	0	0	0	0	0	0	2	0	0	0	0	2	0	0	0	0	0	0	0	0
OTU 167	12	48	2	3	8	51	19	33	7	114	71	1342	5	174	1	23	9	21	47	2	0	16	5	2	19	0	3120	3	71	26	17	2	0	47	14	0	2	0	0	8	0	1	37	4	0	4	0	37	20	4
OTU 168	0	90	25	4	19	116	7	1	1	136	27	5	17	174	0	1	3	10	0	0	26	12	49	0	3	18	4	6	0	28	0	38	5	4	7	0	41	0	8	59	85	1	45	206	13	9	7	8	14	27
OTU 169	0	0	0	0	0	0	0	2	0	1	3560	0	0	0	0	11	0	14	0	0	1	0	0	0	0	0	14	0	0	0	0	0	0	0	0	0	0	0	131	0	0	0	0	0	0	3	79	1	0	0
OTU 170	0	0	0	0	0	0	0	0	4	0	0	12	6	0	0	0	0	4	0	1	0	0	0	0	0	0	0	0	0	0	1	0	0	0	0	0	19	0	1	0	0	0	0	0	7	0	0	3	0	0
OTU 171	48	0	9	204	174	0	0	1	3	16	21	520	116	24	1	0	23	13	85	1839	9	48	62	16	16	24	1031	74	0	42	9	33	0	4	108	11	173	36	15	36	52	0	4	9	5	34	4	32	116	16
OTU 172	0	1	0	0	7	4	0	0	13	0	0	0	0	0	2	4	1	0	0	0	0	7	123	1	0	1	0	4	0	78	10	0	1	0	0	0	0	0	20	0	0	0	41	0	3	21	7	0	16	28
OTU 173	1	45	1	0	0	0	1	4	0	1	50	1	0	0	22	0	82	0	0	3	12	3	1	5	2	1	129	9	0	0	0	0	39	0	7	0	4	0	0	6	1	0	0	32	1	0	0	23	0	0
OTU 174	0	0	21	8	29	13	76	10	2	21	7	0	0	5	0	22	0	14	5	59	4	0	13	0	79	0	14	20	1	54	9	0	0	3	96	0	0	6	21	6	15	44	29	2	2	0	11	20	0	23
OTU 175	15	7	0	11	1	12	64	0	0	0	0	13	2	0	1	0	66	0	68	0	11	65	65	0	7	21	2	1	1	24	6	26	13	9	6	12	0	16	8	102	59	35	31	5	0	53	3	1	177	6
OTU 176	46	1	38	13	49	0	91	98	0	4	1	43	6	151	5	32	194	37	2	0	27	14	57	1	39	52	72	6	79	96	9	3	5	9	7	13	0	1	1	19	33	41	33	9	15	6	1	24	30	27
OTU 177	632	4	95	217	194	8	43	94	6	0	45	8	2	19	12	21	23	26	5	55	20	35	22	14	64	2	11	0	19	211	30	354	0	189	58	16	8	81	116	25	4	52	0	23	4	17	62	303	55	20
OTU 178	197	17	6	20	8	15	128	5	1	77	0	28	1	0	0	2	0	23	0	33	9	0	6	2	0	54	21	1	0	27	0	67	59	25	33	1	3	11	125	0	3	62	8	8	2	7	50	3	5	57
OTU 179	33	1	19	2	149	12	11	48	2	9	12	96	24	25	0	0	6	1	38	34	9	9	0	17	8	5	149	0	7	75	2	132	140	0	61	0	2	9	0	13	3	35	0	70	12	9	0	27	10	0
OTU 180	19	143	2205	135	247	85	120	131	14	239	70	63	50	18	14	46	130	77	56	101	287	26	264	60	101	98	54	76	52	38	20	22	3	392	128	50	34	51	53	67	30	280	675	106	44	48	29	25	73	40
OTU 181	0	22	21	19	104	1	26	7	0	4	11	2	0	2	1	3	15	21	18	13	38	0	64	4	11	0	134	2	18	0	3	0	0	1	97	10	0	6	6	28	1	47	1	3	1	0	2	0	3	4
OTU 182	6	0	0	0	0	11	0	32	1	1	0	0	0	0	0	22	0	28	0	1	0	0	0	0	0	0	10	0	0	0	1	0	6	0	0	0	2	0	19	0	1	0	3	0	0	0	13	0	0	0
OTU 183	42	0	0	4	2	28	46	8	0	12	1	807	31	39	36	74	30	182	3	114	2	0	2	43	31	228	2	1	0	0	0	5	75	298	8	1	1	1	184	49	5	75	5	0	5	0	1195	159	5	32
OTU 184	0	45	0	0	8	0	91	0	94	19	0	0	13	79	0	0	1	2	332	5	15	0	1	0	0	57	1	5	2	28	215	15	1	78	1	1	9	0	0	4	0	1	24	1	23	4	0	0	3	0
OTU 185	62	3	9	47	0	15	12	1404	1	12	1	37	5	25	5	0	0	26	23	34	35	25	6	18	10	230	37	0	607	6	6	2	139	390	31	0	1	0	28	33	5	15	4	21	0	45	17	14	58	98
OTU 186	0	87	0	0	0	0	1	13	1	32	4	3210	1	0	2	12	7	11	7	3	11	1	0	0	21	0	2	0	28	5	5	7	0	67	97	0	4	0	100	0	0	0	0	0	5	0	36	0	0	0
OTU 187	131	27	430	208	81	30	10	1	38	80	172	2	93	63	70	12	20	9	53	3	317	40	32	111	16	143	55	15	74	105	71	50	174	139	71	6	167	4	106	106	98	12	43	29	3	32	50	19	88	25
OTU 188	65	10	9	112	56	613	71	72	188	19	16	30	70	70	357	11	51	78	443	22	8	628	18	396	99	122	4	303	118	31	380	3938	168	63	0	382	78	705	23	51	53	58	47	16	160	651	10	29	1246	37
OTU 189	82	46	156	47	7	102	67	76	112	31	142	136	16	28	11	7	45	8	449	14	54	20	68	51	30	29	155	42	5	76	187	50	69	44	240	6	16	18	71	19	27	142	15	139	63	21	31	10	57	124
OTU 190	0	8	0	9	0	0	49	0	0	0	11	0	0	64	0	0	0	0	3	0	0	11	0	0	8	172	0	0	0	0	0	3	0	110	54	0	0	3	0	0	0	0	916	0	8	0	0	0	1	72
OTU 191	42	25	30	2	100	9	6	153	9	48	10	22	20	90	1	8	15	14	0	14	24	0	142	7	514	146	10	37	28	20	8	35	188	19	113	45	35	25	36	51	80	203	82	6	23	1	14	34	0	21
OTU 192	18	26	55	40	107	38	15	23	3	160	189	0	39	337	11	1	191	8	5	11	95	10	136	5	34	181	18	7	120	370	5	66	30	92	29	11	149	1	9	94	49	165	199	3152	13	43	6	82	29	14
OTU 193	2	11	59	26	35	15	177	33	1	8	9	0	0	31	5	10	391	28	4	24	5	4	12	0	15	18	3	56	2	33	1	8	127	64	0	2	0	0	11	17	67	53	51	0	17	6	3	32	54	81
OTU 194	59	58	120	0	0	93	1	38	8	32	49	0	0	9	0	0	0	1	3	4	4	2	33	3	27	0	9	12	4	183	19	11	504	0	38	0	6	2	24	18	8	115	146	39	100	9	12	14	3	16
OTU 195	1	3	20	25	22	25	29	11	0	112	46	8	7	73	0	2	0	10	0	33	0	0	61	4	4	15	6	12	1	0	0	11	23	88	0	42	26	0	4	52	34	20	30	55	6	3	3	2	37	0
OTU 196	0	35	1	1	8	10	36	64	0	3	30	22	26	8	35	19	1	1	2	18	18	0	1	92	0	141	13	1	2	0	0	5	4	7	104	7	4	0	0	0	5	4	53	17	0	0	1	14	1	0
OTU 197	302	31	142	100	192	27	170	8	5	63	28	114	9	291	34	45	65	26	60	304	8	16	66	56	51	262	89	14	32	110	1	194	129	239	490	12	6	83	108	45	70	64	31	34	24	34	41	58	24	44
OTU 198	0	1	103	7	5	0	0	0	0	0	0	0	2	33	4	0	0	0	0	56	13	0	1	3	27	27	6	0	0	16	0	3	0	1	0	0	12	0	0	0	0	20	19	0	1	3	0	0	2	60
OTU 199	0	12	4	31	0	11	7	22	1	0	12	0	9	6	0	0	6	2	36	5	50	9	30	5	3	7	11	21	2	158	12	0	1	1	3	0	47	2	0	35	13	67	1	24	1	6	0	2	2	6
OTU 200	3	0	16	171	25	0	1	56	17	14	22	2	28	55	5	0	60	8	0	1	0	2	174	4	38	1	7	3	18	164	14	18	90	5	42	0	50	5	17	31	57	74	19	0	13	2	6	0	4	84
