	Host 1	Host 2	Host 3	Host 4	Host 5	Host 6	Host 7	Host 8	Host 9	Host 10	Host 11	Host 12	Host 13	Host 14	Host 15	Host 16	Host 17	Host 18	Host 19	Host 20	Host 21	Host 22	Host 23	Host 24	Host 25	Host 26	Host 27	Host 28	Host 29	Host 30	Host 31	Host 32	Host 33	Host 34	Host 35	Host 36	Host 37	Host 38	Host 39	Host 40	Host 41	Host 42	Host 43	Host 44	Host 45	Host 46	Host 47	Host 48	Host 49	Host 50	
OTU 1	0	85	25	14	7	225	18	217	62	144	19	62	5	95	159	8	58	5	58	41	1	74	0	57	54	114	29	61	62	42	45	19	30	75	87	32	109	19	68	7	67	42	239	59	8	103	56	17	12	70
OTU 2	0	96	38	2	25	56	3	2	0	6	1	31	0	4	8	4	8	45	0	31	1	0	1	0	0	72	1	37	0	0	9	1	3	0	0	14	29	1	1	3	0	0	2	1	0	3	2	35	0	13
OTU 3	0	0	7	0	2	23	7	1	9	10	0	135	33	0	14	5	0	6	90	32	2	0	0	0	1	0	0	1	20	1	5	0	0	0	0	0	8	72	0	23	17	12	23	2	63	27	2	3	1	1
OTU 4	0	0	0	0	5	0	0	0	0	0	0	0	0	0	0	0	0	0	0	0	0	0	0	0	0	0	0	0	0	0	0	0	0	0	0	0	0	0	0	0	0	0	0	0	0	0	0	0	0	0
OTU 5	61	15	610	120	41	486	88	481	1	1087	240	953	550	348	9	184	788	13	585	305	10	117	0	347	242	55	898	9	155	13	213	274	789	212	0	49	380	0	665	293	182	33	181	198	266	46	247	0	773	373
OTU 6	4	4	1	6	4	22	16	65	31	19	0	120	26	5	24	1	0	3	51	4	38	7	94	3	9	14	3	20	1	50	4	0	7	13	3	11	12	1	14	30	0	10	25	5	3	6	1	1	6	1
OTU 7	47	53	49	95	77	15	35	148	66	34	287	49	86	48	137	51	185	81	264	16	162	7	137	332	64	501	20	208	29	172	160	54	34	210	29	154	48	39	16	124	72	32	67	177	45	528	24	687	29	22
OTU 8	12	125	16	97	71	110	425	9	63	21	112	16	80	43	210	35	99	13	83	55	38	99	40	39	18	5	170	6	155	23	2086	168	11	96	85	31	52	86	20	120	76	6	35	91	162	29	24	116	175	129
OTU 9	0	12	0	0	1	25	42	0	0	1	0	30	0	0	0	0	0	20	8	11	6	0	51	17	0	18	0	12	0	70	12	75	0	33	8	23	16	39	0	51	3	0	8	1	0	613	14	49	5	0
OTU 10	4	6	1	71	20	0	0	6	0	0	0	6	2	1	87	4	0	14	7	1	2	12	41	22	3	1223	4	617	30	56	0	14	0	2322	5	619	0	1	0	47	2	0	7	1	1	14	7	7	0	0
OTU 11	141	18	0	32	1	61	2	21	25	1	24	163	4	37	96	11	16	372	2	29	15	39	4	7	28	1	6	2	6	124	1	21	12	4	62	0	28	151	21	10	63	39	0	16	42	1	49	139	64	5
OTU 12	295	18	55	87	79	1	72	39	43	9	10	20	156	26	67	64	91	111	45	13	44	56	35	56	28	9	27	6	36	106	57	57	15	7	41	0	0	73	10	47	115	4	16	27	35	17	72	13	33	2
OTU 13	0	0	1	0	0	7	1	0	0	0	15	0	0	0	0	0	8	0	0	0	0	0	0	0	0	10	0	1	0	0	0	13	0	0	0	0	7	0	0	0	0	0	0	0	0	0	6	0	0	0
OTU 14	0	0	1	2	7	0	10	20	23	1	31	5	0	0	99	0	0	14	80	3	24	61	22	0	7	3	1	5	20	0	0	8	0	0	4	17	0	0	1	9	0	0	0	4	0	0	0	35	17	0
OTU 15	0	0	0	0	0	113	0	11	0	0	0	0	1	0	0	0	6	0	0	108	11	0	0	0	7	6	0	1	0	3	0	0	0	21	0	0	53	0	0	0	0	0	0	0	4	47	0	0	0	0
OTU 16	0	0	0	0	0	0	0	0	3	0	3	0	2	0	4	0	0	0	0	0	0	0	0	0	0	0	1	0	0	0	0	1	0	0	0	0	0	0	0	4	0	0	0	0	0	0	0	0	0	0
OTU 17	29	19	89	40	0	275	1	5	0	14	24	1	105	5	73	0	33	34	36	261	1	51	21	81	1	11	5	40	0	4	69	5	16	32	210	14	283	0	20	101	36	6	62	11	301	5	50	27	15	8
OTU 18	5	15	23	22	311	3	33	110	58	5	46	35	6	84	105	48	96	3	17	1	26	106	8	2	22	12	20	25	76	24	9	33	17	15	22	8	0	173	20	7	49	37	6	5	137	42	35	151	16	680
OTU 19	1	0	0	0	0	0	0	0	0	0	0	0	0	0	0	0	0	0	0	0	0	0	0	0	0	0	0	0	0	0	0	0	0	0	0	0	0	0	0	0	0	0	0	0	0	0	0	0	0	0
OTU 20	0	27	12	32	9	61	40	41	40	14	26	10	45	8	22	112	4	89	4	55	59	1	60	121	69	89	45	32	1	122	121	42	0	42	82	3	37	0	3	36	24	3	26	51	9	5	19	637	3	0
OTU 21	39	20	11	0	24	33	84	31	5	22	0	188	91	6	57	30	8	22	59	18	2	11	87	0	31	1	22	0	31	34	4	166	9	5	52	5	26	3	6	48	36	20	47	56	58	106	18	12	69	2
OTU 22	141	64	51	21	2	1	21	19	128	1984	1	34	142	56	81	17	18	95	24	6	38	74	5	34	0	23	5	19	5	54	54	5	24	61	10	0	2	65	19	0	13	17	14	27	39	0	80	12	4	0
OTU 23	35	9	49	2	67	2	13	1	4	1	9	109	5	22	43	0	11	7	0	6	9	7	16	12	5	62	0	23	35	15	0	26	6	4	1	20	2	0	23	2	0	32	0	0	1	2	18	0	25	13
OTU 24	38	0	1	76	13	4	0	6	4	248	1	327	0	3	100	1	7	36	0	2	0	2	177	0	0	0	6	0	0	128	0	3	0	13	0	0	2	190	0	41	2	1	7	0	6	3	0	10	0	0
OTU 25	0	511	2	0	0	0	0	0	0	0	0	2	0	1	0	0	0	0	0	0	0	0	0	16	0	0	0	0	10	0	0	0	0	0	0	0	0	0	0	0	0	0	2	0	0	0	0	0	0	0
OTU 26	0	4	4	0	12	2	20	0	0	0	0	0	0	2	10	152	0	8	0	0	0	0	0	4	0	37	67	9	0	29	0	0	0	0	0	0	1	7	0	108	0	0	0	0	0	0	0	0	0	0
OTU 27	0	0	0	0	0	0	0	0	0	0	0	0	0	0	0	0	0	0	0	0	57	0	0	0	0	0	0	0	0	0	2	0	0	0	0	0	0	0	0	0	0	0	0	0	0	0	0	0	0	0
OTU 28	116	29	86	2	270	85	60	7	235	6	38	68	35	43	307	50	99	22	8	79	108	37	113	44	23	76	13	11	58	119	15	73	40	11	57	10	42	88	24	57	0	40	17	16	24	4378	7	0	7	1
OTU 29	270	75	0	17	136	54	109	6	9	411	20	2	176	45	100	209	2	57	105	33	60	62	12	67	1	21	117	8	9	6	18	5	31	2	12	9	36	4	19	5	2	32	755	3	14	22	19	28	7	12
OTU 30	0	0	0	0	0	2	0	0	0	0	0	0	22	0	0	0	0	0	0	0	0	0	0	0	6	0	0	0	0	0	0	0	0	0	0	0	2	0	0	0	0	0	0	0	0	0	0	0	0	0
OTU 31	0	24	2	25	3	1	0	134	41	13	12	135	57	0	5	0	0	71	5	6	0	5	2	14	2972	1	3	0	4	38	0	52	4	0	0	1	1	0	0	48	16	0	11	12	2	3	43	0	102	1965
OTU 32	100	44	39	4	562	7	80	43	28	29	146	34	164	16	28	172	75	65	107	12	3	14	150	12	32	4	90	4	1	10	14	28	17	16	63	9	2	59	16	30	3	41	18	5	23	2	7	167	188	27
OTU 33	0	0	0	0	1	0	0	0	0	0	0	0	0	1	0	0	0	0	0	2	0	0	0	0	0	0	0	0	0	0	0	0	0	0	0	0	0	0	0	0	0	0	0	0	0	17	0	0	46	0
OTU 34	250	87	18	52	159	28	395	47	14	6	6	0	207	23	30	0	21	116	5	8	67	3	1	650	3	337	1	2649	2	6	299	46	35	1036	26	215	15	34	50	7	0	0	2	2	65	2	2	13	163	4
OTU 35	15	0	3	9	1	0	112	1	9	1	28	67	33	6	26	6	13	7	28	11	1	24	51	3	24	14	2	15	12	0	6	32	0	1	11	448	0	2	0	11	10	14	2	1	52	42	3	1	8	13
OTU 36	27	0	14	44	21	52	19	4	6	3	68	6	28	0	4	4	120	9	45	36	41	2	20	235	0	225	0	119	7	91	325	65	3	432	102	66	25	10	18	41	10	1	1	2	2	56	3	64	89	0
OTU 37	2	4	1	3	0	5	0	16	133	1	4	2	0	0	0	0	1	1	30	0	0	16	102	0	4	0	0	3	11	1	3	0	0	3	0	3	5	0	0	115	0	103	10	1	0	36	2	0	0	30
OTU 38	74	168	43	1	9	64	21	23	89	8	20	14	100	9	28	14	12	13	4	23	50	18	139	1	3	5	16	5	37	1	23	67	12	15	23	37	33	190	6	2	12	3	13	15	66	19	67	16	6	7
OTU 39	0	19	0	0	4	0	120	0	13	0	1	0	26	1	2	0	0	3	4	0	0	4	0	0	1	1	1	0	0	0	0	43	0	5	18	0	0	0	0	0	1	0	0	5	0	5	1	0	2	0
OTU 40	342	33	17	12	350	61	35	16	20	20	1	13	44	63	58	80	3	128	31	2	17	15	6	14	2	62	43	52	68	4	10	2	24	28	19	31	33	14	8	89	62	17	40	1	3	27	16	12	73	47
OTU 41	43	35	0	29	42	7	40	2	30	15	8	35	77	0	36	40	0	34	13	0	52	1	0	0	3	7	12	8	10	5	6	0	0	0	1	0	1	65	0	4	17	4	4	26	12	7	12	3	69	4
OTU 42	2	16	1	0	0	0	0	1	51	0	0	3	0	0	41	0	0	22	2	3	8	17	80	2	0	1	0	0	19	11	0	0	1	0	105	0	0	0	2	1	33	23	0	0	0	2	1	11	7	0
OTU 43	0	0	0	0	0	0	0	0	0	0	0	0	0	0	0	0	0	0	0	0	0	0	22	0	0	10	0	0	0	0	0	0	0	0	5	8	0	0	1	1	0	0	0	0	0	0	0	0	0	26
OTU 44	4	5	7	0	8	0	0	0	5	0	0	53	0	139	90	0	44	2	1	0	0	8	1	0	0	0	2	1	17	0	15	3	20	16	0	0	0	2	50	0	51	23	0	4	0	1	3	2	0	3
OTU 45	439	38	258	2	548	39	17	85	4	6	203	12	7	182	741	11	57	41	70	8	36	340	9	1	124	6	15	5	47	27	25	206	64	16	58	0	22	19	81	22	320	72	7	1544	5	6	32	41	1460	85
OTU 46	38	3	3	14	15	4	27	93	61	5	0	13	14	17	58	33	95	152	13	14	8	21	47	102	78	66	31	24	0	2	20	3	6	8	67	9	5	77	2	3	66	29	14	73	247	2	78	13	12	1
OTU 47	168	0	0	0	0	14	9	5	2	0	0	0	5	12	0	106	38	17	8	4	0	0	0	4	0	0	40	0	0	0	0	0	0	1	1	3	4	0	9	0	2	0	0	0	0	1	0	0	0	0
OTU 48	1	22	167	22	2	9	1023	43	31	28	12	0	78	99	189	32	31	35	2	23	2	96	5	80	16	17	11	13	24	16	81	90	41	7	16	14	4	57	12	9	1	41	17	10	25	9	29	71	168	3
OTU 49	35	37	2	0	3	2	0	3	6	0	22	0	3	6	1	17	23	4	127	19	7	12	0	0	0	0	13	0	1	8	4	39	1	1	18	26	0	2	2	7	0	0	0	4	1	1	5	0	0	0
OTU 50	17	30	7	124	92	10	53	119	74	10	27	8	53	1	38	48	20	68	34	12	73	23	105	12	0	36	10	9	22	1	13	65	2	1	104	1	6	134	4	85	95	40	22	16	13	24	3	15	20	0
OTU 51	2	4	5	0	0	6	1	8	57	20	2	2	26	32	14	168	22	2	184	4	17	2	150	3	12	14	75	0	15	114	10	39	8	10	79	23	6	3	43	22	7	135	22	1	3	1	2	8	0	2
OTU 52	94	14	5	24	138	33	41	14	85	9	7	297	90	98	132	265	53	61	262	12	173	19	6	111	26	55	144	26	9	165	51	61	64	41	69	37	13	164	2738	32	2	22	6	1	126	52	21	64	81	23
OTU 53	0	0	0	0	0	9	0	0	0	0	0	0	0	0	0	0	0	2	0	0	0	0	0	0	0	0	0	0	0	0	0	0	0	1	0	0	10	0	0	0	0	10	0	0	0	0	0	0	0	0
OTU 54	131	46	16	26	78	39	11	17	5	7	143	296	53	151	155	86	80	7	25	39	32	97	72	72	8	13	52	22	24	76	26	86	42	23	59	1946	27	53	48	0	22	6	13	54	32	18	59	227	0	28
OTU 55	0	0	0	0	0	0	0	0	0	0	0	0	0	0	0	0	0	0	0	0	0	0	0	0	375	0	0	0	0	0	0	0	0	0	6	0	0	0	0	0	0	0	0	0	0	0	0	0	0	161
OTU 56	0	0	39	3	0	0	84	4	21	12	8	81	36	0	1	5	13	19	26	2	42	0	5	0	54	68	1	24	2	0	1	36	1	59	0	19	0	3	3	33	0	0	36	0	16	2	37	0	18	25
OTU 57	54	94	17	43	172	83	107	270	83	100	253	234	211	35	1	188	105	33	17	17	173	17	108	88	32	130	54	32	3	43	1879	160	10	18	457	42	42	93	11	285	121	122	189	23	77	191	325	181	95	89
OTU 58	0	0	17	0	10	35	5	9	70	4	0	16	28	136	43	37	5	11	101	0	70	0	0	83	0	12	15	4	109	73	16	33	120	85	3	5	29	7	63	10	1	8	5	0	13	85	6	0	8	0
OTU 59	43	76	5	23	4	12	0	0	10	2	10	5	43	4	29	65	181	0	30	28	64	7	409	49	0	19	11	8	22	86	10	45	0	4	107	10	7	242	0	37	14	40	19	3	41	9	0	0	0	19
OTU 60	10	0	33	22	46	79	49	209	113	14	15	148	29	62	44	116	61	10	9	150	71	339	9	31	1440	1	69	2	12	7	40	78	4	0	18	13	33	5	48	36	2969	172	32	1368	49	36	53	63	14	713
OTU 61	172	160	97	118	14	100	42	11	142	43	14	29	8	115	254	47	15	106	53	77	15	110	6	52	10	55	18	23	51	227	0	6	54	23	57	25	44	537	35	100	31	28	61	9	4	6	2061	140	43	10
OTU 62	0	0	1	0	1	4	2	22	51	12	0	0	2	54	0	206	0	0	5	11	14	37	0	6	1	10	91	0	0	23	0	0	13	0	3	0	2	2	23	0	0	0	30	1	71	0	0	0	69	4
OTU 63	129	115	27	0	62	14	15	2	0	2	133	23	12	21	21	15	12	15	5	10	8	33	2085	0	6	0	8	2	0	0	0	953	17	1	25	0	13	4	33	200	0	0	13	14	13	0	2	15	0	13
OTU 64	131	25	64	83	54	109	221	16	49	17	2202	31	1	4	49	85	55	22	14	40	48	105	55	89	4	5	74	1	92	180	4	119	18	6	94	10	41	295	4	41	4	56	17	15	16	101	51	41	60	5
OTU 65	0	0	0	0	91	0	0	0	123	0	0	0	7	0	13	12	8	0	0	0	0	13	0	4	2	0	5	0	0	0	0	0	0	0	0	0	0	0	0	1	0	26	0	0	2	0	0	0	0	0
OTU 66	47	6	0	17	37	123	56	5	1379	5	1	68	118	32	3	8	911	162	116	89	131	5	355	55	10	71	17	32	17	39	20	305	0	63	17	46	61	42	5	7	26	16	27	0	55	3	3	1	0	13
OTU 67	37	43	2	40	1	1138	12	33	69	6	49	45	1	43	30	202	17	2	149	526	1	47	28	35	93	0	46	2	5	146	23	36	6	11	24	4	561	1	25	46	29	20	15	5	721	32	11	19	2	17
OTU 68	12	0	1	198	98	45	109	368	11	129	214	0	63	0	0	15	16	10	0	0	48	19	5	40	0	0	15	6	1	4	23	26	0	19	9	2	25	0	1	160	22	1	279	78	190	150	42	0	52	5
OTU 69	5	2	14	16	39	9	6	79	6	25	49	116	93	8	76	2	14	59	122	8	3029	55	53	20	49	8	0	8	36	269	2	13	7	29	190	46	5	221	1	18	76	102	55	44	6	0	0	73	11	79
OTU 70	20	11	16	0	13	8	20	46	31	51	55	0	70	1	15	3	52	214	5	0	3	15	0	5	75	2	15	0	0	7	0	14	0	5	8	13	6	134	1	0	73	19	81	65	0	0	20	6	2	11
OTU 71	19	4	172	28	487	0	0	18	38	8	0	4	1	5	0	2	0	12	10	22	0	0	7	0	3	0	0	0	3	5	0	15	0	0	3	4	0	19	0	85	0	0	17	7	5	1	1	0	124	2
OTU 72	57	8	36	31	53	2	37	119	34	19	7	31	0	30	35	7	18	109	0	0	9	38	21	18	29	14	1	15	6	32	3	61	15	5	121	10	0	423	19	91	8	52	46	24	10	12	12	95	12	10
OTU 73	6	77	37	6	14	41	44	52	109	26	0	13	236	43	73	46	30	16	4	128	5	13	20	9	9	2	424	5	12	136	15	2	33	1	108	0	19	19	26	34	155	25	62	47	1	2	62	18	11	48
OTU 74	2	9	5	19	57	22	81	4	34	0	1	15	94	3	5	2	56	89	32	20	4	14	14	24	11	38	8	14	8	11	14	0	5	93	12	34	8	105	15	20	10	24	1	6	17	4	0	20	86	1
OTU 75	3	41	15	193	66	63	39	34	79	331	119	118	170	18	11	97	227	20	0	9	174	46	22	20	77	0	20	0	45	6	32	38	8	16	100	14	24	4	18	157	101	312	757	86	28	90	47	16	24	28
OTU 76	37	24	0	0	0	6	18	4	44	4	4	1	0	31	0	2	12	0	0	4	2	2	10	11	0	14	1	5	3	16	15	0	1	13	133	20	5	13	13	39	0	4	4	15	0	13	0	0	0	0
OTU 77	188	12	21	205	10	18	774	35	29	42	3	33	26	86	6	27	8	0	8	1	39	33	62	70	0	66	18	29	7	2	33	57	32	35	5	32	8	2	21	34	53	378	81	4	30	1	36	42	83	43
OTU 78	15	45	0	54	85	79	98	49	35	5	79	31	36	9	16	228	26	36	155	76	41	4	25	0	0	1	183	13	3	0	0	90	14	3	209	0	28	99	14	151	0	2	4	36	34	0	19	87	2014	14
OTU 79	266	97	185	516	64	76	49	158	55	102	1129	118	188	139	358	127	103	128	78	35	119	176	121	3	183	76	567	226	104	34	71	107	780	98	741	20	37	99	105	900	187	96	168	126	15	693	68	301	41	65
OTU 80	103	72	37	37	1	9	5	31	39	26	48	7	14	248	107	110	4	189	24	3	6	42	185	22	49	1	64	0	186	5	57	88	135	16	22	4	4	16	130	108	13	22	46	6	101	18	2	6	3	19
OTU 81	199	79	8	176	55	31	58	118	63	24	43	5	7	26	27	81	29	237	95	22	21	0	54	20	8	4	71	25	15	7	15	140	7	22	24	0	21	72	55	23	73	47	74	1872	15	42	119	103	17	29
OTU 82	118	39	38	1	4	0	24	61	30	20	0	105	7	2206	133	33	10	214	68	15	0	18	11	37	42	0	12	5	1124	152	5	1	851	88	4	28	0	62	1048	63	39	6	17	12	30	29	72	2	126	2
OTU 83	0	0	1	16	0	0	3	0	21	4	0	0	0	0	0	0	43	0	1	0	0	0	0	0	0	72	0	10	2	0	0	0	0	7	0	8	0	0	0	1	3	124	14	0	0	0	0	277	0	0
OTU 84	5	22	0	4	17	14	5	13	7	0	0	18	0	28	7	4	5	44	0	5	0	51	225	43	7	23	4	0	0	37	0	0	4	2	78	2146	8	303	9	4	45	9	0	534	1	6	0	0	80	5
OTU 85	1	14	9	1894	0	1	0	0	5	0	1	7	1	18	61	2	2	0	1	0	36	12	11	10	0	54	4	29	8	0	18	0	8	0	0	54	0	0	20	3	0	0	0	2	0	148	0	2	6	1
OTU 86	0	0	1	0	0	0	0	3	0	0	0	0	0	0	46	0	0	0	0	0	0	14	0	0	0	0	0	0	0	117	0	4	0	0	18	0	0	0	0	0	0	0	0	0	0	0	0	0	0	0
OTU 87	219	145	1	58	24	0	83	0	0	0	0	12	36	0	28	5	0	108	1	0	0	0	0	4	1	1	0	0	7	2	7	16	6	0	0	0	0	0	1	19	0	0	0	0	1	1	5	2	4	0
OTU 88	4	2	0	0	17	0	0	22	93	0	0	19	4	0	0	0	0	0	0	2	34	6	0	0	0	0	0	0	0	0	2	0	2392	0	0	0	0	0	0	0	0	11	0	4	0	8	0	0	2	0
OTU 89	618	41	1	1	9	29	46	0	0	2	84	2	0	0	129	18	6	306	5	0	116	50	10	2	3	1	8	0	28	1	0	0	3	25	12	0	14	19	0	5	1	4	5	0	4	0	0	80	8	0
OTU 90	0	0	0	0	0	0	0	12	0	0	0	0	0	2	0	0	0	26	0	0	302	4	0	0	0	0	0	0	0	0	0	0	0	7	1	0	0	0	312	0	12	0	0	0	6	12	0	0	0	0
OTU 91	0	2	3	25	2	0	0	0	0	0	1	1	0	0	0	0	0	0	0	0	0	0	0	0	0	0	0	0	0	0	1	0	1	0	0	0	0	0	1	0	6	0	0	3	32	0	0	0	0	0
OTU 92	2	0	0	0	6	53	0	0	2	0	13	0	0	0	4	0	15	9	1	0	4	12	1	14	1	0	1	0	0	0	0	13	0	0	29	0	18	4	0	75	0	41	1	10	0	61	0	5	5	0
OTU 93	0	9	0	0	0	0	0	9	0	0	0	0	0	0	0	0	0	9	0	0	0	0	0	3	0	0	0	0	0	0	0	0	0	0	0	0	0	0	0	104	13	0	0	15	14	0	0	0	1	12
OTU 94	56	15	20	6	3	74	124	80	10	32	24	23	10	30	62	189	68	20	6	157	17	1	141	5	66	9	92	0	9	102	9	8	4	12	6	8	34	71	2	98	15	74	63	55	77	31	96	4	65	133
OTU 95	3	0	5	2	5	0	0	744	0	123	10	0	518	1	40	18	0	0	1	1	0	57	39	0	141	20	3	9	6	0	1	0	0	1	35	5	0	25	0	0	343	0	253	136	1	8	347	1	12	90
OTU 96	0	0	0	0	0	0	0	0	0	1	0	1	11	1	6	0	39	39	11	0	0	4	67	0	0	0	0	0	0	0	13	0	1	11	0	0	0	0	1	0	0	0	0	0	0	1	0	0	0	32
OTU 97	24	0	2	3	0	21	0	13	0	0	0	0	8	0	0	0	4	0	0	9	0	0	18	0	0	0	0	0	0	0	36	1	0	0	11	0	13	7	0	0	9	1	0	0	2	0	0	90	1	0
OTU 98	1	29	0	8	31	107	4	4	100	1	0	3	0	9	0	2	3	0	2	32	42	5	1	1	0	8	2	3	11	24	0	21	0	20	0	0	57	0	1	72	26	0	0	1	32	3	6	0	0	0
OTU 99	19	48	45	2	36	91	95	246	82	9	19	115	73	45	172	26	24	7	122	33	77	3885	35	43	17	63	23	12	19	174	2	42	17	69	28	9	53	77	50	25	50	128	11	49	1	3	6	41	34	9
OTU 100	33	21	27	49	24	135	9	128	44	35	40	15	101	26	8	27	0	13	46	85	23	34	1	28	58	1	9	3	22	1	54	67	13	3	62	8	64	0	18	4	104	6	57	32	61	0	12	16	0	21
OTU 101	4	0	0	5	0	0	0	0	5	1	32	0	0	6	0	19	3	9	1	0	49	0	0	0	0	0	12	6	0	0	0	0	2	34	26	9	0	0	11	0	13	0	8	10	0	0	0	5	0	0
OTU 102	0	0	0	8	14	0	0	0	9	0	1	0	0	82	51	0	59	1	0	0	0	26	2	0	0	1	3	0	25	0	1	28	22	0	9	0	0	78	28	0	0	0	0	0	0	39	0	37	0	6
OTU 103	33	14	17	10	0	5	50	0	1	4	3	10	9	0	6	3	53	48	33	12	13	0	35	19	4	17	0	10	5	157	1	4	1	2	10	5	5	58	10	5	0	2944	8	0	0	15	24	43	10	22
OTU 104	73	45	19	190	71	303	104	162	80	33	4	1205	12	4	16	62	44	1	269	18	76	56	59	44	15	37	18	22	32	11	22	31	0	20	118	16	148	3	5	10	27	16	37	1	2	30	164	27	34	23
OTU 105	2	1	46	1	69	8	0	9	0	0	0	31	0	0	0	99	0	5	2	2	42	0	13	0	1	0	64	0	0	15	0	0	0	0	10	1	3	0	3	0	0	0	0	0	0	0	4	0	0	0
OTU 106	0	0	25	0	5	10	1	0	0	3	0	4	12	2	24	0	0	0	0	11	2	24	0	2	0	21	4	5	0	0	0	0	1	65	0	1	3	107	1	0	8	17	0	0	0	0	0	3	0	0
OTU 107	33	9	3	0	0	6	36	7	120	1	1	152	31	0	19	6	0	32	32	0	0	1	47	115	1	6	0	0	0	0	20	2	8	14	1	0	6	5	2	6	11	32	0	16	5	2	0	109	3	2
OTU 108	0	138	1	22	1	0	66	50	12	7	195	0	0	1	2	8	447	0	1	16	122	0	8	362	25	124	0	89	5	0	148	2	0	193	2	117	0	0	8	15	2	3	17	61	17	88	54	29	8	32
OTU 109	0	0	0	0	44	0	0	0	31	0	0	0	0	0	0	0	0	2	0	0	0	0	0	0	0	0	0	0	0	0	0	0	0	0	0	0	0	0	0	0	0	0	0	0	0	0	0	0	0	0
OTU 110	254	71	27	41	23	202	19	57	10	12	21	51	144	148	117	9	52	40	0	18	25	95	3	1	23	3	2	0	76	32	10	69	65	0	29	4	117	6	26	0	0	1	15	34	6	16	10	216	9	5
OTU 111	0	0	0	0	2	0	0	0	4	0	37	4	0	0	0	0	0	0	7	0	47	5	1	36	0	5	0	5	0	0	0	0	0	0	0	0	0	1	7	0	3	19	0	2	0	0	0	66	0	0
OTU 112	87	1	2	1	91	6	82	3	7	23	3	14	87	41	10	10	1	65	7	0	131	0	11	0	10	6	11	6	68	109	0	4	2	0	6	0	4	7	13	0	0	7	10	0	12	0	7	4	44	3
OTU 113	2	25	0	28	19	4	0	19	0	0	0	0	0	3	0	12	6	3	0	0	0	3	0	2	0	0	6	2	0	0	0	2	0	1	1	0	0	0	13	8	0	0	0	0	3	0	0	0	0	2
OTU 114	0	8	2	6	31	79	31	19	601	5	28	0	89	15	159	8	1519	19	86	100	158	76	103	4	25	24	1	4	19	217	2	303	3	161	3	5	47	14	3	18	87	77	33	40	6	2	31	46	30	56
OTU 115	51	73	42	52	78	69	149	18	101	11	93	180	80	12	19	153	79	98	156	24	54	12	48	35	42	4	77	2	11	19	8	76	9	35	34	48	43	218	6	63	81	1	14	89	0	105	21	189	110	15
OTU 116	81	9	34	15	36	54	54	8	29	10	78	118	39	25	10	27	4	88	29	70	10	0	8	19	43	39	14	2118	48	5	1	11	1	65	42	9	26	16	21	5	49	1	46	18	25	11	34	99	4	0
OTU 117	8	3	0	2	9	73	15	0	90	1	18	9	1	108	193	117	6	0	11	5	15	90	52	7	5	3	29	1	15	8	4	256	35	1	14	0	40	22	35	111	9	48	0	14	5	41	19	192	4	2
OTU 118	1	0	21	2	0	0	0	0	0	0	0	39	0	21	0	0	0	5	0	4	3	0	0	2	0	0	1	7	0	111	1	0	23	0	3	17	0	41	10	0	2	6	0	5	1	0	0	0	14	1
OTU 119	92	27	121	12	25	53	39	41	46	0	4	10	67	46	14	30	29	295	0	7	31	0	0	5	45	4	21	2	15	5	2	30	37	24	3	6	28	12	12	30	17	8	3	2	215	1	26	49	44	5
OTU 120	0	12	0	118	220	98	0	0	24	0	7	1	0	14	38	0	1	0	1	7	0	11	1	0	3	2	0	0	9	0	0	7	66	3	16	0	48	122	0	5	0	7	1	13	0	34	28	12	5	0
OTU 121	492	168	0	0	91	19	127	21	136	8	17	0	0	23	204	24	5	255	57	9	19	50	3	50	0	6	8	0	0	1	3	0	46	0	0	1	11	21	4	6	0	5	15	0	3	31	35	8	6	19
OTU 122	7	59	20	34	127	28	104	178	35	44	0	64	27	25	1	43	5	6	62	8	96	16	203	6	80	5	16	0	2	68	3	7	19	27	23	5	14	94	0	6	99	86	117	51	61	0	90	8	2	68
OTU 123	96	189	184	15	982	41	95	88	225	38	104	132	76	132	220	187	107	42	210	23	678	146	400	95	44	19	99	20	82	537	204	185	104	173	192	22	17	394	89	298	22	85	65	14	63	64	22	780	309	49
OTU 124	0	1	0	11	4	2	9	1	0	2	1	1	2	6	57	1	1	0	24	0	22	49	0	4	1	1	0	3	6	14	16	0	0	15	1	5	1	2	6	0	2	9	2	0	0	0	0	0	23	0
OTU 125	384	77	290	1005	91	2	126	140	74	86	149	251	2187	1969	202	194	251	246	322	52	142	124	112	40	190	47	125	12	1053	220	60	81	2443	24	64	50	1	157	1024	1809	148	155	165	114	30	90	135	148	129	46
OTU 126	0	7	1	5	63	0	0	50	41	13	0	0	0	0	51	17	0	0	7	5	0	23	0	0	0	1	12	0	19	0	0	0	1	11	42	0	0	1	0	64	32	132	35	16	0	0	18	1	0	25
OTU 127	1	18	118	8	1	3	72	8	6	0	5	118	0	0	13	0	2	4	10	4	4	3	2	26	2	6	0	0	4	13	23	25	4	10	39	10	3	5	6	1	0	3	0	0	12	11	8	62	0	0
OTU 128	71	603	92	152	362	232	241	186	189	125	379	22	117	120	26	68	40	956	146	93	50	52	146	196	44	504	12	221	3664	204	349	302	21	720	162	233	197	48	98	105	170	314	205	153	22	28	395	174	79	50
OTU 129	0	58	1	0	0	0	1	440	0	135	0	55	96	0	0	0	1	0	0	0	1	0	0	14	82	0	0	0	0	0	0	43	1	0	0	3	0	3	0	0	141	0	268	50	0	0	203	5	2	31
OTU 130	18	0	109	0	31	0	19	21	8	1	29	4	1	28	85	110	11	3	3	5	3	12	5	37	0	7	44	9	85	0	13	78	46	4	0	0	0	18	37	41	1	447	0	2	13	0	12	90	1	9
OTU 131	3	24	12	21	7	26	29	154	83	15	0	486	51	61	13	23	5	2	245	0	2	0	64	1	40	1	5	0	1	5	1	46	34	45	157	6	20	71	28	4	96	52	46	52	22	4	30	400	2	27
OTU 132	7	0	0	99	14	12	0	3	0	1	52	6	0	0	1	81	7	0	6	17	16	0	17	46	1	8	26	3	3	20	55	10	0	32	3	1	6	52	0	160	22	34	0	0	0	8	15	43	1	6
OTU 133	102	0	76	0	6	60	1	0	0	0	12	1	0	0	1	24	0	15	0	40	0	3	0	0	0	12	4	17	1	0	1	0	8	0	0	4	28	0	0	0	0	0	0	1	148	4	1	0	0	0
OTU 134	1	4	3	43	53	166	17	157	36	10	387	66	77	1	13	51	31	33	0	107	18	6	0	183	78	26	11	31	1	0	62	17	0	81	1	38	85	128	1	18	164	406	33	95	0	3	21	19	2	3
OTU 135	38	46	22	22	12	6	5	0	83	2	10	7	20	7	46	2	47	15	15	19	106	18	4	29	2	7	1	14	0	31	25	1	2	9	23	0	0	65	3	0	39	50	4	11	4	70	44	46	7	0
OTU 136	42	3	5	0	61	1135	17	6	0	2	38	28	11	16	0	0	10	7	15	524	0	2	5	0	0	5	1	1	38	0	1	0	19	1	206	1	563	169	9	59	1	4	0	7	962	10	2	50	4	0
OTU 137	0	0	0	0	20	0	62	0	4	1310	0	82	38	1	18	41	9	4	3	0	11	0	4	0	1	0	19	0	2	3	0	0	0	0	0	0	0	0	0	0	0	2	2729	0	0	98	0	12	0	2
OTU 138	5	52	1	40	75	1	15	0	97	7	1	0	18	0	45	65	0	9	192	18	0	0	0	0	4	3	14	5	20	0	0	0	0	22	10	4	1	1	0	7	3	39	1	0	15	13	0	20	2	1
OTU 139	282	111	170	43	218	6	87	180	296	103	42	103	87	321	975	76	17	121	296	9	28	579	25	1449	19	97	23	49	682	83	675	167	181	43	95	35	7	17	191	3	33	82	231	54	13	5	191	117	47	14
OTU 140	210	19	64	89	174	51	18	43	95	37	29	250	166	120	94	61	9	15	65	45	38	49	167	138	14	39	50	27	30	69	41	174	55	84	238	22	4612	50	50	233	22	155	49	21	49	90	47	13	13	5
OTU 141	0	0	0	0	0	0	0	0	0	0	0	2	0	0	0	0	0	0	0	0	0	0	0	0	0	0	0	0	0	0	0	0	0	0	0	0	0	0	0	0	4	0	0	0	0	0	0	0	0	0
OTU 142	0	0	0	0	0	0	0	0	0	0	4	0	0	0	6	0	2	0	0	0	0	0	0	0	1	0	0	0	0	0	0	0	0	0	0	1	0	0	0	0	28	0	0	0	0	0	0	0	0	0
OTU 143	1	0	0	2	2	0	5	0	0	0	26	24	21	16	0	82	39	0	0	0	0	0	14	0	1	3	28	0	0	0	4	6	0	3	1	0	0	69	2	0	9	0	0	0	0	15	0	19	0	0
OTU 144	80	1	1	1	7	0	2	5	13	0	0	1	18	1	0	5	20	0	0	0	2	5	1	32	35	0	2	1	10	0	1	3	0	0	0	0	0	31	1	0	0	4	0	1	5	6	7	0	14	0
OTU 145	100	1506	5	44	12	13	47	4	2	17	32	11	13	75	48	116	27	1902	36	19	120	52	57	3	125	0	73	1	29	29	0	20	32	0	6	5	4	0	24	1	5	7	15	7	102	14	18	293	12	23
OTU 146	34	3	8	14	0	5	10	56	152	4	5	1	69	62	64	8	16	10	46	16	0	80	33	19	29	3582	17	1954	11	2	18	7	28	45	8	1803	1	13	76	1	3	43	22	12	13	76	11	37	10	0
OTU 147	0	2	0	4	26	16	0	0	0	1	8	0	37	7	0	5	9	2	0	0	22	0	13	2	4	18	1	9	8	0	0	30	22	1	9	0	5	0	11	3	1	41	0	0	0	0	44	1	1	0
OTU 148	23	7	6	39	46	20	7	58	6	6	1	5	0	48	61	0	0	23	8	12	59	14	73	0	1	0	0	0	13	116	21	92	71	0	25	0	7	144	28	5	0	43	26	16	124	10	1779	185	1	0
OTU 149	0	14	1	1	37	48	7	15	1	0	13	1	12	18	0	0	0	2	8	2	229	2	5	1	13	3	1	7	1	0	0	0	3	1	1	9	26	2	0	28	17	0	0	100	4	28	3	30	0	0
OTU 150	0	0	0	14	4	0	22	0	0	1	0	0	39	25	0	8	1	0	34	13	0	247	0	7	0	4	9	0	0	265	3	25	10	9	0	0	0	49	27	1	0	0	0	9	0	9	0	0	4	1
OTU 151	1	11	6	2	42	80	13	4	19	3	45	125	5	22	12	40	0	1	17	77	2	6	118	0	4	11	19	7	7	74	131	12	8	23	23	1	37	0	0	10	3	9	7	2	11	2	2	37	0	45
OTU 152	53	20	46	105	36	0	352	288	137	83	0	1	29	14	96	34	2	105	30	14	36	20	2	16	270	38	12	38	34	0	3	1	0	9	0	6	0	3	21	65	134	30	154	89	4	20	92	24	174	64
OTU 153	0	0	1	4	0	0	4	0	0	3	0	0	22	0	0	0	0	0	0	0	0	0	1	0	11	0	0	0	0	26	0	0	0	0	0	0	0	0	0	0	0	1	6	2	0	0	0	0	0	2
OTU 154	0	0	0	1	10	26	0	13	0	1	7	1	5	0	0	4	0	0	0	28	0	2	9	0	0	0	2	0	19	0	2	0	0	0	0	0	19	36	0	0	31	0	5	4	41	3	38	1	0	0
OTU 155	0	1	52	0	0	0	11	31	0	0	87	0	3	1	0	18	14	33	4	0	0	0	0	4	1	5	10	2	5	287	6	1680	0	41	61	0	0	246	1	46	41	3	0	1	0	9	0	0	0	0
OTU 156	12	12	25	25	52	24	16	98	40	7	23	77	48	11	29	82	50	17	3	3992	35	4	20	7	47	11	37	1	34	3	25	3	4	11	27	1	16	60	8	242	21	9	22	1	26	8	125	114	44	1
OTU 157	1	0	0	18	7	106	0	14	1	4	14	0	23	4	1	0	13	23	0	83	0	0	0	0	6	5	0	5	2	9	0	0	0	0	3	0	47	0	0	0	68	1	9	18	1	5	16	190	19	4
OTU 158	0	0	0	0	0	0	0	0	0	0	0	11	0	0	0	0	6	31	0	0	1	0	0	0	0	0	0	0	0	0	0	1	0	0	0	1	0	11	0	3	0	13	2	0	0	3	0	0	1	0
OTU 159	119	99	0	31	29	25	49	19	2	9	7	2	47	12	0	682	1	0	3	0	18	1	147	88	482	10	401	0	0	4	27	26	1	1	5	8	14	2	1	0	28	5	7	45	33	17	74	0	54	177
OTU 160	214	107	72	26	37	69	199	102	215	72	169	59	42	22	56	207	38	58	51	63	19	19	88	6	16	62	167	30	27	174	2	139	6	51	164	24	28	19	6	24	115	102	82	53	19	95	59	34	108	23
OTU 161	6	43	1	8	51	0	118	70	59	49	24	170	5	0	0	33	36	0	4	2	71	7	19	17	41	1	6	0	24	39	56	2	0	0	91	2	0	0	4	47	0	7	90	4	55	41	36	0	61	9
OTU 162	55	314	0	81	1	19	9	115	30	12	14	4	64	0	23	21	3	28	70	9	55	0	182	9	69	25	12	9	38	27	3	18	0	37	26	4	9	162	4	137	17	15	12	4	24	47	17	29	43	13
OTU 163	0	0	4	0	0	0	0	0	0	0	0	0	0	0	0	0	0	0	0	0	0	0	0	29	0	3	0	0	0	0	0	0	0	0	0	0	0	0	0	0	0	0	0	0	0	0	1	0	0	0
OTU 164	0	1	0	0	0	0	0	0	0	0	0	0	0	0	1	0	8	0	0	4	0	0	0	15	0	0	0	0	0	0	0	0	3	3	0	0	0	0	0	0	0	0	0	0	0	0	1	0	0	0
OTU 165	2	1	2	2	3	0	16	0	2	0	8	6	0	6	0	12	0	11	690	28	19	2	15	0	1	1	9	0	0	54	0	4	10	16	3	3	0	229	0	3	26	0	0	10	1	6	0	25	1	1
OTU 166	0	0	0	0	0	0	0	0	0	3	0	0	0	0	0	0	0	0	0	0	0	0	0	0	0	0	0	0	0	0	0	0	0	0	0	0	0	0	0	0	0	0	6	0	0	0	1	0	0	1
OTU 167	53	3	0	2	0	38	15	158	77	75	6	7	32	2	0	0	8	1	1	32	117	0	1	3	82	10	2	7	4	47	0	13	11	20	5	4	23	186	0	0	105	2	142	96	16	61	253	0	6	3
OTU 168	31	2	11	9	120	11	209	15	25	6	22	1	2	0	17	887	44	97	3	10	7	21	20	127	1	50	470	29	3	4	36	32	0	33	36	25	5	130	0	2	0	45	9	1	0	34	3	73	95	0
OTU 169	6	0	0	77	0	0	0	0	0	8	0	0	0	0	0	5	0	0	0	0	0	0	3	4	0	0	0	0	1	0	7	0	0	0	0	0	0	0	0	112	0	0	8	0	0	3	0	0	0	8
OTU 170	0	0	0	0	0	0	0	3	1	0	1	13	0	1	0	0	0	0	0	0	0	1	0	0	0	0	0	0	0	0	0	2	0	0	0	3	0	0	1	0	0	0	2	0	0	2	5	0	0	0
OTU 171	3	2	4	24	1	4	33	89	73	1	9	78	14	0	9	0	9	17	0	1	32	0	28	24	0	0	6	5	0	21	8	29	0	0	2019	1	1	429	4	0	10	0	0	0	0	13	0	7	2	11
OTU 172	0	0	0	0	32	2	1	0	0	0	0	1	0	0	0	1	0	2	73	0	0	0	18	0	1	0	0	0	0	27	0	5	0	0	0	0	0	0	0	0	0	0	0	0	0	0	2	0	0	0
OTU 173	2	0	5	3	54	9	0	0	34	0	0	0	0	0	5	6	11	4	36	10	1	1	67	3	2	2	4	0	6	118	4	17	0	1	0	449	4	59	0	17	0	16	0	0	3	0	0	4	1	1
OTU 174	112	89	0	89	249	0	617	139	1	76	88	39	0	83	197	0	3	67	0	0	25	182	185	45	41	9	0	0	3	0	24	124	32	0	7	2	0	0	28	196	22	0	137	57	25	3	24	53	2	56
OTU 175	0	2	31	0	0	1	6	5	61	0	0	113	17	1	17	0	5	4	0	4	3	3	3	5	0	0	0	11	23	21	0	0	1	0	43	11	0	19	8	17	0	19	0	0	0	24	7	3	47	1
OTU 176	8	12	12	1	70	17	130	11	39	1	119	11	26	63	96	4	55	7	117	5	44	55	26	2272	0	24	3	13	6	119	1342	39	12	85	14	10	9	284	23	28	17	103	0	0	2	2	26	142	71	17
OTU 177	73	14	17	23	28	77	4	21	73	1	85	1	64	62	128	127	30	1	0	3	4	34	2	3	0	12	50	21	60	149	0	0	11	4	143	1	39	13	16	47	3	11	2	8	13	62	3	24	0	0
OTU 178	0	0	4	72	25	0	1	60	0	0	8	0	2	0	0	0	2	3	23	0	25	0	33	34	0	6	0	0	2	22	9	4	15	1	100	1	0	0	1	65	17	4	4	2	0	0	12	10	1	26
OTU 179	3	10	2	2	4	12	13	247	87	19	20	3	71	17	15	40	49	2	11	8	1	9	17	2	25	19	17	23	14	2	0	42	9	93	11	12	5	2	6	3	19	7	24	0	21	50	7	57	1	0
OTU 180	64	33	1576	38	290	1199	28	129	130	1758	195	173	34	20	16	834	387	30	57	984	75	41	30	124	7	155	373	71	174	47	76	249	15	154	27	95	576	53	24	456	105	119	183	189	358	58	77	49	608	58
OTU 181	12	3	3	34	1	1	16	8	73	8	29	0	41	7	2	0	24	7	29	0	0	0	12	37	0	4	0	9	1	25	1	11	0	1	0	8	0	15	1	0	16	3	7	0	8	4	9	25	18	122
OTU 182	0	1	0	0	0	1	1	0	0	23	0	0	1	0	12	1	0	0	0	0	0	0	0	0	0	4	0	0	0	4	0	0	0	0	0	0	1	0	0	4	0	0	32	0	0	0	0	36	0	0
OTU 183	119	0	56	11	26	6	53	84	4	13	1	27	0	62	159	0	29	82	40	20	2	194	2	0	77	5	0	0	12	77	6	0	43	0	4	0	4	40	47	5	48	89	64	19	11	30	52	8	1	11
OTU 184	0	0	0	21	1	3	19	31	0	1	11	9	2	0	78	35	0	0	0	0	0	37	1	22	5	0	3005	0	1	7	4	2	0	0	1	0	1	0	1	0	17	1	7	1	15	0	24	90	7	0
OTU 185	95	1	171	7	1	1	99	67	4	7	8	0	120	0	42	164	129	24	1923	3	12	32	5	1	33	4	95	3	2	36	6	16	1	76	60	3	1	202	1	89	32	37	10	7	7	13	3	293	3	3024
OTU 186	0	14	0	4	125	0	0	50	0	0	0	0	13	12	0	87	1	11	0	0	11	0	0	0	473	4	55	1	31	56	5	4	4	0	19	4	0	19	1	0	817	0	1	592	2	0	103	28	41	277
OTU 187	17	1718	30	10	55	16	186	118	223	32	245	14	32	146	50	182	49	25	2	65	30	40	1	39	14	503	98	260	31	14	1	17	74	1103	25	161	9	53	1427	17	109	6	87	29	78	19	0	47	18	12
OTU 188	33	40	11	25	10	0	38	9	527	26	120	114	18	71	3	195	2	72	114	35	25	23	324	90	86	19	105	7	10	29	17	208	45	13	91	25	0	195	24	67	12	0	27	3	62	57	2	13	22	30
OTU 189	65	29	3036	186	44	51	144	36	303	14	30	147	168	36	11	20	57	4	33	5	99	11	227	40	1	43	10	36	31	28	9	82	23	81	40	41	25	24	19	11	51	184	51	47	26	1	46	19	84	7
OTU 190	0	171	0	3	0	0	7	74	0	4	0	0	0	0	1	0	0	252	0	3	0	2	1	0	7	0	0	0	0	1	0	3	0	0	20	0	0	0	0	0	0	0	5	0	0	0	0	0	0	0
OTU 191	101	10	78	28	42	25	20	9	25	17	110	140	55	22	25	32	27	13	105	49	114	25	0	79	0	19	35	3	11	8	43	219	49	62	48	13	11	154	49	10	34	491	45	6	6	21	30	0	447	0
OTU 192	114	292	24	1443	53	142	16	405	8	60	42	25	250	107	136	98	5	214	33	45	76	44	126	54	240	5	64	5	27	66	10	100	56	125	6	15	75	14	56	66	358	39	99	163	25	1	123	89	22	71
OTU 193	34	10	71	16	23	52	37	25	28	16	126	17	3	8	0	1	1117	0	25	23	55	1	106	13	24	16	1	31	13	47	4	36	0	0	31	5	19	64	4	4	15	55	42	103	101	3	33	0	46	27
OTU 194	0	6	43	3	11	3	17	19	16	9	0	0	12	53	8	22	23	53	23	1	7	8	0	0	5	6	7	0	1	0	11	28	20	0	45	2	1	4	19	0	91	41	18	11	3172	1	7	58	0	4
OTU 195	13	21	194	43	19	3	145	0	0	0	86	0	3	187	213	0	29	0	2	7	372	196	69	5	3	0	0	5	159	36	0	15	74	1	8	7	0	2	79	24	8	3	0	15	15	34	33	34	16	0
OTU 196	5	7	0	73	10	175	23	63	7	15	47	68	1	1	8	4	25	7	5	26	17	8	17	164	21	110	3	19	0	2103	52	65	1	175	2	13	82	1	0	51	13	8	34	15	131	9	51	2	36	0
OTU 197	94	152	73	74	171	34	85	37	143	8	21	41	61	53	121	71	197	18	147	17	42	84	73	58	52	8	29	30	32	60	17	22	62	52	687	5	16	22	8	123	27	128	13	21	24	22	348	98	21	6
OTU 198	6	57	0	0	14	0	0	98	37	2	32	27	0	4	0	0	84	57	0	2	0	2	0	3	16	5	0	0	0	10	2	0	0	25	8	0	0	0	0	0	52	1	9	2	0	0	0	122	0	7
OTU 199	0	34	23	91	0	0	24	45	59	1	19	43	9	14	78	0	6	4	0	0	0	69	85	6	0	0	0	1	3	4	8	1	1	0	20	0	0	9	2	0	1	59	9	3	12	13	0	4	0	0
OTU 200	76	29	25	40	57	219	7	33	1	19	8	34	2	9	12	69	5	8	32	43	15	2	62	0	0	0	54	0	9	7	8	0	16	16	50	3	125	3	5	89	25	23	26	51	3	1	42	17	1	0
