	Host 1	Host 2	Host 3	Host 4	Host 5	Host 6	Host 7	Host 8	Host 9	Host 10	Host 11	Host 12	Host 13	Host 14	Host 15	Host 16	Host 17	Host 18	Host 19	Host 20	Host 21	Host 22	Host 23	Host 24	Host 25	Host 26	Host 27	Host 28	Host 29	Host 30	Host 31	Host 32	Host 33	Host 34	Host 35	Host 36	Host 37	Host 38	Host 39	Host 40	Host 41	Host 42	Host 43	Host 44	Host 45	Host 46	Host 47	Host 48	Host 49	Host 50	
OTU 1	2	4	0	10	0	4	9	2	8	8	3	20	1	0	3	1	6	0	6	10	0	4	13	5	0	4	3	10	7	0	3	8	1	2	0	3	1	4	0	8	12	3	5	5	6	0	5	5	1	4
OTU 2	0	1	0	2	0	0	0	0	2	2	0	0	0	2	0	0	1	0	0	0	1	0	0	0	0	0	0	0	0	0	2	0	0	0	0	0	0	0	0	4	0	0	2	0	0	0	0	0	1	0
OTU 3	0	0	0	5	0	1	0	0	0	0	0	0	0	0	0	0	0	1	0	0	0	0	0	0	0	0	0	0	0	0	0	0	0	0	0	2	0	0	0	0	0	0	0	0	1	4	2	0	0	0
OTU 4	1	0	0	0	0	0	0	0	0	0	0	0	0	0	0	0	0	0	0	0	0	0	0	0	0	0	0	0	0	0	0	0	0	0	0	0	0	0	0	0	1	0	0	0	0	0	0	0	0	0
OTU 5	26	2	15	16	8	1	18	5	24	8	2	2	27	6	42	4	57	19	36	6	2	13	4	4	2	17	17	1	26	73	4	10	62	12	0	12	6	4	4	1	17	2	6	50	24	0	53	18	9	11
OTU 6	0	0	0	0	0	0	0	0	0	0	0	0	7	0	4	0	0	0	0	0	0	0	1	3	1	0	0	2	0	0	6	2	0	0	0	2	3	0	0	1	0	0	0	0	0	6	5	0	0	1
OTU 7	1	0	1	12	7	5	0	1	4	16	9	2	2	1	1	1	6	1	12	0	15	0	5	5	3	1	2	9	16	0	15	0	5	1	1	3	16	0	0	15	4	2	2	0	7	1	0	5	0	1
OTU 8	0	11	0	1	1	4	4	3	3	3	3	2	3	3	9	2	4	0	2	4	5	7	7	0	1	0	1	1	1	0	1	5	0	5	0	1	3	5	2	0	0	2	6	0	7	4	2	1	3	0
OTU 9	4	3	0	1	0	1	0	0	0	0	0	1	0	0	0	1	0	3	5	0	1	0	0	0	0	4	33	0	0	0	0	0	3	0	2	0	1	0	0	1	2	4	0	0	1	1	0	0	1	0
OTU 10	0	0	2	0	0	0	0	0	10	1	11	0	0	1	0	0	2	2	6	0	0	0	0	0	0	1	1	0	16	6	5	0	2	0	2	0	0	0	0	23	0	0	0	0	0	0	0	8	51	0
OTU 11	2	0	7	1	0	1	2	0	0	2	4	3	2	0	2	0	4	1	0	2	0	1	0	0	0	1	0	1	0	0	1	0	1	4	8	0	0	0	0	0	5	0	0	0	0	1	0	1	0	0
OTU 12	0	2	1	1	0	1	1	0	5	1	1	0	3	4	1	3	3	0	3	1	1	1	0	0	1	5	0	2	4	0	1	0	1	0	0	0	0	3	1	1	0	0	0	0	0	0	0	1	13	1
OTU 13	0	0	0	0	0	0	0	0	0	0	1	2	0	0	0	0	0	1	0	0	0	0	0	1	1	0	0	0	0	2	0	0	0	0	0	0	0	0	0	0	0	0	0	0	0	0	0	0	0	0
OTU 14	0	0	2	0	0	0	0	0	0	0	0	0	1	0	0	0	0	0	0	0	4	0	0	0	0	0	0	0	0	0	0	2	0	0	2	0	0	0	0	0	0	0	0	0	0	1	0	0	7	0
OTU 15	0	0	0	0	0	0	0	0	0	0	0	0	3	0	0	0	0	0	0	0	0	0	0	0	0	0	0	0	0	0	0	0	0	0	0	0	0	0	0	0	0	0	0	0	0	0	0	0	0	0
OTU 16	0	0	0	0	0	0	0	0	0	0	0	0	0	0	0	0	0	0	0	0	0	0	0	0	0	0	0	0	0	0	0	0	0	0	5	0	0	0	0	0	0	0	0	0	0	1	0	0	0	0
OTU 17	0	0	0	0	0	0	0	0	0	0	2	0	7	0	2	0	0	0	0	0	0	3	0	4	0	0	1	0	0	1	2	1	0	0	0	0	0	0	0	0	2	0	0	0	1	0	0	0	4	0
OTU 18	0	0	0	0	1	5	0	2	2	0	1	0	3	0	0	0	2	2	3	0	1	5	2	0	0	0	0	2	1	4	3	2	4	0	2	0	0	2	6	5	0	0	0	0	0	6	1	0	1	0
OTU 19	0	0	0	0	0	0	0	0	0	0	0	0	0	0	0	0	0	0	0	0	0	0	0	0	0	0	0	0	0	0	0	0	0	0	0	0	0	0	0	0	0	0	0	0	0	0	0	0	0	0
OTU 20	0	5	0	0	0	1	0	2	0	3	0	1	0	0	2	1	0	2	1	4	0	0	0	0	0	2	0	1	0	1	0	4	1	4	0	1	2	2	0	3	0	0	66	0	0	0	0	0	0	0
OTU 21	0	1	0	0	0	2	2	2	0	1	1	1	0	0	1	0	4	0	0	1	1	0	0	3	2	0	0	0	1	1	0	1	19	0	0	0	3	0	0	0	3	3	1	0	0	1	0	1	1	0
OTU 22	0	0	3	2	0	0	0	0	5	0	0	1	8	1	2	0	1	2	0	3	1	3	1	0	2	0	0	1	1	0	0	0	0	125	0	2	0	0	0	5	0	1	0	1	2	1	3	0	0	0
OTU 23	1	0	2	3	0	0	1	0	0	0	0	2	1	0	0	0	0	0	1	0	0	2	1	3	1	0	0	1	0	0	0	0	0	1	0	1	2	0	0	1	1	0	1	1	0	1	0	1	0	1
OTU 24	0	2	1	0	0	8	1	0	0	1	0	0	0	6	0	0	0	0	0	1	4	0	0	1	4	0	0	0	0	0	1	6	0	4	0	0	0	0	0	3	1	1	6	0	0	0	0	0	0	0
OTU 25	0	0	0	0	0	0	0	0	0	0	0	0	0	0	0	0	0	0	0	0	0	0	0	0	0	0	0	0	0	0	0	0	0	0	0	0	0	0	0	0	1	0	0	0	0	0	0	0	0	0
OTU 26	0	0	0	0	0	2	0	0	0	0	0	0	0	0	0	0	0	0	0	0	1	1	2	0	0	0	1	0	0	0	0	2	0	0	2	0	0	1	0	0	0	0	0	24	0	0	2	0	0	0
OTU 27	0	0	0	0	0	0	0	0	0	0	0	0	0	0	1	0	0	0	0	0	0	0	0	0	0	0	0	0	0	0	0	0	0	0	0	0	0	0	0	0	0	0	0	0	0	0	0	0	0	0
OTU 28	0	0	2	2	0	0	4	1	0	0	1	0	0	13	0	0	1	0	1	0	5	1	8	7	141	0	1	4	2	0	12	4	0	0	1	0	0	0	0	0	0	0	2	0	0	0	3	1	6	3
OTU 29	2	0	3	0	0	0	0	1	2	0	0	0	0	3	2	0	2	1	0	1	2	0	1	0	5	0	2	1	1	2	0	0	1	0	1	1	2	0	0	0	0	0	0	0	0	3	0	1	2	0
OTU 30	0	0	0	0	0	0	0	0	0	0	0	0	0	0	0	0	0	0	0	0	0	0	0	0	0	0	0	0	0	0	0	0	0	0	0	0	0	0	0	0	0	0	0	0	0	0	0	0	0	0
OTU 31	10	1	0	30	16	0	0	0	19	21	17	0	0	0	0	0	5	0	14	1	0	0	0	1	0	0	2	0	19	0	6	55	8	0	0	16	16	38	0	24	1	0	0	0	0	0	1	25	1	0
OTU 32	3	0	0	0	1	0	3	2	0	6	0	2	0	2	6	1	2	0	2	13	3	0	0	5	3	0	0	0	1	2	1	4	0	0	3	2	2	1	6	2	1	3	44	0	2	6	0	2	0	0
OTU 33	0	0	0	0	0	0	0	0	0	0	0	2	0	0	0	0	0	0	1	0	0	0	0	0	0	0	0	0	0	0	0	2	0	0	0	0	0	2	0	0	0	0	0	0	0	0	0	0	0	0
OTU 34	77	2	0	4	0	1	0	0	0	0	0	0	6	2	0	1	0	2	0	2	0	0	1	1	0	1	0	2	0	1	6	14	1	0	1	1	3	3	0	2	0	1	2	7	0	3	0	0	0	2
OTU 35	0	0	0	0	2	0	0	0	0	12	3	0	1	0	5	1	0	0	2	0	1	3	0	2	1	0	0	2	0	0	0	0	5	1	4	1	2	0	2	0	0	0	0	0	2	4	1	1	1	1
OTU 36	0	0	6	0	2	0	3	0	0	1	6	7	0	0	4	0	0	0	0	1	0	0	1	0	0	0	0	2	1	1	0	0	0	2	0	0	1	0	4	4	1	2	0	0	3	0	0	2	0	0
OTU 37	0	1	0	0	0	0	0	2	0	0	0	0	0	0	0	0	0	0	0	1	0	0	0	0	0	0	0	7	0	0	0	0	0	0	0	0	1	0	0	0	0	0	0	0	0	0	0	0	0	4
OTU 38	1	17	1	8	1	4	12	3	8	6	2	31	1	5	9	129	21	8	1	11	1	11	19	20	2	20	6	13	10	1	1	12	1	7	0	2	0	8	2	8	9	1	3	0	11	6	6	4	5	5
OTU 39	0	0	0	0	1	0	0	0	0	0	0	2	0	0	0	0	1	0	0	0	2	0	0	0	1	0	2	0	0	0	0	0	0	0	1	0	0	0	0	0	1	1	0	0	2	0	0	0	0	0
OTU 40	0	0	2	0	0	2	3	0	0	0	3	3	2	13	1	0	0	0	3	2	1	1	0	2	4	1	1	0	3	0	2	0	3	0	1	16	2	0	2	6	1	0	2	0	0	3	0	2	0	0
OTU 41	1	0	1	0	0	2	0	0	0	0	0	0	2	0	0	1	0	1	0	4	0	0	0	0	0	0	1	0	0	0	1	0	0	2	1	0	0	0	0	1	0	1	0	0	2	0	0	0	1	0
OTU 42	0	0	0	0	0	0	0	0	0	0	0	11	1	2	0	0	0	0	0	0	0	0	0	0	0	0	0	2	0	0	0	0	0	1	0	0	0	1	1	0	0	119	0	0	0	0	2	0	0	0
OTU 43	0	0	0	0	0	0	0	0	0	0	0	0	0	0	0	0	0	0	0	0	0	0	0	0	0	0	0	0	0	0	0	0	0	0	0	0	0	0	0	0	0	0	0	0	0	0	0	0	0	0
OTU 44	1	0	3	0	0	0	0	0	0	0	0	0	0	0	0	0	0	0	0	0	0	1	0	0	0	0	0	0	4	0	0	2	0	0	0	0	0	0	0	2	0	0	0	0	0	12	0	0	0	0
OTU 45	1	0	1	0	1	179	0	1	1	1	0	0	1	0	0	3	2	0	1	1	0	0	2	1	2	0	1	0	0	5	4	2	0	0	10	0	0	1	1	2	0	0	1	0	0	0	1	0	0	0
OTU 46	3	5	1	0	0	0	0	1	0	6	0	1	1	18	2	22	1	0	2	0	0	0	4	0	13	0	2	2	2	5	3	1	2	5	0	15	0	1	0	2	1	5	6	1	3	0	0	1	0	2
OTU 47	0	0	0	0	0	0	0	0	0	0	0	0	0	1	0	0	1	0	0	4	0	0	0	0	0	0	1	0	2	0	0	0	0	1	0	0	0	0	0	4	65	0	0	0	0	1	0	1	0	0
OTU 48	1	1	0	0	0	2	6	0	0	1	0	3	4	0	20	1	2	0	2	1	7	4	0	0	4	0	0	3	0	0	1	0	0	1	2	0	4	9	0	1	3	1	1	1	21	7	2	5	1	1
OTU 49	0	2	0	0	1	0	1	0	0	0	0	2	0	1	0	3	0	3	2	0	0	0	0	0	0	0	0	0	0	1	1	0	1	0	0	0	0	0	0	0	0	0	2	1	0	4	0	0	2	0
OTU 50	1	1	6	0	0	0	1	60	1	0	4	2	11	0	0	0	0	0	1	1	2	2	2	2	1	4	0	123	0	4	1	1	4	7	0	0	0	2	1	11	1	68	1	0	0	4	0	0	2	57
OTU 51	0	2	0	2	0	0	0	0	23	0	1	0	0	1	8	1	0	0	1	0	2	1	1	0	0	0	0	0	1	0	0	0	0	0	4	0	0	0	0	1	0	0	2	0	3	0	21	1	0	0
OTU 52	1	2	7	2	0	3	0	0	3	2	2	1	0	7	0	7	5	1	4	1	6	1	4	0	6	0	0	0	0	5	1	1	2	0	8	1	3	1	3	7	2	2	4	1	0	2	1	1	1	1
OTU 53	0	0	0	0	0	0	0	0	0	0	0	0	0	0	0	0	0	0	0	0	0	0	0	1	0	0	0	0	0	0	0	0	0	0	0	0	0	0	0	0	1	0	0	0	0	0	0	0	0	0
OTU 54	2	3	2	0	2	0	1	1	1	0	14	56	2	26	11	4	27	0	1	1	4	52	0	2	9	4	5	3	1	1	3	37	0	1	1	0	2	18	0	4	1	9	2	3	8	2	15	1	1	2
OTU 55	0	0	0	0	0	0	0	0	0	0	0	0	0	0	0	0	0	0	0	0	0	0	0	0	0	0	0	0	0	0	0	0	0	2	0	0	0	1	0	0	0	0	0	0	0	0	0	0	0	0
OTU 56	4	0	2	0	0	0	0	0	0	0	0	0	1	0	0	0	0	0	0	0	1	0	0	4	3	0	0	0	0	0	0	0	0	0	2	0	0	0	0	0	0	0	0	0	0	0	0	0	0	0
OTU 57	63	2	0	1	4	6	0	1	0	2	3	6	3	28	0	0	1	2	1	0	2	67	5	0	4	3	0	2	0	0	112	0	1	11	8	3	12	0	0	0	13	2	0	15	28	33	2	0	1	0
OTU 58	0	0	0	0	0	0	1	0	0	0	0	0	0	1	2	0	0	5	0	1	0	0	0	2	0	9	0	0	0	0	3	1	0	0	2	0	3	5	0	0	0	0	0	0	0	0	0	0	1	1
OTU 59	0	3	1	4	1	0	6	1	0	0	4	0	0	1	0	0	0	24	0	37	0	0	19	23	0	44	16	15	1	0	0	0	0	0	0	2	0	0	2	0	33	7	0	1	0	0	0	3	6	6
OTU 60	1	1	0	0	2	4	0	4	0	0	3	4	0	4	5	0	0	3	0	1	0	6	0	4	1	5	0	3	0	5	1	2	3	0	0	0	1	0	0	0	4	3	0	0	1	0	0	104	0	1
OTU 61	0	2	15	0	0	4	6	2	1	1	1	3	0	2	2	0	4	2	0	9	3	4	0	3	0	2	1	2	0	3	2	3	2	6	7	0	0	2	2	1	1	3	2	0	0	1	1	0	0	0
OTU 62	0	0	0	1	0	0	0	0	0	0	1	0	2	0	0	0	0	3	1	0	0	0	0	2	1	0	0	0	2	0	1	0	0	0	0	1	0	0	0	4	0	0	0	0	1	0	1	0	0	31
OTU 63	0	0	3	0	0	0	0	1	0	0	0	2	0	0	0	0	2	0	0	0	0	0	0	3	1	0	0	1	0	1	1	2	1	2	5	1	0	1	0	0	1	1	0	2	1	0	0	1	14	0
OTU 64	2	3	5	0	0	3	0	2	0	2	2	1	1	1	4	1	0	0	3	4	0	2	3	0	5	0	0	2	2	1	1	0	1	0	0	1	0	0	0	4	2	1	4	3	0	1	5	0	2	0
OTU 65	0	0	0	0	0	0	0	0	0	0	0	0	0	0	0	0	0	0	0	0	0	0	0	0	0	0	0	0	0	2	0	0	0	1	0	0	0	0	0	0	0	0	0	0	0	0	0	1	0	0
OTU 66	4	2	0	0	1	0	0	2	2	0	0	1	0	2	0	0	0	0	9	7	3	3	0	3	0	1	0	0	0	0	0	0	2	1	6	0	0	0	1	0	1	0	1	1	1	0	0	1	0	0
OTU 67	0	0	0	2	0	3	0	2	1	1	1	0	0	23	6	0	1	0	1	0	6	0	2	3	3	1	0	0	1	7	0	0	0	0	0	2	0	0	0	0	1	0	0	0	0	1	0	0	6	0
OTU 68	0	0	1	1	2	0	0	0	0	1	1	0	1	0	0	0	0	0	0	0	0	0	0	0	0	0	0	0	4	0	2	1	0	0	0	2	0	1	1	1	0	0	0	0	0	1	0	0	0	0
OTU 69	0	3	3	1	1	0	1	1	0	0	0	2	0	2	4	0	0	0	2	2	0	0	2	2	0	0	0	0	1	0	6	0	6	2	1	0	0	32	1	2	3	3	2	1	0	2	0	0	0	0
OTU 70	2	0	0	0	0	0	0	0	5	0	0	1	0	3	1	0	0	0	0	0	0	0	0	0	1	1	0	1	1	0	0	0	0	0	0	0	0	0	0	0	1	2	1	0	0	1	1	0	0	0
OTU 71	0	0	1	0	0	0	0	1	1	0	0	0	0	0	0	0	0	0	1	2	2	0	9	10	0	1	0	5	0	0	2	1	0	0	0	0	0	0	0	0	0	0	0	4	0	0	0	0	5	4
OTU 72	0	0	0	0	1	1	1	0	1	1	0	0	4	0	0	1	6	0	0	2	1	0	0	1	4	4	0	0	0	1	0	0	0	0	1	0	0	0	1	0	2	0	0	0	2	0	0	1	0	0
OTU 73	1	10	2	0	0	1	0	1	0	1	0	4	1	0	1	0	0	0	0	0	3	0	1	1	1	0	0	1	0	6	0	1	0	0	11	0	0	0	0	0	3	3	4	0	0	1	0	4	0	0
OTU 74	1	5	0	5	4	1	3	0	0	0	1	0	0	3	0	52	0	2	0	0	0	1	2	1	1	3	1	0	0	0	0	2	0	0	0	1	2	0	1	0	1	1	0	0	0	0	0	0	1	0
OTU 75	1	0	0	1	2	2	0	1	0	0	0	0	1	1	0	3	0	0	4	0	2	0	0	3	2	0	0	1	0	1	3	29	2	0	4	0	4	14	0	1	0	6	0	0	0	0	1	3	2	0
OTU 76	0	1	0	0	1	0	0	0	0	0	2	0	0	0	0	0	1	0	25	0	0	0	0	0	1	0	1	0	0	0	0	0	8	0	3	0	1	0	0	0	0	0	0	0	0	0	0	2	0	0
OTU 77	0	1	3	1	1	1	3	1	5	0	1	1	0	0	1	1	0	0	3	0	8	1	3	8	1	0	0	1	0	0	2	1	1	1	0	0	2	0	0	0	2	0	0	0	2	0	2	2	0	37
OTU 78	1	0	4	0	33	9	3	0	0	0	0	3	86	0	2	0	0	1	0	0	1	0	0	0	0	0	0	1	1	0	3	1	0	0	5	0	1	1	0	0	0	0	0	2	2	0	0	12	0	0
OTU 79	5	6	2	6	1	1	0	3	2	1	0	3	31	4	3	0	1	2	1	3	1	8	1	7	11	3	1	1	0	5	3	1	24	4	8	1	8	0	3	0	0	5	0	4	4	1	3	1	2	1
OTU 80	2	2	0	2	84	1	1	0	0	1	0	0	1	0	0	1	0	3	0	5	2	0	0	2	0	4	2	0	1	0	0	0	0	10	0	3	0	0	1	0	0	0	0	2	0	0	0	0	1	0
OTU 81	0	1	1	0	2	4	0	3	2	1	0	13	6	68	1	1	1	4	0	0	0	2	1	0	41	1	7	3	1	0	0	8	0	2	4	0	3	4	0	4	0	0	1	2	6	1	0	2	1	1
OTU 82	0	0	0	0	1	1	0	0	2	0	0	1	0	2	43	2	0	0	0	2	1	4	0	0	0	0	0	1	0	2	0	5	2	0	1	0	2	2	1	5	0	0	1	0	3	86	30	0	8	0
OTU 83	4	0	0	0	0	2	0	0	0	1	0	0	0	0	0	0	0	0	0	0	2	0	0	1	0	0	1	0	0	0	0	0	0	2	0	0	0	0	0	2	0	0	0	0	1	0	0	0	0	0
OTU 84	0	1	0	0	0	2	0	0	1	0	0	0	1	0	88	0	0	0	0	0	1	0	0	0	0	0	0	0	0	2	2	0	0	0	0	1	2	0	0	0	0	2	1	0	0	1	56	0	0	0
OTU 85	0	2	0	0	0	0	0	0	0	0	0	0	0	0	0	0	1	0	0	0	0	0	1	0	2	0	0	0	0	2	0	1	0	4	0	0	2	0	0	0	0	0	1	0	0	1	0	0	0	0
OTU 86	0	0	0	0	0	0	0	0	0	0	0	0	0	0	0	0	0	0	0	1	0	0	0	2	0	0	0	0	1	0	0	0	0	0	1	0	0	0	0	0	0	2	0	0	0	0	0	0	0	0
OTU 87	0	0	22	0	0	0	0	0	0	0	1	1	0	0	0	0	0	0	0	0	1	0	0	0	0	0	0	0	1	0	0	0	0	0	0	0	0	0	0	1	1	0	0	0	0	0	0	0	0	0
OTU 88	0	0	0	0	0	0	0	0	0	0	0	0	1	0	0	0	0	0	0	0	0	0	0	0	0	0	0	4	0	0	0	0	0	0	0	0	2	0	0	0	0	0	0	0	0	0	0	0	0	0
OTU 89	0	0	1	0	2	0	0	0	0	0	0	2	0	2	0	0	0	0	0	2	0	1	0	0	1	0	0	0	0	2	0	0	0	0	0	0	0	0	0	0	0	0	0	0	1	0	2	0	0	0
OTU 90	0	0	0	0	0	0	0	0	0	0	0	0	0	0	0	0	0	0	0	0	2	0	0	0	0	0	0	0	0	0	0	0	0	0	0	1	0	0	0	0	0	0	0	0	0	0	0	0	0	0
OTU 91	0	0	0	0	0	0	0	0	0	0	0	0	0	0	0	0	0	0	0	0	0	0	0	0	0	0	0	0	0	0	0	0	0	0	1	0	0	0	0	0	0	0	0	0	0	0	0	0	0	0
OTU 92	0	1	0	1	0	0	0	0	0	0	0	0	2	0	1	0	1	0	0	0	4	0	4	0	0	0	0	0	0	0	0	1	0	0	0	0	1	1	0	0	0	0	0	0	0	0	1	0	5	0
OTU 93	0	1	0	0	0	0	1	0	0	0	0	0	1	0	0	0	0	0	0	4	0	0	6	0	0	0	0	0	1	0	0	0	0	0	0	0	1	0	0	0	0	0	0	0	0	0	0	0	0	0
OTU 94	10	1	0	0	0	3	3	1	9	15	6	7	0	0	1	0	0	8	13	0	0	0	0	1	0	0	1	0	5	0	14	3	0	5	0	1	0	1	0	10	1	1	0	0	0	1	2	13	0	0
OTU 95	0	0	2	0	0	0	0	0	0	0	0	3	0	0	0	0	0	0	0	1	0	0	0	0	0	0	0	0	0	0	0	0	2	0	0	0	2	0	0	0	0	0	0	0	0	0	0	0	0	0
OTU 96	0	0	0	0	0	0	3	0	0	0	0	0	0	0	0	0	0	0	0	0	0	0	0	0	0	0	0	0	0	0	0	0	0	0	0	0	0	0	0	0	0	0	0	0	0	0	0	0	0	0
OTU 97	0	0	0	2	3	0	8	0	8	3	12	20	0	0	0	0	5	0	1	6	0	4	0	0	0	8	1	0	2	0	0	12	5	0	0	0	0	3	3	13	4	0	0	0	0	0	2	12	0	0
OTU 98	0	0	1	0	0	0	0	0	0	0	0	0	1	0	0	0	0	0	0	0	0	1	0	0	0	0	0	0	0	0	0	0	0	0	2	1	0	0	3	0	1	0	0	0	0	0	0	0	1	1
OTU 99	2	4	3	1	0	0	6	3	0	1	0	0	5	0	0	1	0	1	1	0	0	1	4	5	0	0	1	2	1	0	1	2	1	1	6	0	0	2	0	0	0	0	3	2	0	0	0	0	1	0
OTU 100	0	4	0	0	0	4	0	10	0	0	0	0	0	0	1	0	0	0	0	0	0	0	3	3	0	1	0	0	0	1	0	0	0	0	1	0	2	0	0	1	2	1	2	0	0	0	0	0	2	0
OTU 101	0	0	0	0	0	0	0	0	0	0	0	1	0	0	0	0	0	0	0	0	0	0	0	0	0	0	0	0	0	0	0	0	0	0	0	0	0	0	0	0	0	0	0	0	0	0	1	0	0	0
OTU 102	0	0	0	0	0	0	1	0	0	0	0	3	0	1	0	0	0	0	1	0	1	0	0	0	0	0	0	0	0	4	0	0	0	0	0	2	0	0	0	0	0	0	0	0	0	0	1	0	0	0
OTU 103	0	3	0	0	0	0	3	1	0	1	3	1	2	1	4	3	0	0	0	0	2	0	4	0	0	0	2	1	0	0	0	0	0	0	2	0	0	0	1	0	0	1	2	3	1	0	0	0	0	2
OTU 104	5	0	0	5	0	0	3	2	0	2	0	2	0	0	0	3	1	0	0	3	0	4	2	4	0	2	1	7	47	1	3	1	2	0	2	0	0	0	2	1	0	16	0	5	0	2	0	0	1	4
OTU 105	0	0	0	0	0	0	0	0	0	0	0	0	0	4	0	0	0	0	0	0	0	0	0	0	0	0	0	1	3	1	0	0	0	0	0	0	0	0	0	1	0	0	0	0	0	2	0	0	0	1
OTU 106	0	3	0	4	2	0	0	0	10	0	0	0	0	2	0	0	0	1	0	0	1	0	0	0	1	0	0	0	0	3	0	0	0	0	0	1	0	0	0	0	0	0	2	0	0	1	0	3	0	0
OTU 107	0	0	0	0	0	1	48	0	0	59	0	0	0	0	0	5	1	0	2	80	2	0	0	2	0	0	0	5	0	0	1	1	0	0	0	0	0	0	17	0	0	3	0	0	4	0	3	0	3	3
OTU 108	0	2	2	2	1	1	0	0	4	0	2	2	0	1	0	2	0	0	5	0	0	0	0	1	0	0	102	0	1	0	5	0	0	0	0	1	24	0	0	3	0	0	0	0	0	0	0	2	1	1
OTU 109	0	0	0	0	0	0	0	0	0	0	0	0	0	0	0	0	0	0	0	0	0	0	0	0	0	0	0	0	0	0	0	0	0	0	0	0	0	0	0	0	0	0	0	0	0	0	0	0	0	0
OTU 110	0	4	3	1	1	8	1	0	1	0	3	2	0	1	0	6	0	0	0	1	0	2	0	1	1	0	0	0	0	94	0	7	0	0	2	1	0	2	0	2	6	4	2	1	0	1	0	1	0	2
OTU 111	0	0	1	0	0	0	0	0	0	0	0	0	0	0	0	0	0	0	0	0	0	0	0	0	0	0	0	4	0	2	0	0	0	1	0	0	1	0	0	0	0	0	1	0	0	0	0	0	0	1
OTU 112	0	0	0	1	0	0	0	0	0	0	1	0	1	2	0	1	0	1	4	1	0	0	2	3	0	0	1	2	0	7	0	0	2	1	0	1	0	0	1	1	0	3	0	0	0	0	0	3	3	1
OTU 113	0	0	0	0	0	0	0	0	0	0	0	0	0	0	0	0	0	0	0	0	0	0	0	0	0	0	0	1	0	0	0	0	0	0	0	0	0	0	0	1	0	0	0	0	0	0	0	0	0	0
OTU 114	4	1	0	1	1	1	3	1	109	6	6	0	0	0	4	0	0	0	0	0	48	2	5	0	1	0	0	4	2	0	7	0	0	0	7	0	0	1	2	10	0	0	2	2	8	0	0	2	2	2
OTU 115	4	0	1	5	0	3	0	4	0	2	2	3	0	1	0	1	4	171	1	1	11	2	1	2	1	2	3	6	1	4	1	2	1	2	1	0	2	0	1	2	0	2	0	0	0	1	84	0	2	2
OTU 116	4	40	2	18	17	5	1	1	8	19	6	2	4	8	0	14	1	3	10	0	0	3	1	0	0	1	0	2	10	3	21	2	4	2	4	12	20	0	0	12	1	0	14	1	1	3	0	5	0	2
OTU 117	0	3	0	0	1	9	0	0	0	0	0	1	6	4	0	0	0	0	0	0	1	2	0	0	3	0	0	1	0	2	0	0	0	0	0	1	0	0	0	0	3	3	3	1	0	5	0	0	0	0
OTU 118	0	0	0	0	0	1	1	0	0	0	1	1	2	0	0	1	0	0	1	0	0	3	0	1	0	0	0	0	0	0	0	0	0	0	0	0	0	0	1	0	0	6	0	0	0	1	0	0	1	0
OTU 119	1	4	1	0	0	1	1	0	1	20	1	1	4	0	1	0	0	0	1	0	4	1	1	1	0	1	0	0	0	1	0	0	1	12	1	0	0	0	1	0	0	0	0	0	0	0	0	1	1	1
OTU 120	0	7	0	0	0	0	0	0	0	0	0	0	0	0	0	0	0	0	0	0	5	0	0	0	0	3	0	0	0	2	0	0	0	3	2	7	0	0	0	2	0	0	4	0	0	0	0	0	0	0
OTU 121	0	1	3	1	0	0	0	0	0	2	4	1	0	1	5	1	0	0	0	1	0	0	0	0	0	4	0	0	1	0	1	0	0	6	4	0	0	1	0	5	0	0	2	1	0	0	0	11	0	1
OTU 122	0	1	0	0	0	0	1	0	0	0	0	0	2	0	1	1	0	0	0	0	0	2	0	1	0	0	0	0	0	20	5	1	1	1	0	1	2	4	0	0	0	2	0	2	0	0	1	0	0	0
OTU 123	1	85	2	33	8	5	5	10	1	3	55	22	18	8	12	59	16	2	10	2	7	21	0	8	4	3	6	5	3	5	4	15	4	2	5	0	5	3	1	9	4	7	32	1	92	7	13	3	2	3
OTU 124	0	0	1	0	56	3	0	0	0	1	0	0	0	0	2	1	0	0	1	0	5	0	0	1	2	0	0	0	0	0	0	0	0	0	0	0	1	0	2	0	0	0	1	0	0	0	0	3	1	0
OTU 125	3	2	2	114	50	7	6	1	2	8	2	4	10	10	3	0	0	2	10	2	2	3	1	9	6	4	4	10	1	10	3	2	10	0	2	1	3	0	81	4	6	3	3	2	2	13	3	1	6	3
OTU 126	0	2	0	0	0	0	0	2	0	0	0	0	0	0	0	0	0	0	0	0	0	0	0	0	0	0	0	0	0	1	0	0	0	0	0	0	0	0	0	0	0	0	0	0	0	5	0	0	0	0
OTU 127	0	0	0	0	0	0	0	1	0	0	0	0	4	0	0	5	0	0	0	0	5	0	1	0	1	1	0	0	0	0	3	3	0	0	0	0	2	2	0	0	0	0	0	0	1	0	0	0	0	0
OTU 128	2	6	1	7	12	2	4	2	5	6	11	5	5	1	1	1	3	4	2	2	0	2	8	2	1	9	1	3	5	3	7	8	1	3	3	4	28	5	2	13	4	3	4	0	2	7	1	45	2	3
OTU 129	0	0	0	0	0	0	0	0	0	0	0	0	1	0	0	1	0	0	0	0	0	0	0	0	0	0	0	0	0	0	0	0	0	1	0	0	0	0	0	1	0	0	0	0	0	1	0	0	0	0
OTU 130	0	1	1	1	0	2	2	0	0	2	1	1	2	0	0	0	2	11	2	0	8	3	1	0	0	47	23	0	0	0	5	5	5	0	0	1	4	0	1	0	0	0	0	0	0	1	0	0	0	19
OTU 131	3	1	0	0	0	0	0	0	0	0	1	0	1	0	8	0	0	0	1	0	0	1	2	0	0	1	1	1	0	0	0	1	0	0	1	9	0	0	1	0	7	0	0	0	1	23	0	0	0	0
OTU 132	0	2	0	0	0	1	3	171	3	2	3	0	1	1	0	0	0	0	0	0	2	0	0	0	0	0	0	0	0	4	1	0	0	0	121	46	1	0	0	0	0	1	3	0	0	1	0	0	0	0
OTU 133	0	0	0	0	1	0	0	0	0	0	0	0	1	0	0	0	0	0	0	0	0	0	0	0	0	0	0	0	0	0	0	0	0	1	0	0	0	0	0	0	0	1	0	0	0	0	0	0	3	1
OTU 134	2	0	0	0	0	0	0	0	1	1	1	5	5	0	1	2	0	2	1	0	5	2	1	0	5	1	0	0	0	2	0	0	2	0	1	8	0	0	1	1	1	0	0	0	0	0	0	0	0	1
OTU 135	0	0	0	2	0	0	0	3	0	0	0	2	0	0	5	0	0	0	1	5	5	0	0	1	0	0	0	5	0	0	1	0	0	0	2	0	2	0	0	1	0	1	0	0	1	2	0	0	2	3
OTU 136	0	0	2	0	1	0	0	0	0	0	2	0	3	0	0	0	0	0	0	0	2	0	0	0	0	0	1	1	0	0	0	1	0	1	2	3	0	0	1	0	2	0	0	0	3	0	0	0	5	0
OTU 137	0	0	1	0	0	0	0	0	2	1	0	0	0	0	0	1	0	1	0	0	0	0	0	0	0	0	0	0	0	13	0	0	0	0	0	0	0	0	0	0	0	1	0	0	14	0	0	0	0	0
OTU 138	3	0	0	0	0	0	0	0	2	0	0	0	0	0	0	0	0	1	1	1	0	0	0	0	1	0	0	0	0	0	0	0	0	0	0	0	1	0	2	0	0	1	1	0	0	0	0	0	0	0
OTU 139	0	6	0	0	1	0	2	0	4	6	0	0	0	2	3	0	0	5	1	3	7	3	1	4	1	2	3	0	2	0	6	2	0	52	0	0	3	1	6	1	0	2	2	0	0	8	0	1	53	0
OTU 140	22	0	0	0	1	3	2	2	18	19	30	1	8	7	1	2	0	3	95	1	2	2	1	4	0	2	0	0	34	2	29	2	48	1	4	6	1	3	0	49	0	1	0	2	4	3	1	14	1	2
OTU 141	0	0	0	0	0	0	0	0	0	0	0	0	5	0	0	0	0	0	0	0	0	0	0	0	22	0	0	0	0	0	0	0	0	0	0	0	0	0	0	0	0	0	0	0	0	0	0	0	0	0
OTU 142	0	0	0	0	0	0	0	0	0	0	0	0	0	0	0	0	0	0	0	0	0	0	0	0	0	0	0	0	0	1	0	0	0	0	0	0	0	0	0	0	0	0	0	0	0	1	0	0	0	0
OTU 143	0	0	0	0	0	1	0	0	0	0	0	0	0	0	0	0	0	0	17	1	0	0	0	0	0	0	0	0	0	2	0	0	4	0	0	0	1	0	0	5	0	1	0	0	0	0	0	0	0	0
OTU 144	0	5	0	0	0	0	0	0	0	0	0	0	0	0	0	0	0	0	0	0	0	0	0	0	0	0	0	0	0	0	2	0	0	0	0	0	0	0	0	0	0	0	1	0	0	0	0	0	0	0
OTU 145	1	1	0	0	0	1	3	2	7	0	1	1	2	1	4	3	3	1	0	0	0	1	0	0	1	0	0	1	0	0	1	0	0	0	0	0	1	0	1	2	1	2	1	0	1	39	1	0	0	0
OTU 146	0	5	0	0	2	1	1	0	0	1	90	3	4	2	0	2	2	0	0	2	0	2	2	1	0	0	0	0	0	1	0	0	0	2	0	0	2	0	1	1	1	0	0	0	0	2	0	1	0	0
OTU 147	1	4	0	0	1	0	0	0	0	0	1	1	0	0	1	0	0	3	0	2	0	0	0	0	0	0	0	0	0	1	0	0	0	3	0	0	16	0	0	0	0	0	2	0	0	0	0	0	0	0
OTU 148	9	0	0	0	0	0	0	0	0	2	0	0	0	2	0	0	0	0	0	0	0	0	2	0	0	7	6	0	0	0	3	0	0	7	3	0	0	136	0	4	0	0	1	0	0	1	0	0	0	0
OTU 149	1	0	2	0	0	2	0	0	0	2	0	0	0	0	0	0	0	0	0	1	1	0	0	1	0	0	0	0	0	4	0	0	0	0	0	0	0	0	0	1	1	0	0	0	0	0	1	3	0	0
OTU 150	0	0	0	0	0	1	1	0	0	0	0	0	0	0	0	1	0	0	0	0	0	0	0	0	0	0	0	0	0	0	0	0	0	5	0	0	4	0	1	0	0	0	0	0	0	0	0	0	0	0
OTU 151	0	0	0	0	1	0	0	0	0	0	0	0	0	0	0	0	4	3	1	1	0	0	0	0	0	6	0	1	0	2	0	0	0	0	4	0	74	1	0	0	0	0	0	0	0	0	0	0	0	0
OTU 152	0	1	0	0	0	0	0	2	1	0	0	0	1	5	0	0	0	0	1	1	3	1	1	2	1	0	0	1	1	0	0	3	0	0	0	0	2	3	0	2	0	0	0	0	8	0	0	3	1	0
OTU 153	0	0	0	0	0	1	0	0	0	0	0	0	1	0	0	0	0	0	0	0	0	1	0	0	0	1	1	0	0	0	0	0	0	0	0	0	0	0	0	0	0	0	0	0	0	0	0	0	0	0
OTU 154	0	0	0	0	0	2	0	0	0	0	0	0	0	0	0	0	0	0	0	0	0	0	0	0	0	0	0	0	0	0	0	0	0	0	0	0	0	0	0	0	2	0	0	0	0	0	0	0	1	0
OTU 155	1	0	0	1	0	0	0	0	5	1	1	5	0	0	0	0	0	0	0	0	0	2	4	0	0	0	0	0	3	0	0	1	0	1	0	0	2	0	0	2	2	0	0	0	0	1	0	1	1	0
OTU 156	9	6	5	4	6	2	8	4	12	13	12	26	0	5	3	2	7	7	5	18	2	12	13	14	3	18	2	7	7	4	6	11	3	0	0	1	17	0	4	22	11	5	3	1	7	0	1	4	8	1
OTU 157	0	0	0	0	0	0	0	18	0	0	0	0	0	0	0	0	1	1	1	1	0	0	40	72	0	0	0	19	0	0	3	0	0	0	1	0	0	0	1	0	0	14	0	4	0	0	0	0	20	13
OTU 158	0	0	0	0	0	0	0	0	2	0	0	0	0	0	0	0	0	0	0	0	0	0	0	0	0	0	0	2	0	0	0	0	0	2	0	0	0	0	0	0	0	0	0	0	0	0	0	0	0	1
OTU 159	0	27	0	1	0	2	0	0	0	1	1	2	0	1	0	2	0	0	3	1	0	1	0	0	0	0	1	1	2	2	0	3	0	0	3	1	0	2	1	5	3	0	12	1	0	0	0	0	0	0
OTU 160	6	4	4	1	1	3	140	2	0	0	5	3	4	1	3	4	0	20	0	0	1	2	24	4	0	55	25	15	1	4	13	1	1	5	1	9	2	4	89	1	7	0	2	41	0	1	1	0	9	9
OTU 161	0	0	7	1	0	0	4	1	0	1	1	0	0	2	1	3	0	0	0	1	9	1	0	0	1	0	0	0	0	3	2	2	2	0	0	1	1	1	0	1	1	0	0	0	0	3	0	0	0	0
OTU 162	0	0	2	0	1	0	2	0	3	0	0	0	0	1	0	2	17	0	2	4	0	1	95	3	3	4	0	1	1	1	1	0	0	0	0	0	0	1	0	1	0	0	0	26	0	0	0	0	8	1
OTU 163	0	0	0	1	0	1	0	0	0	0	0	0	0	0	2	0	0	0	0	0	0	0	0	0	0	0	0	1	0	0	0	0	0	0	0	0	0	0	0	0	0	0	0	0	0	0	0	0	0	0
OTU 164	0	0	0	0	0	0	0	0	0	0	0	0	0	0	0	0	0	0	0	0	0	0	0	0	0	0	0	0	0	0	0	0	0	0	0	0	0	0	0	0	0	0	2	0	0	0	0	0	0	0
OTU 165	0	0	0	0	0	5	0	0	0	1	0	0	0	0	0	0	0	2	0	4	1	0	1	0	1	0	0	3	0	2	0	0	97	0	0	0	1	0	1	0	2	0	0	0	0	1	0	0	1	2
OTU 166	0	0	0	0	0	0	0	0	0	0	0	0	0	0	0	0	0	0	0	0	0	0	0	0	0	0	0	0	0	0	0	0	0	0	0	0	0	0	0	0	0	0	0	0	0	0	0	0	0	0
OTU 167	0	2	3	0	1	0	0	1	4	0	0	0	5	0	0	0	3	0	0	5	0	2	1	1	1	0	0	0	0	0	0	1	0	0	0	0	0	3	0	0	1	0	0	1	1	1	0	1	1	0
OTU 168	0	1	10	0	0	2	3	2	0	1	1	0	6	0	4	1	3	0	0	0	5	0	1	3	1	1	0	2	90	0	0	4	0	4	0	0	0	4	2	0	0	0	1	0	0	0	1	0	0	0
OTU 169	0	0	0	0	0	0	0	0	0	0	0	0	0	0	0	0	0	0	0	0	0	0	0	0	1	0	0	0	0	0	0	0	0	0	0	0	1	0	0	0	0	0	0	0	0	0	0	0	0	0
OTU 170	0	0	0	0	0	0	0	0	0	0	0	0	0	0	0	0	0	0	0	0	0	0	0	0	0	0	0	0	0	0	0	0	0	1	0	0	0	0	0	0	0	0	0	0	0	0	0	0	0	0
OTU 171	1	1	0	2	1	0	1	1	2	0	1	0	5	1	1	0	0	0	2	3	0	0	0	0	0	0	1	0	3	0	0	0	0	8	0	2	0	0	0	6	2	5	0	0	1	0	1	0	0	0
OTU 172	0	0	0	0	0	0	0	0	1	0	0	0	1	0	0	0	3	0	0	0	0	0	0	0	1	0	0	0	0	0	0	0	0	0	0	0	0	0	0	0	0	0	0	0	0	0	0	0	0	0
OTU 173	4	1	0	2	1	6	0	2	0	0	1	0	0	4	0	0	1	0	0	0	0	0	0	0	0	0	0	1	1	0	1	1	0	0	0	0	0	0	0	1	0	1	0	0	0	1	1	1	0	0
OTU 174	0	2	2	0	1	0	0	0	2	0	0	0	0	1	0	1	0	0	0	1	0	2	0	0	0	1	2	0	0	3	0	0	0	2	0	0	0	0	0	0	0	0	0	0	0	0	0	0	0	0
OTU 175	0	0	0	0	0	7	0	0	0	0	0	0	0	15	0	0	3	0	0	0	2	34	0	0	12	1	2	0	0	0	0	0	0	0	1	1	0	14	0	0	2	0	0	1	19	1	0	1	0	0
OTU 176	3	0	2	0	0	0	4	0	0	0	3	3	3	1	0	1	1	4	1	1	0	0	0	5	1	3	0	2	0	0	2	2	1	0	0	0	2	1	1	0	22	5	0	0	0	3	1	0	4	2
OTU 177	0	0	0	0	0	0	0	1	0	0	0	1	0	0	1	1	0	19	0	0	4	0	1	1	2	26	12	2	0	0	1	0	0	0	0	0	2	0	0	0	0	0	0	15	1	0	1	2	2	0
OTU 178	0	0	1	1	0	0	0	0	0	0	1	1	0	0	0	0	91	0	0	2	0	0	3	0	0	0	0	8	0	0	0	2	0	0	0	2	1	1	0	1	1	0	0	0	1	2	0	1	0	4
OTU 179	0	1	0	0	0	2	0	2	1	1	0	0	0	0	0	0	0	0	0	0	0	0	1	2	0	0	0	1	0	3	0	0	0	2	0	1	1	0	0	1	0	0	0	0	0	0	0	0	1	105
OTU 180	8	5	4	3	0	4	3	1	3	2	3	39	4	3	8	1	32	2	0	8	65	22	4	3	3	1	1	2	0	10	2	24	1	1	12	0	0	13	98	3	1	9	1	8	16	12	11	0	1	4
OTU 181	0	0	0	0	1	1	0	7	0	0	1	1	0	1	0	0	0	3	0	0	0	0	2	12	4	7	11	9	0	0	1	0	0	0	1	0	1	0	1	0	2	3	0	0	0	1	1	0	14	4
OTU 182	0	0	0	0	0	0	0	0	0	0	1	0	0	5	0	0	0	0	0	10	0	0	0	0	0	0	0	0	0	0	0	0	0	0	0	0	0	0	0	0	0	0	0	0	0	2	0	0	0	0
OTU 183	3	0	1	1	0	0	0	1	1	3	0	0	0	1	2	3	2	0	1	2	7	2	0	0	0	0	0	0	0	0	0	0	1	3	0	1	0	1	0	0	0	6	24	0	0	0	1	0	0	0
OTU 184	0	0	1	2	1	1	0	0	0	0	0	2	0	0	0	2	0	0	0	0	2	0	0	0	0	0	2	0	0	0	0	0	0	0	1	0	0	0	0	0	0	0	0	0	0	0	0	0	0	0
OTU 185	0	1	0	1	0	0	16	2	0	0	0	0	0	1	2	0	4	2	0	30	0	1	1	0	1	0	0	0	1	0	1	0	0	0	1	2	10	0	13	1	0	5	61	0	0	5	3	0	0	0
OTU 186	26	0	1	0	0	0	0	0	6	0	0	0	3	0	0	0	0	0	2	0	0	0	0	0	0	0	0	0	0	0	0	0	1	0	0	7	0	0	0	0	0	0	1	0	0	0	2	0	0	0
OTU 187	1	3	0	3	2	3	1	0	7	1	3	0	5	0	0	2	1	4	2	2	5	3	0	0	1	3	3	0	3	0	1	5	3	3	2	0	5	1	0	6	3	0	6	1	0	2	0	2	3	0
OTU 188	1	2	136	46	29	1	1	0	0	0	0	0	2	1	7	2	0	1	1	1	3	4	4	0	3	1	0	6	0	3	0	0	0	1	8	150	3	0	0	2	0	0	0	1	2	0	8	34	2	6
OTU 189	2	10	2	0	0	2	0	4	0	72	3	5	2	8	0	2	0	0	6	0	36	0	1	5	2	1	0	0	0	0	2	0	1	2	0	1	0	1	1	3	1	0	5	0	0	2	0	0	0	0
OTU 190	0	1	1	0	0	0	0	0	0	1	0	0	3	0	0	0	0	0	0	0	0	0	0	0	0	0	0	0	0	0	1	0	0	1	0	0	0	0	0	0	0	0	0	0	0	2	0	0	0	0
OTU 191	16	0	0	0	0	4	0	5	1	0	2	0	0	13	0	2	0	0	0	0	0	25	7	24	4	0	0	6	0	0	0	4	0	0	0	1	3	3	0	0	75	3	0	1	25	2	0	0	18	4
OTU 192	5	1	2	1	0	0	0	1	0	0	1	0	1	0	2	0	1	1	0	0	1	1	2	7	2	1	1	0	0	0	1	4	0	0	43	0	14	0	1	0	0	0	1	1	1	0	0	0	26	0
OTU 193	0	1	2	1	2	1	1	0	0	0	0	1	2	3	0	0	5	0	0	4	1	0	2	1	0	0	56	0	31	7	2	0	0	2	0	0	0	0	1	0	1	0	1	0	0	4	20	0	0	0
OTU 194	3	1	1	0	0	0	1	0	1	0	0	3	1	0	2	0	0	0	1	1	0	0	5	3	0	0	0	0	0	0	1	0	2	0	0	2	0	2	0	3	0	0	0	0	0	0	0	0	0	0
OTU 195	0	0	0	0	0	4	0	0	0	0	0	0	1	0	0	0	2	0	5	3	2	0	3	7	0	2	0	0	0	3	0	0	2	3	6	0	0	0	0	1	1	0	1	0	0	0	0	0	0	0
OTU 196	0	6	1	1	0	1	0	0	1	0	0	2	0	0	0	1	1	1	4	2	1	0	0	2	0	7	0	0	0	0	0	0	1	1	1	7	0	1	0	1	2	1	1	0	1	3	0	0	1	0
OTU 197	0	9	45	0	2	3	0	7	2	2	1	3	0	2	2	2	0	1	15	2	3	0	2	8	6	3	1	0	0	3	2	24	11	7	2	1	4	9	1	3	0	2	4	14	4	2	1	0	4	1
OTU 198	0	0	0	0	0	0	0	0	0	0	0	0	0	0	0	0	0	0	0	0	0	0	0	0	0	0	0	0	0	0	0	0	0	0	0	0	0	0	0	0	0	0	0	1	0	0	0	0	1	0
OTU 199	1	1	0	0	0	0	0	0	0	0	0	0	3	0	0	0	1	2	0	1	0	0	0	0	1	0	0	3	0	0	1	0	0	0	0	2	0	0	1	1	0	0	1	0	1	0	0	0	0	0
OTU 200	0	0	1	1	4	1	5	4	6	1	1	0	7	0	0	0	0	6	1	16	2	0	1	7	0	12	9	6	0	0	1	0	0	5	3	0	4	0	2	0	7	3	0	128	18	2	1	0	10	5
